{"result":true,"data":[{"id":17798,"title":"Фэн-шуй","kp_id":"118035","imdb_id":"tt0430082","world_art_id":null,"type":"movie","add":"2018-07-19 00:26:03","orig_title":"Feng shui","year":"2004-09-15","translations":["Любительский (многоголосый закадровый) (Колобок)"],"quality":"webdl","translation":"Любительский (многоголосый закадровый) (Колобок)","update":"2018-07-19 06:03:59","iframe_src":"//2413.svetacdn.in/IAF0wWTdNYZm/movie/17798"},{"id":17797,"title":"Долой скорбь","kp_id":"1115707","imdb_id":"tt7309430","world_art_id":null,"type":"movie","add":"2018-07-19 00:20:57","orig_title":"Trouble No More","year":"2017-10-02","translations":["Любительский (многоголосый закадровый) (Синема УС)"],"quality":"webdl","translation":"Любительский (многоголосый закадровый) (Синема УС)","update":"2018-07-19 06:07:47","iframe_src":"//2413.svetacdn.in/IAF0wWTdNYZm/movie/17797"},{"id":17796,"title":"Набросок","kp_id":"1046169","imdb_id":"tt6872436","world_art_id":null,"type":"movie","add":"2018-07-19 00:17:38","orig_title":"Sketch","year":"2018-01-11","translations":["Профессиональный (многоголосый закадровый) (GreenРай Studio)"],"quality":"webdl","translation":"Профессиональный (многоголосый закадровый) (GreenРай Studio)","update":"2018-07-19 06:10:30","iframe_src":"//2413.svetacdn.in/IAF0wWTdNYZm/movie/17796"},{"id":17795,"title":"Святая кровь","kp_id":"937155","imdb_id":"tt5081618","world_art_id":null,"type":"movie","add":"2018-07-19 00:12:04","orig_title":"Sacred Blood","year":"2015-10-16","translations":["Профессиональный (многоголосый закадровый)"],"quality":"webdl","translation":"Профессиональный (многоголосый закадровый)","update":"2018-07-19 06:14:45","iframe_src":"//2413.svetacdn.in/IAF0wWTdNYZm/movie/17795"},{"id":17793,"title":"Пугало возвращается","kp_id":"1053384","imdb_id":"tt7370570","world_art_id":null,"type":"movie","add":"2018-07-19 00:07:51","orig_title":"Return of the Scarecrow","year":"2018-01-01","translations":["Любительский (многоголосый закадровый) (Синема УС)"],"quality":"webdl","translation":"Любительский (многоголосый закадровый) (Синема УС)","update":"2018-07-19 06:17:38","iframe_src":"//2413.svetacdn.in/IAF0wWTdNYZm/movie/17793"},{"id":17792,"title":"Пенни Палабрас","kp_id":"1176114","imdb_id":"tt6628386","world_art_id":null,"type":"movie","add":"2018-07-19 00:05:38","orig_title":"Penny Palabras","year":"2018-05-19","translations":["Любительский (многоголосый закадровый) (Синема УС)"],"quality":"webdl","translation":"Любительский (многоголосый закадровый) (Синема УС)","update":"2018-07-19 06:19:17","iframe_src":"//2413.svetacdn.in/IAF0wWTdNYZm/movie/17792"},{"id":17791,"title":"Оккультный ангел","kp_id":null,"imdb_id":"tt8615816","world_art_id":null,"type":"movie","add":"2018-07-19 00:02:55","orig_title":"Occult Angel","year":"2018-06-21","translations":["Любительский (многоголосый закадровый) (Синема УС)"],"quality":"webdl","translation":"Любительский (многоголосый закадровый) (Синема УС)","update":"2018-07-19 06:20:49","iframe_src":"//2413.svetacdn.in/IAF0wWTdNYZm/movie/17791"},{"id":17763,"title":"Страшилы","kp_id":"819840","imdb_id":"tt3455326","world_art_id":null,"type":"movie","add":"2018-07-18 00:28:37","orig_title":"Scareycrows","year":"2017-10-31","translations":["Любительский (многоголосый закадровый) (Синема УС)","Любительский (двухголосый закадровый) (HiWayGrope)"],"quality":"webdl","translation":"Любительский (многоголосый закадровый) (Синема УС)","update":"2018-07-19 06:13:06","iframe_src":"//2413.svetacdn.in/IAF0wWTdNYZm/movie/17763"},{"id":17761,"title":"Учитель!","kp_id":"1008271","imdb_id":"tt6190198","world_art_id":null,"type":"movie","add":"2018-07-18 00:18:25","orig_title":"Sensei!","year":"2017-10-28","translations":["Любительский (многоголосый закадровый) (Синема УС)","Любительский (двухголосый закадровый) (XDUB Dorama)"],"quality":"bd","translation":"Любительский (многоголосый закадровый) (Синема УС)","update":"2018-07-19 06:12:27","iframe_src":"//2413.svetacdn.in/IAF0wWTdNYZm/movie/17761"},{"id":17755,"title":"В погоне за тишиной","kp_id":"1007470","imdb_id":"tt4026570","world_art_id":null,"type":"movie","add":"2018-07-17 23:58:04","orig_title":"In Pursuit of Silence","year":"2015-11-11","translations":["Любительский (многоголосый закадровый) (Синема УС)"],"quality":"bd","translation":"Любительский (многоголосый закадровый) (Синема УС)","update":"2018-07-18 06:48:39","iframe_src":"//2413.svetacdn.in/IAF0wWTdNYZm/movie/17755"},{"id":17754,"title":"Хочелага, земля душ","kp_id":"1019448","imdb_id":"tt6530104","world_art_id":null,"type":"movie","add":"2018-07-17 23:56:29","orig_title":"Hochelaga, Terre des Âmes","year":"2017-09-09","translations":["Любительский (многоголосый закадровый) (Колобок)"],"quality":"webdl","translation":"Любительский (многоголосый закадровый) (Колобок)","update":"2018-07-18 06:50:20","iframe_src":"//2413.svetacdn.in/IAF0wWTdNYZm/movie/17754"},{"id":17753,"title":"Проявления тьмы","kp_id":"764093","imdb_id":"tt2924488","world_art_id":null,"type":"movie","add":"2018-07-17 23:54:46","orig_title":"Hidden Peaks","year":"2018-04-04","translations":["Любительский (многоголосый закадровый) (Синема УС)"],"quality":"bd","translation":"Любительский (многоголосый закадровый) (Синема УС)","update":"2018-07-18 06:51:40","iframe_src":"//2413.svetacdn.in/IAF0wWTdNYZm/movie/17753"},{"id":17752,"title":"Девушка на волне","kp_id":null,"imdb_id":"tt7150482","world_art_id":null,"type":"movie","add":"2018-07-17 23:53:18","orig_title":"Girl on Wave","year":"2017-08-08","translations":["Любительский (многоголосый закадровый) (Синема УС)"],"quality":"webdl","translation":"Любительский (многоголосый закадровый) (Синема УС)","update":"2018-07-18 06:53:12","iframe_src":"//2413.svetacdn.in/IAF0wWTdNYZm/movie/17752"},{"id":17751,"title":"Семья победителей","kp_id":"1049656","imdb_id":"tt8011594","world_art_id":null,"type":"movie","add":"2018-07-17 23:49:00","orig_title":"Dian di lian meng","year":"2017-11-28","translations":["Любительский (многоголосый закадровый) (Синема УС)"],"quality":"webdl","translation":"Любительский (многоголосый закадровый) (Синема УС)","update":"2018-07-18 06:55:17","iframe_src":"//2413.svetacdn.in/IAF0wWTdNYZm/movie/17751"},{"id":17750,"title":"Деррен Браун: Чудеса","kp_id":null,"imdb_id":"tt8599562","world_art_id":null,"type":"movie","add":"2018-07-17 23:46:08","orig_title":"Derren Brown: Miracle","year":"2016-10-10","translations":["Любительский (многоголосый закадровый) (Синема УС)"],"quality":"webdl","translation":"Любительский (многоголосый закадровый) (Синема УС)","update":"2018-07-18 06:57:30","iframe_src":"//2413.svetacdn.in/IAF0wWTdNYZm/movie/17750"},{"id":17749,"title":"Преступление во времени","kp_id":"809356","imdb_id":"tt3337732","world_art_id":null,"type":"movie","add":"2018-07-17 23:44:35","orig_title":"Crimes and Mister Meanors","year":"2015-10-01","translations":["Любительский (многоголосый закадровый) (Синема УС)"],"quality":"webdl","translation":"Любительский (многоголосый закадровый) (Синема УС)","update":"2018-07-18 06:58:56","iframe_src":"//2413.svetacdn.in/IAF0wWTdNYZm/movie/17749"},{"id":17748,"title":"Мальчики балета","kp_id":"841563","imdb_id":"tt3447810","world_art_id":null,"type":"movie","add":"2018-07-17 23:36:37","orig_title":"Ballettguttene","year":"2014-03-18","translations":["Любительский (многоголосый закадровый) (Синема УС)"],"quality":"webdl","translation":"Любительский (многоголосый закадровый) (Синема УС)","update":"2018-07-18 07:00:17","iframe_src":"//2413.svetacdn.in/IAF0wWTdNYZm/movie/17748"},{"id":17719,"title":"Волчица и черный принц","kp_id":"961635","imdb_id":"tt5224834","world_art_id":null,"type":"movie","add":"2018-07-15 21:32:38","orig_title":"Ookami shoujo to kuro ouji","year":"2016-05-28","translations":["Любительский (двухголосый закадровый) (AniDUB)","Любительский (двухголосый закадровый)"],"quality":"bd","translation":"Любительский (двухголосый закадровый) (AniDUB)","update":"2018-07-18 07:01:06","iframe_src":"//2413.svetacdn.in/IAF0wWTdNYZm/movie/17719"},{"id":16044,"title":"Я счастлив","kp_id":"957731","imdb_id":"tt6022564","world_art_id":null,"type":"movie","add":"2018-04-03 22:06:30","orig_title":"Ya schastliv","year":"2018-03-08","translations":["Оригинальная дорожка"],"quality":"webdl","translation":"Оригинальная дорожка","update":"2018-07-19 06:06:04","iframe_src":"//2413.svetacdn.in/IAF0wWTdNYZm/movie/16044"},{"id":3018,"title":"Дворецкий","kp_id":"464446","imdb_id":"tt1327773","world_art_id":null,"type":"movie","add":"2016-06-08 20:39:19","orig_title":"The Butler","year":"2013-08-05","translations":["Любительский (двухголосый закадровый)","Профессиональный (многоголосый закадровый)"],"quality":"bd","translation":"Любительский (двухголосый закадровый)","update":"2018-07-18 06:56:14","iframe_src":"//2413.svetacdn.in/IAF0wWTdNYZm/movie/3018"}],"current_page":2262,"first_page_url":"https://videocdn.tv/api/short?limit=100&api_token=6Onb1W1alEUrBcKJZD3GoKBbWyAl2uG2&cache32262=32262&page=1","from":226101,"last_page":719,"last_page_url":"https://videocdn.tv/api/short?limit=100&api_token=6Onb1W1alEUrBcKJZD3GoKBbWyAl2uG2&cache32262=32262&page=719","next_page_url":null,"path":"https://videocdn.tv/api/short","per_page":100,"prev_page_url":"https://videocdn.tv/api/short?limit=100&api_token=6Onb1W1alEUrBcKJZD3GoKBbWyAl2uG2&cache32262=32262&page=2261","to":226120,"total":71893}