{"result":true,"data":[{"id":46111,"title":"Лагерь беженцев","kp_id":"2000007","imdb_id":"tt7805960","world_art_id":null,"type":"movie","add":"2020-12-15 20:47:44","orig_title":"Torbaaz","year":"2020-12-11","translations":["Любительский (многоголосый закадровый) (Синема УС)"],"quality":"webdl","translation":"Любительский (многоголосый закадровый) (Синема УС)","update":"2020-12-16 08:04:36","iframe_src":"//8543.svetacdn.in/IAF0wWTdNYZm/movie/46111"},{"id":46108,"title":"Мошонка","kp_id":null,"imdb_id":"tt13386604","world_art_id":null,"type":"movie","add":"2020-12-15 17:50:50","orig_title":"The Scrotum","year":"2019-12-15","translations":["Любительский (многоголосый закадровый) (Синема УС)"],"quality":"webdl","translation":"Любительский (многоголосый закадровый) (Синема УС)","update":"2020-12-16 08:23:33","iframe_src":"//8543.svetacdn.in/IAF0wWTdNYZm/movie/46108"},{"id":46100,"title":"В сумерках","kp_id":"1245564","imdb_id":"tt9799640","world_art_id":null,"type":"movie","add":"2020-12-15 17:17:53","orig_title":"Au Crépuscule (Dusk)","year":"2019-11-29","translations":["Любительский (многоголосый закадровый) (Синема УС)"],"quality":"webdl","translation":"Любительский (многоголосый закадровый) (Синема УС)","update":"2020-12-16 08:24:20","iframe_src":"//8543.svetacdn.in/IAF0wWTdNYZm/movie/46100"},{"id":44910,"title":"Творцы снов","kp_id":"1328035","imdb_id":"tt9855978","world_art_id":null,"type":"movie","add":"2020-10-29 18:25:33","orig_title":"Drømmebyggerne","year":"2020-02-06","translations":["Любительский (многоголосый закадровый) (@MUZOBOZ@)","Полное дублирование"],"quality":"webdl","translation":"Любительский (многоголосый закадровый) (@MUZOBOZ@)","update":"2020-12-16 08:06:17","iframe_src":"//8543.svetacdn.in/IAF0wWTdNYZm/movie/44910"},{"id":44713,"title":"Это старое чувство","kp_id":"2379","imdb_id":"tt0120318","world_art_id":null,"type":"movie","add":"2020-10-23 17:36:13","orig_title":"That Old Feeling","year":"1997-04-04","translations":["Профессиональный (двухголосый закадровый) (R5)","Профессиональный (многоголосый закадровый) (СТС)","Original (English)"],"quality":"webdl","translation":"Профессиональный (двухголосый закадровый) (R5)","update":"2020-12-16 06:51:01","iframe_src":"//8543.svetacdn.in/IAF0wWTdNYZm/movie/44713"},{"id":44711,"title":"Путешествие на Луну","kp_id":"1338103","imdb_id":"tt7488208","world_art_id":null,"type":"movie","add":"2020-10-23 16:22:15","orig_title":"Over the Moon","year":"2020-10-16","translations":["Полное дублирование (Невафильм)","Original (English)"],"quality":"webdl","translation":"Полное дублирование (Невафильм)","update":"2020-12-16 06:44:33","iframe_src":"//8543.svetacdn.in/IAF0wWTdNYZm/movie/44711"},{"id":44706,"title":"Месть простофиль","kp_id":"54367","imdb_id":"tt0054734","world_art_id":null,"type":"movie","add":"2020-10-23 08:30:59","orig_title":"Le cave se rebiffe","year":"1961-08-26","translations":["Профессиональный (многоголосый закадровый) (Фильм Престиж)","Профессиональный (многоголосый закадровый) (5-й канал СПб)","Профессиональный (многоголосый закадровый) (Первый канал | ОРТ)"],"quality":"bd","translation":"Профессиональный (многоголосый закадровый) (Фильм Престиж)","update":"2020-12-16 06:55:29","iframe_src":"//8543.svetacdn.in/IAF0wWTdNYZm/movie/44706"},{"id":44691,"title":"Эта дикая кошка","kp_id":"9214","imdb_id":"tt0120317","world_art_id":null,"type":"movie","add":"2020-10-22 18:29:47","orig_title":"That Darn Cat","year":"1997-02-14","translations":["Профессиональный (многоголосый закадровый) (Видеосервис)","Профессиональный (многоголосый закадровый) (СТС)","Авторский (одноголосый закадровый) (Кашкин Александр | Первомайский)","Original (English)"],"quality":"webdl","translation":"Профессиональный (многоголосый закадровый) (Видеосервис)","update":"2020-12-16 06:50:08","iframe_src":"//8543.svetacdn.in/IAF0wWTdNYZm/movie/44691"},{"id":44599,"title":"Смертельный захват","kp_id":"58475","imdb_id":"tt0112828","world_art_id":null,"type":"movie","add":"2020-10-19 17:50:41","orig_title":"Deadly Outbreak","year":"1995-01-01","translations":["Авторский (одноголосый закадровый) (Гаврилов Андрей)","Профессиональный (многоголосый закадровый) (ТВЦ)","Авторский (одноголосый закадровый) (Кашкин Александр | Первомайский)","Original (English)"],"quality":"webdl","translation":"Авторский (одноголосый закадровый) (Гаврилов Андрей)","update":"2020-12-16 06:41:19","iframe_src":"//8543.svetacdn.in/IAF0wWTdNYZm/movie/44599"},{"id":44541,"title":"Тупак: Воскрешение","kp_id":"47112","imdb_id":"tt0343121","world_art_id":null,"type":"movie","add":"2020-10-17 21:32:44","orig_title":"Tupac: Resurrection","year":"2003-01-22","translations":["Профессиональный (двухголосый закадровый)","Авторский (одноголосый закадровый) (Яроцкий Михаил | Kyberpunk)","Original (English)"],"quality":"hdtv","translation":"Профессиональный (двухголосый закадровый)","update":"2020-12-16 06:39:18","iframe_src":"//8543.svetacdn.in/IAF0wWTdNYZm/movie/44541"},{"id":44504,"title":"Идеально","kp_id":"9518","imdb_id":"tt0089798","world_art_id":null,"type":"movie","add":"2020-10-16 15:30:47","orig_title":"Perfect","year":"1985-05-15","translations":["Профессиональный (многоголосый закадровый) (Первый канал | ОРТ)","Профессиональный (многоголосый закадровый) (5-й канал СПб)","Original (English)"],"quality":"webdl","translation":"Профессиональный (многоголосый закадровый) (Первый канал | ОРТ)","update":"2020-12-16 06:47:54","iframe_src":"//8543.svetacdn.in/IAF0wWTdNYZm/movie/44504"},{"id":40318,"title":"Серебряный волк","kp_id":"2327","imdb_id":"tt0158221","world_art_id":null,"type":"movie","add":"2020-05-12 09:39:48","orig_title":"Silver Wolf","year":"1999-01-10","translations":["Профессиональный (двухголосый закадровый)","Original (English)"],"quality":"webdl","translation":"Профессиональный (двухголосый закадровый)","update":"2020-12-16 06:48:45","iframe_src":"//8543.svetacdn.in/IAF0wWTdNYZm/movie/40318"},{"id":7262,"title":"Дикий 2","kp_id":"497601","imdb_id":"tt3995412","world_art_id":null,"type":"serial","add":"2020-04-22 08:14:55","orig_title":"Dikiy 2","year":"2011-12-05","translations":["Оригинальная дорожка"],"seasons_count":1,"episodes_count":32,"episodes":32,"update":"2020-04-22 14:34:00","iframe_src":"//8543.svetacdn.in/IAF0wWTdNYZm/tv-series/7262"},{"id":7261,"title":"Хасмук","kp_id":"1218072","imdb_id":"tt9359294","world_art_id":null,"type":"serial","add":"2020-04-22 07:52:25","orig_title":"Hasmukh","year":"2020-04-17","translations":["Любительский (многоголосый закадровый) (Octopus)"],"seasons_count":1,"episodes_count":10,"episodes":10,"update":"2020-04-22 13:01:44","iframe_src":"//8543.svetacdn.in/IAF0wWTdNYZm/tv-series/7261"},{"id":7260,"title":"BBC: Серенгети","kp_id":"1344327","imdb_id":"tt8164448","world_art_id":null,"type":"serial","add":"2020-04-22 06:46:45","orig_title":"Serengeti","year":"2019-07-04","translations":["Профессиональный (двухголосый закадровый) (СВ-Дубль)"],"seasons_count":1,"episodes_count":6,"episodes":6,"update":"2020-04-22 12:00:13","iframe_src":"//8543.svetacdn.in/IAF0wWTdNYZm/tv-series/7260"},{"id":7259,"title":"Садовница","kp_id":"1302068","imdb_id":null,"world_art_id":null,"type":"serial","add":"2020-04-22 06:22:58","orig_title":"Садовница","year":"2019-01-01","translations":["Оригинальная дорожка"],"seasons_count":1,"episodes_count":4,"episodes":4,"update":"2020-04-22 10:42:24","iframe_src":"//8543.svetacdn.in/IAF0wWTdNYZm/tv-series/7259"},{"id":7246,"title":"Без следа","kp_id":"597534","imdb_id":"tt3781676","world_art_id":null,"type":"serial","add":"2020-04-21 06:49:19","orig_title":"Bez sleda","year":"2012-09-04","translations":["Оригинальная дорожка"],"seasons_count":1,"episodes_count":23,"episodes":23,"update":"2020-04-21 10:32:56","iframe_src":"//8543.svetacdn.in/IAF0wWTdNYZm/tv-series/7246"},{"id":7245,"title":"Полёт Белой стрелы","kp_id":"882241","imdb_id":null,"world_art_id":null,"type":"serial","add":"2020-04-21 06:45:59","orig_title":"Полёт Белой стрелы","year":"2015-11-28","translations":["Оригинальная дорожка"],"seasons_count":1,"episodes_count":12,"episodes":12,"update":"2020-04-21 09:05:07","iframe_src":"//8543.svetacdn.in/IAF0wWTdNYZm/tv-series/7245"},{"id":7242,"title":"По ту сторону убийства","kp_id":"723463","imdb_id":"tt2569792","world_art_id":null,"type":"serial","add":"2020-04-21 05:55:50","orig_title":"Murder on the Home Front","year":"2013-05-09","translations":["Любительский (одноголосый закадровый)"],"seasons_count":1,"episodes_count":2,"episodes":2,"update":"2020-04-21 07:19:39","iframe_src":"//8543.svetacdn.in/IAF0wWTdNYZm/tv-series/7242"},{"id":7241,"title":"Не троньте котиков: Охота на интернет-убийцу","kp_id":"1333556","imdb_id":"tt11318602","world_art_id":null,"type":"serial","add":"2020-04-21 05:51:53","orig_title":"Don't F**k with Cats: Hunting an Internet Killer","year":"2019-12-18","translations":["Профессиональный (многоголосый закадровый) (HDrezka Studio)"],"seasons_count":1,"episodes_count":3,"episodes":3,"update":"2020-04-22 12:33:48","iframe_src":"//8543.svetacdn.in/IAF0wWTdNYZm/tv-series/7241"},{"id":7239,"title":"Апофегей","kp_id":"766639","imdb_id":"tt4428566","world_art_id":null,"type":"serial","add":"2020-04-20 19:49:23","orig_title":"Apofegey","year":"2013-06-13","translations":["Оригинальная дорожка"],"seasons_count":1,"episodes_count":2,"episodes":2,"update":"2020-04-21 11:39:06","iframe_src":"//8543.svetacdn.in/IAF0wWTdNYZm/tv-series/7239"},{"id":7238,"title":"Александровский сад 2","kp_id":"409777","imdb_id":"tt2839062","world_art_id":null,"type":"serial","add":"2020-04-20 19:44:51","orig_title":"Aleksandrovskiy sad 2. Gibel komandy","year":"2007-01-01","translations":["Оригинальная дорожка"],"seasons_count":1,"episodes_count":10,"episodes":10,"update":"2020-04-21 11:49:35","iframe_src":"//8543.svetacdn.in/IAF0wWTdNYZm/tv-series/7238"},{"id":7237,"title":"Бабье лето","kp_id":"647280","imdb_id":"tt3014978","world_art_id":null,"type":"serial","add":"2020-04-20 19:39:41","orig_title":"Babe leto","year":"2011-11-19","translations":["Оригинальная дорожка"],"seasons_count":1,"episodes_count":4,"episodes":4,"update":"2020-04-21 11:44:48","iframe_src":"//8543.svetacdn.in/IAF0wWTdNYZm/tv-series/7237"},{"id":7236,"title":"Безымянная звезда","kp_id":"77248","imdb_id":"tt0077230","world_art_id":null,"type":"serial","add":"2020-04-20 19:37:22","orig_title":"Bezymyannaya zvezda","year":"1979-02-17","translations":["Оригинальная дорожка"],"seasons_count":1,"episodes_count":2,"episodes":2,"update":"2020-04-21 11:40:13","iframe_src":"//8543.svetacdn.in/IAF0wWTdNYZm/tv-series/7236"},{"id":7235,"title":"Капкан","kp_id":"259385","imdb_id":null,"world_art_id":null,"type":"serial","add":"2020-04-20 19:30:25","orig_title":"Капкан","year":"2007-10-22","translations":["Оригинальная дорожка"],"seasons_count":1,"episodes_count":12,"episodes":12,"update":"2020-04-21 12:01:07","iframe_src":"//8543.svetacdn.in/IAF0wWTdNYZm/tv-series/7235"},{"id":7234,"title":"Башня","kp_id":"568046","imdb_id":null,"world_art_id":null,"type":"serial","add":"2020-04-20 19:25:41","orig_title":"Башня","year":"2010-11-08","translations":["Оригинальная дорожка"],"seasons_count":2,"episodes_count":31,"episodes":15,"update":"2020-04-21 12:17:52","iframe_src":"//8543.svetacdn.in/IAF0wWTdNYZm/tv-series/7234"},{"id":7230,"title":"BBC: Баллада о Большом Але","kp_id":"298579","imdb_id":"tt12146684","world_art_id":null,"type":"serial","add":"2020-04-20 11:12:42","orig_title":"The Ballad of Big Al","year":"2000-12-25","translations":["Профессиональный (двухголосый закадровый)"],"seasons_count":1,"episodes_count":2,"episodes":2,"update":"2020-04-21 06:58:24","iframe_src":"//8543.svetacdn.in/IAF0wWTdNYZm/tv-series/7230"},{"id":7204,"title":"Любовь к жизни","kp_id":"764812","imdb_id":"tt2933326","world_art_id":null,"type":"serial","add":"2020-04-16 17:33:25","orig_title":"Amor à Vida","year":"2013-05-20","translations":["Любительский (двухголосый закадровый)","Профессиональный (двухголосый закадровый) (ViruseProject)"],"seasons_count":1,"episodes_count":221,"episodes":221,"update":"2020-04-22 12:16:24","iframe_src":"//8543.svetacdn.in/IAF0wWTdNYZm/tv-series/7204"},{"id":7173,"title":"Крот","kp_id":"400700","imdb_id":"tt0841927","world_art_id":null,"type":"serial","add":"2020-04-13 18:09:07","orig_title":"Krtek","year":"1957-01-01","translations":["Любительский (одноголосый закадровый)"],"seasons_count":1,"episodes_count":62,"episodes":62,"update":"2020-04-22 12:52:28","iframe_src":"//8543.svetacdn.in/IAF0wWTdNYZm/tv-series/7173"},{"id":7158,"title":"Танцевальная лихорадка","kp_id":"570142","imdb_id":"tt1661326","world_art_id":null,"type":"serial","add":"2020-04-11 13:21:29","orig_title":"Shake It Up","year":"2010-11-07","translations":["Полное дублирование"],"seasons_count":1,"episodes_count":21,"episodes":21,"update":"2020-04-21 07:11:25","iframe_src":"//8543.svetacdn.in/IAF0wWTdNYZm/tv-series/7158"},{"id":7130,"title":"Замок Бландингс","kp_id":"730434","imdb_id":"tt2211457","world_art_id":null,"type":"serial","add":"2020-04-08 07:24:03","orig_title":"Blandings","year":"2013-01-13","translations":["Любительский (одноголосый закадровый) (Старый Бильбо)"],"seasons_count":2,"episodes_count":13,"episodes":7,"update":"2020-04-21 07:12:45","iframe_src":"//8543.svetacdn.in/IAF0wWTdNYZm/tv-series/7130"},{"id":6782,"title":"Никто не знает","kp_id":"1297200","imdb_id":null,"world_art_id":null,"type":"serial","add":"2020-03-05 05:42:39","orig_title":"Amudo moreunda","year":"2020-03-02","translations":["Любительский (двухголосый закадровый) (Колобок)"],"seasons_count":1,"episodes_count":16,"episodes":16,"update":"2020-04-22 17:02:24","iframe_src":"//8543.svetacdn.in/IAF0wWTdNYZm/tv-series/6782"},{"id":33041,"title":"Алекс и Эмма","kp_id":"1563","imdb_id":"tt0318283","world_art_id":null,"type":"movie","add":"2019-11-12 20:56:36","orig_title":"Alex & Emma","year":"2003-06-16","translations":["Профессиональный (двухголосый закадровый)","Полное дублирование","Полное дублирование (Мосфильм)","Original (English)"],"quality":"webdl","translation":"Профессиональный (двухголосый закадровый)","update":"2020-12-16 06:40:32","iframe_src":"//8543.svetacdn.in/IAF0wWTdNYZm/movie/33041"},{"id":32914,"title":"Эллипс","kp_id":"1281156","imdb_id":"tt7498092","world_art_id":null,"type":"movie","add":"2019-11-11 09:14:05","orig_title":"Ellipse","year":"2019-11-05","translations":["Профессиональный (многоголосый закадровый) (iTunes)","Original (English)"],"quality":"webdl","translation":"Профессиональный (многоголосый закадровый) (iTunes)","update":"2020-12-16 06:43:15","iframe_src":"//8543.svetacdn.in/IAF0wWTdNYZm/movie/32914"},{"id":30992,"title":"Рэмбо: Последняя кровь","kp_id":"841738","imdb_id":"tt1206885","world_art_id":null,"type":"movie","add":"2019-09-19 12:22:31","orig_title":"Rambo: Last Blood","year":"2019-09-18","translations":["Полное дублирование (iTunes)","Original (English)","Авторский (одноголосый закадровый) (Чадов Михаил)","Авторский (одноголосый закадровый) (Яроцкий Михаил | Kyberpunk)","Original (English)"],"quality":"bd","translation":"Полное дублирование (iTunes)","update":"2020-12-16 08:25:28","iframe_src":"//8543.svetacdn.in/IAF0wWTdNYZm/movie/30992"},{"id":7063,"title":"Чем заняться мертвецу в Денвере","kp_id":"4497","imdb_id":"tt0114660","world_art_id":null,"type":"movie","add":"2016-11-04 14:00:28","orig_title":"Things to Do in Denver When You're Dead","year":"1995-09-08","translations":["Профессиональный (многоголосый закадровый)","Авторский (одноголосый закадровый) (Яроцкий Михаил | Kyberpunk)","Авторский (одноголосый закадровый) (Гаврилов Андрей)","Авторский (одноголосый закадровый) (Живов Юрий)","Профессиональный (многоголосый закадровый) (Премьер Видео Фильм)"],"quality":"bd","translation":"Профессиональный (многоголосый закадровый)","update":"2020-12-16 07:29:25","iframe_src":"//8543.svetacdn.in/IAF0wWTdNYZm/movie/7063"},{"id":5091,"title":"40 дней и 40 ночeй","kp_id":"2046","imdb_id":"tt0243736","world_art_id":null,"type":"movie","add":"2016-09-06 09:37:38","orig_title":"40 Days and 40 Nights","year":"2002-03-01","translations":["Авторский (одноголосый закадровый) (Живов Юрий)","Полное дублирование","Профессиональный (двухголосый закадровый) (НТВ)","Original (English)"],"quality":"bd","translation":"Авторский (одноголосый закадровый) (Живов Юрий)","update":"2020-12-16 08:32:59","iframe_src":"//8543.svetacdn.in/IAF0wWTdNYZm/movie/5091"},{"id":1901,"title":"Шакал","kp_id":"4132","imdb_id":"tt0119395","world_art_id":null,"type":"movie","add":"2016-05-05 12:33:32","orig_title":"The Jackal","year":"1997-11-14","translations":["Профессиональный (многоголосый закадровый)","Полное дублирование","Авторский (одноголосый закадровый) (Гаврилов Андрей)","Авторский (одноголосый закадровый) (Горчаков Василий)","Авторский (одноголосый закадровый) (Кашкин Александр | Первомайский)","Авторский (одноголосый закадровый) (Визгунов Сергей)","Авторский (одноголосый закадровый) (Живов Юрий)","Полное дублирование (Ист-Вест)","Original (English)","Профессиональный (двухголосый закадровый) (НТВ)","Профессиональный (двухголосый закадровый) (Премьер Видео Фильм)","Профессиональный (многоголосый закадровый) (Киномания)","Профессиональный (многоголосый закадровый) (Lizard Cinema)","Профессиональный (многоголосый закадровый) (Первый канал | ОРТ)","Профессиональный (многоголосый закадровый) (Universal Russia)"],"quality":"bd","translation":"Профессиональный (многоголосый закадровый)","update":"2020-12-16 08:20:06","iframe_src":"//8543.svetacdn.in/IAF0wWTdNYZm/movie/1901"},{"id":1380,"title":"Рэмбо: Первая кровь","kp_id":"4087","imdb_id":"tt0083944","world_art_id":null,"type":"movie","add":"2016-04-21 09:10:12","orig_title":"First Blood","year":"1982-10-22","translations":["Профессиональный (многоголосый закадровый)","Original (English)","Авторский (одноголосый закадровый) (Гаврилов Андрей)","Авторский (одноголосый закадровый) (Горчаков Василий)","Авторский (одноголосый закадровый) (Либергал Григорий)","Авторский (одноголосый закадровый) (Володарский Леонид)","Авторский (одноголосый закадровый) (Завгородний Владимир)","Авторский (одноголосый закадровый) (Живов Юрий)","Original (English)","Профессиональный (многоголосый закадровый) (CP Digital)","Профессиональный (многоголосый закадровый) (НТВ)","Профессиональный (многоголосый закадровый) (Киномания)","Профессиональный (многоголосый закадровый) (Позитив)"],"quality":"bd","translation":"Профессиональный (многоголосый закадровый)","update":"2020-12-16 07:45:01","iframe_src":"//8543.svetacdn.in/IAF0wWTdNYZm/movie/1380"},{"id":138,"title":"Терминатор 3: Восстание машин","kp_id":"319","imdb_id":"tt0181852","world_art_id":null,"type":"movie","add":"2016-02-17 11:10:29","orig_title":"Terminator 3: Rise of the Machines","year":"2003-06-30","translations":["Полное дублирование","Original (English)","Авторский (одноголосый закадровый) (Чадов Михаил)","Авторский (одноголосый закадровый) (Гаврилов Андрей)","Полное дублирование","Original (English)","Профессиональный (многоголосый закадровый)","Профессиональный (многоголосый закадровый) (Карусель)"],"quality":"hddvd","translation":"Полное дублирование","update":"2020-12-16 08:31:17","iframe_src":"//8543.svetacdn.in/IAF0wWTdNYZm/movie/138"}],"current_page":203,"first_page_url":"https://videocdn.tv/api/short?limit=100&api_token=6Onb1W1alEUrBcKJZD3GoKBbWyAl2uG2&cache3203=3203&page=1","from":20201,"last_page":602,"last_page_url":"https://videocdn.tv/api/short?limit=100&api_token=6Onb1W1alEUrBcKJZD3GoKBbWyAl2uG2&cache3203=3203&page=602","next_page_url":"https://videocdn.tv/api/short?limit=100&api_token=6Onb1W1alEUrBcKJZD3GoKBbWyAl2uG2&cache3203=3203&page=204","path":"https://videocdn.tv/api/short","per_page":100,"prev_page_url":"https://videocdn.tv/api/short?limit=100&api_token=6Onb1W1alEUrBcKJZD3GoKBbWyAl2uG2&cache3203=3203&page=202","to":20240,"total":60177}