{"result":true,"data":[{"id":52213,"title":"Дверь в дверь","kp_id":"277587","imdb_id":"tt0274468","world_art_id":null,"type":"movie","add":"2021-08-04 12:25:26","orig_title":"Door to Door","year":"2002-06-01","translations":["Любительский (одноголосый закадровый)"],"quality":"webdl","translation":"Любительский (одноголосый закадровый)","update":"2021-08-04 16:18:53","iframe_src":"//2413.svetacdn.in/71tsRs29n5tZ/movie/52213"},{"id":52212,"title":"За что?","kp_id":"1396050","imdb_id":"tt12680856","world_art_id":null,"type":"movie","add":"2021-08-04 10:52:46","orig_title":"Why","year":"2021-07-15","translations":["Любительский (многоголосый закадровый) (Синема УС)"],"quality":"webdl","translation":"Любительский (многоголосый закадровый) (Синема УС)","update":"2021-08-04 19:50:29","iframe_src":"//2413.svetacdn.in/71tsRs29n5tZ/movie/52212"},{"id":52211,"title":"Малик","kp_id":"1303107","imdb_id":"tt10919240","world_art_id":null,"type":"movie","add":"2021-08-04 10:51:01","orig_title":"Malik","year":"2021-01-01","translations":["Любительский (многоголосый закадровый) (Синема УС)"],"quality":"webdl","translation":"Любительский (многоголосый закадровый) (Синема УС)","update":"2021-08-04 19:49:33","iframe_src":"//2413.svetacdn.in/71tsRs29n5tZ/movie/52211"},{"id":52210,"title":"Решительные меры","kp_id":"1166482","imdb_id":"tt8615164","world_art_id":null,"type":"movie","add":"2021-08-04 10:25:43","orig_title":"Drastic Measures","year":"2019-09-01","translations":["Любительский (многоголосый закадровый) (Синема УС)"],"quality":"webdl","translation":"Любительский (многоголосый закадровый) (Синема УС)","update":"2021-08-04 19:51:13","iframe_src":"//2413.svetacdn.in/71tsRs29n5tZ/movie/52210"},{"id":52209,"title":"Анализируя Ашеров","kp_id":"1002411","imdb_id":"tt6027372","world_art_id":null,"type":"movie","add":"2021-08-04 09:42:09","orig_title":"Deconstructing the Ushers","year":"2019-01-01","translations":["Любительский (многоголосый закадровый) (Синема УС)"],"quality":"webdl","translation":"Любительский (многоголосый закадровый) (Синема УС)","update":"2021-08-04 16:08:11","iframe_src":"//2413.svetacdn.in/71tsRs29n5tZ/movie/52209"},{"id":52208,"title":"Под миражем солнца","kp_id":"1204800","imdb_id":"tt9095296","world_art_id":null,"type":"movie","add":"2021-08-04 09:35:02","orig_title":"Breve Miragem de Sol","year":"2019-01-01","translations":["Любительский (многоголосый закадровый) (Синема УС)"],"quality":"webdl","translation":"Любительский (многоголосый закадровый) (Синема УС)","update":"2021-08-04 16:07:25","iframe_src":"//2413.svetacdn.in/71tsRs29n5tZ/movie/52208"},{"id":52207,"title":"Похищенная","kp_id":"1448759","imdb_id":"tt12717808","world_art_id":null,"type":"movie","add":"2021-08-04 06:05:29","orig_title":"Abducted","year":"2021-01-01","translations":["Любительский (многоголосый закадровый) (Синема УС)"],"quality":"webdl","translation":"Любительский (многоголосый закадровый) (Синема УС)","update":"2021-08-04 20:19:13","iframe_src":"//2413.svetacdn.in/71tsRs29n5tZ/movie/52207"},{"id":52206,"title":"Монстр из бутылки","kp_id":"1322825","imdb_id":"tt11219136","world_art_id":null,"type":"movie","add":"2021-08-04 06:00:43","orig_title":"Bottle Monster","year":"2021-08-03","translations":["Любительский (многоголосый закадровый) (@MUZOBOZ@)"],"quality":"webdl","translation":"Любительский (многоголосый закадровый) (@MUZOBOZ@)","update":"2021-08-04 20:18:52","iframe_src":"//2413.svetacdn.in/71tsRs29n5tZ/movie/52206"},{"id":52205,"title":"Праведная Кровь","kp_id":"4383484","imdb_id":"tt13845956","world_art_id":null,"type":"movie","add":"2021-08-04 05:59:04","orig_title":"Righteous Blood","year":"2021-01-01","translations":["Любительский (многоголосый закадровый) (Синема УС)"],"quality":"webdl","translation":"Любительский (многоголосый закадровый) (Синема УС)","update":"2021-08-04 20:18:03","iframe_src":"//2413.svetacdn.in/71tsRs29n5tZ/movie/52205"},{"id":52201,"title":"Незнакомец наблюдает","kp_id":"6516","imdb_id":"tt0084735","world_art_id":null,"type":"movie","add":"2021-08-04 05:10:38","orig_title":"A Stranger Is Watching","year":"1982-01-22","translations":["Профессиональный (многоголосый закадровый) (РТР | Россия)","[EN] Original (English)"],"quality":"bd","translation":"Профессиональный (многоголосый закадровый) (РТР | Россия)","update":"2021-08-04 10:47:54","iframe_src":"//2413.svetacdn.in/71tsRs29n5tZ/movie/52201"},{"id":51506,"title":"Все, кто её любил","kp_id":"1316705","imdb_id":"tt11177158","world_art_id":null,"type":"movie","add":"2021-07-01 07:25:36","orig_title":"All Who Loved Her","year":"2021-06-29","translations":["Любительский (многоголосый закадровый) (Синема УС)"],"quality":"webdl","translation":"Любительский (многоголосый закадровый) (Синема УС)","update":"2021-08-05 04:19:09","iframe_src":"//2413.svetacdn.in/71tsRs29n5tZ/movie/51506"},{"id":51504,"title":"Точка эвакуации","kp_id":"1239119","imdb_id":"tt9674196","world_art_id":null,"type":"movie","add":"2021-07-01 07:22:51","orig_title":"Extraction Point","year":"2021-01-01","translations":["Любительский (многоголосый закадровый) (Синема УС)","Любительский (многоголосый закадровый) (Синема УС)"],"quality":"webdl","translation":"Любительский (многоголосый закадровый) (Синема УС)","update":"2021-08-05 04:19:55","iframe_src":"//2413.svetacdn.in/71tsRs29n5tZ/movie/51504"},{"id":50813,"title":"Отрываясь по полной...","kp_id":"79613","imdb_id":"tt0406977","world_art_id":null,"type":"movie","add":"2021-05-31 19:39:48","orig_title":"Masti","year":"2004-04-09","translations":["Профессиональный (многоголосый закадровый) (Формат AB)"],"quality":"webdl","translation":"Профессиональный (многоголосый закадровый) (Формат AB)","update":"2021-08-05 04:19:34","iframe_src":"//2413.svetacdn.in/71tsRs29n5tZ/movie/50813"},{"id":50722,"title":"Бегущая в лабиринте","kp_id":"1147971","imdb_id":"tt5752192","world_art_id":null,"type":"movie","add":"2021-05-29 08:33:47","orig_title":"Meander","year":"2020-10-10","translations":["Полное дублирование (iTunes)","Любительский (многоголосый закадровый) (@MUZOBOZ@)"],"quality":"webdl","translation":"Полное дублирование (iTunes)","update":"2021-08-05 04:18:47","iframe_src":"//2413.svetacdn.in/71tsRs29n5tZ/movie/50722"},{"id":50458,"title":"Вдали от дома","kp_id":"15678","imdb_id":"tt0095640","world_art_id":null,"type":"movie","add":"2021-05-18 08:10:40","orig_title":"Miles from Home","year":"1988-09-12","translations":["Профессиональный (двухголосый закадровый) (DVD Group)","[EN] Original (English)","Профессиональный (двухголосый закадровый) (НТВ)","Профессиональный (многоголосый закадровый)"],"quality":"hdtv","translation":"Профессиональный (двухголосый закадровый) (DVD Group)","update":"2021-08-04 10:44:43","iframe_src":"//2413.svetacdn.in/71tsRs29n5tZ/movie/50458"},{"id":49776,"title":"Другая правда","kp_id":"1253639","imdb_id":"tt10051088","world_art_id":null,"type":"movie","add":"2021-04-21 10:01:18","orig_title":"Curveball","year":"2021-04-09","translations":["Любительский (многоголосый закадровый) (Синема УС)"],"quality":"webdl","translation":"Любительский (многоголосый закадровый) (Синема УС)","update":"2021-08-04 13:08:11","iframe_src":"//2413.svetacdn.in/71tsRs29n5tZ/movie/49776"},{"id":3967,"title":"Любовь по найму","kp_id":"1111022","imdb_id":null,"world_art_id":null,"type":"serial","add":"2019-01-28 06:35:50","orig_title":"Любовь по найму","year":"2019-01-26","translations":["Оригинальная дорожка"],"seasons_count":1,"episodes_count":2,"episodes":2,"update":"2019-01-28 12:35:17","iframe_src":"//2413.svetacdn.in/71tsRs29n5tZ/tv-series/3967"},{"id":3960,"title":"Чан Ок-чон","kp_id":"745586","imdb_id":"tt3143308","world_art_id":null,"type":"serial","add":"2019-01-27 06:58:59","orig_title":"Jang Ok-jeong","year":"2013-04-08","translations":["Любительский (двухголосый закадровый) (GREEN TEA)"],"seasons_count":1,"episodes_count":24,"episodes":24,"update":"2019-01-28 11:41:53","iframe_src":"//2413.svetacdn.in/71tsRs29n5tZ/tv-series/3960"},{"id":3957,"title":"Её прелестные каблучки","kp_id":"839003","imdb_id":"tt3592046","world_art_id":null,"type":"serial","add":"2019-01-25 13:11:36","orig_title":"Yeojamanhwa gudu","year":"2014-02-24","translations":["Любительский (двухголосый закадровый) (GREEN TEA)"],"seasons_count":1,"episodes_count":9,"episodes":9,"update":"2019-01-28 07:50:21","iframe_src":"//2413.svetacdn.in/71tsRs29n5tZ/tv-series/3957"},{"id":3954,"title":"Ночные стражи","kp_id":"841584","imdb_id":"tt3922408","world_art_id":null,"type":"serial","add":"2019-01-24 18:08:43","orig_title":"The Night Watchman's Journal","year":"2014-08-04","translations":["Любительский (одноголосый закадровый) (GREEN TEA)"],"seasons_count":1,"episodes_count":24,"episodes":24,"update":"2019-01-28 18:25:16","iframe_src":"//2413.svetacdn.in/71tsRs29n5tZ/tv-series/3954"},{"id":3953,"title":"Будет ли снег на Рождество?","kp_id":"740388","imdb_id":"tt2720634","world_art_id":null,"type":"serial","add":"2019-01-24 18:05:22","orig_title":"Will it Snow at Christmas?","year":"2009-12-02","translations":["Любительский (одноголосый закадровый)"],"seasons_count":1,"episodes_count":16,"episodes":16,"update":"2019-01-25 09:18:59","iframe_src":"//2413.svetacdn.in/71tsRs29n5tZ/tv-series/3953"},{"id":3952,"title":"Юхан Фальк: Конец","kp_id":"919618","imdb_id":"tt4815716","world_art_id":null,"type":"serial","add":"2019-01-24 13:09:33","orig_title":"Johan Falk: Slutet","year":"2015-08-06","translations":["Профессиональный (многоголосый закадровый) (ShowJet)"],"seasons_count":1,"episodes_count":2,"episodes":2,"update":"2019-01-25 07:55:23","iframe_src":"//2413.svetacdn.in/71tsRs29n5tZ/tv-series/3952"},{"id":3951,"title":"Юхан Фальк: Строгая изоляция","kp_id":"919389","imdb_id":"tt4815698","world_art_id":null,"type":"serial","add":"2019-01-24 13:07:19","orig_title":"Johan Falk: Lockdown","year":"2015-07-23","translations":["Профессиональный (многоголосый закадровый) (ShowJet)"],"seasons_count":1,"episodes_count":2,"episodes":2,"update":"2019-01-25 07:53:14","iframe_src":"//2413.svetacdn.in/71tsRs29n5tZ/tv-series/3951"},{"id":3950,"title":"Юхан Фальк: Кровавые бриллианты","kp_id":"919086","imdb_id":"tt4815672","world_art_id":null,"type":"serial","add":"2019-01-24 13:04:21","orig_title":"Johan Falk: Blodsdiamanter","year":"2015-07-09","translations":["Профессиональный (многоголосый закадровый) (ShowJet)"],"seasons_count":1,"episodes_count":2,"episodes":2,"update":"2019-01-25 07:51:00","iframe_src":"//2413.svetacdn.in/71tsRs29n5tZ/tv-series/3950"},{"id":3949,"title":"Юхан Фальк: Мирная дипломатия","kp_id":"888338","imdb_id":"tt4383196","world_art_id":null,"type":"serial","add":"2019-01-24 13:02:37","orig_title":"Johan Falk: Tyst diplomati","year":"2015-06-25","translations":["Профессиональный (многоголосый закадровый) (ShowJet)"],"seasons_count":1,"episodes_count":2,"episodes":2,"update":"2019-01-25 07:49:11","iframe_src":"//2413.svetacdn.in/71tsRs29n5tZ/tv-series/3949"},{"id":3948,"title":"Юхан Фальк 13","kp_id":"870555","imdb_id":"tt3775742","world_art_id":null,"type":"serial","add":"2019-01-24 13:00:05","orig_title":"Johan Falk: Ur askan i elden","year":"2015-06-18","translations":["Профессиональный (многоголосый закадровый) (ShowJet)"],"seasons_count":1,"episodes_count":2,"episodes":2,"update":"2019-01-25 07:47:01","iframe_src":"//2413.svetacdn.in/71tsRs29n5tZ/tv-series/3948"},{"id":3947,"title":"Кунг-фу Панда: Удивительные легенды","kp_id":"570074","imdb_id":"tt1545214","world_art_id":null,"type":"serial","add":"2019-01-23 20:57:31","orig_title":"Kung Fu Panda: Legends of Awesomeness","year":"2011-09-19","translations":["Полное дублирование","Полное дублирование (SDI Media | Iyuno-SDI Group Russia)"],"seasons_count":3,"episodes_count":79,"episodes":28,"update":"2019-01-24 14:45:37","iframe_src":"//2413.svetacdn.in/71tsRs29n5tZ/tv-series/3947"},{"id":3940,"title":"Дом с чёрными котами","kp_id":"1115666","imdb_id":null,"world_art_id":null,"type":"serial","add":"2019-01-23 10:02:37","orig_title":"Дом с чёрными котами","year":"2018-05-05","translations":["Оригинальная дорожка"],"seasons_count":1,"episodes_count":4,"episodes":4,"update":"2019-01-25 07:35:22","iframe_src":"//2413.svetacdn.in/71tsRs29n5tZ/tv-series/3940"},{"id":3937,"title":"Один","kp_id":"1072964","imdb_id":null,"world_art_id":null,"type":"serial","add":"2019-01-23 07:17:52","orig_title":"Один","year":"2019-01-21","translations":["Оригинальная дорожка"],"seasons_count":1,"episodes_count":12,"episodes":12,"update":"2019-01-25 08:06:29","iframe_src":"//2413.svetacdn.in/71tsRs29n5tZ/tv-series/3937"},{"id":3923,"title":"Чирс","kp_id":"251582","imdb_id":"tt0083399","world_art_id":null,"type":"serial","add":"2019-01-21 13:57:28","orig_title":"Cheers","year":"1982-09-30","translations":["Профессиональный (двухголосый закадровый) (CBS Drama)"],"seasons_count":4,"episodes_count":95,"episodes":26,"update":"2019-01-25 12:13:32","iframe_src":"//2413.svetacdn.in/71tsRs29n5tZ/tv-series/3923"},{"id":3899,"title":"Джейн Эйр","kp_id":"89684","imdb_id":"tt0085037","world_art_id":null,"type":"serial","add":"2019-01-16 17:09:00","orig_title":"Jane Eyre","year":"1983-10-09","translations":["Профессиональный (многоголосый закадровый)"],"seasons_count":1,"episodes_count":11,"episodes":11,"update":"2019-01-28 19:23:54","iframe_src":"//2413.svetacdn.in/71tsRs29n5tZ/tv-series/3899"},{"id":3850,"title":"Султан моего сердца","kp_id":"1111704","imdb_id":"tt8081138","world_art_id":null,"type":"serial","add":"2019-01-08 17:15:58","orig_title":"Kalbimin Sultani","year":"2018-06-13","translations":["Профессиональный (многоголосый закадровый) (Первый канал | ОРТ)"],"seasons_count":1,"episodes_count":24,"episodes":24,"update":"2019-01-27 16:14:40","iframe_src":"//2413.svetacdn.in/71tsRs29n5tZ/tv-series/3850"},{"id":3800,"title":"Бессмертник","kp_id":"885353","imdb_id":"tt4458082","world_art_id":null,"type":"serial","add":"2018-12-30 15:08:11","orig_title":"Bessmertnik","year":"2015-02-02","translations":["Оригинальная дорожка"],"seasons_count":4,"episodes_count":100,"episodes":26,"update":"2019-01-27 17:53:56","iframe_src":"//2413.svetacdn.in/71tsRs29n5tZ/tv-series/3800"},{"id":3234,"title":"Лесник","kp_id":"566493","imdb_id":"tt2019343","world_art_id":null,"type":"serial","add":"2018-09-28 11:12:22","orig_title":"Lesnik","year":"2011-04-04","translations":["Оригинальная дорожка"],"seasons_count":1,"episodes_count":48,"episodes":48,"update":"2019-01-24 19:27:18","iframe_src":"//2413.svetacdn.in/71tsRs29n5tZ/tv-series/3234"},{"id":3199,"title":"Мне неловко","kp_id":"1137263","imdb_id":"tt7979042","world_art_id":null,"type":"serial","add":"2018-09-21 10:53:47","orig_title":"I Feel Bad","year":"2018-09-19","translations":["Любительский (двухголосый закадровый) (Sunshine Studio)","Профессиональный (многоголосый закадровый) (NewStudio)"],"seasons_count":1,"episodes_count":13,"episodes":13,"update":"2019-01-28 10:19:22","iframe_src":"//2413.svetacdn.in/71tsRs29n5tZ/tv-series/3199"},{"id":891,"title":"Между нами, девочками","kp_id":"893068","imdb_id":null,"world_art_id":null,"type":"serial","add":"2017-01-17 06:43:23","orig_title":"Между нами, девочками","year":"2015-03-10","translations":["Оригинальная дорожка"],"seasons_count":1,"episodes_count":20,"episodes":20,"update":"2019-01-28 12:44:58","iframe_src":"//2413.svetacdn.in/71tsRs29n5tZ/tv-series/891"},{"id":7433,"title":"На самом дне","kp_id":"650","imdb_id":"tt0250323","world_art_id":null,"type":"movie","add":"2016-11-14 14:14:04","orig_title":"The Deep End","year":"2001-01-21","translations":["Профессиональный (двухголосый закадровый)","[EN] Original (English)","Профессиональный (двухголосый закадровый) (НТВ)","Профессиональный (многоголосый закадровый) (Первый канал | ОРТ)","Профессиональный (многоголосый закадровый)"],"quality":"hdtv","translation":"Профессиональный (двухголосый закадровый)","update":"2021-08-04 09:59:08","iframe_src":"//2413.svetacdn.in/71tsRs29n5tZ/movie/7433"},{"id":6232,"title":"Стерва","kp_id":"3700","imdb_id":"tt0239948","world_art_id":null,"type":"movie","add":"2016-10-12 15:34:04","orig_title":"Saving Silverman","year":"2001-02-07","translations":["Полное дублирование","Авторский (одноголосый закадровый) (Карповский Антон)","Полное дублирование (Невафильм | Нева-1)","[EN] Original (English)","Профессиональный (двухголосый закадровый) (Garsu Pasaulis)","Профессиональный (двухголосый закадровый) (Видеосервис)"],"quality":"webdl","translation":"Полное дублирование","update":"2021-08-04 10:06:05","iframe_src":"//2413.svetacdn.in/71tsRs29n5tZ/movie/6232"},{"id":1900,"title":"Слезы солнца","kp_id":"855","imdb_id":"tt0314353","world_art_id":null,"type":"movie","add":"2016-05-05 12:31:39","orig_title":"Tears of the Sun","year":"2003-03-03","translations":["Полное дублирование","Авторский (одноголосый закадровый) (Карповский Антон)","Полное дублирование","[EN] Original (English)","Профессиональный (многоголосый закадровый)"],"quality":"bd","translation":"Полное дублирование","update":"2021-08-04 15:50:22","iframe_src":"//2413.svetacdn.in/71tsRs29n5tZ/movie/1900"},{"id":887,"title":"Искупление","kp_id":"255611","imdb_id":"tt0783233","world_art_id":null,"type":"movie","add":"2016-04-08 21:20:36","orig_title":"Atonement","year":"2007-08-28","translations":["Полное дублирование","Авторский (одноголосый закадровый) (Сербин Юрий)","Полное дублирование","[EN] Original (English)"],"quality":"bd","translation":"Полное дублирование","update":"2021-08-04 10:40:14","iframe_src":"//2413.svetacdn.in/71tsRs29n5tZ/movie/887"}],"current_page":487,"first_page_url":"https://videocdn.tv/api/short?limit=100&api_token=EnbO9h8pv1VyjbCJhg0WM9nG259n7mtz&cache3487=3487&page=1","from":48601,"last_page":717,"last_page_url":"https://videocdn.tv/api/short?limit=100&api_token=EnbO9h8pv1VyjbCJhg0WM9nG259n7mtz&cache3487=3487&page=717","next_page_url":"https://videocdn.tv/api/short?limit=100&api_token=EnbO9h8pv1VyjbCJhg0WM9nG259n7mtz&cache3487=3487&page=488","path":"https://videocdn.tv/api/short","per_page":100,"prev_page_url":"https://videocdn.tv/api/short?limit=100&api_token=EnbO9h8pv1VyjbCJhg0WM9nG259n7mtz&cache3487=3487&page=486","to":48640,"total":71667}