{"result":true,"data":[{"id":50431,"title":"Иваново счастье","kp_id":"1338239","imdb_id":null,"world_art_id":null,"type":"movie","add":"2021-05-17 06:45:11","orig_title":"Ivanovo schastye","year":"2021-05-13","translations":["Оригинальная дорожка"],"quality":"ts","translation":"Оригинальная дорожка","update":"2021-05-17 10:46:27","iframe_src":"//8209.svetacdn.in/si4jsFRrtgrT/movie/50431"},{"id":50421,"title":"Рисунки дождем","kp_id":"1046909","imdb_id":"tt8149810","world_art_id":null,"type":"movie","add":"2021-05-17 06:04:39","orig_title":"Risunki dozhdyom","year":"2018-10-22","translations":["Оригинальная дорожка"],"quality":"webdl","translation":"Оригинальная дорожка","update":"2021-05-17 09:11:08","iframe_src":"//8209.svetacdn.in/si4jsFRrtgrT/movie/50421"},{"id":50420,"title":"В стране фей","kp_id":"1137267","imdb_id":"tt6461664","world_art_id":null,"type":"movie","add":"2021-05-17 05:36:34","orig_title":"Faunutland and the Lost Magic","year":"2020-07-07","translations":["Полное дублирование (iTunes)"],"quality":"bd","translation":"Полное дублирование (iTunes)","update":"2021-05-17 10:52:21","iframe_src":"//8209.svetacdn.in/si4jsFRrtgrT/movie/50420"},{"id":50380,"title":"Тихая вечеринка","kp_id":"1315564","imdb_id":"tt11160900","world_art_id":null,"type":"movie","add":"2021-05-13 19:54:04","orig_title":"La Fiesta Silenciosa","year":"2019-11-11","translations":["Любительский (многоголосый закадровый) (Синема УС)","Любительский (двухголосый закадровый) (datynet & Yuka_chan)"],"quality":"webdl","translation":"Любительский (многоголосый закадровый) (Синема УС)","update":"2021-05-17 09:50:30","iframe_src":"//8209.svetacdn.in/si4jsFRrtgrT/movie/50380"},{"id":50286,"title":"Всемогущий я","kp_id":"1256337","imdb_id":"tt10097544","world_art_id":null,"type":"movie","add":"2021-05-11 07:03:13","orig_title":"Qi huan zhi lu","year":"2021-05-08","translations":["Любительский (многоголосый закадровый) (Синема УС)","Профессиональный (двухголосый закадровый) (Pazl Voice)","Любительский (многоголосый закадровый) (STEPonee)"],"quality":"webdl","translation":"Любительский (многоголосый закадровый) (Синема УС)","update":"2021-05-17 09:53:51","iframe_src":"//8209.svetacdn.in/si4jsFRrtgrT/movie/50286"},{"id":49580,"title":"Душевные болезни","kp_id":"495001","imdb_id":"tt1592265","world_art_id":null,"type":"movie","add":"2021-04-13 13:24:09","orig_title":"Maladies","year":"2012-06-22","translations":["Профессиональный (многоголосый закадровый)","Original (English)"],"quality":"bd","translation":"Профессиональный (многоголосый закадровый)","update":"2021-05-17 08:34:01","iframe_src":"//8209.svetacdn.in/si4jsFRrtgrT/movie/49580"},{"id":48388,"title":"Девушка в подвале","kp_id":"1435749","imdb_id":"tt13269536","world_art_id":null,"type":"movie","add":"2021-03-03 14:09:47","orig_title":"Girl in the Basement","year":"2021-02-27","translations":["Любительский (многоголосый закадровый) (Синема УС)","Original (English)"],"quality":"webdl","translation":"Любительский (многоголосый закадровый) (Синема УС)","update":"2021-05-17 08:28:41","iframe_src":"//8209.svetacdn.in/si4jsFRrtgrT/movie/48388"},{"id":45423,"title":"Феномен","kp_id":"1412513","imdb_id":"tt13095604","world_art_id":null,"type":"movie","add":"2020-11-19 08:45:02","orig_title":"The Phenomenon","year":"2020-10-06","translations":["Original (English)","Профессиональный (двухголосый закадровый) (ViruseProject)"],"quality":"webdl","translation":"Original (English)","update":"2021-05-17 10:53:41","iframe_src":"//8209.svetacdn.in/si4jsFRrtgrT/movie/45423"},{"id":8353,"title":"Афганский призрак","kp_id":"416133","imdb_id":"tt1229833","world_art_id":null,"type":"serial","add":"2020-08-04 07:06:55","orig_title":"Afganskiy prizrak","year":"2008-05-04","translations":["Оригинальная дорожка"],"seasons_count":1,"episodes_count":8,"episodes":8,"update":"2020-08-04 15:33:13","iframe_src":"//8209.svetacdn.in/si4jsFRrtgrT/tv-series/8353"},{"id":8346,"title":"Мужество","kp_id":"1157553","imdb_id":"tt8409626","world_art_id":null,"type":"serial","add":"2020-08-03 19:11:25","orig_title":"Cold Courage","year":"2020-05-03","translations":["Профессиональный (двухголосый закадровый) (ViruseProject)"],"seasons_count":1,"episodes_count":8,"episodes":8,"update":"2020-08-04 12:46:00","iframe_src":"//8209.svetacdn.in/si4jsFRrtgrT/tv-series/8346"},{"id":8343,"title":"Новогодний пёс","kp_id":"1254718","imdb_id":null,"world_art_id":null,"type":"serial","add":"2020-08-03 16:06:52","orig_title":"Новогодний пёс","year":"2018-12-31","translations":["Оригинальная дорожка"],"seasons_count":1,"episodes_count":2,"episodes":2,"update":"2020-08-04 15:28:22","iframe_src":"//8209.svetacdn.in/si4jsFRrtgrT/tv-series/8343"},{"id":8342,"title":"Красная лента","kp_id":"1226425","imdb_id":null,"world_art_id":null,"type":"serial","add":"2020-08-03 16:05:16","orig_title":"Красная лента","year":"2018-12-07","translations":["Оригинальная дорожка"],"seasons_count":1,"episodes_count":2,"episodes":2,"update":"2020-08-04 15:27:38","iframe_src":"//8209.svetacdn.in/si4jsFRrtgrT/tv-series/8342"},{"id":8341,"title":"Интриганки","kp_id":"1112716","imdb_id":null,"world_art_id":null,"type":"serial","add":"2020-08-03 16:03:07","orig_title":"Интриганки","year":"2018-02-16","translations":["Оригинальная дорожка"],"seasons_count":1,"episodes_count":2,"episodes":2,"update":"2020-08-04 15:27:09","iframe_src":"//8209.svetacdn.in/si4jsFRrtgrT/tv-series/8341"},{"id":8340,"title":"ГРУ. Тайны военной разведки","kp_id":"648130","imdb_id":null,"world_art_id":null,"type":"serial","add":"2020-08-03 15:59:00","orig_title":"ГРУ. Тайны военной разведки","year":"2011-10-18","translations":["Оригинальная дорожка"],"seasons_count":1,"episodes_count":10,"episodes":10,"update":"2020-08-04 15:31:07","iframe_src":"//8209.svetacdn.in/si4jsFRrtgrT/tv-series/8340"},{"id":8339,"title":"Гаражный папа","kp_id":"1232231","imdb_id":null,"world_art_id":null,"type":"serial","add":"2020-08-03 15:56:16","orig_title":"Гаражный папа","year":"2019-01-02","translations":["Оригинальная дорожка"],"seasons_count":1,"episodes_count":2,"episodes":2,"update":"2020-08-04 15:26:16","iframe_src":"//8209.svetacdn.in/si4jsFRrtgrT/tv-series/8339"},{"id":8334,"title":"Ракон","kp_id":"891413","imdb_id":"tt4371812","world_art_id":null,"type":"serial","add":"2020-08-03 10:22:36","orig_title":"Racon","year":"2015-10-03","translations":["Любительский (одноголосый закадровый)"],"seasons_count":1,"episodes_count":4,"episodes":4,"update":"2020-08-04 12:35:06","iframe_src":"//8209.svetacdn.in/si4jsFRrtgrT/tv-series/8334"},{"id":8333,"title":"Сармат 2: Покушение","kp_id":"302580","imdb_id":"tt5518412","world_art_id":null,"type":"serial","add":"2020-08-03 10:18:36","orig_title":"Sarmat 2","year":"2005-04-18","translations":["Оригинальная дорожка"],"seasons_count":1,"episodes_count":4,"episodes":4,"update":"2020-08-04 12:33:34","iframe_src":"//8209.svetacdn.in/si4jsFRrtgrT/tv-series/8333"},{"id":8332,"title":"Таксистка 4","kp_id":"466472","imdb_id":null,"world_art_id":null,"type":"serial","add":"2020-08-03 09:38:36","orig_title":"Taksistka 4","year":"2007-10-04","translations":["Оригинальная дорожка"],"seasons_count":1,"episodes_count":12,"episodes":12,"update":"2020-08-04 12:30:01","iframe_src":"//8209.svetacdn.in/si4jsFRrtgrT/tv-series/8332"},{"id":8331,"title":"Таксистка 3","kp_id":"460497","imdb_id":"tt4791030","world_art_id":null,"type":"serial","add":"2020-08-03 09:36:17","orig_title":"Taksistka 3","year":"2006-01-01","translations":["Оригинальная дорожка"],"seasons_count":1,"episodes_count":12,"episodes":12,"update":"2020-08-04 12:26:40","iframe_src":"//8209.svetacdn.in/si4jsFRrtgrT/tv-series/8331"},{"id":8330,"title":"Таксистка","kp_id":"423986","imdb_id":"tt4763392","world_art_id":null,"type":"serial","add":"2020-08-03 09:31:45","orig_title":"Taksistka-1","year":"2003-01-01","translations":["Оригинальная дорожка"],"seasons_count":1,"episodes_count":12,"episodes":12,"update":"2020-08-04 12:24:38","iframe_src":"//8209.svetacdn.in/si4jsFRrtgrT/tv-series/8330"},{"id":8329,"title":"Версия 2","kp_id":"537156","imdb_id":"tt4996288","world_art_id":null,"type":"serial","add":"2020-08-03 08:59:54","orig_title":"Versiya 2","year":"2011-03-12","translations":["Оригинальная дорожка"],"seasons_count":1,"episodes_count":8,"episodes":8,"update":"2020-08-04 12:21:07","iframe_src":"//8209.svetacdn.in/si4jsFRrtgrT/tv-series/8329"},{"id":8328,"title":"Любовь и разлука","kp_id":"581898","imdb_id":"tt4350736","world_art_id":null,"type":"serial","add":"2020-08-03 08:53:53","orig_title":"Lyubov i razluka","year":"2011-03-22","translations":["Оригинальная дорожка"],"seasons_count":1,"episodes_count":8,"episodes":8,"update":"2020-08-04 12:07:07","iframe_src":"//8209.svetacdn.in/si4jsFRrtgrT/tv-series/8328"},{"id":8327,"title":"Последний кордон. Продолжение","kp_id":"651663","imdb_id":null,"world_art_id":null,"type":"serial","add":"2020-08-03 08:49:09","orig_title":"Posledniy kordon. Prodolgeniye","year":"2011-01-01","translations":["Оригинальная дорожка"],"seasons_count":1,"episodes_count":12,"episodes":12,"update":"2020-08-04 12:05:00","iframe_src":"//8209.svetacdn.in/si4jsFRrtgrT/tv-series/8327"},{"id":8316,"title":"Приставы","kp_id":"585369","imdb_id":"tt10856408","world_art_id":null,"type":"serial","add":"2020-08-01 17:41:59","orig_title":"Pristavy","year":"2011-01-01","translations":["Оригинальная дорожка"],"seasons_count":1,"episodes_count":20,"episodes":20,"update":"2020-08-04 13:28:14","iframe_src":"//8209.svetacdn.in/si4jsFRrtgrT/tv-series/8316"},{"id":8289,"title":"Бешеные псы","kp_id":"570107","imdb_id":"tt1652218","world_art_id":null,"type":"serial","add":"2020-07-30 12:58:47","orig_title":"Mad Dogs","year":"2011-02-10","translations":["Профессиональный (двухголосый закадровый) (Кубик в Кубе)"],"seasons_count":4,"episodes_count":14,"episodes":2,"update":"2020-08-04 13:17:34","iframe_src":"//8209.svetacdn.in/si4jsFRrtgrT/tv-series/8289"},{"id":6910,"title":"Заговор против Америки","kp_id":"1254369","imdb_id":"tt9308346","world_art_id":null,"type":"serial","add":"2020-03-17 08:41:17","orig_title":"The Plot Against America","year":"2020-03-16","translations":["Любительский (многоголосый закадровый) (Octopus)","Любительский (многоголосый закадровый) (WestFilm)","Любительский (многоголосый закадровый) (ColdFilm)","Профессиональный (многоголосый закадровый) (Кравец)","Профессиональный (многоголосый закадровый) (NewStudio)"],"seasons_count":1,"episodes_count":6,"episodes":6,"update":"2020-08-04 13:07:54","iframe_src":"//8209.svetacdn.in/si4jsFRrtgrT/tv-series/6910"},{"id":37268,"title":"Затойчи","kp_id":"113513","imdb_id":"tt0202152","world_art_id":null,"type":"movie","add":"2020-03-03 08:09:53","orig_title":"Zatôichi","year":"1989-02-04","translations":["Профессиональный (двухголосый закадровый)","Профессиональный (двухголосый закадровый)"],"quality":"dvdrip","translation":"Профессиональный (двухголосый закадровый)","update":"2021-05-17 09:20:29","iframe_src":"//8209.svetacdn.in/si4jsFRrtgrT/movie/37268"},{"id":36156,"title":"Не умирай в одиночку","kp_id":"6865","imdb_id":"tt0354766","world_art_id":null,"type":"movie","add":"2020-02-12 17:12:18","orig_title":"Never Die Alone","year":"2004-01-19","translations":["Профессиональный (многоголосый закадровый)","Профессиональный (двухголосый закадровый) (Екатеринбург Арт)","Original (English)"],"quality":"hdtv","translation":"Профессиональный (многоголосый закадровый)","update":"2021-05-17 08:32:43","iframe_src":"//8209.svetacdn.in/si4jsFRrtgrT/movie/36156"},{"id":30560,"title":"Не отпускай","kp_id":"1047818","imdb_id":"tt6803212","world_art_id":null,"type":"movie","add":"2019-09-04 20:33:20","orig_title":"Don't Let Go","year":"2019-01-27","translations":["Полное дублирование (iTunes)","Original (English)"],"quality":"bd","translation":"Полное дублирование (iTunes)","update":"2021-05-17 08:35:35","iframe_src":"//8209.svetacdn.in/si4jsFRrtgrT/movie/30560"},{"id":29527,"title":"Сувенир","kp_id":"1046054","imdb_id":"tt6920356","world_art_id":null,"type":"movie","add":"2019-07-30 05:57:22","orig_title":"The Souvenir","year":"2019-01-27","translations":["Полное дублирование (Netflix)","Original (English)"],"quality":"bd","translation":"Полное дублирование (Netflix)","update":"2021-05-17 08:31:21","iframe_src":"//8209.svetacdn.in/si4jsFRrtgrT/movie/29527"},{"id":3598,"title":"Летящие сквозь ночь","kp_id":"1046273","imdb_id":"tt6903284","world_art_id":null,"type":"serial","add":"2018-12-02 10:31:03","orig_title":"Nightflyers","year":"2018-12-02","translations":["Любительский (двухголосый закадровый) (KinoGolos)","Профессиональный (многоголосый закадровый) (BaibaKo)","Профессиональный (многоголосый закадровый) (LostFilm)","Профессиональный (многоголосый закадровый) (HDrezka Studio)","Профессиональный (двухголосый закадровый) (Gears Media)","Профессиональный (многоголосый закадровый) (OMSKBIRD records)","Профессиональный (многоголосый закадровый) (Jaskier)","Профессиональный (многоголосый закадровый) (NewStudio)","Профессиональный (многоголосый закадровый) (TVShows)","Профессиональный (многоголосый закадровый) (IdeaFilm)"],"seasons_count":1,"episodes_count":10,"episodes":10,"update":"2020-08-04 11:53:37","iframe_src":"//8209.svetacdn.in/si4jsFRrtgrT/tv-series/3598"},{"id":3112,"title":"Доллар","kp_id":"1178063","imdb_id":"tt7230898","world_art_id":null,"type":"serial","add":"2018-09-02 11:09:34","orig_title":"One Dollar","year":"2018-08-30","translations":["Профессиональный (многоголосый закадровый) (NewStudio)","Профессиональный (многоголосый закадровый) (HDrezka Studio)","Профессиональный (многоголосый закадровый) (Kansai)"],"seasons_count":1,"episodes_count":10,"episodes":10,"update":"2020-08-04 11:57:46","iframe_src":"//8209.svetacdn.in/si4jsFRrtgrT/tv-series/3112"},{"id":18528,"title":"Мститель","kp_id":"993876","imdb_id":"tt5885106","world_art_id":null,"type":"movie","add":"2018-08-26 12:31:01","orig_title":"Vengeance","year":"2018-08-23","translations":["Любительский (многоголосый закадровый) (@MUZOBOZ@)","Профессиональный (многоголосый закадровый) (HDrezka Studio)","Original (English)","Профессиональный (многоголосый закадровый) (iTunes)"],"quality":"webdl","translation":"Любительский (многоголосый закадровый) (@MUZOBOZ@)","update":"2021-05-17 08:41:16","iframe_src":"//8209.svetacdn.in/si4jsFRrtgrT/movie/18528"},{"id":18351,"title":"Американские животные","kp_id":"1008355","imdb_id":"tt6212478","world_art_id":null,"type":"movie","add":"2018-08-16 22:21:10","orig_title":"American Animals","year":"2018-01-19","translations":["Профессиональный (многоголосый закадровый) (iTunes)","Профессиональный (многоголосый закадровый)","Профессиональный (многоголосый закадровый) (HDrezka Studio)","Профессиональный (многоголосый закадровый) (СВ-Студия)","Original (English)"],"quality":"bd","translation":"Профессиональный (многоголосый закадровый) (iTunes)","update":"2021-05-17 08:36:47","iframe_src":"//8209.svetacdn.in/si4jsFRrtgrT/movie/18351"},{"id":14450,"title":"Каратель: Территория войны","kp_id":"102241","imdb_id":"tt0450314","world_art_id":null,"type":"movie","add":"2017-11-25 13:43:11","orig_title":"Punisher: War Zone","year":"2008-12-04","translations":["Профессиональный (многоголосый закадровый)","Авторский (одноголосый закадровый) (Немахов Юрий)","Любительский (одноголосый закадровый) (Строев Денис)","Original (English)","Профессиональный (многоголосый закадровый)","Профессиональный (многоголосый закадровый) (Киномания)"],"quality":"bd","translation":"Профессиональный (многоголосый закадровый)","update":"2021-05-17 10:51:56","iframe_src":"//8209.svetacdn.in/si4jsFRrtgrT/movie/14450"},{"id":7391,"title":"Про Адама","kp_id":"16673","imdb_id":"tt0199314","world_art_id":null,"type":"movie","add":"2016-11-13 12:18:01","orig_title":"About Adam","year":"2000-01-28","translations":["Профессиональный (многоголосый закадровый)","Профессиональный (многоголосый закадровый) (West Video)","Original (English)"],"quality":"webdl","translation":"Профессиональный (многоголосый закадровый)","update":"2021-05-17 09:27:20","iframe_src":"//8209.svetacdn.in/si4jsFRrtgrT/movie/7391"},{"id":5053,"title":"Каратель","kp_id":"17661","imdb_id":"tt0330793","world_art_id":null,"type":"movie","add":"2016-09-06 08:50:47","orig_title":"The Punisher","year":"2004-04-15","translations":["Полное дублирование","Авторский (одноголосый закадровый) (Карповский Антон)","Авторский (одноголосый закадровый) (Королёв Владимир)","Полное дублирование","Original (English)","Профессиональный (двухголосый закадровый) (Tycoon)","Профессиональный (многоголосый закадровый) (Киномания)"],"quality":"bd","translation":"Полное дублирование","update":"2021-05-17 11:02:33","iframe_src":"//8209.svetacdn.in/si4jsFRrtgrT/movie/5053"},{"id":4157,"title":"Кто я?","kp_id":"24690","imdb_id":"tt0127357","world_art_id":null,"type":"movie","add":"2016-07-25 15:32:49","orig_title":"Ngo si seoi","year":"1998-01-17","translations":["Полное дублирование","Полное дублирование (ТВ3)","Авторский (одноголосый закадровый) (Горчаков Василий)","Авторский (одноголосый закадровый) (Кашкин Александр | Первомайский)","Авторский (одноголосый закадровый) (Живов Юрий)","Полное дублирование","Профессиональный (двухголосый закадровый) (РенТВ)","Профессиональный (двухголосый закадровый) (ТВ6)","Профессиональный (многоголосый закадровый) (РТР | Россия)"],"quality":"bd","translation":"Полное дублирование","update":"2021-05-17 10:14:11","iframe_src":"//8209.svetacdn.in/si4jsFRrtgrT/movie/4157"},{"id":2841,"title":"Домик на дереве","kp_id":"648576","imdb_id":"tt1791681","world_art_id":null,"type":"movie","add":"2016-06-02 09:48:03","orig_title":"Treehouse","year":"2014-10-20","translations":["Любительский (двухголосый закадровый)","Любительский (двухголосый закадровый) (DeadSno & den904)","Original (English)"],"quality":"webdl","translation":"Любительский (двухголосый закадровый)","update":"2021-05-17 08:30:21","iframe_src":"//8209.svetacdn.in/si4jsFRrtgrT/movie/2841"},{"id":992,"title":"Слишком крута для тебя","kp_id":"397673","imdb_id":"tt0815236","world_art_id":null,"type":"movie","add":"2016-04-12 13:14:03","orig_title":"She's Out of My League","year":"2010-03-11","translations":["Полное дублирование","Полное дублирование","Original (English)","Профессиональный (двухголосый закадровый)"],"quality":"bd","translation":"Полное дублирование","update":"2021-05-17 10:35:54","iframe_src":"//8209.svetacdn.in/si4jsFRrtgrT/movie/992"}],"current_page":206,"first_page_url":"https://videocdn.tv/api/short?limit=100&api_token=X6EwAUfE5M9xbo7y0Bp0aPf3uXxG2KLL&cache3206=3206&page=1","from":20501,"last_page":655,"last_page_url":"https://videocdn.tv/api/short?limit=100&api_token=X6EwAUfE5M9xbo7y0Bp0aPf3uXxG2KLL&cache3206=3206&page=655","next_page_url":"https://videocdn.tv/api/short?limit=100&api_token=X6EwAUfE5M9xbo7y0Bp0aPf3uXxG2KLL&cache3206=3206&page=207","path":"https://videocdn.tv/api/short","per_page":100,"prev_page_url":"https://videocdn.tv/api/short?limit=100&api_token=X6EwAUfE5M9xbo7y0Bp0aPf3uXxG2KLL&cache3206=3206&page=205","to":20540,"total":65456}