{"result":true,"data":[{"id":51459,"title":"Загадка троянского коня","kp_id":"4473045","imdb_id":"tt14216682","world_art_id":null,"type":"movie","add":"2021-06-29 07:24:27","orig_title":"The Mystery of the Trojan Horse","year":"2021-03-27","translations":["Профессиональный (одноголосый закадровый) (SDI Media | Iyuno-SDI Group Russia)"],"quality":"hdtv","translation":"Профессиональный (одноголосый закадровый) (SDI Media | Iyuno-SDI Group Russia)","update":"2021-06-29 09:29:39","iframe_src":"//8965.svetacdn.in/si4jsFRrtgrT/movie/51459"},{"id":51456,"title":"Воровство — моя работа","kp_id":"99295","imdb_id":"tt0246493","world_art_id":null,"type":"movie","add":"2021-06-28 21:49:43","orig_title":"Chori Mera Kaam","year":"1975-05-02","translations":["Профессиональный (многоголосый закадровый)"],"quality":"iptv","translation":"Профессиональный (многоголосый закадровый)","update":"2021-06-29 08:32:16","iframe_src":"//8965.svetacdn.in/si4jsFRrtgrT/movie/51456"},{"id":51452,"title":"Блогеры и дороги","kp_id":"4474046","imdb_id":null,"world_art_id":null,"type":"movie","add":"2021-06-28 21:19:17","orig_title":"Блогеры и дороги","year":"2021-06-24","translations":["Оригинальная дорожка"],"quality":"ts","translation":"Оригинальная дорожка","update":"2021-06-29 08:31:37","iframe_src":"//8965.svetacdn.in/si4jsFRrtgrT/movie/51452"},{"id":51451,"title":"Анонимус - часть первая. Незабываемое путешествие: Тайна Атлантиды","kp_id":null,"imdb_id":"tt12059646","world_art_id":null,"type":"movie","add":"2021-06-28 21:17:15","orig_title":"Anonymous Vol. 1 - The Dreamland Adventures the Mysteries of Atlantis","year":"2020-01-01","translations":["Любительский (многоголосый закадровый) (Синема УС)"],"quality":"webdl","translation":"Любительский (многоголосый закадровый) (Синема УС)","update":"2021-06-29 08:29:57","iframe_src":"//8965.svetacdn.in/si4jsFRrtgrT/movie/51451"},{"id":51394,"title":"Почему я?","kp_id":"17611","imdb_id":"tt0100931","world_art_id":null,"type":"movie","add":"2021-06-24 18:12:07","orig_title":"Why Me?","year":"1990-01-10","translations":["[EN] Original (English)","Профессиональный (многоголосый закадровый) (ТВ3)"],"quality":"bd","translation":"[EN] Original (English)","update":"2021-06-29 07:57:01","iframe_src":"//8965.svetacdn.in/si4jsFRrtgrT/movie/51394"},{"id":51323,"title":"Мой утренний смех","kp_id":"1152351","imdb_id":"tt8403038","world_art_id":null,"type":"movie","add":"2021-06-21 11:36:17","orig_title":"Moj jutarnji smeh","year":"2019-11-26","translations":["Любительский (многоголосый закадровый) (Синема УС)"],"quality":"webdl","translation":"Любительский (многоголосый закадровый) (Синема УС)","update":"2021-06-28 17:28:08","iframe_src":"//8965.svetacdn.in/si4jsFRrtgrT/movie/51323"},{"id":51230,"title":"В поисках Зорро","kp_id":null,"imdb_id":"tt5420162","world_art_id":null,"type":"movie","add":"2021-06-16 10:44:49","orig_title":"Buscando Al Zorro","year":"2019-04-12","translations":["Любительский (многоголосый закадровый) (Синема УС)"],"quality":"webdl","translation":"Любительский (многоголосый закадровый) (Синема УС)","update":"2021-06-28 20:05:09","iframe_src":"//8965.svetacdn.in/si4jsFRrtgrT/movie/51230"},{"id":51227,"title":"Один летний день","kp_id":"1148881","imdb_id":"tt7476812","world_art_id":null,"type":"movie","add":"2021-06-16 10:42:55","orig_title":"One Summer Afternoon","year":"2019-08-30","translations":["Любительский (многоголосый закадровый) (Синема УС)"],"quality":"webdl","translation":"Любительский (многоголосый закадровый) (Синема УС)","update":"2021-06-28 20:03:42","iframe_src":"//8965.svetacdn.in/si4jsFRrtgrT/movie/51227"},{"id":41685,"title":"Лесной воин","kp_id":"198891","imdb_id":"tt0116341","world_art_id":null,"type":"movie","add":"2020-07-09 20:26:31","orig_title":"Forest Warrior","year":"1996-11-05","translations":["Профессиональный (многоголосый закадровый)","Профессиональный (многоголосый закадровый)","Авторский (одноголосый закадровый) (Гаврилов Андрей)","[EN] Original (English)"],"quality":"dvdrip","translation":"Профессиональный (многоголосый закадровый)","update":"2021-06-28 15:20:03","iframe_src":"//8965.svetacdn.in/si4jsFRrtgrT/movie/41685"},{"id":38941,"title":"Ты будешь моей","kp_id":"80416","imdb_id":"tt0292552","world_art_id":null,"type":"movie","add":"2020-04-06 11:37:04","orig_title":"Hum Ho Gaye Aap Ke","year":"2001-08-03","translations":["Профессиональный (двухголосый закадровый)","Профессиональный (многоголосый закадровый)"],"quality":"dvdrip","translation":"Профессиональный (двухголосый закадровый)","update":"2021-06-28 14:56:30","iframe_src":"//8965.svetacdn.in/si4jsFRrtgrT/movie/38941"},{"id":36080,"title":"Нет выбора","kp_id":"22662","imdb_id":"tt0096211","world_art_id":null,"type":"movie","add":"2020-02-11 17:24:32","orig_title":"Taffin","year":"1988-02-26","translations":["Профессиональный (многоголосый закадровый) (ДТВ)","Профессиональный (двухголосый закадровый) (Екатеринбург Арт)","[EN] Original (English)","Профессиональный (двухголосый закадровый) (ДТВ)"],"quality":"dvdrip","translation":"Профессиональный (многоголосый закадровый) (ДТВ)","update":"2021-06-29 09:27:17","iframe_src":"//8965.svetacdn.in/si4jsFRrtgrT/movie/36080"},{"id":3949,"title":"Юхан Фальк: Мирная дипломатия","kp_id":"888338","imdb_id":"tt4383196","world_art_id":null,"type":"serial","add":"2019-01-24 13:02:37","orig_title":"Johan Falk: Tyst diplomati","year":"2015-06-25","translations":["Профессиональный (многоголосый закадровый) (ShowJet)"],"seasons_count":1,"episodes_count":2,"episodes":2,"update":"2019-01-25 07:49:11","iframe_src":"//8965.svetacdn.in/si4jsFRrtgrT/tv-series/3949"},{"id":3948,"title":"Юхан Фальк 13","kp_id":"870555","imdb_id":"tt3775742","world_art_id":null,"type":"serial","add":"2019-01-24 13:00:05","orig_title":"Johan Falk: Ur askan i elden","year":"2015-06-18","translations":["Профессиональный (многоголосый закадровый) (ShowJet)"],"seasons_count":1,"episodes_count":2,"episodes":2,"update":"2019-01-25 07:47:01","iframe_src":"//8965.svetacdn.in/si4jsFRrtgrT/tv-series/3948"},{"id":3947,"title":"Кунг-фу Панда: Удивительные легенды","kp_id":"570074","imdb_id":"tt1545214","world_art_id":null,"type":"serial","add":"2019-01-23 20:57:31","orig_title":"Kung Fu Panda: Legends of Awesomeness","year":"2011-09-19","translations":["Полное дублирование","Полное дублирование (SDI Media | Iyuno-SDI Group Russia)"],"seasons_count":3,"episodes_count":79,"episodes":28,"update":"2019-01-24 14:45:37","iframe_src":"//8965.svetacdn.in/si4jsFRrtgrT/tv-series/3947"},{"id":3946,"title":"Юхан Фальк 12","kp_id":"692966","imdb_id":"tt2279786","world_art_id":null,"type":"serial","add":"2019-01-23 12:50:36","orig_title":"Johan Falk: Kodnamn: Lisa","year":"2012-10-19","translations":["Профессиональный (многоголосый закадровый) (ShowJet)"],"seasons_count":1,"episodes_count":2,"episodes":2,"update":"2019-01-24 08:49:02","iframe_src":"//8965.svetacdn.in/si4jsFRrtgrT/tv-series/3946"},{"id":3945,"title":"Юхан Фальк 11","kp_id":"693004","imdb_id":"tt2238660","world_art_id":null,"type":"serial","add":"2019-01-23 12:48:34","orig_title":"Johan Falk: Barninfiltratören","year":"2012-10-12","translations":["Профессиональный (многоголосый закадровый) (ShowJet)"],"seasons_count":1,"episodes_count":2,"episodes":2,"update":"2019-01-24 08:46:57","iframe_src":"//8965.svetacdn.in/si4jsFRrtgrT/tv-series/3945"},{"id":3944,"title":"Юхан Фальк: Организация Караян","kp_id":"693886","imdb_id":"tt2279838","world_art_id":null,"type":"serial","add":"2019-01-23 12:46:04","orig_title":"Johan Falk: Organizatsija Karayan","year":"2012-10-05","translations":["Профессиональный (многоголосый закадровый) (ShowJet)"],"seasons_count":1,"episodes_count":2,"episodes":2,"update":"2019-01-24 08:44:37","iframe_src":"//8965.svetacdn.in/si4jsFRrtgrT/tv-series/3944"},{"id":3943,"title":"Юхан Фальк 9","kp_id":"693135","imdb_id":"tt2239108","world_art_id":null,"type":"serial","add":"2019-01-23 12:44:00","orig_title":"Johan Falk: Alla råns moder","year":"2012-09-28","translations":["Профессиональный (многоголосый закадровый) (ShowJet)"],"seasons_count":1,"episodes_count":2,"episodes":2,"update":"2019-01-24 08:42:38","iframe_src":"//8965.svetacdn.in/si4jsFRrtgrT/tv-series/3943"},{"id":3942,"title":"Юхан Фальк 8","kp_id":"693136","imdb_id":"tt2239096","world_art_id":null,"type":"serial","add":"2019-01-23 12:42:04","orig_title":"Johan Falk: De 107 patrioterna","year":"2012-09-21","translations":["Профессиональный (многоголосый закадровый) (ShowJet)"],"seasons_count":1,"episodes_count":2,"episodes":2,"update":"2019-01-24 08:41:09","iframe_src":"//8965.svetacdn.in/si4jsFRrtgrT/tv-series/3942"},{"id":3941,"title":"Юхан Фальк 7","kp_id":"692967","imdb_id":"tt2239100","world_art_id":null,"type":"serial","add":"2019-01-23 12:39:23","orig_title":"Johan Falk: Spelets regler","year":"2012-09-14","translations":["Профессиональный (многоголосый закадровый) (ShowJet)"],"seasons_count":1,"episodes_count":2,"episodes":2,"update":"2019-01-24 08:39:34","iframe_src":"//8965.svetacdn.in/si4jsFRrtgrT/tv-series/3941"},{"id":3940,"title":"Дом с чёрными котами","kp_id":"1115666","imdb_id":null,"world_art_id":null,"type":"serial","add":"2019-01-23 10:02:37","orig_title":"Дом с чёрными котами","year":"2018-05-05","translations":["Оригинальная дорожка"],"seasons_count":1,"episodes_count":4,"episodes":4,"update":"2019-01-25 07:35:22","iframe_src":"//8965.svetacdn.in/si4jsFRrtgrT/tv-series/3940"},{"id":3938,"title":"Заколдованный участок","kp_id":"252123","imdb_id":"tt1468699","world_art_id":null,"type":"serial","add":"2019-01-23 07:40:39","orig_title":"Zakoldovannyy uchastok","year":"2006-04-03","translations":["Оригинальная дорожка"],"seasons_count":1,"episodes_count":10,"episodes":10,"update":"2019-01-23 15:45:26","iframe_src":"//8965.svetacdn.in/si4jsFRrtgrT/tv-series/3938"},{"id":3936,"title":"Детективное агентство \"Иван да Марья\"","kp_id":"471492","imdb_id":null,"world_art_id":null,"type":"serial","add":"2019-01-23 07:05:51","orig_title":"Детективное агентство \"Иван да Марья\"","year":"2010-06-07","translations":["Оригинальная дорожка"],"seasons_count":1,"episodes_count":16,"episodes":16,"update":"2019-01-23 15:35:46","iframe_src":"//8965.svetacdn.in/si4jsFRrtgrT/tv-series/3936"},{"id":3934,"title":"Рифаген","kp_id":null,"imdb_id":"tt6380170","world_art_id":null,"type":"serial","add":"2019-01-22 15:16:54","orig_title":"Riphagen","year":"2017-01-01","translations":["Профессиональный (двухголосый закадровый) (ViruseProject)"],"seasons_count":1,"episodes_count":3,"episodes":3,"update":"2019-01-23 12:15:31","iframe_src":"//8965.svetacdn.in/si4jsFRrtgrT/tv-series/3934"},{"id":3922,"title":"Шпионка Мён-воль","kp_id":"664620","imdb_id":"tt5120734","world_art_id":null,"type":"serial","add":"2019-01-21 10:11:53","orig_title":"Seupayi Myeong-wol","year":"2011-07-11","translations":["Любительский (двухголосый закадровый) (HighHopes)"],"seasons_count":1,"episodes_count":18,"episodes":18,"update":"2019-01-23 07:55:41","iframe_src":"//8965.svetacdn.in/si4jsFRrtgrT/tv-series/3922"},{"id":3920,"title":"Всё началось с поцелуя","kp_id":"447164","imdb_id":"tt1293316","world_art_id":null,"type":"serial","add":"2019-01-20 22:46:06","orig_title":"E zuo ju zhi wen","year":"2005-09-25","translations":["Любительский (одноголосый закадровый)"],"seasons_count":1,"episodes_count":30,"episodes":30,"update":"2019-01-23 11:37:05","iframe_src":"//8965.svetacdn.in/si4jsFRrtgrT/tv-series/3920"},{"id":3919,"title":"Вернуться в 1988","kp_id":"944829","imdb_id":"tt5182866","world_art_id":null,"type":"serial","add":"2019-01-20 14:30:20","orig_title":"Eungdaphara 1988","year":"2015-11-06","translations":["Любительский (двухголосый закадровый) (GREEN TEA)"],"seasons_count":1,"episodes_count":20,"episodes":20,"update":"2019-01-24 09:04:42","iframe_src":"//8965.svetacdn.in/si4jsFRrtgrT/tv-series/3919"},{"id":3917,"title":"Московские сумерки","kp_id":"763969","imdb_id":"tt2909384","world_art_id":null,"type":"serial","add":"2019-01-20 08:41:22","orig_title":"Moskovskie sumerki","year":"2013-08-12","translations":["Оригинальная дорожка"],"seasons_count":1,"episodes_count":2,"episodes":2,"update":"2019-01-24 12:52:53","iframe_src":"//8965.svetacdn.in/si4jsFRrtgrT/tv-series/3917"},{"id":3879,"title":"Бальзаковский возраст, или Все мужики сво... Самый лучший праздник","kp_id":"461926","imdb_id":null,"world_art_id":null,"type":"serial","add":"2019-01-15 17:00:30","orig_title":"Бальзаковский возраст, или Все мужики сво... Самый лучший праздник","year":"2004-01-01","translations":["Оригинальная дорожка"],"seasons_count":1,"episodes_count":2,"episodes":2,"update":"2019-01-24 13:31:12","iframe_src":"//8965.svetacdn.in/si4jsFRrtgrT/tv-series/3879"},{"id":3614,"title":"Да здравствует король Джулиан","kp_id":"880627","imdb_id":"tt3807022","world_art_id":null,"type":"serial","add":"2018-12-04 12:25:02","orig_title":"All Hail King Julien","year":"2014-12-19","translations":["Полное дублирование (SDI Media | Iyuno-SDI Group Russia)"],"seasons_count":5,"episodes_count":65,"episodes":13,"update":"2019-01-23 12:11:28","iframe_src":"//8965.svetacdn.in/si4jsFRrtgrT/tv-series/3614"},{"id":20170,"title":"Догмэн","kp_id":"1070264","imdb_id":"tt6768578","world_art_id":null,"type":"movie","add":"2018-11-18 18:58:42","orig_title":"Dogman","year":"2018-05-16","translations":["Полное дублирование","Любительский (многоголосый закадровый) (@MUZOBOZ@)","Профессиональный (многоголосый закадровый) (HDrezka Studio)","Профессиональный (многоголосый закадровый)","Профессиональный (многоголосый закадровый)","Профессиональный (многоголосый закадровый) (HDrezka Studio)","Профессиональный (многоголосый закадровый) (Мельница)"],"quality":"bd","translation":"Полное дублирование","update":"2021-06-29 09:35:32","iframe_src":"//8965.svetacdn.in/si4jsFRrtgrT/movie/20170"},{"id":3234,"title":"Лесник","kp_id":"566493","imdb_id":"tt2019343","world_art_id":null,"type":"serial","add":"2018-09-28 11:12:22","orig_title":"Lesnik","year":"2011-04-04","translations":["Оригинальная дорожка"],"seasons_count":1,"episodes_count":48,"episodes":48,"update":"2019-01-24 19:27:18","iframe_src":"//8965.svetacdn.in/si4jsFRrtgrT/tv-series/3234"},{"id":16745,"title":"Трансеры","kp_id":"7431","imdb_id":"tt0090192","world_art_id":null,"type":"movie","add":"2018-05-10 23:06:26","orig_title":"Trancers","year":"1984-11-07","translations":["Авторский (одноголосый закадровый) (Карцев Пётр)","Профессиональный (двухголосый закадровый)","Авторский (одноголосый закадровый) (Карцев Пётр)","[EN] Original (English)"],"quality":"bd","translation":"Авторский (одноголосый закадровый) (Карцев Пётр)","update":"2021-06-29 09:32:03","iframe_src":"//8965.svetacdn.in/si4jsFRrtgrT/movie/16745"},{"id":12676,"title":"Третий лишний","kp_id":"20103","imdb_id":"tt0202623","world_art_id":null,"type":"movie","add":"2017-07-27 19:52:49","orig_title":"The Third Wheel","year":"2002-05-31","translations":["Профессиональный (двухголосый закадровый)","Авторский (одноголосый закадровый) (Рудой Евгений)","[EN] Original (English)","Профессиональный (двухголосый закадровый)"],"quality":"webdl","translation":"Профессиональный (двухголосый закадровый)","update":"2021-06-29 08:22:11","iframe_src":"//8965.svetacdn.in/si4jsFRrtgrT/movie/12676"},{"id":6877,"title":"Король-рыбак","kp_id":"9503","imdb_id":"tt0101889","world_art_id":null,"type":"movie","add":"2016-10-31 12:44:47","orig_title":"The Fisher King","year":"1991-09-13","translations":["Профессиональный (многоголосый закадровый)","Полное дублирование","Авторский (одноголосый закадровый) (Михалёв Алексей)","Полное дублирование","[EN] Original (English)","Профессиональный (двухголосый закадровый)","Профессиональный (многоголосый закадровый) (Первый канал | ОРТ)","Профессиональный (многоголосый закадровый)"],"quality":"bd","translation":"Профессиональный (многоголосый закадровый)","update":"2021-06-29 07:19:18","iframe_src":"//8965.svetacdn.in/si4jsFRrtgrT/movie/6877"},{"id":6436,"title":"Геркулес 2","kp_id":"63699","imdb_id":"tt0089271","world_art_id":null,"type":"movie","add":"2016-10-18 14:10:50","orig_title":"Le avventure dell'incredibile Ercole","year":"1985-05-02","translations":["Профессиональный (двухголосый закадровый)","Профессиональный (многоголосый закадровый) (5-й канал СПб)","[EN] Original (English)","Профессиональный (многоголосый закадровый) (НТВ)"],"quality":"hdtv","translation":"Профессиональный (двухголосый закадровый)","update":"2021-06-29 09:06:29","iframe_src":"//8965.svetacdn.in/si4jsFRrtgrT/movie/6436"},{"id":5103,"title":"Бойлерная","kp_id":"617","imdb_id":"tt0181984","world_art_id":null,"type":"movie","add":"2016-09-08 06:34:39","orig_title":"Boiler Room","year":"2000-01-30","translations":["Профессиональный (многоголосый закадровый)","Профессиональный (многоголосый закадровый) (Велес)","[EN] Original (English)","Профессиональный (многоголосый закадровый)"],"quality":"bd","translation":"Профессиональный (многоголосый закадровый)","update":"2021-06-29 08:44:30","iframe_src":"//8965.svetacdn.in/si4jsFRrtgrT/movie/5103"},{"id":4497,"title":"Ю-571","kp_id":"865","imdb_id":"tt0141926","world_art_id":null,"type":"movie","add":"2016-08-17 09:12:33","orig_title":"U-571","year":"2000-04-21","translations":["Полное дублирование","Авторский (одноголосый закадровый) (Гаврилов Андрей)","Авторский (одноголосый закадровый) (Визгунов Сергей)","Авторский (одноголосый закадровый) (Володарский Леонид)","Авторский (одноголосый закадровый) (Живов Юрий)","Полное дублирование","[EN] Original (English)"],"quality":"bd","translation":"Полное дублирование","update":"2021-06-29 07:06:13","iframe_src":"//8965.svetacdn.in/si4jsFRrtgrT/movie/4497"},{"id":3529,"title":"Супермен","kp_id":"7145","imdb_id":"tt0078346","world_art_id":null,"type":"movie","add":"2016-06-30 06:52:12","orig_title":"Superman","year":"1978-12-10","translations":["Полное дублирование","[EN] Original (English)","Авторский (одноголосый закадровый) (Кузнецов Сергей)","Полное дублирование (Первый канал | ОРТ)","[EN] Original (English)","Профессиональный (многоголосый закадровый) (НТВ)","Профессиональный (многоголосый закадровый) (Первый канал | ОРТ)","Профессиональный (многоголосый закадровый) (Пифагор)","Профессиональный (многоголосый закадровый) (РТР | Россия)"],"quality":"bd","translation":"Полное дублирование","update":"2021-06-29 07:53:46","iframe_src":"//8965.svetacdn.in/si4jsFRrtgrT/movie/3529"},{"id":3435,"title":"До и после","kp_id":"1885","imdb_id":"tt0115645","world_art_id":null,"type":"movie","add":"2016-06-28 15:00:12","orig_title":"Before and After","year":"1996-02-23","translations":["Профессиональный (двухголосый закадровый)","Авторский (одноголосый закадровый) (Иванов Михаил)","[EN] Original (English)","Профессиональный (двухголосый закадровый) (Видеосервис)"],"quality":"bd","translation":"Профессиональный (двухголосый закадровый)","update":"2021-06-29 08:01:53","iframe_src":"//8965.svetacdn.in/si4jsFRrtgrT/movie/3435"}],"current_page":479,"first_page_url":"https://videocdn.tv/api/short?limit=100&api_token=X6EwAUfE5M9xbo7y0Bp0aPf3uXxG2KLL&cache3479=3479&page=1","from":47801,"last_page":709,"last_page_url":"https://videocdn.tv/api/short?limit=100&api_token=X6EwAUfE5M9xbo7y0Bp0aPf3uXxG2KLL&cache3479=3479&page=709","next_page_url":"https://videocdn.tv/api/short?limit=100&api_token=X6EwAUfE5M9xbo7y0Bp0aPf3uXxG2KLL&cache3479=3479&page=480","path":"https://videocdn.tv/api/short","per_page":100,"prev_page_url":"https://videocdn.tv/api/short?limit=100&api_token=X6EwAUfE5M9xbo7y0Bp0aPf3uXxG2KLL&cache3479=3479&page=478","to":47840,"total":70818}