{"result":true,"data":[{"id":53007,"title":"Нерассказанное: Cделка с дьяволом","kp_id":"4530380","imdb_id":"tt15085794","world_art_id":null,"type":"movie","add":"2021-09-09 22:36:25","orig_title":"Untold: Deal with the Devil","year":"2021-08-17","translations":["Профессиональный (многоголосый закадровый) (SDI Media | Iyuno-SDI Group Russia)"],"quality":"webdl","translation":"Профессиональный (многоголосый закадровый) (SDI Media | Iyuno-SDI Group Russia)","update":"2021-09-10 07:40:49","iframe_src":"//7741.svetacdn.in/71tsRs29n5tZ/movie/53007"},{"id":53006,"title":"Нерассказанное: Преступление и штрафные","kp_id":"4536588","imdb_id":"tt15101956","world_art_id":null,"type":"movie","add":"2021-09-09 22:33:58","orig_title":"Untold: Crime and Penalties","year":"2021-08-31","translations":["Профессиональный (многоголосый закадровый) (SDI Media | Iyuno-SDI Group Russia)"],"quality":"webdl","translation":"Профессиональный (многоголосый закадровый) (SDI Media | Iyuno-SDI Group Russia)","update":"2021-09-10 07:43:13","iframe_src":"//7741.svetacdn.in/71tsRs29n5tZ/movie/53006"},{"id":53005,"title":"Нерассказанное: Cкандальный матч НБА","kp_id":"4527049","imdb_id":"tt15085802","world_art_id":null,"type":"movie","add":"2021-09-09 22:31:14","orig_title":"Untold: Malice at the Palace","year":"2021-08-10","translations":["Профессиональный (многоголосый закадровый) (SDI Media | Iyuno-SDI Group Russia)"],"quality":"webdl","translation":"Профессиональный (многоголосый закадровый) (SDI Media | Iyuno-SDI Group Russia)","update":"2021-09-10 07:45:24","iframe_src":"//7741.svetacdn.in/71tsRs29n5tZ/movie/53005"},{"id":53001,"title":"Девять кусков","kp_id":null,"imdb_id":"tt14694114","world_art_id":null,"type":"movie","add":"2021-09-09 17:02:15","orig_title":"9 Stacks","year":"2021-08-27","translations":["Любительский (многоголосый закадровый) (Синема УС)"],"quality":"webdl","translation":"Любительский (многоголосый закадровый) (Синема УС)","update":"2021-09-09 19:40:25","iframe_src":"//7741.svetacdn.in/71tsRs29n5tZ/movie/53001"},{"id":52998,"title":"Кровавая жертва","kp_id":"1221678","imdb_id":"tt9433872","world_art_id":null,"type":"movie","add":"2021-09-09 11:51:00","orig_title":"Blood Sacrifice","year":"2021-09-07","translations":["Любительский (многоголосый закадровый) (Синема УС)"],"quality":"webdl","translation":"Любительский (многоголосый закадровый) (Синема УС)","update":"2021-09-09 18:12:05","iframe_src":"//7741.svetacdn.in/71tsRs29n5tZ/movie/52998"},{"id":52985,"title":"Грязная игра","kp_id":null,"imdb_id":"tt6242664","world_art_id":null,"type":"movie","add":"2021-09-09 08:02:56","orig_title":"Canastra Suja","year":"2016-10-29","translations":["Любительский (многоголосый закадровый) (RusFilm)"],"quality":"webdl","translation":"Любительский (многоголосый закадровый) (RusFilm)","update":"2021-09-10 07:37:19","iframe_src":"//7741.svetacdn.in/71tsRs29n5tZ/movie/52985"},{"id":52972,"title":"Боб и Кэрол, Тед и Элис","kp_id":"1281","imdb_id":"tt0064100","world_art_id":null,"type":"movie","add":"2021-09-09 05:34:53","orig_title":"Bob & Carol & Ted & Alice","year":"1969-09-17","translations":["Original (English)","Профессиональный (многоголосый закадровый) (5-й канал СПб)"],"quality":"bd","translation":"Original (English)","update":"2021-09-10 05:49:05","iframe_src":"//7741.svetacdn.in/71tsRs29n5tZ/movie/52972"},{"id":49231,"title":"Лицо с улыбкой","kp_id":"1340155","imdb_id":"tt11638942","world_art_id":null,"type":"movie","add":"2021-03-31 08:26:46","orig_title":"Funny Face","year":"2021-03-30","translations":["Любительский (многоголосый закадровый) (@MUZOBOZ@)"],"quality":"webdl","translation":"Любительский (многоголосый закадровый) (@MUZOBOZ@)","update":"2021-09-09 20:10:03","iframe_src":"//7741.svetacdn.in/71tsRs29n5tZ/movie/49231"},{"id":42564,"title":"Крупный калибр","kp_id":"95577","imdb_id":"tt0069013","world_art_id":null,"type":"movie","add":"2020-08-18 08:23:15","orig_title":"Tony Arzenta","year":"1973-08-23","translations":["Профессиональный (многоголосый закадровый)","Авторский (одноголосый закадровый) (Иванов Михаил)"],"quality":"webdl","translation":"Профессиональный (многоголосый закадровый)","update":"2021-09-10 05:53:41","iframe_src":"//7741.svetacdn.in/71tsRs29n5tZ/movie/42564"},{"id":7957,"title":"Запасной игрок","kp_id":"1048728","imdb_id":null,"world_art_id":null,"type":"serial","add":"2020-06-20 13:05:09","orig_title":"Запасной игрок","year":"2017-01-01","translations":["Оригинальная дорожка"],"seasons_count":1,"episodes_count":4,"episodes":4,"update":"2020-06-21 10:17:43","iframe_src":"//7741.svetacdn.in/71tsRs29n5tZ/tv-series/7957"},{"id":7951,"title":"Братство десанта","kp_id":"721097","imdb_id":"tt4352582","world_art_id":null,"type":"serial","add":"2020-06-19 02:56:42","orig_title":"Bratstvo desanta","year":"2012-12-10","translations":["Оригинальная дорожка"],"seasons_count":1,"episodes_count":16,"episodes":16,"update":"2020-06-20 03:54:25","iframe_src":"//7741.svetacdn.in/71tsRs29n5tZ/tv-series/7951"},{"id":7950,"title":"Немой","kp_id":"734681","imdb_id":null,"world_art_id":null,"type":"serial","add":"2020-06-19 02:53:03","orig_title":"Немой","year":"2013-02-10","translations":["Оригинальная дорожка"],"seasons_count":1,"episodes_count":4,"episodes":4,"update":"2020-06-20 03:55:45","iframe_src":"//7741.svetacdn.in/71tsRs29n5tZ/tv-series/7950"},{"id":7929,"title":"Граф Монте-Кристо","kp_id":"163763","imdb_id":"tt0054761","world_art_id":null,"type":"serial","add":"2020-06-17 11:23:35","orig_title":"Le comte de Monte Cristo","year":"1961-12-06","translations":["Профессиональный (двухголосый закадровый) (Союз Видео)"],"seasons_count":1,"episodes_count":2,"episodes":2,"update":"2020-06-19 11:32:33","iframe_src":"//7741.svetacdn.in/71tsRs29n5tZ/tv-series/7929"},{"id":7910,"title":"Наблюдайте за Мэлхотрами","kp_id":"1219798","imdb_id":"tt9359492","world_art_id":null,"type":"serial","add":"2020-06-16 18:39:45","orig_title":"Mind The Malhotras","year":"2019-06-07","translations":["Любительский (многоголосый закадровый) (Octopus)"],"seasons_count":1,"episodes_count":9,"episodes":9,"update":"2020-06-19 08:29:22","iframe_src":"//7741.svetacdn.in/71tsRs29n5tZ/tv-series/7910"},{"id":7909,"title":"Принц из Беверли-Хиллз","kp_id":"277676","imdb_id":"tt0098800","world_art_id":null,"type":"serial","add":"2020-06-16 13:43:39","orig_title":"The Fresh Prince of Bel-Air","year":"1990-09-10","translations":["Любительский (одноголосый закадровый)","Любительский (двухголосый закадровый) (Hamster Studio)"],"seasons_count":6,"episodes_count":122,"episodes":24,"update":"2020-06-21 12:47:04","iframe_src":"//7741.svetacdn.in/71tsRs29n5tZ/tv-series/7909"},{"id":7906,"title":"Воины-скелеты","kp_id":"466443","imdb_id":"tt0108928","world_art_id":null,"type":"serial","add":"2020-06-16 06:44:02","orig_title":"Skeleton Warriors","year":"1994-09-12","translations":["Авторский (одноголосый закадровый) (Сербин Юрий)"],"seasons_count":1,"episodes_count":13,"episodes":13,"update":"2020-06-19 07:28:44","iframe_src":"//7741.svetacdn.in/71tsRs29n5tZ/tv-series/7906"},{"id":7905,"title":"Подари мне воскресенье","kp_id":"669490","imdb_id":null,"world_art_id":null,"type":"serial","add":"2020-06-16 06:29:35","orig_title":"Подари мне воскресенье","year":"2012-03-09","translations":["Оригинальная дорожка"],"seasons_count":1,"episodes_count":8,"episodes":8,"update":"2020-06-19 07:18:56","iframe_src":"//7741.svetacdn.in/71tsRs29n5tZ/tv-series/7905"},{"id":7904,"title":"Цыганское счастье","kp_id":"935910","imdb_id":null,"world_art_id":null,"type":"serial","add":"2020-06-16 06:25:03","orig_title":"Цыганское счастье","year":"2013-01-01","translations":["Оригинальная дорожка"],"seasons_count":1,"episodes_count":8,"episodes":8,"update":"2020-06-19 07:03:23","iframe_src":"//7741.svetacdn.in/71tsRs29n5tZ/tv-series/7904"},{"id":7893,"title":"Плохие девчонки","kp_id":"566578","imdb_id":"tt0914829","world_art_id":null,"type":"serial","add":"2020-06-15 13:09:27","orig_title":"Bad Girls Club","year":"2006-12-05","translations":["Профессиональный (многоголосый закадровый) (MTV)","Любительский (двухголосый закадровый) (GoldTeam)"],"seasons_count":13,"episodes_count":205,"episodes":12,"update":"2020-06-19 12:51:20","iframe_src":"//7741.svetacdn.in/71tsRs29n5tZ/tv-series/7893"},{"id":7892,"title":"Герой по вызову","kp_id":"1174373","imdb_id":null,"world_art_id":null,"type":"serial","add":"2020-06-15 12:59:38","orig_title":"Герой по вызову","year":"2020-06-15","translations":["Оригинальная дорожка"],"seasons_count":1,"episodes_count":10,"episodes":10,"update":"2020-06-20 13:21:22","iframe_src":"//7741.svetacdn.in/71tsRs29n5tZ/tv-series/7892"},{"id":7800,"title":"Самое опасное животное","kp_id":"1293338","imdb_id":"tt4079926","world_art_id":null,"type":"serial","add":"2020-06-10 07:08:49","orig_title":"The Most Dangerous Animal of All","year":"2020-03-06","translations":["Профессиональный (многоголосый закадровый) (HDrezka Studio)"],"seasons_count":1,"episodes_count":4,"episodes":4,"update":"2020-06-19 08:29:05","iframe_src":"//7741.svetacdn.in/71tsRs29n5tZ/tv-series/7800"},{"id":7786,"title":"Аэропорт 2","kp_id":"439947","imdb_id":null,"world_art_id":null,"type":"serial","add":"2020-06-09 11:19:26","orig_title":"Аэропорт 2","year":"2006-01-01","translations":["Оригинальная дорожка"],"seasons_count":1,"episodes_count":30,"episodes":30,"update":"2020-06-19 07:09:14","iframe_src":"//7741.svetacdn.in/71tsRs29n5tZ/tv-series/7786"},{"id":7760,"title":"Тасманский дьявол","kp_id":"507252","imdb_id":"tt0103562","world_art_id":null,"type":"serial","add":"2020-06-06 12:23:44","orig_title":"Taz-Mania","year":"1994-07-26","translations":["Полное дублирование"],"seasons_count":1,"episodes_count":65,"episodes":65,"update":"2020-06-19 12:47:44","iframe_src":"//7741.svetacdn.in/71tsRs29n5tZ/tv-series/7760"},{"id":7759,"title":"Остров отчаянных героев","kp_id":"521615","imdb_id":"tt1173427","world_art_id":null,"type":"serial","add":"2020-06-06 08:58:23","orig_title":"Total Drama Island","year":"2007-07-08","translations":["Полное дублирование (Cartoon Network)","Полное дублирование"],"seasons_count":5,"episodes_count":115,"episodes":25,"update":"2020-06-19 12:03:40","iframe_src":"//7741.svetacdn.in/71tsRs29n5tZ/tv-series/7759"},{"id":7253,"title":"Кукла","kp_id":"1263897","imdb_id":"tt10122474","world_art_id":null,"type":"serial","add":"2020-04-21 07:58:22","orig_title":"Dummy","year":"2020-04-20","translations":["Любительский (многоголосый закадровый) (KerobTV)","Профессиональный (двухголосый закадровый) (BaibaKo)","Профессиональный (многоголосый закадровый) (BaibaKo)"],"seasons_count":1,"episodes_count":10,"episodes":10,"update":"2020-06-20 03:37:29","iframe_src":"//7741.svetacdn.in/71tsRs29n5tZ/tv-series/7253"},{"id":36681,"title":"Поезд смерти","kp_id":"79575","imdb_id":"tt0106689","world_art_id":null,"type":"movie","add":"2020-02-20 20:14:32","orig_title":"Death Train","year":"1993-04-14","translations":["Авторский (одноголосый закадровый) (Михалёв Алексей)","Original (English)","Профессиональный (двухголосый закадровый) (DVD Group)"],"quality":"bd","translation":"Авторский (одноголосый закадровый) (Михалёв Алексей)","update":"2021-09-10 06:48:42","iframe_src":"//7741.svetacdn.in/71tsRs29n5tZ/movie/36681"},{"id":36601,"title":"Железная башка","kp_id":"477746","imdb_id":"tt1524131","world_art_id":null,"type":"movie","add":"2020-02-19 19:06:59","orig_title":"Knucklehead","year":"2010-10-22","translations":["Профессиональный (многоголосый закадровый)","Original (English)","Авторский (одноголосый закадровый) (Воронцов Владимир | Доцент)","Профессиональный (многоголосый закадровый)"],"quality":"dvb","translation":"Профессиональный (многоголосый закадровый)","update":"2021-09-10 06:25:54","iframe_src":"//7741.svetacdn.in/71tsRs29n5tZ/movie/36601"},{"id":6268,"title":"Роботы-поезда","kp_id":"1209701","imdb_id":"tt7216288","world_art_id":null,"type":"serial","add":"2020-01-07 15:47:51","orig_title":"Robot Trains","year":"2017-07-15","translations":["Полное дублирование"],"seasons_count":2,"episodes_count":84,"episodes":52,"update":"2020-06-21 12:00:45","iframe_src":"//7741.svetacdn.in/71tsRs29n5tZ/tv-series/6268"},{"id":5017,"title":"Студия 30","kp_id":"277538","imdb_id":"tt0496424","world_art_id":null,"type":"serial","add":"2019-08-09 17:46:29","orig_title":"30 Rock","year":"2006-10-11","translations":["Профессиональный (многоголосый закадровый) (SET)","Любительский (одноголосый закадровый)"],"seasons_count":7,"episodes_count":135,"episodes":12,"update":"2020-06-19 08:39:47","iframe_src":"//7741.svetacdn.in/71tsRs29n5tZ/tv-series/5017"},{"id":18549,"title":"Покинутый","kp_id":"4799","imdb_id":"tt0267248","world_art_id":null,"type":"movie","add":"2018-08-26 14:19:36","orig_title":"Abandon","year":"2002-03-01","translations":["Профессиональный (многоголосый закадровый)","Авторский (одноголосый закадровый) (Визгунов Сергей)","Original (English)","Профессиональный (двухголосый закадровый) (Парадиз)","Профессиональный (многоголосый закадровый)"],"quality":"bd","translation":"Профессиональный (многоголосый закадровый)","update":"2021-09-10 06:20:02","iframe_src":"//7741.svetacdn.in/71tsRs29n5tZ/movie/18549"},{"id":13169,"title":"Моди","kp_id":"841897","imdb_id":"tt3721954","world_art_id":null,"type":"movie","add":"2017-08-27 21:54:53","orig_title":"Maudie","year":"2016-09-01","translations":["Любительский (многоголосый закадровый) (@MUZOBOZ@)","Профессиональный (многоголосый закадровый) (GreenРай Studio)","Любительский (одноголосый закадровый)","Original (English)","Любительский (одноголосый закадровый) (Paul Bunyan)","Профессиональный (многоголосый закадровый) (FocusX)"],"quality":"bd","translation":"Любительский (многоголосый закадровый) (@MUZOBOZ@)","update":"2021-09-10 06:12:02","iframe_src":"//7741.svetacdn.in/71tsRs29n5tZ/movie/13169"},{"id":1471,"title":"Звёздная принцесса и силы зла","kp_id":"818971","imdb_id":"tt2758770","world_art_id":null,"type":"serial","add":"2017-08-15 13:36:57","orig_title":"Star vs. the Forces of Evil","year":"2015-01-18","translations":["Полное дублирование","Профессиональный (многоголосый закадровый)","Профессиональный (многоголосый закадровый) (HDrezka Studio)"],"seasons_count":4,"episodes_count":77,"episodes":21,"update":"2020-06-20 12:28:51","iframe_src":"//7741.svetacdn.in/71tsRs29n5tZ/tv-series/1471"},{"id":11530,"title":"Бун: Охотник за головами","kp_id":"802798","imdb_id":"tt3229488","world_art_id":null,"type":"movie","add":"2017-05-14 21:28:10","orig_title":"Boone: The Bounty Hunter","year":"2017-05-09","translations":["Любительский (многоголосый закадровый) (@MUZOBOZ@)","Original (English)","Профессиональный (многоголосый закадровый)"],"quality":"bd","translation":"Любительский (многоголосый закадровый) (@MUZOBOZ@)","update":"2021-09-10 05:55:47","iframe_src":"//7741.svetacdn.in/71tsRs29n5tZ/movie/11530"},{"id":11208,"title":"Победители и грешники","kp_id":"24717","imdb_id":"tt0086605","world_art_id":null,"type":"movie","add":"2017-04-25 12:47:36","orig_title":"Qi mou miao ji: Wu fu xing","year":"1983-07-07","translations":["Профессиональный (двухголосый закадровый)","Профессиональный (многоголосый закадровый) (ДТВ)","Авторский (одноголосый закадровый) (Горчаков Василий)","Авторский (одноголосый закадровый) (Визгунов Сергей)","Любительский (одноголосый закадровый)","Профессиональный (двухголосый закадровый) (НТВ)","Профессиональный (двухголосый закадровый) (РенТВ)","Профессиональный (многоголосый закадровый) (ДТВ)"],"quality":"bd","translation":"Профессиональный (двухголосый закадровый)","update":"2021-09-10 07:51:09","iframe_src":"//7741.svetacdn.in/71tsRs29n5tZ/movie/11208"},{"id":6265,"title":"Я всё еще знаю, что вы сделали прошлым летом","kp_id":"8186","imdb_id":"tt0130018","world_art_id":null,"type":"movie","add":"2016-10-13 15:59:29","orig_title":"I Still Know What You Did Last Summer","year":"1998-11-13","translations":["Полное дублирование","Полное дублирование","Original (English)","Профессиональный (многоголосый закадровый)","Любительский (одноголосый закадровый) (Антонов Николай)","Авторский (одноголосый закадровый) (Живов Юрий)","Профессиональный (двухголосый закадровый) (РенТВ)","Профессиональный (двухголосый закадровый) (SDI Media | Iyuno-SDI Group Russia)"],"quality":"bd","translation":"Полное дублирование","update":"2021-09-10 06:33:23","iframe_src":"//7741.svetacdn.in/71tsRs29n5tZ/movie/6265"},{"id":214,"title":"Провокатор","kp_id":"760538","imdb_id":"tt2950228","world_art_id":null,"type":"serial","add":"2016-06-22 09:58:49","orig_title":"Provokator","year":"2016-02-15","translations":["Оригинальная дорожка"],"seasons_count":1,"episodes_count":20,"episodes":20,"update":"2020-06-19 12:35:37","iframe_src":"//7741.svetacdn.in/71tsRs29n5tZ/tv-series/214"},{"id":2584,"title":"Первый мститель: Противостояние","kp_id":"822708","imdb_id":"tt3498820","world_art_id":null,"type":"movie","add":"2016-05-25 20:07:44","orig_title":"Captain America: Civil War","year":"2016-04-12","translations":["Авторский (одноголосый закадровый) (Гаврилов Андрей)","Полное дублирование (iTunes)","Original (English)","Профессиональный (многоголосый закадровый) (FocusStudio)"],"quality":"bd","translation":"Авторский (одноголосый закадровый) (Гаврилов Андрей)","update":"2021-09-10 06:41:17","iframe_src":"//7741.svetacdn.in/71tsRs29n5tZ/movie/2584"},{"id":2160,"title":"Пока не сыграл в ящик","kp_id":"258885","imdb_id":"tt0825232","world_art_id":null,"type":"movie","add":"2016-05-12 19:50:49","orig_title":"The Bucket List","year":"2007-12-16","translations":["Полное дублирование","Авторский (одноголосый закадровый) (Гаврилов Андрей)","Авторский (одноголосый закадровый) (Немахов Юрий)","Полное дублирование","Original (English)"],"quality":"bd","translation":"Полное дублирование","update":"2021-09-10 06:00:28","iframe_src":"//7741.svetacdn.in/71tsRs29n5tZ/movie/2160"},{"id":1815,"title":"Свой человек","kp_id":"467","imdb_id":"tt0140352","world_art_id":null,"type":"movie","add":"2016-05-03 06:00:38","orig_title":"The Insider","year":"1999-10-28","translations":["Профессиональный (многоголосый закадровый)","Авторский (одноголосый закадровый) (Живов Юрий)","Original (English)","Профессиональный (многоголосый закадровый)","Авторский (одноголосый закадровый) (Чадов Михаил)"],"quality":"bd","translation":"Профессиональный (многоголосый закадровый)","update":"2021-09-10 05:50:45","iframe_src":"//7741.svetacdn.in/71tsRs29n5tZ/movie/1815"},{"id":907,"title":"Книга Илая","kp_id":"424266","imdb_id":"tt1037705","world_art_id":null,"type":"movie","add":"2016-04-09 17:21:50","orig_title":"The Book of Eli","year":"2010-01-11","translations":["Полное дублирование","Авторский (одноголосый закадровый) (Есарев Дмитрий)","Авторский (одноголосый закадровый) (Гаврилов Андрей)","Авторский (одноголосый закадровый) (Сербин Юрий)","Полное дублирование","Original (English)","Профессиональный (многоголосый закадровый)"],"quality":"bd","translation":"Полное дублирование","update":"2021-09-10 07:41:48","iframe_src":"//7741.svetacdn.in/71tsRs29n5tZ/movie/907"}],"current_page":296,"first_page_url":"https://videocdn.tv/api/short?limit=100&api_token=EnbO9h8pv1VyjbCJhg0WM9nG259n7mtz&cache3296=3296&page=1","from":29501,"last_page":702,"last_page_url":"https://videocdn.tv/api/short?limit=100&api_token=EnbO9h8pv1VyjbCJhg0WM9nG259n7mtz&cache3296=3296&page=702","next_page_url":"https://videocdn.tv/api/short?limit=100&api_token=EnbO9h8pv1VyjbCJhg0WM9nG259n7mtz&cache3296=3296&page=297","path":"https://videocdn.tv/api/short","per_page":100,"prev_page_url":"https://videocdn.tv/api/short?limit=100&api_token=EnbO9h8pv1VyjbCJhg0WM9nG259n7mtz&cache3296=3296&page=295","to":29540,"total":70147}