{"result":true,"data":[{"id":9934,"title":"К чему-то прекрасному","kp_id":"475231","imdb_id":"tt1483753","world_art_id":null,"type":"movie","add":"2017-02-22 11:21:08","orig_title":"Till det som är vackert","year":"2010-10-20","translations":["Профессиональный (многоголосый)"],"quality":"webdl","translation":"Профессиональный (многоголосый)","update":"2017-02-22 14:07:04","iframe_src":"//83.svetacdn.in/PfJ50H0ZBPg3/movie/9934"},{"id":9933,"title":"Минута молчания","kp_id":"965629","imdb_id":"tt5506088","world_art_id":null,"type":"movie","add":"2017-02-22 11:19:41","orig_title":"Schweigeminute","year":"2016-06-25","translations":["Любительский (одноголосый закадровый) (PashaUp | Морозов Павел)"],"quality":"hdtv","translation":"Любительский (одноголосый закадровый) (PashaUp | Морозов Павел)","update":"2017-02-22 16:53:57","iframe_src":"//83.svetacdn.in/PfJ50H0ZBPg3/movie/9933"},{"id":9926,"title":"Кошка на раскаленной крыше","kp_id":"13970","imdb_id":"tt0051459","world_art_id":null,"type":"movie","add":"2017-02-22 11:05:35","orig_title":"Cat on a Hot Tin Roof","year":"1958-09-18","translations":["Профессиональный (многоголосый закадровый)"],"quality":"bd","translation":"Профессиональный (многоголосый закадровый)","update":"2017-02-22 14:06:04","iframe_src":"//83.svetacdn.in/PfJ50H0ZBPg3/movie/9926"},{"id":9925,"title":"Настоящая легенда","kp_id":"465200","imdb_id":"tt1425257","world_art_id":null,"type":"movie","add":"2017-02-22 10:52:13","orig_title":"Su Qi-er","year":"2010-02-09","translations":["Полное дублирование"],"quality":"bd","translation":"Полное дублирование","update":"2017-02-22 14:32:00","iframe_src":"//83.svetacdn.in/PfJ50H0ZBPg3/movie/9925"},{"id":9923,"title":"Необычайное путешествие","kp_id":"96413","imdb_id":"tt0047930","world_art_id":null,"type":"movie","add":"2017-02-22 10:48:32","orig_title":"Cesta do praveku","year":"1955-08-05","translations":["Профессиональный (многоголосый закадровый)"],"quality":"bd","translation":"Профессиональный (многоголосый закадровый)","update":"2017-02-22 14:33:38","iframe_src":"//83.svetacdn.in/PfJ50H0ZBPg3/movie/9923"},{"id":9922,"title":"Майна","kp_id":"732152","imdb_id":"tt2600730","world_art_id":null,"type":"movie","add":"2017-02-22 10:46:04","orig_title":"Maïna","year":"2013-06-15","translations":["Любительский (одноголосый закадровый) (PashaUp | Морозов Павел)"],"quality":"bd","translation":"Любительский (одноголосый закадровый) (PashaUp | Морозов Павел)","update":"2017-02-22 14:28:34","iframe_src":"//83.svetacdn.in/PfJ50H0ZBPg3/movie/9922"},{"id":9920,"title":"Только раз в жизни","kp_id":"95458","imdb_id":"tt0110730","world_art_id":null,"type":"movie","add":"2017-02-22 10:38:09","orig_title":"Once in a Lifetime","year":"1994-02-15","translations":["Профессиональный (многоголосый закадровый)"],"quality":"dvdrip","translation":"Профессиональный (многоголосый закадровый)","update":"2017-02-22 12:18:27","iframe_src":"//83.svetacdn.in/PfJ50H0ZBPg3/movie/9920"},{"id":9919,"title":"Потерянное сокровище Майя","kp_id":"400986","imdb_id":"tt1152277","world_art_id":null,"type":"movie","add":"2017-02-22 10:37:23","orig_title":"No Bad Days","year":"2008-08-01","translations":["Профессиональный (двухголосый закадровый)"],"quality":"dvdrip","translation":"Профессиональный (двухголосый закадровый)","update":"2017-02-22 12:19:11","iframe_src":"//83.svetacdn.in/PfJ50H0ZBPg3/movie/9919"},{"id":9918,"title":"Молодой тигр","kp_id":"261459","imdb_id":"tt0081794","world_art_id":null,"type":"movie","add":"2017-02-22 10:36:21","orig_title":"Xiao lao hu","year":"1973-09-06","translations":["Профессиональный (двухголосый закадровый)"],"quality":"dvdrip","translation":"Профессиональный (двухголосый закадровый)","update":"2017-02-22 13:11:28","iframe_src":"//83.svetacdn.in/PfJ50H0ZBPg3/movie/9918"},{"id":9917,"title":"Якудза","kp_id":"11910","imdb_id":"tt0073918","world_art_id":null,"type":"movie","add":"2017-02-22 10:15:56","orig_title":"The Yakuza","year":"1974-12-21","translations":["Профессиональный (двухголосый закадровый) (НТВ)"],"quality":"bd","translation":"Профессиональный (двухголосый закадровый) (НТВ)","update":"2017-02-22 14:04:37","iframe_src":"//83.svetacdn.in/PfJ50H0ZBPg3/movie/9917"},{"id":9916,"title":"Любовь и баскетбол","kp_id":"742","imdb_id":"tt0199725","world_art_id":null,"type":"movie","add":"2017-02-22 10:12:52","orig_title":"Love & Basketball","year":"2000-01-26","translations":["Профессиональный (двухголосый закадровый)"],"quality":"bd","translation":"Профессиональный (двухголосый закадровый)","update":"2017-02-22 18:05:53","iframe_src":"//83.svetacdn.in/PfJ50H0ZBPg3/movie/9916"},{"id":9915,"title":"Парень из пузыря","kp_id":"2055","imdb_id":"tt0258470","world_art_id":null,"type":"movie","add":"2017-02-22 10:10:00","orig_title":"Bubble Boy","year":"2001-08-23","translations":["Профессиональный (многоголосый закадровый) (СТС)"],"quality":"webdl","translation":"Профессиональный (многоголосый закадровый) (СТС)","update":"2017-02-22 12:19:24","iframe_src":"//83.svetacdn.in/PfJ50H0ZBPg3/movie/9915"},{"id":9913,"title":"Сестричка Бетти","kp_id":"768","imdb_id":"tt0171580","world_art_id":null,"type":"movie","add":"2017-02-22 10:06:03","orig_title":"Nurse Betty","year":"2000-05-11","translations":["Полное дублирование"],"quality":"webdl","translation":"Полное дублирование","update":"2017-02-22 13:14:00","iframe_src":"//83.svetacdn.in/PfJ50H0ZBPg3/movie/9913"},{"id":9912,"title":"Опасный рейс","kp_id":"643588","imdb_id":"tt2091229","world_art_id":null,"type":"movie","add":"2017-02-22 10:01:18","orig_title":"Air Collision","year":"2012-03-27","translations":["Профессиональный (многоголосый)"],"quality":"bd","translation":"Профессиональный (многоголосый)","update":"2017-02-22 12:56:47","iframe_src":"//83.svetacdn.in/PfJ50H0ZBPg3/movie/9912"},{"id":9911,"title":"Требуется сосед","kp_id":"708856","imdb_id":"tt2401842","world_art_id":null,"type":"movie","add":"2017-02-22 09:59:51","orig_title":"Roommate Wanted","year":"2015-05-19","translations":["Любительский (многоголосый закадровый) (Синема УС)"],"quality":"bd","translation":"Любительский (многоголосый закадровый) (Синема УС)","update":"2017-02-22 12:22:28","iframe_src":"//83.svetacdn.in/PfJ50H0ZBPg3/movie/9911"},{"id":9910,"title":"Крестовые походы","kp_id":"521380","imdb_id":"tt1471156","world_art_id":null,"type":"movie","add":"2017-02-22 09:58:31","orig_title":"Dark Relic","year":"2010-03-27","translations":["Профессиональный (многоголосый)"],"quality":"hdtv","translation":"Профессиональный (многоголосый)","update":"2017-02-22 12:56:10","iframe_src":"//83.svetacdn.in/PfJ50H0ZBPg3/movie/9910"},{"id":9908,"title":"Соглядатай","kp_id":"1280","imdb_id":"tt0073526","world_art_id":null,"type":"movie","add":"2017-02-22 09:55:15","orig_title":"Peeper","year":"1976-04-01","translations":["Профессиональный (многоголосый закадровый) (Первый канал | ОРТ)"],"quality":"webdl","translation":"Профессиональный (многоголосый закадровый) (Первый канал | ОРТ)","update":"2017-02-22 12:19:33","iframe_src":"//83.svetacdn.in/PfJ50H0ZBPg3/movie/9908"},{"id":9907,"title":"Путевой обходчик","kp_id":"257768","imdb_id":"tt0900381","world_art_id":null,"type":"movie","add":"2017-02-22 09:49:28","orig_title":"Putevoy obkhodchik","year":"2007-09-28","translations":["Оригинальная дорожка"],"quality":"bd","translation":"Оригинальная дорожка","update":"2017-02-22 13:01:50","iframe_src":"//83.svetacdn.in/PfJ50H0ZBPg3/movie/9907"},{"id":9903,"title":"Анна-Монстр","kp_id":"278258","imdb_id":"tt0952641","world_art_id":null,"type":"movie","add":"2017-02-22 09:44:36","orig_title":"Anna and the Moods","year":"2006-10-08","translations":["Профессиональный (многоголосый закадровый)"],"quality":"dvdrip","translation":"Профессиональный (многоголосый закадровый)","update":"2017-02-22 16:50:45","iframe_src":"//83.svetacdn.in/PfJ50H0ZBPg3/movie/9903"},{"id":9901,"title":"Шальная баба","kp_id":"216911","imdb_id":"tt0442837","world_art_id":null,"type":"movie","add":"2017-02-22 09:42:58","orig_title":"Shalnaya baba","year":"1992-05-01","translations":["Оригинальная дорожка"],"quality":"tv","translation":"Оригинальная дорожка","update":"2017-02-22 14:01:21","iframe_src":"//83.svetacdn.in/PfJ50H0ZBPg3/movie/9901"}],"current_page":2163,"first_page_url":"https://videocdn.tv/api/short?limit=100&api_token=RgFQdUIR2dRmwv8iYa5SnFNgnw3vpjKj&cache32163=32163&page=1","from":216201,"last_page":628,"last_page_url":"https://videocdn.tv/api/short?limit=100&api_token=RgFQdUIR2dRmwv8iYa5SnFNgnw3vpjKj&cache32163=32163&page=628","next_page_url":null,"path":"https://videocdn.tv/api/short","per_page":100,"prev_page_url":"https://videocdn.tv/api/short?limit=100&api_token=RgFQdUIR2dRmwv8iYa5SnFNgnw3vpjKj&cache32163=32163&page=2162","to":216220,"total":62702}