{"result":true,"data":[{"id":12962,"title":"Красный капитан","kp_id":"850712","imdb_id":"tt3975072","world_art_id":null,"type":"movie","add":"2017-08-14 22:17:20","orig_title":"Rudý kapitán","year":"2016-03-10","translations":["Любительский (многоголосый закадровый) (Синема УС)"],"quality":"bd","translation":"Любительский (многоголосый закадровый) (Синема УС)","update":"2017-08-15 04:12:30","iframe_src":"//8543.svetacdn.in/IAF0wWTdNYZm/movie/12962"},{"id":12961,"title":"Тео и Юго в одной лодке","kp_id":"942637","imdb_id":"tt5096628","world_art_id":null,"type":"movie","add":"2017-08-14 22:08:04","orig_title":"Théo et Hugo dans le même bateau","year":"2016-02-15","translations":["Любительский (многоголосый закадровый) (Синема УС)"],"quality":"bd","translation":"Любительский (многоголосый закадровый) (Синема УС)","update":"2017-08-15 04:14:25","iframe_src":"//8543.svetacdn.in/IAF0wWTdNYZm/movie/12961"},{"id":12959,"title":"Пусть никто не спит","kp_id":"974798","imdb_id":"tt5613848","world_art_id":null,"type":"movie","add":"2017-08-14 21:53:12","orig_title":"Hung sau wan mei seui","year":"2016-03-22","translations":["Любительский (многоголосый закадровый) (Синема УС)"],"quality":"bd","translation":"Любительский (многоголосый закадровый) (Синема УС)","update":"2017-08-15 04:04:34","iframe_src":"//8543.svetacdn.in/IAF0wWTdNYZm/movie/12959"},{"id":12955,"title":"Любовь и ярость","kp_id":"920723","imdb_id":"tt4805816","world_art_id":null,"type":"movie","add":"2017-08-14 21:45:13","orig_title":"Syysprinssi","year":"2016-10-14","translations":["Любительский (многоголосый закадровый) (Синема УС)"],"quality":"bd","translation":"Любительский (многоголосый закадровый) (Синема УС)","update":"2017-08-15 04:22:35","iframe_src":"//8543.svetacdn.in/IAF0wWTdNYZm/movie/12955"},{"id":12954,"title":"Я – убийца","kp_id":"1008973","imdb_id":"tt6104058","world_art_id":null,"type":"movie","add":"2017-08-14 21:42:39","orig_title":"Jestem morderca","year":"2016-09-20","translations":["Любительский (многоголосый закадровый) (Синема УС)"],"quality":"bd","translation":"Любительский (многоголосый закадровый) (Синема УС)","update":"2017-08-15 04:07:42","iframe_src":"//8543.svetacdn.in/IAF0wWTdNYZm/movie/12954"},{"id":12952,"title":"На пляже","kp_id":"997300","imdb_id":"tt5918926","world_art_id":null,"type":"movie","add":"2017-08-14 21:35:14","orig_title":"Beaches","year":"2017-01-21","translations":["Любительский (многоголосый закадровый) (Синема УС)"],"quality":"webdl","translation":"Любительский (многоголосый закадровый) (Синема УС)","update":"2017-08-15 04:06:05","iframe_src":"//8543.svetacdn.in/IAF0wWTdNYZm/movie/12952"},{"id":12947,"title":"Питбуль: Опасные женщины","kp_id":"1012263","imdb_id":"tt6212346","world_art_id":null,"type":"movie","add":"2017-08-14 06:05:37","orig_title":"Pitbull. Niebezpieczne kobiety","year":"2016-11-11","translations":["Любительский (многоголосый закадровый) (Синема УС)"],"quality":"bd","translation":"Любительский (многоголосый закадровый) (Синема УС)","update":"2017-08-14 09:28:28","iframe_src":"//8543.svetacdn.in/IAF0wWTdNYZm/movie/12947"},{"id":12945,"title":"Руфус 2","kp_id":"993368","imdb_id":"tt5687968","world_art_id":null,"type":"movie","add":"2017-08-14 06:03:11","orig_title":"Rufus-2","year":"2017-01-16","translations":["Полное дублирование"],"quality":"webdl","translation":"Полное дублирование","update":"2017-08-14 08:53:29","iframe_src":"//8543.svetacdn.in/IAF0wWTdNYZm/movie/12945"},{"id":12936,"title":"Призрачный патруль","kp_id":"845356","imdb_id":"tt3611052","world_art_id":null,"type":"movie","add":"2017-08-13 23:07:06","orig_title":"Ghost Squad","year":"2015-08-13","translations":["Любительский (многоголосый закадровый) (Синема УС)"],"quality":"webdl","translation":"Любительский (многоголосый закадровый) (Синема УС)","update":"2017-08-14 05:04:26","iframe_src":"//8543.svetacdn.in/IAF0wWTdNYZm/movie/12936"},{"id":12935,"title":"Нота-призрак","kp_id":"939897","imdb_id":"tt5109302","world_art_id":null,"type":"movie","add":"2017-08-13 23:04:30","orig_title":"Ghost Note","year":"2017-08-01","translations":["Любительский (многоголосый закадровый) (Синема УС)"],"quality":"webdl","translation":"Любительский (многоголосый закадровый) (Синема УС)","update":"2017-08-14 05:05:40","iframe_src":"//8543.svetacdn.in/IAF0wWTdNYZm/movie/12935"},{"id":12930,"title":"Отбытие","kp_id":"719849","imdb_id":"tt2248739","world_art_id":null,"type":"movie","add":"2017-08-13 22:33:45","orig_title":"Departure","year":"2015-10-01","translations":["Любительский (многоголосый закадровый) (Синема УС)"],"quality":"dvdrip","translation":"Любительский (многоголосый закадровый) (Синема УС)","update":"2017-08-14 05:17:26","iframe_src":"//8543.svetacdn.in/IAF0wWTdNYZm/movie/12930"},{"id":12929,"title":"Кровавый след","kp_id":"702921","imdb_id":"tt2370138","world_art_id":null,"type":"movie","add":"2017-08-13 22:27:06","orig_title":"Criticsized","year":"2016-12-13","translations":["Любительский (многоголосый закадровый) (Синема УС)"],"quality":"webdl","translation":"Любительский (многоголосый закадровый) (Синема УС)","update":"2017-08-14 05:29:07","iframe_src":"//8543.svetacdn.in/IAF0wWTdNYZm/movie/12929"},{"id":12927,"title":"Рождественская Трансляция","kp_id":"1007729","imdb_id":"tt6167116","world_art_id":null,"type":"movie","add":"2017-08-13 22:19:27","orig_title":"Broadcasting Christmas","year":"2016-11-23","translations":["Любительский (многоголосый закадровый) (Синема УС)"],"quality":"hdtv","translation":"Любительский (многоголосый закадровый) (Синема УС)","update":"2017-08-15 04:30:15","iframe_src":"//8543.svetacdn.in/IAF0wWTdNYZm/movie/12927"},{"id":12923,"title":"Радионяня","kp_id":"1011568","imdb_id":"tt6445408","world_art_id":null,"type":"movie","add":"2017-08-13 22:07:19","orig_title":"Baby Phone","year":"2017-01-21","translations":["Любительский (многоголосый закадровый) (Синема УС)"],"quality":"webdl","translation":"Любительский (многоголосый закадровый) (Синема УС)","update":"2017-08-15 04:38:31","iframe_src":"//8543.svetacdn.in/IAF0wWTdNYZm/movie/12923"},{"id":12921,"title":"Амелия 2.0","kp_id":"879693","imdb_id":"tt3831344","world_art_id":null,"type":"movie","add":"2017-08-13 22:02:25","orig_title":"Amelia 2.0","year":"2017-08-04","translations":["Любительский (многоголосый закадровый) (Синема УС)"],"quality":"dvdrip","translation":"Любительский (многоголосый закадровый) (Синема УС)","update":"2017-08-15 04:40:20","iframe_src":"//8543.svetacdn.in/IAF0wWTdNYZm/movie/12921"},{"id":12919,"title":"Нелепая случайность","kp_id":"1047068","imdb_id":"tt6892250","world_art_id":null,"type":"movie","add":"2017-08-13 21:58:12","orig_title":"Absurd Accident","year":"2017-05-19","translations":["Любительский (двухголосый закадровый)"],"quality":"webdl","translation":"Любительский (двухголосый закадровый)","update":"2017-08-15 04:41:36","iframe_src":"//8543.svetacdn.in/IAF0wWTdNYZm/movie/12919"},{"id":12522,"title":"Блокбастер","kp_id":"980838","imdb_id":"tt5778384","world_art_id":null,"type":"movie","add":"2017-07-17 09:42:02","orig_title":"Blokbaster","year":"2017-07-13","translations":["Оригинальная дорожка"],"quality":"bd","translation":"Оригинальная дорожка","update":"2017-08-15 04:33:58","iframe_src":"//8543.svetacdn.in/IAF0wWTdNYZm/movie/12522"},{"id":12422,"title":"Поражение в первом раунде","kp_id":"944150","imdb_id":"tt5193408","world_art_id":null,"type":"movie","add":"2017-07-10 10:35:26","orig_title":"First Round Down","year":"2016-10-02","translations":["Любительский (многоголосый закадровый) (Синема УС)","Профессиональный (многоголосый закадровый) (GreenРай Studio)"],"quality":"webdl","translation":"Любительский (многоголосый закадровый) (Синема УС)","update":"2017-08-14 05:10:21","iframe_src":"//8543.svetacdn.in/IAF0wWTdNYZm/movie/12422"},{"id":11123,"title":"Матрица времени","kp_id":"556944","imdb_id":"tt1691916","world_art_id":null,"type":"movie","add":"2017-04-19 22:28:26","orig_title":"Before I Fall","year":"2017-01-21","translations":["Полное дублирование"],"quality":"bd","translation":"Полное дублирование","update":"2017-08-15 04:28:45","iframe_src":"//8543.svetacdn.in/IAF0wWTdNYZm/movie/11123"},{"id":10895,"title":"Скоростной спуск","kp_id":"847032","imdb_id":"tt3684500","world_art_id":null,"type":"movie","add":"2017-04-11 22:03:06","orig_title":"Downhill","year":"2016-05-15","translations":["Любительский (одноголосый закадровый) (Хихикающий доктор)","Любительский (многоголосый закадровый) (Синема УС)"],"quality":"webdl","translation":"Любительский (одноголосый закадровый) (Хихикающий доктор)","update":"2017-08-14 05:15:56","iframe_src":"//8543.svetacdn.in/IAF0wWTdNYZm/movie/10895"}],"current_page":1917,"first_page_url":"https://videocdn.tv/api/short?limit=100&api_token=6Onb1W1alEUrBcKJZD3GoKBbWyAl2uG2&cache31917=31917&page=1","from":191601,"last_page":599,"last_page_url":"https://videocdn.tv/api/short?limit=100&api_token=6Onb1W1alEUrBcKJZD3GoKBbWyAl2uG2&cache31917=31917&page=599","next_page_url":null,"path":"https://videocdn.tv/api/short","per_page":100,"prev_page_url":"https://videocdn.tv/api/short?limit=100&api_token=6Onb1W1alEUrBcKJZD3GoKBbWyAl2uG2&cache31917=31917&page=1916","to":191620,"total":59825}