{"result":true,"data":[{"id":21049,"title":"Поля смерти","kp_id":"569","imdb_id":"tt0087553","world_art_id":null,"type":"movie","add":"2018-12-26 23:02:47","orig_title":"The Killing Fields","year":"1984-11-02","translations":["Профессиональный (двухголосый закадровый)"],"quality":"bd","translation":"Профессиональный (двухголосый закадровый)","update":"2018-12-27 08:23:31","iframe_src":"//5322.svetacdn.in/IAF0wWTdNYZm/movie/21049"},{"id":21044,"title":"В тылу врага 3: Колумбия","kp_id":"409193","imdb_id":"tt1208647","world_art_id":null,"type":"movie","add":"2018-12-26 22:49:56","orig_title":"Behind Enemy Lines: Colombia","year":"2009-01-06","translations":["Профессиональный (многоголосый закадровый)"],"quality":"webdl","translation":"Профессиональный (многоголосый закадровый)","update":"2018-12-27 07:42:41","iframe_src":"//5322.svetacdn.in/IAF0wWTdNYZm/movie/21044"},{"id":21043,"title":"Малыш","kp_id":"5106","imdb_id":"tt0255819","world_art_id":null,"type":"movie","add":"2018-12-26 22:45:33","orig_title":"Baby Boy","year":"2001-06-21","translations":["Авторский (одноголосый закадровый) (Чадов Михаил)"],"quality":"webdl","translation":"Авторский (одноголосый закадровый) (Чадов Михаил)","update":"2018-12-27 08:08:02","iframe_src":"//5322.svetacdn.in/IAF0wWTdNYZm/movie/21043"},{"id":21042,"title":"Эммануэль и каннибалы","kp_id":"71039","imdb_id":"tt0075984","world_art_id":null,"type":"movie","add":"2018-12-26 22:42:43","orig_title":"Emanuelle e gli ultimi cannibali","year":"1977-10-21","translations":["Авторский (одноголосый закадровый) (Визгунов Сергей)"],"quality":"bd","translation":"Авторский (одноголосый закадровый) (Визгунов Сергей)","update":"2018-12-27 07:47:23","iframe_src":"//5322.svetacdn.in/IAF0wWTdNYZm/movie/21042"},{"id":21041,"title":"Дома, построенные в октябре","kp_id":"843007","imdb_id":"tt1958043","world_art_id":null,"type":"movie","add":"2018-12-26 22:18:10","orig_title":"The Houses October Built","year":"2014-10-10","translations":["Любительский (двухголосый закадровый)"],"quality":"bd","translation":"Любительский (двухголосый закадровый)","update":"2018-12-27 08:16:30","iframe_src":"//5322.svetacdn.in/IAF0wWTdNYZm/movie/21041"},{"id":21040,"title":"Порнодемия","kp_id":"1219457","imdb_id":"tt9204352","world_art_id":null,"type":"movie","add":"2018-12-26 22:13:56","orig_title":"Porndemic","year":"2018-12-07","translations":["Любительский (многоголосый закадровый) (Синема УС)"],"quality":"webdl","translation":"Любительский (многоголосый закадровый) (Синема УС)","update":"2018-12-27 08:22:22","iframe_src":"//5322.svetacdn.in/IAF0wWTdNYZm/movie/21040"},{"id":21037,"title":"Воздушная дорога в Китай","kp_id":"25417","imdb_id":"tt0085678","world_art_id":null,"type":"movie","add":"2018-12-26 22:00:59","orig_title":"High Road to China","year":"1983-03-18","translations":["Профессиональный (многоголосый закадровый)"],"quality":"bd","translation":"Профессиональный (многоголосый закадровый)","update":"2018-12-27 08:42:17","iframe_src":"//5322.svetacdn.in/IAF0wWTdNYZm/movie/21037"},{"id":21036,"title":"Сокращая класс","kp_id":"12097","imdb_id":"tt0097136","world_art_id":null,"type":"movie","add":"2018-12-26 21:55:46","orig_title":"Cutting Class","year":"1989-03-24","translations":["Авторский (одноголосый закадровый) (Гаврилов Андрей)"],"quality":"bd","translation":"Авторский (одноголосый закадровый) (Гаврилов Андрей)","update":"2018-12-27 08:44:25","iframe_src":"//5322.svetacdn.in/IAF0wWTdNYZm/movie/21036"},{"id":21035,"title":"Бакуман.","kp_id":"845735","imdb_id":"tt3715854","world_art_id":null,"type":"movie","add":"2018-12-26 21:50:56","orig_title":"Bakuman.","year":"2015-11-03","translations":["Любительский (двухголосый закадровый) (DeadSno & den904)"],"quality":"bd","translation":"Любительский (двухголосый закадровый) (DeadSno & den904)","update":"2018-12-27 08:46:54","iframe_src":"//5322.svetacdn.in/IAF0wWTdNYZm/movie/21035"},{"id":19908,"title":"Ток-радио","kp_id":"12127","imdb_id":"tt0096219","world_art_id":null,"type":"movie","add":"2018-11-01 12:40:39","orig_title":"Talk Radio","year":"1988-12-23","translations":["Профессиональный (многоголосый закадровый) (Неоклассика)","Original (English)","Авторский (одноголосый закадровый) (Котов Вячеслав)"],"quality":"webdl","translation":"Профессиональный (многоголосый закадровый) (Неоклассика)","update":"2018-12-27 07:46:13","iframe_src":"//5322.svetacdn.in/IAF0wWTdNYZm/movie/19908"},{"id":19060,"title":"Проклятье монахини","kp_id":"1069277","imdb_id":"tt6993174","world_art_id":null,"type":"movie","add":"2018-09-18 22:01:42","orig_title":"Curse of the Nun","year":"2018-05-09","translations":["Любительский (многоголосый закадровый) (Синема УС)","Любительский (двухголосый закадровый) (LakeFilms)"],"quality":"webdl","translation":"Любительский (многоголосый закадровый) (Синема УС)","update":"2018-12-27 08:45:57","iframe_src":"//5322.svetacdn.in/IAF0wWTdNYZm/movie/19060"},{"id":17518,"title":"Джим Пуговка и машинист Лукас","kp_id":"1026748","imdb_id":"tt7302634","world_art_id":null,"type":"movie","add":"2018-07-02 22:31:13","orig_title":"Jim Knopf und Lukas der Lokomotivführer","year":"2018-03-29","translations":["Полное дублирование"],"quality":"bd","translation":"Полное дублирование","update":"2018-12-27 08:41:11","iframe_src":"//5322.svetacdn.in/IAF0wWTdNYZm/movie/17518"},{"id":16963,"title":"Ее звали Руби","kp_id":"1054667","imdb_id":"tt6999210","world_art_id":null,"type":"movie","add":"2018-05-30 10:23:00","orig_title":"On l'appelait Ruby","year":"2017-02-17","translations":["Любительский (многоголосый закадровый) (Синема УС)","Любительский (двухголосый закадровый) (LakeFilms)"],"quality":"hdtv","translation":"Любительский (многоголосый закадровый) (Синема УС)","update":"2018-12-27 08:26:21","iframe_src":"//5322.svetacdn.in/IAF0wWTdNYZm/movie/16963"},{"id":16621,"title":"Собибор","kp_id":"905031","imdb_id":"tt6324614","world_art_id":null,"type":"movie","add":"2018-05-04 22:40:25","orig_title":"Sobibor","year":"2018-05-04","translations":["Оригинальная дорожка"],"quality":"bd","translation":"Оригинальная дорожка","update":"2018-12-27 08:10:50","iframe_src":"//5322.svetacdn.in/IAF0wWTdNYZm/movie/16621"},{"id":15596,"title":"Санта и компания","kp_id":"1049040","imdb_id":"tt7018010","world_art_id":null,"type":"movie","add":"2018-03-13 22:07:09","orig_title":"Santa & Cie","year":"2017-12-03","translations":["Любительский (многоголосый закадровый) (Синема УС)","Профессиональный (многоголосый закадровый) (GreenРай Studio)","Полное дублирование"],"quality":"webdl","translation":"Любительский (многоголосый закадровый) (Синема УС)","update":"2018-12-27 08:19:02","iframe_src":"//5322.svetacdn.in/IAF0wWTdNYZm/movie/15596"},{"id":8633,"title":"Каприз","kp_id":"852764","imdb_id":"tt3612984","world_art_id":null,"type":"movie","add":"2017-01-05 14:09:57","orig_title":"Caprice","year":"2015-01-16","translations":["Профессиональный (многоголосый закадровый)"],"quality":"webdl","translation":"Профессиональный (многоголосый закадровый)","update":"2018-12-27 08:12:32","iframe_src":"//5322.svetacdn.in/IAF0wWTdNYZm/movie/8633"},{"id":5834,"title":"Гайвер","kp_id":"8671","imdb_id":"tt0101988","world_art_id":null,"type":"movie","add":"2016-10-04 06:35:21","orig_title":"Guyver","year":"1991-03-18","translations":["Авторский (одноголосый закадровый) (Гаврилов Андрей)","Профессиональный (многоголосый закадровый) (СВ-Студия)"],"quality":"bd","translation":"Авторский (одноголосый закадровый) (Гаврилов Андрей)","update":"2018-12-27 08:43:33","iframe_src":"//5322.svetacdn.in/IAF0wWTdNYZm/movie/5834"},{"id":5564,"title":"Адский бункер: Восстание спецназа","kp_id":"667733","imdb_id":"tt2241403","world_art_id":null,"type":"movie","add":"2016-09-27 11:41:47","orig_title":"Outpost: Rise of the Spetsnaz","year":"2013-06-27","translations":["Любительский (одноголосый закадровый)","Профессиональный (многоголосый закадровый)"],"quality":"bd","translation":"Любительский (одноголосый закадровый)","update":"2018-12-27 08:25:27","iframe_src":"//5322.svetacdn.in/IAF0wWTdNYZm/movie/5564"},{"id":2828,"title":"Большие глаза","kp_id":"573869","imdb_id":"tt1126590","world_art_id":null,"type":"movie","add":"2016-06-02 09:30:45","orig_title":"Big Eyes","year":"2014-11-13","translations":["Полное дублирование"],"quality":"bd","translation":"Полное дублирование","update":"2018-12-27 08:14:20","iframe_src":"//5322.svetacdn.in/IAF0wWTdNYZm/movie/2828"},{"id":1898,"title":"Планета страха","kp_id":"273063","imdb_id":"tt1077258","world_art_id":null,"type":"movie","add":"2016-05-05 12:27:41","orig_title":"Planet Terror","year":"2007-06-21","translations":["Полное дублирование","Авторский (одноголосый закадровый) (Матвеев Алексей | Doctor Joker)"],"quality":"bd","translation":"Полное дублирование","update":"2018-12-27 08:09:24","iframe_src":"//5322.svetacdn.in/IAF0wWTdNYZm/movie/1898"}],"current_page":1648,"first_page_url":"https://videocdn.tv/api/short?limit=100&api_token=6Onb1W1alEUrBcKJZD3GoKBbWyAl2uG2&cache31648=31648&page=1","from":164701,"last_page":625,"last_page_url":"https://videocdn.tv/api/short?limit=100&api_token=6Onb1W1alEUrBcKJZD3GoKBbWyAl2uG2&cache31648=31648&page=625","next_page_url":null,"path":"https://videocdn.tv/api/short","per_page":100,"prev_page_url":"https://videocdn.tv/api/short?limit=100&api_token=6Onb1W1alEUrBcKJZD3GoKBbWyAl2uG2&cache31648=31648&page=1647","to":164720,"total":62500}