{"result":true,"data":[{"id":48927,"title":"Последний заказ","kp_id":"1114817","imdb_id":"tt6523526","world_art_id":null,"type":"movie","add":"2021-03-20 10:48:49","orig_title":"Last Call","year":"2021-03-19","translations":["Любительский (многоголосый закадровый) (Синема УС)"],"quality":"webdl","translation":"Любительский (многоголосый закадровый) (Синема УС)","update":"2021-03-20 15:01:07","iframe_src":"//83.svetacdn.in/PfJ50H0ZBPg3/movie/48927"},{"id":48926,"title":"Фобии","kp_id":"1171980","imdb_id":"tt8129682","world_art_id":null,"type":"movie","add":"2021-03-20 10:27:36","orig_title":"Phobias","year":"2021-03-19","translations":["Любительский (многоголосый закадровый) (@MUZOBOZ@)"],"quality":"webdl","translation":"Любительский (многоголосый закадровый) (@MUZOBOZ@)","update":"2021-03-20 14:58:52","iframe_src":"//83.svetacdn.in/PfJ50H0ZBPg3/movie/48926"},{"id":48907,"title":"Кинофестиваль","kp_id":"1254393","imdb_id":"tt9820628","world_art_id":null,"type":"movie","add":"2021-03-19 09:24:20","orig_title":"Film Fest","year":"2020-10-24","translations":["Любительский (многоголосый закадровый) (Синема УС)"],"quality":"webdl","translation":"Любительский (многоголосый закадровый) (Синема УС)","update":"2021-03-19 19:35:34","iframe_src":"//83.svetacdn.in/PfJ50H0ZBPg3/movie/48907"},{"id":48900,"title":"Эл Ай Ти в кино","kp_id":"1367981","imdb_id":"tt11996462","world_art_id":null,"type":"movie","add":"2021-03-18 21:53:01","orig_title":"LIT the Movie","year":"2020-06-05","translations":["Любительский (многоголосый закадровый) (AlphaProject)"],"quality":"webdl","translation":"Любительский (многоголосый закадровый) (AlphaProject)","update":"2021-03-20 07:49:25","iframe_src":"//83.svetacdn.in/PfJ50H0ZBPg3/movie/48900"},{"id":48899,"title":"Луз","kp_id":"1194171","imdb_id":"tt8999494","world_art_id":null,"type":"movie","add":"2021-03-18 21:49:47","orig_title":"Luz","year":"2019-10-05","translations":["Любительский (многоголосый закадровый) (Синема УС)"],"quality":"webdl","translation":"Любительский (многоголосый закадровый) (Синема УС)","update":"2021-03-20 07:49:45","iframe_src":"//83.svetacdn.in/PfJ50H0ZBPg3/movie/48899"},{"id":48898,"title":"Проклятье в свадебном платье","kp_id":"1166311","imdb_id":"tt8484252","world_art_id":null,"type":"movie","add":"2021-03-18 21:48:09","orig_title":"Hot Mess in a Wedding Dress","year":"2019-04-28","translations":["Любительский (многоголосый закадровый) (Синема УС)"],"quality":"webdl","translation":"Любительский (многоголосый закадровый) (Синема УС)","update":"2021-03-20 07:50:19","iframe_src":"//83.svetacdn.in/PfJ50H0ZBPg3/movie/48898"},{"id":48897,"title":"Муза","kp_id":"1245711","imdb_id":"tt9867458","world_art_id":null,"type":"movie","add":"2021-03-18 21:46:06","orig_title":"Muse","year":"2019-10-18","translations":["Любительский (многоголосый закадровый) (Синема УС)"],"quality":"webdl","translation":"Любительский (многоголосый закадровый) (Синема УС)","update":"2021-03-20 07:51:13","iframe_src":"//83.svetacdn.in/PfJ50H0ZBPg3/movie/48897"},{"id":48896,"title":"Полночные дьяволы","kp_id":"1143362","imdb_id":"tt8395214","world_art_id":null,"type":"movie","add":"2021-03-18 21:19:32","orig_title":"Midnight Devils","year":"2019-06-27","translations":["Любительский (многоголосый закадровый) (Синема УС)"],"quality":"webdl","translation":"Любительский (многоголосый закадровый) (Синема УС)","update":"2021-03-19 22:41:02","iframe_src":"//83.svetacdn.in/PfJ50H0ZBPg3/movie/48896"},{"id":48895,"title":"Вселенский потоп","kp_id":"49557","imdb_id":"tt0365659","world_art_id":null,"type":"movie","add":"2021-03-18 21:18:34","orig_title":"La prophétie des grenouilles","year":"2003-05-15","translations":["Профессиональный (многоголосый закадровый)"],"quality":"dvdrip","translation":"Профессиональный (многоголосый закадровый)","update":"2021-03-19 21:17:02","iframe_src":"//83.svetacdn.in/PfJ50H0ZBPg3/movie/48895"},{"id":48894,"title":"Счастливые полсотни","kp_id":"1132426","imdb_id":"tt8319294","world_art_id":null,"type":"movie","add":"2021-03-18 21:17:16","orig_title":"Lucky Fifty","year":"2019-03-11","translations":["Любительский (многоголосый закадровый) (Синема УС)"],"quality":"webdl","translation":"Любительский (многоголосый закадровый) (Синема УС)","update":"2021-03-19 22:41:19","iframe_src":"//83.svetacdn.in/PfJ50H0ZBPg3/movie/48894"},{"id":48893,"title":"Мессалиново предложение","kp_id":null,"imdb_id":"tt6256264","world_art_id":null,"type":"movie","add":"2021-03-18 21:14:20","orig_title":"Messalina's Offer","year":"2019-12-31","translations":["Любительский (многоголосый закадровый) (Синема УС)"],"quality":"webdl","translation":"Любительский (многоголосый закадровый) (Синема УС)","update":"2021-03-19 22:41:41","iframe_src":"//83.svetacdn.in/PfJ50H0ZBPg3/movie/48893"},{"id":48892,"title":"Я и Дьявол","kp_id":"1239528","imdb_id":"tt9643542","world_art_id":null,"type":"movie","add":"2021-03-18 21:12:02","orig_title":"Me and the Devil","year":"2019-09-04","translations":["Любительский (многоголосый закадровый) (Синема УС)"],"quality":"webdl","translation":"Любительский (многоголосый закадровый) (Синема УС)","update":"2021-03-19 22:42:15","iframe_src":"//83.svetacdn.in/PfJ50H0ZBPg3/movie/48892"},{"id":48891,"title":"Ветеринары","kp_id":"1195437","imdb_id":"tt9041586","world_art_id":null,"type":"movie","add":"2021-03-18 21:10:03","orig_title":"Les vétos","year":"2019-11-04","translations":["Любительский (многоголосый закадровый) (AlphaProject)"],"quality":"webdl","translation":"Любительский (многоголосый закадровый) (AlphaProject)","update":"2021-03-19 22:42:35","iframe_src":"//83.svetacdn.in/PfJ50H0ZBPg3/movie/48891"},{"id":48890,"title":"Любовники","kp_id":"1185537","imdb_id":"tt8773586","world_art_id":null,"type":"movie","add":"2021-03-18 21:08:05","orig_title":"Lovers","year":"2019-10-12","translations":["Любительский (многоголосый закадровый) (AlphaProject)"],"quality":"webdl","translation":"Любительский (многоголосый закадровый) (AlphaProject)","update":"2021-03-19 22:42:52","iframe_src":"//83.svetacdn.in/PfJ50H0ZBPg3/movie/48890"},{"id":48839,"title":"М8: Когда смерть дарует жизнь","kp_id":"1328481","imdb_id":"tt11321572","world_art_id":null,"type":"movie","add":"2021-03-17 14:40:17","orig_title":"M8 - Quando a Morte Socorre a Vida","year":"2021-02-28","translations":["Любительский (многоголосый закадровый) (Синема УС)","Любительский (многоголосый закадровый) (Синема УС)"],"quality":"webdl","translation":"Любительский (многоголосый закадровый) (Синема УС)","update":"2021-03-19 11:35:18","iframe_src":"//83.svetacdn.in/PfJ50H0ZBPg3/movie/48839"},{"id":48663,"title":"По наклонной","kp_id":"1245501","imdb_id":"tt9130508","world_art_id":null,"type":"movie","add":"2021-03-12 06:51:16","orig_title":"Cherry","year":"2021-02-26","translations":["Полное дублирование (Пифагор)","Original (English)","Профессиональный (многоголосый закадровый) (HDrezka Studio 18+)","Профессиональный (многоголосый закадровый) (HDrezka Studio)"],"quality":"webdl","translation":"Полное дублирование (Пифагор)","update":"2021-03-19 19:30:48","iframe_src":"//83.svetacdn.in/PfJ50H0ZBPg3/movie/48663"},{"id":45874,"title":"Фея-крёстная","kp_id":"1346530","imdb_id":"tt11681250","world_art_id":null,"type":"movie","add":"2020-12-06 12:34:00","orig_title":"Godmothered","year":"2020-12-04","translations":["Любительский (многоголосый закадровый) (@MUZOBOZ@)","Original (English)","Любительский (многоголосый закадровый) (@MUZOBOZ@)"],"quality":"webdl","translation":"Любительский (многоголосый закадровый) (@MUZOBOZ@)","update":"2021-03-19 11:36:13","iframe_src":"//83.svetacdn.in/PfJ50H0ZBPg3/movie/45874"},{"id":4975,"title":"Ночной свет","kp_id":"1007485","imdb_id":"tt6168004","world_art_id":null,"type":"serial","add":"2019-07-30 16:50:47","orig_title":"Bulyaseong","year":"2016-11-21","translations":["Любительский (двухголосый закадровый) (Храм Дорам ТВ)"],"seasons_count":1,"episodes_count":20,"episodes":20,"update":"2019-07-31 06:57:29","iframe_src":"//83.svetacdn.in/PfJ50H0ZBPg3/tv-series/4975"},{"id":4974,"title":"В паутине закона","kp_id":"466989","imdb_id":"tt1441219","world_art_id":null,"type":"serial","add":"2019-07-30 12:43:16","orig_title":"The Deep End","year":"2010-01-20","translations":["Профессиональный (многоголосый закадровый)"],"seasons_count":1,"episodes_count":6,"episodes":6,"update":"2019-07-31 06:47:01","iframe_src":"//83.svetacdn.in/PfJ50H0ZBPg3/tv-series/4974"},{"id":4972,"title":"Робокар Поли и его друзья","kp_id":"794990","imdb_id":"tt4763642","world_art_id":null,"type":"serial","add":"2019-07-30 11:12:54","orig_title":"Robocar Poli","year":"2011-02-28","translations":["Полное дублирование"],"seasons_count":4,"episodes_count":104,"episodes":26,"update":"2019-07-31 19:05:29","iframe_src":"//83.svetacdn.in/PfJ50H0ZBPg3/tv-series/4972"},{"id":4969,"title":"Слезы Дженнет","kp_id":"1136357","imdb_id":"tt7748356","world_art_id":null,"type":"serial","add":"2019-07-30 06:17:15","orig_title":"Cennet'in Gözyaslari","year":"2017-09-24","translations":["Любительский (одноголосый закадровый)"],"seasons_count":1,"episodes_count":36,"episodes":36,"update":"2019-07-30 14:41:43","iframe_src":"//83.svetacdn.in/PfJ50H0ZBPg3/tv-series/4969"},{"id":4961,"title":"Казаки-разбойники","kp_id":"416146","imdb_id":"tt1266901","world_art_id":null,"type":"serial","add":"2019-07-29 05:48:38","orig_title":"Kazaki-razboyniki","year":"2008-06-09","translations":["Оригинальная дорожка"],"seasons_count":1,"episodes_count":4,"episodes":4,"update":"2019-07-31 13:56:24","iframe_src":"//83.svetacdn.in/PfJ50H0ZBPg3/tv-series/4961"},{"id":4960,"title":"Последняя исповедь","kp_id":"436295","imdb_id":null,"world_art_id":null,"type":"serial","add":"2019-07-29 05:35:57","orig_title":"Последняя исповедь","year":"2006-01-01","translations":["Оригинальная дорожка"],"seasons_count":1,"episodes_count":4,"episodes":4,"update":"2019-07-30 03:19:11","iframe_src":"//83.svetacdn.in/PfJ50H0ZBPg3/tv-series/4960"},{"id":4959,"title":"Было у отца два сына","kp_id":"1112896","imdb_id":null,"world_art_id":null,"type":"serial","add":"2019-07-28 17:39:14","orig_title":"Было у отца два сына","year":"2017-01-01","translations":["Оригинальная дорожка"],"seasons_count":1,"episodes_count":4,"episodes":4,"update":"2019-07-28 20:25:33","iframe_src":"//83.svetacdn.in/PfJ50H0ZBPg3/tv-series/4959"},{"id":4956,"title":"Ясновидец","kp_id":"399965","imdb_id":"tt0491738","world_art_id":null,"type":"serial","add":"2019-07-27 15:35:59","orig_title":"Psych","year":"2006-07-07","translations":["Профессиональный (двухголосый закадровый)","Профессиональный (двухголосый закадровый) (NewStudio)","Профессиональный (многоголосый закадровый) (ТВ3)"],"seasons_count":8,"episodes_count":121,"episodes":10,"update":"2019-07-28 12:25:21","iframe_src":"//83.svetacdn.in/PfJ50H0ZBPg3/tv-series/4956"},{"id":4943,"title":"Побег 2","kp_id":"682267","imdb_id":"tt4080172","world_art_id":null,"type":"serial","add":"2019-07-25 09:58:36","orig_title":"Pobeg 2","year":"2014-05-14","translations":["Оригинальная дорожка"],"seasons_count":1,"episodes_count":16,"episodes":16,"update":"2019-07-28 07:39:27","iframe_src":"//83.svetacdn.in/PfJ50H0ZBPg3/tv-series/4943"},{"id":4942,"title":"Побег","kp_id":"533128","imdb_id":"tt3540714","world_art_id":null,"type":"serial","add":"2019-07-25 09:49:35","orig_title":"Pobeg","year":"2010-09-20","translations":["Оригинальная дорожка"],"seasons_count":1,"episodes_count":22,"episodes":22,"update":"2019-07-28 06:50:41","iframe_src":"//83.svetacdn.in/PfJ50H0ZBPg3/tv-series/4942"},{"id":4925,"title":"Два копа","kp_id":"1046023","imdb_id":null,"world_art_id":null,"type":"serial","add":"2019-07-23 11:15:14","orig_title":"Tukkabseu","year":"2017-11-27","translations":["Любительский (многоголосый закадровый) (STEPonee)"],"seasons_count":1,"episodes_count":32,"episodes":32,"update":"2019-07-28 07:54:58","iframe_src":"//83.svetacdn.in/PfJ50H0ZBPg3/tv-series/4925"},{"id":4922,"title":"Вместе каждый день","kp_id":"503318","imdb_id":"tt0314971","world_art_id":null,"type":"serial","add":"2019-07-23 08:16:18","orig_title":"24Seven","year":"2001-11-19","translations":["Профессиональный (многоголосый закадровый)","Профессиональный (многоголосый закадровый) (ВГТРК)"],"seasons_count":2,"episodes_count":26,"episodes":13,"update":"2019-07-28 12:32:17","iframe_src":"//83.svetacdn.in/PfJ50H0ZBPg3/tv-series/4922"},{"id":4920,"title":"Рельсы счастья","kp_id":"431933","imdb_id":null,"world_art_id":null,"type":"serial","add":"2019-07-23 07:19:12","orig_title":"Рельсы счастья","year":"2006-01-01","translations":["Оригинальная дорожка"],"seasons_count":1,"episodes_count":8,"episodes":8,"update":"2019-07-31 08:58:50","iframe_src":"//83.svetacdn.in/PfJ50H0ZBPg3/tv-series/4920"},{"id":4918,"title":"Дорогая Маша Березина","kp_id":"260238","imdb_id":"tt1016272","world_art_id":null,"type":"serial","add":"2019-07-23 07:08:40","orig_title":"Dorogaya Masha Berezina","year":"2004-05-05","translations":["Оригинальная дорожка"],"seasons_count":1,"episodes_count":30,"episodes":30,"update":"2019-07-31 13:38:44","iframe_src":"//83.svetacdn.in/PfJ50H0ZBPg3/tv-series/4918"},{"id":4901,"title":"Кто в доме хозяин?","kp_id":"416802","imdb_id":"tt4102318","world_art_id":null,"type":"serial","add":"2019-07-21 11:00:57","orig_title":"Kto v dome khozyain?","year":"2006-01-16","translations":["Оригинальная дорожка"],"seasons_count":1,"episodes_count":150,"episodes":150,"update":"2019-07-31 07:24:56","iframe_src":"//83.svetacdn.in/PfJ50H0ZBPg3/tv-series/4901"},{"id":4732,"title":"Воплощение страха","kp_id":"414893","imdb_id":"tt1112285","world_art_id":null,"type":"serial","add":"2019-06-21 13:28:00","orig_title":"Fear Itself","year":"2008-06-05","translations":["Профессиональный (многоголосый закадровый) (Sony Sci-Fi)"],"seasons_count":1,"episodes_count":13,"episodes":13,"update":"2019-07-29 11:41:47","iframe_src":"//83.svetacdn.in/PfJ50H0ZBPg3/tv-series/4732"},{"id":4655,"title":"Парфюм","kp_id":"1252568","imdb_id":"tt10307796","world_art_id":null,"type":"serial","add":"2019-06-13 07:11:25","orig_title":"Peo-pyum","year":"2019-06-03","translations":["Любительский (многоголосый закадровый)"],"seasons_count":1,"episodes_count":16,"episodes":16,"update":"2019-07-28 16:22:12","iframe_src":"//83.svetacdn.in/PfJ50H0ZBPg3/tv-series/4655"},{"id":4064,"title":"Гюльпери","kp_id":"1174027","imdb_id":"tt8694246","world_art_id":null,"type":"serial","add":"2019-02-12 17:50:40","orig_title":"Gülperi","year":"2018-09-14","translations":["Авторский (одноголосый закадровый) (Котова Ирина)"],"seasons_count":1,"episodes_count":30,"episodes":30,"update":"2019-07-30 14:52:59","iframe_src":"//83.svetacdn.in/PfJ50H0ZBPg3/tv-series/4064"},{"id":3904,"title":"Рисующий ветер","kp_id":"576045","imdb_id":"tt2288104","world_art_id":null,"type":"serial","add":"2019-01-18 10:10:53","orig_title":"Painter of the Wind","year":"2008-09-24","translations":["Профессиональный (многоголосый закадровый)"],"seasons_count":1,"episodes_count":20,"episodes":20,"update":"2019-07-28 08:51:38","iframe_src":"//83.svetacdn.in/PfJ50H0ZBPg3/tv-series/3904"},{"id":2827,"title":"Странный ангел","kp_id":"1112192","imdb_id":"tt7210448","world_art_id":null,"type":"serial","add":"2018-06-17 20:48:44","orig_title":"Strange Angel","year":"2018-06-14","translations":["Профессиональный (многоголосый закадровый) (LostFilm)"],"seasons_count":2,"episodes_count":17,"episodes":7,"update":"2019-07-28 20:17:45","iframe_src":"//83.svetacdn.in/PfJ50H0ZBPg3/tv-series/2827"},{"id":6186,"title":"Нарушение территории","kp_id":"2225","imdb_id":"tt0105636","world_art_id":null,"type":"movie","add":"2016-10-12 05:28:05","orig_title":"Trespass","year":"1992-12-25","translations":["Профессиональный (двухголосый закадровый)","Любительский (одноголосый закадровый) (Филонов Констнтин | voxsolus)","Авторский (одноголосый закадровый) (Гаврилов Андрей)","Авторский (одноголосый закадровый) (Яроцкий Михаил | Kyberpunk)","Original (English)","Профессиональный (одноголосый закадровый)","Профессиональный (двухголосый закадровый) (Первый канал | ОРТ)"],"quality":"webdl","translation":"Профессиональный (двухголосый закадровый)","update":"2021-03-19 13:30:52","iframe_src":"//83.svetacdn.in/PfJ50H0ZBPg3/movie/6186"},{"id":4057,"title":"Скуби Ду","kp_id":"5091","imdb_id":"tt0267913","world_art_id":null,"type":"movie","add":"2016-07-20 11:56:19","orig_title":"Scooby Doo","year":"2002-06-08","translations":["Полное дублирование","Авторский (одноголосый закадровый) (Визгунов Сергей)","Авторский (одноголосый закадровый) (Живов Юрий)","Полное дублирование (Мосфильм)","Профессиональный (двухголосый закадровый) (Гланц + Королёва)","Профессиональный (многоголосый закадровый)"],"quality":"bd","translation":"Полное дублирование","update":"2021-03-19 13:17:42","iframe_src":"//83.svetacdn.in/PfJ50H0ZBPg3/movie/4057"},{"id":1977,"title":"Вавилон","kp_id":"102125","imdb_id":"tt0449467","world_art_id":null,"type":"movie","add":"2016-05-09 04:49:56","orig_title":"Babel","year":"2006-05-23","translations":["Полное дублирование","Полное дублирование","Original (English)","Профессиональный (многоголосый закадровый) (Киномания)"],"quality":"bd","translation":"Полное дублирование","update":"2021-03-19 13:43:03","iframe_src":"//83.svetacdn.in/PfJ50H0ZBPg3/movie/1977"}],"current_page":390,"first_page_url":"https://videocdn.tv/api/short?limit=100&api_token=RgFQdUIR2dRmwv8iYa5SnFNgnw3vpjKj&cache3390=3390&page=1","from":38901,"last_page":668,"last_page_url":"https://videocdn.tv/api/short?limit=100&api_token=RgFQdUIR2dRmwv8iYa5SnFNgnw3vpjKj&cache3390=3390&page=668","next_page_url":"https://videocdn.tv/api/short?limit=100&api_token=RgFQdUIR2dRmwv8iYa5SnFNgnw3vpjKj&cache3390=3390&page=391","path":"https://videocdn.tv/api/short","per_page":100,"prev_page_url":"https://videocdn.tv/api/short?limit=100&api_token=RgFQdUIR2dRmwv8iYa5SnFNgnw3vpjKj&cache3390=3390&page=389","to":38940,"total":66714}