{"result":true,"data":[{"id":41281,"title":"Сила пятерых","kp_id":"24958","imdb_id":"tt0082399","world_art_id":null,"type":"movie","add":"2020-06-19 06:02:49","orig_title":"Force: Five","year":"1982-01-27","translations":["Профессиональный (двухголосый закадровый) (РенТВ)"],"quality":"bd","translation":"Профессиональный (двухголосый закадровый) (РенТВ)","update":"2020-06-19 09:59:03","iframe_src":"//8543.svetacdn.in/si4jsFRrtgrT/movie/41281"},{"id":41278,"title":"Тень ворона","kp_id":"75216","imdb_id":"tt0095346","world_art_id":null,"type":"movie","add":"2020-06-19 05:58:44","orig_title":"Í skugga hrafnsins","year":"1988-10-23","translations":["Авторский (одноголосый закадровый) (Сербин Юрий)"],"quality":"dvdrip","translation":"Авторский (одноголосый закадровый) (Сербин Юрий)","update":"2020-06-19 09:58:48","iframe_src":"//8543.svetacdn.in/si4jsFRrtgrT/movie/41278"},{"id":41277,"title":"Белый викинг","kp_id":"77316","imdb_id":"tt0102081","world_art_id":null,"type":"movie","add":"2020-06-19 05:57:50","orig_title":"Hvíti víkingurinn","year":"1991-11-01","translations":["Авторский (одноголосый закадровый) (Сербин Юрий)"],"quality":"dvdrip","translation":"Авторский (одноголосый закадровый) (Сербин Юрий)","update":"2020-06-19 09:59:14","iframe_src":"//8543.svetacdn.in/si4jsFRrtgrT/movie/41277"},{"id":41276,"title":"Полет ворона","kp_id":"77321","imdb_id":"tt0087432","world_art_id":null,"type":"movie","add":"2020-06-19 05:56:40","orig_title":"Hrafninn flýgur","year":"1984-02-04","translations":["Авторский (одноголосый закадровый) (Сербин Юрий)"],"quality":"dvdrip","translation":"Авторский (одноголосый закадровый) (Сербин Юрий)","update":"2020-06-19 09:59:00","iframe_src":"//8543.svetacdn.in/si4jsFRrtgrT/movie/41276"},{"id":41261,"title":"Отель у озера","kp_id":"1189853","imdb_id":"tt12542508","world_art_id":null,"type":"movie","add":"2020-06-18 19:01:44","orig_title":"Hotel reikeu","year":"2020-04-29","translations":["Любительский (двухголосый закадровый) (Колобок)"],"quality":"webdl","translation":"Любительский (двухголосый закадровый) (Колобок)","update":"2020-06-19 03:50:23","iframe_src":"//8543.svetacdn.in/si4jsFRrtgrT/movie/41261"},{"id":41259,"title":"В глубинах: Ужас Пещер","kp_id":"1375289","imdb_id":"tt12172388","world_art_id":null,"type":"movie","add":"2020-06-18 14:54:45","orig_title":"A Cave Horror","year":"2018-12-18","translations":["Любительский (многоголосый закадровый) (Синема УС)"],"quality":"webdl","translation":"Любительский (многоголосый закадровый) (Синема УС)","update":"2020-06-18 19:30:41","iframe_src":"//8543.svetacdn.in/si4jsFRrtgrT/movie/41259"},{"id":41248,"title":"Век дисфории","kp_id":"1274067","imdb_id":null,"world_art_id":null,"type":"movie","add":"2020-06-17 11:27:19","orig_title":"Age of Dysphoria","year":"2020-02-14","translations":["Любительский (многоголосый закадровый) (Синема УС)"],"quality":"hdtv","translation":"Любительский (многоголосый закадровый) (Синема УС)","update":"2020-06-18 19:41:26","iframe_src":"//8543.svetacdn.in/si4jsFRrtgrT/movie/41248"},{"id":41196,"title":"Я в полном порядке","kp_id":"42403","imdb_id":"tt0098683","world_art_id":null,"type":"movie","add":"2020-06-15 15:03:19","orig_title":"Ya v polnom poryadke","year":"1989-12-01","translations":["Оригинальная дорожка"],"quality":"dvb","translation":"Оригинальная дорожка","update":"2020-06-18 19:42:05","iframe_src":"//8543.svetacdn.in/si4jsFRrtgrT/movie/41196"},{"id":41195,"title":"Тайна старого леса","kp_id":"172003","imdb_id":"tt0108077","world_art_id":null,"type":"movie","add":"2020-06-15 15:01:24","orig_title":"Il segreto del bosco vecchio","year":"1993-09-06","translations":["Авторский (одноголосый закадровый) (Мудров Андрей)"],"quality":"dvdrip","translation":"Авторский (одноголосый закадровый) (Мудров Андрей)","update":"2020-06-18 19:42:44","iframe_src":"//8543.svetacdn.in/si4jsFRrtgrT/movie/41195"},{"id":41194,"title":"Волшебное приключение","kp_id":"17773","imdb_id":"tt0339334","world_art_id":null,"type":"movie","add":"2020-06-15 14:59:45","orig_title":"The Magic Roundabout","year":"2005-02-02","translations":["Профессиональный (двухголосый закадровый)"],"quality":"bd","translation":"Профессиональный (двухголосый закадровый)","update":"2020-06-18 19:43:22","iframe_src":"//8543.svetacdn.in/si4jsFRrtgrT/movie/41194"},{"id":41193,"title":"Голливуд/Болливуд","kp_id":"23738","imdb_id":"tt0303785","world_art_id":null,"type":"movie","add":"2020-06-15 14:54:39","orig_title":"Bollywood/Hollywood","year":"2002-09-06","translations":["Профессиональный (многоголосый закадровый)"],"quality":"dvb","translation":"Профессиональный (многоголосый закадровый)","update":"2020-06-18 19:44:18","iframe_src":"//8543.svetacdn.in/si4jsFRrtgrT/movie/41193"},{"id":41192,"title":"Боксер","kp_id":"408021","imdb_id":"tt1198189","world_art_id":null,"type":"movie","add":"2020-06-15 14:51:43","orig_title":"The Boxer","year":"2009-02-22","translations":["Профессиональный (двухголосый закадровый)"],"quality":"dvdrip","translation":"Профессиональный (двухголосый закадровый)","update":"2020-06-18 19:45:30","iframe_src":"//8543.svetacdn.in/si4jsFRrtgrT/movie/41192"},{"id":41191,"title":"Геркулес & Зена: Битва за Олимп","kp_id":"296828","imdb_id":"tt0119283","world_art_id":null,"type":"movie","add":"2020-06-15 14:50:13","orig_title":"Hercules and Xena - The Animated Movie: The Battle for Mount Olympus","year":"1998-01-06","translations":["Профессиональный (многоголосый закадровый) (ДТВ)"],"quality":"dvdrip","translation":"Профессиональный (многоголосый закадровый) (ДТВ)","update":"2020-06-18 19:45:57","iframe_src":"//8543.svetacdn.in/si4jsFRrtgrT/movie/41191"},{"id":41188,"title":"Дуэт для солиста","kp_id":"7605","imdb_id":"tt0092934","world_art_id":null,"type":"movie","add":"2020-06-15 07:41:33","orig_title":"Duet for One","year":"1986-12-25","translations":["Профессиональный (многоголосый закадровый)"],"quality":"dvdrip","translation":"Профессиональный (многоголосый закадровый)","update":"2020-06-19 06:58:54","iframe_src":"//8543.svetacdn.in/si4jsFRrtgrT/movie/41188"},{"id":41187,"title":"Мэтр и Призрачный Свет","kp_id":"305788","imdb_id":"tt0901686","world_art_id":null,"type":"movie","add":"2020-06-15 07:31:17","orig_title":"Mater and the Ghostlight","year":"2006-10-25","translations":["Полное дублирование"],"quality":"bd","translation":"Полное дублирование","update":"2020-06-19 06:57:35","iframe_src":"//8543.svetacdn.in/si4jsFRrtgrT/movie/41187"},{"id":41186,"title":"Любовь в космосе","kp_id":"596086","imdb_id":"tt1856038","world_art_id":null,"type":"movie","add":"2020-06-15 07:21:56","orig_title":"Quan qiu re lian","year":"2011-09-08","translations":["Профессиональный (многоголосый закадровый) (Первый канал | ОРТ)"],"quality":"hdtv","translation":"Профессиональный (многоголосый закадровый) (Первый канал | ОРТ)","update":"2020-06-19 06:54:26","iframe_src":"//8543.svetacdn.in/si4jsFRrtgrT/movie/41186"},{"id":41185,"title":"Ла Вьячча","kp_id":"13537","imdb_id":"tt0056657","world_art_id":null,"type":"movie","add":"2020-06-15 07:17:37","orig_title":"La viaccia","year":"1961-05-15","translations":["Авторский (одноголосый закадровый) (Визгунов Сергей)"],"quality":"sat","translation":"Авторский (одноголосый закадровый) (Визгунов Сергей)","update":"2020-06-19 06:49:55","iframe_src":"//8543.svetacdn.in/si4jsFRrtgrT/movie/41185"},{"id":40999,"title":"Невидимая","kp_id":"566369","imdb_id":"tt1717152","world_art_id":null,"type":"movie","add":"2020-06-07 15:46:04","orig_title":"Die Unsichtbare","year":"2011-07-03","translations":["Профессиональный (многоголосый закадровый)"],"quality":"bd","translation":"Профессиональный (многоголосый закадровый)","update":"2020-06-18 19:44:53","iframe_src":"//8543.svetacdn.in/si4jsFRrtgrT/movie/40999"},{"id":18708,"title":"Скуби Ду и Призрак-Гурман","kp_id":"1173140","imdb_id":"tt8660492","world_art_id":null,"type":"movie","add":"2018-08-31 22:38:42","orig_title":"Scooby-Doo! and the Gourmet Ghost","year":"2018-09-11","translations":["Любительский (многоголосый закадровый) (Колобок)","Любительский (двухголосый закадровый) (Колобок)"],"quality":"webdl","translation":"Любительский (многоголосый закадровый) (Колобок)","update":"2020-06-18 19:43:49","iframe_src":"//8543.svetacdn.in/si4jsFRrtgrT/movie/18708"},{"id":17208,"title":"Бернард и Хьюи","kp_id":"941808","imdb_id":"tt4654016","world_art_id":null,"type":"movie","add":"2018-06-17 21:28:33","orig_title":"Bernard and Huey","year":"2017-09-15","translations":["Любительский (многоголосый закадровый) (Синема УС)","Профессиональный (многоголосый закадровый) (HDrezka Studio)"],"quality":"webdl","translation":"Любительский (многоголосый закадровый) (Синема УС)","update":"2020-06-19 08:31:34","iframe_src":"//8543.svetacdn.in/si4jsFRrtgrT/movie/17208"},{"id":1657,"title":"BBC: Суперстая","kp_id":"566501","imdb_id":"tt1352274","world_art_id":null,"type":"serial","add":"2017-10-18 12:32:56","orig_title":"Swarm: Nature's Incredible Invasions","year":"2009-01-04","translations":["Профессиональный (одноголосый закадровый)"],"seasons_count":1,"episodes_count":2,"episodes":2,"update":"2017-10-19 06:31:31","iframe_src":"//8543.svetacdn.in/si4jsFRrtgrT/tv-series/1657"},{"id":1655,"title":"Где-то на краю света","kp_id":"1048954","imdb_id":null,"world_art_id":null,"type":"serial","add":"2017-10-18 07:38:46","orig_title":"Где-то на краю света","year":"2017-10-14","translations":["Оригинальная дорожка"],"seasons_count":1,"episodes_count":4,"episodes":4,"update":"2017-10-18 14:20:34","iframe_src":"//8543.svetacdn.in/si4jsFRrtgrT/tv-series/1655"},{"id":1646,"title":"Живая мишень","kp_id":"466529","imdb_id":"tt1439741","world_art_id":null,"type":"serial","add":"2017-10-16 14:27:03","orig_title":"Human Target","year":"2010-01-17","translations":["Профессиональный (многоголосый закадровый) (LostFilm)"],"seasons_count":2,"episodes_count":25,"episodes":13,"update":"2017-10-18 10:51:41","iframe_src":"//8543.svetacdn.in/si4jsFRrtgrT/tv-series/1646"},{"id":1641,"title":"Можно мне тебя обнять?","kp_id":"1049378","imdb_id":null,"world_art_id":null,"type":"serial","add":"2017-10-15 17:32:23","orig_title":"Можно мне тебя обнять?","year":"2017-10-14","translations":["Оригинальная дорожка"],"seasons_count":1,"episodes_count":2,"episodes":2,"update":"2017-10-16 15:39:21","iframe_src":"//8543.svetacdn.in/si4jsFRrtgrT/tv-series/1641"},{"id":1640,"title":"У реки два берега.","kp_id":"580532","imdb_id":null,"world_art_id":null,"type":"serial","add":"2017-10-15 17:10:24","orig_title":"У реки два берега.","year":"2011-03-06","translations":["Оригинальная дорожка"],"seasons_count":1,"episodes_count":4,"episodes":4,"update":"2017-10-18 14:17:05","iframe_src":"//8543.svetacdn.in/si4jsFRrtgrT/tv-series/1640"},{"id":1639,"title":"У реки два берега. Продолжение","kp_id":"592305","imdb_id":null,"world_art_id":null,"type":"serial","add":"2017-10-15 17:03:35","orig_title":"У реки два берега. Продолжение","year":"2011-03-06","translations":["Оригинальная дорожка"],"seasons_count":1,"episodes_count":4,"episodes":4,"update":"2017-10-16 15:41:45","iframe_src":"//8543.svetacdn.in/si4jsFRrtgrT/tv-series/1639"},{"id":1637,"title":"Последний из Магикян","kp_id":"733435","imdb_id":"tt3778488","world_art_id":null,"type":"serial","add":"2017-10-13 12:03:05","orig_title":"Posledniy iz Magikyan","year":"2013-09-16","translations":["Оригинальная дорожка"],"seasons_count":5,"episodes_count":80,"episodes":20,"update":"2017-10-18 10:35:37","iframe_src":"//8543.svetacdn.in/si4jsFRrtgrT/tv-series/1637"},{"id":1633,"title":"Рапунцель: Новая история","kp_id":"970916","imdb_id":"tt4902964","world_art_id":null,"type":"serial","add":"2017-10-11 12:00:18","orig_title":"Tangled","year":"2017-03-24","translations":["Полное дублирование"],"seasons_count":1,"episodes_count":4,"episodes":4,"update":"2017-10-13 08:07:21","iframe_src":"//8543.svetacdn.in/si4jsFRrtgrT/tv-series/1633"},{"id":1631,"title":"Ребенок Розмари","kp_id":"789868","imdb_id":"tt3087752","world_art_id":null,"type":"serial","add":"2017-10-11 11:24:26","orig_title":"Rosemary's Baby","year":"2014-05-11","translations":["Профессиональный (многоголосый закадровый) (LostFilm)"],"seasons_count":1,"episodes_count":2,"episodes":2,"update":"2017-10-12 07:43:52","iframe_src":"//8543.svetacdn.in/si4jsFRrtgrT/tv-series/1631"},{"id":1626,"title":"Русский дубль","kp_id":"494704","imdb_id":"tt5009702","world_art_id":null,"type":"serial","add":"2017-10-11 08:20:06","orig_title":"Russkiy dubl","year":"2010-11-23","translations":["Оригинальная дорожка"],"seasons_count":1,"episodes_count":16,"episodes":16,"update":"2017-10-13 13:10:43","iframe_src":"//8543.svetacdn.in/si4jsFRrtgrT/tv-series/1626"},{"id":1625,"title":"Индус","kp_id":"471406","imdb_id":"tt1750201","world_art_id":null,"type":"serial","add":"2017-10-11 08:16:43","orig_title":"Indus","year":"2010-10-11","translations":["Оригинальная дорожка"],"seasons_count":1,"episodes_count":12,"episodes":12,"update":"2017-10-12 13:11:23","iframe_src":"//8543.svetacdn.in/si4jsFRrtgrT/tv-series/1625"},{"id":1624,"title":"Черная метка","kp_id":"567060","imdb_id":"tt1745671","world_art_id":null,"type":"serial","add":"2017-10-11 08:12:10","orig_title":"Chyornaya metka","year":"2011-02-05","translations":["Оригинальная дорожка"],"seasons_count":1,"episodes_count":4,"episodes":4,"update":"2017-10-11 12:26:05","iframe_src":"//8543.svetacdn.in/si4jsFRrtgrT/tv-series/1624"},{"id":1623,"title":"Белая ворона","kp_id":"579537","imdb_id":null,"world_art_id":null,"type":"serial","add":"2017-10-11 07:54:13","orig_title":"Белая ворона","year":"2011-01-01","translations":["Оригинальная дорожка"],"seasons_count":1,"episodes_count":4,"episodes":4,"update":"2017-10-11 12:28:43","iframe_src":"//8543.svetacdn.in/si4jsFRrtgrT/tv-series/1623"},{"id":1619,"title":"Последователи","kp_id":"630101","imdb_id":"tt2071645","world_art_id":null,"type":"serial","add":"2017-10-10 12:35:50","orig_title":"The Following","year":"2013-01-21","translations":["Профессиональный (многоголосый закадровый) (LostFilm)"],"seasons_count":3,"episodes_count":45,"episodes":15,"update":"2017-10-13 07:35:37","iframe_src":"//8543.svetacdn.in/si4jsFRrtgrT/tv-series/1619"},{"id":1618,"title":"Беглец","kp_id":"1049244","imdb_id":null,"world_art_id":null,"type":"serial","add":"2017-10-10 08:39:50","orig_title":"Беглец","year":"2017-10-08","translations":["Оригинальная дорожка"],"seasons_count":1,"episodes_count":20,"episodes":20,"update":"2017-10-12 09:05:45","iframe_src":"//8543.svetacdn.in/si4jsFRrtgrT/tv-series/1618"},{"id":1613,"title":"Ён-пхаль: Подпольный доктор","kp_id":"931138","imdb_id":"tt5010664","world_art_id":null,"type":"serial","add":"2017-10-09 06:31:25","orig_title":"Yongpalyi","year":"2015-08-05","translations":["Любительский (двухголосый закадровый) (GREEN TEA)"],"seasons_count":1,"episodes_count":18,"episodes":18,"update":"2017-10-19 15:11:02","iframe_src":"//8543.svetacdn.in/si4jsFRrtgrT/tv-series/1613"},{"id":1609,"title":"Терминатор: Битва за будущее","kp_id":"260995","imdb_id":"tt0851851","world_art_id":null,"type":"serial","add":"2017-10-09 05:52:23","orig_title":"Terminator: The Sarah Connor Chronicles","year":"2008-01-13","translations":["Полное дублирование (РенТВ)"],"seasons_count":2,"episodes_count":31,"episodes":22,"update":"2017-10-11 05:50:39","iframe_src":"//8543.svetacdn.in/si4jsFRrtgrT/tv-series/1609"},{"id":1606,"title":"Суббота","kp_id":"1006661","imdb_id":null,"world_art_id":null,"type":"serial","add":"2017-10-06 14:12:06","orig_title":"Суббота","year":"2017-09-27","translations":["Оригинальная дорожка"],"seasons_count":1,"episodes_count":16,"episodes":16,"update":"2017-10-11 10:21:44","iframe_src":"//8543.svetacdn.in/si4jsFRrtgrT/tv-series/1606"},{"id":1529,"title":"Последний мент","kp_id":"923491","imdb_id":"tt5353016","world_art_id":null,"type":"serial","add":"2017-09-07 12:28:48","orig_title":"Posledniy ment","year":"2015-11-02","translations":["Оригинальная дорожка"],"seasons_count":3,"episodes_count":91,"episodes":52,"update":"2017-10-16 13:43:47","iframe_src":"//8543.svetacdn.in/si4jsFRrtgrT/tv-series/1529"},{"id":1476,"title":"Эпизоды","kp_id":"568018","imdb_id":"tt1582350","world_art_id":null,"type":"serial","add":"2017-08-18 05:49:36","orig_title":"Episodes","year":"2011-01-09","translations":["Профессиональный (двухголосый закадровый) (Ozz.tv)","Профессиональный (многоголосый закадровый) (Ozz.tv)"],"seasons_count":5,"episodes_count":41,"episodes":7,"update":"2017-10-12 07:35:14","iframe_src":"//8543.svetacdn.in/si4jsFRrtgrT/tv-series/1476"}],"current_page":442,"first_page_url":"https://videocdn.tv/api/short?limit=100&api_token=X6EwAUfE5M9xbo7y0Bp0aPf3uXxG2KLL&cache3442=3442&page=1","from":44101,"last_page":596,"last_page_url":"https://videocdn.tv/api/short?limit=100&api_token=X6EwAUfE5M9xbo7y0Bp0aPf3uXxG2KLL&cache3442=3442&page=596","next_page_url":"https://videocdn.tv/api/short?limit=100&api_token=X6EwAUfE5M9xbo7y0Bp0aPf3uXxG2KLL&cache3442=3442&page=443","path":"https://videocdn.tv/api/short","per_page":100,"prev_page_url":"https://videocdn.tv/api/short?limit=100&api_token=X6EwAUfE5M9xbo7y0Bp0aPf3uXxG2KLL&cache3442=3442&page=441","to":44140,"total":59584}