{"result":true,"data":[{"id":54133,"title":"Черноморский рейд","kp_id":"77898","imdb_id":"tt0197299","world_art_id":null,"type":"movie","add":"2021-10-25 22:46:12","orig_title":"Black Sea Raid","year":"2000-05-03","translations":["Профессиональный (двухголосый закадровый) (НТВ)","Авторский (одноголосый закадровый) (Иванов Михаил)"],"quality":"dvdrip","translation":"Профессиональный (двухголосый закадровый) (НТВ)","update":"2021-10-26 08:32:52","iframe_src":"//24213.svetacdn.in/71tsRs29n5tZ/movie/54133"},{"id":54125,"title":"Бедлам","kp_id":"32162","imdb_id":"tt0038343","world_art_id":null,"type":"movie","add":"2021-10-25 16:10:06","orig_title":"Bedlam","year":"1946-04-19","translations":["[EN] Original (English)","Любительский (одноголосый закадровый)"],"quality":"bd","translation":"[EN] Original (English)","update":"2021-10-26 10:08:15","iframe_src":"//24213.svetacdn.in/71tsRs29n5tZ/movie/54125"},{"id":54124,"title":"Территория команчей","kp_id":"25912","imdb_id":"tt0042339","world_art_id":null,"type":"movie","add":"2021-10-25 16:05:02","orig_title":"Comanche Territory","year":"1950-04-07","translations":["Любительский (одноголосый закадровый) (Kolobroad)","[EN] Original (English)"],"quality":"bd","translation":"Любительский (одноголосый закадровый) (Kolobroad)","update":"2021-10-26 10:05:47","iframe_src":"//24213.svetacdn.in/71tsRs29n5tZ/movie/54124"},{"id":54123,"title":"Гонщик «Серебряной мечты»","kp_id":"28547","imdb_id":"tt0081517","world_art_id":null,"type":"movie","add":"2021-10-25 13:47:32","orig_title":"Silver Dream Racer","year":"1980-04-11","translations":["Полное дублирование (Ленфильм)"],"quality":"dvdrip","translation":"Полное дублирование (Ленфильм)","update":"2021-10-26 09:07:48","iframe_src":"//24213.svetacdn.in/71tsRs29n5tZ/movie/54123"},{"id":54122,"title":"Лето у дедушки","kp_id":"1395340","imdb_id":"tt12840926","world_art_id":null,"type":"movie","add":"2021-10-25 11:03:02","orig_title":"Nammaeui yeoreunbam","year":"2019-10-06","translations":["Любительский (двухголосый закадровый) (АрхиAsia)"],"quality":"webdl","translation":"Любительский (двухголосый закадровый) (АрхиAsia)","update":"2021-10-25 15:34:45","iframe_src":"//24213.svetacdn.in/71tsRs29n5tZ/movie/54122"},{"id":54121,"title":"Духи Тьмы","kp_id":"910950","imdb_id":"tt4690052","world_art_id":null,"type":"movie","add":"2021-10-25 11:01:17","orig_title":"Através da Sombra","year":"2015-11-10","translations":["Профессиональный (многоголосый закадровый) (Киноужас)"],"quality":"webdl","translation":"Профессиональный (многоголосый закадровый) (Киноужас)","update":"2021-10-25 15:36:25","iframe_src":"//24213.svetacdn.in/71tsRs29n5tZ/movie/54121"},{"id":54120,"title":"Шёпот сердец","kp_id":"899427","imdb_id":"tt4484426","world_art_id":null,"type":"movie","add":"2021-10-25 08:42:55","orig_title":"Nian nian","year":"2015-03-23","translations":["Любительский (одноголосый закадровый) (Береговых Виктор | Jet)"],"quality":"bd","translation":"Любительский (одноголосый закадровый) (Береговых Виктор | Jet)","update":"2021-10-25 15:49:05","iframe_src":"//24213.svetacdn.in/71tsRs29n5tZ/movie/54120"},{"id":54119,"title":"Не видишь я тебя люблю","kp_id":"1264965","imdb_id":"tt10252064","world_art_id":null,"type":"movie","add":"2021-10-25 08:39:28","orig_title":"Can't See Me Love You","year":"2018-11-02","translations":["Любительский (двухголосый закадровый) (Колобок)"],"quality":"webdl","translation":"Любительский (двухголосый закадровый) (Колобок)","update":"2021-10-25 15:51:04","iframe_src":"//24213.svetacdn.in/71tsRs29n5tZ/movie/54119"},{"id":54117,"title":"Ярость","kp_id":"30932","imdb_id":"tt0060882","world_art_id":null,"type":"movie","add":"2021-10-25 06:44:24","orig_title":"Rage","year":"1966-12-09","translations":["Любительский (одноголосый закадровый) (Drunk As Fuck)","[EN] Original (English)"],"quality":"bd","translation":"Любительский (одноголосый закадровый) (Drunk As Fuck)","update":"2021-10-25 15:43:07","iframe_src":"//24213.svetacdn.in/71tsRs29n5tZ/movie/54117"},{"id":54115,"title":"Нищий студент","kp_id":"72298","imdb_id":"tt0027351","world_art_id":null,"type":"movie","add":"2021-10-25 06:41:15","orig_title":"Der Bettelstudent","year":"1936-08-07","translations":["Полное дублирование","Профессиональный (одноголосый закадровый) (Светла)"],"quality":"bd","translation":"Полное дублирование","update":"2021-10-25 15:42:04","iframe_src":"//24213.svetacdn.in/71tsRs29n5tZ/movie/54115"},{"id":54107,"title":"Проклятый ребёнок","kp_id":"1256512","imdb_id":"tt10178972","world_art_id":null,"type":"movie","add":"2021-10-24 11:03:55","orig_title":"Bayi Gaib: Bayi Tumbal Bayi Mati","year":"2018-02-15","translations":["Любительский (двухголосый закадровый) (Колобок)"],"quality":"webdl","translation":"Любительский (двухголосый закадровый) (Колобок)","update":"2021-10-25 15:53:49","iframe_src":"//24213.svetacdn.in/71tsRs29n5tZ/movie/54107"},{"id":54106,"title":"Всё не слава богу","kp_id":"1261423","imdb_id":"tt10009342","world_art_id":null,"type":"movie","add":"2021-10-24 10:45:22","orig_title":"Trouble Makers","year":"2019-01-11","translations":["Любительский (двухголосый закадровый) (Колобок)"],"quality":"webdl","translation":"Любительский (двухголосый закадровый) (Колобок)","update":"2021-10-25 15:55:11","iframe_src":"//24213.svetacdn.in/71tsRs29n5tZ/movie/54106"},{"id":54020,"title":"Книга проступков и заслуг","kp_id":"4295885","imdb_id":"tt12838746","world_art_id":null,"type":"movie","add":"2021-10-20 18:16:18","orig_title":"Demon Demon Performance Record","year":"2019-03-24","translations":["Любительский (двухголосый закадровый) (Колобок)"],"quality":"webdl","translation":"Любительский (двухголосый закадровый) (Колобок)","update":"2021-10-25 15:57:35","iframe_src":"//24213.svetacdn.in/71tsRs29n5tZ/movie/54020"},{"id":54019,"title":"Нерассказанная история","kp_id":"220800","imdb_id":"tt0103743","world_art_id":null,"type":"movie","add":"2021-10-20 18:10:51","orig_title":"Bat sin fan dim: Yan yuk cha siu bau","year":"1993-05-13","translations":["Авторский (одноголосый закадровый) (Кузнецов Сергей)"],"quality":"bd","translation":"Авторский (одноголосый закадровый) (Кузнецов Сергей)","update":"2021-10-25 15:58:35","iframe_src":"//24213.svetacdn.in/71tsRs29n5tZ/movie/54019"},{"id":53986,"title":"Так держать, отель!","kp_id":"265966","imdb_id":"tt0095402","world_art_id":null,"type":"movie","add":"2021-10-19 16:23:56","orig_title":"Jin zhuang da jiu dian","year":"1988-07-02","translations":["Авторский (одноголосый закадровый) (Яковлев Алексей)"],"quality":"dvdrip","translation":"Авторский (одноголосый закадровый) (Яковлев Алексей)","update":"2021-10-25 16:02:28","iframe_src":"//24213.svetacdn.in/71tsRs29n5tZ/movie/53986"},{"id":36912,"title":"История с ожерельем","kp_id":"3575","imdb_id":"tt0242252","world_art_id":null,"type":"movie","add":"2020-02-25 09:59:52","orig_title":"The Affair of the Necklace","year":"2001-11-20","translations":["Полное дублирование","Профессиональный (многоголосый закадровый)","[EN] Original (English)"],"quality":"dvdrip","translation":"Полное дублирование","update":"2021-10-25 15:44:29","iframe_src":"//24213.svetacdn.in/71tsRs29n5tZ/movie/36912"},{"id":5655,"title":"Грейспойнт","kp_id":"818890","imdb_id":"tt3435532","world_art_id":null,"type":"serial","add":"2019-11-05 20:11:09","orig_title":"Gracepoint","year":"2014-10-02","translations":["Профессиональный (многоголосый закадровый) (NewStudio)"],"seasons_count":1,"episodes_count":10,"episodes":10,"update":"2019-11-07 20:22:58","iframe_src":"//24213.svetacdn.in/71tsRs29n5tZ/tv-series/5655"},{"id":5654,"title":"Вторжение паразитов","kp_id":"592094","imdb_id":"tt1820966","world_art_id":null,"type":"serial","add":"2019-11-05 20:05:45","orig_title":"Infested!","year":"2011-01-09","translations":["Профессиональный (одноголосый закадровый)"],"seasons_count":1,"episodes_count":3,"episodes":3,"update":"2019-11-07 13:29:10","iframe_src":"//24213.svetacdn.in/71tsRs29n5tZ/tv-series/5654"},{"id":5652,"title":"Красные браслеты","kp_id":"838540","imdb_id":"tt3576794","world_art_id":null,"type":"serial","add":"2019-11-05 19:44:51","orig_title":"Red Band Society","year":"2014-09-17","translations":["Полное дублирование (Невафильм | Нева-1)"],"seasons_count":1,"episodes_count":13,"episodes":13,"update":"2019-11-07 20:08:44","iframe_src":"//24213.svetacdn.in/71tsRs29n5tZ/tv-series/5652"},{"id":5651,"title":"Раш","kp_id":"819374","imdb_id":"tt3413236","world_art_id":null,"type":"serial","add":"2019-11-05 19:41:50","orig_title":"Rush","year":"2014-07-17","translations":["Профессиональный (многоголосый закадровый) (IdeaFilm)"],"seasons_count":1,"episodes_count":10,"episodes":10,"update":"2019-11-07 13:26:51","iframe_src":"//24213.svetacdn.in/71tsRs29n5tZ/tv-series/5651"},{"id":5650,"title":"Те, кто убивают","kp_id":"661763","imdb_id":"tt2188931","world_art_id":null,"type":"serial","add":"2019-11-05 19:37:52","orig_title":"Those Who Kill","year":"2014-03-03","translations":["Профессиональный (многоголосый закадровый) (ViruseProject)"],"seasons_count":1,"episodes_count":10,"episodes":10,"update":"2019-11-07 13:21:22","iframe_src":"//24213.svetacdn.in/71tsRs29n5tZ/tv-series/5650"},{"id":5649,"title":"Курт Сеит и Александра","kp_id":"821526","imdb_id":"tt3467380","world_art_id":null,"type":"serial","add":"2019-11-05 19:32:47","orig_title":"Kurt Seyit ve Sura","year":"2014-03-04","translations":["Полное дублирование (СВ-Дубль)"],"seasons_count":2,"episodes_count":21,"episodes":8,"update":"2019-11-07 13:15:41","iframe_src":"//24213.svetacdn.in/71tsRs29n5tZ/tv-series/5649"},{"id":5643,"title":"Три полуграции","kp_id":"256464","imdb_id":"tt3257142","world_art_id":null,"type":"serial","add":"2019-11-05 13:57:22","orig_title":"Tri polugratsii","year":"2006-01-01","translations":["Оригинальная дорожка"],"seasons_count":1,"episodes_count":4,"episodes":4,"update":"2019-11-07 12:52:44","iframe_src":"//24213.svetacdn.in/71tsRs29n5tZ/tv-series/5643"},{"id":5641,"title":"Верни меня","kp_id":"880706","imdb_id":null,"world_art_id":null,"type":"serial","add":"2019-11-05 13:54:58","orig_title":"Верни меня","year":"2015-05-30","translations":["Оригинальная дорожка"],"seasons_count":1,"episodes_count":2,"episodes":2,"update":"2019-11-07 12:50:11","iframe_src":"//24213.svetacdn.in/71tsRs29n5tZ/tv-series/5641"},{"id":5640,"title":"Телеведущие","kp_id":"733473","imdb_id":"tt2166772","world_art_id":null,"type":"serial","add":"2019-11-05 13:50:04","orig_title":"Newsreaders","year":"2013-01-17","translations":["Профессиональный (двухголосый закадровый) (Кубик в Кубе | Kubik³)"],"seasons_count":2,"episodes_count":16,"episodes":6,"update":"2019-11-07 12:48:46","iframe_src":"//24213.svetacdn.in/71tsRs29n5tZ/tv-series/5640"},{"id":5634,"title":"Солдаты. Новый год, твою дивизию!","kp_id":"470958","imdb_id":null,"world_art_id":null,"type":"serial","add":"2019-11-05 11:55:49","orig_title":"Солдаты. Новый год, твою дивизию!","year":"2007-12-31","translations":["Оригинальная дорожка"],"seasons_count":1,"episodes_count":2,"episodes":2,"update":"2019-11-07 12:34:59","iframe_src":"//24213.svetacdn.in/71tsRs29n5tZ/tv-series/5634"},{"id":5632,"title":"Одиссей","kp_id":"77183","imdb_id":"tt0118414","world_art_id":null,"type":"serial","add":"2019-11-05 11:48:08","orig_title":"The Odyssey","year":"1997-05-18","translations":["Профессиональный (многоголосый закадровый)"],"seasons_count":1,"episodes_count":2,"episodes":2,"update":"2019-11-07 12:33:48","iframe_src":"//24213.svetacdn.in/71tsRs29n5tZ/tv-series/5632"},{"id":5609,"title":"Щенок по кличке Скуби Ду","kp_id":"229241","imdb_id":"tt0094531","world_art_id":null,"type":"serial","add":"2019-11-02 13:30:42","orig_title":"A Pup Named Scooby-Doo","year":"1988-09-10","translations":["Полное дублирование (Пифагор)"],"seasons_count":4,"episodes_count":27,"episodes":3,"update":"2019-11-08 06:16:55","iframe_src":"//24213.svetacdn.in/71tsRs29n5tZ/tv-series/5609"},{"id":5608,"title":"13 привидений Скуби-Ду","kp_id":"229449","imdb_id":"tt0088628","world_art_id":null,"type":"serial","add":"2019-11-02 13:21:22","orig_title":"The 13 Ghosts of Scooby-Doo","year":"1985-09-07","translations":["Полное дублирование"],"seasons_count":1,"episodes_count":13,"episodes":13,"update":"2019-11-08 05:30:53","iframe_src":"//24213.svetacdn.in/71tsRs29n5tZ/tv-series/5608"},{"id":5607,"title":"Новые загадки для Скуби-Ду","kp_id":"229840","imdb_id":"tt0086767","world_art_id":null,"type":"serial","add":"2019-11-02 12:54:51","orig_title":"The New Scooby-Doo Mysteries","year":"1983-09-10","translations":["Полное дублирование"],"seasons_count":2,"episodes_count":26,"episodes":13,"update":"2019-11-07 13:02:20","iframe_src":"//24213.svetacdn.in/71tsRs29n5tZ/tv-series/5607"},{"id":5606,"title":"Новое шоу Скуби и Скрэппи Ду","kp_id":"229444","imdb_id":"tt0084970","world_art_id":null,"type":"serial","add":"2019-11-02 12:46:14","orig_title":"The New Scooby and Scrappy-Doo Show","year":"1983-09-10","translations":["Полное дублирование"],"seasons_count":1,"episodes_count":13,"episodes":13,"update":"2019-11-07 12:58:11","iframe_src":"//24213.svetacdn.in/71tsRs29n5tZ/tv-series/5606"},{"id":5605,"title":"Скуби Ду: Забавные состязания «Всех мультсупер звезд»","kp_id":"94695","imdb_id":"tt0181941","world_art_id":null,"type":"serial","add":"2019-11-02 12:32:18","orig_title":"Scooby's All Star Laff-A-Lympics","year":"1977-09-10","translations":["Полное дублирование"],"seasons_count":2,"episodes_count":24,"episodes":8,"update":"2019-11-07 12:51:22","iframe_src":"//24213.svetacdn.in/71tsRs29n5tZ/tv-series/5605"},{"id":5604,"title":"Аврора","kp_id":"578858","imdb_id":"tt1807106","world_art_id":null,"type":"serial","add":"2019-11-02 11:59:25","orig_title":"Aurora","year":"2010-11-01","translations":["Профессиональный (многоголосый закадровый)"],"seasons_count":1,"episodes_count":135,"episodes":135,"update":"2019-11-05 21:26:40","iframe_src":"//24213.svetacdn.in/71tsRs29n5tZ/tv-series/5604"},{"id":5597,"title":"Прапорщик Шматко, или Ё-моё","kp_id":"428696","imdb_id":"tt10823740","world_art_id":null,"type":"serial","add":"2019-11-01 16:58:14","orig_title":"Praporshchik Shmatko, ili O-moyo","year":"2007-01-01","translations":["Оригинальная дорожка"],"seasons_count":1,"episodes_count":16,"episodes":16,"update":"2019-11-05 07:57:42","iframe_src":"//24213.svetacdn.in/71tsRs29n5tZ/tv-series/5597"},{"id":5578,"title":"Не беспокойтесь за меня","kp_id":"1046124","imdb_id":"tt6407102","world_art_id":null,"type":"serial","add":"2019-10-30 10:27:54","orig_title":"Benim Için Üzülme","year":"2012-11-06","translations":["Любительский (одноголосый закадровый)"],"seasons_count":1,"episodes_count":32,"episodes":32,"update":"2019-11-05 10:12:42","iframe_src":"//24213.svetacdn.in/71tsRs29n5tZ/tv-series/5578"},{"id":5116,"title":"Тёмный кристалл: Эпоха сопротивления","kp_id":"1045246","imdb_id":"tt6905542","world_art_id":null,"type":"serial","add":"2019-08-30 12:24:57","orig_title":"The Dark Crystal: Age of Resistance","year":"2019-08-30","translations":["Полное дублирование (Пифагор)","Профессиональный (многоголосый закадровый) (NewStudio)","Профессиональный (многоголосый закадровый) (AlexFilm)","Профессиональный (многоголосый закадровый) (HDrezka Studio)"],"seasons_count":1,"episodes_count":10,"episodes":10,"update":"2019-11-07 14:34:39","iframe_src":"//24213.svetacdn.in/71tsRs29n5tZ/tv-series/5116"},{"id":6702,"title":"Ночной народ","kp_id":"23074","imdb_id":"tt0100260","world_art_id":null,"type":"movie","add":"2016-10-26 16:30:13","orig_title":"Nightbreed","year":"1990-02-16","translations":["Любительский (одноголосый закадровый)","[EN] Original (English)","Профессиональный (двухголосый закадровый)","Авторский (одноголосый закадровый) (Матвеев Алексей | Doctor Joker)","Авторский (одноголосый закадровый) (Гаврилов Андрей)"],"quality":"bd","translation":"Любительский (одноголосый закадровый)","update":"2021-10-26 09:52:13","iframe_src":"//24213.svetacdn.in/71tsRs29n5tZ/movie/6702"},{"id":5986,"title":"Принцесса Токхе","kp_id":"991566","imdb_id":"tt5947416","world_art_id":null,"type":"movie","add":"2016-10-08 14:56:35","orig_title":"Deokhyeongju","year":"2016-08-03","translations":["Любительский (двухголосый закадровый)","Любительский (двухголосый закадровый) (Колобок)","Любительский (двухголосый закадровый) (GREEN TEA)"],"quality":"webdl","translation":"Любительский (двухголосый закадровый)","update":"2021-10-25 16:00:12","iframe_src":"//24213.svetacdn.in/71tsRs29n5tZ/movie/5986"},{"id":4785,"title":"Чёрный пёс","kp_id":"1985","imdb_id":"tt0120610","world_art_id":null,"type":"movie","add":"2016-08-29 08:09:08","orig_title":"Black Dog","year":"1998-05-01","translations":["Профессиональный (двухголосый закадровый)","Профессиональный (многоголосый закадровый) (РТР | Россия)"],"quality":"hdtv","translation":"Профессиональный (двухголосый закадровый)","update":"2021-10-26 09:02:58","iframe_src":"//24213.svetacdn.in/71tsRs29n5tZ/movie/4785"},{"id":41,"title":"Разлом Сан-Андреас","kp_id":"652692","imdb_id":"tt2126355","world_art_id":null,"type":"movie","add":"2016-02-07 19:51:35","orig_title":"San Andreas","year":"2015-05-21","translations":["Полное дублирование","Авторский (одноголосый закадровый) (Гаврилов Андрей)","[EN] Original (English)","Полное дублирование (Мосфильм)"],"quality":"bd","translation":"Полное дублирование","update":"2021-10-26 09:58:16","iframe_src":"//24213.svetacdn.in/71tsRs29n5tZ/movie/41"}],"current_page":435,"first_page_url":"https://videocdn.tv/api/short?limit=100&api_token=EnbO9h8pv1VyjbCJhg0WM9nG259n7mtz&cache3435=3435&page=1","from":43401,"last_page":725,"last_page_url":"https://videocdn.tv/api/short?limit=100&api_token=EnbO9h8pv1VyjbCJhg0WM9nG259n7mtz&cache3435=3435&page=725","next_page_url":"https://videocdn.tv/api/short?limit=100&api_token=EnbO9h8pv1VyjbCJhg0WM9nG259n7mtz&cache3435=3435&page=436","path":"https://videocdn.tv/api/short","per_page":100,"prev_page_url":"https://videocdn.tv/api/short?limit=100&api_token=EnbO9h8pv1VyjbCJhg0WM9nG259n7mtz&cache3435=3435&page=434","to":43440,"total":72431}