{"result":true,"data":[{"id":51152,"title":"Гараш","kp_id":"947032","imdb_id":"tt5202266","world_art_id":null,"type":"movie","add":"2021-06-13 18:49:51","orig_title":"GaraSh","year":"2015-11-07","translations":["Оригинальная дорожка"],"quality":"webdl","translation":"Оригинальная дорожка","update":"2021-06-14 07:30:48","iframe_src":"//7720.svetacdn.in/IAF0wWTdNYZm/movie/51152"},{"id":51150,"title":"Режим героя","kp_id":"1277912","imdb_id":"tt10528948","world_art_id":null,"type":"movie","add":"2021-06-13 10:03:32","orig_title":"Hero Mode","year":"2021-06-04","translations":["Любительский (многоголосый закадровый) (@MUZOBOZ@)"],"quality":"webdl","translation":"Любительский (многоголосый закадровый) (@MUZOBOZ@)","update":"2021-06-13 21:58:46","iframe_src":"//7720.svetacdn.in/IAF0wWTdNYZm/movie/51150"},{"id":51149,"title":"Побег Акиллы","kp_id":"1400669","imdb_id":"tt12779696","world_art_id":null,"type":"movie","add":"2021-06-13 10:01:56","orig_title":"Akilla's Escape","year":"2020-09-12","translations":["Любительский (многоголосый закадровый) (@MUZOBOZ@)"],"quality":"webdl","translation":"Любительский (многоголосый закадровый) (@MUZOBOZ@)","update":"2021-06-13 21:59:29","iframe_src":"//7720.svetacdn.in/IAF0wWTdNYZm/movie/51149"},{"id":51148,"title":"Ярость дракона","kp_id":"2001237","imdb_id":"tt13563520","world_art_id":null,"type":"movie","add":"2021-06-13 10:00:19","orig_title":"Dragon Fury","year":"2021-10-06","translations":["Любительский (многоголосый закадровый) (@MUZOBOZ@)"],"quality":"webdl","translation":"Любительский (многоголосый закадровый) (@MUZOBOZ@)","update":"2021-06-13 21:58:04","iframe_src":"//7720.svetacdn.in/IAF0wWTdNYZm/movie/51148"},{"id":51144,"title":"Женщина из смартфона","kp_id":"1287226","imdb_id":"tt10536144","world_art_id":null,"type":"movie","add":"2021-06-13 09:42:57","orig_title":"La donna dello smartphone","year":"2020-03-05","translations":["Любительский (многоголосый закадровый) (Синема УС)"],"quality":"webdl","translation":"Любительский (многоголосый закадровый) (Синема УС)","update":"2021-06-13 21:56:57","iframe_src":"//7720.svetacdn.in/IAF0wWTdNYZm/movie/51144"},{"id":51142,"title":"Ещё немного плоти","kp_id":"1350436","imdb_id":"tt11710248","world_art_id":null,"type":"movie","add":"2021-06-13 09:41:08","orig_title":"A Little More Flesh","year":"2020-03-14","translations":["Любительский (многоголосый закадровый) (Синема УС)"],"quality":"webdl","translation":"Любительский (многоголосый закадровый) (Синема УС)","update":"2021-06-13 21:55:42","iframe_src":"//7720.svetacdn.in/IAF0wWTdNYZm/movie/51142"},{"id":51141,"title":"Чёрная лиса: Эпоха ниндзя","kp_id":"1252344","imdb_id":"tt10052928","world_art_id":null,"type":"movie","add":"2021-06-13 09:39:39","orig_title":"Black Fox: Age of the Ninja","year":"2019-10-05","translations":["Любительский (многоголосый закадровый) (Синема УС)"],"quality":"webdl","translation":"Любительский (многоголосый закадровый) (Синема УС)","update":"2021-06-13 21:54:40","iframe_src":"//7720.svetacdn.in/IAF0wWTdNYZm/movie/51141"},{"id":51140,"title":"Лагерь \"Сумерки\"","kp_id":"1116784","imdb_id":"tt7230370","world_art_id":null,"type":"movie","add":"2021-06-13 09:38:21","orig_title":"Camp Twilight","year":"2020-11-01","translations":["Любительский (многоголосый закадровый) (Синема УС)"],"quality":"webdl","translation":"Любительский (многоголосый закадровый) (Синема УС)","update":"2021-06-13 21:49:04","iframe_src":"//7720.svetacdn.in/IAF0wWTdNYZm/movie/51140"},{"id":51139,"title":"Мученики","kp_id":"1209926","imdb_id":"tt7297448","world_art_id":null,"type":"movie","add":"2021-06-13 09:37:07","orig_title":"Crucify","year":"2020-03-20","translations":["Любительский (многоголосый закадровый) (Синема УС)"],"quality":"webdl","translation":"Любительский (многоголосый закадровый) (Синема УС)","update":"2021-06-13 21:43:25","iframe_src":"//7720.svetacdn.in/IAF0wWTdNYZm/movie/51139"},{"id":51138,"title":"Волки-одиночки","kp_id":"920912","imdb_id":"tt4760602","world_art_id":null,"type":"movie","add":"2021-06-13 09:35:51","orig_title":"Lone Wolves","year":"2019-09-27","translations":["Любительский (многоголосый закадровый) (Синема УС)"],"quality":"webdl","translation":"Любительский (многоголосый закадровый) (Синема УС)","update":"2021-06-13 16:48:06","iframe_src":"//7720.svetacdn.in/IAF0wWTdNYZm/movie/51138"},{"id":51137,"title":"Носферату.ком","kp_id":"1349370","imdb_id":"tt11726342","world_art_id":null,"type":"movie","add":"2021-06-13 09:33:08","orig_title":"Nosferatu.com","year":"2020-04-02","translations":["Любительский (многоголосый закадровый) (Синема УС)"],"quality":"webdl","translation":"Любительский (многоголосый закадровый) (Синема УС)","update":"2021-06-13 16:42:20","iframe_src":"//7720.svetacdn.in/IAF0wWTdNYZm/movie/51137"},{"id":51136,"title":"Протокол Освенцима","kp_id":"1220407","imdb_id":"tt9415108","world_art_id":null,"type":"movie","add":"2021-06-13 09:31:22","orig_title":"The Auschwitz Report","year":"2021-01-28","translations":["Любительский (многоголосый закадровый) (Синема УС)"],"quality":"webdl","translation":"Любительский (многоголосый закадровый) (Синема УС)","update":"2021-06-13 16:41:44","iframe_src":"//7720.svetacdn.in/IAF0wWTdNYZm/movie/51136"},{"id":51135,"title":"Зомби одним планом!: В Голливуде","kp_id":"1260291","imdb_id":"tt10188260","world_art_id":null,"type":"movie","add":"2021-06-13 09:29:27","orig_title":"Kamera o tomeru na! supin-ofu: Hariuddo daisakusen!","year":"2019-03-02","translations":["Любительский (многоголосый закадровый) (Синема УС)"],"quality":"bd","translation":"Любительский (многоголосый закадровый) (Синема УС)","update":"2021-06-13 12:30:01","iframe_src":"//7720.svetacdn.in/IAF0wWTdNYZm/movie/51135"},{"id":51134,"title":"В плену у сакуры","kp_id":"1209004","imdb_id":"tt9800096","world_art_id":null,"type":"movie","add":"2021-06-13 08:12:31","orig_title":"Sorôkin no mita sakura","year":"2019-03-22","translations":["Профессиональный (многоголосый закадровый) (Позитив)"],"quality":"webdl","translation":"Профессиональный (многоголосый закадровый) (Позитив)","update":"2021-06-13 16:12:37","iframe_src":"//7720.svetacdn.in/IAF0wWTdNYZm/movie/51134"},{"id":51133,"title":"Разрушая границы: Научный взгляд на нашу планету","kp_id":"4467557","imdb_id":"tt14539726","world_art_id":null,"type":"movie","add":"2021-06-13 05:30:20","orig_title":"Breaking Boundaries: The Science of Our Planet","year":"2021-06-04","translations":["Профессиональный (многоголосый закадровый) (HDrezka Studio)"],"quality":"webdl","translation":"Профессиональный (многоголосый закадровый) (HDrezka Studio)","update":"2021-06-13 13:41:46","iframe_src":"//7720.svetacdn.in/IAF0wWTdNYZm/movie/51133"},{"id":51129,"title":"А где был ты, когда погас свет?","kp_id":"24211","imdb_id":"tt0063801","world_art_id":null,"type":"movie","add":"2021-06-12 14:57:46","orig_title":"Where Were You When the Lights Went Out?","year":"1968-06-19","translations":["Любительский (одноголосый закадровый) (lehachuev)"],"quality":"tv","translation":"Любительский (одноголосый закадровый) (lehachuev)","update":"2021-06-14 07:28:53","iframe_src":"//7720.svetacdn.in/IAF0wWTdNYZm/movie/51129"},{"id":51124,"title":"Я вернулся","kp_id":"1088354","imdb_id":"tt6892340","world_art_id":null,"type":"movie","add":"2021-06-12 11:46:52","orig_title":"Sono tornato","year":"2018-02-01","translations":["Любительский (многоголосый закадровый) (Синема УС)"],"quality":"webdl","translation":"Любительский (многоголосый закадровый) (Синема УС)","update":"2021-06-12 21:54:50","iframe_src":"//7720.svetacdn.in/IAF0wWTdNYZm/movie/51124"},{"id":51123,"title":"Сатпал Чаухан","kp_id":"1143871","imdb_id":"tt8406866","world_art_id":null,"type":"movie","add":"2021-06-12 11:44:53","orig_title":"S.P. Chauhan","year":"2019-02-07","translations":["Любительский (многоголосый закадровый) (Синема УС)"],"quality":"webdl","translation":"Любительский (многоголосый закадровый) (Синема УС)","update":"2021-06-12 21:53:47","iframe_src":"//7720.svetacdn.in/IAF0wWTdNYZm/movie/51123"},{"id":50974,"title":"Соблазн","kp_id":"1222771","imdb_id":"tt9440738","world_art_id":null,"type":"movie","add":"2021-06-06 10:00:07","orig_title":"Lured","year":"2019-10-17","translations":["Любительский (многоголосый закадровый) (Синема УС)"],"quality":"webdl","translation":"Любительский (многоголосый закадровый) (Синема УС)","update":"2021-06-13 08:52:16","iframe_src":"//7720.svetacdn.in/IAF0wWTdNYZm/movie/50974"},{"id":50440,"title":"Замыкание","kp_id":"1162915","imdb_id":"tt14384290","world_art_id":null,"type":"movie","add":"2021-05-17 10:51:11","orig_title":"Zamykanie","year":"2021-05-13","translations":["Оригинальная дорожка","Профессиональный (многоголосый закадровый)"],"quality":"ts","translation":"Оригинальная дорожка","update":"2021-06-13 16:08:33","iframe_src":"//7720.svetacdn.in/IAF0wWTdNYZm/movie/50440"},{"id":9585,"title":"Продавец на полставки","kp_id":"1343926","imdb_id":"tt12516712","world_art_id":null,"type":"serial","add":"2020-12-24 18:32:11","orig_title":"Backstreet Rookie","year":"2020-06-19","translations":["Любительский (двухголосый закадровый) (SoftBox)"],"seasons_count":1,"episodes_count":16,"episodes":16,"update":"2020-12-25 05:50:29","iframe_src":"//7720.svetacdn.in/IAF0wWTdNYZm/tv-series/9585"},{"id":9584,"title":"Паб на Гоа","kp_id":null,"imdb_id":"tt13397462","world_art_id":null,"type":"serial","add":"2020-12-24 16:10:52","orig_title":"Pubgoa","year":"2020-11-27","translations":["Любительский (многоголосый закадровый) (ColdFilm)"],"seasons_count":1,"episodes_count":8,"episodes":8,"update":"2020-12-25 11:06:00","iframe_src":"//7720.svetacdn.in/IAF0wWTdNYZm/tv-series/9584"},{"id":9583,"title":"Не беспокоить","kp_id":"1352764","imdb_id":"tt11800836","world_art_id":null,"type":"serial","add":"2020-12-24 12:14:06","orig_title":"Do Knot Disturb","year":"2019-07-26","translations":["Любительский (многоголосый закадровый) (ColdFilm)"],"seasons_count":2,"episodes_count":12,"episodes":6,"update":"2020-12-24 19:42:23","iframe_src":"//7720.svetacdn.in/IAF0wWTdNYZm/tv-series/9583"},{"id":9581,"title":"Чёрные вдовы","kp_id":"1404337","imdb_id":"tt13032762","world_art_id":null,"type":"serial","add":"2020-12-23 20:04:10","orig_title":"Black Widows","year":"2020-12-18","translations":["Любительский (многоголосый закадровый) (Ultradox)","Любительский (многоголосый закадровый) (ColdFilm)","Профессиональный (многоголосый закадровый) (BaibaKo)"],"seasons_count":1,"episodes_count":12,"episodes":12,"update":"2020-12-25 07:42:17","iframe_src":"//7720.svetacdn.in/IAF0wWTdNYZm/tv-series/9581"},{"id":9576,"title":"Особый взгляд","kp_id":"439865","imdb_id":"tt0783335","world_art_id":null,"type":"serial","add":"2020-12-23 08:52:07","orig_title":"Angela's Eyes","year":"2006-07-16","translations":["Профессиональный (многоголосый закадровый) (Fox Crime)"],"seasons_count":1,"episodes_count":13,"episodes":13,"update":"2020-12-25 05:37:54","iframe_src":"//7720.svetacdn.in/IAF0wWTdNYZm/tv-series/9576"},{"id":9553,"title":"Огонь любви","kp_id":"414994","imdb_id":"tt3949916","world_art_id":null,"type":"serial","add":"2020-12-18 21:46:51","orig_title":"Ogon lyubvi","year":"2008-01-08","translations":["Оригинальная дорожка"],"seasons_count":1,"episodes_count":142,"episodes":142,"update":"2020-12-23 20:34:16","iframe_src":"//7720.svetacdn.in/IAF0wWTdNYZm/tv-series/9553"},{"id":9540,"title":"Призрак Элены","kp_id":"571286","imdb_id":"tt1730842","world_art_id":null,"type":"serial","add":"2020-12-16 09:44:35","orig_title":"El Fantasma de Elena","year":"2010-07-20","translations":["Профессиональный (многоголосый закадровый)"],"seasons_count":1,"episodes_count":117,"episodes":117,"update":"2020-12-23 19:53:18","iframe_src":"//7720.svetacdn.in/IAF0wWTdNYZm/tv-series/9540"},{"id":9514,"title":"Угости меня шоколадом","kp_id":"528259","imdb_id":"tt1058596","world_art_id":null,"type":"serial","add":"2020-12-10 12:47:52","orig_title":"Dame Chocolate","year":"2007-03-05","translations":["Профессиональный (многоголосый закадровый)"],"seasons_count":1,"episodes_count":150,"episodes":150,"update":"2020-12-25 13:22:57","iframe_src":"//7720.svetacdn.in/IAF0wWTdNYZm/tv-series/9514"},{"id":9511,"title":"Лето нашей тайны","kp_id":"425827","imdb_id":"tt0140730","world_art_id":null,"type":"serial","add":"2020-12-09 21:03:01","orig_title":"Corpo Dourado","year":"1998-01-01","translations":["Профессиональный (многоголосый закадровый)"],"seasons_count":1,"episodes_count":113,"episodes":113,"update":"2020-12-23 19:19:24","iframe_src":"//7720.svetacdn.in/IAF0wWTdNYZm/tv-series/9511"},{"id":9509,"title":"Совершенная красота","kp_id":"425938","imdb_id":"tt1233506","world_art_id":null,"type":"serial","add":"2020-12-09 20:56:39","orig_title":"Beleza Pura","year":"2008-02-18","translations":["Профессиональный (многоголосый закадровый)"],"seasons_count":1,"episodes_count":130,"episodes":130,"update":"2020-12-24 07:46:30","iframe_src":"//7720.svetacdn.in/IAF0wWTdNYZm/tv-series/9509"},{"id":9427,"title":"Идеальная семья","kp_id":"1344495","imdb_id":null,"world_art_id":null,"type":"serial","add":"2020-11-30 10:57:52","orig_title":"Идеальная семья","year":"2020-11-30","translations":["Оригинальная дорожка"],"seasons_count":1,"episodes_count":17,"episodes":17,"update":"2020-12-23 20:35:51","iframe_src":"//7720.svetacdn.in/IAF0wWTdNYZm/tv-series/9427"},{"id":9424,"title":"Цвет страсти","kp_id":"1412445","imdb_id":null,"world_art_id":null,"type":"serial","add":"2020-11-29 20:36:55","orig_title":"Колір пристрасті","year":"2020-11-23","translations":["Оригинальная дорожка"],"seasons_count":3,"episodes_count":24,"episodes":8,"update":"2020-12-25 09:46:25","iframe_src":"//7720.svetacdn.in/IAF0wWTdNYZm/tv-series/9424"},{"id":9363,"title":"Родком","kp_id":"1305924","imdb_id":null,"world_art_id":null,"type":"serial","add":"2020-11-23 09:45:17","orig_title":"Родком","year":"2020-11-23","translations":["Оригинальная дорожка"],"seasons_count":1,"episodes_count":21,"episodes":21,"update":"2020-12-24 18:14:23","iframe_src":"//7720.svetacdn.in/IAF0wWTdNYZm/tv-series/9363"},{"id":9202,"title":"Псих","kp_id":"1311065","imdb_id":null,"world_art_id":null,"type":"serial","add":"2020-11-05 09:47:38","orig_title":"Псих","year":"2020-11-05","translations":["Оригинальная дорожка"],"seasons_count":1,"episodes_count":8,"episodes":8,"update":"2020-12-24 18:12:41","iframe_src":"//7720.svetacdn.in/IAF0wWTdNYZm/tv-series/9202"},{"id":5563,"title":"Просто Мария","kp_id":"103522","imdb_id":"tt0211866","world_art_id":null,"type":"serial","add":"2019-10-28 22:18:17","orig_title":"Simplemente María","year":"1989-10-16","translations":["Профессиональный (многоголосый закадровый)"],"seasons_count":1,"episodes_count":155,"episodes":155,"update":"2020-12-24 21:45:03","iframe_src":"//7720.svetacdn.in/IAF0wWTdNYZm/tv-series/5563"},{"id":3894,"title":"Шведанутая семейка","kp_id":null,"imdb_id":"tt5372890","world_art_id":null,"type":"serial","add":"2019-01-16 16:32:22","orig_title":"Bonusfamiljen","year":"2017-01-30","translations":["Профессиональный (двухголосый закадровый) (ViruseProject)"],"seasons_count":3,"episodes_count":30,"episodes":10,"update":"2020-12-23 18:41:05","iframe_src":"//7720.svetacdn.in/IAF0wWTdNYZm/tv-series/3894"},{"id":3323,"title":"Муж на 100 дней","kp_id":"1112449","imdb_id":"tt8199972","world_art_id":null,"type":"serial","add":"2018-10-16 23:12:17","orig_title":"Baekilui nanggunnim","year":"2018-09-10","translations":["Любительский (многоголосый закадровый) (ColdFilm)","Любительский (двухголосый закадровый) (SoftBox)","Любительский (двухголосый закадровый) (KinoGolos)"],"seasons_count":1,"episodes_count":16,"episodes":16,"update":"2020-12-24 15:14:57","iframe_src":"//7720.svetacdn.in/IAF0wWTdNYZm/tv-series/3323"},{"id":2697,"title":"Осаждённые","kp_id":"909688","imdb_id":"tt4198192","world_art_id":null,"type":"serial","add":"2018-05-30 14:30:32","orig_title":"Sitiados","year":"2015-05-10","translations":["Любительский (многоголосый закадровый)","Любительский (многоголосый закадровый) (ColdFilm)","Профессиональный (двухголосый закадровый) (ViruseProject)","Любительский (одноголосый закадровый)"],"seasons_count":2,"episodes_count":16,"episodes":8,"update":"2020-12-25 13:58:44","iframe_src":"//7720.svetacdn.in/IAF0wWTdNYZm/tv-series/2697"},{"id":1224,"title":"Городской охотник","kp_id":"579473","imdb_id":"tt1982229","world_art_id":null,"type":"serial","add":"2017-04-27 13:03:16","orig_title":"Siti hyunteo","year":"2011-05-25","translations":["Профессиональный (многоголосый закадровый) (Kansai)","Любительский (двухголосый закадровый) (GREEN TEA)"],"seasons_count":1,"episodes_count":20,"episodes":20,"update":"2020-12-24 15:02:11","iframe_src":"//7720.svetacdn.in/IAF0wWTdNYZm/tv-series/1224"},{"id":110,"title":"Уильям наш, Шекспир","kp_id":"922924","imdb_id":"tt4793190","world_art_id":null,"type":"serial","add":"2016-05-31 05:45:57","orig_title":"Upstart Crow","year":"2016-05-09","translations":["Профессиональный (двухголосый закадровый) (Ozz.tv)","Профессиональный (многоголосый закадровый) (Ozz.tv)","Любительский (многоголосый закадровый) (ColdFilm)","Профессиональный (многоголосый закадровый) (BaibaKo)"],"seasons_count":4,"episodes_count":20,"episodes":1,"update":"2020-12-24 22:46:45","iframe_src":"//7720.svetacdn.in/IAF0wWTdNYZm/tv-series/110"}],"current_page":126,"first_page_url":"https://videocdn.tv/api/short?limit=100&api_token=6Onb1W1alEUrBcKJZD3GoKBbWyAl2uG2&cache3126=3126&page=1","from":12501,"last_page":650,"last_page_url":"https://videocdn.tv/api/short?limit=100&api_token=6Onb1W1alEUrBcKJZD3GoKBbWyAl2uG2&cache3126=3126&page=650","next_page_url":"https://videocdn.tv/api/short?limit=100&api_token=6Onb1W1alEUrBcKJZD3GoKBbWyAl2uG2&cache3126=3126&page=127","path":"https://videocdn.tv/api/short","per_page":100,"prev_page_url":"https://videocdn.tv/api/short?limit=100&api_token=6Onb1W1alEUrBcKJZD3GoKBbWyAl2uG2&cache3126=3126&page=125","to":12540,"total":64984}