{"result":true,"data":[{"id":48813,"title":"Ужас на съёмках моего фильма","kp_id":"1149687","imdb_id":"tt8228270","world_art_id":null,"type":"movie","add":"2021-03-16 18:54:41","orig_title":"The Horror of Making My Film","year":"2019-05-21","translations":["Любительский (многоголосый закадровый) (Синема УС)"],"quality":"webdl","translation":"Любительский (многоголосый закадровый) (Синема УС)","update":"2021-03-16 21:55:11","iframe_src":"//83.svetacdn.in/PfJ50H0ZBPg3/movie/48813"},{"id":48811,"title":"Наследница","kp_id":"1141559","imdb_id":"tt8398928","world_art_id":null,"type":"movie","add":"2021-03-16 18:51:50","orig_title":"The Heiress","year":"2021-03-15","translations":["Любительский (многоголосый закадровый) (Синема УС)"],"quality":"webdl","translation":"Любительский (многоголосый закадровый) (Синема УС)","update":"2021-03-16 21:55:39","iframe_src":"//83.svetacdn.in/PfJ50H0ZBPg3/movie/48811"},{"id":48809,"title":"Атака на госпиталь ветеранов","kp_id":"1366345","imdb_id":"tt12064810","world_art_id":null,"type":"movie","add":"2021-03-16 17:05:18","orig_title":"Assault on VA-33","year":"2021-03-15","translations":["Любительский (многоголосый закадровый) (AlphaProject)"],"quality":"webdl","translation":"Любительский (многоголосый закадровый) (AlphaProject)","update":"2021-03-16 20:14:11","iframe_src":"//83.svetacdn.in/PfJ50H0ZBPg3/movie/48809"},{"id":48808,"title":"Только серьезные отношения","kp_id":"2044847","imdb_id":null,"world_art_id":null,"type":"movie","add":"2021-03-16 17:03:19","orig_title":"Только серьезные отношения","year":"2021-03-11","translations":["Оригинальная дорожка"],"quality":"ts","translation":"Оригинальная дорожка","update":"2021-03-16 19:00:54","iframe_src":"//83.svetacdn.in/PfJ50H0ZBPg3/movie/48808"},{"id":48807,"title":"60 секунд до смерти 3","kp_id":"971234","imdb_id":"tt5576912","world_art_id":null,"type":"movie","add":"2021-03-16 17:02:04","orig_title":"60 Seconds to Di3","year":"2017-06-29","translations":["Любительский (многоголосый закадровый) (Синема УС)"],"quality":"webdl","translation":"Любительский (многоголосый закадровый) (Синема УС)","update":"2021-03-16 21:57:31","iframe_src":"//83.svetacdn.in/PfJ50H0ZBPg3/movie/48807"},{"id":48806,"title":"Собака-герой: путешествие домой","kp_id":"1309476","imdb_id":"tt11045566","world_art_id":null,"type":"movie","add":"2021-03-16 16:58:58","orig_title":"Hero Dog: The Journey Home","year":"2021-01-30","translations":["Любительский (многоголосый закадровый) (Синема УС)"],"quality":"dvdrip","translation":"Любительский (многоголосый закадровый) (Синема УС)","update":"2021-03-16 18:57:04","iframe_src":"//83.svetacdn.in/PfJ50H0ZBPg3/movie/48806"},{"id":48802,"title":"Два монаха","kp_id":"240550","imdb_id":"tt0025062","world_art_id":null,"type":"movie","add":"2021-03-16 14:12:39","orig_title":"Dos monjes","year":"1934-11-28","translations":["Любительский (одноголосый закадровый) (liosaa)"],"quality":"bd","translation":"Любительский (одноголосый закадровый) (liosaa)","update":"2021-03-17 07:38:24","iframe_src":"//83.svetacdn.in/PfJ50H0ZBPg3/movie/48802"},{"id":48800,"title":"Стромболи, земля Божья","kp_id":"944","imdb_id":"tt0041931","world_art_id":null,"type":"movie","add":"2021-03-16 14:04:21","orig_title":"Stromboli (Terra di Dio)","year":"1950-02-15","translations":["Профессиональный (многоголосый закадровый)"],"quality":"bd","translation":"Профессиональный (многоголосый закадровый)","update":"2021-03-17 07:33:12","iframe_src":"//83.svetacdn.in/PfJ50H0ZBPg3/movie/48800"},{"id":48798,"title":"Этруск убивает снова","kp_id":"164867","imdb_id":"tt0068625","world_art_id":null,"type":"movie","add":"2021-03-16 07:17:58","orig_title":"L'etrusco uccide ancora","year":"1972-01-07","translations":["Любительский (одноголосый закадровый)"],"quality":"bd","translation":"Любительский (одноголосый закадровый)","update":"2021-03-17 07:41:50","iframe_src":"//83.svetacdn.in/PfJ50H0ZBPg3/movie/48798"},{"id":48794,"title":"Болото","kp_id":"49244","imdb_id":"tt0240419","world_art_id":null,"type":"movie","add":"2021-03-16 07:03:04","orig_title":"La Ciénaga","year":"2001-02-08","translations":["Авторский (одноголосый закадровый) (Кузнецов Сергей)"],"quality":"bd","translation":"Авторский (одноголосый закадровый) (Кузнецов Сергей)","update":"2021-03-17 07:42:44","iframe_src":"//83.svetacdn.in/PfJ50H0ZBPg3/movie/48794"},{"id":48791,"title":"Мой дядюшка","kp_id":"79856","imdb_id":"tt0050706","world_art_id":null,"type":"movie","add":"2021-03-16 06:39:59","orig_title":"Mon oncle","year":"1958-05-09","translations":["Профессиональный (многоголосый закадровый)"],"quality":"bd","translation":"Профессиональный (многоголосый закадровый)","update":"2021-03-17 07:45:53","iframe_src":"//83.svetacdn.in/PfJ50H0ZBPg3/movie/48791"},{"id":48786,"title":"Это всё шуры-муры","kp_id":"1375578","imdb_id":"tt11616262","world_art_id":null,"type":"movie","add":"2021-03-15 19:59:19","orig_title":"It's a Love Thang","year":"2019-01-01","translations":["Любительский (многоголосый закадровый) (Синема УС)"],"quality":"webdl","translation":"Любительский (многоголосый закадровый) (Синема УС)","update":"2021-03-16 19:03:30","iframe_src":"//83.svetacdn.in/PfJ50H0ZBPg3/movie/48786"},{"id":48785,"title":"Юная Джульетта","kp_id":"1195878","imdb_id":"tt9023744","world_art_id":null,"type":"movie","add":"2021-03-15 19:56:29","orig_title":"Jeune Juliette","year":"2019-08-09","translations":["Любительский (многоголосый закадровый) (Синема УС)"],"quality":"webdl","translation":"Любительский (многоголосый закадровый) (Синема УС)","update":"2021-03-16 19:04:05","iframe_src":"//83.svetacdn.in/PfJ50H0ZBPg3/movie/48785"},{"id":48784,"title":"Роза и тюльпан","kp_id":"1252569","imdb_id":"tt10116478","world_art_id":null,"type":"movie","add":"2021-03-15 19:54:54","orig_title":"Rose and Tulip","year":"2019-05-03","translations":["Любительский (многоголосый закадровый) (Синема УС)"],"quality":"webdl","translation":"Любительский (многоголосый закадровый) (Синема УС)","update":"2021-03-16 19:04:51","iframe_src":"//83.svetacdn.in/PfJ50H0ZBPg3/movie/48784"},{"id":48782,"title":"Красный Латекс","kp_id":"1171583","imdb_id":"tt7852780","world_art_id":null,"type":"movie","add":"2021-03-15 19:50:41","orig_title":"Látex rojo","year":"2020-12-09","translations":["Любительский (многоголосый закадровый) (AlphaProject)"],"quality":"webdl","translation":"Любительский (многоголосый закадровый) (AlphaProject)","update":"2021-03-16 19:02:19","iframe_src":"//83.svetacdn.in/PfJ50H0ZBPg3/movie/48782"},{"id":48781,"title":"Дженна Великая","kp_id":"1297708","imdb_id":"tt10873354","world_art_id":null,"type":"movie","add":"2021-03-15 19:48:47","orig_title":"Jenna The Great","year":"2019-08-14","translations":["Любительский (многоголосый закадровый) (Синема УС)"],"quality":"webdl","translation":"Любительский (многоголосый закадровый) (Синема УС)","update":"2021-03-16 19:01:32","iframe_src":"//83.svetacdn.in/PfJ50H0ZBPg3/movie/48781"},{"id":48742,"title":"Только для сумасшедших","kp_id":"42265","imdb_id":"tt0138137","world_art_id":null,"type":"movie","add":"2021-03-14 19:38:09","orig_title":"Ainult hulludele ehk halastajaõde","year":"1991-02-17","translations":["Полное дублирование (Ленфильм)"],"quality":"webdl","translation":"Полное дублирование (Ленфильм)","update":"2021-03-16 13:39:02","iframe_src":"//83.svetacdn.in/PfJ50H0ZBPg3/movie/48742"},{"id":48741,"title":"Возвращенная музыка","kp_id":"45895","imdb_id":"tt0332496","world_art_id":null,"type":"movie","add":"2021-03-14 19:35:54","orig_title":"Vozvrashchyonnaya muzyka","year":"1964-04-20","translations":["Оригинальная дорожка"],"quality":"sat","translation":"Оригинальная дорожка","update":"2021-03-16 13:40:38","iframe_src":"//83.svetacdn.in/PfJ50H0ZBPg3/movie/48741"},{"id":48740,"title":"В одном районе","kp_id":"45619","imdb_id":"tt0170746","world_art_id":null,"type":"movie","add":"2021-03-14 19:30:12","orig_title":"V odnom rayone","year":"1960-07-29","translations":["Оригинальная дорожка"],"quality":"sat","translation":"Оригинальная дорожка","update":"2021-03-16 13:41:42","iframe_src":"//83.svetacdn.in/PfJ50H0ZBPg3/movie/48740"},{"id":4902,"title":"Огни ночной пятницы","kp_id":"400030","imdb_id":"tt0758745","world_art_id":null,"type":"serial","add":"2019-07-21 15:58:29","orig_title":"Friday Night Lights","year":"2006-10-03","translations":["Профессиональный (многоголосый закадровый)","Любительский (одноголосый закадровый)"],"seasons_count":5,"episodes_count":76,"episodes":13,"update":"2019-07-22 09:56:45","iframe_src":"//83.svetacdn.in/PfJ50H0ZBPg3/tv-series/4902"},{"id":4894,"title":"Мент в законе","kp_id":"419557","imdb_id":null,"world_art_id":null,"type":"serial","add":"2019-07-19 20:17:59","orig_title":"Мент в законе","year":"2008-06-14","translations":["Оригинальная дорожка"],"seasons_count":9,"episodes_count":192,"episodes":44,"update":"2019-07-22 21:59:24","iframe_src":"//83.svetacdn.in/PfJ50H0ZBPg3/tv-series/4894"},{"id":4892,"title":"Няня","kp_id":"161259","imdb_id":"tt0106080","world_art_id":null,"type":"serial","add":"2019-07-19 07:57:50","orig_title":"The Nanny","year":"1993-11-03","translations":["Профессиональный (многоголосый закадровый)"],"seasons_count":6,"episodes_count":144,"episodes":21,"update":"2019-07-22 08:36:30","iframe_src":"//83.svetacdn.in/PfJ50H0ZBPg3/tv-series/4892"},{"id":4891,"title":"Лабиринт","kp_id":"425828","imdb_id":"tt0161161","world_art_id":null,"type":"serial","add":"2019-07-18 20:15:08","orig_title":"Labirinto","year":"1998-01-01","translations":["Профессиональный (многоголосый закадровый)"],"seasons_count":1,"episodes_count":15,"episodes":15,"update":"2019-07-19 13:44:11","iframe_src":"//83.svetacdn.in/PfJ50H0ZBPg3/tv-series/4891"},{"id":4890,"title":"Водоворот чужих желаний","kp_id":"777788","imdb_id":"tt3653382","world_art_id":null,"type":"serial","add":"2019-07-18 20:10:21","orig_title":"Vodovorot chuzhikh zhelaniy","year":"2013-11-10","translations":["Оригинальная дорожка"],"seasons_count":1,"episodes_count":4,"episodes":4,"update":"2019-07-19 12:51:57","iframe_src":"//83.svetacdn.in/PfJ50H0ZBPg3/tv-series/4890"},{"id":4889,"title":"Всё будет хорошо","kp_id":"806656","imdb_id":null,"world_art_id":null,"type":"serial","add":"2019-07-18 20:05:07","orig_title":"Всё будет хорошо","year":"2013-10-25","translations":["Оригинальная дорожка"],"seasons_count":1,"episodes_count":4,"episodes":4,"update":"2019-07-19 12:48:57","iframe_src":"//83.svetacdn.in/PfJ50H0ZBPg3/tv-series/4889"},{"id":4888,"title":"Наполеон","kp_id":"77227","imdb_id":"tt0253839","world_art_id":null,"type":"serial","add":"2019-07-18 12:23:44","orig_title":"Napoléon","year":"2002-10-07","translations":["Профессиональный (многоголосый закадровый)"],"seasons_count":1,"episodes_count":4,"episodes":4,"update":"2019-07-19 07:53:18","iframe_src":"//83.svetacdn.in/PfJ50H0ZBPg3/tv-series/4888"},{"id":4887,"title":"Аляска Кид","kp_id":"94946","imdb_id":"tt0105936","world_art_id":null,"type":"serial","add":"2019-07-18 12:12:07","orig_title":"Alaska Kid","year":"1993-12-01","translations":["Профессиональный (двухголосый закадровый)"],"seasons_count":1,"episodes_count":13,"episodes":13,"update":"2019-07-19 07:52:36","iframe_src":"//83.svetacdn.in/PfJ50H0ZBPg3/tv-series/4887"},{"id":4886,"title":"Машины песенки","kp_id":"1272438","imdb_id":null,"world_art_id":null,"type":"serial","add":"2019-07-18 12:00:54","orig_title":"Машины песенки","year":"2019-01-01","translations":["Оригинальная дорожка"],"seasons_count":1,"episodes_count":2,"episodes":2,"update":"2019-07-18 18:59:28","iframe_src":"//83.svetacdn.in/PfJ50H0ZBPg3/tv-series/4886"},{"id":4885,"title":"Толедо","kp_id":"660898","imdb_id":"tt2091188","world_art_id":null,"type":"serial","add":"2019-07-18 11:57:01","orig_title":"Toledo","year":"2012-01-10","translations":["Профессиональный (многоголосый закадровый)"],"seasons_count":1,"episodes_count":13,"episodes":13,"update":"2019-07-19 07:44:47","iframe_src":"//83.svetacdn.in/PfJ50H0ZBPg3/tv-series/4885"},{"id":4882,"title":"Три в одном 5","kp_id":"1252922","imdb_id":null,"world_art_id":null,"type":"serial","add":"2019-07-18 10:20:59","orig_title":"Три в одном 5","year":"2019-03-15","translations":["Оригинальная дорожка"],"seasons_count":1,"episodes_count":2,"episodes":2,"update":"2019-07-19 07:01:29","iframe_src":"//83.svetacdn.in/PfJ50H0ZBPg3/tv-series/4882"},{"id":4881,"title":"Три в одном 4","kp_id":"1252921","imdb_id":null,"world_art_id":null,"type":"serial","add":"2019-07-18 10:16:13","orig_title":"Три в одном 4","year":"2019-03-14","translations":["Оригинальная дорожка"],"seasons_count":1,"episodes_count":2,"episodes":2,"update":"2019-07-19 07:00:53","iframe_src":"//83.svetacdn.in/PfJ50H0ZBPg3/tv-series/4881"},{"id":4880,"title":"Три в одном 3","kp_id":"1171631","imdb_id":null,"world_art_id":null,"type":"serial","add":"2019-07-18 10:11:06","orig_title":"Три в одном 3","year":"2018-06-15","translations":["Оригинальная дорожка"],"seasons_count":1,"episodes_count":2,"episodes":2,"update":"2019-07-19 07:00:27","iframe_src":"//83.svetacdn.in/PfJ50H0ZBPg3/tv-series/4880"},{"id":4874,"title":"Грязные мокрые деньги","kp_id":"308433","imdb_id":"tt0960136","world_art_id":null,"type":"serial","add":"2019-07-17 11:28:10","orig_title":"Dirty Sexy Money","year":"2007-09-26","translations":["Полное дублирование (Первый канал | ОРТ)"],"seasons_count":2,"episodes_count":23,"episodes":13,"update":"2019-07-19 12:45:46","iframe_src":"//83.svetacdn.in/PfJ50H0ZBPg3/tv-series/4874"},{"id":4873,"title":"Амазония","kp_id":"251949","imdb_id":"tt0205737","world_art_id":null,"type":"serial","add":"2019-07-17 11:14:22","orig_title":"Amazon","year":"1999-09-25","translations":["Профессиональный (многоголосый закадровый) (ТВ3)"],"seasons_count":1,"episodes_count":22,"episodes":22,"update":"2019-07-18 09:17:13","iframe_src":"//83.svetacdn.in/PfJ50H0ZBPg3/tv-series/4873"},{"id":4869,"title":"Боевой континент","kp_id":null,"imdb_id":"tt8948436","world_art_id":null,"type":"serial","add":"2019-07-17 10:41:21","orig_title":"Douluo Dalu","year":"2018-01-20","translations":["Любительский (двухголосый закадровый)"],"seasons_count":1,"episodes_count":42,"episodes":42,"update":"2019-07-19 06:58:50","iframe_src":"//83.svetacdn.in/PfJ50H0ZBPg3/tv-series/4869"},{"id":4780,"title":"Боишься ли ты темноты?","kp_id":"258226","imdb_id":"tt0103352","world_art_id":null,"type":"serial","add":"2019-07-03 12:24:47","orig_title":"Are You Afraid of the Dark?","year":"1990-10-31","translations":["Профессиональный (многоголосый закадровый)"],"seasons_count":7,"episodes_count":75,"episodes":12,"update":"2019-07-19 12:40:59","iframe_src":"//83.svetacdn.in/PfJ50H0ZBPg3/tv-series/4780"},{"id":4607,"title":"Солдаты 15: Новый призыв","kp_id":"565744","imdb_id":null,"world_art_id":null,"type":"serial","add":"2019-05-31 14:54:08","orig_title":"Солдаты 15: Новый призыв","year":"2008-09-01","translations":["Оригинальная дорожка"],"seasons_count":1,"episodes_count":83,"episodes":83,"update":"2019-07-19 13:26:13","iframe_src":"//83.svetacdn.in/PfJ50H0ZBPg3/tv-series/4607"},{"id":4606,"title":"Солдаты 14","kp_id":"565507","imdb_id":null,"world_art_id":null,"type":"serial","add":"2019-05-31 14:48:42","orig_title":"Солдаты 14","year":"2008-01-01","translations":["Оригинальная дорожка"],"seasons_count":1,"episodes_count":64,"episodes":64,"update":"2019-07-18 12:25:05","iframe_src":"//83.svetacdn.in/PfJ50H0ZBPg3/tv-series/4606"},{"id":1095,"title":"Ми-ми-мишки","kp_id":"923524","imdb_id":"tt7037778","world_art_id":null,"type":"serial","add":"2017-03-13 06:17:09","orig_title":"Be-Be-Bears","year":"2015-03-21","translations":["Оригинальная дорожка"],"seasons_count":1,"episodes_count":143,"episodes":143,"update":"2019-07-21 15:03:30","iframe_src":"//83.svetacdn.in/PfJ50H0ZBPg3/tv-series/1095"},{"id":4053,"title":"Ван Хельсинг","kp_id":"3491","imdb_id":"tt0338526","world_art_id":null,"type":"movie","add":"2016-07-20 10:46:18","orig_title":"Van Helsing","year":"2004-05-03","translations":["Полное дублирование","Авторский (одноголосый закадровый) (Гаврилов Андрей)","Авторский (одноголосый закадровый) (Рудой Евгений)","Авторский (одноголосый закадровый) (Живов Юрий)","Полное дублирование (Мосфильм)","Полное дублирование","Original (English)","Любительский (одноголосый закадровый)","Профессиональный (двухголосый закадровый) (РенТВ)","Профессиональный (многоголосый закадровый) (FDV)","Профессиональный (двухголосый закадровый) (Tycoon)"],"quality":"bd","translation":"Полное дублирование","update":"2021-03-17 07:39:45","iframe_src":"//83.svetacdn.in/PfJ50H0ZBPg3/movie/4053"}],"current_page":392,"first_page_url":"https://videocdn.tv/api/short?limit=100&api_token=RgFQdUIR2dRmwv8iYa5SnFNgnw3vpjKj&cache3392=3392&page=1","from":39101,"last_page":667,"last_page_url":"https://videocdn.tv/api/short?limit=100&api_token=RgFQdUIR2dRmwv8iYa5SnFNgnw3vpjKj&cache3392=3392&page=667","next_page_url":"https://videocdn.tv/api/short?limit=100&api_token=RgFQdUIR2dRmwv8iYa5SnFNgnw3vpjKj&cache3392=3392&page=393","path":"https://videocdn.tv/api/short","per_page":100,"prev_page_url":"https://videocdn.tv/api/short?limit=100&api_token=RgFQdUIR2dRmwv8iYa5SnFNgnw3vpjKj&cache3392=3392&page=391","to":39140,"total":66648}