{"result":true,"data":[{"id":46694,"title":"Дневные звезды","kp_id":"44226","imdb_id":"tt0060316","world_art_id":null,"type":"movie","add":"2021-01-05 15:59:33","orig_title":"Dnevnye zvyozdy","year":"1968-02-08","translations":["Оригинальная дорожка"],"quality":"tv","translation":"Оригинальная дорожка","update":"2021-01-06 10:49:21","iframe_src":"//8422.svetacdn.in/IAF0wWTdNYZm/movie/46694"},{"id":46693,"title":"Большая руда","kp_id":"46174","imdb_id":"tt0149917","world_art_id":null,"type":"movie","add":"2021-01-05 15:56:53","orig_title":"Bolshaya ruda","year":"1964-12-14","translations":["Оригинальная дорожка"],"quality":"dvdrip","translation":"Оригинальная дорожка","update":"2021-01-06 10:43:26","iframe_src":"//8422.svetacdn.in/IAF0wWTdNYZm/movie/46693"},{"id":46686,"title":"Карусель","kp_id":"408925","imdb_id":"tt5595162","world_art_id":null,"type":"movie","add":"2021-01-04 17:12:06","orig_title":"Karusel","year":"1983-08-06","translations":["Оригинальная дорожка"],"quality":"tv","translation":"Оригинальная дорожка","update":"2021-01-06 10:42:30","iframe_src":"//8422.svetacdn.in/IAF0wWTdNYZm/movie/46686"},{"id":46685,"title":"Флаги на башнях","kp_id":"434838","imdb_id":"tt1538483","world_art_id":null,"type":"movie","add":"2021-01-04 17:08:14","orig_title":"Flagi na bashnyakh","year":"1958-07-28","translations":["Оригинальная дорожка"],"quality":"dvdrip","translation":"Оригинальная дорожка","update":"2021-01-06 10:41:36","iframe_src":"//8422.svetacdn.in/IAF0wWTdNYZm/movie/46685"},{"id":46684,"title":"Дорога к морю","kp_id":"223132","imdb_id":"tt0380321","world_art_id":null,"type":"movie","add":"2021-01-04 17:03:58","orig_title":"Doroga k moryu","year":"1965-03-17","translations":["Оригинальная дорожка"],"quality":"dvdrip","translation":"Оригинальная дорожка","update":"2021-01-06 10:40:57","iframe_src":"//8422.svetacdn.in/IAF0wWTdNYZm/movie/46684"},{"id":46683,"title":"Чудесный костюм","kp_id":"314259","imdb_id":null,"world_art_id":null,"type":"movie","add":"2021-01-04 17:01:09","orig_title":"Чудесный костюм","year":"1973-01-01","translations":["Оригинальная дорожка"],"quality":"sat","translation":"Оригинальная дорожка","update":"2021-01-06 10:39:58","iframe_src":"//8422.svetacdn.in/IAF0wWTdNYZm/movie/46683"},{"id":46682,"title":"Человек в штатском","kp_id":"45471","imdb_id":"tt0313878","world_art_id":null,"type":"movie","add":"2021-01-04 16:55:13","orig_title":"Chelovek v shtatskom","year":"1973-10-15","translations":["Оригинальная дорожка"],"quality":"sat","translation":"Оригинальная дорожка","update":"2021-01-06 10:39:07","iframe_src":"//8422.svetacdn.in/IAF0wWTdNYZm/movie/46682"},{"id":46662,"title":"На даче","kp_id":"468774","imdb_id":null,"world_art_id":null,"type":"movie","add":"2021-01-03 22:44:07","orig_title":"На даче","year":"1971-04-25","translations":["Оригинальная дорожка"],"quality":"sat","translation":"Оригинальная дорожка","update":"2021-01-06 10:38:22","iframe_src":"//8422.svetacdn.in/IAF0wWTdNYZm/movie/46662"},{"id":46661,"title":"Наша дача","kp_id":"46333","imdb_id":"tt0100227","world_art_id":null,"type":"movie","add":"2021-01-03 22:35:34","orig_title":"Nasha dacha","year":"1990-01-21","translations":["Оригинальная дорожка"],"quality":"dvdrip","translation":"Оригинальная дорожка","update":"2021-01-06 10:37:25","iframe_src":"//8422.svetacdn.in/IAF0wWTdNYZm/movie/46661"},{"id":46660,"title":"Портрет с дождем","kp_id":"43131","imdb_id":"tt0076562","world_art_id":null,"type":"movie","add":"2021-01-03 22:31:54","orig_title":"Portret s dozhdyom","year":"1978-03-06","translations":["Оригинальная дорожка"],"quality":"iptv","translation":"Оригинальная дорожка","update":"2021-01-06 10:36:18","iframe_src":"//8422.svetacdn.in/IAF0wWTdNYZm/movie/46660"},{"id":46659,"title":"Придут страсти-мордасти","kp_id":"43245","imdb_id":"tt0237607","world_art_id":null,"type":"movie","add":"2021-01-03 22:27:49","orig_title":"Pridut strasti-mordasti","year":"1981-05-31","translations":["Оригинальная дорожка"],"quality":"tv","translation":"Оригинальная дорожка","update":"2021-01-06 10:35:22","iframe_src":"//8422.svetacdn.in/IAF0wWTdNYZm/movie/46659"},{"id":46658,"title":"Путь корабля","kp_id":"397354","imdb_id":"tt0239852","world_art_id":null,"type":"movie","add":"2021-01-03 22:12:15","orig_title":"Put korablya","year":"1935-10-20","translations":["Оригинальная дорожка"],"quality":"dvdrip","translation":"Оригинальная дорожка","update":"2021-01-06 10:34:32","iframe_src":"//8422.svetacdn.in/IAF0wWTdNYZm/movie/46658"},{"id":46657,"title":"Пышка","kp_id":"43386","imdb_id":"tt0025691","world_art_id":null,"type":"movie","add":"2021-01-03 22:06:26","orig_title":"Pyshka","year":"1934-09-15","translations":["Оригинальная дорожка"],"quality":"dvdrip","translation":"Оригинальная дорожка","update":"2021-01-06 10:33:40","iframe_src":"//8422.svetacdn.in/IAF0wWTdNYZm/movie/46657"},{"id":46656,"title":"Развязка","kp_id":"42074","imdb_id":"tt0314563","world_art_id":null,"type":"movie","add":"2021-01-03 22:03:00","orig_title":"Razvyazka","year":"1969-01-26","translations":["Оригинальная дорожка"],"quality":"sat","translation":"Оригинальная дорожка","update":"2021-01-06 10:32:40","iframe_src":"//8422.svetacdn.in/IAF0wWTdNYZm/movie/46656"},{"id":46655,"title":"Сампо из Лапландии","kp_id":"470621","imdb_id":"tt5988648","world_art_id":null,"type":"movie","add":"2021-01-03 21:58:00","orig_title":"Sampo iz Laplandii","year":"1985-01-01","translations":["Оригинальная дорожка"],"quality":"dvdrip","translation":"Оригинальная дорожка","update":"2021-01-06 10:31:42","iframe_src":"//8422.svetacdn.in/IAF0wWTdNYZm/movie/46655"},{"id":46654,"title":"Случай в вулкане","kp_id":"43860","imdb_id":"tt0034201","world_art_id":null,"type":"movie","add":"2021-01-03 21:54:46","orig_title":"Sluchay v vulkane","year":"1941-03-22","translations":["Оригинальная дорожка"],"quality":"dvdrip","translation":"Оригинальная дорожка","update":"2021-01-06 10:29:43","iframe_src":"//8422.svetacdn.in/IAF0wWTdNYZm/movie/46654"},{"id":46653,"title":"Вратарь","kp_id":"655938","imdb_id":"tt13687786","world_art_id":null,"type":"movie","add":"2021-01-03 21:48:17","orig_title":"Vratar","year":"1974-01-01","translations":["Оригинальная дорожка"],"quality":"vhs","translation":"Оригинальная дорожка","update":"2021-01-06 10:27:41","iframe_src":"//8422.svetacdn.in/IAF0wWTdNYZm/movie/46653"},{"id":46652,"title":"Юлия Вревская","kp_id":"42464","imdb_id":"tt0076946","world_art_id":null,"type":"movie","add":"2021-01-03 21:45:45","orig_title":"Yuliya Vrevskaya","year":"1978-01-23","translations":["Оригинальная дорожка"],"quality":"vhs","translation":"Оригинальная дорожка","update":"2021-01-06 10:26:55","iframe_src":"//8422.svetacdn.in/IAF0wWTdNYZm/movie/46652"},{"id":46651,"title":"Золотая липа","kp_id":"632955","imdb_id":"tt9196292","world_art_id":null,"type":"movie","add":"2021-01-03 21:38:01","orig_title":"Zolotaya lipa","year":"1980-01-01","translations":["Оригинальная дорожка"],"quality":"dvdrip","translation":"Оригинальная дорожка","update":"2021-01-06 10:25:06","iframe_src":"//8422.svetacdn.in/IAF0wWTdNYZm/movie/46651"},{"id":19753,"title":"Веселые ребята","kp_id":"45757","imdb_id":"tt0025946","world_art_id":null,"type":"movie","add":"2018-10-24 10:41:24","orig_title":"Vesyolye rebyata","year":"1934-12-09","translations":["Оригинальная дорожка","Оригинальная дорожка"],"quality":"hdtv","translation":"Оригинальная дорожка","update":"2021-01-06 10:28:47","iframe_src":"//8422.svetacdn.in/IAF0wWTdNYZm/movie/19753"}],"current_page":638,"first_page_url":"https://videocdn.tv/api/short?limit=100&api_token=6Onb1W1alEUrBcKJZD3GoKBbWyAl2uG2&cache3638=3638&page=1","from":63701,"last_page":689,"last_page_url":"https://videocdn.tv/api/short?limit=100&api_token=6Onb1W1alEUrBcKJZD3GoKBbWyAl2uG2&cache3638=3638&page=689","next_page_url":"https://videocdn.tv/api/short?limit=100&api_token=6Onb1W1alEUrBcKJZD3GoKBbWyAl2uG2&cache3638=3638&page=639","path":"https://videocdn.tv/api/short","per_page":100,"prev_page_url":"https://videocdn.tv/api/short?limit=100&api_token=6Onb1W1alEUrBcKJZD3GoKBbWyAl2uG2&cache3638=3638&page=637","to":63720,"total":68803}