{"result":true,"data":[{"id":50090,"title":"В огонь и в воду","kp_id":"1443830","imdb_id":"tt14164234","world_art_id":null,"type":"movie","add":"2021-05-03 11:06:08","orig_title":"Ride or Die","year":"2021-04-15","translations":["Любительский (многоголосый закадровый) (AlphaProject)"],"quality":"webdl","translation":"Любительский (многоголосый закадровый) (AlphaProject)","update":"2021-05-03 20:49:12","iframe_src":"//5091.svetacdn.in/71tsRs29n5tZ/movie/50090"},{"id":50086,"title":"Восхождение сэра Лонгботтома","kp_id":"1221348","imdb_id":"tt9439344","world_art_id":null,"type":"movie","add":"2021-05-03 10:57:57","orig_title":"The Rise of Sir Longbottom","year":"2021-01-15","translations":["Любительский (многоголосый закадровый) (Синема УС)"],"quality":"webdl","translation":"Любительский (многоголосый закадровый) (Синема УС)","update":"2021-05-03 20:48:46","iframe_src":"//5091.svetacdn.in/71tsRs29n5tZ/movie/50086"},{"id":50085,"title":"Мексиканская луна","kp_id":"1403384","imdb_id":"tt12974634","world_art_id":null,"type":"movie","add":"2021-05-03 10:56:32","orig_title":"Mexican Moon","year":"2021-04-30","translations":["Любительский (многоголосый закадровый) (Синема УС)"],"quality":"webdl","translation":"Любительский (многоголосый закадровый) (Синема УС)","update":"2021-05-03 20:49:56","iframe_src":"//5091.svetacdn.in/71tsRs29n5tZ/movie/50085"},{"id":50084,"title":"Долой оковы","kp_id":"1295519","imdb_id":"tt10820008","world_art_id":null,"type":"movie","add":"2021-05-03 10:54:41","orig_title":"Unchained","year":"2021-03-22","translations":["Любительский (многоголосый закадровый) (AlphaProject)"],"quality":"webdl","translation":"Любительский (многоголосый закадровый) (AlphaProject)","update":"2021-05-03 18:23:45","iframe_src":"//5091.svetacdn.in/71tsRs29n5tZ/movie/50084"},{"id":50083,"title":"Немножечко воды","kp_id":"993958","imdb_id":"tt5863216","world_art_id":null,"type":"movie","add":"2021-05-03 10:53:36","orig_title":"A Little Water","year":"2019-04-21","translations":["Любительский (многоголосый закадровый) (Синема УС)"],"quality":"webdl","translation":"Любительский (многоголосый закадровый) (Синема УС)","update":"2021-05-03 20:53:52","iframe_src":"//5091.svetacdn.in/71tsRs29n5tZ/movie/50083"},{"id":50082,"title":"Асимметрия","kp_id":"1060485","imdb_id":"tt7291408","world_art_id":null,"type":"movie","add":"2021-05-03 10:52:10","orig_title":"Asimetrija","year":"2019-10-22","translations":["Любительский (многоголосый закадровый) (Синема УС)"],"quality":"webdl","translation":"Любительский (многоголосый закадровый) (Синема УС)","update":"2021-05-03 20:54:40","iframe_src":"//5091.svetacdn.in/71tsRs29n5tZ/movie/50082"},{"id":50079,"title":"Смех в раю","kp_id":"17728","imdb_id":"tt0043727","world_art_id":null,"type":"movie","add":"2021-05-03 10:29:54","orig_title":"Laughter in Paradise","year":"1951-06-01","translations":["Полное дублирование (Киностудия им. Горького)"],"quality":"hdrip","translation":"Полное дублирование (Киностудия им. Горького)","update":"2021-05-03 20:37:34","iframe_src":"//5091.svetacdn.in/71tsRs29n5tZ/movie/50079"},{"id":50078,"title":"Августин: сын слёз её","kp_id":null,"imdb_id":"tt12971100","world_art_id":null,"type":"movie","add":"2021-05-03 10:28:41","orig_title":"Augustine: Son of Her Tears","year":"2019-04-02","translations":["Любительский (многоголосый закадровый) (Синема УС)"],"quality":"webdl","translation":"Любительский (многоголосый закадровый) (Синема УС)","update":"2021-05-03 20:55:16","iframe_src":"//5091.svetacdn.in/71tsRs29n5tZ/movie/50078"},{"id":50077,"title":"Фееричные","kp_id":"866466","imdb_id":"tt3583336","world_art_id":null,"type":"movie","add":"2021-05-03 10:27:10","orig_title":"Os Espetaculares","year":"2020-09-04","translations":["Любительский (многоголосый закадровый) (AlphaProject)"],"quality":"webdl","translation":"Любительский (многоголосый закадровый) (AlphaProject)","update":"2021-05-03 20:55:36","iframe_src":"//5091.svetacdn.in/71tsRs29n5tZ/movie/50077"},{"id":50075,"title":"За дверью","kp_id":"1216833","imdb_id":"tt9350934","world_art_id":null,"type":"movie","add":"2021-05-03 10:18:25","orig_title":"The Outside Story","year":"2020-08-01","translations":["Любительский (многоголосый закадровый) (Синема УС)"],"quality":"webdl","translation":"Любительский (многоголосый закадровый) (Синема УС)","update":"2021-05-03 20:55:52","iframe_src":"//5091.svetacdn.in/71tsRs29n5tZ/movie/50075"},{"id":50069,"title":"Голубая граница","kp_id":null,"imdb_id":"tt6004360","world_art_id":null,"type":"movie","add":"2021-05-03 09:44:30","orig_title":"Blue Frontier","year":"2018-08-05","translations":["Любительский (многоголосый закадровый) (Синема УС)"],"quality":"webdl","translation":"Любительский (многоголосый закадровый) (Синема УС)","update":"2021-05-03 20:56:19","iframe_src":"//5091.svetacdn.in/71tsRs29n5tZ/movie/50069"},{"id":49097,"title":"Крупный калибр","kp_id":"32574","imdb_id":"tt0208074","world_art_id":null,"type":"movie","add":"2021-03-25 11:39:13","orig_title":"Crash and Byrnes","year":"2001-06-19","translations":["Профессиональный (двухголосый закадровый) (Екатеринбург Арт)","Original (English)"],"quality":"webdl","translation":"Профессиональный (двухголосый закадровый) (Екатеринбург Арт)","update":"2021-05-04 06:29:19","iframe_src":"//5091.svetacdn.in/71tsRs29n5tZ/movie/49097"},{"id":49087,"title":"Призраки в женской общаге","kp_id":"395932","imdb_id":"tt1110048","world_art_id":null,"type":"movie","add":"2021-03-25 05:06:05","orig_title":"The Haunting of Sorority Row","year":"2007-10-06","translations":["Любительский (одноголосый закадровый) (den904)","Original (English)"],"quality":"webdl","translation":"Любительский (одноголосый закадровый) (den904)","update":"2021-05-04 06:25:12","iframe_src":"//5091.svetacdn.in/71tsRs29n5tZ/movie/49087"},{"id":49027,"title":"Без предела","kp_id":"6221","imdb_id":"tt0119934","world_art_id":null,"type":"movie","add":"2021-03-23 14:42:49","orig_title":"Without Limits","year":"1998-09-11","translations":["Профессиональный (двухголосый закадровый)","Original (English)"],"quality":"webdl","translation":"Профессиональный (двухголосый закадровый)","update":"2021-05-04 06:22:58","iframe_src":"//5091.svetacdn.in/71tsRs29n5tZ/movie/49027"},{"id":48970,"title":"Дом, где говорят Да","kp_id":"13149","imdb_id":"tt0119324","world_art_id":null,"type":"movie","add":"2021-03-21 08:18:45","orig_title":"The House of Yes","year":"1997-09-12","translations":["Профессиональный (двухголосый закадровый) (Elrom)","Original (English)"],"quality":"webdl","translation":"Профессиональный (двухголосый закадровый) (Elrom)","update":"2021-05-04 06:23:58","iframe_src":"//5091.svetacdn.in/71tsRs29n5tZ/movie/48970"},{"id":48938,"title":"Голоса извне","kp_id":"98176","imdb_id":"tt0100881","world_art_id":null,"type":"movie","add":"2021-03-20 14:10:23","orig_title":"Voci dal profondo","year":"1994-03-01","translations":["Авторский (одноголосый закадровый) (Визгунов Сергей)","Original (English)"],"quality":"bd","translation":"Авторский (одноголосый закадровый) (Визгунов Сергей)","update":"2021-05-04 06:31:12","iframe_src":"//5091.svetacdn.in/71tsRs29n5tZ/movie/48938"},{"id":48903,"title":"В лесной чаще","kp_id":"326803","imdb_id":"tt0104497","world_art_id":null,"type":"movie","add":"2021-03-19 05:58:06","orig_title":"In the Deep Woods","year":"1992-10-26","translations":["Авторский (одноголосый закадровый) (Володарский Леонид)","Original (English)"],"quality":"webdl","translation":"Авторский (одноголосый закадровый) (Володарский Леонид)","update":"2021-05-04 06:26:14","iframe_src":"//5091.svetacdn.in/71tsRs29n5tZ/movie/48903"},{"id":48649,"title":"Человек с Планеты Икс","kp_id":"91920","imdb_id":"tt0043778","world_art_id":null,"type":"movie","add":"2021-03-11 06:59:53","orig_title":"The Man from Planet X","year":"1951-03-09","translations":["Любительский (одноголосый закадровый) (den904)","Original (English)"],"quality":"bd","translation":"Любительский (одноголосый закадровый) (den904)","update":"2021-05-04 06:32:01","iframe_src":"//5091.svetacdn.in/71tsRs29n5tZ/movie/48649"},{"id":46458,"title":"Клуб неудачниц","kp_id":"19093","imdb_id":"tt0245407","world_art_id":null,"type":"movie","add":"2020-12-28 12:10:35","orig_title":"Crush","year":"2001-08-19","translations":["Профессиональный (двухголосый закадровый)","Профессиональный (двухголосый закадровый)","Original (English)"],"quality":"dvdrip","translation":"Профессиональный (двухголосый закадровый)","update":"2021-05-04 06:28:13","iframe_src":"//5091.svetacdn.in/71tsRs29n5tZ/movie/46458"},{"id":7036,"title":"Императрица Сисси","kp_id":"494648","imdb_id":"tt1442136","world_art_id":null,"type":"serial","add":"2020-04-01 09:14:31","orig_title":"Sisi","year":"2009-12-16","translations":["Профессиональный (многоголосый закадровый)"],"seasons_count":1,"episodes_count":2,"episodes":2,"update":"2020-04-01 11:53:26","iframe_src":"//5091.svetacdn.in/71tsRs29n5tZ/tv-series/7036"},{"id":7034,"title":"Приключения реактивного поросенка","kp_id":"430601","imdb_id":null,"world_art_id":null,"type":"serial","add":"2020-03-31 14:05:18","orig_title":"Приключения реактивного поросенка","year":"2004-01-01","translations":["Оригинальная дорожка"],"seasons_count":1,"episodes_count":5,"episodes":5,"update":"2020-03-31 22:24:34","iframe_src":"//5091.svetacdn.in/71tsRs29n5tZ/tv-series/7034"},{"id":7032,"title":"Стакан воды","kp_id":"94752","imdb_id":"tt0173242","world_art_id":null,"type":"serial","add":"2020-03-30 22:21:27","orig_title":"Stakan vody","year":"1979-08-25","translations":["Оригинальная дорожка"],"seasons_count":1,"episodes_count":2,"episodes":2,"update":"2020-03-31 14:10:37","iframe_src":"//5091.svetacdn.in/71tsRs29n5tZ/tv-series/7032"},{"id":7031,"title":"Второй убойный 2","kp_id":"885346","imdb_id":"tt4455570","world_art_id":null,"type":"serial","add":"2020-03-30 17:44:46","orig_title":"Vtoroy uboynyy 2","year":"2013-01-01","translations":["Оригинальная дорожка"],"seasons_count":1,"episodes_count":16,"episodes":16,"update":"2020-03-31 15:30:20","iframe_src":"//5091.svetacdn.in/71tsRs29n5tZ/tv-series/7031"},{"id":7030,"title":"Второй убойный","kp_id":"672943","imdb_id":null,"world_art_id":null,"type":"serial","add":"2020-03-30 17:34:16","orig_title":"Второй убойный","year":"2012-01-23","translations":["Оригинальная дорожка"],"seasons_count":1,"episodes_count":16,"episodes":16,"update":"2020-03-31 14:35:22","iframe_src":"//5091.svetacdn.in/71tsRs29n5tZ/tv-series/7030"},{"id":7023,"title":"Только один взгляд","kp_id":"1209003","imdb_id":"tt6272384","world_art_id":null,"type":"serial","add":"2020-03-29 04:41:47","orig_title":"Juste un regard","year":"2017-06-02","translations":["Профессиональный (многоголосый закадровый)"],"seasons_count":1,"episodes_count":6,"episodes":6,"update":"2020-03-31 17:57:07","iframe_src":"//5091.svetacdn.in/71tsRs29n5tZ/tv-series/7023"},{"id":7021,"title":"Мистер Бин","kp_id":"161088","imdb_id":"tt0280277","world_art_id":null,"type":"serial","add":"2020-03-28 13:17:33","orig_title":"Mr. Bean: The Animated Series","year":"2002-01-01","translations":["Original (English)"],"seasons_count":4,"episodes_count":104,"episodes":52,"update":"2020-03-30 13:18:03","iframe_src":"//5091.svetacdn.in/71tsRs29n5tZ/tv-series/7021"},{"id":7019,"title":"Космические спасатели лейтенанта Марша","kp_id":"280488","imdb_id":"tt0106842","world_art_id":null,"type":"serial","add":"2020-03-28 11:49:55","orig_title":"Exosquad","year":"1993-09-18","translations":["Полное дублирование"],"seasons_count":2,"episodes_count":52,"episodes":39,"update":"2020-03-31 17:21:52","iframe_src":"//5091.svetacdn.in/71tsRs29n5tZ/tv-series/7019"},{"id":7014,"title":"Пересекая черту","kp_id":"763048","imdb_id":"tt2427220","world_art_id":null,"type":"serial","add":"2020-03-27 21:56:17","orig_title":"Crossing Lines","year":"2013-06-09","translations":["Профессиональный (многоголосый закадровый) (Sony Turbo)"],"seasons_count":3,"episodes_count":33,"episodes":11,"update":"2020-03-30 14:55:15","iframe_src":"//5091.svetacdn.in/71tsRs29n5tZ/tv-series/7014"},{"id":7010,"title":"Пеппи Длинный чулок","kp_id":"161263","imdb_id":"tt0062598","world_art_id":null,"type":"serial","add":"2020-03-27 13:14:45","orig_title":"Pippi Långstrump","year":"1969-02-08","translations":["Профессиональный (многоголосый закадровый)"],"seasons_count":1,"episodes_count":21,"episodes":21,"update":"2020-03-30 14:18:23","iframe_src":"//5091.svetacdn.in/71tsRs29n5tZ/tv-series/7010"},{"id":7008,"title":"Вернуть из мертвых","kp_id":"277914","imdb_id":"tt0364817","world_art_id":null,"type":"serial","add":"2020-03-27 12:55:04","orig_title":"Tru Calling","year":"2003-10-30","translations":["Профессиональный (многоголосый закадровый)"],"seasons_count":2,"episodes_count":26,"episodes":6,"update":"2020-03-30 14:04:07","iframe_src":"//5091.svetacdn.in/71tsRs29n5tZ/tv-series/7008"},{"id":7006,"title":"Любовь под прикрытием","kp_id":"1101284","imdb_id":null,"world_art_id":null,"type":"serial","add":"2020-03-27 11:00:51","orig_title":"Wo de ai qing bu ping fan","year":"2017-03-26","translations":["Профессиональный (многоголосый закадровый) (GreenРай Studio)","Профессиональный (многоголосый закадровый)"],"seasons_count":1,"episodes_count":31,"episodes":31,"update":"2020-03-30 17:09:27","iframe_src":"//5091.svetacdn.in/71tsRs29n5tZ/tv-series/7006"},{"id":6986,"title":"Черная метка","kp_id":"301080","imdb_id":"tt0810788","world_art_id":null,"type":"serial","add":"2020-03-25 09:23:44","orig_title":"Burn Notice","year":"2007-06-28","translations":["Профессиональный (многоголосый закадровый) (ТВ3)","Профессиональный (многоголосый закадровый) (TVShows)","Любительский (многоголосый закадровый) (FilmGate)","Любительский (одноголосый закадровый)"],"seasons_count":7,"episodes_count":111,"episodes":13,"update":"2020-03-31 14:12:37","iframe_src":"//5091.svetacdn.in/71tsRs29n5tZ/tv-series/6986"},{"id":6982,"title":"Автомастера: деньги из ржавчины","kp_id":null,"imdb_id":"tt8893550","world_art_id":null,"type":"serial","add":"2020-03-25 06:15:33","orig_title":"Car Masters: Rust to Riches","year":"2018-09-14","translations":["Любительский (многоголосый закадровый) (Octopus)"],"seasons_count":1,"episodes_count":8,"episodes":8,"update":"2020-04-01 15:29:29","iframe_src":"//5091.svetacdn.in/71tsRs29n5tZ/tv-series/6982"},{"id":6890,"title":"Служанки","kp_id":"1346748","imdb_id":"tt11755606","world_art_id":null,"type":"serial","add":"2020-03-16 08:33:21","orig_title":"Hizmetçiler","year":"2020-03-07","translations":["Любительский (двухголосый закадровый) (Анастасия Гайдаржи + Андрей Юрченко)"],"seasons_count":1,"episodes_count":3,"episodes":3,"update":"2020-03-30 15:24:44","iframe_src":"//5091.svetacdn.in/71tsRs29n5tZ/tv-series/6890"},{"id":6777,"title":"Класс: Жизнь после","kp_id":"565779","imdb_id":"tt1670474","world_art_id":null,"type":"serial","add":"2020-03-04 09:03:36","orig_title":"Klass - Elu pärast","year":"2010-11-06","translations":["Любительский (одноголосый закадровый)"],"seasons_count":1,"episodes_count":7,"episodes":7,"update":"2020-04-01 15:37:49","iframe_src":"//5091.svetacdn.in/71tsRs29n5tZ/tv-series/6777"},{"id":6243,"title":"Линкольн Райм: Охота на Собирателя костей","kp_id":"1209836","imdb_id":"tt9307990","world_art_id":null,"type":"serial","add":"2020-01-06 09:10:13","orig_title":"Lincoln Rhyme: Hunt for the Bone Collector","year":"2020-01-10","translations":["Любительский (многоголосый закадровый) (Octopus)","Профессиональный (двухголосый закадровый) (Gears Media)","Профессиональный (многоголосый закадровый) (TVShows)","Профессиональный (многоголосый закадровый) (BaibaKo)"],"seasons_count":1,"episodes_count":10,"episodes":10,"update":"2020-04-01 11:00:18","iframe_src":"//5091.svetacdn.in/71tsRs29n5tZ/tv-series/6243"},{"id":4691,"title":"Лондон убивает","kp_id":"1188779","imdb_id":"tt8571906","world_art_id":null,"type":"serial","add":"2019-06-17 19:27:16","orig_title":"London Kills","year":"2019-02-25","translations":["Профессиональный (многоголосый закадровый) (HDrezka Studio)","Любительский (многоголосый закадровый) (Octopus)"],"seasons_count":2,"episodes_count":10,"episodes":5,"update":"2020-03-30 13:59:22","iframe_src":"//5091.svetacdn.in/71tsRs29n5tZ/tv-series/4691"},{"id":4342,"title":"Охотник","kp_id":"1142166","imdb_id":"tt8118950","world_art_id":null,"type":"serial","add":"2019-04-01 04:13:44","orig_title":"Il cacciatore","year":"2018-03-14","translations":["Профессиональный (многоголосый закадровый)","Любительский (многоголосый закадровый) (ColdFilm)","Любительский (многоголосый закадровый) (Octopus)"],"seasons_count":2,"episodes_count":14,"episodes":8,"update":"2020-03-31 06:23:58","iframe_src":"//5091.svetacdn.in/71tsRs29n5tZ/tv-series/4342"},{"id":1150,"title":"Германия 83","kp_id":"885659","imdb_id":"tt4445154","world_art_id":null,"type":"serial","add":"2017-03-29 17:26:55","orig_title":"Deutschland 83","year":"2015-11-26","translations":["Профессиональный (многоголосый закадровый) (AlexFilm)","Профессиональный (многоголосый закадровый) (HDrezka Studio)"],"seasons_count":1,"episodes_count":8,"episodes":8,"update":"2020-03-30 13:46:48","iframe_src":"//5091.svetacdn.in/71tsRs29n5tZ/tv-series/1150"},{"id":6145,"title":"Школа выживания","kp_id":"261321","imdb_id":"tt0817538","world_art_id":null,"type":"movie","add":"2016-10-11 08:50:10","orig_title":"Drillbit Taylor","year":"2008-03-20","translations":["Полное дублирование","Полное дублирование (Пифагор)","Original (English)"],"quality":"bd","translation":"Полное дублирование","update":"2021-05-04 06:27:04","iframe_src":"//5091.svetacdn.in/71tsRs29n5tZ/movie/6145"}],"current_page":294,"first_page_url":"https://videocdn.tv/api/short?limit=100&api_token=EnbO9h8pv1VyjbCJhg0WM9nG259n7mtz&cache3294=3294&page=1","from":29301,"last_page":666,"last_page_url":"https://videocdn.tv/api/short?limit=100&api_token=EnbO9h8pv1VyjbCJhg0WM9nG259n7mtz&cache3294=3294&page=666","next_page_url":"https://videocdn.tv/api/short?limit=100&api_token=EnbO9h8pv1VyjbCJhg0WM9nG259n7mtz&cache3294=3294&page=295","path":"https://videocdn.tv/api/short","per_page":100,"prev_page_url":"https://videocdn.tv/api/short?limit=100&api_token=EnbO9h8pv1VyjbCJhg0WM9nG259n7mtz&cache3294=3294&page=293","to":29340,"total":66579}