{"result":true,"data":[{"id":47955,"title":"Про Лёлю и Миньку","kp_id":"1337697","imdb_id":"tt11493106","world_art_id":null,"type":"movie","add":"2021-02-15 20:08:56","orig_title":"Pro Lyolyu i Minku","year":"2020-12-17","translations":["Оригинальная дорожка"],"quality":"webdl","translation":"Оригинальная дорожка","update":"2021-02-16 06:42:59","iframe_src":"//5322.svetacdn.in/71tsRs29n5tZ/movie/47955"},{"id":47938,"title":"Современная любовь","kp_id":"807311","imdb_id":"tt3065036","world_art_id":null,"type":"movie","add":"2021-02-15 07:39:26","orig_title":"Modern Love","year":"2018-08-12","translations":["Любительский (многоголосый закадровый) (Синема УС)"],"quality":"webdl","translation":"Любительский (многоголосый закадровый) (Синема УС)","update":"2021-02-16 07:06:13","iframe_src":"//5322.svetacdn.in/71tsRs29n5tZ/movie/47938"},{"id":47936,"title":"Позитивный апокалипсис","kp_id":null,"imdb_id":"tt13935180","world_art_id":null,"type":"movie","add":"2021-02-15 07:31:45","orig_title":"Positive Apocalypse","year":"2021-02-11","translations":["Любительский (многоголосый закадровый) (AlphaProject)"],"quality":"webdl","translation":"Любительский (многоголосый закадровый) (AlphaProject)","update":"2021-02-16 07:05:18","iframe_src":"//5322.svetacdn.in/71tsRs29n5tZ/movie/47936"},{"id":47924,"title":"Сезон любви","kp_id":"1200003","imdb_id":"tt9076868","world_art_id":null,"type":"movie","add":"2021-02-14 18:55:19","orig_title":"Mùa Viêt Tình Ca","year":"2018-08-30","translations":["Любительский (многоголосый закадровый) (Синема УС)"],"quality":"webdl","translation":"Любительский (многоголосый закадровый) (Синема УС)","update":"2021-02-15 21:03:36","iframe_src":"//5322.svetacdn.in/71tsRs29n5tZ/movie/47924"},{"id":47923,"title":"Пустота","kp_id":"1345192","imdb_id":"tt10612148","world_art_id":null,"type":"movie","add":"2021-02-14 18:54:10","orig_title":"Empty Spaces","year":"2019-08-27","translations":["Любительский (многоголосый закадровый) (Синема УС)"],"quality":"webdl","translation":"Любительский (многоголосый закадровый) (Синема УС)","update":"2021-02-15 21:04:39","iframe_src":"//5322.svetacdn.in/71tsRs29n5tZ/movie/47923"},{"id":47921,"title":"Громовые стрелы","kp_id":"1209651","imdb_id":"tt9170758","world_art_id":null,"type":"movie","add":"2021-02-14 18:50:09","orig_title":"Thunderbolt in Mine Eye","year":"2020-01-24","translations":["Любительский (многоголосый закадровый) (Синема УС)"],"quality":"webdl","translation":"Любительский (многоголосый закадровый) (Синема УС)","update":"2021-02-15 21:06:00","iframe_src":"//5322.svetacdn.in/71tsRs29n5tZ/movie/47921"},{"id":47920,"title":"Медведь","kp_id":null,"imdb_id":"tt6515292","world_art_id":null,"type":"movie","add":"2021-02-14 18:47:53","orig_title":"Bear","year":"2019-01-01","translations":["Любительский (многоголосый закадровый) (Синема УС)"],"quality":"webdl","translation":"Любительский (многоголосый закадровый) (Синема УС)","update":"2021-02-15 21:06:44","iframe_src":"//5322.svetacdn.in/71tsRs29n5tZ/movie/47920"},{"id":47919,"title":"Закрытая палата","kp_id":"1272478","imdb_id":null,"world_art_id":null,"type":"movie","add":"2021-02-14 18:45:33","orig_title":"Pyeoswaebyeongdong","year":"2019-12-13","translations":["Любительский (двухголосый закадровый) (Колобок)"],"quality":"webdl","translation":"Любительский (двухголосый закадровый) (Колобок)","update":"2021-02-15 21:07:39","iframe_src":"//5322.svetacdn.in/71tsRs29n5tZ/movie/47919"},{"id":47918,"title":"К югу от рая: эпизод третий. Долгий путь домой","kp_id":"883424","imdb_id":"tt3665474","world_art_id":null,"type":"movie","add":"2021-02-14 18:42:41","orig_title":"South of Heaven: Episode 3 - The Long Walk Home","year":"2019-01-01","translations":["Любительский (многоголосый закадровый) (Синема УС)"],"quality":"webdl","translation":"Любительский (многоголосый закадровый) (Синема УС)","update":"2021-02-15 21:08:54","iframe_src":"//5322.svetacdn.in/71tsRs29n5tZ/movie/47918"},{"id":47916,"title":"Ковбои","kp_id":"1354424","imdb_id":"tt6187134","world_art_id":null,"type":"movie","add":"2021-02-14 18:38:27","orig_title":"Cowboys","year":"2020-04-15","translations":["Любительский (многоголосый закадровый) (@MUZOBOZ@)"],"quality":"webdl","translation":"Любительский (многоголосый закадровый) (@MUZOBOZ@)","update":"2021-02-15 21:09:32","iframe_src":"//5322.svetacdn.in/71tsRs29n5tZ/movie/47916"},{"id":47915,"title":"Родео","kp_id":"1256846","imdb_id":"tt10134386","world_art_id":null,"type":"movie","add":"2021-02-14 18:37:01","orig_title":"A Rodeo Film","year":"2019-04-18","translations":["Любительский (многоголосый закадровый) (Синема УС)"],"quality":"webdl","translation":"Любительский (многоголосый закадровый) (Синема УС)","update":"2021-02-15 21:09:57","iframe_src":"//5322.svetacdn.in/71tsRs29n5tZ/movie/47915"},{"id":47893,"title":"Не божества","kp_id":null,"imdb_id":"tt5896650","world_art_id":null,"type":"movie","add":"2021-02-12 21:20:39","orig_title":"Not As a Divine One","year":"2019-04-01","translations":["Любительский (многоголосый закадровый) (Синема УС)"],"quality":"webdl","translation":"Любительский (многоголосый закадровый) (Синема УС)","update":"2021-02-16 07:06:58","iframe_src":"//5322.svetacdn.in/71tsRs29n5tZ/movie/47893"},{"id":47876,"title":"Всем парням: С любовью...","kp_id":"1288319","imdb_id":"tt10676012","world_art_id":null,"type":"movie","add":"2021-02-12 09:41:16","orig_title":"To All the Boys: Always and Forever","year":"2021-02-12","translations":["Полное дублирование (Netflix)","Original (English)"],"quality":"webdl","translation":"Полное дублирование (Netflix)","update":"2021-02-16 08:16:47","iframe_src":"//5322.svetacdn.in/71tsRs29n5tZ/movie/47876"},{"id":7135,"title":"Война за мечту","kp_id":"1189867","imdb_id":"tt6489202","world_art_id":null,"type":"serial","add":"2020-04-08 10:56:59","orig_title":"Clash of Futures","year":"2018-09-11","translations":["Любительский (многоголосый закадровый) (GreenРай Studio)"],"seasons_count":1,"episodes_count":8,"episodes":8,"update":"2020-04-08 18:13:40","iframe_src":"//5322.svetacdn.in/71tsRs29n5tZ/tv-series/7135"},{"id":7134,"title":"Гори в аду шоу","kp_id":"499941","imdb_id":"tt1556078","world_art_id":null,"type":"serial","add":"2020-04-08 10:51:46","orig_title":"Funny or Die Presents...","year":"2010-02-19","translations":["Профессиональный (многоголосый закадровый) (Кравец)"],"seasons_count":2,"episodes_count":22,"episodes":10,"update":"2020-04-08 17:37:24","iframe_src":"//5322.svetacdn.in/71tsRs29n5tZ/tv-series/7134"},{"id":7129,"title":"Три сестры","kp_id":"1356111","imdb_id":"tt11981288","world_art_id":null,"type":"serial","add":"2020-04-08 07:20:26","orig_title":"Tri sestry","year":"2020-03-02","translations":["Оригинальная дорожка"],"seasons_count":1,"episodes_count":8,"episodes":8,"update":"2020-04-08 15:48:42","iframe_src":"//5322.svetacdn.in/71tsRs29n5tZ/tv-series/7129"},{"id":7121,"title":"Компаньоны","kp_id":"504724","imdb_id":"tt1600199","world_art_id":null,"type":"serial","add":"2020-04-07 12:28:41","orig_title":"Franklin & Bash","year":"2011-06-01","translations":["Профессиональный (многоголосый закадровый) (SET)"],"seasons_count":4,"episodes_count":40,"episodes":10,"update":"2020-04-08 14:34:20","iframe_src":"//5322.svetacdn.in/71tsRs29n5tZ/tv-series/7121"},{"id":7118,"title":"Изящный цветок","kp_id":"297213","imdb_id":"tt0101050","world_art_id":null,"type":"serial","add":"2020-04-07 11:31:37","orig_title":"Blossom","year":"1991-01-03","translations":["Любительский (одноголосый закадровый)"],"seasons_count":1,"episodes_count":14,"episodes":14,"update":"2020-04-08 14:03:44","iframe_src":"//5322.svetacdn.in/71tsRs29n5tZ/tv-series/7118"},{"id":7115,"title":"Величайшие сражения древности","kp_id":"472210","imdb_id":"tt1274788","world_art_id":null,"type":"serial","add":"2020-04-07 08:44:26","orig_title":"Battles BC","year":"2009-03-09","translations":["Профессиональный (многоголосый закадровый)"],"seasons_count":1,"episodes_count":8,"episodes":8,"update":"2020-04-08 15:52:00","iframe_src":"//5322.svetacdn.in/71tsRs29n5tZ/tv-series/7115"},{"id":7114,"title":"Петтсон и Финдус","kp_id":"601836","imdb_id":"tt1122790","world_art_id":null,"type":"serial","add":"2020-04-07 07:43:53","orig_title":"Pettson und Findus","year":"1999-01-01","translations":["Полное дублирование"],"seasons_count":1,"episodes_count":13,"episodes":13,"update":"2020-04-08 15:46:59","iframe_src":"//5322.svetacdn.in/71tsRs29n5tZ/tv-series/7114"},{"id":7113,"title":"Супер весёлый вечер","kp_id":"673145","imdb_id":"tt2298477","world_art_id":null,"type":"serial","add":"2020-04-07 07:35:42","orig_title":"Super Fun Night","year":"2013-10-02","translations":["Профессиональный (многоголосый закадровый) (ТНТ)"],"seasons_count":1,"episodes_count":17,"episodes":17,"update":"2020-04-08 15:09:49","iframe_src":"//5322.svetacdn.in/71tsRs29n5tZ/tv-series/7113"},{"id":7107,"title":"Новая школа императора","kp_id":"425974","imdb_id":"tt0465327","world_art_id":null,"type":"serial","add":"2020-04-06 12:38:05","orig_title":"The Emperor's New School","year":"2006-01-27","translations":["Полное дублирование"],"seasons_count":2,"episodes_count":51,"episodes":30,"update":"2020-04-08 11:08:19","iframe_src":"//5322.svetacdn.in/71tsRs29n5tZ/tv-series/7107"},{"id":7106,"title":"Миллеры в разводе","kp_id":"741597","imdb_id":"tt2737290","world_art_id":null,"type":"serial","add":"2020-04-06 12:37:20","orig_title":"The Millers","year":"2013-09-26","translations":["Профессиональный (многоголосый закадровый) (Amedia)"],"seasons_count":2,"episodes_count":34,"episodes":11,"update":"2020-04-07 21:28:34","iframe_src":"//5322.svetacdn.in/71tsRs29n5tZ/tv-series/7106"},{"id":7105,"title":"Истина в вине","kp_id":"843822","imdb_id":"tt8428510","world_art_id":null,"type":"serial","add":"2020-04-06 12:33:20","orig_title":"Istina v vine","year":"2015-05-03","translations":["Оригинальная дорожка"],"seasons_count":1,"episodes_count":4,"episodes":4,"update":"2020-04-08 13:38:58","iframe_src":"//5322.svetacdn.in/71tsRs29n5tZ/tv-series/7105"},{"id":7101,"title":"Переростки","kp_id":"414999","imdb_id":"tt1220617","world_art_id":null,"type":"serial","add":"2020-04-06 11:33:53","orig_title":"The Inbetweeners","year":"2008-05-01","translations":["Профессиональный (многоголосый закадровый) (2x2)","Любительский (двухголосый закадровый) (Gravi-TV)"],"seasons_count":3,"episodes_count":18,"episodes":6,"update":"2020-04-07 15:04:08","iframe_src":"//5322.svetacdn.in/71tsRs29n5tZ/tv-series/7101"},{"id":7094,"title":"Сумасшедшие за стеклом","kp_id":"276360","imdb_id":"tt0386180","world_art_id":null,"type":"serial","add":"2020-04-05 09:59:08","orig_title":"Drawn Together","year":"2004-10-27","translations":["Полное дублирование"],"seasons_count":3,"episodes_count":36,"episodes":14,"update":"2020-04-08 13:31:00","iframe_src":"//5322.svetacdn.in/71tsRs29n5tZ/tv-series/7094"},{"id":7090,"title":"Титаник: Кровь и сталь","kp_id":"574451","imdb_id":"tt1695366","world_art_id":null,"type":"serial","add":"2020-04-05 09:47:11","orig_title":"Titanic: Blood and Steel","year":"2012-04-22","translations":["Профессиональный (многоголосый закадровый) (BaibaKo)"],"seasons_count":1,"episodes_count":12,"episodes":12,"update":"2020-04-08 11:52:56","iframe_src":"//5322.svetacdn.in/71tsRs29n5tZ/tv-series/7090"},{"id":7048,"title":"Марго: Огненный крест","kp_id":"446128","imdb_id":null,"world_art_id":null,"type":"serial","add":"2020-04-01 13:40:07","orig_title":"Марго: Огненный крест","year":"2020-03-31","translations":["Оригинальная дорожка"],"seasons_count":1,"episodes_count":12,"episodes":12,"update":"2020-04-07 16:44:35","iframe_src":"//5322.svetacdn.in/71tsRs29n5tZ/tv-series/7048"},{"id":7012,"title":"Киллерши","kp_id":"1200818","imdb_id":"tt9041792","world_art_id":null,"type":"serial","add":"2020-03-27 15:48:12","orig_title":"Hitmen","year":"2020-03-25","translations":["Любительский (многоголосый закадровый) (ColdFilm)","Профессиональный (многоголосый закадровый) (Lucky Production)"],"seasons_count":1,"episodes_count":6,"episodes":6,"update":"2020-04-08 11:30:36","iframe_src":"//5322.svetacdn.in/71tsRs29n5tZ/tv-series/7012"},{"id":6927,"title":"Проспект обороны","kp_id":"1042518","imdb_id":null,"world_art_id":null,"type":"serial","add":"2020-03-18 15:11:15","orig_title":"Проспект обороны","year":"2020-03-18","translations":["Оригинальная дорожка"],"seasons_count":1,"episodes_count":16,"episodes":16,"update":"2020-04-08 02:26:43","iframe_src":"//5322.svetacdn.in/71tsRs29n5tZ/tv-series/6927"},{"id":6318,"title":"Ласточкино гнездо","kp_id":"591824","imdb_id":"tt3286686","world_art_id":null,"type":"serial","add":"2020-01-11 16:23:59","orig_title":"Ласточкино гнездо","year":"2012-01-09","translations":["Оригинальная дорожка"],"seasons_count":1,"episodes_count":12,"episodes":12,"update":"2020-04-08 19:34:32","iframe_src":"//5322.svetacdn.in/71tsRs29n5tZ/tv-series/6318"},{"id":4947,"title":"Правосудие","kp_id":"500600","imdb_id":"tt1489428","world_art_id":null,"type":"serial","add":"2019-07-25 20:21:36","orig_title":"Justified","year":"2010-03-16","translations":["Профессиональный (многоголосый закадровый) (Fox Crime)","Профессиональный (многоголосый закадровый) (Jaskier)"],"seasons_count":6,"episodes_count":78,"episodes":13,"update":"2020-04-08 13:56:04","iframe_src":"//5322.svetacdn.in/71tsRs29n5tZ/tv-series/4947"},{"id":4931,"title":"Железный человек: Приключения в броне","kp_id":"481521","imdb_id":"tt0837143","world_art_id":null,"type":"serial","add":"2019-07-24 07:48:44","orig_title":"Iron Man: Armored Adventures","year":"2008-11-22","translations":["Любительский (многоголосый закадровый)","Любительский (одноголосый закадровый)"],"seasons_count":2,"episodes_count":52,"episodes":26,"update":"2020-04-07 14:35:00","iframe_src":"//5322.svetacdn.in/71tsRs29n5tZ/tv-series/4931"},{"id":7846,"title":"Здесь курят","kp_id":"87477","imdb_id":"tt0427944","world_art_id":null,"type":"movie","add":"2016-12-04 08:39:08","orig_title":"Thank You for Smoking","year":"2005-09-09","translations":["Полное дублирование","Авторский (одноголосый закадровый) (Немахов Юрий)","Полное дублирование","Original (English)"],"quality":"webdl","translation":"Полное дублирование","update":"2021-02-16 07:59:11","iframe_src":"//5322.svetacdn.in/71tsRs29n5tZ/movie/7846"},{"id":3719,"title":"Далеко-далеко","kp_id":"3465","imdb_id":"tt0104231","world_art_id":null,"type":"movie","add":"2016-07-06 10:36:05","orig_title":"Far and Away","year":"1992-05-18","translations":["Профессиональный (многоголосый закадровый)","Авторский (одноголосый закадровый) (Гаврилов Андрей)","Авторский (одноголосый закадровый) (Живов Юрий)","Original (English)","Любительский (двухголосый закадровый)","Профессиональный (двухголосый закадровый) (РенТВ)","Профессиональный (двухголосый закадровый) (Премьер Видео Фильм)","Профессиональный (многоголосый закадровый) (Первый канал | ОРТ)","Профессиональный (многоголосый закадровый)"],"quality":"bd","translation":"Профессиональный (многоголосый закадровый)","update":"2021-02-16 06:56:46","iframe_src":"//5322.svetacdn.in/71tsRs29n5tZ/movie/3719"},{"id":3674,"title":"Вторжение","kp_id":"161094","imdb_id":"tt0427392","world_art_id":null,"type":"movie","add":"2016-07-05 05:52:21","orig_title":"The Invasion","year":"2007-08-17","translations":["Полное дублирование","Авторский (одноголосый закадровый) (Немахов Юрий)","Полное дублирование","Original (English)","Профессиональный (двухголосый закадровый) (Гланц + Королёва)"],"quality":"bd","translation":"Полное дублирование","update":"2021-02-16 08:10:21","iframe_src":"//5322.svetacdn.in/71tsRs29n5tZ/movie/3674"},{"id":2158,"title":"В диких условиях","kp_id":"252626","imdb_id":"tt0758758","world_art_id":null,"type":"movie","add":"2016-05-12 19:44:44","orig_title":"Into the Wild","year":"2007-09-01","translations":["Полное дублирование","Авторский (одноголосый закадровый) (Немахов Юрий)","Полное дублирование","Original (English)","Профессиональный (двухголосый закадровый) (НТВ)"],"quality":"bd","translation":"Полное дублирование","update":"2021-02-16 07:17:53","iframe_src":"//5322.svetacdn.in/71tsRs29n5tZ/movie/2158"},{"id":1873,"title":"Тёрнер и Хуч","kp_id":"4062","imdb_id":"tt0098536","world_art_id":null,"type":"movie","add":"2016-05-04 16:20:58","orig_title":"Turner & Hooch","year":"1989-07-28","translations":["Профессиональный (многоголосый закадровый)","Авторский (одноголосый закадровый) (Дохалов Вартан)","Авторский (одноголосый закадровый) (Михалёв Алексей)","Авторский (одноголосый закадровый) (Живов Юрий)","Полное дублирование (СВ-Дубль)","Original (English)","Профессиональный (многоголосый закадровый) (СТС)","Профессиональный (многоголосый закадровый) (НТВ)","Профессиональный (многоголосый закадровый) (Первый канал | ОРТ)"],"quality":"bd","translation":"Профессиональный (многоголосый закадровый)","update":"2021-02-16 08:27:17","iframe_src":"//5322.svetacdn.in/71tsRs29n5tZ/movie/1873"},{"id":1611,"title":"В погоне за счастьем","kp_id":"104938","imdb_id":"tt0454921","world_art_id":null,"type":"movie","add":"2016-04-24 11:11:31","orig_title":"The Pursuit of Happyness","year":"2006-12-15","translations":["Полное дублирование","Полное дублирование","Original (English)","Профессиональный (многоголосый закадровый)"],"quality":"bd","translation":"Полное дублирование","update":"2021-02-16 08:04:12","iframe_src":"//5322.svetacdn.in/71tsRs29n5tZ/movie/1611"},{"id":1027,"title":"Залечь на дно в Брюгге","kp_id":"276295","imdb_id":"tt0780536","world_art_id":null,"type":"movie","add":"2016-04-13 15:42:36","orig_title":"In Bruges","year":"2008-01-17","translations":["Полное дублирование","Профессиональный (двухголосый закадровый) (Кубик в Кубе)","Авторский (одноголосый закадровый) (Гаврилов Андрей)","Авторский (одноголосый закадровый) (Немахов Юрий)","Авторский (одноголосый закадровый) (Завгородний Владимир)","Полное дублирование","Профессиональный (двухголосый закадровый) (Кубик в Кубе)","Original (English)"],"quality":"bd","translation":"Полное дублирование","update":"2021-02-16 07:11:30","iframe_src":"//5322.svetacdn.in/71tsRs29n5tZ/movie/1027"}],"current_page":244,"first_page_url":"https://videocdn.tv/api/short?limit=100&api_token=EnbO9h8pv1VyjbCJhg0WM9nG259n7mtz&cache3244=3244&page=1","from":24301,"last_page":630,"last_page_url":"https://videocdn.tv/api/short?limit=100&api_token=EnbO9h8pv1VyjbCJhg0WM9nG259n7mtz&cache3244=3244&page=630","next_page_url":"https://videocdn.tv/api/short?limit=100&api_token=EnbO9h8pv1VyjbCJhg0WM9nG259n7mtz&cache3244=3244&page=245","path":"https://videocdn.tv/api/short","per_page":100,"prev_page_url":"https://videocdn.tv/api/short?limit=100&api_token=EnbO9h8pv1VyjbCJhg0WM9nG259n7mtz&cache3244=3244&page=243","to":24340,"total":62945}