{"result":true,"data":[{"id":32912,"title":"Горящий тростник","kp_id":"1077605","imdb_id":"tt7358154","world_art_id":null,"type":"movie","add":"2019-11-11 09:11:26","orig_title":"Burning Cane","year":"2019-04-25","translations":["Любительский (многоголосый закадровый) (Синема УС)"],"quality":"webdl","translation":"Любительский (многоголосый закадровый) (Синема УС)","update":"2019-11-11 12:07:17","iframe_src":"//8543.svetacdn.in/IAF0wWTdNYZm/movie/32912"},{"id":32911,"title":"Кровавый миф","kp_id":"1085582","imdb_id":"tt7158904","world_art_id":null,"type":"movie","add":"2019-11-11 09:10:28","orig_title":"Blood Myth","year":"2019-08-09","translations":["Любительский (многоголосый закадровый) (Синема УС)"],"quality":"webdl","translation":"Любительский (многоголосый закадровый) (Синема УС)","update":"2019-11-11 12:01:06","iframe_src":"//8543.svetacdn.in/IAF0wWTdNYZm/movie/32911"},{"id":32909,"title":"Поцелуй в Переулке Леденцов","kp_id":"1167389","imdb_id":"tt7635550","world_art_id":null,"type":"movie","add":"2019-11-11 09:08:13","orig_title":"A Kiss on Candy Cane Lane","year":"2019-11-05","translations":["Любительский (многоголосый закадровый) (AlphaProject)"],"quality":"webdl","translation":"Любительский (многоголосый закадровый) (AlphaProject)","update":"2019-11-11 11:53:07","iframe_src":"//8543.svetacdn.in/IAF0wWTdNYZm/movie/32909"},{"id":32907,"title":"Рождественские воспоминания","kp_id":"1284073","imdb_id":"tt10571920","world_art_id":null,"type":"movie","add":"2019-11-11 09:05:55","orig_title":"Nostalgic Christmas","year":"2019-10-31","translations":["Любительский (многоголосый закадровый) (AlphaProject)"],"quality":"hdtv","translation":"Любительский (многоголосый закадровый) (AlphaProject)","update":"2019-11-11 11:52:02","iframe_src":"//8543.svetacdn.in/IAF0wWTdNYZm/movie/32907"},{"id":32906,"title":"Мои соседи и их жирная собака","kp_id":"1215841","imdb_id":"tt9265522","world_art_id":null,"type":"movie","add":"2019-11-11 09:04:49","orig_title":"Meine Nachbarn mit dem dicken Hund","year":"2019-07-03","translations":["Любительский (многоголосый закадровый) (Синема УС)"],"quality":"hdtv","translation":"Любительский (многоголосый закадровый) (Синема УС)","update":"2019-11-11 11:50:57","iframe_src":"//8543.svetacdn.in/IAF0wWTdNYZm/movie/32906"},{"id":32903,"title":"Попробуй меня: Смертельный эскорт-сервис. Часть 3","kp_id":"1166584","imdb_id":"tt8514706","world_art_id":null,"type":"movie","add":"2019-11-11 09:01:17","orig_title":"Taste Me: Death-scort Service Part 3","year":"2018-08-25","translations":["Любительский (многоголосый закадровый) (Синема УС)"],"quality":"bd","translation":"Любительский (многоголосый закадровый) (Синема УС)","update":"2019-11-11 12:05:22","iframe_src":"//8543.svetacdn.in/IAF0wWTdNYZm/movie/32903"},{"id":32894,"title":"Бангалорские дни","kp_id":"842725","imdb_id":"tt3668162","world_art_id":null,"type":"movie","add":"2019-11-11 06:14:11","orig_title":"Bangalore Days","year":"2014-05-30","translations":["Профессиональный (многоголосый закадровый)"],"quality":"bd","translation":"Профессиональный (многоголосый закадровый)","update":"2019-11-11 10:13:41","iframe_src":"//8543.svetacdn.in/IAF0wWTdNYZm/movie/32894"},{"id":32893,"title":"Супергерой Тунпура","kp_id":"406341","imdb_id":"tt1189006","world_art_id":null,"type":"movie","add":"2019-11-11 06:08:21","orig_title":"Toonpur Ka Superrhero","year":"2010-12-24","translations":["Профессиональный (многоголосый закадровый) (Red Media)"],"quality":"dvdrip","translation":"Профессиональный (многоголосый закадровый) (Red Media)","update":"2019-11-11 06:31:22","iframe_src":"//8543.svetacdn.in/IAF0wWTdNYZm/movie/32893"},{"id":32892,"title":"Призрак на кладбище","kp_id":"1049434","imdb_id":"tt7124092","world_art_id":null,"type":"movie","add":"2019-11-10 20:11:39","orig_title":"Ghost in the Graveyard","year":"2019-06-22","translations":["Любительский (многоголосый закадровый) (AlphaProject)"],"quality":"webdl","translation":"Любительский (многоголосый закадровый) (AlphaProject)","update":"2019-11-11 05:35:59","iframe_src":"//8543.svetacdn.in/IAF0wWTdNYZm/movie/32892"},{"id":32891,"title":"Холодный Ручей","kp_id":"1052390","imdb_id":"tt6992230","world_art_id":null,"type":"movie","add":"2019-11-10 19:58:20","orig_title":"Cold Brook","year":"2018-10-15","translations":["Любительский (многоголосый закадровый) (Синема УС)"],"quality":"webdl","translation":"Любительский (многоголосый закадровый) (Синема УС)","update":"2019-11-11 05:45:02","iframe_src":"//8543.svetacdn.in/IAF0wWTdNYZm/movie/32891"},{"id":32890,"title":"Рождество с корги","kp_id":"1291745","imdb_id":"tt10771556","world_art_id":null,"type":"movie","add":"2019-11-10 19:56:39","orig_title":"A Very Corgi Christmas","year":"2019-11-05","translations":["Любительский (многоголосый закадровый) (Синема УС)"],"quality":"webdl","translation":"Любительский (многоголосый закадровый) (Синема УС)","update":"2019-11-11 05:46:18","iframe_src":"//8543.svetacdn.in/IAF0wWTdNYZm/movie/32890"},{"id":32889,"title":"Нью-Йоркская Академия современного танца","kp_id":"1079144","imdb_id":"tt6428150","world_art_id":null,"type":"movie","add":"2019-11-10 19:54:37","orig_title":"Free Dance","year":"2018-09-13","translations":["Любительский (многоголосый закадровый) (AlphaProject)"],"quality":"webdl","translation":"Любительский (многоголосый закадровый) (AlphaProject)","update":"2019-11-11 05:47:41","iframe_src":"//8543.svetacdn.in/IAF0wWTdNYZm/movie/32889"},{"id":32888,"title":"Без злого умысла","kp_id":"1056051","imdb_id":"tt7164084","world_art_id":null,"type":"movie","add":"2019-11-10 19:52:13","orig_title":"Unintended","year":"2018-10-13","translations":["Любительский (многоголосый закадровый) (Синема УС)"],"quality":"webdl","translation":"Любительский (многоголосый закадровый) (Синема УС)","update":"2019-11-11 05:48:38","iframe_src":"//8543.svetacdn.in/IAF0wWTdNYZm/movie/32888"},{"id":32854,"title":"Сорванцы из Тимпельбаха","kp_id":"278230","imdb_id":"tt0953382","world_art_id":null,"type":"movie","add":"2019-11-08 08:41:47","orig_title":"Les enfants de Timpelbach","year":"2008-12-17","translations":["Полное дублирование"],"quality":"bd","translation":"Полное дублирование","update":"2019-11-11 05:59:27","iframe_src":"//8543.svetacdn.in/IAF0wWTdNYZm/movie/32854"},{"id":32823,"title":"7 дней и ночей с Мэрилин","kp_id":"523002","imdb_id":"tt1655420","world_art_id":null,"type":"movie","add":"2019-11-07 12:08:30","orig_title":"My Week with Marilyn","year":"2011-10-09","translations":["Полное дублирование"],"quality":"bd","translation":"Полное дублирование","update":"2019-11-11 11:59:26","iframe_src":"//8543.svetacdn.in/IAF0wWTdNYZm/movie/32823"},{"id":32809,"title":"Целуй меня, идиот","kp_id":"756288","imdb_id":"tt2829458","world_art_id":null,"type":"movie","add":"2019-11-07 07:13:15","orig_title":"Kyss meg for faen i helvete","year":"2013-08-09","translations":["Любительский (двухголосый закадровый) (DeadSno & den904)"],"quality":"hdrip","translation":"Любительский (двухголосый закадровый) (DeadSno & den904)","update":"2019-11-11 06:00:46","iframe_src":"//8543.svetacdn.in/IAF0wWTdNYZm/movie/32809"},{"id":32751,"title":"Дикие дни","kp_id":"22761","imdb_id":"tt0101258","world_art_id":null,"type":"movie","add":"2019-11-05 19:54:52","orig_title":"Ah fei zing zyun","year":"1990-12-15","translations":["Профессиональный (многоголосый закадровый) (Кармен Видео)"],"quality":"bd","translation":"Профессиональный (многоголосый закадровый) (Кармен Видео)","update":"2019-11-11 05:57:30","iframe_src":"//8543.svetacdn.in/IAF0wWTdNYZm/movie/32751"},{"id":23962,"title":"Сенсор","kp_id":"1252556","imdb_id":null,"world_art_id":null,"type":"movie","add":"2019-04-06 20:08:51","orig_title":"Сенсор","year":"2019-01-01","translations":["Оригинальная дорожка"],"quality":"webdl","translation":"Оригинальная дорожка","update":"2019-11-11 05:38:00","iframe_src":"//8543.svetacdn.in/IAF0wWTdNYZm/movie/23962"},{"id":23048,"title":"Мой любимый раздолбай","kp_id":"468253","imdb_id":null,"world_art_id":null,"type":"movie","add":"2019-03-14 06:59:43","orig_title":"Мой любимый раздолбай","year":"2011-09-21","translations":["Оригинальная дорожка"],"quality":"webdl","translation":"Оригинальная дорожка","update":"2019-11-11 05:39:32","iframe_src":"//8543.svetacdn.in/IAF0wWTdNYZm/movie/23048"},{"id":15531,"title":"Знаешь ли ты...","kp_id":"252220","imdb_id":"tt0473367","world_art_id":null,"type":"movie","add":"2018-03-09 20:01:10","orig_title":"Jaane Tu... Ya Jaane Na","year":"2008-07-04","translations":["Профессиональный (многоголосый закадровый)"],"quality":"bd","translation":"Профессиональный (многоголосый закадровый)","update":"2019-11-11 05:58:43","iframe_src":"//8543.svetacdn.in/IAF0wWTdNYZm/movie/15531"}],"current_page":951,"first_page_url":"https://videocdn.tv/api/short?limit=100&api_token=6Onb1W1alEUrBcKJZD3GoKBbWyAl2uG2&cache3951=3951&page=1","from":95001,"last_page":604,"last_page_url":"https://videocdn.tv/api/short?limit=100&api_token=6Onb1W1alEUrBcKJZD3GoKBbWyAl2uG2&cache3951=3951&page=604","next_page_url":null,"path":"https://videocdn.tv/api/short","per_page":100,"prev_page_url":"https://videocdn.tv/api/short?limit=100&api_token=6Onb1W1alEUrBcKJZD3GoKBbWyAl2uG2&cache3951=3951&page=950","to":95020,"total":60344}