{"result":true,"data":[{"id":40152,"title":"Кунтиланак 2","kp_id":"1263334","imdb_id":"tt10276328","world_art_id":null,"type":"movie","add":"2020-05-06 04:37:35","orig_title":"Kuntilanak 2","year":"2019-06-04","translations":["Любительский (двухголосый закадровый) (Колобок)"],"quality":"webdl","translation":"Любительский (двухголосый закадровый) (Колобок)","update":"2020-05-06 10:36:44","iframe_src":"//8209.svetacdn.in/10IAF0wWTdNYZm/movie/40152"},{"id":40150,"title":"Человеческий зоопарк","kp_id":"1373691","imdb_id":"tt5575918","world_art_id":null,"type":"movie","add":"2020-05-06 04:19:31","orig_title":"Human Zoo","year":"2020-05-05","translations":["Любительский (многоголосый закадровый) (Синема УС)"],"quality":"webdl","translation":"Любительский (многоголосый закадровый) (Синема УС)","update":"2020-05-06 10:42:46","iframe_src":"//8209.svetacdn.in/10IAF0wWTdNYZm/movie/40150"},{"id":40144,"title":"Жениться нужно осторожно","kp_id":"1264214","imdb_id":"tt10309906","world_art_id":null,"type":"movie","add":"2020-05-06 04:09:48","orig_title":"Shubh Mangal Zyada Saavdhan","year":"2020-02-21","translations":["Любительский (многоголосый закадровый) (Синема УС)"],"quality":"webdl","translation":"Любительский (многоголосый закадровый) (Синема УС)","update":"2020-05-06 13:31:37","iframe_src":"//8209.svetacdn.in/10IAF0wWTdNYZm/movie/40144"},{"id":40143,"title":"Пришелец, детка!","kp_id":"1045958","imdb_id":"tt6329874","world_art_id":null,"type":"movie","add":"2020-05-06 04:08:21","orig_title":"Alien, Baby!","year":"2017-06-18","translations":["Любительский (многоголосый закадровый) (Синема УС)"],"quality":"webdl","translation":"Любительский (многоголосый закадровый) (Синема УС)","update":"2020-05-06 13:31:14","iframe_src":"//8209.svetacdn.in/10IAF0wWTdNYZm/movie/40143"},{"id":40138,"title":"Помни меня","kp_id":"1032510","imdb_id":"tt4999290","world_art_id":null,"type":"movie","add":"2020-05-05 21:42:05","orig_title":"Remember Me","year":"2019-08-02","translations":["Любительский (многоголосый закадровый) (AlphaProject)"],"quality":"webdl","translation":"Любительский (многоголосый закадровый) (AlphaProject)","update":"2020-05-06 11:04:46","iframe_src":"//8209.svetacdn.in/10IAF0wWTdNYZm/movie/40138"},{"id":40136,"title":"Доктор С","kp_id":"1198732","imdb_id":"tt9060114","world_art_id":null,"type":"movie","add":"2020-05-05 21:07:00","orig_title":"Doctor S","year":"2018-10-16","translations":["Любительский (многоголосый закадровый) (Синема УС)"],"quality":"webdl","translation":"Любительский (многоголосый закадровый) (Синема УС)","update":"2020-05-06 08:46:59","iframe_src":"//8209.svetacdn.in/10IAF0wWTdNYZm/movie/40136"},{"id":40135,"title":"Игра в куклы: Псы войны","kp_id":"1368541","imdb_id":"tt12158538","world_art_id":null,"type":"movie","add":"2020-05-05 21:04:23","orig_title":"Cry Havoc","year":"2020-05-05","translations":["Любительский (двухголосый закадровый)"],"quality":"webdl","translation":"Любительский (двухголосый закадровый)","update":"2020-05-06 10:36:18","iframe_src":"//8209.svetacdn.in/10IAF0wWTdNYZm/movie/40135"},{"id":40134,"title":"Идеальный муж","kp_id":"1169320","imdb_id":"tt8653640","world_art_id":null,"type":"movie","add":"2020-05-05 21:01:43","orig_title":"An Ideal Husband","year":"2018-06-05","translations":["Любительский (многоголосый закадровый) (Синема УС)"],"quality":"webdl","translation":"Любительский (многоголосый закадровый) (Синема УС)","update":"2020-05-06 08:45:25","iframe_src":"//8209.svetacdn.in/10IAF0wWTdNYZm/movie/40134"},{"id":40133,"title":"Кошки-мышки","kp_id":"1051531","imdb_id":"tt7225144","world_art_id":null,"type":"movie","add":"2020-05-05 20:50:31","orig_title":"Bearkittens","year":"2018-04-19","translations":["Любительский (многоголосый закадровый) (Синема УС)"],"quality":"webdl","translation":"Любительский (многоголосый закадровый) (Синема УС)","update":"2020-05-06 08:43:30","iframe_src":"//8209.svetacdn.in/10IAF0wWTdNYZm/movie/40133"},{"id":40132,"title":"Экзорцизм на высоте 60 000 футов","kp_id":"1105048","imdb_id":"tt7677420","world_art_id":null,"type":"movie","add":"2020-05-05 20:48:25","orig_title":"Exorcism at 60,000 Feet","year":"2019-08-09","translations":["Любительский (многоголосый закадровый) (Синема УС)"],"quality":"webdl","translation":"Любительский (многоголосый закадровый) (Синема УС)","update":"2020-05-06 08:39:17","iframe_src":"//8209.svetacdn.in/10IAF0wWTdNYZm/movie/40132"},{"id":40130,"title":"Острова","kp_id":"962537","imdb_id":"tt5304664","world_art_id":null,"type":"movie","add":"2020-05-05 20:42:17","orig_title":"The Islands","year":"2019-12-06","translations":["Любительский (многоголосый закадровый) (Синема УС)","Любительский (двухголосый закадровый)"],"quality":"webdl","translation":"Любительский (многоголосый закадровый) (Синема УС)","update":"2020-05-06 10:43:04","iframe_src":"//8209.svetacdn.in/10IAF0wWTdNYZm/movie/40130"},{"id":40113,"title":"4 мушкетера Шарло","kp_id":"60498","imdb_id":"tt0072052","world_art_id":null,"type":"movie","add":"2020-05-05 11:28:52","orig_title":"Les quatre Charlots mousquetaires","year":"1974-02-13","translations":["Полное дублирование"],"quality":"dvdrip","translation":"Полное дублирование","update":"2020-05-06 12:00:49","iframe_src":"//8209.svetacdn.in/10IAF0wWTdNYZm/movie/40113"},{"id":40098,"title":"Лига справедливости: Новый барьер","kp_id":"305926","imdb_id":"tt0902272","world_art_id":null,"type":"movie","add":"2020-05-04 21:29:07","orig_title":"Justice League: The New Frontier","year":"2008-02-26","translations":["Профессиональный (двухголосый закадровый)"],"quality":"bd","translation":"Профессиональный (двухголосый закадровый)","update":"2020-05-06 11:59:18","iframe_src":"//8209.svetacdn.in/10IAF0wWTdNYZm/movie/40098"},{"id":22625,"title":"Ну разве не романтично?","kp_id":"714878","imdb_id":"tt2452244","world_art_id":null,"type":"movie","add":"2019-03-03 08:02:00","orig_title":"Isn't It Romantic","year":"2019-02-13","translations":["Полное дублирование (Пифагор)","Любительский (двухголосый закадровый) (LakeFilms)","Original (English)","Профессиональный (многоголосый закадровый) (HDrezka Studio)"],"quality":"webdl","translation":"Полное дублирование (Пифагор)","update":"2020-05-06 11:29:27","iframe_src":"//8209.svetacdn.in/10IAF0wWTdNYZm/movie/22625"},{"id":22573,"title":"Мистериум. Журнал 64","kp_id":"1045598","imdb_id":"tt6916362","world_art_id":null,"type":"movie","add":"2019-02-26 21:38:04","orig_title":"Journal 64","year":"2018-09-29","translations":["Любительский (многоголосый закадровый) (Синема УС)","Любительский (одноголосый закадровый) (Хихикающий доктор)","Профессиональный (многоголосый закадровый) (HDrezka Studio)"],"quality":"bd","translation":"Любительский (многоголосый закадровый) (Синема УС)","update":"2020-05-06 11:31:59","iframe_src":"//8209.svetacdn.in/10IAF0wWTdNYZm/movie/22573"},{"id":21530,"title":"Молоко и мёд","kp_id":"993787","imdb_id":"tt5803438","world_art_id":null,"type":"movie","add":"2019-01-15 22:51:55","orig_title":"Milk and Honey: The Movie","year":"2018-11-02","translations":["Профессиональный (многоголосый закадровый) (HDrezka Studio)"],"quality":"webdl","translation":"Профессиональный (многоголосый закадровый) (HDrezka Studio)","update":"2020-05-06 11:30:27","iframe_src":"//8209.svetacdn.in/10IAF0wWTdNYZm/movie/21530"},{"id":16953,"title":"Лос-Анджелес в огне","kp_id":"1008739","imdb_id":"tt5843850","world_art_id":null,"type":"movie","add":"2018-05-30 09:59:58","orig_title":"Kings","year":"2017-09-13","translations":["Полное дублирование","Любительский (многоголосый закадровый) (Колобок)","Профессиональный (многоголосый закадровый) (GreenРай Studio)","Профессиональный (многоголосый закадровый) (HDrezka Studio)"],"quality":"bd","translation":"Полное дублирование","update":"2020-05-06 11:29:58","iframe_src":"//8209.svetacdn.in/10IAF0wWTdNYZm/movie/16953"},{"id":16665,"title":"Остров собак","kp_id":"939785","imdb_id":"tt5104604","world_art_id":null,"type":"movie","add":"2018-05-06 21:50:12","orig_title":"Isle of Dogs","year":"2018-02-15","translations":["Полное дублирование (iTunes)","Профессиональный (многоголосый закадровый) (HDrezka Studio)"],"quality":"bd","translation":"Полное дублирование (iTunes)","update":"2020-05-06 11:31:34","iframe_src":"//8209.svetacdn.in/10IAF0wWTdNYZm/movie/16665"},{"id":16411,"title":"Кодахром","kp_id":"835100","imdb_id":"tt1880399","world_art_id":null,"type":"movie","add":"2018-04-22 08:56:59","orig_title":"Kodachrome","year":"2017-09-08","translations":["Любительский (многоголосый закадровый) (@MUZOBOZ@)","Любительский (двухголосый закадровый) (HiWayGrope)","Профессиональный (многоголосый закадровый) (Jaskier)","Original (English)","Профессиональный (многоголосый закадровый) (HDrezka Studio)"],"quality":"webdl","translation":"Любительский (многоголосый закадровый) (@MUZOBOZ@)","update":"2020-05-06 11:33:06","iframe_src":"//8209.svetacdn.in/10IAF0wWTdNYZm/movie/16411"},{"id":14878,"title":"Все только начинается","kp_id":"980382","imdb_id":"tt5721088","world_art_id":null,"type":"movie","add":"2018-01-14 21:19:53","orig_title":"Just Getting Started","year":"2017-12-01","translations":["Полное дублирование (iTunes)","Любительский (двухголосый закадровый) (HiWayGrope)","Профессиональный (многоголосый закадровый) (HDrezka Studio)"],"quality":"bd","translation":"Полное дублирование (iTunes)","update":"2020-05-06 11:32:27","iframe_src":"//8209.svetacdn.in/10IAF0wWTdNYZm/movie/14878"}],"current_page":863,"first_page_url":"https://videocdn.tv/api/short?limit=100&api_token=6Onb1W1alEUrBcKJZD3GoKBbWyAl2uG2&cache3863=3863&page=1","from":86201,"last_page":662,"last_page_url":"https://videocdn.tv/api/short?limit=100&api_token=6Onb1W1alEUrBcKJZD3GoKBbWyAl2uG2&cache3863=3863&page=662","next_page_url":null,"path":"https://videocdn.tv/api/short","per_page":100,"prev_page_url":"https://videocdn.tv/api/short?limit=100&api_token=6Onb1W1alEUrBcKJZD3GoKBbWyAl2uG2&cache3863=3863&page=862","to":86220,"total":66160}