{"result":true,"data":[{"id":28583,"title":"В дорогу с тарантеллой","kp_id":"954975","imdb_id":"tt5256098","world_art_id":null,"type":"movie","add":"2019-07-04 05:36:09","orig_title":"Taranta on the road","year":"2017-04-23","translations":["Любительский (многоголосый закадровый) (Синема УС)"],"quality":"dvdrip","translation":"Любительский (многоголосый закадровый) (Синема УС)","update":"2019-07-04 07:39:02","iframe_src":"//5322.svetacdn.in/71tsRs29n5tZ/movie/28583"},{"id":28582,"title":"Роберт перерожденный","kp_id":"1152166","imdb_id":"tt8401820","world_art_id":null,"type":"movie","add":"2019-07-04 05:34:46","orig_title":"Robert Reborn","year":"2019-06-24","translations":["Любительский (многоголосый закадровый) (Синема УС)"],"quality":"webdl","translation":"Любительский (многоголосый закадровый) (Синема УС)","update":"2019-07-04 07:40:48","iframe_src":"//5322.svetacdn.in/71tsRs29n5tZ/movie/28582"},{"id":28581,"title":"Продлённое переживание","kp_id":"1110781","imdb_id":"tt7620608","world_art_id":null,"type":"movie","add":"2019-07-04 05:33:37","orig_title":"Prolonged Exposure","year":"2019-01-01","translations":["Любительский (многоголосый закадровый) (Синема УС)"],"quality":"webdl","translation":"Любительский (многоголосый закадровый) (Синема УС)","update":"2019-07-04 07:40:46","iframe_src":"//5322.svetacdn.in/71tsRs29n5tZ/movie/28581"},{"id":28579,"title":"В зеркале","kp_id":"1022421","imdb_id":"tt6198058","world_art_id":null,"type":"movie","add":"2019-07-04 05:30:51","orig_title":"Into the Mirror","year":"2018-08-25","translations":["Любительский (многоголосый закадровый) (Синема УС)"],"quality":"webdl","translation":"Любительский (многоголосый закадровый) (Синема УС)","update":"2019-07-04 07:42:51","iframe_src":"//5322.svetacdn.in/71tsRs29n5tZ/movie/28579"},{"id":28578,"title":"В лесу","kp_id":"1275450","imdb_id":"tt10514532","world_art_id":null,"type":"movie","add":"2019-07-04 05:28:04","orig_title":"Into the Forest","year":"2019-06-22","translations":["Любительский (многоголосый закадровый) (Синема УС)"],"quality":"webdl","translation":"Любительский (многоголосый закадровый) (Синема УС)","update":"2019-07-04 07:44:03","iframe_src":"//5322.svetacdn.in/71tsRs29n5tZ/movie/28578"},{"id":28577,"title":"Донован Рид","kp_id":null,"imdb_id":"tt5096928","world_art_id":null,"type":"movie","add":"2019-07-04 05:26:07","orig_title":"Donovan Reid","year":"2019-02-02","translations":["Любительский (многоголосый закадровый) (Синема УС)"],"quality":"webdl","translation":"Любительский (многоголосый закадровый) (Синема УС)","update":"2019-07-04 07:44:46","iframe_src":"//5322.svetacdn.in/71tsRs29n5tZ/movie/28577"},{"id":28576,"title":"Куклы","kp_id":"1219844","imdb_id":"tt9436204","world_art_id":null,"type":"movie","add":"2019-07-04 05:24:04","orig_title":"Dolls","year":"2019-07-02","translations":["Любительский (многоголосый закадровый) (Синема УС)"],"quality":"webdl","translation":"Любительский (многоголосый закадровый) (Синема УС)","update":"2019-07-04 07:45:45","iframe_src":"//5322.svetacdn.in/71tsRs29n5tZ/movie/28576"},{"id":28575,"title":"Два сына","kp_id":"1050032","imdb_id":"tt7543914","world_art_id":null,"type":"movie","add":"2019-07-04 05:21:42","orig_title":"Deux fils","year":"2018-10-09","translations":["Профессиональный (многоголосый закадровый) (AlphaProject)"],"quality":"bd","translation":"Профессиональный (многоголосый закадровый) (AlphaProject)","update":"2019-07-04 07:46:38","iframe_src":"//5322.svetacdn.in/71tsRs29n5tZ/movie/28575"},{"id":28574,"title":"Выше Лучших","kp_id":"1237838","imdb_id":"tt9759612","world_art_id":null,"type":"movie","add":"2019-07-04 05:19:02","orig_title":"Above the Best","year":"2019-07-02","translations":["Любительский (многоголосый закадровый) (Синема УС)"],"quality":"webdl","translation":"Любительский (многоголосый закадровый) (Синема УС)","update":"2019-07-04 07:49:09","iframe_src":"//5322.svetacdn.in/71tsRs29n5tZ/movie/28574"},{"id":28573,"title":"ЭМИ","kp_id":"1173480","imdb_id":"tt8712750","world_art_id":null,"type":"movie","add":"2019-07-04 05:17:08","orig_title":"AMI","year":"2019-07-02","translations":["Любительский (многоголосый закадровый) (Синема УС)"],"quality":"webdl","translation":"Любительский (многоголосый закадровый) (Синема УС)","update":"2019-07-04 07:50:17","iframe_src":"//5322.svetacdn.in/71tsRs29n5tZ/movie/28573"},{"id":28572,"title":"Драма на охоте","kp_id":"571302","imdb_id":"tt5939684","world_art_id":null,"type":"movie","add":"2019-07-03 20:57:16","orig_title":"Drama na okhote","year":"1970-01-01","translations":["Оригинальная дорожка"],"quality":"dvdrip","translation":"Оригинальная дорожка","update":"2019-07-04 07:51:44","iframe_src":"//5322.svetacdn.in/71tsRs29n5tZ/movie/28572"},{"id":28571,"title":"Остаюсь с вами","kp_id":"42818","imdb_id":"tt0237528","world_art_id":null,"type":"movie","add":"2019-07-03 20:51:03","orig_title":"Ostayus s vami","year":"1981-01-01","translations":["Оригинальная дорожка"],"quality":"dvb","translation":"Оригинальная дорожка","update":"2019-07-04 07:52:23","iframe_src":"//5322.svetacdn.in/71tsRs29n5tZ/movie/28571"},{"id":28570,"title":"Гендель и гангстеры","kp_id":"487545","imdb_id":"tt5873680","world_art_id":null,"type":"movie","add":"2019-07-03 20:42:10","orig_title":"Gendel i gangstery","year":"1967-01-01","translations":["Оригинальная дорожка"],"quality":"dvdrip","translation":"Оригинальная дорожка","update":"2019-07-04 07:53:44","iframe_src":"//5322.svetacdn.in/71tsRs29n5tZ/movie/28570"},{"id":28569,"title":"Городок Анара","kp_id":"45690","imdb_id":"tt0077860","world_art_id":null,"type":"movie","add":"2019-07-03 20:38:26","orig_title":"Qalaqi Anara","year":"1976-04-24","translations":["Оригинальная дорожка"],"quality":"sat","translation":"Оригинальная дорожка","update":"2019-07-04 07:54:49","iframe_src":"//5322.svetacdn.in/71tsRs29n5tZ/movie/28569"},{"id":28568,"title":"Хочу верить","kp_id":"431226","imdb_id":"tt5045768","world_art_id":null,"type":"movie","add":"2019-07-03 20:32:57","orig_title":"Khochu verit","year":"1965-11-29","translations":["Оригинальная дорожка"],"quality":"dvdrip","translation":"Оригинальная дорожка","update":"2019-07-04 07:55:54","iframe_src":"//5322.svetacdn.in/71tsRs29n5tZ/movie/28568"},{"id":28567,"title":"Как важно быть серьезным","kp_id":"493735","imdb_id":"tt2187374","world_art_id":null,"type":"movie","add":"2019-07-03 20:29:11","orig_title":"Kak vazhno byt seryoznym","year":"1976-01-01","translations":["Оригинальная дорожка"],"quality":"dvdrip","translation":"Оригинальная дорожка","update":"2019-07-04 08:07:49","iframe_src":"//5322.svetacdn.in/71tsRs29n5tZ/movie/28567"},{"id":28566,"title":"Месье Ленуар, который...","kp_id":"979307","imdb_id":null,"world_art_id":null,"type":"movie","add":"2019-07-03 20:00:22","orig_title":"Месье Ленуар, который...","year":"1984-05-12","translations":["Оригинальная дорожка"],"quality":"dvdrip","translation":"Оригинальная дорожка","update":"2019-07-04 08:08:37","iframe_src":"//5322.svetacdn.in/71tsRs29n5tZ/movie/28566"},{"id":28565,"title":"Мораль пани Дульской","kp_id":"467945","imdb_id":"tt6326338","world_art_id":null,"type":"movie","add":"2019-07-03 19:54:30","orig_title":"Moral pani Dulskoy","year":"1978-03-04","translations":["Оригинальная дорожка"],"quality":"dvdrip","translation":"Оригинальная дорожка","update":"2019-07-04 08:10:15","iframe_src":"//5322.svetacdn.in/71tsRs29n5tZ/movie/28565"},{"id":28552,"title":"Тысяча душ","kp_id":"455244","imdb_id":"tt6002242","world_art_id":null,"type":"movie","add":"2019-07-03 18:31:14","orig_title":"Tysyacha dush","year":"1971-01-01","translations":["Оригинальная дорожка"],"quality":"dvdrip","translation":"Оригинальная дорожка","update":"2019-07-04 07:36:50","iframe_src":"//5322.svetacdn.in/71tsRs29n5tZ/movie/28552"},{"id":17044,"title":"Свадьба Али","kp_id":"746479","imdb_id":"tt2782692","world_art_id":null,"type":"movie","add":"2018-06-05 21:30:26","orig_title":"Ali's Wedding","year":"2017-06-08","translations":["Любительский (многоголосый закадровый) (Синема УС)","Профессиональный (многоголосый закадровый) (BaibaKo)"],"quality":"dvdrip","translation":"Любительский (многоголосый закадровый) (Синема УС)","update":"2019-07-04 07:46:30","iframe_src":"//5322.svetacdn.in/71tsRs29n5tZ/movie/17044"}],"current_page":1279,"first_page_url":"https://videocdn.tv/api/short?limit=100&api_token=EnbO9h8pv1VyjbCJhg0WM9nG259n7mtz&cache31279=31279&page=1","from":127801,"last_page":622,"last_page_url":"https://videocdn.tv/api/short?limit=100&api_token=EnbO9h8pv1VyjbCJhg0WM9nG259n7mtz&cache31279=31279&page=622","next_page_url":null,"path":"https://videocdn.tv/api/short","per_page":100,"prev_page_url":"https://videocdn.tv/api/short?limit=100&api_token=EnbO9h8pv1VyjbCJhg0WM9nG259n7mtz&cache31279=31279&page=1278","to":127820,"total":62197}