{"result":true,"data":[{"id":26246,"title":"Бомжиха 2","kp_id":"501962","imdb_id":"tt3519324","world_art_id":null,"type":"movie","add":"2019-05-09 21:26:26","orig_title":"Bomzhikha 2","year":"2010-03-08","translations":["Оригинальная дорожка"],"quality":"sat","translation":"Оригинальная дорожка","update":"2019-05-10 07:03:39","iframe_src":"//83.svetacdn.in/PfJ50H0ZBPg3/movie/26246"},{"id":26245,"title":"Наши девушки","kp_id":"256138","imdb_id":"tt0495162","world_art_id":null,"type":"movie","add":"2019-05-09 21:25:13","orig_title":"Boyevoy kinosbornik 13: Nashi devushki","year":"1942-01-01","translations":["Оригинальная дорожка"],"quality":"dvdrip","translation":"Оригинальная дорожка","update":"2019-05-10 07:01:44","iframe_src":"//83.svetacdn.in/PfJ50H0ZBPg3/movie/26245"},{"id":26244,"title":"Вдали от Родины","kp_id":"45685","imdb_id":"tt0140672","world_art_id":null,"type":"movie","add":"2019-05-09 21:23:38","orig_title":"Vdali ot rodiny","year":"1960-05-09","translations":["Оригинальная дорожка"],"quality":"dvdrip","translation":"Оригинальная дорожка","update":"2019-05-10 06:58:15","iframe_src":"//83.svetacdn.in/PfJ50H0ZBPg3/movie/26244"},{"id":26243,"title":"В тылу врага","kp_id":"45644","imdb_id":"tt0329722","world_art_id":null,"type":"movie","add":"2019-05-09 21:22:28","orig_title":"V tylu vraga","year":"1941-07-14","translations":["Оригинальная дорожка"],"quality":"dvdrip","translation":"Оригинальная дорожка","update":"2019-05-10 06:56:58","iframe_src":"//83.svetacdn.in/PfJ50H0ZBPg3/movie/26243"},{"id":26242,"title":"Веселые истории","kp_id":"45755","imdb_id":"tt0331700","world_art_id":null,"type":"movie","add":"2019-05-09 21:22:07","orig_title":"Vesyolye istorii","year":"1962-05-22","translations":["Оригинальная дорожка"],"quality":"dvdrip","translation":"Оригинальная дорожка","update":"2019-05-10 06:55:35","iframe_src":"//83.svetacdn.in/PfJ50H0ZBPg3/movie/26242"},{"id":26240,"title":"Восемнадцатый год","kp_id":"45845","imdb_id":"tt0168245","world_art_id":null,"type":"movie","add":"2019-05-09 21:18:55","orig_title":"Vosemnadtsatyy god","year":"1958-04-21","translations":["Оригинальная дорожка"],"quality":"dvdrip","translation":"Оригинальная дорожка","update":"2019-05-10 06:53:37","iframe_src":"//83.svetacdn.in/PfJ50H0ZBPg3/movie/26240"},{"id":26238,"title":"Щит Минервы","kp_id":"439933","imdb_id":null,"world_art_id":null,"type":"movie","add":"2019-05-09 21:17:14","orig_title":"Щит Минервы","year":"2003-01-01","translations":["Оригинальная дорожка"],"quality":"dvdrip","translation":"Оригинальная дорожка","update":"2019-05-10 06:16:11","iframe_src":"//83.svetacdn.in/PfJ50H0ZBPg3/movie/26238"},{"id":26237,"title":"Сезон туманов","kp_id":"412715","imdb_id":"tt1225730","world_art_id":null,"type":"movie","add":"2019-05-09 21:16:03","orig_title":"Sezon tumanov","year":"2009-03-08","translations":["Оригинальная дорожка"],"quality":"sat","translation":"Оригинальная дорожка","update":"2019-05-10 06:14:32","iframe_src":"//83.svetacdn.in/PfJ50H0ZBPg3/movie/26237"},{"id":26236,"title":"Затерянный в Сибири","kp_id":"45239","imdb_id":"tt0103322","world_art_id":null,"type":"movie","add":"2019-05-09 21:15:32","orig_title":"Zateryannyy v Sibiri","year":"1991-09-08","translations":["Оригинальная дорожка"],"quality":"dvdrip","translation":"Оригинальная дорожка","update":"2019-05-10 06:10:58","iframe_src":"//83.svetacdn.in/PfJ50H0ZBPg3/movie/26236"},{"id":26235,"title":"Секретарь райкома","kp_id":"43655","imdb_id":"tt0035304","world_art_id":null,"type":"movie","add":"2019-05-09 21:14:23","orig_title":"Sekretar raykoma","year":"1942-11-30","translations":["Оригинальная дорожка"],"quality":"dvdrip","translation":"Оригинальная дорожка","update":"2019-05-10 06:08:20","iframe_src":"//83.svetacdn.in/PfJ50H0ZBPg3/movie/26235"},{"id":26234,"title":"Риск","kp_id":"42096","imdb_id":"tt0066303","world_art_id":null,"type":"movie","add":"2019-05-09 21:12:00","orig_title":"Risk","year":"1971-03-08","translations":["Оригинальная дорожка"],"quality":"dvdrip","translation":"Оригинальная дорожка","update":"2019-05-10 06:06:24","iframe_src":"//83.svetacdn.in/PfJ50H0ZBPg3/movie/26234"},{"id":26233,"title":"Всадник на золотом коне","kp_id":"260126","imdb_id":"tt1475178","world_art_id":null,"type":"movie","add":"2019-05-09 21:11:51","orig_title":"Vsadnik na zolotom kone","year":"1981-04-01","translations":["Оригинальная дорожка"],"quality":"dvdrip","translation":"Оригинальная дорожка","update":"2019-05-10 06:07:11","iframe_src":"//83.svetacdn.in/PfJ50H0ZBPg3/movie/26233"},{"id":26232,"title":"Пядь земли","kp_id":"420465","imdb_id":"tt5032498","world_art_id":null,"type":"movie","add":"2019-05-09 21:10:37","orig_title":"Pyad zemli","year":"1964-12-21","translations":["Оригинальная дорожка"],"quality":"dvdrip","translation":"Оригинальная дорожка","update":"2019-05-10 06:05:27","iframe_src":"//83.svetacdn.in/PfJ50H0ZBPg3/movie/26232"},{"id":26231,"title":"Провал операции «Большая медведица»","kp_id":"477506","imdb_id":"tt5598066","world_art_id":null,"type":"movie","add":"2019-05-09 21:09:09","orig_title":"Proval operatsii 'Bolshaya medveditsa'","year":"1983-01-01","translations":["Оригинальная дорожка"],"quality":"dvdrip","translation":"Оригинальная дорожка","update":"2019-05-10 06:04:24","iframe_src":"//83.svetacdn.in/PfJ50H0ZBPg3/movie/26231"},{"id":26230,"title":"Жди меня","kp_id":"45286","imdb_id":"tt0036558","world_art_id":null,"type":"movie","add":"2019-05-09 21:08:10","orig_title":"Zhdi menya","year":"1943-11-01","translations":["Оригинальная дорожка"],"quality":"dvdrip","translation":"Оригинальная дорожка","update":"2019-05-10 06:03:17","iframe_src":"//83.svetacdn.in/PfJ50H0ZBPg3/movie/26230"},{"id":26229,"title":"Скандальное происшествие в Брикмилле","kp_id":"160930","imdb_id":"tt0230791","world_art_id":null,"type":"movie","add":"2019-05-09 21:07:52","orig_title":"Skandalnoye proishestviye v Brikmille","year":"1981-04-25","translations":["Оригинальная дорожка"],"quality":"dvdrip","translation":"Оригинальная дорожка","update":"2019-05-10 06:02:00","iframe_src":"//83.svetacdn.in/PfJ50H0ZBPg3/movie/26229"},{"id":26228,"title":"Приходи свободным","kp_id":"220053","imdb_id":"tt0476843","world_art_id":null,"type":"movie","add":"2019-05-09 21:06:27","orig_title":"Prikhodi svobodnym","year":"1984-01-01","translations":["Оригинальная дорожка"],"quality":"dvdrip","translation":"Оригинальная дорожка","update":"2019-05-10 05:58:14","iframe_src":"//83.svetacdn.in/PfJ50H0ZBPg3/movie/26228"},{"id":26227,"title":"Пешаварский вальс","kp_id":"40886","imdb_id":"tt0110817","world_art_id":null,"type":"movie","add":"2019-05-09 21:04:56","orig_title":"Peshavarskiy vals","year":"1994-01-01","translations":["Оригинальная дорожка"],"quality":"sat","translation":"Оригинальная дорожка","update":"2019-05-10 05:55:53","iframe_src":"//83.svetacdn.in/PfJ50H0ZBPg3/movie/26227"},{"id":26226,"title":"От зарплаты до зарплаты","kp_id":"42834","imdb_id":"tt0091698","world_art_id":null,"type":"movie","add":"2019-05-09 21:03:28","orig_title":"Ot zarplaty do zarplaty","year":"1986-02-19","translations":["Оригинальная дорожка"],"quality":"sat","translation":"Оригинальная дорожка","update":"2019-05-10 05:52:50","iframe_src":"//83.svetacdn.in/PfJ50H0ZBPg3/movie/26226"},{"id":15822,"title":"Отец солдата","kp_id":"44218","imdb_id":"tt0169828","world_art_id":null,"type":"movie","add":"2018-03-25 12:10:42","orig_title":"Jariskatsis mama","year":"1965-01-11","translations":["Оригинальная дорожка","Оригинальная дорожка"],"quality":"hdtv","translation":"Оригинальная дорожка","update":"2019-05-10 05:54:19","iframe_src":"//83.svetacdn.in/PfJ50H0ZBPg3/movie/15822"}],"current_page":1486,"first_page_url":"https://videocdn.tv/api/short?limit=100&api_token=RgFQdUIR2dRmwv8iYa5SnFNgnw3vpjKj&cache31486=31486&page=1","from":148501,"last_page":642,"last_page_url":"https://videocdn.tv/api/short?limit=100&api_token=RgFQdUIR2dRmwv8iYa5SnFNgnw3vpjKj&cache31486=31486&page=642","next_page_url":null,"path":"https://videocdn.tv/api/short","per_page":100,"prev_page_url":"https://videocdn.tv/api/short?limit=100&api_token=RgFQdUIR2dRmwv8iYa5SnFNgnw3vpjKj&cache31486=31486&page=1485","to":148520,"total":64195}