{"result":true,"data":[{"id":42491,"title":"Лучшая мама","kp_id":"1010710","imdb_id":"tt6164210","world_art_id":null,"type":"movie","add":"2020-08-16 13:57:38","orig_title":"Best Mom","year":"2018-02-24","translations":["Любительский (многоголосый закадровый) (AlphaProject)"],"quality":"webdl","translation":"Любительский (многоголосый закадровый) (AlphaProject)","update":"2020-08-16 20:10:21","iframe_src":"//8543.svetacdn.in/si4jsFRrtgrT/movie/42491"},{"id":42490,"title":"Велосипедист","kp_id":"1191673","imdb_id":"tt8977122","world_art_id":null,"type":"movie","add":"2020-08-16 13:53:51","orig_title":"Bikeman","year":"2018-09-20","translations":["Любительский (многоголосый закадровый) (Синема УС)"],"quality":"webdl","translation":"Любительский (многоголосый закадровый) (Синема УС)","update":"2020-08-16 20:10:54","iframe_src":"//8543.svetacdn.in/si4jsFRrtgrT/movie/42490"},{"id":42489,"title":"Скалы на краю света","kp_id":"1171270","imdb_id":"tt7860292","world_art_id":null,"type":"movie","add":"2020-08-16 13:27:02","orig_title":"End of the World Rocks","year":"2018-01-01","translations":["Любительский (многоголосый закадровый) (Синема УС)"],"quality":"webdl","translation":"Любительский (многоголосый закадровый) (Синема УС)","update":"2020-08-16 20:10:38","iframe_src":"//8543.svetacdn.in/si4jsFRrtgrT/movie/42489"},{"id":42488,"title":"Сквозь тёмное зеркало","kp_id":"1279298","imdb_id":"tt7278052","world_art_id":null,"type":"movie","add":"2020-08-16 13:22:37","orig_title":"Through a Dark Mirror","year":"2019-01-01","translations":["Любительский (многоголосый закадровый) (Синема УС)"],"quality":"webdl","translation":"Любительский (многоголосый закадровый) (Синема УС)","update":"2020-08-16 20:07:33","iframe_src":"//8543.svetacdn.in/si4jsFRrtgrT/movie/42488"},{"id":42487,"title":"Проклятие Вальбурга","kp_id":"1299507","imdb_id":"tt10739214","world_art_id":null,"type":"movie","add":"2020-08-16 13:18:04","orig_title":"The Curse of Valburga","year":"2019-07-18","translations":["Любительский (многоголосый закадровый) (Синема УС)"],"quality":"webdl","translation":"Любительский (многоголосый закадровый) (Синема УС)","update":"2020-08-16 20:09:44","iframe_src":"//8543.svetacdn.in/si4jsFRrtgrT/movie/42487"},{"id":42486,"title":"Жаклин и Джилли","kp_id":"1236462","imdb_id":"tt9662664","world_art_id":null,"type":"movie","add":"2020-08-16 13:15:56","orig_title":"Jacqueline and Jilly","year":"2019-01-11","translations":["Любительский (многоголосый закадровый) (AlphaProject)"],"quality":"webdl","translation":"Любительский (многоголосый закадровый) (AlphaProject)","update":"2020-08-16 20:09:05","iframe_src":"//8543.svetacdn.in/si4jsFRrtgrT/movie/42486"},{"id":42485,"title":"Пи Нак","kp_id":"1247740","imdb_id":"tt8258474","world_art_id":null,"type":"movie","add":"2020-08-16 13:12:32","orig_title":"Pee Nak","year":"2019-02-21","translations":["Любительский (многоголосый закадровый) (Синема УС)"],"quality":"webdl","translation":"Любительский (многоголосый закадровый) (Синема УС)","update":"2020-08-16 20:06:16","iframe_src":"//8543.svetacdn.in/si4jsFRrtgrT/movie/42485"},{"id":42484,"title":"У кровати","kp_id":null,"imdb_id":"tt5911174","world_art_id":null,"type":"movie","add":"2020-08-16 13:06:59","orig_title":"Around the Bed","year":"2018-08-07","translations":["Любительский (многоголосый закадровый) (Синема УС)"],"quality":"webdl","translation":"Любительский (многоголосый закадровый) (Синема УС)","update":"2020-08-16 20:08:13","iframe_src":"//8543.svetacdn.in/si4jsFRrtgrT/movie/42484"},{"id":42481,"title":"Вспоминая убийство","kp_id":"1380441","imdb_id":"tt12032280","world_art_id":null,"type":"movie","add":"2020-08-16 11:27:25","orig_title":"A Murder to Remember","year":"2020-08-02","translations":["Любительский (многоголосый закадровый) (AlphaProject)"],"quality":"hdtv","translation":"Любительский (многоголосый закадровый) (AlphaProject)","update":"2020-08-16 15:26:41","iframe_src":"//8543.svetacdn.in/si4jsFRrtgrT/movie/42481"},{"id":42480,"title":"Святая","kp_id":"1300914","imdb_id":"tt10422110","world_art_id":null,"type":"movie","add":"2020-08-16 11:12:16","orig_title":"Banal","year":"2019-05-29","translations":["Любительский (двухголосый закадровый) (Колобок)"],"quality":"webdl","translation":"Любительский (двухголосый закадровый) (Колобок)","update":"2020-08-16 15:24:16","iframe_src":"//8543.svetacdn.in/si4jsFRrtgrT/movie/42480"},{"id":42479,"title":"Красный Дьявол в собственности","kp_id":"1296525","imdb_id":"tt10856586","world_art_id":null,"type":"movie","add":"2020-08-16 11:08:07","orig_title":"Diablo Rojo PTY","year":"2019-09-19","translations":["Любительский (двухголосый закадровый) (Колобок)"],"quality":"webdl","translation":"Любительский (двухголосый закадровый) (Колобок)","update":"2020-08-16 15:23:24","iframe_src":"//8543.svetacdn.in/si4jsFRrtgrT/movie/42479"},{"id":42478,"title":"Золотой мальчик","kp_id":"941961","imdb_id":"tt5152882","world_art_id":null,"type":"movie","add":"2020-08-16 11:04:53","orig_title":"Golden Boy","year":"2019-09-17","translations":["Любительский (многоголосый закадровый) (Синема УС)"],"quality":"webdl","translation":"Любительский (многоголосый закадровый) (Синема УС)","update":"2020-08-16 15:22:15","iframe_src":"//8543.svetacdn.in/si4jsFRrtgrT/movie/42478"},{"id":42477,"title":"Убийственный план","kp_id":"1309459","imdb_id":"tt11058006","world_art_id":null,"type":"movie","add":"2020-08-16 11:01:22","orig_title":"A Daughter's Plan To Kill","year":"2019-11-15","translations":["Любительский (многоголосый закадровый) (Синема УС)"],"quality":"webdl","translation":"Любительский (многоголосый закадровый) (Синема УС)","update":"2020-08-16 15:26:01","iframe_src":"//8543.svetacdn.in/si4jsFRrtgrT/movie/42477"},{"id":42476,"title":"Крушение искусственного интеллекта","kp_id":"1282489","imdb_id":"tt10579380","world_art_id":null,"type":"movie","add":"2020-08-16 10:58:18","orig_title":"AI Houkai","year":"2020-01-31","translations":["Любительский (двухголосый закадровый) (Колобок)"],"quality":"bd","translation":"Любительский (двухголосый закадровый) (Колобок)","update":"2020-08-16 15:21:26","iframe_src":"//8543.svetacdn.in/si4jsFRrtgrT/movie/42476"},{"id":42474,"title":"Отрыв","kp_id":"1337621","imdb_id":"tt11394332","world_art_id":null,"type":"movie","add":"2020-08-16 10:50:15","orig_title":"Spree","year":"2020-01-24","translations":["Любительский (многоголосый закадровый) (Синема УС)"],"quality":"webdl","translation":"Любительский (многоголосый закадровый) (Синема УС)","update":"2020-08-16 15:19:20","iframe_src":"//8543.svetacdn.in/si4jsFRrtgrT/movie/42474"},{"id":42473,"title":"Слишком холодно, чтобы плавать","kp_id":"918301","imdb_id":"tt4778486","world_art_id":null,"type":"movie","add":"2020-08-16 10:47:59","orig_title":"Too Cold to Swim","year":"2018-02-20","translations":["Любительский (многоголосый закадровый) (Синема УС)"],"quality":"webdl","translation":"Любительский (многоголосый закадровый) (Синема УС)","update":"2020-08-16 15:18:24","iframe_src":"//8543.svetacdn.in/si4jsFRrtgrT/movie/42473"},{"id":42472,"title":"Скажи, что любишь меня","kp_id":"682271","imdb_id":"tt2400447","world_art_id":null,"type":"movie","add":"2020-08-16 10:35:43","orig_title":"Tell Me I Love You","year":"2020-06-02","translations":["Любительский (многоголосый закадровый) (Синема УС)"],"quality":"webdl","translation":"Любительский (многоголосый закадровый) (Синема УС)","update":"2020-08-16 15:08:51","iframe_src":"//8543.svetacdn.in/si4jsFRrtgrT/movie/42472"},{"id":42471,"title":"Любовь с первого полёта","kp_id":null,"imdb_id":"tt11864126","world_art_id":null,"type":"movie","add":"2020-08-15 23:00:21","orig_title":"Love on Harbor Island","year":"2020-08-08","translations":["Любительский (многоголосый закадровый) (Синема УС)"],"quality":"hdtv","translation":"Любительский (многоголосый закадровый) (Синема УС)","update":"2020-08-16 06:25:01","iframe_src":"//8543.svetacdn.in/si4jsFRrtgrT/movie/42471"},{"id":42470,"title":"Лётчица Гунджан Саксена","kp_id":"1264749","imdb_id":"tt10350626","world_art_id":null,"type":"movie","add":"2020-08-15 22:53:41","orig_title":"Gunjan Saxena: The Kargil Girl","year":"2020-08-12","translations":["Любительский (многоголосый закадровый) (Синема УС)"],"quality":"webdl","translation":"Любительский (многоголосый закадровый) (Синема УС)","update":"2020-08-16 06:24:22","iframe_src":"//8543.svetacdn.in/si4jsFRrtgrT/movie/42470"},{"id":35096,"title":"Водитель","kp_id":"1164352","imdb_id":"tt8550264","world_art_id":null,"type":"movie","add":"2020-01-15 21:11:23","orig_title":"Khon Kub Rod","year":"2017-06-29","translations":["Любительский (одноголосый закадровый)","Любительский (многоголосый закадровый) (Синема УС)"],"quality":"hdtv","translation":"Любительский (одноголосый закадровый)","update":"2020-08-16 15:25:04","iframe_src":"//8543.svetacdn.in/si4jsFRrtgrT/movie/35096"},{"id":3447,"title":"Поколение девчонок 1979","kp_id":"1047591","imdb_id":"tt7278498","world_art_id":null,"type":"serial","add":"2018-11-05 13:10:38","orig_title":"Lanjeri Sonyeosidae","year":"2017-09-11","translations":["Любительский (двухголосый закадровый) (SoftBox)"],"seasons_count":1,"episodes_count":8,"episodes":8,"update":"2018-11-06 09:07:30","iframe_src":"//8543.svetacdn.in/si4jsFRrtgrT/tv-series/3447"},{"id":3446,"title":"Нечаянно 18","kp_id":"1047858","imdb_id":"tt7278424","world_art_id":null,"type":"serial","add":"2018-11-05 13:06:34","orig_title":"Eojjeoda 18","year":"2017-08-28","translations":["Любительский (двухголосый закадровый) (SoftBox)"],"seasons_count":1,"episodes_count":10,"episodes":10,"update":"2018-11-06 09:17:00","iframe_src":"//8543.svetacdn.in/si4jsFRrtgrT/tv-series/3446"},{"id":3444,"title":"Люк","kp_id":"1045824","imdb_id":"tt7094904","world_art_id":null,"type":"serial","add":"2018-11-05 12:59:27","orig_title":"Maenhol","year":"2017-08-09","translations":["Любительский (двухголосый закадровый) (SoftBox)"],"seasons_count":1,"episodes_count":16,"episodes":16,"update":"2018-11-06 12:16:04","iframe_src":"//8543.svetacdn.in/si4jsFRrtgrT/tv-series/3444"},{"id":3443,"title":"Операция «Любовь»","kp_id":"686561","imdb_id":"tt3211128","world_art_id":null,"type":"serial","add":"2018-11-05 11:50:32","orig_title":"Operation Proposal","year":"2012-02-07","translations":["Любительский (двухголосый закадровый) (STEPonee)"],"seasons_count":1,"episodes_count":16,"episodes":16,"update":"2018-11-06 07:40:22","iframe_src":"//8543.svetacdn.in/si4jsFRrtgrT/tv-series/3443"},{"id":3442,"title":"Взрослые женщины","kp_id":null,"imdb_id":"tt4976536","world_art_id":null,"type":"serial","add":"2018-11-04 21:57:04","orig_title":"Otona Joshi","year":"2015-10-15","translations":["Любительский (одноголосый закадровый)"],"seasons_count":1,"episodes_count":10,"episodes":10,"update":"2018-11-05 12:15:25","iframe_src":"//8543.svetacdn.in/si4jsFRrtgrT/tv-series/3442"},{"id":3440,"title":"Безумный художник","kp_id":"1048289","imdb_id":null,"world_art_id":null,"type":"serial","add":"2018-11-03 00:39:45","orig_title":"U-Prince: The Crazy Artist","year":"2017-04-09","translations":["Любительский (двухголосый закадровый) (HighHopes)"],"seasons_count":1,"episodes_count":4,"episodes":4,"update":"2018-11-05 12:52:48","iframe_src":"//8543.svetacdn.in/si4jsFRrtgrT/tv-series/3440"},{"id":3439,"title":"Свободный режиссер","kp_id":"1047680","imdb_id":"tt6491314","world_art_id":null,"type":"serial","add":"2018-11-03 00:32:22","orig_title":"U-Prince: The Playful Comm-Arts","year":"2016-12-04","translations":["Любительский (одноголосый закадровый)"],"seasons_count":1,"episodes_count":4,"episodes":4,"update":"2018-11-05 12:33:29","iframe_src":"//8543.svetacdn.in/si4jsFRrtgrT/tv-series/3439"},{"id":3438,"title":"Экстраверт-гуманист","kp_id":"1048291","imdb_id":null,"world_art_id":null,"type":"serial","add":"2018-11-03 00:23:14","orig_title":"U-Prince: The Extroverted Humanist","year":"2017-02-12","translations":["Любительский (одноголосый закадровый)"],"seasons_count":1,"episodes_count":4,"episodes":4,"update":"2018-11-05 12:28:47","iframe_src":"//8543.svetacdn.in/si4jsFRrtgrT/tv-series/3438"},{"id":3437,"title":"Защитники снов","kp_id":"1072936","imdb_id":null,"world_art_id":null,"type":"serial","add":"2018-11-02 16:50:59","orig_title":"Dream Corps","year":"2017-11-16","translations":["Полное дублирование"],"seasons_count":1,"episodes_count":52,"episodes":52,"update":"2018-11-03 08:12:01","iframe_src":"//8543.svetacdn.in/si4jsFRrtgrT/tv-series/3437"},{"id":3432,"title":"Перезапуск любви","kp_id":"1165540","imdb_id":"tt8499118","world_art_id":null,"type":"serial","add":"2018-11-02 02:27:38","orig_title":"Rabu Riran","year":"2018-04-05","translations":["Любительский (двухголосый закадровый) (HighHopes)"],"seasons_count":1,"episodes_count":10,"episodes":10,"update":"2018-11-02 12:32:47","iframe_src":"//8543.svetacdn.in/si4jsFRrtgrT/tv-series/3432"},{"id":3431,"title":"Амбициозный босс","kp_id":"1048287","imdb_id":null,"world_art_id":null,"type":"serial","add":"2018-11-02 02:18:57","orig_title":"U-Prince: The Ambitious Boss","year":"2017-07-04","translations":["Любительский (двухголосый закадровый) (HighHopes)"],"seasons_count":1,"episodes_count":5,"episodes":5,"update":"2018-11-02 09:07:47","iframe_src":"//8543.svetacdn.in/si4jsFRrtgrT/tv-series/3431"},{"id":3428,"title":"Волшебство Хлои","kp_id":"672957","imdb_id":"tt1194725","world_art_id":null,"type":"serial","add":"2018-11-01 08:52:03","orig_title":"Chloe's Closet","year":"2009-09-01","translations":["Полное дублирование"],"seasons_count":2,"episodes_count":104,"episodes":52,"update":"2018-11-03 08:57:05","iframe_src":"//8543.svetacdn.in/si4jsFRrtgrT/tv-series/3428"},{"id":3416,"title":"В чужом краю","kp_id":"1048987","imdb_id":null,"world_art_id":null,"type":"serial","add":"2018-10-30 20:19:58","orig_title":"В чужом краю","year":"2018-10-29","translations":["Оригинальная дорожка"],"seasons_count":1,"episodes_count":13,"episodes":13,"update":"2018-11-04 07:22:19","iframe_src":"//8543.svetacdn.in/si4jsFRrtgrT/tv-series/3416"},{"id":3411,"title":"Ворона","kp_id":"1047721","imdb_id":null,"world_art_id":null,"type":"serial","add":"2018-10-29 10:51:37","orig_title":"Ворона","year":"2018-10-29","translations":["Оригинальная дорожка"],"seasons_count":1,"episodes_count":12,"episodes":12,"update":"2018-11-03 12:44:34","iframe_src":"//8543.svetacdn.in/si4jsFRrtgrT/tv-series/3411"},{"id":3175,"title":"Спасая жизни","kp_id":"1010368","imdb_id":"tt6099652","world_art_id":null,"type":"serial","add":"2018-09-17 09:08:01","orig_title":"Syrror","year":"2016-10-19","translations":["Любительский (двухголосый закадровый) (GoldTeam)"],"seasons_count":2,"episodes_count":20,"episodes":10,"update":"2018-11-03 08:07:28","iframe_src":"//8543.svetacdn.in/si4jsFRrtgrT/tv-series/3175"},{"id":3166,"title":"Восход Черной Земли","kp_id":"1108994","imdb_id":"tt7660730","world_art_id":null,"type":"serial","add":"2018-09-14 09:51:51","orig_title":"Black Earth Rising","year":"2018-09-10","translations":["Любительский (двухголосый закадровый) (Sunshine Studio)","Профессиональный (многоголосый закадровый) (NewStudio)"],"seasons_count":1,"episodes_count":8,"episodes":8,"update":"2018-11-06 06:45:24","iframe_src":"//8543.svetacdn.in/si4jsFRrtgrT/tv-series/3166"},{"id":2175,"title":"Голос","kp_id":"1008085","imdb_id":"tt6212854","world_art_id":null,"type":"serial","add":"2018-03-04 21:09:04","orig_title":"Boiseu","year":"2017-01-07","translations":["Любительский (двухголосый закадровый) (XDUB Dorama)","Любительский (двухголосый закадровый) (Храм Дорам ТВ)","Любительский (двухголосый закадровый) (JoyStudio)"],"seasons_count":2,"episodes_count":28,"episodes":12,"update":"2018-11-05 12:47:57","iframe_src":"//8543.svetacdn.in/si4jsFRrtgrT/tv-series/2175"},{"id":1740,"title":"Морозова","kp_id":"1049366","imdb_id":null,"world_art_id":null,"type":"serial","add":"2017-11-16 07:11:56","orig_title":"Морозова","year":"2017-11-13","translations":["Оригинальная дорожка"],"seasons_count":2,"episodes_count":100,"episodes":50,"update":"2018-11-03 12:43:31","iframe_src":"//8543.svetacdn.in/si4jsFRrtgrT/tv-series/1740"},{"id":1596,"title":"София Прекрасная","kp_id":"740886","imdb_id":"tt2136138","world_art_id":null,"type":"serial","add":"2017-10-04 06:34:46","orig_title":"Sofia the First","year":"2013-01-11","translations":["Полное дублирование"],"seasons_count":4,"episodes_count":106,"episodes":25,"update":"2018-11-07 08:24:37","iframe_src":"//8543.svetacdn.in/si4jsFRrtgrT/tv-series/1596"},{"id":341,"title":"Карточный домик","kp_id":"581937","imdb_id":"tt1856010","world_art_id":null,"type":"serial","add":"2016-08-17 10:22:32","orig_title":"House of Cards","year":"2013-02-01","translations":["Профессиональный (многоголосый закадровый) (Первый канал | ОРТ)","Профессиональный (многоголосый закадровый) (Amedia)"],"seasons_count":6,"episodes_count":73,"episodes":8,"update":"2018-11-05 09:51:42","iframe_src":"//8543.svetacdn.in/si4jsFRrtgrT/tv-series/341"}],"current_page":372,"first_page_url":"https://videocdn.tv/api/short?limit=100&api_token=X6EwAUfE5M9xbo7y0Bp0aPf3uXxG2KLL&cache3372=3372&page=1","from":37101,"last_page":596,"last_page_url":"https://videocdn.tv/api/short?limit=100&api_token=X6EwAUfE5M9xbo7y0Bp0aPf3uXxG2KLL&cache3372=3372&page=596","next_page_url":"https://videocdn.tv/api/short?limit=100&api_token=X6EwAUfE5M9xbo7y0Bp0aPf3uXxG2KLL&cache3372=3372&page=373","path":"https://videocdn.tv/api/short","per_page":100,"prev_page_url":"https://videocdn.tv/api/short?limit=100&api_token=X6EwAUfE5M9xbo7y0Bp0aPf3uXxG2KLL&cache3372=3372&page=371","to":37140,"total":59584}