{"result":true,"data":[{"id":46143,"title":"Фобик","kp_id":"799640","imdb_id":"tt3145630","world_art_id":null,"type":"movie","add":"2020-12-16 18:29:28","orig_title":"Phobic","year":"2020-12-10","translations":["Любительский (многоголосый закадровый) (Синема УС)"],"quality":"webdl","translation":"Любительский (многоголосый закадровый) (Синема УС)","update":"2020-12-16 20:59:33","iframe_src":"//8543.svetacdn.in/si4jsFRrtgrT/movie/46143"},{"id":46121,"title":"Рождественское чудо","kp_id":"1352062","imdb_id":"tt11869546","world_art_id":null,"type":"movie","add":"2020-12-16 13:17:16","orig_title":"Miracle on Christmas","year":"2020-11-01","translations":["Любительский (многоголосый закадровый) (Синема УС)"],"quality":"webdl","translation":"Любительский (многоголосый закадровый) (Синема УС)","update":"2020-12-16 16:44:54","iframe_src":"//8543.svetacdn.in/si4jsFRrtgrT/movie/46121"},{"id":46120,"title":"Отряд Санты","kp_id":"1396028","imdb_id":"tt12787842","world_art_id":null,"type":"movie","add":"2020-12-16 13:07:36","orig_title":"The Santa Squad","year":"2020-11-01","translations":["Любительский (многоголосый закадровый) (Синема УС)"],"quality":"webdl","translation":"Любительский (многоголосый закадровый) (Синема УС)","update":"2020-12-16 17:14:48","iframe_src":"//8543.svetacdn.in/si4jsFRrtgrT/movie/46120"},{"id":46118,"title":"Крутые засранцы","kp_id":"1236823","imdb_id":"tt9762398","world_art_id":null,"type":"movie","add":"2020-12-16 13:02:29","orig_title":"Teenage Badass","year":"2020-09-18","translations":["Любительский (многоголосый закадровый) (Синема УС)"],"quality":"webdl","translation":"Любительский (многоголосый закадровый) (Синема УС)","update":"2020-12-16 17:11:33","iframe_src":"//8543.svetacdn.in/si4jsFRrtgrT/movie/46118"},{"id":46111,"title":"Лагерь беженцев","kp_id":"2000007","imdb_id":"tt7805960","world_art_id":null,"type":"movie","add":"2020-12-15 20:47:44","orig_title":"Torbaaz","year":"2020-12-11","translations":["Любительский (многоголосый закадровый) (Синема УС)"],"quality":"webdl","translation":"Любительский (многоголосый закадровый) (Синема УС)","update":"2020-12-16 08:04:36","iframe_src":"//8543.svetacdn.in/si4jsFRrtgrT/movie/46111"},{"id":46108,"title":"Мошонка","kp_id":null,"imdb_id":"tt13386604","world_art_id":null,"type":"movie","add":"2020-12-15 17:50:50","orig_title":"The Scrotum","year":"2019-12-15","translations":["Любительский (многоголосый закадровый) (Синема УС)"],"quality":"webdl","translation":"Любительский (многоголосый закадровый) (Синема УС)","update":"2020-12-16 08:23:33","iframe_src":"//8543.svetacdn.in/si4jsFRrtgrT/movie/46108"},{"id":46100,"title":"В сумерках","kp_id":"1245564","imdb_id":"tt9799640","world_art_id":null,"type":"movie","add":"2020-12-15 17:17:53","orig_title":"Au Crépuscule (Dusk)","year":"2019-11-29","translations":["Любительский (многоголосый закадровый) (Синема УС)"],"quality":"webdl","translation":"Любительский (многоголосый закадровый) (Синема УС)","update":"2020-12-16 08:24:20","iframe_src":"//8543.svetacdn.in/si4jsFRrtgrT/movie/46100"},{"id":46056,"title":"Царство грёз и безумия","kp_id":"801870","imdb_id":"tt3204392","world_art_id":null,"type":"movie","add":"2020-12-14 10:15:15","orig_title":"Yume to kyôki no ôkoku","year":"2013-11-16","translations":["Любительский (двухголосый закадровый)"],"quality":"bd","translation":"Любительский (двухголосый закадровый)","update":"2020-12-16 13:16:40","iframe_src":"//8543.svetacdn.in/si4jsFRrtgrT/movie/46056"},{"id":44910,"title":"Творцы снов","kp_id":"1328035","imdb_id":"tt9855978","world_art_id":null,"type":"movie","add":"2020-10-29 18:25:33","orig_title":"Drømmebyggerne","year":"2020-02-06","translations":["Любительский (многоголосый закадровый) (@MUZOBOZ@)","Полное дублирование"],"quality":"webdl","translation":"Любительский (многоголосый закадровый) (@MUZOBOZ@)","update":"2020-12-16 08:06:17","iframe_src":"//8543.svetacdn.in/si4jsFRrtgrT/movie/44910"},{"id":44713,"title":"Это старое чувство","kp_id":"2379","imdb_id":"tt0120318","world_art_id":null,"type":"movie","add":"2020-10-23 17:36:13","orig_title":"That Old Feeling","year":"1997-04-04","translations":["Профессиональный (двухголосый закадровый) (R5)","Профессиональный (многоголосый закадровый) (СТС)","Original (English)"],"quality":"webdl","translation":"Профессиональный (двухголосый закадровый) (R5)","update":"2020-12-16 06:51:01","iframe_src":"//8543.svetacdn.in/si4jsFRrtgrT/movie/44713"},{"id":44706,"title":"Месть простофиль","kp_id":"54367","imdb_id":"tt0054734","world_art_id":null,"type":"movie","add":"2020-10-23 08:30:59","orig_title":"Le cave se rebiffe","year":"1961-08-26","translations":["Профессиональный (многоголосый закадровый) (Фильм Престиж)","Профессиональный (многоголосый закадровый) (5-й канал СПб)","Профессиональный (многоголосый закадровый) (Первый канал | ОРТ)"],"quality":"bd","translation":"Профессиональный (многоголосый закадровый) (Фильм Престиж)","update":"2020-12-16 06:55:29","iframe_src":"//8543.svetacdn.in/si4jsFRrtgrT/movie/44706"},{"id":44691,"title":"Эта дикая кошка","kp_id":"9214","imdb_id":"tt0120317","world_art_id":null,"type":"movie","add":"2020-10-22 18:29:47","orig_title":"That Darn Cat","year":"1997-02-14","translations":["Профессиональный (многоголосый закадровый) (Видеосервис)","Профессиональный (многоголосый закадровый) (СТС)","Авторский (одноголосый закадровый) (Кашкин Александр | Первомайский)","Original (English)"],"quality":"webdl","translation":"Профессиональный (многоголосый закадровый) (Видеосервис)","update":"2020-12-16 06:50:08","iframe_src":"//8543.svetacdn.in/si4jsFRrtgrT/movie/44691"},{"id":44504,"title":"Идеально","kp_id":"9518","imdb_id":"tt0089798","world_art_id":null,"type":"movie","add":"2020-10-16 15:30:47","orig_title":"Perfect","year":"1985-05-15","translations":["Профессиональный (многоголосый закадровый) (Первый канал | ОРТ)","Профессиональный (многоголосый закадровый) (5-й канал СПб)","Original (English)"],"quality":"webdl","translation":"Профессиональный (многоголосый закадровый) (Первый канал | ОРТ)","update":"2020-12-16 06:47:54","iframe_src":"//8543.svetacdn.in/si4jsFRrtgrT/movie/44504"},{"id":40318,"title":"Серебряный волк","kp_id":"2327","imdb_id":"tt0158221","world_art_id":null,"type":"movie","add":"2020-05-12 09:39:48","orig_title":"Silver Wolf","year":"1999-01-10","translations":["Профессиональный (двухголосый закадровый)","Original (English)"],"quality":"webdl","translation":"Профессиональный (двухголосый закадровый)","update":"2020-12-16 06:48:45","iframe_src":"//8543.svetacdn.in/si4jsFRrtgrT/movie/40318"},{"id":6984,"title":"BBC: Европа: История континента","kp_id":"258121","imdb_id":"tt0449012","world_art_id":null,"type":"serial","add":"2020-03-25 07:34:13","orig_title":"Wild Europe","year":"2005-02-15","translations":["Профессиональный (одноголосый закадровый)"],"seasons_count":1,"episodes_count":4,"episodes":4,"update":"2020-03-25 10:22:45","iframe_src":"//8543.svetacdn.in/si4jsFRrtgrT/tv-series/6984"},{"id":6983,"title":"Когда папа Дед Мороз","kp_id":"1045637","imdb_id":"tt9222072","world_art_id":null,"type":"serial","add":"2020-03-25 07:10:56","orig_title":"Когда папа Дед Мороз","year":"2017-01-01","translations":["Оригинальная дорожка"],"seasons_count":1,"episodes_count":4,"episodes":4,"update":"2020-03-25 10:55:14","iframe_src":"//8543.svetacdn.in/si4jsFRrtgrT/tv-series/6983"},{"id":6981,"title":"Вампиры","kp_id":"79478","imdb_id":"tt0006206","world_art_id":null,"type":"serial","add":"2020-03-24 22:10:49","orig_title":"Les vampires","year":"1915-11-13","translations":["Original (English)"],"seasons_count":1,"episodes_count":2,"episodes":2,"update":"2020-03-25 15:17:28","iframe_src":"//8543.svetacdn.in/si4jsFRrtgrT/tv-series/6981"},{"id":6980,"title":"Хантик: Искатели секретов","kp_id":"579536","imdb_id":"tt1696969","world_art_id":null,"type":"serial","add":"2020-03-24 22:03:57","orig_title":"Huntik: Secrets and Seekers","year":"2009-01-01","translations":["Любительский (многоголосый закадровый) (Flux-Team)"],"seasons_count":1,"episodes_count":26,"episodes":26,"update":"2020-03-25 15:12:25","iframe_src":"//8543.svetacdn.in/si4jsFRrtgrT/tv-series/6980"},{"id":6978,"title":"Бумбараш","kp_id":"79674","imdb_id":"tt0131331","world_art_id":null,"type":"serial","add":"2020-03-24 16:17:03","orig_title":"Bumbarash","year":"1972-05-01","translations":["Оригинальная дорожка"],"seasons_count":1,"episodes_count":2,"episodes":2,"update":"2020-03-25 09:59:26","iframe_src":"//8543.svetacdn.in/si4jsFRrtgrT/tv-series/6978"},{"id":6968,"title":"Защитник","kp_id":"178702","imdb_id":"tt0285370","world_art_id":null,"type":"serial","add":"2020-03-23 10:56:05","orig_title":"The Guardian","year":"2001-09-25","translations":["Профессиональный (многоголосый закадровый) (СТС)"],"seasons_count":3,"episodes_count":66,"episodes":21,"update":"2020-03-25 18:20:21","iframe_src":"//8543.svetacdn.in/si4jsFRrtgrT/tv-series/6968"},{"id":6967,"title":"Моя большая семья","kp_id":"683374","imdb_id":"tt3872016","world_art_id":null,"type":"serial","add":"2020-03-23 08:39:59","orig_title":"Moya bolshaya semya","year":"2012-06-04","translations":["Оригинальная дорожка"],"seasons_count":1,"episodes_count":12,"episodes":12,"update":"2020-03-24 19:45:15","iframe_src":"//8543.svetacdn.in/si4jsFRrtgrT/tv-series/6967"},{"id":6960,"title":"Западное крыло","kp_id":"94224","imdb_id":"tt0200276","world_art_id":null,"type":"serial","add":"2020-03-22 12:43:41","orig_title":"The West Wing","year":"2005-09-25","translations":["Любительский (одноголосый закадровый) (Hamster)","Профессиональный (многоголосый закадровый) (FocusStudio)","Профессиональный (двухголосый закадровый) (НТВ)"],"seasons_count":7,"episodes_count":154,"episodes":22,"update":"2020-03-25 15:52:56","iframe_src":"//8543.svetacdn.in/si4jsFRrtgrT/tv-series/6960"},{"id":6959,"title":"Приключения Вуди и его друзей","kp_id":"309596","imdb_id":"tt0184175","world_art_id":null,"type":"serial","add":"2020-03-21 17:45:24","orig_title":"The Woody Woodpecker Show","year":"1957-10-01","translations":["Профессиональный (двухголосый закадровый)"],"seasons_count":2,"episodes_count":183,"episodes":53,"update":"2020-03-25 10:38:02","iframe_src":"//8543.svetacdn.in/si4jsFRrtgrT/tv-series/6959"},{"id":6932,"title":"Между","kp_id":"891619","imdb_id":"tt4132692","world_art_id":null,"type":"serial","add":"2020-03-19 06:00:28","orig_title":"Between","year":"2015-05-21","translations":["Профессиональный (многоголосый закадровый) (NewStudio)"],"seasons_count":2,"episodes_count":12,"episodes":6,"update":"2020-03-25 18:55:20","iframe_src":"//8543.svetacdn.in/si4jsFRrtgrT/tv-series/6932"},{"id":6705,"title":"Охотники","kp_id":"1170235","imdb_id":"tt7456722","world_art_id":null,"type":"serial","add":"2020-02-21 09:52:04","orig_title":"Hunters","year":"2020-02-21","translations":["Любительский (многоголосый закадровый) (Octopus)","Любительский (многоголосый закадровый) (ColdFilm)","Профессиональный (многоголосый закадровый) (HDrezka Studio)","Профессиональный (двухголосый закадровый) (Gears Media)","Профессиональный (многоголосый закадровый) (LostFilm)","Любительский (многоголосый закадровый) (WestFilm)","Профессиональный (многоголосый закадровый) (NewStudio)","Профессиональный (многоголосый закадровый) (Jaskier)","Любительский (двухголосый закадровый) (ColdFilm)"],"seasons_count":1,"episodes_count":10,"episodes":10,"update":"2020-03-25 04:52:02","iframe_src":"//8543.svetacdn.in/si4jsFRrtgrT/tv-series/6705"},{"id":6633,"title":"НольНольНоль","kp_id":"1132285","imdb_id":"tt8332438","world_art_id":null,"type":"serial","add":"2020-02-14 01:37:04","orig_title":"ZeroZeroZero","year":"2019-09-05","translations":["Любительский (многоголосый закадровый) (Octopus)","Любительский (многоголосый закадровый) (ColdFilm)","Профессиональный (многоголосый закадровый) (Кравец)","Профессиональный (многоголосый закадровый) (HDrezka Studio)","Профессиональный (многоголосый закадровый) (LostFilm)","Любительский (многоголосый закадровый) (WestFilm)","Авторский (одноголосый закадровый) (Сербин Юрий)","Профессиональный (многоголосый закадровый) (TVShows)"],"seasons_count":1,"episodes_count":8,"episodes":8,"update":"2020-03-25 12:19:05","iframe_src":"//8543.svetacdn.in/si4jsFRrtgrT/tv-series/6633"},{"id":6627,"title":"Цени каждый день","kp_id":"1251515","imdb_id":"tt10065678","world_art_id":null,"type":"serial","add":"2020-02-13 05:38:43","orig_title":"Cherish the Day","year":"2020-02-11","translations":["Любительский (многоголосый закадровый) (Octopus)"],"seasons_count":1,"episodes_count":8,"episodes":8,"update":"2020-03-25 15:24:27","iframe_src":"//8543.svetacdn.in/si4jsFRrtgrT/tv-series/6627"},{"id":6132,"title":"Умерь свой энтузиазм","kp_id":"277559","imdb_id":"tt0264235","world_art_id":null,"type":"serial","add":"2019-12-24 18:40:41","orig_title":"Curb Your Enthusiasm","year":"2000-10-15","translations":["Любительский (одноголосый закадровый)","Любительский (одноголосый закадровый) (Hamster)","Профессиональный (многоголосый закадровый) (SDI Media)","Любительский (многоголосый закадровый) (Octopus)","Профессиональный (многоголосый закадровый) (TVShows)","Профессиональный (двухголосый закадровый) (Gears Media)","Профессиональный (многоголосый закадровый) (BaibaKo)"],"seasons_count":10,"episodes_count":98,"episodes":10,"update":"2020-03-25 08:24:32","iframe_src":"//8543.svetacdn.in/si4jsFRrtgrT/tv-series/6132"},{"id":5860,"title":"Голубка","kp_id":"1316421","imdb_id":"tt11149738","world_art_id":null,"type":"serial","add":"2019-11-27 08:37:01","orig_title":"Guvercin","year":"2019-11-24","translations":["Любительский (одноголосый закадровый)"],"seasons_count":1,"episodes_count":13,"episodes":13,"update":"2020-03-25 04:40:07","iframe_src":"//8543.svetacdn.in/si4jsFRrtgrT/tv-series/5860"},{"id":30992,"title":"Рэмбо: Последняя кровь","kp_id":"841738","imdb_id":"tt1206885","world_art_id":null,"type":"movie","add":"2019-09-19 12:22:31","orig_title":"Rambo: Last Blood","year":"2019-09-18","translations":["Полное дублирование (iTunes)","Original (English)","Авторский (одноголосый закадровый) (Чадов Михаил)","Авторский (одноголосый закадровый) (Яроцкий Михаил | Kyberpunk)","Original (English)"],"quality":"bd","translation":"Полное дублирование (iTunes)","update":"2020-12-16 08:25:28","iframe_src":"//8543.svetacdn.in/si4jsFRrtgrT/movie/30992"},{"id":4958,"title":"Безрассудный","kp_id":"741264","imdb_id":"tt2734804","world_art_id":null,"type":"serial","add":"2019-07-27 20:29:04","orig_title":"Reckless","year":"2014-06-29","translations":["Профессиональный (двухголосый закадровый)","Профессиональный (многоголосый закадровый) (TVShows)"],"seasons_count":1,"episodes_count":13,"episodes":13,"update":"2020-03-25 08:59:51","iframe_src":"//8543.svetacdn.in/si4jsFRrtgrT/tv-series/4958"},{"id":3504,"title":"Драконы: Гонка на грани","kp_id":"1046305","imdb_id":"tt4816058","world_art_id":null,"type":"serial","add":"2018-11-14 19:09:43","orig_title":"Dragons: Race to the Edge","year":"2015-06-26","translations":["Полное дублирование","Любительский (одноголосый закадровый)","Профессиональный (многоголосый закадровый) (HDrezka Studio)","Полное дублирование (СВ-Дубль)"],"seasons_count":6,"episodes_count":78,"episodes":13,"update":"2020-03-24 20:30:42","iframe_src":"//8543.svetacdn.in/si4jsFRrtgrT/tv-series/3504"},{"id":3467,"title":"Юная Лига Справедливости","kp_id":"570073","imdb_id":"tt1641384","world_art_id":null,"type":"serial","add":"2018-11-08 16:55:35","orig_title":"Young Justice","year":"2010-11-26","translations":["Полное дублирование","Любительский (многоголосый закадровый) (ColdFilm)","Профессиональный (многоголосый закадровый) (HDrezka Studio)"],"seasons_count":3,"episodes_count":72,"episodes":26,"update":"2020-03-24 21:20:51","iframe_src":"//8543.svetacdn.in/si4jsFRrtgrT/tv-series/3467"},{"id":888,"title":"Лемони Сникет: 33 несчастья","kp_id":"930544","imdb_id":"tt4834206","world_art_id":null,"type":"serial","add":"2017-01-17 05:48:51","orig_title":"A Series of Unfortunate Events","year":"2017-01-13","translations":["Профессиональный (многоголосый закадровый) (NewStudio)","Профессиональный (многоголосый закадровый) (LostFilm)","Профессиональный (многоголосый закадровый) (HDrezka Studio)","Любительский (двухголосый закадровый) (Sunshine Studio)"],"seasons_count":3,"episodes_count":25,"episodes":7,"update":"2020-03-25 19:24:20","iframe_src":"//8543.svetacdn.in/si4jsFRrtgrT/tv-series/888"},{"id":7063,"title":"Чем заняться мертвецу в Денвере","kp_id":"4497","imdb_id":"tt0114660","world_art_id":null,"type":"movie","add":"2016-11-04 14:00:28","orig_title":"Things to Do in Denver When You're Dead","year":"1995-09-08","translations":["Профессиональный (многоголосый закадровый)","Авторский (одноголосый закадровый) (Яроцкий Михаил | Kyberpunk)","Авторский (одноголосый закадровый) (Гаврилов Андрей)","Авторский (одноголосый закадровый) (Живов Юрий)","Профессиональный (многоголосый закадровый) (Премьер Видео Фильм)"],"quality":"bd","translation":"Профессиональный (многоголосый закадровый)","update":"2020-12-16 07:29:25","iframe_src":"//8543.svetacdn.in/si4jsFRrtgrT/movie/7063"},{"id":5091,"title":"40 дней и 40 ночeй","kp_id":"2046","imdb_id":"tt0243736","world_art_id":null,"type":"movie","add":"2016-09-06 09:37:38","orig_title":"40 Days and 40 Nights","year":"2002-03-01","translations":["Авторский (одноголосый закадровый) (Живов Юрий)","Полное дублирование","Профессиональный (двухголосый закадровый) (НТВ)","Original (English)"],"quality":"bd","translation":"Авторский (одноголосый закадровый) (Живов Юрий)","update":"2020-12-16 08:32:59","iframe_src":"//8543.svetacdn.in/si4jsFRrtgrT/movie/5091"},{"id":368,"title":"Ганнибал","kp_id":"682468","imdb_id":"tt2243973","world_art_id":null,"type":"serial","add":"2016-08-25 13:49:10","orig_title":"Hannibal","year":"2013-04-04","translations":["Профессиональный (многоголосый закадровый) (AlexFilm)","Профессиональный (многоголосый закадровый) (Sony Sci-Fi)"],"seasons_count":3,"episodes_count":39,"episodes":13,"update":"2020-03-25 21:43:18","iframe_src":"//8543.svetacdn.in/si4jsFRrtgrT/tv-series/368"},{"id":1901,"title":"Шакал","kp_id":"4132","imdb_id":"tt0119395","world_art_id":null,"type":"movie","add":"2016-05-05 12:33:32","orig_title":"The Jackal","year":"1997-11-14","translations":["Профессиональный (многоголосый закадровый)","Полное дублирование","Авторский (одноголосый закадровый) (Гаврилов Андрей)","Авторский (одноголосый закадровый) (Горчаков Василий)","Авторский (одноголосый закадровый) (Кашкин Александр | Первомайский)","Авторский (одноголосый закадровый) (Визгунов Сергей)","Авторский (одноголосый закадровый) (Живов Юрий)","Полное дублирование (Ист-Вест)","Original (English)","Профессиональный (двухголосый закадровый) (НТВ)","Профессиональный (двухголосый закадровый) (Премьер Видео Фильм)","Профессиональный (многоголосый закадровый) (Киномания)","Профессиональный (многоголосый закадровый) (Lizard Cinema)","Профессиональный (многоголосый закадровый) (Первый канал | ОРТ)","Профессиональный (многоголосый закадровый) (Universal Russia)"],"quality":"bd","translation":"Профессиональный (многоголосый закадровый)","update":"2020-12-16 08:20:06","iframe_src":"//8543.svetacdn.in/si4jsFRrtgrT/movie/1901"},{"id":1380,"title":"Рэмбо: Первая кровь","kp_id":"4087","imdb_id":"tt0083944","world_art_id":null,"type":"movie","add":"2016-04-21 09:10:12","orig_title":"First Blood","year":"1982-10-22","translations":["Профессиональный (многоголосый закадровый)","Original (English)","Авторский (одноголосый закадровый) (Гаврилов Андрей)","Авторский (одноголосый закадровый) (Горчаков Василий)","Авторский (одноголосый закадровый) (Либергал Григорий)","Авторский (одноголосый закадровый) (Володарский Леонид)","Авторский (одноголосый закадровый) (Завгородний Владимир)","Авторский (одноголосый закадровый) (Живов Юрий)","Original (English)","Профессиональный (многоголосый закадровый) (CP Digital)","Профессиональный (многоголосый закадровый) (НТВ)","Профессиональный (многоголосый закадровый) (Киномания)","Профессиональный (многоголосый закадровый) (Позитив)"],"quality":"bd","translation":"Профессиональный (многоголосый закадровый)","update":"2020-12-16 07:45:01","iframe_src":"//8543.svetacdn.in/si4jsFRrtgrT/movie/1380"},{"id":138,"title":"Терминатор 3: Восстание машин","kp_id":"319","imdb_id":"tt0181852","world_art_id":null,"type":"movie","add":"2016-02-17 11:10:29","orig_title":"Terminator 3: Rise of the Machines","year":"2003-06-30","translations":["Полное дублирование","Original (English)","Авторский (одноголосый закадровый) (Чадов Михаил)","Авторский (одноголосый закадровый) (Гаврилов Андрей)","Полное дублирование","Original (English)","Профессиональный (многоголосый закадровый)","Профессиональный (многоголосый закадровый) (Карусель)"],"quality":"hddvd","translation":"Полное дублирование","update":"2020-12-16 08:31:17","iframe_src":"//8543.svetacdn.in/si4jsFRrtgrT/movie/138"}],"current_page":220,"first_page_url":"https://videocdn.tv/api/short?limit=100&api_token=X6EwAUfE5M9xbo7y0Bp0aPf3uXxG2KLL&cache3220=3220&page=1","from":21901,"last_page":605,"last_page_url":"https://videocdn.tv/api/short?limit=100&api_token=X6EwAUfE5M9xbo7y0Bp0aPf3uXxG2KLL&cache3220=3220&page=605","next_page_url":"https://videocdn.tv/api/short?limit=100&api_token=X6EwAUfE5M9xbo7y0Bp0aPf3uXxG2KLL&cache3220=3220&page=221","path":"https://videocdn.tv/api/short","per_page":100,"prev_page_url":"https://videocdn.tv/api/short?limit=100&api_token=X6EwAUfE5M9xbo7y0Bp0aPf3uXxG2KLL&cache3220=3220&page=219","to":21940,"total":60458}