{"result":true,"data":[{"id":41443,"title":"За удачей","kp_id":"195439","imdb_id":"tt0479289","world_art_id":null,"type":"movie","add":"2020-06-28 21:08:49","orig_title":"The Go-Getter","year":"2007-01-22","translations":["Любительский (одноголосый закадровый)"],"quality":"dvdrip","translation":"Любительский (одноголосый закадровый)","update":"2020-07-01 09:48:11","iframe_src":"//83.svetacdn.in/PfJ50H0ZBPg3/movie/41443"},{"id":41442,"title":"Тайные приключения Тома Тамба","kp_id":"189524","imdb_id":"tt0108069","world_art_id":null,"type":"movie","add":"2020-06-28 21:07:15","orig_title":"The Secret Adventures of Tom Thumb","year":"1993-12-10","translations":["Оригинальная дорожка"],"quality":"dvdrip","translation":"Оригинальная дорожка","update":"2020-07-01 09:48:53","iframe_src":"//83.svetacdn.in/PfJ50H0ZBPg3/movie/41442"},{"id":41441,"title":"LEGO Мир Юрского периода: Побег Индоминуса","kp_id":"1039075","imdb_id":"tt6101862","world_art_id":null,"type":"movie","add":"2020-06-28 21:03:29","orig_title":"Lego Jurassic World: The Indominus Escape","year":"2016-10-03","translations":["Полное дублирование"],"quality":"webdl","translation":"Полное дублирование","update":"2020-07-01 09:50:16","iframe_src":"//83.svetacdn.in/PfJ50H0ZBPg3/movie/41441"},{"id":41440,"title":"Красота земная","kp_id":"127626","imdb_id":"tt0429187","world_art_id":null,"type":"movie","add":"2020-06-28 21:01:43","orig_title":"Toute la beauté du monde","year":"2006-02-08","translations":["Профессиональный (многоголосый закадровый)"],"quality":"dvdrip","translation":"Профессиональный (многоголосый закадровый)","update":"2020-07-01 09:50:50","iframe_src":"//83.svetacdn.in/PfJ50H0ZBPg3/movie/41440"},{"id":41439,"title":"Юбилей","kp_id":"32065","imdb_id":"tt0076240","world_art_id":null,"type":"movie","add":"2020-06-28 20:59:09","orig_title":"Jubilee","year":"1978-02-01","translations":["Профессиональный (многоголосый закадровый)"],"quality":"dvdrip","translation":"Профессиональный (многоголосый закадровый)","update":"2020-07-01 09:51:18","iframe_src":"//83.svetacdn.in/PfJ50H0ZBPg3/movie/41439"},{"id":41438,"title":"Бог печали и радости","kp_id":"455578","imdb_id":null,"world_art_id":null,"type":"movie","add":"2020-06-28 20:57:27","orig_title":"Бог печали и радости","year":"2007-01-01","translations":["Оригинальная дорожка"],"quality":"dvdrip","translation":"Оригинальная дорожка","update":"2020-07-01 09:51:47","iframe_src":"//83.svetacdn.in/PfJ50H0ZBPg3/movie/41438"},{"id":41437,"title":"Акла","kp_id":"54711","imdb_id":"tt0104111","world_art_id":null,"type":"movie","add":"2020-06-28 20:55:46","orig_title":"La discesa di Aclà a Floristella","year":"1992-09-10","translations":["Профессиональный (одноголосый закадровый)"],"quality":"vhs","translation":"Профессиональный (одноголосый закадровый)","update":"2020-07-01 09:52:28","iframe_src":"//83.svetacdn.in/PfJ50H0ZBPg3/movie/41437"},{"id":41436,"title":"Буря","kp_id":"52452","imdb_id":"tt0081613","world_art_id":null,"type":"movie","add":"2020-06-28 20:43:19","orig_title":"The Tempest","year":"1979-09-13","translations":["Профессиональный (одноголосый закадровый)"],"quality":"webdl","translation":"Профессиональный (одноголосый закадровый)","update":"2020-07-01 09:53:03","iframe_src":"//83.svetacdn.in/PfJ50H0ZBPg3/movie/41436"},{"id":39661,"title":"Мистер и миссис Смит","kp_id":"9125","imdb_id":"tt0033922","world_art_id":null,"type":"movie","add":"2020-04-21 11:28:34","orig_title":"Mr. & Mrs. Smith","year":"1941-01-31","translations":["Профессиональный (многоголосый закадровый) (Светла)","Профессиональный (многоголосый закадровый) (DVD Магия)","Профессиональный (многоголосый закадровый) (Видеобаза)","[EN] Original (English)"],"quality":"webdl","translation":"Профессиональный (многоголосый закадровый) (Светла)","update":"2020-07-01 11:42:59","iframe_src":"//83.svetacdn.in/PfJ50H0ZBPg3/movie/39661"},{"id":39555,"title":"Возмездие Макса Кибла","kp_id":"3848","imdb_id":"tt0273799","world_art_id":null,"type":"movie","add":"2020-04-19 10:02:34","orig_title":"Max Keeble's Big Move","year":"2001-10-05","translations":["Профессиональный (многоголосый закадровый) (СТС)","[EN] Original (English)"],"quality":"webdl","translation":"Профессиональный (многоголосый закадровый) (СТС)","update":"2020-07-01 11:40:25","iframe_src":"//83.svetacdn.in/PfJ50H0ZBPg3/movie/39555"},{"id":39553,"title":"Из добрых побуждений","kp_id":"392745","imdb_id":"tt0759612","world_art_id":null,"type":"movie","add":"2020-04-19 09:46:54","orig_title":"Longford","year":"2006-10-26","translations":["Профессиональный (многоголосый закадровый) (Amedia)","[EN] Original (English)"],"quality":"webdl","translation":"Профессиональный (многоголосый закадровый) (Amedia)","update":"2020-07-01 11:39:13","iframe_src":"//83.svetacdn.in/PfJ50H0ZBPg3/movie/39553"},{"id":39552,"title":"Ангелы с железными зубами","kp_id":"277575","imdb_id":"tt0338139","world_art_id":null,"type":"movie","add":"2020-04-19 09:45:48","orig_title":"Iron Jawed Angels","year":"2004-01-16","translations":["Профессиональный (многоголосый закадровый) (Amedia)","[EN] Original (English)"],"quality":"webdl","translation":"Профессиональный (многоголосый закадровый) (Amedia)","update":"2020-07-01 11:34:03","iframe_src":"//83.svetacdn.in/PfJ50H0ZBPg3/movie/39552"},{"id":39536,"title":"Радостная поездка","kp_id":"9395","imdb_id":"tt0119426","world_art_id":null,"type":"movie","add":"2020-04-19 09:14:00","orig_title":"Joyride","year":"1997-11-18","translations":["Профессиональный (двухголосый закадровый)","[EN] Original (English)"],"quality":"webdl","translation":"Профессиональный (двухголосый закадровый)","update":"2020-07-01 11:36:47","iframe_src":"//83.svetacdn.in/PfJ50H0ZBPg3/movie/39536"},{"id":39534,"title":"Обладая тобой","kp_id":"676494","imdb_id":"tt2343549","world_art_id":null,"type":"movie","add":"2020-04-19 09:10:46","orig_title":"Having You","year":"2013-06-12","translations":["Профессиональный (двухголосый закадровый) (SDI Media | Iyuno-SDI Group Russia)","[EN] Original (English)"],"quality":"webdl","translation":"Профессиональный (двухголосый закадровый) (SDI Media | Iyuno-SDI Group Russia)","update":"2020-07-01 11:30:19","iframe_src":"//83.svetacdn.in/PfJ50H0ZBPg3/movie/39534"},{"id":39498,"title":"Парень, йоркширская история","kp_id":"632929","imdb_id":"tt2073600","world_art_id":null,"type":"movie","add":"2020-04-18 12:54:52","orig_title":"Lad: A Yorkshire Story","year":"2013-04-25","translations":["Любительский (одноголосый закадровый) (Ващенко Семён)","[EN] Original (English)"],"quality":"webdl","translation":"Любительский (одноголосый закадровый) (Ващенко Семён)","update":"2020-07-01 11:37:38","iframe_src":"//83.svetacdn.in/PfJ50H0ZBPg3/movie/39498"},{"id":39496,"title":"Он знает, что вы одни","kp_id":"6886","imdb_id":"tt0080850","world_art_id":null,"type":"movie","add":"2020-04-18 12:51:00","orig_title":"He Knows You're Alone","year":"1980-08-29","translations":["Любительский (одноголосый закадровый)","[EN] Original (English)"],"quality":"webdl","translation":"Любительский (одноголосый закадровый)","update":"2020-07-01 11:31:19","iframe_src":"//83.svetacdn.in/PfJ50H0ZBPg3/movie/39496"},{"id":39489,"title":"Держись","kp_id":"692385","imdb_id":"tt2208778","world_art_id":null,"type":"movie","add":"2020-04-18 12:41:00","orig_title":"Hold Fast","year":"2013-08-23","translations":["Авторский (одноголосый закадровый) (Данилов Владислав | Kenum)","[EN] Original (English)"],"quality":"webdl","translation":"Авторский (одноголосый закадровый) (Данилов Владислав | Kenum)","update":"2020-07-01 11:33:14","iframe_src":"//83.svetacdn.in/PfJ50H0ZBPg3/movie/39489"},{"id":38271,"title":"Адские охотники","kp_id":"35972","imdb_id":"tt0091193","world_art_id":null,"type":"movie","add":"2020-03-19 22:04:32","orig_title":"Hell Hunters","year":"1986-01-01","translations":["Профессиональный (многоголосый закадровый) (Варус-Видео)","[EN] Original (English)"],"quality":"webdl","translation":"Профессиональный (многоголосый закадровый) (Варус-Видео)","update":"2020-07-01 11:32:11","iframe_src":"//83.svetacdn.in/PfJ50H0ZBPg3/movie/38271"},{"id":37300,"title":"Страна чудаков","kp_id":"774","imdb_id":"tt0273923","world_art_id":null,"type":"movie","add":"2020-03-03 12:01:20","orig_title":"Orange County","year":"2002-01-07","translations":["Полное дублирование (iTunes)","Полное дублирование"],"quality":"webdl","translation":"Полное дублирование (iTunes)","update":"2020-07-01 09:49:41","iframe_src":"//83.svetacdn.in/PfJ50H0ZBPg3/movie/37300"},{"id":34686,"title":"Шестнадцатилетняя мать","kp_id":"341692","imdb_id":"tt0438123","world_art_id":null,"type":"movie","add":"2020-01-03 05:30:51","orig_title":"Mom at Sixteen","year":"2005-03-21","translations":["Профессиональный (двухголосый закадровый)","[EN] Original (English)"],"quality":"webdl","translation":"Профессиональный (двухголосый закадровый)","update":"2020-07-01 11:41:13","iframe_src":"//83.svetacdn.in/PfJ50H0ZBPg3/movie/34686"}],"current_page":1114,"first_page_url":"https://videocdn.tv/api/short?limit=100&api_token=RgFQdUIR2dRmwv8iYa5SnFNgnw3vpjKj&cache31114=31114&page=1","from":111301,"last_page":717,"last_page_url":"https://videocdn.tv/api/short?limit=100&api_token=RgFQdUIR2dRmwv8iYa5SnFNgnw3vpjKj&cache31114=31114&page=717","next_page_url":null,"path":"https://videocdn.tv/api/short","per_page":100,"prev_page_url":"https://videocdn.tv/api/short?limit=100&api_token=RgFQdUIR2dRmwv8iYa5SnFNgnw3vpjKj&cache31114=31114&page=1113","to":111320,"total":71667}