{"result":true,"data":[{"id":54114,"title":"Бен 10: Наперегонки со временем","kp_id":"325716","imdb_id":"tt1037011","world_art_id":null,"type":"movie","add":"2021-10-24 18:05:38","orig_title":"Ben 10: Race Against Time","year":"2007-11-21","translations":["Полное дублирование"],"quality":"dvdrip","translation":"Полное дублирование","update":"2021-10-25 06:26:18","iframe_src":"//2413.svetacdn.in/IAF0wWTdNYZm/movie/54114"},{"id":54111,"title":"Странные родственники","kp_id":"86988","imdb_id":"tt0425395","world_art_id":null,"type":"movie","add":"2021-10-24 17:12:39","orig_title":"Relative Strangers","year":"2006-06-29","translations":["Профессиональный (многоголосый закадровый) (Инис)","[EN] Original (English)"],"quality":"webdl","translation":"Профессиональный (многоголосый закадровый) (Инис)","update":"2021-10-25 07:08:13","iframe_src":"//2413.svetacdn.in/IAF0wWTdNYZm/movie/54111"},{"id":54110,"title":"Я не террорист","kp_id":"4676698","imdb_id":null,"world_art_id":null,"type":"movie","add":"2021-10-24 17:09:20","orig_title":"Men terrorchi emasman","year":"2021-01-01","translations":["Полное дублирование"],"quality":"webdl","translation":"Полное дублирование","update":"2021-10-25 07:14:36","iframe_src":"//2413.svetacdn.in/IAF0wWTdNYZm/movie/54110"},{"id":54109,"title":"Приговор","kp_id":"8066","imdb_id":"tt0340376","world_art_id":null,"type":"movie","add":"2021-10-24 16:54:58","orig_title":"The Statement","year":"2003-12-12","translations":["Профессиональный (многоголосый закадровый) (CP Digital)","[EN] Original (English)"],"quality":"webdl","translation":"Профессиональный (многоголосый закадровый) (CP Digital)","update":"2021-10-25 07:28:12","iframe_src":"//2413.svetacdn.in/IAF0wWTdNYZm/movie/54109"},{"id":54108,"title":"Инквизиция","kp_id":"108522","imdb_id":"tt0074687","world_art_id":null,"type":"movie","add":"2021-10-24 16:53:39","orig_title":"Inquisición","year":"1978-01-09","translations":["Любительский (одноголосый закадровый) (Хоррор Мэйкер)"],"quality":"bd","translation":"Любительский (одноголосый закадровый) (Хоррор Мэйкер)","update":"2021-10-25 07:11:42","iframe_src":"//2413.svetacdn.in/IAF0wWTdNYZm/movie/54108"},{"id":54105,"title":"Объект съёмки","kp_id":"1263765","imdb_id":"tt10314344","world_art_id":null,"type":"movie","add":"2021-10-24 08:49:38","orig_title":"The Subject","year":"2020-06-11","translations":["Любительский (многоголосый закадровый) (Синема УС)"],"quality":"webdl","translation":"Любительский (многоголосый закадровый) (Синема УС)","update":"2021-10-24 15:29:08","iframe_src":"//2413.svetacdn.in/IAF0wWTdNYZm/movie/54105"},{"id":54103,"title":"Нуар","kp_id":null,"imdb_id":"tt14694744","world_art_id":null,"type":"movie","add":"2021-10-24 08:48:07","orig_title":"Noir","year":"2021-05-21","translations":["Любительский (многоголосый закадровый) (Синема УС)"],"quality":"webdl","translation":"Любительский (многоголосый закадровый) (Синема УС)","update":"2021-10-24 16:18:22","iframe_src":"//2413.svetacdn.in/IAF0wWTdNYZm/movie/54103"},{"id":54101,"title":"Бедокур","kp_id":"4659077","imdb_id":"tt14537540","world_art_id":null,"type":"movie","add":"2021-10-24 08:46:49","orig_title":"Little Big Mouth","year":"2021-10-22","translations":["Любительский (многоголосый закадровый) (Синема УС)"],"quality":"webdl","translation":"Любительский (многоголосый закадровый) (Синема УС)","update":"2021-10-24 14:23:50","iframe_src":"//2413.svetacdn.in/IAF0wWTdNYZm/movie/54101"},{"id":54098,"title":"Не впускай её","kp_id":"4441344","imdb_id":"tt14508380","world_art_id":null,"type":"movie","add":"2021-10-24 08:44:38","orig_title":"Don't Let Her In","year":"2021-04-30","translations":["Любительский (многоголосый закадровый) (Синема УС)"],"quality":"webdl","translation":"Любительский (многоголосый закадровый) (Синема УС)","update":"2021-10-24 14:23:37","iframe_src":"//2413.svetacdn.in/IAF0wWTdNYZm/movie/54098"},{"id":54095,"title":"13 фанатов","kp_id":null,"imdb_id":"tt9077876","world_art_id":null,"type":"movie","add":"2021-10-24 08:42:21","orig_title":"13 Fanboy","year":"2021-10-22","translations":["Любительский (многоголосый закадровый) (Синема УС)"],"quality":"webdl","translation":"Любительский (многоголосый закадровый) (Синема УС)","update":"2021-10-24 14:23:19","iframe_src":"//2413.svetacdn.in/IAF0wWTdNYZm/movie/54095"},{"id":54090,"title":"Без будущего","kp_id":"1355196","imdb_id":"tt11902024","world_art_id":null,"type":"movie","add":"2021-10-23 21:14:55","orig_title":"No Future","year":"2021-04-15","translations":["Любительский (многоголосый закадровый) (@MUZOBOZ@)"],"quality":"webdl","translation":"Любительский (многоголосый закадровый) (@MUZOBOZ@)","update":"2021-10-24 22:21:30","iframe_src":"//2413.svetacdn.in/IAF0wWTdNYZm/movie/54090"},{"id":54089,"title":"Все до последнего","kp_id":"1447887","imdb_id":"tt13454228","world_art_id":null,"type":"movie","add":"2021-10-23 21:12:26","orig_title":"Every Last One of Them","year":"2021-01-01","translations":["Любительский (многоголосый закадровый) (@MUZOBOZ@)"],"quality":"webdl","translation":"Любительский (многоголосый закадровый) (@MUZOBOZ@)","update":"2021-10-24 22:20:51","iframe_src":"//2413.svetacdn.in/IAF0wWTdNYZm/movie/54089"},{"id":54086,"title":"Тихуана, я люблю тебя","kp_id":"1215757","imdb_id":"tt9302986","world_art_id":null,"type":"movie","add":"2021-10-23 19:36:10","orig_title":"Tijuana I Love You","year":"2021-01-01","translations":["Любительский (многоголосый закадровый) (Синема УС)"],"quality":"webdl","translation":"Любительский (многоголосый закадровый) (Синема УС)","update":"2021-10-24 22:18:17","iframe_src":"//2413.svetacdn.in/IAF0wWTdNYZm/movie/54086"},{"id":54084,"title":"Дом с привидениями","kp_id":"44268","imdb_id":"tt0296595","world_art_id":null,"type":"movie","add":"2021-10-23 16:43:52","orig_title":"Dom s privideniyami","year":"1987-01-01","translations":["Оригинальная дорожка"],"quality":"webdl","translation":"Оригинальная дорожка","update":"2021-10-23 20:46:33","iframe_src":"//2413.svetacdn.in/IAF0wWTdNYZm/movie/54084"},{"id":54079,"title":"Поспешное бегство 2","kp_id":"32343","imdb_id":"tt0109773","world_art_id":null,"type":"movie","add":"2021-10-23 08:04:15","orig_title":"Fast Getaway II","year":"1994-06-23","translations":["Авторский (одноголосый закадровый) (Иванов Михаил)","Авторский (одноголосый закадровый) (Кузнецов Сергей)","Авторский (одноголосый закадровый) (Визгунов Сергей)","Профессиональный (двухголосый закадровый) (ТВ6)"],"quality":"dvdrip","translation":"Авторский (одноголосый закадровый) (Иванов Михаил)","update":"2021-10-25 06:25:02","iframe_src":"//2413.svetacdn.in/IAF0wWTdNYZm/movie/54079"},{"id":53629,"title":"Братцы кролики: Байки старого замка","kp_id":"4640143","imdb_id":null,"world_art_id":null,"type":"movie","add":"2021-10-05 11:35:09","orig_title":"Братцы кролики: Байки старого замка","year":"2021-09-30","translations":["Оригинальная дорожка","Оригинальная дорожка"],"quality":"ts","translation":"Оригинальная дорожка","update":"2021-10-24 07:37:53","iframe_src":"//2413.svetacdn.in/IAF0wWTdNYZm/movie/53629"},{"id":42636,"title":"Мистер Монстр","kp_id":"1255046","imdb_id":"tt10097484","world_art_id":null,"type":"movie","add":"2020-08-21 11:37:57","orig_title":"Guai wu xian sheng","year":"2020-08-18","translations":["Любительский (двухголосый закадровый) (Колобок)","Любительский (двухголосый закадровый) (Колобок)"],"quality":"webdl","translation":"Любительский (двухголосый закадровый) (Колобок)","update":"2021-10-25 07:10:04","iframe_src":"//2413.svetacdn.in/IAF0wWTdNYZm/movie/42636"},{"id":40173,"title":"С — счастье","kp_id":"1219445","imdb_id":"tt6943854","world_art_id":null,"type":"movie","add":"2020-05-07 05:18:31","orig_title":"H is for Happiness","year":"2019-08-11","translations":["Любительский (многоголосый закадровый) (Синема УС)","[EN] Original (English)","Полное дублирование (IVI)"],"quality":"webdl","translation":"Любительский (многоголосый закадровый) (Синема УС)","update":"2021-10-25 07:22:09","iframe_src":"//2413.svetacdn.in/IAF0wWTdNYZm/movie/40173"},{"id":37353,"title":"Венди и Питер: Остров застывшего времени","kp_id":"710403","imdb_id":"tt2420124","world_art_id":null,"type":"movie","add":"2020-03-04 07:32:12","orig_title":"Wendy","year":"2020-01-26","translations":["Любительский (многоголосый закадровый) (@MUZOBOZ@)","Любительский (двухголосый закадровый) (LakeFilms)","[EN] Original (English)","Полное дублирование (iTunes)"],"quality":"webdl","translation":"Любительский (многоголосый закадровый) (@MUZOBOZ@)","update":"2021-10-25 07:24:03","iframe_src":"//2413.svetacdn.in/IAF0wWTdNYZm/movie/37353"},{"id":5746,"title":"Сердце не камень","kp_id":"661244","imdb_id":"tt4095696","world_art_id":null,"type":"serial","add":"2019-11-13 19:31:40","orig_title":"Serdtse ne kamen","year":"2012-05-13","translations":["Оригинальная дорожка"],"seasons_count":1,"episodes_count":16,"episodes":16,"update":"2019-11-14 04:09:18","iframe_src":"//2413.svetacdn.in/IAF0wWTdNYZm/tv-series/5746"},{"id":5740,"title":"Хартленд","kp_id":"422807","imdb_id":"tt1094229","world_art_id":null,"type":"serial","add":"2019-11-13 12:57:08","orig_title":"Heartland","year":"2007-10-14","translations":["Любительский (двухголосый закадровый) (GoldTeam)"],"seasons_count":2,"episodes_count":31,"episodes":18,"update":"2019-11-13 21:18:33","iframe_src":"//2413.svetacdn.in/IAF0wWTdNYZm/tv-series/5740"},{"id":5739,"title":"Чудеса Вселенной","kp_id":"584605","imdb_id":"tt1854226","world_art_id":null,"type":"serial","add":"2019-11-13 11:20:31","orig_title":"Wonders of the Universe","year":"2011-03-06","translations":["Профессиональный (одноголосый закадровый)"],"seasons_count":1,"episodes_count":4,"episodes":4,"update":"2019-11-13 21:00:12","iframe_src":"//2413.svetacdn.in/IAF0wWTdNYZm/tv-series/5739"},{"id":5729,"title":"Прятки","kp_id":"1138941","imdb_id":"tt8769302","world_art_id":null,"type":"serial","add":"2019-11-11 20:40:47","orig_title":"Soombakkokjil","year":"2018-08-25","translations":["Любительский (двухголосый закадровый) (SoftBox)"],"seasons_count":1,"episodes_count":24,"episodes":24,"update":"2019-11-14 12:11:23","iframe_src":"//2413.svetacdn.in/IAF0wWTdNYZm/tv-series/5729"},{"id":5728,"title":"Флетмания","kp_id":"601841","imdb_id":"tt0841066","world_art_id":null,"type":"serial","add":"2019-11-11 20:28:48","orig_title":"Flatmania","year":"2004-09-05","translations":["Профессиональный (многоголосый закадровый)"],"seasons_count":4,"episodes_count":25,"episodes":4,"update":"2019-11-13 21:15:29","iframe_src":"//2413.svetacdn.in/IAF0wWTdNYZm/tv-series/5728"},{"id":5727,"title":"Газун: Звериные приключения","kp_id":"429032","imdb_id":"tt4288626","world_art_id":null,"type":"serial","add":"2019-11-11 20:05:37","orig_title":"Gazoon","year":"2008-05-01","translations":["[EN] Original (English)"],"seasons_count":1,"episodes_count":1,"episodes":1,"update":"2019-11-12 21:14:08","iframe_src":"//2413.svetacdn.in/IAF0wWTdNYZm/tv-series/5727"},{"id":5721,"title":"Изо дня в день","kp_id":"1227454","imdb_id":"tt9315990","world_art_id":null,"type":"serial","add":"2019-11-11 13:10:37","orig_title":"7 Days Out","year":"2018-12-21","translations":["Профессиональный (многоголосый закадровый)"],"seasons_count":1,"episodes_count":6,"episodes":6,"update":"2019-11-12 08:41:05","iframe_src":"//2413.svetacdn.in/IAF0wWTdNYZm/tv-series/5721"},{"id":5714,"title":"Правда скрывает ложь","kp_id":"480731","imdb_id":"tt4757614","world_art_id":null,"type":"serial","add":"2019-11-10 19:39:53","orig_title":"Pravda skryvaet lozh","year":"2009-01-01","translations":["Оригинальная дорожка"],"seasons_count":1,"episodes_count":8,"episodes":8,"update":"2019-11-12 08:57:09","iframe_src":"//2413.svetacdn.in/IAF0wWTdNYZm/tv-series/5714"},{"id":5712,"title":"Красная вдова","kp_id":"666982","imdb_id":"tt2215399","world_art_id":null,"type":"serial","add":"2019-11-10 19:25:39","orig_title":"Red Widow","year":"2013-02-17","translations":["Профессиональный (многоголосый закадровый) (NewStudio)"],"seasons_count":1,"episodes_count":8,"episodes":8,"update":"2019-11-12 09:05:33","iframe_src":"//2413.svetacdn.in/IAF0wWTdNYZm/tv-series/5712"},{"id":5709,"title":"Юные Титаны","kp_id":"481396","imdb_id":"tt0343314","world_art_id":null,"type":"serial","add":"2019-11-10 08:51:06","orig_title":"Teen Titans","year":"2003-07-19","translations":["Профессиональный (многоголосый закадровый)"],"seasons_count":5,"episodes_count":65,"episodes":13,"update":"2019-11-12 21:43:31","iframe_src":"//2413.svetacdn.in/IAF0wWTdNYZm/tv-series/5709"},{"id":5702,"title":"Наркотрафик","kp_id":"566765","imdb_id":null,"world_art_id":null,"type":"serial","add":"2019-11-09 17:32:00","orig_title":"Наркотрафик","year":"2012-07-23","translations":["Оригинальная дорожка"],"seasons_count":1,"episodes_count":24,"episodes":24,"update":"2019-11-12 10:55:11","iframe_src":"//2413.svetacdn.in/IAF0wWTdNYZm/tv-series/5702"},{"id":5701,"title":"Нет жизни без тебя","kp_id":"1316578","imdb_id":null,"world_art_id":null,"type":"serial","add":"2019-11-09 17:22:17","orig_title":"Нет жизни без тебя","year":"2019-11-09","translations":["Оригинальная дорожка"],"seasons_count":1,"episodes_count":2,"episodes":2,"update":"2019-11-12 18:46:31","iframe_src":"//2413.svetacdn.in/IAF0wWTdNYZm/tv-series/5701"},{"id":5688,"title":"20 минут","kp_id":"728028","imdb_id":"tt2544148","world_art_id":null,"type":"serial","add":"2019-11-07 11:10:53","orig_title":"20 Dakika","year":"2013-01-01","translations":["Профессиональный (многоголосый закадровый)"],"seasons_count":1,"episodes_count":60,"episodes":60,"update":"2019-11-12 09:30:19","iframe_src":"//2413.svetacdn.in/IAF0wWTdNYZm/tv-series/5688"},{"id":5638,"title":"Военная разведка: Первый удар","kp_id":"616313","imdb_id":"tt3544998","world_art_id":null,"type":"serial","add":"2019-11-05 13:37:26","orig_title":"Voennaya razvedka. Pervyy udar","year":"2012-05-07","translations":["Оригинальная дорожка"],"seasons_count":1,"episodes_count":8,"episodes":8,"update":"2019-11-12 09:11:30","iframe_src":"//2413.svetacdn.in/IAF0wWTdNYZm/tv-series/5638"},{"id":5637,"title":"Военная разведка: Северный фронт","kp_id":"581286","imdb_id":"tt3547862","world_art_id":null,"type":"serial","add":"2019-11-05 13:33:22","orig_title":"Voennaya razvedka. Severnyy front","year":"2012-05-21","translations":["Оригинальная дорожка"],"seasons_count":1,"episodes_count":8,"episodes":8,"update":"2019-11-12 08:26:43","iframe_src":"//2413.svetacdn.in/IAF0wWTdNYZm/tv-series/5637"},{"id":5596,"title":"Завтра будет завтра","kp_id":"280170","imdb_id":null,"world_art_id":null,"type":"serial","add":"2019-11-01 08:38:18","orig_title":"Завтра будет завтра","year":"2003-09-01","translations":["Оригинальная дорожка"],"seasons_count":1,"episodes_count":14,"episodes":14,"update":"2019-11-13 11:45:48","iframe_src":"//2413.svetacdn.in/IAF0wWTdNYZm/tv-series/5596"},{"id":5572,"title":"Город влюблённых","kp_id":"1118211","imdb_id":null,"world_art_id":null,"type":"serial","add":"2019-10-29 12:05:33","orig_title":"Город влюблённых","year":"2019-10-01","translations":["Оригинальная дорожка"],"seasons_count":1,"episodes_count":20,"episodes":20,"update":"2019-11-12 15:17:07","iframe_src":"//2413.svetacdn.in/IAF0wWTdNYZm/tv-series/5572"},{"id":4878,"title":"К жизни","kp_id":"1163035","imdb_id":"tt8548830","world_art_id":null,"type":"serial","add":"2019-07-17 19:26:39","orig_title":"Ad Vitam","year":"2018-05-03","translations":["Профессиональный (двухголосый закадровый) (ViruseProject)","Профессиональный (многоголосый закадровый) (HDrezka Studio)"],"seasons_count":1,"episodes_count":6,"episodes":6,"update":"2019-11-13 18:41:16","iframe_src":"//2413.svetacdn.in/IAF0wWTdNYZm/tv-series/4878"},{"id":1927,"title":"Человек-дьявол: Плакса","kp_id":"1042560","imdb_id":"tt6660498","world_art_id":null,"type":"serial","add":"2018-01-08 09:24:40","orig_title":"Devilman: Crybaby","year":"2018-01-05","translations":["Профессиональный (многоголосый закадровый) (HDrezka Studio)"],"seasons_count":1,"episodes_count":10,"episodes":10,"update":"2019-11-14 10:58:04","iframe_src":"//2413.svetacdn.in/IAF0wWTdNYZm/tv-series/1927"},{"id":1794,"title":"Моими глазами","kp_id":"730948","imdb_id":"tt2990480","world_art_id":null,"type":"serial","add":"2017-12-03 08:34:16","orig_title":"Moimi glazami","year":"2013-01-27","translations":["Оригинальная дорожка"],"seasons_count":1,"episodes_count":19,"episodes":19,"update":"2019-11-13 10:06:24","iframe_src":"//2413.svetacdn.in/IAF0wWTdNYZm/tv-series/1794"},{"id":455,"title":"Империя волков","kp_id":"77574","imdb_id":"tt0402158","world_art_id":null,"type":"movie","add":"2016-04-01 19:08:36","orig_title":"L'empire des loups","year":"2005-04-20","translations":["Полное дублирование","Полное дублирование (Мосфильм)"],"quality":"bd","translation":"Полное дублирование","update":"2021-10-25 06:30:53","iframe_src":"//2413.svetacdn.in/IAF0wWTdNYZm/movie/455"}],"current_page":430,"first_page_url":"https://videocdn.tv/api/short?limit=100&api_token=6Onb1W1alEUrBcKJZD3GoKBbWyAl2uG2&cache3430=3430&page=1","from":42901,"last_page":724,"last_page_url":"https://videocdn.tv/api/short?limit=100&api_token=6Onb1W1alEUrBcKJZD3GoKBbWyAl2uG2&cache3430=3430&page=724","next_page_url":"https://videocdn.tv/api/short?limit=100&api_token=6Onb1W1alEUrBcKJZD3GoKBbWyAl2uG2&cache3430=3430&page=431","path":"https://videocdn.tv/api/short","per_page":100,"prev_page_url":"https://videocdn.tv/api/short?limit=100&api_token=6Onb1W1alEUrBcKJZD3GoKBbWyAl2uG2&cache3430=3430&page=429","to":42940,"total":72342}