{"result":true,"data":[{"id":52554,"title":"ГУЛАГ","kp_id":"296347","imdb_id":"tt0089240","world_art_id":null,"type":"movie","add":"2021-08-21 20:11:09","orig_title":"Gulag","year":"1985-01-13","translations":["Профессиональный (многоголосый закадровый)"],"quality":"vhs","translation":"Профессиональный (многоголосый закадровый)","update":"2021-08-21 21:55:30","iframe_src":"//24213.svetacdn.in/71tsRs29n5tZ/movie/52554"},{"id":52552,"title":"Переулок смерти","kp_id":"1335305","imdb_id":"tt11474972","world_art_id":null,"type":"movie","add":"2021-08-21 13:19:26","orig_title":"Death Alley","year":"2021-03-12","translations":["Любительский (многоголосый закадровый) (Синема УС)"],"quality":"webdl","translation":"Любительский (многоголосый закадровый) (Синема УС)","update":"2021-08-21 19:06:08","iframe_src":"//24213.svetacdn.in/71tsRs29n5tZ/movie/52552"},{"id":52551,"title":"Любители","kp_id":"1404647","imdb_id":"tt12877334","world_art_id":null,"type":"movie","add":"2021-08-21 12:27:36","orig_title":"Amatorzy","year":"2020-12-10","translations":["Любительский (многоголосый закадровый) (AlphaProject)"],"quality":"webdl","translation":"Любительский (многоголосый закадровый) (AlphaProject)","update":"2021-08-21 15:15:50","iframe_src":"//24213.svetacdn.in/71tsRs29n5tZ/movie/52551"},{"id":52544,"title":"Один день","kp_id":"1008600","imdb_id":"tt6168298","world_art_id":null,"type":"movie","add":"2021-08-21 10:16:32","orig_title":"24h yeu","year":"2016-09-01","translations":["Любительский (двухголосый закадровый) (STEPonee)"],"quality":"webdl","translation":"Любительский (двухголосый закадровый) (STEPonee)","update":"2021-08-21 18:31:20","iframe_src":"//24213.svetacdn.in/71tsRs29n5tZ/movie/52544"},{"id":52543,"title":"Порт Аделаида","kp_id":"1421701","imdb_id":"tt13074850","world_art_id":null,"type":"movie","add":"2021-08-21 08:17:46","orig_title":"This Is Port Adelaide","year":"2021-02-06","translations":["Любительский (многоголосый закадровый) (AlphaProject)"],"quality":"webdl","translation":"Любительский (многоголосый закадровый) (AlphaProject)","update":"2021-08-21 12:49:29","iframe_src":"//24213.svetacdn.in/71tsRs29n5tZ/movie/52543"},{"id":52542,"title":"Охотник за ураганами","kp_id":null,"imdb_id":"tt14544904","world_art_id":null,"type":"movie","add":"2021-08-21 08:15:57","orig_title":"Psycho Storm Chaser","year":"2021-08-07","translations":["Любительский (многоголосый закадровый) (Синема УС)"],"quality":"webdl","translation":"Любительский (многоголосый закадровый) (Синема УС)","update":"2021-08-21 12:49:14","iframe_src":"//24213.svetacdn.in/71tsRs29n5tZ/movie/52542"},{"id":52541,"title":"Смертельный любовный треугольник","kp_id":"4423411","imdb_id":"tt13635528","world_art_id":null,"type":"movie","add":"2021-08-21 08:14:12","orig_title":"A Criminal Affair","year":"2021-08-08","translations":["Любительский (многоголосый закадровый) (Синема УС)"],"quality":"webdl","translation":"Любительский (многоголосый закадровый) (Синема УС)","update":"2021-08-21 12:49:04","iframe_src":"//24213.svetacdn.in/71tsRs29n5tZ/movie/52541"},{"id":52540,"title":"Я тебя хочу... Я тебя тоже нет","kp_id":"4414986","imdb_id":"tt14121686","world_art_id":null,"type":"movie","add":"2021-08-21 08:05:24","orig_title":"Je te veux moi non plus","year":"2021-03-26","translations":["Любительский (многоголосый закадровый) (Синема УС)"],"quality":"webdl","translation":"Любительский (многоголосый закадровый) (Синема УС)","update":"2021-08-21 12:48:56","iframe_src":"//24213.svetacdn.in/71tsRs29n5tZ/movie/52540"},{"id":52539,"title":"Убийственный ретрит","kp_id":"4427011","imdb_id":"tt14437428","world_art_id":null,"type":"movie","add":"2021-08-21 08:03:52","orig_title":"Deadly Mom Retreat","year":"2021-08-05","translations":["Любительский (многоголосый закадровый) (Синема УС)"],"quality":"hdtv","translation":"Любительский (многоголосый закадровый) (Синема УС)","update":"2021-08-21 12:48:42","iframe_src":"//24213.svetacdn.in/71tsRs29n5tZ/movie/52539"},{"id":52503,"title":"Враг общества","kp_id":"1517","imdb_id":"tt0022286","world_art_id":null,"type":"movie","add":"2021-08-19 08:18:48","orig_title":"The Public Enemy","year":"1931-04-23","translations":["Профессиональный (многоголосый закадровый)"],"quality":"bd","translation":"Профессиональный (многоголосый закадровый)","update":"2021-08-21 22:59:44","iframe_src":"//24213.svetacdn.in/71tsRs29n5tZ/movie/52503"},{"id":52462,"title":"Бесноватые","kp_id":"1023963","imdb_id":"tt6243370","world_art_id":null,"type":"movie","add":"2021-08-16 15:25:43","orig_title":"The Demented","year":"2019-10-12","translations":["Любительский (многоголосый закадровый) (Синема УС)"],"quality":"webdl","translation":"Любительский (многоголосый закадровый) (Синема УС)","update":"2021-08-22 09:17:48","iframe_src":"//24213.svetacdn.in/71tsRs29n5tZ/movie/52462"},{"id":52458,"title":"Полная луна","kp_id":"1211291","imdb_id":"tt9299590","world_art_id":null,"type":"movie","add":"2021-08-16 15:13:23","orig_title":"Pun mjesec","year":"2019-11-05","translations":["Любительский (многоголосый закадровый) (Синема УС)"],"quality":"webdl","translation":"Любительский (многоголосый закадровый) (Синема УС)","update":"2021-08-22 09:17:01","iframe_src":"//24213.svetacdn.in/71tsRs29n5tZ/movie/52458"},{"id":52430,"title":"Радость хвалы","kp_id":"1448823","imdb_id":"tt13458708","world_art_id":null,"type":"movie","add":"2021-08-14 13:37:48","orig_title":"Joyful Praise","year":"2020-07-19","translations":["Любительский (многоголосый закадровый) (Синема УС)"],"quality":"webdl","translation":"Любительский (многоголосый закадровый) (Синема УС)","update":"2021-08-22 08:38:58","iframe_src":"//24213.svetacdn.in/71tsRs29n5tZ/movie/52430"},{"id":52429,"title":"Французское прикосновение: Совершеннолетие","kp_id":"1303275","imdb_id":"tt10887342","world_art_id":null,"type":"movie","add":"2021-08-14 13:37:15","orig_title":"French Touch: Coming of Age","year":"2019-05-23","translations":["Любительский (многоголосый закадровый) (Синема УС)"],"quality":"webdl","translation":"Любительский (многоголосый закадровый) (Синема УС)","update":"2021-08-22 08:38:43","iframe_src":"//24213.svetacdn.in/71tsRs29n5tZ/movie/52429"},{"id":52314,"title":"Тайна парка развлечений","kp_id":"1328570","imdb_id":"tt11654032","world_art_id":null,"type":"movie","add":"2021-08-09 18:18:06","orig_title":"Xiong Chu Mo: Kuang Ye Da Lu","year":"2020-08-01","translations":["Полное дублирование","Полное дублирование"],"quality":"ts","translation":"Полное дублирование","update":"2021-08-21 13:05:53","iframe_src":"//24213.svetacdn.in/71tsRs29n5tZ/movie/52314"},{"id":52148,"title":"Клеймо","kp_id":"1231452","imdb_id":"tt8433082","world_art_id":null,"type":"movie","add":"2021-08-02 05:18:37","orig_title":"Nakin","year":"2018-12-28","translations":["Любительский (двухголосый закадровый) (АрхиAsia)","Любительский (многоголосый закадровый) (Синема УС)"],"quality":"webdl","translation":"Любительский (двухголосый закадровый) (АрхиAsia)","update":"2021-08-22 08:38:28","iframe_src":"//24213.svetacdn.in/71tsRs29n5tZ/movie/52148"},{"id":50871,"title":"Ася","kp_id":"1357762","imdb_id":"tt10032266","world_art_id":null,"type":"movie","add":"2021-06-02 14:04:54","orig_title":"Asia","year":"2020-04-17","translations":["Любительский (многоголосый закадровый) (Синема УС)","Полное дублирование"],"quality":"webdl","translation":"Любительский (многоголосый закадровый) (Синема УС)","update":"2021-08-21 17:37:04","iframe_src":"//24213.svetacdn.in/71tsRs29n5tZ/movie/50871"},{"id":1616,"title":"Легавый","kp_id":"665981","imdb_id":"tt3286692","world_art_id":null,"type":"serial","add":"2017-10-09 15:49:11","orig_title":"Legavyy","year":"2012-12-24","translations":["Оригинальная дорожка"],"seasons_count":1,"episodes_count":24,"episodes":24,"update":"2017-10-10 09:23:09","iframe_src":"//24213.svetacdn.in/71tsRs29n5tZ/tv-series/1616"},{"id":1614,"title":"Химик","kp_id":"474524","imdb_id":null,"world_art_id":null,"type":"serial","add":"2017-10-09 06:50:53","orig_title":"Химик","year":"2010-08-09","translations":["Оригинальная дорожка"],"seasons_count":1,"episodes_count":8,"episodes":8,"update":"2017-10-09 15:14:00","iframe_src":"//24213.svetacdn.in/71tsRs29n5tZ/tv-series/1614"},{"id":1611,"title":"Как извести любовницу за семь дней","kp_id":"1046078","imdb_id":null,"world_art_id":null,"type":"serial","add":"2017-10-09 06:25:07","orig_title":"Как извести любовницу за семь дней","year":"2017-10-07","translations":["Оригинальная дорожка"],"seasons_count":1,"episodes_count":4,"episodes":4,"update":"2017-10-09 10:51:29","iframe_src":"//24213.svetacdn.in/71tsRs29n5tZ/tv-series/1611"},{"id":1605,"title":"Река","kp_id":"582400","imdb_id":"tt1836195","world_art_id":null,"type":"serial","add":"2017-10-06 08:23:20","orig_title":"The River","year":"2012-02-07","translations":["Профессиональный (многоголосый закадровый) (LostFilm)"],"seasons_count":1,"episodes_count":8,"episodes":8,"update":"2017-10-06 14:50:24","iframe_src":"//24213.svetacdn.in/71tsRs29n5tZ/tv-series/1605"},{"id":1595,"title":"Этот город последует за тобой","kp_id":"1008658","imdb_id":"tt6384676","world_art_id":null,"type":"serial","add":"2017-10-04 06:23:03","orig_title":"Bu Sehir Arkandan Gelecek","year":"2017-01-04","translations":["Любительский (одноголосый закадровый)"],"seasons_count":1,"episodes_count":20,"episodes":20,"update":"2017-10-09 13:02:18","iframe_src":"//24213.svetacdn.in/71tsRs29n5tZ/tv-series/1595"},{"id":1592,"title":"Сивый мерин","kp_id":"499992","imdb_id":"tt1659110","world_art_id":null,"type":"serial","add":"2017-10-02 15:11:08","orig_title":"Sivyy merin","year":"2010-02-24","translations":["Оригинальная дорожка"],"seasons_count":1,"episodes_count":4,"episodes":4,"update":"2017-10-04 12:27:05","iframe_src":"//24213.svetacdn.in/71tsRs29n5tZ/tv-series/1592"},{"id":1591,"title":"Салями","kp_id":"602924","imdb_id":"tt4164158","world_art_id":null,"type":"serial","add":"2017-10-02 15:07:24","orig_title":"Salyami","year":"2011-08-20","translations":["Оригинальная дорожка"],"seasons_count":1,"episodes_count":4,"episodes":4,"update":"2017-10-04 12:20:41","iframe_src":"//24213.svetacdn.in/71tsRs29n5tZ/tv-series/1591"},{"id":1589,"title":"Земля: Мощь планеты","kp_id":"408890","imdb_id":"tt1145500","world_art_id":null,"type":"serial","add":"2017-10-02 14:58:23","orig_title":"Earth: The Power of the Planet","year":"2007-11-20","translations":["Профессиональный (одноголосый закадровый)"],"seasons_count":1,"episodes_count":5,"episodes":5,"update":"2017-10-04 12:17:37","iframe_src":"//24213.svetacdn.in/71tsRs29n5tZ/tv-series/1589"},{"id":1588,"title":"Крик совы","kp_id":"803896","imdb_id":"tt3357854","world_art_id":null,"type":"serial","add":"2017-10-02 09:17:08","orig_title":"Krik sovy","year":"2013-11-05","translations":["Оригинальная дорожка"],"seasons_count":1,"episodes_count":10,"episodes":10,"update":"2017-10-02 13:34:47","iframe_src":"//24213.svetacdn.in/71tsRs29n5tZ/tv-series/1588"},{"id":1587,"title":"Временно недоступен","kp_id":"841467","imdb_id":"tt5999484","world_art_id":null,"type":"serial","add":"2017-10-02 09:06:25","orig_title":"Vremenno nedostupen","year":"2015-01-01","translations":["Оригинальная дорожка"],"seasons_count":1,"episodes_count":8,"episodes":8,"update":"2017-10-02 13:23:40","iframe_src":"//24213.svetacdn.in/71tsRs29n5tZ/tv-series/1587"},{"id":1586,"title":"Добежать до себя","kp_id":"1049213","imdb_id":null,"world_art_id":null,"type":"serial","add":"2017-10-02 07:24:04","orig_title":"Добежать до себя","year":"2017-09-30","translations":["Оригинальная дорожка"],"seasons_count":1,"episodes_count":4,"episodes":4,"update":"2017-10-02 11:32:16","iframe_src":"//24213.svetacdn.in/71tsRs29n5tZ/tv-series/1586"},{"id":1585,"title":"Всё ещё будет","kp_id":"1046207","imdb_id":null,"world_art_id":null,"type":"serial","add":"2017-10-02 07:21:15","orig_title":"Всё ещё будет","year":"2017-09-30","translations":["Оригинальная дорожка"],"seasons_count":1,"episodes_count":4,"episodes":4,"update":"2017-10-02 11:23:43","iframe_src":"//24213.svetacdn.in/71tsRs29n5tZ/tv-series/1585"},{"id":1584,"title":"Осторожно, модерн! 2","kp_id":"404011","imdb_id":"tt3802642","world_art_id":null,"type":"serial","add":"2017-09-30 07:16:34","orig_title":"Ostorozhno, modern! 2","year":"2001-01-01","translations":["Оригинальная дорожка"],"seasons_count":1,"episodes_count":94,"episodes":94,"update":"2017-10-03 12:11:41","iframe_src":"//24213.svetacdn.in/71tsRs29n5tZ/tv-series/1584"},{"id":1579,"title":"Убить Сталина","kp_id":"721650","imdb_id":"tt3558218","world_art_id":null,"type":"serial","add":"2017-09-28 13:46:37","orig_title":"Ubit Stalina","year":"2013-11-04","translations":["Оригинальная дорожка"],"seasons_count":1,"episodes_count":8,"episodes":8,"update":"2017-10-02 14:12:07","iframe_src":"//24213.svetacdn.in/71tsRs29n5tZ/tv-series/1579"},{"id":1577,"title":"Черные кошки","kp_id":"756743","imdb_id":"tt3697872","world_art_id":null,"type":"serial","add":"2017-09-28 13:42:21","orig_title":"Chyornye koshki","year":"2013-10-09","translations":["Оригинальная дорожка"],"seasons_count":1,"episodes_count":12,"episodes":12,"update":"2017-10-04 11:57:49","iframe_src":"//24213.svetacdn.in/71tsRs29n5tZ/tv-series/1577"},{"id":1574,"title":"Родина","kp_id":"838704","imdb_id":"tt4086100","world_art_id":null,"type":"serial","add":"2017-09-28 07:19:05","orig_title":"Rodina","year":"2015-03-16","translations":["Оригинальная дорожка"],"seasons_count":1,"episodes_count":12,"episodes":12,"update":"2017-09-29 13:39:37","iframe_src":"//24213.svetacdn.in/71tsRs29n5tZ/tv-series/1574"},{"id":1569,"title":"Отличница","kp_id":"992615","imdb_id":null,"world_art_id":null,"type":"serial","add":"2017-09-26 11:40:58","orig_title":"Отличница","year":"2017-09-25","translations":["Оригинальная дорожка"],"seasons_count":1,"episodes_count":8,"episodes":8,"update":"2017-10-01 17:28:17","iframe_src":"//24213.svetacdn.in/71tsRs29n5tZ/tv-series/1569"},{"id":1534,"title":"Сон","kp_id":"1047118","imdb_id":"tt7131032","world_art_id":null,"type":"serial","add":"2017-09-10 07:59:27","orig_title":"Rüya","year":"2017-07-18","translations":["Любительский (одноголосый закадровый)"],"seasons_count":1,"episodes_count":10,"episodes":10,"update":"2017-09-29 15:07:29","iframe_src":"//24213.svetacdn.in/71tsRs29n5tZ/tv-series/1534"},{"id":1514,"title":"Любимцы","kp_id":"1047787","imdb_id":null,"world_art_id":null,"type":"serial","add":"2017-09-05 07:21:33","orig_title":"Любимцы","year":"2017-08-28","translations":["Оригинальная дорожка"],"seasons_count":1,"episodes_count":20,"episodes":20,"update":"2017-10-04 07:55:27","iframe_src":"//24213.svetacdn.in/71tsRs29n5tZ/tv-series/1514"},{"id":1202,"title":"Горничная","kp_id":"1007966","imdb_id":null,"world_art_id":null,"type":"serial","add":"2017-04-19 14:15:44","orig_title":"Горничная","year":"2017-04-19","translations":["Оригинальная дорожка"],"seasons_count":1,"episodes_count":8,"episodes":8,"update":"2017-09-29 15:12:33","iframe_src":"//24213.svetacdn.in/71tsRs29n5tZ/tv-series/1202"},{"id":4301,"title":"Иван Царевич и Серый Волк 3","kp_id":"705346","imdb_id":"tt5315110","world_art_id":null,"type":"movie","add":"2016-08-04 13:38:09","orig_title":"Ivan Tsarevich i Seryy Volk 3","year":"2016-06-18","translations":["Оригинальная дорожка","Оригинальная дорожка"],"quality":"bd","translation":"Оригинальная дорожка","update":"2021-08-22 04:31:29","iframe_src":"//24213.svetacdn.in/71tsRs29n5tZ/movie/4301"},{"id":4300,"title":"Иван Царевич и Серый Волк 2","kp_id":"707217","imdb_id":"tt3338434","world_art_id":null,"type":"movie","add":"2016-08-04 13:32:51","orig_title":"Ivan Tsarevich i Seryy Volk 2","year":"2013-12-26","translations":["Оригинальная дорожка","Оригинальная дорожка"],"quality":"bd","translation":"Оригинальная дорожка","update":"2021-08-22 04:31:53","iframe_src":"//24213.svetacdn.in/71tsRs29n5tZ/movie/4300"},{"id":145,"title":"Кто я","kp_id":"779602","imdb_id":"tt3042408","world_art_id":null,"type":"movie","add":"2016-02-17 13:31:36","orig_title":"Who Am I - Kein System ist sicher","year":"2014-09-06","translations":["Полное дублирование","Полное дублирование"],"quality":"bd","translation":"Полное дублирование","update":"2021-08-21 19:05:21","iframe_src":"//24213.svetacdn.in/71tsRs29n5tZ/movie/145"}],"current_page":586,"first_page_url":"https://videocdn.tv/api/short?limit=100&api_token=EnbO9h8pv1VyjbCJhg0WM9nG259n7mtz&cache3586=3586&page=1","from":58501,"last_page":732,"last_page_url":"https://videocdn.tv/api/short?limit=100&api_token=EnbO9h8pv1VyjbCJhg0WM9nG259n7mtz&cache3586=3586&page=732","next_page_url":"https://videocdn.tv/api/short?limit=100&api_token=EnbO9h8pv1VyjbCJhg0WM9nG259n7mtz&cache3586=3586&page=587","path":"https://videocdn.tv/api/short","per_page":100,"prev_page_url":"https://videocdn.tv/api/short?limit=100&api_token=EnbO9h8pv1VyjbCJhg0WM9nG259n7mtz&cache3586=3586&page=585","to":58540,"total":73120}