{"result":true,"data":[{"id":16424,"title":"Однажды в лесу","kp_id":"32846","imdb_id":"tt0107745","world_art_id":null,"type":"movie","add":"2018-04-22 10:03:06","orig_title":"Once Upon a Forest","year":"1993-06-18","translations":["Полное дублирование"],"quality":"webdl","translation":"Полное дублирование","update":"2018-04-24 07:26:51","iframe_src":"//83.svetacdn.in/PfJ50H0ZBPg3/movie/16424"},{"id":16423,"title":"Капитализм: История любви","kp_id":"467517","imdb_id":"tt1232207","world_art_id":null,"type":"movie","add":"2018-04-22 10:00:37","orig_title":"Capitalism: A Love Story","year":"2009-09-06","translations":["Любительский (одноголосый закадровый)"],"quality":"bd","translation":"Любительский (одноголосый закадровый)","update":"2018-04-24 07:25:45","iframe_src":"//83.svetacdn.in/PfJ50H0ZBPg3/movie/16423"},{"id":16422,"title":"Как подключить домашний кинотеатр","kp_id":"395774","imdb_id":"tt1114718","world_art_id":null,"type":"movie","add":"2018-04-22 09:58:53","orig_title":"How to Hook Up Your Home Theater","year":"2007-09-22","translations":["Полное дублирование"],"quality":"bd","translation":"Полное дублирование","update":"2018-04-24 07:25:10","iframe_src":"//83.svetacdn.in/PfJ50H0ZBPg3/movie/16422"},{"id":16419,"title":"Обращённый","kp_id":null,"imdb_id":"tt4493248","world_art_id":null,"type":"movie","add":"2018-04-22 09:45:42","orig_title":"Turned","year":"2015-11-21","translations":["Профессиональный (одноголосый закадровый)"],"quality":"webdl","translation":"Профессиональный (одноголосый закадровый)","update":"2018-04-24 07:23:44","iframe_src":"//83.svetacdn.in/PfJ50H0ZBPg3/movie/16419"},{"id":16414,"title":"Национальный парк Серенгети","kp_id":"574852","imdb_id":"tt1783777","world_art_id":null,"type":"movie","add":"2018-04-22 09:21:47","orig_title":"Serengeti","year":"2011-02-03","translations":["Авторский (одноголосый закадровый) (Сербин Юрий)"],"quality":"bd","translation":"Авторский (одноголосый закадровый) (Сербин Юрий)","update":"2018-04-24 07:20:41","iframe_src":"//83.svetacdn.in/PfJ50H0ZBPg3/movie/16414"},{"id":16413,"title":"Кот в сапогах","kp_id":"41266","imdb_id":"tt0311410","world_art_id":null,"type":"movie","add":"2018-04-22 09:15:02","orig_title":"Kot v sapogakh","year":"1996-08-01","translations":["Оригинальная дорожка"],"quality":"webdl","translation":"Оригинальная дорожка","update":"2018-04-24 07:19:29","iframe_src":"//83.svetacdn.in/PfJ50H0ZBPg3/movie/16413"},{"id":16408,"title":"Фатима","kp_id":"897720","imdb_id":"tt4466544","world_art_id":null,"type":"movie","add":"2018-04-22 08:28:59","orig_title":"Fatima","year":"2015-05-20","translations":["Профессиональный (многоголосый закадровый) (GreenРай Studio)"],"quality":"webdl","translation":"Профессиональный (многоголосый закадровый) (GreenРай Studio)","update":"2018-04-24 07:18:37","iframe_src":"//83.svetacdn.in/PfJ50H0ZBPg3/movie/16408"},{"id":16406,"title":"Приключения красного самолетика","kp_id":"687866","imdb_id":"tt2216582","world_art_id":null,"type":"movie","add":"2018-04-22 08:25:18","orig_title":"As Aventuras do Avião Vermelho","year":"2014-12-11","translations":["Полное дублирование"],"quality":"webdl","translation":"Полное дублирование","update":"2018-04-24 07:17:31","iframe_src":"//83.svetacdn.in/PfJ50H0ZBPg3/movie/16406"},{"id":16405,"title":"Алоис Небель и его призраки","kp_id":"450684","imdb_id":"tt1374985","world_art_id":null,"type":"movie","add":"2018-04-22 08:23:07","orig_title":"Alois Nebel","year":"2011-09-04","translations":["Профессиональный (многоголосый закадровый)"],"quality":"bd","translation":"Профессиональный (многоголосый закадровый)","update":"2018-04-24 07:15:55","iframe_src":"//83.svetacdn.in/PfJ50H0ZBPg3/movie/16405"},{"id":16403,"title":"Принцесса-лягушка","kp_id":"910473","imdb_id":"tt4162910","world_art_id":null,"type":"movie","add":"2018-04-21 23:14:48","orig_title":"Frog Kingdom","year":"2013-12-28","translations":["Полное дублирование"],"quality":"webdl","translation":"Полное дублирование","update":"2018-04-24 06:40:59","iframe_src":"//83.svetacdn.in/PfJ50H0ZBPg3/movie/16403"},{"id":16402,"title":"Стежки – дорожки","kp_id":"490360","imdb_id":"tt5026916","world_art_id":null,"type":"movie","add":"2018-04-21 17:19:39","orig_title":"Styozhki-dorozhki","year":"1964-04-06","translations":["Оригинальная дорожка"],"quality":"hdtv","translation":"Оригинальная дорожка","update":"2018-04-24 06:37:27","iframe_src":"//83.svetacdn.in/PfJ50H0ZBPg3/movie/16402"},{"id":16401,"title":"Завещание","kp_id":"678415","imdb_id":"tt2332831","world_art_id":null,"type":"movie","add":"2018-04-21 09:16:27","orig_title":"The Last Will and Testament of Rosalind Leigh","year":"2012-10-27","translations":["Полное дублирование"],"quality":"bd","translation":"Полное дублирование","update":"2018-04-24 06:36:01","iframe_src":"//83.svetacdn.in/PfJ50H0ZBPg3/movie/16401"},{"id":16400,"title":"Человек-оркестр","kp_id":"161160","imdb_id":"tt0479113","world_art_id":null,"type":"movie","add":"2018-04-21 08:57:16","orig_title":"One Man Band","year":"2005-08-06","translations":["Оригинальная дорожка"],"quality":"dvdrip","translation":"Оригинальная дорожка","update":"2018-04-24 06:34:33","iframe_src":"//83.svetacdn.in/PfJ50H0ZBPg3/movie/16400"},{"id":16399,"title":"Моряк","kp_id":"487303","imdb_id":"tt1312996","world_art_id":null,"type":"movie","add":"2018-04-21 08:53:54","orig_title":"Marin","year":"2007-12-13","translations":["Оригинальная дорожка"],"quality":"hdtv","translation":"Оригинальная дорожка","update":"2018-04-24 06:33:29","iframe_src":"//83.svetacdn.in/PfJ50H0ZBPg3/movie/16399"},{"id":16398,"title":"Рождественская история","kp_id":"327408","imdb_id":"tt0087056","world_art_id":null,"type":"movie","add":"2018-04-20 23:04:47","orig_title":"A Christmas Carol","year":"1984-11-23","translations":["Любительский (одноголосый закадровый)"],"quality":"dvdrip","translation":"Любительский (одноголосый закадровый)","update":"2018-04-24 06:32:20","iframe_src":"//83.svetacdn.in/PfJ50H0ZBPg3/movie/16398"},{"id":16392,"title":"Поклонница","kp_id":"465010","imdb_id":"tt2856830","world_art_id":null,"type":"movie","add":"2018-04-20 22:49:28","orig_title":"Poklonnitsa","year":"2012-11-22","translations":["Оригинальная дорожка"],"quality":"hdtv","translation":"Оригинальная дорожка","update":"2018-04-24 06:31:35","iframe_src":"//83.svetacdn.in/PfJ50H0ZBPg3/movie/16392"},{"id":16390,"title":"Молодой детектив Ди: Восстание морского дракона","kp_id":"771356","imdb_id":"tt2992146","world_art_id":null,"type":"movie","add":"2018-04-20 22:44:26","orig_title":"Di Renjie: Shen du long wang","year":"2013-09-26","translations":["Любительский (двухголосый закадровый) (GREEN TEA)"],"quality":"bd","translation":"Любительский (двухголосый закадровый) (GREEN TEA)","update":"2018-04-24 06:30:37","iframe_src":"//83.svetacdn.in/PfJ50H0ZBPg3/movie/16390"},{"id":16387,"title":"Том и Джерри: Быстрый и бешеный","kp_id":"368584","imdb_id":"tt0487176","world_art_id":null,"type":"movie","add":"2018-04-20 08:06:21","orig_title":"Tom and Jerry: The Fast and the Furry","year":"2005-09-03","translations":["Профессиональный (многоголосый закадровый)"],"quality":"bd","translation":"Профессиональный (многоголосый закадровый)","update":"2018-04-24 06:28:09","iframe_src":"//83.svetacdn.in/PfJ50H0ZBPg3/movie/16387"},{"id":6076,"title":"Балто","kp_id":"7097","imdb_id":"tt0112453","world_art_id":null,"type":"movie","add":"2016-10-11 05:39:02","orig_title":"Balto","year":"1995-12-22","translations":["Профессиональный (многоголосый закадровый)","Полное дублирование"],"quality":"hdtv","translation":"Профессиональный (многоголосый закадровый)","update":"2018-04-24 06:39:07","iframe_src":"//83.svetacdn.in/PfJ50H0ZBPg3/movie/6076"},{"id":2366,"title":"Чумовая пятница","kp_id":"7091","imdb_id":"tt0322330","world_art_id":null,"type":"movie","add":"2016-05-19 13:47:54","orig_title":"Freaky Friday","year":"2003-08-04","translations":["Полное дублирование"],"quality":"bd","translation":"Полное дублирование","update":"2018-04-24 06:29:35","iframe_src":"//83.svetacdn.in/PfJ50H0ZBPg3/movie/2366"}],"current_page":1912,"first_page_url":"https://videocdn.tv/api/short?limit=100&api_token=RgFQdUIR2dRmwv8iYa5SnFNgnw3vpjKj&cache31912=31912&page=1","from":191101,"last_page":634,"last_page_url":"https://videocdn.tv/api/short?limit=100&api_token=RgFQdUIR2dRmwv8iYa5SnFNgnw3vpjKj&cache31912=31912&page=634","next_page_url":null,"path":"https://videocdn.tv/api/short","per_page":100,"prev_page_url":"https://videocdn.tv/api/short?limit=100&api_token=RgFQdUIR2dRmwv8iYa5SnFNgnw3vpjKj&cache31912=31912&page=1911","to":191120,"total":63367}