{"result":true,"data":[{"id":55354,"title":"Стела","kp_id":"1288416","imdb_id":"tt7135058","world_art_id":null,"type":"movie","add":"2021-12-19 22:31:46","orig_title":"Stela","year":"2020-09-18","translations":["Любительский (многоголосый закадровый) (Синема УС)"],"quality":"webdl","translation":"Любительский (многоголосый закадровый) (Синема УС)","update":"2021-12-20 10:21:45","iframe_src":"//7741.svetacdn.in/si4jsFRrtgrT/movie/55354"},{"id":55353,"title":"Увидимся на Рождество","kp_id":"4553635","imdb_id":"tt15185022","world_art_id":null,"type":"movie","add":"2021-12-19 22:29:48","orig_title":"See You Next Christmas","year":"2021-08-06","translations":["Любительский (многоголосый закадровый) (Синема УС)"],"quality":"webdl","translation":"Любительский (многоголосый закадровый) (Синема УС)","update":"2021-12-20 10:29:40","iframe_src":"//7741.svetacdn.in/si4jsFRrtgrT/movie/55353"},{"id":55351,"title":"Месть подают холодной","kp_id":"1376309","imdb_id":"tt11441458","world_art_id":null,"type":"movie","add":"2021-12-19 22:26:24","orig_title":"Kadaseela Biriyani","year":"2021-11-19","translations":["Любительский (многоголосый закадровый) (Синема УС)"],"quality":"webdl","translation":"Любительский (многоголосый закадровый) (Синема УС)","update":"2021-12-20 10:27:36","iframe_src":"//7741.svetacdn.in/si4jsFRrtgrT/movie/55351"},{"id":55349,"title":"Секс с пустотой","kp_id":"1437432","imdb_id":"tt13081440","world_art_id":null,"type":"movie","add":"2021-12-19 22:20:57","orig_title":"Fucking with Nobody","year":"2020-09-08","translations":["Любительский (многоголосый закадровый) (Синема УС)"],"quality":"webdl","translation":"Любительский (многоголосый закадровый) (Синема УС)","update":"2021-12-20 10:19:50","iframe_src":"//7741.svetacdn.in/si4jsFRrtgrT/movie/55349"},{"id":55348,"title":"Бал под голубой луной","kp_id":"4478563","imdb_id":"tt14849138","world_art_id":null,"type":"movie","add":"2021-12-19 22:18:43","orig_title":"Blue Moon Ball","year":"2021-09-24","translations":["Любительский (многоголосый закадровый) (Синема УС)"],"quality":"webdl","translation":"Любительский (многоголосый закадровый) (Синема УС)","update":"2021-12-20 10:17:45","iframe_src":"//7741.svetacdn.in/si4jsFRrtgrT/movie/55348"},{"id":55346,"title":"Обман дочери","kp_id":"4633402","imdb_id":"tt15386044","world_art_id":null,"type":"movie","add":"2021-12-19 22:15:38","orig_title":"A Daughter's Deceit","year":"2021-12-10","translations":["Любительский (многоголосый закадровый) (Синема УС)"],"quality":"webdl","translation":"Любительский (многоголосый закадровый) (Синема УС)","update":"2021-12-20 10:04:52","iframe_src":"//7741.svetacdn.in/si4jsFRrtgrT/movie/55346"},{"id":55344,"title":"Охота","kp_id":"962317","imdb_id":"tt5324456","world_art_id":null,"type":"movie","add":"2021-12-19 21:56:17","orig_title":"Vettah","year":"2016-02-26","translations":["Любительский (одноголосый закадровый) (Столяров Алекс)"],"quality":"dvdrip","translation":"Любительский (одноголосый закадровый) (Столяров Алекс)","update":"2021-12-19 22:53:05","iframe_src":"//7741.svetacdn.in/si4jsFRrtgrT/movie/55344"},{"id":55339,"title":"Осенние листья","kp_id":"9791","imdb_id":"tt0048967","world_art_id":null,"type":"movie","add":"2021-12-19 14:21:47","orig_title":"Autumn Leaves","year":"1956-08-01","translations":["Профессиональный (двухголосый закадровый) (Культура | Россия К)"],"quality":"webdl","translation":"Профессиональный (двухголосый закадровый) (Культура | Россия К)","update":"2021-12-20 06:37:54","iframe_src":"//7741.svetacdn.in/si4jsFRrtgrT/movie/55339"},{"id":9943,"title":"Предел желаний","kp_id":"428666","imdb_id":null,"world_art_id":null,"type":"serial","add":"2021-02-15 07:15:49","orig_title":"Предел желаний","year":"2009-06-16","translations":["Оригинальная дорожка"],"seasons_count":1,"episodes_count":16,"episodes":16,"update":"2021-02-15 08:52:34","iframe_src":"//7741.svetacdn.in/si4jsFRrtgrT/tv-series/9943"},{"id":9939,"title":"Некрасивая подружка. Чёрный кот","kp_id":"1412504","imdb_id":null,"world_art_id":null,"type":"serial","add":"2021-02-14 15:28:44","orig_title":"Некрасивая подружка. Чёрный кот","year":"2020-01-01","translations":["Оригинальная дорожка"],"seasons_count":1,"episodes_count":2,"episodes":2,"update":"2021-02-14 21:52:09","iframe_src":"//7741.svetacdn.in/si4jsFRrtgrT/tv-series/9939"},{"id":9938,"title":"Некрасивая подружка. Дело о четырёх блондинках","kp_id":"1412505","imdb_id":null,"world_art_id":null,"type":"serial","add":"2021-02-14 15:22:41","orig_title":"Некрасивая подружка. Дело о четырёх блондинках","year":"2020-01-01","translations":["Оригинальная дорожка"],"seasons_count":1,"episodes_count":2,"episodes":2,"update":"2021-02-14 21:48:52","iframe_src":"//7741.svetacdn.in/si4jsFRrtgrT/tv-series/9938"},{"id":9937,"title":"Headspace: руководство по медитации","kp_id":"4316311","imdb_id":"tt13617024","world_art_id":null,"type":"serial","add":"2021-02-14 14:57:11","orig_title":"Headspace: Guide to Meditation","year":"2021-01-01","translations":["Полное дублирование"],"seasons_count":1,"episodes_count":8,"episodes":8,"update":"2021-02-15 08:03:52","iframe_src":"//7741.svetacdn.in/si4jsFRrtgrT/tv-series/9937"},{"id":9936,"title":"Найди нас, мама","kp_id":"4326719","imdb_id":null,"world_art_id":null,"type":"serial","add":"2021-02-14 11:40:01","orig_title":"Найди нас, мама","year":"2021-02-13","translations":["Оригинальная дорожка"],"seasons_count":1,"episodes_count":2,"episodes":2,"update":"2021-02-14 20:11:06","iframe_src":"//7741.svetacdn.in/si4jsFRrtgrT/tv-series/9936"},{"id":9931,"title":"Прямая трансляция","kp_id":"1381443","imdb_id":"tt12299732","world_art_id":null,"type":"serial","add":"2021-02-14 06:10:34","orig_title":"Live Telecast","year":"2021-02-12","translations":["Любительский (многоголосый закадровый) (Ultradox)","Любительский (многоголосый закадровый) (ColdFilm)","Профессиональный (многоголосый закадровый) (BaibaKo)"],"seasons_count":1,"episodes_count":7,"episodes":7,"update":"2021-02-15 10:06:24","iframe_src":"//7741.svetacdn.in/si4jsFRrtgrT/tv-series/9931"},{"id":9929,"title":"Мертвые лилии","kp_id":"4360993","imdb_id":null,"world_art_id":null,"type":"serial","add":"2021-02-13 08:07:07","orig_title":"Мертвые лилии","year":"2021-01-01","translations":["Оригинальная дорожка"],"seasons_count":1,"episodes_count":8,"episodes":8,"update":"2021-02-13 16:59:40","iframe_src":"//7741.svetacdn.in/si4jsFRrtgrT/tv-series/9929"},{"id":9916,"title":"Не встречайся с ним, пожалуйста!","kp_id":"1443820","imdb_id":"tt13394428","world_art_id":null,"type":"serial","add":"2021-02-11 10:31:26","orig_title":"Jebal Geu Namja Mannaji Mayo","year":"2020-11-10","translations":["Любительский (двухголосый закадровый) (SoftBox)"],"seasons_count":1,"episodes_count":10,"episodes":10,"update":"2021-02-13 09:47:34","iframe_src":"//7741.svetacdn.in/si4jsFRrtgrT/tv-series/9916"},{"id":9911,"title":"Тихий омут","kp_id":"570123","imdb_id":"tt1998361","world_art_id":null,"type":"serial","add":"2021-02-11 06:04:59","orig_title":"Tikhiy omut","year":"2010-11-14","translations":["Оригинальная дорожка"],"seasons_count":1,"episodes_count":2,"episodes":2,"update":"2021-02-12 08:06:00","iframe_src":"//7741.svetacdn.in/si4jsFRrtgrT/tv-series/9911"},{"id":9909,"title":"Неукротимая Хильда","kp_id":"420178","imdb_id":"tt0163450","world_art_id":null,"type":"serial","add":"2021-02-10 20:21:10","orig_title":"Hilda Furacão","year":"1998-01-01","translations":["Профессиональный (двухголосый закадровый)"],"seasons_count":1,"episodes_count":25,"episodes":25,"update":"2021-02-14 12:19:09","iframe_src":"//7741.svetacdn.in/si4jsFRrtgrT/tv-series/9909"},{"id":9908,"title":"Просто Мария","kp_id":"942388","imdb_id":"tt5164970","world_art_id":null,"type":"serial","add":"2021-02-10 19:59:33","orig_title":"Simplemente María","year":"2015-11-09","translations":["Профессиональный (многоголосый закадровый)"],"seasons_count":1,"episodes_count":127,"episodes":127,"update":"2021-02-14 17:11:24","iframe_src":"//7741.svetacdn.in/si4jsFRrtgrT/tv-series/9908"},{"id":9906,"title":"Новая волна","kp_id":"401671","imdb_id":"tt0149409","world_art_id":null,"type":"serial","add":"2021-02-10 19:45:37","orig_title":"74.5 Uma Onda no Ar","year":"1994-01-01","translations":["Профессиональный (многоголосый закадровый)"],"seasons_count":1,"episodes_count":100,"episodes":100,"update":"2021-02-12 10:06:59","iframe_src":"//7741.svetacdn.in/si4jsFRrtgrT/tv-series/9906"},{"id":9901,"title":"Шикинья Гонзага","kp_id":"425933","imdb_id":"tt0181206","world_art_id":null,"type":"serial","add":"2021-02-10 17:00:28","orig_title":"Chiquinha Gonzaga","year":"1999-01-01","translations":["Профессиональный (многоголосый закадровый)"],"seasons_count":1,"episodes_count":30,"episodes":30,"update":"2021-02-12 08:01:27","iframe_src":"//7741.svetacdn.in/si4jsFRrtgrT/tv-series/9901"},{"id":9867,"title":"100 тысяч минут вместе","kp_id":"4327139","imdb_id":null,"world_art_id":null,"type":"serial","add":"2021-02-07 21:01:57","orig_title":"100 тысяч минут вместе","year":"2020-01-01","translations":["Оригинальная дорожка"],"seasons_count":1,"episodes_count":16,"episodes":16,"update":"2021-02-12 06:44:16","iframe_src":"//7741.svetacdn.in/si4jsFRrtgrT/tv-series/9867"},{"id":9825,"title":"Сталкеры","kp_id":"4309395","imdb_id":"tt12725434","world_art_id":null,"type":"serial","add":"2021-02-02 08:21:05","orig_title":"Epic Exploring","year":"2019-11-04","translations":["Профессиональный (одноголосый закадровый)"],"seasons_count":1,"episodes_count":10,"episodes":10,"update":"2021-02-14 10:46:11","iframe_src":"//7741.svetacdn.in/si4jsFRrtgrT/tv-series/9825"},{"id":9180,"title":"Герои","kp_id":"1448738","imdb_id":"tt12793360","world_art_id":null,"type":"serial","add":"2020-11-02 17:40:51","orig_title":"Da xia huo yuan jia","year":"2020-07-28","translations":["Любительский (одноголосый закадровый) (Береговых Виктор | Jet)"],"seasons_count":1,"episodes_count":45,"episodes":45,"update":"2021-02-15 13:35:25","iframe_src":"//7741.svetacdn.in/si4jsFRrtgrT/tv-series/9180"},{"id":8588,"title":"Презумпция невиновности","kp_id":"1112403","imdb_id":"tt8858386","world_art_id":null,"type":"serial","add":"2020-08-31 13:23:16","orig_title":"Prezumptsiya nevinovnosti","year":"2018-01-01","translations":["Оригинальная дорожка"],"seasons_count":1,"episodes_count":16,"episodes":16,"update":"2021-02-15 09:14:52","iframe_src":"//7741.svetacdn.in/si4jsFRrtgrT/tv-series/8588"},{"id":8376,"title":"Я - Бетти, дурнушка","kp_id":"310985","imdb_id":"tt0233127","world_art_id":null,"type":"serial","add":"2020-08-05 13:54:48","orig_title":"Yo soy Betty, la fea","year":"1999-10-25","translations":["Профессиональный (многоголосый закадровый) (Интра Комьюникейшнс | Intra Communications)","Профессиональный (многоголосый закадровый)"],"seasons_count":1,"episodes_count":169,"episodes":169,"update":"2021-02-13 16:08:00","iframe_src":"//7741.svetacdn.in/si4jsFRrtgrT/tv-series/8376"},{"id":38023,"title":"Когда я был певцом","kp_id":"104982","imdb_id":"tt0464828","world_art_id":null,"type":"movie","add":"2020-03-15 15:26:22","orig_title":"Quand j'étais chanteur","year":"2006-05-26","translations":["Профессиональный (многоголосый закадровый)","Профессиональный (многоголосый закадровый)"],"quality":"dvdrip","translation":"Профессиональный (многоголосый закадровый)","update":"2021-12-20 07:17:32","iframe_src":"//7741.svetacdn.in/si4jsFRrtgrT/movie/38023"},{"id":6198,"title":"Гамильтон","kp_id":"1137275","imdb_id":"tt5534588","world_art_id":null,"type":"serial","add":"2020-01-02 06:25:44","orig_title":"Hamilton","year":"2020-01-01","translations":["Любительский (многоголосый закадровый) (Octopus)","Любительский (многоголосый закадровый) (ColdFilm)","Профессиональный (многоголосый закадровый) (SDI Media | Iyuno-SDI Group Russia)"],"seasons_count":1,"episodes_count":10,"episodes":10,"update":"2021-02-15 12:01:36","iframe_src":"//7741.svetacdn.in/si4jsFRrtgrT/tv-series/6198"},{"id":5383,"title":"Наши матери, наши отцы","kp_id":"618935","imdb_id":"tt1883092","world_art_id":null,"type":"serial","add":"2019-10-03 12:27:06","orig_title":"Unsere Mütter, unsere Väter","year":"2013-03-17","translations":["Любительский (многоголосый закадровый)","Профессиональный (двухголосый закадровый) (Кубик в Кубе)"],"seasons_count":1,"episodes_count":3,"episodes":3,"update":"2021-02-14 19:12:22","iframe_src":"//7741.svetacdn.in/si4jsFRrtgrT/tv-series/5383"},{"id":21865,"title":"Тело для Франкенштейна","kp_id":"22587","imdb_id":"tt0071508","world_art_id":null,"type":"movie","add":"2019-01-27 11:10:13","orig_title":"Flesh for Frankenstein","year":"1973-11-30","translations":["Профессиональный (многоголосый закадровый) (ТВ3)","[EN] Original (English)","Профессиональный (многоголосый закадровый) (ТВ3)"],"quality":"bd","translation":"Профессиональный (многоголосый закадровый) (ТВ3)","update":"2021-12-20 07:35:03","iframe_src":"//7741.svetacdn.in/si4jsFRrtgrT/movie/21865"},{"id":18880,"title":"Я полюбил","kp_id":"76506","imdb_id":"tt0100095","world_art_id":null,"type":"movie","add":"2018-09-09 12:14:56","orig_title":"Maine Pyar Kiya","year":"1989-12-29","translations":["Профессиональный (многоголосый закадровый)","Профессиональный (многоголосый закадровый)"],"quality":"webdl","translation":"Профессиональный (многоголосый закадровый)","update":"2021-12-20 07:15:49","iframe_src":"//7741.svetacdn.in/si4jsFRrtgrT/movie/18880"},{"id":11297,"title":"Перестрелка","kp_id":"844017","imdb_id":"tt4158096","world_art_id":null,"type":"movie","add":"2017-05-01 13:38:56","orig_title":"Free Fire","year":"2016-09-08","translations":["Полное дублирование","Полное дублирование (iTunes)","Полное дублирование"],"quality":"webdl","translation":"Полное дублирование","update":"2021-12-20 07:34:05","iframe_src":"//7741.svetacdn.in/si4jsFRrtgrT/movie/11297"},{"id":9613,"title":"Призраки Элоиз","kp_id":"846027","imdb_id":"tt3692652","world_art_id":null,"type":"movie","add":"2017-02-12 08:22:12","orig_title":"Eloise","year":"2017-01-05","translations":["Любительский (одноголосый закадровый) (Хихикающий доктор)","Полное дублирование","Полное дублирование (Мосфильм)"],"quality":"webdl","translation":"Любительский (одноголосый закадровый) (Хихикающий доктор)","update":"2021-12-20 06:29:55","iframe_src":"//7741.svetacdn.in/si4jsFRrtgrT/movie/9613"},{"id":8914,"title":"Похищение","kp_id":"902243","imdb_id":"tt4621630","world_art_id":null,"type":"movie","add":"2017-01-15 14:40:39","orig_title":"Secuestro","year":"2016-07-26","translations":["Любительский (одноголосый закадровый)","Любительский (многоголосый закадровый) (@MUZOBOZ@)","Профессиональный (многоголосый закадровый) (GreenРай Studio)","Любительский (одноголосый закадровый) (BadBajo | Важенин Андрей)"],"quality":"hdtv","translation":"Любительский (одноголосый закадровый)","update":"2021-12-20 07:31:27","iframe_src":"//7741.svetacdn.in/si4jsFRrtgrT/movie/8914"},{"id":8212,"title":"Демон внутри","kp_id":"807313","imdb_id":"tt3289956","world_art_id":null,"type":"movie","add":"2016-12-21 07:00:06","orig_title":"The Autopsy of Jane Doe","year":"2016-09-09","translations":["Любительский (одноголосый закадровый)","Профессиональный (многоголосый закадровый) (AlexFilm)","Полное дублирование (iTunes)","Профессиональный (многоголосый закадровый)"],"quality":"webdl","translation":"Любительский (одноголосый закадровый)","update":"2021-12-20 07:09:45","iframe_src":"//7741.svetacdn.in/si4jsFRrtgrT/movie/8212"},{"id":7248,"title":"Нас приняли!","kp_id":"103627","imdb_id":"tt0384793","world_art_id":null,"type":"movie","add":"2016-11-09 15:55:08","orig_title":"Accepted","year":"2006-08-18","translations":["Полное дублирование","Полное дублирование (Пифагор)"],"quality":"hddvd","translation":"Полное дублирование","update":"2021-12-20 07:28:24","iframe_src":"//7741.svetacdn.in/si4jsFRrtgrT/movie/7248"},{"id":3969,"title":"Двойная жизнь Вероники","kp_id":"18317","imdb_id":"tt0101765","world_art_id":null,"type":"movie","add":"2016-07-16 02:24:40","orig_title":"La double vie de Véronique","year":"1991-05-15","translations":["Профессиональный (многоголосый закадровый)","Профессиональный (многоголосый закадровый) (Кармен Видео)"],"quality":"bd","translation":"Профессиональный (многоголосый закадровый)","update":"2021-12-20 06:42:29","iframe_src":"//7741.svetacdn.in/si4jsFRrtgrT/movie/3969"},{"id":2812,"title":"Поворот не туда 4: Кровавое начало","kp_id":"586138","imdb_id":"tt1865567","world_art_id":null,"type":"movie","add":"2016-05-31 15:42:28","orig_title":"Wrong Turn 4: Bloody Beginnings","year":"2011-10-25","translations":["Профессиональный (многоголосый закадровый)","Профессиональный (многоголосый закадровый)"],"quality":"bd","translation":"Профессиональный (многоголосый закадровый)","update":"2021-12-20 07:00:36","iframe_src":"//7741.svetacdn.in/si4jsFRrtgrT/movie/2812"},{"id":1796,"title":"Гленгарри Глен Росс (Американцы)","kp_id":"4872","imdb_id":"tt0104348","world_art_id":null,"type":"movie","add":"2016-05-03 05:04:36","orig_title":"Glengarry Glen Ross","year":"1992-09-16","translations":["Профессиональный (многоголосый закадровый)","Профессиональный (многоголосый закадровый) (Cinema Prestige)"],"quality":"bd","translation":"Профессиональный (многоголосый закадровый)","update":"2021-12-20 07:07:42","iframe_src":"//7741.svetacdn.in/si4jsFRrtgrT/movie/1796"},{"id":331,"title":"Бриллиантовая рука","kp_id":"46225","imdb_id":"tt0062759","world_art_id":null,"type":"movie","add":"2016-03-24 16:43:06","orig_title":"Brilliantovaya ruka","year":"1969-04-28","translations":["Оригинальная дорожка","Оригинальная дорожка"],"quality":"bd","translation":"Оригинальная дорожка","update":"2021-12-20 07:37:11","iframe_src":"//7741.svetacdn.in/si4jsFRrtgrT/movie/331"}],"current_page":189,"first_page_url":"https://videocdn.tv/api/short?limit=100&api_token=X6EwAUfE5M9xbo7y0Bp0aPf3uXxG2KLL&cache3189=3189&page=1","from":18801,"last_page":706,"last_page_url":"https://videocdn.tv/api/short?limit=100&api_token=X6EwAUfE5M9xbo7y0Bp0aPf3uXxG2KLL&cache3189=3189&page=706","next_page_url":"https://videocdn.tv/api/short?limit=100&api_token=X6EwAUfE5M9xbo7y0Bp0aPf3uXxG2KLL&cache3189=3189&page=190","path":"https://videocdn.tv/api/short","per_page":100,"prev_page_url":"https://videocdn.tv/api/short?limit=100&api_token=X6EwAUfE5M9xbo7y0Bp0aPf3uXxG2KLL&cache3189=3189&page=188","to":18840,"total":70558}