{"result":true,"data":[{"id":52300,"title":"Миссия Ули Фанк","kp_id":"1340408","imdb_id":"tt11545370","world_art_id":null,"type":"movie","add":"2021-08-08 19:32:40","orig_title":"Mission Ulja Funk","year":"2021-06-09","translations":["Любительский (многоголосый закадровый) (Синема УС)"],"quality":"webdl","translation":"Любительский (многоголосый закадровый) (Синема УС)","update":"2021-08-09 05:34:42","iframe_src":"//83.svetacdn.in/PfJ50H0ZBPg3/movie/52300"},{"id":52298,"title":"Скейтеры","kp_id":"1350656","imdb_id":"tt11780956","world_art_id":null,"type":"movie","add":"2021-08-08 19:30:03","orig_title":"Boarders","year":"2021-07-15","translations":["Любительский (многоголосый закадровый) (Синема УС)"],"quality":"webdl","translation":"Любительский (многоголосый закадровый) (Синема УС)","update":"2021-08-09 05:34:08","iframe_src":"//83.svetacdn.in/PfJ50H0ZBPg3/movie/52298"},{"id":52297,"title":"Ночной полет","kp_id":"7442","imdb_id":"tt0119784","world_art_id":null,"type":"movie","add":"2021-08-08 17:42:03","orig_title":"The Night Flier","year":"1997-04-30","translations":["Авторский (одноголосый закадровый) (Живов Юрий)","Профессиональный (двухголосый закадровый)"],"quality":"dvdrip","translation":"Авторский (одноголосый закадровый) (Живов Юрий)","update":"2021-08-09 06:22:44","iframe_src":"//83.svetacdn.in/PfJ50H0ZBPg3/movie/52297"},{"id":52294,"title":"Ночная поездка","kp_id":"1305892","imdb_id":"tt10989240","world_art_id":null,"type":"movie","add":"2021-08-08 08:32:58","orig_title":"Night Drive","year":"2019-09-22","translations":["Любительский (многоголосый закадровый) (Синема УС)"],"quality":"webdl","translation":"Любительский (многоголосый закадровый) (Синема УС)","update":"2021-08-08 18:09:24","iframe_src":"//83.svetacdn.in/PfJ50H0ZBPg3/movie/52294"},{"id":52260,"title":"Жизнь в аренду","kp_id":"1259297","imdb_id":"tt10224714","world_art_id":null,"type":"movie","add":"2021-08-06 10:21:14","orig_title":"Affittasi Vita","year":"2019-11-19","translations":["Любительский (многоголосый закадровый) (Синема УС)"],"quality":"webdl","translation":"Любительский (многоголосый закадровый) (Синема УС)","update":"2021-08-08 20:04:25","iframe_src":"//83.svetacdn.in/PfJ50H0ZBPg3/movie/52260"},{"id":52257,"title":"Святая Тринити","kp_id":"1190274","imdb_id":"tt8558480","world_art_id":null,"type":"movie","add":"2021-08-06 09:54:22","orig_title":"Holy Trinity","year":"2019-07-19","translations":["Любительский (многоголосый закадровый) (Синема УС)"],"quality":"webdl","translation":"Любительский (многоголосый закадровый) (Синема УС)","update":"2021-08-08 20:06:23","iframe_src":"//83.svetacdn.in/PfJ50H0ZBPg3/movie/52257"},{"id":51498,"title":"Благодари судьбу","kp_id":"10658","imdb_id":"tt0036422","world_art_id":null,"type":"movie","add":"2021-07-01 06:44:50","orig_title":"Thank Your Lucky Stars","year":"1943-09-25","translations":["Профессиональный (многоголосый закадровый) (Пифагор)","[EN] Original (English)"],"quality":"bd","translation":"Профессиональный (многоголосый закадровый) (Пифагор)","update":"2021-08-09 06:58:32","iframe_src":"//83.svetacdn.in/PfJ50H0ZBPg3/movie/51498"},{"id":51132,"title":"Следуя за флотом","kp_id":"26672","imdb_id":"tt0027630","world_art_id":null,"type":"movie","add":"2021-06-12 15:07:23","orig_title":"Follow the Fleet","year":"1936-02-20","translations":["Профессиональный (многоголосый закадровый) (Светла)","[EN] Original (English)"],"quality":"webdl","translation":"Профессиональный (многоголосый закадровый) (Светла)","update":"2021-08-09 06:45:00","iframe_src":"//83.svetacdn.in/PfJ50H0ZBPg3/movie/51132"},{"id":51089,"title":"Ты никогда не была восхитительнее","kp_id":"11974","imdb_id":"tt0035583","world_art_id":null,"type":"movie","add":"2021-06-11 05:56:07","orig_title":"You Were Never Lovelier","year":"1942-11-19","translations":["Профессиональный (многоголосый закадровый) (SomeWax)","[EN] Original (English)"],"quality":"webdl","translation":"Профессиональный (многоголосый закадровый) (SomeWax)","update":"2021-08-09 06:38:13","iframe_src":"//83.svetacdn.in/PfJ50H0ZBPg3/movie/51089"},{"id":51088,"title":"Веселый развод","kp_id":"16171","imdb_id":"tt0025164","world_art_id":null,"type":"movie","add":"2021-06-11 05:54:47","orig_title":"The Gay Divorcee","year":"1934-10-12","translations":["Профессиональный (многоголосый закадровый) (Светла)","[EN] Original (English)"],"quality":"webdl","translation":"Профессиональный (многоголосый закадровый) (Светла)","update":"2021-08-09 06:39:13","iframe_src":"//83.svetacdn.in/PfJ50H0ZBPg3/movie/51088"},{"id":50967,"title":"Мадам Сатана","kp_id":"38721","imdb_id":"tt0021106","world_art_id":null,"type":"movie","add":"2021-06-06 06:54:06","orig_title":"Madam Satan","year":"1930-09-20","translations":["Любительский (одноголосый закадровый) (Клушин Игорь | хромолка)","[EN] Original (English)"],"quality":"webdl","translation":"Любительский (одноголосый закадровый) (Клушин Игорь | хромолка)","update":"2021-08-09 06:42:08","iframe_src":"//83.svetacdn.in/PfJ50H0ZBPg3/movie/50967"},{"id":50736,"title":"Сумасшедшая мамаша","kp_id":"1858","imdb_id":"tt0072829","world_art_id":null,"type":"movie","add":"2021-05-30 07:37:18","orig_title":"Crazy Mama","year":"1975-11-05","translations":["Профессиональный (многоголосый закадровый) (СВ-Дубль)","[EN] Original (English)"],"quality":"bd","translation":"Профессиональный (многоголосый закадровый) (СВ-Дубль)","update":"2021-08-09 07:03:46","iframe_src":"//83.svetacdn.in/PfJ50H0ZBPg3/movie/50736"},{"id":50733,"title":"Шерлок Холмс перед лицом смерти","kp_id":"199533","imdb_id":"tt0036348","world_art_id":null,"type":"movie","add":"2021-05-29 15:13:02","orig_title":"Sherlock Holmes Faces Death","year":"1943-09-17","translations":["Профессиональный (многоголосый закадровый) (DVD Classic)","[EN] Original (English)"],"quality":"bd","translation":"Профессиональный (многоголосый закадровый) (DVD Classic)","update":"2021-08-09 07:00:55","iframe_src":"//83.svetacdn.in/PfJ50H0ZBPg3/movie/50733"},{"id":50732,"title":"Паучиха","kp_id":"201972","imdb_id":"tt0037303","world_art_id":null,"type":"movie","add":"2021-05-29 15:11:42","orig_title":"The Spider Woman","year":"1943-12-10","translations":["Профессиональный (многоголосый закадровый) (DVD Classic)","[EN] Original (English)"],"quality":"bd","translation":"Профессиональный (многоголосый закадровый) (DVD Classic)","update":"2021-08-09 06:55:17","iframe_src":"//83.svetacdn.in/PfJ50H0ZBPg3/movie/50732"},{"id":50702,"title":"Улыбка","kp_id":"2204","imdb_id":"tt0073722","world_art_id":null,"type":"movie","add":"2021-05-28 05:11:24","orig_title":"Smile","year":"1975-03-20","translations":["Профессиональный (двухголосый закадровый) (НТВ)","[EN] Original (English)"],"quality":"bd","translation":"Профессиональный (двухголосый закадровый) (НТВ)","update":"2021-08-09 07:00:12","iframe_src":"//83.svetacdn.in/PfJ50H0ZBPg3/movie/50702"},{"id":50701,"title":"Это забавное чувство","kp_id":"13183","imdb_id":"tt0059794","world_art_id":null,"type":"movie","add":"2021-05-28 05:09:53","orig_title":"That Funny Feeling","year":"1965-08-14","translations":["Любительский (одноголосый закадровый) (Клушин Игорь | хромолка)","[EN] Original (English)"],"quality":"bd","translation":"Любительский (одноголосый закадровый) (Клушин Игорь | хромолка)","update":"2021-08-09 06:57:00","iframe_src":"//83.svetacdn.in/PfJ50H0ZBPg3/movie/50701"},{"id":50683,"title":"Потерянный горизонт","kp_id":"17072","imdb_id":"tt0070337","world_art_id":null,"type":"movie","add":"2021-05-26 13:12:48","orig_title":"Lost Horizon","year":"1973-03-14","translations":["Профессиональный (многоголосый закадровый) (СВ-Дубль)","[EN] Original (English)"],"quality":"bd","translation":"Профессиональный (многоголосый закадровый) (СВ-Дубль)","update":"2021-08-09 07:02:59","iframe_src":"//83.svetacdn.in/PfJ50H0ZBPg3/movie/50683"},{"id":50682,"title":"Потерянный горизонт","kp_id":"8210","imdb_id":"tt0029162","world_art_id":null,"type":"movie","add":"2021-05-26 13:11:12","orig_title":"Lost Horizon","year":"1937-02-18","translations":["Профессиональный (многоголосый закадровый) (DVD Classic)","[EN] Original (English)"],"quality":"webdl","translation":"Профессиональный (многоголосый закадровый) (DVD Classic)","update":"2021-08-09 06:43:56","iframe_src":"//83.svetacdn.in/PfJ50H0ZBPg3/movie/50682"},{"id":50609,"title":"Прогулка под весенним дождем","kp_id":"929","imdb_id":"tt0066542","world_art_id":null,"type":"movie","add":"2021-05-24 09:24:25","orig_title":"A Walk in the Spring Rain","year":"1970-04-09","translations":["Профессиональный (многоголосый закадровый) (5-й канал СПб)","[EN] Original (English)"],"quality":"webdl","translation":"Профессиональный (многоголосый закадровый) (5-й канал СПб)","update":"2021-08-09 06:46:48","iframe_src":"//83.svetacdn.in/PfJ50H0ZBPg3/movie/50609"},{"id":5953,"title":"Шторм","kp_id":"477509","imdb_id":"tt1415244","world_art_id":null,"type":"serial","add":"2019-12-05 17:28:47","orig_title":"The Storm","year":"2009-07-26","translations":["Профессиональный (многоголосый закадровый)"],"seasons_count":1,"episodes_count":2,"episodes":2,"update":"2019-12-05 18:38:47","iframe_src":"//83.svetacdn.in/PfJ50H0ZBPg3/tv-series/5953"},{"id":5943,"title":"Бежать нельзя погибнуть","kp_id":"921498","imdb_id":null,"world_art_id":null,"type":"serial","add":"2019-12-04 18:48:23","orig_title":"Бежать нельзя погибнуть","year":"2015-07-18","translations":["Оригинальная дорожка"],"seasons_count":1,"episodes_count":2,"episodes":2,"update":"2019-12-05 12:08:43","iframe_src":"//83.svetacdn.in/PfJ50H0ZBPg3/tv-series/5943"},{"id":5942,"title":"Приказ вернуться живым","kp_id":"1049635","imdb_id":null,"world_art_id":null,"type":"serial","add":"2019-12-04 18:46:03","orig_title":"Prikaz vernutsya zhivym","year":"2015-01-01","translations":["Оригинальная дорожка"],"seasons_count":1,"episodes_count":5,"episodes":5,"update":"2019-12-05 12:06:48","iframe_src":"//83.svetacdn.in/PfJ50H0ZBPg3/tv-series/5942"},{"id":5939,"title":"Снайперша","kp_id":"1114875","imdb_id":null,"world_art_id":null,"type":"serial","add":"2019-12-04 11:29:29","orig_title":"Snaypersha","year":"2017-01-01","translations":["Оригинальная дорожка"],"seasons_count":1,"episodes_count":4,"episodes":4,"update":"2019-12-05 12:10:55","iframe_src":"//83.svetacdn.in/PfJ50H0ZBPg3/tv-series/5939"},{"id":5938,"title":"Ковчег Марка","kp_id":"894002","imdb_id":"tt9556470","world_art_id":null,"type":"serial","add":"2019-12-04 10:58:52","orig_title":"Kovcheg Marka","year":"2015-10-17","translations":["Оригинальная дорожка"],"seasons_count":1,"episodes_count":4,"episodes":4,"update":"2019-12-04 19:33:17","iframe_src":"//83.svetacdn.in/PfJ50H0ZBPg3/tv-series/5938"},{"id":5931,"title":"Жизнь с Луи","kp_id":"85057","imdb_id":"tt0112047","world_art_id":null,"type":"serial","add":"2019-12-03 21:02:19","orig_title":"Life with Louie","year":"1995-06-18","translations":["Полное дублирование"],"seasons_count":3,"episodes_count":38,"episodes":13,"update":"2019-12-05 20:58:45","iframe_src":"//83.svetacdn.in/PfJ50H0ZBPg3/tv-series/5931"},{"id":5930,"title":"Краткий курс счастливой жизни","kp_id":"574907","imdb_id":"tt2606188","world_art_id":null,"type":"serial","add":"2019-12-03 20:57:43","orig_title":"Kratkiy kurs schastlivoy zhizni","year":"2012-03-12","translations":["Оригинальная дорожка"],"seasons_count":1,"episodes_count":16,"episodes":16,"update":"2019-12-04 11:27:46","iframe_src":"//83.svetacdn.in/PfJ50H0ZBPg3/tv-series/5930"},{"id":5927,"title":"И все-таки я люблю...","kp_id":"405668","imdb_id":"tt0905579","world_art_id":null,"type":"serial","add":"2019-12-03 17:20:18","orig_title":"I vsyo-taki ya lyublyu...","year":"2007-11-01","translations":["Оригинальная дорожка"],"seasons_count":1,"episodes_count":24,"episodes":24,"update":"2019-12-04 07:36:00","iframe_src":"//83.svetacdn.in/PfJ50H0ZBPg3/tv-series/5927"},{"id":5926,"title":"Трон: Восстание","kp_id":"576152","imdb_id":"tt1812523","world_art_id":null,"type":"serial","add":"2019-12-03 15:58:02","orig_title":"TRON: Uprising","year":"2012-11-05","translations":["Полное дублирование (Discovery)","Полное дублирование (Disney Channel)"],"seasons_count":1,"episodes_count":19,"episodes":19,"update":"2019-12-04 07:27:52","iframe_src":"//83.svetacdn.in/PfJ50H0ZBPg3/tv-series/5926"},{"id":5925,"title":"Новый Человек-паук","kp_id":"387468","imdb_id":"tt0290983","world_art_id":null,"type":"serial","add":"2019-12-03 15:50:36","orig_title":"Spider-Man","year":"2003-07-11","translations":["Полное дублирование"],"seasons_count":1,"episodes_count":13,"episodes":13,"update":"2019-12-04 07:04:43","iframe_src":"//83.svetacdn.in/PfJ50H0ZBPg3/tv-series/5925"},{"id":5923,"title":"Бэтмен","kp_id":"94681","imdb_id":"tt0103359","world_art_id":null,"type":"serial","add":"2019-12-03 12:51:13","orig_title":"Batman: The Animated Series","year":"1992-09-05","translations":["Полное дублирование"],"seasons_count":4,"episodes_count":85,"episodes":5,"update":"2019-12-04 21:15:31","iframe_src":"//83.svetacdn.in/PfJ50H0ZBPg3/tv-series/5923"},{"id":5922,"title":"Супермен","kp_id":"229195","imdb_id":"tt0115378","world_art_id":null,"type":"serial","add":"2019-12-03 12:42:33","orig_title":"Superman","year":"1996-09-06","translations":["Полное дублирование"],"seasons_count":3,"episodes_count":54,"episodes":13,"update":"2019-12-04 20:09:29","iframe_src":"//83.svetacdn.in/PfJ50H0ZBPg3/tv-series/5922"},{"id":5917,"title":"Однажды в Одессе","kp_id":"1112351","imdb_id":null,"world_art_id":null,"type":"serial","add":"2019-12-02 20:47:25","orig_title":"Однажды в Одессе","year":"2016-01-01","translations":["Оригинальная дорожка"],"seasons_count":2,"episodes_count":20,"episodes":12,"update":"2019-12-04 11:17:37","iframe_src":"//83.svetacdn.in/PfJ50H0ZBPg3/tv-series/5917"},{"id":5914,"title":"Последний москаль","kp_id":"793648","imdb_id":"tt4553866","world_art_id":null,"type":"serial","add":"2019-12-02 13:38:12","orig_title":"Posledniy moskal","year":"2015-04-14","translations":["Оригинальная дорожка"],"seasons_count":2,"episodes_count":32,"episodes":16,"update":"2019-12-03 20:43:12","iframe_src":"//83.svetacdn.in/PfJ50H0ZBPg3/tv-series/5914"},{"id":5913,"title":"Тысячелетие","kp_id":"94855","imdb_id":"tt0115270","world_art_id":null,"type":"serial","add":"2019-12-02 12:56:22","orig_title":"Millennium","year":"1996-10-25","translations":["Авторский (одноголосый закадровый) (Живов Юрий)"],"seasons_count":3,"episodes_count":67,"episodes":22,"update":"2019-12-03 20:24:31","iframe_src":"//83.svetacdn.in/PfJ50H0ZBPg3/tv-series/5913"},{"id":5911,"title":"Друзья ангелов","kp_id":"565197","imdb_id":"tt1731708","world_art_id":null,"type":"serial","add":"2019-12-02 10:01:08","orig_title":"Angel's Friends","year":"2008-04-12","translations":["Полное дублирование","Профессиональный (многоголосый закадровый)"],"seasons_count":2,"episodes_count":104,"episodes":52,"update":"2019-12-05 07:42:22","iframe_src":"//83.svetacdn.in/PfJ50H0ZBPg3/tv-series/5911"},{"id":5869,"title":"Харви Бикс","kp_id":"891706","imdb_id":"tt3219170","world_art_id":null,"type":"serial","add":"2019-11-27 19:13:04","orig_title":"Harvey Beaks","year":"2015-03-29","translations":["Полное дублирование (Nickelodeon)"],"seasons_count":2,"episodes_count":52,"episodes":26,"update":"2019-12-04 19:41:19","iframe_src":"//83.svetacdn.in/PfJ50H0ZBPg3/tv-series/5869"},{"id":5844,"title":"Виолетта из Атамановки","kp_id":"780000","imdb_id":null,"world_art_id":null,"type":"serial","add":"2019-11-26 11:41:17","orig_title":"Виолетта из Атамановки","year":"2014-03-14","translations":["Оригинальная дорожка"],"seasons_count":1,"episodes_count":4,"episodes":4,"update":"2019-12-03 19:58:18","iframe_src":"//83.svetacdn.in/PfJ50H0ZBPg3/tv-series/5844"},{"id":5812,"title":"Горе от ума","kp_id":"1316615","imdb_id":null,"world_art_id":null,"type":"serial","add":"2019-11-23 12:17:33","orig_title":"Горе от ума","year":"2019-11-15","translations":["Оригинальная дорожка"],"seasons_count":1,"episodes_count":8,"episodes":8,"update":"2019-12-05 18:12:50","iframe_src":"//83.svetacdn.in/PfJ50H0ZBPg3/tv-series/5812"},{"id":5612,"title":"Раузан","kp_id":"419572","imdb_id":"tt0261943","world_art_id":null,"type":"serial","add":"2019-11-03 08:17:08","orig_title":"Rauzán","year":"2000-10-23","translations":["Профессиональный (многоголосый закадровый)"],"seasons_count":1,"episodes_count":100,"episodes":100,"update":"2019-12-05 12:27:42","iframe_src":"//83.svetacdn.in/PfJ50H0ZBPg3/tv-series/5612"},{"id":4055,"title":"Давайте потанцуем","kp_id":"12810","imdb_id":"tt0029546","world_art_id":null,"type":"movie","add":"2016-07-20 11:50:46","orig_title":"Shall We Dance","year":"1937-05-07","translations":["Профессиональный (многоголосый закадровый)","Профессиональный (многоголосый закадровый) (Светла)","[EN] Original (English)"],"quality":"webdl","translation":"Профессиональный (многоголосый закадровый)","update":"2021-08-09 06:41:00","iframe_src":"//83.svetacdn.in/PfJ50H0ZBPg3/movie/4055"}],"current_page":400,"first_page_url":"https://videocdn.tv/api/short?limit=100&api_token=RgFQdUIR2dRmwv8iYa5SnFNgnw3vpjKj&cache3400=3400&page=1","from":39901,"last_page":707,"last_page_url":"https://videocdn.tv/api/short?limit=100&api_token=RgFQdUIR2dRmwv8iYa5SnFNgnw3vpjKj&cache3400=3400&page=707","next_page_url":"https://videocdn.tv/api/short?limit=100&api_token=RgFQdUIR2dRmwv8iYa5SnFNgnw3vpjKj&cache3400=3400&page=401","path":"https://videocdn.tv/api/short","per_page":100,"prev_page_url":"https://videocdn.tv/api/short?limit=100&api_token=RgFQdUIR2dRmwv8iYa5SnFNgnw3vpjKj&cache3400=3400&page=399","to":39940,"total":70662}