{"result":true,"data":[{"id":42392,"title":"Шаг за шагом","kp_id":"1263614","imdb_id":"tt10276470","world_art_id":null,"type":"movie","add":"2020-08-10 07:16:33","orig_title":"Work It","year":"2020-08-07","translations":["Любительский (многоголосый закадровый) (@MUZOBOZ@)"],"quality":"webdl","translation":"Любительский (многоголосый закадровый) (@MUZOBOZ@)","update":"2020-08-10 19:09:44","iframe_src":"//83.svetacdn.in/PfJ50H0ZBPg3/movie/42392"},{"id":42391,"title":"Веселые гастроли на Черном море","kp_id":"445102","imdb_id":null,"world_art_id":null,"type":"movie","add":"2020-08-10 07:12:22","orig_title":"Веселые гастроли на Черном море","year":"2020-08-06","translations":["Оригинальная дорожка"],"quality":"webdl","translation":"Оригинальная дорожка","update":"2020-08-10 17:49:35","iframe_src":"//83.svetacdn.in/PfJ50H0ZBPg3/movie/42391"},{"id":42372,"title":"В дальних краях","kp_id":"1027499","imdb_id":"tt6063616","world_art_id":null,"type":"movie","add":"2020-08-08 06:38:17","orig_title":"Far Away Places","year":"2018-01-01","translations":["Любительский (многоголосый закадровый) (Синема УС)"],"quality":"webdl","translation":"Любительский (многоголосый закадровый) (Синема УС)","update":"2020-08-08 09:07:19","iframe_src":"//83.svetacdn.in/PfJ50H0ZBPg3/movie/42372"},{"id":42371,"title":"Бабулин дом","kp_id":"1167361","imdb_id":"tt8637302","world_art_id":null,"type":"movie","add":"2020-08-08 06:33:24","orig_title":"Grandma's House","year":"2018-10-20","translations":["Любительский (многоголосый закадровый) (Синема УС)"],"quality":"webdl","translation":"Любительский (многоголосый закадровый) (Синема УС)","update":"2020-08-08 09:06:09","iframe_src":"//83.svetacdn.in/PfJ50H0ZBPg3/movie/42371"},{"id":42370,"title":"Средь горных скал","kp_id":"1098213","imdb_id":"tt7203330","world_art_id":null,"type":"movie","add":"2020-08-07 20:36:40","orig_title":"Among Mountain Crags","year":"2018-10-05","translations":["Любительский (двухголосый закадровый) (Колобок)"],"quality":"webdl","translation":"Любительский (двухголосый закадровый) (Колобок)","update":"2020-08-09 03:58:31","iframe_src":"//83.svetacdn.in/PfJ50H0ZBPg3/movie/42370"},{"id":42368,"title":"Нежность по-американски","kp_id":"1225618","imdb_id":"tt8975162","world_art_id":null,"type":"movie","add":"2020-08-07 20:31:14","orig_title":"American Tender","year":"2018-10-18","translations":["Любительский (многоголосый закадровый) (Синема УС)"],"quality":"webdl","translation":"Любительский (многоголосый закадровый) (Синема УС)","update":"2020-08-08 09:05:24","iframe_src":"//83.svetacdn.in/PfJ50H0ZBPg3/movie/42368"},{"id":42367,"title":"Старая дева","kp_id":"1151246","imdb_id":"tt8452136","world_art_id":null,"type":"movie","add":"2020-08-07 20:30:32","orig_title":"Spinster","year":"2019-12-06","translations":["Любительский (многоголосый закадровый) (Синема УС)"],"quality":"webdl","translation":"Любительский (многоголосый закадровый) (Синема УС)","update":"2020-08-10 15:27:52","iframe_src":"//83.svetacdn.in/PfJ50H0ZBPg3/movie/42367"},{"id":42362,"title":"Макс Перезагрузка и Бластеры Пустоты","kp_id":"1085390","imdb_id":"tt7424290","world_art_id":null,"type":"movie","add":"2020-08-07 20:17:20","orig_title":"Max Reload and the Nether Blasters","year":"2020-08-07","translations":["Любительский (многоголосый закадровый) (@MUZOBOZ@)"],"quality":"hddvd","translation":"Любительский (многоголосый закадровый) (@MUZOBOZ@)","update":"2020-08-08 05:39:55","iframe_src":"//83.svetacdn.in/PfJ50H0ZBPg3/movie/42362"},{"id":42360,"title":"Как сымитировать войну","kp_id":"1138637","imdb_id":"tt4665586","world_art_id":null,"type":"movie","add":"2020-08-07 20:07:32","orig_title":"How to Fake a War","year":"2019-06-22","translations":["Любительский (многоголосый закадровый) (Синема УС)"],"quality":"webdl","translation":"Любительский (многоголосый закадровый) (Синема УС)","update":"2020-08-10 15:32:13","iframe_src":"//83.svetacdn.in/PfJ50H0ZBPg3/movie/42360"},{"id":42354,"title":"Психологини на карантине","kp_id":"1388518","imdb_id":null,"world_art_id":null,"type":"movie","add":"2020-08-07 17:31:14","orig_title":"Психологини на карантине","year":"2020-05-28","translations":["Оригинальная дорожка"],"quality":"webdl","translation":"Оригинальная дорожка","update":"2020-08-08 09:02:31","iframe_src":"//83.svetacdn.in/PfJ50H0ZBPg3/movie/42354"},{"id":42352,"title":"Пингвин","kp_id":"1328622","imdb_id":"tt11323316","world_art_id":null,"type":"movie","add":"2020-08-07 12:15:05","orig_title":"Penguin","year":"2020-06-19","translations":["Любительский (многоголосый закадровый) (ICG + OnisFilms)"],"quality":"webdl","translation":"Любительский (многоголосый закадровый) (ICG + OnisFilms)","update":"2020-08-07 17:01:05","iframe_src":"//83.svetacdn.in/PfJ50H0ZBPg3/movie/42352"},{"id":42349,"title":"Убийца мечты","kp_id":"1157683","imdb_id":"tt7817890","world_art_id":null,"type":"movie","add":"2020-08-07 10:04:00","orig_title":"Dream Killer","year":"2019-04-25","translations":["Любительский (многоголосый закадровый) (Синема УС)"],"quality":"webdl","translation":"Любительский (многоголосый закадровый) (Синема УС)","update":"2020-08-07 15:10:57","iframe_src":"//83.svetacdn.in/PfJ50H0ZBPg3/movie/42349"},{"id":42339,"title":"Махинаторы","kp_id":"1006259","imdb_id":"tt6107796","world_art_id":null,"type":"movie","add":"2020-08-07 06:55:14","orig_title":"Schemers","year":"2019-06-29","translations":["Профессиональный (многоголосый закадровый) (iTunes)"],"quality":"webdl","translation":"Профессиональный (многоголосый закадровый) (iTunes)","update":"2020-08-07 16:59:53","iframe_src":"//83.svetacdn.in/PfJ50H0ZBPg3/movie/42339"},{"id":42326,"title":"Соблазн","kp_id":"1264362","imdb_id":"tt10323178","world_art_id":null,"type":"movie","add":"2020-08-06 20:58:15","orig_title":"Cruel Fixation","year":"2019-10-10","translations":["Любительский (многоголосый закадровый) (Синема УС)"],"quality":"webdl","translation":"Любительский (многоголосый закадровый) (Синема УС)","update":"2020-08-08 07:15:25","iframe_src":"//83.svetacdn.in/PfJ50H0ZBPg3/movie/42326"},{"id":42325,"title":"Рождественский купон","kp_id":"1256668","imdb_id":"tt10165624","world_art_id":null,"type":"movie","add":"2020-08-06 20:56:26","orig_title":"Christmas Coupon","year":"2019-12-02","translations":["Любительский (многоголосый закадровый) (AlphaProject)"],"quality":"webdl","translation":"Любительский (многоголосый закадровый) (AlphaProject)","update":"2020-08-08 07:14:50","iframe_src":"//83.svetacdn.in/PfJ50H0ZBPg3/movie/42325"},{"id":42292,"title":"Страх","kp_id":"916533","imdb_id":"tt4741354","world_art_id":null,"type":"movie","add":"2020-08-04 16:23:16","orig_title":"La peur","year":"2015-08-12","translations":["Любительский (одноголосый закадровый)"],"quality":"dvdrip","translation":"Любительский (одноголосый закадровый)","update":"2020-08-07 16:48:32","iframe_src":"//83.svetacdn.in/PfJ50H0ZBPg3/movie/42292"},{"id":42291,"title":"Прямой эфир из Багдада","kp_id":"94472","imdb_id":"tt0319758","world_art_id":null,"type":"movie","add":"2020-08-04 16:21:50","orig_title":"Live from Baghdad","year":"2002-12-07","translations":["Профессиональный (многоголосый закадровый)"],"quality":"hdtv","translation":"Профессиональный (многоголосый закадровый)","update":"2020-08-07 16:48:17","iframe_src":"//83.svetacdn.in/PfJ50H0ZBPg3/movie/42291"},{"id":42290,"title":"Беложопый Холокост","kp_id":"723114","imdb_id":"tt2403914","world_art_id":null,"type":"movie","add":"2020-08-04 16:20:36","orig_title":"Honky Holocaust","year":"2014-01-01","translations":["Любительский (одноголосый закадровый)"],"quality":"webdl","translation":"Любительский (одноголосый закадровый)","update":"2020-08-07 16:47:56","iframe_src":"//83.svetacdn.in/PfJ50H0ZBPg3/movie/42290"},{"id":42289,"title":"«Гинденбург»: Последний полёт","kp_id":"518108","imdb_id":"tt1642620","world_art_id":null,"type":"movie","add":"2020-08-04 16:18:42","orig_title":"Hindenburg: The Last Flight","year":"2013-03-01","translations":["Полное дублирование"],"quality":"bd","translation":"Полное дублирование","update":"2020-08-07 16:16:38","iframe_src":"//83.svetacdn.in/PfJ50H0ZBPg3/movie/42289"},{"id":42288,"title":"Слезы на продажу","kp_id":"135960","imdb_id":"tt0380249","world_art_id":null,"type":"movie","add":"2020-08-04 16:17:01","orig_title":"Carlston za Ognjenku","year":"2008-01-30","translations":["Авторский (одноголосый закадровый) (Алексеев Антон)"],"quality":"dvdrip","translation":"Авторский (одноголосый закадровый) (Алексеев Антон)","update":"2020-08-07 16:47:38","iframe_src":"//83.svetacdn.in/PfJ50H0ZBPg3/movie/42288"}],"current_page":685,"first_page_url":"https://videocdn.tv/api/short?limit=100&api_token=RgFQdUIR2dRmwv8iYa5SnFNgnw3vpjKj&cache3685=3685&page=1","from":68401,"last_page":654,"last_page_url":"https://videocdn.tv/api/short?limit=100&api_token=RgFQdUIR2dRmwv8iYa5SnFNgnw3vpjKj&cache3685=3685&page=654","next_page_url":null,"path":"https://videocdn.tv/api/short","per_page":100,"prev_page_url":"https://videocdn.tv/api/short?limit=100&api_token=RgFQdUIR2dRmwv8iYa5SnFNgnw3vpjKj&cache3685=3685&page=684","to":68420,"total":65355}