{"result":true,"data":[{"id":28626,"title":"Борьба","kp_id":"1154992","imdb_id":"tt8373280","world_art_id":null,"type":"movie","add":"2019-07-04 21:41:46","orig_title":"Wrestle","year":"2018-04-06","translations":["Любительский (многоголосый закадровый) (Синема УС)"],"quality":"webdl","translation":"Любительский (многоголосый закадровый) (Синема УС)","update":"2019-07-05 06:39:14","iframe_src":"//83.svetacdn.in/PfJ50H0ZBPg3/movie/28626"},{"id":28621,"title":"Заметки о видимом","kp_id":"1097285","imdb_id":"tt7304194","world_art_id":null,"type":"movie","add":"2019-07-04 21:30:24","orig_title":"Notes on an Appearance","year":"2018-02-21","translations":["Любительский (многоголосый закадровый) (Синема УС)"],"quality":"webdl","translation":"Любительский (многоголосый закадровый) (Синема УС)","update":"2019-07-05 06:35:59","iframe_src":"//83.svetacdn.in/PfJ50H0ZBPg3/movie/28621"},{"id":28620,"title":"Каждый день – хороший","kp_id":"1072945","imdb_id":"tt7575778","world_art_id":null,"type":"movie","add":"2019-07-04 21:19:18","orig_title":"Nichinichi Kore Kojitsu","year":"2018-10-13","translations":["Любительский (многоголосый закадровый) (Синема УС)"],"quality":"bd","translation":"Любительский (многоголосый закадровый) (Синема УС)","update":"2019-07-05 06:34:55","iframe_src":"//83.svetacdn.in/PfJ50H0ZBPg3/movie/28620"},{"id":28619,"title":"Чёрный рубин","kp_id":"827170","imdb_id":"tt3499542","world_art_id":null,"type":"movie","add":"2019-07-04 21:09:01","orig_title":"Black Ruby","year":"2017-07-03","translations":["Любительский (многоголосый закадровый) (Синема УС)"],"quality":"webdl","translation":"Любительский (многоголосый закадровый) (Синема УС)","update":"2019-07-05 06:41:01","iframe_src":"//83.svetacdn.in/PfJ50H0ZBPg3/movie/28619"},{"id":28604,"title":"Командир корабля","kp_id":"44868","imdb_id":"tt0174822","world_art_id":null,"type":"movie","add":"2019-07-04 20:04:13","orig_title":"Komandir korablya","year":"1954-04-05","translations":["Оригинальная дорожка"],"quality":"dvdrip","translation":"Оригинальная дорожка","update":"2019-07-05 07:28:37","iframe_src":"//83.svetacdn.in/PfJ50H0ZBPg3/movie/28604"},{"id":28603,"title":"Неоконченная симфония","kp_id":"481292","imdb_id":"tt5303574","world_art_id":null,"type":"movie","add":"2019-07-04 20:01:17","orig_title":"Neoknchennaya simfoniya","year":"1968-01-01","translations":["Оригинальная дорожка"],"quality":"dvdrip","translation":"Оригинальная дорожка","update":"2019-07-05 07:27:46","iframe_src":"//83.svetacdn.in/PfJ50H0ZBPg3/movie/28603"},{"id":28601,"title":"Поднятая целина","kp_id":"43045","imdb_id":"tt0031802","world_art_id":null,"type":"movie","add":"2019-07-04 19:54:23","orig_title":"Podnyataya tselina","year":"1940-05-05","translations":["Оригинальная дорожка"],"quality":"dvdrip","translation":"Оригинальная дорожка","update":"2019-07-05 07:24:02","iframe_src":"//83.svetacdn.in/PfJ50H0ZBPg3/movie/28601"},{"id":28600,"title":"Нижняя Каледония","kp_id":"402990","imdb_id":"tt1198077","world_art_id":null,"type":"movie","add":"2019-07-04 19:50:14","orig_title":"Nizhnyaya Kaledoniya","year":"2008-07-04","translations":["Оригинальная дорожка"],"quality":"dvdrip","translation":"Оригинальная дорожка","update":"2019-07-05 07:21:26","iframe_src":"//83.svetacdn.in/PfJ50H0ZBPg3/movie/28600"},{"id":28599,"title":"Портрет Дориана Грея","kp_id":"494772","imdb_id":"tt1719591","world_art_id":null,"type":"movie","add":"2019-07-04 19:00:41","orig_title":"Portret Doriana Greya","year":"1968-01-01","translations":["Оригинальная дорожка"],"quality":"dvdrip","translation":"Оригинальная дорожка","update":"2019-07-05 07:15:39","iframe_src":"//83.svetacdn.in/PfJ50H0ZBPg3/movie/28599"},{"id":28598,"title":"Правда – хорошо, а счастье лучше","kp_id":"43214","imdb_id":"tt0239829","world_art_id":null,"type":"movie","add":"2019-07-04 18:55:31","orig_title":"Pravda - khorosho, a schaste luchshe","year":"1952-01-14","translations":["Оригинальная дорожка"],"quality":"dvdrip","translation":"Оригинальная дорожка","update":"2019-07-05 07:04:47","iframe_src":"//83.svetacdn.in/PfJ50H0ZBPg3/movie/28598"},{"id":28597,"title":"Прощай, Америка!","kp_id":"44404","imdb_id":"tt0337620","world_art_id":null,"type":"movie","add":"2019-07-04 18:52:24","orig_title":"Proshchay, Amerika!","year":"1951-01-12","translations":["Оригинальная дорожка"],"quality":"dvdrip","translation":"Оригинальная дорожка","update":"2019-07-05 07:02:41","iframe_src":"//83.svetacdn.in/PfJ50H0ZBPg3/movie/28597"},{"id":28596,"title":"Пять дней отдыха","kp_id":"43369","imdb_id":"tt0064858","world_art_id":null,"type":"movie","add":"2019-07-04 18:48:25","orig_title":"Pyat dney otdykha","year":"1970-02-09","translations":["Оригинальная дорожка"],"quality":"sat","translation":"Оригинальная дорожка","update":"2019-07-05 07:01:16","iframe_src":"//83.svetacdn.in/PfJ50H0ZBPg3/movie/28596"},{"id":28595,"title":"Смеситель","kp_id":"271516","imdb_id":"tt2106707","world_art_id":null,"type":"movie","add":"2019-07-04 18:44:04","orig_title":"Smesitel","year":"2002-05-01","translations":["Оригинальная дорожка"],"quality":"dvdrip","translation":"Оригинальная дорожка","update":"2019-07-05 07:00:22","iframe_src":"//83.svetacdn.in/PfJ50H0ZBPg3/movie/28595"},{"id":28594,"title":"Тарас Шевченко","kp_id":"42210","imdb_id":"tt0044107","world_art_id":null,"type":"movie","add":"2019-07-04 18:23:27","orig_title":"Taras Shevchenko","year":"1951-12-17","translations":["Оригинальная дорожка"],"quality":"dvdrip","translation":"Оригинальная дорожка","update":"2019-07-05 06:59:35","iframe_src":"//83.svetacdn.in/PfJ50H0ZBPg3/movie/28594"},{"id":28593,"title":"Товарищ генерал","kp_id":"467950","imdb_id":"tt4818864","world_art_id":null,"type":"movie","add":"2019-07-04 18:18:15","orig_title":"Tovarishch general","year":"1974-01-07","translations":["Оригинальная дорожка"],"quality":"sat","translation":"Оригинальная дорожка","update":"2019-07-05 06:58:15","iframe_src":"//83.svetacdn.in/PfJ50H0ZBPg3/movie/28593"},{"id":28592,"title":"Привет, дуралеи!","kp_id":"40961","imdb_id":"tt0117392","world_art_id":null,"type":"movie","add":"2019-07-04 18:13:10","orig_title":"Privet, duralei!","year":"1996-12-29","translations":["Оригинальная дорожка"],"quality":"dvdrip","translation":"Оригинальная дорожка","update":"2019-07-05 06:57:53","iframe_src":"//83.svetacdn.in/PfJ50H0ZBPg3/movie/28592"},{"id":28591,"title":"В деле","kp_id":"982793","imdb_id":null,"world_art_id":null,"type":"movie","add":"2019-07-04 18:09:19","orig_title":"В деле","year":"2016-01-01","translations":["Оригинальная дорожка"],"quality":"webdl","translation":"Оригинальная дорожка","update":"2019-07-05 06:56:10","iframe_src":"//83.svetacdn.in/PfJ50H0ZBPg3/movie/28591"},{"id":28590,"title":"Меня это не касается","kp_id":"46605","imdb_id":"tt0314369","world_art_id":null,"type":"movie","add":"2019-07-04 18:00:47","orig_title":"Menya eto ne kasaetsya","year":"1977-12-12","translations":["Оригинальная дорожка"],"quality":"sat","translation":"Оригинальная дорожка","update":"2019-07-05 06:44:16","iframe_src":"//83.svetacdn.in/PfJ50H0ZBPg3/movie/28590"},{"id":11643,"title":"Последнее слово","kp_id":"933117","imdb_id":"tt5023260","world_art_id":null,"type":"movie","add":"2017-05-22 05:18:48","orig_title":"The Last Word","year":"2017-01-24","translations":["Профессиональный (многоголосый закадровый) (СВ-Студия)"],"quality":"bd","translation":"Профессиональный (многоголосый закадровый) (СВ-Студия)","update":"2019-07-05 06:42:52","iframe_src":"//83.svetacdn.in/PfJ50H0ZBPg3/movie/11643"},{"id":4543,"title":"Жена по совместительству","kp_id":"947036","imdb_id":null,"world_art_id":null,"type":"movie","add":"2016-08-19 06:20:33","orig_title":"Жена по совместительству","year":"2015-11-24","translations":["Оригинальная дорожка"],"quality":"webdl","translation":"Оригинальная дорожка","update":"2019-07-05 06:55:51","iframe_src":"//83.svetacdn.in/PfJ50H0ZBPg3/movie/4543"}],"current_page":1532,"first_page_url":"https://videocdn.tv/api/short?limit=100&api_token=RgFQdUIR2dRmwv8iYa5SnFNgnw3vpjKj&cache31532=31532&page=1","from":153101,"last_page":676,"last_page_url":"https://videocdn.tv/api/short?limit=100&api_token=RgFQdUIR2dRmwv8iYa5SnFNgnw3vpjKj&cache31532=31532&page=676","next_page_url":null,"path":"https://videocdn.tv/api/short","per_page":100,"prev_page_url":"https://videocdn.tv/api/short?limit=100&api_token=RgFQdUIR2dRmwv8iYa5SnFNgnw3vpjKj&cache31532=31532&page=1531","to":153120,"total":67526}