{"result":true,"data":[{"id":51826,"title":"Улица греха","kp_id":"8305","imdb_id":"tt0038057","world_art_id":null,"type":"movie","add":"2021-07-16 13:49:09","orig_title":"Scarlet Street","year":"1945-12-25","translations":["Профессиональный (двухголосый закадровый) (SDI Media | Iyuno-SDI Group Russia)"],"quality":"bd","translation":"Профессиональный (двухголосый закадровый) (SDI Media | Iyuno-SDI Group Russia)","update":"2021-07-16 16:20:36","iframe_src":"//8944266444.svetacdn.in/PfJ50H0ZBPg3/movie/51826"},{"id":51823,"title":"Пылкий призрак","kp_id":"1260869","imdb_id":"tt10224624","world_art_id":null,"type":"movie","add":"2021-07-16 12:39:41","orig_title":"Vif-argent","year":"2019-05-17","translations":["Любительский (многоголосый закадровый) (Синема УС)"],"quality":"webdl","translation":"Любительский (многоголосый закадровый) (Синема УС)","update":"2021-07-16 21:02:09","iframe_src":"//8944266444.svetacdn.in/PfJ50H0ZBPg3/movie/51823"},{"id":51814,"title":"Семь коротких фильмов про наш брак","kp_id":"1129822","imdb_id":"tt8119078","world_art_id":null,"type":"movie","add":"2021-07-16 12:20:34","orig_title":"Seven Short Films About","year":"2020-01-01","translations":["Любительский (многоголосый закадровый) (Синема УС)"],"quality":"webdl","translation":"Любительский (многоголосый закадровый) (Синема УС)","update":"2021-07-16 21:01:27","iframe_src":"//8944266444.svetacdn.in/PfJ50H0ZBPg3/movie/51814"},{"id":51813,"title":"Дворец для Путина. История самой большой взятки","kp_id":null,"imdb_id":"tt13875460","world_art_id":null,"type":"movie","add":"2021-07-16 10:26:16","orig_title":"Dvorets dlya Putina. Istoriya samoy bolshoy vzyatki","year":"2021-01-19","translations":["Оригинальная дорожка"],"quality":"webdl","translation":"Оригинальная дорожка","update":"2021-07-16 16:23:52","iframe_src":"//8944266444.svetacdn.in/PfJ50H0ZBPg3/movie/51813"},{"id":51812,"title":"За наших любимых","kp_id":"126497","imdb_id":"tt0086650","world_art_id":null,"type":"movie","add":"2021-07-16 08:54:35","orig_title":"À nos amours","year":"1983-11-16","translations":["Авторский (одноголосый закадровый) (Алексеев Антон)"],"quality":"bd","translation":"Авторский (одноголосый закадровый) (Алексеев Антон)","update":"2021-07-16 13:26:01","iframe_src":"//8944266444.svetacdn.in/PfJ50H0ZBPg3/movie/51812"},{"id":51810,"title":"Охотники за страшилками","kp_id":null,"imdb_id":"tt10427916","world_art_id":null,"type":"movie","add":"2021-07-16 08:22:08","orig_title":"Project PastaHunters","year":"2019-01-01","translations":["Любительский (многоголосый закадровый) (Синема УС)"],"quality":"webdl","translation":"Любительский (многоголосый закадровый) (Синема УС)","update":"2021-07-16 14:02:23","iframe_src":"//8944266444.svetacdn.in/PfJ50H0ZBPg3/movie/51810"},{"id":51809,"title":"То, о чем мы молчим","kp_id":"1248537","imdb_id":"tt9674172","world_art_id":null,"type":"movie","add":"2021-07-16 07:01:43","orig_title":"What We Don't Say","year":"2019-07-26","translations":["Любительский (многоголосый закадровый) (Синема УС)"],"quality":"webdl","translation":"Любительский (многоголосый закадровый) (Синема УС)","update":"2021-07-16 13:56:27","iframe_src":"//8944266444.svetacdn.in/PfJ50H0ZBPg3/movie/51809"},{"id":51805,"title":"Угасающее Пламя","kp_id":"1442597","imdb_id":"tt11612868","world_art_id":null,"type":"movie","add":"2021-07-16 06:45:37","orig_title":"The Dwindling Flame","year":"2020-08-14","translations":["Любительский (многоголосый закадровый) (AlphaProject)"],"quality":"webdl","translation":"Любительский (многоголосый закадровый) (AlphaProject)","update":"2021-07-16 14:01:02","iframe_src":"//8944266444.svetacdn.in/PfJ50H0ZBPg3/movie/51805"},{"id":51804,"title":"Фильм о любви","kp_id":"1322536","imdb_id":"tt10399550","world_art_id":null,"type":"movie","add":"2021-07-16 06:42:25","orig_title":"The Big Love Picture","year":"2019-11-07","translations":["Любительский (многоголосый закадровый) (AlphaProject)"],"quality":"webdl","translation":"Любительский (многоголосый закадровый) (AlphaProject)","update":"2021-07-16 14:00:29","iframe_src":"//8944266444.svetacdn.in/PfJ50H0ZBPg3/movie/51804"},{"id":51803,"title":"Почти люди: Год первый","kp_id":"1381975","imdb_id":"tt12302606","world_art_id":null,"type":"movie","add":"2021-07-16 06:39:08","orig_title":"The Almosts: Year 1","year":"2020-05-12","translations":["Любительский (многоголосый закадровый) (Синема УС)"],"quality":"webdl","translation":"Любительский (многоголосый закадровый) (Синема УС)","update":"2021-07-16 13:59:37","iframe_src":"//8944266444.svetacdn.in/PfJ50H0ZBPg3/movie/51803"},{"id":51802,"title":"Лилит","kp_id":"1088301","imdb_id":"tt6785752","world_art_id":null,"type":"movie","add":"2021-07-16 06:28:03","orig_title":"Lillith","year":"2019-01-01","translations":["Любительский (многоголосый закадровый) (Синема УС)"],"quality":"webdl","translation":"Любительский (многоголосый закадровый) (Синема УС)","update":"2021-07-16 13:57:23","iframe_src":"//8944266444.svetacdn.in/PfJ50H0ZBPg3/movie/51802"},{"id":51797,"title":"Тропинка одинокой сосны","kp_id":"10008","imdb_id":"tt0028401","world_art_id":null,"type":"movie","add":"2021-07-16 05:38:01","orig_title":"The Trail of the Lonesome Pine","year":"1936-02-19","translations":["Любительский (одноголосый закадровый) (Клушин Игорь | хромолка)","[EN] Original (English)"],"quality":"bd","translation":"Любительский (одноголосый закадровый) (Клушин Игорь | хромолка)","update":"2021-07-16 11:25:04","iframe_src":"//8944266444.svetacdn.in/PfJ50H0ZBPg3/movie/51797"},{"id":51795,"title":"Эта дикая кошка","kp_id":"17870","imdb_id":"tt0059793","world_art_id":null,"type":"movie","add":"2021-07-16 05:27:32","orig_title":"That Darn Cat!","year":"1965-10-08","translations":["Любительский (двухголосый закадровый)","Любительский (одноголосый закадровый) (allecs2010)","[EN] Original (English)"],"quality":"webdl","translation":"Любительский (двухголосый закадровый)","update":"2021-07-16 11:27:34","iframe_src":"//8944266444.svetacdn.in/PfJ50H0ZBPg3/movie/51795"},{"id":51127,"title":"Ночная прогулка","kp_id":"858554","imdb_id":"tt4205896","world_art_id":null,"type":"movie","add":"2021-06-12 12:08:32","orig_title":"Night Walk","year":"2019-08-05","translations":["Полное дублирование","[EN] Original (English)","Полное дублирование (iTunes)"],"quality":"webdl","translation":"Полное дублирование","update":"2021-07-16 11:30:51","iframe_src":"//8944266444.svetacdn.in/PfJ50H0ZBPg3/movie/51127"},{"id":50713,"title":"Аффект","kp_id":"1271634","imdb_id":"tt9305634","world_art_id":null,"type":"movie","add":"2021-05-28 19:53:23","orig_title":"Surge","year":"2020-01-26","translations":["Любительский (многоголосый закадровый) (@MUZOBOZ@)","Полное дублирование (iTunes)"],"quality":"webdl","translation":"Любительский (многоголосый закадровый) (@MUZOBOZ@)","update":"2021-07-16 11:33:20","iframe_src":"//8944266444.svetacdn.in/PfJ50H0ZBPg3/movie/50713"},{"id":33635,"title":"Лавалантула","kp_id":"855250","imdb_id":"tt4060576","world_art_id":null,"type":"movie","add":"2019-12-03 12:18:16","orig_title":"Lavalantula","year":"2015-07-25","translations":["Профессиональный (многоголосый закадровый)","[EN] Original (English)","Профессиональный (многоголосый закадровый)","Профессиональный (многоголосый закадровый) (ТВ3)"],"quality":"hdrip","translation":"Профессиональный (многоголосый закадровый)","update":"2021-07-16 12:31:56","iframe_src":"//8944266444.svetacdn.in/PfJ50H0ZBPg3/movie/33635"},{"id":30770,"title":"Шамантакамани","kp_id":"1077059","imdb_id":"tt7125262","world_art_id":null,"type":"movie","add":"2019-09-11 15:20:14","orig_title":"Shamantakamani","year":"2017-07-14","translations":["Любительский (двухголосый закадровый)","Любительский (многоголосый закадровый) (OnisFilms)"],"quality":"webdl","translation":"Любительский (двухголосый закадровый)","update":"2021-07-16 21:00:50","iframe_src":"//8944266444.svetacdn.in/PfJ50H0ZBPg3/movie/30770"},{"id":11138,"title":"Война на Диком Западе","kp_id":"1350","imdb_id":"tt0056085","world_art_id":null,"type":"movie","add":"2017-04-19 23:01:05","orig_title":"How the West Was Won","year":"1962-11-01","translations":["Профессиональный (многоголосый закадровый)","Авторский (одноголосый закадровый) (Кузнецов Сергей)","[EN] Original (English)","Профессиональный (двухголосый закадровый) (DVD Магия)","Профессиональный (многоголосый закадровый)"],"quality":"bd","translation":"Профессиональный (многоголосый закадровый)","update":"2021-07-16 12:27:51","iframe_src":"//8944266444.svetacdn.in/PfJ50H0ZBPg3/movie/11138"},{"id":1130,"title":"Спецотряд «Шторм»","kp_id":"788168","imdb_id":null,"world_art_id":null,"type":"serial","add":"2017-03-21 09:12:51","orig_title":"Спецотряд «Шторм»","year":"2013-11-16","translations":["Оригинальная дорожка"],"seasons_count":1,"episodes_count":16,"episodes":16,"update":"2017-03-21 15:50:59","iframe_src":"//8944266444.svetacdn.in/PfJ50H0ZBPg3/tv-series/1130"},{"id":1122,"title":"Родное сердце","kp_id":"1039202","imdb_id":null,"world_art_id":null,"type":"serial","add":"2017-03-21 05:16:16","orig_title":"Родное сердце","year":"2017-03-19","translations":["Оригинальная дорожка"],"seasons_count":1,"episodes_count":2,"episodes":2,"update":"2017-03-22 05:06:34","iframe_src":"//8944266444.svetacdn.in/PfJ50H0ZBPg3/tv-series/1122"},{"id":1121,"title":"Напрасные надежды","kp_id":"1039201","imdb_id":null,"world_art_id":null,"type":"serial","add":"2017-03-21 05:13:32","orig_title":"Напрасные надежды","year":"2017-03-18","translations":["Оригинальная дорожка"],"seasons_count":1,"episodes_count":2,"episodes":2,"update":"2017-03-22 05:01:20","iframe_src":"//8944266444.svetacdn.in/PfJ50H0ZBPg3/tv-series/1121"},{"id":1120,"title":"Должок","kp_id":"1007965","imdb_id":null,"world_art_id":null,"type":"serial","add":"2017-03-21 05:11:02","orig_title":"Должок","year":"2017-03-19","translations":["Оригинальная дорожка"],"seasons_count":1,"episodes_count":2,"episodes":2,"update":"2017-03-22 04:57:54","iframe_src":"//8944266444.svetacdn.in/PfJ50H0ZBPg3/tv-series/1120"},{"id":1114,"title":"Тещины блины","kp_id":"806648","imdb_id":null,"world_art_id":null,"type":"serial","add":"2017-03-15 07:12:57","orig_title":"Тещины блины","year":"2014-03-04","translations":["Оригинальная дорожка"],"seasons_count":1,"episodes_count":4,"episodes":4,"update":"2017-03-15 14:59:55","iframe_src":"//8944266444.svetacdn.in/PfJ50H0ZBPg3/tv-series/1114"},{"id":1112,"title":"Обещание","kp_id":"1008916","imdb_id":null,"world_art_id":null,"type":"serial","add":"2017-03-15 06:59:48","orig_title":"Обещание","year":"2017-01-26","translations":["Оригинальная дорожка"],"seasons_count":1,"episodes_count":2,"episodes":2,"update":"2017-03-15 15:03:01","iframe_src":"//8944266444.svetacdn.in/PfJ50H0ZBPg3/tv-series/1112"},{"id":1111,"title":"Ключи","kp_id":"1008791","imdb_id":null,"world_art_id":null,"type":"serial","add":"2017-03-15 06:55:30","orig_title":"Ключи","year":"2017-01-28","translations":["Оригинальная дорожка"],"seasons_count":1,"episodes_count":2,"episodes":2,"update":"2017-03-16 11:25:35","iframe_src":"//8944266444.svetacdn.in/PfJ50H0ZBPg3/tv-series/1111"},{"id":1109,"title":"Я никогда не плачу","kp_id":"1009650","imdb_id":null,"world_art_id":null,"type":"serial","add":"2017-03-15 06:19:31","orig_title":"Я никогда не плачу","year":"2017-02-04","translations":["Оригинальная дорожка"],"seasons_count":1,"episodes_count":4,"episodes":4,"update":"2017-03-15 11:11:35","iframe_src":"//8944266444.svetacdn.in/PfJ50H0ZBPg3/tv-series/1109"},{"id":1107,"title":"Семья почемучек","kp_id":"460248","imdb_id":"tt0149545","world_art_id":null,"type":"serial","add":"2017-03-14 13:40:53","orig_title":"The Why Why? Family","year":"1996-01-01","translations":["Профессиональный (многоголосый закадровый)"],"seasons_count":1,"episodes_count":25,"episodes":25,"update":"2017-03-16 05:55:42","iframe_src":"//8944266444.svetacdn.in/PfJ50H0ZBPg3/tv-series/1107"},{"id":1106,"title":"Убить Дрозда","kp_id":"760472","imdb_id":null,"world_art_id":null,"type":"serial","add":"2017-03-14 13:37:55","orig_title":"Убить Дрозда","year":"2013-05-01","translations":["Оригинальная дорожка"],"seasons_count":1,"episodes_count":4,"episodes":4,"update":"2017-03-15 13:02:11","iframe_src":"//8944266444.svetacdn.in/PfJ50H0ZBPg3/tv-series/1106"},{"id":1105,"title":"Тихая охота","kp_id":"771391","imdb_id":"tt3765952","world_art_id":null,"type":"serial","add":"2017-03-14 13:29:54","orig_title":"Tikhaya okhota","year":"2014-05-01","translations":["Оригинальная дорожка"],"seasons_count":1,"episodes_count":30,"episodes":30,"update":"2017-03-17 12:25:13","iframe_src":"//8944266444.svetacdn.in/PfJ50H0ZBPg3/tv-series/1105"},{"id":1104,"title":"Хроники Эйфелевой башни","kp_id":"372217","imdb_id":"tt0469791","world_art_id":null,"type":"serial","add":"2017-03-14 08:00:33","orig_title":"La légende vraie de la tour Eiffe","year":"2005-12-18","translations":["Профессиональный (многоголосый закадровый)"],"seasons_count":1,"episodes_count":2,"episodes":2,"update":"2017-03-17 06:02:41","iframe_src":"//8944266444.svetacdn.in/PfJ50H0ZBPg3/tv-series/1104"},{"id":1103,"title":"Слуга. Правдивая история Пан-джа","kp_id":"905018","imdb_id":"tt3591270","world_art_id":null,"type":"serial","add":"2017-03-14 07:53:24","orig_title":"Bang-ja Chronicles","year":"2011-11-05","translations":["Любительский (многоголосый закадровый) (GREEN TEA)"],"seasons_count":1,"episodes_count":4,"episodes":4,"update":"2017-03-17 05:38:00","iframe_src":"//8944266444.svetacdn.in/PfJ50H0ZBPg3/tv-series/1103"},{"id":1102,"title":"Тест на любовь","kp_id":"808626","imdb_id":null,"world_art_id":null,"type":"serial","add":"2017-03-14 07:50:22","orig_title":"Тест на любовь","year":"2013-11-24","translations":["Оригинальная дорожка"],"seasons_count":1,"episodes_count":4,"episodes":4,"update":"2017-03-17 05:20:13","iframe_src":"//8944266444.svetacdn.in/PfJ50H0ZBPg3/tv-series/1102"},{"id":1101,"title":"Товарищ Сталин","kp_id":"584031","imdb_id":"tt3769740","world_art_id":null,"type":"serial","add":"2017-03-14 07:46:37","orig_title":"Tovarishch Stalin","year":"2011-12-09","translations":["Оригинальная дорожка"],"seasons_count":1,"episodes_count":4,"episodes":4,"update":"2017-03-15 13:01:46","iframe_src":"//8944266444.svetacdn.in/PfJ50H0ZBPg3/tv-series/1101"},{"id":1100,"title":"Узник замка Иф","kp_id":"42549","imdb_id":"tt0096356","world_art_id":null,"type":"serial","add":"2017-03-14 07:42:20","orig_title":"Uznik zamka If","year":"1989-02-01","translations":["Оригинальная дорожка"],"seasons_count":1,"episodes_count":3,"episodes":3,"update":"2017-03-19 13:31:52","iframe_src":"//8944266444.svetacdn.in/PfJ50H0ZBPg3/tv-series/1100"},{"id":1099,"title":"Дальнобойщики 3. Десять лет спустя","kp_id":"484371","imdb_id":"tt4586304","world_art_id":null,"type":"serial","add":"2017-03-13 12:15:28","orig_title":"Дальнобойщики. Десять лет спустя","year":"2012-01-28","translations":["Оригинальная дорожка"],"seasons_count":1,"episodes_count":12,"episodes":12,"update":"2017-03-15 12:48:10","iframe_src":"//8944266444.svetacdn.in/PfJ50H0ZBPg3/tv-series/1099"},{"id":1098,"title":"Дальнобойщики 2","kp_id":"446052","imdb_id":"tt4178954","world_art_id":null,"type":"serial","add":"2017-03-13 12:10:05","orig_title":"Dalnoboyshiki dva","year":"2004-01-01","translations":["Оригинальная дорожка"],"seasons_count":1,"episodes_count":12,"episodes":12,"update":"2017-03-15 11:37:55","iframe_src":"//8944266444.svetacdn.in/PfJ50H0ZBPg3/tv-series/1098"},{"id":1091,"title":"Мурка","kp_id":"957472","imdb_id":null,"world_art_id":null,"type":"serial","add":"2017-03-10 07:10:49","orig_title":"Мурка","year":"2017-03-09","translations":["Оригинальная дорожка"],"seasons_count":1,"episodes_count":12,"episodes":12,"update":"2017-03-17 05:06:36","iframe_src":"//8944266444.svetacdn.in/PfJ50H0ZBPg3/tv-series/1091"},{"id":1063,"title":"Египтус","kp_id":"952934","imdb_id":"tt4332766","world_art_id":null,"type":"serial","add":"2017-03-01 09:23:24","orig_title":"Egyxos","year":"2015-02-22","translations":["Полное дублирование"],"seasons_count":1,"episodes_count":26,"episodes":26,"update":"2017-03-17 13:24:01","iframe_src":"//8944266444.svetacdn.in/PfJ50H0ZBPg3/tv-series/1063"},{"id":7967,"title":"В конце туннеля","kp_id":"940122","imdb_id":"tt5133308","world_art_id":null,"type":"movie","add":"2016-12-11 05:25:27","orig_title":"Al final del túnel","year":"2016-04-21","translations":["Любительский (многоголосый закадровый) (@MUZOBOZ@)","Полное дублирование (iTunes)"],"quality":"bd","translation":"Любительский (многоголосый закадровый) (@MUZOBOZ@)","update":"2021-07-16 11:34:59","iframe_src":"//8944266444.svetacdn.in/PfJ50H0ZBPg3/movie/7967"},{"id":2290,"title":"Пленницы","kp_id":"455194","imdb_id":"tt1392214","world_art_id":null,"type":"movie","add":"2016-05-17 08:07:34","orig_title":"Prisoners","year":"2013-08-30","translations":["Полное дублирование","Авторский (одноголосый закадровый) (Сербин Юрий)","Авторский (одноголосый закадровый) (Яроцкий Михаил | Kyberpunk)","Полное дублирование (Пифагор)","[EN] Original (English)","Профессиональный (многоголосый закадровый) (BaibaKo)"],"quality":"bd","translation":"Полное дублирование","update":"2021-07-16 12:22:24","iframe_src":"//8944266444.svetacdn.in/PfJ50H0ZBPg3/movie/2290"}],"current_page":596,"first_page_url":"https://videocdn.tv/api/short?limit=100&api_token=RgFQdUIR2dRmwv8iYa5SnFNgnw3vpjKj&cache3596=3596&page=1","from":59501,"last_page":727,"last_page_url":"https://videocdn.tv/api/short?limit=100&api_token=RgFQdUIR2dRmwv8iYa5SnFNgnw3vpjKj&cache3596=3596&page=727","next_page_url":"https://videocdn.tv/api/short?limit=100&api_token=RgFQdUIR2dRmwv8iYa5SnFNgnw3vpjKj&cache3596=3596&page=597","path":"https://videocdn.tv/api/short","per_page":100,"prev_page_url":"https://videocdn.tv/api/short?limit=100&api_token=RgFQdUIR2dRmwv8iYa5SnFNgnw3vpjKj&cache3596=3596&page=595","to":59540,"total":72610}