{"result":true,"data":[{"id":43839,"title":"Бабуля на дороге!","kp_id":"705635","imdb_id":"tt2361260","world_art_id":null,"type":"movie","add":"2020-09-24 20:32:08","orig_title":"Granny Lane","year":"2012-07-26","translations":["Original (English)"],"quality":"webdl","translation":"Original (English)","update":"2020-09-24 20:48:42","iframe_src":"//83.svetacdn.in/PfJ50H0ZBPg3/movie/43839"},{"id":43838,"title":"Трудные люди","kp_id":"426995","imdb_id":null,"world_art_id":null,"type":"movie","add":"2020-09-24 20:27:16","orig_title":"Trudnie Ludi","year":"2006-01-01","translations":["Оригинальная дорожка"],"quality":"webdl","translation":"Оригинальная дорожка","update":"2020-09-25 03:41:56","iframe_src":"//83.svetacdn.in/PfJ50H0ZBPg3/movie/43838"},{"id":43823,"title":"Греховная неверность","kp_id":"1356903","imdb_id":"tt11966138","world_art_id":null,"type":"movie","add":"2020-09-24 16:10:20","orig_title":"Sinfidelity","year":"2020-09-13","translations":["Любительский (многоголосый закадровый) (AlphaProject)"],"quality":"hdtv","translation":"Любительский (многоголосый закадровый) (AlphaProject)","update":"2020-09-24 19:45:22","iframe_src":"//83.svetacdn.in/PfJ50H0ZBPg3/movie/43823"},{"id":43822,"title":"День икс","kp_id":"1304586","imdb_id":"tt10718952","world_art_id":null,"type":"movie","add":"2020-09-24 16:08:30","orig_title":"Tag X","year":"2019-01-01","translations":["Любительский (многоголосый закадровый) (Синема УС)"],"quality":"webdl","translation":"Любительский (многоголосый закадровый) (Синема УС)","update":"2020-09-24 19:43:37","iframe_src":"//83.svetacdn.in/PfJ50H0ZBPg3/movie/43822"},{"id":43821,"title":"Что было бы","kp_id":"1144419","imdb_id":"tt8415832","world_art_id":null,"type":"movie","add":"2020-09-24 16:06:19","orig_title":"Was gewesen wäre","year":"2019-06-29","translations":["Любительский (многоголосый закадровый) (Синема УС)"],"quality":"webdl","translation":"Любительский (многоголосый закадровый) (Синема УС)","update":"2020-09-24 19:42:20","iframe_src":"//83.svetacdn.in/PfJ50H0ZBPg3/movie/43821"},{"id":43820,"title":"Спасайся кто может!","kp_id":"1137640","imdb_id":"tt8211942","world_art_id":null,"type":"movie","add":"2020-09-24 10:36:02","orig_title":"Sai de Baixo: O Filme","year":"2019-02-21","translations":["Любительский (многоголосый закадровый) (Синема УС)"],"quality":"webdl","translation":"Любительский (многоголосый закадровый) (Синема УС)","update":"2020-09-25 05:39:24","iframe_src":"//83.svetacdn.in/PfJ50H0ZBPg3/movie/43820"},{"id":43819,"title":"Сумасшедшая бабуля","kp_id":"1331617","imdb_id":"tt11457274","world_art_id":null,"type":"movie","add":"2020-09-24 10:34:09","orig_title":"Deranged Granny","year":"2020-09-07","translations":["Любительский (многоголосый закадровый) (AlphaProject)"],"quality":"hdtv","translation":"Любительский (многоголосый закадровый) (AlphaProject)","update":"2020-09-25 05:40:47","iframe_src":"//83.svetacdn.in/PfJ50H0ZBPg3/movie/43819"},{"id":43818,"title":"Данур 2: песня","kp_id":"1179422","imdb_id":"tt7981182","world_art_id":null,"type":"movie","add":"2020-09-24 10:31:31","orig_title":"Danur 2: Maddah","year":"2018-03-28","translations":["Любительский (двухголосый закадровый) (Колобок)"],"quality":"webdl","translation":"Любительский (двухголосый закадровый) (Колобок)","update":"2020-09-25 05:40:14","iframe_src":"//83.svetacdn.in/PfJ50H0ZBPg3/movie/43818"},{"id":43817,"title":"Дэнни","kp_id":"1276465","imdb_id":"tt10381134","world_art_id":null,"type":"movie","add":"2020-09-24 10:26:09","orig_title":"Danny","year":"2020-08-01","translations":["Любительский (многоголосый закадровый) (Синема УС)"],"quality":"webdl","translation":"Любительский (многоголосый закадровый) (Синема УС)","update":"2020-09-25 05:38:47","iframe_src":"//83.svetacdn.in/PfJ50H0ZBPg3/movie/43817"},{"id":43816,"title":"Уборка","kp_id":"1245339","imdb_id":null,"world_art_id":null,"type":"movie","add":"2020-09-24 10:23:00","orig_title":"Hoheup","year":"2018-10-07","translations":["Любительский (двухголосый закадровый) (Колобок)"],"quality":"webdl","translation":"Любительский (двухголосый закадровый) (Колобок)","update":"2020-09-25 05:38:15","iframe_src":"//83.svetacdn.in/PfJ50H0ZBPg3/movie/43816"},{"id":43815,"title":"Узник крепости Зенда","kp_id":"27329","imdb_id":"tt0029442","world_art_id":null,"type":"movie","add":"2020-09-24 09:45:10","orig_title":"The Prisoner of Zenda","year":"1937-09-02","translations":["Профессиональный (многоголосый закадровый) (Светла)"],"quality":"dvdrip","translation":"Профессиональный (многоголосый закадровый) (Светла)","update":"2020-09-24 15:33:01","iframe_src":"//83.svetacdn.in/PfJ50H0ZBPg3/movie/43815"},{"id":43814,"title":"Ублюдки","kp_id":"1357249","imdb_id":"tt11965688","world_art_id":null,"type":"movie","add":"2020-09-24 08:08:40","orig_title":"F#*@bois","year":"2019-08-03","translations":["Любительский (двухголосый закадровый)"],"quality":"webdl","translation":"Любительский (двухголосый закадровый)","update":"2020-09-24 15:35:42","iframe_src":"//83.svetacdn.in/PfJ50H0ZBPg3/movie/43814"},{"id":43812,"title":"Урубу","kp_id":"1313302","imdb_id":"tt10801220","world_art_id":null,"type":"movie","add":"2020-09-23 22:30:11","orig_title":"Urubú","year":"2019-10-22","translations":["Любительский (многоголосый закадровый) (Синема УС)"],"quality":"ts","translation":"Любительский (многоголосый закадровый) (Синема УС)","update":"2020-09-24 14:53:16","iframe_src":"//83.svetacdn.in/PfJ50H0ZBPg3/movie/43812"},{"id":43807,"title":"Мексиканская стена","kp_id":"1231381","imdb_id":"tt9617560","world_art_id":null,"type":"movie","add":"2020-09-23 22:14:00","orig_title":"The Wall of Mexico","year":"2019-03-08","translations":["Профессиональный (многоголосый закадровый)"],"quality":"webdl","translation":"Профессиональный (многоголосый закадровый)","update":"2020-09-25 05:43:31","iframe_src":"//83.svetacdn.in/PfJ50H0ZBPg3/movie/43807"},{"id":43805,"title":"Дополнительные подачи","kp_id":"1282616","imdb_id":"tt5502524","world_art_id":null,"type":"movie","add":"2020-09-23 22:09:57","orig_title":"Extra Innings","year":"2019-09-10","translations":["Любительский (многоголосый закадровый) (AlphaProject)"],"quality":"webdl","translation":"Любительский (многоголосый закадровый) (AlphaProject)","update":"2020-09-24 14:51:02","iframe_src":"//83.svetacdn.in/PfJ50H0ZBPg3/movie/43805"},{"id":38282,"title":"Мой шпион","kp_id":"1179073","imdb_id":"tt8242084","world_art_id":null,"type":"movie","add":"2020-03-20 06:44:40","orig_title":"My Spy","year":"2020-01-09","translations":["Любительский (двухголосый закадровый) (LakeFilms)","Любительский (многоголосый закадровый) (@MUZOBOZ@)","Original (English)","Полное дублирование (iTunes)"],"quality":"webdl","translation":"Любительский (двухголосый закадровый) (LakeFilms)","update":"2020-09-24 11:59:50","iframe_src":"//83.svetacdn.in/PfJ50H0ZBPg3/movie/38282"},{"id":18984,"title":"Хищник","kp_id":"840829","imdb_id":"tt3829266","world_art_id":null,"type":"movie","add":"2018-09-14 18:32:48","orig_title":"The Predator","year":"2018-09-07","translations":["Любительский (многоголосый закадровый) (@MUZOBOZ@)","Профессиональный (многоголосый закадровый) (HDrezka Studio)","Профессиональный (двухголосый закадровый) (iTunes)","Полное дублирование","Original (English)","Профессиональный (многоголосый закадровый) (HDrezka Studio)"],"quality":"hdtv","translation":"Любительский (многоголосый закадровый) (@MUZOBOZ@)","update":"2020-09-24 09:17:48","iframe_src":"//83.svetacdn.in/PfJ50H0ZBPg3/movie/18984"},{"id":1800,"title":"Трюфельный пёс королевы Джованны","kp_id":"1045224","imdb_id":null,"world_art_id":null,"type":"serial","add":"2017-12-04 10:31:28","orig_title":"Трюфельный пёс королевы Джованны","year":"2017-12-02","translations":["Оригинальная дорожка"],"seasons_count":1,"episodes_count":4,"episodes":4,"update":"2017-12-04 14:17:57","iframe_src":"//83.svetacdn.in/PfJ50H0ZBPg3/tv-series/1800"},{"id":1799,"title":"Лучик","kp_id":"958467","imdb_id":null,"world_art_id":null,"type":"serial","add":"2017-12-04 10:30:08","orig_title":"Лучик","year":"2017-12-02","translations":["Оригинальная дорожка"],"seasons_count":1,"episodes_count":4,"episodes":4,"update":"2017-12-04 14:20:17","iframe_src":"//83.svetacdn.in/PfJ50H0ZBPg3/tv-series/1799"},{"id":1797,"title":"Кадетство","kp_id":"260185","imdb_id":"tt3774988","world_art_id":null,"type":"serial","add":"2017-12-03 16:38:32","orig_title":"Kadetstvo","year":"2006-09-04","translations":["Оригинальная дорожка"],"seasons_count":3,"episodes_count":160,"episodes":70,"update":"2017-12-04 09:14:36","iframe_src":"//83.svetacdn.in/PfJ50H0ZBPg3/tv-series/1797"},{"id":1790,"title":"Маэстро","kp_id":"842414","imdb_id":"tt4763312","world_art_id":null,"type":"serial","add":"2017-11-30 13:07:35","orig_title":"Maestro","year":"2016-10-10","translations":["Оригинальная дорожка"],"seasons_count":1,"episodes_count":12,"episodes":12,"update":"2017-12-04 08:08:46","iframe_src":"//83.svetacdn.in/PfJ50H0ZBPg3/tv-series/1790"},{"id":1788,"title":"Все любят Рэймонда","kp_id":"277601","imdb_id":"tt0115167","world_art_id":null,"type":"serial","add":"2017-11-30 09:58:04","orig_title":"Everybody Loves Raymond","year":"1996-09-13","translations":["Профессиональный (многоголосый закадровый) (SET)","Профессиональный (двухголосый закадровый)"],"seasons_count":6,"episodes_count":146,"episodes":25,"update":"2017-12-02 20:50:11","iframe_src":"//83.svetacdn.in/PfJ50H0ZBPg3/tv-series/1788"},{"id":1786,"title":"Город гангстеров","kp_id":"756148","imdb_id":"tt2176609","world_art_id":null,"type":"serial","add":"2017-11-30 07:47:59","orig_title":"Mob City","year":"2013-12-04","translations":["Профессиональный (многоголосый закадровый) (LostFilm)"],"seasons_count":1,"episodes_count":6,"episodes":6,"update":"2017-11-30 14:35:36","iframe_src":"//83.svetacdn.in/PfJ50H0ZBPg3/tv-series/1786"},{"id":1785,"title":"Бальзаковский возраст, или Все мужики сво...","kp_id":"94919","imdb_id":"tt0405519","world_art_id":null,"type":"serial","add":"2017-11-30 07:44:57","orig_title":"Balzakovskiy vozrast, ili Vse muzhiki svo..","year":"2004-05-10","translations":["Оригинальная дорожка"],"seasons_count":3,"episodes_count":32,"episodes":8,"update":"2017-11-30 12:35:28","iframe_src":"//83.svetacdn.in/PfJ50H0ZBPg3/tv-series/1785"},{"id":1783,"title":"Всё тип-топ, или Жизнь Зака и Коди","kp_id":"323192","imdb_id":"tt0426371","world_art_id":null,"type":"serial","add":"2017-11-29 19:49:22","orig_title":"The Suite Life of Zack and Cody","year":"2005-03-18","translations":["Полное дублирование"],"seasons_count":3,"episodes_count":87,"episodes":22,"update":"2017-12-01 07:13:45","iframe_src":"//83.svetacdn.in/PfJ50H0ZBPg3/tv-series/1783"},{"id":1782,"title":"Культ","kp_id":"665226","imdb_id":"tt2193053","world_art_id":null,"type":"serial","add":"2017-11-29 05:41:39","orig_title":"Cult","year":"2013-02-12","translations":["Профессиональный (многоголосый закадровый) (LostFilm)"],"seasons_count":1,"episodes_count":13,"episodes":13,"update":"2017-11-29 12:02:23","iframe_src":"//83.svetacdn.in/PfJ50H0ZBPg3/tv-series/1782"},{"id":1781,"title":"Папарацци","kp_id":"1008804","imdb_id":null,"world_art_id":null,"type":"serial","add":"2017-11-29 05:37:07","orig_title":"Папарацци","year":"2016-12-12","translations":["Оригинальная дорожка"],"seasons_count":1,"episodes_count":4,"episodes":4,"update":"2017-11-29 11:41:10","iframe_src":"//83.svetacdn.in/PfJ50H0ZBPg3/tv-series/1781"},{"id":1780,"title":"Вызов","kp_id":"673387","imdb_id":"tt2189221","world_art_id":null,"type":"serial","add":"2017-11-28 10:23:01","orig_title":"Defiance","year":"2013-04-15","translations":["Профессиональный (многоголосый закадровый) (LostFilm)"],"seasons_count":3,"episodes_count":37,"episodes":12,"update":"2017-12-01 11:27:38","iframe_src":"//83.svetacdn.in/PfJ50H0ZBPg3/tv-series/1780"},{"id":1779,"title":"Социопат","kp_id":"757563","imdb_id":"tt2355844","world_art_id":null,"type":"serial","add":"2017-11-28 10:07:24","orig_title":"Twisted","year":"2013-06-11","translations":["Профессиональный (многоголосый закадровый) (SET)"],"seasons_count":1,"episodes_count":19,"episodes":19,"update":"2017-11-30 07:26:28","iframe_src":"//83.svetacdn.in/PfJ50H0ZBPg3/tv-series/1779"},{"id":1778,"title":"Ей это нужно позарез","kp_id":"1046232","imdb_id":"tt3713588","world_art_id":null,"type":"serial","add":"2017-11-28 09:43:41","orig_title":"She's Gotta Have It","year":"2017-11-23","translations":["Профессиональный (многоголосый закадровый) (NewStudio)"],"seasons_count":1,"episodes_count":10,"episodes":10,"update":"2017-12-01 07:12:55","iframe_src":"//83.svetacdn.in/PfJ50H0ZBPg3/tv-series/1778"},{"id":1777,"title":"Красные браслеты","kp_id":"891366","imdb_id":"tt6647236","world_art_id":null,"type":"serial","add":"2017-11-28 09:15:10","orig_title":"Krasnye braslety","year":"2017-11-25","translations":["Оригинальная дорожка"],"seasons_count":1,"episodes_count":12,"episodes":12,"update":"2017-11-30 10:37:28","iframe_src":"//83.svetacdn.in/PfJ50H0ZBPg3/tv-series/1777"},{"id":1775,"title":"Небо и земля","kp_id":"79570","imdb_id":"tt0406445","world_art_id":null,"type":"serial","add":"2017-11-27 17:37:44","orig_title":"Nebo i zemlya","year":"2004-03-22","translations":["Оригинальная дорожка"],"seasons_count":1,"episodes_count":16,"episodes":16,"update":"2017-11-29 16:56:01","iframe_src":"//83.svetacdn.in/PfJ50H0ZBPg3/tv-series/1775"},{"id":1765,"title":"Байки из склепа","kp_id":"271501","imdb_id":"tt0096708","world_art_id":null,"type":"serial","add":"2017-11-24 21:21:24","orig_title":"Tales from the Crypt","year":"1989-06-10","translations":["Профессиональный (многоголосый закадровый) (Позитив)","Профессиональный (многоголосый закадровый) (ТВ3)","Профессиональный (многоголосый закадровый) (НТВ)"],"seasons_count":7,"episodes_count":93,"episodes":13,"update":"2017-11-29 19:09:17","iframe_src":"//83.svetacdn.in/PfJ50H0ZBPg3/tv-series/1765"},{"id":1755,"title":"Большие деньги","kp_id":"935915","imdb_id":null,"world_art_id":null,"type":"serial","add":"2017-11-22 06:21:07","orig_title":"Большие деньги","year":"2017-11-20","translations":["Оригинальная дорожка"],"seasons_count":1,"episodes_count":12,"episodes":12,"update":"2017-11-29 11:04:50","iframe_src":"//83.svetacdn.in/PfJ50H0ZBPg3/tv-series/1755"},{"id":1707,"title":"Королева Джханси","kp_id":"541940","imdb_id":"tt1685078","world_art_id":null,"type":"serial","add":"2017-11-04 09:26:29","orig_title":"Ek Veer Stree Ki Kahaani... Jhansi Ki Rani","year":"2009-08-18","translations":["Полное дублирование"],"seasons_count":1,"episodes_count":350,"episodes":350,"update":"2017-11-30 11:01:03","iframe_src":"//83.svetacdn.in/PfJ50H0ZBPg3/tv-series/1707"},{"id":1572,"title":"Бесстыдники","kp_id":"882264","imdb_id":"tt4393622","world_art_id":null,"type":"serial","add":"2017-09-28 07:05:48","orig_title":"Besstydniki","year":"2017-09-24","translations":["Оригинальная дорожка"],"seasons_count":1,"episodes_count":24,"episodes":24,"update":"2017-11-29 13:52:37","iframe_src":"//83.svetacdn.in/PfJ50H0ZBPg3/tv-series/1572"},{"id":6271,"title":"Сказки с темной стороны","kp_id":"5940","imdb_id":"tt0100740","world_art_id":null,"type":"movie","add":"2016-10-13 16:09:10","orig_title":"Tales from the Darkside: The Movie","year":"1990-05-04","translations":["Любительский (одноголосый закадровый)","Профессиональный (многоголосый закадровый) (ТВ3)","Авторский (одноголосый закадровый) (Дохалов Вартан)","Авторский (одноголосый закадровый) (Иванов Михаил)","Авторский (одноголосый закадровый) (Кузнецов Сергей)","Авторский (одноголосый закадровый) (Сербин Юрий)","Original (English)","Профессиональный (двухголосый закадровый) (РТР | Россия)","Профессиональный (многоголосый закадровый) (ТВ3)"],"quality":"hdtv","translation":"Любительский (одноголосый закадровый)","update":"2020-09-24 08:22:13","iframe_src":"//83.svetacdn.in/PfJ50H0ZBPg3/movie/6271"},{"id":3148,"title":"Секс, ложь и видео","kp_id":"7701","imdb_id":"tt0098724","world_art_id":null,"type":"movie","add":"2016-06-15 10:02:12","orig_title":"Sex, Lies, and Videotape","year":"1989-01-20","translations":["Профессиональный (многоголосый закадровый)","Авторский (одноголосый закадровый) (Горчаков Василий)","Авторский (одноголосый закадровый) (Кузнецов Сергей)","Профессиональный (двухголосый закадровый) (DDV)","Original (English)","Профессиональный (двухголосый закадровый)","Профессиональный (многоголосый закадровый)","Профессиональный (многоголосый закадровый) (Первый канал | ОРТ)","Профессиональный (многоголосый закадровый) (Пифагор)"],"quality":"bd","translation":"Профессиональный (многоголосый закадровый)","update":"2020-09-24 15:47:26","iframe_src":"//83.svetacdn.in/PfJ50H0ZBPg3/movie/3148"},{"id":137,"title":"Отвязный Дайс","kp_id":"971141","imdb_id":"tt4688512","world_art_id":null,"type":"serial","add":"2016-06-05 14:07:30","orig_title":"Dice","year":"2016-04-10","translations":["Любительский (многоголосый закадровый) (Несмертельное оружие)","Профессиональный (многоголосый закадровый) (NewStudio)"],"seasons_count":2,"episodes_count":13,"episodes":7,"update":"2017-12-04 07:52:53","iframe_src":"//83.svetacdn.in/PfJ50H0ZBPg3/tv-series/137"},{"id":1578,"title":"Пустоголовые","kp_id":"4191","imdb_id":"tt0109068","world_art_id":null,"type":"movie","add":"2016-04-22 18:00:26","orig_title":"Airheads","year":"1994-08-05","translations":["Профессиональный (многоголосый закадровый)","Профессиональный (многоголосый закадровый)","Original (English)","Авторский (одноголосый закадровый) (Визгунов Сергей)","Авторский (одноголосый закадровый) (Дохалов Вартан)"],"quality":"bd","translation":"Профессиональный (многоголосый закадровый)","update":"2020-09-24 16:54:02","iframe_src":"//83.svetacdn.in/PfJ50H0ZBPg3/movie/1578"}],"current_page":471,"first_page_url":"https://videocdn.tv/api/short?limit=100&api_token=RgFQdUIR2dRmwv8iYa5SnFNgnw3vpjKj&cache3471=3471&page=1","from":47001,"last_page":628,"last_page_url":"https://videocdn.tv/api/short?limit=100&api_token=RgFQdUIR2dRmwv8iYa5SnFNgnw3vpjKj&cache3471=3471&page=628","next_page_url":"https://videocdn.tv/api/short?limit=100&api_token=RgFQdUIR2dRmwv8iYa5SnFNgnw3vpjKj&cache3471=3471&page=472","path":"https://videocdn.tv/api/short","per_page":100,"prev_page_url":"https://videocdn.tv/api/short?limit=100&api_token=RgFQdUIR2dRmwv8iYa5SnFNgnw3vpjKj&cache3471=3471&page=470","to":47040,"total":62765}