{"result":true,"data":[{"id":27664,"title":"Муза (Вдохновение для убийцы)","kp_id":"1163674","imdb_id":"tt8516544","world_art_id":null,"type":"movie","add":"2019-06-11 15:19:57","orig_title":"Muse","year":"2018-08-01","translations":["Любительский (многоголосый закадровый) (AlphaProject)"],"quality":"hdtv","translation":"Любительский (многоголосый закадровый) (AlphaProject)","update":"2019-06-11 16:38:49","iframe_src":"//83.svetacdn.in/PfJ50H0ZBPg3/movie/27664"},{"id":27642,"title":"Я действительно потерял солнце на Земле","kp_id":"1112330","imdb_id":"tt6013892","world_art_id":null,"type":"movie","add":"2019-06-11 06:27:09","orig_title":"Me Mzis Skivi Var Dedamicaze","year":"2017-01-28","translations":["Любительский (многоголосый закадровый) (Синема УС)"],"quality":"webdl","translation":"Любительский (многоголосый закадровый) (Синема УС)","update":"2019-06-11 16:37:38","iframe_src":"//83.svetacdn.in/PfJ50H0ZBPg3/movie/27642"},{"id":27640,"title":"Игра в желания","kp_id":"1248419","imdb_id":"tt10192308","world_art_id":null,"type":"movie","add":"2019-06-11 04:09:24","orig_title":"The Game of Desire","year":"2019-04-12","translations":["Любительский (многоголосый закадровый) (Колобок)"],"quality":"webdl","translation":"Любительский (многоголосый закадровый) (Колобок)","update":"2019-06-11 08:09:55","iframe_src":"//83.svetacdn.in/PfJ50H0ZBPg3/movie/27640"},{"id":27639,"title":"Дикий мёд","kp_id":"1026035","imdb_id":"tt6122306","world_art_id":null,"type":"movie","add":"2019-06-11 04:00:10","orig_title":"Wild Honey","year":"2017-10-27","translations":["Любительский (многоголосый закадровый) (Синема УС)"],"quality":"webdl","translation":"Любительский (многоголосый закадровый) (Синема УС)","update":"2019-06-11 08:02:38","iframe_src":"//83.svetacdn.in/PfJ50H0ZBPg3/movie/27639"},{"id":27636,"title":"Звездный путь: Возмездие","kp_id":"321","imdb_id":"tt0253754","world_art_id":null,"type":"movie","add":"2019-06-11 03:51:14","orig_title":"Star Trek 10: Nemesis","year":"2002-12-09","translations":["Профессиональный (многоголосый закадровый) (SDI Media)"],"quality":"bd","translation":"Профессиональный (многоголосый закадровый) (SDI Media)","update":"2019-06-11 15:53:28","iframe_src":"//83.svetacdn.in/PfJ50H0ZBPg3/movie/27636"},{"id":27635,"title":"Азиат","kp_id":"43569","imdb_id":"tt0312404","world_art_id":null,"type":"movie","add":"2019-06-10 22:47:38","orig_title":"Aziat","year":"1991-01-01","translations":["Оригинальная дорожка"],"quality":"webdl","translation":"Оригинальная дорожка","update":"2019-06-11 07:49:50","iframe_src":"//83.svetacdn.in/PfJ50H0ZBPg3/movie/27635"},{"id":27634,"title":"Включите северное сияние","kp_id":"45791","imdb_id":"tt0332492","world_art_id":null,"type":"movie","add":"2019-06-10 22:43:54","orig_title":"Vklyuchite severnoye siyaniye","year":"1972-08-27","translations":["Оригинальная дорожка"],"quality":"sat","translation":"Оригинальная дорожка","update":"2019-06-11 07:48:26","iframe_src":"//83.svetacdn.in/PfJ50H0ZBPg3/movie/27634"},{"id":27633,"title":"Государственный преступник","kp_id":"44592","imdb_id":"tt0166629","world_art_id":null,"type":"movie","add":"2019-06-10 22:40:22","orig_title":"Gosudarstvennyy prestupnik","year":"1964-11-09","translations":["Оригинальная дорожка"],"quality":"hdtv","translation":"Оригинальная дорожка","update":"2019-06-11 07:46:39","iframe_src":"//83.svetacdn.in/PfJ50H0ZBPg3/movie/27633"},{"id":27632,"title":"Дураки умирают по пятницам","kp_id":"44322","imdb_id":"tt0367685","world_art_id":null,"type":"movie","add":"2019-06-10 22:36:57","orig_title":"Duraki umirayut po pyatnitsam","year":"1990-01-01","translations":["Оригинальная дорожка"],"quality":"dvdrip","translation":"Оригинальная дорожка","update":"2019-06-11 07:45:16","iframe_src":"//83.svetacdn.in/PfJ50H0ZBPg3/movie/27632"},{"id":27631,"title":"За нами Москва","kp_id":"45178","imdb_id":"tt0348483","world_art_id":null,"type":"movie","add":"2019-06-10 22:33:41","orig_title":"Za nami Moskva","year":"1968-12-02","translations":["Оригинальная дорожка"],"quality":"webdl","translation":"Оригинальная дорожка","update":"2019-06-11 07:43:57","iframe_src":"//83.svetacdn.in/PfJ50H0ZBPg3/movie/27631"},{"id":27630,"title":"Мы – хлопцы живучие","kp_id":"490110","imdb_id":"tt1882114","world_art_id":null,"type":"movie","add":"2019-06-10 22:30:52","orig_title":"My - khloptsy zhivuchiye","year":"1974-01-01","translations":["Оригинальная дорожка"],"quality":"sat","translation":"Оригинальная дорожка","update":"2019-06-11 07:41:48","iframe_src":"//83.svetacdn.in/PfJ50H0ZBPg3/movie/27630"},{"id":27629,"title":"Аэроград","kp_id":"43418","imdb_id":"tt0026040","world_art_id":null,"type":"movie","add":"2019-06-10 17:53:15","orig_title":"Aerograd","year":"1935-11-06","translations":["Оригинальная дорожка"],"quality":"dvdrip","translation":"Оригинальная дорожка","update":"2019-06-11 07:32:56","iframe_src":"//83.svetacdn.in/PfJ50H0ZBPg3/movie/27629"},{"id":27628,"title":"Родина зовет","kp_id":"42105","imdb_id":"tt0128981","world_art_id":null,"type":"movie","add":"2019-06-10 17:47:49","orig_title":"Rodina zovyot","year":"1936-04-29","translations":["Оригинальная дорожка"],"quality":"dvdrip","translation":"Оригинальная дорожка","update":"2019-06-11 07:31:42","iframe_src":"//83.svetacdn.in/PfJ50H0ZBPg3/movie/27628"},{"id":27627,"title":"Волочаевские дни","kp_id":"45832","imdb_id":"tt0030949","world_art_id":null,"type":"movie","add":"2019-06-10 17:41:43","orig_title":"Volochayevskiye dni","year":"1938-01-20","translations":["Оригинальная дорожка"],"quality":"dvdrip","translation":"Оригинальная дорожка","update":"2019-06-11 07:58:11","iframe_src":"//83.svetacdn.in/PfJ50H0ZBPg3/movie/27627"},{"id":27626,"title":"Мужество","kp_id":"46743","imdb_id":"tt0031687","world_art_id":null,"type":"movie","add":"2019-06-10 17:37:18","orig_title":"Muzhestvo","year":"1939-08-16","translations":["Оригинальная дорожка"],"quality":"dvdrip","translation":"Оригинальная дорожка","update":"2019-06-11 07:28:02","iframe_src":"//83.svetacdn.in/PfJ50H0ZBPg3/movie/27626"},{"id":27625,"title":"Казаки","kp_id":"44748","imdb_id":"tt0174810","world_art_id":null,"type":"movie","add":"2019-06-10 17:29:58","orig_title":"Kazaki","year":"1961-08-14","translations":["Оригинальная дорожка"],"quality":"dvdrip","translation":"Оригинальная дорожка","update":"2019-06-11 07:26:08","iframe_src":"//83.svetacdn.in/PfJ50H0ZBPg3/movie/27625"},{"id":27624,"title":"Они шли на Восток","kp_id":"1641","imdb_id":"tt0059323","world_art_id":null,"type":"movie","add":"2019-06-10 17:23:29","orig_title":"Italiani brava gente","year":"1964-09-16","translations":["Профессиональный (одноголосый закадровый)"],"quality":"dvdrip","translation":"Профессиональный (одноголосый закадровый)","update":"2019-06-11 07:13:38","iframe_src":"//83.svetacdn.in/PfJ50H0ZBPg3/movie/27624"},{"id":27623,"title":"А вы любили когда-нибудь?","kp_id":"46778","imdb_id":"tt0147799","world_art_id":null,"type":"movie","add":"2019-06-10 17:09:21","orig_title":"...A vy lyubili kogda-nibud?","year":"1973-01-14","translations":["Оригинальная дорожка"],"quality":"dvdrip","translation":"Оригинальная дорожка","update":"2019-06-11 07:12:26","iframe_src":"//83.svetacdn.in/PfJ50H0ZBPg3/movie/27623"},{"id":23928,"title":"...По прозвищу «Зверь»","kp_id":"46783","imdb_id":"tt0098958","world_art_id":null,"type":"movie","add":"2019-04-05 10:00:32","orig_title":"...Po prozvishchu 'Zver'","year":"1990-01-01","translations":["Оригинальная дорожка"],"quality":"hdtv","translation":"Оригинальная дорожка","update":"2019-06-11 07:39:16","iframe_src":"//83.svetacdn.in/PfJ50H0ZBPg3/movie/23928"},{"id":21784,"title":"Прошлым летом в Чулимске","kp_id":"797972","imdb_id":"tt6185664","world_art_id":null,"type":"movie","add":"2019-01-24 19:26:52","orig_title":"Proshlym letom v Chulimske","year":"2014-05-13","translations":["Оригинальная дорожка"],"quality":"webdl","translation":"Оригинальная дорожка","update":"2019-06-11 07:34:35","iframe_src":"//83.svetacdn.in/PfJ50H0ZBPg3/movie/21784"}],"current_page":1380,"first_page_url":"https://videocdn.tv/api/short?limit=100&api_token=RgFQdUIR2dRmwv8iYa5SnFNgnw3vpjKj&cache31380=31380&page=1","from":137901,"last_page":634,"last_page_url":"https://videocdn.tv/api/short?limit=100&api_token=RgFQdUIR2dRmwv8iYa5SnFNgnw3vpjKj&cache31380=31380&page=634","next_page_url":null,"path":"https://videocdn.tv/api/short","per_page":100,"prev_page_url":"https://videocdn.tv/api/short?limit=100&api_token=RgFQdUIR2dRmwv8iYa5SnFNgnw3vpjKj&cache31380=31380&page=1379","to":137920,"total":63356}