{"result":true,"data":[{"id":28164,"title":"Сашенька","kp_id":"1141295","imdb_id":"tt7914282","world_art_id":null,"type":"movie","add":"2019-06-22 14:04:51","orig_title":"Sashinka","year":"2017-10-13","translations":["Любительский (многоголосый закадровый) (Синема УС)"],"quality":"webdl","translation":"Любительский (многоголосый закадровый) (Синема УС)","update":"2019-06-23 05:59:32","iframe_src":"//24213.svetacdn.in/71tsRs29n5tZ/movie/28164"},{"id":28122,"title":"Финал","kp_id":"1085616","imdb_id":"tt7141030","world_art_id":null,"type":"movie","add":"2019-06-22 07:41:17","orig_title":"La finale","year":"2018-01-17","translations":["Любительский (многоголосый закадровый) (Синема УС)"],"quality":"bd","translation":"Любительский (многоголосый закадровый) (Синема УС)","update":"2019-06-22 14:25:42","iframe_src":"//24213.svetacdn.in/71tsRs29n5tZ/movie/28122"},{"id":28120,"title":"Мисс Дали","kp_id":null,"imdb_id":"tt6688832","world_art_id":null,"type":"movie","add":"2019-06-22 07:24:31","orig_title":"Miss Dalí","year":"2018-11-16","translations":["Любительский (многоголосый закадровый) (Синема УС)"],"quality":"webdl","translation":"Любительский (многоголосый закадровый) (Синема УС)","update":"2019-06-22 14:23:09","iframe_src":"//24213.svetacdn.in/71tsRs29n5tZ/movie/28120"},{"id":28119,"title":"Жаркое солнце","kp_id":"1015178","imdb_id":"tt6029350","world_art_id":null,"type":"movie","add":"2019-06-22 07:22:01","orig_title":"Soleil battant","year":"2017-10-21","translations":["Любительский (многоголосый закадровый) (Синема УС)"],"quality":"webdl","translation":"Любительский (многоголосый закадровый) (Синема УС)","update":"2019-06-22 14:22:02","iframe_src":"//24213.svetacdn.in/71tsRs29n5tZ/movie/28119"},{"id":28117,"title":"Путешествие к высокогорью","kp_id":"1092572","imdb_id":"tt6821206","world_art_id":null,"type":"movie","add":"2019-06-21 10:51:50","orig_title":"Run for the High Country","year":"2018-10-26","translations":["Любительский (многоголосый закадровый) (Синема УС)"],"quality":"webdl","translation":"Любительский (многоголосый закадровый) (Синема УС)","update":"2019-06-21 19:34:28","iframe_src":"//24213.svetacdn.in/71tsRs29n5tZ/movie/28117"},{"id":28064,"title":"Там, где живет любовь","kp_id":"420146","imdb_id":null,"world_art_id":null,"type":"movie","add":"2019-06-20 18:14:16","orig_title":"Там, где живет любовь","year":"2006-01-01","translations":["Оригинальная дорожка"],"quality":"dvdrip","translation":"Оригинальная дорожка","update":"2019-06-21 08:03:23","iframe_src":"//24213.svetacdn.in/71tsRs29n5tZ/movie/28064"},{"id":28063,"title":"Тоталитарный роман","kp_id":"40767","imdb_id":"tt0320646","world_art_id":null,"type":"movie","add":"2019-06-20 17:54:50","orig_title":"Totalitarnyy roman","year":"1998-01-01","translations":["Оригинальная дорожка"],"quality":"dvdrip","translation":"Оригинальная дорожка","update":"2019-06-21 08:02:01","iframe_src":"//24213.svetacdn.in/71tsRs29n5tZ/movie/28063"},{"id":28062,"title":"Три товарища","kp_id":"42309","imdb_id":"tt0129455","world_art_id":null,"type":"movie","add":"2019-06-20 17:51:25","orig_title":"Tri tovarishcha","year":"1935-02-13","translations":["Оригинальная дорожка"],"quality":"dvdrip","translation":"Оригинальная дорожка","update":"2019-06-21 08:03:28","iframe_src":"//24213.svetacdn.in/71tsRs29n5tZ/movie/28062"},{"id":28061,"title":"Утро","kp_id":"464931","imdb_id":null,"world_art_id":null,"type":"movie","add":"2019-06-20 17:48:03","orig_title":"Утро","year":"2009-01-01","translations":["Оригинальная дорожка"],"quality":"dvdrip","translation":"Оригинальная дорожка","update":"2019-06-21 08:03:16","iframe_src":"//24213.svetacdn.in/71tsRs29n5tZ/movie/28061"},{"id":28060,"title":"Жизнь прошла мимо","kp_id":"45342","imdb_id":"tt0230996","world_art_id":null,"type":"movie","add":"2019-06-20 17:38:46","orig_title":"Zhizn proshla mimo","year":"1959-04-14","translations":["Оригинальная дорожка"],"quality":"sat","translation":"Оригинальная дорожка","update":"2019-06-21 08:04:49","iframe_src":"//24213.svetacdn.in/71tsRs29n5tZ/movie/28060"},{"id":28059,"title":"Зимнее утро","kp_id":"45354","imdb_id":"tt0187612","world_art_id":null,"type":"movie","add":"2019-06-20 17:35:35","orig_title":"Zimnee utro","year":"1967-01-09","translations":["Оригинальная дорожка"],"quality":"dvdrip","translation":"Оригинальная дорожка","update":"2019-06-21 08:07:21","iframe_src":"//24213.svetacdn.in/71tsRs29n5tZ/movie/28059"},{"id":28058,"title":"Возьми меня с собой","kp_id":"45868","imdb_id":"tt0283379","world_art_id":null,"type":"movie","add":"2019-06-20 17:28:11","orig_title":"Vozmi menya s soboy","year":"1979-01-01","translations":["Оригинальная дорожка"],"quality":"sat","translation":"Оригинальная дорожка","update":"2019-06-21 08:07:19","iframe_src":"//24213.svetacdn.in/71tsRs29n5tZ/movie/28058"},{"id":28057,"title":"Глубокое течение","kp_id":"473835","imdb_id":"tt2933692","world_art_id":null,"type":"movie","add":"2019-06-20 17:21:46","orig_title":"Glubokoe techenie","year":"2005-01-01","translations":["Оригинальная дорожка"],"quality":"sat","translation":"Оригинальная дорожка","update":"2019-06-21 08:09:42","iframe_src":"//24213.svetacdn.in/71tsRs29n5tZ/movie/28057"},{"id":28056,"title":"Послушай, не идет ли дождь","kp_id":"40942","imdb_id":"tt0320302","world_art_id":null,"type":"movie","add":"2019-06-20 16:33:26","orig_title":"Poslushay, ne idyot li dozhd...","year":"1999-11-20","translations":["Оригинальная дорожка"],"quality":"sat","translation":"Оригинальная дорожка","update":"2019-06-21 08:10:54","iframe_src":"//24213.svetacdn.in/71tsRs29n5tZ/movie/28056"},{"id":28055,"title":"Простые вещи","kp_id":"263978","imdb_id":"tt0846069","world_art_id":null,"type":"movie","add":"2019-06-20 16:17:44","orig_title":"Prostye veshchi","year":"2007-07-05","translations":["Оригинальная дорожка"],"quality":"dvdrip","translation":"Оригинальная дорожка","update":"2019-06-21 08:13:22","iframe_src":"//24213.svetacdn.in/71tsRs29n5tZ/movie/28055"},{"id":28054,"title":"Судьба Марии","kp_id":"739479","imdb_id":null,"world_art_id":null,"type":"movie","add":"2019-06-20 16:13:50","orig_title":"Судьба Марии","year":"2013-03-03","translations":["Оригинальная дорожка"],"quality":"hdtv","translation":"Оригинальная дорожка","update":"2019-06-21 08:14:41","iframe_src":"//24213.svetacdn.in/71tsRs29n5tZ/movie/28054"},{"id":25958,"title":"Спасибо деду за победу","kp_id":"1007492","imdb_id":"tt10308674","world_art_id":null,"type":"movie","add":"2019-05-04 19:09:12","orig_title":"Spasibo dedu za pobedu","year":"2019-05-01","translations":["Оригинальная дорожка"],"quality":"webdl","translation":"Оригинальная дорожка","update":"2019-06-22 14:26:31","iframe_src":"//24213.svetacdn.in/71tsRs29n5tZ/movie/25958"},{"id":13048,"title":"Заклятые друзья","kp_id":"586331","imdb_id":"tt1865368","world_art_id":null,"type":"movie","add":"2017-08-20 07:36:54","orig_title":"Frenemies","year":"2012-01-13","translations":["Полное дублирование (Disney Channel)"],"quality":"hdtv","translation":"Полное дублирование (Disney Channel)","update":"2019-06-21 18:01:04","iframe_src":"//24213.svetacdn.in/71tsRs29n5tZ/movie/13048"},{"id":4561,"title":"Газгольдер: Фильм","kp_id":"809032","imdb_id":"tt3956396","world_art_id":null,"type":"movie","add":"2016-08-19 07:32:12","orig_title":"GazGolder","year":"2014-04-24","translations":["Оригинальная дорожка"],"quality":"bd","translation":"Оригинальная дорожка","update":"2019-06-21 08:08:16","iframe_src":"//24213.svetacdn.in/71tsRs29n5tZ/movie/4561"},{"id":2875,"title":"Тайна темной комнаты","kp_id":"803433","imdb_id":"tt4415976","world_art_id":null,"type":"movie","add":"2016-06-03 20:40:58","orig_title":"Tayna tyomnoy komnaty","year":"2014-10-30","translations":["Оригинальная дорожка"],"quality":"webdl","translation":"Оригинальная дорожка","update":"2019-06-21 08:03:25","iframe_src":"//24213.svetacdn.in/71tsRs29n5tZ/movie/2875"}],"current_page":1892,"first_page_url":"https://videocdn.tv/api/short?limit=100&api_token=EnbO9h8pv1VyjbCJhg0WM9nG259n7mtz&cache31892=31892&page=1","from":189101,"last_page":733,"last_page_url":"https://videocdn.tv/api/short?limit=100&api_token=EnbO9h8pv1VyjbCJhg0WM9nG259n7mtz&cache31892=31892&page=733","next_page_url":null,"path":"https://videocdn.tv/api/short","per_page":100,"prev_page_url":"https://videocdn.tv/api/short?limit=100&api_token=EnbO9h8pv1VyjbCJhg0WM9nG259n7mtz&cache31892=31892&page=1891","to":189120,"total":73212}