{"result":true,"data":[{"id":48660,"title":"Звук острова Блок","kp_id":"1180777","imdb_id":"tt8747160","world_art_id":null,"type":"movie","add":"2021-03-11 20:08:02","orig_title":"The Block Island Sound","year":"2020-08-28","translations":["Полное дублирование (Netflix)"],"quality":"webdl","translation":"Полное дублирование (Netflix)","update":"2021-03-12 06:17:13","iframe_src":"//83.svetacdn.in/PfJ50H0ZBPg3/movie/48660"},{"id":48659,"title":"Это — Брюс Ли","kp_id":"94346","imdb_id":"tt0077724","world_art_id":null,"type":"movie","add":"2021-03-11 19:52:39","orig_title":"Meng nan da zei yan zhi hu","year":"1978-08-31","translations":["Профессиональный (многоголосый закадровый)"],"quality":"dvb","translation":"Профессиональный (многоголосый закадровый)","update":"2021-03-12 09:48:41","iframe_src":"//83.svetacdn.in/PfJ50H0ZBPg3/movie/48659"},{"id":48654,"title":"Искупление","kp_id":"1202907","imdb_id":"tt8170712","world_art_id":null,"type":"movie","add":"2021-03-11 07:58:40","orig_title":"Redeemed","year":"2021-02-18","translations":["Любительский (многоголосый закадровый) (Синема УС)"],"quality":"webdl","translation":"Любительский (многоголосый закадровый) (Синема УС)","update":"2021-03-11 13:27:19","iframe_src":"//83.svetacdn.in/PfJ50H0ZBPg3/movie/48654"},{"id":48653,"title":"Коннор Макдэвид: Во что бы то ни стало","kp_id":null,"imdb_id":"tt11644320","world_art_id":null,"type":"movie","add":"2021-03-11 07:55:45","orig_title":"Connor McDavid: Whatever It Takes","year":"2020-01-01","translations":["Любительский (многоголосый закадровый) (Синема УС)"],"quality":"webdl","translation":"Любительский (многоголосый закадровый) (Синема УС)","update":"2021-03-11 13:23:23","iframe_src":"//83.svetacdn.in/PfJ50H0ZBPg3/movie/48653"},{"id":48652,"title":"Рождество Кэрол","kp_id":"4383377","imdb_id":"tt10999120","world_art_id":null,"type":"movie","add":"2021-03-11 07:51:13","orig_title":"Carol's Christmas","year":"2021-02-04","translations":["Любительский (многоголосый закадровый) (AlphaProject)"],"quality":"webdl","translation":"Любительский (многоголосый закадровый) (AlphaProject)","update":"2021-03-11 13:22:52","iframe_src":"//83.svetacdn.in/PfJ50H0ZBPg3/movie/48652"},{"id":48646,"title":"Великолепное воскресенье","kp_id":"161212","imdb_id":"tt0039871","world_art_id":null,"type":"movie","add":"2021-03-11 06:52:16","orig_title":"Subarashiki nichiyôbi","year":"1947-07-01","translations":["Профессиональный (двухголосый закадровый)"],"quality":"bd","translation":"Профессиональный (двухголосый закадровый)","update":"2021-03-12 09:04:43","iframe_src":"//83.svetacdn.in/PfJ50H0ZBPg3/movie/48646"},{"id":48638,"title":"Жанна Дильман, набережная коммерции 23, Брюссель 1080","kp_id":"127756","imdb_id":"tt0073198","world_art_id":null,"type":"movie","add":"2021-03-11 05:29:14","orig_title":"Jeanne Dielman, 23, quai du commerce, 1080 Bruxelles","year":"1975-05-14","translations":["Авторский (одноголосый закадровый) (Воротилин Олег)"],"quality":"bd","translation":"Авторский (одноголосый закадровый) (Воротилин Олег)","update":"2021-03-12 09:15:21","iframe_src":"//83.svetacdn.in/PfJ50H0ZBPg3/movie/48638"},{"id":48637,"title":"Оазис","kp_id":"46959","imdb_id":"tt0320193","world_art_id":null,"type":"movie","add":"2021-03-11 05:24:59","orig_title":"Oasiseu","year":"2002-08-09","translations":["Профессиональный (одноголосый закадровый)"],"quality":"bd","translation":"Профессиональный (одноголосый закадровый)","update":"2021-03-12 08:59:27","iframe_src":"//83.svetacdn.in/PfJ50H0ZBPg3/movie/48637"},{"id":47382,"title":"День города","kp_id":"1402921","imdb_id":null,"world_art_id":null,"type":"movie","add":"2021-01-25 15:21:02","orig_title":"День города","year":"2021-01-21","translations":["Оригинальная дорожка"],"quality":"webdl","translation":"Оригинальная дорожка","update":"2021-03-12 09:15:28","iframe_src":"//83.svetacdn.in/PfJ50H0ZBPg3/movie/47382"},{"id":46998,"title":"Мы не ангелы","kp_id":"12916","imdb_id":"tt0048801","world_art_id":null,"type":"movie","add":"2021-01-12 19:36:40","orig_title":"We're No Angels","year":"1955-07-07","translations":["Профессиональный (многоголосый закадровый) (Домашний)","Профессиональный (многоголосый закадровый) (Paramount Channel)","Original (English)"],"quality":"bd","translation":"Профессиональный (многоголосый закадровый) (Домашний)","update":"2021-03-11 16:20:46","iframe_src":"//83.svetacdn.in/PfJ50H0ZBPg3/movie/46998"},{"id":7354,"title":"Лес любви: Ещё глубже","kp_id":"1368114","imdb_id":"tt12079236","world_art_id":null,"type":"serial","add":"2020-04-30 20:41:41","orig_title":"The Forest of Love: Deep Cut","year":"2020-04-30","translations":["Любительский (многоголосый закадровый) (ColdFilm)","Любительский (многоголосый закадровый) (Octopus)"],"seasons_count":1,"episodes_count":7,"episodes":7,"update":"2020-05-01 07:25:43","iframe_src":"//83.svetacdn.in/PfJ50H0ZBPg3/tv-series/7354"},{"id":7350,"title":"Вы заказывали убийство","kp_id":"493922","imdb_id":"tt4428580","world_art_id":null,"type":"serial","add":"2020-04-30 13:29:07","orig_title":"Vy zakazyvali ubiystvo","year":"2010-07-05","translations":["Оригинальная дорожка"],"seasons_count":1,"episodes_count":16,"episodes":16,"update":"2020-05-01 17:47:30","iframe_src":"//83.svetacdn.in/PfJ50H0ZBPg3/tv-series/7350"},{"id":7349,"title":"Алый мыс","kp_id":"731872","imdb_id":"tt1534363","world_art_id":null,"type":"serial","add":"2020-04-30 12:58:36","orig_title":"Punta Escarlata","year":"2011-07-20","translations":["Профессиональный (многоголосый закадровый) (Русский репортаж)"],"seasons_count":1,"episodes_count":12,"episodes":12,"update":"2020-04-30 20:27:29","iframe_src":"//83.svetacdn.in/PfJ50H0ZBPg3/tv-series/7349"},{"id":7343,"title":"Карин и её собака","kp_id":"467937","imdb_id":"tt0196260","world_art_id":null,"type":"serial","add":"2020-04-29 19:29:48","orig_title":"Karine et Ari","year":"1996-12-16","translations":["Профессиональный (многоголосый закадровый) (Первый канал | ОРТ)"],"seasons_count":1,"episodes_count":48,"episodes":48,"update":"2020-04-30 16:53:36","iframe_src":"//83.svetacdn.in/PfJ50H0ZBPg3/tv-series/7343"},{"id":7342,"title":"Одно большое счастье","kp_id":"823717","imdb_id":"tt3501016","world_art_id":null,"type":"serial","add":"2020-04-29 19:24:26","orig_title":"One Big Happy","year":"2015-03-17","translations":["Любительский (двухголосый закадровый) (Jetvis Studio)"],"seasons_count":1,"episodes_count":6,"episodes":6,"update":"2020-04-30 16:22:48","iframe_src":"//83.svetacdn.in/PfJ50H0ZBPg3/tv-series/7342"},{"id":7341,"title":"Жизнь и приключения робота-подростка","kp_id":"416180","imdb_id":"tt0318233","world_art_id":null,"type":"serial","add":"2020-04-29 17:53:43","orig_title":"My Life as a Teenage Robot","year":"2003-08-01","translations":["Полное дублирование"],"seasons_count":3,"episodes_count":61,"episodes":13,"update":"2020-04-30 18:43:09","iframe_src":"//83.svetacdn.in/PfJ50H0ZBPg3/tv-series/7341"},{"id":7339,"title":"Где ты, Челси?","kp_id":"586590","imdb_id":"tt1826989","world_art_id":null,"type":"serial","add":"2020-04-29 14:35:12","orig_title":"Are You There, Chelsea?","year":"2013-12-21","translations":["Любительский (одноголосый закадровый)"],"seasons_count":1,"episodes_count":12,"episodes":12,"update":"2020-04-30 08:56:57","iframe_src":"//83.svetacdn.in/PfJ50H0ZBPg3/tv-series/7339"},{"id":7338,"title":"Фи, Чи, Пи","kp_id":"1044486","imdb_id":"tt6724368","world_art_id":null,"type":"serial","add":"2020-04-29 14:25:07","orig_title":"Fi","year":"2017-03-31","translations":["Авторский (одноголосый закадровый) (Котова Ирина)"],"seasons_count":2,"episodes_count":22,"episodes":10,"update":"2020-04-30 09:35:56","iframe_src":"//83.svetacdn.in/PfJ50H0ZBPg3/tv-series/7338"},{"id":7337,"title":"Ферма во времена Тюдоров","kp_id":"861635","imdb_id":"tt4103600","world_art_id":null,"type":"serial","add":"2020-04-29 13:48:18","orig_title":"Tudor Monastery Farm","year":"2013-11-13","translations":["Профессиональный (одноголосый закадровый)"],"seasons_count":1,"episodes_count":6,"episodes":6,"update":"2020-04-30 09:23:18","iframe_src":"//83.svetacdn.in/PfJ50H0ZBPg3/tv-series/7337"},{"id":7336,"title":"Выхожу тебя искать 2","kp_id":"681878","imdb_id":"tt4113960","world_art_id":null,"type":"serial","add":"2020-04-29 13:07:34","orig_title":"Vykhozhu tebya iskat' 2","year":"2012-01-01","translations":["Оригинальная дорожка"],"seasons_count":1,"episodes_count":12,"episodes":12,"update":"2020-04-30 08:48:56","iframe_src":"//83.svetacdn.in/PfJ50H0ZBPg3/tv-series/7336"},{"id":7328,"title":"Вайпер","kp_id":"330337","imdb_id":"tt0108983","world_art_id":null,"type":"serial","add":"2020-04-28 18:23:57","orig_title":"Viper","year":"1994-01-02","translations":["Профессиональный (многоголосый закадровый)"],"seasons_count":2,"episodes_count":42,"episodes":21,"update":"2020-04-30 18:22:18","iframe_src":"//83.svetacdn.in/PfJ50H0ZBPg3/tv-series/7328"},{"id":7311,"title":"Том и Джерри","kp_id":"1145146","imdb_id":"tt12158994","world_art_id":null,"type":"serial","add":"2020-04-26 09:35:21","orig_title":"Tom and Jerry","year":"1940-02-10","translations":["Профессиональный (многоголосый закадровый) (СТС)","Любительский (одноголосый закадровый) (Ошурков Максим)","Любительский (одноголосый закадровый)","Профессиональный (многоголосый закадровый)"],"seasons_count":3,"episodes_count":207,"episodes":34,"update":"2020-04-30 16:16:57","iframe_src":"//83.svetacdn.in/PfJ50H0ZBPg3/tv-series/7311"},{"id":7231,"title":"Охота на певицу","kp_id":"1208018","imdb_id":null,"world_art_id":null,"type":"serial","add":"2020-04-20 12:27:00","orig_title":"Охота на певицу","year":"2020-04-20","translations":["Оригинальная дорожка"],"seasons_count":1,"episodes_count":16,"episodes":16,"update":"2020-05-01 13:23:43","iframe_src":"//83.svetacdn.in/PfJ50H0ZBPg3/tv-series/7231"},{"id":7192,"title":"Чудеса инженерии","kp_id":"581413","imdb_id":"tt1224381","world_art_id":null,"type":"serial","add":"2020-04-14 17:30:11","orig_title":"Big, Bigger, Biggest","year":"2008-04-01","translations":["Профессиональный (одноголосый закадровый)"],"seasons_count":3,"episodes_count":20,"episodes":6,"update":"2020-04-30 17:34:36","iframe_src":"//83.svetacdn.in/PfJ50H0ZBPg3/tv-series/7192"},{"id":7165,"title":"Тодд и книга чистого зла","kp_id":"579850","imdb_id":"tt1558128","world_art_id":null,"type":"serial","add":"2020-04-13 08:25:01","orig_title":"Todd and the Book of Pure Evil","year":"2010-09-26","translations":["Любительский (многоголосый закадровый) (Alternative Production)","Любительский (многоголосый закадровый)"],"seasons_count":2,"episodes_count":26,"episodes":13,"update":"2020-04-30 10:39:32","iframe_src":"//83.svetacdn.in/PfJ50H0ZBPg3/tv-series/7165"},{"id":34927,"title":"Как влюбленный","kp_id":"606807","imdb_id":"tt1843287","world_art_id":null,"type":"movie","add":"2020-01-09 22:04:54","orig_title":"Like Someone in Love","year":"2012-04-11","translations":["Любительский (одноголосый закадровый) (D.I.M.)"],"quality":"bd","translation":"Любительский (одноголосый закадровый) (D.I.M.)","update":"2021-03-12 09:09:30","iframe_src":"//83.svetacdn.in/PfJ50H0ZBPg3/movie/34927"},{"id":23023,"title":"Ноль","kp_id":"1057991","imdb_id":"tt6527426","world_art_id":null,"type":"movie","add":"2019-03-13 19:47:15","orig_title":"Zero","year":"2018-12-21","translations":["Любительский (многоголосый закадровый) (Honey&Haseena)","Профессиональный (многоголосый закадровый) (HDrezka Studio)"],"quality":"bd","translation":"Любительский (многоголосый закадровый) (Honey&Haseena)","update":"2021-03-12 06:53:38","iframe_src":"//83.svetacdn.in/PfJ50H0ZBPg3/movie/23023"},{"id":22668,"title":"Напиши, когда найдёшь работу","kp_id":"1144908","imdb_id":"tt7917484","world_art_id":null,"type":"movie","add":"2019-03-03 13:37:25","orig_title":"Write When You Get Work","year":"2018-03-12","translations":["Профессиональный (многоголосый закадровый) (HDrezka Studio)"],"quality":"webdl","translation":"Профессиональный (многоголосый закадровый) (HDrezka Studio)","update":"2021-03-12 06:53:22","iframe_src":"//83.svetacdn.in/PfJ50H0ZBPg3/movie/22668"},{"id":22461,"title":"Торговый пункт","kp_id":"1048539","imdb_id":"tt7052494","world_art_id":null,"type":"movie","add":"2019-02-23 08:28:06","orig_title":"Trading Paint","year":"2019-02-22","translations":["Любительский (многоголосый закадровый) (@MUZOBOZ@)","Любительский (двухголосый закадровый) (HiWayGrope)","Профессиональный (многоголосый закадровый) (HDrezka Studio)","Профессиональный (многоголосый закадровый) (HDrezka Studio)"],"quality":"webdl","translation":"Любительский (многоголосый закадровый) (@MUZOBOZ@)","update":"2021-03-12 06:52:33","iframe_src":"//83.svetacdn.in/PfJ50H0ZBPg3/movie/22461"},{"id":22156,"title":"Бунтарка без причины","kp_id":"1050004","imdb_id":"tt7253190","world_art_id":null,"type":"movie","add":"2019-02-09 08:54:20","orig_title":"Wild Honey Pie","year":"2018-08-12","translations":["Любительский (многоголосый закадровый)","Профессиональный (многоголосый закадровый) (HDrezka Studio)","Профессиональный (многоголосый закадровый) (HDrezka Studio)"],"quality":"webdl","translation":"Любительский (многоголосый закадровый)","update":"2021-03-12 06:53:09","iframe_src":"//83.svetacdn.in/PfJ50H0ZBPg3/movie/22156"},{"id":21762,"title":"Клаустрофобы","kp_id":"1065805","imdb_id":"tt5886046","world_art_id":null,"type":"movie","add":"2019-01-24 11:04:05","orig_title":"Escape Room","year":"2019-01-03","translations":["Полное дублирование","Original (English)","Original (English)"],"quality":"bd","translation":"Полное дублирование","update":"2021-03-12 08:53:19","iframe_src":"//83.svetacdn.in/PfJ50H0ZBPg3/movie/21762"},{"id":3872,"title":"Обученные","kp_id":"1018411","imdb_id":"tt6546758","world_art_id":null,"type":"serial","add":"2019-01-14 09:01:29","orig_title":"Schooled","year":"2019-01-09","translations":["Профессиональный (многоголосый закадровый) (Jaskier)","Профессиональный (многоголосый закадровый) (NewStudio)","Профессиональный (многоголосый закадровый) (TVShows)","Профессиональный (многоголосый закадровый) (HDrezka Studio)"],"seasons_count":2,"episodes_count":31,"episodes":18,"update":"2020-04-30 09:34:04","iframe_src":"//83.svetacdn.in/PfJ50H0ZBPg3/tv-series/3872"},{"id":20526,"title":"Ведьма Лапласа","kp_id":"1042573","imdb_id":"tt6686358","world_art_id":null,"type":"movie","add":"2018-12-06 00:48:18","orig_title":"Rapurasu no majo","year":"2018-05-04","translations":["Любительский (многоголосый закадровый) (Колобок)","Любительский (двухголосый закадровый)","Профессиональный (многоголосый закадровый) (HDrezka Studio)","Профессиональный (многоголосый закадровый) (HDrezka Studio)"],"quality":"bd","translation":"Любительский (многоголосый закадровый) (Колобок)","update":"2021-03-12 06:55:14","iframe_src":"//83.svetacdn.in/PfJ50H0ZBPg3/movie/20526"},{"id":20296,"title":"Господь, благослови этот извилистый путь","kp_id":"978188","imdb_id":"tt5702446","world_art_id":null,"type":"movie","add":"2018-11-25 22:14:43","orig_title":"God Bless the Broken Road","year":"2018-09-07","translations":["Профессиональный (многоголосый закадровый) (HDrezka Studio)"],"quality":"bd","translation":"Профессиональный (многоголосый закадровый) (HDrezka Studio)","update":"2021-03-12 06:54:36","iframe_src":"//83.svetacdn.in/PfJ50H0ZBPg3/movie/20296"},{"id":20289,"title":"Вдовы","kp_id":"965901","imdb_id":"tt4218572","world_art_id":null,"type":"movie","add":"2018-11-25 20:38:21","orig_title":"Widows","year":"2018-09-09","translations":["Полное дублирование","Любительский (многоголосый закадровый) (@MUZOBOZ@)","Original (English)","Профессиональный (многоголосый закадровый) (HDrezka Studio)"],"quality":"bd","translation":"Полное дублирование","update":"2021-03-12 06:52:52","iframe_src":"//83.svetacdn.in/PfJ50H0ZBPg3/movie/20289"},{"id":19546,"title":"Тёмное зеркало","kp_id":"1027785","imdb_id":"tt5834760","world_art_id":null,"type":"movie","add":"2018-10-13 20:50:40","orig_title":"Look Away","year":"2018-10-12","translations":["Любительский (многоголосый закадровый) (AlphaProject)","Любительский (одноголосый закадровый)","Любительский (двухголосый закадровый) (HiWayGrope)","Любительский (двухголосый закадровый) (LakeFilms)","Профессиональный (многоголосый закадровый) (HDrezka Studio)","Полное дублирование","Профессиональный (многоголосый закадровый) (HDrezka Studio)"],"quality":"webdl","translation":"Любительский (многоголосый закадровый) (AlphaProject)","update":"2021-03-12 06:55:48","iframe_src":"//83.svetacdn.in/PfJ50H0ZBPg3/movie/19546"},{"id":1880,"title":"Врата","kp_id":"503686","imdb_id":"tt1599357","world_art_id":null,"type":"serial","add":"2017-12-21 06:14:51","orig_title":"The Gates","year":"2010-06-20","translations":["Профессиональный (многоголосый закадровый) (Первый канал | ОРТ)"],"seasons_count":1,"episodes_count":13,"episodes":13,"update":"2020-04-30 15:24:53","iframe_src":"//83.svetacdn.in/PfJ50H0ZBPg3/tv-series/1880"},{"id":1324,"title":"Эль Чапо","kp_id":"1045249","imdb_id":"tt6692188","world_art_id":null,"type":"serial","add":"2017-06-17 07:47:58","orig_title":"El Chapo","year":"2017-04-23","translations":["Профессиональный (многоголосый закадровый) (NewStudio)","Профессиональный (многоголосый закадровый) (Good People)"],"seasons_count":3,"episodes_count":34,"episodes":13,"update":"2020-05-01 13:28:14","iframe_src":"//83.svetacdn.in/PfJ50H0ZBPg3/tv-series/1324"},{"id":1030,"title":"Прослушка","kp_id":"402955","imdb_id":"tt0306414","world_art_id":null,"type":"serial","add":"2017-02-19 11:46:42","orig_title":"The Wire","year":"2002-06-02","translations":["Профессиональный (многоголосый закадровый) (FOX)","Авторский (одноголосый закадровый) (Сербин Юрий)"],"seasons_count":5,"episodes_count":60,"episodes":10,"update":"2020-04-30 21:13:53","iframe_src":"//83.svetacdn.in/PfJ50H0ZBPg3/tv-series/1030"},{"id":916,"title":"Истории свинок","kp_id":"843400","imdb_id":"tt3674118","world_art_id":null,"type":"serial","add":"2017-01-20 07:14:56","orig_title":"Piggy Tales","year":"2014-04-11","translations":["Оригинальная дорожка"],"seasons_count":1,"episodes_count":35,"episodes":35,"update":"2020-04-30 17:29:16","iframe_src":"//83.svetacdn.in/PfJ50H0ZBPg3/tv-series/916"}],"current_page":241,"first_page_url":"https://videocdn.tv/api/short?limit=100&api_token=RgFQdUIR2dRmwv8iYa5SnFNgnw3vpjKj&cache3241=3241&page=1","from":24001,"last_page":638,"last_page_url":"https://videocdn.tv/api/short?limit=100&api_token=RgFQdUIR2dRmwv8iYa5SnFNgnw3vpjKj&cache3241=3241&page=638","next_page_url":"https://videocdn.tv/api/short?limit=100&api_token=RgFQdUIR2dRmwv8iYa5SnFNgnw3vpjKj&cache3241=3241&page=242","path":"https://videocdn.tv/api/short","per_page":100,"prev_page_url":"https://videocdn.tv/api/short?limit=100&api_token=RgFQdUIR2dRmwv8iYa5SnFNgnw3vpjKj&cache3241=3241&page=240","to":24040,"total":63713}