{"result":true,"data":[{"id":55483,"title":"Как игрушки спасли Рождество","kp_id":"34827","imdb_id":"tt0122494","world_art_id":null,"type":"movie","add":"2021-12-26 14:03:48","orig_title":"La freccia azzurra","year":"1996-12-05","translations":["Авторский (одноголосый закадровый) (Кашкин Александр | Первомайский)"],"quality":"dvdrip","translation":"Авторский (одноголосый закадровый) (Кашкин Александр | Первомайский)","update":"2021-12-26 15:41:10","iframe_src":"//8965.svetacdn.in/71tsRs29n5tZ/movie/55483"},{"id":55472,"title":"Давайте устроим мирные выходные","kp_id":null,"imdb_id":"tt16150052","world_art_id":null,"type":"movie","add":"2021-12-26 12:26:57","orig_title":"Tengamos la fiesta en paz","year":"2021-01-01","translations":["Любительский (двухголосый закадровый) (Колобок)"],"quality":"ts","translation":"Любительский (двухголосый закадровый) (Колобок)","update":"2021-12-26 21:02:15","iframe_src":"//8965.svetacdn.in/71tsRs29n5tZ/movie/55472"},{"id":55471,"title":"Бессмертные войны: перерождение","kp_id":"1247057","imdb_id":"tt9896768","world_art_id":null,"type":"movie","add":"2021-12-26 12:25:20","orig_title":"The Immortal Wars: Rebirth","year":"2021-11-02","translations":["Любительский (многоголосый закадровый) (Синема УС)"],"quality":"webdl","translation":"Любительский (многоголосый закадровый) (Синема УС)","update":"2021-12-26 21:01:08","iframe_src":"//8965.svetacdn.in/71tsRs29n5tZ/movie/55471"},{"id":55470,"title":"Тайный Санта","kp_id":"4705524","imdb_id":"tt12204458","world_art_id":null,"type":"movie","add":"2021-12-26 12:22:39","orig_title":"Secret Santa","year":"2021-12-01","translations":["Любительский (многоголосый закадровый) (Синема УС)"],"quality":"webdl","translation":"Любительский (многоголосый закадровый) (Синема УС)","update":"2021-12-26 20:49:52","iframe_src":"//8965.svetacdn.in/71tsRs29n5tZ/movie/55470"},{"id":55469,"title":"Вторая половина","kp_id":"4478673","imdb_id":"tt14732506","world_art_id":null,"type":"movie","add":"2021-12-26 12:20:57","orig_title":"Druga polowa","year":"2021-05-28","translations":["Любительский (многоголосый закадровый) (Синема УС)"],"quality":"bd","translation":"Любительский (многоголосый закадровый) (Синема УС)","update":"2021-12-26 20:52:15","iframe_src":"//8965.svetacdn.in/71tsRs29n5tZ/movie/55469"},{"id":55468,"title":"Казахское ханство. Золотой трон","kp_id":"1251129","imdb_id":"tt11050404","world_art_id":null,"type":"movie","add":"2021-12-26 06:57:39","orig_title":"Kazakh Khanate - Golden Throne","year":"2019-03-21","translations":["Полное дублирование (Невафильм | Нева-1)"],"quality":"webdl","translation":"Полное дублирование (Невафильм | Нева-1)","update":"2021-12-26 17:07:41","iframe_src":"//8965.svetacdn.in/71tsRs29n5tZ/movie/55468"},{"id":55467,"title":"Поразительное на каждом шагу: Эпоха любви","kp_id":"925931","imdb_id":"tt4886030","world_art_id":null,"type":"movie","add":"2021-12-26 06:54:19","orig_title":"Xin bu bu jing xin","year":"2015-08-07","translations":["Любительский (многоголосый закадровый) (Pus'ki Production)"],"quality":"webdl","translation":"Любительский (многоголосый закадровый) (Pus'ki Production)","update":"2021-12-26 17:10:07","iframe_src":"//8965.svetacdn.in/71tsRs29n5tZ/movie/55467"},{"id":55463,"title":"Хроники Деда Мороза. Тайна подарков","kp_id":"4679793","imdb_id":"tt16401180","world_art_id":null,"type":"movie","add":"2021-12-25 12:25:59","orig_title":"Khroniki Deda Moroza. Tayna podarkov","year":"2021-12-16","translations":["Оригинальная дорожка"],"quality":"webdl","translation":"Оригинальная дорожка","update":"2021-12-25 17:21:26","iframe_src":"//8965.svetacdn.in/71tsRs29n5tZ/movie/55463"},{"id":55462,"title":"В тысяче километров от рождества","kp_id":"4412509","imdb_id":"tt13782052","world_art_id":null,"type":"movie","add":"2021-12-25 12:21:27","orig_title":"A mil kilómetros de la Navidad","year":"2021-12-24","translations":["Полное дублирование (Невафильм | Нева-1)"],"quality":"webdl","translation":"Полное дублирование (Невафильм | Нева-1)","update":"2021-12-25 17:23:20","iframe_src":"//8965.svetacdn.in/71tsRs29n5tZ/movie/55462"},{"id":55459,"title":"Одиннадцатая глава","kp_id":"1252948","imdb_id":"tt10097436","world_art_id":null,"type":"movie","add":"2021-12-25 07:44:52","orig_title":"Di shi yi hui","year":"2019-04-19","translations":["Любительский (двухголосый закадровый) (Храм тысячи струн)"],"quality":"webdl","translation":"Любительский (двухголосый закадровый) (Храм тысячи струн)","update":"2021-12-26 17:13:20","iframe_src":"//8965.svetacdn.in/71tsRs29n5tZ/movie/55459"},{"id":55455,"title":"Дорогая Пруденс","kp_id":"419155","imdb_id":"tt1249299","world_art_id":null,"type":"movie","add":"2021-12-25 06:55:32","orig_title":"Dear Prudence","year":"2008-08-23","translations":["Профессиональный (двухголосый закадровый) (DIVA Universal)"],"quality":"webdl","translation":"Профессиональный (двухголосый закадровый) (DIVA Universal)","update":"2021-12-26 17:16:09","iframe_src":"//8965.svetacdn.in/71tsRs29n5tZ/movie/55455"},{"id":55454,"title":"Ништяк, браток","kp_id":"1331982","imdb_id":"tt11394182","world_art_id":null,"type":"movie","add":"2021-12-24 22:38:58","orig_title":"Feels Good Man","year":"2020-01-27","translations":["Профессиональный (многоголосый закадровый) (AMS)"],"quality":"webdl","translation":"Профессиональный (многоголосый закадровый) (AMS)","update":"2021-12-26 07:53:18","iframe_src":"//8965.svetacdn.in/71tsRs29n5tZ/movie/55454"},{"id":55452,"title":"Учитель-самурай","kp_id":"1048589","imdb_id":"tt6249636","world_art_id":null,"type":"movie","add":"2021-12-24 15:52:31","orig_title":"Samurai sensei","year":"2017-11-18","translations":["Любительский (многоголосый закадровый) (Синема УС)"],"quality":"webdl","translation":"Любительский (многоголосый закадровый) (Синема УС)","update":"2021-12-26 00:00:37","iframe_src":"//8965.svetacdn.in/71tsRs29n5tZ/movie/55452"},{"id":55451,"title":"Демоны Реми","kp_id":"1265675","imdb_id":"tt10334998","world_art_id":null,"type":"movie","add":"2021-12-24 15:50:42","orig_title":"Remy's Demons","year":"2020-06-09","translations":["Любительский (многоголосый закадровый) (Синема УС)"],"quality":"webdl","translation":"Любительский (многоголосый закадровый) (Синема УС)","update":"2021-12-25 23:59:48","iframe_src":"//8965.svetacdn.in/71tsRs29n5tZ/movie/55451"},{"id":55449,"title":"Парни прошлого Рождества","kp_id":"4679730","imdb_id":"tt15706104","world_art_id":null,"type":"movie","add":"2021-12-24 15:44:48","orig_title":"Boyfriends of Christmas Past","year":"2021-10-23","translations":["Любительский (многоголосый закадровый) (AlphaProject)"],"quality":"webdl","translation":"Любительский (многоголосый закадровый) (AlphaProject)","update":"2021-12-25 23:59:07","iframe_src":"//8965.svetacdn.in/71tsRs29n5tZ/movie/55449"},{"id":55447,"title":"Аризона Кольт","kp_id":"223091","imdb_id":"tt0060124","world_art_id":null,"type":"movie","add":"2021-12-24 12:37:27","orig_title":"Arizona Colt","year":"1966-08-27","translations":["Авторский (одноголосый закадровый) (Карповский Антон)"],"quality":"bd","translation":"Авторский (одноголосый закадровый) (Карповский Антон)","update":"2021-12-25 14:35:08","iframe_src":"//8965.svetacdn.in/71tsRs29n5tZ/movie/55447"},{"id":53384,"title":"Ниндзя в клеточку 2","kp_id":null,"imdb_id":"tt13387604","world_art_id":null,"type":"movie","add":"2021-09-25 18:39:47","orig_title":"Ternet Ninja 2","year":"2021-08-19","translations":["Любительский (многоголосый закадровый) (@MUZOBOZ@)"],"quality":"bd","translation":"Любительский (многоголосый закадровый) (@MUZOBOZ@)","update":"2021-12-25 15:27:19","iframe_src":"//8965.svetacdn.in/71tsRs29n5tZ/movie/53384"},{"id":52510,"title":"Обратный отсчёт","kp_id":"1387171","imdb_id":"tt14980972","world_art_id":null,"type":"movie","add":"2021-08-20 06:08:48","orig_title":"Balsinjehan","year":"2021-06-23","translations":["Любительский (двухголосый закадровый) (АрхиAsia)","Любительский (двухголосый закадровый) (Колобок)","Любительский (многоголосый закадровый) (Head Pack Films)","Профессиональный (многоголосый закадровый) (Кипарис)"],"quality":"webdl","translation":"Любительский (двухголосый закадровый) (АрхиAsia)","update":"2021-12-26 09:26:14","iframe_src":"//8965.svetacdn.in/71tsRs29n5tZ/movie/52510"},{"id":52315,"title":"Роскошный цветок","kp_id":"1319176","imdb_id":"tt11190652","world_art_id":null,"type":"movie","add":"2021-08-09 18:20:08","orig_title":"La fine fleur","year":"2020-08-29","translations":["Любительский (многоголосый закадровый) (Синема УС)"],"quality":"webdl","translation":"Любительский (многоголосый закадровый) (Синема УС)","update":"2021-12-26 00:01:31","iframe_src":"//8965.svetacdn.in/71tsRs29n5tZ/movie/52315"},{"id":9670,"title":"Боец 2: Рождение легенды","kp_id":"428980","imdb_id":null,"world_art_id":null,"type":"serial","add":"2021-01-06 19:30:18","orig_title":"Borts 2: Rogdeniye legendy","year":"2008-03-31","translations":["Оригинальная дорожка"],"seasons_count":1,"episodes_count":14,"episodes":14,"update":"2021-01-08 11:02:27","iframe_src":"//8965.svetacdn.in/71tsRs29n5tZ/tv-series/9670"},{"id":9668,"title":"Мафиоза","kp_id":"493867","imdb_id":"tt0807686","world_art_id":null,"type":"serial","add":"2021-01-06 17:26:59","orig_title":"Mafiosa","year":"2006-12-12","translations":["Профессиональный (многоголосый закадровый) (Первый ТВЧ)"],"seasons_count":3,"episodes_count":24,"episodes":8,"update":"2021-01-07 17:33:49","iframe_src":"//8965.svetacdn.in/71tsRs29n5tZ/tv-series/9668"},{"id":9666,"title":"Крепость Санады","kp_id":"1002546","imdb_id":"tt3811304","world_art_id":null,"type":"serial","add":"2021-01-06 12:08:17","orig_title":"Sanadamaru","year":"2016-01-10","translations":["Любительский (двухголосый закадровый) (RealFake)"],"seasons_count":1,"episodes_count":50,"episodes":50,"update":"2021-01-07 22:05:16","iframe_src":"//8965.svetacdn.in/71tsRs29n5tZ/tv-series/9666"},{"id":9664,"title":"Сёмин","kp_id":"474479","imdb_id":"tt1516346","world_art_id":null,"type":"serial","add":"2021-01-06 08:36:41","orig_title":"Syomin","year":"2009-09-20","translations":["Оригинальная дорожка"],"seasons_count":1,"episodes_count":12,"episodes":12,"update":"2021-01-07 05:54:21","iframe_src":"//8965.svetacdn.in/71tsRs29n5tZ/tv-series/9664"},{"id":9662,"title":"BBC: Тигр — Шпион джунглей","kp_id":"446085","imdb_id":"tt1220619","world_art_id":null,"type":"serial","add":"2021-01-05 18:44:35","orig_title":"Tiger: Spy in the Jungle","year":"2008-03-30","translations":["Профессиональный (одноголосый закадровый)"],"seasons_count":1,"episodes_count":3,"episodes":3,"update":"2021-01-07 05:43:20","iframe_src":"//8965.svetacdn.in/71tsRs29n5tZ/tv-series/9662"},{"id":9658,"title":"Янг Дилан Тайлера Перри","kp_id":"1353424","imdb_id":"tt11097072","world_art_id":null,"type":"serial","add":"2021-01-05 06:22:12","orig_title":"Young Dylan","year":"2020-02-29","translations":["Профессиональный (многоголосый закадровый)"],"seasons_count":1,"episodes_count":14,"episodes":14,"update":"2021-01-06 11:18:22","iframe_src":"//8965.svetacdn.in/71tsRs29n5tZ/tv-series/9658"},{"id":9651,"title":"Проделки Карины","kp_id":"594815","imdb_id":"tt1846147","world_art_id":null,"type":"serial","add":"2021-01-04 12:26:15","orig_title":"Kareena Kareena","year":"2004-01-01","translations":["Профессиональный (многоголосый закадровый)"],"seasons_count":1,"episodes_count":98,"episodes":98,"update":"2021-01-08 18:57:09","iframe_src":"//8965.svetacdn.in/71tsRs29n5tZ/tv-series/9651"},{"id":9574,"title":"Триумф любви","kp_id":"570103","imdb_id":"tt1743281","world_art_id":null,"type":"serial","add":"2020-12-22 19:22:30","orig_title":"Triunfo del amor","year":"2010-10-25","translations":["Полное дублирование"],"seasons_count":1,"episodes_count":168,"episodes":168,"update":"2021-01-06 13:27:03","iframe_src":"//8965.svetacdn.in/71tsRs29n5tZ/tv-series/9574"},{"id":9565,"title":"Мой мужчина, моя женщина","kp_id":"2000024","imdb_id":null,"world_art_id":null,"type":"serial","add":"2020-12-21 06:51:04","orig_title":"Мій чоловік, моя жінка","year":"2020-10-19","translations":["Оригинальная дорожка"],"seasons_count":1,"episodes_count":12,"episodes":12,"update":"2021-01-07 15:00:54","iframe_src":"//8965.svetacdn.in/71tsRs29n5tZ/tv-series/9565"},{"id":9487,"title":"Жизнь по-итальянски","kp_id":"583631","imdb_id":null,"world_art_id":null,"type":"serial","add":"2020-12-07 18:54:53","orig_title":"Vivere","year":"1999-03-01","translations":["Профессиональный (многоголосый закадровый) (Твин)"],"seasons_count":2,"episodes_count":288,"episodes":60,"update":"2021-01-09 09:19:20","iframe_src":"//8965.svetacdn.in/71tsRs29n5tZ/tv-series/9487"},{"id":9475,"title":"Школа 2013","kp_id":null,"imdb_id":"tt8737876","world_art_id":null,"type":"serial","add":"2020-12-06 07:29:36","orig_title":"School 2013","year":"2012-12-03","translations":["Любительский (одноголосый закадровый) (GREEN TEA)"],"seasons_count":1,"episodes_count":16,"episodes":16,"update":"2021-01-07 10:03:47","iframe_src":"//8965.svetacdn.in/71tsRs29n5tZ/tv-series/9475"},{"id":9308,"title":"Би и Паппикэт","kp_id":"775561","imdb_id":"tt4163486","world_art_id":null,"type":"serial","add":"2020-11-18 05:46:48","orig_title":"Bee and PuppyCat","year":"2013-07-11","translations":["Любительский (многоголосый закадровый) (NewStation)"],"seasons_count":1,"episodes_count":6,"episodes":6,"update":"2021-01-06 21:53:43","iframe_src":"//8965.svetacdn.in/71tsRs29n5tZ/tv-series/9308"},{"id":9021,"title":"Перед камерой","kp_id":null,"imdb_id":"tt7107810","world_art_id":null,"type":"serial","add":"2020-10-15 19:00:41","orig_title":"Exposed","year":"2017-05-05","translations":["Любительский (многоголосый закадровый) (WestFilm)","Любительский (многоголосый закадровый) (Ultradox)"],"seasons_count":1,"episodes_count":9,"episodes":9,"update":"2021-01-07 13:46:44","iframe_src":"//8965.svetacdn.in/71tsRs29n5tZ/tv-series/9021"},{"id":9014,"title":"Незавершенная любовь","kp_id":"1407221","imdb_id":"tt12466076","world_art_id":null,"type":"serial","add":"2020-10-14 18:47:09","orig_title":"Yarim Kalan Asklar","year":"2020-09-10","translations":["Любительский (многоголосый закадровый) (AimaksaLTV)"],"seasons_count":1,"episodes_count":8,"episodes":8,"update":"2021-01-07 15:16:08","iframe_src":"//8965.svetacdn.in/71tsRs29n5tZ/tv-series/9014"},{"id":8477,"title":"Статус отношений: Запутанно","kp_id":"943390","imdb_id":"tt4875520","world_art_id":null,"type":"serial","add":"2020-08-19 07:17:51","orig_title":"Iliski Durumu: Karisik","year":"2015-07-04","translations":["Любительский (одноголосый закадровый) (Реальный перевод)","Любительский (одноголосый закадровый)"],"seasons_count":1,"episodes_count":33,"episodes":33,"update":"2021-01-07 07:08:13","iframe_src":"//8965.svetacdn.in/71tsRs29n5tZ/tv-series/8477"},{"id":7518,"title":"Золотая лихорадка: Бурные воды","kp_id":null,"imdb_id":"tt7749176","world_art_id":null,"type":"serial","add":"2020-05-15 09:52:40","orig_title":"Gold Rush: White Water","year":"2018-01-19","translations":["Профессиональный (двухголосый закадровый)","Профессиональный (многоголосый закадровый)"],"seasons_count":4,"episodes_count":33,"episodes":6,"update":"2021-01-07 22:26:42","iframe_src":"//8965.svetacdn.in/71tsRs29n5tZ/tv-series/7518"},{"id":5074,"title":"Женщина с ароматом кофе","kp_id":"433792","imdb_id":"tt0282289","world_art_id":null,"type":"serial","add":"2019-08-21 11:26:37","orig_title":"Cuando seas mía","year":"2001-01-01","translations":["Профессиональный (многоголосый закадровый)"],"seasons_count":1,"episodes_count":222,"episodes":222,"update":"2021-01-08 20:14:19","iframe_src":"//8965.svetacdn.in/71tsRs29n5tZ/tv-series/5074"},{"id":29067,"title":"1+1 дома","kp_id":"837957","imdb_id":"tt3756224","world_art_id":null,"type":"movie","add":"2019-07-17 03:27:25","orig_title":"1+1 дома","year":"2013-01-01","translations":["Оригинальная дорожка"],"quality":"webdl","translation":"Оригинальная дорожка","update":"2021-12-26 07:51:10","iframe_src":"//8965.svetacdn.in/71tsRs29n5tZ/movie/29067"},{"id":3409,"title":"Обычная женщина","kp_id":"1108686","imdb_id":"tt8561620","world_art_id":null,"type":"serial","add":"2018-10-29 10:47:56","orig_title":"Obychnaya zhenshchina","year":"2018-10-29","translations":["Оригинальная дорожка"],"seasons_count":2,"episodes_count":17,"episodes":8,"update":"2021-01-07 11:31:49","iframe_src":"//8965.svetacdn.in/71tsRs29n5tZ/tv-series/3409"},{"id":2907,"title":"Саманта!","kp_id":"1171660","imdb_id":"tt6626676","world_art_id":null,"type":"serial","add":"2018-07-11 06:53:55","orig_title":"Samantha!","year":"2018-07-06","translations":["Любительский (двухголосый закадровый) (Sunshine Studio)","Профессиональный (многоголосый закадровый) (Kansai)"],"seasons_count":1,"episodes_count":7,"episodes":7,"update":"2021-01-07 17:55:21","iframe_src":"//8965.svetacdn.in/71tsRs29n5tZ/tv-series/2907"},{"id":275,"title":"Друзья","kp_id":"77044","imdb_id":"tt0108778","world_art_id":null,"type":"serial","add":"2016-07-09 07:30:01","orig_title":"Friends","year":"1994-09-01","translations":["Профессиональный (многоголосый закадровый) (Paramount Comedy)","Профессиональный (многоголосый закадровый) (СТС)","Профессиональный (многоголосый закадровый) (Нота)"],"seasons_count":10,"episodes_count":236,"episodes":18,"update":"2021-01-07 21:37:33","iframe_src":"//8965.svetacdn.in/71tsRs29n5tZ/tv-series/275"}],"current_page":208,"first_page_url":"https://videocdn.tv/api/short?limit=100&api_token=EnbO9h8pv1VyjbCJhg0WM9nG259n7mtz&cache3208=3208&page=1","from":20701,"last_page":708,"last_page_url":"https://videocdn.tv/api/short?limit=100&api_token=EnbO9h8pv1VyjbCJhg0WM9nG259n7mtz&cache3208=3208&page=708","next_page_url":"https://videocdn.tv/api/short?limit=100&api_token=EnbO9h8pv1VyjbCJhg0WM9nG259n7mtz&cache3208=3208&page=209","path":"https://videocdn.tv/api/short","per_page":100,"prev_page_url":"https://videocdn.tv/api/short?limit=100&api_token=EnbO9h8pv1VyjbCJhg0WM9nG259n7mtz&cache3208=3208&page=207","to":20740,"total":70792}