{"result":true,"data":[{"id":29566,"title":"Новый год, я люблю тебя!","kp_id":"1278930","imdb_id":null,"world_art_id":null,"type":"movie","add":"2019-07-31 06:51:03","orig_title":"Новый год, я люблю тебя!","year":"2019-01-01","translations":["Оригинальная дорожка"],"quality":"webdl","translation":"Оригинальная дорожка","update":"2019-07-31 09:19:01","iframe_src":"//8209.svetacdn.in/71tsRs29n5tZ/movie/29566"},{"id":29562,"title":"Мы были Аполлоном","kp_id":"1154794","imdb_id":"tt6692368","world_art_id":null,"type":"movie","add":"2019-07-31 06:27:45","orig_title":"When We Were Apollo","year":"2019-01-01","translations":["Любительский (многоголосый закадровый) (Синема УС)"],"quality":"webdl","translation":"Любительский (многоголосый закадровый) (Синема УС)","update":"2019-07-31 09:33:06","iframe_src":"//8209.svetacdn.in/71tsRs29n5tZ/movie/29562"},{"id":29560,"title":"Всегда вперёд!","kp_id":"958896","imdb_id":"tt5307194","world_art_id":null,"type":"movie","add":"2019-07-31 06:24:16","orig_title":"Vorwärts immer!","year":"2017-10-12","translations":["Любительский (многоголосый закадровый) (Синема УС)"],"quality":"bd","translation":"Любительский (многоголосый закадровый) (Синема УС)","update":"2019-07-31 09:31:57","iframe_src":"//8209.svetacdn.in/71tsRs29n5tZ/movie/29560"},{"id":29558,"title":"Библиотека Ритмана: Амстердам","kp_id":null,"imdb_id":"tt6581616","world_art_id":null,"type":"movie","add":"2019-07-31 06:22:36","orig_title":"The Ritman Library: Amsterdam","year":"2017-02-19","translations":["Любительский (многоголосый закадровый) (Синема УС)"],"quality":"webdl","translation":"Любительский (многоголосый закадровый) (Синема УС)","update":"2019-07-31 09:31:15","iframe_src":"//8209.svetacdn.in/71tsRs29n5tZ/movie/29558"},{"id":29557,"title":"Бог в моём ухе","kp_id":"1062166","imdb_id":"tt6921112","world_art_id":null,"type":"movie","add":"2019-07-31 06:20:57","orig_title":"The God Inside My Ear","year":"2018-08-01","translations":["Любительский (многоголосый закадровый) (Синема УС)"],"quality":"webdl","translation":"Любительский (многоголосый закадровый) (Синема УС)","update":"2019-07-31 09:28:01","iframe_src":"//8209.svetacdn.in/71tsRs29n5tZ/movie/29557"},{"id":29555,"title":"Проклятие Лилит Ратчет","kp_id":"1064144","imdb_id":"tt7358686","world_art_id":null,"type":"movie","add":"2019-07-31 06:18:50","orig_title":"The Curse of Lilith Ratchet","year":"2018-10-23","translations":["Любительский (многоголосый закадровый) (Синема УС)"],"quality":"bd","translation":"Любительский (многоголосый закадровый) (Синема УС)","update":"2019-07-31 10:21:19","iframe_src":"//8209.svetacdn.in/71tsRs29n5tZ/movie/29555"},{"id":29554,"title":"Страховка от дьявола","kp_id":"1095946","imdb_id":"tt6910730","world_art_id":null,"type":"movie","add":"2019-07-31 06:17:16","orig_title":"Suburban Coffin","year":"2018-12-01","translations":["Любительский (многоголосый закадровый) (Синема УС)"],"quality":"webdl","translation":"Любительский (многоголосый закадровый) (Синема УС)","update":"2019-07-31 10:20:33","iframe_src":"//8209.svetacdn.in/71tsRs29n5tZ/movie/29554"},{"id":29552,"title":"Преследуемая своим врачом: кошмар лунатика","kp_id":"1282242","imdb_id":"tt10579468","world_art_id":null,"type":"movie","add":"2019-07-31 06:14:26","orig_title":"Stalked by My Doctor: A Sleepwalker's Nightmare","year":"2019-07-13","translations":["Любительский (многоголосый закадровый) (Синема УС)"],"quality":"hdtv","translation":"Любительский (многоголосый закадровый) (Синема УС)","update":"2019-07-31 09:14:18","iframe_src":"//8209.svetacdn.in/71tsRs29n5tZ/movie/29552"},{"id":29550,"title":"Космические ниндзя","kp_id":"1283699","imdb_id":"tt10613572","world_art_id":null,"type":"movie","add":"2019-07-31 06:12:28","orig_title":"Space Ninjas","year":"2019-07-01","translations":["Любительский (многоголосый закадровый) (Синема УС)"],"quality":"webdl","translation":"Любительский (многоголосый закадровый) (Синема УС)","update":"2019-07-31 09:12:58","iframe_src":"//8209.svetacdn.in/71tsRs29n5tZ/movie/29550"},{"id":29544,"title":"Дорога в ад","kp_id":"1077341","imdb_id":"tt7085724","world_art_id":null,"type":"movie","add":"2019-07-31 06:01:04","orig_title":"Fino all'Inferno","year":"2018-08-02","translations":["Любительский (многоголосый закадровый) (Синема УС)"],"quality":"webdl","translation":"Любительский (многоголосый закадровый) (Синема УС)","update":"2019-07-31 09:20:54","iframe_src":"//8209.svetacdn.in/71tsRs29n5tZ/movie/29544"},{"id":29543,"title":"Цена головы","kp_id":"40791","imdb_id":"tt0105649","world_art_id":null,"type":"movie","add":"2019-07-31 06:00:35","orig_title":"Tsena golovy","year":"1992-01-01","translations":["Оригинальная дорожка"],"quality":"dvdrip","translation":"Оригинальная дорожка","update":"2019-07-31 10:23:57","iframe_src":"//8209.svetacdn.in/71tsRs29n5tZ/movie/29543"},{"id":29541,"title":"Здравствуйте, дети!","kp_id":"45258","imdb_id":"tt0056717","world_art_id":null,"type":"movie","add":"2019-07-31 05:57:56","orig_title":"Zdravstvuyte, deti","year":"1962-05-27","translations":["Оригинальная дорожка"],"quality":"dvdrip","translation":"Оригинальная дорожка","update":"2019-07-31 10:23:17","iframe_src":"//8209.svetacdn.in/71tsRs29n5tZ/movie/29541"},{"id":29540,"title":"Бубба, деревенщина-оборотень","kp_id":"851544","imdb_id":"tt3710944","world_art_id":null,"type":"movie","add":"2019-07-31 05:57:55","orig_title":"Bubba the Redneck Werewolf","year":"2014-10-25","translations":["Любительский (многоголосый закадровый) (Колобок)"],"quality":"webdl","translation":"Любительский (многоголосый закадровый) (Колобок)","update":"2019-07-31 09:36:01","iframe_src":"//8209.svetacdn.in/71tsRs29n5tZ/movie/29540"},{"id":29539,"title":"Золушка","kp_id":"1228548","imdb_id":null,"world_art_id":null,"type":"movie","add":"2019-07-31 05:55:03","orig_title":"Золушка","year":"2018-12-31","translations":["Оригинальная дорожка"],"quality":"webdl","translation":"Оригинальная дорожка","update":"2019-07-31 09:26:49","iframe_src":"//8209.svetacdn.in/71tsRs29n5tZ/movie/29539"},{"id":29538,"title":"Любимый","kp_id":"980069","imdb_id":"tt5707048","world_art_id":null,"type":"movie","add":"2019-07-31 05:53:01","orig_title":"Benzinho","year":"2018-01-18","translations":["Профессиональный (многоголосый закадровый) (AlphaProject)"],"quality":"webdl","translation":"Профессиональный (многоголосый закадровый) (AlphaProject)","update":"2019-07-31 09:23:16","iframe_src":"//8209.svetacdn.in/71tsRs29n5tZ/movie/29538"},{"id":29537,"title":"Паук","kp_id":"45359","imdb_id":"tt0193660","world_art_id":null,"type":"movie","add":"2019-07-31 05:47:20","orig_title":"Zirneklis","year":"1992-04-17","translations":["Оригинальная дорожка"],"quality":"bd","translation":"Оригинальная дорожка","update":"2019-07-31 10:22:54","iframe_src":"//8209.svetacdn.in/71tsRs29n5tZ/movie/29537"},{"id":29536,"title":"Попутчик","kp_id":"43123","imdb_id":"tt0273985","world_art_id":null,"type":"movie","add":"2019-07-31 05:44:06","orig_title":"Poputchik","year":"1987-06-17","translations":["Оригинальная дорожка"],"quality":"sat","translation":"Оригинальная дорожка","update":"2019-07-31 10:21:18","iframe_src":"//8209.svetacdn.in/71tsRs29n5tZ/movie/29536"},{"id":20107,"title":"На берегу реки","kp_id":"1049873","imdb_id":"tt7476946","world_art_id":null,"type":"movie","add":"2018-11-12 23:13:44","orig_title":"Ribazu ejji","year":"2018-02-15","translations":["Любительский (двухголосый закадровый) (Bonsai Studio)"],"quality":"hdrip","translation":"Любительский (двухголосый закадровый) (Bonsai Studio)","update":"2019-07-31 09:20:10","iframe_src":"//8209.svetacdn.in/71tsRs29n5tZ/movie/20107"},{"id":19940,"title":"Проигранное место","kp_id":"1046197","imdb_id":"tt8755426","world_art_id":null,"type":"movie","add":"2018-11-03 23:00:09","orig_title":"Proigrannoe mesto","year":"2018-11-01","translations":["Оригинальная дорожка"],"quality":"webdl","translation":"Оригинальная дорожка","update":"2019-07-31 09:20:57","iframe_src":"//8209.svetacdn.in/71tsRs29n5tZ/movie/19940"},{"id":11529,"title":"Большой","kp_id":"841472","imdb_id":"tt6278008","world_art_id":null,"type":"movie","add":"2017-05-14 21:23:58","orig_title":"Bolshoy","year":"2017-06-02","translations":["Оригинальная дорожка"],"quality":"bd","translation":"Оригинальная дорожка","update":"2019-07-31 09:33:27","iframe_src":"//8209.svetacdn.in/71tsRs29n5tZ/movie/11529"}],"current_page":1378,"first_page_url":"https://videocdn.tv/api/short?limit=100&api_token=EnbO9h8pv1VyjbCJhg0WM9nG259n7mtz&cache31378=31378&page=1","from":137701,"last_page":654,"last_page_url":"https://videocdn.tv/api/short?limit=100&api_token=EnbO9h8pv1VyjbCJhg0WM9nG259n7mtz&cache31378=31378&page=654","next_page_url":null,"path":"https://videocdn.tv/api/short","per_page":100,"prev_page_url":"https://videocdn.tv/api/short?limit=100&api_token=EnbO9h8pv1VyjbCJhg0WM9nG259n7mtz&cache31378=31378&page=1377","to":137720,"total":65355}