{"result":true,"data":[{"id":9375,"title":"Перевал Дятлова","kp_id":"851868","imdb_id":null,"world_art_id":null,"type":"movie","add":"2017-02-02 07:04:15","orig_title":"Перевал Дятлова","year":"2017-01-29","translations":["Оригинальная дорожка"],"quality":"hdtv","translation":"Оригинальная дорожка","update":"2017-02-03 06:11:05","iframe_src":"//2413.svetacdn.in/71tsRs29n5tZ/movie/9375"},{"id":9371,"title":"Зловещий отряд","kp_id":"963540","imdb_id":"tt5481984","world_art_id":null,"type":"movie","add":"2017-02-02 05:19:22","orig_title":"Sinister Squad","year":"2016-07-05","translations":["Любительский (многоголосый закадровый) (Синема УС)"],"quality":"bd","translation":"Любительский (многоголосый закадровый) (Синема УС)","update":"2017-02-02 09:48:01","iframe_src":"//2413.svetacdn.in/71tsRs29n5tZ/movie/9371"},{"id":9370,"title":"7 вещей, которые вы не знали о мужчинах","kp_id":"959886","imdb_id":"tt5312370","world_art_id":null,"type":"movie","add":"2017-02-02 05:18:17","orig_title":"7 rzeczy, których nie wiecie o facetach","year":"2016-02-26","translations":["Любительский (многоголосый закадровый) (GreenРай Studio)"],"quality":"bd","translation":"Любительский (многоголосый закадровый) (GreenРай Studio)","update":"2017-02-02 09:49:36","iframe_src":"//2413.svetacdn.in/71tsRs29n5tZ/movie/9370"},{"id":9368,"title":"Последнее искушение Христа","kp_id":"4396","imdb_id":"tt0095497","world_art_id":null,"type":"movie","add":"2017-02-01 13:34:10","orig_title":"The Last Temptation of Christ","year":"1988-08-12","translations":["Профессиональный (многоголосый закадровый)"],"quality":"bd","translation":"Профессиональный (многоголосый закадровый)","update":"2017-02-02 06:41:23","iframe_src":"//2413.svetacdn.in/71tsRs29n5tZ/movie/9368"},{"id":9344,"title":"Списанный в резерв","kp_id":"858559","imdb_id":"tt4177822","world_art_id":null,"type":"movie","add":"2017-02-01 06:12:56","orig_title":"Decommissioned","year":"2016-08-29","translations":["Любительский (многоголосый закадровый) (Студия Пиратского Дубляжа)"],"quality":"webdl","translation":"Любительский (многоголосый закадровый) (Студия Пиратского Дубляжа)","update":"2017-02-02 10:28:50","iframe_src":"//2413.svetacdn.in/71tsRs29n5tZ/movie/9344"},{"id":9343,"title":"Выбор короля","kp_id":"897259","imdb_id":"tt4353996","world_art_id":null,"type":"movie","add":"2017-02-01 06:10:30","orig_title":"Kongens Nei","year":"2016-09-16","translations":["Любительский (многоголосый закадровый) (GreenРай Studio)"],"quality":"bd","translation":"Любительский (многоголосый закадровый) (GreenРай Studio)","update":"2017-02-02 10:23:38","iframe_src":"//2413.svetacdn.in/71tsRs29n5tZ/movie/9343"},{"id":9342,"title":"Аня из Зелёных Мезонинов","kp_id":"922528","imdb_id":"tt4820224","world_art_id":null,"type":"movie","add":"2017-02-01 06:08:40","orig_title":"Anne of Green Gables","year":"2016-02-15","translations":["Любительский (многоголосый закадровый) (Синема УС)"],"quality":"bd","translation":"Любительский (многоголосый закадровый) (Синема УС)","update":"2017-02-02 10:20:26","iframe_src":"//2413.svetacdn.in/71tsRs29n5tZ/movie/9342"},{"id":9313,"title":"Волки","kp_id":"532834","imdb_id":"tt3085562","world_art_id":null,"type":"movie","add":"2017-01-30 12:22:37","orig_title":"Volki","year":"2009-12-17","translations":["Оригинальная дорожка"],"quality":"hdtv","translation":"Оригинальная дорожка","update":"2017-02-01 13:08:21","iframe_src":"//2413.svetacdn.in/71tsRs29n5tZ/movie/9313"},{"id":9222,"title":"Сын ветра","kp_id":"884146","imdb_id":"tt4338154","world_art_id":null,"type":"movie","add":"2017-01-26 12:34:36","orig_title":"Hawaizaada","year":"2015-01-29","translations":["Любительский (двухголосый закадровый)"],"quality":"webdl","translation":"Любительский (двухголосый закадровый)","update":"2017-02-02 10:13:04","iframe_src":"//2413.svetacdn.in/71tsRs29n5tZ/movie/9222"},{"id":9221,"title":"Лила","kp_id":"893403","imdb_id":"tt4500734","world_art_id":null,"type":"movie","add":"2017-01-26 12:33:35","orig_title":"Ek Paheli Leela","year":"2015-04-10","translations":["Любительский (двухголосый закадровый)"],"quality":"webdl","translation":"Любительский (двухголосый закадровый)","update":"2017-02-02 10:10:56","iframe_src":"//2413.svetacdn.in/71tsRs29n5tZ/movie/9221"},{"id":9219,"title":"Мировая война мертвецов: Восстание павших","kp_id":"845845","imdb_id":"tt3699684","world_art_id":null,"type":"movie","add":"2017-01-26 12:29:19","orig_title":"World War Dead: Rise of the Fallen","year":"2015-05-04","translations":["Любительский (одноголосый закадровый)"],"quality":"bd","translation":"Любительский (одноголосый закадровый)","update":"2017-02-01 15:11:02","iframe_src":"//2413.svetacdn.in/71tsRs29n5tZ/movie/9219"},{"id":9218,"title":"Поездка на возу 2","kp_id":"764145","imdb_id":"tt2924352","world_art_id":null,"type":"movie","add":"2017-01-26 12:26:34","orig_title":"Hayride 2","year":"2015-03-06","translations":["Любительский (двухголосый закадровый)"],"quality":"webdl","translation":"Любительский (двухголосый закадровый)","update":"2017-02-01 15:51:35","iframe_src":"//2413.svetacdn.in/71tsRs29n5tZ/movie/9218"},{"id":9217,"title":"Поездка на возу","kp_id":"586725","imdb_id":"tt1861343","world_art_id":null,"type":"movie","add":"2017-01-26 12:25:32","orig_title":"Hayride","year":"2012-10-14","translations":["Любительский (одноголосый закадровый)"],"quality":"webdl","translation":"Любительский (одноголосый закадровый)","update":"2017-02-01 15:46:33","iframe_src":"//2413.svetacdn.in/71tsRs29n5tZ/movie/9217"},{"id":9214,"title":"Паланкин Долли","kp_id":"877859","imdb_id":"tt4332114","world_art_id":null,"type":"movie","add":"2017-01-26 12:20:20","orig_title":"Dolly Ki Doli","year":"2015-01-22","translations":["Любительский (двухголосый закадровый)"],"quality":"bd","translation":"Любительский (двухголосый закадровый)","update":"2017-02-02 09:51:57","iframe_src":"//2413.svetacdn.in/71tsRs29n5tZ/movie/9214"},{"id":9213,"title":"Вернуться в 20","kp_id":"880678","imdb_id":"tt4344878","world_art_id":null,"type":"movie","add":"2017-01-26 12:19:01","orig_title":"Chong fan 20 sui","year":"2015-01-08","translations":["Любительский (двухголосый закадровый)"],"quality":"bd","translation":"Любительский (двухголосый закадровый)","update":"2017-02-01 15:49:54","iframe_src":"//2413.svetacdn.in/71tsRs29n5tZ/movie/9213"},{"id":9212,"title":"Грязь","kp_id":"690603","imdb_id":"tt2207484","world_art_id":null,"type":"movie","add":"2017-01-26 12:10:50","orig_title":"Muck","year":"2015-03-13","translations":["Любительский (одноголосый закадровый)"],"quality":"bd","translation":"Любительский (одноголосый закадровый)","update":"2017-02-01 15:06:34","iframe_src":"//2413.svetacdn.in/71tsRs29n5tZ/movie/9212"},{"id":8757,"title":"Сниквик","kp_id":"922346","imdb_id":"tt4849176","world_art_id":null,"type":"movie","add":"2017-01-09 11:27:42","orig_title":"Sneekweek","year":"2016-01-21","translations":["Любительский (одноголосый закадровый) (Хихикающий доктор)","Любительский (многоголосый закадровый) (Синема УС)"],"quality":"dvdrip","translation":"Любительский (одноголосый закадровый) (Хихикающий доктор)","update":"2017-02-02 10:30:56","iframe_src":"//2413.svetacdn.in/71tsRs29n5tZ/movie/8757"},{"id":8586,"title":"3 счастливых поросенка","kp_id":"940725","imdb_id":"tt5097398","world_art_id":null,"type":"movie","add":"2017-01-04 12:51:28","orig_title":"Les 3 p'tits cochons 2","year":"2016-07-01","translations":["Любительский (многоголосый закадровый) (Синема УС)","Профессиональный (многоголосый закадровый)"],"quality":"bd","translation":"Любительский (многоголосый закадровый) (Синема УС)","update":"2017-02-02 09:37:31","iframe_src":"//2413.svetacdn.in/71tsRs29n5tZ/movie/8586"},{"id":7501,"title":"Бестселлер по любви","kp_id":"1007738","imdb_id":null,"world_art_id":null,"type":"movie","add":"2016-11-19 09:09:55","orig_title":"Бестселлер по любви","year":"2016-11-18","translations":["Оригинальная дорожка"],"quality":"webdl","translation":"Оригинальная дорожка","update":"2017-02-02 09:40:31","iframe_src":"//2413.svetacdn.in/71tsRs29n5tZ/movie/7501"},{"id":5020,"title":"Детство лидера","kp_id":"750241","imdb_id":"tt2815902","world_art_id":null,"type":"movie","add":"2016-09-04 13:05:42","orig_title":"The Childhood of a Leader","year":"2015-09-05","translations":["Любительский (многоголосый закадровый) (Студия Пиратского Дубляжа)","Профессиональный (многоголосый закадровый) (iTunes)"],"quality":"webdl","translation":"Любительский (многоголосый закадровый) (Студия Пиратского Дубляжа)","update":"2017-02-03 06:06:19","iframe_src":"//2413.svetacdn.in/71tsRs29n5tZ/movie/5020"}],"current_page":2612,"first_page_url":"https://videocdn.tv/api/short?limit=100&api_token=EnbO9h8pv1VyjbCJhg0WM9nG259n7mtz&cache32612=32612&page=1","from":261101,"last_page":721,"last_page_url":"https://videocdn.tv/api/short?limit=100&api_token=EnbO9h8pv1VyjbCJhg0WM9nG259n7mtz&cache32612=32612&page=721","next_page_url":null,"path":"https://videocdn.tv/api/short","per_page":100,"prev_page_url":"https://videocdn.tv/api/short?limit=100&api_token=EnbO9h8pv1VyjbCJhg0WM9nG259n7mtz&cache32612=32612&page=2611","to":261120,"total":72083}