{"result":true,"data":[{"id":42250,"title":"Лень","kp_id":"565233","imdb_id":"tt9149358","world_art_id":null,"type":"movie","add":"2020-08-03 20:19:29","orig_title":"Len","year":"1981-01-01","translations":["Оригинальная дорожка"],"quality":"dvdrip","translation":"Оригинальная дорожка","update":"2020-08-05 08:05:45","iframe_src":"//8944266443434.svetacdn.in/PfJ50H0ZBPg3/movie/42250"},{"id":42249,"title":"Лень","kp_id":"565247","imdb_id":null,"world_art_id":null,"type":"movie","add":"2020-08-03 20:15:48","orig_title":"Лень","year":"1979-01-01","translations":["Оригинальная дорожка"],"quality":"dvdrip","translation":"Оригинальная дорожка","update":"2020-08-05 08:05:25","iframe_src":"//8944266443434.svetacdn.in/PfJ50H0ZBPg3/movie/42249"},{"id":42246,"title":"Лебединое перышко","kp_id":"1045191","imdb_id":"tt11859904","world_art_id":null,"type":"movie","add":"2020-08-03 20:10:15","orig_title":"Lebedinoe peryshko","year":"1985-01-01","translations":["Оригинальная дорожка"],"quality":"webdl","translation":"Оригинальная дорожка","update":"2020-08-05 08:04:25","iframe_src":"//8944266443434.svetacdn.in/PfJ50H0ZBPg3/movie/42246"},{"id":42245,"title":"Как было написано первое письмо","kp_id":"668687","imdb_id":"tt2832918","world_art_id":null,"type":"movie","add":"2020-08-03 20:07:31","orig_title":"Kak bylo napisano pervoe pismo","year":"1984-01-01","translations":["Оригинальная дорожка"],"quality":"dvdrip","translation":"Оригинальная дорожка","update":"2020-08-05 08:03:47","iframe_src":"//8944266443434.svetacdn.in/PfJ50H0ZBPg3/movie/42245"},{"id":42244,"title":"Я рисую красный лес","kp_id":"841500","imdb_id":null,"world_art_id":null,"type":"movie","add":"2020-08-03 20:05:11","orig_title":"Я рисую красный лес","year":"1974-01-01","translations":["Оригинальная дорожка"],"quality":"dvdrip","translation":"Оригинальная дорожка","update":"2020-08-05 08:03:09","iframe_src":"//8944266443434.svetacdn.in/PfJ50H0ZBPg3/movie/42244"},{"id":42243,"title":"И мы на Олимпиаду!","kp_id":"581914","imdb_id":null,"world_art_id":null,"type":"movie","add":"2020-08-03 20:01:22","orig_title":"И мы на Олимпиаду!","year":"1940-01-01","translations":["Оригинальная дорожка"],"quality":"tv","translation":"Оригинальная дорожка","update":"2020-08-05 08:02:07","iframe_src":"//8944266443434.svetacdn.in/PfJ50H0ZBPg3/movie/42243"},{"id":42242,"title":"Жук — кривая горка","kp_id":"622646","imdb_id":null,"world_art_id":null,"type":"movie","add":"2020-08-03 19:57:03","orig_title":"Жук — кривая горка","year":"1973-01-01","translations":["Оригинальная дорожка"],"quality":"dvdrip","translation":"Оригинальная дорожка","update":"2020-08-05 08:01:16","iframe_src":"//8944266443434.svetacdn.in/PfJ50H0ZBPg3/movie/42242"},{"id":42240,"title":"Главный звездный","kp_id":"601590","imdb_id":"tt8193364","world_art_id":null,"type":"movie","add":"2020-08-03 19:54:39","orig_title":"Glavnyy zvyozdnyy","year":"1966-01-01","translations":["Оригинальная дорожка"],"quality":"sat","translation":"Оригинальная дорожка","update":"2020-08-05 07:58:43","iframe_src":"//8944266443434.svetacdn.in/PfJ50H0ZBPg3/movie/42240"},{"id":42239,"title":"5/4","kp_id":"451111","imdb_id":"tt3335112","world_art_id":null,"type":"movie","add":"2020-08-03 19:52:29","orig_title":"5/4","year":"1990-01-01","translations":["Оригинальная дорожка"],"quality":"dvdrip","translation":"Оригинальная дорожка","update":"2020-08-05 07:58:05","iframe_src":"//8944266443434.svetacdn.in/PfJ50H0ZBPg3/movie/42239"},{"id":42237,"title":"Пантелей и пугало","kp_id":"478794","imdb_id":"tt5961594","world_art_id":null,"type":"movie","add":"2020-08-03 19:49:44","orig_title":"Panteley i pugalo","year":"1985-01-01","translations":["Оригинальная дорожка"],"quality":"dvdrip","translation":"Оригинальная дорожка","update":"2020-08-05 07:57:10","iframe_src":"//8944266443434.svetacdn.in/PfJ50H0ZBPg3/movie/42237"},{"id":42212,"title":"Птичий праздник","kp_id":"574050","imdb_id":"tt9100068","world_art_id":null,"type":"movie","add":"2020-08-02 19:05:46","orig_title":"Ptichiy prazdnik","year":"1976-01-01","translations":["Оригинальная дорожка"],"quality":"dvdrip","translation":"Оригинальная дорожка","update":"2020-08-05 07:55:43","iframe_src":"//8944266443434.svetacdn.in/PfJ50H0ZBPg3/movie/42212"},{"id":42211,"title":"Птичий рынок","kp_id":"622812","imdb_id":"tt9100002","world_art_id":null,"type":"movie","add":"2020-08-02 19:02:40","orig_title":"Ptichiy rynok","year":"1974-01-01","translations":["Оригинальная дорожка"],"quality":"dvdrip","translation":"Оригинальная дорожка","update":"2020-08-05 07:53:49","iframe_src":"//8944266443434.svetacdn.in/PfJ50H0ZBPg3/movie/42211"},{"id":42210,"title":"Пугали зайцы зайчонка","kp_id":"565236","imdb_id":"tt6416664","world_art_id":null,"type":"movie","add":"2020-08-02 18:59:57","orig_title":"Pugali zaytsy zaychonka","year":"1983-01-01","translations":["Оригинальная дорожка"],"quality":"dvdrip","translation":"Оригинальная дорожка","update":"2020-08-05 07:53:00","iframe_src":"//8944266443434.svetacdn.in/PfJ50H0ZBPg3/movie/42210"},{"id":42209,"title":"Пугало","kp_id":"628507","imdb_id":"tt6027510","world_art_id":null,"type":"movie","add":"2020-08-02 18:54:03","orig_title":"Pugalo","year":"1990-01-01","translations":["Оригинальная дорожка"],"quality":"dvdrip","translation":"Оригинальная дорожка","update":"2020-08-05 07:51:55","iframe_src":"//8944266443434.svetacdn.in/PfJ50H0ZBPg3/movie/42209"},{"id":42207,"title":"Разрешите пройти","kp_id":"1199840","imdb_id":"tt6044542","world_art_id":null,"type":"movie","add":"2020-08-02 18:45:41","orig_title":"Razreshite proyti","year":"1987-01-01","translations":["Оригинальная дорожка"],"quality":"sat","translation":"Оригинальная дорожка","update":"2020-08-05 07:28:22","iframe_src":"//8944266443434.svetacdn.in/PfJ50H0ZBPg3/movie/42207"},{"id":42206,"title":"Шалтай-Болтай","kp_id":"574651","imdb_id":"tt11664208","world_art_id":null,"type":"movie","add":"2020-08-02 18:42:33","orig_title":"Shaltay-Boltay","year":"1983-01-01","translations":["Оригинальная дорожка"],"quality":"dvdrip","translation":"Оригинальная дорожка","update":"2020-08-05 07:26:07","iframe_src":"//8944266443434.svetacdn.in/PfJ50H0ZBPg3/movie/42206"},{"id":42205,"title":"Снежные мастера","kp_id":"575777","imdb_id":null,"world_art_id":null,"type":"movie","add":"2020-08-02 18:38:27","orig_title":"Снежные мастера","year":"1985-01-01","translations":["Оригинальная дорожка"],"quality":"dvdrip","translation":"Оригинальная дорожка","update":"2020-08-05 07:25:07","iframe_src":"//8944266443434.svetacdn.in/PfJ50H0ZBPg3/movie/42205"},{"id":42204,"title":"Сорванец","kp_id":"451156","imdb_id":"tt1075392","world_art_id":null,"type":"movie","add":"2020-08-02 18:33:27","orig_title":"Rüblik","year":"1975-01-01","translations":["Любительский (одноголосый закадровый)"],"quality":"vhs","translation":"Любительский (одноголосый закадровый)","update":"2020-08-05 07:24:15","iframe_src":"//8944266443434.svetacdn.in/PfJ50H0ZBPg3/movie/42204"},{"id":42202,"title":"Жизнь и страдания Ивана Семенова","kp_id":"581819","imdb_id":"tt8157090","world_art_id":null,"type":"movie","add":"2020-08-02 18:27:31","orig_title":"Zhizn i stradaniya Ivana Semyonova","year":"1964-01-01","translations":["Оригинальная дорожка"],"quality":"sat","translation":"Оригинальная дорожка","update":"2020-08-05 07:23:21","iframe_src":"//8944266443434.svetacdn.in/PfJ50H0ZBPg3/movie/42202"},{"id":42201,"title":"А снег идет...","kp_id":"614648","imdb_id":"tt9140030","world_art_id":null,"type":"movie","add":"2020-08-02 18:24:10","orig_title":"A sneg idet...","year":"1991-01-01","translations":["Оригинальная дорожка"],"quality":"dvdrip","translation":"Оригинальная дорожка","update":"2020-08-05 07:22:37","iframe_src":"//8944266443434.svetacdn.in/PfJ50H0ZBPg3/movie/42201"}],"current_page":1181,"first_page_url":"https://videocdn.tv/api/short?limit=100&api_token=RgFQdUIR2dRmwv8iYa5SnFNgnw3vpjKj&cache31181=31181&page=1","from":118001,"last_page":731,"last_page_url":"https://videocdn.tv/api/short?limit=100&api_token=RgFQdUIR2dRmwv8iYa5SnFNgnw3vpjKj&cache31181=31181&page=731","next_page_url":null,"path":"https://videocdn.tv/api/short","per_page":100,"prev_page_url":"https://videocdn.tv/api/short?limit=100&api_token=RgFQdUIR2dRmwv8iYa5SnFNgnw3vpjKj&cache31181=31181&page=1180","to":118020,"total":73011}