{"result":true,"data":[{"id":51605,"title":"Лоло","kp_id":"1378763","imdb_id":"tt12235150","world_art_id":null,"type":"movie","add":"2021-07-07 06:31:54","orig_title":"Lolo","year":"2019-07-10","translations":["Любительский (одноголосый закадровый) (Воленко Алексей)","Любительский (одноголосый закадровый) (den904)","[EN] Original (English)"],"quality":"webdl","translation":"Любительский (одноголосый закадровый) (Воленко Алексей)","update":"2021-07-07 07:37:06","iframe_src":"//8944266444.svetacdn.in/PfJ50H0ZBPg3/movie/51605"},{"id":51591,"title":"Брокер","kp_id":"3748","imdb_id":"tt0091814","world_art_id":null,"type":"movie","add":"2021-07-06 14:46:05","orig_title":"Quicksilver","year":"1986-02-14","translations":["Профессиональный (многоголосый закадровый)"],"quality":"bd","translation":"Профессиональный (многоголосый закадровый)","update":"2021-07-07 06:42:53","iframe_src":"//8944266444.svetacdn.in/PfJ50H0ZBPg3/movie/51591"},{"id":51589,"title":"Радио ЭйЭм","kp_id":"4437963","imdb_id":"tt14315914","world_art_id":null,"type":"movie","add":"2021-07-06 10:36:44","orig_title":"AM Radio","year":"2021-04-23","translations":["Любительский (многоголосый закадровый) (Синема УС)"],"quality":"webdl","translation":"Любительский (многоголосый закадровый) (Синема УС)","update":"2021-07-06 18:17:09","iframe_src":"//8944266444.svetacdn.in/PfJ50H0ZBPg3/movie/51589"},{"id":51588,"title":"На краю сна","kp_id":"4307972","imdb_id":"tt13527952","world_art_id":null,"type":"movie","add":"2021-07-06 10:35:16","orig_title":"Barely Dreaming","year":"2021-01-01","translations":["Любительский (многоголосый закадровый) (Синема УС)"],"quality":"webdl","translation":"Любительский (многоголосый закадровый) (Синема УС)","update":"2021-07-06 19:46:49","iframe_src":"//8944266444.svetacdn.in/PfJ50H0ZBPg3/movie/51588"},{"id":51587,"title":"Дэнни Бой","kp_id":"2000688","imdb_id":"tt13475382","world_art_id":null,"type":"movie","add":"2021-07-06 10:32:46","orig_title":"Danny Boy","year":"2021-05-12","translations":["Любительский (многоголосый закадровый) (Синема УС)"],"quality":"webdl","translation":"Любительский (многоголосый закадровый) (Синема УС)","update":"2021-07-06 19:45:29","iframe_src":"//8944266444.svetacdn.in/PfJ50H0ZBPg3/movie/51587"},{"id":51586,"title":"Месть на скорости","kp_id":"4367681","imdb_id":"tt13930868","world_art_id":null,"type":"movie","add":"2021-07-06 10:29:43","orig_title":"Fast Vengeance","year":"2021-01-01","translations":["Любительский (многоголосый закадровый) (Синема УС)"],"quality":"webdl","translation":"Любительский (многоголосый закадровый) (Синема УС)","update":"2021-07-06 18:18:48","iframe_src":"//8944266444.svetacdn.in/PfJ50H0ZBPg3/movie/51586"},{"id":51584,"title":"Люби того, кто рядом","kp_id":null,"imdb_id":"tt13919412","world_art_id":null,"type":"movie","add":"2021-07-06 10:26:39","orig_title":"Love the One You're With","year":"2021-01-01","translations":["Любительский (многоголосый закадровый) (Синема УС)"],"quality":"webdl","translation":"Любительский (многоголосый закадровый) (Синема УС)","update":"2021-07-06 15:22:35","iframe_src":"//8944266444.svetacdn.in/PfJ50H0ZBPg3/movie/51584"},{"id":51580,"title":"Джетлаг","kp_id":"1402934","imdb_id":"tt13173116","world_art_id":null,"type":"movie","add":"2021-07-06 03:46:24","orig_title":"Dzhetlag","year":"2021-07-01","translations":["Оригинальная дорожка"],"quality":"ts","translation":"Оригинальная дорожка","update":"2021-07-06 10:19:33","iframe_src":"//8944266444.svetacdn.in/PfJ50H0ZBPg3/movie/51580"},{"id":51579,"title":"Осло, 31-го августа","kp_id":"585349","imdb_id":"tt1736633","world_art_id":null,"type":"movie","add":"2021-07-05 23:15:06","orig_title":"Oslo, 31. august","year":"2011-05-18","translations":["Любительский (одноголосый закадровый) (Агент Смит)"],"quality":"bd","translation":"Любительский (одноголосый закадровый) (Агент Смит)","update":"2021-07-06 07:52:41","iframe_src":"//8944266444.svetacdn.in/PfJ50H0ZBPg3/movie/51579"},{"id":51578,"title":"Дом на Кэрролл-стрит","kp_id":"1703","imdb_id":"tt0095333","world_art_id":null,"type":"movie","add":"2021-07-05 20:04:26","orig_title":"The House on Carroll Street","year":"1987-01-01","translations":["Профессиональный (двухголосый закадровый) (НТВ)"],"quality":"bd","translation":"Профессиональный (двухголосый закадровый) (НТВ)","update":"2021-07-06 09:23:21","iframe_src":"//8944266444.svetacdn.in/PfJ50H0ZBPg3/movie/51578"},{"id":51494,"title":"Странная и удивительная любовь","kp_id":"677425","imdb_id":"tt2356959","world_art_id":null,"type":"movie","add":"2021-06-30 20:11:46","orig_title":"Ajab Gazabb Love","year":"2012-10-24","translations":["Профессиональный (двухголосый закадровый) (Bollywood HD)","Профессиональный (двухголосый закадровый) (Bollywood HD)"],"quality":"webdl","translation":"Профессиональный (двухголосый закадровый) (Bollywood HD)","update":"2021-07-06 11:02:58","iframe_src":"//8944266444.svetacdn.in/PfJ50H0ZBPg3/movie/51494"},{"id":50226,"title":"Кузина Анхелика","kp_id":"58332","imdb_id":"tt0072030","world_art_id":null,"type":"movie","add":"2021-05-08 08:12:32","orig_title":"La prima Angélica","year":"1974-04-29","translations":["Авторский (одноголосый закадровый) (Воротилин Олег)","Профессиональный (двухголосый закадровый) (Фортуна-Фильм)"],"quality":"bd","translation":"Авторский (одноголосый закадровый) (Воротилин Олег)","update":"2021-07-06 14:43:17","iframe_src":"//8944266444.svetacdn.in/PfJ50H0ZBPg3/movie/50226"},{"id":48101,"title":"Клетка для чудаков","kp_id":"37721","imdb_id":"tt0077288","world_art_id":null,"type":"movie","add":"2021-02-21 10:56:53","orig_title":"La cage aux folles","year":"1978-10-20","translations":["Профессиональный (двухголосый закадровый) (НТВ)","Профессиональный (многоголосый закадровый)"],"quality":"bd","translation":"Профессиональный (двухголосый закадровый) (НТВ)","update":"2021-07-06 10:58:41","iframe_src":"//8944266444.svetacdn.in/PfJ50H0ZBPg3/movie/48101"},{"id":47955,"title":"Про Лёлю и Миньку","kp_id":"1337697","imdb_id":"tt11493106","world_art_id":null,"type":"movie","add":"2021-02-15 20:08:56","orig_title":"Pro Lyolyu i Minku","year":"2020-12-17","translations":["Оригинальная дорожка","Оригинальная дорожка"],"quality":"webdl","translation":"Оригинальная дорожка","update":"2021-07-06 11:02:08","iframe_src":"//8944266444.svetacdn.in/PfJ50H0ZBPg3/movie/47955"},{"id":33578,"title":"Ангелы терминаторы 2","kp_id":"82295","imdb_id":"tt0102079","world_art_id":null,"type":"movie","add":"2019-12-01 18:07:52","orig_title":"Huo zhong","year":"1993-01-01","translations":["Любительский (одноголосый закадровый) (Береговых Виктор | Jet)","Любительский (одноголосый закадровый) (Береговых Виктор | Jet)"],"quality":"webdl","translation":"Любительский (одноголосый закадровый) (Береговых Виктор | Jet)","update":"2021-07-06 08:51:52","iframe_src":"//8944266444.svetacdn.in/PfJ50H0ZBPg3/movie/33578"},{"id":30481,"title":"Склока","kp_id":"57326","imdb_id":"tt0078528","world_art_id":null,"type":"movie","add":"2019-09-02 13:43:09","orig_title":"La zizanie","year":"1978-03-16","translations":["Профессиональный (многоголосый закадровый) (НТВ)","Профессиональный (многоголосый закадровый) (5-й канал СПб)","Профессиональный (многоголосый закадровый) (НТВ)"],"quality":"webdl","translation":"Профессиональный (многоголосый закадровый) (НТВ)","update":"2021-07-06 14:40:33","iframe_src":"//8944266444.svetacdn.in/PfJ50H0ZBPg3/movie/30481"},{"id":22355,"title":"Полуночный экспресс","kp_id":"7687","imdb_id":"tt0077928","world_art_id":null,"type":"movie","add":"2019-02-17 13:02:40","orig_title":"Midnight Express","year":"1978-05-18","translations":["Полное дублирование","Авторский (одноголосый закадровый) (Михалёв Алексей)","Авторский (одноголосый закадровый) (Живов Юрий)","Полное дублирование","[EN] Original (English)","Профессиональный (многоголосый закадровый) (Видеосервис)"],"quality":"bd","translation":"Полное дублирование","update":"2021-07-06 10:05:37","iframe_src":"//8944266444.svetacdn.in/PfJ50H0ZBPg3/movie/22355"},{"id":910,"title":"Своя чужая","kp_id":"837756","imdb_id":"tt4976578","world_art_id":null,"type":"serial","add":"2017-01-20 06:22:02","orig_title":"Svoya chuzhaya","year":"2015-06-06","translations":["Оригинальная дорожка"],"seasons_count":1,"episodes_count":16,"episodes":16,"update":"2017-01-20 10:43:24","iframe_src":"//8944266444.svetacdn.in/PfJ50H0ZBPg3/tv-series/910"},{"id":908,"title":"Призрак уездного театра","kp_id":"976622","imdb_id":null,"world_art_id":null,"type":"serial","add":"2017-01-20 06:10:41","orig_title":"Призрак уездного театра","year":"2016-05-21","translations":["Оригинальная дорожка"],"seasons_count":1,"episodes_count":4,"episodes":4,"update":"2017-01-20 10:19:48","iframe_src":"//8944266444.svetacdn.in/PfJ50H0ZBPg3/tv-series/908"},{"id":907,"title":"Дурная слава","kp_id":"968263","imdb_id":"tt5519574","world_art_id":null,"type":"serial","add":"2017-01-19 12:26:28","orig_title":"Notorious","year":"2016-09-22","translations":["Профессиональный (многоголосый закадровый) (NewStudio)"],"seasons_count":1,"episodes_count":10,"episodes":10,"update":"2017-01-20 07:26:26","iframe_src":"//8944266444.svetacdn.in/PfJ50H0ZBPg3/tv-series/907"},{"id":906,"title":"Перезапись","kp_id":"991685","imdb_id":"tt5683292","world_art_id":null,"type":"serial","add":"2017-01-19 11:55:34","orig_title":"Rewrite","year":"2016-07-02","translations":["Любительский (двухголосый закадровый) (AniLibria.TV)"],"seasons_count":1,"episodes_count":13,"episodes":13,"update":"2017-01-20 08:03:14","iframe_src":"//8944266444.svetacdn.in/PfJ50H0ZBPg3/tv-series/906"},{"id":905,"title":"Скиталец Эндры","kp_id":"996309","imdb_id":"tt5877116","world_art_id":null,"type":"serial","add":"2017-01-19 11:38:00","orig_title":"Endride","year":"2016-04-02","translations":["Любительский (многоголосый закадровый)"],"seasons_count":1,"episodes_count":24,"episodes":24,"update":"2017-01-19 15:17:52","iframe_src":"//8944266444.svetacdn.in/PfJ50H0ZBPg3/tv-series/905"},{"id":904,"title":"Два плюс два","kp_id":"933229","imdb_id":"tt5923660","world_art_id":null,"type":"serial","add":"2017-01-19 10:35:23","orig_title":"Dva plyus dva","year":"2015-09-27","translations":["Оригинальная дорожка"],"seasons_count":1,"episodes_count":4,"episodes":4,"update":"2017-01-19 13:57:23","iframe_src":"//8944266444.svetacdn.in/PfJ50H0ZBPg3/tv-series/904"},{"id":899,"title":"Гордость и предубеждение","kp_id":"89518","imdb_id":"tt0112130","world_art_id":null,"type":"serial","add":"2017-01-18 11:53:01","orig_title":"Pride and Prejudice","year":"1995-09-24","translations":["Профессиональный (многоголосый закадровый)"],"seasons_count":1,"episodes_count":6,"episodes":6,"update":"2017-01-19 07:07:24","iframe_src":"//8944266444.svetacdn.in/PfJ50H0ZBPg3/tv-series/899"},{"id":898,"title":"Гадкий Я: Мини-фильмы. Миньоны","kp_id":"653704","imdb_id":"tt2129997","world_art_id":null,"type":"serial","add":"2017-01-18 11:39:38","orig_title":"Despicable Me: Minion Madness","year":"2010-12-14","translations":["Профессиональный (двухголосый закадровый)"],"seasons_count":2,"episodes_count":5,"episodes":2,"update":"2017-01-19 06:59:32","iframe_src":"//8944266444.svetacdn.in/PfJ50H0ZBPg3/tv-series/898"},{"id":897,"title":"Теория невероятности","kp_id":"929062","imdb_id":null,"world_art_id":null,"type":"serial","add":"2017-01-18 05:56:38","orig_title":"Теория невероятности","year":"2015-09-05","translations":["Оригинальная дорожка"],"seasons_count":1,"episodes_count":2,"episodes":2,"update":"2017-01-18 12:06:07","iframe_src":"//8944266444.svetacdn.in/PfJ50H0ZBPg3/tv-series/897"},{"id":896,"title":"Солдаты 2","kp_id":"500560","imdb_id":"tt4083484","world_art_id":null,"type":"serial","add":"2017-01-18 05:50:43","orig_title":"Soldaty 2","year":"2004-01-01","translations":["Оригинальная дорожка"],"seasons_count":1,"episodes_count":16,"episodes":16,"update":"2017-01-18 08:26:21","iframe_src":"//8944266444.svetacdn.in/PfJ50H0ZBPg3/tv-series/896"},{"id":894,"title":"Юркины рассветы","kp_id":"451164","imdb_id":"tt4840330","world_art_id":null,"type":"serial","add":"2017-01-17 12:05:33","orig_title":"Yurkiny rassvety","year":"1975-05-15","translations":["Оригинальная дорожка"],"seasons_count":1,"episodes_count":4,"episodes":4,"update":"2017-01-17 14:24:03","iframe_src":"//8944266444.svetacdn.in/PfJ50H0ZBPg3/tv-series/894"},{"id":892,"title":"Кремень","kp_id":"592155","imdb_id":"tt3419982","world_art_id":null,"type":"serial","add":"2017-01-17 07:26:50","orig_title":"Kremen","year":"2012-04-25","translations":["Оригинальная дорожка"],"seasons_count":1,"episodes_count":4,"episodes":4,"update":"2017-01-17 14:19:06","iframe_src":"//8944266444.svetacdn.in/PfJ50H0ZBPg3/tv-series/892"},{"id":890,"title":"Мама-детектив","kp_id":"701664","imdb_id":"tt4727960","world_art_id":null,"type":"serial","add":"2017-01-17 06:37:44","orig_title":"Mama-detektiv","year":"2015-06-03","translations":["Оригинальная дорожка"],"seasons_count":1,"episodes_count":12,"episodes":12,"update":"2017-01-17 10:55:31","iframe_src":"//8944266444.svetacdn.in/PfJ50H0ZBPg3/tv-series/890"},{"id":889,"title":"В двух километрах от Нового года","kp_id":"425964","imdb_id":"tt3449464","world_art_id":null,"type":"serial","add":"2017-01-17 06:35:04","orig_title":"V dvukh kilometrakh ot Novogo goda","year":"2004-01-01","translations":["Оригинальная дорожка"],"seasons_count":1,"episodes_count":2,"episodes":2,"update":"2017-01-17 09:52:55","iframe_src":"//8944266444.svetacdn.in/PfJ50H0ZBPg3/tv-series/889"},{"id":880,"title":"Позднее раскаяние","kp_id":"745219","imdb_id":"tt3991970","world_art_id":null,"type":"serial","add":"2017-01-16 05:55:03","orig_title":"Pozdnee raskayanie","year":"2013-11-18","translations":["Оригинальная дорожка"],"seasons_count":1,"episodes_count":16,"episodes":16,"update":"2017-01-18 13:46:30","iframe_src":"//8944266444.svetacdn.in/PfJ50H0ZBPg3/tv-series/880"},{"id":847,"title":"Вы все меня бесите","kp_id":"968843","imdb_id":"tt5886364","world_art_id":null,"type":"serial","add":"2017-01-09 18:10:34","orig_title":"Вы все меня бесите","year":"2017-01-09","translations":["Оригинальная дорожка"],"seasons_count":1,"episodes_count":20,"episodes":20,"update":"2017-01-19 08:49:04","iframe_src":"//8944266444.svetacdn.in/PfJ50H0ZBPg3/tv-series/847"},{"id":833,"title":"Гадание при свечах","kp_id":"487349","imdb_id":"tt3723384","world_art_id":null,"type":"serial","add":"2017-01-08 10:17:33","orig_title":"Gadaniye pri svechakh","year":"2011-01-31","translations":["Оригинальная дорожка"],"seasons_count":1,"episodes_count":16,"episodes":16,"update":"2017-01-17 10:36:44","iframe_src":"//8944266444.svetacdn.in/PfJ50H0ZBPg3/tv-series/833"},{"id":625,"title":"Завтра не наступит","kp_id":"972037","imdb_id":"tt5595688","world_art_id":null,"type":"serial","add":"2016-11-25 04:21:40","orig_title":"No Tomorrow","year":"2016-10-04","translations":["Профессиональный (многоголосый закадровый) (ColdFilm)"],"seasons_count":1,"episodes_count":13,"episodes":13,"update":"2017-01-19 11:39:36","iframe_src":"//8944266444.svetacdn.in/PfJ50H0ZBPg3/tv-series/625"},{"id":521,"title":"Дедушка","kp_id":"984274","imdb_id":"tt5923532","world_art_id":null,"type":"serial","add":"2016-10-09 10:39:14","orig_title":"Dedushka","year":"2016-10-07","translations":["Оригинальная дорожка"],"seasons_count":1,"episodes_count":1,"episodes":1,"update":"2017-01-19 13:51:53","iframe_src":"//8944266444.svetacdn.in/PfJ50H0ZBPg3/tv-series/521"},{"id":518,"title":"Давайте познакомимся","kp_id":"1002691","imdb_id":null,"world_art_id":null,"type":"serial","add":"2016-10-07 09:13:43","orig_title":"Давайте познакомимся","year":"2016-09-30","translations":["Оригинальная дорожка"],"seasons_count":1,"episodes_count":1,"episodes":1,"update":"2017-01-20 07:10:53","iframe_src":"//8944266444.svetacdn.in/PfJ50H0ZBPg3/tv-series/518"},{"id":3724,"title":"Водная жизнь","kp_id":"18543","imdb_id":"tt0362270","world_art_id":null,"type":"movie","add":"2016-07-06 11:05:08","orig_title":"The Life Aquatic With Steve Zissou","year":"2004-11-20","translations":["Профессиональный (многоголосый закадровый)","Авторский (одноголосый закадровый) (Визгунов Сергей)","[EN] Original (English)","Профессиональный (многоголосый закадровый) (Superbit)","Профессиональный (многоголосый закадровый) (Видеосервис)","Профессиональный (двухголосый закадровый) (Tycoon)"],"quality":"bd","translation":"Профессиональный (многоголосый закадровый)","update":"2021-07-06 09:47:03","iframe_src":"//8944266444.svetacdn.in/PfJ50H0ZBPg3/movie/3724"},{"id":1703,"title":"Конан-разрушитель","kp_id":"5445","imdb_id":"tt0087078","world_art_id":null,"type":"movie","add":"2016-04-28 18:26:59","orig_title":"Conan the Destroyer","year":"1984-06-29","translations":["Профессиональный (многоголосый закадровый)","Авторский (одноголосый закадровый) (Гаврилов Андрей)","Авторский (одноголосый закадровый) (Горчаков Василий)","Авторский (одноголосый закадровый) (Сербин Юрий)","[EN] Original (English)","Любительский (одноголосый закадровый)","Профессиональный (двухголосый закадровый) (НТВ)","Профессиональный (двухголосый закадровый) (ТВ3)","Профессиональный (двухголосый закадровый) (ТВ6)","Профессиональный (многоголосый закадровый) (Че!)","Профессиональный (многоголосый закадровый) (Карусель)","Профессиональный (многоголосый закадровый) (Киномания)","Профессиональный (многоголосый закадровый) (Первый канал | ОРТ)"],"quality":"bd","translation":"Профессиональный (многоголосый закадровый)","update":"2021-07-06 09:19:25","iframe_src":"//8944266444.svetacdn.in/PfJ50H0ZBPg3/movie/1703"},{"id":1702,"title":"Конан-варвар","kp_id":"5447","imdb_id":"tt0082198","world_art_id":null,"type":"movie","add":"2016-04-28 18:24:42","orig_title":"Conan the Barbarian","year":"1982-04-02","translations":["Профессиональный (многоголосый закадровый)","Авторский (одноголосый закадровый) (Гаврилов Андрей)","Авторский (одноголосый закадровый) (Горчаков Василий)","Авторский (одноголосый закадровый) (Готлиб Александр)","[EN] Original (English)","Профессиональный (двухголосый закадровый)","Профессиональный (двухголосый закадровый) (Гланц + Королёва)","Профессиональный (многоголосый закадровый)","Профессиональный (многоголосый закадровый) (Карусель)","Профессиональный (многоголосый закадровый) (Киномания)"],"quality":"bd","translation":"Профессиональный (многоголосый закадровый)","update":"2021-07-06 09:04:21","iframe_src":"//8944266444.svetacdn.in/PfJ50H0ZBPg3/movie/1702"}],"current_page":602,"first_page_url":"https://videocdn.tv/api/short?limit=100&api_token=RgFQdUIR2dRmwv8iYa5SnFNgnw3vpjKj&cache3602=3602&page=1","from":60101,"last_page":725,"last_page_url":"https://videocdn.tv/api/short?limit=100&api_token=RgFQdUIR2dRmwv8iYa5SnFNgnw3vpjKj&cache3602=3602&page=725","next_page_url":"https://videocdn.tv/api/short?limit=100&api_token=RgFQdUIR2dRmwv8iYa5SnFNgnw3vpjKj&cache3602=3602&page=603","path":"https://videocdn.tv/api/short","per_page":100,"prev_page_url":"https://videocdn.tv/api/short?limit=100&api_token=RgFQdUIR2dRmwv8iYa5SnFNgnw3vpjKj&cache3602=3602&page=601","to":60140,"total":72431}