{"result":true,"data":[{"id":46455,"title":"Мой дорогой убийца","kp_id":"105252","imdb_id":"tt0067434","world_art_id":null,"type":"movie","add":"2020-12-28 10:01:45","orig_title":"Mio caro assassino","year":"1972-02-03","translations":["Профессиональный (многоголосый закадровый) (5-й канал СПб)"],"quality":"bd","translation":"Профессиональный (многоголосый закадровый) (5-й канал СПб)","update":"2020-12-29 08:10:13","iframe_src":"//5322.svetacdn.in/si4jsFRrtgrT/movie/46455"},{"id":46447,"title":"Индейское лето","kp_id":"158316","imdb_id":"tt0113420","world_art_id":null,"type":"movie","add":"2020-12-28 09:25:05","orig_title":"Indiánské léto","year":"1995-02-02","translations":["Авторский (одноголосый закадровый) (Кузнецов Сергей)"],"quality":"hdtv","translation":"Авторский (одноголосый закадровый) (Кузнецов Сергей)","update":"2020-12-29 08:12:58","iframe_src":"//5322.svetacdn.in/si4jsFRrtgrT/movie/46447"},{"id":46438,"title":"Элемент преступления","kp_id":"22600","imdb_id":"tt0087280","world_art_id":null,"type":"movie","add":"2020-12-28 08:39:14","orig_title":"Forbrydelsens element","year":"1984-05-12","translations":["Профессиональный (многоголосый закадровый) (Другое кино)"],"quality":"webdl","translation":"Профессиональный (многоголосый закадровый) (Другое кино)","update":"2020-12-29 08:06:18","iframe_src":"//5322.svetacdn.in/si4jsFRrtgrT/movie/46438"},{"id":46435,"title":"Динамит","kp_id":"6346","imdb_id":"tt0131046","world_art_id":null,"type":"movie","add":"2020-12-28 08:16:05","orig_title":"T.N.T.","year":"1997-10-14","translations":["Профессиональный (многоголосый закадровый) (НТВ)"],"quality":"bd","translation":"Профессиональный (многоголосый закадровый) (НТВ)","update":"2020-12-29 08:09:20","iframe_src":"//5322.svetacdn.in/si4jsFRrtgrT/movie/46435"},{"id":46434,"title":"Эмма и Юлеманден: Охота за сердцем Королевы Эльфов","kp_id":"923697","imdb_id":"tt4819154","world_art_id":null,"type":"movie","add":"2020-12-28 08:07:34","orig_title":"Emma & Julemanden: Jagten på elverdronningens hjerte","year":"2015-11-12","translations":["Профессиональный (многоголосый закадровый) (Игмар)"],"quality":"webdl","translation":"Профессиональный (многоголосый закадровый) (Игмар)","update":"2020-12-29 08:07:12","iframe_src":"//5322.svetacdn.in/si4jsFRrtgrT/movie/46434"},{"id":46421,"title":"Во плоти","kp_id":"1091185","imdb_id":"tt7089314","world_art_id":null,"type":"movie","add":"2020-12-27 14:57:53","orig_title":"In Corpore","year":"2020-11-26","translations":["Original (English)","Любительский (многоголосый закадровый) (Синема УС)"],"quality":"webdl","translation":"Original (English)","update":"2020-12-29 05:14:50","iframe_src":"//5322.svetacdn.in/si4jsFRrtgrT/movie/46421"},{"id":45409,"title":"Смертельный декабрь","kp_id":"1213851","imdb_id":"tt9301428","world_art_id":null,"type":"movie","add":"2020-11-18 17:05:25","orig_title":"Deathcember","year":"2019-10-31","translations":["Любительский (многоголосый закадровый) (@MUZOBOZ@)","Профессиональный (многоголосый закадровый) (IVI)"],"quality":"webdl","translation":"Любительский (многоголосый закадровый) (@MUZOBOZ@)","update":"2020-12-29 08:19:46","iframe_src":"//5322.svetacdn.in/si4jsFRrtgrT/movie/45409"},{"id":44754,"title":"Доктор Лиза","kp_id":"1254059","imdb_id":"tt12028944","world_art_id":null,"type":"movie","add":"2020-10-25 15:35:25","orig_title":"Doktor Liza","year":"2020-10-22","translations":["Оригинальная дорожка","Оригинальная дорожка"],"quality":"ts","translation":"Оригинальная дорожка","update":"2020-12-29 08:17:02","iframe_src":"//5322.svetacdn.in/si4jsFRrtgrT/movie/44754"},{"id":43998,"title":"Внезапная смерть 2","kp_id":"1292018","imdb_id":"tt10804786","world_art_id":null,"type":"movie","add":"2020-09-30 08:15:39","orig_title":"Welcome to Sudden Death","year":"2020-09-29","translations":["Любительский (многоголосый закадровый) (@MUZOBOZ@)","Original (English)","Полное дублирование (iTunes)"],"quality":"webdl","translation":"Любительский (многоголосый закадровый) (@MUZOBOZ@)","update":"2020-12-29 05:34:23","iframe_src":"//5322.svetacdn.in/si4jsFRrtgrT/movie/43998"},{"id":6017,"title":"Высоко над страхом","kp_id":"1320016","imdb_id":null,"world_art_id":null,"type":"serial","add":"2019-12-12 05:12:20","orig_title":"Высоко над страхом","year":"2019-09-20","translations":["Оригинальная дорожка"],"seasons_count":1,"episodes_count":2,"episodes":2,"update":"2019-12-12 10:30:00","iframe_src":"//5322.svetacdn.in/si4jsFRrtgrT/tv-series/6017"},{"id":6016,"title":"Родные руки","kp_id":"1252897","imdb_id":null,"world_art_id":null,"type":"serial","add":"2019-12-12 05:10:15","orig_title":"Родные руки","year":"2019-03-22","translations":["Оригинальная дорожка"],"seasons_count":1,"episodes_count":2,"episodes":2,"update":"2019-12-12 10:15:03","iframe_src":"//5322.svetacdn.in/si4jsFRrtgrT/tv-series/6016"},{"id":6006,"title":"Зеленый Фонарь: Анимационный сериал","kp_id":"568058","imdb_id":"tt1724587","world_art_id":null,"type":"serial","add":"2019-12-11 10:21:12","orig_title":"Green Lantern: The Animated Series","year":"2011-11-11","translations":["Полное дублирование (Пифагор)"],"seasons_count":1,"episodes_count":25,"episodes":25,"update":"2019-12-11 18:03:16","iframe_src":"//5322.svetacdn.in/si4jsFRrtgrT/tv-series/6006"},{"id":6005,"title":"Я всё преодолею","kp_id":"840218","imdb_id":null,"world_art_id":null,"type":"serial","add":"2019-12-11 08:40:35","orig_title":"Я всё преодолею","year":"2014-06-07","translations":["Оригинальная дорожка"],"seasons_count":1,"episodes_count":4,"episodes":4,"update":"2019-12-11 17:42:07","iframe_src":"//5322.svetacdn.in/si4jsFRrtgrT/tv-series/6005"},{"id":6004,"title":"Третий поединок","kp_id":"840728","imdb_id":null,"world_art_id":null,"type":"serial","add":"2019-12-11 08:04:19","orig_title":"Третий поединок","year":"2015-02-22","translations":["Оригинальная дорожка"],"seasons_count":1,"episodes_count":4,"episodes":4,"update":"2019-12-11 08:31:20","iframe_src":"//5322.svetacdn.in/si4jsFRrtgrT/tv-series/6004"},{"id":6003,"title":"Хиромант","kp_id":"260243","imdb_id":null,"world_art_id":null,"type":"serial","add":"2019-12-11 07:21:18","orig_title":"Хиромант","year":"2005-03-01","translations":["Оригинальная дорожка"],"seasons_count":1,"episodes_count":10,"episodes":10,"update":"2019-12-11 08:26:44","iframe_src":"//5322.svetacdn.in/si4jsFRrtgrT/tv-series/6003"},{"id":6001,"title":"Лило и Стич","kp_id":"230374","imdb_id":"tt0364774","world_art_id":null,"type":"serial","add":"2019-12-10 13:07:13","orig_title":"Lilo & Stitch: The Series","year":"2003-09-20","translations":["Полное дублирование (Невафильм | Нева-1)"],"seasons_count":2,"episodes_count":65,"episodes":26,"update":"2019-12-12 19:08:11","iframe_src":"//5322.svetacdn.in/si4jsFRrtgrT/tv-series/6001"},{"id":5986,"title":"Легенда о Тарзане","kp_id":"428856","imdb_id":"tt0283754","world_art_id":null,"type":"serial","add":"2019-12-09 20:30:41","orig_title":"The Legend of Tarzan","year":"2001-09-03","translations":["Полное дублирование"],"seasons_count":2,"episodes_count":39,"episodes":3,"update":"2019-12-11 20:00:17","iframe_src":"//5322.svetacdn.in/si4jsFRrtgrT/tv-series/5986"},{"id":5985,"title":"Стыд. Нидерланды","kp_id":"1214468","imdb_id":"tt8929792","world_art_id":null,"type":"serial","add":"2019-12-09 17:32:54","orig_title":"Skam NL","year":"2018-09-16","translations":["Любительский (двухголосый закадровый) (GoldTeam)"],"seasons_count":1,"episodes_count":10,"episodes":10,"update":"2019-12-12 17:19:31","iframe_src":"//5322.svetacdn.in/si4jsFRrtgrT/tv-series/5985"},{"id":5983,"title":"Три звезды","kp_id":"751707","imdb_id":null,"world_art_id":null,"type":"serial","add":"2019-12-09 17:21:42","orig_title":"Три звезды","year":"2014-07-07","translations":["Оригинальная дорожка"],"seasons_count":1,"episodes_count":30,"episodes":30,"update":"2019-12-11 11:06:53","iframe_src":"//5322.svetacdn.in/si4jsFRrtgrT/tv-series/5983"},{"id":5975,"title":"Уголовное дело","kp_id":"904947","imdb_id":null,"world_art_id":null,"type":"serial","add":"2019-12-08 07:45:32","orig_title":"Уголовное дело","year":"2015-05-12","translations":["Оригинальная дорожка"],"seasons_count":1,"episodes_count":4,"episodes":4,"update":"2019-12-11 08:01:13","iframe_src":"//5322.svetacdn.in/si4jsFRrtgrT/tv-series/5975"},{"id":5970,"title":"Бойся желаний своих","kp_id":"1209245","imdb_id":null,"world_art_id":null,"type":"serial","add":"2019-12-07 06:08:11","orig_title":"Бойся желаний своих","year":"2018-10-14","translations":["Оригинальная дорожка"],"seasons_count":1,"episodes_count":4,"episodes":4,"update":"2019-12-11 07:52:27","iframe_src":"//5322.svetacdn.in/si4jsFRrtgrT/tv-series/5970"},{"id":5969,"title":"Психология любви","kp_id":"1283726","imdb_id":null,"world_art_id":null,"type":"serial","add":"2019-12-07 06:07:16","orig_title":"Психология любви","year":"2019-04-16","translations":["Оригинальная дорожка"],"seasons_count":1,"episodes_count":4,"episodes":4,"update":"2019-12-11 17:38:29","iframe_src":"//5322.svetacdn.in/si4jsFRrtgrT/tv-series/5969"},{"id":5946,"title":"Полицейский с Рублёвки. Полицейская академия","kp_id":"1323572","imdb_id":null,"world_art_id":null,"type":"serial","add":"2019-12-05 05:31:04","orig_title":"Полицейский с Рублёвки. Полицейская академия","year":"2019-12-05","translations":["Оригинальная дорожка"],"seasons_count":1,"episodes_count":8,"episodes":8,"update":"2019-12-12 02:49:11","iframe_src":"//5322.svetacdn.in/si4jsFRrtgrT/tv-series/5946"},{"id":5945,"title":"Поймай призрака","kp_id":"1253834","imdb_id":"tt10712926","world_art_id":null,"type":"serial","add":"2019-12-04 22:47:42","orig_title":"Yooryungeul Jabara","year":"2019-10-21","translations":["Любительский (двухголосый закадровый) (HighHopes)"],"seasons_count":1,"episodes_count":16,"episodes":16,"update":"2019-12-12 15:22:37","iframe_src":"//5322.svetacdn.in/si4jsFRrtgrT/tv-series/5945"},{"id":5891,"title":"Классный мюзикл: Мюзикл","kp_id":"1216620","imdb_id":"tt8510382","world_art_id":null,"type":"serial","add":"2019-11-29 11:46:28","orig_title":"High School Musical: The Musical - The Series","year":"2019-11-08","translations":["Профессиональный (одноголосый закадровый) (Sound Film)"],"seasons_count":1,"episodes_count":5,"episodes":5,"update":"2019-12-12 16:15:17","iframe_src":"//5322.svetacdn.in/si4jsFRrtgrT/tv-series/5891"},{"id":33239,"title":"Рождество в Блу Ридж Маунтин","kp_id":"1302464","imdb_id":"tt10936658","world_art_id":null,"type":"movie","add":"2019-11-18 21:10:35","orig_title":"A Blue Ridge Mountain Christmas","year":"2019-11-07","translations":["Любительский (многоголосый закадровый) (AlphaProject)","Профессиональный (многоголосый закадровый)"],"quality":"hdtv","translation":"Любительский (многоголосый закадровый) (AlphaProject)","update":"2020-12-29 08:18:31","iframe_src":"//5322.svetacdn.in/si4jsFRrtgrT/movie/33239"},{"id":5576,"title":"Миссис Флетчер","kp_id":"1118647","imdb_id":"tt8304608","world_art_id":null,"type":"serial","add":"2019-10-30 09:30:58","orig_title":"Mrs. Fletcher","year":"2019-10-27","translations":["Профессиональный (многоголосый закадровый) (Jaskier)","Любительский (многоголосый закадровый) (Octopus)","Профессиональный (многоголосый закадровый) (TVShows)"],"seasons_count":1,"episodes_count":7,"episodes":7,"update":"2019-12-12 15:19:27","iframe_src":"//5322.svetacdn.in/si4jsFRrtgrT/tv-series/5576"},{"id":5535,"title":"Система","kp_id":"1192380","imdb_id":"tt4699888","world_art_id":null,"type":"serial","add":"2019-10-27 14:54:57","orig_title":"Il sistema","year":"2016-04-18","translations":["Профессиональный (многоголосый закадровый) (ViruseProject)"],"seasons_count":1,"episodes_count":12,"episodes":12,"update":"2019-12-12 13:33:36","iframe_src":"//5322.svetacdn.in/si4jsFRrtgrT/tv-series/5535"},{"id":25411,"title":"Северное сияние","kp_id":"41043","imdb_id":"tt0297002","world_art_id":null,"type":"movie","add":"2019-04-26 17:51:31","orig_title":"Severnoe siyanie","year":"2001-01-01","translations":["Оригинальная дорожка","Оригинальная дорожка"],"quality":"dvdrip","translation":"Оригинальная дорожка","update":"2020-12-29 08:15:51","iframe_src":"//5322.svetacdn.in/si4jsFRrtgrT/movie/25411"},{"id":3284,"title":"Зак Шторм – Суперпират","kp_id":"892081","imdb_id":"tt4209752","world_art_id":null,"type":"serial","add":"2018-10-12 09:38:46","orig_title":"Zak Storm","year":"2017-10-14","translations":["Полное дублирование"],"seasons_count":3,"episodes_count":39,"episodes":13,"update":"2019-12-11 20:22:43","iframe_src":"//5322.svetacdn.in/si4jsFRrtgrT/tv-series/3284"},{"id":15042,"title":"Четыре Рождества","kp_id":"393067","imdb_id":"tt0369436","world_art_id":null,"type":"movie","add":"2018-02-02 05:38:58","orig_title":"Four Christmases","year":"2008-11-20","translations":["Полное дублирование","Полное дублирование","Original (English)","Профессиональный (многоголосый закадровый)"],"quality":"bd","translation":"Полное дублирование","update":"2020-12-29 06:47:35","iframe_src":"//5322.svetacdn.in/si4jsFRrtgrT/movie/15042"},{"id":14546,"title":"Снежный роман","kp_id":"1103303","imdb_id":"tt7657428","world_art_id":null,"type":"movie","add":"2017-12-04 19:29:19","orig_title":"Snowmance","year":"2017-11-20","translations":["Любительский (многоголосый закадровый) (Синема УС)","Профессиональный (многоголосый закадровый)"],"quality":"hdtv","translation":"Любительский (многоголосый закадровый) (Синема УС)","update":"2020-12-29 08:14:35","iframe_src":"//5322.svetacdn.in/si4jsFRrtgrT/movie/14546"},{"id":1467,"title":"Аббатство Даунтон","kp_id":"518192","imdb_id":"tt1606375","world_art_id":null,"type":"serial","add":"2017-08-14 16:05:57","orig_title":"Downton Abbey","year":"2010-09-26","translations":["Профессиональный (многоголосый закадровый) (Русский дубляж)","Профессиональный (многоголосый закадровый) (BaibaKo)","Профессиональный (многоголосый закадровый) (СВ-Дубль)"],"seasons_count":6,"episodes_count":52,"episodes":9,"update":"2019-12-12 17:23:31","iframe_src":"//5322.svetacdn.in/si4jsFRrtgrT/tv-series/1467"},{"id":7018,"title":"Санта Клаус","kp_id":"2547","imdb_id":"tt0111070","world_art_id":null,"type":"movie","add":"2016-11-03 13:02:28","orig_title":"The Santa Clause","year":"1994-11-11","translations":["Профессиональный (многоголосый закадровый)","Original (English)","Профессиональный (многоголосый закадровый)"],"quality":"bd","translation":"Профессиональный (многоголосый закадровый)","update":"2020-12-29 07:57:24","iframe_src":"//5322.svetacdn.in/si4jsFRrtgrT/movie/7018"},{"id":4565,"title":"Семьянин","kp_id":"664","imdb_id":"tt0218967","world_art_id":null,"type":"movie","add":"2016-08-19 07:42:59","orig_title":"The Family Man","year":"2000-12-22","translations":["Полное дублирование","Авторский (одноголосый закадровый) (Живов Юрий)","Полное дублирование","Original (English)","Профессиональный (многоголосый закадровый) (РТР | Россия)","Профессиональный (многоголосый закадровый)"],"quality":"bd","translation":"Полное дублирование","update":"2020-12-29 07:47:46","iframe_src":"//5322.svetacdn.in/si4jsFRrtgrT/movie/4565"},{"id":3666,"title":"Новая рождественская сказка","kp_id":"9262","imdb_id":"tt0096061","world_art_id":null,"type":"movie","add":"2016-07-05 05:38:46","orig_title":"Scrooged","year":"1988-11-23","translations":["Профессиональный (многоголосый закадровый)","Авторский (одноголосый закадровый) (Горчаков Василий)","Авторский (одноголосый закадровый) (Михалёв Алексей)","Original (English)","Профессиональный (многоголосый закадровый) (СТС)","Профессиональный (многоголосый закадровый) (НТВ)","Профессиональный (многоголосый закадровый) (LostFilm)","Профессиональный (многоголосый закадровый) (Премьер Видео Фильм)"],"quality":"bd","translation":"Профессиональный (многоголосый закадровый)","update":"2020-12-29 07:10:35","iframe_src":"//5322.svetacdn.in/si4jsFRrtgrT/movie/3666"},{"id":2308,"title":"Гринч – похититель Рождества","kp_id":"5056","imdb_id":"tt0170016","world_art_id":null,"type":"movie","add":"2016-05-17 19:35:10","orig_title":"How the Grinch Stole Christmas","year":"2000-11-08","translations":["Профессиональный (многоголосый закадровый)","Original (English)","Авторский (одноголосый закадровый) (Живов Юрий)","Original (English)","Полное дублирование","Профессиональный (многоголосый закадровый) (Карусель)","Профессиональный (многоголосый закадровый) (Премьер Видео Фильм)"],"quality":"bd","translation":"Профессиональный (многоголосый закадровый)","update":"2020-12-29 06:55:08","iframe_src":"//5322.svetacdn.in/si4jsFRrtgrT/movie/2308"},{"id":1381,"title":"Рэмбо: Первая кровь 2","kp_id":"6352","imdb_id":"tt0089880","world_art_id":null,"type":"movie","add":"2016-04-21 09:11:27","orig_title":"Rambo: First Blood Part II","year":"1985-05-22","translations":["Профессиональный (многоголосый закадровый)","Original (English)","Авторский (одноголосый закадровый) (Гоблин | Пучков Дмитрий)","Авторский (одноголосый закадровый) (Гаврилов Андрей)","Авторский (одноголосый закадровый) (Горчаков Василий)","Авторский (одноголосый закадровый) (Либергал Григорий)","Авторский (одноголосый закадровый) (Визгунов Сергей)","Авторский (одноголосый закадровый) (Живов Юрий)","Original (English)","Профессиональный (двухголосый закадровый) (РенТВ)","Профессиональный (многоголосый закадровый) (CP Digital)","Профессиональный (многоголосый закадровый) (Киномания)","Профессиональный (многоголосый закадровый) (Позитив)","Авторский (одноголосый закадровый) (Кузнецов Сергей)","Профессиональный (многоголосый закадровый) (СТС)"],"quality":"bd","translation":"Профессиональный (многоголосый закадровый)","update":"2020-12-29 06:40:26","iframe_src":"//5322.svetacdn.in/si4jsFRrtgrT/movie/1381"},{"id":1039,"title":"Кошмар перед рождеством","kp_id":"8222","imdb_id":"tt0107688","world_art_id":null,"type":"movie","add":"2016-04-13 18:01:17","orig_title":"The Nightmare Before Christmas","year":"1993-10-09","translations":["Полное дублирование","Авторский (одноголосый закадровый) (Санаев Павел)","Полное дублирование","Original (English)","Профессиональный (двухголосый закадровый) (Tycoon)","Профессиональный (многоголосый закадровый) (НТВ)","Профессиональный (многоголосый закадровый) (Позитив)"],"quality":"bd","translation":"Полное дублирование","update":"2020-12-29 07:02:27","iframe_src":"//5322.svetacdn.in/si4jsFRrtgrT/movie/1039"},{"id":616,"title":"Полярный экспресс","kp_id":"3755","imdb_id":"tt0338348","world_art_id":null,"type":"movie","add":"2016-04-05 16:04:17","orig_title":"The Polar Express","year":"2004-10-21","translations":["Полное дублирование","Авторский (одноголосый закадровый) (Королёв Владимир)","Авторский (одноголосый закадровый) (Рудой Евгений)","Полное дублирование","Original (English)","Профессиональный (многоголосый закадровый) (Киномания)","Профессиональный (двухголосый закадровый) (Tycoon)"],"quality":"bd","translation":"Полное дублирование","update":"2020-12-29 07:55:45","iframe_src":"//5322.svetacdn.in/si4jsFRrtgrT/movie/616"}],"current_page":290,"first_page_url":"https://videocdn.tv/api/short?limit=100&api_token=X6EwAUfE5M9xbo7y0Bp0aPf3uXxG2KLL&cache3290=3290&page=1","from":28901,"last_page":620,"last_page_url":"https://videocdn.tv/api/short?limit=100&api_token=X6EwAUfE5M9xbo7y0Bp0aPf3uXxG2KLL&cache3290=3290&page=620","next_page_url":"https://videocdn.tv/api/short?limit=100&api_token=X6EwAUfE5M9xbo7y0Bp0aPf3uXxG2KLL&cache3290=3290&page=291","path":"https://videocdn.tv/api/short","per_page":100,"prev_page_url":"https://videocdn.tv/api/short?limit=100&api_token=X6EwAUfE5M9xbo7y0Bp0aPf3uXxG2KLL&cache3290=3290&page=289","to":28940,"total":62000}