{"result":true,"data":[{"id":13891,"title":"Томми и волшебный мул","kp_id":"421520","imdb_id":"tt1273228","world_art_id":null,"type":"movie","add":"2017-10-18 12:54:29","orig_title":"Tommy and the Cool Mule","year":"2009-05-26","translations":["Профессиональный (многоголосый закадровый)"],"quality":"dvdrip","translation":"Профессиональный (многоголосый закадровый)","update":"2017-10-19 05:16:40","iframe_src":"//5091.svetacdn.in/71tsRs29n5tZ/movie/13891"},{"id":13889,"title":"Искушение","kp_id":"461344","imdb_id":"tt1422189","world_art_id":null,"type":"movie","add":"2017-10-18 12:49:31","orig_title":"Xtra Credit","year":"2010-03-25","translations":["Профессиональный (многоголосый закадровый)"],"quality":"dvdrip","translation":"Профессиональный (многоголосый закадровый)","update":"2017-10-19 05:21:35","iframe_src":"//5091.svetacdn.in/71tsRs29n5tZ/movie/13889"},{"id":13888,"title":"Оправданное зло","kp_id":"394007","imdb_id":"tt1084733","world_art_id":null,"type":"movie","add":"2017-10-18 12:48:18","orig_title":"Necessary Evil","year":"2008-12-31","translations":["Профессиональный (многоголосый закадровый)"],"quality":"dvdrip","translation":"Профессиональный (многоголосый закадровый)","update":"2017-10-19 05:23:37","iframe_src":"//5091.svetacdn.in/71tsRs29n5tZ/movie/13888"},{"id":13887,"title":"Мост","kp_id":"396915","imdb_id":"tt1119180","world_art_id":null,"type":"movie","add":"2017-10-18 12:47:20","orig_title":"Die Brücke","year":"2008-06-21","translations":["Профессиональный (многоголосый закадровый)"],"quality":"dvdrip","translation":"Профессиональный (многоголосый закадровый)","update":"2017-10-19 05:25:32","iframe_src":"//5091.svetacdn.in/71tsRs29n5tZ/movie/13887"},{"id":13886,"title":"Призрак у маяка","kp_id":"406257","imdb_id":"tt1190910","world_art_id":null,"type":"movie","add":"2017-10-18 12:45:38","orig_title":"The Beacon","year":"2009-10-25","translations":["Профессиональный (многоголосый закадровый)"],"quality":"bd","translation":"Профессиональный (многоголосый закадровый)","update":"2017-10-19 05:26:53","iframe_src":"//5091.svetacdn.in/71tsRs29n5tZ/movie/13886"},{"id":13885,"title":"Завтра на рассвете","kp_id":"462943","imdb_id":"tt1291548","world_art_id":null,"type":"movie","add":"2017-10-18 12:44:26","orig_title":"Demain dès l'aube","year":"2009-05-19","translations":["Профессиональный (двухголосый закадровый)"],"quality":"dvdrip","translation":"Профессиональный (двухголосый закадровый)","update":"2017-10-19 05:27:59","iframe_src":"//5091.svetacdn.in/71tsRs29n5tZ/movie/13885"},{"id":13884,"title":"История города пиратов","kp_id":"635598","imdb_id":"tt2047915","world_art_id":null,"type":"movie","add":"2017-10-18 12:43:17","orig_title":"Wicked Pirate City","year":"2011-05-08","translations":["Профессиональный (одноголосый закадровый)"],"quality":"sat","translation":"Профессиональный (одноголосый закадровый)","update":"2017-10-19 05:29:26","iframe_src":"//5091.svetacdn.in/71tsRs29n5tZ/movie/13884"},{"id":13883,"title":"Шпильки 3","kp_id":"512488","imdb_id":"tt4274642","world_art_id":null,"type":"movie","add":"2017-10-18 12:42:16","orig_title":"Shpilki 3","year":"2010-05-03","translations":["Оригинальная дорожка"],"quality":"sat","translation":"Оригинальная дорожка","update":"2017-10-19 05:30:45","iframe_src":"//5091.svetacdn.in/71tsRs29n5tZ/movie/13883"},{"id":13882,"title":"Шпильки 2","kp_id":"485259","imdb_id":"tt4270882","world_art_id":null,"type":"movie","add":"2017-10-18 12:41:08","orig_title":"Shpilki 2","year":"2009-10-30","translations":["Оригинальная дорожка"],"quality":"sat","translation":"Оригинальная дорожка","update":"2017-10-19 05:31:48","iframe_src":"//5091.svetacdn.in/71tsRs29n5tZ/movie/13882"},{"id":13881,"title":"Шпильки","kp_id":"466927","imdb_id":"tt4270206","world_art_id":null,"type":"movie","add":"2017-10-18 12:40:00","orig_title":"Shpilki","year":"2009-06-05","translations":["Оригинальная дорожка"],"quality":"dvdrip","translation":"Оригинальная дорожка","update":"2017-10-19 05:32:50","iframe_src":"//5091.svetacdn.in/71tsRs29n5tZ/movie/13881"},{"id":13880,"title":"Безымянный клинок","kp_id":"468388","imdb_id":"tt1465518","world_art_id":null,"type":"movie","add":"2017-10-18 12:38:19","orig_title":"Bool-kkott-cheo-reom na-bi-cheo-reom","year":"2009-09-24","translations":["Любительский (двухголосый закадровый)"],"quality":"bd","translation":"Любительский (двухголосый закадровый)","update":"2017-10-19 05:34:20","iframe_src":"//5091.svetacdn.in/71tsRs29n5tZ/movie/13880"},{"id":13879,"title":"Скрытые","kp_id":"485380","imdb_id":"tt1347007","world_art_id":null,"type":"movie","add":"2017-10-18 12:36:42","orig_title":"Skjult","year":"2009-04-03","translations":["Любительский (одноголосый закадровый)"],"quality":"bd","translation":"Любительский (одноголосый закадровый)","update":"2017-10-19 05:35:26","iframe_src":"//5091.svetacdn.in/71tsRs29n5tZ/movie/13879"},{"id":13877,"title":"Лондон-Таун","kp_id":"931039","imdb_id":"tt1724597","world_art_id":null,"type":"movie","add":"2017-10-17 21:22:06","orig_title":"London Town","year":"2016-06-03","translations":["Любительский (двухголосый закадровый)"],"quality":"webdl","translation":"Любительский (двухголосый закадровый)","update":"2017-10-18 06:15:31","iframe_src":"//5091.svetacdn.in/71tsRs29n5tZ/movie/13877"},{"id":13876,"title":"Перевёрнутая","kp_id":"708077","imdb_id":"tt2388050","world_art_id":null,"type":"movie","add":"2017-10-17 21:20:08","orig_title":"Flipped","year":"2015-11-18","translations":["Любительский (многоголосый закадровый) (Синема УС)"],"quality":"dvdrip","translation":"Любительский (многоголосый закадровый) (Синема УС)","update":"2017-10-18 06:16:46","iframe_src":"//5091.svetacdn.in/71tsRs29n5tZ/movie/13876"},{"id":13875,"title":"Жребий","kp_id":null,"imdb_id":"tt6764780","world_art_id":null,"type":"movie","add":"2017-10-17 21:18:22","orig_title":"Dhayam","year":"2017-03-24","translations":["Профессиональный (многоголосый закадровый)"],"quality":"webdl","translation":"Профессиональный (многоголосый закадровый)","update":"2017-10-18 06:18:34","iframe_src":"//5091.svetacdn.in/71tsRs29n5tZ/movie/13875"},{"id":13872,"title":"Отклонение","kp_id":"496972","imdb_id":"tt1592576","world_art_id":null,"type":"movie","add":"2017-10-17 10:25:33","orig_title":"Swerve","year":"2011-07-25","translations":["Любительский (одноголосый закадровый) (Хихикающий доктор)"],"quality":"bd","translation":"Любительский (одноголосый закадровый) (Хихикающий доктор)","update":"2017-10-18 14:43:15","iframe_src":"//5091.svetacdn.in/71tsRs29n5tZ/movie/13872"},{"id":13870,"title":"Лермонтов","kp_id":"843686","imdb_id":null,"world_art_id":null,"type":"movie","add":"2017-10-17 10:23:53","orig_title":"Лермонтов","year":"2014-11-03","translations":["Оригинальная дорожка"],"quality":"webdl","translation":"Оригинальная дорожка","update":"2017-10-18 14:35:33","iframe_src":"//5091.svetacdn.in/71tsRs29n5tZ/movie/13870"},{"id":13841,"title":"Флика","kp_id":"94544","imdb_id":"tt0434215","world_art_id":null,"type":"movie","add":"2017-10-14 19:15:07","orig_title":"Flicka","year":"2006-10-19","translations":["Профессиональный (двухголосый закадровый)"],"quality":"bd","translation":"Профессиональный (двухголосый закадровый)","update":"2017-10-17 06:37:44","iframe_src":"//5091.svetacdn.in/71tsRs29n5tZ/movie/13841"},{"id":13506,"title":"Правосудие","kp_id":"963880","imdb_id":"tt5143890","world_art_id":null,"type":"movie","add":"2017-09-17 06:16:50","orig_title":"Justice","year":"2017-04-22","translations":["Любительский (многоголосый закадровый) (Синема УС)"],"quality":"bd","translation":"Любительский (многоголосый закадровый) (Синема УС)","update":"2017-10-18 14:38:58","iframe_src":"//5091.svetacdn.in/71tsRs29n5tZ/movie/13506"},{"id":12615,"title":"Зеро 3","kp_id":"1013596","imdb_id":"tt6194850","world_art_id":null,"type":"movie","add":"2017-07-24 16:21:36","orig_title":"Zero 3","year":"2017-01-27","translations":["Профессиональный (многоголосый закадровый)"],"quality":"webdl","translation":"Профессиональный (многоголосый закадровый)","update":"2017-10-16 06:38:24","iframe_src":"//5091.svetacdn.in/71tsRs29n5tZ/movie/12615"}],"current_page":2174,"first_page_url":"https://videocdn.tv/api/short?limit=100&api_token=EnbO9h8pv1VyjbCJhg0WM9nG259n7mtz&cache32174=32174&page=1","from":217301,"last_page":667,"last_page_url":"https://videocdn.tv/api/short?limit=100&api_token=EnbO9h8pv1VyjbCJhg0WM9nG259n7mtz&cache32174=32174&page=667","next_page_url":null,"path":"https://videocdn.tv/api/short","per_page":100,"prev_page_url":"https://videocdn.tv/api/short?limit=100&api_token=EnbO9h8pv1VyjbCJhg0WM9nG259n7mtz&cache32174=32174&page=2173","to":217320,"total":66672}