{"result":true,"data":[{"id":55638,"title":"Чиновник","kp_id":"4463981","imdb_id":"tt15709182","world_art_id":null,"type":"movie","add":"2022-01-04 05:22:10","orig_title":"Chinovnik","year":"2021-12-09","translations":["Оригинальная дорожка"],"quality":"webdl","translation":"Оригинальная дорожка","update":"2022-01-04 07:14:54","iframe_src":"//24213.svetacdn.in/IAF0wWTdNYZm/movie/55638"},{"id":55634,"title":"При попытке к бегству","kp_id":"666616","imdb_id":"tt5045448","world_art_id":null,"type":"movie","add":"2022-01-03 17:51:47","orig_title":"Pri popytke k begstvu","year":"1965-05-01","translations":["Оригинальная дорожка"],"quality":"sat","translation":"Оригинальная дорожка","update":"2022-01-04 05:25:03","iframe_src":"//24213.svetacdn.in/IAF0wWTdNYZm/movie/55634"},{"id":55633,"title":"Разные колеса","kp_id":"461888","imdb_id":"tt1794926","world_art_id":null,"type":"movie","add":"2022-01-03 17:18:58","orig_title":"Raznye kolesa","year":"1960-01-01","translations":["Оригинальная дорожка"],"quality":"webdl","translation":"Оригинальная дорожка","update":"2022-01-04 05:16:46","iframe_src":"//24213.svetacdn.in/IAF0wWTdNYZm/movie/55633"},{"id":55632,"title":"Буран","kp_id":"1263667","imdb_id":"tt10232096","world_art_id":null,"type":"movie","add":"2022-01-03 13:08:41","orig_title":"Buran","year":"2021-12-27","translations":["Оригинальная дорожка"],"quality":"webdl","translation":"Оригинальная дорожка","update":"2022-01-03 20:23:19","iframe_src":"//24213.svetacdn.in/IAF0wWTdNYZm/movie/55632"},{"id":55631,"title":"С Новым годом","kp_id":"4428428","imdb_id":"tt16755970","world_art_id":null,"type":"movie","add":"2022-01-03 13:03:15","orig_title":"Haepi nyu ieo","year":"2021-12-29","translations":["Любительский (двухголосый закадровый) (АрхиAsia)"],"quality":"webdl","translation":"Любительский (двухголосый закадровый) (АрхиAsia)","update":"2022-01-03 17:23:34","iframe_src":"//24213.svetacdn.in/IAF0wWTdNYZm/movie/55631"},{"id":55630,"title":"Белый апач","kp_id":"105602","imdb_id":"tt0090652","world_art_id":null,"type":"movie","add":"2022-01-03 13:01:51","orig_title":"Bianco Apache","year":"1987-08-26","translations":["Профессиональный (многоголосый закадровый) (Видеофильм)"],"quality":"bd","translation":"Профессиональный (многоголосый закадровый) (Видеофильм)","update":"2022-01-04 07:37:09","iframe_src":"//24213.svetacdn.in/IAF0wWTdNYZm/movie/55630"},{"id":55629,"title":"Строптивая девчонка","kp_id":"26490","imdb_id":"tt0049063","world_art_id":null,"type":"movie","add":"2022-01-03 12:30:50","orig_title":"Cette sacrée gamine","year":"1956-03-30","translations":["Профессиональный (двухголосый закадровый) (Первый канал | ОРТ)"],"quality":"webdl","translation":"Профессиональный (двухголосый закадровый) (Первый канал | ОРТ)","update":"2022-01-04 07:44:35","iframe_src":"//24213.svetacdn.in/IAF0wWTdNYZm/movie/55629"},{"id":55625,"title":"Мужчина, который любил женщин","kp_id":"12277","imdb_id":"tt0085891","world_art_id":null,"type":"movie","add":"2022-01-03 05:58:59","orig_title":"The Man Who Loved Women","year":"1983-12-16","translations":["Профессиональный (многоголосый закадровый) (НТВ)"],"quality":"webdl","translation":"Профессиональный (многоголосый закадровый) (НТВ)","update":"2022-01-03 16:17:13","iframe_src":"//24213.svetacdn.in/IAF0wWTdNYZm/movie/55625"},{"id":55133,"title":"10 дней с Сантой","kp_id":"1302222","imdb_id":"tt10803866","world_art_id":null,"type":"movie","add":"2021-12-10 20:35:53","orig_title":"10 giorni con Babbo Natale","year":"2020-12-04","translations":["Любительский (многоголосый закадровый) (Синема УС)","Профессиональный (многоголосый закадровый) (Кириллица)"],"quality":"webdl","translation":"Любительский (многоголосый закадровый) (Синема УС)","update":"2022-01-03 16:05:40","iframe_src":"//24213.svetacdn.in/IAF0wWTdNYZm/movie/55133"},{"id":54662,"title":"Обыкновенная страсть","kp_id":"1245445","imdb_id":"tt10023172","world_art_id":null,"type":"movie","add":"2021-11-19 10:39:59","orig_title":"Passion simple","year":"2020-09-09","translations":["Полное дублирование","Полное дублирование (Мосфильм)"],"quality":"webdl","translation":"Полное дублирование","update":"2022-01-04 05:19:18","iframe_src":"//24213.svetacdn.in/IAF0wWTdNYZm/movie/54662"},{"id":54268,"title":"Приключения Пильи","kp_id":"4557207","imdb_id":"tt15091284","world_art_id":null,"type":"movie","add":"2021-11-02 17:54:33","orig_title":"Pil","year":"2021-08-11","translations":["Любительский (многоголосый закадровый) (Синема УС)","Полное дублирование","Полное дублирование","Полное дублирование (КиноПоиск HD)"],"quality":"ts","translation":"Любительский (многоголосый закадровый) (Синема УС)","update":"2022-01-03 17:02:46","iframe_src":"//24213.svetacdn.in/IAF0wWTdNYZm/movie/54268"},{"id":44317,"title":"Месть волчицы","kp_id":"1191549","imdb_id":"tt8952968","world_art_id":null,"type":"movie","add":"2020-10-11 21:52:12","orig_title":"I Am Lisa","year":"2020-08-28","translations":["Любительский (многоголосый закадровый) (@MUZOBOZ@)","Полное дублирование (iTunes)"],"quality":"webdl","translation":"Любительский (многоголосый закадровый) (@MUZOBOZ@)","update":"2022-01-03 16:08:39","iframe_src":"//24213.svetacdn.in/IAF0wWTdNYZm/movie/44317"},{"id":40436,"title":"Одинокий","kp_id":"652610","imdb_id":"tt2123294","world_art_id":null,"type":"movie","add":"2020-05-15 21:49:33","orig_title":"Solo","year":"2011-11-25","translations":["Профессиональный (многоголосый закадровый) (Red Media)","Профессиональный (многоголосый закадровый) (Red Media)"],"quality":"hdrip","translation":"Профессиональный (многоголосый закадровый) (Red Media)","update":"2022-01-04 07:32:27","iframe_src":"//24213.svetacdn.in/IAF0wWTdNYZm/movie/40436"},{"id":6984,"title":"BBC: Европа: История континента","kp_id":"258121","imdb_id":"tt0449012","world_art_id":null,"type":"serial","add":"2020-03-25 07:34:13","orig_title":"Wild Europe","year":"2005-02-15","translations":["Профессиональный (одноголосый закадровый)"],"seasons_count":1,"episodes_count":4,"episodes":4,"update":"2020-03-25 10:22:45","iframe_src":"//24213.svetacdn.in/IAF0wWTdNYZm/tv-series/6984"},{"id":6983,"title":"Когда папа Дед Мороз","kp_id":"1045637","imdb_id":"tt9222072","world_art_id":null,"type":"serial","add":"2020-03-25 07:10:56","orig_title":"Когда папа Дед Мороз","year":"2017-01-01","translations":["Оригинальная дорожка"],"seasons_count":1,"episodes_count":4,"episodes":4,"update":"2020-03-25 10:55:14","iframe_src":"//24213.svetacdn.in/IAF0wWTdNYZm/tv-series/6983"},{"id":6981,"title":"Вампиры","kp_id":"79478","imdb_id":"tt0006206","world_art_id":null,"type":"serial","add":"2020-03-24 22:10:49","orig_title":"Les vampires","year":"1915-11-13","translations":["[EN] Original (English)"],"seasons_count":1,"episodes_count":2,"episodes":2,"update":"2020-03-25 15:17:28","iframe_src":"//24213.svetacdn.in/IAF0wWTdNYZm/tv-series/6981"},{"id":6980,"title":"Хантик: Искатели секретов","kp_id":"579536","imdb_id":"tt1696969","world_art_id":null,"type":"serial","add":"2020-03-24 22:03:57","orig_title":"Huntik: Secrets and Seekers","year":"2009-01-01","translations":["Любительский (многоголосый закадровый) (Flux-Team)"],"seasons_count":1,"episodes_count":26,"episodes":26,"update":"2020-03-25 15:12:25","iframe_src":"//24213.svetacdn.in/IAF0wWTdNYZm/tv-series/6980"},{"id":6978,"title":"Бумбараш","kp_id":"79674","imdb_id":"tt0131331","world_art_id":null,"type":"serial","add":"2020-03-24 16:17:03","orig_title":"Bumbarash","year":"1972-05-01","translations":["Оригинальная дорожка"],"seasons_count":1,"episodes_count":2,"episodes":2,"update":"2020-03-25 09:59:26","iframe_src":"//24213.svetacdn.in/IAF0wWTdNYZm/tv-series/6978"},{"id":6975,"title":"Супергерой","kp_id":"467116","imdb_id":"tt1438437","world_art_id":null,"type":"serial","add":"2020-03-24 07:45:34","orig_title":"The Phantom","year":"2009-12-22","translations":["Профессиональный (многоголосый закадровый)"],"seasons_count":1,"episodes_count":2,"episodes":2,"update":"2020-03-24 11:58:39","iframe_src":"//24213.svetacdn.in/IAF0wWTdNYZm/tv-series/6975"},{"id":6967,"title":"Моя большая семья","kp_id":"683374","imdb_id":"tt3872016","world_art_id":null,"type":"serial","add":"2020-03-23 08:39:59","orig_title":"Moya bolshaya semya","year":"2012-06-04","translations":["Оригинальная дорожка"],"seasons_count":1,"episodes_count":12,"episodes":12,"update":"2020-03-24 19:45:15","iframe_src":"//24213.svetacdn.in/IAF0wWTdNYZm/tv-series/6967"},{"id":6960,"title":"Западное крыло","kp_id":"94224","imdb_id":"tt0200276","world_art_id":null,"type":"serial","add":"2020-03-22 12:43:41","orig_title":"The West Wing","year":"2005-09-25","translations":["Любительский (одноголосый закадровый) (Hamster)","Профессиональный (многоголосый закадровый) (FocusStudio)","Профессиональный (двухголосый закадровый) (НТВ)"],"seasons_count":7,"episodes_count":154,"episodes":22,"update":"2020-03-25 15:52:56","iframe_src":"//24213.svetacdn.in/IAF0wWTdNYZm/tv-series/6960"},{"id":6959,"title":"Приключения Вуди и его друзей","kp_id":"309596","imdb_id":"tt0184175","world_art_id":null,"type":"serial","add":"2020-03-21 17:45:24","orig_title":"The Woody Woodpecker Show","year":"1957-10-01","translations":["Профессиональный (двухголосый закадровый)"],"seasons_count":2,"episodes_count":183,"episodes":53,"update":"2020-03-25 10:38:02","iframe_src":"//24213.svetacdn.in/IAF0wWTdNYZm/tv-series/6959"},{"id":6956,"title":"Шоу Майкла Дж. Фокса","kp_id":"701750","imdb_id":"tt2338232","world_art_id":null,"type":"serial","add":"2020-03-20 22:38:50","orig_title":"The Michael J. Fox Show","year":"2013-09-25","translations":["Профессиональный (многоголосый закадровый) (Jaskier)"],"seasons_count":1,"episodes_count":22,"episodes":22,"update":"2020-03-24 14:37:37","iframe_src":"//24213.svetacdn.in/IAF0wWTdNYZm/tv-series/6956"},{"id":6923,"title":"Цыганская любовь","kp_id":"417753","imdb_id":"tt0208611","world_art_id":null,"type":"serial","add":"2020-03-18 09:54:20","orig_title":"Amor gitano","year":"1999-01-01","translations":["Профессиональный (многоголосый закадровый)"],"seasons_count":1,"episodes_count":55,"episodes":55,"update":"2020-03-24 15:52:51","iframe_src":"//24213.svetacdn.in/IAF0wWTdNYZm/tv-series/6923"},{"id":6863,"title":"Всё к лучшему","kp_id":"575950","imdb_id":"tt3862658","world_art_id":null,"type":"serial","add":"2020-03-13 08:02:44","orig_title":"Vso k luchshemu","year":"2011-01-17","translations":["Оригинальная дорожка"],"seasons_count":1,"episodes_count":261,"episodes":261,"update":"2020-03-24 16:37:20","iframe_src":"//24213.svetacdn.in/IAF0wWTdNYZm/tv-series/6863"},{"id":6705,"title":"Охотники","kp_id":"1170235","imdb_id":"tt7456722","world_art_id":null,"type":"serial","add":"2020-02-21 09:52:04","orig_title":"Hunters","year":"2020-02-21","translations":["Любительский (многоголосый закадровый) (Octopus)","Любительский (многоголосый закадровый) (ColdFilm)","Профессиональный (многоголосый закадровый) (HDrezka Studio)","Профессиональный (двухголосый закадровый) (Gears Media)","Профессиональный (многоголосый закадровый) (LostFilm)","Любительский (многоголосый закадровый) (WestFilm)","Профессиональный (многоголосый закадровый) (NewStudio)","Профессиональный (многоголосый закадровый) (Jaskier)","Любительский (двухголосый закадровый) (ColdFilm)"],"seasons_count":1,"episodes_count":10,"episodes":10,"update":"2020-03-25 04:52:02","iframe_src":"//24213.svetacdn.in/IAF0wWTdNYZm/tv-series/6705"},{"id":6633,"title":"НольНольНоль","kp_id":"1132285","imdb_id":"tt8332438","world_art_id":null,"type":"serial","add":"2020-02-14 01:37:04","orig_title":"ZeroZeroZero","year":"2019-09-05","translations":["Любительский (многоголосый закадровый) (Octopus)","Любительский (многоголосый закадровый) (ColdFilm)","Профессиональный (многоголосый закадровый) (Кравец)","Профессиональный (многоголосый закадровый) (HDrezka Studio)","Профессиональный (многоголосый закадровый) (LostFilm)","Любительский (многоголосый закадровый) (WestFilm)","Авторский (одноголосый закадровый) (Сербин Юрий)","Профессиональный (многоголосый закадровый) (TVShows)"],"seasons_count":1,"episodes_count":8,"episodes":8,"update":"2020-03-25 12:19:05","iframe_src":"//24213.svetacdn.in/IAF0wWTdNYZm/tv-series/6633"},{"id":6627,"title":"Цени каждый день","kp_id":"1251515","imdb_id":"tt10065678","world_art_id":null,"type":"serial","add":"2020-02-13 05:38:43","orig_title":"Cherish the Day","year":"2020-02-11","translations":["Любительский (многоголосый закадровый) (Octopus)"],"seasons_count":1,"episodes_count":8,"episodes":8,"update":"2020-03-25 15:24:27","iframe_src":"//24213.svetacdn.in/IAF0wWTdNYZm/tv-series/6627"},{"id":5860,"title":"Голубка","kp_id":"1316421","imdb_id":"tt11149738","world_art_id":null,"type":"serial","add":"2019-11-27 08:37:01","orig_title":"Guvercin","year":"2019-11-24","translations":["Любительский (одноголосый закадровый)"],"seasons_count":1,"episodes_count":13,"episodes":13,"update":"2020-03-25 04:40:07","iframe_src":"//24213.svetacdn.in/IAF0wWTdNYZm/tv-series/5860"},{"id":5046,"title":"Особенности мелодрамы","kp_id":"1242007","imdb_id":"tt10559276","world_art_id":null,"type":"serial","add":"2019-08-16 16:44:39","orig_title":"Melloga chejil","year":"2019-08-09","translations":["Любительский (многоголосый закадровый)","Профессиональный (многоголосый закадровый)","Любительский (многоголосый закадровый) (Voice Project Studio)"],"seasons_count":1,"episodes_count":16,"episodes":16,"update":"2020-03-24 15:22:25","iframe_src":"//24213.svetacdn.in/IAF0wWTdNYZm/tv-series/5046"},{"id":4958,"title":"Безрассудный","kp_id":"741264","imdb_id":"tt2734804","world_art_id":null,"type":"serial","add":"2019-07-27 20:29:04","orig_title":"Reckless","year":"2014-06-29","translations":["Профессиональный (двухголосый закадровый)","Профессиональный (многоголосый закадровый) (TVShows)"],"seasons_count":1,"episodes_count":13,"episodes":13,"update":"2020-03-25 08:59:51","iframe_src":"//24213.svetacdn.in/IAF0wWTdNYZm/tv-series/4958"},{"id":21869,"title":"Ноэль","kp_id":"64451","imdb_id":"tt0383534","world_art_id":null,"type":"movie","add":"2019-01-27 11:14:18","orig_title":"Noel","year":"2004-09-12","translations":["Профессиональный (многоголосый закадровый)","[EN] Original (English)","Профессиональный (многоголосый закадровый)"],"quality":"bd","translation":"Профессиональный (многоголосый закадровый)","update":"2022-01-03 16:13:50","iframe_src":"//24213.svetacdn.in/IAF0wWTdNYZm/movie/21869"},{"id":3504,"title":"Драконы: Гонка на грани","kp_id":"1046305","imdb_id":"tt4816058","world_art_id":null,"type":"serial","add":"2018-11-14 19:09:43","orig_title":"Dragons: Race to the Edge","year":"2015-06-26","translations":["Полное дублирование","Любительский (одноголосый закадровый)","Профессиональный (многоголосый закадровый) (HDrezka Studio)","Полное дублирование (СВ-Дубль)"],"seasons_count":6,"episodes_count":78,"episodes":13,"update":"2020-03-24 20:30:42","iframe_src":"//24213.svetacdn.in/IAF0wWTdNYZm/tv-series/3504"},{"id":15980,"title":"С полудня до трех","kp_id":"13585","imdb_id":"tt0074553","world_art_id":null,"type":"movie","add":"2018-04-01 22:40:22","orig_title":"From Noon Till Three","year":"1976-08-13","translations":["Профессиональный (двухголосый закадровый)","Профессиональный (двухголосый закадровый) (НТВ)"],"quality":"bd","translation":"Профессиональный (двухголосый закадровый)","update":"2022-01-04 07:34:43","iframe_src":"//24213.svetacdn.in/IAF0wWTdNYZm/movie/15980"},{"id":2011,"title":"Видоизмененный углерод","kp_id":"669089","imdb_id":"tt2261227","world_art_id":null,"type":"serial","add":"2018-01-30 06:47:26","orig_title":"Altered Carbon","year":"2018-02-02","translations":["Профессиональный (многоголосый закадровый) (BaibaKo)","Профессиональный (многоголосый закадровый) (LostFilm)","Профессиональный (многоголосый закадровый) (HDrezka Studio)","Профессиональный (многоголосый закадровый) (NewStudio)","Профессиональный (двухголосый закадровый) (Кубик в Кубе | Kubik³)","Профессиональный (многоголосый закадровый) (Jaskier)","Профессиональный (многоголосый закадровый) (AlexFilm)","Профессиональный (двухголосый закадровый) (Gears Media)","Профессиональный (многоголосый закадровый) (OMSKBIRD records)","Профессиональный (многоголосый закадровый) (Good People)","Профессиональный (многоголосый закадровый) (TVShows)","Профессиональный (многоголосый закадровый) (AMS)","Профессиональный (многоголосый закадровый) (IdeaFilm)","Любительский (многоголосый закадровый) (ColdFilm)","Любительский (многоголосый закадровый) (Octopus)","Любительский (многоголосый закадровый) (KerobTV)","Любительский (многоголосый закадровый) (WestFilm)"],"seasons_count":2,"episodes_count":18,"episodes":8,"update":"2020-03-24 11:47:31","iframe_src":"//24213.svetacdn.in/IAF0wWTdNYZm/tv-series/2011"},{"id":12639,"title":"Держись, Чарли, это Рождество!","kp_id":"581080","imdb_id":"tt1828976","world_art_id":null,"type":"movie","add":"2017-07-25 11:56:21","orig_title":"Good Luck Charlie, It's Christmas!","year":"2011-12-02","translations":["Полное дублирование","Полное дублирование (Невафильм | Нева-1)"],"quality":"webdl","translation":"Полное дублирование","update":"2022-01-03 16:11:31","iframe_src":"//24213.svetacdn.in/IAF0wWTdNYZm/movie/12639"},{"id":7229,"title":"Мистер Магу","kp_id":"5482","imdb_id":"tt0119718","world_art_id":null,"type":"movie","add":"2016-11-09 05:06:50","orig_title":"Mr. Magoo","year":"1997-12-25","translations":["Профессиональный (многоголосый закадровый)","Профессиональный (многоголосый закадровый) (Первый канал | ОРТ)"],"quality":"webdl","translation":"Профессиональный (многоголосый закадровый)","update":"2022-01-04 07:41:07","iframe_src":"//24213.svetacdn.in/IAF0wWTdNYZm/movie/7229"},{"id":7049,"title":"Каникулы строгого режима","kp_id":"417840","imdb_id":"tt1438463","world_art_id":null,"type":"movie","add":"2016-11-04 07:01:55","orig_title":"Kanikuly strogogo rezhima","year":"2009-08-25","translations":["Оригинальная дорожка","Оригинальная дорожка"],"quality":"bd","translation":"Оригинальная дорожка","update":"2022-01-04 07:48:13","iframe_src":"//24213.svetacdn.in/IAF0wWTdNYZm/movie/7049"},{"id":6736,"title":"Битва за остров сокровищ","kp_id":"9320","imdb_id":"tt0099816","world_art_id":null,"type":"movie","add":"2016-10-27 05:46:10","orig_title":"Haakon Haakonsen","year":"1990-10-03","translations":["Профессиональный (многоголосый закадровый)","Профессиональный (многоголосый закадровый) (Selena International)"],"quality":"webdl","translation":"Профессиональный (многоголосый закадровый)","update":"2022-01-04 07:46:42","iframe_src":"//24213.svetacdn.in/IAF0wWTdNYZm/movie/6736"},{"id":5714,"title":"Чyжой билет","kp_id":"618","imdb_id":"tt0186894","world_art_id":null,"type":"movie","add":"2016-09-29 16:38:05","orig_title":"Bounce","year":"2000-11-17","translations":["Полное дублирование","Профессиональный (одноголосый закадровый) (Мосфильм)"],"quality":"bd","translation":"Полное дублирование","update":"2022-01-04 07:50:16","iframe_src":"//24213.svetacdn.in/IAF0wWTdNYZm/movie/5714"}],"current_page":380,"first_page_url":"https://videocdn.tv/api/short?limit=100&api_token=6Onb1W1alEUrBcKJZD3GoKBbWyAl2uG2&cache3380=3380&page=1","from":37901,"last_page":730,"last_page_url":"https://videocdn.tv/api/short?limit=100&api_token=6Onb1W1alEUrBcKJZD3GoKBbWyAl2uG2&cache3380=3380&page=730","next_page_url":"https://videocdn.tv/api/short?limit=100&api_token=6Onb1W1alEUrBcKJZD3GoKBbWyAl2uG2&cache3380=3380&page=381","path":"https://videocdn.tv/api/short","per_page":100,"prev_page_url":"https://videocdn.tv/api/short?limit=100&api_token=6Onb1W1alEUrBcKJZD3GoKBbWyAl2uG2&cache3380=3380&page=379","to":37940,"total":72971}