{"result":true,"data":[{"id":27777,"title":"Золотая баба","kp_id":"45377","imdb_id":"tt0092295","world_art_id":null,"type":"movie","add":"2019-06-13 22:16:27","orig_title":"Zolotaya baba","year":"1986-06-28","translations":["Оригинальная дорожка"],"quality":"dvdrip","translation":"Оригинальная дорожка","update":"2019-06-14 05:21:52","iframe_src":"//2413.svetacdn.in/71tsRs29n5tZ/movie/27777"},{"id":27776,"title":"Очень важная персона","kp_id":"42714","imdb_id":"tt0263805","world_art_id":null,"type":"movie","add":"2019-06-13 22:11:23","orig_title":"Ochen vazhnaya persona","year":"1984-04-09","translations":["Оригинальная дорожка"],"quality":"dvdrip","translation":"Оригинальная дорожка","update":"2019-06-14 05:23:12","iframe_src":"//2413.svetacdn.in/71tsRs29n5tZ/movie/27776"},{"id":27775,"title":"Они были актерами","kp_id":"42768","imdb_id":"tt0082852","world_art_id":null,"type":"movie","add":"2019-06-13 22:08:15","orig_title":"Oni byli aktyorami","year":"1981-01-01","translations":["Оригинальная дорожка"],"quality":"dvdrip","translation":"Оригинальная дорожка","update":"2019-06-14 05:23:50","iframe_src":"//2413.svetacdn.in/71tsRs29n5tZ/movie/27775"},{"id":27774,"title":"Праздники детства","kp_id":"43223","imdb_id":"tt0237603","world_art_id":null,"type":"movie","add":"2019-06-13 22:04:49","orig_title":"Prazdniki detstva","year":"1981-05-16","translations":["Оригинальная дорожка"],"quality":"dvdrip","translation":"Оригинальная дорожка","update":"2019-06-14 05:25:42","iframe_src":"//2413.svetacdn.in/71tsRs29n5tZ/movie/27774"},{"id":27773,"title":"Прорва","kp_id":"40969","imdb_id":"tt0105182","world_art_id":null,"type":"movie","add":"2019-06-13 22:01:39","orig_title":"Prorva","year":"1992-09-17","translations":["Оригинальная дорожка"],"quality":"dvdrip","translation":"Оригинальная дорожка","update":"2019-06-14 05:29:00","iframe_src":"//2413.svetacdn.in/71tsRs29n5tZ/movie/27773"},{"id":27772,"title":"Рейс 222","kp_id":"42081","imdb_id":"tt0089897","world_art_id":null,"type":"movie","add":"2019-06-13 21:57:52","orig_title":"Reys 222","year":"1985-09-01","translations":["Оригинальная дорожка"],"quality":"dvdrip","translation":"Оригинальная дорожка","update":"2019-06-14 05:30:05","iframe_src":"//2413.svetacdn.in/71tsRs29n5tZ/movie/27772"},{"id":27771,"title":"Роковая ошибка","kp_id":"42123","imdb_id":"tt0096005","world_art_id":null,"type":"movie","add":"2019-06-13 21:54:06","orig_title":"Rokovaya oshibka","year":"1989-06-01","translations":["Оригинальная дорожка"],"quality":"sat","translation":"Оригинальная дорожка","update":"2019-06-14 05:31:21","iframe_src":"//2413.svetacdn.in/71tsRs29n5tZ/movie/27771"},{"id":27770,"title":"Слепые игры","kp_id":"840167","imdb_id":null,"world_art_id":null,"type":"movie","add":"2019-06-13 21:25:27","orig_title":"Слепые игры","year":"2014-05-31","translations":["Оригинальная дорожка"],"quality":"dvdrip","translation":"Оригинальная дорожка","update":"2019-06-14 05:47:20","iframe_src":"//2413.svetacdn.in/71tsRs29n5tZ/movie/27770"},{"id":27769,"title":"Среди серых камней","kp_id":"43960","imdb_id":"tt0173240","world_art_id":null,"type":"movie","add":"2019-06-13 21:19:37","orig_title":"Sredi serykh kamney","year":"1983-05-21","translations":["Оригинальная дорожка"],"quality":"dvdrip","translation":"Оригинальная дорожка","update":"2019-06-14 05:51:54","iframe_src":"//2413.svetacdn.in/71tsRs29n5tZ/movie/27769"},{"id":27768,"title":"Тайна золотой горы","kp_id":"102831","imdb_id":"tt0265841","world_art_id":null,"type":"movie","add":"2019-06-13 21:15:37","orig_title":"Tayna zolotoy gory","year":"1985-07-01","translations":["Оригинальная дорожка"],"quality":"dvdrip","translation":"Оригинальная дорожка","update":"2019-06-14 05:52:45","iframe_src":"//2413.svetacdn.in/71tsRs29n5tZ/movie/27768"},{"id":27767,"title":"Только в мюзик-холле","kp_id":"260192","imdb_id":"tt0081640","world_art_id":null,"type":"movie","add":"2019-06-13 21:12:19","orig_title":"Tolko v myusik-kholle","year":"1980-05-16","translations":["Оригинальная дорожка"],"quality":"dvdrip","translation":"Оригинальная дорожка","update":"2019-06-14 05:53:43","iframe_src":"//2413.svetacdn.in/71tsRs29n5tZ/movie/27767"},{"id":27766,"title":"Тройной прыжок «Пантеры»","kp_id":"42322","imdb_id":"tt0275741","world_art_id":null,"type":"movie","add":"2019-06-13 21:08:27","orig_title":"Troynoy pryzhok 'Pantery'","year":"1986-12-04","translations":["Оригинальная дорожка"],"quality":"dvdrip","translation":"Оригинальная дорожка","update":"2019-06-14 05:54:46","iframe_src":"//2413.svetacdn.in/71tsRs29n5tZ/movie/27766"},{"id":27765,"title":"Цыганка Аза","kp_id":"42362","imdb_id":"tt0301956","world_art_id":null,"type":"movie","add":"2019-06-13 21:02:52","orig_title":"Tsyganka Aza","year":"1987-08-15","translations":["Профессиональный (многоголосый закадровый)"],"quality":"dvdrip","translation":"Профессиональный (многоголосый закадровый)","update":"2019-06-14 05:56:16","iframe_src":"//2413.svetacdn.in/71tsRs29n5tZ/movie/27765"},{"id":27764,"title":"Удар! Еще удар!","kp_id":"42495","imdb_id":"tt0159802","world_art_id":null,"type":"movie","add":"2019-06-13 20:59:20","orig_title":"Udar! Eshchyo udar!","year":"1968-06-13","translations":["Оригинальная дорожка"],"quality":"dvdrip","translation":"Оригинальная дорожка","update":"2019-06-14 05:58:37","iframe_src":"//2413.svetacdn.in/71tsRs29n5tZ/movie/27764"},{"id":27763,"title":"Утреннее шоссе","kp_id":"42543","imdb_id":"tt0307624","world_art_id":null,"type":"movie","add":"2019-06-13 20:55:32","orig_title":"Utrenneye shosse","year":"1988-01-01","translations":["Оригинальная дорожка"],"quality":"dvdrip","translation":"Оригинальная дорожка","update":"2019-06-14 06:35:55","iframe_src":"//2413.svetacdn.in/71tsRs29n5tZ/movie/27763"},{"id":27762,"title":"В старых ритмах","kp_id":"45633","imdb_id":"tt0240159","world_art_id":null,"type":"movie","add":"2019-06-13 20:50:30","orig_title":"V starykh ritmakh","year":"1982-11-22","translations":["Оригинальная дорожка"],"quality":"dvdrip","translation":"Оригинальная дорожка","update":"2019-06-14 06:37:24","iframe_src":"//2413.svetacdn.in/71tsRs29n5tZ/movie/27762"},{"id":27761,"title":"Вкус халвы","kp_id":"45792","imdb_id":"tt0073872","world_art_id":null,"type":"movie","add":"2019-06-13 20:47:11","orig_title":"Vkus khalvy","year":"1975-01-01","translations":["Оригинальная дорожка"],"quality":"dvdrip","translation":"Оригинальная дорожка","update":"2019-06-14 06:38:27","iframe_src":"//2413.svetacdn.in/71tsRs29n5tZ/movie/27761"},{"id":27760,"title":"Впереди океан","kp_id":"528222","imdb_id":"tt5593212","world_art_id":null,"type":"movie","add":"2019-06-13 20:44:05","orig_title":"Vperedi okean","year":"1983-01-01","translations":["Оригинальная дорожка"],"quality":"dvdrip","translation":"Оригинальная дорожка","update":"2019-06-14 06:39:21","iframe_src":"//2413.svetacdn.in/71tsRs29n5tZ/movie/27760"},{"id":27759,"title":"Время для размышлений","kp_id":"279029","imdb_id":"tt0084877","world_art_id":null,"type":"movie","add":"2019-06-13 20:39:53","orig_title":"Vremya dlya razmyshleniy","year":"1983-01-18","translations":["Оригинальная дорожка"],"quality":"dvdrip","translation":"Оригинальная дорожка","update":"2019-06-14 06:42:39","iframe_src":"//2413.svetacdn.in/71tsRs29n5tZ/movie/27759"},{"id":27758,"title":"Здесь твой фронт","kp_id":"45254","imdb_id":"tt0253975","world_art_id":null,"type":"movie","add":"2019-06-13 20:36:27","orig_title":"Zdes tvoy front","year":"1983-01-01","translations":["Оригинальная дорожка"],"quality":"dvdrip","translation":"Оригинальная дорожка","update":"2019-06-14 06:45:46","iframe_src":"//2413.svetacdn.in/71tsRs29n5tZ/movie/27758"}],"current_page":1816,"first_page_url":"https://videocdn.tv/api/short?limit=100&api_token=EnbO9h8pv1VyjbCJhg0WM9nG259n7mtz&cache31816=31816&page=1","from":181501,"last_page":719,"last_page_url":"https://videocdn.tv/api/short?limit=100&api_token=EnbO9h8pv1VyjbCJhg0WM9nG259n7mtz&cache31816=31816&page=719","next_page_url":null,"path":"https://videocdn.tv/api/short","per_page":100,"prev_page_url":"https://videocdn.tv/api/short?limit=100&api_token=EnbO9h8pv1VyjbCJhg0WM9nG259n7mtz&cache31816=31816&page=1815","to":181520,"total":71819}