{"result":true,"data":[{"id":44986,"title":"Царство зверей","kp_id":"15414","imdb_id":"tt0022628","world_art_id":null,"type":"movie","add":"2020-11-03 07:58:46","orig_title":"The Animal Kingdom","year":"1932-12-23","translations":["Профессиональный (двухголосый закадровый)"],"quality":"dvdrip","translation":"Профессиональный (двухголосый закадровый)","update":"2020-11-03 08:42:01","iframe_src":"//83.svetacdn.in/PfJ50H0ZBPg3/movie/44986"},{"id":44985,"title":"Город мальчиков","kp_id":"26280","imdb_id":"tt0029942","world_art_id":null,"type":"movie","add":"2020-11-03 07:41:29","orig_title":"Boys Town","year":"1938-09-08","translations":["Профессиональный (одноголосый закадровый)"],"quality":"dvdrip","translation":"Профессиональный (одноголосый закадровый)","update":"2020-11-03 08:38:11","iframe_src":"//83.svetacdn.in/PfJ50H0ZBPg3/movie/44985"},{"id":44980,"title":"Великоландия","kp_id":"1115857","imdb_id":"tt8215480","world_art_id":null,"type":"movie","add":"2020-11-03 05:56:32","orig_title":"Greatland","year":"2020-10-08","translations":["Любительский (многоголосый закадровый) (@MUZOBOZ@)"],"quality":"webdl","translation":"Любительский (многоголосый закадровый) (@MUZOBOZ@)","update":"2020-11-03 12:28:06","iframe_src":"//83.svetacdn.in/PfJ50H0ZBPg3/movie/44980"},{"id":44979,"title":"Ночи перед рождеством","kp_id":"1103725","imdb_id":"tt7620598","world_art_id":null,"type":"movie","add":"2020-11-03 05:54:41","orig_title":"The Nights Before Christmas","year":"2020-12-06","translations":["Любительский (многоголосый закадровый) (@MUZOBOZ@)"],"quality":"webdl","translation":"Любительский (многоголосый закадровый) (@MUZOBOZ@)","update":"2020-11-03 12:27:45","iframe_src":"//83.svetacdn.in/PfJ50H0ZBPg3/movie/44979"},{"id":44737,"title":"Верные друзья","kp_id":"584365","imdb_id":null,"world_art_id":null,"type":"movie","add":"2020-10-24 22:19:57","orig_title":"Верные друзья","year":"1971-01-01","translations":["Оригинальная дорожка"],"quality":"dvdrip","translation":"Оригинальная дорожка","update":"2020-11-03 12:28:07","iframe_src":"//83.svetacdn.in/PfJ50H0ZBPg3/movie/44737"},{"id":44736,"title":"Забытый день рождения","kp_id":"596147","imdb_id":"tt5879880","world_art_id":null,"type":"movie","add":"2020-10-24 22:16:35","orig_title":"Zabitiy den rozhdeniya","year":"1984-01-01","translations":["Оригинальная дорожка"],"quality":"dvdrip","translation":"Оригинальная дорожка","update":"2020-11-03 12:27:21","iframe_src":"//83.svetacdn.in/PfJ50H0ZBPg3/movie/44736"},{"id":44735,"title":"Легенда о девичьей башне","kp_id":"1280592","imdb_id":"tt3963374","world_art_id":null,"type":"movie","add":"2020-10-24 22:12:19","orig_title":"Qiz qalasi efsanesi","year":"1978-04-10","translations":["Оригинальная дорожка"],"quality":"webdl","translation":"Оригинальная дорожка","update":"2020-11-03 11:58:56","iframe_src":"//83.svetacdn.in/PfJ50H0ZBPg3/movie/44735"},{"id":44723,"title":"Легенда о злом великане","kp_id":"453227","imdb_id":"tt7723146","world_art_id":null,"type":"movie","add":"2020-10-23 20:42:30","orig_title":"Legenda o zlom velikane","year":"1967-01-01","translations":["Оригинальная дорожка"],"quality":"dvdrip","translation":"Оригинальная дорожка","update":"2020-11-03 11:30:11","iframe_src":"//83.svetacdn.in/PfJ50H0ZBPg3/movie/44723"},{"id":44720,"title":"Мудрость и богатство","kp_id":"1435355","imdb_id":null,"world_art_id":null,"type":"movie","add":"2020-10-23 20:19:52","orig_title":"Мудрость и богатство","year":"1977-01-01","translations":["Оригинальная дорожка"],"quality":"dvdrip","translation":"Оригинальная дорожка","update":"2020-11-03 11:27:53","iframe_src":"//83.svetacdn.in/PfJ50H0ZBPg3/movie/44720"},{"id":44717,"title":"Весенние мелодии","kp_id":"258096","imdb_id":"tt9239328","world_art_id":null,"type":"movie","add":"2020-10-23 20:02:39","orig_title":"Vesennie melodii","year":"1946-01-01","translations":["Оригинальная дорожка"],"quality":"dvdrip","translation":"Оригинальная дорожка","update":"2020-11-03 11:25:35","iframe_src":"//83.svetacdn.in/PfJ50H0ZBPg3/movie/44717"},{"id":44716,"title":"Гори, гори ясно","kp_id":"603219","imdb_id":"tt6368530","world_art_id":null,"type":"movie","add":"2020-10-23 20:00:16","orig_title":"Gori, gori yasno","year":"1983-04-22","translations":["Оригинальная дорожка"],"quality":"dvdrip","translation":"Оригинальная дорожка","update":"2020-11-03 11:14:02","iframe_src":"//83.svetacdn.in/PfJ50H0ZBPg3/movie/44716"},{"id":43681,"title":"Оскорбление","kp_id":"10110","imdb_id":"tt0070468","world_art_id":null,"type":"movie","add":"2020-09-19 21:29:22","orig_title":"The Offence","year":"1973-01-01","translations":["Профессиональный (многоголосый закадровый)","Профессиональный (двухголосый закадровый) (НТВ)"],"quality":"bd","translation":"Профессиональный (многоголосый закадровый)","update":"2020-11-03 09:12:38","iframe_src":"//83.svetacdn.in/PfJ50H0ZBPg3/movie/43681"},{"id":31720,"title":"База","kp_id":"77315","imdb_id":"tt0185908","world_art_id":null,"type":"movie","add":"2019-10-10 21:56:29","orig_title":"The Base","year":"1999-03-25","translations":["Профессиональный (двухголосый закадровый) (РенТВ)","Авторский (одноголосый закадровый) (Сербин Юрий)"],"quality":"dvdrip","translation":"Профессиональный (двухголосый закадровый) (РенТВ)","update":"2020-11-03 09:05:52","iframe_src":"//83.svetacdn.in/PfJ50H0ZBPg3/movie/31720"},{"id":3843,"title":"Обитатели холмов","kp_id":"977741","imdb_id":"tt5670764","world_art_id":null,"type":"serial","add":"2019-01-08 06:53:38","orig_title":"Watership Down","year":"2018-12-22","translations":["Полное дублирование"],"seasons_count":1,"episodes_count":4,"episodes":4,"update":"2019-01-08 10:50:31","iframe_src":"//83.svetacdn.in/PfJ50H0ZBPg3/tv-series/3843"},{"id":3840,"title":"Халк против","kp_id":"432706","imdb_id":"tt1325753","world_art_id":null,"type":"serial","add":"2019-01-07 16:40:39","orig_title":"Hulk Vs.","year":"2009-01-27","translations":["Профессиональный (многоголосый закадровый)"],"seasons_count":1,"episodes_count":2,"episodes":2,"update":"2019-01-08 07:39:22","iframe_src":"//83.svetacdn.in/PfJ50H0ZBPg3/tv-series/3840"},{"id":3833,"title":"Здесь есть тот, кого я люблю","kp_id":"994671","imdb_id":"tt5679980","world_art_id":null,"type":"serial","add":"2019-01-07 02:49:56","orig_title":"Suki na hito ga iru koto","year":"2016-07-11","translations":["Любительский (одноголосый закадровый) (GREEN TEA)"],"seasons_count":1,"episodes_count":10,"episodes":10,"update":"2019-01-07 07:58:58","iframe_src":"//83.svetacdn.in/PfJ50H0ZBPg3/tv-series/3833"},{"id":3832,"title":"Мусаси Миямото","kp_id":"838757","imdb_id":"tt3425792","world_art_id":null,"type":"serial","add":"2019-01-07 02:37:25","orig_title":"Miyamoto Musashi","year":"2014-03-15","translations":["Любительский (двухголосый закадровый) (GREEN TEA)"],"seasons_count":1,"episodes_count":2,"episodes":2,"update":"2019-01-07 07:51:57","iframe_src":"//83.svetacdn.in/PfJ50H0ZBPg3/tv-series/3832"},{"id":3826,"title":"Геймеры","kp_id":"571334","imdb_id":"tt4216630","world_art_id":null,"type":"serial","add":"2019-01-06 01:00:58","orig_title":"Geymery","year":"2012-03-12","translations":["Оригинальная дорожка"],"seasons_count":1,"episodes_count":8,"episodes":8,"update":"2019-01-07 22:37:03","iframe_src":"//83.svetacdn.in/PfJ50H0ZBPg3/tv-series/3826"},{"id":3824,"title":"Вторая первая любовь","kp_id":"1138857","imdb_id":null,"world_art_id":null,"type":"serial","add":"2019-01-05 23:59:53","orig_title":"Вторая первая любовь","year":"2019-01-05","translations":["Оригинальная дорожка"],"seasons_count":1,"episodes_count":4,"episodes":4,"update":"2019-01-06 08:41:21","iframe_src":"//83.svetacdn.in/PfJ50H0ZBPg3/tv-series/3824"},{"id":3814,"title":"Рожденная звездой","kp_id":"913016","imdb_id":null,"world_art_id":null,"type":"serial","add":"2019-01-03 13:04:30","orig_title":"Рожденная звездой","year":"2015-10-12","translations":["Оригинальная дорожка"],"seasons_count":1,"episodes_count":12,"episodes":12,"update":"2019-01-04 09:38:03","iframe_src":"//83.svetacdn.in/PfJ50H0ZBPg3/tv-series/3814"},{"id":3810,"title":"Хван Джин-и","kp_id":"573976","imdb_id":"tt2319856","world_art_id":null,"type":"serial","add":"2019-01-02 19:44:21","orig_title":"Hwang Jin Yi","year":"2006-10-11","translations":["Любительский (одноголосый закадровый) (GREEN TEA)"],"seasons_count":1,"episodes_count":24,"episodes":24,"update":"2019-01-04 07:24:10","iframe_src":"//83.svetacdn.in/PfJ50H0ZBPg3/tv-series/3810"},{"id":3809,"title":"Ноль","kp_id":"1112825","imdb_id":null,"world_art_id":null,"type":"serial","add":"2019-01-01 15:45:13","orig_title":"Ноль","year":"2018-12-22","translations":["Оригинальная дорожка"],"seasons_count":1,"episodes_count":2,"episodes":2,"update":"2019-01-03 11:39:24","iframe_src":"//83.svetacdn.in/PfJ50H0ZBPg3/tv-series/3809"},{"id":3808,"title":"Счастливый гороскоп: Инструкция по применению","kp_id":"731960","imdb_id":"tt2585230","world_art_id":null,"type":"serial","add":"2019-01-01 15:39:23","orig_title":"Ilnyeone yeoldoo namja","year":"2012-02-15","translations":["Любительский (многоголосый закадровый) (STEPonee)"],"seasons_count":1,"episodes_count":16,"episodes":16,"update":"2019-01-07 13:54:40","iframe_src":"//83.svetacdn.in/PfJ50H0ZBPg3/tv-series/3808"},{"id":3807,"title":"Толстый Тони и компания","kp_id":"820524","imdb_id":"tt3457530","world_art_id":null,"type":"serial","add":"2019-01-01 15:33:39","orig_title":"Fat Tony & Co","year":"2014-02-23","translations":["Профессиональный (двухголосый закадровый) (ViruseProject)"],"seasons_count":1,"episodes_count":9,"episodes":9,"update":"2019-01-03 12:58:01","iframe_src":"//83.svetacdn.in/PfJ50H0ZBPg3/tv-series/3807"},{"id":3797,"title":"Арне Даль: Око небесное","kp_id":"954078","imdb_id":"tt4548050","world_art_id":null,"type":"serial","add":"2018-12-30 13:50:17","orig_title":"Arne Dahl: Himmelsöga","year":"2015-04-12","translations":["Профессиональный (многоголосый закадровый) (ShowJet)"],"seasons_count":1,"episodes_count":2,"episodes":2,"update":"2019-01-07 14:05:41","iframe_src":"//83.svetacdn.in/PfJ50H0ZBPg3/tv-series/3797"},{"id":3796,"title":"Арне Даль: Толчки","kp_id":"954080","imdb_id":"tt4514896","world_art_id":null,"type":"serial","add":"2018-12-30 13:45:33","orig_title":"Arne Dahl: Efterskalv","year":"2015-03-29","translations":["Профессиональный (многоголосый закадровый) (ShowJet)"],"seasons_count":1,"episodes_count":2,"episodes":2,"update":"2019-01-07 14:03:04","iframe_src":"//83.svetacdn.in/PfJ50H0ZBPg3/tv-series/3796"},{"id":3795,"title":"Арне Даль: Скрытые числа","kp_id":"954082","imdb_id":"tt4473482","world_art_id":null,"type":"serial","add":"2018-12-30 13:42:30","orig_title":"Arne Dahl: Mörkertal","year":"2015-03-15","translations":["Профессиональный (многоголосый закадровый) (ShowJet)"],"seasons_count":1,"episodes_count":2,"episodes":2,"update":"2019-01-07 14:01:07","iframe_src":"//83.svetacdn.in/PfJ50H0ZBPg3/tv-series/3795"},{"id":3794,"title":"Арне Даль: Реквием","kp_id":"954085","imdb_id":"tt4428744","world_art_id":null,"type":"serial","add":"2018-12-30 13:39:23","orig_title":"Arne Dahl: Dödsmässa","year":"2015-03-01","translations":["Профессиональный (многоголосый закадровый) (ShowJet)"],"seasons_count":1,"episodes_count":2,"episodes":2,"update":"2019-01-07 13:59:01","iframe_src":"//83.svetacdn.in/PfJ50H0ZBPg3/tv-series/3794"},{"id":3793,"title":"Арне Даль: Сон в летнюю ночь","kp_id":"954086","imdb_id":"tt4396192","world_art_id":null,"type":"serial","add":"2018-12-30 13:35:05","orig_title":"Arne Dahl: En midsommarnattsdröm","year":"2015-02-15","translations":["Профессиональный (многоголосый закадровый) (ShowJet)"],"seasons_count":1,"episodes_count":2,"episodes":2,"update":"2019-01-07 13:56:59","iframe_src":"//83.svetacdn.in/PfJ50H0ZBPg3/tv-series/3793"},{"id":3546,"title":"Листмейстер","kp_id":"972793","imdb_id":"tt5602660","world_art_id":null,"type":"serial","add":"2018-11-20 10:18:35","orig_title":"Peiji Teoneo","year":"2016-03-26","translations":["Любительский (двухголосый закадровый) (SoftBox)","Любительский (одноголосый закадровый) (GREEN TEA)"],"seasons_count":1,"episodes_count":3,"episodes":3,"update":"2019-01-07 08:00:07","iframe_src":"//83.svetacdn.in/PfJ50H0ZBPg3/tv-series/3546"},{"id":3534,"title":"Сказка о керёнской фее","kp_id":"1112724","imdb_id":"tt8523030","world_art_id":null,"type":"serial","add":"2018-11-19 11:21:13","orig_title":"Mama Fairy and the Woodcutter","year":"2018-11-05","translations":["Любительский (многоголосый закадровый) (ColdFilm)","Любительский (двухголосый закадровый) (SoftBox)"],"seasons_count":1,"episodes_count":16,"episodes":16,"update":"2019-01-04 07:14:50","iframe_src":"//83.svetacdn.in/PfJ50H0ZBPg3/tv-series/3534"},{"id":19097,"title":"Белый парень Рик","kp_id":"1030157","imdb_id":"tt4537896","world_art_id":null,"type":"movie","add":"2018-09-20 22:40:31","orig_title":"White Boy Rick","year":"2018-08-31","translations":["Полное дублирование","Профессиональный (многоголосый закадровый) (HDrezka Studio)","Original (English)","Профессиональный (многоголосый закадровый) (HDrezka Studio)"],"quality":"bd","translation":"Полное дублирование","update":"2020-11-03 12:27:30","iframe_src":"//83.svetacdn.in/PfJ50H0ZBPg3/movie/19097"},{"id":14139,"title":"Гуси-лебеди","kp_id":"258001","imdb_id":"tt1070792","world_art_id":null,"type":"movie","add":"2017-10-29 11:28:39","orig_title":"Gusi-lebedi","year":"1949-01-01","translations":["Оригинальная дорожка"],"quality":"bd","translation":"Оригинальная дорожка","update":"2020-11-03 12:23:34","iframe_src":"//83.svetacdn.in/PfJ50H0ZBPg3/movie/14139"},{"id":1412,"title":"Миднайт, Техас","kp_id":"964024","imdb_id":"tt5464086","world_art_id":null,"type":"serial","add":"2017-07-21 19:03:41","orig_title":"Midnight, Texas","year":"2017-07-24","translations":["Профессиональный (многоголосый закадровый) (LostFilm)"],"seasons_count":2,"episodes_count":19,"episodes":9,"update":"2019-01-02 15:09:32","iframe_src":"//83.svetacdn.in/PfJ50H0ZBPg3/tv-series/1412"},{"id":9657,"title":"Кокон: Bозвращение","kp_id":"18468","imdb_id":"tt0094890","world_art_id":null,"type":"movie","add":"2017-02-13 11:02:45","orig_title":"Cocoon: The Return","year":"1988-11-23","translations":["Профессиональный (многоголосый закадровый)","Авторский (одноголосый закадровый) (Живов Юрий)","Original (English)","Профессиональный (двухголосый закадровый)","Профессиональный (двухголосый закадровый) (Первый канал | ОРТ)","Профессиональный (двухголосый закадровый) (Премьер Видео Фильм)"],"quality":"webdl","translation":"Профессиональный (многоголосый закадровый)","update":"2020-11-03 08:55:20","iframe_src":"//83.svetacdn.in/PfJ50H0ZBPg3/movie/9657"},{"id":7152,"title":"Черный орел","kp_id":"28132","imdb_id":"tt0094750","world_art_id":null,"type":"movie","add":"2016-11-08 05:33:32","orig_title":"Black Eagle","year":"1988-09-09","translations":["Профессиональный (многоголосый закадровый)","Авторский (одноголосый закадровый) (Гаврилов Андрей)","Авторский (одноголосый закадровый) (Махонько Виктор)","Авторский (одноголосый закадровый) (Сербин Юрий)","Original (English)","Профессиональный (двухголосый закадровый) (РТР | Россия)","Профессиональный (многоголосый закадровый) (СТС)"],"quality":"bd","translation":"Профессиональный (многоголосый закадровый)","update":"2020-11-03 09:03:39","iframe_src":"//83.svetacdn.in/PfJ50H0ZBPg3/movie/7152"},{"id":7133,"title":"Призрак и Тьма","kp_id":"5815","imdb_id":"tt0116409","world_art_id":null,"type":"movie","add":"2016-11-07 14:00:00","orig_title":"The Ghost and the Darkness","year":"1996-10-11","translations":["Профессиональный (многоголосый закадровый)","Авторский (одноголосый закадровый) (Гаврилов Андрей)","Авторский (одноголосый закадровый) (Горчаков Василий)","Авторский (одноголосый закадровый) (Живов Юрий)","Original (English)","Профессиональный (двухголосый закадровый) (Lazer Video)","Профессиональный (двухголосый закадровый) (Первый канал | ОРТ)","Профессиональный (многоголосый закадровый)"],"quality":"bd","translation":"Профессиональный (многоголосый закадровый)","update":"2020-11-03 08:10:40","iframe_src":"//83.svetacdn.in/PfJ50H0ZBPg3/movie/7133"},{"id":5162,"title":"Сердцеедки","kp_id":"692","imdb_id":"tt0125022","world_art_id":null,"type":"movie","add":"2016-09-08 15:07:50","orig_title":"Heartbreakers","year":"2001-03-23","translations":["Полное дублирование","Авторский (одноголосый закадровый) (Сербин Юрий)","Авторский (одноголосый закадровый) (Живов Юрий)","Полное дублирование","Original (English)","Любительский (одноголосый закадровый)","Профессиональный (многоголосый закадровый)","Профессиональный (многоголосый закадровый) (СТС)","Профессиональный (многоголосый закадровый) (РТР | Россия)"],"quality":"bd","translation":"Полное дублирование","update":"2020-11-03 08:31:44","iframe_src":"//83.svetacdn.in/PfJ50H0ZBPg3/movie/5162"},{"id":4392,"title":"Присяжная","kp_id":"16869","imdb_id":"tt0116731","world_art_id":null,"type":"movie","add":"2016-08-11 14:14:17","orig_title":"The Juror","year":"1996-01-29","translations":["Полное дублирование","Авторский (одноголосый закадровый) (Карцев Пётр)","Авторский (одноголосый закадровый) (Визгунов Сергей)","Полное дублирование","Original (English)","Профессиональный (многоголосый закадровый)","Профессиональный (многоголосый закадровый) (СТС)","Профессиональный (многоголосый закадровый) (Видеосервис)"],"quality":"webdl","translation":"Полное дублирование","update":"2020-11-03 08:19:06","iframe_src":"//83.svetacdn.in/PfJ50H0ZBPg3/movie/4392"},{"id":191,"title":"Нация Z","kp_id":"841371","imdb_id":"tt3843168","world_art_id":null,"type":"serial","add":"2016-06-15 13:51:21","orig_title":"Z Nation","year":"2014-09-12","translations":["Профессиональный (многоголосый закадровый) (LostFilm)","Профессиональный (двухголосый закадровый) (LostFilm)"],"seasons_count":5,"episodes_count":68,"episodes":13,"update":"2019-01-02 15:08:06","iframe_src":"//83.svetacdn.in/PfJ50H0ZBPg3/tv-series/191"}],"current_page":385,"first_page_url":"https://videocdn.tv/api/short?limit=100&api_token=RgFQdUIR2dRmwv8iYa5SnFNgnw3vpjKj&cache3385=3385&page=1","from":38401,"last_page":622,"last_page_url":"https://videocdn.tv/api/short?limit=100&api_token=RgFQdUIR2dRmwv8iYa5SnFNgnw3vpjKj&cache3385=3385&page=622","next_page_url":"https://videocdn.tv/api/short?limit=100&api_token=RgFQdUIR2dRmwv8iYa5SnFNgnw3vpjKj&cache3385=3385&page=386","path":"https://videocdn.tv/api/short","per_page":100,"prev_page_url":"https://videocdn.tv/api/short?limit=100&api_token=RgFQdUIR2dRmwv8iYa5SnFNgnw3vpjKj&cache3385=3385&page=384","to":38440,"total":62197}