{"result":true,"data":[{"id":18836,"title":"Наваждение","kp_id":"1044028","imdb_id":"tt6760836","world_art_id":null,"type":"movie","add":"2018-09-07 00:27:03","orig_title":"Wang xiang zheng","year":"2016-05-06","translations":["Любительский (многоголосый закадровый) (Колобок)"],"quality":"hdrip","translation":"Любительский (многоголосый закадровый) (Колобок)","update":"2018-09-07 06:30:45","iframe_src":"//24213.svetacdn.in/si4jsFRrtgrT/movie/18836"},{"id":18835,"title":"Кровавая гончая","kp_id":"1142662","imdb_id":"tt7123882","world_art_id":null,"type":"movie","add":"2018-09-07 00:21:14","orig_title":"Xue lang quan","year":"2017-04-21","translations":["Любительский (многоголосый закадровый) (Колобок)"],"quality":"webdl","translation":"Любительский (многоголосый закадровый) (Колобок)","update":"2018-09-07 06:28:57","iframe_src":"//24213.svetacdn.in/si4jsFRrtgrT/movie/18835"},{"id":18834,"title":"Заклятие Велеса","kp_id":"929749","imdb_id":null,"world_art_id":null,"type":"movie","add":"2018-09-07 00:14:20","orig_title":"Заклятие Велеса","year":"2015-01-01","translations":["Оригинальная дорожка"],"quality":"webdl","translation":"Оригинальная дорожка","update":"2018-09-07 06:41:19","iframe_src":"//24213.svetacdn.in/si4jsFRrtgrT/movie/18834"},{"id":18831,"title":"Тед - покажи мне любовь","kp_id":"1128308","imdb_id":"tt6204018","world_art_id":null,"type":"movie","add":"2018-09-07 00:05:36","orig_title":"Ted - För kärlekens skull","year":"2018-01-03","translations":["Любительский (многоголосый закадровый) (AlphaProject)"],"quality":"bd","translation":"Любительский (многоголосый закадровый) (AlphaProject)","update":"2018-09-07 06:52:50","iframe_src":"//24213.svetacdn.in/si4jsFRrtgrT/movie/18831"},{"id":18829,"title":"Убийство в Экс-ан-Провансе","kp_id":null,"imdb_id":"tt6620270","world_art_id":null,"type":"movie","add":"2018-09-06 23:53:25","orig_title":"Meurtres à Aix-en-Provence","year":"2017-05-13","translations":["Профессиональный (многоголосый закадровый) (GreenРай Studio)"],"quality":"hdtv","translation":"Профессиональный (многоголосый закадровый) (GreenРай Studio)","update":"2018-09-07 07:13:12","iframe_src":"//24213.svetacdn.in/si4jsFRrtgrT/movie/18829"},{"id":18825,"title":"Месть за школьный бал","kp_id":"1066163","imdb_id":"tt7335892","world_art_id":null,"type":"movie","add":"2018-09-06 23:27:20","orig_title":"Dying for the Crown","year":"2018-08-10","translations":["Любительский (многоголосый закадровый) (Синема УС)"],"quality":"hdtv","translation":"Любительский (многоголосый закадровый) (Синема УС)","update":"2018-09-07 07:25:57","iframe_src":"//24213.svetacdn.in/si4jsFRrtgrT/movie/18825"},{"id":18824,"title":"Её худший кошмар","kp_id":"1101113","imdb_id":"tt7610858","world_art_id":null,"type":"movie","add":"2018-09-06 23:25:38","orig_title":"Her Worst Nightmare","year":"2018-08-26","translations":["Любительский (многоголосый закадровый) (Синема УС)"],"quality":"hdtv","translation":"Любительский (многоголосый закадровый) (Синема УС)","update":"2018-09-07 07:27:27","iframe_src":"//24213.svetacdn.in/si4jsFRrtgrT/movie/18824"},{"id":18823,"title":"Хасан Минаж - Вернулся домой на коне","kp_id":"1045625","imdb_id":"tt6900644","world_art_id":null,"type":"movie","add":"2018-09-06 23:22:07","orig_title":"Hasan Minhaj: Homecoming King","year":"2017-05-23","translations":["Профессиональный (многоголосый закадровый) (GreenРай Studio)"],"quality":"webdl","translation":"Профессиональный (многоголосый закадровый) (GreenРай Studio)","update":"2018-09-07 07:29:44","iframe_src":"//24213.svetacdn.in/si4jsFRrtgrT/movie/18823"},{"id":18822,"title":"Фасады","kp_id":"1061718","imdb_id":"tt7402534","world_art_id":null,"type":"movie","add":"2018-09-06 23:18:21","orig_title":"Facades","year":"2017-12-13","translations":["Любительский (многоголосый закадровый) (Синема УС)"],"quality":"dvdrip","translation":"Любительский (многоголосый закадровый) (Синема УС)","update":"2018-09-07 07:30:58","iframe_src":"//24213.svetacdn.in/si4jsFRrtgrT/movie/18822"},{"id":18820,"title":"Алекс и мастер на все руки","kp_id":null,"imdb_id":"tt7356144","world_art_id":null,"type":"movie","add":"2018-09-06 23:12:17","orig_title":"Alex and the Handyman","year":"2017-06-01","translations":["Профессиональный (многоголосый закадровый) (GreenРай Studio)"],"quality":"webdl","translation":"Профессиональный (многоголосый закадровый) (GreenРай Studio)","update":"2018-09-07 07:02:05","iframe_src":"//24213.svetacdn.in/si4jsFRrtgrT/movie/18820"},{"id":18819,"title":"Слепая Вайша","kp_id":"988176","imdb_id":"tt5559726","world_art_id":null,"type":"movie","add":"2018-09-06 08:34:12","orig_title":"Blind Vaysha","year":"2016-02-15","translations":["Профессиональный (одноголосый закадровый)"],"quality":"webdl","translation":"Профессиональный (одноголосый закадровый)","update":"2018-09-06 22:04:19","iframe_src":"//24213.svetacdn.in/si4jsFRrtgrT/movie/18819"},{"id":18783,"title":"Космические охотники","kp_id":"33583","imdb_id":"tt0086345","world_art_id":null,"type":"movie","add":"2018-09-05 12:59:39","orig_title":"Space Raiders","year":"1984-04-06","translations":["Авторский (одноголосый закадровый) (Котов Вячеслав)"],"quality":"bd","translation":"Авторский (одноголосый закадровый) (Котов Вячеслав)","update":"2018-09-06 05:46:17","iframe_src":"//24213.svetacdn.in/si4jsFRrtgrT/movie/18783"},{"id":18781,"title":"Пульс","kp_id":"5941","imdb_id":"tt0095924","world_art_id":null,"type":"movie","add":"2018-09-05 12:57:32","orig_title":"Pulse","year":"1988-03-04","translations":["Авторский (одноголосый закадровый) (Кузнецов Сергей)"],"quality":"bd","translation":"Авторский (одноголосый закадровый) (Кузнецов Сергей)","update":"2018-09-06 05:44:13","iframe_src":"//24213.svetacdn.in/si4jsFRrtgrT/movie/18781"},{"id":18390,"title":"Зверь","kp_id":"996062","imdb_id":"tt5628302","world_art_id":null,"type":"movie","add":"2018-08-19 20:45:05","orig_title":"Beast","year":"2017-09-09","translations":["Любительский (двухголосый закадровый) (HiWayGrope)","Профессиональный (многоголосый закадровый)"],"quality":"bd","translation":"Любительский (двухголосый закадровый) (HiWayGrope)","update":"2018-09-07 06:37:48","iframe_src":"//24213.svetacdn.in/si4jsFRrtgrT/movie/18390"},{"id":17961,"title":"Глушитель","kp_id":"1124452","imdb_id":"tt5867226","world_art_id":null,"type":"movie","add":"2018-07-29 12:35:09","orig_title":"Silencer","year":"2018-05-06","translations":["Любительский (многоголосый закадровый) (Синема УС)","Любительский (двухголосый закадровый) (HiWayGrope)"],"quality":"webdl","translation":"Любительский (многоголосый закадровый) (Синема УС)","update":"2018-09-07 07:06:27","iframe_src":"//24213.svetacdn.in/si4jsFRrtgrT/movie/17961"},{"id":17892,"title":"Смарадное дыхание: Легенда о Жопороте","kp_id":"928182","imdb_id":"tt4924632","world_art_id":null,"type":"movie","add":"2018-07-25 23:23:59","orig_title":"Hellitosis: The Legend of Stankmouth","year":"2017-10-14","translations":["Любительский (многоголосый закадровый) (Колобок)","Любительский (одноголосый закадровый) (Хихикающий доктор)"],"quality":"webdl","translation":"Любительский (многоголосый закадровый) (Колобок)","update":"2018-09-07 07:28:31","iframe_src":"//24213.svetacdn.in/si4jsFRrtgrT/movie/17892"},{"id":17221,"title":"Убийства в Сарла","kp_id":null,"imdb_id":"tt7530578","world_art_id":null,"type":"movie","add":"2018-06-17 22:23:40","orig_title":"Meurtres à Sarlat","year":"2017-11-18","translations":["Любительский (многоголосый закадровый) (Синема УС)","Профессиональный (многоголосый закадровый) (GreenРай Studio)"],"quality":"hdtv","translation":"Любительский (многоголосый закадровый) (Синема УС)","update":"2018-09-07 07:12:18","iframe_src":"//24213.svetacdn.in/si4jsFRrtgrT/movie/17221"},{"id":12860,"title":"Тик-так","kp_id":"1001376","imdb_id":"tt6033150","world_art_id":null,"type":"movie","add":"2017-08-08 22:14:00","orig_title":"Jing tian da ni zhuan","year":"2016-07-15","translations":["Любительский (многоголосый закадровый) (Синема УС)","Любительский (многоголосый закадровый) (Колобок)"],"quality":"webdl","translation":"Любительский (многоголосый закадровый) (Синема УС)","update":"2018-09-07 06:19:46","iframe_src":"//24213.svetacdn.in/si4jsFRrtgrT/movie/12860"},{"id":9323,"title":"Сокрытый ужас","kp_id":"36006","imdb_id":"tt0110410","world_art_id":null,"type":"movie","add":"2017-01-31 06:47:13","orig_title":"Lurking Fear","year":"1994-07-27","translations":["Любительский (одноголосый закадровый)"],"quality":"bd","translation":"Любительский (одноголосый закадровый)","update":"2018-09-06 05:47:37","iframe_src":"//24213.svetacdn.in/si4jsFRrtgrT/movie/9323"},{"id":5581,"title":"Уцелевшая","kp_id":"804648","imdb_id":"tt3247714","world_art_id":null,"type":"movie","add":"2016-09-27 11:54:57","orig_title":"Survivor","year":"2015-05-21","translations":["Любительский (многоголосый закадровый)","Любительский (двухголосый закадровый) (ColdFilm)","Любительский (одноголосый закадровый) (Хихикающий доктор)","Полное дублирование"],"quality":"bd","translation":"Любительский (многоголосый закадровый)","update":"2018-09-07 06:59:13","iframe_src":"//24213.svetacdn.in/si4jsFRrtgrT/movie/5581"}],"current_page":2255,"first_page_url":"https://videocdn.tv/api/short?limit=100&api_token=X6EwAUfE5M9xbo7y0Bp0aPf3uXxG2KLL&cache32255=32255&page=1","from":225401,"last_page":726,"last_page_url":"https://videocdn.tv/api/short?limit=100&api_token=X6EwAUfE5M9xbo7y0Bp0aPf3uXxG2KLL&cache32255=32255&page=726","next_page_url":null,"path":"https://videocdn.tv/api/short","per_page":100,"prev_page_url":"https://videocdn.tv/api/short?limit=100&api_token=X6EwAUfE5M9xbo7y0Bp0aPf3uXxG2KLL&cache32255=32255&page=2254","to":225420,"total":72538}