{"result":true,"data":[{"id":7269,"title":"Худшие друзья","kp_id":"768017","imdb_id":"tt2951834","world_art_id":null,"type":"movie","add":"2016-11-09 16:28:35","orig_title":"Worst Friends","year":"2014-11-04","translations":["Профессиональный (многоголосый закадровый)"],"quality":"webdl","translation":"Профессиональный (многоголосый закадровый)","update":"2016-11-10 14:38:18","iframe_src":"//24213.svetacdn.in/si4jsFRrtgrT/movie/7269"},{"id":7268,"title":"Аллея славы","kp_id":"714961","imdb_id":"tt2487028","world_art_id":null,"type":"movie","add":"2016-11-09 16:27:11","orig_title":"Walk of Fame","year":"2016-06-10","translations":["Профессиональный (многоголосый закадровый)"],"quality":"webdl","translation":"Профессиональный (многоголосый закадровый)","update":"2016-11-10 14:36:08","iframe_src":"//24213.svetacdn.in/si4jsFRrtgrT/movie/7268"},{"id":7262,"title":"Рождественская мелодия","kp_id":"936625","imdb_id":"tt4587740","world_art_id":null,"type":"movie","add":"2016-11-09 16:17:58","orig_title":"A Christmas Melody","year":"2015-12-18","translations":["Профессиональный (многоголосый закадровый) (iTunes)"],"quality":"webdl","translation":"Профессиональный (многоголосый закадровый) (iTunes)","update":"2016-11-10 14:32:10","iframe_src":"//24213.svetacdn.in/si4jsFRrtgrT/movie/7262"},{"id":7250,"title":"Сдохни, Джон Такер","kp_id":"171869","imdb_id":"tt0455967","world_art_id":null,"type":"movie","add":"2016-11-09 15:57:59","orig_title":"John Tucker Must Die","year":"2006-07-25","translations":["Полное дублирование"],"quality":"bd","translation":"Полное дублирование","update":"2016-11-10 14:27:04","iframe_src":"//24213.svetacdn.in/si4jsFRrtgrT/movie/7250"},{"id":7247,"title":"Поезд жизни","kp_id":"60305","imdb_id":"tt0170705","world_art_id":null,"type":"movie","add":"2016-11-09 15:53:38","orig_title":"Train de vie","year":"1998-09-05","translations":["Авторский (одноголосый закадровый) (Кузнецов Сергей)"],"quality":"bd","translation":"Авторский (одноголосый закадровый) (Кузнецов Сергей)","update":"2016-11-10 14:26:29","iframe_src":"//24213.svetacdn.in/si4jsFRrtgrT/movie/7247"},{"id":7245,"title":"Преследование","kp_id":"8350","imdb_id":"tt0154506","world_art_id":null,"type":"movie","add":"2016-11-09 15:42:13","orig_title":"Following","year":"1998-09-12","translations":["Авторский (одноголосый закадровый) (Сербин Юрий)"],"quality":"bd","translation":"Авторский (одноголосый закадровый) (Сербин Юрий)","update":"2016-11-10 14:15:15","iframe_src":"//24213.svetacdn.in/si4jsFRrtgrT/movie/7245"},{"id":7243,"title":"Живот","kp_id":"6399","imdb_id":"tt0158493","world_art_id":null,"type":"movie","add":"2016-11-09 15:38:40","orig_title":"Belly","year":"1998-11-04","translations":["Авторский (одноголосый закадровый) (Сербин Юрий)"],"quality":"bd","translation":"Авторский (одноголосый закадровый) (Сербин Юрий)","update":"2016-11-10 20:05:19","iframe_src":"//24213.svetacdn.in/si4jsFRrtgrT/movie/7243"},{"id":7240,"title":"До смерти","kp_id":"259740","imdb_id":"tt0783598","world_art_id":null,"type":"movie","add":"2016-11-09 06:38:30","orig_title":"Until Death","year":"2007-03-17","translations":["Профессиональный (многоголосый закадровый)"],"quality":"bd","translation":"Профессиональный (многоголосый закадровый)","update":"2016-11-10 14:09:06","iframe_src":"//24213.svetacdn.in/si4jsFRrtgrT/movie/7240"},{"id":7239,"title":"Каникулы в Вегасе","kp_id":"4592","imdb_id":"tt0120434","world_art_id":null,"type":"movie","add":"2016-11-09 05:21:31","orig_title":"Vegas Vacation","year":"1997-02-14","translations":["Профессиональный (многоголосый закадровый)"],"quality":"bd","translation":"Профессиональный (многоголосый закадровый)","update":"2016-11-10 14:04:34","iframe_src":"//24213.svetacdn.in/si4jsFRrtgrT/movie/7239"},{"id":7230,"title":"Человек-ракета","kp_id":"7370","imdb_id":"tt0120029","world_art_id":null,"type":"movie","add":"2016-11-09 05:08:16","orig_title":"RocketMan","year":"1997-10-10","translations":["Профессиональный (многоголосый закадровый)"],"quality":"webdl","translation":"Профессиональный (многоголосый закадровый)","update":"2016-11-10 05:40:35","iframe_src":"//24213.svetacdn.in/si4jsFRrtgrT/movie/7230"},{"id":7227,"title":"Кундун","kp_id":"11077","imdb_id":"tt0119485","world_art_id":null,"type":"movie","add":"2016-11-09 05:04:47","orig_title":"Kundun","year":"1997-12-25","translations":["Профессиональный (многоголосый закадровый)"],"quality":"bd","translation":"Профессиональный (многоголосый закадровый)","update":"2016-11-10 05:33:42","iframe_src":"//24213.svetacdn.in/si4jsFRrtgrT/movie/7227"},{"id":7226,"title":"Бессонница","kp_id":"20113","imdb_id":"tt0119375","world_art_id":null,"type":"movie","add":"2016-11-09 05:03:24","orig_title":"Insomnia","year":"1997-03-14","translations":["Профессиональный (многоголосый закадровый)"],"quality":"bd","translation":"Профессиональный (многоголосый закадровый)","update":"2016-11-10 05:32:33","iframe_src":"//24213.svetacdn.in/si4jsFRrtgrT/movie/7226"},{"id":7223,"title":"На рыбалку!","kp_id":"9573","imdb_id":"tt0119214","world_art_id":null,"type":"movie","add":"2016-11-09 04:59:42","orig_title":"Gone Fishin'","year":"1997-05-30","translations":["Профессиональный (многоголосый закадровый)"],"quality":"bd","translation":"Профессиональный (многоголосый закадровый)","update":"2016-11-10 05:26:26","iframe_src":"//24213.svetacdn.in/si4jsFRrtgrT/movie/7223"},{"id":7220,"title":"Зов плоти","kp_id":"21455","imdb_id":"tt0118750","world_art_id":null,"type":"movie","add":"2016-11-09 04:56:17","orig_title":"Booty Call","year":"1997-02-26","translations":["Профессиональный (многоголосый закадровый)"],"quality":"webdl","translation":"Профессиональный (многоголосый закадровый)","update":"2016-11-10 04:56:05","iframe_src":"//24213.svetacdn.in/si4jsFRrtgrT/movie/7220"},{"id":7219,"title":"Ниндзя из Беверли Хиллз","kp_id":"5475","imdb_id":"tt0118708","world_art_id":null,"type":"movie","add":"2016-11-09 04:55:00","orig_title":"Beverly Hills Ninja","year":"1997-01-17","translations":["Профессиональный (многоголосый закадровый)"],"quality":"webdl","translation":"Профессиональный (многоголосый закадровый)","update":"2016-11-10 04:53:30","iframe_src":"//24213.svetacdn.in/si4jsFRrtgrT/movie/7219"},{"id":7218,"title":"Скорбь","kp_id":"11904","imdb_id":"tt0118564","world_art_id":null,"type":"movie","add":"2016-11-09 04:53:22","orig_title":"Affliction","year":"1997-08-28","translations":["Профессиональный (многоголосый закадровый)"],"quality":"webdl","translation":"Профессиональный (многоголосый закадровый)","update":"2016-11-10 04:50:37","iframe_src":"//24213.svetacdn.in/si4jsFRrtgrT/movie/7218"},{"id":7216,"title":"Пища для души","kp_id":"19286","imdb_id":"tt0120169","world_art_id":null,"type":"movie","add":"2016-11-09 04:51:09","orig_title":"Soul Food","year":"1997-08-24","translations":["Профессиональный (двухголосый закадровый)"],"quality":"webdl","translation":"Профессиональный (двухголосый закадровый)","update":"2016-11-10 04:46:14","iframe_src":"//24213.svetacdn.in/si4jsFRrtgrT/movie/7216"},{"id":7215,"title":"Красный угол","kp_id":"5462","imdb_id":"tt0119994","world_art_id":null,"type":"movie","add":"2016-11-09 04:49:53","orig_title":"Red Corner","year":"1997-10-31","translations":["Профессиональный (двухголосый закадровый)"],"quality":"webdl","translation":"Профессиональный (двухголосый закадровый)","update":"2016-11-10 04:44:21","iframe_src":"//24213.svetacdn.in/si4jsFRrtgrT/movie/7215"},{"id":7211,"title":"Джой","kp_id":"18884","imdb_id":"tt0119415","world_art_id":null,"type":"movie","add":"2016-11-08 15:41:02","orig_title":"Joey","year":"1997-12-26","translations":["Профессиональный (двухголосый закадровый)"],"quality":"hdtv","translation":"Профессиональный (двухголосый закадровый)","update":"2016-11-10 04:35:05","iframe_src":"//24213.svetacdn.in/si4jsFRrtgrT/movie/7211"},{"id":7209,"title":"Накал страстей","kp_id":"22177","imdb_id":"tt0119114","world_art_id":null,"type":"movie","add":"2016-11-08 15:37:15","orig_title":"Fever Pitch","year":"1997-04-04","translations":["Профессиональный (двухголосый закадровый)"],"quality":"bd","translation":"Профессиональный (двухголосый закадровый)","update":"2016-11-10 04:30:56","iframe_src":"//24213.svetacdn.in/si4jsFRrtgrT/movie/7209"}],"current_page":2711,"first_page_url":"https://videocdn.tv/api/short?limit=100&api_token=X6EwAUfE5M9xbo7y0Bp0aPf3uXxG2KLL&cache32711=32711&page=1","from":271001,"last_page":727,"last_page_url":"https://videocdn.tv/api/short?limit=100&api_token=X6EwAUfE5M9xbo7y0Bp0aPf3uXxG2KLL&cache32711=32711&page=727","next_page_url":null,"path":"https://videocdn.tv/api/short","per_page":100,"prev_page_url":"https://videocdn.tv/api/short?limit=100&api_token=X6EwAUfE5M9xbo7y0Bp0aPf3uXxG2KLL&cache32711=32711&page=2710","to":271020,"total":72634}