{"result":true,"data":[{"id":20995,"title":"Вкус ночи","kp_id":"542576","imdb_id":"tt1692504","world_art_id":null,"type":"movie","add":"2018-12-24 10:27:34","orig_title":"Wir sind die Nacht","year":"2010-10-14","translations":["Полное дублирование"],"quality":"bd","translation":"Полное дублирование","update":"2018-12-25 08:44:26","iframe_src":"//83.svetacdn.in/PfJ50H0ZBPg3/movie/20995"},{"id":20991,"title":"Данте 01","kp_id":"262513","imdb_id":"tt0487928","world_art_id":null,"type":"movie","add":"2018-12-24 10:01:59","orig_title":"Dante 01","year":"2008-01-02","translations":["Профессиональный (двухголосый закадровый)"],"quality":"dvdrip","translation":"Профессиональный (двухголосый закадровый)","update":"2018-12-25 08:34:12","iframe_src":"//83.svetacdn.in/PfJ50H0ZBPg3/movie/20991"},{"id":20990,"title":"Виват, гардемарины!","kp_id":"45789","imdb_id":"tt0103218","world_art_id":null,"type":"movie","add":"2018-12-24 09:55:38","orig_title":"Vivat, gardemariny!","year":"1991-08-31","translations":["Оригинальная дорожка"],"quality":"dvdrip","translation":"Оригинальная дорожка","update":"2018-12-25 08:31:42","iframe_src":"//83.svetacdn.in/PfJ50H0ZBPg3/movie/20990"},{"id":20718,"title":"Пыль","kp_id":"172529","imdb_id":"tt0362548","world_art_id":null,"type":"movie","add":"2018-12-13 14:08:35","orig_title":"Dhool","year":"2003-01-01","translations":["Профессиональный (многоголосый закадровый) (Red Media)"],"quality":"webdl","translation":"Профессиональный (многоголосый закадровый) (Red Media)","update":"2018-12-25 08:24:14","iframe_src":"//83.svetacdn.in/PfJ50H0ZBPg3/movie/20718"},{"id":20717,"title":"Дорогами любви","kp_id":"38888","imdb_id":"tt0346723","world_art_id":null,"type":"movie","add":"2018-12-13 14:06:44","orig_title":"Chalte Chalte","year":"2003-06-12","translations":["Профессиональный (многоголосый закадровый) (Формат AB)"],"quality":"webdl","translation":"Профессиональный (многоголосый закадровый) (Формат AB)","update":"2018-12-25 08:23:18","iframe_src":"//83.svetacdn.in/PfJ50H0ZBPg3/movie/20717"},{"id":20517,"title":"Такова жизнь!","kp_id":"4693","imdb_id":"tt0092079","world_art_id":null,"type":"movie","add":"2018-12-05 15:45:51","orig_title":"That's Life!","year":"1986-09-10","translations":["Профессиональный (двухголосый закадровый) (НТВ)","Original (English)"],"quality":"webdl","translation":"Профессиональный (двухголосый закадровый) (НТВ)","update":"2018-12-25 13:19:03","iframe_src":"//83.svetacdn.in/PfJ50H0ZBPg3/movie/20517"},{"id":20516,"title":"Черви","kp_id":"8857","imdb_id":"tt0075261","world_art_id":null,"type":"movie","add":"2018-12-05 15:44:23","orig_title":"Squirm","year":"1976-07-30","translations":["Профессиональный (двухголосый закадровый) (НТВ)","Original (English)"],"quality":"bd","translation":"Профессиональный (двухголосый закадровый) (НТВ)","update":"2018-12-25 13:14:22","iframe_src":"//83.svetacdn.in/PfJ50H0ZBPg3/movie/20516"},{"id":20515,"title":"Местные ребята","kp_id":"5125","imdb_id":"tt0293357","world_art_id":null,"type":"movie","add":"2018-12-05 15:43:28","orig_title":"Local Boys","year":"2002-02-23","translations":["Любительский (одноголосый закадровый)","Original (English)"],"quality":"webdl","translation":"Любительский (одноголосый закадровый)","update":"2018-12-25 13:02:02","iframe_src":"//83.svetacdn.in/PfJ50H0ZBPg3/movie/20515"},{"id":20514,"title":"Короткая встреча","kp_id":"7730","imdb_id":"tt0037558","world_art_id":null,"type":"movie","add":"2018-12-05 15:42:14","orig_title":"Brief Encounter","year":"1945-11-19","translations":["Любительский (одноголосый закадровый)","Original (English)"],"quality":"bd","translation":"Любительский (одноголосый закадровый)","update":"2018-12-25 13:01:18","iframe_src":"//83.svetacdn.in/PfJ50H0ZBPg3/movie/20514"},{"id":20513,"title":"Древнейшая профессия","kp_id":"28476","imdb_id":"tt0088195","world_art_id":null,"type":"movie","add":"2018-12-05 15:41:14","orig_title":"Streetwalkin'","year":"1985-05-17","translations":["Авторский (одноголосый закадровый) (Володарский Леонид)","Original (English)"],"quality":"webdl","translation":"Авторский (одноголосый закадровый) (Володарский Леонид)","update":"2018-12-25 12:55:45","iframe_src":"//83.svetacdn.in/PfJ50H0ZBPg3/movie/20513"},{"id":20512,"title":"Убойная вечеринка","kp_id":"35908","imdb_id":"tt0091338","world_art_id":null,"type":"movie","add":"2018-12-05 15:40:13","orig_title":"Killer Party","year":"1986-05-09","translations":["Авторский (одноголосый закадровый) (Дольский Андрей)","Original (English)"],"quality":"webdl","translation":"Авторский (одноголосый закадровый) (Дольский Андрей)","update":"2018-12-25 12:54:45","iframe_src":"//83.svetacdn.in/PfJ50H0ZBPg3/movie/20512"},{"id":20511,"title":"Рок-убийца","kp_id":"35833","imdb_id":"tt0087759","world_art_id":null,"type":"movie","add":"2018-12-05 15:38:52","orig_title":"Murderock - Uccide a passo di danza","year":"1984-04-20","translations":["Авторский (одноголосый закадровый) (Штейн Владимир)","Original (English)"],"quality":"bd","translation":"Авторский (одноголосый закадровый) (Штейн Владимир)","update":"2018-12-25 12:53:53","iframe_src":"//83.svetacdn.in/PfJ50H0ZBPg3/movie/20511"},{"id":20360,"title":"Отель «Сплендид»","kp_id":"14855","imdb_id":"tt0177845","world_art_id":null,"type":"movie","add":"2018-11-29 08:45:10","orig_title":"Hotel Splendide","year":"2000-07-07","translations":["Профессиональный (двухголосый закадровый)","Original (English)"],"quality":"webdl","translation":"Профессиональный (двухголосый закадровый)","update":"2018-12-25 13:17:40","iframe_src":"//83.svetacdn.in/PfJ50H0ZBPg3/movie/20360"},{"id":20357,"title":"Дракула 1972","kp_id":"5684","imdb_id":"tt0068505","world_art_id":null,"type":"movie","add":"2018-11-29 08:41:26","orig_title":"Dracula A.D. 1972","year":"1972-06-26","translations":["Профессиональный (двухголосый закадровый)","Original (English)"],"quality":"bd","translation":"Профессиональный (двухголосый закадровый)","update":"2018-12-25 13:13:30","iframe_src":"//83.svetacdn.in/PfJ50H0ZBPg3/movie/20357"},{"id":20354,"title":"Пропавший без вести","kp_id":"7706","imdb_id":"tt0084335","world_art_id":null,"type":"movie","add":"2018-11-29 08:35:50","orig_title":"Missing","year":"1982-02-12","translations":["Полное дублирование","Original (English)"],"quality":"bd","translation":"Полное дублирование","update":"2018-12-25 12:56:27","iframe_src":"//83.svetacdn.in/PfJ50H0ZBPg3/movie/20354"},{"id":20353,"title":"Бумеранг!","kp_id":"10055","imdb_id":"tt0039208","world_art_id":null,"type":"movie","add":"2018-11-29 08:34:16","orig_title":"Boomerang!","year":"1947-01-26","translations":["Авторский (одноголосый закадровый) (Алексеев Антон)","Original (English)"],"quality":"bd","translation":"Авторский (одноголосый закадровый) (Алексеев Антон)","update":"2018-12-25 12:53:13","iframe_src":"//83.svetacdn.in/PfJ50H0ZBPg3/movie/20353"},{"id":6578,"title":"Доктор Дулиттл 2","kp_id":"2351","imdb_id":"tt0240462","world_art_id":null,"type":"movie","add":"2016-10-24 04:53:28","orig_title":"Dr. Dolittle 2","year":"2001-06-19","translations":["Полное дублирование","Original (English)"],"quality":"webdl","translation":"Полное дублирование","update":"2018-12-25 12:57:30","iframe_src":"//83.svetacdn.in/PfJ50H0ZBPg3/movie/6578"},{"id":5691,"title":"Свет вокруг","kp_id":"78261","imdb_id":"tt0404030","world_art_id":null,"type":"movie","add":"2016-09-28 19:16:33","orig_title":"Everything Is Illuminated","year":"2005-09-03","translations":["Original (English)","Профессиональный (многоголосый закадровый)"],"quality":"webdl","translation":"Original (English)","update":"2018-12-25 08:48:18","iframe_src":"//83.svetacdn.in/PfJ50H0ZBPg3/movie/5691"},{"id":3112,"title":"Заплати другому","kp_id":"782","imdb_id":"tt0223897","world_art_id":null,"type":"movie","add":"2016-06-13 18:23:58","orig_title":"Pay It Forward","year":"2000-10-12","translations":["Полное дублирование","Original (English)"],"quality":"webdl","translation":"Полное дублирование","update":"2018-12-25 12:58:55","iframe_src":"//83.svetacdn.in/PfJ50H0ZBPg3/movie/3112"},{"id":1062,"title":"Танго втроем","kp_id":"13675","imdb_id":"tt0144640","world_art_id":null,"type":"movie","add":"2016-04-13 19:27:14","orig_title":"Three to Tango","year":"1999-10-19","translations":["Полное дублирование","Original (English)"],"quality":"webdl","translation":"Полное дублирование","update":"2018-12-25 13:00:08","iframe_src":"//83.svetacdn.in/PfJ50H0ZBPg3/movie/1062"}],"current_page":1572,"first_page_url":"https://videocdn.tv/api/short?limit=100&api_token=RgFQdUIR2dRmwv8iYa5SnFNgnw3vpjKj&cache31572=31572&page=1","from":157101,"last_page":608,"last_page_url":"https://videocdn.tv/api/short?limit=100&api_token=RgFQdUIR2dRmwv8iYa5SnFNgnw3vpjKj&cache31572=31572&page=608","next_page_url":null,"path":"https://videocdn.tv/api/short","per_page":100,"prev_page_url":"https://videocdn.tv/api/short?limit=100&api_token=RgFQdUIR2dRmwv8iYa5SnFNgnw3vpjKj&cache31572=31572&page=1571","to":157120,"total":60756}