{"result":true,"data":[{"id":48013,"title":"Мёд и вино","kp_id":"1331849","imdb_id":"tt9193890","world_art_id":null,"type":"movie","add":"2021-02-17 08:04:08","orig_title":"Honey and Wine","year":"2020-12-24","translations":["Любительский (многоголосый закадровый) (Синема УС)"],"quality":"webdl","translation":"Любительский (многоголосый закадровый) (Синема УС)","update":"2021-02-17 12:23:04","iframe_src":"//7043.svetacdn.in/IAF0wWTdNYZm/movie/48013"},{"id":48012,"title":"Солнечные дети","kp_id":"1346992","imdb_id":"tt11767722","world_art_id":null,"type":"movie","add":"2021-02-17 08:02:40","orig_title":"Khorshid","year":"2020-02-01","translations":["Любительский (многоголосый закадровый) (Синема УС)"],"quality":"webdl","translation":"Любительский (многоголосый закадровый) (Синема УС)","update":"2021-02-17 12:22:31","iframe_src":"//7043.svetacdn.in/IAF0wWTdNYZm/movie/48012"},{"id":48011,"title":"Кроличья лапа","kp_id":"1445245","imdb_id":null,"world_art_id":null,"type":"movie","add":"2021-02-17 08:00:41","orig_title":"Rabbit’s Paw","year":"2021-02-11","translations":["Оригинальная дорожка"],"quality":"ts","translation":"Оригинальная дорожка","update":"2021-02-17 12:22:04","iframe_src":"//7043.svetacdn.in/IAF0wWTdNYZm/movie/48011"},{"id":48010,"title":"Макс и дикая семерка","kp_id":"1296749","imdb_id":"tt10857100","world_art_id":null,"type":"movie","add":"2021-02-17 07:57:53","orig_title":"Max und die wilde 7","year":"2020-08-13","translations":["Любительский (многоголосый закадровый) (Синема УС)"],"quality":"bd","translation":"Любительский (многоголосый закадровый) (Синема УС)","update":"2021-02-17 13:28:08","iframe_src":"//7043.svetacdn.in/IAF0wWTdNYZm/movie/48010"},{"id":48007,"title":"Дьявол","kp_id":"252056","imdb_id":"tt0095012","world_art_id":null,"type":"movie","add":"2021-02-17 06:54:18","orig_title":"Diabel","year":"1989-05-22","translations":["Любительский (одноголосый закадровый)"],"quality":"bd","translation":"Любительский (одноголосый закадровый)","update":"2021-02-17 11:48:15","iframe_src":"//7043.svetacdn.in/IAF0wWTdNYZm/movie/48007"},{"id":48004,"title":"Невидимые полосы","kp_id":"10711","imdb_id":"tt0032636","world_art_id":null,"type":"movie","add":"2021-02-17 05:40:47","orig_title":"Invisible Stripes","year":"1939-12-30","translations":["Авторский (одноголосый закадровый) (Карповский Антон)"],"quality":"webdl","translation":"Авторский (одноголосый закадровый) (Карповский Антон)","update":"2021-02-17 12:05:44","iframe_src":"//7043.svetacdn.in/IAF0wWTdNYZm/movie/48004"},{"id":48003,"title":"Вольная душа","kp_id":"10477","imdb_id":"tt0021885","world_art_id":null,"type":"movie","add":"2021-02-17 05:39:30","orig_title":"A Free Soul","year":"1931-06-02","translations":["Профессиональный (одноголосый закадровый) (Светла)"],"quality":"webdl","translation":"Профессиональный (одноголосый закадровый) (Светла)","update":"2021-02-17 11:58:11","iframe_src":"//7043.svetacdn.in/IAF0wWTdNYZm/movie/48003"},{"id":47982,"title":"Я — нимфоманка","kp_id":"375976","imdb_id":"tt0065915","world_art_id":null,"type":"movie","add":"2021-02-16 12:23:10","orig_title":"Je suis une nymphomane","year":"1971-08-11","translations":["Авторский (одноголосый закадровый) (Алексеев Антон)"],"quality":"dvdrip","translation":"Авторский (одноголосый закадровый) (Алексеев Антон)","update":"2021-02-17 08:55:23","iframe_src":"//7043.svetacdn.in/IAF0wWTdNYZm/movie/47982"},{"id":47981,"title":"99 женщин","kp_id":"82102","imdb_id":"tt0063977","world_art_id":null,"type":"movie","add":"2021-02-16 12:21:00","orig_title":"Der heiße Tod","year":"1969-03-05","translations":["Профессиональный (многоголосый закадровый)"],"quality":"dvdrip","translation":"Профессиональный (многоголосый закадровый)","update":"2021-02-17 08:57:08","iframe_src":"//7043.svetacdn.in/IAF0wWTdNYZm/movie/47981"},{"id":47976,"title":"Кровавая баня в старшей школе","kp_id":"1263033","imdb_id":"tt7867026","world_art_id":null,"type":"movie","add":"2021-02-16 09:47:21","orig_title":"Joshi kosei boryoku kyoshitsu","year":"2012-01-01","translations":["Любительский (одноголосый закадровый) (den904)"],"quality":"webdl","translation":"Любительский (одноголосый закадровый) (den904)","update":"2021-02-17 09:05:25","iframe_src":"//7043.svetacdn.in/IAF0wWTdNYZm/movie/47976"},{"id":47974,"title":"Партнеры по постели","kp_id":"104266","imdb_id":"tt0070764","world_art_id":null,"type":"movie","add":"2021-02-16 09:39:35","orig_title":"Sängkamrater","year":"1974-06-20","translations":["Авторский (одноголосый закадровый) (Алексеев Антон)"],"quality":"dvdrip","translation":"Авторский (одноголосый закадровый) (Алексеев Антон)","update":"2021-02-17 09:03:52","iframe_src":"//7043.svetacdn.in/IAF0wWTdNYZm/movie/47974"},{"id":47972,"title":"Запретный плод","kp_id":"49473","imdb_id":"tt0347014","world_art_id":null,"type":"movie","add":"2021-02-16 09:36:55","orig_title":"Forbidden","year":"2001-09-17","translations":["Авторский (одноголосый закадровый) (Алексеев Антон)"],"quality":"dvdrip","translation":"Авторский (одноголосый закадровый) (Алексеев Антон)","update":"2021-02-17 09:08:18","iframe_src":"//7043.svetacdn.in/IAF0wWTdNYZm/movie/47972"},{"id":47817,"title":"Семена террора","kp_id":"1214192","imdb_id":"tt9280680","world_art_id":null,"type":"movie","add":"2021-02-10 14:09:48","orig_title":"Saat des Terrors","year":"2018-11-21","translations":["Любительский (многоголосый закадровый) (Синема УС)"],"quality":"hdtv","translation":"Любительский (многоголосый закадровый) (Синема УС)","update":"2021-02-17 12:24:07","iframe_src":"//7043.svetacdn.in/IAF0wWTdNYZm/movie/47817"},{"id":47815,"title":"Плохая жена","kp_id":"1313086","imdb_id":"tt11005780","world_art_id":null,"type":"movie","add":"2021-02-10 14:07:04","orig_title":"The Wrong Wife","year":"2019-09-23","translations":["Любительский (многоголосый закадровый) (Синема УС)"],"quality":"webdl","translation":"Любительский (многоголосый закадровый) (Синема УС)","update":"2021-02-17 12:23:38","iframe_src":"//7043.svetacdn.in/IAF0wWTdNYZm/movie/47815"},{"id":47515,"title":"Ниже нуля","kp_id":"1244319","imdb_id":"tt9845564","world_art_id":null,"type":"movie","add":"2021-01-29 13:25:20","orig_title":"Bajocero","year":"2021-01-29","translations":["Любительский (двухголосый закадровый) (OnisFilms)","Любительский (многоголосый закадровый) (@MUZOBOZ@)","Любительский (многоголосый закадровый) (@MUZOBOZ@)","Профессиональный (многоголосый закадровый) (HDrezka Studio)","Профессиональный (двухголосый закадровый) (ViruseProject)"],"quality":"webdl","translation":"Любительский (двухголосый закадровый) (OnisFilms)","update":"2021-02-17 11:55:26","iframe_src":"//7043.svetacdn.in/IAF0wWTdNYZm/movie/47515"},{"id":46479,"title":"Служба спасения","kp_id":"1122140","imdb_id":"tt9283920","world_art_id":null,"type":"movie","add":"2020-12-28 20:37:02","orig_title":"Jin ji jiu yuan","year":"2020-12-18","translations":["Любительский (двухголосый закадровый) (Колобок)","Любительский (двухголосый закадровый) (Колобок)"],"quality":"webdl","translation":"Любительский (двухголосый закадровый) (Колобок)","update":"2021-02-17 11:59:50","iframe_src":"//7043.svetacdn.in/IAF0wWTdNYZm/movie/46479"},{"id":8445,"title":"Трава зелена","kp_id":"331718","imdb_id":"tt0275738","world_art_id":null,"type":"serial","add":"2020-08-16 15:02:32","orig_title":"Trava zelena","year":"1987-02-26","translations":["Оригинальная дорожка"],"seasons_count":1,"episodes_count":2,"episodes":2,"update":"2020-08-17 09:07:40","iframe_src":"//7043.svetacdn.in/IAF0wWTdNYZm/tv-series/8445"},{"id":8439,"title":"Здравствуй, мама!","kp_id":"567181","imdb_id":"tt3098846","world_art_id":null,"type":"serial","add":"2020-08-15 09:23:43","orig_title":"Zdravstvuy, mama!","year":"2010-01-01","translations":["Оригинальная дорожка"],"seasons_count":1,"episodes_count":60,"episodes":60,"update":"2020-08-16 15:34:34","iframe_src":"//7043.svetacdn.in/IAF0wWTdNYZm/tv-series/8439"},{"id":8430,"title":"Новогодний романс","kp_id":"432939","imdb_id":null,"world_art_id":null,"type":"serial","add":"2020-08-14 12:40:21","orig_title":"Новогодний романс","year":"2003-01-01","translations":["Оригинальная дорожка"],"seasons_count":1,"episodes_count":2,"episodes":2,"update":"2020-08-14 15:19:53","iframe_src":"//7043.svetacdn.in/IAF0wWTdNYZm/tv-series/8430"},{"id":8425,"title":"Любовь ведьмы","kp_id":"839174","imdb_id":"tt3718908","world_art_id":null,"type":"serial","add":"2020-08-13 09:08:20","orig_title":"Manyeoeui Yeonae","year":"2014-04-14","translations":["Любительский (двухголосый закадровый) (GREEN TEA)"],"seasons_count":1,"episodes_count":16,"episodes":16,"update":"2020-08-16 18:49:50","iframe_src":"//7043.svetacdn.in/IAF0wWTdNYZm/tv-series/8425"},{"id":8424,"title":"Марти — железный мальчик","kp_id":"426276","imdb_id":"tt1001471","world_art_id":null,"type":"serial","add":"2020-08-13 08:06:38","orig_title":"Iron Kid","year":"2007-09-17","translations":["Полное дублирование"],"seasons_count":1,"episodes_count":26,"episodes":26,"update":"2020-08-16 18:31:25","iframe_src":"//7043.svetacdn.in/IAF0wWTdNYZm/tv-series/8424"},{"id":8423,"title":"Новые приключения старой","kp_id":"277546","imdb_id":"tt0462128","world_art_id":null,"type":"serial","add":"2020-08-13 06:10:55","orig_title":"The New Adventures of Old Christine","year":"2006-03-13","translations":["Полное дублирование (Paramount Comedy)"],"seasons_count":5,"episodes_count":87,"episodes":20,"update":"2020-08-16 19:04:19","iframe_src":"//7043.svetacdn.in/IAF0wWTdNYZm/tv-series/8423"},{"id":8420,"title":"Маруся: Испытания","kp_id":"616192","imdb_id":"tt3968618","world_art_id":null,"type":"serial","add":"2020-08-12 21:15:15","orig_title":"Marusya: Ispytaniya","year":"2011-01-01","translations":["Оригинальная дорожка"],"seasons_count":1,"episodes_count":85,"episodes":85,"update":"2020-08-16 16:18:28","iframe_src":"//7043.svetacdn.in/IAF0wWTdNYZm/tv-series/8420"},{"id":8416,"title":"От любви не убежать","kp_id":"909655","imdb_id":"tt4518946","world_art_id":null,"type":"serial","add":"2020-08-12 17:57:02","orig_title":"Asktan Kaçilmaz","year":"2014-09-14","translations":["Любительский (одноголосый закадровый)"],"seasons_count":1,"episodes_count":11,"episodes":11,"update":"2020-08-14 09:49:53","iframe_src":"//7043.svetacdn.in/IAF0wWTdNYZm/tv-series/8416"},{"id":8414,"title":"Красавчики из лапшичной","kp_id":"652838","imdb_id":"tt2373543","world_art_id":null,"type":"serial","add":"2020-08-12 11:14:08","orig_title":"Ggotminam ramyeongage","year":"2011-10-31","translations":["Любительский (двухголосый закадровый) (GREEN TEA)"],"seasons_count":1,"episodes_count":16,"episodes":16,"update":"2020-08-16 15:27:59","iframe_src":"//7043.svetacdn.in/IAF0wWTdNYZm/tv-series/8414"},{"id":8405,"title":"Мия и Я","kp_id":"839745","imdb_id":"tt2203143","world_art_id":null,"type":"serial","add":"2020-08-10 16:42:16","orig_title":"Mia and Me","year":"2011-12-19","translations":["Полное дублирование (Русский дубляж)","Полное дублирование"],"seasons_count":2,"episodes_count":52,"episodes":26,"update":"2020-08-14 12:23:26","iframe_src":"//7043.svetacdn.in/IAF0wWTdNYZm/tv-series/8405"},{"id":8320,"title":"Бронкс: отдел спецрасследований","kp_id":"1156827","imdb_id":"tt8390918","world_art_id":null,"type":"serial","add":"2020-08-02 12:51:50","orig_title":"Bronx SIU","year":"2018-07-19","translations":["Любительский (многоголосый закадровый) (Octopus)"],"seasons_count":2,"episodes_count":12,"episodes":6,"update":"2020-08-15 15:50:07","iframe_src":"//7043.svetacdn.in/IAF0wWTdNYZm/tv-series/8320"},{"id":8263,"title":"Не копайся в себе","kp_id":"1274562","imdb_id":"tt10488234","world_art_id":null,"type":"serial","add":"2020-07-27 14:42:57","orig_title":"Don't Look Deeper","year":"2020-07-27","translations":["Любительский (многоголосый закадровый) (Octopus)","Любительский (многоголосый закадровый) (ColdFilm)","Любительский (многоголосый закадровый) (KerobTV)"],"seasons_count":1,"episodes_count":14,"episodes":14,"update":"2020-08-14 15:16:53","iframe_src":"//7043.svetacdn.in/IAF0wWTdNYZm/tv-series/8263"},{"id":8199,"title":"Участковый детектив","kp_id":"624637","imdb_id":"tt4455576","world_art_id":null,"type":"serial","add":"2020-07-19 06:00:15","orig_title":"Uchastkoviy detektiv","year":"2011-09-19","translations":["Оригинальная дорожка"],"seasons_count":1,"episodes_count":73,"episodes":73,"update":"2020-08-15 12:38:20","iframe_src":"//7043.svetacdn.in/IAF0wWTdNYZm/tv-series/8199"},{"id":5868,"title":"Солнечный ноябрь","kp_id":"1249226","imdb_id":null,"world_art_id":null,"type":"serial","add":"2019-11-27 18:48:38","orig_title":"Солнечный ноябрь","year":"2019-03-04","translations":["Оригинальная дорожка"],"seasons_count":1,"episodes_count":16,"episodes":16,"update":"2020-08-16 18:33:43","iframe_src":"//7043.svetacdn.in/IAF0wWTdNYZm/tv-series/5868"},{"id":3140,"title":"Жажда странствий","kp_id":"1184907","imdb_id":"tt7608238","world_art_id":null,"type":"serial","add":"2018-09-07 08:18:12","orig_title":"Wanderlust","year":"2018-09-04","translations":["Любительский (двухголосый закадровый) (Sunshine Studio)","Профессиональный (многоголосый закадровый) (NewStudio)","Профессиональный (многоголосый закадровый) (HDrezka Studio)"],"seasons_count":1,"episodes_count":6,"episodes":6,"update":"2020-08-14 17:00:15","iframe_src":"//7043.svetacdn.in/IAF0wWTdNYZm/tv-series/3140"},{"id":2974,"title":"Код убийства: Сан-Франциско","kp_id":"1126841","imdb_id":"tt7978912","world_art_id":null,"type":"serial","add":"2018-07-28 10:13:55","orig_title":"The Bletchley Circle: San Francisco","year":"2018-07-25","translations":["Любительский (двухголосый закадровый) (Sunshine Studio)","Любительский (двухголосый закадровый) (KinoGolos)","Профессиональный (многоголосый закадровый) (HDrezka Studio)"],"seasons_count":1,"episodes_count":8,"episodes":8,"update":"2020-08-14 15:22:06","iframe_src":"//7043.svetacdn.in/IAF0wWTdNYZm/tv-series/2974"},{"id":2637,"title":"Свет и тень","kp_id":"748788","imdb_id":"tt2677314","world_art_id":null,"type":"serial","add":"2018-05-23 11:35:53","orig_title":"Lightfields","year":"2013-02-27","translations":["Профессиональный (многоголосый закадровый) (GreenРай Studio)","Профессиональный (многоголосый закадровый) (ShowJet)"],"seasons_count":1,"episodes_count":5,"episodes":5,"update":"2020-08-14 14:17:00","iframe_src":"//7043.svetacdn.in/IAF0wWTdNYZm/tv-series/2637"},{"id":9853,"title":"Исчезающее время","kp_id":"1002665","imdb_id":"tt6273736","world_art_id":null,"type":"movie","add":"2017-02-21 05:43:15","orig_title":"Garyeojin sigan","year":"2016-11-16","translations":["Любительский (одноголосый закадровый)","Любительский (многоголосый закадровый) (Синема УС)","Профессиональный (многоголосый закадровый) (GreenРай Studio)","Любительский (многоголосый закадровый) (STEPonee)","Авторский (одноголосый закадровый) (Воротилин Олег)","Профессиональный (многоголосый закадровый) (Кириллица)"],"quality":"hdrip","translation":"Любительский (одноголосый закадровый)","update":"2021-02-17 11:49:43","iframe_src":"//7043.svetacdn.in/IAF0wWTdNYZm/movie/9853"},{"id":410,"title":"Ты - воплощение порока","kp_id":"803719","imdb_id":"tt3228420","world_art_id":null,"type":"serial","add":"2016-09-05 11:12:43","orig_title":"You're the Worst","year":"2014-07-17","translations":["Профессиональный (многоголосый закадровый) (NewStudio)","Профессиональный (многоголосый закадровый) (TVShows)"],"seasons_count":5,"episodes_count":62,"episodes":13,"update":"2020-08-14 13:18:43","iframe_src":"//7043.svetacdn.in/IAF0wWTdNYZm/tv-series/410"},{"id":333,"title":"Братья Доннелли","kp_id":"283459","imdb_id":"tt0805661","world_art_id":null,"type":"serial","add":"2016-08-14 15:38:29","orig_title":"The Black Donnellys","year":"2007-02-26","translations":["Профессиональный (многоголосый закадровый)","Профессиональный (многоголосый закадровый) (ShowJet)"],"seasons_count":1,"episodes_count":13,"episodes":13,"update":"2020-08-14 14:34:11","iframe_src":"//7043.svetacdn.in/IAF0wWTdNYZm/tv-series/333"},{"id":370,"title":"Кошмар на улице Вязов 4: Повелитель сна","kp_id":"12524","imdb_id":"tt0095742","world_art_id":null,"type":"movie","add":"2016-03-30 21:19:56","orig_title":"A Nightmare on Elm Street 4: The Dream Master","year":"1988-08-19","translations":["Профессиональный (многоголосый закадровый)","Авторский (одноголосый закадровый) (Гаврилов Андрей)","Авторский (одноголосый закадровый) (Володарский Леонид)","Original (English)","Профессиональный (двухголосый закадровый) (НТВ)","Профессиональный (многоголосый закадровый) (CP Digital)","Профессиональный (многоголосый закадровый) (Киномания)","Профессиональный (многоголосый закадровый) (Позитив)","Профессиональный (многоголосый закадровый) (РТР | Россия)"],"quality":"bd","translation":"Профессиональный (многоголосый закадровый)","update":"2021-02-17 13:23:44","iframe_src":"//7043.svetacdn.in/IAF0wWTdNYZm/movie/370"},{"id":369,"title":"Кошмар на улице Вязов 3: Воины сна","kp_id":"3746","imdb_id":"tt0093629","world_art_id":null,"type":"movie","add":"2016-03-30 21:17:59","orig_title":"A Nightmare on Elm Street 3: Dream Warriors","year":"1987-02-27","translations":["Профессиональный (многоголосый закадровый)","Авторский (одноголосый закадровый) (Дохалов Вартан)","Авторский (одноголосый закадровый) (Гаврилов Андрей)","Авторский (одноголосый закадровый) (Горчаков Василий)","Авторский (одноголосый закадровый) (Кашкин Александр | Первомайский)","Original (English)","Профессиональный (двухголосый закадровый) (НТВ)","Профессиональный (многоголосый закадровый) (CP Digital)","Профессиональный (многоголосый закадровый) (Киномания)","Профессиональный (многоголосый закадровый) (Позитив)"],"quality":"bd","translation":"Профессиональный (многоголосый закадровый)","update":"2021-02-17 08:05:16","iframe_src":"//7043.svetacdn.in/IAF0wWTdNYZm/movie/369"},{"id":368,"title":"Кошмар на улице Вязов 2: Месть Фредди","kp_id":"31831","imdb_id":"tt0089686","world_art_id":null,"type":"movie","add":"2016-03-30 21:14:18","orig_title":"A Nightmare on Elm Street Part 2: Freddy's Revenge","year":"1985-11-01","translations":["Профессиональный (многоголосый закадровый)","Авторский (одноголосый закадровый) (Гаврилов Андрей)","Авторский (одноголосый закадровый) (Горчаков Василий)","Original (English)","Профессиональный (двухголосый закадровый) (НТВ)","Профессиональный (многоголосый закадровый) (CP Digital)","Профессиональный (многоголосый закадровый) (Киномания)","Профессиональный (многоголосый закадровый) (Позитив)"],"quality":"bd","translation":"Профессиональный (многоголосый закадровый)","update":"2021-02-17 07:49:33","iframe_src":"//7043.svetacdn.in/IAF0wWTdNYZm/movie/368"},{"id":39,"title":"Слепое пятно","kp_id":"894877","imdb_id":"tt4474344","world_art_id":null,"type":"serial","add":"2016-03-30 20:30:19","orig_title":"Blindspot","year":"2015-09-21","translations":["Профессиональный (многоголосый закадровый) (NewStudio)","Профессиональный (многоголосый закадровый) (AlexFilm)","Профессиональный (многоголосый закадровый) (LostFilm)","Любительский (многоголосый закадровый) (ColdFilm)","Любительский (многоголосый закадровый) (Octopus)","Профессиональный (многоголосый закадровый) (BaibaKo)","Любительский (многоголосый закадровый) (KerobTV)"],"seasons_count":5,"episodes_count":100,"episodes":11,"update":"2020-08-16 17:49:05","iframe_src":"//7043.svetacdn.in/IAF0wWTdNYZm/tv-series/39"}],"current_page":139,"first_page_url":"https://videocdn.tv/api/short?limit=100&api_token=6Onb1W1alEUrBcKJZD3GoKBbWyAl2uG2&cache3139=3139&page=1","from":13801,"last_page":612,"last_page_url":"https://videocdn.tv/api/short?limit=100&api_token=6Onb1W1alEUrBcKJZD3GoKBbWyAl2uG2&cache3139=3139&page=612","next_page_url":"https://videocdn.tv/api/short?limit=100&api_token=6Onb1W1alEUrBcKJZD3GoKBbWyAl2uG2&cache3139=3139&page=140","path":"https://videocdn.tv/api/short","per_page":100,"prev_page_url":"https://videocdn.tv/api/short?limit=100&api_token=6Onb1W1alEUrBcKJZD3GoKBbWyAl2uG2&cache3139=3139&page=138","to":13840,"total":61128}