{"result":true,"data":[{"id":17735,"title":"Дверь Дьявола","kp_id":"1078561","imdb_id":"tt6793280","world_art_id":null,"type":"movie","add":"2018-07-15 23:08:21","orig_title":"The Devil's Doorway","year":"2018-05-25","translations":["Любительский (многоголосый закадровый) (Синема УС)"],"quality":"webdl","translation":"Любительский (многоголосый закадровый) (Синема УС)","update":"2018-07-16 08:14:50","iframe_src":"//7923.svetacdn.in/si4jsFRrtgrT/movie/17735"},{"id":17734,"title":"Серп","kp_id":"1004140","imdb_id":"tt6044156","world_art_id":null,"type":"movie","add":"2018-07-15 23:03:16","orig_title":"The Crescent","year":"2017-09-07","translations":["Любительский (многоголосый закадровый) (Синема УС)"],"quality":"dvdrip","translation":"Любительский (многоголосый закадровый) (Синема УС)","update":"2018-07-16 08:07:12","iframe_src":"//7923.svetacdn.in/si4jsFRrtgrT/movie/17734"},{"id":17732,"title":"Королевские приключения Софии Грейс и Роузи","kp_id":"850648","imdb_id":"tt3604950","world_art_id":null,"type":"movie","add":"2018-07-15 22:55:04","orig_title":"Sophia Grace & Rosie's Royal Adventure","year":"2014-05-20","translations":["Любительский (многоголосый закадровый) (Синема УС)"],"quality":"webdl","translation":"Любительский (многоголосый закадровый) (Синема УС)","update":"2018-07-16 08:02:51","iframe_src":"//7923.svetacdn.in/si4jsFRrtgrT/movie/17732"},{"id":17731,"title":"Да поможет нам Бог","kp_id":"1079791","imdb_id":"tt7165516","world_art_id":null,"type":"movie","add":"2018-07-15 22:52:03","orig_title":"So Help Us God","year":"2017-04-13","translations":["Любительский (многоголосый закадровый) (Синема УС)"],"quality":"webdl","translation":"Любительский (многоголосый закадровый) (Синема УС)","update":"2018-07-16 07:27:49","iframe_src":"//7923.svetacdn.in/si4jsFRrtgrT/movie/17731"},{"id":17729,"title":"Пациентка","kp_id":"875172","imdb_id":"tt3895554","world_art_id":null,"type":"movie","add":"2018-07-15 22:42:24","orig_title":"Patient","year":"2016-05-25","translations":["Любительский (одноголосый закадровый) (Хихикающий доктор)"],"quality":"hdrip","translation":"Любительский (одноголосый закадровый) (Хихикающий доктор)","update":"2018-07-16 07:19:37","iframe_src":"//7923.svetacdn.in/si4jsFRrtgrT/movie/17729"},{"id":17726,"title":"Три безмолвия","kp_id":"726990","imdb_id":"tt2585278","world_art_id":null,"type":"movie","add":"2018-07-15 22:24:50","orig_title":"Les trois silences","year":"2014-12-13","translations":["Профессиональный (многоголосый закадровый) (GreenРай Studio)"],"quality":"hdtv","translation":"Профессиональный (многоголосый закадровый) (GreenРай Studio)","update":"2018-07-16 07:10:30","iframe_src":"//7923.svetacdn.in/si4jsFRrtgrT/movie/17726"},{"id":17725,"title":"Вся жизнь насмарку","kp_id":"624039","imdb_id":"tt2053378","world_art_id":null,"type":"movie","add":"2018-07-15 22:21:03","orig_title":"Juoppohullun päiväkirja","year":"2012-12-28","translations":["Любительский (многоголосый закадровый) (GreenРай Studio)"],"quality":"webdl","translation":"Любительский (многоголосый закадровый) (GreenРай Studio)","update":"2018-07-16 07:08:23","iframe_src":"//7923.svetacdn.in/si4jsFRrtgrT/movie/17725"},{"id":17723,"title":"Стая парней","kp_id":"778680","imdb_id":"tt3027644","world_art_id":null,"type":"movie","add":"2018-07-15 22:01:13","orig_title":"Flock of Dudes","year":"2016-06-13","translations":["Любительский (многоголосый закадровый) (Синема УС)"],"quality":"webdl","translation":"Любительский (многоголосый закадровый) (Синема УС)","update":"2018-07-16 06:52:38","iframe_src":"//7923.svetacdn.in/si4jsFRrtgrT/movie/17723"},{"id":17722,"title":"Лик зла","kp_id":"849662","imdb_id":"tt3707284","world_art_id":null,"type":"movie","add":"2018-07-15 21:59:01","orig_title":"Face of Evil","year":"2016-09-22","translations":["Любительский (многоголосый закадровый) (Синема УС)"],"quality":"webdl","translation":"Любительский (многоголосый закадровый) (Синема УС)","update":"2018-07-16 06:52:33","iframe_src":"//7923.svetacdn.in/si4jsFRrtgrT/movie/17722"},{"id":17156,"title":"Кебаб","kp_id":"815509","imdb_id":"tt3221544","world_art_id":null,"type":"movie","add":"2018-06-12 22:49:53","orig_title":"K-Shop","year":"2016-04-21","translations":["Любительский (многоголосый закадровый) (Колобок)","Любительский (одноголосый закадровый) (Хихикающий доктор)"],"quality":"webdl","translation":"Любительский (многоголосый закадровый) (Колобок)","update":"2018-07-16 07:09:12","iframe_src":"//7923.svetacdn.in/si4jsFRrtgrT/movie/17156"},{"id":16952,"title":"Я – солдат","kp_id":"898200","imdb_id":"tt4485178","world_art_id":null,"type":"movie","add":"2018-05-30 09:57:30","orig_title":"Je suis un soldat","year":"2015-05-20","translations":["Любительский (многоголосый закадровый) (Синема УС)","Профессиональный (многоголосый закадровый) (GreenРай Studio)"],"quality":"hdtv","translation":"Любительский (многоголосый закадровый) (Синема УС)","update":"2018-07-16 07:07:22","iframe_src":"//7923.svetacdn.in/si4jsFRrtgrT/movie/16952"},{"id":16715,"title":"Геенна: Где живёт смерть","kp_id":"899953","imdb_id":"tt4499228","world_art_id":null,"type":"movie","add":"2018-05-09 22:18:52","orig_title":"Gehenna: Where Death Lives","year":"2016-10-06","translations":["Любительский (многоголосый закадровый) (Колобок)","Любительский (одноголосый закадровый) (Хихикающий доктор)"],"quality":"webdl","translation":"Любительский (многоголосый закадровый) (Колобок)","update":"2018-07-16 06:58:15","iframe_src":"//7923.svetacdn.in/si4jsFRrtgrT/movie/16715"},{"id":16605,"title":"Первобытная ярость","kp_id":"980432","imdb_id":"tt5688868","world_art_id":null,"type":"movie","add":"2018-05-03 21:29:06","orig_title":"Primal Rage","year":"2018-02-27","translations":["Любительский (многоголосый закадровый) (Синема УС)","Профессиональный (многоголосый закадровый) (GreenРай Studio)","Любительский (одноголосый закадровый) (Хихикающий доктор)"],"quality":"webdl","translation":"Любительский (многоголосый закадровый) (Синема УС)","update":"2018-07-16 07:21:43","iframe_src":"//7923.svetacdn.in/si4jsFRrtgrT/movie/16605"},{"id":16487,"title":"Неоперабельная","kp_id":"964781","imdb_id":"tt5325604","world_art_id":null,"type":"movie","add":"2018-04-26 22:03:34","orig_title":"Inoperable","year":"2017-12-01","translations":["Любительский (многоголосый закадровый) (Колобок)","Любительский (одноголосый закадровый) (Хихикающий доктор)"],"quality":"webdl","translation":"Любительский (многоголосый закадровый) (Колобок)","update":"2018-07-16 07:05:34","iframe_src":"//7923.svetacdn.in/si4jsFRrtgrT/movie/16487"},{"id":15563,"title":"Я худею","kp_id":"842037","imdb_id":"tt7863198","world_art_id":null,"type":"movie","add":"2018-03-10 19:32:32","orig_title":"I Am Losing Weight","year":"2018-03-08","translations":["Оригинальная дорожка"],"quality":"bd","translation":"Оригинальная дорожка","update":"2018-07-16 07:07:37","iframe_src":"//7923.svetacdn.in/si4jsFRrtgrT/movie/15563"},{"id":11509,"title":"Молчание неба","kp_id":"944237","imdb_id":"tt5125930","world_art_id":null,"type":"movie","add":"2017-05-12 00:17:27","orig_title":"O Silêncio do Céu","year":"2016-08-28","translations":["Любительский (одноголосый закадровый) (Хихикающий доктор)","Любительский (многоголосый закадровый) (Колобок)"],"quality":"hdrip","translation":"Любительский (одноголосый закадровый) (Хихикающий доктор)","update":"2018-07-16 07:18:33","iframe_src":"//7923.svetacdn.in/si4jsFRrtgrT/movie/11509"},{"id":9154,"title":"Мистер Икс","kp_id":"878411","imdb_id":"tt3848938","world_art_id":null,"type":"movie","add":"2017-01-24 13:11:58","orig_title":"Mr. X","year":"2015-04-16","translations":["Любительский (многоголосый закадровый)","Профессиональный (многоголосый закадровый)"],"quality":"webdl","translation":"Любительский (многоголосый закадровый)","update":"2018-07-16 07:15:56","iframe_src":"//7923.svetacdn.in/si4jsFRrtgrT/movie/9154"},{"id":8587,"title":"Красный залив","kp_id":"851682","imdb_id":"tt4011010","world_art_id":null,"type":"movie","add":"2017-01-04 12:52:43","orig_title":"Red Billabong","year":"2016-08-25","translations":["Любительский (многоголосый закадровый) (@MUZOBOZ@)","Любительский (одноголосый закадровый) (Хихикающий доктор)"],"quality":"bd","translation":"Любительский (многоголосый закадровый) (@MUZOBOZ@)","update":"2018-07-16 07:22:36","iframe_src":"//7923.svetacdn.in/si4jsFRrtgrT/movie/8587"},{"id":7618,"title":"Удушье","kp_id":"817224","imdb_id":"tt3395582","world_art_id":null,"type":"movie","add":"2016-11-24 14:14:54","orig_title":"Sun Choke","year":"2015-05-03","translations":["Любительский (двухголосый закадровый) (Колобок)","Любительский (одноголосый закадровый) (Хихикающий доктор)"],"quality":"webdl","translation":"Любительский (двухголосый закадровый) (Колобок)","update":"2018-07-16 08:04:45","iframe_src":"//7923.svetacdn.in/si4jsFRrtgrT/movie/7618"},{"id":6753,"title":"Дом напротив","kp_id":"811619","imdb_id":"tt3330764","world_art_id":null,"type":"movie","add":"2016-10-27 06:25:03","orig_title":"The Neighbor","year":"2016-08-19","translations":["Профессиональный (многоголосый закадровый) (Paradox & Omskbird records)","Любительский (многоголосый закадровый) (Синема УС)","Полное дублирование (iTunes)"],"quality":"webdl","translation":"Профессиональный (многоголосый закадровый) (Paradox & Omskbird records)","update":"2018-07-16 08:16:50","iframe_src":"//7923.svetacdn.in/si4jsFRrtgrT/movie/6753"}],"current_page":1895,"first_page_url":"https://videocdn.tv/api/short?limit=100&api_token=X6EwAUfE5M9xbo7y0Bp0aPf3uXxG2KLL&cache31895=31895&page=1","from":189401,"last_page":645,"last_page_url":"https://videocdn.tv/api/short?limit=100&api_token=X6EwAUfE5M9xbo7y0Bp0aPf3uXxG2KLL&cache31895=31895&page=645","next_page_url":null,"path":"https://videocdn.tv/api/short","per_page":100,"prev_page_url":"https://videocdn.tv/api/short?limit=100&api_token=X6EwAUfE5M9xbo7y0Bp0aPf3uXxG2KLL&cache31895=31895&page=1894","to":189420,"total":64442}