{"result":true,"data":[{"id":42461,"title":"Виртуальная страсть","kp_id":"77369","imdb_id":"tt0301987","world_art_id":null,"type":"movie","add":"2020-08-14 07:15:14","orig_title":"Virtual Girl 2: Virtual Vegas","year":"2001-11-10","translations":["Профессиональный (многоголосый закадровый)"],"quality":"dvdrip","translation":"Профессиональный (многоголосый закадровый)","update":"2020-08-14 07:43:54","iframe_src":"//8543.svetacdn.in/si4jsFRrtgrT/movie/42461"},{"id":42460,"title":"Во власти женщины","kp_id":"266958","imdb_id":"tt0780621","world_art_id":null,"type":"movie","add":"2020-08-14 07:14:02","orig_title":"Tatt av kvinnen","year":"2007-08-17","translations":["Профессиональный (многоголосый закадровый)"],"quality":"dvdrip","translation":"Профессиональный (многоголосый закадровый)","update":"2020-08-14 07:46:49","iframe_src":"//8543.svetacdn.in/si4jsFRrtgrT/movie/42460"},{"id":42459,"title":"Фактор удара","kp_id":"392929","imdb_id":"tt1086841","world_art_id":null,"type":"movie","add":"2020-08-14 07:12:55","orig_title":"Impact Point","year":"2008-06-13","translations":["Профессиональный (многоголосый закадровый)"],"quality":"dvdrip","translation":"Профессиональный (многоголосый закадровый)","update":"2020-08-14 07:44:53","iframe_src":"//8543.svetacdn.in/si4jsFRrtgrT/movie/42459"},{"id":42458,"title":"Будущее","kp_id":"418743","imdb_id":"tt1235170","world_art_id":null,"type":"movie","add":"2020-08-14 07:11:37","orig_title":"The Future","year":"2011-01-21","translations":["Профессиональный (многоголосый закадровый)"],"quality":"dvdrip","translation":"Профессиональный (многоголосый закадровый)","update":"2020-08-14 07:47:30","iframe_src":"//8543.svetacdn.in/si4jsFRrtgrT/movie/42458"},{"id":42457,"title":"Пупупиду","kp_id":"568771","imdb_id":"tt1736636","world_art_id":null,"type":"movie","add":"2020-08-14 07:09:08","orig_title":"Poupoupidou","year":"2011-01-12","translations":["Профессиональный (многоголосый закадровый)"],"quality":"bd","translation":"Профессиональный (многоголосый закадровый)","update":"2020-08-14 12:21:45","iframe_src":"//8543.svetacdn.in/si4jsFRrtgrT/movie/42457"},{"id":42456,"title":"Поскользнулся, упал...","kp_id":"455274","imdb_id":"tt1401700","world_art_id":null,"type":"movie","add":"2020-08-14 07:07:19","orig_title":"Slip & Fall","year":"2011-09-05","translations":["Профессиональный (двухголосый закадровый)"],"quality":"sat","translation":"Профессиональный (двухголосый закадровый)","update":"2020-08-14 07:20:36","iframe_src":"//8543.svetacdn.in/si4jsFRrtgrT/movie/42456"},{"id":42455,"title":"Капитан Голливуд","kp_id":"1311540","imdb_id":null,"world_art_id":null,"type":"movie","add":"2020-08-14 07:06:02","orig_title":"Капитан Голливуд","year":"2020-02-19","translations":["Оригинальная дорожка"],"quality":"webdl","translation":"Оригинальная дорожка","update":"2020-08-14 12:22:39","iframe_src":"//8543.svetacdn.in/si4jsFRrtgrT/movie/42455"},{"id":42452,"title":"Снеговик-почтовик","kp_id":"431162","imdb_id":"tt1794958","world_art_id":null,"type":"movie","add":"2020-08-14 07:01:15","orig_title":"Snegovik-pochtovik","year":"1956-01-06","translations":["Оригинальная дорожка"],"quality":"dvdrip","translation":"Оригинальная дорожка","update":"2020-08-14 07:19:45","iframe_src":"//8543.svetacdn.in/si4jsFRrtgrT/movie/42452"},{"id":42451,"title":"Фальшивая личина","kp_id":"426443","imdb_id":"tt1290400","world_art_id":null,"type":"movie","add":"2020-08-14 06:58:26","orig_title":"Double Identity","year":"2009-11-14","translations":["Профессиональный (многоголосый закадровый)","Original (English)"],"quality":"bd","translation":"Профессиональный (многоголосый закадровый)","update":"2020-08-14 12:25:13","iframe_src":"//8543.svetacdn.in/si4jsFRrtgrT/movie/42451"},{"id":42449,"title":"Дикие притчи про Фрэнка МакГаффина","kp_id":"1092041","imdb_id":"tt6893446","world_art_id":null,"type":"movie","add":"2020-08-14 06:20:43","orig_title":"The Savage Tales of Frank MacGuffin","year":"2017-09-21","translations":["Любительский (многоголосый закадровый) (Синема УС)"],"quality":"webdl","translation":"Любительский (многоголосый закадровый) (Синема УС)","update":"2020-08-14 14:13:00","iframe_src":"//8543.svetacdn.in/si4jsFRrtgrT/movie/42449"},{"id":42447,"title":"Малый бюджет","kp_id":"1083287","imdb_id":"tt5954808","world_art_id":null,"type":"movie","add":"2020-08-13 19:06:18","orig_title":"B.O.","year":"2020-07-15","translations":["Любительский (многоголосый закадровый) (Синема УС)"],"quality":"webdl","translation":"Любительский (многоголосый закадровый) (Синема УС)","update":"2020-08-14 08:30:51","iframe_src":"//8543.svetacdn.in/si4jsFRrtgrT/movie/42447"},{"id":42446,"title":"С боем в сердце","kp_id":"753807","imdb_id":"tt2814874","world_art_id":null,"type":"movie","add":"2020-08-13 12:43:37","orig_title":"Fighting Heart","year":"2016-09-02","translations":["Любительский (многоголосый закадровый) (Синема УС)"],"quality":"webdl","translation":"Любительский (многоголосый закадровый) (Синема УС)","update":"2020-08-13 15:16:36","iframe_src":"//8543.svetacdn.in/si4jsFRrtgrT/movie/42446"},{"id":42442,"title":"Приключения Бэйли: Потерянный щенок","kp_id":"569198","imdb_id":"tt1734063","world_art_id":null,"type":"movie","add":"2020-08-13 07:05:43","orig_title":"Adventures of Bailey: The Lost Puppy","year":"2010-10-19","translations":["Профессиональный (многоголосый закадровый)"],"quality":"hdtv","translation":"Профессиональный (многоголосый закадровый)","update":"2020-08-14 07:51:04","iframe_src":"//8543.svetacdn.in/si4jsFRrtgrT/movie/42442"},{"id":42441,"title":"Приключения Бэйли: Рождественский герой","kp_id":"674536","imdb_id":"tt2316383","world_art_id":null,"type":"movie","add":"2020-08-13 07:04:21","orig_title":"Adventures of Bailey: Christmas Hero","year":"2012-11-06","translations":["Профессиональный (двухголосый закадровый)"],"quality":"hdtv","translation":"Профессиональный (двухголосый закадровый)","update":"2020-08-14 07:51:45","iframe_src":"//8543.svetacdn.in/si4jsFRrtgrT/movie/42441"},{"id":42437,"title":"Тёмный лес","kp_id":"76044","imdb_id":"tt0356176","world_art_id":null,"type":"movie","add":"2020-08-13 06:58:01","orig_title":"Villmark","year":"2003-02-21","translations":["Любительский (одноголосый закадровый) (den904)"],"quality":"bd","translation":"Любительский (одноголосый закадровый) (den904)","update":"2020-08-14 07:52:45","iframe_src":"//8543.svetacdn.in/si4jsFRrtgrT/movie/42437"},{"id":42433,"title":"Девушка со спичечной фабрики","kp_id":"105035","imdb_id":"tt0098532","world_art_id":null,"type":"movie","add":"2020-08-13 06:49:42","orig_title":"Tulitikkutehtaan tyttö","year":"1990-01-12","translations":["Профессиональный (двухголосый закадровый)","Авторский (одноголосый закадровый) (Кузнецов Сергей)"],"quality":"bd","translation":"Профессиональный (двухголосый закадровый)","update":"2020-08-14 07:54:49","iframe_src":"//8543.svetacdn.in/si4jsFRrtgrT/movie/42433"},{"id":42432,"title":"Прощай, мир","kp_id":"701778","imdb_id":"tt2352802","world_art_id":null,"type":"movie","add":"2020-08-13 06:46:09","orig_title":"Goodbye World","year":"2013-06-15","translations":["Original (English)","Любительский (одноголосый закадровый)"],"quality":"bd","translation":"Original (English)","update":"2020-08-14 07:56:13","iframe_src":"//8543.svetacdn.in/si4jsFRrtgrT/movie/42432"},{"id":31261,"title":"Бунюэль в лабиринте черепах","kp_id":"1065898","imdb_id":"tt7336470","world_art_id":null,"type":"movie","add":"2019-09-29 15:11:34","orig_title":"Buñuel en el laberinto de las tortugas","year":"2018-10-20","translations":["Профессиональный (многоголосый закадровый)","Профессиональный (многоголосый закадровый) (iTunes)"],"quality":"webdl","translation":"Профессиональный (многоголосый закадровый)","update":"2020-08-14 12:27:42","iframe_src":"//8543.svetacdn.in/si4jsFRrtgrT/movie/31261"},{"id":3228,"title":"Служба новостей","kp_id":"584777","imdb_id":"tt1870479","world_art_id":null,"type":"serial","add":"2018-09-27 09:23:31","orig_title":"The Newsroom","year":"2013-03-26","translations":["Профессиональный (многоголосый закадровый) (NewStudio)","Профессиональный (многоголосый закадровый) (Amedia)"],"seasons_count":3,"episodes_count":25,"episodes":6,"update":"2018-09-28 09:24:15","iframe_src":"//8543.svetacdn.in/si4jsFRrtgrT/tv-series/3228"},{"id":3227,"title":"Майти Буш","kp_id":"438466","imdb_id":"tt0416394","world_art_id":null,"type":"serial","add":"2018-09-27 08:52:55","orig_title":"The Mighty Boosh","year":"2003-05-20","translations":["Профессиональный (многоголосый закадровый)"],"seasons_count":3,"episodes_count":20,"episodes":6,"update":"2018-09-28 09:57:16","iframe_src":"//8543.svetacdn.in/si4jsFRrtgrT/tv-series/3227"},{"id":3218,"title":"Близкие друзья","kp_id":"262973","imdb_id":"tt0262985","world_art_id":null,"type":"serial","add":"2018-09-25 08:34:30","orig_title":"Queer as Folk","year":"2000-12-03","translations":["Любительский (двухголосый закадровый) (GoldTeam)"],"seasons_count":5,"episodes_count":82,"episodes":13,"update":"2018-09-26 23:52:05","iframe_src":"//8543.svetacdn.in/si4jsFRrtgrT/tv-series/3218"},{"id":3217,"title":"Сватьи","kp_id":"838927","imdb_id":null,"world_art_id":null,"type":"serial","add":"2018-09-25 05:47:09","orig_title":"Сватьи","year":"2014-04-14","translations":["Оригинальная дорожка"],"seasons_count":1,"episodes_count":12,"episodes":12,"update":"2018-09-25 19:41:38","iframe_src":"//8543.svetacdn.in/si4jsFRrtgrT/tv-series/3217"},{"id":3213,"title":"Красавчик","kp_id":"774514","imdb_id":"tt3350766","world_art_id":null,"type":"serial","add":"2018-09-24 11:49:14","orig_title":"Yebbeun namja","year":"2013-11-20","translations":["Любительский (двухголосый закадровый) (GREEN TEA)"],"seasons_count":1,"episodes_count":16,"episodes":16,"update":"2018-09-27 07:39:02","iframe_src":"//8543.svetacdn.in/si4jsFRrtgrT/tv-series/3213"},{"id":3212,"title":"Наследство","kp_id":"1162500","imdb_id":null,"world_art_id":null,"type":"serial","add":"2018-09-24 11:25:46","orig_title":"Наследство","year":"2018-09-01","translations":["Оригинальная дорожка"],"seasons_count":1,"episodes_count":2,"episodes":2,"update":"2018-09-25 10:00:39","iframe_src":"//8543.svetacdn.in/si4jsFRrtgrT/tv-series/3212"},{"id":3211,"title":"Хорошая игра","kp_id":"1083754","imdb_id":"tt6533132","world_art_id":null,"type":"serial","add":"2018-09-24 11:02:58","orig_title":"Good Game","year":"2017-08-30","translations":["Любительский (двухголосый закадровый) (GoldTeam)"],"seasons_count":1,"episodes_count":6,"episodes":6,"update":"2018-09-25 10:02:35","iframe_src":"//8543.svetacdn.in/si4jsFRrtgrT/tv-series/3211"},{"id":3210,"title":"Обитатели больницы","kp_id":"1108392","imdb_id":"tt6819788","world_art_id":null,"type":"serial","add":"2018-09-24 10:54:25","orig_title":"Hospital People","year":"2017-04-21","translations":["Любительский (двухголосый закадровый) (SNK-TV)"],"seasons_count":1,"episodes_count":6,"episodes":6,"update":"2018-09-25 10:07:02","iframe_src":"//8543.svetacdn.in/si4jsFRrtgrT/tv-series/3210"},{"id":3209,"title":"Мое сердце с тобой","kp_id":"1189793","imdb_id":null,"world_art_id":null,"type":"serial","add":"2018-09-24 10:29:13","orig_title":"Мое сердце с тобой","year":"2018-09-22","translations":["Оригинальная дорожка"],"seasons_count":1,"episodes_count":2,"episodes":2,"update":"2018-09-25 10:11:22","iframe_src":"//8543.svetacdn.in/si4jsFRrtgrT/tv-series/3209"},{"id":3208,"title":"Вегас","kp_id":"669598","imdb_id":"tt2262383","world_art_id":null,"type":"serial","add":"2018-09-24 10:18:03","orig_title":"Vegas","year":"2012-09-25","translations":["Профессиональный (многоголосый закадровый)"],"seasons_count":1,"episodes_count":21,"episodes":21,"update":"2018-09-25 10:17:38","iframe_src":"//8543.svetacdn.in/si4jsFRrtgrT/tv-series/3208"},{"id":3206,"title":"Биобаба","kp_id":"278076","imdb_id":"tt0880557","world_art_id":null,"type":"serial","add":"2018-09-23 10:42:06","orig_title":"Bionic Woman","year":"2007-09-26","translations":["Любительский (двухголосый закадровый)"],"seasons_count":1,"episodes_count":8,"episodes":8,"update":"2018-09-25 11:01:09","iframe_src":"//8543.svetacdn.in/si4jsFRrtgrT/tv-series/3206"},{"id":3205,"title":"Дети Дюны","kp_id":"77218","imdb_id":"tt0287839","world_art_id":null,"type":"serial","add":"2018-09-23 10:31:23","orig_title":"Children of Dune","year":"2003-03-16","translations":["Профессиональный (многоголосый закадровый)"],"seasons_count":1,"episodes_count":3,"episodes":3,"update":"2018-09-26 13:54:49","iframe_src":"//8543.svetacdn.in/si4jsFRrtgrT/tv-series/3205"},{"id":3204,"title":"Дюна","kp_id":"229087","imdb_id":"tt0142032","world_art_id":null,"type":"serial","add":"2018-09-23 10:29:08","orig_title":"Dune","year":"2000-12-03","translations":["Профессиональный (многоголосый закадровый)"],"seasons_count":1,"episodes_count":3,"episodes":3,"update":"2018-09-26 13:51:23","iframe_src":"//8543.svetacdn.in/si4jsFRrtgrT/tv-series/3204"},{"id":3197,"title":"Дживс и Вустер","kp_id":"79818","imdb_id":"tt0098833","world_art_id":null,"type":"serial","add":"2018-09-21 10:30:06","orig_title":"Jeeves and Wooster","year":"1990-04-22","translations":["Профессиональный (многоголосый закадровый)"],"seasons_count":4,"episodes_count":23,"episodes":6,"update":"2018-09-22 06:59:15","iframe_src":"//8543.svetacdn.in/si4jsFRrtgrT/tv-series/3197"},{"id":3196,"title":"Шпионка","kp_id":"86234","imdb_id":"tt0285333","world_art_id":null,"type":"serial","add":"2018-09-20 12:22:58","orig_title":"Alias","year":"2001-09-30","translations":["Профессиональный (многоголосый закадровый) (Первый канал | ОРТ)","Профессиональный (многоголосый закадровый) (SET)"],"seasons_count":5,"episodes_count":105,"episodes":17,"update":"2018-09-28 07:35:12","iframe_src":"//8543.svetacdn.in/si4jsFRrtgrT/tv-series/3196"},{"id":2859,"title":"Дубль два","kp_id":"1142523","imdb_id":"tt5612866","world_art_id":null,"type":"serial","add":"2018-06-23 06:32:17","orig_title":"Take Two","year":"2018-06-21","translations":["Любительский (многоголосый закадровый) (ColdFilm)","Профессиональный (многоголосый закадровый) (NewStudio)"],"seasons_count":1,"episodes_count":13,"episodes":13,"update":"2018-09-28 09:09:51","iframe_src":"//8543.svetacdn.in/si4jsFRrtgrT/tv-series/2859"},{"id":2669,"title":"Беззаконный адвокат","kp_id":"1112576","imdb_id":"tt8160178","world_art_id":null,"type":"serial","add":"2018-05-28 05:09:55","orig_title":"Mubeop Byeonhosa","year":"2018-05-13","translations":["Любительский (двухголосый закадровый)","Любительский (двухголосый закадровый) (SoftBox)"],"seasons_count":1,"episodes_count":16,"episodes":16,"update":"2018-09-24 14:48:14","iframe_src":"//8543.svetacdn.in/si4jsFRrtgrT/tv-series/2669"},{"id":2415,"title":"Приключения Электроника","kp_id":"77284","imdb_id":"tt0078673","world_art_id":null,"type":"serial","add":"2018-04-16 23:10:23","orig_title":"Priklyucheniya Elektronika","year":"1980-05-02","translations":["Оригинальная дорожка"],"seasons_count":1,"episodes_count":3,"episodes":3,"update":"2018-09-24 10:09:49","iframe_src":"//8543.svetacdn.in/si4jsFRrtgrT/tv-series/2415"},{"id":1791,"title":"Студия 17","kp_id":"569824","imdb_id":"tt3507712","world_art_id":null,"type":"serial","add":"2017-11-30 13:13:12","orig_title":"Studiya 17","year":"2013-09-30","translations":["Оригинальная дорожка"],"seasons_count":1,"episodes_count":16,"episodes":16,"update":"2018-09-28 09:30:17","iframe_src":"//8543.svetacdn.in/si4jsFRrtgrT/tv-series/1791"},{"id":536,"title":"Универ. Новая общага","kp_id":"630165","imdb_id":"tt3752220","world_art_id":null,"type":"serial","add":"2016-10-18 18:34:35","orig_title":"Univer. Novaya obschaga","year":"2016-10-10","translations":["Оригинальная дорожка"],"seasons_count":15,"episodes_count":294,"episodes":19,"update":"2018-09-25 20:05:48","iframe_src":"//8543.svetacdn.in/si4jsFRrtgrT/tv-series/536"},{"id":6342,"title":"Официантка","kp_id":"195917","imdb_id":"tt0473308","world_art_id":null,"type":"movie","add":"2016-10-16 08:15:57","orig_title":"Waitress","year":"2007-01-21","translations":["Профессиональный (многоголосый закадровый)","Профессиональный (многоголосый закадровый) (Первый канал | ОРТ)","Профессиональный (многоголосый закадровый)","Профессиональный (двухголосый закадровый) (Inter Video)","Original (English)"],"quality":"webdl","translation":"Профессиональный (многоголосый закадровый)","update":"2020-08-14 07:59:14","iframe_src":"//8543.svetacdn.in/si4jsFRrtgrT/movie/6342"},{"id":5635,"title":"Власть страха","kp_id":"4266","imdb_id":"tt0145681","world_art_id":null,"type":"movie","add":"2016-09-28 14:49:13","orig_title":"The Bone Collector","year":"1999-08-29","translations":["Полное дублирование","Профессиональный (многоголосый закадровый)","Профессиональный (двухголосый закадровый) (Garsu Pasaulis)","Original (English)","Полное дублирование","Авторский (одноголосый закадровый) (Визгунов Сергей)","Авторский (одноголосый закадровый) (Гаврилов Андрей)"],"quality":"bd","translation":"Полное дублирование","update":"2020-08-14 08:05:54","iframe_src":"//8543.svetacdn.in/si4jsFRrtgrT/movie/5635"}],"current_page":381,"first_page_url":"https://videocdn.tv/api/short?limit=100&api_token=X6EwAUfE5M9xbo7y0Bp0aPf3uXxG2KLL&cache3381=3381&page=1","from":38001,"last_page":598,"last_page_url":"https://videocdn.tv/api/short?limit=100&api_token=X6EwAUfE5M9xbo7y0Bp0aPf3uXxG2KLL&cache3381=3381&page=598","next_page_url":"https://videocdn.tv/api/short?limit=100&api_token=X6EwAUfE5M9xbo7y0Bp0aPf3uXxG2KLL&cache3381=3381&page=382","path":"https://videocdn.tv/api/short","per_page":100,"prev_page_url":"https://videocdn.tv/api/short?limit=100&api_token=X6EwAUfE5M9xbo7y0Bp0aPf3uXxG2KLL&cache3381=3381&page=380","to":38040,"total":59725}