{"result":true,"data":[{"id":29785,"title":"Дикая земля","kp_id":"1064297","imdb_id":"tt7290778","world_art_id":null,"type":"movie","add":"2019-08-05 23:01:59","orig_title":"L'héroïque lande - La frontière brûle","year":"2017-07-14","translations":["Любительский (многоголосый закадровый) (Синема УС)"],"quality":"webdl","translation":"Любительский (многоголосый закадровый) (Синема УС)","update":"2019-08-06 05:32:07","iframe_src":"//7741.svetacdn.in/IAF0wWTdNYZm/movie/29785"},{"id":29781,"title":"Принцесса Лебедь: Царство музыки","kp_id":"1278933","imdb_id":"tt10551268","world_art_id":null,"type":"movie","add":"2019-08-05 22:43:51","orig_title":"The Swan Princess: Kingdom of Music","year":"2019-08-05","translations":["Профессиональный (многоголосый закадровый)"],"quality":"webdl","translation":"Профессиональный (многоголосый закадровый)","update":"2019-08-06 05:24:41","iframe_src":"//7741.svetacdn.in/IAF0wWTdNYZm/movie/29781"},{"id":29780,"title":"Лея и Я","kp_id":null,"imdb_id":"tt9382396","world_art_id":null,"type":"movie","add":"2019-08-05 22:40:00","orig_title":"Léa & I","year":"2019-08-02","translations":["Любительский (многоголосый закадровый) (Синема УС)"],"quality":"webdl","translation":"Любительский (многоголосый закадровый) (Синема УС)","update":"2019-08-06 05:26:54","iframe_src":"//7741.svetacdn.in/IAF0wWTdNYZm/movie/29780"},{"id":29779,"title":"Гики, и где их искать","kp_id":null,"imdb_id":"tt10131230","world_art_id":null,"type":"movie","add":"2019-08-05 22:34:37","orig_title":"Geek, and You Shall Find","year":"2019-04-07","translations":["Любительский (многоголосый закадровый) (Синема УС)"],"quality":"bd","translation":"Любительский (многоголосый закадровый) (Синема УС)","update":"2019-08-06 05:28:16","iframe_src":"//7741.svetacdn.in/IAF0wWTdNYZm/movie/29779"},{"id":29778,"title":"Спящий","kp_id":"920000","imdb_id":"tt4823486","world_art_id":null,"type":"movie","add":"2019-08-05 22:32:44","orig_title":"Dormant","year":"2018-04-21","translations":["Любительский (многоголосый закадровый) (Синема УС)"],"quality":"webdl","translation":"Любительский (многоголосый закадровый) (Синема УС)","update":"2019-08-06 05:30:00","iframe_src":"//7741.svetacdn.in/IAF0wWTdNYZm/movie/29778"},{"id":29770,"title":"Раунд твоей жизни","kp_id":"944060","imdb_id":"tt5190578","world_art_id":null,"type":"movie","add":"2019-08-05 20:00:16","orig_title":"Round of Your Life","year":"2017-01-01","translations":["Любительский (многоголосый закадровый) (Синема УС)"],"quality":"webdl","translation":"Любительский (многоголосый закадровый) (Синема УС)","update":"2019-08-06 05:52:23","iframe_src":"//7741.svetacdn.in/IAF0wWTdNYZm/movie/29770"},{"id":29769,"title":"Копатели","kp_id":"1005971","imdb_id":"tt6096254","world_art_id":null,"type":"movie","add":"2019-08-05 19:57:38","orig_title":"The Diggers","year":"2019-05-31","translations":["Любительский (многоголосый закадровый) (Синема УС)"],"quality":"webdl","translation":"Любительский (многоголосый закадровый) (Синема УС)","update":"2019-08-06 05:51:55","iframe_src":"//7741.svetacdn.in/IAF0wWTdNYZm/movie/29769"},{"id":29768,"title":"Один день в Берлине","kp_id":"1070340","imdb_id":"tt6755924","world_art_id":null,"type":"movie","add":"2019-08-05 19:55:03","orig_title":"Only One Day in Berlin","year":"2018-02-19","translations":["Любительский (многоголосый закадровый) (Синема УС)"],"quality":"webdl","translation":"Любительский (многоголосый закадровый) (Синема УС)","update":"2019-08-06 05:51:11","iframe_src":"//7741.svetacdn.in/IAF0wWTdNYZm/movie/29768"},{"id":29767,"title":"Хевен, дочь Ангела","kp_id":"1060182","imdb_id":"tt5834576","world_art_id":null,"type":"movie","add":"2019-08-05 19:53:20","orig_title":"V.C. Andrews' Heaven","year":"2019-07-27","translations":["Любительский (многоголосый закадровый) (Синема УС)"],"quality":"webdl","translation":"Любительский (многоголосый закадровый) (Синема УС)","update":"2019-08-06 05:50:20","iframe_src":"//7741.svetacdn.in/IAF0wWTdNYZm/movie/29767"},{"id":29766,"title":"Я люблю тебя","kp_id":"1192169","imdb_id":"tt9015764","world_art_id":null,"type":"movie","add":"2019-08-05 19:36:56","orig_title":"Itoshi no Irene","year":"2018-09-14","translations":["Любительский (многоголосый закадровый) (Синема УС)"],"quality":"bd","translation":"Любительский (многоголосый закадровый) (Синема УС)","update":"2019-08-06 05:49:39","iframe_src":"//7741.svetacdn.in/IAF0wWTdNYZm/movie/29766"},{"id":29765,"title":"Леон","kp_id":"1119553","imdb_id":"tt7891670","world_art_id":null,"type":"movie","add":"2019-08-05 19:34:58","orig_title":"El gran León","year":"2018-01-01","translations":["Любительский (многоголосый закадровый) (Синема УС)"],"quality":"webdl","translation":"Любительский (многоголосый закадровый) (Синема УС)","update":"2019-08-06 05:49:04","iframe_src":"//7741.svetacdn.in/IAF0wWTdNYZm/movie/29765"},{"id":29764,"title":"Красное с зелёным","kp_id":"1265965","imdb_id":"tt9050330","world_art_id":null,"type":"movie","add":"2019-08-05 19:32:50","orig_title":"Ann Rolls Green","year":"2018-06-11","translations":["Любительский (многоголосый закадровый) (Синема УС)"],"quality":"webdl","translation":"Любительский (многоголосый закадровый) (Синема УС)","update":"2019-08-06 05:48:16","iframe_src":"//7741.svetacdn.in/IAF0wWTdNYZm/movie/29764"},{"id":29763,"title":"Смертельная поездка","kp_id":"1205058","imdb_id":"tt9115170","world_art_id":null,"type":"movie","add":"2019-08-05 19:30:35","orig_title":"Deadly Dispatch","year":"2019-07-28","translations":["Профессиональный (многоголосый закадровый) (AlphaProject)"],"quality":"hdtv","translation":"Профессиональный (многоголосый закадровый) (AlphaProject)","update":"2019-08-06 05:47:48","iframe_src":"//7741.svetacdn.in/IAF0wWTdNYZm/movie/29763"},{"id":29760,"title":"Крупная ставка","kp_id":"87487","imdb_id":"tt0404163","world_art_id":null,"type":"movie","add":"2019-08-05 18:38:22","orig_title":"Even Money","year":"2005-03-07","translations":["Профессиональный (многоголосый закадровый)"],"quality":"dvdrip","translation":"Профессиональный (многоголосый закадровый)","update":"2019-08-06 05:52:22","iframe_src":"//7741.svetacdn.in/IAF0wWTdNYZm/movie/29760"},{"id":29759,"title":"Пятница Фостер","kp_id":"25178","imdb_id":"tt0073019","world_art_id":null,"type":"movie","add":"2019-08-05 18:19:28","orig_title":"Friday Foster","year":"1975-12-25","translations":["Профессиональный (многоголосый закадровый)"],"quality":"bd","translation":"Профессиональный (многоголосый закадровый)","update":"2019-08-06 05:34:05","iframe_src":"//7741.svetacdn.in/IAF0wWTdNYZm/movie/29759"},{"id":29080,"title":"Семья","kp_id":"1012286","imdb_id":"tt6268882","world_art_id":null,"type":"movie","add":"2019-07-17 19:47:24","orig_title":"Family","year":"2018-03-11","translations":["Любительский (многоголосый закадровый) (Синема УС)","Профессиональный (многоголосый закадровый)"],"quality":"webdl","translation":"Любительский (многоголосый закадровый) (Синема УС)","update":"2019-08-06 05:45:43","iframe_src":"//7741.svetacdn.in/IAF0wWTdNYZm/movie/29080"},{"id":29012,"title":"Тренинг личностного роста","kp_id":"1181152","imdb_id":null,"world_art_id":null,"type":"movie","add":"2019-07-15 06:22:44","orig_title":"Тренинг личностного роста","year":"2018-10-06","translations":["Оригинальная дорожка","Оригинальная дорожка"],"quality":"ts","translation":"Оригинальная дорожка","update":"2019-08-05 20:45:22","iframe_src":"//7741.svetacdn.in/IAF0wWTdNYZm/movie/29012"},{"id":26338,"title":"Честный человек","kp_id":"1113122","imdb_id":"tt8075202","world_art_id":null,"type":"movie","add":"2019-05-11 20:58:07","orig_title":"L'homme fidele","year":"2018-09-09","translations":["Любительский (многоголосый закадровый) (Синема УС)","Профессиональный (многоголосый закадровый)","Профессиональный (многоголосый закадровый)"],"quality":"webdl","translation":"Любительский (многоголосый закадровый) (Синема УС)","update":"2019-08-06 05:17:41","iframe_src":"//7741.svetacdn.in/IAF0wWTdNYZm/movie/26338"},{"id":21363,"title":"Выпускной","kp_id":"279708","imdb_id":"tt0926129","world_art_id":null,"type":"movie","add":"2019-01-09 11:30:09","orig_title":"Prom Night","year":"2008-04-10","translations":["Профессиональный (многоголосый закадровый)","[EN] Original (English)"],"quality":"bd","translation":"Профессиональный (многоголосый закадровый)","update":"2019-08-05 13:52:57","iframe_src":"//7741.svetacdn.in/IAF0wWTdNYZm/movie/21363"},{"id":15298,"title":"Холостяки","kp_id":"958542","imdb_id":"tt5253282","world_art_id":null,"type":"movie","add":"2018-02-25 05:40:56","orig_title":"The Bachelors","year":"2017-06-20","translations":["Любительский (многоголосый закадровый) (Синема УС)","Полное дублирование"],"quality":"webdl","translation":"Любительский (многоголосый закадровый) (Синема УС)","update":"2019-08-06 05:44:50","iframe_src":"//7741.svetacdn.in/IAF0wWTdNYZm/movie/15298"}],"current_page":1643,"first_page_url":"https://videocdn.tv/api/short?limit=100&api_token=6Onb1W1alEUrBcKJZD3GoKBbWyAl2uG2&cache31643=31643&page=1","from":164201,"last_page":707,"last_page_url":"https://videocdn.tv/api/short?limit=100&api_token=6Onb1W1alEUrBcKJZD3GoKBbWyAl2uG2&cache31643=31643&page=707","next_page_url":null,"path":"https://videocdn.tv/api/short","per_page":100,"prev_page_url":"https://videocdn.tv/api/short?limit=100&api_token=6Onb1W1alEUrBcKJZD3GoKBbWyAl2uG2&cache31643=31643&page=1642","to":164220,"total":70679}