{"result":true,"data":[{"id":47414,"title":"Простая история","kp_id":"35720","imdb_id":"tt0102987","world_art_id":null,"type":"movie","add":"2021-01-26 10:17:59","orig_title":"Una storia semplice","year":"1991-09-03","translations":["Любительский (одноголосый закадровый) (Герусов)"],"quality":"tv","translation":"Любительский (одноголосый закадровый) (Герусов)","update":"2021-01-26 12:33:48","iframe_src":"//7043.svetacdn.in/si4jsFRrtgrT/movie/47414"},{"id":47408,"title":"Петля","kp_id":"1400930","imdb_id":"tt12841318","world_art_id":null,"type":"movie","add":"2021-01-26 08:18:17","orig_title":"Petla","year":"2020-09-04","translations":["Любительский (многоголосый закадровый) (Синема УС)"],"quality":"bd","translation":"Любительский (многоголосый закадровый) (Синема УС)","update":"2021-01-26 12:54:59","iframe_src":"//7043.svetacdn.in/si4jsFRrtgrT/movie/47408"},{"id":47402,"title":"Сон 2","kp_id":null,"imdb_id":"tt9531530","world_art_id":null,"type":"movie","add":"2021-01-26 07:28:20","orig_title":"The Dream 2","year":"2019-04-08","translations":["Любительский (многоголосый закадровый) (AlphaProject)"],"quality":"webdl","translation":"Любительский (многоголосый закадровый) (AlphaProject)","update":"2021-01-26 08:30:56","iframe_src":"//7043.svetacdn.in/si4jsFRrtgrT/movie/47402"},{"id":47400,"title":"Призрак","kp_id":"713702","imdb_id":"tt1519633","world_art_id":null,"type":"movie","add":"2021-01-26 05:49:35","orig_title":"Gwi","year":"2009-10-09","translations":["Профессиональный (многоголосый закадровый)"],"quality":"webdl","translation":"Профессиональный (многоголосый закадровый)","update":"2021-01-26 11:08:56","iframe_src":"//7043.svetacdn.in/si4jsFRrtgrT/movie/47400"},{"id":47383,"title":"Чернее","kp_id":"1372423","imdb_id":"tt12092890","world_art_id":null,"type":"movie","add":"2021-01-25 15:23:30","orig_title":"Blackened","year":"2019-05-23","translations":["Любительский (многоголосый закадровый) (Синема УС)"],"quality":"webdl","translation":"Любительский (многоголосый закадровый) (Синема УС)","update":"2021-01-26 11:54:01","iframe_src":"//7043.svetacdn.in/si4jsFRrtgrT/movie/47383"},{"id":47381,"title":"Современный отец","kp_id":"1349105","imdb_id":"tt11809212","world_art_id":null,"type":"movie","add":"2021-01-25 15:16:02","orig_title":"Father of Today","year":"2020-07-08","translations":["Любительский (многоголосый закадровый) (Синема УС)"],"quality":"webdl","translation":"Любительский (многоголосый закадровый) (Синема УС)","update":"2021-01-26 10:33:30","iframe_src":"//7043.svetacdn.in/si4jsFRrtgrT/movie/47381"},{"id":47379,"title":"К свиданиям готова","kp_id":null,"imdb_id":"tt10077042","world_art_id":null,"type":"movie","add":"2021-01-25 15:08:43","orig_title":"Single & Ready","year":"2019-04-04","translations":["Любительский (многоголосый закадровый) (Синема УС)"],"quality":"webdl","translation":"Любительский (многоголосый закадровый) (Синема УС)","update":"2021-01-26 12:15:21","iframe_src":"//7043.svetacdn.in/si4jsFRrtgrT/movie/47379"},{"id":47378,"title":"Сюрприз от бабушки","kp_id":"1236865","imdb_id":"tt9695258","world_art_id":null,"type":"movie","add":"2021-01-25 15:05:06","orig_title":"Salir del ropero","year":"2019-10-20","translations":["Любительский (многоголосый закадровый) (Синема УС)"],"quality":"webdl","translation":"Любительский (многоголосый закадровый) (Синема УС)","update":"2021-01-26 11:55:22","iframe_src":"//7043.svetacdn.in/si4jsFRrtgrT/movie/47378"},{"id":47376,"title":"Акулий вирус","kp_id":null,"imdb_id":"tt13785940","world_art_id":null,"type":"movie","add":"2021-01-25 15:00:43","orig_title":"Virus Shark","year":"2021-04-13","translations":["Любительский (многоголосый закадровый) (Синема УС)"],"quality":"webdl","translation":"Любительский (многоголосый закадровый) (Синема УС)","update":"2021-01-26 10:34:05","iframe_src":"//7043.svetacdn.in/si4jsFRrtgrT/movie/47376"},{"id":46266,"title":"Поезд","kp_id":"77361","imdb_id":"tt0070826","world_art_id":null,"type":"movie","add":"2020-12-20 10:02:58","orig_title":"Le train","year":"1973-10-31","translations":["Профессиональный (двухголосый закадровый)","Профессиональный (многоголосый закадровый) (Первый канал | ОРТ)"],"quality":"bd","translation":"Профессиональный (двухголосый закадровый)","update":"2021-01-26 11:04:21","iframe_src":"//7043.svetacdn.in/si4jsFRrtgrT/movie/46266"},{"id":46210,"title":"Брешь","kp_id":"1273044","imdb_id":"tt9820556","world_art_id":null,"type":"movie","add":"2020-12-18 11:06:42","orig_title":"Breach","year":"2020-12-18","translations":["Original (English)","Полное дублирование","Любительский (одноголосый закадровый)","Полное дублирование (iTunes)"],"quality":"webdl","translation":"Original (English)","update":"2021-01-26 08:29:56","iframe_src":"//7043.svetacdn.in/si4jsFRrtgrT/movie/46210"},{"id":44004,"title":"Глории","kp_id":"1100969","imdb_id":"tt7435316","world_art_id":null,"type":"movie","add":"2020-09-30 20:01:18","orig_title":"The Glorias","year":"2020-01-26","translations":["Любительский (многоголосый закадровый) (@MUZOBOZ@)","Original (English)","Профессиональный (многоголосый закадровый) (iTunes)"],"quality":"webdl","translation":"Любительский (многоголосый закадровый) (@MUZOBOZ@)","update":"2021-01-26 11:05:27","iframe_src":"//7043.svetacdn.in/si4jsFRrtgrT/movie/44004"},{"id":40328,"title":"Капоне. Лицо со шрамом","kp_id":"1007761","imdb_id":"tt6199572","world_art_id":null,"type":"movie","add":"2020-05-12 18:09:39","orig_title":"Capone","year":"2020-05-12","translations":["Любительский (многоголосый закадровый) (AlphaProject)","Любительский (двухголосый закадровый) (LakeFilms)","Профессиональный (многоголосый закадровый) (HDrezka Studio)","Original (English)","Полное дублирование","Полное дублирование (iTunes)","Авторский (одноголосый закадровый) (Яроцкий Михаил | Kyberpunk)"],"quality":"webdl","translation":"Любительский (многоголосый закадровый) (AlphaProject)","update":"2021-01-26 12:48:28","iframe_src":"//7043.svetacdn.in/si4jsFRrtgrT/movie/40328"},{"id":7349,"title":"Алый мыс","kp_id":"731872","imdb_id":"tt1534363","world_art_id":null,"type":"serial","add":"2020-04-30 12:58:36","orig_title":"Punta Escarlata","year":"2011-07-20","translations":["Профессиональный (многоголосый закадровый) (Русский репортаж)"],"seasons_count":1,"episodes_count":12,"episodes":12,"update":"2020-04-30 20:27:29","iframe_src":"//7043.svetacdn.in/si4jsFRrtgrT/tv-series/7349"},{"id":7347,"title":"Погружение","kp_id":"783193","imdb_id":"tt3907134","world_art_id":null,"type":"serial","add":"2020-04-30 05:04:15","orig_title":"Pogruzhenie","year":"2013-11-02","translations":["Оригинальная дорожка"],"seasons_count":1,"episodes_count":4,"episodes":4,"update":"2020-04-30 07:22:16","iframe_src":"//7043.svetacdn.in/si4jsFRrtgrT/tv-series/7347"},{"id":7343,"title":"Карин и её собака","kp_id":"467937","imdb_id":"tt0196260","world_art_id":null,"type":"serial","add":"2020-04-29 19:29:48","orig_title":"Karine et Ari","year":"1996-12-16","translations":["Профессиональный (многоголосый закадровый) (Первый канал | ОРТ)"],"seasons_count":1,"episodes_count":48,"episodes":48,"update":"2020-04-30 16:53:36","iframe_src":"//7043.svetacdn.in/si4jsFRrtgrT/tv-series/7343"},{"id":7342,"title":"Одно большое счастье","kp_id":"823717","imdb_id":"tt3501016","world_art_id":null,"type":"serial","add":"2020-04-29 19:24:26","orig_title":"One Big Happy","year":"2015-03-17","translations":["Любительский (двухголосый закадровый) (Jetvis Studio)"],"seasons_count":1,"episodes_count":6,"episodes":6,"update":"2020-04-30 16:22:48","iframe_src":"//7043.svetacdn.in/si4jsFRrtgrT/tv-series/7342"},{"id":7341,"title":"Жизнь и приключения робота-подростка","kp_id":"416180","imdb_id":"tt0318233","world_art_id":null,"type":"serial","add":"2020-04-29 17:53:43","orig_title":"My Life as a Teenage Robot","year":"2003-08-01","translations":["Полное дублирование"],"seasons_count":3,"episodes_count":61,"episodes":13,"update":"2020-04-30 18:43:09","iframe_src":"//7043.svetacdn.in/si4jsFRrtgrT/tv-series/7341"},{"id":7339,"title":"Где ты, Челси?","kp_id":"586590","imdb_id":"tt1826989","world_art_id":null,"type":"serial","add":"2020-04-29 14:35:12","orig_title":"Are You There, Chelsea?","year":"2013-12-21","translations":["Любительский (одноголосый закадровый)"],"seasons_count":1,"episodes_count":12,"episodes":12,"update":"2020-04-30 08:56:57","iframe_src":"//7043.svetacdn.in/si4jsFRrtgrT/tv-series/7339"},{"id":7338,"title":"Фи, Чи, Пи","kp_id":"1044486","imdb_id":"tt6724368","world_art_id":null,"type":"serial","add":"2020-04-29 14:25:07","orig_title":"Fi","year":"2017-03-31","translations":["Авторский (одноголосый закадровый) (Котова Ирина)"],"seasons_count":2,"episodes_count":22,"episodes":10,"update":"2020-04-30 09:35:56","iframe_src":"//7043.svetacdn.in/si4jsFRrtgrT/tv-series/7338"},{"id":7337,"title":"Ферма во времена Тюдоров","kp_id":"861635","imdb_id":"tt4103600","world_art_id":null,"type":"serial","add":"2020-04-29 13:48:18","orig_title":"Tudor Monastery Farm","year":"2013-11-13","translations":["Профессиональный (одноголосый закадровый)"],"seasons_count":1,"episodes_count":6,"episodes":6,"update":"2020-04-30 09:23:18","iframe_src":"//7043.svetacdn.in/si4jsFRrtgrT/tv-series/7337"},{"id":7336,"title":"Выхожу тебя искать 2","kp_id":"681878","imdb_id":"tt4113960","world_art_id":null,"type":"serial","add":"2020-04-29 13:07:34","orig_title":"Vykhozhu tebya iskat' 2","year":"2012-01-01","translations":["Оригинальная дорожка"],"seasons_count":1,"episodes_count":12,"episodes":12,"update":"2020-04-30 08:48:56","iframe_src":"//7043.svetacdn.in/si4jsFRrtgrT/tv-series/7336"},{"id":7334,"title":"Грехи отцов","kp_id":"405689","imdb_id":"tt1168367","world_art_id":null,"type":"serial","add":"2020-04-29 12:45:29","orig_title":"Grekhi ottsov","year":"2004-10-11","translations":["Оригинальная дорожка"],"seasons_count":1,"episodes_count":29,"episodes":29,"update":"2020-04-30 08:40:29","iframe_src":"//7043.svetacdn.in/si4jsFRrtgrT/tv-series/7334"},{"id":7328,"title":"Вайпер","kp_id":"330337","imdb_id":"tt0108983","world_art_id":null,"type":"serial","add":"2020-04-28 18:23:57","orig_title":"Viper","year":"1994-01-02","translations":["Профессиональный (многоголосый закадровый)"],"seasons_count":2,"episodes_count":42,"episodes":21,"update":"2020-04-30 18:22:18","iframe_src":"//7043.svetacdn.in/si4jsFRrtgrT/tv-series/7328"},{"id":7311,"title":"Том и Джерри","kp_id":"1145146","imdb_id":"tt12187982","world_art_id":null,"type":"serial","add":"2020-04-26 09:35:21","orig_title":"Tom and Jerry","year":"1940-02-10","translations":["Профессиональный (многоголосый закадровый) (СТС)","Профессиональный (многоголосый закадровый)"],"seasons_count":3,"episodes_count":157,"episodes":34,"update":"2020-04-30 16:16:57","iframe_src":"//7043.svetacdn.in/si4jsFRrtgrT/tv-series/7311"},{"id":7192,"title":"Чудеса инженерии","kp_id":"581413","imdb_id":"tt1224381","world_art_id":null,"type":"serial","add":"2020-04-14 17:30:11","orig_title":"Big, Bigger, Biggest","year":"2008-04-01","translations":["Профессиональный (одноголосый закадровый)"],"seasons_count":3,"episodes_count":20,"episodes":6,"update":"2020-04-30 17:34:36","iframe_src":"//7043.svetacdn.in/si4jsFRrtgrT/tv-series/7192"},{"id":7165,"title":"Тодд и книга чистого зла","kp_id":"579850","imdb_id":"tt1558128","world_art_id":null,"type":"serial","add":"2020-04-13 08:25:01","orig_title":"Todd and the Book of Pure Evil","year":"2010-09-26","translations":["Любительский (многоголосый закадровый) (Alternative Production)","Любительский (многоголосый закадровый)"],"seasons_count":2,"episodes_count":26,"episodes":13,"update":"2020-04-30 10:39:32","iframe_src":"//7043.svetacdn.in/si4jsFRrtgrT/tv-series/7165"},{"id":39069,"title":"Убийство","kp_id":"824451","imdb_id":"tt3501416","world_art_id":null,"type":"movie","add":"2020-04-09 12:13:04","orig_title":"Amsal","year":"2015-07-22","translations":["Любительский (двухголосый закадровый)","Профессиональный (многоголосый закадровый) (Кириллица)"],"quality":"bd","translation":"Любительский (двухголосый закадровый)","update":"2021-01-26 08:05:16","iframe_src":"//7043.svetacdn.in/si4jsFRrtgrT/movie/39069"},{"id":6790,"title":"Дэйв","kp_id":"1245489","imdb_id":"tt8531222","world_art_id":null,"type":"serial","add":"2020-03-05 13:53:21","orig_title":"Dave","year":"2020-03-04","translations":["Любительский (многоголосый закадровый) (Octopus)","Любительский (многоголосый закадровый) (ColdFilm)"],"seasons_count":1,"episodes_count":10,"episodes":10,"update":"2020-05-01 05:22:21","iframe_src":"//7043.svetacdn.in/si4jsFRrtgrT/tv-series/6790"},{"id":33866,"title":"Рисунки Хокусая","kp_id":"96128","imdb_id":"tt0202908","world_art_id":null,"type":"movie","add":"2019-12-09 18:38:08","orig_title":"Hokusai manga","year":"1981-09-12","translations":["Любительский (одноголосый закадровый) (Воротилин Олег)","Авторский (одноголосый закадровый) (Воротилин Олег)"],"quality":"dvdrip","translation":"Любительский (одноголосый закадровый) (Воротилин Олег)","update":"2021-01-26 10:54:05","iframe_src":"//7043.svetacdn.in/si4jsFRrtgrT/movie/33866"},{"id":26751,"title":"Тихие страницы","kp_id":"40759","imdb_id":"tt0108338","world_art_id":null,"type":"movie","add":"2019-05-19 16:03:25","orig_title":"Tikhie stranitsy","year":"1994-02-12","translations":["Оригинальная дорожка"],"quality":"bd","translation":"Оригинальная дорожка","update":"2021-01-26 12:46:55","iframe_src":"//7043.svetacdn.in/si4jsFRrtgrT/movie/26751"},{"id":22873,"title":"Про бизнесмена Фому","kp_id":"40965","imdb_id":"tt0365656","world_art_id":null,"type":"movie","add":"2019-03-10 16:20:19","orig_title":"Pro biznesmena Fomu","year":"1993-01-01","translations":["Оригинальная дорожка"],"quality":"tc","translation":"Оригинальная дорожка","update":"2021-01-26 10:56:07","iframe_src":"//7043.svetacdn.in/si4jsFRrtgrT/movie/22873"},{"id":3872,"title":"Обученные","kp_id":"1018411","imdb_id":"tt6546758","world_art_id":null,"type":"serial","add":"2019-01-14 09:01:29","orig_title":"Schooled","year":"2019-01-09","translations":["Профессиональный (многоголосый закадровый) (Jaskier)","Профессиональный (многоголосый закадровый) (NewStudio)","Профессиональный (многоголосый закадровый) (TVShows)","Профессиональный (многоголосый закадровый) (HDrezka Studio)"],"seasons_count":2,"episodes_count":31,"episodes":18,"update":"2020-04-30 09:34:04","iframe_src":"//7043.svetacdn.in/si4jsFRrtgrT/tv-series/3872"},{"id":3255,"title":"Ниндзяго: Мастера Кружитцу","kp_id":"592052","imdb_id":"tt1871731","world_art_id":null,"type":"serial","add":"2018-10-02 14:14:13","orig_title":"Ninjago: Masters of Spinjitzu","year":"2011-12-02","translations":["Полное дублирование"],"seasons_count":11,"episodes_count":128,"episodes":30,"update":"2020-04-30 07:15:38","iframe_src":"//7043.svetacdn.in/si4jsFRrtgrT/tv-series/3255"},{"id":1880,"title":"Врата","kp_id":"503686","imdb_id":"tt1599357","world_art_id":null,"type":"serial","add":"2017-12-21 06:14:51","orig_title":"The Gates","year":"2010-06-20","translations":["Профессиональный (многоголосый закадровый) (Первый канал | ОРТ)"],"seasons_count":1,"episodes_count":13,"episodes":13,"update":"2020-04-30 15:24:53","iframe_src":"//7043.svetacdn.in/si4jsFRrtgrT/tv-series/1880"},{"id":1030,"title":"Прослушка","kp_id":"402955","imdb_id":"tt0306414","world_art_id":null,"type":"serial","add":"2017-02-19 11:46:42","orig_title":"The Wire","year":"2002-06-02","translations":["Профессиональный (многоголосый закадровый) (FOX)","Авторский (одноголосый закадровый) (Сербин Юрий)"],"seasons_count":5,"episodes_count":60,"episodes":10,"update":"2020-04-30 21:13:53","iframe_src":"//7043.svetacdn.in/si4jsFRrtgrT/tv-series/1030"},{"id":916,"title":"Истории свинок","kp_id":"843400","imdb_id":"tt3674118","world_art_id":null,"type":"serial","add":"2017-01-20 07:14:56","orig_title":"Piggy Tales","year":"2014-04-11","translations":["Оригинальная дорожка"],"seasons_count":1,"episodes_count":35,"episodes":35,"update":"2020-04-30 17:29:16","iframe_src":"//7043.svetacdn.in/si4jsFRrtgrT/tv-series/916"},{"id":4554,"title":"Спринт","kp_id":"785191","imdb_id":"tt4621878","world_art_id":null,"type":"movie","add":"2016-08-19 06:53:43","orig_title":"Sprint","year":"2015-04-13","translations":["Оригинальная дорожка","Оригинальная дорожка"],"quality":"webdl","translation":"Оригинальная дорожка","update":"2021-01-26 08:28:20","iframe_src":"//7043.svetacdn.in/si4jsFRrtgrT/movie/4554"},{"id":2082,"title":"Никита","kp_id":"14301","imdb_id":"tt0100263","world_art_id":null,"type":"movie","add":"2016-05-11 15:04:38","orig_title":"Nikita","year":"1990-02-21","translations":["Профессиональный (многоголосый закадровый)","Авторский (одноголосый закадровый) (Живов Юрий)","Профессиональный (двухголосый закадровый) (Гланц + Королёва)","Профессиональный (многоголосый закадровый) (Amalgama)","Профессиональный (многоголосый закадровый) (Видеосервис)"],"quality":"bd","translation":"Профессиональный (многоголосый закадровый)","update":"2021-01-26 08:09:06","iframe_src":"//7043.svetacdn.in/si4jsFRrtgrT/movie/2082"},{"id":444,"title":"Драйв","kp_id":"276598","imdb_id":"tt0780504","world_art_id":null,"type":"movie","add":"2016-04-01 18:27:46","orig_title":"Drive","year":"2011-05-20","translations":["Полное дублирование","Original (English)","Авторский (одноголосый закадровый) (Дольский Андрей)","Авторский (одноголосый закадровый) (Матвеев Алексей | Doctor Joker)","Авторский (одноголосый закадровый) (Сербин Юрий)","Полное дублирование (Пифагор)","Original (English)","Профессиональный (двухголосый закадровый) (Кубик в Кубе)"],"quality":"bd","translation":"Полное дублирование","update":"2021-01-26 07:48:23","iframe_src":"//7043.svetacdn.in/si4jsFRrtgrT/movie/444"}],"current_page":213,"first_page_url":"https://videocdn.tv/api/short?limit=100&api_token=X6EwAUfE5M9xbo7y0Bp0aPf3uXxG2KLL&cache3213=3213&page=1","from":21201,"last_page":617,"last_page_url":"https://videocdn.tv/api/short?limit=100&api_token=X6EwAUfE5M9xbo7y0Bp0aPf3uXxG2KLL&cache3213=3213&page=617","next_page_url":"https://videocdn.tv/api/short?limit=100&api_token=X6EwAUfE5M9xbo7y0Bp0aPf3uXxG2KLL&cache3213=3213&page=214","path":"https://videocdn.tv/api/short","per_page":100,"prev_page_url":"https://videocdn.tv/api/short?limit=100&api_token=X6EwAUfE5M9xbo7y0Bp0aPf3uXxG2KLL&cache3213=3213&page=212","to":21240,"total":61643}