{"result":true,"data":[{"id":50621,"title":"Полный отрыв","kp_id":"909856","imdb_id":"tt4675030","world_art_id":null,"type":"movie","add":"2021-05-24 18:48:43","orig_title":"Great Grand Masti","year":"2016-07-15","translations":["Любительский (многоголосый закадровый) (FanStudio)"],"quality":"webdl","translation":"Любительский (многоголосый закадровый) (FanStudio)","update":"2021-05-25 04:25:38","iframe_src":"//8209.svetacdn.in/71tsRs29n5tZ/movie/50621"},{"id":50620,"title":"Станцуем бангру","kp_id":"1249466","imdb_id":"tt9766280","world_art_id":null,"type":"movie","add":"2021-05-24 18:46:51","orig_title":"Bhangra Paa Le","year":"2020-01-03","translations":["Любительский (многоголосый закадровый) (OnisFilms)"],"quality":"webdl","translation":"Любительский (многоголосый закадровый) (OnisFilms)","update":"2021-05-25 04:25:23","iframe_src":"//8209.svetacdn.in/71tsRs29n5tZ/movie/50620"},{"id":50618,"title":"Беспокойная любовь","kp_id":"1151602","imdb_id":"tt7884086","world_art_id":null,"type":"movie","add":"2021-05-24 18:39:22","orig_title":"Pareshaan Parinda","year":"2018-03-23","translations":["Профессиональный (многоголосый закадровый) (Bollywood HD)"],"quality":"webdl","translation":"Профессиональный (многоголосый закадровый) (Bollywood HD)","update":"2021-05-25 04:24:25","iframe_src":"//8209.svetacdn.in/71tsRs29n5tZ/movie/50618"},{"id":50617,"title":"Цветок кофе","kp_id":"889722","imdb_id":"tt3666258","world_art_id":null,"type":"movie","add":"2021-05-24 18:37:25","orig_title":"Coffee Bloom","year":"2015-03-06","translations":["Профессиональный (двухголосый закадровый) (Bollywood HD)"],"quality":"hdrip","translation":"Профессиональный (двухголосый закадровый) (Bollywood HD)","update":"2021-05-25 04:24:04","iframe_src":"//8209.svetacdn.in/71tsRs29n5tZ/movie/50617"},{"id":50616,"title":"Настоящий Арджун","kp_id":"78494","imdb_id":"tt0098976","world_art_id":null,"type":"movie","add":"2021-05-24 18:34:13","orig_title":"Aaj Ka Arjun","year":"1990-08-10","translations":["Профессиональный (многоголосый закадровый)"],"quality":"webdl","translation":"Профессиональный (многоголосый закадровый)","update":"2021-05-25 04:23:48","iframe_src":"//8209.svetacdn.in/71tsRs29n5tZ/movie/50616"},{"id":50614,"title":"Принцесса и бандит","kp_id":"1358293","imdb_id":null,"world_art_id":null,"type":"movie","add":"2021-05-24 11:01:51","orig_title":"Принцесса и бандит","year":"2020-01-01","translations":["Оригинальная дорожка"],"quality":"webdl","translation":"Оригинальная дорожка","update":"2021-05-24 15:43:27","iframe_src":"//8209.svetacdn.in/71tsRs29n5tZ/movie/50614"},{"id":50613,"title":"Одеялко","kp_id":null,"imdb_id":"tt13016748","world_art_id":null,"type":"movie","add":"2021-05-24 10:59:25","orig_title":"Blanket","year":"2020-10-12","translations":["Оригинальная дорожка"],"quality":"webdl","translation":"Оригинальная дорожка","update":"2021-05-24 15:44:34","iframe_src":"//8209.svetacdn.in/71tsRs29n5tZ/movie/50613"},{"id":50611,"title":"Эка и козленок","kp_id":"269659","imdb_id":"tt0821770","world_art_id":null,"type":"movie","add":"2021-05-24 09:39:34","orig_title":"Eka da tikani","year":"1978-01-01","translations":["Оригинальная дорожка"],"quality":"tc","translation":"Оригинальная дорожка","update":"2021-05-25 04:04:20","iframe_src":"//8209.svetacdn.in/71tsRs29n5tZ/movie/50611"},{"id":50610,"title":"Лето с Моникой","kp_id":"94735","imdb_id":"tt0046345","world_art_id":null,"type":"movie","add":"2021-05-24 09:26:29","orig_title":"Sommaren med Monika","year":"1953-02-09","translations":["Профессиональный (многоголосый закадровый)"],"quality":"bd","translation":"Профессиональный (многоголосый закадровый)","update":"2021-05-25 04:00:09","iframe_src":"//8209.svetacdn.in/71tsRs29n5tZ/movie/50610"},{"id":50564,"title":"Почему мне нравится слон","kp_id":"445508","imdb_id":"tt1359588","world_art_id":null,"type":"movie","add":"2021-05-22 23:03:00","orig_title":"Pochemu mne nravitsya slon","year":"1983-01-01","translations":["Оригинальная дорожка"],"quality":"dvdrip","translation":"Оригинальная дорожка","update":"2021-05-24 12:07:11","iframe_src":"//8209.svetacdn.in/71tsRs29n5tZ/movie/50564"},{"id":50563,"title":"Избранник судьбы","kp_id":"615824","imdb_id":"tt5687002","world_art_id":null,"type":"movie","add":"2021-05-22 22:57:13","orig_title":"Izbrannik sudby","year":"1987-08-14","translations":["Оригинальная дорожка"],"quality":"sat","translation":"Оригинальная дорожка","update":"2021-05-24 12:08:38","iframe_src":"//8209.svetacdn.in/71tsRs29n5tZ/movie/50563"},{"id":50562,"title":"Акаиро","kp_id":"471845","imdb_id":"tt8347618","world_art_id":null,"type":"movie","add":"2021-05-22 22:53:37","orig_title":"Akairo","year":"1980-01-01","translations":["Оригинальная дорожка"],"quality":"dvdrip","translation":"Оригинальная дорожка","update":"2021-05-24 12:09:32","iframe_src":"//8209.svetacdn.in/71tsRs29n5tZ/movie/50562"},{"id":50561,"title":"Извините, пожалуйста","kp_id":"42678","imdb_id":"tt0251752","world_art_id":null,"type":"movie","add":"2021-05-22 22:49:21","orig_title":"Atsiprasau","year":"1982-12-05","translations":["Оригинальная дорожка"],"quality":"tv","translation":"Оригинальная дорожка","update":"2021-05-24 12:10:33","iframe_src":"//8209.svetacdn.in/71tsRs29n5tZ/movie/50561"},{"id":50560,"title":"Куда идешь, солдат?","kp_id":"45019","imdb_id":"tt0264771","world_art_id":null,"type":"movie","add":"2021-05-22 22:35:44","orig_title":"Ur es gnum, zinvor?","year":"1986-01-17","translations":["Полное дублирование"],"quality":"webdl","translation":"Полное дублирование","update":"2021-05-24 12:12:10","iframe_src":"//8209.svetacdn.in/71tsRs29n5tZ/movie/50560"},{"id":50559,"title":"Час оборотня","kp_id":"421324","imdb_id":"tt1651119","world_art_id":null,"type":"movie","add":"2021-05-22 22:21:17","orig_title":"Chas oborotnya","year":"1990-01-01","translations":["Оригинальная дорожка"],"quality":"webdl","translation":"Оригинальная дорожка","update":"2021-05-24 12:13:28","iframe_src":"//8209.svetacdn.in/71tsRs29n5tZ/movie/50559"},{"id":8179,"title":"Откройте, это я","kp_id":"581623","imdb_id":"tt4498748","world_art_id":null,"type":"serial","add":"2020-07-17 13:04:12","orig_title":"Otkroyte, eto ya","year":"2011-03-09","translations":["Оригинальная дорожка"],"seasons_count":1,"episodes_count":4,"episodes":4,"update":"2020-07-17 20:23:44","iframe_src":"//8209.svetacdn.in/71tsRs29n5tZ/tv-series/8179"},{"id":8170,"title":"Заложники любви","kp_id":"605322","imdb_id":null,"world_art_id":null,"type":"serial","add":"2020-07-16 16:50:27","orig_title":"Заложники любви","year":"2014-09-24","translations":["Оригинальная дорожка"],"seasons_count":1,"episodes_count":8,"episodes":8,"update":"2020-07-17 10:43:59","iframe_src":"//8209.svetacdn.in/71tsRs29n5tZ/tv-series/8170"},{"id":8167,"title":"Принцип Хабарова","kp_id":"734701","imdb_id":"tt4501770","world_art_id":null,"type":"serial","add":"2020-07-16 10:17:06","orig_title":"Printsip Khabarova","year":"2013-02-25","translations":["Оригинальная дорожка"],"seasons_count":1,"episodes_count":16,"episodes":16,"update":"2020-07-17 09:50:43","iframe_src":"//8209.svetacdn.in/71tsRs29n5tZ/tv-series/8167"},{"id":8166,"title":"Энигма","kp_id":"428836","imdb_id":"tt1873845","world_art_id":null,"type":"serial","add":"2020-07-16 10:04:42","orig_title":"Enigma","year":"2010-12-27","translations":["Оригинальная дорожка"],"seasons_count":1,"episodes_count":15,"episodes":15,"update":"2020-07-17 09:33:42","iframe_src":"//8209.svetacdn.in/71tsRs29n5tZ/tv-series/8166"},{"id":8165,"title":"Любит не любит","kp_id":"750995","imdb_id":"tt3329516","world_art_id":null,"type":"serial","add":"2020-07-16 09:32:25","orig_title":"Lyubit ne lyubit","year":"2013-04-01","translations":["Оригинальная дорожка"],"seasons_count":1,"episodes_count":26,"episodes":26,"update":"2020-07-17 08:00:47","iframe_src":"//8209.svetacdn.in/71tsRs29n5tZ/tv-series/8165"},{"id":8164,"title":"Антонелла","kp_id":"161106","imdb_id":"tt0199182","world_art_id":null,"type":"serial","add":"2020-07-15 21:07:19","orig_title":"Antonella","year":"1991-03-08","translations":["Профессиональный (многоголосый закадровый)"],"seasons_count":1,"episodes_count":165,"episodes":165,"update":"2020-07-17 20:54:45","iframe_src":"//8209.svetacdn.in/71tsRs29n5tZ/tv-series/8164"},{"id":8161,"title":"Голоса","kp_id":"566495","imdb_id":"tt3723392","world_art_id":null,"type":"serial","add":"2020-07-15 08:29:13","orig_title":"Golosa","year":"2010-09-22","translations":["Оригинальная дорожка"],"seasons_count":1,"episodes_count":17,"episodes":17,"update":"2020-07-17 12:21:49","iframe_src":"//8209.svetacdn.in/71tsRs29n5tZ/tv-series/8161"},{"id":8160,"title":"Захватчики","kp_id":"464126","imdb_id":"tt1437185","world_art_id":null,"type":"serial","add":"2020-07-15 08:18:43","orig_title":"Zakhvatchiki","year":"2009-05-12","translations":["Оригинальная дорожка"],"seasons_count":1,"episodes_count":16,"episodes":16,"update":"2020-07-17 13:41:13","iframe_src":"//8209.svetacdn.in/71tsRs29n5tZ/tv-series/8160"},{"id":8159,"title":"До смерти красива","kp_id":"717443","imdb_id":"tt4080182","world_art_id":null,"type":"serial","add":"2020-07-15 08:09:59","orig_title":"Do smerti krasiva","year":"2015-05-11","translations":["Оригинальная дорожка"],"seasons_count":1,"episodes_count":24,"episodes":24,"update":"2020-07-17 06:38:39","iframe_src":"//8209.svetacdn.in/71tsRs29n5tZ/tv-series/8159"},{"id":8158,"title":"Классная школа","kp_id":"785588","imdb_id":null,"world_art_id":null,"type":"serial","add":"2020-07-15 07:39:14","orig_title":"Классная школа","year":"2013-09-01","translations":["Оригинальная дорожка"],"seasons_count":1,"episodes_count":70,"episodes":70,"update":"2020-07-17 13:57:21","iframe_src":"//8209.svetacdn.in/71tsRs29n5tZ/tv-series/8158"},{"id":8156,"title":"Детектив Хайд","kp_id":null,"imdb_id":"tt5686194","world_art_id":null,"type":"serial","add":"2020-07-14 21:30:36","orig_title":"Hyde & Seek","year":"2016-10-03","translations":["Любительский (многоголосый закадровый) (ColdFilm)"],"seasons_count":1,"episodes_count":8,"episodes":8,"update":"2020-07-17 10:32:53","iframe_src":"//8209.svetacdn.in/71tsRs29n5tZ/tv-series/8156"},{"id":8146,"title":"Правила маскарада","kp_id":"596029","imdb_id":"tt4501756","world_art_id":null,"type":"serial","add":"2020-07-13 10:03:44","orig_title":"Pravila maskarada","year":"2011-07-01","translations":["Оригинальная дорожка"],"seasons_count":1,"episodes_count":16,"episodes":16,"update":"2020-07-17 15:44:12","iframe_src":"//8209.svetacdn.in/71tsRs29n5tZ/tv-series/8146"},{"id":8127,"title":"Она знает всё","kp_id":"1365993","imdb_id":"tt12538770","world_art_id":null,"type":"serial","add":"2020-07-09 10:27:26","orig_title":"Misseu Leeneun algo itta","year":"2020-07-08","translations":["Любительский (многоголосый закадровый) (Octopus)"],"seasons_count":1,"episodes_count":8,"episodes":8,"update":"2020-07-17 21:53:00","iframe_src":"//8209.svetacdn.in/71tsRs29n5tZ/tv-series/8127"},{"id":8124,"title":"Мелроуз Плэйс","kp_id":"450720","imdb_id":"tt1388782","world_art_id":null,"type":"serial","add":"2020-07-09 07:23:45","orig_title":"Melrose Place","year":"2009-09-08","translations":["Профессиональный (многоголосый закадровый) (Муз-ТВ)"],"seasons_count":1,"episodes_count":11,"episodes":11,"update":"2020-07-17 18:05:37","iframe_src":"//8209.svetacdn.in/71tsRs29n5tZ/tv-series/8124"},{"id":8119,"title":"Аран и магистрат","kp_id":"707409","imdb_id":"tt2216600","world_art_id":null,"type":"serial","add":"2020-07-08 09:43:02","orig_title":"Arangsaddojeon","year":"2012-08-15","translations":["Любительский (двухголосый закадровый)"],"seasons_count":1,"episodes_count":20,"episodes":20,"update":"2020-07-17 14:36:31","iframe_src":"//8209.svetacdn.in/71tsRs29n5tZ/tv-series/8119"},{"id":8118,"title":"Австралийские золотоискатели","kp_id":"1228356","imdb_id":"tt6186672","world_art_id":null,"type":"serial","add":"2020-07-08 09:26:55","orig_title":"Aussie Gold Hunters","year":"2016-08-01","translations":["Профессиональный (одноголосый закадровый)"],"seasons_count":1,"episodes_count":6,"episodes":6,"update":"2020-07-17 10:22:54","iframe_src":"//8209.svetacdn.in/71tsRs29n5tZ/tv-series/8118"},{"id":38160,"title":"Призрачное счастье","kp_id":"95412","imdb_id":"tt0300980","world_art_id":null,"type":"movie","add":"2020-03-17 21:18:54","orig_title":"Baseraa","year":"1981-09-25","translations":["Полное дублирование","Полное дублирование"],"quality":"dvdrip","translation":"Полное дублирование","update":"2021-05-25 04:23:25","iframe_src":"//8209.svetacdn.in/71tsRs29n5tZ/movie/38160"},{"id":5410,"title":"Законы улиц","kp_id":"842111","imdb_id":null,"world_art_id":null,"type":"serial","add":"2019-10-07 15:31:55","orig_title":"Законы улиц","year":"2014-01-01","translations":["Оригинальная дорожка"],"seasons_count":1,"episodes_count":24,"episodes":24,"update":"2020-07-17 17:49:55","iframe_src":"//8209.svetacdn.in/71tsRs29n5tZ/tv-series/5410"},{"id":5336,"title":"Кровавый бард","kp_id":"1177880","imdb_id":"tt8069036","world_art_id":null,"type":"serial","add":"2019-09-30 07:14:06","orig_title":"Bard of Blood","year":"2019-09-27","translations":["Профессиональный (многоголосый закадровый) (ColdFilm)","Профессиональный (многоголосый закадровый) (HDrezka Studio)"],"seasons_count":1,"episodes_count":7,"episodes":7,"update":"2020-07-17 17:57:14","iframe_src":"//8209.svetacdn.in/71tsRs29n5tZ/tv-series/5336"},{"id":3567,"title":"Грязный Джон","kp_id":"1140184","imdb_id":"tt7945720","world_art_id":null,"type":"serial","add":"2018-11-26 10:47:36","orig_title":"Dirty John","year":"2018-11-25","translations":["Профессиональный (многоголосый закадровый) (IdeaFilm)","Профессиональный (многоголосый закадровый) (NewStudio)","Профессиональный (многоголосый закадровый) (HDrezka Studio)","Профессиональный (двухголосый закадровый) (Gears Media)","Полное дублирование (SDI Media)","Профессиональный (многоголосый закадровый) (Jaskier)","Любительский (многоголосый закадровый) (ColdFilm)","Любительский (многоголосый закадровый) (Octopus)","Профессиональный (многоголосый закадровый) (BaibaKo)","Профессиональный (двухголосый закадровый) (IdeaFilm)"],"seasons_count":2,"episodes_count":16,"episodes":8,"update":"2020-07-18 06:00:00","iframe_src":"//8209.svetacdn.in/71tsRs29n5tZ/tv-series/3567"},{"id":2106,"title":"Академия Гринхаус","kp_id":"1048694","imdb_id":"tt6076336","world_art_id":null,"type":"serial","add":"2018-02-17 12:33:16","orig_title":"Greenhouse Academy","year":"2017-09-08","translations":["Любительский (двухголосый закадровый) (Sunshine Studio)","Профессиональный (многоголосый закадровый) (HDrezka Studio)","Любительский (многоголосый закадровый) (Octopus)"],"seasons_count":4,"episodes_count":40,"episodes":8,"update":"2020-07-17 09:41:11","iframe_src":"//8209.svetacdn.in/71tsRs29n5tZ/tv-series/2106"},{"id":9215,"title":"Рой","kp_id":"771906","imdb_id":"tt2976182","world_art_id":null,"type":"movie","add":"2017-01-26 12:21:43","orig_title":"Roy","year":"2015-02-12","translations":["Любительский (двухголосый закадровый)","Профессиональный (многоголосый закадровый) (SDI Media)"],"quality":"bd","translation":"Любительский (двухголосый закадровый)","update":"2021-05-25 04:24:46","iframe_src":"//8209.svetacdn.in/71tsRs29n5tZ/movie/9215"},{"id":6318,"title":"Слежка","kp_id":"4071","imdb_id":"tt0094025","world_art_id":null,"type":"movie","add":"2016-10-16 07:38:39","orig_title":"Stakeout","year":"1987-08-05","translations":["Полное дублирование","Авторский (одноголосый закадровый) (Иванов Михаил)","Авторский (одноголосый закадровый) (Михалёв Алексей)","Авторский (одноголосый закадровый) (Визгунов Сергей)","Original (English)","Профессиональный (двухголосый закадровый) (Видеосервис)","Профессиональный (многоголосый закадровый) (РенТВ)","Полное дублирование"],"quality":"webdl","translation":"Полное дублирование","update":"2021-05-25 05:10:19","iframe_src":"//8209.svetacdn.in/71tsRs29n5tZ/movie/6318"},{"id":6133,"title":"Совершенное оружие","kp_id":"5436","imdb_id":"tt0102655","world_art_id":null,"type":"movie","add":"2016-10-11 08:32:59","orig_title":"The Perfect Weapon","year":"1991-03-15","translations":["Авторский (одноголосый закадровый) (Гаврилов Андрей)","Авторский (одноголосый закадровый) (Живов Юрий)","Профессиональный (многоголосый закадровый) (Че!)","Авторский (одноголосый закадровый) (Дольский Андрей)","Авторский (одноголосый закадровый) (Гаврилов Андрей)","Авторский (одноголосый закадровый) (Живов Юрий)","Original (English)"],"quality":"bd","translation":"Авторский (одноголосый закадровый) (Гаврилов Андрей)","update":"2021-05-25 05:15:19","iframe_src":"//8209.svetacdn.in/71tsRs29n5tZ/movie/6133"},{"id":3952,"title":"История о Рикки","kp_id":"173533","imdb_id":"tt0102293","world_art_id":null,"type":"movie","add":"2016-07-15 11:00:11","orig_title":"Lik wong","year":"1991-10-05","translations":["Любительский (одноголосый закадровый)","Авторский (одноголосый закадровый) (Кузнецов Сергей)","Авторский (одноголосый закадровый) (Дольский Андрей)"],"quality":"bd","translation":"Любительский (одноголосый закадровый)","update":"2021-05-25 04:02:07","iframe_src":"//8209.svetacdn.in/71tsRs29n5tZ/movie/3952"}],"current_page":229,"first_page_url":"https://videocdn.tv/api/short?limit=100&api_token=EnbO9h8pv1VyjbCJhg0WM9nG259n7mtz&cache3229=3229&page=1","from":22801,"last_page":662,"last_page_url":"https://videocdn.tv/api/short?limit=100&api_token=EnbO9h8pv1VyjbCJhg0WM9nG259n7mtz&cache3229=3229&page=662","next_page_url":"https://videocdn.tv/api/short?limit=100&api_token=EnbO9h8pv1VyjbCJhg0WM9nG259n7mtz&cache3229=3229&page=230","path":"https://videocdn.tv/api/short","per_page":100,"prev_page_url":"https://videocdn.tv/api/short?limit=100&api_token=EnbO9h8pv1VyjbCJhg0WM9nG259n7mtz&cache3229=3229&page=228","to":22840,"total":66184}