{"result":true,"data":[{"id":45872,"title":"Тропою грома","kp_id":"266693","imdb_id":"tt0409691","world_art_id":null,"type":"movie","add":"2020-12-05 20:59:48","orig_title":"Ampropi arahetov","year":"1956-06-02","translations":["Полное дублирование"],"quality":"iptv","translation":"Полное дублирование","update":"2021-01-28 06:48:22","iframe_src":"//83.svetacdn.in/PfJ50H0ZBPg3/movie/45872"},{"id":45871,"title":"Три часа дороги","kp_id":"331720","imdb_id":"tt0173358","world_art_id":null,"type":"movie","add":"2020-12-05 20:53:43","orig_title":"Tri chasa dorogi","year":"1964-03-31","translations":["Оригинальная дорожка"],"quality":"sat","translation":"Оригинальная дорожка","update":"2021-01-28 06:57:02","iframe_src":"//83.svetacdn.in/PfJ50H0ZBPg3/movie/45871"},{"id":45869,"title":"Случай с Полыниным","kp_id":"43857","imdb_id":"tt0066386","world_art_id":null,"type":"movie","add":"2020-12-05 20:43:34","orig_title":"Sluchay s Polyninym","year":"1971-03-29","translations":["Оригинальная дорожка"],"quality":"dvdrip","translation":"Оригинальная дорожка","update":"2021-01-28 07:08:51","iframe_src":"//83.svetacdn.in/PfJ50H0ZBPg3/movie/45869"},{"id":45867,"title":"Однажды ночью","kp_id":"757446","imdb_id":"tt12156932","world_art_id":null,"type":"movie","add":"2020-12-05 20:36:42","orig_title":"Odnazhdy nochyu","year":"1959-02-01","translations":["Оригинальная дорожка"],"quality":"webdl","translation":"Оригинальная дорожка","update":"2021-01-28 06:50:25","iframe_src":"//83.svetacdn.in/PfJ50H0ZBPg3/movie/45867"},{"id":45866,"title":"Обгоняющая ветер","kp_id":"567038","imdb_id":"tt5094440","world_art_id":null,"type":"movie","add":"2020-12-05 20:34:14","orig_title":"Obgonyayushchaya veter","year":"1959-08-03","translations":["Оригинальная дорожка"],"quality":"vhs","translation":"Оригинальная дорожка","update":"2021-01-28 06:51:23","iframe_src":"//83.svetacdn.in/PfJ50H0ZBPg3/movie/45866"},{"id":45865,"title":"Пушок и Дружок","kp_id":"586547","imdb_id":null,"world_art_id":null,"type":"movie","add":"2020-12-05 20:31:47","orig_title":"Пушок и Дружок","year":"1962-01-01","translations":["Оригинальная дорожка"],"quality":"dvdrip","translation":"Оригинальная дорожка","update":"2021-01-28 06:52:19","iframe_src":"//83.svetacdn.in/PfJ50H0ZBPg3/movie/45865"},{"id":45839,"title":"Игра без правил","kp_id":"42578","imdb_id":"tt0314193","world_art_id":null,"type":"movie","add":"2020-12-04 18:00:57","orig_title":"Igra bez pravil","year":"1965-12-06","translations":["Оригинальная дорожка"],"quality":"sat","translation":"Оригинальная дорожка","update":"2021-01-28 06:57:42","iframe_src":"//83.svetacdn.in/PfJ50H0ZBPg3/movie/45839"},{"id":45837,"title":"Если бы каждый из нас","kp_id":"715394","imdb_id":null,"world_art_id":null,"type":"movie","add":"2020-12-04 17:54:49","orig_title":"Если бы каждый из нас","year":"1962-01-15","translations":["Оригинальная дорожка"],"quality":"webdl","translation":"Оригинальная дорожка","update":"2021-01-28 06:53:14","iframe_src":"//83.svetacdn.in/PfJ50H0ZBPg3/movie/45837"},{"id":45836,"title":"Его время придет","kp_id":"757448","imdb_id":"tt2977344","world_art_id":null,"type":"movie","add":"2020-12-04 17:50:13","orig_title":"Ego vremya pridyot","year":"1957-12-17","translations":["Оригинальная дорожка"],"quality":"webdl","translation":"Оригинальная дорожка","update":"2021-01-28 06:49:23","iframe_src":"//83.svetacdn.in/PfJ50H0ZBPg3/movie/45836"},{"id":45819,"title":"Фронт за околицей","kp_id":"1046240","imdb_id":null,"world_art_id":null,"type":"movie","add":"2020-12-03 18:20:15","orig_title":"Фронт за околицей","year":"1969-01-01","translations":["Оригинальная дорожка"],"quality":"sat","translation":"Оригинальная дорожка","update":"2021-01-28 07:00:45","iframe_src":"//83.svetacdn.in/PfJ50H0ZBPg3/movie/45819"},{"id":45818,"title":"Драма из старинной жизни","kp_id":"44301","imdb_id":"tt0123047","world_art_id":null,"type":"movie","add":"2020-12-03 18:12:28","orig_title":"Drama iz starinnoy zhizni","year":"1971-02-13","translations":["Оригинальная дорожка"],"quality":"dvdrip","translation":"Оригинальная дорожка","update":"2021-01-28 07:04:33","iframe_src":"//83.svetacdn.in/PfJ50H0ZBPg3/movie/45818"},{"id":45817,"title":"Четвёрка по пению","kp_id":"778691","imdb_id":"tt3028064","world_art_id":null,"type":"movie","add":"2020-12-03 18:08:22","orig_title":"Chetvyorka po peniyu","year":"1973-01-01","translations":["Оригинальная дорожка"],"quality":"tv","translation":"Оригинальная дорожка","update":"2021-01-28 07:09:39","iframe_src":"//83.svetacdn.in/PfJ50H0ZBPg3/movie/45817"},{"id":45786,"title":"Любимая песня","kp_id":"45136","imdb_id":"tt0048326","world_art_id":null,"type":"movie","add":"2020-12-02 19:23:19","orig_title":"Bäxtiyar","year":"1955-05-29","translations":["Полное дублирование"],"quality":"webdl","translation":"Полное дублирование","update":"2021-01-28 06:47:15","iframe_src":"//83.svetacdn.in/PfJ50H0ZBPg3/movie/45786"},{"id":45781,"title":"Прозрение","kp_id":"649135","imdb_id":null,"world_art_id":null,"type":"movie","add":"2020-12-02 17:29:28","orig_title":"Прозрение","year":"1965-01-01","translations":["Оригинальная дорожка"],"quality":"webdl","translation":"Оригинальная дорожка","update":"2021-01-28 06:55:46","iframe_src":"//83.svetacdn.in/PfJ50H0ZBPg3/movie/45781"},{"id":45743,"title":"Неизвестная...","kp_id":"601860","imdb_id":"tt10305830","world_art_id":null,"type":"movie","add":"2020-12-01 18:32:00","orig_title":"Neizvestnaya","year":"1967-12-05","translations":["Оригинальная дорожка"],"quality":"sat","translation":"Оригинальная дорожка","update":"2021-01-28 06:58:33","iframe_src":"//83.svetacdn.in/PfJ50H0ZBPg3/movie/45743"},{"id":45734,"title":"В трудную минуту","kp_id":"639374","imdb_id":"tt8212666","world_art_id":null,"type":"movie","add":"2020-12-01 17:55:09","orig_title":"V trudnuyu minutu","year":"1968-01-01","translations":["Оригинальная дорожка"],"quality":"sat","translation":"Оригинальная дорожка","update":"2021-01-28 06:59:39","iframe_src":"//83.svetacdn.in/PfJ50H0ZBPg3/movie/45734"},{"id":45705,"title":"Тренер","kp_id":"464831","imdb_id":"tt1512865","world_art_id":null,"type":"movie","add":"2020-11-30 14:05:26","orig_title":"Trener","year":"1970-03-16","translations":["Оригинальная дорожка"],"quality":"tv","translation":"Оригинальная дорожка","update":"2021-01-28 07:02:27","iframe_src":"//83.svetacdn.in/PfJ50H0ZBPg3/movie/45705"},{"id":45704,"title":"Серебряный тренер","kp_id":"43694","imdb_id":"tt0314639","world_art_id":null,"type":"movie","add":"2020-11-30 14:02:13","orig_title":"Serebryanyy trener","year":"1963-08-09","translations":["Оригинальная дорожка"],"quality":"sat","translation":"Оригинальная дорожка","update":"2021-01-28 06:54:40","iframe_src":"//83.svetacdn.in/PfJ50H0ZBPg3/movie/45704"},{"id":45698,"title":"В Москве, проездом...","kp_id":"45605","imdb_id":"tt0166863","world_art_id":null,"type":"movie","add":"2020-11-29 16:52:26","orig_title":"V Moskve proyezdom","year":"1970-07-13","translations":["Оригинальная дорожка"],"quality":"dvdrip","translation":"Оригинальная дорожка","update":"2021-01-28 07:03:39","iframe_src":"//83.svetacdn.in/PfJ50H0ZBPg3/movie/45698"},{"id":42816,"title":"Больница","kp_id":"1688","imdb_id":"tt0067217","world_art_id":null,"type":"movie","add":"2020-08-27 04:57:20","orig_title":"The Hospital","year":"1971-12-14","translations":["Профессиональный (двухголосый закадровый) (НТВ)"],"quality":"bd","translation":"Профессиональный (двухголосый закадровый) (НТВ)","update":"2021-01-28 07:06:07","iframe_src":"//83.svetacdn.in/PfJ50H0ZBPg3/movie/42816"},{"id":8372,"title":"Дело Крапивиных","kp_id":"592006","imdb_id":"tt4996252","world_art_id":null,"type":"serial","add":"2020-08-05 08:54:36","orig_title":"Delo Krapivinykh","year":"2012-11-01","translations":["Оригинальная дорожка"],"seasons_count":1,"episodes_count":24,"episodes":24,"update":"2020-08-05 17:35:50","iframe_src":"//83.svetacdn.in/PfJ50H0ZBPg3/tv-series/8372"},{"id":8371,"title":"Большие надежды","kp_id":"582760","imdb_id":null,"world_art_id":null,"type":"serial","add":"2020-08-05 08:31:16","orig_title":"Bolshiye nadejdy","year":"2011-04-04","translations":["Оригинальная дорожка"],"seasons_count":1,"episodes_count":20,"episodes":20,"update":"2020-08-05 17:29:46","iframe_src":"//83.svetacdn.in/PfJ50H0ZBPg3/tv-series/8371"},{"id":8370,"title":"Всё, что нам нужно...","kp_id":"596079","imdb_id":"tt5263118","world_art_id":null,"type":"serial","add":"2020-08-04 20:34:07","orig_title":"Vsyo, chto nam nuzhno","year":"2012-01-02","translations":["Оригинальная дорожка"],"seasons_count":1,"episodes_count":4,"episodes":4,"update":"2020-08-05 21:13:36","iframe_src":"//83.svetacdn.in/PfJ50H0ZBPg3/tv-series/8370"},{"id":8359,"title":"Бандитские бандиты","kp_id":"1300248","imdb_id":"tt9814458","world_art_id":null,"type":"serial","add":"2020-08-04 12:21:15","orig_title":"Bandish Bandits","year":"2020-08-04","translations":["Любительский (многоголосый закадровый) (ColdFilm)","Любительский (многоголосый закадровый) (Octopus)"],"seasons_count":1,"episodes_count":10,"episodes":10,"update":"2020-08-05 12:23:37","iframe_src":"//83.svetacdn.in/PfJ50H0ZBPg3/tv-series/8359"},{"id":8358,"title":"Сердце матери","kp_id":"565163","imdb_id":"tt0059702","world_art_id":null,"type":"serial","add":"2020-08-04 10:06:07","orig_title":"Serdtse materi","year":"2010-09-08","translations":["Оригинальная дорожка"],"seasons_count":1,"episodes_count":8,"episodes":8,"update":"2020-08-05 13:13:26","iframe_src":"//83.svetacdn.in/PfJ50H0ZBPg3/tv-series/8358"},{"id":8356,"title":"Последний кордон","kp_id":"487521","imdb_id":"tt7721782","world_art_id":null,"type":"serial","add":"2020-08-04 09:35:39","orig_title":"Posledniy kordon","year":"2010-02-22","translations":["Оригинальная дорожка"],"seasons_count":1,"episodes_count":8,"episodes":8,"update":"2020-08-05 12:57:51","iframe_src":"//83.svetacdn.in/PfJ50H0ZBPg3/tv-series/8356"},{"id":8355,"title":"Пират и пиратка","kp_id":"494479","imdb_id":null,"world_art_id":null,"type":"serial","add":"2020-08-04 09:32:34","orig_title":"Pirat i piratka","year":"2009-01-01","translations":["Оригинальная дорожка"],"seasons_count":1,"episodes_count":8,"episodes":8,"update":"2020-08-05 12:46:47","iframe_src":"//83.svetacdn.in/PfJ50H0ZBPg3/tv-series/8355"},{"id":8354,"title":"Десант есть десант","kp_id":"521411","imdb_id":"tt4391382","world_art_id":null,"type":"serial","add":"2020-08-04 07:12:45","orig_title":"Desant est desant","year":"2010-05-11","translations":["Оригинальная дорожка"],"seasons_count":1,"episodes_count":16,"episodes":16,"update":"2020-08-05 11:29:06","iframe_src":"//83.svetacdn.in/PfJ50H0ZBPg3/tv-series/8354"},{"id":8287,"title":"Любовь в нерабочие недели","kp_id":"1388619","imdb_id":null,"world_art_id":null,"type":"serial","add":"2020-07-30 12:23:27","orig_title":"Любовь в нерабочие недели","year":"2020-06-23","translations":["Оригинальная дорожка"],"seasons_count":1,"episodes_count":10,"episodes":10,"update":"2020-08-04 20:51:46","iframe_src":"//83.svetacdn.in/PfJ50H0ZBPg3/tv-series/8287"},{"id":8260,"title":"Рактанчал","kp_id":"1381229","imdb_id":"tt12347286","world_art_id":null,"type":"serial","add":"2020-07-27 11:41:22","orig_title":"Raktanchal","year":"2020-05-28","translations":["Любительский (многоголосый закадровый) (Octopus)"],"seasons_count":1,"episodes_count":9,"episodes":9,"update":"2020-08-06 14:37:10","iframe_src":"//83.svetacdn.in/PfJ50H0ZBPg3/tv-series/8260"},{"id":8231,"title":"Мануэла","kp_id":"407017","imdb_id":"tt0224914","world_art_id":null,"type":"serial","add":"2020-07-21 20:34:40","orig_title":"Manuela","year":"1995-01-02","translations":["Профессиональный (многоголосый закадровый)"],"seasons_count":1,"episodes_count":226,"episodes":226,"update":"2020-08-05 21:40:17","iframe_src":"//83.svetacdn.in/PfJ50H0ZBPg3/tv-series/8231"},{"id":7939,"title":"Надежда","kp_id":"1259190","imdb_id":"tt12398310","world_art_id":null,"type":"serial","add":"2020-06-18 05:20:00","orig_title":"Nadezhda","year":"2020-06-18","translations":["Оригинальная дорожка"],"seasons_count":1,"episodes_count":16,"episodes":16,"update":"2020-08-06 07:44:52","iframe_src":"//83.svetacdn.in/PfJ50H0ZBPg3/tv-series/7939"},{"id":7750,"title":"Игры титанов","kp_id":null,"imdb_id":"tt7967262","world_art_id":null,"type":"serial","add":"2020-06-05 10:57:26","orig_title":"The Titan Games","year":"2019-01-03","translations":["Любительский (многоголосый закадровый) (ColdFilm)","Любительский (многоголосый закадровый) (Octopus)"],"seasons_count":1,"episodes_count":9,"episodes":9,"update":"2020-08-05 05:01:27","iframe_src":"//83.svetacdn.in/PfJ50H0ZBPg3/tv-series/7750"},{"id":6267,"title":"Президентский помощник","kp_id":"1232576","imdb_id":"tt10220476","world_art_id":null,"type":"serial","add":"2020-01-07 13:44:07","orig_title":"Bojwagwan","year":"2019-06-14","translations":["Любительский (двухголосый закадровый) (Колобок)"],"seasons_count":2,"episodes_count":20,"episodes":10,"update":"2020-08-05 11:39:41","iframe_src":"//83.svetacdn.in/PfJ50H0ZBPg3/tv-series/6267"},{"id":4992,"title":"Бумеранг","kp_id":"1201875","imdb_id":"tt9064792","world_art_id":null,"type":"serial","add":"2019-08-05 07:16:02","orig_title":"Boomerang","year":"2019-02-12","translations":["Любительский (двухголосый закадровый) (KosharaSerials)","Профессиональный (многоголосый закадровый) (HDrezka Studio)"],"seasons_count":1,"episodes_count":10,"episodes":10,"update":"2020-08-05 17:12:08","iframe_src":"//83.svetacdn.in/PfJ50H0ZBPg3/tv-series/4992"},{"id":4422,"title":"Зыбучий песок","kp_id":"1203037","imdb_id":"tt8686106","world_art_id":null,"type":"serial","add":"2019-04-25 22:58:26","orig_title":"Quicksand","year":"2019-04-05","translations":["Любительский (многоголосый закадровый) (ColdFilm)","Профессиональный (многоголосый закадровый) (HDrezka Studio)","Профессиональный (многоголосый закадровый) (TVShows)","Профессиональный (двухголосый закадровый) (Кубик в Кубе)","Профессиональный (многоголосый закадровый) (NewStudio)"],"seasons_count":1,"episodes_count":6,"episodes":6,"update":"2020-08-05 13:06:47","iframe_src":"//83.svetacdn.in/PfJ50H0ZBPg3/tv-series/4422"},{"id":4392,"title":"Милые обманщицы: Перфекционистки","kp_id":"1113046","imdb_id":"tt7413448","world_art_id":null,"type":"serial","add":"2019-04-18 17:47:45","orig_title":"Pretty Little Liars: The Perfectionists","year":"2019-03-20","translations":["Профессиональный (многоголосый закадровый) (NewStudio)","Профессиональный (многоголосый закадровый) (HDrezka Studio)","Профессиональный (многоголосый закадровый) (TVShows)"],"seasons_count":1,"episodes_count":10,"episodes":10,"update":"2020-08-05 13:00:51","iframe_src":"//83.svetacdn.in/PfJ50H0ZBPg3/tv-series/4392"},{"id":3230,"title":"Надоело","kp_id":"1189824","imdb_id":"tt7604446","world_art_id":null,"type":"serial","add":"2018-09-28 10:15:52","orig_title":"Sick of It","year":"2018-09-27","translations":["Любительский (двухголосый закадровый) (Sunshine Studio)","Профессиональный (многоголосый закадровый) (HDrezka Studio)","Профессиональный (многоголосый закадровый) (AMS)","Профессиональный (многоголосый закадровый) (Ozz.tv)"],"seasons_count":1,"episodes_count":6,"episodes":6,"update":"2020-08-05 18:09:23","iframe_src":"//83.svetacdn.in/PfJ50H0ZBPg3/tv-series/3230"},{"id":1746,"title":"Каратель","kp_id":"978853","imdb_id":"tt5675620","world_art_id":null,"type":"serial","add":"2017-11-17 10:51:20","orig_title":"The Punisher","year":"2017-11-06","translations":["Профессиональный (многоголосый закадровый) (LostFilm)","Профессиональный (многоголосый закадровый) (NewStudio)","Профессиональный (многоголосый закадровый) (TVShows)","Профессиональный (многоголосый закадровый) (AMS)","Профессиональный (двухголосый закадровый) (Кубик в Кубе)","Любительский (двухголосый закадровый) (Hamster Studio)","Любительский (многоголосый закадровый) (ColdFilm)","Профессиональный (многоголосый закадровый) (HDrezka Studio)","Профессиональный (многоголосый закадровый) (Jaskier)"],"seasons_count":2,"episodes_count":26,"episodes":13,"update":"2020-08-05 12:43:18","iframe_src":"//83.svetacdn.in/PfJ50H0ZBPg3/tv-series/1746"},{"id":1045,"title":"Патриот","kp_id":"928407","imdb_id":"tt4687882","world_art_id":null,"type":"serial","add":"2017-02-26 07:28:40","orig_title":"Patriot","year":"2015-11-05","translations":["Профессиональный (многоголосый закадровый) (BaibaKo)","Профессиональный (многоголосый закадровый) (LostFilm)","Профессиональный (многоголосый закадровый) (IdeaFilm)","Профессиональный (многоголосый закадровый) (HDrezka Studio)","Профессиональный (двухголосый закадровый) (Gears Media)","Профессиональный (многоголосый закадровый) (TVShows)","Профессиональный (многоголосый закадровый) (Profix Media)"],"seasons_count":2,"episodes_count":18,"episodes":8,"update":"2020-08-05 12:21:53","iframe_src":"//83.svetacdn.in/PfJ50H0ZBPg3/tv-series/1045"}],"current_page":136,"first_page_url":"https://videocdn.tv/api/short?limit=100&api_token=RgFQdUIR2dRmwv8iYa5SnFNgnw3vpjKj&cache3136=3136&page=1","from":13501,"last_page":605,"last_page_url":"https://videocdn.tv/api/short?limit=100&api_token=RgFQdUIR2dRmwv8iYa5SnFNgnw3vpjKj&cache3136=3136&page=605","next_page_url":"https://videocdn.tv/api/short?limit=100&api_token=RgFQdUIR2dRmwv8iYa5SnFNgnw3vpjKj&cache3136=3136&page=137","path":"https://videocdn.tv/api/short","per_page":100,"prev_page_url":"https://videocdn.tv/api/short?limit=100&api_token=RgFQdUIR2dRmwv8iYa5SnFNgnw3vpjKj&cache3136=3136&page=135","to":13540,"total":60458}