{"result":true,"data":[{"id":28147,"title":"Любовь зла...","kp_id":"41310","imdb_id":"tt0239574","world_art_id":null,"type":"movie","add":"2019-06-22 12:40:58","orig_title":"Lyubov zla","year":"1999-02-28","translations":["Оригинальная дорожка"],"quality":"dvdrip","translation":"Оригинальная дорожка","update":"2019-06-24 07:23:25","iframe_src":"//83.svetacdn.in/PfJ50H0ZBPg3/movie/28147"},{"id":28146,"title":"Море зовет","kp_id":"478740","imdb_id":"tt1721031","world_art_id":null,"type":"movie","add":"2019-06-22 12:37:21","orig_title":"More zovyot","year":"1956-04-30","translations":["Оригинальная дорожка"],"quality":"sat","translation":"Оригинальная дорожка","update":"2019-06-24 07:22:19","iframe_src":"//83.svetacdn.in/PfJ50H0ZBPg3/movie/28146"},{"id":28144,"title":"О спорт, ты – мир!","kp_id":"42684","imdb_id":"tt0151789","world_art_id":null,"type":"movie","add":"2019-06-22 12:31:03","orig_title":"O sport, ty - mir!","year":"1981-07-23","translations":["Оригинальная дорожка"],"quality":"dvdrip","translation":"Оригинальная дорожка","update":"2019-06-24 07:20:37","iframe_src":"//83.svetacdn.in/PfJ50H0ZBPg3/movie/28144"},{"id":28143,"title":"Ой, вы, гуси...","kp_id":"40878","imdb_id":"tt0102620","world_art_id":null,"type":"movie","add":"2019-06-22 12:14:04","orig_title":"Oy, vy, gusi...","year":"1992-04-02","translations":["Оригинальная дорожка"],"quality":"dvdrip","translation":"Оригинальная дорожка","update":"2019-06-24 07:19:14","iframe_src":"//83.svetacdn.in/PfJ50H0ZBPg3/movie/28143"},{"id":28142,"title":"Красный лёд. Сага о хантах","kp_id":"445419","imdb_id":"tt7870594","world_art_id":null,"type":"movie","add":"2019-06-22 12:09:56","orig_title":"Krasnyy lyod. Saga o hantakh","year":"2009-01-01","translations":["Оригинальная дорожка"],"quality":"dvdrip","translation":"Оригинальная дорожка","update":"2019-06-24 07:18:16","iframe_src":"//83.svetacdn.in/PfJ50H0ZBPg3/movie/28142"},{"id":28141,"title":"Шиш на кокуй!","kp_id":"600820","imdb_id":"tt5141128","world_art_id":null,"type":"movie","add":"2019-06-22 12:05:22","orig_title":"Shish na kokuy!","year":"1993-01-01","translations":["Оригинальная дорожка"],"quality":"vhs","translation":"Оригинальная дорожка","update":"2019-06-24 07:16:46","iframe_src":"//83.svetacdn.in/PfJ50H0ZBPg3/movie/28141"},{"id":28140,"title":"Шкура белого медведя","kp_id":"491691","imdb_id":"tt4973812","world_art_id":null,"type":"movie","add":"2019-06-22 12:00:17","orig_title":"Shkura belogo medvedya","year":"1980-08-01","translations":["Оригинальная дорожка"],"quality":"dvdrip","translation":"Оригинальная дорожка","update":"2019-06-24 07:15:26","iframe_src":"//83.svetacdn.in/PfJ50H0ZBPg3/movie/28140"},{"id":28139,"title":"Сибиряки","kp_id":"43784","imdb_id":"tt0033048","world_art_id":null,"type":"movie","add":"2019-06-22 11:56:37","orig_title":"Sibiryaki","year":"1940-12-13","translations":["Оригинальная дорожка"],"quality":"dvdrip","translation":"Оригинальная дорожка","update":"2019-06-24 07:06:10","iframe_src":"//83.svetacdn.in/PfJ50H0ZBPg3/movie/28139"},{"id":28138,"title":"Старый наездник","kp_id":"43985","imdb_id":"tt0053136","world_art_id":null,"type":"movie","add":"2019-06-22 11:52:50","orig_title":"Staryy naezdnik","year":"1940-12-01","translations":["Оригинальная дорожка"],"quality":"dvdrip","translation":"Оригинальная дорожка","update":"2019-06-24 07:05:17","iframe_src":"//83.svetacdn.in/PfJ50H0ZBPg3/movie/28138"},{"id":28137,"title":"Цветы от победителей","kp_id":"208103","imdb_id":"tt0477479","world_art_id":null,"type":"movie","add":"2019-06-22 11:46:35","orig_title":"Tsvety ot pobediteley","year":"1999-03-25","translations":["Оригинальная дорожка"],"quality":"dvdrip","translation":"Оригинальная дорожка","update":"2019-06-24 07:04:31","iframe_src":"//83.svetacdn.in/PfJ50H0ZBPg3/movie/28137"},{"id":28136,"title":"В созвездии быка","kp_id":"224872","imdb_id":"tt0488902","world_art_id":null,"type":"movie","add":"2019-06-22 11:43:01","orig_title":"V sozvezdii byka","year":"2003-08-12","translations":["Оригинальная дорожка"],"quality":"dvdrip","translation":"Оригинальная дорожка","update":"2019-06-24 07:03:30","iframe_src":"//83.svetacdn.in/PfJ50H0ZBPg3/movie/28136"},{"id":28134,"title":"Весенний поток","kp_id":"45737","imdb_id":"tt0351946","world_art_id":null,"type":"movie","add":"2019-06-22 11:36:10","orig_title":"Vesenniy potok","year":"1941-02-10","translations":["Оригинальная дорожка"],"quality":"sat","translation":"Оригинальная дорожка","update":"2019-06-24 07:01:02","iframe_src":"//83.svetacdn.in/PfJ50H0ZBPg3/movie/28134"},{"id":28133,"title":"Яков Свердлов","kp_id":"42418","imdb_id":"tt0033277","world_art_id":null,"type":"movie","add":"2019-06-22 11:31:31","orig_title":"Yakov Sverdlov","year":"1940-12-12","translations":["Оригинальная дорожка"],"quality":"dvdrip","translation":"Оригинальная дорожка","update":"2019-06-24 06:58:43","iframe_src":"//83.svetacdn.in/PfJ50H0ZBPg3/movie/28133"},{"id":28132,"title":"Ятринская ведьма","kp_id":"40787","imdb_id":"tt0334744","world_art_id":null,"type":"movie","add":"2019-06-22 11:28:50","orig_title":"Yatrinskaya vedma","year":"1991-01-01","translations":["Оригинальная дорожка"],"quality":"vhs","translation":"Оригинальная дорожка","update":"2019-06-24 06:57:54","iframe_src":"//83.svetacdn.in/PfJ50H0ZBPg3/movie/28132"},{"id":28131,"title":"Белые, белые аисты","kp_id":"46082","imdb_id":"tt0171095","world_art_id":null,"type":"movie","add":"2019-06-22 11:23:12","orig_title":"Belye, belye aisty","year":"1966-01-30","translations":["Оригинальная дорожка"],"quality":"dvb","translation":"Оригинальная дорожка","update":"2019-06-24 05:49:19","iframe_src":"//83.svetacdn.in/PfJ50H0ZBPg3/movie/28131"},{"id":28130,"title":"Все ушли","kp_id":"648488","imdb_id":"tt2111306","world_art_id":null,"type":"movie","add":"2019-06-22 11:20:16","orig_title":"Vse ushli","year":"2013-03-28","translations":["Оригинальная дорожка"],"quality":"dvdrip","translation":"Оригинальная дорожка","update":"2019-06-24 05:47:27","iframe_src":"//83.svetacdn.in/PfJ50H0ZBPg3/movie/28130"},{"id":28129,"title":"Какое оно, море?","kp_id":"44689","imdb_id":"tt0314249","world_art_id":null,"type":"movie","add":"2019-06-22 11:17:17","orig_title":"Kakoe ono, more?","year":"1965-08-23","translations":["Оригинальная дорожка"],"quality":"sat","translation":"Оригинальная дорожка","update":"2019-06-24 05:45:53","iframe_src":"//83.svetacdn.in/PfJ50H0ZBPg3/movie/28129"},{"id":28128,"title":"Путь на арену","kp_id":"42220","imdb_id":"tt0187433","world_art_id":null,"type":"movie","add":"2019-06-22 11:14:11","orig_title":"Tchanaparh depi krkes","year":"1963-10-03","translations":["Оригинальная дорожка"],"quality":"dvdrip","translation":"Оригинальная дорожка","update":"2019-06-24 05:45:11","iframe_src":"//83.svetacdn.in/PfJ50H0ZBPg3/movie/28128"},{"id":28127,"title":"Семья вурдалаков","kp_id":"255293","imdb_id":"tt0420158","world_art_id":null,"type":"movie","add":"2019-06-22 11:10:18","orig_title":"Semya vurdalakov","year":"1990-01-01","translations":["Оригинальная дорожка"],"quality":"vhs","translation":"Оригинальная дорожка","update":"2019-06-24 05:44:17","iframe_src":"//83.svetacdn.in/PfJ50H0ZBPg3/movie/28127"},{"id":28126,"title":"Ты меня любишь?","kp_id":"838411","imdb_id":null,"world_art_id":null,"type":"movie","add":"2019-06-22 11:06:40","orig_title":"Ты меня любишь?","year":"2014-04-10","translations":["Оригинальная дорожка"],"quality":"sat","translation":"Оригинальная дорожка","update":"2019-06-24 05:42:46","iframe_src":"//83.svetacdn.in/PfJ50H0ZBPg3/movie/28126"}],"current_page":1400,"first_page_url":"https://videocdn.tv/api/short?limit=100&api_token=RgFQdUIR2dRmwv8iYa5SnFNgnw3vpjKj&cache31400=31400&page=1","from":139901,"last_page":644,"last_page_url":"https://videocdn.tv/api/short?limit=100&api_token=RgFQdUIR2dRmwv8iYa5SnFNgnw3vpjKj&cache31400=31400&page=644","next_page_url":null,"path":"https://videocdn.tv/api/short","per_page":100,"prev_page_url":"https://videocdn.tv/api/short?limit=100&api_token=RgFQdUIR2dRmwv8iYa5SnFNgnw3vpjKj&cache31400=31400&page=1399","to":139920,"total":64373}