{"result":true,"data":[{"id":18285,"title":"Бегущий во времени","kp_id":"2680","imdb_id":"tt0108342","world_art_id":null,"type":"movie","add":"2018-08-13 14:02:04","orig_title":"Time Runner","year":"1993-03-17","translations":["Профессиональный (двухголосый закадровый) (НТВ)"],"quality":"dvdrip","translation":"Профессиональный (двухголосый закадровый) (НТВ)","update":"2018-08-14 06:38:57","iframe_src":"//8965.svetacdn.in/IAF0wWTdNYZm/movie/18285"},{"id":18283,"title":"Блэки летит на Луну","kp_id":"731985","imdb_id":"tt1199779","world_art_id":null,"type":"movie","add":"2018-08-13 13:57:27","orig_title":"Black to the Moon 3D","year":"2013-02-15","translations":["Полное дублирование"],"quality":"dvdrip","translation":"Полное дублирование","update":"2018-08-14 06:37:07","iframe_src":"//8965.svetacdn.in/IAF0wWTdNYZm/movie/18283"},{"id":18242,"title":"Убойная вечеринка","kp_id":"720135","imdb_id":"tt2461262","world_art_id":null,"type":"movie","add":"2018-08-12 09:50:01","orig_title":"Killer Party","year":"2014-10-06","translations":["Любительский (одноголосый закадровый) (datynet | Агапов Антон)"],"quality":"webdl","translation":"Любительский (одноголосый закадровый) (datynet | Агапов Антон)","update":"2018-08-13 11:58:15","iframe_src":"//8965.svetacdn.in/IAF0wWTdNYZm/movie/18242"},{"id":18241,"title":"Сестра боксёра","kp_id":"56097","imdb_id":"tt0105860","world_art_id":null,"type":"movie","add":"2018-08-12 09:47:25","orig_title":"Xin long zhong hu dou","year":"1992-05-21","translations":["Любительский (одноголосый закадровый)"],"quality":"dvdrip","translation":"Любительский (одноголосый закадровый)","update":"2018-08-13 11:59:13","iframe_src":"//8965.svetacdn.in/IAF0wWTdNYZm/movie/18241"},{"id":18239,"title":"Честная игра","kp_id":"164322","imdb_id":"tt0089122","world_art_id":null,"type":"movie","add":"2018-08-12 09:42:07","orig_title":"Fair Game","year":"1986-07-24","translations":["Любительский (двухголосый закадровый) (DeadSno & den904)"],"quality":"bd","translation":"Любительский (двухголосый закадровый) (DeadSno & den904)","update":"2018-08-13 12:02:06","iframe_src":"//8965.svetacdn.in/IAF0wWTdNYZm/movie/18239"},{"id":18238,"title":"Зловещий Эд","kp_id":"47316","imdb_id":"tt0116247","world_art_id":null,"type":"movie","add":"2018-08-12 09:40:21","orig_title":"Evil Ed","year":"1995-05-02","translations":["Авторский (одноголосый закадровый) (Горчаков Василий)"],"quality":"bd","translation":"Авторский (одноголосый закадровый) (Горчаков Василий)","update":"2018-08-13 12:03:28","iframe_src":"//8965.svetacdn.in/IAF0wWTdNYZm/movie/18238"},{"id":18234,"title":"Фальшивая Изабелла","kp_id":"75540","imdb_id":"tt0136982","world_art_id":null,"type":"movie","add":"2018-08-12 09:30:24","orig_title":"A hamis Izabella","year":"1968-06-13","translations":["Полное дублирование"],"quality":"sat","translation":"Полное дублирование","update":"2018-08-13 12:18:00","iframe_src":"//8965.svetacdn.in/IAF0wWTdNYZm/movie/18234"},{"id":18233,"title":"Братья вне закона","kp_id":"94128","imdb_id":"tt0096513","world_art_id":null,"type":"movie","add":"2018-08-12 09:28:42","orig_title":"Zui jia zei pai dang","year":"1990-03-17","translations":["Профессиональный (многоголосый закадровый)"],"quality":"dvdrip","translation":"Профессиональный (многоголосый закадровый)","update":"2018-08-13 12:18:45","iframe_src":"//8965.svetacdn.in/IAF0wWTdNYZm/movie/18233"},{"id":18226,"title":"Смертельная забава","kp_id":"8855","imdb_id":"tt0082427","world_art_id":null,"type":"movie","add":"2018-08-11 00:58:01","orig_title":"The Funhouse","year":"1981-03-13","translations":["Профессиональный (многоголосый закадровый)"],"quality":"bd","translation":"Профессиональный (многоголосый закадровый)","update":"2018-08-13 12:23:49","iframe_src":"//8965.svetacdn.in/IAF0wWTdNYZm/movie/18226"},{"id":18225,"title":"Братство","kp_id":"94623","imdb_id":"tt0265105","world_art_id":null,"type":"movie","add":"2018-08-11 00:56:07","orig_title":"The Brotherhood","year":"2001-09-25","translations":["Профессиональный (двухголосый закадровый)"],"quality":"dvdrip","translation":"Профессиональный (двухголосый закадровый)","update":"2018-08-13 12:23:59","iframe_src":"//8965.svetacdn.in/IAF0wWTdNYZm/movie/18225"},{"id":18222,"title":"Приглашение со вкусом смерти","kp_id":"18199","imdb_id":"tt0271210","world_art_id":null,"type":"movie","add":"2018-08-11 00:44:26","orig_title":"R.S.V.P.","year":"2002-01-15","translations":["Профессиональный (многоголосый закадровый)"],"quality":"dvdrip","translation":"Профессиональный (многоголосый закадровый)","update":"2018-08-13 13:07:17","iframe_src":"//8965.svetacdn.in/IAF0wWTdNYZm/movie/18222"},{"id":18221,"title":"Пожиратели плоти","kp_id":"95434","imdb_id":"tt0080057","world_art_id":null,"type":"movie","add":"2018-08-11 00:42:34","orig_title":"Zombi 2","year":"1979-08-25","translations":["Авторский (одноголосый закадровый) (Гаврилов Андрей)"],"quality":"bd","translation":"Авторский (одноголосый закадровый) (Гаврилов Андрей)","update":"2018-08-13 13:09:12","iframe_src":"//8965.svetacdn.in/IAF0wWTdNYZm/movie/18221"},{"id":18220,"title":"Одержимая","kp_id":"27255","imdb_id":"tt0039725","world_art_id":null,"type":"movie","add":"2018-08-11 00:40:21","orig_title":"Possessed","year":"1947-05-29","translations":["Профессиональный (многоголосый закадровый)"],"quality":"bd","translation":"Профессиональный (многоголосый закадровый)","update":"2018-08-13 13:10:09","iframe_src":"//8965.svetacdn.in/IAF0wWTdNYZm/movie/18220"},{"id":18217,"title":"Кровные узы","kp_id":"6259","imdb_id":"tt0076313","world_art_id":null,"type":"movie","add":"2018-08-11 00:35:08","orig_title":"Les liens de sang","year":"1978-02-01","translations":["Любительский (одноголосый закадровый) (RAIM)"],"quality":"dvdrip","translation":"Любительский (одноголосый закадровый) (RAIM)","update":"2018-08-13 13:11:15","iframe_src":"//8965.svetacdn.in/IAF0wWTdNYZm/movie/18217"},{"id":18216,"title":"Секрет","kp_id":"55725","imdb_id":"tt0227458","world_art_id":null,"type":"movie","add":"2018-08-11 00:33:28","orig_title":"Le secret","year":"2000-11-01","translations":["Любительский (многоголосый закадровый)"],"quality":"dvdrip","translation":"Любительский (многоголосый закадровый)","update":"2018-08-13 13:12:48","iframe_src":"//8965.svetacdn.in/IAF0wWTdNYZm/movie/18216"},{"id":18215,"title":"Секрет","kp_id":"150355","imdb_id":"tt0072131","world_art_id":null,"type":"movie","add":"2018-08-11 00:31:30","orig_title":"Le secret","year":"1974-10-09","translations":["Любительский (одноголосый закадровый)"],"quality":"dvdrip","translation":"Любительский (одноголосый закадровый)","update":"2018-08-13 13:12:55","iframe_src":"//8965.svetacdn.in/IAF0wWTdNYZm/movie/18215"},{"id":18175,"title":"Священный груз","kp_id":"6946","imdb_id":"tt0114321","world_art_id":null,"type":"movie","add":"2018-08-08 23:41:02","orig_title":"Sacred Cargo","year":"1996-08-13","translations":["Авторский (одноголосый закадровый) (Гаврилов Андрей)","Профессиональный (двухголосый закадровый) (НТВ)"],"quality":"dvdrip","translation":"Авторский (одноголосый закадровый) (Гаврилов Андрей)","update":"2018-08-13 13:04:46","iframe_src":"//8965.svetacdn.in/IAF0wWTdNYZm/movie/18175"},{"id":18149,"title":"Книги Просперо","kp_id":"17055","imdb_id":"tt0102722","world_art_id":null,"type":"movie","add":"2018-08-07 23:27:58","orig_title":"Prospero's Books","year":"1991-08-30","translations":["Авторский (одноголосый закадровый) (Михалёв Алексей)","Профессиональный (двухголосый закадровый) (НТВ)"],"quality":"dvdrip","translation":"Авторский (одноголосый закадровый) (Михалёв Алексей)","update":"2018-08-13 13:05:07","iframe_src":"//8965.svetacdn.in/IAF0wWTdNYZm/movie/18149"},{"id":16928,"title":"Блокнот Сары","kp_id":"1038805","imdb_id":"tt6599742","world_art_id":null,"type":"movie","add":"2018-05-27 21:26:57","orig_title":"El cuaderno de Sara","year":"2018-01-31","translations":["Любительский (многоголосый закадровый) (Синема УС)","Профессиональный (многоголосый закадровый) (GreenРай Studio)"],"quality":"hdrip","translation":"Любительский (многоголосый закадровый) (Синема УС)","update":"2018-08-14 06:34:21","iframe_src":"//8965.svetacdn.in/IAF0wWTdNYZm/movie/16928"},{"id":10580,"title":"Специальное задание","kp_id":"258738","imdb_id":"tt0827521","world_art_id":null,"type":"movie","add":"2017-03-29 08:28:57","orig_title":"The Shepherd","year":"2008-03-04","translations":["Профессиональный (многоголосый закадровый)"],"quality":"webdl","translation":"Профессиональный (многоголосый закадровый)","update":"2018-08-13 12:20:20","iframe_src":"//8965.svetacdn.in/IAF0wWTdNYZm/movie/10580"}],"current_page":2182,"first_page_url":"https://videocdn.tv/api/short?limit=100&api_token=6Onb1W1alEUrBcKJZD3GoKBbWyAl2uG2&cache32182=32182&page=1","from":218101,"last_page":709,"last_page_url":"https://videocdn.tv/api/short?limit=100&api_token=6Onb1W1alEUrBcKJZD3GoKBbWyAl2uG2&cache32182=32182&page=709","next_page_url":null,"path":"https://videocdn.tv/api/short","per_page":100,"prev_page_url":"https://videocdn.tv/api/short?limit=100&api_token=6Onb1W1alEUrBcKJZD3GoKBbWyAl2uG2&cache32182=32182&page=2181","to":218120,"total":70884}