{"result":true,"data":[{"id":46087,"title":"Жизнь в пекле пустыни","kp_id":"1232694","imdb_id":"tt9640694","world_art_id":null,"type":"movie","add":"2020-12-15 06:58:26","orig_title":"Vivir Allí No Es el Infierno Es el Fuego del Desierto La Plenitud de la Vida Quedó Ahí Como un Árbol","year":"2018-10-08","translations":["Любительский (многоголосый закадровый) (Синема УС)"],"quality":"webdl","translation":"Любительский (многоголосый закадровый) (Синема УС)","update":"2020-12-15 09:08:47","iframe_src":"//83.svetacdn.in/PfJ50H0ZBPg3/movie/46087"},{"id":46085,"title":"Эшли Гарсиа: гениальная и влюбленная","kp_id":"1411324","imdb_id":"tt12593558","world_art_id":null,"type":"movie","add":"2020-12-15 06:54:47","orig_title":"Ashley Garcia: Genius in Love","year":"2020-07-20","translations":["Любительский (многоголосый закадровый) (Синема УС)"],"quality":"webdl","translation":"Любительский (многоголосый закадровый) (Синема УС)","update":"2020-12-15 09:46:33","iframe_src":"//83.svetacdn.in/PfJ50H0ZBPg3/movie/46085"},{"id":46081,"title":"Цена любви","kp_id":null,"imdb_id":"tt13586568","world_art_id":null,"type":"movie","add":"2020-12-15 06:48:07","orig_title":"Price of Love","year":"2020-11-06","translations":["Любительский (многоголосый закадровый) (Синема УС)"],"quality":"webdl","translation":"Любительский (многоголосый закадровый) (Синема УС)","update":"2020-12-15 09:46:16","iframe_src":"//83.svetacdn.in/PfJ50H0ZBPg3/movie/46081"},{"id":46078,"title":"Пассажир","kp_id":null,"imdb_id":"tt10667070","world_art_id":null,"type":"movie","add":"2020-12-15 06:44:00","orig_title":"The Passenger","year":"2020-12-14","translations":["Любительский (многоголосый закадровый) (Синема УС)"],"quality":"webdl","translation":"Любительский (многоголосый закадровый) (Синема УС)","update":"2020-12-15 09:10:07","iframe_src":"//83.svetacdn.in/PfJ50H0ZBPg3/movie/46078"},{"id":46076,"title":"Секреты в снегу","kp_id":"1378876","imdb_id":"tt12246284","world_art_id":null,"type":"movie","add":"2020-12-15 06:41:13","orig_title":"Secrets in the Snow","year":"2020-12-05","translations":["Любительский (многоголосый закадровый) (Синема УС)"],"quality":"webdl","translation":"Любительский (многоголосый закадровый) (Синема УС)","update":"2020-12-15 09:08:09","iframe_src":"//83.svetacdn.in/PfJ50H0ZBPg3/movie/46076"},{"id":46043,"title":"Формула света","kp_id":"44426","imdb_id":"tt0251701","world_art_id":null,"type":"movie","add":"2020-12-13 15:06:57","orig_title":"Formula sveta","year":"1982-01-01","translations":["Оригинальная дорожка"],"quality":"sat","translation":"Оригинальная дорожка","update":"2020-12-15 09:08:09","iframe_src":"//83.svetacdn.in/PfJ50H0ZBPg3/movie/46043"},{"id":46042,"title":"Хлеб пахнет порохом","kp_id":"44771","imdb_id":"tt0316107","world_art_id":null,"type":"movie","add":"2020-12-13 15:03:21","orig_title":"Khleb pakhnet porokhom","year":"1974-06-17","translations":["Оригинальная дорожка"],"quality":"webdl","translation":"Оригинальная дорожка","update":"2020-12-15 09:07:03","iframe_src":"//83.svetacdn.in/PfJ50H0ZBPg3/movie/46042"},{"id":46040,"title":"Новая Москва","kp_id":"46467","imdb_id":"tt0174990","world_art_id":null,"type":"movie","add":"2020-12-13 10:36:56","orig_title":"Novaya Moskva","year":"1938-01-01","translations":["Оригинальная дорожка"],"quality":"dvdrip","translation":"Оригинальная дорожка","update":"2020-12-15 09:06:18","iframe_src":"//83.svetacdn.in/PfJ50H0ZBPg3/movie/46040"},{"id":46039,"title":"Поют жаворонки","kp_id":"542273","imdb_id":"tt5229498","world_art_id":null,"type":"movie","add":"2020-12-13 10:34:06","orig_title":"Poyut zhavoronki","year":"1953-06-15","translations":["Оригинальная дорожка"],"quality":"sat","translation":"Оригинальная дорожка","update":"2020-12-15 09:05:17","iframe_src":"//83.svetacdn.in/PfJ50H0ZBPg3/movie/46039"},{"id":46033,"title":"Красная метель","kp_id":"565345","imdb_id":"tt5299900","world_art_id":null,"type":"movie","add":"2020-12-12 13:26:10","orig_title":"Krasnaya metel","year":"1971-04-03","translations":["Оригинальная дорожка"],"quality":"vhs","translation":"Оригинальная дорожка","update":"2020-12-15 09:04:10","iframe_src":"//83.svetacdn.in/PfJ50H0ZBPg3/movie/46033"},{"id":46032,"title":"Две строчки мелким шрифтом","kp_id":"44348","imdb_id":"tt0082303","world_art_id":null,"type":"movie","add":"2020-12-12 13:19:42","orig_title":"Dve strochki melkim shriftom","year":"1981-04-09","translations":["Оригинальная дорожка"],"quality":"sat","translation":"Оригинальная дорожка","update":"2020-12-15 09:02:49","iframe_src":"//83.svetacdn.in/PfJ50H0ZBPg3/movie/46032"},{"id":46030,"title":"Восточный коридор, или рэкет по...","kp_id":"45859","imdb_id":"tt0334658","world_art_id":null,"type":"movie","add":"2020-12-12 13:13:07","orig_title":"Vostochnyy koridor, ili reket po...","year":"1990-01-01","translations":["Оригинальная дорожка"],"quality":"sat","translation":"Оригинальная дорожка","update":"2020-12-15 08:59:30","iframe_src":"//83.svetacdn.in/PfJ50H0ZBPg3/movie/46030"},{"id":46029,"title":"Враги","kp_id":"45905","imdb_id":"tt0076898","world_art_id":null,"type":"movie","add":"2020-12-12 13:08:22","orig_title":"Vragi","year":"1978-12-18","translations":["Оригинальная дорожка"],"quality":"tv","translation":"Оригинальная дорожка","update":"2020-12-15 08:58:29","iframe_src":"//83.svetacdn.in/PfJ50H0ZBPg3/movie/46029"},{"id":46028,"title":"Гамбринус","kp_id":"44455","imdb_id":"tt0099631","world_art_id":null,"type":"movie","add":"2020-12-12 13:06:25","orig_title":"Gambrinus","year":"1990-01-01","translations":["Оригинальная дорожка"],"quality":"dvdrip","translation":"Оригинальная дорожка","update":"2020-12-15 08:54:53","iframe_src":"//83.svetacdn.in/PfJ50H0ZBPg3/movie/46028"},{"id":46027,"title":"Долгая дорога к себе","kp_id":"44252","imdb_id":"tt0252391","world_art_id":null,"type":"movie","add":"2020-12-12 13:02:11","orig_title":"Dolgaya doroga k sebe","year":"1983-03-07","translations":["Оригинальная дорожка"],"quality":"tv","translation":"Оригинальная дорожка","update":"2020-12-15 08:52:33","iframe_src":"//83.svetacdn.in/PfJ50H0ZBPg3/movie/46027"},{"id":46026,"title":"Дочь партизана","kp_id":"44242","imdb_id":"tt0128993","world_art_id":null,"type":"movie","add":"2020-12-12 12:59:30","orig_title":"Doch partizana","year":"1936-04-05","translations":["Оригинальная дорожка"],"quality":"webdl","translation":"Оригинальная дорожка","update":"2020-12-15 08:51:41","iframe_src":"//83.svetacdn.in/PfJ50H0ZBPg3/movie/46026"},{"id":46025,"title":"Мой «Жигулёнок»","kp_id":"910083","imdb_id":"tt8157490","world_art_id":null,"type":"movie","add":"2020-12-12 12:33:03","orig_title":"Moy 'Zhigulyonok'","year":"1974-01-01","translations":["Оригинальная дорожка"],"quality":"webdl","translation":"Оригинальная дорожка","update":"2020-12-15 08:49:56","iframe_src":"//83.svetacdn.in/PfJ50H0ZBPg3/movie/46025"},{"id":29696,"title":"Восточный коридор","kp_id":"45858","imdb_id":"tt0348327","world_art_id":null,"type":"movie","add":"2019-08-02 21:03:25","orig_title":"Vostochny koridor","year":"1966-02-19","translations":["Оригинальная дорожка"],"quality":"webdl","translation":"Оригинальная дорожка","update":"2020-12-15 09:01:46","iframe_src":"//83.svetacdn.in/PfJ50H0ZBPg3/movie/29696"},{"id":29316,"title":"Любой ценой","kp_id":"45163","imdb_id":"tt0253224","world_art_id":null,"type":"movie","add":"2019-07-23 07:30:15","orig_title":"Lyuboy tsenoy","year":"1959-09-12","translations":["Оригинальная дорожка"],"quality":"webdl","translation":"Оригинальная дорожка","update":"2020-12-15 08:50:59","iframe_src":"//83.svetacdn.in/PfJ50H0ZBPg3/movie/29316"},{"id":25575,"title":"Добряки","kp_id":"44241","imdb_id":"tt0148076","world_art_id":null,"type":"movie","add":"2019-04-28 20:30:55","orig_title":"Dobryaki","year":"1980-08-11","translations":["Оригинальная дорожка"],"quality":"webdl","translation":"Оригинальная дорожка","update":"2020-12-15 08:53:47","iframe_src":"//83.svetacdn.in/PfJ50H0ZBPg3/movie/25575"}],"current_page":871,"first_page_url":"https://videocdn.tv/api/short?limit=100&api_token=RgFQdUIR2dRmwv8iYa5SnFNgnw3vpjKj&cache3871=3871&page=1","from":87001,"last_page":716,"last_page_url":"https://videocdn.tv/api/short?limit=100&api_token=RgFQdUIR2dRmwv8iYa5SnFNgnw3vpjKj&cache3871=3871&page=716","next_page_url":null,"path":"https://videocdn.tv/api/short","per_page":100,"prev_page_url":"https://videocdn.tv/api/short?limit=100&api_token=RgFQdUIR2dRmwv8iYa5SnFNgnw3vpjKj&cache3871=3871&page=870","to":87020,"total":71552}