{"result":true,"data":[{"id":3458,"title":"Дневники нимфоманки","kp_id":"428816","imdb_id":"tt1111890","world_art_id":null,"type":"movie","add":"2016-06-28 15:45:00","orig_title":"Diario de una ninfómana","year":"2008-10-17","translations":["Профессиональный (многоголосый закадровый)"],"quality":"bd","translation":"Профессиональный (многоголосый закадровый)","update":"2016-06-29 05:29:23","iframe_src":"//83.svetacdn.in/PfJ50H0ZBPg3/movie/3458"},{"id":3457,"title":"Q: Загадка женщины","kp_id":"595937","imdb_id":"tt1879030","world_art_id":null,"type":"movie","add":"2016-06-28 15:41:22","orig_title":"Q","year":"2011-09-14","translations":["Профессиональный (многоголосый закадровый)"],"quality":"bd","translation":"Профессиональный (многоголосый закадровый)","update":"2016-06-29 05:36:52","iframe_src":"//83.svetacdn.in/PfJ50H0ZBPg3/movie/3457"},{"id":3456,"title":"Частные уроки","kp_id":"812397","imdb_id":"tt3985604","world_art_id":null,"type":"movie","add":"2016-06-28 15:37:05","orig_title":"Hwaryeonhan oechul","year":"2013-12-05","translations":["Любительский (многоголосый закадровый)"],"quality":"hdtv","translation":"Любительский (многоголосый закадровый)","update":"2016-06-29 05:41:06","iframe_src":"//83.svetacdn.in/PfJ50H0ZBPg3/movie/3456"},{"id":3455,"title":"9 песен","kp_id":"86198","imdb_id":"tt0411705","world_art_id":null,"type":"movie","add":"2016-06-28 15:31:02","orig_title":"9 Songs","year":"2004-05-16","translations":["Профессиональный (многоголосый закадровый)"],"quality":"bd","translation":"Профессиональный (многоголосый закадровый)","update":"2016-06-29 05:54:59","iframe_src":"//83.svetacdn.in/PfJ50H0ZBPg3/movie/3455"},{"id":3454,"title":"Под подозрением","kp_id":"7600","imdb_id":"tt0105691","world_art_id":null,"type":"movie","add":"2016-06-28 15:28:31","orig_title":"Under Suspicion","year":"1991-09-27","translations":["Профессиональный (двухголосый закадровый)"],"quality":"bd","translation":"Профессиональный (двухголосый закадровый)","update":"2016-06-29 05:57:41","iframe_src":"//83.svetacdn.in/PfJ50H0ZBPg3/movie/3454"},{"id":3453,"title":"Другой мужчина","kp_id":"279602","imdb_id":"tt0974613","world_art_id":null,"type":"movie","add":"2016-06-28 15:27:04","orig_title":"The Other Man","year":"2008-09-07","translations":["Профессиональный (многоголосый закадровый)"],"quality":"bd","translation":"Профессиональный (многоголосый закадровый)","update":"2016-06-29 05:59:52","iframe_src":"//83.svetacdn.in/PfJ50H0ZBPg3/movie/3453"},{"id":3452,"title":"Реальная белка","kp_id":"579689","imdb_id":"tt1821658","world_art_id":null,"type":"movie","add":"2016-06-28 15:25:21","orig_title":"The Nut Job","year":"2014-01-11","translations":["Полное дублирование"],"quality":"bd","translation":"Полное дублирование","update":"2016-06-29 06:01:29","iframe_src":"//83.svetacdn.in/PfJ50H0ZBPg3/movie/3452"},{"id":3431,"title":"Великая иллюзия","kp_id":"473","imdb_id":"tt0028950","world_art_id":null,"type":"movie","add":"2016-06-28 12:20:58","orig_title":"La grande illusion","year":"1937-06-04","translations":["Профессиональный (многоголосый закадровый)"],"quality":"bd","translation":"Профессиональный (многоголосый закадровый)","update":"2016-06-28 15:36:35","iframe_src":"//83.svetacdn.in/PfJ50H0ZBPg3/movie/3431"},{"id":3430,"title":"Дурная слава","kp_id":"419","imdb_id":"tt0038787","world_art_id":null,"type":"movie","add":"2016-06-28 12:20:04","orig_title":"Notorious","year":"1946-08-15","translations":["Профессиональный (многоголосый закадровый)"],"quality":"bd","translation":"Профессиональный (многоголосый закадровый)","update":"2016-06-28 15:50:34","iframe_src":"//83.svetacdn.in/PfJ50H0ZBPg3/movie/3430"},{"id":3428,"title":"Агирре, Гнев Божий","kp_id":"8206","imdb_id":"tt0068182","world_art_id":null,"type":"movie","add":"2016-06-28 12:18:21","orig_title":"Aguirre, der Zorn Gottes","year":"1972-12-29","translations":["Профессиональный (многоголосый закадровый)"],"quality":"bd","translation":"Профессиональный (многоголосый закадровый)","update":"2016-06-28 15:39:42","iframe_src":"//83.svetacdn.in/PfJ50H0ZBPg3/movie/3428"},{"id":3420,"title":"Сокровища Сьерра Мадре","kp_id":"393","imdb_id":"tt0040897","world_art_id":null,"type":"movie","add":"2016-06-28 12:02:33","orig_title":"The Treasure of the Sierra Madre","year":"1948-01-24","translations":["Профессиональный (многоголосый закадровый)"],"quality":"bd","translation":"Профессиональный (многоголосый закадровый)","update":"2016-06-29 07:05:46","iframe_src":"//83.svetacdn.in/PfJ50H0ZBPg3/movie/3420"},{"id":3417,"title":"Токийская повесть","kp_id":"79836","imdb_id":"tt0046438","world_art_id":null,"type":"movie","add":"2016-06-28 11:46:53","orig_title":"Tôkyô monogatari","year":"1953-11-03","translations":["Профессиональный (многоголосый закадровый)"],"quality":"bd","translation":"Профессиональный (многоголосый закадровый)","update":"2016-06-28 15:41:14","iframe_src":"//83.svetacdn.in/PfJ50H0ZBPg3/movie/3417"},{"id":3390,"title":"В порту","kp_id":"398","imdb_id":"tt0047296","world_art_id":null,"type":"movie","add":"2016-06-27 19:24:58","orig_title":"On the Waterfront","year":"1954-06-22","translations":["Профессиональный (двухголосый закадровый)"],"quality":"bd","translation":"Профессиональный (двухголосый закадровый)","update":"2016-06-28 12:04:42","iframe_src":"//83.svetacdn.in/PfJ50H0ZBPg3/movie/3390"},{"id":3389,"title":"Мост через реку Квай","kp_id":"369","imdb_id":"tt0050212","world_art_id":null,"type":"movie","add":"2016-06-27 19:24:09","orig_title":"The Bridge on the River Kwai","year":"1957-10-02","translations":["Профессиональный (многоголосый закадровый) (iTunes)"],"quality":"bd","translation":"Профессиональный (многоголосый закадровый) (iTunes)","update":"2016-06-28 11:58:45","iframe_src":"//83.svetacdn.in/PfJ50H0ZBPg3/movie/3389"},{"id":3387,"title":"Сансет бульвар","kp_id":"353","imdb_id":"tt0043014","world_art_id":null,"type":"movie","add":"2016-06-27 19:21:38","orig_title":"Sunset Blvd.","year":"1950-08-10","translations":["Профессиональный (многоголосый закадровый)"],"quality":"bd","translation":"Профессиональный (многоголосый закадровый)","update":"2016-06-28 11:50:42","iframe_src":"//83.svetacdn.in/PfJ50H0ZBPg3/movie/3387"},{"id":3386,"title":"Доктор Стрейнджлав, или Как я научился не волноваться и полюбил атомную бомбу","kp_id":"334","imdb_id":"tt0057012","world_art_id":null,"type":"movie","add":"2016-06-27 19:20:30","orig_title":"Dr. Strangelove or: How I Learned to Stop Worrying and Love the Bomb","year":"1964-01-29","translations":["Профессиональный (многоголосый закадровый)"],"quality":"bd","translation":"Профессиональный (многоголосый закадровый)","update":"2016-06-28 15:50:54","iframe_src":"//83.svetacdn.in/PfJ50H0ZBPg3/movie/3386"},{"id":3384,"title":"Двойная страховка","kp_id":"364","imdb_id":"tt0036775","world_art_id":null,"type":"movie","add":"2016-06-27 19:17:56","orig_title":"Double Indemnity","year":"1944-04-24","translations":["Профессиональный (многоголосый закадровый)"],"quality":"hdtv","translation":"Профессиональный (многоголосый закадровый)","update":"2016-06-28 11:36:15","iframe_src":"//83.svetacdn.in/PfJ50H0ZBPg3/movie/3384"},{"id":3380,"title":"Гражданин Кейн","kp_id":"331","imdb_id":"tt0033467","world_art_id":null,"type":"movie","add":"2016-06-27 19:13:16","orig_title":"Citizen Kane","year":"1941-05-01","translations":["Профессиональный (многоголосый закадровый)"],"quality":"bd","translation":"Профессиональный (многоголосый закадровый)","update":"2016-06-28 12:08:14","iframe_src":"//83.svetacdn.in/PfJ50H0ZBPg3/movie/3380"},{"id":3375,"title":"Менее привычная жизнь","kp_id":"7571","imdb_id":"tt0119535","world_art_id":null,"type":"movie","add":"2016-06-27 09:53:16","orig_title":"A Life Less Ordinary","year":"1997-10-24","translations":["Профессиональный (многоголосый закадровый)"],"quality":"bd","translation":"Профессиональный (многоголосый закадровый)","update":"2016-06-28 11:18:30","iframe_src":"//83.svetacdn.in/PfJ50H0ZBPg3/movie/3375"},{"id":3338,"title":"Телеведущий: Легенда о Роне Бургунди","kp_id":"23956","imdb_id":"tt0357413","world_art_id":null,"type":"movie","add":"2016-06-23 14:04:46","orig_title":"Anchorman: The Legend of Ron Burgundy","year":"2004-06-24","translations":["Полное дублирование"],"quality":"hddvd","translation":"Полное дублирование","update":"2016-06-29 06:50:41","iframe_src":"//83.svetacdn.in/PfJ50H0ZBPg3/movie/3338"}],"current_page":2701,"first_page_url":"https://videocdn.tv/api/short?limit=100&api_token=RgFQdUIR2dRmwv8iYa5SnFNgnw3vpjKj&cache32701=32701&page=1","from":270001,"last_page":701,"last_page_url":"https://videocdn.tv/api/short?limit=100&api_token=RgFQdUIR2dRmwv8iYa5SnFNgnw3vpjKj&cache32701=32701&page=701","next_page_url":null,"path":"https://videocdn.tv/api/short","per_page":100,"prev_page_url":"https://videocdn.tv/api/short?limit=100&api_token=RgFQdUIR2dRmwv8iYa5SnFNgnw3vpjKj&cache32701=32701&page=2700","to":270020,"total":70041}