{"result":true,"data":[{"id":23173,"title":"Номер 37","kp_id":"1084829","imdb_id":"tt6985448","world_art_id":null,"type":"movie","add":"2019-03-17 22:58:56","orig_title":"Nommer 37","year":"2018-03-10","translations":["Любительский (многоголосый закадровый) (Синема УС)"],"quality":"webdl","translation":"Любительский (многоголосый закадровый) (Синема УС)","update":"2019-03-18 05:49:49","iframe_src":"//24213.svetacdn.in/si4jsFRrtgrT/movie/23173"},{"id":23160,"title":"Инопланетяне","kp_id":null,"imdb_id":"tt8933764","world_art_id":null,"type":"movie","add":"2019-03-17 22:22:30","orig_title":"E.T Made in China","year":"2018-07-01","translations":["Любительский (многоголосый закадровый) (Колобок)"],"quality":"webdl","translation":"Любительский (многоголосый закадровый) (Колобок)","update":"2019-03-18 05:17:42","iframe_src":"//24213.svetacdn.in/si4jsFRrtgrT/movie/23160"},{"id":23156,"title":"Хроники тайн: несправедливо осужденный","kp_id":"1245577","imdb_id":"tt9814988","world_art_id":null,"type":"movie","add":"2019-03-17 22:10:12","orig_title":"The Chronicle Mysteries: The Wrong Man","year":"2019-02-24","translations":["Любительский (многоголосый закадровый) (Синема УС)"],"quality":"hdtv","translation":"Любительский (многоголосый закадровый) (Синема УС)","update":"2019-03-18 05:14:18","iframe_src":"//24213.svetacdn.in/si4jsFRrtgrT/movie/23156"},{"id":23135,"title":"Счастье на двоих","kp_id":"1062780","imdb_id":"tt6493292","world_art_id":null,"type":"movie","add":"2019-03-15 16:27:43","orig_title":"Two for Joy","year":"2018-06-23","translations":["Любительский (многоголосый закадровый) (Синема УС)"],"quality":"webdl","translation":"Любительский (многоголосый закадровый) (Синема УС)","update":"2019-03-18 05:05:21","iframe_src":"//24213.svetacdn.in/si4jsFRrtgrT/movie/23135"},{"id":23133,"title":"Безропотно во тьму","kp_id":"958533","imdb_id":"tt5271794","world_art_id":null,"type":"movie","add":"2019-03-15 16:21:58","orig_title":"That Good Night","year":"2017-06-22","translations":["Любительский (многоголосый закадровый) (Синема УС)"],"quality":"webdl","translation":"Любительский (многоголосый закадровый) (Синема УС)","update":"2019-03-18 05:09:10","iframe_src":"//24213.svetacdn.in/si4jsFRrtgrT/movie/23133"},{"id":23132,"title":"Клуб самоубийц","kp_id":"1039851","imdb_id":"tt5356318","world_art_id":null,"type":"movie","add":"2019-03-15 16:20:08","orig_title":"Suicide Club","year":"2018-01-01","translations":["Любительский (многоголосый закадровый) (Синема УС)"],"quality":"webdl","translation":"Любительский (многоголосый закадровый) (Синема УС)","update":"2019-03-18 05:07:53","iframe_src":"//24213.svetacdn.in/si4jsFRrtgrT/movie/23132"},{"id":23129,"title":"Лицом к лицу с правдой","kp_id":null,"imdb_id":"tt9663460","world_art_id":null,"type":"movie","add":"2019-03-15 15:53:09","orig_title":"Rubaru Roshni","year":"2019-01-26","translations":["Любительский (многоголосый закадровый) (Honey&Haseena)"],"quality":"bd","translation":"Любительский (многоголосый закадровый) (Honey&Haseena)","update":"2019-03-18 05:19:55","iframe_src":"//24213.svetacdn.in/si4jsFRrtgrT/movie/23129"},{"id":23097,"title":"Неисправимый лгун","kp_id":"46388","imdb_id":"tt0185532","world_art_id":null,"type":"movie","add":"2019-03-15 09:16:19","orig_title":"Neispravimyy lgun","year":"1974-05-24","translations":["Оригинальная дорожка"],"quality":"hdtv","translation":"Оригинальная дорожка","update":"2019-03-17 18:09:04","iframe_src":"//24213.svetacdn.in/si4jsFRrtgrT/movie/23097"},{"id":23096,"title":"Все умрут, а я останусь","kp_id":"412248","imdb_id":null,"world_art_id":null,"type":"movie","add":"2019-03-15 09:14:13","orig_title":"Все умрут, а я останусь","year":"2008-05-21","translations":["Оригинальная дорожка"],"quality":"dvdrip","translation":"Оригинальная дорожка","update":"2019-03-17 18:06:31","iframe_src":"//24213.svetacdn.in/si4jsFRrtgrT/movie/23096"},{"id":23095,"title":"Комедия строгого режима","kp_id":"41257","imdb_id":"tt0106591","world_art_id":null,"type":"movie","add":"2019-03-15 09:06:38","orig_title":"Komediya strogogo rezhima","year":"1992-11-01","translations":["Оригинальная дорожка"],"quality":"dvdrip","translation":"Оригинальная дорожка","update":"2019-03-17 18:03:56","iframe_src":"//24213.svetacdn.in/si4jsFRrtgrT/movie/23095"},{"id":23094,"title":"Человек ниоткуда","kp_id":"573705","imdb_id":"tt1839432","world_art_id":null,"type":"movie","add":"2019-03-15 09:01:27","orig_title":"Chelovek niotkuda","year":"2010-12-05","translations":["Оригинальная дорожка"],"quality":"dvdrip","translation":"Оригинальная дорожка","update":"2019-03-17 18:02:48","iframe_src":"//24213.svetacdn.in/si4jsFRrtgrT/movie/23094"},{"id":23093,"title":"Служу Отечеству!","kp_id":"581959","imdb_id":"tt2455376","world_art_id":null,"type":"movie","add":"2019-03-15 08:59:48","orig_title":"Sluzhu Otechestvu!","year":"2011-02-27","translations":["Оригинальная дорожка"],"quality":"dvdrip","translation":"Оригинальная дорожка","update":"2019-03-17 18:00:40","iframe_src":"//24213.svetacdn.in/si4jsFRrtgrT/movie/23093"},{"id":23092,"title":"Непрощенные","kp_id":"420162","imdb_id":"tt1390967","world_art_id":null,"type":"movie","add":"2019-03-15 08:58:32","orig_title":"Neproshchennye","year":"2009-09-24","translations":["Оригинальная дорожка"],"quality":"dvdrip","translation":"Оригинальная дорожка","update":"2019-03-17 17:59:24","iframe_src":"//24213.svetacdn.in/si4jsFRrtgrT/movie/23092"},{"id":23091,"title":"Дело было в Пенькове","kp_id":"44123","imdb_id":"tt0050303","world_art_id":null,"type":"movie","add":"2019-03-15 08:49:38","orig_title":"Delo bylo v Penkove","year":"1958-02-17","translations":["Оригинальная дорожка"],"quality":"hdtv","translation":"Оригинальная дорожка","update":"2019-03-17 17:54:28","iframe_src":"//24213.svetacdn.in/si4jsFRrtgrT/movie/23091"},{"id":23090,"title":"Капкан для киллера","kp_id":"412106","imdb_id":"tt1585259","world_art_id":null,"type":"movie","add":"2019-03-15 08:47:49","orig_title":"Kapkan dlya killera","year":"2009-06-01","translations":["Оригинальная дорожка"],"quality":"dvdrip","translation":"Оригинальная дорожка","update":"2019-03-17 17:48:54","iframe_src":"//24213.svetacdn.in/si4jsFRrtgrT/movie/23090"},{"id":23088,"title":"Анжелика и король","kp_id":"77356","imdb_id":"tt0058909","world_art_id":null,"type":"movie","add":"2019-03-15 08:38:46","orig_title":"Angélique et le roy","year":"1966-01-31","translations":["Полное дублирование"],"quality":"bd","translation":"Полное дублирование","update":"2019-03-17 17:42:43","iframe_src":"//24213.svetacdn.in/si4jsFRrtgrT/movie/23088"},{"id":23056,"title":"Двойная фамилия","kp_id":"382307","imdb_id":"tt1409828","world_art_id":null,"type":"movie","add":"2019-03-14 07:27:31","orig_title":"Dvoynaya familiya","year":"2012-11-22","translations":["Оригинальная дорожка"],"quality":"hdtv","translation":"Оригинальная дорожка","update":"2019-03-17 17:56:04","iframe_src":"//24213.svetacdn.in/si4jsFRrtgrT/movie/23056"},{"id":21481,"title":"Норм и Несокрушимые: ключи от королевства","kp_id":"1153779","imdb_id":"tt7913394","world_art_id":null,"type":"movie","add":"2019-01-13 20:49:59","orig_title":"Norm of the North: Keys to the Kingdom","year":"2018-08-31","translations":["Любительский (многоголосый закадровый) (@MUZOBOZ@)","Полное дублирование"],"quality":"webdl","translation":"Любительский (многоголосый закадровый) (@MUZOBOZ@)","update":"2019-03-18 05:12:15","iframe_src":"//24213.svetacdn.in/si4jsFRrtgrT/movie/21481"},{"id":14812,"title":"Отцовская одержимость","kp_id":"1079290","imdb_id":"tt7394406","world_art_id":null,"type":"movie","add":"2018-01-06 01:41:41","orig_title":"The Landlord","year":"2017-12-26","translations":["Профессиональный (многоголосый закадровый)","Любительский (многоголосый закадровый) (Синема УС)"],"quality":"hdtv","translation":"Профессиональный (многоголосый закадровый)","update":"2019-03-18 04:59:49","iframe_src":"//24213.svetacdn.in/si4jsFRrtgrT/movie/14812"},{"id":11400,"title":"Монстр в шкафу","kp_id":"844156","imdb_id":"tt3638396","world_art_id":null,"type":"movie","add":"2017-05-05 07:06:05","orig_title":"Closet Monster","year":"2015-09-13","translations":["Любительский (одноголосый закадровый)","Профессиональный (многоголосый закадровый) (GreenРай Studio)","Любительский (двухголосый закадровый) (LakeFilms)"],"quality":"webdl","translation":"Любительский (одноголосый закадровый)","update":"2019-03-18 05:10:17","iframe_src":"//24213.svetacdn.in/si4jsFRrtgrT/movie/11400"}],"current_page":2103,"first_page_url":"https://videocdn.tv/api/short?limit=100&api_token=X6EwAUfE5M9xbo7y0Bp0aPf3uXxG2KLL&cache32103=32103&page=1","from":210201,"last_page":730,"last_page_url":"https://videocdn.tv/api/short?limit=100&api_token=X6EwAUfE5M9xbo7y0Bp0aPf3uXxG2KLL&cache32103=32103&page=730","next_page_url":null,"path":"https://videocdn.tv/api/short","per_page":100,"prev_page_url":"https://videocdn.tv/api/short?limit=100&api_token=X6EwAUfE5M9xbo7y0Bp0aPf3uXxG2KLL&cache32103=32103&page=2102","to":210220,"total":72950}