{"result":true,"data":[{"id":50132,"title":"Повитуха","kp_id":"1237131","imdb_id":"tt9766814","world_art_id":null,"type":"movie","add":"2021-05-05 10:23:44","orig_title":"The Midwife","year":"2021-05-04","translations":["Любительский (многоголосый закадровый) (Синема УС)"],"quality":"webdl","translation":"Любительский (многоголосый закадровый) (Синема УС)","update":"2021-05-05 15:31:47","iframe_src":"//7720.svetacdn.in/IAF0wWTdNYZm/movie/50132"},{"id":50127,"title":"Обнажённые на ночной улице","kp_id":"1402107","imdb_id":"tt9455306","world_art_id":null,"type":"movie","add":"2021-05-05 05:15:59","orig_title":"Nues dans les rues la nuit","year":"2019-04-28","translations":["Любительский (одноголосый закадровый) (Водяной Александр)"],"quality":"webdl","translation":"Любительский (одноголосый закадровый) (Водяной Александр)","update":"2021-05-05 11:21:15","iframe_src":"//7720.svetacdn.in/IAF0wWTdNYZm/movie/50127"},{"id":50122,"title":"Подростки из Химеры","kp_id":"1407799","imdb_id":"tt12837402","world_art_id":null,"type":"movie","add":"2021-05-04 21:10:20","orig_title":"Adolescents of Chymera","year":"2021-02-12","translations":["Любительский (многоголосый закадровый) (Синема УС)"],"quality":"webdl","translation":"Любительский (многоголосый закадровый) (Синема УС)","update":"2021-05-05 06:46:04","iframe_src":"//7720.svetacdn.in/IAF0wWTdNYZm/movie/50122"},{"id":50094,"title":"Бегство в автомобиле","kp_id":"2159","imdb_id":"tt0005571","world_art_id":null,"type":"movie","add":"2021-05-03 14:42:56","orig_title":"A Jitney Elopement","year":"1915-04-01","translations":["Original (English)"],"quality":"bd","translation":"Original (English)","update":"2021-05-05 06:21:47","iframe_src":"//7720.svetacdn.in/IAF0wWTdNYZm/movie/50094"},{"id":49345,"title":"Майор Гром: Чумной Доктор","kp_id":"1109271","imdb_id":"tt7601480","world_art_id":null,"type":"movie","add":"2021-04-04 22:58:54","orig_title":"Mayor Grom: Chumnoy Doktor","year":"2021-04-01","translations":["Оригинальная дорожка"],"quality":"webdl","translation":"Оригинальная дорожка","update":"2021-05-05 11:03:45","iframe_src":"//7720.svetacdn.in/IAF0wWTdNYZm/movie/49345"},{"id":48494,"title":"Десять секунд до ада","kp_id":"168961","imdb_id":"tt0053341","world_art_id":null,"type":"movie","add":"2021-03-06 16:10:42","orig_title":"Ten Seconds to Hell","year":"1959-04-23","translations":["Профессиональный (двухголосый закадровый) (НТВ)","Original (English)","Любительский (одноголосый закадровый) (Линда)"],"quality":"bd","translation":"Профессиональный (двухголосый закадровый) (НТВ)","update":"2021-05-05 06:28:02","iframe_src":"//7720.svetacdn.in/IAF0wWTdNYZm/movie/48494"},{"id":8155,"title":"Джо пера говорит с вами","kp_id":"1131463","imdb_id":"tt8199790","world_art_id":null,"type":"serial","add":"2020-07-14 13:11:40","orig_title":"Joe Pera Talks with You","year":"2018-05-20","translations":["Любительский (многоголосый закадровый) (ColdFilm)"],"seasons_count":1,"episodes_count":14,"episodes":14,"update":"2020-07-14 19:54:07","iframe_src":"//7720.svetacdn.in/IAF0wWTdNYZm/tv-series/8155"},{"id":8153,"title":"После работы","kp_id":null,"imdb_id":"tt5178792","world_art_id":null,"type":"serial","add":"2020-07-14 13:03:06","orig_title":"After Hours","year":"2015-11-02","translations":["Любительский (многоголосый закадровый) (ColdFilm)"],"seasons_count":1,"episodes_count":6,"episodes":6,"update":"2020-07-14 20:00:40","iframe_src":"//7720.svetacdn.in/IAF0wWTdNYZm/tv-series/8153"},{"id":8152,"title":"Последнее лето","kp_id":"1355328","imdb_id":"tt11886634","world_art_id":null,"type":"serial","add":"2020-07-14 12:56:26","orig_title":"Den sista sommaren","year":"2020-02-25","translations":["Любительский (многоголосый закадровый) (ColdFilm)"],"seasons_count":1,"episodes_count":7,"episodes":7,"update":"2020-07-14 20:10:37","iframe_src":"//7720.svetacdn.in/IAF0wWTdNYZm/tv-series/8152"},{"id":8151,"title":"Первая любовь зрелой девушки","kp_id":"1342098","imdb_id":"tt11569628","world_art_id":null,"type":"serial","add":"2020-07-13 17:50:32","orig_title":"Xia yi zhan shi xing fu","year":"2020-01-26","translations":["Любительский (двухголосый закадровый) (HelloMickey Production)"],"seasons_count":1,"episodes_count":41,"episodes":41,"update":"2020-07-14 07:35:15","iframe_src":"//7720.svetacdn.in/IAF0wWTdNYZm/tv-series/8151"},{"id":8150,"title":"Роман тигра и розы","kp_id":"1380122","imdb_id":"tt12299432","world_art_id":null,"type":"serial","add":"2020-07-13 17:45:31","orig_title":"Chuan wen zhong de chen qian qian","year":"2020-05-18","translations":["Любительский (двухголосый закадровый) (HelloMickey Production)"],"seasons_count":1,"episodes_count":24,"episodes":24,"update":"2020-07-14 11:29:13","iframe_src":"//7720.svetacdn.in/IAF0wWTdNYZm/tv-series/8150"},{"id":8149,"title":"Отблески","kp_id":"471469","imdb_id":"tt4163868","world_art_id":null,"type":"serial","add":"2020-07-13 11:57:38","orig_title":"Otbleski","year":"2010-01-11","translations":["Оригинальная дорожка"],"seasons_count":1,"episodes_count":25,"episodes":25,"update":"2020-07-15 08:17:27","iframe_src":"//7720.svetacdn.in/IAF0wWTdNYZm/tv-series/8149"},{"id":8140,"title":"Стая","kp_id":"1225661","imdb_id":"tt9138156","world_art_id":null,"type":"serial","add":"2020-07-11 00:02:52","orig_title":"La jauría","year":"2020-07-10","translations":["Любительский (многоголосый закадровый) (Octopus)","Любительский (многоголосый закадровый) (ColdFilm)","Профессиональный (двухголосый закадровый) (Gears Media)","Профессиональный (многоголосый закадровый) (SDI Media)"],"seasons_count":1,"episodes_count":8,"episodes":8,"update":"2020-07-14 10:54:19","iframe_src":"//7720.svetacdn.in/IAF0wWTdNYZm/tv-series/8140"},{"id":8138,"title":"Дракоша и компания","kp_id":"471957","imdb_id":"tt3753954","world_art_id":null,"type":"serial","add":"2020-07-10 20:10:19","orig_title":"Drakosha i kompaniya","year":"2001-01-01","translations":["Оригинальная дорожка"],"seasons_count":1,"episodes_count":40,"episodes":40,"update":"2020-07-14 20:46:25","iframe_src":"//7720.svetacdn.in/IAF0wWTdNYZm/tv-series/8138"},{"id":8128,"title":"Мужчина во мне","kp_id":"585281","imdb_id":"tt4047444","world_art_id":null,"type":"serial","add":"2020-07-09 10:38:15","orig_title":"Muzhchina vo mne","year":"2011-04-18","translations":["Оригинальная дорожка"],"seasons_count":1,"episodes_count":63,"episodes":63,"update":"2020-07-15 14:32:58","iframe_src":"//7720.svetacdn.in/IAF0wWTdNYZm/tv-series/8128"},{"id":8113,"title":"Алондра","kp_id":"417733","imdb_id":"tt0212640","world_art_id":null,"type":"serial","add":"2020-07-07 12:27:48","orig_title":"Alondra","year":"1995-07-07","translations":["Профессиональный (многоголосый закадровый)"],"seasons_count":1,"episodes_count":157,"episodes":157,"update":"2020-07-13 21:08:29","iframe_src":"//7720.svetacdn.in/IAF0wWTdNYZm/tv-series/8113"},{"id":8043,"title":"Что скрывает любовь","kp_id":"523004","imdb_id":null,"world_art_id":null,"type":"serial","add":"2020-06-28 20:52:07","orig_title":"Что скрывает любовь","year":"2010-04-25","translations":["Оригинальная дорожка"],"seasons_count":1,"episodes_count":2,"episodes":2,"update":"2020-07-14 19:06:48","iframe_src":"//7720.svetacdn.in/IAF0wWTdNYZm/tv-series/8043"},{"id":8042,"title":"Спасти мужа","kp_id":"639432","imdb_id":null,"world_art_id":null,"type":"serial","add":"2020-06-28 20:48:27","orig_title":"Спасти мужа","year":"2011-11-05","translations":["Оригинальная дорожка"],"seasons_count":1,"episodes_count":4,"episodes":4,"update":"2020-07-14 19:06:02","iframe_src":"//7720.svetacdn.in/IAF0wWTdNYZm/tv-series/8042"},{"id":8041,"title":"Рассвет на Санторини","kp_id":"1045853","imdb_id":null,"world_art_id":null,"type":"serial","add":"2020-06-28 20:46:06","orig_title":"Рассвет на Санторини","year":"2017-09-29","translations":["Оригинальная дорожка"],"seasons_count":1,"episodes_count":2,"episodes":2,"update":"2020-07-14 19:04:54","iframe_src":"//7720.svetacdn.in/IAF0wWTdNYZm/tv-series/8041"},{"id":8040,"title":"Буду верной женой","kp_id":"584986","imdb_id":null,"world_art_id":null,"type":"serial","add":"2020-06-28 20:40:25","orig_title":"Буду верной женой","year":"2011-04-09","translations":["Оригинальная дорожка"],"seasons_count":1,"episodes_count":4,"episodes":4,"update":"2020-07-14 19:03:59","iframe_src":"//7720.svetacdn.in/IAF0wWTdNYZm/tv-series/8040"},{"id":8039,"title":"Андрейка","kp_id":"721940","imdb_id":null,"world_art_id":null,"type":"serial","add":"2020-06-28 20:37:49","orig_title":"Андрейка","year":"2012-12-08","translations":["Оригинальная дорожка"],"seasons_count":1,"episodes_count":2,"episodes":2,"update":"2020-07-14 19:02:26","iframe_src":"//7720.svetacdn.in/IAF0wWTdNYZm/tv-series/8039"},{"id":7912,"title":"Игроделы","kp_id":"914628","imdb_id":"tt4711184","world_art_id":null,"type":"serial","add":"2020-06-17 04:24:13","orig_title":"Game Shakers","year":"2015-03-12","translations":["Полное дублирование (True Dubbing Studio)"],"seasons_count":3,"episodes_count":60,"episodes":18,"update":"2020-07-15 17:06:05","iframe_src":"//7720.svetacdn.in/IAF0wWTdNYZm/tv-series/7912"},{"id":40264,"title":"438 дней","kp_id":"1154398","imdb_id":"tt8325442","world_art_id":null,"type":"movie","add":"2020-05-11 04:58:17","orig_title":"438 dagar","year":"2019-08-30","translations":["Любительский (многоголосый закадровый) (AlphaProject)","Полное дублирование (iTunes)"],"quality":"webdl","translation":"Любительский (многоголосый закадровый) (AlphaProject)","update":"2021-05-05 06:18:58","iframe_src":"//7720.svetacdn.in/IAF0wWTdNYZm/movie/40264"},{"id":7177,"title":"Санта-Барбара","kp_id":"79907","imdb_id":"tt0086793","world_art_id":null,"type":"serial","add":"2020-04-13 20:25:43","orig_title":"Santa Barbara","year":"1984-07-30","translations":["Любительский (одноголосый закадровый)","Любительский (многоголосый закадровый)","Профессиональный (многоголосый закадровый)","Любительский (двухголосый закадровый)"],"seasons_count":1,"episodes_count":1399,"episodes":1399,"update":"2020-07-14 14:23:09","iframe_src":"//7720.svetacdn.in/IAF0wWTdNYZm/tv-series/7177"},{"id":34936,"title":"Джентльмены","kp_id":"1143242","imdb_id":"tt8367814","world_art_id":null,"type":"movie","add":"2020-01-10 11:53:26","orig_title":"The Gentlemen","year":"2019-12-03","translations":["Полное дублирование","Профессиональный (многоголосый закадровый) (HDrezka Studio)","Авторский (одноголосый закадровый) (Гоблин | Пучков Дмитрий)","Профессиональный (двухголосый закадровый) (Кубик в Кубе)","Авторский (одноголосый закадровый) (Гаврилов Андрей)","Авторский (одноголосый закадровый) (Гаврилов Андрей)","Авторский (одноголосый закадровый) (Сербин Юрий)","Авторский (одноголосый закадровый) (Визгунов Сергей)","Original (English)"],"quality":"webdl","translation":"Полное дублирование","update":"2021-05-05 10:53:59","iframe_src":"//7720.svetacdn.in/IAF0wWTdNYZm/movie/34936"},{"id":6232,"title":"Династии","kp_id":"1226357","imdb_id":"tt9130692","world_art_id":null,"type":"serial","add":"2020-01-04 13:08:28","orig_title":"Dynasties","year":"2018-11-11","translations":["Профессиональный (одноголосый закадровый)","Любительский (многоголосый закадровый) (ColdFilm)"],"seasons_count":1,"episodes_count":5,"episodes":5,"update":"2020-07-14 20:05:07","iframe_src":"//7720.svetacdn.in/IAF0wWTdNYZm/tv-series/6232"},{"id":5916,"title":"Харли Квинн","kp_id":"1112514","imdb_id":"tt7658402","world_art_id":null,"type":"serial","add":"2019-12-02 20:39:27","orig_title":"Harley Quinn","year":"2019-11-29","translations":["Любительский (многоголосый закадровый) (KerobTV)","Профессиональный (многоголосый закадровый) (NewStudio)","Профессиональный (многоголосый закадровый) (Jaskier)","Полное дублирование (The Kitchen Russia)","Профессиональный (многоголосый закадровый) (IdeaFilm)","Любительский (многоголосый закадровый) (NewStation)","Профессиональный (многоголосый закадровый) (Good People)","Профессиональный (двухголосый закадровый) (IdeaFilm)","Любительский (многоголосый закадровый) (ColdFilm)","Любительский (многоголосый закадровый) (Octopus)"],"seasons_count":2,"episodes_count":26,"episodes":13,"update":"2020-07-14 09:49:01","iframe_src":"//7720.svetacdn.in/IAF0wWTdNYZm/tv-series/5916"},{"id":33060,"title":"На колёсах","kp_id":"660555","imdb_id":"tt2170667","world_art_id":null,"type":"movie","add":"2019-11-13 08:10:50","orig_title":"Wheels","year":"2014-04-27","translations":["Любительский (многоголосый закадровый) (Синема УС)","Профессиональный (многоголосый закадровый) (FocusX)","Авторский (одноголосый закадровый) (Карповский Антон)","Original (English)","Любительский (одноголосый закадровый) (Paul Bunyan)"],"quality":"webdl","translation":"Любительский (многоголосый закадровый) (Синема УС)","update":"2021-05-05 07:03:11","iframe_src":"//7720.svetacdn.in/IAF0wWTdNYZm/movie/33060"},{"id":31301,"title":"Умереть во имя","kp_id":"4934","imdb_id":"tt0114681","world_art_id":null,"type":"movie","add":"2019-09-29 20:04:29","orig_title":"To Die For","year":"1995-05-20","translations":["Профессиональный (многоголосый закадровый)","Профессиональный (многоголосый закадровый)","Авторский (одноголосый закадровый) (Живов Юрий)","Original (English)","Профессиональный (двухголосый закадровый)","Профессиональный (многоголосый закадровый) (Карусель)"],"quality":"bd","translation":"Профессиональный (многоголосый закадровый)","update":"2021-05-05 10:42:55","iframe_src":"//7720.svetacdn.in/IAF0wWTdNYZm/movie/31301"},{"id":30394,"title":"Могучие Морфы: Рейнджеры силы","kp_id":"34281","imdb_id":"tt0113820","world_art_id":null,"type":"movie","add":"2019-08-30 07:29:08","orig_title":"Mighty Morphin Power Rangers: The Movie","year":"1995-06-30","translations":["Профессиональный (многоголосый закадровый)","Профессиональный (многоголосый закадровый) (Lazer Video)","Авторский (одноголосый закадровый) (Горчаков Василий)","Original (English)","Профессиональный (многоголосый закадровый) (НТВ)","Профессиональный (многоголосый закадровый) (Первый канал | ОРТ)"],"quality":"bd","translation":"Профессиональный (многоголосый закадровый)","update":"2021-05-05 07:16:15","iframe_src":"//7720.svetacdn.in/IAF0wWTdNYZm/movie/30394"},{"id":4912,"title":"Зеленое крыло","kp_id":"399903","imdb_id":"tt0423661","world_art_id":null,"type":"serial","add":"2019-07-22 11:20:52","orig_title":"Green Wing","year":"2004-09-03","translations":["Любительский (одноголосый закадровый)","Профессиональный (многоголосый закадровый) (Ozz.tv)"],"seasons_count":2,"episodes_count":18,"episodes":9,"update":"2020-07-15 06:10:16","iframe_src":"//7720.svetacdn.in/IAF0wWTdNYZm/tv-series/4912"},{"id":22242,"title":"Бойн Фолс","kp_id":"973490","imdb_id":"tt5608000","world_art_id":null,"type":"movie","add":"2019-02-12 09:03:56","orig_title":"Boyne Falls","year":"2018-04-18","translations":["Профессиональный (многоголосый закадровый) (HDrezka Studio)","Профессиональный (многоголосый закадровый) (HDrezka Studio)"],"quality":"webdl","translation":"Профессиональный (многоголосый закадровый) (HDrezka Studio)","update":"2021-05-05 15:23:27","iframe_src":"//7720.svetacdn.in/IAF0wWTdNYZm/movie/22242"},{"id":22164,"title":"Под листьями","kp_id":"919967","imdb_id":"tt4574654","world_art_id":null,"type":"movie","add":"2019-02-10 21:25:19","orig_title":"Beneath the Leaves","year":"2019-02-08","translations":["Любительский (многоголосый закадровый) (Синема УС)","Любительский (двухголосый закадровый) (HiWayGrope)","Профессиональный (многоголосый закадровый) (HDrezka Studio)","Профессиональный (многоголосый закадровый) (HDrezka Studio)"],"quality":"webdl","translation":"Любительский (многоголосый закадровый) (Синема УС)","update":"2021-05-05 15:22:39","iframe_src":"//7720.svetacdn.in/IAF0wWTdNYZm/movie/22164"},{"id":21161,"title":"Рассвет","kp_id":"1143671","imdb_id":"tt7919426","world_art_id":null,"type":"movie","add":"2019-01-01 23:32:36","orig_title":"Dawn","year":"2018-01-01","translations":["Любительский (многоголосый закадровый) (Синема УС)","Профессиональный (многоголосый закадровый) (HDrezka Studio)","Профессиональный (многоголосый закадровый) (HDrezka Studio)"],"quality":"webdl","translation":"Любительский (многоголосый закадровый) (Синема УС)","update":"2021-05-05 15:26:03","iframe_src":"//7720.svetacdn.in/IAF0wWTdNYZm/movie/21161"},{"id":6707,"title":"Луна 44","kp_id":"14440","imdb_id":"tt0097910","world_art_id":null,"type":"movie","add":"2016-10-26 16:40:41","orig_title":"Moon 44","year":"1990-02-15","translations":["Полное дублирование","Профессиональный (многоголосый закадровый) (CP Digital)","Полное дублирование","Original (English)","Профессиональный (многоголосый закадровый) (Первый канал | ОРТ)","Профессиональный (многоголосый закадровый) (ТВЦ)"],"quality":"bd","translation":"Полное дублирование","update":"2021-05-05 07:23:06","iframe_src":"//7720.svetacdn.in/IAF0wWTdNYZm/movie/6707"},{"id":5533,"title":"Вскрытие","kp_id":"102458","imdb_id":"tt0443435","world_art_id":null,"type":"movie","add":"2016-09-27 08:29:43","orig_title":"Autopsy","year":"2008-08-24","translations":["Профессиональный (двухголосый закадровый)","Полное дублирование (IVI)"],"quality":"bd","translation":"Профессиональный (двухголосый закадровый)","update":"2021-05-05 06:19:35","iframe_src":"//7720.svetacdn.in/IAF0wWTdNYZm/movie/5533"},{"id":4065,"title":"Звездные врата","kp_id":"5594","imdb_id":"tt0111282","world_art_id":null,"type":"movie","add":"2016-07-20 13:08:03","orig_title":"Stargate","year":"1994-10-28","translations":["Профессиональный (многоголосый закадровый)","Полное дублирование (Zone Vision Studio)","Авторский (одноголосый закадровый) (Гаврилов Андрей)","Авторский (одноголосый закадровый) (Живов Юрий)","Original (English)","Профессиональный (многоголосый закадровый) (SDI Media)"],"quality":"bd","translation":"Профессиональный (многоголосый закадровый)","update":"2021-05-05 07:11:17","iframe_src":"//7720.svetacdn.in/IAF0wWTdNYZm/movie/4065"},{"id":2030,"title":"Искусственный разум","kp_id":"594","imdb_id":"tt0212720","world_art_id":null,"type":"movie","add":"2016-05-10 16:14:27","orig_title":"Artificial Intelligence: AI","year":"2001-06-26","translations":["Полное дублирование","Авторский (одноголосый закадровый) (Визгунов Сергей)","Авторский (одноголосый закадровый) (Живов Юрий)","Полное дублирование","Original (English)","Профессиональный (многоголосый закадровый)","Профессиональный (многоголосый закадровый) (Карусель)"],"quality":"bd","translation":"Полное дублирование","update":"2021-05-05 11:00:35","iframe_src":"//7720.svetacdn.in/IAF0wWTdNYZm/movie/2030"},{"id":987,"title":"Лолита","kp_id":"12131","imdb_id":"tt0119558","world_art_id":null,"type":"movie","add":"2016-04-12 13:02:10","orig_title":"Lolita","year":"1997-09-27","translations":["Полное дублирование","Полное дублирование","Original (English)","Профессиональный (многоголосый закадровый)"],"quality":"bd","translation":"Полное дублирование","update":"2021-05-05 10:47:03","iframe_src":"//7720.svetacdn.in/IAF0wWTdNYZm/movie/987"},{"id":721,"title":"Бэтмэн Навсегда","kp_id":"1809","imdb_id":"tt0112462","world_art_id":null,"type":"movie","add":"2016-04-06 21:26:32","orig_title":"Batman Forever","year":"1995-06-09","translations":["Полное дублирование","Авторский (одноголосый закадровый) (Гаврилов Андрей)","Авторский (одноголосый закадровый) (Горчаков Василий)","Авторский (одноголосый закадровый) (Визгунов Сергей)","Авторский (одноголосый закадровый) (Живов Юрий)","Полное дублирование","Полное дублирование (Варус-Видео)","Original (English)","Любительский (одноголосый закадровый)","Профессиональный (двухголосый закадровый) (НТВ)","Профессиональный (двухголосый закадровый) (SDI Media)","Профессиональный (многоголосый закадровый) (РТР | Россия)"],"quality":"bd","translation":"Полное дублирование","update":"2021-05-05 11:18:56","iframe_src":"//7720.svetacdn.in/IAF0wWTdNYZm/movie/721"}],"current_page":218,"first_page_url":"https://videocdn.tv/api/short?limit=100&api_token=6Onb1W1alEUrBcKJZD3GoKBbWyAl2uG2&cache3218=3218&page=1","from":21701,"last_page":653,"last_page_url":"https://videocdn.tv/api/short?limit=100&api_token=6Onb1W1alEUrBcKJZD3GoKBbWyAl2uG2&cache3218=3218&page=653","next_page_url":"https://videocdn.tv/api/short?limit=100&api_token=6Onb1W1alEUrBcKJZD3GoKBbWyAl2uG2&cache3218=3218&page=219","path":"https://videocdn.tv/api/short","per_page":100,"prev_page_url":"https://videocdn.tv/api/short?limit=100&api_token=6Onb1W1alEUrBcKJZD3GoKBbWyAl2uG2&cache3218=3218&page=217","to":21740,"total":65279}