{"result":true,"data":[{"id":15089,"title":"Патруль","kp_id":"584405","imdb_id":"tt1855199","world_art_id":null,"type":"movie","add":"2018-02-07 10:47:11","orig_title":"End of Watch","year":"2012-09-08","translations":["Полное дублирование"],"quality":"bd","translation":"Полное дублирование","update":"2018-02-08 09:54:19","iframe_src":"//7043.svetacdn.in/71tsRs29n5tZ/movie/15089"},{"id":15088,"title":"Новая соседка","kp_id":"110773","imdb_id":"tt0362902","world_art_id":null,"type":"movie","add":"2018-02-06 23:37:48","orig_title":"Nayee Padosan","year":"2003-06-06","translations":["Профессиональный (многоголосый закадровый)"],"quality":"dvdrip","translation":"Профессиональный (многоголосый закадровый)","update":"2018-02-07 08:00:14","iframe_src":"//7043.svetacdn.in/71tsRs29n5tZ/movie/15088"},{"id":15084,"title":"Западнее от неё","kp_id":"879327","imdb_id":"tt3548978","world_art_id":null,"type":"movie","add":"2018-02-06 22:58:43","orig_title":"West of Her","year":"2016-04-30","translations":["Профессиональный (многоголосый закадровый)"],"quality":"hdrip","translation":"Профессиональный (многоголосый закадровый)","update":"2018-02-07 07:49:58","iframe_src":"//7043.svetacdn.in/71tsRs29n5tZ/movie/15084"},{"id":15083,"title":"Жить прекрасно","kp_id":"1052028","imdb_id":"tt6822518","world_art_id":null,"type":"movie","add":"2018-02-05 22:46:13","orig_title":"Yasamak Güzel Sey","year":"2017-04-14","translations":["Любительский (многоголосый закадровый) (Синема УС)"],"quality":"dvdrip","translation":"Любительский (многоголосый закадровый) (Синема УС)","update":"2018-02-06 12:41:39","iframe_src":"//7043.svetacdn.in/71tsRs29n5tZ/movie/15083"},{"id":15081,"title":"Огненная Кэссиди","kp_id":"948439","imdb_id":"tt5081304","world_art_id":null,"type":"movie","add":"2018-02-05 22:29:11","orig_title":"Cassidy Red","year":"2017-10-08","translations":["Любительский (многоголосый закадровый) (Синема УС)"],"quality":"webdl","translation":"Любительский (многоголосый закадровый) (Синема УС)","update":"2018-02-06 12:25:19","iframe_src":"//7043.svetacdn.in/71tsRs29n5tZ/movie/15081"},{"id":15073,"title":"Уловка .44","kp_id":"416566","imdb_id":"tt1886493","world_art_id":null,"type":"movie","add":"2018-02-04 19:33:17","orig_title":"Catch .44","year":"2011-12-09","translations":["Профессиональный (многоголосый закадровый)"],"quality":"webdl","translation":"Профессиональный (многоголосый закадровый)","update":"2018-02-07 08:09:02","iframe_src":"//7043.svetacdn.in/71tsRs29n5tZ/movie/15073"},{"id":15053,"title":"Последний час Земли","kp_id":"545285","imdb_id":"tt1679180","world_art_id":null,"type":"movie","add":"2018-02-03 09:53:41","orig_title":"Earth's Final Hours","year":"2011-11-17","translations":["Профессиональный (многоголосый закадровый)"],"quality":"bd","translation":"Профессиональный (многоголосый закадровый)","update":"2018-02-07 08:07:13","iframe_src":"//7043.svetacdn.in/71tsRs29n5tZ/movie/15053"},{"id":15052,"title":"Польская сибириада","kp_id":"577853","imdb_id":"tt1808513","world_art_id":null,"type":"movie","add":"2018-02-03 09:52:13","orig_title":"Syberiada polska","year":"2013-02-22","translations":["Профессиональный (одноголосый закадровый)"],"quality":"dvdrip","translation":"Профессиональный (одноголосый закадровый)","update":"2018-02-07 08:06:12","iframe_src":"//7043.svetacdn.in/71tsRs29n5tZ/movie/15052"},{"id":15051,"title":"Захватчик","kp_id":"630122","imdb_id":"tt2062559","world_art_id":null,"type":"movie","add":"2018-02-03 09:49:20","orig_title":"Invasor","year":"2012-10-11","translations":["Любительский (одноголосый закадровый) (den904)"],"quality":"dvdrip","translation":"Любительский (одноголосый закадровый) (den904)","update":"2018-02-07 08:05:12","iframe_src":"//7043.svetacdn.in/71tsRs29n5tZ/movie/15051"},{"id":15050,"title":"Люблю твою жену","kp_id":"693988","imdb_id":"tt2286990","world_art_id":null,"type":"movie","add":"2018-02-03 09:47:37","orig_title":"The Right Kind of Wrong","year":"2013-09-12","translations":["Полное дублирование"],"quality":"bd","translation":"Полное дублирование","update":"2018-02-07 08:04:13","iframe_src":"//7043.svetacdn.in/71tsRs29n5tZ/movie/15050"},{"id":15049,"title":"Старики","kp_id":"917978","imdb_id":null,"world_art_id":null,"type":"movie","add":"2018-02-03 03:47:53","orig_title":"Старики","year":"2015-02-03","translations":["Оригинальная дорожка"],"quality":"hdtv","translation":"Оригинальная дорожка","update":"2018-02-07 08:03:10","iframe_src":"//7043.svetacdn.in/71tsRs29n5tZ/movie/15049"},{"id":14900,"title":"Волан-де-Морт: Корни наследника","kp_id":"1108570","imdb_id":"tt6977356","world_art_id":null,"type":"movie","add":"2018-01-16 22:34:59","orig_title":"Voldemort: Origins of the Heir","year":"2018-01-13","translations":["Любительский (многоголосый закадровый) (Синема УС)","Любительский (многоголосый закадровый)","Профессиональный (многоголосый закадровый) (GreenРай Studio)"],"quality":"webdl","translation":"Любительский (многоголосый закадровый) (Синема УС)","update":"2018-02-09 06:40:26","iframe_src":"//7043.svetacdn.in/71tsRs29n5tZ/movie/14900"},{"id":14633,"title":"Я люблю тебя, папочка","kp_id":"1048210","imdb_id":"tt7264080","world_art_id":null,"type":"movie","add":"2017-12-11 23:31:30","orig_title":"I Love You, Daddy","year":"2017-09-09","translations":["Профессиональный (многоголосый закадровый)","Профессиональный (многоголосый закадровый) (GreenРай Studio)"],"quality":"dvdscr","translation":"Профессиональный (многоголосый закадровый)","update":"2018-02-06 12:27:36","iframe_src":"//7043.svetacdn.in/71tsRs29n5tZ/movie/14633"},{"id":14397,"title":"Субурбикон","kp_id":"262051","imdb_id":"tt0491175","world_art_id":null,"type":"movie","add":"2017-11-19 21:38:25","orig_title":"Suburbicon","year":"2017-09-02","translations":["Полное дублирование"],"quality":"bd","translation":"Полное дублирование","update":"2018-02-07 07:36:23","iframe_src":"//7043.svetacdn.in/71tsRs29n5tZ/movie/14397"},{"id":14053,"title":"Призраки","kp_id":"504836","imdb_id":"tt1628039","world_art_id":null,"type":"movie","add":"2017-10-26 11:41:31","orig_title":"Ghosted","year":"2011-06-24","translations":["Профессиональный (двухголосый закадровый)"],"quality":"bd","translation":"Профессиональный (двухголосый закадровый)","update":"2018-02-08 09:55:29","iframe_src":"//7043.svetacdn.in/71tsRs29n5tZ/movie/14053"},{"id":13424,"title":"Искупление","kp_id":"989505","imdb_id":"tt5854198","world_art_id":null,"type":"movie","add":"2017-09-11 21:38:16","orig_title":"The Atoning","year":"2017-02-18","translations":["Любительский (многоголосый закадровый) (Синема УС)","Профессиональный (многоголосый закадровый) (GreenРай Studio)","Авторский (одноголосый закадровый) (Дольский Андрей)"],"quality":"webdl","translation":"Любительский (многоголосый закадровый) (Синема УС)","update":"2018-02-07 07:51:42","iframe_src":"//7043.svetacdn.in/71tsRs29n5tZ/movie/13424"},{"id":12562,"title":"Мы из будущего","kp_id":"260315","imdb_id":"tt1192431","world_art_id":null,"type":"movie","add":"2017-07-19 05:33:22","orig_title":"My iz budushchego","year":"2010-03-05","translations":["Оригинальная дорожка"],"quality":"webdl","translation":"Оригинальная дорожка","update":"2018-02-08 16:47:42","iframe_src":"//7043.svetacdn.in/71tsRs29n5tZ/movie/12562"},{"id":11452,"title":"Дорога к матери","kp_id":"994609","imdb_id":"tt4470016","world_art_id":null,"type":"movie","add":"2017-05-09 13:59:37","orig_title":"Doroga k materi","year":"2016-09-08","translations":["Профессиональный (двухголосый закадровый)"],"quality":"webdl","translation":"Профессиональный (двухголосый закадровый)","update":"2018-02-07 07:59:25","iframe_src":"//7043.svetacdn.in/71tsRs29n5tZ/movie/11452"},{"id":9775,"title":"Не вешайте трубку","kp_id":"851073","imdb_id":"tt3610746","world_art_id":null,"type":"movie","add":"2017-02-16 14:06:55","orig_title":"Don't Hang Up","year":"2016-10-22","translations":["Любительский (многоголосый закадровый) (Синема УС)","Профессиональный (многоголосый закадровый) (GreenРай Studio)"],"quality":"bd","translation":"Любительский (многоголосый закадровый) (Синема УС)","update":"2018-02-07 07:40:06","iframe_src":"//7043.svetacdn.in/71tsRs29n5tZ/movie/9775"},{"id":4448,"title":"Джульетта","kp_id":"882569","imdb_id":"tt4326444","world_art_id":null,"type":"movie","add":"2016-08-16 10:05:40","orig_title":"Julieta","year":"2016-04-08","translations":["Полное дублирование","Полное дублирование (iTunes)"],"quality":"bd","translation":"Полное дублирование","update":"2018-02-07 07:54:05","iframe_src":"//7043.svetacdn.in/71tsRs29n5tZ/movie/4448"}],"current_page":1897,"first_page_url":"https://videocdn.tv/api/short?limit=100&api_token=EnbO9h8pv1VyjbCJhg0WM9nG259n7mtz&cache31897=31897&page=1","from":189601,"last_page":616,"last_page_url":"https://videocdn.tv/api/short?limit=100&api_token=EnbO9h8pv1VyjbCJhg0WM9nG259n7mtz&cache31897=31897&page=616","next_page_url":null,"path":"https://videocdn.tv/api/short","per_page":100,"prev_page_url":"https://videocdn.tv/api/short?limit=100&api_token=EnbO9h8pv1VyjbCJhg0WM9nG259n7mtz&cache31897=31897&page=1896","to":189620,"total":61523}