{"result":true,"data":[{"id":17542,"title":"Бойня","kp_id":"866386","imdb_id":"tt4015930","world_art_id":null,"type":"movie","add":"2018-07-03 23:55:32","orig_title":"Braxton","year":"2015-10-16","translations":["Любительский (многоголосый закадровый) (Синема УС)"],"quality":"webdl","translation":"Любительский (многоголосый закадровый) (Синема УС)","update":"2018-07-04 06:56:01","iframe_src":"//7923.svetacdn.in/IAF0wWTdNYZm/movie/17542"},{"id":17541,"title":"Комар-оборотень: охотник на нацистов","kp_id":"997484","imdb_id":"tt5958758","world_art_id":null,"type":"movie","add":"2018-07-03 23:53:54","orig_title":"Weresquito: Nazi Hunter","year":"2016-09-28","translations":["Любительский (многоголосый закадровый) (Синема УС)"],"quality":"webdl","translation":"Любительский (многоголосый закадровый) (Синема УС)","update":"2018-07-04 06:53:53","iframe_src":"//7923.svetacdn.in/IAF0wWTdNYZm/movie/17541"},{"id":17540,"title":"Истории на супер 8","kp_id":"48621","imdb_id":"tt0278069","world_art_id":null,"type":"movie","add":"2018-07-03 23:51:49","orig_title":"Super 8 Stories","year":"2001-02-14","translations":["Профессиональный (одноголосый закадровый)"],"quality":"dvdrip","translation":"Профессиональный (одноголосый закадровый)","update":"2018-07-04 06:53:32","iframe_src":"//7923.svetacdn.in/IAF0wWTdNYZm/movie/17540"},{"id":17538,"title":"Большое футбольное приключение","kp_id":null,"imdb_id":"tt7690774","world_art_id":null,"type":"movie","add":"2018-07-03 23:40:01","orig_title":"Víti í Vestmannaeyjum","year":"2018-03-09","translations":["Любительский (многоголосый закадровый) (Синема УС)"],"quality":"webdl","translation":"Любительский (многоголосый закадровый) (Синема УС)","update":"2018-07-04 06:49:30","iframe_src":"//7923.svetacdn.in/IAF0wWTdNYZm/movie/17538"},{"id":17536,"title":"Ложь или действие","kp_id":"1009009","imdb_id":null,"world_art_id":null,"type":"movie","add":"2018-07-03 23:31:50","orig_title":"Ложь или действие","year":"2017-01-01","translations":["Оригинальная дорожка"],"quality":"webdl","translation":"Оригинальная дорожка","update":"2018-07-04 06:43:53","iframe_src":"//7923.svetacdn.in/IAF0wWTdNYZm/movie/17536"},{"id":17535,"title":"Бандос","kp_id":"1013988","imdb_id":"tt6438030","world_art_id":null,"type":"movie","add":"2018-07-03 23:28:53","orig_title":"Patser","year":"2018-01-24","translations":["Любительский (многоголосый закадровый) (Колобок)"],"quality":"bd","translation":"Любительский (многоголосый закадровый) (Колобок)","update":"2018-07-04 06:40:00","iframe_src":"//7923.svetacdn.in/IAF0wWTdNYZm/movie/17535"},{"id":17530,"title":"Охота на генералов Гитлера","kp_id":null,"imdb_id":"tt2636826","world_art_id":null,"type":"movie","add":"2018-07-02 23:14:59","orig_title":"Stalking Hitler's Generals","year":"2011-01-01","translations":["Полное дублирование"],"quality":"hdtv","translation":"Полное дублирование","update":"2018-07-04 06:28:50","iframe_src":"//7923.svetacdn.in/IAF0wWTdNYZm/movie/17530"},{"id":17528,"title":"Ночь девственника","kp_id":"960324","imdb_id":"tt4982166","world_art_id":null,"type":"movie","add":"2018-07-02 23:11:21","orig_title":"La noche del virgen","year":"2016-10-16","translations":["Любительский (многоголосый закадровый) (Колобок)"],"quality":"webdl","translation":"Любительский (многоголосый закадровый) (Колобок)","update":"2018-07-04 06:24:46","iframe_src":"//7923.svetacdn.in/IAF0wWTdNYZm/movie/17528"},{"id":17527,"title":"Детективы из бара 3","kp_id":"1049332","imdb_id":"tt7058618","world_art_id":null,"type":"movie","add":"2018-07-02 23:05:57","orig_title":"Tantei wa bar ni iru 3","year":"2017-12-01","translations":["Любительский (многоголосый закадровый) (Колобок)"],"quality":"bd","translation":"Любительский (многоголосый закадровый) (Колобок)","update":"2018-07-04 06:06:35","iframe_src":"//7923.svetacdn.in/IAF0wWTdNYZm/movie/17527"},{"id":17526,"title":"Cенсум","kp_id":"1095446","imdb_id":"tt6977830","world_art_id":null,"type":"movie","add":"2018-07-02 23:04:04","orig_title":"Sensum","year":"2017-07-01","translations":["Любительский (многоголосый закадровый) (Синема УС)"],"quality":"webdl","translation":"Любительский (многоголосый закадровый) (Синема УС)","update":"2018-07-04 06:05:07","iframe_src":"//7923.svetacdn.in/IAF0wWTdNYZm/movie/17526"},{"id":17525,"title":"Повелитель кукол: Уничтожение оси","kp_id":"952497","imdb_id":"tt5257554","world_art_id":null,"type":"movie","add":"2018-07-02 23:02:17","orig_title":"Puppet Master: Axis Termination","year":"2017-09-15","translations":["Любительский (многоголосый закадровый) (Синема УС)"],"quality":"webdl","translation":"Любительский (многоголосый закадровый) (Синема УС)","update":"2018-07-04 06:02:04","iframe_src":"//7923.svetacdn.in/IAF0wWTdNYZm/movie/17525"},{"id":17523,"title":"Не стоит беспокоиться","kp_id":"790200","imdb_id":"tt3135128","world_art_id":null,"type":"movie","add":"2018-07-02 22:58:50","orig_title":"Pas d'inquiétude","year":"2014-04-09","translations":["Профессиональный (многоголосый закадровый) (GreenРай Studio)"],"quality":"hdtv","translation":"Профессиональный (многоголосый закадровый) (GreenРай Studio)","update":"2018-07-04 05:59:56","iframe_src":"//7923.svetacdn.in/IAF0wWTdNYZm/movie/17523"},{"id":17521,"title":"Пропавшая","kp_id":"1053288","imdb_id":"tt7384848","world_art_id":null,"type":"movie","add":"2018-07-02 22:41:01","orig_title":"Missing","year":"2018-04-06","translations":["Любительский (многоголосый закадровый) (Синема УС)"],"quality":"webdl","translation":"Любительский (многоголосый закадровый) (Синема УС)","update":"2018-07-04 05:56:29","iframe_src":"//7923.svetacdn.in/IAF0wWTdNYZm/movie/17521"},{"id":17517,"title":"Расчленитель","kp_id":"113316","imdb_id":"tt0124014","world_art_id":null,"type":"movie","add":"2018-07-02 06:56:04","orig_title":"The Mutilator","year":"1985-06-07","translations":["Авторский (одноголосый закадровый) (Дольский Андрей)"],"quality":"bd","translation":"Авторский (одноголосый закадровый) (Дольский Андрей)","update":"2018-07-04 10:03:15","iframe_src":"//7923.svetacdn.in/IAF0wWTdNYZm/movie/17517"},{"id":17468,"title":"Крокодил-робот","kp_id":"801929","imdb_id":"tt3188560","world_art_id":null,"type":"movie","add":"2018-06-29 11:49:44","orig_title":"Robocroc","year":"2013-09-14","translations":["Профессиональный (многоголосый закадровый)"],"quality":"webdl","translation":"Профессиональный (многоголосый закадровый)","update":"2018-07-04 10:05:20","iframe_src":"//7923.svetacdn.in/IAF0wWTdNYZm/movie/17468"},{"id":17035,"title":"От семьи не убежишь","kp_id":"1061480","imdb_id":"tt6859418","world_art_id":null,"type":"movie","add":"2018-06-04 22:40:55","orig_title":"La ch'tite famille","year":"2018-01-13","translations":["Полное дублирование"],"quality":"bd","translation":"Полное дублирование","update":"2018-07-04 06:41:25","iframe_src":"//7923.svetacdn.in/IAF0wWTdNYZm/movie/17035"},{"id":17017,"title":"Ти Май: путь во Вьетнам","kp_id":"1032203","imdb_id":"tt6126346","world_art_id":null,"type":"movie","add":"2018-06-02 23:13:08","orig_title":"Thi Mai","year":"2017-11-24","translations":["Любительский (многоголосый закадровый) (Синема УС)","Профессиональный (многоголосый закадровый) (GreenРай Studio)"],"quality":"hdrip","translation":"Любительский (многоголосый закадровый) (Синема УС)","update":"2018-07-04 06:07:46","iframe_src":"//7923.svetacdn.in/IAF0wWTdNYZm/movie/17017"},{"id":14213,"title":"Другой","kp_id":"803610","imdb_id":"tt3233972","world_art_id":null,"type":"movie","add":"2017-11-02 20:33:21","orig_title":"Another","year":"2014-05-17","translations":["Любительский (одноголосый закадровый) (Хихикающий доктор)","Любительский (многоголосый закадровый) (Синема УС)"],"quality":"hdrip","translation":"Любительский (одноголосый закадровый) (Хихикающий доктор)","update":"2018-07-04 05:54:02","iframe_src":"//7923.svetacdn.in/IAF0wWTdNYZm/movie/14213"},{"id":13759,"title":"Марион: Мне всегда 13","kp_id":"983394","imdb_id":"tt5769002","world_art_id":null,"type":"movie","add":"2017-10-05 21:59:15","orig_title":"Marion, 13 ans pour toujours","year":"2016-09-27","translations":["Любительский (многоголосый закадровый) (Синема УС)","Профессиональный (многоголосый закадровый) (GreenРай Studio)"],"quality":"hdtv","translation":"Любительский (многоголосый закадровый) (Синема УС)","update":"2018-07-04 05:52:56","iframe_src":"//7923.svetacdn.in/IAF0wWTdNYZm/movie/13759"},{"id":3208,"title":"Парадокс","kp_id":"895706","imdb_id":"tt4540434","world_art_id":null,"type":"movie","add":"2016-06-17 04:15:50","orig_title":"Paradox","year":"2016-04-15","translations":["Любительский (двухголосый закадровый)","Любительский (многоголосый закадровый) (Синема УС)"],"quality":"webdl","translation":"Любительский (двухголосый закадровый)","update":"2018-07-04 05:58:45","iframe_src":"//7923.svetacdn.in/IAF0wWTdNYZm/movie/3208"}],"current_page":1908,"first_page_url":"https://videocdn.tv/api/short?limit=100&api_token=6Onb1W1alEUrBcKJZD3GoKBbWyAl2uG2&cache31908=31908&page=1","from":190701,"last_page":645,"last_page_url":"https://videocdn.tv/api/short?limit=100&api_token=6Onb1W1alEUrBcKJZD3GoKBbWyAl2uG2&cache31908=31908&page=645","next_page_url":null,"path":"https://videocdn.tv/api/short","per_page":100,"prev_page_url":"https://videocdn.tv/api/short?limit=100&api_token=6Onb1W1alEUrBcKJZD3GoKBbWyAl2uG2&cache31908=31908&page=1907","to":190720,"total":64493}