{"result":true,"data":[{"id":20790,"title":"Реальное время с Биллом Маром: Юбилейный выпуск","kp_id":"1213899","imdb_id":null,"world_art_id":null,"type":"movie","add":"2018-12-16 21:57:43","orig_title":"Real Time with Bill Maher: Anniversary Special","year":"2018-10-19","translations":["Любительский (многоголосый закадровый) (Синема УС)"],"quality":"webdl","translation":"Любительский (многоголосый закадровый) (Синема УС)","update":"2018-12-17 08:32:09","iframe_src":"//8543.svetacdn.in/IAF0wWTdNYZm/movie/20790"},{"id":20788,"title":"День Благодарения по-новому","kp_id":"1065525","imdb_id":"tt7535288","world_art_id":null,"type":"movie","add":"2018-12-16 21:51:30","orig_title":"Nothing Like Thanksgiving","year":"2018-11-22","translations":["Любительский (многоголосый закадровый) (Синема УС)"],"quality":"webdl","translation":"Любительский (многоголосый закадровый) (Синема УС)","update":"2018-12-17 08:33:26","iframe_src":"//8543.svetacdn.in/IAF0wWTdNYZm/movie/20788"},{"id":20786,"title":"Личные счёты","kp_id":"1122147","imdb_id":null,"world_art_id":null,"type":"movie","add":"2018-12-16 21:46:32","orig_title":"Личные счёты","year":"2018-12-15","translations":["Оригинальная дорожка"],"quality":"webdl","translation":"Оригинальная дорожка","update":"2018-12-17 08:35:18","iframe_src":"//8543.svetacdn.in/IAF0wWTdNYZm/movie/20786"},{"id":20785,"title":"Подпишись на меня","kp_id":null,"imdb_id":"tt7631792","world_art_id":null,"type":"movie","add":"2018-12-16 21:29:15","orig_title":"Follow Me","year":"2018-11-18","translations":["Любительский (многоголосый закадровый) (Синема УС)"],"quality":"webdl","translation":"Любительский (многоголосый закадровый) (Синема УС)","update":"2018-12-17 08:38:28","iframe_src":"//8543.svetacdn.in/IAF0wWTdNYZm/movie/20785"},{"id":20784,"title":"Первая леди","kp_id":"1117851","imdb_id":"tt7919372","world_art_id":null,"type":"movie","add":"2018-12-16 21:27:31","orig_title":"First Lady","year":"2018-09-10","translations":["Любительский (многоголосый закадровый) (Синема УС)"],"quality":"webdl","translation":"Любительский (многоголосый закадровый) (Синема УС)","update":"2018-12-17 08:39:40","iframe_src":"//8543.svetacdn.in/IAF0wWTdNYZm/movie/20784"},{"id":20783,"title":"Разбивающий мечты","kp_id":"1013495","imdb_id":"tt6223976","world_art_id":null,"type":"movie","add":"2018-12-16 21:22:57","orig_title":"Po meng you xi","year":"2018-11-09","translations":["Любительский (многоголосый закадровый) (Колобок)"],"quality":"webdl","translation":"Любительский (многоголосый закадровый) (Колобок)","update":"2018-12-17 08:42:10","iframe_src":"//8543.svetacdn.in/IAF0wWTdNYZm/movie/20783"},{"id":20779,"title":"За облаками","kp_id":"804946","imdb_id":"tt3224288","world_art_id":null,"type":"movie","add":"2018-12-16 21:10:38","orig_title":"Beyond the Clouds","year":"2017-10-13","translations":["Любительский (многоголосый закадровый) (Синема УС)"],"quality":"bd","translation":"Любительский (многоголосый закадровый) (Синема УС)","update":"2018-12-17 08:46:57","iframe_src":"//8543.svetacdn.in/IAF0wWTdNYZm/movie/20779"},{"id":20775,"title":"Почти знаменит","kp_id":"1093293","imdb_id":"tt7059806","world_art_id":null,"type":"movie","add":"2018-12-16 20:58:45","orig_title":"Kimaat Mefursemet","year":"2017-06-22","translations":["Любительский (многоголосый закадровый) (Синема УС)"],"quality":"webdl","translation":"Любительский (многоголосый закадровый) (Синема УС)","update":"2018-12-17 08:51:04","iframe_src":"//8543.svetacdn.in/IAF0wWTdNYZm/movie/20775"},{"id":20774,"title":"Убийство в Мансфилде","kp_id":null,"imdb_id":"tt7561086","world_art_id":null,"type":"movie","add":"2018-12-16 20:55:07","orig_title":"A Murder in Mansfield","year":"2017-11-12","translations":["Любительский (многоголосый закадровый) (Синема УС)"],"quality":"webdl","translation":"Любительский (многоголосый закадровый) (Синема УС)","update":"2018-12-17 08:51:57","iframe_src":"//8543.svetacdn.in/IAF0wWTdNYZm/movie/20774"},{"id":20772,"title":"Обещай, что дождёшься","kp_id":"1016876","imdb_id":"tt6196754","world_art_id":null,"type":"movie","add":"2018-12-15 12:30:31","orig_title":"Say You Will","year":"2017-06-08","translations":["Любительский (многоголосый закадровый) (Синема УС)"],"quality":"webdl","translation":"Любительский (многоголосый закадровый) (Синема УС)","update":"2018-12-17 08:59:44","iframe_src":"//8543.svetacdn.in/IAF0wWTdNYZm/movie/20772"},{"id":20770,"title":"Дом с привидениями","kp_id":"1068721","imdb_id":"tt6361154","world_art_id":null,"type":"movie","add":"2018-12-15 12:23:21","orig_title":"Ghost House: A Haunting","year":"2018-09-19","translations":["Любительский (многоголосый закадровый) (Синема УС)"],"quality":"webdl","translation":"Любительский (многоголосый закадровый) (Синема УС)","update":"2018-12-17 09:06:48","iframe_src":"//8543.svetacdn.in/IAF0wWTdNYZm/movie/20770"},{"id":20766,"title":"Свинг-герлз","kp_id":"110042","imdb_id":"tt0435434","world_art_id":null,"type":"movie","add":"2018-12-14 13:06:29","orig_title":"Swing Girls","year":"2004-09-11","translations":["Любительский (одноголосый закадровый)"],"quality":"bd","translation":"Любительский (одноголосый закадровый)","update":"2018-12-17 09:12:14","iframe_src":"//8543.svetacdn.in/IAF0wWTdNYZm/movie/20766"},{"id":20765,"title":"Украденное вожделение","kp_id":"119333","imdb_id":"tt0052016","world_art_id":null,"type":"movie","add":"2018-12-14 13:04:40","orig_title":"Nusumareta yokujô","year":"1958-07-01","translations":["Любительский (одноголосый закадровый) (Воротилин Олег)"],"quality":"bd","translation":"Любительский (одноголосый закадровый) (Воротилин Олег)","update":"2018-12-17 09:13:09","iframe_src":"//8543.svetacdn.in/IAF0wWTdNYZm/movie/20765"},{"id":20700,"title":"Крайности","kp_id":"900874","imdb_id":"tt4081012","world_art_id":null,"type":"movie","add":"2018-12-12 22:50:57","orig_title":"In Extremis","year":"2017-10-12","translations":["Любительский (многоголосый закадровый) (Синема УС)","Любительский (двухголосый закадровый) (HiWayGrope)"],"quality":"webdl","translation":"Любительский (многоголосый закадровый) (Синема УС)","update":"2018-12-17 08:36:09","iframe_src":"//8543.svetacdn.in/IAF0wWTdNYZm/movie/20700"},{"id":20673,"title":"В клетке","kp_id":"1062201","imdb_id":"tt6341668","world_art_id":null,"type":"movie","add":"2018-12-11 23:20:09","orig_title":"Icebox","year":"2018-09-09","translations":["Профессиональный (многоголосый закадровый) (Amedia)"],"quality":"webdl","translation":"Профессиональный (многоголосый закадровый) (Amedia)","update":"2018-12-17 09:11:14","iframe_src":"//8543.svetacdn.in/IAF0wWTdNYZm/movie/20673"},{"id":20295,"title":"Быть Астрид Линдгрен","kp_id":"1036188","imdb_id":"tt6433456","world_art_id":null,"type":"movie","add":"2018-11-25 22:08:16","orig_title":"Unga Astrid","year":"2018-02-21","translations":["Профессиональный (многоголосый закадровый)"],"quality":"webdl","translation":"Профессиональный (многоголосый закадровый)","update":"2018-12-17 08:54:37","iframe_src":"//8543.svetacdn.in/IAF0wWTdNYZm/movie/20295"},{"id":19974,"title":"Подвал","kp_id":"1045094","imdb_id":"tt8507530","world_art_id":null,"type":"movie","add":"2018-11-06 01:29:25","orig_title":"Cellar","year":"2018-11-01","translations":["Оригинальная дорожка"],"quality":"webdl","translation":"Оригинальная дорожка","update":"2018-12-17 09:00:51","iframe_src":"//8543.svetacdn.in/IAF0wWTdNYZm/movie/19974"},{"id":19858,"title":"Опоссум","kp_id":"1078486","imdb_id":"tt6081670","world_art_id":null,"type":"movie","add":"2018-10-30 00:15:38","orig_title":"Possum","year":"2018-06-25","translations":["Любительский (многоголосый закадровый) (Синема УС)","Любительский (одноголосый закадровый) (BadBajo)","Любительский (двухголосый закадровый) (LakeFilms)"],"quality":"webdl","translation":"Любительский (многоголосый закадровый) (Синема УС)","update":"2018-12-17 09:14:11","iframe_src":"//8543.svetacdn.in/IAF0wWTdNYZm/movie/19858"},{"id":19724,"title":"Транзит","kp_id":"1054008","imdb_id":"tt6675244","world_art_id":null,"type":"movie","add":"2018-10-22 23:59:16","orig_title":"Transit","year":"2018-02-17","translations":["Любительский (многоголосый закадровый) (Синема УС)","Любительский (двухголосый закадровый) (LakeFilms)"],"quality":"bd","translation":"Любительский (многоголосый закадровый) (Синема УС)","update":"2018-12-17 08:57:14","iframe_src":"//8543.svetacdn.in/IAF0wWTdNYZm/movie/19724"},{"id":18767,"title":"Из Неаполя с любовью","kp_id":"984204","imdb_id":"tt5654282","world_art_id":null,"type":"movie","add":"2018-09-03 23:23:39","orig_title":"Troppo napoletano","year":"2016-04-07","translations":["Профессиональный (многоголосый закадровый)"],"quality":"webdl","translation":"Профессиональный (многоголосый закадровый)","update":"2018-12-17 08:55:58","iframe_src":"//8543.svetacdn.in/IAF0wWTdNYZm/movie/18767"}],"current_page":1552,"first_page_url":"https://videocdn.tv/api/short?limit=100&api_token=6Onb1W1alEUrBcKJZD3GoKBbWyAl2uG2&cache31552=31552&page=1","from":155101,"last_page":601,"last_page_url":"https://videocdn.tv/api/short?limit=100&api_token=6Onb1W1alEUrBcKJZD3GoKBbWyAl2uG2&cache31552=31552&page=601","next_page_url":null,"path":"https://videocdn.tv/api/short","per_page":100,"prev_page_url":"https://videocdn.tv/api/short?limit=100&api_token=6Onb1W1alEUrBcKJZD3GoKBbWyAl2uG2&cache31552=31552&page=1551","to":155120,"total":60055}