{"result":true,"data":[{"id":25555,"title":"Луна-Одесса","kp_id":"421442","imdb_id":"tt5280554","world_art_id":null,"type":"movie","add":"2019-04-28 15:54:19","orig_title":"Luna-Odessa","year":"2007-10-14","translations":["Оригинальная дорожка"],"quality":"dvdrip","translation":"Оригинальная дорожка","update":"2019-04-30 07:07:30","iframe_src":"//7043.svetacdn.in/IAF0wWTdNYZm/movie/25555"},{"id":25554,"title":"Марш славянки","kp_id":"41600","imdb_id":"tt0372405","world_art_id":null,"type":"movie","add":"2019-04-28 15:45:23","orig_title":"Marsh slavyanki","year":"2003-06-28","translations":["Оригинальная дорожка"],"quality":"dvdrip","translation":"Оригинальная дорожка","update":"2019-04-30 07:06:33","iframe_src":"//7043.svetacdn.in/IAF0wWTdNYZm/movie/25554"},{"id":25553,"title":"Между первой и второй","kp_id":"420422","imdb_id":null,"world_art_id":null,"type":"movie","add":"2019-04-28 15:38:05","orig_title":"Между первой и второй","year":"2004-01-01","translations":["Оригинальная дорожка"],"quality":"dvdrip","translation":"Оригинальная дорожка","update":"2019-04-30 07:04:20","iframe_src":"//7043.svetacdn.in/IAF0wWTdNYZm/movie/25553"},{"id":25552,"title":"Над темной водой","kp_id":"41538","imdb_id":"tt0107650","world_art_id":null,"type":"movie","add":"2019-04-28 15:26:03","orig_title":"Nad temnoy vodoy","year":"1994-05-01","translations":["Оригинальная дорожка"],"quality":"dvdrip","translation":"Оригинальная дорожка","update":"2019-04-30 07:02:36","iframe_src":"//7043.svetacdn.in/IAF0wWTdNYZm/movie/25552"},{"id":25551,"title":"Объяснение в любви","kp_id":"42706","imdb_id":"tt0076483","world_art_id":null,"type":"movie","add":"2019-04-28 15:20:50","orig_title":"Obyasneniye v lyubvi","year":"1978-01-22","translations":["Оригинальная дорожка"],"quality":"dvdrip","translation":"Оригинальная дорожка","update":"2019-04-30 07:01:48","iframe_src":"//7043.svetacdn.in/IAF0wWTdNYZm/movie/25551"},{"id":25550,"title":"Опасный поворот","kp_id":"216683","imdb_id":"tt0481287","world_art_id":null,"type":"movie","add":"2019-04-28 15:16:51","orig_title":"Opasnyy povorot","year":"1972-12-16","translations":["Оригинальная дорожка"],"quality":"dvdrip","translation":"Оригинальная дорожка","update":"2019-04-30 07:01:03","iframe_src":"//7043.svetacdn.in/IAF0wWTdNYZm/movie/25550"},{"id":25549,"title":"Осторожно, дети","kp_id":"447659","imdb_id":"tt1411757","world_art_id":null,"type":"movie","add":"2019-04-28 14:43:35","orig_title":"Ostorozhno, deti!","year":"2009-04-23","translations":["Оригинальная дорожка"],"quality":"dvdrip","translation":"Оригинальная дорожка","update":"2019-04-30 07:00:15","iframe_src":"//7043.svetacdn.in/IAF0wWTdNYZm/movie/25549"},{"id":25547,"title":"Отдаленные последствия","kp_id":"420088","imdb_id":"tt1343370","world_art_id":null,"type":"movie","add":"2019-04-28 14:13:23","orig_title":"Otdalyonniye posledstviye","year":"2008-01-01","translations":["Оригинальная дорожка"],"quality":"sat","translation":"Оригинальная дорожка","update":"2019-04-30 06:57:58","iframe_src":"//7043.svetacdn.in/IAF0wWTdNYZm/movie/25547"},{"id":25546,"title":"Парниковый эффект","kp_id":"161121","imdb_id":"tt0480258","world_art_id":null,"type":"movie","add":"2019-04-28 14:05:37","orig_title":"Parnikovyy effekt","year":"2005-09-01","translations":["Оригинальная дорожка"],"quality":"dvdrip","translation":"Оригинальная дорожка","update":"2019-04-30 06:57:17","iframe_src":"//7043.svetacdn.in/IAF0wWTdNYZm/movie/25546"},{"id":25545,"title":"Поединок в горах","kp_id":"43197","imdb_id":"tt0314531","world_art_id":null,"type":"movie","add":"2019-04-28 14:00:30","orig_title":"Daglarda döyüs","year":"1968-05-27","translations":["Оригинальная дорожка"],"quality":"vhs","translation":"Оригинальная дорожка","update":"2019-04-30 06:56:39","iframe_src":"//7043.svetacdn.in/IAF0wWTdNYZm/movie/25545"},{"id":25544,"title":"Полустанок","kp_id":"43109","imdb_id":"tt0057418","world_art_id":null,"type":"movie","add":"2019-04-28 13:56:04","orig_title":"Polustanok","year":"1963-11-24","translations":["Оригинальная дорожка"],"quality":"dvdrip","translation":"Оригинальная дорожка","update":"2019-04-30 06:55:34","iframe_src":"//7043.svetacdn.in/IAF0wWTdNYZm/movie/25544"},{"id":25543,"title":"Потапов, к доске!","kp_id":"281106","imdb_id":"tt1003039","world_art_id":null,"type":"movie","add":"2019-04-28 13:52:35","orig_title":"Potapov, k doske!","year":"2007-06-07","translations":["Оригинальная дорожка"],"quality":"dvdrip","translation":"Оригинальная дорожка","update":"2019-04-30 06:54:27","iframe_src":"//7043.svetacdn.in/IAF0wWTdNYZm/movie/25543"},{"id":25542,"title":"Прости – прощай","kp_id":"422985","imdb_id":"tt1714888","world_art_id":null,"type":"movie","add":"2019-04-28 13:49:06","orig_title":"Prosti - proshchay","year":"1979-01-01","translations":["Оригинальная дорожка"],"quality":"tv","translation":"Оригинальная дорожка","update":"2019-04-30 06:53:25","iframe_src":"//7043.svetacdn.in/IAF0wWTdNYZm/movie/25542"},{"id":25541,"title":"Путешествие в другой город","kp_id":"43363","imdb_id":"tt0176069","world_art_id":null,"type":"movie","add":"2019-04-28 13:44:05","orig_title":"Puteshestvie v drugoy gorod","year":"1980-12-15","translations":["Оригинальная дорожка"],"quality":"tv","translation":"Оригинальная дорожка","update":"2019-04-30 06:51:10","iframe_src":"//7043.svetacdn.in/IAF0wWTdNYZm/movie/25541"},{"id":25540,"title":"Ретро втроем","kp_id":"40694","imdb_id":"tt0152181","world_art_id":null,"type":"movie","add":"2019-04-28 13:40:48","orig_title":"Retro vtroyom","year":"1998-01-01","translations":["Оригинальная дорожка"],"quality":"dvdrip","translation":"Оригинальная дорожка","update":"2019-04-30 06:50:00","iframe_src":"//7043.svetacdn.in/IAF0wWTdNYZm/movie/25540"},{"id":25539,"title":"Русская рулетка","kp_id":"42148","imdb_id":"tt0100532","world_art_id":null,"type":"movie","add":"2019-04-28 13:37:33","orig_title":"Russkaya ruletka","year":"1990-01-01","translations":["Оригинальная дорожка"],"quality":"dvdrip","translation":"Оригинальная дорожка","update":"2019-04-30 06:49:03","iframe_src":"//7043.svetacdn.in/IAF0wWTdNYZm/movie/25539"},{"id":25538,"title":"Сегодня – новый аттракцион","kp_id":"43648","imdb_id":"tt0196082","world_art_id":null,"type":"movie","add":"2019-04-28 13:33:53","orig_title":"Segodnya novyy attraktsion","year":"1966-03-07","translations":["Оригинальная дорожка"],"quality":"dvdrip","translation":"Оригинальная дорожка","update":"2019-04-30 06:47:44","iframe_src":"//7043.svetacdn.in/IAF0wWTdNYZm/movie/25538"},{"id":25537,"title":"Шхера-18","kp_id":"594856","imdb_id":null,"world_art_id":null,"type":"movie","add":"2019-04-28 13:20:30","orig_title":"Шхера-18","year":"2011-07-03","translations":["Оригинальная дорожка"],"quality":"dvdrip","translation":"Оригинальная дорожка","update":"2019-04-30 06:46:53","iframe_src":"//7043.svetacdn.in/IAF0wWTdNYZm/movie/25537"},{"id":25536,"title":"Сицилианская защита","kp_id":"43800","imdb_id":"tt0160873","world_art_id":null,"type":"movie","add":"2019-04-28 13:03:03","orig_title":"Sitsilianskaya zashchita","year":"1981-05-01","translations":["Оригинальная дорожка"],"quality":"dvdrip","translation":"Оригинальная дорожка","update":"2019-04-30 06:45:36","iframe_src":"//7043.svetacdn.in/IAF0wWTdNYZm/movie/25536"},{"id":25534,"title":"Смертельная схватка","kp_id":"518714","imdb_id":"tt4744368","world_art_id":null,"type":"movie","add":"2019-04-28 12:54:04","orig_title":"Smertelnaya skhvatka","year":"2010-05-08","translations":["Оригинальная дорожка"],"quality":"dvdrip","translation":"Оригинальная дорожка","update":"2019-04-30 06:28:45","iframe_src":"//7043.svetacdn.in/IAF0wWTdNYZm/movie/25534"}],"current_page":1390,"first_page_url":"https://videocdn.tv/api/short?limit=100&api_token=6Onb1W1alEUrBcKJZD3GoKBbWyAl2uG2&cache31390=31390&page=1","from":138901,"last_page":615,"last_page_url":"https://videocdn.tv/api/short?limit=100&api_token=6Onb1W1alEUrBcKJZD3GoKBbWyAl2uG2&cache31390=31390&page=615","next_page_url":null,"path":"https://videocdn.tv/api/short","per_page":100,"prev_page_url":"https://videocdn.tv/api/short?limit=100&api_token=6Onb1W1alEUrBcKJZD3GoKBbWyAl2uG2&cache31390=31390&page=1389","to":138920,"total":61457}