{"result":true,"data":[{"id":46725,"title":"SARS-29","kp_id":"1401324","imdb_id":"tt12867504","world_art_id":null,"type":"movie","add":"2021-01-05 23:24:34","orig_title":"SARS-29","year":"2020-08-21","translations":["Любительский (многоголосый закадровый) (Синема УС)"],"quality":"webdl","translation":"Любительский (многоголосый закадровый) (Синема УС)","update":"2021-01-06 09:36:32","iframe_src":"//83.svetacdn.in/PfJ50H0ZBPg3/movie/46725"},{"id":46724,"title":"Что случилось с мистером Чха?","kp_id":"1320486","imdb_id":"tt13667212","world_art_id":null,"type":"movie","add":"2021-01-05 23:10:37","orig_title":"What Happened to Mr Cha?","year":"2021-01-01","translations":["Любительский (многоголосый закадровый) (Синема УС)"],"quality":"webdl","translation":"Любительский (многоголосый закадровый) (Синема УС)","update":"2021-01-06 09:37:26","iframe_src":"//83.svetacdn.in/PfJ50H0ZBPg3/movie/46724"},{"id":46718,"title":"В погоне за дождём","kp_id":"631991","imdb_id":"tt2075078","world_art_id":null,"type":"movie","add":"2021-01-05 21:22:43","orig_title":"Chasing the Rain","year":"2020-12-18","translations":["Любительский (многоголосый закадровый) (Синема УС)"],"quality":"webdl","translation":"Любительский (многоголосый закадровый) (Синема УС)","update":"2021-01-06 07:36:08","iframe_src":"//83.svetacdn.in/PfJ50H0ZBPg3/movie/46718"},{"id":46714,"title":"Мы не женаты","kp_id":"11666","imdb_id":"tt0045317","world_art_id":null,"type":"movie","add":"2021-01-05 19:53:08","orig_title":"We're Not Married!","year":"1952-07-11","translations":["Профессиональный (многоголосый закадровый)"],"quality":"dvdrip","translation":"Профессиональный (многоголосый закадровый)","update":"2021-01-06 08:09:42","iframe_src":"//83.svetacdn.in/PfJ50H0ZBPg3/movie/46714"},{"id":46683,"title":"Чудесный костюм","kp_id":"314259","imdb_id":null,"world_art_id":null,"type":"movie","add":"2021-01-04 17:01:09","orig_title":"Чудесный костюм","year":"1973-01-01","translations":["Оригинальная дорожка"],"quality":"sat","translation":"Оригинальная дорожка","update":"2021-01-06 10:39:58","iframe_src":"//83.svetacdn.in/PfJ50H0ZBPg3/movie/46683"},{"id":46682,"title":"Человек в штатском","kp_id":"45471","imdb_id":"tt0313878","world_art_id":null,"type":"movie","add":"2021-01-04 16:55:13","orig_title":"Chelovek v shtatskom","year":"1973-10-15","translations":["Оригинальная дорожка"],"quality":"sat","translation":"Оригинальная дорожка","update":"2021-01-06 10:39:07","iframe_src":"//83.svetacdn.in/PfJ50H0ZBPg3/movie/46682"},{"id":46662,"title":"На даче","kp_id":"468774","imdb_id":null,"world_art_id":null,"type":"movie","add":"2021-01-03 22:44:07","orig_title":"На даче","year":"1971-04-25","translations":["Оригинальная дорожка"],"quality":"sat","translation":"Оригинальная дорожка","update":"2021-01-06 10:38:22","iframe_src":"//83.svetacdn.in/PfJ50H0ZBPg3/movie/46662"},{"id":46661,"title":"Наша дача","kp_id":"46333","imdb_id":"tt0100227","world_art_id":null,"type":"movie","add":"2021-01-03 22:35:34","orig_title":"Nasha dacha","year":"1990-01-21","translations":["Оригинальная дорожка"],"quality":"dvdrip","translation":"Оригинальная дорожка","update":"2021-01-06 10:37:25","iframe_src":"//83.svetacdn.in/PfJ50H0ZBPg3/movie/46661"},{"id":46660,"title":"Портрет с дождем","kp_id":"43131","imdb_id":"tt0076562","world_art_id":null,"type":"movie","add":"2021-01-03 22:31:54","orig_title":"Portret s dozhdyom","year":"1978-03-06","translations":["Оригинальная дорожка"],"quality":"iptv","translation":"Оригинальная дорожка","update":"2021-01-06 10:36:18","iframe_src":"//83.svetacdn.in/PfJ50H0ZBPg3/movie/46660"},{"id":46659,"title":"Придут страсти-мордасти","kp_id":"43245","imdb_id":"tt0237607","world_art_id":null,"type":"movie","add":"2021-01-03 22:27:49","orig_title":"Pridut strasti-mordasti","year":"1981-05-31","translations":["Оригинальная дорожка"],"quality":"tv","translation":"Оригинальная дорожка","update":"2021-01-06 10:35:22","iframe_src":"//83.svetacdn.in/PfJ50H0ZBPg3/movie/46659"},{"id":46658,"title":"Путь корабля","kp_id":"397354","imdb_id":"tt0239852","world_art_id":null,"type":"movie","add":"2021-01-03 22:12:15","orig_title":"Put korablya","year":"1935-10-20","translations":["Оригинальная дорожка"],"quality":"dvdrip","translation":"Оригинальная дорожка","update":"2021-01-06 10:34:32","iframe_src":"//83.svetacdn.in/PfJ50H0ZBPg3/movie/46658"},{"id":46657,"title":"Пышка","kp_id":"43386","imdb_id":"tt0025691","world_art_id":null,"type":"movie","add":"2021-01-03 22:06:26","orig_title":"Pyshka","year":"1934-09-15","translations":["Оригинальная дорожка"],"quality":"dvdrip","translation":"Оригинальная дорожка","update":"2021-01-06 10:33:40","iframe_src":"//83.svetacdn.in/PfJ50H0ZBPg3/movie/46657"},{"id":46656,"title":"Развязка","kp_id":"42074","imdb_id":"tt0314563","world_art_id":null,"type":"movie","add":"2021-01-03 22:03:00","orig_title":"Razvyazka","year":"1969-01-26","translations":["Оригинальная дорожка"],"quality":"sat","translation":"Оригинальная дорожка","update":"2021-01-06 10:32:40","iframe_src":"//83.svetacdn.in/PfJ50H0ZBPg3/movie/46656"},{"id":46655,"title":"Сампо из Лапландии","kp_id":"470621","imdb_id":"tt5988648","world_art_id":null,"type":"movie","add":"2021-01-03 21:58:00","orig_title":"Sampo iz Laplandii","year":"1985-01-01","translations":["Оригинальная дорожка"],"quality":"dvdrip","translation":"Оригинальная дорожка","update":"2021-01-06 10:31:42","iframe_src":"//83.svetacdn.in/PfJ50H0ZBPg3/movie/46655"},{"id":46654,"title":"Случай в вулкане","kp_id":"43860","imdb_id":"tt0034201","world_art_id":null,"type":"movie","add":"2021-01-03 21:54:46","orig_title":"Sluchay v vulkane","year":"1941-03-22","translations":["Оригинальная дорожка"],"quality":"dvdrip","translation":"Оригинальная дорожка","update":"2021-01-06 10:29:43","iframe_src":"//83.svetacdn.in/PfJ50H0ZBPg3/movie/46654"},{"id":46653,"title":"Вратарь","kp_id":"655938","imdb_id":"tt13687786","world_art_id":null,"type":"movie","add":"2021-01-03 21:48:17","orig_title":"Vratar","year":"1974-01-01","translations":["Оригинальная дорожка"],"quality":"vhs","translation":"Оригинальная дорожка","update":"2021-01-06 10:27:41","iframe_src":"//83.svetacdn.in/PfJ50H0ZBPg3/movie/46653"},{"id":46652,"title":"Юлия Вревская","kp_id":"42464","imdb_id":"tt0076946","world_art_id":null,"type":"movie","add":"2021-01-03 21:45:45","orig_title":"Yuliya Vrevskaya","year":"1978-01-23","translations":["Оригинальная дорожка"],"quality":"vhs","translation":"Оригинальная дорожка","update":"2021-01-06 10:26:55","iframe_src":"//83.svetacdn.in/PfJ50H0ZBPg3/movie/46652"},{"id":46651,"title":"Золотая липа","kp_id":"632955","imdb_id":"tt9196292","world_art_id":null,"type":"movie","add":"2021-01-03 21:38:01","orig_title":"Zolotaya lipa","year":"1980-01-01","translations":["Оригинальная дорожка"],"quality":"dvdrip","translation":"Оригинальная дорожка","update":"2021-01-06 10:25:06","iframe_src":"//83.svetacdn.in/PfJ50H0ZBPg3/movie/46651"},{"id":45439,"title":"Агата и смерть X","kp_id":"1318978","imdb_id":"tt11062400","world_art_id":null,"type":"movie","add":"2020-11-19 14:23:19","orig_title":"Agatha and the Midnight Murders","year":"2020-10-07","translations":["Original (English)","Любительский (многоголосый закадровый) (Синема УС)","Original (English)","Полное дублирование (ТВЦ)"],"quality":"hdtv","translation":"Original (English)","update":"2021-01-06 09:01:36","iframe_src":"//83.svetacdn.in/PfJ50H0ZBPg3/movie/45439"},{"id":7024,"title":"5000 лет истории Нила","kp_id":"1320399","imdb_id":"tt10547992","world_art_id":null,"type":"serial","add":"2020-03-29 09:36:51","orig_title":"The Nile: Egypt's Great River with Bettany Hughes","year":"2019-06-14","translations":["Профессиональный (одноголосый закадровый)"],"seasons_count":1,"episodes_count":4,"episodes":4,"update":"2020-03-29 12:49:21","iframe_src":"//83.svetacdn.in/PfJ50H0ZBPg3/tv-series/7024"},{"id":7018,"title":"Супруги 2","kp_id":"584749","imdb_id":"tt5013512","world_art_id":null,"type":"serial","add":"2020-03-28 11:11:19","orig_title":"Suprugi 2","year":"2011-01-01","translations":["Оригинальная дорожка"],"seasons_count":1,"episodes_count":66,"episodes":66,"update":"2020-03-29 09:00:53","iframe_src":"//83.svetacdn.in/PfJ50H0ZBPg3/tv-series/7018"},{"id":7016,"title":"Супруги","kp_id":"481298","imdb_id":"tt5019792","world_art_id":null,"type":"serial","add":"2020-03-28 10:00:47","orig_title":"Suprugi","year":"2009-10-31","translations":["Оригинальная дорожка"],"seasons_count":1,"episodes_count":50,"episodes":50,"update":"2020-03-29 10:10:18","iframe_src":"//83.svetacdn.in/PfJ50H0ZBPg3/tv-series/7016"},{"id":7011,"title":"Падший","kp_id":"393873","imdb_id":"tt0838800","world_art_id":null,"type":"serial","add":"2020-03-27 13:27:13","orig_title":"Fallen","year":"2007-08-04","translations":["Профессиональный (двухголосый закадровый) (НТВ)"],"seasons_count":1,"episodes_count":3,"episodes":3,"update":"2020-03-27 23:04:35","iframe_src":"//83.svetacdn.in/PfJ50H0ZBPg3/tv-series/7011"},{"id":7009,"title":"Заградотряд: Соло на минном поле","kp_id":"490266","imdb_id":"tt3519004","world_art_id":null,"type":"serial","add":"2020-03-27 13:01:56","orig_title":"Zagradotryad","year":"2009-01-01","translations":["Оригинальная дорожка"],"seasons_count":1,"episodes_count":4,"episodes":4,"update":"2020-03-27 23:08:09","iframe_src":"//83.svetacdn.in/PfJ50H0ZBPg3/tv-series/7009"},{"id":7003,"title":"Хранитель","kp_id":"1164014","imdb_id":"tt8551028","world_art_id":null,"type":"serial","add":"2020-03-26 21:50:18","orig_title":"Zhen hun","year":"2018-06-13","translations":["Любительский (двухголосый закадровый) (RusFilm)"],"seasons_count":1,"episodes_count":40,"episodes":40,"update":"2020-03-29 10:31:48","iframe_src":"//83.svetacdn.in/PfJ50H0ZBPg3/tv-series/7003"},{"id":6999,"title":"Подарок судьбы","kp_id":"469664","imdb_id":"tt3033200","world_art_id":null,"type":"serial","add":"2020-03-26 21:29:06","orig_title":"Podarok sudby","year":"2010-12-06","translations":["Оригинальная дорожка"],"seasons_count":1,"episodes_count":20,"episodes":20,"update":"2020-03-27 14:27:50","iframe_src":"//83.svetacdn.in/PfJ50H0ZBPg3/tv-series/6999"},{"id":6996,"title":"Версия","kp_id":"461835","imdb_id":"tt4994314","world_art_id":null,"type":"serial","add":"2020-03-26 15:03:26","orig_title":"Versiya","year":"2009-05-11","translations":["Оригинальная дорожка"],"seasons_count":3,"episodes_count":28,"episodes":8,"update":"2020-03-27 14:17:28","iframe_src":"//83.svetacdn.in/PfJ50H0ZBPg3/tv-series/6996"},{"id":6954,"title":"Жизнь на Земле","kp_id":"281789","imdb_id":"tt0135095","world_art_id":null,"type":"serial","add":"2020-03-20 15:39:54","orig_title":"Life on Earth","year":"1979-01-16","translations":["Профессиональный (одноголосый закадровый) (Омикрон)"],"seasons_count":1,"episodes_count":13,"episodes":13,"update":"2020-03-29 21:41:57","iframe_src":"//83.svetacdn.in/PfJ50H0ZBPg3/tv-series/6954"},{"id":6879,"title":"Фантагиро, или Пещера золотой розы 2","kp_id":"230755","imdb_id":"tt0103409","world_art_id":null,"type":"serial","add":"2020-03-15 08:59:48","orig_title":"Fantaghirò 2","year":"1992-12-20","translations":["Профессиональный (двухголосый закадровый)"],"seasons_count":1,"episodes_count":2,"episodes":2,"update":"2020-03-30 11:34:45","iframe_src":"//83.svetacdn.in/PfJ50H0ZBPg3/tv-series/6879"},{"id":6878,"title":"Фантагиро, или Пещера золотой розы","kp_id":"230749","imdb_id":"tt0101095","world_art_id":null,"type":"serial","add":"2020-03-15 08:57:05","orig_title":"Fantaghirò","year":"1991-12-22","translations":["Профессиональный (двухголосый закадровый)"],"seasons_count":1,"episodes_count":2,"episodes":2,"update":"2020-03-30 11:34:45","iframe_src":"//83.svetacdn.in/PfJ50H0ZBPg3/tv-series/6878"},{"id":6467,"title":"В меньшинстве","kp_id":"1266445","imdb_id":"tt10327294","world_art_id":null,"type":"serial","add":"2020-01-25 15:22:30","orig_title":"Outmatched","year":"2020-01-23","translations":["Профессиональный (двухголосый закадровый) (IdeaFilm)","Профессиональный (многоголосый закадровый) (IdeaFilm)"],"seasons_count":1,"episodes_count":10,"episodes":10,"update":"2020-03-27 22:37:09","iframe_src":"//83.svetacdn.in/PfJ50H0ZBPg3/tv-series/6467"},{"id":6213,"title":"Виражи судьбы","kp_id":"1311029","imdb_id":null,"world_art_id":null,"type":"serial","add":"2020-01-03 06:08:33","orig_title":"Виражи судьбы","year":"2019-09-28","translations":["Оригинальная дорожка"],"seasons_count":1,"episodes_count":4,"episodes":4,"update":"2020-03-29 06:55:47","iframe_src":"//83.svetacdn.in/PfJ50H0ZBPg3/tv-series/6213"},{"id":6210,"title":"Заместитель","kp_id":"1245494","imdb_id":"tt8873996","world_art_id":null,"type":"serial","add":"2020-01-03 05:30:10","orig_title":"Deputy","year":"2020-01-02","translations":["Любительский (многоголосый закадровый) (Octopus)","Профессиональный (многоголосый закадровый) (NewStudio)","Профессиональный (многоголосый закадровый) (TVShows)"],"seasons_count":1,"episodes_count":13,"episodes":13,"update":"2020-03-30 06:33:06","iframe_src":"//83.svetacdn.in/PfJ50H0ZBPg3/tv-series/6210"},{"id":5559,"title":"Твоя очередь","kp_id":"1234917","imdb_id":"tt9679644","world_art_id":null,"type":"serial","add":"2019-10-28 18:04:24","orig_title":"Anata no Ban Desu","year":"2019-04-07","translations":["Любительский (одноголосый закадровый)"],"seasons_count":1,"episodes_count":11,"episodes":11,"update":"2020-03-29 11:11:33","iframe_src":"//83.svetacdn.in/PfJ50H0ZBPg3/tv-series/5559"},{"id":5301,"title":"Любовь заставит плакать","kp_id":"1289036","imdb_id":"tt10689840","world_art_id":null,"type":"serial","add":"2019-09-26 08:22:40","orig_title":"Ask Aglatir","year":"2019-09-08","translations":["Любительский (двухголосый закадровый)","Любительский (двухголосый закадровый) (Анастасия Гайдаржи + Артём Борисов)"],"seasons_count":1,"episodes_count":16,"episodes":16,"update":"2020-03-30 06:45:07","iframe_src":"//83.svetacdn.in/PfJ50H0ZBPg3/tv-series/5301"},{"id":5042,"title":"Гаишники","kp_id":"412345","imdb_id":"tt1229930","world_art_id":null,"type":"serial","add":"2019-08-16 11:58:05","orig_title":"Gaishniki","year":"2008-05-05","translations":["Оригинальная дорожка"],"seasons_count":2,"episodes_count":15,"episodes":8,"update":"2020-03-29 11:27:10","iframe_src":"//83.svetacdn.in/PfJ50H0ZBPg3/tv-series/5042"},{"id":4468,"title":"Жестокий Стамбул","kp_id":"1245958","imdb_id":"tt9910728","world_art_id":null,"type":"serial","add":"2019-05-07 19:21:48","orig_title":"Zalim Istanbul","year":"2019-04-01","translations":["Любительский (двухголосый закадровый)","Любительский (одноголосый закадровый) (Гайдаржи Анастасия)","Любительский (одноголосый закадровый)"],"seasons_count":2,"episodes_count":36,"episodes":27,"update":"2020-03-28 10:11:31","iframe_src":"//83.svetacdn.in/PfJ50H0ZBPg3/tv-series/4468"},{"id":4036,"title":"Перевал","kp_id":"1189907","imdb_id":"tt6905756","world_art_id":null,"type":"serial","add":"2019-02-06 08:46:07","orig_title":"Der Pass","year":"2018-09-21","translations":["Любительский (двухголосый закадровый) (KosharaSerials)","Профессиональный (двухголосый закадровый) (Кубик в Кубе)","Профессиональный (многоголосый закадровый) (HDrezka Studio)"],"seasons_count":1,"episodes_count":8,"episodes":8,"update":"2020-03-30 06:11:33","iframe_src":"//83.svetacdn.in/PfJ50H0ZBPg3/tv-series/4036"},{"id":19753,"title":"Веселые ребята","kp_id":"45757","imdb_id":"tt0025946","world_art_id":null,"type":"movie","add":"2018-10-24 10:41:24","orig_title":"Vesyolye rebyata","year":"1934-12-09","translations":["Оригинальная дорожка","Оригинальная дорожка"],"quality":"hdtv","translation":"Оригинальная дорожка","update":"2021-01-06 10:28:47","iframe_src":"//83.svetacdn.in/PfJ50H0ZBPg3/movie/19753"},{"id":933,"title":"Сшиватели","kp_id":"891594","imdb_id":"tt3868848","world_art_id":null,"type":"serial","add":"2017-01-24 05:43:45","orig_title":"Stitchers","year":"2015-06-02","translations":["Любительский (двухголосый закадровый) (LevshaFilm)","Профессиональный (многоголосый закадровый) (Кириллица)","Любительский (одноголосый закадровый)","Любительский (двухголосый закадровый) (Hamster Studio)"],"seasons_count":3,"episodes_count":31,"episodes":10,"update":"2020-03-28 16:16:54","iframe_src":"//83.svetacdn.in/PfJ50H0ZBPg3/tv-series/933"}],"current_page":226,"first_page_url":"https://videocdn.tv/api/short?limit=100&api_token=RgFQdUIR2dRmwv8iYa5SnFNgnw3vpjKj&cache3226=3226&page=1","from":22501,"last_page":612,"last_page_url":"https://videocdn.tv/api/short?limit=100&api_token=RgFQdUIR2dRmwv8iYa5SnFNgnw3vpjKj&cache3226=3226&page=612","next_page_url":"https://videocdn.tv/api/short?limit=100&api_token=RgFQdUIR2dRmwv8iYa5SnFNgnw3vpjKj&cache3226=3226&page=227","path":"https://videocdn.tv/api/short","per_page":100,"prev_page_url":"https://videocdn.tv/api/short?limit=100&api_token=RgFQdUIR2dRmwv8iYa5SnFNgnw3vpjKj&cache3226=3226&page=225","to":22540,"total":61154}