{"result":true,"data":[{"id":6059,"title":"Чтo творят мужчины! 2","kp_id":"765083","imdb_id":"tt4393278","world_art_id":null,"type":"movie","add":"2016-10-10 16:33:34","orig_title":"Chto tvoryat muzhchiny! 2","year":"2015-01-09","translations":["Оригинальная дорожка"],"quality":"webdl","translation":"Оригинальная дорожка","update":"2016-10-10 18:49:58","iframe_src":"//8209.svetacdn.in/71tsRs29n5tZ/movie/6059"},{"id":6041,"title":"Случай в квадрате 36-80","kp_id":"43858","imdb_id":"tt0085723","world_art_id":null,"type":"movie","add":"2016-10-10 07:44:32","orig_title":"Sluchay v kvadrate '36-80'","year":"1982-12-07","translations":["Оригинальная дорожка"],"quality":"hdtv","translation":"Оригинальная дорожка","update":"2016-10-10 15:40:47","iframe_src":"//8209.svetacdn.in/71tsRs29n5tZ/movie/6041"},{"id":5978,"title":"Чeловек в красном ботинке","kp_id":"6885","imdb_id":"tt0089543","world_art_id":null,"type":"movie","add":"2016-10-07 11:43:57","orig_title":"The Man with One Red Shoe","year":"1985-07-19","translations":["Профессиональный (многоголосый закадровый)"],"quality":"webdl","translation":"Профессиональный (многоголосый закадровый)","update":"2016-10-11 08:40:02","iframe_src":"//8209.svetacdn.in/71tsRs29n5tZ/movie/5978"},{"id":5977,"title":"Кодовое имя «Джеронимо»","kp_id":"645121","imdb_id":"tt2095605","world_art_id":null,"type":"movie","add":"2016-10-07 11:42:23","orig_title":"Seal Team Six: The Raid on Osama Bin Laden","year":"2012-10-26","translations":["Профессиональный (многоголосый закадровый)"],"quality":"bd","translation":"Профессиональный (многоголосый закадровый)","update":"2016-10-11 08:51:15","iframe_src":"//8209.svetacdn.in/71tsRs29n5tZ/movie/5977"},{"id":5976,"title":"Управляя полетами","kp_id":"4603","imdb_id":"tt0120797","world_art_id":null,"type":"movie","add":"2016-10-07 11:40:34","orig_title":"Pushing Tin","year":"1999-04-23","translations":["Профессиональный (многоголосый закадровый)"],"quality":"webdl","translation":"Профессиональный (многоголосый закадровый)","update":"2016-10-11 08:51:55","iframe_src":"//8209.svetacdn.in/71tsRs29n5tZ/movie/5976"},{"id":5975,"title":"Земля обетованная","kp_id":"640980","imdb_id":"tt2091473","world_art_id":null,"type":"movie","add":"2016-10-07 11:39:23","orig_title":"Promised Land","year":"2012-12-28","translations":["Профессиональный (многоголосый закадровый)"],"quality":"bd","translation":"Профессиональный (многоголосый закадровый)","update":"2016-10-11 08:51:59","iframe_src":"//8209.svetacdn.in/71tsRs29n5tZ/movie/5975"},{"id":5876,"title":"Nightwish: Конец эры","kp_id":"320972","imdb_id":"tt0829250","world_art_id":null,"type":"movie","add":"2016-10-05 08:01:40","orig_title":"Nightwish: End of an Era","year":"2006-05-31","translations":["Оригинальная дорожка"],"quality":"bd","translation":"Оригинальная дорожка","update":"2016-10-10 15:04:46","iframe_src":"//8209.svetacdn.in/71tsRs29n5tZ/movie/5876"},{"id":5676,"title":"Вышибалы","kp_id":"23576","imdb_id":"tt0364725","world_art_id":null,"type":"movie","add":"2016-09-28 15:28:51","orig_title":"Dodgeball: A True Underdog Story","year":"2004-06-18","translations":["Полное дублирование"],"quality":"bd","translation":"Полное дублирование","update":"2016-10-10 15:03:59","iframe_src":"//8209.svetacdn.in/71tsRs29n5tZ/movie/5676"},{"id":5675,"title":"Анаморф","kp_id":"251964","imdb_id":"tt0497323","world_art_id":null,"type":"movie","add":"2016-09-28 15:28:07","orig_title":"Anamorph","year":"2007-09-21","translations":["Профессиональный (многоголосый)"],"quality":"bd","translation":"Профессиональный (многоголосый)","update":"2016-10-10 14:44:14","iframe_src":"//8209.svetacdn.in/71tsRs29n5tZ/movie/5675"},{"id":5673,"title":"Такси 4","kp_id":"258478","imdb_id":"tt0804540","world_art_id":null,"type":"movie","add":"2016-09-28 15:24:52","orig_title":"Taxi 4","year":"2007-02-14","translations":["Полное дублирование"],"quality":"bd","translation":"Полное дублирование","update":"2016-10-10 14:43:52","iframe_src":"//8209.svetacdn.in/71tsRs29n5tZ/movie/5673"},{"id":5672,"title":"Бестолковые","kp_id":"9411","imdb_id":"tt0112697","world_art_id":null,"type":"movie","add":"2016-09-28 15:24:17","orig_title":"Clueless","year":"1995-07-19","translations":["Профессиональный (многоголосый закадровый)"],"quality":"bd","translation":"Профессиональный (многоголосый закадровый)","update":"2016-10-10 14:43:00","iframe_src":"//8209.svetacdn.in/71tsRs29n5tZ/movie/5672"},{"id":5671,"title":"Жестокая игра","kp_id":"4774","imdb_id":"tt0104036","world_art_id":null,"type":"movie","add":"2016-09-28 15:23:29","orig_title":"The Crying Game","year":"1992-09-02","translations":["Профессиональный (двухголосый закадровый)"],"quality":"bd","translation":"Профессиональный (двухголосый закадровый)","update":"2016-10-10 14:43:26","iframe_src":"//8209.svetacdn.in/71tsRs29n5tZ/movie/5671"},{"id":5670,"title":"Вся королевская рать","kp_id":"84047","imdb_id":"tt0405676","world_art_id":null,"type":"movie","add":"2016-09-28 15:22:44","orig_title":"All the King's Men","year":"2006-09-10","translations":["Профессиональный (многоголосый закадровый)"],"quality":"bd","translation":"Профессиональный (многоголосый закадровый)","update":"2016-10-10 14:32:44","iframe_src":"//8209.svetacdn.in/71tsRs29n5tZ/movie/5670"},{"id":5668,"title":"Черные бабочки","kp_id":"404192","imdb_id":"tt0906778","world_art_id":null,"type":"movie","add":"2016-09-28 15:18:44","orig_title":"Black Butterflies","year":"2011-02-06","translations":["Профессиональный (двухголосый закадровый)"],"quality":"bd","translation":"Профессиональный (двухголосый закадровый)","update":"2016-10-10 14:31:52","iframe_src":"//8209.svetacdn.in/71tsRs29n5tZ/movie/5668"},{"id":5666,"title":"Королевы убийства","kp_id":"14379","imdb_id":"tt0155776","world_art_id":null,"type":"movie","add":"2016-09-28 15:17:16","orig_title":"Jawbreaker","year":"1999-01-30","translations":["Профессиональный (двухголосый закадровый)"],"quality":"bd","translation":"Профессиональный (двухголосый закадровый)","update":"2016-10-10 14:31:30","iframe_src":"//8209.svetacdn.in/71tsRs29n5tZ/movie/5666"},{"id":5665,"title":"Одиночки","kp_id":"4547","imdb_id":"tt0105415","world_art_id":null,"type":"movie","add":"2016-09-28 15:16:39","orig_title":"Singles","year":"1992-09-18","translations":["Профессиональный (многоголосый)"],"quality":"bd","translation":"Профессиональный (многоголосый)","update":"2016-10-10 14:31:30","iframe_src":"//8209.svetacdn.in/71tsRs29n5tZ/movie/5665"},{"id":5664,"title":"Горбун","kp_id":"35098","imdb_id":"tt0118756","world_art_id":null,"type":"movie","add":"2016-09-28 15:16:04","orig_title":"Le bossu","year":"1997-12-03","translations":["Профессиональный (многоголосый)"],"quality":"bd","translation":"Профессиональный (многоголосый)","update":"2016-10-10 14:30:42","iframe_src":"//8209.svetacdn.in/71tsRs29n5tZ/movie/5664"},{"id":5663,"title":"Три четверти луны","kp_id":"616409","imdb_id":"tt1747994","world_art_id":null,"type":"movie","add":"2016-09-28 15:15:30","orig_title":"Dreiviertelmond","year":"2011-09-30","translations":["Профессиональный (двухголосый закадровый)"],"quality":"bd","translation":"Профессиональный (двухголосый закадровый)","update":"2016-10-10 14:20:55","iframe_src":"//8209.svetacdn.in/71tsRs29n5tZ/movie/5663"},{"id":5661,"title":"Дети кукурузы 4: Сбор урожая","kp_id":"77148","imdb_id":"tt0115885","world_art_id":null,"type":"movie","add":"2016-09-28 15:14:14","orig_title":"Children of the Corn: The Gathering","year":"1996-10-08","translations":["Профессиональный (двухголосый закадровый)"],"quality":"bd","translation":"Профессиональный (двухголосый закадровый)","update":"2016-10-10 14:31:07","iframe_src":"//8209.svetacdn.in/71tsRs29n5tZ/movie/5661"},{"id":5660,"title":"Bенди и Люси","kp_id":"402538","imdb_id":"tt1152850","world_art_id":null,"type":"movie","add":"2016-09-28 15:13:40","orig_title":"Wendy and Lucy","year":"2008-05-22","translations":["Профессиональный (двухголосый закадровый)"],"quality":"bd","translation":"Профессиональный (двухголосый закадровый)","update":"2016-10-10 14:20:30","iframe_src":"//8209.svetacdn.in/71tsRs29n5tZ/movie/5660"}],"current_page":2432,"first_page_url":"https://videocdn.tv/api/short?limit=100&api_token=EnbO9h8pv1VyjbCJhg0WM9nG259n7mtz&cache32432=32432&page=1","from":243101,"last_page":656,"last_page_url":"https://videocdn.tv/api/short?limit=100&api_token=EnbO9h8pv1VyjbCJhg0WM9nG259n7mtz&cache32432=32432&page=656","next_page_url":null,"path":"https://videocdn.tv/api/short","per_page":100,"prev_page_url":"https://videocdn.tv/api/short?limit=100&api_token=EnbO9h8pv1VyjbCJhg0WM9nG259n7mtz&cache32432=32432&page=2431","to":243120,"total":65600}