{"result":true,"data":[{"id":46590,"title":"Сверхновая звезда","kp_id":"1285357","imdb_id":"tt10666454","world_art_id":null,"type":"movie","add":"2021-01-01 20:13:01","orig_title":"Supernova","year":"2019-09-16","translations":["Любительский (многоголосый закадровый) (Синема УС)"],"quality":"webdl","translation":"Любительский (многоголосый закадровый) (Синема УС)","update":"2021-01-01 21:31:26","iframe_src":"//7043.svetacdn.in/71tsRs29n5tZ/movie/46590"},{"id":46580,"title":"Самоизоляция","kp_id":"1374532","imdb_id":null,"world_art_id":null,"type":"movie","add":"2021-01-01 16:26:51","orig_title":"Самоизоляция","year":"2020-04-30","translations":["Оригинальная дорожка"],"quality":"webdl","translation":"Оригинальная дорожка","update":"2021-01-01 19:08:39","iframe_src":"//7043.svetacdn.in/71tsRs29n5tZ/movie/46580"},{"id":46578,"title":"Волшебное Рождество с Мэрайей Кэри","kp_id":"1428137","imdb_id":"tt13017992","world_art_id":null,"type":"movie","add":"2021-01-01 10:13:09","orig_title":"Mariah Carey's Magical Christmas Special","year":"2020-12-04","translations":["Original (English)"],"quality":"webdl","translation":"Original (English)","update":"2021-01-01 16:40:54","iframe_src":"//7043.svetacdn.in/71tsRs29n5tZ/movie/46578"},{"id":46577,"title":"Армейский пирог","kp_id":"61768","imdb_id":"tt0353161","world_art_id":null,"type":"movie","add":"2020-12-31 12:19:14","orig_title":"Achtung, fertig, Charlie!","year":"2003-09-18","translations":["Полное дублирование"],"quality":"bd","translation":"Полное дублирование","update":"2020-12-31 13:05:45","iframe_src":"//7043.svetacdn.in/71tsRs29n5tZ/movie/46577"},{"id":46576,"title":"Здравствуй, ночь","kp_id":"61576","imdb_id":"tt0377569","world_art_id":null,"type":"movie","add":"2020-12-31 12:05:06","orig_title":"Buongiorno, notte","year":"2003-09-04","translations":["Профессиональный (многоголосый закадровый)"],"quality":"dvdrip","translation":"Профессиональный (многоголосый закадровый)","update":"2020-12-31 12:35:18","iframe_src":"//7043.svetacdn.in/71tsRs29n5tZ/movie/46576"},{"id":46575,"title":"Клубничка в супермаркете","kp_id":"80773","imdb_id":"tt0322807","world_art_id":null,"type":"movie","add":"2020-12-31 12:01:16","orig_title":"Jagoda u supermarketu","year":"2003-02-06","translations":["Профессиональный (многоголосый закадровый) (Кармен Видео)"],"quality":"dvdrip","translation":"Профессиональный (многоголосый закадровый) (Кармен Видео)","update":"2020-12-31 12:41:50","iframe_src":"//7043.svetacdn.in/71tsRs29n5tZ/movie/46575"},{"id":46559,"title":"Бубен Верхнего мира","kp_id":"1412184","imdb_id":"tt13460370","world_art_id":null,"type":"movie","add":"2020-12-31 08:59:01","orig_title":"Buben Verkhnego mira","year":"2020-10-27","translations":["Оригинальная дорожка"],"quality":"webdl","translation":"Оригинальная дорожка","update":"2020-12-31 11:51:39","iframe_src":"//7043.svetacdn.in/71tsRs29n5tZ/movie/46559"},{"id":46558,"title":"Планета людей","kp_id":"1387040","imdb_id":"tt12192654","world_art_id":null,"type":"movie","add":"2020-12-30 22:28:43","orig_title":"Planet of the Humans","year":"2019-07-31","translations":["Original (English)"],"quality":"webdl","translation":"Original (English)","update":"2020-12-31 07:12:24","iframe_src":"//7043.svetacdn.in/71tsRs29n5tZ/movie/46558"},{"id":46557,"title":"Потеря","kp_id":"756622","imdb_id":"tt2832482","world_art_id":null,"type":"movie","add":"2020-12-30 22:26:43","orig_title":"Bereave","year":"2015-02-24","translations":["Original (English)"],"quality":"webdl","translation":"Original (English)","update":"2020-12-31 07:10:51","iframe_src":"//7043.svetacdn.in/71tsRs29n5tZ/movie/46557"},{"id":46556,"title":"Кормилица","kp_id":"1198866","imdb_id":"tt9716058","world_art_id":null,"type":"movie","add":"2020-12-30 19:39:02","orig_title":"The One You Feed","year":"2020-12-29","translations":["Любительский (многоголосый закадровый) (Синема УС)"],"quality":"webdl","translation":"Любительский (многоголосый закадровый) (Синема УС)","update":"2020-12-30 21:49:56","iframe_src":"//7043.svetacdn.in/71tsRs29n5tZ/movie/46556"},{"id":46544,"title":"Никчемная","kp_id":"974916","imdb_id":"tt5651572","world_art_id":null,"type":"movie","add":"2020-12-30 19:01:28","orig_title":"Worthless","year":"2018-04-23","translations":["Любительский (многоголосый закадровый) (Синема УС)"],"quality":"webdl","translation":"Любительский (многоголосый закадровый) (Синема УС)","update":"2020-12-31 07:15:17","iframe_src":"//7043.svetacdn.in/71tsRs29n5tZ/movie/46544"},{"id":46541,"title":"Игрок","kp_id":"4298771","imdb_id":null,"world_art_id":null,"type":"movie","add":"2020-12-30 18:51:46","orig_title":"Игрок","year":"2020-12-30","translations":["Оригинальная дорожка"],"quality":"webdl","translation":"Оригинальная дорожка","update":"2020-12-30 21:36:34","iframe_src":"//7043.svetacdn.in/71tsRs29n5tZ/movie/46541"},{"id":46248,"title":"Самый Новый год","kp_id":"1445155","imdb_id":null,"world_art_id":null,"type":"movie","add":"2020-12-19 21:33:02","orig_title":"Самый Новый год","year":"2020-12-17","translations":["Оригинальная дорожка"],"quality":"webdl","translation":"Оригинальная дорожка","update":"2020-12-31 11:49:54","iframe_src":"//7043.svetacdn.in/71tsRs29n5tZ/movie/46248"},{"id":45916,"title":"Комета Галлея","kp_id":"1338253","imdb_id":"tt11898944","world_art_id":null,"type":"movie","add":"2020-12-08 15:38:14","orig_title":"Kometa Galleya","year":"2020-12-03","translations":["Оригинальная дорожка"],"quality":"webdl","translation":"Оригинальная дорожка","update":"2020-12-31 11:53:11","iframe_src":"//7043.svetacdn.in/71tsRs29n5tZ/movie/45916"},{"id":45812,"title":"Вечер шутов, или Серьезно с приветом","kp_id":"1363062","imdb_id":null,"world_art_id":null,"type":"movie","add":"2020-12-03 15:28:37","orig_title":"Vecher shutov, ili Seryozno s privetom","year":"2020-11-26","translations":["Оригинальная дорожка"],"quality":"webdl","translation":"Оригинальная дорожка","update":"2021-01-01 19:35:43","iframe_src":"//7043.svetacdn.in/71tsRs29n5tZ/movie/45812"},{"id":45607,"title":"Карантинные истории","kp_id":"1405963","imdb_id":"tt12492600","world_art_id":null,"type":"movie","add":"2020-11-25 11:25:03","orig_title":"Relatos con-fin-a-dos","year":"2020-11-19","translations":["Профессиональный (многоголосый закадровый) (iTunes)"],"quality":"webdl","translation":"Профессиональный (многоголосый закадровый) (iTunes)","update":"2020-12-31 16:25:43","iframe_src":"//7043.svetacdn.in/71tsRs29n5tZ/movie/45607"},{"id":44544,"title":"Повелитель драконов","kp_id":"1080192","imdb_id":"tt7080422","world_art_id":null,"type":"movie","add":"2020-10-18 09:11:46","orig_title":"Dragon Rider","year":"2020-10-15","translations":["Полное дублирование (iTunes)"],"quality":"webdl","translation":"Полное дублирование (iTunes)","update":"2021-01-01 19:01:42","iframe_src":"//7043.svetacdn.in/71tsRs29n5tZ/movie/44544"},{"id":43699,"title":"Избави нас от лукавого","kp_id":"1270677","imdb_id":"tt12763920","world_art_id":null,"type":"movie","add":"2020-09-21 08:24:00","orig_title":"Daman akeseo guhasoseo","year":"2020-08-05","translations":["Полное дублирование"],"quality":"webdl","translation":"Полное дублирование","update":"2020-12-31 15:09:30","iframe_src":"//7043.svetacdn.in/71tsRs29n5tZ/movie/43699"},{"id":43250,"title":"Маленькая страна","kp_id":"1237235","imdb_id":"tt9665968","world_art_id":null,"type":"movie","add":"2020-09-08 06:03:42","orig_title":"Petit pays","year":"2020-02-03","translations":["Полное дублирование (iTunes)"],"quality":"webdl","translation":"Полное дублирование (iTunes)","update":"2020-12-31 14:46:54","iframe_src":"//7043.svetacdn.in/71tsRs29n5tZ/movie/43250"},{"id":6984,"title":"BBC: Европа: История континента","kp_id":"258121","imdb_id":"tt0449012","world_art_id":null,"type":"serial","add":"2020-03-25 07:34:13","orig_title":"Wild Europe","year":"2005-02-15","translations":["Профессиональный (одноголосый закадровый)"],"seasons_count":1,"episodes_count":4,"episodes":4,"update":"2020-03-25 10:22:45","iframe_src":"//7043.svetacdn.in/71tsRs29n5tZ/tv-series/6984"},{"id":6983,"title":"Когда папа Дед Мороз","kp_id":"1045637","imdb_id":"tt9222072","world_art_id":null,"type":"serial","add":"2020-03-25 07:10:56","orig_title":"Когда папа Дед Мороз","year":"2017-01-01","translations":["Оригинальная дорожка"],"seasons_count":1,"episodes_count":4,"episodes":4,"update":"2020-03-25 10:55:14","iframe_src":"//7043.svetacdn.in/71tsRs29n5tZ/tv-series/6983"},{"id":6980,"title":"Хантик: Искатели секретов","kp_id":"579536","imdb_id":"tt1696969","world_art_id":null,"type":"serial","add":"2020-03-24 22:03:57","orig_title":"Huntik: Secrets and Seekers","year":"2009-01-01","translations":["Любительский (многоголосый закадровый) (Flux-Team)"],"seasons_count":1,"episodes_count":26,"episodes":26,"update":"2020-03-25 15:12:25","iframe_src":"//7043.svetacdn.in/71tsRs29n5tZ/tv-series/6980"},{"id":6978,"title":"Бумбараш","kp_id":"79674","imdb_id":"tt0131331","world_art_id":null,"type":"serial","add":"2020-03-24 16:17:03","orig_title":"Bumbarash","year":"1972-05-01","translations":["Оригинальная дорожка"],"seasons_count":1,"episodes_count":2,"episodes":2,"update":"2020-03-25 09:59:26","iframe_src":"//7043.svetacdn.in/71tsRs29n5tZ/tv-series/6978"},{"id":6975,"title":"Супергерой","kp_id":"467116","imdb_id":"tt1438437","world_art_id":null,"type":"serial","add":"2020-03-24 07:45:34","orig_title":"The Phantom","year":"2009-12-22","translations":["Профессиональный (многоголосый закадровый)"],"seasons_count":1,"episodes_count":2,"episodes":2,"update":"2020-03-24 11:58:39","iframe_src":"//7043.svetacdn.in/71tsRs29n5tZ/tv-series/6975"},{"id":6967,"title":"Моя большая семья","kp_id":"683374","imdb_id":"tt3872016","world_art_id":null,"type":"serial","add":"2020-03-23 08:39:59","orig_title":"Moya bolshaya semya","year":"2012-06-04","translations":["Оригинальная дорожка"],"seasons_count":1,"episodes_count":12,"episodes":12,"update":"2020-03-24 19:45:15","iframe_src":"//7043.svetacdn.in/71tsRs29n5tZ/tv-series/6967"},{"id":6959,"title":"Приключения Вуди и его друзей","kp_id":"309596","imdb_id":"tt0184175","world_art_id":null,"type":"serial","add":"2020-03-21 17:45:24","orig_title":"The Woody Woodpecker Show","year":"1957-10-01","translations":["Профессиональный (двухголосый закадровый)"],"seasons_count":2,"episodes_count":183,"episodes":53,"update":"2020-03-25 10:38:02","iframe_src":"//7043.svetacdn.in/71tsRs29n5tZ/tv-series/6959"},{"id":6956,"title":"Шоу Майкла Дж. Фокса","kp_id":"701750","imdb_id":"tt2338232","world_art_id":null,"type":"serial","add":"2020-03-20 22:38:50","orig_title":"The Michael J. Fox Show","year":"2013-09-25","translations":["Профессиональный (многоголосый закадровый) (Jaskier)"],"seasons_count":1,"episodes_count":22,"episodes":22,"update":"2020-03-24 14:37:37","iframe_src":"//7043.svetacdn.in/71tsRs29n5tZ/tv-series/6956"},{"id":6923,"title":"Цыганская любовь","kp_id":"417753","imdb_id":"tt0208611","world_art_id":null,"type":"serial","add":"2020-03-18 09:54:20","orig_title":"Amor gitano","year":"1999-01-01","translations":["Профессиональный (многоголосый закадровый)"],"seasons_count":1,"episodes_count":55,"episodes":55,"update":"2020-03-24 15:52:51","iframe_src":"//7043.svetacdn.in/71tsRs29n5tZ/tv-series/6923"},{"id":6863,"title":"Всё к лучшему","kp_id":"575950","imdb_id":"tt3862658","world_art_id":null,"type":"serial","add":"2020-03-13 08:02:44","orig_title":"Vso k luchshemu","year":"2011-01-17","translations":["Оригинальная дорожка"],"seasons_count":1,"episodes_count":261,"episodes":261,"update":"2020-03-24 16:37:20","iframe_src":"//7043.svetacdn.in/71tsRs29n5tZ/tv-series/6863"},{"id":6705,"title":"Охотники","kp_id":"1170235","imdb_id":"tt7456722","world_art_id":null,"type":"serial","add":"2020-02-21 09:52:04","orig_title":"Hunters","year":"2020-02-21","translations":["Любительский (многоголосый закадровый) (Octopus)","Любительский (многоголосый закадровый) (ColdFilm)","Профессиональный (многоголосый закадровый) (HDrezka Studio)","Профессиональный (двухголосый закадровый) (Gears Media)","Профессиональный (многоголосый закадровый) (LostFilm)","Любительский (многоголосый закадровый) (WestFilm)","Профессиональный (многоголосый закадровый) (NewStudio)","Профессиональный (многоголосый закадровый) (Jaskier)","Любительский (двухголосый закадровый) (ColdFilm)"],"seasons_count":1,"episodes_count":10,"episodes":10,"update":"2020-03-25 04:52:02","iframe_src":"//7043.svetacdn.in/71tsRs29n5tZ/tv-series/6705"},{"id":6657,"title":"Скажи, что ты видела","kp_id":"1283732","imdb_id":"tt11557904","world_art_id":null,"type":"serial","add":"2020-02-17 09:40:37","orig_title":"Bondaero malhara","year":"2020-02-01","translations":["Любительский (двухголосый закадровый) (SoftBox)"],"seasons_count":1,"episodes_count":16,"episodes":16,"update":"2020-03-24 17:29:03","iframe_src":"//7043.svetacdn.in/71tsRs29n5tZ/tv-series/6657"},{"id":6633,"title":"НольНольНоль","kp_id":"1132285","imdb_id":"tt8332438","world_art_id":null,"type":"serial","add":"2020-02-14 01:37:04","orig_title":"ZeroZeroZero","year":"2019-09-05","translations":["Любительский (многоголосый закадровый) (Octopus)","Любительский (многоголосый закадровый) (ColdFilm)","Профессиональный (многоголосый закадровый) (Кравец)","Профессиональный (многоголосый закадровый) (HDrezka Studio)","Профессиональный (многоголосый закадровый) (LostFilm)","Любительский (многоголосый закадровый) (WestFilm)","Авторский (одноголосый закадровый) (Сербин Юрий)","Профессиональный (многоголосый закадровый) (TVShows)"],"seasons_count":1,"episodes_count":8,"episodes":8,"update":"2020-03-25 12:19:05","iframe_src":"//7043.svetacdn.in/71tsRs29n5tZ/tv-series/6633"},{"id":6132,"title":"Умерь свой энтузиазм","kp_id":"277559","imdb_id":"tt0264235","world_art_id":null,"type":"serial","add":"2019-12-24 18:40:41","orig_title":"Curb Your Enthusiasm","year":"2000-10-15","translations":["Любительский (одноголосый закадровый)","Любительский (одноголосый закадровый) (Hamster)","Профессиональный (многоголосый закадровый) (SDI Media)","Любительский (многоголосый закадровый) (Octopus)","Профессиональный (многоголосый закадровый) (TVShows)","Профессиональный (двухголосый закадровый) (Gears Media)","Профессиональный (многоголосый закадровый) (BaibaKo)"],"seasons_count":10,"episodes_count":98,"episodes":10,"update":"2020-03-25 08:24:32","iframe_src":"//7043.svetacdn.in/71tsRs29n5tZ/tv-series/6132"},{"id":5860,"title":"Голубка","kp_id":"1316421","imdb_id":"tt11149738","world_art_id":null,"type":"serial","add":"2019-11-27 08:37:01","orig_title":"Guvercin","year":"2019-11-24","translations":["Любительский (одноголосый закадровый)"],"seasons_count":1,"episodes_count":13,"episodes":13,"update":"2020-03-25 04:40:07","iframe_src":"//7043.svetacdn.in/71tsRs29n5tZ/tv-series/5860"},{"id":5046,"title":"Особенности мелодрамы","kp_id":"1242007","imdb_id":"tt10559276","world_art_id":null,"type":"serial","add":"2019-08-16 16:44:39","orig_title":"Melloga chejil","year":"2019-08-09","translations":["Любительский (многоголосый закадровый)","Профессиональный (многоголосый закадровый)","Любительский (многоголосый закадровый) (Voice Project Studio)"],"seasons_count":1,"episodes_count":16,"episodes":16,"update":"2020-03-24 15:22:25","iframe_src":"//7043.svetacdn.in/71tsRs29n5tZ/tv-series/5046"},{"id":4958,"title":"Безрассудный","kp_id":"741264","imdb_id":"tt2734804","world_art_id":null,"type":"serial","add":"2019-07-27 20:29:04","orig_title":"Reckless","year":"2014-06-29","translations":["Профессиональный (двухголосый закадровый)","Профессиональный (многоголосый закадровый) (TVShows)"],"seasons_count":1,"episodes_count":13,"episodes":13,"update":"2020-03-25 08:59:51","iframe_src":"//7043.svetacdn.in/71tsRs29n5tZ/tv-series/4958"},{"id":20996,"title":"Рождественские приключения любительницы обуви","kp_id":"1193372","imdb_id":"tt8634202","world_art_id":null,"type":"movie","add":"2018-12-25 00:15:59","orig_title":"A Shoe Addict's Christmas","year":"2018-11-25","translations":["Профессиональный (многоголосый закадровый) (IVI)"],"quality":"webdl","translation":"Профессиональный (многоголосый закадровый) (IVI)","update":"2020-12-31 14:47:52","iframe_src":"//7043.svetacdn.in/71tsRs29n5tZ/movie/20996"},{"id":3504,"title":"Драконы: Гонка на грани","kp_id":"1046305","imdb_id":"tt4816058","world_art_id":null,"type":"serial","add":"2018-11-14 19:09:43","orig_title":"Dragons: Race to the Edge","year":"2015-06-26","translations":["Полное дублирование","Любительский (одноголосый закадровый)","Профессиональный (многоголосый закадровый) (HDrezka Studio)","Полное дублирование (СВ-Дубль)"],"seasons_count":6,"episodes_count":78,"episodes":13,"update":"2020-03-24 20:30:42","iframe_src":"//7043.svetacdn.in/71tsRs29n5tZ/tv-series/3504"},{"id":3467,"title":"Юная Лига Справедливости","kp_id":"570073","imdb_id":"tt1641384","world_art_id":null,"type":"serial","add":"2018-11-08 16:55:35","orig_title":"Young Justice","year":"2010-11-26","translations":["Полное дублирование","Любительский (многоголосый закадровый) (ColdFilm)","Профессиональный (многоголосый закадровый) (HDrezka Studio)"],"seasons_count":3,"episodes_count":72,"episodes":26,"update":"2020-03-24 21:20:51","iframe_src":"//7043.svetacdn.in/71tsRs29n5tZ/tv-series/3467"},{"id":2011,"title":"Видоизмененный углерод","kp_id":"669089","imdb_id":"tt2261227","world_art_id":null,"type":"serial","add":"2018-01-30 06:47:26","orig_title":"Altered Carbon","year":"2018-02-02","translations":["Профессиональный (многоголосый закадровый) (BaibaKo)","Профессиональный (многоголосый закадровый) (LostFilm)","Профессиональный (многоголосый закадровый) (HDrezka Studio)","Профессиональный (многоголосый закадровый) (NewStudio)","Профессиональный (двухголосый закадровый) (Кубик в Кубе)","Профессиональный (многоголосый закадровый) (Jaskier)","Любительский (многоголосый закадровый) (ColdFilm)","Любительский (многоголосый закадровый) (Octopus)","Любительский (многоголосый закадровый) (KerobTV)","Профессиональный (двухголосый закадровый) (Gears Media)","Любительский (многоголосый закадровый) (WestFilm)","Профессиональный (многоголосый закадровый) (AlexFilm)"],"seasons_count":2,"episodes_count":18,"episodes":8,"update":"2020-03-24 11:47:31","iframe_src":"//7043.svetacdn.in/71tsRs29n5tZ/tv-series/2011"}],"current_page":227,"first_page_url":"https://videocdn.tv/api/short?limit=100&api_token=EnbO9h8pv1VyjbCJhg0WM9nG259n7mtz&cache3227=3227&page=1","from":22601,"last_page":611,"last_page_url":"https://videocdn.tv/api/short?limit=100&api_token=EnbO9h8pv1VyjbCJhg0WM9nG259n7mtz&cache3227=3227&page=611","next_page_url":"https://videocdn.tv/api/short?limit=100&api_token=EnbO9h8pv1VyjbCJhg0WM9nG259n7mtz&cache3227=3227&page=228","path":"https://videocdn.tv/api/short","per_page":100,"prev_page_url":"https://videocdn.tv/api/short?limit=100&api_token=EnbO9h8pv1VyjbCJhg0WM9nG259n7mtz&cache3227=3227&page=226","to":22640,"total":61020}