{"result":true,"data":[{"id":51626,"title":"Тендер","kp_id":"4492999","imdb_id":null,"world_art_id":null,"type":"movie","add":"2021-07-07 22:09:35","orig_title":"Tender","year":"2020-01-01","translations":["Оригинальная дорожка"],"quality":"webdl","translation":"Оригинальная дорожка","update":"2021-07-08 07:00:41","iframe_src":"//8209.svetacdn.in/IAF0wWTdNYZm/movie/51626"},{"id":51616,"title":"Инженер Графтио","kp_id":"42614","imdb_id":"tt0129166","world_art_id":null,"type":"movie","add":"2021-07-07 18:40:23","orig_title":"Inzhener Graftio","year":"1979-09-01","translations":["Оригинальная дорожка"],"quality":"sat","translation":"Оригинальная дорожка","update":"2021-07-08 07:03:57","iframe_src":"//8209.svetacdn.in/IAF0wWTdNYZm/movie/51616"},{"id":51615,"title":"Бегущая мишень","kp_id":"46053","imdb_id":"tt0101422","world_art_id":null,"type":"movie","add":"2021-07-07 18:33:46","orig_title":"Begushchaya mishen","year":"1991-01-01","translations":["Оригинальная дорожка"],"quality":"webdl","translation":"Оригинальная дорожка","update":"2021-07-08 07:07:22","iframe_src":"//8209.svetacdn.in/IAF0wWTdNYZm/movie/51615"},{"id":51603,"title":"Молния","kp_id":"25176","imdb_id":"tt0076106","world_art_id":null,"type":"movie","add":"2021-07-07 06:17:45","orig_title":"Greased Lightning","year":"1977-07-01","translations":["Original (English)"],"quality":"webdl","translation":"Original (English)","update":"2021-07-08 07:33:23","iframe_src":"//8209.svetacdn.in/IAF0wWTdNYZm/movie/51603"},{"id":51577,"title":"По ком тюрьма плачет...","kp_id":"521693","imdb_id":"tt5841824","world_art_id":null,"type":"movie","add":"2021-07-05 17:57:12","orig_title":"Po kom tyurma plachet...","year":"1991-04-01","translations":["Оригинальная дорожка"],"quality":"sat","translation":"Оригинальная дорожка","update":"2021-07-08 07:16:36","iframe_src":"//8209.svetacdn.in/IAF0wWTdNYZm/movie/51577"},{"id":51518,"title":"Юбилей","kp_id":"739405","imdb_id":"tt6100010","world_art_id":null,"type":"movie","add":"2021-07-01 17:13:02","orig_title":"Yubiley","year":"1972-01-01","translations":["Оригинальная дорожка"],"quality":"tv","translation":"Оригинальная дорожка","update":"2021-07-08 07:19:16","iframe_src":"//8209.svetacdn.in/IAF0wWTdNYZm/movie/51518"},{"id":50894,"title":"Танцующий ниндзя","kp_id":"427260","imdb_id":"tt1294141","world_art_id":null,"type":"movie","add":"2021-06-03 04:30:25","orig_title":"Dancing Ninja","year":"2010-01-01","translations":["Профессиональный (многоголосый закадровый)","Original (English)"],"quality":"webdl","translation":"Профессиональный (многоголосый закадровый)","update":"2021-07-08 07:36:15","iframe_src":"//8209.svetacdn.in/IAF0wWTdNYZm/movie/50894"},{"id":50864,"title":"Хранитель","kp_id":"11503","imdb_id":"tt0364457","world_art_id":null,"type":"movie","add":"2021-06-02 10:59:19","orig_title":"The Keeper","year":"2004-12-23","translations":["Профессиональный (двухголосый закадровый)","Original (English)"],"quality":"webdl","translation":"Профессиональный (двухголосый закадровый)","update":"2021-07-08 07:25:57","iframe_src":"//8209.svetacdn.in/IAF0wWTdNYZm/movie/50864"},{"id":50861,"title":"Элита спецназа","kp_id":"32588","imdb_id":"tt0243885","world_art_id":null,"type":"movie","add":"2021-06-02 10:34:11","orig_title":"The Elite","year":"2001-02-28","translations":["Профессиональный (многоголосый закадровый)","Original (English)"],"quality":"webdl","translation":"Профессиональный (многоголосый закадровый)","update":"2021-07-08 07:27:27","iframe_src":"//8209.svetacdn.in/IAF0wWTdNYZm/movie/50861"},{"id":50796,"title":"Осло","kp_id":"1449364","imdb_id":"tt11790674","world_art_id":null,"type":"movie","add":"2021-05-31 14:17:19","orig_title":"Oslo","year":"2021-05-29","translations":["Профессиональный (многоголосый закадровый) (Novamedia)","Профессиональный (многоголосый закадровый) (HDrezka Studio)","Профессиональный (многоголосый закадровый) (NewStudio)","Original (English)"],"quality":"webdl","translation":"Профессиональный (многоголосый закадровый) (Novamedia)","update":"2021-07-08 07:29:56","iframe_src":"//8209.svetacdn.in/IAF0wWTdNYZm/movie/50796"},{"id":50382,"title":"Чистилище","kp_id":"1393516","imdb_id":"tt10619332","world_art_id":null,"type":"movie","add":"2021-05-13 19:57:29","orig_title":"Sitting in Limbo","year":"2020-06-08","translations":["Любительский (многоголосый закадровый) (AlphaProject)","Любительский (многоголосый закадровый) (AlphaProject)","Original (English)"],"quality":"webdl","translation":"Любительский (многоголосый закадровый) (AlphaProject)","update":"2021-07-08 07:28:27","iframe_src":"//8209.svetacdn.in/IAF0wWTdNYZm/movie/50382"},{"id":49446,"title":"Сквозь огонь","kp_id":"43832","imdb_id":"tt0252001","world_art_id":null,"type":"movie","add":"2021-04-08 19:16:22","orig_title":"Skvoz ogon","year":"1982-08-11","translations":["Профессиональный (многоголосый закадровый)","Оригинальная дорожка"],"quality":"tv","translation":"Профессиональный (многоголосый закадровый)","update":"2021-07-08 07:05:58","iframe_src":"//8209.svetacdn.in/IAF0wWTdNYZm/movie/49446"},{"id":47762,"title":"Заговор «Параллакс»","kp_id":"12908","imdb_id":"tt0071970","world_art_id":null,"type":"movie","add":"2021-02-08 15:29:33","orig_title":"The Parallax View","year":"1974-06-19","translations":["Профессиональный (многоголосый закадровый) (НТВ)","Профессиональный (двухголосый закадровый)","Original (English)"],"quality":"bd","translation":"Профессиональный (многоголосый закадровый) (НТВ)","update":"2021-07-08 08:26:48","iframe_src":"//8209.svetacdn.in/IAF0wWTdNYZm/movie/47762"},{"id":9785,"title":"Без любви","kp_id":"1338051","imdb_id":null,"world_art_id":null,"type":"serial","add":"2021-01-23 12:41:43","orig_title":"Без любви","year":"2021-01-23","translations":["Оригинальная дорожка"],"seasons_count":1,"episodes_count":4,"episodes":4,"update":"2021-01-23 17:18:48","iframe_src":"//8209.svetacdn.in/IAF0wWTdNYZm/tv-series/9785"},{"id":9771,"title":"Линия красоты","kp_id":"400018","imdb_id":"tt0494192","world_art_id":null,"type":"serial","add":"2021-01-21 18:20:28","orig_title":"The Line of Beauty","year":"2006-05-17","translations":["Авторский (одноголосый закадровый) (Алексеев Антон)"],"seasons_count":1,"episodes_count":3,"episodes":3,"update":"2021-01-22 21:28:43","iframe_src":"//8209.svetacdn.in/IAF0wWTdNYZm/tv-series/9771"},{"id":9769,"title":"Новая норма","kp_id":"679626","imdb_id":"tt2087571","world_art_id":null,"type":"serial","add":"2021-01-20 17:02:32","orig_title":"The New Normal","year":"2012-08-29","translations":["Профессиональный (многоголосый закадровый) (BaibaKo)"],"seasons_count":1,"episodes_count":22,"episodes":22,"update":"2021-01-22 09:48:03","iframe_src":"//8209.svetacdn.in/IAF0wWTdNYZm/tv-series/9769"},{"id":9748,"title":"Иствик","kp_id":"453378","imdb_id":"tt1402376","world_art_id":null,"type":"serial","add":"2021-01-17 15:59:34","orig_title":"Eastwick","year":"2009-09-23","translations":["Профессиональный (многоголосый закадровый) (ТНТ)","Профессиональный (двухголосый закадровый) (Кубик в Кубе)"],"seasons_count":1,"episodes_count":13,"episodes":13,"update":"2021-01-21 14:55:03","iframe_src":"//8209.svetacdn.in/IAF0wWTdNYZm/tv-series/9748"},{"id":9725,"title":"До, до, соль, соль, ля, ля, соль","kp_id":"1373693","imdb_id":"tt12850262","world_art_id":null,"type":"serial","add":"2021-01-14 09:10:34","orig_title":"Do Do Sol Sol La La Sol","year":"2020-10-07","translations":["Любительский (двухголосый закадровый) (SoftBox)"],"seasons_count":1,"episodes_count":16,"episodes":16,"update":"2021-01-22 10:46:17","iframe_src":"//8209.svetacdn.in/IAF0wWTdNYZm/tv-series/9725"},{"id":9704,"title":"Убийства в Пембрукшире","kp_id":"1344107","imdb_id":"tt11649104","world_art_id":null,"type":"serial","add":"2021-01-12 02:26:53","orig_title":"The Pembrokeshire Murders","year":"2021-01-11","translations":["Original (English)","Любительский (многоголосый закадровый) (Ultradox)","Любительский (многоголосый закадровый) (ColdFilm)","Любительский (двухголосый закадровый) (KerobTV)","Профессиональный (многоголосый закадровый) (Ozz.tv)","Профессиональный (многоголосый закадровый) (BaibaKo)","Профессиональный (многоголосый закадровый) (HDrezka Studio)","Любительский (многоголосый закадровый) (KerobTV)"],"seasons_count":1,"episodes_count":4,"episodes":4,"update":"2021-01-24 17:08:42","iframe_src":"//8209.svetacdn.in/IAF0wWTdNYZm/tv-series/9704"},{"id":9702,"title":"Влюбленные в танго","kp_id":"416754","imdb_id":"tt0307751","world_art_id":null,"type":"serial","add":"2021-01-11 19:54:41","orig_title":"Franco Buenaventura, el profe","year":"2002-02-04","translations":["Профессиональный (многоголосый закадровый)"],"seasons_count":1,"episodes_count":175,"episodes":175,"update":"2021-01-23 19:48:53","iframe_src":"//8209.svetacdn.in/IAF0wWTdNYZm/tv-series/9702"},{"id":9701,"title":"Кто есть кто?","kp_id":"939800","imdb_id":"tt5020080","world_art_id":null,"type":"serial","add":"2021-01-11 19:52:12","orig_title":"¿Quién es quién?","year":"2015-10-26","translations":["Профессиональный (многоголосый закадровый) (Позитив)"],"seasons_count":1,"episodes_count":120,"episodes":120,"update":"2021-01-21 21:03:49","iframe_src":"//8209.svetacdn.in/IAF0wWTdNYZm/tv-series/9701"},{"id":46370,"title":"Наш последний разговор","kp_id":"1178599","imdb_id":"tt8766120","world_art_id":null,"type":"movie","add":"2020-12-25 18:04:24","orig_title":"When We Last Spoke","year":"2019-04-11","translations":["Любительский (многоголосый закадровый) (AlphaProject)","Любительский (многоголосый закадровый) (AlphaProject)","Original (English)"],"quality":"webdl","translation":"Любительский (многоголосый закадровый) (AlphaProject)","update":"2021-07-08 07:22:24","iframe_src":"//8209.svetacdn.in/IAF0wWTdNYZm/movie/46370"},{"id":9543,"title":"Д’Артаньгав и три пса-мушкетёра","kp_id":"408554","imdb_id":"tt0083780","world_art_id":null,"type":"serial","add":"2020-12-16 17:40:13","orig_title":"D'Artacan y los tres mosqueperros","year":"1981-10-09","translations":["Полное дублирование"],"seasons_count":1,"episodes_count":26,"episodes":26,"update":"2021-01-24 16:51:26","iframe_src":"//8209.svetacdn.in/IAF0wWTdNYZm/tv-series/9543"},{"id":9453,"title":"Астронавты","kp_id":"1408068","imdb_id":"tt11947264","world_art_id":null,"type":"serial","add":"2020-12-02 20:58:58","orig_title":"The Astronauts","year":"2020-11-13","translations":["Любительский (многоголосый закадровый) (KerobTV)","Original (English)","Профессиональный (многоголосый закадровый) (HDrezka Studio)"],"seasons_count":1,"episodes_count":9,"episodes":9,"update":"2021-01-22 06:55:18","iframe_src":"//8209.svetacdn.in/IAF0wWTdNYZm/tv-series/9453"},{"id":9422,"title":"30 сребреников","kp_id":"1236337","imdb_id":"tt9764386","world_art_id":null,"type":"serial","add":"2020-11-29 18:05:02","orig_title":"30 Monedas","year":"2020-11-29","translations":["Профессиональный (двухголосый закадровый) (IdeaFilm)","Любительский (многоголосый закадровый) (Ultradox)","Любительский (многоголосый закадровый) (ColdFilm)","Любительский (многоголосый закадровый) (KerobTV)","Профессиональный (многоголосый закадровый) (Novamedia)","Профессиональный (многоголосый закадровый) (BaibaKo)","Любительский (многоголосый закадровый) (RG.Paravozik)"],"seasons_count":1,"episodes_count":8,"episodes":8,"update":"2021-01-22 08:47:39","iframe_src":"//8209.svetacdn.in/IAF0wWTdNYZm/tv-series/9422"},{"id":9266,"title":"Переломный момент","kp_id":"1341240","imdb_id":"tt11577386","world_art_id":null,"type":"serial","add":"2020-11-11 17:45:09","orig_title":"La faille","year":"2019-12-12","translations":["Профессиональный (многоголосый закадровый) (BaibaKo)","Профессиональный (многоголосый закадровый) (Premier)"],"seasons_count":1,"episodes_count":8,"episodes":8,"update":"2021-01-21 14:43:58","iframe_src":"//8209.svetacdn.in/IAF0wWTdNYZm/tv-series/9266"},{"id":9082,"title":"Ход королевы","kp_id":"1253633","imdb_id":"tt10048342","world_art_id":null,"type":"serial","add":"2020-10-23 10:11:24","orig_title":"The Queen's Gambit","year":"2020-10-23","translations":["Любительский (многоголосый закадровый) (ColdFilm)","Любительский (многоголосый закадровый) (Ultradox)","Полное дублирование (Невафильм | Нева-1)","Профессиональный (многоголосый закадровый) (HDrezka Studio)","Профессиональный (двухголосый закадровый) (IdeaFilm)","Профессиональный (многоголосый закадровый) (OMSKBIRD records)","Профессиональный (двухголосый закадровый) (ViruseProject)","Профессиональный (многоголосый закадровый) (Jaskier)","Профессиональный (многоголосый закадровый) (NewStudio)","Профессиональный (многоголосый закадровый) (LostFilm)","Original (English)"],"seasons_count":1,"episodes_count":7,"episodes":7,"update":"2021-01-22 07:20:56","iframe_src":"//8209.svetacdn.in/IAF0wWTdNYZm/tv-series/9082"},{"id":42498,"title":"Вся правда о медведях: Фильм","kp_id":"1387289","imdb_id":"tt10474606","world_art_id":null,"type":"movie","add":"2020-08-16 15:39:05","orig_title":"We Bare Bears: The Movie","year":"2020-06-30","translations":["Профессиональный (многоголосый закадровый) (NewComers)","Original (English)","Профессиональный (многоголосый закадровый) (Flarrow Films)"],"quality":"webdl","translation":"Профессиональный (многоголосый закадровый) (NewComers)","update":"2021-07-08 07:03:18","iframe_src":"//8209.svetacdn.in/IAF0wWTdNYZm/movie/42498"},{"id":41690,"title":"Кольцо времени","kp_id":"1018826","imdb_id":"tt6385952","world_art_id":null,"type":"movie","add":"2020-07-10 04:10:28","orig_title":"Volition","year":"2019-03-15","translations":["Любительский (многоголосый закадровый) (@MUZOBOZ@)","Полное дублирование","Профессиональный (многоголосый закадровый) (iTunes)","Original (English)"],"quality":"webdl","translation":"Любительский (многоголосый закадровый) (@MUZOBOZ@)","update":"2021-07-08 07:23:49","iframe_src":"//8209.svetacdn.in/IAF0wWTdNYZm/movie/41690"},{"id":39982,"title":"Опасная ложь","kp_id":"1263794","imdb_id":"tt10183816","world_art_id":null,"type":"movie","add":"2020-04-30 08:43:04","orig_title":"Dangerous Lies","year":"2020-04-30","translations":["Любительский (двухголосый закадровый) (LakeFilms)","Любительский (многоголосый закадровый) (Синема УС)","Original (English)","Профессиональный (двухголосый закадровый) (IdeaFilm)","Профессиональный (многоголосый закадровый) (Flarrow Films)"],"quality":"webdl","translation":"Любительский (двухголосый закадровый) (LakeFilms)","update":"2021-07-08 07:04:42","iframe_src":"//8209.svetacdn.in/IAF0wWTdNYZm/movie/39982"},{"id":6990,"title":"257 причин, чтобы жить","kp_id":"1177509","imdb_id":"tt11477416","world_art_id":null,"type":"serial","add":"2020-03-26 07:32:17","orig_title":"257 prichin, chtoby zhit","year":"2020-03-26","translations":["Оригинальная дорожка"],"seasons_count":2,"episodes_count":26,"episodes":13,"update":"2021-01-21 06:09:54","iframe_src":"//8209.svetacdn.in/IAF0wWTdNYZm/tv-series/6990"},{"id":35689,"title":"Дети Уиндермира","kp_id":"1283093","imdb_id":"tt10370380","world_art_id":null,"type":"movie","add":"2020-01-31 08:00:44","orig_title":"The Windermere Children","year":"2020-01-26","translations":["Любительский (многоголосый закадровый) (Синема УС)","Профессиональный (многоголосый закадровый) (VIP Serial HD)","Original (English)"],"quality":"webdl","translation":"Любительский (многоголосый закадровый) (Синема УС)","update":"2021-07-08 07:38:50","iframe_src":"//8209.svetacdn.in/IAF0wWTdNYZm/movie/35689"},{"id":4696,"title":"Эйфория","kp_id":"1178445","imdb_id":"tt8772296","world_art_id":null,"type":"serial","add":"2019-06-18 10:22:52","orig_title":"Euphoria","year":"2019-06-16","translations":["Любительский (многоголосый закадровый) (Octopus)","Профессиональный (многоголосый закадровый)","Профессиональный (двухголосый закадровый) (TUMBLER Studio)","Профессиональный (многоголосый закадровый) (HDrezka Studio)","Original (English)","Профессиональный (многоголосый закадровый) (Novamedia)","Профессиональный (многоголосый закадровый) (TVShows)","Профессиональный (многоголосый закадровый) (Sound Film)","Любительский (двухголосый закадровый) (KerobTV)","Любительский (многоголосый закадровый) (ColdFilm)","Любительский (многоголосый закадровый) (Ultradox)","Профессиональный (многоголосый закадровый) (HDrezka Studio 18+)","Любительский (двухголосый закадровый) (LakeFilms)","Профессиональный (многоголосый закадровый) (Jaskier)"],"seasons_count":2,"episodes_count":10,"episodes":2,"update":"2021-01-24 17:10:28","iframe_src":"//8209.svetacdn.in/IAF0wWTdNYZm/tv-series/4696"},{"id":27712,"title":"Кадкина всякий знает","kp_id":"417647","imdb_id":"tt3124020","world_art_id":null,"type":"movie","add":"2019-06-12 19:24:54","orig_title":"Kadkina vsyakiy znayet","year":"1977-09-12","translations":["Оригинальная дорожка","Оригинальная дорожка"],"quality":"dvdrip","translation":"Оригинальная дорожка","update":"2021-07-08 07:10:05","iframe_src":"//8209.svetacdn.in/IAF0wWTdNYZm/movie/27712"},{"id":23998,"title":"Печки-лавочки","kp_id":"42910","imdb_id":"tt0069068","world_art_id":null,"type":"movie","add":"2019-04-07 12:54:54","orig_title":"Pechki-lavochki","year":"1972-04-02","translations":["Оригинальная дорожка","Оригинальная дорожка"],"quality":"hdtv","translation":"Оригинальная дорожка","update":"2021-07-08 07:11:36","iframe_src":"//8209.svetacdn.in/IAF0wWTdNYZm/movie/23998"},{"id":3878,"title":"Соло для Вайсс","kp_id":"1117214","imdb_id":"tt7856254","world_art_id":null,"type":"serial","add":"2019-01-15 10:55:10","orig_title":"Solo für Weiss","year":"2016-10-01","translations":["Профессиональный (двухголосый закадровый) (ViruseProject)"],"seasons_count":1,"episodes_count":4,"episodes":4,"update":"2021-01-24 17:22:53","iframe_src":"//8209.svetacdn.in/IAF0wWTdNYZm/tv-series/3878"},{"id":2942,"title":"Шарите","kp_id":"1046260","imdb_id":"tt5337806","world_art_id":null,"type":"serial","add":"2018-07-18 06:45:32","orig_title":"Charité","year":"2017-03-13","translations":["Профессиональный (многоголосый закадровый) (GreenРай Studio)","Любительский (многоголосый закадровый) (Ultradox)"],"seasons_count":3,"episodes_count":19,"episodes":7,"update":"2021-01-20 20:13:33","iframe_src":"//8209.svetacdn.in/IAF0wWTdNYZm/tv-series/2942"},{"id":2641,"title":"Пуленепробиваемые","kp_id":"1132323","imdb_id":"tt8038720","world_art_id":null,"type":"serial","add":"2018-05-23 15:19:22","orig_title":"Bulletproof","year":"2018-05-15","translations":["Любительский (двухголосый закадровый) (Sunshine Studio)","Любительский (многоголосый закадровый) (ColdFilm)","Любительский (многоголосый закадровый) (Octopus)","Профессиональный (многоголосый закадровый) (TVShows)","Любительский (многоголосый закадровый) (Ultradox)","Профессиональный (многоголосый закадровый) (BaibaKo)"],"seasons_count":3,"episodes_count":17,"episodes":3,"update":"2021-01-21 17:35:17","iframe_src":"//8209.svetacdn.in/IAF0wWTdNYZm/tv-series/2641"},{"id":2304,"title":"Невеста речного Бога","kp_id":"1008571","imdb_id":"tt6385752","world_art_id":null,"type":"serial","add":"2018-03-31 11:09:48","orig_title":"Habaekui Shinboo","year":"2017-07-03","translations":["Любительский (двухголосый закадровый) (GREEN TEA)","Любительский (двухголосый закадровый) (SoftBox)","Профессиональный (многоголосый закадровый) (Мобильное телевидение)"],"seasons_count":1,"episodes_count":16,"episodes":16,"update":"2021-01-22 10:13:57","iframe_src":"//8209.svetacdn.in/IAF0wWTdNYZm/tv-series/2304"},{"id":1545,"title":"Стальная звезда","kp_id":"981330","imdb_id":"tt4607112","world_art_id":null,"type":"serial","add":"2017-09-14 16:22:12","orig_title":"Tin Star","year":"2017-09-07","translations":["Профессиональный (многоголосый закадровый) (BaibaKo)","Профессиональный (многоголосый закадровый) (LostFilm)","Профессиональный (многоголосый закадровый) (Amedia)","Профессиональный (многоголосый закадровый) (Good People)","Профессиональный (многоголосый закадровый) (ShowJet)","Любительский (двухголосый закадровый) (KosharaSerials)","Профессиональный (двухголосый закадровый) (Кубик в Кубе)","Профессиональный (многоголосый закадровый) (SDI Media)","Любительский (многоголосый закадровый) (Ultradox)","Любительский (многоголосый закадровый) (ColdFilm)","Профессиональный (многоголосый закадровый) (IdeaFilm)","Профессиональный (двухголосый закадровый) (Gears Media)"],"seasons_count":3,"episodes_count":26,"episodes":6,"update":"2021-01-22 13:17:13","iframe_src":"//8209.svetacdn.in/IAF0wWTdNYZm/tv-series/1545"}],"current_page":124,"first_page_url":"https://videocdn.tv/api/short?limit=100&api_token=6Onb1W1alEUrBcKJZD3GoKBbWyAl2uG2&cache3124=3124&page=1","from":12301,"last_page":658,"last_page_url":"https://videocdn.tv/api/short?limit=100&api_token=6Onb1W1alEUrBcKJZD3GoKBbWyAl2uG2&cache3124=3124&page=658","next_page_url":"https://videocdn.tv/api/short?limit=100&api_token=6Onb1W1alEUrBcKJZD3GoKBbWyAl2uG2&cache3124=3124&page=125","path":"https://videocdn.tv/api/short","per_page":100,"prev_page_url":"https://videocdn.tv/api/short?limit=100&api_token=6Onb1W1alEUrBcKJZD3GoKBbWyAl2uG2&cache3124=3124&page=123","to":12340,"total":65702}