{"result":true,"data":[{"id":50604,"title":"Сделано в Вермонте","kp_id":"1288980","imdb_id":"tt10630270","world_art_id":null,"type":"movie","add":"2021-05-23 19:16:16","orig_title":"Made in Vermont","year":"2019-06-25","translations":["Любительский (многоголосый закадровый) (Синема УС)"],"quality":"webdl","translation":"Любительский (многоголосый закадровый) (Синема УС)","update":"2021-05-24 07:11:36","iframe_src":"//8965.svetacdn.in/si4jsFRrtgrT/movie/50604"},{"id":50603,"title":"Шторы","kp_id":"1355858","imdb_id":"tt11957450","world_art_id":null,"type":"movie","add":"2021-05-23 19:14:20","orig_title":"Blinders","year":"2020-08-31","translations":["Любительский (многоголосый закадровый) (@MUZOBOZ@)"],"quality":"webdl","translation":"Любительский (многоголосый закадровый) (@MUZOBOZ@)","update":"2021-05-24 07:12:00","iframe_src":"//8965.svetacdn.in/si4jsFRrtgrT/movie/50603"},{"id":50602,"title":"Вечеринка","kp_id":null,"imdb_id":"tt11385190","world_art_id":null,"type":"movie","add":"2021-05-23 19:09:16","orig_title":"La Pachanga","year":"2019-12-26","translations":["Любительский (многоголосый закадровый) (Синема УС)"],"quality":"webdl","translation":"Любительский (многоголосый закадровый) (Синема УС)","update":"2021-05-24 07:12:36","iframe_src":"//8965.svetacdn.in/si4jsFRrtgrT/movie/50602"},{"id":50601,"title":"Золото монстра","kp_id":"1275644","imdb_id":"tt8995178","world_art_id":null,"type":"movie","add":"2021-05-23 19:07:19","orig_title":"Monster Gold","year":"2019-11-24","translations":["Любительский (многоголосый закадровый) (Синема УС)"],"quality":"webdl","translation":"Любительский (многоголосый закадровый) (Синема УС)","update":"2021-05-24 07:12:58","iframe_src":"//8965.svetacdn.in/si4jsFRrtgrT/movie/50601"},{"id":50596,"title":"Гора Фостер","kp_id":"1223535","imdb_id":"tt9480146","world_art_id":null,"type":"movie","add":"2021-05-23 18:56:50","orig_title":"Mont Foster","year":"2020-03-02","translations":["Любительский (многоголосый закадровый) (Синема УС)"],"quality":"webdl","translation":"Любительский (многоголосый закадровый) (Синема УС)","update":"2021-05-24 07:14:19","iframe_src":"//8965.svetacdn.in/si4jsFRrtgrT/movie/50596"},{"id":50592,"title":"Часики тикают","kp_id":"1284288","imdb_id":"tt10664496","world_art_id":null,"type":"movie","add":"2021-05-23 18:44:50","orig_title":"Die fruchtbaren Jahre sind vorbei","year":"2019-08-11","translations":["Любительский (многоголосый закадровый) (Синема УС)"],"quality":"webdl","translation":"Любительский (многоголосый закадровый) (Синема УС)","update":"2021-05-24 07:14:48","iframe_src":"//8965.svetacdn.in/si4jsFRrtgrT/movie/50592"},{"id":50591,"title":"Исаак","kp_id":"970119","imdb_id":"tt5537378","world_art_id":null,"type":"movie","add":"2021-05-23 18:43:03","orig_title":"Izaokas","year":"2019-11-27","translations":["Любительский (многоголосый закадровый) (Синема УС)"],"quality":"webdl","translation":"Любительский (многоголосый закадровый) (Синема УС)","update":"2021-05-24 07:15:14","iframe_src":"//8965.svetacdn.in/si4jsFRrtgrT/movie/50591"},{"id":50589,"title":"Виолету подвозить не надо","kp_id":"1323499","imdb_id":"tt11214054","world_art_id":null,"type":"movie","add":"2021-05-23 18:39:05","orig_title":"Violeta no coge el ascensor","year":"2019-11-14","translations":["Любительский (многоголосый закадровый) (Синема УС)"],"quality":"webdl","translation":"Любительский (многоголосый закадровый) (Синема УС)","update":"2021-05-24 07:15:26","iframe_src":"//8965.svetacdn.in/si4jsFRrtgrT/movie/50589"},{"id":50587,"title":"Мир лжи","kp_id":"1073090","imdb_id":"tt7531600","world_art_id":null,"type":"movie","add":"2021-05-23 18:35:51","orig_title":"Lie of You","year":"2019-10-03","translations":["Любительский (многоголосый закадровый) (Синема УС)"],"quality":"webdl","translation":"Любительский (многоголосый закадровый) (Синема УС)","update":"2021-05-24 07:16:18","iframe_src":"//8965.svetacdn.in/si4jsFRrtgrT/movie/50587"},{"id":50586,"title":"Навсегда и никогда","kp_id":"1209305","imdb_id":"tt9244792","world_art_id":null,"type":"movie","add":"2021-05-23 18:33:18","orig_title":"Mai per sempre","year":"2019-10-01","translations":["Любительский (многоголосый закадровый) (AlphaProject)"],"quality":"webdl","translation":"Любительский (многоголосый закадровый) (AlphaProject)","update":"2021-05-24 07:16:40","iframe_src":"//8965.svetacdn.in/si4jsFRrtgrT/movie/50586"},{"id":50585,"title":"Несчастная любовь","kp_id":"1349611","imdb_id":"tt11045952","world_art_id":null,"type":"movie","add":"2021-05-23 18:31:35","orig_title":"Luv Gone Wrong","year":"2019-08-23","translations":["Любительский (многоголосый закадровый) (Синема УС)"],"quality":"webdl","translation":"Любительский (многоголосый закадровый) (Синема УС)","update":"2021-05-24 07:16:59","iframe_src":"//8965.svetacdn.in/si4jsFRrtgrT/movie/50585"},{"id":50583,"title":"Знаменитый","kp_id":"1250967","imdb_id":"tt9636120","world_art_id":null,"type":"movie","add":"2021-05-23 18:28:22","orig_title":"Famous","year":"2019-05-19","translations":["Любительский (многоголосый закадровый) (Синема УС)"],"quality":"webdl","translation":"Любительский (многоголосый закадровый) (Синема УС)","update":"2021-05-24 07:17:19","iframe_src":"//8965.svetacdn.in/si4jsFRrtgrT/movie/50583"},{"id":50582,"title":"Жизнь","kp_id":"1300999","imdb_id":"tt10043742","world_art_id":null,"type":"movie","add":"2021-05-23 18:23:25","orig_title":"Jiyan","year":"2019-11-21","translations":["Любительский (многоголосый закадровый) (Синема УС)"],"quality":"webdl","translation":"Любительский (многоголосый закадровый) (Синема УС)","update":"2021-05-24 07:17:49","iframe_src":"//8965.svetacdn.in/si4jsFRrtgrT/movie/50582"},{"id":50581,"title":"Сердцеед","kp_id":"1064572","imdb_id":"tt7234048","world_art_id":null,"type":"movie","add":"2021-05-23 18:21:57","orig_title":"O Galã","year":"2019-02-07","translations":["Любительский (многоголосый закадровый) (Синема УС)"],"quality":"webdl","translation":"Любительский (многоголосый закадровый) (Синема УС)","update":"2021-05-24 07:18:08","iframe_src":"//8965.svetacdn.in/si4jsFRrtgrT/movie/50581"},{"id":50580,"title":"Город кулаков","kp_id":"1167390","imdb_id":"tt8442402","world_art_id":null,"type":"movie","add":"2021-05-23 18:20:16","orig_title":"Knuckle City","year":"2019-07-18","translations":["Любительский (многоголосый закадровый) (Синема УС)"],"quality":"webdl","translation":"Любительский (многоголосый закадровый) (Синема УС)","update":"2021-05-24 07:18:33","iframe_src":"//8965.svetacdn.in/si4jsFRrtgrT/movie/50580"},{"id":50579,"title":"Серебряный лес","kp_id":"1298774","imdb_id":"tt10921490","world_art_id":null,"type":"movie","add":"2021-05-23 18:18:41","orig_title":"La forêt d'argent","year":"2019-09-24","translations":["Любительский (многоголосый закадровый) (Синема УС)"],"quality":"webdl","translation":"Любительский (многоголосый закадровый) (Синема УС)","update":"2021-05-24 07:18:54","iframe_src":"//8965.svetacdn.in/si4jsFRrtgrT/movie/50579"},{"id":50571,"title":"Картонные облака","kp_id":"1272189","imdb_id":"tt9161260","world_art_id":null,"type":"movie","add":"2021-05-23 13:32:20","orig_title":"Nubes de cartón","year":"2019-11-01","translations":["Любительский (многоголосый закадровый) (Синема УС)"],"quality":"webdl","translation":"Любительский (многоголосый закадровый) (Синема УС)","update":"2021-05-24 07:19:38","iframe_src":"//8965.svetacdn.in/si4jsFRrtgrT/movie/50571"},{"id":50570,"title":"Однажды в Апокалипсисе","kp_id":"1307325","imdb_id":"tt10939474","world_art_id":null,"type":"movie","add":"2021-05-23 13:30:23","orig_title":"Once Upon a Time in the Apocalypse","year":"2019-01-01","translations":["Любительский (многоголосый закадровый) (AlphaProject)"],"quality":"webdl","translation":"Любительский (многоголосый закадровый) (AlphaProject)","update":"2021-05-24 07:19:54","iframe_src":"//8965.svetacdn.in/si4jsFRrtgrT/movie/50570"},{"id":50568,"title":"Руки за голову","kp_id":"1282009","imdb_id":"tt10558950","world_art_id":null,"type":"movie","add":"2021-05-23 13:26:42","orig_title":"Mão na Cabeça","year":"2019-03-28","translations":["Любительский (многоголосый закадровый) (Синема УС)"],"quality":"webdl","translation":"Любительский (многоголосый закадровый) (Синема УС)","update":"2021-05-24 07:11:16","iframe_src":"//8965.svetacdn.in/si4jsFRrtgrT/movie/50568"},{"id":40375,"title":"Пурнами","kp_id":"247874","imdb_id":"tt0471862","world_art_id":null,"type":"movie","add":"2020-05-13 19:37:52","orig_title":"Pournami","year":"2006-04-01","translations":["Профессиональный (многоголосый закадровый) (Red Media)","Профессиональный (многоголосый закадровый) (Red Media)"],"quality":"dvdrip","translation":"Профессиональный (многоголосый закадровый) (Red Media)","update":"2021-05-24 07:18:45","iframe_src":"//8965.svetacdn.in/si4jsFRrtgrT/movie/40375"},{"id":1852,"title":"Лжесвидетельница","kp_id":"581276","imdb_id":"tt3544968","world_art_id":null,"type":"serial","add":"2017-12-14 06:05:39","orig_title":"Lzhesvidetelnitsa","year":"2011-08-06","translations":["Оригинальная дорожка"],"seasons_count":1,"episodes_count":4,"episodes":4,"update":"2017-12-15 08:53:51","iframe_src":"//8965.svetacdn.in/si4jsFRrtgrT/tv-series/1852"},{"id":1848,"title":"Дорожный патруль 8","kp_id":"654824","imdb_id":null,"world_art_id":null,"type":"serial","add":"2017-12-13 07:28:36","orig_title":"Дорожный патруль 8","year":"2011-03-29","translations":["Оригинальная дорожка"],"seasons_count":1,"episodes_count":8,"episodes":8,"update":"2017-12-15 09:03:25","iframe_src":"//8965.svetacdn.in/si4jsFRrtgrT/tv-series/1848"},{"id":1847,"title":"Моя прекрасная няня","kp_id":"89596","imdb_id":"tt0442726","world_art_id":null,"type":"serial","add":"2017-12-12 10:56:55","orig_title":"Moya prekrasnaya nyanya","year":"2004-09-27","translations":["Оригинальная дорожка"],"seasons_count":7,"episodes_count":173,"episodes":40,"update":"2017-12-15 05:43:32","iframe_src":"//8965.svetacdn.in/si4jsFRrtgrT/tv-series/1847"},{"id":1846,"title":"Дорожный патруль 7","kp_id":"579826","imdb_id":"tt4816990","world_art_id":null,"type":"serial","add":"2017-12-12 10:34:19","orig_title":"Dorozhniy patrul 7","year":"2010-12-15","translations":["Оригинальная дорожка"],"seasons_count":1,"episodes_count":8,"episodes":8,"update":"2017-12-14 08:30:50","iframe_src":"//8965.svetacdn.in/si4jsFRrtgrT/tv-series/1846"},{"id":1845,"title":"Дорожный патруль 5","kp_id":"579667","imdb_id":"tt4763366","world_art_id":null,"type":"serial","add":"2017-12-12 10:31:54","orig_title":"Dorozhnyy patrul 5","year":"2010-11-29","translations":["Оригинальная дорожка"],"seasons_count":1,"episodes_count":8,"episodes":8,"update":"2017-12-14 08:17:35","iframe_src":"//8965.svetacdn.in/si4jsFRrtgrT/tv-series/1845"},{"id":1844,"title":"Дорожный патруль 4","kp_id":"528184","imdb_id":"tt4792534","world_art_id":null,"type":"serial","add":"2017-12-12 10:14:45","orig_title":"Dorozhnyy patrul 4","year":"2010-08-29","translations":["Оригинальная дорожка"],"seasons_count":1,"episodes_count":16,"episodes":16,"update":"2017-12-14 08:02:27","iframe_src":"//8965.svetacdn.in/si4jsFRrtgrT/tv-series/1844"},{"id":1843,"title":"Дорожный патруль 3","kp_id":"471740","imdb_id":"tt4791010","world_art_id":null,"type":"serial","add":"2017-12-12 10:13:16","orig_title":"Dorozhnyy patrul 3","year":"2010-08-22","translations":["Оригинальная дорожка"],"seasons_count":1,"episodes_count":4,"episodes":4,"update":"2017-12-13 11:42:26","iframe_src":"//8965.svetacdn.in/si4jsFRrtgrT/tv-series/1843"},{"id":1842,"title":"Рассвет","kp_id":"690705","imdb_id":"tt2173240","world_art_id":null,"type":"serial","add":"2017-12-12 10:10:19","orig_title":"Daybreak","year":"2012-05-31","translations":["Любительский (одноголосый закадровый) (Hamster)"],"seasons_count":1,"episodes_count":5,"episodes":5,"update":"2017-12-12 13:17:50","iframe_src":"//8965.svetacdn.in/si4jsFRrtgrT/tv-series/1842"},{"id":1838,"title":"Китайский городовой","kp_id":"277326","imdb_id":"tt0163949","world_art_id":null,"type":"serial","add":"2017-12-11 18:25:33","orig_title":"Martial Law","year":"1998-09-26","translations":["Профессиональный (многоголосый закадровый)"],"seasons_count":2,"episodes_count":44,"episodes":22,"update":"2017-12-12 07:24:32","iframe_src":"//8965.svetacdn.in/si4jsFRrtgrT/tv-series/1838"},{"id":1837,"title":"Дорожный патруль 2","kp_id":"471681","imdb_id":"tt4810878","world_art_id":null,"type":"serial","add":"2017-12-11 14:14:26","orig_title":"Dorozhnyy patrul 2","year":"2008-08-21","translations":["Оригинальная дорожка"],"seasons_count":1,"episodes_count":8,"episodes":8,"update":"2017-12-12 09:40:45","iframe_src":"//8965.svetacdn.in/si4jsFRrtgrT/tv-series/1837"},{"id":1836,"title":"Подари мне жизнь","kp_id":"1048535","imdb_id":null,"world_art_id":null,"type":"serial","add":"2017-12-11 14:05:42","orig_title":"Подари мне жизнь","year":"2017-12-10","translations":["Оригинальная дорожка"],"seasons_count":1,"episodes_count":4,"episodes":4,"update":"2017-12-15 08:25:00","iframe_src":"//8965.svetacdn.in/si4jsFRrtgrT/tv-series/1836"},{"id":1835,"title":"Танец нашей любви","kp_id":"623381","imdb_id":"tt3301586","world_art_id":null,"type":"serial","add":"2017-12-11 14:01:36","orig_title":"Tanets nashey lyubvi","year":"2011-09-19","translations":["Оригинальная дорожка"],"seasons_count":1,"episodes_count":24,"episodes":24,"update":"2017-12-15 07:31:09","iframe_src":"//8965.svetacdn.in/si4jsFRrtgrT/tv-series/1835"},{"id":1834,"title":"Выбирая судьбу","kp_id":"1049339","imdb_id":null,"world_art_id":null,"type":"serial","add":"2017-12-11 13:53:18","orig_title":"Выбирая судьбу","year":"2017-09-16","translations":["Оригинальная дорожка"],"seasons_count":1,"episodes_count":4,"episodes":4,"update":"2017-12-13 06:45:32","iframe_src":"//8965.svetacdn.in/si4jsFRrtgrT/tv-series/1834"},{"id":1822,"title":"Стендапы","kp_id":"1047715","imdb_id":"tt7107518","world_art_id":null,"type":"serial","add":"2017-12-07 15:43:08","orig_title":"The Standups","year":"2017-07-04","translations":["Любительский (двухголосый закадровый) (Sunshine Studio)"],"seasons_count":1,"episodes_count":6,"episodes":6,"update":"2017-12-12 13:28:02","iframe_src":"//8965.svetacdn.in/si4jsFRrtgrT/tv-series/1822"},{"id":1821,"title":"Том и Джерри в детстве","kp_id":"94674","imdb_id":"tt0198254","world_art_id":null,"type":"serial","add":"2017-12-07 13:47:46","orig_title":"Tom & Jerry Kids Show","year":"1990-09-08","translations":["Профессиональный (многоголосый закадровый)"],"seasons_count":4,"episodes_count":65,"episodes":13,"update":"2017-12-13 11:37:12","iframe_src":"//8965.svetacdn.in/si4jsFRrtgrT/tv-series/1821"},{"id":1812,"title":"Охота на гения","kp_id":"256766","imdb_id":"tt0913039","world_art_id":null,"type":"serial","add":"2017-12-06 05:53:39","orig_title":"Okhota na geniya","year":"2006-05-10","translations":["Оригинальная дорожка"],"seasons_count":1,"episodes_count":16,"episodes":16,"update":"2017-12-13 06:37:18","iframe_src":"//8965.svetacdn.in/si4jsFRrtgrT/tv-series/1812"},{"id":1805,"title":"Купидон","kp_id":"623659","imdb_id":"tt3739192","world_art_id":null,"type":"serial","add":"2017-12-05 09:42:03","orig_title":"Kupidon","year":"2011-09-19","translations":["Оригинальная дорожка"],"seasons_count":1,"episodes_count":35,"episodes":35,"update":"2017-12-12 12:15:54","iframe_src":"//8965.svetacdn.in/si4jsFRrtgrT/tv-series/1805"},{"id":1681,"title":"Брат за брата 3","kp_id":"780616","imdb_id":"tt4234560","world_art_id":null,"type":"serial","add":"2017-10-27 05:34:03","orig_title":"Brat za brata 3","year":"2014-09-01","translations":["Оригинальная дорожка"],"seasons_count":1,"episodes_count":30,"episodes":30,"update":"2017-12-13 15:14:37","iframe_src":"//8965.svetacdn.in/si4jsFRrtgrT/tv-series/1681"},{"id":937,"title":"Подкидыши","kp_id":"971165","imdb_id":null,"world_art_id":null,"type":"serial","add":"2017-01-24 14:10:16","orig_title":"Подкидыши","year":"2016-04-11","translations":["Оригинальная дорожка"],"seasons_count":2,"episodes_count":48,"episodes":24,"update":"2017-12-13 07:18:05","iframe_src":"//8965.svetacdn.in/si4jsFRrtgrT/tv-series/937"},{"id":89,"title":"Взрывная штучка","kp_id":"978495","imdb_id":"tt4789300","world_art_id":null,"type":"serial","add":"2016-05-24 13:39:26","orig_title":"Lady Dynamite","year":"2016-05-20","translations":["Профессиональный (многоголосый закадровый) (BaibaKo)","Любительский (двухголосый закадровый) (Sunshine Studio)"],"seasons_count":2,"episodes_count":20,"episodes":8,"update":"2017-12-12 10:02:10","iframe_src":"//8965.svetacdn.in/si4jsFRrtgrT/tv-series/89"}],"current_page":556,"first_page_url":"https://videocdn.tv/api/short?limit=100&api_token=X6EwAUfE5M9xbo7y0Bp0aPf3uXxG2KLL&cache3556=3556&page=1","from":55501,"last_page":710,"last_page_url":"https://videocdn.tv/api/short?limit=100&api_token=X6EwAUfE5M9xbo7y0Bp0aPf3uXxG2KLL&cache3556=3556&page=710","next_page_url":"https://videocdn.tv/api/short?limit=100&api_token=X6EwAUfE5M9xbo7y0Bp0aPf3uXxG2KLL&cache3556=3556&page=557","path":"https://videocdn.tv/api/short","per_page":100,"prev_page_url":"https://videocdn.tv/api/short?limit=100&api_token=X6EwAUfE5M9xbo7y0Bp0aPf3uXxG2KLL&cache3556=3556&page=555","to":55540,"total":70977}