{"result":true,"data":[{"id":51212,"title":"Легион Хэмптона","kp_id":null,"imdb_id":"tt14395688","world_art_id":null,"type":"movie","add":"2021-06-15 19:03:16","orig_title":"Hampton's Legion","year":"2021-06-10","translations":["Любительский (многоголосый закадровый) (Синема УС)"],"quality":"webdl","translation":"Любительский (многоголосый закадровый) (Синема УС)","update":"2021-06-16 04:02:07","iframe_src":"//7741.svetacdn.in/71tsRs29n5tZ/movie/51212"},{"id":51204,"title":"Параноидальные плёнки 7: Фелтс Филд","kp_id":"1114748","imdb_id":"tt7977628","world_art_id":null,"type":"movie","add":"2021-06-15 12:13:55","orig_title":"Paranoia Tapes 7: Felts Field","year":"2020-01-01","translations":["Любительский (многоголосый закадровый) (Синема УС)"],"quality":"webdl","translation":"Любительский (многоголосый закадровый) (Синема УС)","update":"2021-06-15 21:16:17","iframe_src":"//7741.svetacdn.in/71tsRs29n5tZ/movie/51204"},{"id":51203,"title":"Двойной бургер","kp_id":"1395852","imdb_id":"tt14493552","world_art_id":null,"type":"movie","add":"2021-06-15 12:08:06","orig_title":"Deobeulpaeti","year":"2021-02-17","translations":["Любительский (многоголосый закадровый) (Синема УС)"],"quality":"webdl","translation":"Любительский (многоголосый закадровый) (Синема УС)","update":"2021-06-16 04:02:18","iframe_src":"//7741.svetacdn.in/71tsRs29n5tZ/movie/51203"},{"id":51200,"title":"Много много лет назад 3: Время Затихания","kp_id":"4438070","imdb_id":"tt13375624","world_art_id":null,"type":"movie","add":"2021-06-15 11:59:57","orig_title":"Chen mo de nian dai","year":"2020-11-26","translations":["Любительский (многоголосый закадровый) (Синема УС)"],"quality":"webdl","translation":"Любительский (многоголосый закадровый) (Синема УС)","update":"2021-06-15 21:15:16","iframe_src":"//7741.svetacdn.in/71tsRs29n5tZ/movie/51200"},{"id":51199,"title":"Злая мачеха","kp_id":null,"imdb_id":"tt14443878","world_art_id":null,"type":"movie","add":"2021-06-15 11:57:56","orig_title":"Evil Stepmom","year":"2021-01-01","translations":["Любительский (многоголосый закадровый) (AlphaProject)"],"quality":"webdl","translation":"Любительский (многоголосый закадровый) (AlphaProject)","update":"2021-06-15 21:14:34","iframe_src":"//7741.svetacdn.in/71tsRs29n5tZ/movie/51199"},{"id":51198,"title":"Сногсшибательно мертвы","kp_id":"1361783","imdb_id":"tt11790378","world_art_id":null,"type":"movie","add":"2021-06-15 11:49:22","orig_title":"Death Drop Gorgeous","year":"2020-09-04","translations":["Любительский (многоголосый закадровый) (Синема УС)"],"quality":"webdl","translation":"Любительский (многоголосый закадровый) (Синема УС)","update":"2021-06-15 21:17:19","iframe_src":"//7741.svetacdn.in/71tsRs29n5tZ/movie/51198"},{"id":51196,"title":"Расследования Авроры Тигарден: Как надуть мошенника","kp_id":null,"imdb_id":"tt13732354","world_art_id":null,"type":"movie","add":"2021-06-15 11:41:30","orig_title":"Aurora Teagarden Mysteries: How to Con A Con","year":"2021-03-14","translations":["Любительский (многоголосый закадровый) (AlphaProject)"],"quality":"webdl","translation":"Любительский (многоголосый закадровый) (AlphaProject)","update":"2021-06-15 21:13:53","iframe_src":"//7741.svetacdn.in/71tsRs29n5tZ/movie/51196"},{"id":51195,"title":"Шотландская Пьеса","kp_id":"1175397","imdb_id":"tt8706856","world_art_id":null,"type":"movie","add":"2021-06-15 10:53:13","orig_title":"The Scottish Play","year":"2021-05-28","translations":["Любительский (многоголосый закадровый) (Синема УС)"],"quality":"webdl","translation":"Любительский (многоголосый закадровый) (Синема УС)","update":"2021-06-15 15:46:52","iframe_src":"//7741.svetacdn.in/71tsRs29n5tZ/movie/51195"},{"id":51194,"title":"Тюрьма Адиала","kp_id":null,"imdb_id":"tt14183144","world_art_id":null,"type":"movie","add":"2021-06-15 10:42:20","orig_title":"Adiala","year":"2021-07-09","translations":["Любительский (многоголосый закадровый) (Синема УС)"],"quality":"webdl","translation":"Любительский (многоголосый закадровый) (Синема УС)","update":"2021-06-15 15:45:51","iframe_src":"//7741.svetacdn.in/71tsRs29n5tZ/movie/51194"},{"id":51193,"title":"Паранормальная документалка","kp_id":"1423644","imdb_id":"tt12899618","world_art_id":null,"type":"movie","add":"2021-06-15 10:40:42","orig_title":"A Paranormal Documentary","year":"2020-04-27","translations":["Любительский (многоголосый закадровый) (Синема УС)"],"quality":"webdl","translation":"Любительский (многоголосый закадровый) (Синема УС)","update":"2021-06-15 15:44:11","iframe_src":"//7741.svetacdn.in/71tsRs29n5tZ/movie/51193"},{"id":51185,"title":"Тигр","kp_id":null,"imdb_id":"tt5191308","world_art_id":null,"type":"movie","add":"2021-06-14 19:54:44","orig_title":"Sher","year":"2015-10-10","translations":["Любительский (одноголосый закадровый)"],"quality":"webdl","translation":"Любительский (одноголосый закадровый)","update":"2021-06-16 04:20:01","iframe_src":"//7741.svetacdn.in/71tsRs29n5tZ/movie/51185"},{"id":51184,"title":"Еще один победитель","kp_id":"262774","imdb_id":"tt0827765","world_art_id":null,"type":"movie","add":"2021-06-14 19:49:19","orig_title":"Ek Aur Sikander","year":"1986-11-01","translations":["Любительский (одноголосый закадровый)"],"quality":"webdl","translation":"Любительский (одноголосый закадровый)","update":"2021-06-16 04:20:13","iframe_src":"//7741.svetacdn.in/71tsRs29n5tZ/movie/51184"},{"id":51182,"title":"Играть с огнём","kp_id":"86805","imdb_id":"tt0096748","world_art_id":null,"type":"movie","add":"2021-06-14 19:42:16","orig_title":"Aag Se Khelenge","year":"1989-08-15","translations":["Любительский (одноголосый закадровый)"],"quality":"webdl","translation":"Любительский (одноголосый закадровый)","update":"2021-06-16 04:20:30","iframe_src":"//7741.svetacdn.in/71tsRs29n5tZ/movie/51182"},{"id":51178,"title":"Пути-Дороги","kp_id":"497970","imdb_id":"tt1580017","world_art_id":null,"type":"movie","add":"2021-06-14 19:30:04","orig_title":"Ride","year":"2009-06-05","translations":["Любительский (одноголосый закадровый)"],"quality":"webdl","translation":"Любительский (одноголосый закадровый)","update":"2021-06-16 04:20:43","iframe_src":"//7741.svetacdn.in/71tsRs29n5tZ/movie/51178"},{"id":51177,"title":"Бирадж Баху","kp_id":"96736","imdb_id":"tt0046780","world_art_id":null,"type":"movie","add":"2021-06-14 19:26:10","orig_title":"Biraj Bahu","year":"1957-02-25","translations":["Любительский (одноголосый закадровый)"],"quality":"webdl","translation":"Любительский (одноголосый закадровый)","update":"2021-06-16 04:20:51","iframe_src":"//7741.svetacdn.in/71tsRs29n5tZ/movie/51177"},{"id":51012,"title":"Кто умрёт сегодня","kp_id":"594868","imdb_id":null,"world_art_id":null,"type":"movie","add":"2021-06-08 18:10:50","orig_title":"Кто умрёт сегодня","year":"1967-01-01","translations":["Оригинальная дорожка"],"quality":"tv","translation":"Оригинальная дорожка","update":"2021-06-16 06:29:46","iframe_src":"//7741.svetacdn.in/71tsRs29n5tZ/movie/51012"},{"id":3786,"title":"Новогодний ангел","kp_id":null,"imdb_id":null,"world_art_id":null,"type":"serial","add":"2018-12-30 00:50:08","orig_title":"Новогодний ангел","year":"2018-12-29","translations":["Оригинальная дорожка"],"seasons_count":1,"episodes_count":2,"episodes":2,"update":"2018-12-30 01:47:51","iframe_src":"//7741.svetacdn.in/71tsRs29n5tZ/tv-series/3786"},{"id":3783,"title":"Берегитесь Бэтмена","kp_id":"675660","imdb_id":"tt2329077","world_art_id":null,"type":"serial","add":"2018-12-28 20:29:46","orig_title":"Beware the Batman","year":"2013-07-13","translations":["Профессиональный (многоголосый закадровый)"],"seasons_count":1,"episodes_count":26,"episodes":26,"update":"2018-12-30 12:23:22","iframe_src":"//7741.svetacdn.in/71tsRs29n5tZ/tv-series/3783"},{"id":3768,"title":"Арне Даль: Европейский блюз","kp_id":"727370","imdb_id":"tt2219106","world_art_id":null,"type":"serial","add":"2018-12-26 14:13:55","orig_title":"Arne Dahl: Europa blues","year":"2012-03-14","translations":["Профессиональный (многоголосый закадровый) (ShowJet)"],"seasons_count":1,"episodes_count":4,"episodes":4,"update":"2018-12-27 13:04:28","iframe_src":"//7741.svetacdn.in/71tsRs29n5tZ/tv-series/3768"},{"id":3767,"title":"Арне Даль: Большая вода","kp_id":"727371","imdb_id":"tt2220954","world_art_id":null,"type":"serial","add":"2018-12-26 14:09:25","orig_title":"Arne Dahl: De största vatten","year":"2012-02-18","translations":["Профессиональный (многоголосый закадровый) (ShowJet)"],"seasons_count":1,"episodes_count":4,"episodes":4,"update":"2018-12-27 13:01:08","iframe_src":"//7741.svetacdn.in/71tsRs29n5tZ/tv-series/3767"},{"id":3766,"title":"Арне Даль: К вершине горы","kp_id":"727373","imdb_id":"tt2208264","world_art_id":null,"type":"serial","add":"2018-12-26 14:05:42","orig_title":"Arne Dahl: Upp till toppen av berget","year":"2012-11-04","translations":["Профессиональный (многоголосый закадровый) (ShowJet)"],"seasons_count":1,"episodes_count":4,"episodes":4,"update":"2018-12-27 12:57:02","iframe_src":"//7741.svetacdn.in/71tsRs29n5tZ/tv-series/3766"},{"id":3765,"title":"Арне Даль: Мудрая кровь","kp_id":"648482","imdb_id":"tt2113149","world_art_id":null,"type":"serial","add":"2018-12-26 14:01:33","orig_title":"Arne Dahl: Ont blod","year":"2012-10-21","translations":["Профессиональный (многоголосый закадровый) (ShowJet)"],"seasons_count":1,"episodes_count":4,"episodes":4,"update":"2018-12-27 12:53:16","iframe_src":"//7741.svetacdn.in/71tsRs29n5tZ/tv-series/3765"},{"id":3764,"title":"Арне Даль: Мистериозо","kp_id":"648571","imdb_id":"tt2113148","world_art_id":null,"type":"serial","add":"2018-12-26 13:57:12","orig_title":"Arne Dahl: Misterioso","year":"2011-12-27","translations":["Профессиональный (многоголосый закадровый) (ShowJet)"],"seasons_count":1,"episodes_count":4,"episodes":4,"update":"2018-12-27 12:48:14","iframe_src":"//7741.svetacdn.in/71tsRs29n5tZ/tv-series/3764"},{"id":3763,"title":"Off the Air","kp_id":"687809","imdb_id":"tt2289131","world_art_id":null,"type":"serial","add":"2018-12-26 13:13:41","orig_title":"Off the Air","year":"2011-01-01","translations":["Оригинальная дорожка"],"seasons_count":8,"episodes_count":28,"episodes":2,"update":"2018-12-28 10:26:12","iframe_src":"//7741.svetacdn.in/71tsRs29n5tZ/tv-series/3763"},{"id":3761,"title":"Стандарты красоты. Новая любовь","kp_id":"1008535","imdb_id":null,"world_art_id":null,"type":"serial","add":"2018-12-26 10:01:27","orig_title":"Стандарты красоты. Новая любовь","year":"2018-01-01","translations":["Оригинальная дорожка"],"seasons_count":1,"episodes_count":4,"episodes":4,"update":"2018-12-28 02:16:29","iframe_src":"//7741.svetacdn.in/71tsRs29n5tZ/tv-series/3761"},{"id":3752,"title":"Смертельный тренинг","kp_id":"1178196","imdb_id":null,"world_art_id":null,"type":"serial","add":"2018-12-25 01:27:39","orig_title":"Смертельный тренинг","year":"2018-12-22","translations":["Оригинальная дорожка"],"seasons_count":1,"episodes_count":4,"episodes":4,"update":"2018-12-25 08:45:06","iframe_src":"//7741.svetacdn.in/71tsRs29n5tZ/tv-series/3752"},{"id":3751,"title":"Джордж из джунглей","kp_id":"404070","imdb_id":"tt1050880","world_art_id":null,"type":"serial","add":"2018-12-24 13:58:33","orig_title":"George of the Jungle","year":"2007-06-29","translations":["Полное дублирование"],"seasons_count":1,"episodes_count":26,"episodes":26,"update":"2018-12-25 12:33:54","iframe_src":"//7741.svetacdn.in/71tsRs29n5tZ/tv-series/3751"},{"id":3750,"title":"Управляемые","kp_id":"1145424","imdb_id":"tt8451888","world_art_id":null,"type":"serial","add":"2018-12-24 10:48:41","orig_title":"Driven","year":"2018-01-01","translations":["Любительский (двухголосый закадровый) (Sunshine Studio)"],"seasons_count":1,"episodes_count":6,"episodes":6,"update":"2018-12-25 08:46:14","iframe_src":"//7741.svetacdn.in/71tsRs29n5tZ/tv-series/3750"},{"id":3740,"title":"Легенда о возвышении жены наследного принца","kp_id":"1047360","imdb_id":"tt5319572","world_art_id":null,"type":"serial","add":"2018-12-20 09:47:57","orig_title":"Tai zi fei sheng zhi ji","year":"2015-11-13","translations":["Любительский (одноголосый закадровый) (GREEN TEA)"],"seasons_count":1,"episodes_count":37,"episodes":37,"update":"2018-12-23 21:20:29","iframe_src":"//7741.svetacdn.in/71tsRs29n5tZ/tv-series/3740"},{"id":3739,"title":"Дьявольские умы","kp_id":"1046528","imdb_id":"tt5733054","world_art_id":null,"type":"serial","add":"2018-12-20 09:36:34","orig_title":"Evil Minds","year":"2015-05-08","translations":["Любительский (одноголосый закадровый) (GREEN TEA)"],"seasons_count":1,"episodes_count":24,"episodes":24,"update":"2018-12-23 22:07:41","iframe_src":"//7741.svetacdn.in/71tsRs29n5tZ/tv-series/3739"},{"id":3659,"title":"Сказание о чудовище","kp_id":null,"imdb_id":"tt6973660","world_art_id":null,"type":"serial","add":"2018-12-10 09:23:09","orig_title":"The Legend of the Monster","year":"2016-01-01","translations":["Любительский (двухголосый закадровый) (XDUB Dorama)"],"seasons_count":1,"episodes_count":8,"episodes":8,"update":"2018-12-25 09:00:15","iframe_src":"//7741.svetacdn.in/71tsRs29n5tZ/tv-series/3659"},{"id":3635,"title":"Лютый 2","kp_id":"1115425","imdb_id":null,"world_art_id":null,"type":"serial","add":"2018-12-06 22:20:31","orig_title":"Лютый 2","year":"2018-12-05","translations":["Оригинальная дорожка"],"seasons_count":1,"episodes_count":4,"episodes":4,"update":"2018-12-28 02:17:36","iframe_src":"//7741.svetacdn.in/71tsRs29n5tZ/tv-series/3635"},{"id":3615,"title":"Барашек Тимми","kp_id":"490280","imdb_id":"tt1125758","world_art_id":null,"type":"serial","add":"2018-12-04 12:42:19","orig_title":"Timmy Time","year":"2009-04-06","translations":["Оригинальная дорожка"],"seasons_count":3,"episodes_count":78,"episodes":26,"update":"2018-12-25 09:29:30","iframe_src":"//7741.svetacdn.in/71tsRs29n5tZ/tv-series/3615"},{"id":20195,"title":"Долгая идиотская дорога","kp_id":"1023814","imdb_id":"tt4712076","world_art_id":null,"type":"movie","add":"2018-11-18 20:07:38","orig_title":"The Long Dumb Road","year":"2018-01-26","translations":["Любительский (многоголосый закадровый) (Синема УС)","Профессиональный (многоголосый закадровый) (HDrezka Studio)","Профессиональный (многоголосый закадровый) (HDrezka Studio)"],"quality":"webdl","translation":"Любительский (многоголосый закадровый) (Синема УС)","update":"2021-06-16 03:50:45","iframe_src":"//7741.svetacdn.in/71tsRs29n5tZ/movie/20195"},{"id":20022,"title":"Неправильное воспитание Кэмерон Пост","kp_id":"1008891","imdb_id":"tt6257174","world_art_id":null,"type":"movie","add":"2018-11-07 23:25:58","orig_title":"The Miseducation of Cameron Post","year":"2018-01-22","translations":["Любительский (многоголосый закадровый) (@MUZOBOZ@)","Любительский (двухголосый закадровый) (LakeFilms)","Профессиональный (многоголосый закадровый) (HDrezka Studio)","Профессиональный (многоголосый закадровый) (HDrezka Studio)"],"quality":"webdl","translation":"Любительский (многоголосый закадровый) (@MUZOBOZ@)","update":"2021-06-16 03:51:22","iframe_src":"//7741.svetacdn.in/71tsRs29n5tZ/movie/20022"},{"id":19748,"title":"Дорога грома","kp_id":"1115671","imdb_id":"tt7738450","world_art_id":null,"type":"movie","add":"2018-10-23 23:33:55","orig_title":"Thunder Road","year":"2018-03-12","translations":["Любительский (многоголосый закадровый) (Синема УС)","Профессиональный (многоголосый закадровый) (HDrezka Studio)","Профессиональный (многоголосый закадровый) (HDrezka Studio)"],"quality":"webdl","translation":"Любительский (многоголосый закадровый) (Синема УС)","update":"2021-06-16 03:51:38","iframe_src":"//7741.svetacdn.in/71tsRs29n5tZ/movie/19748"},{"id":3312,"title":"Грузовичок Лёва","kp_id":"1112959","imdb_id":null,"world_art_id":null,"type":"serial","add":"2018-10-15 12:36:09","orig_title":"Грузовичок Лёва","year":"2014-01-01","translations":["Оригинальная дорожка"],"seasons_count":2,"episodes_count":114,"episodes":69,"update":"2018-12-24 13:46:13","iframe_src":"//7741.svetacdn.in/71tsRs29n5tZ/tv-series/3312"},{"id":19567,"title":"Воспитательница","kp_id":"1091698","imdb_id":"tt6952960","world_art_id":null,"type":"movie","add":"2018-10-14 20:46:41","orig_title":"The Kindergarten Teacher","year":"2018-01-19","translations":["Профессиональный (многоголосый закадровый)","[EN] Original (English)","Профессиональный (многоголосый закадровый) (HDrezka Studio)"],"quality":"bd","translation":"Профессиональный (многоголосый закадровый)","update":"2021-06-16 03:51:06","iframe_src":"//7741.svetacdn.in/71tsRs29n5tZ/movie/19567"},{"id":3270,"title":"Бар «На грудь»","kp_id":"1182694","imdb_id":null,"world_art_id":null,"type":"serial","add":"2018-10-09 01:10:14","orig_title":"Бар «На грудь»","year":"2018-10-04","translations":["Оригинальная дорожка"],"seasons_count":1,"episodes_count":8,"episodes":8,"update":"2018-12-28 19:48:37","iframe_src":"//7741.svetacdn.in/71tsRs29n5tZ/tv-series/3270"},{"id":512,"title":"Вне времени","kp_id":"968215","imdb_id":"tt5511582","world_art_id":null,"type":"serial","add":"2016-10-06 05:55:49","orig_title":"Timeless","year":"2016-10-03","translations":["Профессиональный (многоголосый закадровый) (Кравец)","Профессиональный (многоголосый закадровый) (LostFilm)"],"seasons_count":2,"episodes_count":28,"episodes":12,"update":"2018-12-25 02:30:08","iframe_src":"//7741.svetacdn.in/71tsRs29n5tZ/tv-series/512"}],"current_page":483,"first_page_url":"https://videocdn.tv/api/short?limit=100&api_token=EnbO9h8pv1VyjbCJhg0WM9nG259n7mtz&cache3483=3483&page=1","from":48201,"last_page":707,"last_page_url":"https://videocdn.tv/api/short?limit=100&api_token=EnbO9h8pv1VyjbCJhg0WM9nG259n7mtz&cache3483=3483&page=707","next_page_url":"https://videocdn.tv/api/short?limit=100&api_token=EnbO9h8pv1VyjbCJhg0WM9nG259n7mtz&cache3483=3483&page=484","path":"https://videocdn.tv/api/short","per_page":100,"prev_page_url":"https://videocdn.tv/api/short?limit=100&api_token=EnbO9h8pv1VyjbCJhg0WM9nG259n7mtz&cache3483=3483&page=482","to":48240,"total":70679}