{"result":true,"data":[{"id":41814,"title":"Пулбой: Спасайся кто может","kp_id":"551300","imdb_id":"tt1693843","world_art_id":null,"type":"movie","add":"2020-07-16 21:38:31","orig_title":"Poolboy: Drowning Out the Fury","year":"2011-07-27","translations":["Профессиональный (многоголосый закадровый)"],"quality":"dvdrip","translation":"Профессиональный (многоголосый закадровый)","update":"2020-07-17 13:21:09","iframe_src":"//7720.svetacdn.in/si4jsFRrtgrT/movie/41814"},{"id":41813,"title":"Властелин измерений","kp_id":"416473","imdb_id":"tt1234432","world_art_id":null,"type":"movie","add":"2020-07-16 21:36:54","orig_title":"Grande ourse - La clé des possibles","year":"2009-03-27","translations":["Профессиональный (многоголосый закадровый)"],"quality":"dvdrip","translation":"Профессиональный (многоголосый закадровый)","update":"2020-07-17 13:21:41","iframe_src":"//7720.svetacdn.in/si4jsFRrtgrT/movie/41813"},{"id":41812,"title":"Великолепие Амберсонов","kp_id":"8554","imdb_id":"tt0035015","world_art_id":null,"type":"movie","add":"2020-07-16 21:34:49","orig_title":"The Magnificent Ambersons","year":"1942-07-09","translations":["Любительский (одноголосый закадровый) (Медведев Юрий)"],"quality":"bd","translation":"Любительский (одноголосый закадровый) (Медведев Юрий)","update":"2020-07-17 13:22:15","iframe_src":"//7720.svetacdn.in/si4jsFRrtgrT/movie/41812"},{"id":41811,"title":"Похороненная 2","kp_id":"575308","imdb_id":"tt1792799","world_art_id":null,"type":"movie","add":"2020-07-16 21:31:12","orig_title":"Chromeskull: Laid to Rest 2","year":"2011-08-25","translations":["Любительский (одноголосый закадровый)"],"quality":"bd","translation":"Любительский (одноголосый закадровый)","update":"2020-07-17 13:22:45","iframe_src":"//7720.svetacdn.in/si4jsFRrtgrT/movie/41811"},{"id":41810,"title":"Джейн Эйр","kp_id":"15570","imdb_id":"tt0065911","world_art_id":null,"type":"movie","add":"2020-07-16 21:28:59","orig_title":"Jane Eyre","year":"1971-03-13","translations":["Профессиональный (многоголосый закадровый)"],"quality":"dvdrip","translation":"Профессиональный (многоголосый закадровый)","update":"2020-07-17 13:23:15","iframe_src":"//7720.svetacdn.in/si4jsFRrtgrT/movie/41810"},{"id":41809,"title":"Пустой бак","kp_id":"611589","imdb_id":"tt1798148","world_art_id":null,"type":"movie","add":"2020-07-16 21:26:33","orig_title":"Empty","year":"2011-01-25","translations":["Любительский (одноголосый закадровый) (Хихикающий доктор)"],"quality":"dvdrip","translation":"Любительский (одноголосый закадровый) (Хихикающий доктор)","update":"2020-07-17 13:23:46","iframe_src":"//7720.svetacdn.in/si4jsFRrtgrT/movie/41809"},{"id":41808,"title":"Только ты","kp_id":"573364","imdb_id":"tt1826928","world_art_id":null,"type":"movie","add":"2020-07-16 21:24:05","orig_title":"Tolko ty","year":"2011-04-24","translations":["Оригинальная дорожка"],"quality":"sat","translation":"Оригинальная дорожка","update":"2020-07-17 13:24:02","iframe_src":"//7720.svetacdn.in/si4jsFRrtgrT/movie/41808"},{"id":41806,"title":"Место","kp_id":"1035956","imdb_id":"tt6273962","world_art_id":null,"type":"movie","add":"2020-07-16 20:13:34","orig_title":"Accommodations","year":"2018-06-08","translations":["Любительский (многоголосый закадровый) (Синема УС)"],"quality":"webdl","translation":"Любительский (многоголосый закадровый) (Синема УС)","update":"2020-07-17 13:26:49","iframe_src":"//7720.svetacdn.in/si4jsFRrtgrT/movie/41806"},{"id":41805,"title":"Дэйл Арчдэйл","kp_id":"756469","imdb_id":"tt2831364","world_art_id":null,"type":"movie","add":"2020-07-16 20:11:39","orig_title":"Dale Archdale","year":"2020-07-07","translations":["Любительский (многоголосый закадровый) (Синема УС)"],"quality":"webdl","translation":"Любительский (многоголосый закадровый) (Синема УС)","update":"2020-07-17 05:08:25","iframe_src":"//7720.svetacdn.in/si4jsFRrtgrT/movie/41805"},{"id":41804,"title":"Всего одна минута","kp_id":"1217183","imdb_id":"tt9328726","world_art_id":null,"type":"movie","add":"2020-07-16 20:09:34","orig_title":"Appena un minuto","year":"2019-10-03","translations":["Любительский (многоголосый закадровый) (Синема УС)"],"quality":"webdl","translation":"Любительский (многоголосый закадровый) (Синема УС)","update":"2020-07-17 13:27:21","iframe_src":"//7720.svetacdn.in/si4jsFRrtgrT/movie/41804"},{"id":41803,"title":"Дивы","kp_id":"1166995","imdb_id":"tt8342232","world_art_id":null,"type":"movie","add":"2020-07-16 20:07:38","orig_title":"Divos!","year":"2020-07-01","translations":["Любительский (многоголосый закадровый) (Синема УС)"],"quality":"webdl","translation":"Любительский (многоголосый закадровый) (Синема УС)","update":"2020-07-17 05:07:40","iframe_src":"//7720.svetacdn.in/si4jsFRrtgrT/movie/41803"},{"id":41802,"title":"Ночь двух лун","kp_id":"1003410","imdb_id":"tt6034002","world_art_id":null,"type":"movie","add":"2020-07-16 20:05:09","orig_title":"La noche de las dos lunas","year":"2019-03-17","translations":["Любительский (многоголосый закадровый) (Синема УС)"],"quality":"webdl","translation":"Любительский (многоголосый закадровый) (Синема УС)","update":"2020-07-17 13:28:01","iframe_src":"//7720.svetacdn.in/si4jsFRrtgrT/movie/41802"},{"id":41801,"title":"Наши матери","kp_id":"1210634","imdb_id":"tt9206516","world_art_id":null,"type":"movie","add":"2020-07-16 20:03:08","orig_title":"Nuestras madres","year":"2019-05-21","translations":["Любительский (многоголосый закадровый) (Синема УС)"],"quality":"webdl","translation":"Любительский (многоголосый закадровый) (Синема УС)","update":"2020-07-17 13:28:45","iframe_src":"//7720.svetacdn.in/si4jsFRrtgrT/movie/41801"},{"id":41800,"title":"Донор","kp_id":"1195947","imdb_id":"tt7649896","world_art_id":null,"type":"movie","add":"2020-07-16 19:59:54","orig_title":"Donor","year":"2018-01-04","translations":["Любительский (двухголосый закадровый) (Колобок)"],"quality":"webdl","translation":"Любительский (двухголосый закадровый) (Колобок)","update":"2020-07-17 13:29:10","iframe_src":"//7720.svetacdn.in/si4jsFRrtgrT/movie/41800"},{"id":41799,"title":"Безумное обещание","kp_id":"999237","imdb_id":"tt5960386","world_art_id":null,"type":"movie","add":"2020-07-16 19:58:09","orig_title":"Wild Faith","year":"2018-03-15","translations":["Любительский (многоголосый закадровый) (@MUZOBOZ@)"],"quality":"webdl","translation":"Любительский (многоголосый закадровый) (@MUZOBOZ@)","update":"2020-07-17 13:29:50","iframe_src":"//7720.svetacdn.in/si4jsFRrtgrT/movie/41799"},{"id":41671,"title":"Айрис","kp_id":"714","imdb_id":"tt0280778","world_art_id":null,"type":"movie","add":"2020-07-08 09:19:01","orig_title":"Iris","year":"2001-12-14","translations":["Профессиональный (двухголосый закадровый)"],"quality":"webdl","translation":"Профессиональный (двухголосый закадровый)","update":"2020-07-17 10:12:56","iframe_src":"//7720.svetacdn.in/si4jsFRrtgrT/movie/41671"},{"id":41670,"title":"Магнаты","kp_id":"79860","imdb_id":"tt0405163","world_art_id":null,"type":"movie","add":"2020-07-08 09:14:03","orig_title":"The Moguls","year":"2005-02-06","translations":["Профессиональный (многоголосый закадровый)"],"quality":"bd","translation":"Профессиональный (многоголосый закадровый)","update":"2020-07-17 10:11:52","iframe_src":"//7720.svetacdn.in/si4jsFRrtgrT/movie/41670"},{"id":41665,"title":"Луна взошла над Египтом","kp_id":"1140004","imdb_id":"tt8088056","world_art_id":null,"type":"movie","add":"2020-07-08 08:17:37","orig_title":"Moonrise Over Egypt","year":"2018-03-22","translations":["Любительский (многоголосый закадровый) (Синема УС)"],"quality":"webdl","translation":"Любительский (многоголосый закадровый) (Синема УС)","update":"2020-07-17 10:10:23","iframe_src":"//7720.svetacdn.in/si4jsFRrtgrT/movie/41665"},{"id":21678,"title":"Не возвращайся с луны","kp_id":"969347","imdb_id":"tt5249200","world_art_id":null,"type":"movie","add":"2019-01-20 22:32:41","orig_title":"Don't Come Back from the Moon","year":"2017-06-20","translations":["Любительский (многоголосый закадровый) (Синема УС)","Любительский (двухголосый закадровый) (HiWayGrope)","Любительский (двухголосый закадровый) (LakeFilms)","Профессиональный (многоголосый закадровый) (HDrezka Studio)"],"quality":"webdl","translation":"Любительский (многоголосый закадровый) (Синема УС)","update":"2020-07-17 05:07:16","iframe_src":"//7720.svetacdn.in/si4jsFRrtgrT/movie/21678"},{"id":20577,"title":"Пышка","kp_id":"1048333","imdb_id":"tt4878482","world_art_id":null,"type":"movie","add":"2018-12-09 00:37:18","orig_title":"Dumplin'","year":"2018-12-07","translations":["Любительский (многоголосый закадровый) (@MUZOBOZ@)","Профессиональный (многоголосый закадровый) (HDrezka Studio)","Полное дублирование","Полное дублирование","Профессиональный (многоголосый закадровый) (HDrezka Studio)"],"quality":"webdl","translation":"Любительский (многоголосый закадровый) (@MUZOBOZ@)","update":"2020-07-17 05:07:46","iframe_src":"//7720.svetacdn.in/si4jsFRrtgrT/movie/20577"}],"current_page":692,"first_page_url":"https://videocdn.tv/api/short?limit=100&api_token=X6EwAUfE5M9xbo7y0Bp0aPf3uXxG2KLL&cache3692=3692&page=1","from":69101,"last_page":650,"last_page_url":"https://videocdn.tv/api/short?limit=100&api_token=X6EwAUfE5M9xbo7y0Bp0aPf3uXxG2KLL&cache3692=3692&page=650","next_page_url":null,"path":"https://videocdn.tv/api/short","per_page":100,"prev_page_url":"https://videocdn.tv/api/short?limit=100&api_token=X6EwAUfE5M9xbo7y0Bp0aPf3uXxG2KLL&cache3692=3692&page=691","to":69120,"total":64908}