{"result":true,"data":[{"id":50756,"title":"Жилец","kp_id":"9150","imdb_id":"tt0017075","world_art_id":null,"type":"movie","add":"2021-05-30 15:40:36","orig_title":"The Lodger: A Story of the London Fog","year":"1927-01-01","translations":["[EN] Original (English)"],"quality":"bd","translation":"[EN] Original (English)","update":"2021-05-31 07:29:59","iframe_src":"//2413.svetacdn.in/IAF0wWTdNYZm/movie/50756"},{"id":50719,"title":"Тоби","kp_id":"132976","imdb_id":"tt0078404","world_art_id":null,"type":"movie","add":"2021-05-29 05:33:58","orig_title":"Tobi","year":"1978-12-19","translations":["Любительский (одноголосый закадровый) (den904)"],"quality":"webdl","translation":"Любительский (одноголосый закадровый) (den904)","update":"2021-05-31 07:05:34","iframe_src":"//2413.svetacdn.in/IAF0wWTdNYZm/movie/50719"},{"id":50718,"title":"У пана Бога за межой","kp_id":"447116","imdb_id":"tt1368448","world_art_id":null,"type":"movie","add":"2021-05-29 05:31:36","orig_title":"U Pana Boga za miedza","year":"2009-04-22","translations":["Любительский (одноголосый закадровый)"],"quality":"bd","translation":"Любительский (одноголосый закадровый)","update":"2021-05-31 06:53:49","iframe_src":"//2413.svetacdn.in/IAF0wWTdNYZm/movie/50718"},{"id":50705,"title":"Джульетта и духи","kp_id":"63926","imdb_id":"tt0059229","world_art_id":null,"type":"movie","add":"2021-05-28 10:11:41","orig_title":"Giulietta degli spiriti","year":"1965-10-16","translations":["Профессиональный (двухголосый закадровый) (Культура | Россия К)"],"quality":"bd","translation":"Профессиональный (двухголосый закадровый) (Культура | Россия К)","update":"2021-05-31 07:14:20","iframe_src":"//2413.svetacdn.in/IAF0wWTdNYZm/movie/50705"},{"id":49147,"title":"Последние изображения кораблекрушения","kp_id":"108851","imdb_id":"tt0098732","world_art_id":null,"type":"movie","add":"2021-03-28 06:32:08","orig_title":"Últimas imágenes del naufragio","year":"1989-09-04","translations":["Авторский (одноголосый закадровый) (Чадов Михаил)","Авторский (одноголосый закадровый) (Алексеев Антон)"],"quality":"webdl","translation":"Авторский (одноголосый закадровый) (Чадов Михаил)","update":"2021-05-31 06:09:35","iframe_src":"//2413.svetacdn.in/IAF0wWTdNYZm/movie/49147"},{"id":49025,"title":"Опус мистера Холланда","kp_id":"2994","imdb_id":"tt0113862","world_art_id":null,"type":"movie","add":"2021-03-23 14:32:08","orig_title":"Mr. Holland's Opus","year":"1995-12-29","translations":["Профессиональный (двухголосый закадровый) (НТВ)","[EN] Original (English)","Авторский (одноголосый закадровый) (Володарский Леонид)"],"quality":"bd","translation":"Профессиональный (двухголосый закадровый) (НТВ)","update":"2021-05-31 07:29:04","iframe_src":"//2413.svetacdn.in/IAF0wWTdNYZm/movie/49025"},{"id":48983,"title":"Ваня с 42-й улицы","kp_id":"9913","imdb_id":"tt0111590","world_art_id":null,"type":"movie","add":"2021-03-22 04:59:40","orig_title":"Vanya on 42nd Street","year":"1994-09-10","translations":["Профессиональный (двухголосый закадровый) (СВ-Дубль)","[EN] Original (English)","Авторский (одноголосый закадровый) (Иванов Михаил)"],"quality":"bd","translation":"Профессиональный (двухголосый закадровый) (СВ-Дубль)","update":"2021-05-31 06:50:28","iframe_src":"//2413.svetacdn.in/IAF0wWTdNYZm/movie/48983"},{"id":48881,"title":"Ночной гость","kp_id":"13653","imdb_id":"tt0100254","world_art_id":null,"type":"movie","add":"2021-03-18 14:16:52","orig_title":"Night Visitor","year":"1989-05-12","translations":["Авторский (одноголосый закадровый) (Володарский Леонид)","[EN] Original (English)","Авторский (одноголосый закадровый) (Штейн Владимир)"],"quality":"bd","translation":"Авторский (одноголосый закадровый) (Володарский Леонид)","update":"2021-05-31 06:57:12","iframe_src":"//2413.svetacdn.in/IAF0wWTdNYZm/movie/48881"},{"id":47884,"title":"Начало","kp_id":"1387204","imdb_id":"tt12444572","world_art_id":null,"type":"movie","add":"2021-02-12 19:28:20","orig_title":"Beginning","year":"2020-09-11","translations":["Любительский (многоголосый закадровый) (Синема УС)","Любительский (многоголосый закадровый) (Синема УС)"],"quality":"webdl","translation":"Любительский (многоголосый закадровый) (Синема УС)","update":"2021-05-31 07:08:59","iframe_src":"//2413.svetacdn.in/IAF0wWTdNYZm/movie/47884"},{"id":30517,"title":"Безмолвная схватка","kp_id":"5532","imdb_id":"tt0111187","world_art_id":null,"type":"movie","add":"2019-09-03 13:33:07","orig_title":"Silent Fall","year":"1994-10-28","translations":["Полное дублирование (Варус-Видео)","[EN] Original (English)","Профессиональный (многоголосый закадровый) (Инис)"],"quality":"bd","translation":"Полное дублирование (Варус-Видео)","update":"2021-05-31 06:55:33","iframe_src":"//2413.svetacdn.in/IAF0wWTdNYZm/movie/30517"},{"id":13782,"title":"Сердце дракона: Начало","kp_id":"94216","imdb_id":"tt0214641","world_art_id":null,"type":"movie","add":"2017-10-08 10:04:38","orig_title":"Dragonheart: A New Beginning","year":"2000-01-01","translations":["Профессиональный (двухголосый закадровый)","[EN] Original (English)","Профессиональный (многоголосый закадровый)"],"quality":"bd","translation":"Профессиональный (двухголосый закадровый)","update":"2021-05-31 07:38:40","iframe_src":"//2413.svetacdn.in/IAF0wWTdNYZm/movie/13782"},{"id":11032,"title":"Дорога на Вэлвилл","kp_id":"9866","imdb_id":"tt0111001","world_art_id":null,"type":"movie","add":"2017-04-17 14:24:51","orig_title":"The Road to Wellville","year":"1994-10-28","translations":["Профессиональный (многоголосый закадровый)","[EN] Original (English)","Авторский (одноголосый закадровый) (Сербин Юрий)"],"quality":"bd","translation":"Профессиональный (многоголосый закадровый)","update":"2021-05-31 07:34:01","iframe_src":"//2413.svetacdn.in/IAF0wWTdNYZm/movie/11032"},{"id":8157,"title":"Темные воды","kp_id":"47238","imdb_id":"tt0308379","world_art_id":null,"type":"movie","add":"2016-12-18 16:00:41","orig_title":"Honogurai mizu no soko kara","year":"2002-01-19","translations":["Профессиональный (двухголосый закадровый)","Профессиональный (двухголосый закадровый) (НТВ)","Профессиональный (двухголосый закадровый) (Екатеринбург Арт)"],"quality":"bd","translation":"Профессиональный (двухголосый закадровый)","update":"2021-05-31 07:36:15","iframe_src":"//2413.svetacdn.in/IAF0wWTdNYZm/movie/8157"},{"id":6339,"title":"Могучие утята 3","kp_id":"23953","imdb_id":"tt0116000","world_art_id":null,"type":"movie","add":"2016-10-16 08:11:44","orig_title":"D3: The Mighty Ducks","year":"1996-10-04","translations":["Профессиональный (многоголосый закадровый)","Профессиональный (многоголосый закадровый) (Selena International)","[EN] Original (English)","Профессиональный (многоголосый закадровый) (Zone Vision Studio)"],"quality":"hdtv","translation":"Профессиональный (многоголосый закадровый)","update":"2021-05-31 07:41:06","iframe_src":"//2413.svetacdn.in/IAF0wWTdNYZm/movie/6339"},{"id":385,"title":"Белая ночь","kp_id":"904793","imdb_id":"tt4994300","world_art_id":null,"type":"serial","add":"2016-08-29 17:17:48","orig_title":"Belaya noch","year":"2015-05-09","translations":["Оригинальная дорожка"],"seasons_count":1,"episodes_count":4,"episodes":4,"update":"2016-08-30 05:45:19","iframe_src":"//2413.svetacdn.in/IAF0wWTdNYZm/tv-series/385"},{"id":384,"title":"Процесс","kp_id":"764614","imdb_id":"tt4139624","world_art_id":null,"type":"serial","add":"2016-08-29 05:32:45","orig_title":"Protsess","year":"2013-05-29","translations":["Оригинальная дорожка"],"seasons_count":1,"episodes_count":4,"episodes":4,"update":"2016-08-29 07:54:08","iframe_src":"//2413.svetacdn.in/IAF0wWTdNYZm/tv-series/384"},{"id":383,"title":"Знахарка","kp_id":"696423","imdb_id":null,"world_art_id":null,"type":"serial","add":"2016-08-29 05:28:32","orig_title":"Знахарка","year":"2012-08-25","translations":["Оригинальная дорожка"],"seasons_count":1,"episodes_count":4,"episodes":4,"update":"2016-08-29 07:10:13","iframe_src":"//2413.svetacdn.in/IAF0wWTdNYZm/tv-series/383"},{"id":382,"title":"Судья 2","kp_id":"891355","imdb_id":"tt5013792","world_art_id":null,"type":"serial","add":"2016-08-29 05:21:00","orig_title":"Sudya 2","year":"2015-02-22","translations":["Оригинальная дорожка"],"seasons_count":1,"episodes_count":4,"episodes":4,"update":"2016-08-29 07:33:45","iframe_src":"//2413.svetacdn.in/IAF0wWTdNYZm/tv-series/382"},{"id":381,"title":"Судья","kp_id":"831533","imdb_id":"tt4061936","world_art_id":null,"type":"serial","add":"2016-08-29 05:18:01","orig_title":"Sudya","year":"2014-02-16","translations":["Оригинальная дорожка"],"seasons_count":1,"episodes_count":4,"episodes":4,"update":"2016-08-29 07:35:10","iframe_src":"//2413.svetacdn.in/IAF0wWTdNYZm/tv-series/381"},{"id":380,"title":"Братаны","kp_id":"447668","imdb_id":"tt1411594","world_art_id":null,"type":"serial","add":"2016-08-29 05:13:06","orig_title":"Bratany","year":"2009-03-02","translations":["Оригинальная дорожка"],"seasons_count":1,"episodes_count":16,"episodes":16,"update":"2016-08-29 07:22:58","iframe_src":"//2413.svetacdn.in/IAF0wWTdNYZm/tv-series/380"},{"id":379,"title":"Не того поля ягода","kp_id":"994694","imdb_id":null,"world_art_id":null,"type":"serial","add":"2016-08-29 04:37:21","orig_title":"Не того поля ягода","year":"2016-08-27","translations":["Оригинальная дорожка"],"seasons_count":1,"episodes_count":4,"episodes":4,"update":"2016-08-29 06:49:39","iframe_src":"//2413.svetacdn.in/IAF0wWTdNYZm/tv-series/379"},{"id":378,"title":"Журов 2","kp_id":"464960","imdb_id":null,"world_art_id":null,"type":"serial","add":"2016-08-26 16:27:36","orig_title":"Журов 2","year":"2012-03-01","translations":["Оригинальная дорожка"],"seasons_count":1,"episodes_count":16,"episodes":16,"update":"2016-08-28 19:40:49","iframe_src":"//2413.svetacdn.in/IAF0wWTdNYZm/tv-series/378"},{"id":377,"title":"Журов","kp_id":"426297","imdb_id":"tt3322556","world_art_id":null,"type":"serial","add":"2016-08-26 16:11:54","orig_title":"Zhurov","year":"2009-11-09","translations":["Оригинальная дорожка"],"seasons_count":1,"episodes_count":16,"episodes":16,"update":"2016-08-28 16:21:08","iframe_src":"//2413.svetacdn.in/IAF0wWTdNYZm/tv-series/377"},{"id":374,"title":"Дельта","kp_id":"743170","imdb_id":"tt3205288","world_art_id":null,"type":"serial","add":"2016-08-26 08:06:36","orig_title":"Delta","year":"2013-09-16","translations":["Оригинальная дорожка"],"seasons_count":1,"episodes_count":24,"episodes":24,"update":"2016-08-29 07:35:11","iframe_src":"//2413.svetacdn.in/IAF0wWTdNYZm/tv-series/374"},{"id":373,"title":"Дельта. Продолжение","kp_id":"843446","imdb_id":null,"world_art_id":null,"type":"serial","add":"2016-08-26 08:03:21","orig_title":"Дельта. Продолжение","year":"2015-10-12","translations":["Оригинальная дорожка"],"seasons_count":1,"episodes_count":24,"episodes":24,"update":"2016-08-29 08:48:48","iframe_src":"//2413.svetacdn.in/IAF0wWTdNYZm/tv-series/373"},{"id":370,"title":"Последний ход королевы","kp_id":"916132","imdb_id":"tt5156964","world_art_id":null,"type":"serial","add":"2016-08-26 05:45:39","orig_title":"Posledniy khod korolevy","year":"2015-08-14","translations":["Оригинальная дорожка"],"seasons_count":1,"episodes_count":4,"episodes":4,"update":"2016-08-26 09:01:21","iframe_src":"//2413.svetacdn.in/IAF0wWTdNYZm/tv-series/370"},{"id":361,"title":"Приговор идеальной пары","kp_id":"957880","imdb_id":null,"world_art_id":null,"type":"serial","add":"2016-08-24 05:19:49","orig_title":"Приговор идеальной пары","year":"2015-02-13","translations":["Оригинальная дорожка"],"seasons_count":1,"episodes_count":4,"episodes":4,"update":"2016-08-24 11:26:54","iframe_src":"//2413.svetacdn.in/IAF0wWTdNYZm/tv-series/361"},{"id":360,"title":"Весной расцветает любовь","kp_id":"843065","imdb_id":"tt4516764","world_art_id":null,"type":"serial","add":"2016-08-24 05:02:45","orig_title":"Vesnoy rastsvetaet lyubov","year":"2015-02-23","translations":["Оригинальная дорожка"],"seasons_count":1,"episodes_count":20,"episodes":20,"update":"2016-08-24 12:15:00","iframe_src":"//2413.svetacdn.in/IAF0wWTdNYZm/tv-series/360"},{"id":354,"title":"Москва. Центральный округ 4","kp_id":"743218","imdb_id":"tt5006482","world_art_id":null,"type":"serial","add":"2016-08-23 04:44:11","orig_title":"Moskva. Tsentralniy okrug 4","year":"2015-01-01","translations":["Оригинальная дорожка"],"seasons_count":1,"episodes_count":18,"episodes":18,"update":"2016-08-29 05:07:04","iframe_src":"//2413.svetacdn.in/IAF0wWTdNYZm/tv-series/354"},{"id":335,"title":"Перехватчик","kp_id":"843423","imdb_id":"tt3654614","world_art_id":null,"type":"serial","add":"2016-08-15 12:36:17","orig_title":"The Interceptor","year":"2015-06-10","translations":["Профессиональный (многоголосый закадровый) (ViruseProject)"],"seasons_count":1,"episodes_count":8,"episodes":8,"update":"2016-08-22 08:39:01","iframe_src":"//2413.svetacdn.in/IAF0wWTdNYZm/tv-series/335"},{"id":334,"title":"Торчки","kp_id":"995520","imdb_id":"tt5906924","world_art_id":null,"type":"serial","add":"2016-08-14 15:44:39","orig_title":"Wasted","year":"2016-07-26","translations":["Любительский (двухголосый закадровый) (Jimmy J.)"],"seasons_count":1,"episodes_count":6,"episodes":6,"update":"2016-08-29 05:47:58","iframe_src":"//2413.svetacdn.in/IAF0wWTdNYZm/tv-series/334"},{"id":4076,"title":"Цветок моей тайны","kp_id":"16994","imdb_id":"tt0113083","world_art_id":null,"type":"movie","add":"2016-07-20 21:33:42","orig_title":"La flor de mi secreto","year":"1995-09-22","translations":["Любительский (двухголосый закадровый)","Профессиональный (двухголосый закадровый)","Профессиональный (двухголосый закадровый) (Видеоимпульс)"],"quality":"bd","translation":"Любительский (двухголосый закадровый)","update":"2021-05-31 07:24:10","iframe_src":"//2413.svetacdn.in/IAF0wWTdNYZm/movie/4076"},{"id":279,"title":"Центральная больница","kp_id":"981350","imdb_id":null,"world_art_id":null,"type":"serial","add":"2016-07-12 04:17:29","orig_title":"Центральная больница","year":"2016-01-01","translations":["Оригинальная дорожка"],"seasons_count":1,"episodes_count":60,"episodes":60,"update":"2016-08-24 08:35:35","iframe_src":"//2413.svetacdn.in/IAF0wWTdNYZm/tv-series/279"},{"id":202,"title":"Обвиняемая","kp_id":"978822","imdb_id":"tt5376862","world_art_id":null,"type":"serial","add":"2016-06-19 12:53:15","orig_title":"Guilt","year":"2016-06-13","translations":["Профессиональный (многоголосый закадровый) (NewStudio)"],"seasons_count":1,"episodes_count":10,"episodes":10,"update":"2016-08-25 07:28:37","iframe_src":"//2413.svetacdn.in/IAF0wWTdNYZm/tv-series/202"},{"id":3202,"title":"Доверься","kp_id":"25376","imdb_id":"tt0103130","world_art_id":null,"type":"movie","add":"2016-06-16 07:44:42","orig_title":"Trust","year":"1990-09-09","translations":["Любительский (одноголосый закадровый)","Авторский (одноголосый закадровый) (Есарев Дмитрий)","[EN] Original (English)","Любительский (одноголосый закадровый)"],"quality":"bd","translation":"Любительский (одноголосый закадровый)","update":"2021-05-31 06:52:03","iframe_src":"//2413.svetacdn.in/IAF0wWTdNYZm/movie/3202"},{"id":139,"title":"Лопес","kp_id":"971140","imdb_id":"tt5457178","world_art_id":null,"type":"serial","add":"2016-06-06 04:48:10","orig_title":"Lopez","year":"2016-03-30","translations":["Профессиональный (многоголосый закадровый) (KinoView)"],"seasons_count":1,"episodes_count":12,"episodes":12,"update":"2016-08-22 08:45:29","iframe_src":"//2413.svetacdn.in/IAF0wWTdNYZm/tv-series/139"},{"id":2239,"title":"Братья","kp_id":"253761","imdb_id":"tt0765010","world_art_id":null,"type":"movie","add":"2016-05-17 04:32:57","orig_title":"Brothers","year":"2009-11-22","translations":["Профессиональный (многоголосый закадровый)","Профессиональный (многоголосый закадровый) (CP Digital)","Авторский (одноголосый закадровый) (Немахов Юрий)","[EN] Original (English)"],"quality":"bd","translation":"Профессиональный (многоголосый закадровый)","update":"2021-05-31 05:57:49","iframe_src":"//2413.svetacdn.in/IAF0wWTdNYZm/movie/2239"},{"id":2187,"title":"Мой личный штат Айдахо","kp_id":"3805","imdb_id":"tt0102494","world_art_id":null,"type":"movie","add":"2016-05-15 06:37:17","orig_title":"My Own Private Idaho","year":"1991-07-20","translations":["Профессиональный (многоголосый закадровый)","Профессиональный (двухголосый закадровый) (Союз Видео)","[EN] Original (English)","Авторский (одноголосый закадровый) (Кузнецов Сергей)"],"quality":"bd","translation":"Профессиональный (многоголосый закадровый)","update":"2021-05-31 07:32:30","iframe_src":"//2413.svetacdn.in/IAF0wWTdNYZm/movie/2187"},{"id":1984,"title":"Семь лет в Тибете","kp_id":"5423","imdb_id":"tt0120102","world_art_id":null,"type":"movie","add":"2016-05-09 05:01:24","orig_title":"Seven Years in Tibet","year":"1997-09-03","translations":["Профессиональный (многоголосый закадровый)","Профессиональный (многоголосый закадровый) (Видеосервис)","[EN] Original (English)","Профессиональный (многоголосый закадровый) (Superbit)"],"quality":"bd","translation":"Профессиональный (многоголосый закадровый)","update":"2021-05-31 06:58:44","iframe_src":"//2413.svetacdn.in/IAF0wWTdNYZm/movie/1984"},{"id":1460,"title":"Сутенер","kp_id":"491850","imdb_id":"tt1437361","world_art_id":null,"type":"movie","add":"2016-04-21 15:02:16","orig_title":"Le mac","year":"2010-01-22","translations":["Полное дублирование","Профессиональный (многоголосый закадровый) (Первый канал | ОРТ)","Полное дублирование"],"quality":"bd","translation":"Полное дублирование","update":"2021-05-31 07:04:27","iframe_src":"//2413.svetacdn.in/IAF0wWTdNYZm/movie/1460"}],"current_page":611,"first_page_url":"https://videocdn.tv/api/short?limit=100&api_token=6Onb1W1alEUrBcKJZD3GoKBbWyAl2uG2&cache3611=3611&page=1","from":61001,"last_page":719,"last_page_url":"https://videocdn.tv/api/short?limit=100&api_token=6Onb1W1alEUrBcKJZD3GoKBbWyAl2uG2&cache3611=3611&page=719","next_page_url":"https://videocdn.tv/api/short?limit=100&api_token=6Onb1W1alEUrBcKJZD3GoKBbWyAl2uG2&cache3611=3611&page=612","path":"https://videocdn.tv/api/short","per_page":100,"prev_page_url":"https://videocdn.tv/api/short?limit=100&api_token=6Onb1W1alEUrBcKJZD3GoKBbWyAl2uG2&cache3611=3611&page=610","to":61040,"total":71851}