{"result":true,"data":[{"id":44477,"title":"Не оглядывайся","kp_id":"1271736","imdb_id":"tt10418846","world_art_id":null,"type":"movie","add":"2020-10-15 22:38:55","orig_title":"Don't Look Back","year":"2020-10-16","translations":["Любительский (многоголосый закадровый) (@MUZOBOZ@)"],"quality":"webdl","translation":"Любительский (многоголосый закадровый) (@MUZOBOZ@)","update":"2020-10-16 04:01:22","iframe_src":"//8543.svetacdn.in/si4jsFRrtgrT/movie/44477"},{"id":44456,"title":"Застрявшие в ловушке тьмы","kp_id":null,"imdb_id":"tt12980794","world_art_id":null,"type":"movie","add":"2020-10-15 08:51:30","orig_title":"Stuck Intrappolati nell'oscurità","year":"2020-06-20","translations":["Любительский (двухголосый закадровый) (Колобок)"],"quality":"webdl","translation":"Любительский (двухголосый закадровый) (Колобок)","update":"2020-10-15 15:06:04","iframe_src":"//8543.svetacdn.in/si4jsFRrtgrT/movie/44456"},{"id":44455,"title":"Рокамбола","kp_id":"1182480","imdb_id":"tt8790384","world_art_id":null,"type":"movie","add":"2020-10-15 08:47:34","orig_title":"Rocambola","year":"2020-06-05","translations":["Любительский (двухголосый закадровый) (Колобок)"],"quality":"webdl","translation":"Любительский (двухголосый закадровый) (Колобок)","update":"2020-10-15 12:40:01","iframe_src":"//8543.svetacdn.in/si4jsFRrtgrT/movie/44455"},{"id":44450,"title":"Гримсей","kp_id":"1109809","imdb_id":"tt6485830","world_art_id":null,"type":"movie","add":"2020-10-15 07:47:05","orig_title":"Grimsey","year":"2020-02-01","translations":["Любительский (многоголосый закадровый) (Синема УС)"],"quality":"webdl","translation":"Любительский (многоголосый закадровый) (Синема УС)","update":"2020-10-15 15:34:10","iframe_src":"//8543.svetacdn.in/si4jsFRrtgrT/movie/44450"},{"id":44381,"title":"В конце спектра","kp_id":"397221","imdb_id":"tt0782839","world_art_id":null,"type":"movie","add":"2020-10-13 11:15:33","orig_title":"Al final del espectro","year":"2006-12-15","translations":["Профессиональный (многоголосый закадровый)"],"quality":"dvdrip","translation":"Профессиональный (многоголосый закадровый)","update":"2020-10-16 07:05:26","iframe_src":"//8543.svetacdn.in/si4jsFRrtgrT/movie/44381"},{"id":44377,"title":"Я - робот","kp_id":"1164890","imdb_id":"tt8515442","world_art_id":null,"type":"movie","add":"2020-10-12 20:21:14","orig_title":"iBOT","year":"2018-11-15","translations":["Любительский (двухголосый закадровый) (Колобок)"],"quality":"webdl","translation":"Любительский (двухголосый закадровый) (Колобок)","update":"2020-10-15 19:19:05","iframe_src":"//8543.svetacdn.in/si4jsFRrtgrT/movie/44377"},{"id":44345,"title":"Новый доклад о школьницах 13: Не забывай при сексе о любви","kp_id":"102049","imdb_id":"tt0081461","world_art_id":null,"type":"movie","add":"2020-10-12 11:57:42","orig_title":"Vergiss beim Sex die Liebe nicht - Der neue Schulmädchenreport 13. Teil","year":"1980-08-14","translations":["Авторский (одноголосый закадровый) (Муравский Юрий)"],"quality":"dvdrip","translation":"Авторский (одноголосый закадровый) (Муравский Юрий)","update":"2020-10-15 08:02:20","iframe_src":"//8543.svetacdn.in/si4jsFRrtgrT/movie/44345"},{"id":44344,"title":"Доклад о школьницах 12: Если бы об этом мамочка знала","kp_id":"160277","imdb_id":"tt0078210","world_art_id":null,"type":"movie","add":"2020-10-12 11:56:26","orig_title":"Schulmädchen-Report 12. Teil - Wenn das die Mammi wüßte","year":"1978-02-03","translations":["Авторский (одноголосый закадровый) (Муравский Юрий)"],"quality":"dvdrip","translation":"Авторский (одноголосый закадровый) (Муравский Юрий)","update":"2020-10-15 08:01:32","iframe_src":"//8543.svetacdn.in/si4jsFRrtgrT/movie/44344"},{"id":44343,"title":"Доклад о школьницах 11: Опыт лучший учитель","kp_id":"155763","imdb_id":"tt0076672","world_art_id":null,"type":"movie","add":"2020-10-12 11:55:11","orig_title":"Schulmädchen-Report 11. Teil - Probieren geht über Studieren","year":"1977-03-24","translations":["Авторский (одноголосый закадровый) (Муравский Юрий)"],"quality":"dvdrip","translation":"Авторский (одноголосый закадровый) (Муравский Юрий)","update":"2020-10-15 08:00:44","iframe_src":"//8543.svetacdn.in/si4jsFRrtgrT/movie/44343"},{"id":44342,"title":"Доклад о школьницах 10: Когда-нибудь это случается с каждой","kp_id":"102110","imdb_id":"tt0075172","world_art_id":null,"type":"movie","add":"2020-10-12 11:54:04","orig_title":"Schulmädchen-Report 10. Teil - Irgendwann fängt jede an","year":"1976-03-01","translations":["Авторский (одноголосый закадровый) (Муравский Юрий)"],"quality":"dvdrip","translation":"Авторский (одноголосый закадровый) (Муравский Юрий)","update":"2020-10-15 07:59:49","iframe_src":"//8543.svetacdn.in/si4jsFRrtgrT/movie/44342"},{"id":44341,"title":"Доклад о школьницах 9: Жизненный экзамен перед выпускными","kp_id":"218140","imdb_id":"tt0073668","world_art_id":null,"type":"movie","add":"2020-10-12 11:52:02","orig_title":"Schulmädchen-Report. 9. Teil: Reifeprüfung vor dem Abitur","year":"1975-08-22","translations":["Авторский (одноголосый закадровый) (Муравский Юрий)"],"quality":"dvdrip","translation":"Авторский (одноголосый закадровый) (Муравский Юрий)","update":"2020-10-15 07:59:23","iframe_src":"//8543.svetacdn.in/si4jsFRrtgrT/movie/44341"},{"id":44340,"title":"Доклад о школьницах 8: Что родители не должны знать","kp_id":"233490","imdb_id":"tt0072125","world_art_id":null,"type":"movie","add":"2020-10-12 11:50:21","orig_title":"Schulmädchen-Report 8. Teil - Was Eltern nie erfahren dürfen","year":"1974-11-28","translations":["Авторский (одноголосый закадровый) (Муравский Юрий)"],"quality":"dvdrip","translation":"Авторский (одноголосый закадровый) (Муравский Юрий)","update":"2020-10-15 07:58:39","iframe_src":"//8543.svetacdn.in/si4jsFRrtgrT/movie/44340"},{"id":44339,"title":"Доклад о школьницах 7: Все должно быть по любви","kp_id":"91873","imdb_id":"tt0072124","world_art_id":null,"type":"movie","add":"2020-10-12 11:49:00","orig_title":"Schulmädchen-Report 7. Teil - Doch das Herz muß dabei sein","year":"1974-04-25","translations":["Авторский (одноголосый закадровый) (Муравский Юрий)"],"quality":"dvdrip","translation":"Авторский (одноголосый закадровый) (Муравский Юрий)","update":"2020-10-15 07:57:40","iframe_src":"//8543.svetacdn.in/si4jsFRrtgrT/movie/44339"},{"id":41854,"title":"Летние игры","kp_id":"3624","imdb_id":"tt0234829","world_art_id":null,"type":"movie","add":"2020-07-18 10:33:53","orig_title":"Summer Catch","year":"2001-08-22","translations":["Профессиональный (многоголосый закадровый) (Инис)","Профессиональный (многоголосый закадровый) (Мост-Видео)","Original (English)"],"quality":"webdl","translation":"Профессиональный (многоголосый закадровый) (Инис)","update":"2020-10-15 07:58:17","iframe_src":"//8543.svetacdn.in/si4jsFRrtgrT/movie/41854"},{"id":5846,"title":"Везунчик","kp_id":"666767","imdb_id":"tt2229167","world_art_id":null,"type":"serial","add":"2019-11-26 12:04:39","orig_title":"Golden Boy","year":"2013-02-26","translations":["Профессиональный (многоголосый закадровый) (FOX)"],"seasons_count":1,"episodes_count":13,"episodes":13,"update":"2019-11-27 07:19:14","iframe_src":"//8543.svetacdn.in/si4jsFRrtgrT/tv-series/5846"},{"id":5842,"title":"Стреляющие горы","kp_id":"565125","imdb_id":"tt6100126","world_art_id":null,"type":"serial","add":"2019-11-26 11:18:08","orig_title":"Strelyayuschiye gory","year":"2011-06-21","translations":["Оригинальная дорожка"],"seasons_count":1,"episodes_count":4,"episodes":4,"update":"2019-11-26 12:45:39","iframe_src":"//8543.svetacdn.in/si4jsFRrtgrT/tv-series/5842"},{"id":5841,"title":"Неслучайная встреча","kp_id":"815133","imdb_id":"tt4039902","world_art_id":null,"type":"serial","add":"2019-11-26 11:08:06","orig_title":"Nesluchaynaya vstrecha","year":"2014-01-01","translations":["Оригинальная дорожка"],"seasons_count":1,"episodes_count":8,"episodes":8,"update":"2019-11-26 12:43:25","iframe_src":"//8543.svetacdn.in/si4jsFRrtgrT/tv-series/5841"},{"id":5837,"title":"Узел","kp_id":"957541","imdb_id":"tt5303668","world_art_id":null,"type":"serial","add":"2019-11-25 16:27:09","orig_title":"Kördügüm","year":"2016-01-07","translations":["Профессиональный (многоголосый закадровый)"],"seasons_count":2,"episodes_count":31,"episodes":5,"update":"2019-11-26 11:51:11","iframe_src":"//8543.svetacdn.in/si4jsFRrtgrT/tv-series/5837"},{"id":5836,"title":"Опасная любовь","kp_id":"648656","imdb_id":"tt1584905","world_art_id":null,"type":"serial","add":"2019-11-25 16:14:00","orig_title":"Samanyolu","year":"2009-12-01","translations":["Профессиональный (двухголосый закадровый)"],"seasons_count":1,"episodes_count":29,"episodes":29,"update":"2019-11-26 12:28:01","iframe_src":"//8543.svetacdn.in/si4jsFRrtgrT/tv-series/5836"},{"id":5835,"title":"Труффальдино из Бергамо","kp_id":"77339","imdb_id":"tt0281303","world_art_id":null,"type":"serial","add":"2019-11-25 13:33:22","orig_title":"Truffaldino iz Bergamo","year":"1977-08-27","translations":["Оригинальная дорожка"],"seasons_count":1,"episodes_count":2,"episodes":2,"update":"2019-11-25 21:10:51","iframe_src":"//8543.svetacdn.in/si4jsFRrtgrT/tv-series/5835"},{"id":5834,"title":"Домашние коты","kp_id":"466358","imdb_id":"tt1056456","world_art_id":null,"type":"serial","add":"2019-11-25 13:27:29","orig_title":"Slacker Cats","year":"2007-08-13","translations":["Профессиональный (многоголосый закадровый) (2x2)"],"seasons_count":2,"episodes_count":12,"episodes":6,"update":"2019-11-26 21:55:51","iframe_src":"//8543.svetacdn.in/si4jsFRrtgrT/tv-series/5834"},{"id":5828,"title":"Быть человеком","kp_id":"447445","imdb_id":"tt1349938","world_art_id":null,"type":"serial","add":"2019-11-25 11:29:16","orig_title":"Being Human","year":"2008-02-18","translations":["Профессиональный (многоголосый закадровый) (ТВ3)","Профессиональный (многоголосый закадровый)","Профессиональный (одноголосый закадровый)","Профессиональный (двухголосый закадровый)","Любительский (многоголосый закадровый) (Dream Records)"],"seasons_count":5,"episodes_count":36,"episodes":6,"update":"2019-11-26 10:06:48","iframe_src":"//8543.svetacdn.in/si4jsFRrtgrT/tv-series/5828"},{"id":5827,"title":"Заложники","kp_id":"838539","imdb_id":"tt3242480","world_art_id":null,"type":"serial","add":"2019-11-25 07:19:36","orig_title":"Bnei Aruba","year":"2013-10-13","translations":["Профессиональный (двухголосый закадровый) (ViruseProject)"],"seasons_count":1,"episodes_count":8,"episodes":8,"update":"2019-11-25 21:28:42","iframe_src":"//8543.svetacdn.in/si4jsFRrtgrT/tv-series/5827"},{"id":5810,"title":"Черный пират","kp_id":"439607","imdb_id":"tt4741296","world_art_id":null,"type":"serial","add":"2019-11-22 22:15:26","orig_title":"The Black Corsair","year":"1998-01-01","translations":["Полное дублирование"],"seasons_count":1,"episodes_count":26,"episodes":26,"update":"2019-11-26 07:35:49","iframe_src":"//8543.svetacdn.in/si4jsFRrtgrT/tv-series/5810"},{"id":5799,"title":"Проклятый рай","kp_id":"417833","imdb_id":"tt4178652","world_art_id":null,"type":"serial","add":"2019-11-21 20:27:45","orig_title":"Proklyatyy ray","year":"2006-01-01","translations":["Оригинальная дорожка"],"seasons_count":2,"episodes_count":96,"episodes":48,"update":"2019-11-26 21:39:40","iframe_src":"//8543.svetacdn.in/si4jsFRrtgrT/tv-series/5799"},{"id":5784,"title":"Низкое зимнее солнце","kp_id":"694942","imdb_id":"tt2314792","world_art_id":null,"type":"serial","add":"2019-11-20 16:06:38","orig_title":"Low Winter Sun","year":"2013-08-11","translations":["Профессиональный (многоголосый закадровый) (NewStudio)"],"seasons_count":1,"episodes_count":9,"episodes":9,"update":"2019-11-26 07:30:26","iframe_src":"//8543.svetacdn.in/si4jsFRrtgrT/tv-series/5784"},{"id":5783,"title":"Лотерея","kp_id":"807441","imdb_id":"tt3314228","world_art_id":null,"type":"serial","add":"2019-11-20 16:02:42","orig_title":"The Lottery","year":"2014-07-20","translations":["Профессиональный (многоголосый закадровый) (ViruseProject)"],"seasons_count":1,"episodes_count":10,"episodes":10,"update":"2019-11-26 07:16:27","iframe_src":"//8543.svetacdn.in/si4jsFRrtgrT/tv-series/5783"},{"id":5742,"title":"Нобель: Мир любой ценой","kp_id":"1007535","imdb_id":"tt4591834","world_art_id":null,"type":"serial","add":"2019-11-13 13:49:34","orig_title":"Nobel","year":"2016-09-25","translations":["Полное дублирование (True Dubbing Studio)"],"seasons_count":1,"episodes_count":8,"episodes":8,"update":"2019-11-26 08:06:18","iframe_src":"//8543.svetacdn.in/si4jsFRrtgrT/tv-series/5742"},{"id":5489,"title":"Зара: тяжёлые времена","kp_id":"1199827","imdb_id":"tt6756488","world_art_id":null,"type":"serial","add":"2019-10-17 22:35:28","orig_title":"Zarah: Wilde Jahre","year":"2017-08-24","translations":["Профессиональный (одноголосый закадровый) (Sound Film)"],"seasons_count":1,"episodes_count":6,"episodes":6,"update":"2019-11-25 22:01:14","iframe_src":"//8543.svetacdn.in/si4jsFRrtgrT/tv-series/5489"},{"id":5102,"title":"Все существа, большие и малые","kp_id":"229725","imdb_id":"tt0075472","world_art_id":null,"type":"serial","add":"2019-08-27 08:04:58","orig_title":"All Creatures Great and Small","year":"1978-01-08","translations":["Любительский (двухголосый закадровый)","Любительский (многоголосый закадровый) (ColdFilm)"],"seasons_count":2,"episodes_count":15,"episodes":3,"update":"2019-11-27 00:48:57","iframe_src":"//8543.svetacdn.in/si4jsFRrtgrT/tv-series/5102"},{"id":4697,"title":"Повсюду ты","kp_id":"1265739","imdb_id":"tt10319866","world_art_id":null,"type":"serial","add":"2019-06-18 10:26:18","orig_title":"Her Yerde Sen","year":"2019-06-14","translations":["Любительский (одноголосый закадровый)"],"seasons_count":1,"episodes_count":23,"episodes":23,"update":"2019-11-26 06:45:51","iframe_src":"//8543.svetacdn.in/si4jsFRrtgrT/tv-series/4697"},{"id":4445,"title":"Отель Толедо","kp_id":"1185932","imdb_id":null,"world_art_id":null,"type":"serial","add":"2019-05-03 17:20:31","orig_title":"Отель Толедо","year":"2019-05-03","translations":["Оригинальная дорожка"],"seasons_count":1,"episodes_count":4,"episodes":4,"update":"2019-11-25 21:27:14","iframe_src":"//8543.svetacdn.in/si4jsFRrtgrT/tv-series/4445"},{"id":3342,"title":"Вьетнам","kp_id":"775289","imdb_id":"tt1877514","world_art_id":null,"type":"serial","add":"2018-10-20 11:01:03","orig_title":"The Vietnam War","year":"2017-09-17","translations":["Любительский (двухголосый закадровый) (GoldTeam)"],"seasons_count":1,"episodes_count":10,"episodes":10,"update":"2019-11-26 08:06:14","iframe_src":"//8543.svetacdn.in/si4jsFRrtgrT/tv-series/3342"},{"id":1682,"title":"9J, 9K и 9L","kp_id":"1040694","imdb_id":"tt6461794","world_art_id":null,"type":"serial","add":"2017-10-27 05:46:03","orig_title":"9JKL","year":"2017-10-02","translations":["Профессиональный (многоголосый закадровый) (IdeaFilm)","Профессиональный (многоголосый закадровый) (TVShows)"],"seasons_count":1,"episodes_count":16,"episodes":16,"update":"2019-11-26 06:21:13","iframe_src":"//8543.svetacdn.in/si4jsFRrtgrT/tv-series/1682"},{"id":7454,"title":"Стеклянный дом","kp_id":"4303","imdb_id":"tt0221218","world_art_id":null,"type":"movie","add":"2016-11-15 05:20:10","orig_title":"The Glass House","year":"2001-09-14","translations":["Профессиональный (многоголосый закадровый)","Профессиональный (двухголосый закадровый) (Видеосервис)","Профессиональный (многоголосый закадровый) (Первый канал | ОРТ)","Профессиональный (многоголосый закадровый)","Профессиональный (двухголосый закадровый) (Garsu Pasaulis)","Авторский (одноголосый закадровый) (Визгунов Сергей)","Авторский (одноголосый закадровый) (Карповский Антон)","Original (English)"],"quality":"webdl","translation":"Профессиональный (многоголосый закадровый)","update":"2020-10-15 08:00:12","iframe_src":"//8543.svetacdn.in/si4jsFRrtgrT/movie/7454"},{"id":7021,"title":"Обкуренные","kp_id":"18254","imdb_id":"tt0111293","world_art_id":null,"type":"movie","add":"2016-11-03 13:06:05","orig_title":"The Stöned Age","year":"1994-12-05","translations":["Профессиональный (многоголосый закадровый)","Профессиональный (многоголосый закадровый)","Авторский (одноголосый закадровый) (Володарский Леонид)","Авторский (одноголосый закадровый) (Санаев Павел)","Авторский (одноголосый закадровый) (Дохалов Вартан)","Original (English)"],"quality":"webdl","translation":"Профессиональный (многоголосый закадровый)","update":"2020-10-15 08:01:00","iframe_src":"//8543.svetacdn.in/si4jsFRrtgrT/movie/7021"},{"id":4443,"title":"Пробуждая мертвецов","kp_id":"874","imdb_id":"tt0127349","world_art_id":null,"type":"movie","add":"2016-08-16 09:11:13","orig_title":"Waking the Dead","year":"2000-03-24","translations":["Любительский (многоголосый закадровый)","Профессиональный (двухголосый закадровый) (West Video)","Профессиональный (многоголосый закадровый) (Первый канал | ОРТ)","Original (English)"],"quality":"bd","translation":"Любительский (многоголосый закадровый)","update":"2020-10-15 08:01:58","iframe_src":"//8543.svetacdn.in/si4jsFRrtgrT/movie/4443"},{"id":3769,"title":"Обвиняемые","kp_id":"9842","imdb_id":"tt0094608","world_art_id":null,"type":"movie","add":"2016-07-07 13:21:33","orig_title":"The Accused","year":"1988-10-14","translations":["Профессиональный (двухголосый закадровый)","Профессиональный (двухголосый закадровый) (НТВ)","Авторский (одноголосый закадровый) (Гаврилов Андрей)","Профессиональный (двухголосый закадровый)","Профессиональный (многоголосый закадровый) (СТС)","Original (English)"],"quality":"webdl","translation":"Профессиональный (двухголосый закадровый)","update":"2020-10-15 07:58:56","iframe_src":"//8543.svetacdn.in/si4jsFRrtgrT/movie/3769"},{"id":1879,"title":"Армагеддон","kp_id":"2941","imdb_id":"tt0120591","world_art_id":null,"type":"movie","add":"2016-05-05 11:52:41","orig_title":"Armageddon","year":"1998-06-30","translations":["Полное дублирование","Авторский (одноголосый закадровый) (Гаврилов Андрей)","Авторский (одноголосый закадровый) (Сербин Юрий)","Авторский (одноголосый закадровый) (Визгунов Сергей)","Полное дублирование","Original (English)","Профессиональный (многоголосый закадровый) (Киномания)","Профессиональный (многоголосый закадровый) (Первый канал | ОРТ)","Профессиональный (многоголосый закадровый) (Superbit)"],"quality":"bd","translation":"Полное дублирование","update":"2020-10-16 12:24:20","iframe_src":"//8543.svetacdn.in/si4jsFRrtgrT/movie/1879"},{"id":656,"title":"Пятый элемент","kp_id":"2656","imdb_id":"tt0119116","world_art_id":null,"type":"movie","add":"2016-04-05 19:37:40","orig_title":"The Fifth Element","year":"1997-05-07","translations":["Полное дублирование","Original (English)","Авторский (одноголосый закадровый) (Яроцкий Михаил | Kyberpunk)","Авторский (одноголосый закадровый) (Гаврилов Андрей)","Авторский (одноголосый закадровый) (Живов Юрий)","Полное дублирование (НТВ)","Original (English)","Любительский (одноголосый закадровый) (Антонов Николай)","Профессиональный (двухголосый закадровый) (Гланц + Королёва)","Профессиональный (многоголосый закадровый) (СТС)"],"quality":"bd","translation":"Полное дублирование","update":"2020-10-16 12:13:13","iframe_src":"//8543.svetacdn.in/si4jsFRrtgrT/movie/656"}],"current_page":269,"first_page_url":"https://videocdn.tv/api/short?limit=100&api_token=X6EwAUfE5M9xbo7y0Bp0aPf3uXxG2KLL&cache2269=2269&page=1","from":26801,"last_page":596,"last_page_url":"https://videocdn.tv/api/short?limit=100&api_token=X6EwAUfE5M9xbo7y0Bp0aPf3uXxG2KLL&cache2269=2269&page=596","next_page_url":"https://videocdn.tv/api/short?limit=100&api_token=X6EwAUfE5M9xbo7y0Bp0aPf3uXxG2KLL&cache2269=2269&page=270","path":"https://videocdn.tv/api/short","per_page":100,"prev_page_url":"https://videocdn.tv/api/short?limit=100&api_token=X6EwAUfE5M9xbo7y0Bp0aPf3uXxG2KLL&cache2269=2269&page=268","to":26840,"total":59506}