{"result":true,"data":[{"id":44060,"title":"Для тех, кто не читает меня","kp_id":"1220305","imdb_id":"tt9327584","world_art_id":null,"type":"movie","add":"2020-10-02 07:55:46","orig_title":"À tous ceux qui ne me lisent pas","year":"2018-11-23","translations":["Любительский (многоголосый закадровый) (Синема УС)"],"quality":"webdl","translation":"Любительский (многоголосый закадровый) (Синема УС)","update":"2020-10-02 11:11:54","iframe_src":"//83.svetacdn.in/PfJ50H0ZBPg3/movie/44060"},{"id":44058,"title":"Лондон Конфеденциально","kp_id":"1402962","imdb_id":"tt12929738","world_art_id":null,"type":"movie","add":"2020-10-01 22:14:28","orig_title":"London Confidental","year":"2020-09-18","translations":["Любительский (двухголосый закадровый) (OnisFilms)"],"quality":"webdl","translation":"Любительский (двухголосый закадровый) (OnisFilms)","update":"2020-10-02 07:22:35","iframe_src":"//83.svetacdn.in/PfJ50H0ZBPg3/movie/44058"},{"id":44054,"title":"Черкассы","kp_id":"1115313","imdb_id":null,"world_art_id":null,"type":"movie","add":"2020-10-01 20:18:55","orig_title":"Cherkassy","year":"2020-01-01","translations":["Оригинальная дорожка"],"quality":"webdl","translation":"Оригинальная дорожка","update":"2020-10-02 05:53:58","iframe_src":"//83.svetacdn.in/PfJ50H0ZBPg3/movie/44054"},{"id":44031,"title":"Все обо мне","kp_id":"6823","imdb_id":"tt0118586","world_art_id":null,"type":"movie","add":"2020-10-01 11:34:55","orig_title":"All Over Me","year":"1997-02-01","translations":["Авторский (одноголосый закадровый) (Карцев Пётр)"],"quality":"dvdrip","translation":"Авторский (одноголосый закадровый) (Карцев Пётр)","update":"2020-10-02 07:26:25","iframe_src":"//83.svetacdn.in/PfJ50H0ZBPg3/movie/44031"},{"id":44030,"title":"Восстание","kp_id":"144070","imdb_id":"tt0312647","world_art_id":null,"type":"movie","add":"2020-10-01 11:29:39","orig_title":"Dôran","year":"1980-01-15","translations":["Любительский (двухголосый закадровый)"],"quality":"bd","translation":"Любительский (двухголосый закадровый)","update":"2020-10-02 07:25:00","iframe_src":"//83.svetacdn.in/PfJ50H0ZBPg3/movie/44030"},{"id":44029,"title":"Агент президента","kp_id":"3189","imdb_id":"tt0029662","world_art_id":null,"type":"movie","add":"2020-10-01 11:27:41","orig_title":"This Is My Affair","year":"1937-05-27","translations":["Профессиональный (одноголосый закадровый)"],"quality":"dvdrip","translation":"Профессиональный (одноголосый закадровый)","update":"2020-10-01 16:05:13","iframe_src":"//83.svetacdn.in/PfJ50H0ZBPg3/movie/44029"},{"id":44028,"title":"Запрещённые игры","kp_id":"159019","imdb_id":"tt0043686","world_art_id":null,"type":"movie","add":"2020-10-01 08:33:05","orig_title":"Jeux interdits","year":"1952-05-09","translations":["Авторский (одноголосый закадровый) (Сербин Юрий)"],"quality":"bd","translation":"Авторский (одноголосый закадровый) (Сербин Юрий)","update":"2020-10-01 12:03:34","iframe_src":"//83.svetacdn.in/PfJ50H0ZBPg3/movie/44028"},{"id":44027,"title":"Ответ","kp_id":"1239307","imdb_id":"tt9654830","world_art_id":null,"type":"movie","add":"2020-10-01 07:11:47","orig_title":"The Answer","year":"2018-11-11","translations":["Любительский (многоголосый закадровый) (Синема УС)"],"quality":"webdl","translation":"Любительский (многоголосый закадровый) (Синема УС)","update":"2020-10-01 17:20:56","iframe_src":"//83.svetacdn.in/PfJ50H0ZBPg3/movie/44027"},{"id":44026,"title":"Спираль","kp_id":"1213815","imdb_id":"tt9247314","world_art_id":null,"type":"movie","add":"2020-10-01 07:10:45","orig_title":"Spiral","year":"2019-08-25","translations":["Любительский (многоголосый закадровый) (Синема УС)"],"quality":"webdl","translation":"Любительский (многоголосый закадровый) (Синема УС)","update":"2020-10-01 12:06:55","iframe_src":"//83.svetacdn.in/PfJ50H0ZBPg3/movie/44026"},{"id":44025,"title":"Кошмарный отпуск","kp_id":"1189212","imdb_id":"tt8917930","world_art_id":null,"type":"movie","add":"2020-10-01 07:07:40","orig_title":"This Teacher","year":"2018-09-22","translations":["Любительский (многоголосый закадровый) (Синема УС)"],"quality":"webdl","translation":"Любительский (многоголосый закадровый) (Синема УС)","update":"2020-10-01 12:05:27","iframe_src":"//83.svetacdn.in/PfJ50H0ZBPg3/movie/44025"},{"id":44024,"title":"Прогулка с собакой","kp_id":"1008992","imdb_id":"tt6439776","world_art_id":null,"type":"movie","add":"2020-10-01 07:05:52","orig_title":"Walking the Dog","year":"2017-02-04","translations":["Любительский (многоголосый закадровый) (Синема УС)"],"quality":"hdtv","translation":"Любительский (многоголосый закадровый) (Синема УС)","update":"2020-10-01 12:02:34","iframe_src":"//83.svetacdn.in/PfJ50H0ZBPg3/movie/44024"},{"id":44022,"title":"Мастер и Маргарита","kp_id":"62719","imdb_id":"tt0068894","world_art_id":null,"type":"movie","add":"2020-10-01 06:46:51","orig_title":"Majstor i Margarita","year":"1972-07-15","translations":["Любительский (одноголосый закадровый)"],"quality":"bd","translation":"Любительский (одноголосый закадровый)","update":"2020-10-01 15:05:03","iframe_src":"//83.svetacdn.in/PfJ50H0ZBPg3/movie/44022"},{"id":44021,"title":"Котел","kp_id":"1019273","imdb_id":"tt6088258","world_art_id":null,"type":"movie","add":"2020-10-01 06:37:07","orig_title":"Kotyol","year":"2019-11-24","translations":["Оригинальная дорожка"],"quality":"webdl","translation":"Оригинальная дорожка","update":"2020-10-01 10:13:39","iframe_src":"//83.svetacdn.in/PfJ50H0ZBPg3/movie/44021"},{"id":43378,"title":"Шугалей 2","kp_id":"1392589","imdb_id":null,"world_art_id":null,"type":"movie","add":"2020-09-10 10:11:47","orig_title":"Shugaley 2","year":"2020-08-10","translations":["Оригинальная дорожка","Оригинальная дорожка"],"quality":"hdtv","translation":"Оригинальная дорожка","update":"2020-10-01 10:37:20","iframe_src":"//83.svetacdn.in/PfJ50H0ZBPg3/movie/43378"},{"id":42877,"title":"Красотка в ударе","kp_id":"1291182","imdb_id":"tt10943214","world_art_id":null,"type":"movie","add":"2020-08-28 13:35:17","orig_title":"Krasotka!","year":"2020-08-13","translations":["Оригинальная дорожка","Оригинальная дорожка"],"quality":"ts","translation":"Оригинальная дорожка","update":"2020-10-01 09:43:16","iframe_src":"//83.svetacdn.in/PfJ50H0ZBPg3/movie/42877"},{"id":18470,"title":"На скамейке запасных","kp_id":"920231","imdb_id":"tt4779344","world_art_id":null,"type":"movie","add":"2018-08-22 00:10:06","orig_title":"Rounding Third","year":"2018-08-17","translations":["Любительский (многоголосый закадровый) (Синема УС)","Профессиональный (многоголосый закадровый) (HDrezka Studio)"],"quality":"webdl","translation":"Любительский (многоголосый закадровый) (Синема УС)","update":"2020-10-01 09:08:45","iframe_src":"//83.svetacdn.in/PfJ50H0ZBPg3/movie/18470"},{"id":3004,"title":"Синдром Шахматиста","kp_id":"805190","imdb_id":null,"world_art_id":null,"type":"serial","add":"2018-08-07 07:57:48","orig_title":"Синдром Шахматиста","year":"2014-02-06","translations":["Оригинальная дорожка"],"seasons_count":1,"episodes_count":4,"episodes":4,"update":"2018-08-08 07:44:58","iframe_src":"//83.svetacdn.in/PfJ50H0ZBPg3/tv-series/3004"},{"id":3003,"title":"12 смертельных дней","kp_id":"1008358","imdb_id":"tt6131454","world_art_id":null,"type":"serial","add":"2018-08-06 09:17:26","orig_title":"12 Deadly Days","year":"2016-12-12","translations":["Любительский (двухголосый закадровый) (GoldTeam)"],"seasons_count":1,"episodes_count":12,"episodes":12,"update":"2018-08-07 07:15:18","iframe_src":"//83.svetacdn.in/PfJ50H0ZBPg3/tv-series/3003"},{"id":2995,"title":"Декалог","kp_id":"94660","imdb_id":"tt0092337","world_art_id":null,"type":"serial","add":"2018-08-03 16:10:02","orig_title":"Dekalog","year":"1989-05-16","translations":["Профессиональный (многоголосый закадровый) (Неоклассика)"],"seasons_count":1,"episodes_count":10,"episodes":10,"update":"2018-08-07 11:02:36","iframe_src":"//83.svetacdn.in/PfJ50H0ZBPg3/tv-series/2995"},{"id":2991,"title":"С корабля на бал","kp_id":"736108","imdb_id":"tt2640464","world_art_id":null,"type":"serial","add":"2018-08-03 05:49:17","orig_title":"Sheng Nu De Dai Jia","year":"2012-07-15","translations":["Любительский (одноголосый закадровый) (GREEN TEA)"],"seasons_count":1,"episodes_count":33,"episodes":33,"update":"2018-08-03 10:40:23","iframe_src":"//83.svetacdn.in/PfJ50H0ZBPg3/tv-series/2991"},{"id":2990,"title":"Личное пространство","kp_id":"1043622","imdb_id":null,"world_art_id":null,"type":"serial","add":"2018-08-03 05:27:30","orig_title":"Личное пространство","year":"2018-08-02","translations":["Оригинальная дорожка"],"seasons_count":1,"episodes_count":4,"episodes":4,"update":"2018-08-03 07:51:35","iframe_src":"//83.svetacdn.in/PfJ50H0ZBPg3/tv-series/2990"},{"id":2989,"title":"Планета людей","kp_id":"591822","imdb_id":"tt1806234","world_art_id":null,"type":"serial","add":"2018-08-02 12:13:36","orig_title":"Human Planet","year":"2011-01-13","translations":["Авторский (одноголосый закадровый) (Курдов Владимир)"],"seasons_count":1,"episodes_count":8,"episodes":8,"update":"2018-08-08 10:53:43","iframe_src":"//83.svetacdn.in/PfJ50H0ZBPg3/tv-series/2989"},{"id":2986,"title":"Рыцарь дорог","kp_id":"409225","imdb_id":"tt1213404","world_art_id":null,"type":"serial","add":"2018-08-01 18:50:31","orig_title":"Knight Rider","year":"2010-10-04","translations":["Профессиональный (многоголосый закадровый) (СТС)"],"seasons_count":1,"episodes_count":18,"episodes":18,"update":"2018-08-02 07:36:43","iframe_src":"//83.svetacdn.in/PfJ50H0ZBPg3/tv-series/2986"},{"id":2983,"title":"Ешь. Гони. Побеждай.","kp_id":"1162858","imdb_id":"tt7985540","world_art_id":null,"type":"serial","add":"2018-07-31 19:42:12","orig_title":"Eat. Race. Win.","year":"2018-07-27","translations":["Любительский (двухголосый закадровый) (Sunshine Studio)"],"seasons_count":1,"episodes_count":6,"episodes":6,"update":"2018-08-01 10:45:02","iframe_src":"//83.svetacdn.in/PfJ50H0ZBPg3/tv-series/2983"},{"id":2965,"title":"Звездный путь","kp_id":"229272","imdb_id":"tt0060028","world_art_id":null,"type":"serial","add":"2018-07-25 10:44:10","orig_title":"Star Trek","year":"1966-09-08","translations":["Профессиональный (многоголосый закадровый)"],"seasons_count":3,"episodes_count":80,"episodes":24,"update":"2018-08-03 09:03:35","iframe_src":"//83.svetacdn.in/PfJ50H0ZBPg3/tv-series/2965"},{"id":2964,"title":"Правительство","kp_id":"678750","imdb_id":"tt1526318","world_art_id":null,"type":"serial","add":"2018-07-25 10:34:12","orig_title":"Borgen","year":"2010-09-26","translations":["Профессиональный (многоголосый закадровый) (BaibaKo)"],"seasons_count":3,"episodes_count":30,"episodes":10,"update":"2018-08-03 09:38:35","iframe_src":"//83.svetacdn.in/PfJ50H0ZBPg3/tv-series/2964"},{"id":2958,"title":"Алхимик. Эликсир Фауста","kp_id":"826753","imdb_id":null,"world_art_id":null,"type":"serial","add":"2018-07-24 16:14:36","orig_title":"Алхимик. Эликсир Фауста","year":"2015-02-24","translations":["Оригинальная дорожка"],"seasons_count":1,"episodes_count":12,"episodes":12,"update":"2018-08-02 08:26:23","iframe_src":"//83.svetacdn.in/PfJ50H0ZBPg3/tv-series/2958"},{"id":2946,"title":"Инструкция по разводу для женщин","kp_id":"751623","imdb_id":"tt2817246","world_art_id":null,"type":"serial","add":"2018-07-20 06:48:39","orig_title":"Girlfriends' Guide to Divorce","year":"2014-12-02","translations":["Любительский (двухголосый закадровый) (Jetvis Studio)","Любительский (двухголосый закадровый) (GoldTeam)","Профессиональный (многоголосый закадровый) (Jaskier)"],"seasons_count":5,"episodes_count":44,"episodes":5,"update":"2018-07-31 12:51:56","iframe_src":"//83.svetacdn.in/PfJ50H0ZBPg3/tv-series/2946"},{"id":2945,"title":"Вок любви","kp_id":"1113000","imdb_id":"tt8236528","world_art_id":null,"type":"serial","add":"2018-07-19 15:21:04","orig_title":"Gireumjin Mello","year":"2018-05-07","translations":["Любительский (двухголосый закадровый) (HighHopes)"],"seasons_count":1,"episodes_count":38,"episodes":38,"update":"2018-08-01 20:03:16","iframe_src":"//83.svetacdn.in/PfJ50H0ZBPg3/tv-series/2945"},{"id":2934,"title":"Комики за рулём в поисках кофе","kp_id":"925890","imdb_id":"tt2314952","world_art_id":null,"type":"serial","add":"2018-07-16 10:54:19","orig_title":"Comedians in Cars Getting Coffee","year":"2012-07-19","translations":["Любительский (двухголосый закадровый) (Hamster Studio)"],"seasons_count":1,"episodes_count":12,"episodes":12,"update":"2018-08-06 08:54:49","iframe_src":"//83.svetacdn.in/PfJ50H0ZBPg3/tv-series/2934"},{"id":2835,"title":"XIII: Заговор","kp_id":"404164","imdb_id":"tt1117667","world_art_id":null,"type":"serial","add":"2018-06-18 08:44:44","orig_title":"XIII: The Movie","year":"2008-10-06","translations":["Профессиональный (многоголосый закадровый)"],"seasons_count":1,"episodes_count":1,"episodes":1,"update":"2018-08-06 07:14:31","iframe_src":"//83.svetacdn.in/PfJ50H0ZBPg3/tv-series/2835"},{"id":2828,"title":"Туманный","kp_id":"1047638","imdb_id":"tt7890244","world_art_id":null,"type":"serial","add":"2018-06-17 20:59:02","orig_title":"Miseuti","year":"2018-02-02","translations":["Любительский (одноголосый закадровый)"],"seasons_count":1,"episodes_count":13,"episodes":13,"update":"2018-08-06 13:19:42","iframe_src":"//83.svetacdn.in/PfJ50H0ZBPg3/tv-series/2828"},{"id":2755,"title":"Диетлэнд","kp_id":"1118434","imdb_id":"tt5869202","world_art_id":null,"type":"serial","add":"2018-06-06 11:31:44","orig_title":"Dietland","year":"2018-06-04","translations":["Любительский (двухголосый закадровый) (Sunshine Studio)","Профессиональный (многоголосый закадровый) (NewStudio)"],"seasons_count":1,"episodes_count":10,"episodes":10,"update":"2018-08-07 07:42:26","iframe_src":"//83.svetacdn.in/PfJ50H0ZBPg3/tv-series/2755"},{"id":1704,"title":"Я, опять я и снова я","kp_id":"1045060","imdb_id":"tt6477194","world_art_id":null,"type":"serial","add":"2017-11-03 07:49:41","orig_title":"Me, Myself and I","year":"2017-09-25","translations":["Профессиональный (многоголосый закадровый) (IdeaFilm)","Любительский (двухголосый закадровый) (Sunshine Studio)"],"seasons_count":1,"episodes_count":13,"episodes":13,"update":"2018-08-08 14:43:28","iframe_src":"//83.svetacdn.in/PfJ50H0ZBPg3/tv-series/1704"},{"id":10955,"title":"Искатели приключений","kp_id":"77221","imdb_id":"tt0061376","world_art_id":null,"type":"movie","add":"2017-04-13 21:43:41","orig_title":"Les aventuriers","year":"1967-04-12","translations":["Полное дублирование","Авторский (одноголосый закадровый) (Гаврилов Андрей)","Полное дублирование (Мосфильм)","Профессиональный (многоголосый закадровый)"],"quality":"bd","translation":"Полное дублирование","update":"2020-10-02 12:30:47","iframe_src":"//83.svetacdn.in/PfJ50H0ZBPg3/movie/10955"},{"id":902,"title":"Шесть","kp_id":"968550","imdb_id":"tt5541338","world_art_id":null,"type":"serial","add":"2017-01-19 07:53:30","orig_title":"Six","year":"2017-01-18","translations":["Профессиональный (многоголосый закадровый) (ColdFilm)","Профессиональный (многоголосый закадровый) (LostFilm)"],"seasons_count":2,"episodes_count":18,"episodes":10,"update":"2018-08-06 08:12:54","iframe_src":"//83.svetacdn.in/PfJ50H0ZBPg3/tv-series/902"},{"id":6233,"title":"Особь","kp_id":"4769","imdb_id":"tt0114508","world_art_id":null,"type":"movie","add":"2016-10-12 15:35:14","orig_title":"Species","year":"1995-07-07","translations":["Полное дублирование","Original (English)","Авторский (одноголосый закадровый) (Гаврилов Андрей)","Авторский (одноголосый закадровый) (Хрусталев Егор)","Авторский (одноголосый закадровый) (Живов Юрий)","Original (English)"],"quality":"bd","translation":"Полное дублирование","update":"2020-10-02 12:23:40","iframe_src":"//83.svetacdn.in/PfJ50H0ZBPg3/movie/6233"},{"id":5919,"title":"Ночь страха","kp_id":"12345","imdb_id":"tt0089175","world_art_id":null,"type":"movie","add":"2016-10-06 15:29:09","orig_title":"Fright Night","year":"1985-08-02","translations":["Профессиональный (многоголосый закадровый)","Авторский (одноголосый закадровый) (Кузнецов Сергей)","Авторский (одноголосый закадровый) (Володарский Леонид)","Original (English)","Любительский (одноголосый закадровый) (RussianGuy27)","Профессиональный (многоголосый закадровый) (СТС)"],"quality":"bd","translation":"Профессиональный (многоголосый закадровый)","update":"2020-10-02 12:10:37","iframe_src":"//83.svetacdn.in/PfJ50H0ZBPg3/movie/5919"},{"id":292,"title":"Без обязательств","kp_id":"935920","imdb_id":"tt4577466","world_art_id":null,"type":"serial","add":"2016-07-19 10:17:55","orig_title":"Casual","year":"2015-10-07","translations":["Профессиональный (многоголосый закадровый) (BaibaKo)","Профессиональный (двухголосый закадровый) (Gears Media)","Любительский (двухголосый закадровый) (Sunshine Studio)","Профессиональный (многоголосый закадровый) (IdeaFilm)"],"seasons_count":4,"episodes_count":44,"episodes":8,"update":"2018-08-03 21:23:02","iframe_src":"//83.svetacdn.in/PfJ50H0ZBPg3/tv-series/292"},{"id":3178,"title":"Поцелуй навылет","kp_id":"51439","imdb_id":"tt0373469","world_art_id":null,"type":"movie","add":"2016-06-16 07:09:50","orig_title":"Kiss Kiss Bang Bang","year":"2005-05-14","translations":["Полное дублирование","Авторский (одноголосый закадровый) (Гаврилов Андрей)","Авторский (одноголосый закадровый) (Королёв Владимир)","Полное дублирование","Original (English)","Профессиональный (двухголосый закадровый) (Tycoon)"],"quality":"bd","translation":"Полное дублирование","update":"2020-10-02 12:17:36","iframe_src":"//83.svetacdn.in/PfJ50H0ZBPg3/movie/3178"}],"current_page":411,"first_page_url":"https://videocdn.tv/api/short?limit=100&api_token=RgFQdUIR2dRmwv8iYa5SnFNgnw3vpjKj&cache3411=3411&page=1","from":41001,"last_page":618,"last_page_url":"https://videocdn.tv/api/short?limit=100&api_token=RgFQdUIR2dRmwv8iYa5SnFNgnw3vpjKj&cache3411=3411&page=618","next_page_url":"https://videocdn.tv/api/short?limit=100&api_token=RgFQdUIR2dRmwv8iYa5SnFNgnw3vpjKj&cache3411=3411&page=412","path":"https://videocdn.tv/api/short","per_page":100,"prev_page_url":"https://videocdn.tv/api/short?limit=100&api_token=RgFQdUIR2dRmwv8iYa5SnFNgnw3vpjKj&cache3411=3411&page=410","to":41040,"total":61769}