{"result":true,"data":[{"id":33303,"title":"Маршрут Психопата","kp_id":"1160214","imdb_id":"tt8493638","world_art_id":null,"type":"movie","add":"2019-11-20 04:43:00","orig_title":"A Psycho's Path","year":"2019-11-15","translations":["Любительский (многоголосый закадровый) (Синема УС)"],"quality":"webdl","translation":"Любительский (многоголосый закадровый) (Синема УС)","update":"2019-11-20 08:34:20","iframe_src":"//7923.svetacdn.in/71tsRs29n5tZ/movie/33303"},{"id":33302,"title":"Некромант","kp_id":"1062127","imdb_id":"tt7240478","world_art_id":null,"type":"movie","add":"2019-11-20 04:40:29","orig_title":"The Necromancer","year":"2018-10-26","translations":["Любительский (многоголосый закадровый) (AlphaProject)"],"quality":"webdl","translation":"Любительский (многоголосый закадровый) (AlphaProject)","update":"2019-11-20 08:36:59","iframe_src":"//7923.svetacdn.in/71tsRs29n5tZ/movie/33302"},{"id":33300,"title":"Инфекция","kp_id":"89192","imdb_id":"tt0418778","world_art_id":null,"type":"movie","add":"2019-11-19 20:50:12","orig_title":"Kansen","year":"2004-10-02","translations":["Профессиональный (двухголосый закадровый)"],"quality":"dvdrip","translation":"Профессиональный (двухголосый закадровый)","update":"2019-11-20 07:38:42","iframe_src":"//7923.svetacdn.in/71tsRs29n5tZ/movie/33300"},{"id":33298,"title":"Годзилла против Мотры","kp_id":"79343","imdb_id":"tt0058379","world_art_id":null,"type":"movie","add":"2019-11-19 20:40:41","orig_title":"Mosura tai Gojira","year":"1964-04-29","translations":["Любительский (одноголосый закадровый)"],"quality":"dvdrip","translation":"Любительский (одноголосый закадровый)","update":"2019-11-20 07:37:59","iframe_src":"//7923.svetacdn.in/71tsRs29n5tZ/movie/33298"},{"id":33291,"title":"Маребито","kp_id":"85108","imdb_id":"tt0434179","world_art_id":null,"type":"movie","add":"2019-11-19 19:44:41","orig_title":"Marebito","year":"2004-05-22","translations":["Профессиональный (многоголосый закадровый)"],"quality":"dvdrip","translation":"Профессиональный (многоголосый закадровый)","update":"2019-11-20 06:35:25","iframe_src":"//7923.svetacdn.in/71tsRs29n5tZ/movie/33291"},{"id":33290,"title":"Таинственный путь","kp_id":"689961","imdb_id":"tt2236054","world_art_id":null,"type":"movie","add":"2019-11-19 19:38:48","orig_title":"Mystery Road","year":"2013-06-05","translations":["Любительский (одноголосый закадровый) (datynet | Агапов Антон)"],"quality":"bd","translation":"Любительский (одноголосый закадровый) (datynet | Агапов Антон)","update":"2019-11-20 06:34:28","iframe_src":"//7923.svetacdn.in/71tsRs29n5tZ/movie/33290"},{"id":33289,"title":"Принцесса","kp_id":"391071","imdb_id":"tt1052352","world_art_id":null,"type":"movie","add":"2019-11-19 19:36:12","orig_title":"Princess","year":"2008-04-20","translations":["Профессиональный (многоголосый закадровый)"],"quality":"dvdrip","translation":"Профессиональный (многоголосый закадровый)","update":"2019-11-20 06:33:30","iframe_src":"//7923.svetacdn.in/71tsRs29n5tZ/movie/33289"},{"id":33288,"title":"Пустота","kp_id":"35853","imdb_id":"tt0298482","world_art_id":null,"type":"movie","add":"2019-11-19 19:33:03","orig_title":"Nothing","year":"2003-09-09","translations":["Профессиональный (многоголосый закадровый)"],"quality":"dvdrip","translation":"Профессиональный (многоголосый закадровый)","update":"2019-11-20 06:32:55","iframe_src":"//7923.svetacdn.in/71tsRs29n5tZ/movie/33288"},{"id":33287,"title":"Снайпер","kp_id":"406431","imdb_id":"tt1194624","world_art_id":null,"type":"movie","add":"2019-11-19 19:24:22","orig_title":"Sun cheung sau","year":"2009-03-24","translations":["Профессиональный (многоголосый закадровый)"],"quality":"bd","translation":"Профессиональный (многоголосый закадровый)","update":"2019-11-20 07:27:11","iframe_src":"//7923.svetacdn.in/71tsRs29n5tZ/movie/33287"},{"id":33279,"title":"Хранители Алтая","kp_id":"1204221","imdb_id":null,"world_art_id":null,"type":"movie","add":"2019-11-19 12:57:17","orig_title":"Хранители Алтая","year":"2019-08-01","translations":["Оригинальная дорожка"],"quality":"webdl","translation":"Оригинальная дорожка","update":"2019-11-20 06:07:30","iframe_src":"//7923.svetacdn.in/71tsRs29n5tZ/movie/33279"},{"id":33278,"title":"Ужас и хомячки","kp_id":"1168480","imdb_id":"tt8558596","world_art_id":null,"type":"movie","add":"2019-11-19 12:55:28","orig_title":"Horror and Hamsters","year":"2018-06-02","translations":["Любительский (многоголосый закадровый) (Синема УС)"],"quality":"webdl","translation":"Любительский (многоголосый закадровый) (Синема УС)","update":"2019-11-20 06:06:04","iframe_src":"//7923.svetacdn.in/71tsRs29n5tZ/movie/33278"},{"id":33264,"title":"Клуб самоубийц","kp_id":"63759","imdb_id":"tt0312843","world_art_id":null,"type":"movie","add":"2019-11-19 07:14:26","orig_title":"Jisatsu sâkuru","year":"2001-10-29","translations":["Любительский (одноголосый закадровый)"],"quality":"dvdrip","translation":"Любительский (одноголосый закадровый)","update":"2019-11-20 06:32:04","iframe_src":"//7923.svetacdn.in/71tsRs29n5tZ/movie/33264"},{"id":33262,"title":"Глаз 2","kp_id":"79891","imdb_id":"tt0405061","world_art_id":null,"type":"movie","add":"2019-11-19 07:04:32","orig_title":"Gin gwai 2","year":"2004-03-18","translations":["Полное дублирование"],"quality":"dvdrip","translation":"Полное дублирование","update":"2019-11-20 06:30:58","iframe_src":"//7923.svetacdn.in/71tsRs29n5tZ/movie/33262"},{"id":33261,"title":"Воскреснуть во имя любви","kp_id":"428093","imdb_id":"tt1286766","world_art_id":null,"type":"movie","add":"2019-11-19 07:01:34","orig_title":"Fatso!","year":"2012-11-01","translations":["Профессиональный (многоголосый закадровый) (Red Media)"],"quality":"dvdrip","translation":"Профессиональный (многоголосый закадровый) (Red Media)","update":"2019-11-20 06:28:54","iframe_src":"//7923.svetacdn.in/71tsRs29n5tZ/movie/33261"},{"id":33259,"title":"Зеро. Сиреневая Литва","kp_id":"280657","imdb_id":"tt0968712","world_art_id":null,"type":"movie","add":"2019-11-19 06:47:40","orig_title":"Zero. Alyvine Lietuva","year":"2006-09-08","translations":["Профессиональный (одноголосый закадровый)"],"quality":"dvdrip","translation":"Профессиональный (одноголосый закадровый)","update":"2019-11-20 06:14:43","iframe_src":"//7923.svetacdn.in/71tsRs29n5tZ/movie/33259"},{"id":33201,"title":"С Днем Рождения меня","kp_id":"30929","imdb_id":"tt0082498","world_art_id":null,"type":"movie","add":"2019-11-17 20:49:18","orig_title":"Happy Birthday to Me","year":"1981-05-15","translations":["Профессиональный (многоголосый закадровый) (СВ-Дубль)","Любительский (одноголосый закадровый)"],"quality":"bd","translation":"Профессиональный (многоголосый закадровый) (СВ-Дубль)","update":"2019-11-20 06:11:58","iframe_src":"//7923.svetacdn.in/71tsRs29n5tZ/movie/33201"},{"id":33174,"title":"Мистер Бонс","kp_id":"23770","imdb_id":"tt0302819","world_art_id":null,"type":"movie","add":"2019-11-16 20:02:40","orig_title":"Mr. Bones","year":"2001-11-30","translations":["Профессиональный (многоголосый закадровый)"],"quality":"dvdrip","translation":"Профессиональный (многоголосый закадровый)","update":"2019-11-20 07:39:26","iframe_src":"//7923.svetacdn.in/71tsRs29n5tZ/movie/33174"},{"id":19261,"title":"Хищные воды","kp_id":"272648","imdb_id":"tt0816436","world_art_id":null,"type":"movie","add":"2018-09-29 10:31:34","orig_title":"Black Water","year":"2007-08-03","translations":["Профессиональный (многоголосый закадровый)","Авторский (одноголосый закадровый) (Дольский Андрей)"],"quality":"webdl","translation":"Профессиональный (многоголосый закадровый)","update":"2019-11-20 07:20:10","iframe_src":"//7923.svetacdn.in/71tsRs29n5tZ/movie/19261"},{"id":10400,"title":"Жестокие мечты","kp_id":"942240","imdb_id":"tt5160928","world_art_id":null,"type":"movie","add":"2017-03-19 19:49:22","orig_title":"Mean Dreams","year":"2016-05-15","translations":["Профессиональный (многоголосый закадровый)"],"quality":"bd","translation":"Профессиональный (многоголосый закадровый)","update":"2019-11-20 07:32:22","iframe_src":"//7923.svetacdn.in/71tsRs29n5tZ/movie/10400"},{"id":7684,"title":"Станция «Сеул»","kp_id":"844014","imdb_id":"tt3845670","world_art_id":null,"type":"movie","add":"2016-11-28 09:55:50","orig_title":"Seoul Station","year":"2016-04-05","translations":["Любительский (многоголосый закадровый) (Колобок)","Любительский (многоголосый закадровый)","Профессиональный (многоголосый закадровый) (2x2)"],"quality":"hdtv","translation":"Любительский (многоголосый закадровый) (Колобок)","update":"2019-11-20 07:29:58","iframe_src":"//7923.svetacdn.in/71tsRs29n5tZ/movie/7684"}],"current_page":1136,"first_page_url":"https://videocdn.tv/api/short?limit=100&api_token=EnbO9h8pv1VyjbCJhg0WM9nG259n7mtz&cache31136=31136&page=1","from":113501,"last_page":645,"last_page_url":"https://videocdn.tv/api/short?limit=100&api_token=EnbO9h8pv1VyjbCJhg0WM9nG259n7mtz&cache31136=31136&page=645","next_page_url":null,"path":"https://videocdn.tv/api/short","per_page":100,"prev_page_url":"https://videocdn.tv/api/short?limit=100&api_token=EnbO9h8pv1VyjbCJhg0WM9nG259n7mtz&cache31136=31136&page=1135","to":113520,"total":64493}