{"result":true,"data":[{"id":28012,"title":"Золото Югры","kp_id":"487297","imdb_id":null,"world_art_id":null,"type":"movie","add":"2019-06-19 19:18:40","orig_title":"Золото Югры","year":"2001-01-01","translations":["Оригинальная дорожка"],"quality":"dvdrip","translation":"Оригинальная дорожка","update":"2019-06-20 06:45:05","iframe_src":"//7741.svetacdn.in/IAF0wWTdNYZm/movie/28012"},{"id":28011,"title":"На ясный огонь","kp_id":"46288","imdb_id":"tt0073433","world_art_id":null,"type":"movie","add":"2019-06-19 19:02:16","orig_title":"Na yasnyy ogon","year":"1975-04-15","translations":["Оригинальная дорожка"],"quality":"dvdrip","translation":"Оригинальная дорожка","update":"2019-06-20 06:47:14","iframe_src":"//7741.svetacdn.in/IAF0wWTdNYZm/movie/28011"},{"id":28010,"title":"Наследница Ники","kp_id":"46341","imdb_id":"tt0311568","world_art_id":null,"type":"movie","add":"2019-06-19 18:55:38","orig_title":"Naslednitsa Niki","year":"1989-01-01","translations":["Оригинальная дорожка"],"quality":"vhs","translation":"Оригинальная дорожка","update":"2019-06-20 06:49:11","iframe_src":"//7741.svetacdn.in/IAF0wWTdNYZm/movie/28010"},{"id":28009,"title":"Неоткрытые острова","kp_id":"451110","imdb_id":"tt1726703","world_art_id":null,"type":"movie","add":"2019-06-19 18:51:44","orig_title":"Neotkrytye ostrova","year":"1974-01-01","translations":["Оригинальная дорожка"],"quality":"sat","translation":"Оригинальная дорожка","update":"2019-06-20 06:50:17","iframe_src":"//7741.svetacdn.in/IAF0wWTdNYZm/movie/28009"},{"id":28008,"title":"Одолень-трава","kp_id":"843140","imdb_id":null,"world_art_id":null,"type":"movie","add":"2019-06-19 18:45:45","orig_title":"Одолень-трава","year":"2014-01-01","translations":["Оригинальная дорожка"],"quality":"sat","translation":"Оригинальная дорожка","update":"2019-06-20 06:51:49","iframe_src":"//7741.svetacdn.in/IAF0wWTdNYZm/movie/28008"},{"id":28007,"title":"РэПэПэ","kp_id":"827713","imdb_id":"tt6075526","world_art_id":null,"type":"movie","add":"2019-06-19 18:36:32","orig_title":"Rezhim Polnogo Pogruzheniya","year":"2012-05-03","translations":["Оригинальная дорожка"],"quality":"sat","translation":"Оригинальная дорожка","update":"2019-06-20 06:51:29","iframe_src":"//7741.svetacdn.in/IAF0wWTdNYZm/movie/28007"},{"id":28006,"title":"Рыцарский замок","kp_id":"420097","imdb_id":"tt3893282","world_art_id":null,"type":"movie","add":"2019-06-19 18:25:19","orig_title":"Rytsarskiy Zamok","year":"1991-05-01","translations":["Оригинальная дорожка"],"quality":"sat","translation":"Оригинальная дорожка","update":"2019-06-20 06:53:11","iframe_src":"//7741.svetacdn.in/IAF0wWTdNYZm/movie/28006"},{"id":28005,"title":"Театр","kp_id":"42222","imdb_id":"tt0276550","world_art_id":null,"type":"movie","add":"2019-06-19 18:21:02","orig_title":"Teatris","year":"1978-03-31","translations":["Оригинальная дорожка"],"quality":"dvdrip","translation":"Оригинальная дорожка","update":"2019-06-20 06:54:58","iframe_src":"//7741.svetacdn.in/IAF0wWTdNYZm/movie/28005"},{"id":27989,"title":"Мать Мария","kp_id":"46561","imdb_id":"tt0084311","world_art_id":null,"type":"movie","add":"2019-06-18 18:33:23","orig_title":"Mat Mariya","year":"1982-11-01","translations":["Оригинальная дорожка"],"quality":"sat","translation":"Оригинальная дорожка","update":"2019-06-20 06:55:29","iframe_src":"//7741.svetacdn.in/IAF0wWTdNYZm/movie/27989"},{"id":27988,"title":"Душечка","kp_id":"419418","imdb_id":"tt5048460","world_art_id":null,"type":"movie","add":"2019-06-18 18:26:32","orig_title":"Dushechka","year":"1966-11-05","translations":["Оригинальная дорожка"],"quality":"dvdrip","translation":"Оригинальная дорожка","update":"2019-06-20 06:58:38","iframe_src":"//7741.svetacdn.in/IAF0wWTdNYZm/movie/27988"},{"id":27987,"title":"День любви","kp_id":"44135","imdb_id":"tt0099402","world_art_id":null,"type":"movie","add":"2019-06-18 18:23:02","orig_title":"Den lyubvi","year":"1990-01-01","translations":["Оригинальная дорожка"],"quality":"dvdrip","translation":"Оригинальная дорожка","update":"2019-06-20 07:00:48","iframe_src":"//7741.svetacdn.in/IAF0wWTdNYZm/movie/27987"},{"id":27986,"title":"Чеховские мотивы","kp_id":"41367","imdb_id":"tt0321641","world_art_id":null,"type":"movie","add":"2019-06-18 18:17:14","orig_title":"Chekhovskie motivy","year":"2002-07-11","translations":["Оригинальная дорожка"],"quality":"dvdrip","translation":"Оригинальная дорожка","update":"2019-06-20 07:02:33","iframe_src":"//7741.svetacdn.in/IAF0wWTdNYZm/movie/27986"},{"id":27983,"title":"Говорящая обезьяна","kp_id":"44594","imdb_id":"tt0101968","world_art_id":null,"type":"movie","add":"2019-06-18 17:39:44","orig_title":"Govoryashchaya obezyana","year":"1991-01-01","translations":["Оригинальная дорожка"],"quality":"dvdrip","translation":"Оригинальная дорожка","update":"2019-06-20 07:05:42","iframe_src":"//7741.svetacdn.in/IAF0wWTdNYZm/movie/27983"},{"id":27982,"title":"Вступление","kp_id":"45942","imdb_id":"tt0175312","world_art_id":null,"type":"movie","add":"2019-06-18 17:36:08","orig_title":"Vstuplenie","year":"1963-05-06","translations":["Оригинальная дорожка"],"quality":"dvdrip","translation":"Оригинальная дорожка","update":"2019-06-20 07:05:36","iframe_src":"//7741.svetacdn.in/IAF0wWTdNYZm/movie/27982"},{"id":27981,"title":"Когда опаздывают в ЗАГС...","kp_id":"44844","imdb_id":"tt0102229","world_art_id":null,"type":"movie","add":"2019-06-18 17:33:14","orig_title":"Kogda opazdyvayut v ZAGS...","year":"1991-01-01","translations":["Оригинальная дорожка"],"quality":"dvdrip","translation":"Оригинальная дорожка","update":"2019-06-20 07:06:54","iframe_src":"//7741.svetacdn.in/IAF0wWTdNYZm/movie/27981"},{"id":27980,"title":"Марица","kp_id":"94315","imdb_id":"tt0089557","world_art_id":null,"type":"movie","add":"2019-06-18 16:47:11","orig_title":"Maritsa","year":"1985-01-01","translations":["Оригинальная дорожка"],"quality":"dvdrip","translation":"Оригинальная дорожка","update":"2019-06-20 07:57:13","iframe_src":"//7741.svetacdn.in/IAF0wWTdNYZm/movie/27980"},{"id":27979,"title":"Нас венчали не в церкви","kp_id":"46324","imdb_id":"tt0084391","world_art_id":null,"type":"movie","add":"2019-06-18 16:43:07","orig_title":"Nas venchali ne v tserkvi","year":"1983-04-18","translations":["Оригинальная дорожка"],"quality":"sat","translation":"Оригинальная дорожка","update":"2019-06-20 07:58:03","iframe_src":"//7741.svetacdn.in/IAF0wWTdNYZm/movie/27979"},{"id":27978,"title":"Не буду гангстером, дорогая","kp_id":"584041","imdb_id":"tt4910946","world_art_id":null,"type":"movie","add":"2019-06-18 16:39:46","orig_title":"Nebusiu gangsteriu, brangioji","year":"1978-12-08","translations":["Оригинальная дорожка"],"quality":"sat","translation":"Оригинальная дорожка","update":"2019-06-20 08:00:00","iframe_src":"//7741.svetacdn.in/IAF0wWTdNYZm/movie/27978"},{"id":24356,"title":"Если завтра война...","kp_id":"42451","imdb_id":"tt0030992","world_art_id":null,"type":"movie","add":"2019-04-11 21:38:53","orig_title":"Esli zavtra voyna","year":"1938-02-23","translations":["Оригинальная дорожка"],"quality":"dvdrip","translation":"Оригинальная дорожка","update":"2019-06-20 06:57:08","iframe_src":"//7741.svetacdn.in/IAF0wWTdNYZm/movie/24356"},{"id":9426,"title":"Куда уходит любовь","kp_id":"837658","imdb_id":null,"world_art_id":null,"type":"movie","add":"2017-02-05 08:43:15","orig_title":"Куда уходит любовь","year":"2014-05-11","translations":["Оригинальная дорожка"],"quality":"webdl","translation":"Оригинальная дорожка","update":"2019-06-20 06:47:03","iframe_src":"//7741.svetacdn.in/IAF0wWTdNYZm/movie/9426"}],"current_page":1719,"first_page_url":"https://videocdn.tv/api/short?limit=100&api_token=6Onb1W1alEUrBcKJZD3GoKBbWyAl2uG2&cache31719=31719&page=1","from":171801,"last_page":706,"last_page_url":"https://videocdn.tv/api/short?limit=100&api_token=6Onb1W1alEUrBcKJZD3GoKBbWyAl2uG2&cache31719=31719&page=706","next_page_url":null,"path":"https://videocdn.tv/api/short","per_page":100,"prev_page_url":"https://videocdn.tv/api/short?limit=100&api_token=6Onb1W1alEUrBcKJZD3GoKBbWyAl2uG2&cache31719=31719&page=1718","to":171820,"total":70502}