{"result":true,"data":[{"id":27606,"title":"Чёрный крёстный отец","kp_id":"1268580","imdb_id":"tt10289996","world_art_id":null,"type":"movie","add":"2019-06-10 06:14:54","orig_title":"The Black Godfather","year":"2019-06-07","translations":["Любительский (многоголосый закадровый) (Синема УС)"],"quality":"webdl","translation":"Любительский (многоголосый закадровый) (Синема УС)","update":"2019-06-10 08:32:24","iframe_src":"//2413.svetacdn.in/IAF0wWTdNYZm/movie/27606"},{"id":27605,"title":"Луна","kp_id":"939586","imdb_id":"tt5089068","world_art_id":null,"type":"movie","add":"2019-06-10 06:14:06","orig_title":"Luna","year":"2017-06-29","translations":["Любительский (многоголосый закадровый) (Синема УС)"],"quality":"webdl","translation":"Любительский (многоголосый закадровый) (Синема УС)","update":"2019-06-10 08:31:20","iframe_src":"//2413.svetacdn.in/IAF0wWTdNYZm/movie/27605"},{"id":27604,"title":"Жизнь в собачьей будке","kp_id":"1192370","imdb_id":"tt5178264","world_art_id":null,"type":"movie","add":"2019-06-10 06:12:30","orig_title":"Life in the Doghouse","year":"2018-06-14","translations":["Любительский (многоголосый закадровый) (Синема УС)"],"quality":"webdl","translation":"Любительский (многоголосый закадровый) (Синема УС)","update":"2019-06-10 08:30:31","iframe_src":"//2413.svetacdn.in/IAF0wWTdNYZm/movie/27604"},{"id":27603,"title":"Снежинки","kp_id":"1114636","imdb_id":"tt8020648","world_art_id":null,"type":"movie","add":"2019-06-10 06:11:26","orig_title":"Les petits flocons","year":"2019-01-18","translations":["Любительский (многоголосый закадровый) (Синема УС)"],"quality":"webdl","translation":"Любительский (многоголосый закадровый) (Синема УС)","update":"2019-06-10 08:29:08","iframe_src":"//2413.svetacdn.in/IAF0wWTdNYZm/movie/27603"},{"id":27602,"title":"Туалет Белуши","kp_id":"1153391","imdb_id":"tt8159764","world_art_id":null,"type":"movie","add":"2019-06-10 06:10:13","orig_title":"Belushi's Toilet","year":"2018-09-08","translations":["Любительский (многоголосый закадровый) (Синема УС)"],"quality":"webdl","translation":"Любительский (многоголосый закадровый) (Синема УС)","update":"2019-06-10 08:27:13","iframe_src":"//2413.svetacdn.in/IAF0wWTdNYZm/movie/27602"},{"id":27601,"title":"Свадьба в Грейсленде","kp_id":"1256958","imdb_id":"tt9777092","world_art_id":null,"type":"movie","add":"2019-06-10 06:08:54","orig_title":"Wedding at Graceland","year":"2019-06-01","translations":["Любительский (многоголосый закадровый) (AlphaProject)"],"quality":"hdtv","translation":"Любительский (многоголосый закадровый) (AlphaProject)","update":"2019-06-10 08:26:19","iframe_src":"//2413.svetacdn.in/IAF0wWTdNYZm/movie/27601"},{"id":27600,"title":"Пока смерть не воссоединит нас","kp_id":"1219861","imdb_id":"tt9356556","world_art_id":null,"type":"movie","add":"2019-06-10 06:07:38","orig_title":"Jusqu'à Ce Que la Mort Nous Unisse","year":"2018-10-20","translations":["Любительский (многоголосый закадровый) (Синема УС)"],"quality":"hdtv","translation":"Любительский (многоголосый закадровый) (Синема УС)","update":"2019-06-10 08:25:16","iframe_src":"//2413.svetacdn.in/IAF0wWTdNYZm/movie/27600"},{"id":27599,"title":"Громче! Я не слышу, что ты там поёшь!","kp_id":"1118196","imdb_id":"tt7493810","world_art_id":null,"type":"movie","add":"2019-06-10 06:06:15","orig_title":"Onryô o agero tako! Nani utatten no ka zenzen wakannê n da yo!!","year":"2018-07-21","translations":["Любительский (многоголосый закадровый) (Синема УС)"],"quality":"bd","translation":"Любительский (многоголосый закадровый) (Синема УС)","update":"2019-06-10 08:24:20","iframe_src":"//2413.svetacdn.in/IAF0wWTdNYZm/movie/27599"},{"id":27598,"title":"Копатель: Начало","kp_id":"989847","imdb_id":"tt5781458","world_art_id":null,"type":"movie","add":"2019-06-10 06:04:20","orig_title":"Diggerz: Black Lung Rises","year":"2017-01-01","translations":["Любительский (многоголосый закадровый) (Синема УС)"],"quality":"bd","translation":"Любительский (многоголосый закадровый) (Синема УС)","update":"2019-06-10 08:22:54","iframe_src":"//2413.svetacdn.in/IAF0wWTdNYZm/movie/27598"},{"id":27547,"title":"Роман с кокаином","kp_id":"585411","imdb_id":"tt3681340","world_art_id":null,"type":"movie","add":"2019-06-08 09:25:20","orig_title":"Roman s kokainom","year":"2014-01-16","translations":["Оригинальная дорожка"],"quality":"dvdrip","translation":"Оригинальная дорожка","update":"2019-06-10 08:00:32","iframe_src":"//2413.svetacdn.in/IAF0wWTdNYZm/movie/27547"},{"id":27546,"title":"Шлагбаум","kp_id":"791063","imdb_id":null,"world_art_id":null,"type":"movie","add":"2019-06-08 09:21:45","orig_title":"Шлагбаум","year":"2013-09-19","translations":["Оригинальная дорожка"],"quality":"webdl","translation":"Оригинальная дорожка","update":"2019-06-10 08:02:00","iframe_src":"//2413.svetacdn.in/IAF0wWTdNYZm/movie/27546"},{"id":27545,"title":"Украденный поезд","kp_id":"213694","imdb_id":"tt0318526","world_art_id":null,"type":"movie","add":"2019-06-08 08:07:23","orig_title":"Otkradnatiyat vlak","year":"1971-04-15","translations":["Оригинальная дорожка"],"quality":"dvdrip","translation":"Оригинальная дорожка","update":"2019-06-10 08:03:21","iframe_src":"//2413.svetacdn.in/IAF0wWTdNYZm/movie/27545"},{"id":27544,"title":"Выкуп","kp_id":"45969","imdb_id":"tt0092185","world_art_id":null,"type":"movie","add":"2019-06-08 08:01:57","orig_title":"Vykup","year":"1986-12-08","translations":["Оригинальная дорожка"],"quality":"sat","translation":"Оригинальная дорожка","update":"2019-06-10 08:04:40","iframe_src":"//2413.svetacdn.in/IAF0wWTdNYZm/movie/27544"},{"id":27543,"title":"Звёзды на крыльях","kp_id":"45422","imdb_id":"tt0314959","world_art_id":null,"type":"movie","add":"2019-06-08 07:58:24","orig_title":"Zvyozdy na krylyakh","year":"1955-07-19","translations":["Оригинальная дорожка"],"quality":"sat","translation":"Оригинальная дорожка","update":"2019-06-10 08:06:25","iframe_src":"//2413.svetacdn.in/IAF0wWTdNYZm/movie/27543"},{"id":27542,"title":"Гибель эскадры","kp_id":"44500","imdb_id":"tt0338063","world_art_id":null,"type":"movie","add":"2019-06-08 07:54:26","orig_title":"Gibel eskadry","year":"1966-02-21","translations":["Оригинальная дорожка"],"quality":"sat","translation":"Оригинальная дорожка","update":"2019-06-10 08:07:29","iframe_src":"//2413.svetacdn.in/IAF0wWTdNYZm/movie/27542"},{"id":27541,"title":"Дни лётные","kp_id":"44229","imdb_id":"tt0375714","world_art_id":null,"type":"movie","add":"2019-06-08 07:51:15","orig_title":"Dni lyotnye","year":"1966-08-15","translations":["Оригинальная дорожка"],"quality":"dvdrip","translation":"Оригинальная дорожка","update":"2019-06-10 08:08:13","iframe_src":"//2413.svetacdn.in/IAF0wWTdNYZm/movie/27541"},{"id":27540,"title":"Кто смеётся последним","kp_id":"542272","imdb_id":"tt5111566","world_art_id":null,"type":"movie","add":"2019-06-08 07:47:37","orig_title":"Kto smeyotsya poslednim","year":"1955-01-31","translations":["Оригинальная дорожка"],"quality":"sat","translation":"Оригинальная дорожка","update":"2019-06-10 08:09:18","iframe_src":"//2413.svetacdn.in/IAF0wWTdNYZm/movie/27540"},{"id":27539,"title":"Летняя поездка к морю","kp_id":"439608","imdb_id":"tt1733166","world_art_id":null,"type":"movie","add":"2019-06-08 07:43:48","orig_title":"Letnyaya poyezdka k moryu","year":"1978-01-01","translations":["Оригинальная дорожка"],"quality":"dvdrip","translation":"Оригинальная дорожка","update":"2019-06-10 08:10:07","iframe_src":"//2413.svetacdn.in/IAF0wWTdNYZm/movie/27539"},{"id":27538,"title":"Отхончик. Первая любовь","kp_id":"738344","imdb_id":"tt9172956","world_art_id":null,"type":"movie","add":"2019-06-08 07:40:05","orig_title":"Otkhonchik: Pervaya lyubov'","year":"2013-03-21","translations":["Оригинальная дорожка"],"quality":"webdl","translation":"Оригинальная дорожка","update":"2019-06-10 08:11:11","iframe_src":"//2413.svetacdn.in/IAF0wWTdNYZm/movie/27538"},{"id":27537,"title":"Последние дни Помпеи","kp_id":"257338","imdb_id":"tt0307872","world_art_id":null,"type":"movie","add":"2019-06-08 07:35:02","orig_title":"Poslednie dni Pompey","year":"1972-07-09","translations":["Оригинальная дорожка"],"quality":"sat","translation":"Оригинальная дорожка","update":"2019-06-10 08:12:06","iframe_src":"//2413.svetacdn.in/IAF0wWTdNYZm/movie/27537"}],"current_page":1826,"first_page_url":"https://videocdn.tv/api/short?limit=100&api_token=6Onb1W1alEUrBcKJZD3GoKBbWyAl2uG2&cache31826=31826&page=1","from":182501,"last_page":719,"last_page_url":"https://videocdn.tv/api/short?limit=100&api_token=6Onb1W1alEUrBcKJZD3GoKBbWyAl2uG2&cache31826=31826&page=719","next_page_url":null,"path":"https://videocdn.tv/api/short","per_page":100,"prev_page_url":"https://videocdn.tv/api/short?limit=100&api_token=6Onb1W1alEUrBcKJZD3GoKBbWyAl2uG2&cache31826=31826&page=1825","to":182520,"total":71851}