{"result":true,"data":[{"id":14083,"title":"Оралман из Питера","kp_id":"1044496","imdb_id":null,"world_art_id":null,"type":"movie","add":"2017-10-27 00:07:47","orig_title":"Оралман из Питера","year":"2017-10-27","translations":["Оригинальная дорожка"],"quality":"webdl","translation":"Оригинальная дорожка","update":"2017-10-27 05:04:26","iframe_src":"//7720.svetacdn.in/IAF0wWTdNYZm/movie/14083"},{"id":14082,"title":"Кровавый скелет","kp_id":"858098","imdb_id":"tt3590608","world_art_id":null,"type":"movie","add":"2017-10-27 00:06:23","orig_title":"Skeleton Krew","year":"2015-09-10","translations":["Любительский (многоголосый закадровый) (Синема УС)"],"quality":"webdl","translation":"Любительский (многоголосый закадровый) (Синема УС)","update":"2017-10-27 05:05:34","iframe_src":"//7720.svetacdn.in/IAF0wWTdNYZm/movie/14082"},{"id":14057,"title":"Дело чести","kp_id":"586394","imdb_id":null,"world_art_id":null,"type":"movie","add":"2017-10-26 11:55:28","orig_title":"Дело чести","year":"2011-05-06","translations":["Оригинальная дорожка"],"quality":"dvdrip","translation":"Оригинальная дорожка","update":"2017-10-26 13:42:07","iframe_src":"//7720.svetacdn.in/IAF0wWTdNYZm/movie/14057"},{"id":14056,"title":"Экстремалы","kp_id":"8113","imdb_id":"tt0283160","world_art_id":null,"type":"movie","add":"2017-10-26 11:51:47","orig_title":"Extreme Ops","year":"2002-11-27","translations":["Полное дублирование"],"quality":"dvdrip","translation":"Полное дублирование","update":"2017-10-26 13:40:49","iframe_src":"//7720.svetacdn.in/IAF0wWTdNYZm/movie/14056"},{"id":14054,"title":"Однажды в багажнике","kp_id":"570130","imdb_id":null,"world_art_id":null,"type":"movie","add":"2017-10-26 11:46:35","orig_title":"Бірде багажникте","year":"2010-01-01","translations":["Оригинальная дорожка"],"quality":"dvdrip","translation":"Оригинальная дорожка","update":"2017-10-26 13:38:18","iframe_src":"//7720.svetacdn.in/IAF0wWTdNYZm/movie/14054"},{"id":14039,"title":"Американский хардкор","kp_id":"253201","imdb_id":"tt0419434","world_art_id":null,"type":"movie","add":"2017-10-26 03:56:54","orig_title":"American Hardcore","year":"2006-03-11","translations":["Профессиональный (многоголосый закадровый)"],"quality":"dvdrip","translation":"Профессиональный (многоголосый закадровый)","update":"2017-10-26 13:48:49","iframe_src":"//7720.svetacdn.in/IAF0wWTdNYZm/movie/14039"},{"id":14038,"title":"Ночной слушатель","kp_id":"102216","imdb_id":"tt0448075","world_art_id":null,"type":"movie","add":"2017-10-26 03:44:30","orig_title":"The Night Listener","year":"2006-01-21","translations":["Профессиональный (многоголосый закадровый)"],"quality":"dvdrip","translation":"Профессиональный (многоголосый закадровый)","update":"2017-10-26 15:05:08","iframe_src":"//7720.svetacdn.in/IAF0wWTdNYZm/movie/14038"},{"id":14037,"title":"Реальный папа","kp_id":"401153","imdb_id":"tt1482229","world_art_id":null,"type":"movie","add":"2017-10-26 03:41:53","orig_title":"Realnyy papa","year":"2008-04-17","translations":["Оригинальная дорожка"],"quality":"dvdrip","translation":"Оригинальная дорожка","update":"2017-10-26 13:50:21","iframe_src":"//7720.svetacdn.in/IAF0wWTdNYZm/movie/14037"},{"id":14035,"title":"Плохая семья","kp_id":"450581","imdb_id":"tt1380174","world_art_id":null,"type":"movie","add":"2017-10-26 03:30:02","orig_title":"Paha perhe","year":"2010-01-29","translations":["Любительский (одноголосый закадровый)"],"quality":"dvdrip","translation":"Любительский (одноголосый закадровый)","update":"2017-10-26 12:21:51","iframe_src":"//7720.svetacdn.in/IAF0wWTdNYZm/movie/14035"},{"id":14034,"title":"Всё начинается с конца","kp_id":"495169","imdb_id":"tt1591123","world_art_id":null,"type":"movie","add":"2017-10-26 03:24:57","orig_title":"Ça commence par la fin","year":"2010-05-26","translations":["Профессиональный (многоголосый закадровый)"],"quality":"dvdrip","translation":"Профессиональный (многоголосый закадровый)","update":"2017-10-26 12:20:18","iframe_src":"//7720.svetacdn.in/IAF0wWTdNYZm/movie/14034"},{"id":14032,"title":"День зверя","kp_id":"542288","imdb_id":"tt1438468","world_art_id":null,"type":"movie","add":"2017-10-25 02:12:40","orig_title":"Den zverya","year":"2012-11-18","translations":["Оригинальная дорожка"],"quality":"dvdrip","translation":"Оригинальная дорожка","update":"2017-10-25 20:10:20","iframe_src":"//7720.svetacdn.in/IAF0wWTdNYZm/movie/14032"},{"id":13996,"title":"Обман","kp_id":"298362","imdb_id":"tt0298044","world_art_id":null,"type":"movie","add":"2017-10-24 12:08:00","orig_title":"Machinations","year":"1995-08-14","translations":["Профессиональный (двухголосый закадровый)"],"quality":"vhs","translation":"Профессиональный (двухголосый закадровый)","update":"2017-10-25 20:08:24","iframe_src":"//7720.svetacdn.in/IAF0wWTdNYZm/movie/13996"},{"id":13995,"title":"Дорога из желтого кирпича","kp_id":"461111","imdb_id":"tt1398428","world_art_id":null,"type":"movie","add":"2017-10-24 12:02:01","orig_title":"YellowBrickRoad","year":"2010-01-23","translations":["Любительский (одноголосый закадровый)"],"quality":"dvdrip","translation":"Любительский (одноголосый закадровый)","update":"2017-10-25 20:04:32","iframe_src":"//7720.svetacdn.in/IAF0wWTdNYZm/movie/13995"},{"id":13994,"title":"Охота на хищниц","kp_id":"457713","imdb_id":"tt1413489","world_art_id":null,"type":"movie","add":"2017-10-24 11:56:04","orig_title":"Cougar Hunting","year":"2011-04-22","translations":["Профессиональный (многоголосый закадровый)"],"quality":"dvdrip","translation":"Профессиональный (многоголосый закадровый)","update":"2017-10-25 19:57:02","iframe_src":"//7720.svetacdn.in/IAF0wWTdNYZm/movie/13994"},{"id":13993,"title":"Могилы","kp_id":"410205","imdb_id":"tt1203517","world_art_id":null,"type":"movie","add":"2017-10-24 11:50:42","orig_title":"The Graves","year":"2009-10-31","translations":["Профессиональный (двухголосый закадровый)"],"quality":"bd","translation":"Профессиональный (двухголосый закадровый)","update":"2017-10-25 20:02:24","iframe_src":"//7720.svetacdn.in/IAF0wWTdNYZm/movie/13993"},{"id":13989,"title":"Месяц призраков","kp_id":"377869","imdb_id":"tt1042503","world_art_id":null,"type":"movie","add":"2017-10-24 11:22:01","orig_title":"Ghost Month","year":"2009-05-26","translations":["Любительский (двухголосый закадровый)"],"quality":"bd","translation":"Любительский (двухголосый закадровый)","update":"2017-10-25 19:59:48","iframe_src":"//7720.svetacdn.in/IAF0wWTdNYZm/movie/13989"},{"id":13984,"title":"Рыжая","kp_id":"440011","imdb_id":null,"world_art_id":null,"type":"movie","add":"2017-10-24 10:33:43","orig_title":"Рыжая","year":"2009-06-11","translations":["Оригинальная дорожка"],"quality":"dvdrip","translation":"Оригинальная дорожка","update":"2017-10-25 19:55:00","iframe_src":"//7720.svetacdn.in/IAF0wWTdNYZm/movie/13984"},{"id":13981,"title":"Контрольный выстрел","kp_id":"12359","imdb_id":"tt0251057","world_art_id":null,"type":"movie","add":"2017-10-24 09:51:11","orig_title":"Double Bang","year":"2001-08-17","translations":["Профессиональный (двухголосый закадровый)"],"quality":"dvdrip","translation":"Профессиональный (двухголосый закадровый)","update":"2017-10-26 11:16:09","iframe_src":"//7720.svetacdn.in/IAF0wWTdNYZm/movie/13981"},{"id":13980,"title":"Зона турбулентности","kp_id":"503145","imdb_id":"tt1796687","world_art_id":null,"type":"movie","add":"2017-10-24 09:42:02","orig_title":"Zona turbulentnosti","year":"2011-01-13","translations":["Оригинальная дорожка"],"quality":"sat","translation":"Оригинальная дорожка","update":"2017-10-26 11:08:36","iframe_src":"//7720.svetacdn.in/IAF0wWTdNYZm/movie/13980"},{"id":13967,"title":"Снайпер","kp_id":"468354","imdb_id":null,"world_art_id":null,"type":"movie","add":"2017-10-23 17:46:32","orig_title":"Снайпер","year":"2010-01-01","translations":["Оригинальная дорожка"],"quality":"dvdrip","translation":"Оригинальная дорожка","update":"2017-10-26 11:12:43","iframe_src":"//7720.svetacdn.in/IAF0wWTdNYZm/movie/13967"}],"current_page":2085,"first_page_url":"https://videocdn.tv/api/short?limit=100&api_token=6Onb1W1alEUrBcKJZD3GoKBbWyAl2uG2&cache32085=32085&page=1","from":208401,"last_page":649,"last_page_url":"https://videocdn.tv/api/short?limit=100&api_token=6Onb1W1alEUrBcKJZD3GoKBbWyAl2uG2&cache32085=32085&page=649","next_page_url":null,"path":"https://videocdn.tv/api/short","per_page":100,"prev_page_url":"https://videocdn.tv/api/short?limit=100&api_token=6Onb1W1alEUrBcKJZD3GoKBbWyAl2uG2&cache32085=32085&page=2084","to":208420,"total":64845}