{"result":true,"data":[{"id":24992,"title":"Приключения Травки","kp_id":"43260","imdb_id":"tt0075102","world_art_id":null,"type":"movie","add":"2019-04-21 09:57:26","orig_title":"Priklyucheniya Travki","year":"1976-01-01","translations":["Оригинальная дорожка"],"quality":"dvdrip","translation":"Оригинальная дорожка","update":"2019-04-22 12:01:29","iframe_src":"//8944266444.svetacdn.in/PfJ50H0ZBPg3/movie/24992"},{"id":24991,"title":"Дорога, ведущая к счастью","kp_id":"453082","imdb_id":"tt1512499","world_art_id":null,"type":"movie","add":"2019-04-21 09:56:43","orig_title":"Doroga, vedushaya k schastyu","year":"2009-03-29","translations":["Оригинальная дорожка"],"quality":"dvdrip","translation":"Оригинальная дорожка","update":"2019-04-22 12:00:53","iframe_src":"//8944266444.svetacdn.in/PfJ50H0ZBPg3/movie/24991"},{"id":24990,"title":"Дом малютки","kp_id":"521786","imdb_id":"tt1865350","world_art_id":null,"type":"movie","add":"2019-04-21 09:54:39","orig_title":"Dom malyutki","year":"2010-05-29","translations":["Оригинальная дорожка"],"quality":"sat","translation":"Оригинальная дорожка","update":"2019-04-22 11:59:39","iframe_src":"//8944266444.svetacdn.in/PfJ50H0ZBPg3/movie/24990"},{"id":24988,"title":"Долгий путь","kp_id":"44256","imdb_id":"tt0049149","world_art_id":null,"type":"movie","add":"2019-04-21 09:52:19","orig_title":"Dolgiy put","year":"1956-12-05","translations":["Оригинальная дорожка"],"quality":"sat","translation":"Оригинальная дорожка","update":"2019-04-22 11:58:18","iframe_src":"//8944266444.svetacdn.in/PfJ50H0ZBPg3/movie/24988"},{"id":24987,"title":"Доброта","kp_id":"184031","imdb_id":"tt0413954","world_art_id":null,"type":"movie","add":"2019-04-21 09:50:44","orig_title":"Dobrota","year":"1977-01-01","translations":["Оригинальная дорожка"],"quality":"sat","translation":"Оригинальная дорожка","update":"2019-04-22 11:57:40","iframe_src":"//8944266444.svetacdn.in/PfJ50H0ZBPg3/movie/24987"},{"id":24986,"title":"Девочка, хочешь сниматься в кино?","kp_id":"44177","imdb_id":"tt0127513","world_art_id":null,"type":"movie","add":"2019-04-21 09:37:33","orig_title":"Devochka, khochesh snimatsya v kino?","year":"1978-08-17","translations":["Оригинальная дорожка"],"quality":"sat","translation":"Оригинальная дорожка","update":"2019-04-22 11:55:10","iframe_src":"//8944266444.svetacdn.in/PfJ50H0ZBPg3/movie/24986"},{"id":24985,"title":"Детектив по-русски","kp_id":"471153","imdb_id":null,"world_art_id":null,"type":"movie","add":"2019-04-21 09:35:52","orig_title":"Детектив по-русски","year":"2003-01-01","translations":["Оригинальная дорожка"],"quality":"dvdrip","translation":"Оригинальная дорожка","update":"2019-04-22 11:54:24","iframe_src":"//8944266444.svetacdn.in/PfJ50H0ZBPg3/movie/24985"},{"id":24984,"title":"Деревня Утка","kp_id":"44149","imdb_id":"tt0074396","world_art_id":null,"type":"movie","add":"2019-04-21 09:34:35","orig_title":"Derevnya Utka. Skazka.","year":"1977-04-01","translations":["Оригинальная дорожка"],"quality":"dvdrip","translation":"Оригинальная дорожка","update":"2019-04-22 11:52:32","iframe_src":"//8944266444.svetacdn.in/PfJ50H0ZBPg3/movie/24984"},{"id":24983,"title":"День отчаяния","kp_id":"528175","imdb_id":"tt3692964","world_art_id":null,"type":"movie","add":"2019-04-21 09:32:54","orig_title":"Den otchayaniya","year":"2010-06-18","translations":["Оригинальная дорожка"],"quality":"hdtv","translation":"Оригинальная дорожка","update":"2019-04-22 11:51:24","iframe_src":"//8944266444.svetacdn.in/PfJ50H0ZBPg3/movie/24983"},{"id":24982,"title":"Черное платье","kp_id":"421436","imdb_id":null,"world_art_id":null,"type":"movie","add":"2019-04-21 09:31:34","orig_title":"Черное платье","year":"2008-01-01","translations":["Оригинальная дорожка"],"quality":"dvdrip","translation":"Оригинальная дорожка","update":"2019-04-22 11:50:34","iframe_src":"//8944266444.svetacdn.in/PfJ50H0ZBPg3/movie/24982"},{"id":24981,"title":"Чёрный баран","kp_id":"528236","imdb_id":"tt1792035","world_art_id":null,"type":"movie","add":"2019-04-21 09:30:17","orig_title":"Chornyy baran","year":"2009-01-01","translations":["Оригинальная дорожка"],"quality":"dvdrip","translation":"Оригинальная дорожка","update":"2019-04-22 11:49:34","iframe_src":"//8944266444.svetacdn.in/PfJ50H0ZBPg3/movie/24981"},{"id":24980,"title":"Чёрный город","kp_id":"565081","imdb_id":null,"world_art_id":null,"type":"movie","add":"2019-04-21 09:27:50","orig_title":"Чёрный город","year":"2010-01-01","translations":["Оригинальная дорожка"],"quality":"dvdrip","translation":"Оригинальная дорожка","update":"2019-04-22 11:48:51","iframe_src":"//8944266444.svetacdn.in/PfJ50H0ZBPg3/movie/24980"},{"id":24979,"title":"Человек с ружьем","kp_id":"45467","imdb_id":"tt0029986","world_art_id":null,"type":"movie","add":"2019-04-21 09:26:27","orig_title":"Chelovek s ruzhyom","year":"1938-11-01","translations":["Оригинальная дорожка"],"quality":"dvdrip","translation":"Оригинальная дорожка","update":"2019-04-22 11:47:38","iframe_src":"//8944266444.svetacdn.in/PfJ50H0ZBPg3/movie/24979"},{"id":24978,"title":"Человек не сдается","kp_id":"45458","imdb_id":"tt0313877","world_art_id":null,"type":"movie","add":"2019-04-21 09:23:08","orig_title":"Chelovek ne sdayotsya","year":"1961-05-02","translations":["Оригинальная дорожка"],"quality":"sat","translation":"Оригинальная дорожка","update":"2019-04-22 11:46:41","iframe_src":"//8944266444.svetacdn.in/PfJ50H0ZBPg3/movie/24978"},{"id":24977,"title":"Чайка","kp_id":"45434","imdb_id":"tt0065533","world_art_id":null,"type":"movie","add":"2019-04-21 09:21:25","orig_title":"Chayka","year":"1972-01-07","translations":["Оригинальная дорожка"],"quality":"dvdrip","translation":"Оригинальная дорожка","update":"2019-04-22 11:45:46","iframe_src":"//8944266444.svetacdn.in/PfJ50H0ZBPg3/movie/24977"},{"id":24976,"title":"Чартер","kp_id":"400071","imdb_id":null,"world_art_id":null,"type":"movie","add":"2019-04-21 09:19:17","orig_title":"Чартер","year":"2007-01-01","translations":["Оригинальная дорожка"],"quality":"dvdrip","translation":"Оригинальная дорожка","update":"2019-04-22 11:44:50","iframe_src":"//8944266444.svetacdn.in/PfJ50H0ZBPg3/movie/24976"},{"id":24975,"title":"Буря над Азией","kp_id":"46248","imdb_id":"tt0305344","world_art_id":null,"type":"movie","add":"2019-04-21 09:17:19","orig_title":"Burya nad Aziey","year":"1965-11-22","translations":["Оригинальная дорожка"],"quality":"vhs","translation":"Оригинальная дорожка","update":"2019-04-22 11:43:14","iframe_src":"//8944266444.svetacdn.in/PfJ50H0ZBPg3/movie/24975"},{"id":24974,"title":"Бубен, барабан","kp_id":"409113","imdb_id":"tt1435475","world_art_id":null,"type":"movie","add":"2019-04-21 01:14:05","orig_title":"Buben, baraban","year":"2009-08-07","translations":["Оригинальная дорожка"],"quality":"dvdrip","translation":"Оригинальная дорожка","update":"2019-04-22 11:42:33","iframe_src":"//8944266444.svetacdn.in/PfJ50H0ZBPg3/movie/24974"},{"id":24973,"title":"Бравые парни","kp_id":"113185","imdb_id":"tt0321525","world_art_id":null,"type":"movie","add":"2019-04-21 01:11:33","orig_title":"Bravye parni","year":"1983-01-01","translations":["Оригинальная дорожка"],"quality":"dvdrip","translation":"Оригинальная дорожка","update":"2019-04-22 11:41:57","iframe_src":"//8944266444.svetacdn.in/PfJ50H0ZBPg3/movie/24973"},{"id":24972,"title":"Воры и проститутки. Приз – полет в космос","kp_id":"279542","imdb_id":"tt6336860","world_art_id":null,"type":"movie","add":"2019-04-21 01:09:32","orig_title":"Vory i prostitutki. Priz - polyot v kosmos","year":"2004-01-01","translations":["Оригинальная дорожка"],"quality":"dvdrip","translation":"Оригинальная дорожка","update":"2019-04-22 11:41:05","iframe_src":"//8944266444.svetacdn.in/PfJ50H0ZBPg3/movie/24972"}],"current_page":1996,"first_page_url":"https://videocdn.tv/api/short?limit=100&api_token=RgFQdUIR2dRmwv8iYa5SnFNgnw3vpjKj&cache31996=31996&page=1","from":199501,"last_page":727,"last_page_url":"https://videocdn.tv/api/short?limit=100&api_token=RgFQdUIR2dRmwv8iYa5SnFNgnw3vpjKj&cache31996=31996&page=727","next_page_url":null,"path":"https://videocdn.tv/api/short","per_page":100,"prev_page_url":"https://videocdn.tv/api/short?limit=100&api_token=RgFQdUIR2dRmwv8iYa5SnFNgnw3vpjKj&cache31996=31996&page=1995","to":199520,"total":72610}