{"result":true,"data":[{"id":35459,"title":"Звери","kp_id":"1164765","imdb_id":"tt8525070","world_art_id":null,"type":"movie","add":"2020-01-26 05:38:21","orig_title":"Les fauves","year":"2018-09-22","translations":["Любительский (многоголосый закадровый) (Синема УС)"],"quality":"webdl","translation":"Любительский (многоголосый закадровый) (Синема УС)","update":"2020-01-26 09:07:34","iframe_src":"//7923.svetacdn.in/si4jsFRrtgrT/movie/35459"},{"id":35457,"title":"Это ложь, но я поверю","kp_id":"1147792","imdb_id":"tt8393918","world_art_id":null,"type":"movie","add":"2020-01-26 05:35:20","orig_title":"Non è vero ma ci credo","year":"2018-10-04","translations":["Любительский (многоголосый закадровый) (AlphaProject)"],"quality":"bd","translation":"Любительский (многоголосый закадровый) (AlphaProject)","update":"2020-01-26 09:07:11","iframe_src":"//7923.svetacdn.in/si4jsFRrtgrT/movie/35457"},{"id":35455,"title":"Слухи из наземного управления","kp_id":"930036","imdb_id":"tt4966060","world_art_id":null,"type":"movie","add":"2020-01-26 05:32:01","orig_title":"Rumor from Ground Control","year":"2018-05-17","translations":["Любительский (многоголосый закадровый) (Синема УС)"],"quality":"webdl","translation":"Любительский (многоголосый закадровый) (Синема УС)","update":"2020-01-26 09:06:02","iframe_src":"//7923.svetacdn.in/si4jsFRrtgrT/movie/35455"},{"id":35453,"title":"Тригонал: Борьба за справедливость","kp_id":"1093822","imdb_id":"tt7419218","world_art_id":null,"type":"movie","add":"2020-01-26 05:28:30","orig_title":"The Trigonal: Fight for Justice","year":"2018-05-12","translations":["Любительский (многоголосый закадровый) (Синема УС)"],"quality":"webdl","translation":"Любительский (многоголосый закадровый) (Синема УС)","update":"2020-01-26 09:05:21","iframe_src":"//7923.svetacdn.in/si4jsFRrtgrT/movie/35453"},{"id":35432,"title":"Охотники за сокровищами","kp_id":"407373","imdb_id":"tt1198403","world_art_id":null,"type":"movie","add":"2020-01-25 21:03:47","orig_title":"Lost City Raiders","year":"2008-10-31","translations":["Профессиональный (многоголосый закадровый)"],"quality":"bd","translation":"Профессиональный (многоголосый закадровый)","update":"2020-01-26 13:24:22","iframe_src":"//7923.svetacdn.in/si4jsFRrtgrT/movie/35432"},{"id":35431,"title":"Негодяи","kp_id":"424167","imdb_id":"tt1274295","world_art_id":null,"type":"movie","add":"2020-01-25 21:01:30","orig_title":"Kaminey","year":"2009-08-14","translations":["Профессиональный (многоголосый закадровый)"],"quality":"hdrip","translation":"Профессиональный (многоголосый закадровый)","update":"2020-01-26 13:24:55","iframe_src":"//7923.svetacdn.in/si4jsFRrtgrT/movie/35431"},{"id":35429,"title":"В конце туннеля","kp_id":"996417","imdb_id":"tt5644498","world_art_id":null,"type":"movie","add":"2020-01-24 21:57:29","orig_title":"At the End of the Tunnel","year":"2018-02-18","translations":["Любительский (многоголосый закадровый) (Синема УС)"],"quality":"webdl","translation":"Любительский (многоголосый закадровый) (Синема УС)","update":"2020-01-25 03:45:22","iframe_src":"//7923.svetacdn.in/si4jsFRrtgrT/movie/35429"},{"id":35428,"title":"Психопати","kp_id":"1254366","imdb_id":"tt10101774","world_art_id":null,"type":"movie","add":"2020-01-24 21:52:22","orig_title":"The Party Planner","year":"2020-01-12","translations":["Любительский (многоголосый закадровый) (AlphaProject)"],"quality":"hdtv","translation":"Любительский (многоголосый закадровый) (AlphaProject)","update":"2020-01-25 03:43:04","iframe_src":"//7923.svetacdn.in/si4jsFRrtgrT/movie/35428"},{"id":35427,"title":"Охотник на ракеты","kp_id":"1327431","imdb_id":"tt11316764","world_art_id":null,"type":"movie","add":"2020-01-24 21:51:15","orig_title":"Rocket Hunter","year":"2020-09-01","translations":["Любительский (многоголосый закадровый) (AlphaProject)"],"quality":"webdl","translation":"Любительский (многоголосый закадровый) (AlphaProject)","update":"2020-01-25 03:42:30","iframe_src":"//7923.svetacdn.in/si4jsFRrtgrT/movie/35427"},{"id":35426,"title":"Как выглядит любовь","kp_id":"1239088","imdb_id":"tt9651918","world_art_id":null,"type":"movie","add":"2020-01-24 21:48:13","orig_title":"What Love Looks Like","year":"2020-01-19","translations":["Любительский (многоголосый закадровый) (Синема УС)"],"quality":"webdl","translation":"Любительский (многоголосый закадровый) (Синема УС)","update":"2020-01-25 03:39:09","iframe_src":"//7923.svetacdn.in/si4jsFRrtgrT/movie/35426"},{"id":35425,"title":"Волшебные ночи","kp_id":"1132249","imdb_id":"tt8222408","world_art_id":null,"type":"movie","add":"2020-01-24 19:26:47","orig_title":"Notti magiche","year":"2018-10-25","translations":["Любительский (многоголосый закадровый) (Синема УС)"],"quality":"bd","translation":"Любительский (многоголосый закадровый) (Синема УС)","update":"2020-01-25 06:23:23","iframe_src":"//7923.svetacdn.in/si4jsFRrtgrT/movie/35425"},{"id":35424,"title":"Один из сих братьев моих меньших: Рождественская история","kp_id":"1214749","imdb_id":"tt9182202","world_art_id":null,"type":"movie","add":"2020-01-24 19:25:14","orig_title":"The Least of These: A Christmas Story","year":"2018-10-22","translations":["Любительский (многоголосый закадровый) (Синема УС)"],"quality":"webdl","translation":"Любительский (многоголосый закадровый) (Синема УС)","update":"2020-01-25 06:23:59","iframe_src":"//7923.svetacdn.in/si4jsFRrtgrT/movie/35424"},{"id":35421,"title":"Парень что надо","kp_id":"944012","imdb_id":"tt5117484","world_art_id":null,"type":"movie","add":"2020-01-24 19:19:53","orig_title":"Frat Star","year":"2017-01-03","translations":["Любительский (многоголосый закадровый) (Синема УС)"],"quality":"webdl","translation":"Любительский (многоголосый закадровый) (Синема УС)","update":"2020-01-24 21:58:41","iframe_src":"//7923.svetacdn.in/si4jsFRrtgrT/movie/35421"},{"id":35420,"title":"Номады","kp_id":"1188738","imdb_id":"tt8910924","world_art_id":null,"type":"movie","add":"2020-01-24 19:17:16","orig_title":"The Nomads","year":"2019-10-27","translations":["Любительский (многоголосый закадровый) (Синема УС)"],"quality":"webdl","translation":"Любительский (многоголосый закадровый) (Синема УС)","update":"2020-01-25 06:25:49","iframe_src":"//7923.svetacdn.in/si4jsFRrtgrT/movie/35420"},{"id":35418,"title":"Проклятая волна","kp_id":"557683","imdb_id":"tt1656171","world_art_id":null,"type":"movie","add":"2020-01-24 10:28:38","orig_title":"Dam999","year":"2011-11-25","translations":["Профессиональный (многоголосый закадровый)"],"quality":"bd","translation":"Профессиональный (многоголосый закадровый)","update":"2020-01-26 09:49:16","iframe_src":"//7923.svetacdn.in/si4jsFRrtgrT/movie/35418"},{"id":35417,"title":"За решеткой","kp_id":"412392","imdb_id":"tt1229764","world_art_id":null,"type":"movie","add":"2020-01-24 10:23:49","orig_title":"Ring of Death","year":"2008-08-18","translations":["Профессиональный (многоголосый закадровый)"],"quality":"hdrip","translation":"Профессиональный (многоголосый закадровый)","update":"2020-01-26 09:49:49","iframe_src":"//7923.svetacdn.in/si4jsFRrtgrT/movie/35417"},{"id":35416,"title":"Молодой Адам","kp_id":"3426","imdb_id":"tt0289635","world_art_id":null,"type":"movie","add":"2020-01-24 10:18:29","orig_title":"Young Adam","year":"2003-09-26","translations":["Профессиональный (многоголосый закадровый)"],"quality":"bd","translation":"Профессиональный (многоголосый закадровый)","update":"2020-01-26 09:51:08","iframe_src":"//7923.svetacdn.in/si4jsFRrtgrT/movie/35416"},{"id":35415,"title":"Капкан времени","kp_id":"64193","imdb_id":"tt0381601","world_art_id":null,"type":"movie","add":"2020-01-24 09:29:22","orig_title":"Slipstream","year":"2005-02-03","translations":["Профессиональный (двухголосый закадровый)"],"quality":"bd","translation":"Профессиональный (двухголосый закадровый)","update":"2020-01-26 09:57:58","iframe_src":"//7923.svetacdn.in/si4jsFRrtgrT/movie/35415"},{"id":35413,"title":"009-1: Конец начала","kp_id":"776386","imdb_id":"tt3008816","world_art_id":null,"type":"movie","add":"2020-01-23 21:56:17","orig_title":"009-1: The End of the Beginning","year":"2013-09-07","translations":["Любительский (двухголосый закадровый) (DeadSno & den904)"],"quality":"bd","translation":"Любительский (двухголосый закадровый) (DeadSno & den904)","update":"2020-01-24 21:46:25","iframe_src":"//7923.svetacdn.in/si4jsFRrtgrT/movie/35413"},{"id":35292,"title":"На грани эго и желания","kp_id":"1141320","imdb_id":"tt8140328","world_art_id":null,"type":"movie","add":"2020-01-21 12:22:32","orig_title":"On the Corner of Ego and Desire","year":"2019-05-25","translations":["Original (English)","Любительский (многоголосый закадровый) (Синема УС)"],"quality":"webdl","translation":"Original (English)","update":"2020-01-25 03:43:57","iframe_src":"//7923.svetacdn.in/si4jsFRrtgrT/movie/35292"}],"current_page":1023,"first_page_url":"https://videocdn.tv/api/short?limit=100&api_token=X6EwAUfE5M9xbo7y0Bp0aPf3uXxG2KLL&cache31023=31023&page=1","from":102201,"last_page":645,"last_page_url":"https://videocdn.tv/api/short?limit=100&api_token=X6EwAUfE5M9xbo7y0Bp0aPf3uXxG2KLL&cache31023=31023&page=645","next_page_url":null,"path":"https://videocdn.tv/api/short","per_page":100,"prev_page_url":"https://videocdn.tv/api/short?limit=100&api_token=X6EwAUfE5M9xbo7y0Bp0aPf3uXxG2KLL&cache31023=31023&page=1022","to":102220,"total":64442}