{"result":true,"data":[{"id":12839,"title":"Потерянный Вегас","kp_id":"912125","imdb_id":"tt4662062","world_art_id":null,"type":"movie","add":"2017-08-08 04:24:52","orig_title":"Lost Vegas Hiway","year":"2017-03-11","translations":["Любительский (многоголосый закадровый) (Синема УС)"],"quality":"webdl","translation":"Любительский (многоголосый закадровый) (Синема УС)","update":"2017-08-08 05:30:41","iframe_src":"//83.svetacdn.in/PfJ50H0ZBPg3/movie/12839"},{"id":12838,"title":"001 Троллинг","kp_id":"907972","imdb_id":"tt4602074","world_art_id":null,"type":"movie","add":"2017-08-07 22:01:30","orig_title":"Trolling","year":"2017-08-06","translations":["Любительский (многоголосый закадровый) (Синема УС)"],"quality":"webdl","translation":"Любительский (многоголосый закадровый) (Синема УС)","update":"2017-08-08 05:11:24","iframe_src":"//83.svetacdn.in/PfJ50H0ZBPg3/movie/12838"},{"id":12820,"title":"День катастрофы","kp_id":"86740","imdb_id":"tt0428144","world_art_id":null,"type":"movie","add":"2017-08-07 05:08:45","orig_title":"Category 6: Day of Destruction","year":"2004-11-14","translations":["Профессиональный (двухголосый закадровый)"],"quality":"dvdrip","translation":"Профессиональный (двухголосый закадровый)","update":"2017-08-07 09:04:46","iframe_src":"//83.svetacdn.in/PfJ50H0ZBPg3/movie/12820"},{"id":12819,"title":"Любовь любит случайности","kp_id":"574912","imdb_id":"tt1807950","world_art_id":null,"type":"movie","add":"2017-08-07 05:07:19","orig_title":"Ask Tesadüfleri Sever","year":"2011-02-03","translations":["Любительский (одноголосый закадровый)"],"quality":"dvdrip","translation":"Любительский (одноголосый закадровый)","update":"2017-08-07 09:06:30","iframe_src":"//83.svetacdn.in/PfJ50H0ZBPg3/movie/12819"},{"id":12817,"title":"Открытое пространство","kp_id":"395409","imdb_id":"tt1333654","world_art_id":null,"type":"movie","add":"2017-08-07 05:05:27","orig_title":"Otkrytoe prostranstvo","year":"2008-04-03","translations":["Оригинальная дорожка"],"quality":"dvdrip","translation":"Оригинальная дорожка","update":"2017-08-07 09:08:41","iframe_src":"//83.svetacdn.in/PfJ50H0ZBPg3/movie/12817"},{"id":12816,"title":"Жесть","kp_id":"161140","imdb_id":"tt0479775","world_art_id":null,"type":"movie","add":"2017-08-07 05:04:28","orig_title":"Zhest","year":"2006-03-23","translations":["Оригинальная дорожка"],"quality":"dvdrip","translation":"Оригинальная дорожка","update":"2017-08-07 09:05:17","iframe_src":"//83.svetacdn.in/PfJ50H0ZBPg3/movie/12816"},{"id":12815,"title":"Кровавая борьба в долине Айрон-Рок","kp_id":"690632","imdb_id":"tt2424538","world_art_id":null,"type":"movie","add":"2017-08-07 05:03:42","orig_title":"Cheol-ham-gye-gok-eui hyeo-too","year":"2011-11-12","translations":["Любительский (одноголосый закадровый) (den904)"],"quality":"dvdrip","translation":"Любительский (одноголосый закадровый) (den904)","update":"2017-08-07 09:10:00","iframe_src":"//83.svetacdn.in/PfJ50H0ZBPg3/movie/12815"},{"id":12813,"title":"Планета синглов","kp_id":"940710","imdb_id":"tt5127398","world_art_id":null,"type":"movie","add":"2017-08-07 04:34:29","orig_title":"Planeta Singli","year":"2016-02-05","translations":["Любительский (многоголосый закадровый) (@MUZOBOZ@)"],"quality":"bd","translation":"Любительский (многоголосый закадровый) (@MUZOBOZ@)","update":"2017-08-07 10:01:16","iframe_src":"//83.svetacdn.in/PfJ50H0ZBPg3/movie/12813"},{"id":12806,"title":"Танцевальная академия: Фильм","kp_id":"992339","imdb_id":"tt5834660","world_art_id":null,"type":"movie","add":"2017-08-07 04:27:16","orig_title":"Dance Academy: The Movie","year":"2017-04-06","translations":["Любительский (многоголосый закадровый) (Синема УС)"],"quality":"bd","translation":"Любительский (многоголосый закадровый) (Синема УС)","update":"2017-08-07 09:11:10","iframe_src":"//83.svetacdn.in/PfJ50H0ZBPg3/movie/12806"},{"id":12805,"title":"Поцелуй у костра","kp_id":"1010302","imdb_id":"tt6386526","world_art_id":null,"type":"movie","add":"2017-08-07 04:25:51","orig_title":"Campfire Kiss","year":"2017-03-18","translations":["Любительский (многоголосый закадровый) (Синема УС)"],"quality":"hdtv","translation":"Любительский (многоголосый закадровый) (Синема УС)","update":"2017-08-07 09:13:24","iframe_src":"//83.svetacdn.in/PfJ50H0ZBPg3/movie/12805"},{"id":12801,"title":"Одноклассницы","kp_id":"279855","imdb_id":"tt0964587","world_art_id":null,"type":"movie","add":"2017-08-06 12:08:29","orig_title":"St. Trinian's","year":"2007-12-10","translations":["Профессиональный (многоголосый закадровый)"],"quality":"bd","translation":"Профессиональный (многоголосый закадровый)","update":"2017-08-08 05:40:32","iframe_src":"//83.svetacdn.in/PfJ50H0ZBPg3/movie/12801"},{"id":12800,"title":"Безопасность не гарантируется","kp_id":"652297","imdb_id":"tt1862079","world_art_id":null,"type":"movie","add":"2017-08-06 12:07:15","orig_title":"Safety Not Guaranteed","year":"2012-01-22","translations":["Профессиональный (многоголосый закадровый)"],"quality":"bd","translation":"Профессиональный (многоголосый закадровый)","update":"2017-08-08 05:38:36","iframe_src":"//83.svetacdn.in/PfJ50H0ZBPg3/movie/12800"},{"id":12799,"title":"Не худо бы похудеть","kp_id":"665117","imdb_id":"tt2210823","world_art_id":null,"type":"movie","add":"2017-08-06 12:06:03","orig_title":"Mince alors!","year":"2012-03-28","translations":["Профессиональный (многоголосый закадровый)"],"quality":"bd","translation":"Профессиональный (многоголосый закадровый)","update":"2017-08-07 05:44:59","iframe_src":"//83.svetacdn.in/PfJ50H0ZBPg3/movie/12799"},{"id":12798,"title":"По признакам совместимости","kp_id":"601525","imdb_id":"tt0878814","world_art_id":null,"type":"movie","add":"2017-08-06 12:05:06","orig_title":"Jewtopia","year":"2012-04-26","translations":["Полное дублирование"],"quality":"bd","translation":"Полное дублирование","update":"2017-08-07 05:43:21","iframe_src":"//83.svetacdn.in/PfJ50H0ZBPg3/movie/12798"},{"id":12797,"title":"Павшая империя","kp_id":"546683","imdb_id":"tt1693679","world_art_id":null,"type":"movie","add":"2017-08-06 12:04:01","orig_title":"Hirokin","year":"2012-04-23","translations":["Профессиональный (многоголосый закадровый)"],"quality":"bd","translation":"Профессиональный (многоголосый закадровый)","update":"2017-08-07 05:38:07","iframe_src":"//83.svetacdn.in/PfJ50H0ZBPg3/movie/12797"},{"id":12414,"title":"Во всем виноват енот","kp_id":"945153","imdb_id":"tt5195412","world_art_id":null,"type":"movie","add":"2017-07-10 09:52:36","orig_title":"Wakefield","year":"2016-09-02","translations":["Любительский (многоголосый закадровый) (@MUZOBOZ@)","Полное дублирование","Полное дублирование (iTunes)"],"quality":"dvdrip","translation":"Любительский (многоголосый закадровый) (@MUZOBOZ@)","update":"2017-08-07 09:16:32","iframe_src":"//83.svetacdn.in/PfJ50H0ZBPg3/movie/12414"},{"id":10834,"title":"Пустота","kp_id":"916824","imdb_id":"tt4255304","world_art_id":null,"type":"movie","add":"2017-04-09 21:37:42","orig_title":"The Void","year":"2016-09-22","translations":["Профессиональный (многоголосый закадровый) (@MUZOBOZ@)","Любительский (одноголосый закадровый) (Хихикающий доктор)","Любительский (многоголосый закадровый) (Колобок)","Профессиональный (многоголосый закадровый) (ViruseProject)"],"quality":"webdl","translation":"Профессиональный (многоголосый закадровый) (@MUZOBOZ@)","update":"2017-08-07 09:15:21","iframe_src":"//83.svetacdn.in/PfJ50H0ZBPg3/movie/10834"},{"id":7972,"title":"Дамское чтиво","kp_id":"870711","imdb_id":"tt3865238","world_art_id":null,"type":"movie","add":"2016-12-11 05:32:29","orig_title":"ChickLit","year":"2016-09-02","translations":["Любительский (многоголосый закадровый) (@MUZOBOZ@)"],"quality":"bd","translation":"Любительский (многоголосый закадровый) (@MUZOBOZ@)","update":"2017-08-07 09:09:30","iframe_src":"//83.svetacdn.in/PfJ50H0ZBPg3/movie/7972"},{"id":7274,"title":"Саутсайд с тобой","kp_id":"884163","imdb_id":"tt4258698","world_art_id":null,"type":"movie","add":"2016-11-10 07:38:27","orig_title":"Southside with You","year":"2016-01-24","translations":["Полное дублирование","Профессиональный (многоголосый закадровый) (Колобок)","Профессиональный (многоголосый закадровый)"],"quality":"camrip","translation":"Полное дублирование","update":"2017-08-07 10:00:22","iframe_src":"//83.svetacdn.in/PfJ50H0ZBPg3/movie/7274"},{"id":5015,"title":"Я не серийный убийца","kp_id":"877165","imdb_id":"tt4303340","world_art_id":null,"type":"movie","add":"2016-09-04 12:58:53","orig_title":"I Am Not a Serial Killer","year":"2016-03-13","translations":["Любительский (многоголосый закадровый) (Parovoz Production)","Профессиональный (многоголосый закадровый)"],"quality":"webdl","translation":"Любительский (многоголосый закадровый) (Parovoz Production)","update":"2017-08-07 09:07:05","iframe_src":"//83.svetacdn.in/PfJ50H0ZBPg3/movie/5015"}],"current_page":2169,"first_page_url":"https://videocdn.tv/api/short?limit=100&api_token=RgFQdUIR2dRmwv8iYa5SnFNgnw3vpjKj&cache32169=32169&page=1","from":216801,"last_page":656,"last_page_url":"https://videocdn.tv/api/short?limit=100&api_token=RgFQdUIR2dRmwv8iYa5SnFNgnw3vpjKj&cache32169=32169&page=656","next_page_url":null,"path":"https://videocdn.tv/api/short","per_page":100,"prev_page_url":"https://videocdn.tv/api/short?limit=100&api_token=RgFQdUIR2dRmwv8iYa5SnFNgnw3vpjKj&cache32169=32169&page=2168","to":216820,"total":65600}