{"result":true,"data":[{"id":39280,"title":"Клеопатра","kp_id":"17914","imdb_id":"tt0056937","world_art_id":null,"type":"movie","add":"2020-04-14 07:44:42","orig_title":"Cleopatra","year":"1963-06-12","translations":["Полное дублирование"],"quality":"hdtv","translation":"Полное дублирование","update":"2020-04-14 12:00:09","iframe_src":"//83.svetacdn.in/PfJ50H0ZBPg3/movie/39280"},{"id":39278,"title":"Линия паса","kp_id":"385385","imdb_id":"tt0803029","world_art_id":null,"type":"movie","add":"2020-04-14 07:41:45","orig_title":"Linha de Passe","year":"2008-05-17","translations":["Любительский (одноголосый закадровый)"],"quality":"dvdrip","translation":"Любительский (одноголосый закадровый)","update":"2020-04-14 11:56:40","iframe_src":"//83.svetacdn.in/PfJ50H0ZBPg3/movie/39278"},{"id":37434,"title":"Наказание","kp_id":"557759","imdb_id":"tt1701990","world_art_id":null,"type":"movie","add":"2020-03-05 09:47:15","orig_title":"Detention","year":"2011-03-13","translations":["Профессиональный (многоголосый закадровый)","Original (English)"],"quality":"bd","translation":"Профессиональный (многоголосый закадровый)","update":"2020-04-14 12:28:26","iframe_src":"//83.svetacdn.in/PfJ50H0ZBPg3/movie/37434"},{"id":37269,"title":"Дитя октября","kp_id":"566314","imdb_id":"tt1720182","world_art_id":null,"type":"movie","add":"2020-03-03 08:10:56","orig_title":"October Baby","year":"2011-10-28","translations":["Профессиональный (многоголосый закадровый)","Original (English)"],"quality":"bd","translation":"Профессиональный (многоголосый закадровый)","update":"2020-04-14 12:38:33","iframe_src":"//83.svetacdn.in/PfJ50H0ZBPg3/movie/37269"},{"id":37162,"title":"Под перекрестным огнем","kp_id":"532975","imdb_id":"tt1449379","world_art_id":null,"type":"movie","add":"2020-03-01 07:16:39","orig_title":"Caught in the Crossfire","year":"2010-07-13","translations":["Профессиональный (многоголосый закадровый) (НТВ)","Original (English)"],"quality":"bd","translation":"Профессиональный (многоголосый закадровый) (НТВ)","update":"2020-04-14 12:27:23","iframe_src":"//83.svetacdn.in/PfJ50H0ZBPg3/movie/37162"},{"id":37153,"title":"Всё путем!","kp_id":"484429","imdb_id":"tt1531663","world_art_id":null,"type":"movie","add":"2020-02-29 18:14:10","orig_title":"Everything Must Go","year":"2010-09-10","translations":["Профессиональный (многоголосый закадровый) (НТВ)","Original (English)"],"quality":"bd","translation":"Профессиональный (многоголосый закадровый) (НТВ)","update":"2020-04-14 12:29:43","iframe_src":"//83.svetacdn.in/PfJ50H0ZBPg3/movie/37153"},{"id":37147,"title":"Маскарад","kp_id":"493366","imdb_id":"tt1577055","world_art_id":null,"type":"movie","add":"2020-02-29 18:07:31","orig_title":"Maskerade","year":"2011-04-12","translations":["Профессиональный (двухголосый закадровый) (НТВ)","Original (English)"],"quality":"bd","translation":"Профессиональный (двухголосый закадровый) (НТВ)","update":"2020-04-14 12:36:41","iframe_src":"//83.svetacdn.in/PfJ50H0ZBPg3/movie/37147"},{"id":37063,"title":"Девять","kp_id":"295083","imdb_id":"tt0875034","world_art_id":null,"type":"movie","add":"2020-02-27 13:31:51","orig_title":"Nine","year":"2009-12-03","translations":["Профессиональный (многоголосый закадровый)","Original (English)"],"quality":"bd","translation":"Профессиональный (многоголосый закадровый)","update":"2020-04-14 12:37:39","iframe_src":"//83.svetacdn.in/PfJ50H0ZBPg3/movie/37063"},{"id":37055,"title":"Сезон ураганов","kp_id":"403431","imdb_id":"tt1172998","world_art_id":null,"type":"movie","add":"2020-02-27 13:20:24","orig_title":"Hurricane Season","year":"2009-12-08","translations":["Любительский (одноголосый закадровый) (Шадинский Денис)","Original (English)"],"quality":"bd","translation":"Любительский (одноголосый закадровый) (Шадинский Денис)","update":"2020-04-14 12:31:54","iframe_src":"//83.svetacdn.in/PfJ50H0ZBPg3/movie/37055"},{"id":36986,"title":"Гении","kp_id":"280967","imdb_id":"tt0991174","world_art_id":null,"type":"movie","add":"2020-02-26 11:36:01","orig_title":"Ingenious","year":"2009-02-01","translations":["Профессиональный (многоголосый закадровый)","Original (English)"],"quality":"bd","translation":"Профессиональный (многоголосый закадровый)","update":"2020-04-14 12:33:04","iframe_src":"//83.svetacdn.in/PfJ50H0ZBPg3/movie/36986"},{"id":36771,"title":"Алфавитный убийца","kp_id":"262636","imdb_id":"tt0818165","world_art_id":null,"type":"movie","add":"2020-02-22 17:27:16","orig_title":"The Alphabet Killer","year":"2008-10-18","translations":["Профессиональный (двухголосый закадровый)","Любительский (двухголосый закадровый)","Original (English)"],"quality":"hdtv","translation":"Профессиональный (двухголосый закадровый)","update":"2020-04-14 12:26:00","iframe_src":"//83.svetacdn.in/PfJ50H0ZBPg3/movie/36771"},{"id":36544,"title":"Одиннадцатый час","kp_id":"231154","imdb_id":"tt0492931","world_art_id":null,"type":"movie","add":"2020-02-19 13:43:28","orig_title":"The 11th Hour","year":"2007-05-19","translations":["Профессиональный (двухголосый закадровый)","Original (English)"],"quality":"webdl","translation":"Профессиональный (двухголосый закадровый)","update":"2020-04-14 12:18:26","iframe_src":"//83.svetacdn.in/PfJ50H0ZBPg3/movie/36544"},{"id":36342,"title":"Новая попытка Кейт МакКолл","kp_id":"528140","imdb_id":"tt1323973","world_art_id":null,"type":"movie","add":"2020-02-16 17:40:22","orig_title":"The Trials of Cate McCall","year":"2013-11-28","translations":["Профессиональный (многоголосый закадровый)","Original (English)"],"quality":"bd","translation":"Профессиональный (многоголосый закадровый)","update":"2020-04-14 11:45:17","iframe_src":"//83.svetacdn.in/PfJ50H0ZBPg3/movie/36342"},{"id":36332,"title":"Мертвые","kp_id":"450924","imdb_id":"tt1386925","world_art_id":null,"type":"movie","add":"2020-02-16 17:05:57","orig_title":"The Dead","year":"2010-08-30","translations":["Любительский (одноголосый закадровый)  (zamez | Замез Вячеслав)","Авторский (одноголосый закадровый) (Алексеев Антон)","Профессиональный (многоголосый закадровый)","Original (English)"],"quality":"bd","translation":"Любительский (одноголосый закадровый)  (zamez | Замез Вячеслав)","update":"2020-04-14 11:41:12","iframe_src":"//83.svetacdn.in/PfJ50H0ZBPg3/movie/36332"},{"id":36331,"title":"Высшая школа рок-н-ролла","kp_id":"21781","imdb_id":"tt0079813","world_art_id":null,"type":"movie","add":"2020-02-16 17:03:22","orig_title":"Rock 'n' Roll High School","year":"1979-04-20","translations":["Любительский (одноголосый закадровый) (Севастьянов Никита)","Original (English)"],"quality":"bd","translation":"Любительский (одноголосый закадровый) (Севастьянов Никита)","update":"2020-04-14 11:37:54","iframe_src":"//83.svetacdn.in/PfJ50H0ZBPg3/movie/36331"},{"id":36133,"title":"Потоки любви","kp_id":"7758","imdb_id":"tt0087644","world_art_id":null,"type":"movie","add":"2020-02-12 13:28:22","orig_title":"Love Streams","year":"1984-02-28","translations":["Профессиональный (двухголосый закадровый) (НТВ)","Профессиональный (многоголосый закадровый) (ТВЦ)","Original (English)"],"quality":"bd","translation":"Профессиональный (двухголосый закадровый) (НТВ)","update":"2020-04-14 11:43:41","iframe_src":"//83.svetacdn.in/PfJ50H0ZBPg3/movie/36133"},{"id":31244,"title":"Беззаботная","kp_id":"325549","imdb_id":"tt1045670","world_art_id":null,"type":"movie","add":"2019-09-28 14:13:08","orig_title":"Happy-Go-Lucky","year":"2008-02-12","translations":["Профессиональный (многоголосый закадровый)","Original (English)"],"quality":"bd","translation":"Профессиональный (многоголосый закадровый)","update":"2020-04-14 12:30:51","iframe_src":"//83.svetacdn.in/PfJ50H0ZBPg3/movie/31244"},{"id":10672,"title":"Незаконное вторжение","kp_id":"4055","imdb_id":"tt0105699","world_art_id":null,"type":"movie","add":"2017-04-02 18:53:55","orig_title":"Unlawful Entry","year":"1992-06-26","translations":["Профессиональный (многоголосый закадровый)","Авторский (одноголосый закадровый) (Дольский Андрей)","Авторский (одноголосый закадровый) (Гаврилов Андрей)","Авторский (одноголосый закадровый) (Горчаков Василий)","Профессиональный (двухголосый закадровый) (Премьер Видео Фильм)","Original (English)"],"quality":"bd","translation":"Профессиональный (многоголосый закадровый)","update":"2020-04-14 11:51:08","iframe_src":"//83.svetacdn.in/PfJ50H0ZBPg3/movie/10672"},{"id":7238,"title":"Турбулентность","kp_id":"3456","imdb_id":"tt0120390","world_art_id":null,"type":"movie","add":"2016-11-09 05:20:19","orig_title":"Turbulence","year":"1997-01-10","translations":["Профессиональный (многоголосый закадровый)","Авторский (одноголосый закадровый) (Гаврилов Андрей)","Авторский (одноголосый закадровый) (Есарев Дмитрий)","Original (English)"],"quality":"webdl","translation":"Профессиональный (многоголосый закадровый)","update":"2020-04-14 12:20:04","iframe_src":"//83.svetacdn.in/PfJ50H0ZBPg3/movie/7238"},{"id":1899,"title":"На расстоянии удара","kp_id":"2683","imdb_id":"tt0108238","world_art_id":null,"type":"movie","add":"2016-05-05 12:30:02","orig_title":"Striking Distance","year":"1993-09-17","translations":["Профессиональный (многоголосый закадровый)","Авторский (одноголосый закадровый) (Гаврилов Андрей)","Полное дублирование","Original (English)"],"quality":"bd","translation":"Профессиональный (многоголосый закадровый)","update":"2020-04-14 11:38:57","iframe_src":"//83.svetacdn.in/PfJ50H0ZBPg3/movie/1899"}],"current_page":687,"first_page_url":"https://videocdn.tv/api/short?limit=100&api_token=RgFQdUIR2dRmwv8iYa5SnFNgnw3vpjKj&cache3687=3687&page=1","from":68601,"last_page":618,"last_page_url":"https://videocdn.tv/api/short?limit=100&api_token=RgFQdUIR2dRmwv8iYa5SnFNgnw3vpjKj&cache3687=3687&page=618","next_page_url":null,"path":"https://videocdn.tv/api/short","per_page":100,"prev_page_url":"https://videocdn.tv/api/short?limit=100&api_token=RgFQdUIR2dRmwv8iYa5SnFNgnw3vpjKj&cache3687=3687&page=686","to":68620,"total":61758}