{"result":true,"data":[{"id":17109,"title":"Скарлет","kp_id":"874316","imdb_id":"tt3626504","world_art_id":null,"type":"movie","add":"2018-06-10 18:36:51","orig_title":"Scarlett","year":"2016-12-01","translations":["Любительский (многоголосый закадровый) (Синема УС)"],"quality":"webdl","translation":"Любительский (многоголосый закадровый) (Синема УС)","update":"2018-06-11 04:41:03","iframe_src":"//7043.svetacdn.in/71tsRs29n5tZ/movie/17109"},{"id":17106,"title":"Безумие!","kp_id":"957798","imdb_id":"tt5236900","world_art_id":null,"type":"movie","add":"2018-06-10 18:25:34","orig_title":"Nuts!","year":"2016-01-22","translations":["Любительский (многоголосый закадровый) (Синема УС)"],"quality":"webdl","translation":"Любительский (многоголосый закадровый) (Синема УС)","update":"2018-06-11 04:35:58","iframe_src":"//7043.svetacdn.in/71tsRs29n5tZ/movie/17106"},{"id":17103,"title":"Малыш Спиру","kp_id":"1013121","imdb_id":"tt6194538","world_art_id":null,"type":"movie","add":"2018-06-10 18:13:23","orig_title":"Le petit Spirou","year":"2017-08-27","translations":["Любительский (многоголосый закадровый) (Синема УС)"],"quality":"bd","translation":"Любительский (многоголосый закадровый) (Синема УС)","update":"2018-06-11 04:19:13","iframe_src":"//7043.svetacdn.in/71tsRs29n5tZ/movie/17103"},{"id":17100,"title":"Подмышки с корицей, Тату и Пату!","kp_id":"953206","imdb_id":"tt5262450","world_art_id":null,"type":"movie","add":"2018-06-10 18:06:42","orig_title":"Kanelia kainaloon, Tatu ja Patu!","year":"2016-10-19","translations":["Любительский (многоголосый закадровый) (Колобок)"],"quality":"bd","translation":"Любительский (многоголосый закадровый) (Колобок)","update":"2018-06-11 04:43:35","iframe_src":"//7043.svetacdn.in/71tsRs29n5tZ/movie/17100"},{"id":17099,"title":"Расследование Хейли Дин: 2 + 2 = убийство","kp_id":"1124252","imdb_id":"tt7946586","world_art_id":null,"type":"movie","add":"2018-06-10 18:02:22","orig_title":"Hailey Dean Mystery: 2 + 2 = Murder","year":"2018-03-18","translations":["Любительский (многоголосый закадровый) (Синема УС)"],"quality":"hdtv","translation":"Любительский (многоголосый закадровый) (Синема УС)","update":"2018-06-11 03:57:26","iframe_src":"//7043.svetacdn.in/71tsRs29n5tZ/movie/17099"},{"id":17097,"title":"Многоточие","kp_id":"1062190","imdb_id":"tt6990770","world_art_id":null,"type":"movie","add":"2018-06-10 17:58:40","orig_title":"Ellipsis","year":"2017-06-08","translations":["Любительский (многоголосый закадровый) (Синема УС)"],"quality":"webdl","translation":"Любительский (многоголосый закадровый) (Синема УС)","update":"2018-06-11 03:58:37","iframe_src":"//7043.svetacdn.in/71tsRs29n5tZ/movie/17097"},{"id":17095,"title":"Ужасная правда","kp_id":"1015","imdb_id":"tt0028597","world_art_id":null,"type":"movie","add":"2018-06-09 10:31:45","orig_title":"The Awful Truth","year":"1937-10-20","translations":["Профессиональный (двухголосый закадровый)"],"quality":"webdl","translation":"Профессиональный (двухголосый закадровый)","update":"2018-06-11 04:49:37","iframe_src":"//7043.svetacdn.in/71tsRs29n5tZ/movie/17095"},{"id":17094,"title":"Топор для новобрачной","kp_id":"102871","imdb_id":"tt0064904","world_art_id":null,"type":"movie","add":"2018-06-09 10:27:52","orig_title":"Il rosso segno della follia","year":"1970-06-02","translations":["Профессиональный (двухголосый закадровый)"],"quality":"bd","translation":"Профессиональный (двухголосый закадровый)","update":"2018-06-11 04:53:05","iframe_src":"//7043.svetacdn.in/71tsRs29n5tZ/movie/17094"},{"id":17058,"title":"Американский джедай","kp_id":"1089511","imdb_id":"tt7246408","world_art_id":null,"type":"movie","add":"2018-06-06 22:27:51","orig_title":"American Jedi","year":"2017-11-21","translations":["Любительский (многоголосый закадровый) (Синема УС)"],"quality":"webdl","translation":"Любительский (многоголосый закадровый) (Синема УС)","update":"2018-06-08 09:41:32","iframe_src":"//7043.svetacdn.in/71tsRs29n5tZ/movie/17058"},{"id":17057,"title":"Алтарь Эго","kp_id":"865747","imdb_id":"tt3647804","world_art_id":null,"type":"movie","add":"2018-06-06 22:24:11","orig_title":"Altar Egos","year":"2017-09-05","translations":["Любительский (многоголосый закадровый) (Синема УС)"],"quality":"webdl","translation":"Любительский (многоголосый закадровый) (Синема УС)","update":"2018-06-08 09:41:57","iframe_src":"//7043.svetacdn.in/71tsRs29n5tZ/movie/17057"},{"id":16808,"title":"Моя бывшая подружка","kp_id":"1107025","imdb_id":"tt7491128","world_art_id":null,"type":"movie","add":"2018-05-18 06:06:43","orig_title":"Ami-ami","year":"2018-01-17","translations":["Любительский (многоголосый закадровый) (@MUZOBOZ@)","Профессиональный (многоголосый закадровый)"],"quality":"bd","translation":"Любительский (многоголосый закадровый) (@MUZOBOZ@)","update":"2018-06-11 04:00:16","iframe_src":"//7043.svetacdn.in/71tsRs29n5tZ/movie/16808"},{"id":16769,"title":"Побег","kp_id":"1007034","imdb_id":"tt6069126","world_art_id":null,"type":"movie","add":"2018-05-15 05:12:56","orig_title":"The Escape","year":"2017-09-12","translations":["Любительский (многоголосый закадровый) (@MUZOBOZ@)","Полное дублирование"],"quality":"webdl","translation":"Любительский (многоголосый закадровый) (@MUZOBOZ@)","update":"2018-06-11 04:10:43","iframe_src":"//7043.svetacdn.in/71tsRs29n5tZ/movie/16769"},{"id":16683,"title":"Особняк Андэрс","kp_id":"998933","imdb_id":"tt5989336","world_art_id":null,"type":"movie","add":"2018-05-07 21:32:10","orig_title":"Anders Manor","year":"2018-05-18","translations":["Любительский (многоголосый закадровый) (Синема УС)","Любительский (двухголосый закадровый) (HiWayGrope)"],"quality":"dvdrip","translation":"Любительский (многоголосый закадровый) (Синема УС)","update":"2018-06-11 04:10:54","iframe_src":"//7043.svetacdn.in/71tsRs29n5tZ/movie/16683"},{"id":15996,"title":"Сука-судьба","kp_id":"983754","imdb_id":"tt5504810","world_art_id":null,"type":"movie","add":"2018-04-02 21:50:51","orig_title":"Si tu voyais son coeur","year":"2017-09-10","translations":["Профессиональный (многоголосый закадровый)"],"quality":"webdl","translation":"Профессиональный (многоголосый закадровый)","update":"2018-06-11 04:23:47","iframe_src":"//7043.svetacdn.in/71tsRs29n5tZ/movie/15996"},{"id":15769,"title":"Страна призраков","kp_id":"1007477","imdb_id":"tt6195094","world_art_id":null,"type":"movie","add":"2018-03-21 22:27:06","orig_title":"Ghostland","year":"2018-02-13","translations":["Полное дублирование"],"quality":"bd","translation":"Полное дублирование","update":"2018-06-11 04:47:49","iframe_src":"//7043.svetacdn.in/71tsRs29n5tZ/movie/15769"},{"id":15462,"title":"Саамская кровь","kp_id":"954265","imdb_id":"tt5287168","world_art_id":null,"type":"movie","add":"2018-03-06 22:33:58","orig_title":"Sameblod","year":"2016-09-08","translations":["Любительский (многоголосый закадровый) (Синема УС)","Любительский (одноголосый закадровый) (Хихикающий доктор)","Профессиональный (многоголосый закадровый) (GreenРай Studio)","Профессиональный (многоголосый закадровый)"],"quality":"dvdrip","translation":"Любительский (многоголосый закадровый) (Синема УС)","update":"2018-06-11 04:29:02","iframe_src":"//7043.svetacdn.in/71tsRs29n5tZ/movie/15462"},{"id":14991,"title":"Zомбоящик","kp_id":"1047867","imdb_id":"tt7926840","world_art_id":null,"type":"movie","add":"2018-01-29 05:36:01","orig_title":"Zomboyaschik","year":"2018-01-25","translations":["Оригинальная дорожка"],"quality":"webdl","translation":"Оригинальная дорожка","update":"2018-06-11 04:30:59","iframe_src":"//7043.svetacdn.in/71tsRs29n5tZ/movie/14991"},{"id":7399,"title":"Я мечтала об Африке","kp_id":"12272","imdb_id":"tt0167203","world_art_id":null,"type":"movie","add":"2016-11-13 12:31:05","orig_title":"I Dreamed of Africa","year":"2000-05-05","translations":["Профессиональный (многоголосый закадровый)"],"quality":"webdl","translation":"Профессиональный (многоголосый закадровый)","update":"2018-06-11 04:49:20","iframe_src":"//7043.svetacdn.in/71tsRs29n5tZ/movie/7399"},{"id":3311,"title":"Голограмма для короля","kp_id":"771067","imdb_id":"tt2980210","world_art_id":null,"type":"movie","add":"2016-06-22 03:42:38","orig_title":"A Hologram for the King","year":"2016-04-20","translations":["Полное дублирование (iTunes)"],"quality":"bd","translation":"Полное дублирование (iTunes)","update":"2018-06-11 03:52:34","iframe_src":"//7043.svetacdn.in/71tsRs29n5tZ/movie/3311"},{"id":2664,"title":"Убрать перископ","kp_id":"2514","imdb_id":"tt0116130","world_art_id":null,"type":"movie","add":"2016-05-27 11:51:55","orig_title":"Down Periscope","year":"1996-03-01","translations":["Профессиональный (многоголосый закадровый)","Авторский (одноголосый закадровый) (Санаев Павел)"],"quality":"webdl","translation":"Профессиональный (многоголосый закадровый)","update":"2018-06-11 04:52:29","iframe_src":"//7043.svetacdn.in/71tsRs29n5tZ/movie/2664"}],"current_page":1811,"first_page_url":"https://videocdn.tv/api/short?limit=100&api_token=EnbO9h8pv1VyjbCJhg0WM9nG259n7mtz&cache31811=31811&page=1","from":181001,"last_page":618,"last_page_url":"https://videocdn.tv/api/short?limit=100&api_token=EnbO9h8pv1VyjbCJhg0WM9nG259n7mtz&cache31811=31811&page=618","next_page_url":null,"path":"https://videocdn.tv/api/short","per_page":100,"prev_page_url":"https://videocdn.tv/api/short?limit=100&api_token=EnbO9h8pv1VyjbCJhg0WM9nG259n7mtz&cache31811=31811&page=1810","to":181020,"total":61758}