{"result":true,"data":[{"id":11582,"title":"Набей Ноги","kp_id":"863071","imdb_id":"tt4147596","world_art_id":null,"type":"movie","add":"2017-05-16 22:35:05","orig_title":"Breaking Legs","year":"2016-05-16","translations":["Любительский (многоголосый закадровый) (Синема УС)"],"quality":"webdl","translation":"Любительский (многоголосый закадровый) (Синема УС)","update":"2017-05-17 06:07:53","iframe_src":"//7923.svetacdn.in/si4jsFRrtgrT/movie/11582"},{"id":11573,"title":"Огненный шквал","kp_id":"421496","imdb_id":"tt1261048","world_art_id":null,"type":"movie","add":"2017-05-16 05:42:24","orig_title":"Heat Wave","year":"2009-01-09","translations":["Профессиональный (многоголосый закадровый)"],"quality":"dvdrip","translation":"Профессиональный (многоголосый закадровый)","update":"2017-05-16 06:51:21","iframe_src":"//7923.svetacdn.in/si4jsFRrtgrT/movie/11573"},{"id":11568,"title":"Любит музыку и танцы","kp_id":"297402","imdb_id":"tt0295405","world_art_id":null,"type":"movie","add":"2017-05-16 05:34:55","orig_title":"Loves Music, Loves to Dance","year":"2001-11-25","translations":["Профессиональный (двухголосый закадровый)"],"quality":"sat","translation":"Профессиональный (двухголосый закадровый)","update":"2017-05-16 06:53:37","iframe_src":"//7923.svetacdn.in/si4jsFRrtgrT/movie/11568"},{"id":11562,"title":"Высокие","kp_id":"977285","imdb_id":"tt5613902","world_art_id":null,"type":"movie","add":"2017-05-15 23:31:59","orig_title":"Tall Men","year":"2016-05-31","translations":["Любительский (многоголосый закадровый) (Синема УС)"],"quality":"webdl","translation":"Любительский (многоголосый закадровый) (Синема УС)","update":"2017-05-17 06:02:57","iframe_src":"//7923.svetacdn.in/si4jsFRrtgrT/movie/11562"},{"id":11561,"title":"Маленькие мужчины","kp_id":"926038","imdb_id":"tt4919484","world_art_id":null,"type":"movie","add":"2017-05-15 23:25:19","orig_title":"Little Men","year":"2016-01-25","translations":["Любительский (многоголосый закадровый) (Синема УС)"],"quality":"bd","translation":"Любительский (многоголосый закадровый) (Синема УС)","update":"2017-05-17 06:01:41","iframe_src":"//7923.svetacdn.in/si4jsFRrtgrT/movie/11561"},{"id":11560,"title":"Король Дэйв","kp_id":"910978","imdb_id":"tt4551882","world_art_id":null,"type":"movie","add":"2017-05-15 23:23:49","orig_title":"King Dave","year":"2016-06-14","translations":["Любительский (многоголосый закадровый) (Синема УС)"],"quality":"dvdrip","translation":"Любительский (многоголосый закадровый) (Синема УС)","update":"2017-05-17 06:00:37","iframe_src":"//7923.svetacdn.in/si4jsFRrtgrT/movie/11560"},{"id":11559,"title":"ООО Дом Ада","kp_id":"868781","imdb_id":"tt4267026","world_art_id":null,"type":"movie","add":"2017-05-15 23:22:04","orig_title":"Hell House LLC","year":"2015-10-16","translations":["Любительский (многоголосый закадровый) (Синема УС)"],"quality":"webdl","translation":"Любительский (многоголосый закадровый) (Синема УС)","update":"2017-05-17 05:59:19","iframe_src":"//7923.svetacdn.in/si4jsFRrtgrT/movie/11559"},{"id":11557,"title":"Премьер","kp_id":"961380","imdb_id":"tt5357556","world_art_id":null,"type":"movie","add":"2017-05-15 23:18:33","orig_title":"De Premier","year":"2016-10-26","translations":["Профессиональный (многоголосый закадровый) (GreenРай Studio)"],"quality":"bd","translation":"Профессиональный (многоголосый закадровый) (GreenРай Studio)","update":"2017-05-17 05:58:08","iframe_src":"//7923.svetacdn.in/si4jsFRrtgrT/movie/11557"},{"id":11554,"title":"7 ведьм","kp_id":"903221","imdb_id":"tt4424722","world_art_id":null,"type":"movie","add":"2017-05-15 23:11:06","orig_title":"7 Witches","year":"2017-04-14","translations":["Любительский (многоголосый закадровый) (Синема УС)"],"quality":"webdl","translation":"Любительский (многоголосый закадровый) (Синема УС)","update":"2017-05-16 07:15:42","iframe_src":"//7923.svetacdn.in/si4jsFRrtgrT/movie/11554"},{"id":11553,"title":"24 недели","kp_id":"957897","imdb_id":"tt5369484","world_art_id":null,"type":"movie","add":"2017-05-15 23:09:16","orig_title":"24 Wochen","year":"2016-02-14","translations":["Любительский (многоголосый закадровый) (Синема УС)"],"quality":"bd","translation":"Любительский (многоголосый закадровый) (Синема УС)","update":"2017-05-17 05:51:37","iframe_src":"//7923.svetacdn.in/si4jsFRrtgrT/movie/11553"},{"id":11543,"title":"Запад","kp_id":"903469","imdb_id":"tt4280540","world_art_id":null,"type":"movie","add":"2017-05-14 22:37:40","orig_title":"Western World","year":"2017-02-15","translations":["Любительский (многоголосый закадровый) (Синема УС)"],"quality":"webdl","translation":"Любительский (многоголосый закадровый) (Синема УС)","update":"2017-05-16 07:23:40","iframe_src":"//7923.svetacdn.in/si4jsFRrtgrT/movie/11543"},{"id":11542,"title":"Добро пожаловать в Норвегию","kp_id":"953067","imdb_id":"tt5248342","world_art_id":null,"type":"movie","add":"2017-05-14 22:34:25","orig_title":"Welcome to Norway","year":"2016-02-05","translations":["Профессиональный (многоголосый закадровый) (GreenРай Studio)"],"quality":"bd","translation":"Профессиональный (многоголосый закадровый) (GreenРай Studio)","update":"2017-05-17 05:50:05","iframe_src":"//7923.svetacdn.in/si4jsFRrtgrT/movie/11542"},{"id":11541,"title":"Братство","kp_id":"850532","imdb_id":"tt3879074","world_art_id":null,"type":"movie","add":"2017-05-14 22:31:34","orig_title":"Total Frat Movie","year":"2016-09-23","translations":["Любительский (многоголосый закадровый) (Синема УС)"],"quality":"webdl","translation":"Любительский (многоголосый закадровый) (Синема УС)","update":"2017-05-17 05:48:54","iframe_src":"//7923.svetacdn.in/si4jsFRrtgrT/movie/11541"},{"id":11539,"title":"Детская площадка","kp_id":"1035873","imdb_id":"tt6094760","world_art_id":null,"type":"movie","add":"2017-05-14 22:18:17","orig_title":"Plac zabaw","year":"2016-09-19","translations":["Любительский (двухголосый закадровый) (DeadSno & den904)"],"quality":"hdtv","translation":"Любительский (двухголосый закадровый) (DeadSno & den904)","update":"2017-05-17 05:46:22","iframe_src":"//7923.svetacdn.in/si4jsFRrtgrT/movie/11539"},{"id":11537,"title":"Детки-разрушители","kp_id":"928723","imdb_id":"tt4912452","world_art_id":null,"type":"movie","add":"2017-05-14 22:13:40","orig_title":"Disutorakushon beibizu","year":"2016-05-21","translations":["Профессиональный (многоголосый закадровый) (GreenРай Studio)"],"quality":"bd","translation":"Профессиональный (многоголосый закадровый) (GreenРай Studio)","update":"2017-05-16 07:31:01","iframe_src":"//7923.svetacdn.in/si4jsFRrtgrT/movie/11537"},{"id":11526,"title":"Радуга","kp_id":"851273","imdb_id":"tt4088588","world_art_id":null,"type":"movie","add":"2017-05-14 21:08:50","orig_title":"Dhanak","year":"2015-02-08","translations":["Профессиональный (многоголосый закадровый)"],"quality":"webdl","translation":"Профессиональный (многоголосый закадровый)","update":"2017-05-16 07:24:46","iframe_src":"//7923.svetacdn.in/si4jsFRrtgrT/movie/11526"},{"id":11466,"title":"Форсаж ярости","kp_id":"1038611","imdb_id":"tt6580394","world_art_id":null,"type":"movie","add":"2017-05-09 14:58:56","orig_title":"The Fast and the Fierce","year":"2017-04-01","translations":["Любительский (многоголосый закадровый) (Синема УС)"],"quality":"bd","translation":"Любительский (многоголосый закадровый) (Синема УС)","update":"2017-05-16 07:10:33","iframe_src":"//7923.svetacdn.in/si4jsFRrtgrT/movie/11466"},{"id":10262,"title":"Всегда сияй","kp_id":"888321","imdb_id":"tt4392770","world_art_id":null,"type":"movie","add":"2017-03-08 23:28:31","orig_title":"Always Shine","year":"2016-04-15","translations":["Любительский (многоголосый закадровый) (Синема УС)","Профессиональный (многоголосый закадровый) (iTunes)"],"quality":"bd","translation":"Любительский (многоголосый закадровый) (Синема УС)","update":"2017-05-16 07:03:25","iframe_src":"//7923.svetacdn.in/si4jsFRrtgrT/movie/10262"},{"id":8265,"title":"Автобан","kp_id":"654151","imdb_id":"tt2126235","world_art_id":null,"type":"movie","add":"2016-12-22 10:22:59","orig_title":"Collide","year":"2016-06-10","translations":["Любительский (многоголосый закадровый) (@MUZOBOZ@)","Полное дублирование (iTunes)"],"quality":"bd","translation":"Любительский (многоголосый закадровый) (@MUZOBOZ@)","update":"2017-05-16 07:13:42","iframe_src":"//7923.svetacdn.in/si4jsFRrtgrT/movie/8265"},{"id":7619,"title":"Праведник в маске","kp_id":"786445","imdb_id":"tt3103166","world_art_id":null,"type":"movie","add":"2016-11-24 14:16:39","orig_title":"The Masked Saint","year":"2016-01-08","translations":["Любительский (двухголосый закадровый)","Профессиональный (многоголосый закадровый)"],"quality":"webdl","translation":"Любительский (двухголосый закадровый)","update":"2017-05-16 07:06:57","iframe_src":"//7923.svetacdn.in/si4jsFRrtgrT/movie/7619"}],"current_page":2170,"first_page_url":"https://videocdn.tv/api/short?limit=100&api_token=X6EwAUfE5M9xbo7y0Bp0aPf3uXxG2KLL&cache32170=32170&page=1","from":216901,"last_page":645,"last_page_url":"https://videocdn.tv/api/short?limit=100&api_token=X6EwAUfE5M9xbo7y0Bp0aPf3uXxG2KLL&cache32170=32170&page=645","next_page_url":null,"path":"https://videocdn.tv/api/short","per_page":100,"prev_page_url":"https://videocdn.tv/api/short?limit=100&api_token=X6EwAUfE5M9xbo7y0Bp0aPf3uXxG2KLL&cache32170=32170&page=2169","to":216920,"total":64471}