{"result":true,"data":[{"id":49926,"title":"Спасите Ральфа","kp_id":"4413489","imdb_id":"tt14220316","world_art_id":null,"type":"movie","add":"2021-04-27 05:49:48","orig_title":"Save Ralph","year":"2021-04-06","translations":["Профессиональный (многоголосый закадровый) (HDrezka Studio)"],"quality":"webdl","translation":"Профессиональный (многоголосый закадровый) (HDrezka Studio)","update":"2021-04-27 06:03:25","iframe_src":"//7741.svetacdn.in/71tsRs29n5tZ/movie/49926"},{"id":49923,"title":"Пикассо","kp_id":null,"imdb_id":"tt9460478","world_art_id":null,"type":"movie","add":"2021-04-26 20:35:03","orig_title":"Picasso","year":"2021-03-19","translations":["Любительский (многоголосый закадровый) (Синема УС)"],"quality":"webdl","translation":"Любительский (многоголосый закадровый) (Синема УС)","update":"2021-04-26 21:44:49","iframe_src":"//7741.svetacdn.in/71tsRs29n5tZ/movie/49923"},{"id":49917,"title":"Династия","kp_id":"222654","imdb_id":"tt0367918","world_art_id":null,"type":"movie","add":"2021-04-26 16:19:40","orig_title":"Kabeela","year":"1976-12-26","translations":["Профессиональный (многоголосый закадровый) (SDI Media | Iyuno-SDI Group Russia)"],"quality":"webdl","translation":"Профессиональный (многоголосый закадровый) (SDI Media | Iyuno-SDI Group Russia)","update":"2021-04-27 05:03:35","iframe_src":"//7741.svetacdn.in/71tsRs29n5tZ/movie/49917"},{"id":49915,"title":"Что страшнее?","kp_id":"1046123","imdb_id":null,"world_art_id":null,"type":"movie","add":"2021-04-26 15:50:11","orig_title":"Что страшнее?","year":"1973-01-01","translations":["Оригинальная дорожка"],"quality":"webdl","translation":"Оригинальная дорожка","update":"2021-04-27 06:11:34","iframe_src":"//7741.svetacdn.in/71tsRs29n5tZ/movie/49915"},{"id":49914,"title":"Чудесный сад","kp_id":"460423","imdb_id":"tt7781576","world_art_id":null,"type":"movie","add":"2021-04-26 15:48:39","orig_title":"Chudesnyy sad","year":"1962-01-01","translations":["Оригинальная дорожка"],"quality":"webdl","translation":"Оригинальная дорожка","update":"2021-04-27 06:12:31","iframe_src":"//7741.svetacdn.in/71tsRs29n5tZ/movie/49914"},{"id":49913,"title":"Яртыгулак и лентяи","kp_id":"841195","imdb_id":null,"world_art_id":null,"type":"movie","add":"2021-04-26 15:43:59","orig_title":"Яртыгулак и лентяи","year":"1987-01-01","translations":["Оригинальная дорожка"],"quality":"tc","translation":"Оригинальная дорожка","update":"2021-04-27 06:13:27","iframe_src":"//7741.svetacdn.in/71tsRs29n5tZ/movie/49913"},{"id":49912,"title":"Наследство волшебника Бахрама","kp_id":"46345","imdb_id":"tt0212374","world_art_id":null,"type":"movie","add":"2021-04-26 15:38:03","orig_title":"Nasledstvo volshebnika Bakhrama","year":"1975-01-01","translations":["Оригинальная дорожка"],"quality":"webdl","translation":"Оригинальная дорожка","update":"2021-04-27 06:19:39","iframe_src":"//7741.svetacdn.in/71tsRs29n5tZ/movie/49912"},{"id":49898,"title":"Демон","kp_id":"1255182","imdb_id":"tt10133300","world_art_id":null,"type":"movie","add":"2021-04-26 06:10:46","orig_title":"Rakshasudu","year":"2019-08-02","translations":["Любительский (двухголосый закадровый) (Колобок)"],"quality":"webdl","translation":"Любительский (двухголосый закадровый) (Колобок)","update":"2021-04-27 05:02:57","iframe_src":"//7741.svetacdn.in/71tsRs29n5tZ/movie/49898"},{"id":49887,"title":"Призрак Мэри","kp_id":"1233612","imdb_id":"tt8783154","world_art_id":null,"type":"movie","add":"2021-04-25 20:11:28","orig_title":"Phantom Mary","year":"2019-10-01","translations":["Любительский (многоголосый закадровый) (Синема УС)"],"quality":"webdl","translation":"Любительский (многоголосый закадровый) (Синема УС)","update":"2021-04-26 21:21:52","iframe_src":"//7741.svetacdn.in/71tsRs29n5tZ/movie/49887"},{"id":49884,"title":"Долина слепых","kp_id":null,"imdb_id":"tt12943084","world_art_id":null,"type":"movie","add":"2021-04-25 20:05:21","orig_title":"Valley of the Blind","year":"2019-10-18","translations":["Любительский (многоголосый закадровый) (Синема УС)"],"quality":"webdl","translation":"Любительский (многоголосый закадровый) (Синема УС)","update":"2021-04-26 21:19:22","iframe_src":"//7741.svetacdn.in/71tsRs29n5tZ/movie/49884"},{"id":49883,"title":"Урок для негра","kp_id":"1184426","imdb_id":"tt8831150","world_art_id":null,"type":"movie","add":"2021-04-25 20:02:12","orig_title":"The Education of a Negro","year":"2019-06-30","translations":["Любительский (многоголосый закадровый) (Синема УС)"],"quality":"webdl","translation":"Любительский (многоголосый закадровый) (Синема УС)","update":"2021-04-26 21:17:30","iframe_src":"//7741.svetacdn.in/71tsRs29n5tZ/movie/49883"},{"id":49882,"title":"Сяо Мэй","kp_id":null,"imdb_id":"tt7996560","world_art_id":null,"type":"movie","add":"2021-04-25 19:59:26","orig_title":"Xiao Mei","year":"2018-12-01","translations":["Любительский (многоголосый закадровый) (Синема УС)"],"quality":"webdl","translation":"Любительский (многоголосый закадровый) (Синема УС)","update":"2021-04-26 21:12:39","iframe_src":"//7741.svetacdn.in/71tsRs29n5tZ/movie/49882"},{"id":44852,"title":"С бору по сосенке","kp_id":"469655","imdb_id":"tt8198932","world_art_id":null,"type":"movie","add":"2020-10-27 17:25:30","orig_title":"S boru po sosenke","year":"1974-01-01","translations":["Оригинальная дорожка","Оригинальная дорожка"],"quality":"webdl","translation":"Оригинальная дорожка","update":"2021-04-27 06:06:57","iframe_src":"//7741.svetacdn.in/71tsRs29n5tZ/movie/44852"},{"id":44581,"title":"Поморская быль","kp_id":"461841","imdb_id":"tt6088730","world_art_id":null,"type":"movie","add":"2020-10-19 15:26:49","orig_title":"Pomorskaya byl","year":"1987-01-01","translations":["Оригинальная дорожка","Оригинальная дорожка"],"quality":"dvdrip","translation":"Оригинальная дорожка","update":"2021-04-27 06:08:47","iframe_src":"//7741.svetacdn.in/71tsRs29n5tZ/movie/44581"},{"id":44159,"title":"Зимовье зверей","kp_id":"460618","imdb_id":"tt1842547","world_art_id":null,"type":"movie","add":"2020-10-06 15:58:03","orig_title":"Zimove zverey","year":"1981-01-01","translations":["Оригинальная дорожка","Оригинальная дорожка"],"quality":"dvdrip","translation":"Оригинальная дорожка","update":"2021-04-27 06:16:22","iframe_src":"//7741.svetacdn.in/71tsRs29n5tZ/movie/44159"},{"id":43712,"title":"И смех и грех","kp_id":"591969","imdb_id":null,"world_art_id":null,"type":"movie","add":"2020-09-21 17:03:30","orig_title":"И смех и грех","year":"1978-01-01","translations":["Оригинальная дорожка","Оригинальная дорожка"],"quality":"dvb","translation":"Оригинальная дорожка","update":"2021-04-27 06:09:49","iframe_src":"//7741.svetacdn.in/71tsRs29n5tZ/movie/43712"},{"id":42747,"title":"Мальчик с пальчик","kp_id":"477316","imdb_id":"tt4852398","world_art_id":null,"type":"movie","add":"2020-08-24 21:25:25","orig_title":"Malchik s palchik","year":"1938-01-01","translations":["Оригинальная дорожка","Оригинальная дорожка"],"quality":"dvdrip","translation":"Оригинальная дорожка","update":"2021-04-27 06:18:39","iframe_src":"//7741.svetacdn.in/71tsRs29n5tZ/movie/42747"},{"id":41987,"title":"Дикие лебеди","kp_id":"44200","imdb_id":"tt0238938","world_art_id":null,"type":"movie","add":"2020-07-24 19:44:58","orig_title":"Dikie lebedi","year":"1963-05-10","translations":["Оригинальная дорожка","Оригинальная дорожка"],"quality":"dvdrip","translation":"Оригинальная дорожка","update":"2021-04-27 06:17:42","iframe_src":"//7741.svetacdn.in/71tsRs29n5tZ/movie/41987"},{"id":38833,"title":"Масиламани по прозвищу Масс","kp_id":"884188","imdb_id":"tt4328798","world_art_id":null,"type":"movie","add":"2020-04-02 16:39:31","orig_title":"Masss","year":"2015-05-29","translations":["Любительский (многоголосый закадровый)","Профессиональный (многоголосый закадровый) (SDI Media | Iyuno-SDI Group Russia)"],"quality":"webdl","translation":"Любительский (многоголосый закадровый)","update":"2021-04-27 05:03:16","iframe_src":"//7741.svetacdn.in/71tsRs29n5tZ/movie/38833"},{"id":36881,"title":"Семья","kp_id":"102815","imdb_id":"tt0359808","world_art_id":null,"type":"movie","add":"2020-02-24 19:52:56","orig_title":"Parivaar","year":"1987-06-12","translations":["Профессиональный (многоголосый закадровый)","Профессиональный (многоголосый закадровый)","Полное дублирование (Мосфильм)"],"quality":"dvdrip","translation":"Профессиональный (многоголосый закадровый)","update":"2021-04-27 05:02:39","iframe_src":"//7741.svetacdn.in/71tsRs29n5tZ/movie/36881"},{"id":1138,"title":"Bсе началось в Харбине","kp_id":"731699","imdb_id":"tt2878764","world_art_id":null,"type":"serial","add":"2017-03-23 08:31:58","orig_title":"Vse nachalos v Kharbine","year":"2013-05-06","translations":["Оригинальная дорожка"],"seasons_count":1,"episodes_count":8,"episodes":8,"update":"2017-03-23 17:24:13","iframe_src":"//7741.svetacdn.in/71tsRs29n5tZ/tv-series/1138"},{"id":1136,"title":"Печали – радости Надежды","kp_id":"592365","imdb_id":null,"world_art_id":null,"type":"serial","add":"2017-03-23 08:27:51","orig_title":"Печали – радости Надежды","year":"2011-01-01","translations":["Оригинальная дорожка"],"seasons_count":1,"episodes_count":4,"episodes":4,"update":"2017-03-24 15:07:31","iframe_src":"//7741.svetacdn.in/71tsRs29n5tZ/tv-series/1136"},{"id":1132,"title":"Дом без выхода","kp_id":"494437","imdb_id":null,"world_art_id":null,"type":"serial","add":"2017-03-21 09:32:43","orig_title":"Дом без выхода","year":"2010-01-20","translations":["Оригинальная дорожка"],"seasons_count":1,"episodes_count":1,"episodes":1,"update":"2017-03-22 16:16:12","iframe_src":"//7741.svetacdn.in/71tsRs29n5tZ/tv-series/1132"},{"id":1130,"title":"Спецотряд «Шторм»","kp_id":"788168","imdb_id":null,"world_art_id":null,"type":"serial","add":"2017-03-21 09:12:51","orig_title":"Спецотряд «Шторм»","year":"2013-11-16","translations":["Оригинальная дорожка"],"seasons_count":1,"episodes_count":16,"episodes":16,"update":"2017-03-21 15:50:59","iframe_src":"//7741.svetacdn.in/71tsRs29n5tZ/tv-series/1130"},{"id":1129,"title":"Охота на Берию","kp_id":"425958","imdb_id":"tt2839532","world_art_id":null,"type":"serial","add":"2017-03-21 08:49:59","orig_title":"Aleksandrovskiy sad 3. Okhota na Beriyu","year":"2008-03-05","translations":["Оригинальная дорожка"],"seasons_count":1,"episodes_count":9,"episodes":9,"update":"2017-03-22 06:07:09","iframe_src":"//7741.svetacdn.in/71tsRs29n5tZ/tv-series/1129"},{"id":1128,"title":"Хиллтоп. Больница на Холме","kp_id":"601838","imdb_id":"tt0215418","world_art_id":null,"type":"serial","add":"2017-03-21 08:44:46","orig_title":"Hilltop Hospital","year":"1999-09-27","translations":["Полное дублирование"],"seasons_count":1,"episodes_count":52,"episodes":52,"update":"2017-03-23 13:15:59","iframe_src":"//7741.svetacdn.in/71tsRs29n5tZ/tv-series/1128"},{"id":1126,"title":"Парфюмерша 2","kp_id":"1008635","imdb_id":null,"world_art_id":null,"type":"serial","add":"2017-03-21 05:29:11","orig_title":"Парфюмерша 2","year":"2017-03-18","translations":["Оригинальная дорожка"],"seasons_count":1,"episodes_count":4,"episodes":4,"update":"2017-03-22 05:52:15","iframe_src":"//7741.svetacdn.in/71tsRs29n5tZ/tv-series/1126"},{"id":1125,"title":"Парфюмерша","kp_id":"779980","imdb_id":"tt3806798","world_art_id":null,"type":"serial","add":"2017-03-21 05:25:51","orig_title":"Parfumersha","year":"2014-02-03","translations":["Оригинальная дорожка"],"seasons_count":1,"episodes_count":8,"episodes":8,"update":"2017-03-22 05:30:35","iframe_src":"//7741.svetacdn.in/71tsRs29n5tZ/tv-series/1125"},{"id":1124,"title":"Брачные игры","kp_id":"1026110","imdb_id":null,"world_art_id":null,"type":"serial","add":"2017-03-21 05:22:57","orig_title":"Брачные игры","year":"2017-03-11","translations":["Оригинальная дорожка"],"seasons_count":1,"episodes_count":2,"episodes":2,"update":"2017-03-22 05:13:20","iframe_src":"//7741.svetacdn.in/71tsRs29n5tZ/tv-series/1124"},{"id":1123,"title":"Вера","kp_id":"1026224","imdb_id":null,"world_art_id":null,"type":"serial","add":"2017-03-21 05:20:51","orig_title":"Вера","year":"2017-03-12","translations":["Оригинальная дорожка"],"seasons_count":1,"episodes_count":2,"episodes":2,"update":"2017-03-22 05:09:59","iframe_src":"//7741.svetacdn.in/71tsRs29n5tZ/tv-series/1123"},{"id":1122,"title":"Родное сердце","kp_id":"1039202","imdb_id":null,"world_art_id":null,"type":"serial","add":"2017-03-21 05:16:16","orig_title":"Родное сердце","year":"2017-03-19","translations":["Оригинальная дорожка"],"seasons_count":1,"episodes_count":2,"episodes":2,"update":"2017-03-22 05:06:34","iframe_src":"//7741.svetacdn.in/71tsRs29n5tZ/tv-series/1122"},{"id":1121,"title":"Напрасные надежды","kp_id":"1039201","imdb_id":null,"world_art_id":null,"type":"serial","add":"2017-03-21 05:13:32","orig_title":"Напрасные надежды","year":"2017-03-18","translations":["Оригинальная дорожка"],"seasons_count":1,"episodes_count":2,"episodes":2,"update":"2017-03-22 05:01:20","iframe_src":"//7741.svetacdn.in/71tsRs29n5tZ/tv-series/1121"},{"id":1120,"title":"Должок","kp_id":"1007965","imdb_id":null,"world_art_id":null,"type":"serial","add":"2017-03-21 05:11:02","orig_title":"Должок","year":"2017-03-19","translations":["Оригинальная дорожка"],"seasons_count":1,"episodes_count":2,"episodes":2,"update":"2017-03-22 04:57:54","iframe_src":"//7741.svetacdn.in/71tsRs29n5tZ/tv-series/1120"},{"id":1113,"title":"Королева красоты","kp_id":"922200","imdb_id":null,"world_art_id":null,"type":"serial","add":"2017-03-15 07:05:33","orig_title":"Королева красоты","year":"2015-10-26","translations":["Оригинальная дорожка"],"seasons_count":1,"episodes_count":12,"episodes":12,"update":"2017-03-22 16:17:03","iframe_src":"//7741.svetacdn.in/71tsRs29n5tZ/tv-series/1113"},{"id":1105,"title":"Тихая охота","kp_id":"771391","imdb_id":"tt3765952","world_art_id":null,"type":"serial","add":"2017-03-14 13:29:54","orig_title":"Tikhaya okhota","year":"2014-05-01","translations":["Оригинальная дорожка"],"seasons_count":1,"episodes_count":30,"episodes":30,"update":"2017-03-17 12:25:13","iframe_src":"//7741.svetacdn.in/71tsRs29n5tZ/tv-series/1105"},{"id":1104,"title":"Хроники Эйфелевой башни","kp_id":"372217","imdb_id":"tt0469791","world_art_id":null,"type":"serial","add":"2017-03-14 08:00:33","orig_title":"La légende vraie de la tour Eiffe","year":"2005-12-18","translations":["Профессиональный (многоголосый закадровый)"],"seasons_count":1,"episodes_count":2,"episodes":2,"update":"2017-03-17 06:02:41","iframe_src":"//7741.svetacdn.in/71tsRs29n5tZ/tv-series/1104"},{"id":1103,"title":"Слуга. Правдивая история Пан-джа","kp_id":"905018","imdb_id":"tt3591270","world_art_id":null,"type":"serial","add":"2017-03-14 07:53:24","orig_title":"Bang-ja Chronicles","year":"2011-11-05","translations":["Любительский (многоголосый закадровый) (GREEN TEA)"],"seasons_count":1,"episodes_count":4,"episodes":4,"update":"2017-03-17 05:38:00","iframe_src":"//7741.svetacdn.in/71tsRs29n5tZ/tv-series/1103"},{"id":1102,"title":"Тест на любовь","kp_id":"808626","imdb_id":null,"world_art_id":null,"type":"serial","add":"2017-03-14 07:50:22","orig_title":"Тест на любовь","year":"2013-11-24","translations":["Оригинальная дорожка"],"seasons_count":1,"episodes_count":4,"episodes":4,"update":"2017-03-17 05:20:13","iframe_src":"//7741.svetacdn.in/71tsRs29n5tZ/tv-series/1102"},{"id":1100,"title":"Узник замка Иф","kp_id":"42549","imdb_id":"tt0096356","world_art_id":null,"type":"serial","add":"2017-03-14 07:42:20","orig_title":"Uznik zamka If","year":"1989-02-01","translations":["Оригинальная дорожка"],"seasons_count":1,"episodes_count":3,"episodes":3,"update":"2017-03-19 13:31:52","iframe_src":"//7741.svetacdn.in/71tsRs29n5tZ/tv-series/1100"},{"id":1063,"title":"Египтус","kp_id":"952934","imdb_id":"tt4332766","world_art_id":null,"type":"serial","add":"2017-03-01 09:23:24","orig_title":"Egyxos","year":"2015-02-22","translations":["Полное дублирование"],"seasons_count":1,"episodes_count":26,"episodes":26,"update":"2017-03-17 13:24:01","iframe_src":"//7741.svetacdn.in/71tsRs29n5tZ/tv-series/1063"}],"current_page":575,"first_page_url":"https://videocdn.tv/api/short?limit=100&api_token=EnbO9h8pv1VyjbCJhg0WM9nG259n7mtz&cache3575=3575&page=1","from":57401,"last_page":707,"last_page_url":"https://videocdn.tv/api/short?limit=100&api_token=EnbO9h8pv1VyjbCJhg0WM9nG259n7mtz&cache3575=3575&page=707","next_page_url":"https://videocdn.tv/api/short?limit=100&api_token=EnbO9h8pv1VyjbCJhg0WM9nG259n7mtz&cache3575=3575&page=576","path":"https://videocdn.tv/api/short","per_page":100,"prev_page_url":"https://videocdn.tv/api/short?limit=100&api_token=EnbO9h8pv1VyjbCJhg0WM9nG259n7mtz&cache3575=3575&page=574","to":57440,"total":70679}