{"result":true,"data":[{"id":34115,"title":"Тяжесть пути","kp_id":"175223","imdb_id":"tt0222425","world_art_id":null,"type":"movie","add":"2019-12-15 16:39:34","orig_title":"Tabi no omosa","year":"1972-10-28","translations":["Любительский (одноголосый закадровый) (den904)"],"quality":"webdl","translation":"Любительский (одноголосый закадровый) (den904)","update":"2019-12-17 09:11:56","iframe_src":"//7043.svetacdn.in/si4jsFRrtgrT/movie/34115"},{"id":34114,"title":"Как встретить счастливые звезды","kp_id":"37134","imdb_id":"tt0116575","world_art_id":null,"type":"movie","add":"2019-12-15 16:36:39","orig_title":"Wan choi ng fuk sing","year":"1996-07-04","translations":["Любительский (одноголосый закадровый)"],"quality":"dvdrip","translation":"Любительский (одноголосый закадровый)","update":"2019-12-17 09:11:16","iframe_src":"//7043.svetacdn.in/si4jsFRrtgrT/movie/34114"},{"id":34113,"title":"Лезвия смерти","kp_id":"198675","imdb_id":"tt0081010","world_art_id":null,"type":"movie","add":"2019-12-15 16:33:36","orig_title":"Kong shou ru bai ren","year":"1980-01-17","translations":["Любительский (одноголосый закадровый)"],"quality":"dvdrip","translation":"Любительский (одноголосый закадровый)","update":"2019-12-17 09:10:19","iframe_src":"//7043.svetacdn.in/si4jsFRrtgrT/movie/34113"},{"id":34112,"title":"Миссия выполнима: Похищение бабули","kp_id":"494488","imdb_id":"tt1445057","world_art_id":null,"type":"movie","add":"2019-12-15 16:30:35","orig_title":"Kwonsoonboon yeoja nabchisageon","year":"2007-09-12","translations":["Любительский (одноголосый закадровый) (den904)"],"quality":"dvdrip","translation":"Любительский (одноголосый закадровый) (den904)","update":"2019-12-17 09:09:29","iframe_src":"//7043.svetacdn.in/si4jsFRrtgrT/movie/34112"},{"id":34111,"title":"Мистер Вампир","kp_id":"39786","imdb_id":"tt0089371","world_art_id":null,"type":"movie","add":"2019-12-15 16:27:53","orig_title":"Geung see sin sang","year":"1985-09-28","translations":["Любительский (одноголосый закадровый)"],"quality":"bd","translation":"Любительский (одноголосый закадровый)","update":"2019-12-17 08:46:51","iframe_src":"//7043.svetacdn.in/si4jsFRrtgrT/movie/34111"},{"id":34110,"title":"Мистер Вампир 2","kp_id":"53124","imdb_id":"tt0091293","world_art_id":null,"type":"movie","add":"2019-12-15 16:25:26","orig_title":"Geung see ga zuk","year":"1986-08-15","translations":["Любительский (одноголосый закадровый)"],"quality":"dvdrip","translation":"Любительский (одноголосый закадровый)","update":"2019-12-17 08:45:13","iframe_src":"//7043.svetacdn.in/si4jsFRrtgrT/movie/34110"},{"id":34109,"title":"Мистер Вампир 3","kp_id":"36931","imdb_id":"tt0093422","world_art_id":null,"type":"movie","add":"2019-12-15 16:22:55","orig_title":"Ling huan xian sheng","year":"1987-12-17","translations":["Любительский (одноголосый закадровый)"],"quality":"dvdrip","translation":"Любительский (одноголосый закадровый)","update":"2019-12-17 08:42:39","iframe_src":"//7043.svetacdn.in/si4jsFRrtgrT/movie/34109"},{"id":34108,"title":"Мистер вампир 4","kp_id":"36930","imdb_id":"tt0099881","world_art_id":null,"type":"movie","add":"2019-12-15 16:20:28","orig_title":"Geung see suk suk","year":"1988-12-21","translations":["Любительский (одноголосый закадровый)"],"quality":"dvdrip","translation":"Любительский (одноголосый закадровый)","update":"2019-12-17 08:41:24","iframe_src":"//7043.svetacdn.in/si4jsFRrtgrT/movie/34108"},{"id":34107,"title":"Размётанные облака","kp_id":"175396","imdb_id":"tt0061971","world_art_id":null,"type":"movie","add":"2019-12-15 11:10:00","orig_title":"Midaregumo","year":"1967-11-18","translations":["Авторский (одноголосый закадровый) (Воротилин Олег)"],"quality":"bd","translation":"Авторский (одноголосый закадровый) (Воротилин Олег)","update":"2019-12-17 08:37:37","iframe_src":"//7043.svetacdn.in/si4jsFRrtgrT/movie/34107"},{"id":34105,"title":"Пом Пом наносит ответный удар","kp_id":"83406","imdb_id":"tt0091951","world_art_id":null,"type":"movie","add":"2019-12-15 11:00:05","orig_title":"Shuang long tu zhu","year":"1986-08-14","translations":["Любительский (одноголосый закадровый)"],"quality":"dvdrip","translation":"Любительский (одноголосый закадровый)","update":"2019-12-17 08:33:36","iframe_src":"//7043.svetacdn.in/si4jsFRrtgrT/movie/34105"},{"id":34104,"title":"Пом Пом возвращается","kp_id":"37106","imdb_id":"tt0088105","world_art_id":null,"type":"movie","add":"2019-12-15 10:53:06","orig_title":"Shen yong shuang xiang pao","year":"1984-06-22","translations":["Авторский (одноголосый закадровый) (Горчаков Василий)"],"quality":"dvdrip","translation":"Авторский (одноголосый закадровый) (Горчаков Василий)","update":"2019-12-17 08:31:38","iframe_src":"//7043.svetacdn.in/si4jsFRrtgrT/movie/34104"},{"id":34103,"title":"Самураи-золотоискатели","kp_id":"138688","imdb_id":"tt0200768","world_art_id":null,"type":"movie","add":"2019-12-15 10:28:02","orig_title":"Kedamono no ken","year":"1965-09-18","translations":["Профессиональный (многоголосый закадровый)"],"quality":"dvdrip","translation":"Профессиональный (многоголосый закадровый)","update":"2019-12-17 08:30:00","iframe_src":"//7043.svetacdn.in/si4jsFRrtgrT/movie/34103"},{"id":34102,"title":"Кот против крысы","kp_id":"196988","imdb_id":"tt0084939","world_art_id":null,"type":"movie","add":"2019-12-15 10:24:02","orig_title":"Yu mao san xi jin mao shu","year":"1982-09-30","translations":["Авторский (одноголосый закадровый) (Кузнецов Сергей)"],"quality":"hdrip","translation":"Авторский (одноголосый закадровый) (Кузнецов Сергей)","update":"2019-12-17 08:28:59","iframe_src":"//7043.svetacdn.in/si4jsFRrtgrT/movie/34102"},{"id":34101,"title":"Нулевой фокус","kp_id":"268390","imdb_id":"tt0227858","world_art_id":null,"type":"movie","add":"2019-12-15 10:13:03","orig_title":"Zero no shôten","year":"1961-03-19","translations":["Любительский (одноголосый закадровый)"],"quality":"bd","translation":"Любительский (одноголосый закадровый)","update":"2019-12-17 08:24:41","iframe_src":"//7043.svetacdn.in/si4jsFRrtgrT/movie/34101"},{"id":34100,"title":"Поймать призрака","kp_id":"36957","imdb_id":"tt0103290","world_art_id":null,"type":"movie","add":"2019-12-15 10:09:22","orig_title":"Wu fu xing chuang gui","year":"1992-02-27","translations":["Любительский (одноголосый закадровый)"],"quality":"dvdrip","translation":"Любительский (одноголосый закадровый)","update":"2019-12-17 08:23:43","iframe_src":"//7043.svetacdn.in/si4jsFRrtgrT/movie/34100"},{"id":34099,"title":"Полночный шёпот","kp_id":"274000","imdb_id":"tt0121423","world_art_id":null,"type":"movie","add":"2019-12-15 10:05:27","orig_title":"Jin su xin zhong qing","year":"1988-12-01","translations":["Любительский (одноголосый закадровый)"],"quality":"dvdrip","translation":"Любительский (одноголосый закадровый)","update":"2019-12-17 08:23:02","iframe_src":"//7043.svetacdn.in/si4jsFRrtgrT/movie/34099"},{"id":34098,"title":"Кража меча","kp_id":"266357","imdb_id":"tt0064210","world_art_id":null,"type":"movie","add":"2019-12-15 10:02:20","orig_title":"Dao jian","year":"1967-11-08","translations":["Любительский (одноголосый закадровый)"],"quality":"dvdrip","translation":"Любительский (одноголосый закадровый)","update":"2019-12-17 08:22:17","iframe_src":"//7043.svetacdn.in/si4jsFRrtgrT/movie/34098"},{"id":34097,"title":"Пурпурный Капюшон: Секрет Золота","kp_id":null,"imdb_id":"tt4014074","world_art_id":null,"type":"movie","add":"2019-12-15 09:59:02","orig_title":"The Purple Hood: Secret of the Gold","year":"1982-02-19","translations":["Любительский (одноголосый закадровый)"],"quality":"dvdrip","translation":"Любительский (одноголосый закадровый)","update":"2019-12-17 08:21:21","iframe_src":"//7043.svetacdn.in/si4jsFRrtgrT/movie/34097"},{"id":33263,"title":"Светлое будущее 3: Любовь и смерть в Сайгоне","kp_id":"5354","imdb_id":"tt0098691","world_art_id":null,"type":"movie","add":"2019-11-19 07:07:40","orig_title":"Ying hung boon sik III: Zik yeung ji gor","year":"1989-09-09","translations":["Профессиональный (многоголосый закадровый)"],"quality":"dvdrip","translation":"Профессиональный (многоголосый закадровый)","update":"2019-12-17 08:31:07","iframe_src":"//7043.svetacdn.in/si4jsFRrtgrT/movie/33263"},{"id":23060,"title":"Духи Рождества","kp_id":"79440","imdb_id":"tt0216621","world_art_id":null,"type":"movie","add":"2019-03-14 08:26:42","orig_title":"A Christmas Carol","year":"1999-12-05","translations":["Профессиональный (многоголосый закадровый)","Профессиональный (многоголосый закадровый) (HDrezka Studio)"],"quality":"dvdrip","translation":"Профессиональный (многоголосый закадровый)","update":"2019-12-17 08:40:54","iframe_src":"//7043.svetacdn.in/si4jsFRrtgrT/movie/23060"}],"current_page":947,"first_page_url":"https://videocdn.tv/api/short?limit=100&api_token=X6EwAUfE5M9xbo7y0Bp0aPf3uXxG2KLL&cache3947=3947&page=1","from":94601,"last_page":617,"last_page_url":"https://videocdn.tv/api/short?limit=100&api_token=X6EwAUfE5M9xbo7y0Bp0aPf3uXxG2KLL&cache3947=3947&page=617","next_page_url":null,"path":"https://videocdn.tv/api/short","per_page":100,"prev_page_url":"https://videocdn.tv/api/short?limit=100&api_token=X6EwAUfE5M9xbo7y0Bp0aPf3uXxG2KLL&cache3947=3947&page=946","to":94620,"total":61603}