{"result":true,"data":[{"id":30125,"title":"Гладиолус","kp_id":"1142596","imdb_id":"tt7646444","world_art_id":null,"type":"movie","add":"2019-08-19 11:08:00","orig_title":"The Gladiolus, Ild Tsetseg","year":"2017-11-04","translations":["Любительский (многоголосый закадровый) (Синема УС)"],"quality":"webdl","translation":"Любительский (многоголосый закадровый) (Синема УС)","update":"2019-08-19 12:04:46","iframe_src":"//8209.svetacdn.in/10IAF0wWTdNYZm/movie/30125"},{"id":30123,"title":"Эдэль","kp_id":"1123764","imdb_id":"tt7955956","world_art_id":null,"type":"movie","add":"2019-08-19 10:59:56","orig_title":"Edhel","year":"2017-07-19","translations":["Любительский (многоголосый закадровый) (Синема УС)"],"quality":"bd","translation":"Любительский (многоголосый закадровый) (Синема УС)","update":"2019-08-19 12:04:08","iframe_src":"//8209.svetacdn.in/10IAF0wWTdNYZm/movie/30123"},{"id":30122,"title":"Книга джунглей: История Маугли","kp_id":"295324","imdb_id":"tt0144262","world_art_id":null,"type":"movie","add":"2019-08-19 08:21:19","orig_title":"The Jungle Book: Mowgli's Story","year":"1998-09-28","translations":["Полное дублирование"],"quality":"dvdrip","translation":"Полное дублирование","update":"2019-08-19 11:55:56","iframe_src":"//8209.svetacdn.in/10IAF0wWTdNYZm/movie/30122"},{"id":30121,"title":"Захватчик ЗИМ: Вход во Флорпус","kp_id":"1044151","imdb_id":"tt6739094","world_art_id":null,"type":"movie","add":"2019-08-19 08:19:47","orig_title":"Invader ZIM: Enter the Florpus","year":"2019-08-16","translations":["Любительский (многоголосый закадровый) (Синема УС)"],"quality":"webdl","translation":"Любительский (многоголосый закадровый) (Синема УС)","update":"2019-08-19 11:53:02","iframe_src":"//8209.svetacdn.in/10IAF0wWTdNYZm/movie/30121"},{"id":30120,"title":"Моя страна","kp_id":null,"imdb_id":"tt6829190","world_art_id":null,"type":"movie","add":"2019-08-19 08:18:07","orig_title":"My Country","year":"2017-06-21","translations":["Любительский (многоголосый закадровый) (Синема УС)"],"quality":"webdl","translation":"Любительский (многоголосый закадровый) (Синема УС)","update":"2019-08-19 11:59:08","iframe_src":"//8209.svetacdn.in/10IAF0wWTdNYZm/movie/30120"},{"id":30119,"title":"Симон и Теодора","kp_id":"1038919","imdb_id":"tt6545028","world_art_id":null,"type":"movie","add":"2019-08-19 08:13:09","orig_title":"Simon et Théodore","year":"2017-11-15","translations":["Любительский (многоголосый закадровый) (Синема УС)"],"quality":"hdtv","translation":"Любительский (многоголосый закадровый) (Синема УС)","update":"2019-08-19 11:51:27","iframe_src":"//8209.svetacdn.in/10IAF0wWTdNYZm/movie/30119"},{"id":30117,"title":"Пепел","kp_id":null,"imdb_id":"tt9045374","world_art_id":null,"type":"movie","add":"2019-08-19 08:09:15","orig_title":"Dòst","year":"2018-10-27","translations":["Любительский (многоголосый закадровый) (Синема УС)"],"quality":"webdl","translation":"Любительский (многоголосый закадровый) (Синема УС)","update":"2019-08-19 11:55:33","iframe_src":"//8209.svetacdn.in/10IAF0wWTdNYZm/movie/30117"},{"id":30116,"title":"Наверное беременная","kp_id":"1095653","imdb_id":"tt7206942","world_art_id":null,"type":"movie","add":"2019-08-19 08:07:28","orig_title":"Maybe Shower","year":"2018-06-14","translations":["Профессиональный (многоголосый закадровый) (AlphaProject)"],"quality":"webdl","translation":"Профессиональный (многоголосый закадровый) (AlphaProject)","update":"2019-08-19 11:52:41","iframe_src":"//8209.svetacdn.in/10IAF0wWTdNYZm/movie/30116"},{"id":30114,"title":"Ночи Кумбаланги","kp_id":"1142646","imdb_id":"tt8413338","world_art_id":null,"type":"movie","add":"2019-08-19 08:05:06","orig_title":"Kumbalangi Nights","year":"2019-02-07","translations":["Любительский (многоголосый закадровый) (Синема УС)"],"quality":"webdl","translation":"Любительский (многоголосый закадровый) (Синема УС)","update":"2019-08-19 11:52:05","iframe_src":"//8209.svetacdn.in/10IAF0wWTdNYZm/movie/30114"},{"id":30084,"title":"В начале века","kp_id":"45610","imdb_id":"tt0324399","world_art_id":null,"type":"movie","add":"2019-08-18 17:39:45","orig_title":"V nachale veka","year":"1961-04-21","translations":["Оригинальная дорожка"],"quality":"dvdrip","translation":"Оригинальная дорожка","update":"2019-08-19 12:50:56","iframe_src":"//8209.svetacdn.in/10IAF0wWTdNYZm/movie/30084"},{"id":30083,"title":"Знать бы, что я гений","kp_id":"251789","imdb_id":"tt0758753","world_art_id":null,"type":"movie","add":"2019-08-18 17:35:15","orig_title":"If I Had Known I Was a Genius","year":"2007-01-23","translations":["Полное дублирование"],"quality":"dvdrip","translation":"Полное дублирование","update":"2019-08-19 12:49:57","iframe_src":"//8209.svetacdn.in/10IAF0wWTdNYZm/movie/30083"},{"id":30080,"title":"Просто добавь воды","kp_id":"255702","imdb_id":"tt0790723","world_art_id":null,"type":"movie","add":"2019-08-17 13:27:23","orig_title":"Just Add Water","year":"2008-03-18","translations":["Профессиональный (многоголосый закадровый)"],"quality":"bd","translation":"Профессиональный (многоголосый закадровый)","update":"2019-08-19 12:49:11","iframe_src":"//8209.svetacdn.in/10IAF0wWTdNYZm/movie/30080"},{"id":30078,"title":"Черная кошка","kp_id":"36887","imdb_id":"tt0101463","world_art_id":null,"type":"movie","add":"2019-08-17 12:48:17","orig_title":"Hei mao","year":"1991-08-17","translations":["Авторский (одноголосый закадровый) (Володарский Леонид)"],"quality":"dvdrip","translation":"Авторский (одноголосый закадровый) (Володарский Леонид)","update":"2019-08-19 12:44:08","iframe_src":"//8209.svetacdn.in/10IAF0wWTdNYZm/movie/30078"},{"id":30076,"title":"Спящий и красавица","kp_id":"426372","imdb_id":"tt3524822","world_art_id":null,"type":"movie","add":"2019-08-17 12:31:01","orig_title":"Spyashchiy i krasavitsa","year":"2008-01-01","translations":["Оригинальная дорожка"],"quality":"dvdrip","translation":"Оригинальная дорожка","update":"2019-08-19 12:37:39","iframe_src":"//8209.svetacdn.in/10IAF0wWTdNYZm/movie/30076"},{"id":30075,"title":"Снова голый","kp_id":"33736","imdb_id":"tt0269604","world_art_id":null,"type":"movie","add":"2019-08-17 12:07:38","orig_title":"Naken","year":"2000-12-15","translations":["Профессиональный (многоголосый закадровый)"],"quality":"dvdrip","translation":"Профессиональный (многоголосый закадровый)","update":"2019-08-19 12:34:21","iframe_src":"//8209.svetacdn.in/10IAF0wWTdNYZm/movie/30075"},{"id":30074,"title":"Суини Тодд, демон-парикмахер с Флит-стрит","kp_id":"148790","imdb_id":"tt0028331","world_art_id":null,"type":"movie","add":"2019-08-17 12:02:34","orig_title":"Sweeney Todd: The Demon Barber of Fleet Street","year":"1936-09-29","translations":["Профессиональный (многоголосый закадровый)"],"quality":"dvdrip","translation":"Профессиональный (многоголосый закадровый)","update":"2019-08-19 12:33:39","iframe_src":"//8209.svetacdn.in/10IAF0wWTdNYZm/movie/30074"},{"id":30071,"title":"Всё или ничего","kp_id":"855126","imdb_id":"tt3868240","world_art_id":null,"type":"movie","add":"2019-08-17 11:38:07","orig_title":"Vsetko alebo nic","year":"2017-01-12","translations":["Любительский (одноголосый закадровый)"],"quality":"dvdrip","translation":"Любительский (одноголосый закадровый)","update":"2019-08-19 11:50:14","iframe_src":"//8209.svetacdn.in/10IAF0wWTdNYZm/movie/30071"},{"id":13140,"title":"Добейся успеха 3: Всё или ничего","kp_id":"251875","imdb_id":"tt0490822","world_art_id":null,"type":"movie","add":"2017-08-27 14:12:11","orig_title":"Bring It On: All or Nothing","year":"2006-08-08","translations":["Полное дублирование"],"quality":"bd","translation":"Полное дублирование","update":"2019-08-19 12:47:12","iframe_src":"//8209.svetacdn.in/10IAF0wWTdNYZm/movie/13140"},{"id":11576,"title":"Большие гонки","kp_id":"1285","imdb_id":"tt0059243","world_art_id":null,"type":"movie","add":"2017-05-16 17:48:14","orig_title":"The Great Race","year":"1965-07-01","translations":["Профессиональный (многоголосый закадровый)"],"quality":"bd","translation":"Профессиональный (многоголосый закадровый)","update":"2019-08-19 12:45:52","iframe_src":"//8209.svetacdn.in/10IAF0wWTdNYZm/movie/11576"},{"id":1394,"title":"Пила 3","kp_id":"184417","imdb_id":"tt0489270","world_art_id":null,"type":"movie","add":"2016-04-21 09:39:39","orig_title":"Saw III","year":"2006-10-26","translations":["Полное дублирование","Original (English)","Авторский (одноголосый закадровый) (Есарев Дмитрий)"],"quality":"bd","translation":"Полное дублирование","update":"2019-08-19 12:35:49","iframe_src":"//8209.svetacdn.in/10IAF0wWTdNYZm/movie/1394"}],"current_page":1386,"first_page_url":"https://videocdn.tv/api/short?limit=100&api_token=6Onb1W1alEUrBcKJZD3GoKBbWyAl2uG2&cache31386=31386&page=1","from":138501,"last_page":662,"last_page_url":"https://videocdn.tv/api/short?limit=100&api_token=6Onb1W1alEUrBcKJZD3GoKBbWyAl2uG2&cache31386=31386&page=662","next_page_url":null,"path":"https://videocdn.tv/api/short","per_page":100,"prev_page_url":"https://videocdn.tv/api/short?limit=100&api_token=6Onb1W1alEUrBcKJZD3GoKBbWyAl2uG2&cache31386=31386&page=1385","to":138520,"total":66160}