{"result":true,"data":[{"id":26817,"title":"Касанэ","kp_id":"1047538","imdb_id":"tt7058612","world_art_id":null,"type":"movie","add":"2019-05-20 21:23:30","orig_title":"Kasane","year":"2018-07-11","translations":["Любительский (многоголосый закадровый) (Колобок)"],"quality":"bd","translation":"Любительский (многоголосый закадровый) (Колобок)","update":"2019-05-21 04:58:24","iframe_src":"//83.svetacdn.in/PfJ50H0ZBPg3/movie/26817"},{"id":26816,"title":"Безудержные","kp_id":"1169765","imdb_id":"tt8456680","world_art_id":null,"type":"movie","add":"2019-05-20 21:21:04","orig_title":"Ride","year":"2018-09-06","translations":["Любительский (многоголосый закадровый) (Синема УС)"],"quality":"webdl","translation":"Любительский (многоголосый закадровый) (Синема УС)","update":"2019-05-21 04:55:24","iframe_src":"//83.svetacdn.in/PfJ50H0ZBPg3/movie/26816"},{"id":26814,"title":"Антара ибн Шаддад","kp_id":"1234412","imdb_id":"tt7327946","world_art_id":null,"type":"movie","add":"2019-05-20 21:19:33","orig_title":"Antar Ibn Ibn Ibn Shaddad","year":"2017-08-03","translations":["Любительский (многоголосый закадровый) (Синема УС)"],"quality":"webdl","translation":"Любительский (многоголосый закадровый) (Синема УС)","update":"2019-05-21 04:53:48","iframe_src":"//83.svetacdn.in/PfJ50H0ZBPg3/movie/26814"},{"id":26813,"title":"Еще одно танго","kp_id":"1080401","imdb_id":"tt6862864","world_art_id":null,"type":"movie","add":"2019-05-20 21:17:45","orig_title":"Another Tango","year":"2018-05-22","translations":["Любительский (многоголосый закадровый) (Синема УС)"],"quality":"webdl","translation":"Любительский (многоголосый закадровый) (Синема УС)","update":"2019-05-21 04:52:30","iframe_src":"//83.svetacdn.in/PfJ50H0ZBPg3/movie/26813"},{"id":26811,"title":"Доброволец","kp_id":"1054059","imdb_id":"tt7146578","world_art_id":null,"type":"movie","add":"2019-05-20 21:16:03","orig_title":"Volontaire","year":"2018-06-06","translations":["Любительский (многоголосый закадровый) (Синема УС)"],"quality":"bd","translation":"Любительский (многоголосый закадровый) (Синема УС)","update":"2019-05-21 04:59:41","iframe_src":"//83.svetacdn.in/PfJ50H0ZBPg3/movie/26811"},{"id":26809,"title":"Русалка","kp_id":"1068523","imdb_id":"tt7144200","world_art_id":null,"type":"movie","add":"2019-05-20 21:13:47","orig_title":"The Siren","year":"2019-03-02","translations":["Любительский (многоголосый закадровый) (Синема УС)"],"quality":"webdl","translation":"Любительский (многоголосый закадровый) (Синема УС)","update":"2019-05-21 04:45:10","iframe_src":"//83.svetacdn.in/PfJ50H0ZBPg3/movie/26809"},{"id":26807,"title":"Сахар!","kp_id":"816838","imdb_id":"tt3385704","world_art_id":null,"type":"movie","add":"2019-05-20 21:11:12","orig_title":"Sugar!","year":"2017-09-12","translations":["Любительский (многоголосый закадровый) (Синема УС)"],"quality":"webdl","translation":"Любительский (многоголосый закадровый) (Синема УС)","update":"2019-05-21 05:33:29","iframe_src":"//83.svetacdn.in/PfJ50H0ZBPg3/movie/26807"},{"id":26806,"title":"Шоу психопатов: демоны-уродцы","kp_id":"1242176","imdb_id":"tt9824674","world_art_id":null,"type":"movie","add":"2019-05-20 21:08:47","orig_title":"Bunker of Blood: Chapter 5: Psycho Sideshow: Demon Freaks","year":"2018-01-01","translations":["Любительский (многоголосый закадровый) (Синема УС)"],"quality":"webdl","translation":"Любительский (многоголосый закадровый) (Синема УС)","update":"2019-05-21 04:56:52","iframe_src":"//83.svetacdn.in/PfJ50H0ZBPg3/movie/26806"},{"id":26761,"title":"Не глотай моё сердце, девочка-аллигатор!","kp_id":"1009213","imdb_id":"tt6103318","world_art_id":null,"type":"movie","add":"2019-05-19 22:02:46","orig_title":"Não Devore Meu Coração","year":"2017-01-22","translations":["Любительский (многоголосый закадровый) (Синема УС)"],"quality":"webdl","translation":"Любительский (многоголосый закадровый) (Синема УС)","update":"2019-05-20 13:12:28","iframe_src":"//83.svetacdn.in/PfJ50H0ZBPg3/movie/26761"},{"id":26759,"title":"Бардо блюз","kp_id":"999964","imdb_id":"tt5981616","world_art_id":null,"type":"movie","add":"2019-05-19 21:56:10","orig_title":"Bardo Blues","year":"2017-02-23","translations":["Любительский (многоголосый закадровый) (Синема УС)"],"quality":"webdl","translation":"Любительский (многоголосый закадровый) (Синема УС)","update":"2019-05-20 13:13:26","iframe_src":"//83.svetacdn.in/PfJ50H0ZBPg3/movie/26759"},{"id":26735,"title":"Матрос Железняк","kp_id":"491861","imdb_id":"tt4727262","world_art_id":null,"type":"movie","add":"2019-05-19 10:18:30","orig_title":"Matros Zheleznyak","year":"1985-01-01","translations":["Оригинальная дорожка"],"quality":"sat","translation":"Оригинальная дорожка","update":"2019-05-21 06:40:35","iframe_src":"//83.svetacdn.in/PfJ50H0ZBPg3/movie/26735"},{"id":26734,"title":"Маленький принц","kp_id":"461759","imdb_id":"tt5137076","world_art_id":null,"type":"movie","add":"2019-05-19 09:55:11","orig_title":"Malenkiy prints","year":"1993-01-01","translations":["Оригинальная дорожка"],"quality":"dvdrip","translation":"Оригинальная дорожка","update":"2019-05-21 06:07:21","iframe_src":"//83.svetacdn.in/PfJ50H0ZBPg3/movie/26734"},{"id":26733,"title":"Магия черная и белая","kp_id":"46501","imdb_id":"tt0168989","world_art_id":null,"type":"movie","add":"2019-05-19 09:53:16","orig_title":"Magiya chyornaya i belaya","year":"1984-05-14","translations":["Оригинальная дорожка"],"quality":"dvdrip","translation":"Оригинальная дорожка","update":"2019-05-21 06:06:22","iframe_src":"//83.svetacdn.in/PfJ50H0ZBPg3/movie/26733"},{"id":26732,"title":"Лесная царевна","kp_id":"178768","imdb_id":"tt0459440","world_art_id":null,"type":"movie","add":"2019-05-19 09:51:41","orig_title":"Lesnaya tsarevna","year":"2005-03-24","translations":["Оригинальная дорожка"],"quality":"dvdrip","translation":"Оригинальная дорожка","update":"2019-05-21 06:00:59","iframe_src":"//83.svetacdn.in/PfJ50H0ZBPg3/movie/26732"},{"id":26731,"title":"Кувырок через голову","kp_id":"45031","imdb_id":"tt0298984","world_art_id":null,"type":"movie","add":"2019-05-19 09:50:09","orig_title":"Kuvyrok cherez golovu","year":"1988-05-15","translations":["Оригинальная дорожка"],"quality":"dvdrip","translation":"Оригинальная дорожка","update":"2019-05-21 06:00:18","iframe_src":"//83.svetacdn.in/PfJ50H0ZBPg3/movie/26731"},{"id":26730,"title":"Кукарача","kp_id":"45021","imdb_id":"tt0253191","world_art_id":null,"type":"movie","add":"2019-05-19 09:48:26","orig_title":"Cucaracha","year":"1983-06-21","translations":["Полное дублирование"],"quality":"dvdrip","translation":"Полное дублирование","update":"2019-05-21 05:55:17","iframe_src":"//83.svetacdn.in/PfJ50H0ZBPg3/movie/26730"},{"id":26729,"title":"Колыбельная для брата","kp_id":"44864","imdb_id":"tt0251780","world_art_id":null,"type":"movie","add":"2019-05-19 09:47:01","orig_title":"Kolybelnaya dlya brata","year":"1982-01-01","translations":["Оригинальная дорожка"],"quality":"dvdrip","translation":"Оригинальная дорожка","update":"2019-05-21 05:39:36","iframe_src":"//83.svetacdn.in/PfJ50H0ZBPg3/movie/26729"},{"id":26728,"title":"Каталажка","kp_id":"44733","imdb_id":"tt0175799","world_art_id":null,"type":"movie","add":"2019-05-19 09:45:20","orig_title":"Katalazhka","year":"1990-01-01","translations":["Оригинальная дорожка"],"quality":"dvdrip","translation":"Оригинальная дорожка","update":"2019-05-21 05:39:06","iframe_src":"//83.svetacdn.in/PfJ50H0ZBPg3/movie/26728"},{"id":26727,"title":"Каштанка","kp_id":"95625","imdb_id":"tt0170101","world_art_id":null,"type":"movie","add":"2019-05-19 09:43:33","orig_title":"Kashtanka","year":"1975-04-04","translations":["Оригинальная дорожка"],"quality":"dvdrip","translation":"Оригинальная дорожка","update":"2019-05-21 05:37:04","iframe_src":"//83.svetacdn.in/PfJ50H0ZBPg3/movie/26727"},{"id":26725,"title":"Один и без оружия","kp_id":"42717","imdb_id":"tt0087831","world_art_id":null,"type":"movie","add":"2019-05-19 09:40:11","orig_title":"Odin i bez oruzhiya","year":"1984-10-01","translations":["Оригинальная дорожка"],"quality":"dvdrip","translation":"Оригинальная дорожка","update":"2019-05-21 05:35:48","iframe_src":"//83.svetacdn.in/PfJ50H0ZBPg3/movie/26725"}],"current_page":1268,"first_page_url":"https://videocdn.tv/api/short?limit=100&api_token=RgFQdUIR2dRmwv8iYa5SnFNgnw3vpjKj&cache31268=31268&page=1","from":126701,"last_page":602,"last_page_url":"https://videocdn.tv/api/short?limit=100&api_token=RgFQdUIR2dRmwv8iYa5SnFNgnw3vpjKj&cache31268=31268&page=602","next_page_url":null,"path":"https://videocdn.tv/api/short","per_page":100,"prev_page_url":"https://videocdn.tv/api/short?limit=100&api_token=RgFQdUIR2dRmwv8iYa5SnFNgnw3vpjKj&cache31268=31268&page=1267","to":126720,"total":60177}