{"result":true,"data":[{"id":17542,"title":"Бойня","kp_id":"866386","imdb_id":"tt4015930","world_art_id":null,"type":"movie","add":"2018-07-03 23:55:32","orig_title":"Braxton","year":"2015-10-16","translations":["Любительский (многоголосый закадровый) (Синема УС)"],"quality":"webdl","translation":"Любительский (многоголосый закадровый) (Синема УС)","update":"2018-07-04 06:56:01","iframe_src":"//5322.svetacdn.in/IAF0wWTdNYZm/movie/17542"},{"id":17541,"title":"Комар-оборотень: охотник на нацистов","kp_id":"997484","imdb_id":"tt5958758","world_art_id":null,"type":"movie","add":"2018-07-03 23:53:54","orig_title":"Weresquito: Nazi Hunter","year":"2016-09-28","translations":["Любительский (многоголосый закадровый) (Синема УС)"],"quality":"webdl","translation":"Любительский (многоголосый закадровый) (Синема УС)","update":"2018-07-04 06:53:53","iframe_src":"//5322.svetacdn.in/IAF0wWTdNYZm/movie/17541"},{"id":17540,"title":"Истории на супер 8","kp_id":"48621","imdb_id":"tt0278069","world_art_id":null,"type":"movie","add":"2018-07-03 23:51:49","orig_title":"Super 8 Stories","year":"2001-02-14","translations":["Профессиональный (одноголосый закадровый)"],"quality":"dvdrip","translation":"Профессиональный (одноголосый закадровый)","update":"2018-07-04 06:53:32","iframe_src":"//5322.svetacdn.in/IAF0wWTdNYZm/movie/17540"},{"id":17538,"title":"Большое футбольное приключение","kp_id":null,"imdb_id":"tt7690774","world_art_id":null,"type":"movie","add":"2018-07-03 23:40:01","orig_title":"Víti í Vestmannaeyjum","year":"2018-03-09","translations":["Любительский (многоголосый закадровый) (Синема УС)"],"quality":"webdl","translation":"Любительский (многоголосый закадровый) (Синема УС)","update":"2018-07-04 06:49:30","iframe_src":"//5322.svetacdn.in/IAF0wWTdNYZm/movie/17538"},{"id":17536,"title":"Ложь или действие","kp_id":"1009009","imdb_id":null,"world_art_id":null,"type":"movie","add":"2018-07-03 23:31:50","orig_title":"Ложь или действие","year":"2017-01-01","translations":["Оригинальная дорожка"],"quality":"webdl","translation":"Оригинальная дорожка","update":"2018-07-04 06:43:53","iframe_src":"//5322.svetacdn.in/IAF0wWTdNYZm/movie/17536"},{"id":17535,"title":"Бандос","kp_id":"1013988","imdb_id":"tt6438030","world_art_id":null,"type":"movie","add":"2018-07-03 23:28:53","orig_title":"Patser","year":"2018-01-24","translations":["Любительский (многоголосый закадровый) (Колобок)"],"quality":"bd","translation":"Любительский (многоголосый закадровый) (Колобок)","update":"2018-07-04 06:40:00","iframe_src":"//5322.svetacdn.in/IAF0wWTdNYZm/movie/17535"},{"id":17530,"title":"Охота на генералов Гитлера","kp_id":null,"imdb_id":"tt2636826","world_art_id":null,"type":"movie","add":"2018-07-02 23:14:59","orig_title":"Stalking Hitler's Generals","year":"2011-01-01","translations":["Полное дублирование"],"quality":"hdtv","translation":"Полное дублирование","update":"2018-07-04 06:28:50","iframe_src":"//5322.svetacdn.in/IAF0wWTdNYZm/movie/17530"},{"id":17528,"title":"Ночь девственника","kp_id":"960324","imdb_id":"tt4982166","world_art_id":null,"type":"movie","add":"2018-07-02 23:11:21","orig_title":"La noche del virgen","year":"2016-10-16","translations":["Любительский (многоголосый закадровый) (Колобок)"],"quality":"webdl","translation":"Любительский (многоголосый закадровый) (Колобок)","update":"2018-07-04 06:24:46","iframe_src":"//5322.svetacdn.in/IAF0wWTdNYZm/movie/17528"},{"id":17527,"title":"Детективы из бара 3","kp_id":"1049332","imdb_id":"tt7058618","world_art_id":null,"type":"movie","add":"2018-07-02 23:05:57","orig_title":"Tantei wa bar ni iru 3","year":"2017-12-01","translations":["Любительский (многоголосый закадровый) (Колобок)"],"quality":"bd","translation":"Любительский (многоголосый закадровый) (Колобок)","update":"2018-07-04 06:06:35","iframe_src":"//5322.svetacdn.in/IAF0wWTdNYZm/movie/17527"},{"id":17517,"title":"Расчленитель","kp_id":"113316","imdb_id":"tt0124014","world_art_id":null,"type":"movie","add":"2018-07-02 06:56:04","orig_title":"The Mutilator","year":"1985-06-07","translations":["Авторский (одноголосый закадровый) (Дольский Андрей)"],"quality":"bd","translation":"Авторский (одноголосый закадровый) (Дольский Андрей)","update":"2018-07-04 10:03:15","iframe_src":"//5322.svetacdn.in/IAF0wWTdNYZm/movie/17517"},{"id":17468,"title":"Крокодил-робот","kp_id":"801929","imdb_id":"tt3188560","world_art_id":null,"type":"movie","add":"2018-06-29 11:49:44","orig_title":"Robocroc","year":"2013-09-14","translations":["Профессиональный (многоголосый закадровый)"],"quality":"webdl","translation":"Профессиональный (многоголосый закадровый)","update":"2018-07-04 10:05:20","iframe_src":"//5322.svetacdn.in/IAF0wWTdNYZm/movie/17468"},{"id":17466,"title":"Такешиз","kp_id":"198122","imdb_id":"tt0478044","world_art_id":null,"type":"movie","add":"2018-06-29 11:47:12","orig_title":"Takeshis'","year":"2005-09-02","translations":["Профессиональный (многоголосый закадровый)"],"quality":"bd","translation":"Профессиональный (многоголосый закадровый)","update":"2018-07-04 10:07:21","iframe_src":"//5322.svetacdn.in/IAF0wWTdNYZm/movie/17466"},{"id":17465,"title":"Дом на краю кладбища","kp_id":"152429","imdb_id":"tt0082966","world_art_id":null,"type":"movie","add":"2018-06-29 11:45:59","orig_title":"Quella villa accanto al cimitero","year":"1981-08-14","translations":["Профессиональный (многоголосый закадровый)"],"quality":"bd","translation":"Профессиональный (многоголосый закадровый)","update":"2018-07-04 10:08:31","iframe_src":"//5322.svetacdn.in/IAF0wWTdNYZm/movie/17465"},{"id":17460,"title":"Муки и радости","kp_id":"14003","imdb_id":"tt0058886","world_art_id":null,"type":"movie","add":"2018-06-29 11:39:33","orig_title":"The Agony and the Ecstasy","year":"1965-09-16","translations":["Профессиональный (двухголосый закадровый)"],"quality":"bd","translation":"Профессиональный (двухголосый закадровый)","update":"2018-07-04 10:36:00","iframe_src":"//5322.svetacdn.in/IAF0wWTdNYZm/movie/17460"},{"id":17459,"title":"Жестокий полицейский","kp_id":"48589","imdb_id":"tt0098360","world_art_id":null,"type":"movie","add":"2018-06-29 11:38:29","orig_title":"Sono otoko, kyôbô ni tsuki","year":"1989-08-12","translations":["Профессиональный (двухголосый закадровый)"],"quality":"bd","translation":"Профессиональный (двухголосый закадровый)","update":"2018-07-04 10:34:22","iframe_src":"//5322.svetacdn.in/IAF0wWTdNYZm/movie/17459"},{"id":17458,"title":"План 9 из открытого космоса","kp_id":"32251","imdb_id":"tt0052077","world_art_id":null,"type":"movie","add":"2018-06-29 11:37:15","orig_title":"Plan 9 from Outer Space","year":"1959-07-22","translations":["Профессиональный (двухголосый закадровый)"],"quality":"bd","translation":"Профессиональный (двухголосый закадровый)","update":"2018-07-04 10:32:49","iframe_src":"//5322.svetacdn.in/IAF0wWTdNYZm/movie/17458"},{"id":17455,"title":"Точка кипения","kp_id":"55127","imdb_id":"tt0098967","world_art_id":null,"type":"movie","add":"2018-06-29 11:34:00","orig_title":"3-4 x jûgatsu","year":"1990-09-15","translations":["Профессиональный (двухголосый закадровый)"],"quality":"bd","translation":"Профессиональный (двухголосый закадровый)","update":"2018-07-04 10:30:05","iframe_src":"//5322.svetacdn.in/IAF0wWTdNYZm/movie/17455"},{"id":17035,"title":"От семьи не убежишь","kp_id":"1061480","imdb_id":"tt6859418","world_art_id":null,"type":"movie","add":"2018-06-04 22:40:55","orig_title":"La ch'tite famille","year":"2018-01-13","translations":["Полное дублирование"],"quality":"bd","translation":"Полное дублирование","update":"2018-07-04 06:41:25","iframe_src":"//5322.svetacdn.in/IAF0wWTdNYZm/movie/17035"},{"id":17017,"title":"Ти Май: путь во Вьетнам","kp_id":"1032203","imdb_id":"tt6126346","world_art_id":null,"type":"movie","add":"2018-06-02 23:13:08","orig_title":"Thi Mai","year":"2017-11-24","translations":["Любительский (многоголосый закадровый) (Синема УС)","Профессиональный (многоголосый закадровый) (GreenРай Studio)"],"quality":"hdrip","translation":"Любительский (многоголосый закадровый) (Синема УС)","update":"2018-07-04 06:07:46","iframe_src":"//5322.svetacdn.in/IAF0wWTdNYZm/movie/17017"},{"id":17000,"title":"Два хвоста","kp_id":"927822","imdb_id":"tt7403570","world_art_id":null,"type":"movie","add":"2018-06-02 22:00:10","orig_title":"Dva khvosta","year":"2018-05-25","translations":["Оригинальная дорожка"],"quality":"webdl","translation":"Оригинальная дорожка","update":"2018-07-04 11:45:42","iframe_src":"//5322.svetacdn.in/IAF0wWTdNYZm/movie/17000"}],"current_page":1823,"first_page_url":"https://videocdn.tv/api/short?limit=100&api_token=6Onb1W1alEUrBcKJZD3GoKBbWyAl2uG2&cache31823=31823&page=1","from":182201,"last_page":626,"last_page_url":"https://videocdn.tv/api/short?limit=100&api_token=6Onb1W1alEUrBcKJZD3GoKBbWyAl2uG2&cache31823=31823&page=626","next_page_url":null,"path":"https://videocdn.tv/api/short","per_page":100,"prev_page_url":"https://videocdn.tv/api/short?limit=100&api_token=6Onb1W1alEUrBcKJZD3GoKBbWyAl2uG2&cache31823=31823&page=1822","to":182220,"total":62573}