{"result":true,"data":[{"id":16326,"title":"Золушка","kp_id":"280872","imdb_id":"tt0845442","world_art_id":null,"type":"movie","add":"2018-04-17 22:48:32","orig_title":"Sinderella","year":"2006-08-17","translations":["Любительский (двухголосый закадровый) (DeadSno & den904)"],"quality":"dvdrip","translation":"Любительский (двухголосый закадровый) (DeadSno & den904)","update":"2018-04-18 04:42:59","iframe_src":"//83.svetacdn.in/PfJ50H0ZBPg3/movie/16326"},{"id":16325,"title":"9,99 долларов","kp_id":"276339","imdb_id":"tt0790799","world_art_id":null,"type":"movie","add":"2018-04-17 22:45:45","orig_title":"$9.99","year":"2008-09-04","translations":["Профессиональный (многоголосый закадровый)"],"quality":"bd","translation":"Профессиональный (многоголосый закадровый)","update":"2018-04-18 04:43:57","iframe_src":"//83.svetacdn.in/PfJ50H0ZBPg3/movie/16325"},{"id":16324,"title":"Зеленый туман","kp_id":"1046449","imdb_id":"tt6736812","world_art_id":null,"type":"movie","add":"2018-04-17 22:43:11","orig_title":"The Green Fog","year":"2017-04-16","translations":["Любительский (многоголосый закадровый) (Синема УС)"],"quality":"webdl","translation":"Любительский (многоголосый закадровый) (Синема УС)","update":"2018-04-18 04:45:19","iframe_src":"//83.svetacdn.in/PfJ50H0ZBPg3/movie/16324"},{"id":16323,"title":"Алиса в стране чудес","kp_id":"869534","imdb_id":null,"world_art_id":null,"type":"movie","add":"2018-04-17 22:27:49","orig_title":"Алиса в стране чудес","year":"2014-12-31","translations":["Оригинальная дорожка"],"quality":"sat","translation":"Оригинальная дорожка","update":"2018-04-18 05:04:33","iframe_src":"//83.svetacdn.in/PfJ50H0ZBPg3/movie/16323"},{"id":16299,"title":"Роковой выбор","kp_id":"261030","imdb_id":"tt0844666","world_art_id":null,"type":"movie","add":"2018-04-15 21:22:42","orig_title":"Blackout","year":"2008-06-04","translations":["Полное дублирование"],"quality":"bd","translation":"Полное дублирование","update":"2018-04-17 07:00:48","iframe_src":"//83.svetacdn.in/PfJ50H0ZBPg3/movie/16299"},{"id":16298,"title":"Приключения есть приключения","kp_id":"84995","imdb_id":"tt0066798","world_art_id":null,"type":"movie","add":"2018-04-15 21:19:23","orig_title":"L'aventure, c'est l'aventure","year":"1972-05-04","translations":["Профессиональный (многоголосый закадровый) (НТВ)"],"quality":"bd","translation":"Профессиональный (многоголосый закадровый) (НТВ)","update":"2018-04-17 06:58:21","iframe_src":"//83.svetacdn.in/PfJ50H0ZBPg3/movie/16298"},{"id":16297,"title":"Поэтичная Джастис","kp_id":"5116","imdb_id":"tt0107840","world_art_id":null,"type":"movie","add":"2018-04-15 21:16:53","orig_title":"Poetic Justice","year":"1993-07-23","translations":["Полное дублирование"],"quality":"webdl","translation":"Полное дублирование","update":"2018-04-17 06:57:32","iframe_src":"//83.svetacdn.in/PfJ50H0ZBPg3/movie/16297"},{"id":16293,"title":"Мой папа псих","kp_id":"77784","imdb_id":"tt0388182","world_art_id":null,"type":"movie","add":"2018-04-15 20:53:50","orig_title":"King of California","year":"2007-01-24","translations":["Профессиональный (двухголосый закадровый) (R5)"],"quality":"bd","translation":"Профессиональный (двухголосый закадровый) (R5)","update":"2018-04-17 06:54:05","iframe_src":"//83.svetacdn.in/PfJ50H0ZBPg3/movie/16293"},{"id":16291,"title":"Герой ее романа","kp_id":"3495","imdb_id":"tt0180037","world_art_id":null,"type":"movie","add":"2018-04-15 20:42:09","orig_title":"Paperback Hero","year":"1999-03-25","translations":["Профессиональный (двухголосый закадровый)"],"quality":"bd","translation":"Профессиональный (двухголосый закадровый)","update":"2018-04-17 06:47:29","iframe_src":"//83.svetacdn.in/PfJ50H0ZBPg3/movie/16291"},{"id":16288,"title":"Женщина для всех","kp_id":"45303","imdb_id":"tt0204754","world_art_id":null,"type":"movie","add":"2018-04-15 20:34:27","orig_title":"Zhenshchina dlya vsekh","year":"1991-06-01","translations":["Оригинальная дорожка"],"quality":"hdtv","translation":"Оригинальная дорожка","update":"2018-04-17 06:44:00","iframe_src":"//83.svetacdn.in/PfJ50H0ZBPg3/movie/16288"},{"id":16287,"title":"Закрытые пространства","kp_id":"414915","imdb_id":"tt1279976","world_art_id":null,"type":"movie","add":"2018-04-15 20:32:24","orig_title":"Zakrytye prostranstva","year":"2008-08-18","translations":["Оригинальная дорожка"],"quality":"bd","translation":"Оригинальная дорожка","update":"2018-04-17 06:43:15","iframe_src":"//83.svetacdn.in/PfJ50H0ZBPg3/movie/16287"},{"id":16285,"title":"Волкодав из рода Серых Псов","kp_id":"81371","imdb_id":"tt0416316","world_art_id":null,"type":"movie","add":"2018-04-15 20:23:05","orig_title":"Volkodav iz roda Serykh Psov","year":"2006-12-28","translations":["Оригинальная дорожка"],"quality":"bd","translation":"Оригинальная дорожка","update":"2018-04-17 06:41:01","iframe_src":"//83.svetacdn.in/PfJ50H0ZBPg3/movie/16285"},{"id":16283,"title":"Война миров","kp_id":"18063","imdb_id":"tt0046534","world_art_id":null,"type":"movie","add":"2018-04-15 20:19:10","orig_title":"The War of the Worlds","year":"1953-04-03","translations":["Профессиональный (двухголосый закадровый)"],"quality":"dvdrip","translation":"Профессиональный (двухголосый закадровый)","update":"2018-04-17 06:39:17","iframe_src":"//83.svetacdn.in/PfJ50H0ZBPg3/movie/16283"},{"id":16282,"title":"Веревка и кольт","kp_id":"75279","imdb_id":"tt0063740","world_art_id":null,"type":"movie","add":"2018-04-15 20:14:55","orig_title":"Une corde, un colt...","year":"1969-01-25","translations":["Профессиональный (многоголосый закадровый)"],"quality":"bd","translation":"Профессиональный (многоголосый закадровый)","update":"2018-04-17 05:44:27","iframe_src":"//83.svetacdn.in/PfJ50H0ZBPg3/movie/16282"},{"id":14659,"title":"Правда в игре","kp_id":"939331","imdb_id":"tt5116504","world_art_id":null,"type":"movie","add":"2017-12-13 23:08:18","orig_title":"True to the Game","year":"2017-09-08","translations":["Любительский (многоголосый закадровый) (Колобок)","Любительский (двухголосый закадровый) (HiWayGrope)"],"quality":"webdl","translation":"Любительский (многоголосый закадровый) (Колобок)","update":"2018-04-18 05:09:46","iframe_src":"//83.svetacdn.in/PfJ50H0ZBPg3/movie/14659"},{"id":10642,"title":"Дары смерти","kp_id":"929056","imdb_id":"tt4935372","world_art_id":null,"type":"movie","add":"2017-03-30 21:46:22","orig_title":"The Devil's Candy","year":"2015-09-13","translations":["Полное дублирование (iTunes)"],"quality":"bd","translation":"Полное дублирование (iTunes)","update":"2018-04-18 05:02:55","iframe_src":"//83.svetacdn.in/PfJ50H0ZBPg3/movie/10642"},{"id":7523,"title":"Калина красная","kp_id":"44691","imdb_id":"tt0070262","world_art_id":null,"type":"movie","add":"2016-11-20 08:07:45","orig_title":"Kalina krasnaya","year":"1974-03-25","translations":["Оригинальная дорожка"],"quality":"webdl","translation":"Оригинальная дорожка","update":"2018-04-17 06:50:41","iframe_src":"//83.svetacdn.in/PfJ50H0ZBPg3/movie/7523"},{"id":6646,"title":"Всегда","kp_id":"7105","imdb_id":"tt0096794","world_art_id":null,"type":"movie","add":"2016-10-25 15:07:20","orig_title":"Always","year":"1989-12-22","translations":["Полное дублирование","Профессиональный (двухголосый закадровый)"],"quality":"bd","translation":"Полное дублирование","update":"2018-04-17 06:41:54","iframe_src":"//83.svetacdn.in/PfJ50H0ZBPg3/movie/6646"},{"id":3650,"title":"Непристойное предложение","kp_id":"4346","imdb_id":"tt0107211","world_art_id":null,"type":"movie","add":"2016-07-04 09:58:52","orig_title":"Indecent Proposal","year":"1993-04-07","translations":["Профессиональный (многоголосый закадровый)","Полное дублирование"],"quality":"bd","translation":"Профессиональный (многоголосый закадровый)","update":"2018-04-17 06:56:05","iframe_src":"//83.svetacdn.in/PfJ50H0ZBPg3/movie/3650"},{"id":3574,"title":"Дерсу Узала","kp_id":"8208","imdb_id":"tt0071411","world_art_id":null,"type":"movie","add":"2016-07-01 08:16:53","orig_title":"Dersu Uzala","year":"1975-08-02","translations":["Оригинальная дорожка"],"quality":"bd","translation":"Оригинальная дорожка","update":"2018-04-17 06:49:23","iframe_src":"//83.svetacdn.in/PfJ50H0ZBPg3/movie/3574"}],"current_page":1984,"first_page_url":"https://videocdn.tv/api/short?limit=100&api_token=RgFQdUIR2dRmwv8iYa5SnFNgnw3vpjKj&cache31984=31984&page=1","from":198301,"last_page":649,"last_page_url":"https://videocdn.tv/api/short?limit=100&api_token=RgFQdUIR2dRmwv8iYa5SnFNgnw3vpjKj&cache31984=31984&page=649","next_page_url":null,"path":"https://videocdn.tv/api/short","per_page":100,"prev_page_url":"https://videocdn.tv/api/short?limit=100&api_token=RgFQdUIR2dRmwv8iYa5SnFNgnw3vpjKj&cache31984=31984&page=1983","to":198320,"total":64845}