{"result":true,"data":[{"id":46607,"title":"Идеальное Рождество","kp_id":"1300942","imdb_id":"tt10840162","world_art_id":null,"type":"movie","add":"2021-01-01 21:28:55","orig_title":"Täydellinen joulu","year":"2019-10-25","translations":["Любительский (многоголосый закадровый) (Синема УС)"],"quality":"bd","translation":"Любительский (многоголосый закадровый) (Синема УС)","update":"2021-01-02 07:22:57","iframe_src":"//83.svetacdn.in/PfJ50H0ZBPg3/movie/46607"},{"id":46606,"title":"Праздничные перемены","kp_id":"1282227","imdb_id":"tt10545474","world_art_id":null,"type":"movie","add":"2021-01-01 21:20:48","orig_title":"A Holiday Change","year":"2019-01-01","translations":["Любительский (многоголосый закадровый) (Синема УС)"],"quality":"webdl","translation":"Любительский (многоголосый закадровый) (Синема УС)","update":"2021-01-02 07:23:18","iframe_src":"//83.svetacdn.in/PfJ50H0ZBPg3/movie/46606"},{"id":46605,"title":"Кэнди","kp_id":"1049961","imdb_id":"tt7136962","world_art_id":null,"type":"movie","add":"2021-01-01 21:19:00","orig_title":"Candy","year":"2017-03-24","translations":["Любительский (многоголосый закадровый) (Синема УС)"],"quality":"webdl","translation":"Любительский (многоголосый закадровый) (Синема УС)","update":"2021-01-02 07:23:50","iframe_src":"//83.svetacdn.in/PfJ50H0ZBPg3/movie/46605"},{"id":46602,"title":"Энгель","kp_id":"2002972","imdb_id":"tt12753454","world_art_id":null,"type":"movie","add":"2021-01-01 20:36:10","orig_title":"Engel","year":"2020-08-05","translations":["Любительский (многоголосый закадровый) (Синема УС)"],"quality":"webdl","translation":"Любительский (многоголосый закадровый) (Синема УС)","update":"2021-01-02 07:46:00","iframe_src":"//83.svetacdn.in/PfJ50H0ZBPg3/movie/46602"},{"id":46601,"title":"Ежегодно отбыл","kp_id":null,"imdb_id":"tt13321268","world_art_id":null,"type":"movie","add":"2021-01-01 20:34:22","orig_title":"Yearly Departed","year":"2020-12-30","translations":["Любительский (многоголосый закадровый) (Синема УС)"],"quality":"webdl","translation":"Любительский (многоголосый закадровый) (Синема УС)","update":"2021-01-02 07:46:50","iframe_src":"//83.svetacdn.in/PfJ50H0ZBPg3/movie/46601"},{"id":46598,"title":"Рождество по заказу","kp_id":"1404204","imdb_id":"tt12968696","world_art_id":null,"type":"movie","add":"2021-01-01 20:28:26","orig_title":"Christmas on the Menu","year":"2020-12-18","translations":["Любительский (многоголосый закадровый) (AlphaProject)"],"quality":"webdl","translation":"Любительский (многоголосый закадровый) (AlphaProject)","update":"2021-01-02 07:47:33","iframe_src":"//83.svetacdn.in/PfJ50H0ZBPg3/movie/46598"},{"id":46590,"title":"Сверхновая звезда","kp_id":"1285357","imdb_id":"tt10666454","world_art_id":null,"type":"movie","add":"2021-01-01 20:13:01","orig_title":"Supernova","year":"2019-09-16","translations":["Любительский (многоголосый закадровый) (Синема УС)"],"quality":"webdl","translation":"Любительский (многоголосый закадровый) (Синема УС)","update":"2021-01-01 21:31:26","iframe_src":"//83.svetacdn.in/PfJ50H0ZBPg3/movie/46590"},{"id":46580,"title":"Самоизоляция","kp_id":"1374532","imdb_id":null,"world_art_id":null,"type":"movie","add":"2021-01-01 16:26:51","orig_title":"Самоизоляция","year":"2020-04-30","translations":["Оригинальная дорожка"],"quality":"webdl","translation":"Оригинальная дорожка","update":"2021-01-01 19:08:39","iframe_src":"//83.svetacdn.in/PfJ50H0ZBPg3/movie/46580"},{"id":46578,"title":"Волшебное Рождество с Мэрайей Кэри","kp_id":"1428137","imdb_id":"tt13017992","world_art_id":null,"type":"movie","add":"2021-01-01 10:13:09","orig_title":"Mariah Carey's Magical Christmas Special","year":"2020-12-04","translations":["Original (English)"],"quality":"webdl","translation":"Original (English)","update":"2021-01-01 16:40:54","iframe_src":"//83.svetacdn.in/PfJ50H0ZBPg3/movie/46578"},{"id":46577,"title":"Армейский пирог","kp_id":"61768","imdb_id":"tt0353161","world_art_id":null,"type":"movie","add":"2020-12-31 12:19:14","orig_title":"Achtung, fertig, Charlie!","year":"2003-09-18","translations":["Полное дублирование"],"quality":"bd","translation":"Полное дублирование","update":"2020-12-31 13:05:45","iframe_src":"//83.svetacdn.in/PfJ50H0ZBPg3/movie/46577"},{"id":46576,"title":"Здравствуй, ночь","kp_id":"61576","imdb_id":"tt0377569","world_art_id":null,"type":"movie","add":"2020-12-31 12:05:06","orig_title":"Buongiorno, notte","year":"2003-09-04","translations":["Профессиональный (многоголосый закадровый)"],"quality":"dvdrip","translation":"Профессиональный (многоголосый закадровый)","update":"2020-12-31 12:35:18","iframe_src":"//83.svetacdn.in/PfJ50H0ZBPg3/movie/46576"},{"id":46575,"title":"Клубничка в супермаркете","kp_id":"80773","imdb_id":"tt0322807","world_art_id":null,"type":"movie","add":"2020-12-31 12:01:16","orig_title":"Jagoda u supermarketu","year":"2003-02-06","translations":["Профессиональный (многоголосый закадровый) (Кармен Видео)"],"quality":"dvdrip","translation":"Профессиональный (многоголосый закадровый) (Кармен Видео)","update":"2020-12-31 12:41:50","iframe_src":"//83.svetacdn.in/PfJ50H0ZBPg3/movie/46575"},{"id":45916,"title":"Комета Галлея","kp_id":"1338253","imdb_id":"tt11898944","world_art_id":null,"type":"movie","add":"2020-12-08 15:38:14","orig_title":"Kometa Galleya","year":"2020-12-03","translations":["Оригинальная дорожка"],"quality":"webdl","translation":"Оригинальная дорожка","update":"2020-12-31 11:53:11","iframe_src":"//83.svetacdn.in/PfJ50H0ZBPg3/movie/45916"},{"id":45812,"title":"Вечер шутов, или Серьезно с приветом","kp_id":"1363062","imdb_id":null,"world_art_id":null,"type":"movie","add":"2020-12-03 15:28:37","orig_title":"Vecher shutov, ili Seryozno s privetom","year":"2020-11-26","translations":["Оригинальная дорожка"],"quality":"webdl","translation":"Оригинальная дорожка","update":"2021-01-01 19:35:43","iframe_src":"//83.svetacdn.in/PfJ50H0ZBPg3/movie/45812"},{"id":45607,"title":"Карантинные истории","kp_id":"1405963","imdb_id":"tt12492600","world_art_id":null,"type":"movie","add":"2020-11-25 11:25:03","orig_title":"Relatos con-fin-a-dos","year":"2020-11-19","translations":["Профессиональный (многоголосый закадровый) (iTunes)"],"quality":"webdl","translation":"Профессиональный (многоголосый закадровый) (iTunes)","update":"2020-12-31 16:25:43","iframe_src":"//83.svetacdn.in/PfJ50H0ZBPg3/movie/45607"},{"id":44544,"title":"Повелитель драконов","kp_id":"1080192","imdb_id":"tt7080422","world_art_id":null,"type":"movie","add":"2020-10-18 09:11:46","orig_title":"Dragon Rider","year":"2020-10-15","translations":["Полное дублирование (iTunes)"],"quality":"webdl","translation":"Полное дублирование (iTunes)","update":"2021-01-01 19:01:42","iframe_src":"//83.svetacdn.in/PfJ50H0ZBPg3/movie/44544"},{"id":43699,"title":"Избави нас от лукавого","kp_id":"1270677","imdb_id":"tt12763920","world_art_id":null,"type":"movie","add":"2020-09-21 08:24:00","orig_title":"Daman akeseo guhasoseo","year":"2020-08-05","translations":["Полное дублирование"],"quality":"webdl","translation":"Полное дублирование","update":"2020-12-31 15:09:30","iframe_src":"//83.svetacdn.in/PfJ50H0ZBPg3/movie/43699"},{"id":43672,"title":"Перепало?","kp_id":"1391217","imdb_id":"tt12633744","world_art_id":null,"type":"movie","add":"2020-09-19 07:15:46","orig_title":"T'as pécho?","year":"2020-07-29","translations":["Любительский (многоголосый закадровый) (@MUZOBOZ@)"],"quality":"webdl","translation":"Любительский (многоголосый закадровый) (@MUZOBOZ@)","update":"2021-01-02 07:48:02","iframe_src":"//83.svetacdn.in/PfJ50H0ZBPg3/movie/43672"},{"id":43250,"title":"Маленькая страна","kp_id":"1237235","imdb_id":"tt9665968","world_art_id":null,"type":"movie","add":"2020-09-08 06:03:42","orig_title":"Petit pays","year":"2020-02-03","translations":["Полное дублирование (iTunes)"],"quality":"webdl","translation":"Полное дублирование (iTunes)","update":"2020-12-31 14:46:54","iframe_src":"//83.svetacdn.in/PfJ50H0ZBPg3/movie/43250"},{"id":3868,"title":"Новогодний экспресс","kp_id":"1110938","imdb_id":null,"world_art_id":null,"type":"serial","add":"2019-01-13 15:07:38","orig_title":"Новогодний экспресс","year":"2019-01-12","translations":["Оригинальная дорожка"],"seasons_count":1,"episodes_count":2,"episodes":2,"update":"2019-01-13 17:46:25","iframe_src":"//83.svetacdn.in/PfJ50H0ZBPg3/tv-series/3868"},{"id":3867,"title":"Кадеты","kp_id":"420329","imdb_id":"tt3276056","world_art_id":null,"type":"serial","add":"2019-01-13 15:03:40","orig_title":"Kadety","year":"2004-01-01","translations":["Оригинальная дорожка"],"seasons_count":1,"episodes_count":4,"episodes":4,"update":"2019-01-13 18:31:26","iframe_src":"//83.svetacdn.in/PfJ50H0ZBPg3/tv-series/3867"},{"id":3866,"title":"Иные","kp_id":"841702","imdb_id":null,"world_art_id":null,"type":"serial","add":"2019-01-13 09:37:21","orig_title":"Иные","year":"2015-11-23","translations":["Оригинальная дорожка"],"seasons_count":1,"episodes_count":16,"episodes":16,"update":"2019-01-15 10:41:23","iframe_src":"//83.svetacdn.in/PfJ50H0ZBPg3/tv-series/3866"},{"id":3862,"title":"Вместе с Верой","kp_id":"1161791","imdb_id":null,"world_art_id":null,"type":"serial","add":"2019-01-11 07:35:51","orig_title":"Вместе с Верой","year":"2019-01-06","translations":["Оригинальная дорожка"],"seasons_count":1,"episodes_count":2,"episodes":2,"update":"2019-01-12 07:36:37","iframe_src":"//83.svetacdn.in/PfJ50H0ZBPg3/tv-series/3862"},{"id":3856,"title":"Мой сосед-адвокат Чо Дыль-хо","kp_id":"990773","imdb_id":"tt5616430","world_art_id":null,"type":"serial","add":"2019-01-09 22:35:46","orig_title":"Dong-ne-byeon-ho-sa Jo Deul-ho","year":"2016-03-28","translations":["Любительский (двухголосый закадровый)"],"seasons_count":1,"episodes_count":20,"episodes":20,"update":"2019-01-10 06:53:10","iframe_src":"//83.svetacdn.in/PfJ50H0ZBPg3/tv-series/3856"},{"id":3855,"title":"Непокорные","kp_id":"1045744","imdb_id":"tt6958022","world_art_id":null,"type":"serial","add":"2019-01-09 15:13:52","orig_title":"The Defiant Ones","year":"2017-07-09","translations":["Профессиональный (многоголосый закадровый) (SDI Media)"],"seasons_count":1,"episodes_count":4,"episodes":4,"update":"2019-01-11 11:07:39","iframe_src":"//83.svetacdn.in/PfJ50H0ZBPg3/tv-series/3855"},{"id":3854,"title":"Шахта","kp_id":"533136","imdb_id":"tt4136744","world_art_id":null,"type":"serial","add":"2019-01-09 12:31:13","orig_title":"Shakhta","year":"2010-10-28","translations":["Оригинальная дорожка"],"seasons_count":1,"episodes_count":16,"episodes":16,"update":"2019-01-10 14:01:04","iframe_src":"//83.svetacdn.in/PfJ50H0ZBPg3/tv-series/3854"},{"id":3849,"title":"Маргоша 3","kp_id":"497697","imdb_id":"tt3867808","world_art_id":null,"type":"serial","add":"2019-01-08 15:39:07","orig_title":"Margosha 3","year":"2010-08-16","translations":["Оригинальная дорожка"],"seasons_count":1,"episodes_count":90,"episodes":90,"update":"2019-01-15 14:15:21","iframe_src":"//83.svetacdn.in/PfJ50H0ZBPg3/tv-series/3849"},{"id":3848,"title":"Маргоша 2","kp_id":"487581","imdb_id":"tt3867806","world_art_id":null,"type":"serial","add":"2019-01-08 15:37:21","orig_title":"Margosha 2","year":"2009-12-21","translations":["Оригинальная дорожка"],"seasons_count":1,"episodes_count":90,"episodes":90,"update":"2019-01-11 15:27:43","iframe_src":"//83.svetacdn.in/PfJ50H0ZBPg3/tv-series/3848"},{"id":3847,"title":"Маргоша","kp_id":"445118","imdb_id":"tt2851244","world_art_id":null,"type":"serial","add":"2019-01-08 15:34:46","orig_title":"Margosha","year":"2009-09-07","translations":["Оригинальная дорожка"],"seasons_count":1,"episodes_count":60,"episodes":60,"update":"2019-01-09 13:48:03","iframe_src":"//83.svetacdn.in/PfJ50H0ZBPg3/tv-series/3847"},{"id":3846,"title":"Тайны Борго Ларичи","kp_id":"915115","imdb_id":"tt3913070","world_art_id":null,"type":"serial","add":"2019-01-08 14:22:54","orig_title":"I segreti di Borgo Larici","year":"2014-01-22","translations":["Профессиональный (многоголосый закадровый) (Eurochannel)"],"seasons_count":1,"episodes_count":7,"episodes":7,"update":"2019-01-11 11:03:13","iframe_src":"//83.svetacdn.in/PfJ50H0ZBPg3/tv-series/3846"},{"id":3834,"title":"Слишком поздно говорить: Я люблю тебя","kp_id":"894031","imdb_id":null,"world_art_id":null,"type":"serial","add":"2019-01-07 10:46:21","orig_title":"Lai Bu Ji Shuo Wo Ai Ni","year":"2010-01-01","translations":["Любительский (двухголосый закадровый)"],"seasons_count":1,"episodes_count":36,"episodes":36,"update":"2019-01-12 08:18:34","iframe_src":"//83.svetacdn.in/PfJ50H0ZBPg3/tv-series/3834"},{"id":3828,"title":"Список клиентов","kp_id":"611388","imdb_id":"tt2022170","world_art_id":null,"type":"serial","add":"2019-01-06 09:59:08","orig_title":"The Client List","year":"2012-04-08","translations":["Профессиональный (двухголосый закадровый) (NewStudio)","Профессиональный (многоголосый закадровый) (SET)"],"seasons_count":2,"episodes_count":25,"episodes":15,"update":"2019-01-11 09:05:58","iframe_src":"//83.svetacdn.in/PfJ50H0ZBPg3/tv-series/3828"},{"id":3827,"title":"Черные вдовы","kp_id":"958518","imdb_id":"tt5433600","world_art_id":null,"type":"serial","add":"2019-01-06 09:50:07","orig_title":"Black Widows","year":"2016-02-04","translations":["Профессиональный (многоголосый закадровый) (Eurochannel)","Любительский (многоголосый закадровый) (GreenРай Studio)"],"seasons_count":2,"episodes_count":16,"episodes":8,"update":"2019-01-11 08:19:53","iframe_src":"//83.svetacdn.in/PfJ50H0ZBPg3/tv-series/3827"},{"id":3821,"title":"Спрут 10","kp_id":"79870","imdb_id":"tt0187660","world_art_id":null,"type":"serial","add":"2019-01-05 11:36:49","orig_title":"La piovra 10","year":"2001-01-10","translations":["Профессиональный (многоголосый закадровый)"],"seasons_count":1,"episodes_count":2,"episodes":2,"update":"2019-01-12 07:40:25","iframe_src":"//83.svetacdn.in/PfJ50H0ZBPg3/tv-series/3821"},{"id":3820,"title":"Спрут 9","kp_id":"79869","imdb_id":"tt0178158","world_art_id":null,"type":"serial","add":"2019-01-05 11:32:38","orig_title":"La piovra 9 - Il patto","year":"1998-03-09","translations":["Профессиональный (многоголосый закадровый)"],"seasons_count":1,"episodes_count":2,"episodes":2,"update":"2019-01-12 07:42:56","iframe_src":"//83.svetacdn.in/PfJ50H0ZBPg3/tv-series/3820"},{"id":3819,"title":"Спрут 8","kp_id":"79868","imdb_id":"tt0178157","world_art_id":null,"type":"serial","add":"2019-01-05 11:27:13","orig_title":"La piovra 8 - Lo scandalo","year":"1997-10-05","translations":["Профессиональный (многоголосый закадровый)"],"seasons_count":1,"episodes_count":2,"episodes":2,"update":"2019-01-12 07:45:35","iframe_src":"//83.svetacdn.in/PfJ50H0ZBPg3/tv-series/3819"},{"id":3817,"title":"Спрут 6","kp_id":"79866","imdb_id":"tt0277518","world_art_id":null,"type":"serial","add":"2019-01-05 11:17:40","orig_title":"La piovra 6 - L'ultimo segreto","year":"1992-11-30","translations":["Профессиональный (многоголосый закадровый)"],"seasons_count":1,"episodes_count":6,"episodes":6,"update":"2019-01-12 08:09:43","iframe_src":"//83.svetacdn.in/PfJ50H0ZBPg3/tv-series/3817"},{"id":20996,"title":"Рождественские приключения любительницы обуви","kp_id":"1193372","imdb_id":"tt8634202","world_art_id":null,"type":"movie","add":"2018-12-25 00:15:59","orig_title":"A Shoe Addict's Christmas","year":"2018-11-25","translations":["Профессиональный (многоголосый закадровый) (IVI)"],"quality":"webdl","translation":"Профессиональный (многоголосый закадровый) (IVI)","update":"2020-12-31 14:47:52","iframe_src":"//83.svetacdn.in/PfJ50H0ZBPg3/movie/20996"},{"id":2947,"title":"Давайте есть","kp_id":"815207","imdb_id":"tt3385484","world_art_id":null,"type":"serial","add":"2018-07-20 08:47:10","orig_title":"Let's Eat","year":"2013-11-28","translations":["Любительский (одноголосый закадровый)","Любительский (двухголосый закадровый) (SoftBox)"],"seasons_count":2,"episodes_count":30,"episodes":14,"update":"2019-01-13 14:59:34","iframe_src":"//83.svetacdn.in/PfJ50H0ZBPg3/tv-series/2947"},{"id":122,"title":"Энджи Трайбека","kp_id":"840055","imdb_id":"tt3597790","world_art_id":null,"type":"serial","add":"2016-06-02 05:03:27","orig_title":"Angie Tribeca","year":"2016-01-17","translations":["Профессиональный (многоголосый закадровый) (IdeaFilm)"],"seasons_count":4,"episodes_count":40,"episodes":10,"update":"2019-01-14 14:56:31","iframe_src":"//83.svetacdn.in/PfJ50H0ZBPg3/tv-series/122"}],"current_page":410,"first_page_url":"https://videocdn.tv/api/short?limit=100&api_token=RgFQdUIR2dRmwv8iYa5SnFNgnw3vpjKj&cache3410=3410&page=1","from":40901,"last_page":645,"last_page_url":"https://videocdn.tv/api/short?limit=100&api_token=RgFQdUIR2dRmwv8iYa5SnFNgnw3vpjKj&cache3410=3410&page=645","next_page_url":"https://videocdn.tv/api/short?limit=100&api_token=RgFQdUIR2dRmwv8iYa5SnFNgnw3vpjKj&cache3410=3410&page=411","path":"https://videocdn.tv/api/short","per_page":100,"prev_page_url":"https://videocdn.tv/api/short?limit=100&api_token=RgFQdUIR2dRmwv8iYa5SnFNgnw3vpjKj&cache3410=3410&page=409","to":40940,"total":64471}