{"result":true,"data":[{"id":19146,"title":"Поколение Икс","kp_id":"1061683","imdb_id":"tt3563342","world_art_id":null,"type":"movie","add":"2018-09-23 22:31:37","orig_title":"The Middle of X","year":"2018-09-18","translations":["Любительский (многоголосый закадровый) (Синема УС)"],"quality":"webdl","translation":"Любительский (многоголосый закадровый) (Синема УС)","update":"2018-09-24 07:47:33","iframe_src":"//7923.svetacdn.in/IAF0wWTdNYZm/movie/19146"},{"id":19145,"title":"Когда мясу придет конец","kp_id":null,"imdb_id":"tt5859140","world_art_id":null,"type":"movie","add":"2018-09-23 22:29:08","orig_title":"The End of Meat","year":"2017-09-14","translations":["Любительский (многоголосый закадровый) (Синема УС)"],"quality":"webdl","translation":"Любительский (многоголосый закадровый) (Синема УС)","update":"2018-09-24 07:46:09","iframe_src":"//7923.svetacdn.in/IAF0wWTdNYZm/movie/19145"},{"id":19144,"title":"Дурная кровь","kp_id":"927214","imdb_id":"tt4823992","world_art_id":null,"type":"movie","add":"2018-09-23 22:26:11","orig_title":"The Bad Seed","year":"2018-09-09","translations":["Любительский (многоголосый закадровый) (Синема УС)"],"quality":"hdtv","translation":"Любительский (многоголосый закадровый) (Синема УС)","update":"2018-09-24 07:45:04","iframe_src":"//7923.svetacdn.in/IAF0wWTdNYZm/movie/19144"},{"id":19142,"title":"Шэрон 1.2.3.","kp_id":"790571","imdb_id":"tt3127016","world_art_id":null,"type":"movie","add":"2018-09-23 22:18:04","orig_title":"Sharon 1.2.3.","year":"2018-09-21","translations":["Любительский (многоголосый закадровый) (Синема УС)"],"quality":"webdl","translation":"Любительский (многоголосый закадровый) (Синема УС)","update":"2018-09-24 07:26:34","iframe_src":"//7923.svetacdn.in/IAF0wWTdNYZm/movie/19142"},{"id":19136,"title":"Никто не хотел говорить","kp_id":"1185155","imdb_id":"tt8883456","world_art_id":null,"type":"movie","add":"2018-09-23 22:06:16","orig_title":"No One Would Tell","year":"2018-09-16","translations":["Любительский (многоголосый закадровый) (Синема УС)"],"quality":"hdtv","translation":"Любительский (многоголосый закадровый) (Синема УС)","update":"2018-09-24 07:13:12","iframe_src":"//7923.svetacdn.in/IAF0wWTdNYZm/movie/19136"},{"id":19134,"title":"Упущенная возможность","kp_id":"998464","imdb_id":"tt5974780","world_art_id":null,"type":"movie","add":"2018-09-23 21:47:46","orig_title":"Lost Fare","year":"2018-04-20","translations":["Любительский (многоголосый закадровый) (Синема УС)"],"quality":"webdl","translation":"Любительский (многоголосый закадровый) (Синема УС)","update":"2018-09-24 07:09:39","iframe_src":"//7923.svetacdn.in/IAF0wWTdNYZm/movie/19134"},{"id":19131,"title":"Клиника доктора Бланша","kp_id":"819402","imdb_id":"tt3421214","world_art_id":null,"type":"movie","add":"2018-09-23 21:43:09","orig_title":"La clinique du docteur Blanche","year":"2014-01-25","translations":["Любительский (многоголосый закадровый) (GreenРай Studio)"],"quality":"hdtv","translation":"Любительский (многоголосый закадровый) (GreenРай Studio)","update":"2018-09-24 06:38:46","iframe_src":"//7923.svetacdn.in/IAF0wWTdNYZm/movie/19131"},{"id":19130,"title":"Сицилийцы","kp_id":"391040","imdb_id":"tt1071785","world_art_id":null,"type":"movie","add":"2018-09-23 21:40:43","orig_title":"Il dolce e l'amaro","year":"2007-09-04","translations":["Профессиональный (двухголосый закадровый) (НТВ)"],"quality":"sat","translation":"Профессиональный (двухголосый закадровый) (НТВ)","update":"2018-09-24 06:37:52","iframe_src":"//7923.svetacdn.in/IAF0wWTdNYZm/movie/19130"},{"id":19128,"title":"Как растает небо","kp_id":"907062","imdb_id":"tt3570908","world_art_id":null,"type":"movie","add":"2018-09-23 21:35:26","orig_title":"How the Sky Will Melt","year":"2015-09-01","translations":["Любительский (многоголосый закадровый) (Колобок)"],"quality":"webdl","translation":"Любительский (многоголосый закадровый) (Колобок)","update":"2018-09-24 06:35:15","iframe_src":"//7923.svetacdn.in/IAF0wWTdNYZm/movie/19128"},{"id":19127,"title":"Дом Тьмы 2","kp_id":"1182085","imdb_id":"tt8841060","world_art_id":null,"type":"movie","add":"2018-09-23 21:33:23","orig_title":"House of Darkness: New Blood","year":"2018-09-07","translations":["Любительский (многоголосый закадровый) (Синема УС)"],"quality":"hdtv","translation":"Любительский (многоголосый закадровый) (Синема УС)","update":"2018-09-24 06:34:17","iframe_src":"//7923.svetacdn.in/IAF0wWTdNYZm/movie/19127"},{"id":19126,"title":"Его полное помешательство","kp_id":"1137192","imdb_id":"tt8105846","world_art_id":null,"type":"movie","add":"2018-09-23 21:28:37","orig_title":"His Perfect Obsession","year":"2018-09-03","translations":["Любительский (многоголосый закадровый) (Синема УС)"],"quality":"hdtv","translation":"Любительский (многоголосый закадровый) (Синема УС)","update":"2018-09-24 06:32:34","iframe_src":"//7923.svetacdn.in/IAF0wWTdNYZm/movie/19126"},{"id":19124,"title":"Восстание против рака","kp_id":"986978","imdb_id":"tt8855852","world_art_id":null,"type":"movie","add":"2018-09-23 21:20:41","orig_title":"Stand Up to Cancer","year":"2016-09-09","translations":["Любительский (многоголосый закадровый) (Синема УС)"],"quality":"webdl","translation":"Любительский (многоголосый закадровый) (Синема УС)","update":"2018-09-24 06:30:42","iframe_src":"//7923.svetacdn.in/IAF0wWTdNYZm/movie/19124"},{"id":19123,"title":"Гнездо жаворонка","kp_id":"266793","imdb_id":"tt0854672","world_art_id":null,"type":"movie","add":"2018-09-23 21:13:09","orig_title":"La masseria delle allodole","year":"2007-02-14","translations":["Профессиональный (многоголосый закадровый)"],"quality":"dvdrip","translation":"Профессиональный (многоголосый закадровый)","update":"2018-09-24 06:29:09","iframe_src":"//7923.svetacdn.in/IAF0wWTdNYZm/movie/19123"},{"id":19121,"title":"Форрест Шоу: Неправильные Решения","kp_id":null,"imdb_id":"tt7709710","world_art_id":null,"type":"movie","add":"2018-09-23 21:08:59","orig_title":"Forrest Shaw: Poor Decisions","year":"2018-03-27","translations":["Любительский (многоголосый закадровый) (Синема УС)"],"quality":"webdl","translation":"Любительский (многоголосый закадровый) (Синема УС)","update":"2018-09-24 06:25:42","iframe_src":"//7923.svetacdn.in/IAF0wWTdNYZm/movie/19121"},{"id":19120,"title":"Низкое ли либидо у женщин?","kp_id":"1178066","imdb_id":"tt7610196","world_art_id":null,"type":"movie","add":"2018-09-23 21:06:24","orig_title":"Do Women Have A Higher Sex Drive?","year":"2018-06-05","translations":["Любительский (многоголосый закадровый) (Синема УС)"],"quality":"webdl","translation":"Любительский (многоголосый закадровый) (Синема УС)","update":"2018-09-24 06:24:22","iframe_src":"//7923.svetacdn.in/IAF0wWTdNYZm/movie/19120"},{"id":19119,"title":"Дамасское время","kp_id":"1148619","imdb_id":"tt7897478","world_art_id":null,"type":"movie","add":"2018-09-23 21:01:42","orig_title":"Be Vaghte Sham","year":"2018-02-03","translations":["Любительский (многоголосый закадровый) (Синема УС)"],"quality":"webdl","translation":"Любительский (многоголосый закадровый) (Синема УС)","update":"2018-09-24 06:22:49","iframe_src":"//7923.svetacdn.in/IAF0wWTdNYZm/movie/19119"},{"id":19118,"title":"Д.Л. Хьюли: Противоположный","kp_id":null,"imdb_id":"tt8426270","world_art_id":null,"type":"movie","add":"2018-09-23 21:00:04","orig_title":"D.L. Hughley: Contrarian","year":"2018-09-18","translations":["Любительский (многоголосый закадровый) (Синема УС)"],"quality":"webdl","translation":"Любительский (многоголосый закадровый) (Синема УС)","update":"2018-09-24 06:21:25","iframe_src":"//7923.svetacdn.in/IAF0wWTdNYZm/movie/19118"},{"id":19116,"title":"Рождество с Холли","kp_id":"702682","imdb_id":"tt2355762","world_art_id":null,"type":"movie","add":"2018-09-23 20:55:20","orig_title":"Christmas with Holly","year":"2012-12-09","translations":["Профессиональный (многоголосый закадровый)"],"quality":"hdtv","translation":"Профессиональный (многоголосый закадровый)","update":"2018-09-24 06:18:43","iframe_src":"//7923.svetacdn.in/IAF0wWTdNYZm/movie/19116"},{"id":19115,"title":"Призыв демона крови","kp_id":"697742","imdb_id":"tt2262716","world_art_id":null,"type":"movie","add":"2018-09-23 20:53:55","orig_title":"Blood Demon Rising","year":"2017-01-28","translations":["Любительский (многоголосый закадровый) (Колобок)"],"quality":"webdl","translation":"Любительский (многоголосый закадровый) (Колобок)","update":"2018-09-24 06:18:12","iframe_src":"//7923.svetacdn.in/IAF0wWTdNYZm/movie/19115"},{"id":18392,"title":"Прирожденная наездница","kp_id":"1063294","imdb_id":"tt7218564","world_art_id":null,"type":"movie","add":"2018-08-19 20:54:36","orig_title":"Pistachio","year":"2018-08-14","translations":["Любительский (многоголосый закадровый) (Синема УС)","Любительский (двухголосый закадровый) (HiWayGrope)","Профессиональный (многоголосый закадровый)"],"quality":"webdl","translation":"Любительский (многоголосый закадровый) (Синема УС)","update":"2018-09-24 06:23:46","iframe_src":"//7923.svetacdn.in/IAF0wWTdNYZm/movie/18392"}],"current_page":1818,"first_page_url":"https://videocdn.tv/api/short?limit=100&api_token=6Onb1W1alEUrBcKJZD3GoKBbWyAl2uG2&cache31818=31818&page=1","from":181701,"last_page":641,"last_page_url":"https://videocdn.tv/api/short?limit=100&api_token=6Onb1W1alEUrBcKJZD3GoKBbWyAl2uG2&cache31818=31818&page=641","next_page_url":null,"path":"https://videocdn.tv/api/short","per_page":100,"prev_page_url":"https://videocdn.tv/api/short?limit=100&api_token=6Onb1W1alEUrBcKJZD3GoKBbWyAl2uG2&cache31818=31818&page=1817","to":181720,"total":64076}