{"result":true,"data":[{"id":47649,"title":"Семья ван Памель","kp_id":"109967","imdb_id":"tt0093087","world_art_id":null,"type":"movie","add":"2021-02-04 12:41:38","orig_title":"Het gezin van Paemel","year":"1986-11-01","translations":["Любительский (одноголосый закадровый)"],"quality":"dvdrip","translation":"Любительский (одноголосый закадровый)","update":"2021-02-04 16:51:10","iframe_src":"//7923.svetacdn.in/si4jsFRrtgrT/movie/47649"},{"id":47648,"title":"Последний круиз","kp_id":"20374","imdb_id":"tt0168785","world_art_id":null,"type":"movie","add":"2021-02-04 12:33:35","orig_title":"Final Voyage","year":"1999-10-07","translations":["Профессиональный (двухголосый закадровый)"],"quality":"dvdrip","translation":"Профессиональный (двухголосый закадровый)","update":"2021-02-04 16:58:54","iframe_src":"//7923.svetacdn.in/si4jsFRrtgrT/movie/47648"},{"id":47647,"title":"Цыганка и джентльмен","kp_id":"50120","imdb_id":"tt0051692","world_art_id":null,"type":"movie","add":"2021-02-04 12:23:35","orig_title":"The Gypsy and the Gentleman","year":"1958-01-15","translations":["Профессиональный (двухголосый закадровый) (Фортуна-Фильм)"],"quality":"dvdrip","translation":"Профессиональный (двухголосый закадровый) (Фортуна-Фильм)","update":"2021-02-04 16:57:14","iframe_src":"//7923.svetacdn.in/si4jsFRrtgrT/movie/47647"},{"id":47646,"title":"Сооф","kp_id":"723443","imdb_id":"tt2542368","world_art_id":null,"type":"movie","add":"2021-02-04 06:32:34","orig_title":"Soof","year":"2013-12-12","translations":["Любительский (одноголосый закадровый) (renege79)"],"quality":"bd","translation":"Любительский (одноголосый закадровый) (renege79)","update":"2021-02-04 13:02:58","iframe_src":"//7923.svetacdn.in/si4jsFRrtgrT/movie/47646"},{"id":45826,"title":"Дама с камелиями 2000","kp_id":"92097","imdb_id":"tt0064122","world_art_id":null,"type":"movie","add":"2020-12-03 18:52:48","orig_title":"Camille 2000","year":"1969-07-16","translations":["Авторский (одноголосый закадровый) (Алексеев Антон)","Original (English)"],"quality":"bd","translation":"Авторский (одноголосый закадровый) (Алексеев Антон)","update":"2021-02-04 11:14:52","iframe_src":"//7923.svetacdn.in/si4jsFRrtgrT/movie/45826"},{"id":45810,"title":"Женщины-каннибалы в смертельных джунглях авокадо","kp_id":"31854","imdb_id":"tt0094834","world_art_id":null,"type":"movie","add":"2020-12-03 14:18:58","orig_title":"Cannibal Women in the Avocado Jungle of Death","year":"1989-03-15","translations":["Авторский (одноголосый закадровый) (Дольский Андрей)","Original (English)"],"quality":"bd","translation":"Авторский (одноголосый закадровый) (Дольский Андрей)","update":"2021-02-04 11:13:12","iframe_src":"//7923.svetacdn.in/si4jsFRrtgrT/movie/45810"},{"id":45551,"title":"Кролик Багз или Дорожный Бегун","kp_id":"33821","imdb_id":"tt0078915","world_art_id":null,"type":"movie","add":"2020-11-24 08:45:41","orig_title":"The Bugs Bunny/Road-Runner Movie","year":"1979-09-14","translations":["Полное дублирование (Варус-Видео)","Original (English)"],"quality":"webdl","translation":"Полное дублирование (Варус-Видео)","update":"2021-02-04 14:22:58","iframe_src":"//7923.svetacdn.in/si4jsFRrtgrT/movie/45551"},{"id":44817,"title":"Пустой человек","kp_id":"992507","imdb_id":"tt5867314","world_art_id":null,"type":"movie","add":"2020-10-26 22:15:15","orig_title":"The Empty Man","year":"2020-10-22","translations":["Любительский (многоголосый закадровый) (@MUZOBOZ@)","Original (English)","Любительский (двухголосый закадровый) (Колобок)","Полное дублирование (iTunes)"],"quality":"webdl","translation":"Любительский (многоголосый закадровый) (@MUZOBOZ@)","update":"2021-02-04 17:02:46","iframe_src":"//7923.svetacdn.in/si4jsFRrtgrT/movie/44817"},{"id":43675,"title":"Чёрный дрозд","kp_id":"1174220","imdb_id":"tt8717446","world_art_id":null,"type":"movie","add":"2020-09-19 07:28:50","orig_title":"Blackbird","year":"2020-09-18","translations":["Любительский (многоголосый закадровый) (@MUZOBOZ@)","Полное дублирование","Полное дублирование (iTunes)","Original (English)"],"quality":"webdl","translation":"Любительский (многоголосый закадровый) (@MUZOBOZ@)","update":"2021-02-04 11:16:18","iframe_src":"//7923.svetacdn.in/si4jsFRrtgrT/movie/43675"},{"id":38178,"title":"Мандерлей","kp_id":"22597","imdb_id":"tt0342735","world_art_id":null,"type":"movie","add":"2020-03-18 16:10:44","orig_title":"Manderlay","year":"2005-05-16","translations":["Полное дублирование","Original (English)"],"quality":"webdl","translation":"Полное дублирование","update":"2021-02-04 14:23:49","iframe_src":"//7923.svetacdn.in/si4jsFRrtgrT/movie/38178"},{"id":36591,"title":"Лагерь","kp_id":"261184","imdb_id":"tt0870204","world_art_id":null,"type":"movie","add":"2020-02-19 18:48:18","orig_title":"Boot Camp","year":"2008-04-18","translations":["Профессиональный (многоголосый закадровый)","Original (English)"],"quality":"bd","translation":"Профессиональный (многоголосый закадровый)","update":"2021-02-04 11:12:33","iframe_src":"//7923.svetacdn.in/si4jsFRrtgrT/movie/36591"},{"id":34488,"title":"Вирус","kp_id":"2847","imdb_id":"tt0080768","world_art_id":null,"type":"movie","add":"2019-12-26 14:51:35","orig_title":"Fukkatsu no hi","year":"1980-06-26","translations":["Любительский (одноголосый закадровый)"],"quality":"bd","translation":"Любительский (одноголосый закадровый)","update":"2021-02-04 14:21:03","iframe_src":"//7923.svetacdn.in/si4jsFRrtgrT/movie/34488"},{"id":5934,"title":"Швабра","kp_id":"1320522","imdb_id":null,"world_art_id":null,"type":"serial","add":"2019-12-03 22:32:07","orig_title":"Швабра","year":"2019-10-21","translations":["Оригинальная дорожка"],"seasons_count":1,"episodes_count":8,"episodes":8,"update":"2019-12-04 04:24:21","iframe_src":"//7923.svetacdn.in/si4jsFRrtgrT/tv-series/5934"},{"id":5921,"title":"Диагноз","kp_id":"1221470","imdb_id":"tt8201618","world_art_id":null,"type":"serial","add":"2019-12-03 10:52:15","orig_title":"Diagnosis","year":"2019-08-16","translations":["Профессиональный (многоголосый закадровый) (HDrezka Studio)"],"seasons_count":1,"episodes_count":7,"episodes":7,"update":"2019-12-03 19:11:11","iframe_src":"//7923.svetacdn.in/si4jsFRrtgrT/tv-series/5921"},{"id":5919,"title":"Скажи мне, что любишь меня","kp_id":"401483","imdb_id":"tt0809497","world_art_id":null,"type":"serial","add":"2019-12-03 08:34:53","orig_title":"Tell Me You Love Me","year":"2007-09-09","translations":["Профессиональный (многоголосый закадровый)"],"seasons_count":1,"episodes_count":10,"episodes":10,"update":"2019-12-03 09:23:53","iframe_src":"//7923.svetacdn.in/si4jsFRrtgrT/tv-series/5919"},{"id":5914,"title":"Последний москаль","kp_id":"793648","imdb_id":"tt4553866","world_art_id":null,"type":"serial","add":"2019-12-02 13:38:12","orig_title":"Posledniy moskal","year":"2015-04-14","translations":["Оригинальная дорожка"],"seasons_count":2,"episodes_count":32,"episodes":16,"update":"2019-12-03 20:43:12","iframe_src":"//7923.svetacdn.in/si4jsFRrtgrT/tv-series/5914"},{"id":5913,"title":"Тысячелетие","kp_id":"94855","imdb_id":"tt0115270","world_art_id":null,"type":"serial","add":"2019-12-02 12:56:22","orig_title":"Millennium","year":"1996-10-25","translations":["Авторский (одноголосый закадровый) (Живов Юрий)"],"seasons_count":3,"episodes_count":67,"episodes":22,"update":"2019-12-03 20:24:31","iframe_src":"//7923.svetacdn.in/si4jsFRrtgrT/tv-series/5913"},{"id":5912,"title":"Дикая-дикая страна","kp_id":"1114955","imdb_id":"tt7768848","world_art_id":null,"type":"serial","add":"2019-12-02 12:41:57","orig_title":"Wild Wild Country","year":"2018-03-16","translations":["Профессиональный (многоголосый закадровый) (HDrezka Studio)"],"seasons_count":1,"episodes_count":6,"episodes":6,"update":"2019-12-03 05:21:22","iframe_src":"//7923.svetacdn.in/si4jsFRrtgrT/tv-series/5912"},{"id":5909,"title":"Закат над Чаопрайя","kp_id":"1252411","imdb_id":"tt7209000","world_art_id":null,"type":"serial","add":"2019-12-02 09:36:09","orig_title":"Koo Gum","year":"2013-01-01","translations":["Любительский (двухголосый закадровый) (STEPonee)"],"seasons_count":1,"episodes_count":24,"episodes":24,"update":"2019-12-03 10:36:10","iframe_src":"//7923.svetacdn.in/si4jsFRrtgrT/tv-series/5909"},{"id":5907,"title":"Доктор Живаго","kp_id":"79661","imdb_id":"tt0324937","world_art_id":null,"type":"serial","add":"2019-12-02 09:31:28","orig_title":"Doctor Zhivago","year":"2002-11-24","translations":["Полное дублирование"],"seasons_count":1,"episodes_count":2,"episodes":2,"update":"2019-12-02 16:54:36","iframe_src":"//7923.svetacdn.in/si4jsFRrtgrT/tv-series/5907"},{"id":5904,"title":"Алиби на двоих","kp_id":"507103","imdb_id":"tt3188238","world_art_id":null,"type":"serial","add":"2019-12-02 08:56:43","orig_title":"'Alibi' na dvoikh","year":"2011-05-31","translations":["Оригинальная дорожка"],"seasons_count":1,"episodes_count":24,"episodes":24,"update":"2019-12-03 09:52:33","iframe_src":"//7923.svetacdn.in/si4jsFRrtgrT/tv-series/5904"},{"id":5901,"title":"Петля Нестерова","kp_id":"844067","imdb_id":"tt4793574","world_art_id":null,"type":"serial","add":"2019-12-02 05:34:20","orig_title":"Petlya Nesterova","year":"2015-12-14","translations":["Оригинальная дорожка"],"seasons_count":1,"episodes_count":8,"episodes":8,"update":"2019-12-03 09:33:42","iframe_src":"//7923.svetacdn.in/si4jsFRrtgrT/tv-series/5901"},{"id":5900,"title":"Без колебаний","kp_id":"1302029","imdb_id":null,"world_art_id":null,"type":"serial","add":"2019-12-02 05:30:52","orig_title":"Без колебаний","year":"2019-05-26","translations":["Оригинальная дорожка"],"seasons_count":1,"episodes_count":4,"episodes":4,"update":"2019-12-03 09:27:09","iframe_src":"//7923.svetacdn.in/si4jsFRrtgrT/tv-series/5900"},{"id":5890,"title":"Сколько живет любовь","kp_id":"1217068","imdb_id":null,"world_art_id":null,"type":"serial","add":"2019-11-29 05:54:55","orig_title":"Сколько живет любовь","year":"2019-03-14","translations":["Оригинальная дорожка"],"seasons_count":1,"episodes_count":4,"episodes":4,"update":"2019-12-03 08:21:03","iframe_src":"//7923.svetacdn.in/si4jsFRrtgrT/tv-series/5890"},{"id":5844,"title":"Виолетта из Атамановки","kp_id":"780000","imdb_id":null,"world_art_id":null,"type":"serial","add":"2019-11-26 11:41:17","orig_title":"Виолетта из Атамановки","year":"2014-03-14","translations":["Оригинальная дорожка"],"seasons_count":1,"episodes_count":4,"episodes":4,"update":"2019-12-03 19:58:18","iframe_src":"//7923.svetacdn.in/si4jsFRrtgrT/tv-series/5844"},{"id":5813,"title":"Гений","kp_id":"1142501","imdb_id":null,"world_art_id":null,"type":"serial","add":"2019-11-23 12:25:16","orig_title":"Гений","year":"2018-01-01","translations":["Оригинальная дорожка"],"seasons_count":1,"episodes_count":16,"episodes":16,"update":"2019-12-03 08:18:04","iframe_src":"//7923.svetacdn.in/si4jsFRrtgrT/tv-series/5813"},{"id":5532,"title":"Романтическая история Нок-ту","kp_id":"1252906","imdb_id":null,"world_art_id":null,"type":"serial","add":"2019-10-25 21:05:20","orig_title":"Jodeonroko Nokdujeon","year":"2019-09-30","translations":["Любительский (многоголосый закадровый) (Voice Project Studio)"],"seasons_count":1,"episodes_count":16,"episodes":16,"update":"2019-12-02 21:58:36","iframe_src":"//7923.svetacdn.in/si4jsFRrtgrT/tv-series/5532"},{"id":5365,"title":"#Dетки","kp_id":"1303981","imdb_id":null,"world_art_id":null,"type":"serial","add":"2019-10-01 20:00:11","orig_title":"#Dетки","year":"2019-10-01","translations":["Оригинальная дорожка"],"seasons_count":1,"episodes_count":10,"episodes":10,"update":"2019-12-03 06:37:08","iframe_src":"//7923.svetacdn.in/si4jsFRrtgrT/tv-series/5365"},{"id":5346,"title":"Мир в огне","kp_id":"1202312","imdb_id":"tt8001092","world_art_id":null,"type":"serial","add":"2019-09-30 20:13:31","orig_title":"World On Fire","year":"2019-09-29","translations":["Любительский (многоголосый закадровый) (Octopus)","Профессиональный (многоголосый закадровый) (BaibaKo)","Профессиональный (многоголосый закадровый) (TVShows)"],"seasons_count":1,"episodes_count":7,"episodes":7,"update":"2019-12-02 17:17:05","iframe_src":"//7923.svetacdn.in/si4jsFRrtgrT/tv-series/5346"},{"id":5036,"title":"Наши парни","kp_id":"1285471","imdb_id":"tt10517426","world_art_id":null,"type":"serial","add":"2019-08-15 12:14:16","orig_title":"Our Boys","year":"2019-08-12","translations":["Профессиональный (двухголосый закадровый) (IdeaFilm)","Профессиональный (многоголосый закадровый) (HDrezka Studio)","Профессиональный (многоголосый закадровый) (TVShows)"],"seasons_count":1,"episodes_count":10,"episodes":10,"update":"2019-12-03 20:05:25","iframe_src":"//7923.svetacdn.in/si4jsFRrtgrT/tv-series/5036"},{"id":4191,"title":"Странный город","kp_id":"1169876","imdb_id":"tt8633518","world_art_id":null,"type":"serial","add":"2019-03-02 08:44:33","orig_title":"Weird City","year":"2019-02-13","translations":["Профессиональный (многоголосый закадровый) (IdeaFilm)","Профессиональный (многоголосый закадровый) (HDrezka Studio)"],"seasons_count":1,"episodes_count":6,"episodes":6,"update":"2019-12-03 19:08:26","iframe_src":"//7923.svetacdn.in/si4jsFRrtgrT/tv-series/4191"},{"id":20782,"title":"Каннибалы и установщики напольных покрытий","kp_id":"899734","imdb_id":"tt4249580","world_art_id":null,"type":"movie","add":"2018-12-16 21:19:14","orig_title":"Cannibals and Carpet Fitters","year":"2017-10-06","translations":["Любительский (многоголосый закадровый) (Синема УС)","Любительский (двухголосый закадровый) (HiWayGrope)","Любительский (двухголосый закадровый) (HiWayGrope)","Original (English)"],"quality":"webdl","translation":"Любительский (многоголосый закадровый) (Синема УС)","update":"2021-02-04 11:10:41","iframe_src":"//7923.svetacdn.in/si4jsFRrtgrT/movie/20782"},{"id":20586,"title":"Обратные дороги","kp_id":"581481","imdb_id":"tt0972544","world_art_id":null,"type":"movie","add":"2018-12-09 18:28:02","orig_title":"Back Roads","year":"2018-04-20","translations":["Любительский (многоголосый закадровый) (Синема УС)","Любительский (двухголосый закадровый) (HiWayGrope)","Профессиональный (многоголосый закадровый) (HDrezka Studio)","Профессиональный (многоголосый закадровый) (HDrezka Studio)","Профессиональный (многоголосый закадровый) (iTunes)","Original (English)"],"quality":"webdl","translation":"Любительский (многоголосый закадровый) (Синема УС)","update":"2021-02-04 14:26:33","iframe_src":"//7923.svetacdn.in/si4jsFRrtgrT/movie/20586"},{"id":2038,"title":"Три кота","kp_id":"935898","imdb_id":"tt8090284","world_art_id":null,"type":"serial","add":"2018-02-07 05:07:19","orig_title":"Три кота","year":"2015-10-24","translations":["Оригинальная дорожка"],"seasons_count":3,"episodes_count":153,"episodes":49,"update":"2019-12-03 17:44:34","iframe_src":"//7923.svetacdn.in/si4jsFRrtgrT/tv-series/2038"},{"id":14115,"title":"Шоу уродов","kp_id":"272374","imdb_id":"tt0906005","world_art_id":null,"type":"movie","add":"2017-10-28 23:50:29","orig_title":"Freakshow","year":"2007-01-30","translations":["Профессиональный (многоголосый закадровый)","Original (English)"],"quality":"webdl","translation":"Профессиональный (многоголосый закадровый)","update":"2021-02-04 14:24:55","iframe_src":"//7923.svetacdn.in/si4jsFRrtgrT/movie/14115"},{"id":9142,"title":"Американская милашка","kp_id":"893916","imdb_id":"tt3721936","world_art_id":null,"type":"movie","add":"2017-01-24 10:43:53","orig_title":"American Honey","year":"2016-05-15","translations":["Профессиональный (многоголосый закадровый) (@MUZOBOZ@)","Профессиональный (многоголосый закадровый) (GreenРай Studio)","Профессиональный (многоголосый закадровый)","Профессиональный (многоголосый закадровый) (Netflix)","Original (English)"],"quality":"bd","translation":"Профессиональный (многоголосый закадровый) (@MUZOBOZ@)","update":"2021-02-04 14:32:04","iframe_src":"//7923.svetacdn.in/si4jsFRrtgrT/movie/9142"},{"id":7721,"title":"Восход","kp_id":"803137","imdb_id":"tt3213622","world_art_id":null,"type":"movie","add":"2016-11-29 06:02:54","orig_title":"Rise","year":"2014-10-21","translations":["Любительский (двухголосый закадровый)","Профессиональный (многоголосый закадровый)","Original (English)"],"quality":"webdl","translation":"Любительский (двухголосый закадровый)","update":"2021-02-04 14:30:40","iframe_src":"//7923.svetacdn.in/si4jsFRrtgrT/movie/7721"},{"id":6789,"title":"Последний из могикан","kp_id":"8468","imdb_id":"tt0104691","world_art_id":null,"type":"movie","add":"2016-10-30 07:36:26","orig_title":"The Last of the Mohicans","year":"1992-08-26","translations":["Полное дублирование","Профессиональный (многоголосый закадровый)","Original (English)"],"quality":"bd","translation":"Полное дублирование","update":"2021-02-04 14:29:48","iframe_src":"//7923.svetacdn.in/si4jsFRrtgrT/movie/6789"},{"id":5740,"title":"Лес самоубийц","kp_id":"820035","imdb_id":"tt3450900","world_art_id":null,"type":"movie","add":"2016-10-02 18:11:13","orig_title":"The Sea of Trees","year":"2015-05-16","translations":["Профессиональный (многоголосый закадровый) (Paradox & Omskbird records)","Полное дублирование (iTunes)","Original (English)"],"quality":"bd","translation":"Профессиональный (многоголосый закадровый) (Paradox & Omskbird records)","update":"2021-02-04 14:28:04","iframe_src":"//7923.svetacdn.in/si4jsFRrtgrT/movie/5740"},{"id":3015,"title":"Дневник Бриджет Джонс","kp_id":"621","imdb_id":"tt0243155","world_art_id":null,"type":"movie","add":"2016-06-08 20:36:19","orig_title":"Bridget Jones's Diary","year":"2001-04-04","translations":["Полное дублирование","Original (English)","Профессиональный (многоголосый закадровый)","Original (English)","Профессиональный (двухголосый закадровый) (DDV)","Профессиональный (многоголосый закадровый)","Профессиональный (многоголосый закадровый) (РТР | Россия)","Профессиональный (многоголосый закадровый) (Universal Russia)"],"quality":"bd","translation":"Полное дублирование","update":"2021-02-05 07:03:25","iframe_src":"//7923.svetacdn.in/si4jsFRrtgrT/movie/3015"}],"current_page":322,"first_page_url":"https://videocdn.tv/api/short?limit=100&api_token=X6EwAUfE5M9xbo7y0Bp0aPf3uXxG2KLL&cache3322=3322&page=1","from":32101,"last_page":641,"last_page_url":"https://videocdn.tv/api/short?limit=100&api_token=X6EwAUfE5M9xbo7y0Bp0aPf3uXxG2KLL&cache3322=3322&page=641","next_page_url":"https://videocdn.tv/api/short?limit=100&api_token=X6EwAUfE5M9xbo7y0Bp0aPf3uXxG2KLL&cache3322=3322&page=323","path":"https://videocdn.tv/api/short","per_page":100,"prev_page_url":"https://videocdn.tv/api/short?limit=100&api_token=X6EwAUfE5M9xbo7y0Bp0aPf3uXxG2KLL&cache3322=3322&page=321","to":32140,"total":64076}