{"result":true,"data":[{"id":51308,"title":"Белое лето","kp_id":"1331204","imdb_id":"tt11394288","world_art_id":null,"type":"movie","add":"2021-06-20 11:52:32","orig_title":"Blanco de Verano","year":"2020-01-26","translations":["Любительский (многоголосый закадровый) (Синема УС)"],"quality":"webdl","translation":"Любительский (многоголосый закадровый) (Синема УС)","update":"2021-06-20 21:22:52","iframe_src":"//8209.svetacdn.in/IAF0wWTdNYZm/movie/51308"},{"id":51297,"title":"Мафия: Смертельная игра","kp_id":"1290820","imdb_id":"tt10719958","world_art_id":null,"type":"movie","add":"2021-06-20 02:52:51","orig_title":"The Birthday Cake","year":"2021-06-17","translations":["Любительский (многоголосый закадровый) (@MUZOBOZ@)"],"quality":"webdl","translation":"Любительский (многоголосый закадровый) (@MUZOBOZ@)","update":"2021-06-20 19:05:31","iframe_src":"//8209.svetacdn.in/IAF0wWTdNYZm/movie/51297"},{"id":51295,"title":"Кто такой Сурули?","kp_id":"1287745","imdb_id":"tt10661848","world_art_id":null,"type":"movie","add":"2021-06-20 02:50:04","orig_title":"Jagame Thandhiram","year":"2020-06-18","translations":["Любительский (многоголосый закадровый) (Синема УС)"],"quality":"webdl","translation":"Любительский (многоголосый закадровый) (Синема УС)","update":"2021-06-20 19:05:02","iframe_src":"//8209.svetacdn.in/IAF0wWTdNYZm/movie/51295"},{"id":51294,"title":"Любовь вокруг","kp_id":"1354283","imdb_id":"tt11777510","world_art_id":null,"type":"movie","add":"2021-06-20 02:49:11","orig_title":"Love Spreads","year":"2020-11-13","translations":["Любительский (многоголосый закадровый) (AlphaProject)"],"quality":"webdl","translation":"Любительский (многоголосый закадровый) (AlphaProject)","update":"2021-06-20 19:04:47","iframe_src":"//8209.svetacdn.in/IAF0wWTdNYZm/movie/51294"},{"id":51293,"title":"Роллерс","kp_id":"1202936","imdb_id":"tt9124868","world_art_id":null,"type":"movie","add":"2021-06-20 02:48:10","orig_title":"Rollers","year":"2021-01-01","translations":["Любительский (многоголосый закадровый) (Синема УС)"],"quality":"webdl","translation":"Любительский (многоголосый закадровый) (Синема УС)","update":"2021-06-20 19:04:06","iframe_src":"//8209.svetacdn.in/IAF0wWTdNYZm/movie/51293"},{"id":51292,"title":"Меч династии искусство грез","kp_id":null,"imdb_id":"tt12845208","world_art_id":null,"type":"movie","add":"2021-06-20 02:47:14","orig_title":"Jian Wang Chao Zhi Gu Shan Jian Cang","year":"2020-02-18","translations":["Любительский (двухголосый закадровый) (Колобок)"],"quality":"webdl","translation":"Любительский (двухголосый закадровый) (Колобок)","update":"2021-06-20 19:03:43","iframe_src":"//8209.svetacdn.in/IAF0wWTdNYZm/movie/51292"},{"id":51288,"title":"Маленький принц","kp_id":null,"imdb_id":"tt14475526","world_art_id":null,"type":"movie","add":"2021-06-19 09:42:16","orig_title":"The Little Prince(ss)","year":"2021-05-28","translations":["Любительский (многоголосый закадровый) (Синема УС)"],"quality":"webdl","translation":"Любительский (многоголосый закадровый) (Синема УС)","update":"2021-06-20 01:13:33","iframe_src":"//8209.svetacdn.in/IAF0wWTdNYZm/movie/51288"},{"id":51285,"title":"Корона","kp_id":"1347367","imdb_id":"tt11766262","world_art_id":null,"type":"movie","add":"2021-06-19 09:36:10","orig_title":"Corona","year":"2020-01-01","translations":["Любительский (многоголосый закадровый) (Синема УС)"],"quality":"webdl","translation":"Любительский (многоголосый закадровый) (Синема УС)","update":"2021-06-20 01:05:34","iframe_src":"//8209.svetacdn.in/IAF0wWTdNYZm/movie/51285"},{"id":51284,"title":"Перед Ночью","kp_id":"1084617","imdb_id":"tt7066896","world_art_id":null,"type":"movie","add":"2021-06-19 09:33:48","orig_title":"Prima che la notte","year":"2018-05-23","translations":["Любительский (многоголосый закадровый) (AlphaProject)"],"quality":"webdl","translation":"Любительский (многоголосый закадровый) (AlphaProject)","update":"2021-06-20 21:26:07","iframe_src":"//8209.svetacdn.in/IAF0wWTdNYZm/movie/51284"},{"id":51283,"title":"Триумф","kp_id":"909626","imdb_id":"tt3859466","world_art_id":null,"type":"movie","add":"2021-06-19 09:30:25","orig_title":"Triumph","year":"2021-04-30","translations":["Любительский (многоголосый закадровый) (@MUZOBOZ@)"],"quality":"webdl","translation":"Любительский (многоголосый закадровый) (@MUZOBOZ@)","update":"2021-06-20 01:04:20","iframe_src":"//8209.svetacdn.in/IAF0wWTdNYZm/movie/51283"},{"id":51277,"title":"Дьявольское ограбление","kp_id":"1259587","imdb_id":"tt10229550","world_art_id":null,"type":"movie","add":"2021-06-18 21:39:42","orig_title":"The Devils Heist","year":"2020-01-01","translations":["Любительский (многоголосый закадровый) (Синема УС)"],"quality":"webdl","translation":"Любительский (многоголосый закадровый) (Синема УС)","update":"2021-06-20 01:01:06","iframe_src":"//8209.svetacdn.in/IAF0wWTdNYZm/movie/51277"},{"id":51276,"title":"Фермер","kp_id":"1348227","imdb_id":"tt11743330","world_art_id":null,"type":"movie","add":"2021-06-18 21:37:36","orig_title":"The Cattle Farmer","year":"2020-09-09","translations":["Любительский (многоголосый закадровый) (Синема УС)"],"quality":"webdl","translation":"Любительский (многоголосый закадровый) (Синема УС)","update":"2021-06-20 00:59:48","iframe_src":"//8209.svetacdn.in/IAF0wWTdNYZm/movie/51276"},{"id":51275,"title":"Опекун","kp_id":"1421033","imdb_id":"tt12851872","world_art_id":null,"type":"movie","add":"2021-06-18 21:33:06","orig_title":"The Caretaker","year":"2020-08-07","translations":["Любительский (многоголосый закадровый) (Синема УС)"],"quality":"webdl","translation":"Любительский (многоголосый закадровый) (Синема УС)","update":"2021-06-20 00:58:04","iframe_src":"//8209.svetacdn.in/IAF0wWTdNYZm/movie/51275"},{"id":51258,"title":"Мальвинатор","kp_id":"1120547","imdb_id":"tt8064708","world_art_id":null,"type":"movie","add":"2021-06-18 05:40:14","orig_title":"Malvineitor","year":"2017-12-07","translations":["Любительский (двухголосый закадровый) (Колобок)"],"quality":"webdl","translation":"Любительский (двухголосый закадровый) (Колобок)","update":"2021-06-20 02:26:49","iframe_src":"//8209.svetacdn.in/IAF0wWTdNYZm/movie/51258"},{"id":9204,"title":"Скорая помощь 2","kp_id":"1345697","imdb_id":null,"world_art_id":null,"type":"serial","add":"2020-11-05 10:47:20","orig_title":"Скорая помощь 2","year":"2019-10-28","translations":["Оригинальная дорожка"],"seasons_count":1,"episodes_count":20,"episodes":20,"update":"2020-11-05 16:20:52","iframe_src":"//8209.svetacdn.in/IAF0wWTdNYZm/tv-series/9204"},{"id":9199,"title":"Серёжки с сапфирами","kp_id":"1399244","imdb_id":null,"world_art_id":null,"type":"serial","add":"2020-11-04 18:29:10","orig_title":"Серёжки с сапфирами","year":"2020-11-04","translations":["Оригинальная дорожка"],"seasons_count":1,"episodes_count":4,"episodes":4,"update":"2020-11-05 08:16:48","iframe_src":"//8209.svetacdn.in/IAF0wWTdNYZm/tv-series/9199"},{"id":9186,"title":"И немного волшебства: Город загадок","kp_id":"1340661","imdb_id":"tt11569530","world_art_id":null,"type":"serial","add":"2020-11-03 15:04:59","orig_title":"Just Add Magic: Mystery City","year":"2020-01-17","translations":["Полное дублирование (Пифагор)"],"seasons_count":1,"episodes_count":10,"episodes":10,"update":"2020-11-03 18:32:01","iframe_src":"//8209.svetacdn.in/IAF0wWTdNYZm/tv-series/9186"},{"id":9182,"title":"Хороший Полицейский","kp_id":"1235085","imdb_id":"tt6070434","world_art_id":null,"type":"serial","add":"2020-11-02 20:11:34","orig_title":"Hashoter Hatov","year":"2015-08-15","translations":["Любительский (многоголосый закадровый) (WestFilm)"],"seasons_count":1,"episodes_count":15,"episodes":15,"update":"2020-11-05 09:07:25","iframe_src":"//8209.svetacdn.in/IAF0wWTdNYZm/tv-series/9182"},{"id":9174,"title":"Белая гвоздика","kp_id":"1047176","imdb_id":"tt7172256","world_art_id":null,"type":"serial","add":"2020-11-02 12:14:02","orig_title":"Beyaz Karanfil","year":"2014-10-24","translations":["Любительский (одноголосый закадровый) (turok1990)"],"seasons_count":1,"episodes_count":6,"episodes":6,"update":"2020-11-05 18:24:16","iframe_src":"//8209.svetacdn.in/IAF0wWTdNYZm/tv-series/9174"},{"id":9170,"title":"Новые дела Скуби-Ду","kp_id":"229309","imdb_id":"tt0068112","world_art_id":null,"type":"serial","add":"2020-11-01 22:23:51","orig_title":"The New Scooby-Doo Movies","year":"1972-09-09","translations":["Полное дублирование (Русский дубляж)","Полное дублирование (Пифагор)"],"seasons_count":2,"episodes_count":24,"episodes":8,"update":"2020-11-03 16:35:01","iframe_src":"//8209.svetacdn.in/IAF0wWTdNYZm/tv-series/9170"},{"id":9160,"title":"Игра теней","kp_id":"1219473","imdb_id":"tt8879894","world_art_id":null,"type":"serial","add":"2020-10-31 06:31:54","orig_title":"Shadowplay","year":"2020-10-30","translations":["Любительский (многоголосый закадровый) (Ultradox)","Любительский (многоголосый закадровый) (ColdFilm)","Профессиональный (многоголосый закадровый) (Novamedia)","Профессиональный (двухголосый закадровый) (IdeaFilm)"],"seasons_count":1,"episodes_count":8,"episodes":8,"update":"2020-11-03 19:37:08","iframe_src":"//8209.svetacdn.in/IAF0wWTdNYZm/tv-series/9160"},{"id":9155,"title":"Дело","kp_id":"806687","imdb_id":"tt2650940","world_art_id":null,"type":"serial","add":"2020-10-30 10:07:51","orig_title":"O Negócio","year":"2013-08-18","translations":["Профессиональный (многоголосый закадровый) (GoodTime Media)"],"seasons_count":4,"episodes_count":51,"episodes":12,"update":"2020-11-04 07:12:28","iframe_src":"//8209.svetacdn.in/IAF0wWTdNYZm/tv-series/9155"},{"id":9141,"title":"Хозяйка моей судьбы","kp_id":"601735","imdb_id":"tt3702432","world_art_id":null,"type":"serial","add":"2020-10-27 19:52:37","orig_title":"Khozyayka moey sudby","year":"2012-01-03","translations":["Оригинальная дорожка"],"seasons_count":1,"episodes_count":50,"episodes":50,"update":"2020-11-04 11:54:03","iframe_src":"//8209.svetacdn.in/IAF0wWTdNYZm/tv-series/9141"},{"id":9124,"title":"Аванпост","kp_id":"1435943","imdb_id":null,"world_art_id":null,"type":"serial","add":"2020-10-26 12:45:09","orig_title":"Аванпост","year":"2020-10-26","translations":["Оригинальная дорожка"],"seasons_count":1,"episodes_count":6,"episodes":6,"update":"2020-11-04 07:29:18","iframe_src":"//8209.svetacdn.in/IAF0wWTdNYZm/tv-series/9124"},{"id":9123,"title":"Зови меня мамой","kp_id":"838281","imdb_id":null,"world_art_id":null,"type":"serial","add":"2020-10-26 12:34:20","orig_title":"Зови меня мамой","year":"2020-10-26","translations":["Оригинальная дорожка"],"seasons_count":1,"episodes_count":12,"episodes":12,"update":"2020-11-04 07:42:49","iframe_src":"//8209.svetacdn.in/IAF0wWTdNYZm/tv-series/9123"},{"id":9111,"title":"Неопытные мамы","kp_id":"1440282","imdb_id":"tt13286658","world_art_id":null,"type":"serial","add":"2020-10-25 07:43:38","orig_title":"Acemi anneler","year":"2020-10-19","translations":["Авторский (одноголосый закадровый) (BeniAffet)"],"seasons_count":1,"episodes_count":3,"episodes":3,"update":"2020-11-05 08:13:04","iframe_src":"//8209.svetacdn.in/IAF0wWTdNYZm/tv-series/9111"},{"id":9085,"title":"Овощной магазин холостяка","kp_id":"724890","imdb_id":"tt6385836","world_art_id":null,"type":"serial","add":"2020-10-23 10:49:13","orig_title":"Chonggakne yachaegage","year":"2011-12-21","translations":["Любительский (одноголосый закадровый) (GREEN TEA)"],"seasons_count":1,"episodes_count":24,"episodes":24,"update":"2020-11-05 08:38:06","iframe_src":"//8209.svetacdn.in/IAF0wWTdNYZm/tv-series/9085"},{"id":9019,"title":"Пробуждающий","kp_id":"1113587","imdb_id":"tt7972480","world_art_id":null,"type":"serial","add":"2020-10-15 14:34:38","orig_title":"O Doutrinador: A Série","year":"2019-09-01","translations":["Любительский (многоголосый закадровый) (Ultradox)"],"seasons_count":1,"episodes_count":7,"episodes":7,"update":"2020-11-04 07:16:49","iframe_src":"//8209.svetacdn.in/IAF0wWTdNYZm/tv-series/9019"},{"id":8948,"title":"Танго","kp_id":"1196753","imdb_id":"tt8171410","world_art_id":null,"type":"serial","add":"2020-10-08 16:18:52","orig_title":"Tango","year":"2018-05-16","translations":["Любительский (многоголосый закадровый) (WestFilm)"],"seasons_count":1,"episodes_count":31,"episodes":31,"update":"2020-11-04 09:28:50","iframe_src":"//8209.svetacdn.in/IAF0wWTdNYZm/tv-series/8948"},{"id":8894,"title":"Сестра","kp_id":"1311628","imdb_id":"tt10642480","world_art_id":null,"type":"serial","add":"2020-10-01 11:19:10","orig_title":"Because the Night","year":"2020-10-01","translations":["Профессиональный (многоголосый закадровый) (VIP Serial HD)","Любительский (многоголосый закадровый) (Ultradox)","Профессиональный (многоголосый закадровый) (IdeaFilm)","Любительский (многоголосый закадровый) (ColdFilm)","Профессиональный (многоголосый закадровый) (NewStudio)","Профессиональный (многоголосый закадровый) (BaibaKo)","Профессиональный (двухголосый закадровый) (IdeaFilm)"],"seasons_count":1,"episodes_count":4,"episodes":4,"update":"2020-11-05 16:25:55","iframe_src":"//8209.svetacdn.in/IAF0wWTdNYZm/tv-series/8894"},{"id":8886,"title":"Столкновение","kp_id":"1210102","imdb_id":"tt9312856","world_art_id":null,"type":"serial","add":"2020-09-30 17:05:56","orig_title":"Clash","year":"2018-11-05","translations":["Любительский (многоголосый закадровый) (WestFilm)"],"seasons_count":1,"episodes_count":48,"episodes":48,"update":"2020-11-05 16:24:22","iframe_src":"//8209.svetacdn.in/IAF0wWTdNYZm/tv-series/8886"},{"id":8571,"title":"Чехол для экзорциста","kp_id":"913493","imdb_id":"tt3672936","world_art_id":null,"type":"serial","add":"2020-08-30 03:21:05","orig_title":"Prípad pro exorcistu","year":"2015-01-11","translations":["Любительский (многоголосый закадровый) (WestFilm)","Профессиональный (двухголосый закадровый) (ViruseProject)"],"seasons_count":1,"episodes_count":3,"episodes":3,"update":"2020-11-05 08:58:47","iframe_src":"//8209.svetacdn.in/IAF0wWTdNYZm/tv-series/8571"},{"id":8501,"title":"Захват Сингапура","kp_id":"1234175","imdb_id":"tt8010340","world_art_id":null,"type":"serial","add":"2020-08-22 04:40:01","orig_title":"The Singapore Grip","year":"2020-07-26","translations":["Профессиональный (многоголосый закадровый) (NewStudio)"],"seasons_count":1,"episodes_count":6,"episodes":6,"update":"2020-11-04 07:44:53","iframe_src":"//8209.svetacdn.in/IAF0wWTdNYZm/tv-series/8501"},{"id":41302,"title":"Мститель 2: Расплата","kp_id":"1190032","imdb_id":"tt8972556","world_art_id":null,"type":"movie","add":"2020-06-19 19:42:50","orig_title":"I Am Vengeance: Retaliation","year":"2020-06-19","translations":["Любительский (многоголосый закадровый) (AlphaProject)","Original (English)","Профессиональный (многоголосый закадровый) (iTunes)"],"quality":"webdl","translation":"Любительский (многоголосый закадровый) (AlphaProject)","update":"2021-06-20 10:58:33","iframe_src":"//8209.svetacdn.in/IAF0wWTdNYZm/movie/41302"},{"id":39167,"title":"Акселератор","kp_id":"1013194","imdb_id":"tt6143798","world_art_id":null,"type":"movie","add":"2020-04-12 03:52:13","orig_title":"Axcellerator","year":"2020-04-08","translations":["Любительский (многоголосый закадровый) (Синема УС)","Любительский (двухголосый закадровый) (LakeFilms)","Original (English)","Профессиональный (многоголосый закадровый)"],"quality":"webdl","translation":"Любительский (многоголосый закадровый) (Синема УС)","update":"2021-06-20 14:07:23","iframe_src":"//8209.svetacdn.in/IAF0wWTdNYZm/movie/39167"},{"id":5355,"title":"Идеальная гармония","kp_id":"1264250","imdb_id":"tt10329046","world_art_id":null,"type":"serial","add":"2019-10-01 09:21:28","orig_title":"Perfect Harmony","year":"2019-09-26","translations":["Профессиональный (многоголосый закадровый) (BaibaKo)","Профессиональный (многоголосый закадровый) (TVShows)","Профессиональный (многоголосый закадровый) (Fox Life)"],"seasons_count":1,"episodes_count":13,"episodes":13,"update":"2020-11-05 08:07:33","iframe_src":"//8209.svetacdn.in/IAF0wWTdNYZm/tv-series/5355"},{"id":31276,"title":"Убить овцу","kp_id":"1178344","imdb_id":"tt8836292","world_art_id":null,"type":"movie","add":"2019-09-29 15:40:45","orig_title":"Zhuang si le yi zhi yang","year":"2018-09-04","translations":["Любительский (многоголосый закадровый) (Синема УС)","Любительский (двухголосый закадровый) (Колобок)"],"quality":"webdl","translation":"Любительский (многоголосый закадровый) (Синема УС)","update":"2021-06-20 02:27:15","iframe_src":"//8209.svetacdn.in/IAF0wWTdNYZm/movie/31276"},{"id":20692,"title":"Мэн","kp_id":"1061424","imdb_id":"tt7316358","world_art_id":null,"type":"movie","add":"2018-12-12 14:39:42","orig_title":"Maine","year":"2018-04-23","translations":["Original (English)","Любительский (двухголосый закадровый) (HiWayGrope)","Профессиональный (многоголосый закадровый) (HDrezka Studio)"],"quality":"webdl","translation":"Original (English)","update":"2021-06-20 02:27:37","iframe_src":"//8209.svetacdn.in/IAF0wWTdNYZm/movie/20692"},{"id":15080,"title":"Ава","kp_id":"1033496","imdb_id":"tt6194530","world_art_id":null,"type":"movie","add":"2018-02-05 22:23:27","orig_title":"Ava","year":"2017-05-19","translations":["Профессиональный (многоголосый закадровый)","Профессиональный (многоголосый закадровый) (GreenРай Studio)","Профессиональный (многоголосый закадровый) (HDrezka Studio)"],"quality":"webdl","translation":"Профессиональный (многоголосый закадровый)","update":"2021-06-19 17:50:08","iframe_src":"//8209.svetacdn.in/IAF0wWTdNYZm/movie/15080"},{"id":14720,"title":"Страсть и верность","kp_id":"727582","imdb_id":"tt2586120","world_art_id":null,"type":"movie","add":"2017-12-21 23:49:54","orig_title":"Le Fidèle","year":"2017-09-07","translations":["Профессиональный (многоголосый закадровый)","Профессиональный (многоголосый закадровый) (iTunes)"],"quality":"webdl","translation":"Профессиональный (многоголосый закадровый)","update":"2021-06-19 13:51:45","iframe_src":"//8209.svetacdn.in/IAF0wWTdNYZm/movie/14720"}],"current_page":163,"first_page_url":"https://videocdn.tv/api/short?limit=100&api_token=6Onb1W1alEUrBcKJZD3GoKBbWyAl2uG2&cache3163=3163&page=1","from":16201,"last_page":659,"last_page_url":"https://videocdn.tv/api/short?limit=100&api_token=6Onb1W1alEUrBcKJZD3GoKBbWyAl2uG2&cache3163=3163&page=659","next_page_url":"https://videocdn.tv/api/short?limit=100&api_token=6Onb1W1alEUrBcKJZD3GoKBbWyAl2uG2&cache3163=3163&page=164","path":"https://videocdn.tv/api/short","per_page":100,"prev_page_url":"https://videocdn.tv/api/short?limit=100&api_token=6Onb1W1alEUrBcKJZD3GoKBbWyAl2uG2&cache3163=3163&page=162","to":16240,"total":65883}