{"result":true,"data":[{"id":42491,"title":"Лучшая мама","kp_id":"1010710","imdb_id":"tt6164210","world_art_id":null,"type":"movie","add":"2020-08-16 13:57:38","orig_title":"Best Mom","year":"2018-02-24","translations":["Любительский (многоголосый закадровый) (AlphaProject)"],"quality":"webdl","translation":"Любительский (многоголосый закадровый) (AlphaProject)","update":"2020-08-16 20:10:21","iframe_src":"//5322.svetacdn.in/71tsRs29n5tZ/movie/42491"},{"id":42490,"title":"Велосипедист","kp_id":"1191673","imdb_id":"tt8977122","world_art_id":null,"type":"movie","add":"2020-08-16 13:53:51","orig_title":"Bikeman","year":"2018-09-20","translations":["Любительский (многоголосый закадровый) (Синема УС)"],"quality":"webdl","translation":"Любительский (многоголосый закадровый) (Синема УС)","update":"2020-08-16 20:10:54","iframe_src":"//5322.svetacdn.in/71tsRs29n5tZ/movie/42490"},{"id":42489,"title":"Скалы на краю света","kp_id":"1171270","imdb_id":"tt7860292","world_art_id":null,"type":"movie","add":"2020-08-16 13:27:02","orig_title":"End of the World Rocks","year":"2018-01-01","translations":["Любительский (многоголосый закадровый) (Синема УС)"],"quality":"webdl","translation":"Любительский (многоголосый закадровый) (Синема УС)","update":"2020-08-16 20:10:38","iframe_src":"//5322.svetacdn.in/71tsRs29n5tZ/movie/42489"},{"id":42488,"title":"Сквозь тёмное зеркало","kp_id":"1279298","imdb_id":"tt7278052","world_art_id":null,"type":"movie","add":"2020-08-16 13:22:37","orig_title":"Through a Dark Mirror","year":"2019-01-01","translations":["Любительский (многоголосый закадровый) (Синема УС)"],"quality":"webdl","translation":"Любительский (многоголосый закадровый) (Синема УС)","update":"2020-08-16 20:07:33","iframe_src":"//5322.svetacdn.in/71tsRs29n5tZ/movie/42488"},{"id":42487,"title":"Проклятие Вальбурга","kp_id":"1299507","imdb_id":"tt10739214","world_art_id":null,"type":"movie","add":"2020-08-16 13:18:04","orig_title":"The Curse of Valburga","year":"2019-07-18","translations":["Любительский (многоголосый закадровый) (Синема УС)"],"quality":"webdl","translation":"Любительский (многоголосый закадровый) (Синема УС)","update":"2020-08-16 20:09:44","iframe_src":"//5322.svetacdn.in/71tsRs29n5tZ/movie/42487"},{"id":42486,"title":"Жаклин и Джилли","kp_id":"1236462","imdb_id":"tt9662664","world_art_id":null,"type":"movie","add":"2020-08-16 13:15:56","orig_title":"Jacqueline and Jilly","year":"2019-01-11","translations":["Любительский (многоголосый закадровый) (AlphaProject)"],"quality":"webdl","translation":"Любительский (многоголосый закадровый) (AlphaProject)","update":"2020-08-16 20:09:05","iframe_src":"//5322.svetacdn.in/71tsRs29n5tZ/movie/42486"},{"id":42485,"title":"Пи Нак","kp_id":"1247740","imdb_id":"tt8258474","world_art_id":null,"type":"movie","add":"2020-08-16 13:12:32","orig_title":"Pee Nak","year":"2019-02-21","translations":["Любительский (многоголосый закадровый) (Синема УС)"],"quality":"webdl","translation":"Любительский (многоголосый закадровый) (Синема УС)","update":"2020-08-16 20:06:16","iframe_src":"//5322.svetacdn.in/71tsRs29n5tZ/movie/42485"},{"id":42484,"title":"У кровати","kp_id":null,"imdb_id":"tt5911174","world_art_id":null,"type":"movie","add":"2020-08-16 13:06:59","orig_title":"Around the Bed","year":"2018-08-07","translations":["Любительский (многоголосый закадровый) (Синема УС)"],"quality":"webdl","translation":"Любительский (многоголосый закадровый) (Синема УС)","update":"2020-08-16 20:08:13","iframe_src":"//5322.svetacdn.in/71tsRs29n5tZ/movie/42484"},{"id":42481,"title":"Вспоминая убийство","kp_id":"1380441","imdb_id":"tt12032280","world_art_id":null,"type":"movie","add":"2020-08-16 11:27:25","orig_title":"A Murder to Remember","year":"2020-08-02","translations":["Любительский (многоголосый закадровый) (AlphaProject)"],"quality":"hdtv","translation":"Любительский (многоголосый закадровый) (AlphaProject)","update":"2020-08-16 15:26:41","iframe_src":"//5322.svetacdn.in/71tsRs29n5tZ/movie/42481"},{"id":42480,"title":"Святая","kp_id":"1300914","imdb_id":"tt10422110","world_art_id":null,"type":"movie","add":"2020-08-16 11:12:16","orig_title":"Banal","year":"2019-05-29","translations":["Любительский (двухголосый закадровый) (Колобок)"],"quality":"webdl","translation":"Любительский (двухголосый закадровый) (Колобок)","update":"2020-08-16 15:24:16","iframe_src":"//5322.svetacdn.in/71tsRs29n5tZ/movie/42480"},{"id":42479,"title":"Красный Дьявол в собственности","kp_id":"1296525","imdb_id":"tt10856586","world_art_id":null,"type":"movie","add":"2020-08-16 11:08:07","orig_title":"Diablo Rojo PTY","year":"2019-09-19","translations":["Любительский (двухголосый закадровый) (Колобок)"],"quality":"webdl","translation":"Любительский (двухголосый закадровый) (Колобок)","update":"2020-08-16 15:23:24","iframe_src":"//5322.svetacdn.in/71tsRs29n5tZ/movie/42479"},{"id":42478,"title":"Золотой мальчик","kp_id":"941961","imdb_id":"tt5152882","world_art_id":null,"type":"movie","add":"2020-08-16 11:04:53","orig_title":"Golden Boy","year":"2019-09-17","translations":["Любительский (многоголосый закадровый) (Синема УС)"],"quality":"webdl","translation":"Любительский (многоголосый закадровый) (Синема УС)","update":"2020-08-16 15:22:15","iframe_src":"//5322.svetacdn.in/71tsRs29n5tZ/movie/42478"},{"id":42477,"title":"Убийственный план","kp_id":"1309459","imdb_id":"tt11058006","world_art_id":null,"type":"movie","add":"2020-08-16 11:01:22","orig_title":"A Daughter's Plan To Kill","year":"2019-11-15","translations":["Любительский (многоголосый закадровый) (Синема УС)"],"quality":"webdl","translation":"Любительский (многоголосый закадровый) (Синема УС)","update":"2020-08-16 15:26:01","iframe_src":"//5322.svetacdn.in/71tsRs29n5tZ/movie/42477"},{"id":42476,"title":"Крушение искусственного интеллекта","kp_id":"1282489","imdb_id":"tt10579380","world_art_id":null,"type":"movie","add":"2020-08-16 10:58:18","orig_title":"AI Houkai","year":"2020-01-31","translations":["Любительский (двухголосый закадровый) (Колобок)"],"quality":"bd","translation":"Любительский (двухголосый закадровый) (Колобок)","update":"2020-08-16 15:21:26","iframe_src":"//5322.svetacdn.in/71tsRs29n5tZ/movie/42476"},{"id":42474,"title":"Отрыв","kp_id":"1337621","imdb_id":"tt11394332","world_art_id":null,"type":"movie","add":"2020-08-16 10:50:15","orig_title":"Spree","year":"2020-01-24","translations":["Любительский (многоголосый закадровый) (Синема УС)"],"quality":"webdl","translation":"Любительский (многоголосый закадровый) (Синема УС)","update":"2020-08-16 15:19:20","iframe_src":"//5322.svetacdn.in/71tsRs29n5tZ/movie/42474"},{"id":42473,"title":"Слишком холодно, чтобы плавать","kp_id":"918301","imdb_id":"tt4778486","world_art_id":null,"type":"movie","add":"2020-08-16 10:47:59","orig_title":"Too Cold to Swim","year":"2018-02-20","translations":["Любительский (многоголосый закадровый) (Синема УС)"],"quality":"webdl","translation":"Любительский (многоголосый закадровый) (Синема УС)","update":"2020-08-16 15:18:24","iframe_src":"//5322.svetacdn.in/71tsRs29n5tZ/movie/42473"},{"id":42472,"title":"Скажи, что любишь меня","kp_id":"682271","imdb_id":"tt2400447","world_art_id":null,"type":"movie","add":"2020-08-16 10:35:43","orig_title":"Tell Me I Love You","year":"2020-06-02","translations":["Любительский (многоголосый закадровый) (Синема УС)"],"quality":"webdl","translation":"Любительский (многоголосый закадровый) (Синема УС)","update":"2020-08-16 15:08:51","iframe_src":"//5322.svetacdn.in/71tsRs29n5tZ/movie/42472"},{"id":42471,"title":"Любовь с первого полёта","kp_id":null,"imdb_id":"tt11864126","world_art_id":null,"type":"movie","add":"2020-08-15 23:00:21","orig_title":"Love on Harbor Island","year":"2020-08-08","translations":["Любительский (многоголосый закадровый) (Синема УС)"],"quality":"hdtv","translation":"Любительский (многоголосый закадровый) (Синема УС)","update":"2020-08-16 06:25:01","iframe_src":"//5322.svetacdn.in/71tsRs29n5tZ/movie/42471"},{"id":35096,"title":"Водитель","kp_id":"1164352","imdb_id":"tt8550264","world_art_id":null,"type":"movie","add":"2020-01-15 21:11:23","orig_title":"Khon Kub Rod","year":"2017-06-29","translations":["Любительский (одноголосый закадровый)","Любительский (многоголосый закадровый) (Синема УС)"],"quality":"hdtv","translation":"Любительский (одноголосый закадровый)","update":"2020-08-16 15:25:04","iframe_src":"//5322.svetacdn.in/71tsRs29n5tZ/movie/35096"},{"id":23876,"title":"Новогодняя сказка","kp_id":"460617","imdb_id":"tt4577456","world_art_id":null,"type":"movie","add":"2019-04-04 08:08:46","orig_title":"Novogodnyaya skazka","year":"1972-01-01","translations":["Оригинальная дорожка","Оригинальная дорожка"],"quality":"dvdrip","translation":"Оригинальная дорожка","update":"2020-08-17 05:59:09","iframe_src":"//5322.svetacdn.in/71tsRs29n5tZ/movie/23876"},{"id":841,"title":"Рифмуется с любовью","kp_id":"464884","imdb_id":"tt3085478","world_art_id":null,"type":"serial","add":"2017-01-09 06:25:03","orig_title":"Rifmuetsya s lyubovyu","year":"2006-01-01","translations":["Оригинальная дорожка"],"seasons_count":1,"episodes_count":2,"episodes":2,"update":"2017-01-09 11:56:42","iframe_src":"//5322.svetacdn.in/71tsRs29n5tZ/tv-series/841"},{"id":838,"title":"Банды","kp_id":"565161","imdb_id":"tt4042116","world_art_id":null,"type":"serial","add":"2017-01-08 12:56:09","orig_title":"Bandy","year":"2010-09-23","translations":["Оригинальная дорожка"],"seasons_count":1,"episodes_count":12,"episodes":12,"update":"2017-01-08 18:44:09","iframe_src":"//5322.svetacdn.in/71tsRs29n5tZ/tv-series/838"},{"id":837,"title":"Бедные родственники","kp_id":"719866","imdb_id":"tt2842912","world_art_id":null,"type":"serial","add":"2017-01-08 12:51:37","orig_title":"Bednye rodstvenniki","year":"2012-12-11","translations":["Оригинальная дорожка"],"seasons_count":1,"episodes_count":16,"episodes":16,"update":"2017-01-09 10:19:33","iframe_src":"//5322.svetacdn.in/71tsRs29n5tZ/tv-series/837"},{"id":836,"title":"Поделись счастьем своим","kp_id":"838579","imdb_id":null,"world_art_id":null,"type":"serial","add":"2017-01-08 12:31:52","orig_title":"Поделись счастьем своим","year":"2015-05-23","translations":["Оригинальная дорожка"],"seasons_count":1,"episodes_count":4,"episodes":4,"update":"2017-01-09 10:47:13","iframe_src":"//5322.svetacdn.in/71tsRs29n5tZ/tv-series/836"},{"id":835,"title":"Стройка","kp_id":"841687","imdb_id":null,"world_art_id":null,"type":"serial","add":"2017-01-08 11:19:10","orig_title":"Стройка","year":"2017-01-02","translations":["Оригинальная дорожка"],"seasons_count":1,"episodes_count":20,"episodes":20,"update":"2017-01-09 10:32:06","iframe_src":"//5322.svetacdn.in/71tsRs29n5tZ/tv-series/835"},{"id":834,"title":"Слепой","kp_id":"400061","imdb_id":"tt4265764","world_art_id":null,"type":"serial","add":"2017-01-08 10:29:04","orig_title":"Slepoy","year":"2008-12-04","translations":["Оригинальная дорожка"],"seasons_count":1,"episodes_count":8,"episodes":8,"update":"2017-01-08 16:54:52","iframe_src":"//5322.svetacdn.in/71tsRs29n5tZ/tv-series/834"},{"id":832,"title":"Перевозчик","kp_id":"587984","imdb_id":"tt1885102","world_art_id":null,"type":"serial","add":"2017-01-08 10:13:06","orig_title":"Transporter: The Series","year":"2012-11-29","translations":["Профессиональный (многоголосый закадровый) (LostFilm)"],"seasons_count":2,"episodes_count":24,"episodes":12,"update":"2017-01-08 17:15:25","iframe_src":"//5322.svetacdn.in/71tsRs29n5tZ/tv-series/832"},{"id":828,"title":"Верни мою любовь","kp_id":"846894","imdb_id":"tt4307052","world_art_id":null,"type":"serial","add":"2017-01-07 14:00:48","orig_title":"Verni moyu lyubov","year":"2014-12-08","translations":["Оригинальная дорожка"],"seasons_count":1,"episodes_count":24,"episodes":24,"update":"2017-01-08 12:27:19","iframe_src":"//5322.svetacdn.in/71tsRs29n5tZ/tv-series/828"},{"id":827,"title":"Грешник","kp_id":"807496","imdb_id":"tt3660088","world_art_id":null,"type":"serial","add":"2017-01-07 13:15:23","orig_title":"Greshnik","year":"2015-05-29","translations":["Оригинальная дорожка"],"seasons_count":1,"episodes_count":2,"episodes":2,"update":"2017-01-07 17:21:06","iframe_src":"//5322.svetacdn.in/71tsRs29n5tZ/tv-series/827"},{"id":823,"title":"Доброе имя","kp_id":"840043","imdb_id":"tt3772494","world_art_id":null,"type":"serial","add":"2017-01-07 08:02:24","orig_title":"Dobroe imya","year":"2014-05-19","translations":["Оригинальная дорожка"],"seasons_count":1,"episodes_count":12,"episodes":12,"update":"2017-01-09 06:55:50","iframe_src":"//5322.svetacdn.in/71tsRs29n5tZ/tv-series/823"},{"id":815,"title":"Домработница","kp_id":"913424","imdb_id":null,"world_art_id":null,"type":"serial","add":"2017-01-06 10:16:03","orig_title":"Домработница","year":"2015-06-13","translations":["Оригинальная дорожка"],"seasons_count":1,"episodes_count":2,"episodes":2,"update":"2017-01-06 12:41:48","iframe_src":"//5322.svetacdn.in/71tsRs29n5tZ/tv-series/815"},{"id":813,"title":"Шоу ужасов Рокки Хоррора","kp_id":"463048","imdb_id":"tt1267299","world_art_id":null,"type":"serial","add":"2017-01-05 04:55:09","orig_title":"The Rocky Horror Picture Show: Let's Do the Time Warp Again","year":"2016-10-18","translations":["Профессиональный (многоголосый закадровый) (BaibaKo)"],"seasons_count":1,"episodes_count":1,"episodes":1,"update":"2017-01-05 09:14:02","iframe_src":"//5322.svetacdn.in/71tsRs29n5tZ/tv-series/813"},{"id":812,"title":"Бомж","kp_id":"481550","imdb_id":null,"world_art_id":null,"type":"serial","add":"2017-01-04 11:57:32","orig_title":"Бомж","year":"2010-06-06","translations":["Оригинальная дорожка"],"seasons_count":1,"episodes_count":12,"episodes":12,"update":"2017-01-06 08:07:19","iframe_src":"//5322.svetacdn.in/71tsRs29n5tZ/tv-series/812"},{"id":811,"title":"Ниро Вульф и Арчи Гудвин","kp_id":"80261","imdb_id":null,"world_art_id":null,"type":"serial","add":"2017-01-04 11:54:57","orig_title":"Ниро Вульф и Арчи Гудвин","year":"2002-01-03","translations":["Оригинальная дорожка"],"seasons_count":1,"episodes_count":10,"episodes":10,"update":"2017-01-06 06:33:27","iframe_src":"//5322.svetacdn.in/71tsRs29n5tZ/tv-series/811"},{"id":810,"title":"Сатисфакция","kp_id":"256060","imdb_id":"tt0768685","world_art_id":null,"type":"serial","add":"2017-01-04 11:39:34","orig_title":"Satisfaktsiya","year":"2006-01-02","translations":["Оригинальная дорожка"],"seasons_count":1,"episodes_count":8,"episodes":8,"update":"2017-01-05 13:26:19","iframe_src":"//5322.svetacdn.in/71tsRs29n5tZ/tv-series/810"},{"id":802,"title":"Острог. Дело Федора Сеченова","kp_id":"405659","imdb_id":null,"world_art_id":null,"type":"serial","add":"2017-01-02 11:07:28","orig_title":"Острог. Дело Федора Сеченова","year":"2006-08-01","translations":["Оригинальная дорожка"],"seasons_count":1,"episodes_count":40,"episodes":40,"update":"2017-01-07 09:01:07","iframe_src":"//5322.svetacdn.in/71tsRs29n5tZ/tv-series/802"},{"id":756,"title":"Удаленные","kp_id":"1008004","imdb_id":"tt5684430","world_art_id":null,"type":"serial","add":"2016-12-28 16:22:29","orig_title":"The Deleted","year":"2016-12-04","translations":["Любительский (двухголосый закадровый) (Hamster Studio)"],"seasons_count":1,"episodes_count":8,"episodes":8,"update":"2017-01-09 08:19:59","iframe_src":"//5322.svetacdn.in/71tsRs29n5tZ/tv-series/756"},{"id":732,"title":"Доктор Хаус","kp_id":"178710","imdb_id":"tt0412142","world_art_id":null,"type":"serial","add":"2016-12-25 13:20:28","orig_title":"House M.D.","year":"2004-11-16","translations":["Профессиональный (многоголосый закадровый) (LostFilm)"],"seasons_count":8,"episodes_count":176,"episodes":22,"update":"2017-01-05 09:49:16","iframe_src":"//5322.svetacdn.in/71tsRs29n5tZ/tv-series/732"},{"id":708,"title":"Улица потрошителя","kp_id":"677725","imdb_id":"tt2183641","world_art_id":null,"type":"serial","add":"2016-12-19 08:54:27","orig_title":"Ripper Street","year":"2012-12-30","translations":["Профессиональный (многоголосый закадровый) (NewStudio)"],"seasons_count":5,"episodes_count":36,"episodes":6,"update":"2017-01-09 07:06:41","iframe_src":"//5322.svetacdn.in/71tsRs29n5tZ/tv-series/708"},{"id":573,"title":"Образцовые бунтарки","kp_id":"923787","imdb_id":"tt4687892","world_art_id":null,"type":"serial","add":"2016-11-13 06:31:42","orig_title":"Good Girls Revolt","year":"2015-11-04","translations":["Профессиональный (многоголосый закадровый) (NewStudio)"],"seasons_count":1,"episodes_count":10,"episodes":10,"update":"2017-01-06 06:28:19","iframe_src":"//5322.svetacdn.in/71tsRs29n5tZ/tv-series/573"}],"current_page":495,"first_page_url":"https://videocdn.tv/api/short?limit=100&api_token=EnbO9h8pv1VyjbCJhg0WM9nG259n7mtz&cache3495=3495&page=1","from":49401,"last_page":619,"last_page_url":"https://videocdn.tv/api/short?limit=100&api_token=EnbO9h8pv1VyjbCJhg0WM9nG259n7mtz&cache3495=3495&page=619","next_page_url":"https://videocdn.tv/api/short?limit=100&api_token=EnbO9h8pv1VyjbCJhg0WM9nG259n7mtz&cache3495=3495&page=496","path":"https://videocdn.tv/api/short","per_page":100,"prev_page_url":"https://videocdn.tv/api/short?limit=100&api_token=EnbO9h8pv1VyjbCJhg0WM9nG259n7mtz&cache3495=3495&page=494","to":49440,"total":61811}