{"result":true,"data":[{"id":12896,"title":"Реальные кабаны","kp_id":"220619","imdb_id":"tt0486946","world_art_id":null,"type":"movie","add":"2017-08-10 09:11:32","orig_title":"Wild Hogs","year":"2007-02-27","translations":["Полное дублирование"],"quality":"bd","translation":"Полное дублирование","update":"2017-08-10 14:43:55","iframe_src":"//8332.svetacdn.in/IAF0wWTdNYZm/movie/12896"},{"id":12895,"title":"План Z","kp_id":"846735","imdb_id":"tt3597108","world_art_id":null,"type":"movie","add":"2017-08-10 08:59:37","orig_title":"Plan Z","year":"2016-03-19","translations":["Любительский (одноголосый закадровый) (Хихикающий доктор)"],"quality":"webdl","translation":"Любительский (одноголосый закадровый) (Хихикающий доктор)","update":"2017-08-10 14:42:46","iframe_src":"//8332.svetacdn.in/IAF0wWTdNYZm/movie/12895"},{"id":12891,"title":"Бремя рутины","kp_id":"866944","imdb_id":"tt4151400","world_art_id":null,"type":"movie","add":"2017-08-10 08:55:42","orig_title":"The Burden of My Company","year":"2015-01-01","translations":["Любительский (многоголосый закадровый) (Синема УС)"],"quality":"webdl","translation":"Любительский (многоголосый закадровый) (Синема УС)","update":"2017-08-10 11:49:26","iframe_src":"//8332.svetacdn.in/IAF0wWTdNYZm/movie/12891"},{"id":12889,"title":"Шестой раз","kp_id":"924860","imdb_id":"tt4614936","world_art_id":null,"type":"movie","add":"2017-08-10 08:53:53","orig_title":"Kuudes kerta","year":"2017-01-06","translations":["Любительский (многоголосый закадровый) (Синема УС)"],"quality":"bd","translation":"Любительский (многоголосый закадровый) (Синема УС)","update":"2017-08-10 11:54:30","iframe_src":"//8332.svetacdn.in/IAF0wWTdNYZm/movie/12889"},{"id":12887,"title":"Кровные братья","kp_id":"872339","imdb_id":"tt3575258","world_art_id":null,"type":"movie","add":"2017-08-10 08:51:42","orig_title":"The Divine Tragedies","year":"2015-10-03","translations":["Любительский (многоголосый закадровый) (Синема УС)"],"quality":"webdl","translation":"Любительский (многоголосый закадровый) (Синема УС)","update":"2017-08-10 11:52:23","iframe_src":"//8332.svetacdn.in/IAF0wWTdNYZm/movie/12887"},{"id":12882,"title":"Фисгармония","kp_id":"948343","imdb_id":"tt5182856","world_art_id":null,"type":"movie","add":"2017-08-09 11:43:52","orig_title":"Fuchi ni tatsu","year":"2016-05-14","translations":["Профессиональный (многоголосый закадровый) (GreenРай Studio)"],"quality":"bd","translation":"Профессиональный (многоголосый закадровый) (GreenРай Studio)","update":"2017-08-09 18:59:12","iframe_src":"//8332.svetacdn.in/IAF0wWTdNYZm/movie/12882"},{"id":12876,"title":"Катынь","kp_id":"270249","imdb_id":"tt0879843","world_art_id":null,"type":"movie","add":"2017-08-09 11:19:30","orig_title":"Katyń","year":"2007-09-17","translations":["Профессиональный (двухголосый закадровый) (СВ-Дубль)"],"quality":"bd","translation":"Профессиональный (двухголосый закадровый) (СВ-Дубль)","update":"2017-08-10 05:42:23","iframe_src":"//8332.svetacdn.in/IAF0wWTdNYZm/movie/12876"},{"id":12868,"title":"Необычное свидание","kp_id":"869265","imdb_id":"tt3611112","world_art_id":null,"type":"movie","add":"2017-08-08 23:39:47","orig_title":"A Sunday Kind of Love","year":"2016-11-18","translations":["Любительский (многоголосый закадровый) (Синема УС)"],"quality":"bd","translation":"Любительский (многоголосый закадровый) (Синема УС)","update":"2017-08-10 05:02:20","iframe_src":"//8332.svetacdn.in/IAF0wWTdNYZm/movie/12868"},{"id":12854,"title":"Дети священника","kp_id":"679964","imdb_id":"tt2395421","world_art_id":null,"type":"movie","add":"2017-08-08 10:29:47","orig_title":"Svecenikova djeca","year":"2013-01-03","translations":["Профессиональный (многоголосый закадровый)"],"quality":"bd","translation":"Профессиональный (многоголосый закадровый)","update":"2017-08-10 05:38:33","iframe_src":"//8332.svetacdn.in/IAF0wWTdNYZm/movie/12854"},{"id":12853,"title":"Совсем не бабник","kp_id":"470213","imdb_id":"tt1477837","world_art_id":null,"type":"movie","add":"2017-08-08 10:24:57","orig_title":"Cedar Rapids","year":"2011-01-23","translations":["Профессиональный (многоголосый закадровый)"],"quality":"bd","translation":"Профессиональный (многоголосый закадровый)","update":"2017-08-10 05:31:00","iframe_src":"//8332.svetacdn.in/IAF0wWTdNYZm/movie/12853"},{"id":12852,"title":"Любовь, секс и Лос-Анджелес","kp_id":"707828","imdb_id":"tt2378884","world_art_id":null,"type":"movie","add":"2017-08-08 10:23:43","orig_title":"Cavemen","year":"2013-10-26","translations":["Профессиональный (многоголосый закадровый)"],"quality":"bd","translation":"Профессиональный (многоголосый закадровый)","update":"2017-08-10 05:29:50","iframe_src":"//8332.svetacdn.in/IAF0wWTdNYZm/movie/12852"},{"id":12851,"title":"Выдача багажа","kp_id":"731133","imdb_id":"tt1171222","world_art_id":null,"type":"movie","add":"2017-08-08 10:22:17","orig_title":"Baggage Claim","year":"2013-09-27","translations":["Профессиональный (многоголосый закадровый)"],"quality":"bd","translation":"Профессиональный (многоголосый закадровый)","update":"2017-08-10 05:27:46","iframe_src":"//8332.svetacdn.in/IAF0wWTdNYZm/movie/12851"},{"id":12848,"title":"Скуби-Ду! Пираты на борту!","kp_id":"271924","imdb_id":"tt0867418","world_art_id":null,"type":"movie","add":"2017-08-08 10:18:49","orig_title":"Scooby-Doo! Pirates Ahoy!","year":"2006-09-10","translations":["Полное дублирование"],"quality":"webdl","translation":"Полное дублирование","update":"2017-08-10 05:22:21","iframe_src":"//8332.svetacdn.in/IAF0wWTdNYZm/movie/12848"},{"id":12847,"title":"Крутая Джорджия","kp_id":"259590","imdb_id":"tt0791304","world_art_id":null,"type":"movie","add":"2017-08-08 10:17:24","orig_title":"Georgia Rule","year":"2007-05-10","translations":["Полное дублирование"],"quality":"webdl","translation":"Полное дублирование","update":"2017-08-10 05:21:10","iframe_src":"//8332.svetacdn.in/IAF0wWTdNYZm/movie/12847"},{"id":12846,"title":"В бегах","kp_id":"263301","imdb_id":"tt0805184","world_art_id":null,"type":"movie","add":"2017-08-08 06:23:08","orig_title":"Bhagam Bhag","year":"2006-12-22","translations":["Профессиональный (многоголосый закадровый)"],"quality":"bd","translation":"Профессиональный (многоголосый закадровый)","update":"2017-08-10 05:17:26","iframe_src":"//8332.svetacdn.in/IAF0wWTdNYZm/movie/12846"},{"id":12845,"title":"Бэндслэм","kp_id":"425085","imdb_id":"tt0976222","world_art_id":null,"type":"movie","add":"2017-08-08 06:20:57","orig_title":"Bandslam","year":"2009-08-06","translations":["Профессиональный (многоголосый закадровый)"],"quality":"bd","translation":"Профессиональный (многоголосый закадровый)","update":"2017-08-10 05:16:16","iframe_src":"//8332.svetacdn.in/IAF0wWTdNYZm/movie/12845"},{"id":12844,"title":"Артур. Идеальный миллионер","kp_id":"441393","imdb_id":"tt1334512","world_art_id":null,"type":"movie","add":"2017-08-08 06:19:47","orig_title":"Arthur","year":"2011-04-08","translations":["Профессиональный (многоголосый закадровый)"],"quality":"bd","translation":"Профессиональный (многоголосый закадровый)","update":"2017-08-10 05:14:07","iframe_src":"//8332.svetacdn.in/IAF0wWTdNYZm/movie/12844"},{"id":12843,"title":"Море, солнце и никакого секса","kp_id":"649768","imdb_id":"tt2119511","world_art_id":null,"type":"movie","add":"2017-08-08 06:17:22","orig_title":"Sea, No Sex & Sun","year":"2012-01-19","translations":["Профессиональный (двухголосый закадровый) (НТВ)"],"quality":"bd","translation":"Профессиональный (двухголосый закадровый) (НТВ)","update":"2017-08-10 05:11:21","iframe_src":"//8332.svetacdn.in/IAF0wWTdNYZm/movie/12843"},{"id":12837,"title":"iСтив","kp_id":"745501","imdb_id":"tt2782834","world_art_id":null,"type":"movie","add":"2017-08-07 15:39:30","orig_title":"iSteve","year":"2013-04-15","translations":["Профессиональный (многоголосый закадровый) (Кравец)"],"quality":"webdl","translation":"Профессиональный (многоголосый закадровый) (Кравец)","update":"2017-08-10 05:08:05","iframe_src":"//8332.svetacdn.in/IAF0wWTdNYZm/movie/12837"},{"id":12835,"title":"В твоих глазах","kp_id":"646295","imdb_id":"tt2101569","world_art_id":null,"type":"movie","add":"2017-08-07 15:37:02","orig_title":"In Your Eyes","year":"2014-04-20","translations":["Профессиональный (многоголосый закадровый) (FocusStudio)"],"quality":"bd","translation":"Профессиональный (многоголосый закадровый) (FocusStudio)","update":"2017-08-09 06:15:47","iframe_src":"//8332.svetacdn.in/IAF0wWTdNYZm/movie/12835"}],"current_page":2084,"first_page_url":"https://videocdn.tv/api/short?limit=100&api_token=6Onb1W1alEUrBcKJZD3GoKBbWyAl2uG2&cache32084=32084&page=1","from":208301,"last_page":638,"last_page_url":"https://videocdn.tv/api/short?limit=100&api_token=6Onb1W1alEUrBcKJZD3GoKBbWyAl2uG2&cache32084=32084&page=638","next_page_url":null,"path":"https://videocdn.tv/api/short","per_page":100,"prev_page_url":"https://videocdn.tv/api/short?limit=100&api_token=6Onb1W1alEUrBcKJZD3GoKBbWyAl2uG2&cache32084=32084&page=2083","to":208320,"total":63713}