{"result":true,"data":[{"id":41219,"title":"Зачистка","kp_id":"1055532","imdb_id":"tt7411112","world_art_id":null,"type":"movie","add":"2020-06-16 04:25:43","orig_title":"The Clearing","year":"2020-06-04","translations":["Любительский (многоголосый закадровый) (@MUZOBOZ@)"],"quality":"webdl","translation":"Любительский (многоголосый закадровый) (@MUZOBOZ@)","update":"2020-06-16 09:10:09","iframe_src":"//83.svetacdn.in/PfJ50H0ZBPg3/movie/41219"},{"id":41218,"title":"Исповедальня","kp_id":"1145276","imdb_id":"tt8169642","world_art_id":null,"type":"movie","add":"2020-06-16 04:25:05","orig_title":"Confessional","year":"2019-04-14","translations":["Любительский (многоголосый закадровый) (Синема УС)"],"quality":"webdl","translation":"Любительский (многоголосый закадровый) (Синема УС)","update":"2020-06-16 09:10:35","iframe_src":"//83.svetacdn.in/PfJ50H0ZBPg3/movie/41218"},{"id":41138,"title":"Ведьма из Непала","kp_id":"5387","imdb_id":"tt0089861","world_art_id":null,"type":"movie","add":"2020-06-11 18:31:22","orig_title":"Qi yuan","year":"1986-02-27","translations":["Авторский (одноголосый закадровый) (Визгунов Сергей)"],"quality":"dvdrip","translation":"Авторский (одноголосый закадровый) (Визгунов Сергей)","update":"2020-06-16 12:51:58","iframe_src":"//83.svetacdn.in/PfJ50H0ZBPg3/movie/41138"},{"id":41137,"title":"Героическое трио","kp_id":"13721","imdb_id":"tt0105619","world_art_id":null,"type":"movie","add":"2020-06-11 18:28:32","orig_title":"Dung fong sam hap","year":"1993-02-12","translations":["Авторский (одноголосый закадровый) (Кузнецов Сергей)"],"quality":"hdtv","translation":"Авторский (одноголосый закадровый) (Кузнецов Сергей)","update":"2020-06-16 12:49:18","iframe_src":"//83.svetacdn.in/PfJ50H0ZBPg3/movie/41137"},{"id":41136,"title":"Поражение злобных тигров","kp_id":"37155","imdb_id":"tt0087203","world_art_id":null,"type":"movie","add":"2020-06-11 18:19:43","orig_title":"Lao hu sha xing","year":"1976-01-01","translations":["Любительский (одноголосый закадровый)"],"quality":"dvdrip","translation":"Любительский (одноголосый закадровый)","update":"2020-06-16 12:47:42","iframe_src":"//83.svetacdn.in/PfJ50H0ZBPg3/movie/41136"},{"id":41135,"title":"Умники не умирают","kp_id":"274657","imdb_id":"tt0904071","world_art_id":null,"type":"movie","add":"2020-06-11 18:15:39","orig_title":"Tai fong lo chin","year":"2006-12-07","translations":["Авторский (одноголосый закадровый) (Алексеев Антон)"],"quality":"dvdrip","translation":"Авторский (одноголосый закадровый) (Алексеев Антон)","update":"2020-06-16 12:45:36","iframe_src":"//83.svetacdn.in/PfJ50H0ZBPg3/movie/41135"},{"id":39367,"title":"Подглядывающий","kp_id":"8434","imdb_id":"tt0054167","world_art_id":null,"type":"movie","add":"2020-04-16 13:01:02","orig_title":"Peeping Tom","year":"1960-04-07","translations":["Профессиональный (многоголосый закадровый) (5-й канал СПб)","Авторский (одноголосый закадровый) (Кузнецов Сергей)"],"quality":"bd","translation":"Профессиональный (многоголосый закадровый) (5-й канал СПб)","update":"2020-06-16 07:50:49","iframe_src":"//83.svetacdn.in/PfJ50H0ZBPg3/movie/39367"},{"id":36112,"title":"10 свиданий","kp_id":"1142310","imdb_id":"tt7939428","world_art_id":null,"type":"movie","add":"2020-02-11 21:23:44","orig_title":"10 Things We Should Do Before We Break Up","year":"2020-02-28","translations":["Любительский (многоголосый закадровый) (Синема УС)","Полное дублирование (iTunes)"],"quality":"webdl","translation":"Любительский (многоголосый закадровый) (Синема УС)","update":"2020-06-16 09:12:08","iframe_src":"//83.svetacdn.in/PfJ50H0ZBPg3/movie/36112"},{"id":35972,"title":"Мистер Сталь","kp_id":"2438","imdb_id":"tt0120207","world_art_id":null,"type":"movie","add":"2020-02-10 12:00:42","orig_title":"Steel","year":"1997-08-15","translations":["Авторский (одноголосый закадровый) (Визгунов Сергей)","Полное дублирование","Original (English)","Полное дублирование (Варус-Видео)"],"quality":"dvdrip","translation":"Авторский (одноголосый закадровый) (Визгунов Сергей)","update":"2020-06-16 07:57:26","iframe_src":"//83.svetacdn.in/PfJ50H0ZBPg3/movie/35972"},{"id":34949,"title":"Под прикрытием: Удар и пистолет","kp_id":"1271916","imdb_id":"tt10427010","world_art_id":null,"type":"movie","add":"2020-01-10 20:19:14","orig_title":"Wo hu qian long","year":"2019-06-28","translations":["Любительский (многоголосый закадровый) (Синема УС)","Любительский (одноголосый закадровый) (Береговых Виктор | Jet)"],"quality":"bd","translation":"Любительский (многоголосый закадровый) (Синема УС)","update":"2020-06-16 12:53:13","iframe_src":"//83.svetacdn.in/PfJ50H0ZBPg3/movie/34949"},{"id":30723,"title":"Маленькие чудовища","kp_id":"1091939","imdb_id":"tt7390588","world_art_id":null,"type":"movie","add":"2019-09-10 19:35:20","orig_title":"Little Monsters","year":"2019-01-27","translations":["Полное дублирование (iTunes)","Профессиональный (многоголосый закадровый) (HDrezka Studio)","Профессиональный (многоголосый закадровый) (HDrezka Studio)"],"quality":"webdl","translation":"Полное дублирование (iTunes)","update":"2020-06-16 10:40:46","iframe_src":"//83.svetacdn.in/PfJ50H0ZBPg3/movie/30723"},{"id":21472,"title":"Гонка со временем","kp_id":"841267","imdb_id":"tt3813094","world_art_id":null,"type":"movie","add":"2019-01-12 22:59:06","orig_title":"Headlock","year":"2019-01-01","translations":["Профессиональный (многоголосый закадровый) (HDrezka Studio)","Профессиональный (многоголосый закадровый) (HDrezka Studio)"],"quality":"webdl","translation":"Профессиональный (многоголосый закадровый) (HDrezka Studio)","update":"2020-06-16 10:38:52","iframe_src":"//83.svetacdn.in/PfJ50H0ZBPg3/movie/21472"},{"id":21228,"title":"Американский палач","kp_id":"1191273","imdb_id":"tt8975028","world_art_id":null,"type":"movie","add":"2019-01-05 00:36:26","orig_title":"American Hangman","year":"2019-01-04","translations":["Профессиональный (многоголосый закадровый) (iTunes)","Любительский (многоголосый закадровый) (AlphaProject)","Профессиональный (многоголосый закадровый) (HDrezka Studio)","Original (English)","Профессиональный (многоголосый закадровый) (HDrezka Studio)"],"quality":"webdl","translation":"Профессиональный (многоголосый закадровый) (iTunes)","update":"2020-06-16 10:39:11","iframe_src":"//83.svetacdn.in/PfJ50H0ZBPg3/movie/21228"},{"id":20572,"title":"Эшер","kp_id":"1037542","imdb_id":"tt6131450","world_art_id":null,"type":"movie","add":"2018-12-09 00:24:43","orig_title":"Asher","year":"2018-11-04","translations":["Любительский (многоголосый закадровый) (@MUZOBOZ@)","Любительский (двухголосый закадровый) (HiWayGrope)","Профессиональный (многоголосый закадровый) (HDrezka Studio)","Original (English)","Профессиональный (многоголосый закадровый) (iTunes)","Профессиональный (многоголосый закадровый) (HDrezka Studio)"],"quality":"webdl","translation":"Любительский (многоголосый закадровый) (@MUZOBOZ@)","update":"2020-06-16 09:13:37","iframe_src":"//83.svetacdn.in/PfJ50H0ZBPg3/movie/20572"},{"id":20544,"title":"После всего","kp_id":"1070766","imdb_id":"tt6688022","world_art_id":null,"type":"movie","add":"2018-12-07 08:52:25","orig_title":"After Everything","year":"2018-03-09","translations":["Любительский (многоголосый закадровый) (Синема УС)","Профессиональный (многоголосый закадровый) (HDrezka Studio)"],"quality":"webdl","translation":"Любительский (многоголосый закадровый) (Синема УС)","update":"2020-06-16 09:11:00","iframe_src":"//83.svetacdn.in/PfJ50H0ZBPg3/movie/20544"},{"id":20343,"title":"Приёмные проблемы","kp_id":"783600","imdb_id":"tt3087968","world_art_id":null,"type":"movie","add":"2018-11-28 10:06:12","orig_title":"Adopting Trouble","year":"2016-04-08","translations":["Любительский (многоголосый закадровый) (Синема УС)","Профессиональный (многоголосый закадровый) (HDrezka Studio)"],"quality":"webdl","translation":"Любительский (многоголосый закадровый) (Синема УС)","update":"2020-06-16 10:40:31","iframe_src":"//83.svetacdn.in/PfJ50H0ZBPg3/movie/20343"},{"id":19827,"title":"Оцепеневшие от страха","kp_id":"1068448","imdb_id":"tt7549892","world_art_id":null,"type":"movie","add":"2018-10-28 21:30:33","orig_title":"Aterrados","year":"2017-10-27","translations":["Любительский (многоголосый закадровый) (@MUZOBOZ@)","Полное дублирование (iTunes)","Профессиональный (многоголосый закадровый) (HDrezka Studio)"],"quality":"webdl","translation":"Любительский (многоголосый закадровый) (@MUZOBOZ@)","update":"2020-06-16 09:14:01","iframe_src":"//83.svetacdn.in/PfJ50H0ZBPg3/movie/19827"},{"id":19038,"title":"Вооружённый","kp_id":"988243","imdb_id":"tt4824316","world_art_id":null,"type":"movie","add":"2018-09-17 22:22:01","orig_title":"Armed","year":"2018-09-14","translations":["Любительский (многоголосый закадровый) (Синема УС)","Профессиональный (многоголосый закадровый) (HDrezka Studio)"],"quality":"webdl","translation":"Любительский (многоголосый закадровый) (Синема УС)","update":"2020-06-16 10:39:31","iframe_src":"//83.svetacdn.in/PfJ50H0ZBPg3/movie/19038"},{"id":18440,"title":"Альфа","kp_id":"934956","imdb_id":"tt4244998","world_art_id":null,"type":"movie","add":"2018-08-20 20:27:32","orig_title":"Alpha","year":"2018-08-16","translations":["Профессиональный (многоголосый закадровый)","Original (English)","Профессиональный (многоголосый закадровый) (HDrezka Studio)"],"quality":"bd","translation":"Профессиональный (многоголосый закадровый)","update":"2020-06-16 09:12:02","iframe_src":"//83.svetacdn.in/PfJ50H0ZBPg3/movie/18440"},{"id":8648,"title":"Лебедь из Синдзюку","kp_id":"862786","imdb_id":"tt3148576","world_art_id":null,"type":"movie","add":"2017-01-07 08:51:23","orig_title":"Shinjuku suwan","year":"2015-05-30","translations":["Любительский (двухголосый закадровый)","Любительский (двухголосый закадровый) (Bonsai Studio)"],"quality":"bd","translation":"Любительский (двухголосый закадровый)","update":"2020-06-16 12:54:34","iframe_src":"//83.svetacdn.in/PfJ50H0ZBPg3/movie/8648"}],"current_page":593,"first_page_url":"https://videocdn.tv/api/short?limit=100&api_token=RgFQdUIR2dRmwv8iYa5SnFNgnw3vpjKj&cache3593=3593&page=1","from":59201,"last_page":623,"last_page_url":"https://videocdn.tv/api/short?limit=100&api_token=RgFQdUIR2dRmwv8iYa5SnFNgnw3vpjKj&cache3593=3593&page=623","next_page_url":"https://videocdn.tv/api/short?limit=100&api_token=RgFQdUIR2dRmwv8iYa5SnFNgnw3vpjKj&cache3593=3593&page=594","path":"https://videocdn.tv/api/short","per_page":100,"prev_page_url":"https://videocdn.tv/api/short?limit=100&api_token=RgFQdUIR2dRmwv8iYa5SnFNgnw3vpjKj&cache3593=3593&page=592","to":59220,"total":62268}