{"result":true,"data":[{"id":50144,"title":"Темное государство","kp_id":null,"imdb_id":"tt13983776","world_art_id":null,"type":"movie","add":"2021-05-05 10:55:14","orig_title":"Dark State","year":"2021-03-19","translations":["Любительский (многоголосый закадровый) (Синема УС)"],"quality":"webdl","translation":"Любительский (многоголосый закадровый) (Синема УС)","update":"2021-05-05 20:09:30","iframe_src":"//83.svetacdn.in/PfJ50H0ZBPg3/movie/50144"},{"id":50139,"title":"Джек Уолкер","kp_id":"1164429","imdb_id":"tt8474040","world_art_id":null,"type":"movie","add":"2021-05-05 10:35:53","orig_title":"Jack Walker","year":"2021-04-30","translations":["Любительский (многоголосый закадровый) (Синема УС)"],"quality":"webdl","translation":"Любительский (многоголосый закадровый) (Синема УС)","update":"2021-05-05 15:33:31","iframe_src":"//83.svetacdn.in/PfJ50H0ZBPg3/movie/50139"},{"id":50138,"title":"Байкокрад","kp_id":"1237288","imdb_id":"tt9340872","world_art_id":null,"type":"movie","add":"2021-05-05 10:33:57","orig_title":"The Bike Thief","year":"2021-05-03","translations":["Любительский (многоголосый закадровый) (Синема УС)"],"quality":"webdl","translation":"Любительский (многоголосый закадровый) (Синема УС)","update":"2021-05-05 15:36:24","iframe_src":"//83.svetacdn.in/PfJ50H0ZBPg3/movie/50138"},{"id":50137,"title":"Не в деньгах счастье","kp_id":"1280293","imdb_id":"tt9697774","world_art_id":null,"type":"movie","add":"2021-05-05 10:32:37","orig_title":"Treasure Lies","year":"2020-03-27","translations":["Любительский (многоголосый закадровый) (Синема УС)"],"quality":"webdl","translation":"Любительский (многоголосый закадровый) (Синема УС)","update":"2021-05-05 16:15:46","iframe_src":"//83.svetacdn.in/PfJ50H0ZBPg3/movie/50137"},{"id":50136,"title":"Тьма","kp_id":"1192105","imdb_id":"tt8876488","world_art_id":null,"type":"movie","add":"2021-05-05 10:31:14","orig_title":"Dorcha","year":"2021-05-03","translations":["Любительский (многоголосый закадровый) (AlphaProject)"],"quality":"webdl","translation":"Любительский (многоголосый закадровый) (AlphaProject)","update":"2021-05-05 20:09:17","iframe_src":"//83.svetacdn.in/PfJ50H0ZBPg3/movie/50136"},{"id":50135,"title":"Не в том месте, не в то время","kp_id":"1436579","imdb_id":"tt13281312","world_art_id":null,"type":"movie","add":"2021-05-05 10:30:11","orig_title":"Wrong Place, Wrong Time","year":"2021-01-01","translations":["Любительский (многоголосый закадровый) (Синема УС)"],"quality":"webdl","translation":"Любительский (многоголосый закадровый) (Синема УС)","update":"2021-05-05 15:32:45","iframe_src":"//83.svetacdn.in/PfJ50H0ZBPg3/movie/50135"},{"id":50134,"title":"Призраки локдауна","kp_id":"1396730","imdb_id":"tt12764606","world_art_id":null,"type":"movie","add":"2021-05-05 10:28:48","orig_title":"The Lockdown Hauntings","year":"2021-05-03","translations":["Любительский (многоголосый закадровый) (Синема УС)"],"quality":"webdl","translation":"Любительский (многоголосый закадровый) (Синема УС)","update":"2021-05-05 15:36:01","iframe_src":"//83.svetacdn.in/PfJ50H0ZBPg3/movie/50134"},{"id":50133,"title":"Обезболивающее","kp_id":"1326025","imdb_id":"tt10799922","world_art_id":null,"type":"movie","add":"2021-05-05 10:25:48","orig_title":"Painkiller","year":"2021-05-04","translations":["Любительский (многоголосый закадровый) (Синема УС)"],"quality":"webdl","translation":"Любительский (многоголосый закадровый) (Синема УС)","update":"2021-05-05 20:08:34","iframe_src":"//83.svetacdn.in/PfJ50H0ZBPg3/movie/50133"},{"id":50132,"title":"Повитуха","kp_id":"1237131","imdb_id":"tt9766814","world_art_id":null,"type":"movie","add":"2021-05-05 10:23:44","orig_title":"The Midwife","year":"2021-05-04","translations":["Любительский (многоголосый закадровый) (Синема УС)"],"quality":"webdl","translation":"Любительский (многоголосый закадровый) (Синема УС)","update":"2021-05-05 15:31:47","iframe_src":"//83.svetacdn.in/PfJ50H0ZBPg3/movie/50132"},{"id":50127,"title":"Обнажённые на ночной улице","kp_id":"1402107","imdb_id":"tt9455306","world_art_id":null,"type":"movie","add":"2021-05-05 05:15:59","orig_title":"Nues dans les rues la nuit","year":"2019-04-28","translations":["Любительский (одноголосый закадровый) (Водяной Александр)"],"quality":"webdl","translation":"Любительский (одноголосый закадровый) (Водяной Александр)","update":"2021-05-05 11:21:15","iframe_src":"//83.svetacdn.in/PfJ50H0ZBPg3/movie/50127"},{"id":49291,"title":"Пчелка Майя: Медовый движ","kp_id":"1349327","imdb_id":"tt11792512","world_art_id":null,"type":"movie","add":"2021-04-02 18:12:25","orig_title":"Maya the Bee 3: The Golden Orb","year":"2021-01-07","translations":["Любительский (многоголосый закадровый) (@MUZOBOZ@)","Полное дублирование"],"quality":"webdl","translation":"Любительский (многоголосый закадровый) (@MUZOBOZ@)","update":"2021-05-05 15:35:17","iframe_src":"//83.svetacdn.in/PfJ50H0ZBPg3/movie/49291"},{"id":34936,"title":"Джентльмены","kp_id":"1143242","imdb_id":"tt8367814","world_art_id":null,"type":"movie","add":"2020-01-10 11:53:26","orig_title":"The Gentlemen","year":"2019-12-03","translations":["Полное дублирование","Профессиональный (многоголосый закадровый) (HDrezka Studio)","Авторский (одноголосый закадровый) (Гоблин | Пучков Дмитрий)","Профессиональный (двухголосый закадровый) (Кубик в Кубе)","Авторский (одноголосый закадровый) (Гаврилов Андрей)","Авторский (одноголосый закадровый) (Гаврилов Андрей)","Авторский (одноголосый закадровый) (Сербин Юрий)","Авторский (одноголосый закадровый) (Визгунов Сергей)","[EN] Original (English)"],"quality":"webdl","translation":"Полное дублирование","update":"2021-05-05 10:53:59","iframe_src":"//83.svetacdn.in/PfJ50H0ZBPg3/movie/34936"},{"id":31301,"title":"Умереть во имя","kp_id":"4934","imdb_id":"tt0114681","world_art_id":null,"type":"movie","add":"2019-09-29 20:04:29","orig_title":"To Die For","year":"1995-05-20","translations":["Профессиональный (многоголосый закадровый)","Профессиональный (многоголосый закадровый)","Авторский (одноголосый закадровый) (Живов Юрий)","[EN] Original (English)","Профессиональный (двухголосый закадровый)","Профессиональный (многоголосый закадровый) (Карусель)"],"quality":"bd","translation":"Профессиональный (многоголосый закадровый)","update":"2021-05-05 10:42:55","iframe_src":"//83.svetacdn.in/PfJ50H0ZBPg3/movie/31301"},{"id":22242,"title":"Бойн Фолс","kp_id":"973490","imdb_id":"tt5608000","world_art_id":null,"type":"movie","add":"2019-02-12 09:03:56","orig_title":"Boyne Falls","year":"2018-04-18","translations":["Профессиональный (многоголосый закадровый) (HDrezka Studio)","Профессиональный (многоголосый закадровый) (HDrezka Studio)"],"quality":"webdl","translation":"Профессиональный (многоголосый закадровый) (HDrezka Studio)","update":"2021-05-05 15:23:27","iframe_src":"//83.svetacdn.in/PfJ50H0ZBPg3/movie/22242"},{"id":22164,"title":"Под листьями","kp_id":"919967","imdb_id":"tt4574654","world_art_id":null,"type":"movie","add":"2019-02-10 21:25:19","orig_title":"Beneath the Leaves","year":"2019-02-08","translations":["Любительский (многоголосый закадровый) (Синема УС)","Любительский (двухголосый закадровый) (HiWayGrope)","Профессиональный (многоголосый закадровый) (HDrezka Studio)","Профессиональный (многоголосый закадровый) (HDrezka Studio)"],"quality":"webdl","translation":"Любительский (многоголосый закадровый) (Синема УС)","update":"2021-05-05 15:22:39","iframe_src":"//83.svetacdn.in/PfJ50H0ZBPg3/movie/22164"},{"id":21161,"title":"Рассвет","kp_id":"1143671","imdb_id":"tt7919426","world_art_id":null,"type":"movie","add":"2019-01-01 23:32:36","orig_title":"Dawn","year":"2018-01-01","translations":["Любительский (многоголосый закадровый) (Синема УС)","Профессиональный (многоголосый закадровый) (HDrezka Studio)","Профессиональный (многоголосый закадровый) (HDrezka Studio)"],"quality":"webdl","translation":"Любительский (многоголосый закадровый) (Синема УС)","update":"2021-05-05 15:26:03","iframe_src":"//83.svetacdn.in/PfJ50H0ZBPg3/movie/21161"},{"id":1997,"title":"Санта-Хрякус: Страшдественская сказка","kp_id":"279073","imdb_id":"tt0765458","world_art_id":null,"type":"serial","add":"2018-01-26 13:07:41","orig_title":"Terry Pratchett's Hogfather","year":"2006-12-17","translations":["Профессиональный (многоголосый закадровый)"],"seasons_count":1,"episodes_count":2,"episodes":2,"update":"2018-01-27 07:31:42","iframe_src":"//83.svetacdn.in/PfJ50H0ZBPg3/tv-series/1997"},{"id":1996,"title":"Квартирантка","kp_id":"431184","imdb_id":"tt2945344","world_art_id":null,"type":"serial","add":"2018-01-26 11:42:52","orig_title":"Kvartirantka","year":"2008-01-01","translations":["Оригинальная дорожка"],"seasons_count":1,"episodes_count":2,"episodes":2,"update":"2018-01-27 09:09:16","iframe_src":"//83.svetacdn.in/PfJ50H0ZBPg3/tv-series/1996"},{"id":1995,"title":"Под крышами большого города","kp_id":"472158","imdb_id":null,"world_art_id":null,"type":"serial","add":"2018-01-26 10:47:17","orig_title":"Под крышами большого города","year":"2002-01-01","translations":["Оригинальная дорожка"],"seasons_count":1,"episodes_count":8,"episodes":8,"update":"2018-01-27 08:58:26","iframe_src":"//83.svetacdn.in/PfJ50H0ZBPg3/tv-series/1995"},{"id":1992,"title":"Пробуждение","kp_id":"580655","imdb_id":"tt1839683","world_art_id":null,"type":"serial","add":"2018-01-25 13:22:43","orig_title":"Awake","year":"2012-02-26","translations":["Профессиональный (многоголосый закадровый) (LostFilm)"],"seasons_count":1,"episodes_count":13,"episodes":13,"update":"2018-01-26 13:03:49","iframe_src":"//83.svetacdn.in/PfJ50H0ZBPg3/tv-series/1992"},{"id":1990,"title":"Леший 2","kp_id":"440014","imdb_id":"tt6400246","world_art_id":null,"type":"serial","add":"2018-01-25 08:22:19","orig_title":"Leshiy-2","year":"2009-05-07","translations":["Оригинальная дорожка"],"seasons_count":1,"episodes_count":2,"episodes":2,"update":"2018-01-27 08:37:41","iframe_src":"//83.svetacdn.in/PfJ50H0ZBPg3/tv-series/1990"},{"id":1989,"title":"Жизнь среди мальчишек","kp_id":"591955","imdb_id":"tt1859879","world_art_id":null,"type":"serial","add":"2018-01-25 07:37:19","orig_title":"Life with Boys","year":"2011-11-18","translations":["Полное дублирование"],"seasons_count":1,"episodes_count":9,"episodes":9,"update":"2018-01-26 10:24:42","iframe_src":"//83.svetacdn.in/PfJ50H0ZBPg3/tv-series/1989"},{"id":1986,"title":"Ночные кошмары и фантастические видения: По рассказам Стивена Кинга","kp_id":"279049","imdb_id":"tt0481452","world_art_id":null,"type":"serial","add":"2018-01-24 22:18:52","orig_title":"Nightmares & Dreamscapes: From the Stories of Stephen King","year":"2006-06-12","translations":["Профессиональный (многоголосый закадровый)"],"seasons_count":1,"episodes_count":8,"episodes":8,"update":"2018-01-25 08:32:17","iframe_src":"//83.svetacdn.in/PfJ50H0ZBPg3/tv-series/1986"},{"id":1985,"title":"Я люблю тебя, Америка","kp_id":"1100355","imdb_id":"tt7509270","world_art_id":null,"type":"serial","add":"2018-01-24 05:47:22","orig_title":"I Love You, America","year":"2017-10-12","translations":["Любительский (двухголосый закадровый) (Sunshine Studio)"],"seasons_count":1,"episodes_count":10,"episodes":10,"update":"2018-01-25 11:42:51","iframe_src":"//83.svetacdn.in/PfJ50H0ZBPg3/tv-series/1985"},{"id":1984,"title":"Орлиное сердце","kp_id":"584154","imdb_id":"tt1728860","world_art_id":null,"type":"serial","add":"2018-01-23 14:48:51","orig_title":"Eagleheart","year":"2011-02-03","translations":["Профессиональный (многоголосый закадровый) (LostFilm)"],"seasons_count":3,"episodes_count":34,"episodes":10,"update":"2018-01-26 11:47:17","iframe_src":"//83.svetacdn.in/PfJ50H0ZBPg3/tv-series/1984"},{"id":1983,"title":"Американская одиссея","kp_id":"838739","imdb_id":"tt3551796","world_art_id":null,"type":"serial","add":"2018-01-23 11:14:35","orig_title":"American Odyssey","year":"2015-04-05","translations":["Профессиональный (многоголосый закадровый) (LostFilm)"],"seasons_count":1,"episodes_count":13,"episodes":13,"update":"2018-01-25 12:07:27","iframe_src":"//83.svetacdn.in/PfJ50H0ZBPg3/tv-series/1983"},{"id":1982,"title":"Шерлок Холмс","kp_id":"417715","imdb_id":"tt2465266","world_art_id":null,"type":"serial","add":"2018-01-23 07:58:24","orig_title":"Sherlok Kholms","year":"2013-11-18","translations":["Оригинальная дорожка"],"seasons_count":1,"episodes_count":8,"episodes":8,"update":"2018-01-25 09:34:50","iframe_src":"//83.svetacdn.in/PfJ50H0ZBPg3/tv-series/1982"},{"id":1980,"title":"Секретарша","kp_id":"993593","imdb_id":null,"world_art_id":null,"type":"serial","add":"2018-01-23 06:34:18","orig_title":"Секретарша","year":"2018-01-22","translations":["Оригинальная дорожка"],"seasons_count":1,"episodes_count":8,"episodes":8,"update":"2018-01-26 10:04:44","iframe_src":"//83.svetacdn.in/PfJ50H0ZBPg3/tv-series/1980"},{"id":1977,"title":"Доказательство","kp_id":"840049","imdb_id":"tt3595806","world_art_id":null,"type":"serial","add":"2018-01-22 05:51:04","orig_title":"Proof","year":"2015-06-16","translations":["Любительский (многоголосый закадровый)"],"seasons_count":1,"episodes_count":10,"episodes":10,"update":"2018-01-22 09:17:09","iframe_src":"//83.svetacdn.in/PfJ50H0ZBPg3/tv-series/1977"},{"id":1975,"title":"Свидание: Какая она, любовь?","kp_id":"893581","imdb_id":"tt4237920","world_art_id":null,"type":"serial","add":"2018-01-20 09:09:57","orig_title":"Date: Koi to Wa Donna Mono Kashira","year":"2015-01-19","translations":["Любительский (многоголосый закадровый)"],"seasons_count":1,"episodes_count":10,"episodes":10,"update":"2018-01-22 10:33:52","iframe_src":"//83.svetacdn.in/PfJ50H0ZBPg3/tv-series/1975"},{"id":1965,"title":"Далеко во Вселенной","kp_id":"229633","imdb_id":"tt0187636","world_art_id":null,"type":"serial","add":"2018-01-17 05:55:39","orig_title":"Farscape","year":"1999-03-19","translations":["Профессиональный (многоголосый закадровый) (ТНТ)"],"seasons_count":4,"episodes_count":88,"episodes":22,"update":"2018-01-24 07:35:12","iframe_src":"//83.svetacdn.in/PfJ50H0ZBPg3/tv-series/1965"},{"id":1941,"title":"Красавцы","kp_id":"277548","imdb_id":"tt0387199","world_art_id":null,"type":"serial","add":"2018-01-10 13:40:31","orig_title":"Entourage","year":"2004-07-18","translations":["Профессиональный (многоголосый закадровый) (MTV)","Профессиональный (многоголосый закадровый) (Amedia)"],"seasons_count":8,"episodes_count":96,"episodes":8,"update":"2018-01-23 11:03:31","iframe_src":"//83.svetacdn.in/PfJ50H0ZBPg3/tv-series/1941"},{"id":1909,"title":"Я люблю Люси","kp_id":"342969","imdb_id":"tt0043208","world_art_id":null,"type":"serial","add":"2017-12-30 13:53:30","orig_title":"I Love Lucy","year":"1951-10-15","translations":["Любительский (одноголосый закадровый)","Профессиональный (многоголосый закадровый)"],"seasons_count":6,"episodes_count":159,"episodes":23,"update":"2018-01-25 08:40:16","iframe_src":"//83.svetacdn.in/PfJ50H0ZBPg3/tv-series/1909"},{"id":1667,"title":"Суеверие","kp_id":"1049676","imdb_id":"tt7379872","world_art_id":null,"type":"serial","add":"2017-10-25 07:59:36","orig_title":"Superstition","year":"2017-10-20","translations":["Профессиональный (многоголосый закадровый) (BaibaKo)","Любительский (двухголосый закадровый) (Hamster Studio)","Любительский (многоголосый закадровый) (Hamster Studio)"],"seasons_count":1,"episodes_count":12,"episodes":12,"update":"2018-01-22 09:07:28","iframe_src":"//83.svetacdn.in/PfJ50H0ZBPg3/tv-series/1667"},{"id":1551,"title":"Электрические сны Филипа К. Дика","kp_id":"1044254","imdb_id":"tt5711280","world_art_id":null,"type":"serial","add":"2017-09-19 14:38:56","orig_title":"Philip K. Dick's Electric Dreams","year":"2017-09-17","translations":["Профессиональный (многоголосый закадровый) (NewStudio)","Профессиональный (многоголосый закадровый) (LostFilm)"],"seasons_count":1,"episodes_count":10,"episodes":10,"update":"2018-01-23 06:59:12","iframe_src":"//83.svetacdn.in/PfJ50H0ZBPg3/tv-series/1551"},{"id":6707,"title":"Луна 44","kp_id":"14440","imdb_id":"tt0097910","world_art_id":null,"type":"movie","add":"2016-10-26 16:40:41","orig_title":"Moon 44","year":"1990-02-15","translations":["Полное дублирование","Профессиональный (многоголосый закадровый) (CP Digital)","Полное дублирование","[EN] Original (English)","Профессиональный (многоголосый закадровый) (Первый канал | ОРТ)","Профессиональный (многоголосый закадровый) (ТВЦ)"],"quality":"bd","translation":"Полное дублирование","update":"2021-05-05 07:23:06","iframe_src":"//83.svetacdn.in/PfJ50H0ZBPg3/movie/6707"},{"id":186,"title":"Отель «Вавилон»","kp_id":"400022","imdb_id":"tt0475047","world_art_id":null,"type":"serial","add":"2016-06-14 11:56:55","orig_title":"Hotel Babylon","year":"2006-01-19","translations":["Профессиональный (многоголосый закадровый) (Red Media)","Профессиональный (многоголосый закадровый) (Selena International)","Профессиональный (многоголосый закадровый) (SET)"],"seasons_count":4,"episodes_count":32,"episodes":8,"update":"2018-01-24 08:00:24","iframe_src":"//83.svetacdn.in/PfJ50H0ZBPg3/tv-series/186"},{"id":2030,"title":"Искусственный разум","kp_id":"594","imdb_id":"tt0212720","world_art_id":null,"type":"movie","add":"2016-05-10 16:14:27","orig_title":"Artificial Intelligence: AI","year":"2001-06-26","translations":["Полное дублирование","Авторский (одноголосый закадровый) (Визгунов Сергей)","Авторский (одноголосый закадровый) (Живов Юрий)","Полное дублирование","[EN] Original (English)","Профессиональный (многоголосый закадровый)","Профессиональный (многоголосый закадровый) (Карусель)"],"quality":"bd","translation":"Полное дублирование","update":"2021-05-05 11:00:35","iframe_src":"//83.svetacdn.in/PfJ50H0ZBPg3/movie/2030"},{"id":987,"title":"Лолита","kp_id":"12131","imdb_id":"tt0119558","world_art_id":null,"type":"movie","add":"2016-04-12 13:02:10","orig_title":"Lolita","year":"1997-09-27","translations":["Полное дублирование","Полное дублирование","[EN] Original (English)","Профессиональный (многоголосый закадровый)"],"quality":"bd","translation":"Полное дублирование","update":"2021-05-05 10:47:03","iframe_src":"//83.svetacdn.in/PfJ50H0ZBPg3/movie/987"},{"id":721,"title":"Бэтмэн Навсегда","kp_id":"1809","imdb_id":"tt0112462","world_art_id":null,"type":"movie","add":"2016-04-06 21:26:32","orig_title":"Batman Forever","year":"1995-06-09","translations":["Полное дублирование","Авторский (одноголосый закадровый) (Гаврилов Андрей)","Авторский (одноголосый закадровый) (Горчаков Василий)","Авторский (одноголосый закадровый) (Визгунов Сергей)","Авторский (одноголосый закадровый) (Живов Юрий)","Полное дублирование","Полное дублирование (Варус-Видео)","[EN] Original (English)","Любительский (одноголосый закадровый)","Профессиональный (двухголосый закадровый) (НТВ)","Профессиональный (двухголосый закадровый) (SDI Media | Iyuno-SDI Group Russia)","Профессиональный (многоголосый закадровый) (РТР | Россия)"],"quality":"bd","translation":"Полное дублирование","update":"2021-05-05 11:18:56","iframe_src":"//83.svetacdn.in/PfJ50H0ZBPg3/movie/721"}],"current_page":545,"first_page_url":"https://videocdn.tv/api/short?limit=100&api_token=RgFQdUIR2dRmwv8iYa5SnFNgnw3vpjKj&cache3545=3545&page=1","from":54401,"last_page":706,"last_page_url":"https://videocdn.tv/api/short?limit=100&api_token=RgFQdUIR2dRmwv8iYa5SnFNgnw3vpjKj&cache3545=3545&page=706","next_page_url":"https://videocdn.tv/api/short?limit=100&api_token=RgFQdUIR2dRmwv8iYa5SnFNgnw3vpjKj&cache3545=3545&page=546","path":"https://videocdn.tv/api/short","per_page":100,"prev_page_url":"https://videocdn.tv/api/short?limit=100&api_token=RgFQdUIR2dRmwv8iYa5SnFNgnw3vpjKj&cache3545=3545&page=544","to":54440,"total":70558}