{"result":true,"data":[{"id":54489,"title":"Резня в Мемориальной долине","kp_id":"182517","imdb_id":"tt0095611","world_art_id":null,"type":"movie","add":"2021-11-12 21:26:56","orig_title":"Memorial Valley Massacre","year":"1989-09-27","translations":["Любительский (одноголосый закадровый) (Васильев Андрей)"],"quality":"bd","translation":"Любительский (одноголосый закадровый) (Васильев Андрей)","update":"2021-11-13 08:48:33","iframe_src":"//8422.svetacdn.in/si4jsFRrtgrT/movie/54489"},{"id":54482,"title":"Чёрный хоррор","kp_id":"4530564","imdb_id":"tt15132736","world_art_id":null,"type":"movie","add":"2021-11-12 21:08:41","orig_title":"Horror Noire","year":"2021-10-28","translations":["Любительский (многоголосый закадровый) (AlphaProject)"],"quality":"webdl","translation":"Любительский (многоголосый закадровый) (AlphaProject)","update":"2021-11-13 06:23:09","iframe_src":"//8422.svetacdn.in/si4jsFRrtgrT/movie/54482"},{"id":54481,"title":"Осенние ночи в Чайна-Гроув","kp_id":"1299704","imdb_id":"tt10095262","world_art_id":null,"type":"movie","add":"2021-11-12 21:05:56","orig_title":"Fall Nights in China Grove","year":"2020-11-11","translations":["Любительский (многоголосый закадровый) (Синема УС)"],"quality":"webdl","translation":"Любительский (многоголосый закадровый) (Синема УС)","update":"2021-11-13 09:07:09","iframe_src":"//8422.svetacdn.in/si4jsFRrtgrT/movie/54481"},{"id":54479,"title":"Прочь","kp_id":null,"imdb_id":"tt14513058","world_art_id":null,"type":"movie","add":"2021-11-12 21:01:17","orig_title":"Leave","year":"2021-04-20","translations":["Любительский (многоголосый закадровый) (AlphaProject)"],"quality":"webdl","translation":"Любительский (многоголосый закадровый) (AlphaProject)","update":"2021-11-13 06:23:32","iframe_src":"//8422.svetacdn.in/si4jsFRrtgrT/movie/54479"},{"id":54478,"title":"Теория заговора против вакцины","kp_id":null,"imdb_id":"tt14703214","world_art_id":null,"type":"movie","add":"2021-11-12 20:50:49","orig_title":"The Rise of the Anti-Vaxx Movement","year":"2021-06-01","translations":["Любительский (многоголосый закадровый) (Синема УС)"],"quality":"webdl","translation":"Любительский (многоголосый закадровый) (Синема УС)","update":"2021-11-13 06:24:02","iframe_src":"//8422.svetacdn.in/si4jsFRrtgrT/movie/54478"},{"id":54477,"title":"Сувенир: Часть 2","kp_id":"1046055","imdb_id":"tt6992978","world_art_id":null,"type":"movie","add":"2021-11-12 20:49:16","orig_title":"The Souvenir: Part II","year":"2021-07-08","translations":["Любительский (двухголосый закадровый) (Колобок)"],"quality":"ts","translation":"Любительский (двухголосый закадровый) (Колобок)","update":"2021-11-13 06:24:30","iframe_src":"//8422.svetacdn.in/si4jsFRrtgrT/movie/54477"},{"id":54475,"title":"Глубинка","kp_id":"1285121","imdb_id":"tt10665734","world_art_id":null,"type":"movie","add":"2021-11-12 20:45:53","orig_title":"Interior","year":"2019-09-16","translations":["Любительский (многоголосый закадровый) (Синема УС)"],"quality":"webdl","translation":"Любительский (многоголосый закадровый) (Синема УС)","update":"2021-11-13 09:15:24","iframe_src":"//8422.svetacdn.in/si4jsFRrtgrT/movie/54475"},{"id":54473,"title":"Наша свадьба мечты","kp_id":"4480180","imdb_id":"tt14488126","world_art_id":null,"type":"movie","add":"2021-11-12 20:30:21","orig_title":"Our Dream Wedding","year":"2021-04-17","translations":["Любительский (многоголосый закадровый) (Синема УС)"],"quality":"webdl","translation":"Любительский (многоголосый закадровый) (Синема УС)","update":"2021-11-13 09:05:06","iframe_src":"//8422.svetacdn.in/si4jsFRrtgrT/movie/54473"},{"id":54472,"title":"Рождественское обещание","kp_id":"4693125","imdb_id":"tt15348352","world_art_id":null,"type":"movie","add":"2021-11-12 20:28:48","orig_title":"The Christmas Promise","year":"2021-10-30","translations":["Любительский (многоголосый закадровый) (Синема УС)"],"quality":"hdtv","translation":"Любительский (многоголосый закадровый) (Синема УС)","update":"2021-11-13 09:07:26","iframe_src":"//8422.svetacdn.in/si4jsFRrtgrT/movie/54472"},{"id":54463,"title":"Безумный","kp_id":"1041437","imdb_id":"tt6645126","world_art_id":null,"type":"movie","add":"2021-11-12 10:06:46","orig_title":"God's Fool","year":"2020-11-30","translations":["Любительский (многоголосый закадровый) (Синема УС)"],"quality":"webdl","translation":"Любительский (многоголосый закадровый) (Синема УС)","update":"2021-11-13 10:46:58","iframe_src":"//8422.svetacdn.in/si4jsFRrtgrT/movie/54463"},{"id":54462,"title":"Груди","kp_id":"1347878","imdb_id":"tt11753030","world_art_id":null,"type":"movie","add":"2021-11-12 10:04:34","orig_title":"Grudi","year":"2020-01-20","translations":["Любительский (многоголосый закадровый) (Синема УС)"],"quality":"webdl","translation":"Любительский (многоголосый закадровый) (Синема УС)","update":"2021-11-13 10:46:46","iframe_src":"//8422.svetacdn.in/si4jsFRrtgrT/movie/54462"},{"id":54461,"title":"Убежище","kp_id":"1298627","imdb_id":"tt10899402","world_art_id":null,"type":"movie","add":"2021-11-12 09:57:07","orig_title":"Hideout","year":"2021-10-09","translations":["Любительский (многоголосый закадровый) (Синема УС)"],"quality":"webdl","translation":"Любительский (многоголосый закадровый) (Синема УС)","update":"2021-11-13 10:46:34","iframe_src":"//8422.svetacdn.in/si4jsFRrtgrT/movie/54461"},{"id":54460,"title":"Несносные парни","kp_id":"4635985","imdb_id":"tt15470034","world_art_id":null,"type":"movie","add":"2021-11-12 09:55:24","orig_title":"Impolite Boys","year":"2021-09-10","translations":["Любительский (многоголосый закадровый) (Синема УС)"],"quality":"webdl","translation":"Любительский (многоголосый закадровый) (Синема УС)","update":"2021-11-13 10:46:16","iframe_src":"//8422.svetacdn.in/si4jsFRrtgrT/movie/54460"},{"id":54459,"title":"Грабеж средь бела дня","kp_id":"1405525","imdb_id":"tt10300450","world_art_id":null,"type":"movie","add":"2021-11-12 09:53:51","orig_title":"Laabam","year":"2021-09-09","translations":["Любительский (многоголосый закадровый) (Синема УС)"],"quality":"webdl","translation":"Любительский (многоголосый закадровый) (Синема УС)","update":"2021-11-13 10:45:59","iframe_src":"//8422.svetacdn.in/si4jsFRrtgrT/movie/54459"},{"id":54458,"title":"Марта и Томми","kp_id":"1350696","imdb_id":"tt11804238","world_art_id":null,"type":"movie","add":"2021-11-12 09:50:40","orig_title":"Martha & Tommy","year":"2020-09-19","translations":["Любительский (многоголосый закадровый) (Синема УС)"],"quality":"webdl","translation":"Любительский (многоголосый закадровый) (Синема УС)","update":"2021-11-13 10:45:39","iframe_src":"//8422.svetacdn.in/si4jsFRrtgrT/movie/54458"},{"id":54455,"title":"Между двумя мирами","kp_id":"1253109","imdb_id":"tt10088984","world_art_id":null,"type":"movie","add":"2021-11-12 09:36:34","orig_title":"Ouistreham","year":"2021-07-07","translations":["Любительский (двухголосый закадровый) (Колобок)"],"quality":"ts","translation":"Любительский (двухголосый закадровый) (Колобок)","update":"2021-11-13 10:44:38","iframe_src":"//8422.svetacdn.in/si4jsFRrtgrT/movie/54455"},{"id":54453,"title":"Самый лучший босс","kp_id":"1411096","imdb_id":"tt13066182","world_art_id":null,"type":"movie","add":"2021-11-12 09:11:59","orig_title":"El buen patrón","year":"2021-09-21","translations":["Любительский (двухголосый закадровый) (Колобок)"],"quality":"ts","translation":"Любительский (двухголосый закадровый) (Колобок)","update":"2021-11-13 10:44:06","iframe_src":"//8422.svetacdn.in/si4jsFRrtgrT/movie/54453"},{"id":54452,"title":"Пока мы не забыли","kp_id":null,"imdb_id":"tt14976134","world_art_id":null,"type":"movie","add":"2021-11-12 09:08:01","orig_title":"Before We Forget","year":"2021-10-21","translations":["Любительский (двухголосый закадровый) (Колобок)"],"quality":"ts","translation":"Любительский (двухголосый закадровый) (Колобок)","update":"2021-11-13 10:43:04","iframe_src":"//8422.svetacdn.in/si4jsFRrtgrT/movie/54452"},{"id":54395,"title":"Мертвы и прекрасны","kp_id":"1283716","imdb_id":"tt10639214","world_art_id":null,"type":"movie","add":"2021-11-08 23:42:18","orig_title":"Dead & Beautiful","year":"2021-02-05","translations":["Профессиональный (двухголосый закадровый) (Pazl Voice)","Original (English)","Любительский (многоголосый закадровый) (@MUZOBOZ@)"],"quality":"webdl","translation":"Профессиональный (двухголосый закадровый) (Pazl Voice)","update":"2021-11-13 10:43:47","iframe_src":"//8422.svetacdn.in/si4jsFRrtgrT/movie/54395"},{"id":10944,"title":"Красавица и чудовище","kp_id":"4474094","imdb_id":null,"world_art_id":null,"type":"serial","add":"2021-06-26 12:10:08","orig_title":"Красавица и чудовище","year":"2021-06-26","translations":["Оригинальная дорожка"],"seasons_count":1,"episodes_count":4,"episodes":4,"update":"2021-06-27 07:01:54","iframe_src":"//8422.svetacdn.in/si4jsFRrtgrT/tv-series/10944"},{"id":10936,"title":"Танцуй!","kp_id":"4483896","imdb_id":"tt12564616","world_art_id":null,"type":"serial","add":"2021-06-24 10:48:17","orig_title":"Jiva!","year":"2021-06-24","translations":["Любительский (многоголосый закадровый) (Ultradox)","Любительский (многоголосый закадровый) (ColdFilm)","Профессиональный (многоголосый закадровый) (BaibaKo)"],"seasons_count":1,"episodes_count":5,"episodes":5,"update":"2021-06-25 10:22:20","iframe_src":"//8422.svetacdn.in/si4jsFRrtgrT/tv-series/10936"},{"id":10911,"title":"Ставка больше, чем жизнь","kp_id":"262317","imdb_id":"tt0065035","world_art_id":null,"type":"serial","add":"2021-06-16 07:39:54","orig_title":"Stawka wieksza niz zycie","year":"1968-08-07","translations":["Профессиональный (многоголосый закадровый) (Первый канал | ОРТ)"],"seasons_count":1,"episodes_count":18,"episodes":18,"update":"2021-06-26 19:31:50","iframe_src":"//8422.svetacdn.in/si4jsFRrtgrT/tv-series/10911"},{"id":10910,"title":"Спецподразделение","kp_id":"579859","imdb_id":"tt0220261","world_art_id":null,"type":"serial","add":"2021-06-16 07:37:15","orig_title":"Rejseholdet","year":"2000-10-01","translations":["Профессиональный (многоголосый закадровый) (BaibaKo)"],"seasons_count":4,"episodes_count":32,"episodes":2,"update":"2021-06-26 18:50:23","iframe_src":"//8422.svetacdn.in/si4jsFRrtgrT/tv-series/10910"},{"id":10901,"title":"Айвенго","kp_id":"401701","imdb_id":"tt0118354","world_art_id":null,"type":"serial","add":"2021-06-14 20:54:51","orig_title":"Ivanhoe","year":"1997-01-12","translations":["Профессиональный (многоголосый закадровый) (Другое кино)"],"seasons_count":1,"episodes_count":6,"episodes":6,"update":"2021-06-26 19:01:55","iframe_src":"//8422.svetacdn.in/si4jsFRrtgrT/tv-series/10901"},{"id":10900,"title":"Почему мы ненавидим","kp_id":"1139748","imdb_id":"tt8300948","world_art_id":null,"type":"serial","add":"2021-06-14 20:46:46","orig_title":"Why We Hate","year":"2019-10-13","translations":["Профессиональный (многоголосый закадровый)"],"seasons_count":1,"episodes_count":6,"episodes":6,"update":"2021-06-26 19:09:17","iframe_src":"//8422.svetacdn.in/si4jsFRrtgrT/tv-series/10900"},{"id":10898,"title":"Тайна Анд","kp_id":"963399","imdb_id":"tt0398473","world_art_id":null,"type":"serial","add":"2021-06-14 20:37:07","orig_title":"Das Geheimnis der Anden","year":"1972-12-22","translations":["Авторский (одноголосый закадровый) (Муравский Юрий)"],"seasons_count":1,"episodes_count":5,"episodes":5,"update":"2021-06-26 18:57:56","iframe_src":"//8422.svetacdn.in/si4jsFRrtgrT/tv-series/10898"},{"id":10897,"title":"Сирены","kp_id":"1388509","imdb_id":"tt7583330","world_art_id":null,"type":"serial","add":"2021-06-14 20:23:19","orig_title":"Sirene","year":"2017-10-26","translations":["Любительский (многоголосый закадровый) (Ultradox)"],"seasons_count":1,"episodes_count":6,"episodes":6,"update":"2021-06-25 20:27:36","iframe_src":"//8422.svetacdn.in/si4jsFRrtgrT/tv-series/10897"},{"id":10882,"title":"Платформа","kp_id":"1412143","imdb_id":"tt13057984","world_art_id":null,"type":"serial","add":"2021-06-13 12:18:44","orig_title":"The Platform","year":"2020-09-03","translations":["Профессиональный (многоголосый закадровый) (BaibaKo)"],"seasons_count":2,"episodes_count":15,"episodes":7,"update":"2021-06-26 09:39:59","iframe_src":"//8422.svetacdn.in/si4jsFRrtgrT/tv-series/10882"},{"id":10858,"title":"Код «Синий»","kp_id":"429008","imdb_id":"tt1278165","world_art_id":null,"type":"serial","add":"2021-06-08 20:34:28","orig_title":"Kôdo burû","year":"2008-07-03","translations":["Любительский (одноголосый закадровый) (DeMon)","Любительский (одноголосый закадровый) (Asian Miracle Group)"],"seasons_count":3,"episodes_count":32,"episodes":10,"update":"2021-06-25 12:44:16","iframe_src":"//8422.svetacdn.in/si4jsFRrtgrT/tv-series/10858"},{"id":10857,"title":"Разлучённые","kp_id":"422970","imdb_id":"tt0211796","world_art_id":null,"type":"serial","add":"2021-06-08 20:18:18","orig_title":"Desencuentro","year":"1997-11-17","translations":["Профессиональный (многоголосый закадровый)"],"seasons_count":1,"episodes_count":78,"episodes":78,"update":"2021-06-26 18:25:01","iframe_src":"//8422.svetacdn.in/si4jsFRrtgrT/tv-series/10857"},{"id":10403,"title":"Аманда О","kp_id":"469587","imdb_id":"tt1440409","world_art_id":null,"type":"serial","add":"2021-04-10 16:27:09","orig_title":"Amanda O","year":"2008-11-19","translations":["Любительский (одноголосый закадровый)"],"seasons_count":1,"episodes_count":120,"episodes":120,"update":"2021-06-26 18:12:57","iframe_src":"//8422.svetacdn.in/si4jsFRrtgrT/tv-series/10403"},{"id":10393,"title":"Таксист","kp_id":"1445230","imdb_id":"tt13759970","world_art_id":null,"type":"serial","add":"2021-04-10 11:39:55","orig_title":"Mobeomtaeksi","year":"2021-04-09","translations":["Любительский (многоголосый закадровый) (Ultradox)","Профессиональный (многоголосый закадровый) (BaibaKo)","Любительский (двухголосый закадровый) (SoftBox)"],"seasons_count":1,"episodes_count":16,"episodes":16,"update":"2021-06-25 14:16:49","iframe_src":"//8422.svetacdn.in/si4jsFRrtgrT/tv-series/10393"},{"id":9681,"title":"Люпен","kp_id":"719762","imdb_id":"tt2531336","world_art_id":null,"type":"serial","add":"2021-01-08 12:23:54","orig_title":"Lupin","year":"2021-01-08","translations":["Любительский (многоголосый закадровый) (ColdFilm)","Любительский (многоголосый закадровый) (Ultradox)","Любительский (двухголосый закадровый) (KerobTV)","Профессиональный (многоголосый закадровый) (HDrezka Studio)","Профессиональный (многоголосый закадровый) (IdeaFilm)","Профессиональный (многоголосый закадровый) (BaibaKo)","Профессиональный (многоголосый закадровый) (LostFilm)","Профессиональный (двухголосый закадровый) (ViruseProject)","Профессиональный (многоголосый закадровый) (Jaskier)","Любительский (многоголосый закадровый) (WestFilm)","Полное дублирование (Пифагор)","Профессиональный (многоголосый закадровый) (TVShows)"],"seasons_count":2,"episodes_count":10,"episodes":5,"update":"2021-06-25 15:40:55","iframe_src":"//8422.svetacdn.in/si4jsFRrtgrT/tv-series/9681"},{"id":1335,"title":"Вице-президент","kp_id":"572049","imdb_id":"tt1759761","world_art_id":null,"type":"serial","add":"2017-06-27 11:40:03","orig_title":"Veep","year":"2012-04-22","translations":["Профессиональный (многоголосый закадровый) (Amedia)","Профессиональный (многоголосый закадровый) (TVShows)"],"seasons_count":7,"episodes_count":65,"episodes":7,"update":"2021-06-25 13:56:54","iframe_src":"//8422.svetacdn.in/si4jsFRrtgrT/tv-series/1335"},{"id":661,"title":"Развод","kp_id":"883270","imdb_id":"tt4304864","world_art_id":null,"type":"serial","add":"2016-12-05 12:26:54","orig_title":"Divorce","year":"2016-10-09","translations":["Профессиональный (многоголосый закадровый) (NewStudio)","Профессиональный (многоголосый закадровый) (Jaskier)","Профессиональный (многоголосый закадровый) (Greb&Creative)","Профессиональный (многоголосый закадровый) (TVShows)","Профессиональный (двухголосый закадровый) (Gears Media)","Профессиональный (многоголосый закадровый) (HDrezka Studio)"],"seasons_count":3,"episodes_count":24,"episodes":6,"update":"2021-06-27 06:27:56","iframe_src":"//8422.svetacdn.in/si4jsFRrtgrT/tv-series/661"},{"id":570,"title":"Доктор, доктор","kp_id":"1002656","imdb_id":"tt6015808","world_art_id":null,"type":"serial","add":"2016-11-07 07:15:41","orig_title":"Doctor Doctor","year":"2016-09-14","translations":["Профессиональный (многоголосый закадровый) (AlexFilm)","Любительский (многоголосый закадровый) (ColdFilm)","Любительский (многоголосый закадровый) (Octopus)","Профессиональный (многоголосый закадровый) (BaibaKo)","Любительский (многоголосый закадровый) (Ultradox)"],"seasons_count":5,"episodes_count":48,"episodes":8,"update":"2021-06-27 07:09:37","iframe_src":"//8422.svetacdn.in/si4jsFRrtgrT/tv-series/570"},{"id":6115,"title":"Вcе самое лучшее","kp_id":"404232","imdb_id":"tt1175709","world_art_id":null,"type":"movie","add":"2016-10-11 08:18:42","orig_title":"All Good Things","year":"2010-11-05","translations":["Профессиональный (двухголосый закадровый)"],"quality":"bd","translation":"Профессиональный (двухголосый закадровый)","update":"2021-11-13 09:15:04","iframe_src":"//8422.svetacdn.in/si4jsFRrtgrT/movie/6115"},{"id":274,"title":"Нереально","kp_id":"807444","imdb_id":"tt3314218","world_art_id":null,"type":"serial","add":"2016-07-09 06:19:19","orig_title":"UnREAL","year":"2015-06-01","translations":["Профессиональный (двухголосый закадровый) (Gears Media)","Профессиональный (многоголосый закадровый) (Sony Channel)","Профессиональный (многоголосый закадровый) (BaibaKo)"],"seasons_count":4,"episodes_count":38,"episodes":8,"update":"2021-06-26 18:45:54","iframe_src":"//8422.svetacdn.in/si4jsFRrtgrT/tv-series/274"},{"id":192,"title":"Версаль","kp_id":"891576","imdb_id":"tt3830558","world_art_id":null,"type":"serial","add":"2016-06-16 05:14:25","orig_title":"Versailles","year":"2015-11-16","translations":["Профессиональный (многоголосый закадровый)","Профессиональный (многоголосый закадровый) (BaibaKo)","Любительский (многоголосый закадровый) (RedDiamond Studio)","Профессиональный (многоголосый закадровый) (Первый канал | ОРТ)","Любительский (двухголосый закадровый) (Sunshine Studio)","Любительский (многоголосый закадровый) (ColdFilm)"],"seasons_count":3,"episodes_count":30,"episodes":10,"update":"2021-06-25 16:55:05","iframe_src":"//8422.svetacdn.in/si4jsFRrtgrT/tv-series/192"},{"id":129,"title":"Девушка по вызову","kp_id":"891559","imdb_id":"tt3846642","world_art_id":null,"type":"serial","add":"2016-06-02 12:14:37","orig_title":"The Girlfriend Experience","year":"2016-04-10","translations":["Профессиональный (многоголосый закадровый) (NewStudio)","Любительский (многоголосый закадровый) (ColdFilm)","Любительский (многоголосый закадровый) (Ultradox)","Профессиональный (многоголосый закадровый) (BaibaKo)"],"seasons_count":3,"episodes_count":37,"episodes":10,"update":"2021-06-25 13:57:31","iframe_src":"//8422.svetacdn.in/si4jsFRrtgrT/tv-series/129"}],"current_page":101,"first_page_url":"https://videocdn.tv/api/short?limit=100&api_token=X6EwAUfE5M9xbo7y0Bp0aPf3uXxG2KLL&cache3101=3101&page=1","from":10001,"last_page":690,"last_page_url":"https://videocdn.tv/api/short?limit=100&api_token=X6EwAUfE5M9xbo7y0Bp0aPf3uXxG2KLL&cache3101=3101&page=690","next_page_url":"https://videocdn.tv/api/short?limit=100&api_token=X6EwAUfE5M9xbo7y0Bp0aPf3uXxG2KLL&cache3101=3101&page=102","path":"https://videocdn.tv/api/short","per_page":100,"prev_page_url":"https://videocdn.tv/api/short?limit=100&api_token=X6EwAUfE5M9xbo7y0Bp0aPf3uXxG2KLL&cache3101=3101&page=100","to":10040,"total":68978}