{"result":true,"data":[{"id":52300,"title":"Миссия Ули Фанк","kp_id":"1340408","imdb_id":"tt11545370","world_art_id":null,"type":"movie","add":"2021-08-08 19:32:40","orig_title":"Mission Ulja Funk","year":"2021-06-09","translations":["Любительский (многоголосый закадровый) (Синема УС)"],"quality":"webdl","translation":"Любительский (многоголосый закадровый) (Синема УС)","update":"2021-08-09 05:34:42","iframe_src":"//2413.svetacdn.in/71tsRs29n5tZ/movie/52300"},{"id":52297,"title":"Ночной полет","kp_id":"7442","imdb_id":"tt0119784","world_art_id":null,"type":"movie","add":"2021-08-08 17:42:03","orig_title":"The Night Flier","year":"1997-04-30","translations":["Авторский (одноголосый закадровый) (Живов Юрий)","Профессиональный (двухголосый закадровый)"],"quality":"dvdrip","translation":"Авторский (одноголосый закадровый) (Живов Юрий)","update":"2021-08-09 06:22:44","iframe_src":"//2413.svetacdn.in/71tsRs29n5tZ/movie/52297"},{"id":52296,"title":"Судебная ошибка","kp_id":"102795","imdb_id":"tt0117061","world_art_id":null,"type":"movie","add":"2021-08-08 12:22:36","orig_title":"Mistrial","year":"1996-11-02","translations":["[EN] Original (English)","Авторский (одноголосый закадровый) (Гаврилов Андрей)"],"quality":"webdl","translation":"[EN] Original (English)","update":"2021-08-09 07:12:06","iframe_src":"//2413.svetacdn.in/71tsRs29n5tZ/movie/52296"},{"id":51498,"title":"Благодари судьбу","kp_id":"10658","imdb_id":"tt0036422","world_art_id":null,"type":"movie","add":"2021-07-01 06:44:50","orig_title":"Thank Your Lucky Stars","year":"1943-09-25","translations":["Профессиональный (многоголосый закадровый) (Пифагор)","[EN] Original (English)"],"quality":"bd","translation":"Профессиональный (многоголосый закадровый) (Пифагор)","update":"2021-08-09 06:58:32","iframe_src":"//2413.svetacdn.in/71tsRs29n5tZ/movie/51498"},{"id":51132,"title":"Следуя за флотом","kp_id":"26672","imdb_id":"tt0027630","world_art_id":null,"type":"movie","add":"2021-06-12 15:07:23","orig_title":"Follow the Fleet","year":"1936-02-20","translations":["Профессиональный (многоголосый закадровый) (Светла)","[EN] Original (English)"],"quality":"webdl","translation":"Профессиональный (многоголосый закадровый) (Светла)","update":"2021-08-09 06:45:00","iframe_src":"//2413.svetacdn.in/71tsRs29n5tZ/movie/51132"},{"id":51089,"title":"Ты никогда не была восхитительнее","kp_id":"11974","imdb_id":"tt0035583","world_art_id":null,"type":"movie","add":"2021-06-11 05:56:07","orig_title":"You Were Never Lovelier","year":"1942-11-19","translations":["Профессиональный (многоголосый закадровый) (SomeWax)","[EN] Original (English)"],"quality":"webdl","translation":"Профессиональный (многоголосый закадровый) (SomeWax)","update":"2021-08-09 06:38:13","iframe_src":"//2413.svetacdn.in/71tsRs29n5tZ/movie/51089"},{"id":51088,"title":"Веселый развод","kp_id":"16171","imdb_id":"tt0025164","world_art_id":null,"type":"movie","add":"2021-06-11 05:54:47","orig_title":"The Gay Divorcee","year":"1934-10-12","translations":["Профессиональный (многоголосый закадровый) (Светла)","[EN] Original (English)"],"quality":"webdl","translation":"Профессиональный (многоголосый закадровый) (Светла)","update":"2021-08-09 06:39:13","iframe_src":"//2413.svetacdn.in/71tsRs29n5tZ/movie/51088"},{"id":50967,"title":"Мадам Сатана","kp_id":"38721","imdb_id":"tt0021106","world_art_id":null,"type":"movie","add":"2021-06-06 06:54:06","orig_title":"Madam Satan","year":"1930-09-20","translations":["Любительский (одноголосый закадровый) (Клушин Игорь | хромолка)","[EN] Original (English)"],"quality":"webdl","translation":"Любительский (одноголосый закадровый) (Клушин Игорь | хромолка)","update":"2021-08-09 06:42:08","iframe_src":"//2413.svetacdn.in/71tsRs29n5tZ/movie/50967"},{"id":50860,"title":"Малыш, дождь должен пойти","kp_id":"14462","imdb_id":"tt0058930","world_art_id":null,"type":"movie","add":"2021-06-02 10:30:59","orig_title":"Baby the Rain Must Fall","year":"1965-01-12","translations":["Профессиональный (многоголосый закадровый) (Первый канал | ОРТ)","[EN] Original (English)"],"quality":"bd","translation":"Профессиональный (многоголосый закадровый) (Первый канал | ОРТ)","update":"2021-08-09 07:05:11","iframe_src":"//2413.svetacdn.in/71tsRs29n5tZ/movie/50860"},{"id":50736,"title":"Сумасшедшая мамаша","kp_id":"1858","imdb_id":"tt0072829","world_art_id":null,"type":"movie","add":"2021-05-30 07:37:18","orig_title":"Crazy Mama","year":"1975-11-05","translations":["Профессиональный (многоголосый закадровый) (СВ-Дубль)","[EN] Original (English)"],"quality":"bd","translation":"Профессиональный (многоголосый закадровый) (СВ-Дубль)","update":"2021-08-09 07:03:46","iframe_src":"//2413.svetacdn.in/71tsRs29n5tZ/movie/50736"},{"id":50733,"title":"Шерлок Холмс перед лицом смерти","kp_id":"199533","imdb_id":"tt0036348","world_art_id":null,"type":"movie","add":"2021-05-29 15:13:02","orig_title":"Sherlock Holmes Faces Death","year":"1943-09-17","translations":["Профессиональный (многоголосый закадровый) (DVD Classic)","[EN] Original (English)"],"quality":"bd","translation":"Профессиональный (многоголосый закадровый) (DVD Classic)","update":"2021-08-09 07:00:55","iframe_src":"//2413.svetacdn.in/71tsRs29n5tZ/movie/50733"},{"id":50732,"title":"Паучиха","kp_id":"201972","imdb_id":"tt0037303","world_art_id":null,"type":"movie","add":"2021-05-29 15:11:42","orig_title":"The Spider Woman","year":"1943-12-10","translations":["Профессиональный (многоголосый закадровый) (DVD Classic)","[EN] Original (English)"],"quality":"bd","translation":"Профессиональный (многоголосый закадровый) (DVD Classic)","update":"2021-08-09 06:55:17","iframe_src":"//2413.svetacdn.in/71tsRs29n5tZ/movie/50732"},{"id":50702,"title":"Улыбка","kp_id":"2204","imdb_id":"tt0073722","world_art_id":null,"type":"movie","add":"2021-05-28 05:11:24","orig_title":"Smile","year":"1975-03-20","translations":["Профессиональный (двухголосый закадровый) (НТВ)","[EN] Original (English)"],"quality":"bd","translation":"Профессиональный (двухголосый закадровый) (НТВ)","update":"2021-08-09 07:00:12","iframe_src":"//2413.svetacdn.in/71tsRs29n5tZ/movie/50702"},{"id":50701,"title":"Это забавное чувство","kp_id":"13183","imdb_id":"tt0059794","world_art_id":null,"type":"movie","add":"2021-05-28 05:09:53","orig_title":"That Funny Feeling","year":"1965-08-14","translations":["Любительский (одноголосый закадровый) (Клушин Игорь | хромолка)","[EN] Original (English)"],"quality":"bd","translation":"Любительский (одноголосый закадровый) (Клушин Игорь | хромолка)","update":"2021-08-09 06:57:00","iframe_src":"//2413.svetacdn.in/71tsRs29n5tZ/movie/50701"},{"id":50683,"title":"Потерянный горизонт","kp_id":"17072","imdb_id":"tt0070337","world_art_id":null,"type":"movie","add":"2021-05-26 13:12:48","orig_title":"Lost Horizon","year":"1973-03-14","translations":["Профессиональный (многоголосый закадровый) (СВ-Дубль)","[EN] Original (English)"],"quality":"bd","translation":"Профессиональный (многоголосый закадровый) (СВ-Дубль)","update":"2021-08-09 07:02:59","iframe_src":"//2413.svetacdn.in/71tsRs29n5tZ/movie/50683"},{"id":50682,"title":"Потерянный горизонт","kp_id":"8210","imdb_id":"tt0029162","world_art_id":null,"type":"movie","add":"2021-05-26 13:11:12","orig_title":"Lost Horizon","year":"1937-02-18","translations":["Профессиональный (многоголосый закадровый) (DVD Classic)","[EN] Original (English)"],"quality":"webdl","translation":"Профессиональный (многоголосый закадровый) (DVD Classic)","update":"2021-08-09 06:43:56","iframe_src":"//2413.svetacdn.in/71tsRs29n5tZ/movie/50682"},{"id":50609,"title":"Прогулка под весенним дождем","kp_id":"929","imdb_id":"tt0066542","world_art_id":null,"type":"movie","add":"2021-05-24 09:24:25","orig_title":"A Walk in the Spring Rain","year":"1970-04-09","translations":["Профессиональный (многоголосый закадровый) (5-й канал СПб)","[EN] Original (English)"],"quality":"webdl","translation":"Профессиональный (многоголосый закадровый) (5-й канал СПб)","update":"2021-08-09 06:46:48","iframe_src":"//2413.svetacdn.in/71tsRs29n5tZ/movie/50609"},{"id":3237,"title":"Любовь ангелов","kp_id":"1163132","imdb_id":"tt8586316","world_art_id":null,"type":"serial","add":"2018-09-28 19:16:14","orig_title":"Meleklerin Aski","year":"2018-07-04","translations":["Любительский (одноголосый закадровый)"],"seasons_count":1,"episodes_count":11,"episodes":11,"update":"2018-10-01 11:49:01","iframe_src":"//2413.svetacdn.in/71tsRs29n5tZ/tv-series/3237"},{"id":3229,"title":"Саутленд","kp_id":"427129","imdb_id":"tt1299368","world_art_id":null,"type":"serial","add":"2018-09-27 09:38:56","orig_title":"Southland","year":"2011-02-23","translations":["Профессиональный (многоголосый закадровый) (NovaFilm)","Профессиональный (многоголосый закадровый)"],"seasons_count":5,"episodes_count":43,"episodes":10,"update":"2018-09-29 09:37:39","iframe_src":"//2413.svetacdn.in/71tsRs29n5tZ/tv-series/3229"},{"id":3228,"title":"Служба новостей","kp_id":"584777","imdb_id":"tt1870479","world_art_id":null,"type":"serial","add":"2018-09-27 09:23:31","orig_title":"The Newsroom","year":"2013-03-26","translations":["Профессиональный (многоголосый закадровый) (NewStudio)","Профессиональный (многоголосый закадровый) (Amedia)"],"seasons_count":3,"episodes_count":25,"episodes":6,"update":"2018-09-28 09:24:15","iframe_src":"//2413.svetacdn.in/71tsRs29n5tZ/tv-series/3228"},{"id":3227,"title":"Майти Буш","kp_id":"438466","imdb_id":"tt0416394","world_art_id":null,"type":"serial","add":"2018-09-27 08:52:55","orig_title":"The Mighty Boosh","year":"2003-05-20","translations":["Профессиональный (многоголосый закадровый)"],"seasons_count":3,"episodes_count":20,"episodes":6,"update":"2018-09-28 09:57:16","iframe_src":"//2413.svetacdn.in/71tsRs29n5tZ/tv-series/3227"},{"id":3218,"title":"Близкие друзья","kp_id":"262973","imdb_id":"tt0262985","world_art_id":null,"type":"serial","add":"2018-09-25 08:34:30","orig_title":"Queer as Folk","year":"2000-12-03","translations":["Любительский (двухголосый закадровый) (GoldTeam)"],"seasons_count":5,"episodes_count":82,"episodes":13,"update":"2018-09-26 23:52:05","iframe_src":"//2413.svetacdn.in/71tsRs29n5tZ/tv-series/3218"},{"id":3217,"title":"Сватьи","kp_id":"838927","imdb_id":null,"world_art_id":null,"type":"serial","add":"2018-09-25 05:47:09","orig_title":"Сватьи","year":"2014-04-14","translations":["Оригинальная дорожка"],"seasons_count":1,"episodes_count":12,"episodes":12,"update":"2018-09-25 19:41:38","iframe_src":"//2413.svetacdn.in/71tsRs29n5tZ/tv-series/3217"},{"id":3213,"title":"Красавчик","kp_id":"774514","imdb_id":"tt3350766","world_art_id":null,"type":"serial","add":"2018-09-24 11:49:14","orig_title":"Yebbeun namja","year":"2013-11-20","translations":["Любительский (двухголосый закадровый) (GREEN TEA)"],"seasons_count":1,"episodes_count":16,"episodes":16,"update":"2018-09-27 07:39:02","iframe_src":"//2413.svetacdn.in/71tsRs29n5tZ/tv-series/3213"},{"id":3212,"title":"Наследство","kp_id":"1162500","imdb_id":null,"world_art_id":null,"type":"serial","add":"2018-09-24 11:25:46","orig_title":"Наследство","year":"2018-09-01","translations":["Оригинальная дорожка"],"seasons_count":1,"episodes_count":2,"episodes":2,"update":"2018-09-25 10:00:39","iframe_src":"//2413.svetacdn.in/71tsRs29n5tZ/tv-series/3212"},{"id":3211,"title":"Хорошая игра","kp_id":"1083754","imdb_id":"tt6533132","world_art_id":null,"type":"serial","add":"2018-09-24 11:02:58","orig_title":"Good Game","year":"2017-08-30","translations":["Любительский (двухголосый закадровый) (GoldTeam)"],"seasons_count":1,"episodes_count":6,"episodes":6,"update":"2018-09-25 10:02:35","iframe_src":"//2413.svetacdn.in/71tsRs29n5tZ/tv-series/3211"},{"id":3210,"title":"Обитатели больницы","kp_id":"1108392","imdb_id":"tt6819788","world_art_id":null,"type":"serial","add":"2018-09-24 10:54:25","orig_title":"Hospital People","year":"2017-04-21","translations":["Любительский (двухголосый закадровый) (SNK-TV)"],"seasons_count":1,"episodes_count":6,"episodes":6,"update":"2018-09-25 10:07:02","iframe_src":"//2413.svetacdn.in/71tsRs29n5tZ/tv-series/3210"},{"id":3209,"title":"Мое сердце с тобой","kp_id":"1189793","imdb_id":null,"world_art_id":null,"type":"serial","add":"2018-09-24 10:29:13","orig_title":"Мое сердце с тобой","year":"2018-09-22","translations":["Оригинальная дорожка"],"seasons_count":1,"episodes_count":2,"episodes":2,"update":"2018-09-25 10:11:22","iframe_src":"//2413.svetacdn.in/71tsRs29n5tZ/tv-series/3209"},{"id":3205,"title":"Дети Дюны","kp_id":"77218","imdb_id":"tt0287839","world_art_id":null,"type":"serial","add":"2018-09-23 10:31:23","orig_title":"Children of Dune","year":"2003-03-16","translations":["Профессиональный (многоголосый закадровый)"],"seasons_count":1,"episodes_count":3,"episodes":3,"update":"2018-09-26 13:54:49","iframe_src":"//2413.svetacdn.in/71tsRs29n5tZ/tv-series/3205"},{"id":3204,"title":"Дюна","kp_id":"229087","imdb_id":"tt0142032","world_art_id":null,"type":"serial","add":"2018-09-23 10:29:08","orig_title":"Dune","year":"2000-12-03","translations":["Профессиональный (многоголосый закадровый)"],"seasons_count":1,"episodes_count":3,"episodes":3,"update":"2018-09-26 13:51:23","iframe_src":"//2413.svetacdn.in/71tsRs29n5tZ/tv-series/3204"},{"id":3196,"title":"Шпионка","kp_id":"86234","imdb_id":"tt0285333","world_art_id":null,"type":"serial","add":"2018-09-20 12:22:58","orig_title":"Alias","year":"2001-09-30","translations":["Профессиональный (многоголосый закадровый) (Первый канал | ОРТ)","Профессиональный (многоголосый закадровый) (SET)"],"seasons_count":5,"episodes_count":105,"episodes":17,"update":"2018-09-28 07:35:12","iframe_src":"//2413.svetacdn.in/71tsRs29n5tZ/tv-series/3196"},{"id":3184,"title":"Акварели","kp_id":"1189791","imdb_id":null,"world_art_id":null,"type":"serial","add":"2018-09-18 15:39:49","orig_title":"Акварели","year":"2018-09-17","translations":["Оригинальная дорожка"],"seasons_count":1,"episodes_count":16,"episodes":16,"update":"2018-09-30 20:01:40","iframe_src":"//2413.svetacdn.in/71tsRs29n5tZ/tv-series/3184"},{"id":3123,"title":"Ищейка 3","kp_id":"1188068","imdb_id":null,"world_art_id":null,"type":"serial","add":"2018-09-04 18:41:22","orig_title":"Ищейка 3","year":"2018-09-03","translations":["Оригинальная дорожка"],"seasons_count":1,"episodes_count":16,"episodes":16,"update":"2018-09-28 10:21:23","iframe_src":"//2413.svetacdn.in/71tsRs29n5tZ/tv-series/3123"},{"id":2859,"title":"Дубль два","kp_id":"1142523","imdb_id":"tt5612866","world_art_id":null,"type":"serial","add":"2018-06-23 06:32:17","orig_title":"Take Two","year":"2018-06-21","translations":["Любительский (многоголосый закадровый) (ColdFilm)","Профессиональный (многоголосый закадровый) (NewStudio)"],"seasons_count":1,"episodes_count":13,"episodes":13,"update":"2018-09-28 09:09:51","iframe_src":"//2413.svetacdn.in/71tsRs29n5tZ/tv-series/2859"},{"id":1791,"title":"Студия 17","kp_id":"569824","imdb_id":"tt3507712","world_art_id":null,"type":"serial","add":"2017-11-30 13:13:12","orig_title":"Studiya 17","year":"2013-09-30","translations":["Оригинальная дорожка"],"seasons_count":1,"episodes_count":16,"episodes":16,"update":"2018-09-28 09:30:17","iframe_src":"//2413.svetacdn.in/71tsRs29n5tZ/tv-series/1791"},{"id":1728,"title":"По болезни","kp_id":"982447","imdb_id":"tt5770788","world_art_id":null,"type":"serial","add":"2017-11-13 06:28:18","orig_title":"Sick Note","year":"2017-11-07","translations":["Профессиональный (многоголосый закадровый) (Ozz.tv)"],"seasons_count":2,"episodes_count":14,"episodes":8,"update":"2018-09-29 09:20:18","iframe_src":"//2413.svetacdn.in/71tsRs29n5tZ/tv-series/1728"},{"id":536,"title":"Универ. Новая общага","kp_id":"630165","imdb_id":"tt3752220","world_art_id":null,"type":"serial","add":"2016-10-18 18:34:35","orig_title":"Univer. Novaya obschaga","year":"2016-10-10","translations":["Оригинальная дорожка"],"seasons_count":15,"episodes_count":294,"episodes":19,"update":"2018-09-25 20:05:48","iframe_src":"//2413.svetacdn.in/71tsRs29n5tZ/tv-series/536"},{"id":4055,"title":"Давайте потанцуем","kp_id":"12810","imdb_id":"tt0029546","world_art_id":null,"type":"movie","add":"2016-07-20 11:50:46","orig_title":"Shall We Dance","year":"1937-05-07","translations":["Профессиональный (многоголосый закадровый)","Профессиональный (многоголосый закадровый) (Светла)","[EN] Original (English)"],"quality":"webdl","translation":"Профессиональный (многоголосый закадровый)","update":"2021-08-09 06:41:00","iframe_src":"//2413.svetacdn.in/71tsRs29n5tZ/movie/4055"},{"id":2950,"title":"Молодой мастер","kp_id":"24721","imdb_id":"tt0081499","world_art_id":null,"type":"movie","add":"2016-06-06 21:00:35","orig_title":"Shi di chu ma","year":"1980-02-09","translations":["Профессиональный (многоголосый закадровый)","Авторский (одноголосый закадровый) (Санаев Павел)","Авторский (одноголосый закадровый) (Визгунов Сергей)","Профессиональный (многоголосый закадровый) (Инис)"],"quality":"bd","translation":"Профессиональный (многоголосый закадровый)","update":"2021-08-09 07:10:01","iframe_src":"//2413.svetacdn.in/71tsRs29n5tZ/movie/2950"},{"id":663,"title":"Боевой конь","kp_id":"492174","imdb_id":"tt1568911","world_art_id":null,"type":"movie","add":"2016-04-05 19:55:20","orig_title":"War Horse","year":"2011-12-04","translations":["Полное дублирование","[EN] Original (English)","Полное дублирование"],"quality":"bd","translation":"Полное дублирование","update":"2021-08-09 07:13:57","iframe_src":"//2413.svetacdn.in/71tsRs29n5tZ/movie/663"}],"current_page":516,"first_page_url":"https://videocdn.tv/api/short?limit=100&api_token=EnbO9h8pv1VyjbCJhg0WM9nG259n7mtz&cache3516=3516&page=1","from":51501,"last_page":720,"last_page_url":"https://videocdn.tv/api/short?limit=100&api_token=EnbO9h8pv1VyjbCJhg0WM9nG259n7mtz&cache3516=3516&page=720","next_page_url":"https://videocdn.tv/api/short?limit=100&api_token=EnbO9h8pv1VyjbCJhg0WM9nG259n7mtz&cache3516=3516&page=517","path":"https://videocdn.tv/api/short","per_page":100,"prev_page_url":"https://videocdn.tv/api/short?limit=100&api_token=EnbO9h8pv1VyjbCJhg0WM9nG259n7mtz&cache3516=3516&page=515","to":51540,"total":71963}