{"result":true,"data":[{"id":54360,"title":"Цыган","kp_id":"94232","imdb_id":"tt0071557","world_art_id":null,"type":"movie","add":"2021-11-07 14:21:03","orig_title":"Le Gitan","year":"1975-12-05","translations":["Профессиональный (двухголосый закадровый)"],"quality":"webdl","translation":"Профессиональный (двухголосый закадровый)","update":"2021-11-08 07:46:13","iframe_src":"//24213.svetacdn.in/IAF0wWTdNYZm/movie/54360"},{"id":54359,"title":"Злодей","kp_id":"17945","imdb_id":"tt0067952","world_art_id":null,"type":"movie","add":"2021-11-07 14:10:25","orig_title":"Villain","year":"1971-05-26","translations":["[EN] Original (English)","Профессиональный (многоголосый закадровый) (5-й канал СПб)"],"quality":"bd","translation":"[EN] Original (English)","update":"2021-11-08 07:45:07","iframe_src":"//24213.svetacdn.in/IAF0wWTdNYZm/movie/54359"},{"id":54358,"title":"Инквизиция","kp_id":"94411","imdb_id":"tt0064073","world_art_id":null,"type":"movie","add":"2021-11-07 14:08:52","orig_title":"Beatrice Cenci","year":"1969-11-14","translations":["Авторский (одноголосый закадровый) (Сонькин Владимир)","Авторский (одноголосый закадровый) (Алексеев Антон)"],"quality":"bd","translation":"Авторский (одноголосый закадровый) (Сонькин Владимир)","update":"2021-11-08 07:43:13","iframe_src":"//24213.svetacdn.in/IAF0wWTdNYZm/movie/54358"},{"id":54357,"title":"Любовница Нерона","kp_id":"11220","imdb_id":"tt0049508","world_art_id":null,"type":"movie","add":"2021-11-07 14:05:07","orig_title":"Mio figlio Nerone","year":"1956-09-13","translations":["Любительский (одноголосый закадровый) (Eugene Greene)"],"quality":"webdl","translation":"Любительский (одноголосый закадровый) (Eugene Greene)","update":"2021-11-08 07:47:56","iframe_src":"//24213.svetacdn.in/IAF0wWTdNYZm/movie/54357"},{"id":54356,"title":"Рождественские воры","kp_id":"2000289","imdb_id":"tt13557370","world_art_id":null,"type":"movie","add":"2021-11-07 09:32:36","orig_title":"Christmas Thieves","year":"2021-01-01","translations":["Любительский (многоголосый закадровый) (AlphaProject)"],"quality":"webdl","translation":"Любительский (многоголосый закадровый) (AlphaProject)","update":"2021-11-07 18:12:35","iframe_src":"//24213.svetacdn.in/IAF0wWTdNYZm/movie/54356"},{"id":54355,"title":"Доктор","kp_id":"1330159","imdb_id":"tt11374902","world_art_id":null,"type":"movie","add":"2021-11-07 09:30:35","orig_title":"Doctor","year":"2021-10-08","translations":["Любительский (многоголосый закадровый) (Синема УС)"],"quality":"webdl","translation":"Любительский (многоголосый закадровый) (Синема УС)","update":"2021-11-07 18:09:34","iframe_src":"//24213.svetacdn.in/IAF0wWTdNYZm/movie/54355"},{"id":54354,"title":"Лантернс Лейн","kp_id":"1359396","imdb_id":"tt11880264","world_art_id":null,"type":"movie","add":"2021-11-07 09:28:24","orig_title":"Lantern's Lane","year":"2021-11-05","translations":["Любительский (многоголосый закадровый) (Синема УС)"],"quality":"webdl","translation":"Любительский (многоголосый закадровый) (Синема УС)","update":"2021-11-07 18:08:23","iframe_src":"//24213.svetacdn.in/IAF0wWTdNYZm/movie/54354"},{"id":54353,"title":"Минакши Сундарешвар","kp_id":"2000726","imdb_id":"tt13529034","world_art_id":null,"type":"movie","add":"2021-11-07 09:26:22","orig_title":"Meenakshi Sundareshwar","year":"2021-11-05","translations":["Любительский (многоголосый закадровый) (Синема УС)"],"quality":"webdl","translation":"Любительский (многоголосый закадровый) (Синема УС)","update":"2021-11-07 18:07:05","iframe_src":"//24213.svetacdn.in/IAF0wWTdNYZm/movie/54353"},{"id":54348,"title":"Разжимая кулаки","kp_id":"1421574","imdb_id":"tt14775666","world_art_id":null,"type":"movie","add":"2021-11-07 07:52:31","orig_title":"Unclenching the Fists","year":"2021-07-10","translations":["Профессиональный (двухголосый закадровый) (Pazl Voice)"],"quality":"webdl","translation":"Профессиональный (двухголосый закадровый) (Pazl Voice)","update":"2021-11-07 17:12:08","iframe_src":"//24213.svetacdn.in/IAF0wWTdNYZm/movie/54348"},{"id":54346,"title":"Марк, Мэри и другие люди","kp_id":"1350763","imdb_id":"tt11832624","world_art_id":null,"type":"movie","add":"2021-11-06 18:32:53","orig_title":"Mark, Mary & Some Other People","year":"2021-06-10","translations":["Любительский (многоголосый закадровый) (Синема УС)"],"quality":"webdl","translation":"Любительский (многоголосый закадровый) (Синема УС)","update":"2021-11-07 07:00:37","iframe_src":"//24213.svetacdn.in/IAF0wWTdNYZm/movie/54346"},{"id":54345,"title":"Держись","kp_id":"1331637","imdb_id":"tt11453266","world_art_id":null,"type":"movie","add":"2021-11-06 18:16:12","orig_title":"Cheer Up","year":"2020-02-02","translations":["Любительский (многоголосый закадровый) (Синема УС)"],"quality":"webdl","translation":"Любительский (многоголосый закадровый) (Синема УС)","update":"2021-11-07 07:01:31","iframe_src":"//24213.svetacdn.in/IAF0wWTdNYZm/movie/54345"},{"id":54344,"title":"Почтальон-пекарь","kp_id":null,"imdb_id":"tt13061978","world_art_id":null,"type":"movie","add":"2021-11-06 18:14:27","orig_title":"Bakerz Union","year":"2020-09-04","translations":["Любительский (многоголосый закадровый) (Синема УС)"],"quality":"webdl","translation":"Любительский (многоголосый закадровый) (Синема УС)","update":"2021-11-07 07:02:08","iframe_src":"//24213.svetacdn.in/IAF0wWTdNYZm/movie/54344"},{"id":54341,"title":"Контрольный список","kp_id":"1389213","imdb_id":"tt12356886","world_art_id":null,"type":"movie","add":"2021-11-06 18:09:45","orig_title":"Checklist","year":"2020-11-12","translations":["Любительский (многоголосый закадровый) (Синема УС)"],"quality":"webdl","translation":"Любительский (многоголосый закадровый) (Синема УС)","update":"2021-11-07 07:02:32","iframe_src":"//24213.svetacdn.in/IAF0wWTdNYZm/movie/54341"},{"id":54340,"title":"Невидимая сторона","kp_id":"1264719","imdb_id":"tt10168094","world_art_id":null,"type":"movie","add":"2021-11-06 18:06:47","orig_title":"Shadow Parties","year":"2021-09-06","translations":["Любительский (многоголосый закадровый) (Синема УС)"],"quality":"webdl","translation":"Любительский (многоголосый закадровый) (Синема УС)","update":"2021-11-07 07:04:32","iframe_src":"//24213.svetacdn.in/IAF0wWTdNYZm/movie/54340"},{"id":54339,"title":"Стабильная жизнь с неограниченными трансформациями","kp_id":"4294121","imdb_id":"tt13642786","world_art_id":null,"type":"movie","add":"2021-11-06 18:05:02","orig_title":"Sustainable Life with Unlimited Transformations","year":"2021-01-13","translations":["Любительский (многоголосый закадровый) (Синема УС)"],"quality":"webdl","translation":"Любительский (многоголосый закадровый) (Синема УС)","update":"2021-11-07 07:04:56","iframe_src":"//24213.svetacdn.in/IAF0wWTdNYZm/movie/54339"},{"id":54338,"title":"Менс","kp_id":"1255290","imdb_id":"tt10125774","world_art_id":null,"type":"movie","add":"2021-11-06 18:03:10","orig_title":"Mens","year":"2019-01-27","translations":["Любительский (многоголосый закадровый) (Синема УС)"],"quality":"webdl","translation":"Любительский (многоголосый закадровый) (Синема УС)","update":"2021-11-07 07:05:23","iframe_src":"//24213.svetacdn.in/IAF0wWTdNYZm/movie/54338"},{"id":54337,"title":"Нация третьего глаза: засекреченные материалы","kp_id":"1123421","imdb_id":"tt7895566","world_art_id":null,"type":"movie","add":"2021-11-06 17:59:45","orig_title":"Nation of the third Eye","year":"2019-01-01","translations":["Любительский (многоголосый закадровый) (Синема УС)"],"quality":"webdl","translation":"Любительский (многоголосый закадровый) (Синема УС)","update":"2021-11-07 07:05:48","iframe_src":"//24213.svetacdn.in/IAF0wWTdNYZm/movie/54337"},{"id":54336,"title":"Побег из блока смертников 13","kp_id":"1172637","imdb_id":"tt8674464","world_art_id":null,"type":"movie","add":"2021-11-06 17:56:21","orig_title":"Escape from Death Block 13","year":"2021-10-01","translations":["Любительский (многоголосый закадровый) (@MUZOBOZ@)"],"quality":"webdl","translation":"Любительский (многоголосый закадровый) (@MUZOBOZ@)","update":"2021-11-07 07:06:45","iframe_src":"//24213.svetacdn.in/IAF0wWTdNYZm/movie/54336"},{"id":54334,"title":"Вечеринка по всему Земному шару","kp_id":"1327137","imdb_id":"tt7578946","world_art_id":null,"type":"movie","add":"2021-11-06 17:51:21","orig_title":"Chikyû wa omatsurisawagi","year":"2017-10-28","translations":["Любительский (многоголосый закадровый) (Синема УС)"],"quality":"webdl","translation":"Любительский (многоголосый закадровый) (Синема УС)","update":"2021-11-07 07:06:28","iframe_src":"//24213.svetacdn.in/IAF0wWTdNYZm/movie/54334"},{"id":35606,"title":"Небесный ястреб","kp_id":"37180","imdb_id":"tt0071632","world_art_id":null,"type":"movie","add":"2020-01-29 08:05:11","orig_title":"Huang Fei Hong xiao lin quan","year":"1974-01-22","translations":["Авторский (одноголосый закадровый) (Кузнецов Сергей)","Авторский (одноголосый закадровый) (Кузнецов Сергей)"],"quality":"dvdrip","translation":"Авторский (одноголосый закадровый) (Кузнецов Сергей)","update":"2021-11-08 07:50:13","iframe_src":"//24213.svetacdn.in/IAF0wWTdNYZm/movie/35606"},{"id":5877,"title":"Красный шатёр","kp_id":"840343","imdb_id":"tt3068894","world_art_id":null,"type":"serial","add":"2019-11-28 07:40:37","orig_title":"The Red Tent","year":"2014-12-07","translations":["Профессиональный (многоголосый закадровый) (ViruseProject)"],"seasons_count":1,"episodes_count":2,"episodes":2,"update":"2019-11-28 12:04:35","iframe_src":"//24213.svetacdn.in/IAF0wWTdNYZm/tv-series/5877"},{"id":5871,"title":"Невеста с заправки","kp_id":"844126","imdb_id":null,"world_art_id":null,"type":"serial","add":"2019-11-27 19:59:04","orig_title":"Невеста с заправки","year":"2014-11-30","translations":["Оригинальная дорожка"],"seasons_count":1,"episodes_count":2,"episodes":2,"update":"2019-11-28 13:59:33","iframe_src":"//24213.svetacdn.in/IAF0wWTdNYZm/tv-series/5871"},{"id":5870,"title":"Украденная свадьба","kp_id":"941546","imdb_id":null,"world_art_id":null,"type":"serial","add":"2019-11-27 19:57:15","orig_title":"Украденная свадьба","year":"2015-11-01","translations":["Оригинальная дорожка"],"seasons_count":1,"episodes_count":4,"episodes":4,"update":"2019-11-28 13:58:44","iframe_src":"//24213.svetacdn.in/IAF0wWTdNYZm/tv-series/5870"},{"id":5867,"title":"Артист","kp_id":"1255114","imdb_id":null,"world_art_id":null,"type":"serial","add":"2019-11-27 18:40:21","orig_title":"Артист","year":"2019-01-01","translations":["Оригинальная дорожка"],"seasons_count":1,"episodes_count":8,"episodes":8,"update":"2019-11-28 05:12:19","iframe_src":"//24213.svetacdn.in/IAF0wWTdNYZm/tv-series/5867"},{"id":5866,"title":"Любовь по контракту","kp_id":"1254888","imdb_id":null,"world_art_id":null,"type":"serial","add":"2019-11-27 18:36:53","orig_title":"Любовь по контракту","year":"2019-03-15","translations":["Оригинальная дорожка"],"seasons_count":1,"episodes_count":4,"episodes":4,"update":"2019-11-28 04:39:25","iframe_src":"//24213.svetacdn.in/IAF0wWTdNYZm/tv-series/5866"},{"id":5865,"title":"Колдуньи","kp_id":"1253692","imdb_id":null,"world_art_id":null,"type":"serial","add":"2019-11-27 18:30:03","orig_title":"Колдуньи","year":"2018-12-11","translations":["Оригинальная дорожка"],"seasons_count":1,"episodes_count":12,"episodes":12,"update":"2019-11-28 04:36:21","iframe_src":"//24213.svetacdn.in/IAF0wWTdNYZm/tv-series/5865"},{"id":5863,"title":"С волками жить","kp_id":"1254495","imdb_id":"tt10096158","world_art_id":null,"type":"serial","add":"2019-11-27 11:35:07","orig_title":"S volkami zhit","year":"2019-03-25","translations":["Оригинальная дорожка"],"seasons_count":1,"episodes_count":8,"episodes":8,"update":"2019-11-28 05:20:15","iframe_src":"//24213.svetacdn.in/IAF0wWTdNYZm/tv-series/5863"},{"id":5858,"title":"Роскошная комедия Ноэля Филдинга","kp_id":"665935","imdb_id":"tt2220083","world_art_id":null,"type":"serial","add":"2019-11-26 21:10:36","orig_title":"Noel Fielding's Luxury Comedy","year":"2012-01-26","translations":["Любительский (одноголосый закадровый)","Любительский (двухголосый закадровый) (Jimmy J.)"],"seasons_count":2,"episodes_count":12,"episodes":5,"update":"2019-11-27 20:42:54","iframe_src":"//24213.svetacdn.in/IAF0wWTdNYZm/tv-series/5858"},{"id":5856,"title":"Строговы","kp_id":"94958","imdb_id":"tt0072569","world_art_id":null,"type":"serial","add":"2019-11-26 14:28:10","orig_title":"Strogovy","year":"1976-02-10","translations":["Оригинальная дорожка"],"seasons_count":1,"episodes_count":8,"episodes":8,"update":"2019-11-27 20:35:57","iframe_src":"//24213.svetacdn.in/IAF0wWTdNYZm/tv-series/5856"},{"id":5855,"title":"Открытая книга","kp_id":"400748","imdb_id":"tt0075554","world_art_id":null,"type":"serial","add":"2019-11-26 14:22:10","orig_title":"Otkrytaya kniga","year":"1980-01-08","translations":["Оригинальная дорожка"],"seasons_count":1,"episodes_count":9,"episodes":9,"update":"2019-11-27 20:32:11","iframe_src":"//24213.svetacdn.in/IAF0wWTdNYZm/tv-series/5855"},{"id":5854,"title":"Радости земные","kp_id":"471794","imdb_id":"tt5698280","world_art_id":null,"type":"serial","add":"2019-11-26 14:19:36","orig_title":"Radosti zemnye","year":"1988-06-19","translations":["Оригинальная дорожка"],"seasons_count":1,"episodes_count":6,"episodes":6,"update":"2019-11-27 20:27:54","iframe_src":"//24213.svetacdn.in/IAF0wWTdNYZm/tv-series/5854"},{"id":5853,"title":"Хождение по мукам","kp_id":"130664","imdb_id":"tt0173558","world_art_id":null,"type":"serial","add":"2019-11-26 14:12:58","orig_title":"Khozhdenie po mukam","year":"1977-10-11","translations":["Оригинальная дорожка"],"seasons_count":1,"episodes_count":13,"episodes":13,"update":"2019-11-27 12:34:00","iframe_src":"//24213.svetacdn.in/IAF0wWTdNYZm/tv-series/5853"},{"id":5852,"title":"Степные дети","kp_id":"659266","imdb_id":"tt3390592","world_art_id":null,"type":"serial","add":"2019-11-26 14:10:09","orig_title":"Stepnye deti","year":"2012-04-14","translations":["Оригинальная дорожка"],"seasons_count":1,"episodes_count":4,"episodes":4,"update":"2019-11-27 12:20:04","iframe_src":"//24213.svetacdn.in/IAF0wWTdNYZm/tv-series/5852"},{"id":5851,"title":"На всю оставшуюся жизнь","kp_id":"46287","imdb_id":"tt0198798","world_art_id":null,"type":"serial","add":"2019-11-26 14:07:11","orig_title":"Na vsyu ostavshuyusya zhizn...","year":"1975-06-15","translations":["Оригинальная дорожка"],"seasons_count":1,"episodes_count":4,"episodes":4,"update":"2019-11-27 12:18:24","iframe_src":"//24213.svetacdn.in/IAF0wWTdNYZm/tv-series/5851"},{"id":5850,"title":"Маленькие трагедии","kp_id":"77280","imdb_id":"tt0078648","world_art_id":null,"type":"serial","add":"2019-11-26 14:03:03","orig_title":"Malenkie tragedii","year":"1980-07-01","translations":["Оригинальная дорожка"],"seasons_count":1,"episodes_count":3,"episodes":3,"update":"2019-11-27 12:16:44","iframe_src":"//24213.svetacdn.in/IAF0wWTdNYZm/tv-series/5850"},{"id":5818,"title":"Нубы","kp_id":"1294815","imdb_id":"tt10763852","world_art_id":null,"type":"serial","add":"2019-11-24 13:56:49","orig_title":"Noobees","year":"2018-09-17","translations":["Полное дублирование"],"seasons_count":1,"episodes_count":60,"episodes":60,"update":"2019-11-27 13:56:16","iframe_src":"//24213.svetacdn.in/IAF0wWTdNYZm/tv-series/5818"},{"id":5767,"title":"Отрезанные от мира","kp_id":"1316638","imdb_id":"tt9310400","world_art_id":null,"type":"serial","add":"2019-11-17 22:23:18","orig_title":"The Stranded","year":"2019-11-15","translations":["Профессиональный (двухголосый закадровый) (IdeaFilm)"],"seasons_count":1,"episodes_count":7,"episodes":7,"update":"2019-11-27 09:56:02","iframe_src":"//24213.svetacdn.in/IAF0wWTdNYZm/tv-series/5767"},{"id":5677,"title":"Типа счастье","kp_id":"784783","imdb_id":"tt3095080","world_art_id":null,"type":"serial","add":"2019-11-07 08:43:01","orig_title":"Happyish","year":"2015-04-26","translations":["Профессиональный (двухголосый закадровый) (Кубик в Кубе | Kubik³)"],"seasons_count":1,"episodes_count":10,"episodes":10,"update":"2019-11-27 10:11:58","iframe_src":"//24213.svetacdn.in/IAF0wWTdNYZm/tv-series/5677"},{"id":4616,"title":"Пять дней","kp_id":"989064","imdb_id":"tt5707408","world_art_id":null,"type":"serial","add":"2019-06-02 18:53:44","orig_title":"Day 5","year":"2016-06-19","translations":["Профессиональный (двухголосый закадровый) (ViruseProject)"],"seasons_count":2,"episodes_count":14,"episodes":8,"update":"2019-11-28 07:10:57","iframe_src":"//24213.svetacdn.in/IAF0wWTdNYZm/tv-series/4616"},{"id":3275,"title":"Тени","kp_id":"893585","imdb_id":"tt4269716","world_art_id":null,"type":"serial","add":"2018-10-09 12:50:17","orig_title":"Umbre","year":"2014-12-28","translations":["Профессиональный (многоголосый закадровый)","Профессиональный (двухголосый закадровый) (ViruseProject)","Профессиональный (двухголосый закадровый) (Gears Media)"],"seasons_count":3,"episodes_count":16,"episodes":2,"update":"2019-11-27 16:36:26","iframe_src":"//24213.svetacdn.in/IAF0wWTdNYZm/tv-series/3275"}],"current_page":425,"first_page_url":"https://videocdn.tv/api/short?limit=100&api_token=6Onb1W1alEUrBcKJZD3GoKBbWyAl2uG2&cache3425=3425&page=1","from":42401,"last_page":725,"last_page_url":"https://videocdn.tv/api/short?limit=100&api_token=6Onb1W1alEUrBcKJZD3GoKBbWyAl2uG2&cache3425=3425&page=725","next_page_url":"https://videocdn.tv/api/short?limit=100&api_token=6Onb1W1alEUrBcKJZD3GoKBbWyAl2uG2&cache3425=3425&page=426","path":"https://videocdn.tv/api/short","per_page":100,"prev_page_url":"https://videocdn.tv/api/short?limit=100&api_token=6Onb1W1alEUrBcKJZD3GoKBbWyAl2uG2&cache3425=3425&page=424","to":42440,"total":72491}