{"result":true,"data":[{"id":25328,"title":"Акулы: Вымирание","kp_id":"1228590","imdb_id":"tt6026818","world_art_id":null,"type":"movie","add":"2019-04-25 21:18:22","orig_title":"Sharkwater Extinction","year":"2018-09-07","translations":["Любительский (многоголосый закадровый) (Синема УС)"],"quality":"webdl","translation":"Любительский (многоголосый закадровый) (Синема УС)","update":"2019-04-26 05:23:37","iframe_src":"//83.svetacdn.in/PfJ50H0ZBPg3/movie/25328"},{"id":25325,"title":"Медуза","kp_id":"1010735","imdb_id":"tt6490394","world_art_id":null,"type":"movie","add":"2019-04-25 21:13:40","orig_title":"Jellyfish","year":"2018-04-20","translations":["Любительский (многоголосый закадровый) (Синема УС)"],"quality":"webdl","translation":"Любительский (многоголосый закадровый) (Синема УС)","update":"2019-04-26 04:56:22","iframe_src":"//83.svetacdn.in/PfJ50H0ZBPg3/movie/25325"},{"id":25324,"title":"Клоун Восьмёрка","kp_id":"1080823","imdb_id":"tt6704038","world_art_id":null,"type":"movie","add":"2019-04-25 21:12:06","orig_title":"8 Ball Clown","year":"2018-09-01","translations":["Любительский (многоголосый закадровый) (Синема УС)"],"quality":"webdl","translation":"Любительский (многоголосый закадровый) (Синема УС)","update":"2019-04-26 04:58:47","iframe_src":"//83.svetacdn.in/PfJ50H0ZBPg3/movie/25324"},{"id":25323,"title":"Трасса 318","kp_id":"1245272","imdb_id":"tt7532202","world_art_id":null,"type":"movie","add":"2019-04-25 21:10:05","orig_title":"318 hao gong lu","year":"2017-10-16","translations":["Любительский (многоголосый закадровый) (Синема УС)"],"quality":"webdl","translation":"Любительский (многоголосый закадровый) (Синема УС)","update":"2019-04-26 04:57:25","iframe_src":"//83.svetacdn.in/PfJ50H0ZBPg3/movie/25323"},{"id":25321,"title":"Кровь и Нефть","kp_id":"1204424","imdb_id":"tt9149306","world_art_id":null,"type":"movie","add":"2019-04-25 21:05:31","orig_title":"Blood & Oil","year":"2019-04-17","translations":["Любительский (многоголосый закадровый) (Синема УС)"],"quality":"webdl","translation":"Любительский (многоголосый закадровый) (Синема УС)","update":"2019-04-26 05:05:04","iframe_src":"//83.svetacdn.in/PfJ50H0ZBPg3/movie/25321"},{"id":25313,"title":"Лимита","kp_id":"41292","imdb_id":"tt0110355","world_art_id":null,"type":"movie","add":"2019-04-25 10:03:43","orig_title":"Limita","year":"1995-08-30","translations":["Оригинальная дорожка"],"quality":"tv","translation":"Оригинальная дорожка","update":"2019-04-26 05:52:21","iframe_src":"//83.svetacdn.in/PfJ50H0ZBPg3/movie/25313"},{"id":25312,"title":"Лох – победитель воды","kp_id":"41296","imdb_id":"tt0104747","world_art_id":null,"type":"movie","add":"2019-04-25 10:00:06","orig_title":"Lokh pobeditel vody","year":"1991-01-01","translations":["Оригинальная дорожка"],"quality":"dvdrip","translation":"Оригинальная дорожка","update":"2019-04-26 05:51:07","iframe_src":"//83.svetacdn.in/PfJ50H0ZBPg3/movie/25312"},{"id":25311,"title":"Мечтать не вредно","kp_id":"84225","imdb_id":"tt0415981","world_art_id":null,"type":"movie","add":"2019-04-25 09:56:20","orig_title":"Mechtat ne vredno","year":"2005-08-18","translations":["Оригинальная дорожка"],"quality":"dvdrip","translation":"Оригинальная дорожка","update":"2019-04-26 05:40:02","iframe_src":"//83.svetacdn.in/PfJ50H0ZBPg3/movie/25311"},{"id":25310,"title":"Морской характер","kp_id":"461769","imdb_id":"tt4668050","world_art_id":null,"type":"movie","add":"2019-04-25 09:52:29","orig_title":"Morskoy kharakter","year":"1970-10-13","translations":["Оригинальная дорожка"],"quality":"dvdrip","translation":"Оригинальная дорожка","update":"2019-04-26 05:38:39","iframe_src":"//83.svetacdn.in/PfJ50H0ZBPg3/movie/25310"},{"id":25309,"title":"Научная секция пилотов","kp_id":"63893","imdb_id":"tt0127699","world_art_id":null,"type":"movie","add":"2019-04-25 09:45:21","orig_title":"Nauchnaya sektsiya pilotov","year":"1996-01-01","translations":["Оригинальная дорожка"],"quality":"dvdrip","translation":"Оригинальная дорожка","update":"2019-04-26 05:37:42","iframe_src":"//83.svetacdn.in/PfJ50H0ZBPg3/movie/25309"},{"id":25308,"title":"Не хлебом единым","kp_id":"252062","imdb_id":"tt0777962","world_art_id":null,"type":"movie","add":"2019-04-25 09:39:48","orig_title":"Ne khlebom edinym","year":"2005-10-15","translations":["Оригинальная дорожка"],"quality":"hdtv","translation":"Оригинальная дорожка","update":"2019-04-26 05:36:22","iframe_src":"//83.svetacdn.in/PfJ50H0ZBPg3/movie/25308"},{"id":25307,"title":"Незнакомый наследник","kp_id":"46414","imdb_id":"tt0353791","world_art_id":null,"type":"movie","add":"2019-04-25 08:57:38","orig_title":"Neznakomy naslednik","year":"1974-01-19","translations":["Оригинальная дорожка"],"quality":"sat","translation":"Оригинальная дорожка","update":"2019-04-26 05:35:17","iframe_src":"//83.svetacdn.in/PfJ50H0ZBPg3/movie/25307"},{"id":25306,"title":"Ни шагу назад!","kp_id":"431066","imdb_id":null,"world_art_id":null,"type":"movie","add":"2019-04-25 08:53:34","orig_title":"Ни шагу назад!","year":"2008-02-21","translations":["Оригинальная дорожка"],"quality":"dvdrip","translation":"Оригинальная дорожка","update":"2019-04-26 05:34:14","iframe_src":"//83.svetacdn.in/PfJ50H0ZBPg3/movie/25306"},{"id":25305,"title":"Петровка, 38","kp_id":"42970","imdb_id":"tt0081332","world_art_id":null,"type":"movie","add":"2019-04-25 08:48:28","orig_title":"Petrovka, 38","year":"1980-07-28","translations":["Оригинальная дорожка"],"quality":"dvdrip","translation":"Оригинальная дорожка","update":"2019-04-26 05:32:42","iframe_src":"//83.svetacdn.in/PfJ50H0ZBPg3/movie/25305"},{"id":25304,"title":"Попугай, говорящий на идиш","kp_id":"43122","imdb_id":"tt0100387","world_art_id":null,"type":"movie","add":"2019-04-25 08:44:42","orig_title":"Popugay, govoryashchiy na idish","year":"1990-01-01","translations":["Оригинальная дорожка"],"quality":"sat","translation":"Оригинальная дорожка","update":"2019-04-26 05:31:11","iframe_src":"//83.svetacdn.in/PfJ50H0ZBPg3/movie/25304"},{"id":25303,"title":"Проделки в старинном духе","kp_id":"43292","imdb_id":"tt0091793","world_art_id":null,"type":"movie","add":"2019-04-25 08:41:16","orig_title":"Prodelki v starinnom dukhe","year":"1986-08-12","translations":["Оригинальная дорожка"],"quality":"dvdrip","translation":"Оригинальная дорожка","update":"2019-04-26 05:30:10","iframe_src":"//83.svetacdn.in/PfJ50H0ZBPg3/movie/25303"},{"id":25302,"title":"Роковые яйца","kp_id":"40723","imdb_id":"tt0117508","world_art_id":null,"type":"movie","add":"2019-04-25 08:37:08","orig_title":"Rokovye yaytsa","year":"1996-01-01","translations":["Оригинальная дорожка"],"quality":"dvdrip","translation":"Оригинальная дорожка","update":"2019-04-26 05:28:32","iframe_src":"//83.svetacdn.in/PfJ50H0ZBPg3/movie/25302"},{"id":25301,"title":"Светлая личность","kp_id":"44052","imdb_id":"tt0096198","world_art_id":null,"type":"movie","add":"2019-04-25 08:32:03","orig_title":"Svetlaya lichnost","year":"1989-01-01","translations":["Оригинальная дорожка"],"quality":"dvdrip","translation":"Оригинальная дорожка","update":"2019-04-26 05:27:19","iframe_src":"//83.svetacdn.in/PfJ50H0ZBPg3/movie/25301"},{"id":25300,"title":"Таежная повесть","kp_id":"42217","imdb_id":"tt0157099","world_art_id":null,"type":"movie","add":"2019-04-25 08:28:34","orig_title":"Tayozhnaya povest","year":"1980-01-21","translations":["Оригинальная дорожка"],"quality":"sat","translation":"Оригинальная дорожка","update":"2019-04-26 05:26:14","iframe_src":"//83.svetacdn.in/PfJ50H0ZBPg3/movie/25300"},{"id":25299,"title":"Черная акула","kp_id":"411703","imdb_id":"tt5140952","world_art_id":null,"type":"movie","add":"2019-04-25 08:23:48","orig_title":"Chyornaya akula","year":"1993-01-01","translations":["Оригинальная дорожка"],"quality":"tv","translation":"Оригинальная дорожка","update":"2019-04-26 05:25:00","iframe_src":"//83.svetacdn.in/PfJ50H0ZBPg3/movie/25299"}],"current_page":1559,"first_page_url":"https://videocdn.tv/api/short?limit=100&api_token=RgFQdUIR2dRmwv8iYa5SnFNgnw3vpjKj&cache31559=31559&page=1","from":155801,"last_page":648,"last_page_url":"https://videocdn.tv/api/short?limit=100&api_token=RgFQdUIR2dRmwv8iYa5SnFNgnw3vpjKj&cache31559=31559&page=648","next_page_url":null,"path":"https://videocdn.tv/api/short","per_page":100,"prev_page_url":"https://videocdn.tv/api/short?limit=100&api_token=RgFQdUIR2dRmwv8iYa5SnFNgnw3vpjKj&cache31559=31559&page=1558","to":155820,"total":64767}