{"result":true,"data":[{"id":32816,"title":"Меченосцы","kp_id":"566095","imdb_id":"tt1718199","world_art_id":null,"type":"movie","add":"2019-11-07 07:37:53","orig_title":"Wu xia","year":"2011-05-13","translations":["Любительский (одноголосый закадровый)"],"quality":"bd","translation":"Любительский (одноголосый закадровый)","update":"2019-11-08 13:24:33","iframe_src":"//7720.svetacdn.in/71tsRs29n5tZ/movie/32816"},{"id":32811,"title":"Жена художника","kp_id":"695503","imdb_id":"tt1961192","world_art_id":null,"type":"movie","add":"2019-11-07 07:20:37","orig_title":"Marie Krøyer","year":"2012-09-27","translations":["Профессиональный (многоголосый закадровый)"],"quality":"bd","translation":"Профессиональный (многоголосый закадровый)","update":"2019-11-08 12:27:31","iframe_src":"//7720.svetacdn.in/71tsRs29n5tZ/movie/32811"},{"id":32807,"title":"Человек из Рио","kp_id":"32387","imdb_id":"tt0058203","world_art_id":null,"type":"movie","add":"2019-11-07 07:09:05","orig_title":"L'homme de Rio","year":"1964-02-05","translations":["Полное дублирование"],"quality":"bd","translation":"Полное дублирование","update":"2019-11-08 12:34:52","iframe_src":"//7720.svetacdn.in/71tsRs29n5tZ/movie/32807"},{"id":32805,"title":"Путь в тысячу миль","kp_id":"87848","imdb_id":"tt0437447","world_art_id":null,"type":"movie","add":"2019-11-06 21:27:09","orig_title":"Qian li zou dan qi","year":"2005-10-22","translations":["Профессиональный (многоголосый закадровый)"],"quality":"dvdrip","translation":"Профессиональный (многоголосый закадровый)","update":"2019-11-08 13:22:57","iframe_src":"//7720.svetacdn.in/71tsRs29n5tZ/movie/32805"},{"id":32804,"title":"Всё, что мне осталось от тебя","kp_id":"894321","imdb_id":"tt4508986","world_art_id":null,"type":"movie","add":"2019-11-06 21:20:49","orig_title":"Senden Bana Kalan","year":"2015-04-17","translations":["Любительский (двухголосый закадровый)"],"quality":"webdl","translation":"Любительский (двухголосый закадровый)","update":"2019-11-08 13:22:27","iframe_src":"//7720.svetacdn.in/71tsRs29n5tZ/movie/32804"},{"id":32803,"title":"Храм Шаолинь","kp_id":"23612","imdb_id":"tt0079891","world_art_id":null,"type":"movie","add":"2019-11-06 21:18:06","orig_title":"Shao Lin si","year":"1982-01-21","translations":["Авторский (одноголосый закадровый) (Кузнецов Сергей)"],"quality":"bd","translation":"Авторский (одноголосый закадровый) (Кузнецов Сергей)","update":"2019-11-08 13:21:40","iframe_src":"//7720.svetacdn.in/71tsRs29n5tZ/movie/32803"},{"id":32802,"title":"Светлое будущее 2: Ураганный огонь","kp_id":"5372","imdb_id":"tt0094357","world_art_id":null,"type":"movie","add":"2019-11-06 21:12:31","orig_title":"Ying hung boon sik II","year":"1987-12-17","translations":["Профессиональный (многоголосый закадровый) (Фильм Престиж)"],"quality":"bd","translation":"Профессиональный (многоголосый закадровый) (Фильм Престиж)","update":"2019-11-08 13:20:23","iframe_src":"//7720.svetacdn.in/71tsRs29n5tZ/movie/32802"},{"id":32800,"title":"Ход конём","kp_id":"780337","imdb_id":"tt3204366","world_art_id":null,"type":"movie","add":"2019-11-06 21:03:48","orig_title":"Khod konem","year":"2013-10-10","translations":["Профессиональный (многоголосый закадровый)"],"quality":"webdl","translation":"Профессиональный (многоголосый закадровый)","update":"2019-11-08 13:13:43","iframe_src":"//7720.svetacdn.in/71tsRs29n5tZ/movie/32800"},{"id":32799,"title":"Зеро 2","kp_id":"497882","imdb_id":"tt1592292","world_art_id":null,"type":"movie","add":"2019-11-06 20:57:19","orig_title":"Zero 2","year":"2010-01-20","translations":["Профессиональный (одноголосый закадровый)"],"quality":"bd","translation":"Профессиональный (одноголосый закадровый)","update":"2019-11-08 12:50:21","iframe_src":"//7720.svetacdn.in/71tsRs29n5tZ/movie/32799"},{"id":32798,"title":"Он и она","kp_id":"772356","imdb_id":"tt4190402","world_art_id":null,"type":"movie","add":"2019-11-06 20:53:44","orig_title":"On i Ona","year":"2013-10-10","translations":["Оригинальная дорожка"],"quality":"webdl","translation":"Оригинальная дорожка","update":"2019-11-08 12:49:24","iframe_src":"//7720.svetacdn.in/71tsRs29n5tZ/movie/32798"},{"id":32794,"title":"Проклятие: Старуха в белом","kp_id":"463920","imdb_id":"tt1422675","world_art_id":null,"type":"movie","add":"2019-11-06 20:35:53","orig_title":"Ju-on: Shiroi rôjo","year":"2009-06-27","translations":["Любительский (одноголосый закадровый)"],"quality":"bd","translation":"Любительский (одноголосый закадровый)","update":"2019-11-08 11:19:47","iframe_src":"//7720.svetacdn.in/71tsRs29n5tZ/movie/32794"},{"id":32793,"title":"Дон Лучиано","kp_id":"15025","imdb_id":"tt0071782","world_art_id":null,"type":"movie","add":"2019-11-06 20:34:08","orig_title":"Lucky Luciano","year":"1973-10-19","translations":["Профессиональный (двухголосый закадровый)"],"quality":"dvdrip","translation":"Профессиональный (двухголосый закадровый)","update":"2019-11-08 11:20:59","iframe_src":"//7720.svetacdn.in/71tsRs29n5tZ/movie/32793"},{"id":32790,"title":"Проклятие 2","kp_id":"77045","imdb_id":"tt0367913","world_art_id":null,"type":"movie","add":"2019-11-06 20:25:22","orig_title":"Ju-on 2","year":"2003-08-15","translations":["Профессиональный (многоголосый закадровый)"],"quality":"bd","translation":"Профессиональный (многоголосый закадровый)","update":"2019-11-08 12:30:32","iframe_src":"//7720.svetacdn.in/71tsRs29n5tZ/movie/32790"},{"id":32789,"title":"Вафельная улица","kp_id":"853425","imdb_id":"tt3881680","world_art_id":null,"type":"movie","add":"2019-11-06 20:21:39","orig_title":"Waffle Street","year":"2015-09-24","translations":["Любительский (двухголосый закадровый)"],"quality":"webdl","translation":"Любительский (двухголосый закадровый)","update":"2019-11-08 11:22:47","iframe_src":"//7720.svetacdn.in/71tsRs29n5tZ/movie/32789"},{"id":32761,"title":"Встреча подарившая любовь","kp_id":"261962","imdb_id":"tt0833476","world_art_id":null,"type":"movie","add":"2019-11-05 21:12:42","orig_title":"Jhoom Barabar Jhoom","year":"2007-06-15","translations":["Профессиональный (многоголосый закадровый)"],"quality":"dvdrip","translation":"Профессиональный (многоголосый закадровый)","update":"2019-11-08 12:46:06","iframe_src":"//7720.svetacdn.in/71tsRs29n5tZ/movie/32761"},{"id":32759,"title":"Прекрасный дождь","kp_id":"394709","imdb_id":"tt1067086","world_art_id":null,"type":"movie","add":"2019-11-05 21:05:16","orig_title":"Suwîto rein: Shinigami no seido","year":"2008-03-22","translations":["Любительский (одноголосый закадровый)"],"quality":"dvdrip","translation":"Любительский (одноголосый закадровый)","update":"2019-11-08 12:43:27","iframe_src":"//7720.svetacdn.in/71tsRs29n5tZ/movie/32759"},{"id":32758,"title":"Тайная миссия","kp_id":"756940","imdb_id":"tt2967578","world_art_id":null,"type":"movie","add":"2019-11-05 20:53:46","orig_title":"Eunmilhage widaehage","year":"2013-06-05","translations":["Любительский (двухголосый закадровый) (GREEN TEA)"],"quality":"bd","translation":"Любительский (двухголосый закадровый) (GREEN TEA)","update":"2019-11-08 12:42:52","iframe_src":"//7720.svetacdn.in/71tsRs29n5tZ/movie/32758"},{"id":32757,"title":"Попытка преступления","kp_id":"65339","imdb_id":"tt0048037","world_art_id":null,"type":"movie","add":"2019-11-05 20:50:06","orig_title":"Ensayo de un crimen","year":"1955-05-19","translations":["Профессиональный (двухголосый закадровый) (СВ-Дубль)"],"quality":"dvdrip","translation":"Профессиональный (двухголосый закадровый) (СВ-Дубль)","update":"2019-11-08 12:41:58","iframe_src":"//7720.svetacdn.in/71tsRs29n5tZ/movie/32757"},{"id":32702,"title":"Закат американской империи","kp_id":"83185","imdb_id":"tt0090985","world_art_id":null,"type":"movie","add":"2019-11-04 22:11:18","orig_title":"Le déclin de l'empire américain","year":"1986-06-19","translations":["Профессиональный (двухголосый закадровый) (НТВ)"],"quality":"bd","translation":"Профессиональный (двухголосый закадровый) (НТВ)","update":"2019-11-08 12:33:13","iframe_src":"//7720.svetacdn.in/71tsRs29n5tZ/movie/32702"},{"id":29890,"title":"Оленья кожа","kp_id":"1130363","imdb_id":"tt8193790","world_art_id":null,"type":"movie","add":"2019-08-10 14:09:12","orig_title":"Le daim","year":"2019-05-15","translations":["Полное дублирование"],"quality":"webdl","translation":"Полное дублирование","update":"2019-11-08 12:22:00","iframe_src":"//7720.svetacdn.in/71tsRs29n5tZ/movie/29890"}],"current_page":1190,"first_page_url":"https://videocdn.tv/api/short?limit=100&api_token=EnbO9h8pv1VyjbCJhg0WM9nG259n7mtz&cache31190=31190&page=1","from":118901,"last_page":651,"last_page_url":"https://videocdn.tv/api/short?limit=100&api_token=EnbO9h8pv1VyjbCJhg0WM9nG259n7mtz&cache31190=31190&page=651","next_page_url":null,"path":"https://videocdn.tv/api/short","per_page":100,"prev_page_url":"https://videocdn.tv/api/short?limit=100&api_token=EnbO9h8pv1VyjbCJhg0WM9nG259n7mtz&cache31190=31190&page=1189","to":118920,"total":65055}