{"result":true,"data":[{"id":1168,"title":"Африканец","kp_id":"21309","imdb_id":"tt0085141","world_art_id":null,"type":"movie","add":"2016-04-15 07:25:15","orig_title":"L'Africain","year":"1983-03-02","translations":["Полное дублирование"],"quality":"bd","translation":"Полное дублирование","update":"2016-04-15 11:39:31","iframe_src":"//83.svetacdn.in/PfJ50H0ZBPg3/movie/1168"},{"id":1167,"title":"День Кобры","kp_id":"91207","imdb_id":"tt0082451","world_art_id":null,"type":"movie","add":"2016-04-15 07:23:45","orig_title":"Il giorno del Cobra","year":"1980-08-12","translations":["Профессиональный (многоголосый закадровый)"],"quality":"bd","translation":"Профессиональный (многоголосый закадровый)","update":"2016-04-15 11:41:23","iframe_src":"//83.svetacdn.in/PfJ50H0ZBPg3/movie/1167"},{"id":1166,"title":"Кабельщик","kp_id":"6037","imdb_id":"tt0115798","world_art_id":null,"type":"movie","add":"2016-04-15 07:21:22","orig_title":"The Cable Guy","year":"1996-06-10","translations":["Полное дублирование"],"quality":"bd","translation":"Полное дублирование","update":"2016-04-15 10:40:26","iframe_src":"//83.svetacdn.in/PfJ50H0ZBPg3/movie/1166"},{"id":1165,"title":"Страсти Дон Жуана","kp_id":"666731","imdb_id":"tt2229499","world_art_id":null,"type":"movie","add":"2016-04-15 07:20:00","orig_title":"Don Jon","year":"2013-01-18","translations":["Полное дублирование"],"quality":"bd","translation":"Полное дублирование","update":"2016-04-15 10:51:12","iframe_src":"//83.svetacdn.in/PfJ50H0ZBPg3/movie/1165"},{"id":1164,"title":"Побудь в моей шкуре","kp_id":"467241","imdb_id":"tt1441395","world_art_id":null,"type":"movie","add":"2016-04-15 07:17:30","orig_title":"Under the Skin","year":"2013-08-29","translations":["Полное дублирование"],"quality":"bd","translation":"Полное дублирование","update":"2016-04-15 10:55:28","iframe_src":"//83.svetacdn.in/PfJ50H0ZBPg3/movie/1164"},{"id":1163,"title":"Далеко по соседству","kp_id":"466649","imdb_id":"tt1266037","world_art_id":null,"type":"movie","add":"2016-04-15 07:15:56","orig_title":"Quartier lointain","year":"2010-05-20","translations":["Профессиональный (многоголосый закадровый)"],"quality":"bd","translation":"Профессиональный (многоголосый закадровый)","update":"2016-04-15 10:56:27","iframe_src":"//83.svetacdn.in/PfJ50H0ZBPg3/movie/1163"},{"id":1159,"title":"Лондонские каникулы","kp_id":"582136","imdb_id":"tt1837562","world_art_id":null,"type":"movie","add":"2016-04-15 06:34:23","orig_title":"A Royal Night Out","year":"2015-05-14","translations":["Полное дублирование (iTunes)"],"quality":"bd","translation":"Полное дублирование (iTunes)","update":"2016-04-15 11:44:25","iframe_src":"//83.svetacdn.in/PfJ50H0ZBPg3/movie/1159"},{"id":1157,"title":"Побег из Вегаса","kp_id":"412299","imdb_id":"tt1226229","world_art_id":null,"type":"movie","add":"2016-04-15 06:30:54","orig_title":"Get Him to the Greek","year":"2010-06-03","translations":["Полное дублирование"],"quality":"bd","translation":"Полное дублирование","update":"2016-04-15 11:52:53","iframe_src":"//83.svetacdn.in/PfJ50H0ZBPg3/movie/1157"},{"id":1156,"title":"Охотники за головами","kp_id":"526812","imdb_id":"tt1614989","world_art_id":null,"type":"movie","add":"2016-04-15 06:27:36","orig_title":"Hodejegerne","year":"2011-08-04","translations":["Полное дублирование"],"quality":"bd","translation":"Полное дублирование","update":"2016-04-15 11:51:53","iframe_src":"//83.svetacdn.in/PfJ50H0ZBPg3/movie/1156"},{"id":1155,"title":"Мальчишник 2: Из Вегаса в Бангкок","kp_id":"455338","imdb_id":"tt1411697","world_art_id":null,"type":"movie","add":"2016-04-15 06:24:08","orig_title":"The Hangover Part II","year":"2011-05-19","translations":["Полное дублирование"],"quality":"bd","translation":"Полное дублирование","update":"2016-04-15 11:47:19","iframe_src":"//83.svetacdn.in/PfJ50H0ZBPg3/movie/1155"},{"id":1146,"title":"Догма","kp_id":"6437","imdb_id":"tt0120655","world_art_id":null,"type":"movie","add":"2016-04-14 20:18:33","orig_title":"Dogma","year":"1999-05-21","translations":["Полное дублирование"],"quality":"bd","translation":"Полное дублирование","update":"2016-04-15 11:48:25","iframe_src":"//83.svetacdn.in/PfJ50H0ZBPg3/movie/1146"},{"id":1141,"title":"Дружба и никакого секса?","kp_id":"470286","imdb_id":"tt1486834","world_art_id":null,"type":"movie","add":"2016-04-14 20:05:27","orig_title":"The F Word","year":"2013-09-07","translations":["Полное дублирование (iTunes)"],"quality":"bd","translation":"Полное дублирование (iTunes)","update":"2016-04-15 11:49:29","iframe_src":"//83.svetacdn.in/PfJ50H0ZBPg3/movie/1141"},{"id":1063,"title":"Скины","kp_id":"12252","imdb_id":"tt0105275","world_art_id":null,"type":"movie","add":"2016-04-13 19:29:33","orig_title":"Romper Stomper","year":"1992-09-16","translations":["Профессиональный (многоголосый закадровый)"],"quality":"bd","translation":"Профессиональный (многоголосый закадровый)","update":"2016-04-15 05:23:44","iframe_src":"//83.svetacdn.in/PfJ50H0ZBPg3/movie/1063"},{"id":1028,"title":"Стукач","kp_id":"586297","imdb_id":"tt0882977","world_art_id":null,"type":"movie","add":"2016-04-13 15:51:43","orig_title":"Snitch","year":"2013-02-21","translations":["Полное дублирование"],"quality":"bd","translation":"Полное дублирование","update":"2016-04-15 10:03:30","iframe_src":"//83.svetacdn.in/PfJ50H0ZBPg3/movie/1028"},{"id":939,"title":"Женщины в беде","kp_id":"418047","imdb_id":"tt1247704","world_art_id":null,"type":"movie","add":"2016-04-09 21:59:46","orig_title":"Women in Trouble","year":"2009-03-15","translations":["Профессиональный (многоголосый закадровый)"],"quality":"bd","translation":"Профессиональный (многоголосый закадровый)","update":"2016-04-15 10:26:58","iframe_src":"//83.svetacdn.in/PfJ50H0ZBPg3/movie/939"},{"id":937,"title":"Морской пехотинец 2","kp_id":"428097","imdb_id":"tt1266027","world_art_id":null,"type":"movie","add":"2016-04-09 21:57:33","orig_title":"The Marine 2","year":"2009-12-29","translations":["Профессиональный (многоголосый закадровый)"],"quality":"bd","translation":"Профессиональный (многоголосый закадровый)","update":"2016-04-15 10:07:58","iframe_src":"//83.svetacdn.in/PfJ50H0ZBPg3/movie/937"},{"id":931,"title":"Воспитание чувств","kp_id":"404414","imdb_id":"tt1174732","world_art_id":null,"type":"movie","add":"2016-04-09 21:48:52","orig_title":"An Education","year":"2009-01-18","translations":["Профессиональный (многоголосый закадровый)"],"quality":"bd","translation":"Профессиональный (многоголосый закадровый)","update":"2016-04-15 10:23:20","iframe_src":"//83.svetacdn.in/PfJ50H0ZBPg3/movie/931"},{"id":930,"title":"Триумф","kp_id":"77795","imdb_id":"tt0388980","world_art_id":null,"type":"movie","add":"2016-04-09 21:47:24","orig_title":"The Greatest Game Ever Played","year":"2005-09-30","translations":["Профессиональный (многоголосый закадровый)"],"quality":"bd","translation":"Профессиональный (многоголосый закадровый)","update":"2016-04-15 10:30:42","iframe_src":"//83.svetacdn.in/PfJ50H0ZBPg3/movie/930"},{"id":929,"title":"Самый лучший","kp_id":"416250","imdb_id":"tt1226232","world_art_id":null,"type":"movie","add":"2016-04-09 21:46:09","orig_title":"The Greatest","year":"2009-01-17","translations":["Профессиональный (многоголосый закадровый)"],"quality":"bd","translation":"Профессиональный (многоголосый закадровый)","update":"2016-04-15 10:37:38","iframe_src":"//83.svetacdn.in/PfJ50H0ZBPg3/movie/929"},{"id":908,"title":"Личное","kp_id":"397666","imdb_id":"tt1138489","world_art_id":null,"type":"movie","add":"2016-04-09 17:23:14","orig_title":"Personal Effects","year":"2009-03-05","translations":["Профессиональный (многоголосый закадровый)"],"quality":"bd","translation":"Профессиональный (многоголосый закадровый)","update":"2016-04-15 09:56:00","iframe_src":"//83.svetacdn.in/PfJ50H0ZBPg3/movie/908"}],"current_page":2451,"first_page_url":"https://videocdn.tv/api/short?limit=100&api_token=RgFQdUIR2dRmwv8iYa5SnFNgnw3vpjKj&cache32451=32451&page=1","from":245001,"last_page":620,"last_page_url":"https://videocdn.tv/api/short?limit=100&api_token=RgFQdUIR2dRmwv8iYa5SnFNgnw3vpjKj&cache32451=32451&page=620","next_page_url":null,"path":"https://videocdn.tv/api/short","per_page":100,"prev_page_url":"https://videocdn.tv/api/short?limit=100&api_token=RgFQdUIR2dRmwv8iYa5SnFNgnw3vpjKj&cache32451=32451&page=2450","to":245020,"total":61975}