{"result":true,"data":[{"id":26040,"title":"Девушка спешит на свидание","kp_id":"44186","imdb_id":"tt0027522","world_art_id":null,"type":"movie","add":"2019-05-05 22:16:18","orig_title":"Devushka speshit na svidanie","year":"1936-08-23","translations":["Оригинальная дорожка"],"quality":"dvdrip","translation":"Оригинальная дорожка","update":"2019-05-07 05:44:58","iframe_src":"//8543.svetacdn.in/IAF0wWTdNYZm/movie/26040"},{"id":26037,"title":"Алитет уходит в горы","kp_id":"43460","imdb_id":"tt0041110","world_art_id":null,"type":"movie","add":"2019-05-05 22:12:27","orig_title":"Alitet ukhodit v gory","year":"1950-04-10","translations":["Оригинальная дорожка"],"quality":"dvdrip","translation":"Оригинальная дорожка","update":"2019-05-07 05:43:54","iframe_src":"//8543.svetacdn.in/IAF0wWTdNYZm/movie/26037"},{"id":26036,"title":"Мадагаскар, путевой дневник","kp_id":"566805","imdb_id":"tt2096530","world_art_id":null,"type":"movie","add":"2019-05-05 22:10:34","orig_title":"Madagascar, carnet de voyage","year":"2010-01-24","translations":["Любительский (одноголосый закадровый)"],"quality":"dvb","translation":"Любительский (одноголосый закадровый)","update":"2019-05-07 05:42:48","iframe_src":"//8543.svetacdn.in/IAF0wWTdNYZm/movie/26036"},{"id":26035,"title":"Хлеб, золото, наган","kp_id":"44772","imdb_id":"tt0080995","world_art_id":null,"type":"movie","add":"2019-05-05 22:08:47","orig_title":"Khleb, zoloto, nagan","year":"1981-03-02","translations":["Оригинальная дорожка"],"quality":"dvdrip","translation":"Оригинальная дорожка","update":"2019-05-07 05:41:47","iframe_src":"//8543.svetacdn.in/IAF0wWTdNYZm/movie/26035"},{"id":26034,"title":"Зеркало","kp_id":"590898","imdb_id":"tt1736020","world_art_id":null,"type":"movie","add":"2019-05-05 22:08:17","orig_title":"Le miroir","year":"2010-01-01","translations":["Любительский (одноголосый закадровый)"],"quality":"dvb","translation":"Любительский (одноголосый закадровый)","update":"2019-05-07 05:40:29","iframe_src":"//8543.svetacdn.in/IAF0wWTdNYZm/movie/26034"},{"id":26033,"title":"Истинные происшествия","kp_id":"40840","imdb_id":"tt0322787","world_art_id":null,"type":"movie","add":"2019-05-05 22:05:17","orig_title":"Istinnye proishestviya","year":"2000-01-01","translations":["Оригинальная дорожка"],"quality":"dvdrip","translation":"Оригинальная дорожка","update":"2019-05-07 05:37:48","iframe_src":"//8543.svetacdn.in/IAF0wWTdNYZm/movie/26033"},{"id":26032,"title":"Карантин","kp_id":"44712","imdb_id":"tt0085774","world_art_id":null,"type":"movie","add":"2019-05-05 22:01:10","orig_title":"Karantin","year":"1983-08-22","translations":["Оригинальная дорожка"],"quality":"dvdrip","translation":"Оригинальная дорожка","update":"2019-05-07 05:36:35","iframe_src":"//8543.svetacdn.in/IAF0wWTdNYZm/movie/26032"},{"id":26029,"title":"Карусель","kp_id":"44723","imdb_id":"tt0065934","world_art_id":null,"type":"movie","add":"2019-05-05 21:57:04","orig_title":"Karusel","year":"1971-01-01","translations":["Оригинальная дорожка"],"quality":"dvdrip","translation":"Оригинальная дорожка","update":"2019-05-07 05:35:29","iframe_src":"//8543.svetacdn.in/IAF0wWTdNYZm/movie/26029"},{"id":26028,"title":"Последний гарем","kp_id":"21472","imdb_id":"tt0179841","world_art_id":null,"type":"movie","add":"2019-05-05 21:57:04","orig_title":"Harem Suare","year":"1999-05-21","translations":["Профессиональный (многоголосый закадровый)"],"quality":"dvdrip","translation":"Профессиональный (многоголосый закадровый)","update":"2019-05-07 05:33:19","iframe_src":"//8543.svetacdn.in/IAF0wWTdNYZm/movie/26028"},{"id":26027,"title":"Убийство в красном свете","kp_id":"48935","imdb_id":"tt0116068","world_art_id":null,"type":"movie","add":"2019-05-05 21:55:25","orig_title":"Delitti a luce rossa","year":"1996-06-29","translations":["Авторский (одноголосый закадровый) (Сербин Юрий)"],"quality":"vhs","translation":"Авторский (одноголосый закадровый) (Сербин Юрий)","update":"2019-05-07 05:32:12","iframe_src":"//8543.svetacdn.in/IAF0wWTdNYZm/movie/26027"},{"id":26026,"title":"Никудышная","kp_id":"260359","imdb_id":"tt0170311","world_art_id":null,"type":"movie","add":"2019-05-05 21:53:33","orig_title":"Nikudyshnaya","year":"1982-08-03","translations":["Оригинальная дорожка"],"quality":"sat","translation":"Оригинальная дорожка","update":"2019-05-07 05:24:54","iframe_src":"//8543.svetacdn.in/IAF0wWTdNYZm/movie/26026"},{"id":26025,"title":"Венецианка","kp_id":"24869","imdb_id":"tt0092157","world_art_id":null,"type":"movie","add":"2019-05-05 21:53:28","orig_title":"La venexiana","year":"1986-04-04","translations":["Профессиональный (двухголосый закадровый)"],"quality":"dvdrip","translation":"Профессиональный (двухголосый закадровый)","update":"2019-05-07 05:23:52","iframe_src":"//8543.svetacdn.in/IAF0wWTdNYZm/movie/26025"},{"id":26024,"title":"История Джейн Менсфилд","kp_id":"295805","imdb_id":"tt0080947","world_art_id":null,"type":"movie","add":"2019-05-05 21:51:52","orig_title":"The Jayne Mansfield Story","year":"1980-10-29","translations":["Профессиональный (многоголосый закадровый)"],"quality":"dvdrip","translation":"Профессиональный (многоголосый закадровый)","update":"2019-05-07 05:17:50","iframe_src":"//8543.svetacdn.in/IAF0wWTdNYZm/movie/26024"},{"id":26022,"title":"Княжна Мери","kp_id":"44834","imdb_id":"tt0048264","world_art_id":null,"type":"movie","add":"2019-05-05 21:50:12","orig_title":"Knyazhna Meri","year":"1955-08-15","translations":["Оригинальная дорожка"],"quality":"sat","translation":"Оригинальная дорожка","update":"2019-05-07 05:16:20","iframe_src":"//8543.svetacdn.in/IAF0wWTdNYZm/movie/26022"},{"id":26021,"title":"Ночная женщина","kp_id":"63117","imdb_id":"tt0090018","world_art_id":null,"type":"movie","add":"2019-05-05 21:48:48","orig_title":"La signora della notte","year":"1986-02-27","translations":["Любительский (одноголосый закадровый)"],"quality":"dvdrip","translation":"Любительский (одноголосый закадровый)","update":"2019-05-07 05:13:52","iframe_src":"//8543.svetacdn.in/IAF0wWTdNYZm/movie/26021"},{"id":26020,"title":"Служанка","kp_id":"50474","imdb_id":"tt0090763","world_art_id":null,"type":"movie","add":"2019-05-05 21:47:12","orig_title":"La bonne","year":"1986-04-18","translations":["Любительский (одноголосый закадровый)"],"quality":"dvdrip","translation":"Любительский (одноголосый закадровый)","update":"2019-05-07 05:11:53","iframe_src":"//8543.svetacdn.in/IAF0wWTdNYZm/movie/26020"},{"id":26019,"title":"Веселое волшебство","kp_id":"45754","imdb_id":"tt0283582","world_art_id":null,"type":"movie","add":"2019-05-05 21:46:06","orig_title":"Vesyoloye volshebstvo","year":"1969-02-23","translations":["Оригинальная дорожка"],"quality":"dvdrip","translation":"Оригинальная дорожка","update":"2019-05-07 05:02:42","iframe_src":"//8543.svetacdn.in/IAF0wWTdNYZm/movie/26019"},{"id":26018,"title":"Интим","kp_id":"713","imdb_id":"tt0256103","world_art_id":null,"type":"movie","add":"2019-05-05 21:45:53","orig_title":"Intimacy","year":"2001-01-20","translations":["Профессиональный (многоголосый закадровый)"],"quality":"dvdrip","translation":"Профессиональный (многоголосый закадровый)","update":"2019-05-07 05:01:06","iframe_src":"//8543.svetacdn.in/IAF0wWTdNYZm/movie/26018"},{"id":26017,"title":"Философия будуара маркиза Де Сада","kp_id":"255029","imdb_id":"tt0824320","world_art_id":null,"type":"movie","add":"2019-05-05 21:44:06","orig_title":"L'educazione sentimentale di Eugenie","year":"2005-06-17","translations":["Профессиональный (многоголосый закадровый)"],"quality":"dvdrip","translation":"Профессиональный (многоголосый закадровый)","update":"2019-05-07 04:59:33","iframe_src":"//8543.svetacdn.in/IAF0wWTdNYZm/movie/26017"},{"id":26016,"title":"Казанова и Компания","kp_id":"11704","imdb_id":"tt0074290","world_art_id":null,"type":"movie","add":"2019-05-05 21:42:15","orig_title":"Casanova & Co.","year":"1977-03-01","translations":["Любительский (одноголосый закадровый) (Медведев Юрий)"],"quality":"dvdrip","translation":"Любительский (одноголосый закадровый) (Медведев Юрий)","update":"2019-05-07 04:58:09","iframe_src":"//8543.svetacdn.in/IAF0wWTdNYZm/movie/26016"}],"current_page":1319,"first_page_url":"https://videocdn.tv/api/short?limit=100&api_token=6Onb1W1alEUrBcKJZD3GoKBbWyAl2uG2&cache31319=31319&page=1","from":131801,"last_page":606,"last_page_url":"https://videocdn.tv/api/short?limit=100&api_token=6Onb1W1alEUrBcKJZD3GoKBbWyAl2uG2&cache31319=31319&page=606","next_page_url":null,"path":"https://videocdn.tv/api/short","per_page":100,"prev_page_url":"https://videocdn.tv/api/short?limit=100&api_token=6Onb1W1alEUrBcKJZD3GoKBbWyAl2uG2&cache31319=31319&page=1318","to":131820,"total":60501}