{"result":true,"data":[{"id":26965,"title":"Juveniles","kp_id":"898585","imdb_id":"tt4465538","world_art_id":null,"type":"movie","add":"2019-05-23 17:07:31","orig_title":"Juveniles","year":"2018-03-24","translations":["Любительский (многоголосый закадровый) (Синема УС)"],"quality":"webdl","translation":"Любительский (многоголосый закадровый) (Синема УС)","update":"2019-05-23 18:53:54","iframe_src":"//2413.svetacdn.in/si4jsFRrtgrT/movie/26965"},{"id":26962,"title":"Мария","kp_id":"1143133","imdb_id":"tt7594584","world_art_id":null,"type":"movie","add":"2019-05-23 17:02:48","orig_title":"Maria","year":"2019-03-27","translations":["Любительский (многоголосый закадровый) (@MUZOBOZ@)"],"quality":"webdl","translation":"Любительский (многоголосый закадровый) (@MUZOBOZ@)","update":"2019-05-23 18:22:40","iframe_src":"//2413.svetacdn.in/si4jsFRrtgrT/movie/26962"},{"id":26908,"title":"Трикстер","kp_id":"1094119","imdb_id":"tt7558166","world_art_id":null,"type":"movie","add":"2019-05-22 22:45:08","orig_title":"Trickster","year":"2018-07-01","translations":["Любительский (многоголосый закадровый) (Синема УС)"],"quality":"webdl","translation":"Любительский (многоголосый закадровый) (Синема УС)","update":"2019-05-23 09:53:33","iframe_src":"//2413.svetacdn.in/si4jsFRrtgrT/movie/26908"},{"id":26907,"title":"Муэрте: Ужасные Истории","kp_id":"1001343","imdb_id":"tt6025356","world_art_id":null,"type":"movie","add":"2019-05-22 22:36:54","orig_title":"Muerte: Tales of Horror","year":"2018-01-28","translations":["Любительский (многоголосый закадровый) (Синема УС)"],"quality":"webdl","translation":"Любительский (многоголосый закадровый) (Синема УС)","update":"2019-05-23 09:53:35","iframe_src":"//2413.svetacdn.in/si4jsFRrtgrT/movie/26907"},{"id":26903,"title":"Тёмное чувство","kp_id":"1043120","imdb_id":"tt4082314","world_art_id":null,"type":"movie","add":"2019-05-22 22:25:54","orig_title":"Dark Sense","year":"2019-05-17","translations":["Любительский (многоголосый закадровый) (Синема УС)"],"quality":"webdl","translation":"Любительский (многоголосый закадровый) (Синема УС)","update":"2019-05-23 11:45:48","iframe_src":"//2413.svetacdn.in/si4jsFRrtgrT/movie/26903"},{"id":26900,"title":"Пёс-скауты","kp_id":"1150135","imdb_id":"tt8426154","world_art_id":null,"type":"movie","add":"2019-05-22 20:00:25","orig_title":"Pup Scouts","year":"2018-11-13","translations":["Любительский (многоголосый закадровый) (Синема УС)"],"quality":"webdl","translation":"Любительский (многоголосый закадровый) (Синема УС)","update":"2019-05-23 08:32:23","iframe_src":"//2413.svetacdn.in/si4jsFRrtgrT/movie/26900"},{"id":26898,"title":"Убийца по соседству","kp_id":null,"imdb_id":"tt9815596","world_art_id":null,"type":"movie","add":"2019-05-22 19:55:29","orig_title":"The Killer Next Door","year":"2018-01-01","translations":["Любительский (многоголосый закадровый) (Синема УС)"],"quality":"webdl","translation":"Любительский (многоголосый закадровый) (Синема УС)","update":"2019-05-23 08:26:02","iframe_src":"//2413.svetacdn.in/si4jsFRrtgrT/movie/26898"},{"id":26896,"title":"Мэдея на похоронах","kp_id":"1077860","imdb_id":"tt7054636","world_art_id":null,"type":"movie","add":"2019-05-22 19:52:20","orig_title":"A Madea Family Funeral","year":"2019-03-01","translations":["Любительский (многоголосый закадровый) (@MUZOBOZ@)"],"quality":"webdl","translation":"Любительский (многоголосый закадровый) (@MUZOBOZ@)","update":"2019-05-23 08:27:03","iframe_src":"//2413.svetacdn.in/si4jsFRrtgrT/movie/26896"},{"id":26886,"title":"Легкая жизнь","kp_id":"45133","imdb_id":"tt0168036","world_art_id":null,"type":"movie","add":"2019-05-22 18:34:14","orig_title":"Lyogkaya zhizn","year":"1964-08-24","translations":["Оригинальная дорожка"],"quality":"hdtv","translation":"Оригинальная дорожка","update":"2019-05-23 10:16:56","iframe_src":"//2413.svetacdn.in/si4jsFRrtgrT/movie/26886"},{"id":26659,"title":"Слон и моська","kp_id":"575982","imdb_id":null,"world_art_id":null,"type":"movie","add":"2019-05-17 09:22:05","orig_title":"Слон и моська","year":"2011-01-09","translations":["Оригинальная дорожка","Оригинальная дорожка"],"quality":"sat","translation":"Оригинальная дорожка","update":"2019-05-23 10:30:31","iframe_src":"//2413.svetacdn.in/si4jsFRrtgrT/movie/26659"},{"id":21184,"title":"Подставное тело","kp_id":"19299","imdb_id":"tt0086984","world_art_id":null,"type":"movie","add":"2019-01-03 13:13:18","orig_title":"Body Double","year":"1984-10-15","translations":["Профессиональный (многоголосый закадровый)","[EN] Original (English)"],"quality":"bd","translation":"Профессиональный (многоголосый закадровый)","update":"2019-05-23 11:30:13","iframe_src":"//2413.svetacdn.in/si4jsFRrtgrT/movie/21184"},{"id":20965,"title":"Амарилис","kp_id":"221551","imdb_id":"tt0488349","world_art_id":null,"type":"movie","add":"2018-12-23 10:56:59","orig_title":"Yellow","year":"2006-12-08","translations":["Профессиональный (многоголосый закадровый)","[EN] Original (English)"],"quality":"webdl","translation":"Профессиональный (многоголосый закадровый)","update":"2019-05-23 11:39:16","iframe_src":"//2413.svetacdn.in/si4jsFRrtgrT/movie/20965"},{"id":20964,"title":"Исправительный срок","kp_id":"2814","imdb_id":"tt0078326","world_art_id":null,"type":"movie","add":"2018-12-23 10:55:58","orig_title":"Straight Time","year":"1978-03-17","translations":["Профессиональный (многоголосый закадровый)","[EN] Original (English)"],"quality":"webdl","translation":"Профессиональный (многоголосый закадровый)","update":"2019-05-23 11:36:40","iframe_src":"//2413.svetacdn.in/si4jsFRrtgrT/movie/20964"},{"id":20961,"title":"Лучший друг человека","kp_id":"2280","imdb_id":"tt0107504","world_art_id":null,"type":"movie","add":"2018-12-23 10:52:36","orig_title":"Man's Best Friend","year":"1993-11-19","translations":["Профессиональный (многоголосый закадровый) (ТВ3)","[EN] Original (English)"],"quality":"webdl","translation":"Профессиональный (многоголосый закадровый) (ТВ3)","update":"2019-05-23 11:35:22","iframe_src":"//2413.svetacdn.in/si4jsFRrtgrT/movie/20961"},{"id":20959,"title":"Двойная игра","kp_id":"77566","imdb_id":"tt0396032","world_art_id":null,"type":"movie","add":"2018-12-23 10:50:36","orig_title":"Getting Played","year":"2006-06-13","translations":["Профессиональный (многоголосый закадровый)","[EN] Original (English)"],"quality":"webdl","translation":"Профессиональный (многоголосый закадровый)","update":"2019-05-23 11:34:29","iframe_src":"//2413.svetacdn.in/si4jsFRrtgrT/movie/20959"},{"id":20956,"title":"Мальчишник в Лас-Вегасе","kp_id":"86636","imdb_id":"tt0432373","world_art_id":null,"type":"movie","add":"2018-12-23 10:47:39","orig_title":"Bachelor Party Vegas","year":"2006-04-25","translations":["Профессиональный (многоголосый закадровый)","[EN] Original (English)"],"quality":"webdl","translation":"Профессиональный (многоголосый закадровый)","update":"2019-05-23 11:33:41","iframe_src":"//2413.svetacdn.in/si4jsFRrtgrT/movie/20956"},{"id":20952,"title":"Гробница Лигейи","kp_id":"12911","imdb_id":"tt0059821","world_art_id":null,"type":"movie","add":"2018-12-23 10:43:09","orig_title":"The Tomb of Ligeia","year":"1965-01-20","translations":["Профессиональный (многоголосый закадровый) (5-й канал СПб)","[EN] Original (English)"],"quality":"bd","translation":"Профессиональный (многоголосый закадровый) (5-й канал СПб)","update":"2019-05-23 11:32:17","iframe_src":"//2413.svetacdn.in/si4jsFRrtgrT/movie/20952"},{"id":20951,"title":"Ниночка","kp_id":"8254","imdb_id":"tt0031725","world_art_id":null,"type":"movie","add":"2018-12-23 10:41:58","orig_title":"Ninotchka","year":"1939-11-09","translations":["Профессиональный (многоголосый закадровый)","[EN] Original (English)"],"quality":"bd","translation":"Профессиональный (многоголосый закадровый)","update":"2019-05-23 11:31:15","iframe_src":"//2413.svetacdn.in/si4jsFRrtgrT/movie/20951"},{"id":20950,"title":"Мягкий удар","kp_id":"102322","imdb_id":"tt0452692","world_art_id":null,"type":"movie","add":"2018-12-23 10:16:38","orig_title":"The Tender Hook","year":"2008-05-30","translations":["Профессиональный (двухголосый закадровый)","[EN] Original (English)"],"quality":"bd","translation":"Профессиональный (двухголосый закадровый)","update":"2019-05-23 11:29:14","iframe_src":"//2413.svetacdn.in/si4jsFRrtgrT/movie/20950"},{"id":3160,"title":"Призраки","kp_id":"196481","imdb_id":"tt0486051","world_art_id":null,"type":"movie","add":"2016-06-15 10:18:56","orig_title":"Wind Chill","year":"2007-04-27","translations":["Профессиональный (многоголосый закадровый)","[EN] Original (English)"],"quality":"webdl","translation":"Профессиональный (многоголосый закадровый)","update":"2019-05-23 11:37:52","iframe_src":"//2413.svetacdn.in/si4jsFRrtgrT/movie/3160"}],"current_page":1809,"first_page_url":"https://videocdn.tv/api/short?limit=100&api_token=X6EwAUfE5M9xbo7y0Bp0aPf3uXxG2KLL&cache31809=31809&page=1","from":180801,"last_page":711,"last_page_url":"https://videocdn.tv/api/short?limit=100&api_token=X6EwAUfE5M9xbo7y0Bp0aPf3uXxG2KLL&cache31809=31809&page=711","next_page_url":null,"path":"https://videocdn.tv/api/short","per_page":100,"prev_page_url":"https://videocdn.tv/api/short?limit=100&api_token=X6EwAUfE5M9xbo7y0Bp0aPf3uXxG2KLL&cache31809=31809&page=1808","to":180820,"total":71091}