{"result":true,"data":[{"id":47023,"title":"Проклятье Желтой змеи","kp_id":"268244","imdb_id":"tt0055991","world_art_id":null,"type":"movie","add":"2021-01-13 09:06:07","orig_title":"Der Fluch der gelben Schlange","year":"1963-02-22","translations":["Профессиональный (многоголосый закадровый) (5-й канал СПб)"],"quality":"dvdrip","translation":"Профессиональный (многоголосый закадровый) (5-й канал СПб)","update":"2021-01-13 09:48:11","iframe_src":"//8209.svetacdn.in/71tsRs29n5tZ/movie/47023"},{"id":47007,"title":"Идти/Не идти","kp_id":"1191292","imdb_id":"tt8997082","world_art_id":null,"type":"movie","add":"2021-01-12 20:49:36","orig_title":"Go/Don't Go","year":"2020-02-01","translations":["Любительский (многоголосый закадровый) (@MUZOBOZ@)"],"quality":"webdl","translation":"Любительский (многоголосый закадровый) (@MUZOBOZ@)","update":"2021-01-13 10:41:52","iframe_src":"//8209.svetacdn.in/71tsRs29n5tZ/movie/47007"},{"id":47004,"title":"Девять ночей","kp_id":"1119551","imdb_id":"tt7974866","world_art_id":null,"type":"movie","add":"2021-01-12 20:36:14","orig_title":"Nine Nights","year":"2019-08-31","translations":["Любительский (многоголосый закадровый) (AlphaProject)"],"quality":"webdl","translation":"Любительский (многоголосый закадровый) (AlphaProject)","update":"2021-01-13 10:40:26","iframe_src":"//8209.svetacdn.in/71tsRs29n5tZ/movie/47004"},{"id":47003,"title":"Однажды на реке","kp_id":"1074525","imdb_id":"tt3917094","world_art_id":null,"type":"movie","add":"2021-01-12 20:34:22","orig_title":"Once Upon a River","year":"2019-05-10","translations":["Любительский (многоголосый закадровый) (@MUZOBOZ@)"],"quality":"webdl","translation":"Любительский (многоголосый закадровый) (@MUZOBOZ@)","update":"2021-01-13 10:35:21","iframe_src":"//8209.svetacdn.in/71tsRs29n5tZ/movie/47003"},{"id":46957,"title":"Улитки под дождём","kp_id":"764273","imdb_id":"tt2924590","world_art_id":null,"type":"movie","add":"2021-01-12 12:16:25","orig_title":"Shablulim BaGeshem","year":"2013-06-08","translations":["Любительский (одноголосый закадровый)"],"quality":"dvdrip","translation":"Любительский (одноголосый закадровый)","update":"2021-01-13 10:54:10","iframe_src":"//8209.svetacdn.in/71tsRs29n5tZ/movie/46957"},{"id":46956,"title":"Буферизация","kp_id":"591894","imdb_id":"tt1715322","world_art_id":null,"type":"movie","add":"2021-01-12 11:52:01","orig_title":"Buffering","year":"2011-01-14","translations":["Авторский (одноголосый закадровый) (Кашкин Александр | Первомайский)"],"quality":"dvdrip","translation":"Авторский (одноголосый закадровый) (Кашкин Александр | Первомайский)","update":"2021-01-13 10:29:01","iframe_src":"//8209.svetacdn.in/71tsRs29n5tZ/movie/46956"},{"id":46955,"title":"Инсценированный разрыв","kp_id":"420921","imdb_id":"tt1266542","world_art_id":null,"type":"movie","add":"2021-01-12 11:16:10","orig_title":"The Break-Up Artist","year":"2009-11-10","translations":["Любительский (одноголосый закадровый)"],"quality":"webdl","translation":"Любительский (одноголосый закадровый)","update":"2021-01-13 10:27:49","iframe_src":"//8209.svetacdn.in/71tsRs29n5tZ/movie/46955"},{"id":46953,"title":"Абсурд","kp_id":"424073","imdb_id":"tt1268962","world_art_id":null,"type":"movie","add":"2021-01-12 11:11:13","orig_title":"Drool","year":"2009-01-16","translations":["Любительский (двухголосый закадровый)"],"quality":"dvdrip","translation":"Любительский (двухголосый закадровый)","update":"2021-01-13 10:25:32","iframe_src":"//8209.svetacdn.in/71tsRs29n5tZ/movie/46953"},{"id":46952,"title":"Отчаянные головы","kp_id":"424047","imdb_id":"tt1254696","world_art_id":null,"type":"movie","add":"2021-01-12 11:02:07","orig_title":"Splinterheads","year":"2009-10-02","translations":["Профессиональный (многоголосый закадровый) (НТВ)"],"quality":"hdtv","translation":"Профессиональный (многоголосый закадровый) (НТВ)","update":"2021-01-13 10:22:00","iframe_src":"//8209.svetacdn.in/71tsRs29n5tZ/movie/46952"},{"id":46951,"title":"Полупансион","kp_id":"50565","imdb_id":"tt0328890","world_art_id":null,"type":"movie","add":"2021-01-12 10:44:58","orig_title":"Willkommen in der Provençe","year":"2003-09-03","translations":["Профессиональный (двухголосый закадровый)"],"quality":"dvdrip","translation":"Профессиональный (двухголосый закадровый)","update":"2021-01-13 10:23:48","iframe_src":"//8209.svetacdn.in/71tsRs29n5tZ/movie/46951"},{"id":46949,"title":"Одни на Рождество","kp_id":"790277","imdb_id":"tt3120508","world_art_id":null,"type":"movie","add":"2021-01-12 10:11:53","orig_title":"Bone - Allein zu Haus","year":"2013-10-15","translations":["Профессиональный (многоголосый закадровый)"],"quality":"tv","translation":"Профессиональный (многоголосый закадровый)","update":"2021-01-13 10:20:44","iframe_src":"//8209.svetacdn.in/71tsRs29n5tZ/movie/46949"},{"id":46948,"title":"Танец ангела","kp_id":"7019","imdb_id":"tt0159995","world_art_id":null,"type":"movie","add":"2021-01-12 10:05:38","orig_title":"Angel's Dance","year":"1999-02-25","translations":["Профессиональный (многоголосый закадровый)"],"quality":"dvdrip","translation":"Профессиональный (многоголосый закадровый)","update":"2021-01-13 10:16:22","iframe_src":"//8209.svetacdn.in/71tsRs29n5tZ/movie/46948"},{"id":46946,"title":"Я согласен","kp_id":"647694","imdb_id":"tt2102499","world_art_id":null,"type":"movie","add":"2021-01-12 09:44:36","orig_title":"I Do","year":"2012-10-20","translations":["Любительский (одноголосый закадровый)"],"quality":"webdl","translation":"Любительский (одноголосый закадровый)","update":"2021-01-13 10:19:24","iframe_src":"//8209.svetacdn.in/71tsRs29n5tZ/movie/46946"},{"id":46688,"title":"Марс и Апрель","kp_id":"520890","imdb_id":"tt1638277","world_art_id":null,"type":"movie","add":"2021-01-05 07:21:16","orig_title":"Mars et Avril","year":"2012-07-02","translations":["Любительский (одноголосый закадровый) (allecs2010)"],"quality":"webdl","translation":"Любительский (одноголосый закадровый) (allecs2010)","update":"2021-01-13 09:15:31","iframe_src":"//8209.svetacdn.in/71tsRs29n5tZ/movie/46688"},{"id":46687,"title":"Черный дождь","kp_id":"164752","imdb_id":"tt0097694","world_art_id":null,"type":"movie","add":"2021-01-05 07:18:16","orig_title":"Kuroi ame","year":"1989-05-13","translations":["Любительский (одноголосый закадровый)"],"quality":"bd","translation":"Любительский (одноголосый закадровый)","update":"2021-01-13 09:16:55","iframe_src":"//8209.svetacdn.in/71tsRs29n5tZ/movie/46687"},{"id":46680,"title":"Индийский шарф","kp_id":"57215","imdb_id":"tt0057183","world_art_id":null,"type":"movie","add":"2021-01-04 15:55:49","orig_title":"Das indische Tuch","year":"1963-09-13","translations":["Профессиональный (многоголосый закадровый) (5-й канал СПб)"],"quality":"bd","translation":"Профессиональный (многоголосый закадровый) (5-й канал СПб)","update":"2021-01-13 09:25:36","iframe_src":"//8209.svetacdn.in/71tsRs29n5tZ/movie/46680"},{"id":46672,"title":"Черный монокль","kp_id":"126219","imdb_id":"tt0055191","world_art_id":null,"type":"movie","add":"2021-01-04 07:55:49","orig_title":"Le monocle noir","year":"1961-08-29","translations":["Любительский (одноголосый закадровый) (lehachuev)"],"quality":"bd","translation":"Любительский (одноголосый закадровый) (lehachuev)","update":"2021-01-13 09:20:53","iframe_src":"//8209.svetacdn.in/71tsRs29n5tZ/movie/46672"},{"id":45719,"title":"Турборейнджеры","kp_id":"8212","imdb_id":"tt0120389","world_art_id":null,"type":"movie","add":"2020-11-30 16:17:59","orig_title":"Turbo: A Power Rangers Movie","year":"1997-03-28","translations":["Профессиональный (многоголосый закадровый) (Первый канал | ОРТ)","Авторский (одноголосый закадровый) (Живов Юрий)","Профессиональный (двухголосый закадровый)","Профессиональный (двухголосый закадровый) (РенТВ)","Профессиональный (двухголосый закадровый) (Премьер Видео Фильм)"],"quality":"bd","translation":"Профессиональный (многоголосый закадровый) (Первый канал | ОРТ)","update":"2021-01-13 11:03:40","iframe_src":"//8209.svetacdn.in/71tsRs29n5tZ/movie/45719"},{"id":45707,"title":"10","kp_id":"5050","imdb_id":"tt0078721","world_art_id":null,"type":"movie","add":"2020-11-30 14:58:24","orig_title":"10","year":"1979-10-05","translations":["Профессиональный (двухголосый закадровый)","Original (English)","Авторский (одноголосый закадровый) (Гаврилов Андрей)","Авторский (одноголосый закадровый) (Иванов Михаил)","Авторский (одноголосый закадровый) (Визгунов Сергей)"],"quality":"bd","translation":"Профессиональный (двухголосый закадровый)","update":"2021-01-13 10:57:23","iframe_src":"//8209.svetacdn.in/71tsRs29n5tZ/movie/45707"},{"id":2776,"title":"Офисный планктон","kp_id":"728499","imdb_id":"tt2509300","world_art_id":null,"type":"serial","add":"2018-06-10 06:47:04","orig_title":"Selreorimaen chohanji","year":"2012-01-02","translations":["Любительский (одноголосый закадровый) (GREEN TEA)"],"seasons_count":1,"episodes_count":22,"episodes":22,"update":"2018-06-11 10:52:09","iframe_src":"//8209.svetacdn.in/71tsRs29n5tZ/tv-series/2776"},{"id":2771,"title":"Пассажир","kp_id":"938872","imdb_id":"tt3331514","world_art_id":null,"type":"serial","add":"2018-06-08 10:28:19","orig_title":"Le passager","year":"2014-04-23","translations":["Любительский (двухголосый закадровый)"],"seasons_count":1,"episodes_count":6,"episodes":6,"update":"2018-06-11 09:07:56","iframe_src":"//8209.svetacdn.in/71tsRs29n5tZ/tv-series/2771"},{"id":2767,"title":"Двигатель внутреннего сгорания","kp_id":"1111796","imdb_id":null,"world_art_id":null,"type":"serial","add":"2018-06-08 05:11:28","orig_title":"Двигатель внутреннего сгорания","year":"2017-12-25","translations":["Оригинальная дорожка"],"seasons_count":1,"episodes_count":4,"episodes":4,"update":"2018-06-08 11:10:56","iframe_src":"//8209.svetacdn.in/71tsRs29n5tZ/tv-series/2767"},{"id":2766,"title":"Так не бывает","kp_id":"840017","imdb_id":null,"world_art_id":null,"type":"serial","add":"2018-06-07 15:07:59","orig_title":"Так не бывает","year":"2018-06-04","translations":["Оригинальная дорожка"],"seasons_count":1,"episodes_count":8,"episodes":8,"update":"2018-06-08 02:53:57","iframe_src":"//8209.svetacdn.in/71tsRs29n5tZ/tv-series/2766"},{"id":2761,"title":"Тройная защита","kp_id":"970012","imdb_id":null,"world_art_id":null,"type":"serial","add":"2018-06-07 12:52:36","orig_title":"Тройная защита","year":"2016-08-22","translations":["Оригинальная дорожка"],"seasons_count":1,"episodes_count":16,"episodes":16,"update":"2018-06-08 10:36:39","iframe_src":"//8209.svetacdn.in/71tsRs29n5tZ/tv-series/2761"},{"id":2760,"title":"Без свидетелей","kp_id":"701777","imdb_id":"tt2763330","world_art_id":null,"type":"serial","add":"2018-06-07 12:22:24","orig_title":"Bez svideteley","year":"2012-09-03","translations":["Оригинальная дорожка"],"seasons_count":2,"episodes_count":90,"episodes":45,"update":"2018-06-08 06:19:59","iframe_src":"//8209.svetacdn.in/71tsRs29n5tZ/tv-series/2760"},{"id":2756,"title":"Сказки мачехи","kp_id":"893677","imdb_id":"tt4858866","world_art_id":null,"type":"serial","add":"2018-06-06 11:31:46","orig_title":"Skazki machekhi","year":"2015-04-11","translations":["Оригинальная дорожка"],"seasons_count":1,"episodes_count":2,"episodes":2,"update":"2018-06-07 11:37:51","iframe_src":"//8209.svetacdn.in/71tsRs29n5tZ/tv-series/2756"},{"id":2754,"title":"Снег растает в сентябре","kp_id":"843826","imdb_id":null,"world_art_id":null,"type":"serial","add":"2018-06-06 11:28:20","orig_title":"Снег растает в сентябре","year":"2015-02-28","translations":["Оригинальная дорожка"],"seasons_count":1,"episodes_count":2,"episodes":2,"update":"2018-06-07 12:12:16","iframe_src":"//8209.svetacdn.in/71tsRs29n5tZ/tv-series/2754"},{"id":2751,"title":"Цена любви","kp_id":"938863","imdb_id":null,"world_art_id":null,"type":"serial","add":"2018-06-06 11:17:13","orig_title":"Цена любви","year":"2015-10-31","translations":["Оригинальная дорожка"],"seasons_count":1,"episodes_count":2,"episodes":2,"update":"2018-06-07 11:36:00","iframe_src":"//8209.svetacdn.in/71tsRs29n5tZ/tv-series/2751"},{"id":2747,"title":"Слишком красивая жена","kp_id":"944957","imdb_id":null,"world_art_id":null,"type":"serial","add":"2018-06-05 10:49:56","orig_title":"Слишком красивая жена","year":"2015-11-24","translations":["Оригинальная дорожка"],"seasons_count":1,"episodes_count":2,"episodes":2,"update":"2018-06-07 11:08:25","iframe_src":"//8209.svetacdn.in/71tsRs29n5tZ/tv-series/2747"},{"id":2746,"title":"Вернешься – поговорим","kp_id":"842415","imdb_id":null,"world_art_id":null,"type":"serial","add":"2018-06-05 10:46:11","orig_title":"Вернешься – поговорим","year":"2015-04-05","translations":["Оригинальная дорожка"],"seasons_count":1,"episodes_count":4,"episodes":4,"update":"2018-06-07 10:54:56","iframe_src":"//8209.svetacdn.in/71tsRs29n5tZ/tv-series/2746"},{"id":2745,"title":"Ветеран","kp_id":"891348","imdb_id":"tt4996188","world_art_id":null,"type":"serial","add":"2018-06-05 10:43:52","orig_title":"Veteran","year":"2015-02-20","translations":["Оригинальная дорожка"],"seasons_count":1,"episodes_count":4,"episodes":4,"update":"2018-06-07 10:46:40","iframe_src":"//8209.svetacdn.in/71tsRs29n5tZ/tv-series/2745"},{"id":2736,"title":"Ненавижу и люблю","kp_id":"893136","imdb_id":null,"world_art_id":null,"type":"serial","add":"2018-06-05 10:17:05","orig_title":"Ненавижу и люблю","year":"2015-02-21","translations":["Оригинальная дорожка"],"seasons_count":1,"episodes_count":2,"episodes":2,"update":"2018-06-07 10:39:05","iframe_src":"//8209.svetacdn.in/71tsRs29n5tZ/tv-series/2736"},{"id":2693,"title":"Мельник","kp_id":"1045463","imdb_id":null,"world_art_id":null,"type":"serial","add":"2018-05-29 21:16:09","orig_title":"Мельник","year":"2018-05-28","translations":["Оригинальная дорожка"],"seasons_count":1,"episodes_count":16,"episodes":16,"update":"2018-06-10 07:00:26","iframe_src":"//8209.svetacdn.in/71tsRs29n5tZ/tv-series/2693"},{"id":2574,"title":"Всю ночь","kp_id":"1117962","imdb_id":"tt7292950","world_art_id":null,"type":"serial","add":"2018-05-14 12:32:33","orig_title":"All Night","year":"2018-05-11","translations":["Профессиональный (многоголосый закадровый) (SunshineStudio)","Любительский (двухголосый закадровый) (Sunshine Studio)"],"seasons_count":1,"episodes_count":10,"episodes":10,"update":"2018-06-07 11:31:11","iframe_src":"//8209.svetacdn.in/71tsRs29n5tZ/tv-series/2574"},{"id":2234,"title":"Школа драмы","kp_id":"1022825","imdb_id":"tt6487416","world_art_id":null,"type":"serial","add":"2018-03-16 09:44:53","orig_title":"Rise","year":"2018-03-13","translations":["Профессиональный (многоголосый закадровый) (BaibaKo)"],"seasons_count":1,"episodes_count":10,"episodes":10,"update":"2018-06-10 07:43:21","iframe_src":"//8209.svetacdn.in/71tsRs29n5tZ/tv-series/2234"},{"id":2039,"title":"Из Лос-Анджелеса в Вегас","kp_id":"1011489","imdb_id":"tt6484002","world_art_id":null,"type":"serial","add":"2018-02-07 09:14:29","orig_title":"LA to Vegas","year":"2018-01-02","translations":["Профессиональный (многоголосый закадровый) (NewStudio)"],"seasons_count":1,"episodes_count":15,"episodes":15,"update":"2018-06-11 09:02:39","iframe_src":"//8209.svetacdn.in/71tsRs29n5tZ/tv-series/2039"},{"id":2035,"title":"Конец игры","kp_id":"574482","imdb_id":"tt1797629","world_art_id":null,"type":"serial","add":"2018-02-06 14:45:28","orig_title":"Endgame","year":"2011-03-14","translations":["Профессиональный (многоголосый закадровый) (LostFilm)","Профессиональный (многоголосый закадровый) (ShowJet)"],"seasons_count":1,"episodes_count":13,"episodes":13,"update":"2018-06-07 12:20:51","iframe_src":"//8209.svetacdn.in/71tsRs29n5tZ/tv-series/2035"},{"id":701,"title":"Ты моя Родина","kp_id":"1007529","imdb_id":"tt6132720","world_art_id":null,"type":"serial","add":"2016-12-17 08:49:21","orig_title":"Vatanim Sensin","year":"2016-10-27","translations":["Любительский (одноголосый закадровый) (turok1990)"],"seasons_count":2,"episodes_count":59,"episodes":28,"update":"2018-06-11 08:58:29","iframe_src":"//8209.svetacdn.in/71tsRs29n5tZ/tv-series/701"},{"id":4082,"title":"Пляж","kp_id":"6871","imdb_id":"tt0163978","world_art_id":null,"type":"movie","add":"2016-07-20 21:40:37","orig_title":"The Beach","year":"2000-02-02","translations":["Полное дублирование","Original (English)","Авторский (одноголосый закадровый) (Кузнецов Сергей)","Авторский (одноголосый закадровый) (Живов Юрий)","Полное дублирование","Профессиональный (двухголосый закадровый) (FDV)","Профессиональный (многоголосый закадровый)"],"quality":"webdl","translation":"Полное дублирование","update":"2021-01-13 10:52:48","iframe_src":"//8209.svetacdn.in/71tsRs29n5tZ/movie/4082"},{"id":269,"title":"Разгар лета","kp_id":"975176","imdb_id":"tt5210998","world_art_id":null,"type":"serial","add":"2016-07-07 11:57:30","orig_title":"Dead of Summer","year":"2016-06-28","translations":["Профессиональный (многоголосый закадровый) (NewStudio)","Профессиональный (многоголосый закадровый) (LostFilm)"],"seasons_count":1,"episodes_count":10,"episodes":10,"update":"2018-06-07 11:58:06","iframe_src":"//8209.svetacdn.in/71tsRs29n5tZ/tv-series/269"}],"current_page":468,"first_page_url":"https://videocdn.tv/api/short?limit=100&api_token=EnbO9h8pv1VyjbCJhg0WM9nG259n7mtz&cache3468=3468&page=1","from":46701,"last_page":660,"last_page_url":"https://videocdn.tv/api/short?limit=100&api_token=EnbO9h8pv1VyjbCJhg0WM9nG259n7mtz&cache3468=3468&page=660","next_page_url":"https://videocdn.tv/api/short?limit=100&api_token=EnbO9h8pv1VyjbCJhg0WM9nG259n7mtz&cache3468=3468&page=469","path":"https://videocdn.tv/api/short","per_page":100,"prev_page_url":"https://videocdn.tv/api/short?limit=100&api_token=EnbO9h8pv1VyjbCJhg0WM9nG259n7mtz&cache3468=3468&page=467","to":46740,"total":65985}