{"result":true,"data":[{"id":44861,"title":"Заблудшие ангелы","kp_id":"696256","imdb_id":"tt2311530","world_art_id":null,"type":"movie","add":"2020-10-27 20:35:56","orig_title":"Lost Angelas","year":"2019-03-26","translations":["Любительский (многоголосый закадровый) (Синема УС)"],"quality":"webdl","translation":"Любительский (многоголосый закадровый) (Синема УС)","update":"2020-10-28 08:00:26","iframe_src":"//2413.svetacdn.in/71tsRs29n5tZ/movie/44861"},{"id":44838,"title":"Водяной","kp_id":"1010760","imdb_id":"tt6478512","world_art_id":null,"type":"movie","add":"2020-10-27 13:51:40","orig_title":"Hastrman","year":"2018-04-19","translations":["Любительский (многоголосый закадровый) (AlphaProject)"],"quality":"webdl","translation":"Любительский (многоголосый закадровый) (AlphaProject)","update":"2020-10-28 07:59:20","iframe_src":"//2413.svetacdn.in/71tsRs29n5tZ/movie/44838"},{"id":44818,"title":"Земная сторона Луны","kp_id":"1302271","imdb_id":null,"world_art_id":null,"type":"movie","add":"2020-10-26 22:51:18","orig_title":"Земная сторона Луны","year":"2019-01-01","translations":["Оригинальная дорожка"],"quality":"webdl","translation":"Оригинальная дорожка","update":"2020-10-28 07:51:51","iframe_src":"//2413.svetacdn.in/71tsRs29n5tZ/movie/44818"},{"id":44550,"title":"Золотой цыпленок","kp_id":"677643","imdb_id":"tt4432656","world_art_id":null,"type":"movie","add":"2020-10-18 19:45:43","orig_title":"Zolotoy tsyplyonok","year":"1981-01-01","translations":["Оригинальная дорожка"],"quality":"dvdrip","translation":"Оригинальная дорожка","update":"2020-10-28 08:28:27","iframe_src":"//2413.svetacdn.in/71tsRs29n5tZ/movie/44550"},{"id":44549,"title":"Исчезатель","kp_id":"584363","imdb_id":"tt7562520","world_art_id":null,"type":"movie","add":"2020-10-18 19:43:14","orig_title":"Ischezatel","year":"1987-01-01","translations":["Оригинальная дорожка"],"quality":"dvdrip","translation":"Оригинальная дорожка","update":"2020-10-28 07:55:54","iframe_src":"//2413.svetacdn.in/71tsRs29n5tZ/movie/44549"},{"id":44540,"title":"Слоненок пошел учиться","kp_id":"627786","imdb_id":"tt6424402","world_art_id":null,"type":"movie","add":"2020-10-17 20:40:05","orig_title":"Slonyonok poshyol uchitsya","year":"1984-01-01","translations":["Оригинальная дорожка"],"quality":"dvdrip","translation":"Оригинальная дорожка","update":"2020-10-28 07:55:15","iframe_src":"//2413.svetacdn.in/71tsRs29n5tZ/movie/44540"},{"id":44539,"title":"Страшная история","kp_id":"257973","imdb_id":"tt6055882","world_art_id":null,"type":"movie","add":"2020-10-17 20:37:12","orig_title":"Strashnaya istoriya","year":"1979-01-01","translations":["Оригинальная дорожка"],"quality":"dvdrip","translation":"Оригинальная дорожка","update":"2020-10-28 07:54:02","iframe_src":"//2413.svetacdn.in/71tsRs29n5tZ/movie/44539"},{"id":44538,"title":"Тайна игрушек","kp_id":"533089","imdb_id":"tt6323596","world_art_id":null,"type":"movie","add":"2020-10-17 20:34:32","orig_title":"Tayna igrushek","year":"1986-01-01","translations":["Оригинальная дорожка"],"quality":"dvdrip","translation":"Оригинальная дорожка","update":"2020-10-28 07:53:06","iframe_src":"//2413.svetacdn.in/71tsRs29n5tZ/movie/44538"},{"id":44537,"title":"Тимка и Димка","kp_id":"432397","imdb_id":"tt5560708","world_art_id":null,"type":"movie","add":"2020-10-17 20:31:42","orig_title":"Timka i Dimka","year":"1975-12-11","translations":["Оригинальная дорожка"],"quality":"dvdrip","translation":"Оригинальная дорожка","update":"2020-10-28 07:52:10","iframe_src":"//2413.svetacdn.in/71tsRs29n5tZ/movie/44537"},{"id":44536,"title":"Узники «Ямагири-Мару»","kp_id":"469667","imdb_id":"tt3512100","world_art_id":null,"type":"movie","add":"2020-10-17 20:29:01","orig_title":"Uzniki Yamagiri-Maru","year":"1988-01-01","translations":["Оригинальная дорожка"],"quality":"dvdrip","translation":"Оригинальная дорожка","update":"2020-10-28 07:51:05","iframe_src":"//2413.svetacdn.in/71tsRs29n5tZ/movie/44536"},{"id":44535,"title":"Где обедал воробей?","kp_id":"437471","imdb_id":"tt1350924","world_art_id":null,"type":"movie","add":"2020-10-17 20:26:23","orig_title":"Gde obedal vorobey?","year":"1983-01-01","translations":["Оригинальная дорожка"],"quality":"dvdrip","translation":"Оригинальная дорожка","update":"2020-10-28 07:50:10","iframe_src":"//2413.svetacdn.in/71tsRs29n5tZ/movie/44535"},{"id":44534,"title":"Иванко и вороний царь","kp_id":"489298","imdb_id":"tt5880120","world_art_id":null,"type":"movie","add":"2020-10-17 20:23:59","orig_title":"Ivanko i voroniy tsar","year":"1985-01-01","translations":["Оригинальная дорожка"],"quality":"dvdrip","translation":"Оригинальная дорожка","update":"2020-10-28 07:49:24","iframe_src":"//2413.svetacdn.in/71tsRs29n5tZ/movie/44534"},{"id":44532,"title":"Капля","kp_id":"533116","imdb_id":"tt9007164","world_art_id":null,"type":"movie","add":"2020-10-17 20:21:41","orig_title":"Kaplya","year":"1984-01-01","translations":["Оригинальная дорожка"],"quality":"dvdrip","translation":"Оригинальная дорожка","update":"2020-10-28 07:48:02","iframe_src":"//2413.svetacdn.in/71tsRs29n5tZ/movie/44532"},{"id":44531,"title":"На юг на юг","kp_id":"705782","imdb_id":null,"world_art_id":null,"type":"movie","add":"2020-10-17 20:19:29","orig_title":"На юг на юг","year":"1973-01-01","translations":["Оригинальная дорожка"],"quality":"webdl","translation":"Оригинальная дорожка","update":"2020-10-28 07:47:27","iframe_src":"//2413.svetacdn.in/71tsRs29n5tZ/movie/44531"},{"id":44530,"title":"Самый младший дождик","kp_id":"501891","imdb_id":"tt6861194","world_art_id":null,"type":"movie","add":"2020-10-17 20:12:19","orig_title":"Samyy mladshyy dozhdik","year":"1971-01-01","translations":["Оригинальная дорожка"],"quality":"dvdrip","translation":"Оригинальная дорожка","update":"2020-10-28 07:46:23","iframe_src":"//2413.svetacdn.in/71tsRs29n5tZ/movie/44530"},{"id":44516,"title":"Гостья","kp_id":"585421","imdb_id":"tt4441182","world_art_id":null,"type":"movie","add":"2020-10-16 17:36:26","orig_title":"Gostya","year":"1991-01-01","translations":["Оригинальная дорожка"],"quality":"dvdrip","translation":"Оригинальная дорожка","update":"2020-10-28 07:39:18","iframe_src":"//2413.svetacdn.in/71tsRs29n5tZ/movie/44516"},{"id":44514,"title":"Горячий камень","kp_id":"493888","imdb_id":"tt4190678","world_art_id":null,"type":"movie","add":"2020-10-16 17:34:23","orig_title":"Goryachiy kamen","year":"1965-01-01","translations":["Оригинальная дорожка"],"quality":"dvdrip","translation":"Оригинальная дорожка","update":"2020-10-28 07:37:40","iframe_src":"//2413.svetacdn.in/71tsRs29n5tZ/movie/44514"},{"id":44513,"title":"Горшок-насмешник","kp_id":"565782","imdb_id":null,"world_art_id":null,"type":"movie","add":"2020-10-16 17:31:28","orig_title":"Горшок-насмешник","year":"1990-01-01","translations":["Оригинальная дорожка"],"quality":"dvdrip","translation":"Оригинальная дорожка","update":"2020-10-28 07:36:06","iframe_src":"//2413.svetacdn.in/71tsRs29n5tZ/movie/44513"},{"id":44512,"title":"Горе — не беда","kp_id":"474708","imdb_id":"tt2780350","world_art_id":null,"type":"movie","add":"2020-10-16 17:22:57","orig_title":"Gore ne beda","year":"1983-01-01","translations":["Оригинальная дорожка"],"quality":"dvdrip","translation":"Оригинальная дорожка","update":"2020-10-28 07:35:12","iframe_src":"//2413.svetacdn.in/71tsRs29n5tZ/movie/44512"},{"id":44511,"title":"Гора динозавров","kp_id":"257953","imdb_id":"tt0487605","world_art_id":null,"type":"movie","add":"2020-10-16 17:20:03","orig_title":"Gora dinozavrov","year":"1967-01-01","translations":["Оригинальная дорожка"],"quality":"dvdrip","translation":"Оригинальная дорожка","update":"2020-10-28 07:32:49","iframe_src":"//2413.svetacdn.in/71tsRs29n5tZ/movie/44511"}],"current_page":931,"first_page_url":"https://videocdn.tv/api/short?limit=100&api_token=EnbO9h8pv1VyjbCJhg0WM9nG259n7mtz&cache3931=3931&page=1","from":93001,"last_page":715,"last_page_url":"https://videocdn.tv/api/short?limit=100&api_token=EnbO9h8pv1VyjbCJhg0WM9nG259n7mtz&cache3931=3931&page=715","next_page_url":null,"path":"https://videocdn.tv/api/short","per_page":100,"prev_page_url":"https://videocdn.tv/api/short?limit=100&api_token=EnbO9h8pv1VyjbCJhg0WM9nG259n7mtz&cache3931=3931&page=930","to":93020,"total":71457}