{"result":true,"data":[{"id":50438,"title":"Аватар","kp_id":"34984","imdb_id":"tt0233264","world_art_id":null,"type":"movie","add":"2021-05-17 06:57:55","orig_title":"Avtaar","year":"1983-03-11","translations":["Профессиональный (многоголосый закадровый) (SDI Media | Iyuno-SDI Group Russia)"],"quality":"webdl","translation":"Профессиональный (многоголосый закадровый) (SDI Media | Iyuno-SDI Group Russia)","update":"2021-05-17 16:47:11","iframe_src":"//24213.svetacdn.in/si4jsFRrtgrT/movie/50438"},{"id":50437,"title":"Солнечная сторона","kp_id":"903454","imdb_id":"tt4426058","world_art_id":null,"type":"movie","add":"2021-05-17 06:55:53","orig_title":"Sunny Side Up","year":"2020-12-04","translations":["Любительский (многоголосый закадровый) (Синема УС)"],"quality":"webdl","translation":"Любительский (многоголосый закадровый) (Синема УС)","update":"2021-05-17 15:25:42","iframe_src":"//24213.svetacdn.in/si4jsFRrtgrT/movie/50437"},{"id":50435,"title":"Детективы: зов истины","kp_id":"1116100","imdb_id":"tt7888574","world_art_id":null,"type":"movie","add":"2021-05-17 06:52:59","orig_title":"The Investigators: When Truth Calls","year":"2019-10-30","translations":["Любительский (многоголосый закадровый) (Синема УС)"],"quality":"webdl","translation":"Любительский (многоголосый закадровый) (Синема УС)","update":"2021-05-17 15:25:24","iframe_src":"//24213.svetacdn.in/si4jsFRrtgrT/movie/50435"},{"id":50434,"title":"Зуб мудрости","kp_id":null,"imdb_id":"tt11855030","world_art_id":null,"type":"movie","add":"2021-05-17 06:50:11","orig_title":"Oyashirazu","year":"2018-04-20","translations":["Любительский (многоголосый закадровый) (Синема УС)"],"quality":"webdl","translation":"Любительский (многоголосый закадровый) (Синема УС)","update":"2021-05-17 15:25:01","iframe_src":"//24213.svetacdn.in/si4jsFRrtgrT/movie/50434"},{"id":50433,"title":"Ты мне скажи","kp_id":"1255346","imdb_id":"tt10116488","world_art_id":null,"type":"movie","add":"2021-05-17 06:48:54","orig_title":"Sag Du Es Mir","year":"2019-10-15","translations":["Любительский (многоголосый закадровый) (Синема УС)"],"quality":"webdl","translation":"Любительский (многоголосый закадровый) (Синема УС)","update":"2021-05-17 18:29:28","iframe_src":"//24213.svetacdn.in/si4jsFRrtgrT/movie/50433"},{"id":50432,"title":"Восток","kp_id":"1244537","imdb_id":"tt8639136","world_art_id":null,"type":"movie","add":"2021-05-17 06:46:20","orig_title":"De Oost","year":"2021-05-13","translations":["Любительский (многоголосый закадровый) (@MUZOBOZ@)"],"quality":"webdl","translation":"Любительский (многоголосый закадровый) (@MUZOBOZ@)","update":"2021-05-17 15:24:41","iframe_src":"//24213.svetacdn.in/si4jsFRrtgrT/movie/50432"},{"id":50429,"title":"Поход","kp_id":"1403824","imdb_id":"tt12728842","world_art_id":null,"type":"movie","add":"2021-05-17 06:42:26","orig_title":"The Hike","year":"2021-03-01","translations":["Любительский (многоголосый закадровый) (Синема УС)"],"quality":"webdl","translation":"Любительский (многоголосый закадровый) (Синема УС)","update":"2021-05-17 15:23:40","iframe_src":"//24213.svetacdn.in/si4jsFRrtgrT/movie/50429"},{"id":50427,"title":"Из-под земли","kp_id":"1132301","imdb_id":"tt5532280","world_art_id":null,"type":"movie","add":"2021-05-17 06:38:40","orig_title":"Unearth","year":"2021-04-22","translations":["Любительский (многоголосый закадровый) (Синема УС)"],"quality":"webdl","translation":"Любительский (многоголосый закадровый) (Синема УС)","update":"2021-05-17 15:22:44","iframe_src":"//24213.svetacdn.in/si4jsFRrtgrT/movie/50427"},{"id":50426,"title":"Незабываемый Танец","kp_id":"1430745","imdb_id":"tt12498722","world_art_id":null,"type":"movie","add":"2021-05-17 06:37:25","orig_title":"A Dance to Forget","year":"2020-05-25","translations":["Любительский (многоголосый закадровый) (Синема УС)"],"quality":"webdl","translation":"Любительский (многоголосый закадровый) (Синема УС)","update":"2021-05-17 15:22:20","iframe_src":"//24213.svetacdn.in/si4jsFRrtgrT/movie/50426"},{"id":50425,"title":"Невеста Сатаны","kp_id":null,"imdb_id":"tt6079652","world_art_id":null,"type":"movie","add":"2021-05-17 06:36:08","orig_title":"Brides of Satan","year":"2020-10-31","translations":["Любительский (многоголосый закадровый) (Синема УС)"],"quality":"webdl","translation":"Любительский (многоголосый закадровый) (Синема УС)","update":"2021-05-17 15:21:52","iframe_src":"//24213.svetacdn.in/si4jsFRrtgrT/movie/50425"},{"id":50424,"title":"Дон Джунга","kp_id":"1061495","imdb_id":"tt7483340","world_art_id":null,"type":"movie","add":"2021-05-17 06:34:04","orig_title":"Junga","year":"2018-07-26","translations":["Любительский (одноголосый закадровый) (Князев Андрей)"],"quality":"webdl","translation":"Любительский (одноголосый закадровый) (Князев Андрей)","update":"2021-05-17 15:10:11","iframe_src":"//24213.svetacdn.in/si4jsFRrtgrT/movie/50424"},{"id":50423,"title":"Офицер","kp_id":"1116665","imdb_id":"tt8065870","world_art_id":null,"type":"movie","add":"2021-05-17 06:32:54","orig_title":"Officer","year":"2018-05-31","translations":["Любительский (одноголосый закадровый) (Князев Андрей)"],"quality":"webdl","translation":"Любительский (одноголосый закадровый) (Князев Андрей)","update":"2021-05-17 14:50:55","iframe_src":"//24213.svetacdn.in/si4jsFRrtgrT/movie/50423"},{"id":50417,"title":"Прерванный контакт: история о полтергейсте","kp_id":null,"imdb_id":"tt13991322","world_art_id":null,"type":"movie","add":"2021-05-16 20:57:32","orig_title":"Broken Contact: A Poltergeist Story","year":"2020-07-10","translations":["Любительский (многоголосый закадровый) (Синема УС)"],"quality":"webdl","translation":"Любительский (многоголосый закадровый) (Синема УС)","update":"2021-05-17 15:21:36","iframe_src":"//24213.svetacdn.in/si4jsFRrtgrT/movie/50417"},{"id":50416,"title":"Тринадцатая сестра: Три убийственных дня","kp_id":"4369388","imdb_id":"tt13707568","world_art_id":null,"type":"movie","add":"2021-05-16 20:45:11","orig_title":"13rd Sister: Three Deadly Days","year":"2020-12-25","translations":["Любительский (многоголосый закадровый) (Синема УС)"],"quality":"webdl","translation":"Любительский (многоголосый закадровый) (Синема УС)","update":"2021-05-17 15:21:10","iframe_src":"//24213.svetacdn.in/si4jsFRrtgrT/movie/50416"},{"id":50415,"title":"Даника","kp_id":"1390881","imdb_id":"tt12570276","world_art_id":null,"type":"movie","add":"2021-05-16 20:43:45","orig_title":"Mar de fondo","year":"2020-11-26","translations":["Любительский (многоголосый закадровый) (AlphaProject)"],"quality":"webdl","translation":"Любительский (многоголосый закадровый) (AlphaProject)","update":"2021-05-17 15:20:50","iframe_src":"//24213.svetacdn.in/si4jsFRrtgrT/movie/50415"},{"id":50413,"title":"Мистер Выходной","kp_id":"1018834","imdb_id":"tt6209942","world_art_id":null,"type":"movie","add":"2021-05-16 20:41:00","orig_title":"Mr. Weekend","year":"2020-01-01","translations":["Любительский (многоголосый закадровый) (Синема УС)"],"quality":"webdl","translation":"Любительский (многоголосый закадровый) (Синема УС)","update":"2021-05-17 15:19:28","iframe_src":"//24213.svetacdn.in/si4jsFRrtgrT/movie/50413"},{"id":50411,"title":"Феникс","kp_id":"1405809","imdb_id":"tt7965254","world_art_id":null,"type":"movie","add":"2021-05-16 20:19:41","orig_title":"The Phoenix","year":"2020-03-30","translations":["Любительский (многоголосый закадровый) (Синема УС)"],"quality":"webdl","translation":"Любительский (многоголосый закадровый) (Синема УС)","update":"2021-05-17 15:19:13","iframe_src":"//24213.svetacdn.in/si4jsFRrtgrT/movie/50411"},{"id":50410,"title":"Романтика в меню","kp_id":"1330248","imdb_id":"tt11388822","world_art_id":null,"type":"movie","add":"2021-05-16 20:15:54","orig_title":"Romance on the Menu","year":"2020-08-20","translations":["Любительский (многоголосый закадровый) (Синема УС)"],"quality":"webdl","translation":"Любительский (многоголосый закадровый) (Синема УС)","update":"2021-05-17 15:18:55","iframe_src":"//24213.svetacdn.in/si4jsFRrtgrT/movie/50410"},{"id":50409,"title":"Настоящие матери","kp_id":"1387150","imdb_id":"tt10418630","world_art_id":null,"type":"movie","add":"2021-05-16 20:13:40","orig_title":"Asa ga Kuru","year":"2020-10-23","translations":["Любительский (многоголосый закадровый) (Синема УС)"],"quality":"webdl","translation":"Любительский (многоголосый закадровый) (Синема УС)","update":"2021-05-17 15:18:41","iframe_src":"//24213.svetacdn.in/si4jsFRrtgrT/movie/50409"},{"id":37233,"title":"Правосудие","kp_id":"39708","imdb_id":"tt0359684","world_art_id":null,"type":"movie","add":"2020-03-02 20:53:02","orig_title":"Mera Faisla","year":"1984-01-01","translations":["Профессиональный (многоголосый закадровый)"],"quality":"webdl","translation":"Профессиональный (многоголосый закадровый)","update":"2021-05-17 18:29:46","iframe_src":"//24213.svetacdn.in/si4jsFRrtgrT/movie/37233"}],"current_page":696,"first_page_url":"https://videocdn.tv/api/short?limit=100&api_token=X6EwAUfE5M9xbo7y0Bp0aPf3uXxG2KLL&cache3696=3696&page=1","from":69501,"last_page":727,"last_page_url":"https://videocdn.tv/api/short?limit=100&api_token=X6EwAUfE5M9xbo7y0Bp0aPf3uXxG2KLL&cache3696=3696&page=727","next_page_url":"https://videocdn.tv/api/short?limit=100&api_token=X6EwAUfE5M9xbo7y0Bp0aPf3uXxG2KLL&cache3696=3696&page=697","path":"https://videocdn.tv/api/short","per_page":100,"prev_page_url":"https://videocdn.tv/api/short?limit=100&api_token=X6EwAUfE5M9xbo7y0Bp0aPf3uXxG2KLL&cache3696=3696&page=695","to":69520,"total":72634}