{"result":true,"data":[{"id":36120,"title":"История Бенни Гудмана","kp_id":"10385","imdb_id":"tt0047873","world_art_id":null,"type":"movie","add":"2020-02-11 22:05:45","orig_title":"The Benny Goodman Story","year":"1956-01-03","translations":["Профессиональный (многоголосый закадровый) (СВ-Дубль)"],"quality":"bd","translation":"Профессиональный (многоголосый закадровый) (СВ-Дубль)","update":"2020-02-12 13:27:12","iframe_src":"//5091.svetacdn.in/71tsRs29n5tZ/movie/36120"},{"id":36119,"title":"Война приложений","kp_id":"1303935","imdb_id":"tt8733014","world_art_id":null,"type":"movie","add":"2020-02-11 22:02:30","orig_title":"App War","year":"2018-08-01","translations":["Любительский (многоголосый закадровый) (AlphaProject)"],"quality":"bd","translation":"Любительский (многоголосый закадровый) (AlphaProject)","update":"2020-02-12 13:28:19","iframe_src":"//5091.svetacdn.in/71tsRs29n5tZ/movie/36119"},{"id":35912,"title":"Стальной воин","kp_id":"232980","imdb_id":"tt0068372","world_art_id":null,"type":"movie","add":"2020-02-07 21:23:25","orig_title":"Chou lian huan","year":"1972-10-12","translations":["Любительский (одноголосый закадровый)"],"quality":"bd","translation":"Любительский (одноголосый закадровый)","update":"2020-02-12 09:24:17","iframe_src":"//5091.svetacdn.in/71tsRs29n5tZ/movie/35912"},{"id":35911,"title":"Мемуары подростка, страдающего амнезией","kp_id":"432658","imdb_id":"tt1330229","world_art_id":null,"type":"movie","add":"2020-02-07 21:20:27","orig_title":"Memoirs of a Teenage Amnesiac","year":"2010-03-27","translations":["Любительский (одноголосый закадровый)"],"quality":"dvdrip","translation":"Любительский (одноголосый закадровый)","update":"2020-02-12 09:23:17","iframe_src":"//5091.svetacdn.in/71tsRs29n5tZ/movie/35911"},{"id":35910,"title":"В горах Тайханшань","kp_id":"261461","imdb_id":"tt0847899","world_art_id":null,"type":"movie","add":"2020-02-07 21:16:53","orig_title":"Tai Hang shan shang","year":"2005-01-01","translations":["Любительский (одноголосый закадровый)"],"quality":"dvdrip","translation":"Любительский (одноголосый закадровый)","update":"2020-02-12 09:22:23","iframe_src":"//5091.svetacdn.in/71tsRs29n5tZ/movie/35910"},{"id":35909,"title":"Крутые пушки","kp_id":"56283","imdb_id":"tt0317657","world_art_id":null,"type":"movie","add":"2020-02-07 21:13:05","orig_title":"Him gok","year":"2001-09-20","translations":["Любительский (одноголосый закадровый) (den904)"],"quality":"dvdrip","translation":"Любительский (одноголосый закадровый) (den904)","update":"2020-02-12 09:19:06","iframe_src":"//5091.svetacdn.in/71tsRs29n5tZ/movie/35909"},{"id":35896,"title":"Наш учитель английского","kp_id":"628998","imdb_id":"tt1867121","world_art_id":null,"type":"movie","add":"2020-02-06 20:44:51","orig_title":"Wool-hak-kyo I-ti","year":"2008-09-11","translations":["Любительский (одноголосый закадровый) (den904)"],"quality":"dvdrip","translation":"Любительский (одноголосый закадровый) (den904)","update":"2020-02-12 08:57:16","iframe_src":"//5091.svetacdn.in/71tsRs29n5tZ/movie/35896"},{"id":35894,"title":"Новый однорукий меченосец","kp_id":"135490","imdb_id":"tt0069518","world_art_id":null,"type":"movie","add":"2020-02-06 20:38:42","orig_title":"Xin du bi dao","year":"1971-02-07","translations":["Авторский (одноголосый закадровый) (Кузнецов Сергей)"],"quality":"bd","translation":"Авторский (одноголосый закадровый) (Кузнецов Сергей)","update":"2020-02-12 08:53:12","iframe_src":"//5091.svetacdn.in/71tsRs29n5tZ/movie/35894"},{"id":35893,"title":"Однорукий меченосец","kp_id":"116297","imdb_id":"tt0061597","world_art_id":null,"type":"movie","add":"2020-02-06 20:26:52","orig_title":"Du bei dao","year":"1967-07-26","translations":["Профессиональный (двухголосый закадровый) (SDI Media)"],"quality":"bd","translation":"Профессиональный (двухголосый закадровый) (SDI Media)","update":"2020-02-12 08:51:48","iframe_src":"//5091.svetacdn.in/71tsRs29n5tZ/movie/35893"},{"id":35892,"title":"Пять мастеров Шаолиня","kp_id":"64256","imdb_id":"tt0072991","world_art_id":null,"type":"movie","add":"2020-02-06 20:21:34","orig_title":"Shao Lin wu zu","year":"1974-12-25","translations":["Авторский (одноголосый закадровый) (Кузнецов Сергей)"],"quality":"dvdrip","translation":"Авторский (одноголосый закадровый) (Кузнецов Сергей)","update":"2020-02-12 08:41:43","iframe_src":"//5091.svetacdn.in/71tsRs29n5tZ/movie/35892"},{"id":35891,"title":"Полицейские против бандитов","kp_id":"55451","imdb_id":"tt0073234","world_art_id":null,"type":"movie","add":"2020-02-06 20:18:31","orig_title":"Kenkei tai soshiki boryoku","year":"1975-04-26","translations":["Авторский (одноголосый закадровый) (Алексеев Антон)"],"quality":"bd","translation":"Авторский (одноголосый закадровый) (Алексеев Антон)","update":"2020-02-12 08:40:45","iframe_src":"//5091.svetacdn.in/71tsRs29n5tZ/movie/35891"},{"id":35889,"title":"Школьница против зомби","kp_id":"706865","imdb_id":"tt2360114","world_art_id":null,"type":"movie","add":"2020-02-06 19:54:41","orig_title":"Sêrâ-fuku mokushiroku","year":"2011-07-15","translations":["Любительский (двухголосый закадровый) (DeadSno & den904)"],"quality":"dvdrip","translation":"Любительский (двухголосый закадровый) (DeadSno & den904)","update":"2020-02-12 08:35:43","iframe_src":"//5091.svetacdn.in/71tsRs29n5tZ/movie/35889"},{"id":35879,"title":"Странствующий мститель","kp_id":"261100","imdb_id":"tt0130639","world_art_id":null,"type":"movie","add":"2020-02-06 16:30:20","orig_title":"Koya no toseinin","year":"1968-06-15","translations":["Любительский (одноголосый закадровый) (Хоррор Мэйкер)"],"quality":"dvdrip","translation":"Любительский (одноголосый закадровый) (Хоррор Мэйкер)","update":"2020-02-12 08:33:11","iframe_src":"//5091.svetacdn.in/71tsRs29n5tZ/movie/35879"},{"id":35878,"title":"Суперледи – полицейский","kp_id":"50832","imdb_id":"tt0105496","world_art_id":null,"type":"movie","add":"2020-02-06 16:27:54","orig_title":"Kuang feng mi ming","year":"1993-10-21","translations":["Профессиональный (двухголосый закадровый)"],"quality":"dvdrip","translation":"Профессиональный (двухголосый закадровый)","update":"2020-02-12 08:31:35","iframe_src":"//5091.svetacdn.in/71tsRs29n5tZ/movie/35878"},{"id":35877,"title":"Братья по крови","kp_id":"81589","imdb_id":"tt0069881","world_art_id":null,"type":"movie","add":"2020-02-06 16:23:20","orig_title":"Ci Ma","year":"1973-02-24","translations":["Профессиональный (многоголосый закадровый)"],"quality":"bd","translation":"Профессиональный (многоголосый закадровый)","update":"2020-02-12 08:30:58","iframe_src":"//5091.svetacdn.in/71tsRs29n5tZ/movie/35877"},{"id":35876,"title":"Кидала","kp_id":"48687","imdb_id":"tt0184354","world_art_id":null,"type":"movie","add":"2020-02-06 16:20:35","orig_title":"Du xia 1999","year":"1998-12-24","translations":["Авторский (одноголосый закадровый) (Дольский Андрей)"],"quality":"bd","translation":"Авторский (одноголосый закадровый) (Дольский Андрей)","update":"2020-02-12 08:30:09","iframe_src":"//5091.svetacdn.in/71tsRs29n5tZ/movie/35876"},{"id":35568,"title":"История о нас","kp_id":"1564","imdb_id":"tt0160916","world_art_id":null,"type":"movie","add":"2020-01-28 11:06:34","orig_title":"The Story of Us","year":"1999-10-13","translations":["Полное дублирование"],"quality":"bd","translation":"Полное дублирование","update":"2020-02-12 13:27:45","iframe_src":"//5091.svetacdn.in/71tsRs29n5tZ/movie/35568"},{"id":34595,"title":"Инферно","kp_id":"746884","imdb_id":"tt2957680","world_art_id":null,"type":"movie","add":"2019-12-29 22:22:38","orig_title":"Tao chu sheng tian","year":"2013-09-30","translations":["Любительский (двухголосый закадровый) (GREEN TEA)","Любительский (одноголосый закадровый) (den904)"],"quality":"bd","translation":"Любительский (двухголосый закадровый) (GREEN TEA)","update":"2020-02-12 08:51:00","iframe_src":"//5091.svetacdn.in/71tsRs29n5tZ/movie/34595"},{"id":11115,"title":"Аран","kp_id":"318437","imdb_id":"tt0826031","world_art_id":null,"type":"movie","add":"2017-04-19 22:11:15","orig_title":"Arang","year":"2006-06-28","translations":["Любительский (двухголосый закадровый) (STEPonee)","Любительский (одноголосый закадровый) (den904)"],"quality":"hdtv","translation":"Любительский (двухголосый закадровый) (STEPonee)","update":"2020-02-12 08:59:00","iframe_src":"//5091.svetacdn.in/71tsRs29n5tZ/movie/11115"},{"id":757,"title":"Банды Нью-Йорка","kp_id":"678","imdb_id":"tt0217505","world_art_id":null,"type":"movie","add":"2016-04-07 17:45:35","orig_title":"Gangs of New York","year":"2002-12-09","translations":["Original (English)","Полное дублирование"],"quality":"bd","translation":"Original (English)","update":"2020-02-12 10:41:36","iframe_src":"//5091.svetacdn.in/71tsRs29n5tZ/movie/757"}],"current_page":1092,"first_page_url":"https://videocdn.tv/api/short?limit=100&api_token=EnbO9h8pv1VyjbCJhg0WM9nG259n7mtz&cache31092=31092&page=1","from":109101,"last_page":665,"last_page_url":"https://videocdn.tv/api/short?limit=100&api_token=EnbO9h8pv1VyjbCJhg0WM9nG259n7mtz&cache31092=31092&page=665","next_page_url":null,"path":"https://videocdn.tv/api/short","per_page":100,"prev_page_url":"https://videocdn.tv/api/short?limit=100&api_token=EnbO9h8pv1VyjbCJhg0WM9nG259n7mtz&cache31092=31092&page=1091","to":109120,"total":66453}