{"result":true,"data":[{"id":23816,"title":"Свидетели Путина","kp_id":"1171876","imdb_id":"tt8647924","world_art_id":null,"type":"movie","add":"2019-04-03 12:11:10","orig_title":"Svideteli Putina","year":"2018-06-30","translations":["Оригинальная дорожка"],"quality":"webdl","translation":"Оригинальная дорожка","update":"2019-04-03 19:16:27","iframe_src":"//83.svetacdn.in/PfJ50H0ZBPg3/movie/23816"},{"id":23798,"title":"Золотой век","kp_id":"259338","imdb_id":"tt6413648","world_art_id":null,"type":"movie","add":"2019-04-02 09:24:40","orig_title":"Zolotoy vek","year":"2004-06-10","translations":["Оригинальная дорожка"],"quality":"dvdrip","translation":"Оригинальная дорожка","update":"2019-04-03 09:52:11","iframe_src":"//83.svetacdn.in/PfJ50H0ZBPg3/movie/23798"},{"id":23797,"title":"Кошечка","kp_id":"470418","imdb_id":"tt1528770","world_art_id":null,"type":"movie","add":"2019-04-02 09:19:03","orig_title":"Koshechka","year":"2009-12-10","translations":["Оригинальная дорожка"],"quality":"dvdrip","translation":"Оригинальная дорожка","update":"2019-04-03 09:51:25","iframe_src":"//83.svetacdn.in/PfJ50H0ZBPg3/movie/23797"},{"id":23796,"title":"Вовочка","kp_id":"208147","imdb_id":"tt0430748","world_art_id":null,"type":"movie","add":"2019-04-02 09:16:38","orig_title":"Vovochka","year":"2002-01-01","translations":["Оригинальная дорожка"],"quality":"dvdrip","translation":"Оригинальная дорожка","update":"2019-04-03 09:50:13","iframe_src":"//83.svetacdn.in/PfJ50H0ZBPg3/movie/23796"},{"id":23795,"title":"Глаза","kp_id":"41184","imdb_id":"tt0104347","world_art_id":null,"type":"movie","add":"2019-04-02 09:14:11","orig_title":"Glaza","year":"1992-01-01","translations":["Оригинальная дорожка"],"quality":"dvdrip","translation":"Оригинальная дорожка","update":"2019-04-03 09:48:06","iframe_src":"//83.svetacdn.in/PfJ50H0ZBPg3/movie/23795"},{"id":23794,"title":"Дважды рожденный","kp_id":"44344","imdb_id":"tt0252402","world_art_id":null,"type":"movie","add":"2019-04-02 09:12:08","orig_title":"Dvazhdy rozhdyonnyy","year":"1984-05-21","translations":["Оригинальная дорожка"],"quality":"dvdrip","translation":"Оригинальная дорожка","update":"2019-04-03 09:46:53","iframe_src":"//83.svetacdn.in/PfJ50H0ZBPg3/movie/23794"},{"id":23793,"title":"Вопрос чести","kp_id":"586272","imdb_id":"tt6096684","world_art_id":null,"type":"movie","add":"2019-04-02 09:09:25","orig_title":"Vopros chesti","year":"2011-04-26","translations":["Оригинальная дорожка"],"quality":"dvdrip","translation":"Оригинальная дорожка","update":"2019-04-03 09:46:10","iframe_src":"//83.svetacdn.in/PfJ50H0ZBPg3/movie/23793"},{"id":23792,"title":"Хроника «Ада»","kp_id":"279771","imdb_id":"tt2782078","world_art_id":null,"type":"movie","add":"2019-04-02 08:56:52","orig_title":"Khronika Ada","year":"2010-01-14","translations":["Оригинальная дорожка"],"quality":"dvdrip","translation":"Оригинальная дорожка","update":"2019-04-03 09:45:08","iframe_src":"//83.svetacdn.in/PfJ50H0ZBPg3/movie/23792"},{"id":23791,"title":"Живой","kp_id":"256503","imdb_id":"tt0880504","world_art_id":null,"type":"movie","add":"2019-04-02 08:53:25","orig_title":"Zhivoy","year":"2006-09-21","translations":["Оригинальная дорожка"],"quality":"dvdrip","translation":"Оригинальная дорожка","update":"2019-04-03 09:44:02","iframe_src":"//83.svetacdn.in/PfJ50H0ZBPg3/movie/23791"},{"id":23790,"title":"Отпуск","kp_id":"717951","imdb_id":"tt7732364","world_art_id":null,"type":"movie","add":"2019-04-02 08:51:38","orig_title":"Otpusk","year":"2012-11-30","translations":["Оригинальная дорожка"],"quality":"dvdrip","translation":"Оригинальная дорожка","update":"2019-04-03 09:42:40","iframe_src":"//83.svetacdn.in/PfJ50H0ZBPg3/movie/23790"},{"id":23789,"title":"Рай и ад","kp_id":"8412","imdb_id":"tt0057565","world_art_id":null,"type":"movie","add":"2019-04-02 08:47:36","orig_title":"Tengoku to jigoku","year":"1963-03-01","translations":["Профессиональный (многоголосый закадровый)"],"quality":"bd","translation":"Профессиональный (многоголосый закадровый)","update":"2019-04-03 09:41:26","iframe_src":"//83.svetacdn.in/PfJ50H0ZBPg3/movie/23789"},{"id":23788,"title":"Лига Справедливости: Кризис двух миров","kp_id":"475307","imdb_id":"tt1494772","world_art_id":null,"type":"movie","add":"2019-04-02 08:39:35","orig_title":"Justice League: Crisis on Two Earths","year":"2010-02-23","translations":["Любительский (многоголосый закадровый)"],"quality":"bd","translation":"Любительский (многоголосый закадровый)","update":"2019-04-03 09:39:20","iframe_src":"//83.svetacdn.in/PfJ50H0ZBPg3/movie/23788"},{"id":23787,"title":"Смурфики: Легенда о Смурфной лощине","kp_id":"762012","imdb_id":"tt2958484","world_art_id":null,"type":"movie","add":"2019-04-02 08:36:46","orig_title":"The Smurfs: The Legend of Smurfy Hollow","year":"2013-10-26","translations":["Полное дублирование"],"quality":"webdl","translation":"Полное дублирование","update":"2019-04-03 09:37:28","iframe_src":"//83.svetacdn.in/PfJ50H0ZBPg3/movie/23787"},{"id":23786,"title":"Стена","kp_id":"23712","imdb_id":"tt0084503","world_art_id":null,"type":"movie","add":"2019-04-02 08:33:20","orig_title":"Pink Floyd: The WallЕ","year":"1982-07-14","translations":["Авторский (одноголосый закадровый) (Сербин Юрий)"],"quality":"hdtv","translation":"Авторский (одноголосый закадровый) (Сербин Юрий)","update":"2019-04-03 09:36:38","iframe_src":"//83.svetacdn.in/PfJ50H0ZBPg3/movie/23786"},{"id":23778,"title":"Звездные врата: Континуум","kp_id":"307419","imdb_id":"tt0929629","world_art_id":null,"type":"movie","add":"2019-04-02 08:21:31","orig_title":"Stargate: Continuum","year":"2008-07-29","translations":["Профессиональный (многоголосый закадровый)"],"quality":"bd","translation":"Профессиональный (многоголосый закадровый)","update":"2019-04-03 09:31:46","iframe_src":"//83.svetacdn.in/PfJ50H0ZBPg3/movie/23778"},{"id":23777,"title":"Книга драконов","kp_id":"648466","imdb_id":"tt2113625","world_art_id":null,"type":"movie","add":"2019-04-02 08:18:55","orig_title":"Book of Dragons","year":"2011-11-15","translations":["Полное дублирование"],"quality":"bd","translation":"Полное дублирование","update":"2019-04-03 09:30:10","iframe_src":"//83.svetacdn.in/PfJ50H0ZBPg3/movie/23777"},{"id":23776,"title":"Ромео и Джульетта","kp_id":"15204","imdb_id":"tt0063518","world_art_id":null,"type":"movie","add":"2019-04-02 08:14:49","orig_title":"Romeo and Juliet","year":"1968-03-04","translations":["Полное дублирование"],"quality":"bd","translation":"Полное дублирование","update":"2019-04-03 09:25:28","iframe_src":"//83.svetacdn.in/PfJ50H0ZBPg3/movie/23776"},{"id":23775,"title":"Зигзаг удачи","kp_id":"45352","imdb_id":"tt0063840","world_art_id":null,"type":"movie","add":"2019-04-02 08:09:40","orig_title":"Zigzag udachi","year":"1968-12-30","translations":["Оригинальная дорожка"],"quality":"webdl","translation":"Оригинальная дорожка","update":"2019-04-03 09:24:06","iframe_src":"//83.svetacdn.in/PfJ50H0ZBPg3/movie/23775"},{"id":23748,"title":"С любимыми не расставайтесь","kp_id":"43570","imdb_id":"tt0079835","world_art_id":null,"type":"movie","add":"2019-04-01 09:40:48","orig_title":"S lyubimymi ne rasstavaytes","year":"1980-07-07","translations":["Оригинальная дорожка"],"quality":"dvdrip","translation":"Оригинальная дорожка","update":"2019-04-03 09:17:05","iframe_src":"//83.svetacdn.in/PfJ50H0ZBPg3/movie/23748"},{"id":23747,"title":"Волкодав","kp_id":"45829","imdb_id":"tt0103225","world_art_id":null,"type":"movie","add":"2019-04-01 09:37:29","orig_title":"Volkodav","year":"1992-07-01","translations":["Оригинальная дорожка"],"quality":"dvdrip","translation":"Оригинальная дорожка","update":"2019-04-03 09:20:04","iframe_src":"//83.svetacdn.in/PfJ50H0ZBPg3/movie/23747"}],"current_page":1637,"first_page_url":"https://videocdn.tv/api/short?limit=100&api_token=RgFQdUIR2dRmwv8iYa5SnFNgnw3vpjKj&cache31637=31637&page=1","from":163601,"last_page":650,"last_page_url":"https://videocdn.tv/api/short?limit=100&api_token=RgFQdUIR2dRmwv8iYa5SnFNgnw3vpjKj&cache31637=31637&page=650","next_page_url":null,"path":"https://videocdn.tv/api/short","per_page":100,"prev_page_url":"https://videocdn.tv/api/short?limit=100&api_token=RgFQdUIR2dRmwv8iYa5SnFNgnw3vpjKj&cache31637=31637&page=1636","to":163620,"total":64908}