{"result":true,"data":[{"id":44156,"title":"Не тот организатор свадеб","kp_id":"1366961","imdb_id":"tt12070904","world_art_id":null,"type":"movie","add":"2020-10-06 11:24:54","orig_title":"The Wrong Wedding Planner","year":"2020-07-17","translations":["Любительский (многоголосый закадровый) (Синема УС)"],"quality":"webdl","translation":"Любительский (многоголосый закадровый) (Синема УС)","update":"2020-10-06 16:08:06","iframe_src":"//5091.svetacdn.in/71tsRs29n5tZ/movie/44156"},{"id":44154,"title":"Когда заходит солнце","kp_id":"1424255","imdb_id":"tt12762790","world_art_id":null,"type":"movie","add":"2020-10-06 11:17:14","orig_title":"Quando o Sol se Põe","year":"2020-04-16","translations":["Любительский (многоголосый закадровый) (Синема УС)"],"quality":"webdl","translation":"Любительский (многоголосый закадровый) (Синема УС)","update":"2020-10-06 15:27:43","iframe_src":"//5091.svetacdn.in/71tsRs29n5tZ/movie/44154"},{"id":44151,"title":"Смертельная поездка: Убийственный райдшеринг","kp_id":"1409745","imdb_id":"tt12832148","world_art_id":null,"type":"movie","add":"2020-10-06 11:12:07","orig_title":"Driven to the Edge","year":"2020-07-05","translations":["Любительский (многоголосый закадровый) (Синема УС)"],"quality":"hdtv","translation":"Любительский (многоголосый закадровый) (Синема УС)","update":"2020-10-06 17:36:02","iframe_src":"//5091.svetacdn.in/71tsRs29n5tZ/movie/44151"},{"id":44150,"title":"Анонимные убийцы","kp_id":"911732","imdb_id":"tt3727948","world_art_id":null,"type":"movie","add":"2020-10-06 07:52:59","orig_title":"Anonymous Killers","year":"2020-10-20","translations":["Любительский (многоголосый закадровый) (@MUZOBOZ@)"],"quality":"webdl","translation":"Любительский (многоголосый закадровый) (@MUZOBOZ@)","update":"2020-10-06 14:59:26","iframe_src":"//5091.svetacdn.in/71tsRs29n5tZ/movie/44150"},{"id":44145,"title":"Пальцы","kp_id":"1039765","imdb_id":"tt6425770","world_art_id":null,"type":"movie","add":"2020-10-05 20:16:59","orig_title":"Fingers","year":"2019-08-23","translations":["Любительский (многоголосый закадровый) (Синема УС)"],"quality":"webdl","translation":"Любительский (многоголосый закадровый) (Синема УС)","update":"2020-10-06 06:56:54","iframe_src":"//5091.svetacdn.in/71tsRs29n5tZ/movie/44145"},{"id":44136,"title":"Грайндсплуатация 666","kp_id":"1178734","imdb_id":"tt8791476","world_art_id":null,"type":"movie","add":"2020-10-05 14:39:02","orig_title":"Grindsploitation 666","year":"2018-10-01","translations":["Любительский (многоголосый закадровый) (Синема УС)"],"quality":"webdl","translation":"Любительский (многоголосый закадровый) (Синема УС)","update":"2020-10-07 04:48:19","iframe_src":"//5091.svetacdn.in/71tsRs29n5tZ/movie/44136"},{"id":44135,"title":"Шнурки на Рождество","kp_id":"1201433","imdb_id":"tt9134798","world_art_id":null,"type":"movie","add":"2020-10-05 14:37:24","orig_title":"Shoelaces for Christmas","year":"2018-12-02","translations":["Любительский (многоголосый закадровый) (AlphaProject)"],"quality":"webdl","translation":"Любительский (многоголосый закадровый) (AlphaProject)","update":"2020-10-06 17:39:51","iframe_src":"//5091.svetacdn.in/71tsRs29n5tZ/movie/44135"},{"id":44132,"title":"Мерзость","kp_id":"911434","imdb_id":"tt4667872","world_art_id":null,"type":"movie","add":"2020-10-05 11:20:52","orig_title":"Abomination","year":"2018-03-09","translations":["Любительский (многоголосый закадровый) (AlphaProject)"],"quality":"webdl","translation":"Любительский (многоголосый закадровый) (AlphaProject)","update":"2020-10-06 11:40:41","iframe_src":"//5091.svetacdn.in/71tsRs29n5tZ/movie/44132"},{"id":44131,"title":"Невидимая сеть: обнажёнка","kp_id":"1036813","imdb_id":"tt6476146","world_art_id":null,"type":"movie","add":"2020-10-05 11:19:33","orig_title":"Deep Web XXX","year":"2018-03-10","translations":["Любительский (многоголосый закадровый) (Синема УС)"],"quality":"bd","translation":"Любительский (многоголосый закадровый) (Синема УС)","update":"2020-10-06 11:41:03","iframe_src":"//5091.svetacdn.in/71tsRs29n5tZ/movie/44131"},{"id":44130,"title":"Снежный человек во льдах","kp_id":"1175669","imdb_id":"tt8736994","world_art_id":null,"type":"movie","add":"2020-10-05 11:18:06","orig_title":"Frozen Sasquatch","year":"2018-07-19","translations":["Любительский (многоголосый закадровый) (Синема УС)"],"quality":"webdl","translation":"Любительский (многоголосый закадровый) (Синема УС)","update":"2020-10-06 11:41:29","iframe_src":"//5091.svetacdn.in/71tsRs29n5tZ/movie/44130"},{"id":44129,"title":"Воронка на двоих","kp_id":"1291203","imdb_id":"tt10747038","world_art_id":null,"type":"movie","add":"2020-10-05 11:16:20","orig_title":"Kakou No Futari","year":"2019-08-23","translations":["Любительский (многоголосый закадровый) (Синема УС)"],"quality":"bd","translation":"Любительский (многоголосый закадровый) (Синема УС)","update":"2020-10-06 11:42:00","iframe_src":"//5091.svetacdn.in/71tsRs29n5tZ/movie/44129"},{"id":44128,"title":"Предательство","kp_id":"996745","imdb_id":"tt5898712","world_art_id":null,"type":"movie","add":"2020-10-05 11:14:49","orig_title":"Traición","year":"2018-03-10","translations":["Любительский (многоголосый закадровый) (Синема УС)"],"quality":"webdl","translation":"Любительский (многоголосый закадровый) (Синема УС)","update":"2020-10-06 11:42:41","iframe_src":"//5091.svetacdn.in/71tsRs29n5tZ/movie/44128"},{"id":44127,"title":"Дочь папы: во имя Господа!","kp_id":"1350915","imdb_id":"tt11792122","world_art_id":null,"type":"movie","add":"2020-10-05 11:12:21","orig_title":"Die Papsttochter - Wir kommen im Namen des Herrn","year":"2020-02-14","translations":["Любительский (многоголосый закадровый) (Синема УС)"],"quality":"bd","translation":"Любительский (многоголосый закадровый) (Синема УС)","update":"2020-10-06 11:43:29","iframe_src":"//5091.svetacdn.in/71tsRs29n5tZ/movie/44127"},{"id":44126,"title":"Дерево","kp_id":"1074420","imdb_id":"tt6725440","world_art_id":null,"type":"movie","add":"2020-10-05 11:10:27","orig_title":"A Árvore","year":"2018-02-21","translations":["Любительский (многоголосый закадровый) (Синема УС)"],"quality":"webdl","translation":"Любительский (многоголосый закадровый) (Синема УС)","update":"2020-10-06 11:44:13","iframe_src":"//5091.svetacdn.in/71tsRs29n5tZ/movie/44126"},{"id":44125,"title":"Витория, 3 марта","kp_id":"1078975","imdb_id":"tt7490282","world_art_id":null,"type":"movie","add":"2020-10-05 11:08:48","orig_title":"Vitoria, 3 de marzo","year":"2018-09-26","translations":["Любительский (многоголосый закадровый) (Синема УС)"],"quality":"webdl","translation":"Любительский (многоголосый закадровый) (Синема УС)","update":"2020-10-06 11:44:38","iframe_src":"//5091.svetacdn.in/71tsRs29n5tZ/movie/44125"},{"id":44123,"title":"Терпящий неудачу","kp_id":"1203400","imdb_id":"tt9032866","world_art_id":null,"type":"movie","add":"2020-10-05 11:03:29","orig_title":"Caiga quien caiga","year":"2018-08-23","translations":["Любительский (многоголосый закадровый) (AlphaProject)"],"quality":"webdl","translation":"Любительский (многоголосый закадровый) (AlphaProject)","update":"2020-10-06 11:45:33","iframe_src":"//5091.svetacdn.in/71tsRs29n5tZ/movie/44123"},{"id":44119,"title":"Прыжок","kp_id":"260517","imdb_id":"tt0816544","world_art_id":null,"type":"movie","add":"2020-10-04 20:44:24","orig_title":"Jump!","year":"2007-02-14","translations":["Профессиональный (многоголосый закадровый)"],"quality":"dvdrip","translation":"Профессиональный (многоголосый закадровый)","update":"2020-10-06 15:31:16","iframe_src":"//5091.svetacdn.in/71tsRs29n5tZ/movie/44119"},{"id":42483,"title":"Волшебный лагерь","kp_id":"867331","imdb_id":"tt3979300","world_art_id":null,"type":"movie","add":"2020-08-16 11:34:13","orig_title":"Magic Camp","year":"2020-08-14","translations":["Любительский (многоголосый закадровый) (Синема УС)","Original (English)","Профессиональный (многоголосый закадровый) (Flarrow Films)"],"quality":"webdl","translation":"Любительский (многоголосый закадровый) (Синема УС)","update":"2020-10-06 17:38:21","iframe_src":"//5091.svetacdn.in/71tsRs29n5tZ/movie/42483"},{"id":41144,"title":"С наступлением ночи","kp_id":"1115892","imdb_id":"tt6647564","world_art_id":null,"type":"movie","add":"2020-06-12 07:21:28","orig_title":"Anderson Falls","year":"2020-01-01","translations":["Любительский (многоголосый закадровый) (@MUZOBOZ@)","Original (English)"],"quality":"webdl","translation":"Любительский (многоголосый закадровый) (@MUZOBOZ@)","update":"2020-10-07 06:04:54","iframe_src":"//5091.svetacdn.in/71tsRs29n5tZ/movie/41144"},{"id":40052,"title":"Агент Лев","kp_id":"1246571","imdb_id":"tt9908390","world_art_id":null,"type":"movie","add":"2020-05-02 04:08:49","orig_title":"Le lion","year":"2020-01-14","translations":["Любительский (многоголосый закадровый) (AlphaProject)","Любительский (многоголосый закадровый) (AlphaProject)","Полное дублирование (iTunes)"],"quality":"webdl","translation":"Любительский (многоголосый закадровый) (AlphaProject)","update":"2020-10-06 06:58:38","iframe_src":"//5091.svetacdn.in/71tsRs29n5tZ/movie/40052"}],"current_page":669,"first_page_url":"https://videocdn.tv/api/short?limit=100&api_token=EnbO9h8pv1VyjbCJhg0WM9nG259n7mtz&cache3669=3669&page=1","from":66801,"last_page":668,"last_page_url":"https://videocdn.tv/api/short?limit=100&api_token=EnbO9h8pv1VyjbCJhg0WM9nG259n7mtz&cache3669=3669&page=668","next_page_url":null,"path":"https://videocdn.tv/api/short","per_page":100,"prev_page_url":"https://videocdn.tv/api/short?limit=100&api_token=EnbO9h8pv1VyjbCJhg0WM9nG259n7mtz&cache3669=3669&page=668","to":66820,"total":66732}