{"result":true,"data":[{"id":42415,"title":"Доблестные рыцари","kp_id":null,"imdb_id":"tt10194080","world_art_id":null,"type":"movie","add":"2020-08-11 08:19:37","orig_title":"Valiant","year":"2019-11-17","translations":["Любительский (многоголосый закадровый) (Синема УС)"],"quality":"webdl","translation":"Любительский (многоголосый закадровый) (Синема УС)","update":"2020-08-11 17:38:57","iframe_src":"//5091.svetacdn.in/IAF0wWTdNYZm/movie/42415"},{"id":42414,"title":"Вместе","kp_id":"1006079","imdb_id":"tt6111634","world_art_id":null,"type":"movie","add":"2020-08-11 08:18:36","orig_title":"Together","year":"2018-01-12","translations":["Любительский (многоголосый закадровый) (Синема УС)"],"quality":"webdl","translation":"Любительский (многоголосый закадровый) (Синема УС)","update":"2020-08-11 14:12:40","iframe_src":"//5091.svetacdn.in/IAF0wWTdNYZm/movie/42414"},{"id":42413,"title":"Искусство убийства","kp_id":"1205594","imdb_id":"tt9182980","world_art_id":null,"type":"movie","add":"2020-08-11 08:18:04","orig_title":"The Art of Murder","year":"2018-10-05","translations":["Любительский (многоголосый закадровый) (AlphaProject)"],"quality":"webdl","translation":"Любительский (многоголосый закадровый) (AlphaProject)","update":"2020-08-11 14:11:18","iframe_src":"//5091.svetacdn.in/IAF0wWTdNYZm/movie/42413"},{"id":42412,"title":"Поправка","kp_id":"1123037","imdb_id":"tt8363508","world_art_id":null,"type":"movie","add":"2020-08-11 08:17:32","orig_title":"The Amendment","year":"2018-04-12","translations":["Любительский (многоголосый закадровый) (AlphaProject)"],"quality":"webdl","translation":"Любительский (многоголосый закадровый) (AlphaProject)","update":"2020-08-11 14:11:56","iframe_src":"//5091.svetacdn.in/IAF0wWTdNYZm/movie/42412"},{"id":42411,"title":"Сувениры","kp_id":"1283681","imdb_id":null,"world_art_id":null,"type":"movie","add":"2020-08-11 08:17:01","orig_title":"Souvenirs","year":"2020-01-01","translations":["Любительский (многоголосый закадровый) (Синема УС)"],"quality":"webdl","translation":"Любительский (многоголосый закадровый) (Синема УС)","update":"2020-08-11 14:09:27","iframe_src":"//5091.svetacdn.in/IAF0wWTdNYZm/movie/42411"},{"id":42410,"title":"Улицы Синдиката, Огайо","kp_id":"1072469","imdb_id":"tt6803668","world_art_id":null,"type":"movie","add":"2020-08-11 04:17:10","orig_title":"Streets of Syndicate","year":"2019-04-14","translations":["Любительский (многоголосый закадровый) (Синема УС)"],"quality":"webdl","translation":"Любительский (многоголосый закадровый) (Синема УС)","update":"2020-08-11 08:32:54","iframe_src":"//5091.svetacdn.in/IAF0wWTdNYZm/movie/42410"},{"id":42407,"title":"Икбал и индийская жемчужина","kp_id":"1144570","imdb_id":"tt8320394","world_art_id":null,"type":"movie","add":"2020-08-11 04:15:12","orig_title":"Iqbal & den indiske juvel","year":"2018-09-20","translations":["Любительский (многоголосый закадровый) (AlphaProject)"],"quality":"bd","translation":"Любительский (многоголосый закадровый) (AlphaProject)","update":"2020-08-11 14:06:50","iframe_src":"//5091.svetacdn.in/IAF0wWTdNYZm/movie/42407"},{"id":42406,"title":"Невероятные","kp_id":"1248583","imdb_id":"tt10046694","world_art_id":null,"type":"movie","add":"2020-08-11 04:14:40","orig_title":"Fabuleuses","year":"2019-08-21","translations":["Любительский (многоголосый закадровый) (@MUZOBOZ@)"],"quality":"webdl","translation":"Любительский (многоголосый закадровый) (@MUZOBOZ@)","update":"2020-08-11 14:06:14","iframe_src":"//5091.svetacdn.in/IAF0wWTdNYZm/movie/42406"},{"id":42405,"title":"Группа крови","kp_id":"999673","imdb_id":"tt6015410","world_art_id":null,"type":"movie","add":"2020-08-11 04:12:07","orig_title":"Blood Type","year":"2018-05-25","translations":["Любительский (многоголосый закадровый) (Синема УС)"],"quality":"webdl","translation":"Любительский (многоголосый закадровый) (Синема УС)","update":"2020-08-11 08:32:09","iframe_src":"//5091.svetacdn.in/IAF0wWTdNYZm/movie/42405"},{"id":42404,"title":"Феи: Тайна страны драконов","kp_id":"1301779","imdb_id":"tt7063304","world_art_id":null,"type":"movie","add":"2020-08-11 04:11:27","orig_title":"Bayala: A Magical Adventure","year":"2019-05-01","translations":["Любительский (многоголосый закадровый) (@MUZOBOZ@)"],"quality":"webdl","translation":"Любительский (многоголосый закадровый) (@MUZOBOZ@)","update":"2020-08-11 10:03:43","iframe_src":"//5091.svetacdn.in/IAF0wWTdNYZm/movie/42404"},{"id":42340,"title":"Луна над Турином","kp_id":"809211","imdb_id":"tt3342768","world_art_id":null,"type":"movie","add":"2020-08-07 07:14:48","orig_title":"La luna su Torino","year":"2013-11-09","translations":["Профессиональный (двухголосый закадровый) (iTunes)"],"quality":"webdl","translation":"Профессиональный (двухголосый закадровый) (iTunes)","update":"2020-08-12 07:48:15","iframe_src":"//5091.svetacdn.in/IAF0wWTdNYZm/movie/42340"},{"id":34066,"title":"Уедем к чёртовой бабушке","kp_id":"844159","imdb_id":"tt4065308","world_art_id":null,"type":"movie","add":"2019-12-13 13:12:34","orig_title":"Andiamo a quel paese","year":"2014-11-06","translations":["Профессиональный (многоголосый закадровый)","Профессиональный (многоголосый закадровый)"],"quality":"webdl","translation":"Профессиональный (многоголосый закадровый)","update":"2020-08-12 11:41:23","iframe_src":"//5091.svetacdn.in/IAF0wWTdNYZm/movie/34066"},{"id":26203,"title":"Счастье - это... Часть 2","kp_id":"1209747","imdb_id":"tt9386884","world_art_id":null,"type":"movie","add":"2019-05-09 16:44:44","orig_title":"Schaste - eto... 2","year":"2019-04-01","translations":["Оригинальная дорожка","Оригинальная дорожка"],"quality":"webdl","translation":"Оригинальная дорожка","update":"2020-08-12 11:35:14","iframe_src":"//5091.svetacdn.in/IAF0wWTdNYZm/movie/26203"},{"id":24791,"title":"Парень-каратист","kp_id":"22446","imdb_id":"tt0087538","world_art_id":null,"type":"movie","add":"2019-04-17 21:48:51","orig_title":"The Karate Kid","year":"1984-06-22","translations":["Профессиональный (многоголосый закадровый) (Первый канал | ОРТ)","Профессиональный (многоголосый закадровый) (Good People)","Авторский (одноголосый закадровый) (Горчаков Василий)","Авторский (одноголосый закадровый) (Товбин Юрий)","Original (English)","Профессиональный (многоголосый закадровый) (Первый канал | ОРТ)","Профессиональный (многоголосый закадровый) (РенТВ)"],"quality":"bd","translation":"Профессиональный (многоголосый закадровый) (Первый канал | ОРТ)","update":"2020-08-12 11:48:46","iframe_src":"//5091.svetacdn.in/IAF0wWTdNYZm/movie/24791"},{"id":17887,"title":"Зимний вечер в Гаграх","kp_id":"45355","imdb_id":"tt0090370","world_art_id":null,"type":"movie","add":"2018-07-25 07:39:31","orig_title":"Zimniy vecher v Gagrakh","year":"1985-12-25","translations":["Оригинальная дорожка","Оригинальная дорожка"],"quality":"webdl","translation":"Оригинальная дорожка","update":"2020-08-12 11:36:08","iframe_src":"//5091.svetacdn.in/IAF0wWTdNYZm/movie/17887"},{"id":12483,"title":"Проект X: Дорвались","kp_id":"507440","imdb_id":"tt1636826","world_art_id":null,"type":"movie","add":"2017-07-14 10:51:34","orig_title":"Project X","year":"2012-03-01","translations":["Любительский (одноголосый закадровый)","Полное дублирование","Original (English)","Авторский (одноголосый закадровый) (Гоблин | Пучков Дмитрий)"],"quality":"bd","translation":"Любительский (одноголосый закадровый)","update":"2020-08-12 07:51:30","iframe_src":"//5091.svetacdn.in/IAF0wWTdNYZm/movie/12483"},{"id":8985,"title":"Большое путешествие","kp_id":"13335","imdb_id":"tt0113936","world_art_id":null,"type":"movie","add":"2017-01-17 11:18:07","orig_title":"Senior Trip","year":"1995-09-08","translations":["Профессиональный (многоголосый закадровый)","Авторский (одноголосый закадровый) (Сербин Юрий)","Авторский (одноголосый закадровый) (Володарский Леонид)","Original (English)","Профессиональный (двухголосый закадровый) (SDI Media)","Профессиональный (многоголосый закадровый) (РТР | Россия)"],"quality":"hdtv","translation":"Профессиональный (многоголосый закадровый)","update":"2020-08-12 11:53:58","iframe_src":"//5091.svetacdn.in/IAF0wWTdNYZm/movie/8985"},{"id":8693,"title":"Тупик","kp_id":"5173","imdb_id":"tt0308152","world_art_id":null,"type":"movie","add":"2017-01-08 08:53:58","orig_title":"Dead End","year":"2003-01-30","translations":["Профессиональный (многоголосый закадровый)","Профессиональный (двухголосый закадровый) (Екатеринбург Арт)"],"quality":"webdl","translation":"Профессиональный (многоголосый закадровый)","update":"2020-08-12 11:37:48","iframe_src":"//5091.svetacdn.in/IAF0wWTdNYZm/movie/8693"},{"id":8330,"title":"Небесный верблюд","kp_id":"795757","imdb_id":"tt4432144","world_art_id":null,"type":"movie","add":"2016-12-25 12:31:19","orig_title":"Nebesnyy verblyud","year":"2015-02-12","translations":["Оригинальная дорожка","Оригинальная дорожка"],"quality":"hdtv","translation":"Оригинальная дорожка","update":"2020-08-12 08:01:03","iframe_src":"//5091.svetacdn.in/IAF0wWTdNYZm/movie/8330"},{"id":1778,"title":"Пуленепробиваемый","kp_id":"4189","imdb_id":"tt0115783","world_art_id":null,"type":"movie","add":"2016-05-02 17:55:14","orig_title":"Bulletproof","year":"1996-09-06","translations":["Профессиональный (многоголосый закадровый)","Авторский (одноголосый закадровый) (Гаврилов Андрей)","Авторский (одноголосый закадровый) (Живов Юрий)","Полное дублирование","Профессиональный (двухголосый закадровый) (Премьер Видео Фильм)","Профессиональный (многоголосый закадровый)","Профессиональный (многоголосый закадровый) (СТС)","Original (English)"],"quality":"bd","translation":"Профессиональный (многоголосый закадровый)","update":"2020-08-12 12:18:20","iframe_src":"//5091.svetacdn.in/IAF0wWTdNYZm/movie/1778"}],"current_page":767,"first_page_url":"https://videocdn.tv/api/short?limit=100&api_token=6Onb1W1alEUrBcKJZD3GoKBbWyAl2uG2&cache3767=3767&page=1","from":76601,"last_page":669,"last_page_url":"https://videocdn.tv/api/short?limit=100&api_token=6Onb1W1alEUrBcKJZD3GoKBbWyAl2uG2&cache3767=3767&page=669","next_page_url":null,"path":"https://videocdn.tv/api/short","per_page":100,"prev_page_url":"https://videocdn.tv/api/short?limit=100&api_token=6Onb1W1alEUrBcKJZD3GoKBbWyAl2uG2&cache3767=3767&page=766","to":76620,"total":66897}