{"result":true,"data":[{"id":50557,"title":"В супе","kp_id":"9626","imdb_id":"tt0104503","world_art_id":null,"type":"movie","add":"2021-05-22 13:41:55","orig_title":"In the Soup","year":"1992-08-13","translations":["Original (English)"],"quality":"webdl","translation":"Original (English)","update":"2021-05-24 08:47:09","iframe_src":"//7720.svetacdn.in/si4jsFRrtgrT/movie/50557"},{"id":50503,"title":"Ферри","kp_id":null,"imdb_id":"tt14217100","world_art_id":null,"type":"movie","add":"2021-05-19 16:32:57","orig_title":"Ferry","year":"2021-05-14","translations":["Профессиональный (многоголосый закадровый) (HDrezka Studio)","Профессиональный (многоголосый закадровый) (HDrezka Studio)","Профессиональный (многоголосый закадровый) (HDrezka Studio 18+)"],"quality":"webdl","translation":"Профессиональный (многоголосый закадровый) (HDrezka Studio)","update":"2021-05-24 10:24:17","iframe_src":"//7720.svetacdn.in/si4jsFRrtgrT/movie/50503"},{"id":49402,"title":"Каир","kp_id":"26900","imdb_id":"tt0034565","world_art_id":null,"type":"movie","add":"2021-04-07 05:23:27","orig_title":"Cairo","year":"1942-08-17","translations":["Авторский (одноголосый закадровый) (Кузнецов Сергей)","Original (English)"],"quality":"webdl","translation":"Авторский (одноголосый закадровый) (Кузнецов Сергей)","update":"2021-05-24 08:50:23","iframe_src":"//7720.svetacdn.in/si4jsFRrtgrT/movie/49402"},{"id":49354,"title":"Ознакомительный день","kp_id":"574627","imdb_id":"tt1830748","world_art_id":null,"type":"movie","add":"2021-04-05 05:21:54","orig_title":"Orientation Day","year":"2010-12-14","translations":["Полное дублирование","Профессиональный (двухголосый закадровый) (Кубик в Кубе)","Original (English)"],"quality":"bd","translation":"Полное дублирование","update":"2021-05-24 08:59:17","iframe_src":"//7720.svetacdn.in/si4jsFRrtgrT/movie/49354"},{"id":49351,"title":"Преображение дома","kp_id":"574625","imdb_id":"tt1830633","world_art_id":null,"type":"movie","add":"2021-04-05 05:19:06","orig_title":"Home Makeover","year":"2010-12-14","translations":["Полное дублирование","Профессиональный (двухголосый закадровый) (Кубик в Кубе)","Original (English)"],"quality":"bd","translation":"Полное дублирование","update":"2021-05-24 09:01:21","iframe_src":"//7720.svetacdn.in/si4jsFRrtgrT/movie/49351"},{"id":48557,"title":"Бывшая возлюбленная","kp_id":"13400","imdb_id":"tt0023993","world_art_id":null,"type":"movie","add":"2021-03-08 14:53:49","orig_title":"Ex-Lady","year":"1933-05-14","translations":["Любительский (одноголосый закадровый) (Stalk | Кирдин Никита)","Original (English)"],"quality":"webdl","translation":"Любительский (одноголосый закадровый) (Stalk | Кирдин Никита)","update":"2021-05-24 08:48:18","iframe_src":"//7720.svetacdn.in/si4jsFRrtgrT/movie/48557"},{"id":48459,"title":"Даже по-аргентински","kp_id":"12782","imdb_id":"tt0032410","world_art_id":null,"type":"movie","add":"2021-03-05 06:22:27","orig_title":"Down Argentine Way","year":"1940-10-11","translations":["Профессиональный (многоголосый закадровый) (Светла)","Original (English)"],"quality":"webdl","translation":"Профессиональный (многоголосый закадровый) (Светла)","update":"2021-05-24 08:49:24","iframe_src":"//7720.svetacdn.in/si4jsFRrtgrT/movie/48459"},{"id":48003,"title":"Вольная душа","kp_id":"10477","imdb_id":"tt0021885","world_art_id":null,"type":"movie","add":"2021-02-17 05:39:30","orig_title":"A Free Soul","year":"1931-06-02","translations":["Профессиональный (одноголосый закадровый) (Светла)","Original (English)"],"quality":"webdl","translation":"Профессиональный (одноголосый закадровый) (Светла)","update":"2021-05-24 08:52:29","iframe_src":"//7720.svetacdn.in/si4jsFRrtgrT/movie/48003"},{"id":47895,"title":"Мьюзик","kp_id":"1088265","imdb_id":"tt7541720","world_art_id":null,"type":"movie","add":"2021-02-13 08:38:57","orig_title":"Music","year":"2021-01-14","translations":["Любительский (многоголосый закадровый) (@MUZOBOZ@)","Полное дублирование (IVI)"],"quality":"webdl","translation":"Любительский (многоголосый закадровый) (@MUZOBOZ@)","update":"2021-05-24 09:44:37","iframe_src":"//7720.svetacdn.in/si4jsFRrtgrT/movie/47895"},{"id":47738,"title":"Взрывоопасная красотка","kp_id":"1506","imdb_id":"tt0023825","world_art_id":null,"type":"movie","add":"2021-02-08 06:42:29","orig_title":"Bombshell","year":"1933-10-13","translations":["Профессиональный (одноголосый закадровый) (Светла)","Original (English)"],"quality":"webdl","translation":"Профессиональный (одноголосый закадровый) (Светла)","update":"2021-05-24 08:51:13","iframe_src":"//7720.svetacdn.in/si4jsFRrtgrT/movie/47738"},{"id":46924,"title":"Семь грешников","kp_id":"1397","imdb_id":"tt0033038","world_art_id":null,"type":"movie","add":"2021-01-12 05:04:30","orig_title":"Seven Sinners","year":"1940-10-25","translations":["Профессиональный (двухголосый закадровый) (Светла)","Original (English)"],"quality":"bd","translation":"Профессиональный (двухголосый закадровый) (Светла)","update":"2021-05-24 08:58:32","iframe_src":"//7720.svetacdn.in/si4jsFRrtgrT/movie/46924"},{"id":46871,"title":"Девушки Харви","kp_id":"13270","imdb_id":"tt0038589","world_art_id":null,"type":"movie","add":"2021-01-10 15:30:23","orig_title":"The Harvey Girls","year":"1946-01-18","translations":["Профессиональный (многоголосый закадровый)","Original (English)"],"quality":"bd","translation":"Профессиональный (многоголосый закадровый)","update":"2021-05-24 08:55:03","iframe_src":"//7720.svetacdn.in/si4jsFRrtgrT/movie/46871"},{"id":46674,"title":"Охота на человека","kp_id":"20269","imdb_id":"tt0033873","world_art_id":null,"type":"movie","add":"2021-01-04 08:02:26","orig_title":"Man Hunt","year":"1941-06-13","translations":["Любительский (одноголосый закадровый) (lehachuev)","Original (English)"],"quality":"bd","translation":"Любительский (одноголосый закадровый) (lehachuev)","update":"2021-05-24 09:00:19","iframe_src":"//7720.svetacdn.in/si4jsFRrtgrT/movie/46674"},{"id":46435,"title":"Динамит","kp_id":"6346","imdb_id":"tt0131046","world_art_id":null,"type":"movie","add":"2020-12-28 08:16:05","orig_title":"T.N.T.","year":"1997-10-14","translations":["Профессиональный (многоголосый закадровый) (НТВ)","Авторский (одноголосый закадровый) (Сербин Юрий)","Original (English)"],"quality":"bd","translation":"Профессиональный (многоголосый закадровый) (НТВ)","update":"2021-05-24 08:56:53","iframe_src":"//7720.svetacdn.in/si4jsFRrtgrT/movie/46435"},{"id":8855,"title":"Дети ветра","kp_id":"1395360","imdb_id":null,"world_art_id":null,"type":"serial","add":"2020-09-27 06:24:13","orig_title":"Дети ветра","year":"2020-09-26","translations":["Оригинальная дорожка"],"seasons_count":1,"episodes_count":4,"episodes":4,"update":"2020-09-27 14:48:12","iframe_src":"//7720.svetacdn.in/si4jsFRrtgrT/tv-series/8855"},{"id":8854,"title":"Мальчик мой","kp_id":"1338532","imdb_id":"tt10349582","world_art_id":null,"type":"serial","add":"2020-09-27 06:19:00","orig_title":"Malchik Moy","year":"2019-04-27","translations":["Оригинальная дорожка"],"seasons_count":1,"episodes_count":4,"episodes":4,"update":"2020-09-27 14:43:21","iframe_src":"//7720.svetacdn.in/si4jsFRrtgrT/tv-series/8854"},{"id":8848,"title":"Посредник","kp_id":"397616","imdb_id":"tt1122770","world_art_id":null,"type":"serial","add":"2020-09-26 08:53:16","orig_title":"The Middleman","year":"2008-06-16","translations":["Профессиональный (многоголосый закадровый) (ViruseProject)"],"seasons_count":1,"episodes_count":12,"episodes":12,"update":"2020-09-26 11:30:54","iframe_src":"//7720.svetacdn.in/si4jsFRrtgrT/tv-series/8848"},{"id":8845,"title":"Капитан Кракен и его команда","kp_id":"1101315","imdb_id":null,"world_art_id":null,"type":"serial","add":"2020-09-26 08:21:29","orig_title":"Капитан Кракен и его команда","year":"2017-09-16","translations":["Оригинальная дорожка"],"seasons_count":1,"episodes_count":26,"episodes":26,"update":"2020-09-26 11:55:28","iframe_src":"//7720.svetacdn.in/si4jsFRrtgrT/tv-series/8845"},{"id":8844,"title":"Дилберт","kp_id":"395103","imdb_id":"tt0118984","world_art_id":null,"type":"serial","add":"2020-09-26 08:03:03","orig_title":"Dilbert","year":"1999-01-25","translations":["Профессиональный (многоголосый закадровый) (2x2)","Профессиональный (многоголосый закадровый)"],"seasons_count":2,"episodes_count":30,"episodes":17,"update":"2020-09-26 12:03:18","iframe_src":"//7720.svetacdn.in/si4jsFRrtgrT/tv-series/8844"},{"id":8824,"title":"Соник Андерграунд","kp_id":"447621","imdb_id":"tt0230804","world_art_id":null,"type":"serial","add":"2020-09-22 17:04:47","orig_title":"Sonic Underground","year":"1999-04-07","translations":["Полное дублирование"],"seasons_count":1,"episodes_count":26,"episodes":26,"update":"2020-09-26 13:40:07","iframe_src":"//7720.svetacdn.in/si4jsFRrtgrT/tv-series/8824"},{"id":8823,"title":"Гавань ракушек","kp_id":"840813","imdb_id":"tt3857822","world_art_id":null,"type":"serial","add":"2020-09-22 16:56:55","orig_title":"Conch Bay","year":"2000-01-01","translations":["Профессиональный (многоголосый закадровый)"],"seasons_count":2,"episodes_count":52,"episodes":26,"update":"2020-09-26 13:56:45","iframe_src":"//7720.svetacdn.in/si4jsFRrtgrT/tv-series/8823"},{"id":8822,"title":"Спиди Гонщик: Новое поколение","kp_id":"397505","imdb_id":"tt1055136","world_art_id":null,"type":"serial","add":"2020-09-22 16:44:44","orig_title":"Speed Racer: The Next Generation","year":"2008-05-02","translations":["Профессиональный (многоголосый закадровый) (2x2)"],"seasons_count":1,"episodes_count":26,"episodes":26,"update":"2020-09-27 14:05:03","iframe_src":"//7720.svetacdn.in/si4jsFRrtgrT/tv-series/8822"},{"id":8813,"title":"Экшн Мен","kp_id":"480160","imdb_id":"tt0250133","world_art_id":null,"type":"serial","add":"2020-09-21 11:21:45","orig_title":"Action Man","year":"2000-08-05","translations":["Профессиональный (многоголосый закадровый)"],"seasons_count":2,"episodes_count":26,"episodes":13,"update":"2020-09-27 14:12:26","iframe_src":"//7720.svetacdn.in/si4jsFRrtgrT/tv-series/8813"},{"id":8811,"title":"Страна троллей","kp_id":"542225","imdb_id":"tt5737046","world_art_id":null,"type":"serial","add":"2020-09-21 11:01:26","orig_title":"Troll Tales","year":"2000-09-10","translations":["Полное дублирование"],"seasons_count":2,"episodes_count":26,"episodes":13,"update":"2020-09-27 14:45:48","iframe_src":"//7720.svetacdn.in/si4jsFRrtgrT/tv-series/8811"},{"id":8810,"title":"Мои Друзья Тигруля и Винни","kp_id":"400084","imdb_id":"tt0805905","world_art_id":null,"type":"serial","add":"2020-09-21 10:51:06","orig_title":"My Friends Tigger & Pooh","year":"2007-05-12","translations":["Полное дублирование"],"seasons_count":1,"episodes_count":25,"episodes":25,"update":"2020-09-27 14:52:28","iframe_src":"//7720.svetacdn.in/si4jsFRrtgrT/tv-series/8810"},{"id":8808,"title":"Псих","kp_id":"573367","imdb_id":"tt1718438","world_art_id":null,"type":"serial","add":"2020-09-21 10:35:10","orig_title":"Mad","year":"2012-07-31","translations":["Профессиональный (многоголосый закадровый) (2x2)"],"seasons_count":2,"episodes_count":50,"episodes":25,"update":"2020-09-27 15:24:38","iframe_src":"//7720.svetacdn.in/si4jsFRrtgrT/tv-series/8808"},{"id":8798,"title":"Боб-строитель","kp_id":"467542","imdb_id":"tt0262151","world_art_id":null,"type":"serial","add":"2020-09-20 14:09:16","orig_title":"Bob the Builder","year":"1999-01-16","translations":["Полное дублирование"],"seasons_count":7,"episodes_count":91,"episodes":13,"update":"2020-09-27 10:47:22","iframe_src":"//7720.svetacdn.in/si4jsFRrtgrT/tv-series/8798"},{"id":8794,"title":"Снежная Королева: Хранители Чудес","kp_id":"1338305","imdb_id":null,"world_art_id":null,"type":"serial","add":"2020-09-20 11:07:52","orig_title":"Снежная Королева: Хранители Чудес","year":"2019-11-04","translations":["Оригинальная дорожка"],"seasons_count":1,"episodes_count":16,"episodes":16,"update":"2020-09-26 13:30:12","iframe_src":"//7720.svetacdn.in/si4jsFRrtgrT/tv-series/8794"},{"id":8792,"title":"Секретное шоу","kp_id":"335711","imdb_id":"tt0887233","world_art_id":null,"type":"serial","add":"2020-09-20 10:52:42","orig_title":"The Secret Show","year":"2006-09-16","translations":["Профессиональный (многоголосый закадровый)"],"seasons_count":2,"episodes_count":52,"episodes":26,"update":"2020-09-26 11:59:27","iframe_src":"//7720.svetacdn.in/si4jsFRrtgrT/tv-series/8792"},{"id":8787,"title":"Хитклифф","kp_id":"392520","imdb_id":"tt0285371","world_art_id":null,"type":"serial","add":"2020-09-19 11:03:22","orig_title":"Heathcliff & the Catillac Cats","year":"1984-01-03","translations":["Полное дублирование"],"seasons_count":1,"episodes_count":26,"episodes":26,"update":"2020-09-26 11:46:28","iframe_src":"//7720.svetacdn.in/si4jsFRrtgrT/tv-series/8787"},{"id":8786,"title":"Лунатики","kp_id":"471710","imdb_id":"tt0476918","world_art_id":null,"type":"serial","add":"2020-09-19 10:55:37","orig_title":"Loonatics Unleashed","year":"2005-09-17","translations":["Профессиональный (многоголосый закадровый)","Полное дублирование"],"seasons_count":2,"episodes_count":25,"episodes":13,"update":"2020-09-26 11:42:44","iframe_src":"//7720.svetacdn.in/si4jsFRrtgrT/tv-series/8786"},{"id":8785,"title":"Горец","kp_id":"229844","imdb_id":"tt0147773","world_art_id":null,"type":"serial","add":"2020-09-19 10:43:24","orig_title":"Highlander: The Animated Series","year":"1994-09-18","translations":["Полное дублирование"],"seasons_count":2,"episodes_count":32,"episodes":19,"update":"2020-09-26 11:33:50","iframe_src":"//7720.svetacdn.in/si4jsFRrtgrT/tv-series/8785"},{"id":8781,"title":"Домашнее видео","kp_id":"335717","imdb_id":"tt0197159","world_art_id":null,"type":"serial","add":"2020-09-18 12:20:53","orig_title":"Home Movies","year":"1999-04-26","translations":["Профессиональный (многоголосый закадровый)","Профессиональный (многоголосый закадровый) (2x2)"],"seasons_count":4,"episodes_count":52,"episodes":13,"update":"2020-09-26 12:05:00","iframe_src":"//7720.svetacdn.in/si4jsFRrtgrT/tv-series/8781"},{"id":43639,"title":"Полет","kp_id":"451159","imdb_id":"tt0475642","world_art_id":null,"type":"movie","add":"2020-09-17 21:09:49","orig_title":"Lend","year":"1973-01-01","translations":["Оригинальная дорожка","Оригинальная дорожка"],"quality":"dvdrip","translation":"Оригинальная дорожка","update":"2021-05-24 11:14:33","iframe_src":"//7720.svetacdn.in/si4jsFRrtgrT/movie/43639"},{"id":5288,"title":"Преступник: Великобритания","kp_id":"1245517","imdb_id":"tt9348692","world_art_id":null,"type":"serial","add":"2019-09-25 11:41:25","orig_title":"Criminal: UK","year":"2019-09-20","translations":["Профессиональный (многоголосый закадровый) (IdeaFilm)","Профессиональный (многоголосый закадровый) (HDrezka Studio)","Профессиональный (многоголосый закадровый) (LostFilm)","Профессиональный (многоголосый закадровый) (TVShows)","Любительский (многоголосый закадровый) (ColdFilm)","Любительский (многоголосый закадровый) (Octopus)","Профессиональный (двухголосый закадровый) (IdeaFilm)"],"seasons_count":2,"episodes_count":7,"episodes":4,"update":"2020-09-27 14:51:01","iframe_src":"//7720.svetacdn.in/si4jsFRrtgrT/tv-series/5288"},{"id":26776,"title":"Битва при Сарагахри","kp_id":"1108925","imdb_id":"tt6264938","world_art_id":null,"type":"movie","add":"2019-05-20 04:27:26","orig_title":"Kesari","year":"2019-03-21","translations":["Любительский (многоголосый закадровый) (Синема УС)","Любительский (двухголосый закадровый) (OnisFilms)","Профессиональный (многоголосый закадровый) (ZEE TV)"],"quality":"bd","translation":"Любительский (многоголосый закадровый) (Синема УС)","update":"2021-05-24 11:50:09","iframe_src":"//7720.svetacdn.in/si4jsFRrtgrT/movie/26776"},{"id":18681,"title":"Цилиндр","kp_id":"8325","imdb_id":"tt0027125","world_art_id":null,"type":"movie","add":"2018-08-31 00:25:34","orig_title":"Top Hat","year":"1935-08-12","translations":["Профессиональный (двухголосый закадровый)","Профессиональный (двухголосый закадровый) (Светла)","Original (English)"],"quality":"hdtv","translation":"Профессиональный (двухголосый закадровый)","update":"2021-05-24 08:53:32","iframe_src":"//7720.svetacdn.in/si4jsFRrtgrT/movie/18681"},{"id":4334,"title":"Империя Солнца","kp_id":"3923","imdb_id":"tt0092965","world_art_id":null,"type":"movie","add":"2016-08-08 07:33:55","orig_title":"Empire of the Sun","year":"1987-12-09","translations":["Полное дублирование","Авторский (одноголосый закадровый) (Рябов Сергей)","Авторский (одноголосый закадровый) (Володарский Леонид)","Полное дублирование","Original (English)","Профессиональный (многоголосый закадровый)"],"quality":"bd","translation":"Полное дублирование","update":"2021-05-24 11:25:50","iframe_src":"//7720.svetacdn.in/si4jsFRrtgrT/movie/4334"},{"id":3355,"title":"Шоссе","kp_id":"2054","imdb_id":"tt0165361","world_art_id":null,"type":"movie","add":"2016-06-24 04:37:38","orig_title":"Highway","year":"2002-03-26","translations":["Профессиональный (двухголосый закадровый)","Original (English)","Профессиональный (двухголосый закадровый) (CP Digital)"],"quality":"webdl","translation":"Профессиональный (двухголосый закадровый)","update":"2021-05-24 10:10:41","iframe_src":"//7720.svetacdn.in/si4jsFRrtgrT/movie/3355"},{"id":3086,"title":"Стэнфордский тюремный эксперимент","kp_id":"220566","imdb_id":"tt0420293","world_art_id":null,"type":"movie","add":"2016-06-13 15:34:03","orig_title":"The Stanford Prison Experiment","year":"2015-01-26","translations":["Профессиональный (многоголосый закадровый) (Paradox & Omskbird records)","Полное дублирование","Original (English)","Профессиональный (многоголосый закадровый) (IdeaFilm)"],"quality":"bd","translation":"Профессиональный (многоголосый закадровый) (Paradox & Omskbird records)","update":"2021-05-24 10:12:39","iframe_src":"//7720.svetacdn.in/si4jsFRrtgrT/movie/3086"}],"current_page":171,"first_page_url":"https://videocdn.tv/api/short?limit=100&api_token=X6EwAUfE5M9xbo7y0Bp0aPf3uXxG2KLL&cache3171=3171&page=1","from":17001,"last_page":651,"last_page_url":"https://videocdn.tv/api/short?limit=100&api_token=X6EwAUfE5M9xbo7y0Bp0aPf3uXxG2KLL&cache3171=3171&page=651","next_page_url":"https://videocdn.tv/api/short?limit=100&api_token=X6EwAUfE5M9xbo7y0Bp0aPf3uXxG2KLL&cache3171=3171&page=172","path":"https://videocdn.tv/api/short","per_page":100,"prev_page_url":"https://videocdn.tv/api/short?limit=100&api_token=X6EwAUfE5M9xbo7y0Bp0aPf3uXxG2KLL&cache3171=3171&page=170","to":17040,"total":65076}