{"result":true,"data":[{"id":49593,"title":"Встреча друзей","kp_id":"418566","imdb_id":"tt1059961","world_art_id":null,"type":"movie","add":"2021-04-13 22:14:47","orig_title":"La Reunion","year":"2006-10-17","translations":["Профессиональный (многоголосый закадровый)"],"quality":"dvdrip","translation":"Профессиональный (многоголосый закадровый)","update":"2021-04-14 06:12:06","iframe_src":"//8332.svetacdn.in/si4jsFRrtgrT/movie/49593"},{"id":49592,"title":"Рюи Блас: Опасное сходство","kp_id":"56826","imdb_id":"tt0039792","world_art_id":null,"type":"movie","add":"2021-04-13 22:05:59","orig_title":"Ruy Blas","year":"1948-02-15","translations":["Полное дублирование (Киностудия им. Горького)"],"quality":"dvdscr","translation":"Полное дублирование (Киностудия им. Горького)","update":"2021-04-14 06:11:03","iframe_src":"//8332.svetacdn.in/si4jsFRrtgrT/movie/49592"},{"id":49591,"title":"Мацист Могучий","kp_id":"73457","imdb_id":"tt0054044","world_art_id":null,"type":"movie","add":"2021-04-13 20:38:00","orig_title":"Maciste nella valle dei Re","year":"1960-11-24","translations":["Любительский (одноголосый закадровый) (den904)"],"quality":"tv","translation":"Любительский (одноголосый закадровый) (den904)","update":"2021-04-13 21:36:59","iframe_src":"//8332.svetacdn.in/si4jsFRrtgrT/movie/49591"},{"id":49581,"title":"Адитья Варма","kp_id":"1149123","imdb_id":"tt8303612","world_art_id":null,"type":"movie","add":"2021-04-13 15:59:16","orig_title":"Adithya Varma","year":"2019-11-21","translations":["Любительский (одноголосый закадровый)"],"quality":"webdl","translation":"Любительский (одноголосый закадровый)","update":"2021-04-14 07:38:50","iframe_src":"//8332.svetacdn.in/si4jsFRrtgrT/movie/49581"},{"id":49577,"title":"Киномеханик","kp_id":"1146530","imdb_id":"tt8413192","world_art_id":null,"type":"movie","add":"2021-04-13 11:27:49","orig_title":"El proyeccionista","year":"2019-06-25","translations":["Любительский (многоголосый закадровый) (Синема УС)"],"quality":"webdl","translation":"Любительский (многоголосый закадровый) (Синема УС)","update":"2021-04-13 17:16:04","iframe_src":"//8332.svetacdn.in/si4jsFRrtgrT/movie/49577"},{"id":49576,"title":"Художник призраков","kp_id":"1350996","imdb_id":"tt11799784","world_art_id":null,"type":"movie","add":"2021-04-13 11:22:34","orig_title":"Pelukis Hantu","year":"2020-10-16","translations":["Любительский (двухголосый закадровый) (Колобок)"],"quality":"webdl","translation":"Любительский (двухголосый закадровый) (Колобок)","update":"2021-04-13 17:16:49","iframe_src":"//8332.svetacdn.in/si4jsFRrtgrT/movie/49576"},{"id":49575,"title":"Зверь зверь","kp_id":"1180662","imdb_id":"tt8785030","world_art_id":null,"type":"movie","add":"2021-04-13 10:55:50","orig_title":"Beast Beast","year":"2020-01-25","translations":["Любительский (многоголосый закадровый) (Синема УС)"],"quality":"webdl","translation":"Любительский (многоголосый закадровый) (Синема УС)","update":"2021-04-13 17:13:38","iframe_src":"//8332.svetacdn.in/si4jsFRrtgrT/movie/49575"},{"id":49574,"title":"Рутабага","kp_id":"1124155","imdb_id":"tt7582108","world_art_id":null,"type":"movie","add":"2021-04-13 10:35:28","orig_title":"Rutabaga","year":"2018-09-01","translations":["Любительский (двухголосый закадровый) (Колобок)"],"quality":"webdl","translation":"Любительский (двухголосый закадровый) (Колобок)","update":"2021-04-13 17:15:01","iframe_src":"//8332.svetacdn.in/si4jsFRrtgrT/movie/49574"},{"id":49573,"title":"Карамельное Рождество","kp_id":"1344177","imdb_id":"tt11615500","world_art_id":null,"type":"movie","add":"2021-04-13 10:23:44","orig_title":"Candy Cane Christmas","year":"2020-07-18","translations":["Любительский (многоголосый закадровый) (Синема УС)"],"quality":"webdl","translation":"Любительский (многоголосый закадровый) (Синема УС)","update":"2021-04-13 17:12:28","iframe_src":"//8332.svetacdn.in/si4jsFRrtgrT/movie/49573"},{"id":49554,"title":"То, что ты обо мне не знаешь","kp_id":"1152688","imdb_id":"tt7805896","world_art_id":null,"type":"movie","add":"2021-04-12 09:41:42","orig_title":"Quello che non sai di me: WT","year":"2019-11-01","translations":["Любительский (многоголосый закадровый) (Синема УС)"],"quality":"webdl","translation":"Любительский (многоголосый закадровый) (Синема УС)","update":"2021-04-13 16:25:55","iframe_src":"//8332.svetacdn.in/si4jsFRrtgrT/movie/49554"},{"id":49553,"title":"Хижина","kp_id":"1284994","imdb_id":"tt10280172","world_art_id":null,"type":"movie","add":"2021-04-12 09:36:47","orig_title":"Shed","year":"2019-04-26","translations":["Любительский (многоголосый закадровый) (Синема УС)"],"quality":"webdl","translation":"Любительский (многоголосый закадровый) (Синема УС)","update":"2021-04-13 16:22:12","iframe_src":"//8332.svetacdn.in/si4jsFRrtgrT/movie/49553"},{"id":49552,"title":"Случается","kp_id":"1116944","imdb_id":"tt8161396","world_art_id":null,"type":"movie","add":"2021-04-12 09:33:47","orig_title":"Succede","year":"2018-04-05","translations":["Любительский (многоголосый закадровый) (Синема УС)"],"quality":"webdl","translation":"Любительский (многоголосый закадровый) (Синема УС)","update":"2021-04-13 16:18:00","iframe_src":"//8332.svetacdn.in/si4jsFRrtgrT/movie/49552"},{"id":49453,"title":"Тьма","kp_id":"1413024","imdb_id":"tt13103212","world_art_id":null,"type":"movie","add":"2021-04-09 08:37:27","orig_title":"Irul","year":"2021-04-01","translations":["Любительский (многоголосый закадровый) (Синема УС)"],"quality":"webdl","translation":"Любительский (многоголосый закадровый) (Синема УС)","update":"2021-04-14 07:28:53","iframe_src":"//8332.svetacdn.in/si4jsFRrtgrT/movie/49453"},{"id":47579,"title":"Затемнение","kp_id":"2624","imdb_id":"tt0080711","world_art_id":null,"type":"movie","add":"2021-02-01 14:18:42","orig_title":"Fade to Black","year":"1980-05-13","translations":["Авторский (одноголосый закадровый) (Карповский Антон)","Любительский (одноголосый закадровый) (Огородников Владислав)"],"quality":"bd","translation":"Авторский (одноголосый закадровый) (Карповский Антон)","update":"2021-04-14 07:34:54","iframe_src":"//8332.svetacdn.in/si4jsFRrtgrT/movie/47579"},{"id":47463,"title":"Выбор оружия","kp_id":"20909","imdb_id":"tt0082173","world_art_id":null,"type":"movie","add":"2021-01-27 18:10:55","orig_title":"Le choix des armes","year":"1981-08-19","translations":["Полное дублирование (Союзмультфильм)","Профессиональный (многоголосый закадровый) (СВ-Дубль)","Профессиональный (многоголосый закадровый)"],"quality":"bd","translation":"Полное дублирование (Союзмультфильм)","update":"2021-04-14 07:33:13","iframe_src":"//8332.svetacdn.in/si4jsFRrtgrT/movie/47463"},{"id":44910,"title":"Творцы снов","kp_id":"1328035","imdb_id":"tt9855978","world_art_id":null,"type":"movie","add":"2020-10-29 18:25:33","orig_title":"Drømmebyggerne","year":"2020-02-06","translations":["Любительский (многоголосый закадровый) (@MUZOBOZ@)","Полное дублирование","Полное дублирование (iTunes)"],"quality":"webdl","translation":"Любительский (многоголосый закадровый) (@MUZOBOZ@)","update":"2021-04-14 06:10:01","iframe_src":"//8332.svetacdn.in/si4jsFRrtgrT/movie/44910"},{"id":8752,"title":"Я тебя услышу","kp_id":"765093","imdb_id":"tt3141190","world_art_id":null,"type":"serial","add":"2020-09-16 06:05:52","orig_title":"Neoui Moksoriga Deulryeo","year":"2013-06-05","translations":["Профессиональный (многоголосый закадровый) (Мобильное телевидение)"],"seasons_count":1,"episodes_count":18,"episodes":18,"update":"2020-09-17 06:45:37","iframe_src":"//8332.svetacdn.in/si4jsFRrtgrT/tv-series/8752"},{"id":8751,"title":"Маржори","kp_id":null,"imdb_id":"tt3600554","world_art_id":null,"type":"serial","add":"2020-09-16 06:05:29","orig_title":"Marjorie","year":"2014-03-26","translations":["Любительский (многоголосый закадровый) (WestFilm)"],"seasons_count":1,"episodes_count":5,"episodes":5,"update":"2020-09-16 13:18:19","iframe_src":"//8332.svetacdn.in/si4jsFRrtgrT/tv-series/8751"},{"id":8747,"title":"Родом из 1914-го","kp_id":"880703","imdb_id":"tt4094242","world_art_id":null,"type":"serial","add":"2020-09-15 16:07:49","orig_title":"Ceux de 14","year":"2014-10-28","translations":["Любительский (многоголосый закадровый) (WestFilm)"],"seasons_count":1,"episodes_count":6,"episodes":6,"update":"2020-09-16 07:02:24","iframe_src":"//8332.svetacdn.in/si4jsFRrtgrT/tv-series/8747"},{"id":8743,"title":"Пропавшие письма","kp_id":"838792","imdb_id":"tt3592718","world_art_id":null,"type":"serial","add":"2020-09-15 13:40:20","orig_title":"Signed, Sealed, Delivered","year":"2014-04-20","translations":["Любительский (многоголосый закадровый) (WestFilm)"],"seasons_count":1,"episodes_count":19,"episodes":19,"update":"2020-09-16 08:13:31","iframe_src":"//8332.svetacdn.in/si4jsFRrtgrT/tv-series/8743"},{"id":8742,"title":"Это был не мой сын","kp_id":"1236033","imdb_id":"tt5774280","world_art_id":null,"type":"serial","add":"2020-09-15 13:35:01","orig_title":"Non è stato mio figlio","year":"2016-03-15","translations":["Любительский (многоголосый закадровый) (WestFilm)"],"seasons_count":1,"episodes_count":8,"episodes":8,"update":"2020-09-16 07:01:09","iframe_src":"//8332.svetacdn.in/si4jsFRrtgrT/tv-series/8742"},{"id":8741,"title":"От колыбели до могилы","kp_id":"932437","imdb_id":"tt4658612","world_art_id":null,"type":"serial","add":"2020-09-15 13:26:53","orig_title":"Cradle to Grave","year":"2015-09-03","translations":["Любительский (многоголосый закадровый) (WestFilm)"],"seasons_count":1,"episodes_count":8,"episodes":8,"update":"2020-09-16 07:59:27","iframe_src":"//8332.svetacdn.in/si4jsFRrtgrT/tv-series/8741"},{"id":8738,"title":"Источник","kp_id":"799700","imdb_id":"tt3178536","world_art_id":null,"type":"serial","add":"2020-09-15 11:58:13","orig_title":"La source","year":"2013-09-13","translations":["Профессиональный (двухголосый закадровый) (ViruseProject)"],"seasons_count":1,"episodes_count":6,"episodes":6,"update":"2020-09-16 11:47:59","iframe_src":"//8332.svetacdn.in/si4jsFRrtgrT/tv-series/8738"},{"id":8733,"title":"Брестфордские жены","kp_id":"1175741","imdb_id":"tt7875562","world_art_id":null,"type":"serial","add":"2020-09-14 20:55:10","orig_title":"Bedford Wives","year":"2017-08-24","translations":["Любительский (многоголосый закадровый) (WestFilm)"],"seasons_count":1,"episodes_count":13,"episodes":13,"update":"2020-09-16 10:28:25","iframe_src":"//8332.svetacdn.in/si4jsFRrtgrT/tv-series/8733"},{"id":8716,"title":"Прелюбодеяние","kp_id":"718211","imdb_id":"tt1870949","world_art_id":null,"type":"serial","add":"2020-09-13 17:54:52","orig_title":"Overspel","year":"2011-09-08","translations":["Любительский (многоголосый закадровый) (WestFilm)"],"seasons_count":3,"episodes_count":32,"episodes":10,"update":"2020-09-16 09:49:12","iframe_src":"//8332.svetacdn.in/si4jsFRrtgrT/tv-series/8716"},{"id":8714,"title":"Кровавая свадьба","kp_id":"1145453","imdb_id":"tt8324820","world_art_id":null,"type":"serial","add":"2020-09-13 08:15:20","orig_title":"Noces Rouges","year":"2018-08-05","translations":["Любительский (многоголосый закадровый) (WestFilm)","Профессиональный (многоголосый закадровый) (ViruseProject)","Профессиональный (двухголосый закадровый) (ViruseProject)"],"seasons_count":1,"episodes_count":6,"episodes":6,"update":"2020-09-16 08:01:31","iframe_src":"//8332.svetacdn.in/si4jsFRrtgrT/tv-series/8714"},{"id":8705,"title":"В ловушке","kp_id":"1367190","imdb_id":"tt12127974","world_art_id":null,"type":"serial","add":"2020-09-11 19:09:13","orig_title":"Locked","year":"2020-03-25","translations":["Любительский (многоголосый закадровый) (Octopus)"],"seasons_count":1,"episodes_count":6,"episodes":6,"update":"2020-09-16 11:30:57","iframe_src":"//8332.svetacdn.in/si4jsFRrtgrT/tv-series/8705"},{"id":8674,"title":"Доверенное","kp_id":"1405628","imdb_id":"tt12562262","world_art_id":null,"type":"serial","add":"2020-09-09 11:24:19","orig_title":"Emanet","year":"2020-09-07","translations":["Авторский (одноголосый закадровый) (BeniAffet)"],"seasons_count":1,"episodes_count":5,"episodes":5,"update":"2020-09-16 13:13:32","iframe_src":"//8332.svetacdn.in/si4jsFRrtgrT/tv-series/8674"},{"id":42500,"title":"Невозможность быть собой","kp_id":"1221547","imdb_id":"tt9321408","world_art_id":null,"type":"movie","add":"2020-08-16 15:50:20","orig_title":"Yo, imposible","year":"2018-10-20","translations":["Любительский (одноголосый закадровый) (visanti-vasaer)","Любительский (многоголосый закадровый) (Синема УС)"],"quality":"webdl","translation":"Любительский (одноголосый закадровый) (visanti-vasaer)","update":"2021-04-13 22:12:08","iframe_src":"//8332.svetacdn.in/si4jsFRrtgrT/movie/42500"},{"id":8336,"title":"Убийственный винил","kp_id":"1198461","imdb_id":"tt9018490","world_art_id":null,"type":"serial","add":"2020-08-03 12:24:04","orig_title":"Deadwax","year":"2018-11-15","translations":["Любительский (многоголосый закадровый) (Octopus)","Профессиональный (двухголосый закадровый) (ViruseProject)"],"seasons_count":1,"episodes_count":8,"episodes":8,"update":"2020-09-17 06:53:39","iframe_src":"//8332.svetacdn.in/si4jsFRrtgrT/tv-series/8336"},{"id":7956,"title":"Заложники","kp_id":"1200648","imdb_id":"tt9094282","world_art_id":null,"type":"serial","add":"2020-06-20 12:35:30","orig_title":"Hostages","year":"2019-05-31","translations":["Любительский (многоголосый закадровый) (Octopus)","Профессиональный (многоголосый закадровый) (BaibaKo)"],"seasons_count":2,"episodes_count":22,"episodes":12,"update":"2020-09-17 05:41:54","iframe_src":"//8332.svetacdn.in/si4jsFRrtgrT/tv-series/7956"},{"id":39177,"title":"Сэм: Песочный эльф","kp_id":"1007743","imdb_id":"tt5556054","world_art_id":null,"type":"movie","add":"2020-04-12 16:21:52","orig_title":"Four Kids and It","year":"2020-04-03","translations":["Любительский (многоголосый закадровый) (@MUZOBOZ@)","Original (English)","Полное дублирование","Полное дублирование"],"quality":"webdl","translation":"Любительский (многоголосый закадровый) (@MUZOBOZ@)","update":"2021-04-14 07:23:34","iframe_src":"//8332.svetacdn.in/si4jsFRrtgrT/movie/39177"},{"id":5500,"title":"Клика","kp_id":"1039549","imdb_id":"tt6563112","world_art_id":null,"type":"serial","add":"2019-10-21 19:40:01","orig_title":"Clique","year":"2017-03-05","translations":["Профессиональный (многоголосый закадровый) (TVShows)","Профессиональный (многоголосый закадровый) (HDrezka Studio)"],"seasons_count":2,"episodes_count":12,"episodes":6,"update":"2020-09-16 07:13:20","iframe_src":"//8332.svetacdn.in/si4jsFRrtgrT/tv-series/5500"},{"id":5112,"title":"Моя опасная жена","kp_id":"1001173","imdb_id":"tt5524370","world_art_id":null,"type":"serial","add":"2019-08-29 06:09:09","orig_title":"Boku no yabai tsuma","year":"2016-04-19","translations":["Любительский (двухголосый закадровый) (STEPonee)","Любительский (многоголосый закадровый) (WestFilm)"],"seasons_count":1,"episodes_count":9,"episodes":9,"update":"2020-09-17 05:34:28","iframe_src":"//8332.svetacdn.in/si4jsFRrtgrT/tv-series/5112"},{"id":3992,"title":"Имя мне Ночь","kp_id":"1167864","imdb_id":"tt7186588","world_art_id":null,"type":"serial","add":"2019-01-29 08:17:08","orig_title":"I Am the Night","year":"2019-01-28","translations":["Профессиональный (многоголосый закадровый) (ColdFilm)","Профессиональный (многоголосый закадровый) (LostFilm)","Профессиональный (многоголосый закадровый) (Novamedia)","Профессиональный (многоголосый закадровый) (HDrezka Studio)","Профессиональный (двухголосый закадровый) (Gears Media)","Профессиональный (многоголосый закадровый) (OMSKBIRD records)","Профессиональный (многоголосый закадровый) (TVShows)","Профессиональный (многоголосый закадровый) (NewStudio)","Профессиональный (многоголосый закадровый) (Jaskier)"],"seasons_count":1,"episodes_count":6,"episodes":6,"update":"2020-09-15 18:00:34","iframe_src":"//8332.svetacdn.in/si4jsFRrtgrT/tv-series/3992"},{"id":3569,"title":"Чудо: Слезы Мадонны","kp_id":"1123161","imdb_id":"tt7806456","world_art_id":null,"type":"serial","add":"2018-11-26 11:12:25","orig_title":"Il miracolo","year":"2018-05-08","translations":["Профессиональный (двухголосый закадровый) (ViruseProject)","Профессиональный (многоголосый закадровый) (HDrezka Studio)"],"seasons_count":1,"episodes_count":8,"episodes":8,"update":"2020-09-16 07:16:01","iframe_src":"//8332.svetacdn.in/si4jsFRrtgrT/tv-series/3569"},{"id":8999,"title":"Школа воров","kp_id":"64876","imdb_id":"tt0091911","world_art_id":null,"type":"movie","add":"2017-01-17 12:26:17","orig_title":"Scuola di ladri","year":"1986-10-07","translations":["Профессиональный (многоголосый закадровый)","Любительский (одноголосый закадровый)","Профессиональный (многоголосый закадровый) (Позитив)","Профессиональный (многоголосый закадровый) (НТВ)","Профессиональный (многоголосый закадровый) (СТС)"],"quality":"hdtv","translation":"Профессиональный (многоголосый закадровый)","update":"2021-04-14 07:31:13","iframe_src":"//8332.svetacdn.in/si4jsFRrtgrT/movie/8999"},{"id":624,"title":"Школа рока","kp_id":"891625","imdb_id":"tt4129004","world_art_id":null,"type":"serial","add":"2016-11-25 04:14:00","orig_title":"School of Rock","year":"2016-03-12","translations":["Полное дублирование","Полное дублирование (Burning Bush)"],"seasons_count":3,"episodes_count":45,"episodes":20,"update":"2020-09-16 12:12:40","iframe_src":"//8332.svetacdn.in/si4jsFRrtgrT/tv-series/624"},{"id":7555,"title":"Женитьба Бальзаминова","kp_id":"45300","imdb_id":"tt0058770","world_art_id":null,"type":"movie","add":"2016-11-21 09:53:40","orig_title":"Zhenitba Balzaminova","year":"1965-05-14","translations":["Оригинальная дорожка"],"quality":"webdl","translation":"Оригинальная дорожка","update":"2021-04-14 07:21:54","iframe_src":"//8332.svetacdn.in/si4jsFRrtgrT/movie/7555"},{"id":581,"title":"Граница","kp_id":"958575","imdb_id":"tt4686698","world_art_id":null,"type":"serial","add":"2016-11-15 04:17:55","orig_title":"Frontier","year":"2016-11-06","translations":["Профессиональный (многоголосый закадровый) (NewStudio)","Профессиональный (многоголосый закадровый) (Jaskier)","Профессиональный (многоголосый закадровый) (HDrezka Studio)","Профессиональный (многоголосый закадровый) (GostFilm)","Профессиональный (двухголосый закадровый) (Gears Media)","Профессиональный (многоголосый закадровый) (IdeaFilm)"],"seasons_count":3,"episodes_count":18,"episodes":6,"update":"2020-09-15 18:13:20","iframe_src":"//8332.svetacdn.in/si4jsFRrtgrT/tv-series/581"}],"current_page":153,"first_page_url":"https://videocdn.tv/api/short?limit=100&api_token=X6EwAUfE5M9xbo7y0Bp0aPf3uXxG2KLL&cache3153=3153&page=1","from":15201,"last_page":634,"last_page_url":"https://videocdn.tv/api/short?limit=100&api_token=X6EwAUfE5M9xbo7y0Bp0aPf3uXxG2KLL&cache3153=3153&page=634","next_page_url":"https://videocdn.tv/api/short?limit=100&api_token=X6EwAUfE5M9xbo7y0Bp0aPf3uXxG2KLL&cache3153=3153&page=154","path":"https://videocdn.tv/api/short","per_page":100,"prev_page_url":"https://videocdn.tv/api/short?limit=100&api_token=X6EwAUfE5M9xbo7y0Bp0aPf3uXxG2KLL&cache3153=3153&page=152","to":15240,"total":63367}