{"result":true,"data":[{"id":35794,"title":"Жизнь в Дыре","kp_id":"957325","imdb_id":"tt4991786","world_art_id":null,"type":"movie","add":"2020-02-03 21:20:34","orig_title":"Life in the Hole","year":"2017-01-31","translations":["Любительский (многоголосый закадровый) (Синема УС)"],"quality":"webdl","translation":"Любительский (многоголосый закадровый) (Синема УС)","update":"2020-02-04 07:08:17","iframe_src":"//83.svetacdn.in/PfJ50H0ZBPg3/movie/35794"},{"id":35793,"title":"Похищение одноклассницы","kp_id":"1265022","imdb_id":"tt10238708","world_art_id":null,"type":"movie","add":"2020-02-03 21:17:55","orig_title":"Killer Ransom","year":"2020-01-16","translations":["Любительский (многоголосый закадровый) (Синема УС)"],"quality":"hdtv","translation":"Любительский (многоголосый закадровый) (Синема УС)","update":"2020-02-04 07:08:57","iframe_src":"//83.svetacdn.in/PfJ50H0ZBPg3/movie/35793"},{"id":35792,"title":"Подозрения мистера Уичера: Убийство на Энджел Лэйн","kp_id":"763634","imdb_id":"tt2919798","world_art_id":null,"type":"movie","add":"2020-02-03 21:15:08","orig_title":"The Murder in Angel Lane","year":"2013-05-12","translations":["Профессиональный (многоголосый закадровый) (СВ-Дубль)"],"quality":"hdtv","translation":"Профессиональный (многоголосый закадровый) (СВ-Дубль)","update":"2020-02-03 21:33:22","iframe_src":"//83.svetacdn.in/PfJ50H0ZBPg3/movie/35792"},{"id":35763,"title":"Дорога в Эдмонд","kp_id":"1167588","imdb_id":"tt7087674","world_art_id":null,"type":"movie","add":"2020-02-03 14:27:28","orig_title":"The Road to Edmond","year":"2018-07-29","translations":["Любительский (многоголосый закадровый) (Синема УС)"],"quality":"bd","translation":"Любительский (многоголосый закадровый) (Синема УС)","update":"2020-02-03 21:34:22","iframe_src":"//83.svetacdn.in/PfJ50H0ZBPg3/movie/35763"},{"id":35758,"title":"Матиас и Максим","kp_id":"1178613","imdb_id":"tt8767908","world_art_id":null,"type":"movie","add":"2020-02-03 14:09:53","orig_title":"Matthias et Maxime","year":"2019-05-22","translations":["Профессиональный (многоголосый закадровый) (iTunes)"],"quality":"webdl","translation":"Профессиональный (многоголосый закадровый) (iTunes)","update":"2020-02-03 19:19:18","iframe_src":"//83.svetacdn.in/PfJ50H0ZBPg3/movie/35758"},{"id":35757,"title":"Письма Богу","kp_id":"481199","imdb_id":"tt1462054","world_art_id":null,"type":"movie","add":"2020-02-03 13:50:37","orig_title":"Letters to God","year":"2010-04-09","translations":["Любительский (одноголосый закадровый)"],"quality":"bd","translation":"Любительский (одноголосый закадровый)","update":"2020-02-03 19:22:35","iframe_src":"//83.svetacdn.in/PfJ50H0ZBPg3/movie/35757"},{"id":35756,"title":"И пришел он","kp_id":"86347","imdb_id":"tt0435770","world_art_id":null,"type":"movie","add":"2020-02-03 13:48:42","orig_title":"The Visitation","year":"2006-02-15","translations":["Профессиональный (многоголосый закадровый)"],"quality":"hdtv","translation":"Профессиональный (многоголосый закадровый)","update":"2020-02-03 19:24:04","iframe_src":"//83.svetacdn.in/PfJ50H0ZBPg3/movie/35756"},{"id":35755,"title":"Присутствие","kp_id":"1338526","imdb_id":"tt11681616","world_art_id":null,"type":"movie","add":"2020-02-03 12:32:43","orig_title":"The Presence","year":"2018-08-02","translations":["Любительский (двухголосый закадровый) (Колобок)"],"quality":"webdl","translation":"Любительский (двухголосый закадровый) (Колобок)","update":"2020-02-03 23:30:13","iframe_src":"//83.svetacdn.in/PfJ50H0ZBPg3/movie/35755"},{"id":35665,"title":"Витал","kp_id":"107615","imdb_id":"tt0417243","world_art_id":null,"type":"movie","add":"2020-01-30 20:56:51","orig_title":"Vital","year":"2004-09-09","translations":["Авторский (одноголосый закадровый) (Алексеев Антон)"],"quality":"bd","translation":"Авторский (одноголосый закадровый) (Алексеев Антон)","update":"2020-02-04 07:18:36","iframe_src":"//83.svetacdn.in/PfJ50H0ZBPg3/movie/35665"},{"id":35647,"title":"Класс убийц: Выпускной","kp_id":"966197","imdb_id":"tt4641264","world_art_id":null,"type":"movie","add":"2020-01-30 11:00:26","orig_title":"Ansatsu kyôshitsu: sotsugyô hen","year":"2016-03-25","translations":["Любительский (двухголосый закадровый) (Колобок)"],"quality":"bd","translation":"Любительский (двухголосый закадровый) (Колобок)","update":"2020-02-04 07:19:54","iframe_src":"//83.svetacdn.in/PfJ50H0ZBPg3/movie/35647"},{"id":30971,"title":"Дом на холмах","kp_id":"5062","imdb_id":"tt0107147","world_art_id":null,"type":"movie","add":"2019-09-18 19:40:14","orig_title":"A House in the Hills","year":"1993-10-01","translations":["Профессиональный (многоголосый закадровый) (Екатеринбург Арт)","Original (English)","Авторский (одноголосый закадровый) (Гаврилов Андрей)","Авторский (одноголосый закадровый) (Горчаков Василий)"],"quality":"webdl","translation":"Профессиональный (многоголосый закадровый) (Екатеринбург Арт)","update":"2020-02-04 07:24:53","iframe_src":"//83.svetacdn.in/PfJ50H0ZBPg3/movie/30971"},{"id":30967,"title":"Автостоянка","kp_id":"3689","imdb_id":"tt0115836","world_art_id":null,"type":"movie","add":"2019-09-18 19:32:03","orig_title":"Carpool","year":"1996-08-23","translations":["Профессиональный (двухголосый закадровый) (Selena International)","Original (English)","Авторский (одноголосый закадровый) (Горчаков Василий)"],"quality":"webdl","translation":"Профессиональный (двухголосый закадровый) (Selena International)","update":"2020-02-04 07:25:51","iframe_src":"//83.svetacdn.in/PfJ50H0ZBPg3/movie/30967"},{"id":30799,"title":"Плоть от плоти","kp_id":"7233","imdb_id":"tt0106926","world_art_id":null,"type":"movie","add":"2019-09-12 05:30:13","orig_title":"Flesh and Bone","year":"1993-11-05","translations":["Профессиональный (многоголосый закадровый) (Paramount Channel)","Original (English)","Авторский (одноголосый закадровый) (Дохалов Вартан)","Авторский (одноголосый закадровый) (Володарский Леонид)","Профессиональный (двухголосый закадровый) (Премьер Видео Фильм)"],"quality":"webdl","translation":"Профессиональный (многоголосый закадровый) (Paramount Channel)","update":"2020-02-04 07:28:52","iframe_src":"//83.svetacdn.in/PfJ50H0ZBPg3/movie/30799"},{"id":30773,"title":"Виновен вне подозрений","kp_id":"4276","imdb_id":"tt0107057","world_art_id":null,"type":"movie","add":"2019-09-11 15:25:19","orig_title":"Guilty as Sin","year":"1993-06-04","translations":["Профессиональный (двухголосый закадровый) (НТВ)","Original (English)","Авторский (одноголосый закадровый) (Гаврилов Андрей)","Профессиональный (двухголосый закадровый) (Видеосервис)"],"quality":"webdl","translation":"Профессиональный (двухголосый закадровый) (НТВ)","update":"2020-02-04 07:33:58","iframe_src":"//83.svetacdn.in/PfJ50H0ZBPg3/movie/30773"},{"id":30675,"title":"Фанат","kp_id":"1114995","imdb_id":"tt7869070","world_art_id":null,"type":"movie","add":"2019-09-08 11:25:10","orig_title":"The Fanatic","year":"2019-08-30","translations":["Любительский (многоголосый закадровый) (Mallorn Studio)"],"quality":"bd","translation":"Любительский (многоголосый закадровый) (Mallorn Studio)","update":"2020-02-03 19:19:31","iframe_src":"//83.svetacdn.in/PfJ50H0ZBPg3/movie/30675"},{"id":27373,"title":"Мустанг","kp_id":"1040958","imdb_id":"tt5952594","world_art_id":null,"type":"movie","add":"2019-06-02 21:20:05","orig_title":"The Mustang","year":"2019-01-31","translations":["Профессиональный (многоголосый закадровый)"],"quality":"bd","translation":"Профессиональный (многоголосый закадровый)","update":"2020-02-03 19:30:23","iframe_src":"//83.svetacdn.in/PfJ50H0ZBPg3/movie/27373"},{"id":23672,"title":"Финал","kp_id":"1243150","imdb_id":"tt5039416","world_art_id":null,"type":"movie","add":"2019-03-30 17:02:31","orig_title":"Finale","year":"2018-11-25","translations":["Профессиональный (многоголосый закадровый) (iTunes)"],"quality":"webdl","translation":"Профессиональный (многоголосый закадровый) (iTunes)","update":"2020-02-03 19:21:24","iframe_src":"//83.svetacdn.in/PfJ50H0ZBPg3/movie/23672"},{"id":20758,"title":"Мэри Райли","kp_id":"6710","imdb_id":"tt0117002","world_art_id":null,"type":"movie","add":"2018-12-13 22:21:43","orig_title":"Mary Reilly","year":"1996-02-23","translations":["Профессиональный (многоголосый закадровый) (Видеосервис)","Авторский (одноголосый закадровый) (Карцев Пётр)","Профессиональный (двухголосый закадровый) (SDI Media)","Профессиональный (многоголосый закадровый) (Первый канал | ОРТ)"],"quality":"bd","translation":"Профессиональный (многоголосый закадровый) (Видеосервис)","update":"2020-02-04 07:22:36","iframe_src":"//83.svetacdn.in/PfJ50H0ZBPg3/movie/20758"},{"id":6765,"title":"Не говори маме, что няня умерла","kp_id":"20154","imdb_id":"tt0101757","world_art_id":null,"type":"movie","add":"2016-10-28 05:30:57","orig_title":"Don't Tell Mom the Babysitter's Dead","year":"1991-06-07","translations":["Профессиональный (двухголосый закадровый)","Original (English)","Авторский (одноголосый закадровый) (Санаев Павел)"],"quality":"webdl","translation":"Профессиональный (двухголосый закадровый)","update":"2020-02-04 07:26:28","iframe_src":"//83.svetacdn.in/PfJ50H0ZBPg3/movie/6765"},{"id":1795,"title":"Фрэнки и Джонни","kp_id":"4873","imdb_id":"tt0101912","world_art_id":null,"type":"movie","add":"2016-05-03 05:02:46","orig_title":"Frankie and Johnny","year":"1991-10-11","translations":["Профессиональный (многоголосый закадровый)","Original (English)","Авторский (одноголосый закадровый) (Кузнецов Сергей)","Авторский (одноголосый закадровый) (Михалёв Алексей)","Профессиональный (двухголосый закадровый) (Inter Video)","Профессиональный (многоголосый закадровый) (Universal Russia)"],"quality":"webdl","translation":"Профессиональный (многоголосый закадровый)","update":"2020-02-04 07:31:51","iframe_src":"//83.svetacdn.in/PfJ50H0ZBPg3/movie/1795"}],"current_page":1025,"first_page_url":"https://videocdn.tv/api/short?limit=100&api_token=RgFQdUIR2dRmwv8iYa5SnFNgnw3vpjKj&cache31025=31025&page=1","from":102401,"last_page":649,"last_page_url":"https://videocdn.tv/api/short?limit=100&api_token=RgFQdUIR2dRmwv8iYa5SnFNgnw3vpjKj&cache31025=31025&page=649","next_page_url":null,"path":"https://videocdn.tv/api/short","per_page":100,"prev_page_url":"https://videocdn.tv/api/short?limit=100&api_token=RgFQdUIR2dRmwv8iYa5SnFNgnw3vpjKj&cache31025=31025&page=1024","to":102420,"total":64824}