{"result":true,"data":[{"id":19036,"title":"Прежде чем ты что-то скажешь","kp_id":"944860","imdb_id":"tt5187532","world_art_id":null,"type":"movie","add":"2018-09-16 23:34:32","orig_title":"Before Anything You Say","year":"2016-01-01","translations":["Любительский (двухголосый закадровый) (HiWayGrope)"],"quality":"hdrip","translation":"Любительский (двухголосый закадровый) (HiWayGrope)","update":"2018-09-17 08:17:33","iframe_src":"//7043.svetacdn.in/si4jsFRrtgrT/movie/19036"},{"id":19029,"title":"Игра вокруг нас","kp_id":null,"imdb_id":"tt3973724","world_art_id":null,"type":"movie","add":"2018-09-16 21:45:29","orig_title":"The Surrounding Game","year":"2018-02-15","translations":["Любительский (многоголосый закадровый) (Синема УС)"],"quality":"webdl","translation":"Любительский (многоголосый закадровый) (Синема УС)","update":"2018-09-17 07:52:37","iframe_src":"//7043.svetacdn.in/si4jsFRrtgrT/movie/19029"},{"id":19026,"title":"Спираль","kp_id":"1117696","imdb_id":"tt5359048","world_art_id":null,"type":"movie","add":"2018-09-16 21:35:51","orig_title":"Spiral","year":"2017-11-16","translations":["Любительский (многоголосый закадровый) (Синема УС)"],"quality":"webdl","translation":"Любительский (многоголосый закадровый) (Синема УС)","update":"2018-09-17 07:46:28","iframe_src":"//7043.svetacdn.in/si4jsFRrtgrT/movie/19026"},{"id":19025,"title":"Амфетаминовый приход","kp_id":null,"imdb_id":"tt7913994","world_art_id":null,"type":"movie","add":"2018-09-16 21:33:56","orig_title":"Speed Demons","year":"2018-01-09","translations":["Любительский (многоголосый закадровый) (Синема УС)"],"quality":"webdl","translation":"Любительский (многоголосый закадровый) (Синема УС)","update":"2018-09-17 07:45:03","iframe_src":"//7043.svetacdn.in/si4jsFRrtgrT/movie/19025"},{"id":19023,"title":"Беглец","kp_id":"1050842","imdb_id":"tt7231776","world_art_id":null,"type":"movie","add":"2018-09-16 21:29:56","orig_title":"Runner","year":"2018-08-21","translations":["Любительский (многоголосый закадровый) (Синема УС)"],"quality":"webdl","translation":"Любительский (многоголосый закадровый) (Синема УС)","update":"2018-09-17 07:04:28","iframe_src":"//7043.svetacdn.in/si4jsFRrtgrT/movie/19023"},{"id":18983,"title":"Шестиструнный самурай","kp_id":"59763","imdb_id":"tt0118736","world_art_id":null,"type":"movie","add":"2018-09-14 00:26:28","orig_title":"Six-String Samurai","year":"1998-09-15","translations":["Авторский (одноголосый закадровый) (Яроцкий Михаил | Kyberpunk)","Профессиональный (многоголосый закадровый)"],"quality":"dvdrip","translation":"Авторский (одноголосый закадровый) (Яроцкий Михаил | Kyberpunk)","update":"2018-09-17 07:07:53","iframe_src":"//7043.svetacdn.in/si4jsFRrtgrT/movie/18983"},{"id":18975,"title":"Соломон и Шеба","kp_id":"10379","imdb_id":"tt0053290","world_art_id":null,"type":"movie","add":"2018-09-14 00:00:00","orig_title":"Solomon and Sheba","year":"1959-10-27","translations":["Профессиональный (двухголосый закадровый)"],"quality":"bd","translation":"Профессиональный (двухголосый закадровый)","update":"2018-09-17 10:18:29","iframe_src":"//7043.svetacdn.in/si4jsFRrtgrT/movie/18975"},{"id":18951,"title":"Стрелок","kp_id":"679219","imdb_id":"tt2381989","world_art_id":null,"type":"movie","add":"2018-09-13 11:43:35","orig_title":"Skytten","year":"2013-02-28","translations":["Любительский (одноголосый закадровый)"],"quality":"bd","translation":"Любительский (одноголосый закадровый)","update":"2018-09-17 10:19:55","iframe_src":"//7043.svetacdn.in/si4jsFRrtgrT/movie/18951"},{"id":18881,"title":"Вернуть сына","kp_id":"61518","imdb_id":"tt0331639","world_art_id":null,"type":"movie","add":"2018-09-09 12:16:22","orig_title":"Shakthi: The Power","year":"2002-09-20","translations":["Профессиональный (многоголосый закадровый)"],"quality":"webdl","translation":"Профессиональный (многоголосый закадровый)","update":"2018-09-17 10:29:16","iframe_src":"//7043.svetacdn.in/si4jsFRrtgrT/movie/18881"},{"id":18880,"title":"Я полюбил","kp_id":"76506","imdb_id":"tt0100095","world_art_id":null,"type":"movie","add":"2018-09-09 12:14:56","orig_title":"Maine Pyar Kiya","year":"1989-12-29","translations":["Профессиональный (многоголосый закадровый)"],"quality":"webdl","translation":"Профессиональный (многоголосый закадровый)","update":"2018-09-17 10:28:24","iframe_src":"//7043.svetacdn.in/si4jsFRrtgrT/movie/18880"},{"id":18879,"title":"Плутовка","kp_id":"18759","imdb_id":"tt0122427","world_art_id":null,"type":"movie","add":"2018-09-09 12:13:15","orig_title":"Chaalbaaz","year":"1989-12-08","translations":["Профессиональный (многоголосый закадровый)"],"quality":"webdl","translation":"Профессиональный (многоголосый закадровый)","update":"2018-09-17 10:27:30","iframe_src":"//7043.svetacdn.in/si4jsFRrtgrT/movie/18879"},{"id":18877,"title":"Полиция Мумбая","kp_id":"764720","imdb_id":"tt2924472","world_art_id":null,"type":"movie","add":"2018-09-09 12:09:53","orig_title":"Mumbai Police","year":"2013-05-03","translations":["Профессиональный (многоголосый закадровый) (Red Media)"],"quality":"bd","translation":"Профессиональный (многоголосый закадровый) (Red Media)","update":"2018-09-17 10:26:39","iframe_src":"//7043.svetacdn.in/si4jsFRrtgrT/movie/18877"},{"id":18876,"title":"Любовь вчера и сегодня","kp_id":"424539","imdb_id":"tt1275863","world_art_id":null,"type":"movie","add":"2018-09-09 12:08:15","orig_title":"Love Aaj Kal","year":"2009-07-31","translations":["Профессиональный (многоголосый закадровый)"],"quality":"bd","translation":"Профессиональный (многоголосый закадровый)","update":"2018-09-17 10:26:05","iframe_src":"//7043.svetacdn.in/si4jsFRrtgrT/movie/18876"},{"id":18875,"title":"Мгновения любви","kp_id":"221878","imdb_id":"tt0102258","world_art_id":null,"type":"movie","add":"2018-09-09 12:06:57","orig_title":"Lamhe","year":"1991-11-21","translations":["Профессиональный (многоголосый закадровый) (Red Media)"],"quality":"bd","translation":"Профессиональный (многоголосый закадровый) (Red Media)","update":"2018-09-17 10:25:19","iframe_src":"//7043.svetacdn.in/si4jsFRrtgrT/movie/18875"},{"id":18874,"title":"Сестрички","kp_id":"96915","imdb_id":"tt0244585","world_art_id":null,"type":"movie","add":"2018-09-09 12:05:48","orig_title":"Khubsoorat","year":"1980-01-01","translations":["Профессиональный (многоголосый закадровый)"],"quality":"bd","translation":"Профессиональный (многоголосый закадровый)","update":"2018-09-17 10:24:01","iframe_src":"//7043.svetacdn.in/si4jsFRrtgrT/movie/18874"},{"id":18809,"title":"НЛО","kp_id":"1021576","imdb_id":"tt6290798","world_art_id":null,"type":"movie","add":"2018-09-05 23:45:13","orig_title":"UFO","year":"2018-09-04","translations":["Любительский (многоголосый закадровый) (@MUZOBOZ@)","Профессиональный (многоголосый закадровый) (iTunes)"],"quality":"webdl","translation":"Любительский (многоголосый закадровый) (@MUZOBOZ@)","update":"2018-09-18 06:50:14","iframe_src":"//7043.svetacdn.in/si4jsFRrtgrT/movie/18809"},{"id":18002,"title":"Мы были королями","kp_id":"741263","imdb_id":"tt2718442","world_art_id":null,"type":"movie","add":"2018-07-30 23:15:52","orig_title":"Wir waren Könige","year":"2014-09-11","translations":["Профессиональный (многоголосый закадровый) (GreenРай Studio)","Любительский (одноголосый закадровый) (RAIM)"],"quality":"webdl","translation":"Профессиональный (многоголосый закадровый) (GreenРай Studio)","update":"2018-09-17 08:37:43","iframe_src":"//7043.svetacdn.in/si4jsFRrtgrT/movie/18002"},{"id":8172,"title":"Волшебный свет","kp_id":"571957","imdb_id":"tt1772254","world_art_id":null,"type":"movie","add":"2016-12-19 07:09:47","orig_title":"Das blaue Licht","year":"2010-06-15","translations":["Профессиональный (многоголосый закадровый) (Игмар)","Полное дублирование"],"quality":"hdtv","translation":"Профессиональный (многоголосый закадровый) (Игмар)","update":"2018-09-17 08:44:54","iframe_src":"//7043.svetacdn.in/si4jsFRrtgrT/movie/8172"},{"id":4877,"title":"Мимино","kp_id":"46638","imdb_id":"tt0076391","world_art_id":null,"type":"movie","add":"2016-08-30 11:31:11","orig_title":"Mimino","year":"1977-07-01","translations":["Оригинальная дорожка"],"quality":"webdl","translation":"Оригинальная дорожка","update":"2018-09-17 10:30:29","iframe_src":"//7043.svetacdn.in/si4jsFRrtgrT/movie/4877"},{"id":4523,"title":"К бою готовы","kp_id":"3896","imdb_id":"tt0217756","world_art_id":null,"type":"movie","add":"2016-08-18 08:02:02","orig_title":"Ready to Rumble","year":"2000-04-07","translations":["Полное дублирование"],"quality":"webdl","translation":"Полное дублирование","update":"2018-09-17 10:32:00","iframe_src":"//7043.svetacdn.in/si4jsFRrtgrT/movie/4523"}],"current_page":1720,"first_page_url":"https://videocdn.tv/api/short?limit=100&api_token=X6EwAUfE5M9xbo7y0Bp0aPf3uXxG2KLL&cache31720=31720&page=1","from":171901,"last_page":618,"last_page_url":"https://videocdn.tv/api/short?limit=100&api_token=X6EwAUfE5M9xbo7y0Bp0aPf3uXxG2KLL&cache31720=31720&page=618","next_page_url":null,"path":"https://videocdn.tv/api/short","per_page":100,"prev_page_url":"https://videocdn.tv/api/short?limit=100&api_token=X6EwAUfE5M9xbo7y0Bp0aPf3uXxG2KLL&cache31720=31720&page=1719","to":171920,"total":61734}