{"result":true,"data":[{"id":40832,"title":"Мой маленький пони: Девочки из Эквестрии – Весенние каникулы","kp_id":"1177487","imdb_id":"tt8734872","world_art_id":null,"type":"movie","add":"2020-05-31 09:16:43","orig_title":"My Little Pony: Equestria Girls - Spring Breakdown","year":"2019-03-30","translations":["Полное дублирование (SDI Media | Iyuno-SDI Group Russia)"],"quality":"webdl","translation":"Полное дублирование (SDI Media | Iyuno-SDI Group Russia)","update":"2020-05-31 10:37:09","iframe_src":"//8422.svetacdn.in/71tsRs29n5tZ/movie/40832"},{"id":40830,"title":"Братская вечеринка","kp_id":"456816","imdb_id":"tt1414361","world_art_id":null,"type":"movie","add":"2020-05-31 07:35:41","orig_title":"Frat Party","year":"2009-12-01","translations":["Профессиональный (двухголосый закадровый)"],"quality":"hdrip","translation":"Профессиональный (двухголосый закадровый)","update":"2020-05-31 17:05:06","iframe_src":"//8422.svetacdn.in/71tsRs29n5tZ/movie/40830"},{"id":40827,"title":"Возвращение","kp_id":"468903","imdb_id":"tt1452599","world_art_id":null,"type":"movie","add":"2020-05-30 15:33:41","orig_title":"Restitution","year":"2011-10-28","translations":["Профессиональный (многоголосый закадровый)"],"quality":"hdrip","translation":"Профессиональный (многоголосый закадровый)","update":"2020-05-31 07:40:49","iframe_src":"//8422.svetacdn.in/71tsRs29n5tZ/movie/40827"},{"id":40826,"title":"Торжество","kp_id":"465","imdb_id":"tt0154420","world_art_id":null,"type":"movie","add":"2020-05-30 15:32:07","orig_title":"Festen","year":"1998-05-01","translations":["Профессиональный (одноголосый закадровый)"],"quality":"dvdrip","translation":"Профессиональный (одноголосый закадровый)","update":"2020-05-31 07:41:26","iframe_src":"//8422.svetacdn.in/71tsRs29n5tZ/movie/40826"},{"id":40825,"title":"Семейное дерево","kp_id":"404231","imdb_id":"tt1582268","world_art_id":null,"type":"movie","add":"2020-05-30 15:30:50","orig_title":"Sunny Side Up","year":"2011-10-15","translations":["Профессиональный (многоголосый закадровый)"],"quality":"bd","translation":"Профессиональный (многоголосый закадровый)","update":"2020-05-31 07:42:33","iframe_src":"//8422.svetacdn.in/71tsRs29n5tZ/movie/40825"},{"id":40824,"title":"Операция «Подсолнух»","kp_id":"771659","imdb_id":"tt2964144","world_art_id":null,"type":"movie","add":"2020-05-30 15:29:24","orig_title":"Mivtza Hamaniya","year":"2014-02-13","translations":["Любительский (одноголосый закадровый) (PashaUp | Морозов Павел)"],"quality":"hdtv","translation":"Любительский (одноголосый закадровый) (PashaUp | Морозов Павел)","update":"2020-05-31 07:43:16","iframe_src":"//8422.svetacdn.in/71tsRs29n5tZ/movie/40824"},{"id":40823,"title":"Лерой и Стич","kp_id":"251609","imdb_id":"tt0486761","world_art_id":null,"type":"movie","add":"2020-05-30 15:20:43","orig_title":"Leroy & Stitch","year":"2006-06-23","translations":["Полное дублирование"],"quality":"webdl","translation":"Полное дублирование","update":"2020-05-31 07:46:48","iframe_src":"//8422.svetacdn.in/71tsRs29n5tZ/movie/40823"},{"id":40822,"title":"Маска","kp_id":"9606","imdb_id":"tt0089560","world_art_id":null,"type":"movie","add":"2020-05-30 15:17:32","orig_title":"Mask","year":"1985-03-08","translations":["Профессиональный (многоголосый закадровый) (НТВ)"],"quality":"dvdrip","translation":"Профессиональный (многоголосый закадровый) (НТВ)","update":"2020-05-31 07:47:51","iframe_src":"//8422.svetacdn.in/71tsRs29n5tZ/movie/40822"},{"id":40820,"title":"Джеки Чан: Моя жизнь","kp_id":"77214","imdb_id":"tt0242545","world_art_id":null,"type":"movie","add":"2020-05-30 15:09:22","orig_title":"Jackie Chan: My Story","year":"1998-07-17","translations":["Любительский (одноголосый закадровый)"],"quality":"dvdrip","translation":"Любительский (одноголосый закадровый)","update":"2020-05-31 07:48:48","iframe_src":"//8422.svetacdn.in/71tsRs29n5tZ/movie/40820"},{"id":40818,"title":"Игра","kp_id":"429652","imdb_id":"tt1310501","world_art_id":null,"type":"movie","add":"2020-05-30 13:25:22","orig_title":"Deo ge-im","year":"2008-01-31","translations":["Любительский (двухголосый закадровый)"],"quality":"dvdrip","translation":"Любительский (двухголосый закадровый)","update":"2020-05-31 07:51:02","iframe_src":"//8422.svetacdn.in/71tsRs29n5tZ/movie/40818"},{"id":40817,"title":"Короли мамбо","kp_id":"18265","imdb_id":"tt0104802","world_art_id":null,"type":"movie","add":"2020-05-30 13:23:51","orig_title":"The Mambo Kings","year":"1992-02-07","translations":["Авторский (одноголосый закадровый) (Гаврилов Андрей)"],"quality":"hdrip","translation":"Авторский (одноголосый закадровый) (Гаврилов Андрей)","update":"2020-05-31 07:51:33","iframe_src":"//8422.svetacdn.in/71tsRs29n5tZ/movie/40817"},{"id":40816,"title":"Завороженный","kp_id":"950","imdb_id":"tt0038109","world_art_id":null,"type":"movie","add":"2020-05-30 13:22:26","orig_title":"Spellbound","year":"1945-10-31","translations":["Профессиональный (многоголосый закадровый) (SomeWax)"],"quality":"bd","translation":"Профессиональный (многоголосый закадровый) (SomeWax)","update":"2020-05-31 07:53:08","iframe_src":"//8422.svetacdn.in/71tsRs29n5tZ/movie/40816"},{"id":40815,"title":"Слова убийцы","kp_id":"50231","imdb_id":"tt0339489","world_art_id":null,"type":"movie","add":"2020-05-30 13:21:05","orig_title":"Palabras encadenadas","year":"2003-04-30","translations":["Профессиональный (двухголосый закадровый)"],"quality":"dvdrip","translation":"Профессиональный (двухголосый закадровый)","update":"2020-05-31 07:53:51","iframe_src":"//8422.svetacdn.in/71tsRs29n5tZ/movie/40815"},{"id":40814,"title":"Конспираторы","kp_id":"764168","imdb_id":"tt2927068","world_art_id":null,"type":"movie","add":"2020-05-30 13:19:06","orig_title":"Tong mou","year":"2013-04-11","translations":["Любительский (одноголосый закадровый) (Береговых Виктор | Jet)"],"quality":"bd","translation":"Любительский (одноголосый закадровый) (Береговых Виктор | Jet)","update":"2020-05-31 07:54:39","iframe_src":"//8422.svetacdn.in/71tsRs29n5tZ/movie/40814"},{"id":40813,"title":"Остальные вымерли","kp_id":"1327114","imdb_id":"tt11344598","world_art_id":null,"type":"movie","add":"2020-05-30 13:01:16","orig_title":"Alidu Ulidavaru","year":"2019-12-06","translations":["Любительский (многоголосый закадровый) (Синема УС)"],"quality":"webdl","translation":"Любительский (многоголосый закадровый) (Синема УС)","update":"2020-05-31 06:02:31","iframe_src":"//8422.svetacdn.in/71tsRs29n5tZ/movie/40813"},{"id":40809,"title":"Когда-то были братьями: Робби Робертсон и Зе Бэнд","kp_id":"1266514","imdb_id":"tt10334456","world_art_id":null,"type":"movie","add":"2020-05-30 12:48:59","orig_title":"Once Were Brothers: Robbie Robertson and The Band","year":"2019-09-05","translations":["Любительский (многоголосый закадровый) (Синема УС)"],"quality":"webdl","translation":"Любительский (многоголосый закадровый) (Синема УС)","update":"2020-05-31 05:58:58","iframe_src":"//8422.svetacdn.in/71tsRs29n5tZ/movie/40809"},{"id":40806,"title":"Мисти Батн","kp_id":"1145771","imdb_id":"tt7708376","world_art_id":null,"type":"movie","add":"2020-05-30 12:21:04","orig_title":"Misty Button","year":"2019-03-17","translations":["Любительский (многоголосый закадровый) (AlphaProject)"],"quality":"webdl","translation":"Любительский (многоголосый закадровый) (AlphaProject)","update":"2020-05-30 20:17:17","iframe_src":"//8422.svetacdn.in/71tsRs29n5tZ/movie/40806"},{"id":40805,"title":"Хаммамет","kp_id":"1172618","imdb_id":"tt8615136","world_art_id":null,"type":"movie","add":"2020-05-30 12:17:43","orig_title":"Hammamet","year":"2020-01-09","translations":["Любительский (многоголосый закадровый) (Синема УС)"],"quality":"webdl","translation":"Любительский (многоголосый закадровый) (Синема УС)","update":"2020-05-30 20:16:21","iframe_src":"//8422.svetacdn.in/71tsRs29n5tZ/movie/40805"},{"id":32359,"title":"Приключения мышонка","kp_id":"741158","imdb_id":"tt2439190","world_art_id":null,"type":"movie","add":"2019-10-25 20:58:24","orig_title":"Rodencia y el Diente de la Princesa","year":"2012-10-11","translations":["Полное дублирование"],"quality":"hdrip","translation":"Полное дублирование","update":"2020-05-31 07:44:15","iframe_src":"//8422.svetacdn.in/71tsRs29n5tZ/movie/32359"},{"id":7946,"title":"Наемники","kp_id":"103527","imdb_id":"tt0427528","world_art_id":null,"type":"movie","add":"2016-12-08 13:25:43","orig_title":"Mercenary for Justice","year":"2006-04-25","translations":["Профессиональный (многоголосый закадровый)"],"quality":"bd","translation":"Профессиональный (многоголосый закадровый)","update":"2020-05-31 07:45:51","iframe_src":"//8422.svetacdn.in/71tsRs29n5tZ/movie/7946"}],"current_page":915,"first_page_url":"https://videocdn.tv/api/short?limit=100&api_token=EnbO9h8pv1VyjbCJhg0WM9nG259n7mtz&cache3915=3915&page=1","from":91401,"last_page":681,"last_page_url":"https://videocdn.tv/api/short?limit=100&api_token=EnbO9h8pv1VyjbCJhg0WM9nG259n7mtz&cache3915=3915&page=681","next_page_url":null,"path":"https://videocdn.tv/api/short","per_page":100,"prev_page_url":"https://videocdn.tv/api/short?limit=100&api_token=EnbO9h8pv1VyjbCJhg0WM9nG259n7mtz&cache3915=3915&page=914","to":91420,"total":68040}