{"result":true,"data":[{"id":44505,"title":"Конкуренция","kp_id":"1002608","imdb_id":"tt6448178","world_art_id":null,"type":"movie","add":"2020-10-16 15:42:53","orig_title":"Daegyeol","year":"2016-09-25","translations":["Любительский (двухголосый закадровый) (Колобок)"],"quality":"hdrip","translation":"Любительский (двухголосый закадровый) (Колобок)","update":"2020-10-20 07:41:33","iframe_src":"//83.svetacdn.in/PfJ50H0ZBPg3/movie/44505"},{"id":44501,"title":"36 мужей","kp_id":"1104882","imdb_id":"tt7512492","world_art_id":null,"type":"movie","add":"2020-10-16 13:48:49","orig_title":"36 Husbands","year":"2019-09-05","translations":["Любительский (многоголосый закадровый) (@MUZOBOZ@)"],"quality":"webdl","translation":"Любительский (многоголосый закадровый) (@MUZOBOZ@)","update":"2020-10-20 07:28:18","iframe_src":"//83.svetacdn.in/PfJ50H0ZBPg3/movie/44501"},{"id":44348,"title":"Ведьмы амитивилля","kp_id":"1297623","imdb_id":"tt10863072","world_art_id":null,"type":"movie","add":"2020-10-12 16:51:28","orig_title":"Witches of Amityville Academy","year":"2020-10-02","translations":["Любительский (многоголосый закадровый) (@MUZOBOZ@)","Original (English)"],"quality":"webdl","translation":"Любительский (многоголосый закадровый) (@MUZOBOZ@)","update":"2020-10-20 07:09:26","iframe_src":"//83.svetacdn.in/PfJ50H0ZBPg3/movie/44348"},{"id":41114,"title":"Ночная смена","kp_id":"4024","imdb_id":"tt0084412","world_art_id":null,"type":"movie","add":"2020-06-11 06:58:55","orig_title":"Night Shift","year":"1982-07-30","translations":["Профессиональный (многоголосый закадровый) (Варус-Видео)","Original (English)"],"quality":"webdl","translation":"Профессиональный (многоголосый закадровый) (Варус-Видео)","update":"2020-10-20 07:19:00","iframe_src":"//83.svetacdn.in/PfJ50H0ZBPg3/movie/41114"},{"id":41113,"title":"Роковая ошибка","kp_id":"280920","imdb_id":"tt0497353","world_art_id":null,"type":"movie","add":"2020-06-11 06:58:00","orig_title":"Fatal Desire","year":"2006-04-03","translations":["Профессиональный (многоголосый закадровый)","Original (English)"],"quality":"webdl","translation":"Профессиональный (многоголосый закадровый)","update":"2020-10-20 07:14:59","iframe_src":"//83.svetacdn.in/PfJ50H0ZBPg3/movie/41113"},{"id":41111,"title":"В открытом море","kp_id":"4567","imdb_id":"tt0109498","world_art_id":null,"type":"movie","add":"2020-06-11 06:56:02","orig_title":"The Crew","year":"1994-10-01","translations":["Профессиональный (двухголосый закадровый)","Original (English)"],"quality":"webdl","translation":"Профессиональный (двухголосый закадровый)","update":"2020-10-20 07:32:46","iframe_src":"//83.svetacdn.in/PfJ50H0ZBPg3/movie/41111"},{"id":40791,"title":"Моя подруга Ирма","kp_id":"20396","imdb_id":"tt0041673","world_art_id":null,"type":"movie","add":"2020-05-30 07:27:24","orig_title":"My Friend Irma","year":"1949-09-28","translations":["Любительский (двухголосый закадровый)","Original (English)"],"quality":"webdl","translation":"Любительский (двухголосый закадровый)","update":"2020-10-20 07:17:12","iframe_src":"//83.svetacdn.in/PfJ50H0ZBPg3/movie/40791"},{"id":40785,"title":"Новая Франция","kp_id":"71078","imdb_id":"tt0386669","world_art_id":null,"type":"movie","add":"2020-05-30 07:17:41","orig_title":"Nouvelle-France","year":"2004-11-19","translations":["Полное дублирование","Original (English)"],"quality":"webdl","translation":"Полное дублирование","update":"2020-10-20 07:20:37","iframe_src":"//83.svetacdn.in/PfJ50H0ZBPg3/movie/40785"},{"id":40472,"title":"Мисс Мира","kp_id":"1044458","imdb_id":"tt3472928","world_art_id":null,"type":"movie","add":"2020-05-17 15:53:50","orig_title":"To Be a Miss","year":"2016-08-01","translations":["Профессиональный (двухголосый закадровый)","Original (English)"],"quality":"webdl","translation":"Профессиональный (двухголосый закадровый)","update":"2020-10-20 07:42:35","iframe_src":"//83.svetacdn.in/PfJ50H0ZBPg3/movie/40472"},{"id":40470,"title":"Я, Анна","kp_id":"500977","imdb_id":"tt1587411","world_art_id":null,"type":"movie","add":"2020-05-17 15:50:58","orig_title":"I, Anna","year":"2012-02-12","translations":["Профессиональный (двухголосый закадровый) (Игмар)","Original (English)"],"quality":"webdl","translation":"Профессиональный (двухголосый закадровый) (Игмар)","update":"2020-10-20 07:16:08","iframe_src":"//83.svetacdn.in/PfJ50H0ZBPg3/movie/40470"},{"id":40469,"title":"В погоне за мечтой","kp_id":"5074","imdb_id":"tt0083852","world_art_id":null,"type":"movie","add":"2020-05-17 15:49:40","orig_title":"The Dream Chasers","year":"1984-01-01","translations":["Любительский (одноголосый закадровый) (Ващенко Семён)","Original (English)"],"quality":"webdl","translation":"Любительский (одноголосый закадровый) (Ващенко Семён)","update":"2020-10-20 07:35:38","iframe_src":"//83.svetacdn.in/PfJ50H0ZBPg3/movie/40469"},{"id":40468,"title":"Кричи, королева: Мой кошмар на улице Вязов","kp_id":null,"imdb_id":"tt5123896","world_art_id":null,"type":"movie","add":"2020-05-17 15:48:01","orig_title":"Scream, Queen! My Nightmare on Elm Street","year":"2019-04-05","translations":["Любительский (одноголосый закадровый) (Psychotronic)","Original (English)"],"quality":"webdl","translation":"Любительский (одноголосый закадровый) (Psychotronic)","update":"2020-10-20 07:23:30","iframe_src":"//83.svetacdn.in/PfJ50H0ZBPg3/movie/40468"},{"id":40029,"title":"Притворство и коварство","kp_id":"160988","imdb_id":"tt0433371","world_art_id":null,"type":"movie","add":"2020-05-01 05:59:05","orig_title":"False Pretenses","year":"2004-10-25","translations":["Профессиональный (многоголосый закадровый) (Екатеринбург Арт)","Original (English)"],"quality":"webdl","translation":"Профессиональный (многоголосый закадровый) (Екатеринбург Арт)","update":"2020-10-20 07:13:59","iframe_src":"//83.svetacdn.in/PfJ50H0ZBPg3/movie/40029"},{"id":40027,"title":"Кот в мешке","kp_id":"18171","imdb_id":"tt0218864","world_art_id":null,"type":"movie","add":"2020-05-01 05:56:36","orig_title":"Buying the Cow","year":"2002-06-08","translations":["Профессиональный (многоголосый закадровый) (Первый канал | ОРТ)","Original (English)"],"quality":"webdl","translation":"Профессиональный (многоголосый закадровый) (Первый канал | ОРТ)","update":"2020-10-20 07:11:59","iframe_src":"//83.svetacdn.in/PfJ50H0ZBPg3/movie/40027"},{"id":40023,"title":"Кадиллак","kp_id":"18150","imdb_id":"tt0099310","world_art_id":null,"type":"movie","add":"2020-05-01 05:51:47","orig_title":"Coupe de Ville","year":"1990-03-09","translations":["Авторский (одноголосый закадровый) (Котов Вячеслав)","Original (English)"],"quality":"webdl","translation":"Авторский (одноголосый закадровый) (Котов Вячеслав)","update":"2020-10-20 07:12:55","iframe_src":"//83.svetacdn.in/PfJ50H0ZBPg3/movie/40023"},{"id":40021,"title":"Крылатые роллеры","kp_id":"6197","imdb_id":"tt0106233","world_art_id":null,"type":"movie","add":"2020-05-01 05:49:38","orig_title":"Airborne","year":"1993-09-17","translations":["Авторский (одноголосый закадровый) (Кузнецов Сергей)","Original (English)"],"quality":"webdl","translation":"Авторский (одноголосый закадровый) (Кузнецов Сергей)","update":"2020-10-20 07:10:55","iframe_src":"//83.svetacdn.in/PfJ50H0ZBPg3/movie/40021"},{"id":36963,"title":"Ой, вэй! Мой сын гей!!","kp_id":"429217","imdb_id":"tt1223082","world_art_id":null,"type":"movie","add":"2020-02-26 06:59:42","orig_title":"Oy Vey! My Son Is Gay!!","year":"2009-08-29","translations":["Любительский (одноголосый закадровый)","Авторский (одноголосый закадровый) (Кошкин Василий)","Original (English)"],"quality":"dvdrip","translation":"Любительский (одноголосый закадровый)","update":"2020-10-20 07:21:54","iframe_src":"//83.svetacdn.in/PfJ50H0ZBPg3/movie/36963"},{"id":35661,"title":"Серебряный город","kp_id":"47146","imdb_id":"tt0376890","world_art_id":null,"type":"movie","add":"2020-01-30 13:55:04","orig_title":"Silver City","year":"2004-08-27","translations":["Профессиональный (двухголосый закадровый)","Original (English)"],"quality":"webdl","translation":"Профессиональный (двухголосый закадровый)","update":"2020-10-20 07:28:23","iframe_src":"//83.svetacdn.in/PfJ50H0ZBPg3/movie/35661"},{"id":15675,"title":"Космический коктейль","kp_id":"596400","imdb_id":"tt1954843","world_art_id":null,"type":"movie","add":"2018-03-15 17:44:31","orig_title":"Space Milkshake","year":"2012-10-26","translations":["Любительский (одноголосый закадровый)","Original (English)"],"quality":"webdl","translation":"Любительский (одноголосый закадровый)","update":"2020-10-20 07:29:14","iframe_src":"//83.svetacdn.in/PfJ50H0ZBPg3/movie/15675"},{"id":13827,"title":"Каньон","kp_id":"283371","imdb_id":"tt0960741","world_art_id":null,"type":"movie","add":"2017-10-11 21:47:41","orig_title":"The Canyon","year":"2009-10-23","translations":["Любительский (двухголосый закадровый)","Original (English)"],"quality":"webdl","translation":"Любительский (двухголосый закадровый)","update":"2020-10-20 07:31:36","iframe_src":"//83.svetacdn.in/PfJ50H0ZBPg3/movie/13827"},{"id":890,"title":"Мама-детектив","kp_id":"701664","imdb_id":"tt4727960","world_art_id":null,"type":"serial","add":"2017-01-17 06:37:44","orig_title":"Mama-detektiv","year":"2015-06-03","translations":["Оригинальная дорожка"],"seasons_count":1,"episodes_count":12,"episodes":12,"update":"2017-01-17 10:55:31","iframe_src":"//83.svetacdn.in/PfJ50H0ZBPg3/tv-series/890"},{"id":889,"title":"В двух километрах от Нового года","kp_id":"425964","imdb_id":"tt3449464","world_art_id":null,"type":"serial","add":"2017-01-17 06:35:04","orig_title":"V dvukh kilometrakh ot Novogo goda","year":"2004-01-01","translations":["Оригинальная дорожка"],"seasons_count":1,"episodes_count":2,"episodes":2,"update":"2017-01-17 09:52:55","iframe_src":"//83.svetacdn.in/PfJ50H0ZBPg3/tv-series/889"},{"id":887,"title":"Груз","kp_id":"592056","imdb_id":"tt4763314","world_art_id":null,"type":"serial","add":"2017-01-16 13:05:58","orig_title":"Gruz","year":"2012-01-01","translations":["Оригинальная дорожка"],"seasons_count":1,"episodes_count":24,"episodes":24,"update":"2017-01-17 06:30:13","iframe_src":"//83.svetacdn.in/PfJ50H0ZBPg3/tv-series/887"},{"id":886,"title":"Бой после победы","kp_id":"46159","imdb_id":"tt0068312","world_art_id":null,"type":"serial","add":"2017-01-16 12:59:13","orig_title":"Boy posle pobedy","year":"1972-08-28","translations":["Оригинальная дорожка"],"seasons_count":1,"episodes_count":2,"episodes":2,"update":"2017-01-17 06:23:21","iframe_src":"//83.svetacdn.in/PfJ50H0ZBPg3/tv-series/886"},{"id":885,"title":"Собачья работа","kp_id":"710038","imdb_id":"tt4522034","world_art_id":null,"type":"serial","add":"2017-01-16 12:48:49","orig_title":"Sobachya rabota","year":"2012-10-08","translations":["Оригинальная дорожка"],"seasons_count":1,"episodes_count":8,"episodes":8,"update":"2017-01-16 15:45:13","iframe_src":"//83.svetacdn.in/PfJ50H0ZBPg3/tv-series/885"},{"id":884,"title":"Чужое лицо","kp_id":"694589","imdb_id":null,"world_art_id":null,"type":"serial","add":"2017-01-16 07:49:25","orig_title":"Чужое лицо","year":"2012-02-22","translations":["Оригинальная дорожка"],"seasons_count":1,"episodes_count":4,"episodes":4,"update":"2017-01-16 10:58:00","iframe_src":"//83.svetacdn.in/PfJ50H0ZBPg3/tv-series/884"},{"id":883,"title":"Человеческий фактор","kp_id":"830649","imdb_id":"tt5222678","world_art_id":null,"type":"serial","add":"2017-01-16 06:30:45","orig_title":"Chelovecheskiy faktor","year":"2014-02-15","translations":["Оригинальная дорожка"],"seasons_count":1,"episodes_count":2,"episodes":2,"update":"2017-01-16 11:41:25","iframe_src":"//83.svetacdn.in/PfJ50H0ZBPg3/tv-series/883"},{"id":882,"title":"Холодное блюдо","kp_id":"932123","imdb_id":null,"world_art_id":null,"type":"serial","add":"2017-01-16 06:25:20","orig_title":"Холодное блюдо","year":"2015-09-19","translations":["Оригинальная дорожка"],"seasons_count":1,"episodes_count":2,"episodes":2,"update":"2017-01-16 09:07:46","iframe_src":"//83.svetacdn.in/PfJ50H0ZBPg3/tv-series/882"},{"id":881,"title":"Любовь с испытательным сроком","kp_id":"807415","imdb_id":"tt3501608","world_art_id":null,"type":"serial","add":"2017-01-16 06:16:59","orig_title":"Lyubov s ispytatelnym srokom","year":"2013-11-15","translations":["Оригинальная дорожка"],"seasons_count":1,"episodes_count":2,"episodes":2,"update":"2017-01-16 11:44:17","iframe_src":"//83.svetacdn.in/PfJ50H0ZBPg3/tv-series/881"},{"id":879,"title":"Принц Сибири","kp_id":"838953","imdb_id":"tt4760822","world_art_id":null,"type":"serial","add":"2017-01-16 05:41:09","orig_title":"Prints Sibiri","year":"2015-05-11","translations":["Оригинальная дорожка"],"seasons_count":1,"episodes_count":20,"episodes":20,"update":"2017-01-16 09:30:30","iframe_src":"//83.svetacdn.in/PfJ50H0ZBPg3/tv-series/879"},{"id":877,"title":"Чужая милая","kp_id":"891385","imdb_id":"tt4682514","world_art_id":null,"type":"serial","add":"2017-01-15 09:03:53","orig_title":"Chuzhaya milaya","year":"2015-09-16","translations":["Оригинальная дорожка"],"seasons_count":1,"episodes_count":4,"episodes":4,"update":"2017-01-16 06:12:18","iframe_src":"//83.svetacdn.in/PfJ50H0ZBPg3/tv-series/877"},{"id":876,"title":"Сармат","kp_id":"84831","imdb_id":"tt0429431","world_art_id":null,"type":"serial","add":"2017-01-13 11:36:42","orig_title":"Sarmat","year":"2004-10-11","translations":["Оригинальная дорожка"],"seasons_count":1,"episodes_count":12,"episodes":12,"update":"2017-01-13 17:03:51","iframe_src":"//83.svetacdn.in/PfJ50H0ZBPg3/tv-series/876"},{"id":875,"title":"Принцесса цирка","kp_id":"81481","imdb_id":"tt0175070","world_art_id":null,"type":"serial","add":"2017-01-13 11:31:15","orig_title":"Printsessa tsirka","year":"1982-12-25","translations":["Оригинальная дорожка"],"seasons_count":1,"episodes_count":1,"episodes":1,"update":"2017-01-13 15:09:44","iframe_src":"//83.svetacdn.in/PfJ50H0ZBPg3/tv-series/875"},{"id":874,"title":"Семейный альбом","kp_id":"927823","imdb_id":"tt4980324","world_art_id":null,"type":"serial","add":"2017-01-13 09:26:56","orig_title":"Semeynyy albom","year":"2016-02-15","translations":["Оригинальная дорожка"],"seasons_count":1,"episodes_count":14,"episodes":14,"update":"2017-01-13 18:15:46","iframe_src":"//83.svetacdn.in/PfJ50H0ZBPg3/tv-series/874"},{"id":871,"title":"Визит дамы","kp_id":"77257","imdb_id":"tt0127966","world_art_id":null,"type":"serial","add":"2017-01-13 05:47:40","orig_title":"Vizit damy","year":"1989-01-01","translations":["Оригинальная дорожка"],"seasons_count":1,"episodes_count":2,"episodes":2,"update":"2017-01-13 09:34:38","iframe_src":"//83.svetacdn.in/PfJ50H0ZBPg3/tv-series/871"},{"id":870,"title":"Гречанка","kp_id":"880663","imdb_id":"tt4362722","world_art_id":null,"type":"serial","add":"2017-01-12 10:30:01","orig_title":"Grechanka","year":"2015-01-12","translations":["Оригинальная дорожка"],"seasons_count":1,"episodes_count":60,"episodes":60,"update":"2017-01-13 10:53:54","iframe_src":"//83.svetacdn.in/PfJ50H0ZBPg3/tv-series/870"},{"id":833,"title":"Гадание при свечах","kp_id":"487349","imdb_id":"tt3723384","world_art_id":null,"type":"serial","add":"2017-01-08 10:17:33","orig_title":"Gadaniye pri svechakh","year":"2011-01-31","translations":["Оригинальная дорожка"],"seasons_count":1,"episodes_count":16,"episodes":16,"update":"2017-01-17 10:36:44","iframe_src":"//83.svetacdn.in/PfJ50H0ZBPg3/tv-series/833"},{"id":820,"title":"Весна в декабре","kp_id":"577179","imdb_id":"tt4195012","world_art_id":null,"type":"serial","add":"2017-01-06 12:03:03","orig_title":"Vesna v dekabre","year":"2011-07-04","translations":["Оригинальная дорожка"],"seasons_count":1,"episodes_count":8,"episodes":8,"update":"2017-01-13 09:52:14","iframe_src":"//83.svetacdn.in/PfJ50H0ZBPg3/tv-series/820"},{"id":455,"title":"Отдел Ромео","kp_id":"976651","imdb_id":"tt4716230","world_art_id":null,"type":"serial","add":"2016-09-19 09:10:05","orig_title":"The Romeo Section","year":"2015-10-14","translations":["Профессиональный (многоголосый закадровый) (ViruseProject)"],"seasons_count":2,"episodes_count":20,"episodes":10,"update":"2017-01-13 05:23:26","iframe_src":"//83.svetacdn.in/PfJ50H0ZBPg3/tv-series/455"},{"id":40,"title":"Шерлок","kp_id":"502838","imdb_id":"tt1475582","world_art_id":null,"type":"serial","add":"2016-03-31 12:50:11","orig_title":"Sherlock","year":"2010-09-18","translations":["Полное дублирование"],"seasons_count":4,"episodes_count":13,"episodes":4,"update":"2017-01-16 08:17:36","iframe_src":"//83.svetacdn.in/PfJ50H0ZBPg3/tv-series/40"}],"current_page":520,"first_page_url":"https://videocdn.tv/api/short?limit=100&api_token=RgFQdUIR2dRmwv8iYa5SnFNgnw3vpjKj&cache3520=3520&page=1","from":51901,"last_page":643,"last_page_url":"https://videocdn.tv/api/short?limit=100&api_token=RgFQdUIR2dRmwv8iYa5SnFNgnw3vpjKj&cache3520=3520&page=643","next_page_url":"https://videocdn.tv/api/short?limit=100&api_token=RgFQdUIR2dRmwv8iYa5SnFNgnw3vpjKj&cache3520=3520&page=521","path":"https://videocdn.tv/api/short","per_page":100,"prev_page_url":"https://videocdn.tv/api/short?limit=100&api_token=RgFQdUIR2dRmwv8iYa5SnFNgnw3vpjKj&cache3520=3520&page=519","to":51940,"total":64295}