{"result":true,"data":[{"id":46419,"title":"Патриарх","kp_id":"909766","imdb_id":"tt4424228","world_art_id":null,"type":"movie","add":"2020-12-27 14:38:04","orig_title":"Mahana","year":"2016-02-13","translations":["Original (English)"],"quality":"webdl","translation":"Original (English)","update":"2020-12-27 20:19:13","iframe_src":"//83.svetacdn.in/PfJ50H0ZBPg3/movie/46419"},{"id":46418,"title":"Service to Man","kp_id":"918421","imdb_id":"tt4789584","world_art_id":null,"type":"movie","add":"2020-12-27 14:36:15","orig_title":"Service to Man","year":"2016-10-07","translations":["Original (English)"],"quality":"webdl","translation":"Original (English)","update":"2020-12-27 22:18:14","iframe_src":"//83.svetacdn.in/PfJ50H0ZBPg3/movie/46418"},{"id":46415,"title":"Телефон. Однажды в Вигате","kp_id":"1360639","imdb_id":"tt12026610","world_art_id":null,"type":"movie","add":"2020-12-27 08:09:35","orig_title":"La concessione del telefono - C'era una volta Vigata","year":"2020-03-23","translations":["Любительский (многоголосый закадровый) (Синема УС)"],"quality":"webdl","translation":"Любительский (многоголосый закадровый) (Синема УС)","update":"2020-12-27 10:07:41","iframe_src":"//83.svetacdn.in/PfJ50H0ZBPg3/movie/46415"},{"id":46414,"title":"Покинутые Богом","kp_id":"1266884","imdb_id":"tt10260554","world_art_id":null,"type":"movie","add":"2020-12-27 08:08:01","orig_title":"Godforsaken","year":"2019-01-02","translations":["Любительский (многоголосый закадровый) (Синема УС)"],"quality":"webdl","translation":"Любительский (многоголосый закадровый) (Синема УС)","update":"2020-12-27 10:07:24","iframe_src":"//83.svetacdn.in/PfJ50H0ZBPg3/movie/46414"},{"id":46413,"title":"Вместе на Рождество","kp_id":"1438828","imdb_id":"tt13309552","world_art_id":null,"type":"movie","add":"2020-12-27 08:05:13","orig_title":"Christmas Together","year":"2020-12-06","translations":["Любительский (многоголосый закадровый) (AlphaProject)"],"quality":"webdl","translation":"Любительский (многоголосый закадровый) (AlphaProject)","update":"2020-12-27 10:07:10","iframe_src":"//83.svetacdn.in/PfJ50H0ZBPg3/movie/46413"},{"id":46411,"title":"Через всю страну под Рождество","kp_id":null,"imdb_id":"tt13040330","world_art_id":null,"type":"movie","add":"2020-12-26 22:42:52","orig_title":"Cross Country Christmas","year":"2020-12-20","translations":["Любительский (многоголосый закадровый) (AlphaProject)"],"quality":"hdtv","translation":"Любительский (многоголосый закадровый) (AlphaProject)","update":"2020-12-27 07:07:40","iframe_src":"//83.svetacdn.in/PfJ50H0ZBPg3/movie/46411"},{"id":46409,"title":"Everything - The Real Thing Story","kp_id":null,"imdb_id":"tt11046788","world_art_id":null,"type":"movie","add":"2020-12-26 22:26:18","orig_title":"Everything - The Real Thing Story","year":"2019-10-24","translations":["Original (English)"],"quality":"bd","translation":"Original (English)","update":"2020-12-27 07:07:02","iframe_src":"//83.svetacdn.in/PfJ50H0ZBPg3/movie/46409"},{"id":46394,"title":"Домой на Рождество","kp_id":"1433400","imdb_id":"tt13169850","world_art_id":null,"type":"movie","add":"2020-12-26 13:13:51","orig_title":"Time for Us to Come Home for Christmas","year":"2020-12-05","translations":["Любительский (многоголосый закадровый) (Синема УС)"],"quality":"webdl","translation":"Любительский (многоголосый закадровый) (Синема УС)","update":"2020-12-27 10:07:57","iframe_src":"//83.svetacdn.in/PfJ50H0ZBPg3/movie/46394"},{"id":46389,"title":"Ты что-то скрываешь","kp_id":"1063888","imdb_id":"tt7325902","world_art_id":null,"type":"movie","add":"2020-12-26 12:10:10","orig_title":"Tu mi nascondi qualcosa","year":"2018-04-25","translations":["Любительский (многоголосый закадровый) (Синема УС)"],"quality":"dvdrip","translation":"Любительский (многоголосый закадровый) (Синема УС)","update":"2020-12-26 15:56:38","iframe_src":"//83.svetacdn.in/PfJ50H0ZBPg3/movie/46389"},{"id":46388,"title":"Последний проект","kp_id":"1152274","imdb_id":"tt7939182","world_art_id":null,"type":"movie","add":"2020-12-26 11:10:31","orig_title":"Weitermachen Sanssouci","year":"2019-10-24","translations":["Любительский (многоголосый закадровый) (AlphaProject)"],"quality":"webdl","translation":"Любительский (многоголосый закадровый) (AlphaProject)","update":"2020-12-26 15:09:49","iframe_src":"//83.svetacdn.in/PfJ50H0ZBPg3/movie/46388"},{"id":46384,"title":"Свет в моей руке","kp_id":"1256132","imdb_id":"tt10584784","world_art_id":null,"type":"movie","add":"2020-12-25 18:55:41","orig_title":"Mio on the Shore","year":"2019-11-15","translations":["Любительский (многоголосый закадровый) (Синема УС)"],"quality":"webdl","translation":"Любительский (многоголосый закадровый) (Синема УС)","update":"2020-12-26 17:36:47","iframe_src":"//83.svetacdn.in/PfJ50H0ZBPg3/movie/46384"},{"id":46370,"title":"Наш последний разговор","kp_id":"1178599","imdb_id":"tt8766120","world_art_id":null,"type":"movie","add":"2020-12-25 18:04:24","orig_title":"When We Last Spoke","year":"2019-04-11","translations":["Любительский (многоголосый закадровый) (AlphaProject)"],"quality":"webdl","translation":"Любительский (многоголосый закадровый) (AlphaProject)","update":"2020-12-26 18:30:15","iframe_src":"//83.svetacdn.in/PfJ50H0ZBPg3/movie/46370"},{"id":46367,"title":"Призраки фермы Грэйди","kp_id":"936935","imdb_id":"tt5065030","world_art_id":null,"type":"movie","add":"2020-12-25 17:59:56","orig_title":"The Haunting of Grady Farm","year":"2019-12-02","translations":["Любительский (многоголосый закадровый) (Синема УС)"],"quality":"webdl","translation":"Любительский (многоголосый закадровый) (Синема УС)","update":"2020-12-26 18:29:34","iframe_src":"//83.svetacdn.in/PfJ50H0ZBPg3/movie/46367"},{"id":46337,"title":"Любовь Сильви","kp_id":"1245598","imdb_id":"tt9827834","world_art_id":null,"type":"movie","add":"2020-12-23 13:49:07","orig_title":"Sylvie","year":"2020-01-27","translations":["Original (English)","Любительский (многоголосый закадровый) (Синема УС)"],"quality":"webdl","translation":"Original (English)","update":"2020-12-27 14:21:46","iframe_src":"//83.svetacdn.in/PfJ50H0ZBPg3/movie/46337"},{"id":46330,"title":"Поместье","kp_id":"1160309","imdb_id":"tt8439860","world_art_id":null,"type":"movie","add":"2020-12-23 09:58:10","orig_title":"A Herdade","year":"2019-09-19","translations":["Любительский (многоголосый закадровый) (@MUZOBOZ@)"],"quality":"bd","translation":"Любительский (многоголосый закадровый) (@MUZOBOZ@)","update":"2020-12-27 13:52:08","iframe_src":"//83.svetacdn.in/PfJ50H0ZBPg3/movie/46330"},{"id":46154,"title":"Легенда о волках","kp_id":"958541","imdb_id":"tt5198068","world_art_id":null,"type":"movie","add":"2020-12-17 07:11:02","orig_title":"WolfWalkers","year":"2020-09-12","translations":["Полное дублирование (Пифагор)","Любительский (многоголосый закадровый) (NewStation)","Original (English)"],"quality":"webdl","translation":"Полное дублирование (Пифагор)","update":"2020-12-27 07:20:51","iframe_src":"//83.svetacdn.in/PfJ50H0ZBPg3/movie/46154"},{"id":6672,"title":"Бархатные ножки","kp_id":"79839","imdb_id":"tt0324264","world_art_id":null,"type":"serial","add":"2020-02-18 09:47:49","orig_title":"Tipping the Velvet","year":"2002-10-09","translations":["Профессиональный (многоголосый закадровый)"],"seasons_count":1,"episodes_count":3,"episodes":3,"update":"2020-02-18 11:06:53","iframe_src":"//83.svetacdn.in/PfJ50H0ZBPg3/tv-series/6672"},{"id":6671,"title":"На безымянной высоте","kp_id":"252023","imdb_id":null,"world_art_id":null,"type":"serial","add":"2020-02-18 09:26:46","orig_title":"Na bezimyannoy vysote","year":"2004-05-08","translations":["Оригинальная дорожка"],"seasons_count":1,"episodes_count":4,"episodes":4,"update":"2020-02-18 10:47:56","iframe_src":"//83.svetacdn.in/PfJ50H0ZBPg3/tv-series/6671"},{"id":6669,"title":"Дом на Озерной","kp_id":"453293","imdb_id":"tt3634088","world_art_id":null,"type":"serial","add":"2020-02-17 19:19:53","orig_title":"Dom na Ozyornoy","year":"2009-12-21","translations":["Оригинальная дорожка"],"seasons_count":1,"episodes_count":6,"episodes":6,"update":"2020-02-18 05:15:49","iframe_src":"//83.svetacdn.in/PfJ50H0ZBPg3/tv-series/6669"},{"id":6662,"title":"Следы в прошлое","kp_id":"1311115","imdb_id":null,"world_art_id":null,"type":"serial","add":"2020-02-17 11:13:37","orig_title":"Sledy v proshloye","year":"2018-11-25","translations":["Оригинальная дорожка"],"seasons_count":1,"episodes_count":4,"episodes":4,"update":"2020-02-17 18:14:01","iframe_src":"//83.svetacdn.in/PfJ50H0ZBPg3/tv-series/6662"},{"id":6659,"title":"Космобольцы","kp_id":"478839","imdb_id":"tt0870980","world_art_id":null,"type":"serial","add":"2020-02-17 10:27:12","orig_title":"Spaceballs: The Animated Series","year":"2008-09-21","translations":["Профессиональный (многоголосый закадровый) (2x2)"],"seasons_count":1,"episodes_count":15,"episodes":15,"update":"2020-02-17 18:06:38","iframe_src":"//83.svetacdn.in/PfJ50H0ZBPg3/tv-series/6659"},{"id":6649,"title":"Тень дракона","kp_id":"1334374","imdb_id":null,"world_art_id":null,"type":"serial","add":"2020-02-16 12:29:40","orig_title":"Тень дракона","year":"2020-02-15","translations":["Оригинальная дорожка"],"seasons_count":1,"episodes_count":4,"episodes":4,"update":"2020-02-16 15:09:50","iframe_src":"//83.svetacdn.in/PfJ50H0ZBPg3/tv-series/6649"},{"id":6640,"title":"Человек-муравей","kp_id":"1048101","imdb_id":"tt7249258","world_art_id":null,"type":"serial","add":"2020-02-14 11:24:21","orig_title":"Ant-Man","year":"2017-06-10","translations":["Любительский (многоголосый закадровый) (RusFilm)"],"seasons_count":1,"episodes_count":6,"episodes":6,"update":"2020-02-16 20:35:50","iframe_src":"//83.svetacdn.in/PfJ50H0ZBPg3/tv-series/6640"},{"id":6476,"title":"Забытая армия","kp_id":"1266618","imdb_id":"tt10289938","world_art_id":null,"type":"serial","add":"2020-01-26 05:46:14","orig_title":"The Forgotten Army - Azaadi ke liye","year":"2020-01-24","translations":["Любительский (многоголосый закадровый) (Octopus)","Любительский (многоголосый закадровый) (ColdFilm)"],"seasons_count":1,"episodes_count":5,"episodes":5,"update":"2020-02-18 12:36:20","iframe_src":"//83.svetacdn.in/PfJ50H0ZBPg3/tv-series/6476"},{"id":6348,"title":"Джодха и Акбар: История великой любви","kp_id":"839953","imdb_id":"tt3426342","world_art_id":null,"type":"serial","add":"2020-01-14 20:54:20","orig_title":"Jodha Akbar","year":"2013-06-18","translations":["Профессиональный (многоголосый закадровый)"],"seasons_count":1,"episodes_count":576,"episodes":576,"update":"2020-02-17 20:18:57","iframe_src":"//83.svetacdn.in/PfJ50H0ZBPg3/tv-series/6348"},{"id":6311,"title":"Новый Папа","kp_id":"1048602","imdb_id":"tt7157248","world_art_id":null,"type":"serial","add":"2020-01-11 07:42:18","orig_title":"The New Pope","year":"2020-01-10","translations":["Любительский (многоголосый закадровый) (Octopus)","Профессиональный (многоголосый закадровый) (Greb&Creative)","Профессиональный (многоголосый закадровый) (HDrezka Studio)","Профессиональный (многоголосый закадровый) (BaibaKo)","Профессиональный (многоголосый закадровый) (LostFilm)","Полное дублирование (Кравец)","Профессиональный (многоголосый закадровый) (TVShows)","Профессиональный (многоголосый закадровый) (NewStudio)","Профессиональный (многоголосый закадровый) (Jaskier)","Профессиональный (многоголосый закадровый) (IdeaFilm)","Любительский (многоголосый закадровый) (WestFilm)"],"seasons_count":1,"episodes_count":9,"episodes":9,"update":"2020-02-16 08:54:17","iframe_src":"//83.svetacdn.in/PfJ50H0ZBPg3/tv-series/6311"},{"id":6263,"title":"Нас пятеро","kp_id":"1199197","imdb_id":"tt7431790","world_art_id":null,"type":"serial","add":"2020-01-07 10:15:11","orig_title":"Party of Five","year":"2020-01-01","translations":["Профессиональный (двухголосый закадровый) (IdeaFilm)","Профессиональный (многоголосый закадровый) (TVShows)","Профессиональный (многоголосый закадровый) (IdeaFilm)"],"seasons_count":1,"episodes_count":7,"episodes":7,"update":"2020-02-16 08:55:40","iframe_src":"//83.svetacdn.in/PfJ50H0ZBPg3/tv-series/6263"},{"id":6191,"title":"Тупик","kp_id":"1149738","imdb_id":"tt8431432","world_art_id":null,"type":"serial","add":"2019-12-31 11:52:02","orig_title":"Dead End","year":"2019-02-26","translations":["Профессиональный (двухголосый закадровый) (ViruseProject)","Любительский (многоголосый закадровый) (WestFilm)"],"seasons_count":1,"episodes_count":6,"episodes":6,"update":"2020-02-16 23:43:33","iframe_src":"//83.svetacdn.in/PfJ50H0ZBPg3/tv-series/6191"},{"id":5769,"title":"По расчету","kp_id":"1179447","imdb_id":"tt8200550","world_art_id":null,"type":"serial","add":"2019-11-17 22:36:28","orig_title":"Gold Digger","year":"2019-11-12","translations":["Профессиональный (многоголосый закадровый) (TVShows)","Любительский (многоголосый закадровый) (ColdFilm)"],"seasons_count":1,"episodes_count":6,"episodes":6,"update":"2020-02-17 17:18:40","iframe_src":"//83.svetacdn.in/PfJ50H0ZBPg3/tv-series/5769"},{"id":5356,"title":"Крёстный отец Гарлема","kp_id":"1115221","imdb_id":"tt8080122","world_art_id":null,"type":"serial","add":"2019-10-01 09:27:43","orig_title":"Godfather of Harlem","year":"2019-09-29","translations":["Профессиональный (многоголосый закадровый) (BaibaKo)","Профессиональный (многоголосый закадровый) (HDrezka Studio)","Профессиональный (многоголосый закадровый) (NewStudio)","Профессиональный (многоголосый закадровый) (TVShows)","Полное дублирование","Полное дублирование (Кириллица)"],"seasons_count":1,"episodes_count":10,"episodes":10,"update":"2020-02-17 06:51:36","iframe_src":"//83.svetacdn.in/PfJ50H0ZBPg3/tv-series/5356"},{"id":5300,"title":"Явление","kp_id":"1246237","imdb_id":"tt9169658","world_art_id":null,"type":"serial","add":"2019-09-25 20:10:28","orig_title":"Emergence","year":"2019-09-24","translations":["Любительский (многоголосый закадровый) (Octopus)","Профессиональный (многоголосый закадровый) (HDrezka Studio)","Профессиональный (многоголосый закадровый) (NewStudio)","Профессиональный (многоголосый закадровый) (TVShows)","Полное дублирование","Полное дублирование (Кириллица)"],"seasons_count":1,"episodes_count":13,"episodes":13,"update":"2020-02-17 10:32:07","iframe_src":"//83.svetacdn.in/PfJ50H0ZBPg3/tv-series/5300"},{"id":5279,"title":"Река","kp_id":"1045931","imdb_id":"tt6467568","world_art_id":null,"type":"serial","add":"2019-09-24 20:07:36","orig_title":"Elven","year":"2017-03-16","translations":["Профессиональный (многоголосый закадровый) (SDI Media)"],"seasons_count":1,"episodes_count":8,"episodes":8,"update":"2020-02-16 15:21:09","iframe_src":"//83.svetacdn.in/PfJ50H0ZBPg3/tv-series/5279"},{"id":31142,"title":"Исчезающая точка","kp_id":"24981","imdb_id":"tt0067927","world_art_id":null,"type":"movie","add":"2019-09-23 21:33:57","orig_title":"Vanishing Point","year":"1971-01-15","translations":["Профессиональный (многоголосый закадровый)","Original (English)"],"quality":"bd","translation":"Профессиональный (многоголосый закадровый)","update":"2020-12-27 21:33:05","iframe_src":"//83.svetacdn.in/PfJ50H0ZBPg3/movie/31142"},{"id":4127,"title":"Жить без разрешения","kp_id":"1216708","imdb_id":"tt6970700","world_art_id":null,"type":"serial","add":"2019-02-21 08:19:38","orig_title":"Vivir sin permiso","year":"2018-09-24","translations":["Профессиональный (двухголосый закадровый) (ViruseProject)","Любительский (многоголосый закадровый) (ColdFilm)"],"seasons_count":2,"episodes_count":23,"episodes":10,"update":"2020-02-17 19:30:15","iframe_src":"//83.svetacdn.in/PfJ50H0ZBPg3/tv-series/4127"},{"id":3698,"title":"Галактический футбол","kp_id":"408711","imdb_id":"tt0877105","world_art_id":null,"type":"serial","add":"2018-12-14 16:14:58","orig_title":"Galactik Football","year":"2006-06-03","translations":["Полное дублирование","Любительский (многоголосый закадровый)"],"seasons_count":3,"episodes_count":78,"episodes":26,"update":"2020-02-16 20:47:57","iframe_src":"//83.svetacdn.in/PfJ50H0ZBPg3/tv-series/3698"},{"id":19458,"title":"Плавая с мужиками","kp_id":"1019796","imdb_id":"tt6532374","world_art_id":null,"type":"movie","add":"2018-10-09 00:59:55","orig_title":"Swimming with Men","year":"2018-06-07","translations":["Профессиональный (многоголосый закадровый) (HDrezka Studio)"],"quality":"bd","translation":"Профессиональный (многоголосый закадровый) (HDrezka Studio)","update":"2020-12-27 14:23:12","iframe_src":"//83.svetacdn.in/PfJ50H0ZBPg3/movie/19458"},{"id":2297,"title":"Шериф","kp_id":"806683","imdb_id":"tt2707504","world_art_id":null,"type":"serial","add":"2018-03-30 10:56:41","orig_title":"Cherif","year":"2013-10-25","translations":["Любительский (одноголосый закадровый)","Профессиональный (двухголосый закадровый) (ViruseProject)","Любительский (многоголосый закадровый)","Профессиональный (многоголосый закадровый) (West Video)","Любительский (многоголосый закадровый) (GreenРай Studio)"],"seasons_count":6,"episodes_count":60,"episodes":12,"update":"2020-02-18 04:39:31","iframe_src":"//83.svetacdn.in/PfJ50H0ZBPg3/tv-series/2297"},{"id":12953,"title":"Смерть танцовщицы из Вегаса","kp_id":"986840","imdb_id":"tt5735410","world_art_id":null,"type":"movie","add":"2017-08-14 21:39:08","orig_title":"Death of a Vegas Showgirl","year":"2016-10-22","translations":["Любительский (многоголосый закадровый) (Синема УС)","Original (English)"],"quality":"hdtv","translation":"Любительский (многоголосый закадровый) (Синема УС)","update":"2020-12-27 06:59:20","iframe_src":"//83.svetacdn.in/PfJ50H0ZBPg3/movie/12953"},{"id":1344,"title":"Под куполом","kp_id":"574704","imdb_id":"tt1553656","world_art_id":null,"type":"serial","add":"2017-06-30 10:52:45","orig_title":"Under the Dome","year":"2013-06-24","translations":["Профессиональный (многоголосый закадровый) (LostFilm)","Профессиональный (многоголосый закадровый) (Пифагор)"],"seasons_count":3,"episodes_count":39,"episodes":14,"update":"2020-02-18 05:05:51","iframe_src":"//83.svetacdn.in/PfJ50H0ZBPg3/tv-series/1344"},{"id":4681,"title":"Ветер, который качает вереск","kp_id":"182256","imdb_id":"tt0460989","world_art_id":null,"type":"movie","add":"2016-08-24 13:29:29","orig_title":"The Wind That Shakes the Barley","year":"2006-05-18","translations":["Профессиональный (многоголосый закадровый)","Original (English)"],"quality":"webdl","translation":"Профессиональный (многоголосый закадровый)","update":"2020-12-27 21:57:26","iframe_src":"//83.svetacdn.in/PfJ50H0ZBPg3/movie/4681"}],"current_page":246,"first_page_url":"https://videocdn.tv/api/short?limit=100&api_token=RgFQdUIR2dRmwv8iYa5SnFNgnw3vpjKj&cache3246=3246&page=1","from":24501,"last_page":612,"last_page_url":"https://videocdn.tv/api/short?limit=100&api_token=RgFQdUIR2dRmwv8iYa5SnFNgnw3vpjKj&cache3246=3246&page=612","next_page_url":"https://videocdn.tv/api/short?limit=100&api_token=RgFQdUIR2dRmwv8iYa5SnFNgnw3vpjKj&cache3246=3246&page=247","path":"https://videocdn.tv/api/short","per_page":100,"prev_page_url":"https://videocdn.tv/api/short?limit=100&api_token=RgFQdUIR2dRmwv8iYa5SnFNgnw3vpjKj&cache3246=3246&page=245","to":24540,"total":61166}