{"result":true,"data":[{"id":27168,"title":"Никто не заменит тебя","kp_id":"466567","imdb_id":"tt5587226","world_art_id":null,"type":"movie","add":"2019-05-27 22:24:22","orig_title":"Nikto ne zamenit tebya","year":"1983-05-07","translations":["Оригинальная дорожка"],"quality":"sat","translation":"Оригинальная дорожка","update":"2019-05-28 06:58:30","iframe_src":"//8332.svetacdn.in/si4jsFRrtgrT/movie/27168"},{"id":27167,"title":"Один из нас","kp_id":"42718","imdb_id":"tt0066175","world_art_id":null,"type":"movie","add":"2019-05-27 22:19:38","orig_title":"Odin iz nas","year":"1971-01-19","translations":["Оригинальная дорожка"],"quality":"dvdrip","translation":"Оригинальная дорожка","update":"2019-05-28 06:57:20","iframe_src":"//8332.svetacdn.in/si4jsFRrtgrT/movie/27167"},{"id":27166,"title":"Одиножды один","kp_id":"42728","imdb_id":"tt0071936","world_art_id":null,"type":"movie","add":"2019-05-27 22:16:47","orig_title":"Odinozhdy odin","year":"1974-08-18","translations":["Оригинальная дорожка"],"quality":"dvdrip","translation":"Оригинальная дорожка","update":"2019-05-28 06:56:17","iframe_src":"//8332.svetacdn.in/si4jsFRrtgrT/movie/27166"},{"id":27165,"title":"Однажды со мной","kp_id":"607103","imdb_id":"tt1978440","world_art_id":null,"type":"movie","add":"2019-05-27 22:13:32","orig_title":"First Time for Everything","year":"2012-01-01","translations":["Оригинальная дорожка"],"quality":"hdtv","translation":"Оригинальная дорожка","update":"2019-05-28 06:55:01","iframe_src":"//8332.svetacdn.in/si4jsFRrtgrT/movie/27165"},{"id":27164,"title":"Осенняя дорога к маме","kp_id":"478723","imdb_id":"tt3553970","world_art_id":null,"type":"movie","add":"2019-05-27 22:10:20","orig_title":"Osennyaya doroga k mame","year":"1981-01-01","translations":["Оригинальная дорожка"],"quality":"sat","translation":"Оригинальная дорожка","update":"2019-05-28 06:53:31","iframe_src":"//8332.svetacdn.in/si4jsFRrtgrT/movie/27164"},{"id":27163,"title":"Ай лав ю, Петрович!","kp_id":"179236","imdb_id":"tt0226793","world_art_id":null,"type":"movie","add":"2019-05-27 22:05:16","orig_title":"Ay lav yu, Petrovich","year":"1990-01-01","translations":["Оригинальная дорожка"],"quality":"sat","translation":"Оригинальная дорожка","update":"2019-05-28 06:51:35","iframe_src":"//8332.svetacdn.in/si4jsFRrtgrT/movie/27163"},{"id":27162,"title":"Письма в осеннее небо","kp_id":"772360","imdb_id":null,"world_art_id":null,"type":"movie","add":"2019-05-27 22:00:28","orig_title":"Письма в осеннее небо","year":"2013-06-22","translations":["Оригинальная дорожка"],"quality":"dvdrip","translation":"Оригинальная дорожка","update":"2019-05-28 06:44:30","iframe_src":"//8332.svetacdn.in/si4jsFRrtgrT/movie/27162"},{"id":27161,"title":"Подранки","kp_id":"43048","imdb_id":"tt0075079","world_art_id":null,"type":"movie","add":"2019-05-27 21:45:47","orig_title":"Podranki","year":"1977-06-20","translations":["Оригинальная дорожка"],"quality":"webdl","translation":"Оригинальная дорожка","update":"2019-05-28 06:41:13","iframe_src":"//8332.svetacdn.in/si4jsFRrtgrT/movie/27161"},{"id":27160,"title":"Поколение победителей","kp_id":"43092","imdb_id":"tt0028116","world_art_id":null,"type":"movie","add":"2019-05-27 21:42:13","orig_title":"Pokolenie pobediteley","year":"1936-12-25","translations":["Оригинальная дорожка"],"quality":"dvdrip","translation":"Оригинальная дорожка","update":"2019-05-28 06:40:16","iframe_src":"//8332.svetacdn.in/si4jsFRrtgrT/movie/27160"},{"id":27159,"title":"Полигон 2","kp_id":"494708","imdb_id":"tt4726126","world_art_id":null,"type":"movie","add":"2019-05-27 21:35:47","orig_title":"Poligon 2","year":"2004-10-14","translations":["Оригинальная дорожка"],"quality":"dvdrip","translation":"Оригинальная дорожка","update":"2019-05-28 06:39:27","iframe_src":"//8332.svetacdn.in/si4jsFRrtgrT/movie/27159"},{"id":27158,"title":"Приключения Квентина Дорварда, стрелка королевской гвардии","kp_id":"43256","imdb_id":"tt0174137","world_art_id":null,"type":"movie","add":"2019-05-27 20:21:01","orig_title":"Priklyucheniya Kventina Dorvarda, strelka korolevskoy gvardii","year":"1988-09-01","translations":["Оригинальная дорожка"],"quality":"dvdrip","translation":"Оригинальная дорожка","update":"2019-05-28 06:37:47","iframe_src":"//8332.svetacdn.in/si4jsFRrtgrT/movie/27158"},{"id":27157,"title":"Пропажа свидетеля","kp_id":"43309","imdb_id":"tt0371102","world_art_id":null,"type":"movie","add":"2019-05-27 20:16:21","orig_title":"Propazha svidetelya","year":"1972-03-27","translations":["Оригинальная дорожка"],"quality":"sat","translation":"Оригинальная дорожка","update":"2019-05-28 06:36:30","iframe_src":"//8332.svetacdn.in/si4jsFRrtgrT/movie/27157"},{"id":27156,"title":"Рассказ бывалого пилота","kp_id":"666714","imdb_id":null,"world_art_id":null,"type":"movie","add":"2019-05-27 20:13:00","orig_title":"Рассказ бывалого пилота","year":"1984-01-01","translations":["Оригинальная дорожка"],"quality":"sat","translation":"Оригинальная дорожка","update":"2019-05-28 06:35:09","iframe_src":"//8332.svetacdn.in/si4jsFRrtgrT/movie/27156"},{"id":27149,"title":"Рокировка в длинную сторону","kp_id":"188733","imdb_id":"tt0457120","world_art_id":null,"type":"movie","add":"2019-05-27 18:52:31","orig_title":"Rokirovka v dlinnuyu storonu","year":"1970-05-25","translations":["Оригинальная дорожка"],"quality":"dvdrip","translation":"Оригинальная дорожка","update":"2019-05-28 06:33:03","iframe_src":"//8332.svetacdn.in/si4jsFRrtgrT/movie/27149"},{"id":27148,"title":"Семнадцатый трансатлантический","kp_id":"439959","imdb_id":"tt4701594","world_art_id":null,"type":"movie","add":"2019-05-27 18:49:13","orig_title":"Semnadtsatyy transatlanticheskiy","year":"1972-10-16","translations":["Оригинальная дорожка"],"quality":"dvdrip","translation":"Оригинальная дорожка","update":"2019-05-28 06:14:42","iframe_src":"//8332.svetacdn.in/si4jsFRrtgrT/movie/27148"},{"id":27147,"title":"Серебристая пыль","kp_id":"43690","imdb_id":"tt0169216","world_art_id":null,"type":"movie","add":"2019-05-27 18:42:52","orig_title":"Serebristaya pyl","year":"1953-10-19","translations":["Оригинальная дорожка"],"quality":"dvdrip","translation":"Оригинальная дорожка","update":"2019-05-28 06:13:35","iframe_src":"//8332.svetacdn.in/si4jsFRrtgrT/movie/27147"},{"id":27145,"title":"Скажи правду","kp_id":"660790","imdb_id":"tt2640972","world_art_id":null,"type":"movie","add":"2019-05-27 18:30:33","orig_title":"Skazhi pravdu","year":"2012-01-01","translations":["Оригинальная дорожка"],"quality":"dvdrip","translation":"Оригинальная дорожка","update":"2019-05-28 06:11:29","iframe_src":"//8332.svetacdn.in/si4jsFRrtgrT/movie/27145"},{"id":27144,"title":"Спортивная честь","kp_id":"43948","imdb_id":"tt0174235","world_art_id":null,"type":"movie","add":"2019-05-27 18:26:10","orig_title":"Sportivnaya chest","year":"1951-06-11","translations":["Оригинальная дорожка"],"quality":"sat","translation":"Оригинальная дорожка","update":"2019-05-28 06:10:20","iframe_src":"//8332.svetacdn.in/si4jsFRrtgrT/movie/27144"},{"id":27143,"title":"Старый знакомый","kp_id":"43988","imdb_id":"tt0168191","world_art_id":null,"type":"movie","add":"2019-05-27 18:23:03","orig_title":"Staryy znakomyy","year":"1969-12-29","translations":["Оригинальная дорожка"],"quality":"dvdrip","translation":"Оригинальная дорожка","update":"2019-05-28 06:07:44","iframe_src":"//8332.svetacdn.in/si4jsFRrtgrT/movie/27143"},{"id":27142,"title":"Свинарка и пастух","kp_id":"44057","imdb_id":"tt0034249","world_art_id":null,"type":"movie","add":"2019-05-27 18:19:53","orig_title":"Svinarka i pastukh","year":"1941-11-17","translations":["Оригинальная дорожка"],"quality":"sat","translation":"Оригинальная дорожка","update":"2019-05-28 06:06:44","iframe_src":"//8332.svetacdn.in/si4jsFRrtgrT/movie/27142"}],"current_page":1392,"first_page_url":"https://videocdn.tv/api/short?limit=100&api_token=X6EwAUfE5M9xbo7y0Bp0aPf3uXxG2KLL&cache31392=31392&page=1","from":139101,"last_page":632,"last_page_url":"https://videocdn.tv/api/short?limit=100&api_token=X6EwAUfE5M9xbo7y0Bp0aPf3uXxG2KLL&cache31392=31392&page=632","next_page_url":null,"path":"https://videocdn.tv/api/short","per_page":100,"prev_page_url":"https://videocdn.tv/api/short?limit=100&api_token=X6EwAUfE5M9xbo7y0Bp0aPf3uXxG2KLL&cache31392=31392&page=1391","to":139120,"total":63136}