{"result":true,"data":[{"id":17161,"title":"Оборотень","kp_id":"1044881","imdb_id":"tt5928396","world_art_id":null,"type":"movie","add":"2018-06-12 23:09:04","orig_title":"Werewolf","year":"2016-09-09","translations":["Любительский (многоголосый закадровый) (Синема УС)"],"quality":"webdl","translation":"Любительский (многоголосый закадровый) (Синема УС)","update":"2018-06-15 03:57:40","iframe_src":"//8543.svetacdn.in/71tsRs29n5tZ/movie/17161"},{"id":17160,"title":"Последний итальянский гопник Америки","kp_id":"765254","imdb_id":"tt2945970","world_art_id":null,"type":"movie","add":"2018-06-12 23:06:22","orig_title":"The Last American Guido","year":"2014-04-05","translations":["Профессиональный (многоголосый закадровый)"],"quality":"webdl","translation":"Профессиональный (многоголосый закадровый)","update":"2018-06-15 04:02:38","iframe_src":"//8543.svetacdn.in/71tsRs29n5tZ/movie/17160"},{"id":17159,"title":"Мальчик Тедди","kp_id":"802954","imdb_id":"tt3184212","world_art_id":null,"type":"movie","add":"2018-06-12 23:00:50","orig_title":"Teddy Boy","year":"2016-07-26","translations":["Любительский (многоголосый закадровый) (Синема УС)"],"quality":"webdl","translation":"Любительский (многоголосый закадровый) (Синема УС)","update":"2018-06-15 04:05:23","iframe_src":"//8543.svetacdn.in/71tsRs29n5tZ/movie/17159"},{"id":17155,"title":"Дорога к Богу","kp_id":"955551","imdb_id":"tt5093668","world_art_id":null,"type":"movie","add":"2018-06-12 22:45:32","orig_title":"Glorious","year":"2016-10-14","translations":["Любительский (многоголосый закадровый) (Синема УС)"],"quality":"webdl","translation":"Любительский (многоголосый закадровый) (Синема УС)","update":"2018-06-15 04:19:28","iframe_src":"//8543.svetacdn.in/71tsRs29n5tZ/movie/17155"},{"id":17154,"title":"Потревоженный","kp_id":"844289","imdb_id":"tt4205920","world_art_id":null,"type":"movie","add":"2018-06-12 22:43:45","orig_title":"Alarmed","year":"2015-05-06","translations":["Профессиональный (многоголосый закадровый)"],"quality":"bd","translation":"Профессиональный (многоголосый закадровый)","update":"2018-06-15 04:21:14","iframe_src":"//8543.svetacdn.in/71tsRs29n5tZ/movie/17154"},{"id":17149,"title":"Две тысячи двадцать четвёртый","kp_id":"939129","imdb_id":"tt5106390","world_art_id":null,"type":"movie","add":"2018-06-11 23:54:19","orig_title":"Twenty Twenty-Four","year":"2016-05-07","translations":["Любительский (многоголосый закадровый) (Синема УС)"],"quality":"webdl","translation":"Любительский (многоголосый закадровый) (Синема УС)","update":"2018-06-14 04:52:19","iframe_src":"//8543.svetacdn.in/71tsRs29n5tZ/movie/17149"},{"id":17136,"title":"Барахольщица","kp_id":"978551","imdb_id":"tt5667052","world_art_id":null,"type":"movie","add":"2018-06-11 23:21:44","orig_title":"Fashionista","year":"2016-09-25","translations":["Любительский (многоголосый закадровый) (Синема УС)"],"quality":"webdl","translation":"Любительский (многоголосый закадровый) (Синема УС)","update":"2018-06-13 16:05:04","iframe_src":"//8543.svetacdn.in/71tsRs29n5tZ/movie/17136"},{"id":17120,"title":"Со слов Бена Адамса","kp_id":"878911","imdb_id":"tt4067106","world_art_id":null,"type":"movie","add":"2018-06-10 19:44:14","orig_title":"According to Ben Adams","year":"2016-12-26","translations":["Любительский (многоголосый закадровый) (Синема УС)"],"quality":"webdl","translation":"Любительский (многоголосый закадровый) (Синема УС)","update":"2018-06-13 12:52:41","iframe_src":"//8543.svetacdn.in/71tsRs29n5tZ/movie/17120"},{"id":17118,"title":"Глава и стих","kp_id":"868149","imdb_id":"tt3946960","world_art_id":null,"type":"movie","add":"2018-06-10 19:38:34","orig_title":"Chapter & Verse","year":"2015-09-26","translations":["Любительский (многоголосый закадровый) (Синема УС)"],"quality":"webdl","translation":"Любительский (многоголосый закадровый) (Синема УС)","update":"2018-06-13 13:00:30","iframe_src":"//8543.svetacdn.in/71tsRs29n5tZ/movie/17118"},{"id":17117,"title":"Расчудесный пурпурный неон","kp_id":"986910","imdb_id":"tt5795064","world_art_id":null,"type":"movie","add":"2018-06-10 19:36:41","orig_title":"Dreaming Purple Neon","year":"2016-10-31","translations":["Любительский (многоголосый закадровый) (Синема УС)"],"quality":"webdl","translation":"Любительский (многоголосый закадровый) (Синема УС)","update":"2018-06-13 13:01:29","iframe_src":"//8543.svetacdn.in/71tsRs29n5tZ/movie/17117"},{"id":17116,"title":"Икар: Видение","kp_id":"932168","imdb_id":"tt4371680","world_art_id":null,"type":"movie","add":"2018-06-10 19:35:03","orig_title":"Icaros: A Vision","year":"2016-04-16","translations":["Любительский (многоголосый закадровый) (Синема УС)"],"quality":"webdl","translation":"Любительский (многоголосый закадровый) (Синема УС)","update":"2018-06-13 12:59:15","iframe_src":"//8543.svetacdn.in/71tsRs29n5tZ/movie/17116"},{"id":17114,"title":"Прощённая","kp_id":"1138924","imdb_id":"tt7243766","world_art_id":null,"type":"movie","add":"2018-06-10 19:29:41","orig_title":"Forgiven","year":"2017-06-30","translations":["Любительский (многоголосый закадровый) (Колобок)"],"quality":"webdl","translation":"Любительский (многоголосый закадровый) (Колобок)","update":"2018-06-13 13:06:37","iframe_src":"//8543.svetacdn.in/71tsRs29n5tZ/movie/17114"},{"id":17113,"title":"Подходящая девушка","kp_id":"1046076","imdb_id":"tt6604050","world_art_id":null,"type":"movie","add":"2018-06-10 19:25:56","orig_title":"A Suitable Girl","year":"2017-04-22","translations":["Любительский (многоголосый закадровый) (Синема УС)"],"quality":"webdl","translation":"Любительский (многоголосый закадровый) (Синема УС)","update":"2018-06-13 13:09:02","iframe_src":"//8543.svetacdn.in/71tsRs29n5tZ/movie/17113"},{"id":17110,"title":"Последние дни жизни Майкла Джексона","kp_id":null,"imdb_id":"tt8452534","world_art_id":null,"type":"movie","add":"2018-06-10 19:16:06","orig_title":"The Last Days of Michael Jackson","year":"2018-05-24","translations":["Любительский (многоголосый закадровый) (Синема УС)"],"quality":"hdtv","translation":"Любительский (многоголосый закадровый) (Синема УС)","update":"2018-06-13 13:13:09","iframe_src":"//8543.svetacdn.in/71tsRs29n5tZ/movie/17110"},{"id":17096,"title":"Балу и Махи","kp_id":"1041394","imdb_id":"tt5370442","world_art_id":null,"type":"movie","add":"2018-06-10 17:45:24","orig_title":"Balu Mahi","year":"2017-02-10","translations":["Любительский (многоголосый закадровый) (Синема УС)"],"quality":"webdl","translation":"Любительский (многоголосый закадровый) (Синема УС)","update":"2018-06-13 12:50:56","iframe_src":"//8543.svetacdn.in/71tsRs29n5tZ/movie/17096"},{"id":17080,"title":"Королева Марго","kp_id":"11600","imdb_id":"tt0110963","world_art_id":null,"type":"movie","add":"2018-06-09 09:10:57","orig_title":"La reine Margot","year":"1994-05-13","translations":["Профессиональный (многоголосый закадровый)"],"quality":"bd","translation":"Профессиональный (многоголосый закадровый)","update":"2018-06-13 13:14:55","iframe_src":"//8543.svetacdn.in/71tsRs29n5tZ/movie/17080"},{"id":17019,"title":"Одни из последних","kp_id":"921913","imdb_id":"tt4619908","world_art_id":null,"type":"movie","add":"2018-06-03 22:27:26","orig_title":"Last Ones Out","year":"2016-06-17","translations":["Любительский (одноголосый закадровый) (datynet)","Любительский (многоголосый закадровый) (Синема УС)"],"quality":"webdl","translation":"Любительский (одноголосый закадровый) (datynet)","update":"2018-06-15 04:11:10","iframe_src":"//8543.svetacdn.in/71tsRs29n5tZ/movie/17019"},{"id":15106,"title":"Мой друг Дамер","kp_id":"696038","imdb_id":"tt2291540","world_art_id":null,"type":"movie","add":"2018-02-08 12:42:04","orig_title":"My Friend Dahmer","year":"2017-04-21","translations":["Любительский (многоголосый закадровый) (Синема УС)","Любительский (многоголосый закадровый) (GreenРай Studio)","Профессиональный (многоголосый закадровый) (Jaskier)"],"quality":"bd","translation":"Любительский (многоголосый закадровый) (Синема УС)","update":"2018-06-15 04:10:12","iframe_src":"//8543.svetacdn.in/71tsRs29n5tZ/movie/15106"},{"id":9373,"title":"Темная Вселенная","kp_id":"716048","imdb_id":"tt2494376","world_art_id":null,"type":"movie","add":"2017-02-02 05:47:12","orig_title":"Justice League Dark","year":"2017-01-24","translations":["Любительский (многоголосый закадровый) (Колобок)","Любительский (многоголосый закадровый)","Полное дублирование"],"quality":"bd","translation":"Любительский (многоголосый закадровый) (Колобок)","update":"2018-06-15 04:15:10","iframe_src":"//8543.svetacdn.in/71tsRs29n5tZ/movie/9373"},{"id":7597,"title":"Бэтмен: Убийственная шутка","kp_id":"922165","imdb_id":"tt4853102","world_art_id":null,"type":"movie","add":"2016-11-23 12:28:04","orig_title":"Batman: The Killing Joke","year":"2016-07-22","translations":["Профессиональный (многоголосый закадровый)","Полное дублирование"],"quality":"bd","translation":"Профессиональный (многоголосый закадровый)","update":"2018-06-15 04:26:12","iframe_src":"//8543.svetacdn.in/71tsRs29n5tZ/movie/7597"}],"current_page":1724,"first_page_url":"https://videocdn.tv/api/short?limit=100&api_token=EnbO9h8pv1VyjbCJhg0WM9nG259n7mtz&cache31724=31724&page=1","from":172301,"last_page":599,"last_page_url":"https://videocdn.tv/api/short?limit=100&api_token=EnbO9h8pv1VyjbCJhg0WM9nG259n7mtz&cache31724=31724&page=599","next_page_url":null,"path":"https://videocdn.tv/api/short","per_page":100,"prev_page_url":"https://videocdn.tv/api/short?limit=100&api_token=EnbO9h8pv1VyjbCJhg0WM9nG259n7mtz&cache31724=31724&page=1723","to":172320,"total":59870}