{"result":true,"data":[{"id":41145,"title":"Лишний вес","kp_id":"1083313","imdb_id":"tt6805814","world_art_id":null,"type":"movie","add":"2020-06-12 07:25:29","orig_title":"Weight","year":"2018-06-19","translations":["Любительский (многоголосый закадровый) (Синема УС)"],"quality":"webdl","translation":"Любительский (многоголосый закадровый) (Синема УС)","update":"2020-06-12 10:27:16","iframe_src":"//8543.svetacdn.in/IAF0wWTdNYZm/movie/41145"},{"id":41143,"title":"Проверка","kp_id":"1056926","imdb_id":"tt7305198","world_art_id":null,"type":"movie","add":"2020-06-12 06:57:06","orig_title":"The Departure","year":"2020-06-12","translations":["Любительский (многоголосый закадровый) (@MUZOBOZ@)"],"quality":"webdl","translation":"Любительский (многоголосый закадровый) (@MUZOBOZ@)","update":"2020-06-12 10:23:25","iframe_src":"//8543.svetacdn.in/IAF0wWTdNYZm/movie/41143"},{"id":41142,"title":"Часть моего сердца","kp_id":"1127433","imdb_id":"tt8269566","world_art_id":null,"type":"movie","add":"2020-06-11 20:41:56","orig_title":"En del av mitt hjärta","year":"2019-12-25","translations":["Любительский (многоголосый закадровый) (AlphaProject)"],"quality":"webdl","translation":"Любительский (многоголосый закадровый) (AlphaProject)","update":"2020-06-12 14:12:19","iframe_src":"//8543.svetacdn.in/IAF0wWTdNYZm/movie/41142"},{"id":41134,"title":"Трезор","kp_id":"1196578","imdb_id":"tt8908006","world_art_id":null,"type":"movie","add":"2020-06-11 17:39:07","orig_title":"Trezor","year":"2018-10-15","translations":["Любительский (многоголосый закадровый) (Синема УС)"],"quality":"hdtv","translation":"Любительский (многоголосый закадровый) (Синема УС)","update":"2020-06-12 04:49:08","iframe_src":"//8543.svetacdn.in/IAF0wWTdNYZm/movie/41134"},{"id":41133,"title":"Приют","kp_id":"1261616","imdb_id":"tt5678218","world_art_id":null,"type":"movie","add":"2020-06-11 17:37:57","orig_title":"Parwareshghah","year":"2019-05-18","translations":["Любительский (многоголосый закадровый) (Синема УС)"],"quality":"webdl","translation":"Любительский (многоголосый закадровый) (Синема УС)","update":"2020-06-12 04:48:17","iframe_src":"//8543.svetacdn.in/IAF0wWTdNYZm/movie/41133"},{"id":41132,"title":"Зима","kp_id":"1350857","imdb_id":"tt11704012","world_art_id":null,"type":"movie","add":"2020-06-11 17:35:18","orig_title":"Talve","year":"2020-02-07","translations":["Любительский (многоголосый закадровый) (Синема УС)"],"quality":"webdl","translation":"Любительский (многоголосый закадровый) (Синема УС)","update":"2020-06-12 04:47:39","iframe_src":"//8543.svetacdn.in/IAF0wWTdNYZm/movie/41132"},{"id":41131,"title":"Космический корабль Земля","kp_id":"1345652","imdb_id":"tt11394188","world_art_id":null,"type":"movie","add":"2020-06-11 17:32:25","orig_title":"Spaceship Earth","year":"2020-01-26","translations":["Любительский (многоголосый закадровый) (Синема УС)"],"quality":"webdl","translation":"Любительский (многоголосый закадровый) (Синема УС)","update":"2020-06-12 04:29:58","iframe_src":"//8543.svetacdn.in/IAF0wWTdNYZm/movie/41131"},{"id":41130,"title":"Только для взрослых","kp_id":"972900","imdb_id":"tt5473040","world_art_id":null,"type":"movie","add":"2020-06-11 17:26:25","orig_title":"Some Adult Content","year":"2020-01-16","translations":["Любительский (многоголосый закадровый) (Синема УС)"],"quality":"webdl","translation":"Любительский (многоголосый закадровый) (Синема УС)","update":"2020-06-12 04:24:13","iframe_src":"//8543.svetacdn.in/IAF0wWTdNYZm/movie/41130"},{"id":41129,"title":"Отель Луна в Кабуле","kp_id":"1053628","imdb_id":"tt6785134","world_art_id":null,"type":"movie","add":"2020-06-11 16:49:59","orig_title":"Moon Hotel Kabul","year":"2018-10-18","translations":["Любительский (многоголосый закадровый) (Синема УС)"],"quality":"webdl","translation":"Любительский (многоголосый закадровый) (Синема УС)","update":"2020-06-12 04:28:11","iframe_src":"//8543.svetacdn.in/IAF0wWTdNYZm/movie/41129"},{"id":41125,"title":"Чужие сердца","kp_id":"1029104","imdb_id":"tt6091368","world_art_id":null,"type":"movie","add":"2020-06-11 16:28:04","orig_title":"Secondhand Hearts","year":"2017-04-06","translations":["Любительский (многоголосый закадровый) (Синема УС)"],"quality":"webdl","translation":"Любительский (многоголосый закадровый) (Синема УС)","update":"2020-06-12 04:25:08","iframe_src":"//8543.svetacdn.in/IAF0wWTdNYZm/movie/41125"},{"id":41115,"title":"Автомойка","kp_id":"56219","imdb_id":"tt0105600","world_art_id":null,"type":"movie","add":"2020-06-11 07:00:05","orig_title":"Tirelire Combines & Cie","year":"1992-07-03","translations":["Профессиональный (многоголосый закадровый) (Selena International)"],"quality":"webdl","translation":"Профессиональный (многоголосый закадровый) (Selena International)","update":"2020-06-12 06:33:06","iframe_src":"//8543.svetacdn.in/IAF0wWTdNYZm/movie/41115"},{"id":41110,"title":"Не плачь, Петр","kp_id":"106711","imdb_id":"tt0058394","world_art_id":null,"type":"movie","add":"2020-06-11 06:54:47","orig_title":"Ne joci, Peter","year":"1964-07-17","translations":["Любительский (двухголосый закадровый) (Levelin)"],"quality":"webdl","translation":"Любительский (двухголосый закадровый) (Levelin)","update":"2020-06-12 06:24:20","iframe_src":"//8543.svetacdn.in/IAF0wWTdNYZm/movie/41110"},{"id":41109,"title":"Таинственный мальчик","kp_id":"752807","imdb_id":"tt2776882","world_art_id":null,"type":"movie","add":"2020-06-11 06:53:37","orig_title":"Zagonetni djecak","year":"2013-02-28","translations":["Любительский (одноголосый закадровый) (Ващенко Семён)"],"quality":"webdl","translation":"Любительский (одноголосый закадровый) (Ващенко Семён)","update":"2020-06-12 06:23:22","iframe_src":"//8543.svetacdn.in/IAF0wWTdNYZm/movie/41109"},{"id":41107,"title":"Древо познания","kp_id":"47932","imdb_id":"tt0082633","world_art_id":null,"type":"movie","add":"2020-06-11 06:50:25","orig_title":"Kundskabens træ","year":"1981-11-13","translations":["Авторский (одноголосый закадровый) (Кошкин Василий)"],"quality":"webdl","translation":"Авторский (одноголосый закадровый) (Кошкин Василий)","update":"2020-06-12 06:20:11","iframe_src":"//8543.svetacdn.in/IAF0wWTdNYZm/movie/41107"},{"id":41035,"title":"20 футов под землёй: И пала тьма","kp_id":"717340","imdb_id":"tt2516610","world_art_id":null,"type":"movie","add":"2020-06-08 17:16:33","orig_title":"20 Ft Below: The Darkness Descending","year":"2014-03-18","translations":["Любительский (двухголосый закадровый) (DeadSno & den904)"],"quality":"webdl","translation":"Любительский (двухголосый закадровый) (DeadSno & den904)","update":"2020-06-12 16:47:46","iframe_src":"//8543.svetacdn.in/IAF0wWTdNYZm/movie/41035"},{"id":41008,"title":"Старт","kp_id":"7774","imdb_id":"tt0061605","world_art_id":null,"type":"movie","add":"2020-06-07 16:05:36","orig_title":"Le départ","year":"1967-06-01","translations":["Профессиональный (многоголосый закадровый) (Лексикон)"],"quality":"dvdrip","translation":"Профессиональный (многоголосый закадровый) (Лексикон)","update":"2020-06-12 16:48:27","iframe_src":"//8543.svetacdn.in/IAF0wWTdNYZm/movie/41008"},{"id":41007,"title":"Рейд возмездия","kp_id":"8398","imdb_id":"tt0211901","world_art_id":null,"type":"movie","add":"2020-06-07 16:04:07","orig_title":"Active Stealth","year":"1999-07-11","translations":["Профессиональный (многоголосый закадровый) (Twister)"],"quality":"dvdrip","translation":"Профессиональный (многоголосый закадровый) (Twister)","update":"2020-06-12 16:49:06","iframe_src":"//8543.svetacdn.in/IAF0wWTdNYZm/movie/41007"},{"id":41006,"title":"Лед в сердце","kp_id":"256482","imdb_id":"tt0447987","world_art_id":null,"type":"movie","add":"2020-06-07 16:02:40","orig_title":"Go Figure","year":"2005-06-10","translations":["Полное дублирование (Невафильм)"],"quality":"webdl","translation":"Полное дублирование (Невафильм)","update":"2020-06-12 16:49:52","iframe_src":"//8543.svetacdn.in/IAF0wWTdNYZm/movie/41006"},{"id":41005,"title":"Сдержать клятву","kp_id":"36613","imdb_id":"tt0107986","world_art_id":null,"type":"movie","add":"2020-06-07 16:01:10","orig_title":"Roop Ki Rani Choron Ka Raja","year":"1993-04-16","translations":["Профессиональный (многоголосый закадровый)"],"quality":"dvdrip","translation":"Профессиональный (многоголосый закадровый)","update":"2020-06-12 16:50:46","iframe_src":"//8543.svetacdn.in/IAF0wWTdNYZm/movie/41005"},{"id":41004,"title":"Диета по-итальянски","kp_id":"1037329","imdb_id":"tt6288204","world_art_id":null,"type":"movie","add":"2020-06-07 15:59:08","orig_title":"Ci vuole un fisico","year":"2018-03-23","translations":["Профессиональный (многоголосый закадровый)"],"quality":"webdl","translation":"Профессиональный (многоголосый закадровый)","update":"2020-06-12 16:51:30","iframe_src":"//8543.svetacdn.in/IAF0wWTdNYZm/movie/41004"},{"id":281,"title":"Сестра моя, Любовь","kp_id":"818852","imdb_id":"tt4152420","world_art_id":null,"type":"serial","add":"2016-07-12 04:38:06","orig_title":"Sestra moya: Lyubov","year":"2014-01-01","translations":["Оригинальная дорожка"],"seasons_count":1,"episodes_count":16,"episodes":16,"update":"2016-07-12 12:39:27","iframe_src":"//8543.svetacdn.in/IAF0wWTdNYZm/tv-series/281"},{"id":276,"title":"Шанс","kp_id":"935906","imdb_id":null,"world_art_id":null,"type":"serial","add":"2016-07-10 08:09:44","orig_title":"Шанс","year":"2015-10-17","translations":["Оригинальная дорожка"],"seasons_count":1,"episodes_count":2,"episodes":2,"update":"2016-07-11 05:50:41","iframe_src":"//8543.svetacdn.in/IAF0wWTdNYZm/tv-series/276"},{"id":270,"title":"Завтра все закончится","kp_id":"984334","imdb_id":"tt4368698","world_art_id":null,"type":"serial","add":"2016-07-07 12:04:00","orig_title":"Morgen hör ich auf","year":"2016-01-02","translations":["Профессиональный (многоголосый закадровый) (ViruseProject)"],"seasons_count":1,"episodes_count":5,"episodes":5,"update":"2016-07-08 10:26:56","iframe_src":"//8543.svetacdn.in/IAF0wWTdNYZm/tv-series/270"},{"id":266,"title":"Так сложились звезды","kp_id":"968794","imdb_id":null,"world_art_id":null,"type":"serial","add":"2016-07-07 04:19:32","orig_title":"Так сложились звезды","year":"2016-04-28","translations":["Оригинальная дорожка"],"seasons_count":1,"episodes_count":4,"episodes":4,"update":"2016-07-07 05:52:19","iframe_src":"//8543.svetacdn.in/IAF0wWTdNYZm/tv-series/266"},{"id":262,"title":"Политические игры (Фокусы)","kp_id":"880731","imdb_id":"tt4061482","world_art_id":null,"type":"serial","add":"2016-07-06 13:25:55","orig_title":"Party Tricks","year":"2014-10-06","translations":["Любительский (двухголосый закадровый) (Kiitos)"],"seasons_count":1,"episodes_count":6,"episodes":6,"update":"2016-07-07 10:20:12","iframe_src":"//8543.svetacdn.in/IAF0wWTdNYZm/tv-series/262"},{"id":260,"title":"Галлиполи","kp_id":"840346","imdb_id":"tt3577058","world_art_id":null,"type":"serial","add":"2016-07-06 13:04:55","orig_title":"Gallipoli","year":"2015-02-09","translations":["Любительский (двухголосый закадровый) (Kiitos)"],"seasons_count":1,"episodes_count":7,"episodes":7,"update":"2016-07-07 09:57:51","iframe_src":"//8543.svetacdn.in/IAF0wWTdNYZm/tv-series/260"},{"id":259,"title":"Наручники","kp_id":"945341","imdb_id":"tt4568288","world_art_id":null,"type":"serial","add":"2016-07-06 10:04:27","orig_title":"Cuffs","year":"2015-10-28","translations":["Любительский (двухголосый закадровый) (Kiitos)"],"seasons_count":1,"episodes_count":8,"episodes":8,"update":"2016-07-07 05:44:33","iframe_src":"//8543.svetacdn.in/IAF0wWTdNYZm/tv-series/259"},{"id":258,"title":"Возраст любви","kp_id":"975659","imdb_id":null,"world_art_id":null,"type":"serial","add":"2016-07-05 15:05:01","orig_title":"Возраст любви","year":"2016-05-15","translations":["Оригинальная дорожка"],"seasons_count":1,"episodes_count":1,"episodes":1,"update":"2016-07-06 04:30:48","iframe_src":"//8543.svetacdn.in/IAF0wWTdNYZm/tv-series/258"},{"id":255,"title":"И шарик вернется","kp_id":"844016","imdb_id":"tt5045462","world_art_id":null,"type":"serial","add":"2016-07-05 04:53:16","orig_title":"I sharik vernetsya","year":"2015-09-02","translations":["Оригинальная дорожка"],"seasons_count":1,"episodes_count":8,"episodes":8,"update":"2016-07-05 07:04:22","iframe_src":"//8543.svetacdn.in/IAF0wWTdNYZm/tv-series/255"},{"id":254,"title":"Последний рубеж","kp_id":"927712","imdb_id":null,"world_art_id":null,"type":"serial","add":"2016-07-05 04:38:50","orig_title":"Последний рубеж","year":"2015-01-01","translations":["Оригинальная дорожка"],"seasons_count":1,"episodes_count":4,"episodes":4,"update":"2016-07-05 07:12:14","iframe_src":"//8543.svetacdn.in/IAF0wWTdNYZm/tv-series/254"},{"id":253,"title":"Апперкот для Гитлера","kp_id":"844095","imdb_id":null,"world_art_id":null,"type":"serial","add":"2016-07-05 04:33:31","orig_title":"Апперкот для Гитлера","year":"2015-01-01","translations":["Оригинальная дорожка"],"seasons_count":1,"episodes_count":4,"episodes":4,"update":"2016-07-05 07:18:52","iframe_src":"//8543.svetacdn.in/IAF0wWTdNYZm/tv-series/253"},{"id":251,"title":"Шаманка","kp_id":"837965","imdb_id":"tt5031916","world_art_id":null,"type":"serial","add":"2016-07-04 06:06:19","orig_title":"Shamanka","year":"2015-04-11","translations":["Оригинальная дорожка"],"seasons_count":1,"episodes_count":20,"episodes":20,"update":"2016-07-04 10:53:52","iframe_src":"//8543.svetacdn.in/IAF0wWTdNYZm/tv-series/251"},{"id":250,"title":"Вдовец","kp_id":"843031","imdb_id":null,"world_art_id":null,"type":"serial","add":"2016-07-04 06:00:11","orig_title":"Вдовец","year":"2014-10-11","translations":["Оригинальная дорожка"],"seasons_count":1,"episodes_count":2,"episodes":2,"update":"2016-07-04 08:51:06","iframe_src":"//8543.svetacdn.in/IAF0wWTdNYZm/tv-series/250"},{"id":249,"title":"Золотая клетка","kp_id":"888231","imdb_id":"tt5107662","world_art_id":null,"type":"serial","add":"2016-07-04 05:22:40","orig_title":"Zolotaya kletka","year":"2015-10-04","translations":["Оригинальная дорожка"],"seasons_count":1,"episodes_count":4,"episodes":4,"update":"2016-07-04 08:59:11","iframe_src":"//8543.svetacdn.in/IAF0wWTdNYZm/tv-series/249"},{"id":248,"title":"Прошу поверить мне на слово","kp_id":"924239","imdb_id":"tt4981874","world_art_id":null,"type":"serial","add":"2016-07-04 05:16:48","orig_title":"Proshu poverit mne na slovo","year":"2016-01-01","translations":["Оригинальная дорожка"],"seasons_count":1,"episodes_count":4,"episodes":4,"update":"2016-07-04 07:30:59","iframe_src":"//8543.svetacdn.in/IAF0wWTdNYZm/tv-series/248"},{"id":242,"title":"Сестра Джеки","kp_id":"406347","imdb_id":"tt1190689","world_art_id":null,"type":"serial","add":"2016-06-29 14:11:29","orig_title":"Nurse Jackie","year":"2009-06-08","translations":["Профессиональный (многоголосый закадровый) (Universal Russia)","Профессиональный (многоголосый закадровый) (NewStudio)"],"seasons_count":7,"episodes_count":80,"episodes":12,"update":"2016-07-05 11:08:26","iframe_src":"//8543.svetacdn.in/IAF0wWTdNYZm/tv-series/242"},{"id":238,"title":"Вижу-знаю","kp_id":"977848","imdb_id":null,"world_art_id":null,"type":"serial","add":"2016-06-28 15:50:12","orig_title":"Вижу-знаю","year":"2016-01-01","translations":["Оригинальная дорожка"],"seasons_count":1,"episodes_count":24,"episodes":24,"update":"2016-07-08 06:51:54","iframe_src":"//8543.svetacdn.in/IAF0wWTdNYZm/tv-series/238"},{"id":207,"title":"Кровные узы","kp_id":"926866","imdb_id":"tt4671682","world_art_id":null,"type":"serial","add":"2016-06-20 12:43:27","orig_title":"Ties That Bind","year":"2015-08-12","translations":["Профессиональный (многоголосый закадровый) (ViruseProject)"],"seasons_count":1,"episodes_count":10,"episodes":10,"update":"2016-07-07 06:26:58","iframe_src":"//8543.svetacdn.in/IAF0wWTdNYZm/tv-series/207"},{"id":144,"title":"ЧОП","kp_id":"893094","imdb_id":"tt4567186","world_art_id":null,"type":"serial","add":"2016-06-06 08:45:05","orig_title":"CHOP","year":"2015-01-01","translations":["Оригинальная дорожка"],"seasons_count":2,"episodes_count":32,"episodes":16,"update":"2016-07-06 06:29:47","iframe_src":"//8543.svetacdn.in/IAF0wWTdNYZm/tv-series/144"},{"id":100,"title":"Игра в молчанку","kp_id":"893672","imdb_id":"tt4074374","world_art_id":null,"type":"serial","add":"2016-05-27 05:15:09","orig_title":"Game of Silence","year":"2016-04-12","translations":["Профессиональный (многоголосый закадровый) (BaibaKo)"],"seasons_count":1,"episodes_count":10,"episodes":10,"update":"2016-07-11 06:03:16","iframe_src":"//8543.svetacdn.in/IAF0wWTdNYZm/tv-series/100"}],"current_page":499,"first_page_url":"https://videocdn.tv/api/short?limit=100&api_token=6Onb1W1alEUrBcKJZD3GoKBbWyAl2uG2&cache3499=3499&page=1","from":49801,"last_page":605,"last_page_url":"https://videocdn.tv/api/short?limit=100&api_token=6Onb1W1alEUrBcKJZD3GoKBbWyAl2uG2&cache3499=3499&page=605","next_page_url":"https://videocdn.tv/api/short?limit=100&api_token=6Onb1W1alEUrBcKJZD3GoKBbWyAl2uG2&cache3499=3499&page=500","path":"https://videocdn.tv/api/short","per_page":100,"prev_page_url":"https://videocdn.tv/api/short?limit=100&api_token=6Onb1W1alEUrBcKJZD3GoKBbWyAl2uG2&cache3499=3499&page=498","to":49840,"total":60438}