{"result":true,"data":[{"id":936,"title":"Пивная лига","kp_id":"102579","imdb_id":"tt0453453","world_art_id":null,"type":"movie","add":"2016-04-09 21:55:44","orig_title":"Beer League","year":"2006-09-15","translations":["Профессиональный (многоголосый закадровый)"],"quality":"bd","translation":"Профессиональный (многоголосый закадровый)","update":"2016-04-11 16:31:56","iframe_src":"//83.svetacdn.in/PfJ50H0ZBPg3/movie/936"},{"id":933,"title":"Близость","kp_id":"61324","imdb_id":"tt0376541","world_art_id":null,"type":"movie","add":"2016-04-09 21:51:39","orig_title":"Closer","year":"2004-12-03","translations":["Полное дублирование"],"quality":"bd","translation":"Полное дублирование","update":"2016-04-11 16:45:05","iframe_src":"//83.svetacdn.in/PfJ50H0ZBPg3/movie/933"},{"id":927,"title":"Элитный отряд","kp_id":"268491","imdb_id":"tt0861739","world_art_id":null,"type":"movie","add":"2016-04-09 19:15:53","orig_title":"Tropa de Elite","year":"2007-08-17","translations":["Профессиональный (многоголосый закадровый)"],"quality":"bd","translation":"Профессиональный (многоголосый закадровый)","update":"2016-04-11 16:12:51","iframe_src":"//83.svetacdn.in/PfJ50H0ZBPg3/movie/927"},{"id":921,"title":"Тигровые отряды","kp_id":"104928","imdb_id":"tt0462667","world_art_id":null,"type":"movie","add":"2016-04-09 18:31:13","orig_title":"Les brigades du Tigre","year":"2006-03-18","translations":["Профессиональный (многоголосый закадровый)"],"quality":"bd","translation":"Профессиональный (многоголосый закадровый)","update":"2016-04-11 16:50:20","iframe_src":"//83.svetacdn.in/PfJ50H0ZBPg3/movie/921"},{"id":920,"title":"Не шутите с Zоханом!","kp_id":"280826","imdb_id":"tt0960144","world_art_id":null,"type":"movie","add":"2016-04-09 18:24:05","orig_title":"You Don't Mess with the Zohan","year":"2008-06-06","translations":["Полное дублирование"],"quality":"bd","translation":"Полное дублирование","update":"2016-04-11 16:03:03","iframe_src":"//83.svetacdn.in/PfJ50H0ZBPg3/movie/920"},{"id":916,"title":"Глубина","kp_id":"13148","imdb_id":"tt0276816","world_art_id":null,"type":"movie","add":"2016-04-09 17:58:25","orig_title":"Below","year":"2002-10-11","translations":["Полное дублирование"],"quality":"bd","translation":"Полное дублирование","update":"2016-04-11 16:35:17","iframe_src":"//83.svetacdn.in/PfJ50H0ZBPg3/movie/916"},{"id":914,"title":"Ванильное небо","kp_id":"870","imdb_id":"tt0259711","world_art_id":null,"type":"movie","add":"2016-04-09 17:50:52","orig_title":"Vanilla Sky","year":"2001-12-10","translations":["Полное дублирование"],"quality":"bd","translation":"Полное дублирование","update":"2016-04-11 16:15:28","iframe_src":"//83.svetacdn.in/PfJ50H0ZBPg3/movie/914"},{"id":910,"title":"Девушка, которая играла с огнём","kp_id":"409226","imdb_id":"tt1216487","world_art_id":null,"type":"movie","add":"2016-04-09 17:34:24","orig_title":"Flickan som lekte med elden","year":"2009-09-18","translations":["Профессиональный (многоголосый закадровый)"],"quality":"bd","translation":"Профессиональный (многоголосый закадровый)","update":"2016-04-11 16:07:21","iframe_src":"//83.svetacdn.in/PfJ50H0ZBPg3/movie/910"},{"id":902,"title":"Список контактов","kp_id":"258275","imdb_id":"tt0800240","world_art_id":null,"type":"movie","add":"2016-04-09 08:31:55","orig_title":"Deception","year":"2008-04-24","translations":["Полное дублирование"],"quality":"bd","translation":"Полное дублирование","update":"2016-04-11 16:37:16","iframe_src":"//83.svetacdn.in/PfJ50H0ZBPg3/movie/902"},{"id":897,"title":"Палата","kp_id":"445148","imdb_id":"tt1369706","world_art_id":null,"type":"movie","add":"2016-04-09 08:22:17","orig_title":"The Ward","year":"2010-09-13","translations":["Полное дублирование"],"quality":"bd","translation":"Полное дублирование","update":"2016-04-11 15:53:17","iframe_src":"//83.svetacdn.in/PfJ50H0ZBPg3/movie/897"},{"id":896,"title":"Орудия смерти: Город костей","kp_id":"484391","imdb_id":"tt1538403","world_art_id":null,"type":"movie","add":"2016-04-09 08:20:09","orig_title":"The Mortal Instruments: City of Bones","year":"2013-08-12","translations":["Полное дублирование"],"quality":"bd","translation":"Полное дублирование","update":"2016-04-11 15:57:08","iframe_src":"//83.svetacdn.in/PfJ50H0ZBPg3/movie/896"},{"id":860,"title":"Астрал","kp_id":"495892","imdb_id":"tt1591095","world_art_id":null,"type":"movie","add":"2016-04-08 18:30:50","orig_title":"Insidious","year":"2010-09-14","translations":["Полное дублирование"],"quality":"bd","translation":"Полное дублирование","update":"2016-04-11 16:28:56","iframe_src":"//83.svetacdn.in/PfJ50H0ZBPg3/movie/860"},{"id":859,"title":"Астрал: Глава 2","kp_id":"666804","imdb_id":"tt2226417","world_art_id":null,"type":"movie","add":"2016-04-08 18:25:22","orig_title":"Insidious: Chapter 2","year":"2013-09-13","translations":["Полное дублирование"],"quality":"bd","translation":"Полное дублирование","update":"2016-04-11 16:30:31","iframe_src":"//83.svetacdn.in/PfJ50H0ZBPg3/movie/859"},{"id":852,"title":"Любовь зла","kp_id":"827","imdb_id":"tt0256380","world_art_id":null,"type":"movie","add":"2016-04-08 18:03:10","orig_title":"Shallow Hal","year":"2001-11-01","translations":["Полное дублирование"],"quality":"bd","translation":"Полное дублирование","update":"2016-04-11 15:46:32","iframe_src":"//83.svetacdn.in/PfJ50H0ZBPg3/movie/852"},{"id":851,"title":"Безбрачная неделя","kp_id":"195384","imdb_id":"tt0480687","world_art_id":null,"type":"movie","add":"2016-04-08 18:01:39","orig_title":"Hall Pass","year":"2011-02-23","translations":["Полное дублирование"],"quality":"bd","translation":"Полное дублирование","update":"2016-04-11 15:50:08","iframe_src":"//83.svetacdn.in/PfJ50H0ZBPg3/movie/851"},{"id":836,"title":"Бессонница","kp_id":"712","imdb_id":"tt0278504","world_art_id":null,"type":"movie","add":"2016-04-08 17:17:43","orig_title":"Insomnia","year":"2002-05-03","translations":["Полное дублирование"],"quality":"bd","translation":"Полное дублирование","update":"2016-04-11 16:24:20","iframe_src":"//83.svetacdn.in/PfJ50H0ZBPg3/movie/836"},{"id":832,"title":"Возвращение Супермена","kp_id":"38472","imdb_id":"tt0348150","world_art_id":null,"type":"movie","add":"2016-04-08 17:10:19","orig_title":"Superman Returns","year":"2006-06-21","translations":["Полное дублирование"],"quality":"bd","translation":"Полное дублирование","update":"2016-04-11 16:00:39","iframe_src":"//83.svetacdn.in/PfJ50H0ZBPg3/movie/832"},{"id":825,"title":"Неудачники","kp_id":"400906","imdb_id":"tt1149361","world_art_id":null,"type":"movie","add":"2016-04-08 16:58:34","orig_title":"Micmacs à tire-larigot","year":"2009-09-15","translations":["Полное дублирование"],"quality":"bd","translation":"Полное дублирование","update":"2016-04-11 16:25:46","iframe_src":"//83.svetacdn.in/PfJ50H0ZBPg3/movie/825"},{"id":821,"title":"На крючке","kp_id":"387477","imdb_id":"tt1059786","world_art_id":null,"type":"movie","add":"2016-04-08 16:48:34","orig_title":"Eagle Eye","year":"2008-09-16","translations":["Полное дублирование"],"quality":"bd","translation":"Полное дублирование","update":"2016-04-11 16:44:26","iframe_src":"//83.svetacdn.in/PfJ50H0ZBPg3/movie/821"},{"id":356,"title":"Маленький принц","kp_id":"572553","imdb_id":"tt1754656","world_art_id":null,"type":"movie","add":"2016-03-29 14:34:10","orig_title":"The Little Prince","year":"2015-05-22","translations":["Полное дублирование"],"quality":"bd","translation":"Полное дублирование","update":"2016-04-12 10:52:24","iframe_src":"//83.svetacdn.in/PfJ50H0ZBPg3/movie/356"}],"current_page":2629,"first_page_url":"https://videocdn.tv/api/short?limit=100&api_token=RgFQdUIR2dRmwv8iYa5SnFNgnw3vpjKj&cache32629=32629&page=1","from":262801,"last_page":665,"last_page_url":"https://videocdn.tv/api/short?limit=100&api_token=RgFQdUIR2dRmwv8iYa5SnFNgnw3vpjKj&cache32629=32629&page=665","next_page_url":null,"path":"https://videocdn.tv/api/short","per_page":100,"prev_page_url":"https://videocdn.tv/api/short?limit=100&api_token=RgFQdUIR2dRmwv8iYa5SnFNgnw3vpjKj&cache32629=32629&page=2628","to":262820,"total":66426}