{"result":true,"data":[{"id":42035,"title":"Я жду птенца","kp_id":"259933","imdb_id":"tt3339872","world_art_id":null,"type":"movie","add":"2020-07-26 19:43:21","orig_title":"Ya zhdu ptentsa","year":"1966-01-01","translations":["Оригинальная дорожка"],"quality":"webdl","translation":"Оригинальная дорожка","update":"2020-07-29 05:43:07","iframe_src":"//83.svetacdn.in/PfJ50H0ZBPg3/movie/42035"},{"id":42034,"title":"Как лисы с курами подружились","kp_id":"656548","imdb_id":"tt8860862","world_art_id":null,"type":"movie","add":"2020-07-26 19:41:01","orig_title":"Kak lisy s kurami podruzhilis..","year":"1980-01-01","translations":["Оригинальная дорожка"],"quality":"dvdrip","translation":"Оригинальная дорожка","update":"2020-07-29 05:41:38","iframe_src":"//83.svetacdn.in/PfJ50H0ZBPg3/movie/42034"},{"id":42033,"title":"Как казаки кулеш варили","kp_id":"260250","imdb_id":"tt1321406","world_art_id":null,"type":"movie","add":"2020-07-26 19:38:32","orig_title":"Kak kazaki kulesh varili","year":"1967-01-01","translations":["Оригинальная дорожка"],"quality":"dvdrip","translation":"Оригинальная дорожка","update":"2020-07-29 05:40:19","iframe_src":"//83.svetacdn.in/PfJ50H0ZBPg3/movie/42033"},{"id":42032,"title":"Как я ехал к деве Севера","kp_id":"814552","imdb_id":null,"world_art_id":null,"type":"movie","add":"2020-07-26 19:35:23","orig_title":"Как я ехал к деве Севера","year":"1980-01-01","translations":["Любительский (многоголосый закадровый)"],"quality":"dvdrip","translation":"Любительский (многоголосый закадровый)","update":"2020-07-29 05:39:09","iframe_src":"//83.svetacdn.in/PfJ50H0ZBPg3/movie/42032"},{"id":42031,"title":"Как дед великое равновесие нарушил","kp_id":"581224","imdb_id":"tt2836242","world_art_id":null,"type":"movie","add":"2020-07-26 19:33:08","orig_title":"Kak ded velikoe ravnovesie narushil","year":"1976-01-01","translations":["Оригинальная дорожка"],"quality":"dvdrip","translation":"Оригинальная дорожка","update":"2020-07-29 05:37:59","iframe_src":"//83.svetacdn.in/PfJ50H0ZBPg3/movie/42031"},{"id":42030,"title":"Гугуцэ — капитан корабля","kp_id":"1245316","imdb_id":null,"world_art_id":null,"type":"movie","add":"2020-07-26 19:30:49","orig_title":"Гугуцэ — капитан корабля","year":"1981-01-01","translations":["Оригинальная дорожка"],"quality":"vhs","translation":"Оригинальная дорожка","update":"2020-07-29 05:37:05","iframe_src":"//83.svetacdn.in/PfJ50H0ZBPg3/movie/42030"},{"id":42029,"title":"Гордый кораблик","kp_id":"416512","imdb_id":"tt1240930","world_art_id":null,"type":"movie","add":"2020-07-26 19:27:37","orig_title":"Gordyy korablik","year":"1966-01-01","translations":["Оригинальная дорожка"],"quality":"dvdrip","translation":"Оригинальная дорожка","update":"2020-07-29 05:35:56","iframe_src":"//83.svetacdn.in/PfJ50H0ZBPg3/movie/42029"},{"id":42002,"title":"Два справедливых цыпленка","kp_id":"666718","imdb_id":"tt2699260","world_art_id":null,"type":"movie","add":"2020-07-24 21:05:46","orig_title":"Dva spravedlivykh tsyplyonka","year":"1984-01-01","translations":["Оригинальная дорожка"],"quality":"dvdrip","translation":"Оригинальная дорожка","update":"2020-07-29 05:34:43","iframe_src":"//83.svetacdn.in/PfJ50H0ZBPg3/movie/42002"},{"id":42001,"title":"Два соседа","kp_id":"1245315","imdb_id":"tt3257316","world_art_id":null,"type":"movie","add":"2020-07-24 20:57:50","orig_title":"Dva soseda","year":"1980-01-01","translations":["Оригинальная дорожка"],"quality":"vhs","translation":"Оригинальная дорожка","update":"2020-07-29 05:32:13","iframe_src":"//83.svetacdn.in/PfJ50H0ZBPg3/movie/42001"},{"id":42000,"title":"Дитя солнца","kp_id":"818474","imdb_id":null,"world_art_id":null,"type":"movie","add":"2020-07-24 20:53:40","orig_title":"Дитя солнца","year":"1957-01-01","translations":["Оригинальная дорожка"],"quality":"webdl","translation":"Оригинальная дорожка","update":"2020-07-29 05:30:55","iframe_src":"//83.svetacdn.in/PfJ50H0ZBPg3/movie/42000"},{"id":41999,"title":"Дерево гномов","kp_id":"118699","imdb_id":null,"world_art_id":null,"type":"movie","add":"2020-07-24 20:50:42","orig_title":"Дерево гномов","year":"1991-12-23","translations":["Оригинальная дорожка"],"quality":"vhs","translation":"Оригинальная дорожка","update":"2020-07-29 05:29:30","iframe_src":"//83.svetacdn.in/PfJ50H0ZBPg3/movie/41999"},{"id":41998,"title":"День восьмой или первый урок мышления","kp_id":"842063","imdb_id":null,"world_art_id":null,"type":"movie","add":"2020-07-24 20:46:54","orig_title":"День восьмой или первый урок мышления","year":"1971-01-01","translations":["Оригинальная дорожка"],"quality":"sat","translation":"Оригинальная дорожка","update":"2020-07-29 05:27:20","iframe_src":"//83.svetacdn.in/PfJ50H0ZBPg3/movie/41998"},{"id":41997,"title":"День рождения бабушки","kp_id":"256934","imdb_id":"tt2396441","world_art_id":null,"type":"movie","add":"2020-07-24 20:43:21","orig_title":"Den rozhdeniya babushki","year":"1981-01-01","translations":["Оригинальная дорожка"],"quality":"dvdrip","translation":"Оригинальная дорожка","update":"2020-07-29 05:25:31","iframe_src":"//83.svetacdn.in/PfJ50H0ZBPg3/movie/41997"},{"id":41996,"title":"День рождения","kp_id":"648608","imdb_id":null,"world_art_id":null,"type":"movie","add":"2020-07-24 20:40:12","orig_title":"День рождения","year":"1982-01-01","translations":["Оригинальная дорожка"],"quality":"dvdrip","translation":"Оригинальная дорожка","update":"2020-07-29 05:24:05","iframe_src":"//83.svetacdn.in/PfJ50H0ZBPg3/movie/41996"},{"id":41995,"title":"Дадабай и будильник","kp_id":"1263175","imdb_id":null,"world_art_id":null,"type":"movie","add":"2020-07-24 20:34:23","orig_title":"Дадабай и будильник","year":"1985-01-01","translations":["Оригинальная дорожка"],"quality":"sat","translation":"Оригинальная дорожка","update":"2020-07-29 05:23:05","iframe_src":"//83.svetacdn.in/PfJ50H0ZBPg3/movie/41995"},{"id":41994,"title":"Чемпион в лесу","kp_id":"678654","imdb_id":null,"world_art_id":null,"type":"movie","add":"2020-07-24 20:31:32","orig_title":"Чемпион в лесу","year":"1977-01-01","translations":["Оригинальная дорожка"],"quality":"dvdrip","translation":"Оригинальная дорожка","update":"2020-07-29 05:20:34","iframe_src":"//83.svetacdn.in/PfJ50H0ZBPg3/movie/41994"},{"id":41993,"title":"Про Деда, Бабу и Курочку Рябу","kp_id":"258106","imdb_id":"tt6247892","world_art_id":null,"type":"movie","add":"2020-07-24 20:28:50","orig_title":"Pro Deda, Babu i Kurochku Ryabu","year":"1982-01-01","translations":["Оригинальная дорожка"],"quality":"dvdrip","translation":"Оригинальная дорожка","update":"2020-07-29 05:19:40","iframe_src":"//83.svetacdn.in/PfJ50H0ZBPg3/movie/41993"},{"id":41992,"title":"Чемпион","kp_id":"259917","imdb_id":"tt6253352","world_art_id":null,"type":"movie","add":"2020-07-24 20:26:03","orig_title":"Chempion","year":"1948-01-01","translations":["Оригинальная дорожка"],"quality":"dvdrip","translation":"Оригинальная дорожка","update":"2020-07-29 05:18:47","iframe_src":"//83.svetacdn.in/PfJ50H0ZBPg3/movie/41992"},{"id":41989,"title":"Бачо едет к бабушке","kp_id":"270706","imdb_id":"tt0821958","world_art_id":null,"type":"movie","add":"2020-07-24 19:50:23","orig_title":"Bacho midis bebiastan","year":"1979-01-01","translations":["Оригинальная дорожка"],"quality":"tv","translation":"Оригинальная дорожка","update":"2020-07-29 05:18:04","iframe_src":"//83.svetacdn.in/PfJ50H0ZBPg3/movie/41989"},{"id":23007,"title":"Щелкунчик","kp_id":"276371","imdb_id":"tt0928068","world_art_id":null,"type":"movie","add":"2019-03-13 08:57:26","orig_title":"Shchelkunchik","year":"1973-01-01","translations":["Оригинальная дорожка","Оригинальная дорожка"],"quality":"dvdrip","translation":"Оригинальная дорожка","update":"2020-07-29 05:33:36","iframe_src":"//83.svetacdn.in/PfJ50H0ZBPg3/movie/23007"}],"current_page":1043,"first_page_url":"https://videocdn.tv/api/short?limit=100&api_token=RgFQdUIR2dRmwv8iYa5SnFNgnw3vpjKj&cache31043=31043&page=1","from":104201,"last_page":711,"last_page_url":"https://videocdn.tv/api/short?limit=100&api_token=RgFQdUIR2dRmwv8iYa5SnFNgnw3vpjKj&cache31043=31043&page=711","next_page_url":null,"path":"https://videocdn.tv/api/short","per_page":100,"prev_page_url":"https://videocdn.tv/api/short?limit=100&api_token=RgFQdUIR2dRmwv8iYa5SnFNgnw3vpjKj&cache31043=31043&page=1042","to":104220,"total":71035}