{"result":true,"data":[{"id":51011,"title":"И черепахи умеют летать","kp_id":"85960","imdb_id":"tt0424227","world_art_id":null,"type":"movie","add":"2021-06-08 17:35:20","orig_title":"Lakposhtha parvaz mikonand","year":"2004-09-10","translations":["Любительский (одноголосый закадровый)"],"quality":"webdl","translation":"Любительский (одноголосый закадровый)","update":"2021-06-09 06:09:17","iframe_src":"//5091.svetacdn.in/IAF0wWTdNYZm/movie/51011"},{"id":51006,"title":"Не убивай меня","kp_id":"1406588","imdb_id":"tt11116374","world_art_id":null,"type":"movie","add":"2021-06-08 10:12:43","orig_title":"Non mi uccidere","year":"2021-04-21","translations":["Авторский (одноголосый закадровый) (Белов Вадим)"],"quality":"webdl","translation":"Авторский (одноголосый закадровый) (Белов Вадим)","update":"2021-06-08 14:35:40","iframe_src":"//5091.svetacdn.in/IAF0wWTdNYZm/movie/51006"},{"id":50896,"title":"Кабинетный гарнитур","kp_id":"15578","imdb_id":"tt0050307","world_art_id":null,"type":"movie","add":"2021-06-03 04:57:39","orig_title":"Desk Set","year":"1957-05-15","translations":["Original (English)","Профессиональный (двухголосый закадровый) (РенТВ)","Профессиональный (многоголосый закадровый) (Первый канал | ОРТ)","Профессиональный (многоголосый закадровый)"],"quality":"bd","translation":"Original (English)","update":"2021-06-09 06:56:21","iframe_src":"//5091.svetacdn.in/IAF0wWTdNYZm/movie/50896"},{"id":50892,"title":"Дульсинея","kp_id":null,"imdb_id":"tt9517268","world_art_id":null,"type":"movie","add":"2021-06-02 20:16:49","orig_title":"Dulcinea","year":"2018-08-01","translations":["Любительский (многоголосый закадровый) (Синема УС)"],"quality":"webdl","translation":"Любительский (многоголосый закадровый) (Синема УС)","update":"2021-06-08 11:58:42","iframe_src":"//5091.svetacdn.in/IAF0wWTdNYZm/movie/50892"},{"id":50891,"title":"Безупречный забег","kp_id":"1120291","imdb_id":"tt6923892","world_art_id":null,"type":"movie","add":"2021-06-02 20:15:04","orig_title":"The Perfect Race","year":"2019-10-14","translations":["Любительский (многоголосый закадровый) (Синема УС)"],"quality":"webdl","translation":"Любительский (многоголосый закадровый) (Синема УС)","update":"2021-06-08 11:58:26","iframe_src":"//5091.svetacdn.in/IAF0wWTdNYZm/movie/50891"},{"id":50890,"title":"На тридцать лет старше","kp_id":"1169596","imdb_id":"tt8586448","world_art_id":null,"type":"movie","add":"2021-06-02 20:13:42","orig_title":"El doble más quince","year":"2019-03-21","translations":["Любительский (многоголосый закадровый) (Синема УС)"],"quality":"webdl","translation":"Любительский (многоголосый закадровый) (Синема УС)","update":"2021-06-08 11:58:12","iframe_src":"//5091.svetacdn.in/IAF0wWTdNYZm/movie/50890"},{"id":50889,"title":"Проект \"Сэмюэл\"","kp_id":"1011127","imdb_id":"tt6208950","world_art_id":null,"type":"movie","add":"2021-06-02 20:12:29","orig_title":"The Samuel Project","year":"2018-09-28","translations":["Любительский (многоголосый закадровый) (Синема УС)"],"quality":"webdl","translation":"Любительский (многоголосый закадровый) (Синема УС)","update":"2021-06-08 11:57:56","iframe_src":"//5091.svetacdn.in/IAF0wWTdNYZm/movie/50889"},{"id":50887,"title":"Два-Семь","kp_id":"1137012","imdb_id":"tt7886626","world_art_id":null,"type":"movie","add":"2021-06-02 20:09:37","orig_title":"Two Seven","year":"2019-08-18","translations":["Любительский (многоголосый закадровый) (Синема УС)"],"quality":"webdl","translation":"Любительский (многоголосый закадровый) (Синема УС)","update":"2021-06-08 11:57:45","iframe_src":"//5091.svetacdn.in/IAF0wWTdNYZm/movie/50887"},{"id":50885,"title":"Почему нет?","kp_id":"1353473","imdb_id":"tt11449956","world_art_id":null,"type":"movie","add":"2021-06-02 20:07:07","orig_title":"Why Not?","year":"2019-10-10","translations":["Любительский (многоголосый закадровый) (AlphaProject)"],"quality":"webdl","translation":"Любительский (многоголосый закадровый) (AlphaProject)","update":"2021-06-08 11:57:37","iframe_src":"//5091.svetacdn.in/IAF0wWTdNYZm/movie/50885"},{"id":50884,"title":"Король преступного мира","kp_id":"208331","imdb_id":"tt0357693","world_art_id":null,"type":"movie","add":"2021-06-02 20:01:46","orig_title":"Garibon Ka Daata","year":"1989-05-26","translations":["Любительский (одноголосый закадровый) (Гумрал)"],"quality":"webdl","translation":"Любительский (одноголосый закадровый) (Гумрал)","update":"2021-06-08 11:57:18","iframe_src":"//5091.svetacdn.in/IAF0wWTdNYZm/movie/50884"},{"id":50883,"title":"Хиралал и Панналал","kp_id":"222999","imdb_id":"tt0258647","world_art_id":null,"type":"movie","add":"2021-06-02 19:58:52","orig_title":"Heeralal Pannalal","year":"1978-01-01","translations":["Любительский (одноголосый закадровый)"],"quality":"dvdrip","translation":"Любительский (одноголосый закадровый)","update":"2021-06-08 11:57:09","iframe_src":"//5091.svetacdn.in/IAF0wWTdNYZm/movie/50883"},{"id":50841,"title":"Хозяин","kp_id":"41821","imdb_id":"tt0152720","world_art_id":null,"type":"movie","add":"2021-06-01 20:07:05","orig_title":"Swami","year":"1977-01-01","translations":["Любительский (одноголосый закадровый)"],"quality":"webdl","translation":"Любительский (одноголосый закадровый)","update":"2021-06-08 11:56:24","iframe_src":"//5091.svetacdn.in/IAF0wWTdNYZm/movie/50841"},{"id":50840,"title":"Ядовитый","kp_id":"39694","imdb_id":"tt0172622","world_art_id":null,"type":"movie","add":"2021-06-01 20:05:11","orig_title":"Zahreelay","year":"1990-01-26","translations":["Любительский (одноголосый закадровый)"],"quality":"webdl","translation":"Любительский (одноголосый закадровый)","update":"2021-06-08 11:56:09","iframe_src":"//5091.svetacdn.in/IAF0wWTdNYZm/movie/50840"},{"id":50294,"title":"А завтра весь мир","kp_id":"1265405","imdb_id":"tt7716120","world_art_id":null,"type":"movie","add":"2021-05-11 08:13:44","orig_title":"Und morgen die ganze Welt","year":"2020-09-10","translations":["Любительский (многоголосый закадровый) (Синема УС)","Любительский (многоголосый закадровый) (Синема УС)"],"quality":"webdl","translation":"Любительский (многоголосый закадровый) (Синема УС)","update":"2021-06-09 06:12:25","iframe_src":"//5091.svetacdn.in/IAF0wWTdNYZm/movie/50294"},{"id":50186,"title":"Арло, мальчик-аллигатор","kp_id":"1447090","imdb_id":"tt13454122","world_art_id":null,"type":"movie","add":"2021-05-06 18:53:23","orig_title":"Arlo the Alligator Boy","year":"2021-04-16","translations":["Любительский (многоголосый закадровый) (NewStation)","Original (English)"],"quality":"webdl","translation":"Любительский (многоголосый закадровый) (NewStation)","update":"2021-06-09 06:16:58","iframe_src":"//5091.svetacdn.in/IAF0wWTdNYZm/movie/50186"},{"id":8471,"title":"Останьтесь навсегда","kp_id":"880704","imdb_id":null,"world_art_id":null,"type":"serial","add":"2020-08-18 08:52:21","orig_title":"Останьтесь навсегда","year":"2015-05-23","translations":["Оригинальная дорожка"],"seasons_count":1,"episodes_count":2,"episodes":2,"update":"2020-08-18 09:54:43","iframe_src":"//5091.svetacdn.in/IAF0wWTdNYZm/tv-series/8471"},{"id":8470,"title":"Сын","kp_id":"709732","imdb_id":"tt2404029","world_art_id":null,"type":"serial","add":"2020-08-18 08:49:04","orig_title":"A Mother's Son","year":"2012-09-03","translations":["Профессиональный (многоголосый закадровый)"],"seasons_count":1,"episodes_count":2,"episodes":2,"update":"2020-08-18 09:53:37","iframe_src":"//5091.svetacdn.in/IAF0wWTdNYZm/tv-series/8470"},{"id":8468,"title":"Любовь на крыше","kp_id":"1392760","imdb_id":"tt12498170","world_art_id":null,"type":"serial","add":"2020-08-18 08:33:47","orig_title":"Çati Kati Ask","year":"2020-07-09","translations":["Любительский (двухголосый закадровый)"],"seasons_count":1,"episodes_count":6,"episodes":6,"update":"2020-08-18 09:52:53","iframe_src":"//5091.svetacdn.in/IAF0wWTdNYZm/tv-series/8468"},{"id":8464,"title":"Я дождусь...","kp_id":"586680","imdb_id":"tt2058906","world_art_id":null,"type":"serial","add":"2020-08-17 21:02:07","orig_title":"Ya dozhdus","year":"2011-05-21","translations":["Оригинальная дорожка"],"seasons_count":1,"episodes_count":4,"episodes":4,"update":"2020-08-17 21:47:50","iframe_src":"//5091.svetacdn.in/IAF0wWTdNYZm/tv-series/8464"},{"id":8463,"title":"Сквот","kp_id":"581563","imdb_id":null,"world_art_id":null,"type":"serial","add":"2020-08-17 20:59:11","orig_title":"Сквот","year":"2011-03-14","translations":["Оригинальная дорожка"],"seasons_count":1,"episodes_count":8,"episodes":8,"update":"2020-08-17 21:51:34","iframe_src":"//5091.svetacdn.in/IAF0wWTdNYZm/tv-series/8463"},{"id":8460,"title":"Тайна Крикли-холла","kp_id":"681830","imdb_id":"tt2294227","world_art_id":null,"type":"serial","add":"2020-08-17 12:51:19","orig_title":"The Secret of Crickley Hall","year":"2012-11-18","translations":["Профессиональный (многоголосый закадровый) (Agatha Studdio)"],"seasons_count":1,"episodes_count":3,"episodes":3,"update":"2020-08-17 21:53:49","iframe_src":"//5091.svetacdn.in/IAF0wWTdNYZm/tv-series/8460"},{"id":8459,"title":"Прииск 2: Золотая лихорадка","kp_id":"453205","imdb_id":null,"world_art_id":null,"type":"serial","add":"2020-08-17 12:48:20","orig_title":"Прииск 2: Золотая лихорадка","year":"2006-01-01","translations":["Оригинальная дорожка"],"seasons_count":1,"episodes_count":8,"episodes":8,"update":"2020-08-17 21:59:16","iframe_src":"//5091.svetacdn.in/IAF0wWTdNYZm/tv-series/8459"},{"id":8456,"title":"Влюбленные женщины","kp_id":"574434","imdb_id":"tt1738340","world_art_id":null,"type":"serial","add":"2020-08-17 12:13:36","orig_title":"Women in Love","year":"2011-03-24","translations":["Профессиональный (двухголосый закадровый)"],"seasons_count":1,"episodes_count":1,"episodes":1,"update":"2020-08-17 21:54:54","iframe_src":"//5091.svetacdn.in/IAF0wWTdNYZm/tv-series/8456"},{"id":8455,"title":"Алиса в стране чудес","kp_id":"477397","imdb_id":"tt1461312","world_art_id":null,"type":"serial","add":"2020-08-17 12:06:41","orig_title":"Alice","year":"2009-12-06","translations":["Профессиональный (двухголосый закадровый)"],"seasons_count":1,"episodes_count":4,"episodes":4,"update":"2020-08-17 14:06:17","iframe_src":"//5091.svetacdn.in/IAF0wWTdNYZm/tv-series/8455"},{"id":8454,"title":"Помпеи","kp_id":"431063","imdb_id":"tt0929247","world_art_id":null,"type":"serial","add":"2020-08-17 12:02:49","orig_title":"Pompei","year":"2007-03-05","translations":["Профессиональный (многоголосый закадровый)"],"seasons_count":1,"episodes_count":2,"episodes":2,"update":"2020-08-17 13:00:32","iframe_src":"//5091.svetacdn.in/IAF0wWTdNYZm/tv-series/8454"},{"id":8453,"title":"Позвони в мою дверь","kp_id":"422876","imdb_id":"tt2243912","world_art_id":null,"type":"serial","add":"2020-08-17 12:00:24","orig_title":"Pozvoni v moyu dver","year":"2008-03-15","translations":["Оригинальная дорожка"],"seasons_count":1,"episodes_count":2,"episodes":2,"update":"2020-08-17 12:59:35","iframe_src":"//5091.svetacdn.in/IAF0wWTdNYZm/tv-series/8453"},{"id":8445,"title":"Трава зелена","kp_id":"331718","imdb_id":"tt0275738","world_art_id":null,"type":"serial","add":"2020-08-16 15:02:32","orig_title":"Trava zelena","year":"1987-02-26","translations":["Оригинальная дорожка"],"seasons_count":1,"episodes_count":2,"episodes":2,"update":"2020-08-17 09:07:40","iframe_src":"//5091.svetacdn.in/IAF0wWTdNYZm/tv-series/8445"},{"id":8441,"title":"Я тоже цветочек!","kp_id":"676198","imdb_id":"tt3147984","world_art_id":null,"type":"serial","add":"2020-08-15 12:10:38","orig_title":"Me Too, Flower!","year":"2011-11-09","translations":["Любительский (многоголосый закадровый) (GREEN TEA)"],"seasons_count":1,"episodes_count":15,"episodes":15,"update":"2020-08-18 07:46:51","iframe_src":"//5091.svetacdn.in/IAF0wWTdNYZm/tv-series/8441"},{"id":8440,"title":"Гуппи и пузырики","kp_id":"398685","imdb_id":"tt0965404","world_art_id":null,"type":"serial","add":"2020-08-15 10:14:08","orig_title":"Bubble Guppies","year":"2011-01-24","translations":["Полное дублирование"],"seasons_count":4,"episodes_count":74,"episodes":12,"update":"2020-08-18 07:55:38","iframe_src":"//5091.svetacdn.in/IAF0wWTdNYZm/tv-series/8440"},{"id":8425,"title":"Любовь ведьмы","kp_id":"839174","imdb_id":"tt3718908","world_art_id":null,"type":"serial","add":"2020-08-13 09:08:20","orig_title":"Manyeoeui Yeonae","year":"2014-04-14","translations":["Любительский (двухголосый закадровый) (GREEN TEA)"],"seasons_count":1,"episodes_count":16,"episodes":16,"update":"2020-08-16 18:49:50","iframe_src":"//5091.svetacdn.in/IAF0wWTdNYZm/tv-series/8425"},{"id":8424,"title":"Марти — железный мальчик","kp_id":"426276","imdb_id":"tt1001471","world_art_id":null,"type":"serial","add":"2020-08-13 08:06:38","orig_title":"Iron Kid","year":"2007-09-17","translations":["Полное дублирование"],"seasons_count":1,"episodes_count":26,"episodes":26,"update":"2020-08-16 18:31:25","iframe_src":"//5091.svetacdn.in/IAF0wWTdNYZm/tv-series/8424"},{"id":8423,"title":"Новые приключения старой","kp_id":"277546","imdb_id":"tt0462128","world_art_id":null,"type":"serial","add":"2020-08-13 06:10:55","orig_title":"The New Adventures of Old Christine","year":"2006-03-13","translations":["Полное дублирование (Paramount Comedy)"],"seasons_count":5,"episodes_count":88,"episodes":21,"update":"2020-08-16 19:04:19","iframe_src":"//5091.svetacdn.in/IAF0wWTdNYZm/tv-series/8423"},{"id":6768,"title":"Без гражданства","kp_id":"923464","imdb_id":"tt4878488","world_art_id":null,"type":"serial","add":"2020-03-03 12:58:23","orig_title":"Stateless","year":"2020-03-01","translations":["Любительский (многоголосый закадровый) (RG.Paravozik)","Любительский (многоголосый закадровый) (Octopus)","Любительский (многоголосый закадровый) (WestFilm)","Любительский (двухголосый закадровый) (NEON Studio)"],"seasons_count":1,"episodes_count":6,"episodes":6,"update":"2020-08-17 13:30:18","iframe_src":"//5091.svetacdn.in/IAF0wWTdNYZm/tv-series/6768"},{"id":5868,"title":"Солнечный ноябрь","kp_id":"1249226","imdb_id":null,"world_art_id":null,"type":"serial","add":"2019-11-27 18:48:38","orig_title":"Солнечный ноябрь","year":"2019-03-04","translations":["Оригинальная дорожка"],"seasons_count":1,"episodes_count":16,"episodes":16,"update":"2020-08-16 18:33:43","iframe_src":"//5091.svetacdn.in/IAF0wWTdNYZm/tv-series/5868"},{"id":29868,"title":"Гив ми либерти","kp_id":"1137304","imdb_id":"tt4169146","world_art_id":null,"type":"movie","add":"2019-08-08 22:14:38","orig_title":"Give Me Liberty","year":"2019-01-24","translations":["Любительский (многоголосый закадровый) (@MUZOBOZ@)","Любительский (многоголосый закадровый) (WestFilm)","Original (English)"],"quality":"webdl","translation":"Любительский (многоголосый закадровый) (@MUZOBOZ@)","update":"2021-06-08 18:00:14","iframe_src":"//5091.svetacdn.in/IAF0wWTdNYZm/movie/29868"},{"id":3790,"title":"День отбора","kp_id":"1201576","imdb_id":"tt8004628","world_art_id":null,"type":"serial","add":"2018-12-30 12:52:39","orig_title":"Selection Day","year":"2018-12-28","translations":["Профессиональный (многоголосый закадровый) (IdeaFilm)","Профессиональный (многоголосый закадровый) (HDrezka Studio)"],"seasons_count":1,"episodes_count":12,"episodes":12,"update":"2020-08-17 13:51:13","iframe_src":"//5091.svetacdn.in/IAF0wWTdNYZm/tv-series/3790"},{"id":20576,"title":"Дом, который построил Джек","kp_id":"942396","imdb_id":"tt4003440","world_art_id":null,"type":"movie","add":"2018-12-09 00:35:47","orig_title":"The House That Jack Built","year":"2018-05-14","translations":["Любительский (многоголосый закадровый) (@MUZOBOZ@)","Авторский (одноголосый закадровый) (Яроцкий Михаил | Kyberpunk)","Полное дублирование","Original (English)","Профессиональный (многоголосый закадровый) (HDrezka Studio)"],"quality":"webdl","translation":"Любительский (многоголосый закадровый) (@MUZOBOZ@)","update":"2021-06-09 03:55:10","iframe_src":"//5091.svetacdn.in/IAF0wWTdNYZm/movie/20576"},{"id":5172,"title":"Великолепная афера","kp_id":"1952","imdb_id":"tt0325805","world_art_id":null,"type":"movie","add":"2016-09-08 15:18:56","orig_title":"Matchstick Men","year":"2003-09-02","translations":["Полное дублирование","Полное дублирование (Мосфильм)","Original (English)","Профессиональный (многоголосый закадровый)"],"quality":"bd","translation":"Полное дублирование","update":"2021-06-09 07:01:55","iframe_src":"//5091.svetacdn.in/IAF0wWTdNYZm/movie/5172"},{"id":3166,"title":"Сладкая жизнь","kp_id":"7722","imdb_id":"tt0053779","world_art_id":null,"type":"movie","add":"2016-06-15 10:25:59","orig_title":"La Dolce Vita","year":"1960-02-03","translations":["Профессиональный (многоголосый закадровый)","Профессиональный (многоголосый закадровый) (Культура)","Авторский (одноголосый закадровый) (Сербин Юрий)"],"quality":"bd","translation":"Профессиональный (многоголосый закадровый)","update":"2021-06-09 06:15:35","iframe_src":"//5091.svetacdn.in/IAF0wWTdNYZm/movie/3166"},{"id":437,"title":"Уцелевший","kp_id":"462356","imdb_id":"tt1091191","world_art_id":null,"type":"movie","add":"2016-04-01 18:08:39","orig_title":"Lone Survivor","year":"2013-11-12","translations":["Полное дублирование","Original (English)","Авторский (одноголосый закадровый) (Гаврилов Андрей)"],"quality":"bd","translation":"Полное дублирование","update":"2021-06-09 06:18:32","iframe_src":"//5091.svetacdn.in/IAF0wWTdNYZm/movie/437"}],"current_page":212,"first_page_url":"https://videocdn.tv/api/short?limit=100&api_token=6Onb1W1alEUrBcKJZD3GoKBbWyAl2uG2&cache3212=3212&page=1","from":21101,"last_page":665,"last_page_url":"https://videocdn.tv/api/short?limit=100&api_token=6Onb1W1alEUrBcKJZD3GoKBbWyAl2uG2&cache3212=3212&page=665","next_page_url":"https://videocdn.tv/api/short?limit=100&api_token=6Onb1W1alEUrBcKJZD3GoKBbWyAl2uG2&cache3212=3212&page=213","path":"https://videocdn.tv/api/short","per_page":100,"prev_page_url":"https://videocdn.tv/api/short?limit=100&api_token=6Onb1W1alEUrBcKJZD3GoKBbWyAl2uG2&cache3212=3212&page=211","to":21140,"total":66409}