{"result":true,"data":[{"id":52554,"title":"ГУЛАГ","kp_id":"296347","imdb_id":"tt0089240","world_art_id":null,"type":"movie","add":"2021-08-21 20:11:09","orig_title":"Gulag","year":"1985-01-13","translations":["Профессиональный (многоголосый закадровый)"],"quality":"vhs","translation":"Профессиональный (многоголосый закадровый)","update":"2021-08-21 21:55:30","iframe_src":"//7741.svetacdn.in/IAF0wWTdNYZm/movie/52554"},{"id":52552,"title":"Переулок смерти","kp_id":"1335305","imdb_id":"tt11474972","world_art_id":null,"type":"movie","add":"2021-08-21 13:19:26","orig_title":"Death Alley","year":"2021-03-12","translations":["Любительский (многоголосый закадровый) (Синема УС)"],"quality":"webdl","translation":"Любительский (многоголосый закадровый) (Синема УС)","update":"2021-08-21 19:06:08","iframe_src":"//7741.svetacdn.in/IAF0wWTdNYZm/movie/52552"},{"id":52551,"title":"Любители","kp_id":"1404647","imdb_id":"tt12877334","world_art_id":null,"type":"movie","add":"2021-08-21 12:27:36","orig_title":"Amatorzy","year":"2020-12-10","translations":["Любительский (многоголосый закадровый) (AlphaProject)"],"quality":"webdl","translation":"Любительский (многоголосый закадровый) (AlphaProject)","update":"2021-08-21 15:15:50","iframe_src":"//7741.svetacdn.in/IAF0wWTdNYZm/movie/52551"},{"id":52544,"title":"Один день","kp_id":"1008600","imdb_id":"tt6168298","world_art_id":null,"type":"movie","add":"2021-08-21 10:16:32","orig_title":"24h yeu","year":"2016-09-01","translations":["Любительский (двухголосый закадровый) (STEPonee)"],"quality":"webdl","translation":"Любительский (двухголосый закадровый) (STEPonee)","update":"2021-08-21 18:31:20","iframe_src":"//7741.svetacdn.in/IAF0wWTdNYZm/movie/52544"},{"id":52543,"title":"Порт Аделаида","kp_id":"1421701","imdb_id":"tt13074850","world_art_id":null,"type":"movie","add":"2021-08-21 08:17:46","orig_title":"This Is Port Adelaide","year":"2021-02-06","translations":["Любительский (многоголосый закадровый) (AlphaProject)"],"quality":"webdl","translation":"Любительский (многоголосый закадровый) (AlphaProject)","update":"2021-08-21 12:49:29","iframe_src":"//7741.svetacdn.in/IAF0wWTdNYZm/movie/52543"},{"id":52542,"title":"Охотник за ураганами","kp_id":null,"imdb_id":"tt14544904","world_art_id":null,"type":"movie","add":"2021-08-21 08:15:57","orig_title":"Psycho Storm Chaser","year":"2021-08-07","translations":["Любительский (многоголосый закадровый) (Синема УС)"],"quality":"webdl","translation":"Любительский (многоголосый закадровый) (Синема УС)","update":"2021-08-21 12:49:14","iframe_src":"//7741.svetacdn.in/IAF0wWTdNYZm/movie/52542"},{"id":52541,"title":"Смертельный любовный треугольник","kp_id":"4423411","imdb_id":"tt13635528","world_art_id":null,"type":"movie","add":"2021-08-21 08:14:12","orig_title":"A Criminal Affair","year":"2021-08-08","translations":["Любительский (многоголосый закадровый) (Синема УС)"],"quality":"webdl","translation":"Любительский (многоголосый закадровый) (Синема УС)","update":"2021-08-21 12:49:04","iframe_src":"//7741.svetacdn.in/IAF0wWTdNYZm/movie/52541"},{"id":52540,"title":"Я тебя хочу... Я тебя тоже нет","kp_id":"4414986","imdb_id":"tt14121686","world_art_id":null,"type":"movie","add":"2021-08-21 08:05:24","orig_title":"Je te veux moi non plus","year":"2021-03-26","translations":["Любительский (многоголосый закадровый) (Синема УС)"],"quality":"webdl","translation":"Любительский (многоголосый закадровый) (Синема УС)","update":"2021-08-21 12:48:56","iframe_src":"//7741.svetacdn.in/IAF0wWTdNYZm/movie/52540"},{"id":52539,"title":"Убийственный ретрит","kp_id":"4427011","imdb_id":"tt14437428","world_art_id":null,"type":"movie","add":"2021-08-21 08:03:52","orig_title":"Deadly Mom Retreat","year":"2021-08-05","translations":["Любительский (многоголосый закадровый) (Синема УС)"],"quality":"hdtv","translation":"Любительский (многоголосый закадровый) (Синема УС)","update":"2021-08-21 12:48:42","iframe_src":"//7741.svetacdn.in/IAF0wWTdNYZm/movie/52539"},{"id":52537,"title":"Спокойной ночи","kp_id":"1347862","imdb_id":"tt11688770","world_art_id":null,"type":"movie","add":"2021-08-21 08:00:36","orig_title":"Shubh Raatri","year":"2020-11-06","translations":["Любительский (многоголосый закадровый) (Синема УС)"],"quality":"webdl","translation":"Любительский (многоголосый закадровый) (Синема УС)","update":"2021-08-21 12:48:14","iframe_src":"//7741.svetacdn.in/IAF0wWTdNYZm/movie/52537"},{"id":52536,"title":"Каскадёр","kp_id":"1055859","imdb_id":"tt6539830","world_art_id":null,"type":"movie","add":"2021-08-21 07:50:59","orig_title":"Stuntman","year":"2018-09-23","translations":["Любительский (многоголосый закадровый) (Синема УС)"],"quality":"webdl","translation":"Любительский (многоголосый закадровый) (Синема УС)","update":"2021-08-21 12:47:47","iframe_src":"//7741.svetacdn.in/IAF0wWTdNYZm/movie/52536"},{"id":52534,"title":"Венено","kp_id":"961633","imdb_id":"tt5467928","world_art_id":null,"type":"movie","add":"2021-08-21 07:47:19","orig_title":"Veneno","year":"2018-02-22","translations":["Любительский (многоголосый закадровый) (Синема УС)"],"quality":"webdl","translation":"Любительский (многоголосый закадровый) (Синема УС)","update":"2021-08-21 12:47:27","iframe_src":"//7741.svetacdn.in/IAF0wWTdNYZm/movie/52534"},{"id":52503,"title":"Враг общества","kp_id":"1517","imdb_id":"tt0022286","world_art_id":null,"type":"movie","add":"2021-08-19 08:18:48","orig_title":"The Public Enemy","year":"1931-04-23","translations":["Профессиональный (многоголосый закадровый)"],"quality":"bd","translation":"Профессиональный (многоголосый закадровый)","update":"2021-08-21 22:59:44","iframe_src":"//7741.svetacdn.in/IAF0wWTdNYZm/movie/52503"},{"id":52429,"title":"Французское прикосновение: Совершеннолетие","kp_id":"1303275","imdb_id":"tt10887342","world_art_id":null,"type":"movie","add":"2021-08-14 13:37:15","orig_title":"French Touch: Coming of Age","year":"2019-05-23","translations":["Любительский (многоголосый закадровый) (Синема УС)"],"quality":"webdl","translation":"Любительский (многоголосый закадровый) (Синема УС)","update":"2021-08-22 08:38:43","iframe_src":"//7741.svetacdn.in/IAF0wWTdNYZm/movie/52429"},{"id":52314,"title":"Тайна парка развлечений","kp_id":"1328570","imdb_id":"tt11654032","world_art_id":null,"type":"movie","add":"2021-08-09 18:18:06","orig_title":"Xiong Chu Mo: Kuang Ye Da Lu","year":"2020-08-01","translations":["Полное дублирование","Полное дублирование"],"quality":"ts","translation":"Полное дублирование","update":"2021-08-21 13:05:53","iframe_src":"//7741.svetacdn.in/IAF0wWTdNYZm/movie/52314"},{"id":52148,"title":"Клеймо","kp_id":"1231452","imdb_id":"tt8433082","world_art_id":null,"type":"movie","add":"2021-08-02 05:18:37","orig_title":"Nakin","year":"2018-12-28","translations":["Любительский (двухголосый закадровый) (АрхиAsia)","Любительский (многоголосый закадровый) (Синема УС)"],"quality":"webdl","translation":"Любительский (двухголосый закадровый) (АрхиAsia)","update":"2021-08-22 08:38:28","iframe_src":"//7741.svetacdn.in/IAF0wWTdNYZm/movie/52148"},{"id":50871,"title":"Ася","kp_id":"1357762","imdb_id":"tt10032266","world_art_id":null,"type":"movie","add":"2021-06-02 14:04:54","orig_title":"Asia","year":"2020-04-17","translations":["Любительский (многоголосый закадровый) (Синема УС)","Полное дублирование"],"quality":"webdl","translation":"Любительский (многоголосый закадровый) (Синема УС)","update":"2021-08-21 17:37:04","iframe_src":"//7741.svetacdn.in/IAF0wWTdNYZm/movie/50871"},{"id":6625,"title":"Рыцари стальной крови","kp_id":"453019","imdb_id":"tt1264363","world_art_id":null,"type":"serial","add":"2020-02-12 16:51:15","orig_title":"Knights of Bloodsteel","year":"2009-04-19","translations":["Профессиональный (двухголосый закадровый)"],"seasons_count":1,"episodes_count":2,"episodes":2,"update":"2020-02-13 18:09:16","iframe_src":"//7741.svetacdn.in/IAF0wWTdNYZm/tv-series/6625"},{"id":6620,"title":"Смотрящая вдаль","kp_id":"1344490","imdb_id":null,"world_art_id":null,"type":"serial","add":"2020-02-11 16:35:57","orig_title":"Смотрящая вдаль","year":"2019-10-07","translations":["Оригинальная дорожка"],"seasons_count":1,"episodes_count":12,"episodes":12,"update":"2020-02-12 11:33:52","iframe_src":"//7741.svetacdn.in/IAF0wWTdNYZm/tv-series/6620"},{"id":6619,"title":"Всё или ничего: Бразилия","kp_id":null,"imdb_id":"tt11621718","world_art_id":null,"type":"serial","add":"2020-02-11 13:50:39","orig_title":"All or Nothing: Brazil National Team","year":"2020-01-31","translations":["Любительский (многоголосый закадровый) (ColdFilm)"],"seasons_count":1,"episodes_count":5,"episodes":5,"update":"2020-02-11 21:40:45","iframe_src":"//7741.svetacdn.in/IAF0wWTdNYZm/tv-series/6619"},{"id":6618,"title":"Пилот международных авиалиний","kp_id":"592366","imdb_id":"tt2455258","world_art_id":null,"type":"serial","add":"2020-02-11 13:46:00","orig_title":"Pilot mezhdunarodnykh avialiniy","year":"2011-01-01","translations":["Оригинальная дорожка"],"seasons_count":1,"episodes_count":16,"episodes":16,"update":"2020-02-12 14:08:49","iframe_src":"//7741.svetacdn.in/IAF0wWTdNYZm/tv-series/6618"},{"id":6617,"title":"Её легенда","kp_id":"780589","imdb_id":"tt3246416","world_art_id":null,"type":"serial","add":"2020-02-11 11:49:15","orig_title":"Geunyeoui sinhwa","year":"2013-08-05","translations":["Любительский (одноголосый закадровый)"],"seasons_count":1,"episodes_count":20,"episodes":20,"update":"2020-02-12 05:10:47","iframe_src":"//7741.svetacdn.in/IAF0wWTdNYZm/tv-series/6617"},{"id":6616,"title":"Белый Бим Черное ухо","kp_id":"46068","imdb_id":"tt0077222","world_art_id":null,"type":"serial","add":"2020-02-11 11:15:29","orig_title":"Belyy Bim Chernoe ukho","year":"1977-09-15","translations":["Оригинальная дорожка"],"seasons_count":1,"episodes_count":2,"episodes":2,"update":"2020-02-12 04:44:29","iframe_src":"//7741.svetacdn.in/IAF0wWTdNYZm/tv-series/6616"},{"id":6614,"title":"Соло для слона с оркестром","kp_id":"45570","imdb_id":"tt0073728","world_art_id":null,"type":"serial","add":"2020-02-11 07:52:37","orig_title":"Cirkus v cirkuse","year":"1976-04-27","translations":["Оригинальная дорожка"],"seasons_count":1,"episodes_count":2,"episodes":2,"update":"2020-02-11 17:56:10","iframe_src":"//7741.svetacdn.in/IAF0wWTdNYZm/tv-series/6614"},{"id":6613,"title":"Когда мы были молодыми","kp_id":"1229487","imdb_id":"tt9476284","world_art_id":null,"type":"serial","add":"2020-02-11 07:46:52","orig_title":"Ren bu biao han wang shao nian","year":"2018-11-22","translations":["Любительский (двухголосый закадровый) (SoftBox)"],"seasons_count":1,"episodes_count":24,"episodes":24,"update":"2020-02-11 17:54:50","iframe_src":"//7741.svetacdn.in/IAF0wWTdNYZm/tv-series/6613"},{"id":6611,"title":"Счастливый край","kp_id":"1224096","imdb_id":"tt7005636","world_art_id":null,"type":"serial","add":"2020-02-11 06:34:46","orig_title":"Lykkeland","year":"2017-10-28","translations":["Любительский (многоголосый закадровый) (WestFilm)"],"seasons_count":1,"episodes_count":8,"episodes":8,"update":"2020-02-11 08:33:54","iframe_src":"//7741.svetacdn.in/IAF0wWTdNYZm/tv-series/6611"},{"id":6610,"title":"Воспитание и выгул собак и мужчин","kp_id":"1045866","imdb_id":null,"world_art_id":null,"type":"serial","add":"2020-02-11 06:25:35","orig_title":"Vospitaniye i vygul sobak i mujchin","year":"2017-10-06","translations":["Оригинальная дорожка"],"seasons_count":1,"episodes_count":2,"episodes":2,"update":"2020-02-11 12:08:24","iframe_src":"//7741.svetacdn.in/IAF0wWTdNYZm/tv-series/6610"},{"id":6609,"title":"Люби меня","kp_id":"1219797","imdb_id":"tt9325320","world_art_id":null,"type":"serial","add":"2020-02-10 23:04:02","orig_title":"Älska mig","year":"2019-10-11","translations":["Любительский (многоголосый закадровый) (WestFilm)"],"seasons_count":1,"episodes_count":6,"episodes":6,"update":"2020-02-11 04:45:59","iframe_src":"//7741.svetacdn.in/IAF0wWTdNYZm/tv-series/6609"},{"id":6604,"title":"Всё или ничего: Филадельфия Игл","kp_id":null,"imdb_id":"tt11621622","world_art_id":null,"type":"serial","add":"2020-02-10 06:12:42","orig_title":"All or Nothing: Philadelphia Eagles","year":"2020-02-07","translations":["Любительский (многоголосый закадровый) (Octopus)"],"seasons_count":1,"episodes_count":8,"episodes":8,"update":"2020-02-12 11:20:07","iframe_src":"//7741.svetacdn.in/IAF0wWTdNYZm/tv-series/6604"},{"id":6600,"title":"Виртуозы","kp_id":"231993","imdb_id":"tt0379632","world_art_id":null,"type":"serial","add":"2020-02-09 11:32:36","orig_title":"Hustle","year":"2004-02-24","translations":["Профессиональный (многоголосый закадровый) (FOX)","Профессиональный (многоголосый закадровый) (Fox Crime)"],"seasons_count":8,"episodes_count":48,"episodes":6,"update":"2020-02-11 17:39:35","iframe_src":"//7741.svetacdn.in/IAF0wWTdNYZm/tv-series/6600"},{"id":6554,"title":"Непобедимая принцесса Ши-Ра","kp_id":"392529","imdb_id":"tt0126171","world_art_id":null,"type":"serial","add":"2020-02-04 18:21:25","orig_title":"She-Ra: Princess of Power","year":"1985-09-09","translations":["Полное дублирование"],"seasons_count":2,"episodes_count":93,"episodes":28,"update":"2020-02-11 18:29:49","iframe_src":"//7741.svetacdn.in/IAF0wWTdNYZm/tv-series/6554"},{"id":6529,"title":"Гоша","kp_id":"1338341","imdb_id":null,"world_art_id":null,"type":"serial","add":"2020-02-02 05:57:12","orig_title":"Гоша","year":"2020-01-25","translations":["Оригинальная дорожка"],"seasons_count":1,"episodes_count":14,"episodes":14,"update":"2020-02-13 11:24:55","iframe_src":"//7741.svetacdn.in/IAF0wWTdNYZm/tv-series/6529"},{"id":5580,"title":"Лес Нортон","kp_id":"1228438","imdb_id":"tt9548022","world_art_id":null,"type":"serial","add":"2019-10-30 11:49:29","orig_title":"Les Norton","year":"2019-08-04","translations":["Любительский (двухголосый закадровый) (RusFilm)","Любительский (многоголосый закадровый) (WestFilm)"],"seasons_count":1,"episodes_count":10,"episodes":10,"update":"2020-02-12 20:27:56","iframe_src":"//7741.svetacdn.in/IAF0wWTdNYZm/tv-series/5580"},{"id":3065,"title":"Лагерь лагерь","kp_id":"1226457","imdb_id":"tt5797374","world_art_id":null,"type":"serial","add":"2018-08-23 07:13:21","orig_title":"Camp Camp","year":"2016-06-10","translations":["Любительский (двухголосый закадровый) (NewStation)"],"seasons_count":4,"episodes_count":55,"episodes":19,"update":"2020-02-11 19:08:13","iframe_src":"//7741.svetacdn.in/IAF0wWTdNYZm/tv-series/3065"},{"id":2485,"title":"Конь БоДжек","kp_id":"818185","imdb_id":"tt3398228","world_art_id":null,"type":"serial","add":"2018-04-30 12:12:02","orig_title":"BoJack Horseman","year":"2014-08-22","translations":["Профессиональный (многоголосый закадровый) (OMSKBIRD records)","Профессиональный (многоголосый закадровый) (NewStudio)","Полное дублирование (Невафильм | Нева-1)","Профессиональный (многоголосый закадровый) (TVShows)"],"seasons_count":6,"episodes_count":77,"episodes":16,"update":"2020-02-11 07:31:30","iframe_src":"//7741.svetacdn.in/IAF0wWTdNYZm/tv-series/2485"},{"id":2091,"title":"Поцелуй Сократа","kp_id":"648118","imdb_id":null,"world_art_id":null,"type":"serial","add":"2018-02-15 11:44:45","orig_title":"Поцелуй Сократа","year":"2011-09-05","translations":["Оригинальная дорожка"],"seasons_count":1,"episodes_count":12,"episodes":12,"update":"2020-02-11 17:20:41","iframe_src":"//7741.svetacdn.in/IAF0wWTdNYZm/tv-series/2091"},{"id":1692,"title":"Почти человек","kp_id":"733636","imdb_id":"tt2654580","world_art_id":null,"type":"serial","add":"2017-10-30 10:28:47","orig_title":"Almost Human","year":"2013-08-11","translations":["Профессиональный (многоголосый закадровый) (NewStudio)","Профессиональный (многоголосый закадровый) (LostFilm)"],"seasons_count":1,"episodes_count":13,"episodes":13,"update":"2020-02-12 14:16:51","iframe_src":"//7741.svetacdn.in/IAF0wWTdNYZm/tv-series/1692"},{"id":4301,"title":"Иван Царевич и Серый Волк 3","kp_id":"705346","imdb_id":"tt5315110","world_art_id":null,"type":"movie","add":"2016-08-04 13:38:09","orig_title":"Ivan Tsarevich i Seryy Volk 3","year":"2016-06-18","translations":["Оригинальная дорожка","Оригинальная дорожка"],"quality":"bd","translation":"Оригинальная дорожка","update":"2021-08-22 04:31:29","iframe_src":"//7741.svetacdn.in/IAF0wWTdNYZm/movie/4301"},{"id":4300,"title":"Иван Царевич и Серый Волк 2","kp_id":"707217","imdb_id":"tt3338434","world_art_id":null,"type":"movie","add":"2016-08-04 13:32:51","orig_title":"Ivan Tsarevich i Seryy Volk 2","year":"2013-12-26","translations":["Оригинальная дорожка","Оригинальная дорожка"],"quality":"bd","translation":"Оригинальная дорожка","update":"2021-08-22 04:31:53","iframe_src":"//7741.svetacdn.in/IAF0wWTdNYZm/movie/4300"},{"id":145,"title":"Кто я","kp_id":"779602","imdb_id":"tt3042408","world_art_id":null,"type":"movie","add":"2016-02-17 13:31:36","orig_title":"Who Am I - Kein System ist sicher","year":"2014-09-06","translations":["Полное дублирование","Полное дублирование"],"quality":"bd","translation":"Полное дублирование","update":"2021-08-21 19:05:21","iframe_src":"//7741.svetacdn.in/IAF0wWTdNYZm/movie/145"}],"current_page":367,"first_page_url":"https://videocdn.tv/api/short?limit=100&api_token=6Onb1W1alEUrBcKJZD3GoKBbWyAl2uG2&cache3367=3367&page=1","from":36601,"last_page":706,"last_page_url":"https://videocdn.tv/api/short?limit=100&api_token=6Onb1W1alEUrBcKJZD3GoKBbWyAl2uG2&cache3367=3367&page=706","next_page_url":"https://videocdn.tv/api/short?limit=100&api_token=6Onb1W1alEUrBcKJZD3GoKBbWyAl2uG2&cache3367=3367&page=368","path":"https://videocdn.tv/api/short","per_page":100,"prev_page_url":"https://videocdn.tv/api/short?limit=100&api_token=6Onb1W1alEUrBcKJZD3GoKBbWyAl2uG2&cache3367=3367&page=366","to":36640,"total":70558}