{"result":true,"data":[{"id":52801,"title":"Отвёртка","kp_id":"1425074","imdb_id":"tt12392516","world_art_id":null,"type":"movie","add":"2021-09-01 08:33:14","orig_title":"Screwdriver","year":"2021-08-10","translations":["Любительский (многоголосый закадровый) (Синема УС)"],"quality":"webdl","translation":"Любительский (многоголосый закадровый) (Синема УС)","update":"2021-09-01 10:39:32","iframe_src":"//8965.svetacdn.in/IAF0wWTdNYZm/movie/52801"},{"id":52800,"title":"Простой ###нный жест","kp_id":"1313883","imdb_id":"tt11129798","world_art_id":null,"type":"movie","add":"2021-09-01 08:31:07","orig_title":"A Simple F*cking Gesture","year":"2020-08-14","translations":["Любительский (двухголосый закадровый) (datynet & Yuka_chan)"],"quality":"webdl","translation":"Любительский (двухголосый закадровый) (datynet & Yuka_chan)","update":"2021-09-01 09:48:36","iframe_src":"//8965.svetacdn.in/IAF0wWTdNYZm/movie/52800"},{"id":52796,"title":"Свадебный Марш 3: Встречайте невесту","kp_id":"1114889","imdb_id":"tt8125466","world_art_id":null,"type":"movie","add":"2021-09-01 07:30:02","orig_title":"Wedding March: Here Comes the Bride","year":"2018-02-17","translations":["Любительский (многоголосый закадровый) (Синема УС)"],"quality":"hdtv","translation":"Любительский (многоголосый закадровый) (Синема УС)","update":"2021-09-01 11:38:13","iframe_src":"//8965.svetacdn.in/IAF0wWTdNYZm/movie/52796"},{"id":52793,"title":"Заложники","kp_id":"4438974","imdb_id":"tt14497172","world_art_id":null,"type":"movie","add":"2021-08-31 16:32:10","orig_title":"Ostaggi","year":"2021-07-22","translations":["Любительский (многоголосый закадровый) (Синема УС)"],"quality":"webdl","translation":"Любительский (многоголосый закадровый) (Синема УС)","update":"2021-09-01 06:01:38","iframe_src":"//8965.svetacdn.in/IAF0wWTdNYZm/movie/52793"},{"id":52792,"title":"Человек против бигфута","kp_id":"1257446","imdb_id":"tt10116022","world_art_id":null,"type":"movie","add":"2021-08-31 16:31:39","orig_title":"Man vs Bigfoot","year":"2021-08-30","translations":["Любительский (многоголосый закадровый) (@MUZOBOZ@)"],"quality":"webdl","translation":"Любительский (многоголосый закадровый) (@MUZOBOZ@)","update":"2021-09-01 06:01:12","iframe_src":"//8965.svetacdn.in/IAF0wWTdNYZm/movie/52792"},{"id":52791,"title":"Побег из зоны 51","kp_id":"1344809","imdb_id":"tt11646342","world_art_id":null,"type":"movie","add":"2021-08-31 16:31:04","orig_title":"Escape from Area 51","year":"2021-08-30","translations":["Любительский (многоголосый закадровый) (@MUZOBOZ@)"],"quality":"webdl","translation":"Любительский (многоголосый закадровый) (@MUZOBOZ@)","update":"2021-09-01 06:00:07","iframe_src":"//8965.svetacdn.in/IAF0wWTdNYZm/movie/52791"},{"id":52789,"title":"Всадник смерти в Доме вампиров","kp_id":"1337748","imdb_id":"tt11505680","world_art_id":null,"type":"movie","add":"2021-08-31 16:29:42","orig_title":"Death Rider in the House of Vampires","year":"2021-08-27","translations":["Любительский (двухголосый закадровый) (Колобок)"],"quality":"ts","translation":"Любительский (двухголосый закадровый) (Колобок)","update":"2021-09-01 05:59:44","iframe_src":"//8965.svetacdn.in/IAF0wWTdNYZm/movie/52789"},{"id":52787,"title":"Темная лошадка","kp_id":"557850","imdb_id":"tt1690455","world_art_id":null,"type":"movie","add":"2021-08-31 15:30:28","orig_title":"Dark Horse","year":"2011-09-05","translations":["Профессиональный (многоголосый закадровый)"],"quality":"hdrip","translation":"Профессиональный (многоголосый закадровый)","update":"2021-09-01 07:24:00","iframe_src":"//8965.svetacdn.in/IAF0wWTdNYZm/movie/52787"},{"id":52782,"title":"Парень из кальция","kp_id":"5571","imdb_id":"tt0330111","world_art_id":null,"type":"movie","add":"2021-08-31 11:48:51","orig_title":"The Calcium Kid","year":"2004-04-30","translations":["Профессиональный (двухголосый закадровый)"],"quality":"dvdrip","translation":"Профессиональный (двухголосый закадровый)","update":"2021-09-01 07:26:55","iframe_src":"//8965.svetacdn.in/IAF0wWTdNYZm/movie/52782"},{"id":52781,"title":"Педро","kp_id":"424316","imdb_id":"tt1281383","world_art_id":null,"type":"movie","add":"2021-08-31 11:45:49","orig_title":"Pedro","year":"2008-09-07","translations":["Авторский (одноголосый закадровый) (Кузнецов Сергей)"],"quality":"dvdrip","translation":"Авторский (одноголосый закадровый) (Кузнецов Сергей)","update":"2021-09-01 07:25:16","iframe_src":"//8965.svetacdn.in/IAF0wWTdNYZm/movie/52781"},{"id":52779,"title":"Слишком крут для неудачи","kp_id":"568291","imdb_id":"tt1742683","world_art_id":null,"type":"movie","add":"2021-08-31 11:32:39","orig_title":"Too Big to Fail","year":"2011-05-23","translations":["Профессиональный (двухголосый закадровый) (Кубик в Кубе | Kubik³)","[EN] Original (English)"],"quality":"bd","translation":"Профессиональный (двухголосый закадровый) (Кубик в Кубе | Kubik³)","update":"2021-09-01 08:52:58","iframe_src":"//8965.svetacdn.in/IAF0wWTdNYZm/movie/52779"},{"id":52778,"title":"Мнимая любовница","kp_id":"75374","imdb_id":"tt0154473","world_art_id":null,"type":"movie","add":"2021-08-31 11:30:12","orig_title":"La fausse maîtresse","year":"1942-08-14","translations":["Любительский (одноголосый закадровый) (Линда)"],"quality":"bd","translation":"Любительский (одноголосый закадровый) (Линда)","update":"2021-09-01 09:15:23","iframe_src":"//8965.svetacdn.in/IAF0wWTdNYZm/movie/52778"},{"id":52776,"title":"Хлеб, любовь и...","kp_id":"26843","imdb_id":"tt0050817","world_art_id":null,"type":"movie","add":"2021-08-31 05:58:39","orig_title":"Pane, amore e.....","year":"1955-12-22","translations":["Любительский (одноголосый закадровый) (Rollinghead | Синица Сергей)"],"quality":"webdl","translation":"Любительский (одноголосый закадровый) (Rollinghead | Синица Сергей)","update":"2021-09-01 10:17:08","iframe_src":"//8965.svetacdn.in/IAF0wWTdNYZm/movie/52776"},{"id":52775,"title":"Истребители «Зеро»: Великое воздушное сражение","kp_id":"99677","imdb_id":"tt0298612","world_art_id":null,"type":"movie","add":"2021-08-31 05:38:33","orig_title":"Zero faita dai kûsen","year":"1966-07-13","translations":["Любительский (одноголосый закадровый) (den904)"],"quality":"webdl","translation":"Любительский (одноголосый закадровый) (den904)","update":"2021-09-01 10:21:50","iframe_src":"//8965.svetacdn.in/IAF0wWTdNYZm/movie/52775"},{"id":52751,"title":"Отбросы","kp_id":"22374","imdb_id":"tt0079871","world_art_id":null,"type":"movie","add":"2021-08-30 05:37:42","orig_title":"Scum","year":"1979-09-12","translations":["Авторский (одноголосый закадровый) (Кузнецов Сергей)","[EN] Original (English)"],"quality":"bd","translation":"Авторский (одноголосый закадровый) (Кузнецов Сергей)","update":"2021-09-01 10:03:30","iframe_src":"//8965.svetacdn.in/IAF0wWTdNYZm/movie/52751"},{"id":52720,"title":"Бекки Шарп","kp_id":"13815","imdb_id":"tt0026104","world_art_id":null,"type":"movie","add":"2021-08-29 06:43:24","orig_title":"Becky Sharp","year":"1935-06-13","translations":["[EN] Original (English)","Авторский (одноголосый закадровый) (Данилов Владислав | Kenum)"],"quality":"bd","translation":"[EN] Original (English)","update":"2021-09-01 10:20:16","iframe_src":"//8965.svetacdn.in/IAF0wWTdNYZm/movie/52720"},{"id":52684,"title":"Пират","kp_id":"13169","imdb_id":"tt0040694","world_art_id":null,"type":"movie","add":"2021-08-27 06:42:40","orig_title":"The Pirate","year":"1948-05-14","translations":["[EN] Original (English)","Профессиональный (многоголосый закадровый) (Домашний)"],"quality":"bd","translation":"[EN] Original (English)","update":"2021-09-01 09:23:30","iframe_src":"//8965.svetacdn.in/IAF0wWTdNYZm/movie/52684"},{"id":51116,"title":"Инопланетянин в чужом теле","kp_id":"31673","imdb_id":"tt0101502","world_art_id":null,"type":"movie","add":"2021-06-11 21:17:20","orig_title":"The Borrower","year":"1991-05-25","translations":["Профессиональный (двухголосый закадровый)","[EN] Original (English)","Профессиональный (двухголосый закадровый)"],"quality":"dvdrip","translation":"Профессиональный (двухголосый закадровый)","update":"2021-09-01 09:49:32","iframe_src":"//8965.svetacdn.in/IAF0wWTdNYZm/movie/51116"},{"id":40358,"title":"По ком звонит колокол","kp_id":"952","imdb_id":"tt0035896","world_art_id":null,"type":"movie","add":"2020-05-13 14:21:20","orig_title":"For Whom the Bell Tolls","year":"1943-07-14","translations":["Профессиональный (многоголосый закадровый)","[EN] Original (English)","Профессиональный (двухголосый закадровый) (New Dream Media)","Профессиональный (двухголосый закадровый) (НТВ)","Профессиональный (многоголосый закадровый) (Film Prestige)"],"quality":"bd","translation":"Профессиональный (многоголосый закадровый)","update":"2021-09-01 10:07:41","iframe_src":"//8965.svetacdn.in/IAF0wWTdNYZm/movie/40358"},{"id":6384,"title":"Коньки для чемпионки","kp_id":"957487","imdb_id":"tt10090890","world_art_id":null,"type":"serial","add":"2020-01-17 13:35:18","orig_title":"Konki dlya chempionki","year":"2014-12-31","translations":["Оригинальная дорожка"],"seasons_count":1,"episodes_count":4,"episodes":4,"update":"2020-01-17 21:25:58","iframe_src":"//8965.svetacdn.in/IAF0wWTdNYZm/tv-series/6384"},{"id":6365,"title":"Остановка по требованию 2","kp_id":"80255","imdb_id":"tt0364855","world_art_id":null,"type":"serial","add":"2020-01-16 12:50:41","orig_title":"Остановка по требованию 2","year":"2001-01-01","translations":["Оригинальная дорожка"],"seasons_count":1,"episodes_count":10,"episodes":10,"update":"2020-01-17 17:18:55","iframe_src":"//8965.svetacdn.in/IAF0wWTdNYZm/tv-series/6365"},{"id":6364,"title":"Остановка по требованию","kp_id":"80254","imdb_id":"tt0362360","world_art_id":null,"type":"serial","add":"2020-01-16 12:49:40","orig_title":"Ostanovka po trebovaniyu","year":"2000-10-04","translations":["Оригинальная дорожка"],"seasons_count":1,"episodes_count":8,"episodes":8,"update":"2020-01-17 17:18:45","iframe_src":"//8965.svetacdn.in/IAF0wWTdNYZm/tv-series/6364"},{"id":6362,"title":"Счастье по договору","kp_id":"1047606","imdb_id":"tt10337258","world_art_id":null,"type":"serial","add":"2020-01-16 11:04:31","orig_title":"Stastya Po Dogovoru","year":"2017-08-19","translations":["Оригинальная дорожка"],"seasons_count":1,"episodes_count":4,"episodes":4,"update":"2020-01-17 05:09:29","iframe_src":"//8965.svetacdn.in/IAF0wWTdNYZm/tv-series/6362"},{"id":6361,"title":"Русский перевод","kp_id":"417842","imdb_id":"tt4417432","world_art_id":null,"type":"serial","add":"2020-01-16 10:50:49","orig_title":"Russkiy perevod","year":"2007-09-11","translations":["Оригинальная дорожка"],"seasons_count":1,"episodes_count":8,"episodes":8,"update":"2020-01-17 08:47:38","iframe_src":"//8965.svetacdn.in/IAF0wWTdNYZm/tv-series/6361"},{"id":6359,"title":"Звездный крейсер Галактика","kp_id":"229181","imdb_id":"tt0076984","world_art_id":null,"type":"serial","add":"2020-01-16 07:58:50","orig_title":"Battlestar Galactica","year":"1978-09-17","translations":["Профессиональный (многоголосый закадровый) (СТС)"],"seasons_count":1,"episodes_count":21,"episodes":21,"update":"2020-01-17 08:43:03","iframe_src":"//8965.svetacdn.in/IAF0wWTdNYZm/tv-series/6359"},{"id":6358,"title":"Без правил","kp_id":"682387","imdb_id":"tt3268862","world_art_id":null,"type":"serial","add":"2020-01-16 06:48:37","orig_title":"Bez pravil","year":"2011-01-01","translations":["Оригинальная дорожка"],"seasons_count":1,"episodes_count":4,"episodes":4,"update":"2020-01-17 06:19:31","iframe_src":"//8965.svetacdn.in/IAF0wWTdNYZm/tv-series/6358"},{"id":6357,"title":"Не ври","kp_id":"1177728","imdb_id":"tt8712566","world_art_id":null,"type":"serial","add":"2020-01-15 23:29:28","orig_title":"Non mentire","year":"2019-02-17","translations":["Профессиональный (двухголосый закадровый) (ViruseProject)"],"seasons_count":1,"episodes_count":3,"episodes":3,"update":"2020-01-17 07:23:13","iframe_src":"//8965.svetacdn.in/IAF0wWTdNYZm/tv-series/6357"},{"id":6356,"title":"Американские принцессы на миллион долларов","kp_id":"1046705","imdb_id":"tt4577556","world_art_id":null,"type":"serial","add":"2020-01-15 20:50:52","orig_title":"Million Dollar American Princesses","year":"2015-01-04","translations":["Любительский (одноголосый закадровый)"],"seasons_count":2,"episodes_count":7,"episodes":4,"update":"2020-01-16 20:15:50","iframe_src":"//8965.svetacdn.in/IAF0wWTdNYZm/tv-series/6356"},{"id":6354,"title":"Что с Энди?","kp_id":"416184","imdb_id":"tt0289036","world_art_id":null,"type":"serial","add":"2020-01-15 19:32:43","orig_title":"What's with Andy?","year":"2001-09-26","translations":["Полное дублирование"],"seasons_count":3,"episodes_count":78,"episodes":26,"update":"2020-01-17 08:16:47","iframe_src":"//8965.svetacdn.in/IAF0wWTdNYZm/tv-series/6354"},{"id":6353,"title":"Смальков. Двойной шантаж","kp_id":"451096","imdb_id":"tt3818636","world_art_id":null,"type":"serial","add":"2020-01-15 12:51:09","orig_title":"Smalkov. Dvoynoy shantazh","year":"2008-03-25","translations":["Оригинальная дорожка"],"seasons_count":1,"episodes_count":8,"episodes":8,"update":"2020-01-16 07:34:47","iframe_src":"//8965.svetacdn.in/IAF0wWTdNYZm/tv-series/6353"},{"id":6346,"title":"Джекилл","kp_id":"400025","imdb_id":"tt0497298","world_art_id":null,"type":"serial","add":"2020-01-14 15:27:07","orig_title":"Jekyll","year":"2007-06-16","translations":["Профессиональный (двухголосый закадровый) (LostFilm)"],"seasons_count":1,"episodes_count":6,"episodes":6,"update":"2020-01-16 19:33:40","iframe_src":"//8965.svetacdn.in/IAF0wWTdNYZm/tv-series/6346"},{"id":6339,"title":"Пыльная работа","kp_id":"584709","imdb_id":"tt2008305","world_art_id":null,"type":"serial","add":"2020-01-14 06:36:24","orig_title":"Pylnaya rabota","year":"2011-01-01","translations":["Оригинальная дорожка"],"seasons_count":1,"episodes_count":40,"episodes":40,"update":"2020-01-16 19:17:22","iframe_src":"//8965.svetacdn.in/IAF0wWTdNYZm/tv-series/6339"},{"id":6336,"title":"Призраки Замоскворечья","kp_id":"1333568","imdb_id":null,"world_art_id":null,"type":"serial","add":"2020-01-13 17:16:01","orig_title":"Призраки Замоскворечья","year":"2019-09-07","translations":["Оригинальная дорожка"],"seasons_count":1,"episodes_count":4,"episodes":4,"update":"2020-01-16 18:06:48","iframe_src":"//8965.svetacdn.in/IAF0wWTdNYZm/tv-series/6336"},{"id":6329,"title":"Анжелика","kp_id":"471569","imdb_id":"tt4428560","world_art_id":null,"type":"serial","add":"2020-01-13 08:03:25","orig_title":"Anzhelika","year":"2010-04-12","translations":["Оригинальная дорожка"],"seasons_count":1,"episodes_count":12,"episodes":12,"update":"2020-01-16 08:41:29","iframe_src":"//8965.svetacdn.in/IAF0wWTdNYZm/tv-series/6329"},{"id":6328,"title":"Все могут короли","kp_id":"779994","imdb_id":null,"world_art_id":null,"type":"serial","add":"2020-01-13 07:31:25","orig_title":"Все могут короли","year":"2015-01-01","translations":["Оригинальная дорожка"],"seasons_count":1,"episodes_count":10,"episodes":10,"update":"2020-01-16 09:18:11","iframe_src":"//8965.svetacdn.in/IAF0wWTdNYZm/tv-series/6328"},{"id":6306,"title":"Ключи от бездны: Охота на призраков","kp_id":"403382","imdb_id":null,"world_art_id":null,"type":"serial","add":"2020-01-10 12:29:28","orig_title":"Ключи от бездны: Охота на призраков","year":"2004-01-01","translations":["Оригинальная дорожка"],"seasons_count":1,"episodes_count":2,"episodes":2,"update":"2020-01-16 09:17:17","iframe_src":"//8965.svetacdn.in/IAF0wWTdNYZm/tv-series/6306"},{"id":5678,"title":"Сыны свободы","kp_id":"843918","imdb_id":"tt3782838","world_art_id":null,"type":"serial","add":"2019-11-07 08:44:16","orig_title":"Sons of Liberty","year":"2015-01-25","translations":["Профессиональный (многоголосый закадровый) (AlexFilm)"],"seasons_count":1,"episodes_count":3,"episodes":3,"update":"2020-01-16 08:55:27","iframe_src":"//8965.svetacdn.in/IAF0wWTdNYZm/tv-series/5678"},{"id":29613,"title":"Пленки Андерсона","kp_id":"6923","imdb_id":"tt0066767","world_art_id":null,"type":"movie","add":"2019-08-01 20:01:35","orig_title":"The Anderson Tapes","year":"1971-06-17","translations":["Профессиональный (многоголосый закадровый) (НТВ)","[EN] Original (English)","Авторский (одноголосый закадровый) (Визгунов Сергей)","Профессиональный (многоголосый закадровый) (DVD Магия)","Профессиональный (многоголосый закадровый) (НТВ)"],"quality":"bd","translation":"Профессиональный (многоголосый закадровый) (НТВ)","update":"2021-09-01 09:57:53","iframe_src":"//8965.svetacdn.in/IAF0wWTdNYZm/movie/29613"},{"id":3701,"title":"Ангелина","kp_id":"1174323","imdb_id":null,"world_art_id":null,"type":"serial","add":"2018-12-15 05:32:23","orig_title":"Ангелина","year":"2018-12-03","translations":["Оригинальная дорожка"],"seasons_count":1,"episodes_count":16,"episodes":16,"update":"2020-01-17 06:30:34","iframe_src":"//8965.svetacdn.in/IAF0wWTdNYZm/tv-series/3701"},{"id":2303,"title":"Вечный зов","kp_id":"93933","imdb_id":"tt0331802","world_art_id":null,"type":"serial","add":"2018-03-31 10:54:03","orig_title":"Vechnyy zov","year":"1976-06-02","translations":["Оригинальная дорожка"],"seasons_count":2,"episodes_count":19,"episodes":7,"update":"2020-01-17 08:31:00","iframe_src":"//8965.svetacdn.in/IAF0wWTdNYZm/tv-series/2303"}],"current_page":383,"first_page_url":"https://videocdn.tv/api/short?limit=100&api_token=6Onb1W1alEUrBcKJZD3GoKBbWyAl2uG2&cache3383=3383&page=1","from":38201,"last_page":709,"last_page_url":"https://videocdn.tv/api/short?limit=100&api_token=6Onb1W1alEUrBcKJZD3GoKBbWyAl2uG2&cache3383=3383&page=709","next_page_url":"https://videocdn.tv/api/short?limit=100&api_token=6Onb1W1alEUrBcKJZD3GoKBbWyAl2uG2&cache3383=3383&page=384","path":"https://videocdn.tv/api/short","per_page":100,"prev_page_url":"https://videocdn.tv/api/short?limit=100&api_token=6Onb1W1alEUrBcKJZD3GoKBbWyAl2uG2&cache3383=3383&page=382","to":38240,"total":70818}