{"result":true,"data":[{"id":49833,"title":"Никогда не целуй мужчину в рождественском свитере","kp_id":"1434455","imdb_id":"tt13192538","world_art_id":null,"type":"movie","add":"2021-04-22 20:29:23","orig_title":"Never Kiss a Man in a Christmas Sweater","year":"2020-11-07","translations":["Любительский (многоголосый закадровый) (Синема УС)"],"quality":"hdtv","translation":"Любительский (многоголосый закадровый) (Синема УС)","update":"2021-04-22 21:37:46","iframe_src":"//7741.svetacdn.in/IAF0wWTdNYZm/movie/49833"},{"id":49831,"title":"Манос: Восстание Торго","kp_id":"799162","imdb_id":"tt3200412","world_art_id":null,"type":"movie","add":"2021-04-22 20:26:42","orig_title":"Manos: The Rise of Torgo","year":"2018-05-25","translations":["Любительский (многоголосый закадровый) (Синема УС)"],"quality":"webdl","translation":"Любительский (многоголосый закадровый) (Синема УС)","update":"2021-04-22 22:01:41","iframe_src":"//7741.svetacdn.in/IAF0wWTdNYZm/movie/49831"},{"id":49830,"title":"Авель","kp_id":"1291212","imdb_id":"tt13802742","world_art_id":null,"type":"movie","add":"2021-04-22 20:24:53","orig_title":"Moonfishing in Aewol","year":"2019-09-26","translations":["Любительский (многоголосый закадровый) (Синема УС)"],"quality":"webdl","translation":"Любительский (многоголосый закадровый) (Синема УС)","update":"2021-04-22 22:01:57","iframe_src":"//7741.svetacdn.in/IAF0wWTdNYZm/movie/49830"},{"id":49829,"title":"Похищение в Уппсале","kp_id":"1182313","imdb_id":"tt8834524","world_art_id":null,"type":"movie","add":"2021-04-22 20:23:13","orig_title":"Uppsalakidnappningen","year":"2018-08-24","translations":["Любительский (многоголосый закадровый) (Синема УС)"],"quality":"webdl","translation":"Любительский (многоголосый закадровый) (Синема УС)","update":"2021-04-23 06:23:09","iframe_src":"//7741.svetacdn.in/IAF0wWTdNYZm/movie/49829"},{"id":49828,"title":"Минимализм. Сейчас — время меньшего","kp_id":"4293212","imdb_id":"tt13583144","world_art_id":null,"type":"movie","add":"2021-04-22 19:57:20","orig_title":"The Minimalists: Less Is Now","year":"2021-01-01","translations":["[EN] Original (English)"],"quality":"webdl","translation":"[EN] Original (English)","update":"2021-04-22 22:39:35","iframe_src":"//7741.svetacdn.in/IAF0wWTdNYZm/movie/49828"},{"id":49818,"title":"Седьмой континент","kp_id":"71205","imdb_id":"tt0098327","world_art_id":null,"type":"movie","add":"2021-04-22 15:46:28","orig_title":"Der siebente Kontinent","year":"1989-05-19","translations":["Профессиональный (многоголосый закадровый) (Новый диск)"],"quality":"bd","translation":"Профессиональный (многоголосый закадровый) (Новый диск)","update":"2021-04-23 07:27:58","iframe_src":"//7741.svetacdn.in/IAF0wWTdNYZm/movie/49818"},{"id":49815,"title":"Обещаю вести себя хорошо","kp_id":"1200142","imdb_id":"tt9041234","world_art_id":null,"type":"movie","add":"2021-04-22 15:41:14","orig_title":"Je promets d'être sage","year":"2019-08-14","translations":["Любительский (многоголосый закадровый) (Синема УС)"],"quality":"webdl","translation":"Любительский (многоголосый закадровый) (Синема УС)","update":"2021-04-23 03:31:24","iframe_src":"//7741.svetacdn.in/IAF0wWTdNYZm/movie/49815"},{"id":49814,"title":"Последние слова","kp_id":"1389357","imdb_id":"tt12443726","world_art_id":null,"type":"movie","add":"2021-04-22 15:38:55","orig_title":"Last Words","year":"2020-10-21","translations":["Любительский (многоголосый закадровый) (@MUZOBOZ@)"],"quality":"webdl","translation":"Любительский (многоголосый закадровый) (@MUZOBOZ@)","update":"2021-04-23 03:31:00","iframe_src":"//7741.svetacdn.in/IAF0wWTdNYZm/movie/49814"},{"id":49813,"title":"Удовольствия плоти","kp_id":"160349","imdb_id":"tt0059159","world_art_id":null,"type":"movie","add":"2021-04-22 15:20:47","orig_title":"Etsuraku","year":"1965-08-29","translations":["Любительский (одноголосый закадровый) (yamete)"],"quality":"webdl","translation":"Любительский (одноголосый закадровый) (yamete)","update":"2021-04-23 07:29:13","iframe_src":"//7741.svetacdn.in/IAF0wWTdNYZm/movie/49813"},{"id":49804,"title":"Раскрывшиеся","kp_id":"1127633","imdb_id":"tt8291312","world_art_id":null,"type":"movie","add":"2021-04-21 21:07:38","orig_title":"Dévoilées","year":"2018-09-15","translations":["Любительский (многоголосый закадровый) (Синема УС)"],"quality":"webdl","translation":"Любительский (многоголосый закадровый) (Синема УС)","update":"2021-04-22 21:21:17","iframe_src":"//7741.svetacdn.in/IAF0wWTdNYZm/movie/49804"},{"id":49802,"title":"Ной","kp_id":null,"imdb_id":"tt10175340","world_art_id":null,"type":"movie","add":"2021-04-21 21:01:46","orig_title":"Noah","year":"2019-04-09","translations":["Любительский (многоголосый закадровый) (AlphaProject)"],"quality":"webdl","translation":"Любительский (многоголосый закадровый) (AlphaProject)","update":"2021-04-22 21:21:34","iframe_src":"//7741.svetacdn.in/IAF0wWTdNYZm/movie/49802"},{"id":49801,"title":"Случайность","kp_id":"786289","imdb_id":"tt2803030","world_art_id":null,"type":"movie","add":"2021-04-21 20:55:12","orig_title":"Artless","year":"2019-05-01","translations":["Любительский (многоголосый закадровый) (Синема УС)"],"quality":"webdl","translation":"Любительский (многоголосый закадровый) (Синема УС)","update":"2021-04-22 21:22:00","iframe_src":"//7741.svetacdn.in/IAF0wWTdNYZm/movie/49801"},{"id":49799,"title":"Обмен телами","kp_id":"1140511","imdb_id":"tt8194186","world_art_id":null,"type":"movie","add":"2021-04-21 20:50:40","orig_title":"Body Swap","year":"2019-08-17","translations":["Любительский (многоголосый закадровый) (AlphaProject)"],"quality":"webdl","translation":"Любительский (многоголосый закадровый) (AlphaProject)","update":"2021-04-22 21:22:24","iframe_src":"//7741.svetacdn.in/IAF0wWTdNYZm/movie/49799"},{"id":49797,"title":"Традиция","kp_id":"1109892","imdb_id":"tt7686162","world_art_id":null,"type":"movie","add":"2021-04-21 20:46:37","orig_title":"Tradition","year":"2019-08-01","translations":["Любительский (многоголосый закадровый) (Синема УС)"],"quality":"webdl","translation":"Любительский (многоголосый закадровый) (Синема УС)","update":"2021-04-22 21:22:46","iframe_src":"//7741.svetacdn.in/IAF0wWTdNYZm/movie/49797"},{"id":49568,"title":"Дорогой жилец","kp_id":"1383428","imdb_id":"tt12359272","world_art_id":null,"type":"movie","add":"2021-04-13 05:11:53","orig_title":"Qin ai de fang ke","year":"2020-07-04","translations":["Любительский (многоголосый закадровый) (Amazing Dubbing)","Любительский (многоголосый закадровый) (Синема УС)"],"quality":"webdl","translation":"Любительский (многоголосый закадровый) (Amazing Dubbing)","update":"2021-04-22 21:20:56","iframe_src":"//7741.svetacdn.in/IAF0wWTdNYZm/movie/49568"},{"id":34732,"title":"Друг семьи","kp_id":"255057","imdb_id":"tt0772105","world_art_id":null,"type":"movie","add":"2020-01-04 13:34:14","orig_title":"L'amico di famiglia","year":"2006-11-10","translations":["Профессиональный (многоголосый закадровый) (Новый диск)"],"quality":"webdl","translation":"Профессиональный (многоголосый закадровый) (Новый диск)","update":"2021-04-23 07:33:41","iframe_src":"//7741.svetacdn.in/IAF0wWTdNYZm/movie/34732"},{"id":1024,"title":"Бен Гур","kp_id":"468033","imdb_id":"tt2009776","world_art_id":null,"type":"serial","add":"2017-02-17 05:52:00","orig_title":"Ben Hur","year":"2010-04-04","translations":["Профессиональный (многоголосый закадровый)","Профессиональный (многоголосый закадровый) (TVShows)"],"seasons_count":1,"episodes_count":2,"episodes":2,"update":"2017-02-17 09:13:13","iframe_src":"//7741.svetacdn.in/IAF0wWTdNYZm/tv-series/1024"},{"id":1023,"title":"Он","kp_id":"965838","imdb_id":"tt5214372","world_art_id":null,"type":"serial","add":"2017-02-16 14:32:11","orig_title":"Him","year":"2016-10-19","translations":["Профессиональный (многоголосый закадровый) (BaibaKo)"],"seasons_count":1,"episodes_count":3,"episodes":3,"update":"2017-02-17 11:21:47","iframe_src":"//7741.svetacdn.in/IAF0wWTdNYZm/tv-series/1023"},{"id":1021,"title":"Уравнение любви","kp_id":"692464","imdb_id":"tt4083498","world_art_id":null,"type":"serial","add":"2017-02-16 14:23:35","orig_title":"Uravnenie lyubvi","year":"2013-04-11","translations":["Оригинальная дорожка"],"seasons_count":1,"episodes_count":8,"episodes":8,"update":"2017-02-17 11:38:37","iframe_src":"//7741.svetacdn.in/IAF0wWTdNYZm/tv-series/1021"},{"id":1016,"title":"Моя граница","kp_id":"257797","imdb_id":"tt0370178","world_art_id":null,"type":"serial","add":"2017-02-16 07:12:52","orig_title":"Moya granitsa","year":"2002-01-01","translations":["Оригинальная дорожка"],"seasons_count":1,"episodes_count":4,"episodes":4,"update":"2017-02-16 12:25:19","iframe_src":"//7741.svetacdn.in/IAF0wWTdNYZm/tv-series/1016"},{"id":1015,"title":"Летучий отряд","kp_id":"455362","imdb_id":"tt4462758","world_art_id":null,"type":"serial","add":"2017-02-16 06:35:49","orig_title":"Letuchiy otryad","year":"2009-07-13","translations":["Оригинальная дорожка"],"seasons_count":1,"episodes_count":8,"episodes":8,"update":"2017-02-16 11:45:41","iframe_src":"//7741.svetacdn.in/IAF0wWTdNYZm/tv-series/1015"},{"id":1013,"title":"Бандитский Петербург 9: Голландский Пассаж","kp_id":"420337","imdb_id":"tt4810954","world_art_id":null,"type":"serial","add":"2017-02-15 15:29:23","orig_title":"Banditskiy Peterburg: Gollandskiy Passazh","year":"2006-12-05","translations":["Оригинальная дорожка"],"seasons_count":1,"episodes_count":12,"episodes":12,"update":"2017-02-16 09:57:43","iframe_src":"//7741.svetacdn.in/IAF0wWTdNYZm/tv-series/1013"},{"id":1012,"title":"Бандитский Петербург 8: Терминал","kp_id":"426309","imdb_id":"tt4791006","world_art_id":null,"type":"serial","add":"2017-02-15 15:25:48","orig_title":"Banditskiy Peterburg: Terminal","year":"2006-09-01","translations":["Оригинальная дорожка"],"seasons_count":1,"episodes_count":12,"episodes":12,"update":"2017-02-16 09:41:23","iframe_src":"//7741.svetacdn.in/IAF0wWTdNYZm/tv-series/1012"},{"id":1011,"title":"Бандитский Петербург 7: Передел","kp_id":"426306","imdb_id":"tt5031866","world_art_id":null,"type":"serial","add":"2017-02-15 15:22:12","orig_title":"Banditskiy Peterburg: Peredel","year":"2005-11-14","translations":["Оригинальная дорожка"],"seasons_count":1,"episodes_count":12,"episodes":12,"update":"2017-02-16 08:47:11","iframe_src":"//7741.svetacdn.in/IAF0wWTdNYZm/tv-series/1011"},{"id":1010,"title":"Бандитский Петербург 6: Журналист","kp_id":"77386","imdb_id":"tt0368591","world_art_id":null,"type":"serial","add":"2017-02-15 15:18:29","orig_title":"Banditskiy Peterburg: Zhurnalist","year":"2003-06-04","translations":["Оригинальная дорожка"],"seasons_count":1,"episodes_count":7,"episodes":7,"update":"2017-02-16 08:28:24","iframe_src":"//7741.svetacdn.in/IAF0wWTdNYZm/tv-series/1010"},{"id":1008,"title":"Бандитский Петербург 5: Опер","kp_id":"77387","imdb_id":"tt0368590","world_art_id":null,"type":"serial","add":"2017-02-14 16:53:54","orig_title":"Banditskiy Peterburg: Oper","year":"2003-05-28","translations":["Оригинальная дорожка"],"seasons_count":1,"episodes_count":5,"episodes":5,"update":"2017-02-15 16:37:17","iframe_src":"//7741.svetacdn.in/IAF0wWTdNYZm/tv-series/1008"},{"id":1007,"title":"Бандитский Петербург 4: Арестант","kp_id":"77385","imdb_id":"tt0368588","world_art_id":null,"type":"serial","add":"2017-02-14 16:49:03","orig_title":"Banditskiy Peterburg: Arestant","year":"2003-03-31","translations":["Оригинальная дорожка"],"seasons_count":1,"episodes_count":7,"episodes":7,"update":"2017-02-15 16:14:48","iframe_src":"//7741.svetacdn.in/IAF0wWTdNYZm/tv-series/1007"},{"id":1006,"title":"Руслан и Людмила","kp_id":"42147","imdb_id":"tt0174174","world_art_id":null,"type":"serial","add":"2017-02-14 08:32:24","orig_title":"Ruslan i Lyudmila","year":"1972-10-12","translations":["Оригинальная дорожка"],"seasons_count":1,"episodes_count":2,"episodes":2,"update":"2017-02-14 14:54:56","iframe_src":"//7741.svetacdn.in/IAF0wWTdNYZm/tv-series/1006"},{"id":1005,"title":"Назад в СССР","kp_id":"570147","imdb_id":"tt2725710","world_art_id":null,"type":"serial","add":"2017-02-14 08:32:22","orig_title":"Nazad v SSSR","year":"2010-12-11","translations":["Оригинальная дорожка"],"seasons_count":1,"episodes_count":4,"episodes":4,"update":"2017-02-15 05:50:01","iframe_src":"//7741.svetacdn.in/IAF0wWTdNYZm/tv-series/1005"},{"id":1004,"title":"Наружное наблюдение","kp_id":"567065","imdb_id":"tt4744392","world_art_id":null,"type":"serial","add":"2017-02-14 08:13:06","orig_title":"Naruzhnoe nabludenie","year":"2012-10-22","translations":["Оригинальная дорожка"],"seasons_count":1,"episodes_count":24,"episodes":24,"update":"2017-02-14 14:50:55","iframe_src":"//7741.svetacdn.in/IAF0wWTdNYZm/tv-series/1004"},{"id":1003,"title":"Взрывная волна","kp_id":"1009351","imdb_id":null,"world_art_id":null,"type":"serial","add":"2017-02-14 05:52:30","orig_title":"Взрывная волна","year":"2017-02-12","translations":["Оригинальная дорожка"],"seasons_count":1,"episodes_count":2,"episodes":2,"update":"2017-02-14 08:40:42","iframe_src":"//7741.svetacdn.in/IAF0wWTdNYZm/tv-series/1003"},{"id":998,"title":"На одном дыхании","kp_id":"839395","imdb_id":"tt4389476","world_art_id":null,"type":"serial","add":"2017-02-13 05:31:54","orig_title":"Na odnom dykhanii","year":"2014-04-26","translations":["Оригинальная дорожка"],"seasons_count":1,"episodes_count":4,"episodes":4,"update":"2017-02-13 13:26:23","iframe_src":"//7741.svetacdn.in/IAF0wWTdNYZm/tv-series/998"},{"id":997,"title":"Взлом","kp_id":"1009373","imdb_id":null,"world_art_id":null,"type":"serial","add":"2017-02-12 09:09:22","orig_title":"Взлом","year":"2017-02-04","translations":["Оригинальная дорожка"],"seasons_count":1,"episodes_count":2,"episodes":2,"update":"2017-02-13 05:27:02","iframe_src":"//7741.svetacdn.in/IAF0wWTdNYZm/tv-series/997"},{"id":994,"title":"Сокровища мертвых","kp_id":"412414","imdb_id":"tt1456779","world_art_id":null,"type":"serial","add":"2017-02-12 06:59:46","orig_title":"Sokrovishcha myortvykh","year":"2003-09-09","translations":["Оригинальная дорожка"],"seasons_count":1,"episodes_count":6,"episodes":6,"update":"2017-02-13 10:59:10","iframe_src":"//7741.svetacdn.in/IAF0wWTdNYZm/tv-series/994"},{"id":6823,"title":"Громовое сердце","kp_id":"7486","imdb_id":"tt0105585","world_art_id":null,"type":"movie","add":"2016-10-30 08:22:38","orig_title":"Thunderheart","year":"1992-04-03","translations":["Профессиональный (многоголосый закадровый)","Авторский (одноголосый закадровый) (Живов Юрий)","[EN] Original (English)","Профессиональный (многоголосый закадровый)","Профессиональный (многоголосый закадровый) (СТС)","Профессиональный (многоголосый закадровый) (РенТВ)"],"quality":"webdl","translation":"Профессиональный (многоголосый закадровый)","update":"2021-04-23 08:24:08","iframe_src":"//7741.svetacdn.in/IAF0wWTdNYZm/movie/6823"},{"id":541,"title":"Сын Зорна","kp_id":"917585","imdb_id":"tt4798814","world_art_id":null,"type":"serial","add":"2016-10-19 11:32:23","orig_title":"Son of Zorn","year":"2016-09-11","translations":["Профессиональный (многоголосый закадровый) (NewStudio)"],"seasons_count":1,"episodes_count":11,"episodes":11,"update":"2017-02-14 15:08:18","iframe_src":"//7741.svetacdn.in/IAF0wWTdNYZm/tv-series/541"},{"id":113,"title":"Гудини","kp_id":"818775","imdb_id":"tt3132738","world_art_id":null,"type":"serial","add":"2016-05-31 06:16:32","orig_title":"Houdini","year":"2014-09-01","translations":["Профессиональный (многоголосый закадровый) (AlexFilm)","Профессиональный (многоголосый закадровый) (LostFilm)"],"seasons_count":1,"episodes_count":2,"episodes":2,"update":"2017-02-13 11:16:56","iframe_src":"//7741.svetacdn.in/IAF0wWTdNYZm/tv-series/113"},{"id":2524,"title":"Моя мачеха – инопланетянка","kp_id":"6199","imdb_id":"tt0095687","world_art_id":null,"type":"movie","add":"2016-05-24 07:25:02","orig_title":"My Stepmother Is an Alien","year":"1988-12-09","translations":["Профессиональный (многоголосый закадровый)","Авторский (одноголосый закадровый) (Горчаков Василий)","Авторский (одноголосый закадровый) (Володарский Леонид)","Любительский (одноголосый закадровый)","Любительский (одноголосый закадровый) (Петербуржец | Козлов Владимир)","Профессиональный (многоголосый закадровый) (iTunes)"],"quality":"webdl","translation":"Профессиональный (многоголосый закадровый)","update":"2021-04-23 07:53:26","iframe_src":"//7741.svetacdn.in/IAF0wWTdNYZm/movie/2524"},{"id":874,"title":"Дом у озера","kp_id":"102130","imdb_id":"tt0410297","world_art_id":null,"type":"movie","add":"2016-04-08 20:27:56","orig_title":"The Lake House","year":"2006-06-16","translations":["Полное дублирование","Авторский (одноголосый закадровый) (Иванов Михаил)","Авторский (одноголосый закадровый) (Королёв Владимир)","Полное дублирование","[EN] Original (English)","Профессиональный (двухголосый закадровый) (Superbit)"],"quality":"bd","translation":"Полное дублирование","update":"2021-04-23 08:16:13","iframe_src":"//7741.svetacdn.in/IAF0wWTdNYZm/movie/874"},{"id":701,"title":"У холмов есть глаза 2","kp_id":"257413","imdb_id":"tt0800069","world_art_id":null,"type":"movie","add":"2016-04-06 20:21:22","orig_title":"The Hills Have Eyes II","year":"2007-03-16","translations":["Полное дублирование","Авторский (одноголосый закадровый) (Есарев Дмитрий)","Авторский (одноголосый закадровый) (Яроцкий Михаил | Kyberpunk)","Полное дублирование (Невафильм | Нева-1)","[EN] Original (English)","Профессиональный (двухголосый закадровый) (Гланц + Королёва)"],"quality":"bd","translation":"Полное дублирование","update":"2021-04-23 08:06:04","iframe_src":"//7741.svetacdn.in/IAF0wWTdNYZm/movie/701"}],"current_page":579,"first_page_url":"https://videocdn.tv/api/short?limit=100&api_token=6Onb1W1alEUrBcKJZD3GoKBbWyAl2uG2&cache3579=3579&page=1","from":57801,"last_page":707,"last_page_url":"https://videocdn.tv/api/short?limit=100&api_token=6Onb1W1alEUrBcKJZD3GoKBbWyAl2uG2&cache3579=3579&page=707","next_page_url":"https://videocdn.tv/api/short?limit=100&api_token=6Onb1W1alEUrBcKJZD3GoKBbWyAl2uG2&cache3579=3579&page=580","path":"https://videocdn.tv/api/short","per_page":100,"prev_page_url":"https://videocdn.tv/api/short?limit=100&api_token=6Onb1W1alEUrBcKJZD3GoKBbWyAl2uG2&cache3579=3579&page=578","to":57840,"total":70662}