{"result":true,"data":[{"id":24215,"title":"Василиса Прекрасная","kp_id":"45676","imdb_id":"tt0167474","world_art_id":null,"type":"movie","add":"2019-04-09 22:20:42","orig_title":"Vasilisa prekrasnaya","year":"1940-05-13","translations":["Оригинальная дорожка"],"quality":"dvdrip","translation":"Оригинальная дорожка","update":"2019-04-10 07:46:03","iframe_src":"//8944266443434.svetacdn.in/PfJ50H0ZBPg3/movie/24215"},{"id":24214,"title":"Шпион, который упал на Землю","kp_id":"1134440","imdb_id":"tt7706168","world_art_id":null,"type":"movie","add":"2019-04-09 22:15:11","orig_title":"The Spy Who Fell to Earth","year":"2019-04-01","translations":["Любительский (многоголосый закадровый) (Синема УС)"],"quality":"webdl","translation":"Любительский (многоголосый закадровый) (Синема УС)","update":"2019-04-10 07:52:16","iframe_src":"//8944266443434.svetacdn.in/PfJ50H0ZBPg3/movie/24214"},{"id":24212,"title":"Улыбки грустных мужчин","kp_id":"1164933","imdb_id":"tt8526824","world_art_id":null,"type":"movie","add":"2019-04-09 22:13:25","orig_title":"Úsmevy smutných muzu","year":"2018-07-12","translations":["Любительский (многоголосый закадровый) (Синема УС)"],"quality":"webdl","translation":"Любительский (многоголосый закадровый) (Синема УС)","update":"2019-04-10 07:56:45","iframe_src":"//8944266443434.svetacdn.in/PfJ50H0ZBPg3/movie/24212"},{"id":24210,"title":"На волне","kp_id":"1228484","imdb_id":null,"world_art_id":null,"type":"movie","add":"2019-04-09 22:05:00","orig_title":"На волне","year":"2019-02-07","translations":["Оригинальная дорожка"],"quality":"webdl","translation":"Оригинальная дорожка","update":"2019-04-10 07:58:00","iframe_src":"//8944266443434.svetacdn.in/PfJ50H0ZBPg3/movie/24210"},{"id":24163,"title":"Переполох в летнем лагере","kp_id":"507954","imdb_id":"tt1637976","world_art_id":null,"type":"movie","add":"2019-04-09 06:50:22","orig_title":"#1 Cheerleader Camp","year":"2010-07-27","translations":["Любительский (одноголосый закадровый)"],"quality":"dvdrip","translation":"Любительский (одноголосый закадровый)","update":"2019-04-09 08:57:55","iframe_src":"//8944266443434.svetacdn.in/PfJ50H0ZBPg3/movie/24163"},{"id":24162,"title":"Рождественское печенье","kp_id":"851141","imdb_id":"tt4012254","world_art_id":null,"type":"movie","add":"2019-04-09 06:47:23","orig_title":"A Cookie Cutter Christmas","year":"2014-11-09","translations":["Профессиональный (многоголосый закадровый)"],"quality":"dvb","translation":"Профессиональный (многоголосый закадровый)","update":"2019-04-09 08:05:44","iframe_src":"//8944266443434.svetacdn.in/PfJ50H0ZBPg3/movie/24162"},{"id":24160,"title":"Годичный отпуск Энни Клаус","kp_id":"590070","imdb_id":"tt1910501","world_art_id":null,"type":"movie","add":"2019-04-09 06:33:08","orig_title":"Annie Claus Is Coming to Town","year":"2011-12-10","translations":["Профессиональный (многоголосый закадровый)"],"quality":"hdtv","translation":"Профессиональный (многоголосый закадровый)","update":"2019-04-09 08:00:05","iframe_src":"//8944266443434.svetacdn.in/PfJ50H0ZBPg3/movie/24160"},{"id":24072,"title":"Первая любовь","kp_id":"430506","imdb_id":"tt1351212","world_art_id":null,"type":"movie","add":"2019-04-07 22:12:40","orig_title":"Pervaya lyubov: Vot takaya muzyka!","year":"2009-03-05","translations":["Оригинальная дорожка"],"quality":"dvdrip","translation":"Оригинальная дорожка","update":"2019-04-10 08:13:46","iframe_src":"//8944266443434.svetacdn.in/PfJ50H0ZBPg3/movie/24072"},{"id":24070,"title":"Генерал","kp_id":"41181","imdb_id":"tt0104327","world_art_id":null,"type":"movie","add":"2019-04-07 22:05:25","orig_title":"General","year":"1992-01-01","translations":["Оригинальная дорожка"],"quality":"dvdrip","translation":"Оригинальная дорожка","update":"2019-04-10 08:13:00","iframe_src":"//8944266443434.svetacdn.in/PfJ50H0ZBPg3/movie/24070"},{"id":24069,"title":"Пакет","kp_id":"331748","imdb_id":"tt0131519","world_art_id":null,"type":"movie","add":"2019-04-07 22:04:18","orig_title":"Paket","year":"1965-11-07","translations":["Оригинальная дорожка"],"quality":"dvdrip","translation":"Оригинальная дорожка","update":"2019-04-10 08:12:22","iframe_src":"//8944266443434.svetacdn.in/PfJ50H0ZBPg3/movie/24069"},{"id":24068,"title":"Отец","kp_id":"278155","imdb_id":"tt1093383","world_art_id":null,"type":"movie","add":"2019-04-07 22:02:17","orig_title":"Otets","year":"2007-10-14","translations":["Оригинальная дорожка"],"quality":"dvdrip","translation":"Оригинальная дорожка","update":"2019-04-10 08:11:24","iframe_src":"//8944266443434.svetacdn.in/PfJ50H0ZBPg3/movie/24068"},{"id":24067,"title":"Олимпиус Инферно","kp_id":"451190","imdb_id":"tt1639405","world_art_id":null,"type":"movie","add":"2019-04-07 21:59:01","orig_title":"Olimpius Inferno","year":"2009-03-26","translations":["Оригинальная дорожка"],"quality":"dvdrip","translation":"Оригинальная дорожка","update":"2019-04-10 08:10:38","iframe_src":"//8944266443434.svetacdn.in/PfJ50H0ZBPg3/movie/24067"},{"id":24066,"title":"Обратная сторона","kp_id":"455376","imdb_id":"tt1576701","world_art_id":null,"type":"movie","add":"2019-04-07 21:56:58","orig_title":"Obratnaya storona","year":"2009-05-28","translations":["Оригинальная дорожка"],"quality":"dvdrip","translation":"Оригинальная дорожка","update":"2019-04-10 08:09:38","iframe_src":"//8944266443434.svetacdn.in/PfJ50H0ZBPg3/movie/24066"},{"id":24065,"title":"Обнаженная в шляпе","kp_id":"42698","imdb_id":"tt0151791","world_art_id":null,"type":"movie","add":"2019-04-07 21:54:29","orig_title":"Obnazhyonnaya v shlyape","year":"1991-04-01","translations":["Оригинальная дорожка"],"quality":"dvdrip","translation":"Оригинальная дорожка","update":"2019-04-10 08:08:56","iframe_src":"//8944266443434.svetacdn.in/PfJ50H0ZBPg3/movie/24065"},{"id":24064,"title":"Новые сказки Шахерезады","kp_id":"46482","imdb_id":"tt0093653","world_art_id":null,"type":"movie","add":"2019-04-07 21:51:42","orig_title":"Novye skazki Shakherezady","year":"1987-08-10","translations":["Оригинальная дорожка"],"quality":"dvdrip","translation":"Оригинальная дорожка","update":"2019-04-10 08:07:48","iframe_src":"//8944266443434.svetacdn.in/PfJ50H0ZBPg3/movie/24064"},{"id":24063,"title":"Не думай про белых обезьян","kp_id":"417841","imdb_id":"tt1340043","world_art_id":null,"type":"movie","add":"2019-04-07 21:49:20","orig_title":"Ne dumay pro belykh obezyan","year":"2009-01-22","translations":["Оригинальная дорожка"],"quality":"dvdrip","translation":"Оригинальная дорожка","update":"2019-04-10 08:07:02","iframe_src":"//8944266443434.svetacdn.in/PfJ50H0ZBPg3/movie/24063"},{"id":24062,"title":"Настройщик","kp_id":"81319","imdb_id":"tt0383020","world_art_id":null,"type":"movie","add":"2019-04-07 21:47:31","orig_title":"Nastroyshchik","year":"2004-09-06","translations":["Оригинальная дорожка"],"quality":"dvdrip","translation":"Оригинальная дорожка","update":"2019-04-09 07:43:21","iframe_src":"//8944266443434.svetacdn.in/PfJ50H0ZBPg3/movie/24062"},{"id":24061,"title":"Господин оформитель","kp_id":"44587","imdb_id":"tt0157713","world_art_id":null,"type":"movie","add":"2019-04-07 21:46:31","orig_title":"Gospodin oformitel","year":"1990-05-18","translations":["Оригинальная дорожка"],"quality":"dvb","translation":"Оригинальная дорожка","update":"2019-04-10 08:04:44","iframe_src":"//8944266443434.svetacdn.in/PfJ50H0ZBPg3/movie/24061"},{"id":24059,"title":"Мой принц","kp_id":"464882","imdb_id":null,"world_art_id":null,"type":"movie","add":"2019-04-07 21:43:23","orig_title":"Мой принц","year":"2006-01-01","translations":["Оригинальная дорожка"],"quality":"dvdrip","translation":"Оригинальная дорожка","update":"2019-04-09 07:41:55","iframe_src":"//8944266443434.svetacdn.in/PfJ50H0ZBPg3/movie/24059"},{"id":22866,"title":"Лови момент","kp_id":"994634","imdb_id":null,"world_art_id":null,"type":"movie","add":"2019-03-10 15:54:09","orig_title":"Лови момент","year":"2019-03-07","translations":["Оригинальная дорожка"],"quality":"webdl","translation":"Оригинальная дорожка","update":"2019-04-10 07:48:58","iframe_src":"//8944266443434.svetacdn.in/PfJ50H0ZBPg3/movie/22866"}],"current_page":2079,"first_page_url":"https://videocdn.tv/api/short?limit=100&api_token=RgFQdUIR2dRmwv8iYa5SnFNgnw3vpjKj&cache32079=32079&page=1","from":207801,"last_page":733,"last_page_url":"https://videocdn.tv/api/short?limit=100&api_token=RgFQdUIR2dRmwv8iYa5SnFNgnw3vpjKj&cache32079=32079&page=733","next_page_url":null,"path":"https://videocdn.tv/api/short","per_page":100,"prev_page_url":"https://videocdn.tv/api/short?limit=100&api_token=RgFQdUIR2dRmwv8iYa5SnFNgnw3vpjKj&cache32079=32079&page=2078","to":207820,"total":73212}