{"result":true,"data":[{"id":17776,"title":"Вес воды","kp_id":"15093","imdb_id":"tt0210382","world_art_id":null,"type":"movie","add":"2018-07-18 01:11:58","orig_title":"The Weight of Water","year":"2000-09-09","translations":["Полное дублирование"],"quality":"bd","translation":"Полное дублирование","update":"2018-07-18 06:13:31","iframe_src":"//2413.svetacdn.in/IAF0wWTdNYZm/movie/17776"},{"id":17772,"title":"Невыдуманная история","kp_id":"1112274","imdb_id":"tt8383656","world_art_id":null,"type":"movie","add":"2018-07-18 00:58:32","orig_title":"Sarinsoseol","year":"2018-02-27","translations":["Любительский (двухголосый закадровый) (Колобок)"],"quality":"webdl","translation":"Любительский (двухголосый закадровый) (Колобок)","update":"2018-07-18 06:22:31","iframe_src":"//2413.svetacdn.in/IAF0wWTdNYZm/movie/17772"},{"id":17771,"title":"Странные имена и фамилии","kp_id":"983712","imdb_id":"tt5671902","world_art_id":null,"type":"movie","add":"2018-07-18 00:57:03","orig_title":"The Strange Name Movie","year":"2017-12-12","translations":["Любительский (многоголосый закадровый) (Синема УС)"],"quality":"webdl","translation":"Любительский (многоголосый закадровый) (Синема УС)","update":"2018-07-18 06:25:31","iframe_src":"//2413.svetacdn.in/IAF0wWTdNYZm/movie/17771"},{"id":17770,"title":"Таинственный круиз","kp_id":"804737","imdb_id":"tt3242640","world_art_id":null,"type":"movie","add":"2018-07-18 00:55:11","orig_title":"The Mystery Cruise","year":"2013-10-06","translations":["Любительский (многоголосый закадровый) (Синема УС)"],"quality":"webdl","translation":"Любительский (многоголосый закадровый) (Синема УС)","update":"2018-07-18 06:26:33","iframe_src":"//2413.svetacdn.in/IAF0wWTdNYZm/movie/17770"},{"id":17769,"title":"Прелестный убийца","kp_id":"453067","imdb_id":"tt1362141","world_art_id":null,"type":"movie","add":"2018-07-18 00:43:39","orig_title":"The Honey Killer","year":"2018-04-01","translations":["Любительский (многоголосый закадровый) (Синема УС)"],"quality":"webdl","translation":"Любительский (многоголосый закадровый) (Синема УС)","update":"2018-07-18 06:27:47","iframe_src":"//2413.svetacdn.in/IAF0wWTdNYZm/movie/17769"},{"id":17768,"title":"Жемчужина Африки","kp_id":"1115350","imdb_id":"tt5128790","world_art_id":null,"type":"movie","add":"2018-07-18 00:37:51","orig_title":"The Pearl of Africa","year":"2016-04-30","translations":["Любительский (многоголосый закадровый) (Синема УС)"],"quality":"webdl","translation":"Любительский (многоголосый закадровый) (Синема УС)","update":"2018-07-18 06:32:31","iframe_src":"//2413.svetacdn.in/IAF0wWTdNYZm/movie/17768"},{"id":17767,"title":"Укрощенный","kp_id":"1019824","imdb_id":"tt5831124","world_art_id":null,"type":"movie","add":"2018-07-18 00:36:13","orig_title":"Taming the Horse","year":"2017-04-27","translations":["Любительский (многоголосый закадровый) (Колобок)"],"quality":"webdl","translation":"Любительский (многоголосый закадровый) (Колобок)","update":"2018-07-18 06:33:48","iframe_src":"//2413.svetacdn.in/IAF0wWTdNYZm/movie/17767"},{"id":17766,"title":"Гроза синдикатов","kp_id":"900032","imdb_id":"tt4473054","world_art_id":null,"type":"movie","add":"2018-07-18 00:34:24","orig_title":"Syndicate Smasher","year":"2017-03-11","translations":["Любительский (многоголосый закадровый) (Синема УС)"],"quality":"webdl","translation":"Любительский (многоголосый закадровый) (Синема УС)","update":"2018-07-18 06:34:50","iframe_src":"//2413.svetacdn.in/IAF0wWTdNYZm/movie/17766"},{"id":17764,"title":"Тихая ночь","kp_id":"1062946","imdb_id":"tt7133554","world_art_id":null,"type":"movie","add":"2018-07-18 00:30:58","orig_title":"Cicha noc","year":"2017-09-21","translations":["Любительский (многоголосый закадровый) (Синема УС)"],"quality":"bd","translation":"Любительский (многоголосый закадровый) (Синема УС)","update":"2018-07-18 06:37:45","iframe_src":"//2413.svetacdn.in/IAF0wWTdNYZm/movie/17764"},{"id":17760,"title":"Моя начальница","kp_id":"778241","imdb_id":"tt3012214","world_art_id":null,"type":"movie","add":"2018-07-18 00:16:55","orig_title":"My Lady Boss","year":"2017-07-03","translations":["Любительский (многоголосый закадровый) (Синема УС)"],"quality":"webdl","translation":"Любительский (многоголосый закадровый) (Синема УС)","update":"2018-07-18 06:42:09","iframe_src":"//2413.svetacdn.in/IAF0wWTdNYZm/movie/17760"},{"id":17759,"title":"Ограничимся поцелуями","kp_id":"907080","imdb_id":"tt4534886","world_art_id":null,"type":"movie","add":"2018-07-18 00:04:19","orig_title":"Making Out","year":"2016-02-05","translations":["Любительский (многоголосый закадровый) (Синема УС)"],"quality":"webdl","translation":"Любительский (многоголосый закадровый) (Синема УС)","update":"2018-07-18 06:43:35","iframe_src":"//2413.svetacdn.in/IAF0wWTdNYZm/movie/17759"},{"id":17758,"title":"Любовь в прямом эфире","kp_id":"896583","imdb_id":"tt4539828","world_art_id":null,"type":"movie","add":"2018-07-18 00:02:57","orig_title":"Love on the Air","year":"2015-09-26","translations":["Любительский (многоголосый закадровый) (Синема УС)"],"quality":"hdtv","translation":"Любительский (многоголосый закадровый) (Синема УС)","update":"2018-07-18 06:44:38","iframe_src":"//2413.svetacdn.in/IAF0wWTdNYZm/movie/17758"},{"id":17757,"title":"Змей с тысячей порезов","kp_id":"955962","imdb_id":"tt5303632","world_art_id":null,"type":"movie","add":"2018-07-18 00:01:22","orig_title":"Le serpent aux mille coupures","year":"2017-01-27","translations":["Любительский (многоголосый закадровый) (Колобок)"],"quality":"bd","translation":"Любительский (многоголосый закадровый) (Колобок)","update":"2018-07-18 06:45:47","iframe_src":"//2413.svetacdn.in/IAF0wWTdNYZm/movie/17757"},{"id":17756,"title":"Незнакомка Джозефина","kp_id":"901239","imdb_id":"tt4421800","world_art_id":null,"type":"movie","add":"2018-07-17 23:59:47","orig_title":"Josephine Doe","year":"2018-03-06","translations":["Любительский (многоголосый закадровый) (Синема УС)"],"quality":"webdl","translation":"Любительский (многоголосый закадровый) (Синема УС)","update":"2018-07-18 06:47:05","iframe_src":"//2413.svetacdn.in/IAF0wWTdNYZm/movie/17756"},{"id":17755,"title":"В погоне за тишиной","kp_id":"1007470","imdb_id":"tt4026570","world_art_id":null,"type":"movie","add":"2018-07-17 23:58:04","orig_title":"In Pursuit of Silence","year":"2015-11-11","translations":["Любительский (многоголосый закадровый) (Синема УС)"],"quality":"bd","translation":"Любительский (многоголосый закадровый) (Синема УС)","update":"2018-07-18 06:48:39","iframe_src":"//2413.svetacdn.in/IAF0wWTdNYZm/movie/17755"},{"id":17754,"title":"Хочелага, земля душ","kp_id":"1019448","imdb_id":"tt6530104","world_art_id":null,"type":"movie","add":"2018-07-17 23:56:29","orig_title":"Hochelaga, Terre des Âmes","year":"2017-09-09","translations":["Любительский (многоголосый закадровый) (Колобок)"],"quality":"webdl","translation":"Любительский (многоголосый закадровый) (Колобок)","update":"2018-07-18 06:50:20","iframe_src":"//2413.svetacdn.in/IAF0wWTdNYZm/movie/17754"},{"id":17753,"title":"Проявления тьмы","kp_id":"764093","imdb_id":"tt2924488","world_art_id":null,"type":"movie","add":"2018-07-17 23:54:46","orig_title":"Hidden Peaks","year":"2018-04-04","translations":["Любительский (многоголосый закадровый) (Синема УС)"],"quality":"bd","translation":"Любительский (многоголосый закадровый) (Синема УС)","update":"2018-07-18 06:51:40","iframe_src":"//2413.svetacdn.in/IAF0wWTdNYZm/movie/17753"},{"id":17743,"title":"План","kp_id":"1078127","imdb_id":"tt6866652","world_art_id":null,"type":"movie","add":"2018-07-15 23:40:17","orig_title":"The Plan","year":"2017-01-01","translations":["Любительский (двухголосый закадровый) (HiWayGrope)","Любительский (многоголосый закадровый) (Колобок)"],"quality":"webdl","translation":"Любительский (двухголосый закадровый) (HiWayGrope)","update":"2018-07-18 06:31:19","iframe_src":"//2413.svetacdn.in/IAF0wWTdNYZm/movie/17743"},{"id":17736,"title":"Двойная жизнь Рейчел","kp_id":null,"imdb_id":"tt8106570","world_art_id":null,"type":"movie","add":"2018-07-15 23:12:55","orig_title":"The Rachel Divide","year":"2018-04-27","translations":["Любительский (многоголосый закадровый) (Синема УС)"],"quality":"webdl","translation":"Любительский (многоголосый закадровый) (Синема УС)","update":"2018-07-16 11:37:42","iframe_src":"//2413.svetacdn.in/IAF0wWTdNYZm/movie/17736"},{"id":14742,"title":"Заблудившиеся","kp_id":"995033","imdb_id":"tt5940342","world_art_id":null,"type":"movie","add":"2017-12-24 23:36:58","orig_title":"Unhinged","year":"2017-09-25","translations":["Любительский (многоголосый закадровый) (Синема УС)","Любительский (одноголосый закадровый) (Хихикающий доктор)"],"quality":"webdl","translation":"Любительский (многоголосый закадровый) (Синема УС)","update":"2018-07-17 06:35:13","iframe_src":"//2413.svetacdn.in/IAF0wWTdNYZm/movie/14742"}],"current_page":2260,"first_page_url":"https://videocdn.tv/api/short?limit=100&api_token=6Onb1W1alEUrBcKJZD3GoKBbWyAl2uG2&cache32260=32260&page=1","from":225901,"last_page":719,"last_page_url":"https://videocdn.tv/api/short?limit=100&api_token=6Onb1W1alEUrBcKJZD3GoKBbWyAl2uG2&cache32260=32260&page=719","next_page_url":null,"path":"https://videocdn.tv/api/short","per_page":100,"prev_page_url":"https://videocdn.tv/api/short?limit=100&api_token=6Onb1W1alEUrBcKJZD3GoKBbWyAl2uG2&cache32260=32260&page=2259","to":225920,"total":71851}