{"result":true,"data":[{"id":46216,"title":"Просто друзья","kp_id":"77582","imdb_id":"tt0399222","world_art_id":null,"type":"movie","add":"2020-12-18 16:41:28","orig_title":"Je préfère qu'on reste amis","year":"2005-02-23","translations":["Профессиональный (двухголосый закадровый)"],"quality":"bd","translation":"Профессиональный (двухголосый закадровый)","update":"2020-12-24 14:06:15","iframe_src":"//2413.svetacdn.in/IAF0wWTdNYZm/movie/46216"},{"id":46215,"title":"Фурии","kp_id":"12604","imdb_id":"tt0042490","world_art_id":null,"type":"movie","add":"2020-12-18 16:37:09","orig_title":"The Furies","year":"1950-07-21","translations":["Любительский (одноголосый закадровый)"],"quality":"webdl","translation":"Любительский (одноголосый закадровый)","update":"2020-12-24 13:46:45","iframe_src":"//2413.svetacdn.in/IAF0wWTdNYZm/movie/46215"},{"id":46211,"title":"Красный круг","kp_id":"76861","imdb_id":"tt0053228","world_art_id":null,"type":"movie","add":"2020-12-18 11:07:05","orig_title":"Der rote Kreis","year":"1960-03-02","translations":["Профессиональный (многоголосый закадровый) (5-й канал СПб)"],"quality":"bd","translation":"Профессиональный (многоголосый закадровый) (5-й канал СПб)","update":"2020-12-24 14:19:33","iframe_src":"//2413.svetacdn.in/IAF0wWTdNYZm/movie/46211"},{"id":46206,"title":"Двое на качелях","kp_id":"2575","imdb_id":"tt0056626","world_art_id":null,"type":"movie","add":"2020-12-18 10:59:04","orig_title":"Two for the Seesaw","year":"1962-11-21","translations":["Авторский (одноголосый закадровый) (Кашкин Александр | Первомайский)"],"quality":"bd","translation":"Авторский (одноголосый закадровый) (Кашкин Александр | Первомайский)","update":"2020-12-24 13:40:47","iframe_src":"//2413.svetacdn.in/IAF0wWTdNYZm/movie/46206"},{"id":46205,"title":"Армейская история","kp_id":"15270","imdb_id":"tt0088146","world_art_id":null,"type":"movie","add":"2020-12-18 10:57:32","orig_title":"A Soldier's Story","year":"1984-09-13","translations":["Профессиональный (многоголосый закадровый) (Первый канал | ОРТ)"],"quality":"bd","translation":"Профессиональный (многоголосый закадровый) (Первый канал | ОРТ)","update":"2020-12-24 14:14:35","iframe_src":"//2413.svetacdn.in/IAF0wWTdNYZm/movie/46205"},{"id":46202,"title":"Двойник","kp_id":"44355","imdb_id":"tt0266491","world_art_id":null,"type":"movie","add":"2020-12-18 10:07:28","orig_title":"Dubultnieks","year":"1987-04-20","translations":["Полное дублирование"],"quality":"tc","translation":"Полное дублирование","update":"2020-12-24 13:42:30","iframe_src":"//2413.svetacdn.in/IAF0wWTdNYZm/movie/46202"},{"id":46201,"title":"Бак Роджерс в двадцать пятом столетии","kp_id":"25577","imdb_id":"tt0077278","world_art_id":null,"type":"movie","add":"2020-12-18 10:03:54","orig_title":"Buck Rogers in the 25th Century","year":"1979-03-30","translations":["Профессиональный (многоголосый закадровый)"],"quality":"bd","translation":"Профессиональный (многоголосый закадровый)","update":"2020-12-24 14:16:52","iframe_src":"//2413.svetacdn.in/IAF0wWTdNYZm/movie/46201"},{"id":46198,"title":"Когда волк влюбляется в овечку","kp_id":"733111","imdb_id":"tt2636362","world_art_id":null,"type":"movie","add":"2020-12-18 09:34:54","orig_title":"Nanfang xiao yang muchang","year":"2012-11-09","translations":["Любительский (одноголосый закадровый) (mi24)"],"quality":"bd","translation":"Любительский (одноголосый закадровый) (mi24)","update":"2020-12-24 13:45:55","iframe_src":"//2413.svetacdn.in/IAF0wWTdNYZm/movie/46198"},{"id":46197,"title":"Что нового, кошечка?","kp_id":"10158","imdb_id":"tt0059903","world_art_id":null,"type":"movie","add":"2020-12-18 09:30:54","orig_title":"What's New Pussycat","year":"1965-06-22","translations":["Профессиональный (двухголосый закадровый)"],"quality":"bd","translation":"Профессиональный (двухголосый закадровый)","update":"2020-12-24 14:08:23","iframe_src":"//2413.svetacdn.in/IAF0wWTdNYZm/movie/46197"},{"id":46196,"title":"Детективная история","kp_id":"10625","imdb_id":"tt0043465","world_art_id":null,"type":"movie","add":"2020-12-18 09:28:38","orig_title":"Detective Story","year":"1951-10-19","translations":["Профессиональный (многоголосый закадровый)"],"quality":"bd","translation":"Профессиональный (многоголосый закадровый)","update":"2020-12-24 14:20:28","iframe_src":"//2413.svetacdn.in/IAF0wWTdNYZm/movie/46196"},{"id":46195,"title":"Место, названное домом","kp_id":"332090","imdb_id":"tt0375139","world_art_id":null,"type":"movie","add":"2020-12-18 09:26:53","orig_title":"A Place Called Home","year":"2004-03-07","translations":["Профессиональный (двухголосый закадровый) (Hallmark)"],"quality":"webdl","translation":"Профессиональный (двухголосый закадровый) (Hallmark)","update":"2020-12-24 14:09:19","iframe_src":"//2413.svetacdn.in/IAF0wWTdNYZm/movie/46195"},{"id":46192,"title":"Доктор Джек","kp_id":"200724","imdb_id":"tt0013075","world_art_id":null,"type":"movie","add":"2020-12-18 09:13:29","orig_title":"Dr. Jack","year":"1922-11-26","translations":["[EN] Original (English)"],"quality":"webdl","translation":"[EN] Original (English)","update":"2020-12-24 13:45:04","iframe_src":"//2413.svetacdn.in/IAF0wWTdNYZm/movie/46192"},{"id":46191,"title":"Дети капитана Кидда","kp_id":"199674","imdb_id":"tt0009986","world_art_id":null,"type":"movie","add":"2020-12-18 09:11:05","orig_title":"Captain Kidd's Kids","year":"1919-11-30","translations":["[EN] Original (English)"],"quality":"webdl","translation":"[EN] Original (English)","update":"2020-12-24 13:44:05","iframe_src":"//2413.svetacdn.in/IAF0wWTdNYZm/movie/46191"},{"id":46190,"title":"Убийство в школе","kp_id":"3877","imdb_id":"tt0074875","world_art_id":null,"type":"movie","add":"2020-12-18 09:09:26","orig_title":"Massacre at Central High","year":"1976-11-10","translations":["Авторский (одноголосый закадровый) (Назаров Вадим)"],"quality":"bd","translation":"Авторский (одноголосый закадровый) (Назаров Вадим)","update":"2020-12-24 13:39:42","iframe_src":"//2413.svetacdn.in/IAF0wWTdNYZm/movie/46190"},{"id":46185,"title":"Ангел","kp_id":"14026","imdb_id":"tt0028575","world_art_id":null,"type":"movie","add":"2020-12-18 08:39:38","orig_title":"Angel","year":"1937-10-13","translations":["Профессиональный (многоголосый закадровый) (СВ-Дубль)"],"quality":"bd","translation":"Профессиональный (многоголосый закадровый) (СВ-Дубль)","update":"2020-12-24 14:16:19","iframe_src":"//2413.svetacdn.in/IAF0wWTdNYZm/movie/46185"},{"id":46183,"title":"Дама с камелиями","kp_id":"89520","imdb_id":"tt0087028","world_art_id":null,"type":"movie","add":"2020-12-18 08:30:08","orig_title":"Camille","year":"1984-12-11","translations":["Профессиональный (многоголосый закадровый)"],"quality":"bd","translation":"Профессиональный (многоголосый закадровый)","update":"2020-12-24 14:18:35","iframe_src":"//2413.svetacdn.in/IAF0wWTdNYZm/movie/46183"},{"id":46181,"title":"Полуночная чистка","kp_id":"13680","imdb_id":"tt0102443","world_art_id":null,"type":"movie","add":"2020-12-18 07:07:08","orig_title":"A Midnight Clear","year":"1992-04-24","translations":["Профессиональный (одноголосый закадровый) (НТВ)"],"quality":"bd","translation":"Профессиональный (одноголосый закадровый) (НТВ)","update":"2020-12-24 14:02:25","iframe_src":"//2413.svetacdn.in/IAF0wWTdNYZm/movie/46181"},{"id":46180,"title":"Венсан, Франсуа, Поль и другие","kp_id":"20935","imdb_id":"tt0072368","world_art_id":null,"type":"movie","add":"2020-12-18 06:38:27","orig_title":"Vincent, François, Paul... et les autres","year":"1974-10-20","translations":["Профессиональный (двухголосый закадровый)"],"quality":"bd","translation":"Профессиональный (двухголосый закадровый)","update":"2020-12-24 14:07:00","iframe_src":"//2413.svetacdn.in/IAF0wWTdNYZm/movie/46180"},{"id":33720,"title":"Золото сегуна","kp_id":"99909","imdb_id":"tt0064387","world_art_id":null,"type":"movie","add":"2019-12-04 20:06:46","orig_title":"Goyôkin","year":"1969-05-01","translations":["Любительский (двухголосый закадровый)","Любительский (двухголосый закадровый)"],"quality":"dvdrip","translation":"Любительский (двухголосый закадровый)","update":"2020-12-24 14:01:03","iframe_src":"//2413.svetacdn.in/IAF0wWTdNYZm/movie/33720"},{"id":32504,"title":"Дзен","kp_id":"420887","imdb_id":"tt1156470","world_art_id":null,"type":"movie","add":"2019-10-30 19:43:18","orig_title":"Zen","year":"2009-01-10","translations":["Любительский (одноголосый закадровый)","Любительский (одноголосый закадровый)"],"quality":"dvdrip","translation":"Любительский (одноголосый закадровый)","update":"2020-12-24 13:57:13","iframe_src":"//2413.svetacdn.in/IAF0wWTdNYZm/movie/32504"}],"current_page":853,"first_page_url":"https://videocdn.tv/api/short?limit=100&api_token=6Onb1W1alEUrBcKJZD3GoKBbWyAl2uG2&cache3853=3853&page=1","from":85201,"last_page":715,"last_page_url":"https://videocdn.tv/api/short?limit=100&api_token=6Onb1W1alEUrBcKJZD3GoKBbWyAl2uG2&cache3853=3853&page=715","next_page_url":null,"path":"https://videocdn.tv/api/short","per_page":100,"prev_page_url":"https://videocdn.tv/api/short?limit=100&api_token=6Onb1W1alEUrBcKJZD3GoKBbWyAl2uG2&cache3853=3853&page=852","to":85220,"total":71489}