{"result":true,"data":[{"id":45145,"title":"Дамский цирюльник","kp_id":"72626","imdb_id":"tt0044504","world_art_id":null,"type":"movie","add":"2020-11-09 16:11:37","orig_title":"Coiffeur pour dames","year":"1952-05-09","translations":["Профессиональный (двухголосый закадровый)"],"quality":"dvdrip","translation":"Профессиональный (двухголосый закадровый)","update":"2020-11-09 19:36:55","iframe_src":"//83.svetacdn.in/PfJ50H0ZBPg3/movie/45145"},{"id":45141,"title":"Убийство ей к лицу","kp_id":"1331216","imdb_id":"tt11345350","world_art_id":null,"type":"movie","add":"2020-11-09 13:19:17","orig_title":"Le crime lui va si bien","year":"2019-12-13","translations":["Любительский (многоголосый закадровый) (AlphaProject)"],"quality":"hdtv","translation":"Любительский (многоголосый закадровый) (AlphaProject)","update":"2020-11-09 19:41:35","iframe_src":"//83.svetacdn.in/PfJ50H0ZBPg3/movie/45141"},{"id":45140,"title":"На высоте","kp_id":"1283622","imdb_id":"tt10608632","world_art_id":null,"type":"movie","add":"2020-11-09 13:17:31","orig_title":"Haut perchés","year":"2019-08-21","translations":["Любительский (многоголосый закадровый) (AlphaProject)"],"quality":"webdl","translation":"Любительский (многоголосый закадровый) (AlphaProject)","update":"2020-11-09 19:41:11","iframe_src":"//83.svetacdn.in/PfJ50H0ZBPg3/movie/45140"},{"id":45139,"title":"Золотая рыбка","kp_id":"445011","imdb_id":"tt8193490","world_art_id":null,"type":"movie","add":"2020-11-09 11:09:27","orig_title":"Zolotaya rybka","year":"1985-01-01","translations":["Оригинальная дорожка"],"quality":"dvdrip","translation":"Оригинальная дорожка","update":"2020-11-09 15:09:41","iframe_src":"//83.svetacdn.in/PfJ50H0ZBPg3/movie/45139"},{"id":45138,"title":"Адские бойцы","kp_id":"1340","imdb_id":"tt0063060","world_art_id":null,"type":"movie","add":"2020-11-09 11:06:31","orig_title":"Hellfighters","year":"1968-11-27","translations":["Полное дублирование","[EN] Original (English)"],"quality":"bd","translation":"Полное дублирование","update":"2020-11-09 19:41:22","iframe_src":"//83.svetacdn.in/PfJ50H0ZBPg3/movie/45138"},{"id":45136,"title":"Близнецы","kp_id":"1244947","imdb_id":"tt10098374","world_art_id":null,"type":"movie","add":"2020-11-09 10:50:05","orig_title":"Shuang sheng","year":"2019-04-19","translations":["Любительский (многоголосый закадровый) (Синема УС)"],"quality":"webdl","translation":"Любительский (многоголосый закадровый) (Синема УС)","update":"2020-11-09 12:58:49","iframe_src":"//83.svetacdn.in/PfJ50H0ZBPg3/movie/45136"},{"id":45133,"title":"Я хотел спрятаться","kp_id":"1167436","imdb_id":"tt8478554","world_art_id":null,"type":"movie","add":"2020-11-09 10:01:18","orig_title":"Volevo nascondermi","year":"2020-03-04","translations":["Любительский (многоголосый закадровый) (Синема УС)"],"quality":"bd","translation":"Любительский (многоголосый закадровый) (Синема УС)","update":"2020-11-09 12:57:35","iframe_src":"//83.svetacdn.in/PfJ50H0ZBPg3/movie/45133"},{"id":45132,"title":"Правда","kp_id":"1050019","imdb_id":"tt6604106","world_art_id":null,"type":"movie","add":"2020-11-09 09:59:09","orig_title":"Truth","year":"2020-08-21","translations":["Любительский (многоголосый закадровый) (@MUZOBOZ@)"],"quality":"webdl","translation":"Любительский (многоголосый закадровый) (@MUZOBOZ@)","update":"2020-11-09 12:57:06","iframe_src":"//83.svetacdn.in/PfJ50H0ZBPg3/movie/45132"},{"id":45130,"title":"Любовь по-кубински","kp_id":"1163397","imdb_id":"tt8471716","world_art_id":null,"type":"movie","add":"2020-11-09 06:58:34","orig_title":"Verliefd op Cuba","year":"2019-02-14","translations":["Любительский (многоголосый закадровый) (AlphaProject)"],"quality":"webdl","translation":"Любительский (многоголосый закадровый) (AlphaProject)","update":"2020-11-09 09:47:37","iframe_src":"//83.svetacdn.in/PfJ50H0ZBPg3/movie/45130"},{"id":45129,"title":"Зона отдыха","kp_id":null,"imdb_id":"tt13370916","world_art_id":null,"type":"movie","add":"2020-11-09 06:55:06","orig_title":"Rest Area","year":"2020-10-31","translations":["Любительский (многоголосый закадровый) (Синема УС)"],"quality":"webdl","translation":"Любительский (многоголосый закадровый) (Синема УС)","update":"2020-11-09 09:47:00","iframe_src":"//83.svetacdn.in/PfJ50H0ZBPg3/movie/45129"},{"id":45127,"title":"Тропа","kp_id":"1410191","imdb_id":"tt12998774","world_art_id":null,"type":"movie","add":"2020-11-09 06:21:37","orig_title":"Desire Path","year":"2020-09-18","translations":["Любительский (многоголосый закадровый) (Синема УС)"],"quality":"webdl","translation":"Любительский (многоголосый закадровый) (Синема УС)","update":"2020-11-09 07:55:57","iframe_src":"//83.svetacdn.in/PfJ50H0ZBPg3/movie/45127"},{"id":45126,"title":"У папы нет плана","kp_id":"1089564","imdb_id":"tt7516218","world_art_id":null,"type":"movie","add":"2020-11-09 06:19:53","orig_title":"Papa hat keinen Plan","year":"2019-04-12","translations":["Любительский (многоголосый закадровый) (Синема УС)"],"quality":"hdtv","translation":"Любительский (многоголосый закадровый) (Синема УС)","update":"2020-11-09 09:45:32","iframe_src":"//83.svetacdn.in/PfJ50H0ZBPg3/movie/45126"},{"id":45125,"title":"И пробудился грохочущий гром","kp_id":"1418161","imdb_id":"tt12829576","world_art_id":null,"type":"movie","add":"2020-11-09 06:14:37","orig_title":"Set Roaring War","year":"2020-08-15","translations":["Любительский (многоголосый закадровый) (Синема УС)"],"quality":"webdl","translation":"Любительский (многоголосый закадровый) (Синема УС)","update":"2020-11-09 07:54:51","iframe_src":"//83.svetacdn.in/PfJ50H0ZBPg3/movie/45125"},{"id":45122,"title":"Клюквенное рождество","kp_id":null,"imdb_id":"tt13356044","world_art_id":null,"type":"movie","add":"2020-11-09 06:07:45","orig_title":"Cranberry Christmas","year":"2020-10-31","translations":["Любительский (многоголосый закадровый) (AlphaProject)"],"quality":"hdtv","translation":"Любительский (многоголосый закадровый) (AlphaProject)","update":"2020-11-09 09:41:29","iframe_src":"//83.svetacdn.in/PfJ50H0ZBPg3/movie/45122"},{"id":45121,"title":"Разногласия","kp_id":null,"imdb_id":"tt6662126","world_art_id":null,"type":"movie","add":"2020-11-09 06:04:40","orig_title":"Méprises","year":"2018-06-04","translations":["Любительский (многоголосый закадровый) (Студия Пиратского Дубляжа)"],"quality":"webdl","translation":"Любительский (многоголосый закадровый) (Студия Пиратского Дубляжа)","update":"2020-11-09 07:54:30","iframe_src":"//83.svetacdn.in/PfJ50H0ZBPg3/movie/45121"},{"id":45098,"title":"Тайны саккарских гробниц","kp_id":"1443823","imdb_id":"tt13150630","world_art_id":null,"type":"movie","add":"2020-11-08 14:08:15","orig_title":"Secrets of the Saqqara Tomb","year":"2020-10-28","translations":["[EN] Original (English)"],"quality":"webdl","translation":"[EN] Original (English)","update":"2020-11-09 07:36:21","iframe_src":"//83.svetacdn.in/PfJ50H0ZBPg3/movie/45098"},{"id":44840,"title":"Охотницы за сумками","kp_id":"1276278","imdb_id":"tt10244774","world_art_id":null,"type":"movie","add":"2020-10-27 14:00:40","orig_title":"The Bag Girls","year":"2020-07-15","translations":["[EN] Original (English)","Любительский (многоголосый закадровый) (Синема УС)"],"quality":"webdl","translation":"[EN] Original (English)","update":"2020-11-09 09:47:17","iframe_src":"//83.svetacdn.in/PfJ50H0ZBPg3/movie/44840"},{"id":44390,"title":"40-летняя версия","kp_id":"1285558","imdb_id":"tt10642834","world_art_id":null,"type":"movie","add":"2020-10-13 12:41:17","orig_title":"The Forty-Year-Old Version","year":"2020-01-25","translations":["[EN] Original (English)","Любительский (многоголосый закадровый) (Синема УС)"],"quality":"webdl","translation":"[EN] Original (English)","update":"2020-11-09 13:16:14","iframe_src":"//83.svetacdn.in/PfJ50H0ZBPg3/movie/44390"},{"id":44318,"title":"Гудбай, Америка","kp_id":"1252962","imdb_id":"tt11616036","world_art_id":null,"type":"movie","add":"2020-10-11 21:53:44","orig_title":"Gudbay, Amerika!","year":"2020-10-08","translations":["Оригинальная дорожка"],"quality":"webdl","translation":"Оригинальная дорожка","update":"2020-11-09 15:48:07","iframe_src":"//83.svetacdn.in/PfJ50H0ZBPg3/movie/44318"},{"id":44141,"title":"Счастливого Хэллоуина, Скуби-Ду!","kp_id":"1405754","imdb_id":"tt12838958","world_art_id":null,"type":"movie","add":"2020-10-05 19:17:25","orig_title":"Happy Halloween, Scooby-Doo!","year":"2020-09-14","translations":["Любительский (многоголосый закадровый) (Синема УС)","Любительский (многоголосый закадровый) (@MUZOBOZ@)","[EN] Original (English)","Профессиональный (многоголосый закадровый) (Flarrow Films)"],"quality":"dvdrip","translation":"Любительский (многоголосый закадровый) (Синема УС)","update":"2020-11-09 19:39:19","iframe_src":"//83.svetacdn.in/PfJ50H0ZBPg3/movie/44141"}],"current_page":847,"first_page_url":"https://videocdn.tv/api/short?limit=100&api_token=RgFQdUIR2dRmwv8iYa5SnFNgnw3vpjKj&cache3847=3847&page=1","from":84601,"last_page":706,"last_page_url":"https://videocdn.tv/api/short?limit=100&api_token=RgFQdUIR2dRmwv8iYa5SnFNgnw3vpjKj&cache3847=3847&page=706","next_page_url":null,"path":"https://videocdn.tv/api/short","per_page":100,"prev_page_url":"https://videocdn.tv/api/short?limit=100&api_token=RgFQdUIR2dRmwv8iYa5SnFNgnw3vpjKj&cache3847=3847&page=846","to":84620,"total":70569}