{"result":true,"data":[{"id":1302,"title":"9 апреля","kp_id":"862622","imdb_id":"tt3542188","world_art_id":null,"type":"movie","add":"2016-04-20 09:03:56","orig_title":"9. april","year":"2015-03-09","translations":["Любительский (одноголосый закадровый)"],"quality":"bd","translation":"Любительский (одноголосый закадровый)","update":"2016-04-20 14:22:31","iframe_src":"//7923.svetacdn.in/71tsRs29n5tZ/movie/1302"},{"id":1301,"title":"Джесси Cтоун: Тайны Парадайза","kp_id":"896282","imdb_id":"tt4505830","world_art_id":null,"type":"movie","add":"2016-04-20 09:02:54","orig_title":"Jesse Stone: Lost in Paradise","year":"2015-10-18","translations":["Профессиональный (многоголосый закадровый)"],"quality":"webdl","translation":"Профессиональный (многоголосый закадровый)","update":"2016-04-20 13:58:00","iframe_src":"//7923.svetacdn.in/71tsRs29n5tZ/movie/1301"},{"id":1299,"title":"Джем и голограммы","kp_id":"840285","imdb_id":"tt3614530","world_art_id":null,"type":"movie","add":"2016-04-20 08:59:04","orig_title":"Jem and the Holograms","year":"2015-10-22","translations":["Полное дублирование"],"quality":"bd","translation":"Полное дублирование","update":"2016-04-20 14:25:53","iframe_src":"//7923.svetacdn.in/71tsRs29n5tZ/movie/1299"},{"id":1293,"title":"Упадок","kp_id":"823025","imdb_id":"tt3494676","world_art_id":null,"type":"movie","add":"2016-04-20 08:22:10","orig_title":"Decadencia","year":"2015-11-22","translations":["Любительский (двухголосый закадровый)"],"quality":"bd","translation":"Любительский (двухголосый закадровый)","update":"2016-04-20 11:33:50","iframe_src":"//7923.svetacdn.in/71tsRs29n5tZ/movie/1293"},{"id":1288,"title":"Римские свидания","kp_id":"843643","imdb_id":"tt4119278","world_art_id":null,"type":"movie","add":"2016-04-20 08:13:00","orig_title":"All Roads Lead to Rome","year":"2015-12-16","translations":["Полное дублирование"],"quality":"webdl","translation":"Полное дублирование","update":"2016-04-20 10:11:06","iframe_src":"//7923.svetacdn.in/71tsRs29n5tZ/movie/1288"},{"id":1287,"title":"Два ствола","kp_id":"880495","imdb_id":"tt4246818","world_art_id":null,"type":"movie","add":"2016-04-20 08:05:55","orig_title":"Popoz","year":"2015-10-08","translations":["Любительский (многоголосый закадровый)"],"quality":"bd","translation":"Любительский (многоголосый закадровый)","update":"2016-04-20 10:27:50","iframe_src":"//7923.svetacdn.in/71tsRs29n5tZ/movie/1287"},{"id":1286,"title":"Кровь моей крови","kp_id":"764066","imdb_id":"tt2922590","world_art_id":null,"type":"movie","add":"2016-04-20 07:51:05","orig_title":"Sangue del mio sangue","year":"2015-09-08","translations":["Профессиональный (многоголосый закадровый)"],"quality":"bd","translation":"Профессиональный (многоголосый закадровый)","update":"2016-04-20 10:16:31","iframe_src":"//7923.svetacdn.in/71tsRs29n5tZ/movie/1286"},{"id":1283,"title":"Иерусалим","kp_id":"910537","imdb_id":"tt4552524","world_art_id":null,"type":"movie","add":"2016-04-20 07:45:32","orig_title":"Jeruzalem","year":"2015-07-10","translations":["Любительский (многоголосый закадровый) (Parovoz Production)"],"quality":"bd","translation":"Любительский (многоголосый закадровый) (Parovoz Production)","update":"2016-04-20 10:35:39","iframe_src":"//7923.svetacdn.in/71tsRs29n5tZ/movie/1283"},{"id":1281,"title":"Мара и Носитель Огня","kp_id":"784282","imdb_id":"tt3061534","world_art_id":null,"type":"movie","add":"2016-04-20 07:41:57","orig_title":"Mara und der Feuerbringer","year":"2015-04-02","translations":["Профессиональный (многоголосый закадровый) (Paradox & Omskbird records)"],"quality":"bd","translation":"Профессиональный (многоголосый закадровый) (Paradox & Omskbird records)","update":"2016-04-20 10:07:16","iframe_src":"//7923.svetacdn.in/71tsRs29n5tZ/movie/1281"},{"id":1276,"title":"Западный фронт","kp_id":"891276","imdb_id":"tt4320560","world_art_id":null,"type":"movie","add":"2016-04-19 12:58:14","orig_title":"Seoboojeonsun","year":"2015-09-24","translations":["Любительский (двухголосый закадровый)"],"quality":"webdl","translation":"Любительский (двухголосый закадровый)","update":"2016-04-19 12:59:47","iframe_src":"//7923.svetacdn.in/71tsRs29n5tZ/movie/1276"},{"id":1274,"title":"Одержимость Авы","kp_id":"848240","imdb_id":"tt3727982","world_art_id":null,"type":"movie","add":"2016-04-19 12:52:04","orig_title":"Ava's Possessions","year":"2015-04-26","translations":["Любительский (двухголосый закадровый)"],"quality":"webdl","translation":"Любительский (двухголосый закадровый)","update":"2016-04-19 12:52:38","iframe_src":"//7923.svetacdn.in/71tsRs29n5tZ/movie/1274"},{"id":1273,"title":"Потеря надежды","kp_id":"846072","imdb_id":"tt3610576","world_art_id":null,"type":"movie","add":"2016-04-19 12:41:09","orig_title":"Hope Lost","year":"2015-10-01","translations":["Профессиональный (многоголосый закадровый)"],"quality":"bd","translation":"Профессиональный (многоголосый закадровый)","update":"2016-04-19 12:41:51","iframe_src":"//7923.svetacdn.in/71tsRs29n5tZ/movie/1273"},{"id":1272,"title":"Йосемити","kp_id":"772363","imdb_id":"tt2992000","world_art_id":null,"type":"movie","add":"2016-04-19 12:39:35","orig_title":"Yosemite","year":"2015-01-29","translations":["Любительский (одноголосый закадровый)"],"quality":"webdl","translation":"Любительский (одноголосый закадровый)","update":"2016-04-19 12:40:11","iframe_src":"//7923.svetacdn.in/71tsRs29n5tZ/movie/1272"},{"id":1270,"title":"Смейся, убийца, смейся","kp_id":"808415","imdb_id":"tt3326880","world_art_id":null,"type":"movie","add":"2016-04-19 12:36:16","orig_title":"Laugh Killer Laugh","year":"2015-04-24","translations":["Профессиональный (многоголосый закадровый)"],"quality":"hdtv","translation":"Профессиональный (многоголосый закадровый)","update":"2016-04-19 12:36:55","iframe_src":"//7923.svetacdn.in/71tsRs29n5tZ/movie/1270"},{"id":1264,"title":"Идеальные каникулы","kp_id":"811649","imdb_id":"tt3367686","world_art_id":null,"type":"movie","add":"2016-04-19 12:18:59","orig_title":"A Perfect Vacation","year":"2015-04-11","translations":["Профессиональный (многоголосый закадровый)"],"quality":"bd","translation":"Профессиональный (многоголосый закадровый)","update":"2016-04-19 12:19:35","iframe_src":"//7923.svetacdn.in/71tsRs29n5tZ/movie/1264"},{"id":1261,"title":"Особо опасна","kp_id":"568836","imdb_id":"tt1731701","world_art_id":null,"type":"movie","add":"2016-04-19 12:06:11","orig_title":"Barely Lethal","year":"2015-04-23","translations":["Полное дублирование"],"quality":"bd","translation":"Полное дублирование","update":"2016-04-19 12:09:32","iframe_src":"//7923.svetacdn.in/71tsRs29n5tZ/movie/1261"},{"id":1129,"title":"Незваные","kp_id":"279129","imdb_id":"tt0815245","world_art_id":null,"type":"movie","add":"2016-04-14 19:38:05","orig_title":"The Uninvited","year":"2009-01-30","translations":["Полное дублирование"],"quality":"bd","translation":"Полное дублирование","update":"2016-04-20 11:50:29","iframe_src":"//7923.svetacdn.in/71tsRs29n5tZ/movie/1129"},{"id":1128,"title":"Знакомство со спартанцами","kp_id":"391766","imdb_id":"tt1073498","world_art_id":null,"type":"movie","add":"2016-04-14 19:35:42","orig_title":"Meet the Spartans","year":"2008-03-20","translations":["Полное дублирование"],"quality":"bd","translation":"Полное дублирование","update":"2016-04-20 11:54:02","iframe_src":"//7923.svetacdn.in/71tsRs29n5tZ/movie/1128"},{"id":1124,"title":"10 000 лет до н.э.","kp_id":"102611","imdb_id":"tt0443649","world_art_id":null,"type":"movie","add":"2016-04-14 18:33:07","orig_title":"10 000 BC","year":"2008-02-22","translations":["Полное дублирование"],"quality":"bd","translation":"Полное дублирование","update":"2016-04-20 12:13:16","iframe_src":"//7923.svetacdn.in/71tsRs29n5tZ/movie/1124"},{"id":1061,"title":"Приключения Флика","kp_id":"2356","imdb_id":"tt0120623","world_art_id":null,"type":"movie","add":"2016-04-13 19:26:47","orig_title":"A Bug's Life","year":"1998-11-14","translations":["Полное дублирование"],"quality":"bd","translation":"Полное дублирование","update":"2016-04-20 13:12:47","iframe_src":"//7923.svetacdn.in/71tsRs29n5tZ/movie/1061"}],"current_page":2536,"first_page_url":"https://videocdn.tv/api/short?limit=100&api_token=EnbO9h8pv1VyjbCJhg0WM9nG259n7mtz&cache32536=32536&page=1","from":253501,"last_page":644,"last_page_url":"https://videocdn.tv/api/short?limit=100&api_token=EnbO9h8pv1VyjbCJhg0WM9nG259n7mtz&cache32536=32536&page=644","next_page_url":null,"path":"https://videocdn.tv/api/short","per_page":100,"prev_page_url":"https://videocdn.tv/api/short?limit=100&api_token=EnbO9h8pv1VyjbCJhg0WM9nG259n7mtz&cache32536=32536&page=2535","to":253520,"total":64350}