{"result":true,"data":[{"id":8460,"title":"Дископат","kp_id":"738731","imdb_id":"tt2677894","world_art_id":null,"type":"movie","add":"2016-12-29 14:56:13","orig_title":"Discopathe","year":"2013-08-03","translations":["Любительский (многоголосый закадровый)"],"quality":"bd","translation":"Любительский (многоголосый закадровый)","update":"2016-12-30 07:34:34","iframe_src":"//83.svetacdn.in/PfJ50H0ZBPg3/movie/8460"},{"id":8450,"title":"Москва никогда не спит","kp_id":"723104","imdb_id":"tt2476294","world_art_id":null,"type":"movie","add":"2016-12-29 14:00:13","orig_title":"Moscow Never Sleeps","year":"2016-07-20","translations":["Оригинальная дорожка"],"quality":"webdl","translation":"Оригинальная дорожка","update":"2016-12-30 11:09:07","iframe_src":"//83.svetacdn.in/PfJ50H0ZBPg3/movie/8450"},{"id":8449,"title":"Марафон","kp_id":"647668","imdb_id":"tt2106533","world_art_id":null,"type":"movie","add":"2016-12-29 13:58:51","orig_title":"Marafon","year":"2013-07-04","translations":["Оригинальная дорожка"],"quality":"webdl","translation":"Оригинальная дорожка","update":"2016-12-30 08:10:20","iframe_src":"//83.svetacdn.in/PfJ50H0ZBPg3/movie/8449"},{"id":8448,"title":"Мама дарагая!","kp_id":"565710","imdb_id":"tt5030100","world_art_id":null,"type":"movie","add":"2016-12-29 13:57:34","orig_title":"Mama daragaya!","year":"2015-04-16","translations":["Оригинальная дорожка"],"quality":"webdl","translation":"Оригинальная дорожка","update":"2016-12-30 08:08:35","iframe_src":"//83.svetacdn.in/PfJ50H0ZBPg3/movie/8448"},{"id":8447,"title":"Любовь и Роман","kp_id":"851913","imdb_id":null,"world_art_id":null,"type":"movie","add":"2016-12-29 13:56:06","orig_title":"Любовь и Роман","year":"2014-12-11","translations":["Оригинальная дорожка"],"quality":"webdl","translation":"Оригинальная дорожка","update":"2016-12-30 08:07:20","iframe_src":"//83.svetacdn.in/PfJ50H0ZBPg3/movie/8447"},{"id":8446,"title":"}{отт@бь)ч","kp_id":"161085","imdb_id":"tt0466043","world_art_id":null,"type":"movie","add":"2016-12-29 13:54:26","orig_title":"Khottabych","year":"2006-09-22","translations":["Оригинальная дорожка"],"quality":"webdl","translation":"Оригинальная дорожка","update":"2016-12-30 08:05:31","iframe_src":"//83.svetacdn.in/PfJ50H0ZBPg3/movie/8446"},{"id":8444,"title":"Бесы","kp_id":"841312","imdb_id":"tt6283956","world_art_id":null,"type":"movie","add":"2016-12-29 13:50:54","orig_title":"Besy","year":"2014-05-24","translations":["Оригинальная дорожка"],"quality":"webdl","translation":"Оригинальная дорожка","update":"2016-12-30 08:01:30","iframe_src":"//83.svetacdn.in/PfJ50H0ZBPg3/movie/8444"},{"id":8443,"title":"Аномия","kp_id":"972223","imdb_id":"tt6074938","world_art_id":null,"type":"movie","add":"2016-12-29 13:48:30","orig_title":"Anomie","year":"2016-10-12","translations":["Оригинальная дорожка"],"quality":"webdl","translation":"Оригинальная дорожка","update":"2016-12-30 07:59:16","iframe_src":"//83.svetacdn.in/PfJ50H0ZBPg3/movie/8443"},{"id":8442,"title":"Василиса","kp_id":"676363","imdb_id":"tt3769764","world_art_id":null,"type":"movie","add":"2016-12-29 13:43:00","orig_title":"Vasilisa","year":"2014-12-04","translations":["Оригинальная дорожка"],"quality":"bd","translation":"Оригинальная дорожка","update":"2016-12-30 07:57:17","iframe_src":"//83.svetacdn.in/PfJ50H0ZBPg3/movie/8442"},{"id":8441,"title":"Любовь в большом городе 3","kp_id":"468136","imdb_id":"tt2739884","world_art_id":null,"type":"movie","add":"2016-12-29 13:40:52","orig_title":"Lyubov v bolshom gorode 3","year":"2014-01-10","translations":["Оригинальная дорожка"],"quality":"webdl","translation":"Оригинальная дорожка","update":"2016-12-30 07:55:08","iframe_src":"//83.svetacdn.in/PfJ50H0ZBPg3/movie/8441"},{"id":8440,"title":"Любовь в большом городе 2","kp_id":"451127","imdb_id":"tt1510274","world_art_id":null,"type":"movie","add":"2016-12-29 13:38:57","orig_title":"Lyubov v bolshom gorode 2","year":"2010-02-25","translations":["Оригинальная дорожка"],"quality":"bd","translation":"Оригинальная дорожка","update":"2016-12-30 07:53:00","iframe_src":"//83.svetacdn.in/PfJ50H0ZBPg3/movie/8440"},{"id":8425,"title":"Аргентина","kp_id":"894453","imdb_id":"tt4483460","world_art_id":null,"type":"movie","add":"2016-12-28 12:37:56","orig_title":"Zonda: folclore argentino","year":"2015-05-28","translations":["Профессиональный (многоголосый закадровый)"],"quality":"webdl","translation":"Профессиональный (многоголосый закадровый)","update":"2016-12-30 07:47:40","iframe_src":"//83.svetacdn.in/PfJ50H0ZBPg3/movie/8425"},{"id":8424,"title":"Путешествие из Парижа","kp_id":"877725","imdb_id":"tt4313608","world_art_id":null,"type":"movie","add":"2016-12-28 12:36:32","orig_title":"Paris-Willouby","year":"2015-08-26","translations":["Профессиональный (многоголосый закадровый)"],"quality":"webdl","translation":"Профессиональный (многоголосый закадровый)","update":"2016-12-30 07:45:38","iframe_src":"//83.svetacdn.in/PfJ50H0ZBPg3/movie/8424"},{"id":8423,"title":"В моих мечтах","kp_id":"809755","imdb_id":"tt3347518","world_art_id":null,"type":"movie","add":"2016-12-28 12:35:18","orig_title":"In My Dreams","year":"2014-04-20","translations":["Профессиональный (многоголосый закадровый) (iTunes)"],"quality":"webdl","translation":"Профессиональный (многоголосый закадровый) (iTunes)","update":"2016-12-30 07:43:33","iframe_src":"//83.svetacdn.in/PfJ50H0ZBPg3/movie/8423"},{"id":8422,"title":"Хичкок/Трюффо","kp_id":"915238","imdb_id":"tt3748512","world_art_id":null,"type":"movie","add":"2016-12-28 12:34:14","orig_title":"Hitchcock/Truffaut","year":"2015-05-19","translations":["Профессиональный (многоголосый закадровый)"],"quality":"webdl","translation":"Профессиональный (многоголосый закадровый)","update":"2016-12-30 07:41:49","iframe_src":"//83.svetacdn.in/PfJ50H0ZBPg3/movie/8422"},{"id":8421,"title":"Дженис: Маленькая девочка грустит","kp_id":"868643","imdb_id":"tt3707114","world_art_id":null,"type":"movie","add":"2016-12-28 12:32:57","orig_title":"Janis: Little Girl Blue","year":"2015-09-06","translations":["Профессиональный (многоголосый закадровый)"],"quality":"hdtv","translation":"Профессиональный (многоголосый закадровый)","update":"2016-12-30 07:40:18","iframe_src":"//83.svetacdn.in/PfJ50H0ZBPg3/movie/8421"},{"id":8419,"title":"Хватай и беги","kp_id":"645029","imdb_id":"tt2097307","world_art_id":null,"type":"movie","add":"2016-12-28 12:30:10","orig_title":"Hit and Run","year":"2012-08-02","translations":["Профессиональный (многоголосый закадровый)"],"quality":"bd","translation":"Профессиональный (многоголосый закадровый)","update":"2016-12-30 07:36:49","iframe_src":"//83.svetacdn.in/PfJ50H0ZBPg3/movie/8419"},{"id":8418,"title":"Влюбить и обезвредить","kp_id":"1007663","imdb_id":null,"world_art_id":null,"type":"movie","add":"2016-12-28 12:28:07","orig_title":"Влюбить и обезвредить","year":"2015-01-01","translations":["Оригинальная дорожка"],"quality":"webdl","translation":"Оригинальная дорожка","update":"2016-12-30 07:03:47","iframe_src":"//83.svetacdn.in/PfJ50H0ZBPg3/movie/8418"},{"id":8417,"title":"Картина маслом","kp_id":"843119","imdb_id":null,"world_art_id":null,"type":"movie","add":"2016-12-28 12:25:53","orig_title":"Картина маслом","year":"2016-01-01","translations":["Оригинальная дорожка"],"quality":"webdl","translation":"Оригинальная дорожка","update":"2016-12-30 07:01:06","iframe_src":"//83.svetacdn.in/PfJ50H0ZBPg3/movie/8417"},{"id":8415,"title":"Панама","kp_id":"766431","imdb_id":"tt2933004","world_art_id":null,"type":"movie","add":"2016-12-28 12:18:37","orig_title":"Panama","year":"2015-05-16","translations":["Любительский (многоголосый закадровый)"],"quality":"bd","translation":"Любительский (многоголосый закадровый)","update":"2016-12-29 14:51:41","iframe_src":"//83.svetacdn.in/PfJ50H0ZBPg3/movie/8415"}],"current_page":2624,"first_page_url":"https://videocdn.tv/api/short?limit=100&api_token=RgFQdUIR2dRmwv8iYa5SnFNgnw3vpjKj&cache32624=32624&page=1","from":262301,"last_page":717,"last_page_url":"https://videocdn.tv/api/short?limit=100&api_token=RgFQdUIR2dRmwv8iYa5SnFNgnw3vpjKj&cache32624=32624&page=717","next_page_url":null,"path":"https://videocdn.tv/api/short","per_page":100,"prev_page_url":"https://videocdn.tv/api/short?limit=100&api_token=RgFQdUIR2dRmwv8iYa5SnFNgnw3vpjKj&cache32624=32624&page=2623","to":262320,"total":71641}