{"result":true,"data":[{"id":50856,"title":"Идеальная хозяйка","kp_id":"1421630","imdb_id":"tt12452752","world_art_id":null,"type":"movie","add":"2021-06-02 07:17:01","orig_title":"An Ideal Host","year":"2020-07-09","translations":["Любительский (многоголосый закадровый) (AlphaProject)"],"quality":"webdl","translation":"Любительский (многоголосый закадровый) (AlphaProject)","update":"2021-06-02 10:37:17","iframe_src":"//2413.svetacdn.in/IAF0wWTdNYZm/movie/50856"},{"id":50855,"title":"Американский Сасквоч","kp_id":"4308026","imdb_id":"tt13758802","world_art_id":null,"type":"movie","add":"2021-06-02 07:15:59","orig_title":"American Sasquatch","year":"2020-08-11","translations":["Любительский (многоголосый закадровый) (Синема УС)"],"quality":"webdl","translation":"Любительский (многоголосый закадровый) (Синема УС)","update":"2021-06-02 10:37:05","iframe_src":"//2413.svetacdn.in/IAF0wWTdNYZm/movie/50855"},{"id":50854,"title":"Буллинг","kp_id":"1110438","imdb_id":"tt7613194","world_art_id":null,"type":"movie","add":"2021-06-02 07:14:28","orig_title":"Rock Sugar","year":"2021-06-01","translations":["Любительский (многоголосый закадровый) (Синема УС)"],"quality":"webdl","translation":"Любительский (многоголосый закадровый) (Синема УС)","update":"2021-06-02 10:36:51","iframe_src":"//2413.svetacdn.in/IAF0wWTdNYZm/movie/50854"},{"id":50848,"title":"Макс Бишоп","kp_id":"1217592","imdb_id":"tt9379530","world_art_id":null,"type":"movie","add":"2021-06-02 07:02:57","orig_title":"Max Bishop","year":"2021-06-01","translations":["Любительский (многоголосый закадровый) (Синема УС)"],"quality":"webdl","translation":"Любительский (многоголосый закадровый) (Синема УС)","update":"2021-06-02 10:34:18","iframe_src":"//2413.svetacdn.in/IAF0wWTdNYZm/movie/50848"},{"id":50845,"title":"Булочница из Монсо","kp_id":"23893","imdb_id":"tt0056884","world_art_id":null,"type":"movie","add":"2021-06-02 05:05:07","orig_title":"La boulangère de Monceau","year":"1963-01-01","translations":["Любительский (одноголосый закадровый)"],"quality":"bd","translation":"Любительский (одноголосый закадровый)","update":"2021-06-02 13:11:27","iframe_src":"//2413.svetacdn.in/IAF0wWTdNYZm/movie/50845"},{"id":50843,"title":"Калипсо","kp_id":"996730","imdb_id":"tt5888794","world_art_id":null,"type":"movie","add":"2021-06-01 21:04:33","orig_title":"Calypso","year":"2019-01-20","translations":["Любительский (многоголосый закадровый) (Синема УС)"],"quality":"webdl","translation":"Любительский (многоголосый закадровый) (Синема УС)","update":"2021-06-02 15:14:06","iframe_src":"//2413.svetacdn.in/IAF0wWTdNYZm/movie/50843"},{"id":50824,"title":"Руби в раю","kp_id":"22107","imdb_id":"tt0108000","world_art_id":null,"type":"movie","add":"2021-06-01 07:22:09","orig_title":"Ruby in Paradise","year":"1993-10-08","translations":["Профессиональный (двухголосый закадровый) (Екатеринбург Арт)","[EN] Original (English)"],"quality":"webdl","translation":"Профессиональный (двухголосый закадровый) (Екатеринбург Арт)","update":"2021-06-02 06:32:34","iframe_src":"//2413.svetacdn.in/IAF0wWTdNYZm/movie/50824"},{"id":50815,"title":"Кидала в Вегасе","kp_id":"198694","imdb_id":"tt0208871","world_art_id":null,"type":"movie","add":"2021-06-01 06:34:30","orig_title":"Du xia da zhan La Si Wei Jia Si","year":"1999-06-25","translations":["Авторский (одноголосый закадровый) (Дольский Андрей)"],"quality":"bd","translation":"Авторский (одноголосый закадровый) (Дольский Андрей)","update":"2021-06-02 14:29:47","iframe_src":"//2413.svetacdn.in/IAF0wWTdNYZm/movie/50815"},{"id":50738,"title":"Предатель по-американски","kp_id":"1208246","imdb_id":"tt7050946","world_art_id":null,"type":"movie","add":"2021-05-30 08:24:28","orig_title":"American Traitor: The Trial of Axis Sally","year":"2021-05-28","translations":["Любительский (многоголосый закадровый) (@MUZOBOZ@)","[EN] Original (English)","Профессиональный (двухголосый закадровый) (Pazl Voice)"],"quality":"webdl","translation":"Любительский (многоголосый закадровый) (@MUZOBOZ@)","update":"2021-06-02 10:22:54","iframe_src":"//2413.svetacdn.in/IAF0wWTdNYZm/movie/50738"},{"id":49601,"title":"Адский дождь","kp_id":"9522","imdb_id":"tt0072869","world_art_id":null,"type":"movie","add":"2021-04-14 05:12:16","orig_title":"The Devil's Rain","year":"1975-07-01","translations":["Авторский (одноголосый закадровый) (Визгунов Сергей)","Авторский (одноголосый закадровый) (Алексеев Антон)","[EN] Original (English)","Любительский (одноголосый закадровый) (Севастьянов Никита | seva1988)"],"quality":"bd","translation":"Авторский (одноголосый закадровый) (Визгунов Сергей)","update":"2021-06-02 06:54:12","iframe_src":"//2413.svetacdn.in/IAF0wWTdNYZm/movie/49601"},{"id":47734,"title":"Супернова","kp_id":"1317850","imdb_id":"tt11169050","world_art_id":null,"type":"movie","add":"2021-02-07 22:52:22","orig_title":"Supernova","year":"2020-09-23","translations":["Профессиональный (многоголосый закадровый) (HDrezka Studio)","Полное дублирование","[EN] Original (English)","Полное дублирование (iTunes)"],"quality":"webdl","translation":"Профессиональный (многоголосый закадровый) (HDrezka Studio)","update":"2021-06-02 14:28:08","iframe_src":"//2413.svetacdn.in/IAF0wWTdNYZm/movie/47734"},{"id":31809,"title":"Странная парочка 2","kp_id":"11748","imdb_id":"tt0120773","world_art_id":null,"type":"movie","add":"2019-10-13 07:16:09","orig_title":"The Odd Couple II","year":"1998-04-10","translations":["Профессиональный (многоголосый закадровый)","[EN] Original (English)","Любительский (одноголосый закадровый)","Профессиональный (двухголосый закадровый)"],"quality":"bd","translation":"Профессиональный (многоголосый закадровый)","update":"2021-06-02 06:41:00","iframe_src":"//2413.svetacdn.in/IAF0wWTdNYZm/movie/31809"},{"id":16965,"title":"Паттон","kp_id":"433","imdb_id":"tt0066206","world_art_id":null,"type":"movie","add":"2018-05-30 10:27:04","orig_title":"Patton","year":"1970-02-04","translations":["Профессиональный (многоголосый закадровый)","[EN] Original (English)","Профессиональный (двухголосый закадровый)","Профессиональный (многоголосый закадровый) (Первый канал | ОРТ)"],"quality":"bd","translation":"Профессиональный (многоголосый закадровый)","update":"2021-06-02 06:37:20","iframe_src":"//2413.svetacdn.in/IAF0wWTdNYZm/movie/16965"},{"id":1721,"title":"Кротик и Панда","kp_id":"1046564","imdb_id":null,"world_art_id":null,"type":"serial","add":"2017-11-09 05:08:13","orig_title":"Krtek a panda","year":"2016-03-28","translations":["Полное дублирование"],"seasons_count":1,"episodes_count":52,"episodes":52,"update":"2017-11-10 12:52:57","iframe_src":"//2413.svetacdn.in/IAF0wWTdNYZm/tv-series/1721"},{"id":1720,"title":"Демон революции","kp_id":"1043872","imdb_id":"tt7598872","world_art_id":null,"type":"serial","add":"2017-11-07 12:57:07","orig_title":"Demon revolyutsii","year":"2017-11-05","translations":["Оригинальная дорожка"],"seasons_count":1,"episodes_count":3,"episodes":3,"update":"2017-11-08 08:08:05","iframe_src":"//2413.svetacdn.in/IAF0wWTdNYZm/tv-series/1720"},{"id":1719,"title":"Троцкий","kp_id":"1008339","imdb_id":null,"world_art_id":null,"type":"serial","add":"2017-11-07 12:52:05","orig_title":"Троцкий","year":"2017-11-06","translations":["Оригинальная дорожка"],"seasons_count":1,"episodes_count":8,"episodes":8,"update":"2017-11-10 07:53:03","iframe_src":"//2413.svetacdn.in/IAF0wWTdNYZm/tv-series/1719"},{"id":1718,"title":"Нулевая мировая","kp_id":"1036875","imdb_id":null,"world_art_id":null,"type":"serial","add":"2017-11-06 06:02:55","orig_title":"Нулевая мировая","year":"2017-02-23","translations":["Оригинальная дорожка"],"seasons_count":1,"episodes_count":4,"episodes":4,"update":"2017-11-08 11:12:35","iframe_src":"//2413.svetacdn.in/IAF0wWTdNYZm/tv-series/1718"},{"id":1717,"title":"Котовский","kp_id":"466542","imdb_id":"tt3575436","world_art_id":null,"type":"serial","add":"2017-11-06 05:58:39","orig_title":"Kotovskiy","year":"2010-03-01","translations":["Оригинальная дорожка"],"seasons_count":1,"episodes_count":8,"episodes":8,"update":"2017-11-07 11:26:58","iframe_src":"//2413.svetacdn.in/IAF0wWTdNYZm/tv-series/1717"},{"id":1716,"title":"Короткое слово нет","kp_id":"1007584","imdb_id":"tt6687196","world_art_id":null,"type":"serial","add":"2017-11-06 05:55:44","orig_title":"Korotkoe slovo 'net'","year":"2017-10-23","translations":["Оригинальная дорожка"],"seasons_count":1,"episodes_count":12,"episodes":12,"update":"2017-11-07 10:31:09","iframe_src":"//2413.svetacdn.in/IAF0wWTdNYZm/tv-series/1716"},{"id":1715,"title":"Это наши дети!","kp_id":"933401","imdb_id":null,"world_art_id":null,"type":"serial","add":"2017-11-06 05:52:52","orig_title":"Это наши дети!","year":"2015-01-01","translations":["Оригинальная дорожка"],"seasons_count":1,"episodes_count":4,"episodes":4,"update":"2017-11-06 13:28:36","iframe_src":"//2413.svetacdn.in/IAF0wWTdNYZm/tv-series/1715"},{"id":1714,"title":"Анна Герман","kp_id":"600835","imdb_id":"tt2729414","world_art_id":null,"type":"serial","add":"2017-11-06 05:44:43","orig_title":"Anna German","year":"2012-09-03","translations":["Оригинальная дорожка"],"seasons_count":1,"episodes_count":10,"episodes":10,"update":"2017-11-08 11:07:46","iframe_src":"//2413.svetacdn.in/IAF0wWTdNYZm/tv-series/1714"},{"id":1712,"title":"Жизнь и приключения Мишки Япончика","kp_id":"603888","imdb_id":"tt2317835","world_art_id":null,"type":"serial","add":"2017-11-06 05:34:34","orig_title":"Zhizn i priklyucheniya Mishki Yaponchika","year":"2011-11-09","translations":["Оригинальная дорожка"],"seasons_count":1,"episodes_count":12,"episodes":12,"update":"2017-11-08 10:38:11","iframe_src":"//2413.svetacdn.in/IAF0wWTdNYZm/tv-series/1712"},{"id":1711,"title":"Жизнь после жизни","kp_id":"760483","imdb_id":"tt6761836","world_art_id":null,"type":"serial","add":"2017-11-06 05:09:06","orig_title":"Zhizn posle zhizni","year":"2017-02-27","translations":["Оригинальная дорожка"],"seasons_count":1,"episodes_count":16,"episodes":16,"update":"2017-11-07 10:55:49","iframe_src":"//2413.svetacdn.in/IAF0wWTdNYZm/tv-series/1711"},{"id":1710,"title":"Влюбленные женщины","kp_id":"840609","imdb_id":"tt3827892","world_art_id":null,"type":"serial","add":"2017-11-06 05:01:10","orig_title":"Vlyublyonnye zhenshchiny","year":"2015-10-19","translations":["Оригинальная дорожка"],"seasons_count":1,"episodes_count":12,"episodes":12,"update":"2017-11-06 13:10:34","iframe_src":"//2413.svetacdn.in/IAF0wWTdNYZm/tv-series/1710"},{"id":1706,"title":"Мятежный дух","kp_id":"94384","imdb_id":"tt0328789","world_art_id":null,"type":"serial","add":"2017-11-03 21:15:43","orig_title":"Rebelde Way","year":"2002-05-27","translations":["Профессиональный (многоголосый закадровый)"],"seasons_count":2,"episodes_count":318,"episodes":179,"update":"2017-11-08 21:48:46","iframe_src":"//2413.svetacdn.in/IAF0wWTdNYZm/tv-series/1706"},{"id":1703,"title":"Офицерские жены","kp_id":"838280","imdb_id":"tt3784004","world_art_id":null,"type":"serial","add":"2017-11-02 15:19:21","orig_title":"Ofitserskie zheny","year":"2016-04-26","translations":["Оригинальная дорожка"],"seasons_count":1,"episodes_count":12,"episodes":12,"update":"2017-11-03 13:34:15","iframe_src":"//2413.svetacdn.in/IAF0wWTdNYZm/tv-series/1703"},{"id":1700,"title":"Уличный боец: Кулак убийцы","kp_id":"818743","imdb_id":"tt3069212","world_art_id":null,"type":"serial","add":"2017-11-01 12:46:28","orig_title":"Street Fighter: Assassin's Fist","year":"2014-05-23","translations":["Любительский (одноголосый закадровый)"],"seasons_count":1,"episodes_count":13,"episodes":13,"update":"2017-11-03 13:36:01","iframe_src":"//2413.svetacdn.in/IAF0wWTdNYZm/tv-series/1700"},{"id":1695,"title":"Убийство на пляже","kp_id":"736182","imdb_id":"tt2249364","world_art_id":null,"type":"serial","add":"2017-10-31 05:43:34","orig_title":"Broadchurch","year":"2013-03-04","translations":["Профессиональный (многоголосый закадровый) (BaibaKo)"],"seasons_count":3,"episodes_count":24,"episodes":8,"update":"2017-11-06 08:31:56","iframe_src":"//2413.svetacdn.in/IAF0wWTdNYZm/tv-series/1695"},{"id":1689,"title":"Император Карлос","kp_id":"891688","imdb_id":"tt4418020","world_art_id":null,"type":"serial","add":"2017-10-30 09:16:52","orig_title":"Carlos, Rey Emperador","year":"2015-09-07","translations":["Любительский (двухголосый закадровый)"],"seasons_count":1,"episodes_count":17,"episodes":17,"update":"2017-11-08 09:42:09","iframe_src":"//2413.svetacdn.in/IAF0wWTdNYZm/tv-series/1689"},{"id":1686,"title":"Что делает твоя жена?","kp_id":"1007900","imdb_id":null,"world_art_id":null,"type":"serial","add":"2017-10-30 08:50:12","orig_title":"Что делает твоя жена?","year":"2017-10-28","translations":["Оригинальная дорожка"],"seasons_count":1,"episodes_count":20,"episodes":20,"update":"2017-11-07 12:13:52","iframe_src":"//2413.svetacdn.in/IAF0wWTdNYZm/tv-series/1686"},{"id":1680,"title":"Брат за брата 2","kp_id":"679751","imdb_id":"tt4094956","world_art_id":null,"type":"serial","add":"2017-10-27 05:32:20","orig_title":"Brat za brata 2","year":"2013-01-31","translations":["Оригинальная дорожка"],"seasons_count":1,"episodes_count":24,"episodes":24,"update":"2017-11-08 09:35:00","iframe_src":"//2413.svetacdn.in/IAF0wWTdNYZm/tv-series/1680"},{"id":1679,"title":"Брат за брата","kp_id":"491881","imdb_id":"tt4339372","world_art_id":null,"type":"serial","add":"2017-10-27 05:30:08","orig_title":"Brat za brata","year":"2010-10-13","translations":["Оригинальная дорожка"],"seasons_count":1,"episodes_count":24,"episodes":24,"update":"2017-11-07 09:59:25","iframe_src":"//2413.svetacdn.in/IAF0wWTdNYZm/tv-series/1679"},{"id":9535,"title":"Патерсон","kp_id":"954059","imdb_id":"tt5247022","world_art_id":null,"type":"movie","add":"2017-02-09 06:19:53","orig_title":"Paterson","year":"2016-05-16","translations":["Полное дублирование","[EN] Original (English)","Авторский (одноголосый закадровый) (Сербин Юрий)","Полное дублирование","[EN] Original (English)"],"quality":"bd","translation":"Полное дублирование","update":"2021-06-02 06:45:38","iframe_src":"//2413.svetacdn.in/IAF0wWTdNYZm/movie/9535"},{"id":8411,"title":"Фантом","kp_id":"821150","imdb_id":"tt3469244","world_art_id":null,"type":"movie","add":"2016-12-28 12:10:44","orig_title":"Phantom","year":"2015-08-28","translations":["Любительский (двухголосый закадровый)","Любительский (многоголосый закадровый) (STEPonee)","Профессиональный (многоголосый закадровый) (SDI Media | Iyuno-SDI Group Russia)","Любительский (многоголосый закадровый) (ICG)","Любительский (двухголосый закадровый) (DeadSno & den904)"],"quality":"bd","translation":"Любительский (двухголосый закадровый)","update":"2021-06-02 08:27:15","iframe_src":"//2413.svetacdn.in/IAF0wWTdNYZm/movie/8411"},{"id":6822,"title":"Сила личности","kp_id":"6063","imdb_id":"tt0105159","world_art_id":null,"type":"movie","add":"2016-10-30 08:21:41","orig_title":"The Power of One","year":"1992-03-27","translations":["Профессиональный (многоголосый закадровый)","Авторский (одноголосый закадровый) (Горчаков Василий)","Авторский (одноголосый закадровый) (Володарский Леонид)","[EN] Original (English)","Профессиональный (многоголосый закадровый) (НТВ)"],"quality":"webdl","translation":"Профессиональный (многоголосый закадровый)","update":"2021-06-02 07:53:12","iframe_src":"//2413.svetacdn.in/IAF0wWTdNYZm/movie/6822"},{"id":523,"title":"Светофор","kp_id":"581693","imdb_id":"tt2341427","world_art_id":null,"type":"serial","add":"2016-10-13 11:14:26","orig_title":"Svetofor","year":"2011-03-28","translations":["Оригинальная дорожка"],"seasons_count":10,"episodes_count":200,"episodes":20,"update":"2017-11-09 14:12:12","iframe_src":"//2413.svetacdn.in/IAF0wWTdNYZm/tv-series/523"},{"id":4222,"title":"Достоинство","kp_id":"665408","imdb_id":"tt2215673","world_art_id":null,"type":"movie","add":"2016-07-31 12:35:35","orig_title":"The Timber","year":"2015-02-27","translations":["Профессиональный (двухголосый закадровый)","[EN] Original (English)","Любительский (одноголосый закадровый) (datynet | Агапов Антон)"],"quality":"bd","translation":"Профессиональный (двухголосый закадровый)","update":"2021-06-02 14:26:31","iframe_src":"//2413.svetacdn.in/IAF0wWTdNYZm/movie/4222"},{"id":4178,"title":"Хеллбой II: Золотая армия","kp_id":"81472","imdb_id":"tt0411477","world_art_id":null,"type":"movie","add":"2016-07-26 12:11:52","orig_title":"Hellboy II: The Golden Army","year":"2008-06-28","translations":["Полное дублирование","Авторский (одноголосый закадровый) (Гаврилов Андрей)","Авторский (одноголосый закадровый) (Королёв Владимир)","Авторский (одноголосый закадровый) (Живов Юрий)","Полное дублирование","[EN] Original (English)","Профессиональный (многоголосый закадровый) (Кравец)"],"quality":"bd","translation":"Полное дублирование","update":"2021-06-02 07:48:07","iframe_src":"//2413.svetacdn.in/IAF0wWTdNYZm/movie/4178"},{"id":3993,"title":"Свидетель","kp_id":"5524","imdb_id":"tt0090329","world_art_id":null,"type":"movie","add":"2016-07-16 03:03:11","orig_title":"Witness","year":"1985-02-08","translations":["Профессиональный (двухголосый закадровый)","Профессиональный (двухголосый закадровый) (НТВ)","Авторский (одноголосый закадровый) (Гаврилов Андрей)","Профессиональный (многоголосый закадровый) (СТС)","[EN] Original (English)"],"quality":"bd","translation":"Профессиональный (двухголосый закадровый)","update":"2021-06-02 07:02:18","iframe_src":"//2413.svetacdn.in/IAF0wWTdNYZm/movie/3993"},{"id":1950,"title":"Стэнли и Айрис","kp_id":"1876","imdb_id":"tt0100680","world_art_id":null,"type":"movie","add":"2016-05-07 09:20:20","orig_title":"Stanley & Iris","year":"1990-02-09","translations":["Профессиональный (многоголосый закадровый)","Профессиональный (многоголосый закадровый)","Профессиональный (двухголосый закадровый) (НТВ)","Авторский (одноголосый закадровый) (Гаврилов Андрей)","[EN] Original (English)","Профессиональный (двухголосый закадровый)"],"quality":"webdl","translation":"Профессиональный (многоголосый закадровый)","update":"2021-06-02 06:49:11","iframe_src":"//2413.svetacdn.in/IAF0wWTdNYZm/movie/1950"}],"current_page":566,"first_page_url":"https://videocdn.tv/api/short?limit=100&api_token=6Onb1W1alEUrBcKJZD3GoKBbWyAl2uG2&cache3566=3566&page=1","from":56501,"last_page":715,"last_page_url":"https://videocdn.tv/api/short?limit=100&api_token=6Onb1W1alEUrBcKJZD3GoKBbWyAl2uG2&cache3566=3566&page=715","next_page_url":"https://videocdn.tv/api/short?limit=100&api_token=6Onb1W1alEUrBcKJZD3GoKBbWyAl2uG2&cache3566=3566&page=567","path":"https://videocdn.tv/api/short","per_page":100,"prev_page_url":"https://videocdn.tv/api/short?limit=100&api_token=6Onb1W1alEUrBcKJZD3GoKBbWyAl2uG2&cache3566=3566&page=565","to":56540,"total":71457}