{"result":true,"data":[{"id":43591,"title":"Когда мы снова полюбим","kp_id":"9018","imdb_id":"tt0028029","world_art_id":null,"type":"movie","add":"2020-09-16 12:47:20","orig_title":"Next Time We Love","year":"1936-01-30","translations":["Профессиональный (одноголосый закадровый)"],"quality":"dvdrip","translation":"Профессиональный (одноголосый закадровый)","update":"2020-09-17 05:57:36","iframe_src":"//8332.svetacdn.in/IAF0wWTdNYZm/movie/43591"},{"id":43561,"title":"Маленькие чудеса","kp_id":"581515","imdb_id":"tt5988174","world_art_id":null,"type":"movie","add":"2020-09-15 17:41:10","orig_title":"Malenkie chudesa","year":"1986-03-11","translations":["Оригинальная дорожка"],"quality":"dvdrip","translation":"Оригинальная дорожка","update":"2020-09-17 06:57:16","iframe_src":"//8332.svetacdn.in/IAF0wWTdNYZm/movie/43561"},{"id":43560,"title":"Мамины загадки","kp_id":"669500","imdb_id":null,"world_art_id":null,"type":"movie","add":"2020-09-15 17:35:54","orig_title":"Мамины загадки","year":"1986-01-01","translations":["Оригинальная дорожка"],"quality":"sat","translation":"Оригинальная дорожка","update":"2020-09-17 06:54:01","iframe_src":"//8332.svetacdn.in/IAF0wWTdNYZm/movie/43560"},{"id":43559,"title":"Май-мастеровой, необыкновенная машина и король-вояка","kp_id":"687913","imdb_id":null,"world_art_id":null,"type":"movie","add":"2020-09-15 17:15:19","orig_title":"Май-мастеровой, необыкновенная машина и король-вояка","year":"1971-01-01","translations":["Оригинальная дорожка"],"quality":"dvdrip","translation":"Оригинальная дорожка","update":"2020-09-17 06:53:29","iframe_src":"//8332.svetacdn.in/IAF0wWTdNYZm/movie/43559"},{"id":43558,"title":"Медвежонок Римцимци","kp_id":"622645","imdb_id":"tt2231387","world_art_id":null,"type":"movie","add":"2020-09-15 17:03:50","orig_title":"Medvezhonok Rimtsimtsi","year":"1966-01-01","translations":["Оригинальная дорожка"],"quality":"dvdrip","translation":"Оригинальная дорожка","update":"2020-09-17 06:52:03","iframe_src":"//8332.svetacdn.in/IAF0wWTdNYZm/movie/43558"},{"id":43546,"title":"Над нами не каплет","kp_id":"634227","imdb_id":"tt9198330","world_art_id":null,"type":"movie","add":"2020-09-14 20:57:14","orig_title":"Nad nami ne kaplet","year":"1984-01-01","translations":["Оригинальная дорожка"],"quality":"dvdrip","translation":"Оригинальная дорожка","update":"2020-09-17 06:51:17","iframe_src":"//8332.svetacdn.in/IAF0wWTdNYZm/movie/43546"},{"id":43545,"title":"Находка","kp_id":"489618","imdb_id":"tt6480986","world_art_id":null,"type":"movie","add":"2020-09-14 20:53:14","orig_title":"Nakhodka","year":"1986-01-01","translations":["Оригинальная дорожка"],"quality":"dvdrip","translation":"Оригинальная дорожка","update":"2020-09-17 06:50:22","iframe_src":"//8332.svetacdn.in/IAF0wWTdNYZm/movie/43545"},{"id":43544,"title":"Настоящие друзья","kp_id":"305664","imdb_id":"tt0830598","world_art_id":null,"type":"movie","add":"2020-09-14 20:48:50","orig_title":"Namdvili megobrebi","year":"1976-01-01","translations":["Оригинальная дорожка"],"quality":"sat","translation":"Оригинальная дорожка","update":"2020-09-17 06:49:36","iframe_src":"//8332.svetacdn.in/IAF0wWTdNYZm/movie/43544"},{"id":43540,"title":"Непослушная мама","kp_id":"841503","imdb_id":null,"world_art_id":null,"type":"movie","add":"2020-09-14 19:39:35","orig_title":"Непослушная мама","year":"1989-01-01","translations":["Оригинальная дорожка"],"quality":"sat","translation":"Оригинальная дорожка","update":"2020-09-17 06:48:36","iframe_src":"//8332.svetacdn.in/IAF0wWTdNYZm/movie/43540"},{"id":43539,"title":"Освобожденный Дон Кихот","kp_id":"632486","imdb_id":"tt1927105","world_art_id":null,"type":"movie","add":"2020-09-14 19:35:35","orig_title":"Osvobozhdennyy Don Kikhot","year":"1987-01-01","translations":["Оригинальная дорожка"],"quality":"dvdrip","translation":"Оригинальная дорожка","update":"2020-09-17 06:47:16","iframe_src":"//8332.svetacdn.in/IAF0wWTdNYZm/movie/43539"},{"id":43538,"title":"Пять котов","kp_id":"894036","imdb_id":null,"world_art_id":null,"type":"movie","add":"2020-09-14 19:31:47","orig_title":"Пять котов","year":"1972-01-01","translations":["Оригинальная дорожка"],"quality":"dvdrip","translation":"Оригинальная дорожка","update":"2020-09-17 06:46:22","iframe_src":"//8332.svetacdn.in/IAF0wWTdNYZm/movie/43538"},{"id":43537,"title":"Почтарская сказка","kp_id":"632361","imdb_id":null,"world_art_id":null,"type":"movie","add":"2020-09-14 19:19:47","orig_title":"Почтарская сказка","year":"1978-01-01","translations":["Оригинальная дорожка"],"quality":"dvdrip","translation":"Оригинальная дорожка","update":"2020-09-17 06:45:32","iframe_src":"//8332.svetacdn.in/IAF0wWTdNYZm/movie/43537"},{"id":43536,"title":"Понарошку","kp_id":"649223","imdb_id":"tt6024434","world_art_id":null,"type":"movie","add":"2020-09-14 19:13:10","orig_title":"Ponaroshku","year":"1984-01-01","translations":["Оригинальная дорожка"],"quality":"dvdrip","translation":"Оригинальная дорожка","update":"2020-09-17 06:44:14","iframe_src":"//8332.svetacdn.in/IAF0wWTdNYZm/movie/43536"},{"id":43535,"title":"Поцелуй","kp_id":"490369","imdb_id":null,"world_art_id":null,"type":"movie","add":"2020-09-14 19:09:31","orig_title":"Поцелуй","year":"1989-01-01","translations":["Оригинальная дорожка"],"quality":"sat","translation":"Оригинальная дорожка","update":"2020-09-17 06:43:36","iframe_src":"//8332.svetacdn.in/IAF0wWTdNYZm/movie/43535"},{"id":43533,"title":"Приключения волшебного глобуса, или Проделки ведьмы","kp_id":"602514","imdb_id":"tt5080794","world_art_id":null,"type":"movie","add":"2020-09-14 19:01:00","orig_title":"Priklyucheniya volshebnogo globusa, ili prodelki vedmy","year":"1991-01-01","translations":["Оригинальная дорожка"],"quality":"dvdrip","translation":"Оригинальная дорожка","update":"2020-09-17 06:42:44","iframe_src":"//8332.svetacdn.in/IAF0wWTdNYZm/movie/43533"},{"id":43530,"title":"Приключения Ивашки","kp_id":"1270783","imdb_id":null,"world_art_id":null,"type":"movie","add":"2020-09-14 18:55:59","orig_title":"Приключения Ивашки","year":"1973-01-01","translations":["Оригинальная дорожка"],"quality":"sat","translation":"Оригинальная дорожка","update":"2020-09-17 06:42:02","iframe_src":"//8332.svetacdn.in/IAF0wWTdNYZm/movie/43530"},{"id":43528,"title":"Про мышонка, который хотел стать сильным","kp_id":"540766","imdb_id":"tt6485404","world_art_id":null,"type":"movie","add":"2020-09-14 18:51:01","orig_title":"Pro myshonka, kotoryy khotel stat silnym","year":"1983-01-01","translations":["Оригинальная дорожка"],"quality":"dvdrip","translation":"Оригинальная дорожка","update":"2020-09-17 06:40:40","iframe_src":"//8332.svetacdn.in/IAF0wWTdNYZm/movie/43528"},{"id":43527,"title":"Злостный разбиватель яиц","kp_id":"417632","imdb_id":null,"world_art_id":null,"type":"movie","add":"2020-09-14 18:48:16","orig_title":"Злостный разбиватель яиц","year":"1966-01-01","translations":["Оригинальная дорожка"],"quality":"dvdrip","translation":"Оригинальная дорожка","update":"2020-09-17 06:39:43","iframe_src":"//8332.svetacdn.in/IAF0wWTdNYZm/movie/43527"},{"id":43526,"title":"Про Егора, про ворону","kp_id":"622644","imdb_id":null,"world_art_id":null,"type":"movie","add":"2020-09-14 18:44:57","orig_title":"Про Егора, про ворону","year":"1982-01-01","translations":["Оригинальная дорожка"],"quality":"sat","translation":"Оригинальная дорожка","update":"2020-09-17 06:38:53","iframe_src":"//8332.svetacdn.in/IAF0wWTdNYZm/movie/43526"},{"id":43525,"title":"Стрелочник","kp_id":"633636","imdb_id":"tt6416584","world_art_id":null,"type":"movie","add":"2020-09-14 18:39:29","orig_title":"Strelochnik","year":"1987-01-01","translations":["Оригинальная дорожка"],"quality":"dvdrip","translation":"Оригинальная дорожка","update":"2020-09-17 06:38:21","iframe_src":"//8332.svetacdn.in/IAF0wWTdNYZm/movie/43525"},{"id":796,"title":"Женщина его мечты","kp_id":"984271","imdb_id":"tt5923568","world_art_id":null,"type":"serial","add":"2017-01-02 09:48:50","orig_title":"Zhenshchina ego mechty","year":"2016-10-08","translations":["Оригинальная дорожка"],"seasons_count":1,"episodes_count":4,"episodes":4,"update":"2017-01-03 09:53:40","iframe_src":"//8332.svetacdn.in/IAF0wWTdNYZm/tv-series/796"},{"id":793,"title":"Жемчужная свадьба","kp_id":"1006113","imdb_id":null,"world_art_id":null,"type":"serial","add":"2017-01-02 09:32:24","orig_title":"Жемчужная свадьба","year":"2016-10-15","translations":["Оригинальная дорожка"],"seasons_count":1,"episodes_count":4,"episodes":4,"update":"2017-01-03 09:57:54","iframe_src":"//8332.svetacdn.in/IAF0wWTdNYZm/tv-series/793"},{"id":788,"title":"Разбитые сердца","kp_id":"1002991","imdb_id":null,"world_art_id":null,"type":"serial","add":"2017-01-02 08:12:18","orig_title":"Разбитые сердца","year":"2016-11-13","translations":["Оригинальная дорожка"],"seasons_count":1,"episodes_count":2,"episodes":2,"update":"2017-01-03 09:40:31","iframe_src":"//8332.svetacdn.in/IAF0wWTdNYZm/tv-series/788"},{"id":787,"title":"Мистер Хутен и Леди Александра","kp_id":"992628","imdb_id":"tt5663062","world_art_id":null,"type":"serial","add":"2017-01-02 08:07:25","orig_title":"Hooten & the Lady","year":"2016-09-16","translations":["Профессиональный (многоголосый закадровый) (Jaskier)"],"seasons_count":1,"episodes_count":8,"episodes":8,"update":"2017-01-03 09:49:41","iframe_src":"//8332.svetacdn.in/IAF0wWTdNYZm/tv-series/787"},{"id":784,"title":"Выпивая в одиночку","kp_id":"996650","imdb_id":"tt5950452","world_art_id":null,"type":"serial","add":"2017-01-02 07:22:14","orig_title":"Honsoolnamnyeo","year":"2016-09-05","translations":["Любительский (двухголосый закадровый) (HighHopes)"],"seasons_count":1,"episodes_count":16,"episodes":16,"update":"2017-01-03 05:41:39","iframe_src":"//8332.svetacdn.in/IAF0wWTdNYZm/tv-series/784"},{"id":782,"title":"Лучшая неделя моей жизни","kp_id":"1001703","imdb_id":null,"world_art_id":null,"type":"serial","add":"2017-01-02 07:09:30","orig_title":"Лучшая неделя моей жизни","year":"2016-10-10","translations":["Оригинальная дорожка"],"seasons_count":1,"episodes_count":16,"episodes":16,"update":"2017-01-02 15:00:03","iframe_src":"//8332.svetacdn.in/IAF0wWTdNYZm/tv-series/782"},{"id":781,"title":"Король шоппинга Луи","kp_id":"998790","imdb_id":"tt5994306","world_art_id":null,"type":"serial","add":"2017-01-02 07:02:56","orig_title":"Shopingwang Looi","year":"2016-09-21","translations":["Любительский (двухголосый закадровый) (SoftBox)"],"seasons_count":1,"episodes_count":16,"episodes":16,"update":"2017-01-02 17:09:02","iframe_src":"//8332.svetacdn.in/IAF0wWTdNYZm/tv-series/781"},{"id":778,"title":"Злой город","kp_id":"890386","imdb_id":"tt4428124","world_art_id":null,"type":"serial","add":"2017-01-02 06:52:09","orig_title":"Wicked City","year":"2015-10-27","translations":["Полное дублирование"],"seasons_count":1,"episodes_count":8,"episodes":8,"update":"2017-01-02 12:18:58","iframe_src":"//8332.svetacdn.in/IAF0wWTdNYZm/tv-series/778"},{"id":776,"title":"Выйти замуж любой ценой","kp_id":"1007520","imdb_id":null,"world_art_id":null,"type":"serial","add":"2017-01-02 06:44:11","orig_title":"Выйти замуж любой ценой","year":"2016-11-06","translations":["Оригинальная дорожка"],"seasons_count":1,"episodes_count":4,"episodes":4,"update":"2017-01-02 11:43:59","iframe_src":"//8332.svetacdn.in/IAF0wWTdNYZm/tv-series/776"},{"id":775,"title":"От первого до последнего слова","kp_id":"1006641","imdb_id":null,"world_art_id":null,"type":"serial","add":"2017-01-02 06:41:32","orig_title":"От первого до последнего слова","year":"2016-10-22","translations":["Оригинальная дорожка"],"seasons_count":1,"episodes_count":4,"episodes":4,"update":"2017-01-02 11:37:09","iframe_src":"//8332.svetacdn.in/IAF0wWTdNYZm/tv-series/775"},{"id":774,"title":"Ключ к его сердцу","kp_id":"994664","imdb_id":null,"world_art_id":null,"type":"serial","add":"2017-01-02 06:39:11","orig_title":"Ключ к его сердцу","year":"2016-10-29","translations":["Оригинальная дорожка"],"seasons_count":1,"episodes_count":4,"episodes":4,"update":"2017-01-02 11:30:19","iframe_src":"//8332.svetacdn.in/IAF0wWTdNYZm/tv-series/774"},{"id":773,"title":"Каменное сердце","kp_id":"993554","imdb_id":null,"world_art_id":null,"type":"serial","add":"2017-01-02 06:36:06","orig_title":"Каменное сердце","year":"2016-11-05","translations":["Оригинальная дорожка"],"seasons_count":1,"episodes_count":4,"episodes":4,"update":"2017-01-02 08:05:22","iframe_src":"//8332.svetacdn.in/IAF0wWTdNYZm/tv-series/773"},{"id":772,"title":"Из Сибири с любовью","kp_id":"1007036","imdb_id":null,"world_art_id":null,"type":"serial","add":"2017-01-02 06:32:50","orig_title":"Из Сибири с любовью","year":"2016-10-30","translations":["Оригинальная дорожка"],"seasons_count":1,"episodes_count":4,"episodes":4,"update":"2017-01-02 07:59:50","iframe_src":"//8332.svetacdn.in/IAF0wWTdNYZm/tv-series/772"},{"id":768,"title":"Плохой хороший коп","kp_id":"1007541","imdb_id":null,"world_art_id":null,"type":"serial","add":"2016-12-31 06:21:15","orig_title":"Плохой хороший коп","year":"2016-10-31","translations":["Оригинальная дорожка"],"seasons_count":1,"episodes_count":16,"episodes":16,"update":"2016-12-31 13:38:33","iframe_src":"//8332.svetacdn.in/IAF0wWTdNYZm/tv-series/768"},{"id":767,"title":"Что-то около 1%","kp_id":"1002724","imdb_id":"tt6075098","world_art_id":null,"type":"serial","add":"2016-12-31 06:12:51","orig_title":"1%ui eoddungut","year":"2016-10-05","translations":["Любительский (двухголосый закадровый) (SoftBox)"],"seasons_count":1,"episodes_count":16,"episodes":16,"update":"2017-01-01 18:12:51","iframe_src":"//8332.svetacdn.in/IAF0wWTdNYZm/tv-series/767"},{"id":766,"title":"СуперКопы","kp_id":"970138","imdb_id":null,"world_art_id":null,"type":"serial","add":"2016-12-31 06:02:16","orig_title":"СуперКопы","year":"2016-02-15","translations":["Оригинальная дорожка"],"seasons_count":1,"episodes_count":20,"episodes":20,"update":"2017-01-02 06:29:29","iframe_src":"//8332.svetacdn.in/IAF0wWTdNYZm/tv-series/766"},{"id":764,"title":"Ты заплатишь за всё","kp_id":"803141","imdb_id":null,"world_art_id":null,"type":"serial","add":"2016-12-30 11:42:51","orig_title":"Ты заплатишь за всё","year":"2013-12-14","translations":["Оригинальная дорожка"],"seasons_count":1,"episodes_count":2,"episodes":2,"update":"2017-01-02 15:43:47","iframe_src":"//8332.svetacdn.in/IAF0wWTdNYZm/tv-series/764"},{"id":763,"title":"Если любишь – прости","kp_id":"891353","imdb_id":null,"world_art_id":null,"type":"serial","add":"2016-12-30 11:33:57","orig_title":"Если любишь – прости","year":"2015-02-22","translations":["Оригинальная дорожка"],"seasons_count":1,"episodes_count":2,"episodes":2,"update":"2017-01-02 15:40:24","iframe_src":"//8332.svetacdn.in/IAF0wWTdNYZm/tv-series/763"},{"id":762,"title":"Женщина с лилиями","kp_id":"1007686","imdb_id":null,"world_art_id":null,"type":"serial","add":"2016-12-30 11:30:17","orig_title":"Женщина с лилиями","year":"2016-12-23","translations":["Оригинальная дорожка"],"seasons_count":1,"episodes_count":1,"episodes":1,"update":"2017-01-02 15:36:47","iframe_src":"//8332.svetacdn.in/IAF0wWTdNYZm/tv-series/762"},{"id":759,"title":"Класс","kp_id":"972319","imdb_id":"tt5079788","world_art_id":null,"type":"serial","add":"2016-12-29 19:00:05","orig_title":"Class","year":"2016-10-22","translations":["Профессиональный (многоголосый закадровый) (Jaskier)"],"seasons_count":1,"episodes_count":8,"episodes":8,"update":"2016-12-30 07:34:50","iframe_src":"//8332.svetacdn.in/IAF0wWTdNYZm/tv-series/759"}],"current_page":514,"first_page_url":"https://videocdn.tv/api/short?limit=100&api_token=6Onb1W1alEUrBcKJZD3GoKBbWyAl2uG2&cache3514=3514&page=1","from":51301,"last_page":634,"last_page_url":"https://videocdn.tv/api/short?limit=100&api_token=6Onb1W1alEUrBcKJZD3GoKBbWyAl2uG2&cache3514=3514&page=634","next_page_url":"https://videocdn.tv/api/short?limit=100&api_token=6Onb1W1alEUrBcKJZD3GoKBbWyAl2uG2&cache3514=3514&page=515","path":"https://videocdn.tv/api/short","per_page":100,"prev_page_url":"https://videocdn.tv/api/short?limit=100&api_token=6Onb1W1alEUrBcKJZD3GoKBbWyAl2uG2&cache3514=3514&page=513","to":51340,"total":63326}