{"result":true,"data":[{"id":42413,"title":"Искусство убийства","kp_id":"1205594","imdb_id":"tt9182980","world_art_id":null,"type":"movie","add":"2020-08-11 08:18:04","orig_title":"The Art of Murder","year":"2018-10-05","translations":["Любительский (многоголосый закадровый) (AlphaProject)"],"quality":"webdl","translation":"Любительский (многоголосый закадровый) (AlphaProject)","update":"2020-08-11 14:11:18","iframe_src":"//7043.svetacdn.in/71tsRs29n5tZ/movie/42413"},{"id":42411,"title":"Сувениры","kp_id":"1283681","imdb_id":null,"world_art_id":null,"type":"movie","add":"2020-08-11 08:17:01","orig_title":"Souvenirs","year":"2020-01-01","translations":["Любительский (многоголосый закадровый) (Синема УС)"],"quality":"webdl","translation":"Любительский (многоголосый закадровый) (Синема УС)","update":"2020-08-11 14:09:27","iframe_src":"//7043.svetacdn.in/71tsRs29n5tZ/movie/42411"},{"id":42410,"title":"Улицы Синдиката, Огайо","kp_id":"1072469","imdb_id":"tt6803668","world_art_id":null,"type":"movie","add":"2020-08-11 04:17:10","orig_title":"Streets of Syndicate","year":"2019-04-14","translations":["Любительский (многоголосый закадровый) (Синема УС)"],"quality":"webdl","translation":"Любительский (многоголосый закадровый) (Синема УС)","update":"2020-08-11 08:32:54","iframe_src":"//7043.svetacdn.in/71tsRs29n5tZ/movie/42410"},{"id":42409,"title":"В когтях страха: Хребет-Убийца","kp_id":"1255026","imdb_id":"tt10097958","world_art_id":null,"type":"movie","add":"2020-08-11 04:16:37","orig_title":"Gripped: Climbing the Killer Pillar","year":"2020-08-11","translations":["Любительский (многоголосый закадровый) (AlphaProject)"],"quality":"webdl","translation":"Любительский (многоголосый закадровый) (AlphaProject)","update":"2020-08-11 08:11:53","iframe_src":"//7043.svetacdn.in/71tsRs29n5tZ/movie/42409"},{"id":42408,"title":"В пределах досягаемости","kp_id":"1077792","imdb_id":"tt6863270","world_art_id":null,"type":"movie","add":"2020-08-11 04:15:51","orig_title":"Reaching Distance","year":"2018-10-01","translations":["Любительский (многоголосый закадровый) (AlphaProject)"],"quality":"webdl","translation":"Любительский (многоголосый закадровый) (AlphaProject)","update":"2020-08-11 08:12:27","iframe_src":"//7043.svetacdn.in/71tsRs29n5tZ/movie/42408"},{"id":42407,"title":"Икбал и индийская жемчужина","kp_id":"1144570","imdb_id":"tt8320394","world_art_id":null,"type":"movie","add":"2020-08-11 04:15:12","orig_title":"Iqbal & den indiske juvel","year":"2018-09-20","translations":["Любительский (многоголосый закадровый) (AlphaProject)"],"quality":"bd","translation":"Любительский (многоголосый закадровый) (AlphaProject)","update":"2020-08-11 14:06:50","iframe_src":"//7043.svetacdn.in/71tsRs29n5tZ/movie/42407"},{"id":42406,"title":"Невероятные","kp_id":"1248583","imdb_id":"tt10046694","world_art_id":null,"type":"movie","add":"2020-08-11 04:14:40","orig_title":"Fabuleuses","year":"2019-08-21","translations":["Любительский (многоголосый закадровый) (@MUZOBOZ@)"],"quality":"webdl","translation":"Любительский (многоголосый закадровый) (@MUZOBOZ@)","update":"2020-08-11 14:06:14","iframe_src":"//7043.svetacdn.in/71tsRs29n5tZ/movie/42406"},{"id":42405,"title":"Группа крови","kp_id":"999673","imdb_id":"tt6015410","world_art_id":null,"type":"movie","add":"2020-08-11 04:12:07","orig_title":"Blood Type","year":"2018-05-25","translations":["Любительский (многоголосый закадровый) (Синема УС)"],"quality":"webdl","translation":"Любительский (многоголосый закадровый) (Синема УС)","update":"2020-08-11 08:32:09","iframe_src":"//7043.svetacdn.in/71tsRs29n5tZ/movie/42405"},{"id":42404,"title":"Феи: Тайна страны драконов","kp_id":"1301779","imdb_id":"tt7063304","world_art_id":null,"type":"movie","add":"2020-08-11 04:11:27","orig_title":"Bayala: A Magical Adventure","year":"2019-05-01","translations":["Любительский (многоголосый закадровый) (@MUZOBOZ@)"],"quality":"webdl","translation":"Любительский (многоголосый закадровый) (@MUZOBOZ@)","update":"2020-08-11 10:03:43","iframe_src":"//7043.svetacdn.in/71tsRs29n5tZ/movie/42404"},{"id":42400,"title":"Блеск твоих глаз","kp_id":"1216074","imdb_id":"tt8477336","world_art_id":null,"type":"movie","add":"2020-08-10 08:25:11","orig_title":"Shine Your Eyes","year":"2020-02-21","translations":["Любительский (многоголосый закадровый) (Синема УС)"],"quality":"webdl","translation":"Любительский (многоголосый закадровый) (Синема УС)","update":"2020-08-10 19:17:18","iframe_src":"//7043.svetacdn.in/71tsRs29n5tZ/movie/42400"},{"id":42399,"title":"Сушняк 2: Голод","kp_id":"1304663","imdb_id":"tt10929084","world_art_id":null,"type":"movie","add":"2020-08-10 08:13:59","orig_title":"Parched 2: Hangry","year":"2019-10-31","translations":["Любительский (многоголосый закадровый) (Синема УС)"],"quality":"webdl","translation":"Любительский (многоголосый закадровый) (Синема УС)","update":"2020-08-10 19:15:19","iframe_src":"//7043.svetacdn.in/71tsRs29n5tZ/movie/42399"},{"id":42398,"title":"Легенда Карпат","kp_id":"1072227","imdb_id":null,"world_art_id":null,"type":"movie","add":"2020-08-10 08:05:47","orig_title":"Легенда Карпат","year":"2018-02-14","translations":["Любительский (многоголосый закадровый) (@MUZOBOZ@)"],"quality":"webdl","translation":"Любительский (многоголосый закадровый) (@MUZOBOZ@)","update":"2020-08-11 02:07:38","iframe_src":"//7043.svetacdn.in/71tsRs29n5tZ/movie/42398"},{"id":42397,"title":"Детективное агентство Лассе и Майя: Тайна ограбления поезда","kp_id":"1254971","imdb_id":"tt10039354","world_art_id":null,"type":"movie","add":"2020-08-10 08:02:08","orig_title":"LasseMajas detektivbyrå - Tågrånarens hemlighet","year":"2020-02-07","translations":["Любительский (многоголосый закадровый) (Синема УС)"],"quality":"bd","translation":"Любительский (многоголосый закадровый) (Синема УС)","update":"2020-08-10 19:14:30","iframe_src":"//7043.svetacdn.in/71tsRs29n5tZ/movie/42397"},{"id":42396,"title":"Конверт","kp_id":"1168520","imdb_id":"tt8619838","world_art_id":null,"type":"movie","add":"2020-08-10 07:58:19","orig_title":"Envelop(e)","year":"2020-07-10","translations":["Любительский (многоголосый закадровый) (AlphaProject)"],"quality":"webdl","translation":"Любительский (многоголосый закадровый) (AlphaProject)","update":"2020-08-10 19:18:15","iframe_src":"//7043.svetacdn.in/71tsRs29n5tZ/movie/42396"},{"id":42395,"title":"Львы-холостяки","kp_id":"1019414","imdb_id":"tt6121592","world_art_id":null,"type":"movie","add":"2020-08-10 07:54:24","orig_title":"Bachelor Lions","year":"2018-03-21","translations":["Любительский (многоголосый закадровый) (Синема УС)"],"quality":"webdl","translation":"Любительский (многоголосый закадровый) (Синема УС)","update":"2020-08-10 19:13:46","iframe_src":"//7043.svetacdn.in/71tsRs29n5tZ/movie/42395"},{"id":42394,"title":"Ход конём","kp_id":"1302885","imdb_id":"tt8707574","world_art_id":null,"type":"movie","add":"2020-08-10 07:49:10","orig_title":"A Knight's Tour","year":"2018-01-01","translations":["Любительский (многоголосый закадровый) (Синема УС)"],"quality":"webdl","translation":"Любительский (многоголосый закадровый) (Синема УС)","update":"2020-08-10 19:13:13","iframe_src":"//7043.svetacdn.in/71tsRs29n5tZ/movie/42394"},{"id":42393,"title":"Один злой чернокожий","kp_id":"1201842","imdb_id":"tt9025208","world_art_id":null,"type":"movie","add":"2020-08-10 07:42:32","orig_title":"1 Angry Black Man","year":"2018-08-02","translations":["Любительский (многоголосый закадровый) (Синема УС)"],"quality":"webdl","translation":"Любительский (многоголосый закадровый) (Синема УС)","update":"2020-08-10 19:11:24","iframe_src":"//7043.svetacdn.in/71tsRs29n5tZ/movie/42393"},{"id":42392,"title":"Шаг за шагом","kp_id":"1263614","imdb_id":"tt10276470","world_art_id":null,"type":"movie","add":"2020-08-10 07:16:33","orig_title":"Work It","year":"2020-08-07","translations":["Любительский (многоголосый закадровый) (@MUZOBOZ@)"],"quality":"webdl","translation":"Любительский (многоголосый закадровый) (@MUZOBOZ@)","update":"2020-08-10 19:09:44","iframe_src":"//7043.svetacdn.in/71tsRs29n5tZ/movie/42392"},{"id":42391,"title":"Веселые гастроли на Черном море","kp_id":"445102","imdb_id":null,"world_art_id":null,"type":"movie","add":"2020-08-10 07:12:22","orig_title":"Веселые гастроли на Черном море","year":"2020-08-06","translations":["Оригинальная дорожка"],"quality":"webdl","translation":"Оригинальная дорожка","update":"2020-08-10 17:49:35","iframe_src":"//7043.svetacdn.in/71tsRs29n5tZ/movie/42391"},{"id":42360,"title":"Как сымитировать войну","kp_id":"1138637","imdb_id":"tt4665586","world_art_id":null,"type":"movie","add":"2020-08-07 20:07:32","orig_title":"How to Fake a War","year":"2019-06-22","translations":["Любительский (многоголосый закадровый) (Синема УС)"],"quality":"webdl","translation":"Любительский (многоголосый закадровый) (Синема УС)","update":"2020-08-10 15:32:13","iframe_src":"//7043.svetacdn.in/71tsRs29n5tZ/movie/42360"},{"id":747,"title":"Жена напрокат","kp_id":"1008343","imdb_id":null,"world_art_id":null,"type":"serial","add":"2016-12-27 09:40:10","orig_title":"Жена напрокат","year":"2016-12-18","translations":["Оригинальная дорожка"],"seasons_count":1,"episodes_count":4,"episodes":4,"update":"2016-12-27 16:10:38","iframe_src":"//7043.svetacdn.in/71tsRs29n5tZ/tv-series/747"},{"id":744,"title":"Первокурсница","kp_id":"1008382","imdb_id":null,"world_art_id":null,"type":"serial","add":"2016-12-27 07:58:51","orig_title":"Первокурсница","year":"2016-12-17","translations":["Оригинальная дорожка"],"seasons_count":1,"episodes_count":4,"episodes":4,"update":"2016-12-27 13:25:01","iframe_src":"//7043.svetacdn.in/71tsRs29n5tZ/tv-series/744"},{"id":743,"title":"За лучшей жизнью","kp_id":"1007985","imdb_id":null,"world_art_id":null,"type":"serial","add":"2016-12-27 07:45:37","orig_title":"За лучшей жизнью","year":"2016-12-03","translations":["Оригинальная дорожка"],"seasons_count":1,"episodes_count":2,"episodes":2,"update":"2016-12-27 10:49:08","iframe_src":"//7043.svetacdn.in/71tsRs29n5tZ/tv-series/743"},{"id":742,"title":"Вероника не хочет умирать","kp_id":"1005064","imdb_id":null,"world_art_id":null,"type":"serial","add":"2016-12-27 07:43:24","orig_title":"Вероника не хочет умирать","year":"2016-12-10","translations":["Оригинальная дорожка"],"seasons_count":1,"episodes_count":4,"episodes":4,"update":"2016-12-27 13:53:28","iframe_src":"//7043.svetacdn.in/71tsRs29n5tZ/tv-series/742"},{"id":741,"title":"Коварные игры","kp_id":"1008136","imdb_id":null,"world_art_id":null,"type":"serial","add":"2016-12-27 07:36:04","orig_title":"Коварные игры","year":"2016-12-10","translations":["Оригинальная дорожка"],"seasons_count":1,"episodes_count":2,"episodes":2,"update":"2016-12-27 12:43:52","iframe_src":"//7043.svetacdn.in/71tsRs29n5tZ/tv-series/741"},{"id":739,"title":"Григорий Р.","kp_id":"768068","imdb_id":"tt4121340","world_art_id":null,"type":"serial","add":"2016-12-27 07:31:45","orig_title":"Grigoriy R.","year":"2014-09-11","translations":["Оригинальная дорожка"],"seasons_count":1,"episodes_count":8,"episodes":8,"update":"2016-12-27 16:13:18","iframe_src":"//7043.svetacdn.in/71tsRs29n5tZ/tv-series/739"},{"id":736,"title":"Пропавший жених","kp_id":"893135","imdb_id":null,"world_art_id":null,"type":"serial","add":"2016-12-26 09:14:34","orig_title":"Пропавший жених","year":"2015-03-06","translations":["Оригинальная дорожка"],"seasons_count":1,"episodes_count":2,"episodes":2,"update":"2016-12-27 06:10:55","iframe_src":"//7043.svetacdn.in/71tsRs29n5tZ/tv-series/736"},{"id":735,"title":"Джокер. Возмездие","kp_id":"913059","imdb_id":null,"world_art_id":null,"type":"serial","add":"2016-12-26 09:09:48","orig_title":"Джокер. Возмездие","year":"2015-01-09","translations":["Оригинальная дорожка"],"seasons_count":1,"episodes_count":2,"episodes":2,"update":"2016-12-26 13:29:10","iframe_src":"//7043.svetacdn.in/71tsRs29n5tZ/tv-series/735"},{"id":734,"title":"Снайпер 2: Тунгус","kp_id":"648932","imdb_id":null,"world_art_id":null,"type":"serial","add":"2016-12-26 07:09:22","orig_title":"Снайпер 2: Тунгус","year":"2012-05-09","translations":["Оригинальная дорожка"],"seasons_count":1,"episodes_count":4,"episodes":4,"update":"2016-12-26 11:03:44","iframe_src":"//7043.svetacdn.in/71tsRs29n5tZ/tv-series/734"},{"id":733,"title":"Сразу после сотворения мира","kp_id":"815231","imdb_id":null,"world_art_id":null,"type":"serial","add":"2016-12-26 07:03:56","orig_title":"Сразу после сотворения мира","year":"2013-12-07","translations":["Оригинальная дорожка"],"seasons_count":1,"episodes_count":4,"episodes":4,"update":"2016-12-26 11:22:33","iframe_src":"//7043.svetacdn.in/71tsRs29n5tZ/tv-series/733"},{"id":731,"title":"Жребий судьбы","kp_id":"843687","imdb_id":"tt5169592","world_art_id":null,"type":"serial","add":"2016-12-24 17:28:41","orig_title":"Zhrebiy sud'by","year":"2015-03-27","translations":["Оригинальная дорожка"],"seasons_count":1,"episodes_count":4,"episodes":4,"update":"2016-12-25 16:58:11","iframe_src":"//7043.svetacdn.in/71tsRs29n5tZ/tv-series/731"},{"id":730,"title":"Дракула","kp_id":"698086","imdb_id":"tt2296682","world_art_id":null,"type":"serial","add":"2016-12-23 11:31:07","orig_title":"Dracula","year":"2013-10-25","translations":["Профессиональный (многоголосый закадровый) (LostFilm)"],"seasons_count":1,"episodes_count":10,"episodes":10,"update":"2016-12-26 11:46:08","iframe_src":"//7043.svetacdn.in/71tsRs29n5tZ/tv-series/730"},{"id":729,"title":"Отчаянные меры","kp_id":"661005","imdb_id":"tt2172103","world_art_id":null,"type":"serial","add":"2016-12-23 11:17:25","orig_title":"Last Resort","year":"2012-09-27","translations":["Профессиональный (многоголосый закадровый) (LostFilm)"],"seasons_count":1,"episodes_count":13,"episodes":13,"update":"2016-12-26 08:17:36","iframe_src":"//7043.svetacdn.in/71tsRs29n5tZ/tv-series/729"},{"id":728,"title":"Клондайк","kp_id":"748140","imdb_id":"tt2761630","world_art_id":null,"type":"serial","add":"2016-12-23 11:13:26","orig_title":"Klondike","year":"2014-01-20","translations":["Профессиональный (многоголосый закадровый) (LostFilm)"],"seasons_count":1,"episodes_count":6,"episodes":6,"update":"2016-12-27 10:12:21","iframe_src":"//7043.svetacdn.in/71tsRs29n5tZ/tv-series/728"},{"id":727,"title":"Камелот","kp_id":"540854","imdb_id":"tt1672189","world_art_id":null,"type":"serial","add":"2016-12-23 11:05:44","orig_title":"Camelot","year":"2011-02-25","translations":["Профессиональный (многоголосый закадровый) (LostFilm)"],"seasons_count":1,"episodes_count":10,"episodes":10,"update":"2016-12-26 06:21:07","iframe_src":"//7043.svetacdn.in/71tsRs29n5tZ/tv-series/727"},{"id":726,"title":"Нити судьбы","kp_id":"1007931","imdb_id":null,"world_art_id":null,"type":"serial","add":"2016-12-23 09:18:08","orig_title":"Нити судьбы","year":"2016-11-21","translations":["Оригинальная дорожка"],"seasons_count":1,"episodes_count":40,"episodes":40,"update":"2016-12-26 06:01:24","iframe_src":"//7043.svetacdn.in/71tsRs29n5tZ/tv-series/726"},{"id":723,"title":"Каприка","kp_id":"460138","imdb_id":"tt0799862","world_art_id":null,"type":"serial","add":"2016-12-22 15:27:37","orig_title":"Caprica","year":"2010-01-22","translations":["Профессиональный (многоголосый закадровый) (LostFilm)"],"seasons_count":1,"episodes_count":18,"episodes":18,"update":"2016-12-23 09:49:30","iframe_src":"//7043.svetacdn.in/71tsRs29n5tZ/tv-series/723"},{"id":709,"title":"Выйти замуж за Пушкина","kp_id":"982796","imdb_id":null,"world_art_id":null,"type":"serial","add":"2016-12-20 05:33:39","orig_title":"Выйти замуж за Пушкина","year":"2016-12-19","translations":["Оригинальная дорожка"],"seasons_count":1,"episodes_count":8,"episodes":8,"update":"2016-12-23 12:53:54","iframe_src":"//7043.svetacdn.in/71tsRs29n5tZ/tv-series/709"},{"id":707,"title":"Псевдокот","kp_id":"988057","imdb_id":"tt5717906","world_art_id":null,"type":"serial","add":"2016-12-19 06:54:58","orig_title":"Counterfeit Cat","year":"2016-05-12","translations":["Любительский (одноголосый закадровый)"],"seasons_count":1,"episodes_count":2,"episodes":2,"update":"2016-12-26 06:50:32","iframe_src":"//7043.svetacdn.in/71tsRs29n5tZ/tv-series/707"},{"id":627,"title":"Королевы крика","kp_id":"866007","imdb_id":"tt4145384","world_art_id":null,"type":"serial","add":"2016-11-25 06:33:58","orig_title":"Scream Queens","year":"2015-06-12","translations":["Профессиональный (многоголосый закадровый) (NewStudio)"],"seasons_count":2,"episodes_count":22,"episodes":10,"update":"2016-12-27 10:32:18","iframe_src":"//7043.svetacdn.in/71tsRs29n5tZ/tv-series/627"}],"current_page":498,"first_page_url":"https://videocdn.tv/api/short?limit=100&api_token=EnbO9h8pv1VyjbCJhg0WM9nG259n7mtz&cache3498=3498&page=1","from":49701,"last_page":618,"last_page_url":"https://videocdn.tv/api/short?limit=100&api_token=EnbO9h8pv1VyjbCJhg0WM9nG259n7mtz&cache3498=3498&page=618","next_page_url":"https://videocdn.tv/api/short?limit=100&api_token=EnbO9h8pv1VyjbCJhg0WM9nG259n7mtz&cache3498=3498&page=499","path":"https://videocdn.tv/api/short","per_page":100,"prev_page_url":"https://videocdn.tv/api/short?limit=100&api_token=EnbO9h8pv1VyjbCJhg0WM9nG259n7mtz&cache3498=3498&page=497","to":49740,"total":61769}