{"result":true,"data":[{"id":50059,"title":"Бродяга","kp_id":"2158","imdb_id":"tt0006177","world_art_id":null,"type":"movie","add":"2021-05-03 05:24:50","orig_title":"The Tramp","year":"1915-04-12","translations":["[EN] Original (English)"],"quality":"bd","translation":"[EN] Original (English)","update":"2021-05-03 06:47:15","iframe_src":"//83.svetacdn.in/PfJ50H0ZBPg3/movie/50059"},{"id":50058,"title":"Ночь напролет","kp_id":"2162","imdb_id":"tt0005810","world_art_id":null,"type":"movie","add":"2021-05-03 05:21:41","orig_title":"A Night Out","year":"1915-02-15","translations":["[EN] Original (English)"],"quality":"bd","translation":"[EN] Original (English)","update":"2021-05-03 06:48:43","iframe_src":"//83.svetacdn.in/PfJ50H0ZBPg3/movie/50058"},{"id":50056,"title":"Чемпион","kp_id":"2161","imdb_id":"tt0005074","world_art_id":null,"type":"movie","add":"2021-05-02 15:10:47","orig_title":"The Champion","year":"1915-03-11","translations":["[EN] Original (English)"],"quality":"bd","translation":"[EN] Original (English)","update":"2021-05-03 06:50:48","iframe_src":"//83.svetacdn.in/PfJ50H0ZBPg3/movie/50056"},{"id":50055,"title":"Граф","kp_id":"2142","imdb_id":"tt0006548","world_art_id":null,"type":"movie","add":"2021-05-02 15:05:46","orig_title":"The Count","year":"1916-09-04","translations":["[EN] Original (English)"],"quality":"bd","translation":"[EN] Original (English)","update":"2021-05-03 06:52:20","iframe_src":"//83.svetacdn.in/PfJ50H0ZBPg3/movie/50055"},{"id":50054,"title":"Пожарный","kp_id":"2145","imdb_id":"tt0006684","world_art_id":null,"type":"movie","add":"2021-05-02 15:04:44","orig_title":"The Fireman","year":"1916-06-12","translations":["[EN] Original (English)"],"quality":"bd","translation":"[EN] Original (English)","update":"2021-05-03 06:49:36","iframe_src":"//83.svetacdn.in/PfJ50H0ZBPg3/movie/50054"},{"id":50050,"title":"Пиф-Паф","kp_id":null,"imdb_id":"tt7768544","world_art_id":null,"type":"movie","add":"2021-05-02 11:33:28","orig_title":"Bang! Bang!","year":"2020-10-23","translations":["Любительский (многоголосый закадровый) (AlphaProject)"],"quality":"webdl","translation":"Любительский (многоголосый закадровый) (AlphaProject)","update":"2021-05-03 06:57:33","iframe_src":"//83.svetacdn.in/PfJ50H0ZBPg3/movie/50050"},{"id":50049,"title":"Золотая рука","kp_id":null,"imdb_id":"tt9572534","world_art_id":null,"type":"movie","add":"2021-05-02 11:29:45","orig_title":"Golden Arm","year":"2020-10-15","translations":["Любительский (многоголосый закадровый) (AlphaProject)"],"quality":"webdl","translation":"Любительский (многоголосый закадровый) (AlphaProject)","update":"2021-05-03 06:58:09","iframe_src":"//83.svetacdn.in/PfJ50H0ZBPg3/movie/50049"},{"id":50048,"title":"Трубопровод","kp_id":"1093189","imdb_id":"tt6655214","world_art_id":null,"type":"movie","add":"2021-05-02 11:25:47","orig_title":"Pipeline","year":"2020-01-01","translations":["Любительский (многоголосый закадровый) (AlphaProject)"],"quality":"webdl","translation":"Любительский (многоголосый закадровый) (AlphaProject)","update":"2021-05-03 06:55:06","iframe_src":"//83.svetacdn.in/PfJ50H0ZBPg3/movie/50048"},{"id":50046,"title":"Бродяга-музыкант","kp_id":"2144","imdb_id":"tt0007507","world_art_id":null,"type":"movie","add":"2021-05-02 08:47:01","orig_title":"The Vagabond","year":"1916-07-10","translations":["[EN] Original (English)"],"quality":"bd","translation":"[EN] Original (English)","update":"2021-05-03 06:53:49","iframe_src":"//83.svetacdn.in/PfJ50H0ZBPg3/movie/50046"},{"id":50044,"title":"Искатель приключений","kp_id":"2134","imdb_id":"tt0007613","world_art_id":null,"type":"movie","add":"2021-05-02 08:38:32","orig_title":"The Adventurer","year":"1917-10-22","translations":["[EN] Original (English)"],"quality":"bd","translation":"[EN] Original (English)","update":"2021-05-03 06:55:00","iframe_src":"//83.svetacdn.in/PfJ50H0ZBPg3/movie/50044"},{"id":50043,"title":"Ссудная лавка","kp_id":"2141","imdb_id":"tt0007162","world_art_id":null,"type":"movie","add":"2021-05-02 08:24:58","orig_title":"The Pawnshop","year":"1916-10-02","translations":["[EN] Original (English)"],"quality":"bd","translation":"[EN] Original (English)","update":"2021-05-03 06:55:51","iframe_src":"//83.svetacdn.in/PfJ50H0ZBPg3/movie/50043"},{"id":50042,"title":"Каток","kp_id":"2138","imdb_id":"tt0007264","world_art_id":null,"type":"movie","add":"2021-05-02 08:23:40","orig_title":"The Rink","year":"1916-12-04","translations":["[EN] Original (English)"],"quality":"bd","translation":"[EN] Original (English)","update":"2021-05-03 06:56:53","iframe_src":"//83.svetacdn.in/PfJ50H0ZBPg3/movie/50042"},{"id":50037,"title":"Иммигрант","kp_id":"2135","imdb_id":"tt0008133","world_art_id":null,"type":"movie","add":"2021-05-01 17:13:19","orig_title":"The Immigrant","year":"1917-06-17","translations":["[EN] Original (English)"],"quality":"bd","translation":"[EN] Original (English)","update":"2021-05-03 06:57:45","iframe_src":"//83.svetacdn.in/PfJ50H0ZBPg3/movie/50037"},{"id":50036,"title":"Исцеление","kp_id":"2136","imdb_id":"tt0007832","world_art_id":null,"type":"movie","add":"2021-05-01 17:02:02","orig_title":"The Cure","year":"1917-04-16","translations":["[EN] Original (English)"],"quality":"bd","translation":"[EN] Original (English)","update":"2021-05-03 06:58:20","iframe_src":"//83.svetacdn.in/PfJ50H0ZBPg3/movie/50036"},{"id":50018,"title":"Обезьяна против монстра","kp_id":null,"imdb_id":"tt14516188","world_art_id":null,"type":"movie","add":"2021-04-30 14:13:43","orig_title":"Ape vs. Monster","year":"2021-01-01","translations":["Любительский (многоголосый закадровый) (Синема УС)","[EN] Original (English)"],"quality":"webdl","translation":"Любительский (многоголосый закадровый) (Синема УС)","update":"2021-05-03 07:35:43","iframe_src":"//83.svetacdn.in/PfJ50H0ZBPg3/movie/50018"},{"id":49970,"title":"Плохой колдун","kp_id":"1181810","imdb_id":"tt8782956","world_art_id":null,"type":"movie","add":"2021-04-28 09:54:35","orig_title":"Bad Witch","year":"2021-04-27","translations":["Любительский (многоголосый закадровый) (Синема УС)","[EN] Original (English)"],"quality":"webdl","translation":"Любительский (многоголосый закадровый) (Синема УС)","update":"2021-05-03 07:51:46","iframe_src":"//83.svetacdn.in/PfJ50H0ZBPg3/movie/49970"},{"id":49962,"title":"Скрытая истина","kp_id":"1268386","imdb_id":"tt10368680","world_art_id":null,"type":"movie","add":"2021-04-28 08:48:02","orig_title":"Below the Fold","year":"2021-04-13","translations":["Любительский (многоголосый закадровый) (@MUZOBOZ@)","[EN] Original (English)"],"quality":"webdl","translation":"Любительский (многоголосый закадровый) (@MUZOBOZ@)","update":"2021-05-03 07:49:53","iframe_src":"//83.svetacdn.in/PfJ50H0ZBPg3/movie/49962"},{"id":49515,"title":"Отель инферно 3: Замок криков","kp_id":"1101109","imdb_id":"tt7612146","world_art_id":null,"type":"movie","add":"2021-04-11 17:03:30","orig_title":"Hotel Inferno 3: The Castle of Screams","year":"2021-01-27","translations":["Любительский (двухголосый закадровый) (Колобок)","[EN] Original (English)"],"quality":"webdl","translation":"Любительский (двухголосый закадровый) (Колобок)","update":"2021-05-03 07:46:59","iframe_src":"//83.svetacdn.in/PfJ50H0ZBPg3/movie/49515"},{"id":49125,"title":"Нет этим улицам покоя","kp_id":"1248788","imdb_id":"tt9893266","world_art_id":null,"type":"movie","add":"2021-03-26 21:04:25","orig_title":"These Streets We Haunt","year":"2021-03-24","translations":["Любительский (многоголосый закадровый) (Синема УС)","[EN] Original (English)"],"quality":"webdl","translation":"Любительский (многоголосый закадровый) (Синема УС)","update":"2021-05-03 07:47:47","iframe_src":"//83.svetacdn.in/PfJ50H0ZBPg3/movie/49125"},{"id":1372,"title":"Женщина в беде 4","kp_id":"961722","imdb_id":null,"world_art_id":null,"type":"serial","add":"2017-07-06 05:51:54","orig_title":"Женщина в беде 4","year":"2017-05-27","translations":["Оригинальная дорожка"],"seasons_count":1,"episodes_count":4,"episodes":4,"update":"2017-07-07 10:21:34","iframe_src":"//83.svetacdn.in/PfJ50H0ZBPg3/tv-series/1372"},{"id":1371,"title":"Женщина в беде 3","kp_id":"961721","imdb_id":null,"world_art_id":null,"type":"serial","add":"2017-07-06 05:49:57","orig_title":"Женщина в беде 3","year":"2017-05-20","translations":["Оригинальная дорожка"],"seasons_count":1,"episodes_count":4,"episodes":4,"update":"2017-07-07 08:59:05","iframe_src":"//83.svetacdn.in/PfJ50H0ZBPg3/tv-series/1371"},{"id":1369,"title":"Женщина в беде 2","kp_id":"842591","imdb_id":null,"world_art_id":null,"type":"serial","add":"2017-07-06 05:29:20","orig_title":"Женщина в беде 2","year":"2015-04-18","translations":["Оригинальная дорожка"],"seasons_count":1,"episodes_count":4,"episodes":4,"update":"2017-07-07 08:53:18","iframe_src":"//83.svetacdn.in/PfJ50H0ZBPg3/tv-series/1369"},{"id":1365,"title":"Сила Веры","kp_id":"763547","imdb_id":null,"world_art_id":null,"type":"serial","add":"2017-07-06 04:46:50","orig_title":"Сила Веры","year":"2013-05-18","translations":["Оригинальная дорожка"],"seasons_count":1,"episodes_count":2,"episodes":2,"update":"2017-07-06 11:45:11","iframe_src":"//83.svetacdn.in/PfJ50H0ZBPg3/tv-series/1365"},{"id":1364,"title":"Предельная глубина","kp_id":"839266","imdb_id":null,"world_art_id":null,"type":"serial","add":"2017-07-06 04:34:33","orig_title":"Предельная глубина","year":"2014-04-16","translations":["Оригинальная дорожка"],"seasons_count":1,"episodes_count":4,"episodes":4,"update":"2017-07-06 12:29:32","iframe_src":"//83.svetacdn.in/PfJ50H0ZBPg3/tv-series/1364"},{"id":1363,"title":"Лектор","kp_id":"532874","imdb_id":"tt1687471","world_art_id":null,"type":"serial","add":"2017-07-06 04:30:05","orig_title":"Lektor","year":"2011-10-30","translations":["Оригинальная дорожка"],"seasons_count":1,"episodes_count":8,"episodes":8,"update":"2017-07-06 11:40:11","iframe_src":"//83.svetacdn.in/PfJ50H0ZBPg3/tv-series/1363"},{"id":1359,"title":"За пределами","kp_id":"799433","imdb_id":"tt3155320","world_art_id":null,"type":"serial","add":"2017-07-05 10:43:25","orig_title":"Extant","year":"2014-07-09","translations":["Профессиональный (многоголосый закадровый) (LostFilm)"],"seasons_count":2,"episodes_count":26,"episodes":13,"update":"2017-07-07 09:37:43","iframe_src":"//83.svetacdn.in/PfJ50H0ZBPg3/tv-series/1359"},{"id":1357,"title":"Уилфред","kp_id":"558127","imdb_id":"tt1703925","world_art_id":null,"type":"serial","add":"2017-07-04 09:16:29","orig_title":"Wilfred","year":"2011-06-23","translations":["Профессиональный (двухголосый закадровый) (Кубик в Кубе)"],"seasons_count":4,"episodes_count":49,"episodes":10,"update":"2017-07-06 11:15:57","iframe_src":"//83.svetacdn.in/PfJ50H0ZBPg3/tv-series/1357"},{"id":1354,"title":"Три дороги","kp_id":"961717","imdb_id":"tt5564504","world_art_id":null,"type":"serial","add":"2017-07-04 05:12:43","orig_title":"Tree Dorogy","year":"2016-01-01","translations":["Оригинальная дорожка"],"seasons_count":1,"episodes_count":4,"episodes":4,"update":"2017-07-05 06:06:40","iframe_src":"//83.svetacdn.in/PfJ50H0ZBPg3/tv-series/1354"},{"id":1351,"title":"Любовь говорит","kp_id":"933352","imdb_id":"tt5088016","world_art_id":null,"type":"serial","add":"2017-07-03 13:07:28","orig_title":"Lyubov govorit","year":"2015-09-30","translations":["Оригинальная дорожка"],"seasons_count":1,"episodes_count":4,"episodes":4,"update":"2017-07-06 12:24:19","iframe_src":"//83.svetacdn.in/PfJ50H0ZBPg3/tv-series/1351"},{"id":1349,"title":"Константин","kp_id":"822704","imdb_id":"tt3489184","world_art_id":null,"type":"serial","add":"2017-07-03 09:57:31","orig_title":"Constantine","year":"2014-10-24","translations":["Профессиональный (многоголосый закадровый) (LostFilm)"],"seasons_count":1,"episodes_count":13,"episodes":13,"update":"2017-07-05 06:13:18","iframe_src":"//83.svetacdn.in/PfJ50H0ZBPg3/tv-series/1349"},{"id":1347,"title":"Тёмный мир: Равновесие","kp_id":"682079","imdb_id":"tt3716168","world_art_id":null,"type":"serial","add":"2017-07-02 09:01:19","orig_title":"Temnyy mir: Ravnovesie","year":"2014-05-12","translations":["Оригинальная дорожка"],"seasons_count":1,"episodes_count":12,"episodes":12,"update":"2017-07-04 10:57:22","iframe_src":"//83.svetacdn.in/PfJ50H0ZBPg3/tv-series/1347"},{"id":1345,"title":"Цыганка","kp_id":"972838","imdb_id":"tt5503718","world_art_id":null,"type":"serial","add":"2017-07-02 07:54:26","orig_title":"Gypsy","year":"2017-06-30","translations":["Любительский (двухголосый закадровый) (Sunshine Studio)"],"seasons_count":1,"episodes_count":10,"episodes":10,"update":"2017-07-03 06:50:29","iframe_src":"//83.svetacdn.in/PfJ50H0ZBPg3/tv-series/1345"},{"id":1343,"title":"Жизнь после людей","kp_id":"470145","imdb_id":"tt1433058","world_art_id":null,"type":"serial","add":"2017-06-30 05:51:52","orig_title":"Life After People","year":"2009-04-21","translations":["Профессиональный (двухголосый закадровый)"],"seasons_count":1,"episodes_count":10,"episodes":10,"update":"2017-07-03 05:28:57","iframe_src":"//83.svetacdn.in/PfJ50H0ZBPg3/tv-series/1343"},{"id":1342,"title":"Круг","kp_id":"1038281","imdb_id":"tt6666218","world_art_id":null,"type":"serial","add":"2017-06-30 05:36:31","orig_title":"Sseokeul","year":"2017-05-22","translations":["Любительский (двухголосый закадровый) (SoftBox)"],"seasons_count":1,"episodes_count":12,"episodes":12,"update":"2017-06-30 12:46:23","iframe_src":"//83.svetacdn.in/PfJ50H0ZBPg3/tv-series/1342"},{"id":1341,"title":"Просто парочка","kp_id":null,"imdb_id":"tt6642842","world_art_id":null,"type":"serial","add":"2017-06-30 05:25:39","orig_title":"Just A Couple","year":"2017-03-09","translations":["Любительский (двухголосый закадровый) (Hamster Studio)"],"seasons_count":1,"episodes_count":6,"episodes":6,"update":"2017-06-30 12:10:59","iframe_src":"//83.svetacdn.in/PfJ50H0ZBPg3/tv-series/1341"},{"id":1322,"title":"Розыск 3","kp_id":"837657","imdb_id":"tt5038390","world_art_id":null,"type":"serial","add":"2017-06-15 18:11:15","orig_title":"Rozysk 3","year":"2015-01-01","translations":["Оригинальная дорожка"],"seasons_count":1,"episodes_count":16,"episodes":16,"update":"2017-07-05 11:18:01","iframe_src":"//83.svetacdn.in/PfJ50H0ZBPg3/tv-series/1322"},{"id":1272,"title":"Акватория","kp_id":"1045466","imdb_id":null,"world_art_id":null,"type":"serial","add":"2017-05-30 11:17:47","orig_title":"Акватория","year":"2017-05-29","translations":["Оригинальная дорожка"],"seasons_count":1,"episodes_count":40,"episodes":40,"update":"2017-07-03 05:07:53","iframe_src":"//83.svetacdn.in/PfJ50H0ZBPg3/tv-series/1272"},{"id":1196,"title":"Измерение 404","kp_id":"1042181","imdb_id":"tt5798078","world_art_id":null,"type":"serial","add":"2017-04-18 07:50:32","orig_title":"Dimension 404","year":"2017-04-04","translations":["Профессиональный (многоголосый закадровый) (NewStudio)"],"seasons_count":1,"episodes_count":6,"episodes":6,"update":"2017-07-03 12:16:59","iframe_src":"//83.svetacdn.in/PfJ50H0ZBPg3/tv-series/1196"},{"id":284,"title":"Живые и мёртвые","kp_id":"926991","imdb_id":"tt4928166","world_art_id":null,"type":"serial","add":"2016-07-14 12:16:26","orig_title":"The Living and the Dead","year":"2016-06-28","translations":["Профессиональный (многоголосый закадровый) (BaibaKo)"],"seasons_count":1,"episodes_count":6,"episodes":6,"update":"2017-07-04 08:23:31","iframe_src":"//83.svetacdn.in/PfJ50H0ZBPg3/tv-series/284"},{"id":1825,"title":"Храброе сердце","kp_id":"399","imdb_id":"tt0112573","world_art_id":null,"type":"movie","add":"2016-05-03 16:17:16","orig_title":"Braveheart","year":"1995-05-18","translations":["Полное дублирование","[EN] Original (English)","Авторский (одноголосый закадровый) (Есарев Дмитрий)","Авторский (одноголосый закадровый) (Гаврилов Андрей)","Авторский (одноголосый закадровый) (Кашкин Александр | Первомайский)","Авторский (одноголосый закадровый) (Визгунов Сергей)","Полное дублирование","[EN] Original (English)","Профессиональный (одноголосый закадровый) (Орбита)","Профессиональный (двухголосый закадровый) (Гланц + Королёва)","Профессиональный (многоголосый закадровый)","Профессиональный (многоголосый закадровый) (Киномания)","Профессиональный (многоголосый закадровый) (Lazer Video | Лазер видео)","Профессиональный (многоголосый закадровый) (LDV)","Профессиональный (многоголосый закадровый) (Первый канал | ОРТ)","Профессиональный (многоголосый закадровый) (Премьер Видео Фильм)"],"quality":"bd","translation":"Полное дублирование","update":"2021-05-03 07:21:56","iframe_src":"//83.svetacdn.in/PfJ50H0ZBPg3/movie/1825"}],"current_page":568,"first_page_url":"https://videocdn.tv/api/short?limit=100&api_token=RgFQdUIR2dRmwv8iYa5SnFNgnw3vpjKj&cache3568=3568&page=1","from":56701,"last_page":708,"last_page_url":"https://videocdn.tv/api/short?limit=100&api_token=RgFQdUIR2dRmwv8iYa5SnFNgnw3vpjKj&cache3568=3568&page=708","next_page_url":"https://videocdn.tv/api/short?limit=100&api_token=RgFQdUIR2dRmwv8iYa5SnFNgnw3vpjKj&cache3568=3568&page=569","path":"https://videocdn.tv/api/short","per_page":100,"prev_page_url":"https://videocdn.tv/api/short?limit=100&api_token=RgFQdUIR2dRmwv8iYa5SnFNgnw3vpjKj&cache3568=3568&page=567","to":56740,"total":70707}