{"result":true,"data":[{"id":54916,"title":"Отпуск в наручниках","kp_id":"307537","imdb_id":"tt0938666","world_art_id":null,"type":"movie","add":"2021-11-30 06:25:26","orig_title":"Holiday in Handcuffs","year":"2006-02-04","translations":["[EN] Original (English)","Профессиональный (двухголосый закадровый) (НТВ)"],"quality":"webdl","translation":"[EN] Original (English)","update":"2021-11-30 11:50:00","iframe_src":"//7741.svetacdn.in/IAF0wWTdNYZm/movie/54916"},{"id":54915,"title":"Дракон, буйствующий в Северном море","kp_id":"55471","imdb_id":"tt0060510","world_art_id":null,"type":"movie","add":"2021-11-30 05:25:16","orig_title":"Hokkai no Abare-Ryu","year":"1966-01-01","translations":["Любительский (двухголосый закадровый) (АрхиAsia)"],"quality":"webdl","translation":"Любительский (двухголосый закадровый) (АрхиAsia)","update":"2021-11-30 08:18:35","iframe_src":"//7741.svetacdn.in/IAF0wWTdNYZm/movie/54915"},{"id":54914,"title":"Дядя Наджи","kp_id":null,"imdb_id":"tt15467960","world_art_id":null,"type":"movie","add":"2021-11-29 20:08:46","orig_title":"Uncle Naji","year":"2021-10-28","translations":["Любительский (двухголосый закадровый) (Колобок)"],"quality":"ts","translation":"Любительский (двухголосый закадровый) (Колобок)","update":"2021-11-30 08:37:22","iframe_src":"//7741.svetacdn.in/IAF0wWTdNYZm/movie/54914"},{"id":54913,"title":"Шоу Джемиля","kp_id":"1406778","imdb_id":"tt11843944","world_art_id":null,"type":"movie","add":"2021-11-29 20:00:06","orig_title":"The Cemil Show","year":"2021-02-04","translations":["Любительский (двухголосый закадровый) (Колобок)"],"quality":"ts","translation":"Любительский (двухголосый закадровый) (Колобок)","update":"2021-11-30 08:40:59","iframe_src":"//7741.svetacdn.in/IAF0wWTdNYZm/movie/54913"},{"id":54911,"title":"Чрево моря","kp_id":"1399331","imdb_id":"tt12831788","world_art_id":null,"type":"movie","add":"2021-11-29 19:56:29","orig_title":"El ventre del mar","year":"2021-06-04","translations":["Любительский (двухголосый закадровый) (Колобок)"],"quality":"ts","translation":"Любительский (двухголосый закадровый) (Колобок)","update":"2021-11-30 08:41:35","iframe_src":"//7741.svetacdn.in/IAF0wWTdNYZm/movie/54911"},{"id":54908,"title":"Залив Аламо","kp_id":"18435","imdb_id":"tt0088689","world_art_id":null,"type":"movie","add":"2021-11-29 09:30:43","orig_title":"Alamo Bay","year":"1985-04-03","translations":["Профессиональный (многоголосый закадровый) (Первый канал | ОРТ)"],"quality":"bd","translation":"Профессиональный (многоголосый закадровый) (Первый канал | ОРТ)","update":"2021-11-30 09:50:06","iframe_src":"//7741.svetacdn.in/IAF0wWTdNYZm/movie/54908"},{"id":54907,"title":"Сто тысяч долларов на солнце","kp_id":"54359","imdb_id":"tt0056917","world_art_id":null,"type":"movie","add":"2021-11-29 05:59:10","orig_title":"Cent mille dollars au soleil","year":"1964-04-17","translations":["Профессиональный (многоголосый закадровый) (Рег-ТВ СПб)","Профессиональный (многоголосый закадровый) (Останкино)","Авторский (одноголосый закадровый) (Немахов Юрий)"],"quality":"bd","translation":"Профессиональный (многоголосый закадровый) (Рег-ТВ СПб)","update":"2021-11-30 12:19:07","iframe_src":"//7741.svetacdn.in/IAF0wWTdNYZm/movie/54907"},{"id":54905,"title":"Власть","kp_id":"4367026","imdb_id":"tt13802376","world_art_id":null,"type":"movie","add":"2021-11-29 05:50:54","orig_title":"The Power","year":"2021-01-14","translations":["Профессиональный (многоголосый закадровый) (Лексикон)","Любительский (многоголосый закадровый) (Honey&Haseena)","Любительский (многоголосый закадровый) (FanStudio)"],"quality":"bd","translation":"Профессиональный (многоголосый закадровый) (Лексикон)","update":"2021-11-29 11:58:13","iframe_src":"//7741.svetacdn.in/IAF0wWTdNYZm/movie/54905"},{"id":54877,"title":"Чилаут","kp_id":"77226","imdb_id":"tt0260799","world_art_id":null,"type":"movie","add":"2021-11-27 15:59:31","orig_title":"Chill Out","year":"2000-09-08","translations":["Любительский (одноголосый закадровый) (Кошкин Василий)"],"quality":"dvdrip","translation":"Любительский (одноголосый закадровый) (Кошкин Василий)","update":"2021-11-29 09:53:55","iframe_src":"//7741.svetacdn.in/IAF0wWTdNYZm/movie/54877"},{"id":9186,"title":"И немного волшебства: Город загадок","kp_id":"1340661","imdb_id":"tt11569530","world_art_id":null,"type":"serial","add":"2020-11-03 15:04:59","orig_title":"Just Add Magic: Mystery City","year":"2020-01-17","translations":["Полное дублирование (Пифагор)"],"seasons_count":1,"episodes_count":10,"episodes":10,"update":"2020-11-03 18:32:01","iframe_src":"//7741.svetacdn.in/IAF0wWTdNYZm/tv-series/9186"},{"id":9181,"title":"Гнев","kp_id":"4397570","imdb_id":"tt14033154","world_art_id":null,"type":"serial","add":"2020-11-02 18:49:58","orig_title":"Taish","year":"2020-10-29","translations":["Любительский (многоголосый закадровый) (Ultradox)","Профессиональный (многоголосый закадровый) (BaibaKo)"],"seasons_count":1,"episodes_count":6,"episodes":6,"update":"2020-11-03 05:21:31","iframe_src":"//7741.svetacdn.in/IAF0wWTdNYZm/tv-series/9181"},{"id":9177,"title":"Соледад","kp_id":"417648","imdb_id":"tt0324910","world_art_id":null,"type":"serial","add":"2020-11-02 13:21:15","orig_title":"Soledad","year":"2001-04-03","translations":["Профессиональный (многоголосый закадровый)"],"seasons_count":1,"episodes_count":195,"episodes":195,"update":"2020-11-02 21:14:10","iframe_src":"//7741.svetacdn.in/IAF0wWTdNYZm/tv-series/9177"},{"id":9170,"title":"Новые дела Скуби-Ду","kp_id":"229309","imdb_id":"tt0068112","world_art_id":null,"type":"serial","add":"2020-11-01 22:23:51","orig_title":"The New Scooby-Doo Movies","year":"1972-09-09","translations":["Полное дублирование (Русский дубляж)","Полное дублирование (Пифагор)"],"seasons_count":2,"episodes_count":24,"episodes":8,"update":"2020-11-03 16:35:01","iframe_src":"//7741.svetacdn.in/IAF0wWTdNYZm/tv-series/9170"},{"id":9169,"title":"Титаник","kp_id":"89633","imdb_id":"tt0115392","world_art_id":null,"type":"serial","add":"2020-11-01 17:35:08","orig_title":"Titanic","year":"1996-11-17","translations":["Профессиональный (многоголосый закадровый) (Первый канал | ОРТ)"],"seasons_count":1,"episodes_count":2,"episodes":2,"update":"2020-11-02 05:11:36","iframe_src":"//7741.svetacdn.in/IAF0wWTdNYZm/tv-series/9169"},{"id":9168,"title":"Сотня страшных историй","kp_id":"885324","imdb_id":null,"world_art_id":null,"type":"serial","add":"2020-11-01 14:32:04","orig_title":"100 Tales of Horror","year":"2002-01-01","translations":["Любительский (одноголосый закадровый) (Воротилин Олег)"],"seasons_count":1,"episodes_count":11,"episodes":11,"update":"2020-11-02 18:00:53","iframe_src":"//7741.svetacdn.in/IAF0wWTdNYZm/tv-series/9168"},{"id":9160,"title":"Игра теней","kp_id":"1219473","imdb_id":"tt8879894","world_art_id":null,"type":"serial","add":"2020-10-31 06:31:54","orig_title":"Shadowplay","year":"2020-10-30","translations":["Любительский (многоголосый закадровый) (Ultradox)","Любительский (многоголосый закадровый) (ColdFilm)","Профессиональный (многоголосый закадровый) (Novamedia)","Профессиональный (двухголосый закадровый) (IdeaFilm)"],"seasons_count":1,"episodes_count":8,"episodes":8,"update":"2020-11-03 19:37:08","iframe_src":"//7741.svetacdn.in/IAF0wWTdNYZm/tv-series/9160"},{"id":9158,"title":"Обещание","kp_id":"764648","imdb_id":"tt0809387","world_art_id":null,"type":"serial","add":"2020-10-30 15:08:19","orig_title":"Kasamh Se","year":"2006-01-16","translations":["Полное дублирование"],"seasons_count":1,"episodes_count":125,"episodes":125,"update":"2020-10-31 12:49:48","iframe_src":"//7741.svetacdn.in/IAF0wWTdNYZm/tv-series/9158"},{"id":9145,"title":"Лучшие друзья навсегда","kp_id":"981218","imdb_id":"tt4507442","world_art_id":null,"type":"serial","add":"2020-10-28 17:48:10","orig_title":"Best Friends Whenever","year":"2015-06-26","translations":["Полное дублирование (Disney Channel)"],"seasons_count":2,"episodes_count":30,"episodes":12,"update":"2020-11-02 17:36:08","iframe_src":"//7741.svetacdn.in/IAF0wWTdNYZm/tv-series/9145"},{"id":9092,"title":"Бэтмен","kp_id":"26003","imdb_id":"tt0035665","world_art_id":null,"type":"serial","add":"2020-10-23 15:08:15","orig_title":"Batman","year":"1943-07-16","translations":["Любительский (одноголосый закадровый) (den904)"],"seasons_count":1,"episodes_count":15,"episodes":15,"update":"2020-11-03 09:10:32","iframe_src":"//7741.svetacdn.in/IAF0wWTdNYZm/tv-series/9092"},{"id":9030,"title":"Великая армия","kp_id":"1282613","imdb_id":"tt10473150","world_art_id":null,"type":"serial","add":"2020-10-16 15:10:37","orig_title":"Grand Army","year":"2020-10-16","translations":["Любительский (многоголосый закадровый) (ColdFilm)","Любительский (многоголосый закадровый) (Ultradox)","Профессиональный (многоголосый закадровый) (BaibaKo)","Профессиональный (многоголосый закадровый) (NewStudio)"],"seasons_count":1,"episodes_count":9,"episodes":9,"update":"2020-11-01 21:03:52","iframe_src":"//7741.svetacdn.in/IAF0wWTdNYZm/tv-series/9030"},{"id":8960,"title":"Губернатор","kp_id":null,"imdb_id":"tt7128052","world_art_id":null,"type":"serial","add":"2020-10-09 17:49:28","orig_title":"The Governor","year":"2016-07-07","translations":["Любительский (многоголосый закадровый) (WestFilm)"],"seasons_count":1,"episodes_count":13,"episodes":13,"update":"2020-11-02 19:35:59","iframe_src":"//7741.svetacdn.in/IAF0wWTdNYZm/tv-series/8960"},{"id":8907,"title":"Александра Эль","kp_id":"1148216","imdb_id":"tt8185098","world_art_id":null,"type":"serial","add":"2020-10-04 10:24:46","orig_title":"Alexandra Ehle","year":"2018-03-27","translations":["Любительский (многоголосый закадровый) (WestFilm)"],"seasons_count":1,"episodes_count":2,"episodes":2,"update":"2020-11-03 10:26:21","iframe_src":"//7741.svetacdn.in/IAF0wWTdNYZm/tv-series/8907"},{"id":8643,"title":"Новая жизнь","kp_id":"1356210","imdb_id":"tt11896074","world_art_id":null,"type":"serial","add":"2020-09-07 08:00:24","orig_title":"Yeni Hayat","year":"2020-09-03","translations":["Любительский (двухголосый закадровый) (SesDizi | DiziMania)","Любительский (многоголосый закадровый) (Octopus)"],"seasons_count":1,"episodes_count":9,"episodes":9,"update":"2020-11-02 07:04:01","iframe_src":"//7741.svetacdn.in/IAF0wWTdNYZm/tv-series/8643"},{"id":8102,"title":"Тегеран","kp_id":"1330972","imdb_id":"tt10577736","world_art_id":null,"type":"serial","add":"2020-07-06 11:28:20","orig_title":"Tehran","year":"2020-06-22","translations":["Любительский (многоголосый закадровый) (ColdFilm)","Любительский (многоголосый закадровый) (Octopus)","Профессиональный (многоголосый закадровый) (TVShows)"],"seasons_count":1,"episodes_count":8,"episodes":8,"update":"2020-11-01 10:52:40","iframe_src":"//7741.svetacdn.in/IAF0wWTdNYZm/tv-series/8102"},{"id":7151,"title":"Судебный процесс","kp_id":"1283030","imdb_id":"tt10549212","world_art_id":null,"type":"serial","add":"2020-04-10 12:48:50","orig_title":"Il Processo","year":"2019-11-29","translations":["Любительский (многоголосый закадровый) (Octopus)","Профессиональный (двухголосый закадровый) (ViruseProject)"],"seasons_count":1,"episodes_count":8,"episodes":8,"update":"2020-11-02 18:12:11","iframe_src":"//7741.svetacdn.in/IAF0wWTdNYZm/tv-series/7151"},{"id":6341,"title":"Штамп в паспорте","kp_id":"1243135","imdb_id":"tt10349500","world_art_id":null,"type":"serial","add":"2020-01-14 13:09:32","orig_title":"Shtamp v Pasporte","year":"2019-02-23","translations":["Оригинальная дорожка"],"seasons_count":1,"episodes_count":4,"episodes":4,"update":"2020-11-02 17:55:25","iframe_src":"//7741.svetacdn.in/IAF0wWTdNYZm/tv-series/6341"},{"id":33962,"title":"Секта","kp_id":"1264122","imdb_id":"tt4925340","world_art_id":null,"type":"movie","add":"2019-12-11 18:22:34","orig_title":"Il nido","year":"2019-08-15","translations":["Любительский (многоголосый закадровый) (AlphaProject)","Полное дублирование","Полное дублирование (SoulPro)"],"quality":"bd","translation":"Любительский (многоголосый закадровый) (AlphaProject)","update":"2021-11-29 09:52:55","iframe_src":"//7741.svetacdn.in/IAF0wWTdNYZm/movie/33962"},{"id":33123,"title":"Охранник","kp_id":"1147087","imdb_id":"tt8411144","world_art_id":null,"type":"movie","add":"2019-11-15 05:14:50","orig_title":"Kaappaan","year":"2019-09-20","translations":["Любительский (многоголосый закадровый) (Синема УС)"],"quality":"webdl","translation":"Любительский (многоголосый закадровый) (Синема УС)","update":"2021-11-30 12:12:24","iframe_src":"//7741.svetacdn.in/IAF0wWTdNYZm/movie/33123"},{"id":28016,"title":"Волчья стая","kp_id":"181542","imdb_id":"tt0140683","world_art_id":null,"type":"movie","add":"2019-06-19 19:51:09","orig_title":"Volchya staya","year":"1975-11-24","translations":["Оригинальная дорожка"],"quality":"webdl","translation":"Оригинальная дорожка","update":"2021-11-30 09:52:23","iframe_src":"//7741.svetacdn.in/IAF0wWTdNYZm/movie/28016"},{"id":23571,"title":"Великая война гоблинов","kp_id":"88258","imdb_id":"tt0425661","world_art_id":null,"type":"movie","add":"2019-03-27 22:00:04","orig_title":"Yôkai daisensô","year":"2005-08-06","translations":["Профессиональный (многоголосый закадровый) (Инис)"],"quality":"bd","translation":"Профессиональный (многоголосый закадровый) (Инис)","update":"2021-11-30 06:38:10","iframe_src":"//7741.svetacdn.in/IAF0wWTdNYZm/movie/23571"},{"id":22678,"title":"Сверхъестественное","kp_id":"1020883","imdb_id":"tt6294226","world_art_id":null,"type":"movie","add":"2019-03-03 20:58:28","orig_title":"Stray","year":"2019-03-01","translations":["Профессиональный (многоголосый закадровый) (HDrezka Studio)","Профессиональный (многоголосый закадровый) (IVI)","[EN] Original (English)"],"quality":"webdl","translation":"Профессиональный (многоголосый закадровый) (HDrezka Studio)","update":"2021-11-30 08:19:46","iframe_src":"//7741.svetacdn.in/IAF0wWTdNYZm/movie/22678"},{"id":20571,"title":"Аквамен","kp_id":"470178","imdb_id":"tt1477834","world_art_id":null,"type":"movie","add":"2018-12-09 00:23:15","orig_title":"Aquaman","year":"2018-11-26","translations":["Профессиональный (многоголосый закадровый) (HDrezka Studio)","Полное дублирование (Мосфильм)","[EN] Original (English)"],"quality":"bd","translation":"Профессиональный (многоголосый закадровый) (HDrezka Studio)","update":"2021-11-30 12:13:27","iframe_src":"//7741.svetacdn.in/IAF0wWTdNYZm/movie/20571"},{"id":2780,"title":"Страйк","kp_id":"1007909","imdb_id":"tt4276618","world_art_id":null,"type":"serial","add":"2018-06-10 06:58:57","orig_title":"Strike","year":"2017-08-27","translations":["Профессиональный (многоголосый закадровый) (SDI Media | Iyuno-SDI Group Russia)","Профессиональный (многоголосый закадровый) (LostFilm)","Любительский (многоголосый закадровый) (Octopus)","Любительский (многоголосый закадровый) (ColdFilm)","Профессиональный (двухголосый закадровый) (IdeaFilm)","Профессиональный (многоголосый закадровый) (FocusX)"],"seasons_count":3,"episodes_count":11,"episodes":4,"update":"2020-11-02 18:14:51","iframe_src":"//7741.svetacdn.in/IAF0wWTdNYZm/tv-series/2780"},{"id":11570,"title":"Мания величия","kp_id":"37825","imdb_id":"tt0067108","world_art_id":null,"type":"movie","add":"2017-05-16 05:37:49","orig_title":"La folie des grandeurs","year":"1971-12-08","translations":["Профессиональный (многоголосый закадровый) (Первый канал | ОРТ)","Профессиональный (многоголосый закадровый) (DVD Магия)"],"quality":"bd","translation":"Профессиональный (многоголосый закадровый) (Первый канал | ОРТ)","update":"2021-11-30 12:09:34","iframe_src":"//7741.svetacdn.in/IAF0wWTdNYZm/movie/11570"},{"id":745,"title":"Пепел","kp_id":"687362","imdb_id":"tt3501672","world_art_id":null,"type":"serial","add":"2016-12-27 09:26:41","orig_title":"Pepel","year":"2013-10-28","translations":["Оригинальная дорожка"],"seasons_count":1,"episodes_count":10,"episodes":10,"update":"2020-11-02 18:08:37","iframe_src":"//7741.svetacdn.in/IAF0wWTdNYZm/tv-series/745"},{"id":337,"title":"Гид геймера практически ко всему на свете","kp_id":"891546","imdb_id":"tt4380272","world_art_id":null,"type":"serial","add":"2016-08-16 06:15:29","orig_title":"Gamer's Guide to Pretty Much Everything","year":"2015-07-22","translations":["Любительский (двухголосый закадровый)","Полное дублирование (Disney Channel)"],"seasons_count":1,"episodes_count":21,"episodes":22,"update":"2020-11-01 15:21:41","iframe_src":"//7741.svetacdn.in/IAF0wWTdNYZm/tv-series/337"},{"id":4425,"title":"Приказано уничтожить","kp_id":"3532","imdb_id":"tt0116253","world_art_id":null,"type":"movie","add":"2016-08-15 08:23:21","orig_title":"Executive Decision","year":"1996-03-15","translations":["Полное дублирование (Варус-Видео)","Полное дублирование (Мост-Видео)","[EN] Original (English)","Авторский (одноголосый закадровый) (Гаврилов Андрей)","Авторский (одноголосый закадровый) (Визгунов Сергей)","Профессиональный (двухголосый закадровый) (НТВ)","Профессиональный (многоголосый закадровый) (РТР | Россия)"],"quality":"bd","translation":"Полное дублирование (Варус-Видео)","update":"2021-11-29 14:46:38","iframe_src":"//7741.svetacdn.in/IAF0wWTdNYZm/movie/4425"},{"id":4266,"title":"В воздухе","kp_id":"714934","imdb_id":"tt2494384","world_art_id":null,"type":"movie","add":"2016-08-02 04:38:31","orig_title":"Aloft","year":"2014-02-12","translations":["[EN] Original (English)","Профессиональный (многоголосый закадровый)"],"quality":"bd","translation":"[EN] Original (English)","update":"2021-11-30 11:58:02","iframe_src":"//7741.svetacdn.in/IAF0wWTdNYZm/movie/4266"},{"id":2338,"title":"Тебе конец!","kp_id":"584175","imdb_id":"tt1853739","world_art_id":null,"type":"movie","add":"2016-05-19 05:46:18","orig_title":"You're Next","year":"2011-09-10","translations":["Полное дублирование","[EN] Original (English)","Полное дублирование","Авторский (одноголосый закадровый) (Дольский Андрей)"],"quality":"bd","translation":"Полное дублирование","update":"2021-11-30 12:02:52","iframe_src":"//7741.svetacdn.in/IAF0wWTdNYZm/movie/2338"},{"id":2106,"title":"Голос","kp_id":"806934","imdb_id":"tt3302706","world_art_id":null,"type":"movie","add":"2016-05-12 16:16:22","orig_title":"Boychoir","year":"2014-09-05","translations":["[EN] Original (English)","Полное дублирование (Прайд Продакшн | Pride Production)"],"quality":"bd","translation":"[EN] Original (English)","update":"2021-11-30 11:46:04","iframe_src":"//7741.svetacdn.in/IAF0wWTdNYZm/movie/2106"}],"current_page":235,"first_page_url":"https://videocdn.tv/api/short?limit=100&api_token=6Onb1W1alEUrBcKJZD3GoKBbWyAl2uG2&cache3235=3235&page=1","from":23401,"last_page":708,"last_page_url":"https://videocdn.tv/api/short?limit=100&api_token=6Onb1W1alEUrBcKJZD3GoKBbWyAl2uG2&cache3235=3235&page=708","next_page_url":"https://videocdn.tv/api/short?limit=100&api_token=6Onb1W1alEUrBcKJZD3GoKBbWyAl2uG2&cache3235=3235&page=236","path":"https://videocdn.tv/api/short","per_page":100,"prev_page_url":"https://videocdn.tv/api/short?limit=100&api_token=6Onb1W1alEUrBcKJZD3GoKBbWyAl2uG2&cache3235=3235&page=234","to":23440,"total":70721}