{"result":true,"data":[{"id":49634,"title":"Он, она и правда","kp_id":"1019907","imdb_id":"tt6026940","world_art_id":null,"type":"movie","add":"2021-04-15 09:36:45","orig_title":"His, Hers & the Truth","year":"2019-01-01","translations":["Любительский (многоголосый закадровый) (AlphaProject)"],"quality":"webdl","translation":"Любительский (многоголосый закадровый) (AlphaProject)","update":"2021-04-15 12:08:50","iframe_src":"//7720.svetacdn.in/71tsRs29n5tZ/movie/49634"},{"id":49633,"title":"Благоверная моего брата","kp_id":null,"imdb_id":"tt8112008","world_art_id":null,"type":"movie","add":"2021-04-15 09:34:30","orig_title":"My Brother's Keeper","year":"2020-03-19","translations":["Любительский (многоголосый закадровый) (AlphaProject)"],"quality":"webdl","translation":"Любительский (многоголосый закадровый) (AlphaProject)","update":"2021-04-15 12:08:32","iframe_src":"//7720.svetacdn.in/71tsRs29n5tZ/movie/49633"},{"id":49631,"title":"Пармская обитель","kp_id":"94757","imdb_id":"tt0040223","world_art_id":null,"type":"movie","add":"2021-04-15 05:52:49","orig_title":"La Chartreuse de Parme","year":"1948-02-21","translations":["Полное дублирование (Киностудия им. Горького)"],"quality":"bd","translation":"Полное дублирование (Киностудия им. Горького)","update":"2021-04-15 13:42:11","iframe_src":"//7720.svetacdn.in/71tsRs29n5tZ/movie/49631"},{"id":49630,"title":"Я страшненькая","kp_id":"105436","imdb_id":"tt0408927","world_art_id":null,"type":"movie","add":"2021-04-15 05:46:51","orig_title":"J'me sens pas belle","year":"2004-06-18","translations":["Профессиональный (двухголосый закадровый)"],"quality":"dvdrip","translation":"Профессиональный (двухголосый закадровый)","update":"2021-04-15 08:13:12","iframe_src":"//7720.svetacdn.in/71tsRs29n5tZ/movie/49630"},{"id":49629,"title":"Ромул и Рем","kp_id":"56919","imdb_id":"tt0057460","world_art_id":null,"type":"movie","add":"2021-04-15 05:43:30","orig_title":"Romolo e Remo","year":"1961-12-06","translations":["Любительский (одноголосый закадровый)"],"quality":"bd","translation":"Любительский (одноголосый закадровый)","update":"2021-04-15 13:45:45","iframe_src":"//7720.svetacdn.in/71tsRs29n5tZ/movie/49629"},{"id":49628,"title":"Дела и люди","kp_id":"44118","imdb_id":"tt0022806","world_art_id":null,"type":"movie","add":"2021-04-15 05:14:16","orig_title":"Dela i lyudi","year":"1932-10-09","translations":["Оригинальная дорожка"],"quality":"sat","translation":"Оригинальная дорожка","update":"2021-04-15 08:16:07","iframe_src":"//7720.svetacdn.in/71tsRs29n5tZ/movie/49628"},{"id":49617,"title":"Злой доктор","kp_id":"1077462","imdb_id":"tt7130262","world_art_id":null,"type":"movie","add":"2021-04-14 15:41:07","orig_title":"Snatched","year":"2018-04-15","translations":["Любительский (многоголосый закадровый) (Синема УС)"],"quality":"webdl","translation":"Любительский (многоголосый закадровый) (Синема УС)","update":"2021-04-15 09:42:55","iframe_src":"//7720.svetacdn.in/71tsRs29n5tZ/movie/49617"},{"id":49616,"title":"Я не влюблен","kp_id":"1287073","imdb_id":"tt10649008","world_art_id":null,"type":"movie","add":"2021-04-14 15:40:07","orig_title":"I'm Not in Love","year":"2021-04-12","translations":["Любительский (многоголосый закадровый) (Синема УС)"],"quality":"webdl","translation":"Любительский (многоголосый закадровый) (Синема УС)","update":"2021-04-15 09:42:42","iframe_src":"//7720.svetacdn.in/71tsRs29n5tZ/movie/49616"},{"id":49615,"title":"Моя мама - попугай","kp_id":"1139325","imdb_id":"tt6264558","world_art_id":null,"type":"movie","add":"2021-04-14 15:38:44","orig_title":"Mi Mamá Lora","year":"2017-09-01","translations":["Любительский (многоголосый закадровый) (Синема УС)"],"quality":"webdl","translation":"Любительский (многоголосый закадровый) (Синема УС)","update":"2021-04-15 09:42:21","iframe_src":"//7720.svetacdn.in/71tsRs29n5tZ/movie/49615"},{"id":49614,"title":"Хладнокровные убийства","kp_id":"1165338","imdb_id":"tt8514632","world_art_id":null,"type":"movie","add":"2021-04-14 15:37:44","orig_title":"Killer Rose","year":"2021-04-12","translations":["Любительский (многоголосый закадровый) (@MUZOBOZ@)"],"quality":"webdl","translation":"Любительский (многоголосый закадровый) (@MUZOBOZ@)","update":"2021-04-15 09:42:07","iframe_src":"//7720.svetacdn.in/71tsRs29n5tZ/movie/49614"},{"id":49613,"title":"За мостом!","kp_id":null,"imdb_id":"tt11115778","world_art_id":null,"type":"movie","add":"2021-04-14 15:36:41","orig_title":"Oltre il ponte!","year":"2019-04-26","translations":["Любительский (многоголосый закадровый) (Синема УС)"],"quality":"webdl","translation":"Любительский (многоголосый закадровый) (Синема УС)","update":"2021-04-15 09:48:16","iframe_src":"//7720.svetacdn.in/71tsRs29n5tZ/movie/49613"},{"id":49547,"title":"Два далёких незнакомца","kp_id":"1447016","imdb_id":"tt13472984","world_art_id":null,"type":"movie","add":"2021-04-12 06:01:51","orig_title":"Two Distant Strangers","year":"2020-11-20","translations":["Любительский (многоголосый закадровый) (Voice Project Studio)","Любительский (многоголосый закадровый) (Синема УС)","Original (English)","Любительский (многоголосый закадровый) (Синема УС)"],"quality":"webdl","translation":"Любительский (многоголосый закадровый) (Voice Project Studio)","update":"2021-04-15 13:48:48","iframe_src":"//7720.svetacdn.in/71tsRs29n5tZ/movie/49547"},{"id":49530,"title":"Семейка монстров","kp_id":"1111403","imdb_id":"tt7534136","world_art_id":null,"type":"movie","add":"2021-04-12 04:46:11","orig_title":"Petit vampire","year":"2020-10-07","translations":["Любительский (многоголосый закадровый) (Синема УС)","Любительский (многоголосый закадровый) (@MUZOBOZ@)"],"quality":"webdl","translation":"Любительский (многоголосый закадровый) (Синема УС)","update":"2021-04-15 12:47:45","iframe_src":"//7720.svetacdn.in/71tsRs29n5tZ/movie/49530"},{"id":48087,"title":"Спасите Колю!","kp_id":"1272474","imdb_id":null,"world_art_id":null,"type":"movie","add":"2021-02-21 08:05:26","orig_title":"Спасите Колю!","year":"2021-02-18","translations":["Оригинальная дорожка","Оригинальная дорожка"],"quality":"ts","translation":"Оригинальная дорожка","update":"2021-04-15 12:44:04","iframe_src":"//7720.svetacdn.in/71tsRs29n5tZ/movie/48087"},{"id":47956,"title":"Иуда и чёрный мессия","kp_id":"1239696","imdb_id":"tt9784798","world_art_id":null,"type":"movie","add":"2021-02-15 20:09:47","orig_title":"Judas and the Black Messiah","year":"2021-02-01","translations":["Original (English)","Любительский (многоголосый закадровый) (@MUZOBOZ@)","Профессиональный (многоголосый закадровый) (AMS)","Профессиональный (многоголосый закадровый) (HDrezka Studio)","Профессиональный (многоголосый закадровый) (HDrezka Studio 18+)","Полное дублирование (iTunes)"],"quality":"webdl","translation":"Original (English)","update":"2021-04-15 07:59:01","iframe_src":"//7720.svetacdn.in/71tsRs29n5tZ/movie/47956"},{"id":47567,"title":"Входит ниндзя","kp_id":"70951","imdb_id":"tt0082332","world_art_id":null,"type":"movie","add":"2021-02-01 06:00:05","orig_title":"Enter the Ninja","year":"1981-05-16","translations":["Профессиональный (двухголосый закадровый) (ТВ3)","Original (English)","Авторский (одноголосый закадровый) (Иванов Михаил)"],"quality":"bd","translation":"Профессиональный (двухголосый закадровый) (ТВ3)","update":"2021-04-15 08:05:42","iframe_src":"//7720.svetacdn.in/71tsRs29n5tZ/movie/47567"},{"id":46270,"title":"Уроки фарси","kp_id":"1209777","imdb_id":"tt9738784","world_art_id":null,"type":"movie","add":"2020-12-20 20:56:13","orig_title":"Persian Lessons","year":"2020-02-22","translations":["Любительский (многоголосый закадровый) (@MUZOBOZ@)","Полное дублирование","Полное дублирование"],"quality":"bd","translation":"Любительский (многоголосый закадровый) (@MUZOBOZ@)","update":"2021-04-15 08:04:25","iframe_src":"//7720.svetacdn.in/71tsRs29n5tZ/movie/46270"},{"id":8036,"title":"Дело Райкара","kp_id":"1356898","imdb_id":"tt11953232","world_art_id":null,"type":"serial","add":"2020-06-28 09:45:15","orig_title":"The Raikar Case","year":"2020-03-24","translations":["Любительский (многоголосый закадровый) (Octopus)"],"seasons_count":1,"episodes_count":7,"episodes":7,"update":"2020-06-28 15:19:35","iframe_src":"//7720.svetacdn.in/71tsRs29n5tZ/tv-series/8036"},{"id":8028,"title":"Как выжить, будучи одиноким","kp_id":"1255021","imdb_id":"tt8980700","world_art_id":null,"type":"serial","add":"2020-06-26 10:50:40","orig_title":"Cómo Sobrevivir Soltero","year":"2020-06-26","translations":["Любительский (многоголосый закадровый) (Octopus)","Любительский (многоголосый закадровый) (ColdFilm)","Профессиональный (двухголосый закадровый) (IdeaFilm)"],"seasons_count":1,"episodes_count":10,"episodes":10,"update":"2020-06-27 17:45:49","iframe_src":"//7720.svetacdn.in/71tsRs29n5tZ/tv-series/8028"},{"id":8022,"title":"Дорога домой","kp_id":"818453","imdb_id":"tt3777674","world_art_id":null,"type":"serial","add":"2020-06-25 13:27:03","orig_title":"Doroga domoy","year":"2014-04-07","translations":["Оригинальная дорожка"],"seasons_count":1,"episodes_count":12,"episodes":12,"update":"2020-06-26 21:02:14","iframe_src":"//7720.svetacdn.in/71tsRs29n5tZ/tv-series/8022"},{"id":8021,"title":"Этаж","kp_id":"893306","imdb_id":"tt5026506","world_art_id":null,"type":"serial","add":"2020-06-25 13:23:53","orig_title":"Etazh","year":"2014-01-27","translations":["Оригинальная дорожка"],"seasons_count":1,"episodes_count":32,"episodes":32,"update":"2020-06-26 21:49:32","iframe_src":"//7720.svetacdn.in/71tsRs29n5tZ/tv-series/8021"},{"id":8020,"title":"Обмани, если любишь","kp_id":"813556","imdb_id":"tt3772492","world_art_id":null,"type":"serial","add":"2020-06-25 13:00:31","orig_title":"Obmani, esli lyubish","year":"2014-04-12","translations":["Оригинальная дорожка"],"seasons_count":1,"episodes_count":8,"episodes":8,"update":"2020-06-26 20:57:54","iframe_src":"//7720.svetacdn.in/71tsRs29n5tZ/tv-series/8020"},{"id":8018,"title":"Ветер в лицо","kp_id":"839987","imdb_id":"tt9714658","world_art_id":null,"type":"serial","add":"2020-06-25 12:52:38","orig_title":"Veter v litso","year":"2014-05-05","translations":["Оригинальная дорожка"],"seasons_count":1,"episodes_count":4,"episodes":4,"update":"2020-06-26 20:54:18","iframe_src":"//7720.svetacdn.in/71tsRs29n5tZ/tv-series/8018"},{"id":8011,"title":"Ледяная фантазия","kp_id":"970140","imdb_id":"tt5022298","world_art_id":null,"type":"serial","add":"2020-06-25 07:35:28","orig_title":"Huan Cheng","year":"2016-07-24","translations":["Любительский (многоголосый закадровый) (STEPonee)","Любительский (двухголосый закадровый) (STEPonee)"],"seasons_count":1,"episodes_count":62,"episodes":62,"update":"2020-06-28 05:25:00","iframe_src":"//7720.svetacdn.in/71tsRs29n5tZ/tv-series/8011"},{"id":7999,"title":"Икорный барон","kp_id":"632534","imdb_id":"tt4764492","world_art_id":null,"type":"serial","add":"2020-06-24 18:38:20","orig_title":"Ikornyy baron","year":"2013-08-05","translations":["Оригинальная дорожка"],"seasons_count":1,"episodes_count":16,"episodes":16,"update":"2020-06-27 16:52:44","iframe_src":"//7720.svetacdn.in/71tsRs29n5tZ/tv-series/7999"},{"id":7998,"title":"Мама по контракту","kp_id":"542383","imdb_id":null,"world_art_id":null,"type":"serial","add":"2020-06-24 18:26:06","orig_title":"Мама по контракту","year":"2015-09-05","translations":["Оригинальная дорожка"],"seasons_count":1,"episodes_count":12,"episodes":12,"update":"2020-06-27 16:39:10","iframe_src":"//7720.svetacdn.in/71tsRs29n5tZ/tv-series/7998"},{"id":7986,"title":"Самое счастливое время нашей жизни","kp_id":"1316646","imdb_id":null,"world_art_id":null,"type":"serial","add":"2020-06-24 07:46:42","orig_title":"Hwayangyeonhwa - salmi kkoti doeneun sungan","year":"2020-04-26","translations":["Любительский (многоголосый закадровый) (STEPonee)"],"seasons_count":1,"episodes_count":16,"episodes":16,"update":"2020-06-27 16:39:28","iframe_src":"//7720.svetacdn.in/71tsRs29n5tZ/tv-series/7986"},{"id":7985,"title":"Дело для двоих","kp_id":"695450","imdb_id":"tt9480598","world_art_id":null,"type":"serial","add":"2020-06-24 07:15:13","orig_title":"Delo dlya dvoikh","year":"2014-08-11","translations":["Оригинальная дорожка"],"seasons_count":1,"episodes_count":12,"episodes":12,"update":"2020-06-27 16:13:50","iframe_src":"//7720.svetacdn.in/71tsRs29n5tZ/tv-series/7985"},{"id":7984,"title":"Майя","kp_id":"841594","imdb_id":null,"world_art_id":null,"type":"serial","add":"2020-06-24 07:05:18","orig_title":"Майя","year":"2016-02-29","translations":["Оригинальная дорожка"],"seasons_count":1,"episodes_count":12,"episodes":12,"update":"2020-06-27 15:46:24","iframe_src":"//7720.svetacdn.in/71tsRs29n5tZ/tv-series/7984"},{"id":7983,"title":"Я лечу","kp_id":"414889","imdb_id":"tt4353482","world_art_id":null,"type":"serial","add":"2020-06-24 06:53:09","orig_title":"YA lechu","year":"2008-04-21","translations":["Оригинальная дорожка"],"seasons_count":1,"episodes_count":47,"episodes":47,"update":"2020-06-27 15:04:26","iframe_src":"//7720.svetacdn.in/71tsRs29n5tZ/tv-series/7983"},{"id":7980,"title":"Тачку на прокачку","kp_id":"452720","imdb_id":"tt0395891","world_art_id":null,"type":"serial","add":"2020-06-23 19:05:52","orig_title":"Pimp My Ride","year":"2004-03-04","translations":["Профессиональный (многоголосый закадровый) (MTV)"],"seasons_count":6,"episodes_count":67,"episodes":12,"update":"2020-06-27 17:03:36","iframe_src":"//7720.svetacdn.in/71tsRs29n5tZ/tv-series/7980"},{"id":7897,"title":"Школа Эвер Афтер: Заколдованная зима","kp_id":"991746","imdb_id":"tt5878262","world_art_id":null,"type":"serial","add":"2020-06-15 14:46:30","orig_title":"Ever After High: Epic Winter","year":"2016-08-05","translations":["Полное дублирование"],"seasons_count":1,"episodes_count":4,"episodes":4,"update":"2020-06-27 19:05:29","iframe_src":"//7720.svetacdn.in/71tsRs29n5tZ/tv-series/7897"},{"id":7896,"title":"Три котёнка","kp_id":"497691","imdb_id":null,"world_art_id":null,"type":"serial","add":"2020-06-15 14:05:59","orig_title":"Три котёнка","year":"2010-03-04","translations":["Оригинальная дорожка"],"seasons_count":6,"episodes_count":46,"episodes":6,"update":"2020-06-27 18:37:58","iframe_src":"//7720.svetacdn.in/71tsRs29n5tZ/tv-series/7896"},{"id":7895,"title":"Секретные материалы псов-шпионов","kp_id":"418163","imdb_id":"tt0204777","world_art_id":null,"type":"serial","add":"2020-06-15 13:29:13","orig_title":"The Secret Files of the SpyDogs","year":"1998-09-12","translations":["Полное дублирование"],"seasons_count":2,"episodes_count":22,"episodes":9,"update":"2020-06-27 19:03:56","iframe_src":"//7720.svetacdn.in/71tsRs29n5tZ/tv-series/7895"},{"id":5332,"title":"Политик","kp_id":"1114279","imdb_id":"tt7971476","world_art_id":null,"type":"serial","add":"2019-09-27 20:20:35","orig_title":"The Politician","year":"2019-09-27","translations":["Любительский (многоголосый закадровый) (ColdFilm)","Любительский (двухголосый закадровый) (Hamster Studio)","Профессиональный (многоголосый закадровый) (NewStudio)","Профессиональный (многоголосый закадровый) (HDrezka Studio)","Полное дублирование (Пифагор)","Любительский (многоголосый закадровый) (Octopus)","Профессиональный (двухголосый закадровый) (IdeaFilm)","Профессиональный (многоголосый закадровый) (Jaskier)"],"seasons_count":2,"episodes_count":15,"episodes":7,"update":"2020-06-28 10:14:14","iframe_src":"//7720.svetacdn.in/71tsRs29n5tZ/tv-series/5332"},{"id":22874,"title":"Проект Ельцин","kp_id":"14404","imdb_id":"tt0324619","world_art_id":null,"type":"movie","add":"2019-03-10 16:21:41","orig_title":"Spinning Boris","year":"2003-10-23","translations":["Профессиональный (двухголосый закадровый)"],"quality":"webdl","translation":"Профессиональный (двухголосый закадровый)","update":"2021-04-15 08:02:40","iframe_src":"//7720.svetacdn.in/71tsRs29n5tZ/movie/22874"},{"id":22360,"title":"Клара","kp_id":"1040714","imdb_id":"tt6613878","world_art_id":null,"type":"movie","add":"2019-02-17 13:14:35","orig_title":"Clara","year":"2018-09-10","translations":["Любительский (многоголосый закадровый) (Синема УС)","Любительский (двухголосый закадровый) (LakeFilms)","Профессиональный (многоголосый закадровый) (HDrezka Studio)","Профессиональный (многоголосый закадровый) (HDrezka Studio)","Original (English)","Любительский (одноголосый закадровый) (Стасюк Дмитрий)"],"quality":"webdl","translation":"Любительский (многоголосый закадровый) (Синема УС)","update":"2021-04-15 13:44:48","iframe_src":"//7720.svetacdn.in/71tsRs29n5tZ/movie/22360"},{"id":3457,"title":"Темное сердце","kp_id":"992329","imdb_id":"tt5866284","world_art_id":null,"type":"serial","add":"2018-11-07 07:06:06","orig_title":"Dark Heart","year":"2018-07-21","translations":["Профессиональный (многоголосый закадровый) (IdeaFilm)","Профессиональный (многоголосый закадровый) (HDrezka Studio)"],"seasons_count":1,"episodes_count":6,"episodes":6,"update":"2020-06-28 11:17:51","iframe_src":"//7720.svetacdn.in/71tsRs29n5tZ/tv-series/3457"},{"id":19571,"title":"Трактир на Пятницкой","kp_id":"42278","imdb_id":"tt0135005","world_art_id":null,"type":"movie","add":"2018-10-15 12:46:10","orig_title":"Traktir na Pyatnitskoy","year":"1979-07-12","translations":["Оригинальная дорожка","Оригинальная дорожка"],"quality":"webdl","translation":"Оригинальная дорожка","update":"2021-04-15 11:59:51","iframe_src":"//7720.svetacdn.in/71tsRs29n5tZ/movie/19571"},{"id":1636,"title":"Твин Пикс","kp_id":"84358","imdb_id":"tt0098936","world_art_id":null,"type":"serial","add":"2017-10-13 06:43:31","orig_title":"Twin Peaks","year":"1990-04-12","translations":["Профессиональный (многоголосый закадровый) (LostFilm)","Профессиональный (многоголосый закадровый) (Novamedia)","Профессиональный (многоголосый закадровый) (Первый канал | ОРТ)","Профессиональный (многоголосый закадровый) (РТР | Россия)","Профессиональный (многоголосый закадровый) (Sony Sci-Fi)","Профессиональный (многоголосый закадровый) (ТВ3)"],"seasons_count":2,"episodes_count":30,"episodes":22,"update":"2020-06-26 23:37:46","iframe_src":"//7720.svetacdn.in/71tsRs29n5tZ/tv-series/1636"}],"current_page":215,"first_page_url":"https://videocdn.tv/api/short?limit=100&api_token=EnbO9h8pv1VyjbCJhg0WM9nG259n7mtz&cache3215=3215&page=1","from":21401,"last_page":646,"last_page_url":"https://videocdn.tv/api/short?limit=100&api_token=EnbO9h8pv1VyjbCJhg0WM9nG259n7mtz&cache3215=3215&page=646","next_page_url":"https://videocdn.tv/api/short?limit=100&api_token=EnbO9h8pv1VyjbCJhg0WM9nG259n7mtz&cache3215=3215&page=216","path":"https://videocdn.tv/api/short","per_page":100,"prev_page_url":"https://videocdn.tv/api/short?limit=100&api_token=EnbO9h8pv1VyjbCJhg0WM9nG259n7mtz&cache3215=3215&page=214","to":21440,"total":64588}