{"result":true,"data":[{"id":31362,"title":"Бесчестье","kp_id":"102178","imdb_id":"tt0445953","world_art_id":null,"type":"movie","add":"2019-09-30 21:53:18","orig_title":"Disgrace","year":"2008-09-06","translations":["Профессиональный (многоголосый закадровый)"],"quality":"bd","translation":"Профессиональный (многоголосый закадровый)","update":"2019-10-01 12:57:08","iframe_src":"//7923.svetacdn.in/IAF0wWTdNYZm/movie/31362"},{"id":31361,"title":"317-й взвод","kp_id":"105275","imdb_id":"tt0058863","world_art_id":null,"type":"movie","add":"2019-09-30 21:40:29","orig_title":"La 317ème section","year":"1965-03-31","translations":["Любительский (одноголосый закадровый)"],"quality":"dvdrip","translation":"Любительский (одноголосый закадровый)","update":"2019-10-01 12:53:09","iframe_src":"//7923.svetacdn.in/IAF0wWTdNYZm/movie/31361"},{"id":31360,"title":"Дом длинных теней","kp_id":"5650","imdb_id":"tt0085693","world_art_id":null,"type":"movie","add":"2019-09-30 21:34:19","orig_title":"House of the Long Shadows","year":"1983-06-17","translations":["Профессиональный (двухголосый закадровый) (НТВ)"],"quality":"bd","translation":"Профессиональный (двухголосый закадровый) (НТВ)","update":"2019-10-01 12:50:30","iframe_src":"//7923.svetacdn.in/IAF0wWTdNYZm/movie/31360"},{"id":31359,"title":"По следу Тигра","kp_id":"233801","imdb_id":"tt0074921","world_art_id":null,"type":"movie","add":"2019-09-30 21:24:25","orig_title":"Most","year":"1969-07-14","translations":["Полное дублирование"],"quality":"hdtv","translation":"Полное дублирование","update":"2019-10-01 12:44:53","iframe_src":"//7923.svetacdn.in/IAF0wWTdNYZm/movie/31359"},{"id":31357,"title":"Нирвана","kp_id":"35545","imdb_id":"tt0119794","world_art_id":null,"type":"movie","add":"2019-09-30 20:56:12","orig_title":"Nirvana","year":"1997-01-24","translations":["Профессиональный (двухголосый закадровый)"],"quality":"dvdrip","translation":"Профессиональный (двухголосый закадровый)","update":"2019-10-01 12:39:51","iframe_src":"//7923.svetacdn.in/IAF0wWTdNYZm/movie/31357"},{"id":31356,"title":"Ночные тени","kp_id":"231173","imdb_id":"tt0067473","world_art_id":null,"type":"movie","add":"2019-09-30 20:52:07","orig_title":"Nachtschatten","year":"1972-07-02","translations":["Любительский (одноголосый закадровый) (Воротилин Олег)"],"quality":"webdl","translation":"Любительский (одноголосый закадровый) (Воротилин Олег)","update":"2019-10-01 12:37:23","iframe_src":"//7923.svetacdn.in/IAF0wWTdNYZm/movie/31356"},{"id":31355,"title":"Обнаженное оружие","kp_id":"37223","imdb_id":"tt0341495","world_art_id":null,"type":"movie","add":"2019-09-30 20:45:55","orig_title":"Chek lo dak gung","year":"2002-11-09","translations":["Профессиональный (многоголосый закадровый) (West Video)"],"quality":"bd","translation":"Профессиональный (многоголосый закадровый) (West Video)","update":"2019-10-01 12:35:29","iframe_src":"//7923.svetacdn.in/IAF0wWTdNYZm/movie/31355"},{"id":31354,"title":"Пропавший взвод","kp_id":"490428","imdb_id":"tt1549012","world_art_id":null,"type":"movie","add":"2019-09-30 20:38:18","orig_title":"The Cross Roads: La Croisée des Chemins","year":"2010-11-02","translations":["Профессиональный (многоголосый закадровый)"],"quality":"dvdrip","translation":"Профессиональный (многоголосый закадровый)","update":"2019-10-01 12:34:20","iframe_src":"//7923.svetacdn.in/IAF0wWTdNYZm/movie/31354"},{"id":31352,"title":"Тень сомнения","kp_id":"296318","imdb_id":"tt0114406","world_art_id":null,"type":"movie","add":"2019-09-30 20:24:57","orig_title":"Shadow of a Doubt","year":"1995-12-03","translations":["Профессиональный (двухголосый закадровый) (НТВ)"],"quality":"dvdrip","translation":"Профессиональный (двухголосый закадровый) (НТВ)","update":"2019-10-01 12:30:00","iframe_src":"//7923.svetacdn.in/IAF0wWTdNYZm/movie/31352"},{"id":31351,"title":"Кошмар дома на холмах 2","kp_id":"585293","imdb_id":"tt1866251","world_art_id":null,"type":"movie","add":"2019-09-30 20:21:08","orig_title":"Coffin Baby","year":"2013-04-02","translations":["Любительский (двухголосый закадровый) (Колобок)"],"quality":"dvdrip","translation":"Любительский (двухголосый закадровый) (Колобок)","update":"2019-10-01 12:29:20","iframe_src":"//7923.svetacdn.in/IAF0wWTdNYZm/movie/31351"},{"id":31350,"title":"Ниндзя 2","kp_id":"164508","imdb_id":"tt0200310","world_art_id":null,"type":"movie","add":"2019-09-30 20:18:58","orig_title":"Zoku shinobi no mono","year":"1963-08-10","translations":["Любительский (двухголосый закадровый)"],"quality":"dvdrip","translation":"Любительский (двухголосый закадровый)","update":"2019-10-01 12:29:02","iframe_src":"//7923.svetacdn.in/IAF0wWTdNYZm/movie/31350"},{"id":31349,"title":"Ниндзя 3","kp_id":"165343","imdb_id":"tt0187501","world_art_id":null,"type":"movie","add":"2019-09-30 19:52:47","orig_title":"Shin shinobi no mono","year":"1963-12-28","translations":["Любительский (одноголосый закадровый)"],"quality":"dvdrip","translation":"Любительский (одноголосый закадровый)","update":"2019-10-01 12:28:11","iframe_src":"//7923.svetacdn.in/IAF0wWTdNYZm/movie/31349"},{"id":31348,"title":"Храбрый портняжка","kp_id":"420659","imdb_id":"tt1260404","world_art_id":null,"type":"movie","add":"2019-09-30 19:35:23","orig_title":"Das tapfere Schneiderlein","year":"2008-11-13","translations":["Профессиональный (многоголосый закадровый) (Игмар)"],"quality":"hdtv","translation":"Профессиональный (многоголосый закадровый) (Игмар)","update":"2019-10-01 12:24:52","iframe_src":"//7923.svetacdn.in/IAF0wWTdNYZm/movie/31348"},{"id":31347,"title":"Удачливый Ганс","kp_id":"928473","imdb_id":"tt4915492","world_art_id":null,"type":"movie","add":"2019-09-30 19:33:51","orig_title":"Hans im Glück","year":"2015-12-26","translations":["Профессиональный (многоголосый закадровый) (Игмар)"],"quality":"hdtv","translation":"Профессиональный (многоголосый закадровый) (Игмар)","update":"2019-10-01 12:24:03","iframe_src":"//7923.svetacdn.in/IAF0wWTdNYZm/movie/31347"},{"id":31346,"title":"Три пера","kp_id":"846329","imdb_id":"tt4071548","world_art_id":null,"type":"movie","add":"2019-09-30 19:32:30","orig_title":"Die drei Federn","year":"2014-12-26","translations":["Профессиональный (многоголосый закадровый) (Игмар)"],"quality":"hdtv","translation":"Профессиональный (многоголосый закадровый) (Игмар)","update":"2019-10-01 12:23:20","iframe_src":"//7923.svetacdn.in/IAF0wWTdNYZm/movie/31346"},{"id":31345,"title":"Принцесса Мален","kp_id":"958313","imdb_id":"tt5295224","world_art_id":null,"type":"movie","add":"2019-09-30 19:28:34","orig_title":"Prinzessin Maleen","year":"2015-12-26","translations":["Профессиональный (многоголосый закадровый) (Игмар)"],"quality":"hdtv","translation":"Профессиональный (многоголосый закадровый) (Игмар)","update":"2019-10-01 12:22:09","iframe_src":"//7923.svetacdn.in/IAF0wWTdNYZm/movie/31345"},{"id":31344,"title":"Принц Химмельблау и Фея Люпина","kp_id":"992559","imdb_id":"tt5863818","world_art_id":null,"type":"movie","add":"2019-09-30 19:27:08","orig_title":"Prinz Himmelblau und Fee Lupine","year":"2016-09-26","translations":["Профессиональный (многоголосый закадровый) (Игмар)"],"quality":"hdtv","translation":"Профессиональный (многоголосый закадровый) (Игмар)","update":"2019-10-01 12:21:15","iframe_src":"//7923.svetacdn.in/IAF0wWTdNYZm/movie/31344"},{"id":31213,"title":"Тель-Авив в огне","kp_id":"987506","imdb_id":"tt5791098","world_art_id":null,"type":"movie","add":"2019-09-27 09:49:07","orig_title":"Tel Aviv on Fire","year":"2018-09-02","translations":["Любительский (многоголосый закадровый) (Синема УС)"],"quality":"bd","translation":"Любительский (многоголосый закадровый) (Синема УС)","update":"2019-10-01 12:31:15","iframe_src":"//7923.svetacdn.in/IAF0wWTdNYZm/movie/31213"},{"id":6199,"title":"Восставший из ада","kp_id":"35614","imdb_id":"tt0093177","world_art_id":null,"type":"movie","add":"2016-10-12 05:45:16","orig_title":"Hellraiser","year":"1987-05-13","translations":["Профессиональный (многоголосый закадровый)","Авторский (одноголосый закадровый) (Гаврилов Андрей)"],"quality":"bd","translation":"Профессиональный (многоголосый закадровый)","update":"2019-10-01 12:52:30","iframe_src":"//7923.svetacdn.in/IAF0wWTdNYZm/movie/6199"},{"id":1072,"title":"Мученицы","kp_id":"544194","imdb_id":"tt1663655","world_art_id":null,"type":"movie","add":"2016-04-14 05:18:50","orig_title":"Martyrs","year":"2015-10-09","translations":["Полное дублирование","Любительский (многоголосый закадровый)"],"quality":"bd","translation":"Полное дублирование","update":"2019-10-01 12:46:25","iframe_src":"//7923.svetacdn.in/IAF0wWTdNYZm/movie/1072"}],"current_page":1230,"first_page_url":"https://videocdn.tv/api/short?limit=100&api_token=6Onb1W1alEUrBcKJZD3GoKBbWyAl2uG2&cache31230=31230&page=1","from":122901,"last_page":644,"last_page_url":"https://videocdn.tv/api/short?limit=100&api_token=6Onb1W1alEUrBcKJZD3GoKBbWyAl2uG2&cache31230=31230&page=644","next_page_url":null,"path":"https://videocdn.tv/api/short","per_page":100,"prev_page_url":"https://videocdn.tv/api/short?limit=100&api_token=6Onb1W1alEUrBcKJZD3GoKBbWyAl2uG2&cache31230=31230&page=1229","to":122920,"total":64398}