{"result":true,"data":[{"id":17682,"title":"На вкус и цвет","kp_id":"1023337","imdb_id":"tt6290418","world_art_id":null,"type":"movie","add":"2018-07-10 00:33:28","orig_title":"Les goûts et les couleurs","year":"2018-06-24","translations":["Любительский (многоголосый закадровый) (Синема УС)"],"quality":"webdl","translation":"Любительский (многоголосый закадровый) (Синема УС)","update":"2018-07-10 05:52:43","iframe_src":"//83.svetacdn.in/PfJ50H0ZBPg3/movie/17682"},{"id":17681,"title":"Лучница","kp_id":"986600","imdb_id":"tt5806646","world_art_id":null,"type":"movie","add":"2018-07-10 00:31:33","orig_title":"The Archer","year":"2017-03-11","translations":["Любительский (многоголосый закадровый) (Синема УС)"],"quality":"webdl","translation":"Любительский (многоголосый закадровый) (Синема УС)","update":"2018-07-10 05:52:57","iframe_src":"//83.svetacdn.in/PfJ50H0ZBPg3/movie/17681"},{"id":17679,"title":"Интенсивный уход","kp_id":"959493","imdb_id":"tt5231992","world_art_id":null,"type":"movie","add":"2018-07-10 00:27:35","orig_title":"Intensive Care","year":"2018-05-23","translations":["Любительский (многоголосый закадровый) (Синема УС)"],"quality":"webdl","translation":"Любительский (многоголосый закадровый) (Синема УС)","update":"2018-07-10 05:56:38","iframe_src":"//83.svetacdn.in/PfJ50H0ZBPg3/movie/17679"},{"id":17678,"title":"Иностранцы в Берлине","kp_id":"1028916","imdb_id":"tt6154710","world_art_id":null,"type":"movie","add":"2018-07-10 00:23:56","orig_title":"die Expats","year":"2018-03-30","translations":["Любительский (многоголосый закадровый) (Синема УС)"],"quality":"webdl","translation":"Любительский (многоголосый закадровый) (Синема УС)","update":"2018-07-10 05:57:36","iframe_src":"//83.svetacdn.in/PfJ50H0ZBPg3/movie/17678"},{"id":17677,"title":"Видеоигры вчерашнего дня","kp_id":null,"imdb_id":"tt7116478","world_art_id":null,"type":"movie","add":"2018-07-10 00:21:38","orig_title":"The Bits of Yesterday","year":"2018-04-20","translations":["Любительский (многоголосый закадровый) (Синема УС)"],"quality":"webdl","translation":"Любительский (многоголосый закадровый) (Синема УС)","update":"2018-07-10 06:04:55","iframe_src":"//83.svetacdn.in/PfJ50H0ZBPg3/movie/17677"},{"id":17676,"title":"Добро пожаловать в Кьюриосити","kp_id":"846752","imdb_id":"tt3517306","world_art_id":null,"type":"movie","add":"2018-07-10 00:19:21","orig_title":"Welcome to Curiosity","year":"2018-05-25","translations":["Любительский (многоголосый закадровый) (Синема УС)"],"quality":"bd","translation":"Любительский (многоголосый закадровый) (Синема УС)","update":"2018-07-10 06:05:59","iframe_src":"//83.svetacdn.in/PfJ50H0ZBPg3/movie/17676"},{"id":17675,"title":"Золотой грааль","kp_id":"631993","imdb_id":"tt1980942","world_art_id":null,"type":"movie","add":"2018-07-10 00:03:15","orig_title":"Creed of Gold","year":"2014-08-12","translations":["Профессиональный (многоголосый закадровый)"],"quality":"webdl","translation":"Профессиональный (многоголосый закадровый)","update":"2018-07-10 06:14:59","iframe_src":"//83.svetacdn.in/PfJ50H0ZBPg3/movie/17675"},{"id":17674,"title":"Поломка","kp_id":"1137699","imdb_id":"tt8362964","world_art_id":null,"type":"movie","add":"2018-07-09 23:59:12","orig_title":"Brokedown","year":"2018-06-16","translations":["Любительский (многоголосый закадровый) (Синема УС)"],"quality":"webdl","translation":"Любительский (многоголосый закадровый) (Синема УС)","update":"2018-07-10 06:15:31","iframe_src":"//83.svetacdn.in/PfJ50H0ZBPg3/movie/17674"},{"id":17586,"title":"Рыба не моргает","kp_id":"17618","imdb_id":"tt0284115","world_art_id":null,"type":"movie","add":"2018-07-05 08:04:39","orig_title":"Fish Don't Blink","year":"2002-04-13","translations":["Профессиональный (двухголосый закадровый) (НТВ)"],"quality":"hdtv","translation":"Профессиональный (двухголосый закадровый) (НТВ)","update":"2018-07-10 10:46:51","iframe_src":"//83.svetacdn.in/PfJ50H0ZBPg3/movie/17586"},{"id":17584,"title":"Тени забытых предков","kp_id":"42256","imdb_id":"tt0058642","world_art_id":null,"type":"movie","add":"2018-07-05 07:56:52","orig_title":"Tini zabutykh predkiv","year":"1965-03-22","translations":["Профессиональный (двухголосый закадровый)"],"quality":"bd","translation":"Профессиональный (двухголосый закадровый)","update":"2018-07-09 11:59:35","iframe_src":"//83.svetacdn.in/PfJ50H0ZBPg3/movie/17584"},{"id":17583,"title":"Преступление и наказание","kp_id":"158905","imdb_id":"tt0049106","world_art_id":null,"type":"movie","add":"2018-07-05 07:54:57","orig_title":"Crime et châtiment","year":"1956-11-27","translations":["Профессиональный (двухголосый закадровый)"],"quality":"bd","translation":"Профессиональный (двухголосый закадровый)","update":"2018-07-09 11:58:39","iframe_src":"//83.svetacdn.in/PfJ50H0ZBPg3/movie/17583"},{"id":17582,"title":"Нас унесет ветер","kp_id":"76707","imdb_id":"tt0209463","world_art_id":null,"type":"movie","add":"2018-07-05 07:53:15","orig_title":"Bad ma ra khahad bord","year":"1999-06-10","translations":["Профессиональный (двухголосый закадровый)"],"quality":"bd","translation":"Профессиональный (двухголосый закадровый)","update":"2018-07-09 11:58:06","iframe_src":"//83.svetacdn.in/PfJ50H0ZBPg3/movie/17582"},{"id":17581,"title":"Выстрел в темноте","kp_id":"20173","imdb_id":"tt0058586","world_art_id":null,"type":"movie","add":"2018-07-05 07:51:24","orig_title":"A Shot in the Dark","year":"1964-06-23","translations":["Профессиональный (двухголосый закадровый)"],"quality":"bd","translation":"Профессиональный (двухголосый закадровый)","update":"2018-07-09 11:55:53","iframe_src":"//83.svetacdn.in/PfJ50H0ZBPg3/movie/17581"},{"id":17580,"title":"Мне не больно","kp_id":"178722","imdb_id":"tt0477323","world_art_id":null,"type":"movie","add":"2018-07-05 07:50:14","orig_title":"Mne ne bolno","year":"2007-03-19","translations":["Оригинальная дорожка"],"quality":"webdl","translation":"Оригинальная дорожка","update":"2018-07-09 11:54:50","iframe_src":"//83.svetacdn.in/PfJ50H0ZBPg3/movie/17580"},{"id":17579,"title":"Сорокапятка","kp_id":"452783","imdb_id":null,"world_art_id":null,"type":"movie","add":"2018-07-05 07:48:58","orig_title":"Сорокапятка","year":"2009-03-22","translations":["Оригинальная дорожка"],"quality":"hdtv","translation":"Оригинальная дорожка","update":"2018-07-09 11:53:52","iframe_src":"//83.svetacdn.in/PfJ50H0ZBPg3/movie/17579"},{"id":17578,"title":"Легенда о Сурамской крепости","kp_id":"43477","imdb_id":"tt0087606","world_art_id":null,"type":"movie","add":"2018-07-05 07:46:47","orig_title":"Ambavi Suramis tsikhitsa","year":"1986-06-22","translations":["Профессиональный (одноголосый закадровый)"],"quality":"bd","translation":"Профессиональный (одноголосый закадровый)","update":"2018-07-09 11:53:03","iframe_src":"//83.svetacdn.in/PfJ50H0ZBPg3/movie/17578"},{"id":17577,"title":"Ашик-Кериб","kp_id":"7659","imdb_id":"tt0094681","world_art_id":null,"type":"movie","add":"2018-07-05 07:41:47","orig_title":"Ashug-Karibi","year":"1988-07-03","translations":["Профессиональный (одноголосый закадровый)"],"quality":"bd","translation":"Профессиональный (одноголосый закадровый)","update":"2018-07-09 11:45:21","iframe_src":"//83.svetacdn.in/PfJ50H0ZBPg3/movie/17577"},{"id":17576,"title":"Горящий человек","kp_id":"494806","imdb_id":"tt1570559","world_art_id":null,"type":"movie","add":"2018-07-05 07:39:00","orig_title":"Burning Man","year":"2011-09-10","translations":["Любительский (многоголосый закадровый)"],"quality":"bd","translation":"Любительский (многоголосый закадровый)","update":"2018-07-09 11:43:42","iframe_src":"//83.svetacdn.in/PfJ50H0ZBPg3/movie/17576"},{"id":16498,"title":"Правда или действие","kp_id":"1045590","imdb_id":"tt6772950","world_art_id":null,"type":"movie","add":"2018-04-26 23:11:10","orig_title":"Truth or Dare","year":"2018-04-12","translations":["Полное дублирование","Полное дублирование (iTunes)"],"quality":"webdl","translation":"Полное дублирование","update":"2018-07-09 11:42:37","iframe_src":"//83.svetacdn.in/PfJ50H0ZBPg3/movie/16498"},{"id":14936,"title":"Цирк уродов","kp_id":"937448","imdb_id":"tt5089534","world_art_id":null,"type":"movie","add":"2018-01-22 06:48:21","orig_title":"Freak Show","year":"2017-02-13","translations":["Профессиональный (многоголосый закадровый)","Профессиональный (многоголосый закадровый) (GreenРай Studio)"],"quality":"webdl","translation":"Профессиональный (многоголосый закадровый)","update":"2018-07-10 06:11:58","iframe_src":"//83.svetacdn.in/PfJ50H0ZBPg3/movie/14936"}],"current_page":1726,"first_page_url":"https://videocdn.tv/api/short?limit=100&api_token=RgFQdUIR2dRmwv8iYa5SnFNgnw3vpjKj&cache31726=31726&page=1","from":172501,"last_page":605,"last_page_url":"https://videocdn.tv/api/short?limit=100&api_token=RgFQdUIR2dRmwv8iYa5SnFNgnw3vpjKj&cache31726=31726&page=605","next_page_url":null,"path":"https://videocdn.tv/api/short","per_page":100,"prev_page_url":"https://videocdn.tv/api/short?limit=100&api_token=RgFQdUIR2dRmwv8iYa5SnFNgnw3vpjKj&cache31726=31726&page=1725","to":172520,"total":60483}