{"result":true,"data":[{"id":44548,"title":"Восемь минут второго","kp_id":"1429949","imdb_id":"tt13186470","world_art_id":null,"type":"movie","add":"2020-10-18 09:21:15","orig_title":"8ight After","year":"2020-10-15","translations":["Любительский (многоголосый закадровый) (Синема УС)"],"quality":"webdl","translation":"Любительский (многоголосый закадровый) (Синема УС)","update":"2020-10-18 18:42:54","iframe_src":"//83.svetacdn.in/PfJ50H0ZBPg3/movie/44548"},{"id":44545,"title":"Руководство по выживанию","kp_id":"1341147","imdb_id":"tt11594696","world_art_id":null,"type":"movie","add":"2020-10-18 09:14:16","orig_title":"Survival Guide","year":"2020-10-01","translations":["Любительский (многоголосый закадровый) (Синема УС)"],"quality":"webdl","translation":"Любительский (многоголосый закадровый) (Синема УС)","update":"2020-10-18 18:47:30","iframe_src":"//83.svetacdn.in/PfJ50H0ZBPg3/movie/44545"},{"id":44460,"title":"Рози","kp_id":"734205","imdb_id":"tt2661578","world_art_id":null,"type":"movie","add":"2020-10-15 16:08:02","orig_title":"Rosie","year":"2013-01-24","translations":["Любительский (одноголосый закадровый)"],"quality":"dvdrip","translation":"Любительский (одноголосый закадровый)","update":"2020-10-19 11:49:39","iframe_src":"//83.svetacdn.in/PfJ50H0ZBPg3/movie/44460"},{"id":44459,"title":"Сердце мамы","kp_id":"156880","imdb_id":"tt0195621","world_art_id":null,"type":"movie","add":"2020-10-15 15:26:55","orig_title":"Cuore di mamma","year":"1969-02-08","translations":["Авторский (одноголосый закадровый) (Штейн Владимир)"],"quality":"dvdrip","translation":"Авторский (одноголосый закадровый) (Штейн Владимир)","update":"2020-10-18 21:49:10","iframe_src":"//83.svetacdn.in/PfJ50H0ZBPg3/movie/44459"},{"id":44457,"title":"Наш ребенок","kp_id":"1074678","imdb_id":"tt7477236","world_art_id":null,"type":"movie","add":"2020-10-15 08:54:43","orig_title":"Unser Kind","year":"2018-10-08","translations":["Любительский (многоголосый закадровый) (Синема УС)"],"quality":"webdl","translation":"Любительский (многоголосый закадровый) (Синема УС)","update":"2020-10-19 13:54:07","iframe_src":"//83.svetacdn.in/PfJ50H0ZBPg3/movie/44457"},{"id":44454,"title":"Юлиуш","kp_id":"1172219","imdb_id":"tt8657824","world_art_id":null,"type":"movie","add":"2020-10-15 07:56:50","orig_title":"Juliusz","year":"2018-09-14","translations":["Любительский (многоголосый закадровый) (AlphaProject)"],"quality":"webdl","translation":"Любительский (многоголосый закадровый) (AlphaProject)","update":"2020-10-19 13:54:36","iframe_src":"//83.svetacdn.in/PfJ50H0ZBPg3/movie/44454"},{"id":44452,"title":"Карьеристка","kp_id":"1098205","imdb_id":"tt7555552","world_art_id":null,"type":"movie","add":"2020-10-15 07:50:56","orig_title":"Kobieta sukcesu","year":"2018-03-15","translations":["Любительский (многоголосый закадровый) (AlphaProject)"],"quality":"webdl","translation":"Любительский (многоголосый закадровый) (AlphaProject)","update":"2020-10-19 13:53:23","iframe_src":"//83.svetacdn.in/PfJ50H0ZBPg3/movie/44452"},{"id":44435,"title":"Нэмури Кёсиро 12: Дворцовый зверинец","kp_id":"164781","imdb_id":"tt0148931","world_art_id":null,"type":"movie","add":"2020-10-14 17:40:50","orig_title":"Nemuri Kyôshirô: Akujo-gari","year":"1969-01-11","translations":["Авторский (одноголосый закадровый) (Кузнецов Сергей)"],"quality":"dvdrip","translation":"Авторский (одноголосый закадровый) (Кузнецов Сергей)","update":"2020-10-18 21:51:49","iframe_src":"//83.svetacdn.in/PfJ50H0ZBPg3/movie/44435"},{"id":44434,"title":"Нэмури Кёсиро 11: Человек-тарантул","kp_id":"164783","imdb_id":"tt0148934","world_art_id":null,"type":"movie","add":"2020-10-14 17:37:39","orig_title":"Nemuri Kyôshirô: Hitohada gumo","year":"1968-05-01","translations":["Авторский (одноголосый закадровый) (Кузнецов Сергей)"],"quality":"dvdrip","translation":"Авторский (одноголосый закадровый) (Кузнецов Сергей)","update":"2020-10-18 21:52:41","iframe_src":"//83.svetacdn.in/PfJ50H0ZBPg3/movie/44434"},{"id":44433,"title":"Нэмури Кёсиро 10: Самурай по имени Нэмури","kp_id":"164784","imdb_id":"tt0148933","world_art_id":null,"type":"movie","add":"2020-10-14 17:33:02","orig_title":"Nemuri Kyôshirô: Onna jigoku","year":"1968-01-13","translations":["Авторский (одноголосый закадровый) (Кузнецов Сергей)"],"quality":"dvdrip","translation":"Авторский (одноголосый закадровый) (Кузнецов Сергей)","update":"2020-10-18 21:55:38","iframe_src":"//83.svetacdn.in/PfJ50H0ZBPg3/movie/44433"},{"id":44432,"title":"Нэмури Кёсиро 9: Тропа, полная ловушек","kp_id":"164685","imdb_id":"tt0148930","world_art_id":null,"type":"movie","add":"2020-10-14 16:51:39","orig_title":"Nemuri Kyôshirô burai-hikae: Mashô no hada","year":"1967-07-15","translations":["Авторский (одноголосый закадровый) (Кузнецов Сергей)"],"quality":"dvdrip","translation":"Авторский (одноголосый закадровый) (Кузнецов Сергей)","update":"2020-10-18 21:54:39","iframe_src":"//83.svetacdn.in/PfJ50H0ZBPg3/movie/44432"},{"id":44431,"title":"Нэмури Кёсиро 8: Меч, спасший Эдо","kp_id":"164785","imdb_id":"tt0123187","world_art_id":null,"type":"movie","add":"2020-10-14 16:46:53","orig_title":"Nemuri Kyôshirô: Buraiken","year":"1966-11-09","translations":["Авторский (одноголосый закадровый) (Кузнецов Сергей)"],"quality":"dvdrip","translation":"Авторский (одноголосый закадровый) (Кузнецов Сергей)","update":"2020-10-18 21:53:43","iframe_src":"//83.svetacdn.in/PfJ50H0ZBPg3/movie/44431"},{"id":44426,"title":"Нэмури Кёсиро 5: Меч огня","kp_id":"164787","imdb_id":"tt0148936","world_art_id":null,"type":"movie","add":"2020-10-14 09:28:48","orig_title":"Nemuri Kyôshirô: Enjôken","year":"1965-01-13","translations":["Авторский (одноголосый закадровый) (Кузнецов Сергей)"],"quality":"webdl","translation":"Авторский (одноголосый закадровый) (Кузнецов Сергей)","update":"2020-10-18 05:15:59","iframe_src":"//83.svetacdn.in/PfJ50H0ZBPg3/movie/44426"},{"id":44424,"title":"Нэмури Кёсиро 6: Меч сатаны","kp_id":"164687","imdb_id":"tt0148937","world_art_id":null,"type":"movie","add":"2020-10-14 09:09:54","orig_title":"Nemuri Kyôshirô: Mashôken","year":"1965-05-01","translations":["Авторский (одноголосый закадровый) (Кузнецов Сергей)"],"quality":"webdl","translation":"Авторский (одноголосый закадровый) (Кузнецов Сергей)","update":"2020-10-18 05:19:51","iframe_src":"//83.svetacdn.in/PfJ50H0ZBPg3/movie/44424"},{"id":44332,"title":"Прощай, полицейский","kp_id":"94434","imdb_id":"tt0072603","world_art_id":null,"type":"movie","add":"2020-10-12 08:54:33","orig_title":"Adieu poulet","year":"1975-12-10","translations":["Профессиональный (многоголосый закадровый) (5-й канал СПб)","Полное дублирование (Киностудия им. Горького)"],"quality":"bd","translation":"Профессиональный (многоголосый закадровый) (5-й канал СПб)","update":"2020-10-19 11:46:27","iframe_src":"//83.svetacdn.in/PfJ50H0ZBPg3/movie/44332"},{"id":44325,"title":"Queen: Дни наших жизней","kp_id":"624506","imdb_id":"tt1977894","world_art_id":null,"type":"movie","add":"2020-10-11 23:34:37","orig_title":"Queen: Days of Our Lives","year":"2011-05-29","translations":["Профессиональный (многоголосый закадровый)"],"quality":"bd","translation":"Профессиональный (многоголосый закадровый)","update":"2020-10-19 11:54:16","iframe_src":"//83.svetacdn.in/PfJ50H0ZBPg3/movie/44325"},{"id":41703,"title":"Грейхаунд","kp_id":"1055194","imdb_id":"tt6048922","world_art_id":null,"type":"movie","add":"2020-07-10 11:31:40","orig_title":"Greyhound","year":"2020-07-10","translations":["Любительский (многоголосый закадровый) (AlphaProject)","Original (English)","Профессиональный (многоголосый закадровый) (HDrezka Studio)","Профессиональный (многоголосый закадровый) (HDrezka Studio)","Полное дублирование"],"quality":"webdl","translation":"Любительский (многоголосый закадровый) (AlphaProject)","update":"2020-10-18 20:22:06","iframe_src":"//83.svetacdn.in/PfJ50H0ZBPg3/movie/41703"},{"id":41583,"title":"Форпост","kp_id":"1163442","imdb_id":"tt3833480","world_art_id":null,"type":"movie","add":"2020-07-03 20:54:42","orig_title":"The Outpost","year":"2020-07-03","translations":["Любительский (многоголосый закадровый) (@MUZOBOZ@)","Профессиональный (многоголосый закадровый) (HDrezka Studio)","Original (English)","Профессиональный (многоголосый закадровый) (HDrezka Studio)","Профессиональный (многоголосый закадровый) (HDrezka Studio)","Полное дублирование (iTunes)"],"quality":"webdl","translation":"Любительский (многоголосый закадровый) (@MUZOBOZ@)","update":"2020-10-19 06:08:38","iframe_src":"//83.svetacdn.in/PfJ50H0ZBPg3/movie/41583"},{"id":35502,"title":"Нэмури Кёсиро 07: Принцесса в маске","kp_id":"164686","imdb_id":"tt0148941","world_art_id":null,"type":"movie","add":"2020-01-26 20:27:54","orig_title":"Nemuri Kyôshirô: Tajôken","year":"1966-03-12","translations":["Авторский (одноголосый закадровый) (Кузнецов Сергей)","Авторский (одноголосый закадровый) (Кузнецов Сергей)"],"quality":"dvdrip","translation":"Авторский (одноголосый закадровый) (Кузнецов Сергей)","update":"2020-10-18 05:17:15","iframe_src":"//83.svetacdn.in/PfJ50H0ZBPg3/movie/35502"},{"id":35501,"title":"Нэмури Кёсиро 2: Поединок","kp_id":"164789","imdb_id":"tt0148935","world_art_id":null,"type":"movie","add":"2020-01-26 20:24:29","orig_title":"Nemuri Kyôshirô: Shôbu","year":"1964-01-09","translations":["Авторский (одноголосый закадровый) (Иванов Михаил)","Авторский (одноголосый закадровый) (Иванов Михаил)"],"quality":"dvdrip","translation":"Авторский (одноголосый закадровый) (Иванов Михаил)","update":"2020-10-18 05:18:48","iframe_src":"//83.svetacdn.in/PfJ50H0ZBPg3/movie/35501"},{"id":3289,"title":"Этим пыльным летом","kp_id":"1138858","imdb_id":null,"world_art_id":null,"type":"serial","add":"2018-10-14 05:49:11","orig_title":"Этим пыльным летом","year":"2018-10-13","translations":["Оригинальная дорожка"],"seasons_count":1,"episodes_count":4,"episodes":4,"update":"2018-10-15 12:12:42","iframe_src":"//83.svetacdn.in/PfJ50H0ZBPg3/tv-series/3289"},{"id":3288,"title":"Смышленый пилот","kp_id":"1047621","imdb_id":"tt6491306","world_art_id":null,"type":"serial","add":"2018-10-13 22:09:32","orig_title":"U-Prince: The Foxy Pilot","year":"2016-11-06","translations":["Любительский (одноголосый закадровый) (Julia Prosenuk)"],"seasons_count":1,"episodes_count":4,"episodes":4,"update":"2018-10-16 07:57:29","iframe_src":"//83.svetacdn.in/PfJ50H0ZBPg3/tv-series/3288"},{"id":3287,"title":"Абсолютный экономист","kp_id":"1047604","imdb_id":"tt6491246","world_art_id":null,"type":"serial","add":"2018-10-13 22:01:13","orig_title":"U-Prince: The Absolute Economist","year":"2016-10-09","translations":["Любительский (одноголосый закадровый) (Julia Prosenuk)"],"seasons_count":1,"episodes_count":4,"episodes":4,"update":"2018-10-15 11:54:09","iframe_src":"//83.svetacdn.in/PfJ50H0ZBPg3/tv-series/3287"},{"id":3286,"title":"Красавчик ковбой","kp_id":"1047410","imdb_id":"tt6483794","world_art_id":null,"type":"serial","add":"2018-10-13 21:53:12","orig_title":"U-Prince: The Handsome Cowboy","year":"2016-05-22","translations":["Любительский (одноголосый закадровый) (Julia Prosenuk)"],"seasons_count":1,"episodes_count":8,"episodes":8,"update":"2018-10-15 11:12:09","iframe_src":"//83.svetacdn.in/PfJ50H0ZBPg3/tv-series/3286"},{"id":3285,"title":"Вредный пекарь","kp_id":"1047575","imdb_id":"tt6491220","world_art_id":null,"type":"serial","add":"2018-10-13 21:41:59","orig_title":"U-Prince: The Badass Baker","year":"2016-09-11","translations":["Любительский (одноголосый закадровый) (Julia Prosenuk)"],"seasons_count":1,"episodes_count":4,"episodes":4,"update":"2018-10-15 11:03:17","iframe_src":"//83.svetacdn.in/PfJ50H0ZBPg3/tv-series/3285"},{"id":3283,"title":"Алиса знает, что делать!","kp_id":"585383","imdb_id":"tt3772478","world_art_id":null,"type":"serial","add":"2018-10-11 13:28:12","orig_title":"Alisa znaet, chto delat!","year":"2013-11-16","translations":["Оригинальная дорожка"],"seasons_count":1,"episodes_count":24,"episodes":24,"update":"2018-10-12 11:17:30","iframe_src":"//83.svetacdn.in/PfJ50H0ZBPg3/tv-series/3283"},{"id":3282,"title":"Фарт","kp_id":"496900","imdb_id":"tt1578887","world_art_id":null,"type":"serial","add":"2018-10-11 12:49:52","orig_title":"Luck","year":"2011-12-11","translations":["Профессиональный (многоголосый закадровый) (LostFilm)"],"seasons_count":1,"episodes_count":9,"episodes":9,"update":"2018-10-12 11:51:23","iframe_src":"//83.svetacdn.in/PfJ50H0ZBPg3/tv-series/3282"},{"id":3281,"title":"Квиры","kp_id":"1048687","imdb_id":"tt7230406","world_art_id":null,"type":"serial","add":"2018-10-11 07:42:10","orig_title":"Queers","year":"2017-07-31","translations":["Любительский (многоголосый закадровый) (GreenРай Studio)"],"seasons_count":1,"episodes_count":3,"episodes":3,"update":"2018-10-11 19:11:23","iframe_src":"//83.svetacdn.in/PfJ50H0ZBPg3/tv-series/3281"},{"id":3280,"title":"Отчаянный домохозяин","kp_id":"1045714","imdb_id":null,"world_art_id":null,"type":"serial","add":"2018-10-11 07:37:03","orig_title":"Отчаянный домохозяин","year":"2017-09-23","translations":["Оригинальная дорожка"],"seasons_count":1,"episodes_count":4,"episodes":4,"update":"2018-10-11 19:15:40","iframe_src":"//83.svetacdn.in/PfJ50H0ZBPg3/tv-series/3280"},{"id":3278,"title":"Все возрасты любви","kp_id":"992625","imdb_id":null,"world_art_id":null,"type":"serial","add":"2018-10-10 05:30:34","orig_title":"Все возрасты любви","year":"2018-10-09","translations":["Оригинальная дорожка"],"seasons_count":1,"episodes_count":8,"episodes":8,"update":"2018-10-10 12:53:48","iframe_src":"//83.svetacdn.in/PfJ50H0ZBPg3/tv-series/3278"},{"id":3276,"title":"Московская борзая 2","kp_id":"1189959","imdb_id":null,"world_art_id":null,"type":"serial","add":"2018-10-09 16:16:35","orig_title":"Московская борзая 2","year":"2018-10-01","translations":["Оригинальная дорожка"],"seasons_count":1,"episodes_count":16,"episodes":16,"update":"2018-10-12 14:39:07","iframe_src":"//83.svetacdn.in/PfJ50H0ZBPg3/tv-series/3276"},{"id":3273,"title":"Впереди день","kp_id":"1125435","imdb_id":null,"world_art_id":null,"type":"serial","add":"2018-10-09 11:53:25","orig_title":"Впереди день","year":"2018-10-08","translations":["Оригинальная дорожка"],"seasons_count":1,"episodes_count":8,"episodes":8,"update":"2018-10-12 15:55:07","iframe_src":"//83.svetacdn.in/PfJ50H0ZBPg3/tv-series/3273"},{"id":3271,"title":"Жатва","kp_id":null,"imdb_id":"tt5674704","world_art_id":null,"type":"serial","add":"2018-10-09 07:19:56","orig_title":"The Reaping","year":"2017-02-21","translations":["Профессиональный (двухголосый закадровый) (ViruseProject)"],"seasons_count":1,"episodes_count":7,"episodes":7,"update":"2018-10-10 19:05:08","iframe_src":"//83.svetacdn.in/PfJ50H0ZBPg3/tv-series/3271"},{"id":3239,"title":"Район Эль Принсипе","kp_id":"774329","imdb_id":"tt2651246","world_art_id":null,"type":"serial","add":"2018-09-29 13:31:25","orig_title":"El Príncipe","year":"2014-02-04","translations":["Любительский (двухголосый закадровый)"],"seasons_count":1,"episodes_count":13,"episodes":13,"update":"2018-10-15 20:17:40","iframe_src":"//83.svetacdn.in/PfJ50H0ZBPg3/tv-series/3239"},{"id":3215,"title":"Дефективный детектив","kp_id":"230371","imdb_id":"tt0312172","world_art_id":null,"type":"serial","add":"2018-09-24 15:52:51","orig_title":"Monk","year":"2002-07-12","translations":["Профессиональный (многоголосый закадровый)","Профессиональный (многоголосый закадровый) (Universal Russia)"],"seasons_count":8,"episodes_count":124,"episodes":16,"update":"2018-10-11 09:05:23","iframe_src":"//83.svetacdn.in/PfJ50H0ZBPg3/tv-series/3215"},{"id":3193,"title":"Шоу 70−х","kp_id":"344207","imdb_id":"tt0165598","world_art_id":null,"type":"serial","add":"2018-09-20 06:58:04","orig_title":"That '70s Show","year":"1998-08-23","translations":["Любительский (многоголосый закадровый) (Несмертельное оружие)"],"seasons_count":8,"episodes_count":200,"episodes":22,"update":"2018-10-10 12:23:34","iframe_src":"//83.svetacdn.in/PfJ50H0ZBPg3/tv-series/3193"},{"id":3163,"title":"Пульс","kp_id":"901572","imdb_id":"tt6664638","world_art_id":null,"type":"serial","add":"2018-09-12 21:44:52","orig_title":"Pulse","year":"2017-06-20","translations":["Любительский (двухголосый закадровый) (Sunshine Studio)"],"seasons_count":1,"episodes_count":8,"episodes":8,"update":"2018-10-12 15:26:44","iframe_src":"//83.svetacdn.in/PfJ50H0ZBPg3/tv-series/3163"},{"id":3156,"title":"800 слов","kp_id":"891807","imdb_id":"tt4380324","world_art_id":null,"type":"serial","add":"2018-09-11 10:26:17","orig_title":"800 Words","year":"2015-09-15","translations":["Любительский (двухголосый закадровый) (GoldTeam)","Профессиональный (многоголосый закадровый) (TVShows)"],"seasons_count":3,"episodes_count":39,"episodes":15,"update":"2018-10-16 05:53:06","iframe_src":"//83.svetacdn.in/PfJ50H0ZBPg3/tv-series/3156"},{"id":3142,"title":"H2O: Просто добавь воды","kp_id":"397251","imdb_id":"tt0491603","world_art_id":null,"type":"serial","add":"2018-09-07 14:51:20","orig_title":"H2O: Just Add Water","year":"2006-07-07","translations":["Полное дублирование","Полное дублирование (Disney Channel)"],"seasons_count":3,"episodes_count":78,"episodes":26,"update":"2018-10-11 16:18:58","iframe_src":"//83.svetacdn.in/PfJ50H0ZBPg3/tv-series/3142"},{"id":274,"title":"Нереально","kp_id":"807444","imdb_id":"tt3314218","world_art_id":null,"type":"serial","add":"2016-07-09 06:19:19","orig_title":"UnREAL","year":"2015-06-01","translations":["Профессиональный (двухголосый закадровый) (Gears Media)","Профессиональный (многоголосый закадровый) (BaibaKo)"],"seasons_count":4,"episodes_count":38,"episodes":8,"update":"2018-10-11 07:22:52","iframe_src":"//83.svetacdn.in/PfJ50H0ZBPg3/tv-series/274"}],"current_page":402,"first_page_url":"https://videocdn.tv/api/short?limit=100&api_token=RgFQdUIR2dRmwv8iYa5SnFNgnw3vpjKj&cache3402=3402&page=1","from":40101,"last_page":620,"last_page_url":"https://videocdn.tv/api/short?limit=100&api_token=RgFQdUIR2dRmwv8iYa5SnFNgnw3vpjKj&cache3402=3402&page=620","next_page_url":"https://videocdn.tv/api/short?limit=100&api_token=RgFQdUIR2dRmwv8iYa5SnFNgnw3vpjKj&cache3402=3402&page=403","path":"https://videocdn.tv/api/short","per_page":100,"prev_page_url":"https://videocdn.tv/api/short?limit=100&api_token=RgFQdUIR2dRmwv8iYa5SnFNgnw3vpjKj&cache3402=3402&page=401","to":40140,"total":61946}