{"result":true,"data":[{"id":17109,"title":"Скарлет","kp_id":"874316","imdb_id":"tt3626504","world_art_id":null,"type":"movie","add":"2018-06-10 18:36:51","orig_title":"Scarlett","year":"2016-12-01","translations":["Любительский (многоголосый закадровый) (Синема УС)"],"quality":"webdl","translation":"Любительский (многоголосый закадровый) (Синема УС)","update":"2018-06-11 04:41:03","iframe_src":"//83.svetacdn.in/PfJ50H0ZBPg3/movie/17109"},{"id":17106,"title":"Безумие!","kp_id":"957798","imdb_id":"tt5236900","world_art_id":null,"type":"movie","add":"2018-06-10 18:25:34","orig_title":"Nuts!","year":"2016-01-22","translations":["Любительский (многоголосый закадровый) (Синема УС)"],"quality":"webdl","translation":"Любительский (многоголосый закадровый) (Синема УС)","update":"2018-06-11 04:35:58","iframe_src":"//83.svetacdn.in/PfJ50H0ZBPg3/movie/17106"},{"id":17105,"title":"Наши сумасшедшие годы","kp_id":"1000356","imdb_id":"tt6012792","world_art_id":null,"type":"movie","add":"2018-06-10 18:23:54","orig_title":"Nos années folles","year":"2017-05-27","translations":["Любительский (многоголосый закадровый) (Колобок)"],"quality":"bd","translation":"Любительский (многоголосый закадровый) (Колобок)","update":"2018-06-11 05:47:07","iframe_src":"//83.svetacdn.in/PfJ50H0ZBPg3/movie/17105"},{"id":17100,"title":"Подмышки с корицей, Тату и Пату!","kp_id":"953206","imdb_id":"tt5262450","world_art_id":null,"type":"movie","add":"2018-06-10 18:06:42","orig_title":"Kanelia kainaloon, Tatu ja Patu!","year":"2016-10-19","translations":["Любительский (многоголосый закадровый) (Колобок)"],"quality":"bd","translation":"Любительский (многоголосый закадровый) (Колобок)","update":"2018-06-11 04:43:35","iframe_src":"//83.svetacdn.in/PfJ50H0ZBPg3/movie/17100"},{"id":17095,"title":"Ужасная правда","kp_id":"1015","imdb_id":"tt0028597","world_art_id":null,"type":"movie","add":"2018-06-09 10:31:45","orig_title":"The Awful Truth","year":"1937-10-20","translations":["Профессиональный (двухголосый закадровый)"],"quality":"webdl","translation":"Профессиональный (двухголосый закадровый)","update":"2018-06-11 04:49:37","iframe_src":"//83.svetacdn.in/PfJ50H0ZBPg3/movie/17095"},{"id":17094,"title":"Топор для новобрачной","kp_id":"102871","imdb_id":"tt0064904","world_art_id":null,"type":"movie","add":"2018-06-09 10:27:52","orig_title":"Il rosso segno della follia","year":"1970-06-02","translations":["Профессиональный (двухголосый закадровый)"],"quality":"bd","translation":"Профессиональный (двухголосый закадровый)","update":"2018-06-11 04:53:05","iframe_src":"//83.svetacdn.in/PfJ50H0ZBPg3/movie/17094"},{"id":17093,"title":"Столкновение","kp_id":"28207","imdb_id":"tt0092085","world_art_id":null,"type":"movie","add":"2018-06-09 10:25:37","orig_title":"Thrashin'","year":"1986-08-29","translations":["Профессиональный (двухголосый закадровый) (НТВ)"],"quality":"bd","translation":"Профессиональный (двухголосый закадровый) (НТВ)","update":"2018-06-11 04:54:23","iframe_src":"//83.svetacdn.in/PfJ50H0ZBPg3/movie/17093"},{"id":17092,"title":"Самый длинный день","kp_id":"1351","imdb_id":"tt0056197","world_art_id":null,"type":"movie","add":"2018-06-09 10:23:13","orig_title":"The Longest Day","year":"1962-09-25","translations":["Профессиональный (многоголосый закадровый)"],"quality":"bd","translation":"Профессиональный (многоголосый закадровый)","update":"2018-06-11 04:55:15","iframe_src":"//83.svetacdn.in/PfJ50H0ZBPg3/movie/17092"},{"id":17091,"title":"Принуждение","kp_id":"429075","imdb_id":"tt1308109","world_art_id":null,"type":"movie","add":"2018-06-09 10:20:23","orig_title":"Duress","year":"2009-08-20","translations":["Профессиональный (многоголосый закадровый) (Первый ТВЧ)"],"quality":"bd","translation":"Профессиональный (многоголосый закадровый) (Первый ТВЧ)","update":"2018-06-11 05:06:47","iframe_src":"//83.svetacdn.in/PfJ50H0ZBPg3/movie/17091"},{"id":17090,"title":"Призрак свободы","kp_id":"52118","imdb_id":"tt0071487","world_art_id":null,"type":"movie","add":"2018-06-09 10:17:04","orig_title":"Le Fantome De La Liberte","year":"1974-09-11","translations":["Профессиональный (двухголосый закадровый) (НТВ)"],"quality":"bd","translation":"Профессиональный (двухголосый закадровый) (НТВ)","update":"2018-06-11 05:49:58","iframe_src":"//83.svetacdn.in/PfJ50H0ZBPg3/movie/17090"},{"id":17089,"title":"Горгона","kp_id":"5721","imdb_id":"tt0058155","world_art_id":null,"type":"movie","add":"2018-06-09 10:05:34","orig_title":"The Gorgon","year":"1964-08-21","translations":["Профессиональный (многоголосый закадровый)"],"quality":"bd","translation":"Профессиональный (многоголосый закадровый)","update":"2018-06-11 05:55:13","iframe_src":"//83.svetacdn.in/PfJ50H0ZBPg3/movie/17089"},{"id":17088,"title":"Ничтожество","kp_id":"11695","imdb_id":"tt0089343","world_art_id":null,"type":"movie","add":"2018-06-09 10:02:59","orig_title":"Insignificance","year":"1985-05-11","translations":["Профессиональный (двухголосый закадровый)"],"quality":"bd","translation":"Профессиональный (двухголосый закадровый)","update":"2018-06-11 05:58:02","iframe_src":"//83.svetacdn.in/PfJ50H0ZBPg3/movie/17088"},{"id":17087,"title":"Непобежденные","kp_id":"1338","imdb_id":"tt0065150","world_art_id":null,"type":"movie","add":"2018-06-09 10:00:10","orig_title":"The Undefeated","year":"1969-10-04","translations":["Профессиональный (многоголосый закадровый)"],"quality":"bd","translation":"Профессиональный (многоголосый закадровый)","update":"2018-06-11 05:57:52","iframe_src":"//83.svetacdn.in/PfJ50H0ZBPg3/movie/17087"},{"id":17086,"title":"Затерянный мир","kp_id":"10318","imdb_id":"tt0054038","world_art_id":null,"type":"movie","add":"2018-06-09 09:45:35","orig_title":"The Lost World","year":"1960-07-13","translations":["Любительский (одноголосый закадровый)"],"quality":"bd","translation":"Любительский (одноголосый закадровый)","update":"2018-06-11 06:04:36","iframe_src":"//83.svetacdn.in/PfJ50H0ZBPg3/movie/17086"},{"id":15769,"title":"Страна призраков","kp_id":"1007477","imdb_id":"tt6195094","world_art_id":null,"type":"movie","add":"2018-03-21 22:27:06","orig_title":"Ghostland","year":"2018-02-13","translations":["Полное дублирование"],"quality":"bd","translation":"Полное дублирование","update":"2018-06-11 04:47:49","iframe_src":"//83.svetacdn.in/PfJ50H0ZBPg3/movie/15769"},{"id":7399,"title":"Я мечтала об Африке","kp_id":"12272","imdb_id":"tt0167203","world_art_id":null,"type":"movie","add":"2016-11-13 12:31:05","orig_title":"I Dreamed of Africa","year":"2000-05-05","translations":["Профессиональный (многоголосый закадровый)"],"quality":"webdl","translation":"Профессиональный (многоголосый закадровый)","update":"2018-06-11 04:49:20","iframe_src":"//83.svetacdn.in/PfJ50H0ZBPg3/movie/7399"},{"id":7110,"title":"Камера","kp_id":"12128","imdb_id":"tt0115862","world_art_id":null,"type":"movie","add":"2016-11-06 15:43:55","orig_title":"The Chamber","year":"1996-10-02","translations":["Профессиональный (двухголосый закадровый)","Профессиональный (многоголосый закадровый)"],"quality":"webdl","translation":"Профессиональный (двухголосый закадровый)","update":"2018-06-11 06:03:22","iframe_src":"//83.svetacdn.in/PfJ50H0ZBPg3/movie/7110"},{"id":5859,"title":"Королевская милость","kp_id":"3505","imdb_id":"tt0114272","world_art_id":null,"type":"movie","add":"2016-10-04 18:41:57","orig_title":"Restoration","year":"1995-12-29","translations":["Профессиональный (двухголосый закадровый)","Профессиональный (многоголосый закадровый)"],"quality":"webdl","translation":"Профессиональный (двухголосый закадровый)","update":"2018-06-11 06:01:42","iframe_src":"//83.svetacdn.in/PfJ50H0ZBPg3/movie/5859"},{"id":5338,"title":"Мой придурочный брат","kp_id":"518162","imdb_id":"tt1637706","world_art_id":null,"type":"movie","add":"2016-09-19 17:09:29","orig_title":"Our Idiot Brother","year":"2011-01-22","translations":["Любительский (одноголосый закадровый)","Профессиональный (двухголосый закадровый) (Ozz.tv)"],"quality":"bd","translation":"Любительский (одноголосый закадровый)","update":"2018-06-11 05:59:29","iframe_src":"//83.svetacdn.in/PfJ50H0ZBPg3/movie/5338"},{"id":2664,"title":"Убрать перископ","kp_id":"2514","imdb_id":"tt0116130","world_art_id":null,"type":"movie","add":"2016-05-27 11:51:55","orig_title":"Down Periscope","year":"1996-03-01","translations":["Профессиональный (многоголосый закадровый)","Авторский (одноголосый закадровый) (Санаев Павел)"],"quality":"webdl","translation":"Профессиональный (многоголосый закадровый)","update":"2018-06-11 04:52:29","iframe_src":"//83.svetacdn.in/PfJ50H0ZBPg3/movie/2664"}],"current_page":1909,"first_page_url":"https://videocdn.tv/api/short?limit=100&api_token=RgFQdUIR2dRmwv8iYa5SnFNgnw3vpjKj&cache31909=31909&page=1","from":190801,"last_page":641,"last_page_url":"https://videocdn.tv/api/short?limit=100&api_token=RgFQdUIR2dRmwv8iYa5SnFNgnw3vpjKj&cache31909=31909&page=641","next_page_url":null,"path":"https://videocdn.tv/api/short","per_page":100,"prev_page_url":"https://videocdn.tv/api/short?limit=100&api_token=RgFQdUIR2dRmwv8iYa5SnFNgnw3vpjKj&cache31909=31909&page=1908","to":190820,"total":64035}