{"result":true,"data":[{"id":19121,"title":"Форрест Шоу: Неправильные Решения","kp_id":null,"imdb_id":"tt7709710","world_art_id":null,"type":"movie","add":"2018-09-23 21:08:59","orig_title":"Forrest Shaw: Poor Decisions","year":"2018-03-27","translations":["Любительский (многоголосый закадровый) (Синема УС)"],"quality":"webdl","translation":"Любительский (многоголосый закадровый) (Синема УС)","update":"2018-09-24 06:25:42","iframe_src":"//8543.svetacdn.in/si4jsFRrtgrT/movie/19121"},{"id":19120,"title":"Низкое ли либидо у женщин?","kp_id":"1178066","imdb_id":"tt7610196","world_art_id":null,"type":"movie","add":"2018-09-23 21:06:24","orig_title":"Do Women Have A Higher Sex Drive?","year":"2018-06-05","translations":["Любительский (многоголосый закадровый) (Синема УС)"],"quality":"webdl","translation":"Любительский (многоголосый закадровый) (Синема УС)","update":"2018-09-24 06:24:22","iframe_src":"//8543.svetacdn.in/si4jsFRrtgrT/movie/19120"},{"id":19119,"title":"Дамасское время","kp_id":"1148619","imdb_id":"tt7897478","world_art_id":null,"type":"movie","add":"2018-09-23 21:01:42","orig_title":"Be Vaghte Sham","year":"2018-02-03","translations":["Любительский (многоголосый закадровый) (Синема УС)"],"quality":"webdl","translation":"Любительский (многоголосый закадровый) (Синема УС)","update":"2018-09-24 06:22:49","iframe_src":"//8543.svetacdn.in/si4jsFRrtgrT/movie/19119"},{"id":19118,"title":"Д.Л. Хьюли: Противоположный","kp_id":null,"imdb_id":"tt8426270","world_art_id":null,"type":"movie","add":"2018-09-23 21:00:04","orig_title":"D.L. Hughley: Contrarian","year":"2018-09-18","translations":["Любительский (многоголосый закадровый) (Синема УС)"],"quality":"webdl","translation":"Любительский (многоголосый закадровый) (Синема УС)","update":"2018-09-24 06:21:25","iframe_src":"//8543.svetacdn.in/si4jsFRrtgrT/movie/19118"},{"id":19116,"title":"Рождество с Холли","kp_id":"702682","imdb_id":"tt2355762","world_art_id":null,"type":"movie","add":"2018-09-23 20:55:20","orig_title":"Christmas with Holly","year":"2012-12-09","translations":["Профессиональный (многоголосый закадровый)"],"quality":"hdtv","translation":"Профессиональный (многоголосый закадровый)","update":"2018-09-24 06:18:43","iframe_src":"//8543.svetacdn.in/si4jsFRrtgrT/movie/19116"},{"id":19115,"title":"Призыв демона крови","kp_id":"697742","imdb_id":"tt2262716","world_art_id":null,"type":"movie","add":"2018-09-23 20:53:55","orig_title":"Blood Demon Rising","year":"2017-01-28","translations":["Любительский (многоголосый закадровый) (Колобок)"],"quality":"webdl","translation":"Любительский (многоголосый закадровый) (Колобок)","update":"2018-09-24 06:18:12","iframe_src":"//8543.svetacdn.in/si4jsFRrtgrT/movie/19115"},{"id":19114,"title":"Смертельная свадьба","kp_id":"1099283","imdb_id":"tt7557686","world_art_id":null,"type":"movie","add":"2018-09-23 20:51:33","orig_title":"Deadly Vows","year":"2017-10-14","translations":["Любительский (многоголосый закадровый) (Синема УС)"],"quality":"webdl","translation":"Любительский (многоголосый закадровый) (Синема УС)","update":"2018-09-24 06:17:15","iframe_src":"//8543.svetacdn.in/si4jsFRrtgrT/movie/19114"},{"id":19082,"title":"Замена 3: Победитель получает все","kp_id":"77150","imdb_id":"tt0197924","world_art_id":null,"type":"movie","add":"2018-09-20 08:09:07","orig_title":"The Substitute 3: Winner Takes All","year":"1999-08-14","translations":["Профессиональный (многоголосый закадровый)"],"quality":"dvdrip","translation":"Профессиональный (многоголосый закадровый)","update":"2018-09-21 09:25:27","iframe_src":"//8543.svetacdn.in/si4jsFRrtgrT/movie/19082"},{"id":19003,"title":"Страсть","kp_id":"15174","imdb_id":"tt0064793","world_art_id":null,"type":"movie","add":"2018-09-16 09:04:59","orig_title":"En passion","year":"1969-11-10","translations":["Профессиональный (многоголосый закадровый) (5-й канал СПб)"],"quality":"webdl","translation":"Профессиональный (многоголосый закадровый) (5-й канал СПб)","update":"2018-09-21 07:02:43","iframe_src":"//8543.svetacdn.in/si4jsFRrtgrT/movie/19003"},{"id":19002,"title":"Мысли о свободе","kp_id":"47056","imdb_id":"tt0361715","world_art_id":null,"type":"movie","add":"2018-09-16 09:03:57","orig_title":"Duma","year":"2005-04-22","translations":["Профессиональный (многоголосый закадровый)"],"quality":"webdl","translation":"Профессиональный (многоголосый закадровый)","update":"2018-09-21 07:01:45","iframe_src":"//8543.svetacdn.in/si4jsFRrtgrT/movie/19002"},{"id":19001,"title":"Сердце","kp_id":"18758","imdb_id":"tt0099429","world_art_id":null,"type":"movie","add":"2018-09-16 09:03:02","orig_title":"Dil","year":"1990-06-22","translations":["Профессиональный (многоголосый закадровый)"],"quality":"webdl","translation":"Профессиональный (многоголосый закадровый)","update":"2018-09-21 07:00:54","iframe_src":"//8543.svetacdn.in/si4jsFRrtgrT/movie/19001"},{"id":19000,"title":"Прыжок гепарда","kp_id":"396880","imdb_id":"tt1105721","world_art_id":null,"type":"movie","add":"2018-09-16 09:01:46","orig_title":"Chirutha","year":"2007-09-28","translations":["Профессиональный (многоголосый закадровый) (Red Media)"],"quality":"webdl","translation":"Профессиональный (многоголосый закадровый) (Red Media)","update":"2018-09-21 06:59:54","iframe_src":"//8543.svetacdn.in/si4jsFRrtgrT/movie/19000"},{"id":18999,"title":"Дьявольское око","kp_id":"94243","imdb_id":"tt0053772","world_art_id":null,"type":"movie","add":"2018-09-16 09:00:42","orig_title":"Djävulens öga","year":"1960-10-17","translations":["Профессиональный (двухголосый закадровый)"],"quality":"webdl","translation":"Профессиональный (двухголосый закадровый)","update":"2018-09-21 06:58:34","iframe_src":"//8543.svetacdn.in/si4jsFRrtgrT/movie/18999"},{"id":18998,"title":"Интимные приключения","kp_id":"417970","imdb_id":"tt1235552","world_art_id":null,"type":"movie","add":"2018-09-16 08:59:16","orig_title":"À l'aventure","year":"2008-08-29","translations":["Профессиональный (двухголосый закадровый)"],"quality":"webdl","translation":"Профессиональный (двухголосый закадровый)","update":"2018-09-21 06:44:49","iframe_src":"//8543.svetacdn.in/si4jsFRrtgrT/movie/18998"},{"id":18997,"title":"Тайна Егора, или Необыкновенные приключения обыкновенным летом","kp_id":"743092","imdb_id":null,"world_art_id":null,"type":"movie","add":"2018-09-16 08:57:32","orig_title":"Тайна Егора, или Необыкновенные приключения обыкновенным летом","year":"2013-03-17","translations":["Оригинальная дорожка"],"quality":"webdl","translation":"Оригинальная дорожка","update":"2018-09-21 06:43:15","iframe_src":"//8543.svetacdn.in/si4jsFRrtgrT/movie/18997"},{"id":18996,"title":"Про любовь","kp_id":"698793","imdb_id":null,"world_art_id":null,"type":"movie","add":"2018-09-16 08:54:44","orig_title":"Про любовь","year":"2011-01-01","translations":["Оригинальная дорожка"],"quality":"webdl","translation":"Оригинальная дорожка","update":"2018-09-21 06:42:03","iframe_src":"//8543.svetacdn.in/si4jsFRrtgrT/movie/18996"},{"id":18995,"title":"Погружение","kp_id":"1002720","imdb_id":"tt7649914","world_art_id":null,"type":"movie","add":"2018-09-16 08:48:59","orig_title":"Pogruzhenie","year":"2015-07-02","translations":["Оригинальная дорожка"],"quality":"webdl","translation":"Оригинальная дорожка","update":"2018-09-21 06:40:03","iframe_src":"//8543.svetacdn.in/si4jsFRrtgrT/movie/18995"},{"id":18994,"title":"Ну, простите!","kp_id":"1008448","imdb_id":null,"world_art_id":null,"type":"movie","add":"2018-09-16 08:46:59","orig_title":"Ну, простите!","year":"2016-01-01","translations":["Оригинальная дорожка"],"quality":"webdl","translation":"Оригинальная дорожка","update":"2018-09-21 06:38:15","iframe_src":"//8543.svetacdn.in/si4jsFRrtgrT/movie/18994"},{"id":18557,"title":"Днюха!","kp_id":"1007425","imdb_id":null,"world_art_id":null,"type":"movie","add":"2018-08-26 21:48:08","orig_title":"Днюха!","year":"2018-08-23","translations":["Оригинальная дорожка"],"quality":"webdl","translation":"Оригинальная дорожка","update":"2018-09-21 16:18:18","iframe_src":"//8543.svetacdn.in/si4jsFRrtgrT/movie/18557"},{"id":18392,"title":"Прирожденная наездница","kp_id":"1063294","imdb_id":"tt7218564","world_art_id":null,"type":"movie","add":"2018-08-19 20:54:36","orig_title":"Pistachio","year":"2018-08-14","translations":["Любительский (многоголосый закадровый) (Синема УС)","Любительский (двухголосый закадровый) (HiWayGrope)","Профессиональный (многоголосый закадровый)"],"quality":"webdl","translation":"Любительский (многоголосый закадровый) (Синема УС)","update":"2018-09-24 06:23:46","iframe_src":"//8543.svetacdn.in/si4jsFRrtgrT/movie/18392"}],"current_page":1633,"first_page_url":"https://videocdn.tv/api/short?limit=100&api_token=X6EwAUfE5M9xbo7y0Bp0aPf3uXxG2KLL&cache31633=31633&page=1","from":163201,"last_page":599,"last_page_url":"https://videocdn.tv/api/short?limit=100&api_token=X6EwAUfE5M9xbo7y0Bp0aPf3uXxG2KLL&cache31633=31633&page=599","next_page_url":null,"path":"https://videocdn.tv/api/short","per_page":100,"prev_page_url":"https://videocdn.tv/api/short?limit=100&api_token=X6EwAUfE5M9xbo7y0Bp0aPf3uXxG2KLL&cache31633=31633&page=1632","to":163220,"total":59870}