{"result":true,"data":[{"id":15842,"title":"Кровь и слава","kp_id":"922850","imdb_id":"tt4700248","world_art_id":null,"type":"movie","add":"2018-03-25 22:27:45","orig_title":"Modder en Bloed","year":"2016-04-01","translations":["Любительский (многоголосый закадровый) (Синема УС)"],"quality":"webdl","translation":"Любительский (многоголосый закадровый) (Синема УС)","update":"2018-03-26 06:46:40","iframe_src":"//8543.svetacdn.in/IAF0wWTdNYZm/movie/15842"},{"id":15813,"title":"Наше время — сейчас","kp_id":"905713","imdb_id":"tt4505432","world_art_id":null,"type":"movie","add":"2018-03-25 00:16:53","orig_title":"Unsere Zeit ist jetzt","year":"2016-10-01","translations":["Профессиональный (многоголосый закадровый) (GreenРай Studio)"],"quality":"webdl","translation":"Профессиональный (многоголосый закадровый) (GreenРай Studio)","update":"2018-03-26 06:31:33","iframe_src":"//8543.svetacdn.in/IAF0wWTdNYZm/movie/15813"},{"id":15807,"title":"Тамара","kp_id":"944740","imdb_id":"tt5197068","world_art_id":null,"type":"movie","add":"2018-03-24 23:55:23","orig_title":"Tamara","year":"2016-08-25","translations":["Любительский (многоголосый закадровый) (GreenРай Studio)"],"quality":"bd","translation":"Любительский (многоголосый закадровый) (GreenРай Studio)","update":"2018-03-26 06:23:58","iframe_src":"//8543.svetacdn.in/IAF0wWTdNYZm/movie/15807"},{"id":15806,"title":"Праздник лета","kp_id":"973201","imdb_id":"tt5571724","world_art_id":null,"type":"movie","add":"2018-03-24 23:47:19","orig_title":"Sommerfest","year":"2017-06-29","translations":["Любительский (многоголосый закадровый) (GreenРай Studio)"],"quality":"webdl","translation":"Любительский (многоголосый закадровый) (GreenРай Studio)","update":"2018-03-26 06:11:19","iframe_src":"//8543.svetacdn.in/IAF0wWTdNYZm/movie/15806"},{"id":15801,"title":"Мисс Индия Америка","kp_id":"817337","imdb_id":"tt3394972","world_art_id":null,"type":"movie","add":"2018-03-24 23:31:11","orig_title":"Miss India America","year":"2015-02-27","translations":["Любительский (многоголосый закадровый) (Синема УС)"],"quality":"webdl","translation":"Любительский (многоголосый закадровый) (Синема УС)","update":"2018-03-26 06:22:46","iframe_src":"//8543.svetacdn.in/IAF0wWTdNYZm/movie/15801"},{"id":15800,"title":"Убийства в Дюнкерке","kp_id":null,"imdb_id":"tt6510840","world_art_id":null,"type":"movie","add":"2018-03-24 23:29:03","orig_title":"Meurtres à Dunkerque","year":"2017-02-04","translations":["Профессиональный (многоголосый закадровый) (GreenРай Studio)"],"quality":"hdtv","translation":"Профессиональный (многоголосый закадровый) (GreenРай Studio)","update":"2018-03-26 06:42:18","iframe_src":"//8543.svetacdn.in/IAF0wWTdNYZm/movie/15800"},{"id":15799,"title":"Я виновен","kp_id":"1027538","imdb_id":"tt6439438","world_art_id":null,"type":"movie","add":"2018-03-24 23:22:28","orig_title":"Je suis coupable","year":"2017-01-18","translations":["Профессиональный (многоголосый закадровый) (GreenРай Studio)"],"quality":"hdtv","translation":"Профессиональный (многоголосый закадровый) (GreenРай Studio)","update":"2018-03-26 06:40:32","iframe_src":"//8543.svetacdn.in/IAF0wWTdNYZm/movie/15799"},{"id":15798,"title":"Светлое будущее","kp_id":"996090","imdb_id":"tt5612576","world_art_id":null,"type":"movie","add":"2018-03-24 23:19:07","orig_title":"Il padre d'Italia","year":"2017-03-09","translations":["Любительский (многоголосый закадровый) (Синема УС)"],"quality":"dvdrip","translation":"Любительский (многоголосый закадровый) (Синема УС)","update":"2018-03-26 06:38:44","iframe_src":"//8543.svetacdn.in/IAF0wWTdNYZm/movie/15798"},{"id":15796,"title":"Убойная мамаша или киллер на рождество","kp_id":"1103072","imdb_id":"tt7658836","world_art_id":null,"type":"movie","add":"2018-03-24 23:04:07","orig_title":"Hit Mom: Mörderische Weinachten","year":"2017-12-13","translations":["Любительский (многоголосый закадровый) (GreenРай Studio)"],"quality":"hdtv","translation":"Любительский (многоголосый закадровый) (GreenРай Studio)","update":"2018-03-26 06:03:22","iframe_src":"//8543.svetacdn.in/IAF0wWTdNYZm/movie/15796"},{"id":15792,"title":"Фолловеры","kp_id":"1070156","imdb_id":"tt6251666","world_art_id":null,"type":"movie","add":"2018-03-24 22:54:40","orig_title":"Followers","year":"2017-07-10","translations":["Любительский (многоголосый закадровый) (Синема УС)"],"quality":"webdl","translation":"Любительский (многоголосый закадровый) (Синема УС)","update":"2018-03-26 06:00:39","iframe_src":"//8543.svetacdn.in/IAF0wWTdNYZm/movie/15792"},{"id":15791,"title":"Оранжевые дни","kp_id":"1021853","imdb_id":"tt6216432","world_art_id":null,"type":"movie","add":"2018-03-24 22:48:00","orig_title":"Días color naranja","year":"2016-11-10","translations":["Профессиональный (многоголосый закадровый) (GreenРай Studio)"],"quality":"dvdrip","translation":"Профессиональный (многоголосый закадровый) (GreenРай Studio)","update":"2018-03-26 06:53:33","iframe_src":"//8543.svetacdn.in/IAF0wWTdNYZm/movie/15791"},{"id":15790,"title":"Бруклинская группировка","kp_id":"942748","imdb_id":"tt5142898","world_art_id":null,"type":"movie","add":"2018-03-24 22:44:09","orig_title":"Brooklyn Tide","year":"2016-06-06","translations":["Любительский (многоголосый закадровый) (Синема УС)"],"quality":"webdl","translation":"Любительский (многоголосый закадровый) (Синема УС)","update":"2018-03-26 06:16:47","iframe_src":"//8543.svetacdn.in/IAF0wWTdNYZm/movie/15790"},{"id":15153,"title":"Вечный путь","kp_id":"910363","imdb_id":"tt4173170","world_art_id":null,"type":"movie","add":"2018-02-13 10:00:32","orig_title":"Ikitie","year":"2017-08-22","translations":["Любительский (двухголосый закадровый)","Профессиональный (многоголосый закадровый) (GreenРай Studio)"],"quality":"webdl","translation":"Любительский (двухголосый закадровый)","update":"2018-03-26 06:33:23","iframe_src":"//8543.svetacdn.in/IAF0wWTdNYZm/movie/15153"},{"id":14793,"title":"Кто наш папа, чувак?","kp_id":"609694","imdb_id":"tt1966359","world_art_id":null,"type":"movie","add":"2018-01-04 10:19:08","orig_title":"Father Figures","year":"2017-12-21","translations":["Любительский (многоголосый закадровый) (Колобок)","Полное дублирование"],"quality":"camrip","translation":"Любительский (многоголосый закадровый) (Колобок)","update":"2018-03-26 05:58:57","iframe_src":"//8543.svetacdn.in/IAF0wWTdNYZm/movie/14793"},{"id":14761,"title":"Бокс 27","kp_id":"968368","imdb_id":"tt5545622","world_art_id":null,"type":"movie","add":"2017-12-26 22:50:11","orig_title":"Box 27","year":"2016-06-23","translations":["Любительский (многоголосый закадровый) (Синема УС)","Профессиональный (многоголосый закадровый) (GreenРай Studio)"],"quality":"hdtv","translation":"Любительский (многоголосый закадровый) (Синема УС)","update":"2018-03-26 06:51:21","iframe_src":"//8543.svetacdn.in/IAF0wWTdNYZm/movie/14761"},{"id":14731,"title":"Вчерашний расцвет","kp_id":"939572","imdb_id":"tt3756046","world_art_id":null,"type":"movie","add":"2017-12-24 22:45:18","orig_title":"Die Blumen von gestern","year":"2016-10-27","translations":["Любительский (многоголосый закадровый) (Синема УС)","Профессиональный (многоголосый закадровый) (GreenРай Studio)"],"quality":"bd","translation":"Любительский (многоголосый закадровый) (Синема УС)","update":"2018-03-26 06:18:12","iframe_src":"//8543.svetacdn.in/IAF0wWTdNYZm/movie/14731"},{"id":14184,"title":"Каменное сердце","kp_id":"915484","imdb_id":"tt4613254","world_art_id":null,"type":"movie","add":"2017-10-30 22:23:15","orig_title":"Hjartasteinn","year":"2016-09-01","translations":["Любительский (одноголосый закадровый) (den904)","Профессиональный (многоголосый закадровый) (GreenРай Studio)"],"quality":"webdl","translation":"Любительский (одноголосый закадровый) (den904)","update":"2018-03-26 06:19:48","iframe_src":"//8543.svetacdn.in/IAF0wWTdNYZm/movie/14184"},{"id":13899,"title":"Пи и ДжейКей","kp_id":"980127","imdb_id":"tt5701132","world_art_id":null,"type":"movie","add":"2017-10-19 21:49:24","orig_title":"P to JK","year":"2017-03-25","translations":["Любительский (двухголосый закадровый) (XDUB Dorama)","Профессиональный (многоголосый закадровый) (GreenРай Studio)"],"quality":"webdl","translation":"Любительский (двухголосый закадровый) (XDUB Dorama)","update":"2018-03-26 06:14:06","iframe_src":"//8543.svetacdn.in/IAF0wWTdNYZm/movie/13899"},{"id":9536,"title":"Ложные признания","kp_id":"997752","imdb_id":"tt5925968","world_art_id":null,"type":"movie","add":"2017-02-09 06:25:47","orig_title":"Les fausses confidences","year":"2016-08-06","translations":["Профессиональный (многоголосый)","Профессиональный (многоголосый закадровый)","Профессиональный (многоголосый закадровый) (GreenРай Studio)"],"quality":"camrip","translation":"Профессиональный (многоголосый)","update":"2018-03-26 06:52:10","iframe_src":"//8543.svetacdn.in/IAF0wWTdNYZm/movie/9536"},{"id":9065,"title":"Посредник","kp_id":"848331","imdb_id":"tt4073696","world_art_id":null,"type":"movie","add":"2017-01-21 14:10:58","orig_title":"The Go-Between","year":"2015-09-20","translations":["Любительский (одноголосый закадровый)","Профессиональный (многоголосый закадровый) (GreenРай Studio)"],"quality":"webdl","translation":"Любительский (одноголосый закадровый)","update":"2018-03-26 06:25:22","iframe_src":"//8543.svetacdn.in/IAF0wWTdNYZm/movie/9065"}],"current_page":1830,"first_page_url":"https://videocdn.tv/api/short?limit=100&api_token=6Onb1W1alEUrBcKJZD3GoKBbWyAl2uG2&cache31830=31830&page=1","from":182901,"last_page":608,"last_page_url":"https://videocdn.tv/api/short?limit=100&api_token=6Onb1W1alEUrBcKJZD3GoKBbWyAl2uG2&cache31830=31830&page=608","next_page_url":null,"path":"https://videocdn.tv/api/short","per_page":100,"prev_page_url":"https://videocdn.tv/api/short?limit=100&api_token=6Onb1W1alEUrBcKJZD3GoKBbWyAl2uG2&cache31830=31830&page=1829","to":182920,"total":60756}