{"result":true,"data":[{"id":9054,"title":"Исчезнувший убийца","kp_id":"944289","imdb_id":"tt5190950","world_art_id":null,"type":"movie","add":"2017-01-20 05:50:42","orig_title":"The Vanished Murderer","year":"2015-11-26","translations":["Любительский (двухголосый закадровый)"],"quality":"hdrip","translation":"Любительский (двухголосый закадровый)","update":"2017-01-20 06:55:34","iframe_src":"//8209.svetacdn.in/10IAF0wWTdNYZm/movie/9054"},{"id":9050,"title":"Школа монстров: Добро пожаловать в школу монстров","kp_id":"994568","imdb_id":"tt5898034","world_art_id":null,"type":"movie","add":"2017-01-19 09:53:06","orig_title":"Monster High: Welcome to Monster High","year":"2016-08-27","translations":["Полное дублирование"],"quality":"bd","translation":"Полное дублирование","update":"2017-01-19 13:51:12","iframe_src":"//8209.svetacdn.in/10IAF0wWTdNYZm/movie/9050"},{"id":9036,"title":"Профессионалы","kp_id":"8467","imdb_id":"tt0060862","world_art_id":null,"type":"movie","add":"2017-01-18 13:38:33","orig_title":"The Professionals","year":"1966-11-02","translations":["Профессиональный (многоголосый закадровый)"],"quality":"hdrip","translation":"Профессиональный (многоголосый закадровый)","update":"2017-01-19 07:39:46","iframe_src":"//8209.svetacdn.in/10IAF0wWTdNYZm/movie/9036"},{"id":9014,"title":"Большой солдат","kp_id":"455218","imdb_id":"tt1319718","world_art_id":null,"type":"movie","add":"2017-01-18 07:06:43","orig_title":"Da bing xiao jiang","year":"2010-02-11","translations":["Профессиональный (многоголосый закадровый)"],"quality":"bd","translation":"Профессиональный (многоголосый закадровый)","update":"2017-01-19 09:36:56","iframe_src":"//8209.svetacdn.in/10IAF0wWTdNYZm/movie/9014"},{"id":9013,"title":"Комната страха №205","kp_id":"606837","imdb_id":"tt2017452","world_art_id":null,"type":"movie","add":"2017-01-18 06:39:13","orig_title":"205 - Zimmer der Angst","year":"2011-12-02","translations":["Профессиональный (многоголосый закадровый) (KinoView)"],"quality":"bd","translation":"Профессиональный (многоголосый закадровый) (KinoView)","update":"2017-01-19 09:40:05","iframe_src":"//8209.svetacdn.in/10IAF0wWTdNYZm/movie/9013"},{"id":9006,"title":"Поллок","kp_id":"788","imdb_id":"tt0183659","world_art_id":null,"type":"movie","add":"2017-01-17 12:49:11","orig_title":"Pollock","year":"2000-09-06","translations":["Профессиональный (многоголосый закадровый)"],"quality":"webdl","translation":"Профессиональный (многоголосый закадровый)","update":"2017-01-20 11:44:54","iframe_src":"//8209.svetacdn.in/10IAF0wWTdNYZm/movie/9006"},{"id":9004,"title":"Война","kp_id":"5495","imdb_id":"tt0111667","world_art_id":null,"type":"movie","add":"2017-01-17 12:47:17","orig_title":"The War","year":"1994-11-04","translations":["Профессиональный (многоголосый закадровый)"],"quality":"hddvd","translation":"Профессиональный (многоголосый закадровый)","update":"2017-01-20 11:29:44","iframe_src":"//8209.svetacdn.in/10IAF0wWTdNYZm/movie/9004"},{"id":8998,"title":"Хроники ломбарда","kp_id":"568532","imdb_id":"tt1741243","world_art_id":null,"type":"movie","add":"2017-01-17 12:25:02","orig_title":"Pawn Shop Chronicles","year":"2013-07-12","translations":["Полное дублирование"],"quality":"bd","translation":"Полное дублирование","update":"2017-01-19 14:40:19","iframe_src":"//8209.svetacdn.in/10IAF0wWTdNYZm/movie/8998"},{"id":8995,"title":"Кое-что о Генри","kp_id":"8674","imdb_id":"tt0102768","world_art_id":null,"type":"movie","add":"2017-01-17 11:47:28","orig_title":"Regarding Henry","year":"1991-07-10","translations":["Профессиональный (двухголосый закадровый)"],"quality":"hdtv","translation":"Профессиональный (двухголосый закадровый)","update":"2017-01-19 14:34:07","iframe_src":"//8209.svetacdn.in/10IAF0wWTdNYZm/movie/8995"},{"id":8991,"title":"Boдительские права","kp_id":"4068","imdb_id":"tt0095519","world_art_id":null,"type":"movie","add":"2017-01-17 11:36:46","orig_title":"License to Drive","year":"1988-07-06","translations":["Профессиональный (двухголосый закадровый)"],"quality":"bd","translation":"Профессиональный (двухголосый закадровый)","update":"2017-01-19 14:30:23","iframe_src":"//8209.svetacdn.in/10IAF0wWTdNYZm/movie/8991"},{"id":8990,"title":"Семья Перес","kp_id":"4251","imdb_id":"tt0114113","world_art_id":null,"type":"movie","add":"2017-01-17 11:34:18","orig_title":"The Perez Family","year":"1995-05-12","translations":["Профессиональный (многоголосый закадровый)"],"quality":"hdtv","translation":"Профессиональный (многоголосый закадровый)","update":"2017-01-19 14:28:15","iframe_src":"//8209.svetacdn.in/10IAF0wWTdNYZm/movie/8990"},{"id":8986,"title":"Приключения барона Мюнхгаузена","kp_id":"9613","imdb_id":"tt0096764","world_art_id":null,"type":"movie","add":"2017-01-17 11:23:40","orig_title":"The Adventures of Baron Munchausen","year":"1988-12-08","translations":["Профессиональный (многоголосый закадровый)"],"quality":"bd","translation":"Профессиональный (многоголосый закадровый)","update":"2017-01-19 14:24:49","iframe_src":"//8209.svetacdn.in/10IAF0wWTdNYZm/movie/8986"},{"id":8984,"title":"Доктор Кинси","kp_id":"3496","imdb_id":"tt0362269","world_art_id":null,"type":"movie","add":"2017-01-17 11:16:25","orig_title":"Kinsey","year":"2004-09-04","translations":["Профессиональный (многоголосый закадровый)"],"quality":"hdtv","translation":"Профессиональный (многоголосый закадровый)","update":"2017-01-19 05:52:14","iframe_src":"//8209.svetacdn.in/10IAF0wWTdNYZm/movie/8984"},{"id":8982,"title":"Жить и умереть в Лос-Анджелесе","kp_id":"4335","imdb_id":"tt0090180","world_art_id":null,"type":"movie","add":"2017-01-17 11:15:10","orig_title":"To Live and Die in L.A.","year":"1985-11-01","translations":["Профессиональный (многоголосый закадровый)"],"quality":"bd","translation":"Профессиональный (многоголосый закадровый)","update":"2017-01-19 05:50:44","iframe_src":"//8209.svetacdn.in/10IAF0wWTdNYZm/movie/8982"},{"id":8981,"title":"Клуб «Коттон»","kp_id":"3750","imdb_id":"tt0087089","world_art_id":null,"type":"movie","add":"2017-01-17 11:13:30","orig_title":"The Cotton Club","year":"1984-12-04","translations":["Полное дублирование"],"quality":"hdtv","translation":"Полное дублирование","update":"2017-01-19 05:48:34","iframe_src":"//8209.svetacdn.in/10IAF0wWTdNYZm/movie/8981"},{"id":8960,"title":"Четверо 2","kp_id":"771588","imdb_id":"tt3341084","world_art_id":null,"type":"movie","add":"2017-01-16 15:32:55","orig_title":"Si da ming bu 2","year":"2013-11-22","translations":["Любительский (двухголосый закадровый)"],"quality":"bd","translation":"Любительский (двухголосый закадровый)","update":"2017-01-19 11:18:50","iframe_src":"//8209.svetacdn.in/10IAF0wWTdNYZm/movie/8960"},{"id":7665,"title":"Слепой горизонт","kp_id":"7379","imdb_id":"tt0337881","world_art_id":null,"type":"movie","add":"2016-11-27 12:49:36","orig_title":"Blind Horizon","year":"2003-12-16","translations":["Профессиональный (двухголосый закадровый)"],"quality":"bd","translation":"Профессиональный (двухголосый закадровый)","update":"2017-01-19 14:26:38","iframe_src":"//8209.svetacdn.in/10IAF0wWTdNYZm/movie/7665"},{"id":7084,"title":"Хеллоуин Мэдеи","kp_id":"957592","imdb_id":"tt5325452","world_art_id":null,"type":"movie","add":"2016-11-05 18:59:15","orig_title":"Boo! A Madea Halloween","year":"2016-10-21","translations":["Профессиональный (многоголосый закадровый) (Колобок)"],"quality":"bd","translation":"Профессиональный (многоголосый закадровый) (Колобок)","update":"2017-01-19 11:19:31","iframe_src":"//8209.svetacdn.in/10IAF0wWTdNYZm/movie/7084"},{"id":6107,"title":"Повелители снов","kp_id":"855928","imdb_id":"tt5268558","world_art_id":null,"type":"movie","add":"2016-10-11 07:35:49","orig_title":"Poveliteli snov","year":"2015-10-29","translations":["Оригинальная дорожка"],"quality":"webdl","translation":"Оригинальная дорожка","update":"2017-01-20 08:15:10","iframe_src":"//8209.svetacdn.in/10IAF0wWTdNYZm/movie/6107"},{"id":5742,"title":"Зачинщики","kp_id":"713089","imdb_id":"tt2461150","world_art_id":null,"type":"movie","add":"2016-10-02 18:13:52","orig_title":"Masterminds","year":"2016-09-28","translations":["Полное дублирование","Полное дублирование (iTunes)"],"quality":"camrip","translation":"Полное дублирование","update":"2017-01-19 09:40:27","iframe_src":"//8209.svetacdn.in/10IAF0wWTdNYZm/movie/5742"}],"current_page":2345,"first_page_url":"https://videocdn.tv/api/short?limit=100&api_token=6Onb1W1alEUrBcKJZD3GoKBbWyAl2uG2&cache32345=32345&page=1","from":234401,"last_page":662,"last_page_url":"https://videocdn.tv/api/short?limit=100&api_token=6Onb1W1alEUrBcKJZD3GoKBbWyAl2uG2&cache32345=32345&page=662","next_page_url":null,"path":"https://videocdn.tv/api/short","per_page":100,"prev_page_url":"https://videocdn.tv/api/short?limit=100&api_token=6Onb1W1alEUrBcKJZD3GoKBbWyAl2uG2&cache32345=32345&page=2344","to":234420,"total":66126}