{"result":true,"data":[{"id":17798,"title":"Фэн-шуй","kp_id":"118035","imdb_id":"tt0430082","world_art_id":null,"type":"movie","add":"2018-07-19 00:26:03","orig_title":"Feng shui","year":"2004-09-15","translations":["Любительский (многоголосый закадровый) (Колобок)"],"quality":"webdl","translation":"Любительский (многоголосый закадровый) (Колобок)","update":"2018-07-19 06:03:59","iframe_src":"//83.svetacdn.in/PfJ50H0ZBPg3/movie/17798"},{"id":17797,"title":"Долой скорбь","kp_id":"1115707","imdb_id":"tt7309430","world_art_id":null,"type":"movie","add":"2018-07-19 00:20:57","orig_title":"Trouble No More","year":"2017-10-02","translations":["Любительский (многоголосый закадровый) (Синема УС)"],"quality":"webdl","translation":"Любительский (многоголосый закадровый) (Синема УС)","update":"2018-07-19 06:07:47","iframe_src":"//83.svetacdn.in/PfJ50H0ZBPg3/movie/17797"},{"id":17766,"title":"Гроза синдикатов","kp_id":"900032","imdb_id":"tt4473054","world_art_id":null,"type":"movie","add":"2018-07-18 00:34:24","orig_title":"Syndicate Smasher","year":"2017-03-11","translations":["Любительский (многоголосый закадровый) (Синема УС)"],"quality":"webdl","translation":"Любительский (многоголосый закадровый) (Синема УС)","update":"2018-07-18 06:34:50","iframe_src":"//83.svetacdn.in/PfJ50H0ZBPg3/movie/17766"},{"id":17764,"title":"Тихая ночь","kp_id":"1062946","imdb_id":"tt7133554","world_art_id":null,"type":"movie","add":"2018-07-18 00:30:58","orig_title":"Cicha noc","year":"2017-09-21","translations":["Любительский (многоголосый закадровый) (Синема УС)"],"quality":"bd","translation":"Любительский (многоголосый закадровый) (Синема УС)","update":"2018-07-18 06:37:45","iframe_src":"//83.svetacdn.in/PfJ50H0ZBPg3/movie/17764"},{"id":17760,"title":"Моя начальница","kp_id":"778241","imdb_id":"tt3012214","world_art_id":null,"type":"movie","add":"2018-07-18 00:16:55","orig_title":"My Lady Boss","year":"2017-07-03","translations":["Любительский (многоголосый закадровый) (Синема УС)"],"quality":"webdl","translation":"Любительский (многоголосый закадровый) (Синема УС)","update":"2018-07-18 06:42:09","iframe_src":"//83.svetacdn.in/PfJ50H0ZBPg3/movie/17760"},{"id":17759,"title":"Ограничимся поцелуями","kp_id":"907080","imdb_id":"tt4534886","world_art_id":null,"type":"movie","add":"2018-07-18 00:04:19","orig_title":"Making Out","year":"2016-02-05","translations":["Любительский (многоголосый закадровый) (Синема УС)"],"quality":"webdl","translation":"Любительский (многоголосый закадровый) (Синема УС)","update":"2018-07-18 06:43:35","iframe_src":"//83.svetacdn.in/PfJ50H0ZBPg3/movie/17759"},{"id":17758,"title":"Любовь в прямом эфире","kp_id":"896583","imdb_id":"tt4539828","world_art_id":null,"type":"movie","add":"2018-07-18 00:02:57","orig_title":"Love on the Air","year":"2015-09-26","translations":["Любительский (многоголосый закадровый) (Синема УС)"],"quality":"hdtv","translation":"Любительский (многоголосый закадровый) (Синема УС)","update":"2018-07-18 06:44:38","iframe_src":"//83.svetacdn.in/PfJ50H0ZBPg3/movie/17758"},{"id":17757,"title":"Змей с тысячей порезов","kp_id":"955962","imdb_id":"tt5303632","world_art_id":null,"type":"movie","add":"2018-07-18 00:01:22","orig_title":"Le serpent aux mille coupures","year":"2017-01-27","translations":["Любительский (многоголосый закадровый) (Колобок)"],"quality":"bd","translation":"Любительский (многоголосый закадровый) (Колобок)","update":"2018-07-18 06:45:47","iframe_src":"//83.svetacdn.in/PfJ50H0ZBPg3/movie/17757"},{"id":17756,"title":"Незнакомка Джозефина","kp_id":"901239","imdb_id":"tt4421800","world_art_id":null,"type":"movie","add":"2018-07-17 23:59:47","orig_title":"Josephine Doe","year":"2018-03-06","translations":["Любительский (многоголосый закадровый) (Синема УС)"],"quality":"webdl","translation":"Любительский (многоголосый закадровый) (Синема УС)","update":"2018-07-18 06:47:05","iframe_src":"//83.svetacdn.in/PfJ50H0ZBPg3/movie/17756"},{"id":17755,"title":"В погоне за тишиной","kp_id":"1007470","imdb_id":"tt4026570","world_art_id":null,"type":"movie","add":"2018-07-17 23:58:04","orig_title":"In Pursuit of Silence","year":"2015-11-11","translations":["Любительский (многоголосый закадровый) (Синема УС)"],"quality":"bd","translation":"Любительский (многоголосый закадровый) (Синема УС)","update":"2018-07-18 06:48:39","iframe_src":"//83.svetacdn.in/PfJ50H0ZBPg3/movie/17755"},{"id":17754,"title":"Хочелага, земля душ","kp_id":"1019448","imdb_id":"tt6530104","world_art_id":null,"type":"movie","add":"2018-07-17 23:56:29","orig_title":"Hochelaga, Terre des Âmes","year":"2017-09-09","translations":["Любительский (многоголосый закадровый) (Колобок)"],"quality":"webdl","translation":"Любительский (многоголосый закадровый) (Колобок)","update":"2018-07-18 06:50:20","iframe_src":"//83.svetacdn.in/PfJ50H0ZBPg3/movie/17754"},{"id":17753,"title":"Проявления тьмы","kp_id":"764093","imdb_id":"tt2924488","world_art_id":null,"type":"movie","add":"2018-07-17 23:54:46","orig_title":"Hidden Peaks","year":"2018-04-04","translations":["Любительский (многоголосый закадровый) (Синема УС)"],"quality":"bd","translation":"Любительский (многоголосый закадровый) (Синема УС)","update":"2018-07-18 06:51:40","iframe_src":"//83.svetacdn.in/PfJ50H0ZBPg3/movie/17753"},{"id":17752,"title":"Девушка на волне","kp_id":null,"imdb_id":"tt7150482","world_art_id":null,"type":"movie","add":"2018-07-17 23:53:18","orig_title":"Girl on Wave","year":"2017-08-08","translations":["Любительский (многоголосый закадровый) (Синема УС)"],"quality":"webdl","translation":"Любительский (многоголосый закадровый) (Синема УС)","update":"2018-07-18 06:53:12","iframe_src":"//83.svetacdn.in/PfJ50H0ZBPg3/movie/17752"},{"id":17751,"title":"Семья победителей","kp_id":"1049656","imdb_id":"tt8011594","world_art_id":null,"type":"movie","add":"2018-07-17 23:49:00","orig_title":"Dian di lian meng","year":"2017-11-28","translations":["Любительский (многоголосый закадровый) (Синема УС)"],"quality":"webdl","translation":"Любительский (многоголосый закадровый) (Синема УС)","update":"2018-07-18 06:55:17","iframe_src":"//83.svetacdn.in/PfJ50H0ZBPg3/movie/17751"},{"id":17750,"title":"Деррен Браун: Чудеса","kp_id":null,"imdb_id":"tt8599562","world_art_id":null,"type":"movie","add":"2018-07-17 23:46:08","orig_title":"Derren Brown: Miracle","year":"2016-10-10","translations":["Любительский (многоголосый закадровый) (Синема УС)"],"quality":"webdl","translation":"Любительский (многоголосый закадровый) (Синема УС)","update":"2018-07-18 06:57:30","iframe_src":"//83.svetacdn.in/PfJ50H0ZBPg3/movie/17750"},{"id":17749,"title":"Преступление во времени","kp_id":"809356","imdb_id":"tt3337732","world_art_id":null,"type":"movie","add":"2018-07-17 23:44:35","orig_title":"Crimes and Mister Meanors","year":"2015-10-01","translations":["Любительский (многоголосый закадровый) (Синема УС)"],"quality":"webdl","translation":"Любительский (многоголосый закадровый) (Синема УС)","update":"2018-07-18 06:58:56","iframe_src":"//83.svetacdn.in/PfJ50H0ZBPg3/movie/17749"},{"id":17748,"title":"Мальчики балета","kp_id":"841563","imdb_id":"tt3447810","world_art_id":null,"type":"movie","add":"2018-07-17 23:36:37","orig_title":"Ballettguttene","year":"2014-03-18","translations":["Любительский (многоголосый закадровый) (Синема УС)"],"quality":"webdl","translation":"Любительский (многоголосый закадровый) (Синема УС)","update":"2018-07-18 07:00:17","iframe_src":"//83.svetacdn.in/PfJ50H0ZBPg3/movie/17748"},{"id":17719,"title":"Волчица и черный принц","kp_id":"961635","imdb_id":"tt5224834","world_art_id":null,"type":"movie","add":"2018-07-15 21:32:38","orig_title":"Ookami shoujo to kuro ouji","year":"2016-05-28","translations":["Любительский (двухголосый закадровый) (AniDUB)","Любительский (двухголосый закадровый)"],"quality":"bd","translation":"Любительский (двухголосый закадровый) (AniDUB)","update":"2018-07-18 07:01:06","iframe_src":"//83.svetacdn.in/PfJ50H0ZBPg3/movie/17719"},{"id":16044,"title":"Я счастлив","kp_id":"957731","imdb_id":"tt6022564","world_art_id":null,"type":"movie","add":"2018-04-03 22:06:30","orig_title":"Ya schastliv","year":"2018-03-08","translations":["Оригинальная дорожка"],"quality":"webdl","translation":"Оригинальная дорожка","update":"2018-07-19 06:06:04","iframe_src":"//83.svetacdn.in/PfJ50H0ZBPg3/movie/16044"},{"id":3018,"title":"Дворецкий","kp_id":"464446","imdb_id":"tt1327773","world_art_id":null,"type":"movie","add":"2016-06-08 20:39:19","orig_title":"The Butler","year":"2013-08-05","translations":["Любительский (двухголосый закадровый)","Профессиональный (многоголосый закадровый)"],"quality":"bd","translation":"Любительский (двухголосый закадровый)","update":"2018-07-18 06:56:14","iframe_src":"//83.svetacdn.in/PfJ50H0ZBPg3/movie/3018"}],"current_page":1906,"first_page_url":"https://videocdn.tv/api/short?limit=100&api_token=RgFQdUIR2dRmwv8iYa5SnFNgnw3vpjKj&cache31906=31906&page=1","from":190501,"last_page":648,"last_page_url":"https://videocdn.tv/api/short?limit=100&api_token=RgFQdUIR2dRmwv8iYa5SnFNgnw3vpjKj&cache31906=31906&page=648","next_page_url":null,"path":"https://videocdn.tv/api/short","per_page":100,"prev_page_url":"https://videocdn.tv/api/short?limit=100&api_token=RgFQdUIR2dRmwv8iYa5SnFNgnw3vpjKj&cache31906=31906&page=1905","to":190520,"total":64722}