{"result":true,"data":[{"id":43781,"title":"Исследователь Тоби и тайна нашей планеты","kp_id":"1202387","imdb_id":"tt9090170","world_art_id":null,"type":"movie","add":"2020-09-22 21:00:26","orig_title":"Checker Tobi und das Geheimnis unseres Planeten","year":"2019-01-31","translations":["Любительский (многоголосый закадровый) (@MUZOBOZ@)"],"quality":"webdl","translation":"Любительский (многоголосый закадровый) (@MUZOBOZ@)","update":"2020-09-23 04:48:15","iframe_src":"//2413.svetacdn.in/si4jsFRrtgrT/movie/43781"},{"id":43774,"title":"Барби и Кендра спасают Короля Тигров","kp_id":"1380630","imdb_id":"tt12338128","world_art_id":null,"type":"movie","add":"2020-09-22 20:22:54","orig_title":"Barbie & Kendra Save the Tiger King","year":"2020-05-15","translations":["Любительский (многоголосый закадровый) (Синема УС)"],"quality":"webdl","translation":"Любительский (многоголосый закадровый) (Синема УС)","update":"2020-09-23 04:52:18","iframe_src":"//2413.svetacdn.in/si4jsFRrtgrT/movie/43774"},{"id":43772,"title":"Атлантический вал","kp_id":"60219","imdb_id":"tt0066108","world_art_id":null,"type":"movie","add":"2020-09-22 20:04:37","orig_title":"Le mur de l'Atlantique","year":"1970-10-14","translations":["Профессиональный (многоголосый закадровый) (Нота)"],"quality":"bd","translation":"Профессиональный (многоголосый закадровый) (Нота)","update":"2020-09-23 04:55:20","iframe_src":"//2413.svetacdn.in/si4jsFRrtgrT/movie/43772"},{"id":43764,"title":"Кровавая стирка","kp_id":"327188","imdb_id":"tt0105785","world_art_id":null,"type":"movie","add":"2020-09-22 15:10:49","orig_title":"Vortice mortale","year":"1993-01-01","translations":["Любительский (одноголосый закадровый)"],"quality":"dvdrip","translation":"Любительский (одноголосый закадровый)","update":"2020-09-22 19:57:46","iframe_src":"//2413.svetacdn.in/si4jsFRrtgrT/movie/43764"},{"id":43763,"title":"В паутине лжи","kp_id":"1179006","imdb_id":"tt6131414","world_art_id":null,"type":"movie","add":"2020-09-22 14:44:59","orig_title":"Araña","year":"2019-08-15","translations":["Профессиональный (многоголосый закадровый) (iTunes)"],"quality":"webdl","translation":"Профессиональный (многоголосый закадровый) (iTunes)","update":"2020-09-23 05:04:49","iframe_src":"//2413.svetacdn.in/si4jsFRrtgrT/movie/43763"},{"id":43750,"title":"Камен Райдер Кива: Король замка ада","kp_id":"456236","imdb_id":"tt1285118","world_art_id":null,"type":"movie","add":"2020-09-22 14:05:59","orig_title":"Gekijôban kamen raidâ Kiba: Makaijô no ô","year":"2008-08-09","translations":["Любительский (одноголосый закадровый)"],"quality":"bd","translation":"Любительский (одноголосый закадровый)","update":"2020-09-23 05:05:53","iframe_src":"//2413.svetacdn.in/si4jsFRrtgrT/movie/43750"},{"id":43742,"title":"Муравьи убийцы","kp_id":"326143","imdb_id":"tt0076214","world_art_id":null,"type":"movie","add":"2020-09-22 13:18:54","orig_title":"It Happened at Lakewood Manor","year":"1977-12-02","translations":["Авторский (одноголосый закадровый) (Дольский Андрей)"],"quality":"dvdrip","translation":"Авторский (одноголосый закадровый) (Дольский Андрей)","update":"2020-09-22 19:55:52","iframe_src":"//2413.svetacdn.in/si4jsFRrtgrT/movie/43742"},{"id":43741,"title":"Коллеги 2.0","kp_id":"1104233","imdb_id":"tt7641782","world_art_id":null,"type":"movie","add":"2020-09-22 07:50:58","orig_title":"De Collega's 2.0","year":"2018-12-12","translations":["Любительский (многоголосый закадровый) (@MUZOBOZ@)"],"quality":"webdl","translation":"Любительский (многоголосый закадровый) (@MUZOBOZ@)","update":"2020-09-22 17:19:34","iframe_src":"//2413.svetacdn.in/si4jsFRrtgrT/movie/43741"},{"id":43740,"title":"Банда Гросси","kp_id":"991683","imdb_id":"tt5687414","world_art_id":null,"type":"movie","add":"2020-09-22 07:50:35","orig_title":"La banda Grossi","year":"2018-09-20","translations":["Любительский (многоголосый закадровый) (AlphaProject)"],"quality":"bd","translation":"Любительский (многоголосый закадровый) (AlphaProject)","update":"2020-09-22 20:55:33","iframe_src":"//2413.svetacdn.in/si4jsFRrtgrT/movie/43740"},{"id":43739,"title":"Елгава 94","kp_id":"1119438","imdb_id":"tt7707108","world_art_id":null,"type":"movie","add":"2020-09-22 07:47:52","orig_title":"Jelgava 94","year":"2019-09-20","translations":["Любительский (многоголосый закадровый) (@MUZOBOZ@)"],"quality":"webdl","translation":"Любительский (многоголосый закадровый) (@MUZOBOZ@)","update":"2020-09-22 17:20:22","iframe_src":"//2413.svetacdn.in/si4jsFRrtgrT/movie/43739"},{"id":43738,"title":"Целуй, дубина!","kp_id":"1200821","imdb_id":"tt9063684","world_art_id":null,"type":"movie","add":"2020-09-22 07:46:57","orig_title":"Pup-o, ma","year":"2018-10-26","translations":["Любительский (многоголосый закадровый) (Синема УС)"],"quality":"webdl","translation":"Любительский (многоголосый закадровый) (Синема УС)","update":"2020-09-22 20:54:19","iframe_src":"//2413.svetacdn.in/si4jsFRrtgrT/movie/43738"},{"id":43737,"title":"Переплетённые","kp_id":"1292899","imdb_id":"tt10776598","world_art_id":null,"type":"movie","add":"2020-09-22 07:44:02","orig_title":"Entwined","year":"2019-09-08","translations":["Любительский (двухголосый закадровый) (Колобок)"],"quality":"webdl","translation":"Любительский (двухголосый закадровый) (Колобок)","update":"2020-09-22 17:20:54","iframe_src":"//2413.svetacdn.in/si4jsFRrtgrT/movie/43737"},{"id":43736,"title":"Путь","kp_id":null,"imdb_id":"tt6959074","world_art_id":null,"type":"movie","add":"2020-09-22 07:42:20","orig_title":"Dao cua dan ngu cu","year":"2017-06-09","translations":["Любительский (многоголосый закадровый) (Синема УС)"],"quality":"webdl","translation":"Любительский (многоголосый закадровый) (Синема УС)","update":"2020-09-22 20:54:55","iframe_src":"//2413.svetacdn.in/si4jsFRrtgrT/movie/43736"},{"id":43734,"title":"Отправление","kp_id":"1199660","imdb_id":null,"world_art_id":null,"type":"movie","add":"2020-09-22 07:38:01","orig_title":"Chulguk","year":"2018-11-14","translations":["Любительский (двухголосый закадровый) (Колобок)"],"quality":"webdl","translation":"Любительский (двухголосый закадровый) (Колобок)","update":"2020-09-22 20:53:42","iframe_src":"//2413.svetacdn.in/si4jsFRrtgrT/movie/43734"},{"id":43707,"title":"Ты умрешь в 20","kp_id":"1301686","imdb_id":"tt9686154","world_art_id":null,"type":"movie","add":"2020-09-21 09:05:54","orig_title":"You Will Die at 20","year":"2019-08-28","translations":["Любительский (многоголосый закадровый) (Синема УС)"],"quality":"webdl","translation":"Любительский (многоголосый закадровый) (Синема УС)","update":"2020-09-22 20:53:02","iframe_src":"//2413.svetacdn.in/si4jsFRrtgrT/movie/43707"},{"id":43705,"title":"Долли Китти и мерцающие звезды","kp_id":"1210865","imdb_id":"tt9176296","world_art_id":null,"type":"movie","add":"2020-09-21 08:58:35","orig_title":"Dolly kitty aur woh chamakte sitare","year":"2019-10-04","translations":["Любительский (многоголосый закадровый) (Синема УС)"],"quality":"webdl","translation":"Любительский (многоголосый закадровый) (Синема УС)","update":"2020-09-22 20:52:37","iframe_src":"//2413.svetacdn.in/si4jsFRrtgrT/movie/43705"},{"id":43703,"title":"Обратная сторона тени","kp_id":"1316567","imdb_id":"tt11362496","world_art_id":null,"type":"movie","add":"2020-09-21 08:36:52","orig_title":"Eiri","year":"2019-12-07","translations":["Любительский (многоголосый закадровый) (Синема УС)"],"quality":"webdl","translation":"Любительский (многоголосый закадровый) (Синема УС)","update":"2020-09-22 21:02:16","iframe_src":"//2413.svetacdn.in/si4jsFRrtgrT/movie/43703"},{"id":43700,"title":"Детская игра","kp_id":"1320862","imdb_id":"tt11280244","world_art_id":null,"type":"movie","add":"2020-09-21 08:27:19","orig_title":"Choi Thi Chiu","year":"2017-10-20","translations":["Любительский (многоголосый закадровый) (Синема УС)"],"quality":"webdl","translation":"Любительский (многоголосый закадровый) (Синема УС)","update":"2020-09-22 20:57:27","iframe_src":"//2413.svetacdn.in/si4jsFRrtgrT/movie/43700"},{"id":43698,"title":"Осторожно, мать","kp_id":"1400548","imdb_id":"tt12881690","world_art_id":null,"type":"movie","add":"2020-09-20 21:19:46","orig_title":"Beware of Mom","year":"2020-08-15","translations":["Любительский (многоголосый закадровый) (AlphaProject)"],"quality":"webdl","translation":"Любительский (многоголосый закадровый) (AlphaProject)","update":"2020-09-22 20:56:09","iframe_src":"//2413.svetacdn.in/si4jsFRrtgrT/movie/43698"},{"id":43488,"title":"Зимняя сказка","kp_id":"817532","imdb_id":"tt8822366","world_art_id":null,"type":"movie","add":"2020-09-13 19:40:28","orig_title":"Zimnyaya skazka","year":"1945-01-01","translations":["Оригинальная дорожка"],"quality":"webdl","translation":"Оригинальная дорожка","update":"2020-09-22 14:44:33","iframe_src":"//2413.svetacdn.in/si4jsFRrtgrT/movie/43488"}],"current_page":1058,"first_page_url":"https://videocdn.tv/api/short?limit=100&api_token=X6EwAUfE5M9xbo7y0Bp0aPf3uXxG2KLL&cache31058=31058&page=1","from":105701,"last_page":724,"last_page_url":"https://videocdn.tv/api/short?limit=100&api_token=X6EwAUfE5M9xbo7y0Bp0aPf3uXxG2KLL&cache31058=31058&page=724","next_page_url":null,"path":"https://videocdn.tv/api/short","per_page":100,"prev_page_url":"https://videocdn.tv/api/short?limit=100&api_token=X6EwAUfE5M9xbo7y0Bp0aPf3uXxG2KLL&cache31058=31058&page=1057","to":105720,"total":72342}