{"result":true,"data":[{"id":46320,"title":"Без стыда","kp_id":"59453","imdb_id":"tt0286971","world_art_id":null,"type":"movie","add":"2020-12-22 18:57:20","orig_title":"Sin vergüenza","year":"2001-05-02","translations":["Профессиональный (двухголосый закадровый)"],"quality":"dvdrip","translation":"Профессиональный (двухголосый закадровый)","update":"2020-12-24 14:50:53","iframe_src":"//24213.svetacdn.in/71tsRs29n5tZ/movie/46320"},{"id":46211,"title":"Красный круг","kp_id":"76861","imdb_id":"tt0053228","world_art_id":null,"type":"movie","add":"2020-12-18 11:07:05","orig_title":"Der rote Kreis","year":"1960-03-02","translations":["Профессиональный (многоголосый закадровый) (5-й канал СПб)"],"quality":"bd","translation":"Профессиональный (многоголосый закадровый) (5-й канал СПб)","update":"2020-12-24 14:19:33","iframe_src":"//24213.svetacdn.in/71tsRs29n5tZ/movie/46211"},{"id":46209,"title":"Уйти, вернуться","kp_id":"59551","imdb_id":"tt0087888","world_art_id":null,"type":"movie","add":"2020-12-18 11:04:40","orig_title":"Partir, revenir","year":"1985-03-27","translations":["Профессиональный (многоголосый закадровый) (Видеофильм)"],"quality":"bd","translation":"Профессиональный (многоголосый закадровый) (Видеофильм)","update":"2020-12-24 14:25:03","iframe_src":"//24213.svetacdn.in/71tsRs29n5tZ/movie/46209"},{"id":46208,"title":"Месть из прошлого","kp_id":"6343","imdb_id":"tt0201484","world_art_id":null,"type":"movie","add":"2020-12-18 11:02:48","orig_title":"Blowback","year":"2000-02-23","translations":["Авторский (одноголосый закадровый) (Сербин Юрий)"],"quality":"bd","translation":"Авторский (одноголосый закадровый) (Сербин Юрий)","update":"2020-12-24 14:48:02","iframe_src":"//24213.svetacdn.in/71tsRs29n5tZ/movie/46208"},{"id":46203,"title":"По следам убийцы","kp_id":"262769","imdb_id":"tt0230412","world_art_id":null,"type":"movie","add":"2020-12-18 10:11:49","orig_title":"Khoon Khoon","year":"1973-01-01","translations":["Профессиональный (многоголосый закадровый)"],"quality":"webdl","translation":"Профессиональный (многоголосый закадровый)","update":"2020-12-24 14:34:01","iframe_src":"//24213.svetacdn.in/71tsRs29n5tZ/movie/46203"},{"id":46200,"title":"Ты и я навсегда","kp_id":"606849","imdb_id":"tt1970076","world_art_id":null,"type":"movie","add":"2020-12-18 09:55:46","orig_title":"You & Me Forever","year":"2012-09-13","translations":["Профессиональный (многоголосый закадровый)"],"quality":"webdl","translation":"Профессиональный (многоголосый закадровый)","update":"2020-12-24 14:35:26","iframe_src":"//24213.svetacdn.in/71tsRs29n5tZ/movie/46200"},{"id":46199,"title":"Проклятье затерянного склепа","kp_id":"57211","imdb_id":"tt0058161","world_art_id":null,"type":"movie","add":"2020-12-18 09:36:38","orig_title":"Die Gruft mit dem Rätselschloß","year":"1964-04-30","translations":["Профессиональный (многоголосый закадровый) (5-й канал СПб)"],"quality":"bd","translation":"Профессиональный (многоголосый закадровый) (5-й канал СПб)","update":"2020-12-24 14:21:48","iframe_src":"//24213.svetacdn.in/71tsRs29n5tZ/movie/46199"},{"id":46196,"title":"Детективная история","kp_id":"10625","imdb_id":"tt0043465","world_art_id":null,"type":"movie","add":"2020-12-18 09:28:38","orig_title":"Detective Story","year":"1951-10-19","translations":["Профессиональный (многоголосый закадровый)"],"quality":"bd","translation":"Профессиональный (многоголосый закадровый)","update":"2020-12-24 14:20:28","iframe_src":"//24213.svetacdn.in/71tsRs29n5tZ/movie/46196"},{"id":46194,"title":"Щенок на Рождество","kp_id":"1009468","imdb_id":"tt6275674","world_art_id":null,"type":"movie","add":"2020-12-18 09:17:15","orig_title":"A Puppy for Christmas","year":"2016-11-25","translations":["Профессиональный (многоголосый закадровый)"],"quality":"webdl","translation":"Профессиональный (многоголосый закадровый)","update":"2020-12-24 14:29:18","iframe_src":"//24213.svetacdn.in/71tsRs29n5tZ/movie/46194"},{"id":46193,"title":"Уроки ориентации","kp_id":"59698","imdb_id":"tt0380420","world_art_id":null,"type":"movie","add":"2020-12-18 09:15:14","orig_title":"Home of Phobia","year":"2004-01-18","translations":["Профессиональный (многоголосый закадровый) (ТНТ)"],"quality":"webdl","translation":"Профессиональный (многоголосый закадровый) (ТНТ)","update":"2020-12-24 14:32:59","iframe_src":"//24213.svetacdn.in/71tsRs29n5tZ/movie/46193"},{"id":46189,"title":"Самсон и Далила","kp_id":"14124","imdb_id":"tt0041838","world_art_id":null,"type":"movie","add":"2020-12-18 09:07:04","orig_title":"Samson and Delilah","year":"1949-12-21","translations":["Профессиональный (многоголосый закадровый) (ТВЦ)"],"quality":"bd","translation":"Профессиональный (многоголосый закадровый) (ТВЦ)","update":"2020-12-24 14:28:15","iframe_src":"//24213.svetacdn.in/71tsRs29n5tZ/movie/46189"},{"id":46188,"title":"Клеопатра","kp_id":"15738","imdb_id":"tt0024991","world_art_id":null,"type":"movie","add":"2020-12-18 08:59:22","orig_title":"Cleopatra","year":"1934-10-05","translations":["[EN] Original (English)","Профессиональный (многоголосый закадровый) (DVD Classic)"],"quality":"bd","translation":"[EN] Original (English)","update":"2020-12-24 14:50:16","iframe_src":"//24213.svetacdn.in/71tsRs29n5tZ/movie/46188"},{"id":46187,"title":"Риф Донована","kp_id":"1118","imdb_id":"tt0057007","world_art_id":null,"type":"movie","add":"2020-12-18 08:57:15","orig_title":"Donovan's Reef","year":"1963-06-12","translations":["Профессиональный (многоголосый закадровый) (Paramount Channel)"],"quality":"bd","translation":"Профессиональный (многоголосый закадровый) (Paramount Channel)","update":"2020-12-24 14:22:48","iframe_src":"//24213.svetacdn.in/71tsRs29n5tZ/movie/46187"},{"id":46186,"title":"Огонь в домашнем очаге","kp_id":"297253","imdb_id":"tt0097520","world_art_id":null,"type":"movie","add":"2020-12-18 08:47:39","orig_title":"Home Fires Burning","year":"1989-01-29","translations":["Профессиональный (многоголосый закадровый) (5-й канал СПб)"],"quality":"webdl","translation":"Профессиональный (многоголосый закадровый) (5-й канал СПб)","update":"2020-12-24 14:30:23","iframe_src":"//24213.svetacdn.in/71tsRs29n5tZ/movie/46186"},{"id":46183,"title":"Дама с камелиями","kp_id":"89520","imdb_id":"tt0087028","world_art_id":null,"type":"movie","add":"2020-12-18 08:30:08","orig_title":"Camille","year":"1984-12-11","translations":["Профессиональный (многоголосый закадровый)"],"quality":"bd","translation":"Профессиональный (многоголосый закадровый)","update":"2020-12-24 14:18:35","iframe_src":"//24213.svetacdn.in/71tsRs29n5tZ/movie/46183"},{"id":38982,"title":"Могущественный","kp_id":"86829","imdb_id":"tt0230991","world_art_id":null,"type":"movie","add":"2020-04-06 23:03:05","orig_title":"Zabardast","year":"1985-06-21","translations":["Профессиональный (многоголосый закадровый)","Профессиональный (многоголосый закадровый)"],"quality":"dvdrip","translation":"Профессиональный (многоголосый закадровый)","update":"2020-12-24 14:36:45","iframe_src":"//24213.svetacdn.in/71tsRs29n5tZ/movie/38982"},{"id":35913,"title":"Инсайдеры","kp_id":"899979","imdb_id":"tt3779028","world_art_id":null,"type":"movie","add":"2020-02-07 21:27:38","orig_title":"Naebujadeul","year":"2015-11-19","translations":["Любительский (двухголосый закадровый) (DeadSno & den904)","Профессиональный (многоголосый закадровый) (Кириллица)"],"quality":"bd","translation":"Любительский (двухголосый закадровый) (DeadSno & den904)","update":"2020-12-24 14:23:40","iframe_src":"//24213.svetacdn.in/71tsRs29n5tZ/movie/35913"},{"id":13494,"title":"Полина","kp_id":"913680","imdb_id":"tt4383288","world_art_id":null,"type":"movie","add":"2017-09-13 15:21:46","orig_title":"Polina, danser sa vie","year":"2016-09-03","translations":["Авторский (одноголосый закадровый) (Карповский Антон)","Любительский (многоголосый закадровый) (Синема УС)","Профессиональный (многоголосый закадровый) (GreenРай Studio)","Профессиональный (многоголосый закадровый)"],"quality":"bd","translation":"Авторский (одноголосый закадровый) (Карповский Антон)","update":"2020-12-24 14:27:13","iframe_src":"//24213.svetacdn.in/71tsRs29n5tZ/movie/13494"},{"id":1572,"title":"Один дома 2: Затерянный в Нью-Йорке","kp_id":"5928","imdb_id":"tt0104431","world_art_id":null,"type":"movie","add":"2016-04-22 14:54:41","orig_title":"Home Alone 2: Lost in New York","year":"1992-11-15","translations":["Полное дублирование","Авторский (одноголосый закадровый) (Михалёв Алексей)","Профессиональный (многоголосый закадровый) (Первый канал | ОРТ)","Авторский (одноголосый закадровый) (Дохалов Вартан)","Авторский (одноголосый закадровый) (Горчаков Василий)","Авторский (одноголосый закадровый) (Марченко Александр)","Авторский (одноголосый закадровый) (Прямостанов Павел)","Профессиональный (двухголосый закадровый) (НТВ)","Профессиональный (двухголосый закадровый) (Премьер Видео Фильм)"],"quality":"bd","translation":"Полное дублирование","update":"2020-12-24 15:08:42","iframe_src":"//24213.svetacdn.in/71tsRs29n5tZ/movie/1572"},{"id":1571,"title":"Один дома","kp_id":"8124","imdb_id":"tt0099785","world_art_id":null,"type":"movie","add":"2016-04-22 14:53:19","orig_title":"Home Alone","year":"1990-11-10","translations":["Полное дублирование","Профессиональный (многоголосый закадровый)","Профессиональный (многоголосый закадровый)","Профессиональный (двухголосый закадровый) (НТВ)","Авторский (одноголосый закадровый) (Михалёв Алексей)","Авторский (одноголосый закадровый) (Дохалов Вартан)","Авторский (одноголосый закадровый) (Горчаков Василий)","Авторский (одноголосый закадровый) (Карповский Антон)","Любительский (одноголосый закадровый) (Никитин)","Авторский (одноголосый закадровый) (Товбин Юрий)","Профессиональный (двухголосый закадровый) (Lazer Video | Лазер видео)","Профессиональный (двухголосый закадровый) (Премьер Видео Фильм)"],"quality":"bd","translation":"Полное дублирование","update":"2020-12-24 14:59:19","iframe_src":"//24213.svetacdn.in/71tsRs29n5tZ/movie/1571"}],"current_page":950,"first_page_url":"https://videocdn.tv/api/short?limit=100&api_token=EnbO9h8pv1VyjbCJhg0WM9nG259n7mtz&cache3950=3950&page=1","from":94901,"last_page":727,"last_page_url":"https://videocdn.tv/api/short?limit=100&api_token=EnbO9h8pv1VyjbCJhg0WM9nG259n7mtz&cache3950=3950&page=727","next_page_url":null,"path":"https://videocdn.tv/api/short","per_page":100,"prev_page_url":"https://videocdn.tv/api/short?limit=100&api_token=EnbO9h8pv1VyjbCJhg0WM9nG259n7mtz&cache3950=3950&page=949","to":94920,"total":72691}