{"result":true,"data":[{"id":42709,"title":"На скейте по Америке","kp_id":null,"imdb_id":"tt2850610","world_art_id":null,"type":"movie","add":"2020-08-24 04:08:32","orig_title":"Shred America","year":"2018-03-23","translations":["Любительский (многоголосый закадровый) (Синема УС)"],"quality":"bd","translation":"Любительский (многоголосый закадровый) (Синема УС)","update":"2020-08-24 07:31:16","iframe_src":"//8209.svetacdn.in/10IAF0wWTdNYZm/movie/42709"},{"id":42705,"title":"Пенальти","kp_id":"1278191","imdb_id":"tt10530392","world_art_id":null,"type":"movie","add":"2020-08-24 04:03:25","orig_title":"Penalty","year":"2019-07-19","translations":["Любительский (многоголосый закадровый) (Синема УС)"],"quality":"webdl","translation":"Любительский (многоголосый закадровый) (Синема УС)","update":"2020-08-24 07:30:52","iframe_src":"//8209.svetacdn.in/10IAF0wWTdNYZm/movie/42705"},{"id":42686,"title":"Волшебная флейта","kp_id":"624642","imdb_id":null,"world_art_id":null,"type":"movie","add":"2020-08-23 16:42:40","orig_title":"Волшебная флейта","year":"1938-03-16","translations":["Оригинальная дорожка"],"quality":"sat","translation":"Оригинальная дорожка","update":"2020-08-24 08:18:57","iframe_src":"//8209.svetacdn.in/10IAF0wWTdNYZm/movie/42686"},{"id":42685,"title":"Вор","kp_id":"818223","imdb_id":null,"world_art_id":null,"type":"movie","add":"2020-08-23 16:30:42","orig_title":"Вор","year":"1934-01-01","translations":["Оригинальная дорожка"],"quality":"webdl","translation":"Оригинальная дорожка","update":"2020-08-24 08:14:00","iframe_src":"//8209.svetacdn.in/10IAF0wWTdNYZm/movie/42685"},{"id":42684,"title":"Заяц-портной","kp_id":"596058","imdb_id":"tt10303220","world_art_id":null,"type":"movie","add":"2020-08-23 16:24:37","orig_title":"Zayac-Portnoj","year":"1937-01-01","translations":["Оригинальная дорожка"],"quality":"tv","translation":"Оригинальная дорожка","update":"2020-08-24 08:11:25","iframe_src":"//8209.svetacdn.in/10IAF0wWTdNYZm/movie/42684"},{"id":42683,"title":"Пёс и кот","kp_id":"260074","imdb_id":"tt0145745","world_art_id":null,"type":"movie","add":"2020-08-23 16:21:24","orig_title":"Pyos i kot","year":"1955-09-01","translations":["Оригинальная дорожка"],"quality":"dvdrip","translation":"Оригинальная дорожка","update":"2020-08-24 08:10:33","iframe_src":"//8209.svetacdn.in/10IAF0wWTdNYZm/movie/42683"},{"id":42682,"title":"История одной куклы","kp_id":"766123","imdb_id":"tt2941360","world_art_id":null,"type":"movie","add":"2020-08-23 16:18:28","orig_title":"Istoriya odnoy kukly","year":"1984-01-01","translations":["Оригинальная дорожка"],"quality":"dvdrip","translation":"Оригинальная дорожка","update":"2020-08-24 06:46:26","iframe_src":"//8209.svetacdn.in/10IAF0wWTdNYZm/movie/42682"},{"id":42681,"title":"Карьера Фиалкина","kp_id":"668012","imdb_id":null,"world_art_id":null,"type":"movie","add":"2020-08-23 16:13:33","orig_title":"Карьера Фиалкина","year":"1934-01-01","translations":["Оригинальная дорожка"],"quality":"webdl","translation":"Оригинальная дорожка","update":"2020-08-24 06:45:29","iframe_src":"//8209.svetacdn.in/10IAF0wWTdNYZm/movie/42681"},{"id":42680,"title":"Негритянская сказка","kp_id":"818494","imdb_id":null,"world_art_id":null,"type":"movie","add":"2020-08-23 16:05:57","orig_title":"Негритянская сказка","year":"1937-01-01","translations":["Оригинальная дорожка"],"quality":"webdl","translation":"Оригинальная дорожка","update":"2020-08-24 06:44:00","iframe_src":"//8209.svetacdn.in/10IAF0wWTdNYZm/movie/42680"},{"id":42679,"title":"На море","kp_id":"320837","imdb_id":"tt0814622","world_art_id":null,"type":"movie","add":"2020-08-23 15:59:59","orig_title":"Zgvaze","year":"1976-06-01","translations":["Оригинальная дорожка"],"quality":"webdl","translation":"Оригинальная дорожка","update":"2020-08-24 06:42:56","iframe_src":"//8209.svetacdn.in/10IAF0wWTdNYZm/movie/42679"},{"id":42678,"title":"Прекрасная Люканида","kp_id":"40949","imdb_id":"tt0002056","world_art_id":null,"type":"movie","add":"2020-08-23 15:56:31","orig_title":"Prekrasnaya Lyukanida","year":"1912-04-26","translations":["Оригинальная дорожка"],"quality":"dvdscr","translation":"Оригинальная дорожка","update":"2020-08-24 06:41:50","iframe_src":"//8209.svetacdn.in/10IAF0wWTdNYZm/movie/42678"},{"id":42672,"title":"Химические сердца","kp_id":"1272735","imdb_id":"tt5843876","world_art_id":null,"type":"movie","add":"2020-08-23 03:39:21","orig_title":"Chemical Hearts","year":"2020-08-21","translations":["Любительский (двухголосый закадровый) (OnisFilms)","Любительский (многоголосый закадровый) (Синема УС)"],"quality":"webdl","translation":"Любительский (двухголосый закадровый) (OnisFilms)","update":"2020-08-24 06:32:51","iframe_src":"//8209.svetacdn.in/10IAF0wWTdNYZm/movie/42672"},{"id":42671,"title":"Отчаянный кот Васька","kp_id":"489279","imdb_id":"tt4596902","world_art_id":null,"type":"movie","add":"2020-08-21 20:52:40","orig_title":"Otchayannyy kot Vaska","year":"1985-01-01","translations":["Оригинальная дорожка"],"quality":"dvdrip","translation":"Оригинальная дорожка","update":"2020-08-24 06:41:02","iframe_src":"//8209.svetacdn.in/10IAF0wWTdNYZm/movie/42671"},{"id":42669,"title":"По щучьему велению","kp_id":"474706","imdb_id":"tt4659898","world_art_id":null,"type":"movie","add":"2020-08-21 20:48:29","orig_title":"Po shchuchemu veleniyu","year":"1984-01-01","translations":["Оригинальная дорожка"],"quality":"dvdrip","translation":"Оригинальная дорожка","update":"2020-08-24 06:40:03","iframe_src":"//8209.svetacdn.in/10IAF0wWTdNYZm/movie/42669"},{"id":42667,"title":"По собственному желанию","kp_id":"838357","imdb_id":"tt8086232","world_art_id":null,"type":"movie","add":"2020-08-21 20:44:39","orig_title":"Po sobstvennomu zhelaniyu","year":"1986-01-01","translations":["Оригинальная дорожка"],"quality":"sat","translation":"Оригинальная дорожка","update":"2020-08-24 06:39:09","iframe_src":"//8209.svetacdn.in/10IAF0wWTdNYZm/movie/42667"},{"id":42664,"title":"Почему у ласточки хвостик рожками","kp_id":"1112606","imdb_id":"tt2977446","world_art_id":null,"type":"movie","add":"2020-08-21 20:39:28","orig_title":"Pochemu u lastochki khvost rozhkami","year":"1967-01-01","translations":["Оригинальная дорожка"],"quality":"dvdrip","translation":"Оригинальная дорожка","update":"2020-08-24 06:38:25","iframe_src":"//8209.svetacdn.in/10IAF0wWTdNYZm/movie/42664"},{"id":42660,"title":"Ра-Ни-На","kp_id":"271160","imdb_id":"tt0814605","world_art_id":null,"type":"movie","add":"2020-08-21 20:31:26","orig_title":"Ra-Ni-Na","year":"1974-01-01","translations":["Оригинальная дорожка"],"quality":"dvdrip","translation":"Оригинальная дорожка","update":"2020-08-24 06:37:29","iframe_src":"//8209.svetacdn.in/10IAF0wWTdNYZm/movie/42660"},{"id":42659,"title":"Резвый","kp_id":"628034","imdb_id":"tt9198314","world_art_id":null,"type":"movie","add":"2020-08-21 20:25:56","orig_title":"Rezvyy","year":"1990-01-01","translations":["Оригинальная дорожка"],"quality":"dvdrip","translation":"Оригинальная дорожка","update":"2020-08-24 06:35:35","iframe_src":"//8209.svetacdn.in/10IAF0wWTdNYZm/movie/42659"},{"id":42657,"title":"Росомаха и лисица","kp_id":"259378","imdb_id":"tt6835632","world_art_id":null,"type":"movie","add":"2020-08-21 20:23:39","orig_title":"Rosomakha i lisitsa","year":"1982-01-01","translations":["Оригинальная дорожка"],"quality":"dvdrip","translation":"Оригинальная дорожка","update":"2020-08-24 06:34:42","iframe_src":"//8209.svetacdn.in/10IAF0wWTdNYZm/movie/42657"},{"id":42654,"title":"Самый главный воробей","kp_id":"666715","imdb_id":"tt6485424","world_art_id":null,"type":"movie","add":"2020-08-21 20:15:11","orig_title":"Samyy glavnyy vorobey","year":"1977-01-01","translations":["Оригинальная дорожка"],"quality":"dvdrip","translation":"Оригинальная дорожка","update":"2020-08-24 06:32:30","iframe_src":"//8209.svetacdn.in/10IAF0wWTdNYZm/movie/42654"}],"current_page":705,"first_page_url":"https://videocdn.tv/api/short?limit=100&api_token=6Onb1W1alEUrBcKJZD3GoKBbWyAl2uG2&cache3705=3705&page=1","from":70401,"last_page":661,"last_page_url":"https://videocdn.tv/api/short?limit=100&api_token=6Onb1W1alEUrBcKJZD3GoKBbWyAl2uG2&cache3705=3705&page=661","next_page_url":null,"path":"https://videocdn.tv/api/short","per_page":100,"prev_page_url":"https://videocdn.tv/api/short?limit=100&api_token=6Onb1W1alEUrBcKJZD3GoKBbWyAl2uG2&cache3705=3705&page=704","to":70420,"total":66071}