{"result":true,"data":[{"id":50839,"title":"Избавление","kp_id":"97000","imdb_id":"tt0369746","world_art_id":null,"type":"movie","add":"2021-06-01 20:03:32","orig_title":"Mukti","year":"1977-08-14","translations":["Любительский (одноголосый закадровый)"],"quality":"webdl","translation":"Любительский (одноголосый закадровый)","update":"2021-06-08 11:55:47","iframe_src":"//83.svetacdn.in/PfJ50H0ZBPg3/movie/50839"},{"id":50838,"title":"Хозяин рынка","kp_id":"98901","imdb_id":"tt0246095","world_art_id":null,"type":"movie","add":"2021-06-01 20:02:13","orig_title":"Mutamestri","year":"1993-01-17","translations":["Любительский (одноголосый закадровый)"],"quality":"webdl","translation":"Любительский (одноголосый закадровый)","update":"2021-06-08 11:55:40","iframe_src":"//83.svetacdn.in/PfJ50H0ZBPg3/movie/50838"},{"id":50837,"title":"Последняя игра","kp_id":"224830","imdb_id":"tt0178171","world_art_id":null,"type":"movie","add":"2021-06-01 20:00:02","orig_title":"Aakhri Baazi","year":"1989-04-14","translations":["Любительский (одноголосый закадровый)"],"quality":"webdl","translation":"Любительский (одноголосый закадровый)","update":"2021-06-08 11:55:25","iframe_src":"//83.svetacdn.in/PfJ50H0ZBPg3/movie/50837"},{"id":50836,"title":"Кумар работает с огоньком","kp_id":"762491","imdb_id":"tt2889234","world_art_id":null,"type":"movie","add":"2021-06-01 19:58:10","orig_title":"Theeya Velai Seiyyanum Kumaru","year":"2013-06-14","translations":["Любительский (одноголосый закадровый)"],"quality":"webdl","translation":"Любительский (одноголосый закадровый)","update":"2021-06-08 11:55:11","iframe_src":"//83.svetacdn.in/PfJ50H0ZBPg3/movie/50836"},{"id":50835,"title":"Лев","kp_id":"1267383","imdb_id":"tt10298052","world_art_id":null,"type":"movie","add":"2021-06-01 19:55:58","orig_title":"Singa","year":"2019-05-24","translations":["Любительский (одноголосый закадровый)"],"quality":"webdl","translation":"Любительский (одноголосый закадровый)","update":"2021-06-08 11:54:59","iframe_src":"//83.svetacdn.in/PfJ50H0ZBPg3/movie/50835"},{"id":50834,"title":"Пятьдесят на пятьдесят","kp_id":"238336","imdb_id":"tt0359266","world_art_id":null,"type":"movie","add":"2021-06-01 19:54:01","orig_title":"Fiffty Fiffty","year":"1981-11-13","translations":["Любительский (одноголосый закадровый)"],"quality":"webdl","translation":"Любительский (одноголосый закадровый)","update":"2021-06-08 11:54:52","iframe_src":"//83.svetacdn.in/PfJ50H0ZBPg3/movie/50834"},{"id":50833,"title":"Мужество","kp_id":"1208070","imdb_id":"tt8811292","world_art_id":null,"type":"movie","add":"2021-06-01 19:51:30","orig_title":"Bharaate","year":"2019-10-18","translations":["Любительский (одноголосый закадровый)"],"quality":"webdl","translation":"Любительский (одноголосый закадровый)","update":"2021-06-08 11:54:39","iframe_src":"//83.svetacdn.in/PfJ50H0ZBPg3/movie/50833"},{"id":50832,"title":"Наксалит","kp_id":"921944","imdb_id":"tt4796654","world_art_id":null,"type":"movie","add":"2021-06-01 19:49:10","orig_title":"Naxal","year":"2015-06-19","translations":["Любительский (одноголосый закадровый)"],"quality":"webdl","translation":"Любительский (одноголосый закадровый)","update":"2021-06-08 11:54:28","iframe_src":"//83.svetacdn.in/PfJ50H0ZBPg3/movie/50832"},{"id":50831,"title":"Любовь без границ","kp_id":"406338","imdb_id":"tt1183944","world_art_id":null,"type":"movie","add":"2021-06-01 19:11:51","orig_title":"Sadiyaan: Boundaries Divide... Love Unites","year":"2010-04-02","translations":["Профессиональный (многоголосый закадровый) (Red Media)"],"quality":"dvdrip","translation":"Профессиональный (многоголосый закадровый) (Red Media)","update":"2021-06-08 11:53:53","iframe_src":"//83.svetacdn.in/PfJ50H0ZBPg3/movie/50831"},{"id":50830,"title":"Любовница","kp_id":"394562","imdb_id":"tt1085806","world_art_id":null,"type":"movie","add":"2021-06-01 19:09:43","orig_title":"Darling","year":"2007-09-07","translations":["Профессиональный (двухголосый закадровый)"],"quality":"dvdrip","translation":"Профессиональный (двухголосый закадровый)","update":"2021-06-08 11:53:41","iframe_src":"//83.svetacdn.in/PfJ50H0ZBPg3/movie/50830"},{"id":49991,"title":"Плащаница","kp_id":"1133","imdb_id":"tt0046247","world_art_id":null,"type":"movie","add":"2021-04-29 16:21:53","orig_title":"The Robe","year":"1953-09-16","translations":["Профессиональный (многоголосый закадровый) (Selena International)","[EN] Original (English)","Авторский (одноголосый закадровый) (Козлов Сергей)","Профессиональный (многоголосый закадровый)"],"quality":"bd","translation":"Профессиональный (многоголосый закадровый) (Selena International)","update":"2021-06-08 10:38:00","iframe_src":"//83.svetacdn.in/PfJ50H0ZBPg3/movie/49991"},{"id":48944,"title":"Зеленые береты","kp_id":"1341","imdb_id":"tt0063035","world_art_id":null,"type":"movie","add":"2021-03-20 15:24:12","orig_title":"The Green Berets","year":"1968-06-19","translations":["Профессиональный (многоголосый закадровый)","[EN] Original (English)"],"quality":"bd","translation":"Профессиональный (многоголосый закадровый)","update":"2021-06-08 11:01:31","iframe_src":"//83.svetacdn.in/PfJ50H0ZBPg3/movie/48944"},{"id":39721,"title":"Банда","kp_id":"263337","imdb_id":"tt0497915","world_art_id":null,"type":"movie","add":"2020-04-22 12:17:40","orig_title":"Gunda","year":"1998-09-04","translations":["Профессиональный (одноголосый закадровый)","Профессиональный (двухголосый закадровый) (Bollywood HD)"],"quality":"webdl","translation":"Профессиональный (одноголосый закадровый)","update":"2021-06-08 11:54:14","iframe_src":"//83.svetacdn.in/PfJ50H0ZBPg3/movie/39721"},{"id":36602,"title":"Будучи там","kp_id":"541","imdb_id":"tt0078841","world_art_id":null,"type":"movie","add":"2020-02-19 20:25:00","orig_title":"Being There","year":"1979-12-20","translations":["Полное дублирование","Авторский (одноголосый закадровый) (Либергал Григорий)","Полное дублирование","[EN] Original (English)"],"quality":"hdrip","translation":"Полное дублирование","update":"2021-06-08 10:50:08","iframe_src":"//83.svetacdn.in/PfJ50H0ZBPg3/movie/36602"},{"id":26672,"title":"Та еще парочка","kp_id":"684983","imdb_id":"tt2139881","world_art_id":null,"type":"movie","add":"2019-05-17 22:23:13","orig_title":"Long Shot","year":"2019-03-09","translations":["Полное дублирование","[EN] Original (English)","Авторский (одноголосый закадровый) (Котов Вячеслав)","Авторский (одноголосый закадровый) (Немахов Юрий)","Полное дублирование (iTunes)","[EN] Original (English)","Профессиональный (двухголосый закадровый) (SDI Media | Iyuno-SDI Group Russia)"],"quality":"bd","translation":"Полное дублирование","update":"2021-06-08 10:58:27","iframe_src":"//83.svetacdn.in/PfJ50H0ZBPg3/movie/26672"},{"id":20603,"title":"Тень","kp_id":"1045295","imdb_id":"tt6864046","world_art_id":null,"type":"movie","add":"2018-12-09 22:25:28","orig_title":"Ying","year":"2018-09-06","translations":["Любительский (многоголосый закадровый) (Колобок)","Любительский (двухголосый закадровый) (Sound-Group)","Профессиональный (многоголосый закадровый) (HDrezka Studio)","Полное дублирование","Профессиональный (многоголосый закадровый) (HDrezka Studio)"],"quality":"webdl","translation":"Любительский (многоголосый закадровый) (Колобок)","update":"2021-06-08 10:51:33","iframe_src":"//83.svetacdn.in/PfJ50H0ZBPg3/movie/20603"},{"id":16013,"title":"Бомба замедленного действия","kp_id":"2341","imdb_id":"tt0105597","world_art_id":null,"type":"movie","add":"2018-04-02 23:27:08","orig_title":"Timebomb","year":"1991-05-25","translations":["Профессиональный (многоголосый закадровый)","Авторский (одноголосый закадровый) (Марченко Александр)","[EN] Original (English)","Профессиональный (двухголосый закадровый) (НТВ)","Профессиональный (многоголосый закадровый) (ТВ6)"],"quality":"bd","translation":"Профессиональный (многоголосый закадровый)","update":"2021-06-08 10:29:07","iframe_src":"//83.svetacdn.in/PfJ50H0ZBPg3/movie/16013"},{"id":14850,"title":"Тайная жизнь насекомых","kp_id":"1071410","imdb_id":"tt6314766","world_art_id":null,"type":"movie","add":"2018-01-10 22:11:26","orig_title":"Drôles de petites bêtes","year":"2017-06-14","translations":["Полное дублирование","Профессиональный (многоголосый закадровый) (HDrezka Studio)"],"quality":"webdl","translation":"Полное дублирование","update":"2021-06-08 10:51:03","iframe_src":"//83.svetacdn.in/PfJ50H0ZBPg3/movie/14850"},{"id":956,"title":"Дядя Бак","kp_id":"889193","imdb_id":"tt4424758","world_art_id":null,"type":"serial","add":"2017-01-31 05:24:00","orig_title":"Uncle Buck","year":"2016-06-14","translations":["Профессиональный (многоголосый закадровый) (BaibaKo)"],"seasons_count":1,"episodes_count":8,"episodes":8,"update":"2017-02-01 06:49:38","iframe_src":"//83.svetacdn.in/PfJ50H0ZBPg3/tv-series/956"},{"id":954,"title":"Московская борзая","kp_id":"843668","imdb_id":"tt5031894","world_art_id":null,"type":"serial","add":"2017-01-27 06:09:03","orig_title":"Moskovskaya borzaya","year":"2015-07-01","translations":["Оригинальная дорожка"],"seasons_count":1,"episodes_count":20,"episodes":20,"update":"2017-01-30 14:38:06","iframe_src":"//83.svetacdn.in/PfJ50H0ZBPg3/tv-series/954"},{"id":953,"title":"Охотники за караванами","kp_id":"571268","imdb_id":"tt2969516","world_art_id":null,"type":"serial","add":"2017-01-26 08:24:17","orig_title":"Okhotniki za karavanami","year":"2010-12-19","translations":["Оригинальная дорожка"],"seasons_count":1,"episodes_count":4,"episodes":4,"update":"2017-01-27 12:35:35","iframe_src":"//83.svetacdn.in/PfJ50H0ZBPg3/tv-series/953"},{"id":952,"title":"Дед Мазаев и Зайцевы","kp_id":"947040","imdb_id":null,"world_art_id":null,"type":"serial","add":"2017-01-26 06:23:11","orig_title":"Дед Мазаев и Зайцевы","year":"2015-12-04","translations":["Оригинальная дорожка"],"seasons_count":1,"episodes_count":4,"episodes":4,"update":"2017-01-26 10:53:51","iframe_src":"//83.svetacdn.in/PfJ50H0ZBPg3/tv-series/952"},{"id":951,"title":"Хозяйка","kp_id":"957257","imdb_id":null,"world_art_id":null,"type":"serial","add":"2017-01-26 05:55:53","orig_title":"Хозяйка","year":"2016-02-01","translations":["Оригинальная дорожка"],"seasons_count":1,"episodes_count":24,"episodes":24,"update":"2017-01-30 07:42:44","iframe_src":"//83.svetacdn.in/PfJ50H0ZBPg3/tv-series/951"},{"id":950,"title":"Затмение","kp_id":"935908","imdb_id":null,"world_art_id":null,"type":"serial","add":"2017-01-26 05:52:34","orig_title":"Затмение","year":"2016-05-01","translations":["Оригинальная дорожка"],"seasons_count":1,"episodes_count":4,"episodes":4,"update":"2017-01-26 15:34:39","iframe_src":"//83.svetacdn.in/PfJ50H0ZBPg3/tv-series/950"},{"id":949,"title":"Дневник Луизы Ложкиной","kp_id":"947427","imdb_id":null,"world_art_id":null,"type":"serial","add":"2017-01-26 05:42:03","orig_title":"Дневник Луизы Ложкиной","year":"2016-03-05","translations":["Оригинальная дорожка"],"seasons_count":1,"episodes_count":20,"episodes":20,"update":"2017-01-26 16:02:54","iframe_src":"//83.svetacdn.in/PfJ50H0ZBPg3/tv-series/949"},{"id":948,"title":"Время дочерей","kp_id":"957351","imdb_id":null,"world_art_id":null,"type":"serial","add":"2017-01-26 05:37:26","orig_title":"Время дочерей","year":"2016-01-11","translations":["Оригинальная дорожка"],"seasons_count":1,"episodes_count":8,"episodes":8,"update":"2017-01-26 09:57:35","iframe_src":"//83.svetacdn.in/PfJ50H0ZBPg3/tv-series/948"},{"id":947,"title":"Скалолазка","kp_id":"957463","imdb_id":null,"world_art_id":null,"type":"serial","add":"2017-01-26 05:33:19","orig_title":"Скалолазка","year":"2015-12-18","translations":["Оригинальная дорожка"],"seasons_count":1,"episodes_count":8,"episodes":8,"update":"2017-01-26 09:41:54","iframe_src":"//83.svetacdn.in/PfJ50H0ZBPg3/tv-series/947"},{"id":942,"title":"Спросите у осени","kp_id":"957889","imdb_id":null,"world_art_id":null,"type":"serial","add":"2017-01-25 06:39:40","orig_title":"Спросите у осени","year":"2015-02-16","translations":["Оригинальная дорожка"],"seasons_count":1,"episodes_count":60,"episodes":60,"update":"2017-01-26 06:03:30","iframe_src":"//83.svetacdn.in/PfJ50H0ZBPg3/tv-series/942"},{"id":941,"title":"Морские дьяволы. Смерч 3","kp_id":"924359","imdb_id":null,"world_art_id":null,"type":"serial","add":"2017-01-25 05:56:59","orig_title":"Морские дьяволы. Смерч 3","year":"2016-03-14","translations":["Оригинальная дорожка"],"seasons_count":1,"episodes_count":32,"episodes":32,"update":"2017-01-25 14:36:33","iframe_src":"//83.svetacdn.in/PfJ50H0ZBPg3/tv-series/941"},{"id":940,"title":"Сережка Казановы","kp_id":"968482","imdb_id":null,"world_art_id":null,"type":"serial","add":"2017-01-25 05:51:27","orig_title":"Сережка Казановы","year":"2016-03-26","translations":["Оригинальная дорожка"],"seasons_count":1,"episodes_count":4,"episodes":4,"update":"2017-01-25 20:01:32","iframe_src":"//83.svetacdn.in/PfJ50H0ZBPg3/tv-series/940"},{"id":939,"title":"Ненавижу","kp_id":"971164","imdb_id":null,"world_art_id":null,"type":"serial","add":"2017-01-25 04:50:29","orig_title":"Ненавижу","year":"2016-04-16","translations":["Оригинальная дорожка"],"seasons_count":1,"episodes_count":2,"episodes":2,"update":"2017-01-25 10:00:07","iframe_src":"//83.svetacdn.in/PfJ50H0ZBPg3/tv-series/939"},{"id":938,"title":"Вечный отпуск","kp_id":"948263","imdb_id":"tt5630640","world_art_id":null,"type":"serial","add":"2017-01-24 14:14:54","orig_title":"Eternal Vacation","year":"2016-03-21","translations":["Оригинальная дорожка"],"seasons_count":1,"episodes_count":24,"episodes":24,"update":"2017-01-27 12:41:11","iframe_src":"//83.svetacdn.in/PfJ50H0ZBPg3/tv-series/938"},{"id":936,"title":"Бедные люди","kp_id":"945388","imdb_id":"tt6258782","world_art_id":null,"type":"serial","add":"2017-01-24 14:02:18","orig_title":"Bednye Ludi","year":"2016-04-11","translations":["Оригинальная дорожка"],"seasons_count":1,"episodes_count":17,"episodes":17,"update":"2017-01-26 09:26:22","iframe_src":"//83.svetacdn.in/PfJ50H0ZBPg3/tv-series/936"},{"id":935,"title":"По секрету всему свету","kp_id":"910095","imdb_id":null,"world_art_id":null,"type":"serial","add":"2017-01-24 13:16:41","orig_title":"По секрету всему свету","year":"2015-05-30","translations":["Оригинальная дорожка"],"seasons_count":1,"episodes_count":1,"episodes":1,"update":"2017-01-26 08:21:43","iframe_src":"//83.svetacdn.in/PfJ50H0ZBPg3/tv-series/935"},{"id":865,"title":"Гражданский брак","kp_id":"947462","imdb_id":null,"world_art_id":null,"type":"serial","add":"2017-01-11 10:05:48","orig_title":"Гражданский брак","year":"2017-01-09","translations":["Оригинальная дорожка"],"seasons_count":1,"episodes_count":15,"episodes":15,"update":"2017-01-27 12:12:00","iframe_src":"//83.svetacdn.in/PfJ50H0ZBPg3/tv-series/865"},{"id":725,"title":"Настоящий гений","kp_id":"968185","imdb_id":"tt5500906","world_art_id":null,"type":"serial","add":"2016-12-22 19:52:00","orig_title":"Pure Genius","year":"2016-10-27","translations":["Профессиональный (многоголосый закадровый) (IdeaFilm)"],"seasons_count":1,"episodes_count":13,"episodes":13,"update":"2017-02-01 05:48:24","iframe_src":"//83.svetacdn.in/PfJ50H0ZBPg3/tv-series/725"},{"id":6196,"title":"Синоптик","kp_id":"77538","imdb_id":"tt0384680","world_art_id":null,"type":"movie","add":"2016-10-12 05:41:31","orig_title":"The Weather Man","year":"2005-10-20","translations":["Профессиональный (многоголосый закадровый)","Авторский (одноголосый закадровый) (Гранкин Евгений)","[EN] Original (English)","Профессиональный (многоголосый закадровый) (5-й канал СПб)"],"quality":"webdl","translation":"Профессиональный (многоголосый закадровый)","update":"2021-06-08 10:45:28","iframe_src":"//83.svetacdn.in/PfJ50H0ZBPg3/movie/6196"},{"id":198,"title":"Салем","kp_id":"807630","imdb_id":"tt2963254","world_art_id":null,"type":"serial","add":"2016-06-16 14:28:33","orig_title":"Salem","year":"2014-04-20","translations":["Профессиональный (многоголосый закадровый) (LostFilm)","Профессиональный (многоголосый закадровый) (NewStudio)"],"seasons_count":3,"episodes_count":36,"episodes":10,"update":"2017-01-30 06:20:55","iframe_src":"//83.svetacdn.in/PfJ50H0ZBPg3/tv-series/198"},{"id":2575,"title":"Сила веры","kp_id":"6371","imdb_id":"tt0104695","world_art_id":null,"type":"movie","add":"2016-05-25 13:48:36","orig_title":"Leap of Faith","year":"1992-12-17","translations":["Профессиональный (многоголосый закадровый)","Профессиональный (двухголосый закадровый) (Премьер Видео Фильм)","Авторский (одноголосый закадровый) (Михалёв Алексей)","Авторский (одноголосый закадровый) (Володарский Леонид)","[EN] Original (English)","Профессиональный (двухголосый закадровый) (НТВ)"],"quality":"webdl","translation":"Профессиональный (многоголосый закадровый)","update":"2021-06-08 10:33:46","iframe_src":"//83.svetacdn.in/PfJ50H0ZBPg3/movie/2575"},{"id":25,"title":"Полицейский с Рублёвки","kp_id":"913033","imdb_id":null,"world_art_id":null,"type":"serial","add":"2016-03-23 13:17:39","orig_title":"Полицейский с Рублёвки","year":"2016-03-21","translations":["Оригинальная дорожка"],"seasons_count":1,"episodes_count":8,"episodes":8,"update":"2017-01-25 10:19:31","iframe_src":"//83.svetacdn.in/PfJ50H0ZBPg3/tv-series/25"}],"current_page":594,"first_page_url":"https://videocdn.tv/api/short?limit=100&api_token=RgFQdUIR2dRmwv8iYa5SnFNgnw3vpjKj&cache3594=3594&page=1","from":59301,"last_page":719,"last_page_url":"https://videocdn.tv/api/short?limit=100&api_token=RgFQdUIR2dRmwv8iYa5SnFNgnw3vpjKj&cache3594=3594&page=719","next_page_url":"https://videocdn.tv/api/short?limit=100&api_token=RgFQdUIR2dRmwv8iYa5SnFNgnw3vpjKj&cache3594=3594&page=595","path":"https://videocdn.tv/api/short","per_page":100,"prev_page_url":"https://videocdn.tv/api/short?limit=100&api_token=RgFQdUIR2dRmwv8iYa5SnFNgnw3vpjKj&cache3594=3594&page=593","to":59340,"total":71846}