{"result":true,"data":[{"id":18507,"title":"Исчезновение Кристал Роджерс","kp_id":null,"imdb_id":"tt8263746","world_art_id":null,"type":"movie","add":"2018-08-24 00:35:41","orig_title":"The Disappearance of Crystal Rogers","year":"2018-08-11","translations":["Любительский (многоголосый закадровый) (Синема УС)"],"quality":"hdtv","translation":"Любительский (многоголосый закадровый) (Синема УС)","update":"2018-08-24 10:26:37","iframe_src":"//8332.svetacdn.in/si4jsFRrtgrT/movie/18507"},{"id":18506,"title":"Поимка","kp_id":"992739","imdb_id":"tt5864904","world_art_id":null,"type":"movie","add":"2018-08-24 00:33:35","orig_title":"The Capture","year":"2017-11-16","translations":["Любительский (многоголосый закадровый) (Синема УС)"],"quality":"webdl","translation":"Любительский (многоголосый закадровый) (Синема УС)","update":"2018-08-24 10:28:42","iframe_src":"//8332.svetacdn.in/si4jsFRrtgrT/movie/18506"},{"id":18505,"title":"День освобождения","kp_id":"1044736","imdb_id":"tt5847760","world_art_id":null,"type":"movie","add":"2018-08-24 00:31:20","orig_title":"Liberation Day","year":"2016-11-19","translations":["Любительский (многоголосый закадровый) (Синема УС)"],"quality":"webdl","translation":"Любительский (многоголосый закадровый) (Синема УС)","update":"2018-08-24 10:30:40","iframe_src":"//8332.svetacdn.in/si4jsFRrtgrT/movie/18505"},{"id":18504,"title":"Опорная точка","kp_id":"1037298","imdb_id":"tt6488870","world_art_id":null,"type":"movie","add":"2018-08-24 00:28:40","orig_title":"Kääntöpiste","year":"2018-03-02","translations":["Любительский (многоголосый закадровый) (Синема УС)"],"quality":"dvdrip","translation":"Любительский (многоголосый закадровый) (Синема УС)","update":"2018-08-24 10:32:53","iframe_src":"//8332.svetacdn.in/si4jsFRrtgrT/movie/18504"},{"id":18503,"title":"Дэвид","kp_id":null,"imdb_id":"tt8717974","world_art_id":null,"type":"movie","add":"2018-08-24 00:27:00","orig_title":"David Movie","year":"2018-08-08","translations":["Любительский (многоголосый закадровый) (Синема УС)"],"quality":"webdl","translation":"Любительский (многоголосый закадровый) (Синема УС)","update":"2018-08-24 10:37:39","iframe_src":"//8332.svetacdn.in/si4jsFRrtgrT/movie/18503"},{"id":18501,"title":"Против ночи","kp_id":"1048902","imdb_id":"tt7138894","world_art_id":null,"type":"movie","add":"2018-08-24 00:22:08","orig_title":"Against the Night","year":"2017-09-15","translations":["Любительский (многоголосый закадровый) (Синема УС)"],"quality":"webdl","translation":"Любительский (многоголосый закадровый) (Синема УС)","update":"2018-08-24 08:02:46","iframe_src":"//8332.svetacdn.in/si4jsFRrtgrT/movie/18501"},{"id":18500,"title":"Незабываемое лето","kp_id":"1158523","imdb_id":"tt8312392","world_art_id":null,"type":"movie","add":"2018-08-24 00:20:27","orig_title":"A Summer to Remember","year":"2018-08-01","translations":["Любительский (многоголосый закадровый) (Синема УС)"],"quality":"hdtv","translation":"Любительский (многоголосый закадровый) (Синема УС)","update":"2018-08-24 08:01:20","iframe_src":"//8332.svetacdn.in/si4jsFRrtgrT/movie/18500"},{"id":18499,"title":"Мёртвая любовь","kp_id":"910380","imdb_id":"tt4459806","world_art_id":null,"type":"movie","add":"2018-08-24 00:18:50","orig_title":"A Song for the Living","year":"2018-08-22","translations":["Любительский (многоголосый закадровый) (Синема УС)"],"quality":"webdl","translation":"Любительский (многоголосый закадровый) (Синема УС)","update":"2018-08-24 07:58:22","iframe_src":"//8332.svetacdn.in/si4jsFRrtgrT/movie/18499"},{"id":18498,"title":"Выше любви","kp_id":"1059780","imdb_id":"tt6721174","world_art_id":null,"type":"movie","add":"2018-08-23 19:41:41","orig_title":"OverLove","year":"2017-04-01","translations":["Любительский (многоголосый закадровый) (GreenРай Studio)"],"quality":"webdl","translation":"Любительский (многоголосый закадровый) (GreenРай Studio)","update":"2018-08-24 05:01:03","iframe_src":"//8332.svetacdn.in/si4jsFRrtgrT/movie/18498"},{"id":18495,"title":"Дорога святого Валентина","kp_id":"726439","imdb_id":"tt2577990","world_art_id":null,"type":"movie","add":"2018-08-22 23:57:40","orig_title":"Valentine Road","year":"2013-01-19","translations":["Любительский (многоголосый закадровый) (Синема УС)"],"quality":"webdl","translation":"Любительский (многоголосый закадровый) (Синема УС)","update":"2018-08-23 07:46:09","iframe_src":"//8332.svetacdn.in/si4jsFRrtgrT/movie/18495"},{"id":18494,"title":"Слишком смешные, чтобы провалиться Жизнь и смерть шоу Дана Карви","kp_id":null,"imdb_id":"tt7544820","world_art_id":null,"type":"movie","add":"2018-08-22 23:55:57","orig_title":"Too Funny to Fail: The Life & Death of The Dana Carvey Show","year":"2017-10-21","translations":["Любительский (многоголосый закадровый) (Синема УС)"],"quality":"webdl","translation":"Любительский (многоголосый закадровый) (Синема УС)","update":"2018-08-23 07:47:44","iframe_src":"//8332.svetacdn.in/si4jsFRrtgrT/movie/18494"},{"id":18493,"title":"Клуб сталкеров","kp_id":"1035091","imdb_id":"tt6337910","world_art_id":null,"type":"movie","add":"2018-08-22 23:51:40","orig_title":"The Stalker Club","year":"2017-04-15","translations":["Любительский (многоголосый закадровый) (Синема УС)"],"quality":"webdl","translation":"Любительский (многоголосый закадровый) (Синема УС)","update":"2018-08-23 07:48:29","iframe_src":"//8332.svetacdn.in/si4jsFRrtgrT/movie/18493"},{"id":18438,"title":"Население 436","kp_id":"160454","imdb_id":"tt0462482","world_art_id":null,"type":"movie","add":"2018-08-20 11:57:58","orig_title":"Population 436","year":"2006-03-13","translations":["Профессиональный (многоголосый закадровый)"],"quality":"webdl","translation":"Профессиональный (многоголосый закадровый)","update":"2018-08-23 06:20:07","iframe_src":"//8332.svetacdn.in/si4jsFRrtgrT/movie/18438"},{"id":18437,"title":"Мир, любовь и недопонимание","kp_id":"518073","imdb_id":"tt1649780","world_art_id":null,"type":"movie","add":"2018-08-20 11:56:38","orig_title":"Peace, Love & Misunderstanding","year":"2011-09-13","translations":["Профессиональный (многоголосый закадровый) (Кинопоказ)"],"quality":"bd","translation":"Профессиональный (многоголосый закадровый) (Кинопоказ)","update":"2018-08-23 06:18:24","iframe_src":"//8332.svetacdn.in/si4jsFRrtgrT/movie/18437"},{"id":18436,"title":"Колобанга. Привет, Интернет!","kp_id":"1045642","imdb_id":null,"world_art_id":null,"type":"movie","add":"2018-08-20 11:55:31","orig_title":"Колобанга. Привет, Интернет!","year":"2017-11-30","translations":["Оригинальная дорожка"],"quality":"webdl","translation":"Оригинальная дорожка","update":"2018-08-23 06:16:46","iframe_src":"//8332.svetacdn.in/si4jsFRrtgrT/movie/18436"},{"id":18435,"title":"Ежик в тумане","kp_id":"42461","imdb_id":"tt0073099","world_art_id":null,"type":"movie","add":"2018-08-20 11:52:45","orig_title":"Yozhik v tumane","year":"1975-10-23","translations":["Оригинальная дорожка"],"quality":"bd","translation":"Оригинальная дорожка","update":"2018-08-23 06:15:19","iframe_src":"//8332.svetacdn.in/si4jsFRrtgrT/movie/18435"},{"id":18434,"title":"Цапля и журавль","kp_id":"224058","imdb_id":"tt0071608","world_art_id":null,"type":"movie","add":"2018-08-20 11:51:28","orig_title":"Tsaplya i zhuravl","year":"1975-01-01","translations":["Оригинальная дорожка"],"quality":"bd","translation":"Оригинальная дорожка","update":"2018-08-23 06:14:01","iframe_src":"//8332.svetacdn.in/si4jsFRrtgrT/movie/18434"},{"id":18433,"title":"Сказка сказок","kp_id":"43816","imdb_id":"tt0079986","world_art_id":null,"type":"movie","add":"2018-08-20 11:50:24","orig_title":"Skazka skazok","year":"1984-04-14","translations":["Оригинальная дорожка"],"quality":"bd","translation":"Оригинальная дорожка","update":"2018-08-23 06:12:40","iframe_src":"//8332.svetacdn.in/si4jsFRrtgrT/movie/18433"},{"id":17121,"title":"Алекс Стрейнджлав","kp_id":"1057485","imdb_id":"tt5688996","world_art_id":null,"type":"movie","add":"2018-06-10 19:45:57","orig_title":"Alex Strangelove","year":"2018-04-16","translations":["Любительский (многоголосый закадровый) (Синема УС)","Профессиональный (многоголосый закадровый) (GreenРай Studio)","Профессиональный (многоголосый закадровый) (Jaskier)"],"quality":"webdl","translation":"Любительский (многоголосый закадровый) (Синема УС)","update":"2018-08-24 08:00:01","iframe_src":"//8332.svetacdn.in/si4jsFRrtgrT/movie/17121"},{"id":14983,"title":"Божья земля","kp_id":"973480","imdb_id":"tt5635086","world_art_id":null,"type":"movie","add":"2018-01-29 05:17:26","orig_title":"God's Own Country","year":"2017-01-23","translations":["Любительский (многоголосый закадровый) (Синема УС)","Профессиональный (многоголосый закадровый) (GreenРай Studio)"],"quality":"bd","translation":"Любительский (многоголосый закадровый) (Синема УС)","update":"2018-08-24 05:03:09","iframe_src":"//8332.svetacdn.in/si4jsFRrtgrT/movie/14983"}],"current_page":1827,"first_page_url":"https://videocdn.tv/api/short?limit=100&api_token=X6EwAUfE5M9xbo7y0Bp0aPf3uXxG2KLL&cache31827=31827&page=1","from":182601,"last_page":637,"last_page_url":"https://videocdn.tv/api/short?limit=100&api_token=X6EwAUfE5M9xbo7y0Bp0aPf3uXxG2KLL&cache31827=31827&page=637","next_page_url":null,"path":"https://videocdn.tv/api/short","per_page":100,"prev_page_url":"https://videocdn.tv/api/short?limit=100&api_token=X6EwAUfE5M9xbo7y0Bp0aPf3uXxG2KLL&cache31827=31827&page=1826","to":182620,"total":63673}