{"result":true,"data":[{"id":9172,"title":"Канал","kp_id":"724577","imdb_id":"tt2581480","world_art_id":null,"type":"movie","add":"2017-01-25 05:46:53","orig_title":"The Channel","year":"2016-03-18","translations":["Любительский (многоголосый закадровый) (Parovoz Production)"],"quality":"webdl","translation":"Любительский (многоголосый закадровый) (Parovoz Production)","update":"2017-01-25 09:35:42","iframe_src":"//8543.svetacdn.in/71tsRs29n5tZ/movie/9172"},{"id":9167,"title":"Хардлайн","kp_id":"941977","imdb_id":"tt4899510","world_art_id":null,"type":"movie","add":"2017-01-25 04:47:12","orig_title":"Dead Rush","year":"2016-03-31","translations":["Любительский (двухголосый закадровый)"],"quality":"webdl","translation":"Любительский (двухголосый закадровый)","update":"2017-01-25 05:23:28","iframe_src":"//8543.svetacdn.in/71tsRs29n5tZ/movie/9167"},{"id":9165,"title":"Вкус чудес","kp_id":"854839","imdb_id":"tt4084056","world_art_id":null,"type":"movie","add":"2017-01-24 13:59:11","orig_title":"Le goût des merveilles","year":"2015-11-08","translations":["Профессиональный (многоголосый закадровый)"],"quality":"bd","translation":"Профессиональный (многоголосый закадровый)","update":"2017-01-25 05:18:28","iframe_src":"//8543.svetacdn.in/71tsRs29n5tZ/movie/9165"},{"id":9164,"title":"Мишки Буни: Тайна цирка","kp_id":"962383","imdb_id":"tt5471154","world_art_id":null,"type":"movie","add":"2017-01-24 13:32:46","orig_title":"Boonie Bears III","year":"2016-01-16","translations":["Полное дублирование (iTunes)"],"quality":"webdl","translation":"Полное дублирование (iTunes)","update":"2017-01-25 05:20:16","iframe_src":"//8543.svetacdn.in/71tsRs29n5tZ/movie/9164"},{"id":9143,"title":"Сердце-обличитель","kp_id":"636104","imdb_id":"tt2087989","world_art_id":null,"type":"movie","add":"2017-01-24 10:44:46","orig_title":"The Tell-Tale Heart","year":"2016-04-05","translations":["Любительский (одноголосый закадровый) (Хихикающий доктор)"],"quality":"dvdrip","translation":"Любительский (одноголосый закадровый) (Хихикающий доктор)","update":"2017-01-24 13:47:55","iframe_src":"//8543.svetacdn.in/71tsRs29n5tZ/movie/9143"},{"id":9091,"title":"Китайская одиссея: часть 3","kp_id":"995492","imdb_id":"tt4862468","world_art_id":null,"type":"movie","add":"2017-01-22 12:04:03","orig_title":"A Chinese Odyssey: Part Three","year":"2016-09-15","translations":["Любительский (одноголосый закадровый)"],"quality":"bd","translation":"Любительский (одноголосый закадровый)","update":"2017-01-24 12:42:12","iframe_src":"//8543.svetacdn.in/71tsRs29n5tZ/movie/9091"},{"id":9090,"title":"Китайская одиссея 2: Золушка","kp_id":"47976","imdb_id":"tt0114996","world_art_id":null,"type":"movie","add":"2017-01-22 12:02:56","orig_title":"Sai yau gei: Sin leui kei yun","year":"1995-02-04","translations":["Любительский (одноголосый закадровый)"],"quality":"bd","translation":"Любительский (одноголосый закадровый)","update":"2017-01-24 12:44:21","iframe_src":"//8543.svetacdn.in/71tsRs29n5tZ/movie/9090"},{"id":9089,"title":"Китайская одиссея: Ящик Пандоры","kp_id":"51334","imdb_id":"tt0112778","world_art_id":null,"type":"movie","add":"2017-01-22 12:01:43","orig_title":"Sai yau gei: Yut gwong bou haap","year":"1995-01-21","translations":["Любительский (одноголосый закадровый)"],"quality":"bd","translation":"Любительский (одноголосый закадровый)","update":"2017-01-24 12:46:08","iframe_src":"//8543.svetacdn.in/71tsRs29n5tZ/movie/9089"},{"id":9077,"title":"Акулий торнадо 2","kp_id":"782738","imdb_id":"tt3062074","world_art_id":null,"type":"movie","add":"2017-01-21 14:26:06","orig_title":"Sharknado 2: The Second One","year":"2014-07-30","translations":["Профессиональный (многоголосый закадровый)"],"quality":"hdtv","translation":"Профессиональный (многоголосый закадровый)","update":"2017-01-24 12:54:29","iframe_src":"//8543.svetacdn.in/71tsRs29n5tZ/movie/9077"},{"id":9075,"title":"Наваждение","kp_id":"885326","imdb_id":"tt4257858","world_art_id":null,"type":"movie","add":"2017-01-21 14:24:05","orig_title":"Going Clear: Scientology and the Prison of Belief","year":"2015-01-25","translations":["Профессиональный (многоголосый закадровый)"],"quality":"bd","translation":"Профессиональный (многоголосый закадровый)","update":"2017-01-25 07:06:30","iframe_src":"//8543.svetacdn.in/71tsRs29n5tZ/movie/9075"},{"id":9074,"title":"Свадьба Дженни","kp_id":"807303","imdb_id":"tt3289712","world_art_id":null,"type":"movie","add":"2017-01-21 14:22:27","orig_title":"Jenny's Wedding","year":"2015-07-10","translations":["Любительский (многоголосый закадровый) (GreenРай Studio)"],"quality":"webdl","translation":"Любительский (многоголосый закадровый) (GreenРай Studio)","update":"2017-01-25 07:05:37","iframe_src":"//8543.svetacdn.in/71tsRs29n5tZ/movie/9074"},{"id":9072,"title":"Класс убийц","kp_id":"855469","imdb_id":"tt3853452","world_art_id":null,"type":"movie","add":"2017-01-21 14:20:01","orig_title":"Ansatsu kyôshitsu","year":"2015-03-21","translations":["Любительский (многоголосый закадровый)"],"quality":"bd","translation":"Любительский (многоголосый закадровый)","update":"2017-01-25 07:03:12","iframe_src":"//8543.svetacdn.in/71tsRs29n5tZ/movie/9072"},{"id":9071,"title":"Озорники","kp_id":"808287","imdb_id":"tt3305844","world_art_id":null,"type":"movie","add":"2017-01-21 14:18:17","orig_title":"Hellions","year":"2015-01-25","translations":["Любительский (двухголосый закадровый)"],"quality":"webdl","translation":"Любительский (двухголосый закадровый)","update":"2017-01-25 07:02:02","iframe_src":"//8543.svetacdn.in/71tsRs29n5tZ/movie/9071"},{"id":9070,"title":"Северная пограничная линия","kp_id":"927314","imdb_id":"tt4696222","world_art_id":null,"type":"movie","add":"2017-01-21 14:17:01","orig_title":"Yeonpyeong haejeon","year":"2015-06-24","translations":["Любительский (двухголосый закадровый)"],"quality":"bd","translation":"Любительский (двухголосый закадровый)","update":"2017-01-25 06:56:18","iframe_src":"//8543.svetacdn.in/71tsRs29n5tZ/movie/9070"},{"id":9069,"title":"Игра Джокера","kp_id":"819400","imdb_id":"tt3446906","world_art_id":null,"type":"movie","add":"2017-01-21 14:15:48","orig_title":"Joker Game","year":"2015-01-31","translations":["Любительский (двухголосый закадровый)"],"quality":"bd","translation":"Любительский (двухголосый закадровый)","update":"2017-01-25 06:55:06","iframe_src":"//8543.svetacdn.in/71tsRs29n5tZ/movie/9069"},{"id":9064,"title":"Дом тигра","kp_id":"762716","imdb_id":"tt2911674","world_art_id":null,"type":"movie","add":"2017-01-21 14:09:56","orig_title":"Tiger House","year":"2015-07-24","translations":["Любительский (одноголосый закадровый)"],"quality":"bd","translation":"Любительский (одноголосый закадровый)","update":"2017-01-25 06:46:36","iframe_src":"//8543.svetacdn.in/71tsRs29n5tZ/movie/9064"},{"id":9063,"title":"Потерявшиеся во тьме","kp_id":"817239","imdb_id":"tt3397556","world_art_id":null,"type":"movie","add":"2017-01-21 13:59:40","orig_title":"Lost After Dark","year":"2015-08-21","translations":["Любительский (одноголосый закадровый)"],"quality":"bd","translation":"Любительский (одноголосый закадровый)","update":"2017-01-25 06:39:44","iframe_src":"//8543.svetacdn.in/71tsRs29n5tZ/movie/9063"},{"id":9062,"title":"Королевство обезьян","kp_id":"839112","imdb_id":"tt3660770","world_art_id":null,"type":"movie","add":"2017-01-21 13:58:14","orig_title":"Monkey Kingdom","year":"2015-03-24","translations":["Полное дублирование"],"quality":"bd","translation":"Полное дублирование","update":"2017-01-25 06:37:33","iframe_src":"//8543.svetacdn.in/71tsRs29n5tZ/movie/9062"},{"id":9061,"title":"Кокон","kp_id":"860095","imdb_id":"tt3541080","world_art_id":null,"type":"movie","add":"2017-01-21 13:56:35","orig_title":"Pod","year":"2015-03-16","translations":["Любительский (одноголосый закадровый) (Хихикающий доктор)"],"quality":"webdl","translation":"Любительский (одноголосый закадровый) (Хихикающий доктор)","update":"2017-01-25 06:35:20","iframe_src":"//8543.svetacdn.in/71tsRs29n5tZ/movie/9061"},{"id":5988,"title":"Резня на мельнице","kp_id":"793608","imdb_id":"tt2923088","world_art_id":null,"type":"movie","add":"2016-10-08 14:58:58","orig_title":"The Windmill Massacre","year":"2016-04-18","translations":["Любительский (одноголосый закадровый)","Любительский (одноголосый закадровый) (Хихикающий доктор)"],"quality":"webdl","translation":"Любительский (одноголосый закадровый)","update":"2017-01-24 18:33:05","iframe_src":"//8543.svetacdn.in/71tsRs29n5tZ/movie/5988"}],"current_page":2076,"first_page_url":"https://videocdn.tv/api/short?limit=100&api_token=EnbO9h8pv1VyjbCJhg0WM9nG259n7mtz&cache32076=32076&page=1","from":207501,"last_page":599,"last_page_url":"https://videocdn.tv/api/short?limit=100&api_token=EnbO9h8pv1VyjbCJhg0WM9nG259n7mtz&cache32076=32076&page=599","next_page_url":null,"path":"https://videocdn.tv/api/short","per_page":100,"prev_page_url":"https://videocdn.tv/api/short?limit=100&api_token=EnbO9h8pv1VyjbCJhg0WM9nG259n7mtz&cache32076=32076&page=2075","to":207520,"total":59868}