{"result":true,"data":[{"id":45324,"title":"Как котенку построили дом","kp_id":"258030","imdb_id":"tt2197272","world_art_id":null,"type":"movie","add":"2020-11-15 12:47:28","orig_title":"Kak kotyonku postroili dom","year":"1963-12-21","translations":["Оригинальная дорожка"],"quality":"dvdrip","translation":"Оригинальная дорожка","update":"2020-11-17 12:03:59","iframe_src":"//7043.svetacdn.in/71tsRs29n5tZ/movie/45324"},{"id":45323,"title":"Выкрутасы","kp_id":"45573","imdb_id":"tt0242336","world_art_id":null,"type":"movie","add":"2020-11-15 12:44:29","orig_title":"Vykrutasy","year":"1987-02-28","translations":["Оригинальная дорожка"],"quality":"dvdrip","translation":"Оригинальная дорожка","update":"2020-11-17 12:01:25","iframe_src":"//7043.svetacdn.in/71tsRs29n5tZ/movie/45323"},{"id":45322,"title":"Встречайте бабушку","kp_id":"474770","imdb_id":"tt6198026","world_art_id":null,"type":"movie","add":"2020-11-15 12:42:12","orig_title":"Vstrechayte babushku","year":"1984-03-18","translations":["Оригинальная дорожка"],"quality":"dvdrip","translation":"Оригинальная дорожка","update":"2020-11-17 12:00:11","iframe_src":"//7043.svetacdn.in/71tsRs29n5tZ/movie/45322"},{"id":45321,"title":"Вася Буслик и его друзья","kp_id":"1018107","imdb_id":"tt6344878","world_art_id":null,"type":"movie","add":"2020-11-15 12:38:49","orig_title":"Vasya Buslik i ego druzya","year":"1973-01-01","translations":["Оригинальная дорожка"],"quality":"dvdrip","translation":"Оригинальная дорожка","update":"2020-11-17 11:44:33","iframe_src":"//7043.svetacdn.in/71tsRs29n5tZ/movie/45321"},{"id":45320,"title":"Ба-буш-ка!","kp_id":"586669","imdb_id":null,"world_art_id":null,"type":"movie","add":"2020-11-15 12:34:42","orig_title":"Ба-буш-ка!","year":"1982-01-01","translations":["Оригинальная дорожка"],"quality":"dvdrip","translation":"Оригинальная дорожка","update":"2020-11-17 11:43:52","iframe_src":"//7043.svetacdn.in/71tsRs29n5tZ/movie/45320"},{"id":45319,"title":"Авиаторы","kp_id":"629749","imdb_id":"tt2329960","world_art_id":null,"type":"movie","add":"2020-11-15 12:28:48","orig_title":"Aviatory","year":"1990-01-01","translations":["Оригинальная дорожка"],"quality":"dvdrip","translation":"Оригинальная дорожка","update":"2020-11-17 11:43:12","iframe_src":"//7043.svetacdn.in/71tsRs29n5tZ/movie/45319"},{"id":45318,"title":"Змей на чердаке","kp_id":"259950","imdb_id":"tt5911610","world_art_id":null,"type":"movie","add":"2020-11-15 12:26:32","orig_title":"Zmey na cherdake","year":"1983-03-07","translations":["Оригинальная дорожка"],"quality":"dvdrip","translation":"Оригинальная дорожка","update":"2020-11-17 11:42:06","iframe_src":"//7043.svetacdn.in/71tsRs29n5tZ/movie/45318"},{"id":45317,"title":"Жильцы старого дома","kp_id":"278647","imdb_id":"tt0475620","world_art_id":null,"type":"movie","add":"2020-11-15 11:55:42","orig_title":"Zhiltsy starogo doma","year":"1987-01-01","translations":["Оригинальная дорожка"],"quality":"dvdrip","translation":"Оригинальная дорожка","update":"2020-11-17 11:41:17","iframe_src":"//7043.svetacdn.in/71tsRs29n5tZ/movie/45317"},{"id":45316,"title":"Жадный Кузя","kp_id":"580746","imdb_id":"tt5879848","world_art_id":null,"type":"movie","add":"2020-11-15 11:53:48","orig_title":"Zhadnyy Kuzya","year":"1969-01-01","translations":["Оригинальная дорожка"],"quality":"dvdrip","translation":"Оригинальная дорожка","update":"2020-11-17 11:40:28","iframe_src":"//7043.svetacdn.in/71tsRs29n5tZ/movie/45316"},{"id":45315,"title":"Веселый огород","kp_id":"260120","imdb_id":"tt6162498","world_art_id":null,"type":"movie","add":"2020-11-15 11:50:44","orig_title":"Vesyoliy ogorod","year":"1947-06-16","translations":["Оригинальная дорожка"],"quality":"dvdrip","translation":"Оригинальная дорожка","update":"2020-11-17 11:39:15","iframe_src":"//7043.svetacdn.in/71tsRs29n5tZ/movie/45315"},{"id":45314,"title":"Трудолюбивая старушка","kp_id":"485387","imdb_id":null,"world_art_id":null,"type":"movie","add":"2020-11-15 11:47:59","orig_title":"Трудолюбивая старушка","year":"1986-01-01","translations":["Оригинальная дорожка"],"quality":"dvdrip","translation":"Оригинальная дорожка","update":"2020-11-17 11:37:54","iframe_src":"//7043.svetacdn.in/71tsRs29n5tZ/movie/45314"},{"id":45313,"title":"Солдатская сказка","kp_id":"532877","imdb_id":"tt6052580","world_art_id":null,"type":"movie","add":"2020-11-15 11:43:29","orig_title":"Soldatskaya skazka","year":"1983-01-01","translations":["Оригинальная дорожка"],"quality":"dvdrip","translation":"Оригинальная дорожка","update":"2020-11-17 11:36:52","iframe_src":"//7043.svetacdn.in/71tsRs29n5tZ/movie/45313"},{"id":45312,"title":"Солдатская сказка","kp_id":"489286","imdb_id":"tt9168202","world_art_id":null,"type":"movie","add":"2020-11-15 11:41:08","orig_title":"Soldatskaya skazka","year":"1980-01-01","translations":["Оригинальная дорожка"],"quality":"dvdrip","translation":"Оригинальная дорожка","update":"2020-11-17 11:35:41","iframe_src":"//7043.svetacdn.in/71tsRs29n5tZ/movie/45312"},{"id":45311,"title":"Сердце храбреца","kp_id":"255161","imdb_id":"tt6970136","world_art_id":null,"type":"movie","add":"2020-11-15 11:38:34","orig_title":"Serdtse khrabretsa","year":"1951-07-16","translations":["Оригинальная дорожка"],"quality":"dvdrip","translation":"Оригинальная дорожка","update":"2020-11-17 11:34:38","iframe_src":"//7043.svetacdn.in/71tsRs29n5tZ/movie/45311"},{"id":45310,"title":"Петя-петушок","kp_id":"818470","imdb_id":"tt7972506","world_art_id":null,"type":"movie","add":"2020-11-15 11:35:52","orig_title":"Petya-petushok","year":"1960-01-01","translations":["Оригинальная дорожка"],"quality":"dvdrip","translation":"Оригинальная дорожка","update":"2020-11-17 11:33:33","iframe_src":"//7043.svetacdn.in/71tsRs29n5tZ/movie/45310"},{"id":45309,"title":"Муми-тролль и другие","kp_id":"104386","imdb_id":"tt0407023","world_art_id":null,"type":"movie","add":"2020-11-15 11:28:09","orig_title":"Mumi-troll i drugie","year":"1978-12-02","translations":["Оригинальная дорожка"],"quality":"dvdrip","translation":"Оригинальная дорожка","update":"2020-11-17 11:32:29","iframe_src":"//7043.svetacdn.in/71tsRs29n5tZ/movie/45309"},{"id":45308,"title":"Лебеди Непрядвы","kp_id":"433758","imdb_id":"tt2328663","world_art_id":null,"type":"movie","add":"2020-11-15 11:25:28","orig_title":"Lebedi Nepryadvy","year":"1980-03-24","translations":["Оригинальная дорожка"],"quality":"dvdrip","translation":"Оригинальная дорожка","update":"2020-11-17 11:31:51","iframe_src":"//7043.svetacdn.in/71tsRs29n5tZ/movie/45308"},{"id":45307,"title":"Квакша","kp_id":"660955","imdb_id":"tt9269444","world_art_id":null,"type":"movie","add":"2020-11-15 11:22:25","orig_title":"Kvaksha","year":"1979-01-01","translations":["Оригинальная дорожка"],"quality":"dvdrip","translation":"Оригинальная дорожка","update":"2020-11-17 11:31:17","iframe_src":"//7043.svetacdn.in/71tsRs29n5tZ/movie/45307"},{"id":45306,"title":"Крашеный лис","kp_id":"258007","imdb_id":"tt6114970","world_art_id":null,"type":"movie","add":"2020-11-15 11:19:44","orig_title":"Krasheniy lis","year":"1953-01-01","translations":["Оригинальная дорожка"],"quality":"dvdrip","translation":"Оригинальная дорожка","update":"2020-11-17 11:30:11","iframe_src":"//7043.svetacdn.in/71tsRs29n5tZ/movie/45306"},{"id":45294,"title":"Растрёпанный воробей","kp_id":"460621","imdb_id":"tt6409426","world_art_id":null,"type":"movie","add":"2020-11-13 22:05:37","orig_title":"Rastryopannyy vorobey","year":"1967-01-01","translations":["Оригинальная дорожка"],"quality":"dvdrip","translation":"Оригинальная дорожка","update":"2020-11-17 11:28:42","iframe_src":"//7043.svetacdn.in/71tsRs29n5tZ/movie/45294"},{"id":5165,"title":"Этим летом и навсегда","kp_id":"1296648","imdb_id":null,"world_art_id":null,"type":"serial","add":"2019-09-09 04:02:55","orig_title":"Этим летом и навсегда","year":"2019-09-07","translations":["Оригинальная дорожка"],"seasons_count":1,"episodes_count":2,"episodes":2,"update":"2019-09-09 15:09:10","iframe_src":"//7043.svetacdn.in/71tsRs29n5tZ/tv-series/5165"},{"id":5162,"title":"Женщины в любви","kp_id":"325756","imdb_id":"tt0358326","world_art_id":null,"type":"serial","add":"2019-09-07 18:24:09","orig_title":"Mulheres Apaixonadas","year":"2003-02-17","translations":["Профессиональный (многоголосый закадровый)"],"seasons_count":1,"episodes_count":170,"episodes":170,"update":"2019-09-08 13:03:35","iframe_src":"//7043.svetacdn.in/71tsRs29n5tZ/tv-series/5162"},{"id":5155,"title":"Великий маэстро","kp_id":"26974","imdb_id":"tt0165806","world_art_id":null,"type":"serial","add":"2019-09-06 15:15:57","orig_title":"Il grande maestro","year":"1967-01-01","translations":["Любительский (одноголосый закадровый)"],"seasons_count":1,"episodes_count":3,"episodes":3,"update":"2019-09-06 21:47:28","iframe_src":"//7043.svetacdn.in/71tsRs29n5tZ/tv-series/5155"},{"id":5151,"title":"Совершенно бесподобная","kp_id":"945345","imdb_id":null,"world_art_id":null,"type":"serial","add":"2019-09-06 06:27:09","orig_title":"Totalmente Demais","year":"2015-11-09","translations":["Профессиональный (многоголосый закадровый) (СТС)"],"seasons_count":1,"episodes_count":130,"episodes":130,"update":"2019-09-09 12:27:39","iframe_src":"//7043.svetacdn.in/71tsRs29n5tZ/tv-series/5151"},{"id":5150,"title":"Женский доктор-3","kp_id":"1045770","imdb_id":"tt6682410","world_art_id":null,"type":"serial","add":"2019-09-05 20:11:26","orig_title":"Zhenskiy doktor 3","year":"2017-01-01","translations":["Оригинальная дорожка"],"seasons_count":1,"episodes_count":40,"episodes":40,"update":"2019-09-08 20:45:55","iframe_src":"//7043.svetacdn.in/71tsRs29n5tZ/tv-series/5150"},{"id":5149,"title":"Во имя любви","kp_id":"325750","imdb_id":null,"world_art_id":null,"type":"serial","add":"2019-09-05 20:02:37","orig_title":"Por Amor","year":"1997-10-01","translations":["Профессиональный (многоголосый закадровый)"],"seasons_count":1,"episodes_count":130,"episodes":130,"update":"2019-09-08 20:19:07","iframe_src":"//7043.svetacdn.in/71tsRs29n5tZ/tv-series/5149"},{"id":5148,"title":"Нежный яд","kp_id":"422960","imdb_id":"tt0185823","world_art_id":null,"type":"serial","add":"2019-09-05 10:08:23","orig_title":"Suave Veneno","year":"1999-01-01","translations":["Профессиональный (многоголосый закадровый)"],"seasons_count":1,"episodes_count":135,"episodes":135,"update":"2019-09-06 08:29:52","iframe_src":"//7043.svetacdn.in/71tsRs29n5tZ/tv-series/5148"},{"id":5147,"title":"Принцесса и нищий","kp_id":"161016","imdb_id":"tt0417357","world_art_id":null,"type":"serial","add":"2019-09-05 09:44:16","orig_title":"Printsessa i nishchiy","year":"2004-12-01","translations":["Оригинальная дорожка"],"seasons_count":1,"episodes_count":8,"episodes":8,"update":"2019-09-09 12:17:41","iframe_src":"//7043.svetacdn.in/71tsRs29n5tZ/tv-series/5147"},{"id":5146,"title":"Игра без правил","kp_id":"427890","imdb_id":null,"world_art_id":null,"type":"serial","add":"2019-09-05 09:42:01","orig_title":"Игра без правил","year":"2004-01-01","translations":["Оригинальная дорожка"],"seasons_count":1,"episodes_count":4,"episodes":4,"update":"2019-09-09 12:12:08","iframe_src":"//7043.svetacdn.in/71tsRs29n5tZ/tv-series/5146"},{"id":5140,"title":"Женский доктор 2","kp_id":"760500","imdb_id":"tt3857134","world_art_id":null,"type":"serial","add":"2019-09-04 11:51:17","orig_title":"Zhenskiy doktor 2","year":"2013-01-01","translations":["Оригинальная дорожка"],"seasons_count":1,"episodes_count":60,"episodes":60,"update":"2019-09-08 13:19:01","iframe_src":"//7043.svetacdn.in/71tsRs29n5tZ/tv-series/5140"},{"id":5130,"title":"Семейные узы","kp_id":"256148","imdb_id":"tt0249299","world_art_id":null,"type":"serial","add":"2019-09-03 05:56:53","orig_title":"Laços de Família","year":"2000-06-05","translations":["Профессиональный (многоголосый закадровый) (Первый канал | ОРТ)"],"seasons_count":1,"episodes_count":150,"episodes":150,"update":"2019-09-05 09:01:11","iframe_src":"//7043.svetacdn.in/71tsRs29n5tZ/tv-series/5130"},{"id":5122,"title":"Девочка по имени Джо","kp_id":"1153671","imdb_id":"tt8447746","world_art_id":null,"type":"serial","add":"2019-09-02 05:19:35","orig_title":"A Girl Named Jo","year":"2018-07-03","translations":["Любительский (двухголосый закадровый) (GoldTeam)"],"seasons_count":1,"episodes_count":8,"episodes":8,"update":"2019-09-04 08:52:28","iframe_src":"//7043.svetacdn.in/71tsRs29n5tZ/tv-series/5122"},{"id":5103,"title":"Охота","kp_id":"1236452","imdb_id":"tt9690214","world_art_id":null,"type":"serial","add":"2019-08-27 08:22:23","orig_title":"The Hunting","year":"2019-08-01","translations":["Любительский (двухголосый закадровый)"],"seasons_count":1,"episodes_count":4,"episodes":4,"update":"2019-09-06 07:00:41","iframe_src":"//7043.svetacdn.in/71tsRs29n5tZ/tv-series/5103"},{"id":5100,"title":"Капитанша. Продолжение","kp_id":"1209735","imdb_id":null,"world_art_id":null,"type":"serial","add":"2019-08-26 15:33:48","orig_title":"Капитанша. Продолжение","year":"2019-08-26","translations":["Оригинальная дорожка"],"seasons_count":1,"episodes_count":16,"episodes":16,"update":"2019-09-08 14:37:02","iframe_src":"//7043.svetacdn.in/71tsRs29n5tZ/tv-series/5100"},{"id":5085,"title":"Следователь Горчакова","kp_id":"1263010","imdb_id":"tt10349610","world_art_id":null,"type":"serial","add":"2019-08-22 16:13:06","orig_title":"Sledovatel Gorchakova","year":"2019-04-29","translations":["Оригинальная дорожка"],"seasons_count":1,"episodes_count":20,"episodes":20,"update":"2019-09-09 07:50:51","iframe_src":"//7043.svetacdn.in/71tsRs29n5tZ/tv-series/5085"},{"id":5009,"title":"«У» значит убийцы","kp_id":"1178915","imdb_id":"tt8652642","world_art_id":null,"type":"serial","add":"2019-08-08 03:44:37","orig_title":"Wu Assassins","year":"2019-08-08","translations":["Полное дублирование","Профессиональный (многоголосый закадровый) (LostFilm)"],"seasons_count":1,"episodes_count":10,"episodes":10,"update":"2019-09-09 08:58:34","iframe_src":"//7043.svetacdn.in/71tsRs29n5tZ/tv-series/5009"},{"id":4535,"title":"Рассказы","kp_id":"1112600","imdb_id":"tt6971054","world_art_id":null,"type":"serial","add":"2019-05-21 09:52:11","orig_title":"Tales","year":"2017-06-27","translations":["Профессиональный (многоголосый закадровый) (IdeaFilm)","Любительский (многоголосый закадровый) (Octopus)"],"seasons_count":2,"episodes_count":18,"episodes":10,"update":"2019-09-05 11:39:22","iframe_src":"//7043.svetacdn.in/71tsRs29n5tZ/tv-series/4535"},{"id":3178,"title":"Гость","kp_id":"1115712","imdb_id":"tt8801670","world_art_id":null,"type":"serial","add":"2018-09-17 09:27:18","orig_title":"Son: The Guest","year":"2018-09-12","translations":["Любительский (двухголосый закадровый) (Храм Дорам ТВ)","Любительский (двухголосый закадровый) (Колобок)"],"seasons_count":1,"episodes_count":16,"episodes":16,"update":"2019-09-04 15:32:36","iframe_src":"//7043.svetacdn.in/71tsRs29n5tZ/tv-series/3178"},{"id":2489,"title":"С приветом по планетам","kp_id":"790322","imdb_id":"tt2252938","world_art_id":null,"type":"serial","add":"2018-04-30 15:01:28","orig_title":"Wander Over Yonder","year":"2013-09-13","translations":["Полное дублирование (Невафильм | Нева-1)"],"seasons_count":2,"episodes_count":43,"episodes":22,"update":"2019-09-06 22:11:43","iframe_src":"//7043.svetacdn.in/71tsRs29n5tZ/tv-series/2489"},{"id":2181,"title":"Придержите закат","kp_id":"1114925","imdb_id":"tt6768634","world_art_id":null,"type":"serial","add":"2018-03-05 08:37:42","orig_title":"Hold the Sunset","year":"2018-02-18","translations":["Профессиональный (многоголосый закадровый) (BaibaKo)"],"seasons_count":2,"episodes_count":11,"episodes":5,"update":"2019-09-05 11:40:33","iframe_src":"//7043.svetacdn.in/71tsRs29n5tZ/tv-series/2181"}],"current_page":324,"first_page_url":"https://videocdn.tv/api/short?limit=100&api_token=EnbO9h8pv1VyjbCJhg0WM9nG259n7mtz&cache3324=3324&page=1","from":32301,"last_page":616,"last_page_url":"https://videocdn.tv/api/short?limit=100&api_token=EnbO9h8pv1VyjbCJhg0WM9nG259n7mtz&cache3324=3324&page=616","next_page_url":"https://videocdn.tv/api/short?limit=100&api_token=EnbO9h8pv1VyjbCJhg0WM9nG259n7mtz&cache3324=3324&page=325","path":"https://videocdn.tv/api/short","per_page":100,"prev_page_url":"https://videocdn.tv/api/short?limit=100&api_token=EnbO9h8pv1VyjbCJhg0WM9nG259n7mtz&cache3324=3324&page=323","to":32340,"total":61594}