{"result":true,"data":[{"id":32096,"title":"Творительница","kp_id":"1076897","imdb_id":"tt7203052","world_art_id":null,"type":"movie","add":"2019-10-20 12:25:36","orig_title":"The Creatress","year":"2019-10-04","translations":["Любительский (многоголосый закадровый) (Синема УС)"],"quality":"hdrip","translation":"Любительский (многоголосый закадровый) (Синема УС)","update":"2019-10-21 12:20:43","iframe_src":"//7043.svetacdn.in/IAF0wWTdNYZm/movie/32096"},{"id":32072,"title":"Скандал при поступлении","kp_id":"1302017","imdb_id":"tt10803786","world_art_id":null,"type":"movie","add":"2019-10-20 08:50:28","orig_title":"The College Admissions Scandal","year":"2019-10-12","translations":["Любительский (многоголосый закадровый) (Синема УС)"],"quality":"webdl","translation":"Любительский (многоголосый закадровый) (Синема УС)","update":"2019-10-21 12:00:02","iframe_src":"//7043.svetacdn.in/IAF0wWTdNYZm/movie/32072"},{"id":32065,"title":"Информатор","kp_id":"1209409","imdb_id":"tt7832848","world_art_id":null,"type":"movie","add":"2019-10-20 08:34:59","orig_title":"Inside Man: Most Wanted","year":"2019-09-24","translations":["Любительский (многоголосый закадровый) (Синема УС)"],"quality":"webdl","translation":"Любительский (многоголосый закадровый) (Синема УС)","update":"2019-10-21 11:59:09","iframe_src":"//7043.svetacdn.in/IAF0wWTdNYZm/movie/32065"},{"id":32049,"title":"Тайны кроссвордов: Предложение убийства","kp_id":"1236379","imdb_id":"tt9759888","world_art_id":null,"type":"movie","add":"2019-10-18 20:57:03","orig_title":"Crossword Mysteries: Proposing Murder","year":"2019-10-13","translations":["Профессиональный (многоголосый закадровый) (AlphaProject)"],"quality":"hdtv","translation":"Профессиональный (многоголосый закадровый) (AlphaProject)","update":"2019-10-21 11:54:28","iframe_src":"//7043.svetacdn.in/IAF0wWTdNYZm/movie/32049"},{"id":32035,"title":"Раны","kp_id":"1114089","imdb_id":"tt5913798","world_art_id":null,"type":"movie","add":"2019-10-18 18:57:57","orig_title":"Wounds","year":"2019-01-26","translations":["Полное дублирование (Невафильм | Нева-1)"],"quality":"webdl","translation":"Полное дублирование (Невафильм | Нева-1)","update":"2019-10-21 11:52:34","iframe_src":"//7043.svetacdn.in/IAF0wWTdNYZm/movie/32035"},{"id":32034,"title":"Прачечная","kp_id":"992506","imdb_id":"tt5865326","world_art_id":null,"type":"movie","add":"2019-10-18 18:56:12","orig_title":"The Laundromat","year":"2019-09-01","translations":["Полное дублирование (Невафильм | Нева-1)"],"quality":"webdl","translation":"Полное дублирование (Невафильм | Нева-1)","update":"2019-10-21 11:51:08","iframe_src":"//7043.svetacdn.in/IAF0wWTdNYZm/movie/32034"},{"id":32033,"title":"Альбом Уайта","kp_id":"871027","imdb_id":"tt4084954","world_art_id":null,"type":"movie","add":"2019-10-18 18:54:55","orig_title":"The Whyte Album","year":"2019-03-03","translations":["Любительский (многоголосый закадровый) (Синема УС)"],"quality":"webdl","translation":"Любительский (многоголосый закадровый) (Синема УС)","update":"2019-10-21 11:49:40","iframe_src":"//7043.svetacdn.in/IAF0wWTdNYZm/movie/32033"},{"id":32031,"title":"Свистун: Начало","kp_id":"998998","imdb_id":"tt5987374","world_art_id":null,"type":"movie","add":"2019-10-18 18:53:12","orig_title":"El Silbón: Orígenes","year":"2017-10-29","translations":["Любительский (многоголосый закадровый) (Синема УС)"],"quality":"dvdrip","translation":"Любительский (многоголосый закадровый) (Синема УС)","update":"2019-10-21 11:46:49","iframe_src":"//7043.svetacdn.in/IAF0wWTdNYZm/movie/32031"},{"id":32030,"title":"Лосиная голова над камином","kp_id":"984124","imdb_id":"tt5740994","world_art_id":null,"type":"movie","add":"2019-10-18 18:51:55","orig_title":"The Moose Head Over the Mantel","year":"2018-01-13","translations":["Любительский (многоголосый закадровый) (Синема УС)"],"quality":"webdl","translation":"Любительский (многоголосый закадровый) (Синема УС)","update":"2019-10-21 11:44:24","iframe_src":"//7043.svetacdn.in/IAF0wWTdNYZm/movie/32030"},{"id":32027,"title":"Вместе поневоле","kp_id":"1178748","imdb_id":"tt8785426","world_art_id":null,"type":"movie","add":"2019-10-18 18:44:12","orig_title":"Jabariya Jodi","year":"2019-08-09","translations":["Любительский (многоголосый закадровый) (Синема УС)"],"quality":"webdl","translation":"Любительский (многоголосый закадровый) (Синема УС)","update":"2019-10-21 11:36:45","iframe_src":"//7043.svetacdn.in/IAF0wWTdNYZm/movie/32027"},{"id":32024,"title":"Первый поцелуй","kp_id":"1174067","imdb_id":"tt8610996","world_art_id":null,"type":"movie","add":"2019-10-18 18:41:05","orig_title":"First Kiss","year":"2018-12-06","translations":["Профессиональный (многоголосый закадровый) (AlphaProject)"],"quality":"webdl","translation":"Профессиональный (многоголосый закадровый) (AlphaProject)","update":"2019-10-21 11:40:46","iframe_src":"//7043.svetacdn.in/IAF0wWTdNYZm/movie/32024"},{"id":32020,"title":"Лучшие дни","kp_id":"1000123","imdb_id":"tt5979556","world_art_id":null,"type":"movie","add":"2019-10-18 18:36:30","orig_title":"Better Days","year":"2019-02-16","translations":["Профессиональный (многоголосый закадровый) (AlphaProject)"],"quality":"webdl","translation":"Профессиональный (многоголосый закадровый) (AlphaProject)","update":"2019-10-21 11:39:33","iframe_src":"//7043.svetacdn.in/IAF0wWTdNYZm/movie/32020"},{"id":32017,"title":"Изящество и Блеск","kp_id":"1083776","imdb_id":"tt6828530","world_art_id":null,"type":"movie","add":"2019-10-18 18:33:43","orig_title":"Donaire y Esplendor","year":"2017-09-07","translations":["Любительский (многоголосый закадровый) (Синема УС)"],"quality":"webdl","translation":"Любительский (многоголосый закадровый) (Синема УС)","update":"2019-10-21 11:38:31","iframe_src":"//7043.svetacdn.in/IAF0wWTdNYZm/movie/32017"},{"id":32016,"title":"Братская честь","kp_id":"1280906","imdb_id":"tt10559412","world_art_id":null,"type":"movie","add":"2019-10-18 18:32:10","orig_title":"A Brother's Honor","year":"2019-09-18","translations":["Любительский (многоголосый закадровый) (Синема УС)"],"quality":"webdl","translation":"Любительский (многоголосый закадровый) (Синема УС)","update":"2019-10-21 11:33:24","iframe_src":"//7043.svetacdn.in/IAF0wWTdNYZm/movie/32016"},{"id":31038,"title":"Супер 30","kp_id":"1076779","imdb_id":"tt7485048","world_art_id":null,"type":"movie","add":"2019-09-20 20:50:39","orig_title":"Super 30","year":"2019-07-12","translations":["Любительский (многоголосый закадровый) (Синема УС)","Любительский (многоголосый закадровый) (Honey&Hoseena)"],"quality":"webdl","translation":"Любительский (многоголосый закадровый) (Синема УС)","update":"2019-10-21 12:17:48","iframe_src":"//7043.svetacdn.in/IAF0wWTdNYZm/movie/31038"},{"id":28401,"title":"Гиблая земля","kp_id":"1291111","imdb_id":"tt7701096","world_art_id":null,"type":"movie","add":"2019-06-29 20:50:01","orig_title":"No Man's Land","year":"2019-06-04","translations":["Любительский (многоголосый закадровый) (Синема УС)","Профессиональный (многоголосый закадровый)"],"quality":"webdl","translation":"Любительский (многоголосый закадровый) (Синема УС)","update":"2019-10-21 12:09:41","iframe_src":"//7043.svetacdn.in/IAF0wWTdNYZm/movie/28401"},{"id":22246,"title":"Пациент 001","kp_id":"1197664","imdb_id":"tt9034308","world_art_id":null,"type":"movie","add":"2019-02-12 09:09:03","orig_title":"Patient 001","year":"2018-11-27","translations":["Любительский (многоголосый закадровый) (Синема УС)","Любительский (двухголосый закадровый) (LakeFilms)","Профессиональный (многоголосый закадровый) (HDrezka Studio)"],"quality":"webdl","translation":"Любительский (многоголосый закадровый) (Синема УС)","update":"2019-10-21 12:50:14","iframe_src":"//7043.svetacdn.in/IAF0wWTdNYZm/movie/22246"},{"id":22184,"title":"VS.","kp_id":"1051213","imdb_id":"tt4177018","world_art_id":null,"type":"movie","add":"2019-02-10 22:33:49","orig_title":"VS.","year":"2018-10-19","translations":["Любительский (многоголосый закадровый) (Синема УС)","Профессиональный (многоголосый закадровый) (HDrezka Studio)"],"quality":"webdl","translation":"Любительский (многоголосый закадровый) (Синема УС)","update":"2019-10-21 12:56:04","iframe_src":"//7043.svetacdn.in/IAF0wWTdNYZm/movie/22184"},{"id":22011,"title":"Главный в Рок Стеди","kp_id":"1004970","imdb_id":"tt6095486","world_art_id":null,"type":"movie","add":"2019-02-02 15:14:53","orig_title":"Rock Steady Row","year":"2018-01-19","translations":["Любительский (многоголосый закадровый) (Синема УС)","Любительский (двухголосый закадровый) (HiWayGrope)","Профессиональный (многоголосый закадровый) (HDrezka Studio)"],"quality":"webdl","translation":"Любительский (многоголосый закадровый) (Синема УС)","update":"2019-10-21 12:53:20","iframe_src":"//7043.svetacdn.in/IAF0wWTdNYZm/movie/22011"},{"id":20589,"title":"Радушие","kp_id":"1087251","imdb_id":"tt6964844","world_art_id":null,"type":"movie","add":"2018-12-09 18:34:48","orig_title":"Hospitality","year":"2018-12-07","translations":["Любительский (многоголосый закадровый) (Синема УС)","Любительский (двухголосый закадровый) (HiWayGrope)","Профессиональный (многоголосый закадровый)","Профессиональный (многоголосый закадровый) (HDrezka Studio)"],"quality":"webdl","translation":"Любительский (многоголосый закадровый) (Синема УС)","update":"2019-10-21 12:43:51","iframe_src":"//7043.svetacdn.in/IAF0wWTdNYZm/movie/20589"}],"current_page":1037,"first_page_url":"https://videocdn.tv/api/short?limit=100&api_token=6Onb1W1alEUrBcKJZD3GoKBbWyAl2uG2&cache31037=31037&page=1","from":103601,"last_page":612,"last_page_url":"https://videocdn.tv/api/short?limit=100&api_token=6Onb1W1alEUrBcKJZD3GoKBbWyAl2uG2&cache31037=31037&page=612","next_page_url":null,"path":"https://videocdn.tv/api/short","per_page":100,"prev_page_url":"https://videocdn.tv/api/short?limit=100&api_token=6Onb1W1alEUrBcKJZD3GoKBbWyAl2uG2&cache31037=31037&page=1036","to":103620,"total":61189}