{"result":true,"data":[{"id":50628,"title":"Поколение Почему?","kp_id":null,"imdb_id":"tt14336298","world_art_id":null,"type":"movie","add":"2021-05-24 19:06:33","orig_title":"Generation Por Qué?","year":"2021-05-01","translations":["Любительский (многоголосый закадровый) (Синема УС)"],"quality":"webdl","translation":"Любительский (многоголосый закадровый) (Синема УС)","update":"2021-05-25 06:26:26","iframe_src":"//8209.svetacdn.in/10IAF0wWTdNYZm/movie/50628"},{"id":50621,"title":"Полный отрыв","kp_id":"909856","imdb_id":"tt4675030","world_art_id":null,"type":"movie","add":"2021-05-24 18:48:43","orig_title":"Great Grand Masti","year":"2016-07-15","translations":["Любительский (многоголосый закадровый) (FanStudio)"],"quality":"webdl","translation":"Любительский (многоголосый закадровый) (FanStudio)","update":"2021-05-25 04:25:38","iframe_src":"//8209.svetacdn.in/10IAF0wWTdNYZm/movie/50621"},{"id":50620,"title":"Станцуем бангру","kp_id":"1249466","imdb_id":"tt9766280","world_art_id":null,"type":"movie","add":"2021-05-24 18:46:51","orig_title":"Bhangra Paa Le","year":"2020-01-03","translations":["Любительский (многоголосый закадровый) (OnisFilms)"],"quality":"webdl","translation":"Любительский (многоголосый закадровый) (OnisFilms)","update":"2021-05-25 04:25:23","iframe_src":"//8209.svetacdn.in/10IAF0wWTdNYZm/movie/50620"},{"id":50618,"title":"Беспокойная любовь","kp_id":"1151602","imdb_id":"tt7884086","world_art_id":null,"type":"movie","add":"2021-05-24 18:39:22","orig_title":"Pareshaan Parinda","year":"2018-03-23","translations":["Профессиональный (многоголосый закадровый) (Bollywood HD)"],"quality":"webdl","translation":"Профессиональный (многоголосый закадровый) (Bollywood HD)","update":"2021-05-25 04:24:25","iframe_src":"//8209.svetacdn.in/10IAF0wWTdNYZm/movie/50618"},{"id":50617,"title":"Цветок кофе","kp_id":"889722","imdb_id":"tt3666258","world_art_id":null,"type":"movie","add":"2021-05-24 18:37:25","orig_title":"Coffee Bloom","year":"2015-03-06","translations":["Профессиональный (двухголосый закадровый) (Bollywood HD)"],"quality":"hdrip","translation":"Профессиональный (двухголосый закадровый) (Bollywood HD)","update":"2021-05-25 04:24:04","iframe_src":"//8209.svetacdn.in/10IAF0wWTdNYZm/movie/50617"},{"id":50616,"title":"Настоящий Арджун","kp_id":"78494","imdb_id":"tt0098976","world_art_id":null,"type":"movie","add":"2021-05-24 18:34:13","orig_title":"Aaj Ka Arjun","year":"1990-08-10","translations":["Профессиональный (многоголосый закадровый)"],"quality":"webdl","translation":"Профессиональный (многоголосый закадровый)","update":"2021-05-25 04:23:48","iframe_src":"//8209.svetacdn.in/10IAF0wWTdNYZm/movie/50616"},{"id":50614,"title":"Принцесса и бандит","kp_id":"1358293","imdb_id":null,"world_art_id":null,"type":"movie","add":"2021-05-24 11:01:51","orig_title":"Принцесса и бандит","year":"2020-01-01","translations":["Оригинальная дорожка"],"quality":"webdl","translation":"Оригинальная дорожка","update":"2021-05-24 15:43:27","iframe_src":"//8209.svetacdn.in/10IAF0wWTdNYZm/movie/50614"},{"id":50613,"title":"Одеялко","kp_id":null,"imdb_id":"tt13016748","world_art_id":null,"type":"movie","add":"2021-05-24 10:59:25","orig_title":"Blanket","year":"2020-10-12","translations":["Оригинальная дорожка"],"quality":"webdl","translation":"Оригинальная дорожка","update":"2021-05-24 15:44:34","iframe_src":"//8209.svetacdn.in/10IAF0wWTdNYZm/movie/50613"},{"id":50611,"title":"Эка и козленок","kp_id":"269659","imdb_id":"tt0821770","world_art_id":null,"type":"movie","add":"2021-05-24 09:39:34","orig_title":"Eka da tikani","year":"1978-01-01","translations":["Оригинальная дорожка"],"quality":"tc","translation":"Оригинальная дорожка","update":"2021-05-25 04:04:20","iframe_src":"//8209.svetacdn.in/10IAF0wWTdNYZm/movie/50611"},{"id":50610,"title":"Лето с Моникой","kp_id":"94735","imdb_id":"tt0046345","world_art_id":null,"type":"movie","add":"2021-05-24 09:26:29","orig_title":"Sommaren med Monika","year":"1953-02-09","translations":["Профессиональный (многоголосый закадровый)"],"quality":"bd","translation":"Профессиональный (многоголосый закадровый)","update":"2021-05-25 04:00:09","iframe_src":"//8209.svetacdn.in/10IAF0wWTdNYZm/movie/50610"},{"id":50560,"title":"Куда идешь, солдат?","kp_id":"45019","imdb_id":"tt0264771","world_art_id":null,"type":"movie","add":"2021-05-22 22:35:44","orig_title":"Ur es gnum, zinvor?","year":"1986-01-17","translations":["Полное дублирование"],"quality":"webdl","translation":"Полное дублирование","update":"2021-05-24 12:12:10","iframe_src":"//8209.svetacdn.in/10IAF0wWTdNYZm/movie/50560"},{"id":50559,"title":"Час оборотня","kp_id":"421324","imdb_id":"tt1651119","world_art_id":null,"type":"movie","add":"2021-05-22 22:21:17","orig_title":"Chas oborotnya","year":"1990-01-01","translations":["Оригинальная дорожка"],"quality":"webdl","translation":"Оригинальная дорожка","update":"2021-05-24 12:13:28","iframe_src":"//8209.svetacdn.in/10IAF0wWTdNYZm/movie/50559"},{"id":8166,"title":"Энигма","kp_id":"428836","imdb_id":"tt1873845","world_art_id":null,"type":"serial","add":"2020-07-16 10:04:42","orig_title":"Enigma","year":"2010-12-27","translations":["Оригинальная дорожка"],"seasons_count":1,"episodes_count":15,"episodes":15,"update":"2020-07-17 09:33:42","iframe_src":"//8209.svetacdn.in/10IAF0wWTdNYZm/tv-series/8166"},{"id":8165,"title":"Любит не любит","kp_id":"750995","imdb_id":"tt3329516","world_art_id":null,"type":"serial","add":"2020-07-16 09:32:25","orig_title":"Lyubit ne lyubit","year":"2013-04-01","translations":["Оригинальная дорожка"],"seasons_count":1,"episodes_count":26,"episodes":26,"update":"2020-07-17 08:00:47","iframe_src":"//8209.svetacdn.in/10IAF0wWTdNYZm/tv-series/8165"},{"id":8163,"title":"Счастье есть","kp_id":"633997","imdb_id":null,"world_art_id":null,"type":"serial","add":"2020-07-15 18:26:02","orig_title":"Счастье есть","year":"2011-10-22","translations":["Оригинальная дорожка"],"seasons_count":1,"episodes_count":4,"episodes":4,"update":"2020-07-16 17:31:51","iframe_src":"//8209.svetacdn.in/10IAF0wWTdNYZm/tv-series/8163"},{"id":8159,"title":"До смерти красива","kp_id":"717443","imdb_id":"tt4080182","world_art_id":null,"type":"serial","add":"2020-07-15 08:09:59","orig_title":"Do smerti krasiva","year":"2015-05-11","translations":["Оригинальная дорожка"],"seasons_count":1,"episodes_count":24,"episodes":24,"update":"2020-07-17 06:38:39","iframe_src":"//8209.svetacdn.in/10IAF0wWTdNYZm/tv-series/8159"},{"id":8153,"title":"После работы","kp_id":null,"imdb_id":"tt5178792","world_art_id":null,"type":"serial","add":"2020-07-14 13:03:06","orig_title":"After Hours","year":"2015-11-02","translations":["Любительский (многоголосый закадровый) (ColdFilm)"],"seasons_count":1,"episodes_count":6,"episodes":6,"update":"2020-07-14 20:00:40","iframe_src":"//8209.svetacdn.in/10IAF0wWTdNYZm/tv-series/8153"},{"id":8152,"title":"Последнее лето","kp_id":"1355328","imdb_id":"tt11886634","world_art_id":null,"type":"serial","add":"2020-07-14 12:56:26","orig_title":"Den sista sommaren","year":"2020-02-25","translations":["Любительский (многоголосый закадровый) (ColdFilm)"],"seasons_count":1,"episodes_count":7,"episodes":7,"update":"2020-07-14 20:10:37","iframe_src":"//8209.svetacdn.in/10IAF0wWTdNYZm/tv-series/8152"},{"id":8149,"title":"Отблески","kp_id":"471469","imdb_id":"tt4163868","world_art_id":null,"type":"serial","add":"2020-07-13 11:57:38","orig_title":"Otbleski","year":"2010-01-11","translations":["Оригинальная дорожка"],"seasons_count":1,"episodes_count":25,"episodes":25,"update":"2020-07-15 08:17:27","iframe_src":"//8209.svetacdn.in/10IAF0wWTdNYZm/tv-series/8149"},{"id":8138,"title":"Дракоша и компания","kp_id":"471957","imdb_id":"tt3753954","world_art_id":null,"type":"serial","add":"2020-07-10 20:10:19","orig_title":"Drakosha i kompaniya","year":"2001-01-01","translations":["Оригинальная дорожка"],"seasons_count":1,"episodes_count":40,"episodes":40,"update":"2020-07-14 20:46:25","iframe_src":"//8209.svetacdn.in/10IAF0wWTdNYZm/tv-series/8138"},{"id":8136,"title":"Планета обезьян","kp_id":"258470","imdb_id":"tt0071033","world_art_id":null,"type":"serial","add":"2020-07-10 11:00:34","orig_title":"Planet of the Apes","year":"1974-09-13","translations":["Любительский (одноголосый закадровый)"],"seasons_count":1,"episodes_count":14,"episodes":14,"update":"2020-07-15 18:44:23","iframe_src":"//8209.svetacdn.in/10IAF0wWTdNYZm/tv-series/8136"},{"id":8128,"title":"Мужчина во мне","kp_id":"585281","imdb_id":"tt4047444","world_art_id":null,"type":"serial","add":"2020-07-09 10:38:15","orig_title":"Muzhchina vo mne","year":"2011-04-18","translations":["Оригинальная дорожка"],"seasons_count":1,"episodes_count":63,"episodes":63,"update":"2020-07-15 14:32:58","iframe_src":"//8209.svetacdn.in/10IAF0wWTdNYZm/tv-series/8128"},{"id":7936,"title":"Клон","kp_id":"624632","imdb_id":"tt1726405","world_art_id":null,"type":"serial","add":"2020-06-17 20:20:20","orig_title":"Kurôn beibî","year":"2010-10-08","translations":["Любительский (одноголосый закадровый)"],"seasons_count":1,"episodes_count":11,"episodes":11,"update":"2020-07-15 21:04:09","iframe_src":"//8209.svetacdn.in/10IAF0wWTdNYZm/tv-series/7936"},{"id":7912,"title":"Игроделы","kp_id":"914628","imdb_id":"tt4711184","world_art_id":null,"type":"serial","add":"2020-06-17 04:24:13","orig_title":"Game Shakers","year":"2015-03-12","translations":["Полное дублирование (True Dubbing Studio)"],"seasons_count":3,"episodes_count":60,"episodes":18,"update":"2020-07-15 17:06:05","iframe_src":"//8209.svetacdn.in/10IAF0wWTdNYZm/tv-series/7912"},{"id":7823,"title":"Окаянные дни","kp_id":"1387121","imdb_id":null,"world_art_id":null,"type":"serial","add":"2020-06-11 05:47:42","orig_title":"Окаянные дни","year":"2020-06-11","translations":["Оригинальная дорожка"],"seasons_count":1,"episodes_count":10,"episodes":10,"update":"2020-07-16 14:36:20","iframe_src":"//8209.svetacdn.in/10IAF0wWTdNYZm/tv-series/7823"},{"id":7730,"title":"Чики","kp_id":"1312007","imdb_id":"tt12516676","world_art_id":null,"type":"serial","add":"2020-06-04 08:14:17","orig_title":"Chiki","year":"2020-06-04","translations":["Оригинальная дорожка"],"seasons_count":1,"episodes_count":8,"episodes":8,"update":"2020-07-16 21:40:39","iframe_src":"//8209.svetacdn.in/10IAF0wWTdNYZm/tv-series/7730"},{"id":38160,"title":"Призрачное счастье","kp_id":"95412","imdb_id":"tt0300980","world_art_id":null,"type":"movie","add":"2020-03-17 21:18:54","orig_title":"Baseraa","year":"1981-09-25","translations":["Полное дублирование","Полное дублирование"],"quality":"dvdrip","translation":"Полное дублирование","update":"2021-05-25 04:23:25","iframe_src":"//8209.svetacdn.in/10IAF0wWTdNYZm/movie/38160"},{"id":6232,"title":"Династии","kp_id":"1226357","imdb_id":"tt9130692","world_art_id":null,"type":"serial","add":"2020-01-04 13:08:28","orig_title":"Dynasties","year":"2018-11-11","translations":["Профессиональный (одноголосый закадровый)","Любительский (многоголосый закадровый) (ColdFilm)"],"seasons_count":1,"episodes_count":5,"episodes":5,"update":"2020-07-14 20:05:07","iframe_src":"//8209.svetacdn.in/10IAF0wWTdNYZm/tv-series/6232"},{"id":4912,"title":"Зеленое крыло","kp_id":"399903","imdb_id":"tt0423661","world_art_id":null,"type":"serial","add":"2019-07-22 11:20:52","orig_title":"Green Wing","year":"2004-09-03","translations":["Любительский (одноголосый закадровый)","Профессиональный (многоголосый закадровый) (Ozz.tv)"],"seasons_count":2,"episodes_count":18,"episodes":9,"update":"2020-07-15 06:10:16","iframe_src":"//8209.svetacdn.in/10IAF0wWTdNYZm/tv-series/4912"},{"id":4517,"title":"Озноб","kp_id":"1264424","imdb_id":"tt12218096","world_art_id":null,"type":"serial","add":"2019-05-18 14:45:15","orig_title":"Oznob/Chills","year":"2019-05-18","translations":["Оригинальная дорожка"],"seasons_count":1,"episodes_count":4,"episodes":4,"update":"2020-07-16 11:21:21","iframe_src":"//8209.svetacdn.in/10IAF0wWTdNYZm/tv-series/4517"},{"id":2106,"title":"Академия Гринхаус","kp_id":"1048694","imdb_id":"tt6076336","world_art_id":null,"type":"serial","add":"2018-02-17 12:33:16","orig_title":"Greenhouse Academy","year":"2017-09-08","translations":["Любительский (двухголосый закадровый) (Sunshine Studio)","Профессиональный (многоголосый закадровый) (HDrezka Studio)","Любительский (многоголосый закадровый) (Octopus)"],"seasons_count":4,"episodes_count":40,"episodes":8,"update":"2020-07-17 09:41:11","iframe_src":"//8209.svetacdn.in/10IAF0wWTdNYZm/tv-series/2106"},{"id":1798,"title":"Тьма","kp_id":"1032606","imdb_id":"tt5753856","world_art_id":null,"type":"serial","add":"2017-12-04 10:27:32","orig_title":"Dark","year":"2017-12-01","translations":["Профессиональный (многоголосый закадровый) (BaibaKo)","Профессиональный (многоголосый закадровый) (NewStudio)","Профессиональный (многоголосый закадровый) (HDrezka Studio)","Профессиональный (многоголосый закадровый) (TVShows)","Профессиональный (двухголосый закадровый) (Кубик в Кубе)","Профессиональный (многоголосый закадровый) (LostFilm)","Профессиональный (многоголосый закадровый) (Jaskier)","Профессиональный (многоголосый закадровый) (IdeaFilm)","Любительский (многоголосый закадровый) (ColdFilm)","Любительский (многоголосый закадровый) (Octopus)","Любительский (многоголосый закадровый) (Hamster Studio)","Любительский (многоголосый закадровый) (WestFilm)"],"seasons_count":3,"episodes_count":27,"episodes":9,"update":"2020-07-16 05:01:18","iframe_src":"//8209.svetacdn.in/10IAF0wWTdNYZm/tv-series/1798"},{"id":9215,"title":"Рой","kp_id":"771906","imdb_id":"tt2976182","world_art_id":null,"type":"movie","add":"2017-01-26 12:21:43","orig_title":"Roy","year":"2015-02-12","translations":["Любительский (двухголосый закадровый)","Профессиональный (многоголосый закадровый) (SDI Media)"],"quality":"bd","translation":"Любительский (двухголосый закадровый)","update":"2021-05-25 04:24:46","iframe_src":"//8209.svetacdn.in/10IAF0wWTdNYZm/movie/9215"},{"id":6586,"title":"Мертвец идет","kp_id":"7363","imdb_id":"tt0112818","world_art_id":null,"type":"movie","add":"2016-10-24 05:04:05","orig_title":"Dead Man Walking","year":"1995-12-29","translations":["Профессиональный (двухголосый закадровый)","Авторский (одноголосый закадровый) (Визгунов Сергей)","Original (English)","Профессиональный (двухголосый закадровый)","Профессиональный (двухголосый закадровый) (Inter Video)"],"quality":"bd","translation":"Профессиональный (двухголосый закадровый)","update":"2021-05-25 06:21:40","iframe_src":"//8209.svetacdn.in/10IAF0wWTdNYZm/movie/6586"},{"id":6318,"title":"Слежка","kp_id":"4071","imdb_id":"tt0094025","world_art_id":null,"type":"movie","add":"2016-10-16 07:38:39","orig_title":"Stakeout","year":"1987-08-05","translations":["Полное дублирование","Авторский (одноголосый закадровый) (Иванов Михаил)","Авторский (одноголосый закадровый) (Михалёв Алексей)","Авторский (одноголосый закадровый) (Визгунов Сергей)","Original (English)","Профессиональный (двухголосый закадровый) (Видеосервис)","Профессиональный (многоголосый закадровый) (РенТВ)","Полное дублирование"],"quality":"webdl","translation":"Полное дублирование","update":"2021-05-25 05:10:19","iframe_src":"//8209.svetacdn.in/10IAF0wWTdNYZm/movie/6318"},{"id":6133,"title":"Совершенное оружие","kp_id":"5436","imdb_id":"tt0102655","world_art_id":null,"type":"movie","add":"2016-10-11 08:32:59","orig_title":"The Perfect Weapon","year":"1991-03-15","translations":["Авторский (одноголосый закадровый) (Гаврилов Андрей)","Авторский (одноголосый закадровый) (Живов Юрий)","Профессиональный (многоголосый закадровый) (Че!)","Авторский (одноголосый закадровый) (Дольский Андрей)","Авторский (одноголосый закадровый) (Гаврилов Андрей)","Авторский (одноголосый закадровый) (Живов Юрий)","Original (English)"],"quality":"bd","translation":"Авторский (одноголосый закадровый) (Гаврилов Андрей)","update":"2021-05-25 05:15:19","iframe_src":"//8209.svetacdn.in/10IAF0wWTdNYZm/movie/6133"},{"id":3952,"title":"История о Рикки","kp_id":"173533","imdb_id":"tt0102293","world_art_id":null,"type":"movie","add":"2016-07-15 11:00:11","orig_title":"Lik wong","year":"1991-10-05","translations":["Любительский (одноголосый закадровый)","Авторский (одноголосый закадровый) (Кузнецов Сергей)","Авторский (одноголосый закадровый) (Дольский Андрей)"],"quality":"bd","translation":"Любительский (одноголосый закадровый)","update":"2021-05-25 04:02:07","iframe_src":"//8209.svetacdn.in/10IAF0wWTdNYZm/movie/3952"},{"id":2145,"title":"Дядюшка Бак","kp_id":"4156","imdb_id":"tt0098554","world_art_id":null,"type":"movie","add":"2016-05-12 18:30:19","orig_title":"Uncle Buck","year":"1989-08-16","translations":["Профессиональный (многоголосый закадровый)","Original (English)","Полное дублирование (Пифагор)","Авторский (одноголосый закадровый) (Дохалов Вартан)","Профессиональный (многоголосый закадровый) (СТС)","Авторский (одноголосый закадровый) (Михалёв Алексей)","Авторский (одноголосый закадровый) (Визгунов Сергей)","Original (English)"],"quality":"bd","translation":"Профессиональный (многоголосый закадровый)","update":"2021-05-25 05:22:40","iframe_src":"//8209.svetacdn.in/10IAF0wWTdNYZm/movie/2145"},{"id":1942,"title":"Успеть до полуночи","kp_id":"3921","imdb_id":"tt0095631","world_art_id":null,"type":"movie","add":"2016-05-07 08:57:47","orig_title":"Midnight Run","year":"1988-07-11","translations":["Профессиональный (многоголосый закадровый)","Авторский (одноголосый закадровый) (Гоблин | Пучков Дмитрий)","Авторский (одноголосый закадровый) (Михалёв Алексей)","Авторский (одноголосый закадровый) (Сербин Юрий)","Профессиональный (многоголосый закадровый)","Профессиональный (многоголосый закадровый) (Премьер Видео Фильм)"],"quality":"bd","translation":"Профессиональный (многоголосый закадровый)","update":"2021-05-25 05:28:13","iframe_src":"//8209.svetacdn.in/10IAF0wWTdNYZm/movie/1942"},{"id":55,"title":"Перевозчик","kp_id":"840466","imdb_id":null,"world_art_id":null,"type":"serial","add":"2016-04-09 13:31:51","orig_title":"Перевозчик","year":"2015-01-01","translations":["Оригинальная дорожка"],"seasons_count":1,"episodes_count":16,"episodes":16,"update":"2020-07-15 18:39:16","iframe_src":"//8209.svetacdn.in/10IAF0wWTdNYZm/tv-series/55"}],"current_page":230,"first_page_url":"https://videocdn.tv/api/short?limit=100&api_token=6Onb1W1alEUrBcKJZD3GoKBbWyAl2uG2&cache3230=3230&page=1","from":22901,"last_page":663,"last_page_url":"https://videocdn.tv/api/short?limit=100&api_token=6Onb1W1alEUrBcKJZD3GoKBbWyAl2uG2&cache3230=3230&page=663","next_page_url":"https://videocdn.tv/api/short?limit=100&api_token=6Onb1W1alEUrBcKJZD3GoKBbWyAl2uG2&cache3230=3230&page=231","path":"https://videocdn.tv/api/short","per_page":100,"prev_page_url":"https://videocdn.tv/api/short?limit=100&api_token=6Onb1W1alEUrBcKJZD3GoKBbWyAl2uG2&cache3230=3230&page=229","to":22940,"total":66205}