{"result":true,"data":[{"id":27850,"title":"Грачи","kp_id":"44597","imdb_id":"tt0239440","world_art_id":null,"type":"movie","add":"2019-06-16 19:36:08","orig_title":"Grachi","year":"1983-01-17","translations":["Оригинальная дорожка"],"quality":"dvdrip","translation":"Оригинальная дорожка","update":"2019-06-18 08:31:31","iframe_src":"//83.svetacdn.in/PfJ50H0ZBPg3/movie/27850"},{"id":27849,"title":"Дура","kp_id":"44321","imdb_id":"tt0191104","world_art_id":null,"type":"movie","add":"2019-06-16 19:32:53","orig_title":"Dura","year":"1991-12-10","translations":["Оригинальная дорожка"],"quality":"sat","translation":"Оригинальная дорожка","update":"2019-06-18 08:30:22","iframe_src":"//83.svetacdn.in/PfJ50H0ZBPg3/movie/27849"},{"id":27848,"title":"Чужие здесь не ходят","kp_id":"45543","imdb_id":"tt0088920","world_art_id":null,"type":"movie","add":"2019-06-16 19:29:18","orig_title":"Chuzhie zdes ne khodyat","year":"1986-06-23","translations":["Оригинальная дорожка"],"quality":"sat","translation":"Оригинальная дорожка","update":"2019-06-18 08:29:07","iframe_src":"//83.svetacdn.in/PfJ50H0ZBPg3/movie/27848"},{"id":27847,"title":"Бархан","kp_id":"46034","imdb_id":"tt0309338","world_art_id":null,"type":"movie","add":"2019-06-16 16:49:57","orig_title":"Barkhan","year":"1989-01-01","translations":["Оригинальная дорожка"],"quality":"sat","translation":"Оригинальная дорожка","update":"2019-06-18 08:28:04","iframe_src":"//83.svetacdn.in/PfJ50H0ZBPg3/movie/27847"},{"id":27846,"title":"Чудотворная","kp_id":"45531","imdb_id":"tt0352246","world_art_id":null,"type":"movie","add":"2019-06-16 16:41:39","orig_title":"Chudotvornaya","year":"1960-12-13","translations":["Оригинальная дорожка"],"quality":"sat","translation":"Оригинальная дорожка","update":"2019-06-18 08:24:23","iframe_src":"//83.svetacdn.in/PfJ50H0ZBPg3/movie/27846"},{"id":27845,"title":"Частная жизнь","kp_id":"25078","imdb_id":"tt0083732","world_art_id":null,"type":"movie","add":"2019-06-16 16:25:09","orig_title":"Chastnaya zhizn","year":"1982-08-23","translations":["Оригинальная дорожка"],"quality":"dvdrip","translation":"Оригинальная дорожка","update":"2019-06-18 08:23:28","iframe_src":"//83.svetacdn.in/PfJ50H0ZBPg3/movie/27845"},{"id":27844,"title":"Частная жизнь Петра Виноградова","kp_id":"45440","imdb_id":"tt0026201","world_art_id":null,"type":"movie","add":"2019-06-16 16:21:54","orig_title":"Chastnaya zhizn Petra Vinogradova","year":"1935-06-27","translations":["Оригинальная дорожка"],"quality":"dvdrip","translation":"Оригинальная дорожка","update":"2019-06-18 08:22:42","iframe_src":"//83.svetacdn.in/PfJ50H0ZBPg3/movie/27844"},{"id":27843,"title":"Был месяц май","kp_id":"77254","imdb_id":"tt0065507","world_art_id":null,"type":"movie","add":"2019-06-16 16:19:00","orig_title":"Byl mesyats may","year":"1970-05-10","translations":["Оригинальная дорожка"],"quality":"dvdrip","translation":"Оригинальная дорожка","update":"2019-06-18 08:21:10","iframe_src":"//83.svetacdn.in/PfJ50H0ZBPg3/movie/27843"},{"id":27842,"title":"Бешеные деньги","kp_id":"46097","imdb_id":"tt0082061","world_art_id":null,"type":"movie","add":"2019-06-16 16:16:19","orig_title":"Beshenye dengi","year":"1982-03-29","translations":["Оригинальная дорожка"],"quality":"dvdrip","translation":"Оригинальная дорожка","update":"2019-06-18 08:20:21","iframe_src":"//83.svetacdn.in/PfJ50H0ZBPg3/movie/27842"},{"id":27841,"title":"Ад, или Досье на самого себя","kp_id":"43405","imdb_id":"tt0149585","world_art_id":null,"type":"movie","add":"2019-06-16 16:13:00","orig_title":"Ad, ili Dose na samogo sebya","year":"1989-01-01","translations":["Оригинальная дорожка"],"quality":"dvdrip","translation":"Оригинальная дорожка","update":"2019-06-18 08:18:56","iframe_src":"//83.svetacdn.in/PfJ50H0ZBPg3/movie/27841"},{"id":27840,"title":"Донецкие шахтеры","kp_id":"44277","imdb_id":"tt0042407","world_art_id":null,"type":"movie","add":"2019-06-16 16:10:01","orig_title":"Donetskie shakhtyory","year":"1951-05-16","translations":["Оригинальная дорожка"],"quality":"dvdrip","translation":"Оригинальная дорожка","update":"2019-06-18 07:55:43","iframe_src":"//83.svetacdn.in/PfJ50H0ZBPg3/movie/27840"},{"id":27839,"title":"Космический рейс","kp_id":"44941","imdb_id":"tt0252612","world_art_id":null,"type":"movie","add":"2019-06-16 16:00:13","orig_title":"Kosmicheskiy reys: Fantasticheskaya novella","year":"1936-01-21","translations":["Оригинальная дорожка"],"quality":"dvdrip","translation":"Оригинальная дорожка","update":"2019-06-18 07:54:51","iframe_src":"//83.svetacdn.in/PfJ50H0ZBPg3/movie/27839"},{"id":27838,"title":"Цветные киноновеллы","kp_id":"470328","imdb_id":"tt0250788","world_art_id":null,"type":"movie","add":"2019-06-16 12:48:40","orig_title":"Tsvetnye kinonovelly","year":"1941-08-22","translations":["Оригинальная дорожка"],"quality":"dvdrip","translation":"Оригинальная дорожка","update":"2019-06-18 07:53:44","iframe_src":"//83.svetacdn.in/PfJ50H0ZBPg3/movie/27838"},{"id":27837,"title":"Душа моя, Мария","kp_id":"1008077","imdb_id":"tt6141288","world_art_id":null,"type":"movie","add":"2019-06-16 12:41:50","orig_title":"Dusha moya, Mariya","year":"1993-06-26","translations":["Оригинальная дорожка"],"quality":"sat","translation":"Оригинальная дорожка","update":"2019-06-18 07:52:35","iframe_src":"//83.svetacdn.in/PfJ50H0ZBPg3/movie/27837"},{"id":27836,"title":"Гарем Степана Гуслякова","kp_id":"44468","imdb_id":"tt0336492","world_art_id":null,"type":"movie","add":"2019-06-16 12:37:02","orig_title":"Garem Stepana Guslyakova","year":"1990-01-01","translations":["Оригинальная дорожка"],"quality":"dvdrip","translation":"Оригинальная дорожка","update":"2019-06-18 07:51:12","iframe_src":"//83.svetacdn.in/PfJ50H0ZBPg3/movie/27836"},{"id":27835,"title":"Комета","kp_id":"44875","imdb_id":"tt0160436","world_art_id":null,"type":"movie","add":"2019-06-16 12:33:41","orig_title":"Kometa","year":"1984-05-28","translations":["Оригинальная дорожка"],"quality":"dvdrip","translation":"Оригинальная дорожка","update":"2019-06-18 07:50:16","iframe_src":"//83.svetacdn.in/PfJ50H0ZBPg3/movie/27835"},{"id":27834,"title":"Марк Твен против","kp_id":"94974","imdb_id":"tt0266749","world_art_id":null,"type":"movie","add":"2019-06-16 12:29:21","orig_title":"Mark Tven-protiv","year":"1975-07-02","translations":["Оригинальная дорожка"],"quality":"sat","translation":"Оригинальная дорожка","update":"2019-06-18 07:49:14","iframe_src":"//83.svetacdn.in/PfJ50H0ZBPg3/movie/27834"},{"id":27833,"title":"Механика счастья","kp_id":"171496","imdb_id":"tt0407335","world_art_id":null,"type":"movie","add":"2019-06-16 12:24:36","orig_title":"Yerjankutyan mekhanika","year":"1982-06-11","translations":["Оригинальная дорожка"],"quality":"dvdrip","translation":"Оригинальная дорожка","update":"2019-06-18 07:48:34","iframe_src":"//83.svetacdn.in/PfJ50H0ZBPg3/movie/27833"},{"id":27832,"title":"Охота на сутенера","kp_id":"42756","imdb_id":"tt0102580","world_art_id":null,"type":"movie","add":"2019-06-16 12:21:26","orig_title":"Okhota na sutenyora","year":"1991-01-01","translations":["Оригинальная дорожка"],"quality":"dvdrip","translation":"Оригинальная дорожка","update":"2019-06-18 07:47:50","iframe_src":"//83.svetacdn.in/PfJ50H0ZBPg3/movie/27832"},{"id":6250,"title":"Конец прекрасной эпохи","kp_id":"838533","imdb_id":"tt4419390","world_art_id":null,"type":"movie","add":"2016-10-12 16:33:10","orig_title":"Konets prekrasnoy epokhi","year":"2015-06-07","translations":["Оригинальная дорожка"],"quality":"webdl","translation":"Оригинальная дорожка","update":"2019-06-18 08:32:38","iframe_src":"//83.svetacdn.in/PfJ50H0ZBPg3/movie/6250"}],"current_page":1351,"first_page_url":"https://videocdn.tv/api/short?limit=100&api_token=RgFQdUIR2dRmwv8iYa5SnFNgnw3vpjKj&cache31351=31351&page=1","from":135001,"last_page":631,"last_page_url":"https://videocdn.tv/api/short?limit=100&api_token=RgFQdUIR2dRmwv8iYa5SnFNgnw3vpjKj&cache31351=31351&page=631","next_page_url":null,"path":"https://videocdn.tv/api/short","per_page":100,"prev_page_url":"https://videocdn.tv/api/short?limit=100&api_token=RgFQdUIR2dRmwv8iYa5SnFNgnw3vpjKj&cache31351=31351&page=1350","to":135020,"total":63003}