{"result":true,"data":[{"id":16180,"title":"Спасти зеленую планету!","kp_id":"81385","imdb_id":"tt0354668","world_art_id":null,"type":"movie","add":"2018-04-10 22:30:53","orig_title":"Jigureul jikyeora!","year":"2003-04-04","translations":["Любительский (одноголосый закадровый) (den904)"],"quality":"dvdrip","translation":"Любительский (одноголосый закадровый) (den904)","update":"2018-04-11 05:51:22","iframe_src":"//5322.svetacdn.in/71tsRs29n5tZ/movie/16180"},{"id":16178,"title":"Последняя ночь Шахерезады","kp_id":"43160","imdb_id":"tt0300362","world_art_id":null,"type":"movie","add":"2018-04-10 22:25:00","orig_title":"Poslednyaya noch Shakherezady","year":"1987-01-01","translations":["Оригинальная дорожка"],"quality":"dvdrip","translation":"Оригинальная дорожка","update":"2018-04-11 06:00:54","iframe_src":"//5322.svetacdn.in/71tsRs29n5tZ/movie/16178"},{"id":16172,"title":"Проклятая парикмахерская","kp_id":null,"imdb_id":"tt6857308","world_art_id":null,"type":"movie","add":"2018-04-10 22:01:34","orig_title":"Ghost in Barber's","year":"2017-01-08","translations":["Любительский (многоголосый закадровый) (Колобок)"],"quality":"webdl","translation":"Любительский (многоголосый закадровый) (Колобок)","update":"2018-04-11 06:05:33","iframe_src":"//5322.svetacdn.in/71tsRs29n5tZ/movie/16172"},{"id":16171,"title":"Завещание голубого дядюшки","kp_id":"121198","imdb_id":"tt0385648","world_art_id":null,"type":"movie","add":"2018-04-10 21:55:42","orig_title":"Deu Veado na Cabeça","year":"1982-01-01","translations":["Профессиональный (одноголосый закадровый)"],"quality":"vhs","translation":"Профессиональный (одноголосый закадровый)","update":"2018-04-11 06:07:05","iframe_src":"//5322.svetacdn.in/71tsRs29n5tZ/movie/16171"},{"id":16169,"title":"Жестокое завещание","kp_id":"586067","imdb_id":"tt1870543","world_art_id":null,"type":"movie","add":"2018-04-10 21:46:52","orig_title":"Cruel Will","year":"2013-12-30","translations":["Любительский (двухголосый закадровый) (DeadSno & den904)"],"quality":"webdl","translation":"Любительский (двухголосый закадровый) (DeadSno & den904)","update":"2018-04-11 06:08:00","iframe_src":"//5322.svetacdn.in/71tsRs29n5tZ/movie/16169"},{"id":16167,"title":"Облачный мальчик","kp_id":"998432","imdb_id":"tt4692646","world_art_id":null,"type":"movie","add":"2018-04-10 21:43:06","orig_title":"Cloudboy","year":"2017-06-26","translations":["Любительский (многоголосый закадровый) (Синема УС)"],"quality":"webdl","translation":"Любительский (многоголосый закадровый) (Синема УС)","update":"2018-04-11 06:10:54","iframe_src":"//5322.svetacdn.in/71tsRs29n5tZ/movie/16167"},{"id":16166,"title":"Антуан и Колетт","kp_id":"418724","imdb_id":"tt1180329","world_art_id":null,"type":"movie","add":"2018-04-10 21:39:00","orig_title":"Antoine et Colette","year":"1962-01-01","translations":["Профессиональный (многоголосый закадровый)"],"quality":"bd","translation":"Профессиональный (многоголосый закадровый)","update":"2018-04-11 06:21:13","iframe_src":"//5322.svetacdn.in/71tsRs29n5tZ/movie/16166"},{"id":16128,"title":"Грубая сила","kp_id":"8308","imdb_id":"tt0039224","world_art_id":null,"type":"movie","add":"2018-04-08 16:07:39","orig_title":"Brute Force","year":"1947-07-10","translations":["Профессиональный (двухголосый закадровый)"],"quality":"bd","translation":"Профессиональный (двухголосый закадровый)","update":"2018-04-10 08:05:26","iframe_src":"//5322.svetacdn.in/71tsRs29n5tZ/movie/16128"},{"id":16127,"title":"Опасный Бангкок","kp_id":"580657","imdb_id":"tt1770650","world_art_id":null,"type":"movie","add":"2018-04-08 16:02:32","orig_title":"BKO: Bangkok Knockout","year":"2010-12-16","translations":["Профессиональный (многоголосый закадровый)"],"quality":"hdrip","translation":"Профессиональный (многоголосый закадровый)","update":"2018-04-10 08:10:06","iframe_src":"//5322.svetacdn.in/71tsRs29n5tZ/movie/16127"},{"id":16126,"title":"Хорошая женщина","kp_id":"49966","imdb_id":"tt0379306","world_art_id":null,"type":"movie","add":"2018-04-08 15:57:52","orig_title":"A Good Woman","year":"2004-09-15","translations":["Профессиональный (двухголосый закадровый)"],"quality":"webdl","translation":"Профессиональный (двухголосый закадровый)","update":"2018-04-10 08:10:56","iframe_src":"//5322.svetacdn.in/71tsRs29n5tZ/movie/16126"},{"id":16114,"title":"Автошкола Морияма","kp_id":"947088","imdb_id":"tt5148460","world_art_id":null,"type":"movie","add":"2018-04-07 22:42:56","orig_title":"Moriyama chû kyôshûjo","year":"2016-07-09","translations":["Любительский (многоголосый закадровый) (Колобок)"],"quality":"bd","translation":"Любительский (многоголосый закадровый) (Колобок)","update":"2018-04-10 08:17:43","iframe_src":"//5322.svetacdn.in/71tsRs29n5tZ/movie/16114"},{"id":16101,"title":"Плохое здание","kp_id":"692508","imdb_id":"tt2257216","world_art_id":null,"type":"movie","add":"2018-04-07 21:54:58","orig_title":"Bad Building","year":"2015-08-06","translations":["Любительский (одноголосый закадровый) (Хихикающий доктор)"],"quality":"webdl","translation":"Любительский (одноголосый закадровый) (Хихикающий доктор)","update":"2018-04-10 08:20:02","iframe_src":"//5322.svetacdn.in/71tsRs29n5tZ/movie/16101"},{"id":16083,"title":"Контакт","kp_id":"585317","imdb_id":null,"world_art_id":null,"type":"movie","add":"2018-04-05 18:46:04","orig_title":"Контакт","year":"2012-01-01","translations":["Оригинальная дорожка"],"quality":"hdtv","translation":"Оригинальная дорожка","update":"2018-04-10 08:23:57","iframe_src":"//5322.svetacdn.in/71tsRs29n5tZ/movie/16083"},{"id":16052,"title":"Эйла","kp_id":"891106","imdb_id":"tt4044896","world_art_id":null,"type":"movie","add":"2018-04-04 20:28:17","orig_title":"Ayla","year":"2017-09-21","translations":["Любительский (многоголосый закадровый) (AlphaProject)","Любительский (двухголосый закадровый) (HiWayGrope)"],"quality":"webdl","translation":"Любительский (многоголосый закадровый) (AlphaProject)","update":"2018-04-11 06:45:59","iframe_src":"//5322.svetacdn.in/71tsRs29n5tZ/movie/16052"},{"id":16046,"title":"Августовский туман","kp_id":"859525","imdb_id":"tt4250566","world_art_id":null,"type":"movie","add":"2018-04-03 22:15:23","orig_title":"Nebel im August","year":"2016-04-14","translations":["Профессиональный (многоголосый закадровый) (GreenРай Studio)","Любительский (многоголосый закадровый) (Синема УС)"],"quality":"bd","translation":"Профессиональный (многоголосый закадровый) (GreenРай Studio)","update":"2018-04-10 08:16:36","iframe_src":"//5322.svetacdn.in/71tsRs29n5tZ/movie/16046"},{"id":15967,"title":"Но избавь нас от лукавого","kp_id":"869648","imdb_id":"tt4134826","world_art_id":null,"type":"movie","add":"2018-04-01 21:29:23","orig_title":"But Deliver Us from Evil","year":"2017-04-27","translations":["Любительский (многоголосый закадровый) (Синема УС)","Любительский (двухголосый закадровый) (HighHopes)"],"quality":"webdl","translation":"Любительский (многоголосый закадровый) (Синема УС)","update":"2018-04-11 06:11:52","iframe_src":"//5322.svetacdn.in/71tsRs29n5tZ/movie/15967"},{"id":15963,"title":"Лайкни меня","kp_id":"800546","imdb_id":"tt3204632","world_art_id":null,"type":"movie","add":"2018-04-01 16:51:04","orig_title":"Like Me","year":"2017-03-10","translations":["Любительский (многоголосый закадровый) (Синема УС)","Любительский (двухголосый закадровый) (HiWayGrope)"],"quality":"webdl","translation":"Любительский (многоголосый закадровый) (Синема УС)","update":"2018-04-11 06:50:50","iframe_src":"//5322.svetacdn.in/71tsRs29n5tZ/movie/15963"},{"id":11961,"title":"Лицемеры","kp_id":"1007431","imdb_id":"tt6129048","world_art_id":null,"type":"movie","add":"2017-06-14 18:31:35","orig_title":"Teesklejad","year":"2016-09-19","translations":["Профессиональный (многоголосый закадровый) (GreenРай Studio)","Любительский (многоголосый закадровый) (Синема УС)"],"quality":"dvdrip","translation":"Профессиональный (многоголосый закадровый) (GreenРай Studio)","update":"2018-04-10 08:14:54","iframe_src":"//5322.svetacdn.in/71tsRs29n5tZ/movie/11961"},{"id":5231,"title":"13 yбийц","kp_id":"466582","imdb_id":"tt1436045","world_art_id":null,"type":"movie","add":"2016-09-13 09:09:34","orig_title":"Jûsan-nin no shikaku","year":"2010-09-09","translations":["Профессиональный (многоголосый закадровый)","Профессиональный (двухголосый закадровый)"],"quality":"bd","translation":"Профессиональный (многоголосый закадровый)","update":"2018-04-10 08:11:57","iframe_src":"//5322.svetacdn.in/71tsRs29n5tZ/movie/5231"},{"id":4668,"title":"Бернард и Дорис","kp_id":"195532","imdb_id":"tt0470732","world_art_id":null,"type":"movie","add":"2016-08-24 13:17:54","orig_title":"Bernard and Doris","year":"2007-10-17","translations":["Профессиональный (двухголосый закадровый)"],"quality":"webdl","translation":"Профессиональный (двухголосый закадровый)","update":"2018-04-10 08:08:34","iframe_src":"//5322.svetacdn.in/71tsRs29n5tZ/movie/4668"}],"current_page":1893,"first_page_url":"https://videocdn.tv/api/short?limit=100&api_token=EnbO9h8pv1VyjbCJhg0WM9nG259n7mtz&cache31893=31893&page=1","from":189201,"last_page":627,"last_page_url":"https://videocdn.tv/api/short?limit=100&api_token=EnbO9h8pv1VyjbCJhg0WM9nG259n7mtz&cache31893=31893&page=627","next_page_url":null,"path":"https://videocdn.tv/api/short","per_page":100,"prev_page_url":"https://videocdn.tv/api/short?limit=100&api_token=EnbO9h8pv1VyjbCJhg0WM9nG259n7mtz&cache31893=31893&page=1892","to":189220,"total":62648}