{"result":true,"data":[{"id":29899,"title":"Вымирающая порода","kp_id":"391753","imdb_id":"tt1064744","world_art_id":null,"type":"movie","add":"2019-08-10 14:47:38","orig_title":"Dying Breed","year":"2008-11-06","translations":["Любительский (двухголосый закадровый)"],"quality":"bd","translation":"Любительский (двухголосый закадровый)","update":"2019-08-11 08:15:11","iframe_src":"//5322.svetacdn.in/IAF0wWTdNYZm/movie/29899"},{"id":29898,"title":"Парень со Скалистых Гор","kp_id":"1005687","imdb_id":"tt6101746","world_art_id":null,"type":"movie","add":"2019-08-10 14:43:44","orig_title":"Rocky Mountain Fast Guy","year":"2018-10-20","translations":["Профессиональный (многоголосый закадровый) (AlphaProject)"],"quality":"webdl","translation":"Профессиональный (многоголосый закадровый) (AlphaProject)","update":"2019-08-11 08:17:49","iframe_src":"//5322.svetacdn.in/IAF0wWTdNYZm/movie/29898"},{"id":29897,"title":"Бо и НЛО","kp_id":"1285852","imdb_id":"tt10601394","world_art_id":null,"type":"movie","add":"2019-08-10 14:40:52","orig_title":"Bo & The UFO","year":"2019-06-15","translations":["Любительский (многоголосый закадровый) (Синема УС)"],"quality":"webdl","translation":"Любительский (многоголосый закадровый) (Синема УС)","update":"2019-08-11 08:19:41","iframe_src":"//5322.svetacdn.in/IAF0wWTdNYZm/movie/29897"},{"id":29896,"title":"Лакиша","kp_id":"1101752","imdb_id":"tt7620554","world_art_id":null,"type":"movie","add":"2019-08-10 14:37:16","orig_title":"Loqueesha","year":"2019-05-21","translations":["Любительский (многоголосый закадровый) (Синема УС)"],"quality":"webdl","translation":"Любительский (многоголосый закадровый) (Синема УС)","update":"2019-08-11 08:20:47","iframe_src":"//5322.svetacdn.in/IAF0wWTdNYZm/movie/29896"},{"id":29895,"title":"Мнемозина","kp_id":"1011278","imdb_id":"tt6204848","world_art_id":null,"type":"movie","add":"2019-08-10 14:34:27","orig_title":"Mnemosyne","year":"2017-01-01","translations":["Любительский (многоголосый закадровый) (Синема УС)"],"quality":"webdl","translation":"Любительский (многоголосый закадровый) (Синема УС)","update":"2019-08-11 08:22:13","iframe_src":"//5322.svetacdn.in/IAF0wWTdNYZm/movie/29895"},{"id":29894,"title":"Свалить с района","kp_id":"1099128","imdb_id":"tt7458216","world_art_id":null,"type":"movie","add":"2019-08-10 14:27:29","orig_title":"Step Off the Block","year":"2017-12-01","translations":["Любительский (многоголосый закадровый) (Синема УС)"],"quality":"webdl","translation":"Любительский (многоголосый закадровый) (Синема УС)","update":"2019-08-11 08:23:25","iframe_src":"//5322.svetacdn.in/IAF0wWTdNYZm/movie/29894"},{"id":29893,"title":"Узреть зло","kp_id":"981742","imdb_id":"tt5691856","world_art_id":null,"type":"movie","add":"2019-08-10 14:20:50","orig_title":"Seeing Evil","year":"2019-05-01","translations":["Профессиональный (многоголосый закадровый) (AlphaProject)"],"quality":"webdl","translation":"Профессиональный (многоголосый закадровый) (AlphaProject)","update":"2019-08-11 08:22:09","iframe_src":"//5322.svetacdn.in/IAF0wWTdNYZm/movie/29893"},{"id":29892,"title":"Рискованная месть","kp_id":"1274702","imdb_id":"tt10423506","world_art_id":null,"type":"movie","add":"2019-08-10 14:17:30","orig_title":"A risky revenge","year":"2019-11-04","translations":["Любительский (многоголосый закадровый) (Синема УС)"],"quality":"webdl","translation":"Любительский (многоголосый закадровый) (Синема УС)","update":"2019-08-11 08:20:52","iframe_src":"//5322.svetacdn.in/IAF0wWTdNYZm/movie/29892"},{"id":29891,"title":"Тета-состояния","kp_id":"961377","imdb_id":"tt5419398","world_art_id":null,"type":"movie","add":"2019-08-10 14:14:16","orig_title":"Theta States","year":"2017-01-13","translations":["Любительский (многоголосый закадровый) (Колобок)"],"quality":"webdl","translation":"Любительский (многоголосый закадровый) (Колобок)","update":"2019-08-11 08:19:22","iframe_src":"//5322.svetacdn.in/IAF0wWTdNYZm/movie/29891"},{"id":29880,"title":"Скафандр и бабочка","kp_id":"77435","imdb_id":"tt0401383","world_art_id":null,"type":"movie","add":"2019-08-09 19:30:20","orig_title":"Le scaphandre et le papillon","year":"2007-05-22","translations":["Профессиональный (многоголосый закадровый)"],"quality":"bd","translation":"Профессиональный (многоголосый закадровый)","update":"2019-08-12 05:02:51","iframe_src":"//5322.svetacdn.in/IAF0wWTdNYZm/movie/29880"},{"id":29879,"title":"Возвращение Алого Первоцвета","kp_id":"28765","imdb_id":"tt0030675","world_art_id":null,"type":"movie","add":"2019-08-09 19:22:11","orig_title":"The Return of the Scarlet Pimpernel","year":"1937-10-20","translations":["Профессиональный (двухголосый закадровый)"],"quality":"dvdrip","translation":"Профессиональный (двухголосый закадровый)","update":"2019-08-12 05:00:34","iframe_src":"//5322.svetacdn.in/IAF0wWTdNYZm/movie/29879"},{"id":29878,"title":"Она испекла убийство: Загадка персикового пирога","kp_id":"961055","imdb_id":"tt5317546","world_art_id":null,"type":"movie","add":"2019-08-09 10:25:02","orig_title":"Murder, She Baked: A Peach Cobbler Mystery","year":"2016-01-10","translations":["Профессиональный (многоголосый закадровый)"],"quality":"sat","translation":"Профессиональный (многоголосый закадровый)","update":"2019-08-11 08:07:52","iframe_src":"//5322.svetacdn.in/IAF0wWTdNYZm/movie/29878"},{"id":29877,"title":"Чужая жена","kp_id":"571975","imdb_id":"tt1753444","world_art_id":null,"type":"movie","add":"2019-08-09 10:22:44","orig_title":"Another Man's Wife","year":"2011-05-22","translations":["Профессиональный (многоголосый закадровый) (РенТВ)"],"quality":"webdl","translation":"Профессиональный (многоголосый закадровый) (РенТВ)","update":"2019-08-11 08:08:11","iframe_src":"//5322.svetacdn.in/IAF0wWTdNYZm/movie/29877"},{"id":29876,"title":"Леннон. Репортаж","kp_id":"868993","imdb_id":"tt3856300","world_art_id":null,"type":"movie","add":"2019-08-09 10:20:23","orig_title":"The Lennon Report","year":"2016-04-06","translations":["Профессиональный (многоголосый закадровый)"],"quality":"webdl","translation":"Профессиональный (многоголосый закадровый)","update":"2019-08-11 08:06:32","iframe_src":"//5322.svetacdn.in/IAF0wWTdNYZm/movie/29876"},{"id":29756,"title":"История «О» 2: Возвращение в Руасси","kp_id":"59258","imdb_id":"tt0087412","world_art_id":null,"type":"movie","add":"2019-08-05 11:18:13","orig_title":"Histoire d'O: Chapitre 2","year":"1984-08-08","translations":["Профессиональный (многоголосый закадровый)"],"quality":"dvdrip","translation":"Профессиональный (многоголосый закадровый)","update":"2019-08-11 08:13:57","iframe_src":"//5322.svetacdn.in/IAF0wWTdNYZm/movie/29756"},{"id":27740,"title":"Норм и Несокрушимые: Большое путешествие","kp_id":"1220182","imdb_id":"tt9428190","world_art_id":null,"type":"movie","add":"2019-06-13 06:11:07","orig_title":"Norm of the North: King Sized Adventure","year":"2019-06-11","translations":["Полное дублирование"],"quality":"webdl","translation":"Полное дублирование","update":"2019-08-12 04:58:55","iframe_src":"//5322.svetacdn.in/IAF0wWTdNYZm/movie/27740"},{"id":23665,"title":"Дамбо","kp_id":"841636","imdb_id":"tt3861390","world_art_id":null,"type":"movie","add":"2019-03-30 15:50:21","orig_title":"Dumbo","year":"2019-03-11","translations":["Полное дублирование","Original (English)"],"quality":"bd","translation":"Полное дублирование","update":"2019-08-11 06:19:27","iframe_src":"//5322.svetacdn.in/IAF0wWTdNYZm/movie/23665"},{"id":10961,"title":"Изгнанные из Рая","kp_id":"760080","imdb_id":"tt2859246","world_art_id":null,"type":"movie","add":"2017-04-13 21:58:18","orig_title":"Rakuen Tsuiho: Expelled from Paradise","year":"2014-11-15","translations":["Полное дублирование"],"quality":"bd","translation":"Полное дублирование","update":"2019-08-11 08:03:31","iframe_src":"//5322.svetacdn.in/IAF0wWTdNYZm/movie/10961"},{"id":2333,"title":"Человек, который хотел жить по-своему","kp_id":"484648","imdb_id":"tt1533818","world_art_id":null,"type":"movie","add":"2016-05-19 05:37:22","orig_title":"L'homme qui voulait vivre sa vie","year":"2010-11-03","translations":["Профессиональный (многоголосый закадровый)","Любительский (двухголосый закадровый)"],"quality":"bd","translation":"Профессиональный (многоголосый закадровый)","update":"2019-08-12 05:08:34","iframe_src":"//5322.svetacdn.in/IAF0wWTdNYZm/movie/2333"},{"id":1398,"title":"Пила 6","kp_id":"414547","imdb_id":"tt1233227","world_art_id":null,"type":"movie","add":"2016-04-21 09:44:43","orig_title":"Saw VI","year":"2009-10-22","translations":["Полное дублирование","Original (English)"],"quality":"bd","translation":"Полное дублирование","update":"2019-08-11 06:07:16","iframe_src":"//5322.svetacdn.in/IAF0wWTdNYZm/movie/1398"}],"current_page":1216,"first_page_url":"https://videocdn.tv/api/short?limit=100&api_token=6Onb1W1alEUrBcKJZD3GoKBbWyAl2uG2&cache31216=31216&page=1","from":121501,"last_page":625,"last_page_url":"https://videocdn.tv/api/short?limit=100&api_token=6Onb1W1alEUrBcKJZD3GoKBbWyAl2uG2&cache31216=31216&page=625","next_page_url":null,"path":"https://videocdn.tv/api/short","per_page":100,"prev_page_url":"https://videocdn.tv/api/short?limit=100&api_token=6Onb1W1alEUrBcKJZD3GoKBbWyAl2uG2&cache31216=31216&page=1215","to":121520,"total":62452}