{"result":true,"data":[{"id":43995,"title":"Как дома, как дела?","kp_id":"44675","imdb_id":"tt0298951","world_art_id":null,"type":"movie","add":"2020-09-30 07:27:05","orig_title":"Kak doma, kak dela?","year":"1987-05-28","translations":["Оригинальная дорожка"],"quality":"tv","translation":"Оригинальная дорожка","update":"2020-09-30 08:30:48","iframe_src":"//83.svetacdn.in/PfJ50H0ZBPg3/movie/43995"},{"id":43991,"title":"Любит, не любит","kp_id":"1216532","imdb_id":"tt9331550","world_art_id":null,"type":"movie","add":"2020-09-29 21:27:31","orig_title":"Loves Me, Loves Me Not","year":"2019-06-15","translations":["Любительский (многоголосый закадровый) (@MUZOBOZ@)"],"quality":"webdl","translation":"Любительский (многоголосый закадровый) (@MUZOBOZ@)","update":"2020-09-30 08:41:31","iframe_src":"//83.svetacdn.in/PfJ50H0ZBPg3/movie/43991"},{"id":42616,"title":"Абсолютно точно","kp_id":"1590","imdb_id":"tt0090103","world_art_id":null,"type":"movie","add":"2020-08-20 17:42:20","orig_title":"The Sure Thing","year":"1985-02-09","translations":["Профессиональный (двухголосый закадровый) (Elrom)","Original (English)"],"quality":"bd","translation":"Профессиональный (двухголосый закадровый) (Elrom)","update":"2020-09-30 07:38:41","iframe_src":"//83.svetacdn.in/PfJ50H0ZBPg3/movie/42616"},{"id":42603,"title":"Кровавая акула","kp_id":"8380","imdb_id":"tt0088100","world_art_id":null,"type":"movie","add":"2020-08-20 17:17:58","orig_title":"Shark: Rosso nell'oceano","year":"1984-09-07","translations":["Любительский (одноголосый закадровый)","Original (English)"],"quality":"bd","translation":"Любительский (одноголосый закадровый)","update":"2020-09-30 07:48:48","iframe_src":"//83.svetacdn.in/PfJ50H0ZBPg3/movie/42603"},{"id":42600,"title":"Малыш-мотоциклист","kp_id":"47712","imdb_id":"tt0090948","world_art_id":null,"type":"movie","add":"2020-08-20 17:04:46","orig_title":"The Dirt Bike Kid","year":"1985-11-01","translations":["Авторский (одноголосый закадровый) (Живов Юрий)","Original (English)"],"quality":"bd","translation":"Авторский (одноголосый закадровый) (Живов Юрий)","update":"2020-09-30 07:39:54","iframe_src":"//83.svetacdn.in/PfJ50H0ZBPg3/movie/42600"},{"id":42599,"title":"Окраплённый университет","kp_id":"78269","imdb_id":"tt0125510","world_art_id":null,"type":"movie","add":"2020-08-20 17:03:39","orig_title":"Splatter University","year":"1984-07-13","translations":["Авторский (одноголосый закадровый) (Дольский Андрей)","Original (English)"],"quality":"bd","translation":"Авторский (одноголосый закадровый) (Дольский Андрей)","update":"2020-09-30 07:40:51","iframe_src":"//83.svetacdn.in/PfJ50H0ZBPg3/movie/42599"},{"id":42598,"title":"Болезнь роста","kp_id":"12346","imdb_id":"tt0087366","world_art_id":null,"type":"movie","add":"2020-08-20 17:02:26","orig_title":"Growing Pains","year":"1984-11-01","translations":["Авторский (одноголосый закадровый) (Живов Юрий)","Original (English)"],"quality":"bd","translation":"Авторский (одноголосый закадровый) (Живов Юрий)","update":"2020-09-30 07:46:42","iframe_src":"//83.svetacdn.in/PfJ50H0ZBPg3/movie/42598"},{"id":42515,"title":"Свирепая планета","kp_id":"543473","imdb_id":"tt1637728","world_art_id":null,"type":"movie","add":"2020-08-16 18:33:05","orig_title":"Ferocious Planet","year":"2011-04-09","translations":["Профессиональный (многоголосый закадровый) (ТВ3)","Любительский (двухголосый закадровый) (Jetvis Studio)","Original (English)"],"quality":"bd","translation":"Профессиональный (многоголосый закадровый) (ТВ3)","update":"2020-09-30 07:47:29","iframe_src":"//83.svetacdn.in/PfJ50H0ZBPg3/movie/42515"},{"id":42509,"title":"Майкл Джексон: Жизнь поп-иконы","kp_id":"626829","imdb_id":"tt2113007","world_art_id":null,"type":"movie","add":"2020-08-16 16:03:28","orig_title":"Michael Jackson: The Life of an Icon","year":"2011-11-02","translations":["Профессиональный (многоголосый закадровый)","Original (English)"],"quality":"bd","translation":"Профессиональный (многоголосый закадровый)","update":"2020-09-30 07:42:22","iframe_src":"//83.svetacdn.in/PfJ50H0ZBPg3/movie/42509"},{"id":42508,"title":"Генри Пул уже здесь","kp_id":"325394","imdb_id":"tt1029120","world_art_id":null,"type":"movie","add":"2020-08-16 16:02:00","orig_title":"Henry Poole Is Here","year":"2008-01-21","translations":["Профессиональный (многоголосый закадровый)","Original (English)"],"quality":"bd","translation":"Профессиональный (многоголосый закадровый)","update":"2020-09-30 07:45:44","iframe_src":"//83.svetacdn.in/PfJ50H0ZBPg3/movie/42508"},{"id":42507,"title":"Следы преступления","kp_id":"171810","imdb_id":"tt0470993","world_art_id":null,"type":"movie","add":"2020-08-16 16:00:43","orig_title":"Crazy Eights","year":"2006-10-31","translations":["Профессиональный (многоголосый закадровый)","Original (English)"],"quality":"bd","translation":"Профессиональный (многоголосый закадровый)","update":"2020-09-30 07:51:02","iframe_src":"//83.svetacdn.in/PfJ50H0ZBPg3/movie/42507"},{"id":42444,"title":"Кельтские саги: Охотник за костями","kp_id":"195458","imdb_id":"tt0459220","world_art_id":null,"type":"movie","add":"2020-08-13 07:10:26","orig_title":"The Bone Hunter","year":"2003-01-01","translations":["Профессиональный (многоголосый закадровый)","Original (English)"],"quality":"dvdrip","translation":"Профессиональный (многоголосый закадровый)","update":"2020-09-30 07:37:48","iframe_src":"//83.svetacdn.in/PfJ50H0ZBPg3/movie/42444"},{"id":42443,"title":"Кельтские саги","kp_id":"23063","imdb_id":"tt0312032","world_art_id":null,"type":"movie","add":"2020-08-13 07:08:01","orig_title":"The Winter Warrior","year":"2003-05-15","translations":["Профессиональный (многоголосый закадровый)","Original (English)"],"quality":"dvdrip","translation":"Профессиональный (многоголосый закадровый)","update":"2020-09-30 07:36:45","iframe_src":"//83.svetacdn.in/PfJ50H0ZBPg3/movie/42443"},{"id":42353,"title":"Банда ангелов","kp_id":"15685","imdb_id":"tt0050166","world_art_id":null,"type":"movie","add":"2020-08-07 12:16:29","orig_title":"Band of Angels","year":"1957-08-03","translations":["Профессиональный (многоголосый закадровый) (СВ-Дубль)","Original (English)"],"quality":"webdl","translation":"Профессиональный (многоголосый закадровый) (СВ-Дубль)","update":"2020-09-30 07:34:46","iframe_src":"//83.svetacdn.in/PfJ50H0ZBPg3/movie/42353"},{"id":42351,"title":"Карающий","kp_id":"38495","imdb_id":"tt0281811","world_art_id":null,"type":"movie","add":"2020-08-07 12:13:29","orig_title":"Disaster","year":"2003-04-17","translations":["Авторский (одноголосый закадровый) (Сербин Юрий)","Original (English)"],"quality":"webdl","translation":"Авторский (одноголосый закадровый) (Сербин Юрий)","update":"2020-09-30 07:25:27","iframe_src":"//83.svetacdn.in/PfJ50H0ZBPg3/movie/42351"},{"id":42350,"title":"Грохот барабанов","kp_id":"13600","imdb_id":"tt0055524","world_art_id":null,"type":"movie","add":"2020-08-07 12:10:37","orig_title":"A Thunder of Drums","year":"1961-09-26","translations":["Авторский (одноголосый закадровый) (Алексеев Антон)","Original (English)"],"quality":"webdl","translation":"Авторский (одноголосый закадровый) (Алексеев Антон)","update":"2020-09-30 07:35:46","iframe_src":"//83.svetacdn.in/PfJ50H0ZBPg3/movie/42350"},{"id":5019,"title":"В последний миг","kp_id":"412346","imdb_id":"tt1118697","world_art_id":null,"type":"serial","add":"2019-08-12 13:04:27","orig_title":"Eleventh Hour","year":"2008-10-09","translations":["Профессиональный (многоголосый закадровый) (Syfy Universal)"],"seasons_count":1,"episodes_count":18,"episodes":18,"update":"2019-08-13 13:02:35","iframe_src":"//83.svetacdn.in/PfJ50H0ZBPg3/tv-series/5019"},{"id":5018,"title":"Дыши со мной 2","kp_id":"586319","imdb_id":null,"world_art_id":null,"type":"serial","add":"2019-08-09 18:34:14","orig_title":"Дыши со мной 2","year":"2012-03-27","translations":["Оригинальная дорожка"],"seasons_count":1,"episodes_count":14,"episodes":14,"update":"2019-08-10 13:03:33","iframe_src":"//83.svetacdn.in/PfJ50H0ZBPg3/tv-series/5018"},{"id":5016,"title":"Женщины в игре","kp_id":"820691","imdb_id":"tt3476980","world_art_id":null,"type":"serial","add":"2019-08-09 10:51:34","orig_title":"Donne in gioco","year":"2013-03-26","translations":["Профессиональный (многоголосый закадровый) (Eurochannel)"],"seasons_count":1,"episodes_count":2,"episodes":2,"update":"2019-08-09 20:22:38","iframe_src":"//83.svetacdn.in/PfJ50H0ZBPg3/tv-series/5016"},{"id":5014,"title":"Яго, темная страсть","kp_id":"256516","imdb_id":"tt0287284","world_art_id":null,"type":"serial","add":"2019-08-08 22:54:35","orig_title":"Yago, pasión morena","year":"2001-01-01","translations":["Профессиональный (многоголосый закадровый)"],"seasons_count":1,"episodes_count":160,"episodes":160,"update":"2019-08-09 21:40:42","iframe_src":"//83.svetacdn.in/PfJ50H0ZBPg3/tv-series/5014"},{"id":5012,"title":"Расскажи мне, как любить","kp_id":"1006735","imdb_id":"tt5988466","world_art_id":null,"type":"serial","add":"2019-08-08 11:42:47","orig_title":"Bana Sevmeyi Anlat","year":"2016-08-26","translations":["Профессиональный (многоголосый закадровый)"],"seasons_count":1,"episodes_count":22,"episodes":22,"update":"2019-08-12 07:24:55","iframe_src":"//83.svetacdn.in/PfJ50H0ZBPg3/tv-series/5012"},{"id":5011,"title":"Принцесса цирка","kp_id":"405517","imdb_id":"tt3965072","world_art_id":null,"type":"serial","add":"2019-08-08 06:45:54","orig_title":"Printsessa tsirka","year":"2008-01-28","translations":["Оригинальная дорожка"],"seasons_count":1,"episodes_count":115,"episodes":115,"update":"2019-08-12 13:44:19","iframe_src":"//83.svetacdn.in/PfJ50H0ZBPg3/tv-series/5011"},{"id":5007,"title":"Монстры","kp_id":"295012","imdb_id":"tt0094512","world_art_id":null,"type":"serial","add":"2019-08-07 18:57:08","orig_title":"Monsters","year":"1988-10-22","translations":["Авторский (одноголосый закадровый) (Воронцов Владимир | Доцент)"],"seasons_count":3,"episodes_count":72,"episodes":24,"update":"2019-08-09 11:11:54","iframe_src":"//83.svetacdn.in/PfJ50H0ZBPg3/tv-series/5007"},{"id":5000,"title":"Прислуга","kp_id":"1118169","imdb_id":null,"world_art_id":null,"type":"serial","add":"2019-08-06 10:15:15","orig_title":"Прислуга","year":"2018-04-10","translations":["Оригинальная дорожка"],"seasons_count":1,"episodes_count":12,"episodes":12,"update":"2019-08-08 16:30:50","iframe_src":"//83.svetacdn.in/PfJ50H0ZBPg3/tv-series/5000"},{"id":4982,"title":"Болек и Лёлек","kp_id":"95239","imdb_id":"tt0146370","world_art_id":null,"type":"serial","add":"2019-08-01 09:49:34","orig_title":"Bolek i Lolek","year":"1963-01-01","translations":["Полное дублирование"],"seasons_count":12,"episodes_count":182,"episodes":9,"update":"2019-08-09 12:25:54","iframe_src":"//83.svetacdn.in/PfJ50H0ZBPg3/tv-series/4982"},{"id":4955,"title":"Никита","kp_id":"497178","imdb_id":"tt1592154","world_art_id":null,"type":"serial","add":"2019-07-27 14:53:30","orig_title":"Nikita","year":"2010-09-09","translations":["Профессиональный (двухголосый закадровый) (NewStudio)","Профессиональный (двухголосый закадровый) (New Dream Media)"],"seasons_count":4,"episodes_count":73,"episodes":12,"update":"2019-08-09 07:51:43","iframe_src":"//83.svetacdn.in/PfJ50H0ZBPg3/tv-series/4955"},{"id":4953,"title":"Я существую","kp_id":"1244556","imdb_id":"tt9165134","world_art_id":null,"type":"serial","add":"2019-07-26 11:40:09","orig_title":"I Am","year":"2019-07-23","translations":["Профессиональный (многоголосый закадровый) (TUMBLER Studio)"],"seasons_count":1,"episodes_count":3,"episodes":3,"update":"2019-08-09 20:26:20","iframe_src":"//83.svetacdn.in/PfJ50H0ZBPg3/tv-series/4953"},{"id":4950,"title":"Мутанты черепашки ниндзя. Новые приключения!","kp_id":"421422","imdb_id":"tt0318913","world_art_id":null,"type":"serial","add":"2019-07-26 09:25:23","orig_title":"Teenage Mutant Ninja Turtles","year":"2003-02-08","translations":["Полное дублирование","Профессиональный (многоголосый закадровый)","Профессиональный (одноголосый закадровый)"],"seasons_count":7,"episodes_count":155,"episodes":13,"update":"2019-08-08 09:26:42","iframe_src":"//83.svetacdn.in/PfJ50H0ZBPg3/tv-series/4950"},{"id":4764,"title":"Спецкор отдела расследований","kp_id":"466553","imdb_id":null,"world_art_id":null,"type":"serial","add":"2019-06-28 19:48:01","orig_title":"Спецкор отдела расследований","year":"2009-01-01","translations":["Оригинальная дорожка"],"seasons_count":1,"episodes_count":8,"episodes":8,"update":"2019-08-09 11:47:52","iframe_src":"//83.svetacdn.in/PfJ50H0ZBPg3/tv-series/4764"},{"id":4593,"title":"Машкины страшилки","kp_id":"891359","imdb_id":"tt4570676","world_art_id":null,"type":"serial","add":"2019-05-31 12:28:49","orig_title":"Mashkiny strashilki","year":"2015-02-20","translations":["Оригинальная дорожка"],"seasons_count":1,"episodes_count":26,"episodes":26,"update":"2019-08-08 10:37:08","iframe_src":"//83.svetacdn.in/PfJ50H0ZBPg3/tv-series/4593"},{"id":4589,"title":"Зона","kp_id":"252537","imdb_id":"tt0806000","world_art_id":null,"type":"serial","add":"2019-05-31 10:56:14","orig_title":"Zona","year":"2006-01-16","translations":["Оригинальная дорожка"],"seasons_count":1,"episodes_count":50,"episodes":60,"update":"2019-08-09 14:33:00","iframe_src":"//83.svetacdn.in/PfJ50H0ZBPg3/tv-series/4589"},{"id":4079,"title":"Зеркало жизни","kp_id":"1170606","imdb_id":"tt8598038","world_art_id":null,"type":"serial","add":"2019-02-15 10:00:07","orig_title":"Espelho da Vida","year":"2018-09-25","translations":["Любительский (двухголосый закадровый) (AveBrasil)"],"seasons_count":1,"episodes_count":115,"episodes":115,"update":"2019-08-12 06:11:47","iframe_src":"//83.svetacdn.in/PfJ50H0ZBPg3/tv-series/4079"},{"id":3100,"title":"Ранняя пташка","kp_id":"1162885","imdb_id":"tt8478162","world_art_id":null,"type":"serial","add":"2018-08-29 18:59:49","orig_title":"Erkenci Kus","year":"2018-06-26","translations":["Любительский (двухголосый закадровый)"],"seasons_count":1,"episodes_count":51,"episodes":51,"update":"2019-08-08 15:33:44","iframe_src":"//83.svetacdn.in/PfJ50H0ZBPg3/tv-series/3100"},{"id":2797,"title":"Экли Бридж","kp_id":"1173321","imdb_id":"tt6636246","world_art_id":null,"type":"serial","add":"2018-06-12 11:18:30","orig_title":"Ackley Bridge","year":"2017-06-07","translations":["Любительский (двухголосый закадровый) (Sunshine Studio)","Профессиональный (двухголосый закадровый) (TUMBLER Studio)"],"seasons_count":3,"episodes_count":26,"episodes":8,"update":"2019-08-11 08:04:34","iframe_src":"//83.svetacdn.in/PfJ50H0ZBPg3/tv-series/2797"},{"id":13798,"title":"Холодная Луна","kp_id":"893547","imdb_id":"tt4441098","world_art_id":null,"type":"movie","add":"2017-10-09 22:57:36","orig_title":"Cold Moon","year":"2016-05-27","translations":["Любительский (многоголосый закадровый) (Синема УС)","Любительский (многоголосый закадровый) (@MUZOBOZ@)","Original (English)"],"quality":"webdl","translation":"Любительский (многоголосый закадровый) (Синема УС)","update":"2020-09-30 07:27:30","iframe_src":"//83.svetacdn.in/PfJ50H0ZBPg3/movie/13798"},{"id":12278,"title":"Непостижимое","kp_id":"820889","imdb_id":"tt3481634","world_art_id":null,"type":"movie","add":"2017-07-03 21:31:02","orig_title":"Inconceivable","year":"2017-06-30","translations":["Любительский (многоголосый закадровый) (@MUZOBOZ@)","Профессиональный (многоголосый закадровый) (GreenРай Studio)","Полное дублирование (iTunes)","Original (English)"],"quality":"bd","translation":"Любительский (многоголосый закадровый) (@MUZOBOZ@)","update":"2020-09-30 07:44:14","iframe_src":"//83.svetacdn.in/PfJ50H0ZBPg3/movie/12278"},{"id":10965,"title":"Серые небеса","kp_id":"495183","imdb_id":"tt1568332","world_art_id":null,"type":"movie","add":"2017-04-13 22:06:04","orig_title":"Grey Skies","year":"2010-04-13","translations":["Профессиональный (многоголосый закадровый)","Профессиональный (многоголосый закадровый)","Original (English)"],"quality":"sat","translation":"Профессиональный (многоголосый закадровый)","update":"2020-09-30 07:24:18","iframe_src":"//83.svetacdn.in/PfJ50H0ZBPg3/movie/10965"},{"id":1172,"title":"Я – зомби","kp_id":"824275","imdb_id":"tt3501584","world_art_id":null,"type":"serial","add":"2017-04-07 10:29:43","orig_title":"iZombie","year":"2015-03-17","translations":["Профессиональный (многоголосый закадровый) (NewStudio)"],"seasons_count":5,"episodes_count":71,"episodes":13,"update":"2019-08-11 14:11:25","iframe_src":"//83.svetacdn.in/PfJ50H0ZBPg3/tv-series/1172"},{"id":691,"title":"Звезда","kp_id":"944018","imdb_id":"tt4941240","world_art_id":null,"type":"serial","add":"2016-12-15 07:27:04","orig_title":"Star","year":"2016-12-14","translations":["Профессиональный (многоголосый закадровый) (ColdFilm)","Профессиональный (многоголосый закадровый) (FOX)","Любительский (многоголосый закадровый) (ColdFilm)","Профессиональный (многоголосый закадровый) (BaibaKo)","Профессиональный (многоголосый закадровый) (Jaskier)"],"seasons_count":3,"episodes_count":48,"episodes":18,"update":"2019-08-13 08:01:24","iframe_src":"//83.svetacdn.in/PfJ50H0ZBPg3/tv-series/691"},{"id":3379,"title":"Ангелы Чарли 2: Только вперед","kp_id":"1795","imdb_id":"tt0305357","world_art_id":null,"type":"movie","add":"2016-06-27 10:05:18","orig_title":"Charlie's Angels: Full Throttle","year":"2003-06-18","translations":["Полное дублирование","Полное дублирование","Original (English)"],"quality":"bd","translation":"Полное дублирование","update":"2020-09-30 07:29:39","iframe_src":"//83.svetacdn.in/PfJ50H0ZBPg3/movie/3379"}],"current_page":313,"first_page_url":"https://videocdn.tv/api/short?limit=100&api_token=RgFQdUIR2dRmwv8iYa5SnFNgnw3vpjKj&cache3313=3313&page=1","from":31201,"last_page":601,"last_page_url":"https://videocdn.tv/api/short?limit=100&api_token=RgFQdUIR2dRmwv8iYa5SnFNgnw3vpjKj&cache3313=3313&page=601","next_page_url":"https://videocdn.tv/api/short?limit=100&api_token=RgFQdUIR2dRmwv8iYa5SnFNgnw3vpjKj&cache3313=3313&page=314","path":"https://videocdn.tv/api/short","per_page":100,"prev_page_url":"https://videocdn.tv/api/short?limit=100&api_token=RgFQdUIR2dRmwv8iYa5SnFNgnw3vpjKj&cache3313=3313&page=312","to":31240,"total":60013}