{"result":true,"data":[{"id":42525,"title":"Тяжкий груз","kp_id":"1207847","imdb_id":"tt8960572","world_art_id":null,"type":"movie","add":"2020-08-17 08:53:30","orig_title":"Selvhenter","year":"2019-03-07","translations":["Любительский (многоголосый закадровый) (Синема УС)"],"quality":"bd","translation":"Любительский (многоголосый закадровый) (Синема УС)","update":"2020-08-17 12:07:18","iframe_src":"//5091.svetacdn.in/71tsRs29n5tZ/movie/42525"},{"id":42524,"title":"Деревенский жених","kp_id":"1218232","imdb_id":"tt9358486","world_art_id":null,"type":"movie","add":"2020-08-17 08:33:42","orig_title":"Como Novio de Pueblo","year":"2019-03-15","translations":["Любительский (многоголосый закадровый) (AlphaProject)"],"quality":"webdl","translation":"Любительский (многоголосый закадровый) (AlphaProject)","update":"2020-08-17 12:05:57","iframe_src":"//5091.svetacdn.in/71tsRs29n5tZ/movie/42524"},{"id":42523,"title":"Смерть идёт по пятам","kp_id":"1014982","imdb_id":"tt5906994","world_art_id":null,"type":"movie","add":"2020-08-17 08:31:00","orig_title":"Death Follows","year":"2020-01-15","translations":["Любительский (многоголосый закадровый) (Синема УС)"],"quality":"webdl","translation":"Любительский (многоголосый закадровый) (Синема УС)","update":"2020-08-17 12:11:18","iframe_src":"//5091.svetacdn.in/71tsRs29n5tZ/movie/42523"},{"id":42522,"title":"Охотники на упырей","kp_id":"1299940","imdb_id":"tt10383944","world_art_id":null,"type":"movie","add":"2020-08-17 08:24:43","orig_title":"Ghoul Catchers","year":"2019-06-01","translations":["Любительский (многоголосый закадровый) (Синема УС)"],"quality":"webdl","translation":"Любительский (многоголосый закадровый) (Синема УС)","update":"2020-08-17 12:10:11","iframe_src":"//5091.svetacdn.in/71tsRs29n5tZ/movie/42522"},{"id":42520,"title":"Давно прошедшее","kp_id":"1175476","imdb_id":"tt8699310","world_art_id":null,"type":"movie","add":"2020-08-17 08:18:40","orig_title":"Long Gone By","year":"2020-06-01","translations":["Любительский (многоголосый закадровый) (Синема УС)"],"quality":"webdl","translation":"Любительский (многоголосый закадровый) (Синема УС)","update":"2020-08-17 12:03:28","iframe_src":"//5091.svetacdn.in/71tsRs29n5tZ/movie/42520"},{"id":42519,"title":"Магнетическое притяжение","kp_id":null,"imdb_id":"tt9458116","world_art_id":null,"type":"movie","add":"2020-08-17 08:16:24","orig_title":"Magnetic","year":"2018-11-30","translations":["Любительский (многоголосый закадровый) (Синема УС)"],"quality":"webdl","translation":"Любительский (многоголосый закадровый) (Синема УС)","update":"2020-08-17 12:01:49","iframe_src":"//5091.svetacdn.in/71tsRs29n5tZ/movie/42519"},{"id":42518,"title":"Нимбе: Фильм","kp_id":"1196559","imdb_id":"tt8718112","world_art_id":null,"type":"movie","add":"2020-08-17 08:07:38","orig_title":"Nimbe: The Movie","year":"2020-03-29","translations":["Любительский (многоголосый закадровый) (Синема УС)"],"quality":"webdl","translation":"Любительский (многоголосый закадровый) (Синема УС)","update":"2020-08-17 12:00:33","iframe_src":"//5091.svetacdn.in/71tsRs29n5tZ/movie/42518"},{"id":42517,"title":"Романтика в воздухе","kp_id":"1390937","imdb_id":"tt12587514","world_art_id":null,"type":"movie","add":"2020-08-17 08:03:51","orig_title":"Romance in the Air","year":"2020-08-01","translations":["Любительский (многоголосый закадровый) (AlphaProject)"],"quality":"hdtv","translation":"Любительский (многоголосый закадровый) (AlphaProject)","update":"2020-08-17 11:57:25","iframe_src":"//5091.svetacdn.in/71tsRs29n5tZ/movie/42517"},{"id":42516,"title":"Чёрная полоса","kp_id":"1216913","imdb_id":"tt9356440","world_art_id":null,"type":"movie","add":"2020-08-17 07:55:42","orig_title":"Temps de Chien!","year":"2019-09-14","translations":["Любительский (многоголосый закадровый) (Синема УС)"],"quality":"webdl","translation":"Любительский (многоголосый закадровый) (Синема УС)","update":"2020-08-17 11:56:53","iframe_src":"//5091.svetacdn.in/71tsRs29n5tZ/movie/42516"},{"id":42503,"title":"Лорик","kp_id":"1144197","imdb_id":"tt8215408","world_art_id":null,"type":"movie","add":"2020-08-16 15:55:38","orig_title":"Lorik","year":"2018-07-13","translations":["Профессиональный (одноголосый закадровый)"],"quality":"webdl","translation":"Профессиональный (одноголосый закадровый)","update":"2020-08-17 07:58:37","iframe_src":"//5091.svetacdn.in/71tsRs29n5tZ/movie/42503"},{"id":42502,"title":"Дети как дети","kp_id":"273157","imdb_id":"tt0166165","world_art_id":null,"type":"movie","add":"2020-08-16 15:54:19","orig_title":"Deti kak deti","year":"1980-10-22","translations":["Оригинальная дорожка"],"quality":"hdtv","translation":"Оригинальная дорожка","update":"2020-08-17 08:00:10","iframe_src":"//5091.svetacdn.in/71tsRs29n5tZ/movie/42502"},{"id":42501,"title":"Виртуальный роман","kp_id":"280902","imdb_id":"tt12600906","world_art_id":null,"type":"movie","add":"2020-08-16 15:52:46","orig_title":"Virtualnyy roman","year":"2006-01-01","translations":["Оригинальная дорожка"],"quality":"dvb","translation":"Оригинальная дорожка","update":"2020-08-17 08:01:48","iframe_src":"//5091.svetacdn.in/71tsRs29n5tZ/movie/42501"},{"id":42499,"title":"Повар-вор","kp_id":"81100","imdb_id":"tt0407617","world_art_id":null,"type":"movie","add":"2020-08-16 15:42:11","orig_title":"C(r)ook","year":"2004-10-29","translations":["Полное дублирование"],"quality":"dvdrip","translation":"Полное дублирование","update":"2020-08-17 08:05:17","iframe_src":"//5091.svetacdn.in/71tsRs29n5tZ/movie/42499"},{"id":42497,"title":"Остров личинок","kp_id":null,"imdb_id":"tt12588448","world_art_id":null,"type":"movie","add":"2020-08-16 15:37:38","orig_title":"The Larva Island Movie","year":"2020-07-23","translations":["Любительский (двухголосый закадровый) (OnisFilms)"],"quality":"webdl","translation":"Любительский (двухголосый закадровый) (OnisFilms)","update":"2020-08-17 08:11:16","iframe_src":"//5091.svetacdn.in/71tsRs29n5tZ/movie/42497"},{"id":42496,"title":"Охотники на демонов","kp_id":"1398299","imdb_id":"tt12794428","world_art_id":null,"type":"movie","add":"2020-08-16 15:34:23","orig_title":"Monster Hunters","year":"2020-07-26","translations":["Любительский (одноголосый закадровый) (Береговых Виктор | Jet)"],"quality":"webdl","translation":"Любительский (одноголосый закадровый) (Береговых Виктор | Jet)","update":"2020-08-17 08:13:03","iframe_src":"//5091.svetacdn.in/71tsRs29n5tZ/movie/42496"},{"id":42495,"title":"Беглец","kp_id":"568466","imdb_id":"tt1727258","world_art_id":null,"type":"movie","add":"2020-08-16 15:32:10","orig_title":"Escapee","year":"2011-09-02","translations":["Любительский (одноголосый закадровый) (den904)","Original (English)"],"quality":"dvdrip","translation":"Любительский (одноголосый закадровый) (den904)","update":"2020-08-17 08:07:22","iframe_src":"//5091.svetacdn.in/71tsRs29n5tZ/movie/42495"},{"id":42454,"title":"Ивановъ","kp_id":"471866","imdb_id":"tt2890340","world_art_id":null,"type":"movie","add":"2020-08-14 07:03:16","orig_title":"Ivanov","year":"2010-05-26","translations":["Оригинальная дорожка"],"quality":"hdtv","translation":"Оригинальная дорожка","update":"2020-08-18 04:51:19","iframe_src":"//5091.svetacdn.in/71tsRs29n5tZ/movie/42454"},{"id":25896,"title":"Семь верст до небес","kp_id":"655466","imdb_id":null,"world_art_id":null,"type":"movie","add":"2019-05-03 20:09:04","orig_title":"Семь верст до небес","year":"2011-12-25","translations":["Оригинальная дорожка","Оригинальная дорожка"],"quality":"sat","translation":"Оригинальная дорожка","update":"2020-08-17 08:42:00","iframe_src":"//5091.svetacdn.in/71tsRs29n5tZ/movie/25896"},{"id":24850,"title":"Мой друг мистер Персиваль","kp_id":"809823","imdb_id":"tt3340446","world_art_id":null,"type":"movie","add":"2019-04-18 20:37:03","orig_title":"Storm Boy","year":"2019-01-06","translations":["Профессиональный (многоголосый закадровый) (HDrezka Studio)","Полное дублирование"],"quality":"bd","translation":"Профессиональный (многоголосый закадровый) (HDrezka Studio)","update":"2020-08-17 13:46:53","iframe_src":"//5091.svetacdn.in/71tsRs29n5tZ/movie/24850"},{"id":18574,"title":"Лето 84","kp_id":"1045081","imdb_id":"tt5774450","world_art_id":null,"type":"movie","add":"2018-08-26 23:12:32","orig_title":"Summer of 84","year":"2018-01-22","translations":["Любительский (многоголосый закадровый) (Синема УС)","Любительский (двухголосый закадровый)","Профессиональный (многоголосый закадровый) (GreenРай Studio)","Профессиональный (многоголосый закадровый) (HDrezka Studio)","Профессиональный (многоголосый закадровый) (Jaskier)","Полное дублирование (iTunes)","Профессиональный (многоголосый закадровый) (HDrezka Studio)"],"quality":"webdl","translation":"Любительский (многоголосый закадровый) (Синема УС)","update":"2020-08-17 15:01:58","iframe_src":"//5091.svetacdn.in/71tsRs29n5tZ/movie/18574"}],"current_page":740,"first_page_url":"https://videocdn.tv/api/short?limit=100&api_token=EnbO9h8pv1VyjbCJhg0WM9nG259n7mtz&cache3740=3740&page=1","from":73901,"last_page":666,"last_page_url":"https://videocdn.tv/api/short?limit=100&api_token=EnbO9h8pv1VyjbCJhg0WM9nG259n7mtz&cache3740=3740&page=666","next_page_url":null,"path":"https://videocdn.tv/api/short","per_page":100,"prev_page_url":"https://videocdn.tv/api/short?limit=100&api_token=EnbO9h8pv1VyjbCJhg0WM9nG259n7mtz&cache3740=3740&page=739","to":73920,"total":66521}