{"result":true,"data":[{"id":27961,"title":"Сквозь темное стекло","kp_id":"969869","imdb_id":"tt5545374","world_art_id":null,"type":"movie","add":"2019-06-18 09:49:57","orig_title":"Through Dark Glass","year":"2016-01-01","translations":["Любительский (многоголосый закадровый) (Колобок)"],"quality":"webdl","translation":"Любительский (многоголосый закадровый) (Колобок)","update":"2019-06-19 07:08:53","iframe_src":"//8543.svetacdn.in/71tsRs29n5tZ/movie/27961"},{"id":27956,"title":"Одиночки","kp_id":"1022087","imdb_id":"tt5669056","world_art_id":null,"type":"movie","add":"2019-06-18 09:39:53","orig_title":"Loners","year":"2018-08-02","translations":["Любительский (многоголосый закадровый) (Синема УС)"],"quality":"webdl","translation":"Любительский (многоголосый закадровый) (Синема УС)","update":"2019-06-19 06:59:58","iframe_src":"//8543.svetacdn.in/71tsRs29n5tZ/movie/27956"},{"id":27951,"title":"Русский путь","kp_id":"1164090","imdb_id":null,"world_art_id":null,"type":"movie","add":"2019-06-18 09:28:52","orig_title":"Русский путь","year":"2018-01-01","translations":["Оригинальная дорожка"],"quality":"webdl","translation":"Оригинальная дорожка","update":"2019-06-19 07:01:17","iframe_src":"//8543.svetacdn.in/71tsRs29n5tZ/movie/27951"},{"id":27941,"title":"Зацикливание","kp_id":"958123","imdb_id":"tt5295802","world_art_id":null,"type":"movie","add":"2019-06-18 06:42:32","orig_title":"Looping","year":"2016-01-20","translations":["Любительский (многоголосый закадровый) (Колобок)"],"quality":"webdl","translation":"Любительский (многоголосый закадровый) (Колобок)","update":"2019-06-19 07:18:49","iframe_src":"//8543.svetacdn.in/71tsRs29n5tZ/movie/27941"},{"id":27926,"title":"Беваджа","kp_id":"1089763","imdb_id":"tt4887226","world_art_id":null,"type":"movie","add":"2019-06-18 00:08:59","orig_title":"Bewajah","year":"2017-01-01","translations":["Любительский (многоголосый закадровый) (Синема УС)"],"quality":"webdl","translation":"Любительский (многоголосый закадровый) (Синема УС)","update":"2019-06-19 07:03:44","iframe_src":"//8543.svetacdn.in/71tsRs29n5tZ/movie/27926"},{"id":27886,"title":"Красный велосипед","kp_id":"623092","imdb_id":"tt4966570","world_art_id":null,"type":"movie","add":"2019-06-17 18:15:32","orig_title":"Krasnyy velosiped","year":"1979-01-01","translations":["Оригинальная дорожка"],"quality":"sat","translation":"Оригинальная дорожка","update":"2019-06-19 07:37:18","iframe_src":"//8543.svetacdn.in/71tsRs29n5tZ/movie/27886"},{"id":27868,"title":"Обуза","kp_id":"915347","imdb_id":null,"world_art_id":null,"type":"movie","add":"2019-06-16 21:10:48","orig_title":"Обуза","year":"1983-01-01","translations":["Оригинальная дорожка"],"quality":"sat","translation":"Оригинальная дорожка","update":"2019-06-19 07:36:17","iframe_src":"//8543.svetacdn.in/71tsRs29n5tZ/movie/27868"},{"id":27867,"title":"О том, как Колька и Петька летали в Бразилию","kp_id":"583735","imdb_id":"tt3160454","world_art_id":null,"type":"movie","add":"2019-06-16 21:04:29","orig_title":"O tom, kak Kolka i Petka letali v Braziliyu","year":"1998-01-01","translations":["Оригинальная дорожка"],"quality":"sat","translation":"Оригинальная дорожка","update":"2019-06-19 07:35:06","iframe_src":"//8543.svetacdn.in/71tsRs29n5tZ/movie/27867"},{"id":27866,"title":"Новоселье","kp_id":"818388","imdb_id":"tt7808250","world_art_id":null,"type":"movie","add":"2019-06-16 21:00:05","orig_title":"Novosele","year":"1979-01-01","translations":["Оригинальная дорожка"],"quality":"sat","translation":"Оригинальная дорожка","update":"2019-06-19 07:34:01","iframe_src":"//8543.svetacdn.in/71tsRs29n5tZ/movie/27866"},{"id":27865,"title":"Мы с Вулканом","kp_id":"46757","imdb_id":"tt0199793","world_art_id":null,"type":"movie","add":"2019-06-16 20:54:54","orig_title":"My s Vulkanom","year":"1970-04-08","translations":["Оригинальная дорожка"],"quality":"sat","translation":"Оригинальная дорожка","update":"2019-06-19 07:33:04","iframe_src":"//8543.svetacdn.in/71tsRs29n5tZ/movie/27865"},{"id":27863,"title":"Тело будет предано земле, а старший мичман будет петь","kp_id":"102796","imdb_id":"tt0420953","world_art_id":null,"type":"movie","add":"2019-06-16 20:32:11","orig_title":"Telo kapitana budet predano zemle, a starshiy michman budet pet","year":"1998-03-01","translations":["Оригинальная дорожка"],"quality":"dvdrip","translation":"Оригинальная дорожка","update":"2019-06-19 07:30:20","iframe_src":"//8543.svetacdn.in/71tsRs29n5tZ/movie/27863"},{"id":27862,"title":"Тело","kp_id":"397163","imdb_id":"tt0246273","world_art_id":null,"type":"movie","add":"2019-06-16 20:27:39","orig_title":"Telo","year":"1990-11-01","translations":["Оригинальная дорожка"],"quality":"dvdrip","translation":"Оригинальная дорожка","update":"2019-06-19 07:29:32","iframe_src":"//8543.svetacdn.in/71tsRs29n5tZ/movie/27862"},{"id":27861,"title":"Супермен поневоле, или Эротический мутант","kp_id":"475850","imdb_id":"tt1556236","world_art_id":null,"type":"movie","add":"2019-06-16 20:23:39","orig_title":"Supermen ponevole ili eroticheskiy mutant","year":"1993-01-01","translations":["Оригинальная дорожка"],"quality":"vhs","translation":"Оригинальная дорожка","update":"2019-06-19 07:28:24","iframe_src":"//8543.svetacdn.in/71tsRs29n5tZ/movie/27861"},{"id":27860,"title":"Соучастники","kp_id":"43930","imdb_id":"tt0264030","world_art_id":null,"type":"movie","add":"2019-06-16 20:18:56","orig_title":"Souchastniki","year":"1984-09-01","translations":["Оригинальная дорожка"],"quality":"dvdrip","translation":"Оригинальная дорожка","update":"2019-06-19 07:26:56","iframe_src":"//8543.svetacdn.in/71tsRs29n5tZ/movie/27860"},{"id":21774,"title":"Не говорите мне о нем","kp_id":"1007522","imdb_id":null,"world_art_id":null,"type":"movie","add":"2019-01-24 18:38:07","orig_title":"Не говорите мне о нем","year":"2017-10-22","translations":["Оригинальная дорожка"],"quality":"webdl","translation":"Оригинальная дорожка","update":"2019-06-19 07:06:07","iframe_src":"//8543.svetacdn.in/71tsRs29n5tZ/movie/21774"},{"id":16439,"title":"План свадьбы","kp_id":"999406","imdb_id":"tt5991206","world_art_id":null,"type":"movie","add":"2018-04-22 21:29:23","orig_title":"Laavor et hakir","year":"2016-09-01","translations":["Профессиональный (двухголосый закадровый)"],"quality":"dvdrip","translation":"Профессиональный (двухголосый закадровый)","update":"2019-06-19 07:07:43","iframe_src":"//8543.svetacdn.in/71tsRs29n5tZ/movie/16439"},{"id":12609,"title":"Мужчина в моей голове","kp_id":"492099","imdb_id":"tt3472032","world_art_id":null,"type":"movie","add":"2017-07-24 14:05:42","orig_title":"Muzhchina v moey golove","year":"2010-01-07","translations":["Оригинальная дорожка"],"quality":"webdl","translation":"Оригинальная дорожка","update":"2019-06-19 07:32:12","iframe_src":"//8543.svetacdn.in/71tsRs29n5tZ/movie/12609"},{"id":9200,"title":"Соучастники","kp_id":"962361","imdb_id":null,"world_art_id":null,"type":"movie","add":"2017-01-26 05:30:41","orig_title":"Соучастники","year":"2016-03-03","translations":["Оригинальная дорожка"],"quality":"webdl","translation":"Оригинальная дорожка","update":"2019-06-19 07:20:51","iframe_src":"//8543.svetacdn.in/71tsRs29n5tZ/movie/9200"},{"id":1966,"title":"Высотка","kp_id":"220559","imdb_id":"tt0462335","world_art_id":null,"type":"movie","add":"2016-05-08 06:05:52","orig_title":"High-Rise","year":"2015-09-13","translations":["Полное дублирование (iTunes)"],"quality":"bd","translation":"Полное дублирование (iTunes)","update":"2019-06-19 07:23:08","iframe_src":"//8543.svetacdn.in/71tsRs29n5tZ/movie/1966"},{"id":951,"title":"Все, что у меня есть","kp_id":"522759","imdb_id":"tt1658801","world_art_id":null,"type":"movie","add":"2016-04-11 11:58:56","orig_title":"Freeheld","year":"2015-09-13","translations":["Полное дублирование (iTunes)"],"quality":"bd","translation":"Полное дублирование (iTunes)","update":"2019-06-19 07:25:29","iframe_src":"//8543.svetacdn.in/71tsRs29n5tZ/movie/951"}],"current_page":1197,"first_page_url":"https://videocdn.tv/api/short?limit=100&api_token=EnbO9h8pv1VyjbCJhg0WM9nG259n7mtz&cache31197=31197&page=1","from":119601,"last_page":599,"last_page_url":"https://videocdn.tv/api/short?limit=100&api_token=EnbO9h8pv1VyjbCJhg0WM9nG259n7mtz&cache31197=31197&page=599","next_page_url":null,"path":"https://videocdn.tv/api/short","per_page":100,"prev_page_url":"https://videocdn.tv/api/short?limit=100&api_token=EnbO9h8pv1VyjbCJhg0WM9nG259n7mtz&cache31197=31197&page=1196","to":119620,"total":59870}