{"result":true,"data":[{"id":49784,"title":"Улица удачи","kp_id":"18989","imdb_id":"tt0035388","world_art_id":null,"type":"movie","add":"2021-04-21 12:41:53","orig_title":"Street of Chance","year":"1942-10-03","translations":["Любительский (одноголосый закадровый) (Andy Green)"],"quality":"vhs","translation":"Любительский (одноголосый закадровый) (Andy Green)","update":"2021-04-21 16:33:24","iframe_src":"//7741.svetacdn.in/IAF0wWTdNYZm/movie/49784"},{"id":49782,"title":"Однажды в Китае 5","kp_id":"37062","imdb_id":"tt0110073","world_art_id":null,"type":"movie","add":"2021-04-21 11:58:57","orig_title":"Wong Fei Hung chi neung: Lung shing chim pa","year":"1994-11-17","translations":["Авторский (одноголосый закадровый) (Горчаков Василий)"],"quality":"dvdrip","translation":"Авторский (одноголосый закадровый) (Горчаков Василий)","update":"2021-04-21 16:32:03","iframe_src":"//7741.svetacdn.in/IAF0wWTdNYZm/movie/49782"},{"id":49781,"title":"Матарес","kp_id":"1358966","imdb_id":"tt10230290","world_art_id":null,"type":"movie","add":"2021-04-21 11:15:12","orig_title":"Matares","year":"2020-06-15","translations":["Любительский (многоголосый закадровый) (Синема УС)"],"quality":"webdl","translation":"Любительский (многоголосый закадровый) (Синема УС)","update":"2021-04-21 15:31:22","iframe_src":"//7741.svetacdn.in/IAF0wWTdNYZm/movie/49781"},{"id":49775,"title":"Триггер","kp_id":"1300241","imdb_id":"tt10872080","world_art_id":null,"type":"movie","add":"2021-04-21 09:48:01","orig_title":"86 Melrose Avenue","year":"2021-04-20","translations":["Любительский (многоголосый закадровый) (AlphaProject)"],"quality":"webdl","translation":"Любительский (многоголосый закадровый) (AlphaProject)","update":"2021-04-21 15:00:18","iframe_src":"//7741.svetacdn.in/IAF0wWTdNYZm/movie/49775"},{"id":49771,"title":"Убийца среди нас","kp_id":"1208435","imdb_id":"tt9213934","world_art_id":null,"type":"movie","add":"2021-04-21 09:41:26","orig_title":"Killer Among Us","year":"2021-04-16","translations":["Любительский (многоголосый закадровый) (@MUZOBOZ@)"],"quality":"webdl","translation":"Любительский (многоголосый закадровый) (@MUZOBOZ@)","update":"2021-04-21 15:01:51","iframe_src":"//7741.svetacdn.in/IAF0wWTdNYZm/movie/49771"},{"id":49770,"title":"Заговор \"Марихуана\"","kp_id":"1237097","imdb_id":"tt8461042","world_art_id":null,"type":"movie","add":"2021-04-21 09:40:26","orig_title":"The Marijuana Conspiracy","year":"2020-01-18","translations":["Любительский (многоголосый закадровый) (Синема УС)"],"quality":"webdl","translation":"Любительский (многоголосый закадровый) (Синема УС)","update":"2021-04-21 13:29:54","iframe_src":"//7741.svetacdn.in/IAF0wWTdNYZm/movie/49770"},{"id":49766,"title":"Отравленная кровь","kp_id":"1423465","imdb_id":"tt13013806","world_art_id":null,"type":"movie","add":"2021-04-21 09:05:53","orig_title":"Tainted Blood","year":"2020-01-01","translations":["Любительский (многоголосый закадровый) (Синема УС)"],"quality":"bd","translation":"Любительский (многоголосый закадровый) (Синема УС)","update":"2021-04-21 10:03:21","iframe_src":"//7741.svetacdn.in/IAF0wWTdNYZm/movie/49766"},{"id":49764,"title":"Во имя зла","kp_id":"1312868","imdb_id":"tt11014390","world_art_id":null,"type":"movie","add":"2021-04-20 20:59:21","orig_title":"For the Sake of Vicious","year":"2021-04-20","translations":["Любительский (многоголосый закадровый) (@MUZOBOZ@)"],"quality":"webdl","translation":"Любительский (многоголосый закадровый) (@MUZOBOZ@)","update":"2021-04-21 09:43:11","iframe_src":"//7741.svetacdn.in/IAF0wWTdNYZm/movie/49764"},{"id":49763,"title":"Моя прекрасная невеста","kp_id":"1334594","imdb_id":"tt11486320","world_art_id":null,"type":"movie","add":"2021-04-20 20:56:38","orig_title":"My Beautiful Bride","year":"2021-04-20","translations":["Любительский (многоголосый закадровый) (AlphaProject)"],"quality":"webdl","translation":"Любительский (многоголосый закадровый) (AlphaProject)","update":"2021-04-21 09:36:22","iframe_src":"//7741.svetacdn.in/IAF0wWTdNYZm/movie/49763"},{"id":49762,"title":"Буны","kp_id":"1314268","imdb_id":"tt11051846","world_art_id":null,"type":"movie","add":"2021-04-20 20:53:43","orig_title":"The Boonies","year":"2021-04-13","translations":["Любительский (многоголосый закадровый) (AlphaProject)"],"quality":"webdl","translation":"Любительский (многоголосый закадровый) (AlphaProject)","update":"2021-04-21 09:24:55","iframe_src":"//7741.svetacdn.in/IAF0wWTdNYZm/movie/49762"},{"id":49761,"title":"Наркопицца","kp_id":"913193","imdb_id":"tt3635846","world_art_id":null,"type":"movie","add":"2021-04-20 20:51:24","orig_title":"The Pizza Joint","year":"2021-04-20","translations":["Любительский (многоголосый закадровый) (@MUZOBOZ@)"],"quality":"webdl","translation":"Любительский (многоголосый закадровый) (@MUZOBOZ@)","update":"2021-04-21 09:22:08","iframe_src":"//7741.svetacdn.in/IAF0wWTdNYZm/movie/49761"},{"id":49754,"title":"Попутчица","kp_id":"503352","imdb_id":"tt1613110","world_art_id":null,"type":"movie","add":"2021-04-20 19:15:26","orig_title":"Kanden Kadhalai","year":"2009-10-30","translations":["Любительский (одноголосый закадровый)"],"quality":"webdl","translation":"Любительский (одноголосый закадровый)","update":"2021-04-21 16:34:06","iframe_src":"//7741.svetacdn.in/IAF0wWTdNYZm/movie/49754"},{"id":49689,"title":"Цена власти","kp_id":"1318905","imdb_id":"tt11152422","world_art_id":null,"type":"movie","add":"2021-04-18 18:35:10","orig_title":"Governance","year":"2021-04-12","translations":["Любительский (многоголосый закадровый) (AlphaProject)","Любительский (многоголосый закадровый) (AlphaProject)"],"quality":"webdl","translation":"Любительский (многоголосый закадровый) (AlphaProject)","update":"2021-04-21 09:49:08","iframe_src":"//7741.svetacdn.in/IAF0wWTdNYZm/movie/49689"},{"id":49640,"title":"Аферист","kp_id":"2000712","imdb_id":"tt13393728","world_art_id":null,"type":"movie","add":"2021-04-15 20:47:38","orig_title":"The Con-Heartist","year":"2020-12-03","translations":["Любительский (многоголосый закадровый) (Синема УС)"],"quality":"webdl","translation":"Любительский (многоголосый закадровый) (Синема УС)","update":"2021-04-21 13:33:25","iframe_src":"//7741.svetacdn.in/IAF0wWTdNYZm/movie/49640"},{"id":25284,"title":"Мстители: Финал","kp_id":"843650","imdb_id":"tt4154796","world_art_id":null,"type":"movie","add":"2019-04-24 22:09:56","orig_title":"Avengers: Endgame","year":"2019-04-29","translations":["Полное дублирование","Полное дублирование (iTunes)","Original (English)","Профессиональный (многоголосый закадровый) (HDrezka Studio)","Авторский (одноголосый закадровый) (Чадов Михаил)","Авторский (одноголосый закадровый) (Сербин Юрий)","Полное дублирование (Невафильм | Нева-1)"],"quality":"bd","translation":"Полное дублирование","update":"2021-04-21 09:05:51","iframe_src":"//7741.svetacdn.in/IAF0wWTdNYZm/movie/25284"},{"id":3547,"title":"Герой по соседству","kp_id":"958536","imdb_id":"tt5243942","world_art_id":null,"type":"serial","add":"2018-11-20 10:23:54","orig_title":"Local Hero","year":"2016-01-23","translations":["Любительский (двухголосый закадровый) (SoftBox)"],"seasons_count":1,"episodes_count":16,"episodes":16,"update":"2018-11-20 21:50:30","iframe_src":"//7741.svetacdn.in/IAF0wWTdNYZm/tv-series/3547"},{"id":3544,"title":"Темпель","kp_id":null,"imdb_id":"tt5660762","world_art_id":null,"type":"serial","add":"2018-11-20 10:02:24","orig_title":"Tempel","year":"2016-11-29","translations":["Профессиональный (двухголосый закадровый) (ViruseProject)"],"seasons_count":1,"episodes_count":6,"episodes":6,"update":"2018-11-20 22:31:36","iframe_src":"//7741.svetacdn.in/IAF0wWTdNYZm/tv-series/3544"},{"id":3543,"title":"Тень","kp_id":"1207242","imdb_id":null,"world_art_id":null,"type":"serial","add":"2018-11-20 09:52:02","orig_title":"Тень","year":"2018-11-17","translations":["Оригинальная дорожка"],"seasons_count":1,"episodes_count":2,"episodes":2,"update":"2018-11-20 22:21:19","iframe_src":"//7741.svetacdn.in/IAF0wWTdNYZm/tv-series/3543"},{"id":3542,"title":"Окна дома твоего","kp_id":"1207243","imdb_id":null,"world_art_id":null,"type":"serial","add":"2018-11-20 09:46:27","orig_title":"Окна дома твоего","year":"2018-11-18","translations":["Оригинальная дорожка"],"seasons_count":1,"episodes_count":2,"episodes":2,"update":"2018-11-20 22:24:08","iframe_src":"//7741.svetacdn.in/IAF0wWTdNYZm/tv-series/3542"},{"id":3535,"title":"Спецназ 38","kp_id":"980825","imdb_id":"tt5536856","world_art_id":null,"type":"serial","add":"2018-11-19 11:31:45","orig_title":"38 Task Force","year":"2016-06-17","translations":["Любительский (двухголосый закадровый) (SoftBox)"],"seasons_count":1,"episodes_count":16,"episodes":16,"update":"2018-11-19 23:58:12","iframe_src":"//7741.svetacdn.in/IAF0wWTdNYZm/tv-series/3535"},{"id":3523,"title":"Мисс Ма, богиня мести","kp_id":"1177526","imdb_id":"tt9064400","world_art_id":null,"type":"serial","add":"2018-11-18 20:19:03","orig_title":"Miseu Ma, boksuui yeosin","year":"2018-01-01","translations":["Любительский (двухголосый закадровый) (HighHopes)"],"seasons_count":1,"episodes_count":12,"episodes":12,"update":"2018-11-19 08:36:37","iframe_src":"//7741.svetacdn.in/IAF0wWTdNYZm/tv-series/3523"},{"id":3522,"title":"Волны жизни","kp_id":"1199917","imdb_id":null,"world_art_id":null,"type":"serial","add":"2018-11-17 22:15:17","orig_title":"Kleun Cheewit","year":"2017-01-23","translations":["Любительский (одноголосый закадровый) (Julia Prosenuk)"],"seasons_count":1,"episodes_count":15,"episodes":15,"update":"2018-11-18 16:22:56","iframe_src":"//7741.svetacdn.in/IAF0wWTdNYZm/tv-series/3522"},{"id":3512,"title":"Возвращайтесь, мистер","kp_id":"973052","imdb_id":"tt5497708","world_art_id":null,"type":"serial","add":"2018-11-16 09:10:44","orig_title":"Dolawayo Ajjeossi","year":"2016-02-24","translations":["Любительский (двухголосый закадровый) (SoftBox)"],"seasons_count":1,"episodes_count":16,"episodes":16,"update":"2018-11-19 08:30:42","iframe_src":"//7741.svetacdn.in/IAF0wWTdNYZm/tv-series/3512"},{"id":3511,"title":"Ещё один счастливый конец","kp_id":"966753","imdb_id":"tt5445338","world_art_id":null,"type":"serial","add":"2018-11-16 09:09:16","orig_title":"Hanbeon deo haepiending","year":"2016-01-20","translations":["Любительский (двухголосый закадровый) (SoftBox)"],"seasons_count":1,"episodes_count":16,"episodes":16,"update":"2018-11-19 11:44:23","iframe_src":"//7741.svetacdn.in/IAF0wWTdNYZm/tv-series/3511"},{"id":3509,"title":"Мадам Антуан","kp_id":"957769","imdb_id":"tt5332172","world_art_id":null,"type":"serial","add":"2018-11-16 09:04:41","orig_title":"Madam Angteuwan","year":"2016-01-22","translations":["Любительский (двухголосый закадровый) (SoftBox)"],"seasons_count":1,"episodes_count":16,"episodes":16,"update":"2018-11-21 13:43:48","iframe_src":"//7741.svetacdn.in/IAF0wWTdNYZm/tv-series/3509"},{"id":3507,"title":"Клуб бывших подружек","kp_id":"923502","imdb_id":"tt4686328","world_art_id":null,"type":"serial","add":"2018-11-16 08:07:04","orig_title":"Gooyeochinkeulreob","year":"2015-05-08","translations":["Любительский (двухголосый закадровый) (SoftBox)"],"seasons_count":1,"episodes_count":12,"episodes":12,"update":"2018-11-17 10:55:57","iframe_src":"//7741.svetacdn.in/IAF0wWTdNYZm/tv-series/3507"},{"id":3506,"title":"Стража","kp_id":"1044399","imdb_id":"tt6824350","world_art_id":null,"type":"serial","add":"2018-11-15 20:45:27","orig_title":"Pasukkun","year":"2017-05-22","translations":["Любительский (двухголосый закадровый) (Храм Дорам ТВ)"],"seasons_count":1,"episodes_count":32,"episodes":32,"update":"2018-11-16 09:00:36","iframe_src":"//7741.svetacdn.in/IAF0wWTdNYZm/tv-series/3506"},{"id":3503,"title":"Давай, дерзай!","kp_id":"940683","imdb_id":"tt5094306","world_art_id":null,"type":"serial","add":"2018-11-14 09:02:16","orig_title":"Balchikhage gogo","year":"2015-10-05","translations":["Любительский (двухголосый закадровый) (SoftBox)"],"seasons_count":1,"episodes_count":12,"episodes":12,"update":"2018-11-16 11:30:58","iframe_src":"//7741.svetacdn.in/IAF0wWTdNYZm/tv-series/3503"},{"id":3487,"title":"Книга Гор и Морей","kp_id":null,"imdb_id":"tt6935870","world_art_id":null,"type":"serial","add":"2018-11-13 10:01:17","orig_title":"The Classic of Mountains and Seas","year":"2016-03-20","translations":["Любительский (двухголосый закадровый)"],"seasons_count":1,"episodes_count":42,"episodes":42,"update":"2018-11-16 09:00:16","iframe_src":"//7741.svetacdn.in/IAF0wWTdNYZm/tv-series/3487"},{"id":3486,"title":"Ненастье","kp_id":"1111709","imdb_id":null,"world_art_id":null,"type":"serial","add":"2018-11-13 07:48:48","orig_title":"Ненастье","year":"2018-11-12","translations":["Оригинальная дорожка"],"seasons_count":1,"episodes_count":11,"episodes":11,"update":"2018-11-16 22:46:02","iframe_src":"//7741.svetacdn.in/IAF0wWTdNYZm/tv-series/3486"},{"id":3419,"title":"Нелла, отважная принцесса","kp_id":"1044270","imdb_id":"tt6415656","world_art_id":null,"type":"serial","add":"2018-10-31 10:56:04","orig_title":"Nella the Princess Knight","year":"2017-02-08","translations":["Полное дублирование"],"seasons_count":1,"episodes_count":13,"episodes":13,"update":"2018-11-19 11:56:21","iframe_src":"//7741.svetacdn.in/IAF0wWTdNYZm/tv-series/3419"},{"id":3360,"title":"Третий шарм","kp_id":"1169270","imdb_id":"tt8954026","world_art_id":null,"type":"serial","add":"2018-10-23 06:21:51","orig_title":"Je-3-ui Mae-ryeok","year":"2018-09-28","translations":["Любительский (двухголосый закадровый) (SoftBox)"],"seasons_count":1,"episodes_count":16,"episodes":16,"update":"2018-11-20 14:49:23","iframe_src":"//7741.svetacdn.in/IAF0wWTdNYZm/tv-series/3360"},{"id":3185,"title":"Отрыв","kp_id":"1136675","imdb_id":"tt7836468","world_art_id":null,"type":"serial","add":"2018-09-19 10:14:39","orig_title":"Turnt","year":"2018-08-01","translations":["Любительский (двухголосый закадровый) (GoldTeam)"],"seasons_count":1,"episodes_count":40,"episodes":40,"update":"2018-11-20 07:36:11","iframe_src":"//7741.svetacdn.in/IAF0wWTdNYZm/tv-series/3185"},{"id":2722,"title":"Даллас и Робо","kp_id":"1113090","imdb_id":"tt7896392","world_art_id":null,"type":"serial","add":"2018-06-03 11:05:40","orig_title":"Dallas & Robo","year":"2018-05-30","translations":["Любительский (двухголосый закадровый) (NewStation)"],"seasons_count":1,"episodes_count":8,"episodes":8,"update":"2018-11-19 10:24:51","iframe_src":"//7741.svetacdn.in/IAF0wWTdNYZm/tv-series/2722"},{"id":920,"title":"Врачи","kp_id":"984318","imdb_id":"tt5764332","world_art_id":null,"type":"serial","add":"2017-01-22 17:08:35","orig_title":"Dakteoseu","year":"2016-06-20","translations":["Любительский (многоголосый закадровый) (STEPonee)","Любительский (двухголосый закадровый) (SoftBox)"],"seasons_count":1,"episodes_count":20,"episodes":20,"update":"2018-11-20 14:40:05","iframe_src":"//7741.svetacdn.in/IAF0wWTdNYZm/tv-series/920"},{"id":4842,"title":"Деревня проклятых","kp_id":"8666","imdb_id":"tt0114852","world_art_id":null,"type":"movie","add":"2016-08-29 09:59:41","orig_title":"Village of the Damned","year":"1995-04-28","translations":["Профессиональный (многоголосый закадровый)","Original (English)","Авторский (одноголосый закадровый) (Карцев Пётр)","Авторский (одноголосый закадровый) (Живов Юрий)","Профессиональный (двухголосый закадровый) (Премьер Видео Фильм)","Профессиональный (многоголосый закадровый)","Профессиональный (многоголосый закадровый) (СТС)"],"quality":"bd","translation":"Профессиональный (многоголосый закадровый)","update":"2021-04-21 09:47:15","iframe_src":"//7741.svetacdn.in/IAF0wWTdNYZm/movie/4842"},{"id":4402,"title":"Он снова здесь","kp_id":"907661","imdb_id":"tt4176826","world_art_id":null,"type":"movie","add":"2016-08-12 09:15:55","orig_title":"Er ist wieder da","year":"2015-10-08","translations":["Авторский (одноголосый закадровый) (Карповский Антон)","Любительский (многоголосый закадровый) (Синема УС)","Профессиональный (многоголосый закадровый) (Pazl Voice)"],"quality":"bd","translation":"Авторский (одноголосый закадровый) (Карповский Антон)","update":"2021-04-21 09:53:41","iframe_src":"//7741.svetacdn.in/IAF0wWTdNYZm/movie/4402"},{"id":4372,"title":"Центурион","kp_id":"437833","imdb_id":"tt1020558","world_art_id":null,"type":"movie","add":"2016-08-10 13:08:48","orig_title":"Centurion","year":"2010-02-15","translations":["Полное дублирование","Авторский (одноголосый закадровый) (Немахов Юрий)","Полное дублирование (Пифагор)","Original (English)","Любительский (одноголосый закадровый)  (zamez | Замез Вячеслав)","Профессиональный (двухголосый закадровый)","Профессиональный (многоголосый закадровый) (ВГТРК)"],"quality":"bd","translation":"Полное дублирование","update":"2021-04-21 13:43:01","iframe_src":"//7741.svetacdn.in/IAF0wWTdNYZm/movie/4372"},{"id":1650,"title":"Леон","kp_id":"389","imdb_id":"tt0110413","world_art_id":null,"type":"movie","add":"2016-04-24 17:57:35","orig_title":"Léon","year":"1994-09-14","translations":["Профессиональный (многоголосый закадровый) (Amalgama)","Авторский (одноголосый закадровый) (Гоблин | Пучков Дмитрий)","Original (English)","Авторский (одноголосый закадровый) (Гаврилов Андрей)","Авторский (одноголосый закадровый) (Живов Юрий)","Профессиональный (двухголосый закадровый) (Кубик в Кубе)"],"quality":"bd","translation":"Профессиональный (многоголосый закадровый) (Amalgama)","update":"2021-04-21 10:26:31","iframe_src":"//7741.svetacdn.in/IAF0wWTdNYZm/movie/1650"},{"id":1603,"title":"Милые кости","kp_id":"51319","imdb_id":"tt0380510","world_art_id":null,"type":"movie","add":"2016-04-24 10:52:58","orig_title":"The Lovely Bones","year":"2009-11-24","translations":["Полное дублирование","Original (English)","Авторский (одноголосый закадровый) (Сербин Юрий)","Авторский (одноголосый закадровый) (Яковлев Алексей)","Полное дублирование","Профессиональный (многоголосый закадровый)"],"quality":"bd","translation":"Полное дублирование","update":"2021-04-21 09:11:48","iframe_src":"//7741.svetacdn.in/IAF0wWTdNYZm/movie/1603"}],"current_page":477,"first_page_url":"https://videocdn.tv/api/short?limit=100&api_token=6Onb1W1alEUrBcKJZD3GoKBbWyAl2uG2&cache3477=3477&page=1","from":47601,"last_page":695,"last_page_url":"https://videocdn.tv/api/short?limit=100&api_token=6Onb1W1alEUrBcKJZD3GoKBbWyAl2uG2&cache3477=3477&page=695","next_page_url":"https://videocdn.tv/api/short?limit=100&api_token=6Onb1W1alEUrBcKJZD3GoKBbWyAl2uG2&cache3477=3477&page=478","path":"https://videocdn.tv/api/short","per_page":100,"prev_page_url":"https://videocdn.tv/api/short?limit=100&api_token=6Onb1W1alEUrBcKJZD3GoKBbWyAl2uG2&cache3477=3477&page=476","to":47640,"total":69488}