{"result":true,"data":[{"id":35533,"title":"Юхан – скиталец","kp_id":"415373","imdb_id":"tt1230478","world_art_id":null,"type":"movie","add":"2020-01-27 20:52:15","orig_title":"Yohan - Barnevandrer","year":"2010-03-26","translations":["Любительский (одноголосый закадровый)"],"quality":"dvdrip","translation":"Любительский (одноголосый закадровый)","update":"2020-01-27 21:50:12","iframe_src":"//8209.svetacdn.in/71tsRs29n5tZ/movie/35533"},{"id":35531,"title":"Гангстер-шаман","kp_id":"731176","imdb_id":"tt2630028","world_art_id":null,"type":"movie","add":"2020-01-27 20:49:43","orig_title":"Bak-su-geon-dal","year":"2013-01-09","translations":["Любительский (двухголосый закадровый) (DeadSno & den904)"],"quality":"hdrip","translation":"Любительский (двухголосый закадровый) (DeadSno & den904)","update":"2020-01-27 21:40:12","iframe_src":"//8209.svetacdn.in/71tsRs29n5tZ/movie/35531"},{"id":35529,"title":"Я буду дома к Рождеству","kp_id":"992167","imdb_id":"tt5860940","world_art_id":null,"type":"movie","add":"2020-01-27 20:41:57","orig_title":"I'll Be Home for Christmas","year":"2016-11-27","translations":["Любительский (многоголосый закадровый)"],"quality":"webdl","translation":"Любительский (многоголосый закадровый)","update":"2020-01-27 21:40:48","iframe_src":"//8209.svetacdn.in/71tsRs29n5tZ/movie/35529"},{"id":35528,"title":"Неверная","kp_id":"82501","imdb_id":"tt0157122","world_art_id":null,"type":"movie","add":"2020-01-27 12:05:06","orig_title":"Trolösa","year":"2001-10-04","translations":["Профессиональный (одноголосый закадровый)"],"quality":"dvdrip","translation":"Профессиональный (одноголосый закадровый)","update":"2020-01-27 17:54:10","iframe_src":"//8209.svetacdn.in/71tsRs29n5tZ/movie/35528"},{"id":35527,"title":"Эмиль из Лённеберги","kp_id":"107399","imdb_id":"tt0067047","world_art_id":null,"type":"movie","add":"2020-01-27 11:57:59","orig_title":"Emil i Lönneberga","year":"1971-12-04","translations":["Профессиональный (многоголосый закадровый) (Омикрон)"],"quality":"bd","translation":"Профессиональный (многоголосый закадровый) (Омикрон)","update":"2020-01-27 17:52:32","iframe_src":"//8209.svetacdn.in/71tsRs29n5tZ/movie/35527"},{"id":35448,"title":"Вызов смерти","kp_id":"233591","imdb_id":"tt0077313","world_art_id":null,"type":"movie","add":"2020-01-25 23:37:26","orig_title":"Long quan she shou dou zhi zhu","year":"1979-01-01","translations":["Авторский (одноголосый закадровый) (Кузнецов Сергей)"],"quality":"vhs","translation":"Авторский (одноголосый закадровый) (Кузнецов Сергей)","update":"2020-01-28 12:33:09","iframe_src":"//8209.svetacdn.in/71tsRs29n5tZ/movie/35448"},{"id":35447,"title":"Долгая дорога к отваге","kp_id":"232962","imdb_id":"tt0198664","world_art_id":null,"type":"movie","add":"2020-01-25 23:35:23","orig_title":"You xia qing","year":"1984-01-01","translations":["Любительский (одноголосый закадровый) (Береговых Виктор | Jet)"],"quality":"dvdrip","translation":"Любительский (одноголосый закадровый) (Береговых Виктор | Jet)","update":"2020-01-28 12:31:11","iframe_src":"//8209.svetacdn.in/71tsRs29n5tZ/movie/35447"},{"id":35446,"title":"Женщина с Южного берега","kp_id":"228827","imdb_id":"tt0117984","world_art_id":null,"type":"movie","add":"2020-01-25 23:33:23","orig_title":"Chi Tu Hau","year":"1963-09-08","translations":["Любительский (одноголосый закадровый)"],"quality":"vhs","translation":"Любительский (одноголосый закадровый)","update":"2020-01-28 12:30:15","iframe_src":"//8209.svetacdn.in/71tsRs29n5tZ/movie/35446"},{"id":35445,"title":"Змеиный принц","kp_id":"274550","imdb_id":"tt0201107","world_art_id":null,"type":"movie","add":"2020-01-25 23:31:13","orig_title":"She wang zi","year":"1976-07-31","translations":["Любительский (одноголосый закадровый) (Береговых Виктор | Jet)"],"quality":"dvdrip","translation":"Любительский (одноголосый закадровый) (Береговых Виктор | Jet)","update":"2020-01-28 12:29:19","iframe_src":"//8209.svetacdn.in/71tsRs29n5tZ/movie/35445"},{"id":35444,"title":"Леди Сазен и меч Глоток воды","kp_id":"404560","imdb_id":"tt0978679","world_art_id":null,"type":"movie","add":"2020-01-25 23:28:53","orig_title":"Onna sazen: Nuretsubame katate giri","year":"1969-01-01","translations":["Авторский (одноголосый закадровый) (Кузнецов Сергей)"],"quality":"dvdrip","translation":"Авторский (одноголосый закадровый) (Кузнецов Сергей)","update":"2020-01-28 12:19:44","iframe_src":"//8209.svetacdn.in/71tsRs29n5tZ/movie/35444"},{"id":35443,"title":"Месть черного дракона","kp_id":"233468","imdb_id":"tt0072858","world_art_id":null,"type":"movie","add":"2020-01-25 23:26:39","orig_title":"Long zheng hu dou jing wu hun","year":"1976-01-22","translations":["Любительский (одноголосый закадровый) (Береговых Виктор | Jet)"],"quality":"vhs","translation":"Любительский (одноголосый закадровый) (Береговых Виктор | Jet)","update":"2020-01-28 12:18:47","iframe_src":"//8209.svetacdn.in/71tsRs29n5tZ/movie/35443"},{"id":35442,"title":"Мстительный кулак Брюса","kp_id":"314689","imdb_id":"tt0299592","world_art_id":null,"type":"movie","add":"2020-01-25 23:23:49","orig_title":"Bruce's Fists of Vengeance","year":"1980-08-22","translations":["Любительский (одноголосый закадровый)"],"quality":"dvdrip","translation":"Любительский (одноголосый закадровый)","update":"2020-01-28 12:17:35","iframe_src":"//8209.svetacdn.in/71tsRs29n5tZ/movie/35442"},{"id":35441,"title":"Удар молнии ниндзя","kp_id":"24710","imdb_id":"tt0199850","world_art_id":null,"type":"movie","add":"2020-01-25 23:21:15","orig_title":"Zhi zun shen tou","year":"1984-04-18","translations":["Любительский (одноголосый закадровый)"],"quality":"vhs","translation":"Любительский (одноголосый закадровый)","update":"2020-01-28 12:16:38","iframe_src":"//8209.svetacdn.in/71tsRs29n5tZ/movie/35441"},{"id":35440,"title":"Ограбление игрового притона","kp_id":"55452","imdb_id":"tt0326140","world_art_id":null,"type":"movie","add":"2020-01-25 23:18:51","orig_title":"Shikingen gôdatsu","year":"1975-06-21","translations":["Любительский (одноголосый закадровый)"],"quality":"dvdrip","translation":"Любительский (одноголосый закадровый)","update":"2020-01-28 12:15:43","iframe_src":"//8209.svetacdn.in/71tsRs29n5tZ/movie/35440"},{"id":35438,"title":"Разыскивается полицией","kp_id":"36857","imdb_id":"tt0114891","world_art_id":null,"type":"movie","add":"2020-01-25 23:13:31","orig_title":"Mong Kok dik tin hung","year":"1995-03-16","translations":["Авторский (одноголосый закадровый) (Живов Юрий)"],"quality":"vhs","translation":"Авторский (одноголосый закадровый) (Живов Юрий)","update":"2020-01-28 12:13:10","iframe_src":"//8209.svetacdn.in/71tsRs29n5tZ/movie/35438"},{"id":35437,"title":"Слишком молод, чтобы умереть","kp_id":"916308","imdb_id":"tt4717204","world_art_id":null,"type":"movie","add":"2020-01-25 23:11:10","orig_title":"Too Young to Die","year":"2016-02-02","translations":["Любительский (двухголосый закадровый) (Колобок)"],"quality":"bd","translation":"Любительский (двухголосый закадровый) (Колобок)","update":"2020-01-28 12:04:49","iframe_src":"//8209.svetacdn.in/71tsRs29n5tZ/movie/35437"},{"id":35436,"title":"Мафия Токио","kp_id":"109546","imdb_id":"tt0310236","world_art_id":null,"type":"movie","add":"2020-01-25 23:08:51","orig_title":"Tokyo Mafia","year":"1995-12-01","translations":["Любительский (одноголосый закадровый)"],"quality":"dvdrip","translation":"Любительский (одноголосый закадровый)","update":"2020-01-28 12:04:08","iframe_src":"//8209.svetacdn.in/71tsRs29n5tZ/movie/35436"},{"id":35435,"title":"Три ловца ветра","kp_id":"886676","imdb_id":"tt4379800","world_art_id":null,"type":"movie","add":"2020-01-25 23:05:51","orig_title":"Chu dai chiu fung","year":"2016-02-12","translations":["Любительский (двухголосый закадровый) (Колобок)"],"quality":"dvdrip","translation":"Любительский (двухголосый закадровый) (Колобок)","update":"2020-01-28 12:03:16","iframe_src":"//8209.svetacdn.in/71tsRs29n5tZ/movie/35435"},{"id":35434,"title":"Чёрный Коридор","kp_id":"314688","imdb_id":"tt0182826","world_art_id":null,"type":"movie","add":"2020-01-25 23:03:40","orig_title":"Hei se zou lang","year":"1990-11-01","translations":["Любительский (одноголосый закадровый)"],"quality":"dvdrip","translation":"Любительский (одноголосый закадровый)","update":"2020-01-28 12:01:22","iframe_src":"//8209.svetacdn.in/71tsRs29n5tZ/movie/35434"},{"id":35433,"title":"Штурмовой взвод","kp_id":"111257","imdb_id":"tt0188427","world_art_id":null,"type":"movie","add":"2020-01-25 22:59:33","orig_title":"Assault Platoon","year":"1990-07-04","translations":["Любительский (одноголосый закадровый)"],"quality":"vhs","translation":"Любительский (одноголосый закадровый)","update":"2020-01-28 12:00:30","iframe_src":"//8209.svetacdn.in/71tsRs29n5tZ/movie/35433"}],"current_page":1116,"first_page_url":"https://videocdn.tv/api/short?limit=100&api_token=EnbO9h8pv1VyjbCJhg0WM9nG259n7mtz&cache31116=31116&page=1","from":111501,"last_page":664,"last_page_url":"https://videocdn.tv/api/short?limit=100&api_token=EnbO9h8pv1VyjbCJhg0WM9nG259n7mtz&cache31116=31116&page=664","next_page_url":null,"path":"https://videocdn.tv/api/short","per_page":100,"prev_page_url":"https://videocdn.tv/api/short?limit=100&api_token=EnbO9h8pv1VyjbCJhg0WM9nG259n7mtz&cache31116=31116&page=1115","to":111520,"total":66306}