{"result":true,"data":[{"id":52600,"title":"Убить Байрона Браво","kp_id":"1221123","imdb_id":"tt9346994","world_art_id":null,"type":"movie","add":"2021-08-24 08:55:42","orig_title":"Killing Byron Bravo","year":"2020-01-01","translations":["Любительский (многоголосый закадровый) (Синема УС)"],"quality":"webdl","translation":"Любительский (многоголосый закадровый) (Синема УС)","update":"2021-08-24 13:13:04","iframe_src":"//8944266443434.svetacdn.in/PfJ50H0ZBPg3/movie/52600"},{"id":52599,"title":"Дяди тоже люди","kp_id":"1305952","imdb_id":"tt9263762","world_art_id":null,"type":"movie","add":"2021-08-24 08:53:14","orig_title":"Poster Boys","year":"2020-07-07","translations":["Любительский (многоголосый закадровый) (@MUZOBOZ@)"],"quality":"webdl","translation":"Любительский (многоголосый закадровый) (@MUZOBOZ@)","update":"2021-08-24 13:11:29","iframe_src":"//8944266443434.svetacdn.in/PfJ50H0ZBPg3/movie/52599"},{"id":52598,"title":"Юрская охота","kp_id":"4480023","imdb_id":"tt14442328","world_art_id":null,"type":"movie","add":"2021-08-24 08:51:00","orig_title":"Jurassic Hunt","year":"2021-08-24","translations":["Любительский (многоголосый закадровый) (AlphaProject)"],"quality":"webdl","translation":"Любительский (многоголосый закадровый) (AlphaProject)","update":"2021-08-24 13:12:25","iframe_src":"//8944266443434.svetacdn.in/PfJ50H0ZBPg3/movie/52598"},{"id":52597,"title":"Разбитые алмазы","kp_id":"1125893","imdb_id":"tt6484398","world_art_id":null,"type":"movie","add":"2021-08-24 08:48:29","orig_title":"Broken Diamonds","year":"2021-04-01","translations":["Любительский (многоголосый закадровый) (Синема УС)"],"quality":"webdl","translation":"Любительский (многоголосый закадровый) (Синема УС)","update":"2021-08-24 12:09:21","iframe_src":"//8944266443434.svetacdn.in/PfJ50H0ZBPg3/movie/52597"},{"id":52595,"title":"Школьница А","kp_id":"1049220","imdb_id":"tt8574270","world_art_id":null,"type":"movie","add":"2021-08-24 05:39:36","orig_title":"Yeojungsaeng A","year":"2018-06-20","translations":["Любительский (двухголосый закадровый) (JoyStudio)"],"quality":"webdl","translation":"Любительский (двухголосый закадровый) (JoyStudio)","update":"2021-08-24 10:59:07","iframe_src":"//8944266443434.svetacdn.in/PfJ50H0ZBPg3/movie/52595"},{"id":52584,"title":"350 дней","kp_id":null,"imdb_id":"tt3696764","world_art_id":null,"type":"movie","add":"2021-08-23 15:03:40","orig_title":"350 Days","year":"2018-01-01","translations":["Любительский (многоголосый закадровый) (Синема УС)"],"quality":"webdl","translation":"Любительский (многоголосый закадровый) (Синема УС)","update":"2021-08-23 20:40:45","iframe_src":"//8944266443434.svetacdn.in/PfJ50H0ZBPg3/movie/52584"},{"id":52582,"title":"Зарождение обмана","kp_id":"1247987","imdb_id":"tt9834736","world_art_id":null,"type":"movie","add":"2021-08-23 14:58:48","orig_title":"The Birth of Deceit","year":"2019-06-22","translations":["Любительский (многоголосый закадровый) (Синема УС)"],"quality":"webdl","translation":"Любительский (многоголосый закадровый) (Синема УС)","update":"2021-08-24 10:18:57","iframe_src":"//8944266443434.svetacdn.in/PfJ50H0ZBPg3/movie/52582"},{"id":52576,"title":"Час убийств","kp_id":"9350","imdb_id":"tt0115976","world_art_id":null,"type":"movie","add":"2021-08-23 07:28:20","orig_title":"Crimetime","year":"1996-10-04","translations":["Авторский (одноголосый закадровый) (Гаврилов Андрей)","[EN] Original (English)"],"quality":"webdl","translation":"Авторский (одноголосый закадровый) (Гаврилов Андрей)","update":"2021-08-24 07:29:30","iframe_src":"//8944266443434.svetacdn.in/PfJ50H0ZBPg3/movie/52576"},{"id":52575,"title":"Изощренный кошмар","kp_id":"37339","imdb_id":"tt0134167","world_art_id":null,"type":"movie","add":"2021-08-23 07:08:54","orig_title":"Twisted Nightmare","year":"1988-09-14","translations":["[EN] Original (English)","Авторский (одноголосый закадровый) (Дольский Андрей)"],"quality":"bd","translation":"[EN] Original (English)","update":"2021-08-24 07:17:32","iframe_src":"//8944266443434.svetacdn.in/PfJ50H0ZBPg3/movie/52575"},{"id":52573,"title":"Белые ночи","kp_id":"56806","imdb_id":"tt0050782","world_art_id":null,"type":"movie","add":"2021-08-23 06:19:40","orig_title":"Le notti bianche","year":"1957-09-06","translations":["Профессиональный (многоголосый закадровый)"],"quality":"bd","translation":"Профессиональный (многоголосый закадровый)","update":"2021-08-24 07:19:38","iframe_src":"//8944266443434.svetacdn.in/PfJ50H0ZBPg3/movie/52573"},{"id":37764,"title":"Зверинец","kp_id":"6258","imdb_id":"tt0077975","world_art_id":null,"type":"movie","add":"2020-03-11 09:29:42","orig_title":"Animal House","year":"1978-07-27","translations":["Профессиональный (многоголосый закадровый)","Авторский (одноголосый закадровый) (Михалёв Алексей)","[EN] Original (English)"],"quality":"bd","translation":"Профессиональный (многоголосый закадровый)","update":"2021-08-24 08:36:36","iframe_src":"//8944266443434.svetacdn.in/PfJ50H0ZBPg3/movie/37764"},{"id":30128,"title":"Список","kp_id":"259542","imdb_id":"tt0762115","world_art_id":null,"type":"movie","add":"2019-08-20 06:11:45","orig_title":"The List","year":"2007-04-22","translations":["Профессиональный (многоголосый закадровый)","[EN] Original (English)","Профессиональный (многоголосый закадровый)"],"quality":"dvdrip","translation":"Профессиональный (многоголосый закадровый)","update":"2021-08-24 07:14:26","iframe_src":"//8944266443434.svetacdn.in/PfJ50H0ZBPg3/movie/30128"},{"id":23776,"title":"Ромео и Джульетта","kp_id":"15204","imdb_id":"tt0063518","world_art_id":null,"type":"movie","add":"2019-04-02 08:14:49","orig_title":"Romeo and Juliet","year":"1968-03-04","translations":["Полное дублирование","Авторский (одноголосый закадровый) (Михалёв Алексей)","Полное дублирование (Союзмультфильм)","[EN] Original (English)","Любительский (одноголосый закадровый)","Профессиональный (двухголосый закадровый) (НТВ)","Профессиональный (многоголосый закадровый)"],"quality":"bd","translation":"Полное дублирование","update":"2021-08-24 11:15:13","iframe_src":"//8944266443434.svetacdn.in/PfJ50H0ZBPg3/movie/23776"},{"id":17569,"title":"Не игра","kp_id":"1072924","imdb_id":null,"world_art_id":null,"type":"movie","add":"2018-07-04 23:02:18","orig_title":"Не игра","year":"2018-02-16","translations":["Оригинальная дорожка","Оригинальная дорожка"],"quality":"webdl","translation":"Оригинальная дорожка","update":"2021-08-24 10:02:37","iframe_src":"//8944266443434.svetacdn.in/PfJ50H0ZBPg3/movie/17569"},{"id":2050,"title":"Приказано уничтожить! Операция: «Китайская шкатулка»","kp_id":"460496","imdb_id":"tt1435568","world_art_id":null,"type":"serial","add":"2018-02-08 16:50:26","orig_title":"Prikazano unichtozhit. Operatsiya 'Kitayskaya shkatulka'","year":"2009-05-09","translations":["Оригинальная дорожка"],"seasons_count":1,"episodes_count":4,"episodes":4,"update":"2018-02-09 10:20:34","iframe_src":"//8944266443434.svetacdn.in/PfJ50H0ZBPg3/tv-series/2050"},{"id":2044,"title":"Морской патруль 2","kp_id":"466517","imdb_id":null,"world_art_id":null,"type":"serial","add":"2018-02-07 13:49:13","orig_title":"Морской патруль 2","year":"2009-06-11","translations":["Оригинальная дорожка"],"seasons_count":1,"episodes_count":12,"episodes":12,"update":"2018-02-09 10:02:36","iframe_src":"//8944266443434.svetacdn.in/PfJ50H0ZBPg3/tv-series/2044"},{"id":2043,"title":"Ловушка","kp_id":"478501","imdb_id":"tt1607881","world_art_id":null,"type":"serial","add":"2018-02-07 13:46:07","orig_title":"Lovushka","year":"2009-12-05","translations":["Оригинальная дорожка"],"seasons_count":1,"episodes_count":4,"episodes":4,"update":"2018-02-08 10:57:03","iframe_src":"//8944266443434.svetacdn.in/PfJ50H0ZBPg3/tv-series/2043"},{"id":2042,"title":"Чудо","kp_id":"474745","imdb_id":null,"world_art_id":null,"type":"serial","add":"2018-02-07 13:43:18","orig_title":"Чудо","year":"2009-12-21","translations":["Оригинальная дорожка"],"seasons_count":1,"episodes_count":8,"episodes":8,"update":"2018-02-09 10:14:55","iframe_src":"//8944266443434.svetacdn.in/PfJ50H0ZBPg3/tv-series/2042"},{"id":2041,"title":"Анна Каренина","kp_id":"252077","imdb_id":"tt0403726","world_art_id":null,"type":"serial","add":"2018-02-07 13:38:35","orig_title":"Anna Karenina","year":"2009-02-08","translations":["Оригинальная дорожка"],"seasons_count":1,"episodes_count":5,"episodes":5,"update":"2018-02-08 10:51:38","iframe_src":"//8944266443434.svetacdn.in/PfJ50H0ZBPg3/tv-series/2041"},{"id":2040,"title":"Пингвины из Мадагаскара","kp_id":"419621","imdb_id":"tt0892700","world_art_id":null,"type":"serial","add":"2018-02-07 11:56:08","orig_title":"The Penguins of Madagascar","year":"2008-11-29","translations":["Полное дублирование"],"seasons_count":1,"episodes_count":25,"episodes":25,"update":"2018-02-08 09:58:03","iframe_src":"//8944266443434.svetacdn.in/PfJ50H0ZBPg3/tv-series/2040"},{"id":2037,"title":"Остров ненужных людей","kp_id":"614026","imdb_id":"tt3575330","world_art_id":null,"type":"serial","add":"2018-02-07 05:04:19","orig_title":"Ostrov nenuzhnykh lyudey","year":"2012-01-31","translations":["Оригинальная дорожка"],"seasons_count":1,"episodes_count":24,"episodes":24,"update":"2018-02-09 11:17:47","iframe_src":"//8944266443434.svetacdn.in/PfJ50H0ZBPg3/tv-series/2037"},{"id":2036,"title":"Чужая дочь","kp_id":"990896","imdb_id":null,"world_art_id":null,"type":"serial","add":"2018-02-06 15:48:51","orig_title":"Чужая дочь","year":"2018-02-05","translations":["Оригинальная дорожка"],"seasons_count":1,"episodes_count":8,"episodes":8,"update":"2018-02-09 08:33:47","iframe_src":"//8944266443434.svetacdn.in/PfJ50H0ZBPg3/tv-series/2036"},{"id":2034,"title":"Родина ждет","kp_id":"77347","imdb_id":"tt0388605","world_art_id":null,"type":"serial","add":"2018-02-06 14:40:52","orig_title":"Rodina zhdyot","year":"2003-11-24","translations":["Оригинальная дорожка"],"seasons_count":1,"episodes_count":6,"episodes":6,"update":"2018-02-07 10:34:58","iframe_src":"//8944266443434.svetacdn.in/PfJ50H0ZBPg3/tv-series/2034"},{"id":2033,"title":"Курсанты","kp_id":"160897","imdb_id":"tt0461876","world_art_id":null,"type":"serial","add":"2018-02-06 14:36:23","orig_title":"Kursanty","year":"2005-02-17","translations":["Оригинальная дорожка"],"seasons_count":1,"episodes_count":10,"episodes":10,"update":"2018-02-07 10:19:52","iframe_src":"//8944266443434.svetacdn.in/PfJ50H0ZBPg3/tv-series/2033"},{"id":2032,"title":"Судебная колонка","kp_id":"425994","imdb_id":"tt1396406","world_art_id":null,"type":"serial","add":"2018-02-06 14:32:06","orig_title":"Sudebnaya kolonka","year":"2008-09-30","translations":["Оригинальная дорожка"],"seasons_count":1,"episodes_count":12,"episodes":12,"update":"2018-02-08 10:44:07","iframe_src":"//8944266443434.svetacdn.in/PfJ50H0ZBPg3/tv-series/2032"},{"id":2031,"title":"Племена и империи: Гроза пророчества","kp_id":"1097427","imdb_id":"tt6491428","world_art_id":null,"type":"serial","add":"2018-02-06 09:47:35","orig_title":"Tribes and Empires: Storm of Prophecy","year":"2017-11-21","translations":["Любительский (двухголосый закадровый)"],"seasons_count":1,"episodes_count":75,"episodes":75,"update":"2018-02-07 08:20:42","iframe_src":"//8944266443434.svetacdn.in/PfJ50H0ZBPg3/tv-series/2031"},{"id":2025,"title":"Смерть шпионам: Крым","kp_id":"431127","imdb_id":"tt3590264","world_art_id":null,"type":"serial","add":"2018-02-04 19:18:41","orig_title":"Smert shpionam. Krym","year":"2008-11-10","translations":["Оригинальная дорожка"],"seasons_count":1,"episodes_count":8,"episodes":8,"update":"2018-02-09 09:27:53","iframe_src":"//8944266443434.svetacdn.in/PfJ50H0ZBPg3/tv-series/2025"},{"id":2024,"title":"Смерть шпионам!","kp_id":"336434","imdb_id":"tt3590190","world_art_id":null,"type":"serial","add":"2018-02-04 19:15:24","orig_title":"Smert shpionam!","year":"2007-06-18","translations":["Оригинальная дорожка"],"seasons_count":1,"episodes_count":8,"episodes":8,"update":"2018-02-07 13:24:11","iframe_src":"//8944266443434.svetacdn.in/PfJ50H0ZBPg3/tv-series/2024"},{"id":2023,"title":"Секунда до...","kp_id":"397414","imdb_id":"tt4391388","world_art_id":null,"type":"serial","add":"2018-02-04 19:10:36","orig_title":"Sekunda do...","year":"2007-01-01","translations":["Оригинальная дорожка"],"seasons_count":1,"episodes_count":8,"episodes":8,"update":"2018-02-07 14:01:21","iframe_src":"//8944266443434.svetacdn.in/PfJ50H0ZBPg3/tv-series/2023"},{"id":2022,"title":"Отряд","kp_id":"432367","imdb_id":"tt3067930","world_art_id":null,"type":"serial","add":"2018-02-04 19:07:28","orig_title":"Otryad","year":"2008-01-01","translations":["Оригинальная дорожка"],"seasons_count":1,"episodes_count":16,"episodes":16,"update":"2018-02-08 09:34:20","iframe_src":"//8944266443434.svetacdn.in/PfJ50H0ZBPg3/tv-series/2022"},{"id":2008,"title":"Управление гневом","kp_id":"596247","imdb_id":"tt1986770","world_art_id":null,"type":"serial","add":"2018-01-29 11:48:38","orig_title":"Anger Management","year":"2012-06-28","translations":["Профессиональный (многоголосый закадровый) (LostFilm)","Профессиональный (двухголосый закадровый) (Ozz.tv)"],"seasons_count":2,"episodes_count":100,"episodes":90,"update":"2018-02-08 07:46:57","iframe_src":"//8944266443434.svetacdn.in/PfJ50H0ZBPg3/tv-series/2008"},{"id":1945,"title":"Я люблю своего мужа","kp_id":"998751","imdb_id":null,"world_art_id":null,"type":"serial","add":"2018-01-14 06:18:51","orig_title":"Я люблю своего мужа","year":"2016-12-31","translations":["Оригинальная дорожка"],"seasons_count":1,"episodes_count":4,"episodes":4,"update":"2018-02-06 16:10:04","iframe_src":"//8944266443434.svetacdn.in/PfJ50H0ZBPg3/tv-series/1945"},{"id":1839,"title":"Белла и Бульдоги","kp_id":"891742","imdb_id":"tt3596178","world_art_id":null,"type":"serial","add":"2017-12-11 19:26:50","orig_title":"Bella and the Bulldogs","year":"2015-01-17","translations":["Полное дублирование"],"seasons_count":2,"episodes_count":39,"episodes":20,"update":"2018-02-08 09:36:41","iframe_src":"//8944266443434.svetacdn.in/PfJ50H0ZBPg3/tv-series/1839"},{"id":7656,"title":"Свадебная вечеринка","kp_id":"7894","imdb_id":"tt0314786","world_art_id":null,"type":"movie","add":"2016-11-27 12:35:05","orig_title":"The In-Laws","year":"2003-05-19","translations":["Полное дублирование","Полное дублирование","[EN] Original (English)","Профессиональный (двухголосый закадровый) (Инис)","Профессиональный (многоголосый закадровый)"],"quality":"webdl","translation":"Полное дублирование","update":"2021-08-24 08:28:39","iframe_src":"//8944266443434.svetacdn.in/PfJ50H0ZBPg3/movie/7656"},{"id":513,"title":"Последние пантеры","kp_id":"891608","imdb_id":"tt4075386","world_art_id":null,"type":"serial","add":"2016-10-06 06:01:26","orig_title":"The Last Panthers","year":"2015-10-26","translations":["Профессиональный (двухголосый закадровый) (Gears Media)","Профессиональный (многоголосый закадровый) (AlexFilm)"],"seasons_count":1,"episodes_count":6,"episodes":6,"update":"2018-02-07 08:03:55","iframe_src":"//8944266443434.svetacdn.in/PfJ50H0ZBPg3/tv-series/513"},{"id":5761,"title":"3000 миль до Грейслэнда","kp_id":"9385","imdb_id":"tt0233142","world_art_id":null,"type":"movie","add":"2016-10-03 05:23:09","orig_title":"3000 Miles to Graceland","year":"2001-02-20","translations":["Профессиональный (двухголосый закадровый)","Авторский (одноголосый закадровый) (Дольский Андрей)","Авторский (одноголосый закадровый) (Есарев Дмитрий)","Авторский (одноголосый закадровый) (Гаврилов Андрей)","Авторский (одноголосый закадровый) (Живов Юрий)","[EN] Original (English)","Профессиональный (многоголосый закадровый) (Че!)","Профессиональный (многоголосый закадровый) (Первый канал | ОРТ)","Профессиональный (двухголосый закадровый) (Премьер Видео Фильм)","Профессиональный (многоголосый закадровый) (ВГТРК)"],"quality":"webdl","translation":"Профессиональный (двухголосый закадровый)","update":"2021-08-24 09:02:25","iframe_src":"//8944266443434.svetacdn.in/PfJ50H0ZBPg3/movie/5761"},{"id":5222,"title":"Мой мальчик","kp_id":"582","imdb_id":"tt0276751","world_art_id":null,"type":"movie","add":"2016-09-13 09:01:44","orig_title":"About a Boy","year":"2002-04-26","translations":["Профессиональный (многоголосый закадровый)","[EN] Original (English)","Профессиональный (многоголосый закадровый) (Первый канал | ОРТ)","Профессиональный (многоголосый закадровый)"],"quality":"bd","translation":"Профессиональный (многоголосый закадровый)","update":"2021-08-24 08:33:20","iframe_src":"//8944266443434.svetacdn.in/PfJ50H0ZBPg3/movie/5222"},{"id":915,"title":"Вне времени","kp_id":"6828","imdb_id":"tt0313443","world_art_id":null,"type":"movie","add":"2016-04-09 17:55:34","orig_title":"Out of Time","year":"2003-09-07","translations":["Полное дублирование","Авторский (одноголосый закадровый) (Гаврилов Андрей)","Авторский (одноголосый закадровый) (Яроцкий Михаил | Kyberpunk)","Полное дублирование","[EN] Original (English)","Профессиональный (двухголосый закадровый) (FDV)"],"quality":"bd","translation":"Полное дублирование","update":"2021-08-24 08:14:25","iframe_src":"//8944266443434.svetacdn.in/PfJ50H0ZBPg3/movie/915"},{"id":551,"title":"Обливион","kp_id":"470185","imdb_id":"tt1483013","world_art_id":null,"type":"movie","add":"2016-04-04 20:43:51","orig_title":"Oblivion","year":"2013-03-26","translations":["Полное дублирование","[EN] Original (English)","Авторский (одноголосый закадровый) (Сербин Юрий)","Авторский (одноголосый закадровый) (Володарский Леонид)","Полное дублирование","[EN] Original (English)"],"quality":"bd","translation":"Полное дублирование","update":"2021-08-24 11:06:46","iframe_src":"//8944266443434.svetacdn.in/PfJ50H0ZBPg3/movie/551"},{"id":456,"title":"Пандорум","kp_id":"422882","imdb_id":"tt1188729","world_art_id":null,"type":"movie","add":"2016-04-01 19:11:22","orig_title":"Pandorum","year":"2009-09-25","translations":["Полное дублирование","[EN] Original (English)","[EN] Original (English)","Авторский (одноголосый закадровый) (Немахов Юрий)","Полное дублирование"],"quality":"bd","translation":"Полное дублирование","update":"2021-08-24 08:19:57","iframe_src":"//8944266443434.svetacdn.in/PfJ50H0ZBPg3/movie/456"}],"current_page":569,"first_page_url":"https://videocdn.tv/api/short?limit=100&api_token=RgFQdUIR2dRmwv8iYa5SnFNgnw3vpjKj&cache3569=3569&page=1","from":56801,"last_page":730,"last_page_url":"https://videocdn.tv/api/short?limit=100&api_token=RgFQdUIR2dRmwv8iYa5SnFNgnw3vpjKj&cache3569=3569&page=730","next_page_url":"https://videocdn.tv/api/short?limit=100&api_token=RgFQdUIR2dRmwv8iYa5SnFNgnw3vpjKj&cache3569=3569&page=570","path":"https://videocdn.tv/api/short","per_page":100,"prev_page_url":"https://videocdn.tv/api/short?limit=100&api_token=RgFQdUIR2dRmwv8iYa5SnFNgnw3vpjKj&cache3569=3569&page=568","to":56840,"total":72950}