{"result":true,"data":[{"id":48633,"title":"Тетради","kp_id":"4369026","imdb_id":"tt13805684","world_art_id":null,"type":"movie","add":"2021-03-10 21:00:05","orig_title":"The Notebooks","year":"2021-01-01","translations":["Любительский (многоголосый закадровый) (Синема УС)"],"quality":"webdl","translation":"Любительский (многоголосый закадровый) (Синема УС)","update":"2021-03-11 07:03:44","iframe_src":"//5091.svetacdn.in/si4jsFRrtgrT/movie/48633"},{"id":48619,"title":"Зимнее озеро","kp_id":"1244063","imdb_id":"tt9778348","world_art_id":null,"type":"movie","add":"2021-03-10 13:12:44","orig_title":"The Winter Lake","year":"2020-07-10","translations":["Любительский (многоголосый закадровый) (AlphaProject)"],"quality":"webdl","translation":"Любительский (многоголосый закадровый) (AlphaProject)","update":"2021-03-11 00:42:55","iframe_src":"//5091.svetacdn.in/si4jsFRrtgrT/movie/48619"},{"id":48616,"title":"Как проснуться от кошмара?","kp_id":"1237313","imdb_id":"tt9587604","world_art_id":null,"type":"movie","add":"2021-03-10 10:35:59","orig_title":"How to Stop a Recurring Dream","year":"2021-03-09","translations":["Любительский (многоголосый закадровый) (Синема УС)"],"quality":"webdl","translation":"Любительский (многоголосый закадровый) (Синема УС)","update":"2021-03-11 00:40:25","iframe_src":"//5091.svetacdn.in/si4jsFRrtgrT/movie/48616"},{"id":48615,"title":"Убийственная мода","kp_id":"1238745","imdb_id":"tt9741310","world_art_id":null,"type":"movie","add":"2021-03-10 10:32:40","orig_title":"Slaxx","year":"2021-03-18","translations":["Любительский (многоголосый закадровый) (AlphaProject)"],"quality":"webdl","translation":"Любительский (многоголосый закадровый) (AlphaProject)","update":"2021-03-11 00:39:47","iframe_src":"//5091.svetacdn.in/si4jsFRrtgrT/movie/48615"},{"id":48614,"title":"Озарение","kp_id":"1442309","imdb_id":"tt13313630","world_art_id":null,"type":"movie","add":"2021-03-10 10:30:10","orig_title":"Road to Damascus","year":"2021-03-09","translations":["Любительский (многоголосый закадровый) (@MUZOBOZ@)"],"quality":"webdl","translation":"Любительский (многоголосый закадровый) (@MUZOBOZ@)","update":"2021-03-11 00:39:07","iframe_src":"//5091.svetacdn.in/si4jsFRrtgrT/movie/48614"},{"id":48612,"title":"Каньонлендс","kp_id":"1266766","imdb_id":"tt10245776","world_art_id":null,"type":"movie","add":"2021-03-10 10:24:38","orig_title":"The Canyonlands","year":"2021-03-05","translations":["Любительский (многоголосый закадровый) (Синема УС)"],"quality":"webdl","translation":"Любительский (многоголосый закадровый) (Синема УС)","update":"2021-03-10 19:53:23","iframe_src":"//5091.svetacdn.in/si4jsFRrtgrT/movie/48612"},{"id":48611,"title":"Токио: Последний мегаполис","kp_id":"52522","imdb_id":"tt0096240","world_art_id":null,"type":"movie","add":"2021-03-10 10:07:47","orig_title":"Teito monogatari","year":"1988-01-30","translations":["Любительский (одноголосый закадровый)"],"quality":"bd","translation":"Любительский (одноголосый закадровый)","update":"2021-03-11 05:32:24","iframe_src":"//5091.svetacdn.in/si4jsFRrtgrT/movie/48611"},{"id":48610,"title":"Ложные улики","kp_id":"37078","imdb_id":"tt0082485","world_art_id":null,"type":"movie","add":"2021-03-10 09:43:55","orig_title":"Gui ma zhi duo xing","year":"1981-07-23","translations":["Авторский (одноголосый закадровый) (Дольский Андрей)"],"quality":"bd","translation":"Авторский (одноголосый закадровый) (Дольский Андрей)","update":"2021-03-11 05:31:04","iframe_src":"//5091.svetacdn.in/si4jsFRrtgrT/movie/48610"},{"id":48608,"title":"Максима","kp_id":"25593","imdb_id":"tt0145900","world_art_id":null,"type":"movie","add":"2021-03-10 06:51:09","orig_title":"Maxime","year":"1958-11-26","translations":["Любительский (одноголосый закадровый) (Линда)"],"quality":"bd","translation":"Любительский (одноголосый закадровый) (Линда)","update":"2021-03-11 09:02:21","iframe_src":"//5091.svetacdn.in/si4jsFRrtgrT/movie/48608"},{"id":48603,"title":"Пламя","kp_id":"224758","imdb_id":"tt0367499","world_art_id":null,"type":"movie","add":"2021-03-10 05:04:14","orig_title":"Angaaray","year":"1986-01-01","translations":["Полное дублирование (Мосфильм)"],"quality":"dvdrip","translation":"Полное дублирование (Мосфильм)","update":"2021-03-10 13:37:32","iframe_src":"//5091.svetacdn.in/si4jsFRrtgrT/movie/48603"},{"id":48547,"title":"Лифт","kp_id":null,"imdb_id":"tt7685962","world_art_id":null,"type":"movie","add":"2021-03-08 09:44:13","orig_title":"El Ascensor","year":"2021-01-01","translations":["Любительский (многоголосый закадровый) (Синема УС)"],"quality":"webdl","translation":"Любительский (многоголосый закадровый) (Синема УС)","update":"2021-03-10 17:14:46","iframe_src":"//5091.svetacdn.in/si4jsFRrtgrT/movie/48547"},{"id":48546,"title":"Непригодный: Психология Дональда Трампа","kp_id":null,"imdb_id":"tt12304596","world_art_id":null,"type":"movie","add":"2021-03-08 09:42:50","orig_title":"Unfit: The Psychology of Donald Trump","year":"2020-08-28","translations":["Любительский (многоголосый закадровый) (Синема УС)"],"quality":"webdl","translation":"Любительский (многоголосый закадровый) (Синема УС)","update":"2021-03-10 17:14:34","iframe_src":"//5091.svetacdn.in/si4jsFRrtgrT/movie/48546"},{"id":5002,"title":"Дэвид Копперфилд","kp_id":"231903","imdb_id":"tt0167872","world_art_id":null,"type":"serial","add":"2019-08-06 10:28:40","orig_title":"David Copperfield","year":"1999-12-25","translations":["Профессиональный (многоголосый закадровый)"],"seasons_count":1,"episodes_count":1,"episodes":1,"update":"2019-08-06 19:31:11","iframe_src":"//5091.svetacdn.in/si4jsFRrtgrT/tv-series/5002"},{"id":4999,"title":"Балерины","kp_id":"611806","imdb_id":"tt2006848","world_art_id":null,"type":"serial","add":"2019-08-06 10:15:13","orig_title":"Bunheads","year":"2012-06-11","translations":["Профессиональный (многоголосый закадровый) (Fox Life)"],"seasons_count":1,"episodes_count":18,"episodes":18,"update":"2019-08-06 19:26:44","iframe_src":"//5091.svetacdn.in/si4jsFRrtgrT/tv-series/4999"},{"id":4998,"title":"Жена генерала","kp_id":"602843","imdb_id":"tt2008030","world_art_id":null,"type":"serial","add":"2019-08-06 10:13:19","orig_title":"Zhena generala","year":"2011-11-12","translations":["Оригинальная дорожка"],"seasons_count":1,"episodes_count":4,"episodes":4,"update":"2019-08-06 18:45:04","iframe_src":"//5091.svetacdn.in/si4jsFRrtgrT/tv-series/4998"},{"id":4991,"title":"Колдовская любовь 2","kp_id":"496801","imdb_id":null,"world_art_id":null,"type":"serial","add":"2019-08-02 22:18:51","orig_title":"Колдовская любовь 2","year":"2009-10-12","translations":["Оригинальная дорожка"],"seasons_count":1,"episodes_count":16,"episodes":16,"update":"2019-08-05 08:45:28","iframe_src":"//5091.svetacdn.in/si4jsFRrtgrT/tv-series/4991"},{"id":4987,"title":"Светка","kp_id":"1049530","imdb_id":null,"world_art_id":null,"type":"serial","add":"2019-08-01 15:44:44","orig_title":"Свєтка","year":"2017-10-16","translations":["Оригинальная дорожка"],"seasons_count":1,"episodes_count":4,"episodes":4,"update":"2019-08-05 12:33:05","iframe_src":"//5091.svetacdn.in/si4jsFRrtgrT/tv-series/4987"},{"id":4985,"title":"Петербург. Любовь. До востребования","kp_id":"1243575","imdb_id":null,"world_art_id":null,"type":"serial","add":"2019-08-01 14:47:27","orig_title":"Петербург. Любовь. До востребования","year":"2019-08-31","translations":["Оригинальная дорожка"],"seasons_count":1,"episodes_count":4,"episodes":4,"update":"2019-08-02 06:23:50","iframe_src":"//5091.svetacdn.in/si4jsFRrtgrT/tv-series/4985"},{"id":4983,"title":"Скуби-Ду! Корпорация «Загадка»","kp_id":"566978","imdb_id":"tt1660055","world_art_id":null,"type":"serial","add":"2019-08-01 11:14:13","orig_title":"Scooby-Doo! Mystery Incorporated","year":"2010-07-12","translations":["Полное дублирование"],"seasons_count":2,"episodes_count":52,"episodes":26,"update":"2019-08-02 12:49:56","iframe_src":"//5091.svetacdn.in/si4jsFRrtgrT/tv-series/4983"},{"id":4980,"title":"C.S.I.: Майами","kp_id":"194194","imdb_id":"tt0313043","world_art_id":null,"type":"serial","add":"2019-07-31 11:13:28","orig_title":"CSI: Miami","year":"2002-09-23","translations":["Профессиональный (многоголосый закадровый) (ДТВ)","Любительский (одноголосый закадровый)"],"seasons_count":10,"episodes_count":232,"episodes":19,"update":"2019-08-06 10:59:35","iframe_src":"//5091.svetacdn.in/si4jsFRrtgrT/tv-series/4980"},{"id":4977,"title":"Неизвестный: История Чоло Адриано","kp_id":"1263425","imdb_id":"tt6524440","world_art_id":null,"type":"serial","add":"2019-07-31 10:40:44","orig_title":"El desconocido: la historia de El Cholo Adrián","year":"2018-12-01","translations":["Профессиональный (двухголосый закадровый) (ViruseProject)"],"seasons_count":1,"episodes_count":5,"episodes":5,"update":"2019-08-05 10:44:02","iframe_src":"//5091.svetacdn.in/si4jsFRrtgrT/tv-series/4977"},{"id":4972,"title":"Робокар Поли и его друзья","kp_id":"794990","imdb_id":"tt4763642","world_art_id":null,"type":"serial","add":"2019-07-30 11:12:54","orig_title":"Robocar Poli","year":"2011-02-28","translations":["Полное дублирование"],"seasons_count":4,"episodes_count":104,"episodes":26,"update":"2019-07-31 19:05:29","iframe_src":"//5091.svetacdn.in/si4jsFRrtgrT/tv-series/4972"},{"id":4964,"title":"Сталин: Live","kp_id":"427883","imdb_id":"tt5009906","world_art_id":null,"type":"serial","add":"2019-07-29 06:07:19","orig_title":"Stalin: Live","year":"2006-01-01","translations":["Оригинальная дорожка"],"seasons_count":1,"episodes_count":40,"episodes":40,"update":"2019-08-06 11:16:44","iframe_src":"//5091.svetacdn.in/si4jsFRrtgrT/tv-series/4964"},{"id":4962,"title":"Дом у большой реки","kp_id":"520627","imdb_id":"tt3799506","world_art_id":null,"type":"serial","add":"2019-07-29 05:53:58","orig_title":"Dom u bolshoy reki","year":"2011-04-25","translations":["Оригинальная дорожка"],"seasons_count":1,"episodes_count":12,"episodes":12,"update":"2019-08-01 11:45:41","iframe_src":"//5091.svetacdn.in/si4jsFRrtgrT/tv-series/4962"},{"id":4961,"title":"Казаки-разбойники","kp_id":"416146","imdb_id":"tt1266901","world_art_id":null,"type":"serial","add":"2019-07-29 05:48:38","orig_title":"Kazaki-razboyniki","year":"2008-06-09","translations":["Оригинальная дорожка"],"seasons_count":1,"episodes_count":4,"episodes":4,"update":"2019-07-31 13:56:24","iframe_src":"//5091.svetacdn.in/si4jsFRrtgrT/tv-series/4961"},{"id":4920,"title":"Рельсы счастья","kp_id":"431933","imdb_id":null,"world_art_id":null,"type":"serial","add":"2019-07-23 07:19:12","orig_title":"Рельсы счастья","year":"2006-01-01","translations":["Оригинальная дорожка"],"seasons_count":1,"episodes_count":8,"episodes":8,"update":"2019-07-31 08:58:50","iframe_src":"//5091.svetacdn.in/si4jsFRrtgrT/tv-series/4920"},{"id":4918,"title":"Дорогая Маша Березина","kp_id":"260238","imdb_id":"tt1016272","world_art_id":null,"type":"serial","add":"2019-07-23 07:08:40","orig_title":"Dorogaya Masha Berezina","year":"2004-05-05","translations":["Оригинальная дорожка"],"seasons_count":1,"episodes_count":30,"episodes":30,"update":"2019-07-31 13:38:44","iframe_src":"//5091.svetacdn.in/si4jsFRrtgrT/tv-series/4918"},{"id":4916,"title":"Двое против смерти","kp_id":"968833","imdb_id":null,"world_art_id":null,"type":"serial","add":"2019-07-22 21:09:06","orig_title":"Двое против смерти","year":"2016-01-01","translations":["Оригинальная дорожка"],"seasons_count":1,"episodes_count":12,"episodes":12,"update":"2019-07-31 19:07:42","iframe_src":"//5091.svetacdn.in/si4jsFRrtgrT/tv-series/4916"},{"id":4610,"title":"Солдаты. Дембельский альбом","kp_id":"679576","imdb_id":null,"world_art_id":null,"type":"serial","add":"2019-05-31 15:09:11","orig_title":"Солдаты. Дембельский альбом","year":"2008-01-01","translations":["Оригинальная дорожка"],"seasons_count":1,"episodes_count":72,"episodes":72,"update":"2019-08-01 11:23:55","iframe_src":"//5091.svetacdn.in/si4jsFRrtgrT/tv-series/4610"},{"id":27127,"title":"Звезда надежды","kp_id":"44649","imdb_id":"tt0078532","world_art_id":null,"type":"movie","add":"2019-05-27 09:14:00","orig_title":"Huso astgh","year":"1978-10-15","translations":["Оригинальная дорожка","Оригинальная дорожка"],"quality":"dvdrip","translation":"Оригинальная дорожка","update":"2021-03-10 13:39:10","iframe_src":"//5091.svetacdn.in/si4jsFRrtgrT/movie/27127"},{"id":3622,"title":"Тоннель","kp_id":"1009255","imdb_id":"tt6356086","world_art_id":null,"type":"serial","add":"2018-12-04 23:33:23","orig_title":"Teoneol","year":"2017-03-25","translations":["Любительский (двухголосый закадровый) (SoftBox)","Любительский (двухголосый закадровый) (GREEN TEA)","Любительский (двухголосый закадровый) (JoyStudio)","Любительский (двухголосый закадровый) (HighHopes)"],"seasons_count":1,"episodes_count":16,"episodes":16,"update":"2019-08-02 15:31:41","iframe_src":"//5091.svetacdn.in/si4jsFRrtgrT/tv-series/3622"},{"id":3294,"title":"Черепашки-ниндзя","kp_id":"584136","imdb_id":"tt1877889","world_art_id":null,"type":"serial","add":"2018-10-14 09:21:52","orig_title":"Teenage Mutant Ninja Turtles","year":"2012-09-29","translations":["Полное дублирование","Полное дублирование (SDI Media)","Любительский (многоголосый закадровый) (ZM-Show)","Полное дублирование (Nickelodeon)"],"seasons_count":5,"episodes_count":115,"episodes":15,"update":"2019-08-02 12:33:00","iframe_src":"//5091.svetacdn.in/si4jsFRrtgrT/tv-series/3294"},{"id":3088,"title":"Не отпускай меня","kp_id":"1163233","imdb_id":"tt8495684","world_art_id":null,"type":"serial","add":"2018-08-27 18:54:55","orig_title":"Beni birakma","year":"2018-01-08","translations":["Любительский (одноголосый закадровый)"],"seasons_count":1,"episodes_count":64,"episodes":64,"update":"2019-08-01 19:04:01","iframe_src":"//5091.svetacdn.in/si4jsFRrtgrT/tv-series/3088"},{"id":5491,"title":"Страшилы","kp_id":"5909","imdb_id":"tt0116365","world_art_id":null,"type":"movie","add":"2016-09-26 07:51:39","orig_title":"The Frighteners","year":"1996-07-19","translations":["Профессиональный (многоголосый закадровый)","Профессиональный (двухголосый закадровый)","Авторский (одноголосый закадровый) (Гаврилов Андрей)","Авторский (одноголосый закадровый) (Латышев Максим | CDV)","Авторский (одноголосый закадровый) (Леша-прапорщик)","Авторский (одноголосый закадровый) (Визгунов Сергей)","Авторский (одноголосый закадровый) (Живов Юрий)","Original (English)","Профессиональный (двухголосый закадровый) (Гланц + Королёва)","Профессиональный (двухголосый закадровый) (Премьер Видео Фильм)","Профессиональный (многоголосый закадровый) (СТС)","Профессиональный (многоголосый закадровый) (Позитив)"],"quality":"bd","translation":"Профессиональный (многоголосый закадровый)","update":"2021-03-10 14:16:19","iframe_src":"//5091.svetacdn.in/si4jsFRrtgrT/movie/5491"},{"id":1869,"title":"Код Да Винчи","kp_id":"77711","imdb_id":"tt0382625","world_art_id":null,"type":"movie","add":"2016-05-04 16:07:59","orig_title":"The Da Vinci Code","year":"2006-05-17","translations":["Полное дублирование","Original (English)","Авторский (одноголосый закадровый) (Гаврилов Андрей)","Авторский (одноголосый закадровый) (Королёв Владимир)","Original (English)","Профессиональный (двухголосый закадровый) (Гланц + Королёва)","Профессиональный (многоголосый закадровый)","Профессиональный (многоголосый закадровый) (Киномания)"],"quality":"bd","translation":"Полное дублирование","update":"2021-03-11 09:17:58","iframe_src":"//5091.svetacdn.in/si4jsFRrtgrT/movie/1869"},{"id":1854,"title":"Ангелы и Демоны","kp_id":"257401","imdb_id":"tt0808151","world_art_id":null,"type":"movie","add":"2016-05-04 15:06:09","orig_title":"Angels & Demons","year":"2009-05-04","translations":["Полное дублирование","Авторский (одноголосый закадровый) (Гаврилов Андрей)","Авторский (одноголосый закадровый) (Королёв Владимир)","Авторский (одноголосый закадровый) (Живов Юрий)","Полное дублирование","Original (English)"],"quality":"bd","translation":"Полное дублирование","update":"2021-03-11 09:10:26","iframe_src":"//5091.svetacdn.in/si4jsFRrtgrT/movie/1854"},{"id":1154,"title":"Мальчишник в Вегасе","kp_id":"426004","imdb_id":"tt1119646","world_art_id":null,"type":"movie","add":"2016-04-15 06:21:01","orig_title":"The Hangover","year":"2009-05-30","translations":["Полное дублирование","Авторский (одноголосый закадровый) (Немахов Юрий)","Полное дублирование","Любительский (одноголосый закадровый) (seqw0 | Ахметов Сергей)","Профессиональный (многоголосый закадровый) (Киномания)"],"quality":"bd","translation":"Полное дублирование","update":"2021-03-10 13:25:14","iframe_src":"//5091.svetacdn.in/si4jsFRrtgrT/movie/1154"},{"id":706,"title":"Американский пирог 3: Свадьба","kp_id":"4300","imdb_id":"tt0328828","world_art_id":null,"type":"movie","add":"2016-04-06 20:37:01","orig_title":"American Wedding","year":"2003-07-24","translations":["Полное дублирование","Полное дублирование","Original (English)","Профессиональный (двухголосый закадровый) (Премьер Видео Фильм)"],"quality":"bd","translation":"Полное дублирование","update":"2021-03-11 09:22:29","iframe_src":"//5091.svetacdn.in/si4jsFRrtgrT/movie/706"},{"id":416,"title":"Суррогаты","kp_id":"397671","imdb_id":"tt0986263","world_art_id":null,"type":"movie","add":"2016-04-01 16:19:28","orig_title":"Surrogates","year":"2009-09-24","translations":["Полное дублирование","Original (English)","Авторский (одноголосый закадровый) (Гаврилов Андрей)","Original (English)"],"quality":"bd","translation":"Полное дублирование","update":"2021-03-10 13:19:18","iframe_src":"//5091.svetacdn.in/si4jsFRrtgrT/movie/416"},{"id":59,"title":"Левша","kp_id":"573990","imdb_id":"tt1798684","world_art_id":null,"type":"movie","add":"2016-02-08 10:37:36","orig_title":"Southpaw","year":"2015-06-15","translations":["Полное дублирование","Авторский (одноголосый закадровый) (Чадов Михаил)","Полное дублирование","Original (English)"],"quality":"bd","translation":"Полное дублирование","update":"2021-03-10 13:14:47","iframe_src":"//5091.svetacdn.in/si4jsFRrtgrT/movie/59"}],"current_page":387,"first_page_url":"https://videocdn.tv/api/short?limit=100&api_token=X6EwAUfE5M9xbo7y0Bp0aPf3uXxG2KLL&cache3387=3387&page=1","from":38601,"last_page":665,"last_page_url":"https://videocdn.tv/api/short?limit=100&api_token=X6EwAUfE5M9xbo7y0Bp0aPf3uXxG2KLL&cache3387=3387&page=665","next_page_url":"https://videocdn.tv/api/short?limit=100&api_token=X6EwAUfE5M9xbo7y0Bp0aPf3uXxG2KLL&cache3387=3387&page=388","path":"https://videocdn.tv/api/short","per_page":100,"prev_page_url":"https://videocdn.tv/api/short?limit=100&api_token=X6EwAUfE5M9xbo7y0Bp0aPf3uXxG2KLL&cache3387=3387&page=386","to":38640,"total":66409}