{"result":true,"data":[{"id":32331,"title":"Любовь и предательство","kp_id":"61719","imdb_id":"tt0337578","world_art_id":null,"type":"movie","add":"2019-10-25 07:19:41","orig_title":"Baghban","year":"2003-10-02","translations":["Профессиональный (многоголосый закадровый)"],"quality":"bd","translation":"Профессиональный (многоголосый закадровый)","update":"2019-10-25 12:19:37","iframe_src":"//8332.svetacdn.in/71tsRs29n5tZ/movie/32331"},{"id":32329,"title":"Чужой ребенок","kp_id":"65138","imdb_id":"tt0256692","world_art_id":null,"type":"movie","add":"2019-10-25 06:53:12","orig_title":"Chori Chori Chupke Chupke","year":"2001-03-09","translations":["Профессиональный (многоголосый закадровый)"],"quality":"webdl","translation":"Профессиональный (многоголосый закадровый)","update":"2019-10-25 12:12:35","iframe_src":"//8332.svetacdn.in/71tsRs29n5tZ/movie/32329"},{"id":32327,"title":"Гинтама 2: Правила для того, чтобы их нарушать","kp_id":"1103205","imdb_id":"tt7639528","world_art_id":null,"type":"movie","add":"2019-10-25 06:47:45","orig_title":"Gintama 2: Okite wa yaburu tame ni koso aru","year":"2018-08-17","translations":["Любительский (многоголосый закадровый) (Колобок)"],"quality":"webdl","translation":"Любительский (многоголосый закадровый) (Колобок)","update":"2019-10-25 12:11:09","iframe_src":"//8332.svetacdn.in/71tsRs29n5tZ/movie/32327"},{"id":32325,"title":"Харакири","kp_id":"103148","imdb_id":"tt0056058","world_art_id":null,"type":"movie","add":"2019-10-25 06:37:45","orig_title":"Seppuku","year":"1962-09-16","translations":["Профессиональный (многоголосый закадровый)"],"quality":"bd","translation":"Профессиональный (многоголосый закадровый)","update":"2019-10-25 12:09:08","iframe_src":"//8332.svetacdn.in/71tsRs29n5tZ/movie/32325"},{"id":32323,"title":"И в печали, и в радости...","kp_id":"64595","imdb_id":"tt0248126","world_art_id":null,"type":"movie","add":"2019-10-25 06:31:19","orig_title":"Kabhi Khushi Kabhie Gham...","year":"2001-12-14","translations":["Профессиональный (многоголосый закадровый)"],"quality":"bd","translation":"Профессиональный (многоголосый закадровый)","update":"2019-10-25 12:07:41","iframe_src":"//8332.svetacdn.in/71tsRs29n5tZ/movie/32323"},{"id":32320,"title":"Восставший","kp_id":"63237","imdb_id":"tt0061847","world_art_id":null,"type":"movie","add":"2019-10-25 06:22:43","orig_title":"Jôi-uchi: Hairyô tsuma shimatsu","year":"1967-05-27","translations":["Профессиональный (многоголосый закадровый)"],"quality":"webdl","translation":"Профессиональный (многоголосый закадровый)","update":"2019-10-25 12:06:06","iframe_src":"//8332.svetacdn.in/71tsRs29n5tZ/movie/32320"},{"id":32315,"title":"Лев зимой","kp_id":"79759","imdb_id":"tt0319754","world_art_id":null,"type":"movie","add":"2019-10-25 05:34:57","orig_title":"The Lion in Winter","year":"2003-12-26","translations":["Профессиональный (многоголосый закадровый)"],"quality":"dvdrip","translation":"Профессиональный (многоголосый закадровый)","update":"2019-10-25 09:42:39","iframe_src":"//8332.svetacdn.in/71tsRs29n5tZ/movie/32315"},{"id":32309,"title":"Супермен/Бэтмен: Апокалипсис","kp_id":"527655","imdb_id":"tt1673430","world_art_id":null,"type":"movie","add":"2019-10-25 04:45:35","orig_title":"Superman/Batman: Apocalypse","year":"2010-09-28","translations":["Любительский (многоголосый закадровый)"],"quality":"bd","translation":"Любительский (многоголосый закадровый)","update":"2019-10-25 09:43:43","iframe_src":"//8332.svetacdn.in/71tsRs29n5tZ/movie/32309"},{"id":30759,"title":"Амитивилль 4: Зло спасается","kp_id":"229621","imdb_id":"tt0096808","world_art_id":null,"type":"movie","add":"2019-09-11 14:59:33","orig_title":"Amityville: The Evil Escapes","year":"1989-05-12","translations":["Авторский (одноголосый закадровый) (Визгунов Сергей)","Original (English)"],"quality":"webdl","translation":"Авторский (одноголосый закадровый) (Визгунов Сергей)","update":"2019-10-25 12:27:54","iframe_src":"//8332.svetacdn.in/71tsRs29n5tZ/movie/30759"},{"id":30758,"title":"Амитивилль 1992: Вопрос времени","kp_id":"229235","imdb_id":"tt0103678","world_art_id":null,"type":"movie","add":"2019-09-11 14:58:20","orig_title":"Amityville: It's About Time","year":"1992-05-24","translations":["Авторский (одноголосый закадровый) (Живов Юрий)","Original (English)"],"quality":"webdl","translation":"Авторский (одноголосый закадровый) (Живов Юрий)","update":"2019-10-25 12:26:38","iframe_src":"//8332.svetacdn.in/71tsRs29n5tZ/movie/30758"},{"id":30757,"title":"Амитивилль 7: Новое поколение","kp_id":"229243","imdb_id":"tt0106262","world_art_id":null,"type":"movie","add":"2019-09-11 14:56:52","orig_title":"Amityville: A New Generation","year":"1993-08-07","translations":["Авторский (одноголосый закадровый) (Дольский Андрей)","Original (English)"],"quality":"webdl","translation":"Авторский (одноголосый закадровый) (Дольский Андрей)","update":"2019-10-25 12:25:52","iframe_src":"//8332.svetacdn.in/71tsRs29n5tZ/movie/30757"},{"id":30589,"title":"Госпиталь «Британия»","kp_id":"6606","imdb_id":"tt0083694","world_art_id":null,"type":"movie","add":"2019-09-05 12:05:23","orig_title":"Britannia Hospital","year":"1982-05-22","translations":["Профессиональный (двухголосый закадровый) (Видеосервис)","Original (English)"],"quality":"webdl","translation":"Профессиональный (двухголосый закадровый) (Видеосервис)","update":"2019-10-25 12:33:33","iframe_src":"//8332.svetacdn.in/71tsRs29n5tZ/movie/30589"},{"id":30477,"title":"Набалдашник и метла","kp_id":"14107","imdb_id":"tt0066817","world_art_id":null,"type":"movie","add":"2019-09-02 13:37:21","orig_title":"Bedknobs and Broomsticks","year":"1971-10-07","translations":["Профессиональный (многоголосый закадровый)","Original (English)"],"quality":"webdl","translation":"Профессиональный (многоголосый закадровый)","update":"2019-10-25 12:32:08","iframe_src":"//8332.svetacdn.in/71tsRs29n5tZ/movie/30477"},{"id":30476,"title":"И Бог создал женщину","kp_id":"23424","imdb_id":"tt0092559","world_art_id":null,"type":"movie","add":"2019-09-02 13:36:19","orig_title":"And God Created Woman","year":"1988-03-04","translations":["Профессиональный (многоголосый закадровый)","Original (English)"],"quality":"webdl","translation":"Профессиональный (многоголосый закадровый)","update":"2019-10-25 12:29:07","iframe_src":"//8332.svetacdn.in/71tsRs29n5tZ/movie/30476"},{"id":30475,"title":"Человек на все времена","kp_id":"564","imdb_id":"tt0060665","world_art_id":null,"type":"movie","add":"2019-09-02 13:34:59","orig_title":"A Man for All Seasons","year":"1966-12-12","translations":["Профессиональный (многоголосый закадровый) (SomeWax)","Original (English)"],"quality":"webdl","translation":"Профессиональный (многоголосый закадровый) (SomeWax)","update":"2019-10-25 12:24:33","iframe_src":"//8332.svetacdn.in/71tsRs29n5tZ/movie/30475"},{"id":30381,"title":"Животные","kp_id":"807289","imdb_id":"tt3297554","world_art_id":null,"type":"movie","add":"2019-08-30 07:07:06","orig_title":"Animals","year":"2014-03-09","translations":["Любительский (одноголосый закадровый)","Original (English)"],"quality":"webdl","translation":"Любительский (одноголосый закадровый)","update":"2019-10-25 12:31:15","iframe_src":"//8332.svetacdn.in/71tsRs29n5tZ/movie/30381"},{"id":18057,"title":"Марионетка","kp_id":"1113005","imdb_id":"tt8134688","world_art_id":null,"type":"movie","add":"2018-08-05 14:31:02","orig_title":"Nareul gieokhae","year":"2018-04-19","translations":["Любительский (многоголосый закадровый) (Колобок)","Любительский (многоголосый закадровый) (STEPonee)"],"quality":"webdl","translation":"Любительский (многоголосый закадровый) (Колобок)","update":"2019-10-25 12:04:35","iframe_src":"//8332.svetacdn.in/71tsRs29n5tZ/movie/18057"},{"id":10730,"title":"Бесстрашный","kp_id":"102161","imdb_id":"tt0446059","world_art_id":null,"type":"movie","add":"2017-04-04 15:34:08","orig_title":"Huo yuanjia","year":"2006-01-26","translations":["Полное дублирование","Авторский (одноголосый закадровый) (Дольский Андрей)"],"quality":"bd","translation":"Полное дублирование","update":"2019-10-25 12:17:17","iframe_src":"//8332.svetacdn.in/71tsRs29n5tZ/movie/10730"},{"id":7356,"title":"Большая жратва","kp_id":"4260","imdb_id":"tt0348333","world_art_id":null,"type":"movie","add":"2016-11-11 08:00:41","orig_title":"Waiting...","year":"2005-10-07","translations":["Профессиональный (многоголосый закадровый)","Полное дублирование","Original (English)"],"quality":"bd","translation":"Профессиональный (многоголосый закадровый)","update":"2019-10-25 12:22:55","iframe_src":"//8332.svetacdn.in/71tsRs29n5tZ/movie/7356"},{"id":6624,"title":"Птица","kp_id":"4778","imdb_id":"tt0094747","world_art_id":null,"type":"movie","add":"2016-10-25 05:28:50","orig_title":"Bird","year":"1988-05-21","translations":["Профессиональный (многоголосый закадровый)","Original (English)"],"quality":"webdl","translation":"Профессиональный (многоголосый закадровый)","update":"2019-10-25 12:33:01","iframe_src":"//8332.svetacdn.in/71tsRs29n5tZ/movie/6624"}],"current_page":1125,"first_page_url":"https://videocdn.tv/api/short?limit=100&api_token=EnbO9h8pv1VyjbCJhg0WM9nG259n7mtz&cache31125=31125&page=1","from":112401,"last_page":633,"last_page_url":"https://videocdn.tv/api/short?limit=100&api_token=EnbO9h8pv1VyjbCJhg0WM9nG259n7mtz&cache31125=31125&page=633","next_page_url":null,"path":"https://videocdn.tv/api/short","per_page":100,"prev_page_url":"https://videocdn.tv/api/short?limit=100&api_token=EnbO9h8pv1VyjbCJhg0WM9nG259n7mtz&cache31125=31125&page=1124","to":112420,"total":63266}