{"result":true,"data":[{"id":42739,"title":"Домой на праздник урожая","kp_id":"1273614","imdb_id":"tt10388558","world_art_id":null,"type":"movie","add":"2020-08-24 20:10:12","orig_title":"Home for Harvest","year":"2019-09-21","translations":["Любительский (многоголосый закадровый) (AlphaProject)"],"quality":"webdl","translation":"Любительский (многоголосый закадровый) (AlphaProject)","update":"2020-08-24 21:40:30","iframe_src":"//8543.svetacdn.in/si4jsFRrtgrT/movie/42739"},{"id":42737,"title":"Инцидент","kp_id":"312859","imdb_id":"tt1027820","world_art_id":null,"type":"movie","add":"2020-08-24 20:08:16","orig_title":"The Incident","year":"2011-09-12","translations":["Любительский (одноголосый закадровый) (den904)"],"quality":"bd","translation":"Любительский (одноголосый закадровый) (den904)","update":"2020-08-25 06:50:15","iframe_src":"//8543.svetacdn.in/si4jsFRrtgrT/movie/42737"},{"id":42736,"title":"Степная эскадрилья","kp_id":"43994","imdb_id":"tt0275701","world_art_id":null,"type":"movie","add":"2020-08-24 20:06:31","orig_title":"Stepnaya eskadrilya","year":"1987-06-29","translations":["Оригинальная дорожка"],"quality":"tv","translation":"Оригинальная дорожка","update":"2020-08-24 20:18:42","iframe_src":"//8543.svetacdn.in/si4jsFRrtgrT/movie/42736"},{"id":42732,"title":"Час истины","kp_id":"1238802","imdb_id":"tt9794630","world_art_id":null,"type":"movie","add":"2020-08-24 19:54:54","orig_title":"Hour of Lead","year":"2020-02-28","translations":["Полное дублирование (iTunes)"],"quality":"webdl","translation":"Полное дублирование (iTunes)","update":"2020-08-25 06:45:39","iframe_src":"//8543.svetacdn.in/si4jsFRrtgrT/movie/42732"},{"id":42724,"title":"Проклятие Рапунцель","kp_id":"1284152","imdb_id":"tt10560846","world_art_id":null,"type":"movie","add":"2020-08-24 09:21:36","orig_title":"Rapunzels Fluch","year":"2020-07-31","translations":["Любительский (многоголосый закадровый) (Синема УС)"],"quality":"bd","translation":"Любительский (многоголосый закадровый) (Синема УС)","update":"2020-08-24 15:14:41","iframe_src":"//8543.svetacdn.in/si4jsFRrtgrT/movie/42724"},{"id":42723,"title":"Раскрываясь перед тобой","kp_id":"1176582","imdb_id":"tt8258662","world_art_id":null,"type":"movie","add":"2020-08-24 09:10:47","orig_title":"Letting You Know Me","year":"2018-11-05","translations":["Любительский (многоголосый закадровый) (Синема УС)"],"quality":"webdl","translation":"Любительский (многоголосый закадровый) (Синема УС)","update":"2020-08-24 15:18:36","iframe_src":"//8543.svetacdn.in/si4jsFRrtgrT/movie/42723"},{"id":42722,"title":"Соблазнительница","kp_id":"1217033","imdb_id":"tt9342622","world_art_id":null,"type":"movie","add":"2020-08-24 09:06:43","orig_title":"La Seductora","year":"2020-06-12","translations":["Любительский (многоголосый закадровый) (AlphaProject)"],"quality":"webdl","translation":"Любительский (многоголосый закадровый) (AlphaProject)","update":"2020-08-24 15:20:06","iframe_src":"//8543.svetacdn.in/si4jsFRrtgrT/movie/42722"},{"id":42720,"title":"В кругах","kp_id":"806698","imdb_id":"tt3285114","world_art_id":null,"type":"movie","add":"2020-08-24 08:38:00","orig_title":"In Circles","year":"2016-09-25","translations":["Любительский (многоголосый закадровый) (Синема УС)"],"quality":"webdl","translation":"Любительский (многоголосый закадровый) (Синема УС)","update":"2020-08-24 15:21:01","iframe_src":"//8543.svetacdn.in/si4jsFRrtgrT/movie/42720"},{"id":42719,"title":"Я хотел бы побыть один","kp_id":"1003575","imdb_id":"tt6062606","world_art_id":null,"type":"movie","add":"2020-08-24 08:30:32","orig_title":"I'd Like to Be Alone Now","year":"2019-01-08","translations":["Любительский (многоголосый закадровый) (AlphaProject)"],"quality":"webdl","translation":"Любительский (многоголосый закадровый) (AlphaProject)","update":"2020-08-24 15:21:37","iframe_src":"//8543.svetacdn.in/si4jsFRrtgrT/movie/42719"},{"id":42718,"title":"Колибри","kp_id":"1190482","imdb_id":"tt8951086","world_art_id":null,"type":"movie","add":"2020-08-24 08:20:07","orig_title":"Beol-sae","year":"2018-10-06","translations":["Любительский (многоголосый закадровый) (Синема УС)"],"quality":"bd","translation":"Любительский (многоголосый закадровый) (Синема УС)","update":"2020-08-24 15:22:21","iframe_src":"//8543.svetacdn.in/si4jsFRrtgrT/movie/42718"},{"id":42717,"title":"Заячья губа","kp_id":"1097952","imdb_id":"tt7516426","world_art_id":null,"type":"movie","add":"2020-08-24 07:59:23","orig_title":"Cleft Lip","year":"2018-07-13","translations":["Любительский (многоголосый закадровый) (Синема УС)"],"quality":"webdl","translation":"Любительский (многоголосый закадровый) (Синема УС)","update":"2020-08-24 15:22:59","iframe_src":"//8543.svetacdn.in/si4jsFRrtgrT/movie/42717"},{"id":42716,"title":"Блаженство","kp_id":"1043353","imdb_id":"tt6608136","world_art_id":null,"type":"movie","add":"2020-08-24 07:27:53","orig_title":"Bliss","year":"2017-03-05","translations":["Любительский (двухголосый закадровый) (Колобок)"],"quality":"webdl","translation":"Любительский (двухголосый закадровый) (Колобок)","update":"2020-08-24 15:25:37","iframe_src":"//8543.svetacdn.in/si4jsFRrtgrT/movie/42716"},{"id":42714,"title":"Вечная красота","kp_id":"1147254","imdb_id":"tt5362940","world_art_id":null,"type":"movie","add":"2020-08-24 06:18:36","orig_title":"Eternal Beauty","year":"2019-10-08","translations":["Профессиональный (многоголосый закадровый) (iTunes)"],"quality":"webdl","translation":"Профессиональный (многоголосый закадровый) (iTunes)","update":"2020-08-24 15:26:27","iframe_src":"//8543.svetacdn.in/si4jsFRrtgrT/movie/42714"},{"id":42617,"title":"Ангелочек-мстительница","kp_id":"28462","imdb_id":"tt0088757","world_art_id":null,"type":"movie","add":"2020-08-20 18:05:16","orig_title":"Avenging Angel","year":"1985-01-11","translations":["Авторский (одноголосый закадровый) (Иванов Михаил)","Original (English)","Профессиональный (многоголосый закадровый) (Инис)","Профессиональный (многоголосый закадровый) (РТР | Россия)"],"quality":"bd","translation":"Авторский (одноголосый закадровый) (Иванов Михаил)","update":"2020-08-25 07:19:10","iframe_src":"//8543.svetacdn.in/si4jsFRrtgrT/movie/42617"},{"id":41570,"title":"Ход вещей","kp_id":"1050648","imdb_id":"tt6833470","world_art_id":null,"type":"movie","add":"2020-07-02 21:27:57","orig_title":"The Swing of Things","year":"2020-07-14","translations":["Любительский (многоголосый закадровый) (@MUZOBOZ@)","Original (English)","Профессиональный (многоголосый закадровый) (iTunes)"],"quality":"bd","translation":"Любительский (многоголосый закадровый) (@MUZOBOZ@)","update":"2020-08-25 06:45:47","iframe_src":"//8543.svetacdn.in/si4jsFRrtgrT/movie/41570"},{"id":40547,"title":"Скуби-ду","kp_id":"797697","imdb_id":"tt3152592","world_art_id":null,"type":"movie","add":"2020-05-20 04:50:21","orig_title":"Scoob!","year":"2020-05-15","translations":["Профессиональный (многоголосый закадровый) (HDrezka Studio)","Любительский (многоголосый закадровый) (@MUZOBOZ@)","Original (English)","Профессиональный (многоголосый закадровый) (HDrezka Studio)","Профессиональный (многоголосый закадровый) (HDrezka Studio)","Любительский (многоголосый закадровый) (Flarrow Films)","Полное дублирование (iTunes)"],"quality":"webdl","translation":"Профессиональный (многоголосый закадровый) (HDrezka Studio)","update":"2020-08-25 06:46:12","iframe_src":"//8543.svetacdn.in/si4jsFRrtgrT/movie/40547"},{"id":38637,"title":"Королева чёрной магии","kp_id":"1287167","imdb_id":"tt10656188","world_art_id":null,"type":"movie","add":"2020-03-28 12:39:43","orig_title":"Ratu Ilmu Hitam","year":"2019-11-07","translations":["Любительский (многоголосый закадровый) (Синема УС)","Любительский (двухголосый закадровый) (Колобок)"],"quality":"webdl","translation":"Любительский (многоголосый закадровый) (Синема УС)","update":"2020-08-24 15:19:38","iframe_src":"//8543.svetacdn.in/si4jsFRrtgrT/movie/38637"},{"id":3804,"title":"Ради любви я всё смогу","kp_id":"942280","imdb_id":"tt5311566","world_art_id":null,"type":"serial","add":"2018-12-30 16:00:35","orig_title":"Radi lyubvi ya vsyo smogu","year":"2015-11-16","translations":["Оригинальная дорожка"],"seasons_count":1,"episodes_count":60,"episodes":60,"update":"2018-12-31 12:54:18","iframe_src":"//8543.svetacdn.in/si4jsFRrtgrT/tv-series/3804"},{"id":3803,"title":"Ботаны","kp_id":"841295","imdb_id":null,"world_art_id":null,"type":"serial","add":"2018-12-30 15:48:25","orig_title":"Ботаны","year":"2015-10-17","translations":["Оригинальная дорожка"],"seasons_count":1,"episodes_count":40,"episodes":40,"update":"2018-12-31 00:11:57","iframe_src":"//8543.svetacdn.in/si4jsFRrtgrT/tv-series/3803"},{"id":3801,"title":"Следователи","kp_id":"929798","imdb_id":null,"world_art_id":null,"type":"serial","add":"2018-12-30 15:29:48","orig_title":"Следователи","year":"2015-01-01","translations":["Оригинальная дорожка"],"seasons_count":1,"episodes_count":56,"episodes":56,"update":"2018-12-31 13:26:04","iframe_src":"//8543.svetacdn.in/si4jsFRrtgrT/tv-series/3801"},{"id":3799,"title":"Богатые дети, бедные родители","kp_id":"501714","imdb_id":"tt1464446","world_art_id":null,"type":"serial","add":"2018-12-30 14:43:21","orig_title":"Niños ricos, pobres padres","year":"2009-07-07","translations":["Профессиональный (многоголосый закадровый)"],"seasons_count":1,"episodes_count":130,"episodes":130,"update":"2018-12-31 14:30:53","iframe_src":"//8543.svetacdn.in/si4jsFRrtgrT/tv-series/3799"},{"id":3798,"title":"10 друзей Кролика","kp_id":"840917","imdb_id":"tt3282274","world_art_id":null,"type":"serial","add":"2018-12-30 14:32:33","orig_title":"10 druzey Krolika","year":"2014-01-01","translations":["Оригинальная дорожка"],"seasons_count":1,"episodes_count":43,"episodes":43,"update":"2018-12-31 15:44:18","iframe_src":"//8543.svetacdn.in/si4jsFRrtgrT/tv-series/3798"},{"id":3786,"title":"Новогодний ангел","kp_id":null,"imdb_id":null,"world_art_id":null,"type":"serial","add":"2018-12-30 00:50:08","orig_title":"Новогодний ангел","year":"2018-12-29","translations":["Оригинальная дорожка"],"seasons_count":1,"episodes_count":2,"episodes":2,"update":"2018-12-30 01:47:51","iframe_src":"//8543.svetacdn.in/si4jsFRrtgrT/tv-series/3786"},{"id":3785,"title":"Король выпечки Ким Тхак-ку","kp_id":"577297","imdb_id":"tt1821771","world_art_id":null,"type":"serial","add":"2018-12-29 00:30:48","orig_title":"Jeppangwang Kim Tak-goo","year":"2010-06-09","translations":["Любительский (одноголосый закадровый) (GREEN TEA)"],"seasons_count":1,"episodes_count":30,"episodes":30,"update":"2018-12-31 19:00:36","iframe_src":"//8543.svetacdn.in/si4jsFRrtgrT/tv-series/3785"},{"id":3784,"title":"Призрачный вор Яманеко","kp_id":"969300","imdb_id":"tt5207316","world_art_id":null,"type":"serial","add":"2018-12-29 00:20:04","orig_title":"Kaitô Yamaneko","year":"2016-01-16","translations":["Любительский (одноголосый закадровый) (GREEN TEA)"],"seasons_count":1,"episodes_count":10,"episodes":10,"update":"2018-12-31 19:29:20","iframe_src":"//8543.svetacdn.in/si4jsFRrtgrT/tv-series/3784"},{"id":3783,"title":"Берегитесь Бэтмена","kp_id":"675660","imdb_id":"tt2329077","world_art_id":null,"type":"serial","add":"2018-12-28 20:29:46","orig_title":"Beware the Batman","year":"2013-07-13","translations":["Профессиональный (многоголосый закадровый)"],"seasons_count":1,"episodes_count":26,"episodes":26,"update":"2018-12-30 12:23:22","iframe_src":"//8543.svetacdn.in/si4jsFRrtgrT/tv-series/3783"},{"id":3779,"title":"Байки из турне","kp_id":"1111930","imdb_id":"tt7212136","world_art_id":null,"type":"serial","add":"2018-12-27 15:14:42","orig_title":"Mike Judge Presents: Tales from the Tour Bus","year":"2017-09-22","translations":["Профессиональный (двухголосый закадровый) (Greb&Creative)"],"seasons_count":2,"episodes_count":16,"episodes":8,"update":"2018-12-31 09:39:01","iframe_src":"//8543.svetacdn.in/si4jsFRrtgrT/tv-series/3779"},{"id":3777,"title":"Влюблённые с Хэундэ","kp_id":"820442","imdb_id":"tt3467302","world_art_id":null,"type":"serial","add":"2018-12-26 22:21:05","orig_title":"Haeundae Lovers","year":"2012-08-06","translations":["Любительский (одноголосый закадровый) (GREEN TEA)"],"seasons_count":1,"episodes_count":16,"episodes":16,"update":"2018-12-31 19:34:43","iframe_src":"//8543.svetacdn.in/si4jsFRrtgrT/tv-series/3777"},{"id":3776,"title":"Божественные капли","kp_id":"455567","imdb_id":"tt1360424","world_art_id":null,"type":"serial","add":"2018-12-26 22:16:13","orig_title":"Kami no shizuku","year":"2009-01-13","translations":["Любительский (двухголосый закадровый) (GREEN TEA)"],"seasons_count":1,"episodes_count":9,"episodes":9,"update":"2018-12-31 19:48:18","iframe_src":"//8543.svetacdn.in/si4jsFRrtgrT/tv-series/3776"},{"id":3775,"title":"Не сахарные","kp_id":"745258","imdb_id":"tt2501566","world_art_id":null,"type":"serial","add":"2018-12-26 22:10:17","orig_title":"Sugarless","year":"2012-10-03","translations":["Любительский (двухголосый закадровый) (GREEN TEA)"],"seasons_count":1,"episodes_count":12,"episodes":12,"update":"2018-12-31 19:53:16","iframe_src":"//8543.svetacdn.in/si4jsFRrtgrT/tv-series/3775"},{"id":3774,"title":"Грань","kp_id":"839418","imdb_id":"tt3512088","world_art_id":null,"type":"serial","add":"2018-12-26 22:05:23","orig_title":"Border: Keishichô Sôsa Ikka Satsujinhan Sôsa Dai 4-gakkari","year":"2014-04-10","translations":["Любительский (одноголосый закадровый) (GREEN TEA)"],"seasons_count":1,"episodes_count":9,"episodes":9,"update":"2018-12-31 19:59:39","iframe_src":"//8543.svetacdn.in/si4jsFRrtgrT/tv-series/3774"},{"id":3773,"title":"Лжесвидетельство Соломона","kp_id":"1007940","imdb_id":"tt6256616","world_art_id":null,"type":"serial","add":"2018-12-26 21:42:41","orig_title":"Solromonui Wijeung","year":"2016-12-16","translations":["Любительский (одноголосый закадровый) (GREEN TEA)"],"seasons_count":1,"episodes_count":12,"episodes":12,"update":"2018-12-31 19:42:43","iframe_src":"//8543.svetacdn.in/si4jsFRrtgrT/tv-series/3773"},{"id":3772,"title":"Братья Оджакке","kp_id":"778782","imdb_id":"tt3211152","world_art_id":null,"type":"serial","add":"2018-12-26 21:33:15","orig_title":"Ojakgyo hyeongjaedeul","year":"2011-08-06","translations":["Любительский (двухголосый закадровый) (GREEN TEA)"],"seasons_count":1,"episodes_count":58,"episodes":58,"update":"2018-12-31 20:22:06","iframe_src":"//8543.svetacdn.in/si4jsFRrtgrT/tv-series/3772"},{"id":3771,"title":"Милый шпион","kp_id":"494210","imdb_id":"tt0805191","world_art_id":null,"type":"serial","add":"2018-12-26 21:28:35","orig_title":"Dalkomhan seupai","year":"2005-11-07","translations":["Любительский (одноголосый закадровый) (GREEN TEA)"],"seasons_count":1,"episodes_count":20,"episodes":20,"update":"2018-12-31 20:58:42","iframe_src":"//8543.svetacdn.in/si4jsFRrtgrT/tv-series/3771"},{"id":3619,"title":"Буду рада, если ты умрёшь","kp_id":"1187964","imdb_id":"tt9143894","world_art_id":null,"type":"serial","add":"2018-12-04 20:50:05","orig_title":"Jookeodo Joa","year":"2018-11-07","translations":["Любительский (двухголосый закадровый) (SoftBox)"],"seasons_count":1,"episodes_count":16,"episodes":16,"update":"2018-12-30 15:18:55","iframe_src":"//8543.svetacdn.in/si4jsFRrtgrT/tv-series/3619"},{"id":3559,"title":"Чужое гнездо","kp_id":"917503","imdb_id":"tt4826772","world_art_id":null,"type":"serial","add":"2018-11-23 14:08:27","orig_title":"Chuzhoe gnezdo","year":"2015-07-06","translations":["Оригинальная дорожка"],"seasons_count":1,"episodes_count":60,"episodes":60,"update":"2018-12-31 00:48:10","iframe_src":"//8543.svetacdn.in/si4jsFRrtgrT/tv-series/3559"},{"id":17165,"title":"Инопланетный код","kp_id":"962558","imdb_id":"tt5453522","world_art_id":null,"type":"movie","add":"2018-06-14 19:49:21","orig_title":"The Men","year":"2017-04-23","translations":["Любительский (многоголосый закадровый) (Синема УС)","Профессиональный (многоголосый закадровый) (GreenРай Studio)","Полное дублирование (iTunes)"],"quality":"webdl","translation":"Любительский (многоголосый закадровый) (Синема УС)","update":"2020-08-25 06:49:56","iframe_src":"//8543.svetacdn.in/si4jsFRrtgrT/movie/17165"},{"id":12902,"title":"Проделки в колледже","kp_id":"195566","imdb_id":"tt0423977","world_art_id":null,"type":"movie","add":"2017-08-10 13:24:24","orig_title":"Charlie Bartlett","year":"2007-05-01","translations":["Полное дублирование","Полное дублирование","Original (English)","Профессиональный (двухголосый закадровый) (НТВ)"],"quality":"webdl","translation":"Полное дублирование","update":"2020-08-25 07:22:41","iframe_src":"//8543.svetacdn.in/si4jsFRrtgrT/movie/12902"},{"id":786,"title":"Воплощение ревности","kp_id":"994636","imdb_id":"tt5936884","world_art_id":null,"type":"serial","add":"2017-01-02 07:42:57","orig_title":"Jiltooui hwashin","year":"2016-08-24","translations":["Любительский (двухголосый закадровый) (REFERO)","Любительский (двухголосый закадровый) (GREEN TEA)"],"seasons_count":1,"episodes_count":24,"episodes":24,"update":"2018-12-31 20:08:49","iframe_src":"//8543.svetacdn.in/si4jsFRrtgrT/tv-series/786"},{"id":1347,"title":"Терминатор","kp_id":"507","imdb_id":"tt0088247","world_art_id":null,"type":"movie","add":"2016-04-20 22:05:27","orig_title":"The Terminator","year":"1984-10-26","translations":["Полное дублирование","Original (English)","Авторский (одноголосый закадровый) (Гаврилов Андрей)","Авторский (одноголосый закадровый) (Гоблин | Пучков Дмитрий)","Original (English)","Профессиональный (многоголосый закадровый) (DDV)","Профессиональный (многоголосый закадровый)","Профессиональный (многоголосый закадровый) (НТВ)","Профессиональный (многоголосый закадровый) (Карусель)","Профессиональный (многоголосый закадровый) (Киномания)","Профессиональный (многоголосый закадровый) (Первый канал | ОРТ)","Профессиональный (многоголосый закадровый) (Останкино)","Профессиональный (многоголосый закадровый) (Позитив)"],"quality":"bd","translation":"Полное дублирование","update":"2020-08-25 07:11:45","iframe_src":"//8543.svetacdn.in/si4jsFRrtgrT/movie/1347"}],"current_page":358,"first_page_url":"https://videocdn.tv/api/short?limit=100&api_token=X6EwAUfE5M9xbo7y0Bp0aPf3uXxG2KLL&cache3358=3358&page=1","from":35701,"last_page":596,"last_page_url":"https://videocdn.tv/api/short?limit=100&api_token=X6EwAUfE5M9xbo7y0Bp0aPf3uXxG2KLL&cache3358=3358&page=596","next_page_url":"https://videocdn.tv/api/short?limit=100&api_token=X6EwAUfE5M9xbo7y0Bp0aPf3uXxG2KLL&cache3358=3358&page=359","path":"https://videocdn.tv/api/short","per_page":100,"prev_page_url":"https://videocdn.tv/api/short?limit=100&api_token=X6EwAUfE5M9xbo7y0Bp0aPf3uXxG2KLL&cache3358=3358&page=357","to":35740,"total":59584}