{"result":true,"data":[{"id":34061,"title":"Рождественский городок","kp_id":"1272634","imdb_id":"tt10344986","world_art_id":null,"type":"movie","add":"2019-12-13 10:05:51","orig_title":"Christmas Town","year":"2019-12-01","translations":["Любительский (многоголосый закадровый) (AlphaProject)"],"quality":"hdtv","translation":"Любительский (многоголосый закадровый) (AlphaProject)","update":"2019-12-13 14:38:05","iframe_src":"//8332.svetacdn.in/71tsRs29n5tZ/movie/34061"},{"id":34044,"title":"Я - Дюран","kp_id":null,"imdb_id":"tt5533308","world_art_id":null,"type":"movie","add":"2019-12-13 06:04:11","orig_title":"I Am Durán","year":"2019-06-03","translations":["Original (English)"],"quality":"bd","translation":"Original (English)","update":"2019-12-13 16:23:29","iframe_src":"//8332.svetacdn.in/71tsRs29n5tZ/movie/34044"},{"id":34040,"title":"Шкаф","kp_id":"1038140","imdb_id":"tt6097256","world_art_id":null,"type":"movie","add":"2019-12-12 21:27:13","orig_title":"Yee chung","year":"2007-03-08","translations":["Любительский (двухголосый закадровый)"],"quality":"dvdrip","translation":"Любительский (двухголосый закадровый)","update":"2019-12-13 14:02:24","iframe_src":"//8332.svetacdn.in/71tsRs29n5tZ/movie/34040"},{"id":34039,"title":"Засада в ущелье смерти","kp_id":"103231","imdb_id":"tt0066031","world_art_id":null,"type":"movie","add":"2019-12-12 21:23:10","orig_title":"Machibuse","year":"1970-04-21","translations":["Любительский (двухголосый закадровый)"],"quality":"dvdrip","translation":"Любительский (двухголосый закадровый)","update":"2019-12-13 14:01:53","iframe_src":"//8332.svetacdn.in/71tsRs29n5tZ/movie/34039"},{"id":34038,"title":"Буря поднимается","kp_id":"643879","imdb_id":"tt2077813","world_art_id":null,"type":"movie","add":"2019-12-12 21:19:43","orig_title":"Noi gió","year":"1966-01-01","translations":["Любительский (одноголосый закадровый)"],"quality":"vhs","translation":"Любительский (одноголосый закадровый)","update":"2019-12-13 14:01:11","iframe_src":"//8332.svetacdn.in/71tsRs29n5tZ/movie/34038"},{"id":34037,"title":"Девственницы Семи морей","kp_id":"53139","imdb_id":"tt0071712","world_art_id":null,"type":"movie","add":"2019-12-12 21:14:27","orig_title":"Yang chi","year":"1974-06-21","translations":["Любительский (одноголосый закадровый)"],"quality":"dvdrip","translation":"Любительский (одноголосый закадровый)","update":"2019-12-13 14:00:41","iframe_src":"//8332.svetacdn.in/71tsRs29n5tZ/movie/34037"},{"id":34036,"title":"Засада","kp_id":"643882","imdb_id":"tt2077731","world_art_id":null,"type":"movie","add":"2019-12-12 21:10:03","orig_title":"Con chim vành khuyên","year":"1962-01-01","translations":["Любительский (одноголосый закадровый)"],"quality":"vhs","translation":"Любительский (одноголосый закадровый)","update":"2019-12-13 13:36:59","iframe_src":"//8332.svetacdn.in/71tsRs29n5tZ/movie/34036"},{"id":34034,"title":"Когда плачут цикады","kp_id":"402243","imdb_id":"tt1116935","world_art_id":null,"type":"movie","add":"2019-12-12 21:04:47","orig_title":"Higurashi no naku koro ni","year":"2008-05-10","translations":["Любительский (одноголосый закадровый)"],"quality":"webdl","translation":"Любительский (одноголосый закадровый)","update":"2019-12-13 13:36:05","iframe_src":"//8332.svetacdn.in/71tsRs29n5tZ/movie/34034"},{"id":34031,"title":"Сисястые стервы: Стриптизёрши против зомби 5","kp_id":"512479","imdb_id":"tt1642252","world_art_id":null,"type":"movie","add":"2019-12-12 20:52:39","orig_title":"Kyonyû doragon: Onsen zonbi vs sutorippâ 5","year":"2010-05-15","translations":["Любительский (одноголосый закадровый) (den904)"],"quality":"dvdrip","translation":"Любительский (одноголосый закадровый) (den904)","update":"2019-12-13 13:34:47","iframe_src":"//8332.svetacdn.in/71tsRs29n5tZ/movie/34031"},{"id":34030,"title":"Сувенир погибшего","kp_id":"1009230","imdb_id":null,"world_art_id":null,"type":"movie","add":"2019-12-12 20:49:18","orig_title":"Vật kỷ niệm","year":"1960-01-01","translations":["Любительский (одноголосый закадровый)"],"quality":"vhs","translation":"Любительский (одноголосый закадровый)","update":"2019-12-13 13:31:54","iframe_src":"//8332.svetacdn.in/71tsRs29n5tZ/movie/34030"},{"id":34028,"title":"Жало мастера-дракона","kp_id":"37184","imdb_id":"tt0070768","world_art_id":null,"type":"movie","add":"2019-12-12 20:41:46","orig_title":"Tai quan zhen jiu zhou","year":"1973-09-09","translations":["Любительский (одноголосый закадровый)"],"quality":"dvdrip","translation":"Любительский (одноголосый закадровый)","update":"2019-12-13 12:36:37","iframe_src":"//8332.svetacdn.in/71tsRs29n5tZ/movie/34028"},{"id":34027,"title":"Связанные по жизни","kp_id":"1074500","imdb_id":"tt6753132","world_art_id":null,"type":"movie","add":"2019-12-12 18:48:56","orig_title":"Chained for Life","year":"2018-06-24","translations":["Любительский (многоголосый закадровый) (@MUZOBOZ@)"],"quality":"webdl","translation":"Любительский (многоголосый закадровый) (@MUZOBOZ@)","update":"2019-12-13 13:01:46","iframe_src":"//8332.svetacdn.in/71tsRs29n5tZ/movie/34027"},{"id":34026,"title":"Высшая награда","kp_id":"1037600","imdb_id":"tt6163142","world_art_id":null,"type":"movie","add":"2019-12-12 18:47:24","orig_title":"Grace","year":"2018-09-23","translations":["Любительский (многоголосый закадровый) (Синема УС)"],"quality":"webdl","translation":"Любительский (многоголосый закадровый) (Синема УС)","update":"2019-12-13 13:14:39","iframe_src":"//8332.svetacdn.in/71tsRs29n5tZ/movie/34026"},{"id":34023,"title":"Прощай, ковчег","kp_id":"143817","imdb_id":"tt0088041","world_art_id":null,"type":"movie","add":"2019-12-12 16:18:37","orig_title":"Saraba hakobune","year":"1984-09-08","translations":["Авторский (одноголосый закадровый) (Воротилин Олег)"],"quality":"bd","translation":"Авторский (одноголосый закадровый) (Воротилин Олег)","update":"2019-12-13 12:34:20","iframe_src":"//8332.svetacdn.in/71tsRs29n5tZ/movie/34023"},{"id":34021,"title":"700 дней войны: Мы против участкового","kp_id":"402622","imdb_id":"tt1155630","world_art_id":null,"type":"movie","add":"2019-12-12 16:11:47","orig_title":"Boku tachi to chûzai san no 700 nichi sensô","year":"2008-04-05","translations":["Любительский (одноголосый закадровый) (Береговых Виктор | Jet)"],"quality":"bd","translation":"Любительский (одноголосый закадровый) (Береговых Виктор | Jet)","update":"2019-12-13 12:33:13","iframe_src":"//8332.svetacdn.in/71tsRs29n5tZ/movie/34021"},{"id":34020,"title":"Полицейский из Запретного Города","kp_id":"59955","imdb_id":"tt0116014","world_art_id":null,"type":"movie","add":"2019-12-12 16:04:06","orig_title":"Dai lap mat tam 008","year":"1996-02-16","translations":["Профессиональный (одноголосый закадровый) (BBC Saint-Petersburg)"],"quality":"bd","translation":"Профессиональный (одноголосый закадровый) (BBC Saint-Petersburg)","update":"2019-12-13 12:32:02","iframe_src":"//8332.svetacdn.in/71tsRs29n5tZ/movie/34020"},{"id":34019,"title":"Послание в завтрашний день","kp_id":"379623","imdb_id":"tt1052343","world_art_id":null,"type":"movie","add":"2019-12-12 15:59:46","orig_title":"Ashita e no yuigon","year":"2007-10-27","translations":["Любительский (многоголосый закадровый) (3df voice)"],"quality":"dvdrip","translation":"Любительский (многоголосый закадровый) (3df voice)","update":"2019-12-13 12:31:08","iframe_src":"//8332.svetacdn.in/71tsRs29n5tZ/movie/34019"},{"id":34018,"title":"Годы счастья, годы печали","kp_id":"172805","imdb_id":"tt0051211","world_art_id":null,"type":"movie","add":"2019-12-12 15:52:17","orig_title":"Yorokobi mo kanashimi mo ikutoshitsuki","year":"1957-10-01","translations":["Любительский (одноголосый закадровый) (Береговых Виктор | Jet)"],"quality":"webdl","translation":"Любительский (одноголосый закадровый) (Береговых Виктор | Jet)","update":"2019-12-13 12:30:17","iframe_src":"//8332.svetacdn.in/71tsRs29n5tZ/movie/34018"},{"id":33547,"title":"Наша рождественская песня любви","kp_id":"1320679","imdb_id":"tt11171322","world_art_id":null,"type":"movie","add":"2019-11-29 12:17:19","orig_title":"Our Christmas Love Song","year":"2019-11-24","translations":["Original (English)","Любительский (многоголосый закадровый) (AlphaProject)"],"quality":"hdtv","translation":"Original (English)","update":"2019-12-13 14:37:18","iframe_src":"//8332.svetacdn.in/71tsRs29n5tZ/movie/33547"},{"id":19105,"title":"Сны Акиры Куросавы","kp_id":"7104","imdb_id":"tt0100998","world_art_id":null,"type":"movie","add":"2018-09-21 10:30:49","orig_title":"Yume","year":"1990-05-10","translations":["Профессиональный (многоголосый закадровый)"],"quality":"bd","translation":"Профессиональный (многоголосый закадровый)","update":"2019-12-13 14:03:49","iframe_src":"//8332.svetacdn.in/71tsRs29n5tZ/movie/19105"}],"current_page":1033,"first_page_url":"https://videocdn.tv/api/short?limit=100&api_token=EnbO9h8pv1VyjbCJhg0WM9nG259n7mtz&cache31033=31033&page=1","from":103201,"last_page":632,"last_page_url":"https://videocdn.tv/api/short?limit=100&api_token=EnbO9h8pv1VyjbCJhg0WM9nG259n7mtz&cache31033=31033&page=632","next_page_url":null,"path":"https://videocdn.tv/api/short","per_page":100,"prev_page_url":"https://videocdn.tv/api/short?limit=100&api_token=EnbO9h8pv1VyjbCJhg0WM9nG259n7mtz&cache31033=31033&page=1032","to":103220,"total":63170}