{"result":true,"data":[{"id":52401,"title":"К.Г.П.О. 2","kp_id":"23258","imdb_id":"tt0097001","world_art_id":null,"type":"movie","add":"2021-08-12 18:10:42","orig_title":"C.H.U.D. II: Bud the Chud","year":"1989-05-05","translations":["Любительский (одноголосый закадровый)"],"quality":"hdrip","translation":"Любительский (одноголосый закадровый)","update":"2021-08-13 06:21:43","iframe_src":"//2413.svetacdn.in/71tsRs29n5tZ/movie/52401"},{"id":52400,"title":"Дом, где живет зло","kp_id":"149663","imdb_id":"tt0084096","world_art_id":null,"type":"movie","add":"2021-08-12 18:05:14","orig_title":"The House Where Evil Dwells","year":"1982-05-13","translations":["Авторский (одноголосый закадровый) (Рутилов Виктор | fiendover | overfiend)"],"quality":"dvdrip","translation":"Авторский (одноголосый закадровый) (Рутилов Виктор | fiendover | overfiend)","update":"2021-08-13 06:24:40","iframe_src":"//2413.svetacdn.in/71tsRs29n5tZ/movie/52400"},{"id":52399,"title":"Новогодние приключения в июле","kp_id":"473839","imdb_id":"tt3220908","world_art_id":null,"type":"movie","add":"2021-08-12 15:24:00","orig_title":"Novogodniye priklyucheniya v iyule","year":"2008-01-01","translations":["Оригинальная дорожка"],"quality":"hdtv","translation":"Оригинальная дорожка","update":"2021-08-13 06:12:17","iframe_src":"//2413.svetacdn.in/71tsRs29n5tZ/movie/52399"},{"id":52398,"title":"Дом под деревьями","kp_id":"12831","imdb_id":"tt0067382","world_art_id":null,"type":"movie","add":"2021-08-12 15:19:29","orig_title":"La maison sous les arbres","year":"1971-06-09","translations":["[EN] Original (English)","Полное дублирование (Мосфильм)"],"quality":"bd","translation":"[EN] Original (English)","update":"2021-08-13 06:10:12","iframe_src":"//2413.svetacdn.in/71tsRs29n5tZ/movie/52398"},{"id":52397,"title":"Месть ястреба","kp_id":"24803","imdb_id":"tt0116500","world_art_id":null,"type":"movie","add":"2021-08-12 15:11:36","orig_title":"Hawk's Vengeance","year":"1996-09-19","translations":["[EN] Original (English)","Авторский (одноголосый закадровый) (Гаврилов Андрей)"],"quality":"webdl","translation":"[EN] Original (English)","update":"2021-08-13 06:14:24","iframe_src":"//2413.svetacdn.in/71tsRs29n5tZ/movie/52397"},{"id":52396,"title":"Кукла","kp_id":"1291939","imdb_id":"tt10722406","world_art_id":null,"type":"movie","add":"2021-08-12 15:06:24","orig_title":"Juega Conmigo","year":"2021-03-11","translations":["Полное дублирование (iTunes)"],"quality":"webdl","translation":"Полное дублирование (iTunes)","update":"2021-08-12 18:01:56","iframe_src":"//2413.svetacdn.in/71tsRs29n5tZ/movie/52396"},{"id":52394,"title":"Большая ставка Nike","kp_id":"4509297","imdb_id":"tt14403518","world_art_id":null,"type":"movie","add":"2021-08-12 10:52:32","orig_title":"Nike's Big Bet","year":"2021-04-29","translations":["Любительский (многоголосый закадровый) (Синема УС)"],"quality":"webdl","translation":"Любительский (многоголосый закадровый) (Синема УС)","update":"2021-08-12 14:42:08","iframe_src":"//2413.svetacdn.in/71tsRs29n5tZ/movie/52394"},{"id":52393,"title":"Санитарный день","kp_id":null,"imdb_id":"tt13445916","world_art_id":null,"type":"movie","add":"2021-08-12 10:48:54","orig_title":"Sanitation Day","year":"2020-01-01","translations":["Любительский (многоголосый закадровый) (Синема УС)"],"quality":"webdl","translation":"Любительский (многоголосый закадровый) (Синема УС)","update":"2021-08-12 15:29:49","iframe_src":"//2413.svetacdn.in/71tsRs29n5tZ/movie/52393"},{"id":52392,"title":"Беги, Уйе, беги","kp_id":"1342741","imdb_id":"tt11622272","world_art_id":null,"type":"movie","add":"2021-08-12 10:46:03","orig_title":"Spring Uje spring","year":"2020-01-26","translations":["Любительский (многоголосый закадровый) (Синема УС)"],"quality":"webdl","translation":"Любительский (многоголосый закадровый) (Синема УС)","update":"2021-08-12 15:30:22","iframe_src":"//2413.svetacdn.in/71tsRs29n5tZ/movie/52392"},{"id":52391,"title":"Девушка в окне","kp_id":null,"imdb_id":"tt14679136","world_art_id":null,"type":"movie","add":"2021-08-12 10:29:43","orig_title":"You're Not Safe Here","year":"2021-01-01","translations":["Любительский (многоголосый закадровый) (Синема УС)"],"quality":"webdl","translation":"Любительский (многоголосый закадровый) (Синема УС)","update":"2021-08-12 14:45:19","iframe_src":"//2413.svetacdn.in/71tsRs29n5tZ/movie/52391"},{"id":52390,"title":"Опасное пробуждение","kp_id":null,"imdb_id":"tt15197574","world_art_id":null,"type":"movie","add":"2021-08-12 10:21:46","orig_title":"Waking Up to Danger","year":"2021-01-01","translations":["Любительский (многоголосый закадровый) (Синема УС)"],"quality":"webdl","translation":"Любительский (многоголосый закадровый) (Синема УС)","update":"2021-08-12 14:44:37","iframe_src":"//2413.svetacdn.in/71tsRs29n5tZ/movie/52390"},{"id":52389,"title":"Инстинкт убийцы","kp_id":"17141","imdb_id":"tt0291265","world_art_id":null,"type":"movie","add":"2021-08-12 07:11:54","orig_title":"Instinct to Kill","year":"2001-10-01","translations":["Профессиональный (двухголосый закадровый)"],"quality":"dvdrip","translation":"Профессиональный (двухголосый закадровый)","update":"2021-08-12 14:25:52","iframe_src":"//2413.svetacdn.in/71tsRs29n5tZ/movie/52389"},{"id":52388,"title":"Ураган над Ямайкой","kp_id":"10197","imdb_id":"tt0059269","world_art_id":null,"type":"movie","add":"2021-08-12 06:14:48","orig_title":"A High Wind in Jamaica","year":"1965-05-26","translations":["[EN] Original (English)","Любительский (одноголосый закадровый) (erogg)"],"quality":"bd","translation":"[EN] Original (English)","update":"2021-08-13 06:24:02","iframe_src":"//2413.svetacdn.in/71tsRs29n5tZ/movie/52388"},{"id":52374,"title":"Дом Франкенштейна","kp_id":"3133","imdb_id":"tt0036931","world_art_id":null,"type":"movie","add":"2021-08-11 17:29:19","orig_title":"House of Frankenstein","year":"1944-12-01","translations":["Профессиональный (двухголосый закадровый)"],"quality":"bd","translation":"Профессиональный (двухголосый закадровый)","update":"2021-08-12 11:16:28","iframe_src":"//2413.svetacdn.in/71tsRs29n5tZ/movie/52374"},{"id":52373,"title":"Эбботт и Костелло встречают Франкенштейна","kp_id":"3122","imdb_id":"tt0040068","world_art_id":null,"type":"movie","add":"2021-08-11 17:25:01","orig_title":"Bud Abbott Lou Costello Meet Frankenstein","year":"1948-06-15","translations":["Любительский (одноголосый закадровый) (Герусов)","Любительский (одноголосый закадровый)"],"quality":"bd","translation":"Любительский (одноголосый закадровый) (Герусов)","update":"2021-08-12 11:17:29","iframe_src":"//2413.svetacdn.in/71tsRs29n5tZ/movie/52373"},{"id":52348,"title":"Пролей со мной кровь","kp_id":"1399295","imdb_id":"tt13188312","world_art_id":null,"type":"movie","add":"2021-08-10 18:37:33","orig_title":"Bleed with Me","year":"2020-08-26","translations":["Любительский (многоголосый закадровый) (AlphaProject)"],"quality":"webdl","translation":"Любительский (многоголосый закадровый) (AlphaProject)","update":"2021-08-12 19:55:40","iframe_src":"//2413.svetacdn.in/71tsRs29n5tZ/movie/52348"},{"id":51613,"title":"Оседлать орла","kp_id":"4477112","imdb_id":"tt14673560","world_art_id":null,"type":"movie","add":"2021-07-07 12:50:15","orig_title":"Ride the Eagle","year":"2021-07-30","translations":["Любительский (многоголосый закадровый) (Синема УС)","[EN] Original (English)"],"quality":"webdl","translation":"Любительский (многоголосый закадровый) (Синема УС)","update":"2021-08-13 06:25:51","iframe_src":"//2413.svetacdn.in/71tsRs29n5tZ/movie/51613"},{"id":4314,"title":"Моя семья и другие животные","kp_id":"464914","imdb_id":"tt0166450","world_art_id":null,"type":"serial","add":"2019-03-25 23:43:09","orig_title":"My Family and Other Animals","year":"1987-10-17","translations":["Профессиональный (многоголосый закадровый)"],"seasons_count":1,"episodes_count":10,"episodes":10,"update":"2019-03-26 04:30:58","iframe_src":"//2413.svetacdn.in/71tsRs29n5tZ/tv-series/4314"},{"id":4306,"title":"Тишина","kp_id":"567093","imdb_id":"tt1568202","world_art_id":null,"type":"serial","add":"2019-03-23 06:39:55","orig_title":"The Silence","year":"2010-07-12","translations":["Профессиональный (многоголосый закадровый) (ShowJet)"],"seasons_count":1,"episodes_count":4,"episodes":4,"update":"2019-03-25 07:10:02","iframe_src":"//2413.svetacdn.in/71tsRs29n5tZ/tv-series/4306"},{"id":4305,"title":"Под Большой медведицей","kp_id":"423002","imdb_id":"tt4394024","world_art_id":null,"type":"serial","add":"2019-03-23 06:36:27","orig_title":"Pod Bolshoy medveditsey","year":"2006-01-01","translations":["Оригинальная дорожка"],"seasons_count":1,"episodes_count":8,"episodes":8,"update":"2019-03-25 14:39:20","iframe_src":"//2413.svetacdn.in/71tsRs29n5tZ/tv-series/4305"},{"id":4302,"title":"Один единственный и навсегда","kp_id":"592442","imdb_id":null,"world_art_id":null,"type":"serial","add":"2019-03-23 06:21:04","orig_title":"Один единственный и навсегда","year":"2011-06-25","translations":["Оригинальная дорожка"],"seasons_count":1,"episodes_count":4,"episodes":4,"update":"2019-03-23 08:31:52","iframe_src":"//2413.svetacdn.in/71tsRs29n5tZ/tv-series/4302"},{"id":4301,"title":"Жизнь, по слухам, одна","kp_id":"1045961","imdb_id":null,"world_art_id":null,"type":"serial","add":"2019-03-23 06:19:00","orig_title":"Жизнь, по слухам, одна","year":"2017-06-10","translations":["Оригинальная дорожка"],"seasons_count":1,"episodes_count":4,"episodes":4,"update":"2019-03-23 08:30:12","iframe_src":"//2413.svetacdn.in/71tsRs29n5tZ/tv-series/4301"},{"id":4297,"title":"Мой генерал","kp_id":"396480","imdb_id":null,"world_art_id":null,"type":"serial","add":"2019-03-22 11:37:36","orig_title":"Мой генерал","year":"2010-04-15","translations":["Оригинальная дорожка"],"seasons_count":1,"episodes_count":8,"episodes":8,"update":"2019-03-22 15:24:23","iframe_src":"//2413.svetacdn.in/71tsRs29n5tZ/tv-series/4297"},{"id":4296,"title":"Запасной инстинкт","kp_id":"419118","imdb_id":null,"world_art_id":null,"type":"serial","add":"2019-03-22 11:35:12","orig_title":"Запасной инстинкт","year":"2006-06-13","translations":["Оригинальная дорожка"],"seasons_count":1,"episodes_count":4,"episodes":4,"update":"2019-03-22 15:19:41","iframe_src":"//2413.svetacdn.in/71tsRs29n5tZ/tv-series/4296"},{"id":4295,"title":"Развод и девичья фамилия","kp_id":"256144","imdb_id":null,"world_art_id":null,"type":"serial","add":"2019-03-22 11:29:25","orig_title":"Развод и девичья фамилия","year":"2006-06-08","translations":["Оригинальная дорожка"],"seasons_count":1,"episodes_count":5,"episodes":5,"update":"2019-03-22 17:46:53","iframe_src":"//2413.svetacdn.in/71tsRs29n5tZ/tv-series/4295"},{"id":4294,"title":"Подруга особого назначения","kp_id":"418674","imdb_id":"tt6462028","world_art_id":null,"type":"serial","add":"2019-03-22 11:26:42","orig_title":"Podruga osobogo naznacheniya","year":"2005-06-30","translations":["Оригинальная дорожка"],"seasons_count":1,"episodes_count":4,"episodes":4,"update":"2019-03-22 13:56:34","iframe_src":"//2413.svetacdn.in/71tsRs29n5tZ/tv-series/4294"},{"id":4293,"title":"Миф об идеальном мужчине","kp_id":"419417","imdb_id":null,"world_art_id":null,"type":"serial","add":"2019-03-22 11:25:01","orig_title":"Миф об идеальном мужчине","year":"2005-08-11","translations":["Оригинальная дорожка"],"seasons_count":1,"episodes_count":2,"episodes":2,"update":"2019-03-22 13:54:14","iframe_src":"//2413.svetacdn.in/71tsRs29n5tZ/tv-series/4293"},{"id":4292,"title":"Обиженные цветы","kp_id":"947470","imdb_id":"tt5224200","world_art_id":null,"type":"serial","add":"2019-03-20 19:15:29","orig_title":"Kirgin Çiçekler","year":"2015-06-29","translations":["Любительский (одноголосый закадровый)"],"seasons_count":3,"episodes_count":111,"episodes":23,"update":"2019-03-25 14:27:00","iframe_src":"//2413.svetacdn.in/71tsRs29n5tZ/tv-series/4292"},{"id":4291,"title":"Гетто","kp_id":"401157","imdb_id":"tt0373732","world_art_id":null,"type":"serial","add":"2019-03-20 15:01:53","orig_title":"The Boondocks","year":"2005-11-06","translations":["Профессиональный (многоголосый закадровый)","Профессиональный (многоголосый закадровый) (2x2)","Любительский (многоголосый закадровый)"],"seasons_count":4,"episodes_count":55,"episodes":10,"update":"2019-03-25 17:52:53","iframe_src":"//2413.svetacdn.in/71tsRs29n5tZ/tv-series/4291"},{"id":4290,"title":"Звезда, покорившая Луну 2","kp_id":null,"imdb_id":"tt6481634","world_art_id":null,"type":"serial","add":"2019-03-20 14:51:08","orig_title":"Dao Kiang Duen","year":"2014-01-01","translations":["Любительский (одноголосый закадровый) (Julia Prosenuk)"],"seasons_count":1,"episodes_count":14,"episodes":14,"update":"2019-03-22 11:20:57","iframe_src":"//2413.svetacdn.in/71tsRs29n5tZ/tv-series/4290"},{"id":4289,"title":"За любовью на край света","kp_id":"1105217","imdb_id":null,"world_art_id":null,"type":"serial","add":"2019-03-20 14:46:02","orig_title":"Lah Ruk Sut Kob Fah","year":"2014-07-24","translations":["Любительский (одноголосый закадровый) (Julia Prosenuk)"],"seasons_count":1,"episodes_count":20,"episodes":20,"update":"2019-03-22 11:01:34","iframe_src":"//2413.svetacdn.in/71tsRs29n5tZ/tv-series/4289"},{"id":4287,"title":"Ангелы в Америке","kp_id":"103151","imdb_id":"tt0318997","world_art_id":null,"type":"serial","add":"2019-03-20 11:53:08","orig_title":"Angels in America","year":"2003-12-08","translations":["Профессиональный (многоголосый закадровый)"],"seasons_count":1,"episodes_count":6,"episodes":6,"update":"2019-03-22 11:27:55","iframe_src":"//2413.svetacdn.in/71tsRs29n5tZ/tv-series/4287"},{"id":4283,"title":"Пули","kp_id":"1157312","imdb_id":"tt7867522","world_art_id":null,"type":"serial","add":"2019-03-18 13:50:06","orig_title":"Bullets","year":"2018-10-19","translations":["Профессиональный (многоголосый закадровый) (Кравец)","Профессиональный (многоголосый закадровый) (Amedia)"],"seasons_count":1,"episodes_count":10,"episodes":10,"update":"2019-03-26 08:10:35","iframe_src":"//2413.svetacdn.in/71tsRs29n5tZ/tv-series/4283"},{"id":4274,"title":"Маримар","kp_id":"260953","imdb_id":"tt0130410","world_art_id":null,"type":"serial","add":"2019-03-17 21:54:24","orig_title":"Marimar","year":"1994-01-31","translations":["Любительский (одноголосый закадровый)"],"seasons_count":1,"episodes_count":3,"episodes":3,"update":"2019-03-21 20:25:46","iframe_src":"//2413.svetacdn.in/71tsRs29n5tZ/tv-series/4274"},{"id":4248,"title":"Шифр","kp_id":"1108411","imdb_id":null,"world_art_id":null,"type":"serial","add":"2019-03-12 16:09:52","orig_title":"Шифр","year":"2019-03-11","translations":["Оригинальная дорожка"],"seasons_count":1,"episodes_count":16,"episodes":16,"update":"2019-03-23 07:42:27","iframe_src":"//2413.svetacdn.in/71tsRs29n5tZ/tv-series/4248"},{"id":1028,"title":"Близкие люди","kp_id":"418906","imdb_id":null,"world_art_id":null,"type":"serial","add":"2017-02-17 09:11:03","orig_title":"Близкие люди","year":"2006-05-25","translations":["Оригинальная дорожка"],"seasons_count":1,"episodes_count":4,"episodes":4,"update":"2019-03-22 13:59:11","iframe_src":"//2413.svetacdn.in/71tsRs29n5tZ/tv-series/1028"},{"id":864,"title":"Свеча в гробнице","kp_id":"1008631","imdb_id":"tt6413278","world_art_id":null,"type":"serial","add":"2017-01-11 09:39:21","orig_title":"Gui chuideng zhi jing jue gucheng","year":"2016-12-19","translations":["Любительский (двухголосый закадровый) (Victory-Films)"],"seasons_count":1,"episodes_count":21,"episodes":21,"update":"2019-03-25 04:49:33","iframe_src":"//2413.svetacdn.in/71tsRs29n5tZ/tv-series/864"},{"id":5822,"title":"Танкистка","kp_id":"13703","imdb_id":"tt0114614","world_art_id":null,"type":"movie","add":"2016-10-04 06:25:21","orig_title":"Tank Girl","year":"1995-03-31","translations":["Профессиональный (многоголосый)","Авторский (одноголосый закадровый) (Дольский Андрей)","Авторский (одноголосый закадровый) (Володарский Леонид)","[EN] Original (English)","Любительский (одноголосый закадровый)","Профессиональный (многоголосый закадровый) (Варус-Видео)","Профессиональный (многоголосый закадровый) (СТС)"],"quality":"bd","translation":"Профессиональный (многоголосый)","update":"2021-08-12 08:47:11","iframe_src":"//2413.svetacdn.in/71tsRs29n5tZ/movie/5822"},{"id":2920,"title":"Линкольн","kp_id":"102122","imdb_id":"tt0443272","world_art_id":null,"type":"movie","add":"2016-06-06 18:50:47","orig_title":"Lincoln","year":"2012-10-08","translations":["Полное дублирование","Полное дублирование","[EN] Original (English)","Профессиональный (многоголосый закадровый) (BaibaKo)"],"quality":"bd","translation":"Полное дублирование","update":"2021-08-12 08:50:59","iframe_src":"//2413.svetacdn.in/71tsRs29n5tZ/movie/2920"},{"id":1181,"title":"Доберман","kp_id":"3718","imdb_id":"tt0118996","world_art_id":null,"type":"movie","add":"2016-04-15 17:21:52","orig_title":"Dobermann","year":"1997-06-18","translations":["Профессиональный (многоголосый закадровый)","Авторский (одноголосый закадровый) (Володарский Леонид)","Авторский (одноголосый закадровый) (Котов Вячеслав)","Авторский (одноголосый закадровый) (Латышев Максим | CDV)","Авторский (одноголосый закадровый) (Сербин Юрий)","Авторский (одноголосый закадровый) (Володарский Леонид)","Авторский (одноголосый закадровый) (Яроцкий Михаил | Kyberpunk)","Авторский (одноголосый закадровый) (Живов Юрий)","Любительский (одноголосый закадровый)","Профессиональный (двухголосый закадровый) (НТВ)","Профессиональный (многоголосый закадровый)","Профессиональный (многоголосый закадровый) (РТР | Россия)"],"quality":"bd","translation":"Профессиональный (многоголосый закадровый)","update":"2021-08-12 10:39:52","iframe_src":"//2413.svetacdn.in/71tsRs29n5tZ/movie/1181"}],"current_page":474,"first_page_url":"https://videocdn.tv/api/short?limit=100&api_token=EnbO9h8pv1VyjbCJhg0WM9nG259n7mtz&cache3474=3474&page=1","from":47301,"last_page":717,"last_page_url":"https://videocdn.tv/api/short?limit=100&api_token=EnbO9h8pv1VyjbCJhg0WM9nG259n7mtz&cache3474=3474&page=717","next_page_url":"https://videocdn.tv/api/short?limit=100&api_token=EnbO9h8pv1VyjbCJhg0WM9nG259n7mtz&cache3474=3474&page=475","path":"https://videocdn.tv/api/short","per_page":100,"prev_page_url":"https://videocdn.tv/api/short?limit=100&api_token=EnbO9h8pv1VyjbCJhg0WM9nG259n7mtz&cache3474=3474&page=473","to":47340,"total":71669}