{"result":true,"data":[{"id":16218,"title":"Мы и они","kp_id":"920839","imdb_id":"tt3592750","world_art_id":null,"type":"movie","add":"2018-04-11 21:33:10","orig_title":"Us and Them","year":"2017-03-10","translations":["Любительский (многоголосый закадровый) (Синема УС)"],"quality":"webdl","translation":"Любительский (многоголосый закадровый) (Синема УС)","update":"2018-04-12 04:33:01","iframe_src":"//5322.svetacdn.in/71tsRs29n5tZ/movie/16218"},{"id":16217,"title":"Мёртвая пуля","kp_id":"877298","imdb_id":"tt3799926","world_art_id":null,"type":"movie","add":"2018-04-11 21:13:56","orig_title":"Dead Bullet","year":"2016-10-08","translations":["Любительский (многоголосый закадровый) (Синема УС)"],"quality":"webdl","translation":"Любительский (многоголосый закадровый) (Синема УС)","update":"2018-04-12 04:38:21","iframe_src":"//5322.svetacdn.in/71tsRs29n5tZ/movie/16217"},{"id":16207,"title":"Блюдо не из меню","kp_id":"1029174","imdb_id":"tt6140580","world_art_id":null,"type":"movie","add":"2018-04-11 20:08:13","orig_title":"Off the Menu","year":"2018-02-01","translations":["Любительский (многоголосый закадровый) (Синема УС)"],"quality":"webdl","translation":"Любительский (многоголосый закадровый) (Синема УС)","update":"2018-04-12 04:46:20","iframe_src":"//5322.svetacdn.in/71tsRs29n5tZ/movie/16207"},{"id":16193,"title":"Военные игры 2: Код смерти","kp_id":"271843","imdb_id":"tt0865957","world_art_id":null,"type":"movie","add":"2018-04-10 23:18:54","orig_title":"WarGames: The Dead Code","year":"2008-07-29","translations":["Профессиональный (многоголосый закадровый)"],"quality":"dvdrip","translation":"Профессиональный (многоголосый закадровый)","update":"2018-04-11 12:43:57","iframe_src":"//5322.svetacdn.in/71tsRs29n5tZ/movie/16193"},{"id":16191,"title":"Система безопасности","kp_id":"8363","imdb_id":"tt0058083","world_art_id":null,"type":"movie","add":"2018-04-10 23:09:51","orig_title":"Fail-Safe","year":"1964-09-15","translations":["Профессиональный (многоголосый закадровый)"],"quality":"webdl","translation":"Профессиональный (многоголосый закадровый)","update":"2018-04-11 12:42:36","iframe_src":"//5322.svetacdn.in/71tsRs29n5tZ/movie/16191"},{"id":16190,"title":"Против изогнутого неба","kp_id":"25560","imdb_id":"tt0072615","world_art_id":null,"type":"movie","add":"2018-04-10 23:07:42","orig_title":"Against a Crooked Sky","year":"1975-01-01","translations":["Авторский (одноголосый закадровый) (Карповский Антон)"],"quality":"dvdrip","translation":"Авторский (одноголосый закадровый) (Карповский Антон)","update":"2018-04-11 08:43:46","iframe_src":"//5322.svetacdn.in/71tsRs29n5tZ/movie/16190"},{"id":16189,"title":"Девять жизней Томаса Катца","kp_id":"16684","imdb_id":"tt0235618","world_art_id":null,"type":"movie","add":"2018-04-10 23:04:51","orig_title":"The Nine Lives of Tomas Katz","year":"2000-03-01","translations":["Профессиональный (двухголосый закадровый)"],"quality":"dvdrip","translation":"Профессиональный (двухголосый закадровый)","update":"2018-04-11 08:45:04","iframe_src":"//5322.svetacdn.in/71tsRs29n5tZ/movie/16189"},{"id":16188,"title":"Письма мертвого человека","kp_id":"42984","imdb_id":"tt0091759","world_art_id":null,"type":"movie","add":"2018-04-10 23:02:59","orig_title":"Pisma myortvogo cheloveka","year":"1986-09-15","translations":["Оригинальная дорожка"],"quality":"dvdrip","translation":"Оригинальная дорожка","update":"2018-04-11 12:41:30","iframe_src":"//5322.svetacdn.in/71tsRs29n5tZ/movie/16188"},{"id":16187,"title":"Завещание Орфея","kp_id":"25823","imdb_id":"tt0054377","world_art_id":null,"type":"movie","add":"2018-04-10 22:59:22","orig_title":"Le testament d'Orphée, ou ne me demandez pas pourquoi!","year":"1960-02-18","translations":["Профессиональный (многоголосый закадровый)"],"quality":"dvdrip","translation":"Профессиональный (многоголосый закадровый)","update":"2018-04-11 08:46:27","iframe_src":"//5322.svetacdn.in/71tsRs29n5tZ/movie/16187"},{"id":16186,"title":"«Берёзка». Красота на экспорт","kp_id":"1115167","imdb_id":null,"world_art_id":null,"type":"movie","add":"2018-04-10 22:57:28","orig_title":"«Берёзка». Красота на экспорт","year":"2018-04-08","translations":["Оригинальная дорожка"],"quality":"hdtv","translation":"Оригинальная дорожка","update":"2018-04-11 08:48:41","iframe_src":"//5322.svetacdn.in/71tsRs29n5tZ/movie/16186"},{"id":16185,"title":"Что разделяет нас","kp_id":"739921","imdb_id":"tt2721624","world_art_id":null,"type":"movie","add":"2018-04-10 22:47:42","orig_title":"What Separates Us","year":"2017-09-13","translations":["Любительский (многоголосый закадровый) (Синема УС)"],"quality":"webdl","translation":"Любительский (многоголосый закадровый) (Синема УС)","update":"2018-04-11 08:49:50","iframe_src":"//5322.svetacdn.in/71tsRs29n5tZ/movie/16185"},{"id":16183,"title":"Темный кристалл","kp_id":"6468","imdb_id":"tt0083791","world_art_id":null,"type":"movie","add":"2018-04-10 22:38:16","orig_title":"The Dark Crystal","year":"1982-12-01","translations":["Профессиональный (двухголосый закадровый) (Tycoon)"],"quality":"bd","translation":"Профессиональный (двухголосый закадровый) (Tycoon)","update":"2018-04-11 09:23:19","iframe_src":"//5322.svetacdn.in/71tsRs29n5tZ/movie/16183"},{"id":16179,"title":"Рассвет мертвецов","kp_id":"8371","imdb_id":"tt0077402","world_art_id":null,"type":"movie","add":"2018-04-10 22:28:19","orig_title":"Dawn of the Dead","year":"1978-09-01","translations":["Профессиональный (многоголосый закадровый)"],"quality":"bd","translation":"Профессиональный (многоголосый закадровый)","update":"2018-04-11 09:07:54","iframe_src":"//5322.svetacdn.in/71tsRs29n5tZ/movie/16179"},{"id":16177,"title":"На берегу","kp_id":"8373","imdb_id":"tt0053137","world_art_id":null,"type":"movie","add":"2018-04-10 22:22:15","orig_title":"On the Beach","year":"1959-12-17","translations":["Профессиональный (многоголосый закадровый)"],"quality":"bd","translation":"Профессиональный (многоголосый закадровый)","update":"2018-04-11 09:08:51","iframe_src":"//5322.svetacdn.in/71tsRs29n5tZ/movie/16177"},{"id":16174,"title":"Последний романтик планеты Земля","kp_id":"450273","imdb_id":"tt1390405","world_art_id":null,"type":"movie","add":"2018-04-10 22:10:09","orig_title":"Les derniers jours du monde","year":"2009-08-09","translations":["Профессиональный (многоголосый закадровый) (Selena International)"],"quality":"hdtv","translation":"Профессиональный (многоголосый закадровый) (Selena International)","update":"2018-04-11 09:10:23","iframe_src":"//5322.svetacdn.in/71tsRs29n5tZ/movie/16174"},{"id":16162,"title":"По её мнению","kp_id":"764470","imdb_id":"tt2933632","world_art_id":null,"type":"movie","add":"2018-04-10 21:23:17","orig_title":"According to her","year":"2016-03-05","translations":["Любительский (многоголосый закадровый) (Синема УС)"],"quality":"webdl","translation":"Любительский (многоголосый закадровый) (Синема УС)","update":"2018-04-11 08:51:43","iframe_src":"//5322.svetacdn.in/71tsRs29n5tZ/movie/16162"},{"id":15956,"title":"Настоящая любовь","kp_id":"678558","imdb_id":null,"world_art_id":null,"type":"movie","add":"2018-03-30 23:33:30","orig_title":"Настоящая любовь","year":"2012-12-01","translations":["Оригинальная дорожка"],"quality":"hdtv","translation":"Оригинальная дорожка","update":"2018-04-11 09:22:14","iframe_src":"//5322.svetacdn.in/71tsRs29n5tZ/movie/15956"},{"id":15743,"title":"Лица, деревни","kp_id":"976612","imdb_id":"tt5598102","world_art_id":null,"type":"movie","add":"2018-03-19 21:53:42","orig_title":"Visages, villages","year":"2017-05-19","translations":["Любительский (многоголосый закадровый) (Синема УС)","Профессиональный (многоголосый закадровый) (GreenРай Studio)"],"quality":"bd","translation":"Любительский (многоголосый закадровый) (Синема УС)","update":"2018-04-11 08:56:47","iframe_src":"//5322.svetacdn.in/71tsRs29n5tZ/movie/15743"},{"id":14494,"title":"Все святые","kp_id":"989097","imdb_id":"tt4663548","world_art_id":null,"type":"movie","add":"2017-11-28 22:01:21","orig_title":"All Saints","year":"2017-08-25","translations":["Любительский (многоголосый закадровый) (Синема УС)","Профессиональный (многоголосый закадровый)","Профессиональный (многоголосый закадровый) (GreenРай Studio)","Полное дублирование"],"quality":"bd","translation":"Любительский (многоголосый закадровый) (Синема УС)","update":"2018-04-12 04:42:48","iframe_src":"//5322.svetacdn.in/71tsRs29n5tZ/movie/14494"},{"id":9660,"title":"Тихий приют","kp_id":"844961","imdb_id":"tt3563892","world_art_id":null,"type":"movie","add":"2017-02-14 07:41:57","orig_title":"Silent Retreat","year":"2016-01-12","translations":["Любительский (одноголосый закадровый) (Хихикающий доктор)","Любительский (многоголосый закадровый) (Синема УС)","Профессиональный (многоголосый закадровый)"],"quality":"hdrip","translation":"Любительский (одноголосый закадровый) (Хихикающий доктор)","update":"2018-04-12 04:35:16","iframe_src":"//5322.svetacdn.in/71tsRs29n5tZ/movie/9660"}],"current_page":1899,"first_page_url":"https://videocdn.tv/api/short?limit=100&api_token=EnbO9h8pv1VyjbCJhg0WM9nG259n7mtz&cache31899=31899&page=1","from":189801,"last_page":629,"last_page_url":"https://videocdn.tv/api/short?limit=100&api_token=EnbO9h8pv1VyjbCJhg0WM9nG259n7mtz&cache31899=31899&page=629","next_page_url":null,"path":"https://videocdn.tv/api/short","per_page":100,"prev_page_url":"https://videocdn.tv/api/short?limit=100&api_token=EnbO9h8pv1VyjbCJhg0WM9nG259n7mtz&cache31899=31899&page=1898","to":189820,"total":62801}