{"result":true,"data":[{"id":41917,"title":"Шпион","kp_id":"48855","imdb_id":"tt0372538","world_art_id":null,"type":"movie","add":"2020-07-21 05:10:19","orig_title":"Spy","year":"2011-08-09","translations":["Профессиональный (многоголосый закадровый)"],"quality":"dvdrip","translation":"Профессиональный (многоголосый закадровый)","update":"2020-07-21 06:03:29","iframe_src":"//83.svetacdn.in/PfJ50H0ZBPg3/movie/41917"},{"id":41915,"title":"Белый балет","kp_id":"1130517","imdb_id":"tt8184104","world_art_id":null,"type":"movie","add":"2020-07-21 04:29:21","orig_title":"Ballet Blanc","year":"2019-11-08","translations":["Любительский (многоголосый закадровый) (Синема УС)"],"quality":"webdl","translation":"Любительский (многоголосый закадровый) (Синема УС)","update":"2020-07-21 09:37:38","iframe_src":"//83.svetacdn.in/PfJ50H0ZBPg3/movie/41915"},{"id":41913,"title":"Дело 347","kp_id":null,"imdb_id":"tt7821116","world_art_id":null,"type":"movie","add":"2020-07-21 04:28:14","orig_title":"Case 347","year":"2020-03-03","translations":["Любительский (многоголосый закадровый) (Синема УС)"],"quality":"webdl","translation":"Любительский (многоголосый закадровый) (Синема УС)","update":"2020-07-21 09:32:30","iframe_src":"//83.svetacdn.in/PfJ50H0ZBPg3/movie/41913"},{"id":41911,"title":"Зелёная лихорадка","kp_id":"1134234","imdb_id":"tt8170358","world_art_id":null,"type":"movie","add":"2020-07-21 04:27:02","orig_title":"Green Rush","year":"2020-04-14","translations":["Любительский (многоголосый закадровый) (Синема УС)"],"quality":"webdl","translation":"Любительский (многоголосый закадровый) (Синема УС)","update":"2020-07-21 06:02:22","iframe_src":"//83.svetacdn.in/PfJ50H0ZBPg3/movie/41911"},{"id":41910,"title":"Возвращение рождественского малыша","kp_id":"1236481","imdb_id":"tt9701598","world_art_id":null,"type":"movie","add":"2020-07-21 04:26:31","orig_title":"The Return of The Yuletide Kid","year":"2019-12-14","translations":["Любительский (многоголосый закадровый) (AlphaProject)"],"quality":"webdl","translation":"Любительский (многоголосый закадровый) (AlphaProject)","update":"2020-07-21 09:36:45","iframe_src":"//83.svetacdn.in/PfJ50H0ZBPg3/movie/41910"},{"id":41909,"title":"Северный Ченнаи 2","kp_id":"1340850","imdb_id":"tt11569490","world_art_id":null,"type":"movie","add":"2020-07-21 04:26:00","orig_title":"Vada Chennai 2","year":"2020-01-01","translations":["Любительский (многоголосый закадровый) (Синема УС)"],"quality":"webdl","translation":"Любительский (многоголосый закадровый) (Синема УС)","update":"2020-07-21 09:34:58","iframe_src":"//83.svetacdn.in/PfJ50H0ZBPg3/movie/41909"},{"id":41908,"title":"Зоуи","kp_id":null,"imdb_id":"tt11209358","world_art_id":null,"type":"movie","add":"2020-07-21 04:25:21","orig_title":"Zoey","year":"2020-02-01","translations":["Любительский (многоголосый закадровый) (Синема УС)"],"quality":"webdl","translation":"Любительский (многоголосый закадровый) (Синема УС)","update":"2020-07-21 09:35:56","iframe_src":"//83.svetacdn.in/PfJ50H0ZBPg3/movie/41908"},{"id":41907,"title":"RSC: Ромео и Джульетта","kp_id":"1145616","imdb_id":"tt8209760","world_art_id":null,"type":"movie","add":"2020-07-20 19:54:08","orig_title":"Romeo and Juliet","year":"2018-03-03","translations":["Любительский (многоголосый закадровый) (AlphaProject)"],"quality":"webdl","translation":"Любительский (многоголосый закадровый) (AlphaProject)","update":"2020-07-21 12:42:53","iframe_src":"//83.svetacdn.in/PfJ50H0ZBPg3/movie/41907"},{"id":41906,"title":"Уличная сцена","kp_id":null,"imdb_id":"tt12253180","world_art_id":null,"type":"movie","add":"2020-07-20 19:51:59","orig_title":"Weill: Street Scene","year":"2019-11-22","translations":["Любительский (многоголосый закадровый) (AlphaProject)"],"quality":"webdl","translation":"Любительский (многоголосый закадровый) (AlphaProject)","update":"2020-07-21 12:43:37","iframe_src":"//83.svetacdn.in/PfJ50H0ZBPg3/movie/41906"},{"id":41904,"title":"Самые красивые","kp_id":"78064","imdb_id":"tt0036947","world_art_id":null,"type":"movie","add":"2020-07-20 19:38:52","orig_title":"Ichiban utsukushiku","year":"1944-04-13","translations":["Профессиональный (двухголосый закадровый) (Инис)"],"quality":"bd","translation":"Профессиональный (двухголосый закадровый) (Инис)","update":"2020-07-21 12:44:19","iframe_src":"//83.svetacdn.in/PfJ50H0ZBPg3/movie/41904"},{"id":41903,"title":"Знак тьмы","kp_id":"267559","imdb_id":"tt0854670","world_art_id":null,"type":"movie","add":"2020-07-20 19:37:15","orig_title":"Credo","year":"2008-09-12","translations":["Профессиональный (многоголосый закадровый)"],"quality":"dvdrip","translation":"Профессиональный (многоголосый закадровый)","update":"2020-07-21 12:44:36","iframe_src":"//83.svetacdn.in/PfJ50H0ZBPg3/movie/41903"},{"id":41898,"title":"Морг","kp_id":"278360","imdb_id":"tt0949888","world_art_id":null,"type":"movie","add":"2020-07-20 13:34:44","orig_title":"The Morgue","year":"2008-04-17","translations":["Профессиональный (многоголосый закадровый)"],"quality":"dvdrip","translation":"Профессиональный (многоголосый закадровый)","update":"2020-07-21 12:45:15","iframe_src":"//83.svetacdn.in/PfJ50H0ZBPg3/movie/41898"},{"id":41897,"title":"Ночь нежна","kp_id":"13574","imdb_id":"tt0056566","world_art_id":null,"type":"movie","add":"2020-07-20 13:32:36","orig_title":"Tender Is the Night","year":"1962-01-19","translations":["Профессиональный (многоголосый закадровый) (РенТВ)"],"quality":"dvdrip","translation":"Профессиональный (многоголосый закадровый) (РенТВ)","update":"2020-07-21 12:45:43","iframe_src":"//83.svetacdn.in/PfJ50H0ZBPg3/movie/41897"},{"id":41896,"title":"Потрошитель","kp_id":"293837","imdb_id":"tt1001333","world_art_id":null,"type":"movie","add":"2020-07-20 13:31:05","orig_title":"Carver","year":"2008-03-04","translations":["Профессиональный (многоголосый закадровый)"],"quality":"dvdrip","translation":"Профессиональный (многоголосый закадровый)","update":"2020-07-21 12:46:33","iframe_src":"//83.svetacdn.in/PfJ50H0ZBPg3/movie/41896"},{"id":41895,"title":"Мутанты 2","kp_id":"77383","imdb_id":"tt0239641","world_art_id":null,"type":"movie","add":"2020-07-20 13:17:42","orig_title":"Mimic 2","year":"2001-07-17","translations":["Профессиональный (многоголосый закадровый)"],"quality":"bd","translation":"Профессиональный (многоголосый закадровый)","update":"2020-07-21 12:47:15","iframe_src":"//83.svetacdn.in/PfJ50H0ZBPg3/movie/41895"},{"id":41894,"title":"Выселенный в поисках жилья","kp_id":"63118","imdb_id":"tt0086294","world_art_id":null,"type":"movie","add":"2020-07-20 13:15:22","orig_title":"Sfrattato cerca casa equo canone","year":"1983-01-01","translations":["Полное дублирование"],"quality":"dvdrip","translation":"Полное дублирование","update":"2020-07-21 12:47:46","iframe_src":"//83.svetacdn.in/PfJ50H0ZBPg3/movie/41894"},{"id":41893,"title":"Легенда о Джабберуоке","kp_id":"568511","imdb_id":"tt1734203","world_art_id":null,"type":"movie","add":"2020-07-20 13:12:29","orig_title":"Jabberwock","year":"2011-09-10","translations":["Профессиональный (многоголосый закадровый)"],"quality":"bd","translation":"Профессиональный (многоголосый закадровый)","update":"2020-07-21 12:48:20","iframe_src":"//83.svetacdn.in/PfJ50H0ZBPg3/movie/41893"},{"id":41892,"title":"Закон бойни","kp_id":"6984","imdb_id":"tt0266971","world_art_id":null,"type":"movie","add":"2020-07-20 13:10:17","orig_title":"The Slaughter Rule","year":"2002-01-11","translations":["Любительский (двухголосый закадровый)"],"quality":"dvdrip","translation":"Любительский (двухголосый закадровый)","update":"2020-07-21 12:48:51","iframe_src":"//83.svetacdn.in/PfJ50H0ZBPg3/movie/41892"},{"id":41891,"title":"Машина","kp_id":"480604","imdb_id":"tt1471153","world_art_id":null,"type":"movie","add":"2020-07-20 13:08:27","orig_title":"Crawler","year":"2009-07-24","translations":["Профессиональный (многоголосый закадровый)"],"quality":"sat","translation":"Профессиональный (многоголосый закадровый)","update":"2020-07-21 12:52:38","iframe_src":"//83.svetacdn.in/PfJ50H0ZBPg3/movie/41891"},{"id":17131,"title":"1987","kp_id":"1009257","imdb_id":"tt6493286","world_art_id":null,"type":"movie","add":"2018-06-11 23:09:17","orig_title":"1987","year":"2017-12-27","translations":["Любительский (многоголосый закадровый) (Колобок)","Авторский (одноголосый закадровый) (Назаров Вадим)"],"quality":"webdl","translation":"Любительский (многоголосый закадровый) (Колобок)","update":"2020-07-21 06:32:01","iframe_src":"//83.svetacdn.in/PfJ50H0ZBPg3/movie/17131"}],"current_page":1142,"first_page_url":"https://videocdn.tv/api/short?limit=100&api_token=RgFQdUIR2dRmwv8iYa5SnFNgnw3vpjKj&cache31142=31142&page=1","from":114101,"last_page":723,"last_page_url":"https://videocdn.tv/api/short?limit=100&api_token=RgFQdUIR2dRmwv8iYa5SnFNgnw3vpjKj&cache31142=31142&page=723","next_page_url":null,"path":"https://videocdn.tv/api/short","per_page":100,"prev_page_url":"https://videocdn.tv/api/short?limit=100&api_token=RgFQdUIR2dRmwv8iYa5SnFNgnw3vpjKj&cache31142=31142&page=1141","to":114120,"total":72256}