{"result":true,"data":[{"id":26053,"title":"Охота на ведьм","kp_id":"1024459","imdb_id":"tt6293796","world_art_id":null,"type":"movie","add":"2019-05-05 22:52:26","orig_title":"Witch-Hunt","year":"2017-04-01","translations":["Любительский (многоголосый закадровый) (Синема УС)"],"quality":"webdl","translation":"Любительский (многоголосый закадровый) (Синема УС)","update":"2019-05-06 05:49:36","iframe_src":"//7720.svetacdn.in/si4jsFRrtgrT/movie/26053"},{"id":26051,"title":"Конец лета","kp_id":"924277","imdb_id":"tt4873170","world_art_id":null,"type":"movie","add":"2019-05-05 22:48:52","orig_title":"Vara s-a sfârsit","year":"2016-08-31","translations":["Любительский (многоголосый закадровый) (Синема УС)"],"quality":"webdl","translation":"Любительский (многоголосый закадровый) (Синема УС)","update":"2019-05-06 05:50:45","iframe_src":"//7720.svetacdn.in/si4jsFRrtgrT/movie/26051"},{"id":26050,"title":"Невозможная любовь","kp_id":"1136338","imdb_id":"tt8260226","world_art_id":null,"type":"movie","add":"2019-05-05 22:46:59","orig_title":"Un amour impossible","year":"2018-10-26","translations":["Любительский (многоголосый закадровый) (Синема УС)"],"quality":"webdl","translation":"Любительский (многоголосый закадровый) (Синема УС)","update":"2019-05-06 05:15:23","iframe_src":"//7720.svetacdn.in/si4jsFRrtgrT/movie/26050"},{"id":26047,"title":"Гора","kp_id":"736860","imdb_id":"tt2662716","world_art_id":null,"type":"movie","add":"2019-05-05 22:36:54","orig_title":"Montanha","year":"2015-09-05","translations":["Любительский (многоголосый закадровый) (Синема УС)"],"quality":"webdl","translation":"Любительский (многоголосый закадровый) (Синема УС)","update":"2019-05-06 05:56:59","iframe_src":"//7720.svetacdn.in/si4jsFRrtgrT/movie/26047"},{"id":26046,"title":"Камень","kp_id":"1248913","imdb_id":"tt4637946","world_art_id":null,"type":"movie","add":"2019-05-05 22:34:21","orig_title":"El Piedra","year":"2018-10-15","translations":["Любительский (многоголосый закадровый) (Синема УС)"],"quality":"webdl","translation":"Любительский (многоголосый закадровый) (Синема УС)","update":"2019-05-06 05:16:29","iframe_src":"//7720.svetacdn.in/si4jsFRrtgrT/movie/26046"},{"id":26043,"title":"Сука","kp_id":null,"imdb_id":"tt5833800","world_art_id":null,"type":"movie","add":"2019-05-05 22:22:03","orig_title":"Bitch","year":"2008-06-20","translations":["Любительский (двухголосый закадровый) (Mallorn Studio)"],"quality":"dvdrip","translation":"Любительский (двухголосый закадровый) (Mallorn Studio)","update":"2019-05-06 05:59:26","iframe_src":"//7720.svetacdn.in/si4jsFRrtgrT/movie/26043"},{"id":26041,"title":"Рабы","kp_id":"447361","imdb_id":"tt1376723","world_art_id":null,"type":"movie","add":"2019-05-05 22:17:04","orig_title":"Slavar","year":"2008-11-22","translations":["Любительский (двухголосый закадровый) (Mallorn Studio)"],"quality":"dvdrip","translation":"Любительский (двухголосый закадровый) (Mallorn Studio)","update":"2019-05-06 06:01:23","iframe_src":"//7720.svetacdn.in/si4jsFRrtgrT/movie/26041"},{"id":26039,"title":"Пикник","kp_id":"486957","imdb_id":"tt1461294","world_art_id":null,"type":"movie","add":"2019-05-05 22:14:48","orig_title":"Tulum","year":"2009-05-15","translations":["Любительский (двухголосый закадровый) (Mallorn Studio)"],"quality":"dvdrip","translation":"Любительский (двухголосый закадровый) (Mallorn Studio)","update":"2019-05-06 06:04:26","iframe_src":"//7720.svetacdn.in/si4jsFRrtgrT/movie/26039"},{"id":26038,"title":"Ответственный","kp_id":"436476","imdb_id":"tt1221134","world_art_id":null,"type":"movie","add":"2019-05-05 22:13:00","orig_title":"El encargado","year":"2008-03-08","translations":["Любительский (двухголосый закадровый) (Mallorn Studio)"],"quality":"dvdrip","translation":"Любительский (двухголосый закадровый) (Mallorn Studio)","update":"2019-05-06 06:05:42","iframe_src":"//7720.svetacdn.in/si4jsFRrtgrT/movie/26038"},{"id":26031,"title":"Дед мороз сюда не заглядывает","kp_id":null,"imdb_id":"tt2144960","world_art_id":null,"type":"movie","add":"2019-05-05 22:00:55","orig_title":"Father Christmas Doesn't Come Here","year":"2009-01-01","translations":["Любительский (двухголосый закадровый) (Mallorn Studio)"],"quality":"dvdrip","translation":"Любительский (двухголосый закадровый) (Mallorn Studio)","update":"2019-05-06 06:07:00","iframe_src":"//7720.svetacdn.in/si4jsFRrtgrT/movie/26031"},{"id":25890,"title":"Телеграмма","kp_id":"42226","imdb_id":"tt0067838","world_art_id":null,"type":"movie","add":"2019-05-03 19:28:01","orig_title":"Telegramma","year":"1972-05-15","translations":["Оригинальная дорожка"],"quality":"dvdrip","translation":"Оригинальная дорожка","update":"2019-05-06 07:04:55","iframe_src":"//7720.svetacdn.in/si4jsFRrtgrT/movie/25890"},{"id":25888,"title":"Золото","kp_id":"45384","imdb_id":"tt0167510","world_art_id":null,"type":"movie","add":"2019-05-03 19:10:28","orig_title":"Zoloto","year":"1970-05-04","translations":["Оригинальная дорожка"],"quality":"sat","translation":"Оригинальная дорожка","update":"2019-05-06 07:03:25","iframe_src":"//7720.svetacdn.in/si4jsFRrtgrT/movie/25888"},{"id":25886,"title":"Весенняя сказка","kp_id":"81280","imdb_id":"tt0332812","world_art_id":null,"type":"movie","add":"2019-05-03 19:02:24","orig_title":"Vesennyaya skazka","year":"1971-01-01","translations":["Оригинальная дорожка"],"quality":"dvdrip","translation":"Оригинальная дорожка","update":"2019-05-06 06:51:25","iframe_src":"//7720.svetacdn.in/si4jsFRrtgrT/movie/25886"},{"id":25885,"title":"Как Иванушка-дурачок за чудом ходил","kp_id":"44677","imdb_id":"tt0217594","world_art_id":null,"type":"movie","add":"2019-05-03 18:58:32","orig_title":"Kak Ivanushka-durachok za chudom khodil","year":"1977-10-24","translations":["Оригинальная дорожка"],"quality":"dvdrip","translation":"Оригинальная дорожка","update":"2019-05-06 06:50:30","iframe_src":"//7720.svetacdn.in/si4jsFRrtgrT/movie/25885"},{"id":25884,"title":"Красные дьяволята","kp_id":"42353","imdb_id":"tt0014186","world_art_id":null,"type":"movie","add":"2019-05-03 18:54:15","orig_title":"Krasnye dyavolyata","year":"1923-09-25","translations":["Оригинальная дорожка"],"quality":"vhs","translation":"Оригинальная дорожка","update":"2019-05-06 06:48:08","iframe_src":"//7720.svetacdn.in/si4jsFRrtgrT/movie/25884"},{"id":25883,"title":"Ночь одинокого филина","kp_id":"660793","imdb_id":"tt3698320","world_art_id":null,"type":"movie","add":"2019-05-03 18:50:07","orig_title":"Noch odinokogo filina","year":"2012-11-08","translations":["Оригинальная дорожка"],"quality":"hdtv","translation":"Оригинальная дорожка","update":"2019-05-06 06:44:10","iframe_src":"//7720.svetacdn.in/si4jsFRrtgrT/movie/25883"},{"id":25882,"title":"Репортаж судьбы","kp_id":"580495","imdb_id":"tt2386277","world_art_id":null,"type":"movie","add":"2019-05-03 18:23:21","orig_title":"Reportazh sudby","year":"2011-12-23","translations":["Оригинальная дорожка"],"quality":"sat","translation":"Оригинальная дорожка","update":"2019-05-06 06:11:33","iframe_src":"//7720.svetacdn.in/si4jsFRrtgrT/movie/25882"},{"id":25808,"title":"Ковёр-самолёт","kp_id":"989309","imdb_id":"tt5848640","world_art_id":null,"type":"movie","add":"2019-05-01 20:37:06","orig_title":"Hodja fra Pjort","year":"2018-02-08","translations":["Полное дублирование"],"quality":"bd","translation":"Полное дублирование","update":"2019-05-06 05:44:54","iframe_src":"//7720.svetacdn.in/si4jsFRrtgrT/movie/25808"},{"id":23804,"title":"Черные скалы","kp_id":"1157081","imdb_id":"tt8250728","world_art_id":null,"type":"movie","add":"2019-04-02 20:34:35","orig_title":"Roches Noires","year":"2018-03-30","translations":["Любительский (многоголосый закадровый) (Синема УС)","Любительский (многоголосый закадровый) (Mallorn Studio)"],"quality":"hdtv","translation":"Любительский (многоголосый закадровый) (Синема УС)","update":"2019-05-06 05:47:51","iframe_src":"//7720.svetacdn.in/si4jsFRrtgrT/movie/23804"},{"id":12888,"title":"Дэвид Брент: Жизнь в дороге","kp_id":"793573","imdb_id":"tt3137630","world_art_id":null,"type":"movie","add":"2017-08-10 08:52:47","orig_title":"David Brent: Life on the Road","year":"2016-08-19","translations":["Любительский (многоголосый закадровый) (Синема УС)","Любительский (многоголосый закадровый) (Mallorn Studio)"],"quality":"bd","translation":"Любительский (многоголосый закадровый) (Синема УС)","update":"2019-05-06 05:54:53","iframe_src":"//7720.svetacdn.in/si4jsFRrtgrT/movie/12888"}],"current_page":1554,"first_page_url":"https://videocdn.tv/api/short?limit=100&api_token=X6EwAUfE5M9xbo7y0Bp0aPf3uXxG2KLL&cache31554=31554&page=1","from":155301,"last_page":653,"last_page_url":"https://videocdn.tv/api/short?limit=100&api_token=X6EwAUfE5M9xbo7y0Bp0aPf3uXxG2KLL&cache31554=31554&page=653","next_page_url":null,"path":"https://videocdn.tv/api/short","per_page":100,"prev_page_url":"https://videocdn.tv/api/short?limit=100&api_token=X6EwAUfE5M9xbo7y0Bp0aPf3uXxG2KLL&cache31554=31554&page=1553","to":155320,"total":65279}