{"result":true,"data":[{"id":53027,"title":"Первое лицо множественного числа","kp_id":"1167709","imdb_id":"tt8530904","world_art_id":null,"type":"movie","add":"2021-09-10 15:58:28","orig_title":"First Person Plural","year":"2019-04-12","translations":["Любительский (многоголосый закадровый) (Синема УС)"],"quality":"webdl","translation":"Любительский (многоголосый закадровый) (Синема УС)","update":"2021-09-10 19:45:11","iframe_src":"//24213.svetacdn.in/71tsRs29n5tZ/movie/53027"},{"id":53026,"title":"Королевство","kp_id":"1218563","imdb_id":"tt9334814","world_art_id":null,"type":"movie","add":"2021-09-10 15:56:41","orig_title":"Il Regno","year":"2020-06-26","translations":["Любительский (многоголосый закадровый) (Синема УС)"],"quality":"webdl","translation":"Любительский (многоголосый закадровый) (Синема УС)","update":"2021-09-10 19:44:39","iframe_src":"//24213.svetacdn.in/71tsRs29n5tZ/movie/53026"},{"id":53025,"title":"Лунный камень для Мандей","kp_id":"1256767","imdb_id":"tt6685476","world_art_id":null,"type":"movie","add":"2021-09-10 15:54:33","orig_title":"Moon Rock for Monday","year":"2020-08-27","translations":["Любительский (многоголосый закадровый) (Синема УС)"],"quality":"webdl","translation":"Любительский (многоголосый закадровый) (Синема УС)","update":"2021-09-10 19:44:24","iframe_src":"//24213.svetacdn.in/71tsRs29n5tZ/movie/53025"},{"id":53024,"title":"Реджина","kp_id":"1410709","imdb_id":"tt12862990","world_art_id":null,"type":"movie","add":"2021-09-10 15:53:02","orig_title":"Regina","year":"2020-11-25","translations":["Любительский (многоголосый закадровый) (Синема УС)"],"quality":"webdl","translation":"Любительский (многоголосый закадровый) (Синема УС)","update":"2021-09-11 05:05:04","iframe_src":"//24213.svetacdn.in/71tsRs29n5tZ/movie/53024"},{"id":53023,"title":"Синапс","kp_id":"743037","imdb_id":"tt2747766","world_art_id":null,"type":"movie","add":"2021-09-10 15:51:14","orig_title":"Synapse","year":"2021-05-15","translations":["Любительский (многоголосый закадровый) (Синема УС)"],"quality":"webdl","translation":"Любительский (многоголосый закадровый) (Синема УС)","update":"2021-09-11 05:04:41","iframe_src":"//24213.svetacdn.in/71tsRs29n5tZ/movie/53023"},{"id":53022,"title":"Земля между озёрами","kp_id":null,"imdb_id":"tt14557056","world_art_id":null,"type":"movie","add":"2021-09-10 15:49:44","orig_title":"The Land Between the Lakes","year":"2021-06-08","translations":["Любительский (многоголосый закадровый) (Синема УС)"],"quality":"webdl","translation":"Любительский (многоголосый закадровый) (Синема УС)","update":"2021-09-11 05:04:23","iframe_src":"//24213.svetacdn.in/71tsRs29n5tZ/movie/53022"},{"id":53021,"title":"Звездное небо над римским гетто","kp_id":"1302846","imdb_id":"tt10961186","world_art_id":null,"type":"movie","add":"2021-09-10 15:47:52","orig_title":"Un cielo stellato sopra il ghetto di Roma","year":"2020-10-14","translations":["Любительский (многоголосый закадровый) (Синема УС)"],"quality":"webdl","translation":"Любительский (многоголосый закадровый) (Синема УС)","update":"2021-09-10 19:44:09","iframe_src":"//24213.svetacdn.in/71tsRs29n5tZ/movie/53021"},{"id":53020,"title":"И так хорошо","kp_id":"1208060","imdb_id":"tt9160050","world_art_id":null,"type":"movie","add":"2021-09-10 15:46:26","orig_title":"Va bene così","year":"2021-03-26","translations":["Любительский (многоголосый закадровый) (Синема УС)"],"quality":"webdl","translation":"Любительский (многоголосый закадровый) (Синема УС)","update":"2021-09-10 19:43:55","iframe_src":"//24213.svetacdn.in/71tsRs29n5tZ/movie/53020"},{"id":53014,"title":"Любовь как букет цветов","kp_id":"1318929","imdb_id":"tt11219254","world_art_id":null,"type":"movie","add":"2021-09-10 11:55:51","orig_title":"Hanataba mitaina koi o shita","year":"2021-01-29","translations":["Любительский (двухголосый закадровый) (АрхиAsia)"],"quality":"bd","translation":"Любительский (двухголосый закадровый) (АрхиAsia)","update":"2021-09-10 19:47:07","iframe_src":"//24213.svetacdn.in/71tsRs29n5tZ/movie/53014"},{"id":53003,"title":"Словесное мастерство","kp_id":"1137655","imdb_id":"tt8240242","world_art_id":null,"type":"movie","add":"2021-09-09 17:24:27","orig_title":"Language Arts","year":"2020-03-13","translations":["Любительский (многоголосый закадровый) (Синема УС)"],"quality":"webdl","translation":"Любительский (многоголосый закадровый) (Синема УС)","update":"2021-09-10 19:06:14","iframe_src":"//24213.svetacdn.in/71tsRs29n5tZ/movie/53003"},{"id":53002,"title":"Пятьдесят штук","kp_id":"1065542","imdb_id":"tt6881446","world_art_id":null,"type":"movie","add":"2021-09-09 17:04:05","orig_title":"50K","year":"2018-09-27","translations":["Любительский (многоголосый закадровый) (Синема УС)"],"quality":"webdl","translation":"Любительский (многоголосый закадровый) (Синема УС)","update":"2021-09-10 19:06:36","iframe_src":"//24213.svetacdn.in/71tsRs29n5tZ/movie/53002"},{"id":52999,"title":"Амараика","kp_id":"1189311","imdb_id":"tt8736742","world_art_id":null,"type":"movie","add":"2021-09-09 11:52:42","orig_title":"Amaraica","year":"2020-11-04","translations":["Любительский (многоголосый закадровый) (Синема УС)"],"quality":"webdl","translation":"Любительский (многоголосый закадровый) (Синема УС)","update":"2021-09-10 19:07:08","iframe_src":"//24213.svetacdn.in/71tsRs29n5tZ/movie/52999"},{"id":52997,"title":"Дети грязи","kp_id":"4497066","imdb_id":"tt7845872","world_art_id":null,"type":"movie","add":"2021-09-09 11:44:32","orig_title":"Children of Mud","year":"2020-10-01","translations":["Любительский (многоголосый закадровый) (Синема УС)"],"quality":"webdl","translation":"Любительский (многоголосый закадровый) (Синема УС)","update":"2021-09-10 19:07:28","iframe_src":"//24213.svetacdn.in/71tsRs29n5tZ/movie/52997"},{"id":52996,"title":"Она — Кристина","kp_id":"1190469","imdb_id":"tt8912128","world_art_id":null,"type":"movie","add":"2021-09-09 11:42:20","orig_title":"Ella es Cristina","year":"2019-06-13","translations":["Любительский (многоголосый закадровый) (Синема УС)"],"quality":"webdl","translation":"Любительский (многоголосый закадровый) (Синема УС)","update":"2021-09-10 19:07:55","iframe_src":"//24213.svetacdn.in/71tsRs29n5tZ/movie/52996"},{"id":52995,"title":"Остров","kp_id":"1194917","imdb_id":"tt9031490","world_art_id":null,"type":"movie","add":"2021-09-09 11:37:54","orig_title":"Ilha","year":"2018-09-19","translations":["Любительский (многоголосый закадровый) (Синема УС)"],"quality":"webdl","translation":"Любительский (многоголосый закадровый) (Синема УС)","update":"2021-09-10 19:08:29","iframe_src":"//24213.svetacdn.in/71tsRs29n5tZ/movie/52995"},{"id":52994,"title":"Лошади Вильденштейна","kp_id":"1186616","imdb_id":"tt8901422","world_art_id":null,"type":"movie","add":"2021-09-09 10:52:26","orig_title":"Reiterhof Wildenstein","year":"2019-05-10","translations":["Любительский (многоголосый закадровый) (Синема УС)"],"quality":"webdl","translation":"Любительский (многоголосый закадровый) (Синема УС)","update":"2021-09-10 19:09:01","iframe_src":"//24213.svetacdn.in/71tsRs29n5tZ/movie/52994"},{"id":52992,"title":"Местное пугало","kp_id":"1247121","imdb_id":"tt9891874","world_art_id":null,"type":"movie","add":"2021-09-09 10:24:26","orig_title":"Scarecrow County","year":"2019-10-18","translations":["Любительский (многоголосый закадровый) (Синема УС)"],"quality":"webdl","translation":"Любительский (многоголосый закадровый) (Синема УС)","update":"2021-09-10 19:10:05","iframe_src":"//24213.svetacdn.in/71tsRs29n5tZ/movie/52992"},{"id":52989,"title":"Девочка прощается с тобой","kp_id":"1132951","imdb_id":"tt8056916","world_art_id":null,"type":"movie","add":"2021-09-09 10:16:53","orig_title":"The Goodbye Girl","year":"2018-03-25","translations":["Любительский (многоголосый закадровый) (Синема УС)"],"quality":"webdl","translation":"Любительский (многоголосый закадровый) (Синема УС)","update":"2021-09-10 19:10:42","iframe_src":"//24213.svetacdn.in/71tsRs29n5tZ/movie/52989"},{"id":52982,"title":"Пятый округ","kp_id":"1137112","imdb_id":"tt8241876","world_art_id":null,"type":"movie","add":"2021-09-09 07:34:17","orig_title":"5th Borough","year":"2020-06-03","translations":["Любительский (многоголосый закадровый) (Синема УС)"],"quality":"webdl","translation":"Любительский (многоголосый закадровый) (Синема УС)","update":"2021-09-10 19:11:10","iframe_src":"//24213.svetacdn.in/71tsRs29n5tZ/movie/52982"},{"id":52970,"title":"Зимний залив","kp_id":"1406607","imdb_id":"tt12299824","world_art_id":null,"type":"movie","add":"2021-09-09 04:21:03","orig_title":"Vinterviken","year":"2021-09-08","translations":["Любительский (двухголосый закадровый) (OnisFilms)","Любительский (многоголосый закадровый) (Синема УС)"],"quality":"webdl","translation":"Любительский (двухголосый закадровый) (OnisFilms)","update":"2021-09-11 05:04:06","iframe_src":"//24213.svetacdn.in/71tsRs29n5tZ/movie/52970"},{"id":2611,"title":"Кураж","kp_id":"818569","imdb_id":"tt3793890","world_art_id":null,"type":"serial","add":"2018-05-21 11:19:03","orig_title":"Kurazh","year":"2014-04-14","translations":["Оригинальная дорожка"],"seasons_count":1,"episodes_count":12,"episodes":12,"update":"2018-05-22 11:41:46","iframe_src":"//24213.svetacdn.in/71tsRs29n5tZ/tv-series/2611"},{"id":2596,"title":"Сестры","kp_id":"1100423","imdb_id":"tt6258050","world_art_id":null,"type":"serial","add":"2018-05-19 03:44:29","orig_title":"Sisters","year":"2017-10-25","translations":["Профессиональный (многоголосый закадровый) (GreenРай Studio)"],"seasons_count":1,"episodes_count":7,"episodes":7,"update":"2018-05-21 10:39:25","iframe_src":"//24213.svetacdn.in/71tsRs29n5tZ/tv-series/2596"},{"id":2594,"title":"Мститель в маске","kp_id":"714152","imdb_id":"tt3139942","world_art_id":null,"type":"serial","add":"2018-05-17 14:13:47","orig_title":"Gaksital","year":"2010-05-30","translations":["Любительский (двухголосый закадровый) (STEPonee)"],"seasons_count":1,"episodes_count":28,"episodes":28,"update":"2018-05-18 06:00:57","iframe_src":"//24213.svetacdn.in/71tsRs29n5tZ/tv-series/2594"},{"id":2593,"title":"Беглец: План Б","kp_id":"574838","imdb_id":"tt1807208","world_art_id":null,"type":"serial","add":"2018-05-17 14:07:39","orig_title":"Domangja: Plan B","year":"2010-09-29","translations":["Любительский (одноголосый закадровый) (GREEN TEA)"],"seasons_count":1,"episodes_count":20,"episodes":20,"update":"2018-05-21 06:47:53","iframe_src":"//24213.svetacdn.in/71tsRs29n5tZ/tv-series/2593"},{"id":2592,"title":"Божественный герой","kp_id":"629597","imdb_id":"tt2060590","world_art_id":null,"type":"serial","add":"2018-05-17 13:52:20","orig_title":"Shinira bulriwoon sanai","year":"2010-03-06","translations":["Любительский (двухголосый закадровый) (GREEN TEA)"],"seasons_count":1,"episodes_count":24,"episodes":24,"update":"2018-05-18 10:55:14","iframe_src":"//24213.svetacdn.in/71tsRs29n5tZ/tv-series/2592"},{"id":2591,"title":"Поразительное на каждом шагу","kp_id":"711717","imdb_id":"tt2475848","world_art_id":null,"type":"serial","add":"2018-05-17 13:48:25","orig_title":"Bu Bu Jing Xin","year":"2011-09-10","translations":["Любительский (многоголосый закадровый) (GREEN TEA)"],"seasons_count":1,"episodes_count":35,"episodes":35,"update":"2018-05-18 05:11:17","iframe_src":"//24213.svetacdn.in/71tsRs29n5tZ/tv-series/2591"},{"id":2589,"title":"Последний бой","kp_id":"630077","imdb_id":"tt3257264","world_art_id":null,"type":"serial","add":"2018-05-17 04:08:24","orig_title":"Posledniy boy","year":"2013-05-09","translations":["Оригинальная дорожка"],"seasons_count":1,"episodes_count":3,"episodes":3,"update":"2018-05-17 06:03:45","iframe_src":"//24213.svetacdn.in/71tsRs29n5tZ/tv-series/2589"},{"id":2587,"title":"Господа-товарищи","kp_id":"846885","imdb_id":"tt4514150","world_art_id":null,"type":"serial","add":"2018-05-16 09:59:20","orig_title":"Gospoda-tovarishchi","year":"2014-04-18","translations":["Оригинальная дорожка"],"seasons_count":1,"episodes_count":16,"episodes":16,"update":"2018-05-17 10:36:43","iframe_src":"//24213.svetacdn.in/71tsRs29n5tZ/tv-series/2587"},{"id":2582,"title":"Дом с лилиями","kp_id":"715171","imdb_id":"tt4420544","world_art_id":null,"type":"serial","add":"2018-05-15 10:31:00","orig_title":"Dom s liliyami","year":"2014-03-31","translations":["Оригинальная дорожка"],"seasons_count":1,"episodes_count":24,"episodes":24,"update":"2018-05-17 07:00:24","iframe_src":"//24213.svetacdn.in/71tsRs29n5tZ/tv-series/2582"},{"id":2580,"title":"Две зимы и три лета","kp_id":"820505","imdb_id":"tt3840730","world_art_id":null,"type":"serial","add":"2018-05-15 10:23:26","orig_title":"Dve zimy i tri leta","year":"2014-01-20","translations":["Оригинальная дорожка"],"seasons_count":1,"episodes_count":26,"episodes":26,"update":"2018-05-16 09:54:40","iframe_src":"//24213.svetacdn.in/71tsRs29n5tZ/tv-series/2580"},{"id":2579,"title":"Чужая жизнь","kp_id":"840263","imdb_id":"tt3791980","world_art_id":null,"type":"serial","add":"2018-05-15 10:20:53","orig_title":"Chuzhaya zhizn","year":"2014-06-09","translations":["Оригинальная дорожка"],"seasons_count":1,"episodes_count":10,"episodes":10,"update":"2018-05-17 10:47:52","iframe_src":"//24213.svetacdn.in/71tsRs29n5tZ/tv-series/2579"},{"id":2578,"title":"Человек-приманка","kp_id":"612686","imdb_id":"tt3997576","world_art_id":null,"type":"serial","add":"2018-05-15 10:16:53","orig_title":"Chelovek-primanka","year":"2014-08-01","translations":["Оригинальная дорожка"],"seasons_count":1,"episodes_count":16,"episodes":16,"update":"2018-05-16 05:53:15","iframe_src":"//24213.svetacdn.in/71tsRs29n5tZ/tv-series/2578"},{"id":2577,"title":"Чао, Федерико!","kp_id":"842009","imdb_id":"tt4760664","world_art_id":null,"type":"serial","add":"2018-05-15 10:14:53","orig_title":"Chao, Federiko!","year":"2014-09-05","translations":["Оригинальная дорожка"],"seasons_count":1,"episodes_count":4,"episodes":4,"update":"2018-05-21 10:45:29","iframe_src":"//24213.svetacdn.in/71tsRs29n5tZ/tv-series/2577"},{"id":2576,"title":"Личное дело","kp_id":"838683","imdb_id":"tt4080190","world_art_id":null,"type":"serial","add":"2018-05-15 10:11:22","orig_title":"Lichnoe delo","year":"2014-03-17","translations":["Оригинальная дорожка"],"seasons_count":1,"episodes_count":60,"episodes":60,"update":"2018-05-22 11:27:18","iframe_src":"//24213.svetacdn.in/71tsRs29n5tZ/tv-series/2576"},{"id":2575,"title":"Возвращение","kp_id":"1049047","imdb_id":"tt7825618","world_art_id":null,"type":"serial","add":"2018-05-14 12:41:18","orig_title":"Riteon","year":"2018-01-17","translations":["Любительский (двухголосый закадровый) (HighHopes)"],"seasons_count":1,"episodes_count":34,"episodes":34,"update":"2018-05-22 10:46:19","iframe_src":"//24213.svetacdn.in/71tsRs29n5tZ/tv-series/2575"},{"id":2573,"title":"Частный детектив Татьяна Иванова","kp_id":"841347","imdb_id":"tt4136722","world_art_id":null,"type":"serial","add":"2018-05-14 10:44:27","orig_title":"Chastniy detektiv Tatyana Ivanova","year":"2014-08-03","translations":["Оригинальная дорожка"],"seasons_count":1,"episodes_count":6,"episodes":6,"update":"2018-05-17 10:54:21","iframe_src":"//24213.svetacdn.in/71tsRs29n5tZ/tv-series/2573"},{"id":2572,"title":"Братские узы","kp_id":"846890","imdb_id":"tt4260942","world_art_id":null,"type":"serial","add":"2018-05-14 10:40:08","orig_title":"Bratskie uzy","year":"2014-12-06","translations":["Оригинальная дорожка"],"seasons_count":1,"episodes_count":2,"episodes":2,"update":"2018-05-17 07:02:45","iframe_src":"//24213.svetacdn.in/71tsRs29n5tZ/tv-series/2572"},{"id":2571,"title":"Беспокойный участок","kp_id":"823942","imdb_id":"tt3565222","world_art_id":null,"type":"serial","add":"2018-05-14 10:33:18","orig_title":"Bespokoynyy uchastok","year":"2014-11-17","translations":["Оригинальная дорожка"],"seasons_count":2,"episodes_count":16,"episodes":8,"update":"2018-05-16 05:34:23","iframe_src":"//24213.svetacdn.in/71tsRs29n5tZ/tv-series/2571"},{"id":2570,"title":"Аромат шиповника","kp_id":"839715","imdb_id":"tt4173342","world_art_id":null,"type":"serial","add":"2018-05-14 10:28:25","orig_title":"Aromat shipovnika","year":"2014-08-18","translations":["Оригинальная дорожка"],"seasons_count":1,"episodes_count":32,"episodes":32,"update":"2018-05-15 10:12:21","iframe_src":"//24213.svetacdn.in/71tsRs29n5tZ/tv-series/2570"},{"id":2567,"title":"Кири","kp_id":"1111961","imdb_id":"tt7157494","world_art_id":null,"type":"serial","add":"2018-05-12 11:57:52","orig_title":"Kiri","year":"2018-01-10","translations":["Профессиональный (многоголосый закадровый) (GreenРай Studio)"],"seasons_count":1,"episodes_count":4,"episodes":4,"update":"2018-05-15 05:53:12","iframe_src":"//24213.svetacdn.in/71tsRs29n5tZ/tv-series/2567"}],"current_page":550,"first_page_url":"https://videocdn.tv/api/short?limit=100&api_token=EnbO9h8pv1VyjbCJhg0WM9nG259n7mtz&cache3550=3550&page=1","from":54901,"last_page":731,"last_page_url":"https://videocdn.tv/api/short?limit=100&api_token=EnbO9h8pv1VyjbCJhg0WM9nG259n7mtz&cache3550=3550&page=731","next_page_url":"https://videocdn.tv/api/short?limit=100&api_token=EnbO9h8pv1VyjbCJhg0WM9nG259n7mtz&cache3550=3550&page=551","path":"https://videocdn.tv/api/short","per_page":100,"prev_page_url":"https://videocdn.tv/api/short?limit=100&api_token=EnbO9h8pv1VyjbCJhg0WM9nG259n7mtz&cache3550=3550&page=549","to":54940,"total":73011}