{"result":true,"data":[{"id":44771,"title":"Осознание","kp_id":"1266729","imdb_id":"tt10313564","world_art_id":null,"type":"movie","add":"2020-10-25 20:30:18","orig_title":"The Understanding","year":"2019-07-01","translations":["Любительский (многоголосый закадровый) (Синема УС)"],"quality":"webdl","translation":"Любительский (многоголосый закадровый) (Синема УС)","update":"2020-10-25 23:46:09","iframe_src":"//8543.svetacdn.in/si4jsFRrtgrT/movie/44771"},{"id":44751,"title":"Спасители","kp_id":"1062586","imdb_id":"tt7132672","world_art_id":null,"type":"movie","add":"2020-10-25 15:19:17","orig_title":"Saviors","year":"2018-03-03","translations":["Любительский (многоголосый закадровый) (@MUZOBOZ@)"],"quality":"webdl","translation":"Любительский (многоголосый закадровый) (@MUZOBOZ@)","update":"2020-10-26 07:26:32","iframe_src":"//8543.svetacdn.in/si4jsFRrtgrT/movie/44751"},{"id":44749,"title":"На западном фронте без перемен","kp_id":"229301","imdb_id":"tt0078753","world_art_id":null,"type":"movie","add":"2020-10-25 14:25:28","orig_title":"All Quiet on the Western Front","year":"1979-11-14","translations":["Профессиональный (многоголосый закадровый)"],"quality":"dvdrip","translation":"Профессиональный (многоголосый закадровый)","update":"2020-10-26 07:20:02","iframe_src":"//8543.svetacdn.in/si4jsFRrtgrT/movie/44749"},{"id":44733,"title":"Ана и Витория","kp_id":"1165187","imdb_id":"tt8583378","world_art_id":null,"type":"movie","add":"2020-10-24 19:30:07","orig_title":"Ana e Vitória","year":"2018-08-02","translations":["Любительский (многоголосый закадровый) (Синема УС)"],"quality":"webdl","translation":"Любительский (многоголосый закадровый) (Синема УС)","update":"2020-10-25 07:20:38","iframe_src":"//8543.svetacdn.in/si4jsFRrtgrT/movie/44733"},{"id":44732,"title":"Убийцы каннибалов-мертвецов","kp_id":"1005480","imdb_id":"tt6098734","world_art_id":null,"type":"movie","add":"2020-10-24 19:12:44","orig_title":"Cannibal Corpse Killers","year":"2017-09-29","translations":["Любительский (многоголосый закадровый) (Синема УС)"],"quality":"webdl","translation":"Любительский (многоголосый закадровый) (Синема УС)","update":"2020-10-25 07:19:49","iframe_src":"//8543.svetacdn.in/si4jsFRrtgrT/movie/44732"},{"id":44731,"title":"Привет из будущего","kp_id":null,"imdb_id":"tt6992642","world_art_id":null,"type":"movie","add":"2020-10-24 19:09:29","orig_title":"El Hubiera Sí Existe","year":"2019-12-25","translations":["Любительский (многоголосый закадровый) (@MUZOBOZ@)"],"quality":"webdl","translation":"Любительский (многоголосый закадровый) (@MUZOBOZ@)","update":"2020-10-25 07:19:12","iframe_src":"//8543.svetacdn.in/si4jsFRrtgrT/movie/44731"},{"id":44730,"title":"Как выйти замуж за миллионера?","kp_id":"1292950","imdb_id":"tt10800286","world_art_id":null,"type":"movie","add":"2020-10-24 19:04:34","orig_title":"Jak poslubic milionera","year":"2019-11-29","translations":["Любительский (многоголосый закадровый) (AlphaProject)"],"quality":"webdl","translation":"Любительский (многоголосый закадровый) (AlphaProject)","update":"2020-10-25 07:17:36","iframe_src":"//8543.svetacdn.in/si4jsFRrtgrT/movie/44730"},{"id":44729,"title":"Марсело","kp_id":"1222814","imdb_id":"tt9440660","world_art_id":null,"type":"movie","add":"2020-10-24 18:59:48","orig_title":"Marcelo","year":"2019-10-24","translations":["Любительский (многоголосый закадровый) (AlphaProject)"],"quality":"webdl","translation":"Любительский (многоголосый закадровый) (AlphaProject)","update":"2020-10-25 07:16:51","iframe_src":"//8543.svetacdn.in/si4jsFRrtgrT/movie/44729"},{"id":44724,"title":"Прелестная Долли","kp_id":"17250","imdb_id":"tt0104119","world_art_id":null,"type":"movie","add":"2020-10-23 21:26:47","orig_title":"Dolly Dearest","year":"1991-09-01","translations":["Авторский (одноголосый закадровый) (Карцев Пётр)"],"quality":"dvdrip","translation":"Авторский (одноголосый закадровый) (Карцев Пётр)","update":"2020-10-25 08:27:58","iframe_src":"//8543.svetacdn.in/si4jsFRrtgrT/movie/44724"},{"id":44712,"title":"Место, где не нужно слов","kp_id":"1133965","imdb_id":"tt8110988","world_art_id":null,"type":"movie","add":"2020-10-23 16:38:01","orig_title":"The Place of No Words","year":"2019-04-27","translations":["Любительский (многоголосый закадровый) (@MUZOBOZ@)"],"quality":"webdl","translation":"Любительский (многоголосый закадровый) (@MUZOBOZ@)","update":"2020-10-25 08:42:49","iframe_src":"//8543.svetacdn.in/si4jsFRrtgrT/movie/44712"},{"id":44709,"title":"Деловая этика","kp_id":"999680","imdb_id":"tt6003660","world_art_id":null,"type":"movie","add":"2020-10-23 16:16:48","orig_title":"Business Ethics","year":"2019-09-06","translations":["Любительский (многоголосый закадровый) (@MUZOBOZ@)"],"quality":"webdl","translation":"Любительский (многоголосый закадровый) (@MUZOBOZ@)","update":"2020-10-25 08:41:49","iframe_src":"//8543.svetacdn.in/si4jsFRrtgrT/movie/44709"},{"id":44697,"title":"Variações — Ангел-хранитель","kp_id":"774793","imdb_id":"tt2155399","world_art_id":null,"type":"movie","add":"2020-10-22 19:01:27","orig_title":"Variações","year":"2019-08-19","translations":["Любительский (многоголосый закадровый) (@MUZOBOZ@)"],"quality":"bd","translation":"Любительский (многоголосый закадровый) (@MUZOBOZ@)","update":"2020-10-25 08:43:51","iframe_src":"//8543.svetacdn.in/si4jsFRrtgrT/movie/44697"},{"id":44694,"title":"Дэвид Аттенборо: Жизнь на нашей планете","kp_id":"1412499","imdb_id":"tt11989890","world_art_id":null,"type":"movie","add":"2020-10-22 18:43:56","orig_title":"David Attenborough: A Life on Our Planet","year":"2020-09-28","translations":["Original (English)"],"quality":"webdl","translation":"Original (English)","update":"2020-10-25 18:58:15","iframe_src":"//8543.svetacdn.in/si4jsFRrtgrT/movie/44694"},{"id":44693,"title":"Турки идут. Меч справедливости","kp_id":"1320661","imdb_id":"tt11167818","world_art_id":null,"type":"movie","add":"2020-10-22 18:41:25","orig_title":"Türkler Geliyor: Adaletin Kilici","year":"2019-12-27","translations":["Любительский (многоголосый закадровый)"],"quality":"sat","translation":"Любительский (многоголосый закадровый)","update":"2020-10-25 18:57:06","iframe_src":"//8543.svetacdn.in/si4jsFRrtgrT/movie/44693"},{"id":44188,"title":"Хэллоуин Хьюби","kp_id":"1290806","imdb_id":"tt10682266","world_art_id":null,"type":"movie","add":"2020-10-07 09:36:45","orig_title":"Hubie Halloween","year":"2020-10-07","translations":["Original (English)","Полное дублирование (iTunes)","Полное дублирование (Пифагор)"],"quality":"webdl","translation":"Original (English)","update":"2020-10-25 18:55:52","iframe_src":"//8543.svetacdn.in/si4jsFRrtgrT/movie/44188"},{"id":42492,"title":"Вечность между нами","kp_id":"995075","imdb_id":"tt5723282","world_art_id":null,"type":"movie","add":"2020-08-16 14:00:10","orig_title":"Endless","year":"2020-05-08","translations":["Любительский (многоголосый закадровый) (@MUZOBOZ@)","Original (English)","Полное дублирование","Полное дублирование (iTunes)"],"quality":"webdl","translation":"Любительский (многоголосый закадровый) (@MUZOBOZ@)","update":"2020-10-25 18:54:34","iframe_src":"//8543.svetacdn.in/si4jsFRrtgrT/movie/42492"},{"id":41705,"title":"Мой создатель","kp_id":"1055319","imdb_id":"tt6882604","world_art_id":null,"type":"movie","add":"2020-07-10 13:37:55","orig_title":"Archive","year":"2020-07-10","translations":["Полное дублирование","Любительский (многоголосый закадровый) (@MUZOBOZ@)","Original (English)","Профессиональный (многоголосый закадровый) (HDrezka Studio)","Профессиональный (многоголосый закадровый) (HDrezka Studio)","Полное дублирование (iTunes)"],"quality":"webdl","translation":"Полное дублирование","update":"2020-10-25 18:58:33","iframe_src":"//8543.svetacdn.in/si4jsFRrtgrT/movie/41705"},{"id":38535,"title":"Номер один","kp_id":"1314719","imdb_id":null,"world_art_id":null,"type":"movie","add":"2020-03-25 20:04:10","orig_title":"Номер один","year":"2020-03-19","translations":["Оригинальная дорожка"],"quality":"webdl","translation":"Оригинальная дорожка","update":"2020-10-25 18:53:35","iframe_src":"//8543.svetacdn.in/si4jsFRrtgrT/movie/38535"},{"id":37948,"title":"Любовь между строк","kp_id":"1150547","imdb_id":"tt8435892","world_art_id":null,"type":"movie","add":"2020-03-13 14:54:03","orig_title":"Gut gegen Nordwind","year":"2019-09-03","translations":["Любительский (многоголосый закадровый) (Синема УС)","Полное дублирование","Полное дублирование (iTunes)"],"quality":"webdl","translation":"Любительский (многоголосый закадровый) (Синема УС)","update":"2020-10-25 18:57:51","iframe_src":"//8543.svetacdn.in/si4jsFRrtgrT/movie/37948"},{"id":6075,"title":"Богач, бедняк...","kp_id":"77250","imdb_id":"tt0173684","world_art_id":null,"type":"serial","add":"2019-12-18 08:33:28","orig_title":"Bogach, bednyak...","year":"1982-06-06","translations":["Оригинальная дорожка"],"seasons_count":1,"episodes_count":4,"episodes":4,"update":"2019-12-18 11:17:17","iframe_src":"//8543.svetacdn.in/si4jsFRrtgrT/tv-series/6075"},{"id":6074,"title":"Мираж","kp_id":"77281","imdb_id":"tt0254913","world_art_id":null,"type":"serial","add":"2019-12-18 08:24:01","orig_title":"Mirazh","year":"1983-08-10","translations":["Оригинальная дорожка"],"seasons_count":1,"episodes_count":3,"episodes":3,"update":"2019-12-18 11:14:54","iframe_src":"//8543.svetacdn.in/si4jsFRrtgrT/tv-series/6074"},{"id":6073,"title":"Овод","kp_id":"102722","imdb_id":"tt0230602","world_art_id":null,"type":"serial","add":"2019-12-18 08:17:34","orig_title":"Ovod","year":"1980-11-03","translations":["Оригинальная дорожка"],"seasons_count":1,"episodes_count":3,"episodes":3,"update":"2019-12-18 11:44:40","iframe_src":"//8543.svetacdn.in/si4jsFRrtgrT/tv-series/6073"},{"id":6072,"title":"Рафферти","kp_id":"94196","imdb_id":"tt0080264","world_art_id":null,"type":"serial","add":"2019-12-18 07:28:24","orig_title":"Rafferty","year":"1980-11-19","translations":["Оригинальная дорожка"],"seasons_count":1,"episodes_count":3,"episodes":3,"update":"2019-12-18 09:48:44","iframe_src":"//8543.svetacdn.in/si4jsFRrtgrT/tv-series/6072"},{"id":6071,"title":"Вторжение","kp_id":"94091","imdb_id":"tt0118452","world_art_id":null,"type":"serial","add":"2019-12-18 05:42:37","orig_title":"Invasion","year":"1997-01-01","translations":["Профессиональный (многоголосый закадровый)"],"seasons_count":1,"episodes_count":2,"episodes":2,"update":"2019-12-18 06:39:04","iframe_src":"//8543.svetacdn.in/si4jsFRrtgrT/tv-series/6071"},{"id":6068,"title":"Сил и дьявольское семя Ародора","kp_id":"1285222","imdb_id":"tt10655906","world_art_id":null,"type":"serial","add":"2019-12-17 12:44:41","orig_title":"Sil and the Devil Seeds of Arodor","year":"2019-11-04","translations":["Любительский (многоголосый закадровый) (Синема УС)"],"seasons_count":1,"episodes_count":4,"episodes":4,"update":"2019-12-17 18:26:57","iframe_src":"//8543.svetacdn.in/si4jsFRrtgrT/tv-series/6068"},{"id":6067,"title":"Анималия","kp_id":"628949","imdb_id":"tt0887305","world_art_id":null,"type":"serial","add":"2019-12-17 08:52:36","orig_title":"Animalia","year":"2007-11-11","translations":["Полное дублирование"],"seasons_count":2,"episodes_count":40,"episodes":22,"update":"2019-12-18 05:25:38","iframe_src":"//8543.svetacdn.in/si4jsFRrtgrT/tv-series/6067"},{"id":6065,"title":"Старость – не радость","kp_id":"702876","imdb_id":"tt2342652","world_art_id":null,"type":"serial","add":"2019-12-16 21:22:01","orig_title":"Getting On","year":"2013-11-24","translations":["Профессиональный (многоголосый закадровый) (АРК-ТВ Studio)","Профессиональный (многоголосый закадровый) (Amedia)"],"seasons_count":3,"episodes_count":18,"episodes":6,"update":"2019-12-18 12:41:35","iframe_src":"//8543.svetacdn.in/si4jsFRrtgrT/tv-series/6065"},{"id":6064,"title":"Я не я","kp_id":"477539","imdb_id":"tt3519036","world_art_id":null,"type":"serial","add":"2019-12-16 20:19:57","orig_title":"Ya ne ya","year":"2010-01-24","translations":["Оригинальная дорожка"],"seasons_count":1,"episodes_count":4,"episodes":4,"update":"2019-12-17 20:03:42","iframe_src":"//8543.svetacdn.in/si4jsFRrtgrT/tv-series/6064"},{"id":6062,"title":"Последний рейв","kp_id":"1320481","imdb_id":null,"world_art_id":null,"type":"serial","add":"2019-12-16 20:11:54","orig_title":"Последний рейв","year":"2019-11-14","translations":["Оригинальная дорожка"],"seasons_count":1,"episodes_count":4,"episodes":4,"update":"2019-12-17 20:06:00","iframe_src":"//8543.svetacdn.in/si4jsFRrtgrT/tv-series/6062"},{"id":6059,"title":"Братья Вентура","kp_id":"281897","imdb_id":"tt0417373","world_art_id":null,"type":"serial","add":"2019-12-16 13:01:45","orig_title":"The Venture Bros.","year":"2004-08-07","translations":["Original (English)","Профессиональный (многоголосый закадровый) (2x2)","Любительский (одноголосый закадровый) (VoicePower)"],"seasons_count":7,"episodes_count":85,"episodes":10,"update":"2019-12-17 20:20:47","iframe_src":"//8543.svetacdn.in/si4jsFRrtgrT/tv-series/6059"},{"id":6048,"title":"Девушка с персиками","kp_id":"1112470","imdb_id":null,"world_art_id":null,"type":"serial","add":"2019-12-14 13:26:53","orig_title":"Девушка с персиками","year":"2017-12-15","translations":["Оригинальная дорожка"],"seasons_count":1,"episodes_count":4,"episodes":4,"update":"2019-12-18 11:43:16","iframe_src":"//8543.svetacdn.in/si4jsFRrtgrT/tv-series/6048"},{"id":6047,"title":"Заложница","kp_id":"1045732","imdb_id":null,"world_art_id":null,"type":"serial","add":"2019-12-14 13:24:51","orig_title":"Заложница","year":"2017-05-13","translations":["Оригинальная дорожка"],"seasons_count":1,"episodes_count":4,"episodes":4,"update":"2019-12-18 11:41:13","iframe_src":"//8543.svetacdn.in/si4jsFRrtgrT/tv-series/6047"},{"id":5955,"title":"Бесстыдники","kp_id":"405520","imdb_id":"tt0377260","world_art_id":null,"type":"serial","add":"2019-12-05 17:59:58","orig_title":"Shameless","year":"2004-01-13","translations":["Профессиональный (многоголосый закадровый) (AlexFilm)","Профессиональный (многоголосый закадровый) (FocusStudio)"],"seasons_count":11,"episodes_count":139,"episodes":14,"update":"2019-12-18 18:03:55","iframe_src":"//8543.svetacdn.in/si4jsFRrtgrT/tv-series/5955"},{"id":5549,"title":"Магазин уценённых товаров «Чхоллима»","kp_id":"1267355","imdb_id":"tt10850864","world_art_id":null,"type":"serial","add":"2019-10-28 09:59:18","orig_title":"Ssamnida Cheollimamateu","year":"2019-09-20","translations":["Любительский (многоголосый закадровый) (Voice Project Studio)","Любительский (многоголосый закадровый)"],"seasons_count":1,"episodes_count":12,"episodes":12,"update":"2019-12-18 16:40:22","iframe_src":"//8543.svetacdn.in/si4jsFRrtgrT/tv-series/5549"},{"id":5512,"title":"Современная любовь","kp_id":"1163856","imdb_id":"tt8543390","world_art_id":null,"type":"serial","add":"2019-10-23 11:01:15","orig_title":"Modern Love","year":"2019-10-18","translations":["Профессиональный (двухголосый закадровый) (Gears Media)","Профессиональный (многоголосый закадровый) (TVShows)"],"seasons_count":1,"episodes_count":8,"episodes":8,"update":"2019-12-18 18:13:47","iframe_src":"//8543.svetacdn.in/si4jsFRrtgrT/tv-series/5512"},{"id":31060,"title":"Опасная авантюра","kp_id":"1289120","imdb_id":"tt6769326","world_art_id":null,"type":"movie","add":"2019-09-22 14:22:35","orig_title":"American Dreamer","year":"2018-09-22","translations":["Полное дублирование (iTunes)"],"quality":"webdl","translation":"Полное дублирование (iTunes)","update":"2020-10-25 08:47:06","iframe_src":"//8543.svetacdn.in/si4jsFRrtgrT/movie/31060"},{"id":2744,"title":"Последняя жертва Анны","kp_id":"893376","imdb_id":"tt5033976","world_art_id":null,"type":"serial","add":"2018-06-05 10:41:12","orig_title":"Poslednyaya zhertva Anny","year":"2015-03-28","translations":["Оригинальная дорожка"],"seasons_count":1,"episodes_count":2,"episodes":2,"update":"2019-12-18 11:44:27","iframe_src":"//8543.svetacdn.in/si4jsFRrtgrT/tv-series/2744"},{"id":2441,"title":"Красная дверь","kp_id":"1110987","imdb_id":"tt6134022","world_art_id":null,"type":"serial","add":"2018-04-22 00:02:02","orig_title":"La Porta Rossa","year":"2017-02-22","translations":["Любительский (многоголосый закадровый) (ColdFilm)","Профессиональный (двухголосый закадровый) (ViruseProject)"],"seasons_count":2,"episodes_count":18,"episodes":6,"update":"2019-12-17 21:33:02","iframe_src":"//8543.svetacdn.in/si4jsFRrtgrT/tv-series/2441"},{"id":2139,"title":"Государственный секретарь","kp_id":"823674","imdb_id":"tt3501074","world_art_id":null,"type":"serial","add":"2018-02-25 23:07:20","orig_title":"Madam Secretary","year":"2014-09-21","translations":["Любительский (двухголосый закадровый) (Kiitos)","Профессиональный (многоголосый закадровый) (BaibaKo)","Профессиональный (многоголосый закадровый) (TVShows)"],"seasons_count":6,"episodes_count":96,"episodes":10,"update":"2019-12-17 21:34:16","iframe_src":"//8543.svetacdn.in/si4jsFRrtgrT/tv-series/2139"},{"id":1940,"title":"4 квартала","kp_id":"1111924","imdb_id":"tt5754602","world_art_id":null,"type":"serial","add":"2018-01-10 13:33:27","orig_title":"4 Blocks","year":"2017-05-08","translations":["Любительский (двухголосый закадровый) (Sunshine Studio)","Профессиональный (многоголосый закадровый) (BaibaKo)","Профессиональный (двухголосый закадровый) (ViruseProject)","Профессиональный (многоголосый закадровый) (ViruseProject)","Любительский (двухголосый закадровый)"],"seasons_count":3,"episodes_count":19,"episodes":6,"update":"2019-12-17 21:36:20","iframe_src":"//8543.svetacdn.in/si4jsFRrtgrT/tv-series/1940"}],"current_page":258,"first_page_url":"https://videocdn.tv/api/short?limit=100&api_token=X6EwAUfE5M9xbo7y0Bp0aPf3uXxG2KLL&cache3258=3258&page=1","from":25701,"last_page":596,"last_page_url":"https://videocdn.tv/api/short?limit=100&api_token=X6EwAUfE5M9xbo7y0Bp0aPf3uXxG2KLL&cache3258=3258&page=596","next_page_url":"https://videocdn.tv/api/short?limit=100&api_token=X6EwAUfE5M9xbo7y0Bp0aPf3uXxG2KLL&cache3258=3258&page=259","path":"https://videocdn.tv/api/short","per_page":100,"prev_page_url":"https://videocdn.tv/api/short?limit=100&api_token=X6EwAUfE5M9xbo7y0Bp0aPf3uXxG2KLL&cache3258=3258&page=257","to":25740,"total":59584}