{"result":true,"data":[{"id":1379,"title":"Немыслимое","kp_id":"430519","imdb_id":"tt0914863","world_art_id":null,"type":"movie","add":"2016-04-21 09:10:05","orig_title":"Unthinkable","year":"2010-05-26","translations":["Профессиональный (многоголосый закадровый)"],"quality":"bd","translation":"Профессиональный (многоголосый закадровый)","update":"2016-04-21 12:54:43","iframe_src":"//8332.svetacdn.in/71tsRs29n5tZ/movie/1379"},{"id":1368,"title":"Война полов","kp_id":"840230","imdb_id":"tt5253372","world_art_id":null,"type":"movie","add":"2016-04-21 05:34:16","orig_title":"Voyna polov","year":"2015-10-22","translations":["Оригинальная дорожка"],"quality":"webdl","translation":"Оригинальная дорожка","update":"2016-04-21 08:20:28","iframe_src":"//8332.svetacdn.in/71tsRs29n5tZ/movie/1368"},{"id":1367,"title":"Самый лучший день","kp_id":"843784","imdb_id":"tt5083604","world_art_id":null,"type":"movie","add":"2016-04-21 05:32:11","orig_title":"Samyy luchshiy den!","year":"2015-12-25","translations":["Оригинальная дорожка"],"quality":"bd","translation":"Оригинальная дорожка","update":"2016-04-21 08:24:40","iframe_src":"//8332.svetacdn.in/71tsRs29n5tZ/movie/1367"},{"id":1366,"title":"Призрак","kp_id":"839960","imdb_id":"tt4559932","world_art_id":null,"type":"movie","add":"2016-04-21 05:29:56","orig_title":"Prizrak","year":"2015-03-27","translations":["Оригинальная дорожка"],"quality":"webdl","translation":"Оригинальная дорожка","update":"2016-04-21 08:27:04","iframe_src":"//8332.svetacdn.in/71tsRs29n5tZ/movie/1366"},{"id":1365,"title":"Одной левой","kp_id":"797709","imdb_id":"tt4625752","world_art_id":null,"type":"movie","add":"2016-04-21 05:28:05","orig_title":"Odnoy levoy","year":"2015-05-15","translations":["Оригинальная дорожка"],"quality":"webdl","translation":"Оригинальная дорожка","update":"2016-04-21 08:30:54","iframe_src":"//8332.svetacdn.in/71tsRs29n5tZ/movie/1365"},{"id":1364,"title":"Гороскоп на удачу","kp_id":"840231","imdb_id":"tt4871022","world_art_id":null,"type":"movie","add":"2016-04-21 05:26:02","orig_title":"Goroskop na udachu","year":"2015-07-17","translations":["Оригинальная дорожка"],"quality":"webdl","translation":"Оригинальная дорожка","update":"2016-04-21 06:40:08","iframe_src":"//8332.svetacdn.in/71tsRs29n5tZ/movie/1364"},{"id":1363,"title":"А зори здесь тихие...","kp_id":"840754","imdb_id":"tt4629032","world_art_id":null,"type":"movie","add":"2016-04-21 05:23:26","orig_title":"A zori zdes tikhie...","year":"2015-04-30","translations":["Оригинальная дорожка"],"quality":"webdl","translation":"Оригинальная дорожка","update":"2016-04-21 08:17:24","iframe_src":"//8332.svetacdn.in/71tsRs29n5tZ/movie/1363"},{"id":1336,"title":"Месть","kp_id":"463932","imdb_id":"tt1340107","world_art_id":null,"type":"movie","add":"2016-04-20 15:22:16","orig_title":"Hævnen","year":"2010-08-26","translations":["Профессиональный (многоголосый закадровый)"],"quality":"bd","translation":"Профессиональный (многоголосый закадровый)","update":"2016-04-21 06:04:44","iframe_src":"//8332.svetacdn.in/71tsRs29n5tZ/movie/1336"},{"id":1334,"title":"Столетний старик, который вылез в окно и исчез","kp_id":"648731","imdb_id":"tt2113681","world_art_id":null,"type":"movie","add":"2016-04-20 15:18:48","orig_title":"Hundraåringen som klev ut genom fönstret och försvann","year":"2013-12-25","translations":["Профессиональный (многоголосый закадровый)"],"quality":"bd","translation":"Профессиональный (многоголосый закадровый)","update":"2016-04-21 06:10:07","iframe_src":"//8332.svetacdn.in/71tsRs29n5tZ/movie/1334"},{"id":1333,"title":"Игра на выживание","kp_id":"762833","imdb_id":"tt2911668","world_art_id":null,"type":"movie","add":"2016-04-20 15:17:32","orig_title":"Beyond the Reach","year":"2014-09-06","translations":["Полное дублирование"],"quality":"bd","translation":"Полное дублирование","update":"2016-04-21 06:00:36","iframe_src":"//8332.svetacdn.in/71tsRs29n5tZ/movie/1333"},{"id":1331,"title":"Виктор","kp_id":"771113","imdb_id":"tt2940280","world_art_id":null,"type":"movie","add":"2016-04-20 15:14:26","orig_title":"Viktor","year":"2014-10-24","translations":["Полное дублирование"],"quality":"bd","translation":"Полное дублирование","update":"2016-04-21 06:16:56","iframe_src":"//8332.svetacdn.in/71tsRs29n5tZ/movie/1331"},{"id":1328,"title":"Монстервилль","kp_id":"888900","imdb_id":"tt4386242","world_art_id":null,"type":"movie","add":"2016-04-20 15:08:23","orig_title":"R.L. Stine's Monsterville: The Cabinet of Souls","year":"2015-09-29","translations":["Полное дублирование"],"quality":"bd","translation":"Полное дублирование","update":"2016-04-21 06:29:58","iframe_src":"//8332.svetacdn.in/71tsRs29n5tZ/movie/1328"},{"id":1327,"title":"Побег с планеты Земля","kp_id":"601797","imdb_id":"tt0765446","world_art_id":null,"type":"movie","add":"2016-04-20 15:04:40","orig_title":"Escape from Planet Earth","year":"2013-02-14","translations":["Полное дублирование"],"quality":"bd","translation":"Полное дублирование","update":"2016-04-21 06:36:38","iframe_src":"//8332.svetacdn.in/71tsRs29n5tZ/movie/1327"},{"id":1318,"title":"Рождественская ночь в Барселоне","kp_id":"842209","imdb_id":"tt3917316","world_art_id":null,"type":"movie","add":"2016-04-20 14:42:43","orig_title":"Barcelona, nit d'hivern","year":"2015-11-05","translations":["Полное дублирование (iTunes)"],"quality":"webdl","translation":"Полное дублирование (iTunes)","update":"2016-04-21 08:11:08","iframe_src":"//8332.svetacdn.in/71tsRs29n5tZ/movie/1318"},{"id":1314,"title":"Химик","kp_id":"841784","imdb_id":"tt3616894","world_art_id":null,"type":"movie","add":"2016-04-20 14:36:46","orig_title":"The Chemist","year":"2016-02-25","translations":["Профессиональный (многоголосый)"],"quality":"webdl","translation":"Профессиональный (многоголосый)","update":"2016-04-21 07:51:49","iframe_src":"//8332.svetacdn.in/71tsRs29n5tZ/movie/1314"},{"id":1313,"title":"Безумные преподы: Миссия в Лондон","kp_id":"867346","imdb_id":"tt3713944","world_art_id":null,"type":"movie","add":"2016-04-20 14:30:54","orig_title":"Les profs 2","year":"2015-07-01","translations":["Любительский (многоголосый закадровый) (Parovoz Production)"],"quality":"bd","translation":"Любительский (многоголосый закадровый) (Parovoz Production)","update":"2016-04-21 07:47:12","iframe_src":"//8332.svetacdn.in/71tsRs29n5tZ/movie/1313"},{"id":1081,"title":"Путешествие 2: Таинственный остров","kp_id":"453367","imdb_id":"tt1397514","world_art_id":null,"type":"movie","add":"2016-04-14 08:00:21","orig_title":"Journey 2: The Mysterious Island","year":"2012-01-19","translations":["Полное дублирование"],"quality":"bd","translation":"Полное дублирование","update":"2016-04-21 10:28:39","iframe_src":"//8332.svetacdn.in/71tsRs29n5tZ/movie/1081"},{"id":1020,"title":"Тринадцать","kp_id":"255394","imdb_id":"tt0798817","world_art_id":null,"type":"movie","add":"2016-04-12 15:43:02","orig_title":"13","year":"2010-03-13","translations":["Полное дублирование"],"quality":"bd","translation":"Полное дублирование","update":"2016-04-21 10:02:47","iframe_src":"//8332.svetacdn.in/71tsRs29n5tZ/movie/1020"},{"id":1016,"title":"Американец","kp_id":"485083","imdb_id":"tt1440728","world_art_id":null,"type":"movie","add":"2016-04-12 15:35:56","orig_title":"The American","year":"2010-09-01","translations":["Полное дублирование"],"quality":"bd","translation":"Полное дублирование","update":"2016-04-21 10:32:21","iframe_src":"//8332.svetacdn.in/71tsRs29n5tZ/movie/1016"},{"id":776,"title":"Мушкетеры","kp_id":"474752","imdb_id":"tt1509767","world_art_id":null,"type":"movie","add":"2016-04-07 19:56:46","orig_title":"The Three Musketeers","year":"2011-09-01","translations":["Полное дублирование"],"quality":"bd","translation":"Полное дублирование","update":"2016-04-21 10:44:18","iframe_src":"//8332.svetacdn.in/71tsRs29n5tZ/movie/776"}],"current_page":2521,"first_page_url":"https://videocdn.tv/api/short?limit=100&api_token=EnbO9h8pv1VyjbCJhg0WM9nG259n7mtz&cache32521=32521&page=1","from":252001,"last_page":640,"last_page_url":"https://videocdn.tv/api/short?limit=100&api_token=EnbO9h8pv1VyjbCJhg0WM9nG259n7mtz&cache32521=32521&page=640","next_page_url":null,"path":"https://videocdn.tv/api/short","per_page":100,"prev_page_url":"https://videocdn.tv/api/short?limit=100&api_token=EnbO9h8pv1VyjbCJhg0WM9nG259n7mtz&cache32521=32521&page=2520","to":252020,"total":63993}