{"result":true,"data":[{"id":51526,"title":"Камушки на воде","kp_id":"1280665","imdb_id":"tt3722884","world_art_id":null,"type":"movie","add":"2021-07-02 19:35:51","orig_title":"Skipping Stones","year":"2020-10-04","translations":["Любительский (многоголосый закадровый) (Синема УС)"],"quality":"webdl","translation":"Любительский (многоголосый закадровый) (Синема УС)","update":"2021-07-03 07:57:09","iframe_src":"//24213.svetacdn.in/si4jsFRrtgrT/movie/51526"},{"id":51525,"title":"Карлики с обложки","kp_id":"1084214","imdb_id":"tt7136436","world_art_id":null,"type":"movie","add":"2021-07-02 19:33:52","orig_title":"Patuljci sa naslovnih strana","year":"2018-01-17","translations":["Любительский (многоголосый закадровый) (Синема УС)"],"quality":"webdl","translation":"Любительский (многоголосый закадровый) (Синема УС)","update":"2021-07-03 07:58:03","iframe_src":"//24213.svetacdn.in/si4jsFRrtgrT/movie/51525"},{"id":51524,"title":"Люк и Джо","kp_id":"1022901","imdb_id":null,"world_art_id":null,"type":"movie","add":"2021-07-02 19:30:31","orig_title":"Luke & Jo","year":"2018-04-12","translations":["Любительский (многоголосый закадровый) (Синема УС)"],"quality":"webdl","translation":"Любительский (многоголосый закадровый) (Синема УС)","update":"2021-07-03 07:58:51","iframe_src":"//24213.svetacdn.in/si4jsFRrtgrT/movie/51524"},{"id":51520,"title":"Рассказать, возбудить, раскрутить","kp_id":"199930","imdb_id":"tt0084634","world_art_id":null,"type":"movie","add":"2021-07-02 06:17:40","orig_title":"Sballato, gasato, completamente fuso","year":"1982-04-01","translations":["Любительский (одноголосый закадровый) (Andi999)"],"quality":"webdl","translation":"Любительский (одноголосый закадровый) (Andi999)","update":"2021-07-02 19:04:06","iframe_src":"//24213.svetacdn.in/si4jsFRrtgrT/movie/51520"},{"id":51519,"title":"Бесконечный человек","kp_id":"721906","imdb_id":"tt2553424","world_art_id":null,"type":"movie","add":"2021-07-02 06:07:07","orig_title":"The Infinite Man","year":"2014-03-07","translations":["Профессиональный (двухголосый закадровый) (ViruseProject)","[EN] Original (English)"],"quality":"webdl","translation":"Профессиональный (двухголосый закадровый) (ViruseProject)","update":"2021-07-02 19:02:05","iframe_src":"//24213.svetacdn.in/si4jsFRrtgrT/movie/51519"},{"id":51497,"title":"Уруми","kp_id":"572183","imdb_id":"tt1745863","world_art_id":null,"type":"movie","add":"2021-06-30 21:14:55","orig_title":"Urumi","year":"2011-03-31","translations":["Любительский (многоголосый закадровый) (ICG)"],"quality":"webdl","translation":"Любительский (многоголосый закадровый) (ICG)","update":"2021-07-01 16:55:58","iframe_src":"//24213.svetacdn.in/si4jsFRrtgrT/movie/51497"},{"id":51391,"title":"Любовь на Гавайях","kp_id":"4473124","imdb_id":"tt14695276","world_art_id":null,"type":"movie","add":"2021-06-23 20:17:24","orig_title":"You Had Me at Aloha","year":"2021-06-05","translations":["Любительский (многоголосый закадровый) (Синема УС)","[EN] Original (English)","Любительский (многоголосый закадровый) (Синема УС)"],"quality":"webdl","translation":"Любительский (многоголосый закадровый) (Синема УС)","update":"2021-07-02 18:58:01","iframe_src":"//24213.svetacdn.in/si4jsFRrtgrT/movie/51391"},{"id":38585,"title":"Алигарх","kp_id":"939349","imdb_id":"tt5121000","world_art_id":null,"type":"movie","add":"2020-03-26 23:07:16","orig_title":"Aligarh","year":"2015-10-30","translations":["Любительский (многоголосый закадровый) (ICG)"],"quality":"webdl","translation":"Любительский (многоголосый закадровый) (ICG)","update":"2021-07-01 16:56:40","iframe_src":"//24213.svetacdn.in/si4jsFRrtgrT/movie/38585"},{"id":37813,"title":"Манджхи: Человек горы","kp_id":"820239","imdb_id":"tt3449292","world_art_id":null,"type":"movie","add":"2020-03-11 22:17:00","orig_title":"Manjhi: The Mountain Man","year":"2015-08-21","translations":["Любительский (многоголосый закадровый) (ICG)"],"quality":"webdl","translation":"Любительский (многоголосый закадровый) (ICG)","update":"2021-07-01 16:56:15","iframe_src":"//24213.svetacdn.in/si4jsFRrtgrT/movie/37813"},{"id":37261,"title":"Парный удар","kp_id":"5434","imdb_id":"tt0105402","world_art_id":null,"type":"movie","add":"2020-03-03 08:00:22","orig_title":"Sidekicks","year":"1992-12-17","translations":["Авторский (одноголосый закадровый) (Гаврилов Андрей)","[EN] Original (English)","Профессиональный (двухголосый закадровый) (ТВ6)","Авторский (одноголосый закадровый) (Дольский Андрей)","Авторский (одноголосый закадровый) (Гаврилов Андрей)","[EN] Original (English)","Профессиональный (двухголосый закадровый) (ТВ6)"],"quality":"dvdrip","translation":"Авторский (одноголосый закадровый) (Гаврилов Андрей)","update":"2021-07-02 18:03:33","iframe_src":"//24213.svetacdn.in/si4jsFRrtgrT/movie/37261"},{"id":22351,"title":"Кулак ярости","kp_id":"24747","imdb_id":"tt0068767","world_art_id":null,"type":"movie","add":"2019-02-17 12:48:44","orig_title":"Jing wu men","year":"1972-03-22","translations":["Профессиональный (многоголосый закадровый)","Авторский (одноголосый закадровый) (Горчаков Василий)","Авторский (одноголосый закадровый) (Королёв Владимир)","Авторский (одноголосый закадровый) (Живов Юрий)","Профессиональный (многоголосый закадровый)","Профессиональный (многоголосый закадровый) (Superbit)"],"quality":"bd","translation":"Профессиональный (многоголосый закадровый)","update":"2021-07-02 18:53:36","iframe_src":"//24213.svetacdn.in/si4jsFRrtgrT/movie/22351"},{"id":13270,"title":"Темная сторона страсти","kp_id":"8050","imdb_id":"tt0199626","world_art_id":null,"type":"movie","add":"2017-08-30 12:38:29","orig_title":"In the Cut","year":"2003-09-09","translations":["Профессиональный (двухголосый закадровый)","[EN] Original (English)","Профессиональный (двухголосый закадровый)","Профессиональный (многоголосый закадровый)"],"quality":"bd","translation":"Профессиональный (двухголосый закадровый)","update":"2021-07-02 16:06:14","iframe_src":"//24213.svetacdn.in/si4jsFRrtgrT/movie/13270"},{"id":11604,"title":"Отважная","kp_id":"824416","imdb_id":"tt3495000","world_art_id":null,"type":"movie","add":"2017-05-18 16:45:40","orig_title":"Mardaani","year":"2014-08-21","translations":["Любительский (многоголосый закадровый) (ICG)","Любительский (многоголосый закадровый)","Любительский (многоголосый закадровый) (ICG)"],"quality":"bd","translation":"Любительский (многоголосый закадровый) (ICG)","update":"2021-07-02 20:37:46","iframe_src":"//24213.svetacdn.in/si4jsFRrtgrT/movie/11604"},{"id":9225,"title":"Бэйби","kp_id":"846290","imdb_id":"tt3848892","world_art_id":null,"type":"movie","add":"2017-01-26 12:38:31","orig_title":"Baby","year":"2015-01-23","translations":["Любительский (многоголосый закадровый)","Профессиональный (многоголосый закадровый) (SDI Media | Iyuno-SDI Group Russia)","Любительский (многоголосый закадровый) (ICG)"],"quality":"bd","translation":"Любительский (многоголосый закадровый)","update":"2021-07-02 20:45:24","iframe_src":"//24213.svetacdn.in/si4jsFRrtgrT/movie/9225"},{"id":782,"title":"Лучшая неделя моей жизни","kp_id":"1001703","imdb_id":null,"world_art_id":null,"type":"serial","add":"2017-01-02 07:09:30","orig_title":"Лучшая неделя моей жизни","year":"2016-10-10","translations":["Оригинальная дорожка"],"seasons_count":1,"episodes_count":16,"episodes":16,"update":"2017-01-02 15:00:03","iframe_src":"//24213.svetacdn.in/si4jsFRrtgrT/tv-series/782"},{"id":778,"title":"Злой город","kp_id":"890386","imdb_id":"tt4428124","world_art_id":null,"type":"serial","add":"2017-01-02 06:52:09","orig_title":"Wicked City","year":"2015-10-27","translations":["Полное дублирование"],"seasons_count":1,"episodes_count":8,"episodes":8,"update":"2017-01-02 12:18:58","iframe_src":"//24213.svetacdn.in/si4jsFRrtgrT/tv-series/778"},{"id":776,"title":"Выйти замуж любой ценой","kp_id":"1007520","imdb_id":null,"world_art_id":null,"type":"serial","add":"2017-01-02 06:44:11","orig_title":"Выйти замуж любой ценой","year":"2016-11-06","translations":["Оригинальная дорожка"],"seasons_count":1,"episodes_count":4,"episodes":4,"update":"2017-01-02 11:43:59","iframe_src":"//24213.svetacdn.in/si4jsFRrtgrT/tv-series/776"},{"id":775,"title":"От первого до последнего слова","kp_id":"1006641","imdb_id":null,"world_art_id":null,"type":"serial","add":"2017-01-02 06:41:32","orig_title":"От первого до последнего слова","year":"2016-10-22","translations":["Оригинальная дорожка"],"seasons_count":1,"episodes_count":4,"episodes":4,"update":"2017-01-02 11:37:09","iframe_src":"//24213.svetacdn.in/si4jsFRrtgrT/tv-series/775"},{"id":774,"title":"Ключ к его сердцу","kp_id":"994664","imdb_id":null,"world_art_id":null,"type":"serial","add":"2017-01-02 06:39:11","orig_title":"Ключ к его сердцу","year":"2016-10-29","translations":["Оригинальная дорожка"],"seasons_count":1,"episodes_count":4,"episodes":4,"update":"2017-01-02 11:30:19","iframe_src":"//24213.svetacdn.in/si4jsFRrtgrT/tv-series/774"},{"id":773,"title":"Каменное сердце","kp_id":"993554","imdb_id":null,"world_art_id":null,"type":"serial","add":"2017-01-02 06:36:06","orig_title":"Каменное сердце","year":"2016-11-05","translations":["Оригинальная дорожка"],"seasons_count":1,"episodes_count":4,"episodes":4,"update":"2017-01-02 08:05:22","iframe_src":"//24213.svetacdn.in/si4jsFRrtgrT/tv-series/773"},{"id":772,"title":"Из Сибири с любовью","kp_id":"1007036","imdb_id":null,"world_art_id":null,"type":"serial","add":"2017-01-02 06:32:50","orig_title":"Из Сибири с любовью","year":"2016-10-30","translations":["Оригинальная дорожка"],"seasons_count":1,"episodes_count":4,"episodes":4,"update":"2017-01-02 07:59:50","iframe_src":"//24213.svetacdn.in/si4jsFRrtgrT/tv-series/772"},{"id":768,"title":"Плохой хороший коп","kp_id":"1007541","imdb_id":null,"world_art_id":null,"type":"serial","add":"2016-12-31 06:21:15","orig_title":"Плохой хороший коп","year":"2016-10-31","translations":["Оригинальная дорожка"],"seasons_count":1,"episodes_count":16,"episodes":16,"update":"2016-12-31 13:38:33","iframe_src":"//24213.svetacdn.in/si4jsFRrtgrT/tv-series/768"},{"id":767,"title":"Что-то около 1%","kp_id":"1002724","imdb_id":"tt6075098","world_art_id":null,"type":"serial","add":"2016-12-31 06:12:51","orig_title":"1%ui eoddungut","year":"2016-10-05","translations":["Любительский (двухголосый закадровый) (SoftBox)"],"seasons_count":1,"episodes_count":16,"episodes":16,"update":"2017-01-01 18:12:51","iframe_src":"//24213.svetacdn.in/si4jsFRrtgrT/tv-series/767"},{"id":766,"title":"СуперКопы","kp_id":"970138","imdb_id":null,"world_art_id":null,"type":"serial","add":"2016-12-31 06:02:16","orig_title":"СуперКопы","year":"2016-02-15","translations":["Оригинальная дорожка"],"seasons_count":1,"episodes_count":20,"episodes":20,"update":"2017-01-02 06:29:29","iframe_src":"//24213.svetacdn.in/si4jsFRrtgrT/tv-series/766"},{"id":763,"title":"Если любишь – прости","kp_id":"891353","imdb_id":null,"world_art_id":null,"type":"serial","add":"2016-12-30 11:33:57","orig_title":"Если любишь – прости","year":"2015-02-22","translations":["Оригинальная дорожка"],"seasons_count":1,"episodes_count":2,"episodes":2,"update":"2017-01-02 15:40:24","iframe_src":"//24213.svetacdn.in/si4jsFRrtgrT/tv-series/763"},{"id":762,"title":"Женщина с лилиями","kp_id":"1007686","imdb_id":null,"world_art_id":null,"type":"serial","add":"2016-12-30 11:30:17","orig_title":"Женщина с лилиями","year":"2016-12-23","translations":["Оригинальная дорожка"],"seasons_count":1,"episodes_count":1,"episodes":1,"update":"2017-01-02 15:36:47","iframe_src":"//24213.svetacdn.in/si4jsFRrtgrT/tv-series/762"},{"id":759,"title":"Класс","kp_id":"972319","imdb_id":"tt5079788","world_art_id":null,"type":"serial","add":"2016-12-29 19:00:05","orig_title":"Class","year":"2016-10-22","translations":["Профессиональный (многоголосый закадровый) (Jaskier)"],"seasons_count":1,"episodes_count":8,"episodes":8,"update":"2016-12-30 07:34:50","iframe_src":"//24213.svetacdn.in/si4jsFRrtgrT/tv-series/759"},{"id":758,"title":"Письма из прошлого","kp_id":"984275","imdb_id":"tt5921270","world_art_id":null,"type":"serial","add":"2016-12-29 18:44:09","orig_title":"Pisma iz proshlogo","year":"2016-12-03","translations":["Оригинальная дорожка"],"seasons_count":1,"episodes_count":4,"episodes":4,"update":"2016-12-30 07:27:59","iframe_src":"//24213.svetacdn.in/si4jsFRrtgrT/tv-series/758"},{"id":757,"title":"Исцеление","kp_id":"932491","imdb_id":null,"world_art_id":null,"type":"serial","add":"2016-12-29 05:56:16","orig_title":"Исцеление","year":"2015-09-15","translations":["Оригинальная дорожка"],"seasons_count":1,"episodes_count":2,"episodes":2,"update":"2016-12-29 09:00:43","iframe_src":"//24213.svetacdn.in/si4jsFRrtgrT/tv-series/757"},{"id":754,"title":"Разум и чувства","kp_id":"400017","imdb_id":"tt0847150","world_art_id":null,"type":"serial","add":"2016-12-28 07:03:56","orig_title":"Sense & Sensibility","year":"2008-01-01","translations":["Профессиональный (многоголосый закадровый)"],"seasons_count":1,"episodes_count":3,"episodes":3,"update":"2016-12-28 11:27:52","iframe_src":"//24213.svetacdn.in/si4jsFRrtgrT/tv-series/754"},{"id":753,"title":"Бессонница","kp_id":"803144","imdb_id":null,"world_art_id":null,"type":"serial","add":"2016-12-28 06:54:01","orig_title":"Бессонница","year":"2014-03-01","translations":["Оригинальная дорожка"],"seasons_count":1,"episodes_count":16,"episodes":16,"update":"2016-12-28 09:19:51","iframe_src":"//24213.svetacdn.in/si4jsFRrtgrT/tv-series/753"},{"id":751,"title":"Фирма","kp_id":"630381","imdb_id":"tt1949012","world_art_id":null,"type":"serial","add":"2016-12-27 11:38:05","orig_title":"The Firm","year":"2012-01-08","translations":["Профессиональный (многоголосый закадровый) (SET)"],"seasons_count":1,"episodes_count":21,"episodes":21,"update":"2016-12-28 07:01:57","iframe_src":"//24213.svetacdn.in/si4jsFRrtgrT/tv-series/751"},{"id":746,"title":"Пацики","kp_id":"1008249","imdb_id":null,"world_art_id":null,"type":"serial","add":"2016-12-27 09:35:08","orig_title":"Пацики","year":"2016-11-28","translations":["Оригинальная дорожка"],"seasons_count":1,"episodes_count":10,"episodes":10,"update":"2016-12-28 05:34:38","iframe_src":"//24213.svetacdn.in/si4jsFRrtgrT/tv-series/746"},{"id":718,"title":"Дрифтеры","kp_id":"958562","imdb_id":"tt5225764","world_art_id":null,"type":"serial","add":"2016-12-22 08:17:08","orig_title":"Drifters","year":"2016-10-07","translations":["Любительский (двухголосый закадровый) (DeadLine Studio)"],"seasons_count":1,"episodes_count":12,"episodes":12,"update":"2016-12-28 14:11:58","iframe_src":"//24213.svetacdn.in/si4jsFRrtgrT/tv-series/718"},{"id":7903,"title":"Идиократия","kp_id":"77720","imdb_id":"tt0387808","world_art_id":null,"type":"movie","add":"2016-12-07 15:04:12","orig_title":"Idiocracy","year":"2006-09-01","translations":["Профессиональный (двухголосый закадровый)","Профессиональный (многоголосый закадровый) (HDrezka Studio)","[EN] Original (English)","Любительский (одноголосый закадровый) (seqw0 | Ахметов Сергей)","Профессиональный (двухголосый закадровый) (Superbit)"],"quality":"webdl","translation":"Профессиональный (двухголосый закадровый)","update":"2021-07-02 15:46:17","iframe_src":"//24213.svetacdn.in/si4jsFRrtgrT/movie/7903"},{"id":5373,"title":"Первый удар","kp_id":"24692","imdb_id":"tt0116704","world_art_id":null,"type":"movie","add":"2016-09-20 08:58:37","orig_title":"Ging chaat goo si 4: Gaan dan yam mo","year":"1996-02-10","translations":["Профессиональный (многоголосый закадровый)","Авторский (одноголосый закадровый) (Горчаков Василий)","[EN] Original (English)","Профессиональный (двухголосый закадровый)","Профессиональный (двухголосый закадровый) (РенТВ)","Профессиональный (многоголосый закадровый)"],"quality":"bd","translation":"Профессиональный (многоголосый закадровый)","update":"2021-07-02 15:39:06","iframe_src":"//24213.svetacdn.in/si4jsFRrtgrT/movie/5373"},{"id":3607,"title":"Аэроплан","kp_id":"3231","imdb_id":"tt0080339","world_art_id":null,"type":"movie","add":"2016-07-03 07:52:34","orig_title":"Airplane!","year":"1980-07-02","translations":["Профессиональный (многоголосый закадровый)","Авторский (одноголосый закадровый) (Гаврилов Андрей)","Авторский (одноголосый закадровый) (Горчаков Василий)","Авторский (одноголосый закадровый) (Михалёв Алексей)","Авторский (одноголосый закадровый) (Володарский Леонид)","[EN] Original (English)","Профессиональный (двухголосый закадровый) (НТВ)","Профессиональный (двухголосый закадровый) (Кубик в Кубе | Kubik³)","Профессиональный (многоголосый закадровый) (Акцент)","Профессиональный (многоголосый закадровый) (Первый канал | ОРТ)","Профессиональный (многоголосый закадровый) (Премьер Видео Фильм)","Профессиональный (многоголосый закадровый) (РТР | Россия)","Профессиональный (многоголосый закадровый)"],"quality":"bd","translation":"Профессиональный (многоголосый закадровый)","update":"2021-07-02 18:30:50","iframe_src":"//24213.svetacdn.in/si4jsFRrtgrT/movie/3607"},{"id":3288,"title":"Академия Рашмор","kp_id":"3586","imdb_id":"tt0128445","world_art_id":null,"type":"movie","add":"2016-06-21 10:32:46","orig_title":"Rushmore","year":"1998-09-17","translations":["Профессиональный (двухголосый закадровый)","[EN] Original (English)","Любительский (одноголосый закадровый) (Севастьянов Никита | seva1988)","Авторский (одноголосый закадровый) (Живов Юрий)","Профессиональный (двухголосый закадровый) (Видеосервис)"],"quality":"bd","translation":"Профессиональный (двухголосый закадровый)","update":"2021-07-02 14:47:46","iframe_src":"//24213.svetacdn.in/si4jsFRrtgrT/movie/3288"},{"id":3162,"title":"Признания опасного человека","kp_id":"641","imdb_id":"tt0270288","world_art_id":null,"type":"movie","add":"2016-06-15 10:20:57","orig_title":"Confessions Of A Dangerous Mind","year":"2002-12-31","translations":["Полное дублирование","Авторский (одноголосый закадровый) (Рудой Евгений)","Полное дублирование (Мосфильм)","[EN] Original (English)","Профессиональный (двухголосый закадровый)"],"quality":"bd","translation":"Полное дублирование","update":"2021-07-02 17:16:55","iframe_src":"//24213.svetacdn.in/si4jsFRrtgrT/movie/3162"},{"id":3128,"title":"Долорес Клэйборн","kp_id":"4465","imdb_id":"tt0109642","world_art_id":null,"type":"movie","add":"2016-06-13 18:36:50","orig_title":"Dolores Claiborne","year":"1995-03-24","translations":["Профессиональный (двухголосый закадровый)","Авторский (одноголосый закадровый) (Матвеев Алексей | Doctor Joker)","Авторский (одноголосый закадровый) (Гаврилов Андрей)","Авторский (одноголосый закадровый) (Визгунов Сергей)","Авторский (одноголосый закадровый) (Живов Юрий)","[EN] Original (English)","Любительский (одноголосый закадровый)","Профессиональный (двухголосый закадровый) (West Video)","Профессиональный (многоголосый закадровый) (Первый канал | ОРТ)"],"quality":"bd","translation":"Профессиональный (двухголосый закадровый)","update":"2021-07-02 16:26:23","iframe_src":"//24213.svetacdn.in/si4jsFRrtgrT/movie/3128"}],"current_page":607,"first_page_url":"https://videocdn.tv/api/short?limit=100&api_token=X6EwAUfE5M9xbo7y0Bp0aPf3uXxG2KLL&cache3607=3607&page=1","from":60601,"last_page":725,"last_page_url":"https://videocdn.tv/api/short?limit=100&api_token=X6EwAUfE5M9xbo7y0Bp0aPf3uXxG2KLL&cache3607=3607&page=725","next_page_url":"https://videocdn.tv/api/short?limit=100&api_token=X6EwAUfE5M9xbo7y0Bp0aPf3uXxG2KLL&cache3607=3607&page=608","path":"https://videocdn.tv/api/short","per_page":100,"prev_page_url":"https://videocdn.tv/api/short?limit=100&api_token=X6EwAUfE5M9xbo7y0Bp0aPf3uXxG2KLL&cache3607=3607&page=606","to":60640,"total":72431}