{"result":true,"data":[{"id":35823,"title":"Земля аллигаторов","kp_id":"731534","imdb_id":"tt2634414","world_art_id":null,"type":"movie","add":"2020-02-05 05:43:42","orig_title":"Ragin Cajun Redneck Gators","year":"2013-09-05","translations":["Профессиональный (многоголосый закадровый)"],"quality":"dvdrip","translation":"Профессиональный (многоголосый закадровый)","update":"2020-02-05 07:20:28","iframe_src":"//83.svetacdn.in/PfJ50H0ZBPg3/movie/35823"},{"id":35822,"title":"Библиотечные войны","kp_id":"696122","imdb_id":"tt2315236","world_art_id":null,"type":"movie","add":"2020-02-05 05:23:30","orig_title":"Toshokan sensô","year":"2013-04-27","translations":["Любительский (двухголосый закадровый) (DeadSno & den904)"],"quality":"bd","translation":"Любительский (двухголосый закадровый) (DeadSno & den904)","update":"2020-02-05 06:45:55","iframe_src":"//83.svetacdn.in/PfJ50H0ZBPg3/movie/35822"},{"id":35813,"title":"Похищение Энджи","kp_id":"1072308","imdb_id":"tt6740608","world_art_id":null,"type":"movie","add":"2020-02-04 14:01:42","orig_title":"Abduction of Angie","year":"2017-09-24","translations":["Любительский (многоголосый закадровый) (Синема УС)"],"quality":"webdl","translation":"Любительский (многоголосый закадровый) (Синема УС)","update":"2020-02-04 20:52:27","iframe_src":"//83.svetacdn.in/PfJ50H0ZBPg3/movie/35813"},{"id":35812,"title":"Дивная романтика зимы","kp_id":"1263997","imdb_id":"tt10297640","world_art_id":null,"type":"movie","add":"2020-02-04 13:57:48","orig_title":"Amazing Winter Romance","year":"2020-01-20","translations":["Любительский (многоголосый закадровый) (AlphaProject)"],"quality":"hdtv","translation":"Любительский (многоголосый закадровый) (AlphaProject)","update":"2020-02-04 20:53:53","iframe_src":"//83.svetacdn.in/PfJ50H0ZBPg3/movie/35812"},{"id":35811,"title":"Кровавый рай","kp_id":"1042095","imdb_id":"tt6509330","world_art_id":null,"type":"movie","add":"2020-02-04 13:56:15","orig_title":"Blood Paradise","year":"2018-11-12","translations":["Любительский (двухголосый закадровый) (Колобок)"],"quality":"webdl","translation":"Любительский (двухголосый закадровый) (Колобок)","update":"2020-02-04 20:54:33","iframe_src":"//83.svetacdn.in/PfJ50H0ZBPg3/movie/35811"},{"id":35810,"title":"L 38","kp_id":"1192604","imdb_id":"tt9011228","world_art_id":null,"type":"movie","add":"2020-02-04 13:54:26","orig_title":"L 38","year":"2018-01-01","translations":["Любительский (двухголосый закадровый) (Колобок)"],"quality":"webdl","translation":"Любительский (двухголосый закадровый) (Колобок)","update":"2020-02-04 20:55:11","iframe_src":"//83.svetacdn.in/PfJ50H0ZBPg3/movie/35810"},{"id":35807,"title":"Легионы","kp_id":"1226802","imdb_id":"tt9546624","world_art_id":null,"type":"movie","add":"2020-02-04 09:41:23","orig_title":"Legiony","year":"2019-09-16","translations":["Любительский (многоголосый закадровый) (@MUZOBOZ@)"],"quality":"bd","translation":"Любительский (многоголосый закадровый) (@MUZOBOZ@)","update":"2020-02-04 17:14:07","iframe_src":"//83.svetacdn.in/PfJ50H0ZBPg3/movie/35807"},{"id":35806,"title":"Во время войны","kp_id":"1131523","imdb_id":"tt7818580","world_art_id":null,"type":"movie","add":"2020-02-04 09:37:53","orig_title":"Mientras dure la guerra","year":"2019-09-27","translations":["Любительский (многоголосый закадровый) (AlphaProject)"],"quality":"bd","translation":"Любительский (многоголосый закадровый) (AlphaProject)","update":"2020-02-04 17:14:50","iframe_src":"//83.svetacdn.in/PfJ50H0ZBPg3/movie/35806"},{"id":35805,"title":"Острый перец в Шимле","kp_id":"900892","imdb_id":"tt4486148","world_art_id":null,"type":"movie","add":"2020-02-04 09:29:26","orig_title":"Shimla Mirchi","year":"2020-01-03","translations":["Любительский (многоголосый закадровый) (Синема УС)"],"quality":"webdl","translation":"Любительский (многоголосый закадровый) (Синема УС)","update":"2020-02-04 17:13:19","iframe_src":"//83.svetacdn.in/PfJ50H0ZBPg3/movie/35805"},{"id":35804,"title":"Море чудовищ: Глава четвертая","kp_id":"1267706","imdb_id":"tt10270944","world_art_id":null,"type":"movie","add":"2020-02-04 09:22:41","orig_title":"Monster Pool: Chapter Four","year":"2018-10-25","translations":["Любительский (многоголосый закадровый) (Синема УС)"],"quality":"webdl","translation":"Любительский (многоголосый закадровый) (Синема УС)","update":"2020-02-04 17:12:54","iframe_src":"//83.svetacdn.in/PfJ50H0ZBPg3/movie/35804"},{"id":35768,"title":"Болото Дракона","kp_id":"116293","imdb_id":"tt0064258","world_art_id":null,"type":"movie","add":"2020-02-03 19:15:57","orig_title":"Du long tan","year":"1969-03-25","translations":["Любительский (одноголосый закадровый)"],"quality":"dvdrip","translation":"Любительский (одноголосый закадровый)","update":"2020-02-05 08:04:30","iframe_src":"//83.svetacdn.in/PfJ50H0ZBPg3/movie/35768"},{"id":35767,"title":"Азиатский связной","kp_id":"37030","imdb_id":"tt0114641","world_art_id":null,"type":"movie","add":"2020-02-03 19:13:45","orig_title":"Te jing ji xian feng","year":"1995-10-06","translations":["Любительский (одноголосый закадровый) (Хоррор Мэйкер)"],"quality":"dvdrip","translation":"Любительский (одноголосый закадровый) (Хоррор Мэйкер)","update":"2020-02-05 08:02:43","iframe_src":"//83.svetacdn.in/PfJ50H0ZBPg3/movie/35767"},{"id":35766,"title":"18 бронзовых девушек Шаолиня","kp_id":"246247","imdb_id":"tt0165602","world_art_id":null,"type":"movie","add":"2020-02-03 19:09:33","orig_title":"Shao Lin shi ba pa tung nu","year":"1983-01-01","translations":["Любительский (одноголосый закадровый) (Прокс)"],"quality":"sat","translation":"Любительский (одноголосый закадровый) (Прокс)","update":"2020-02-05 08:00:01","iframe_src":"//83.svetacdn.in/PfJ50H0ZBPg3/movie/35766"},{"id":35764,"title":"Космический мусор 3D","kp_id":"661369","imdb_id":"tt2180529","world_art_id":null,"type":"movie","add":"2020-02-03 16:30:49","orig_title":"Space Junk 3D","year":"2012-01-13","translations":["Профессиональный (двухголосый закадровый)"],"quality":"bd","translation":"Профессиональный (двухголосый закадровый)","update":"2020-02-04 17:35:14","iframe_src":"//83.svetacdn.in/PfJ50H0ZBPg3/movie/35764"},{"id":31875,"title":"Звездный бойскаут","kp_id":"4004","imdb_id":"tt0120478","world_art_id":null,"type":"movie","add":"2019-10-14 13:45:03","orig_title":"Star Kid","year":"1997-11-13","translations":["Профессиональный (многоголосый закадровый)","Original (English)"],"quality":"webdl","translation":"Профессиональный (многоголосый закадровый)","update":"2020-02-04 14:29:09","iframe_src":"//83.svetacdn.in/PfJ50H0ZBPg3/movie/31875"},{"id":31870,"title":"Семь подружек","kp_id":"5149","imdb_id":"tt0177215","world_art_id":null,"type":"movie","add":"2019-10-14 13:37:51","orig_title":"Seven Girlfriends","year":"1999-11-06","translations":["Профессиональный (двухголосый закадровый)","Original (English)"],"quality":"webdl","translation":"Профессиональный (двухголосый закадровый)","update":"2020-02-04 14:27:01","iframe_src":"//83.svetacdn.in/PfJ50H0ZBPg3/movie/31870"},{"id":31810,"title":"Леди Ева","kp_id":"8251","imdb_id":"tt0033804","world_art_id":null,"type":"movie","add":"2019-10-13 07:18:07","orig_title":"The Lady Eve","year":"1941-02-25","translations":["Профессиональный (двухголосый закадровый) (Инис)","Original (English)"],"quality":"webdl","translation":"Профессиональный (двухголосый закадровый) (Инис)","update":"2020-02-04 14:30:39","iframe_src":"//83.svetacdn.in/PfJ50H0ZBPg3/movie/31810"},{"id":30808,"title":"Гордость янки","kp_id":"3358","imdb_id":"tt0035211","world_art_id":null,"type":"movie","add":"2019-09-12 05:44:31","orig_title":"The Pride of the Yankees","year":"1942-07-15","translations":["Профессиональный (многоголосый закадровый) (Светла)","Original (English)"],"quality":"webdl","translation":"Профессиональный (многоголосый закадровый) (Светла)","update":"2020-02-04 14:31:11","iframe_src":"//83.svetacdn.in/PfJ50H0ZBPg3/movie/30808"},{"id":30805,"title":"Странный груз","kp_id":"12993","imdb_id":"tt0033105","world_art_id":null,"type":"movie","add":"2019-09-12 05:41:19","orig_title":"Strange Cargo","year":"1940-03-01","translations":["Профессиональный (многоголосый закадровый) (СТС)","Original (English)"],"quality":"webdl","translation":"Профессиональный (многоголосый закадровый) (СТС)","update":"2020-02-04 14:29:51","iframe_src":"//83.svetacdn.in/PfJ50H0ZBPg3/movie/30805"},{"id":9092,"title":"Асура: Безумный город","kp_id":"994668","imdb_id":"tt5918028","world_art_id":null,"type":"movie","add":"2017-01-22 12:05:46","orig_title":"Asura","year":"2016-09-12","translations":["Любительский (двухголосый закадровый) (Колобок)"],"quality":"bd","translation":"Любительский (двухголосый закадровый) (Колобок)","update":"2020-02-05 08:01:12","iframe_src":"//83.svetacdn.in/PfJ50H0ZBPg3/movie/9092"}],"current_page":859,"first_page_url":"https://videocdn.tv/api/short?limit=100&api_token=RgFQdUIR2dRmwv8iYa5SnFNgnw3vpjKj&cache3859=3859&page=1","from":85801,"last_page":617,"last_page_url":"https://videocdn.tv/api/short?limit=100&api_token=RgFQdUIR2dRmwv8iYa5SnFNgnw3vpjKj&cache3859=3859&page=617","next_page_url":null,"path":"https://videocdn.tv/api/short","per_page":100,"prev_page_url":"https://videocdn.tv/api/short?limit=100&api_token=RgFQdUIR2dRmwv8iYa5SnFNgnw3vpjKj&cache3859=3859&page=858","to":85820,"total":61603}