{"result":true,"data":[{"id":20307,"title":"Возвращение в Кристмас Крик","kp_id":"1200480","imdb_id":"tt9103028","world_art_id":null,"type":"movie","add":"2018-11-25 22:52:20","orig_title":"Return to Christmas Creek","year":"2018-11-17","translations":["Любительский (многоголосый закадровый) (AlphaProject)"],"quality":"hdtv","translation":"Любительский (многоголосый закадровый) (AlphaProject)","update":"2018-11-27 05:48:28","iframe_src":"//8332.svetacdn.in/si4jsFRrtgrT/movie/20307"},{"id":20305,"title":"Рождество звездного щенка","kp_id":"1187090","imdb_id":"tt8861786","world_art_id":null,"type":"movie","add":"2018-11-25 22:49:33","orig_title":"Puppy Star Christmas","year":"2018-11-20","translations":["Любительский (многоголосый закадровый) (Синема УС)"],"quality":"webdl","translation":"Любительский (многоголосый закадровый) (Синема УС)","update":"2018-11-27 05:46:07","iframe_src":"//8332.svetacdn.in/si4jsFRrtgrT/movie/20305"},{"id":20292,"title":"Королева-психопатка","kp_id":"1145014","imdb_id":"tt8320402","world_art_id":null,"type":"movie","add":"2018-11-25 20:59:30","orig_title":"Mean Queen","year":"2018-11-04","translations":["Любительский (многоголосый закадровый) (Синема УС)"],"quality":"hdtv","translation":"Любительский (многоголосый закадровый) (Синема УС)","update":"2018-11-27 05:44:31","iframe_src":"//8332.svetacdn.in/si4jsFRrtgrT/movie/20292"},{"id":20271,"title":"Музыка в темноте","kp_id":"74158","imdb_id":"tt0040622","world_art_id":null,"type":"movie","add":"2018-11-25 14:19:35","orig_title":"Musik i mörker","year":"1948-01-17","translations":["Профессиональный (одноголосый закадровый)"],"quality":"webdl","translation":"Профессиональный (одноголосый закадровый)","update":"2018-11-26 12:34:52","iframe_src":"//8332.svetacdn.in/si4jsFRrtgrT/movie/20271"},{"id":20270,"title":"Рябиновый вальс","kp_id":"480554","imdb_id":"tt1557860","world_art_id":null,"type":"movie","add":"2018-11-25 14:17:25","orig_title":"Ryabinovyy vals","year":"2010-10-22","translations":["Оригинальная дорожка"],"quality":"webdl","translation":"Оригинальная дорожка","update":"2018-11-26 12:34:00","iframe_src":"//8332.svetacdn.in/si4jsFRrtgrT/movie/20270"},{"id":20269,"title":"Отличный гамбургер","kp_id":"23255","imdb_id":"tt0119215","world_art_id":null,"type":"movie","add":"2018-11-25 14:16:13","orig_title":"Good Burger","year":"1997-07-25","translations":["Любительский (одноголосый закадровый)"],"quality":"webdl","translation":"Любительский (одноголосый закадровый)","update":"2018-11-26 12:32:51","iframe_src":"//8332.svetacdn.in/si4jsFRrtgrT/movie/20269"},{"id":20265,"title":"Зорро","kp_id":"101095","imdb_id":"tt0072448","world_art_id":null,"type":"movie","add":"2018-11-25 14:11:34","orig_title":"Zorro","year":"1975-03-06","translations":["Полное дублирование"],"quality":"bd","translation":"Полное дублирование","update":"2018-11-26 12:29:12","iframe_src":"//8332.svetacdn.in/si4jsFRrtgrT/movie/20265"},{"id":18804,"title":"Девять трапез до анархии","kp_id":"1126037","imdb_id":"tt7840854","world_art_id":null,"type":"movie","add":"2018-09-05 23:26:58","orig_title":"Nine Meals from Chaos","year":"2018-01-01","translations":["Любительский (многоголосый закадровый) (Синема УС)","Любительский (двухголосый закадровый) (LakeFilms)"],"quality":"webdl","translation":"Любительский (многоголосый закадровый) (Синема УС)","update":"2018-11-27 05:39:36","iframe_src":"//8332.svetacdn.in/si4jsFRrtgrT/movie/18804"},{"id":14321,"title":"Эксперимент «Офис» 2","kp_id":"972464","imdb_id":"tt4348012","world_art_id":null,"type":"movie","add":"2017-11-11 18:36:56","orig_title":"Mayhem","year":"2017-03-13","translations":["Любительский (двухголосый закадровый) (RecentFilms)","Профессиональный (многоголосый закадровый) (Paradox & Omskbird records)","Профессиональный (многоголосый закадровый) (GreenРай Studio)","Любительский (многоголосый закадровый) (Синема УС)","Профессиональный (многоголосый закадровый) (iTunes)","Профессиональный (многоголосый закадровый) (Jaskier)"],"quality":"webdl","translation":"Любительский (двухголосый закадровый) (RecentFilms)","update":"2018-11-27 05:34:40","iframe_src":"//8332.svetacdn.in/si4jsFRrtgrT/movie/14321"},{"id":2131,"title":"Однажды преступив закон","kp_id":"2873","imdb_id":"tt0101625","world_art_id":null,"type":"movie","add":"2016-05-12 18:04:51","orig_title":"Once Upon a Crime...","year":"1992-03-06","translations":["Профессиональный (многоголосый закадровый)","Original (English)"],"quality":"bd","translation":"Профессиональный (многоголосый закадровый)","update":"2018-11-26 16:27:54","iframe_src":"//8332.svetacdn.in/si4jsFRrtgrT/movie/2131"},{"id":2096,"title":"Реальная любовь","kp_id":"6144","imdb_id":"tt0314331","world_art_id":null,"type":"movie","add":"2016-05-12 15:25:30","orig_title":"Love Actually","year":"2003-09-07","translations":["Полное дублирование","Original (English)"],"quality":"bd","translation":"Полное дублирование","update":"2018-11-26 16:22:35","iframe_src":"//8332.svetacdn.in/si4jsFRrtgrT/movie/2096"},{"id":2091,"title":"Громче, чем бомбы","kp_id":"667651","imdb_id":"tt2217859","world_art_id":null,"type":"movie","add":"2016-05-12 09:29:55","orig_title":"Louder Than Bombs","year":"2015-05-18","translations":["Полное дублирование","Original (English)"],"quality":"bd","translation":"Полное дублирование","update":"2018-11-26 16:21:37","iframe_src":"//8332.svetacdn.in/si4jsFRrtgrT/movie/2091"},{"id":2068,"title":"Французский поцелуй","kp_id":"9249","imdb_id":"tt0113117","world_art_id":null,"type":"movie","add":"2016-05-11 14:13:38","orig_title":"French Kiss","year":"1995-05-05","translations":["Профессиональный (многоголосый закадровый)","Original (English)"],"quality":"bd","translation":"Профессиональный (многоголосый закадровый)","update":"2018-11-26 16:16:23","iframe_src":"//8332.svetacdn.in/si4jsFRrtgrT/movie/2068"},{"id":2067,"title":"Дни и ночи","kp_id":"677704","imdb_id":"tt2359381","world_art_id":null,"type":"movie","add":"2016-05-11 14:12:12","orig_title":"Days and Nights","year":"2014-01-04","translations":["Профессиональный (многоголосый закадровый)","Original (English)"],"quality":"bd","translation":"Профессиональный (многоголосый закадровый)","update":"2018-11-26 12:23:56","iframe_src":"//8332.svetacdn.in/si4jsFRrtgrT/movie/2067"},{"id":1105,"title":"Анатомия любви","kp_id":"695449","imdb_id":"tt2318092","world_art_id":null,"type":"movie","add":"2016-04-14 08:48:45","orig_title":"Endless Love","year":"2014-02-12","translations":["Полное дублирование","Original (English)"],"quality":"bd","translation":"Полное дублирование","update":"2018-11-26 16:13:32","iframe_src":"//8332.svetacdn.in/si4jsFRrtgrT/movie/1105"},{"id":1104,"title":"Небезопасно для работы","kp_id":"666763","imdb_id":"tt2226495","world_art_id":null,"type":"movie","add":"2016-04-14 08:46:58","orig_title":"Not Safe for Work","year":"2012-05-09","translations":["Полное дублирование","Original (English)"],"quality":"bd","translation":"Полное дублирование","update":"2018-11-26 16:25:48","iframe_src":"//8332.svetacdn.in/si4jsFRrtgrT/movie/1104"},{"id":1098,"title":"Охотники на гангстеров","kp_id":"468564","imdb_id":"tt1321870","world_art_id":null,"type":"movie","add":"2016-04-14 08:34:30","orig_title":"Gangster Squad","year":"2013-01-07","translations":["Полное дублирование","Original (English)"],"quality":"bd","translation":"Полное дублирование","update":"2018-11-26 16:17:35","iframe_src":"//8332.svetacdn.in/si4jsFRrtgrT/movie/1098"},{"id":1090,"title":"Криминальная фишка от Генри","kp_id":"463782","imdb_id":"tt1220888","world_art_id":null,"type":"movie","add":"2016-04-14 08:18:17","orig_title":"Henry's Crime","year":"2010-09-14","translations":["Полное дублирование","Original (English)"],"quality":"bd","translation":"Полное дублирование","update":"2018-11-26 16:20:51","iframe_src":"//8332.svetacdn.in/si4jsFRrtgrT/movie/1090"},{"id":1085,"title":"«Весёлые» каникулы","kp_id":"492171","imdb_id":"tt1567609","world_art_id":null,"type":"movie","add":"2016-04-14 08:09:04","orig_title":"Get the Gringo","year":"2012-03-15","translations":["Полное дублирование","Original (English)"],"quality":"bd","translation":"Полное дублирование","update":"2018-11-26 16:19:55","iframe_src":"//8332.svetacdn.in/si4jsFRrtgrT/movie/1085"},{"id":1079,"title":"На грани","kp_id":"493222","imdb_id":"tt1568338","world_art_id":null,"type":"movie","add":"2016-04-14 07:56:34","orig_title":"Man on a Ledge","year":"2012-01-26","translations":["Полное дублирование","Original (English)"],"quality":"bd","translation":"Полное дублирование","update":"2018-11-26 16:23:37","iframe_src":"//8332.svetacdn.in/si4jsFRrtgrT/movie/1079"}],"current_page":1733,"first_page_url":"https://videocdn.tv/api/short?limit=100&api_token=X6EwAUfE5M9xbo7y0Bp0aPf3uXxG2KLL&cache31733=31733&page=1","from":173201,"last_page":634,"last_page_url":"https://videocdn.tv/api/short?limit=100&api_token=X6EwAUfE5M9xbo7y0Bp0aPf3uXxG2KLL&cache31733=31733&page=634","next_page_url":null,"path":"https://videocdn.tv/api/short","per_page":100,"prev_page_url":"https://videocdn.tv/api/short?limit=100&api_token=X6EwAUfE5M9xbo7y0Bp0aPf3uXxG2KLL&cache31733=31733&page=1732","to":173220,"total":63367}