{"result":true,"data":[{"id":2874,"title":"Дальше живите сами","kp_id":"463356","imdb_id":"tt1371150","world_art_id":null,"type":"movie","add":"2016-06-03 20:38:28","orig_title":"This Is Where I Leave You","year":"2014-09-07","translations":["Профессиональный (многоголосый закадровый)"],"quality":"bd","translation":"Профессиональный (многоголосый закадровый)","update":"2016-06-04 11:12:50","iframe_src":"//5322.svetacdn.in/71tsRs29n5tZ/movie/2874"},{"id":2873,"title":"Домашнее видео","kp_id":"655618","imdb_id":"tt1956620","world_art_id":null,"type":"movie","add":"2016-06-03 20:37:31","orig_title":"Sex Tape","year":"2014-07-16","translations":["Полное дублирование"],"quality":"bd","translation":"Полное дублирование","update":"2016-06-04 11:09:18","iframe_src":"//5322.svetacdn.in/71tsRs29n5tZ/movie/2873"},{"id":2872,"title":"Последний бриллиант","kp_id":"793981","imdb_id":"tt3136752","world_art_id":null,"type":"movie","add":"2016-06-03 20:36:32","orig_title":"Le dernier diamant","year":"2014-04-03","translations":["Профессиональный (многоголосый закадровый) (iTunes)"],"quality":"bd","translation":"Профессиональный (многоголосый закадровый) (iTunes)","update":"2016-06-04 11:06:06","iframe_src":"//5322.svetacdn.in/71tsRs29n5tZ/movie/2872"},{"id":2871,"title":"Отмороженные","kp_id":"696309","imdb_id":"tt2325002","world_art_id":null,"type":"movie","add":"2016-06-03 20:35:20","orig_title":"Freezer","year":"2014-01-17","translations":["Любительский (одноголосый закадровый)"],"quality":"bd","translation":"Любительский (одноголосый закадровый)","update":"2016-06-04 11:03:42","iframe_src":"//5322.svetacdn.in/71tsRs29n5tZ/movie/2871"},{"id":2870,"title":"Академия вампиров","kp_id":"535429","imdb_id":"tt1686821","world_art_id":null,"type":"movie","add":"2016-06-03 20:34:23","orig_title":"Vampire Academy","year":"2014-02-07","translations":["Полное дублирование (iTunes)"],"quality":"bd","translation":"Полное дублирование (iTunes)","update":"2016-06-04 11:02:12","iframe_src":"//5322.svetacdn.in/71tsRs29n5tZ/movie/2870"},{"id":2869,"title":"Ночь отдыха для мам","kp_id":"774815","imdb_id":"tt3014666","world_art_id":null,"type":"movie","add":"2016-06-03 20:33:39","orig_title":"Moms' Night Out","year":"2014-04-11","translations":["Профессиональный (многоголосый закадровый) (iTunes)"],"quality":"webdl","translation":"Профессиональный (многоголосый закадровый) (iTunes)","update":"2016-06-04 10:59:05","iframe_src":"//5322.svetacdn.in/71tsRs29n5tZ/movie/2869"},{"id":2868,"title":"Наемницы","kp_id":"840652","imdb_id":"tt3598222","world_art_id":null,"type":"movie","add":"2016-06-03 20:32:54","orig_title":"Mercenaries","year":"2014-08-05","translations":["Любительский (двухголосый закадровый)"],"quality":"bd","translation":"Любительский (двухголосый закадровый)","update":"2016-06-04 10:56:49","iframe_src":"//5322.svetacdn.in/71tsRs29n5tZ/movie/2868"},{"id":2867,"title":"Вычислитель","kp_id":"777026","imdb_id":"tt3105350","world_art_id":null,"type":"movie","add":"2016-06-03 20:32:12","orig_title":"Vychislitel","year":"2015-10-06","translations":["Оригинальная дорожка"],"quality":"bd","translation":"Оригинальная дорожка","update":"2016-06-04 10:55:33","iframe_src":"//5322.svetacdn.in/71tsRs29n5tZ/movie/2867"},{"id":2864,"title":"Уиджи: Доска Дьявола","kp_id":"462398","imdb_id":"tt1204977","world_art_id":null,"type":"movie","add":"2016-06-03 20:21:56","orig_title":"Ouija","year":"2014-10-23","translations":["Полное дублирование"],"quality":"bd","translation":"Полное дублирование","update":"2016-06-04 10:49:49","iframe_src":"//5322.svetacdn.in/71tsRs29n5tZ/movie/2864"},{"id":2863,"title":"Любит не любит","kp_id":"705379","imdb_id":"tt4268306","world_art_id":null,"type":"movie","add":"2016-06-03 20:21:02","orig_title":"Lyubit ne lyubit","year":"2014-12-04","translations":["Оригинальная дорожка"],"quality":"webdl","translation":"Оригинальная дорожка","update":"2016-06-04 10:46:19","iframe_src":"//5322.svetacdn.in/71tsRs29n5tZ/movie/2863"},{"id":2862,"title":"Легок на помине","kp_id":"761690","imdb_id":"tt3621288","world_art_id":null,"type":"movie","add":"2016-06-03 20:20:10","orig_title":"Lyogok na pomine","year":"2014-02-20","translations":["Оригинальная дорожка"],"quality":"bd","translation":"Оригинальная дорожка","update":"2016-06-04 10:44:13","iframe_src":"//5322.svetacdn.in/71tsRs29n5tZ/movie/2862"},{"id":2861,"title":"Это, блин, рождественское чудо","kp_id":"464356","imdb_id":"tt0910885","world_art_id":null,"type":"movie","add":"2016-06-03 20:19:13","orig_title":"A Merry Friggin' Christmas","year":"2014-10-17","translations":["Полное дублирование"],"quality":"bd","translation":"Полное дублирование","update":"2016-06-04 10:41:05","iframe_src":"//5322.svetacdn.in/71tsRs29n5tZ/movie/2861"},{"id":2860,"title":"В изгнании","kp_id":"489562","imdb_id":"tt1552224","world_art_id":null,"type":"movie","add":"2016-06-03 20:18:15","orig_title":"Outcast","year":"2014-09-26","translations":["Профессиональный (многоголосый)"],"quality":"bd","translation":"Профессиональный (многоголосый)","update":"2016-06-04 10:35:36","iframe_src":"//5322.svetacdn.in/71tsRs29n5tZ/movie/2860"},{"id":2859,"title":"Соседи. На тропе войны","kp_id":"602677","imdb_id":"tt2004420","world_art_id":null,"type":"movie","add":"2016-06-03 20:17:19","orig_title":"Neighbors","year":"2014-03-08","translations":["Полное дублирование"],"quality":"bd","translation":"Полное дублирование","update":"2016-06-04 10:33:46","iframe_src":"//5322.svetacdn.in/71tsRs29n5tZ/movie/2859"},{"id":2857,"title":"Вот так подружка","kp_id":"820659","imdb_id":"tt3560704","world_art_id":null,"type":"movie","add":"2016-06-03 20:15:08","orig_title":"Una Donna per Amica","year":"2014-02-27","translations":["Профессиональный (многоголосый)"],"quality":"bd","translation":"Профессиональный (многоголосый)","update":"2016-06-04 10:22:40","iframe_src":"//5322.svetacdn.in/71tsRs29n5tZ/movie/2857"},{"id":2856,"title":"Никаких добрых дел","kp_id":"604219","imdb_id":"tt2011159","world_art_id":null,"type":"movie","add":"2016-06-03 20:14:11","orig_title":"No Good Deed","year":"2014-09-11","translations":["Профессиональный (многоголосый закадровый) (iTunes)"],"quality":"bd","translation":"Профессиональный (многоголосый закадровый) (iTunes)","update":"2016-06-04 10:20:10","iframe_src":"//5322.svetacdn.in/71tsRs29n5tZ/movie/2856"},{"id":2854,"title":"Голые перцы","kp_id":"744284","imdb_id":"tt2758904","world_art_id":null,"type":"movie","add":"2016-06-02 10:04:58","orig_title":"Search Party","year":"2014-12-10","translations":["Полное дублирование (iTunes)"],"quality":"bd","translation":"Полное дублирование (iTunes)","update":"2016-06-03 09:54:28","iframe_src":"//5322.svetacdn.in/71tsRs29n5tZ/movie/2854"},{"id":2802,"title":"Пророк вне закона: Уоррен Джеффс","kp_id":"843051","imdb_id":"tt3756722","world_art_id":null,"type":"movie","add":"2016-05-31 15:19:44","orig_title":"Outlaw Prophet: Warren Jeffs","year":"2014-06-28","translations":["Профессиональный (многоголосый закадровый) (iTunes)"],"quality":"webdl","translation":"Профессиональный (многоголосый закадровый) (iTunes)","update":"2016-06-03 09:16:29","iframe_src":"//5322.svetacdn.in/71tsRs29n5tZ/movie/2802"},{"id":2801,"title":"Болото змееголовов","kp_id":"829395","imdb_id":"tt3518702","world_art_id":null,"type":"movie","add":"2016-05-31 15:18:13","orig_title":"SnakeHead Swamp","year":"2014-05-05","translations":["Профессиональный (многоголосый закадровый) (iTunes)"],"quality":"webdl","translation":"Профессиональный (многоголосый закадровый) (iTunes)","update":"2016-06-03 09:19:21","iframe_src":"//5322.svetacdn.in/71tsRs29n5tZ/movie/2801"},{"id":2798,"title":"Демоны Деборы Логан","kp_id":"814400","imdb_id":"tt3387648","world_art_id":null,"type":"movie","add":"2016-05-31 15:08:21","orig_title":"The Taking","year":"2014-10-21","translations":["Полное дублирование"],"quality":"bd","translation":"Полное дублирование","update":"2016-06-03 09:21:49","iframe_src":"//5322.svetacdn.in/71tsRs29n5tZ/movie/2798"}],"current_page":2431,"first_page_url":"https://videocdn.tv/api/short?limit=100&api_token=EnbO9h8pv1VyjbCJhg0WM9nG259n7mtz&cache32431=32431&page=1","from":243001,"last_page":629,"last_page_url":"https://videocdn.tv/api/short?limit=100&api_token=EnbO9h8pv1VyjbCJhg0WM9nG259n7mtz&cache32431=32431&page=629","next_page_url":null,"path":"https://videocdn.tv/api/short","per_page":100,"prev_page_url":"https://videocdn.tv/api/short?limit=100&api_token=EnbO9h8pv1VyjbCJhg0WM9nG259n7mtz&cache32431=32431&page=2430","to":243020,"total":62895}