{"result":true,"data":[{"id":15358,"title":"Оберегая свет маяка","kp_id":"913614","imdb_id":"tt4733228","world_art_id":null,"type":"movie","add":"2018-03-04 07:53:16","orig_title":"To Keep the Light","year":"2016-11-15","translations":["Любительский (многоголосый закадровый) (Синема УС)"],"quality":"bd","translation":"Любительский (многоголосый закадровый) (Синема УС)","update":"2018-03-05 06:02:02","iframe_src":"//2413.svetacdn.in/IAF0wWTdNYZm/movie/15358"},{"id":15357,"title":"Три хэйста и хомяк","kp_id":"1006052","imdb_id":"tt4942270","world_art_id":null,"type":"movie","add":"2018-03-04 07:51:41","orig_title":"Three Heists and a Hamster","year":"2017-02-02","translations":["Профессиональный (многоголосый закадровый) (GreenРай Studio)"],"quality":"bd","translation":"Профессиональный (многоголосый закадровый) (GreenРай Studio)","update":"2018-03-05 06:04:51","iframe_src":"//2413.svetacdn.in/IAF0wWTdNYZm/movie/15357"},{"id":15355,"title":"Возможные друзья","kp_id":"959651","imdb_id":"tt5318534","world_art_id":null,"type":"movie","add":"2018-03-04 07:43:45","orig_title":"People You May Know","year":"2017-04-07","translations":["Любительский (многоголосый закадровый) (Синема УС)"],"quality":"webdl","translation":"Любительский (многоголосый закадровый) (Синема УС)","update":"2018-03-05 05:51:47","iframe_src":"//2413.svetacdn.in/IAF0wWTdNYZm/movie/15355"},{"id":15352,"title":"Выйти замуж до Рождества","kp_id":"937748","imdb_id":"tt5073652","world_art_id":null,"type":"movie","add":"2018-03-04 07:32:30","orig_title":"Married by Christmas","year":"2016-11-06","translations":["Любительский (многоголосый закадровый) (Синема УС)"],"quality":"webdl","translation":"Любительский (многоголосый закадровый) (Синема УС)","update":"2018-03-05 05:47:08","iframe_src":"//2413.svetacdn.in/IAF0wWTdNYZm/movie/15352"},{"id":15349,"title":"Святой ужас","kp_id":"1009502","imdb_id":"tt5924114","world_art_id":null,"type":"movie","add":"2018-03-04 07:28:07","orig_title":"Holy Terror","year":"2017-04-01","translations":["Профессиональный (многоголосый закадровый)"],"quality":"webdl","translation":"Профессиональный (многоголосый закадровый)","update":"2018-03-05 05:42:52","iframe_src":"//2413.svetacdn.in/IAF0wWTdNYZm/movie/15349"},{"id":15347,"title":"Полумагия","kp_id":"915531","imdb_id":"tt4738776","world_art_id":null,"type":"movie","add":"2018-03-04 07:25:20","orig_title":"Half Magic","year":"2018-02-23","translations":["Любительский (многоголосый закадровый) (Синема УС)"],"quality":"webdl","translation":"Любительский (многоголосый закадровый) (Синема УС)","update":"2018-03-05 05:39:38","iframe_src":"//2413.svetacdn.in/IAF0wWTdNYZm/movie/15347"},{"id":15346,"title":"Мертвая хватка","kp_id":null,"imdb_id":"tt7046112","world_art_id":null,"type":"movie","add":"2018-03-04 07:19:55","orig_title":"Deathgrip","year":"2017-04-03","translations":["Любительский (многоголосый закадровый) (Синема УС)"],"quality":"webdl","translation":"Любительский (многоголосый закадровый) (Синема УС)","update":"2018-03-05 05:36:33","iframe_src":"//2413.svetacdn.in/IAF0wWTdNYZm/movie/15346"},{"id":15344,"title":"Прах","kp_id":"900390","imdb_id":"tt4577050","world_art_id":null,"type":"movie","add":"2018-03-04 07:08:29","orig_title":"Ashes","year":"2017-04-28","translations":["Любительский (многоголосый закадровый) (Синема УС)"],"quality":"webdl","translation":"Любительский (многоголосый закадровый) (Синема УС)","update":"2018-03-05 05:27:03","iframe_src":"//2413.svetacdn.in/IAF0wWTdNYZm/movie/15344"},{"id":15342,"title":"На грани смерти","kp_id":"899557","imdb_id":"tt4572984","world_art_id":null,"type":"movie","add":"2018-03-02 11:05:51","orig_title":"Pushing Dead","year":"2016-09-29","translations":["Любительский (многоголосый закадровый) (Синема УС)"],"quality":"dvdrip","translation":"Любительский (многоголосый закадровый) (Синема УС)","update":"2018-03-02 13:19:40","iframe_src":"//2413.svetacdn.in/IAF0wWTdNYZm/movie/15342"},{"id":15341,"title":"Беспорядочные дни – Лихие 90-ые","kp_id":"972306","imdb_id":"tt5604510","world_art_id":null,"type":"movie","add":"2018-03-02 11:02:48","orig_title":"Päevad, mis ajasid segadusse","year":"2016-04-08","translations":["Любительский (многоголосый закадровый) (Синема УС)"],"quality":"dvdrip","translation":"Любительский (многоголосый закадровый) (Синема УС)","update":"2018-03-02 13:18:43","iframe_src":"//2413.svetacdn.in/IAF0wWTdNYZm/movie/15341"},{"id":15340,"title":"Девчачьи проблемы","kp_id":"851306","imdb_id":"tt4218538","world_art_id":null,"type":"movie","add":"2018-03-02 10:45:16","orig_title":"Girl Flu.","year":"2016-06-06","translations":["Любительский (многоголосый закадровый) (Синема УС)"],"quality":"dvdrip","translation":"Любительский (многоголосый закадровый) (Синема УС)","update":"2018-03-02 11:42:07","iframe_src":"//2413.svetacdn.in/IAF0wWTdNYZm/movie/15340"},{"id":15338,"title":"Жёлтый песочек","kp_id":"1049308","imdb_id":null,"world_art_id":null,"type":"movie","add":"2018-03-01 09:46:00","orig_title":"Жёлтый песочек","year":"2017-09-16","translations":["Оригинальная дорожка"],"quality":"webdl","translation":"Оригинальная дорожка","update":"2018-03-01 15:39:09","iframe_src":"//2413.svetacdn.in/IAF0wWTdNYZm/movie/15338"},{"id":15305,"title":"7 минут","kp_id":"1005913","imdb_id":"tt6085482","world_art_id":null,"type":"movie","add":"2018-02-26 21:47:42","orig_title":"7 minuti","year":"2016-10-21","translations":["Профессиональный (многоголосый закадровый)","Профессиональный (многоголосый закадровый) (СВ-Дубль)"],"quality":"bd","translation":"Профессиональный (многоголосый закадровый)","update":"2018-03-03 06:54:57","iframe_src":"//2413.svetacdn.in/IAF0wWTdNYZm/movie/15305"},{"id":15072,"title":"Плюшевый монстр","kp_id":"1033911","imdb_id":"tt6424768","world_art_id":null,"type":"movie","add":"2018-02-04 19:16:17","orig_title":"Lino: Uma Aventura de Sete Vidas","year":"2017-09-07","translations":["Полное дублирование (iTunes)"],"quality":"webdl","translation":"Полное дублирование (iTunes)","update":"2018-03-02 13:19:09","iframe_src":"//2413.svetacdn.in/IAF0wWTdNYZm/movie/15072"},{"id":14871,"title":"Батальон","kp_id":"948115","imdb_id":"tt5207004","world_art_id":null,"type":"movie","add":"2018-01-14 20:46:13","orig_title":"Battalion","year":"2018-01-09","translations":["Любительский (многоголосый закадровый) (Синема УС)","Профессиональный (многоголосый закадровый) (GreenРай Studio)"],"quality":"webdl","translation":"Любительский (многоголосый закадровый) (Синема УС)","update":"2018-03-05 05:28:37","iframe_src":"//2413.svetacdn.in/IAF0wWTdNYZm/movie/14871"},{"id":14819,"title":"Такой же другой, как и я","kp_id":"463029","imdb_id":"tt1230168","world_art_id":null,"type":"movie","add":"2018-01-08 06:59:58","orig_title":"Same Kind of Different as Me","year":"2017-10-20","translations":["Любительский (многоголосый закадровый) (Синема УС)","Профессиональный (многоголосый закадровый) (GreenРай Studio)","Полное дублирование","Полное дублирование (iTunes)"],"quality":"webdl","translation":"Любительский (многоголосый закадровый) (Синема УС)","update":"2018-03-02 16:57:06","iframe_src":"//2413.svetacdn.in/IAF0wWTdNYZm/movie/14819"},{"id":12707,"title":"12 мелодий любви","kp_id":"988155","imdb_id":"tt5825150","world_art_id":null,"type":"movie","add":"2017-07-30 21:35:23","orig_title":"Chacun sa vie","year":"2017-03-15","translations":["Любительский (многоголосый закадровый) (@MUZOBOZ@)","Профессиональный (многоголосый закадровый) (iTunes)"],"quality":"bd","translation":"Любительский (многоголосый закадровый) (@MUZOBOZ@)","update":"2018-03-03 06:44:51","iframe_src":"//2413.svetacdn.in/IAF0wWTdNYZm/movie/12707"},{"id":12540,"title":"Смерть Людовика XIV","kp_id":"944810","imdb_id":"tt5129510","world_art_id":null,"type":"movie","add":"2017-07-17 21:31:53","orig_title":"La mort de Louis XIV","year":"2016-05-19","translations":["Профессиональный (многоголосый закадровый) (GreenРай Studio)","Профессиональный (многоголосый закадровый)","Профессиональный (многоголосый закадровый) (СВ-Дубль)"],"quality":"hdrip","translation":"Профессиональный (многоголосый закадровый) (GreenРай Studio)","update":"2018-03-03 06:51:28","iframe_src":"//2413.svetacdn.in/IAF0wWTdNYZm/movie/12540"},{"id":12042,"title":"Орбита 9","kp_id":"822446","imdb_id":"tt3469798","world_art_id":null,"type":"movie","add":"2017-06-19 22:39:51","orig_title":"Órbita 9","year":"2017-04-07","translations":["Полное дублирование","Полное дублирование (iTunes)"],"quality":"webdl","translation":"Полное дублирование","update":"2018-03-02 07:55:38","iframe_src":"//2413.svetacdn.in/IAF0wWTdNYZm/movie/12042"},{"id":11885,"title":"Свадьба лучшего друга","kp_id":"953055","imdb_id":"tt5275314","world_art_id":null,"type":"movie","add":"2017-06-09 14:23:49","orig_title":"Wo zui hao peng you de hun li","year":"2016-08-05","translations":["Любительский (двухголосый закадровый)","Любительский (многоголосый закадровый) (Синема УС)"],"quality":"webdl","translation":"Любительский (двухголосый закадровый)","update":"2018-03-05 05:50:18","iframe_src":"//2413.svetacdn.in/IAF0wWTdNYZm/movie/11885"}],"current_page":2344,"first_page_url":"https://videocdn.tv/api/short?limit=100&api_token=6Onb1W1alEUrBcKJZD3GoKBbWyAl2uG2&cache32344=32344&page=1","from":234301,"last_page":715,"last_page_url":"https://videocdn.tv/api/short?limit=100&api_token=6Onb1W1alEUrBcKJZD3GoKBbWyAl2uG2&cache32344=32344&page=715","next_page_url":null,"path":"https://videocdn.tv/api/short","per_page":100,"prev_page_url":"https://videocdn.tv/api/short?limit=100&api_token=6Onb1W1alEUrBcKJZD3GoKBbWyAl2uG2&cache32344=32344&page=2343","to":234320,"total":71457}