{"result":true,"data":[{"id":47649,"title":"Семья ван Памель","kp_id":"109967","imdb_id":"tt0093087","world_art_id":null,"type":"movie","add":"2021-02-04 12:41:38","orig_title":"Het gezin van Paemel","year":"1986-11-01","translations":["Любительский (одноголосый закадровый)"],"quality":"dvdrip","translation":"Любительский (одноголосый закадровый)","update":"2021-02-04 16:51:10","iframe_src":"//7043.svetacdn.in/71tsRs29n5tZ/movie/47649"},{"id":47648,"title":"Последний круиз","kp_id":"20374","imdb_id":"tt0168785","world_art_id":null,"type":"movie","add":"2021-02-04 12:33:35","orig_title":"Final Voyage","year":"1999-10-07","translations":["Профессиональный (двухголосый закадровый)"],"quality":"dvdrip","translation":"Профессиональный (двухголосый закадровый)","update":"2021-02-04 16:58:54","iframe_src":"//7043.svetacdn.in/71tsRs29n5tZ/movie/47648"},{"id":47647,"title":"Цыганка и джентльмен","kp_id":"50120","imdb_id":"tt0051692","world_art_id":null,"type":"movie","add":"2021-02-04 12:23:35","orig_title":"The Gypsy and the Gentleman","year":"1958-01-15","translations":["Профессиональный (двухголосый закадровый) (Фортуна-Фильм)"],"quality":"dvdrip","translation":"Профессиональный (двухголосый закадровый) (Фортуна-Фильм)","update":"2021-02-04 16:57:14","iframe_src":"//7043.svetacdn.in/71tsRs29n5tZ/movie/47647"},{"id":47646,"title":"Сооф","kp_id":"723443","imdb_id":"tt2542368","world_art_id":null,"type":"movie","add":"2021-02-04 06:32:34","orig_title":"Soof","year":"2013-12-12","translations":["Любительский (одноголосый закадровый) (renege79)"],"quality":"bd","translation":"Любительский (одноголосый закадровый) (renege79)","update":"2021-02-04 13:02:58","iframe_src":"//7043.svetacdn.in/71tsRs29n5tZ/movie/47646"},{"id":45826,"title":"Дама с камелиями 2000","kp_id":"92097","imdb_id":"tt0064122","world_art_id":null,"type":"movie","add":"2020-12-03 18:52:48","orig_title":"Camille 2000","year":"1969-07-16","translations":["Авторский (одноголосый закадровый) (Алексеев Антон)","Original (English)"],"quality":"bd","translation":"Авторский (одноголосый закадровый) (Алексеев Антон)","update":"2021-02-04 11:14:52","iframe_src":"//7043.svetacdn.in/71tsRs29n5tZ/movie/45826"},{"id":45810,"title":"Женщины-каннибалы в смертельных джунглях авокадо","kp_id":"31854","imdb_id":"tt0094834","world_art_id":null,"type":"movie","add":"2020-12-03 14:18:58","orig_title":"Cannibal Women in the Avocado Jungle of Death","year":"1989-03-15","translations":["Авторский (одноголосый закадровый) (Дольский Андрей)","Original (English)"],"quality":"bd","translation":"Авторский (одноголосый закадровый) (Дольский Андрей)","update":"2021-02-04 11:13:12","iframe_src":"//7043.svetacdn.in/71tsRs29n5tZ/movie/45810"},{"id":45551,"title":"Кролик Багз или Дорожный Бегун","kp_id":"33821","imdb_id":"tt0078915","world_art_id":null,"type":"movie","add":"2020-11-24 08:45:41","orig_title":"The Bugs Bunny/Road-Runner Movie","year":"1979-09-14","translations":["Полное дублирование (Варус-Видео)","Original (English)"],"quality":"webdl","translation":"Полное дублирование (Варус-Видео)","update":"2021-02-04 14:22:58","iframe_src":"//7043.svetacdn.in/71tsRs29n5tZ/movie/45551"},{"id":44817,"title":"Пустой человек","kp_id":"992507","imdb_id":"tt5867314","world_art_id":null,"type":"movie","add":"2020-10-26 22:15:15","orig_title":"The Empty Man","year":"2020-10-22","translations":["Любительский (многоголосый закадровый) (@MUZOBOZ@)","Original (English)","Любительский (двухголосый закадровый) (Колобок)","Полное дублирование (iTunes)"],"quality":"webdl","translation":"Любительский (многоголосый закадровый) (@MUZOBOZ@)","update":"2021-02-04 17:02:46","iframe_src":"//7043.svetacdn.in/71tsRs29n5tZ/movie/44817"},{"id":43675,"title":"Чёрный дрозд","kp_id":"1174220","imdb_id":"tt8717446","world_art_id":null,"type":"movie","add":"2020-09-19 07:28:50","orig_title":"Blackbird","year":"2020-09-18","translations":["Любительский (многоголосый закадровый) (@MUZOBOZ@)","Полное дублирование","Полное дублирование (iTunes)","Original (English)"],"quality":"webdl","translation":"Любительский (многоголосый закадровый) (@MUZOBOZ@)","update":"2021-02-04 11:16:18","iframe_src":"//7043.svetacdn.in/71tsRs29n5tZ/movie/43675"},{"id":8197,"title":"BBC: Галапагосы","kp_id":"308947","imdb_id":"tt0996614","world_art_id":null,"type":"serial","add":"2020-07-19 05:27:23","orig_title":"Galápagos","year":"2006-09-26","translations":["Полное дублирование"],"seasons_count":1,"episodes_count":3,"episodes":3,"update":"2020-07-19 10:27:59","iframe_src":"//7043.svetacdn.in/71tsRs29n5tZ/tv-series/8197"},{"id":8196,"title":"BBC: Сердце Африки","kp_id":"574270","imdb_id":"tt1597624","world_art_id":null,"type":"serial","add":"2020-07-19 05:25:06","orig_title":"The Great Rift","year":"2010-01-24","translations":["Полное дублирование"],"seasons_count":1,"episodes_count":3,"episodes":3,"update":"2020-07-19 07:14:29","iframe_src":"//7043.svetacdn.in/71tsRs29n5tZ/tv-series/8196"},{"id":8195,"title":"Беглец","kp_id":"502897","imdb_id":null,"world_art_id":null,"type":"serial","add":"2020-07-19 05:20:22","orig_title":"Беглец","year":"2011-08-03","translations":["Оригинальная дорожка"],"seasons_count":1,"episodes_count":16,"episodes":16,"update":"2020-07-19 06:43:53","iframe_src":"//7043.svetacdn.in/71tsRs29n5tZ/tv-series/8195"},{"id":8191,"title":"Лоис и Кларк: Новые приключения Супермена","kp_id":"258130","imdb_id":"tt0106057","world_art_id":null,"type":"serial","add":"2020-07-18 15:54:50","orig_title":"Lois & Clark: The New Adventures of Superman","year":"2000-01-10","translations":["Профессиональный (многоголосый закадровый) (Syfy Universal)"],"seasons_count":4,"episodes_count":87,"episodes":22,"update":"2020-07-20 14:49:36","iframe_src":"//7043.svetacdn.in/71tsRs29n5tZ/tv-series/8191"},{"id":8188,"title":"Химерика","kp_id":"1117072","imdb_id":"tt7948996","world_art_id":null,"type":"serial","add":"2020-07-18 05:48:07","orig_title":"Chimerica","year":"2019-04-17","translations":["Профессиональный (многоголосый закадровый) (HDrezka Studio)"],"seasons_count":1,"episodes_count":4,"episodes":4,"update":"2020-07-18 09:07:51","iframe_src":"//7043.svetacdn.in/71tsRs29n5tZ/tv-series/8188"},{"id":8187,"title":"Обман","kp_id":"1202427","imdb_id":"tt9131136","world_art_id":null,"type":"serial","add":"2020-07-18 05:44:17","orig_title":"Cheat","year":"2019-03-11","translations":["Профессиональный (многоголосый закадровый) (HDrezka Studio)"],"seasons_count":1,"episodes_count":4,"episodes":4,"update":"2020-07-18 09:02:05","iframe_src":"//7043.svetacdn.in/71tsRs29n5tZ/tv-series/8187"},{"id":8181,"title":"Сказочная Русь","kp_id":"767127","imdb_id":null,"world_art_id":null,"type":"serial","add":"2020-07-17 16:33:33","orig_title":"Сказочная Русь","year":"2012-11-16","translations":["Оригинальная дорожка"],"seasons_count":8,"episodes_count":192,"episodes":15,"update":"2020-07-20 12:23:59","iframe_src":"//7043.svetacdn.in/71tsRs29n5tZ/tv-series/8181"},{"id":8180,"title":"Ракетная мощь","kp_id":"431229","imdb_id":"tt0244926","world_art_id":null,"type":"serial","add":"2020-07-17 15:48:56","orig_title":"Rocket Power","year":"1999-08-16","translations":["Полное дублирование"],"seasons_count":3,"episodes_count":58,"episodes":22,"update":"2020-07-20 11:03:11","iframe_src":"//7043.svetacdn.in/71tsRs29n5tZ/tv-series/8180"},{"id":8173,"title":"Кандидат","kp_id":"1256542","imdb_id":"tt10171930","world_art_id":null,"type":"serial","add":"2020-07-17 09:34:34","orig_title":"El Candidato","year":"2020-07-17","translations":["Любительский (многоголосый закадровый) (ColdFilm)","Любительский (многоголосый закадровый) (Octopus)"],"seasons_count":1,"episodes_count":10,"episodes":10,"update":"2020-07-20 09:12:53","iframe_src":"//7043.svetacdn.in/71tsRs29n5tZ/tv-series/8173"},{"id":8137,"title":"Джамайка","kp_id":"700006","imdb_id":"tt3499828","world_art_id":null,"type":"serial","add":"2020-07-10 11:25:55","orig_title":"Dzhamayka","year":"2014-03-11","translations":["Оригинальная дорожка"],"seasons_count":1,"episodes_count":90,"episodes":90,"update":"2020-07-18 09:18:39","iframe_src":"//7043.svetacdn.in/71tsRs29n5tZ/tv-series/8137"},{"id":8088,"title":"Дикая Бразилия","kp_id":null,"imdb_id":"tt6416314","world_art_id":null,"type":"serial","add":"2020-07-04 09:35:28","orig_title":"Brazil Untamed","year":"2016-08-19","translations":["Профессиональный (одноголосый закадровый)"],"seasons_count":1,"episodes_count":4,"episodes":4,"update":"2020-07-20 10:34:14","iframe_src":"//7043.svetacdn.in/71tsRs29n5tZ/tv-series/8088"},{"id":7850,"title":"Выжить вместе","kp_id":"568180","imdb_id":"tt1673441","world_art_id":null,"type":"serial","add":"2020-06-13 14:02:20","orig_title":"Dual Survival","year":"2010-06-11","translations":["Профессиональный (многоголосый закадровый)","Профессиональный (двухголосый закадровый)"],"seasons_count":7,"episodes_count":68,"episodes":7,"update":"2020-07-18 18:14:22","iframe_src":"//7043.svetacdn.in/71tsRs29n5tZ/tv-series/7850"},{"id":7572,"title":"Потому что это первая любовь","kp_id":"1199548","imdb_id":"tt8995604","world_art_id":null,"type":"serial","add":"2020-05-20 05:02:59","orig_title":"Cheotsarangeun cheoteumiraseo","year":"2019-04-18","translations":["Любительский (двухголосый закадровый) (Amazing Dubbing)","Профессиональный (многоголосый закадровый) (HDrezka Studio)"],"seasons_count":2,"episodes_count":16,"episodes":8,"update":"2020-07-18 09:07:14","iframe_src":"//7043.svetacdn.in/71tsRs29n5tZ/tv-series/7572"},{"id":7566,"title":"Аляска: Последний рубеж","kp_id":"907740","imdb_id":"tt1877010","world_art_id":null,"type":"serial","add":"2020-05-19 05:00:53","orig_title":"Alaska: The Last Frontier","year":"2011-12-29","translations":["Профессиональный (одноголосый закадровый)"],"seasons_count":3,"episodes_count":50,"episodes":11,"update":"2020-07-19 05:41:06","iframe_src":"//7043.svetacdn.in/71tsRs29n5tZ/tv-series/7566"},{"id":7462,"title":"Кайфтаун","kp_id":"1232982","imdb_id":"tt7718110","world_art_id":null,"type":"serial","add":"2020-05-10 19:32:00","orig_title":"Hightown","year":"2020-05-17","translations":["Любительский (многоголосый закадровый) (ColdFilm)","Профессиональный (двухголосый закадровый) (IdeaFilm)","Профессиональный (многоголосый закадровый) (NewStudio)","Профессиональный (многоголосый закадровый) (LostFilm)","Любительский (многоголосый закадровый) (KerobTV)","Профессиональный (многоголосый закадровый) (Novamedia)","Любительский (многоголосый закадровый) (Octopus)","Любительский (двухголосый закадровый) (KerobTV)"],"seasons_count":1,"episodes_count":8,"episodes":8,"update":"2020-07-18 13:28:20","iframe_src":"//7043.svetacdn.in/71tsRs29n5tZ/tv-series/7462"},{"id":38178,"title":"Мандерлей","kp_id":"22597","imdb_id":"tt0342735","world_art_id":null,"type":"movie","add":"2020-03-18 16:10:44","orig_title":"Manderlay","year":"2005-05-16","translations":["Полное дублирование","Original (English)"],"quality":"webdl","translation":"Полное дублирование","update":"2021-02-04 14:23:49","iframe_src":"//7043.svetacdn.in/71tsRs29n5tZ/movie/38178"},{"id":34488,"title":"Вирус","kp_id":"2847","imdb_id":"tt0080768","world_art_id":null,"type":"movie","add":"2019-12-26 14:51:35","orig_title":"Fukkatsu no hi","year":"1980-06-26","translations":["Любительский (одноголосый закадровый)"],"quality":"bd","translation":"Любительский (одноголосый закадровый)","update":"2021-02-04 14:21:03","iframe_src":"//7043.svetacdn.in/71tsRs29n5tZ/movie/34488"},{"id":4428,"title":"Покои","kp_id":"1144177","imdb_id":"tt7949204","world_art_id":null,"type":"serial","add":"2019-04-29 23:33:30","orig_title":"Chambers","year":"2019-04-26","translations":["Профессиональный (многоголосый закадровый) (LostFilm)","Профессиональный (многоголосый закадровый) (Пифагор)","Профессиональный (многоголосый закадровый) (HDrezka Studio)"],"seasons_count":1,"episodes_count":10,"episodes":10,"update":"2020-07-19 10:28:34","iframe_src":"//7043.svetacdn.in/71tsRs29n5tZ/tv-series/4428"},{"id":20586,"title":"Обратные дороги","kp_id":"581481","imdb_id":"tt0972544","world_art_id":null,"type":"movie","add":"2018-12-09 18:28:02","orig_title":"Back Roads","year":"2018-04-20","translations":["Любительский (многоголосый закадровый) (Синема УС)","Любительский (двухголосый закадровый) (HiWayGrope)","Профессиональный (многоголосый закадровый) (HDrezka Studio)","Профессиональный (многоголосый закадровый) (HDrezka Studio)","Профессиональный (многоголосый закадровый) (iTunes)","Original (English)"],"quality":"webdl","translation":"Любительский (многоголосый закадровый) (Синема УС)","update":"2021-02-04 14:26:33","iframe_src":"//7043.svetacdn.in/71tsRs29n5tZ/movie/20586"},{"id":3260,"title":"Умирающий детектив","kp_id":"1148165","imdb_id":"tt7582346","world_art_id":null,"type":"serial","add":"2018-10-04 07:20:04","orig_title":"Den döende detektiven","year":"2018-01-03","translations":["Любительский (многоголосый закадровый) (GreenРай Studio)","Профессиональный (многоголосый закадровый) (HDrezka Studio)"],"seasons_count":1,"episodes_count":3,"episodes":3,"update":"2020-07-20 10:55:03","iframe_src":"//7043.svetacdn.in/71tsRs29n5tZ/tv-series/3260"},{"id":3099,"title":"Телефонистки","kp_id":"1007422","imdb_id":"tt5674718","world_art_id":null,"type":"serial","add":"2018-08-29 18:42:33","orig_title":"Las chicas del cable","year":"2017-04-28","translations":["Профессиональный (многоголосый закадровый) (Jaskier)","Профессиональный (многоголосый закадровый) (TVShows)","Профессиональный (многоголосый закадровый) (HDrezka Studio)","Профессиональный (многоголосый закадровый) (BaibaKo)","Профессиональный (двухголосый закадровый) (Gears Media)","Любительский (многоголосый закадровый) (Octopus)","Любительский (многоголосый закадровый) (ColdFilm)"],"seasons_count":5,"episodes_count":42,"episodes":10,"update":"2020-07-18 08:59:06","iframe_src":"//7043.svetacdn.in/71tsRs29n5tZ/tv-series/3099"},{"id":2154,"title":"В западне","kp_id":"1112899","imdb_id":"tt5596468","world_art_id":null,"type":"serial","add":"2018-03-01 14:35:01","orig_title":"Caught","year":"2018-02-26","translations":["Профессиональный (многоголосый закадровый) (BaibaKo)","Полное дублирование","Профессиональный (многоголосый закадровый) (HDrezka Studio)"],"seasons_count":1,"episodes_count":5,"episodes":5,"update":"2020-07-19 16:28:27","iframe_src":"//7043.svetacdn.in/71tsRs29n5tZ/tv-series/2154"},{"id":14115,"title":"Шоу уродов","kp_id":"272374","imdb_id":"tt0906005","world_art_id":null,"type":"movie","add":"2017-10-28 23:50:29","orig_title":"Freakshow","year":"2007-01-30","translations":["Профессиональный (многоголосый закадровый)","Original (English)"],"quality":"webdl","translation":"Профессиональный (многоголосый закадровый)","update":"2021-02-04 14:24:55","iframe_src":"//7043.svetacdn.in/71tsRs29n5tZ/movie/14115"},{"id":1436,"title":"Жирным шрифтом","kp_id":"1043604","imdb_id":"tt6116060","world_art_id":null,"type":"serial","add":"2017-07-31 11:51:47","orig_title":"The Bold Type","year":"2017-06-20","translations":["Профессиональный (многоголосый закадровый) (BaibaKo)","Профессиональный (многоголосый закадровый) (TVShows)","Любительский (многоголосый закадровый) (Octopus)"],"seasons_count":4,"episodes_count":46,"episodes":16,"update":"2020-07-18 09:56:40","iframe_src":"//7043.svetacdn.in/71tsRs29n5tZ/tv-series/1436"},{"id":9142,"title":"Американская милашка","kp_id":"893916","imdb_id":"tt3721936","world_art_id":null,"type":"movie","add":"2017-01-24 10:43:53","orig_title":"American Honey","year":"2016-05-15","translations":["Профессиональный (многоголосый закадровый) (@MUZOBOZ@)","Профессиональный (многоголосый закадровый) (GreenРай Studio)","Профессиональный (многоголосый закадровый)","Профессиональный (многоголосый закадровый) (Netflix)","Original (English)"],"quality":"bd","translation":"Профессиональный (многоголосый закадровый) (@MUZOBOZ@)","update":"2021-02-04 14:32:04","iframe_src":"//7043.svetacdn.in/71tsRs29n5tZ/movie/9142"},{"id":7721,"title":"Восход","kp_id":"803137","imdb_id":"tt3213622","world_art_id":null,"type":"movie","add":"2016-11-29 06:02:54","orig_title":"Rise","year":"2014-10-21","translations":["Любительский (двухголосый закадровый)","Профессиональный (многоголосый закадровый)","Original (English)"],"quality":"webdl","translation":"Любительский (двухголосый закадровый)","update":"2021-02-04 14:30:40","iframe_src":"//7043.svetacdn.in/71tsRs29n5tZ/movie/7721"},{"id":6789,"title":"Последний из могикан","kp_id":"8468","imdb_id":"tt0104691","world_art_id":null,"type":"movie","add":"2016-10-30 07:36:26","orig_title":"The Last of the Mohicans","year":"1992-08-26","translations":["Полное дублирование","Профессиональный (многоголосый закадровый)","Original (English)"],"quality":"bd","translation":"Полное дублирование","update":"2021-02-04 14:29:48","iframe_src":"//7043.svetacdn.in/71tsRs29n5tZ/movie/6789"},{"id":5740,"title":"Лес самоубийц","kp_id":"820035","imdb_id":"tt3450900","world_art_id":null,"type":"movie","add":"2016-10-02 18:11:13","orig_title":"The Sea of Trees","year":"2015-05-16","translations":["Профессиональный (многоголосый закадровый) (Paradox & Omskbird records)","Полное дублирование (iTunes)","Original (English)"],"quality":"bd","translation":"Профессиональный (многоголосый закадровый) (Paradox & Omskbird records)","update":"2021-02-04 14:28:04","iframe_src":"//7043.svetacdn.in/71tsRs29n5tZ/movie/5740"},{"id":5144,"title":"Кадиллак Долана","kp_id":"412271","imdb_id":"tt0963965","world_art_id":null,"type":"movie","add":"2016-09-08 14:47:38","orig_title":"Dolan's Cadillac","year":"2009-07-01","translations":["Профессиональный (многоголосый закадровый)","Авторский (одноголосый закадровый) (Немахов Юрий)","Авторский (одноголосый закадровый) (Яроцкий Михаил | Kyberpunk)","Original (English)","Профессиональный (многоголосый закадровый)"],"quality":"bd","translation":"Профессиональный (многоголосый закадровый)","update":"2021-02-05 07:21:10","iframe_src":"//7043.svetacdn.in/71tsRs29n5tZ/movie/5144"},{"id":3369,"title":"Остров головорезов","kp_id":"13954","imdb_id":"tt0112760","world_art_id":null,"type":"movie","add":"2016-06-27 07:59:32","orig_title":"Cutthroat Island","year":"1995-12-22","translations":["Профессиональный (многоголосый закадровый)","Авторский (одноголосый закадровый) (Гаврилов Андрей)","Авторский (одноголосый закадровый) (Визгунов Сергей)","Авторский (одноголосый закадровый) (Живов Юрий)","Original (English)","Профессиональный (двухголосый закадровый) (Екатеринбург Арт)","Профессиональный (двухголосый закадровый) (Гланц + Королёва)","Профессиональный (двухголосый закадровый) (НТВ)","Профессиональный (многоголосый закадровый) (СТС)","Профессиональный (многоголосый закадровый) (Киномания)","Профессиональный (многоголосый закадровый) (Позитив)","Профессиональный (многоголосый закадровый) (ТВ3)","Профессиональный (многоголосый закадровый) (TV1000)"],"quality":"bd","translation":"Профессиональный (многоголосый закадровый)","update":"2021-02-05 07:15:42","iframe_src":"//7043.svetacdn.in/71tsRs29n5tZ/movie/3369"},{"id":3015,"title":"Дневник Бриджет Джонс","kp_id":"621","imdb_id":"tt0243155","world_art_id":null,"type":"movie","add":"2016-06-08 20:36:19","orig_title":"Bridget Jones's Diary","year":"2001-04-04","translations":["Полное дублирование","Original (English)","Профессиональный (многоголосый закадровый)","Original (English)","Профессиональный (двухголосый закадровый) (DDV)","Профессиональный (многоголосый закадровый)","Профессиональный (многоголосый закадровый) (РТР | Россия)","Профессиональный (многоголосый закадровый) (Universal Russia)"],"quality":"bd","translation":"Полное дублирование","update":"2021-02-05 07:03:25","iframe_src":"//7043.svetacdn.in/71tsRs29n5tZ/movie/3015"}],"current_page":156,"first_page_url":"https://videocdn.tv/api/short?limit=100&api_token=EnbO9h8pv1VyjbCJhg0WM9nG259n7mtz&cache3156=3156&page=1","from":15501,"last_page":611,"last_page_url":"https://videocdn.tv/api/short?limit=100&api_token=EnbO9h8pv1VyjbCJhg0WM9nG259n7mtz&cache3156=3156&page=611","next_page_url":"https://videocdn.tv/api/short?limit=100&api_token=EnbO9h8pv1VyjbCJhg0WM9nG259n7mtz&cache3156=3156&page=157","path":"https://videocdn.tv/api/short","per_page":100,"prev_page_url":"https://videocdn.tv/api/short?limit=100&api_token=EnbO9h8pv1VyjbCJhg0WM9nG259n7mtz&cache3156=3156&page=155","to":15540,"total":61030}