{"result":true,"data":[{"id":48426,"title":"Плавучесть","kp_id":"1297426","imdb_id":"tt8424638","world_art_id":null,"type":"movie","add":"2021-03-04 09:05:06","orig_title":"BUOYANCY","year":"2020-01-15","translations":["Любительский (многоголосый закадровый) (Синема УС)"],"quality":"webdl","translation":"Любительский (многоголосый закадровый) (Синема УС)","update":"2021-03-04 14:23:03","iframe_src":"//83.svetacdn.in/PfJ50H0ZBPg3/movie/48426"},{"id":48425,"title":"Дети-детективы и загадочный сосед","kp_id":null,"imdb_id":"tt13571090","world_art_id":null,"type":"movie","add":"2021-03-04 09:03:52","orig_title":"Aperture Kids and the Mysterious Neighbor","year":"2021-03-02","translations":["Любительский (многоголосый закадровый) (Синема УС)"],"quality":"webdl","translation":"Любительский (многоголосый закадровый) (Синема УС)","update":"2021-03-04 14:22:23","iframe_src":"//83.svetacdn.in/PfJ50H0ZBPg3/movie/48425"},{"id":48423,"title":"Взлет и падение Лил Тито","kp_id":"1233086","imdb_id":"tt9642696","world_art_id":null,"type":"movie","add":"2021-03-04 09:00:48","orig_title":"After the Reign","year":"2020-09-16","translations":["Любительский (многоголосый закадровый) (Синема УС)"],"quality":"webdl","translation":"Любительский (многоголосый закадровый) (Синема УС)","update":"2021-03-04 14:22:08","iframe_src":"//83.svetacdn.in/PfJ50H0ZBPg3/movie/48423"},{"id":48377,"title":"Протеже","kp_id":"264194","imdb_id":"tt0841150","world_art_id":null,"type":"movie","add":"2021-03-03 06:11:33","orig_title":"Moon to","year":"2007-02-13","translations":["Профессиональный (двухголосый закадровый) (BBC Saint-Petersburg)"],"quality":"bd","translation":"Профессиональный (двухголосый закадровый) (BBC Saint-Petersburg)","update":"2021-03-04 07:50:10","iframe_src":"//83.svetacdn.in/PfJ50H0ZBPg3/movie/48377"},{"id":48374,"title":"Тристана","kp_id":"21329","imdb_id":"tt0066491","world_art_id":null,"type":"movie","add":"2021-03-03 05:42:44","orig_title":"Tristana","year":"1970-03-18","translations":["Профессиональный (многоголосый закадровый)"],"quality":"bd","translation":"Профессиональный (многоголосый закадровый)","update":"2021-03-04 07:52:06","iframe_src":"//83.svetacdn.in/PfJ50H0ZBPg3/movie/48374"},{"id":48371,"title":"Денежный перевод","kp_id":"126914","imdb_id":"tt0063268","world_art_id":null,"type":"movie","add":"2021-03-03 05:22:48","orig_title":"Mandabi","year":"1968-11-27","translations":["Профессиональный (многоголосый закадровый) (Акцент)"],"quality":"bd","translation":"Профессиональный (многоголосый закадровый) (Акцент)","update":"2021-03-04 07:54:33","iframe_src":"//83.svetacdn.in/PfJ50H0ZBPg3/movie/48371"},{"id":48290,"title":"Без ума от неё","kp_id":"1450248","imdb_id":"tt11698630","world_art_id":null,"type":"movie","add":"2021-02-27 07:50:31","orig_title":"Loco por ella","year":"2021-02-26","translations":["Любительский (двухголосый закадровый) (OnisFilms)","Любительский (многоголосый закадровый) (@MUZOBOZ@)"],"quality":"webdl","translation":"Любительский (двухголосый закадровый) (OnisFilms)","update":"2021-03-04 12:47:56","iframe_src":"//83.svetacdn.in/PfJ50H0ZBPg3/movie/48290"},{"id":46791,"title":"Сова появляется днем","kp_id":"10026","imdb_id":"tt0063010","world_art_id":null,"type":"movie","add":"2021-01-08 06:57:54","orig_title":"Il giorno della civetta","year":"1968-02-17","translations":["Полное дублирование","Профессиональный (многоголосый закадровый) (СВ-Дубль)"],"quality":"webdl","translation":"Полное дублирование","update":"2021-03-04 12:36:54","iframe_src":"//83.svetacdn.in/PfJ50H0ZBPg3/movie/46791"},{"id":6158,"title":"Плакальщик, или Новогодний детектив","kp_id":"425074","imdb_id":null,"world_art_id":null,"type":"serial","add":"2019-12-27 12:01:43","orig_title":"Плакальщик, или Новогодний детектив","year":"2004-01-01","translations":["Оригинальная дорожка"],"seasons_count":1,"episodes_count":2,"episodes":2,"update":"2019-12-27 21:40:22","iframe_src":"//83.svetacdn.in/PfJ50H0ZBPg3/tv-series/6158"},{"id":6151,"title":"Бешеный Джек Пират","kp_id":"438355","imdb_id":"tt0275849","world_art_id":null,"type":"serial","add":"2019-12-26 21:35:34","orig_title":"Mad Jack the Pirate","year":"1998-09-12","translations":["Полное дублирование"],"seasons_count":1,"episodes_count":23,"episodes":23,"update":"2019-12-27 21:48:15","iframe_src":"//83.svetacdn.in/PfJ50H0ZBPg3/tv-series/6151"},{"id":6150,"title":"Провинциальная Мадонна","kp_id":"1047369","imdb_id":null,"world_art_id":null,"type":"serial","add":"2019-12-26 19:01:21","orig_title":"Провинциальная Мадонна","year":"2017-06-29","translations":["Оригинальная дорожка"],"seasons_count":1,"episodes_count":2,"episodes":2,"update":"2019-12-27 04:03:08","iframe_src":"//83.svetacdn.in/PfJ50H0ZBPg3/tv-series/6150"},{"id":6147,"title":"Мыши-рокеры с Марса","kp_id":"229381","imdb_id":"tt0147752","world_art_id":null,"type":"serial","add":"2019-12-26 12:31:36","orig_title":"Biker Mice from Mars","year":"1993-09-18","translations":["Полное дублирование"],"seasons_count":3,"episodes_count":65,"episodes":13,"update":"2019-12-27 21:27:34","iframe_src":"//83.svetacdn.in/PfJ50H0ZBPg3/tv-series/6147"},{"id":6143,"title":"Полет аистов","kp_id":"592098","imdb_id":"tt1928328","world_art_id":null,"type":"serial","add":"2019-12-26 06:03:28","orig_title":"Flight of the Storks","year":"2013-01-21","translations":["Профессиональный (многоголосый закадровый)"],"seasons_count":1,"episodes_count":2,"episodes":2,"update":"2019-12-26 06:29:10","iframe_src":"//83.svetacdn.in/PfJ50H0ZBPg3/tv-series/6143"},{"id":6142,"title":"Горчаков","kp_id":"842161","imdb_id":"tt4996226","world_art_id":null,"type":"serial","add":"2019-12-26 06:00:04","orig_title":"Gorchakov","year":"2014-09-12","translations":["Оригинальная дорожка"],"seasons_count":1,"episodes_count":4,"episodes":4,"update":"2019-12-26 06:27:59","iframe_src":"//83.svetacdn.in/PfJ50H0ZBPg3/tv-series/6142"},{"id":6141,"title":"Полосатое счастье","kp_id":"687691","imdb_id":"tt4139622","world_art_id":null,"type":"serial","add":"2019-12-26 05:49:57","orig_title":"Polosatoe schaste","year":"2012-06-11","translations":["Оригинальная дорожка"],"seasons_count":1,"episodes_count":12,"episodes":12,"update":"2019-12-26 06:25:10","iframe_src":"//83.svetacdn.in/PfJ50H0ZBPg3/tv-series/6141"},{"id":6140,"title":"Тридцатилетние","kp_id":"394048","imdb_id":null,"world_art_id":null,"type":"serial","add":"2019-12-25 21:17:55","orig_title":"Тридцатилетние","year":"2007-09-03","translations":["Оригинальная дорожка"],"seasons_count":1,"episodes_count":32,"episodes":32,"update":"2019-12-26 21:07:05","iframe_src":"//83.svetacdn.in/PfJ50H0ZBPg3/tv-series/6140"},{"id":6139,"title":"Звездный крейсер «Галактика»","kp_id":"229162","imdb_id":"tt0314979","world_art_id":null,"type":"serial","add":"2019-12-25 11:52:41","orig_title":"Battlestar Galactica","year":"2003-12-08","translations":["Профессиональный (многоголосый закадровый) (Кравец)"],"seasons_count":1,"episodes_count":2,"episodes":2,"update":"2019-12-26 06:08:55","iframe_src":"//83.svetacdn.in/PfJ50H0ZBPg3/tv-series/6139"},{"id":6137,"title":"Девушка средних лет","kp_id":"842184","imdb_id":"tt4251340","world_art_id":null,"type":"serial","add":"2019-12-25 10:33:09","orig_title":"Devushka srednikh let","year":"2014-12-21","translations":["Оригинальная дорожка"],"seasons_count":1,"episodes_count":4,"episodes":4,"update":"2019-12-26 05:06:58","iframe_src":"//83.svetacdn.in/PfJ50H0ZBPg3/tv-series/6137"},{"id":6105,"title":"Напряги извилины","kp_id":"161045","imdb_id":"tt0058805","world_art_id":null,"type":"serial","add":"2019-12-22 19:03:03","orig_title":"Get Smart","year":"1965-09-18","translations":["Профессиональный (многоголосый закадровый)","Профессиональный (двухголосый закадровый)"],"seasons_count":5,"episodes_count":138,"episodes":26,"update":"2019-12-26 06:40:06","iframe_src":"//83.svetacdn.in/PfJ50H0ZBPg3/tv-series/6105"},{"id":6102,"title":"Злоумышленники","kp_id":"839251","imdb_id":"tt3552166","world_art_id":null,"type":"serial","add":"2019-12-22 15:37:52","orig_title":"Intruders","year":"2014-08-23","translations":["Профессиональный (многоголосый закадровый) (IdeaFilm)","Профессиональный (многоголосый закадровый) (VO-Production)"],"seasons_count":1,"episodes_count":8,"episodes":8,"update":"2019-12-27 06:50:39","iframe_src":"//83.svetacdn.in/PfJ50H0ZBPg3/tv-series/6102"},{"id":6093,"title":"Эра стрельца 3","kp_id":"447257","imdb_id":"tt5026508","world_art_id":null,"type":"serial","add":"2019-12-20 22:06:14","orig_title":"Era Streltsa 3","year":"2009-01-01","translations":["Оригинальная дорожка"],"seasons_count":1,"episodes_count":12,"episodes":12,"update":"2019-12-26 08:05:19","iframe_src":"//83.svetacdn.in/PfJ50H0ZBPg3/tv-series/6093"},{"id":6092,"title":"Эра стрельца 2","kp_id":"427270","imdb_id":null,"world_art_id":null,"type":"serial","add":"2019-12-20 22:02:51","orig_title":"Эра стрельца 2","year":"2008-01-01","translations":["Оригинальная дорожка"],"seasons_count":1,"episodes_count":12,"episodes":12,"update":"2019-12-26 08:18:49","iframe_src":"//83.svetacdn.in/PfJ50H0ZBPg3/tv-series/6092"},{"id":6091,"title":"Эра стрельца","kp_id":"325777","imdb_id":"tt0990419","world_art_id":null,"type":"serial","add":"2019-12-20 21:54:51","orig_title":"Era Strel'tsa","year":"2007-01-01","translations":["Оригинальная дорожка"],"seasons_count":1,"episodes_count":12,"episodes":12,"update":"2019-12-26 08:18:27","iframe_src":"//83.svetacdn.in/PfJ50H0ZBPg3/tv-series/6091"},{"id":6037,"title":"Следы","kp_id":"1238013","imdb_id":"tt9788012","world_art_id":null,"type":"serial","add":"2019-12-12 18:44:07","orig_title":"Traces","year":"2019-12-09","translations":["Любительский (многоголосый закадровый) (Octopus)","Любительский (многоголосый закадровый) (ColdFilm)"],"seasons_count":1,"episodes_count":6,"episodes":6,"update":"2019-12-26 12:16:36","iframe_src":"//83.svetacdn.in/PfJ50H0ZBPg3/tv-series/6037"},{"id":5787,"title":"И это всё Роберт","kp_id":"1235004","imdb_id":null,"world_art_id":null,"type":"serial","add":"2019-11-21 09:41:22","orig_title":"И это всё Роберт","year":"2019-11-21","translations":[],"seasons_count":1,"episodes_count":8,"episodes":8,"update":"2019-12-27 04:42:09","iframe_src":"//83.svetacdn.in/PfJ50H0ZBPg3/tv-series/5787"},{"id":26995,"title":"Ядовитая роза","kp_id":"992558","imdb_id":"tt5862166","world_art_id":null,"type":"movie","add":"2019-05-24 21:54:04","orig_title":"The Poison Rose","year":"2019-05-23","translations":["Полное дублирование","Полное дублирование (iTunes)","Профессиональный (многоголосый закадровый) (HDrezka Studio)"],"quality":"bd","translation":"Полное дублирование","update":"2021-03-04 14:21:39","iframe_src":"//83.svetacdn.in/PfJ50H0ZBPg3/movie/26995"},{"id":24795,"title":"Игры разумов","kp_id":"996027","imdb_id":"tt5932728","world_art_id":null,"type":"movie","add":"2019-04-17 21:57:28","orig_title":"The Professor and the Madman","year":"2019-04-25","translations":["Полное дублирование (iTunes)","Профессиональный (многоголосый закадровый) (HDrezka Studio)"],"quality":"webdl","translation":"Полное дублирование (iTunes)","update":"2021-03-04 14:21:55","iframe_src":"//83.svetacdn.in/PfJ50H0ZBPg3/movie/24795"},{"id":21624,"title":"Приемлемая потеря","kp_id":"1095802","imdb_id":"tt7049542","world_art_id":null,"type":"movie","add":"2019-01-19 13:52:56","orig_title":"The Pages","year":"2018-10-13","translations":["Любительский (многоголосый закадровый) (Синема УС)","Профессиональный (многоголосый закадровый) (HDrezka Studio)"],"quality":"webdl","translation":"Любительский (многоголосый закадровый) (Синема УС)","update":"2021-03-04 11:31:44","iframe_src":"//83.svetacdn.in/PfJ50H0ZBPg3/movie/21624"},{"id":20703,"title":"Вечеринка только начинается","kp_id":"1008882","imdb_id":"tt6219314","world_art_id":null,"type":"movie","add":"2018-12-12 22:55:51","orig_title":"The Party's Just Beginning","year":"2018-02-24","translations":["Любительский (многоголосый закадровый) (Синема УС)","Любительский (двухголосый закадровый) (HiWayGrope)","Любительский (многоголосый закадровый)","Профессиональный (многоголосый закадровый) (HDrezka Studio)","Профессиональный (многоголосый закадровый) (HDrezka Studio)"],"quality":"webdl","translation":"Любительский (многоголосый закадровый) (Синема УС)","update":"2021-03-04 14:21:10","iframe_src":"//83.svetacdn.in/PfJ50H0ZBPg3/movie/20703"},{"id":2758,"title":"Абер Берген","kp_id":"1046760","imdb_id":"tt5759648","world_art_id":null,"type":"serial","add":"2018-06-07 05:50:02","orig_title":"Aber Bergen","year":"2016-09-22","translations":["Любительский (одноголосый закадровый) (DexterTV)","Профессиональный (многоголосый закадровый) (TVShows)","Любительский (двухголосый закадровый) (KinoGolos)"],"seasons_count":2,"episodes_count":20,"episodes":10,"update":"2019-12-26 17:46:29","iframe_src":"//83.svetacdn.in/PfJ50H0ZBPg3/tv-series/2758"},{"id":1635,"title":"Гуфи и его команда","kp_id":"94678","imdb_id":"tt0103428","world_art_id":null,"type":"serial","add":"2017-10-12 10:21:30","orig_title":"Goof Troop","year":"1992-09-05","translations":["Полное дублирование"],"seasons_count":2,"episodes_count":78,"episodes":13,"update":"2019-12-26 12:57:06","iframe_src":"//83.svetacdn.in/PfJ50H0ZBPg3/tv-series/1635"},{"id":12638,"title":"Мой парень из зоопарка","kp_id":"424301","imdb_id":"tt1222817","world_art_id":null,"type":"movie","add":"2017-07-25 11:55:13","orig_title":"Zookeeper","year":"2011-07-06","translations":["Полное дублирование","Полное дублирование","Original (English)"],"quality":"bd","translation":"Полное дублирование","update":"2021-03-04 12:30:34","iframe_src":"//83.svetacdn.in/PfJ50H0ZBPg3/movie/12638"},{"id":7087,"title":"Ворона-проказница 2: Большие гонки","kp_id":"790458","imdb_id":"tt3075214","world_art_id":null,"type":"movie","add":"2016-11-05 19:14:43","orig_title":"Der kleine Rabe Socke - Das große Rennen","year":"2015-05-09","translations":["Авторский (одноголосый закадровый) (Шварко)","Любительский (одноголосый закадровый)"],"quality":"bd","translation":"Авторский (одноголосый закадровый) (Шварко)","update":"2021-03-04 07:49:01","iframe_src":"//83.svetacdn.in/PfJ50H0ZBPg3/movie/7087"},{"id":3922,"title":"Железная леди","kp_id":"463647","imdb_id":"tt1007029","world_art_id":null,"type":"movie","add":"2016-07-14 12:10:42","orig_title":"The Iron Lady","year":"2011-12-26","translations":["Полное дублирование","Авторский (одноголосый закадровый) (Сербин Юрий)","Полное дублирование","Original (English)"],"quality":"bd","translation":"Полное дублирование","update":"2021-03-04 09:43:45","iframe_src":"//83.svetacdn.in/PfJ50H0ZBPg3/movie/3922"},{"id":3491,"title":"Кинг Конг","kp_id":"5908","imdb_id":"tt0360717","world_art_id":null,"type":"movie","add":"2016-06-29 08:24:36","orig_title":"King Kong","year":"2005-12-05","translations":["Полное дублирование","Авторский (одноголосый закадровый) (Гаврилов Андрей)","Авторский (одноголосый закадровый) (Королёв Владимир)","Полное дублирование","Original (English)","Профессиональный (двухголосый закадровый) (Гланц + Королёва)","Профессиональный (многоголосый закадровый) (Киномания)"],"quality":"bd","translation":"Полное дублирование","update":"2021-03-04 12:27:37","iframe_src":"//83.svetacdn.in/PfJ50H0ZBPg3/movie/3491"},{"id":2947,"title":"Список Шиндлера","kp_id":"329","imdb_id":"tt0108052","world_art_id":null,"type":"movie","add":"2016-06-06 20:57:13","orig_title":"Schindler's List","year":"1993-11-30","translations":["Полное дублирование","Original (English)","Авторский (одноголосый закадровый) (Горчаков Василий)","Авторский (одноголосый закадровый) (Сербин Юрий)","Профессиональный (многоголосый закадровый)","Авторский (одноголосый закадровый) (Визгунов Сергей)","Авторский (одноголосый закадровый) (Живов Юрий)","Original (English)"],"quality":"bd","translation":"Полное дублирование","update":"2021-03-04 09:56:34","iframe_src":"//83.svetacdn.in/PfJ50H0ZBPg3/movie/2947"},{"id":94,"title":"Матушка Гусыня","kp_id":"957881","imdb_id":"tt4716466","world_art_id":null,"type":"serial","add":"2016-05-25 05:59:42","orig_title":"Gåsmamman","year":"2015-11-26","translations":["Любительский (двухголосый закадровый) (SNK-TV)","Профессиональный (двухголосый закадровый) (ViruseProject)"],"seasons_count":4,"episodes_count":34,"episodes":8,"update":"2019-12-26 16:08:02","iframe_src":"//83.svetacdn.in/PfJ50H0ZBPg3/tv-series/94"},{"id":1912,"title":"Жизнь других","kp_id":"126196","imdb_id":"tt0405094","world_art_id":null,"type":"movie","add":"2016-05-06 15:02:24","orig_title":"Das Leben der Anderen","year":"2006-03-15","translations":["Полное дублирование","Авторский (одноголосый закадровый) (Алексеев Антон)","Авторский (одноголосый закадровый) (Немахов Юрий)","Полное дублирование (Мосфильм)","Профессиональный (многоголосый закадровый)"],"quality":"bd","translation":"Полное дублирование","update":"2021-03-04 08:04:27","iframe_src":"//83.svetacdn.in/PfJ50H0ZBPg3/movie/1912"},{"id":1638,"title":"Не брать живым","kp_id":"278328","imdb_id":"tt0947810","world_art_id":null,"type":"movie","add":"2016-04-24 16:38:19","orig_title":"Green Zone","year":"2010-02-26","translations":["Полное дублирование","Авторский (одноголосый закадровый) (Сербин Юрий)","Полное дублирование","Original (English)"],"quality":"bd","translation":"Полное дублирование","update":"2021-03-04 11:44:20","iframe_src":"//83.svetacdn.in/PfJ50H0ZBPg3/movie/1638"},{"id":728,"title":"Дьявол","kp_id":"464168","imdb_id":"tt1314655","world_art_id":null,"type":"movie","add":"2016-04-06 21:46:28","orig_title":"Devil","year":"2010-09-16","translations":["Полное дублирование","Авторский (одноголосый закадровый) (Сербин Юрий)","Полное дублирование","Original (English)","Любительский (одноголосый закадровый)  (zamez | Замез Вячеслав)"],"quality":"bd","translation":"Полное дублирование","update":"2021-03-04 11:37:55","iframe_src":"//83.svetacdn.in/PfJ50H0ZBPg3/movie/728"}],"current_page":319,"first_page_url":"https://videocdn.tv/api/short?limit=100&api_token=RgFQdUIR2dRmwv8iYa5SnFNgnw3vpjKj&cache3319=3319&page=1","from":31801,"last_page":650,"last_page_url":"https://videocdn.tv/api/short?limit=100&api_token=RgFQdUIR2dRmwv8iYa5SnFNgnw3vpjKj&cache3319=3319&page=650","next_page_url":"https://videocdn.tv/api/short?limit=100&api_token=RgFQdUIR2dRmwv8iYa5SnFNgnw3vpjKj&cache3319=3319&page=320","path":"https://videocdn.tv/api/short","per_page":100,"prev_page_url":"https://videocdn.tv/api/short?limit=100&api_token=RgFQdUIR2dRmwv8iYa5SnFNgnw3vpjKj&cache3319=3319&page=318","to":31840,"total":64908}