{"result":true,"data":[{"id":47238,"title":"Принцесса для дракона","kp_id":"582703","imdb_id":"tt1814793","world_art_id":null,"type":"movie","add":"2021-01-19 21:48:08","orig_title":"Micimutr","year":"2011-11-17","translations":["Профессиональный (многоголосый закадровый) (Игмар)"],"quality":"webdl","translation":"Профессиональный (многоголосый закадровый) (Игмар)","update":"2021-01-20 08:06:33","iframe_src":"//8422.svetacdn.in/IAF0wWTdNYZm/movie/47238"},{"id":47228,"title":"Сибирь и он","kp_id":"1133263","imdb_id":"tt7304136","world_art_id":null,"type":"movie","add":"2021-01-19 14:52:49","orig_title":"Siberia and Him","year":"2019-10-27","translations":["Оригинальная дорожка"],"quality":"webdl","translation":"Оригинальная дорожка","update":"2021-01-19 18:35:14","iframe_src":"//8422.svetacdn.in/IAF0wWTdNYZm/movie/47228"},{"id":47222,"title":"След нашей тоски","kp_id":"427528","imdb_id":"tt1302559","world_art_id":null,"type":"movie","add":"2021-01-18 20:42:47","orig_title":"Le fil","year":"2009-08-29","translations":["Любительский (одноголосый закадровый)"],"quality":"bd","translation":"Любительский (одноголосый закадровый)","update":"2021-01-19 18:58:36","iframe_src":"//8422.svetacdn.in/IAF0wWTdNYZm/movie/47222"},{"id":47221,"title":"Неоткрытая страна","kp_id":"1015962","imdb_id":"tt6466598","world_art_id":null,"type":"movie","add":"2021-01-18 20:36:46","orig_title":"The Undiscovered Country","year":"2019-05-01","translations":["Любительский (многоголосый закадровый) (Синема УС)"],"quality":"webdl","translation":"Любительский (многоголосый закадровый) (Синема УС)","update":"2021-01-19 18:59:31","iframe_src":"//8422.svetacdn.in/IAF0wWTdNYZm/movie/47221"},{"id":47219,"title":"Макате должна продать","kp_id":null,"imdb_id":"tt10332008","world_art_id":null,"type":"movie","add":"2021-01-18 18:27:57","orig_title":"Makate Must Sell","year":"2019-08-15","translations":["Любительский (многоголосый закадровый) (AlphaProject)"],"quality":"webdl","translation":"Любительский (многоголосый закадровый) (AlphaProject)","update":"2021-01-19 19:00:34","iframe_src":"//8422.svetacdn.in/IAF0wWTdNYZm/movie/47219"},{"id":47218,"title":"Тот, кто молится с тобой","kp_id":"1286595","imdb_id":"tt10645356","world_art_id":null,"type":"movie","add":"2021-01-18 18:26:13","orig_title":"Makmum","year":"2019-08-15","translations":["Любительский (двухголосый закадровый) (Колобок)"],"quality":"webdl","translation":"Любительский (двухголосый закадровый) (Колобок)","update":"2021-01-19 19:01:40","iframe_src":"//8422.svetacdn.in/IAF0wWTdNYZm/movie/47218"},{"id":47217,"title":"Этот безумный мир","kp_id":"1236859","imdb_id":"tt9642962","world_art_id":null,"type":"movie","add":"2021-01-18 18:25:01","orig_title":"A Tor Bella Monaca non piove mai","year":"2019-11-28","translations":["Любительский (многоголосый закадровый) (AlphaProject)"],"quality":"webdl","translation":"Любительский (многоголосый закадровый) (AlphaProject)","update":"2021-01-19 19:02:15","iframe_src":"//8422.svetacdn.in/IAF0wWTdNYZm/movie/47217"},{"id":47215,"title":"Наказание","kp_id":null,"imdb_id":"tt7738704","world_art_id":null,"type":"movie","add":"2021-01-18 18:20:06","orig_title":"Detention","year":"2019-02-22","translations":["Любительский (многоголосый закадровый) (AlphaProject)"],"quality":"webdl","translation":"Любительский (многоголосый закадровый) (AlphaProject)","update":"2021-01-19 19:02:34","iframe_src":"//8422.svetacdn.in/IAF0wWTdNYZm/movie/47215"},{"id":47214,"title":"Лихорадочные сны","kp_id":"1319520","imdb_id":"tt11197716","world_art_id":null,"type":"movie","add":"2021-01-18 18:18:02","orig_title":"Fever Dreams Movie","year":"2019-09-27","translations":["Любительский (многоголосый закадровый) (Синема УС)"],"quality":"webdl","translation":"Любительский (многоголосый закадровый) (Синема УС)","update":"2021-01-19 19:02:54","iframe_src":"//8422.svetacdn.in/IAF0wWTdNYZm/movie/47214"},{"id":47190,"title":"Разрушители плотин","kp_id":"196578","imdb_id":"tt0046889","world_art_id":null,"type":"movie","add":"2021-01-17 16:49:30","orig_title":"The Dam Busters","year":"1955-05-16","translations":["Original (English)","Профессиональный (одноголосый закадровый)"],"quality":"bd","translation":"Original (English)","update":"2021-01-19 14:48:23","iframe_src":"//8422.svetacdn.in/IAF0wWTdNYZm/movie/47190"},{"id":47177,"title":"Вакуум","kp_id":"1034603","imdb_id":"tt6437936","world_art_id":null,"type":"movie","add":"2021-01-17 11:47:33","orig_title":"Vakuum","year":"2017-11-26","translations":["Любительский (многоголосый закадровый) (Синема УС)"],"quality":"webdl","translation":"Любительский (многоголосый закадровый) (Синема УС)","update":"2021-01-19 14:32:37","iframe_src":"//8422.svetacdn.in/IAF0wWTdNYZm/movie/47177"},{"id":47073,"title":"Битва у Ла-Платы","kp_id":"5758","imdb_id":"tt0048990","world_art_id":null,"type":"movie","add":"2021-01-14 09:16:57","orig_title":"The Battle of the River Plate","year":"1956-10-29","translations":["Original (English)","Авторский (одноголосый закадровый) (Рябов Сергей)"],"quality":"bd","translation":"Original (English)","update":"2021-01-20 06:10:03","iframe_src":"//8422.svetacdn.in/IAF0wWTdNYZm/movie/47073"},{"id":45857,"title":"39 ступеней","kp_id":"529","imdb_id":"tt0026029","world_art_id":null,"type":"movie","add":"2020-12-05 07:34:09","orig_title":"The 39 Steps","year":"1935-06-06","translations":["Профессиональный (многоголосый закадровый) (SomeWax)","Original (English)","Профессиональный (многоголосый закадровый) (DVD Магия)","Профессиональный (многоголосый закадровый) (New Dream Media)"],"quality":"bd","translation":"Профессиональный (многоголосый закадровый) (SomeWax)","update":"2021-01-20 08:28:11","iframe_src":"//8422.svetacdn.in/IAF0wWTdNYZm/movie/45857"},{"id":45611,"title":"Человек в железной маске","kp_id":"149364","imdb_id":"tt0074853","world_art_id":null,"type":"movie","add":"2020-11-25 15:11:45","orig_title":"The Man in the Iron Mask","year":"1977-01-17","translations":["Полное дублирование (Ленфильм)","Авторский (одноголосый закадровый) (Сонькин Владимир)","Авторский (одноголосый закадровый) (Живов Юрий)","Original (English)"],"quality":"bd","translation":"Полное дублирование (Ленфильм)","update":"2021-01-20 08:35:14","iframe_src":"//8422.svetacdn.in/IAF0wWTdNYZm/movie/45611"},{"id":45561,"title":"Отражающая кожа","kp_id":"5518","imdb_id":"tt0100469","world_art_id":null,"type":"movie","add":"2020-11-24 15:50:55","orig_title":"The Reflecting Skin","year":"1990-08-01","translations":["Авторский (одноголосый закадровый) (Алексеев Антон)","Авторский (одноголосый закадровый) (Гаврилов Андрей)","Авторский (одноголосый закадровый) (Сербин Юрий)","Original (English)"],"quality":"bd","translation":"Авторский (одноголосый закадровый) (Алексеев Антон)","update":"2021-01-20 08:38:43","iframe_src":"//8422.svetacdn.in/IAF0wWTdNYZm/movie/45561"},{"id":44610,"title":"Юный детектив","kp_id":"1260923","imdb_id":"tt8980602","world_art_id":null,"type":"movie","add":"2020-10-19 21:00:57","orig_title":"The Kid Detective","year":"2020-09-13","translations":["Любительский (многоголосый закадровый) (@MUZOBOZ@)","Original (English)","Профессиональный (многоголосый закадровый)"],"quality":"webdl","translation":"Любительский (многоголосый закадровый) (@MUZOBOZ@)","update":"2021-01-19 22:11:25","iframe_src":"//8422.svetacdn.in/IAF0wWTdNYZm/movie/44610"},{"id":14014,"title":"Воспоминания убийцы","kp_id":"983082","imdb_id":"tt5729348","world_art_id":null,"type":"movie","add":"2017-10-24 22:36:32","orig_title":"Salinjaui gieokbeob","year":"2017-09-06","translations":["Любительский (многоголосый закадровый) (Колобок)","Любительский (одноголосый закадровый)","Профессиональный (многоголосый закадровый) (GreenРай Studio)","Профессиональный (многоголосый закадровый) (Кириллица)"],"quality":"webdl","translation":"Любительский (многоголосый закадровый) (Колобок)","update":"2021-01-20 06:13:05","iframe_src":"//8422.svetacdn.in/IAF0wWTdNYZm/movie/14014"},{"id":851,"title":"Между любовью и ненавистью","kp_id":"1008511","imdb_id":null,"world_art_id":null,"type":"serial","add":"2017-01-09 18:40:06","orig_title":"Між любов'ю та ненавистю","year":"2016-12-26","translations":["Оригинальная дорожка"],"seasons_count":1,"episodes_count":8,"episodes":8,"update":"2017-01-10 05:52:39","iframe_src":"//8422.svetacdn.in/IAF0wWTdNYZm/tv-series/851"},{"id":850,"title":"Три королевы","kp_id":"1008105","imdb_id":null,"world_art_id":null,"type":"serial","add":"2017-01-09 18:30:06","orig_title":"Три королевы","year":"2016-12-26","translations":["Оригинальная дорожка"],"seasons_count":1,"episodes_count":8,"episodes":8,"update":"2017-01-10 06:09:43","iframe_src":"//8422.svetacdn.in/IAF0wWTdNYZm/tv-series/850"},{"id":849,"title":"Криминолог","kp_id":"1008278","imdb_id":null,"world_art_id":null,"type":"serial","add":"2017-01-09 18:25:24","orig_title":"Криминолог","year":"2016-11-22","translations":["Оригинальная дорожка"],"seasons_count":1,"episodes_count":16,"episodes":16,"update":"2017-01-10 06:44:20","iframe_src":"//8422.svetacdn.in/IAF0wWTdNYZm/tv-series/849"},{"id":848,"title":"Чужие и близкие","kp_id":"1008509","imdb_id":null,"world_art_id":null,"type":"serial","add":"2017-01-09 18:18:56","orig_title":"Чужие и близкие","year":"2016-12-26","translations":["Оригинальная дорожка"],"seasons_count":1,"episodes_count":4,"episodes":4,"update":"2017-01-10 06:17:07","iframe_src":"//8422.svetacdn.in/IAF0wWTdNYZm/tv-series/848"},{"id":844,"title":"Тренер","kp_id":"992621","imdb_id":null,"world_art_id":null,"type":"serial","add":"2017-01-09 10:55:22","orig_title":"Тренер","year":"2016-12-31","translations":["Оригинальная дорожка"],"seasons_count":1,"episodes_count":2,"episodes":2,"update":"2017-01-10 06:03:21","iframe_src":"//8422.svetacdn.in/IAF0wWTdNYZm/tv-series/844"},{"id":843,"title":"Первое правило королевы","kp_id":"419414","imdb_id":null,"world_art_id":null,"type":"serial","add":"2017-01-09 06:30:12","orig_title":"Первое правило королевы","year":"2006-08-03","translations":["Оригинальная дорожка"],"seasons_count":1,"episodes_count":4,"episodes":4,"update":"2017-01-10 05:58:23","iframe_src":"//8422.svetacdn.in/IAF0wWTdNYZm/tv-series/843"},{"id":842,"title":"Кулинар","kp_id":"681251","imdb_id":"tt2819270","world_art_id":null,"type":"serial","add":"2017-01-09 06:25:38","orig_title":"Kulinar","year":"2012-05-14","translations":["Оригинальная дорожка"],"seasons_count":1,"episodes_count":20,"episodes":20,"update":"2017-01-10 06:41:54","iframe_src":"//8422.svetacdn.in/IAF0wWTdNYZm/tv-series/842"},{"id":841,"title":"Рифмуется с любовью","kp_id":"464884","imdb_id":"tt3085478","world_art_id":null,"type":"serial","add":"2017-01-09 06:25:03","orig_title":"Rifmuetsya s lyubovyu","year":"2006-01-01","translations":["Оригинальная дорожка"],"seasons_count":1,"episodes_count":2,"episodes":2,"update":"2017-01-09 11:56:42","iframe_src":"//8422.svetacdn.in/IAF0wWTdNYZm/tv-series/841"},{"id":840,"title":"Новые приключения Ниро Вульфа и Арчи Гудвина","kp_id":"596111","imdb_id":null,"world_art_id":null,"type":"serial","add":"2017-01-09 06:19:31","orig_title":"Новые приключения Ниро Вульфа и Арчи Гудвина","year":"2004-01-01","translations":["Оригинальная дорожка"],"seasons_count":1,"episodes_count":8,"episodes":8,"update":"2017-01-09 12:29:54","iframe_src":"//8422.svetacdn.in/IAF0wWTdNYZm/tv-series/840"},{"id":838,"title":"Банды","kp_id":"565161","imdb_id":"tt4042116","world_art_id":null,"type":"serial","add":"2017-01-08 12:56:09","orig_title":"Bandy","year":"2010-09-23","translations":["Оригинальная дорожка"],"seasons_count":1,"episodes_count":12,"episodes":12,"update":"2017-01-08 18:44:09","iframe_src":"//8422.svetacdn.in/IAF0wWTdNYZm/tv-series/838"},{"id":837,"title":"Бедные родственники","kp_id":"719866","imdb_id":"tt2842912","world_art_id":null,"type":"serial","add":"2017-01-08 12:51:37","orig_title":"Bednye rodstvenniki","year":"2012-12-11","translations":["Оригинальная дорожка"],"seasons_count":1,"episodes_count":16,"episodes":16,"update":"2017-01-09 10:19:33","iframe_src":"//8422.svetacdn.in/IAF0wWTdNYZm/tv-series/837"},{"id":836,"title":"Поделись счастьем своим","kp_id":"838579","imdb_id":null,"world_art_id":null,"type":"serial","add":"2017-01-08 12:31:52","orig_title":"Поделись счастьем своим","year":"2015-05-23","translations":["Оригинальная дорожка"],"seasons_count":1,"episodes_count":4,"episodes":4,"update":"2017-01-09 10:47:13","iframe_src":"//8422.svetacdn.in/IAF0wWTdNYZm/tv-series/836"},{"id":835,"title":"Стройка","kp_id":"841687","imdb_id":null,"world_art_id":null,"type":"serial","add":"2017-01-08 11:19:10","orig_title":"Стройка","year":"2017-01-02","translations":["Оригинальная дорожка"],"seasons_count":1,"episodes_count":20,"episodes":20,"update":"2017-01-09 10:32:06","iframe_src":"//8422.svetacdn.in/IAF0wWTdNYZm/tv-series/835"},{"id":832,"title":"Перевозчик","kp_id":"587984","imdb_id":"tt1885102","world_art_id":null,"type":"serial","add":"2017-01-08 10:13:06","orig_title":"Transporter: The Series","year":"2012-11-29","translations":["Профессиональный (многоголосый закадровый) (LostFilm)"],"seasons_count":2,"episodes_count":24,"episodes":12,"update":"2017-01-08 17:15:25","iframe_src":"//8422.svetacdn.in/IAF0wWTdNYZm/tv-series/832"},{"id":829,"title":"Больше, чем врач","kp_id":"1008618","imdb_id":null,"world_art_id":null,"type":"serial","add":"2017-01-08 09:38:46","orig_title":"Больше, чем врач","year":"2017-01-06","translations":["Оригинальная дорожка"],"seasons_count":1,"episodes_count":4,"episodes":4,"update":"2017-01-10 08:45:24","iframe_src":"//8422.svetacdn.in/IAF0wWTdNYZm/tv-series/829"},{"id":823,"title":"Доброе имя","kp_id":"840043","imdb_id":"tt3772494","world_art_id":null,"type":"serial","add":"2017-01-07 08:02:24","orig_title":"Dobroe imya","year":"2014-05-19","translations":["Оригинальная дорожка"],"seasons_count":1,"episodes_count":12,"episodes":12,"update":"2017-01-09 06:55:50","iframe_src":"//8422.svetacdn.in/IAF0wWTdNYZm/tv-series/823"},{"id":822,"title":"Половинки невозможного","kp_id":"846891","imdb_id":null,"world_art_id":null,"type":"serial","add":"2017-01-06 12:23:29","orig_title":"Половинки невозможного","year":"2014-12-07","translations":["Оригинальная дорожка"],"seasons_count":1,"episodes_count":4,"episodes":4,"update":"2017-01-10 08:49:45","iframe_src":"//8422.svetacdn.in/IAF0wWTdNYZm/tv-series/822"},{"id":817,"title":"Притворщики","kp_id":"1008512","imdb_id":null,"world_art_id":null,"type":"serial","add":"2017-01-06 11:30:51","orig_title":"Притворщики","year":"2016-12-30","translations":["Оригинальная дорожка"],"seasons_count":1,"episodes_count":2,"episodes":2,"update":"2017-01-10 08:52:52","iframe_src":"//8422.svetacdn.in/IAF0wWTdNYZm/tv-series/817"},{"id":756,"title":"Удаленные","kp_id":"1008004","imdb_id":"tt5684430","world_art_id":null,"type":"serial","add":"2016-12-28 16:22:29","orig_title":"The Deleted","year":"2016-12-04","translations":["Любительский (двухголосый закадровый) (Hamster Studio)"],"seasons_count":1,"episodes_count":8,"episodes":8,"update":"2017-01-09 08:19:59","iframe_src":"//8422.svetacdn.in/IAF0wWTdNYZm/tv-series/756"},{"id":708,"title":"Улица потрошителя","kp_id":"677725","imdb_id":"tt2183641","world_art_id":null,"type":"serial","add":"2016-12-19 08:54:27","orig_title":"Ripper Street","year":"2012-12-30","translations":["Профессиональный (многоголосый закадровый) (NewStudio)"],"seasons_count":5,"episodes_count":36,"episodes":6,"update":"2017-01-09 07:06:41","iframe_src":"//8422.svetacdn.in/IAF0wWTdNYZm/tv-series/708"},{"id":6988,"title":"Побег","kp_id":"6367","imdb_id":"tt0109890","world_art_id":null,"type":"movie","add":"2016-11-02 15:43:33","orig_title":"The Getaway","year":"1994-02-11","translations":["Профессиональный (двухголосый закадровый)","Авторский (одноголосый закадровый) (Дольский Андрей)","Авторский (одноголосый закадровый) (Гаврилов Андрей)","Авторский (одноголосый закадровый) (Махонько Виктор)","Авторский (одноголосый закадровый) (Яроцкий Михаил | Kyberpunk)","Авторский (одноголосый закадровый) (Живов Юрий)","Original (English)","Профессиональный (двухголосый закадровый)","Профессиональный (многоголосый закадровый) (Че!)","Профессиональный (многоголосый закадровый) (Первый канал | ОРТ)","Авторский (одноголосый закадровый) (Сербин Юрий)"],"quality":"hddvd","translation":"Профессиональный (двухголосый закадровый)","update":"2021-01-20 06:14:06","iframe_src":"//8422.svetacdn.in/IAF0wWTdNYZm/movie/6988"},{"id":3063,"title":"Водный мир","kp_id":"8165","imdb_id":"tt0114898","world_art_id":null,"type":"movie","add":"2016-06-09 17:47:15","orig_title":"Waterworld","year":"1995-07-28","translations":["Полное дублирование","Профессиональный (двухголосый закадровый)","Авторский (одноголосый закадровый) (Яроцкий Михаил | Kyberpunk)","Профессиональный (многоголосый закадровый) (Киномания)","Профессиональный (многоголосый закадровый) (СВ-Студия)","Авторский (одноголосый закадровый) (Гаврилов Андрей)","Авторский (одноголосый закадровый) (Немахов Юрий)","Авторский (одноголосый закадровый) (Живов Юрий)","Original (English)","Профессиональный (многоголосый закадровый) (Кравец)"],"quality":"bd","translation":"Полное дублирование","update":"2021-01-20 08:16:22","iframe_src":"//8422.svetacdn.in/IAF0wWTdNYZm/movie/3063"},{"id":1917,"title":"Бронкская история","kp_id":"7466","imdb_id":"tt0106489","world_art_id":null,"type":"movie","add":"2016-05-07 07:53:36","orig_title":"A Bronx Tale","year":"1993-09-09","translations":["Профессиональный (многоголосый закадровый)","Авторский (одноголосый закадровый) (Есарев Дмитрий)","Авторский (одноголосый закадровый) (Визгунов Сергей)","Авторский (одноголосый закадровый) (Володарский Леонид)","Авторский (одноголосый закадровый) (Живов Юрий)","Original (English)","Профессиональный (двухголосый закадровый) (Екатеринбург Арт)","Профессиональный (двухголосый закадровый) (НТВ)","Профессиональный (двухголосый закадровый) (Союз Видео)"],"quality":"bd","translation":"Профессиональный (многоголосый закадровый)","update":"2021-01-20 08:24:20","iframe_src":"//8422.svetacdn.in/IAF0wWTdNYZm/movie/1917"}],"current_page":555,"first_page_url":"https://videocdn.tv/api/short?limit=100&api_token=6Onb1W1alEUrBcKJZD3GoKBbWyAl2uG2&cache3555=3555&page=1","from":55401,"last_page":679,"last_page_url":"https://videocdn.tv/api/short?limit=100&api_token=6Onb1W1alEUrBcKJZD3GoKBbWyAl2uG2&cache3555=3555&page=679","next_page_url":"https://videocdn.tv/api/short?limit=100&api_token=6Onb1W1alEUrBcKJZD3GoKBbWyAl2uG2&cache3555=3555&page=556","path":"https://videocdn.tv/api/short","per_page":100,"prev_page_url":"https://videocdn.tv/api/short?limit=100&api_token=6Onb1W1alEUrBcKJZD3GoKBbWyAl2uG2&cache3555=3555&page=554","to":55440,"total":67847}