{"result":true,"data":[{"id":7235,"title":"Вредитель","kp_id":"20822","imdb_id":"tt0119887","world_art_id":null,"type":"movie","add":"2016-11-09 05:16:44","orig_title":"The Pest","year":"1997-02-07","translations":["Профессиональный (многоголосый закадровый)"],"quality":"webdl","translation":"Профессиональный (многоголосый закадровый)","update":"2016-11-09 11:32:04","iframe_src":"//24213.svetacdn.in/71tsRs29n5tZ/movie/7235"},{"id":7208,"title":"Пристанище Евы","kp_id":"9529","imdb_id":"tt0119080","world_art_id":null,"type":"movie","add":"2016-11-08 15:35:28","orig_title":"Eve's Bayou","year":"1997-09-07","translations":["Профессиональный (двухголосый закадровый)"],"quality":"webdl","translation":"Профессиональный (двухголосый закадровый)","update":"2016-11-09 11:41:16","iframe_src":"//24213.svetacdn.in/71tsRs29n5tZ/movie/7208"},{"id":7207,"title":"Интенсивная терапия","kp_id":"8850","imdb_id":"tt0118901","world_art_id":null,"type":"movie","add":"2016-11-08 15:33:58","orig_title":"Critical Care","year":"1997-10-06","translations":["Профессиональный (двухголосый закадровый)"],"quality":"hdtv","translation":"Профессиональный (двухголосый закадровый)","update":"2016-11-09 11:39:37","iframe_src":"//24213.svetacdn.in/71tsRs29n5tZ/movie/7207"},{"id":7206,"title":"Зона преступности","kp_id":"3554","imdb_id":"tt0118859","world_art_id":null,"type":"movie","add":"2016-11-08 15:28:50","orig_title":"City of Industry","year":"1997-03-14","translations":["Профессиональный (двухголосый закадровый)"],"quality":"hdtv","translation":"Профессиональный (двухголосый закадровый)","update":"2016-11-09 11:37:52","iframe_src":"//24213.svetacdn.in/71tsRs29n5tZ/movie/7206"},{"id":7203,"title":"Король воздуха","kp_id":"15643","imdb_id":"tt0118570","world_art_id":null,"type":"movie","add":"2016-11-08 15:18:33","orig_title":"Air Bud","year":"1997-08-01","translations":["Профессиональный (двухголосый закадровый)"],"quality":"hdtv","translation":"Профессиональный (двухголосый закадровый)","update":"2016-11-09 11:29:28","iframe_src":"//24213.svetacdn.in/71tsRs29n5tZ/movie/7203"},{"id":6908,"title":"Мальчики едят девочек","kp_id":"82332","imdb_id":"tt0415679","world_art_id":null,"type":"movie","add":"2016-11-01 08:39:10","orig_title":"Boy Eats Girl","year":"2005-07-03","translations":["Профессиональный (многоголосый)"],"quality":"bd","translation":"Профессиональный (многоголосый)","update":"2016-11-09 17:49:53","iframe_src":"//24213.svetacdn.in/71tsRs29n5tZ/movie/6908"},{"id":6907,"title":"Убьём жену Уорда","kp_id":"772208","imdb_id":"tt2980708","world_art_id":null,"type":"movie","add":"2016-11-01 08:38:39","orig_title":"Let's Kill Ward's Wife","year":"2014-12-23","translations":["Авторский (одноголосый закадровый) (Чадов Михаил)"],"quality":"bd","translation":"Авторский (одноголосый закадровый) (Чадов Михаил)","update":"2016-11-09 17:05:38","iframe_src":"//24213.svetacdn.in/71tsRs29n5tZ/movie/6907"},{"id":6905,"title":"Фехтовальщик","kp_id":"719817","imdb_id":"tt2534634","world_art_id":null,"type":"movie","add":"2016-11-01 08:37:31","orig_title":"Miekkailija","year":"2015-03-13","translations":["Любительский (двухголосый закадровый) (ETV+)"],"quality":"bd","translation":"Любительский (двухголосый закадровый) (ETV+)","update":"2016-11-09 17:10:43","iframe_src":"//24213.svetacdn.in/71tsRs29n5tZ/movie/6905"},{"id":6904,"title":"Рожденный в песках","kp_id":"8087","imdb_id":"tt0318850","world_art_id":null,"type":"movie","add":"2016-11-01 08:36:59","orig_title":"The Young Black Stallion","year":"2003-12-07","translations":["Полное дублирование (iTunes)"],"quality":"webdl","translation":"Полное дублирование (iTunes)","update":"2016-11-09 17:12:55","iframe_src":"//24213.svetacdn.in/71tsRs29n5tZ/movie/6904"},{"id":6903,"title":"Земля вампиров","kp_id":"490121","imdb_id":"tt1464580","world_art_id":null,"type":"movie","add":"2016-11-01 08:36:20","orig_title":"Stake Land","year":"2010-09-17","translations":["Полное дублирование"],"quality":"bd","translation":"Полное дублирование","update":"2016-11-09 17:24:52","iframe_src":"//24213.svetacdn.in/71tsRs29n5tZ/movie/6903"},{"id":6900,"title":"Первое воскресенье","kp_id":"196851","imdb_id":"tt0486578","world_art_id":null,"type":"movie","add":"2016-11-01 08:34:36","orig_title":"First Sunday","year":"2008-01-11","translations":["Профессиональный (многоголосый закадровый)"],"quality":"bd","translation":"Профессиональный (многоголосый закадровый)","update":"2016-11-09 17:16:19","iframe_src":"//24213.svetacdn.in/71tsRs29n5tZ/movie/6900"},{"id":6899,"title":"Любопытный Джордж 3","kp_id":"902479","imdb_id":"tt4622340","world_art_id":null,"type":"movie","add":"2016-11-01 08:11:53","orig_title":"Curious George 3: Back to the Jungle","year":"2015-06-23","translations":["Полное дублирование"],"quality":"bd","translation":"Полное дублирование","update":"2016-11-09 17:18:37","iframe_src":"//24213.svetacdn.in/71tsRs29n5tZ/movie/6899"},{"id":6898,"title":"Любопытный Джордж","kp_id":"51475","imdb_id":"tt0381971","world_art_id":null,"type":"movie","add":"2016-11-01 08:11:15","orig_title":"Curious George","year":"2006-02-10","translations":["Полное дублирование"],"quality":"bd","translation":"Полное дублирование","update":"2016-11-09 17:20:18","iframe_src":"//24213.svetacdn.in/71tsRs29n5tZ/movie/6898"},{"id":6897,"title":"Я выслежу тебя","kp_id":"626091","imdb_id":"tt2048770","world_art_id":null,"type":"movie","add":"2016-11-01 08:10:31","orig_title":"I'll Follow You Down","year":"2013-07-28","translations":["Любительский (многоголосый закадровый)"],"quality":"bd","translation":"Любительский (многоголосый закадровый)","update":"2016-11-09 17:21:48","iframe_src":"//24213.svetacdn.in/71tsRs29n5tZ/movie/6897"},{"id":6896,"title":"Гуманитарные науки","kp_id":"586327","imdb_id":"tt1872818","world_art_id":null,"type":"movie","add":"2016-11-01 08:09:57","orig_title":"Liberal Arts","year":"2012-01-22","translations":["Профессиональный (многоголосый)"],"quality":"bd","translation":"Профессиональный (многоголосый)","update":"2016-11-09 17:27:46","iframe_src":"//24213.svetacdn.in/71tsRs29n5tZ/movie/6896"},{"id":6894,"title":"Три могилы","kp_id":"81519","imdb_id":"tt0419294","world_art_id":null,"type":"movie","add":"2016-11-01 08:08:44","orig_title":"The Three Burials of Melquiades Estrada","year":"2005-05-20","translations":["Профессиональный (многоголосый закадровый)"],"quality":"bd","translation":"Профессиональный (многоголосый закадровый)","update":"2016-11-09 17:40:22","iframe_src":"//24213.svetacdn.in/71tsRs29n5tZ/movie/6894"},{"id":6893,"title":"Псалом 21","kp_id":"434555","imdb_id":"tt1322355","world_art_id":null,"type":"movie","add":"2016-11-01 08:08:03","orig_title":"Psalm 21","year":"2009-09-22","translations":["Любительский (одноголосый закадровый)"],"quality":"bd","translation":"Любительский (одноголосый закадровый)","update":"2016-11-09 17:42:04","iframe_src":"//24213.svetacdn.in/71tsRs29n5tZ/movie/6893"},{"id":6892,"title":"Космос: Территория смерти","kp_id":"427097","imdb_id":"tt1267379","world_art_id":null,"type":"movie","add":"2016-11-01 08:05:35","orig_title":"Dead Space: Downfall","year":"2008-10-03","translations":["Профессиональный (многоголосый закадровый)"],"quality":"bd","translation":"Профессиональный (многоголосый закадровый)","update":"2016-11-09 17:45:18","iframe_src":"//24213.svetacdn.in/71tsRs29n5tZ/movie/6892"},{"id":6890,"title":"Под покровом небес","kp_id":"6777","imdb_id":"tt0100594","world_art_id":null,"type":"movie","add":"2016-11-01 08:04:05","orig_title":"The Sheltering Sky","year":"1990-10-25","translations":["Профессиональный (многоголосый)"],"quality":"bd","translation":"Профессиональный (многоголосый)","update":"2016-11-09 17:54:00","iframe_src":"//24213.svetacdn.in/71tsRs29n5tZ/movie/6890"},{"id":6889,"title":"Исчезнувшая","kp_id":"608033","imdb_id":"tt1729674","world_art_id":null,"type":"movie","add":"2016-11-01 08:03:30","orig_title":"Gone Missing","year":"2013-06-15","translations":["Любительский (многоголосый закадровый)"],"quality":"bd","translation":"Любительский (многоголосый закадровый)","update":"2016-11-09 17:56:31","iframe_src":"//24213.svetacdn.in/71tsRs29n5tZ/movie/6889"}],"current_page":2702,"first_page_url":"https://videocdn.tv/api/short?limit=100&api_token=EnbO9h8pv1VyjbCJhg0WM9nG259n7mtz&cache32702=32702&page=1","from":270101,"last_page":725,"last_page_url":"https://videocdn.tv/api/short?limit=100&api_token=EnbO9h8pv1VyjbCJhg0WM9nG259n7mtz&cache32702=32702&page=725","next_page_url":null,"path":"https://videocdn.tv/api/short","per_page":100,"prev_page_url":"https://videocdn.tv/api/short?limit=100&api_token=EnbO9h8pv1VyjbCJhg0WM9nG259n7mtz&cache32702=32702&page=2701","to":270120,"total":72409}