{"result":true,"data":[{"id":53646,"title":"Тухлые яйца","kp_id":"22724","imdb_id":"tt0312409","world_art_id":null,"type":"movie","add":"2021-10-06 05:31:28","orig_title":"Bad Eggs","year":"2003-07-13","translations":["[EN] Original (English)","Профессиональный (двухголосый закадровый)"],"quality":"webdl","translation":"[EN] Original (English)","update":"2021-10-07 07:19:30","iframe_src":"//7741.svetacdn.in/IAF0wWTdNYZm/movie/53646"},{"id":53645,"title":"Человек с тележкой","kp_id":"169926","imdb_id":"tt0464105","world_art_id":null,"type":"movie","add":"2021-10-06 05:29:48","orig_title":"Man Push Cart","year":"2005-09-01","translations":["[EN] Original (English)","Авторский (одноголосый закадровый) (Воротилин Олег)"],"quality":"bd","translation":"[EN] Original (English)","update":"2021-10-06 21:04:03","iframe_src":"//7741.svetacdn.in/IAF0wWTdNYZm/movie/53645"},{"id":53644,"title":"Дочери, жёны, матери","kp_id":"199528","imdb_id":"tt0054105","world_art_id":null,"type":"movie","add":"2021-10-06 05:25:34","orig_title":"Musume tsuma haha","year":"1960-05-28","translations":["Любительский (двухголосый закадровый) (STEPonee)"],"quality":"webdl","translation":"Любительский (двухголосый закадровый) (STEPonee)","update":"2021-10-06 15:20:39","iframe_src":"//7741.svetacdn.in/IAF0wWTdNYZm/movie/53644"},{"id":53639,"title":"Железная роза","kp_id":"146348","imdb_id":"tt0126004","world_art_id":null,"type":"movie","add":"2021-10-05 16:28:15","orig_title":"La rose de fer","year":"1973-04-12","translations":["Авторский (одноголосый закадровый) (Штейн Владимир)"],"quality":"bd","translation":"Авторский (одноголосый закадровый) (Штейн Владимир)","update":"2021-10-06 14:52:36","iframe_src":"//7741.svetacdn.in/IAF0wWTdNYZm/movie/53639"},{"id":53638,"title":"Призрак в сети","kp_id":"424355","imdb_id":"tt1286147","world_art_id":null,"type":"movie","add":"2021-10-05 16:18:29","orig_title":"Ghost Machine","year":"2009-12-22","translations":["Профессиональный (многоголосый закадровый)","[EN] Original (English)"],"quality":"bd","translation":"Профессиональный (многоголосый закадровый)","update":"2021-10-06 14:59:45","iframe_src":"//7741.svetacdn.in/IAF0wWTdNYZm/movie/53638"},{"id":53637,"title":"Последний Лавкрафт: Реликт Ктулху","kp_id":"483213","imdb_id":"tt1522262","world_art_id":null,"type":"movie","add":"2021-10-05 16:16:30","orig_title":"The Last Lovecraft: Relic of Cthulhu","year":"2009-10-03","translations":["[EN] Original (English)","Любительский (одноголосый закадровый) (R1shpil)","Профессиональный (двухголосый закадровый) (Первый ТВЧ)"],"quality":"bd","translation":"[EN] Original (English)","update":"2021-10-07 07:23:05","iframe_src":"//7741.svetacdn.in/IAF0wWTdNYZm/movie/53637"},{"id":53636,"title":"Мерлин и последний дракон","kp_id":"426398","imdb_id":"tt1294699","world_art_id":null,"type":"movie","add":"2021-10-05 16:10:46","orig_title":"Merlin and the War of the Dragons","year":"2008-11-25","translations":["Профессиональный (двухголосый закадровый)","[EN] Original (English)"],"quality":"bd","translation":"Профессиональный (двухголосый закадровый)","update":"2021-10-06 15:10:01","iframe_src":"//7741.svetacdn.in/IAF0wWTdNYZm/movie/53636"},{"id":53635,"title":"Я воин","kp_id":"391591","imdb_id":"tt1075746","world_art_id":null,"type":"movie","add":"2021-10-05 16:05:23","orig_title":"I Am Omega","year":"2007-11-18","translations":["[EN] Original (English)","Профессиональный (многоголосый закадровый)","Любительский (одноголосый закадровый)"],"quality":"bd","translation":"[EN] Original (English)","update":"2021-10-07 07:24:53","iframe_src":"//7741.svetacdn.in/IAF0wWTdNYZm/movie/53635"},{"id":53632,"title":"Белое одеяние для Мариале","kp_id":"100622","imdb_id":"tt0068272","world_art_id":null,"type":"movie","add":"2021-10-05 15:04:09","orig_title":"Un bianco vestito per Marialé","year":"1972-11-30","translations":["Любительский (одноголосый закадровый)"],"quality":"bd","translation":"Любительский (одноголосый закадровый)","update":"2021-10-07 07:17:24","iframe_src":"//7741.svetacdn.in/IAF0wWTdNYZm/movie/53632"},{"id":53616,"title":"Синяя борода","kp_id":"17943","imdb_id":"tt0068294","world_art_id":null,"type":"movie","add":"2021-10-05 05:55:15","orig_title":"Bluebeard","year":"1972-08-18","translations":["Профессиональный (многоголосый закадровый) (Первый канал | ОРТ)","[EN] Original (English)"],"quality":"bd","translation":"Профессиональный (многоголосый закадровый) (Первый канал | ОРТ)","update":"2021-10-06 15:28:46","iframe_src":"//7741.svetacdn.in/IAF0wWTdNYZm/movie/53616"},{"id":7987,"title":"Операция «Кобра»","kp_id":"1066296","imdb_id":"tt6795580","world_art_id":null,"type":"serial","add":"2020-06-24 11:49:31","orig_title":"Operation Cobra","year":"2019-02-15","translations":["Любительский (многоголосый закадровый) (Octopus)"],"seasons_count":1,"episodes_count":6,"episodes":6,"update":"2020-06-24 12:55:23","iframe_src":"//7741.svetacdn.in/IAF0wWTdNYZm/tv-series/7987"},{"id":7981,"title":"Взрослая Вэнсдэй Аддамс","kp_id":"934108","imdb_id":"tt3488236","world_art_id":null,"type":"serial","add":"2020-06-23 20:31:16","orig_title":"Adult Wednesday","year":"2013-09-25","translations":["Любительский (многоголосый закадровый) (Black Street Records)"],"seasons_count":2,"episodes_count":13,"episodes":7,"update":"2020-06-24 14:07:18","iframe_src":"//7741.svetacdn.in/IAF0wWTdNYZm/tv-series/7981"},{"id":7979,"title":"Русская наследница","kp_id":"661078","imdb_id":"tt4102308","world_art_id":null,"type":"serial","add":"2020-06-23 17:16:11","orig_title":"Russkaya naslednitsa","year":"2012-08-16","translations":["Оригинальная дорожка"],"seasons_count":1,"episodes_count":8,"episodes":8,"update":"2020-06-23 20:11:30","iframe_src":"//7741.svetacdn.in/IAF0wWTdNYZm/tv-series/7979"},{"id":7978,"title":"Роковая музыка","kp_id":"295729","imdb_id":"tt0159914","world_art_id":null,"type":"serial","add":"2020-06-23 10:03:55","orig_title":"Soul Music","year":"1997-05-01","translations":["Профессиональный (многоголосый закадровый) (2x2)"],"seasons_count":1,"episodes_count":7,"episodes":7,"update":"2020-06-24 16:01:40","iframe_src":"//7741.svetacdn.in/IAF0wWTdNYZm/tv-series/7978"},{"id":7977,"title":"Расписание судеб","kp_id":"356652","imdb_id":"tt0984637","world_art_id":null,"type":"serial","add":"2020-06-23 09:59:09","orig_title":"Raspisanie sudeb","year":"2009-11-19","translations":["Оригинальная дорожка"],"seasons_count":1,"episodes_count":12,"episodes":12,"update":"2020-06-24 15:50:16","iframe_src":"//7741.svetacdn.in/IAF0wWTdNYZm/tv-series/7977"},{"id":7976,"title":"Пропавшие без вести","kp_id":"1207880","imdb_id":"tt9204160","world_art_id":null,"type":"serial","add":"2020-06-22 19:27:24","orig_title":"Desaparecidos","year":"2020-06-19","translations":["Профессиональный (двухголосый закадровый) (IdeaFilm)"],"seasons_count":1,"episodes_count":13,"episodes":13,"update":"2020-06-24 13:19:11","iframe_src":"//7741.svetacdn.in/IAF0wWTdNYZm/tv-series/7976"},{"id":7970,"title":"Незнакомка из Уайлдфелл-Холла","kp_id":"94269","imdb_id":"tt0115387","world_art_id":null,"type":"serial","add":"2020-06-22 06:56:51","orig_title":"The Tenant of Wildfell Hall","year":"1996-11-17","translations":["Профессиональный (многоголосый закадровый) (Кармен Видео)"],"seasons_count":1,"episodes_count":3,"episodes":3,"update":"2020-06-23 19:13:53","iframe_src":"//7741.svetacdn.in/IAF0wWTdNYZm/tv-series/7970"},{"id":7953,"title":"Карлос","kp_id":"517982","imdb_id":"tt1321865","world_art_id":null,"type":"serial","add":"2020-06-19 10:30:28","orig_title":"Carlos","year":"2010-05-19","translations":["Профессиональный (многоголосый закадровый) (Первый канал | ОРТ)"],"seasons_count":1,"episodes_count":3,"episodes":3,"update":"2020-06-24 17:21:20","iframe_src":"//7741.svetacdn.in/IAF0wWTdNYZm/tv-series/7953"},{"id":7949,"title":"Вероника. Беглянка","kp_id":"728119","imdb_id":"tt4083506","world_art_id":null,"type":"serial","add":"2020-06-19 02:47:59","orig_title":"Veronika. Beglyanka","year":"2013-03-11","translations":["Оригинальная дорожка"],"seasons_count":1,"episodes_count":16,"episodes":16,"update":"2020-06-24 11:01:11","iframe_src":"//7741.svetacdn.in/IAF0wWTdNYZm/tv-series/7949"},{"id":7947,"title":"Гиппократ","kp_id":"1217006","imdb_id":"tt9350920","world_art_id":null,"type":"serial","add":"2020-06-18 20:46:17","orig_title":"Hippocrate","year":"2018-11-26","translations":["Любительский (многоголосый закадровый) (Octopus)"],"seasons_count":1,"episodes_count":8,"episodes":8,"update":"2020-06-23 15:08:44","iframe_src":"//7741.svetacdn.in/IAF0wWTdNYZm/tv-series/7947"},{"id":7945,"title":"УГРО 5","kp_id":"790963","imdb_id":null,"world_art_id":null,"type":"serial","add":"2020-06-18 16:22:13","orig_title":"УГРО 5","year":"2014-06-22","translations":["Оригинальная дорожка"],"seasons_count":1,"episodes_count":24,"episodes":24,"update":"2020-06-23 19:42:00","iframe_src":"//7741.svetacdn.in/IAF0wWTdNYZm/tv-series/7945"},{"id":7944,"title":"УГРО 4","kp_id":"628889","imdb_id":null,"world_art_id":null,"type":"serial","add":"2020-06-18 16:10:10","orig_title":"УГРО 4","year":"2012-11-19","translations":["Оригинальная дорожка"],"seasons_count":1,"episodes_count":24,"episodes":24,"update":"2020-06-23 20:07:33","iframe_src":"//7741.svetacdn.in/IAF0wWTdNYZm/tv-series/7944"},{"id":7862,"title":"Люби меня таким","kp_id":"793904","imdb_id":"tt2735500","world_art_id":null,"type":"serial","add":"2020-06-14 12:48:38","orig_title":"Beni Böyle Sev","year":"2013-02-11","translations":["Профессиональный (многоголосый закадровый) (Мобильное телевидение)"],"seasons_count":3,"episodes_count":89,"episodes":26,"update":"2020-06-24 16:49:21","iframe_src":"//7741.svetacdn.in/IAF0wWTdNYZm/tv-series/7862"},{"id":7840,"title":"В густом лесу","kp_id":"590631","imdb_id":"tt1910645","world_art_id":null,"type":"serial","add":"2020-06-12 12:10:01","orig_title":"The Woods","year":"2020-06-12","translations":["Любительский (многоголосый закадровый) (ColdFilm)","Любительский (многоголосый закадровый) (Octopus)","Профессиональный (двухголосый закадровый) (IdeaFilm)","Профессиональный (многоголосый закадровый) (NewStudio)","Профессиональный (двухголосый закадровый) (ViruseProject)"],"seasons_count":1,"episodes_count":6,"episodes":6,"update":"2020-06-24 15:29:30","iframe_src":"//7741.svetacdn.in/IAF0wWTdNYZm/tv-series/7840"},{"id":7519,"title":"Белые линии","kp_id":"1280210","imdb_id":"tt9073958","world_art_id":null,"type":"serial","add":"2020-05-15 10:04:52","orig_title":"White Lines","year":"2020-05-15","translations":["Любительский (многоголосый закадровый) (ColdFilm)","Полное дублирование (SDI Media | Iyuno-SDI Group Russia)","Любительский (многоголосый закадровый) (Octopus)","Профессиональный (многоголосый закадровый) (NewStudio)","Любительский (многоголосый закадровый) (Синема УС)"],"seasons_count":1,"episodes_count":10,"episodes":10,"update":"2020-06-24 15:24:36","iframe_src":"//7741.svetacdn.in/IAF0wWTdNYZm/tv-series/7519"},{"id":7436,"title":"Безжалостный","kp_id":"1326877","imdb_id":"tt11306366","world_art_id":null,"type":"serial","add":"2020-05-07 20:50:01","orig_title":"Ruthless","year":"2020-03-19","translations":["Любительский (многоголосый закадровый) (Octopus)"],"seasons_count":1,"episodes_count":12,"episodes":12,"update":"2020-06-24 14:24:28","iframe_src":"//7741.svetacdn.in/IAF0wWTdNYZm/tv-series/7436"},{"id":7348,"title":"Кодекс чести","kp_id":"414562","imdb_id":"tt3803976","world_art_id":null,"type":"serial","add":"2020-04-30 07:46:32","orig_title":"Kodeks chesti","year":"2002-02-01","translations":["Оригинальная дорожка"],"seasons_count":7,"episodes_count":133,"episodes":32,"update":"2020-06-24 17:04:03","iframe_src":"//7741.svetacdn.in/IAF0wWTdNYZm/tv-series/7348"},{"id":6603,"title":"Центральный Багдад","kp_id":"1198734","imdb_id":"tt7411098","world_art_id":null,"type":"serial","add":"2020-02-10 05:32:48","orig_title":"Baghdad Central","year":"2020-02-03","translations":["Любительский (многоголосый закадровый) (ColdFilm)","Профессиональный (многоголосый закадровый) (TVShows)","Профессиональный (многоголосый закадровый) (Кириллица)"],"seasons_count":1,"episodes_count":6,"episodes":6,"update":"2020-06-24 14:14:16","iframe_src":"//7741.svetacdn.in/IAF0wWTdNYZm/tv-series/6603"},{"id":33612,"title":"Верблюжьи пауки","kp_id":"502267","imdb_id":"tt1618372","world_art_id":null,"type":"movie","add":"2019-12-02 10:10:48","orig_title":"Camel Spiders","year":"2011-03-04","translations":["Профессиональный (многоголосый закадровый)","Профессиональный (многоголосый закадровый) (ТВ3)","[EN] Original (English)"],"quality":"hdrip","translation":"Профессиональный (многоголосый закадровый)","update":"2021-10-06 15:19:32","iframe_src":"//7741.svetacdn.in/IAF0wWTdNYZm/movie/33612"},{"id":19033,"title":"Блич","kp_id":"1007427","imdb_id":"tt5979872","world_art_id":null,"type":"movie","add":"2018-09-16 22:07:58","orig_title":"Bleach","year":"2018-07-20","translations":["Любительский (многоголосый закадровый) (Синема УС)","Любительский (одноголосый закадровый) (Хихикающий доктор)","Любительский (многоголосый закадровый) (AniDUB)","Любительский (одноголосый закадровый)","Любительский (многоголосый закадровый) (SovetRomantica)","Любительский (многоголосый закадровый)","Профессиональный (многоголосый закадровый) (HDrezka Studio)","Полное дублирование (Flarrow Films)"],"quality":"webdl","translation":"Любительский (многоголосый закадровый) (Синема УС)","update":"2021-10-06 15:15:31","iframe_src":"//7741.svetacdn.in/IAF0wWTdNYZm/movie/19033"},{"id":18577,"title":"Инран: Волчья бригада","kp_id":"1043759","imdb_id":"tt3967878","world_art_id":null,"type":"movie","add":"2018-08-26 23:18:23","orig_title":"Inrang","year":"2018-07-25","translations":["Любительский (многоголосый закадровый) (Колобок)","Любительский (многоголосый закадровый) (SovetRomantica)","Любительский (двухголосый закадровый)","Любительский (многоголосый закадровый) (Bonsai Studio)","Авторский (одноголосый закадровый) (Сербин Юрий)"],"quality":"webdl","translation":"Любительский (многоголосый закадровый) (Колобок)","update":"2021-10-06 15:13:33","iframe_src":"//7741.svetacdn.in/IAF0wWTdNYZm/movie/18577"},{"id":14909,"title":"Все деньги мира","kp_id":"1041617","imdb_id":"tt5294550","world_art_id":null,"type":"movie","add":"2018-01-17 22:43:21","orig_title":"All the Money in the World","year":"2017-12-18","translations":["Полное дублирование","Профессиональный (многоголосый закадровый) (HDrezka Studio)","[EN] Original (English)","Полное дублирование (iTunes)"],"quality":"bd","translation":"Полное дублирование","update":"2021-10-06 15:24:05","iframe_src":"//7741.svetacdn.in/IAF0wWTdNYZm/movie/14909"},{"id":872,"title":"Живем сегодняшним днем","kp_id":"1008345","imdb_id":"tt5339440","world_art_id":null,"type":"serial","add":"2017-01-13 07:04:45","orig_title":"One Day at a Time","year":"2017-01-06","translations":["Профессиональный (многоголосый закадровый) (ColdFilm)","Профессиональный (многоголосый закадровый) (TVShows)","Профессиональный (многоголосый закадровый) (Jaskier)","Профессиональный (многоголосый закадровый) (HDrezka Studio)","Любительский (многоголосый закадровый) (Octopus)"],"seasons_count":4,"episodes_count":46,"episodes":7,"update":"2020-06-23 13:42:33","iframe_src":"//7741.svetacdn.in/IAF0wWTdNYZm/tv-series/872"},{"id":8251,"title":"Семь приключений Синдбада","kp_id":"509005","imdb_id":"tt1636629","world_art_id":null,"type":"movie","add":"2016-12-21 10:32:24","orig_title":"The 7 Adventures of Sinbad","year":"2010-05-25","translations":["Профессиональный (многоголосый закадровый)","[EN] Original (English)","Любительский (двухголосый закадровый) (Электричка)","Профессиональный (двухголосый закадровый) (SyFy)"],"quality":"webdl","translation":"Профессиональный (многоголосый закадровый)","update":"2021-10-07 06:02:04","iframe_src":"//7741.svetacdn.in/IAF0wWTdNYZm/movie/8251"},{"id":8239,"title":"Попали!","kp_id":"310734","imdb_id":"tt1023500","world_art_id":null,"type":"movie","add":"2016-12-21 10:18:10","orig_title":"Doghouse","year":"2009-06-12","translations":["Профессиональный (многоголосый закадровый)","Любительский (одноголосый закадровый)  (zamez | Замез Вячеслав)","[EN] Original (English)"],"quality":"bd","translation":"Профессиональный (многоголосый закадровый)","update":"2021-10-06 15:08:36","iframe_src":"//7741.svetacdn.in/IAF0wWTdNYZm/movie/8239"},{"id":441,"title":"Вечность","kp_id":"823594","imdb_id":"tt3487382","world_art_id":null,"type":"serial","add":"2016-09-15 04:20:43","orig_title":"Forever","year":"2014-09-22","translations":["Профессиональный (многоголосый закадровый) (LostFilm)","Профессиональный (многоголосый закадровый) (AlexFilm)","Профессиональный (многоголосый закадровый) (TVShows)","Полное дублирование (ТВ3)","Профессиональный (многоголосый закадровый) (NewStudio)"],"seasons_count":1,"episodes_count":22,"episodes":22,"update":"2020-06-24 16:53:32","iframe_src":"//7741.svetacdn.in/IAF0wWTdNYZm/tv-series/441"},{"id":3275,"title":"Бонни и Клайд","kp_id":"516","imdb_id":"tt0061418","world_art_id":null,"type":"movie","add":"2016-06-20 08:37:05","orig_title":"Bonnie and Clyde","year":"1967-07-18","translations":["Полное дублирование","[EN] Original (English)","Авторский (одноголосый закадровый) (Яковлев Алексей)","Полное дублирование (Варус-Видео)","[EN] Original (English)","Профессиональный (двухголосый закадровый) (DVD Магия)","Профессиональный (двухголосый закадровый) (НТВ)","Профессиональный (многоголосый закадровый) (SomeWax)"],"quality":"bd","translation":"Полное дублирование","update":"2021-10-06 15:50:01","iframe_src":"//7741.svetacdn.in/IAF0wWTdNYZm/movie/3275"},{"id":1161,"title":"Санктум","kp_id":"462669","imdb_id":"tt0881320","world_art_id":null,"type":"movie","add":"2016-04-15 06:39:41","orig_title":"Sanctum","year":"2011-02-03","translations":["Полное дублирование","Полное дублирование","Авторский (одноголосый закадровый) (Гаврилов Андрей)","[EN] Original (English)"],"quality":"bd","translation":"Полное дублирование","update":"2021-10-06 15:34:36","iframe_src":"//7741.svetacdn.in/IAF0wWTdNYZm/movie/1161"},{"id":905,"title":"Хоббит: Пустошь Смауга","kp_id":"408876","imdb_id":"tt1170358","world_art_id":null,"type":"movie","add":"2016-04-09 13:55:42","orig_title":"The Hobbit: The Desolation of Smaug","year":"2013-12-02","translations":["Полное дублирование","[EN] Original (English)","Полное дублирование (Мосфильм)","Профессиональный (многоголосый закадровый) (Омикрон)","Авторский (одноголосый закадровый) (Горчаков Василий)","Авторский (одноголосый закадровый) (Сербин Юрий)","[EN] Original (English)"],"quality":"bd","translation":"Полное дублирование","update":"2021-10-06 16:07:34","iframe_src":"//7741.svetacdn.in/IAF0wWTdNYZm/movie/905"},{"id":75,"title":"РобоКоп","kp_id":"416183","imdb_id":"tt1234721","world_art_id":null,"type":"movie","add":"2016-02-09 11:10:15","orig_title":"RoboCop","year":"2014-01-30","translations":["Полное дублирование","Авторский (одноголосый закадровый) (Есарев Дмитрий)","Авторский (одноголосый закадровый) (Гаврилов Андрей)","Авторский (одноголосый закадровый) (Живов Юрий)","Полное дублирование","[EN] Original (English)"],"quality":"bd","translation":"Полное дублирование","update":"2021-10-06 15:42:43","iframe_src":"//7741.svetacdn.in/IAF0wWTdNYZm/movie/75"}],"current_page":300,"first_page_url":"https://videocdn.tv/api/short?limit=100&api_token=6Onb1W1alEUrBcKJZD3GoKBbWyAl2uG2&cache3300=3300&page=1","from":29901,"last_page":707,"last_page_url":"https://videocdn.tv/api/short?limit=100&api_token=6Onb1W1alEUrBcKJZD3GoKBbWyAl2uG2&cache3300=3300&page=707","next_page_url":"https://videocdn.tv/api/short?limit=100&api_token=6Onb1W1alEUrBcKJZD3GoKBbWyAl2uG2&cache3300=3300&page=301","path":"https://videocdn.tv/api/short","per_page":100,"prev_page_url":"https://videocdn.tv/api/short?limit=100&api_token=6Onb1W1alEUrBcKJZD3GoKBbWyAl2uG2&cache3300=3300&page=299","to":29940,"total":70605}