{"result":true,"data":[{"id":52752,"title":"Позднее счастье","kp_id":"4535460","imdb_id":null,"world_art_id":null,"type":"movie","add":"2021-08-30 05:45:01","orig_title":"Позднее счастье","year":"2019-06-03","translations":["Оригинальная дорожка"],"quality":"webdl","translation":"Оригинальная дорожка","update":"2021-08-30 08:30:29","iframe_src":"//8965.svetacdn.in/IAF0wWTdNYZm/movie/52752"},{"id":52750,"title":"Покровитель убийц","kp_id":"5396","imdb_id":"tt0082534","world_art_id":null,"type":"movie","add":"2021-08-30 05:30:00","orig_title":"Woo Yuet dik goo si","year":"1981-04-24","translations":["Любительский (одноголосый закадровый) (Береговых Виктор | Jet)"],"quality":"bd","translation":"Любительский (одноголосый закадровый) (Береговых Виктор | Jet)","update":"2021-08-30 09:38:55","iframe_src":"//8965.svetacdn.in/IAF0wWTdNYZm/movie/52750"},{"id":52741,"title":"Суперстар","kp_id":"6125","imdb_id":"tt0247444","world_art_id":null,"type":"movie","add":"2021-08-29 09:17:23","orig_title":"Juwanna Mann","year":"2002-06-18","translations":["Профессиональный (многоголосый закадровый)","Профессиональный (двухголосый закадровый) (ТНТ)","[EN] Original (English)"],"quality":"webdl","translation":"Профессиональный (многоголосый закадровый)","update":"2021-08-30 07:57:11","iframe_src":"//8965.svetacdn.in/IAF0wWTdNYZm/movie/52741"},{"id":52735,"title":"В этом наша жизнь","kp_id":"12855","imdb_id":"tt0034890","world_art_id":null,"type":"movie","add":"2021-08-29 08:59:04","orig_title":"In This Our Life","year":"1942-05-08","translations":["[EN] Original (English)","Любительский (одноголосый закадровый) (minyaev)"],"quality":"webdl","translation":"[EN] Original (English)","update":"2021-08-30 07:44:04","iframe_src":"//8965.svetacdn.in/IAF0wWTdNYZm/movie/52735"},{"id":52733,"title":"Сад пыток","kp_id":"8724","imdb_id":"tt0062384","world_art_id":null,"type":"movie","add":"2021-08-29 08:56:28","orig_title":"Torture Garden","year":"1967-11-10","translations":["[EN] Original (English)","Авторский (одноголосый закадровый) (Назаров Вадим)"],"quality":"bd","translation":"[EN] Original (English)","update":"2021-08-30 07:38:32","iframe_src":"//8965.svetacdn.in/IAF0wWTdNYZm/movie/52733"},{"id":52726,"title":"В поисках Сеула","kp_id":"724644","imdb_id":"tt2566644","world_art_id":null,"type":"movie","add":"2021-08-29 08:03:20","orig_title":"Seoul Searching","year":"2015-01-30","translations":["Любительский (многоголосый закадровый) (АрхиAsia)"],"quality":"webdl","translation":"Любительский (многоголосый закадровый) (АрхиAsia)","update":"2021-08-30 08:12:40","iframe_src":"//8965.svetacdn.in/IAF0wWTdNYZm/movie/52726"},{"id":52723,"title":"Вся жизнь","kp_id":"88181","imdb_id":"tt0072307","world_art_id":null,"type":"movie","add":"2021-08-29 07:48:45","orig_title":"Toute une vie","year":"1974-05-15","translations":["Профессиональный (многоголосый закадровый)"],"quality":"bd","translation":"Профессиональный (многоголосый закадровый)","update":"2021-08-30 08:09:57","iframe_src":"//8965.svetacdn.in/IAF0wWTdNYZm/movie/52723"},{"id":52722,"title":"Короткое время","kp_id":"3918","imdb_id":"tt0100604","world_art_id":null,"type":"movie","add":"2021-08-29 06:47:29","orig_title":"Short Time","year":"1990-05-04","translations":["[EN] Original (English)","Авторский (одноголосый закадровый) (Горчаков Василий)","Профессиональный (многоголосый закадровый) (РТР | Россия)"],"quality":"webdl","translation":"[EN] Original (English)","update":"2021-08-30 08:26:22","iframe_src":"//8965.svetacdn.in/IAF0wWTdNYZm/movie/52722"},{"id":52721,"title":"Чуткий сон","kp_id":"11905","imdb_id":"tt0102307","world_art_id":null,"type":"movie","add":"2021-08-29 06:44:37","orig_title":"Light Sleeper","year":"1992-03-13","translations":["[EN] Original (English)","Профессиональный (многоголосый закадровый)"],"quality":"bd","translation":"[EN] Original (English)","update":"2021-08-30 08:29:32","iframe_src":"//8965.svetacdn.in/IAF0wWTdNYZm/movie/52721"},{"id":52719,"title":"Дальнобойщики: никому меня не остановить","kp_id":"274460","imdb_id":"tt0360088","world_art_id":null,"type":"movie","add":"2021-08-29 06:38:16","orig_title":"Torakku yarô: Goiken muyô","year":"1975-08-30","translations":["Любительский (одноголосый закадровый) (Береговых Виктор | Jet)"],"quality":"bd","translation":"Любительский (одноголосый закадровый) (Береговых Виктор | Jet)","update":"2021-08-30 08:11:29","iframe_src":"//8965.svetacdn.in/IAF0wWTdNYZm/movie/52719"},{"id":52683,"title":"Номер в отеле Плаза","kp_id":"17743","imdb_id":"tt0067589","world_art_id":null,"type":"movie","add":"2021-08-27 06:36:15","orig_title":"Plaza Suite","year":"1971-05-12","translations":["Профессиональный (двухголосый закадровый)","[EN] Original (English)"],"quality":"webdl","translation":"Профессиональный (двухголосый закадровый)","update":"2021-08-30 08:58:16","iframe_src":"//8965.svetacdn.in/IAF0wWTdNYZm/movie/52683"},{"id":52681,"title":"Оклахома!","kp_id":"3019","imdb_id":"tt0048445","world_art_id":null,"type":"movie","add":"2021-08-27 06:20:08","orig_title":"Oklahoma!","year":"1955-10-11","translations":["[EN] Original (English)","Профессиональный (многоголосый закадровый)"],"quality":"bd","translation":"[EN] Original (English)","update":"2021-08-30 08:44:29","iframe_src":"//8965.svetacdn.in/IAF0wWTdNYZm/movie/52681"},{"id":52520,"title":"Девушка, которая сбежала","kp_id":"1351697","imdb_id":"tt11859012","world_art_id":null,"type":"movie","add":"2021-08-20 17:50:07","orig_title":"The Girl Who Got Away","year":"2021-08-20","translations":["Любительский (многоголосый закадровый) (@MUZOBOZ@)","[EN] Original (English)","Профессиональный (двухголосый закадровый) (Pazl Voice)"],"quality":"webdl","translation":"Любительский (многоголосый закадровый) (@MUZOBOZ@)","update":"2021-08-30 08:50:11","iframe_src":"//8965.svetacdn.in/IAF0wWTdNYZm/movie/52520"},{"id":52463,"title":"Полный бред - Криминальнее некуда!","kp_id":"1355854","imdb_id":"tt11917938","world_art_id":null,"type":"movie","add":"2021-08-16 15:40:27","orig_title":"Faking Bullshit - Krimineller als die Polizei erlaubt","year":"2020-09-10","translations":["Любительский (многоголосый закадровый) (Синема УС)","Любительский (многоголосый закадровый) (Синема УС)"],"quality":"bd","translation":"Любительский (многоголосый закадровый) (Синема УС)","update":"2021-08-30 08:33:20","iframe_src":"//8965.svetacdn.in/IAF0wWTdNYZm/movie/52463"},{"id":48870,"title":"Лига справедливости Зака Снайдера","kp_id":"1387021","imdb_id":"tt12361974","world_art_id":null,"type":"movie","add":"2021-03-18 07:52:58","orig_title":"Zack Snyder's Justice League","year":"2021-03-18","translations":["Любительский (многоголосый закадровый) (@MUZOBOZ@)","Полное дублирование","Профессиональный (многоголосый закадровый) (HDrezka Studio)","[EN] Original (English)","Полное дублирование (Мосфильм)","Профессиональный (многоголосый закадровый) (TVShows)"],"quality":"webdl","translation":"Любительский (многоголосый закадровый) (@MUZOBOZ@)","update":"2021-08-30 08:00:22","iframe_src":"//8965.svetacdn.in/IAF0wWTdNYZm/movie/48870"},{"id":48768,"title":"Держись подальше от грёбаного чердака","kp_id":"1342759","imdb_id":"tt11505692","world_art_id":null,"type":"movie","add":"2021-03-15 12:52:28","orig_title":"Stay Out of the F**king Attic","year":"2020-10-15","translations":["Любительский (многоголосый закадровый) (Синема УС)","Профессиональный (многоголосый закадровый) (Киноужас)","[EN] Original (English)"],"quality":"webdl","translation":"Любительский (многоголосый закадровый) (Синема УС)","update":"2021-08-30 08:17:22","iframe_src":"//8965.svetacdn.in/IAF0wWTdNYZm/movie/48768"},{"id":6307,"title":"Две жены","kp_id":"1097468","imdb_id":null,"world_art_id":null,"type":"serial","add":"2020-01-10 12:41:20","orig_title":"Две жены","year":"2017-11-06","translations":["Оригинальная дорожка"],"seasons_count":1,"episodes_count":4,"episodes":4,"update":"2020-01-10 20:53:23","iframe_src":"//8965.svetacdn.in/IAF0wWTdNYZm/tv-series/6307"},{"id":6304,"title":"Медицинская полиция","kp_id":"1245640","imdb_id":"tt9850952","world_art_id":null,"type":"serial","add":"2020-01-10 10:13:18","orig_title":"Medical Police","year":"2020-01-10","translations":["Любительский (многоголосый закадровый) (ColdFilm)","Любительский (многоголосый закадровый) (Octopus)"],"seasons_count":1,"episodes_count":10,"episodes":10,"update":"2020-01-10 17:26:01","iframe_src":"//8965.svetacdn.in/IAF0wWTdNYZm/tv-series/6304"},{"id":6300,"title":"Ищу жену с ребёнком","kp_id":"841735","imdb_id":"tt4184976","world_art_id":null,"type":"serial","add":"2020-01-10 07:54:45","orig_title":"Ishchu zhenu s rebyonkom","year":"2014-08-25","translations":["Оригинальная дорожка"],"seasons_count":1,"episodes_count":4,"episodes":4,"update":"2020-01-10 21:23:19","iframe_src":"//8965.svetacdn.in/IAF0wWTdNYZm/tv-series/6300"},{"id":6299,"title":"Погружение","kp_id":"991677","imdb_id":"tt4025156","world_art_id":null,"type":"serial","add":"2020-01-10 07:47:30","orig_title":"En immersion","year":"2016-01-07","translations":["Любительский (многоголосый закадровый)"],"seasons_count":1,"episodes_count":3,"episodes":3,"update":"2020-01-10 21:22:31","iframe_src":"//8965.svetacdn.in/IAF0wWTdNYZm/tv-series/6299"},{"id":6298,"title":"Татау","kp_id":"905069","imdb_id":"tt4122348","world_art_id":null,"type":"serial","add":"2020-01-10 04:52:53","orig_title":"Tatau","year":"2015-04-18","translations":["Любительский (двухголосый закадровый)"],"seasons_count":1,"episodes_count":8,"episodes":8,"update":"2020-01-10 21:19:09","iframe_src":"//8965.svetacdn.in/IAF0wWTdNYZm/tv-series/6298"},{"id":6297,"title":"Русские в городе ангелов","kp_id":"94101","imdb_id":"tt0320008","world_art_id":null,"type":"serial","add":"2020-01-10 04:34:31","orig_title":"Russkie v Gorode Angelov","year":"2003-01-20","translations":["Оригинальная дорожка"],"seasons_count":1,"episodes_count":12,"episodes":12,"update":"2020-01-10 21:14:43","iframe_src":"//8965.svetacdn.in/IAF0wWTdNYZm/tv-series/6297"},{"id":6295,"title":"Легион экстраординарных танцоров","kp_id":"571317","imdb_id":"tt1743034","world_art_id":null,"type":"serial","add":"2020-01-09 19:46:11","orig_title":"The LXD: The Legion of Extraordinary Dancers","year":"2010-07-07","translations":["Профессиональный (многоголосый закадровый) (СТС)"],"seasons_count":2,"episodes_count":20,"episodes":10,"update":"2020-01-10 12:37:34","iframe_src":"//8965.svetacdn.in/IAF0wWTdNYZm/tv-series/6295"},{"id":6294,"title":"Мыслить как преступник: Поведение подозреваемого","kp_id":"569674","imdb_id":"tt1703874","world_art_id":null,"type":"serial","add":"2020-01-09 19:42:12","orig_title":"Criminal Minds: Suspect Behavior","year":"2011-02-16","translations":["Профессиональный (многоголосый закадровый) (Fox Crime)"],"seasons_count":1,"episodes_count":13,"episodes":13,"update":"2020-01-10 12:26:03","iframe_src":"//8965.svetacdn.in/IAF0wWTdNYZm/tv-series/6294"},{"id":6292,"title":"Не верь су*** из квартиры 23","kp_id":"591840","imdb_id":"tt1819509","world_art_id":null,"type":"serial","add":"2020-01-09 15:17:25","orig_title":"Don't Trust the B---- in Apartment 23","year":"2012-04-11","translations":["Профессиональный (многоголосый закадровый) (Novamedia)","Любительский (двухголосый закадровый) (Несмертельное оружие)"],"seasons_count":2,"episodes_count":26,"episodes":19,"update":"2020-01-10 10:33:03","iframe_src":"//8965.svetacdn.in/IAF0wWTdNYZm/tv-series/6292"},{"id":6291,"title":"Кладовая жизни","kp_id":"1115466","imdb_id":"tt10107886","world_art_id":null,"type":"serial","add":"2020-01-09 12:48:45","orig_title":"Kladovaya zhizni","year":"2018-03-19","translations":["Оригинальная дорожка"],"seasons_count":1,"episodes_count":8,"episodes":8,"update":"2020-01-10 12:18:39","iframe_src":"//8965.svetacdn.in/IAF0wWTdNYZm/tv-series/6291"},{"id":6289,"title":"Шурочка","kp_id":"798168","imdb_id":null,"world_art_id":null,"type":"serial","add":"2020-01-09 12:17:23","orig_title":"Шурочка","year":"2013-09-08","translations":["Оригинальная дорожка"],"seasons_count":1,"episodes_count":20,"episodes":20,"update":"2020-01-10 21:39:26","iframe_src":"//8965.svetacdn.in/IAF0wWTdNYZm/tv-series/6289"},{"id":6286,"title":"Регентша. Жена правителя","kp_id":"586673","imdb_id":"tt0121678","world_art_id":null,"type":"serial","add":"2020-01-09 09:39:43","orig_title":"La regenta","year":"1995-01-17","translations":["Профессиональный (многоголосый закадровый)"],"seasons_count":1,"episodes_count":3,"episodes":3,"update":"2020-01-09 17:27:21","iframe_src":"//8965.svetacdn.in/IAF0wWTdNYZm/tv-series/6286"},{"id":6280,"title":"Тайный знак","kp_id":"276272","imdb_id":"tt2842958","world_art_id":null,"type":"serial","add":"2020-01-09 08:42:00","orig_title":"Taynyy znak","year":"2002-04-01","translations":["Оригинальная дорожка"],"seasons_count":3,"episodes_count":24,"episodes":8,"update":"2020-01-10 12:50:53","iframe_src":"//8965.svetacdn.in/IAF0wWTdNYZm/tv-series/6280"},{"id":6274,"title":"Семейка Аддамс","kp_id":"229550","imdb_id":"tt0057729","world_art_id":null,"type":"serial","add":"2020-01-08 14:18:02","orig_title":"The Addams Family","year":"1964-09-18","translations":["Профессиональный (многоголосый закадровый)"],"seasons_count":2,"episodes_count":64,"episodes":30,"update":"2020-01-09 19:18:30","iframe_src":"//8965.svetacdn.in/IAF0wWTdNYZm/tv-series/6274"},{"id":6270,"title":"Изысканная Нэнси Клэнси","kp_id":"666764","imdb_id":"tt2229129","world_art_id":null,"type":"serial","add":"2020-01-07 21:40:45","orig_title":"Fancy Nancy","year":"2018-07-13","translations":["Полное дублирование"],"seasons_count":1,"episodes_count":47,"episodes":47,"update":"2020-01-10 12:14:45","iframe_src":"//8965.svetacdn.in/IAF0wWTdNYZm/tv-series/6270"},{"id":6269,"title":"Отступник","kp_id":"94161","imdb_id":"tt0103524","world_art_id":null,"type":"serial","add":"2020-01-07 20:55:07","orig_title":"Renegade","year":"1992-09-19","translations":["Авторский (одноголосый закадровый) (Визгунов Сергей)"],"seasons_count":5,"episodes_count":73,"episodes":4,"update":"2020-01-09 20:30:57","iframe_src":"//8965.svetacdn.in/IAF0wWTdNYZm/tv-series/6269"},{"id":6240,"title":"Балерина","kp_id":"1049628","imdb_id":null,"world_art_id":null,"type":"serial","add":"2020-01-06 05:20:55","orig_title":"Балерина","year":"2017-10-10","translations":["Оригинальная дорожка"],"seasons_count":1,"episodes_count":8,"episodes":8,"update":"2020-01-09 17:25:39","iframe_src":"//8965.svetacdn.in/IAF0wWTdNYZm/tv-series/6240"},{"id":5203,"title":"Чема","kp_id":"1009621","imdb_id":"tt5730624","world_art_id":null,"type":"serial","add":"2019-09-16 10:14:10","orig_title":"El Chema","year":"2016-12-06","translations":["Любительский (одноголосый закадровый)"],"seasons_count":1,"episodes_count":11,"episodes":11,"update":"2020-01-10 12:31:39","iframe_src":"//8965.svetacdn.in/IAF0wWTdNYZm/tv-series/5203"},{"id":21381,"title":"Кот: Глаза, которые видят смерть","kp_id":"587539","imdb_id":"tt1935094","world_art_id":null,"type":"movie","add":"2019-01-10 20:28:38","orig_title":"Goyangyi: jukeumeul boneun du gaeui nun","year":"2011-07-07","translations":["Любительский (двухголосый закадровый) (GREEN TEA)","Любительский (двухголосый закадровый) (GREEN TEA)"],"quality":"dvdrip","translation":"Любительский (двухголосый закадровый) (GREEN TEA)","update":"2021-08-30 08:31:50","iframe_src":"//8965.svetacdn.in/IAF0wWTdNYZm/movie/21381"},{"id":3755,"title":"Доктор Плюшева","kp_id":"574512","imdb_id":"tt1710295","world_art_id":null,"type":"serial","add":"2018-12-25 12:46:47","orig_title":"Doc McStuffins","year":"2012-03-23","translations":["Полное дублирование"],"seasons_count":2,"episodes_count":52,"episodes":26,"update":"2020-01-10 06:33:48","iframe_src":"//8965.svetacdn.in/IAF0wWTdNYZm/tv-series/3755"},{"id":2701,"title":"Ватага","kp_id":"1109278","imdb_id":"tt4048942","world_art_id":null,"type":"serial","add":"2018-05-31 07:16:17","orig_title":"Wataha","year":"2017-05-28","translations":["Любительский (многоголосый закадровый) (GreenРай Studio)","Любительский (многоголосый закадровый) (Octopus)"],"seasons_count":3,"episodes_count":18,"episodes":6,"update":"2020-01-10 16:05:08","iframe_src":"//8965.svetacdn.in/IAF0wWTdNYZm/tv-series/2701"},{"id":16800,"title":"Грабитель банков","kp_id":"991646","imdb_id":"tt5871080","world_art_id":null,"type":"movie","add":"2018-05-16 06:38:28","orig_title":"A Viszkis","year":"2017-10-16","translations":["Любительский (многоголосый закадровый) (Синема УС)","Профессиональный (многоголосый закадровый) (GreenРай Studio)","Полное дублирование (iTunes)"],"quality":"bd","translation":"Любительский (многоголосый закадровый) (Синема УС)","update":"2021-08-30 08:55:43","iframe_src":"//8965.svetacdn.in/IAF0wWTdNYZm/movie/16800"},{"id":15274,"title":"Тигр жив","kp_id":"997495","imdb_id":"tt5956100","world_art_id":null,"type":"movie","add":"2018-02-23 23:57:27","orig_title":"Tiger Zinda Hai","year":"2017-12-21","translations":["Профессиональный (многоголосый закадровый)","Профессиональный (многоголосый закадровый) (GreenРай Studio)","Любительский (многоголосый закадровый)","Любительский (многоголосый закадровый) (Honey&Haseena)"],"quality":"bd","translation":"Профессиональный (многоголосый закадровый)","update":"2021-08-30 07:45:40","iframe_src":"//8965.svetacdn.in/IAF0wWTdNYZm/movie/15274"},{"id":10986,"title":"Забавные игры","kp_id":"261021","imdb_id":"tt0808279","world_art_id":null,"type":"movie","add":"2017-04-14 14:16:30","orig_title":"Funny Games","year":"2007-10-20","translations":["Профессиональный (многоголосый)","[EN] Original (English)","Профессиональный (многоголосый закадровый)"],"quality":"bd","translation":"Профессиональный (многоголосый)","update":"2021-08-30 07:35:49","iframe_src":"//8965.svetacdn.in/IAF0wWTdNYZm/movie/10986"}],"current_page":386,"first_page_url":"https://videocdn.tv/api/short?limit=100&api_token=6Onb1W1alEUrBcKJZD3GoKBbWyAl2uG2&cache3386=3386&page=1","from":38501,"last_page":709,"last_page_url":"https://videocdn.tv/api/short?limit=100&api_token=6Onb1W1alEUrBcKJZD3GoKBbWyAl2uG2&cache3386=3386&page=709","next_page_url":"https://videocdn.tv/api/short?limit=100&api_token=6Onb1W1alEUrBcKJZD3GoKBbWyAl2uG2&cache3386=3386&page=387","path":"https://videocdn.tv/api/short","per_page":100,"prev_page_url":"https://videocdn.tv/api/short?limit=100&api_token=6Onb1W1alEUrBcKJZD3GoKBbWyAl2uG2&cache3386=3386&page=385","to":38540,"total":70818}