{"result":true,"data":[{"id":43950,"title":"Мимесис. Ночь живых мертвецов","kp_id":"565900","imdb_id":"tt1720164","world_art_id":null,"type":"movie","add":"2020-09-29 06:03:48","orig_title":"Mimesis","year":"2011-10-07","translations":["Любительский (двухголосый закадровый) (Ох! Студия)"],"quality":"hdrip","translation":"Любительский (двухголосый закадровый) (Ох! Студия)","update":"2020-09-29 08:08:49","iframe_src":"//8543.svetacdn.in/si4jsFRrtgrT/movie/43950"},{"id":43949,"title":"Вагина-убийца","kp_id":"230799","imdb_id":"tt0434125","world_art_id":null,"type":"movie","add":"2020-09-29 05:37:54","orig_title":"Sexual Parasite: Killer Pussy","year":"2004-08-22","translations":["Любительский (одноголосый закадровый) (den904)"],"quality":"dvdrip","translation":"Любительский (одноголосый закадровый) (den904)","update":"2020-09-29 07:26:16","iframe_src":"//8543.svetacdn.in/si4jsFRrtgrT/movie/43949"},{"id":43948,"title":"Мольер","kp_id":"155330","imdb_id":"tt0077941","world_art_id":null,"type":"movie","add":"2020-09-28 21:46:01","orig_title":"Molière","year":"1978-05-29","translations":["Авторский (одноголосый закадровый) (Алексеев Антон)"],"quality":"dvdrip","translation":"Авторский (одноголосый закадровый) (Алексеев Антон)","update":"2020-09-29 07:58:58","iframe_src":"//8543.svetacdn.in/si4jsFRrtgrT/movie/43948"},{"id":43947,"title":"Спасибо, друг","kp_id":null,"imdb_id":"tt6977310","world_art_id":null,"type":"movie","add":"2020-09-28 20:26:28","orig_title":"Gracias por ser mi amigo","year":"2018-03-15","translations":["Любительский (многоголосый закадровый) (Синема УС)"],"quality":"webdl","translation":"Любительский (многоголосый закадровый) (Синема УС)","update":"2020-09-29 08:13:12","iframe_src":"//8543.svetacdn.in/si4jsFRrtgrT/movie/43947"},{"id":43916,"title":"Новогодняя песенка Деда Мороза","kp_id":"461726","imdb_id":"tt6011948","world_art_id":null,"type":"movie","add":"2020-09-28 18:31:20","orig_title":"Novogodnyaya pesenka Deda Moroza","year":"1982-01-01","translations":["Оригинальная дорожка"],"quality":"dvdrip","translation":"Оригинальная дорожка","update":"2020-09-29 07:02:07","iframe_src":"//8543.svetacdn.in/si4jsFRrtgrT/movie/43916"},{"id":43915,"title":"Рыжий, рыжий, конопатый","kp_id":"391306","imdb_id":"tt1075390","world_art_id":null,"type":"movie","add":"2020-09-28 18:27:04","orig_title":"Ryzhiy, ryzhiy, konopatyy","year":"1971-01-01","translations":["Оригинальная дорожка"],"quality":"dvb","translation":"Оригинальная дорожка","update":"2020-09-29 07:02:59","iframe_src":"//8543.svetacdn.in/si4jsFRrtgrT/movie/43915"},{"id":43878,"title":"Притча об артисте","kp_id":"1044276","imdb_id":"tt6774008","world_art_id":null,"type":"movie","add":"2020-09-26 20:05:35","orig_title":"Pritcha ob artiste","year":"1989-01-01","translations":["Оригинальная дорожка"],"quality":"sat","translation":"Оригинальная дорожка","update":"2020-09-29 07:03:44","iframe_src":"//8543.svetacdn.in/si4jsFRrtgrT/movie/43878"},{"id":43877,"title":"Бабушкин козлик","kp_id":"46001","imdb_id":"tt0212787","world_art_id":null,"type":"movie","add":"2020-09-26 19:59:25","orig_title":"Babushkin kozlik","year":"1963-01-01","translations":["Оригинальная дорожка"],"quality":"sat","translation":"Оригинальная дорожка","update":"2020-09-29 07:04:30","iframe_src":"//8543.svetacdn.in/si4jsFRrtgrT/movie/43877"},{"id":43876,"title":"Учитель пения","kp_id":"227404","imdb_id":"tt0480473","world_art_id":null,"type":"movie","add":"2020-09-26 19:29:51","orig_title":"Uchitel peniya","year":"1968-01-01","translations":["Оригинальная дорожка"],"quality":"dvdrip","translation":"Оригинальная дорожка","update":"2020-09-29 07:05:38","iframe_src":"//8543.svetacdn.in/si4jsFRrtgrT/movie/43876"},{"id":43875,"title":"Бегемот и солнце","kp_id":"521678","imdb_id":"tt2381101","world_art_id":null,"type":"movie","add":"2020-09-26 19:27:05","orig_title":"Begemot i solntse","year":"1972-01-01","translations":["Оригинальная дорожка"],"quality":"dvdrip","translation":"Оригинальная дорожка","update":"2020-09-29 07:06:21","iframe_src":"//8543.svetacdn.in/si4jsFRrtgrT/movie/43875"},{"id":43874,"title":"Честное крокодильское","kp_id":"474375","imdb_id":"tt6052964","world_art_id":null,"type":"movie","add":"2020-09-26 19:20:36","orig_title":"Chestnoe krokodilskoe","year":"1967-01-01","translations":["Оригинальная дорожка"],"quality":"sat","translation":"Оригинальная дорожка","update":"2020-09-29 07:07:10","iframe_src":"//8543.svetacdn.in/si4jsFRrtgrT/movie/43874"},{"id":43873,"title":"Чумацкий шлях","kp_id":"630625","imdb_id":null,"world_art_id":null,"type":"movie","add":"2020-09-26 18:47:50","orig_title":"Чумацкий шлях","year":"1985-01-01","translations":["Оригинальная дорожка"],"quality":"sat","translation":"Оригинальная дорожка","update":"2020-09-29 07:27:11","iframe_src":"//8543.svetacdn.in/si4jsFRrtgrT/movie/43873"},{"id":43872,"title":"Давай дружить","kp_id":"574048","imdb_id":"tt6483140","world_art_id":null,"type":"movie","add":"2020-09-26 18:44:36","orig_title":"Davay Druzhit","year":"1979-01-01","translations":["Оригинальная дорожка"],"quality":"dvdrip","translation":"Оригинальная дорожка","update":"2020-09-29 07:28:38","iframe_src":"//8543.svetacdn.in/si4jsFRrtgrT/movie/43872"},{"id":43871,"title":"Дилли Далли в Минку-парке","kp_id":"815180","imdb_id":null,"world_art_id":null,"type":"movie","add":"2020-09-26 18:40:37","orig_title":"Дилли Далли в Минку-парке","year":"1975-01-01","translations":["Оригинальная дорожка"],"quality":"vhs","translation":"Оригинальная дорожка","update":"2020-09-29 07:30:14","iframe_src":"//8543.svetacdn.in/si4jsFRrtgrT/movie/43871"},{"id":43870,"title":"Эх,ты! Ух,ты! Ишь,ты!","kp_id":"137813","imdb_id":"tt0452435","world_art_id":null,"type":"movie","add":"2020-09-26 18:36:57","orig_title":"Uhti, uhti uhkesti!","year":"1969-01-01","translations":["Оригинальная дорожка"],"quality":"dvdrip","translation":"Оригинальная дорожка","update":"2020-09-29 07:31:48","iframe_src":"//8543.svetacdn.in/si4jsFRrtgrT/movie/43870"},{"id":43869,"title":"Еще раз про квартет","kp_id":"861658","imdb_id":null,"world_art_id":null,"type":"movie","add":"2020-09-26 18:30:56","orig_title":"Еще раз про квартет","year":"1980-01-01","translations":["Оригинальная дорожка"],"quality":"sat","translation":"Оригинальная дорожка","update":"2020-09-29 07:33:29","iframe_src":"//8543.svetacdn.in/si4jsFRrtgrT/movie/43869"},{"id":43868,"title":"Ёж, пёс и мальчик Нико","kp_id":"656560","imdb_id":null,"world_art_id":null,"type":"movie","add":"2020-09-26 18:27:29","orig_title":"Ёж, пёс и мальчик Нико","year":"1984-01-01","translations":["Оригинальная дорожка"],"quality":"dvdrip","translation":"Оригинальная дорожка","update":"2020-09-29 07:35:04","iframe_src":"//8543.svetacdn.in/si4jsFRrtgrT/movie/43868"},{"id":43867,"title":"Лосенок","kp_id":"493950","imdb_id":"tt2172925","world_art_id":null,"type":"movie","add":"2020-09-26 18:23:26","orig_title":"Losyonok","year":"1984-01-01","translations":["Оригинальная дорожка"],"quality":"dvdrip","translation":"Оригинальная дорожка","update":"2020-09-29 07:35:39","iframe_src":"//8543.svetacdn.in/si4jsFRrtgrT/movie/43867"},{"id":43866,"title":"Медвежонок и тот, кто живет в речке","kp_id":"438334","imdb_id":"tt5998100","world_art_id":null,"type":"movie","add":"2020-09-26 18:20:29","orig_title":"Medvezhonok i tot, kto zhivyot v rechke","year":"1966-01-29","translations":["Оригинальная дорожка"],"quality":"dvdrip","translation":"Оригинальная дорожка","update":"2020-09-29 07:36:12","iframe_src":"//8543.svetacdn.in/si4jsFRrtgrT/movie/43866"},{"id":4948,"title":"Убежище","kp_id":"311095","imdb_id":"tt0965394","world_art_id":null,"type":"serial","add":"2019-07-25 20:34:47","orig_title":"Sanctuary","year":"2008-10-03","translations":["Профессиональный (многоголосый закадровый) (Syfy Universal)"],"seasons_count":4,"episodes_count":58,"episodes":13,"update":"2019-07-26 21:20:32","iframe_src":"//8543.svetacdn.in/si4jsFRrtgrT/tv-series/4948"},{"id":4944,"title":"Иеремия","kp_id":"401599","imdb_id":"tt0290966","world_art_id":null,"type":"serial","add":"2019-07-25 11:26:23","orig_title":"Jeremiah","year":"2002-03-03","translations":["Любительский (одноголосый закадровый) (MaxMeister)"],"seasons_count":2,"episodes_count":35,"episodes":15,"update":"2019-07-25 21:14:28","iframe_src":"//8543.svetacdn.in/si4jsFRrtgrT/tv-series/4944"},{"id":4936,"title":"Кувалда","kp_id":"231082","imdb_id":"tt0090525","world_art_id":null,"type":"serial","add":"2019-07-24 19:30:58","orig_title":"Sledge Hammer!","year":"1986-09-23","translations":["Профессиональный (многоголосый закадровый)"],"seasons_count":2,"episodes_count":41,"episodes":19,"update":"2019-07-25 12:20:25","iframe_src":"//8543.svetacdn.in/si4jsFRrtgrT/tv-series/4936"},{"id":4935,"title":"Шутка","kp_id":"420159","imdb_id":null,"world_art_id":null,"type":"serial","add":"2019-07-24 15:28:08","orig_title":"Шутка","year":"2007-01-01","translations":["Оригинальная дорожка"],"seasons_count":1,"episodes_count":2,"episodes":2,"update":"2019-07-24 21:50:10","iframe_src":"//8543.svetacdn.in/si4jsFRrtgrT/tv-series/4935"},{"id":4933,"title":"Таинственный остров","kp_id":"416197","imdb_id":"tt0448965","world_art_id":null,"type":"serial","add":"2019-07-24 12:35:24","orig_title":"Mysterious Island","year":"2005-09-17","translations":["Профессиональный (двухголосый закадровый)"],"seasons_count":1,"episodes_count":2,"episodes":2,"update":"2019-07-25 07:05:32","iframe_src":"//8543.svetacdn.in/si4jsFRrtgrT/tv-series/4933"},{"id":4932,"title":"Великий мастер даосизма","kp_id":"1274660","imdb_id":"tt10443788","world_art_id":null,"type":"serial","add":"2019-07-24 11:40:44","orig_title":"The Taoism Grandmaster","year":"2018-05-21","translations":["Любительский (двухголосый закадровый) (East Dream)"],"seasons_count":1,"episodes_count":46,"episodes":46,"update":"2019-07-25 11:46:16","iframe_src":"//8543.svetacdn.in/si4jsFRrtgrT/tv-series/4932"},{"id":4929,"title":"Человек-паук","kp_id":"95232","imdb_id":"tt0112175","world_art_id":null,"type":"serial","add":"2019-07-24 05:31:32","orig_title":"Spider-Man","year":"1994-11-19","translations":["Профессиональный (многоголосый закадровый) (РенТВ)","Полное дублирование (НТВ)"],"seasons_count":5,"episodes_count":65,"episodes":13,"update":"2019-07-25 14:57:43","iframe_src":"//8543.svetacdn.in/si4jsFRrtgrT/tv-series/4929"},{"id":4928,"title":"Старые дела","kp_id":"356507","imdb_id":"tt0799898","world_art_id":null,"type":"serial","add":"2019-07-23 22:01:51","orig_title":"Starye dela","year":"2006-01-01","translations":["Оригинальная дорожка"],"seasons_count":1,"episodes_count":12,"episodes":12,"update":"2019-07-24 13:54:37","iframe_src":"//8543.svetacdn.in/si4jsFRrtgrT/tv-series/4928"},{"id":4926,"title":"Сводники Духов: Лисьи Свахи","kp_id":null,"imdb_id":null,"world_art_id":null,"type":"serial","add":"2019-07-23 11:38:21","orig_title":"Hu yao xiao hongniang (Enmusubi no Youko-chan)","year":"2015-01-01","translations":["Любительский (одноголосый закадровый)"],"seasons_count":1,"episodes_count":100,"episodes":100,"update":"2019-07-25 14:48:57","iframe_src":"//8543.svetacdn.in/si4jsFRrtgrT/tv-series/4926"},{"id":4924,"title":"Грандиозный Человек-паук","kp_id":"397484","imdb_id":"tt0976192","world_art_id":null,"type":"serial","add":"2019-07-23 10:22:53","orig_title":"The Spectacular Spider-Man","year":"2008-03-01","translations":["Полное дублирование"],"seasons_count":2,"episodes_count":26,"episodes":13,"update":"2019-07-25 11:57:01","iframe_src":"//8543.svetacdn.in/si4jsFRrtgrT/tv-series/4924"},{"id":4921,"title":"Смерть Вазир-Мухтара","kp_id":"501966","imdb_id":"tt4550708","world_art_id":null,"type":"serial","add":"2019-07-23 07:23:17","orig_title":"Smert Vazir-Mukhtara","year":"2010-03-15","translations":["Оригинальная дорожка"],"seasons_count":1,"episodes_count":10,"episodes":10,"update":"2019-07-24 15:22:56","iframe_src":"//8543.svetacdn.in/si4jsFRrtgrT/tv-series/4921"},{"id":4919,"title":"Омут","kp_id":"420150","imdb_id":null,"world_art_id":null,"type":"serial","add":"2019-07-23 07:14:04","orig_title":"Омут","year":"2007-01-01","translations":["Оригинальная дорожка"],"seasons_count":1,"episodes_count":8,"episodes":8,"update":"2019-07-24 15:12:30","iframe_src":"//8543.svetacdn.in/si4jsFRrtgrT/tv-series/4919"},{"id":4914,"title":"Багровый лепесток и белый","kp_id":"78660","imdb_id":"tt0384013","world_art_id":null,"type":"serial","add":"2019-07-22 14:18:30","orig_title":"The Crimson Petal and the White","year":"2011-04-06","translations":["Любительский (одноголосый закадровый)"],"seasons_count":1,"episodes_count":4,"episodes":4,"update":"2019-07-26 12:18:51","iframe_src":"//8543.svetacdn.in/si4jsFRrtgrT/tv-series/4914"},{"id":4913,"title":"Путешествие на край Земли","kp_id":"259877","imdb_id":"tt0435995","world_art_id":null,"type":"serial","add":"2019-07-22 12:41:48","orig_title":"To the Ends of the Earth","year":"2005-07-06","translations":["Профессиональный (двухголосый закадровый)"],"seasons_count":1,"episodes_count":3,"episodes":3,"update":"2019-07-25 06:58:02","iframe_src":"//8543.svetacdn.in/si4jsFRrtgrT/tv-series/4913"},{"id":4640,"title":"Когда я влюблен","kp_id":"542195","imdb_id":"tt1688210","world_art_id":null,"type":"serial","add":"2019-06-07 15:49:32","orig_title":"Cuando me enamoro","year":"2010-07-05","translations":["Любительский (одноголосый закадровый)"],"seasons_count":1,"episodes_count":0,"episodes":60,"update":"2019-07-24 12:24:53","iframe_src":"//8543.svetacdn.in/si4jsFRrtgrT/tv-series/4640"},{"id":4634,"title":"Студенты","kp_id":"257767","imdb_id":"tt6063390","world_art_id":null,"type":"serial","add":"2019-06-06 14:49:51","orig_title":"Studenty","year":"2005-01-01","translations":["Оригинальная дорожка"],"seasons_count":1,"episodes_count":48,"episodes":48,"update":"2019-07-25 14:27:12","iframe_src":"//8543.svetacdn.in/si4jsFRrtgrT/tv-series/4634"},{"id":4609,"title":"Солдаты 17: Снова в строю","kp_id":"692460","imdb_id":null,"world_art_id":null,"type":"serial","add":"2019-05-31 15:03:02","orig_title":"Солдаты 17: Снова в строю","year":"2013-04-29","translations":["Оригинальная дорожка"],"seasons_count":1,"episodes_count":20,"episodes":20,"update":"2019-07-26 08:00:54","iframe_src":"//8543.svetacdn.in/si4jsFRrtgrT/tv-series/4609"},{"id":4608,"title":"Солдаты 16: Дембель неизбежен","kp_id":"566827","imdb_id":null,"world_art_id":null,"type":"serial","add":"2019-05-31 14:59:13","orig_title":"Солдаты 16: Дембель неизбежен","year":"2019-01-11","translations":["Оригинальная дорожка"],"seasons_count":1,"episodes_count":90,"episodes":90,"update":"2019-07-25 12:10:48","iframe_src":"//8543.svetacdn.in/si4jsFRrtgrT/tv-series/4608"},{"id":2940,"title":"Вероника Марс","kp_id":"255670","imdb_id":"tt0412253","world_art_id":null,"type":"serial","add":"2018-07-17 12:02:22","orig_title":"Veronica Mars","year":"2004-09-22","translations":["Профессиональный (многоголосый закадровый) (НТВ)","Профессиональный (двухголосый закадровый) (NovaFilm)","Профессиональный (двухголосый закадровый) (Gears Media)"],"seasons_count":4,"episodes_count":72,"episodes":8,"update":"2019-07-24 12:24:44","iframe_src":"//8543.svetacdn.in/si4jsFRrtgrT/tv-series/2940"},{"id":15024,"title":"Девушка в тумане","kp_id":"1047956","imdb_id":"tt6892400","world_art_id":null,"type":"movie","add":"2018-01-31 23:43:56","orig_title":"La ragazza nella nebbia","year":"2017-10-26","translations":["Любительский (двухголосый закадровый) (HiWayGrope)","Полное дублирование","Профессиональный (многоголосый закадровый) (HDrezka Studio)"],"quality":"webdl","translation":"Любительский (двухголосый закадровый) (HiWayGrope)","update":"2020-09-29 09:18:02","iframe_src":"//8543.svetacdn.in/si4jsFRrtgrT/movie/15024"},{"id":1488,"title":"Жизнь в деталях","kp_id":"894675","imdb_id":"tt4384086","world_art_id":null,"type":"serial","add":"2017-08-25 10:34:49","orig_title":"Life in Pieces","year":"2015-09-21","translations":["Профессиональный (многоголосый закадровый) (IdeaFilm)","Профессиональный (многоголосый закадровый) (Fox Life)","Профессиональный (многоголосый закадровый) (Jaskier)","Профессиональный (многоголосый закадровый) (TVShows)"],"seasons_count":4,"episodes_count":79,"episodes":13,"update":"2019-07-24 12:18:02","iframe_src":"//8543.svetacdn.in/si4jsFRrtgrT/tv-series/1488"}],"current_page":317,"first_page_url":"https://videocdn.tv/api/short?limit=100&api_token=X6EwAUfE5M9xbo7y0Bp0aPf3uXxG2KLL&cache3317=3317&page=1","from":31601,"last_page":601,"last_page_url":"https://videocdn.tv/api/short?limit=100&api_token=X6EwAUfE5M9xbo7y0Bp0aPf3uXxG2KLL&cache3317=3317&page=601","next_page_url":"https://videocdn.tv/api/short?limit=100&api_token=X6EwAUfE5M9xbo7y0Bp0aPf3uXxG2KLL&cache3317=3317&page=318","path":"https://videocdn.tv/api/short","per_page":100,"prev_page_url":"https://videocdn.tv/api/short?limit=100&api_token=X6EwAUfE5M9xbo7y0Bp0aPf3uXxG2KLL&cache3317=3317&page=316","to":31640,"total":60055}