{"result":true,"data":[{"id":55676,"title":"Обещания","kp_id":"2041328","imdb_id":"tt14466112","world_art_id":null,"type":"movie","add":"2022-01-05 06:33:48","orig_title":"Promises","year":"2021-04-10","translations":["Оригинальная дорожка"],"quality":"webdl","translation":"Оригинальная дорожка","update":"2022-01-05 07:47:57","iframe_src":"//8944266443434.svetacdn.in/PfJ50H0ZBPg3/movie/55676"},{"id":55668,"title":"Когда пыль осядет на землю","kp_id":"1139459","imdb_id":"tt6606998","world_art_id":null,"type":"movie","add":"2022-01-04 18:59:48","orig_title":"Volverá El Polvo a La Tierra","year":"2017-11-14","translations":["Любительский (многоголосый закадровый) (Синема УС)"],"quality":"webdl","translation":"Любительский (многоголосый закадровый) (Синема УС)","update":"2022-01-05 04:10:27","iframe_src":"//8944266443434.svetacdn.in/PfJ50H0ZBPg3/movie/55668"},{"id":55667,"title":"Свобода","kp_id":"4486335","imdb_id":"tt13405570","world_art_id":null,"type":"movie","add":"2022-01-04 18:58:09","orig_title":"Wolka","year":"2021-05-28","translations":["Любительский (многоголосый закадровый) (Синема УС)"],"quality":"webdl","translation":"Любительский (многоголосый закадровый) (Синема УС)","update":"2022-01-05 04:10:07","iframe_src":"//8944266443434.svetacdn.in/PfJ50H0ZBPg3/movie/55667"},{"id":55666,"title":"Перепутанные до рождения","kp_id":"4542081","imdb_id":"tt15353166","world_art_id":null,"type":"movie","add":"2022-01-04 14:48:52","orig_title":"Switched Before Birth","year":"2021-10-23","translations":["Профессиональный (многоголосый закадровый) (HDrezka Studio)"],"quality":"webdl","translation":"Профессиональный (многоголосый закадровый) (HDrezka Studio)","update":"2022-01-04 18:55:43","iframe_src":"//8944266443434.svetacdn.in/PfJ50H0ZBPg3/movie/55666"},{"id":55665,"title":"Смерть не имеет пола","kp_id":"18661","imdb_id":"tt0063323","world_art_id":null,"type":"movie","add":"2022-01-04 14:26:24","orig_title":"La morte non ha sesso","year":"1968-08-11","translations":["Любительский (одноголосый закадровый) (ССК+ | Квардаков Сергей)"],"quality":"bd","translation":"Любительский (одноголосый закадровый) (ССК+ | Квардаков Сергей)","update":"2022-01-05 07:49:48","iframe_src":"//8944266443434.svetacdn.in/PfJ50H0ZBPg3/movie/55665"},{"id":55664,"title":"Позор","kp_id":"47134","imdb_id":"tt0093952","world_art_id":null,"type":"movie","add":"2022-01-04 14:24:39","orig_title":"Shame","year":"1988-02-26","translations":["Авторский (одноголосый закадровый) (Гаврилов Андрей)"],"quality":"bd","translation":"Авторский (одноголосый закадровый) (Гаврилов Андрей)","update":"2022-01-05 07:51:40","iframe_src":"//8944266443434.svetacdn.in/PfJ50H0ZBPg3/movie/55664"},{"id":55663,"title":"Страна холмов и долин","kp_id":"4142","imdb_id":"tt0120699","world_art_id":null,"type":"movie","add":"2022-01-04 14:12:07","orig_title":"The Hi-Lo Country","year":"1998-12-30","translations":["Профессиональный (многоголосый закадровый) (DVD Group)"],"quality":"webdl","translation":"Профессиональный (многоголосый закадровый) (DVD Group)","update":"2022-01-05 07:54:59","iframe_src":"//8944266443434.svetacdn.in/PfJ50H0ZBPg3/movie/55663"},{"id":55662,"title":"Мельница каменных женщин","kp_id":"225820","imdb_id":"tt0054099","world_art_id":null,"type":"movie","add":"2022-01-04 14:07:28","orig_title":"Il Mulino delle donne di pietra","year":"1960-08-30","translations":["Любительский (одноголосый закадровый) (Stalk | Кирдин Никита)"],"quality":"bd","translation":"Любительский (одноголосый закадровый) (Stalk | Кирдин Никита)","update":"2022-01-05 07:52:41","iframe_src":"//8944266443434.svetacdn.in/PfJ50H0ZBPg3/movie/55662"},{"id":55659,"title":"Айвенго","kp_id":"15238","imdb_id":"tt0044760","world_art_id":null,"type":"movie","add":"2022-01-04 13:51:50","orig_title":"Ivanhoe","year":"1952-06-12","translations":["Профессиональный (многоголосый закадровый) (SomeWax)"],"quality":"bd","translation":"Профессиональный (многоголосый закадровый) (SomeWax)","update":"2022-01-05 07:57:00","iframe_src":"//8944266443434.svetacdn.in/PfJ50H0ZBPg3/movie/55659"},{"id":55658,"title":"Рождество отправляется в полет","kp_id":"4543703","imdb_id":"tt15012044","world_art_id":null,"type":"movie","add":"2022-01-04 13:04:31","orig_title":"Christmas Takes Flight","year":"2021-09-19","translations":["Любительский (многоголосый закадровый) (AlphaProject)"],"quality":"webdl","translation":"Любительский (многоголосый закадровый) (AlphaProject)","update":"2022-01-04 18:55:12","iframe_src":"//8944266443434.svetacdn.in/PfJ50H0ZBPg3/movie/55658"},{"id":55657,"title":"Последний город","kp_id":"1342241","imdb_id":"tt11638970","world_art_id":null,"type":"movie","add":"2022-01-04 13:02:56","orig_title":"Die letzte Stadt","year":"2020-02-26","translations":["Любительский (многоголосый закадровый) (AlphaProject)"],"quality":"webdl","translation":"Любительский (многоголосый закадровый) (AlphaProject)","update":"2022-01-04 18:54:43","iframe_src":"//8944266443434.svetacdn.in/PfJ50H0ZBPg3/movie/55657"},{"id":55656,"title":"Эбони Хасл","kp_id":"4399250","imdb_id":"tt13534948","world_art_id":null,"type":"movie","add":"2022-01-04 13:01:40","orig_title":"Ebony Hustle","year":"2021-01-01","translations":["Любительский (многоголосый закадровый) (Синема УС)"],"quality":"webdl","translation":"Любительский (многоголосый закадровый) (Синема УС)","update":"2022-01-04 18:54:19","iframe_src":"//8944266443434.svetacdn.in/PfJ50H0ZBPg3/movie/55656"},{"id":55655,"title":"Привязка","kp_id":"1289557","imdb_id":"tt10719916","world_art_id":null,"type":"movie","add":"2022-01-04 13:00:23","orig_title":"El Amarre","year":"2021-10-22","translations":["Любительский (многоголосый закадровый) (Синема УС)"],"quality":"webdl","translation":"Любительский (многоголосый закадровый) (Синема УС)","update":"2022-01-04 18:54:02","iframe_src":"//8944266443434.svetacdn.in/PfJ50H0ZBPg3/movie/55655"},{"id":55654,"title":"Приготовить Рождество","kp_id":"4543751","imdb_id":"tt15205728","world_art_id":null,"type":"movie","add":"2022-01-04 12:58:58","orig_title":"Falling for Christmas","year":"2021-11-12","translations":["Любительский (многоголосый закадровый) (Синема УС)"],"quality":"hdtv","translation":"Любительский (многоголосый закадровый) (Синема УС)","update":"2022-01-04 18:53:44","iframe_src":"//8944266443434.svetacdn.in/PfJ50H0ZBPg3/movie/55654"},{"id":55653,"title":"Прямо перед тобой","kp_id":"4470906","imdb_id":"tt14776918","world_art_id":null,"type":"movie","add":"2022-01-04 12:57:34","orig_title":"Dangsin eolgul apeseo","year":"2021-10-02","translations":["Любительский (многоголосый закадровый) (Синема УС)"],"quality":"webdl","translation":"Любительский (многоголосый закадровый) (Синема УС)","update":"2022-01-04 18:52:55","iframe_src":"//8944266443434.svetacdn.in/PfJ50H0ZBPg3/movie/55653"},{"id":52531,"title":"Красная земля","kp_id":"1387200","imdb_id":"tt12444642","world_art_id":null,"type":"movie","add":"2021-08-21 07:43:28","orig_title":"Rouge","year":"2020-09-11","translations":["Любительский (многоголосый закадровый) (Синема УС)"],"quality":"webdl","translation":"Любительский (многоголосый закадровый) (Синема УС)","update":"2022-01-04 18:56:28","iframe_src":"//8944266443434.svetacdn.in/PfJ50H0ZBPg3/movie/52531"},{"id":51772,"title":"Огрики","kp_id":"1374647","imdb_id":"tt11992904","world_art_id":null,"type":"movie","add":"2021-07-15 07:48:13","orig_title":"Smelliville","year":"2021-07-01","translations":["Полное дублирование","Полное дублирование (iTunes)"],"quality":"webdl","translation":"Полное дублирование","update":"2022-01-05 08:03:03","iframe_src":"//8944266443434.svetacdn.in/PfJ50H0ZBPg3/movie/51772"},{"id":7307,"title":"Жди меня","kp_id":"1185919","imdb_id":null,"world_art_id":null,"type":"serial","add":"2020-04-26 05:38:10","orig_title":"Жди меня","year":"2018-01-01","translations":["Оригинальная дорожка"],"seasons_count":1,"episodes_count":4,"episodes":4,"update":"2020-04-26 07:17:02","iframe_src":"//8944266443434.svetacdn.in/PfJ50H0ZBPg3/tv-series/7307"},{"id":7293,"title":"Сто лет пути","kp_id":"1363083","imdb_id":null,"world_art_id":null,"type":"serial","add":"2020-04-25 10:14:01","orig_title":"Сто лет пути","year":"2020-04-25","translations":["Оригинальная дорожка"],"seasons_count":1,"episodes_count":4,"episodes":4,"update":"2020-04-26 07:35:30","iframe_src":"//8944266443434.svetacdn.in/PfJ50H0ZBPg3/tv-series/7293"},{"id":7290,"title":"Дела невиновных","kp_id":"1355773","imdb_id":"tt11958922","world_art_id":null,"type":"serial","add":"2020-04-24 21:38:23","orig_title":"The Innocence Files","year":"2020-04-15","translations":["Профессиональный (двухголосый закадровый) (IdeaFilm)"],"seasons_count":1,"episodes_count":9,"episodes":9,"update":"2020-04-25 07:10:22","iframe_src":"//8944266443434.svetacdn.in/PfJ50H0ZBPg3/tv-series/7290"},{"id":7288,"title":"Внутри убийцы: разум Аарона Эрнандеса","kp_id":"1354110","imdb_id":"tt11475228","world_art_id":null,"type":"serial","add":"2020-04-24 12:25:42","orig_title":"Killer Inside: The Mind of Aaron Hernandez","year":"2020-01-15","translations":["Профессиональный (многоголосый закадровый) (HDrezka Studio)"],"seasons_count":1,"episodes_count":3,"episodes":3,"update":"2020-04-25 14:28:19","iframe_src":"//8944266443434.svetacdn.in/PfJ50H0ZBPg3/tv-series/7288"},{"id":7276,"title":"Операция \"Тихий океан\"","kp_id":"1347524","imdb_id":"tt10367698","world_art_id":null,"type":"serial","add":"2020-04-22 12:49:11","orig_title":"Operación Pacífico","year":"2020-02-10","translations":["Любительский (многоголосый закадровый) (Octopus)"],"seasons_count":1,"episodes_count":44,"episodes":44,"update":"2020-04-24 16:33:10","iframe_src":"//8944266443434.svetacdn.in/PfJ50H0ZBPg3/tv-series/7276"},{"id":7274,"title":"Дежурный ангел","kp_id":"567168","imdb_id":null,"world_art_id":null,"type":"serial","add":"2020-04-22 12:23:36","orig_title":"Dejurniy angel","year":"2010-10-01","translations":["Оригинальная дорожка"],"seasons_count":1,"episodes_count":16,"episodes":16,"update":"2020-04-24 12:06:24","iframe_src":"//8944266443434.svetacdn.in/PfJ50H0ZBPg3/tv-series/7274"},{"id":7267,"title":"Двое из ларца 2","kp_id":"400112","imdb_id":"tt4757638","world_art_id":null,"type":"serial","add":"2020-04-22 11:22:12","orig_title":"Dvoe iz lartsa 2","year":"2008-10-20","translations":["Оригинальная дорожка"],"seasons_count":1,"episodes_count":12,"episodes":12,"update":"2020-04-24 12:00:52","iframe_src":"//8944266443434.svetacdn.in/PfJ50H0ZBPg3/tv-series/7267"},{"id":7265,"title":"Двое из ларца","kp_id":"400113","imdb_id":"tt4760498","world_art_id":null,"type":"serial","add":"2020-04-22 11:17:34","orig_title":"Dvoe iz lartsa","year":"2010-07-08","translations":["Оригинальная дорожка"],"seasons_count":1,"episodes_count":12,"episodes":12,"update":"2020-04-24 11:55:30","iframe_src":"//8944266443434.svetacdn.in/PfJ50H0ZBPg3/tv-series/7265"},{"id":7220,"title":"Мадам Си Джей Уокер","kp_id":"1178526","imdb_id":"tt8771910","world_art_id":null,"type":"serial","add":"2020-04-18 03:36:37","orig_title":"Self Made: Inspired by the Life of Madam C.J. Walker","year":"2020-03-20","translations":["Профессиональный (многоголосый закадровый) (NewStudio)"],"seasons_count":1,"episodes_count":4,"episodes":4,"update":"2020-04-24 07:09:01","iframe_src":"//8944266443434.svetacdn.in/PfJ50H0ZBPg3/tv-series/7220"},{"id":7218,"title":"Консультант","kp_id":null,"imdb_id":"tt10899022","world_art_id":null,"type":"serial","add":"2020-04-17 12:52:09","orig_title":"Konsultant","year":"2020-04-13","translations":["Оригинальная дорожка"],"seasons_count":1,"episodes_count":16,"episodes":16,"update":"2020-04-25 10:14:39","iframe_src":"//8944266443434.svetacdn.in/PfJ50H0ZBPg3/tv-series/7218"},{"id":7161,"title":"Монстры против пришельцев","kp_id":"750063","imdb_id":"tt2782214","world_art_id":null,"type":"serial","add":"2020-04-12 11:06:25","orig_title":"Monsters vs. Aliens","year":"2013-03-23","translations":["Полное дублирование"],"seasons_count":1,"episodes_count":26,"episodes":26,"update":"2020-04-24 19:09:30","iframe_src":"//8944266443434.svetacdn.in/PfJ50H0ZBPg3/tv-series/7161"},{"id":7157,"title":"Инстинкт выживания","kp_id":null,"imdb_id":"tt5538644","world_art_id":null,"type":"serial","add":"2020-04-10 15:59:49","orig_title":"Primal Survivor","year":"2016-01-21","translations":["Профессиональный (одноголосый закадровый)"],"seasons_count":1,"episodes_count":8,"episodes":8,"update":"2020-04-24 18:50:29","iframe_src":"//8944266443434.svetacdn.in/PfJ50H0ZBPg3/tv-series/7157"},{"id":7156,"title":"Гонка","kp_id":"280528","imdb_id":"tt0770521","world_art_id":null,"type":"serial","add":"2020-04-10 15:33:22","orig_title":"Drive","year":"2007-01-01","translations":["Профессиональный (многоголосый закадровый) (NovaFilm)"],"seasons_count":1,"episodes_count":6,"episodes":6,"update":"2020-04-24 18:38:47","iframe_src":"//8944266443434.svetacdn.in/PfJ50H0ZBPg3/tv-series/7156"},{"id":7103,"title":"Ищейка 4","kp_id":"1301992","imdb_id":null,"world_art_id":null,"type":"serial","add":"2020-04-06 12:16:44","orig_title":"Ищейка 4","year":"2020-04-06","translations":["Оригинальная дорожка"],"seasons_count":1,"episodes_count":16,"episodes":16,"update":"2020-04-24 02:48:57","iframe_src":"//8944266443434.svetacdn.in/PfJ50H0ZBPg3/tv-series/7103"},{"id":6891,"title":"Босс","kp_id":"591861","imdb_id":"tt1833285","world_art_id":null,"type":"serial","add":"2020-03-16 08:45:32","orig_title":"Boss","year":"2011-10-21","translations":["Профессиональный (двухголосый закадровый) (NewStudio)","Профессиональный (многоголосый закадровый) (Sony Turbo)"],"seasons_count":2,"episodes_count":18,"episodes":10,"update":"2020-04-24 16:38:31","iframe_src":"//8944266443434.svetacdn.in/PfJ50H0ZBPg3/tv-series/6891"},{"id":36884,"title":"Неверный возлюбленный","kp_id":"95914","imdb_id":"tt0102835","world_art_id":null,"type":"movie","add":"2020-02-24 20:02:40","orig_title":"Sanam Bewafa","year":"1991-01-11","translations":["Профессиональный (одноголосый закадровый)","Профессиональный (многоголосый закадровый) (SDI Media | Iyuno-SDI Group Russia)","Профессиональный (многоголосый закадровый) (SDI Media | Iyuno-SDI Group Russia)"],"quality":"dvdrip","translation":"Профессиональный (одноголосый закадровый)","update":"2022-01-05 08:06:24","iframe_src":"//8944266443434.svetacdn.in/PfJ50H0ZBPg3/movie/36884"},{"id":6254,"title":"Истории о Боге с Морганом Фриманом","kp_id":"957918","imdb_id":"tt5242220","world_art_id":null,"type":"serial","add":"2020-01-06 16:48:55","orig_title":"The Story of God with Morgan Freeman","year":"2016-04-03","translations":["Профессиональный (одноголосый закадровый)","Любительский (двухголосый закадровый) (KosharaSerials)"],"seasons_count":3,"episodes_count":15,"episodes":6,"update":"2020-04-24 19:00:24","iframe_src":"//8944266443434.svetacdn.in/PfJ50H0ZBPg3/tv-series/6254"},{"id":3966,"title":"Королевство","kp_id":"1039674","imdb_id":"tt6611916","world_art_id":null,"type":"serial","add":"2019-01-28 06:12:14","orig_title":"Kingdom","year":"2019-01-25","translations":["Профессиональный (многоголосый закадровый) (IdeaFilm)","Профессиональный (многоголосый закадровый) (LostFilm)","Профессиональный (многоголосый закадровый) (HDrezka Studio)","Профессиональный (двухголосый закадровый) (Gears Media)","Профессиональный (многоголосый закадровый) (Jaskier)","Любительский (многоголосый закадровый) (ColdFilm)","Любительский (многоголосый закадровый) (Octopus)","Профессиональный (многоголосый закадровый) (NewStudio)"],"seasons_count":2,"episodes_count":12,"episodes":6,"update":"2020-04-25 10:13:20","iframe_src":"//8944266443434.svetacdn.in/PfJ50H0ZBPg3/tv-series/3966"},{"id":3132,"title":"Судная ночь","kp_id":"1021557","imdb_id":"tt6110648","world_art_id":null,"type":"serial","add":"2018-09-06 08:30:47","orig_title":"The Purge","year":"2018-09-04","translations":["Профессиональный (многоголосый закадровый) (IdeaFilm)","Профессиональный (многоголосый закадровый) (LostFilm)","Профессиональный (многоголосый закадровый) (HDrezka Studio)","Профессиональный (многоголосый закадровый) (NewStudio)","Профессиональный (многоголосый закадровый) (Пифагор)","Профессиональный (многоголосый закадровый) (TVShows)","Профессиональный (многоголосый закадровый) (AlexFilm)","Профессиональный (многоголосый закадровый) (Jaskier)","Профессиональный (многоголосый закадровый) (AMS)"],"seasons_count":2,"episodes_count":20,"episodes":10,"update":"2020-04-24 11:31:35","iframe_src":"//8944266443434.svetacdn.in/PfJ50H0ZBPg3/tv-series/3132"},{"id":2997,"title":"Уилл и Грейс","kp_id":"256421","imdb_id":"tt0157246","world_art_id":null,"type":"serial","add":"2018-08-04 08:08:06","orig_title":"Will & Grace","year":"1998-09-21","translations":["Профессиональный (многоголосый закадровый) (SET Russia | Sony Entertainment Television)","Любительский (одноголосый закадровый)","Любительский (одноголосый закадровый) (Журавлев Владимир)","Любительский (двухголосый закадровый) (GoldTeam)","Любительский (многоголосый закадровый) (ColdFilm)","Профессиональный (многоголосый закадровый) (TVShows)","Любительский (многоголосый закадровый) (Octopus)"],"seasons_count":11,"episodes_count":239,"episodes":18,"update":"2020-04-25 10:13:47","iframe_src":"//8944266443434.svetacdn.in/PfJ50H0ZBPg3/tv-series/2997"},{"id":1495,"title":"Зов крови","kp_id":"463684","imdb_id":"tt1429449","world_art_id":null,"type":"serial","add":"2017-08-29 10:56:44","orig_title":"Lost Girl","year":"2010-09-12","translations":["Профессиональный (многоголосый закадровый) (Sony Sci-Fi)","Профессиональный (двухголосый закадровый) (NewStudio)","Профессиональный (многоголосый закадровый) (AXN Sci-Fi)","Любительский (многоголосый закадровый) (Smart's Studios)"],"seasons_count":5,"episodes_count":77,"episodes":16,"update":"2020-04-24 11:10:54","iframe_src":"//8944266443434.svetacdn.in/PfJ50H0ZBPg3/tv-series/1495"},{"id":7521,"title":"Ирония судьбы. Продолжение","kp_id":"276261","imdb_id":"tt0987918","world_art_id":null,"type":"movie","add":"2016-11-20 08:05:23","orig_title":"Ironiya sudby. Prodolzhenie","year":"2007-12-21","translations":["Оригинальная дорожка","Оригинальная дорожка"],"quality":"bd","translation":"Оригинальная дорожка","update":"2022-01-05 07:58:31","iframe_src":"//8944266443434.svetacdn.in/PfJ50H0ZBPg3/movie/7521"},{"id":5311,"title":"Рождественская пятерка","kp_id":"432619","imdb_id":"tt1328875","world_art_id":null,"type":"movie","add":"2016-09-16 07:44:41","orig_title":"Santa Buddies","year":"2009-11-18","translations":["Полное дублирование","Полное дублирование (Невафильм | Нева-1)"],"quality":"bd","translation":"Полное дублирование","update":"2022-01-05 08:00:28","iframe_src":"//8944266443434.svetacdn.in/PfJ50H0ZBPg3/movie/5311"}],"current_page":362,"first_page_url":"https://videocdn.tv/api/short?limit=100&api_token=RgFQdUIR2dRmwv8iYa5SnFNgnw3vpjKj&cache3362=3362&page=1","from":36101,"last_page":728,"last_page_url":"https://videocdn.tv/api/short?limit=100&api_token=RgFQdUIR2dRmwv8iYa5SnFNgnw3vpjKj&cache3362=3362&page=728","next_page_url":"https://videocdn.tv/api/short?limit=100&api_token=RgFQdUIR2dRmwv8iYa5SnFNgnw3vpjKj&cache3362=3362&page=363","path":"https://videocdn.tv/api/short","per_page":100,"prev_page_url":"https://videocdn.tv/api/short?limit=100&api_token=RgFQdUIR2dRmwv8iYa5SnFNgnw3vpjKj&cache3362=3362&page=361","to":36140,"total":72780}