{"result":true,"data":[{"id":52073,"title":"Дыхание: Да здравствует Отечество","kp_id":"431930","imdb_id":"tt1171701","world_art_id":null,"type":"movie","add":"2021-07-27 20:40:22","orig_title":"Nefes: Vatan Sagolsun","year":"2009-10-16","translations":["Любительский (одноголосый закадровый)"],"quality":"hdrip","translation":"Любительский (одноголосый закадровый)","update":"2021-07-28 06:56:42","iframe_src":"//2413.svetacdn.in/si4jsFRrtgrT/movie/52073"},{"id":52072,"title":"Что я делаю за деньги","kp_id":"1188679","imdb_id":"tt8932756","world_art_id":null,"type":"movie","add":"2021-07-27 18:51:38","orig_title":"Things I Do for Money","year":"2019-12-06","translations":["Любительский (многоголосый закадровый) (Синема УС)"],"quality":"webdl","translation":"Любительский (многоголосый закадровый) (Синема УС)","update":"2021-07-28 04:47:14","iframe_src":"//2413.svetacdn.in/si4jsFRrtgrT/movie/52072"},{"id":52071,"title":"Сын - Мать","kp_id":"1299981","imdb_id":"tt10888684","world_art_id":null,"type":"movie","add":"2021-07-27 18:51:11","orig_title":"Son-Mother","year":"2019-09-07","translations":["Любительский (многоголосый закадровый) (Синема УС)"],"quality":"webdl","translation":"Любительский (многоголосый закадровый) (Синема УС)","update":"2021-07-28 04:46:14","iframe_src":"//2413.svetacdn.in/si4jsFRrtgrT/movie/52071"},{"id":52066,"title":"Чёрный бриллиант","kp_id":"1242329","imdb_id":"tt9815280","world_art_id":null,"type":"movie","add":"2021-07-27 18:48:00","orig_title":"Black Diamond","year":"2019-06-19","translations":["Любительский (многоголосый закадровый) (Синема УС)"],"quality":"webdl","translation":"Любительский (многоголосый закадровый) (Синема УС)","update":"2021-07-28 04:44:54","iframe_src":"//2413.svetacdn.in/si4jsFRrtgrT/movie/52066"},{"id":52065,"title":"13 убийств перед Рождеством","kp_id":"4292980","imdb_id":"tt13665354","world_art_id":null,"type":"movie","add":"2021-07-27 18:42:31","orig_title":"13 Slays Till X-Mas","year":"2020-11-13","translations":["Любительский (многоголосый закадровый) (AlphaProject)"],"quality":"webdl","translation":"Любительский (многоголосый закадровый) (AlphaProject)","update":"2021-07-28 04:43:05","iframe_src":"//2413.svetacdn.in/si4jsFRrtgrT/movie/52065"},{"id":52060,"title":"Мальчик, которого звали папой","kp_id":"465238","imdb_id":"tt1433514","world_art_id":null,"type":"movie","add":"2021-07-27 17:53:44","orig_title":"A Boy Called Dad","year":"2009-06-18","translations":["[EN] Original (English)","Авторский (одноголосый закадровый) (Кузнецов Сергей)"],"quality":"webdl","translation":"[EN] Original (English)","update":"2021-07-28 06:26:44","iframe_src":"//2413.svetacdn.in/si4jsFRrtgrT/movie/52060"},{"id":52059,"title":"Помощники","kp_id":"687297","imdb_id":"tt1854582","world_art_id":null,"type":"movie","add":"2021-07-27 17:51:58","orig_title":"The Helpers","year":"2012-01-01","translations":["[EN] Original (English)","Полное дублирование (Back Board Cinema | Студийная Банда)"],"quality":"webdl","translation":"[EN] Original (English)","update":"2021-07-28 06:29:24","iframe_src":"//2413.svetacdn.in/si4jsFRrtgrT/movie/52059"},{"id":50905,"title":"Последний выстрел","kp_id":"197728","imdb_id":"tt0075083","world_art_id":null,"type":"movie","add":"2021-06-03 16:03:13","orig_title":"La polizia accusa: il servizio segreto uccide","year":"1975-04-05","translations":["Полное дублирование (Ленфильм)","Профессиональный (многоголосый закадровый)"],"quality":"bd","translation":"Полное дублирование (Ленфильм)","update":"2021-07-28 07:11:34","iframe_src":"//2413.svetacdn.in/si4jsFRrtgrT/movie/50905"},{"id":50493,"title":"Беги без оглядки","kp_id":"1605","imdb_id":"tt0091875","world_art_id":null,"type":"movie","add":"2021-05-19 09:32:29","orig_title":"Running Scared","year":"1986-06-27","translations":["Авторский (одноголосый закадровый) (Михалёв Алексей)","Профессиональный (двухголосый закадровый) (НТВ)","[EN] Original (English)","Авторский (одноголосый закадровый) (Володарский Леонид)"],"quality":"hdtv","translation":"Авторский (одноголосый закадровый) (Михалёв Алексей)","update":"2021-07-28 06:58:37","iframe_src":"//2413.svetacdn.in/si4jsFRrtgrT/movie/50493"},{"id":50446,"title":"Даффи Дак: Фантастический остров","kp_id":"33820","imdb_id":"tt0085390","world_art_id":null,"type":"movie","add":"2021-05-17 17:07:16","orig_title":"Daffy Duck's Movie: Fantastic Island","year":"1983-08-05","translations":["Полное дублирование (СТС)","[EN] Original (English)","Авторский (одноголосый закадровый) (Дохалов Вартан)"],"quality":"webdl","translation":"Полное дублирование (СТС)","update":"2021-07-28 06:38:25","iframe_src":"//2413.svetacdn.in/si4jsFRrtgrT/movie/50446"},{"id":49713,"title":"Континентальный водораздел","kp_id":"7117","imdb_id":"tt0082200","world_art_id":null,"type":"movie","add":"2021-04-19 09:29:56","orig_title":"Continental Divide","year":"1981-09-01","translations":["Полное дублирование (SDI Media | Iyuno-SDI Group Russia)","Профессиональный (многоголосый закадровый) (Настроение Видео)","[EN] Original (English)"],"quality":"bd","translation":"Полное дублирование (SDI Media | Iyuno-SDI Group Russia)","update":"2021-07-28 07:18:10","iframe_src":"//2413.svetacdn.in/si4jsFRrtgrT/movie/49713"},{"id":48904,"title":"Опасный Джонни","kp_id":"11887","imdb_id":"tt0087507","world_art_id":null,"type":"movie","add":"2021-03-19 06:04:26","orig_title":"Johnny Dangerously","year":"1984-12-21","translations":["Профессиональный (многоголосый закадровый)","[EN] Original (English)","Авторский (одноголосый закадровый) (Михалёв Алексей)"],"quality":"webdl","translation":"Профессиональный (многоголосый закадровый)","update":"2021-07-28 06:36:11","iframe_src":"//2413.svetacdn.in/si4jsFRrtgrT/movie/48904"},{"id":48787,"title":"Тяжелые времена","kp_id":"2716","imdb_id":"tt0073092","world_art_id":null,"type":"movie","add":"2021-03-16 05:43:57","orig_title":"Hard Times","year":"1975-08-13","translations":["Профессиональный (многоголосый закадровый) (5-й канал СПб)","[EN] Original (English)","Авторский (одноголосый закадровый) (Визгунов Сергей)"],"quality":"bd","translation":"Профессиональный (многоголосый закадровый) (5-й канал СПб)","update":"2021-07-28 07:12:37","iframe_src":"//2413.svetacdn.in/si4jsFRrtgrT/movie/48787"},{"id":48673,"title":"Макбет","kp_id":"8551","imdb_id":"tt0040558","world_art_id":null,"type":"movie","add":"2021-03-12 08:18:08","orig_title":"Macbeth","year":"1948-09-03","translations":["Профессиональный (многоголосый закадровый) (ВГТРК)","[EN] Original (English)","Любительский (одноголосый закадровый)"],"quality":"bd","translation":"Профессиональный (многоголосый закадровый) (ВГТРК)","update":"2021-07-28 07:15:26","iframe_src":"//2413.svetacdn.in/si4jsFRrtgrT/movie/48673"},{"id":48662,"title":"Враг за дверью","kp_id":"9751","imdb_id":"tt0067773","world_art_id":null,"type":"movie","add":"2021-03-12 05:18:53","orig_title":"Quelqu'un derrière la porte","year":"1971-07-28","translations":["Профессиональный (двухголосый закадровый) (Первый канал | ОРТ)","Авторский (одноголосый закадровый) (Гаврилов Андрей)","[EN] Original (English)"],"quality":"bd","translation":"Профессиональный (двухголосый закадровый) (Первый канал | ОРТ)","update":"2021-07-28 07:05:58","iframe_src":"//2413.svetacdn.in/si4jsFRrtgrT/movie/48662"},{"id":48381,"title":"Кони Вальдеса","kp_id":"13588","imdb_id":"tt0069833","world_art_id":null,"type":"movie","add":"2021-03-03 09:27:00","orig_title":"Valdez il mezzosangue","year":"1973-09-14","translations":["Профессиональный (многоголосый закадровый) (5-й канал СПб)","Авторский (одноголосый закадровый) (Штейн Владимир)","[EN] Original (English)","Авторский (одноголосый закадровый) (Алексеев Антон)"],"quality":"bd","translation":"Профессиональный (многоголосый закадровый) (5-й канал СПб)","update":"2021-07-28 07:01:18","iframe_src":"//2413.svetacdn.in/si4jsFRrtgrT/movie/48381"},{"id":36076,"title":"Дерево","kp_id":"485295","imdb_id":"tt1496005","world_art_id":null,"type":"movie","add":"2020-02-11 17:14:58","orig_title":"The Tree","year":"2010-05-23","translations":["Профессиональный (одноголосый закадровый)","[EN] Original (English)","Профессиональный (одноголосый закадровый) (НТВ)","Профессиональный (многоголосый закадровый) (Культура | Россия К)"],"quality":"hdrip","translation":"Профессиональный (одноголосый закадровый)","update":"2021-07-28 07:23:30","iframe_src":"//2413.svetacdn.in/si4jsFRrtgrT/movie/36076"},{"id":30801,"title":"Побег","kp_id":"64055","imdb_id":"tt0077295","world_art_id":null,"type":"movie","add":"2019-09-12 05:35:31","orig_title":"La carapate","year":"1978-10-11","translations":["Профессиональный (многоголосый закадровый) (Союз Видео)","Профессиональный (многоголосый закадровый) (Союз Видео)","Полное дублирование (Киностудия им. Горького)"],"quality":"webdl","translation":"Профессиональный (многоголосый закадровый) (Союз Видео)","update":"2021-07-28 06:19:47","iframe_src":"//2413.svetacdn.in/si4jsFRrtgrT/movie/30801"},{"id":2877,"title":"Правдоподобные истории Нила Геймана","kp_id":"943960","imdb_id":"tt5182786","world_art_id":null,"type":"serial","add":"2018-06-29 09:57:59","orig_title":"Neil Gaiman's Likely Stories","year":"2016-05-26","translations":["Любительский (многоголосый закадровый) (GreenРай Studio)"],"seasons_count":1,"episodes_count":4,"episodes":4,"update":"2018-06-29 17:13:55","iframe_src":"//2413.svetacdn.in/si4jsFRrtgrT/tv-series/2877"},{"id":2871,"title":"Розанна","kp_id":"277673","imdb_id":"tt0094540","world_art_id":null,"type":"serial","add":"2018-06-27 07:10:24","orig_title":"Roseanne","year":"1988-10-18","translations":["Профессиональный (многоголосый закадровый)"],"seasons_count":1,"episodes_count":9,"episodes":9,"update":"2018-06-28 11:28:05","iframe_src":"//2413.svetacdn.in/si4jsFRrtgrT/tv-series/2871"},{"id":2870,"title":"Баллада об Уго Санчезе","kp_id":null,"imdb_id":"tt8498114","world_art_id":null,"type":"serial","add":"2018-06-26 22:47:25","orig_title":"La Balada de Hugo Sanchez","year":"2018-06-17","translations":["Любительский (двухголосый закадровый) (Sunshine Studio)"],"seasons_count":1,"episodes_count":6,"episodes":6,"update":"2018-06-27 13:43:11","iframe_src":"//2413.svetacdn.in/si4jsFRrtgrT/tv-series/2870"},{"id":2869,"title":"Чужие родные","kp_id":"1115147","imdb_id":null,"world_art_id":null,"type":"serial","add":"2018-06-26 22:38:24","orig_title":"Чужие родные","year":"2018-06-25","translations":["Оригинальная дорожка"],"seasons_count":1,"episodes_count":8,"episodes":8,"update":"2018-06-27 13:29:07","iframe_src":"//2413.svetacdn.in/si4jsFRrtgrT/tv-series/2869"},{"id":2867,"title":"Пленница","kp_id":"1121463","imdb_id":"tt7975550","world_art_id":null,"type":"serial","add":"2018-06-25 16:36:25","orig_title":"Tutsak","year":"2017-09-19","translations":["Любительский (двухголосый закадровый) (TurkStar)"],"seasons_count":1,"episodes_count":9,"episodes":9,"update":"2018-06-29 06:59:17","iframe_src":"//2413.svetacdn.in/si4jsFRrtgrT/tv-series/2867"},{"id":2863,"title":"По щучьему велению","kp_id":"1115298","imdb_id":"tt8394098","world_art_id":null,"type":"serial","add":"2018-06-24 07:09:30","orig_title":"Po shchuchemu veleniyu","year":"2018-03-18","translations":["Оригинальная дорожка"],"seasons_count":1,"episodes_count":2,"episodes":2,"update":"2018-06-29 06:51:09","iframe_src":"//2413.svetacdn.in/si4jsFRrtgrT/tv-series/2863"},{"id":2862,"title":"Приличная семья сдаст комнату","kp_id":"1115062","imdb_id":null,"world_art_id":null,"type":"serial","add":"2018-06-24 07:06:46","orig_title":"Приличная семья сдаст комнату","year":"2018-04-14","translations":["Оригинальная дорожка"],"seasons_count":1,"episodes_count":2,"episodes":2,"update":"2018-06-29 06:49:22","iframe_src":"//2413.svetacdn.in/si4jsFRrtgrT/tv-series/2862"},{"id":2861,"title":"Незнакомка в зеркале","kp_id":"1115547","imdb_id":null,"world_art_id":null,"type":"serial","add":"2018-06-24 07:04:18","orig_title":"Незнакомка в зеркале","year":"2018-04-21","translations":["Оригинальная дорожка"],"seasons_count":1,"episodes_count":2,"episodes":2,"update":"2018-06-29 06:47:18","iframe_src":"//2413.svetacdn.in/si4jsFRrtgrT/tv-series/2861"},{"id":2848,"title":"Моя девушка – Кумихо","kp_id":"574910","imdb_id":"tt2255085","world_art_id":null,"type":"serial","add":"2018-06-19 11:44:34","orig_title":"Nae Yeojachingooneun Goomiho","year":"2010-08-11","translations":["Любительский (двухголосый закадровый) (GREEN TEA)"],"seasons_count":1,"episodes_count":16,"episodes":16,"update":"2018-06-27 12:02:21","iframe_src":"//2413.svetacdn.in/si4jsFRrtgrT/tv-series/2848"},{"id":2844,"title":"Садовое кольцо","kp_id":"982733","imdb_id":null,"world_art_id":null,"type":"serial","add":"2018-06-19 07:47:49","orig_title":"Садовое кольцо","year":"2018-06-18","translations":["Оригинальная дорожка"],"seasons_count":1,"episodes_count":12,"episodes":12,"update":"2018-07-02 22:44:37","iframe_src":"//2413.svetacdn.in/si4jsFRrtgrT/tv-series/2844"},{"id":2841,"title":"Надломленные души","kp_id":"1142533","imdb_id":null,"world_art_id":null,"type":"serial","add":"2018-06-18 11:11:05","orig_title":"Надломленные души","year":"2018-06-02","translations":["Оригинальная дорожка"],"seasons_count":1,"episodes_count":2,"episodes":2,"update":"2018-06-29 06:44:43","iframe_src":"//2413.svetacdn.in/si4jsFRrtgrT/tv-series/2841"},{"id":2840,"title":"На пороге любви","kp_id":"1047823","imdb_id":null,"world_art_id":null,"type":"serial","add":"2018-06-18 11:09:21","orig_title":"На пороге любви","year":"2018-05-08","translations":["Оригинальная дорожка"],"seasons_count":1,"episodes_count":2,"episodes":2,"update":"2018-06-29 06:42:35","iframe_src":"//2413.svetacdn.in/si4jsFRrtgrT/tv-series/2840"},{"id":2802,"title":"Клуб обманутых жен","kp_id":"1159407","imdb_id":null,"world_art_id":null,"type":"serial","add":"2018-06-13 05:48:41","orig_title":"Клуб обманутых жен","year":"2018-06-12","translations":["Оригинальная дорожка"],"seasons_count":1,"episodes_count":2,"episodes":2,"update":"2018-06-28 15:29:32","iframe_src":"//2413.svetacdn.in/si4jsFRrtgrT/tv-series/2802"},{"id":2793,"title":"Пасечник 2","kp_id":"842832","imdb_id":null,"world_art_id":null,"type":"serial","add":"2018-06-11 14:07:08","orig_title":"Пасечник 2","year":"2016-02-15","translations":["Оригинальная дорожка"],"seasons_count":1,"episodes_count":32,"episodes":32,"update":"2018-06-28 09:51:02","iframe_src":"//2413.svetacdn.in/si4jsFRrtgrT/tv-series/2793"},{"id":2748,"title":"Богатый парень","kp_id":"1072950","imdb_id":"tt8178468","world_art_id":null,"type":"serial","add":"2018-06-06 08:54:23","orig_title":"Ri-cheu Maen","year":"2018-05-09","translations":["Любительский (двухголосый закадровый) (SoftBox)"],"seasons_count":1,"episodes_count":16,"episodes":16,"update":"2018-07-02 11:59:51","iframe_src":"//2413.svetacdn.in/si4jsFRrtgrT/tv-series/2748"},{"id":2731,"title":"Участковый","kp_id":"585202","imdb_id":"tt3613462","world_art_id":null,"type":"serial","add":"2018-06-04 12:50:20","orig_title":"Uchastkovyy","year":"2012-03-26","translations":["Оригинальная дорожка"],"seasons_count":1,"episodes_count":24,"episodes":24,"update":"2018-06-29 14:29:42","iframe_src":"//2413.svetacdn.in/si4jsFRrtgrT/tv-series/2731"},{"id":2237,"title":"Пожизненный приговор","kp_id":"1014288","imdb_id":"tt6088922","world_art_id":null,"type":"serial","add":"2018-03-16 11:12:15","orig_title":"Life Sentence","year":"2018-03-07","translations":["Профессиональный (многоголосый закадровый) (IdeaFilm)","Профессиональный (многоголосый закадровый) (NewStudio)"],"seasons_count":1,"episodes_count":13,"episodes":13,"update":"2018-06-28 22:41:29","iframe_src":"//2413.svetacdn.in/si4jsFRrtgrT/tv-series/2237"},{"id":1948,"title":"Миниатюрист","kp_id":"1045336","imdb_id":"tt6889090","world_art_id":null,"type":"serial","add":"2018-01-14 14:15:59","orig_title":"The Miniaturist","year":"2017-12-26","translations":["Профессиональный (многоголосый закадровый)","Профессиональный (многоголосый закадровый) (GreenРай Studio)","Любительский (многоголосый закадровый) (ColdFilm)"],"seasons_count":1,"episodes_count":2,"episodes":2,"update":"2018-06-27 12:14:26","iframe_src":"//2413.svetacdn.in/si4jsFRrtgrT/tv-series/1948"},{"id":1387,"title":"Уилл","kp_id":"978869","imdb_id":"tt5734140","world_art_id":null,"type":"serial","add":"2017-07-12 05:30:09","orig_title":"Will","year":"2017-07-10","translations":["Профессиональный (многоголосый закадровый) (BaibaKo)","Профессиональный (многоголосый закадровый) (LostFilm)"],"seasons_count":1,"episodes_count":10,"episodes":10,"update":"2018-06-27 15:34:52","iframe_src":"//2413.svetacdn.in/si4jsFRrtgrT/tv-series/1387"},{"id":1346,"title":"Никто","kp_id":"970065","imdb_id":"tt4925366","world_art_id":null,"type":"serial","add":"2017-07-02 08:17:41","orig_title":"Nobodies","year":"2017-03-29","translations":["Профессиональный (многоголосый закадровый) (Ozz.tv)"],"seasons_count":2,"episodes_count":24,"episodes":12,"update":"2018-06-28 09:21:33","iframe_src":"//2413.svetacdn.in/si4jsFRrtgrT/tv-series/1346"},{"id":6776,"title":"Возвращение в Голубую лагуну","kp_id":"24188","imdb_id":"tt0102782","world_art_id":null,"type":"movie","add":"2016-10-28 05:44:17","orig_title":"Return to the Blue Lagoon","year":"1991-08-02","translations":["Профессиональный (многоголосый закадровый)","Авторский (одноголосый закадровый) (Живов Юрий)","[EN] Original (English)","Профессиональный (многоголосый закадровый)","Профессиональный (многоголосый закадровый) (СТС)","Профессиональный (многоголосый закадровый) (iTunes)","Профессиональный (многоголосый закадровый) (Первый канал | ОРТ)"],"quality":"webdl","translation":"Профессиональный (многоголосый закадровый)","update":"2021-07-28 07:59:53","iframe_src":"//2413.svetacdn.in/si4jsFRrtgrT/movie/6776"},{"id":6775,"title":"Голубая лагуна","kp_id":"32864","imdb_id":"tt0080453","world_art_id":null,"type":"movie","add":"2016-10-28 05:43:28","orig_title":"The Blue Lagoon","year":"1980-06-20","translations":["Полное дублирование","Авторский (одноголосый закадровый) (Горчаков Василий)","Авторский (одноголосый закадровый) (Живов Юрий)","Полное дублирование (Варус-Видео)","[EN] Original (English)","Профессиональный (многоголосый закадровый) (Первый канал | ОРТ)","Профессиональный (многоголосый закадровый)"],"quality":"bd","translation":"Полное дублирование","update":"2021-07-28 08:10:20","iframe_src":"//2413.svetacdn.in/si4jsFRrtgrT/movie/6775"}],"current_page":527,"first_page_url":"https://videocdn.tv/api/short?limit=100&api_token=X6EwAUfE5M9xbo7y0Bp0aPf3uXxG2KLL&cache3527=3527&page=1","from":52601,"last_page":720,"last_page_url":"https://videocdn.tv/api/short?limit=100&api_token=X6EwAUfE5M9xbo7y0Bp0aPf3uXxG2KLL&cache3527=3527&page=720","next_page_url":"https://videocdn.tv/api/short?limit=100&api_token=X6EwAUfE5M9xbo7y0Bp0aPf3uXxG2KLL&cache3527=3527&page=528","path":"https://videocdn.tv/api/short","per_page":100,"prev_page_url":"https://videocdn.tv/api/short?limit=100&api_token=X6EwAUfE5M9xbo7y0Bp0aPf3uXxG2KLL&cache3527=3527&page=526","to":52640,"total":71934}