{"result":true,"data":[{"id":11900,"title":"Резня в стрип-клубе","kp_id":"942561","imdb_id":"tt4881430","world_art_id":null,"type":"movie","add":"2017-06-10 05:18:58","orig_title":"Strip Club Massacre","year":"2017-05-02","translations":["Любительский (многоголосый закадровый) (Синема УС)"],"quality":"webdl","translation":"Любительский (многоголосый закадровый) (Синема УС)","update":"2017-06-12 04:18:42","iframe_src":"//7741.svetacdn.in/IAF0wWTdNYZm/movie/11900"},{"id":11898,"title":"Слепая Зона","kp_id":"968954","imdb_id":"tt5546540","world_art_id":null,"type":"movie","add":"2017-06-10 05:02:24","orig_title":"Dode Hoek","year":"2017-01-25","translations":["Любительский (многоголосый закадровый) (Синема УС)"],"quality":"bd","translation":"Любительский (многоголосый закадровый) (Синема УС)","update":"2017-06-12 04:33:16","iframe_src":"//7741.svetacdn.in/IAF0wWTdNYZm/movie/11898"},{"id":11897,"title":"Заключенная","kp_id":"878063","imdb_id":"tt3750238","world_art_id":null,"type":"movie","add":"2017-06-10 04:59:46","orig_title":"Besetment","year":"2017-06-06","translations":["Любительский (многоголосый закадровый) (Синема УС)"],"quality":"webdl","translation":"Любительский (многоголосый закадровый) (Синема УС)","update":"2017-06-12 04:35:57","iframe_src":"//7741.svetacdn.in/IAF0wWTdNYZm/movie/11897"},{"id":11896,"title":"Самоволка","kp_id":"893209","imdb_id":"tt4462372","world_art_id":null,"type":"movie","add":"2017-06-10 04:58:14","orig_title":"AWOL","year":"2016-04-15","translations":["Любительский (многоголосый закадровый) (Синема УС)"],"quality":"webdl","translation":"Любительский (многоголосый закадровый) (Синема УС)","update":"2017-06-12 04:38:03","iframe_src":"//7741.svetacdn.in/IAF0wWTdNYZm/movie/11896"},{"id":11895,"title":"Альянс сил","kp_id":"857608","imdb_id":"tt3602588","world_art_id":null,"type":"movie","add":"2017-06-10 04:55:26","orig_title":"Allegiance of Powers","year":"2016-01-01","translations":["Любительский (многоголосый закадровый) (Синема УС)"],"quality":"webdl","translation":"Любительский (многоголосый закадровый) (Синема УС)","update":"2017-06-12 04:40:15","iframe_src":"//7741.svetacdn.in/IAF0wWTdNYZm/movie/11895"},{"id":11894,"title":"Кровь Аарона","kp_id":"852179","imdb_id":"tt3898776","world_art_id":null,"type":"movie","add":"2017-06-10 04:53:35","orig_title":"Aaron's Blood","year":"2016-05-27","translations":["Любительский (многоголосый закадровый) (Синема УС)"],"quality":"webdl","translation":"Любительский (многоголосый закадровый) (Синема УС)","update":"2017-06-12 04:42:35","iframe_src":"//7741.svetacdn.in/IAF0wWTdNYZm/movie/11894"},{"id":11891,"title":"200 Градусов","kp_id":"934810","imdb_id":"tt4762592","world_art_id":null,"type":"movie","add":"2017-06-10 04:05:42","orig_title":"200 Degrees","year":"2017-06-06","translations":["Любительский (одноголосый закадровый) (Хихикающий доктор)"],"quality":"webdl","translation":"Любительский (одноголосый закадровый) (Хихикающий доктор)","update":"2017-06-10 06:24:24","iframe_src":"//7741.svetacdn.in/IAF0wWTdNYZm/movie/11891"},{"id":11881,"title":"Комплекс","kp_id":"722878","imdb_id":"tt2493466","world_art_id":null,"type":"movie","add":"2017-06-09 14:17:11","orig_title":"Kuroyuri danchi","year":"2013-01-27","translations":["Любительский (двухголосый закадровый) (DeadSno & den904)"],"quality":"bd","translation":"Любительский (двухголосый закадровый) (DeadSno & den904)","update":"2017-06-12 09:32:26","iframe_src":"//7741.svetacdn.in/IAF0wWTdNYZm/movie/11881"},{"id":11880,"title":"Башня","kp_id":"708259","imdb_id":"tt2554270","world_art_id":null,"type":"movie","add":"2017-06-09 14:15:50","orig_title":"Tawo","year":"2012-12-25","translations":["Любительский (двухголосый закадровый) (DeadSno & den904)"],"quality":"bd","translation":"Любительский (двухголосый закадровый) (DeadSno & den904)","update":"2017-06-12 09:31:00","iframe_src":"//7741.svetacdn.in/IAF0wWTdNYZm/movie/11880"},{"id":11878,"title":"Мадам Пэндок","kp_id":"843244","imdb_id":"tt3958014","world_art_id":null,"type":"movie","add":"2017-06-09 14:07:10","orig_title":"Madam ppang-deok","year":"2014-09-04","translations":["Любительский (двухголосый закадровый) (DeadSno & den904)"],"quality":"bd","translation":"Любительский (двухголосый закадровый) (DeadSno & den904)","update":"2017-06-12 09:28:22","iframe_src":"//7741.svetacdn.in/IAF0wWTdNYZm/movie/11878"},{"id":11877,"title":"Беспомощность","kp_id":"673361","imdb_id":"tt2308725","world_art_id":null,"type":"movie","add":"2017-06-09 14:03:10","orig_title":"Hwacha","year":"2012-03-08","translations":["Любительский (двухголосый закадровый) (DeadSno & den904)"],"quality":"bd","translation":"Любительский (двухголосый закадровый) (DeadSno & den904)","update":"2017-06-12 09:27:12","iframe_src":"//7741.svetacdn.in/IAF0wWTdNYZm/movie/11877"},{"id":11876,"title":"Убийственная мультипликация","kp_id":"764046","imdb_id":"tt2973516","world_art_id":null,"type":"movie","add":"2017-06-09 14:01:52","orig_title":"Deo webtoon: yeogosalin","year":"2013-06-27","translations":["Любительский (двухголосый закадровый) (DeadSno & den904)"],"quality":"bd","translation":"Любительский (двухголосый закадровый) (DeadSno & den904)","update":"2017-06-12 06:04:51","iframe_src":"//7741.svetacdn.in/IAF0wWTdNYZm/movie/11876"},{"id":11875,"title":"Трупное окоченение","kp_id":"745309","imdb_id":"tt2771800","world_art_id":null,"type":"movie","add":"2017-06-09 14:00:34","orig_title":"Geung si","year":"2013-08-30","translations":["Любительский (двухголосый закадровый) (DeadSno & den904)"],"quality":"bd","translation":"Любительский (двухголосый закадровый) (DeadSno & den904)","update":"2017-06-12 06:03:12","iframe_src":"//7741.svetacdn.in/IAF0wWTdNYZm/movie/11875"},{"id":11874,"title":"О, Интернет! Грезы цифрового мира","kp_id":"954061","imdb_id":"tt5275828","world_art_id":null,"type":"movie","add":"2017-06-09 13:59:25","orig_title":"Lo and Behold, Reveries of the Connected World","year":"2016-01-23","translations":["Любительский (одноголосый закадровый)"],"quality":"bd","translation":"Любительский (одноголосый закадровый)","update":"2017-06-12 06:01:31","iframe_src":"//7741.svetacdn.in/IAF0wWTdNYZm/movie/11874"},{"id":11872,"title":"Школа Эвер Афтер: День коронации","kp_id":"929809","imdb_id":"tt4975572","world_art_id":null,"type":"movie","add":"2017-06-09 13:57:10","orig_title":"Ever After High: Thronecoming","year":"2014-11-02","translations":["Полное дублирование"],"quality":"webdl","translation":"Полное дублирование","update":"2017-06-12 04:54:37","iframe_src":"//7741.svetacdn.in/IAF0wWTdNYZm/movie/11872"},{"id":11871,"title":"Апокалипсис Джека Дэдмэна","kp_id":"902743","imdb_id":"tt4606498","world_art_id":null,"type":"movie","add":"2017-06-09 13:55:21","orig_title":"Deadman Apocalypse","year":"2016-06-14","translations":["Любительский (одноголосый закадровый) (Хихикающий доктор)"],"quality":"webdl","translation":"Любительский (одноголосый закадровый) (Хихикающий доктор)","update":"2017-06-12 04:53:55","iframe_src":"//7741.svetacdn.in/IAF0wWTdNYZm/movie/11871"},{"id":11839,"title":"Дэвид Блейн: Реальность или магия","kp_id":"877683","imdb_id":"tt3345310","world_art_id":null,"type":"movie","add":"2017-06-07 10:50:14","orig_title":"David Blaine: Real or Magic","year":"2013-11-19","translations":["Профессиональный (многоголосый закадровый) (Первый канал | ОРТ)"],"quality":"hdtv","translation":"Профессиональный (многоголосый закадровый) (Первый канал | ОРТ)","update":"2017-06-12 04:49:59","iframe_src":"//7741.svetacdn.in/IAF0wWTdNYZm/movie/11839"},{"id":11835,"title":"Убийство на 100 миллионов","kp_id":"756895","imdb_id":null,"world_art_id":null,"type":"movie","add":"2017-06-07 10:45:25","orig_title":"Убийство на 100 миллионов","year":"2013-04-25","translations":["Оригинальная дорожка"],"quality":"hdtv","translation":"Оригинальная дорожка","update":"2017-06-12 04:48:13","iframe_src":"//7741.svetacdn.in/IAF0wWTdNYZm/movie/11835"},{"id":11638,"title":"Париж подождет","kp_id":"886169","imdb_id":"tt4429194","world_art_id":null,"type":"movie","add":"2017-05-22 05:06:30","orig_title":"Paris Can Wait","year":"2016-09-12","translations":["Полное дублирование"],"quality":"webdl","translation":"Полное дублирование","update":"2017-06-10 06:02:39","iframe_src":"//7741.svetacdn.in/IAF0wWTdNYZm/movie/11638"},{"id":9639,"title":"Доспехи бога: В поисках сокровищ","kp_id":"851808","imdb_id":"tt4217392","world_art_id":null,"type":"movie","add":"2017-02-13 10:28:40","orig_title":"Gong fu yu jia","year":"2017-01-26","translations":["Любительский (многоголосый закадровый) (Колобок)","Полное дублирование (iTunes)"],"quality":"webdl","translation":"Любительский (многоголосый закадровый) (Колобок)","update":"2017-06-12 04:26:04","iframe_src":"//7741.svetacdn.in/IAF0wWTdNYZm/movie/9639"}],"current_page":2436,"first_page_url":"https://videocdn.tv/api/short?limit=100&api_token=6Onb1W1alEUrBcKJZD3GoKBbWyAl2uG2&cache32436=32436&page=1","from":243501,"last_page":706,"last_page_url":"https://videocdn.tv/api/short?limit=100&api_token=6Onb1W1alEUrBcKJZD3GoKBbWyAl2uG2&cache32436=32436&page=706","next_page_url":null,"path":"https://videocdn.tv/api/short","per_page":100,"prev_page_url":"https://videocdn.tv/api/short?limit=100&api_token=6Onb1W1alEUrBcKJZD3GoKBbWyAl2uG2&cache32436=32436&page=2435","to":243520,"total":70558}