{"result":true,"data":[{"id":34015,"title":"Красный и розовый","kp_id":"820142","imdb_id":"tt3456784","world_art_id":null,"type":"movie","add":"2019-12-12 15:40:53","orig_title":"Aka x Pinku","year":"2014-02-22","translations":["Любительский (одноголосый закадровый) (den904)"],"quality":"bd","translation":"Любительский (одноголосый закадровый) (den904)","update":"2019-12-13 12:19:30","iframe_src":"//83.svetacdn.in/PfJ50H0ZBPg3/movie/34015"},{"id":34014,"title":"Ли Рок 2","kp_id":"171792","imdb_id":"tt0105846","world_art_id":null,"type":"movie","add":"2019-12-12 15:37:47","orig_title":"Ng yi tam jeung: Lui Lok juen - Part II","year":"1991-10-10","translations":["Любительский (одноголосый закадровый) (Береговых Виктор | Jet)"],"quality":"bd","translation":"Любительский (одноголосый закадровый) (Береговых Виктор | Jet)","update":"2019-12-13 12:18:05","iframe_src":"//83.svetacdn.in/PfJ50H0ZBPg3/movie/34014"},{"id":34013,"title":"Мутная река","kp_id":"143796","imdb_id":"tt0082280","world_art_id":null,"type":"movie","add":"2019-12-12 15:35:03","orig_title":"Doro no kawa","year":"1981-01-30","translations":["Любительский (одноголосый закадровый) (Береговых Виктор | Jet)"],"quality":"webdl","translation":"Любительский (одноголосый закадровый) (Береговых Виктор | Jet)","update":"2019-12-13 12:17:35","iframe_src":"//83.svetacdn.in/PfJ50H0ZBPg3/movie/34013"},{"id":34012,"title":"Пират","kp_id":"65195","imdb_id":"tt0068442","world_art_id":null,"type":"movie","add":"2019-12-12 15:31:47","orig_title":"Da hai dao","year":"1973-07-27","translations":["Любительский (одноголосый закадровый) (Береговых Виктор | Jet)"],"quality":"bd","translation":"Любительский (одноголосый закадровый) (Береговых Виктор | Jet)","update":"2019-12-13 12:16:53","iframe_src":"//83.svetacdn.in/PfJ50H0ZBPg3/movie/34012"},{"id":34011,"title":"Точка замерзания","kp_id":"123076","imdb_id":"tt0060528","world_art_id":null,"type":"movie","add":"2019-12-12 15:26:26","orig_title":"Hyoten","year":"1966-03-26","translations":["Любительский (одноголосый закадровый) (Береговых Виктор | Jet)"],"quality":"webdl","translation":"Любительский (одноголосый закадровый) (Береговых Виктор | Jet)","update":"2019-12-13 12:11:32","iframe_src":"//83.svetacdn.in/PfJ50H0ZBPg3/movie/34011"},{"id":34010,"title":"Встречи с привидениями","kp_id":"37164","imdb_id":"tt0080827","world_art_id":null,"type":"movie","add":"2019-12-12 15:23:55","orig_title":"Gui da gui","year":"1980-12-24","translations":["Авторский (одноголосый закадровый) (Кузнецов Сергей)"],"quality":"bd","translation":"Авторский (одноголосый закадровый) (Кузнецов Сергей)","update":"2019-12-13 12:10:55","iframe_src":"//83.svetacdn.in/PfJ50H0ZBPg3/movie/34010"},{"id":34009,"title":"Идентичность меча","kp_id":"619450","imdb_id":"tt2044077","world_art_id":null,"type":"movie","add":"2019-12-12 15:21:02","orig_title":"Wo kou de zong ji","year":"2011-09-06","translations":["Любительский (одноголосый закадровый) (den904)"],"quality":"bd","translation":"Любительский (одноголосый закадровый) (den904)","update":"2019-12-13 12:09:36","iframe_src":"//83.svetacdn.in/PfJ50H0ZBPg3/movie/34009"},{"id":34008,"title":"Дон Сезар де Базан","kp_id":"85130","imdb_id":"tt0309526","world_art_id":null,"type":"movie","add":"2019-12-12 14:48:21","orig_title":"Don Sezar de Bazan","year":"1989-07-04","translations":["Оригинальная дорожка"],"quality":"dvdrip","translation":"Оригинальная дорожка","update":"2019-12-12 20:00:33","iframe_src":"//83.svetacdn.in/PfJ50H0ZBPg3/movie/34008"},{"id":34007,"title":"Клара","kp_id":"1287548","imdb_id":"tt4449562","world_art_id":null,"type":"movie","add":"2019-12-12 13:24:17","orig_title":"Clara","year":"2019-10-25","translations":["Полное дублирование (iTunes)"],"quality":"webdl","translation":"Полное дублирование (iTunes)","update":"2019-12-12 16:49:27","iframe_src":"//83.svetacdn.in/PfJ50H0ZBPg3/movie/34007"},{"id":33995,"title":"Королева Румынии - Мария","kp_id":"1200851","imdb_id":"tt9110902","world_art_id":null,"type":"movie","add":"2019-12-12 05:46:50","orig_title":"Queen Marie of Romania","year":"2019-06-15","translations":["Любительский (многоголосый закадровый) (Синема УС)"],"quality":"webdl","translation":"Любительский (многоголосый закадровый) (Синема УС)","update":"2019-12-12 11:42:30","iframe_src":"//83.svetacdn.in/PfJ50H0ZBPg3/movie/33995"},{"id":33986,"title":"Аврора","kp_id":"1180493","imdb_id":"tt8821182","world_art_id":null,"type":"movie","add":"2019-12-11 22:02:03","orig_title":"Aurora","year":"2018-12-25","translations":["Любительский (многоголосый закадровый) (Синема УС)"],"quality":"webdl","translation":"Любительский (многоголосый закадровый) (Синема УС)","update":"2019-12-13 07:19:42","iframe_src":"//83.svetacdn.in/PfJ50H0ZBPg3/movie/33986"},{"id":33985,"title":"Ворота плоти","kp_id":"99690","imdb_id":"tt0058409","world_art_id":null,"type":"movie","add":"2019-12-11 21:58:35","orig_title":"Nikutai no mon","year":"1964-05-31","translations":["Авторский (одноголосый закадровый) (Алексеев Антон)"],"quality":"webdl","translation":"Авторский (одноголосый закадровый) (Алексеев Антон)","update":"2019-12-12 11:33:40","iframe_src":"//83.svetacdn.in/PfJ50H0ZBPg3/movie/33985"},{"id":33984,"title":"Бангкокский адреналин","kp_id":"472189","imdb_id":"tt1442486","world_art_id":null,"type":"movie","add":"2019-12-11 21:55:01","orig_title":"Bangkok Adrenaline","year":"2009-05-14","translations":["Любительский (двухголосый закадровый)"],"quality":"bd","translation":"Любительский (двухголосый закадровый)","update":"2019-12-12 11:32:34","iframe_src":"//83.svetacdn.in/PfJ50H0ZBPg3/movie/33984"},{"id":33983,"title":"Беспокойный","kp_id":"276602","imdb_id":"tt0929261","world_art_id":null,"type":"movie","add":"2019-12-11 21:51:54","orig_title":"Joong-cheon","year":"2006-10-14","translations":["Профессиональный (многоголосый закадровый)"],"quality":"bd","translation":"Профессиональный (многоголосый закадровый)","update":"2019-12-12 11:31:44","iframe_src":"//83.svetacdn.in/PfJ50H0ZBPg3/movie/33983"},{"id":33981,"title":"Город купола","kp_id":"252560","imdb_id":"tt0228499","world_art_id":null,"type":"movie","add":"2019-12-11 21:43:03","orig_title":"Kyûpora no aru machi","year":"1962-04-08","translations":["Любительский (одноголосый закадровый) (Береговых Виктор | Jet)"],"quality":"webdl","translation":"Любительский (одноголосый закадровый) (Береговых Виктор | Jet)","update":"2019-12-12 11:30:36","iframe_src":"//83.svetacdn.in/PfJ50H0ZBPg3/movie/33981"},{"id":33979,"title":"Харизма","kp_id":"1133396","imdb_id":"tt6528136","world_art_id":null,"type":"movie","add":"2019-12-11 21:36:23","orig_title":"Kariseuma","year":"1996-12-21","translations":["Любительский (одноголосый закадровый) (Береговых Виктор | Jet)"],"quality":"dvdrip","translation":"Любительский (одноголосый закадровый) (Береговых Виктор | Jet)","update":"2019-12-12 11:29:50","iframe_src":"//83.svetacdn.in/PfJ50H0ZBPg3/movie/33979"},{"id":33978,"title":"Ли Рок","kp_id":"171793","imdb_id":"tt0103292","world_art_id":null,"type":"movie","add":"2019-12-11 21:33:34","orig_title":"Ng yi taam jeung: Lui Lok juen","year":"1991-09-19","translations":["Любительский (одноголосый закадровый) (Береговых Виктор | Jet)"],"quality":"bd","translation":"Любительский (одноголосый закадровый) (Береговых Виктор | Jet)","update":"2019-12-12 11:28:57","iframe_src":"//83.svetacdn.in/PfJ50H0ZBPg3/movie/33978"},{"id":32885,"title":"Робо","kp_id":"1228540","imdb_id":"tt10397854","world_art_id":null,"type":"movie","add":"2019-11-09 23:57:12","orig_title":"Robo","year":"2019-10-31","translations":["Оригинальная дорожка"],"quality":"webdl","translation":"Оригинальная дорожка","update":"2019-12-12 11:53:16","iframe_src":"//83.svetacdn.in/PfJ50H0ZBPg3/movie/32885"},{"id":28712,"title":"Бандит, полицейский, дьявол","kp_id":"1177510","imdb_id":"tt10208198","world_art_id":null,"type":"movie","add":"2019-07-06 22:28:38","orig_title":"Akinjeon","year":"2019-05-15","translations":["Полное дублирование"],"quality":"bd","translation":"Полное дублирование","update":"2019-12-12 13:01:35","iframe_src":"//83.svetacdn.in/PfJ50H0ZBPg3/movie/28712"},{"id":26052,"title":"Велотачки","kp_id":"1232546","imdb_id":"tt9422468","world_art_id":null,"type":"movie","add":"2019-05-05 22:50:40","orig_title":"Bikes","year":"2019-04-05","translations":["Полное дублирование (iTunes)"],"quality":"webdl","translation":"Полное дублирование (iTunes)","update":"2019-12-12 17:24:19","iframe_src":"//83.svetacdn.in/PfJ50H0ZBPg3/movie/26052"}],"current_page":1035,"first_page_url":"https://videocdn.tv/api/short?limit=100&api_token=RgFQdUIR2dRmwv8iYa5SnFNgnw3vpjKj&cache31035=31035&page=1","from":103401,"last_page":632,"last_page_url":"https://videocdn.tv/api/short?limit=100&api_token=RgFQdUIR2dRmwv8iYa5SnFNgnw3vpjKj&cache31035=31035&page=632","next_page_url":null,"path":"https://videocdn.tv/api/short","per_page":100,"prev_page_url":"https://videocdn.tv/api/short?limit=100&api_token=RgFQdUIR2dRmwv8iYa5SnFNgnw3vpjKj&cache31035=31035&page=1034","to":103420,"total":63189}