{"result":true,"data":[{"id":46912,"title":"Масса воды","kp_id":"1148932","imdb_id":"tt8416316","world_art_id":null,"type":"movie","add":"2021-01-11 18:51:35","orig_title":"Body of Water","year":"2020-02-27","translations":["Любительский (многоголосый закадровый) (@MUZOBOZ@)"],"quality":"webdl","translation":"Любительский (многоголосый закадровый) (@MUZOBOZ@)","update":"2021-01-11 21:01:43","iframe_src":"//8332.svetacdn.in/IAF0wWTdNYZm/movie/46912"},{"id":46909,"title":"Смех сквозь слезы","kp_id":"1287747","imdb_id":"tt5945958","world_art_id":null,"type":"movie","add":"2021-01-11 18:45:31","orig_title":"Hard Laughter","year":"2019-10-05","translations":["Любительский (многоголосый закадровый) (Синема УС)"],"quality":"webdl","translation":"Любительский (многоголосый закадровый) (Синема УС)","update":"2021-01-11 20:49:13","iframe_src":"//8332.svetacdn.in/IAF0wWTdNYZm/movie/46909"},{"id":46908,"title":"Исповедь юного сатаниста","kp_id":"1232009","imdb_id":"tt9500358","world_art_id":null,"type":"movie","add":"2021-01-11 18:43:40","orig_title":"Confessions of a Teenage Satanist","year":"2019-12-16","translations":["Любительский (многоголосый закадровый) (Синема УС)"],"quality":"webdl","translation":"Любительский (многоголосый закадровый) (Синема УС)","update":"2021-01-11 20:49:47","iframe_src":"//8332.svetacdn.in/IAF0wWTdNYZm/movie/46908"},{"id":46905,"title":"Авраам Линкольн против зомби","kp_id":"668597","imdb_id":"tt2246549","world_art_id":null,"type":"movie","add":"2021-01-11 13:15:11","orig_title":"Abraham Lincoln vs. Zombies","year":"2012-05-29","translations":["Любительский (одноголосый закадровый) (Хихикающий доктор)"],"quality":"dvdrip","translation":"Любительский (одноголосый закадровый) (Хихикающий доктор)","update":"2021-01-11 14:12:08","iframe_src":"//8332.svetacdn.in/IAF0wWTdNYZm/movie/46905"},{"id":46895,"title":"Портной","kp_id":"2475208","imdb_id":null,"world_art_id":null,"type":"movie","add":"2021-01-11 06:39:28","orig_title":"Портной","year":"2021-01-07","translations":["Оригинальная дорожка"],"quality":"webdl","translation":"Оригинальная дорожка","update":"2021-01-11 14:07:05","iframe_src":"//8332.svetacdn.in/IAF0wWTdNYZm/movie/46895"},{"id":46845,"title":"Расследование","kp_id":"42053","imdb_id":"tt0230687","world_art_id":null,"type":"movie","add":"2021-01-09 21:22:58","orig_title":"Rassledovaniye","year":"1980-04-01","translations":["Оригинальная дорожка"],"quality":"iptv","translation":"Оригинальная дорожка","update":"2021-01-11 14:24:28","iframe_src":"//8332.svetacdn.in/IAF0wWTdNYZm/movie/46845"},{"id":46844,"title":"Осенние свадьбы","kp_id":"42803","imdb_id":"tt0175009","world_art_id":null,"type":"movie","add":"2021-01-09 21:10:34","orig_title":"Osenniye svadby","year":"1968-08-19","translations":["Оригинальная дорожка"],"quality":"tv","translation":"Оригинальная дорожка","update":"2021-01-11 14:23:23","iframe_src":"//8332.svetacdn.in/IAF0wWTdNYZm/movie/46844"},{"id":46843,"title":"Новый дом","kp_id":"46477","imdb_id":"tt0039670","world_art_id":null,"type":"movie","add":"2021-01-09 21:05:22","orig_title":"Novyy dom","year":"1947-09-10","translations":["Оригинальная дорожка"],"quality":"dvdrip","translation":"Оригинальная дорожка","update":"2021-01-11 14:22:07","iframe_src":"//8332.svetacdn.in/IAF0wWTdNYZm/movie/46843"},{"id":46842,"title":"Гроза над Белой","kp_id":"44609","imdb_id":"tt0347130","world_art_id":null,"type":"movie","add":"2021-01-09 20:58:00","orig_title":"Groza nad beloy","year":"1968-11-04","translations":["Оригинальная дорожка"],"quality":"dvdrip","translation":"Оригинальная дорожка","update":"2021-01-11 14:21:36","iframe_src":"//8332.svetacdn.in/IAF0wWTdNYZm/movie/46842"},{"id":46841,"title":"Домино","kp_id":"234524","imdb_id":"tt0413964","world_art_id":null,"type":"movie","add":"2021-01-09 20:50:07","orig_title":"Domino","year":"1973-01-01","translations":["Оригинальная дорожка"],"quality":"vhs","translation":"Оригинальная дорожка","update":"2021-01-11 14:20:46","iframe_src":"//8332.svetacdn.in/IAF0wWTdNYZm/movie/46841"},{"id":46840,"title":"13 поручений","kp_id":"574634","imdb_id":"tt2807606","world_art_id":null,"type":"movie","add":"2021-01-09 20:44:03","orig_title":"13 porucheniy","year":"1969-07-30","translations":["Оригинальная дорожка"],"quality":"iptv","translation":"Оригинальная дорожка","update":"2021-01-11 14:19:42","iframe_src":"//8332.svetacdn.in/IAF0wWTdNYZm/movie/46840"},{"id":46837,"title":"Разделенная любовь","kp_id":"66621","imdb_id":"tt0355976","world_art_id":null,"type":"movie","add":"2021-01-09 14:49:36","orig_title":"Spodelena lyubov","year":"1980-02-15","translations":["Оригинальная дорожка"],"quality":"sat","translation":"Оригинальная дорожка","update":"2021-01-11 14:19:02","iframe_src":"//8332.svetacdn.in/IAF0wWTdNYZm/movie/46837"},{"id":46830,"title":"Презумпция виновности","kp_id":"1435459","imdb_id":"tt11730570","world_art_id":null,"type":"movie","add":"2021-01-09 10:04:16","orig_title":"Prezumptsiya vinovnosti","year":"2020-01-01","translations":["Оригинальная дорожка"],"quality":"webdl","translation":"Оригинальная дорожка","update":"2021-01-11 14:05:53","iframe_src":"//8332.svetacdn.in/IAF0wWTdNYZm/movie/46830"},{"id":46632,"title":"Сокровища рыцарей: Тайна Милюзины","kp_id":"597598","imdb_id":"tt1935221","world_art_id":null,"type":"movie","add":"2021-01-03 10:33:37","orig_title":"Schatzritter","year":"2012-07-04","translations":["Полное дублирование"],"quality":"bd","translation":"Полное дублирование","update":"2021-01-11 14:39:20","iframe_src":"//8332.svetacdn.in/IAF0wWTdNYZm/movie/46632"},{"id":46628,"title":"Меня зовут Мистер Тиббс!","kp_id":"18536","imdb_id":"tt0066450","world_art_id":null,"type":"movie","add":"2021-01-03 09:48:22","orig_title":"They Call Me Mister Tibbs!","year":"1970-07-08","translations":["Original (English)","Профессиональный (двухголосый закадровый) (НТВ)"],"quality":"bd","translation":"Original (English)","update":"2021-01-12 06:29:13","iframe_src":"//8332.svetacdn.in/IAF0wWTdNYZm/movie/46628"},{"id":38821,"title":"Влипли!","kp_id":"31424","imdb_id":"tt0084945","world_art_id":null,"type":"movie","add":"2020-04-02 14:55:02","orig_title":"Zapped!","year":"1982-09-03","translations":["Авторский (одноголосый закадровый) (Михалёв Алексей)","Авторский (одноголосый закадровый) (Дохалов Вартан)","Original (English)"],"quality":"bd","translation":"Авторский (одноголосый закадровый) (Михалёв Алексей)","update":"2021-01-11 14:30:23","iframe_src":"//8332.svetacdn.in/IAF0wWTdNYZm/movie/38821"},{"id":31960,"title":"Магазинчик за углом","kp_id":"9003","imdb_id":"tt0033045","world_art_id":null,"type":"movie","add":"2019-10-16 05:41:35","orig_title":"The Shop Around the Corner","year":"1940-01-12","translations":["Профессиональный (многоголосый закадровый)","Original (English)","Профессиональный (многоголосый закадровый)"],"quality":"dvdrip","translation":"Профессиональный (многоголосый закадровый)","update":"2021-01-12 06:30:53","iframe_src":"//8332.svetacdn.in/IAF0wWTdNYZm/movie/31960"},{"id":31725,"title":"Садисты Сатаны","kp_id":"34875","imdb_id":"tt0064939","world_art_id":null,"type":"movie","add":"2019-10-11 16:48:35","orig_title":"Satan's Sadists","year":"1969-06-01","translations":["Авторский (одноголосый закадровый) (Карповский Антон)","Авторский (одноголосый закадровый) (Карповский Антон)"],"quality":"dvdrip","translation":"Авторский (одноголосый закадровый) (Карповский Антон)","update":"2021-01-12 06:32:02","iframe_src":"//8332.svetacdn.in/IAF0wWTdNYZm/movie/31725"},{"id":5402,"title":"Заложники","kp_id":"1283473","imdb_id":null,"world_art_id":null,"type":"serial","add":"2019-10-07 11:51:39","orig_title":"Заложники","year":"2019-01-01","translations":["Оригинальная дорожка"],"seasons_count":1,"episodes_count":2,"episodes":2,"update":"2019-10-07 20:31:47","iframe_src":"//8332.svetacdn.in/IAF0wWTdNYZm/tv-series/5402"},{"id":5394,"title":"Воспитывая Диона","kp_id":"1113115","imdb_id":"tt7826108","world_art_id":null,"type":"serial","add":"2019-10-04 18:37:04","orig_title":"Raising Dion","year":"2019-10-04","translations":["Полное дублирование (Невафильм | Нева-1)"],"seasons_count":1,"episodes_count":9,"episodes":9,"update":"2019-10-04 20:53:37","iframe_src":"//8332.svetacdn.in/IAF0wWTdNYZm/tv-series/5394"},{"id":5384,"title":"Завтра наступит сегодня","kp_id":"401723","imdb_id":"tt0115163","world_art_id":null,"type":"serial","add":"2019-10-03 20:19:18","orig_title":"Early Edition","year":"1996-09-28","translations":["Профессиональный (многоголосый закадровый) (СТС)","Профессиональный (многоголосый закадровый)"],"seasons_count":4,"episodes_count":90,"episodes":22,"update":"2019-10-04 21:29:59","iframe_src":"//8332.svetacdn.in/IAF0wWTdNYZm/tv-series/5384"},{"id":5380,"title":"Тайный дневник девушки по вызову","kp_id":"401122","imdb_id":"tt1000734","world_art_id":null,"type":"serial","add":"2019-10-03 12:04:36","orig_title":"Secret Diary of a Call Girl","year":"2007-09-27","translations":["Профессиональный (многоголосый закадровый) (Муз-ТВ)"],"seasons_count":4,"episodes_count":32,"episodes":8,"update":"2019-10-04 10:46:11","iframe_src":"//8332.svetacdn.in/IAF0wWTdNYZm/tv-series/5380"},{"id":5378,"title":"1001 ночь","kp_id":"471742","imdb_id":"tt0905574","world_art_id":null,"type":"serial","add":"2019-10-02 21:02:23","orig_title":"Binbir Gece","year":"2006-11-07","translations":["Полное дублирование"],"seasons_count":3,"episodes_count":90,"episodes":24,"update":"2019-10-03 21:13:12","iframe_src":"//8332.svetacdn.in/IAF0wWTdNYZm/tv-series/5378"},{"id":5376,"title":"Жаркое американское лето: 10 лет спустя","kp_id":"1008421","imdb_id":"tt5669272","world_art_id":null,"type":"serial","add":"2019-10-02 12:05:48","orig_title":"Wet Hot American Summer: Ten Years Later","year":"2017-08-04","translations":["Профессиональный (многоголосый закадровый) (NewStudio)"],"seasons_count":1,"episodes_count":8,"episodes":8,"update":"2019-10-04 08:56:13","iframe_src":"//8332.svetacdn.in/IAF0wWTdNYZm/tv-series/5376"},{"id":5375,"title":"Жаркое американское лето: Первый день лагеря","kp_id":"888089","imdb_id":"tt4341500","world_art_id":null,"type":"serial","add":"2019-10-02 12:00:51","orig_title":"Wet Hot American Summer: First Day of Camp","year":"2015-07-31","translations":["Профессиональный (многоголосый закадровый) (NewStudio)"],"seasons_count":1,"episodes_count":8,"episodes":8,"update":"2019-10-04 08:39:23","iframe_src":"//8332.svetacdn.in/IAF0wWTdNYZm/tv-series/5375"},{"id":5374,"title":"Джефф и инопланетяне","kp_id":"933806","imdb_id":"tt4218824","world_art_id":null,"type":"serial","add":"2019-10-02 11:52:57","orig_title":"Jeff & Some Aliens","year":"2017-01-11","translations":["Профессиональный (многоголосый закадровый) (2x2)"],"seasons_count":1,"episodes_count":10,"episodes":10,"update":"2019-10-04 08:30:41","iframe_src":"//8332.svetacdn.in/IAF0wWTdNYZm/tv-series/5374"},{"id":5372,"title":"Обычное шоу","kp_id":"669362","imdb_id":"tt1710308","world_art_id":null,"type":"serial","add":"2019-10-02 10:23:18","orig_title":"Regular Show","year":"2009-08-14","translations":["Полное дублирование","Полное дублирование (Пифагор)","Любительский (многоголосый закадровый)"],"seasons_count":7,"episodes_count":179,"episodes":36,"update":"2019-10-04 11:10:43","iframe_src":"//8332.svetacdn.in/IAF0wWTdNYZm/tv-series/5372"},{"id":5347,"title":"Бивис и Батт-Хед","kp_id":"94667","imdb_id":"tt0105950","world_art_id":null,"type":"serial","add":"2019-09-30 20:33:08","orig_title":"Beavis and Butt-Head","year":"1993-03-08","translations":["Любительский (одноголосый закадровый)"],"seasons_count":8,"episodes_count":208,"episodes":12,"update":"2019-10-03 13:08:57","iframe_src":"//8332.svetacdn.in/IAF0wWTdNYZm/tv-series/5347"},{"id":5343,"title":"Тень за спиной","kp_id":"1177527","imdb_id":null,"world_art_id":null,"type":"serial","add":"2019-09-30 19:15:51","orig_title":"Тень за спиной","year":"2019-09-30","translations":["Оригинальная дорожка"],"seasons_count":1,"episodes_count":12,"episodes":12,"update":"2019-10-04 21:43:53","iframe_src":"//8332.svetacdn.in/IAF0wWTdNYZm/tv-series/5343"},{"id":5327,"title":"Ждите неожиданного","kp_id":"1049716","imdb_id":null,"world_art_id":null,"type":"serial","add":"2019-09-27 11:41:09","orig_title":"Ждите неожиданного","year":"2017-10-21","translations":["Оригинальная дорожка"],"seasons_count":1,"episodes_count":4,"episodes":4,"update":"2019-10-03 11:56:10","iframe_src":"//8332.svetacdn.in/IAF0wWTdNYZm/tv-series/5327"},{"id":5325,"title":"Тихие люди","kp_id":"1112714","imdb_id":null,"world_art_id":null,"type":"serial","add":"2019-09-27 11:38:54","orig_title":"Тихие люди","year":"2018-02-24","translations":["Оригинальная дорожка"],"seasons_count":1,"episodes_count":4,"episodes":4,"update":"2019-10-03 11:51:50","iframe_src":"//8332.svetacdn.in/IAF0wWTdNYZm/tv-series/5325"},{"id":5322,"title":"Счастье из осколков","kp_id":"1044400","imdb_id":null,"world_art_id":null,"type":"serial","add":"2019-09-27 11:32:39","orig_title":"Счастье из осколков","year":"2017-10-07","translations":["Оригинальная дорожка"],"seasons_count":1,"episodes_count":2,"episodes":2,"update":"2019-10-03 11:47:34","iframe_src":"//8332.svetacdn.in/IAF0wWTdNYZm/tv-series/5322"},{"id":5271,"title":"Знахарь","kp_id":"1093784","imdb_id":"tt7386462","world_art_id":null,"type":"serial","add":"2019-09-24 04:26:42","orig_title":"Znakhar","year":"2017-01-01","translations":["Оригинальная дорожка"],"seasons_count":1,"episodes_count":16,"episodes":16,"update":"2019-10-05 03:44:42","iframe_src":"//8332.svetacdn.in/IAF0wWTdNYZm/tv-series/5271"},{"id":5241,"title":"Чернобыль: Зона отчуждения. Финал","kp_id":"1209750","imdb_id":"tt10100620","world_art_id":null,"type":"serial","add":"2019-09-19 08:33:03","orig_title":"Chernobyl: Zona otchuzhdeniya","year":"2019-09-19","translations":["Оригинальная дорожка"],"seasons_count":1,"episodes_count":4,"episodes":4,"update":"2019-10-07 17:00:44","iframe_src":"//8332.svetacdn.in/IAF0wWTdNYZm/tv-series/5241"},{"id":5045,"title":"Миссия невыполнима","kp_id":"229293","imdb_id":"tt0060009","world_art_id":null,"type":"serial","add":"2019-08-16 14:33:56","orig_title":"Mission: Impossible","year":"1966-09-17","translations":["Авторский (одноголосый закадровый) (Белов Вадим)"],"seasons_count":7,"episodes_count":171,"episodes":22,"update":"2019-10-03 15:02:40","iframe_src":"//8332.svetacdn.in/IAF0wWTdNYZm/tv-series/5045"},{"id":4820,"title":"Мария Магдалена","kp_id":"1245689","imdb_id":"tt9863496","world_art_id":null,"type":"serial","add":"2019-07-08 20:17:09","orig_title":"María Magdalena","year":"2018-10-15","translations":["Любительский (одноголосый закадровый) (Stevie)","Любительский (многоголосый закадровый)"],"seasons_count":1,"episodes_count":21,"episodes":21,"update":"2019-10-07 12:20:58","iframe_src":"//8332.svetacdn.in/IAF0wWTdNYZm/tv-series/4820"},{"id":4523,"title":"Любовь и Пи","kp_id":"1256817","imdb_id":"tt9327256","world_art_id":null,"type":"serial","add":"2019-05-20 04:12:04","orig_title":"Love and Pi","year":"2018-07-21","translations":["Любительский (двухголосый закадровый)"],"seasons_count":1,"episodes_count":7,"episodes":7,"update":"2019-10-04 21:01:27","iframe_src":"//8332.svetacdn.in/IAF0wWTdNYZm/tv-series/4523"},{"id":1167,"title":"Воронины","kp_id":"479090","imdb_id":"tt2301092","world_art_id":null,"type":"serial","add":"2017-04-05 09:13:13","orig_title":"Voroniny","year":"2009-11-16","translations":["Оригинальная дорожка"],"seasons_count":24,"episodes_count":553,"episodes":22,"update":"2019-10-03 17:44:52","iframe_src":"//8332.svetacdn.in/IAF0wWTdNYZm/tv-series/1167"},{"id":9924,"title":"Таймер","kp_id":"404273","imdb_id":"tt1179794","world_art_id":null,"type":"movie","add":"2017-02-22 10:49:47","orig_title":"TiMER","year":"2009-04-26","translations":["Профессиональный (многоголосый)","Original (English)","Профессиональный (многоголосый закадровый)"],"quality":"bd","translation":"Профессиональный (многоголосый)","update":"2021-01-11 14:34:02","iframe_src":"//8332.svetacdn.in/IAF0wWTdNYZm/movie/9924"},{"id":70,"title":"Мы - Миллеры","kp_id":"582170","imdb_id":"tt1723121","world_art_id":null,"type":"movie","add":"2016-02-08 14:31:03","orig_title":"We're the Millers","year":"2013-08-03","translations":["Полное дублирование","Авторский (одноголосый закадровый) (Есарев Дмитрий)","Авторский (одноголосый закадровый) (Карповский Антон)","Original (English)","Профессиональный (многоголосый закадровый) (BaibaKo)"],"quality":"bd","translation":"Полное дублирование","update":"2021-01-11 14:28:34","iframe_src":"//8332.svetacdn.in/IAF0wWTdNYZm/movie/70"}],"current_page":338,"first_page_url":"https://videocdn.tv/api/short?limit=100&api_token=6Onb1W1alEUrBcKJZD3GoKBbWyAl2uG2&cache3338=3338&page=1","from":33701,"last_page":635,"last_page_url":"https://videocdn.tv/api/short?limit=100&api_token=6Onb1W1alEUrBcKJZD3GoKBbWyAl2uG2&cache3338=3338&page=635","next_page_url":"https://videocdn.tv/api/short?limit=100&api_token=6Onb1W1alEUrBcKJZD3GoKBbWyAl2uG2&cache3338=3338&page=339","path":"https://videocdn.tv/api/short","per_page":100,"prev_page_url":"https://videocdn.tv/api/short?limit=100&api_token=6Onb1W1alEUrBcKJZD3GoKBbWyAl2uG2&cache3338=3338&page=337","to":33740,"total":63457}