{"result":true,"data":[{"id":37568,"title":"С любовью, Антоша","kp_id":"1234825","imdb_id":"tt9351746","world_art_id":null,"type":"movie","add":"2020-03-08 15:54:17","orig_title":"Love, Antosha","year":"2019-01-28","translations":["Профессиональный (многоголосый закадровый)"],"quality":"webdl","translation":"Профессиональный (многоголосый закадровый)","update":"2020-03-09 16:21:38","iframe_src":"//5322.svetacdn.in/si4jsFRrtgrT/movie/37568"},{"id":37558,"title":"Еще один поцелуй","kp_id":"1194831","imdb_id":"tt9035872","world_art_id":null,"type":"movie","add":"2020-03-08 08:34:22","orig_title":"Just One More Kiss","year":"2019-02-18","translations":["Любительский (многоголосый закадровый) (Синема УС)"],"quality":"webdl","translation":"Любительский (многоголосый закадровый) (Синема УС)","update":"2020-03-09 16:21:01","iframe_src":"//5322.svetacdn.in/si4jsFRrtgrT/movie/37558"},{"id":37554,"title":"В подвале","kp_id":"1114021","imdb_id":"tt7958132","world_art_id":null,"type":"movie","add":"2020-03-08 08:28:45","orig_title":"The Girl in the Crawlspace","year":"2018-09-14","translations":["Любительский (многоголосый закадровый) (Синема УС)"],"quality":"webdl","translation":"Любительский (многоголосый закадровый) (Синема УС)","update":"2020-03-09 16:20:40","iframe_src":"//5322.svetacdn.in/si4jsFRrtgrT/movie/37554"},{"id":37549,"title":"Возвращайся в Китай","kp_id":"1144013","imdb_id":"tt7957314","world_art_id":null,"type":"movie","add":"2020-03-08 08:10:32","orig_title":"Go Back to China","year":"2019-03-09","translations":["Любительский (многоголосый закадровый) (Синема УС)"],"quality":"webdl","translation":"Любительский (многоголосый закадровый) (Синема УС)","update":"2020-03-09 16:19:31","iframe_src":"//5322.svetacdn.in/si4jsFRrtgrT/movie/37549"},{"id":37467,"title":"Джунгли","kp_id":"1052754","imdb_id":"tt7463730","world_art_id":null,"type":"movie","add":"2020-03-05 19:58:48","orig_title":"Junglee","year":"2019-03-28","translations":["Любительский (многоголосый закадровый) (Honey&Hoseena)"],"quality":"webdl","translation":"Любительский (многоголосый закадровый) (Honey&Hoseena)","update":"2020-03-09 15:09:22","iframe_src":"//5322.svetacdn.in/si4jsFRrtgrT/movie/37467"},{"id":37465,"title":"Король джунглей","kp_id":"95426","imdb_id":"tt0276309","world_art_id":null,"type":"movie","add":"2020-03-05 19:54:18","orig_title":"Maa","year":"1976-01-01","translations":["Полное дублирование"],"quality":"dvdrip","translation":"Полное дублирование","update":"2020-03-09 15:05:45","iframe_src":"//5322.svetacdn.in/si4jsFRrtgrT/movie/37465"},{"id":37463,"title":"Лентяй","kp_id":"262778","imdb_id":"tt0248125","world_art_id":null,"type":"movie","add":"2020-03-05 19:51:52","orig_title":"Kaamchor","year":"1982-12-24","translations":["Полное дублирование"],"quality":"dvdrip","translation":"Полное дублирование","update":"2020-03-09 15:04:31","iframe_src":"//5322.svetacdn.in/si4jsFRrtgrT/movie/37463"},{"id":37460,"title":"Майна","kp_id":"611679","imdb_id":"tt1841762","world_art_id":null,"type":"movie","add":"2020-03-05 19:48:04","orig_title":"Mynaa","year":"2010-11-05","translations":["Профессиональный (многоголосый закадровый) (Red Media)"],"quality":"sat","translation":"Профессиональный (многоголосый закадровый) (Red Media)","update":"2020-03-09 15:01:01","iframe_src":"//5322.svetacdn.in/si4jsFRrtgrT/movie/37460"},{"id":37459,"title":"Отпетые мошенники","kp_id":"221072","imdb_id":"tt0476819","world_art_id":null,"type":"movie","add":"2020-03-05 19:46:00","orig_title":"Nehlle Pe Dehlla","year":"2007-03-02","translations":["Профессиональный (многоголосый закадровый)"],"quality":"dvdrip","translation":"Профессиональный (многоголосый закадровый)","update":"2020-03-09 15:00:00","iframe_src":"//5322.svetacdn.in/si4jsFRrtgrT/movie/37459"},{"id":37457,"title":"Преданность","kp_id":"78478","imdb_id":"tt0397882","world_art_id":null,"type":"movie","add":"2020-03-05 19:40:47","orig_title":"Ab Tumhare Hawale Watan Saathiyo","year":"2004-12-24","translations":["Профессиональный (многоголосый закадровый)"],"quality":"dvdrip","translation":"Профессиональный (многоголосый закадровый)","update":"2020-03-09 14:58:16","iframe_src":"//5322.svetacdn.in/si4jsFRrtgrT/movie/37457"},{"id":37456,"title":"Сезон дождей","kp_id":"39757","imdb_id":"tt0041161","world_art_id":null,"type":"movie","add":"2020-03-05 19:38:33","orig_title":"Barsaat","year":"1949-04-21","translations":["Профессиональный (многоголосый закадровый)"],"quality":"dvdrip","translation":"Профессиональный (многоголосый закадровый)","update":"2020-03-09 14:57:24","iframe_src":"//5322.svetacdn.in/si4jsFRrtgrT/movie/37456"},{"id":37455,"title":"Сезон дождей","kp_id":"95508","imdb_id":"tt0112459","world_art_id":null,"type":"movie","add":"2020-03-05 19:35:39","orig_title":"Barsaat","year":"1995-09-29","translations":["Профессиональный (двухголосый закадровый)"],"quality":"dvdrip","translation":"Профессиональный (двухголосый закадровый)","update":"2020-03-09 14:56:14","iframe_src":"//5322.svetacdn.in/si4jsFRrtgrT/movie/37455"},{"id":37454,"title":"Ситара","kp_id":"95778","imdb_id":"tt0248441","world_art_id":null,"type":"movie","add":"2020-03-05 19:33:09","orig_title":"Sitaara","year":"1983-01-01","translations":["Полное дублирование"],"quality":"dvdrip","translation":"Полное дублирование","update":"2020-03-09 14:55:28","iframe_src":"//5322.svetacdn.in/si4jsFRrtgrT/movie/37454"},{"id":37453,"title":"Сводный брат","kp_id":"281059","imdb_id":"tt0978703","world_art_id":null,"type":"movie","add":"2020-03-05 19:30:38","orig_title":"Sautela","year":"1999-11-12","translations":["Профессиональный (двухголосый закадровый)"],"quality":"iptv","translation":"Профессиональный (двухголосый закадровый)","update":"2020-03-09 14:53:05","iframe_src":"//5322.svetacdn.in/si4jsFRrtgrT/movie/37453"},{"id":37452,"title":"Убийство","kp_id":"94734","imdb_id":"tt0363666","world_art_id":null,"type":"movie","add":"2020-03-05 19:28:01","orig_title":"Hatya","year":"1988-06-03","translations":["Любительский (одноголосый закадровый)"],"quality":"dvdrip","translation":"Любительский (одноголосый закадровый)","update":"2020-03-09 14:47:35","iframe_src":"//5322.svetacdn.in/si4jsFRrtgrT/movie/37452"},{"id":37441,"title":"Детектив Бёмкеш Бакши","kp_id":"819595","imdb_id":"tt3447364","world_art_id":null,"type":"movie","add":"2020-03-05 10:00:35","orig_title":"Detective Byomkesh Bakshy!","year":"2015-04-02","translations":["Профессиональный (многоголосый закадровый) (SDI Media)"],"quality":"hdrip","translation":"Профессиональный (многоголосый закадровый) (SDI Media)","update":"2020-03-09 14:45:47","iframe_src":"//5322.svetacdn.in/si4jsFRrtgrT/movie/37441"},{"id":30051,"title":"Стальной клинок","kp_id":"841564","imdb_id":"tt3801314","world_art_id":null,"type":"movie","add":"2019-08-16 13:43:31","orig_title":"Kaththi","year":"2014-10-21","translations":["Профессиональный (многоголосый закадровый) (Индийское кино)","Любительский (многоголосый закадровый) (ICG)"],"quality":"webdl","translation":"Профессиональный (многоголосый закадровый) (Индийское кино)","update":"2020-03-09 15:08:10","iframe_src":"//5322.svetacdn.in/si4jsFRrtgrT/movie/30051"},{"id":28166,"title":"Отражение","kp_id":"1154832","imdb_id":"tt7822438","world_art_id":null,"type":"movie","add":"2019-06-22 14:13:47","orig_title":"Thadam","year":"2019-03-01","translations":["Любительский (многоголосый закадровый) (Синема УС)","Любительский (двухголосый закадровый) (OnisFilms)"],"quality":"webdl","translation":"Любительский (многоголосый закадровый) (Синема УС)","update":"2020-03-09 14:44:40","iframe_src":"//5322.svetacdn.in/si4jsFRrtgrT/movie/28166"},{"id":8910,"title":"Мой кузен Винни","kp_id":"4255","imdb_id":"tt0104952","world_art_id":null,"type":"movie","add":"2017-01-15 14:25:48","orig_title":"My Cousin Vinny","year":"1992-03-13","translations":["Профессиональный (многоголосый закадровый)","Авторский (одноголосый закадровый) (Яроцкий Михаил | Kyberpunk)","Полное дублирование"],"quality":"bd","translation":"Профессиональный (многоголосый закадровый)","update":"2020-03-09 16:21:49","iframe_src":"//5322.svetacdn.in/si4jsFRrtgrT/movie/8910"},{"id":7976,"title":"Спектральный анализ","kp_id":"708955","imdb_id":"tt2106651","world_art_id":null,"type":"movie","add":"2016-12-11 05:38:17","orig_title":"Spectral","year":"2016-12-09","translations":["Любительский (многоголосый закадровый) (@MUZOBOZ@)"],"quality":"webdl","translation":"Любительский (многоголосый закадровый) (@MUZOBOZ@)","update":"2020-03-09 16:23:19","iframe_src":"//5322.svetacdn.in/si4jsFRrtgrT/movie/7976"}],"current_page":789,"first_page_url":"https://videocdn.tv/api/short?limit=100&api_token=X6EwAUfE5M9xbo7y0Bp0aPf3uXxG2KLL&cache3789=3789&page=1","from":78801,"last_page":621,"last_page_url":"https://videocdn.tv/api/short?limit=100&api_token=X6EwAUfE5M9xbo7y0Bp0aPf3uXxG2KLL&cache3789=3789&page=621","next_page_url":null,"path":"https://videocdn.tv/api/short","per_page":100,"prev_page_url":"https://videocdn.tv/api/short?limit=100&api_token=X6EwAUfE5M9xbo7y0Bp0aPf3uXxG2KLL&cache3789=3789&page=788","to":78820,"total":62040}