{"result":true,"data":[{"id":37054,"title":"Зов природы","kp_id":"81617","imdb_id":"tt0398839","world_art_id":null,"type":"movie","add":"2020-02-27 12:41:31","orig_title":"Cattle Call","year":"2006-06-01","translations":["Профессиональный (двухголосый закадровый)"],"quality":"dvdrip","translation":"Профессиональный (двухголосый закадровый)","update":"2020-02-27 19:55:37","iframe_src":"//7741.svetacdn.in/si4jsFRrtgrT/movie/37054"},{"id":37053,"title":"Анжель и Тони","kp_id":"484880","imdb_id":"tt1538221","world_art_id":null,"type":"movie","add":"2020-02-27 12:39:19","orig_title":"Angèle et Tony","year":"2010-09-12","translations":["Профессиональный (двухголосый закадровый) (Elrom)"],"quality":"dvdrip","translation":"Профессиональный (двухголосый закадровый) (Elrom)","update":"2020-02-27 19:56:19","iframe_src":"//7741.svetacdn.in/si4jsFRrtgrT/movie/37053"},{"id":37052,"title":"Охотник на динозавров","kp_id":"17177","imdb_id":"tt0253042","world_art_id":null,"type":"movie","add":"2020-02-27 12:37:25","orig_title":"The Dinosaur Hunter","year":"2000-08-05","translations":["Профессиональный (многоголосый закадровый)"],"quality":"dvdrip","translation":"Профессиональный (многоголосый закадровый)","update":"2020-02-27 19:56:56","iframe_src":"//7741.svetacdn.in/si4jsFRrtgrT/movie/37052"},{"id":37051,"title":"Инспектор Беллами","kp_id":"406290","imdb_id":"tt1188983","world_art_id":null,"type":"movie","add":"2020-02-27 12:33:45","orig_title":"Bellamy","year":"2009-02-08","translations":["Профессиональный (многоголосый закадровый)"],"quality":"dvdrip","translation":"Профессиональный (многоголосый закадровый)","update":"2020-02-27 19:57:10","iframe_src":"//7741.svetacdn.in/si4jsFRrtgrT/movie/37051"},{"id":37048,"title":"Враг","kp_id":"477636","imdb_id":"tt1517225","world_art_id":null,"type":"movie","add":"2020-02-27 12:25:58","orig_title":"Neprijatelj","year":"2011-03-06","translations":["Любительский (одноголосый закадровый) (Хихикающий доктор)"],"quality":"dvdrip","translation":"Любительский (одноголосый закадровый) (Хихикающий доктор)","update":"2020-02-27 19:58:14","iframe_src":"//7741.svetacdn.in/si4jsFRrtgrT/movie/37048"},{"id":37045,"title":"Битва при Панипате","kp_id":"1158062","imdb_id":"tt8176040","world_art_id":null,"type":"movie","add":"2020-02-27 11:55:01","orig_title":"Panipat","year":"2019-12-06","translations":["Любительский (многоголосый закадровый) (Honey&Haseena)"],"quality":"webdl","translation":"Любительский (многоголосый закадровый) (Honey&Haseena)","update":"2020-02-27 17:50:18","iframe_src":"//7741.svetacdn.in/si4jsFRrtgrT/movie/37045"},{"id":37044,"title":"Не астронавт","kp_id":null,"imdb_id":"tt6423012","world_art_id":null,"type":"movie","add":"2020-02-27 11:45:53","orig_title":"The Astronot","year":"2018-05-18","translations":["Любительский (многоголосый закадровый) (Синема УС)"],"quality":"webdl","translation":"Любительский (многоголосый закадровый) (Синема УС)","update":"2020-02-27 12:58:03","iframe_src":"//7741.svetacdn.in/si4jsFRrtgrT/movie/37044"},{"id":37040,"title":"Свидетели должны замолчать","kp_id":"695053","imdb_id":"tt2314886","world_art_id":null,"type":"movie","add":"2020-02-27 09:55:31","orig_title":"Breakout","year":"2013-09-17","translations":["Профессиональный (двухголосый закадровый)"],"quality":"webdl","translation":"Профессиональный (двухголосый закадровый)","update":"2020-02-27 18:53:19","iframe_src":"//7741.svetacdn.in/si4jsFRrtgrT/movie/37040"},{"id":37038,"title":"Битва в Арденнах","kp_id":"9970","imdb_id":"tt0058947","world_art_id":null,"type":"movie","add":"2020-02-27 07:44:22","orig_title":"Battle of the Bulge","year":"1965-12-16","translations":["Любительский (одноголосый закадровый)"],"quality":"bd","translation":"Любительский (одноголосый закадровый)","update":"2020-02-27 18:08:15","iframe_src":"//7741.svetacdn.in/si4jsFRrtgrT/movie/37038"},{"id":37030,"title":"Под одной луной","kp_id":"1191177","imdb_id":"tt8883472","world_art_id":null,"type":"movie","add":"2020-02-27 06:27:31","orig_title":"Underneath the Same Moon","year":"2019-03-08","translations":["Любительский (многоголосый закадровый) (AlphaProject)"],"quality":"webdl","translation":"Любительский (многоголосый закадровый) (AlphaProject)","update":"2020-02-27 13:01:33","iframe_src":"//7741.svetacdn.in/si4jsFRrtgrT/movie/37030"},{"id":37018,"title":"Джимми Карр: Лучшие из лучших, золотых и величайших хитов","kp_id":"1252373","imdb_id":"tt9817258","world_art_id":null,"type":"movie","add":"2020-02-26 20:06:19","orig_title":"Jimmy Carr: The Best of Ultimate Gold Greatest Hits","year":"2019-03-12","translations":["Любительский (многоголосый закадровый) (Синема УС)"],"quality":"webdl","translation":"Любительский (многоголосый закадровый) (Синема УС)","update":"2020-02-27 12:54:43","iframe_src":"//7741.svetacdn.in/si4jsFRrtgrT/movie/37018"},{"id":37009,"title":"80 дней","kp_id":"507532","imdb_id":"tt1600383","world_art_id":null,"type":"movie","add":"2020-02-26 13:53:57","orig_title":"80 egunean","year":"2010-04-23","translations":["Профессиональный (двухголосый закадровый)"],"quality":"dvdrip","translation":"Профессиональный (двухголосый закадровый)","update":"2020-02-27 12:55:12","iframe_src":"//7741.svetacdn.in/si4jsFRrtgrT/movie/37009"},{"id":37008,"title":"Золото Калифорнии","kp_id":"10860","imdb_id":"tt0064782","world_art_id":null,"type":"movie","add":"2020-02-26 13:52:25","orig_title":"Paint Your Wagon","year":"1969-10-15","translations":["Профессиональный (многоголосый закадровый)"],"quality":"webdl","translation":"Профессиональный (многоголосый закадровый)","update":"2020-02-27 12:56:04","iframe_src":"//7741.svetacdn.in/si4jsFRrtgrT/movie/37008"},{"id":37006,"title":"Насмешка","kp_id":"57922","imdb_id":"tt0117477","world_art_id":null,"type":"movie","add":"2020-02-26 13:36:51","orig_title":"Ridicule","year":"1996-05-09","translations":["Профессиональный (двухголосый закадровый)"],"quality":"hdrip","translation":"Профессиональный (двухголосый закадровый)","update":"2020-02-27 12:57:09","iframe_src":"//7741.svetacdn.in/si4jsFRrtgrT/movie/37006"},{"id":37005,"title":"Иезавель","kp_id":"1050348","imdb_id":"tt7103742","world_art_id":null,"type":"movie","add":"2020-02-26 13:34:41","orig_title":"Jezebel","year":"2019-03-09","translations":["Любительский (многоголосый закадровый) (Синема УС)"],"quality":"webdl","translation":"Любительский (многоголосый закадровый) (Синема УС)","update":"2020-02-27 12:57:41","iframe_src":"//7741.svetacdn.in/si4jsFRrtgrT/movie/37005"},{"id":37004,"title":"Американская дхарма","kp_id":"1318618","imdb_id":"tt8804284","world_art_id":null,"type":"movie","add":"2020-02-26 13:32:47","orig_title":"American Dharma","year":"2018-09-05","translations":["Любительский (многоголосый закадровый) (Синема УС)"],"quality":"webdl","translation":"Любительский (многоголосый закадровый) (Синема УС)","update":"2020-02-27 12:58:19","iframe_src":"//7741.svetacdn.in/si4jsFRrtgrT/movie/37004"},{"id":37002,"title":"Пак Хва-ён","kp_id":"1177531","imdb_id":null,"world_art_id":null,"type":"movie","add":"2020-02-26 13:28:01","orig_title":"Park Hwa-yeong","year":"2018-07-19","translations":["Любительский (двухголосый закадровый) (Колобок)"],"quality":"webdl","translation":"Любительский (двухголосый закадровый) (Колобок)","update":"2020-02-27 12:59:14","iframe_src":"//7741.svetacdn.in/si4jsFRrtgrT/movie/37002"},{"id":37000,"title":"Инициалы С.Г.","kp_id":"1197891","imdb_id":"tt9080672","world_art_id":null,"type":"movie","add":"2020-02-26 13:24:25","orig_title":"Initials SG","year":"2019-04-28","translations":["Любительский (многоголосый закадровый) (Синема УС)"],"quality":"webdl","translation":"Любительский (многоголосый закадровый) (Синема УС)","update":"2020-02-27 12:59:52","iframe_src":"//7741.svetacdn.in/si4jsFRrtgrT/movie/37000"},{"id":36957,"title":"Западный Кабокло","kp_id":"588034","imdb_id":"tt1869416","world_art_id":null,"type":"movie","add":"2020-02-26 06:45:57","orig_title":"Faroeste caboclo","year":"2013-05-31","translations":["Любительский (одноголосый закадровый)"],"quality":"bd","translation":"Любительский (одноголосый закадровый)","update":"2020-02-27 17:32:42","iframe_src":"//7741.svetacdn.in/si4jsFRrtgrT/movie/36957"},{"id":36953,"title":"Пурпурная бабочка","kp_id":"13729","imdb_id":"tt0363290","world_art_id":null,"type":"movie","add":"2020-02-26 06:40:33","orig_title":"Zi hu die","year":"2003-05-22","translations":["Профессиональный (многоголосый закадровый)"],"quality":"dvdrip","translation":"Профессиональный (многоголосый закадровый)","update":"2020-02-27 14:34:53","iframe_src":"//7741.svetacdn.in/si4jsFRrtgrT/movie/36953"}],"current_page":1198,"first_page_url":"https://videocdn.tv/api/short?limit=100&api_token=X6EwAUfE5M9xbo7y0Bp0aPf3uXxG2KLL&cache31198=31198&page=1","from":119701,"last_page":695,"last_page_url":"https://videocdn.tv/api/short?limit=100&api_token=X6EwAUfE5M9xbo7y0Bp0aPf3uXxG2KLL&cache31198=31198&page=695","next_page_url":null,"path":"https://videocdn.tv/api/short","per_page":100,"prev_page_url":"https://videocdn.tv/api/short?limit=100&api_token=X6EwAUfE5M9xbo7y0Bp0aPf3uXxG2KLL&cache31198=31198&page=1197","to":119720,"total":69488}