{"result":true,"data":[{"id":25488,"title":"Маленькое одолжение","kp_id":"254812","imdb_id":"tt0263702","world_art_id":null,"type":"movie","add":"2019-04-28 09:48:57","orig_title":"Malenkoe odolzhenie","year":"1984-01-01","translations":["Оригинальная дорожка"],"quality":"sat","translation":"Оригинальная дорожка","update":"2019-04-29 06:36:09","iframe_src":"//vc.doramasia.ru/si4jsFRrtgrT/movie/25488"},{"id":25487,"title":"Птаха","kp_id":"706748","imdb_id":null,"world_art_id":null,"type":"movie","add":"2019-04-28 09:46:06","orig_title":"Птаха","year":"2009-01-01","translations":["Оригинальная дорожка"],"quality":"sat","translation":"Оригинальная дорожка","update":"2019-04-29 06:35:20","iframe_src":"//vc.doramasia.ru/si4jsFRrtgrT/movie/25487"},{"id":25471,"title":"Гонгофер","kp_id":"41194","imdb_id":"tt0361661","world_art_id":null,"type":"movie","add":"2019-04-27 21:21:57","orig_title":"Gongofer","year":"1992-01-01","translations":["Оригинальная дорожка"],"quality":"dvdrip","translation":"Оригинальная дорожка","update":"2019-04-29 06:34:30","iframe_src":"//vc.doramasia.ru/si4jsFRrtgrT/movie/25471"},{"id":25469,"title":"Два в одном","kp_id":"281294","imdb_id":"tt1002760","world_art_id":null,"type":"movie","add":"2019-04-27 21:16:58","orig_title":"Dva v odnom","year":"2007-06-04","translations":["Оригинальная дорожка"],"quality":"dvdrip","translation":"Оригинальная дорожка","update":"2019-04-29 06:31:38","iframe_src":"//vc.doramasia.ru/si4jsFRrtgrT/movie/25469"},{"id":25468,"title":"Индиго","kp_id":"367686","imdb_id":"tt1246587","world_art_id":null,"type":"movie","add":"2019-04-27 21:15:15","orig_title":"Indigo","year":"2008-03-20","translations":["Оригинальная дорожка"],"quality":"dvdrip","translation":"Оригинальная дорожка","update":"2019-04-29 06:30:28","iframe_src":"//vc.doramasia.ru/si4jsFRrtgrT/movie/25468"},{"id":25467,"title":"Испанец","kp_id":"656894","imdb_id":"tt6464480","world_art_id":null,"type":"movie","add":"2019-04-27 21:13:18","orig_title":"Ispanets","year":"2012-10-11","translations":["Оригинальная дорожка"],"quality":"dvdrip","translation":"Оригинальная дорожка","update":"2019-04-29 06:29:39","iframe_src":"//vc.doramasia.ru/si4jsFRrtgrT/movie/25467"},{"id":25466,"title":"День гнева","kp_id":"44132","imdb_id":"tt0167115","world_art_id":null,"type":"movie","add":"2019-04-27 21:08:10","orig_title":"Den gneva","year":"1985-09-09","translations":["Оригинальная дорожка"],"quality":"dvdrip","translation":"Оригинальная дорожка","update":"2019-04-29 06:28:26","iframe_src":"//vc.doramasia.ru/si4jsFRrtgrT/movie/25466"},{"id":25462,"title":"Именины","kp_id":"81422","imdb_id":"tt0418746","world_art_id":null,"type":"movie","add":"2019-04-27 20:56:52","orig_title":"Imeniny","year":"2004-06-07","translations":["Оригинальная дорожка"],"quality":"dvdrip","translation":"Оригинальная дорожка","update":"2019-04-29 06:26:22","iframe_src":"//vc.doramasia.ru/si4jsFRrtgrT/movie/25462"},{"id":25378,"title":"Люблю тебя до смерти","kp_id":"420063","imdb_id":null,"world_art_id":null,"type":"movie","add":"2019-04-26 11:46:41","orig_title":"Люблю тебя до смерти","year":"2008-04-20","translations":["Оригинальная дорожка"],"quality":"dvdrip","translation":"Оригинальная дорожка","update":"2019-04-29 06:36:53","iframe_src":"//vc.doramasia.ru/si4jsFRrtgrT/movie/25378"},{"id":25377,"title":"Магнитные бури","kp_id":"41589","imdb_id":"tt0372400","world_art_id":null,"type":"movie","add":"2019-04-26 11:39:56","orig_title":"Magnitnye buri","year":"2003-09-21","translations":["Оригинальная дорожка"],"quality":"dvdrip","translation":"Оригинальная дорожка","update":"2019-04-29 06:35:12","iframe_src":"//vc.doramasia.ru/si4jsFRrtgrT/movie/25377"},{"id":25376,"title":"Миллион за неделю","kp_id":"632814","imdb_id":null,"world_art_id":null,"type":"movie","add":"2019-04-26 11:36:48","orig_title":"Миллион за неделю","year":"2007-01-01","translations":["Оригинальная дорожка"],"quality":"hdtv","translation":"Оригинальная дорожка","update":"2019-04-29 06:33:58","iframe_src":"//vc.doramasia.ru/si4jsFRrtgrT/movie/25376"},{"id":25375,"title":"Морской пост","kp_id":"381754","imdb_id":"tt6027678","world_art_id":null,"type":"movie","add":"2019-04-26 11:23:56","orig_title":"Morskoy post","year":"1938-12-21","translations":["Оригинальная дорожка"],"quality":"dvdrip","translation":"Оригинальная дорожка","update":"2019-04-29 06:32:54","iframe_src":"//vc.doramasia.ru/si4jsFRrtgrT/movie/25375"},{"id":25374,"title":"На всю жизнь","kp_id":"585362","imdb_id":null,"world_art_id":null,"type":"movie","add":"2019-04-26 11:06:51","orig_title":"На всю жизнь","year":"2011-04-23","translations":["Оригинальная дорожка"],"quality":"sat","translation":"Оригинальная дорожка","update":"2019-04-29 06:32:06","iframe_src":"//vc.doramasia.ru/si4jsFRrtgrT/movie/25374"},{"id":25373,"title":"Небо видело всё","kp_id":"573328","imdb_id":"tt6227036","world_art_id":null,"type":"movie","add":"2019-04-26 10:59:39","orig_title":"Nebo videlo vsyo","year":"2011-05-21","translations":["Оригинальная дорожка"],"quality":"hddvd","translation":"Оригинальная дорожка","update":"2019-04-29 06:31:09","iframe_src":"//vc.doramasia.ru/si4jsFRrtgrT/movie/25373"},{"id":25372,"title":"Опасная комбинация","kp_id":"417677","imdb_id":"tt1246594","world_art_id":null,"type":"movie","add":"2019-04-26 10:56:22","orig_title":"Opasnaya kombinatsiya","year":"2008-04-20","translations":["Оригинальная дорожка"],"quality":"dvdrip","translation":"Оригинальная дорожка","update":"2019-04-29 06:29:59","iframe_src":"//vc.doramasia.ru/si4jsFRrtgrT/movie/25372"},{"id":25371,"title":"Пегий пес, бегущий краем моря","kp_id":"42913","imdb_id":"tt0102648","world_art_id":null,"type":"movie","add":"2019-04-26 10:48:04","orig_title":"Pegiy pyos, begushchiy kraem morya","year":"1990-04-15","translations":["Оригинальная дорожка"],"quality":"dvdrip","translation":"Оригинальная дорожка","update":"2019-04-29 06:28:30","iframe_src":"//vc.doramasia.ru/si4jsFRrtgrT/movie/25371"},{"id":25370,"title":"Первая перчатка","kp_id":"42936","imdb_id":"tt0039699","world_art_id":null,"type":"movie","add":"2019-04-26 10:44:07","orig_title":"Pervaya perchatka","year":"1947-01-23","translations":["Оригинальная дорожка"],"quality":"dvdrip","translation":"Оригинальная дорожка","update":"2019-04-29 06:26:59","iframe_src":"//vc.doramasia.ru/si4jsFRrtgrT/movie/25370"},{"id":25369,"title":"Пиросмани","kp_id":"42980","imdb_id":"tt0064815","world_art_id":null,"type":"movie","add":"2019-04-26 10:12:30","orig_title":"Pirosmani","year":"1969-12-28","translations":["Оригинальная дорожка"],"quality":"bd","translation":"Оригинальная дорожка","update":"2019-04-29 06:25:59","iframe_src":"//vc.doramasia.ru/si4jsFRrtgrT/movie/25369"},{"id":25368,"title":"Подмосковные вечера","kp_id":"41231","imdb_id":"tt0107309","world_art_id":null,"type":"movie","add":"2019-04-26 10:09:33","orig_title":"Podmoskovnye vechera","year":"1994-11-23","translations":["Оригинальная дорожка"],"quality":"dvdrip","translation":"Оригинальная дорожка","update":"2019-04-29 06:24:49","iframe_src":"//vc.doramasia.ru/si4jsFRrtgrT/movie/25368"},{"id":25367,"title":"Похороны Сталина","kp_id":"2202","imdb_id":"tt0100383","world_art_id":null,"type":"movie","add":"2019-04-26 10:06:27","orig_title":"Pokhorony Stalina","year":"1990-01-01","translations":["Оригинальная дорожка"],"quality":"dvdrip","translation":"Оригинальная дорожка","update":"2019-04-29 06:23:39","iframe_src":"//vc.doramasia.ru/si4jsFRrtgrT/movie/25367"}],"current_page":1362,"first_page_url":"https://videocdn.tv/api/short?limit=100&api_token=X6EwAUfE5M9xbo7y0Bp0aPf3uXxG2KLL&cache31362=31362&page=1","from":136101,"last_page":608,"last_page_url":"https://videocdn.tv/api/short?limit=100&api_token=X6EwAUfE5M9xbo7y0Bp0aPf3uXxG2KLL&cache31362=31362&page=608","next_page_url":null,"path":"https://videocdn.tv/api/short","per_page":100,"prev_page_url":"https://videocdn.tv/api/short?limit=100&api_token=X6EwAUfE5M9xbo7y0Bp0aPf3uXxG2KLL&cache31362=31362&page=1361","to":136120,"total":60708}