{"result":true,"data":[{"id":43346,"title":"Кошачья вечеринка","kp_id":"221811","imdb_id":"tt0042926","world_art_id":null,"type":"movie","add":"2020-09-09 10:22:39","orig_title":"Saturday Evening Puss","year":"1950-01-14","translations":["Профессиональный (многоголосый закадровый)"],"quality":"dvdrip","translation":"Профессиональный (многоголосый закадровый)","update":"2020-09-10 07:17:27","iframe_src":"//8543.svetacdn.in/71tsRs29n5tZ/movie/43346"},{"id":43345,"title":"Том-ковбой","kp_id":"221810","imdb_id":"tt0043037","world_art_id":null,"type":"movie","add":"2020-09-09 10:20:23","orig_title":"Texas Tom","year":"1950-03-11","translations":["Профессиональный (многоголосый закадровый)"],"quality":"dvdrip","translation":"Профессиональный (многоголосый закадровый)","update":"2020-09-10 07:18:34","iframe_src":"//8543.svetacdn.in/71tsRs29n5tZ/movie/43345"},{"id":43344,"title":"Джерри и лев","kp_id":"221809","imdb_id":"tt0042613","world_art_id":null,"type":"movie","add":"2020-09-09 09:42:04","orig_title":"Jerry and the Lion","year":"1950-04-08","translations":["Профессиональный (многоголосый закадровый)"],"quality":"dvdrip","translation":"Профессиональный (многоголосый закадровый)","update":"2020-09-10 08:33:14","iframe_src":"//8543.svetacdn.in/71tsRs29n5tZ/movie/43344"},{"id":43343,"title":"Шумный праздник","kp_id":"221808","imdb_id":"tt0042916","world_art_id":null,"type":"movie","add":"2020-09-09 09:40:04","orig_title":"Safety Second","year":"1950-07-01","translations":["Профессиональный (многоголосый закадровый)"],"quality":"dvdrip","translation":"Профессиональный (многоголосый закадровый)","update":"2020-09-10 08:34:45","iframe_src":"//8543.svetacdn.in/71tsRs29n5tZ/movie/43343"},{"id":43342,"title":"Хочу быть дирижером","kp_id":"221807","imdb_id":"tt0042569","world_art_id":null,"type":"movie","add":"2020-09-09 09:38:10","orig_title":"Tom and Jerry in the Hollywood Bowl","year":"1950-09-16","translations":["Профессиональный (многоголосый закадровый)"],"quality":"dvdrip","translation":"Профессиональный (многоголосый закадровый)","update":"2020-09-10 08:35:56","iframe_src":"//8543.svetacdn.in/71tsRs29n5tZ/movie/43342"},{"id":43341,"title":"Любимая косточка","kp_id":"221806","imdb_id":"tt0042476","world_art_id":null,"type":"movie","add":"2020-09-09 09:36:24","orig_title":"The Framed Cat","year":"1950-10-21","translations":["Профессиональный (многоголосый закадровый)"],"quality":"dvdrip","translation":"Профессиональный (многоголосый закадровый)","update":"2020-09-10 08:37:09","iframe_src":"//8543.svetacdn.in/71tsRs29n5tZ/movie/43341"},{"id":43340,"title":"Однажды в бильярдной","kp_id":"221805","imdb_id":"tt0042360","world_art_id":null,"type":"movie","add":"2020-09-09 09:34:32","orig_title":"Cue Ball Cat","year":"1950-11-25","translations":["Профессиональный (многоголосый закадровый)"],"quality":"dvdrip","translation":"Профессиональный (многоголосый закадровый)","update":"2020-09-10 08:38:51","iframe_src":"//8543.svetacdn.in/71tsRs29n5tZ/movie/43340"},{"id":43339,"title":"Кот-соблазнитель","kp_id":"205535","imdb_id":"tt0043384","world_art_id":null,"type":"movie","add":"2020-09-09 09:32:55","orig_title":"Casanova Cat","year":"1951-01-06","translations":["Профессиональный (многоголосый закадровый)"],"quality":"dvdrip","translation":"Профессиональный (многоголосый закадровый)","update":"2020-09-10 08:40:11","iframe_src":"//8543.svetacdn.in/71tsRs29n5tZ/movie/43339"},{"id":43338,"title":"Джерри и золотая рыбка","kp_id":"92367","imdb_id":"tt0043684","world_art_id":null,"type":"movie","add":"2020-09-09 09:31:17","orig_title":"Jerry and the Goldfish","year":"1951-03-03","translations":["Профессиональный (многоголосый закадровый)"],"quality":"dvdrip","translation":"Профессиональный (многоголосый закадровый)","update":"2020-09-10 08:41:13","iframe_src":"//8543.svetacdn.in/71tsRs29n5tZ/movie/43338"},{"id":43337,"title":"Джерри и его братишка","kp_id":"208654","imdb_id":"tt0043685","world_art_id":null,"type":"movie","add":"2020-09-09 09:29:35","orig_title":"Jerry's Cousin","year":"1951-04-07","translations":["Профессиональный (многоголосый закадровый)"],"quality":"dvdrip","translation":"Профессиональный (многоголосый закадровый)","update":"2020-09-10 08:42:16","iframe_src":"//8543.svetacdn.in/71tsRs29n5tZ/movie/43337"},{"id":43336,"title":"Ах, как хочется спать","kp_id":"221803","imdb_id":"tt0044047","world_art_id":null,"type":"movie","add":"2020-09-09 09:27:32","orig_title":"Sleepy-Time Tom","year":"1951-05-26","translations":["Профессиональный (многоголосый закадровый)"],"quality":"dvdrip","translation":"Профессиональный (многоголосый закадровый)","update":"2020-09-10 08:43:21","iframe_src":"//8543.svetacdn.in/71tsRs29n5tZ/movie/43336"},{"id":43335,"title":"Кот-Робинзон","kp_id":"221802","imdb_id":"tt0043644","world_art_id":null,"type":"movie","add":"2020-09-09 09:20:11","orig_title":"His Mouse Friday","year":"1951-07-07","translations":["Профессиональный (многоголосый закадровый)"],"quality":"dvdrip","translation":"Профессиональный (многоголосый закадровый)","update":"2020-09-10 08:44:35","iframe_src":"//8543.svetacdn.in/71tsRs29n5tZ/movie/43335"},{"id":43330,"title":"Кориолан","kp_id":null,"imdb_id":"tt9151404","world_art_id":null,"type":"movie","add":"2020-09-08 21:51:30","orig_title":"Coriolanus","year":"2019-03-19","translations":["Любительский (многоголосый закадровый) (@MUZOBOZ@)"],"quality":"webdl","translation":"Любительский (многоголосый закадровый) (@MUZOBOZ@)","update":"2020-09-10 07:38:55","iframe_src":"//8543.svetacdn.in/71tsRs29n5tZ/movie/43330"},{"id":43307,"title":"Долина индиго","kp_id":"1053686","imdb_id":"tt6788806","world_art_id":null,"type":"movie","add":"2020-09-08 18:40:45","orig_title":"Indigo Valley","year":"2020-03-28","translations":["Любительский (многоголосый закадровый) (@MUZOBOZ@)","Original (English)"],"quality":"webdl","translation":"Любительский (многоголосый закадровый) (@MUZOBOZ@)","update":"2020-09-10 12:12:59","iframe_src":"//8543.svetacdn.in/71tsRs29n5tZ/movie/43307"},{"id":43303,"title":"Номер один","kp_id":"1311859","imdb_id":"tt11049086","world_art_id":null,"type":"movie","add":"2020-09-08 18:37:07","orig_title":"First One In","year":"2020-01-01","translations":["Любительский (многоголосый закадровый) (Синема УС)","Original (English)"],"quality":"webdl","translation":"Любительский (многоголосый закадровый) (Синема УС)","update":"2020-09-10 12:05:48","iframe_src":"//8543.svetacdn.in/71tsRs29n5tZ/movie/43303"},{"id":43301,"title":"Барби: Приключение принцессы","kp_id":null,"imdb_id":"tt12767498","world_art_id":null,"type":"movie","add":"2020-09-08 18:34:39","orig_title":"Barbie Princess Adventure","year":"2020-09-01","translations":["Original (English)"],"quality":"webdl","translation":"Original (English)","update":"2020-09-10 12:02:07","iframe_src":"//8543.svetacdn.in/71tsRs29n5tZ/movie/43301"},{"id":43267,"title":"Фикс","kp_id":"512296","imdb_id":"tt1646898","world_art_id":null,"type":"movie","add":"2020-09-08 11:51:32","orig_title":"Fix","year":"2011-04-14","translations":["Любительский (одноголосый закадровый) (Филонов Констнтин | voxsolus)"],"quality":"dvdrip","translation":"Любительский (одноголосый закадровый) (Филонов Констнтин | voxsolus)","update":"2020-09-10 07:41:49","iframe_src":"//8543.svetacdn.in/71tsRs29n5tZ/movie/43267"},{"id":43079,"title":"Думаю, как всё закончить","kp_id":"1219852","imdb_id":"tt7939766","world_art_id":null,"type":"movie","add":"2020-09-04 18:37:26","orig_title":"I'm Thinking of Ending Things","year":"2020-08-28","translations":["Любительский (многоголосый закадровый) (@MUZOBOZ@)","Профессиональный (многоголосый закадровый) (HDrezka Studio)","Профессиональный (многоголосый закадровый) (Jaskier)","Любительский (двухголосый закадровый) (OnisFilms)","Original (English)"],"quality":"webdl","translation":"Любительский (многоголосый закадровый) (@MUZOBOZ@)","update":"2020-09-10 12:12:08","iframe_src":"//8543.svetacdn.in/71tsRs29n5tZ/movie/43079"},{"id":43033,"title":"Английские псы в Бангкоке","kp_id":"1068704","imdb_id":"tt7265634","world_art_id":null,"type":"movie","add":"2020-09-02 20:48:24","orig_title":"English Dogs","year":"2020-09-01","translations":["Любительский (многоголосый закадровый) (@MUZOBOZ@)","Original (English)"],"quality":"webdl","translation":"Любительский (многоголосый закадровый) (@MUZOBOZ@)","update":"2020-09-10 12:04:27","iframe_src":"//8543.svetacdn.in/71tsRs29n5tZ/movie/43033"},{"id":43028,"title":"Двенадцать дней Рождества","kp_id":"1143849","imdb_id":"tt7771558","world_art_id":null,"type":"movie","add":"2020-09-02 05:58:32","orig_title":"Twelve Days of Christmas","year":"2020-03-07","translations":["Любительский (многоголосый закадровый) (Синема УС)","Original (English)"],"quality":"webdl","translation":"Любительский (многоголосый закадровый) (Синема УС)","update":"2020-09-10 12:01:02","iframe_src":"//8543.svetacdn.in/71tsRs29n5tZ/movie/43028"},{"id":3090,"title":"Бесстрашная","kp_id":"1008910","imdb_id":"tt5973164","world_art_id":null,"type":"serial","add":"2018-08-27 19:36:27","orig_title":"Fearless","year":"2017-06-12","translations":["Профессиональный (многоголосый закадровый) (FilmsClub)"],"seasons_count":1,"episodes_count":6,"episodes":6,"update":"2018-08-28 16:48:29","iframe_src":"//8543.svetacdn.in/71tsRs29n5tZ/tv-series/3090"},{"id":3085,"title":"Какой она была","kp_id":"1144174","imdb_id":null,"world_art_id":null,"type":"serial","add":"2018-08-26 12:18:35","orig_title":"Какой она была","year":"2018-01-01","translations":["Оригинальная дорожка"],"seasons_count":1,"episodes_count":4,"episodes":4,"update":"2018-08-27 07:44:23","iframe_src":"//8543.svetacdn.in/71tsRs29n5tZ/tv-series/3085"},{"id":3084,"title":"Мисс Хаммурапи","kp_id":"1071413","imdb_id":"tt8090388","world_art_id":null,"type":"serial","add":"2018-08-26 11:51:13","orig_title":"Miseu Hammurabi","year":"2018-05-21","translations":["Любительский (двухголосый закадровый) (Храм Дорам ТВ)"],"seasons_count":1,"episodes_count":16,"episodes":16,"update":"2018-08-27 07:38:32","iframe_src":"//8543.svetacdn.in/71tsRs29n5tZ/tv-series/3084"},{"id":3083,"title":"Я и моя Бубуля","kp_id":"1042717","imdb_id":"tt6076162","world_art_id":null,"type":"serial","add":"2018-08-26 11:46:32","orig_title":"Me and My Grandma","year":"2017-03-22","translations":["Любительский (двухголосый закадровый) (GoldTeam)"],"seasons_count":1,"episodes_count":6,"episodes":6,"update":"2018-08-27 07:06:02","iframe_src":"//8543.svetacdn.in/71tsRs29n5tZ/tv-series/3083"},{"id":3082,"title":"Родная кровь","kp_id":"1174305","imdb_id":null,"world_art_id":null,"type":"serial","add":"2018-08-25 19:01:33","orig_title":"Родная кровь","year":"2018-08-24","translations":["Оригинальная дорожка"],"seasons_count":1,"episodes_count":4,"episodes":4,"update":"2018-08-27 11:26:36","iframe_src":"//8543.svetacdn.in/71tsRs29n5tZ/tv-series/3082"},{"id":3080,"title":"Стокгольмский синдром","kp_id":"1115344","imdb_id":"tt6102418","world_art_id":null,"type":"serial","add":"2018-08-25 08:21:02","orig_title":"Estocolmo","year":"2016-11-01","translations":["Профессиональный (двухголосый закадровый) (ViruseProject)"],"seasons_count":1,"episodes_count":9,"episodes":9,"update":"2018-08-28 22:29:18","iframe_src":"//8543.svetacdn.in/71tsRs29n5tZ/tv-series/3080"},{"id":3075,"title":"Поколение убийц","kp_id":"414891","imdb_id":"tt0995832","world_art_id":null,"type":"serial","add":"2018-08-24 16:34:03","orig_title":"Generation Kill","year":"2008-07-13","translations":["Профессиональный (многоголосый закадровый)"],"seasons_count":1,"episodes_count":7,"episodes":7,"update":"2018-08-29 10:39:11","iframe_src":"//8543.svetacdn.in/71tsRs29n5tZ/tv-series/3075"},{"id":3073,"title":"Счастливая семерка","kp_id":"664647","imdb_id":"tt2108808","world_art_id":null,"type":"serial","add":"2018-08-24 11:59:46","orig_title":"Rakkî sebun","year":"2012-01-16","translations":["Любительский (одноголосый закадровый) (GREEN TEA)"],"seasons_count":1,"episodes_count":10,"episodes":10,"update":"2018-08-26 16:15:42","iframe_src":"//8543.svetacdn.in/71tsRs29n5tZ/tv-series/3073"},{"id":3072,"title":"Токийские девчонки","kp_id":"1044297","imdb_id":"tt6131678","world_art_id":null,"type":"serial","add":"2018-08-24 09:05:04","orig_title":"Tokyo tarareba musume","year":"2017-01-18","translations":["Любительский (одноголосый закадровый) (GREEN TEA)"],"seasons_count":1,"episodes_count":10,"episodes":10,"update":"2018-08-26 16:22:49","iframe_src":"//8543.svetacdn.in/71tsRs29n5tZ/tv-series/3072"},{"id":3071,"title":"За стенами","kp_id":"992644","imdb_id":"tt4999820","world_art_id":null,"type":"serial","add":"2018-08-23 19:22:30","orig_title":"Au-delà des murs","year":"2016-09-22","translations":["Профессиональный (двухголосый закадровый) (ViruseProject)"],"seasons_count":1,"episodes_count":3,"episodes":3,"update":"2018-08-24 08:35:14","iframe_src":"//8543.svetacdn.in/71tsRs29n5tZ/tv-series/3071"},{"id":3063,"title":"Дыши","kp_id":"1111817","imdb_id":"tt6466208","world_art_id":null,"type":"serial","add":"2018-08-23 06:55:08","orig_title":"Breathe","year":"2018-01-26","translations":["Профессиональный (многоголосый закадровый) (GreenРай Studio)"],"seasons_count":1,"episodes_count":8,"episodes":8,"update":"2018-08-29 08:03:16","iframe_src":"//8543.svetacdn.in/71tsRs29n5tZ/tv-series/3063"},{"id":3060,"title":"Россия молодая","kp_id":"81433","imdb_id":"tt0081924","world_art_id":null,"type":"serial","add":"2018-08-22 16:15:49","orig_title":"Rossiya molodaya","year":"1984-01-04","translations":["Оригинальная дорожка"],"seasons_count":1,"episodes_count":9,"episodes":9,"update":"2018-08-27 11:11:19","iframe_src":"//8543.svetacdn.in/71tsRs29n5tZ/tv-series/3060"},{"id":3055,"title":"13 ноября: Атака на Париж","kp_id":"1144186","imdb_id":"tt8194716","world_art_id":null,"type":"serial","add":"2018-08-21 14:18:11","orig_title":"November 13: Attack on Paris","year":"2018-06-01","translations":["Любительский (двухголосый закадровый) (Sunshine Studio)"],"seasons_count":1,"episodes_count":3,"episodes":3,"update":"2018-08-24 06:38:35","iframe_src":"//8543.svetacdn.in/71tsRs29n5tZ/tv-series/3055"},{"id":3040,"title":"Голубая планета","kp_id":"252059","imdb_id":"tt0296310","world_art_id":null,"type":"serial","add":"2018-08-17 11:46:14","orig_title":"The Blue Planet","year":"2001-09-12","translations":["Профессиональный (одноголосый закадровый)"],"seasons_count":1,"episodes_count":8,"episodes":8,"update":"2018-08-28 07:58:10","iframe_src":"//8543.svetacdn.in/71tsRs29n5tZ/tv-series/3040"},{"id":2994,"title":"Легенда о Корре","kp_id":"565035","imdb_id":"tt1695360","world_art_id":null,"type":"serial","add":"2018-08-03 16:00:03","orig_title":"The Legend of Korra","year":"2012-04-14","translations":["Полное дублирование"],"seasons_count":4,"episodes_count":52,"episodes":13,"update":"2018-08-24 05:15:24","iframe_src":"//8543.svetacdn.in/71tsRs29n5tZ/tv-series/2994"},{"id":2951,"title":"Методом проб и ошибок","kp_id":"968930","imdb_id":"tt5511512","world_art_id":null,"type":"serial","add":"2018-07-21 17:49:19","orig_title":"Trial & Error","year":"2017-03-14","translations":["Любительский (двухголосый закадровый) (Sunshine Studio)"],"seasons_count":2,"episodes_count":23,"episodes":10,"update":"2018-08-28 07:01:49","iframe_src":"//8543.svetacdn.in/71tsRs29n5tZ/tv-series/2951"},{"id":1771,"title":"Тупик","kp_id":"993177","imdb_id":"tt5660604","world_art_id":null,"type":"serial","add":"2017-11-26 11:39:44","orig_title":"The Cul De Sac","year":"2016-04-03","translations":["Любительский (двухголосый закадровый) (Sunshine Studio)"],"seasons_count":3,"episodes_count":18,"episodes":6,"update":"2018-08-27 08:23:01","iframe_src":"//8543.svetacdn.in/71tsRs29n5tZ/tv-series/1771"},{"id":1559,"title":"Мерьем","kp_id":"1048085","imdb_id":"tt7224504","world_art_id":null,"type":"serial","add":"2017-09-25 10:19:58","orig_title":"Meryem","year":"2017-08-02","translations":["Любительский (двухголосый закадровый)","Любительский (одноголосый закадровый)"],"seasons_count":1,"episodes_count":30,"episodes":30,"update":"2018-08-27 18:45:30","iframe_src":"//8543.svetacdn.in/71tsRs29n5tZ/tv-series/1559"},{"id":1294,"title":"Искушение","kp_id":"1044787","imdb_id":null,"world_art_id":null,"type":"serial","add":"2017-06-12 17:21:27","orig_title":"Искушение","year":"2017-04-24","translations":["Оригинальная дорожка"],"seasons_count":2,"episodes_count":41,"episodes":17,"update":"2018-08-28 16:42:59","iframe_src":"//8543.svetacdn.in/71tsRs29n5tZ/tv-series/1294"},{"id":150,"title":"Оттенки синего","kp_id":"890417","imdb_id":"tt4118584","world_art_id":null,"type":"serial","add":"2016-06-07 04:40:17","orig_title":"Shades of Blue","year":"2016-01-07","translations":["Профессиональный (многоголосый закадровый) (NewStudio)"],"seasons_count":3,"episodes_count":36,"episodes":10,"update":"2018-08-28 07:59:11","iframe_src":"//8543.svetacdn.in/71tsRs29n5tZ/tv-series/150"}],"current_page":399,"first_page_url":"https://videocdn.tv/api/short?limit=100&api_token=EnbO9h8pv1VyjbCJhg0WM9nG259n7mtz&cache3399=3399&page=1","from":39801,"last_page":609,"last_page_url":"https://videocdn.tv/api/short?limit=100&api_token=EnbO9h8pv1VyjbCJhg0WM9nG259n7mtz&cache3399=3399&page=609","next_page_url":"https://videocdn.tv/api/short?limit=100&api_token=EnbO9h8pv1VyjbCJhg0WM9nG259n7mtz&cache3399=3399&page=400","path":"https://videocdn.tv/api/short","per_page":100,"prev_page_url":"https://videocdn.tv/api/short?limit=100&api_token=EnbO9h8pv1VyjbCJhg0WM9nG259n7mtz&cache3399=3399&page=398","to":39840,"total":60845}