{"result":true,"data":[{"id":35519,"title":"Перехватчик","kp_id":"54166","imdb_id":"tt0104516","world_art_id":null,"type":"movie","add":"2020-01-27 07:51:54","orig_title":"Interceptor","year":"1992-10-01","translations":["Любительский (одноголосый закадровый)"],"quality":"dvdrip","translation":"Любительский (одноголосый закадровый)","update":"2020-01-27 09:02:38","iframe_src":"//24213.svetacdn.in/IAF0wWTdNYZm/movie/35519"},{"id":35491,"title":"Южная сказка","kp_id":"864866","imdb_id":"tt4116488","world_art_id":null,"type":"movie","add":"2020-01-26 17:34:01","orig_title":"Southern Tale","year":"2017-10-27","translations":["Любительский (многоголосый закадровый) (Синема УС)"],"quality":"webdl","translation":"Любительский (многоголосый закадровый) (Синема УС)","update":"2020-01-27 09:22:34","iframe_src":"//24213.svetacdn.in/IAF0wWTdNYZm/movie/35491"},{"id":35490,"title":"Сила Приключений 5","kp_id":"1325865","imdb_id":"tt11082512","world_art_id":null,"type":"movie","add":"2020-01-26 17:32:54","orig_title":"Adventure Force 5","year":"2019-12-19","translations":["Любительский (многоголосый закадровый) (Синема УС)"],"quality":"webdl","translation":"Любительский (многоголосый закадровый) (Синема УС)","update":"2020-01-27 09:19:20","iframe_src":"//24213.svetacdn.in/IAF0wWTdNYZm/movie/35490"},{"id":35489,"title":"Джейкоб","kp_id":null,"imdb_id":"tt9314934","world_art_id":null,"type":"movie","add":"2020-01-26 17:31:12","orig_title":"Jacob","year":"2019-04-24","translations":["Профессиональный (многоголосый закадровый)"],"quality":"webdl","translation":"Профессиональный (многоголосый закадровый)","update":"2020-01-27 09:21:44","iframe_src":"//24213.svetacdn.in/IAF0wWTdNYZm/movie/35489"},{"id":35487,"title":"Пока гниль не разлучит нас","kp_id":"1332008","imdb_id":"tt11368116","world_art_id":null,"type":"movie","add":"2020-01-26 17:28:04","orig_title":"Till Death Do We Rot","year":"2019-11-01","translations":["Любительский (многоголосый закадровый) (Синема УС)"],"quality":"webdl","translation":"Любительский (многоголосый закадровый) (Синема УС)","update":"2020-01-27 09:18:45","iframe_src":"//24213.svetacdn.in/IAF0wWTdNYZm/movie/35487"},{"id":35484,"title":"Невидимый","kp_id":"1108174","imdb_id":"tt7476874","world_art_id":null,"type":"movie","add":"2020-01-26 17:23:04","orig_title":"Adrishya","year":"2017-10-11","translations":["Любительский (многоголосый закадровый) (Синема УС)"],"quality":"webdl","translation":"Любительский (многоголосый закадровый) (Синема УС)","update":"2020-01-27 09:18:20","iframe_src":"//24213.svetacdn.in/IAF0wWTdNYZm/movie/35484"},{"id":35483,"title":"Фогг","kp_id":"905987","imdb_id":"tt4469144","world_art_id":null,"type":"movie","add":"2020-01-26 17:22:05","orig_title":"Fogg","year":"2018-08-21","translations":["Любительский (многоголосый закадровый) (Синема УС)"],"quality":"webdl","translation":"Любительский (многоголосый закадровый) (Синема УС)","update":"2020-01-27 09:18:01","iframe_src":"//24213.svetacdn.in/IAF0wWTdNYZm/movie/35483"},{"id":35481,"title":"Пердрикс","kp_id":"1261613","imdb_id":"tt10228204","world_art_id":null,"type":"movie","add":"2020-01-26 17:20:05","orig_title":"Perdrix","year":"2019-05-19","translations":["Любительский (многоголосый закадровый) (AlphaProject)"],"quality":"webdl","translation":"Любительский (многоголосый закадровый) (AlphaProject)","update":"2020-01-27 09:21:00","iframe_src":"//24213.svetacdn.in/IAF0wWTdNYZm/movie/35481"},{"id":35480,"title":"Злодей","kp_id":"1018548","imdb_id":"tt6203302","world_art_id":null,"type":"movie","add":"2020-01-26 17:19:07","orig_title":"The Villain","year":"2018-10-18","translations":["Любительский (многоголосый закадровый) (Синема УС)"],"quality":"webdl","translation":"Любительский (многоголосый закадровый) (Синема УС)","update":"2020-01-27 09:19:48","iframe_src":"//24213.svetacdn.in/IAF0wWTdNYZm/movie/35480"},{"id":35479,"title":"Антисоциалка","kp_id":"747179","imdb_id":"tt2772092","world_art_id":null,"type":"movie","add":"2020-01-26 14:55:56","orig_title":"Antisocial","year":"2013-07-31","translations":["Любительский (двухголосый закадровый)"],"quality":"hdrip","translation":"Любительский (двухголосый закадровый)","update":"2020-01-27 07:02:59","iframe_src":"//24213.svetacdn.in/IAF0wWTdNYZm/movie/35479"},{"id":35477,"title":"Пейзаж после битвы","kp_id":"181391","imdb_id":"tt0065948","world_art_id":null,"type":"movie","add":"2020-01-26 13:58:22","orig_title":"Krajobraz po bitwie","year":"1970-09-08","translations":["Профессиональный (многоголосый закадровый)"],"quality":"dvdrip","translation":"Профессиональный (многоголосый закадровый)","update":"2020-01-27 07:24:58","iframe_src":"//24213.svetacdn.in/IAF0wWTdNYZm/movie/35477"},{"id":35476,"title":"Резвая","kp_id":"299985","imdb_id":"tt0499558","world_art_id":null,"type":"movie","add":"2020-01-26 13:56:06","orig_title":"Ruffian","year":"2007-06-09","translations":["Профессиональный (многоголосый закадровый)"],"quality":"dvdrip","translation":"Профессиональный (многоголосый закадровый)","update":"2020-01-27 06:58:23","iframe_src":"//24213.svetacdn.in/IAF0wWTdNYZm/movie/35476"},{"id":35475,"title":"Смерть проводника","kp_id":"302500","imdb_id":"tt0302815","world_art_id":null,"type":"movie","add":"2020-01-26 13:53:19","orig_title":"Mort d'un guide","year":"1975-01-04","translations":["Любительский (одноголосый закадровый)"],"quality":"tv","translation":"Любительский (одноголосый закадровый)","update":"2020-01-27 06:57:50","iframe_src":"//24213.svetacdn.in/IAF0wWTdNYZm/movie/35475"},{"id":35472,"title":"Космические друзья","kp_id":"405755","imdb_id":"tt1164647","world_art_id":null,"type":"movie","add":"2020-01-26 12:27:56","orig_title":"Space Buddies","year":"2009-02-03","translations":["Профессиональный (двухголосый закадровый)"],"quality":"bd","translation":"Профессиональный (двухголосый закадровый)","update":"2020-01-27 06:47:33","iframe_src":"//24213.svetacdn.in/IAF0wWTdNYZm/movie/35472"},{"id":35469,"title":"Бильярдист","kp_id":"459","imdb_id":"tt0054997","world_art_id":null,"type":"movie","add":"2020-01-26 12:18:55","orig_title":"The Hustler","year":"1961-09-25","translations":["Профессиональный (многоголосый закадровый)"],"quality":"bd","translation":"Профессиональный (многоголосый закадровый)","update":"2020-01-27 06:49:29","iframe_src":"//24213.svetacdn.in/IAF0wWTdNYZm/movie/35469"},{"id":35458,"title":"Из Мидуэя с любовью","kp_id":"1192185","imdb_id":"tt8954890","world_art_id":null,"type":"movie","add":"2020-01-26 05:37:17","orig_title":"Midway to Love","year":"2019-08-20","translations":["Любительский (многоголосый закадровый) (Синема УС)"],"quality":"webdl","translation":"Любительский (многоголосый закадровый) (Синема УС)","update":"2020-01-27 09:38:48","iframe_src":"//24213.svetacdn.in/IAF0wWTdNYZm/movie/35458"},{"id":35249,"title":"Блюз младенца","kp_id":"707323","imdb_id":"tt2375318","world_art_id":null,"type":"movie","add":"2020-01-20 07:52:59","orig_title":"Gui ying: Baby Blues","year":"2013-05-01","translations":["Любительский (двухголосый закадровый) (DeadSno & den904)"],"quality":"bd","translation":"Любительский (двухголосый закадровый) (DeadSno & den904)","update":"2020-01-27 11:39:42","iframe_src":"//24213.svetacdn.in/IAF0wWTdNYZm/movie/35249"},{"id":34257,"title":"Дельфин Берни 2","kp_id":"1202494","imdb_id":"tt9149946","world_art_id":null,"type":"movie","add":"2019-12-19 09:32:13","orig_title":"Bernie the Dolphin 2","year":"2019-12-17","translations":["Полное дублирование (iTunes)","[EN] Original (English)"],"quality":"webdl","translation":"Полное дублирование (iTunes)","update":"2020-01-27 06:59:39","iframe_src":"//24213.svetacdn.in/IAF0wWTdNYZm/movie/34257"},{"id":13717,"title":"Буквально перед Аароном","kp_id":"981978","imdb_id":"tt5758802","world_art_id":null,"type":"movie","add":"2017-10-04 21:12:39","orig_title":"Literally, Right Before Aaron","year":"2017-04-22","translations":["Полное дублирование (iTunes)"],"quality":"bd","translation":"Полное дублирование (iTunes)","update":"2020-01-27 06:52:53","iframe_src":"//24213.svetacdn.in/IAF0wWTdNYZm/movie/13717"},{"id":6778,"title":"Зов героев","kp_id":"988954","imdb_id":"tt5842624","world_art_id":null,"type":"movie","add":"2016-10-28 09:18:43","orig_title":"Wei cheng jian ba","year":"2016-08-12","translations":["Любительский (двухголосый закадровый)","Авторский (одноголосый закадровый) (Дольский Андрей)","Любительский (двухголосый закадровый) (GREEN TEA)"],"quality":"webdl","translation":"Любительский (двухголосый закадровый)","update":"2020-01-27 11:41:00","iframe_src":"//24213.svetacdn.in/IAF0wWTdNYZm/movie/6778"}],"current_page":1485,"first_page_url":"https://videocdn.tv/api/short?limit=100&api_token=6Onb1W1alEUrBcKJZD3GoKBbWyAl2uG2&cache31485=31485&page=1","from":148401,"last_page":725,"last_page_url":"https://videocdn.tv/api/short?limit=100&api_token=6Onb1W1alEUrBcKJZD3GoKBbWyAl2uG2&cache31485=31485&page=725","next_page_url":null,"path":"https://videocdn.tv/api/short","per_page":100,"prev_page_url":"https://videocdn.tv/api/short?limit=100&api_token=6Onb1W1alEUrBcKJZD3GoKBbWyAl2uG2&cache31485=31485&page=1484","to":148420,"total":72431}