{"result":true,"data":[{"id":7363,"title":"Второе пришествие","kp_id":"719797","imdb_id":"tt2506386","world_art_id":null,"type":"movie","add":"2016-11-11 10:22:51","orig_title":"Zong sheng","year":"2014-03-13","translations":["Любительский (двухголосый закадровый)"],"quality":"bd","translation":"Любительский (двухголосый закадровый)","update":"2016-11-11 15:42:42","iframe_src":"//8543.svetacdn.in/si4jsFRrtgrT/movie/7363"},{"id":7362,"title":"Зеркальная война","kp_id":"9880","imdb_id":"tt0066001","world_art_id":null,"type":"movie","add":"2016-11-11 10:10:27","orig_title":"The Looking Glass War","year":"1969-09-01","translations":["Профессиональный (многоголосый)"],"quality":"dvdrip","translation":"Профессиональный (многоголосый)","update":"2016-11-11 15:47:40","iframe_src":"//8543.svetacdn.in/si4jsFRrtgrT/movie/7362"},{"id":7361,"title":"Май","kp_id":"251967","imdb_id":"tt0499256","world_art_id":null,"type":"movie","add":"2016-11-11 09:56:51","orig_title":"Май","year":"2009-05-03","translations":["Оригинальная дорожка"],"quality":"dvdrip","translation":"Оригинальная дорожка","update":"2016-11-11 15:52:59","iframe_src":"//8543.svetacdn.in/si4jsFRrtgrT/movie/7361"},{"id":7360,"title":"Блондинка в шоколаде","kp_id":"81620","imdb_id":"tt0417056","world_art_id":null,"type":"movie","add":"2016-11-11 08:12:04","orig_title":"Pledge This!","year":"2006-12-01","translations":["Полное дублирование"],"quality":"dvdrip","translation":"Полное дублирование","update":"2016-11-11 15:52:11","iframe_src":"//8543.svetacdn.in/si4jsFRrtgrT/movie/7360"},{"id":7359,"title":"Любовь-Морковь 3","kp_id":"446099","imdb_id":"tt1666169","world_art_id":null,"type":"movie","add":"2016-11-11 08:10:38","orig_title":"Lyubov-Morkov 3","year":"2011-03-01","translations":["Оригинальная дорожка"],"quality":"bd","translation":"Оригинальная дорожка","update":"2016-11-11 15:55:34","iframe_src":"//8543.svetacdn.in/si4jsFRrtgrT/movie/7359"},{"id":7358,"title":"Любовь-морковь 2","kp_id":"405610","imdb_id":"tt1414840","world_art_id":null,"type":"movie","add":"2016-11-11 08:09:59","orig_title":"Lyubov-Morkov 2","year":"2009-01-01","translations":["Оригинальная дорожка"],"quality":"bd","translation":"Оригинальная дорожка","update":"2016-11-11 15:57:26","iframe_src":"//8543.svetacdn.in/si4jsFRrtgrT/movie/7358"},{"id":7357,"title":"Любовь-Морковь","kp_id":"254776","imdb_id":"tt0976209","world_art_id":null,"type":"movie","add":"2016-11-11 08:01:29","orig_title":"Lyubov-Morkov","year":"2007-03-08","translations":["Оригинальная дорожка"],"quality":"dvdrip","translation":"Оригинальная дорожка","update":"2016-11-11 11:53:31","iframe_src":"//8543.svetacdn.in/si4jsFRrtgrT/movie/7357"},{"id":7355,"title":"Победитель","kp_id":"88153","imdb_id":"tt0430779","world_art_id":null,"type":"movie","add":"2016-11-11 07:59:59","orig_title":"Everyone's Hero","year":"2006-09-15","translations":["Полное дублирование"],"quality":"dvdrip","translation":"Полное дублирование","update":"2016-11-11 15:58:55","iframe_src":"//8543.svetacdn.in/si4jsFRrtgrT/movie/7355"},{"id":7351,"title":"Фонтан","kp_id":"81583","imdb_id":"tt0414993","world_art_id":null,"type":"movie","add":"2016-11-11 07:56:17","orig_title":"The Fountain","year":"2006-09-04","translations":["Полное дублирование"],"quality":"bd","translation":"Полное дублирование","update":"2016-11-11 16:02:54","iframe_src":"//8543.svetacdn.in/si4jsFRrtgrT/movie/7351"},{"id":7350,"title":"Уроки вождения","kp_id":"102206","imdb_id":"tt0446687","world_art_id":null,"type":"movie","add":"2016-11-11 07:55:30","orig_title":"Driving Lessons","year":"2006-02-21","translations":["Полное дублирование"],"quality":"dvdrip","translation":"Полное дублирование","update":"2016-11-11 16:05:09","iframe_src":"//8543.svetacdn.in/si4jsFRrtgrT/movie/7350"},{"id":7348,"title":"Горячие новости","kp_id":"82190","imdb_id":"tt0414931","world_art_id":null,"type":"movie","add":"2016-11-11 07:51:26","orig_title":"Dai si gin","year":"2004-05-21","translations":["Профессиональный (многоголосый закадровый)"],"quality":"bd","translation":"Профессиональный (многоголосый закадровый)","update":"2016-11-11 15:51:21","iframe_src":"//8543.svetacdn.in/si4jsFRrtgrT/movie/7348"},{"id":7346,"title":"Последняя война","kp_id":"4730","imdb_id":"tt0243609","world_art_id":null,"type":"movie","add":"2016-11-11 07:48:32","orig_title":"To End All Wars","year":"2001-09-02","translations":["Профессиональный (многоголосый)"],"quality":"dvdrip","translation":"Профессиональный (многоголосый)","update":"2016-11-11 11:29:56","iframe_src":"//8543.svetacdn.in/si4jsFRrtgrT/movie/7346"},{"id":7338,"title":"Параграф 78. Фильм второй","kp_id":"276314","imdb_id":"tt1097014","world_art_id":null,"type":"movie","add":"2016-11-11 07:35:44","orig_title":"Paragraf 78 - Film vtoroy","year":"2007-03-23","translations":["Оригинальная дорожка"],"quality":"dvdrip","translation":"Оригинальная дорожка","update":"2016-11-11 16:06:51","iframe_src":"//8543.svetacdn.in/si4jsFRrtgrT/movie/7338"},{"id":7320,"title":"Сведи меня с ума","kp_id":"13948","imdb_id":"tt0164114","world_art_id":null,"type":"movie","add":"2016-11-11 07:03:05","orig_title":"Drive Me Crazy","year":"1999-09-22","translations":["Профессиональный (многоголосый закадровый)"],"quality":"bd","translation":"Профессиональный (многоголосый закадровый)","update":"2016-11-11 12:00:35","iframe_src":"//8543.svetacdn.in/si4jsFRrtgrT/movie/7320"},{"id":7294,"title":"Женщина без правил","kp_id":"12118","imdb_id":"tt0142201","world_art_id":null,"type":"movie","add":"2016-11-10 13:17:40","orig_title":"Crazy in Alabama","year":"1999-09-09","translations":["Профессиональный (многоголосый закадровый)"],"quality":"hdtv","translation":"Профессиональный (многоголосый закадровый)","update":"2016-11-11 11:56:16","iframe_src":"//8543.svetacdn.in/si4jsFRrtgrT/movie/7294"},{"id":7293,"title":"Святые из Бундока 2: День всех святых","kp_id":"427252","imdb_id":"tt1300851","world_art_id":null,"type":"movie","add":"2016-11-10 13:16:30","orig_title":"The Boondock Saints II: All Saints Day","year":"2009-10-19","translations":["Профессиональный (многоголосый закадровый)"],"quality":"bd","translation":"Профессиональный (многоголосый закадровый)","update":"2016-11-11 11:54:21","iframe_src":"//8543.svetacdn.in/si4jsFRrtgrT/movie/7293"},{"id":7291,"title":"Воздушная скорость","kp_id":"23964","imdb_id":"tt0171049","world_art_id":null,"type":"movie","add":"2016-11-10 13:14:14","orig_title":"Airspeed","year":"1999-01-29","translations":["Профессиональный (многоголосый закадровый)"],"quality":"webdl","translation":"Профессиональный (многоголосый закадровый)","update":"2016-11-11 11:31:46","iframe_src":"//8543.svetacdn.in/si4jsFRrtgrT/movie/7291"},{"id":7290,"title":"Студенческая команда","kp_id":"3953","imdb_id":"tt0139699","world_art_id":null,"type":"movie","add":"2016-11-10 13:12:57","orig_title":"Varsity Blues","year":"1999-01-15","translations":["Профессиональный (двухголосый закадровый)"],"quality":"bd","translation":"Профессиональный (двухголосый закадровый)","update":"2016-11-11 11:28:25","iframe_src":"//8543.svetacdn.in/si4jsFRrtgrT/movie/7290"},{"id":7289,"title":"Приезжие","kp_id":"6663","imdb_id":"tt0129280","world_art_id":null,"type":"movie","add":"2016-11-10 13:12:02","orig_title":"The Out-of-Towners","year":"1999-04-02","translations":["Профессиональный (двухголосый закадровый)"],"quality":"webdl","translation":"Профессиональный (двухголосый закадровый)","update":"2016-11-11 11:27:16","iframe_src":"//8543.svetacdn.in/si4jsFRrtgrT/movie/7289"},{"id":4649,"title":"Гений","kp_id":"557787","imdb_id":"tt1703957","world_art_id":null,"type":"movie","add":"2016-08-24 06:15:08","orig_title":"Genius","year":"2016-02-16","translations":["Полное дублирование"],"quality":"bd","translation":"Полное дублирование","update":"2016-11-11 13:39:51","iframe_src":"//8543.svetacdn.in/si4jsFRrtgrT/movie/4649"}],"current_page":2172,"first_page_url":"https://videocdn.tv/api/short?limit=100&api_token=X6EwAUfE5M9xbo7y0Bp0aPf3uXxG2KLL&cache32172=32172&page=1","from":217101,"last_page":606,"last_page_url":"https://videocdn.tv/api/short?limit=100&api_token=X6EwAUfE5M9xbo7y0Bp0aPf3uXxG2KLL&cache32172=32172&page=606","next_page_url":null,"path":"https://videocdn.tv/api/short","per_page":100,"prev_page_url":"https://videocdn.tv/api/short?limit=100&api_token=X6EwAUfE5M9xbo7y0Bp0aPf3uXxG2KLL&cache32172=32172&page=2171","to":217120,"total":60501}