{"result":true,"data":[{"id":53368,"title":"Вредные привычки","kp_id":null,"imdb_id":"tt14081396","world_art_id":null,"type":"movie","add":"2021-09-24 20:50:36","orig_title":"Les mauvaises habitudes","year":"2021-01-01","translations":["Любительский (многоголосый закадровый) (Синема УС)"],"quality":"webdl","translation":"Любительский (многоголосый закадровый) (Синема УС)","update":"2021-09-25 05:57:38","iframe_src":"//83.svetacdn.in/PfJ50H0ZBPg3/movie/53368"},{"id":53367,"title":"Проклятье быть красавчиком","kp_id":"1264107","imdb_id":"tt9557854","world_art_id":null,"type":"movie","add":"2021-09-24 20:49:04","orig_title":"La maldición del guapo","year":"2020-07-10","translations":["Любительский (многоголосый закадровый) (Синема УС)"],"quality":"webdl","translation":"Любительский (многоголосый закадровый) (Синема УС)","update":"2021-09-25 05:57:52","iframe_src":"//83.svetacdn.in/PfJ50H0ZBPg3/movie/53367"},{"id":53365,"title":"Боб Дилан: Всякая Всячина","kp_id":null,"imdb_id":"tt14972882","world_art_id":null,"type":"movie","add":"2021-09-24 20:45:42","orig_title":"Bob Dylan: Odds and Ends","year":"2021-07-18","translations":["Любительский (многоголосый закадровый) (Синема УС)"],"quality":"webdl","translation":"Любительский (многоголосый закадровый) (Синема УС)","update":"2021-09-25 05:52:49","iframe_src":"//83.svetacdn.in/PfJ50H0ZBPg3/movie/53365"},{"id":53364,"title":"Бумажные драконы","kp_id":"1140188","imdb_id":"tt8430960","world_art_id":null,"type":"movie","add":"2021-09-24 20:44:05","orig_title":"Paper Dragons","year":"2021-09-07","translations":["Любительский (многоголосый закадровый) (Синема УС)"],"quality":"webdl","translation":"Любительский (многоголосый закадровый) (Синема УС)","update":"2021-09-25 05:53:08","iframe_src":"//83.svetacdn.in/PfJ50H0ZBPg3/movie/53364"},{"id":53363,"title":"Совершенный труп","kp_id":"1273681","imdb_id":"tt9767390","world_art_id":null,"type":"movie","add":"2021-09-24 20:42:29","orig_title":"Cadáver Exquisito","year":"2021-09-10","translations":["Любительский (многоголосый закадровый) (Синема УС)"],"quality":"bd","translation":"Любительский (многоголосый закадровый) (Синема УС)","update":"2021-09-25 05:56:08","iframe_src":"//83.svetacdn.in/PfJ50H0ZBPg3/movie/53363"},{"id":53362,"title":"Скотт Линдгрен: покорить поток","kp_id":null,"imdb_id":"tt15293256","world_art_id":null,"type":"movie","add":"2021-09-24 20:40:23","orig_title":"The River Runner","year":"2021-08-25","translations":["Любительский (многоголосый закадровый) (Синема УС)"],"quality":"webdl","translation":"Любительский (многоголосый закадровый) (Синема УС)","update":"2021-09-25 05:56:25","iframe_src":"//83.svetacdn.in/PfJ50H0ZBPg3/movie/53362"},{"id":53359,"title":"Дневник невидимой девушки","kp_id":"4536605","imdb_id":"tt15204288","world_art_id":null,"type":"movie","add":"2021-09-24 20:19:39","orig_title":"Confissões de uma Garota Excluída","year":"2021-09-22","translations":["Любительский (многоголосый закадровый) (AlphaProject)"],"quality":"webdl","translation":"Любительский (многоголосый закадровый) (AlphaProject)","update":"2021-09-25 05:55:48","iframe_src":"//83.svetacdn.in/PfJ50H0ZBPg3/movie/53359"},{"id":53358,"title":"11 сентября: Жизнь под ударом","kp_id":null,"imdb_id":"tt15392822","world_art_id":null,"type":"movie","add":"2021-09-24 20:17:49","orig_title":"9/11: Life Under Attack","year":"2021-09-11","translations":["Любительский (многоголосый закадровый) (Синема УС)"],"quality":"webdl","translation":"Любительский (многоголосый закадровый) (Синема УС)","update":"2021-09-25 05:55:23","iframe_src":"//83.svetacdn.in/PfJ50H0ZBPg3/movie/53358"},{"id":53357,"title":"Эйфель","kp_id":"1294875","imdb_id":"tt10366514","world_art_id":null,"type":"movie","add":"2021-09-24 15:18:15","orig_title":"Eiffel","year":"2021-03-02","translations":["Любительский (многоголосый закадровый) (AlphaProject)"],"quality":"ts","translation":"Любительский (многоголосый закадровый) (AlphaProject)","update":"2021-09-24 19:00:02","iframe_src":"//83.svetacdn.in/PfJ50H0ZBPg3/movie/53357"},{"id":53356,"title":"Беспокойный","kp_id":"1415783","imdb_id":"tt11611486","world_art_id":null,"type":"movie","add":"2021-09-24 15:17:28","orig_title":"Les intranquilles","year":"2021-07-16","translations":["Любительский (многоголосый закадровый) (Синема УС)"],"quality":"ts","translation":"Любительский (многоголосый закадровый) (Синема УС)","update":"2021-09-24 20:16:18","iframe_src":"//83.svetacdn.in/PfJ50H0ZBPg3/movie/53356"},{"id":53355,"title":"Бенджамим Замбрая и его паноптикум","kp_id":null,"imdb_id":"tt14781530","world_art_id":null,"type":"movie","add":"2021-09-24 14:59:21","orig_title":"Benjamim Zambraia e o Autopanóptico","year":"2020-01-01","translations":["Любительский (многоголосый закадровый) (Синема УС)"],"quality":"webdl","translation":"Любительский (многоголосый закадровый) (Синема УС)","update":"2021-09-24 23:58:40","iframe_src":"//83.svetacdn.in/PfJ50H0ZBPg3/movie/53355"},{"id":53353,"title":"Скворец","kp_id":"1039203","imdb_id":"tt5164438","world_art_id":null,"type":"movie","add":"2021-09-24 10:26:14","orig_title":"The Starling","year":"2021-09-12","translations":["Полное дублирование (Пифагор)","Original (English)"],"quality":"webdl","translation":"Полное дублирование (Пифагор)","update":"2021-09-24 14:31:49","iframe_src":"//83.svetacdn.in/PfJ50H0ZBPg3/movie/53353"},{"id":53352,"title":"Фукуока","kp_id":"1231042","imdb_id":"tt9619016","world_art_id":null,"type":"movie","add":"2021-09-24 10:17:10","orig_title":"Fukuoka","year":"2019-02-11","translations":["Любительский (двухголосый закадровый) (АрхиAsia)"],"quality":"webdl","translation":"Любительский (двухголосый закадровый) (АрхиAsia)","update":"2021-09-24 14:33:51","iframe_src":"//83.svetacdn.in/PfJ50H0ZBPg3/movie/53352"},{"id":52292,"title":"Я создан для тебя","kp_id":"1410079","imdb_id":"tt13087796","world_art_id":null,"type":"movie","add":"2021-08-08 08:29:03","orig_title":"I'm Your Man","year":"2021-06-12","translations":["Полное дублирование","Полное дублирование (iTunes)"],"quality":"ts","translation":"Полное дублирование","update":"2021-09-24 09:20:57","iframe_src":"//83.svetacdn.in/PfJ50H0ZBPg3/movie/52292"},{"id":51759,"title":"Вместе","kp_id":"4476149","imdb_id":"tt14640242","world_art_id":null,"type":"movie","add":"2021-07-14 14:57:17","orig_title":"Together","year":"2021-06-17","translations":["Любительский (многоголосый закадровый) (Синема УС)","Original (English)","Профессиональный (двухголосый закадровый) (Pazl Voice)"],"quality":"webdl","translation":"Любительский (многоголосый закадровый) (Синема УС)","update":"2021-09-24 08:07:48","iframe_src":"//83.svetacdn.in/PfJ50H0ZBPg3/movie/51759"},{"id":51731,"title":"Клаустрофобы 2: Лига выживших","kp_id":"1243567","imdb_id":"tt9844522","world_art_id":null,"type":"movie","add":"2021-07-13 15:59:33","orig_title":"Escape Room: Tournament of Champions","year":"2021-07-01","translations":["Original (English)","Любительский (многоголосый закадровый) (@MUZOBOZ@)","Профессиональный (двухголосый закадровый) (Pazl Voice)","Полное дублирование"],"quality":"webdl","translation":"Original (English)","update":"2021-09-24 23:57:19","iframe_src":"//83.svetacdn.in/PfJ50H0ZBPg3/movie/51731"},{"id":51150,"title":"Режим героя","kp_id":"1277912","imdb_id":"tt10528948","world_art_id":null,"type":"movie","add":"2021-06-13 10:03:32","orig_title":"Hero Mode","year":"2021-06-04","translations":["Любительский (многоголосый закадровый) (@MUZOBOZ@)","Original (English)","Полное дублирование (iTunes)"],"quality":"webdl","translation":"Любительский (многоголосый закадровый) (@MUZOBOZ@)","update":"2021-09-24 09:18:52","iframe_src":"//83.svetacdn.in/PfJ50H0ZBPg3/movie/51150"},{"id":10618,"title":"Шоу","kp_id":null,"imdb_id":"tt7696850","world_art_id":null,"type":"serial","add":"2021-05-12 19:06:29","orig_title":"The Show","year":"2018-05-24","translations":["Любительский (многоголосый закадровый) (WestFilm)"],"seasons_count":1,"episodes_count":8,"episodes":8,"update":"2021-05-12 20:46:56","iframe_src":"//83.svetacdn.in/PfJ50H0ZBPg3/tv-series/10618"},{"id":10614,"title":"Приключения Арслана","kp_id":"581549","imdb_id":null,"world_art_id":null,"type":"serial","add":"2021-05-12 10:17:16","orig_title":"Приключения Арслана","year":"1988-01-01","translations":["Оригинальная дорожка"],"seasons_count":1,"episodes_count":2,"episodes":2,"update":"2021-05-12 12:25:07","iframe_src":"//83.svetacdn.in/PfJ50H0ZBPg3/tv-series/10614"},{"id":10613,"title":"Папа, перестань меня позорить","kp_id":"2000650","imdb_id":"tt13018090","world_art_id":null,"type":"serial","add":"2021-05-12 09:12:37","orig_title":"Dad Stop Embarrassing Me","year":"2021-04-14","translations":["Любительский (многоголосый закадровый) (WestFilm)"],"seasons_count":1,"episodes_count":8,"episodes":8,"update":"2021-05-12 14:47:10","iframe_src":"//83.svetacdn.in/PfJ50H0ZBPg3/tv-series/10613"},{"id":10609,"title":"Мэпп и Лючия","kp_id":"838778","imdb_id":"tt3567536","world_art_id":null,"type":"serial","add":"2021-05-11 10:15:19","orig_title":"Mapp & Lucia","year":"2014-12-29","translations":["Любительский (двухголосый закадровый) (RusFilm)"],"seasons_count":1,"episodes_count":3,"episodes":3,"update":"2021-05-12 07:02:55","iframe_src":"//83.svetacdn.in/PfJ50H0ZBPg3/tv-series/10609"},{"id":10608,"title":"Легендарные поединки Ягю Дзюбэя","kp_id":null,"imdb_id":"tt0466422","world_art_id":null,"type":"serial","add":"2021-05-11 07:41:14","orig_title":"Yagyû Jubei nanaban shoubu","year":"2005-04-01","translations":["Любительский (двухголосый закадровый) (RealFake)"],"seasons_count":1,"episodes_count":6,"episodes":6,"update":"2021-05-12 07:26:56","iframe_src":"//83.svetacdn.in/PfJ50H0ZBPg3/tv-series/10608"},{"id":10607,"title":"Это нападение! Крупнейшая кража картин в мире","kp_id":null,"imdb_id":"tt14223858","world_art_id":null,"type":"serial","add":"2021-05-11 06:23:12","orig_title":"This is a Robbery: The World's Biggest Art Heist","year":"2021-04-07","translations":["Профессиональный (многоголосый закадровый) (HDrezka Studio)"],"seasons_count":1,"episodes_count":4,"episodes":4,"update":"2021-05-12 10:27:39","iframe_src":"//83.svetacdn.in/PfJ50H0ZBPg3/tv-series/10607"},{"id":10605,"title":"Война с реальностью","kp_id":"297346","imdb_id":"tt0108953","world_art_id":null,"type":"serial","add":"2021-05-10 19:25:19","orig_title":"TekWar","year":"1994-12-22","translations":["Профессиональный (многоголосый закадровый)"],"seasons_count":1,"episodes_count":24,"episodes":24,"update":"2021-05-11 21:25:22","iframe_src":"//83.svetacdn.in/PfJ50H0ZBPg3/tv-series/10605"},{"id":10592,"title":"Каматипура","kp_id":null,"imdb_id":"tt14149424","world_art_id":null,"type":"serial","add":"2021-05-08 03:41:36","orig_title":"Kamathipura","year":"2021-03-08","translations":["Любительский (двухголосый закадровый) (OnisFilms)","Профессиональный (двухголосый закадровый) (Pazl Voice)"],"seasons_count":1,"episodes_count":7,"episodes":7,"update":"2021-05-12 18:06:03","iframe_src":"//83.svetacdn.in/PfJ50H0ZBPg3/tv-series/10592"},{"id":10576,"title":"Саванна","kp_id":"401711","imdb_id":"tt0115346","world_art_id":null,"type":"serial","add":"2021-05-05 17:46:28","orig_title":"Savannah","year":"1996-01-21","translations":["Профессиональный (двухголосый закадровый)"],"seasons_count":2,"episodes_count":34,"episodes":22,"update":"2021-05-12 20:58:29","iframe_src":"//83.svetacdn.in/PfJ50H0ZBPg3/tv-series/10576"},{"id":10462,"title":"Фрэнк из Ирландии","kp_id":"1354291","imdb_id":"tt11909220","world_art_id":null,"type":"serial","add":"2021-04-20 20:15:37","orig_title":"Frank of Ireland","year":"2021-04-16","translations":["Профессиональный (многоголосый закадровый) (AlexFilm)","Профессиональный (многоголосый закадровый) (HDrezka Studio)","Профессиональный (многоголосый закадровый) (HDrezka Studio 18+)","Профессиональный (многоголосый закадровый) (TVShows)"],"seasons_count":1,"episodes_count":6,"episodes":6,"update":"2021-05-11 11:51:45","iframe_src":"//83.svetacdn.in/PfJ50H0ZBPg3/tv-series/10462"},{"id":10268,"title":"Месть","kp_id":"452884","imdb_id":"tt0344744","world_art_id":null,"type":"serial","add":"2021-03-22 13:32:13","orig_title":"La Venganza","year":"2002-11-04","translations":["Профессиональный (многоголосый закадровый)"],"seasons_count":1,"episodes_count":127,"episodes":127,"update":"2021-05-12 21:36:23","iframe_src":"//83.svetacdn.in/PfJ50H0ZBPg3/tv-series/10268"},{"id":7552,"title":"Сквозь снег","kp_id":"1040428","imdb_id":"tt6156584","world_art_id":null,"type":"serial","add":"2020-05-18 08:15:43","orig_title":"Snowpiercer","year":"2020-05-17","translations":["Любительский (многоголосый закадровый) (ColdFilm)","Любительский (многоголосый закадровый) (Octopus)","Профессиональный (двухголосый закадровый) (Gears Media)","Профессиональный (многоголосый закадровый) (LostFilm)","Профессиональный (многоголосый закадровый) (NewStudio)","Профессиональный (многоголосый закадровый) (HDrezka Studio)","Профессиональный (двухголосый закадровый) (IdeaFilm)","Полное дублирование (Пифагор)","Профессиональный (двухголосый закадровый) (ViruseProject)","Профессиональный (многоголосый закадровый) (BaibaKo)","Любительский (многоголосый закадровый) (KerobTV)","Любительский (многоголосый закадровый) (WestFilm)","Любительский (многоголосый закадровый) (Ultradox)","Любительский (двухголосый закадровый) (ColdFilm)"],"seasons_count":2,"episodes_count":20,"episodes":10,"update":"2021-05-12 07:42:20","iframe_src":"//83.svetacdn.in/PfJ50H0ZBPg3/tv-series/7552"},{"id":40110,"title":"Пощёчина","kp_id":"1302673","imdb_id":"tt10964430","world_art_id":null,"type":"movie","add":"2020-05-05 05:30:00","orig_title":"Thappad","year":"2020-02-28","translations":["Любительский (многоголосый закадровый) (Синема УС)","Профессиональный (многоголосый закадровый) (Лексикон)"],"quality":"webdl","translation":"Любительский (многоголосый закадровый) (Синема УС)","update":"2021-09-24 10:46:36","iframe_src":"//83.svetacdn.in/PfJ50H0ZBPg3/movie/40110"},{"id":6506,"title":"Мария Верн","kp_id":"679551","imdb_id":"tt1129398","world_art_id":null,"type":"serial","add":"2020-01-29 15:13:52","orig_title":"Maria Wern","year":"2008-09-16","translations":["Профессиональный (многоголосый закадровый) (Русский репортаж)","Профессиональный (многоголосый закадровый) (BaibaKo)"],"seasons_count":5,"episodes_count":21,"episodes":8,"update":"2021-05-11 18:47:15","iframe_src":"//83.svetacdn.in/PfJ50H0ZBPg3/tv-series/6506"},{"id":6144,"title":"Дочь посла","kp_id":"1321155","imdb_id":"tt11256614","world_art_id":null,"type":"serial","add":"2019-12-26 07:48:35","orig_title":"Sefirin Kizi","year":"2019-12-15","translations":["Любительский (одноголосый закадровый) (turok1990)","Любительский (двухголосый закадровый) (Анастасия Гайдаржи + Артём Борисов)","Любительский (двухголосый закадровый) (Анастасия Гайдаржи + Андрей Юрченко)","Любительский (двухголосый закадровый) (SesDizi | DiziMania)"],"seasons_count":2,"episodes_count":52,"episodes":35,"update":"2021-05-13 07:36:07","iframe_src":"//83.svetacdn.in/PfJ50H0ZBPg3/tv-series/6144"},{"id":5653,"title":"Серые кардиналы","kp_id":"722392","imdb_id":"tt2181219","world_art_id":null,"type":"serial","add":"2019-11-05 19:53:36","orig_title":"Les hommes de l'ombre","year":"2012-01-25","translations":["Профессиональный (многоголосый закадровый) (BaibaKo)","Любительский (многоголосый закадровый) (WestFilm)"],"seasons_count":3,"episodes_count":18,"episodes":6,"update":"2021-05-12 07:47:39","iframe_src":"//83.svetacdn.in/PfJ50H0ZBPg3/tv-series/5653"},{"id":27405,"title":"Годзилла 2: Король монстров","kp_id":"840045","imdb_id":"tt3741700","world_art_id":null,"type":"movie","add":"2019-06-03 12:35:14","orig_title":"Godzilla: King of the Monsters","year":"2019-05-29","translations":["Полное дублирование","Original (English)","Профессиональный (многоголосый закадровый) (HDrezka Studio)","Полное дублирование (Мосфильм)","Original (English)"],"quality":"bd","translation":"Полное дублирование","update":"2021-09-24 10:45:07","iframe_src":"//83.svetacdn.in/PfJ50H0ZBPg3/movie/27405"},{"id":4228,"title":"Анатомия убийства","kp_id":"1206890","imdb_id":null,"world_art_id":null,"type":"serial","add":"2019-03-10 07:11:00","orig_title":"Анатомия убийства","year":"2019-03-09","translations":["Оригинальная дорожка"],"seasons_count":4,"episodes_count":40,"episodes":8,"update":"2021-05-12 04:20:18","iframe_src":"//83.svetacdn.in/PfJ50H0ZBPg3/tv-series/4228"},{"id":4098,"title":"Личный телохранитель","kp_id":"1049703","imdb_id":"tt7533478","world_art_id":null,"type":"serial","add":"2019-02-17 13:48:20","orig_title":"BG: Shinpen keigonin","year":"2018-01-18","translations":["Любительский (двухголосый закадровый) (LakeFilms)","Любительский (двухголосый закадровый) (RusFilm)"],"seasons_count":1,"episodes_count":9,"episodes":9,"update":"2021-05-12 07:12:53","iframe_src":"//83.svetacdn.in/PfJ50H0ZBPg3/tv-series/4098"},{"id":3831,"title":"Как остаться в браке","kp_id":"1140587","imdb_id":"tt8141458","world_art_id":null,"type":"serial","add":"2019-01-06 21:26:20","orig_title":"How to Stay Married","year":"2018-11-08","translations":["Любительский (многоголосый закадровый) (GreenРай Studio)","Любительский (многоголосый закадровый) (WestFilm)"],"seasons_count":2,"episodes_count":15,"episodes":7,"update":"2021-05-13 18:48:25","iframe_src":"//83.svetacdn.in/PfJ50H0ZBPg3/tv-series/3831"},{"id":3829,"title":"Рокко Скьявоне","kp_id":"1227553","imdb_id":"tt6231158","world_art_id":null,"type":"serial","add":"2019-01-06 16:27:30","orig_title":"Rocco Schiavone","year":"2016-11-09","translations":["Профессиональный (двухголосый закадровый) (ViruseProject)","Любительский (многоголосый закадровый) (Ultradox)"],"seasons_count":4,"episodes_count":16,"episodes":2,"update":"2021-05-11 20:04:21","iframe_src":"//83.svetacdn.in/PfJ50H0ZBPg3/tv-series/3829"},{"id":3047,"title":"Яблочный двор","kp_id":"972284","imdb_id":"tt5336698","world_art_id":null,"type":"serial","add":"2018-08-20 07:16:31","orig_title":"Apple Tree Yard","year":"2017-01-22","translations":["Профессиональный (двухголосый закадровый) (ViruseProject)","Любительский (двухголосый закадровый) (RusFilm)"],"seasons_count":1,"episodes_count":4,"episodes":4,"update":"2021-05-12 06:58:49","iframe_src":"//83.svetacdn.in/PfJ50H0ZBPg3/tv-series/3047"},{"id":8537,"title":"Кен Парк","kp_id":"9485","imdb_id":"tt0209077","world_art_id":null,"type":"movie","add":"2017-01-03 08:44:25","orig_title":"Ken Park","year":"2002-08-31","translations":["Профессиональный (многоголосый)","Профессиональный (двухголосый закадровый)"],"quality":"dvdrip","translation":"Профессиональный (многоголосый)","update":"2021-09-24 09:11:57","iframe_src":"//83.svetacdn.in/PfJ50H0ZBPg3/movie/8537"}],"current_page":104,"first_page_url":"https://videocdn.tv/api/short?limit=100&api_token=RgFQdUIR2dRmwv8iYa5SnFNgnw3vpjKj&cache3104=3104&page=1","from":10301,"last_page":678,"last_page_url":"https://videocdn.tv/api/short?limit=100&api_token=RgFQdUIR2dRmwv8iYa5SnFNgnw3vpjKj&cache3104=3104&page=678","next_page_url":"https://videocdn.tv/api/short?limit=100&api_token=RgFQdUIR2dRmwv8iYa5SnFNgnw3vpjKj&cache3104=3104&page=105","path":"https://videocdn.tv/api/short","per_page":100,"prev_page_url":"https://videocdn.tv/api/short?limit=100&api_token=RgFQdUIR2dRmwv8iYa5SnFNgnw3vpjKj&cache3104=3104&page=103","to":10340,"total":67706}