{"result":true,"data":[{"id":49812,"title":"Хватай и беги","kp_id":"899463","imdb_id":"tt4463780","world_art_id":null,"type":"movie","add":"2021-04-22 15:08:14","orig_title":"Dohchay","year":"2015-04-23","translations":["Любительский (двухголосый закадровый) (Honey&Haseena)"],"quality":"dvdrip","translation":"Любительский (двухголосый закадровый) (Honey&Haseena)","update":"2021-04-22 17:59:10","iframe_src":"//8422.svetacdn.in/71tsRs29n5tZ/movie/49812"},{"id":49810,"title":"Друзья","kp_id":"859989","imdb_id":"tt3698454","world_art_id":null,"type":"movie","add":"2021-04-22 07:52:57","orig_title":"Yaara","year":"2020-07-30","translations":["Любительский (многоголосый закадровый) (OnisFilms)"],"quality":"webdl","translation":"Любительский (многоголосый закадровый) (OnisFilms)","update":"2021-04-22 15:05:18","iframe_src":"//8422.svetacdn.in/71tsRs29n5tZ/movie/49810"},{"id":49809,"title":"Поборницы свободы","kp_id":"57705","imdb_id":"tt0113649","world_art_id":null,"type":"movie","add":"2021-04-22 05:47:42","orig_title":"Libertarias","year":"1996-04-19","translations":["Любительский (двухголосый закадровый)"],"quality":"webdl","translation":"Любительский (двухголосый закадровый)","update":"2021-04-22 18:26:27","iframe_src":"//8422.svetacdn.in/71tsRs29n5tZ/movie/49809"},{"id":49808,"title":"Саботаж","kp_id":"9130","imdb_id":"tt0028212","world_art_id":null,"type":"movie","add":"2021-04-22 05:45:58","orig_title":"Sabotage","year":"1936-12-02","translations":["Профессиональный (многоголосый закадровый) (SomeWax)"],"quality":"bd","translation":"Профессиональный (многоголосый закадровый) (SomeWax)","update":"2021-04-22 09:17:22","iframe_src":"//8422.svetacdn.in/71tsRs29n5tZ/movie/49808"},{"id":49798,"title":"Ток-ку вернулся","kp_id":"4336727","imdb_id":null,"world_art_id":null,"type":"movie","add":"2021-04-21 20:48:38","orig_title":"Deokgu ijeu baek","year":"2021-03-15","translations":["Любительский (двухголосый закадровый) (Колобок)"],"quality":"webdl","translation":"Любительский (двухголосый закадровый) (Колобок)","update":"2021-04-22 07:11:17","iframe_src":"//8422.svetacdn.in/71tsRs29n5tZ/movie/49798"},{"id":49796,"title":"На площадку","kp_id":"1382620","imdb_id":"tt12266988","world_art_id":null,"type":"movie","add":"2021-04-21 19:10:29","orig_title":"Calltime","year":"2021-04-06","translations":["Любительский (многоголосый закадровый) (@MUZOBOZ@)"],"quality":"webdl","translation":"Любительский (многоголосый закадровый) (@MUZOBOZ@)","update":"2021-04-22 07:11:38","iframe_src":"//8422.svetacdn.in/71tsRs29n5tZ/movie/49796"},{"id":48797,"title":"Мой ужин с Андре","kp_id":"28648","imdb_id":"tt0082783","world_art_id":null,"type":"movie","add":"2021-03-16 07:11:39","orig_title":"My Dinner with Andre","year":"1981-10-08","translations":["Профессиональный (многоголосый закадровый) (Cinema Prestige)","Original (English)"],"quality":"bd","translation":"Профессиональный (многоголосый закадровый) (Cinema Prestige)","update":"2021-04-22 09:20:13","iframe_src":"//8422.svetacdn.in/71tsRs29n5tZ/movie/48797"},{"id":48671,"title":"Поедая Рауля","kp_id":"14937","imdb_id":"tt0083869","world_art_id":null,"type":"movie","add":"2021-03-12 07:59:32","orig_title":"Eating Raoul","year":"1982-03-24","translations":["Любительский (одноголосый закадровый)","Original (English)"],"quality":"bd","translation":"Любительский (одноголосый закадровый)","update":"2021-04-22 09:22:52","iframe_src":"//8422.svetacdn.in/71tsRs29n5tZ/movie/48671"},{"id":48657,"title":"Птицекалипсис: Шок и трепет","kp_id":"437542","imdb_id":"tt1316037","world_art_id":null,"type":"movie","add":"2021-03-11 15:18:12","orig_title":"Birdemic: Shock and Terror","year":"2010-02-27","translations":["Любительский (одноголосый закадровый) (Psychotronic)","Original (English)"],"quality":"bd","translation":"Любительский (одноголосый закадровый) (Psychotronic)","update":"2021-04-22 09:28:06","iframe_src":"//8422.svetacdn.in/71tsRs29n5tZ/movie/48657"},{"id":48648,"title":"Большая медицина","kp_id":"6542","imdb_id":"tt0097458","world_art_id":null,"type":"movie","add":"2021-03-11 06:58:11","orig_title":"Gross Anatomy","year":"1989-10-20","translations":["Авторский (одноголосый закадровый) (Михалёв Алексей)","Original (English)"],"quality":"bd","translation":"Авторский (одноголосый закадровый) (Михалёв Алексей)","update":"2021-04-22 09:21:33","iframe_src":"//8422.svetacdn.in/71tsRs29n5tZ/movie/48648"},{"id":48613,"title":"Рашн Юг","kp_id":"1395847","imdb_id":"tt13730558","world_art_id":null,"type":"movie","add":"2021-03-10 10:28:12","orig_title":"Russian Yug","year":"2021-03-04","translations":["Оригинальная дорожка"],"quality":"webdl","translation":"Оригинальная дорожка","update":"2021-04-22 09:15:36","iframe_src":"//8422.svetacdn.in/71tsRs29n5tZ/movie/48613"},{"id":48538,"title":"Отчаяние","kp_id":"36324","imdb_id":"tt0077421","world_art_id":null,"type":"movie","add":"2021-03-08 07:01:53","orig_title":"Despair","year":"1978-05-19","translations":["Профессиональный (двухголосый закадровый) (СВ-Дубль)","Original (English)"],"quality":"bd","translation":"Профессиональный (двухголосый закадровый) (СВ-Дубль)","update":"2021-04-22 09:26:23","iframe_src":"//8422.svetacdn.in/71tsRs29n5tZ/movie/48538"},{"id":46846,"title":"Наш отец","kp_id":"1294533","imdb_id":"tt10798072","world_art_id":null,"type":"movie","add":"2021-01-10 09:25:46","orig_title":"Padrenostro","year":"2020-09-04","translations":["Любительский (многоголосый закадровый) (Синема УС)","Профессиональный (многоголосый закадровый) (iTunes)"],"quality":"bd","translation":"Любительский (многоголосый закадровый) (Синема УС)","update":"2021-04-22 18:21:11","iframe_src":"//8422.svetacdn.in/71tsRs29n5tZ/movie/46846"},{"id":5514,"title":"Бумажки","kp_id":"923516","imdb_id":"tt7983914","world_art_id":null,"type":"serial","add":"2019-10-23 20:22:31","orig_title":"Bumazhki","year":"2015-03-21","translations":["Оригинальная дорожка"],"seasons_count":1,"episodes_count":78,"episodes":78,"update":"2019-10-24 20:50:31","iframe_src":"//8422.svetacdn.in/71tsRs29n5tZ/tv-series/5514"},{"id":5511,"title":"Сейчас или никогда","kp_id":"390330","imdb_id":"tt0212395","world_art_id":null,"type":"serial","add":"2019-10-23 10:23:34","orig_title":"Now and Again","year":"1999-09-24","translations":["Любительский (двухголосый закадровый)"],"seasons_count":1,"episodes_count":22,"episodes":22,"update":"2019-10-24 21:24:31","iframe_src":"//8422.svetacdn.in/71tsRs29n5tZ/tv-series/5511"},{"id":5509,"title":"Луи","kp_id":"505736","imdb_id":"tt1492966","world_art_id":null,"type":"serial","add":"2019-10-23 09:36:40","orig_title":"Louie","year":"2010-06-29","translations":["Любительский (двухголосый закадровый)","Профессиональный (двухголосый закадровый) (Ozz.tv)"],"seasons_count":5,"episodes_count":61,"episodes":8,"update":"2019-10-24 13:00:08","iframe_src":"//8422.svetacdn.in/71tsRs29n5tZ/tv-series/5509"},{"id":5508,"title":"Бездна","kp_id":"594640","imdb_id":"tt1525182","world_art_id":null,"type":"serial","add":"2019-10-23 09:30:37","orig_title":"The Deep","year":"2010-08-03","translations":["Профессиональный (многоголосый закадровый) (TVShows)"],"seasons_count":1,"episodes_count":5,"episodes":5,"update":"2019-10-24 20:28:46","iframe_src":"//8422.svetacdn.in/71tsRs29n5tZ/tv-series/5508"},{"id":5507,"title":"Активы","kp_id":"818729","imdb_id":"tt3074646","world_art_id":null,"type":"serial","add":"2019-10-23 09:13:41","orig_title":"The Assets","year":"2014-01-02","translations":["Профессиональный (многоголосый закадровый) (TVShows)"],"seasons_count":1,"episodes_count":8,"episodes":8,"update":"2019-10-24 20:21:45","iframe_src":"//8422.svetacdn.in/71tsRs29n5tZ/tv-series/5507"},{"id":5505,"title":"Пороги времени","kp_id":"89594","imdb_id":"tt0106154","world_art_id":null,"type":"serial","add":"2019-10-23 08:48:59","orig_title":"Time Trax","year":"1993-01-20","translations":["Полное дублирование (СВ-Дубль)"],"seasons_count":2,"episodes_count":43,"episodes":22,"update":"2019-10-24 12:06:21","iframe_src":"//8422.svetacdn.in/71tsRs29n5tZ/tv-series/5505"},{"id":5504,"title":"Слепой 2","kp_id":"424035","imdb_id":"tt4113972","world_art_id":null,"type":"serial","add":"2019-10-23 08:45:24","orig_title":"Slepoy 2","year":"2005-01-01","translations":["Оригинальная дорожка"],"seasons_count":1,"episodes_count":8,"episodes":8,"update":"2019-10-24 19:58:52","iframe_src":"//8422.svetacdn.in/71tsRs29n5tZ/tv-series/5504"},{"id":5503,"title":"Школа вампиров","kp_id":"510091","imdb_id":"tt1073449","world_art_id":null,"type":"serial","add":"2019-10-23 07:10:53","orig_title":"Die Schule der kleinen Vampire","year":"2006-01-01","translations":["Полное дублирование"],"seasons_count":3,"episodes_count":78,"episodes":26,"update":"2019-10-24 11:14:03","iframe_src":"//8422.svetacdn.in/71tsRs29n5tZ/tv-series/5503"},{"id":5495,"title":"Завтра будет новый день","kp_id":"1311062","imdb_id":null,"world_art_id":null,"type":"serial","add":"2019-10-20 10:01:50","orig_title":"Завтра будет новый день","year":"2019-10-19","translations":["Оригинальная дорожка"],"seasons_count":1,"episodes_count":2,"episodes":2,"update":"2019-10-22 19:23:47","iframe_src":"//8422.svetacdn.in/71tsRs29n5tZ/tv-series/5495"},{"id":5494,"title":"Я знаю твои секреты 2","kp_id":"1283478","imdb_id":null,"world_art_id":null,"type":"serial","add":"2019-10-19 12:40:15","orig_title":"Я знаю твои секреты 2","year":"2019-10-19","translations":["Оригинальная дорожка"],"seasons_count":1,"episodes_count":4,"episodes":4,"update":"2019-10-21 11:28:03","iframe_src":"//8422.svetacdn.in/71tsRs29n5tZ/tv-series/5494"},{"id":5490,"title":"Воздушные замки","kp_id":"422962","imdb_id":"tt0202716","world_art_id":null,"type":"serial","add":"2019-10-18 09:01:41","orig_title":"Andando Nas Nuvens","year":"1999-01-01","translations":["Профессиональный (многоголосый закадровый)"],"seasons_count":1,"episodes_count":131,"episodes":131,"update":"2019-10-18 11:52:10","iframe_src":"//8422.svetacdn.in/71tsRs29n5tZ/tv-series/5490"},{"id":5488,"title":"Человек-невидимка","kp_id":"251610","imdb_id":"tt0220238","world_art_id":null,"type":"serial","add":"2019-10-17 20:11:23","orig_title":"The Invisible Man","year":"2000-06-09","translations":["Профессиональный (многоголосый закадровый) (ТВ3)","Профессиональный (многоголосый закадровый) (СТС)"],"seasons_count":2,"episodes_count":45,"episodes":22,"update":"2019-10-22 21:32:06","iframe_src":"//8422.svetacdn.in/71tsRs29n5tZ/tv-series/5488"},{"id":5485,"title":"Гранд отель","kp_id":"601854","imdb_id":"tt2006421","world_art_id":null,"type":"serial","add":"2019-10-17 10:29:21","orig_title":"Gran Hotel","year":"2011-10-04","translations":["Полное дублирование (Домашний)","Профессиональный (двухголосый закадровый)"],"seasons_count":3,"episodes_count":39,"episodes":22,"update":"2019-10-18 09:52:51","iframe_src":"//8422.svetacdn.in/71tsRs29n5tZ/tv-series/5485"},{"id":5483,"title":"Белиссима","kp_id":"325758","imdb_id":"tt0488259","world_art_id":null,"type":"serial","add":"2019-10-16 21:08:48","orig_title":"Belíssima","year":"2005-11-07","translations":["Профессиональный (многоголосый закадровый)"],"seasons_count":1,"episodes_count":180,"episodes":180,"update":"2019-10-25 07:16:03","iframe_src":"//8422.svetacdn.in/71tsRs29n5tZ/tv-series/5483"},{"id":5475,"title":"Чаггингтон: Веселые паровозики","kp_id":"565228","imdb_id":"tt1307510","world_art_id":null,"type":"serial","add":"2019-10-15 12:21:49","orig_title":"Chuggington","year":"2009-01-01","translations":["Полное дублирование"],"seasons_count":4,"episodes_count":118,"episodes":26,"update":"2019-10-23 20:44:33","iframe_src":"//8422.svetacdn.in/71tsRs29n5tZ/tv-series/5475"},{"id":5464,"title":"Холодные берега","kp_id":"1236244","imdb_id":"tt10592612","world_art_id":null,"type":"serial","add":"2019-10-14 15:12:43","orig_title":"Kholodnye berega","year":"2019-10-14","translations":["Оригинальная дорожка"],"seasons_count":1,"episodes_count":8,"episodes":8,"update":"2019-10-18 08:34:51","iframe_src":"//8422.svetacdn.in/71tsRs29n5tZ/tv-series/5464"},{"id":5153,"title":"Форс-мажор","kp_id":"988790","imdb_id":"tt10027956","world_art_id":null,"type":"serial","add":"2019-09-06 15:06:46","orig_title":"Fors-mazhor","year":"2016-01-01","translations":["Оригинальная дорожка"],"seasons_count":1,"episodes_count":10,"episodes":10,"update":"2019-10-23 12:19:43","iframe_src":"//8422.svetacdn.in/71tsRs29n5tZ/tv-series/5153"},{"id":5145,"title":"Элегантная семья","kp_id":"1256142","imdb_id":"tt10815362","world_art_id":null,"type":"serial","add":"2019-09-05 09:31:42","orig_title":"Wooahan Ga","year":"2019-08-21","translations":["Любительский (двухголосый закадровый) (Voice Project Studio)"],"seasons_count":1,"episodes_count":16,"episodes":16,"update":"2019-10-25 04:14:02","iframe_src":"//8422.svetacdn.in/71tsRs29n5tZ/tv-series/5145"},{"id":27083,"title":"Первый король Рима","kp_id":"1066106","imdb_id":"tt7278824","world_art_id":null,"type":"movie","add":"2019-05-26 19:17:01","orig_title":"Il primo re","year":"2019-01-31","translations":["Любительский (многоголосый закадровый) (@MUZOBOZ@)","Профессиональный (многоголосый закадровый) (HDrezka Studio)","Профессиональный (многоголосый закадровый) (IVI)"],"quality":"bd","translation":"Любительский (многоголосый закадровый) (@MUZOBOZ@)","update":"2021-04-22 18:10:06","iframe_src":"//8422.svetacdn.in/71tsRs29n5tZ/movie/27083"},{"id":4467,"title":"Ворон","kp_id":"1227460","imdb_id":"tt9529500","world_art_id":null,"type":"serial","add":"2019-05-07 19:12:49","orig_title":"Kuzgun","year":"2019-02-13","translations":["Любительский (двухголосый закадровый)"],"seasons_count":2,"episodes_count":21,"episodes":5,"update":"2019-10-22 17:10:05","iframe_src":"//8422.svetacdn.in/71tsRs29n5tZ/tv-series/4467"},{"id":3264,"title":"Учителя","kp_id":"1108687","imdb_id":null,"world_art_id":null,"type":"serial","add":"2018-10-06 09:56:50","orig_title":"Учителя","year":"2018-10-01","translations":["Оригинальная дорожка"],"seasons_count":1,"episodes_count":12,"episodes":12,"update":"2019-10-24 17:54:45","iframe_src":"//8422.svetacdn.in/71tsRs29n5tZ/tv-series/3264"},{"id":17506,"title":"Местные","kp_id":"1004784","imdb_id":"tt5591666","world_art_id":null,"type":"movie","add":"2018-07-02 01:10:59","orig_title":"The Domestics","year":"2018-06-29","translations":["Любительский (многоголосый закадровый) (Синема УС)","Original (English)","Профессиональный (многоголосый закадровый) (Jaskier)","Профессиональный (многоголосый закадровый) (HDrezka Studio)","Профессиональный (многоголосый закадровый) (HDrezka Studio)","Профессиональный (многоголосый закадровый) (SDI Media | Iyuno-SDI Group Russia)","Original (English)"],"quality":"webdl","translation":"Любительский (многоголосый закадровый) (Синема УС)","update":"2021-04-22 09:24:57","iframe_src":"//8422.svetacdn.in/71tsRs29n5tZ/movie/17506"},{"id":12309,"title":"Сердце Клары","kp_id":"6566","imdb_id":"tt0094882","world_art_id":null,"type":"movie","add":"2017-07-05 11:37:51","orig_title":"Clara's Heart","year":"1988-10-07","translations":["Профессиональный (двухголосый закадровый)","Original (English)"],"quality":"bd","translation":"Профессиональный (двухголосый закадровый)","update":"2021-04-22 09:27:19","iframe_src":"//8422.svetacdn.in/71tsRs29n5tZ/movie/12309"},{"id":7256,"title":"Подъем с глубины","kp_id":"3551","imdb_id":"tt0118956","world_art_id":null,"type":"movie","add":"2016-11-09 16:10:05","orig_title":"Deep Rising","year":"1998-01-30","translations":["Профессиональный (двухголосый закадровый)","Профессиональный (многоголосый закадровый) (Первый канал | ОРТ)","Авторский (одноголосый закадровый) (Гаврилов Андрей)","Авторский (одноголосый закадровый) (Живов Юрий)","Original (English)","Любительский (одноголосый закадровый)","Профессиональный (двухголосый закадровый) (НТВ)","Профессиональный (двухголосый закадровый) (West Video)","Профессиональный (многоголосый закадровый) (Первый канал | ОРТ)"],"quality":"bd","translation":"Профессиональный (двухголосый закадровый)","update":"2021-04-22 09:44:54","iframe_src":"//8422.svetacdn.in/71tsRs29n5tZ/movie/7256"},{"id":7202,"title":"8 голов в одной сумке","kp_id":"10910","imdb_id":"tt0118541","world_art_id":null,"type":"movie","add":"2016-11-08 15:17:28","orig_title":"8 Heads in a Duffel Bag","year":"1997-04-18","translations":["Профессиональный (двухголосый закадровый)","Авторский (одноголосый закадровый) (Горчаков Василий)","Original (English)","Профессиональный (двухголосый закадровый) (Гланц + Королёва)"],"quality":"webdl","translation":"Профессиональный (двухголосый закадровый)","update":"2021-04-22 09:37:14","iframe_src":"//8422.svetacdn.in/71tsRs29n5tZ/movie/7202"},{"id":1919,"title":"Сердце Ангела","kp_id":"7471","imdb_id":"tt0092563","world_art_id":null,"type":"movie","add":"2016-05-07 07:58:51","orig_title":"Angel Heart","year":"1987-03-06","translations":["Профессиональный (многоголосый закадровый)","Полное дублирование","Авторский (одноголосый закадровый) (Либергал Григорий)","Авторский (одноголосый закадровый) (Матвеев Алексей | Doctor Joker)","Авторский (одноголосый закадровый) (Михалёв Алексей)","Авторский (одноголосый закадровый) (Сербин Юрий)","Авторский (одноголосый закадровый) (Завгородний Владимир)","Авторский (одноголосый закадровый) (Живов Юрий)","Полное дублирование (Киностудия им. Горького)","Original (English)","Профессиональный (двухголосый закадровый) (Гланц + Королёва)","Профессиональный (многоголосый закадровый) (Amalgama)","Профессиональный (двухголосый закадровый) (Киномания)"],"quality":"bd","translation":"Профессиональный (многоголосый закадровый)","update":"2021-04-22 10:30:48","iframe_src":"//8422.svetacdn.in/71tsRs29n5tZ/movie/1919"},{"id":538,"title":"Авиатор","kp_id":"6374","imdb_id":"tt0338751","world_art_id":null,"type":"movie","add":"2016-04-04 19:44:55","orig_title":"The Aviator","year":"2004-12-14","translations":["Полное дублирование","Original (English)","Авторский (одноголосый закадровый) (Немахов Юрий)","Полное дублирование","Original (English)","Профессиональный (двухголосый закадровый)","Профессиональный (двухголосый закадровый) (Tycoon)","Профессиональный (многоголосый закадровый)"],"quality":"bd","translation":"Полное дублирование","update":"2021-04-22 09:52:10","iframe_src":"//8422.svetacdn.in/71tsRs29n5tZ/movie/538"}],"current_page":382,"first_page_url":"https://videocdn.tv/api/short?limit=100&api_token=EnbO9h8pv1VyjbCJhg0WM9nG259n7mtz&cache3382=3382&page=1","from":38101,"last_page":679,"last_page_url":"https://videocdn.tv/api/short?limit=100&api_token=EnbO9h8pv1VyjbCJhg0WM9nG259n7mtz&cache3382=3382&page=679","next_page_url":"https://videocdn.tv/api/short?limit=100&api_token=EnbO9h8pv1VyjbCJhg0WM9nG259n7mtz&cache3382=3382&page=383","path":"https://videocdn.tv/api/short","per_page":100,"prev_page_url":"https://videocdn.tv/api/short?limit=100&api_token=EnbO9h8pv1VyjbCJhg0WM9nG259n7mtz&cache3382=3382&page=381","to":38140,"total":67847}