{"result":true,"data":[{"id":18,"title":"Робот по имени Чаппи","kp_id":"591485","imdb_id":"tt1823672","world_art_id":null,"type":"movie","add":"2016-02-05 22:07:01","orig_title":"Chappie","year":"2015-03-04","translations":["Полное дублирование"],"quality":"bd","translation":"Полное дублирование","update":"2016-02-05 22:07:56","iframe_src":"//8332.svetacdn.in/71tsRs29n5tZ/movie/18"},{"id":17,"title":"Кибер","kp_id":"739892","imdb_id":"tt2717822","world_art_id":null,"type":"movie","add":"2016-02-05 22:04:05","orig_title":"Blackhat","year":"2015-01-08","translations":["Полное дублирование"],"quality":"bd","translation":"Полное дублирование","update":"2016-02-05 22:05:12","iframe_src":"//8332.svetacdn.in/71tsRs29n5tZ/movie/17"},{"id":5,"title":"Эверест","kp_id":"739642","imdb_id":"tt2719848","world_art_id":null,"type":"movie","add":"2016-02-04 10:50:29","orig_title":"Everest","year":"2015-09-02","translations":["Полное дублирование"],"quality":"bd","translation":"Полное дублирование","update":"2016-02-05 20:32:09","iframe_src":"//8332.svetacdn.in/71tsRs29n5tZ/movie/5"}],"current_page":2522,"first_page_url":"https://videocdn.tv/api/short?limit=100&api_token=EnbO9h8pv1VyjbCJhg0WM9nG259n7mtz&cache32522=32522&page=1","from":252101,"last_page":632,"last_page_url":"https://videocdn.tv/api/short?limit=100&api_token=EnbO9h8pv1VyjbCJhg0WM9nG259n7mtz&cache32522=32522&page=632","next_page_url":null,"path":"https://videocdn.tv/api/short","per_page":100,"prev_page_url":"https://videocdn.tv/api/short?limit=100&api_token=EnbO9h8pv1VyjbCJhg0WM9nG259n7mtz&cache32522=32522&page=2521","to":252103,"total":63189}