{"result":true,"data":[{"id":4612,"title":"Властелин легенд (2 серия)","kp_id":"77215","imdb_id":null,"world_art_id":null,"type":"movie","add":"2016-08-21 16:34:00","orig_title":"DreamKeeper","year":"2003-12-28","translations":["Профессиональный (двухголосый закадровый)"],"quality":"bd","translation":"Профессиональный (двухголосый закадровый)","update":"2016-08-22 18:15:34","iframe_src":"//83.svetacdn.in/PfJ50H0ZBPg3/movie/4612"},{"id":4603,"title":"Достань меня, если сможешь","kp_id":"716461","imdb_id":"tt0959306","world_art_id":null,"type":"movie","add":"2016-08-21 15:37:47","orig_title":"Reach Me","year":"2014-11-19","translations":["Авторский (одноголосый закадровый) (Дольский Андрей)"],"quality":"bd","translation":"Авторский (одноголосый закадровый) (Дольский Андрей)","update":"2016-08-22 19:23:21","iframe_src":"//83.svetacdn.in/PfJ50H0ZBPg3/movie/4603"},{"id":4601,"title":"Уязвимость нулевых дней","kp_id":"961101","imdb_id":"tt5446858","world_art_id":null,"type":"movie","add":"2016-08-21 15:35:04","orig_title":"Zero Days","year":"2016-02-11","translations":["Любительский (двухголосый закадровый) (RecentFilms)"],"quality":"webdl","translation":"Любительский (двухголосый закадровый) (RecentFilms)","update":"2016-08-22 19:18:30","iframe_src":"//83.svetacdn.in/PfJ50H0ZBPg3/movie/4601"},{"id":4600,"title":"Чeтыре пера","kp_id":"673","imdb_id":"tt0240510","world_art_id":null,"type":"movie","add":"2016-08-21 15:33:48","orig_title":"The Four Feathers","year":"2002-09-08","translations":["Полное дублирование"],"quality":"bd","translation":"Полное дублирование","update":"2016-08-22 19:00:50","iframe_src":"//83.svetacdn.in/PfJ50H0ZBPg3/movie/4600"},{"id":4598,"title":"Убийства в Оксфорде","kp_id":"261761","imdb_id":"tt0488604","world_art_id":null,"type":"movie","add":"2016-08-21 15:30:44","orig_title":"The Oxford Murders","year":"2008-01-17","translations":["Профессиональный (многоголосый закадровый)"],"quality":"bd","translation":"Профессиональный (многоголосый закадровый)","update":"2016-08-22 18:59:11","iframe_src":"//83.svetacdn.in/PfJ50H0ZBPg3/movie/4598"},{"id":4597,"title":"В Америке","kp_id":"8068","imdb_id":"tt0298845","world_art_id":null,"type":"movie","add":"2016-08-21 15:29:42","orig_title":"In America","year":"2002-09-12","translations":["Профессиональный (многоголосый закадровый)"],"quality":"bd","translation":"Профессиональный (многоголосый закадровый)","update":"2016-08-22 18:57:35","iframe_src":"//83.svetacdn.in/PfJ50H0ZBPg3/movie/4597"},{"id":4596,"title":"Цвет времени","kp_id":"655414","imdb_id":"tt2133333","world_art_id":null,"type":"movie","add":"2016-08-21 15:26:25","orig_title":"The Color of Time","year":"2012-11-16","translations":["Профессиональный (многоголосый закадровый)"],"quality":"hdtv","translation":"Профессиональный (многоголосый закадровый)","update":"2016-08-22 18:53:06","iframe_src":"//83.svetacdn.in/PfJ50H0ZBPg3/movie/4596"},{"id":4595,"title":"Уроки вождения","kp_id":"780502","imdb_id":"tt3062976","world_art_id":null,"type":"movie","add":"2016-08-21 15:24:46","orig_title":"Learning to Drive","year":"2014-09-09","translations":["Полное дублирование"],"quality":"bd","translation":"Полное дублирование","update":"2016-08-22 18:52:57","iframe_src":"//83.svetacdn.in/PfJ50H0ZBPg3/movie/4595"},{"id":4594,"title":"Семейка Фэнг","kp_id":"645036","imdb_id":"tt2097331","world_art_id":null,"type":"movie","add":"2016-08-21 15:23:20","orig_title":"The Family Fang","year":"2015-09-14","translations":["Любительский (многоголосый закадровый) (Паровоз Продакшн | Parovoz Production)"],"quality":"webdl","translation":"Любительский (многоголосый закадровый) (Паровоз Продакшн | Parovoz Production)","update":"2016-08-22 18:51:27","iframe_src":"//83.svetacdn.in/PfJ50H0ZBPg3/movie/4594"},{"id":4592,"title":"Дети полуночи","kp_id":"565940","imdb_id":"tt1714866","world_art_id":null,"type":"movie","add":"2016-08-21 15:13:07","orig_title":"Midnight's Children","year":"2012-08-31","translations":["Профессиональный (многоголосый закадровый)"],"quality":"bd","translation":"Профессиональный (многоголосый закадровый)","update":"2016-08-22 18:43:58","iframe_src":"//83.svetacdn.in/PfJ50H0ZBPg3/movie/4592"},{"id":4591,"title":"Любовь втроем","kp_id":"478144","imdb_id":"tt1517177","world_art_id":null,"type":"movie","add":"2016-08-21 15:11:53","orig_title":"3","year":"2010-09-10","translations":["Профессиональный (многоголосый закадровый)"],"quality":"bd","translation":"Профессиональный (многоголосый закадровый)","update":"2016-08-22 18:45:18","iframe_src":"//83.svetacdn.in/PfJ50H0ZBPg3/movie/4591"},{"id":4589,"title":"Затерянные в Тихом океане","kp_id":"887121","imdb_id":"tt4363250","world_art_id":null,"type":"movie","add":"2016-08-21 15:08:49","orig_title":"Lost in the Pacific","year":"2016-01-29","translations":["Любительский (многоголосый закадровый) (Паровоз Продакшн | Parovoz Production)"],"quality":"webdl","translation":"Любительский (многоголосый закадровый) (Паровоз Продакшн | Parovoz Production)","update":"2016-08-22 18:36:36","iframe_src":"//83.svetacdn.in/PfJ50H0ZBPg3/movie/4589"},{"id":4588,"title":"Убийственная игра","kp_id":"779688","imdb_id":"tt3024324","world_art_id":null,"type":"movie","add":"2016-08-21 15:07:21","orig_title":"Kill Game","year":"2015-12-05","translations":["Любительский (многоголосый закадровый) (Студия Пиратского Дубляжа)"],"quality":"bd","translation":"Любительский (многоголосый закадровый) (Студия Пиратского Дубляжа)","update":"2016-08-22 18:33:50","iframe_src":"//83.svetacdn.in/PfJ50H0ZBPg3/movie/4588"},{"id":4587,"title":"Мятная конфета","kp_id":"65101","imdb_id":"tt0247613","world_art_id":null,"type":"movie","add":"2016-08-21 15:04:48","orig_title":"Bakha satang","year":"2000-01-01","translations":["Любительский (одноголосый закадровый)"],"quality":"bd","translation":"Любительский (одноголосый закадровый)","update":"2016-08-22 18:34:20","iframe_src":"//83.svetacdn.in/PfJ50H0ZBPg3/movie/4587"},{"id":4583,"title":"Принцесса","kp_id":"517837","imdb_id":"tt1603900","world_art_id":null,"type":"movie","add":"2016-08-21 14:57:55","orig_title":"Princess","year":"2015-03-19","translations":["Любительский (одноголосый закадровый)"],"quality":"hdtv","translation":"Любительский (одноголосый закадровый)","update":"2016-08-22 18:27:46","iframe_src":"//83.svetacdn.in/PfJ50H0ZBPg3/movie/4583"},{"id":4582,"title":"Леди-кошка","kp_id":"37647","imdb_id":"tt0279231","world_art_id":null,"type":"movie","add":"2016-08-21 14:56:07","orig_title":"Minoes","year":"2000-12-06","translations":["Полное дублирование"],"quality":"bd","translation":"Полное дублирование","update":"2016-08-22 18:25:11","iframe_src":"//83.svetacdn.in/PfJ50H0ZBPg3/movie/4582"},{"id":4579,"title":"Властелин легенд (1 серия)","kp_id":null,"imdb_id":"tt0309150","world_art_id":null,"type":"movie","add":"2016-08-21 14:51:35","orig_title":"DreamKeeper","year":"2003-12-28","translations":["Профессиональный (многоголосый закадровый)"],"quality":"bd","translation":"Профессиональный (многоголосый закадровый)","update":"2016-08-22 18:14:57","iframe_src":"//83.svetacdn.in/PfJ50H0ZBPg3/movie/4579"},{"id":4578,"title":"Девятая сессия","kp_id":"823","imdb_id":"tt0261983","world_art_id":null,"type":"movie","add":"2016-08-21 14:49:32","orig_title":"Session 9","year":"2000-09-14","translations":["Профессиональный (двухголосый закадровый)"],"quality":"bd","translation":"Профессиональный (двухголосый закадровый)","update":"2016-08-22 18:23:33","iframe_src":"//83.svetacdn.in/PfJ50H0ZBPg3/movie/4578"},{"id":4573,"title":"Диапазон 15","kp_id":"912031","imdb_id":"tt4687276","world_art_id":null,"type":"movie","add":"2016-08-21 09:37:14","orig_title":"Range 15","year":"2016-06-15","translations":["Любительский (многоголосый закадровый) (Паровоз Продакшн | Parovoz Production)"],"quality":"webdl","translation":"Любительский (многоголосый закадровый) (Паровоз Продакшн | Parovoz Production)","update":"2016-08-22 12:14:52","iframe_src":"//83.svetacdn.in/PfJ50H0ZBPg3/movie/4573"},{"id":4571,"title":"Проклятие Спящей красавицы","kp_id":"863713","imdb_id":"tt4118606","world_art_id":null,"type":"movie","add":"2016-08-21 09:26:03","orig_title":"The Curse of Sleeping Beauty","year":"2016-04-08","translations":["Полное дублирование"],"quality":"webdl","translation":"Полное дублирование","update":"2016-08-22 12:19:10","iframe_src":"//83.svetacdn.in/PfJ50H0ZBPg3/movie/4571"}],"current_page":2706,"first_page_url":"https://videocdn.tv/api/short?limit=100&api_token=RgFQdUIR2dRmwv8iYa5SnFNgnw3vpjKj&cache32706=32706&page=1","from":270501,"last_page":709,"last_page_url":"https://videocdn.tv/api/short?limit=100&api_token=RgFQdUIR2dRmwv8iYa5SnFNgnw3vpjKj&cache32706=32706&page=709","next_page_url":null,"path":"https://videocdn.tv/api/short","per_page":100,"prev_page_url":"https://videocdn.tv/api/short?limit=100&api_token=RgFQdUIR2dRmwv8iYa5SnFNgnw3vpjKj&cache32706=32706&page=2705","to":270520,"total":70884}