{"result":true,"data":[{"id":44877,"title":"23 прогулки","kp_id":"1257258","imdb_id":"tt9699620","world_art_id":null,"type":"movie","add":"2020-10-28 17:23:01","orig_title":"23 Walks","year":"2020-07-08","translations":["Любительский (многоголосый закадровый) (@MUZOBOZ@)"],"quality":"webdl","translation":"Любительский (многоголосый закадровый) (@MUZOBOZ@)","update":"2020-10-29 06:23:15","iframe_src":"//83.svetacdn.in/PfJ50H0ZBPg3/movie/44877"},{"id":44876,"title":"Рождество в Миддлтоне","kp_id":"1307779","imdb_id":"tt10993786","world_art_id":null,"type":"movie","add":"2020-10-28 17:21:20","orig_title":"Middleton Christmas","year":"2020-10-28","translations":["Любительский (многоголосый закадровый) (@MUZOBOZ@)"],"quality":"webdl","translation":"Любительский (многоголосый закадровый) (@MUZOBOZ@)","update":"2020-10-29 06:24:05","iframe_src":"//83.svetacdn.in/PfJ50H0ZBPg3/movie/44876"},{"id":44874,"title":"Ловкач","kp_id":"451354","imdb_id":"tt1104126","world_art_id":null,"type":"movie","add":"2020-10-28 16:45:42","orig_title":"Shifty","year":"2008-10-24","translations":["Профессиональный (одноголосый закадровый)"],"quality":"hdrip","translation":"Профессиональный (одноголосый закадровый)","update":"2020-10-29 06:22:07","iframe_src":"//83.svetacdn.in/PfJ50H0ZBPg3/movie/44874"},{"id":44873,"title":"Когда спадёт жар","kp_id":"855359","imdb_id":"tt3633598","world_art_id":null,"type":"movie","add":"2020-10-28 12:20:24","orig_title":"When the Fever Breaks","year":"2019-10-20","translations":["Любительский (многоголосый закадровый) (@MUZOBOZ@)"],"quality":"webdl","translation":"Любительский (многоголосый закадровый) (@MUZOBOZ@)","update":"2020-10-28 17:31:38","iframe_src":"//83.svetacdn.in/PfJ50H0ZBPg3/movie/44873"},{"id":44872,"title":"Вирусный","kp_id":"1244248","imdb_id":"tt9546330","world_art_id":null,"type":"movie","add":"2020-10-28 12:15:27","orig_title":"Phee Toh Ra Sap","year":"2018-11-08","translations":["Любительский (двухголосый закадровый) (Колобок)"],"quality":"webdl","translation":"Любительский (двухголосый закадровый) (Колобок)","update":"2020-10-28 22:00:24","iframe_src":"//83.svetacdn.in/PfJ50H0ZBPg3/movie/44872"},{"id":44870,"title":"Террор Нуллиус","kp_id":"1200414","imdb_id":"tt9014996","world_art_id":null,"type":"movie","add":"2020-10-28 12:11:42","orig_title":"Terror Nullius","year":"2018-03-20","translations":["Любительский (многоголосый закадровый) (Синема УС)"],"quality":"webdl","translation":"Любительский (многоголосый закадровый) (Синема УС)","update":"2020-10-28 21:59:38","iframe_src":"//83.svetacdn.in/PfJ50H0ZBPg3/movie/44870"},{"id":44869,"title":"Митра","kp_id":"1208290","imdb_id":"tt9030752","world_art_id":null,"type":"movie","add":"2020-10-28 12:07:24","orig_title":"Mitra","year":"2018-07-13","translations":["Любительский (многоголосый закадровый) (Синема УС)"],"quality":"webdl","translation":"Любительский (многоголосый закадровый) (Синема УС)","update":"2020-10-28 17:32:06","iframe_src":"//83.svetacdn.in/PfJ50H0ZBPg3/movie/44869"},{"id":44868,"title":"Летний дом","kp_id":"1167226","imdb_id":"tt8628960","world_art_id":null,"type":"movie","add":"2020-10-28 12:05:32","orig_title":"Ljetnikovac","year":"2018-07-11","translations":["Любительский (многоголосый закадровый) (Синема УС)"],"quality":"webdl","translation":"Любительский (многоголосый закадровый) (Синема УС)","update":"2020-10-28 21:58:54","iframe_src":"//83.svetacdn.in/PfJ50H0ZBPg3/movie/44868"},{"id":44590,"title":"Капля меда","kp_id":"417708","imdb_id":"tt0428822","world_art_id":null,"type":"movie","add":"2020-10-19 16:15:09","orig_title":"Mi katil meghr","year":"1968-01-01","translations":["Оригинальная дорожка"],"quality":"tv","translation":"Оригинальная дорожка","update":"2020-10-29 07:40:58","iframe_src":"//83.svetacdn.in/PfJ50H0ZBPg3/movie/44590"},{"id":44587,"title":"Я к вам лечу воспоминаньем","kp_id":"183511","imdb_id":"tt0485356","world_art_id":null,"type":"movie","add":"2020-10-19 16:01:08","orig_title":"Ya k vam lechu vospominanem","year":"1977-01-01","translations":["Оригинальная дорожка"],"quality":"tv","translation":"Оригинальная дорожка","update":"2020-10-29 07:35:04","iframe_src":"//83.svetacdn.in/PfJ50H0ZBPg3/movie/44587"},{"id":44586,"title":"Филипок","kp_id":"602317","imdb_id":"tt1997360","world_art_id":null,"type":"movie","add":"2020-10-19 15:58:31","orig_title":"Filipok","year":"1982-01-01","translations":["Оригинальная дорожка"],"quality":"dvdrip","translation":"Оригинальная дорожка","update":"2020-10-29 07:34:05","iframe_src":"//83.svetacdn.in/PfJ50H0ZBPg3/movie/44586"},{"id":44585,"title":"Джордано Бруно","kp_id":"678711","imdb_id":null,"world_art_id":null,"type":"movie","add":"2020-10-19 15:54:31","orig_title":"Джордано Бруно","year":"1984-01-01","translations":["Оригинальная дорожка"],"quality":"dvdrip","translation":"Оригинальная дорожка","update":"2020-10-29 07:32:20","iframe_src":"//83.svetacdn.in/PfJ50H0ZBPg3/movie/44585"},{"id":44584,"title":"До свидания, овраг","kp_id":"632476","imdb_id":"tt2582074","world_art_id":null,"type":"movie","add":"2020-10-19 15:39:38","orig_title":"Do svidaniya, ovrag","year":"1981-01-01","translations":["Оригинальная дорожка"],"quality":"tv","translation":"Оригинальная дорожка","update":"2020-10-28 15:58:12","iframe_src":"//83.svetacdn.in/PfJ50H0ZBPg3/movie/44584"},{"id":44583,"title":"Дарю тебе звезду","kp_id":"44103","imdb_id":"tt0260840","world_art_id":null,"type":"movie","add":"2020-10-19 15:37:18","orig_title":"Daryu tebe zvezdu","year":"1974-10-19","translations":["Оригинальная дорожка"],"quality":"tv","translation":"Оригинальная дорожка","update":"2020-10-28 15:57:14","iframe_src":"//83.svetacdn.in/PfJ50H0ZBPg3/movie/44583"},{"id":44582,"title":"Бабочка и тигр","kp_id":"432777","imdb_id":"tt1329108","world_art_id":null,"type":"movie","add":"2020-10-19 15:35:13","orig_title":"Babochka i tigr","year":"1978-01-01","translations":["Оригинальная дорожка"],"quality":"dvdrip","translation":"Оригинальная дорожка","update":"2020-10-28 15:56:19","iframe_src":"//83.svetacdn.in/PfJ50H0ZBPg3/movie/44582"},{"id":44581,"title":"Поморская быль","kp_id":"461841","imdb_id":"tt6088730","world_art_id":null,"type":"movie","add":"2020-10-19 15:26:49","orig_title":"Pomorskaya byl","year":"1987-01-01","translations":["Оригинальная дорожка"],"quality":"dvdrip","translation":"Оригинальная дорожка","update":"2020-10-28 15:54:56","iframe_src":"//83.svetacdn.in/PfJ50H0ZBPg3/movie/44581"},{"id":44580,"title":"Песочные часы","kp_id":"487564","imdb_id":"tt9037044","world_art_id":null,"type":"movie","add":"2020-10-19 15:24:25","orig_title":"Pesochnye chasy","year":"1987-01-01","translations":["Оригинальная дорожка"],"quality":"dvdrip","translation":"Оригинальная дорожка","update":"2020-10-28 15:53:50","iframe_src":"//83.svetacdn.in/PfJ50H0ZBPg3/movie/44580"},{"id":44579,"title":"Туда и обратно","kp_id":"461729","imdb_id":"tt6052726","world_art_id":null,"type":"movie","add":"2020-10-19 15:21:19","orig_title":"Tuda i obratno","year":"1985-01-01","translations":["Оригинальная дорожка"],"quality":"dvdrip","translation":"Оригинальная дорожка","update":"2020-10-28 15:52:57","iframe_src":"//83.svetacdn.in/PfJ50H0ZBPg3/movie/44579"},{"id":44578,"title":"На воде","kp_id":"257976","imdb_id":null,"world_art_id":null,"type":"movie","add":"2020-10-19 15:18:36","orig_title":"На воде","year":"1986-01-01","translations":["Оригинальная дорожка"],"quality":"dvdrip","translation":"Оригинальная дорожка","update":"2020-10-28 15:51:47","iframe_src":"//83.svetacdn.in/PfJ50H0ZBPg3/movie/44578"},{"id":43994,"title":"Сезон дождей","kp_id":"1296645","imdb_id":"tt9822706","world_art_id":null,"type":"movie","add":"2020-09-30 06:16:12","orig_title":"Wet Season","year":"2019-09-08","translations":["Любительский (двухголосый закадровый) (RealFake)","Любительский (многоголосый закадровый) (Синема УС)"],"quality":"bd","translation":"Любительский (двухголосый закадровый) (RealFake)","update":"2020-10-28 22:00:56","iframe_src":"//83.svetacdn.in/PfJ50H0ZBPg3/movie/43994"},{"id":5025,"title":"Самый лучший муж","kp_id":"1235997","imdb_id":null,"world_art_id":null,"type":"serial","add":"2019-08-13 07:02:40","orig_title":"Самый лучший муж","year":"2019-01-28","translations":["Оригинальная дорожка"],"seasons_count":1,"episodes_count":8,"episodes":8,"update":"2019-08-13 14:16:46","iframe_src":"//83.svetacdn.in/PfJ50H0ZBPg3/tv-series/5025"},{"id":5023,"title":"Криминальная история","kp_id":"94568","imdb_id":"tt0090410","world_art_id":null,"type":"serial","add":"2019-08-12 19:25:49","orig_title":"Crime Story","year":"1986-09-18","translations":["Любительский (двухголосый закадровый)","Любительский (одноголосый закадровый)"],"seasons_count":2,"episodes_count":43,"episodes":22,"update":"2019-08-13 19:59:21","iframe_src":"//83.svetacdn.in/PfJ50H0ZBPg3/tv-series/5023"},{"id":5020,"title":"Настоящие дикари","kp_id":"321810","imdb_id":"tt0411024","world_art_id":null,"type":"serial","add":"2019-08-12 13:15:34","orig_title":"Complete Savages","year":"2004-09-24","translations":["Профессиональный (многоголосый закадровый)"],"seasons_count":1,"episodes_count":18,"episodes":18,"update":"2019-08-13 13:26:22","iframe_src":"//83.svetacdn.in/PfJ50H0ZBPg3/tv-series/5020"},{"id":5019,"title":"В последний миг","kp_id":"412346","imdb_id":"tt1118697","world_art_id":null,"type":"serial","add":"2019-08-12 13:04:27","orig_title":"Eleventh Hour","year":"2008-10-09","translations":["Профессиональный (многоголосый закадровый) (Syfy Universal)"],"seasons_count":1,"episodes_count":18,"episodes":18,"update":"2019-08-13 13:02:35","iframe_src":"//83.svetacdn.in/PfJ50H0ZBPg3/tv-series/5019"},{"id":5018,"title":"Дыши со мной 2","kp_id":"586319","imdb_id":null,"world_art_id":null,"type":"serial","add":"2019-08-09 18:34:14","orig_title":"Дыши со мной 2","year":"2012-03-27","translations":["Оригинальная дорожка"],"seasons_count":1,"episodes_count":14,"episodes":14,"update":"2019-08-10 13:03:33","iframe_src":"//83.svetacdn.in/PfJ50H0ZBPg3/tv-series/5018"},{"id":5016,"title":"Женщины в игре","kp_id":"820691","imdb_id":"tt3476980","world_art_id":null,"type":"serial","add":"2019-08-09 10:51:34","orig_title":"Donne in gioco","year":"2013-03-26","translations":["Профессиональный (многоголосый закадровый) (Eurochannel)"],"seasons_count":1,"episodes_count":2,"episodes":2,"update":"2019-08-09 20:22:38","iframe_src":"//83.svetacdn.in/PfJ50H0ZBPg3/tv-series/5016"},{"id":5014,"title":"Яго, темная страсть","kp_id":"256516","imdb_id":"tt0287284","world_art_id":null,"type":"serial","add":"2019-08-08 22:54:35","orig_title":"Yago, pasión morena","year":"2001-01-01","translations":["Профессиональный (многоголосый закадровый)"],"seasons_count":1,"episodes_count":160,"episodes":160,"update":"2019-08-09 21:40:42","iframe_src":"//83.svetacdn.in/PfJ50H0ZBPg3/tv-series/5014"},{"id":5012,"title":"Расскажи мне, как любить","kp_id":"1006735","imdb_id":"tt5988466","world_art_id":null,"type":"serial","add":"2019-08-08 11:42:47","orig_title":"Bana Sevmeyi Anlat","year":"2016-08-26","translations":["Профессиональный (многоголосый закадровый)"],"seasons_count":1,"episodes_count":22,"episodes":22,"update":"2019-08-12 07:24:55","iframe_src":"//83.svetacdn.in/PfJ50H0ZBPg3/tv-series/5012"},{"id":5011,"title":"Принцесса цирка","kp_id":"405517","imdb_id":"tt3965072","world_art_id":null,"type":"serial","add":"2019-08-08 06:45:54","orig_title":"Printsessa tsirka","year":"2008-01-28","translations":["Оригинальная дорожка"],"seasons_count":1,"episodes_count":115,"episodes":115,"update":"2019-08-12 13:44:19","iframe_src":"//83.svetacdn.in/PfJ50H0ZBPg3/tv-series/5011"},{"id":5007,"title":"Монстры","kp_id":"295012","imdb_id":"tt0094512","world_art_id":null,"type":"serial","add":"2019-08-07 18:57:08","orig_title":"Monsters","year":"1988-10-22","translations":["Авторский (одноголосый закадровый) (Воронцов Владимир | Доцент)"],"seasons_count":3,"episodes_count":72,"episodes":24,"update":"2019-08-09 11:11:54","iframe_src":"//83.svetacdn.in/PfJ50H0ZBPg3/tv-series/5007"},{"id":4982,"title":"Болек и Лёлек","kp_id":"95239","imdb_id":"tt0146370","world_art_id":null,"type":"serial","add":"2019-08-01 09:49:34","orig_title":"Bolek i Lolek","year":"1963-01-01","translations":["Полное дублирование"],"seasons_count":12,"episodes_count":182,"episodes":9,"update":"2019-08-09 12:25:54","iframe_src":"//83.svetacdn.in/PfJ50H0ZBPg3/tv-series/4982"},{"id":4953,"title":"Я существую","kp_id":"1244556","imdb_id":"tt9165134","world_art_id":null,"type":"serial","add":"2019-07-26 11:40:09","orig_title":"I Am","year":"2019-07-23","translations":["Профессиональный (многоголосый закадровый) (TUMBLER Studio)"],"seasons_count":1,"episodes_count":3,"episodes":3,"update":"2019-08-09 20:26:20","iframe_src":"//83.svetacdn.in/PfJ50H0ZBPg3/tv-series/4953"},{"id":4764,"title":"Спецкор отдела расследований","kp_id":"466553","imdb_id":null,"world_art_id":null,"type":"serial","add":"2019-06-28 19:48:01","orig_title":"Спецкор отдела расследований","year":"2009-01-01","translations":["Оригинальная дорожка"],"seasons_count":1,"episodes_count":8,"episodes":8,"update":"2019-08-09 11:47:52","iframe_src":"//83.svetacdn.in/PfJ50H0ZBPg3/tv-series/4764"},{"id":4589,"title":"Зона","kp_id":"252537","imdb_id":"tt0806000","world_art_id":null,"type":"serial","add":"2019-05-31 10:56:14","orig_title":"Zona","year":"2006-01-16","translations":["Оригинальная дорожка"],"seasons_count":1,"episodes_count":50,"episodes":60,"update":"2019-08-09 14:33:00","iframe_src":"//83.svetacdn.in/PfJ50H0ZBPg3/tv-series/4589"},{"id":4132,"title":"Время не остановить","kp_id":"1172542","imdb_id":"tt8697346","world_art_id":null,"type":"serial","add":"2019-02-22 10:17:58","orig_title":"O Tempo Não Para","year":"2018-07-31","translations":["Любительский (двухголосый закадровый) (AveBrasil)"],"seasons_count":1,"episodes_count":113,"episodes":113,"update":"2019-08-13 14:51:30","iframe_src":"//83.svetacdn.in/PfJ50H0ZBPg3/tv-series/4132"},{"id":4104,"title":"Маммон","kp_id":"818739","imdb_id":"tt2377081","world_art_id":null,"type":"serial","add":"2019-02-18 08:38:01","orig_title":"Mammon","year":"2014-01-01","translations":["Профессиональный (многоголосый закадровый) (SDI Media)"],"seasons_count":2,"episodes_count":14,"episodes":8,"update":"2019-08-13 16:14:44","iframe_src":"//83.svetacdn.in/PfJ50H0ZBPg3/tv-series/4104"},{"id":4079,"title":"Зеркало жизни","kp_id":"1170606","imdb_id":"tt8598038","world_art_id":null,"type":"serial","add":"2019-02-15 10:00:07","orig_title":"Espelho da Vida","year":"2018-09-25","translations":["Любительский (двухголосый закадровый) (AveBrasil)"],"seasons_count":1,"episodes_count":115,"episodes":115,"update":"2019-08-12 06:11:47","iframe_src":"//83.svetacdn.in/PfJ50H0ZBPg3/tv-series/4079"},{"id":2797,"title":"Экли Бридж","kp_id":"1173321","imdb_id":"tt6636246","world_art_id":null,"type":"serial","add":"2018-06-12 11:18:30","orig_title":"Ackley Bridge","year":"2017-06-07","translations":["Любительский (двухголосый закадровый) (Sunshine Studio)","Профессиональный (двухголосый закадровый) (TUMBLER Studio)"],"seasons_count":3,"episodes_count":26,"episodes":8,"update":"2019-08-11 08:04:34","iframe_src":"//83.svetacdn.in/PfJ50H0ZBPg3/tv-series/2797"},{"id":1172,"title":"Я – зомби","kp_id":"824275","imdb_id":"tt3501584","world_art_id":null,"type":"serial","add":"2017-04-07 10:29:43","orig_title":"iZombie","year":"2015-03-17","translations":["Профессиональный (многоголосый закадровый) (NewStudio)"],"seasons_count":5,"episodes_count":71,"episodes":13,"update":"2019-08-11 14:11:25","iframe_src":"//83.svetacdn.in/PfJ50H0ZBPg3/tv-series/1172"},{"id":691,"title":"Звезда","kp_id":"944018","imdb_id":"tt4941240","world_art_id":null,"type":"serial","add":"2016-12-15 07:27:04","orig_title":"Star","year":"2016-12-14","translations":["Профессиональный (многоголосый закадровый) (ColdFilm)","Профессиональный (многоголосый закадровый) (FOX)","Любительский (многоголосый закадровый) (ColdFilm)","Профессиональный (многоголосый закадровый) (BaibaKo)","Профессиональный (многоголосый закадровый) (Jaskier)"],"seasons_count":3,"episodes_count":48,"episodes":18,"update":"2019-08-13 08:01:24","iframe_src":"//83.svetacdn.in/PfJ50H0ZBPg3/tv-series/691"}],"current_page":323,"first_page_url":"https://videocdn.tv/api/short?limit=100&api_token=RgFQdUIR2dRmwv8iYa5SnFNgnw3vpjKj&cache3323=3323&page=1","from":32201,"last_page":610,"last_page_url":"https://videocdn.tv/api/short?limit=100&api_token=RgFQdUIR2dRmwv8iYa5SnFNgnw3vpjKj&cache3323=3323&page=610","next_page_url":"https://videocdn.tv/api/short?limit=100&api_token=RgFQdUIR2dRmwv8iYa5SnFNgnw3vpjKj&cache3323=3323&page=324","path":"https://videocdn.tv/api/short","per_page":100,"prev_page_url":"https://videocdn.tv/api/short?limit=100&api_token=RgFQdUIR2dRmwv8iYa5SnFNgnw3vpjKj&cache3323=3323&page=322","to":32240,"total":60948}