{"result":true,"data":[{"id":23356,"title":"Траст Фонд","kp_id":"852289","imdb_id":"tt3969208","world_art_id":null,"type":"movie","add":"2019-03-21 22:56:09","orig_title":"Trust Fund","year":"2016-01-08","translations":["Любительский (многоголосый закадровый) (Синема УС)"],"quality":"webdl","translation":"Любительский (многоголосый закадровый) (Синема УС)","update":"2019-03-22 05:16:20","iframe_src":"//8543.svetacdn.in/si4jsFRrtgrT/movie/23356"},{"id":23350,"title":"Противоположность крови","kp_id":"1189931","imdb_id":"tt8977440","world_art_id":null,"type":"movie","add":"2019-03-21 22:18:24","orig_title":"Opposite The Opposite Blood","year":"2018-11-01","translations":["Любительский (многоголосый закадровый) (Синема УС)"],"quality":"webdl","translation":"Любительский (многоголосый закадровый) (Синема УС)","update":"2019-03-22 05:14:54","iframe_src":"//8543.svetacdn.in/si4jsFRrtgrT/movie/23350"},{"id":23349,"title":"Почти женаты","kp_id":"878255","imdb_id":"tt3712950","world_art_id":null,"type":"movie","add":"2019-03-21 22:15:46","orig_title":"Where Are You, Bobby Browning?","year":"2016-04-07","translations":["Профессиональный (многоголосый закадровый) (AlphaProject)"],"quality":"webdl","translation":"Профессиональный (многоголосый закадровый) (AlphaProject)","update":"2019-03-22 05:13:32","iframe_src":"//8543.svetacdn.in/si4jsFRrtgrT/movie/23349"},{"id":23348,"title":"Свекровь-убийца","kp_id":"1164184","imdb_id":"tt8582254","world_art_id":null,"type":"movie","add":"2019-03-21 22:13:10","orig_title":"The Mother In Law","year":"2019-03-15","translations":["Любительский (многоголосый закадровый) (Синема УС)"],"quality":"hdtv","translation":"Любительский (многоголосый закадровый) (Синема УС)","update":"2019-03-22 05:46:08","iframe_src":"//8543.svetacdn.in/si4jsFRrtgrT/movie/23348"},{"id":23347,"title":"Вершина горы","kp_id":"807430","imdb_id":"tt3305388","world_art_id":null,"type":"movie","add":"2019-03-21 22:11:27","orig_title":"Mountain Top","year":"2014-05-05","translations":["Любительский (многоголосый закадровый) (Синема УС)"],"quality":"webdl","translation":"Любительский (многоголосый закадровый) (Синема УС)","update":"2019-03-22 05:18:33","iframe_src":"//8543.svetacdn.in/si4jsFRrtgrT/movie/23347"},{"id":23346,"title":"Маленькое дерьмо","kp_id":"1079962","imdb_id":"tt7263252","world_art_id":null,"type":"movie","add":"2019-03-21 22:09:14","orig_title":"Little Shit","year":"2018-01-14","translations":["Любительский (многоголосый закадровый) (Синема УС)"],"quality":"webdl","translation":"Любительский (многоголосый закадровый) (Синема УС)","update":"2019-03-22 05:31:51","iframe_src":"//8543.svetacdn.in/si4jsFRrtgrT/movie/23346"},{"id":23345,"title":"Новичок","kp_id":"874979","imdb_id":"tt3814316","world_art_id":null,"type":"movie","add":"2019-03-21 22:06:37","orig_title":"Le nouveau","year":"2015-08-30","translations":["Любительский (многоголосый закадровый) (Синема УС)"],"quality":"webdl","translation":"Любительский (многоголосый закадровый) (Синема УС)","update":"2019-03-22 05:17:27","iframe_src":"//8543.svetacdn.in/si4jsFRrtgrT/movie/23345"},{"id":23344,"title":"Лимонад","kp_id":"1054068","imdb_id":"tt6506276","world_art_id":null,"type":"movie","add":"2019-03-21 22:04:33","orig_title":"Lemonade","year":"2018-02-19","translations":["Любительский (многоголосый закадровый) (Синема УС)"],"quality":"webdl","translation":"Любительский (многоголосый закадровый) (Синема УС)","update":"2019-03-22 05:44:54","iframe_src":"//8543.svetacdn.in/si4jsFRrtgrT/movie/23344"},{"id":23340,"title":"Пропавшая семья","kp_id":"1172153","imdb_id":"tt8660842","world_art_id":null,"type":"movie","add":"2019-03-21 21:54:21","orig_title":"Family Vanished","year":"2018-07-06","translations":["Любительский (многоголосый закадровый) (Синема УС)"],"quality":"hdtv","translation":"Любительский (многоголосый закадровый) (Синема УС)","update":"2019-03-22 05:11:58","iframe_src":"//8543.svetacdn.in/si4jsFRrtgrT/movie/23340"},{"id":23338,"title":"Идеальное Рождество Клары","kp_id":null,"imdb_id":"tt6646106","world_art_id":null,"type":"movie","add":"2019-03-21 21:50:38","orig_title":"Clara's Ultimate Christmas","year":"2018-09-24","translations":["Любительский (многоголосый закадровый) (Синема УС)"],"quality":"webdl","translation":"Любительский (многоголосый закадровый) (Синема УС)","update":"2019-03-22 05:10:42","iframe_src":"//8543.svetacdn.in/si4jsFRrtgrT/movie/23338"},{"id":23337,"title":"Хлеб, автобус и вторая первая любовь","kp_id":"1111078","imdb_id":"tt7019808","world_art_id":null,"type":"movie","add":"2019-03-21 21:48:04","orig_title":"Pan to Bus to Nidome no Hatsukoi","year":"2017-10-29","translations":["Любительский (многоголосый закадровый) (Синема УС)"],"quality":"bd","translation":"Любительский (многоголосый закадровый) (Синема УС)","update":"2019-03-22 05:08:50","iframe_src":"//8543.svetacdn.in/si4jsFRrtgrT/movie/23337"},{"id":23334,"title":"Античеловек","kp_id":"894507","imdb_id":"tt4450562","world_art_id":null,"type":"movie","add":"2019-03-21 21:42:34","orig_title":"Post Human: An Event","year":"2017-10-17","translations":["Любительский (многоголосый закадровый) (Синема УС)"],"quality":"webdl","translation":"Любительский (многоголосый закадровый) (Синема УС)","update":"2019-03-22 05:43:38","iframe_src":"//8543.svetacdn.in/si4jsFRrtgrT/movie/23334"},{"id":23333,"title":"Я тоже тебя люблю","kp_id":"450503","imdb_id":"tt1376709","world_art_id":null,"type":"movie","add":"2019-03-21 21:40:57","orig_title":"I Love You Too","year":"2010-04-25","translations":["Полное дублирование"],"quality":"bd","translation":"Полное дублирование","update":"2019-03-22 05:42:35","iframe_src":"//8543.svetacdn.in/si4jsFRrtgrT/movie/23333"},{"id":23332,"title":"100 дней любви","kp_id":"843059","imdb_id":"tt3995348","world_art_id":null,"type":"movie","add":"2019-03-21 21:37:23","orig_title":"100 Days of Love","year":"2015-03-20","translations":["Любительский (многоголосый закадровый) (Синема УС)"],"quality":"webdl","translation":"Любительский (многоголосый закадровый) (Синема УС)","update":"2019-03-22 05:41:37","iframe_src":"//8543.svetacdn.in/si4jsFRrtgrT/movie/23332"},{"id":23311,"title":"Садовая улица","kp_id":"928380","imdb_id":"tt4675986","world_art_id":null,"type":"movie","add":"2019-03-20 23:14:22","orig_title":"Trädgårdsgatan","year":"2017-07-21","translations":["Любительский (многоголосый закадровый) (Синема УС)"],"quality":"webdl","translation":"Любительский (многоголосый закадровый) (Синема УС)","update":"2019-03-22 05:40:47","iframe_src":"//8543.svetacdn.in/si4jsFRrtgrT/movie/23311"},{"id":23310,"title":"Льготный билет","kp_id":"973297","imdb_id":"tt5641300","world_art_id":null,"type":"movie","add":"2019-03-20 23:12:58","orig_title":"Half Ticket","year":"2016-07-22","translations":["Любительский (многоголосый закадровый) (Синема УС)"],"quality":"webdl","translation":"Любительский (многоголосый закадровый) (Синема УС)","update":"2019-03-22 05:35:40","iframe_src":"//8543.svetacdn.in/si4jsFRrtgrT/movie/23310"},{"id":23234,"title":"Семейная свадьба","kp_id":"463542","imdb_id":"tt1305583","world_art_id":null,"type":"movie","add":"2019-03-19 05:18:13","orig_title":"Our Family Wedding","year":"2010-03-12","translations":["Профессиональный (многоголосый закадровый)"],"quality":"hdtv","translation":"Профессиональный (многоголосый закадровый)","update":"2019-03-22 05:38:50","iframe_src":"//8543.svetacdn.in/si4jsFRrtgrT/movie/23234"},{"id":21029,"title":"Ярди","kp_id":"1089624","imdb_id":"tt5862902","world_art_id":null,"type":"movie","add":"2018-12-26 06:20:41","orig_title":"Yardie","year":"2018-01-20","translations":["Любительский (многоголосый закадровый) (Синема УС)","Любительский (двухголосый закадровый) (HiWayGrope)","Original (English)"],"quality":"bd","translation":"Любительский (многоголосый закадровый) (Синема УС)","update":"2019-03-21 06:09:02","iframe_src":"//8543.svetacdn.in/si4jsFRrtgrT/movie/21029"},{"id":17107,"title":"Павел, апостол Христа","kp_id":"1070216","imdb_id":"tt7388562","world_art_id":null,"type":"movie","add":"2018-06-10 18:27:19","orig_title":"Paul, Apostle of Christ","year":"2018-03-23","translations":["Любительский (многоголосый закадровый) (@MUZOBOZ@)","Профессиональный (многоголосый закадровый)","Original (English)"],"quality":"bd","translation":"Любительский (многоголосый закадровый) (@MUZOBOZ@)","update":"2019-03-21 06:11:02","iframe_src":"//8543.svetacdn.in/si4jsFRrtgrT/movie/17107"},{"id":4383,"title":"Нимфоманка: Часть 1","kp_id":"669260","imdb_id":"tt1937390","world_art_id":null,"type":"movie","add":"2016-08-11 13:57:57","orig_title":"Nymphomaniac: Vol. I","year":"2013-12-25","translations":["Полное дублирование","Original (English)"],"quality":"bd","translation":"Полное дублирование","update":"2019-03-22 05:39:47","iframe_src":"//8543.svetacdn.in/si4jsFRrtgrT/movie/4383"}],"current_page":1411,"first_page_url":"https://videocdn.tv/api/short?limit=100&api_token=X6EwAUfE5M9xbo7y0Bp0aPf3uXxG2KLL&cache31411=31411&page=1","from":141001,"last_page":596,"last_page_url":"https://videocdn.tv/api/short?limit=100&api_token=X6EwAUfE5M9xbo7y0Bp0aPf3uXxG2KLL&cache31411=31411&page=596","next_page_url":null,"path":"https://videocdn.tv/api/short","per_page":100,"prev_page_url":"https://videocdn.tv/api/short?limit=100&api_token=X6EwAUfE5M9xbo7y0Bp0aPf3uXxG2KLL&cache31411=31411&page=1410","to":141020,"total":59587}