{"result":true,"data":[{"id":50139,"title":"Джек Уолкер","kp_id":"1164429","imdb_id":"tt8474040","world_art_id":null,"type":"movie","add":"2021-05-05 10:35:53","orig_title":"Jack Walker","year":"2021-04-30","translations":["Любительский (многоголосый закадровый) (Синема УС)"],"quality":"webdl","translation":"Любительский (многоголосый закадровый) (Синема УС)","update":"2021-05-05 15:33:31","iframe_src":"//7720.svetacdn.in/si4jsFRrtgrT/movie/50139"},{"id":50135,"title":"Не в том месте, не в то время","kp_id":"1436579","imdb_id":"tt13281312","world_art_id":null,"type":"movie","add":"2021-05-05 10:30:11","orig_title":"Wrong Place, Wrong Time","year":"2021-01-01","translations":["Любительский (многоголосый закадровый) (Синема УС)"],"quality":"webdl","translation":"Любительский (многоголосый закадровый) (Синема УС)","update":"2021-05-05 15:32:45","iframe_src":"//7720.svetacdn.in/si4jsFRrtgrT/movie/50135"},{"id":50132,"title":"Повитуха","kp_id":"1237131","imdb_id":"tt9766814","world_art_id":null,"type":"movie","add":"2021-05-05 10:23:44","orig_title":"The Midwife","year":"2021-05-04","translations":["Любительский (многоголосый закадровый) (Синема УС)"],"quality":"webdl","translation":"Любительский (многоголосый закадровый) (Синема УС)","update":"2021-05-05 15:31:47","iframe_src":"//7720.svetacdn.in/si4jsFRrtgrT/movie/50132"},{"id":50127,"title":"Обнажённые на ночной улице","kp_id":"1402107","imdb_id":"tt9455306","world_art_id":null,"type":"movie","add":"2021-05-05 05:15:59","orig_title":"Nues dans les rues la nuit","year":"2019-04-28","translations":["Любительский (одноголосый закадровый) (Водяной Александр)"],"quality":"webdl","translation":"Любительский (одноголосый закадровый) (Водяной Александр)","update":"2021-05-05 11:21:15","iframe_src":"//7720.svetacdn.in/si4jsFRrtgrT/movie/50127"},{"id":50122,"title":"Подростки из Химеры","kp_id":"1407799","imdb_id":"tt12837402","world_art_id":null,"type":"movie","add":"2021-05-04 21:10:20","orig_title":"Adolescents of Chymera","year":"2021-02-12","translations":["Любительский (многоголосый закадровый) (Синема УС)"],"quality":"webdl","translation":"Любительский (многоголосый закадровый) (Синема УС)","update":"2021-05-05 06:46:04","iframe_src":"//7720.svetacdn.in/si4jsFRrtgrT/movie/50122"},{"id":50094,"title":"Бегство в автомобиле","kp_id":"2159","imdb_id":"tt0005571","world_art_id":null,"type":"movie","add":"2021-05-03 14:42:56","orig_title":"A Jitney Elopement","year":"1915-04-01","translations":["Original (English)"],"quality":"bd","translation":"Original (English)","update":"2021-05-05 06:21:47","iframe_src":"//7720.svetacdn.in/si4jsFRrtgrT/movie/50094"},{"id":49345,"title":"Майор Гром: Чумной Доктор","kp_id":"1109271","imdb_id":"tt7601480","world_art_id":null,"type":"movie","add":"2021-04-04 22:58:54","orig_title":"Mayor Grom: Chumnoy Doktor","year":"2021-04-01","translations":["Оригинальная дорожка"],"quality":"webdl","translation":"Оригинальная дорожка","update":"2021-05-05 11:03:45","iframe_src":"//7720.svetacdn.in/si4jsFRrtgrT/movie/49345"},{"id":48494,"title":"Десять секунд до ада","kp_id":"168961","imdb_id":"tt0053341","world_art_id":null,"type":"movie","add":"2021-03-06 16:10:42","orig_title":"Ten Seconds to Hell","year":"1959-04-23","translations":["Профессиональный (двухголосый закадровый) (НТВ)","Original (English)","Любительский (одноголосый закадровый) (Линда)"],"quality":"bd","translation":"Профессиональный (двухголосый закадровый) (НТВ)","update":"2021-05-05 06:28:02","iframe_src":"//7720.svetacdn.in/si4jsFRrtgrT/movie/48494"},{"id":8265,"title":"Государство","kp_id":"1046886","imdb_id":"tt6068620","world_art_id":null,"type":"serial","add":"2020-07-27 16:05:14","orig_title":"The State","year":"2017-08-20","translations":["Профессиональный (многоголосый закадровый) (HDrezka Studio)"],"seasons_count":1,"episodes_count":4,"episodes":4,"update":"2020-07-28 05:10:23","iframe_src":"//7720.svetacdn.in/si4jsFRrtgrT/tv-series/8265"},{"id":8264,"title":"Эй, да он экстрасенс!","kp_id":"893719","imdb_id":"tt2556306","world_art_id":null,"type":"serial","add":"2020-07-27 15:58:21","orig_title":"Minna! Esupâ dayo!","year":"2013-04-13","translations":["Профессиональный (многоголосый закадровый) (HDrezka Studio)"],"seasons_count":1,"episodes_count":12,"episodes":12,"update":"2020-07-28 05:08:35","iframe_src":"//7720.svetacdn.in/si4jsFRrtgrT/tv-series/8264"},{"id":8256,"title":"Ву-Танг Клан: Титаны железного микрофона","kp_id":"1338082","imdb_id":"tt9376934","world_art_id":null,"type":"serial","add":"2020-07-26 19:56:09","orig_title":"Wu-Tang Clan: Of Mics and Men","year":"2019-05-10","translations":["Профессиональный (многоголосый закадровый) (HDrezka Studio)"],"seasons_count":1,"episodes_count":4,"episodes":4,"update":"2020-07-27 15:24:32","iframe_src":"//7720.svetacdn.in/si4jsFRrtgrT/tv-series/8256"},{"id":8255,"title":"Дело Аднана Сайеда","kp_id":"1150106","imdb_id":"tt8425310","world_art_id":null,"type":"serial","add":"2020-07-26 19:19:55","orig_title":"The Case Against Adnan Syed","year":"2019-03-10","translations":["Профессиональный (многоголосый закадровый) (HDrezka Studio)"],"seasons_count":1,"episodes_count":4,"episodes":4,"update":"2020-07-27 14:43:18","iframe_src":"//7720.svetacdn.in/si4jsFRrtgrT/tv-series/8255"},{"id":8254,"title":"Под горой","kp_id":"435371","imdb_id":"tt0202769","world_art_id":null,"type":"serial","add":"2020-07-26 16:25:26","orig_title":"Under the Mountain","year":"1981-06-01","translations":["Любительский (одноголосый закадровый) (Ващенко Семён)"],"seasons_count":1,"episodes_count":8,"episodes":8,"update":"2020-07-27 14:55:51","iframe_src":"//7720.svetacdn.in/si4jsFRrtgrT/tv-series/8254"},{"id":8244,"title":"А зори здесь тихие...","kp_id":"265088","imdb_id":"tt1156472","world_art_id":null,"type":"serial","add":"2020-07-24 20:26:21","orig_title":"A zori zdes tikhie","year":"2006-01-01","translations":["Оригинальная дорожка"],"seasons_count":1,"episodes_count":12,"episodes":12,"update":"2020-07-27 20:52:58","iframe_src":"//7720.svetacdn.in/si4jsFRrtgrT/tv-series/8244"},{"id":8243,"title":"Тонкая грань","kp_id":"614290","imdb_id":null,"world_art_id":null,"type":"serial","add":"2020-07-24 20:20:59","orig_title":"Тонкая грань","year":"2011-01-01","translations":["Оригинальная дорожка"],"seasons_count":1,"episodes_count":8,"episodes":8,"update":"2020-07-27 20:46:18","iframe_src":"//7720.svetacdn.in/si4jsFRrtgrT/tv-series/8243"},{"id":8242,"title":"Черкизона. Одноразовые люди","kp_id":"503721","imdb_id":"tt3739348","world_art_id":null,"type":"serial","add":"2020-07-23 20:36:13","orig_title":"Cherkizona. Odnorazovye lyudi","year":"2010-05-31","translations":["Оригинальная дорожка"],"seasons_count":1,"episodes_count":60,"episodes":60,"update":"2020-07-24 21:28:50","iframe_src":"//7720.svetacdn.in/si4jsFRrtgrT/tv-series/8242"},{"id":8235,"title":"Запретная женщина","kp_id":"497621","imdb_id":"tt0224925","world_art_id":null,"type":"serial","add":"2020-07-22 16:10:02","orig_title":"La mujer prohibida","year":"1991-06-18","translations":["Профессиональный (многоголосый закадровый)"],"seasons_count":1,"episodes_count":125,"episodes":125,"update":"2020-07-27 17:44:36","iframe_src":"//7720.svetacdn.in/si4jsFRrtgrT/tv-series/8235"},{"id":8230,"title":"Далеко от тебя","kp_id":"1120385","imdb_id":"tt7905506","world_art_id":null,"type":"serial","add":"2020-07-21 19:41:15","orig_title":"Lejos de ti","year":"2019-06-09","translations":[],"seasons_count":1,"episodes_count":7,"episodes":7,"update":"2020-07-27 16:10:10","iframe_src":"//7720.svetacdn.in/si4jsFRrtgrT/tv-series/8230"},{"id":8171,"title":"Мотив","kp_id":"1281296","imdb_id":"tt10560618","world_art_id":null,"type":"serial","add":"2020-07-17 05:46:55","orig_title":"Motyw","year":"2019-12-12","translations":["Любительский (многоголосый закадровый) (Octopus)"],"seasons_count":1,"episodes_count":10,"episodes":10,"update":"2020-07-25 14:52:34","iframe_src":"//7720.svetacdn.in/si4jsFRrtgrT/tv-series/8171"},{"id":8143,"title":"Зовите меня Фитц","kp_id":"565211","imdb_id":"tt1558182","world_art_id":null,"type":"serial","add":"2020-07-12 02:24:58","orig_title":"Call Me Fitz","year":"2010-09-19","translations":["Профессиональный (многоголосый закадровый)"],"seasons_count":2,"episodes_count":26,"episodes":13,"update":"2020-07-27 04:40:40","iframe_src":"//7720.svetacdn.in/si4jsFRrtgrT/tv-series/8143"},{"id":8104,"title":"Аляска: Семья из леса","kp_id":"841040","imdb_id":"tt3665674","world_art_id":null,"type":"serial","add":"2020-07-07 06:06:11","orig_title":"Alaskan Bush People","year":"2014-05-06","translations":["Профессиональный (многоголосый закадровый)"],"seasons_count":2,"episodes_count":21,"episodes":10,"update":"2020-07-25 18:01:04","iframe_src":"//7720.svetacdn.in/si4jsFRrtgrT/tv-series/8104"},{"id":8085,"title":"Генератор Рекс","kp_id":"565193","imdb_id":"tt1636691","world_art_id":null,"type":"serial","add":"2020-07-04 08:05:46","orig_title":"Generator Rex","year":"2010-04-23","translations":["Полное дублирование"],"seasons_count":3,"episodes_count":58,"episodes":18,"update":"2020-07-24 18:11:48","iframe_src":"//7720.svetacdn.in/si4jsFRrtgrT/tv-series/8085"},{"id":8068,"title":"Монахиня-воин","kp_id":"1245502","imdb_id":"tt9059350","world_art_id":null,"type":"serial","add":"2020-07-02 09:56:57","orig_title":"Warrior Nun","year":"2020-07-02","translations":["Любительский (многоголосый закадровый) (ColdFilm)","Любительский (многоголосый закадровый) (Octopus)","Профессиональный (многоголосый закадровый) (HDrezka Studio)","Профессиональный (двухголосый закадровый) (IdeaFilm)","Профессиональный (многоголосый закадровый) (LostFilm)","Профессиональный (многоголосый закадровый) (NewStudio)","Профессиональный (многоголосый закадровый) (OMSKBIRD records)"],"seasons_count":1,"episodes_count":10,"episodes":10,"update":"2020-07-26 18:42:15","iframe_src":"//7720.svetacdn.in/si4jsFRrtgrT/tv-series/8068"},{"id":34936,"title":"Джентльмены","kp_id":"1143242","imdb_id":"tt8367814","world_art_id":null,"type":"movie","add":"2020-01-10 11:53:26","orig_title":"The Gentlemen","year":"2019-12-03","translations":["Полное дублирование","Профессиональный (многоголосый закадровый) (HDrezka Studio)","Авторский (одноголосый закадровый) (Гоблин | Пучков Дмитрий)","Профессиональный (двухголосый закадровый) (Кубик в Кубе)","Авторский (одноголосый закадровый) (Гаврилов Андрей)","Авторский (одноголосый закадровый) (Гаврилов Андрей)","Авторский (одноголосый закадровый) (Сербин Юрий)","Авторский (одноголосый закадровый) (Визгунов Сергей)","Original (English)"],"quality":"webdl","translation":"Полное дублирование","update":"2021-05-05 10:53:59","iframe_src":"//7720.svetacdn.in/si4jsFRrtgrT/movie/34936"},{"id":33060,"title":"На колёсах","kp_id":"660555","imdb_id":"tt2170667","world_art_id":null,"type":"movie","add":"2019-11-13 08:10:50","orig_title":"Wheels","year":"2014-04-27","translations":["Любительский (многоголосый закадровый) (Синема УС)","Профессиональный (многоголосый закадровый) (FocusX)","Авторский (одноголосый закадровый) (Карповский Антон)","Original (English)","Любительский (одноголосый закадровый) (Paul Bunyan)"],"quality":"webdl","translation":"Любительский (многоголосый закадровый) (Синема УС)","update":"2021-05-05 07:03:11","iframe_src":"//7720.svetacdn.in/si4jsFRrtgrT/movie/33060"},{"id":31301,"title":"Умереть во имя","kp_id":"4934","imdb_id":"tt0114681","world_art_id":null,"type":"movie","add":"2019-09-29 20:04:29","orig_title":"To Die For","year":"1995-05-20","translations":["Профессиональный (многоголосый закадровый)","Профессиональный (многоголосый закадровый)","Авторский (одноголосый закадровый) (Живов Юрий)","Original (English)","Профессиональный (двухголосый закадровый)","Профессиональный (многоголосый закадровый) (Карусель)"],"quality":"bd","translation":"Профессиональный (многоголосый закадровый)","update":"2021-05-05 10:42:55","iframe_src":"//7720.svetacdn.in/si4jsFRrtgrT/movie/31301"},{"id":30394,"title":"Могучие Морфы: Рейнджеры силы","kp_id":"34281","imdb_id":"tt0113820","world_art_id":null,"type":"movie","add":"2019-08-30 07:29:08","orig_title":"Mighty Morphin Power Rangers: The Movie","year":"1995-06-30","translations":["Профессиональный (многоголосый закадровый)","Профессиональный (многоголосый закадровый) (Lazer Video)","Авторский (одноголосый закадровый) (Горчаков Василий)","Original (English)","Профессиональный (многоголосый закадровый) (НТВ)","Профессиональный (многоголосый закадровый) (Первый канал | ОРТ)"],"quality":"bd","translation":"Профессиональный (многоголосый закадровый)","update":"2021-05-05 07:16:15","iframe_src":"//7720.svetacdn.in/si4jsFRrtgrT/movie/30394"},{"id":4474,"title":"Кодекс","kp_id":"1188437","imdb_id":"tt8888168","world_art_id":null,"type":"serial","add":"2019-05-08 07:32:50","orig_title":"The Code","year":"2019-04-09","translations":["Любительский (многоголосый закадровый)","Профессиональный (многоголосый закадровый) (NewStudio)","Профессиональный (многоголосый закадровый) (HDrezka Studio)"],"seasons_count":1,"episodes_count":12,"episodes":12,"update":"2020-07-27 18:33:22","iframe_src":"//7720.svetacdn.in/si4jsFRrtgrT/tv-series/4474"},{"id":4407,"title":"Убийства","kp_id":"1194731","imdb_id":"tt8311576","world_art_id":null,"type":"serial","add":"2019-04-23 11:14:26","orig_title":"The Murders","year":"2019-03-25","translations":["Профессиональный (многоголосый закадровый) (NewStudio)","Профессиональный (многоголосый закадровый) (HDrezka Studio)"],"seasons_count":1,"episodes_count":8,"episodes":8,"update":"2020-07-28 05:14:54","iframe_src":"//7720.svetacdn.in/si4jsFRrtgrT/tv-series/4407"},{"id":4312,"title":"Уоррен","kp_id":"1234145","imdb_id":"tt9643158","world_art_id":null,"type":"serial","add":"2019-03-25 06:28:50","orig_title":"Warren","year":"2019-02-25","translations":["Профессиональный (многоголосый закадровый) (Ozz.tv)","Профессиональный (многоголосый закадровый) (HDrezka Studio)"],"seasons_count":1,"episodes_count":6,"episodes":6,"update":"2020-07-27 15:03:42","iframe_src":"//7720.svetacdn.in/si4jsFRrtgrT/tv-series/4312"},{"id":4279,"title":"Сделай погромче, Чарли","kp_id":"1137021","imdb_id":"tt8304498","world_art_id":null,"type":"serial","add":"2019-03-18 04:16:39","orig_title":"Turn Up Charlie","year":"2019-03-15","translations":["Любительский (двухголосый закадровый) (Hamster Studio)","Профессиональный (многоголосый закадровый) (TVShows)","Профессиональный (многоголосый закадровый) (NewStudio)","Профессиональный (многоголосый закадровый) (HDrezka Studio)"],"seasons_count":1,"episodes_count":8,"episodes":8,"update":"2020-07-27 14:56:27","iframe_src":"//7720.svetacdn.in/si4jsFRrtgrT/tv-series/4279"},{"id":22242,"title":"Бойн Фолс","kp_id":"973490","imdb_id":"tt5608000","world_art_id":null,"type":"movie","add":"2019-02-12 09:03:56","orig_title":"Boyne Falls","year":"2018-04-18","translations":["Профессиональный (многоголосый закадровый) (HDrezka Studio)","Профессиональный (многоголосый закадровый) (HDrezka Studio)"],"quality":"webdl","translation":"Профессиональный (многоголосый закадровый) (HDrezka Studio)","update":"2021-05-05 15:23:27","iframe_src":"//7720.svetacdn.in/si4jsFRrtgrT/movie/22242"},{"id":22164,"title":"Под листьями","kp_id":"919967","imdb_id":"tt4574654","world_art_id":null,"type":"movie","add":"2019-02-10 21:25:19","orig_title":"Beneath the Leaves","year":"2019-02-08","translations":["Любительский (многоголосый закадровый) (Синема УС)","Любительский (двухголосый закадровый) (HiWayGrope)","Профессиональный (многоголосый закадровый) (HDrezka Studio)","Профессиональный (многоголосый закадровый) (HDrezka Studio)"],"quality":"webdl","translation":"Любительский (многоголосый закадровый) (Синема УС)","update":"2021-05-05 15:22:39","iframe_src":"//7720.svetacdn.in/si4jsFRrtgrT/movie/22164"},{"id":21161,"title":"Рассвет","kp_id":"1143671","imdb_id":"tt7919426","world_art_id":null,"type":"movie","add":"2019-01-01 23:32:36","orig_title":"Dawn","year":"2018-01-01","translations":["Любительский (многоголосый закадровый) (Синема УС)","Профессиональный (многоголосый закадровый) (HDrezka Studio)","Профессиональный (многоголосый закадровый) (HDrezka Studio)"],"quality":"webdl","translation":"Любительский (многоголосый закадровый) (Синема УС)","update":"2021-05-05 15:26:03","iframe_src":"//7720.svetacdn.in/si4jsFRrtgrT/movie/21161"},{"id":6707,"title":"Луна 44","kp_id":"14440","imdb_id":"tt0097910","world_art_id":null,"type":"movie","add":"2016-10-26 16:40:41","orig_title":"Moon 44","year":"1990-02-15","translations":["Полное дублирование","Профессиональный (многоголосый закадровый) (CP Digital)","Полное дублирование","Original (English)","Профессиональный (многоголосый закадровый) (Первый канал | ОРТ)","Профессиональный (многоголосый закадровый) (ТВЦ)"],"quality":"bd","translation":"Полное дублирование","update":"2021-05-05 07:23:06","iframe_src":"//7720.svetacdn.in/si4jsFRrtgrT/movie/6707"},{"id":4065,"title":"Звездные врата","kp_id":"5594","imdb_id":"tt0111282","world_art_id":null,"type":"movie","add":"2016-07-20 13:08:03","orig_title":"Stargate","year":"1994-10-28","translations":["Профессиональный (многоголосый закадровый)","Полное дублирование (Zone Vision Studio)","Авторский (одноголосый закадровый) (Гаврилов Андрей)","Авторский (одноголосый закадровый) (Живов Юрий)","Original (English)","Профессиональный (многоголосый закадровый) (SDI Media)"],"quality":"bd","translation":"Профессиональный (многоголосый закадровый)","update":"2021-05-05 07:11:17","iframe_src":"//7720.svetacdn.in/si4jsFRrtgrT/movie/4065"},{"id":145,"title":"Хроники Лиззи Борден","kp_id":"897912","imdb_id":"tt4145760","world_art_id":null,"type":"serial","add":"2016-06-06 11:23:25","orig_title":"The Lizzie Borden Chronicles","year":"2015-04-05","translations":["Профессиональный (многоголосый закадровый) (ViruseProject)","Профессиональный (многоголосый закадровый) (HDrezka Studio)"],"seasons_count":1,"episodes_count":8,"episodes":8,"update":"2020-07-27 14:59:43","iframe_src":"//7720.svetacdn.in/si4jsFRrtgrT/tv-series/145"},{"id":2030,"title":"Искусственный разум","kp_id":"594","imdb_id":"tt0212720","world_art_id":null,"type":"movie","add":"2016-05-10 16:14:27","orig_title":"Artificial Intelligence: AI","year":"2001-06-26","translations":["Полное дублирование","Авторский (одноголосый закадровый) (Визгунов Сергей)","Авторский (одноголосый закадровый) (Живов Юрий)","Полное дублирование","Original (English)","Профессиональный (многоголосый закадровый)","Профессиональный (многоголосый закадровый) (Карусель)"],"quality":"bd","translation":"Полное дублирование","update":"2021-05-05 11:00:35","iframe_src":"//7720.svetacdn.in/si4jsFRrtgrT/movie/2030"},{"id":987,"title":"Лолита","kp_id":"12131","imdb_id":"tt0119558","world_art_id":null,"type":"movie","add":"2016-04-12 13:02:10","orig_title":"Lolita","year":"1997-09-27","translations":["Полное дублирование","Полное дублирование","Original (English)","Профессиональный (многоголосый закадровый)"],"quality":"bd","translation":"Полное дублирование","update":"2021-05-05 10:47:03","iframe_src":"//7720.svetacdn.in/si4jsFRrtgrT/movie/987"},{"id":721,"title":"Бэтмэн Навсегда","kp_id":"1809","imdb_id":"tt0112462","world_art_id":null,"type":"movie","add":"2016-04-06 21:26:32","orig_title":"Batman Forever","year":"1995-06-09","translations":["Полное дублирование","Авторский (одноголосый закадровый) (Гаврилов Андрей)","Авторский (одноголосый закадровый) (Горчаков Василий)","Авторский (одноголосый закадровый) (Визгунов Сергей)","Авторский (одноголосый закадровый) (Живов Юрий)","Полное дублирование","Полное дублирование (Варус-Видео)","Original (English)","Любительский (одноголосый закадровый)","Профессиональный (двухголосый закадровый) (НТВ)","Профессиональный (двухголосый закадровый) (SDI Media)","Профессиональный (многоголосый закадровый) (РТР | Россия)"],"quality":"bd","translation":"Полное дублирование","update":"2021-05-05 11:18:56","iframe_src":"//7720.svetacdn.in/si4jsFRrtgrT/movie/721"}],"current_page":207,"first_page_url":"https://videocdn.tv/api/short?limit=100&api_token=X6EwAUfE5M9xbo7y0Bp0aPf3uXxG2KLL&cache3207=3207&page=1","from":20601,"last_page":651,"last_page_url":"https://videocdn.tv/api/short?limit=100&api_token=X6EwAUfE5M9xbo7y0Bp0aPf3uXxG2KLL&cache3207=3207&page=651","next_page_url":"https://videocdn.tv/api/short?limit=100&api_token=X6EwAUfE5M9xbo7y0Bp0aPf3uXxG2KLL&cache3207=3207&page=208","path":"https://videocdn.tv/api/short","per_page":100,"prev_page_url":"https://videocdn.tv/api/short?limit=100&api_token=X6EwAUfE5M9xbo7y0Bp0aPf3uXxG2KLL&cache3207=3207&page=206","to":20640,"total":65055}