{"result":true,"data":[{"id":45879,"title":"Вечные скитальцы","kp_id":"1202623","imdb_id":"tt9121616","world_art_id":null,"type":"movie","add":"2020-12-06 12:44:18","orig_title":"Paradise Drifters","year":"2020-11-03","translations":["Любительский (многоголосый закадровый) (AlphaProject)"],"quality":"bd","translation":"Любительский (многоголосый закадровый) (AlphaProject)","update":"2020-12-06 17:37:28","iframe_src":"//8543.svetacdn.in/IAF0wWTdNYZm/movie/45879"},{"id":45878,"title":"Ничто","kp_id":"1290797","imdb_id":"tt10651850","world_art_id":null,"type":"movie","add":"2020-12-06 12:41:44","orig_title":"Nimic","year":"2019-08-09","translations":["Любительский (многоголосый закадровый) (Синема УС)"],"quality":"webdl","translation":"Любительский (многоголосый закадровый) (Синема УС)","update":"2020-12-06 17:37:09","iframe_src":"//8543.svetacdn.in/IAF0wWTdNYZm/movie/45878"},{"id":45876,"title":"Ненавижу Новый год","kp_id":"1355739","imdb_id":"tt11441606","world_art_id":null,"type":"movie","add":"2020-12-06 12:36:56","orig_title":"I Hate New Year's","year":"2020-12-04","translations":["Любительский (многоголосый закадровый) (Синема УС)"],"quality":"webdl","translation":"Любительский (многоголосый закадровый) (Синема УС)","update":"2020-12-06 17:36:24","iframe_src":"//8543.svetacdn.in/IAF0wWTdNYZm/movie/45876"},{"id":45863,"title":"Опять Рождество","kp_id":null,"imdb_id":"tt13354204","world_art_id":null,"type":"movie","add":"2020-12-05 14:27:56","orig_title":"Just Another Christmas","year":"2020-12-03","translations":["Любительский (многоголосый закадровый) (Синема УС)"],"quality":"webdl","translation":"Любительский (многоголосый закадровый) (Синема УС)","update":"2020-12-05 22:24:57","iframe_src":"//8543.svetacdn.in/IAF0wWTdNYZm/movie/45863"},{"id":45862,"title":"Любовь Дэйва","kp_id":"1389171","imdb_id":"tt12549968","world_art_id":null,"type":"movie","add":"2020-12-05 14:23:25","orig_title":"Love Dave","year":"2020-07-01","translations":["Любительский (многоголосый закадровый) (Синема УС)"],"quality":"webdl","translation":"Любительский (многоголосый закадровый) (Синема УС)","update":"2020-12-05 22:23:15","iframe_src":"//8543.svetacdn.in/IAF0wWTdNYZm/movie/45862"},{"id":45861,"title":"Может, я в порядке","kp_id":"1057480","imdb_id":"tt7294234","world_art_id":null,"type":"movie","add":"2020-12-05 14:16:20","orig_title":"Maybe I'm Fine","year":"2018-08-01","translations":["Любительский (многоголосый закадровый) (Синема УС)"],"quality":"webdl","translation":"Любительский (многоголосый закадровый) (Синема УС)","update":"2020-12-05 22:21:08","iframe_src":"//8543.svetacdn.in/IAF0wWTdNYZm/movie/45861"},{"id":45856,"title":"Пришей зиму к моей коже","kp_id":"1128071","imdb_id":"tt7416536","world_art_id":null,"type":"movie","add":"2020-12-04 21:12:12","orig_title":"Sew the Winter to My Skin","year":"2019-02-08","translations":["Любительский (многоголосый закадровый) (@MUZOBOZ@)"],"quality":"webdl","translation":"Любительский (многоголосый закадровый) (@MUZOBOZ@)","update":"2020-12-06 09:57:46","iframe_src":"//8543.svetacdn.in/IAF0wWTdNYZm/movie/45856"},{"id":45854,"title":"Мускул","kp_id":"1179013","imdb_id":"tt7082742","world_art_id":null,"type":"movie","add":"2020-12-04 21:07:46","orig_title":"Muscle","year":"2019-11-10","translations":["Любительский (многоголосый закадровый) (@MUZOBOZ@)"],"quality":"webdl","translation":"Любительский (многоголосый закадровый) (@MUZOBOZ@)","update":"2020-12-06 09:56:25","iframe_src":"//8543.svetacdn.in/IAF0wWTdNYZm/movie/45854"},{"id":45853,"title":"Элиз","kp_id":"1200756","imdb_id":"tt9098562","world_art_id":null,"type":"movie","add":"2020-12-04 21:05:40","orig_title":"Elyse","year":"2020-12-04","translations":["Любительский (многоголосый закадровый) (@MUZOBOZ@)"],"quality":"webdl","translation":"Любительский (многоголосый закадровый) (@MUZOBOZ@)","update":"2020-12-05 07:19:53","iframe_src":"//8543.svetacdn.in/IAF0wWTdNYZm/movie/45853"},{"id":45852,"title":"Урод в замке","kp_id":"1292398","imdb_id":"tt10701458","world_art_id":null,"type":"movie","add":"2020-12-04 21:04:19","orig_title":"Castle Freak","year":"2020-12-04","translations":["Любительский (многоголосый закадровый) (@MUZOBOZ@)"],"quality":"webdl","translation":"Любительский (многоголосый закадровый) (@MUZOBOZ@)","update":"2020-12-05 07:19:27","iframe_src":"//8543.svetacdn.in/IAF0wWTdNYZm/movie/45852"},{"id":45849,"title":"Законы разорения","kp_id":"1000231","imdb_id":"tt5955792","world_art_id":null,"type":"movie","add":"2020-12-04 20:53:46","orig_title":"Las Reglas de la Ruina","year":"2018-09-20","translations":["Любительский (многоголосый закадровый) (Синема УС)"],"quality":"webdl","translation":"Любительский (многоголосый закадровый) (Синема УС)","update":"2020-12-06 09:55:55","iframe_src":"//8543.svetacdn.in/IAF0wWTdNYZm/movie/45849"},{"id":45846,"title":"Лунный огонь","kp_id":"1175992","imdb_id":"tt8718786","world_art_id":null,"type":"movie","add":"2020-12-04 20:28:29","orig_title":"Månebrand","year":"2018-10-06","translations":["Любительский (многоголосый закадровый) (Синема УС)"],"quality":"webdl","translation":"Любительский (многоголосый закадровый) (Синема УС)","update":"2020-12-06 09:55:13","iframe_src":"//8543.svetacdn.in/IAF0wWTdNYZm/movie/45846"},{"id":45845,"title":"Любовная зависимость","kp_id":"1058082","imdb_id":"tt6960736","world_art_id":null,"type":"movie","add":"2020-12-04 20:25:10","orig_title":"Love Addict","year":"2018-04-17","translations":["Любительский (многоголосый закадровый) (Синема УС)"],"quality":"bd","translation":"Любительский (многоголосый закадровый) (Синема УС)","update":"2020-12-06 09:54:55","iframe_src":"//8543.svetacdn.in/IAF0wWTdNYZm/movie/45845"},{"id":45843,"title":"Успеть домой на Рождество","kp_id":"1412877","imdb_id":"tt12965420","world_art_id":null,"type":"movie","add":"2020-12-04 20:20:35","orig_title":"Dashing Home for Christmas","year":"2020-11-22","translations":["Любительский (многоголосый закадровый) (Синема УС)"],"quality":"hdtv","translation":"Любительский (многоголосый закадровый) (Синема УС)","update":"2020-12-05 07:22:56","iframe_src":"//8543.svetacdn.in/IAF0wWTdNYZm/movie/45843"},{"id":45833,"title":"Монолит","kp_id":"2222","imdb_id":"tt0107597","world_art_id":null,"type":"movie","add":"2020-12-04 16:36:40","orig_title":"Monolith","year":"1993-05-01","translations":["Профессиональный (двухголосый закадровый)"],"quality":"dvdrip","translation":"Профессиональный (двухголосый закадровый)","update":"2020-12-06 08:20:09","iframe_src":"//8543.svetacdn.in/IAF0wWTdNYZm/movie/45833"},{"id":45681,"title":"Жизнь за год","kp_id":"1044785","imdb_id":"tt6598238","world_art_id":null,"type":"movie","add":"2020-11-28 06:16:33","orig_title":"Life in a Year","year":"2020-11-27","translations":["Original (English)","Профессиональный (многоголосый закадровый) (iTunes)"],"quality":"webdl","translation":"Original (English)","update":"2020-12-06 08:10:32","iframe_src":"//8543.svetacdn.in/IAF0wWTdNYZm/movie/45681"},{"id":42117,"title":"Да, боже, да","kp_id":"1188124","imdb_id":"tt8949056","world_art_id":null,"type":"movie","add":"2020-07-29 20:24:49","orig_title":"Yes, God, Yes","year":"2019-03-08","translations":["Любительский (многоголосый закадровый) (AlphaProject)","Original (English)","Профессиональный (многоголосый закадровый) (iTunes)"],"quality":"webdl","translation":"Любительский (многоголосый закадровый) (AlphaProject)","update":"2020-12-06 08:12:33","iframe_src":"//8543.svetacdn.in/IAF0wWTdNYZm/movie/42117"},{"id":6608,"title":"Заключенный","kp_id":"1157317","imdb_id":"tt8452308","world_art_id":null,"type":"serial","add":"2020-02-10 12:56:23","orig_title":"El Recluso","year":"2018-09-25","translations":["Любительский (многоголосый закадровый) (WestFilm)"],"seasons_count":1,"episodes_count":13,"episodes":13,"update":"2020-02-10 19:43:46","iframe_src":"//8543.svetacdn.in/IAF0wWTdNYZm/tv-series/6608"},{"id":6607,"title":"Достояние республики","kp_id":"44295","imdb_id":"tt0067013","world_art_id":null,"type":"serial","add":"2020-02-10 11:58:09","orig_title":"Dostoyanie respubliki","year":"1972-04-24","translations":["Оригинальная дорожка"],"seasons_count":1,"episodes_count":2,"episodes":2,"update":"2020-02-10 16:22:07","iframe_src":"//8543.svetacdn.in/IAF0wWTdNYZm/tv-series/6607"},{"id":6605,"title":"Буренка Даша","kp_id":"1272231","imdb_id":null,"world_art_id":null,"type":"serial","add":"2020-02-10 11:10:23","orig_title":"Buryonka Dasha","year":"2017-01-01","translations":["Оригинальная дорожка"],"seasons_count":1,"episodes_count":77,"episodes":77,"update":"2020-02-10 20:40:10","iframe_src":"//8543.svetacdn.in/IAF0wWTdNYZm/tv-series/6605"},{"id":6597,"title":"Лео","kp_id":"1132853","imdb_id":"tt8004814","world_art_id":null,"type":"serial","add":"2020-02-08 12:24:08","orig_title":"Léo","year":"2018-11-15","translations":["Любительский (многоголосый закадровый) (WestFilm)"],"seasons_count":1,"episodes_count":11,"episodes":11,"update":"2020-02-08 16:56:16","iframe_src":"//8543.svetacdn.in/IAF0wWTdNYZm/tv-series/6597"},{"id":6596,"title":"Я влюбилась в голограмму","kp_id":"1236259","imdb_id":"tt11058644","world_art_id":null,"type":"serial","add":"2020-02-07 23:32:07","orig_title":"My Holo Love","year":"2020-02-07","translations":["Любительский (многоголосый закадровый) (ColdFilm)"],"seasons_count":1,"episodes_count":12,"episodes":12,"update":"2020-02-09 22:13:48","iframe_src":"//8543.svetacdn.in/IAF0wWTdNYZm/tv-series/6596"},{"id":6595,"title":"Все, чего я не помню","kp_id":"1262473","imdb_id":"tt9295358","world_art_id":null,"type":"serial","add":"2020-02-07 21:55:59","orig_title":"Allt jag inte minns","year":"2019-09-08","translations":["Любительский (многоголосый закадровый) (WestFilm)"],"seasons_count":1,"episodes_count":3,"episodes":3,"update":"2020-02-08 08:27:20","iframe_src":"//8543.svetacdn.in/IAF0wWTdNYZm/tv-series/6595"},{"id":6589,"title":"Геркулес","kp_id":"229152","imdb_id":"tt0138967","world_art_id":null,"type":"serial","add":"2020-02-07 13:05:12","orig_title":"Hercules","year":"1998-09-01","translations":["Полное дублирование"],"seasons_count":2,"episodes_count":65,"episodes":13,"update":"2020-02-08 20:09:52","iframe_src":"//8543.svetacdn.in/IAF0wWTdNYZm/tv-series/6589"},{"id":6585,"title":"Сыщики","kp_id":"93931","imdb_id":"tt0277530","world_art_id":null,"type":"serial","add":"2020-02-07 10:47:33","orig_title":"Syshchiki","year":"2001-01-01","translations":["Оригинальная дорожка"],"seasons_count":5,"episodes_count":57,"episodes":12,"update":"2020-02-10 20:28:50","iframe_src":"//8543.svetacdn.in/IAF0wWTdNYZm/tv-series/6585"},{"id":6583,"title":"Пакман в мире привидений","kp_id":"779522","imdb_id":"tt2392179","world_art_id":null,"type":"serial","add":"2020-02-07 09:56:29","orig_title":"Pac-Man and the Ghostly Adventures","year":"2013-06-15","translations":["Полное дублирование"],"seasons_count":1,"episodes_count":26,"episodes":26,"update":"2020-02-10 20:32:20","iframe_src":"//8543.svetacdn.in/IAF0wWTdNYZm/tv-series/6583"},{"id":6576,"title":"Эвермор","kp_id":"842279","imdb_id":"tt3602560","world_art_id":null,"type":"serial","add":"2020-02-06 13:58:18","orig_title":"Evermoor","year":"2014-10-10","translations":["Полное дублирование (Disney Channel)"],"seasons_count":2,"episodes_count":36,"episodes":12,"update":"2020-02-08 19:29:12","iframe_src":"//8543.svetacdn.in/IAF0wWTdNYZm/tv-series/6576"},{"id":6571,"title":"Санджей и Крейг","kp_id":"774799","imdb_id":"tt2869898","world_art_id":null,"type":"serial","add":"2020-02-05 19:23:02","orig_title":"Sanjay and Craig","year":"2013-05-25","translations":["Полное дублирование"],"seasons_count":2,"episodes_count":40,"episodes":20,"update":"2020-02-10 20:07:20","iframe_src":"//8543.svetacdn.in/IAF0wWTdNYZm/tv-series/6571"},{"id":6562,"title":"Табалуга","kp_id":"487567","imdb_id":"tt0193549","world_art_id":null,"type":"serial","add":"2020-02-05 12:51:52","orig_title":"Tabaluga","year":"1998-06-13","translations":["Полное дублирование (СТС)","Полное дублирование"],"seasons_count":2,"episodes_count":52,"episodes":26,"update":"2020-02-08 12:03:33","iframe_src":"//8543.svetacdn.in/IAF0wWTdNYZm/tv-series/6562"},{"id":6556,"title":"Татьянин день","kp_id":"321496","imdb_id":"tt1006135","world_art_id":null,"type":"serial","add":"2020-02-04 19:02:41","orig_title":"Tatyanin den","year":"2007-03-12","translations":["Оригинальная дорожка"],"seasons_count":1,"episodes_count":221,"episodes":221,"update":"2020-02-08 19:47:54","iframe_src":"//8543.svetacdn.in/IAF0wWTdNYZm/tv-series/6556"},{"id":6530,"title":"Фриказоид!","kp_id":"418897","imdb_id":"tt0111970","world_art_id":null,"type":"serial","add":"2020-02-02 08:06:42","orig_title":"Freakazoid","year":"1995-09-16","translations":["Полное дублирование (СТС)"],"seasons_count":2,"episodes_count":24,"episodes":11,"update":"2020-02-08 17:37:40","iframe_src":"//8543.svetacdn.in/IAF0wWTdNYZm/tv-series/6530"},{"id":6415,"title":"Целебные силы дружка","kp_id":"1302733","imdb_id":"tt10540562","world_art_id":null,"type":"serial","add":"2020-01-20 13:49:12","orig_title":"The Healing Powers of Dude","year":"2020-01-13","translations":["Любительский (многоголосый закадровый) (WestFilm)"],"seasons_count":1,"episodes_count":8,"episodes":8,"update":"2020-02-09 22:13:31","iframe_src":"//8543.svetacdn.in/IAF0wWTdNYZm/tv-series/6415"},{"id":35003,"title":"Страна грёз","kp_id":"1076555","imdb_id":"tt5294522","world_art_id":null,"type":"movie","add":"2020-01-13 08:48:29","orig_title":"Dreamland","year":"2019-04-28","translations":["Любительский (многоголосый закадровый) (Синема УС)","Original (English)","Любительский (многоголосый закадровый) (@MUZOBOZ@)","Полное дублирование (iTunes)"],"quality":"webdl","translation":"Любительский (многоголосый закадровый) (Синема УС)","update":"2020-12-05 14:50:08","iframe_src":"//8543.svetacdn.in/IAF0wWTdNYZm/movie/35003"},{"id":5888,"title":"Безмолвный свидетель","kp_id":"397295","imdb_id":"tt0115355","world_art_id":null,"type":"serial","add":"2019-11-28 13:31:48","orig_title":"Silent Witness","year":"1996-02-21","translations":["Профессиональный (многоголосый закадровый) (Jaskier)","Любительский (многоголосый закадровый) (Octopus)","Профессиональный (многоголосый закадровый) (BaibaKo)","Профессиональный (многоголосый закадровый) (Fox Crime)","Любительский (одноголосый закадровый) (Project Web Mania)","Профессиональный (многоголосый закадровый) (SDI Media)","Профессиональный (многоголосый закадровый)","Любительский (многоголосый закадровый) (RusFilm)","Любительский (многоголосый закадровый) (ColdFilm)","Любительский (двухголосый закадровый) (KosharaSerials)"],"seasons_count":23,"episodes_count":210,"episodes":10,"update":"2020-02-10 19:21:10","iframe_src":"//8543.svetacdn.in/IAF0wWTdNYZm/tv-series/5888"},{"id":5043,"title":"Не убей","kp_id":"1290939","imdb_id":"tt5022622","world_art_id":null,"type":"serial","add":"2019-08-16 12:11:44","orig_title":"Non uccidere","year":"2015-09-11","translations":["Профессиональный (двухголосый закадровый) (ViruseProject)","Профессиональный (многоголосый закадровый) (ViruseProject)"],"seasons_count":2,"episodes_count":24,"episodes":12,"update":"2020-02-08 18:10:36","iframe_src":"//8543.svetacdn.in/IAF0wWTdNYZm/tv-series/5043"},{"id":4420,"title":"Тихуана","kp_id":"1164254","imdb_id":"tt8027624","world_art_id":null,"type":"serial","add":"2019-04-25 22:00:00","orig_title":"Tijuana","year":"2019-04-05","translations":["Любительский (многоголосый закадровый) (ColdFilm)","Любительский (многоголосый закадровый) (WestFilm)"],"seasons_count":1,"episodes_count":11,"episodes":11,"update":"2020-02-10 04:45:08","iframe_src":"//8543.svetacdn.in/IAF0wWTdNYZm/tv-series/4420"},{"id":24756,"title":"Ученик лекаря","kp_id":"42489","imdb_id":"tt0086499","world_art_id":null,"type":"movie","add":"2019-04-17 16:09:58","orig_title":"Uchenik lekarya","year":"1984-02-07","translations":["Оригинальная дорожка"],"quality":"webdl","translation":"Оригинальная дорожка","update":"2020-12-05 08:54:24","iframe_src":"//8543.svetacdn.in/IAF0wWTdNYZm/movie/24756"},{"id":3910,"title":"Причал","kp_id":"1156358","imdb_id":"tt8297022","world_art_id":null,"type":"serial","add":"2019-01-19 21:47:01","orig_title":"El embarcadero","year":"2019-01-18","translations":["Профессиональный (многоголосый закадровый)","Любительский (многоголосый закадровый) (WestFilm)"],"seasons_count":2,"episodes_count":16,"episodes":8,"update":"2020-02-10 19:15:19","iframe_src":"//8543.svetacdn.in/IAF0wWTdNYZm/tv-series/3910"},{"id":1969,"title":"Обмани меня","kp_id":"428930","imdb_id":"tt1235099","world_art_id":null,"type":"serial","add":"2018-01-18 12:56:53","orig_title":"Lie to Me","year":"2009-07-13","translations":["Профессиональный (многоголосый закадровый) (Первый канал | ОРТ)","Полное дублирование (ТВ3)"],"seasons_count":3,"episodes_count":48,"episodes":13,"update":"2020-02-08 12:39:32","iframe_src":"//8543.svetacdn.in/IAF0wWTdNYZm/tv-series/1969"},{"id":4033,"title":"Поездка в Америку","kp_id":"5281","imdb_id":"tt0094898","world_art_id":null,"type":"movie","add":"2016-07-20 09:07:10","orig_title":"Coming To America","year":"1988-06-29","translations":["Профессиональный (многоголосый закадровый)","Original (English)"],"quality":"bd","translation":"Профессиональный (многоголосый закадровый)","update":"2020-12-06 08:18:38","iframe_src":"//8543.svetacdn.in/IAF0wWTdNYZm/movie/4033"}],"current_page":243,"first_page_url":"https://videocdn.tv/api/short?limit=100&api_token=6Onb1W1alEUrBcKJZD3GoKBbWyAl2uG2&cache3243=3243&page=1","from":24201,"last_page":606,"last_page_url":"https://videocdn.tv/api/short?limit=100&api_token=6Onb1W1alEUrBcKJZD3GoKBbWyAl2uG2&cache3243=3243&page=606","next_page_url":"https://videocdn.tv/api/short?limit=100&api_token=6Onb1W1alEUrBcKJZD3GoKBbWyAl2uG2&cache3243=3243&page=244","path":"https://videocdn.tv/api/short","per_page":100,"prev_page_url":"https://videocdn.tv/api/short?limit=100&api_token=6Onb1W1alEUrBcKJZD3GoKBbWyAl2uG2&cache3243=3243&page=242","to":24240,"total":60594}