{"result":true,"data":[{"id":54006,"title":"Ми Нокта Али","kp_id":null,"imdb_id":"tt14074132","world_art_id":null,"type":"movie","add":"2021-10-20 10:01:30","orig_title":"Me Nokta Ali","year":"2021-01-01","translations":["Любительский (двухголосый закадровый) (Колобок)"],"quality":"ts","translation":"Любительский (двухголосый закадровый) (Колобок)","update":"2021-10-20 15:43:22","iframe_src":"//83.svetacdn.in/PfJ50H0ZBPg3/movie/54006"},{"id":54005,"title":"За дверью Трэжер","kp_id":"4545108","imdb_id":"tt15319014","world_art_id":null,"type":"movie","add":"2021-10-20 07:58:45","orig_title":"Behind Treasure's door","year":"2021-08-03","translations":["Любительский (многоголосый закадровый) (Синема УС)"],"quality":"webdl","translation":"Любительский (многоголосый закадровый) (Синема УС)","update":"2021-10-20 17:18:37","iframe_src":"//83.svetacdn.in/PfJ50H0ZBPg3/movie/54005"},{"id":54004,"title":"Долина убийц","kp_id":"4368476","imdb_id":"tt13814192","world_art_id":null,"type":"movie","add":"2021-10-20 07:56:50","orig_title":"Das Tal der Mörder","year":"2020-09-20","translations":["Любительский (многоголосый закадровый) (AlphaProject)"],"quality":"webdl","translation":"Любительский (многоголосый закадровый) (AlphaProject)","update":"2021-10-20 17:18:24","iframe_src":"//83.svetacdn.in/PfJ50H0ZBPg3/movie/54004"},{"id":54003,"title":"История оккультизма","kp_id":"1324782","imdb_id":"tt11310884","world_art_id":null,"type":"movie","add":"2021-10-20 07:55:24","orig_title":"Historia de lo Oculto","year":"2020-01-13","translations":["Любительский (многоголосый закадровый) (Синема УС)"],"quality":"webdl","translation":"Любительский (многоголосый закадровый) (Синема УС)","update":"2021-10-20 17:18:08","iframe_src":"//83.svetacdn.in/PfJ50H0ZBPg3/movie/54003"},{"id":54002,"title":"Талант шмеля","kp_id":"1302985","imdb_id":"tt9916270","world_art_id":null,"type":"movie","add":"2021-10-20 07:53:49","orig_title":"Il talento del calabrone","year":"2020-11-18","translations":["Любительский (многоголосый закадровый) (AlphaProject)"],"quality":"bd","translation":"Любительский (многоголосый закадровый) (AlphaProject)","update":"2021-10-20 17:17:55","iframe_src":"//83.svetacdn.in/PfJ50H0ZBPg3/movie/54002"},{"id":54001,"title":"Измена","kp_id":"1448718","imdb_id":"tt13410630","world_art_id":null,"type":"movie","add":"2021-10-20 07:51:40","orig_title":"Infidelity","year":"2020-11-06","translations":["Любительский (многоголосый закадровый) (Синема УС)"],"quality":"webdl","translation":"Любительский (многоголосый закадровый) (Синема УС)","update":"2021-10-20 17:17:41","iframe_src":"//83.svetacdn.in/PfJ50H0ZBPg3/movie/54001"},{"id":54000,"title":"Джонни","kp_id":null,"imdb_id":"tt15094740","world_art_id":null,"type":"movie","add":"2021-10-20 07:49:28","orig_title":"Johnny","year":"2021-11-05","translations":["Любительский (многоголосый закадровый) (Синема УС)"],"quality":"webdl","translation":"Любительский (многоголосый закадровый) (Синема УС)","update":"2021-10-20 17:17:30","iframe_src":"//83.svetacdn.in/PfJ50H0ZBPg3/movie/54000"},{"id":53999,"title":"Место встречи","kp_id":null,"imdb_id":"tt15484242","world_art_id":null,"type":"movie","add":"2021-10-20 07:48:17","orig_title":"Kimya","year":"2021-10-08","translations":["Любительский (многоголосый закадровый) (Синема УС)"],"quality":"webdl","translation":"Любительский (многоголосый закадровый) (Синема УС)","update":"2021-10-20 17:17:18","iframe_src":"//83.svetacdn.in/PfJ50H0ZBPg3/movie/53999"},{"id":53997,"title":"Искупление бродяги","kp_id":"1389774","imdb_id":"tt12542008","world_art_id":null,"type":"movie","add":"2021-10-20 07:44:12","orig_title":"Redemption of a Rogue","year":"2020-07-11","translations":["Любительский (многоголосый закадровый) (Синема УС)"],"quality":"webdl","translation":"Любительский (многоголосый закадровый) (Синема УС)","update":"2021-10-20 17:17:11","iframe_src":"//83.svetacdn.in/PfJ50H0ZBPg3/movie/53997"},{"id":53996,"title":"Кровавая вечеринка","kp_id":"4422274","imdb_id":"tt14449392","world_art_id":null,"type":"movie","add":"2021-10-20 07:42:04","orig_title":"Slumber Party Massacre","year":"2021-09-27","translations":["Любительский (многоголосый закадровый) (Синема УС)"],"quality":"webdl","translation":"Любительский (многоголосый закадровый) (Синема УС)","update":"2021-10-20 17:17:00","iframe_src":"//83.svetacdn.in/PfJ50H0ZBPg3/movie/53996"},{"id":53995,"title":"Белохвост","kp_id":"1302816","imdb_id":"tt10787484","world_art_id":null,"type":"movie","add":"2021-10-20 07:38:40","orig_title":"Whitetail","year":"2021-07-02","translations":["Любительский (многоголосый закадровый) (@MUZOBOZ@)"],"quality":"webdl","translation":"Любительский (многоголосый закадровый) (@MUZOBOZ@)","update":"2021-10-20 17:16:45","iframe_src":"//83.svetacdn.in/PfJ50H0ZBPg3/movie/53995"},{"id":53993,"title":"Хорошие девочки попадают в рай","kp_id":"1402918","imdb_id":"tt15614642","world_art_id":null,"type":"movie","add":"2021-10-20 05:27:15","orig_title":"Khoroshiye devochki popadayut v rai","year":"2021-10-10","translations":["Оригинальная дорожка"],"quality":"webdl","translation":"Оригинальная дорожка","update":"2021-10-20 11:50:24","iframe_src":"//83.svetacdn.in/PfJ50H0ZBPg3/movie/53993"},{"id":53992,"title":"Надпись на срубе","kp_id":"1209776","imdb_id":null,"world_art_id":null,"type":"movie","add":"2021-10-19 20:28:56","orig_title":"Надпись на срубе","year":"1968-01-01","translations":["Оригинальная дорожка"],"quality":"sat","translation":"Оригинальная дорожка","update":"2021-10-20 13:19:10","iframe_src":"//83.svetacdn.in/PfJ50H0ZBPg3/movie/53992"},{"id":53991,"title":"Печёнка","kp_id":"149787","imdb_id":"tt0362235","world_art_id":null,"type":"movie","add":"2021-10-19 20:12:09","orig_title":"Tjvjik","year":"1962-08-21","translations":["Полное дублирование"],"quality":"webdl","translation":"Полное дублирование","update":"2021-10-20 13:22:50","iframe_src":"//83.svetacdn.in/PfJ50H0ZBPg3/movie/53991"},{"id":53990,"title":"Колдунья","kp_id":"66567","imdb_id":"tt0048645","world_art_id":null,"type":"movie","add":"2021-10-19 19:46:49","orig_title":"La sorcière","year":"1956-04-11","translations":["Полное дублирование"],"quality":"dvdrip","translation":"Полное дублирование","update":"2021-10-20 13:21:02","iframe_src":"//83.svetacdn.in/PfJ50H0ZBPg3/movie/53990"},{"id":53989,"title":"Ты моя душа","kp_id":"581620","imdb_id":"tt1847736","world_art_id":null,"type":"movie","add":"2021-10-19 18:55:12","orig_title":"U R My Jaan","year":"2011-09-01","translations":["Профессиональный (многоголосый закадровый) (Bollywood HD)"],"quality":"hdtv","translation":"Профессиональный (многоголосый закадровый) (Bollywood HD)","update":"2021-10-20 17:19:16","iframe_src":"//83.svetacdn.in/PfJ50H0ZBPg3/movie/53989"},{"id":53866,"title":"Гиацинт","kp_id":"4510290","imdb_id":"tt14315584","world_art_id":null,"type":"movie","add":"2021-10-16 14:14:05","orig_title":"Hiacynt","year":"2021-10-13","translations":["Любительский (многоголосый закадровый) (AlphaProject)","Любительский (многоголосый закадровый) (AlphaProject)"],"quality":"webdl","translation":"Любительский (многоголосый закадровый) (AlphaProject)","update":"2021-10-20 11:51:55","iframe_src":"//83.svetacdn.in/PfJ50H0ZBPg3/movie/53866"},{"id":51361,"title":"Тук-тук, это мама!","kp_id":"1236608","imdb_id":"tt9665786","world_art_id":null,"type":"movie","add":"2021-06-23 04:24:57","orig_title":"Un tour chez ma fille","year":"2021-06-07","translations":["Любительский (многоголосый закадровый) (Синема УС)","Любительский (многоголосый закадровый) (@MUZOBOZ@)"],"quality":"ts","translation":"Любительский (многоголосый закадровый) (Синема УС)","update":"2021-10-20 17:16:51","iframe_src":"//83.svetacdn.in/PfJ50H0ZBPg3/movie/51361"},{"id":7987,"title":"Операция «Кобра»","kp_id":"1066296","imdb_id":"tt6795580","world_art_id":null,"type":"serial","add":"2020-06-24 11:49:31","orig_title":"Operation Cobra","year":"2019-02-15","translations":["Любительский (многоголосый закадровый) (Octopus)"],"seasons_count":1,"episodes_count":6,"episodes":6,"update":"2020-06-24 12:55:23","iframe_src":"//83.svetacdn.in/PfJ50H0ZBPg3/tv-series/7987"},{"id":7981,"title":"Взрослая Вэнсдэй Аддамс","kp_id":"934108","imdb_id":"tt3488236","world_art_id":null,"type":"serial","add":"2020-06-23 20:31:16","orig_title":"Adult Wednesday","year":"2013-09-25","translations":["Любительский (многоголосый закадровый) (Black Street Records)"],"seasons_count":2,"episodes_count":13,"episodes":7,"update":"2020-06-24 14:07:18","iframe_src":"//83.svetacdn.in/PfJ50H0ZBPg3/tv-series/7981"},{"id":7979,"title":"Русская наследница","kp_id":"661078","imdb_id":"tt4102308","world_art_id":null,"type":"serial","add":"2020-06-23 17:16:11","orig_title":"Russkaya naslednitsa","year":"2012-08-16","translations":["Оригинальная дорожка"],"seasons_count":1,"episodes_count":8,"episodes":8,"update":"2020-06-23 20:11:30","iframe_src":"//83.svetacdn.in/PfJ50H0ZBPg3/tv-series/7979"},{"id":7976,"title":"Пропавшие без вести","kp_id":"1207880","imdb_id":"tt9204160","world_art_id":null,"type":"serial","add":"2020-06-22 19:27:24","orig_title":"Desaparecidos","year":"2020-06-19","translations":["Профессиональный (двухголосый закадровый) (IdeaFilm)"],"seasons_count":1,"episodes_count":13,"episodes":13,"update":"2020-06-24 13:19:11","iframe_src":"//83.svetacdn.in/PfJ50H0ZBPg3/tv-series/7976"},{"id":7970,"title":"Незнакомка из Уайлдфелл-Холла","kp_id":"94269","imdb_id":"tt0115387","world_art_id":null,"type":"serial","add":"2020-06-22 06:56:51","orig_title":"The Tenant of Wildfell Hall","year":"1996-11-17","translations":["Профессиональный (многоголосый закадровый) (Кармен Видео)"],"seasons_count":1,"episodes_count":3,"episodes":3,"update":"2020-06-23 19:13:53","iframe_src":"//83.svetacdn.in/PfJ50H0ZBPg3/tv-series/7970"},{"id":7949,"title":"Вероника. Беглянка","kp_id":"728119","imdb_id":"tt4083506","world_art_id":null,"type":"serial","add":"2020-06-19 02:47:59","orig_title":"Veronika. Beglyanka","year":"2013-03-11","translations":["Оригинальная дорожка"],"seasons_count":1,"episodes_count":16,"episodes":16,"update":"2020-06-24 11:01:11","iframe_src":"//83.svetacdn.in/PfJ50H0ZBPg3/tv-series/7949"},{"id":7947,"title":"Гиппократ","kp_id":"1217006","imdb_id":"tt9350920","world_art_id":null,"type":"serial","add":"2020-06-18 20:46:17","orig_title":"Hippocrate","year":"2018-11-26","translations":["Любительский (многоголосый закадровый) (Octopus)"],"seasons_count":1,"episodes_count":8,"episodes":8,"update":"2020-06-23 15:08:44","iframe_src":"//83.svetacdn.in/PfJ50H0ZBPg3/tv-series/7947"},{"id":7945,"title":"УГРО 5","kp_id":"790963","imdb_id":null,"world_art_id":null,"type":"serial","add":"2020-06-18 16:22:13","orig_title":"УГРО 5","year":"2014-06-22","translations":["Оригинальная дорожка"],"seasons_count":1,"episodes_count":24,"episodes":24,"update":"2020-06-23 19:42:00","iframe_src":"//83.svetacdn.in/PfJ50H0ZBPg3/tv-series/7945"},{"id":7944,"title":"УГРО 4","kp_id":"628889","imdb_id":null,"world_art_id":null,"type":"serial","add":"2020-06-18 16:10:10","orig_title":"УГРО 4","year":"2012-11-19","translations":["Оригинальная дорожка"],"seasons_count":1,"episodes_count":24,"episodes":24,"update":"2020-06-23 20:07:33","iframe_src":"//83.svetacdn.in/PfJ50H0ZBPg3/tv-series/7944"},{"id":7943,"title":"УГРО. Простые парни 3","kp_id":null,"imdb_id":"tt2351630","world_art_id":null,"type":"serial","add":"2020-06-18 15:41:25","orig_title":"UGRO. Prostye parni 3","year":"2011-07-09","translations":["Оригинальная дорожка"],"seasons_count":1,"episodes_count":16,"episodes":16,"update":"2020-06-23 11:32:43","iframe_src":"//83.svetacdn.in/PfJ50H0ZBPg3/tv-series/7943"},{"id":7942,"title":"УГРО. Простые парни 2","kp_id":"455609","imdb_id":null,"world_art_id":null,"type":"serial","add":"2020-06-18 15:34:33","orig_title":"УГРО. Простые парни 2","year":"2008-07-26","translations":["Оригинальная дорожка"],"seasons_count":1,"episodes_count":12,"episodes":12,"update":"2020-06-23 11:22:39","iframe_src":"//83.svetacdn.in/PfJ50H0ZBPg3/tv-series/7942"},{"id":7941,"title":"УГРО. Простые парни","kp_id":"418639","imdb_id":"tt3831872","world_art_id":null,"type":"serial","add":"2020-06-18 15:19:51","orig_title":"UGRO. Prostyye parni","year":"2007-01-01","translations":["Оригинальная дорожка"],"seasons_count":1,"episodes_count":12,"episodes":12,"update":"2020-06-23 11:16:00","iframe_src":"//83.svetacdn.in/PfJ50H0ZBPg3/tv-series/7941"},{"id":7924,"title":"Девушка, которая видит запахи","kp_id":"904805","imdb_id":"tt4583316","world_art_id":null,"type":"serial","add":"2020-06-17 10:17:23","orig_title":"Naemsaereul boneun sonyeo","year":"2015-04-01","translations":["Любительский (многоголосый закадровый) (STEPonee)"],"seasons_count":1,"episodes_count":16,"episodes":16,"update":"2020-06-23 09:12:43","iframe_src":"//83.svetacdn.in/PfJ50H0ZBPg3/tv-series/7924"},{"id":7915,"title":"Грибной царь","kp_id":"581131","imdb_id":"tt10028012","world_art_id":null,"type":"serial","add":"2020-06-17 09:00:58","orig_title":"Gribnoy tsar","year":"2014-01-01","translations":["Оригинальная дорожка"],"seasons_count":1,"episodes_count":6,"episodes":6,"update":"2020-06-23 08:39:45","iframe_src":"//83.svetacdn.in/PfJ50H0ZBPg3/tv-series/7915"},{"id":7549,"title":"Светила","kp_id":"1192866","imdb_id":"tt8075008","world_art_id":null,"type":"serial","add":"2020-05-17 19:52:05","orig_title":"The Luminaries","year":"2020-05-17","translations":["Любительский (многоголосый закадровый) (ColdFilm)","Любительский (многоголосый закадровый) (Octopus)","Профессиональный (многоголосый закадровый) (IdeaFilm)","Профессиональный (многоголосый закадровый) (Greb&Creative)"],"seasons_count":1,"episodes_count":6,"episodes":6,"update":"2020-06-23 08:51:42","iframe_src":"//83.svetacdn.in/PfJ50H0ZBPg3/tv-series/7549"},{"id":7519,"title":"Белые линии","kp_id":"1280210","imdb_id":"tt9073958","world_art_id":null,"type":"serial","add":"2020-05-15 10:04:52","orig_title":"White Lines","year":"2020-05-15","translations":["Любительский (многоголосый закадровый) (ColdFilm)","Полное дублирование (SDI Media | Iyuno-SDI Group Russia)","Любительский (многоголосый закадровый) (Octopus)","Профессиональный (многоголосый закадровый) (NewStudio)","Любительский (многоголосый закадровый) (Синема УС)"],"seasons_count":1,"episodes_count":10,"episodes":10,"update":"2020-06-24 15:24:36","iframe_src":"//83.svetacdn.in/PfJ50H0ZBPg3/tv-series/7519"},{"id":7436,"title":"Безжалостный","kp_id":"1326877","imdb_id":"tt11306366","world_art_id":null,"type":"serial","add":"2020-05-07 20:50:01","orig_title":"Ruthless","year":"2020-03-19","translations":["Любительский (многоголосый закадровый) (Octopus)"],"seasons_count":1,"episodes_count":12,"episodes":12,"update":"2020-06-24 14:24:28","iframe_src":"//83.svetacdn.in/PfJ50H0ZBPg3/tv-series/7436"},{"id":6603,"title":"Центральный Багдад","kp_id":"1198734","imdb_id":"tt7411098","world_art_id":null,"type":"serial","add":"2020-02-10 05:32:48","orig_title":"Baghdad Central","year":"2020-02-03","translations":["Любительский (многоголосый закадровый) (ColdFilm)","Профессиональный (многоголосый закадровый) (TVShows)","Профессиональный (многоголосый закадровый) (Кириллица)"],"seasons_count":1,"episodes_count":6,"episodes":6,"update":"2020-06-24 14:14:16","iframe_src":"//83.svetacdn.in/PfJ50H0ZBPg3/tv-series/6603"},{"id":3480,"title":"Бит","kp_id":"1199780","imdb_id":"tt7095194","world_art_id":null,"type":"serial","add":"2018-11-12 10:06:28","orig_title":"Beat","year":"2018-11-09","translations":["Любительский (двухголосый закадровый) (KosharaSerials)","Профессиональный (многоголосый закадровый) (HDrezka Studio)"],"seasons_count":1,"episodes_count":7,"episodes":7,"update":"2020-06-23 09:52:53","iframe_src":"//83.svetacdn.in/PfJ50H0ZBPg3/tv-series/3480"},{"id":872,"title":"Живем сегодняшним днем","kp_id":"1008345","imdb_id":"tt5339440","world_art_id":null,"type":"serial","add":"2017-01-13 07:04:45","orig_title":"One Day at a Time","year":"2017-01-06","translations":["Профессиональный (многоголосый закадровый) (ColdFilm)","Профессиональный (многоголосый закадровый) (TVShows)","Профессиональный (многоголосый закадровый) (Jaskier)","Профессиональный (многоголосый закадровый) (HDrezka Studio)","Любительский (многоголосый закадровый) (Octopus)"],"seasons_count":4,"episodes_count":46,"episodes":7,"update":"2020-06-23 13:42:33","iframe_src":"//83.svetacdn.in/PfJ50H0ZBPg3/tv-series/872"},{"id":5607,"title":"Аптечный ковбой","kp_id":"4455","imdb_id":"tt0097240","world_art_id":null,"type":"movie","add":"2016-09-28 05:43:53","orig_title":"Drugstore Cowboy","year":"1989-09-09","translations":["Профессиональный (многоголосый закадровый)","Авторский (одноголосый закадровый) (Михалёв Алексей)","[EN] Original (English)","Профессиональный (двухголосый закадровый) (Первый канал | ОРТ)","Профессиональный (многоголосый закадровый) (5-й канал СПб)"],"quality":"bd","translation":"Профессиональный (многоголосый закадровый)","update":"2021-10-20 07:56:41","iframe_src":"//83.svetacdn.in/PfJ50H0ZBPg3/movie/5607"},{"id":2849,"title":"Реальные упыри","kp_id":"818981","imdb_id":"tt3416742","world_art_id":null,"type":"movie","add":"2016-06-02 09:57:33","orig_title":"What We Do in the Shadows","year":"2014-01-19","translations":["Полное дублирование (iTunes)","[EN] Original (English)","Полное дублирование (iTunes)","Профессиональный (двухголосый закадровый) (Ozz.tv)"],"quality":"bd","translation":"Полное дублирование (iTunes)","update":"2021-10-20 07:59:27","iframe_src":"//83.svetacdn.in/PfJ50H0ZBPg3/movie/2849"}],"current_page":304,"first_page_url":"https://videocdn.tv/api/short?limit=100&api_token=RgFQdUIR2dRmwv8iYa5SnFNgnw3vpjKj&cache3304=3304&page=1","from":30301,"last_page":708,"last_page_url":"https://videocdn.tv/api/short?limit=100&api_token=RgFQdUIR2dRmwv8iYa5SnFNgnw3vpjKj&cache3304=3304&page=708","next_page_url":"https://videocdn.tv/api/short?limit=100&api_token=RgFQdUIR2dRmwv8iYa5SnFNgnw3vpjKj&cache3304=3304&page=305","path":"https://videocdn.tv/api/short","per_page":100,"prev_page_url":"https://videocdn.tv/api/short?limit=100&api_token=RgFQdUIR2dRmwv8iYa5SnFNgnw3vpjKj&cache3304=3304&page=303","to":30340,"total":70792}