{"result":true,"data":[{"id":26050,"title":"Невозможная любовь","kp_id":"1136338","imdb_id":"tt8260226","world_art_id":null,"type":"movie","add":"2019-05-05 22:46:59","orig_title":"Un amour impossible","year":"2018-10-26","translations":["Любительский (многоголосый закадровый) (Синема УС)"],"quality":"webdl","translation":"Любительский (многоголосый закадровый) (Синема УС)","update":"2019-05-06 05:15:23","iframe_src":"//24213.svetacdn.in/71tsRs29n5tZ/movie/26050"},{"id":26049,"title":"Зубная фея","kp_id":"1126022","imdb_id":"tt7906260","world_art_id":null,"type":"movie","add":"2019-05-05 22:45:23","orig_title":"Toof","year":"2019-04-02","translations":["Любительский (многоголосый закадровый) (Синема УС)"],"quality":"bd","translation":"Любительский (многоголосый закадровый) (Синема УС)","update":"2019-05-06 05:10:44","iframe_src":"//24213.svetacdn.in/71tsRs29n5tZ/movie/26049"},{"id":26046,"title":"Камень","kp_id":"1248913","imdb_id":"tt4637946","world_art_id":null,"type":"movie","add":"2019-05-05 22:34:21","orig_title":"El Piedra","year":"2018-10-15","translations":["Любительский (многоголосый закадровый) (Синема УС)"],"quality":"webdl","translation":"Любительский (многоголосый закадровый) (Синема УС)","update":"2019-05-06 05:16:29","iframe_src":"//24213.svetacdn.in/71tsRs29n5tZ/movie/26046"},{"id":26045,"title":"Поступай правильно","kp_id":"1010260","imdb_id":"tt6253942","world_art_id":null,"type":"movie","add":"2019-05-05 22:32:11","orig_title":"De toutes mes forces","year":"2017-03-16","translations":["Любительский (многоголосый закадровый) (Синема УС)"],"quality":"webdl","translation":"Любительский (многоголосый закадровый) (Синема УС)","update":"2019-05-06 05:13:48","iframe_src":"//24213.svetacdn.in/71tsRs29n5tZ/movie/26045"},{"id":25990,"title":"Перекрёсток: раз, два, три - лови!","kp_id":"1077497","imdb_id":"tt6603812","world_art_id":null,"type":"movie","add":"2019-05-04 21:17:18","orig_title":"One Two Jaga","year":"2018-04-20","translations":["Любительский (многоголосый закадровый) (Колобок)"],"quality":"webdl","translation":"Любительский (многоголосый закадровый) (Колобок)","update":"2019-05-05 06:30:57","iframe_src":"//24213.svetacdn.in/71tsRs29n5tZ/movie/25990"},{"id":25982,"title":"День сурка Дэйва","kp_id":"1214620","imdb_id":"tt9251614","world_art_id":null,"type":"movie","add":"2019-05-04 20:38:35","orig_title":"Groundhog Dave","year":"2019-02-05","translations":["Любительский (многоголосый закадровый) (Синема УС)"],"quality":"webdl","translation":"Любительский (многоголосый закадровый) (Синема УС)","update":"2019-05-05 06:34:28","iframe_src":"//24213.svetacdn.in/71tsRs29n5tZ/movie/25982"},{"id":25978,"title":"Чёрная мама","kp_id":"1242702","imdb_id":"tt8099132","world_art_id":null,"type":"movie","add":"2019-05-04 20:33:32","orig_title":"Black Mother","year":"2018-03-01","translations":["Любительский (многоголосый закадровый) (Синема УС)"],"quality":"dvdrip","translation":"Любительский (многоголосый закадровый) (Синема УС)","update":"2019-05-05 07:09:33","iframe_src":"//24213.svetacdn.in/71tsRs29n5tZ/movie/25978"},{"id":25977,"title":"Инопланетное пристанище 2: Участок 24","kp_id":null,"imdb_id":"tt6853580","world_art_id":null,"type":"movie","add":"2019-05-04 20:31:53","orig_title":"Alien Domicile 2: Lot 24","year":"2018-01-01","translations":["Любительский (многоголосый закадровый) (Синема УС)"],"quality":"webdl","translation":"Любительский (многоголосый закадровый) (Синема УС)","update":"2019-05-05 07:10:29","iframe_src":"//24213.svetacdn.in/71tsRs29n5tZ/movie/25977"},{"id":25919,"title":"Обязательство","kp_id":"1048962","imdb_id":"tt6695212","world_art_id":null,"type":"movie","add":"2019-05-03 23:09:36","orig_title":"Wajib","year":"2017-08-05","translations":["Любительский (многоголосый закадровый) (Синема УС)"],"quality":"webdl","translation":"Любительский (многоголосый закадровый) (Синема УС)","update":"2019-05-05 06:56:45","iframe_src":"//24213.svetacdn.in/71tsRs29n5tZ/movie/25919"},{"id":25918,"title":"Соблазнитель","kp_id":"1021409","imdb_id":"tt5668850","world_art_id":null,"type":"movie","add":"2019-05-03 23:07:50","orig_title":"The Charmer","year":"2017-09-22","translations":["Любительский (многоголосый закадровый) (Синема УС)"],"quality":"webdl","translation":"Любительский (многоголосый закадровый) (Синема УС)","update":"2019-05-05 06:54:57","iframe_src":"//24213.svetacdn.in/71tsRs29n5tZ/movie/25918"},{"id":25913,"title":"Спасение Пингвина","kp_id":"1102646","imdb_id":"tt7575480","world_art_id":null,"type":"movie","add":"2019-05-03 22:57:05","orig_title":"Penguin Rescue","year":"2018-01-01","translations":["Любительский (многоголосый закадровый) (Синема УС)"],"quality":"webdl","translation":"Любительский (многоголосый закадровый) (Синема УС)","update":"2019-05-05 06:48:56","iframe_src":"//24213.svetacdn.in/71tsRs29n5tZ/movie/25913"},{"id":25912,"title":"Новые деньги","kp_id":"974663","imdb_id":"tt5622520","world_art_id":null,"type":"movie","add":"2019-05-03 22:55:03","orig_title":"New Money","year":"2017-11-27","translations":["Любительский (многоголосый закадровый) (Синема УС)"],"quality":"webdl","translation":"Любительский (многоголосый закадровый) (Синема УС)","update":"2019-05-05 06:51:33","iframe_src":"//24213.svetacdn.in/71tsRs29n5tZ/movie/25912"},{"id":25911,"title":"Единственный выбор","kp_id":"1183814","imdb_id":"tt8879666","world_art_id":null,"type":"movie","add":"2019-05-03 22:53:11","orig_title":"Her Only Choice","year":"2018-10-06","translations":["Любительский (многоголосый закадровый) (Синема УС)"],"quality":"webdl","translation":"Любительский (многоголосый закадровый) (Синема УС)","update":"2019-05-05 07:03:06","iframe_src":"//24213.svetacdn.in/71tsRs29n5tZ/movie/25911"},{"id":25910,"title":"Встречи","kp_id":"1093618","imdb_id":"tt6857958","world_art_id":null,"type":"movie","add":"2019-05-03 22:51:28","orig_title":"Shojo kaiko","year":"2017-08-15","translations":["Любительский (многоголосый закадровый) (Синема УС)"],"quality":"bd","translation":"Любительский (многоголосый закадровый) (Синема УС)","update":"2019-05-05 07:01:21","iframe_src":"//24213.svetacdn.in/71tsRs29n5tZ/movie/25910"},{"id":25909,"title":"Четверо в защите","kp_id":"1116168","imdb_id":"tt6465682","world_art_id":null,"type":"movie","add":"2019-05-03 22:47:28","orig_title":"Línea de cuatro","year":"2017-01-19","translations":["Любительский (многоголосый закадровый) (Синема УС)"],"quality":"webdl","translation":"Любительский (многоголосый закадровый) (Синема УС)","update":"2019-05-05 06:59:48","iframe_src":"//24213.svetacdn.in/71tsRs29n5tZ/movie/25909"},{"id":25908,"title":"Артур и Клэр","kp_id":"1025911","imdb_id":"tt6175234","world_art_id":null,"type":"movie","add":"2019-05-03 22:45:46","orig_title":"Arthur & Claire","year":"2017-09-25","translations":["Любительский (многоголосый закадровый) (Синема УС)"],"quality":"bd","translation":"Любительский (многоголосый закадровый) (Синема УС)","update":"2019-05-05 06:57:48","iframe_src":"//24213.svetacdn.in/71tsRs29n5tZ/movie/25908"},{"id":25907,"title":"90 Минут","kp_id":"952983","imdb_id":"tt5090486","world_art_id":null,"type":"movie","add":"2019-05-03 22:43:50","orig_title":"90 Minutes","year":"2019-03-19","translations":["Любительский (многоголосый закадровый) (Синема УС)"],"quality":"webdl","translation":"Любительский (многоголосый закадровый) (Синема УС)","update":"2019-05-05 07:06:33","iframe_src":"//24213.svetacdn.in/71tsRs29n5tZ/movie/25907"},{"id":25808,"title":"Ковёр-самолёт","kp_id":"989309","imdb_id":"tt5848640","world_art_id":null,"type":"movie","add":"2019-05-01 20:37:06","orig_title":"Hodja fra Pjort","year":"2018-02-08","translations":["Полное дублирование"],"quality":"bd","translation":"Полное дублирование","update":"2019-05-06 05:44:54","iframe_src":"//24213.svetacdn.in/71tsRs29n5tZ/movie/25808"},{"id":21747,"title":"Хрупкие плечи Дианы","kp_id":"992549","imdb_id":"tt5867796","world_art_id":null,"type":"movie","add":"2019-01-24 09:07:46","orig_title":"Diane a les épaules","year":"2017-11-08","translations":["Любительский (многоголосый закадровый) (Синема УС)","Любительский (одноголосый закадровый) (datynet | Агапов Антон)"],"quality":"webdl","translation":"Любительский (многоголосый закадровый) (Синема УС)","update":"2019-05-05 07:13:05","iframe_src":"//24213.svetacdn.in/71tsRs29n5tZ/movie/21747"},{"id":17836,"title":"Сезон чудес","kp_id":"991636","imdb_id":"tt5427194","world_art_id":null,"type":"movie","add":"2018-07-22 16:15:10","orig_title":"The Miracle Season","year":"2018-04-06","translations":["Профессиональный (многоголосый закадровый)","Профессиональный (многоголосый закадровый) (HDrezka Studio)"],"quality":"bd","translation":"Профессиональный (многоголосый закадровый)","update":"2019-05-05 07:07:33","iframe_src":"//24213.svetacdn.in/71tsRs29n5tZ/movie/17836"}],"current_page":1981,"first_page_url":"https://videocdn.tv/api/short?limit=100&api_token=EnbO9h8pv1VyjbCJhg0WM9nG259n7mtz&cache31981=31981&page=1","from":198001,"last_page":730,"last_page_url":"https://videocdn.tv/api/short?limit=100&api_token=EnbO9h8pv1VyjbCJhg0WM9nG259n7mtz&cache31981=31981&page=730","next_page_url":null,"path":"https://videocdn.tv/api/short","per_page":100,"prev_page_url":"https://videocdn.tv/api/short?limit=100&api_token=EnbO9h8pv1VyjbCJhg0WM9nG259n7mtz&cache31981=31981&page=1980","to":198020,"total":72971}