{"result":true,"data":[{"id":50540,"title":"Павел эмиссар","kp_id":"194245","imdb_id":"tt0219668","world_art_id":null,"type":"movie","add":"2021-05-21 15:30:27","orig_title":"The Emissary: A Biblical Epic","year":"1997-11-01","translations":["Полное дублирование"],"quality":"dvdrip","translation":"Полное дублирование","update":"2021-05-21 16:16:26","iframe_src":"//2413.svetacdn.in/si4jsFRrtgrT/movie/50540"},{"id":50532,"title":"Любимый сын","kp_id":"4441188","imdb_id":"tt13891980","world_art_id":null,"type":"movie","add":"2021-05-21 07:56:52","orig_title":"Favorite Son","year":"2021-05-06","translations":["Любительский (многоголосый закадровый) (AlphaProject)"],"quality":"webdl","translation":"Любительский (многоголосый закадровый) (AlphaProject)","update":"2021-05-21 15:43:35","iframe_src":"//2413.svetacdn.in/si4jsFRrtgrT/movie/50532"},{"id":50531,"title":"И наступит весна","kp_id":"1400497","imdb_id":"tt12574718","world_art_id":null,"type":"movie","add":"2021-05-21 07:54:34","orig_title":"Syksyn jälkeen saapuu kevät","year":"2020-08-28","translations":["Любительский (многоголосый закадровый) (AlphaProject)"],"quality":"webdl","translation":"Любительский (многоголосый закадровый) (AlphaProject)","update":"2021-05-21 15:43:23","iframe_src":"//2413.svetacdn.in/si4jsFRrtgrT/movie/50531"},{"id":50530,"title":"Жить без них","kp_id":"1368117","imdb_id":"tt12106304","world_art_id":null,"type":"movie","add":"2021-05-21 07:53:15","orig_title":"Vivre sans eux","year":"2018-01-01","translations":["Любительский (многоголосый закадровый) (Синема УС)"],"quality":"hdtv","translation":"Любительский (многоголосый закадровый) (Синема УС)","update":"2021-05-21 15:43:02","iframe_src":"//2413.svetacdn.in/si4jsFRrtgrT/movie/50530"},{"id":50529,"title":"Уинфред Микс","kp_id":"1356426","imdb_id":"tt11914450","world_art_id":null,"type":"movie","add":"2021-05-21 07:51:25","orig_title":"Winifred Meeks","year":"2021-04-27","translations":["Любительский (многоголосый закадровый) (Синема УС)"],"quality":"webdl","translation":"Любительский (многоголосый закадровый) (Синема УС)","update":"2021-05-21 15:42:46","iframe_src":"//2413.svetacdn.in/si4jsFRrtgrT/movie/50529"},{"id":50523,"title":"Папина идеальная малышка","kp_id":"1406419","imdb_id":"tt12703842","world_art_id":null,"type":"movie","add":"2021-05-20 22:04:00","orig_title":"Daddy's Perfect Little Girl","year":"2021-04-30","translations":["Любительский (многоголосый закадровый) (Синема УС)"],"quality":"webdl","translation":"Любительский (многоголосый закадровый) (Синема УС)","update":"2021-05-21 08:01:33","iframe_src":"//2413.svetacdn.in/si4jsFRrtgrT/movie/50523"},{"id":50522,"title":"Чёрт возьми, Пятница!","kp_id":"1316294","imdb_id":"tt10916458","world_art_id":null,"type":"movie","add":"2021-05-20 21:56:52","orig_title":"Good Grief It's Friday","year":"2021-05-07","translations":["Любительский (многоголосый закадровый) (Синема УС)"],"quality":"webdl","translation":"Любительский (многоголосый закадровый) (Синема УС)","update":"2021-05-21 08:03:07","iframe_src":"//2413.svetacdn.in/si4jsFRrtgrT/movie/50522"},{"id":50521,"title":"Песочник","kp_id":"1278860","imdb_id":"tt10530428","world_art_id":null,"type":"movie","add":"2021-05-20 21:41:07","orig_title":"Calidris","year":"2019-06-28","translations":["Любительский (многоголосый закадровый) (Синема УС)"],"quality":"webdl","translation":"Любительский (многоголосый закадровый) (Синема УС)","update":"2021-05-21 08:02:29","iframe_src":"//2413.svetacdn.in/si4jsFRrtgrT/movie/50521"},{"id":50520,"title":"Обжигающая ложь","kp_id":null,"imdb_id":"tt14454016","world_art_id":null,"type":"movie","add":"2021-05-20 21:39:18","orig_title":"Burning Little Lies","year":"2021-05-09","translations":["Любительский (многоголосый закадровый) (Синема УС)"],"quality":"webdl","translation":"Любительский (многоголосый закадровый) (Синема УС)","update":"2021-05-21 08:04:08","iframe_src":"//2413.svetacdn.in/si4jsFRrtgrT/movie/50520"},{"id":50519,"title":"Яркие","kp_id":"1154103","imdb_id":"tt7772498","world_art_id":null,"type":"movie","add":"2021-05-20 21:36:49","orig_title":"Bright Ones","year":"2019-03-25","translations":["Любительский (многоголосый закадровый) (Синема УС)"],"quality":"webdl","translation":"Любительский (многоголосый закадровый) (Синема УС)","update":"2021-05-21 08:00:11","iframe_src":"//2413.svetacdn.in/si4jsFRrtgrT/movie/50519"},{"id":50508,"title":"Мой нежный матадор","kp_id":"1302303","imdb_id":"tt10879920","world_art_id":null,"type":"movie","add":"2021-05-20 08:51:08","orig_title":"Tengo Miedo Torero","year":"2020-09-10","translations":["Любительский (многоголосый закадровый) (Синема УС)"],"quality":"webdl","translation":"Любительский (многоголосый закадровый) (Синема УС)","update":"2021-05-21 08:09:11","iframe_src":"//2413.svetacdn.in/si4jsFRrtgrT/movie/50508"},{"id":49235,"title":"Суд — это я","kp_id":"10951","imdb_id":"tt0084112","world_art_id":null,"type":"movie","add":"2021-03-31 11:47:15","orig_title":"I, the Jury","year":"1982-04-22","translations":["Профессиональный (многоголосый закадровый) (НТВ)","[EN] Original (English)","Авторский (одноголосый закадровый) (Володарский Леонид)","Авторский (одноголосый закадровый) (Михалёв Алексей)"],"quality":"bd","translation":"Профессиональный (многоголосый закадровый) (НТВ)","update":"2021-05-21 13:28:51","iframe_src":"//2413.svetacdn.in/si4jsFRrtgrT/movie/49235"},{"id":36514,"title":"Девушка на мосту","kp_id":"47397","imdb_id":"tt0144201","world_art_id":null,"type":"movie","add":"2020-02-18 19:20:20","orig_title":"La fille sur le pont","year":"1999-03-31","translations":["Профессиональный (многоголосый закадровый) (CP Digital)","Авторский (одноголосый закадровый) (Сербин Юрий)","Профессиональный (многоголосый закадровый) (НТВ)"],"quality":"bd","translation":"Профессиональный (многоголосый закадровый) (CP Digital)","update":"2021-05-21 08:08:43","iframe_src":"//2413.svetacdn.in/si4jsFRrtgrT/movie/36514"},{"id":23026,"title":"Мастер Z: Наследие Ип Мана","kp_id":"1048339","imdb_id":"tt7262882","world_art_id":null,"type":"movie","add":"2019-03-13 20:06:23","orig_title":"Cheung Tin-Chi","year":"2018-10-13","translations":["Профессиональный (многоголосый закадровый) (HDrezka Studio)","Полное дублирование (iTunes)"],"quality":"webdl","translation":"Профессиональный (многоголосый закадровый) (HDrezka Studio)","update":"2021-05-21 13:11:22","iframe_src":"//2413.svetacdn.in/si4jsFRrtgrT/movie/23026"},{"id":1171,"title":"Спасти или уничтожить","kp_id":"760066","imdb_id":null,"world_art_id":null,"type":"serial","add":"2017-04-05 15:34:13","orig_title":"Спасти или уничтожить","year":"2013-09-10","translations":["Оригинальная дорожка"],"seasons_count":1,"episodes_count":4,"episodes":4,"update":"2017-04-06 05:42:29","iframe_src":"//2413.svetacdn.in/si4jsFRrtgrT/tv-series/1171"},{"id":1170,"title":"Раз, два! Люблю тебя!","kp_id":"759750","imdb_id":"tt3298640","world_art_id":null,"type":"serial","add":"2017-04-05 15:30:32","orig_title":"Raz, dva! Lyublyu tebya!","year":"2013-04-29","translations":["Оригинальная дорожка"],"seasons_count":1,"episodes_count":4,"episodes":4,"update":"2017-04-06 05:49:05","iframe_src":"//2413.svetacdn.in/si4jsFRrtgrT/tv-series/1170"},{"id":1169,"title":"Осенняя мелодия любви","kp_id":"799431","imdb_id":null,"world_art_id":null,"type":"serial","add":"2017-04-05 15:27:47","orig_title":"Осенняя мелодия любви","year":"2013-09-07","translations":["Оригинальная дорожка"],"seasons_count":1,"episodes_count":2,"episodes":2,"update":"2017-04-06 05:37:25","iframe_src":"//2413.svetacdn.in/si4jsFRrtgrT/tv-series/1169"},{"id":1168,"title":"Чиста вода у истока","kp_id":"823945","imdb_id":"tt5026486","world_art_id":null,"type":"serial","add":"2017-04-05 15:23:22","orig_title":"Chista voda u istoka","year":"2014-03-30","translations":["Оригинальная дорожка"],"seasons_count":1,"episodes_count":4,"episodes":4,"update":"2017-04-06 05:34:08","iframe_src":"//2413.svetacdn.in/si4jsFRrtgrT/tv-series/1168"},{"id":1163,"title":"Романовы","kp_id":"743975","imdb_id":"tt3560728","world_art_id":null,"type":"serial","add":"2017-04-05 06:08:33","orig_title":"Romanovy","year":"2013-11-04","translations":["Оригинальная дорожка"],"seasons_count":1,"episodes_count":8,"episodes":8,"update":"2017-04-05 13:35:32","iframe_src":"//2413.svetacdn.in/si4jsFRrtgrT/tv-series/1163"},{"id":1162,"title":"Без права на ошибку","kp_id":"505753","imdb_id":null,"world_art_id":null,"type":"serial","add":"2017-04-04 15:42:34","orig_title":"Без права на ошибку","year":"2011-03-01","translations":["Оригинальная дорожка"],"seasons_count":1,"episodes_count":4,"episodes":4,"update":"2017-04-05 14:16:15","iframe_src":"//2413.svetacdn.in/si4jsFRrtgrT/tv-series/1162"},{"id":1155,"title":"Как развести миллионера","kp_id":"817864","imdb_id":null,"world_art_id":null,"type":"serial","add":"2017-04-02 12:00:34","orig_title":"Как развести миллионера","year":"2014-07-18","translations":["Оригинальная дорожка"],"seasons_count":1,"episodes_count":4,"episodes":4,"update":"2017-04-04 09:19:53","iframe_src":"//2413.svetacdn.in/si4jsFRrtgrT/tv-series/1155"},{"id":1154,"title":"Вокруг света за 80 дней","kp_id":"257763","imdb_id":"tt0096535","world_art_id":null,"type":"serial","add":"2017-04-02 11:27:54","orig_title":"Around the World in 80 Days","year":"1989-04-16","translations":["Профессиональный (двухголосый закадровый)"],"seasons_count":1,"episodes_count":3,"episodes":3,"update":"2017-04-03 10:21:44","iframe_src":"//2413.svetacdn.in/si4jsFRrtgrT/tv-series/1154"},{"id":1153,"title":"Анжелика","kp_id":"733436","imdb_id":"tt3517228","world_art_id":null,"type":"serial","add":"2017-03-30 15:24:14","orig_title":"Anzhelika","year":"2014-09-15","translations":["Оригинальная дорожка"],"seasons_count":2,"episodes_count":40,"episodes":20,"update":"2017-04-04 07:50:12","iframe_src":"//2413.svetacdn.in/si4jsFRrtgrT/tv-series/1153"},{"id":1151,"title":"Волчье солнце","kp_id":"806717","imdb_id":"tt3607806","world_art_id":null,"type":"serial","add":"2017-03-30 05:51:17","orig_title":"Volche solntse","year":"2014-11-10","translations":["Оригинальная дорожка"],"seasons_count":1,"episodes_count":12,"episodes":12,"update":"2017-03-30 12:05:58","iframe_src":"//2413.svetacdn.in/si4jsFRrtgrT/tv-series/1151"},{"id":1145,"title":"Молодой","kp_id":"1040619","imdb_id":null,"world_art_id":null,"type":"serial","add":"2017-03-28 08:07:18","orig_title":"Молодой","year":"2017-03-26","translations":["Оригинальная дорожка"],"seasons_count":1,"episodes_count":2,"episodes":2,"update":"2017-03-28 09:20:37","iframe_src":"//2413.svetacdn.in/si4jsFRrtgrT/tv-series/1145"},{"id":1143,"title":"Парфюмерша 3","kp_id":"1008636","imdb_id":null,"world_art_id":null,"type":"serial","add":"2017-03-26 15:47:53","orig_title":"Парфюмерша 3","year":"2017-03-25","translations":["Оригинальная дорожка"],"seasons_count":1,"episodes_count":4,"episodes":4,"update":"2017-03-27 09:21:56","iframe_src":"//2413.svetacdn.in/si4jsFRrtgrT/tv-series/1143"},{"id":1142,"title":"Мата Хари","kp_id":"843049","imdb_id":"tt4110246","world_art_id":null,"type":"serial","add":"2017-03-24 05:21:37","orig_title":"Mata Hari","year":"2017-01-21","translations":["Оригинальная дорожка"],"seasons_count":1,"episodes_count":12,"episodes":12,"update":"2017-04-03 10:13:38","iframe_src":"//2413.svetacdn.in/si4jsFRrtgrT/tv-series/1142"},{"id":1141,"title":"Гаро: Сияющий во тьме","kp_id":"796768","imdb_id":"tt4000116","world_art_id":null,"type":"serial","add":"2017-03-23 11:47:11","orig_title":"Garo: Yami o Terasu Mono","year":"2013-04-05","translations":["Любительский (двухголосый закадровый) (DeadSno & den904)"],"seasons_count":1,"episodes_count":24,"episodes":24,"update":"2017-03-28 12:05:37","iframe_src":"//2413.svetacdn.in/si4jsFRrtgrT/tv-series/1141"},{"id":1137,"title":"Подстава","kp_id":"684923","imdb_id":null,"world_art_id":null,"type":"serial","add":"2017-03-23 08:29:47","orig_title":"Подстава","year":"2012-06-16","translations":["Оригинальная дорожка"],"seasons_count":1,"episodes_count":2,"episodes":2,"update":"2017-03-24 15:11:59","iframe_src":"//2413.svetacdn.in/si4jsFRrtgrT/tv-series/1137"},{"id":1134,"title":"Атлантика: Самый необузданный океан на Земле","kp_id":"977727","imdb_id":"tt4903642","world_art_id":null,"type":"serial","add":"2017-03-22 12:13:51","orig_title":"Atlantic: The Wildest Ocean on Earth","year":"2015-08-31","translations":["Профессиональный (многоголосый закадровый) (AlexFilm)"],"seasons_count":1,"episodes_count":3,"episodes":3,"update":"2017-03-27 09:15:22","iframe_src":"//2413.svetacdn.in/si4jsFRrtgrT/tv-series/1134"},{"id":1115,"title":"Не вместе","kp_id":"1039249","imdb_id":null,"world_art_id":null,"type":"serial","add":"2017-03-15 07:17:54","orig_title":"Не вместе","year":"2017-03-13","translations":["Оригинальная дорожка"],"seasons_count":1,"episodes_count":20,"episodes":20,"update":"2017-03-27 11:23:39","iframe_src":"//2413.svetacdn.in/si4jsFRrtgrT/tv-series/1115"},{"id":10086,"title":"Дива","kp_id":"94699","imdb_id":"tt0082269","world_art_id":null,"type":"movie","add":"2017-02-27 08:02:07","orig_title":"Diva","year":"1981-03-11","translations":["Полное дублирование (Мосфильм)","Любительский (одноголосый закадровый)","Профессиональный (многоголосый закадровый)","Профессиональный (многоголосый закадровый) (Первый канал | ОРТ)"],"quality":"bd","translation":"Полное дублирование (Мосфильм)","update":"2021-05-21 13:32:09","iframe_src":"//2413.svetacdn.in/si4jsFRrtgrT/movie/10086"},{"id":9405,"title":"Шербургские зонтики","kp_id":"7718","imdb_id":"tt0058450","world_art_id":null,"type":"movie","add":"2017-02-03 09:27:34","orig_title":"Les parapluies de Cherbourg","year":"1964-02-19","translations":["Профессиональный (многоголосый закадровый)","Профессиональный (многоголосый закадровый) (SomeWax)","Профессиональный (одноголосый закадровый)","Профессиональный (двухголосый закадровый) (Светла)"],"quality":"bd","translation":"Профессиональный (многоголосый закадровый)","update":"2021-05-21 08:00:14","iframe_src":"//2413.svetacdn.in/si4jsFRrtgrT/movie/9405"},{"id":958,"title":"Майор и магия","kp_id":"958617","imdb_id":null,"world_art_id":null,"type":"serial","add":"2017-01-31 08:22:07","orig_title":"Майор и магия","year":"2017-01-30","translations":["Оригинальная дорожка"],"seasons_count":1,"episodes_count":32,"episodes":32,"update":"2017-03-30 14:35:57","iframe_src":"//2413.svetacdn.in/si4jsFRrtgrT/tv-series/958"},{"id":6338,"title":"Могучие утята 2","kp_id":"22188","imdb_id":"tt0109520","world_art_id":null,"type":"movie","add":"2016-10-16 08:10:12","orig_title":"D2: The Mighty Ducks","year":"1994-03-25","translations":["Профессиональный (многоголосый закадровый)","Профессиональный (многоголосый закадровый) (ТНТ)","[EN] Original (English)","Профессиональный (двухголосый закадровый) (Видеосервис)","Профессиональный (многоголосый закадровый) (ТВ3)"],"quality":"hdtv","translation":"Профессиональный (многоголосый закадровый)","update":"2021-05-21 08:13:09","iframe_src":"//2413.svetacdn.in/si4jsFRrtgrT/movie/6338"},{"id":4234,"title":"Я - начало","kp_id":"761933","imdb_id":"tt2884206","world_art_id":null,"type":"movie","add":"2016-08-01 04:48:57","orig_title":"I Origins","year":"2014-01-18","translations":["Профессиональный (многоголосый закадровый)","[EN] Original (English)","Профессиональный (многоголосый закадровый) (BaibaKo)","Профессиональный (многоголосый закадровый) (iTunes)"],"quality":"bd","translation":"Профессиональный (многоголосый закадровый)","update":"2021-05-21 07:57:48","iframe_src":"//2413.svetacdn.in/si4jsFRrtgrT/movie/4234"},{"id":3170,"title":"Сатирикон","kp_id":"39328","imdb_id":"tt0064940","world_art_id":null,"type":"movie","add":"2016-06-15 10:29:59","orig_title":"Fellini - Satyricon","year":"1969-09-03","translations":["Профессиональный (многоголосый закадровый)","Авторский (одноголосый закадровый) (Сербин Юрий)","Профессиональный (двухголосый закадровый)","Профессиональный (двухголосый закадровый) (НТВ)","Профессиональный (многоголосый закадровый) (SomeWax)","Профессиональный (многоголосый закадровый) (Видеоимпульс)"],"quality":"bd","translation":"Профессиональный (многоголосый закадровый)","update":"2021-05-21 07:53:34","iframe_src":"//2413.svetacdn.in/si4jsFRrtgrT/movie/3170"},{"id":62,"title":"Закон каменных джунглей","kp_id":"694406","imdb_id":"tt4482996","world_art_id":null,"type":"serial","add":"2016-04-25 17:59:46","orig_title":"Zakon kamennykh dzhungley","year":"2015-03-16","translations":["Оригинальная дорожка"],"seasons_count":2,"episodes_count":16,"episodes":8,"update":"2017-03-31 11:43:02","iframe_src":"//2413.svetacdn.in/si4jsFRrtgrT/tv-series/62"},{"id":784,"title":"Гладиатор","kp_id":"474","imdb_id":"tt0172495","world_art_id":null,"type":"movie","add":"2016-04-08 14:24:08","orig_title":"Gladiator","year":"2000-05-01","translations":["Полное дублирование","[EN] Original (English)","Авторский (одноголосый закадровый) (Гаврилов Андрей)","Авторский (одноголосый закадровый) (Кузнецов Сергей)","Авторский (одноголосый закадровый) (Живов Юрий)","Полное дублирование","[EN] Original (English)","Профессиональный (двухголосый закадровый) (РенТВ)","Профессиональный (многоголосый закадровый)","Профессиональный (многоголосый закадровый) (Интер)","Профессиональный (многоголосый закадровый) (Премьер Видео Фильм)","Профессиональный (многоголосый закадровый) (РТР | Россия)"],"quality":"bd","translation":"Полное дублирование","update":"2021-05-21 13:23:41","iframe_src":"//2413.svetacdn.in/si4jsFRrtgrT/movie/784"},{"id":36,"title":"Крыша мира","kp_id":"923146","imdb_id":null,"world_art_id":null,"type":"serial","add":"2016-03-29 21:30:55","orig_title":"Крыша мира","year":"2015-03-28","translations":["Оригинальная дорожка"],"seasons_count":2,"episodes_count":38,"episodes":20,"update":"2017-03-31 09:00:17","iframe_src":"//2413.svetacdn.in/si4jsFRrtgrT/tv-series/36"}],"current_page":583,"first_page_url":"https://videocdn.tv/api/short?limit=100&api_token=X6EwAUfE5M9xbo7y0Bp0aPf3uXxG2KLL&cache3583=3583&page=1","from":58201,"last_page":715,"last_page_url":"https://videocdn.tv/api/short?limit=100&api_token=X6EwAUfE5M9xbo7y0Bp0aPf3uXxG2KLL&cache3583=3583&page=715","next_page_url":"https://videocdn.tv/api/short?limit=100&api_token=X6EwAUfE5M9xbo7y0Bp0aPf3uXxG2KLL&cache3583=3583&page=584","path":"https://videocdn.tv/api/short","per_page":100,"prev_page_url":"https://videocdn.tv/api/short?limit=100&api_token=X6EwAUfE5M9xbo7y0Bp0aPf3uXxG2KLL&cache3583=3583&page=582","to":58240,"total":71407}