{"result":true,"data":[{"id":18294,"title":"Притчи об искусственном интеллекте","kp_id":null,"imdb_id":"tt8773700","world_art_id":null,"type":"movie","add":"2018-08-14 00:33:58","orig_title":"A. I. Tales","year":"2018-07-13","translations":["Любительский (многоголосый закадровый) (Синема УС)"],"quality":"webdl","translation":"Любительский (многоголосый закадровый) (Синема УС)","update":"2018-08-14 07:10:35","iframe_src":"//8543.svetacdn.in/IAF0wWTdNYZm/movie/18294"},{"id":18293,"title":"Потерянное дерево","kp_id":"702700","imdb_id":"tt2368606","world_art_id":null,"type":"movie","add":"2018-08-13 22:34:11","orig_title":"The Lost Tree","year":"2016-03-18","translations":["Любительский (многоголосый закадровый) (Колобок)"],"quality":"webdl","translation":"Любительский (многоголосый закадровый) (Колобок)","update":"2018-08-14 07:11:53","iframe_src":"//8543.svetacdn.in/IAF0wWTdNYZm/movie/18293"},{"id":18292,"title":"Перелетные свиньи","kp_id":"569081","imdb_id":"tt1735200","world_art_id":null,"type":"movie","add":"2018-08-13 22:31:18","orig_title":"When Pigs Have Wings","year":"2011-09-21","translations":["Профессиональный (многоголосый закадровый)"],"quality":"bd","translation":"Профессиональный (многоголосый закадровый)","update":"2018-08-14 07:13:15","iframe_src":"//8543.svetacdn.in/IAF0wWTdNYZm/movie/18292"},{"id":18291,"title":"Легендарные убийцы","kp_id":"824633","imdb_id":"tt3449040","world_art_id":null,"type":"movie","add":"2018-08-13 22:26:06","orig_title":"Killer Legends","year":"2014-03-16","translations":["Любительский (двухголосый закадровый) (DeadSno & den904)"],"quality":"webdl","translation":"Любительский (двухголосый закадровый) (DeadSno & den904)","update":"2018-08-14 07:14:16","iframe_src":"//8543.svetacdn.in/IAF0wWTdNYZm/movie/18291"},{"id":18290,"title":"Вкус рисового цветка","kp_id":"1051789","imdb_id":"tt7022720","world_art_id":null,"type":"movie","add":"2018-08-13 22:20:29","orig_title":"Mi hua zhi wei","year":"2017-09-02","translations":["Любительский (многоголосый закадровый) (Синема УС)"],"quality":"webdl","translation":"Любительский (многоголосый закадровый) (Синема УС)","update":"2018-08-14 07:15:28","iframe_src":"//8543.svetacdn.in/IAF0wWTdNYZm/movie/18290"},{"id":18289,"title":"Джек хочет получить братика","kp_id":"851027","imdb_id":"tt3666734","world_art_id":null,"type":"movie","add":"2018-08-13 22:11:14","orig_title":"Jack bestelt een broertje","year":"2015-02-04","translations":["Профессиональный (многоголосый закадровый) (GreenРай Studio)"],"quality":"dvdrip","translation":"Профессиональный (многоголосый закадровый) (GreenРай Studio)","update":"2018-08-14 07:18:55","iframe_src":"//8543.svetacdn.in/IAF0wWTdNYZm/movie/18289"},{"id":18288,"title":"Дом Мэнсона","kp_id":"789152","imdb_id":"tt3100678","world_art_id":null,"type":"movie","add":"2018-08-13 22:08:09","orig_title":"House of Manson","year":"2014-10-18","translations":["Любительский (двухголосый закадровый) (Колобок)"],"quality":"webdl","translation":"Любительский (двухголосый закадровый) (Колобок)","update":"2018-08-14 07:24:07","iframe_src":"//8543.svetacdn.in/IAF0wWTdNYZm/movie/18288"},{"id":18285,"title":"Бегущий во времени","kp_id":"2680","imdb_id":"tt0108342","world_art_id":null,"type":"movie","add":"2018-08-13 14:02:04","orig_title":"Time Runner","year":"1993-03-17","translations":["Профессиональный (двухголосый закадровый) (НТВ)"],"quality":"dvdrip","translation":"Профессиональный (двухголосый закадровый) (НТВ)","update":"2018-08-14 06:38:57","iframe_src":"//8543.svetacdn.in/IAF0wWTdNYZm/movie/18285"},{"id":18284,"title":"Блондинки в законе","kp_id":"397489","imdb_id":"tt1015999","world_art_id":null,"type":"movie","add":"2018-08-13 13:59:55","orig_title":"Legally Blondes","year":"2009-04-14","translations":["Профессиональный (многоголосый закадровый)"],"quality":"bd","translation":"Профессиональный (многоголосый закадровый)","update":"2018-08-14 06:40:49","iframe_src":"//8543.svetacdn.in/IAF0wWTdNYZm/movie/18284"},{"id":18283,"title":"Блэки летит на Луну","kp_id":"731985","imdb_id":"tt1199779","world_art_id":null,"type":"movie","add":"2018-08-13 13:57:27","orig_title":"Black to the Moon 3D","year":"2013-02-15","translations":["Полное дублирование"],"quality":"dvdrip","translation":"Полное дублирование","update":"2018-08-14 06:37:07","iframe_src":"//8543.svetacdn.in/IAF0wWTdNYZm/movie/18283"},{"id":18281,"title":"Ввысь","kp_id":"902246","imdb_id":"tt4490824","world_art_id":null,"type":"movie","add":"2018-08-13 13:47:41","orig_title":"Lift Me Up","year":"2015-10-04","translations":["Любительский (многоголосый закадровый) (Синема УС)"],"quality":"webdl","translation":"Любительский (многоголосый закадровый) (Синема УС)","update":"2018-08-14 06:47:25","iframe_src":"//8543.svetacdn.in/IAF0wWTdNYZm/movie/18281"},{"id":18280,"title":"Хэвизавры","kp_id":"862230","imdb_id":"tt3806888","world_art_id":null,"type":"movie","add":"2018-08-13 13:46:29","orig_title":"Hevisaurus-elokuva","year":"2015-11-27","translations":["Профессиональный (многоголосый закадровый) (GreenРай Studio)"],"quality":"bd","translation":"Профессиональный (многоголосый закадровый) (GreenРай Studio)","update":"2018-08-14 06:41:37","iframe_src":"//8543.svetacdn.in/IAF0wWTdNYZm/movie/18280"},{"id":18222,"title":"Приглашение со вкусом смерти","kp_id":"18199","imdb_id":"tt0271210","world_art_id":null,"type":"movie","add":"2018-08-11 00:44:26","orig_title":"R.S.V.P.","year":"2002-01-15","translations":["Профессиональный (многоголосый закадровый)"],"quality":"dvdrip","translation":"Профессиональный (многоголосый закадровый)","update":"2018-08-13 13:07:17","iframe_src":"//8543.svetacdn.in/IAF0wWTdNYZm/movie/18222"},{"id":18221,"title":"Пожиратели плоти","kp_id":"95434","imdb_id":"tt0080057","world_art_id":null,"type":"movie","add":"2018-08-11 00:42:34","orig_title":"Zombi 2","year":"1979-08-25","translations":["Авторский (одноголосый закадровый) (Гаврилов Андрей)"],"quality":"bd","translation":"Авторский (одноголосый закадровый) (Гаврилов Андрей)","update":"2018-08-13 13:09:12","iframe_src":"//8543.svetacdn.in/IAF0wWTdNYZm/movie/18221"},{"id":18220,"title":"Одержимая","kp_id":"27255","imdb_id":"tt0039725","world_art_id":null,"type":"movie","add":"2018-08-11 00:40:21","orig_title":"Possessed","year":"1947-05-29","translations":["Профессиональный (многоголосый закадровый)"],"quality":"bd","translation":"Профессиональный (многоголосый закадровый)","update":"2018-08-13 13:10:09","iframe_src":"//8543.svetacdn.in/IAF0wWTdNYZm/movie/18220"},{"id":18217,"title":"Кровные узы","kp_id":"6259","imdb_id":"tt0076313","world_art_id":null,"type":"movie","add":"2018-08-11 00:35:08","orig_title":"Les liens de sang","year":"1978-02-01","translations":["Любительский (одноголосый закадровый) (RAIM)"],"quality":"dvdrip","translation":"Любительский (одноголосый закадровый) (RAIM)","update":"2018-08-13 13:11:15","iframe_src":"//8543.svetacdn.in/IAF0wWTdNYZm/movie/18217"},{"id":18216,"title":"Секрет","kp_id":"55725","imdb_id":"tt0227458","world_art_id":null,"type":"movie","add":"2018-08-11 00:33:28","orig_title":"Le secret","year":"2000-11-01","translations":["Любительский (многоголосый закадровый)"],"quality":"dvdrip","translation":"Любительский (многоголосый закадровый)","update":"2018-08-13 13:12:48","iframe_src":"//8543.svetacdn.in/IAF0wWTdNYZm/movie/18216"},{"id":18215,"title":"Секрет","kp_id":"150355","imdb_id":"tt0072131","world_art_id":null,"type":"movie","add":"2018-08-11 00:31:30","orig_title":"Le secret","year":"1974-10-09","translations":["Любительский (одноголосый закадровый)"],"quality":"dvdrip","translation":"Любительский (одноголосый закадровый)","update":"2018-08-13 13:12:55","iframe_src":"//8543.svetacdn.in/IAF0wWTdNYZm/movie/18215"},{"id":16978,"title":"Неугомонные","kp_id":"1013918","imdb_id":"tt6001452","world_art_id":null,"type":"movie","add":"2018-05-31 07:52:56","orig_title":"I cormorani","year":"2016-12-01","translations":["Любительский (многоголосый закадровый) (Синема УС)","Профессиональный (многоголосый закадровый) (GreenРай Studio)"],"quality":"webdl","translation":"Любительский (многоголосый закадровый) (Синема УС)","update":"2018-08-14 07:23:03","iframe_src":"//8543.svetacdn.in/IAF0wWTdNYZm/movie/16978"},{"id":16928,"title":"Блокнот Сары","kp_id":"1038805","imdb_id":"tt6599742","world_art_id":null,"type":"movie","add":"2018-05-27 21:26:57","orig_title":"El cuaderno de Sara","year":"2018-01-31","translations":["Любительский (многоголосый закадровый) (Синема УС)","Профессиональный (многоголосый закадровый) (GreenРай Studio)"],"quality":"hdrip","translation":"Любительский (многоголосый закадровый) (Синема УС)","update":"2018-08-14 06:34:21","iframe_src":"//8543.svetacdn.in/IAF0wWTdNYZm/movie/16928"}],"current_page":1716,"first_page_url":"https://videocdn.tv/api/short?limit=100&api_token=6Onb1W1alEUrBcKJZD3GoKBbWyAl2uG2&cache31716=31716&page=1","from":171501,"last_page":610,"last_page_url":"https://videocdn.tv/api/short?limit=100&api_token=6Onb1W1alEUrBcKJZD3GoKBbWyAl2uG2&cache31716=31716&page=610","next_page_url":null,"path":"https://videocdn.tv/api/short","per_page":100,"prev_page_url":"https://videocdn.tv/api/short?limit=100&api_token=6Onb1W1alEUrBcKJZD3GoKBbWyAl2uG2&cache31716=31716&page=1715","to":171520,"total":60937}