{"result":true,"data":[{"id":13306,"title":"Страна под названием Дом","kp_id":"853944","imdb_id":"tt3953626","world_art_id":null,"type":"movie","add":"2017-08-31 23:54:23","orig_title":"A Country Called Home","year":"2015-06-13","translations":["Любительский (одноголосый закадровый)"],"quality":"hdrip","translation":"Любительский (одноголосый закадровый)","update":"2017-09-01 05:57:04","iframe_src":"//7923.svetacdn.in/si4jsFRrtgrT/movie/13306"},{"id":13305,"title":"В поисках золотой рыбки","kp_id":"1043361","imdb_id":"tt6656784","world_art_id":null,"type":"movie","add":"2017-08-31 23:51:20","orig_title":"Kattappava Kanom","year":"2017-03-17","translations":["Профессиональный (многоголосый закадровый)"],"quality":"hdrip","translation":"Профессиональный (многоголосый закадровый)","update":"2017-09-01 05:59:36","iframe_src":"//7923.svetacdn.in/si4jsFRrtgrT/movie/13305"},{"id":13303,"title":"Реальные убийства: Тайна Авроры Тигарден.","kp_id":"901149","imdb_id":"tt4618800","world_art_id":null,"type":"movie","add":"2017-08-31 23:48:13","orig_title":"Real Murders: An Aurora Teagarden Mystery","year":"2015-07-26","translations":["Любительский (многоголосый закадровый) (Синема УС)"],"quality":"hdtv","translation":"Любительский (многоголосый закадровый) (Синема УС)","update":"2017-09-01 06:04:27","iframe_src":"//7923.svetacdn.in/si4jsFRrtgrT/movie/13303"},{"id":13302,"title":"Игра в куклы: Жажда крови","kp_id":"933518","imdb_id":"tt4980812","world_art_id":null,"type":"movie","add":"2017-08-31 23:46:51","orig_title":"Playing with Dolls: Bloodlust","year":"2016-01-21","translations":["Любительский (многоголосый закадровый) (Синема УС)"],"quality":"hdrip","translation":"Любительский (многоголосый закадровый) (Синема УС)","update":"2017-09-01 06:05:30","iframe_src":"//7923.svetacdn.in/si4jsFRrtgrT/movie/13302"},{"id":13287,"title":"Битва за Чернобыль","kp_id":"431202","imdb_id":"tt1832484","world_art_id":null,"type":"movie","add":"2017-08-31 05:18:38","orig_title":"The Battle of Chernobyl","year":"2006-01-01","translations":["Профессиональный (многоголосый закадровый)"],"quality":"dvdrip","translation":"Профессиональный (многоголосый закадровый)","update":"2017-08-31 09:46:15","iframe_src":"//7923.svetacdn.in/si4jsFRrtgrT/movie/13287"},{"id":13284,"title":"Легион ночи","kp_id":"47649","imdb_id":"tt0113632","world_art_id":null,"type":"movie","add":"2017-08-31 05:15:16","orig_title":"Legion of the Night","year":"1995-10-15","translations":["Авторский (одноголосый закадровый) (Визгунов Сергей)"],"quality":"dvdrip","translation":"Авторский (одноголосый закадровый) (Визгунов Сергей)","update":"2017-08-31 09:47:34","iframe_src":"//7923.svetacdn.in/si4jsFRrtgrT/movie/13284"},{"id":13277,"title":"Преступления прошлого","kp_id":"310946","imdb_id":"tt1009019","world_art_id":null,"type":"movie","add":"2017-08-31 04:57:49","orig_title":"Crimes of the Past","year":"2009-06-10","translations":["Профессиональный (многоголосый закадровый)"],"quality":"dvdrip","translation":"Профессиональный (многоголосый закадровый)","update":"2017-08-31 10:23:02","iframe_src":"//7923.svetacdn.in/si4jsFRrtgrT/movie/13277"},{"id":13272,"title":"Дж. Эдгар","kp_id":"505796","imdb_id":"tt1616195","world_art_id":null,"type":"movie","add":"2017-08-31 04:37:37","orig_title":"J. Edgar","year":"2011-11-03","translations":["Полное дублирование"],"quality":"bd","translation":"Полное дублирование","update":"2017-08-31 09:44:44","iframe_src":"//7923.svetacdn.in/si4jsFRrtgrT/movie/13272"},{"id":13252,"title":"Шайтан","kp_id":"102181","imdb_id":"tt0450843","world_art_id":null,"type":"movie","add":"2017-08-30 07:33:48","orig_title":"Sheitan","year":"2006-01-27","translations":["Полное дублирование"],"quality":"dvdrip","translation":"Полное дублирование","update":"2017-08-31 09:39:21","iframe_src":"//7923.svetacdn.in/si4jsFRrtgrT/movie/13252"},{"id":13234,"title":"Жадины","kp_id":"649224","imdb_id":"tt2115426","world_art_id":null,"type":"movie","add":"2017-08-29 12:36:33","orig_title":"Taeunagin haetjiman","year":"2011-11-10","translations":["Любительский (двухголосый закадровый)"],"quality":"hdrip","translation":"Любительский (двухголосый закадровый)","update":"2017-08-31 09:37:28","iframe_src":"//7923.svetacdn.in/si4jsFRrtgrT/movie/13234"},{"id":13233,"title":"16-любовь","kp_id":"523144","imdb_id":"tt1663673","world_art_id":null,"type":"movie","add":"2017-08-29 12:34:20","orig_title":"16-Love","year":"2012-01-20","translations":["Профессиональный (многоголосый закадровый)"],"quality":"webdl","translation":"Профессиональный (многоголосый закадровый)","update":"2017-08-31 09:36:23","iframe_src":"//7923.svetacdn.in/si4jsFRrtgrT/movie/13233"},{"id":13232,"title":"Голливудский мусор","kp_id":"627759","imdb_id":"tt1492849","world_art_id":null,"type":"movie","add":"2017-08-29 12:33:12","orig_title":"Garbage","year":"2013-05-07","translations":["Профессиональный (многоголосый закадровый)"],"quality":"hdtv","translation":"Профессиональный (многоголосый закадровый)","update":"2017-08-31 09:35:09","iframe_src":"//7923.svetacdn.in/si4jsFRrtgrT/movie/13232"},{"id":13230,"title":"Твоя рука в моей руке","kp_id":"623972","imdb_id":"tt2059244","world_art_id":null,"type":"movie","add":"2017-08-29 12:27:50","orig_title":"Main dans la main","year":"2012-11-10","translations":["Профессиональный (многоголосый закадровый)"],"quality":"hdrip","translation":"Профессиональный (многоголосый закадровый)","update":"2017-08-31 09:33:05","iframe_src":"//7923.svetacdn.in/si4jsFRrtgrT/movie/13230"},{"id":13227,"title":"Посланник судьбы","kp_id":"611458","imdb_id":"tt1965272","world_art_id":null,"type":"movie","add":"2017-08-29 12:23:20","orig_title":"Velayudham","year":"2011-10-26","translations":["Профессиональный (многоголосый закадровый) (Red Media)"],"quality":"bd","translation":"Профессиональный (многоголосый закадровый) (Red Media)","update":"2017-08-31 09:29:28","iframe_src":"//7923.svetacdn.in/si4jsFRrtgrT/movie/13227"},{"id":13226,"title":"Неуместный человек","kp_id":"259788","imdb_id":"tt0808185","world_art_id":null,"type":"movie","add":"2017-08-29 12:15:12","orig_title":"Den brysomme mannen","year":"2006-05-20","translations":["Профессиональный (двухголосый закадровый)"],"quality":"dvdrip","translation":"Профессиональный (двухголосый закадровый)","update":"2017-08-31 09:28:23","iframe_src":"//7923.svetacdn.in/si4jsFRrtgrT/movie/13226"},{"id":13225,"title":"Попугай Club","kp_id":"521997","imdb_id":"tt2856874","world_art_id":null,"type":"movie","add":"2017-08-29 12:14:06","orig_title":"Popugay Club","year":"2013-05-02","translations":["Оригинальная дорожка"],"quality":"sat","translation":"Оригинальная дорожка","update":"2017-08-31 09:26:59","iframe_src":"//7923.svetacdn.in/si4jsFRrtgrT/movie/13225"},{"id":13224,"title":"Ошибки любви","kp_id":"727649","imdb_id":null,"world_art_id":null,"type":"movie","add":"2017-08-29 12:12:04","orig_title":"Ошибки любви","year":"2013-01-13","translations":["Оригинальная дорожка"],"quality":"sat","translation":"Оригинальная дорожка","update":"2017-08-31 09:25:13","iframe_src":"//7923.svetacdn.in/si4jsFRrtgrT/movie/13224"},{"id":13223,"title":"Тайна четырех принцесс","kp_id":"742281","imdb_id":null,"world_art_id":null,"type":"movie","add":"2017-08-29 12:10:25","orig_title":"Тайна четырех принцесс","year":"2014-08-14","translations":["Оригинальная дорожка"],"quality":"dvdrip","translation":"Оригинальная дорожка","update":"2017-08-31 09:24:16","iframe_src":"//7923.svetacdn.in/si4jsFRrtgrT/movie/13223"},{"id":13221,"title":"Тухлое мясо","kp_id":"676411","imdb_id":"tt1034010","world_art_id":null,"type":"movie","add":"2017-08-29 12:07:11","orig_title":"Bad Meat","year":"2011-10-29","translations":["Любительский (двухголосый закадровый) (DeadSno & den904)"],"quality":"hdrip","translation":"Любительский (двухголосый закадровый) (DeadSno & den904)","update":"2017-08-31 09:22:09","iframe_src":"//7923.svetacdn.in/si4jsFRrtgrT/movie/13221"},{"id":13072,"title":"Вдохновение на убийство","kp_id":"1002612","imdb_id":"tt6026094","world_art_id":null,"type":"movie","add":"2017-08-20 21:42:23","orig_title":"Inspired to Kill","year":"2017-01-01","translations":["Любительский (многоголосый закадровый) (Студия Пиратского Дубляжа)","Любительский (многоголосый закадровый) (Синема УС)"],"quality":"hdtv","translation":"Любительский (многоголосый закадровый) (Студия Пиратского Дубляжа)","update":"2017-09-01 06:17:51","iframe_src":"//7923.svetacdn.in/si4jsFRrtgrT/movie/13072"}],"current_page":2083,"first_page_url":"https://videocdn.tv/api/short?limit=100&api_token=X6EwAUfE5M9xbo7y0Bp0aPf3uXxG2KLL&cache32083=32083&page=1","from":208201,"last_page":641,"last_page_url":"https://videocdn.tv/api/short?limit=100&api_token=X6EwAUfE5M9xbo7y0Bp0aPf3uXxG2KLL&cache32083=32083&page=641","next_page_url":null,"path":"https://videocdn.tv/api/short","per_page":100,"prev_page_url":"https://videocdn.tv/api/short?limit=100&api_token=X6EwAUfE5M9xbo7y0Bp0aPf3uXxG2KLL&cache32083=32083&page=2082","to":208220,"total":64076}