{"result":true,"data":[{"id":54439,"title":"Комета","kp_id":"1326189","imdb_id":"tt10782600","world_art_id":null,"type":"movie","add":"2021-11-11 05:48:14","orig_title":"The Comet","year":"2019-01-01","translations":["Оригинальная дорожка"],"quality":"webdl","translation":"Оригинальная дорожка","update":"2021-11-11 09:09:42","iframe_src":"//24213.svetacdn.in/si4jsFRrtgrT/movie/54439"},{"id":54438,"title":"Неправильное воспитание Бинду","kp_id":"1164020","imdb_id":"tt7955022","world_art_id":null,"type":"movie","add":"2021-11-10 20:54:02","orig_title":"The Miseducation of Bindu","year":"2020-10-16","translations":["Любительский (многоголосый закадровый) (AlphaProject)"],"quality":"webdl","translation":"Любительский (многоголосый закадровый) (AlphaProject)","update":"2021-11-11 07:20:39","iframe_src":"//24213.svetacdn.in/si4jsFRrtgrT/movie/54438"},{"id":54436,"title":"Вайолет","kp_id":"1096107","imdb_id":"tt6852672","world_art_id":null,"type":"movie","add":"2021-11-10 20:51:01","orig_title":"Violet","year":"2021-03-18","translations":["Любительский (многоголосый закадровый) (AlphaProject)"],"quality":"webdl","translation":"Любительский (многоголосый закадровый) (AlphaProject)","update":"2021-11-11 07:21:06","iframe_src":"//24213.svetacdn.in/si4jsFRrtgrT/movie/54436"},{"id":54435,"title":"Мистер день рождения","kp_id":"4421619","imdb_id":"tt14036870","world_art_id":null,"type":"movie","add":"2021-11-10 20:49:40","orig_title":"Mr. Birthday","year":"2021-12-03","translations":["Любительский (многоголосый закадровый) (Синема УС)"],"quality":"webdl","translation":"Любительский (многоголосый закадровый) (Синема УС)","update":"2021-11-11 07:21:27","iframe_src":"//24213.svetacdn.in/si4jsFRrtgrT/movie/54435"},{"id":54429,"title":"Барабанщик","kp_id":"1186307","imdb_id":"tt8906326","world_art_id":null,"type":"movie","add":"2021-11-10 13:35:13","orig_title":"The Drummer","year":"2020-01-01","translations":["Любительский (многоголосый закадровый) (Синема УС)"],"quality":"webdl","translation":"Любительский (многоголосый закадровый) (Синема УС)","update":"2021-11-10 22:10:17","iframe_src":"//24213.svetacdn.in/si4jsFRrtgrT/movie/54429"},{"id":54428,"title":"Эта игра называется «убийство»","kp_id":"1355749","imdb_id":"tt11311754","world_art_id":null,"type":"movie","add":"2021-11-10 13:33:10","orig_title":"This Game's Called Murder","year":"2021-12-03","translations":["Любительский (многоголосый закадровый) (@MUZOBOZ@)"],"quality":"webdl","translation":"Любительский (многоголосый закадровый) (@MUZOBOZ@)","update":"2021-11-10 22:09:41","iframe_src":"//24213.svetacdn.in/si4jsFRrtgrT/movie/54428"},{"id":54427,"title":"Портал на краю Вселенной","kp_id":"1085044","imdb_id":"tt7345950","world_art_id":null,"type":"movie","add":"2021-11-10 11:18:28","orig_title":"The Trap Door at the Edge of the Universe","year":"2020-06-06","translations":["Любительский (многоголосый закадровый) (Синема УС)"],"quality":"webdl","translation":"Любительский (многоголосый закадровый) (Синема УС)","update":"2021-11-10 22:07:17","iframe_src":"//24213.svetacdn.in/si4jsFRrtgrT/movie/54427"},{"id":54426,"title":"Улов","kp_id":"1120652","imdb_id":"tt8191850","world_art_id":null,"type":"movie","add":"2021-11-10 11:16:48","orig_title":"The Catch","year":"2020-10-22","translations":["Любительский (многоголосый закадровый) (AlphaProject)"],"quality":"webdl","translation":"Любительский (многоголосый закадровый) (AlphaProject)","update":"2021-11-10 22:05:39","iframe_src":"//24213.svetacdn.in/si4jsFRrtgrT/movie/54426"},{"id":54425,"title":"Паук на чердаке","kp_id":"4308870","imdb_id":"tt13712126","world_art_id":null,"type":"movie","add":"2021-11-10 11:15:08","orig_title":"Spider from the Attic","year":"2021-01-01","translations":["Любительский (многоголосый закадровый) (AlphaProject)"],"quality":"webdl","translation":"Любительский (многоголосый закадровый) (AlphaProject)","update":"2021-11-10 22:02:16","iframe_src":"//24213.svetacdn.in/si4jsFRrtgrT/movie/54425"},{"id":54424,"title":"Мелкие закуски","kp_id":null,"imdb_id":"tt11822492","world_art_id":null,"type":"movie","add":"2021-11-10 11:12:18","orig_title":"Small Chops","year":"2020-01-01","translations":["Любительский (многоголосый закадровый) (Синема УС)"],"quality":"webdl","translation":"Любительский (многоголосый закадровый) (Синема УС)","update":"2021-11-10 22:03:41","iframe_src":"//24213.svetacdn.in/si4jsFRrtgrT/movie/54424"},{"id":54423,"title":"Медленная жизнь","kp_id":null,"imdb_id":"tt14065770","world_art_id":null,"type":"movie","add":"2021-11-10 11:10:52","orig_title":"Slow life","year":"2021-01-01","translations":["Любительский (многоголосый закадровый) (Синема УС)"],"quality":"webdl","translation":"Любительский (многоголосый закадровый) (Синема УС)","update":"2021-11-10 22:00:51","iframe_src":"//24213.svetacdn.in/si4jsFRrtgrT/movie/54423"},{"id":54422,"title":"Мужество","kp_id":"1315302","imdb_id":"tt11090306","world_art_id":null,"type":"movie","add":"2021-11-10 10:56:41","orig_title":"La Fortaleza","year":"2020-01-23","translations":["Любительский (многоголосый закадровый) (Синема УС)"],"quality":"webdl","translation":"Любительский (многоголосый закадровый) (Синема УС)","update":"2021-11-10 21:59:20","iframe_src":"//24213.svetacdn.in/si4jsFRrtgrT/movie/54422"},{"id":54421,"title":"Шантаж","kp_id":"1354232","imdb_id":"tt11859510","world_art_id":null,"type":"movie","add":"2021-11-10 10:54:48","orig_title":"Chantage","year":"2021-01-01","translations":["Любительский (многоголосый закадровый) (Синема УС)"],"quality":"webdl","translation":"Любительский (многоголосый закадровый) (Синема УС)","update":"2021-11-10 21:58:24","iframe_src":"//24213.svetacdn.in/si4jsFRrtgrT/movie/54421"},{"id":54420,"title":"Дед Мороз вернулся","kp_id":"1407702","imdb_id":"tt13103340","world_art_id":null,"type":"movie","add":"2021-11-10 07:50:54","orig_title":"Father Christmas Is Back","year":"2021-11-07","translations":["Любительский (многоголосый закадровый) (Синема УС)"],"quality":"webdl","translation":"Любительский (многоголосый закадровый) (Синема УС)","update":"2021-11-10 22:12:18","iframe_src":"//24213.svetacdn.in/si4jsFRrtgrT/movie/54420"},{"id":54418,"title":"Кастет","kp_id":"1232878","imdb_id":"tt9592522","world_art_id":null,"type":"movie","add":"2021-11-10 07:47:09","orig_title":"Knucks","year":"2021-10-01","translations":["Любительский (многоголосый закадровый) (Синема УС)"],"quality":"webdl","translation":"Любительский (многоголосый закадровый) (Синема УС)","update":"2021-11-10 22:11:46","iframe_src":"//24213.svetacdn.in/si4jsFRrtgrT/movie/54418"},{"id":54417,"title":"Любитель Тако","kp_id":"874098","imdb_id":"tt3722382","world_art_id":null,"type":"movie","add":"2021-11-10 07:33:12","orig_title":"Taco Boy","year":"2019-10-18","translations":["Любительский (многоголосый закадровый) (Синема УС)"],"quality":"webdl","translation":"Любительский (многоголосый закадровый) (Синема УС)","update":"2021-11-10 22:09:31","iframe_src":"//24213.svetacdn.in/si4jsFRrtgrT/movie/54417"},{"id":54416,"title":"Нед Келли","kp_id":"22933","imdb_id":"tt0066130","world_art_id":null,"type":"movie","add":"2021-11-10 06:45:20","orig_title":"Ned Kelly","year":"1970-06-10","translations":["Профессиональный (многоголосый закадровый) (5-й канал СПб)","Профессиональный (двухголосый закадровый) (НТВ)","[EN] Original (English)"],"quality":"bd","translation":"Профессиональный (многоголосый закадровый) (5-й канал СПб)","update":"2021-11-10 15:14:46","iframe_src":"//24213.svetacdn.in/si4jsFRrtgrT/movie/54416"},{"id":5835,"title":"Труффальдино из Бергамо","kp_id":"77339","imdb_id":"tt0281303","world_art_id":null,"type":"serial","add":"2019-11-25 13:33:22","orig_title":"Truffaldino iz Bergamo","year":"1977-08-27","translations":["Оригинальная дорожка"],"seasons_count":1,"episodes_count":2,"episodes":2,"update":"2019-11-25 21:10:51","iframe_src":"//24213.svetacdn.in/si4jsFRrtgrT/tv-series/5835"},{"id":5833,"title":"Бешеные деньги","kp_id":"573968","imdb_id":"tt6280410","world_art_id":null,"type":"serial","add":"2019-11-25 13:24:37","orig_title":"Beshenyye dengi","year":"1978-07-03","translations":["Оригинальная дорожка"],"seasons_count":1,"episodes_count":2,"episodes":2,"update":"2019-11-25 21:09:27","iframe_src":"//24213.svetacdn.in/si4jsFRrtgrT/tv-series/5833"},{"id":5832,"title":"Рожденная революцией","kp_id":"94219","imdb_id":"tt0290118","world_art_id":null,"type":"serial","add":"2019-11-25 13:20:23","orig_title":"Rozhdyonnaya revolyutsiey","year":"1974-11-10","translations":["Оригинальная дорожка"],"seasons_count":1,"episodes_count":10,"episodes":10,"update":"2019-11-25 21:08:24","iframe_src":"//24213.svetacdn.in/si4jsFRrtgrT/tv-series/5832"},{"id":5831,"title":"Красная палатка","kp_id":"13521","imdb_id":"tt0067315","world_art_id":null,"type":"serial","add":"2019-11-25 13:18:12","orig_title":"Krasnaya palatka","year":"1969-12-23","translations":["Оригинальная дорожка"],"seasons_count":1,"episodes_count":2,"episodes":2,"update":"2019-11-25 20:51:57","iframe_src":"//24213.svetacdn.in/si4jsFRrtgrT/tv-series/5831"},{"id":5830,"title":"Вокруг света за 80 дней","kp_id":"276205","imdb_id":"tt0364783","world_art_id":null,"type":"serial","add":"2019-11-25 13:13:20","orig_title":"Around the World in Eighty Days","year":"1972-09-09","translations":["Полное дублирование"],"seasons_count":1,"episodes_count":16,"episodes":16,"update":"2019-11-25 21:03:12","iframe_src":"//24213.svetacdn.in/si4jsFRrtgrT/tv-series/5830"},{"id":5823,"title":"Держись за облака","kp_id":"1103843","imdb_id":null,"world_art_id":null,"type":"serial","add":"2019-11-25 06:44:18","orig_title":"Держись за облака","year":"2018-01-01","translations":["Оригинальная дорожка"],"seasons_count":1,"episodes_count":4,"episodes":4,"update":"2019-11-25 20:51:21","iframe_src":"//24213.svetacdn.in/si4jsFRrtgrT/tv-series/5823"},{"id":5821,"title":"Мистер Селфридж","kp_id":"703259","imdb_id":"tt2310212","world_art_id":null,"type":"serial","add":"2019-11-24 20:40:51","orig_title":"Mr Selfridge","year":"2013-01-06","translations":["Профессиональный (многоголосый закадровый) (ViruseProject)","Профессиональный (многоголосый закадровый) (BaibaKo)"],"seasons_count":4,"episodes_count":40,"episodes":10,"update":"2019-11-25 09:46:58","iframe_src":"//24213.svetacdn.in/si4jsFRrtgrT/tv-series/5821"},{"id":5820,"title":"Кашемировая мафия","kp_id":"308133","imdb_id":"tt0938567","world_art_id":null,"type":"serial","add":"2019-11-24 15:53:15","orig_title":"Cashmere Mafia","year":"2008-01-06","translations":["Полное дублирование"],"seasons_count":1,"episodes_count":7,"episodes":7,"update":"2019-11-25 12:53:19","iframe_src":"//24213.svetacdn.in/si4jsFRrtgrT/tv-series/5820"},{"id":5819,"title":"Виксен","kp_id":"888129","imdb_id":"tt4406248","world_art_id":null,"type":"serial","add":"2019-11-24 15:47:32","orig_title":"Vixen","year":"2015-08-25","translations":["Профессиональный (многоголосый закадровый) (LostFilm)"],"seasons_count":2,"episodes_count":12,"episodes":6,"update":"2019-11-25 12:38:55","iframe_src":"//24213.svetacdn.in/si4jsFRrtgrT/tv-series/5819"},{"id":5816,"title":"Начнём всё сначала","kp_id":"1320467","imdb_id":null,"world_art_id":null,"type":"serial","add":"2019-11-23 15:17:40","orig_title":"Начнём всё сначала","year":"2019-11-23","translations":["Оригинальная дорожка"],"seasons_count":1,"episodes_count":2,"episodes":2,"update":"2019-11-25 18:20:23","iframe_src":"//24213.svetacdn.in/si4jsFRrtgrT/tv-series/5816"},{"id":5815,"title":"Кукольный дом","kp_id":"412341","imdb_id":"tt1135300","world_art_id":null,"type":"serial","add":"2019-11-23 15:10:37","orig_title":"Dollhouse","year":"2009-02-13","translations":["Профессиональный (многоголосый закадровый) (ТВ3)"],"seasons_count":2,"episodes_count":26,"episodes":13,"update":"2019-11-24 09:20:12","iframe_src":"//24213.svetacdn.in/si4jsFRrtgrT/tv-series/5815"},{"id":5811,"title":"Правда","kp_id":"1291167","imdb_id":null,"world_art_id":null,"type":"serial","add":"2019-11-23 09:09:48","orig_title":"Правда","year":"2019-11-23","translations":["Оригинальная дорожка"],"seasons_count":1,"episodes_count":2,"episodes":2,"update":"2019-11-24 08:07:07","iframe_src":"//24213.svetacdn.in/si4jsFRrtgrT/tv-series/5811"},{"id":5806,"title":"Любовь в 3 часа дня","kp_id":"1240298","imdb_id":"tt10350646","world_art_id":null,"type":"serial","add":"2019-11-22 12:59:10","orig_title":"Pyeongil ohu sesiui yeonin","year":"2019-07-05","translations":["Любительский (двухголосый закадровый) (STEPonee)"],"seasons_count":1,"episodes_count":8,"episodes":8,"update":"2019-11-25 08:56:22","iframe_src":"//24213.svetacdn.in/si4jsFRrtgrT/tv-series/5806"},{"id":5803,"title":"Последствия","kp_id":"574266","imdb_id":"tt1652216","world_art_id":null,"type":"serial","add":"2019-11-22 11:50:24","orig_title":"DCI Banks","year":"2010-09-27","translations":["Любительский (одноголосый закадровый)","Любительский (одноголосый закадровый) (Project Web Mania)"],"seasons_count":6,"episodes_count":32,"episodes":6,"update":"2019-11-23 21:18:39","iframe_src":"//24213.svetacdn.in/si4jsFRrtgrT/tv-series/5803"},{"id":5791,"title":"Стокгольмский реквием","kp_id":"1123475","imdb_id":"tt8149662","world_art_id":null,"type":"serial","add":"2019-11-21 11:56:16","orig_title":"Sthlm Rekviem","year":"2018-10-03","translations":["Профессиональный (двухголосый закадровый) (ViruseProject)","Профессиональный (многоголосый закадровый) (ViruseProject)"],"seasons_count":1,"episodes_count":10,"episodes":10,"update":"2019-11-25 06:48:50","iframe_src":"//24213.svetacdn.in/si4jsFRrtgrT/tv-series/5791"},{"id":5642,"title":"Рюриковичи. История первой династии","kp_id":"1236245","imdb_id":"tt10588524","world_art_id":null,"type":"serial","add":"2019-11-05 13:56:50","orig_title":"Ryurikovichi. Istoriya pervoy dinastii","year":"2019-11-04","translations":["Оригинальная дорожка"],"seasons_count":1,"episodes_count":8,"episodes":8,"update":"2019-11-25 05:51:07","iframe_src":"//24213.svetacdn.in/si4jsFRrtgrT/tv-series/5642"},{"id":5457,"title":"Бабочки и птицы","kp_id":"1280638","imdb_id":null,"world_art_id":null,"type":"serial","add":"2019-10-14 05:30:46","orig_title":"Бабочки и птицы","year":"2019-01-01","translations":["Оригинальная дорожка"],"seasons_count":1,"episodes_count":4,"episodes":4,"update":"2019-11-24 18:55:08","iframe_src":"//24213.svetacdn.in/si4jsFRrtgrT/tv-series/5457"},{"id":4445,"title":"Отель Толедо","kp_id":"1185932","imdb_id":null,"world_art_id":null,"type":"serial","add":"2019-05-03 17:20:31","orig_title":"Отель Толедо","year":"2019-05-03","translations":["Оригинальная дорожка"],"seasons_count":1,"episodes_count":4,"episodes":4,"update":"2019-11-25 21:27:14","iframe_src":"//24213.svetacdn.in/si4jsFRrtgrT/tv-series/4445"},{"id":3900,"title":"Оборванная мелодия","kp_id":"1177792","imdb_id":null,"world_art_id":null,"type":"serial","add":"2019-01-16 17:16:25","orig_title":"Оборванная мелодия","year":"2018-10-21","translations":["Оригинальная дорожка"],"seasons_count":1,"episodes_count":4,"episodes":4,"update":"2019-11-24 18:52:03","iframe_src":"//24213.svetacdn.in/si4jsFRrtgrT/tv-series/3900"},{"id":18808,"title":"Ведьма","kp_id":"1043924","imdb_id":"tt8574252","world_art_id":null,"type":"movie","add":"2018-09-05 23:43:08","orig_title":"Manyeo","year":"2018-06-27","translations":["Любительский (многоголосый закадровый) (Колобок)","Любительский (двухголосый закадровый) (LakeFilms)","Любительский (многоголосый закадровый) (AniPLague)","Профессиональный (многоголосый закадровый) (HDrezka Studio)","Любительский (многоголосый закадровый) (Bonsai Studio)","Авторский (одноголосый закадровый) (Сербин Юрий)","Любительский (одноголосый закадровый) (Ворон)"],"quality":"webdl","translation":"Любительский (многоголосый закадровый) (Колобок)","update":"2021-11-10 15:13:53","iframe_src":"//24213.svetacdn.in/si4jsFRrtgrT/movie/18808"},{"id":2876,"title":"Почва","kp_id":"1112725","imdb_id":"tt7766104","world_art_id":null,"type":"serial","add":"2018-06-29 09:51:06","orig_title":"Heimebane","year":"2018-03-04","translations":["Любительский (двухголосый закадровый) (GoldTeam)","Любительский (многоголосый закадровый) (GreenРай Studio)","Профессиональный (многоголосый закадровый) (BaibaKo)","Любительский (многоголосый закадровый) (WestFilm)"],"seasons_count":2,"episodes_count":18,"episodes":8,"update":"2019-11-24 11:14:47","iframe_src":"//24213.svetacdn.in/si4jsFRrtgrT/tv-series/2876"},{"id":3281,"title":"2001 год: Космическая одиссея","kp_id":"380","imdb_id":"tt0062622","world_art_id":null,"type":"movie","add":"2016-06-20 08:43:15","orig_title":"2001: A Space Odyssey","year":"1968-04-02","translations":["Профессиональный (многоголосый закадровый)","Авторский (одноголосый закадровый) (Гаврилов Андрей)","Полное дублирование (Варус-Видео)","[EN] Original (English)","Профессиональный (двухголосый закадровый) (НТВ)","Профессиональный (многоголосый закадровый) (Киномания)"],"quality":"bd","translation":"Профессиональный (многоголосый закадровый)","update":"2021-11-10 12:54:56","iframe_src":"//24213.svetacdn.in/si4jsFRrtgrT/movie/3281"},{"id":31,"title":"Легенда","kp_id":"839954","imdb_id":"tt3569230","world_art_id":null,"type":"movie","add":"2016-02-06 22:32:09","orig_title":"Legend","year":"2015-09-03","translations":["Полное дублирование","Авторский (одноголосый закадровый) (Сербин Юрий)","Полное дублирование","[EN] Original (English)","Авторский (одноголосый закадровый) (Яроцкий Михаил | Kyberpunk)"],"quality":"bd","translation":"Полное дублирование","update":"2021-11-10 13:35:01","iframe_src":"//24213.svetacdn.in/si4jsFRrtgrT/movie/31"}],"current_page":429,"first_page_url":"https://videocdn.tv/api/short?limit=100&api_token=X6EwAUfE5M9xbo7y0Bp0aPf3uXxG2KLL&cache3429=3429&page=1","from":42801,"last_page":727,"last_page_url":"https://videocdn.tv/api/short?limit=100&api_token=X6EwAUfE5M9xbo7y0Bp0aPf3uXxG2KLL&cache3429=3429&page=727","next_page_url":"https://videocdn.tv/api/short?limit=100&api_token=X6EwAUfE5M9xbo7y0Bp0aPf3uXxG2KLL&cache3429=3429&page=430","path":"https://videocdn.tv/api/short","per_page":100,"prev_page_url":"https://videocdn.tv/api/short?limit=100&api_token=X6EwAUfE5M9xbo7y0Bp0aPf3uXxG2KLL&cache3429=3429&page=428","to":42840,"total":72634}