{"result":true,"data":[{"id":9601,"title":"Король воздуха: Золотая лига","kp_id":"23282","imdb_id":"tt0140796","world_art_id":null,"type":"movie","add":"2017-02-10 06:19:05","orig_title":"Air Bud: Golden Receiver","year":"1998-08-14","translations":["Профессиональный (многоголосый закадровый)"],"quality":"dvdrip","translation":"Профессиональный (многоголосый закадровый)","update":"2017-02-10 10:37:44","iframe_src":"//8543.svetacdn.in/si4jsFRrtgrT/movie/9601"},{"id":9600,"title":"Король воздуха: Лига чемпионов","kp_id":"94644","imdb_id":"tt0161220","world_art_id":null,"type":"movie","add":"2017-02-10 06:15:26","orig_title":"Air Bud: World Pup","year":"2000-12-12","translations":["Профессиональный (многоголосый закадровый)"],"quality":"dvdrip","translation":"Профессиональный (многоголосый закадровый)","update":"2017-02-10 07:53:00","iframe_src":"//8543.svetacdn.in/si4jsFRrtgrT/movie/9600"},{"id":9599,"title":"Король воздуха: Седьмая подача","kp_id":"95184","imdb_id":"tt0288415","world_art_id":null,"type":"movie","add":"2017-02-10 06:13:56","orig_title":"Air Bud: Seventh Inning Fetch","year":"2002-02-21","translations":["Профессиональный (многоголосый закадровый)"],"quality":"dvdrip","translation":"Профессиональный (многоголосый закадровый)","update":"2017-02-10 10:35:30","iframe_src":"//8543.svetacdn.in/si4jsFRrtgrT/movie/9599"},{"id":9598,"title":"Король воздуха: Возвращение","kp_id":"95280","imdb_id":"tt0337812","world_art_id":null,"type":"movie","add":"2017-02-10 06:10:34","orig_title":"Air Bud: Spikes Back","year":"2003-07-01","translations":["Профессиональный (многоголосый закадровый)"],"quality":"dvdrip","translation":"Профессиональный (многоголосый закадровый)","update":"2017-02-10 10:33:19","iframe_src":"//8543.svetacdn.in/si4jsFRrtgrT/movie/9598"},{"id":9597,"title":"История Хатико","kp_id":"38145","imdb_id":"tt0093132","world_art_id":null,"type":"movie","add":"2017-02-10 06:08:50","orig_title":"Hachikô monogatari","year":"1987-08-01","translations":["Любительский (двухголосый закадровый)"],"quality":"bd","translation":"Любительский (двухголосый закадровый)","update":"2017-02-10 10:45:48","iframe_src":"//8543.svetacdn.in/si4jsFRrtgrT/movie/9597"},{"id":9596,"title":"Гол II: Жизнь как мечта","kp_id":"178546","imdb_id":"tt0473360","world_art_id":null,"type":"movie","add":"2017-02-10 06:07:13","orig_title":"Goal II: Living the Dream","year":"2007-02-09","translations":["Полное дублирование"],"quality":"dvdrip","translation":"Полное дублирование","update":"2017-02-10 07:54:39","iframe_src":"//8543.svetacdn.in/si4jsFRrtgrT/movie/9596"},{"id":9595,"title":"Гол 3","kp_id":"251614","imdb_id":"tt0499487","world_art_id":null,"type":"movie","add":"2017-02-10 06:05:31","orig_title":"Goal! III","year":"2009-06-15","translations":["Любительский (одноголосый закадровый)"],"quality":"bd","translation":"Любительский (одноголосый закадровый)","update":"2017-02-10 10:47:47","iframe_src":"//8543.svetacdn.in/si4jsFRrtgrT/movie/9595"},{"id":9594,"title":"Близкий враг","kp_id":"425041","imdb_id":"tt1340801","world_art_id":null,"type":"movie","add":"2017-02-10 06:04:35","orig_title":"Blizkiy vrag","year":"2010-10-21","translations":["Оригинальная дорожка"],"quality":"bd","translation":"Оригинальная дорожка","update":"2017-02-10 10:42:52","iframe_src":"//8543.svetacdn.in/si4jsFRrtgrT/movie/9594"},{"id":9593,"title":"Ярослав. Тысячу лет назад","kp_id":"481434","imdb_id":"tt1647692","world_art_id":null,"type":"movie","add":"2017-02-10 06:03:48","orig_title":"Yaroslav. Tysyachu let nazad","year":"2010-10-14","translations":["Оригинальная дорожка"],"quality":"bd","translation":"Оригинальная дорожка","update":"2017-02-10 10:41:06","iframe_src":"//8543.svetacdn.in/si4jsFRrtgrT/movie/9593"},{"id":9584,"title":"10 000 км: Любовь на расстоянии","kp_id":"791290","imdb_id":"tt3114132","world_art_id":null,"type":"movie","add":"2017-02-09 12:53:13","orig_title":"10.000 Km","year":"2014-03-10","translations":["Профессиональный (многоголосый закадровый)"],"quality":"webdl","translation":"Профессиональный (многоголосый закадровый)","update":"2017-02-10 11:37:27","iframe_src":"//8543.svetacdn.in/si4jsFRrtgrT/movie/9584"},{"id":9583,"title":"Зимние розы","kp_id":"819361","imdb_id":"tt3432260","world_art_id":null,"type":"movie","add":"2017-02-09 12:51:52","orig_title":"Des Roses en Hiver","year":"2014-09-12","translations":["Профессиональный (многоголосый закадровый)"],"quality":"hdtv","translation":"Профессиональный (многоголосый закадровый)","update":"2017-02-10 11:39:08","iframe_src":"//8543.svetacdn.in/si4jsFRrtgrT/movie/9583"},{"id":9582,"title":"Красная армия","kp_id":"839768","imdb_id":"tt3264102","world_art_id":null,"type":"movie","add":"2017-02-09 12:50:52","orig_title":"Red Army","year":"2014-05-16","translations":["Профессиональный (многоголосый закадровый)"],"quality":"bd","translation":"Профессиональный (многоголосый закадровый)","update":"2017-02-10 11:42:14","iframe_src":"//8543.svetacdn.in/si4jsFRrtgrT/movie/9582"},{"id":9581,"title":"Раненый змей","kp_id":"723905","imdb_id":"tt2574576","world_art_id":null,"type":"movie","add":"2017-02-09 12:48:44","orig_title":"Cut Snake","year":"2014-08-09","translations":["Профессиональный (многоголосый закадровый) (Paradox & Omskbird records)"],"quality":"bd","translation":"Профессиональный (многоголосый закадровый) (Paradox & Omskbird records)","update":"2017-02-10 11:43:06","iframe_src":"//8543.svetacdn.in/si4jsFRrtgrT/movie/9581"},{"id":9580,"title":"Живи","kp_id":"986423","imdb_id":null,"world_art_id":null,"type":"movie","add":"2017-02-09 12:47:34","orig_title":"Живи","year":"2015-01-01","translations":["Оригинальная дорожка"],"quality":"webdl","translation":"Оригинальная дорожка","update":"2017-02-10 11:45:54","iframe_src":"//8543.svetacdn.in/si4jsFRrtgrT/movie/9580"},{"id":9579,"title":"Вкус Америки","kp_id":"841310","imdb_id":"tt5062498","world_art_id":null,"type":"movie","add":"2017-02-09 12:44:48","orig_title":"Vkus Ameriki","year":"2014-08-12","translations":["Оригинальная дорожка"],"quality":"webdl","translation":"Оригинальная дорожка","update":"2017-02-10 11:53:34","iframe_src":"//8543.svetacdn.in/si4jsFRrtgrT/movie/9579"},{"id":9578,"title":"Москва - Лопушки","kp_id":"783248","imdb_id":"tt3547948","world_art_id":null,"type":"movie","add":"2017-02-09 12:43:37","orig_title":"Moskva - Lopushki","year":"2014-10-05","translations":["Оригинальная дорожка"],"quality":"webdl","translation":"Оригинальная дорожка","update":"2017-02-10 11:57:17","iframe_src":"//8543.svetacdn.in/si4jsFRrtgrT/movie/9578"},{"id":9577,"title":"Кавказская пленница!","kp_id":"689077","imdb_id":"tt4537362","world_art_id":null,"type":"movie","add":"2017-02-09 12:42:07","orig_title":"Kavkazskaya plennitsa!","year":"2014-09-05","translations":["Оригинальная дорожка"],"quality":"webdl","translation":"Оригинальная дорожка","update":"2017-02-10 11:59:36","iframe_src":"//8543.svetacdn.in/si4jsFRrtgrT/movie/9577"},{"id":9576,"title":"Капсула","kp_id":"846887","imdb_id":null,"world_art_id":null,"type":"movie","add":"2017-02-09 12:40:51","orig_title":"Капсула","year":"2014-01-01","translations":["Оригинальная дорожка"],"quality":"webdl","translation":"Оригинальная дорожка","update":"2017-02-10 12:01:21","iframe_src":"//8543.svetacdn.in/si4jsFRrtgrT/movie/9576"},{"id":9548,"title":"Кровь и песок","kp_id":"29717","imdb_id":"tt0098251","world_art_id":null,"type":"movie","add":"2017-02-09 10:46:46","orig_title":"Sangre y arena","year":"1989-09-22","translations":["Профессиональный (многоголосый закадровый)"],"quality":"dvdrip","translation":"Профессиональный (многоголосый закадровый)","update":"2017-02-10 07:33:47","iframe_src":"//8543.svetacdn.in/si4jsFRrtgrT/movie/9548"},{"id":9547,"title":"Джокер","kp_id":"44389","imdb_id":"tt0182058","world_art_id":null,"type":"movie","add":"2017-02-09 10:36:02","orig_title":"Dzhoker","year":"1991-01-01","translations":["Оригинальная дорожка"],"quality":"dvdrip","translation":"Оригинальная дорожка","update":"2017-02-10 07:32:11","iframe_src":"//8543.svetacdn.in/si4jsFRrtgrT/movie/9547"}],"current_page":2088,"first_page_url":"https://videocdn.tv/api/short?limit=100&api_token=X6EwAUfE5M9xbo7y0Bp0aPf3uXxG2KLL&cache32088=32088&page=1","from":208701,"last_page":606,"last_page_url":"https://videocdn.tv/api/short?limit=100&api_token=X6EwAUfE5M9xbo7y0Bp0aPf3uXxG2KLL&cache32088=32088&page=606","next_page_url":null,"path":"https://videocdn.tv/api/short","per_page":100,"prev_page_url":"https://videocdn.tv/api/short?limit=100&api_token=X6EwAUfE5M9xbo7y0Bp0aPf3uXxG2KLL&cache32088=32088&page=2087","to":208720,"total":60594}