{"result":true,"data":[{"id":22061,"title":"Сторивилль: дети на продажу","kp_id":null,"imdb_id":"tt9134204","world_art_id":null,"type":"movie","add":"2019-02-04 23:04:50","orig_title":"Selling Children","year":"2018-10-15","translations":["Любительский (многоголосый закадровый) (Синема УС)"],"quality":"hdtv","translation":"Любительский (многоголосый закадровый) (Синема УС)","update":"2019-02-05 07:12:53","iframe_src":"//83.svetacdn.in/PfJ50H0ZBPg3/movie/22061"},{"id":22060,"title":"Лес Дебюсси","kp_id":"1008201","imdb_id":"tt6128878","world_art_id":null,"type":"movie","add":"2019-02-04 22:59:55","orig_title":"Forêt Debussy","year":"2016-10-21","translations":["Любительский (многоголосый закадровый) (Колобок)"],"quality":"hdtv","translation":"Любительский (многоголосый закадровый) (Колобок)","update":"2019-02-05 06:56:17","iframe_src":"//83.svetacdn.in/PfJ50H0ZBPg3/movie/22060"},{"id":22059,"title":"Убийственный соблазн","kp_id":"1140644","imdb_id":"tt8351452","world_art_id":null,"type":"movie","add":"2019-02-04 22:49:51","orig_title":"Cradle Robber","year":"2018-10-01","translations":["Любительский (многоголосый закадровый) (Синема УС)"],"quality":"hdtv","translation":"Любительский (многоголосый закадровый) (Синема УС)","update":"2019-02-05 07:20:08","iframe_src":"//83.svetacdn.in/PfJ50H0ZBPg3/movie/22059"},{"id":22058,"title":"Защитники собак","kp_id":"1165805","imdb_id":"tt8561672","world_art_id":null,"type":"movie","add":"2019-02-04 22:47:00","orig_title":"Paws-Men","year":"2018-10-10","translations":["Любительский (многоголосый закадровый) (Колобок)"],"quality":"bd","translation":"Любительский (многоголосый закадровый) (Колобок)","update":"2019-02-05 06:59:43","iframe_src":"//83.svetacdn.in/PfJ50H0ZBPg3/movie/22058"},{"id":22054,"title":"Свидетель","kp_id":"1111740","imdb_id":"tt8865562","world_art_id":null,"type":"movie","add":"2019-02-04 22:24:40","orig_title":"Mokgyeokja","year":"2018-08-15","translations":["Любительский (многоголосый закадровый) (Колобок)"],"quality":"webdl","translation":"Любительский (многоголосый закадровый) (Колобок)","update":"2019-02-05 06:57:33","iframe_src":"//83.svetacdn.in/PfJ50H0ZBPg3/movie/22054"},{"id":22053,"title":"Тайна 101","kp_id":null,"imdb_id":"tt9679608","world_art_id":null,"type":"movie","add":"2019-02-04 22:22:07","orig_title":"Mystery 101","year":"2019-01-27","translations":["Любительский (многоголосый закадровый) (Синема УС)"],"quality":"hdtv","translation":"Любительский (многоголосый закадровый) (Синема УС)","update":"2019-02-05 07:04:23","iframe_src":"//83.svetacdn.in/PfJ50H0ZBPg3/movie/22053"},{"id":22007,"title":"Шёпот","kp_id":"90544","imdb_id":"tt0435528","world_art_id":null,"type":"movie","add":"2019-02-02 14:55:09","orig_title":"Whisper","year":"2007-05-16","translations":["Полное дублирование"],"quality":"bd","translation":"Полное дублирование","update":"2019-02-04 09:56:32","iframe_src":"//83.svetacdn.in/PfJ50H0ZBPg3/movie/22007"},{"id":22004,"title":"Нанкинский пейзаж","kp_id":"257780","imdb_id":"tt0981316","world_art_id":null,"type":"movie","add":"2019-02-02 14:44:00","orig_title":"Nankinskiy peyzazh","year":"2006-09-21","translations":["Оригинальная дорожка"],"quality":"hdtv","translation":"Оригинальная дорожка","update":"2019-02-04 09:58:44","iframe_src":"//83.svetacdn.in/PfJ50H0ZBPg3/movie/22004"},{"id":22002,"title":"Машина","kp_id":"688639","imdb_id":"tt2317225","world_art_id":null,"type":"movie","add":"2019-02-02 14:33:13","orig_title":"The Machine","year":"2013-04-20","translations":["Профессиональный (многоголосый закадровый)"],"quality":"bd","translation":"Профессиональный (многоголосый закадровый)","update":"2019-02-04 10:15:01","iframe_src":"//83.svetacdn.in/PfJ50H0ZBPg3/movie/22002"},{"id":21999,"title":"Просьба не беспокоить","kp_id":"958505","imdb_id":"tt4984738","world_art_id":null,"type":"movie","add":"2019-02-02 14:16:54","orig_title":"Do Not Disturb","year":"2016-01-27","translations":["Любительский (двухголосый закадровый) (LakeFilms)"],"quality":"tv","translation":"Любительский (двухголосый закадровый) (LakeFilms)","update":"2019-02-04 10:16:53","iframe_src":"//83.svetacdn.in/PfJ50H0ZBPg3/movie/21999"},{"id":21998,"title":"Ты безумно красива","kp_id":"887003","imdb_id":"tt4377918","world_art_id":null,"type":"movie","add":"2019-02-02 14:10:51","orig_title":"Crazy Beautiful You","year":"2015-02-25","translations":["Любительский (двухголосый закадровый) (STEPonee)"],"quality":"unknown","translation":"Любительский (двухголосый закадровый) (STEPonee)","update":"2019-02-04 10:18:59","iframe_src":"//83.svetacdn.in/PfJ50H0ZBPg3/movie/21998"},{"id":21992,"title":"Похищенные на виду","kp_id":"1161790","imdb_id":"tt3444312","world_art_id":null,"type":"movie","add":"2019-02-02 13:55:31","orig_title":"Abducted in Plain Sight","year":"2017-05-26","translations":["Любительский (многоголосый закадровый) (Синема УС)"],"quality":"webdl","translation":"Любительский (многоголосый закадровый) (Синема УС)","update":"2019-02-04 10:19:53","iframe_src":"//83.svetacdn.in/PfJ50H0ZBPg3/movie/21992"},{"id":20884,"title":"Пёс","kp_id":"928210","imdb_id":"tt4936122","world_art_id":null,"type":"movie","add":"2018-12-20 23:25:34","orig_title":"Wùlu","year":"2016-08-24","translations":["Профессиональный (многоголосый закадровый) (GreenРай Studio)","Любительский (двухголосый закадровый) (LakeFilms)"],"quality":"hdtv","translation":"Профессиональный (многоголосый закадровый) (GreenРай Studio)","update":"2019-02-04 09:59:40","iframe_src":"//83.svetacdn.in/PfJ50H0ZBPg3/movie/20884"},{"id":19530,"title":"Небесный мастер: История летающей семьи","kp_id":"167883","imdb_id":"tt0408681","world_art_id":null,"type":"movie","add":"2018-10-12 23:26:16","orig_title":"Der var engang en dreng - som fik en lillesøster med vinger","year":"2006-10-13","translations":["Авторский (одноголосый закадровый) (Визгунов Сергей)","Профессиональный (многоголосый закадровый) (GreenРай Studio)"],"quality":"dvdrip","translation":"Авторский (одноголосый закадровый) (Визгунов Сергей)","update":"2019-02-05 07:13:45","iframe_src":"//83.svetacdn.in/PfJ50H0ZBPg3/movie/19530"},{"id":13420,"title":"Голем","kp_id":"916315","imdb_id":"tt4733640","world_art_id":null,"type":"movie","add":"2017-09-11 20:59:23","orig_title":"The Limehouse Golem","year":"2016-09-10","translations":["Любительский (многоголосый закадровый) (@MUZOBOZ@)","Профессиональный (многоголосый закадровый) (AlexFilm)","Полное дублирование"],"quality":"webdl","translation":"Любительский (многоголосый закадровый) (@MUZOBOZ@)","update":"2019-02-04 09:54:02","iframe_src":"//83.svetacdn.in/PfJ50H0ZBPg3/movie/13420"},{"id":12886,"title":"Улетные девочки","kp_id":"986495","imdb_id":"tt3564472","world_art_id":null,"type":"movie","add":"2017-08-10 08:46:10","orig_title":"Girls Trip","year":"2017-07-21","translations":["Любительский (многоголосый закадровый) (Колобок)","Профессиональный (многоголосый закадровый)"],"quality":"bd","translation":"Любительский (многоголосый закадровый) (Колобок)","update":"2019-02-05 04:58:35","iframe_src":"//83.svetacdn.in/PfJ50H0ZBPg3/movie/12886"},{"id":12812,"title":"Бойся своих желаний","kp_id":"997334","imdb_id":"tt5322012","world_art_id":null,"type":"movie","add":"2017-08-07 04:33:09","orig_title":"Wish Upon","year":"2017-07-07","translations":["Любительский (многоголосый закадровый) (Колобок)","Профессиональный (многоголосый закадровый) (GreenРай Studio)","Полное дублирование"],"quality":"bd","translation":"Любительский (многоголосый закадровый) (Колобок)","update":"2019-02-04 10:14:03","iframe_src":"//83.svetacdn.in/PfJ50H0ZBPg3/movie/12812"},{"id":12792,"title":"Вооружённый ответ","kp_id":"904336","imdb_id":"tt4557208","world_art_id":null,"type":"movie","add":"2017-08-06 11:58:22","orig_title":"Armed Response","year":"2017-08-04","translations":["Любительский (многоголосый закадровый) (Синема УС)","Профессиональный (многоголосый закадровый)"],"quality":"bd","translation":"Любительский (многоголосый закадровый) (Синема УС)","update":"2019-02-05 06:54:14","iframe_src":"//83.svetacdn.in/PfJ50H0ZBPg3/movie/12792"},{"id":12601,"title":"Первое убийство","kp_id":"996343","imdb_id":"tt5884234","world_art_id":null,"type":"movie","add":"2017-07-24 13:55:16","orig_title":"First Kill","year":"2017-07-21","translations":["Любительский (одноголосый закадровый) (BadBajo)","Профессиональный (многоголосый закадровый) (GreenРай Studio)","Любительский (многоголосый закадровый) (@MUZOBOZ@)","Профессиональный (многоголосый закадровый) (Paradox & Omskbird records)","Профессиональный (многоголосый закадровый)"],"quality":"webdl","translation":"Любительский (одноголосый закадровый) (BadBajo)","update":"2019-02-05 06:53:09","iframe_src":"//83.svetacdn.in/PfJ50H0ZBPg3/movie/12601"},{"id":7146,"title":"Цена измены","kp_id":"81516","imdb_id":"tt0398017","world_art_id":null,"type":"movie","add":"2016-11-08 05:26:14","orig_title":"Derailed","year":"2005-11-11","translations":["Профессиональный (двухголосый закадровый)","Полное дублирование"],"quality":"bd","translation":"Профессиональный (двухголосый закадровый)","update":"2019-02-04 10:17:44","iframe_src":"//83.svetacdn.in/PfJ50H0ZBPg3/movie/7146"}],"current_page":1718,"first_page_url":"https://videocdn.tv/api/short?limit=100&api_token=RgFQdUIR2dRmwv8iYa5SnFNgnw3vpjKj&cache31718=31718&page=1","from":171701,"last_page":650,"last_page_url":"https://videocdn.tv/api/short?limit=100&api_token=RgFQdUIR2dRmwv8iYa5SnFNgnw3vpjKj&cache31718=31718&page=650","next_page_url":null,"path":"https://videocdn.tv/api/short","per_page":100,"prev_page_url":"https://videocdn.tv/api/short?limit=100&api_token=RgFQdUIR2dRmwv8iYa5SnFNgnw3vpjKj&cache31718=31718&page=1717","to":171720,"total":64908}