{"result":true,"data":[{"id":31155,"title":"Благодать Люсии","kp_id":"1073025","imdb_id":"tt7133528","world_art_id":null,"type":"movie","add":"2019-09-23 23:16:50","orig_title":"Troppa grazia","year":"2018-05-17","translations":["Любительский (многоголосый закадровый) (Синема УС)"],"quality":"bd","translation":"Любительский (многоголосый закадровый) (Синема УС)","update":"2019-09-24 04:47:28","iframe_src":"//5322.svetacdn.in/si4jsFRrtgrT/movie/31155"},{"id":31154,"title":"Определения","kp_id":"999337","imdb_id":"tt5993068","world_art_id":null,"type":"movie","add":"2019-09-23 22:34:52","orig_title":"The Definites","year":"2017-01-01","translations":["Любительский (многоголосый закадровый) (Синема УС)"],"quality":"webdl","translation":"Любительский (многоголосый закадровый) (Синема УС)","update":"2019-09-24 04:41:44","iframe_src":"//5322.svetacdn.in/si4jsFRrtgrT/movie/31154"},{"id":31153,"title":"Уроки хладнокровия","kp_id":"595833","imdb_id":"tt1876466","world_art_id":null,"type":"movie","add":"2019-09-23 22:33:40","orig_title":"Taught in Cold Blood","year":"2017-03-28","translations":["Любительский (многоголосый закадровый) (Синема УС)"],"quality":"webdl","translation":"Любительский (многоголосый закадровый) (Синема УС)","update":"2019-09-24 04:42:50","iframe_src":"//5322.svetacdn.in/si4jsFRrtgrT/movie/31153"},{"id":31152,"title":"Тихая паника","kp_id":null,"imdb_id":"tt7722156","world_art_id":null,"type":"movie","add":"2019-09-23 22:31:45","orig_title":"Silent Panic","year":"2018-01-01","translations":["Любительский (многоголосый закадровый) (Синема УС)"],"quality":"webdl","translation":"Любительский (многоголосый закадровый) (Синема УС)","update":"2019-09-24 04:43:49","iframe_src":"//5322.svetacdn.in/si4jsFRrtgrT/movie/31152"},{"id":31151,"title":"Между двумя водами","kp_id":"1023603","imdb_id":"tt6157294","world_art_id":null,"type":"movie","add":"2019-09-23 22:20:56","orig_title":"Entre dos aguas","year":"2018-09-27","translations":["Любительский (многоголосый закадровый) (Синема УС)"],"quality":"bd","translation":"Любительский (многоголосый закадровый) (Синема УС)","update":"2019-09-24 04:52:18","iframe_src":"//5322.svetacdn.in/si4jsFRrtgrT/movie/31151"},{"id":31150,"title":"Акты отчаяния","kp_id":null,"imdb_id":"tt3219686","world_art_id":null,"type":"movie","add":"2019-09-23 22:19:37","orig_title":"Acts of Desperation","year":"2018-12-09","translations":["Любительский (многоголосый закадровый) (Синема УС)"],"quality":"webdl","translation":"Любительский (многоголосый закадровый) (Синема УС)","update":"2019-09-24 04:52:46","iframe_src":"//5322.svetacdn.in/si4jsFRrtgrT/movie/31150"},{"id":31149,"title":"Семь","kp_id":"1204707","imdb_id":"tt9165458","world_art_id":null,"type":"movie","add":"2019-09-23 22:17:36","orig_title":"Seven","year":"2019-06-05","translations":["Любительский (многоголосый закадровый) (Синема УС)"],"quality":"webdl","translation":"Любительский (многоголосый закадровый) (Синема УС)","update":"2019-09-24 04:53:19","iframe_src":"//5322.svetacdn.in/si4jsFRrtgrT/movie/31149"},{"id":31148,"title":"Цветок-близнец","kp_id":"1096386","imdb_id":"tt4389006","world_art_id":null,"type":"movie","add":"2019-09-23 22:05:17","orig_title":"Fiore gemello","year":"2018-09-08","translations":["Любительский (многоголосый закадровый) (Синема УС)"],"quality":"dvdrip","translation":"Любительский (многоголосый закадровый) (Синема УС)","update":"2019-09-24 04:55:07","iframe_src":"//5322.svetacdn.in/si4jsFRrtgrT/movie/31148"},{"id":31147,"title":"Прекрасный литературный клуб мадам Янкеловой","kp_id":"1062962","imdb_id":"tt6965662","world_art_id":null,"type":"movie","add":"2019-09-23 22:03:58","orig_title":"HaMoadon LeSafrut Yaffa Shel Hagveret Yanlekova","year":"2017-09-06","translations":["Любительский (многоголосый закадровый) (Синема УС)"],"quality":"webdl","translation":"Любительский (многоголосый закадровый) (Синема УС)","update":"2019-09-24 04:55:56","iframe_src":"//5322.svetacdn.in/si4jsFRrtgrT/movie/31147"},{"id":31146,"title":"Мастер возвращается","kp_id":null,"imdb_id":"tt10497998","world_art_id":null,"type":"movie","add":"2019-09-23 21:45:59","orig_title":"Master Returns","year":"2018-02-09","translations":["Любительский (многоголосый закадровый) (Колобок)"],"quality":"webdl","translation":"Любительский (многоголосый закадровый) (Колобок)","update":"2019-09-24 07:20:59","iframe_src":"//5322.svetacdn.in/si4jsFRrtgrT/movie/31146"},{"id":31145,"title":"Пауза","kp_id":"1155668","imdb_id":"tt6590856","world_art_id":null,"type":"movie","add":"2019-09-23 21:43:56","orig_title":"Pause","year":"2018-07-04","translations":["Любительский (многоголосый закадровый) (Синема УС)"],"quality":"webdl","translation":"Любительский (многоголосый закадровый) (Синема УС)","update":"2019-09-24 07:21:41","iframe_src":"//5322.svetacdn.in/si4jsFRrtgrT/movie/31145"},{"id":31144,"title":"Плохая доза","kp_id":"1241499","imdb_id":"tt6499516","world_art_id":null,"type":"movie","add":"2019-09-23 21:38:54","orig_title":"Bad Dose","year":"2019-01-30","translations":["Любительский (многоголосый закадровый) (Синема УС)"],"quality":"webdl","translation":"Любительский (многоголосый закадровый) (Синема УС)","update":"2019-09-24 07:22:53","iframe_src":"//5322.svetacdn.in/si4jsFRrtgrT/movie/31144"},{"id":31143,"title":"Влечение к телу","kp_id":null,"imdb_id":"tt6092060","world_art_id":null,"type":"movie","add":"2019-09-23 21:36:56","orig_title":"Bound to the Body","year":"2017-01-01","translations":["Любительский (многоголосый закадровый) (Синема УС)"],"quality":"webdl","translation":"Любительский (многоголосый закадровый) (Синема УС)","update":"2019-09-24 07:23:22","iframe_src":"//5322.svetacdn.in/si4jsFRrtgrT/movie/31143"},{"id":31141,"title":"Радакришна","kp_id":"1041214","imdb_id":"tt6138680","world_art_id":null,"type":"movie","add":"2019-09-23 21:30:37","orig_title":"Radha","year":"2017-05-11","translations":["Любительский (многоголосый закадровый) (Синема УС)"],"quality":"webdl","translation":"Любительский (многоголосый закадровый) (Синема УС)","update":"2019-09-24 07:24:30","iframe_src":"//5322.svetacdn.in/si4jsFRrtgrT/movie/31141"},{"id":31108,"title":"Братья-Американцы","kp_id":"1165444","imdb_id":"tt6610888","world_art_id":null,"type":"movie","add":"2019-09-22 19:18:15","orig_title":"American Brothers","year":"2019-03-12","translations":["Любительский (многоголосый закадровый) (Синема УС)"],"quality":"webdl","translation":"Любительский (многоголосый закадровый) (Синема УС)","update":"2019-09-24 04:45:21","iframe_src":"//5322.svetacdn.in/si4jsFRrtgrT/movie/31108"},{"id":31095,"title":"Сказка на ночь","kp_id":"7154","imdb_id":"tt0057878","world_art_id":null,"type":"movie","add":"2019-09-22 16:42:19","orig_title":"Bedtime Story","year":"1964-06-10","translations":["Профессиональный (многоголосый закадровый) (5-й канал СПб)"],"quality":"dvdrip","translation":"Профессиональный (многоголосый закадровый) (5-й канал СПб)","update":"2019-09-24 05:54:28","iframe_src":"//5322.svetacdn.in/si4jsFRrtgrT/movie/31095"},{"id":31094,"title":"Дезире","kp_id":"84986","imdb_id":"tt0116084","world_art_id":null,"type":"movie","add":"2019-09-22 16:36:54","orig_title":"Désiré","year":"1996-04-10","translations":["Профессиональный (многоголосый закадровый)"],"quality":"dvdrip","translation":"Профессиональный (многоголосый закадровый)","update":"2019-09-24 05:55:59","iframe_src":"//5322.svetacdn.in/si4jsFRrtgrT/movie/31094"},{"id":22330,"title":"Охотники на ведьм","kp_id":"1081800","imdb_id":"tt7106246","world_art_id":null,"type":"movie","add":"2019-02-16 23:24:41","orig_title":"Zlogonje","year":"2018-03-10","translations":["Любительский (многоголосый закадровый) (Синема УС)","Авторский (одноголосый закадровый) (Данилов Владислав | Kenum)"],"quality":"webdl","translation":"Любительский (многоголосый закадровый) (Синема УС)","update":"2019-09-24 04:48:58","iframe_src":"//5322.svetacdn.in/si4jsFRrtgrT/movie/22330"},{"id":22296,"title":"Сестра","kp_id":"1209744","imdb_id":"tt9535950","world_art_id":null,"type":"movie","add":"2019-02-14 20:09:28","orig_title":"Eonni","year":"2019-01-01","translations":["Любительский (многоголосый закадровый) (Синема УС)"],"quality":"bd","translation":"Любительский (многоголосый закадровый) (Синема УС)","update":"2019-09-24 04:50:28","iframe_src":"//5322.svetacdn.in/si4jsFRrtgrT/movie/22296"},{"id":5042,"title":"Уже скучаю по тебе","kp_id":"667863","imdb_id":"tt2245003","world_art_id":null,"type":"movie","add":"2016-09-06 08:42:02","orig_title":"Miss You Already","year":"2015-09-12","translations":["Профессиональный (многоголосый закадровый)"],"quality":"bd","translation":"Профессиональный (многоголосый закадровый)","update":"2019-09-24 07:22:17","iframe_src":"//5322.svetacdn.in/si4jsFRrtgrT/movie/5042"}],"current_page":1178,"first_page_url":"https://videocdn.tv/api/short?limit=100&api_token=X6EwAUfE5M9xbo7y0Bp0aPf3uXxG2KLL&cache31178=31178&page=1","from":117701,"last_page":631,"last_page_url":"https://videocdn.tv/api/short?limit=100&api_token=X6EwAUfE5M9xbo7y0Bp0aPf3uXxG2KLL&cache31178=31178&page=631","next_page_url":null,"path":"https://videocdn.tv/api/short","per_page":100,"prev_page_url":"https://videocdn.tv/api/short?limit=100&api_token=X6EwAUfE5M9xbo7y0Bp0aPf3uXxG2KLL&cache31178=31178&page=1177","to":117720,"total":63003}