{"result":true,"data":[{"id":48573,"title":"Планета Зи","kp_id":"1351598","imdb_id":"tt11779642","world_art_id":null,"type":"movie","add":"2021-03-08 20:51:22","orig_title":"Planet Zee","year":"2021-02-16","translations":["Любительский (многоголосый закадровый) (Синема УС)"],"quality":"webdl","translation":"Любительский (многоголосый закадровый) (Синема УС)","update":"2021-03-09 07:58:25","iframe_src":"//7720.svetacdn.in/si4jsFRrtgrT/movie/48573"},{"id":48572,"title":"Площадь Побед","kp_id":"1246241","imdb_id":"tt8431314","world_art_id":null,"type":"movie","add":"2021-03-08 20:50:07","orig_title":"Place des Victoires","year":"2019-08-21","translations":["Любительский (многоголосый закадровый) (Синема УС)"],"quality":"webdl","translation":"Любительский (многоголосый закадровый) (Синема УС)","update":"2021-03-09 08:05:37","iframe_src":"//7720.svetacdn.in/si4jsFRrtgrT/movie/48572"},{"id":48571,"title":"Кровь Драго","kp_id":"1072650","imdb_id":"tt6976590","world_art_id":null,"type":"movie","add":"2021-03-08 20:48:43","orig_title":"Blood of Drago","year":"2019-12-27","translations":["Любительский (многоголосый закадровый) (Синема УС)"],"quality":"webdl","translation":"Любительский (многоголосый закадровый) (Синема УС)","update":"2021-03-09 08:06:04","iframe_src":"//7720.svetacdn.in/si4jsFRrtgrT/movie/48571"},{"id":48570,"title":"Психоз в Стокгольме","kp_id":"1330913","imdb_id":"tt11428420","world_art_id":null,"type":"movie","add":"2021-03-08 20:47:23","orig_title":"Psykos i Stockholm","year":"2020-01-24","translations":["Любительский (многоголосый закадровый) (AlphaProject)"],"quality":"webdl","translation":"Любительский (многоголосый закадровый) (AlphaProject)","update":"2021-03-09 08:06:46","iframe_src":"//7720.svetacdn.in/si4jsFRrtgrT/movie/48570"},{"id":48569,"title":"Выгода","kp_id":"1062275","imdb_id":"tt7107436","world_art_id":null,"type":"movie","add":"2021-03-08 20:44:16","orig_title":"Benefited","year":"2019-10-23","translations":["Любительский (многоголосый закадровый) (Синема УС)"],"quality":"webdl","translation":"Любительский (многоголосый закадровый) (Синема УС)","update":"2021-03-09 08:04:52","iframe_src":"//7720.svetacdn.in/si4jsFRrtgrT/movie/48569"},{"id":48568,"title":"Вот такие друзья","kp_id":null,"imdb_id":"tt8195404","world_art_id":null,"type":"movie","add":"2021-03-08 19:29:20","orig_title":"Friends Like These","year":"2019-04-06","translations":["Любительский (многоголосый закадровый) (Синема УС)"],"quality":"webdl","translation":"Любительский (многоголосый закадровый) (Синема УС)","update":"2021-03-09 08:07:19","iframe_src":"//7720.svetacdn.in/si4jsFRrtgrT/movie/48568"},{"id":48567,"title":"Пока я знаменит","kp_id":"1034836","imdb_id":"tt6255042","world_art_id":null,"type":"movie","add":"2021-03-08 19:26:52","orig_title":"As Long As I'm Famous","year":"2020-05-01","translations":["Любительский (многоголосый закадровый) (AlphaProject)"],"quality":"webdl","translation":"Любительский (многоголосый закадровый) (AlphaProject)","update":"2021-03-09 08:07:37","iframe_src":"//7720.svetacdn.in/si4jsFRrtgrT/movie/48567"},{"id":48566,"title":"Чёрная заводь","kp_id":"1275266","imdb_id":"tt10418972","world_art_id":null,"type":"movie","add":"2021-03-08 19:24:47","orig_title":"Black Pool","year":"2019-04-14","translations":["Любительский (многоголосый закадровый) (Синема УС)"],"quality":"webdl","translation":"Любительский (многоголосый закадровый) (Синема УС)","update":"2021-03-09 08:08:15","iframe_src":"//7720.svetacdn.in/si4jsFRrtgrT/movie/48566"},{"id":48563,"title":"Лонг-Айлендский серийный убийца: Охота матери за справедливостью","kp_id":"4382845","imdb_id":"tt13550462","world_art_id":null,"type":"movie","add":"2021-03-08 18:53:35","orig_title":"The Long Island Serial Killer: A Mother's Hunt for Justice","year":"2021-02-20","translations":["Любительский (многоголосый закадровый) (AlphaProject)"],"quality":"webdl","translation":"Любительский (многоголосый закадровый) (AlphaProject)","update":"2021-03-08 21:32:48","iframe_src":"//7720.svetacdn.in/si4jsFRrtgrT/movie/48563"},{"id":48555,"title":"Сладкий обман","kp_id":"92119","imdb_id":"tt0053780","world_art_id":null,"type":"movie","add":"2021-03-08 14:47:15","orig_title":"I dolci inganni","year":"1960-10-15","translations":["Любительский (одноголосый закадровый) (Пестриков Дмитрий)"],"quality":"bd","translation":"Любительский (одноголосый закадровый) (Пестриков Дмитрий)","update":"2021-03-09 06:43:42","iframe_src":"//7720.svetacdn.in/si4jsFRrtgrT/movie/48555"},{"id":48553,"title":"Молодость зверя","kp_id":"138661","imdb_id":"tt0057697","world_art_id":null,"type":"movie","add":"2021-03-08 14:20:41","orig_title":"Yajû no seishun","year":"1963-04-21","translations":["Авторский (одноголосый закадровый) (Кузнецов Сергей)"],"quality":"bd","translation":"Авторский (одноголосый закадровый) (Кузнецов Сергей)","update":"2021-03-09 06:22:01","iframe_src":"//7720.svetacdn.in/si4jsFRrtgrT/movie/48553"},{"id":48549,"title":"Ничто не остановит любовь","kp_id":"36602","imdb_id":"tt0112916","world_art_id":null,"type":"movie","add":"2021-03-08 14:08:26","orig_title":"Dushmani: A Violent Love Story","year":"1995-01-01","translations":["Профессиональный (многоголосый закадровый)"],"quality":"webdl","translation":"Профессиональный (многоголосый закадровый)","update":"2021-03-09 06:24:42","iframe_src":"//7720.svetacdn.in/si4jsFRrtgrT/movie/48549"},{"id":48543,"title":"Глухая шахта","kp_id":"63624","imdb_id":"tt0351299","world_art_id":null,"type":"movie","add":"2021-03-08 08:22:49","orig_title":"Mang jing","year":"2003-02-12","translations":["Любительский (одноголосый закадровый) (Franek Monk)"],"quality":"webdl","translation":"Любительский (одноголосый закадровый) (Franek Monk)","update":"2021-03-08 21:39:16","iframe_src":"//7720.svetacdn.in/si4jsFRrtgrT/movie/48543"},{"id":48542,"title":"Остров женщин","kp_id":"98122","imdb_id":"tt0079197","world_art_id":null,"type":"movie","add":"2021-03-08 08:17:28","orig_title":"Gefangene Frauen","year":"1980-03-28","translations":["Авторский (одноголосый закадровый) (Алексеев Антон)"],"quality":"bd","translation":"Авторский (одноголосый закадровый) (Алексеев Антон)","update":"2021-03-08 21:46:29","iframe_src":"//7720.svetacdn.in/si4jsFRrtgrT/movie/48542"},{"id":48361,"title":"Антуанетта в Севенне","kp_id":"1309481","imdb_id":"tt11013434","world_art_id":null,"type":"movie","add":"2021-03-02 19:46:33","orig_title":"Antoinette dans les Cévennes","year":"2020-01-17","translations":["Любительский (многоголосый закадровый) (AlphaProject)"],"quality":"bd","translation":"Любительский (многоголосый закадровый) (AlphaProject)","update":"2021-03-09 07:23:44","iframe_src":"//7720.svetacdn.in/si4jsFRrtgrT/movie/48361"},{"id":47625,"title":"Девушка из Могадишо","kp_id":"1101155","imdb_id":"tt7552790","world_art_id":null,"type":"movie","add":"2021-02-02 19:23:34","orig_title":"A Girl from Mogadishu","year":"2019-02-22","translations":["Любительский (многоголосый закадровый) (Синема УС)","Любительский (многоголосый закадровый) (Синема УС)"],"quality":"webdl","translation":"Любительский (многоголосый закадровый) (Синема УС)","update":"2021-03-09 07:08:05","iframe_src":"//7720.svetacdn.in/si4jsFRrtgrT/movie/47625"},{"id":6427,"title":"Волшебный голос Джельсомино","kp_id":"85214","imdb_id":"tt0403655","world_art_id":null,"type":"serial","add":"2020-01-21 06:52:46","orig_title":"Volshebnyy golos Dzhelsomino","year":"1978-12-31","translations":["Оригинальная дорожка"],"seasons_count":1,"episodes_count":2,"episodes":2,"update":"2020-01-21 19:21:55","iframe_src":"//7720.svetacdn.in/si4jsFRrtgrT/tv-series/6427"},{"id":6426,"title":"Рюрик. Потерянная быль","kp_id":"723699","imdb_id":null,"world_art_id":null,"type":"serial","add":"2020-01-21 06:47:37","orig_title":"Рюрик. Потерянная быль","year":"2012-12-12","translations":["Оригинальная дорожка"],"seasons_count":1,"episodes_count":2,"episodes":2,"update":"2020-01-21 19:19:55","iframe_src":"//7720.svetacdn.in/si4jsFRrtgrT/tv-series/6426"},{"id":6424,"title":"Женщины на грани","kp_id":"1264020","imdb_id":"tt9140392","world_art_id":null,"type":"serial","add":"2020-01-21 05:33:23","orig_title":"Clink","year":"2019-04-18","translations":["Профессиональный (многоголосый закадровый) (Zone Vision Studio)"],"seasons_count":1,"episodes_count":10,"episodes":10,"update":"2020-01-21 11:04:13","iframe_src":"//7720.svetacdn.in/si4jsFRrtgrT/tv-series/6424"},{"id":6419,"title":"Справедливость","kp_id":"1001595","imdb_id":"tt5906126","world_art_id":null,"type":"serial","add":"2020-01-20 18:49:53","orig_title":"Justiça","year":"2016-08-22","translations":["Любительский (двухголосый закадровый) (datynet & Galina Vasyukova)"],"seasons_count":1,"episodes_count":20,"episodes":20,"update":"2020-01-21 19:17:37","iframe_src":"//7720.svetacdn.in/si4jsFRrtgrT/tv-series/6419"},{"id":6407,"title":"Стервы","kp_id":"585278","imdb_id":"tt3390604","world_art_id":null,"type":"serial","add":"2020-01-20 06:22:54","orig_title":"Stervy","year":"2012-09-03","translations":["Оригинальная дорожка"],"seasons_count":1,"episodes_count":32,"episodes":32,"update":"2020-01-21 18:53:07","iframe_src":"//7720.svetacdn.in/si4jsFRrtgrT/tv-series/6407"},{"id":6401,"title":"КотоПёс","kp_id":"281893","imdb_id":"tt0154061","world_art_id":null,"type":"serial","add":"2020-01-19 11:46:04","orig_title":"CatDog","year":"1998-04-04","translations":["Полное дублирование"],"seasons_count":3,"episodes_count":59,"episodes":7,"update":"2020-01-21 09:44:18","iframe_src":"//7720.svetacdn.in/si4jsFRrtgrT/tv-series/6401"},{"id":6391,"title":"ОСА","kp_id":"806511","imdb_id":"tt4455574","world_art_id":null,"type":"serial","add":"2020-01-18 20:34:06","orig_title":"OSA","year":"2014-01-14","translations":["Оригинальная дорожка"],"seasons_count":1,"episodes_count":99,"episodes":99,"update":"2020-01-21 19:25:34","iframe_src":"//7720.svetacdn.in/si4jsFRrtgrT/tv-series/6391"},{"id":6389,"title":"Трансформеры: Боты-спасатели","kp_id":"778865","imdb_id":"tt2139371","world_art_id":null,"type":"serial","add":"2020-01-18 13:11:38","orig_title":"Transformers: Rescue Bots","year":"2011-12-17","translations":["Полное дублирование","Оригинальная дорожка"],"seasons_count":3,"episodes_count":77,"episodes":27,"update":"2020-01-21 18:06:09","iframe_src":"//7720.svetacdn.in/si4jsFRrtgrT/tv-series/6389"},{"id":6386,"title":"Кобра","kp_id":"1253001","imdb_id":"tt10062652","world_art_id":null,"type":"serial","add":"2020-01-17 16:58:58","orig_title":"Cobra","year":"2020-01-17","translations":["Любительский (многоголосый закадровый) (Octopus)","Любительский (многоголосый закадровый) (KerobTV)","Профессиональный (многоголосый закадровый) (NewStudio)"],"seasons_count":1,"episodes_count":6,"episodes":6,"update":"2020-01-21 11:39:55","iframe_src":"//7720.svetacdn.in/si4jsFRrtgrT/tv-series/6386"},{"id":6376,"title":"Лабиринт иллюзий","kp_id":"1263111","imdb_id":null,"world_art_id":null,"type":"serial","add":"2020-01-17 04:18:02","orig_title":"Лабиринт иллюзий","year":"2019-04-18","translations":["Оригинальная дорожка"],"seasons_count":1,"episodes_count":4,"episodes":4,"update":"2020-01-20 22:00:53","iframe_src":"//7720.svetacdn.in/si4jsFRrtgrT/tv-series/6376"},{"id":6373,"title":"И снова Анискин","kp_id":"178719","imdb_id":"tt0077029","world_art_id":null,"type":"serial","add":"2020-01-16 17:41:04","orig_title":"I snova Aniskin","year":"1978-06-14","translations":["Оригинальная дорожка"],"seasons_count":1,"episodes_count":3,"episodes":3,"update":"2020-01-20 21:29:41","iframe_src":"//7720.svetacdn.in/si4jsFRrtgrT/tv-series/6373"},{"id":6372,"title":"Дама под вуалью","kp_id":"820594","imdb_id":"tt3254016","world_art_id":null,"type":"serial","add":"2020-01-16 17:38:14","orig_title":"La dama velata","year":"2015-03-17","translations":["Профессиональный (многоголосый закадровый) (Игмар)"],"seasons_count":1,"episodes_count":12,"episodes":12,"update":"2020-01-20 21:53:45","iframe_src":"//7720.svetacdn.in/si4jsFRrtgrT/tv-series/6372"},{"id":6371,"title":"Естественный отбор","kp_id":"449444","imdb_id":"tt4445864","world_art_id":null,"type":"serial","add":"2020-01-16 17:36:26","orig_title":"Естественный отбор","year":"2011-06-23","translations":["Оригинальная дорожка"],"seasons_count":1,"episodes_count":8,"episodes":8,"update":"2020-01-20 21:27:16","iframe_src":"//7720.svetacdn.in/si4jsFRrtgrT/tv-series/6371"},{"id":6370,"title":"Охота на асфальте","kp_id":"89678","imdb_id":"tt0417350","world_art_id":null,"type":"serial","add":"2020-01-16 17:33:36","orig_title":"Okhota na asfalte","year":"2005-01-01","translations":["Оригинальная дорожка"],"seasons_count":1,"episodes_count":8,"episodes":8,"update":"2020-01-20 21:47:52","iframe_src":"//7720.svetacdn.in/si4jsFRrtgrT/tv-series/6370"},{"id":6368,"title":"Борьба за жизнь","kp_id":"1115373","imdb_id":"tt3773240","world_art_id":null,"type":"serial","add":"2020-01-16 17:28:17","orig_title":"Kampen for tilværelsen","year":"2014-09-10","translations":["Профессиональный (многоголосый закадровый) (Eurochannel)"],"seasons_count":1,"episodes_count":7,"episodes":7,"update":"2020-01-20 22:06:15","iframe_src":"//7720.svetacdn.in/si4jsFRrtgrT/tv-series/6368"},{"id":6366,"title":"Любовь императора","kp_id":"405698","imdb_id":"tt0381781","world_art_id":null,"type":"serial","add":"2020-01-16 16:51:32","orig_title":"Lyubov imperatora","year":"2012-07-19","translations":["Оригинальная дорожка"],"seasons_count":1,"episodes_count":7,"episodes":7,"update":"2020-01-20 21:40:48","iframe_src":"//7720.svetacdn.in/si4jsFRrtgrT/tv-series/6366"},{"id":6350,"title":"Морские дьяволы. Смерч","kp_id":"672142","imdb_id":"tt3967056","world_art_id":null,"type":"serial","add":"2020-01-15 05:44:21","orig_title":"Morskie dyavoly. Smerch","year":"2013-02-04","translations":["Оригинальная дорожка"],"seasons_count":1,"episodes_count":32,"episodes":32,"update":"2020-01-21 12:00:39","iframe_src":"//7720.svetacdn.in/si4jsFRrtgrT/tv-series/6350"},{"id":6345,"title":"Дак Доджерс","kp_id":"429006","imdb_id":"tt0376390","world_art_id":null,"type":"serial","add":"2020-01-14 15:23:58","orig_title":"Duck Dodgers","year":"2003-09-06","translations":["Полное дублирование (Пифагор)"],"seasons_count":1,"episodes_count":13,"episodes":13,"update":"2020-01-20 21:36:57","iframe_src":"//7720.svetacdn.in/si4jsFRrtgrT/tv-series/6345"},{"id":6321,"title":"Все псы попадают в рай","kp_id":"229406","imdb_id":"tt0118252","world_art_id":null,"type":"serial","add":"2020-01-12 08:19:04","orig_title":"All Dogs Go to Heaven: The Series","year":"1996-09-21","translations":["Полное дублирование (СТС)"],"seasons_count":3,"episodes_count":40,"episodes":14,"update":"2020-01-21 08:04:20","iframe_src":"//7720.svetacdn.in/si4jsFRrtgrT/tv-series/6321"},{"id":6227,"title":"Школа выживания от одинокой женщины с тремя детьми в условиях кризиса","kp_id":"921475","imdb_id":"tt6426178","world_art_id":null,"type":"serial","add":"2020-01-03 20:46:24","orig_title":"Shkola vyzhivaniya","year":"2015-01-01","translations":["Оригинальная дорожка"],"seasons_count":1,"episodes_count":150,"episodes":150,"update":"2020-01-20 22:12:06","iframe_src":"//7720.svetacdn.in/si4jsFRrtgrT/tv-series/6227"},{"id":33567,"title":"Аванпост","kp_id":"1108683","imdb_id":"tt8664988","world_art_id":null,"type":"movie","add":"2019-12-01 04:55:35","orig_title":"Avanpost","year":"2019-03-15","translations":["Оригинальная дорожка"],"quality":"bd","translation":"Оригинальная дорожка","update":"2021-03-09 07:17:03","iframe_src":"//7720.svetacdn.in/si4jsFRrtgrT/movie/33567"},{"id":28780,"title":"Порок","kp_id":"1075902","imdb_id":"tt6988116","world_art_id":null,"type":"movie","add":"2019-07-09 07:45:44","orig_title":"Kalank","year":"2019-04-17","translations":["Любительский (многоголосый закадровый) (OnisFilms)","Любительский (многоголосый закадровый) (Honey&Haseena)","Профессиональный (многоголосый закадровый) (SDI Media)"],"quality":"webdl","translation":"Любительский (многоголосый закадровый) (OnisFilms)","update":"2021-03-09 07:18:51","iframe_src":"//7720.svetacdn.in/si4jsFRrtgrT/movie/28780"},{"id":25188,"title":"Печники","kp_id":"298118","imdb_id":"tt0084483","world_art_id":null,"type":"movie","add":"2019-04-23 09:28:30","orig_title":"Pechniki","year":"1982-09-11","translations":["Оригинальная дорожка"],"quality":"webdl","translation":"Оригинальная дорожка","update":"2021-03-09 07:10:13","iframe_src":"//7720.svetacdn.in/si4jsFRrtgrT/movie/25188"},{"id":18726,"title":"Обретенное время","kp_id":"16904","imdb_id":"tt0189142","world_art_id":null,"type":"movie","add":"2018-09-02 09:24:31","orig_title":"Le Temps retrouvé","year":"1999-05-16","translations":["Профессиональный (многоголосый закадровый) (Cinema Prestige)"],"quality":"bd","translation":"Профессиональный (многоголосый закадровый) (Cinema Prestige)","update":"2021-03-09 06:21:06","iframe_src":"//7720.svetacdn.in/si4jsFRrtgrT/movie/18726"}],"current_page":305,"first_page_url":"https://videocdn.tv/api/short?limit=100&api_token=X6EwAUfE5M9xbo7y0Bp0aPf3uXxG2KLL&cache3305=3305&page=1","from":30401,"last_page":649,"last_page_url":"https://videocdn.tv/api/short?limit=100&api_token=X6EwAUfE5M9xbo7y0Bp0aPf3uXxG2KLL&cache3305=3305&page=649","next_page_url":"https://videocdn.tv/api/short?limit=100&api_token=X6EwAUfE5M9xbo7y0Bp0aPf3uXxG2KLL&cache3305=3305&page=306","path":"https://videocdn.tv/api/short","per_page":100,"prev_page_url":"https://videocdn.tv/api/short?limit=100&api_token=X6EwAUfE5M9xbo7y0Bp0aPf3uXxG2KLL&cache3305=3305&page=304","to":30440,"total":64824}