{"result":true,"data":[{"id":34456,"title":"Заново открывая Рождество","kp_id":"1300452","imdb_id":"tt10887838","world_art_id":null,"type":"movie","add":"2019-12-25 21:12:35","orig_title":"Rediscovering Christmas","year":"2019-12-15","translations":["Любительский (многоголосый закадровый) (Синема УС)"],"quality":"webdl","translation":"Любительский (многоголосый закадровый) (Синема УС)","update":"2019-12-26 06:28:24","iframe_src":"//2413.svetacdn.in/IAF0wWTdNYZm/movie/34456"},{"id":34455,"title":"Абракадабра","kp_id":"1154588","imdb_id":"tt8422146","world_art_id":null,"type":"movie","add":"2019-12-25 21:10:01","orig_title":"Abrakadabra","year":"2018-11-03","translations":["Любительский (многоголосый закадровый) (Колобок)"],"quality":"webdl","translation":"Любительский (многоголосый закадровый) (Колобок)","update":"2019-12-25 22:08:51","iframe_src":"//2413.svetacdn.in/IAF0wWTdNYZm/movie/34455"},{"id":34454,"title":"Психопатка","kp_id":"1153966","imdb_id":"tt8360266","world_art_id":null,"type":"movie","add":"2019-12-25 21:08:23","orig_title":"Psychobitch","year":"2019-01-11","translations":["Любительский (многоголосый закадровый) (Синема УС)"],"quality":"webdl","translation":"Любительский (многоголосый закадровый) (Синема УС)","update":"2019-12-26 06:28:55","iframe_src":"//2413.svetacdn.in/IAF0wWTdNYZm/movie/34454"},{"id":34453,"title":"Бродяга","kp_id":"710393","imdb_id":"tt2412568","world_art_id":null,"type":"movie","add":"2019-12-25 21:05:59","orig_title":"Ragamuffin","year":"2014-01-09","translations":["Любительский (одноголосый закадровый)"],"quality":"hdrip","translation":"Любительский (одноголосый закадровый)","update":"2019-12-25 22:09:20","iframe_src":"//2413.svetacdn.in/IAF0wWTdNYZm/movie/34453"},{"id":34452,"title":"Сбой программы","kp_id":"1076097","imdb_id":"tt6966044","world_art_id":null,"type":"movie","add":"2019-12-25 21:03:21","orig_title":"Segfault","year":"2017-09-10","translations":["Любительский (многоголосый закадровый) (Синема УС)"],"quality":"webdl","translation":"Любительский (многоголосый закадровый) (Синема УС)","update":"2019-12-26 06:29:45","iframe_src":"//2413.svetacdn.in/IAF0wWTdNYZm/movie/34452"},{"id":34449,"title":"Хьюстон, у нас проблема","kp_id":"1040742","imdb_id":"tt5518022","world_art_id":null,"type":"movie","add":"2019-12-25 11:46:12","orig_title":"Houston, We Have a Problem","year":"2016-04-28","translations":["Любительский (одноголосый закадровый)"],"quality":"hdrip","translation":"Любительский (одноголосый закадровый)","update":"2019-12-25 18:33:11","iframe_src":"//2413.svetacdn.in/IAF0wWTdNYZm/movie/34449"},{"id":34448,"title":"Санта-киллер","kp_id":"77402","imdb_id":"tt0393685","world_art_id":null,"type":"movie","add":"2019-12-25 11:38:28","orig_title":"Santa's Slay","year":"2005-10-25","translations":["Профессиональный (многоголосый закадровый)"],"quality":"dvdrip","translation":"Профессиональный (многоголосый закадровый)","update":"2019-12-25 14:59:37","iframe_src":"//2413.svetacdn.in/IAF0wWTdNYZm/movie/34448"},{"id":34447,"title":"Дверь","kp_id":"572546","imdb_id":"tt1764647","world_art_id":null,"type":"movie","add":"2019-12-25 11:36:52","orig_title":"The Door","year":"2013-03-19","translations":["Профессиональный (многоголосый закадровый)"],"quality":"bd","translation":"Профессиональный (многоголосый закадровый)","update":"2019-12-25 20:51:24","iframe_src":"//2413.svetacdn.in/IAF0wWTdNYZm/movie/34447"},{"id":34446,"title":"Записки Тинто Брасса: Джулия","kp_id":"611365","imdb_id":"tt2017027","world_art_id":null,"type":"movie","add":"2019-12-25 11:15:41","orig_title":"Tinto Brass Presents Erotic Short Stories: Part 1 - Julia","year":"1999-01-01","translations":["Профессиональный (многоголосый закадровый)"],"quality":"bd","translation":"Профессиональный (многоголосый закадровый)","update":"2019-12-25 15:00:40","iframe_src":"//2413.svetacdn.in/IAF0wWTdNYZm/movie/34446"},{"id":34445,"title":"Девушка моего брата","kp_id":"1254698","imdb_id":"tt10155342","world_art_id":null,"type":"movie","add":"2019-12-25 10:19:31","orig_title":"La femme de mon frère","year":"2019-05-15","translations":["Любительский (многоголосый закадровый) (Синема УС)"],"quality":"webdl","translation":"Любительский (многоголосый закадровый) (Синема УС)","update":"2019-12-25 15:02:28","iframe_src":"//2413.svetacdn.in/IAF0wWTdNYZm/movie/34445"},{"id":34444,"title":"Вавилон 5: Третье пространство","kp_id":"93924","imdb_id":"tt0121804","world_art_id":null,"type":"movie","add":"2019-12-25 09:42:34","orig_title":"Babylon 5: Thirdspace","year":"1998-07-18","translations":["Профессиональный (многоголосый закадровый)"],"quality":"dvdrip","translation":"Профессиональный (многоголосый закадровый)","update":"2019-12-25 12:20:31","iframe_src":"//2413.svetacdn.in/IAF0wWTdNYZm/movie/34444"},{"id":34443,"title":"Тролль в Центральном парке","kp_id":"1836","imdb_id":"tt0108395","world_art_id":null,"type":"movie","add":"2019-12-25 09:38:47","orig_title":"A Troll in Central Park","year":"1994-07-13","translations":["Полное дублирование"],"quality":"dvdrip","translation":"Полное дублирование","update":"2019-12-25 13:00:39","iframe_src":"//2413.svetacdn.in/IAF0wWTdNYZm/movie/34443"},{"id":34436,"title":"Рождественское чудо для Меган","kp_id":"1093993","imdb_id":"tt6594244","world_art_id":null,"type":"movie","add":"2019-12-25 05:23:16","orig_title":"Megan's Christmas Miracle","year":"2018-10-10","translations":["Любительский (многоголосый закадровый) (Синема УС)"],"quality":"webdl","translation":"Любительский (многоголосый закадровый) (Синема УС)","update":"2019-12-25 08:09:00","iframe_src":"//2413.svetacdn.in/IAF0wWTdNYZm/movie/34436"},{"id":34435,"title":"Рождество в Монтане","kp_id":"1320606","imdb_id":"tt11151688","world_art_id":null,"type":"movie","add":"2019-12-25 05:21:21","orig_title":"Christmas in Montana","year":"2019-12-14","translations":["Любительский (многоголосый закадровый) (Синема УС)"],"quality":"hdtv","translation":"Любительский (многоголосый закадровый) (Синема УС)","update":"2019-12-25 06:28:34","iframe_src":"//2413.svetacdn.in/IAF0wWTdNYZm/movie/34435"},{"id":34426,"title":"Уиджи: начало","kp_id":"954870","imdb_id":"tt5232468","world_art_id":null,"type":"movie","add":"2019-12-24 19:53:51","orig_title":"Ouijageist","year":"2018-05-07","translations":["Любительский (многоголосый закадровый) (AlphaProject)"],"quality":"webdl","translation":"Любительский (многоголосый закадровый) (AlphaProject)","update":"2019-12-25 04:28:59","iframe_src":"//2413.svetacdn.in/IAF0wWTdNYZm/movie/34426"},{"id":34281,"title":"Мстители в масках","kp_id":"64265","imdb_id":"tt0082153","world_art_id":null,"type":"movie","add":"2019-12-19 22:01:14","orig_title":"Cha shou","year":"1981-05-15","translations":["Любительский (одноголосый закадровый) (Прокс)","Авторский (одноголосый закадровый) (Кузнецов Сергей)","Любительский (одноголосый закадровый) (Прокс)"],"quality":"webdl","translation":"Любительский (одноголосый закадровый) (Прокс)","update":"2019-12-25 13:20:43","iframe_src":"//2413.svetacdn.in/IAF0wWTdNYZm/movie/34281"},{"id":34193,"title":"Кровь","kp_id":"1115018","imdb_id":"tt11363596","world_art_id":null,"type":"movie","add":"2019-12-17 07:08:35","orig_title":"Krov","year":"2019-11-21","translations":["Оригинальная дорожка"],"quality":"webdl","translation":"Оригинальная дорожка","update":"2019-12-25 20:52:23","iframe_src":"//2413.svetacdn.in/IAF0wWTdNYZm/movie/34193"},{"id":32896,"title":"Звериная ярость","kp_id":"1095690","imdb_id":"tt7394816","world_art_id":null,"type":"movie","add":"2019-11-11 07:57:34","orig_title":"Primal","year":"2019-11-05","translations":["Любительский (многоголосый закадровый) (AlphaProject)","Полное дублирование (iTunes)"],"quality":"webdl","translation":"Любительский (многоголосый закадровый) (AlphaProject)","update":"2019-12-25 09:41:11","iframe_src":"//2413.svetacdn.in/IAF0wWTdNYZm/movie/32896"},{"id":30022,"title":"Поменяться местами","kp_id":"1117379","imdb_id":"tt8265928","world_art_id":null,"type":"movie","add":"2019-08-15 10:55:16","orig_title":"Mon inconnue","year":"2019-01-18","translations":["Полное дублирование (iTunes)"],"quality":"webdl","translation":"Полное дублирование (iTunes)","update":"2019-12-25 09:40:38","iframe_src":"//2413.svetacdn.in/IAF0wWTdNYZm/movie/30022"},{"id":26703,"title":"Гори, гори ясно","kp_id":"1199596","imdb_id":"tt7752126","world_art_id":null,"type":"movie","add":"2019-05-19 08:43:17","orig_title":"Brightburn","year":"2019-05-09","translations":["Полное дублирование","Профессиональный (многоголосый закадровый) (СВ-Студия)","[EN] Original (English)","Профессиональный (многоголосый закадровый) (HDrezka Studio)"],"quality":"webdl","translation":"Полное дублирование","update":"2019-12-25 12:24:13","iframe_src":"//2413.svetacdn.in/IAF0wWTdNYZm/movie/26703"}],"current_page":1484,"first_page_url":"https://videocdn.tv/api/short?limit=100&api_token=6Onb1W1alEUrBcKJZD3GoKBbWyAl2uG2&cache31484=31484&page=1","from":148301,"last_page":718,"last_page_url":"https://videocdn.tv/api/short?limit=100&api_token=6Onb1W1alEUrBcKJZD3GoKBbWyAl2uG2&cache31484=31484&page=718","next_page_url":null,"path":"https://videocdn.tv/api/short","per_page":100,"prev_page_url":"https://videocdn.tv/api/short?limit=100&api_token=6Onb1W1alEUrBcKJZD3GoKBbWyAl2uG2&cache31484=31484&page=1483","to":148320,"total":71735}