{"result":true,"data":[{"id":56215,"title":"Дурацкое пари","kp_id":"23345","imdb_id":"tt0101748","world_art_id":null,"type":"movie","add":"2022-01-26 06:19:23","orig_title":"Dogfight","year":"1991-09-13","translations":["Профессиональный (двухголосый закадровый) (ТВ6)"],"quality":"webdl","translation":"Профессиональный (двухголосый закадровый) (ТВ6)","update":"2022-01-26 14:12:44","iframe_src":"//7741.svetacdn.in/IAF0wWTdNYZm/movie/56215"},{"id":56196,"title":"Скрипка моего отца","kp_id":"4821612","imdb_id":"tt14369276","world_art_id":null,"type":"movie","add":"2022-01-25 17:01:21","orig_title":"Babamin Kemani","year":"2022-01-21","translations":["Любительский (многоголосый закадровый) (Синема УС)"],"quality":"webdl","translation":"Любительский (многоголосый закадровый) (Синема УС)","update":"2022-01-26 12:01:44","iframe_src":"//7741.svetacdn.in/IAF0wWTdNYZm/movie/56196"},{"id":56194,"title":"Смертельный танцевальный конкурс","kp_id":"4484520","imdb_id":"tt14809462","world_art_id":null,"type":"movie","add":"2022-01-25 16:53:01","orig_title":"Dancer in Danger","year":"2022-01-06","translations":["Любительский (многоголосый закадровый) (Синема УС)"],"quality":"webdl","translation":"Любительский (многоголосый закадровый) (Синема УС)","update":"2022-01-26 11:59:25","iframe_src":"//7741.svetacdn.in/IAF0wWTdNYZm/movie/56194"},{"id":56193,"title":"Опасный бывший по соседству","kp_id":"4631407","imdb_id":"tt15202636","world_art_id":null,"type":"movie","add":"2022-01-25 16:51:41","orig_title":"The Lakehouse Murders","year":"2022-01-02","translations":["Любительский (многоголосый закадровый) (Синема УС)"],"quality":"webdl","translation":"Любительский (многоголосый закадровый) (Синема УС)","update":"2022-01-26 11:58:36","iframe_src":"//7741.svetacdn.in/IAF0wWTdNYZm/movie/56193"},{"id":56192,"title":"Детектив Ди и хитрый красноглазый","kp_id":"4760933","imdb_id":"tt16118378","world_art_id":null,"type":"movie","add":"2022-01-25 16:46:52","orig_title":"Di Renjie - Red Eyes","year":"2021-11-04","translations":["Любительский (двухголосый закадровый) (Колобок)"],"quality":"webdl","translation":"Любительский (двухголосый закадровый) (Колобок)","update":"2022-01-26 11:57:10","iframe_src":"//7741.svetacdn.in/IAF0wWTdNYZm/movie/56192"},{"id":56191,"title":"Рейс","kp_id":"4384053","imdb_id":"tt14071150","world_art_id":null,"type":"movie","add":"2022-01-25 16:41:44","orig_title":"Flight","year":"2021-04-02","translations":["Любительский (многоголосый закадровый) (Синема УС)"],"quality":"webdl","translation":"Любительский (многоголосый закадровый) (Синема УС)","update":"2022-01-26 11:55:59","iframe_src":"//7741.svetacdn.in/IAF0wWTdNYZm/movie/56191"},{"id":56125,"title":"Дорогой райдер","kp_id":"4675187","imdb_id":"tt15390756","world_art_id":null,"type":"movie","add":"2022-01-22 19:39:11","orig_title":"Dear Rider","year":"2021-11-05","translations":["[PT] Полное дублирование (Portugues)"],"quality":"webdl","translation":"[PT] Полное дублирование (Portugues)","update":"2022-01-26 08:12:02","iframe_src":"//7741.svetacdn.in/IAF0wWTdNYZm/movie/56125"},{"id":54527,"title":"Бычара","kp_id":"1436778","imdb_id":"tt13266998","world_art_id":null,"type":"movie","add":"2021-11-14 17:22:21","orig_title":"Bull","year":"2021-08-06","translations":["Любительский (многоголосый закадровый) (@MUZOBOZ@)"],"quality":"webdl","translation":"Любительский (многоголосый закадровый) (@MUZOBOZ@)","update":"2022-01-26 12:01:10","iframe_src":"//7741.svetacdn.in/IAF0wWTdNYZm/movie/54527"},{"id":53301,"title":"Банкиры","kp_id":"1321558","imdb_id":"tt11136276","world_art_id":null,"type":"movie","add":"2021-09-21 20:03:51","orig_title":"Azor","year":"2021-06-10","translations":["Профессиональный (многоголосый закадровый) (iTunes)","[PT] Полное дублирование (Portugues)"],"quality":"webdl","translation":"Профессиональный (многоголосый закадровый) (iTunes)","update":"2022-01-26 08:20:01","iframe_src":"//7741.svetacdn.in/IAF0wWTdNYZm/movie/53301"},{"id":11157,"title":"Сыщик династии Мин","kp_id":"1378975","imdb_id":"tt12179254","world_art_id":null,"type":"serial","add":"2021-08-10 13:46:29","orig_title":"The Sleuth of the Ming Dynasty","year":"2020-04-01","translations":["Любительский (многоголосый закадровый) (AniMaunt)"],"seasons_count":1,"episodes_count":48,"episodes":48,"update":"2021-08-11 15:31:57","iframe_src":"//7741.svetacdn.in/IAF0wWTdNYZm/tv-series/11157"},{"id":11154,"title":"Любовь... а также брак и развод","kp_id":"1405942","imdb_id":"tt13814840","world_art_id":null,"type":"serial","add":"2021-08-09 21:01:17","orig_title":"Love (ft. Marriage & Divorce)","year":"2021-01-23","translations":["Любительский (двухголосый закадровый) (SoftBox)"],"seasons_count":2,"episodes_count":32,"episodes":16,"update":"2021-08-10 09:42:50","iframe_src":"//7741.svetacdn.in/IAF0wWTdNYZm/tv-series/11154"},{"id":11153,"title":"Моя мама — робот","kp_id":"1042587","imdb_id":null,"world_art_id":null,"type":"serial","add":"2021-08-09 15:58:56","orig_title":"Моя мама — робот","year":"2017-01-01","translations":["Оригинальная дорожка"],"seasons_count":1,"episodes_count":2,"episodes":2,"update":"2021-08-10 09:40:28","iframe_src":"//7741.svetacdn.in/IAF0wWTdNYZm/tv-series/11153"},{"id":11149,"title":"НЛО","kp_id":"4477136","imdb_id":"tt14866442","world_art_id":null,"type":"serial","add":"2021-08-09 10:49:37","orig_title":"UFO","year":"2021-08-08","translations":["Профессиональный (многоголосый закадровый) (BaibaKo)"],"seasons_count":1,"episodes_count":4,"episodes":4,"update":"2021-08-09 17:26:15","iframe_src":"//7741.svetacdn.in/IAF0wWTdNYZm/tv-series/11149"},{"id":11145,"title":"Если верить Лопотухину","kp_id":"94647","imdb_id":"tt0086620","world_art_id":null,"type":"serial","add":"2021-08-08 05:58:27","orig_title":"Esli verit Lopotukhinu...","year":"1983-01-01","translations":["Оригинальная дорожка"],"seasons_count":1,"episodes_count":2,"episodes":2,"update":"2021-08-09 15:53:48","iframe_src":"//7741.svetacdn.in/IAF0wWTdNYZm/tv-series/11145"},{"id":11141,"title":"Шелк","kp_id":"574253","imdb_id":"tt1717455","world_art_id":null,"type":"serial","add":"2021-08-06 16:41:46","orig_title":"Silk","year":"2011-02-22","translations":["Любительский (двухголосый закадровый) (Dream Records)"],"seasons_count":3,"episodes_count":18,"episodes":6,"update":"2021-08-09 14:19:37","iframe_src":"//7741.svetacdn.in/IAF0wWTdNYZm/tv-series/11141"},{"id":11136,"title":"Дом на месяц","kp_id":"1431132","imdb_id":"tt13885272","world_art_id":null,"type":"serial","add":"2021-08-06 06:32:17","orig_title":"Wolgan Jib","year":"2021-06-16","translations":["Любительский (двухголосый закадровый) (SoftBox)"],"seasons_count":1,"episodes_count":16,"episodes":16,"update":"2021-08-10 10:16:33","iframe_src":"//7741.svetacdn.in/IAF0wWTdNYZm/tv-series/11136"},{"id":11115,"title":"Бразильская империя","kp_id":"1400416","imdb_id":"tt12438340","world_art_id":null,"type":"serial","add":"2021-08-03 09:40:03","orig_title":"Brasil Imperial","year":"2020-11-10","translations":["Любительский (многоголосый закадровый) (Ultradox)"],"seasons_count":1,"episodes_count":10,"episodes":10,"update":"2021-08-12 16:09:52","iframe_src":"//7741.svetacdn.in/IAF0wWTdNYZm/tv-series/11115"},{"id":51962,"title":"Кроваво-красное небо","kp_id":"1047401","imdb_id":"tt6402468","world_art_id":null,"type":"movie","add":"2021-07-23 19:14:20","orig_title":"Blood Red Sky","year":"2021-07-23","translations":["Полное дублирование (SDI Media | Iyuno-SDI Group Russia)","[EN] Original (English)","[PT] Полное дублирование (Portugues)"],"quality":"webdl","translation":"Полное дублирование (SDI Media | Iyuno-SDI Group Russia)","update":"2022-01-26 08:18:45","iframe_src":"//7741.svetacdn.in/IAF0wWTdNYZm/movie/51962"},{"id":11013,"title":"Пляжный коп","kp_id":"488230","imdb_id":"tt1552112","world_art_id":null,"type":"serial","add":"2021-07-12 16:04:52","orig_title":"The Glades","year":"2010-07-11","translations":["Полное дублирование (ТВ3)","Профессиональный (многоголосый закадровый) (AlexFilm)","Любительский (двухголосый закадровый) (To4ka)"],"seasons_count":4,"episodes_count":49,"episodes":13,"update":"2021-08-09 11:22:19","iframe_src":"//7741.svetacdn.in/IAF0wWTdNYZm/tv-series/11013"},{"id":10977,"title":"Поколение 56К","kp_id":"2000584","imdb_id":"tt13524842","world_art_id":null,"type":"serial","add":"2021-07-01 11:16:07","orig_title":"Generation 56K","year":"2021-07-01","translations":["Любительский (многоголосый закадровый) (Ultradox)","Любительский (многоголосый закадровый) (ColdFilm)","Профессиональный (многоголосый закадровый) (BaibaKo)","Профессиональный (многоголосый закадровый) (TVShows)"],"seasons_count":1,"episodes_count":8,"episodes":8,"update":"2021-08-10 05:42:48","iframe_src":"//7741.svetacdn.in/IAF0wWTdNYZm/tv-series/10977"},{"id":10862,"title":"Локи","kp_id":"1203039","imdb_id":"tt9140554","world_art_id":null,"type":"serial","add":"2021-06-09 11:53:55","orig_title":"Loki","year":"2021-06-09","translations":["Любительский (многоголосый закадровый) (Ultradox)","Любительский (двухголосый закадровый) (OnisFilms)","Любительский (многоголосый закадровый) (ColdFilm)","Любительский (одноголосый закадровый) (VHSник | Страхов Борис )","Любительский (многоголосый закадровый) (KerobTV)","Профессиональный (двухголосый закадровый) (Gears Media)","Профессиональный (многоголосый закадровый) (BaibaKo)","Профессиональный (многоголосый закадровый) (HDrezka Studio)","Профессиональный (многоголосый закадровый) (AlexFilm)","Профессиональный (многоголосый закадровый) (IdeaFilm)","Профессиональный (многоголосый закадровый) (NewComers)","Профессиональный (многоголосый закадровый) (LostFilm)","Профессиональный (многоголосый закадровый) (NewStudio)","Профессиональный (многоголосый закадровый) (TVShows)","Любительский (многоголосый закадровый) (LE-Production)","Полное дублирование (Flarrow Films)"],"seasons_count":1,"episodes_count":6,"episodes":6,"update":"2021-08-11 19:24:59","iframe_src":"//7741.svetacdn.in/IAF0wWTdNYZm/tv-series/10862"},{"id":50847,"title":"Горчичное семя","kp_id":"1200724","imdb_id":"tt9098454","world_art_id":null,"type":"movie","add":"2021-06-02 07:01:08","orig_title":"The Girl Who Believes in Miracles","year":"2021-04-02","translations":["Любительский (многоголосый закадровый) (Синема УС)","[PT] Полное дублирование (Portugues)"],"quality":"webdl","translation":"Любительский (многоголосый закадровый) (Синема УС)","update":"2022-01-26 08:16:53","iframe_src":"//7741.svetacdn.in/IAF0wWTdNYZm/movie/50847"},{"id":50420,"title":"В стране фей","kp_id":"1137267","imdb_id":"tt6461664","world_art_id":null,"type":"movie","add":"2021-05-17 05:36:34","orig_title":"Faunutland and the Lost Magic","year":"2020-07-07","translations":["Полное дублирование (iTunes)","[PT] Полное дублирование (Portugues)"],"quality":"bd","translation":"Полное дублирование (iTunes)","update":"2022-01-26 08:15:28","iframe_src":"//7741.svetacdn.in/IAF0wWTdNYZm/movie/50420"},{"id":49871,"title":"Год, изменивший планету","kp_id":"4443873","imdb_id":"tt14372240","world_art_id":null,"type":"movie","add":"2021-04-25 07:40:13","orig_title":"The Year Earth Changed","year":"2021-04-16","translations":["Профессиональный (многоголосый закадровый) (HDrezka Studio)","[PT] Полное дублирование (Portugues)"],"quality":"webdl","translation":"Профессиональный (многоголосый закадровый) (HDrezka Studio)","update":"2022-01-26 08:06:30","iframe_src":"//7741.svetacdn.in/IAF0wWTdNYZm/movie/49871"},{"id":49857,"title":"Виртуоз","kp_id":"882762","imdb_id":"tt4136456","world_art_id":null,"type":"movie","add":"2021-04-24 10:25:13","orig_title":"The Virtuoso","year":"2021-04-30","translations":["Профессиональный (двухголосый закадровый) (Pazl Voice)","[EN] Original (English)","Любительский (многоголосый закадровый) (AlphaProject)","[PT] Полное дублирование (Portugues)"],"quality":"bd","translation":"Профессиональный (двухголосый закадровый) (Pazl Voice)","update":"2022-01-26 08:10:06","iframe_src":"//7741.svetacdn.in/IAF0wWTdNYZm/movie/49857"},{"id":10384,"title":"Кунг-фу","kp_id":"1355507","imdb_id":"tt7475590","world_art_id":null,"type":"serial","add":"2021-04-08 08:33:07","orig_title":"Kung Fu","year":"2021-04-07","translations":["Любительский (многоголосый закадровый) (ColdFilm)","Любительский (многоголосый закадровый) (Ultradox)","Любительский (многоголосый закадровый) (KerobTV)","Профессиональный (многоголосый закадровый) (HDrezka Studio)","Профессиональный (многоголосый закадровый) (TVShows)","Профессиональный (многоголосый закадровый) (BaibaKo)","Профессиональный (двухголосый закадровый) (BaibaKo)"],"seasons_count":1,"episodes_count":13,"episodes":13,"update":"2021-08-12 07:33:46","iframe_src":"//7741.svetacdn.in/IAF0wWTdNYZm/tv-series/10384"},{"id":49044,"title":"Субъект неизвестен","kp_id":"1368866","imdb_id":"tt12108622","world_art_id":null,"type":"movie","add":"2021-03-23 21:29:06","orig_title":"Infinitum: Subject Unknown","year":"2021-03-03","translations":["Любительский (многоголосый закадровый) (@MUZOBOZ@)","[PT] Полное дублирование (Portugues)"],"quality":"webdl","translation":"Любительский (многоголосый закадровый) (@MUZOBOZ@)","update":"2022-01-26 08:04:56","iframe_src":"//7741.svetacdn.in/IAF0wWTdNYZm/movie/49044"},{"id":10243,"title":"Красный дерматин","kp_id":"1323118","imdb_id":"tt8690776","world_art_id":null,"type":"serial","add":"2021-03-19 09:29:02","orig_title":"Sky Rojo","year":"2021-03-19","translations":["Любительский (многоголосый закадровый) (ColdFilm)","Любительский (многоголосый закадровый) (Ultradox)","Профессиональный (многоголосый закадровый) (BaibaKo)","Профессиональный (многоголосый закадровый) (HDrezka Studio)","Профессиональный (многоголосый закадровый) (HDrezka Studio 18+)","Профессиональный (многоголосый закадровый) (LostFilm)","Любительский (одноголосый закадровый) (RusFilm)"],"seasons_count":2,"episodes_count":16,"episodes":8,"update":"2021-08-11 09:08:16","iframe_src":"//7741.svetacdn.in/IAF0wWTdNYZm/tv-series/10243"},{"id":48475,"title":"Часовой","kp_id":"1348084","imdb_id":"tt11734264","world_art_id":null,"type":"movie","add":"2021-03-05 13:02:49","orig_title":"Sentinelle","year":"2021-03-05","translations":["Любительский (двухголосый закадровый) (datynet & Yuka_chan)","Любительский (двухголосый закадровый) (OnisFilms)","[PT] Полное дублирование (Portugues)"],"quality":"webdl","translation":"Любительский (двухголосый закадровый) (datynet & Yuka_chan)","update":"2022-01-26 08:13:50","iframe_src":"//7741.svetacdn.in/IAF0wWTdNYZm/movie/48475"},{"id":48286,"title":"Сын","kp_id":"1322888","imdb_id":"tt5624466","world_art_id":null,"type":"movie","add":"2021-02-26 16:53:18","orig_title":"Son","year":"2021-02-26","translations":["Авторский (одноголосый закадровый) (Дольский Андрей)","Любительский (многоголосый закадровый) (@MUZOBOZ@)","[EN] Original (English)","[PT] Полное дублирование (Portugues)"],"quality":"webdl","translation":"Авторский (одноголосый закадровый) (Дольский Андрей)","update":"2022-01-26 08:08:14","iframe_src":"//7741.svetacdn.in/IAF0wWTdNYZm/movie/48286"},{"id":9852,"title":"Любите ли Вы Брамса?","kp_id":"1347314","imdb_id":"tt12867750","world_art_id":null,"type":"serial","add":"2021-02-05 09:10:18","orig_title":"Beuramseureul Joahaseyo","year":"2020-08-31","translations":["Любительский (двухголосый закадровый) (SoftBox)","Любительский (многоголосый закадровый) (AniMaunt)"],"seasons_count":1,"episodes_count":16,"episodes":16,"update":"2021-08-09 13:55:51","iframe_src":"//7741.svetacdn.in/IAF0wWTdNYZm/tv-series/9852"},{"id":41044,"title":"Наследие","kp_id":"1161523","imdb_id":"tt6439748","world_art_id":null,"type":"movie","add":"2020-06-08 20:10:15","orig_title":"Legacy","year":"2020-06-01","translations":["Любительский (многоголосый закадровый) (@MUZOBOZ@)","[PT] Полное дублирование (Portugues)"],"quality":"webdl","translation":"Любительский (многоголосый закадровый) (@MUZOBOZ@)","update":"2022-01-26 08:03:00","iframe_src":"//7741.svetacdn.in/IAF0wWTdNYZm/movie/41044"},{"id":6535,"title":"Габриэла","kp_id":"693484","imdb_id":"tt2249420","world_art_id":null,"type":"serial","add":"2020-02-03 05:23:12","orig_title":"Gabriela","year":"2012-06-18","translations":["Любительский (многоголосый закадровый)","Любительский (двухголосый закадровый) (Lynx студия)"],"seasons_count":1,"episodes_count":77,"episodes":77,"update":"2021-08-10 15:28:16","iframe_src":"//7741.svetacdn.in/IAF0wWTdNYZm/tv-series/6535"},{"id":33139,"title":"Он умер с фалафелем в руке","kp_id":"16683","imdb_id":"tt0172543","world_art_id":null,"type":"movie","add":"2019-11-15 20:10:42","orig_title":"He Died with a Felafel in His Hand","year":"2001-08-30","translations":["Авторский (одноголосый закадровый) (Матвеев Алексей | Doctor Joker)"],"quality":"webdl","translation":"Авторский (одноголосый закадровый) (Матвеев Алексей | Doctor Joker)","update":"2022-01-26 14:23:46","iframe_src":"//7741.svetacdn.in/IAF0wWTdNYZm/movie/33139"},{"id":26764,"title":"Оборотни","kp_id":"959502","imdb_id":"tt5351576","world_art_id":null,"type":"movie","add":"2019-05-19 22:07:54","orig_title":"Howlers","year":"2018-10-31","translations":["Любительский (многоголосый закадровый) (Синема УС)","[PT] Полное дублирование (Portugues)"],"quality":"webdl","translation":"Любительский (многоголосый закадровый) (Синема УС)","update":"2022-01-26 08:03:40","iframe_src":"//7741.svetacdn.in/IAF0wWTdNYZm/movie/26764"},{"id":1511,"title":"Кастлвания","kp_id":"1009526","imdb_id":"tt6517102","world_art_id":null,"type":"serial","add":"2017-09-04 07:30:05","orig_title":"Castlevania","year":"2017-07-07","translations":["Профессиональный (многоголосый закадровый) (IdeaFilm)","Профессиональный (многоголосый закадровый) (AlexFilm)","Профессиональный (многоголосый закадровый) (HDrezka Studio)","Любительский (многоголосый закадровый) (AniFilm)","Любительский (одноголосый закадровый) (VHSник | Страхов Борис )","Профессиональный (многоголосый закадровый) (TVShows)","Профессиональный (многоголосый закадровый) (Flarrow Films)","Любительский (многоголосый закадровый) (ColdFilm)","Любительский (многоголосый закадровый) (Ultradox)","Любительский (многоголосый закадровый) (AniLibria.TV)"],"seasons_count":4,"episodes_count":32,"episodes":10,"update":"2021-08-12 07:32:08","iframe_src":"//7741.svetacdn.in/IAF0wWTdNYZm/tv-series/1511"},{"id":1368,"title":"Отчаянные домохозяйки","kp_id":"160958","imdb_id":"tt0410975","world_art_id":null,"type":"serial","add":"2017-07-06 05:17:38","orig_title":"Desperate Housewives","year":"2004-10-03","translations":["Полное дублирование","Профессиональный (многоголосый закадровый) (LostFilm)"],"seasons_count":8,"episodes_count":180,"episodes":23,"update":"2021-08-10 14:59:50","iframe_src":"//7741.svetacdn.in/IAF0wWTdNYZm/tv-series/1368"},{"id":1258,"title":"Твин Пикс","kp_id":"843207","imdb_id":"tt4093826","world_art_id":null,"type":"serial","add":"2017-05-19 18:41:35","orig_title":"Twin Peaks","year":"2017-05-21","translations":["Профессиональный (многоголосый закадровый) (LostFilm)","Профессиональный (многоголосый закадровый) (Amedia)","Полное дублирование (ТВ3)","Профессиональный (многоголосый закадровый) (Novamedia)","Профессиональный (многоголосый закадровый) (OMSKBIRD records)"],"seasons_count":1,"episodes_count":18,"episodes":18,"update":"2021-08-11 15:57:54","iframe_src":"//7741.svetacdn.in/IAF0wWTdNYZm/tv-series/1258"},{"id":732,"title":"Доктор Хаус","kp_id":"178710","imdb_id":"tt0412142","world_art_id":null,"type":"serial","add":"2016-12-25 13:20:28","orig_title":"House M.D.","year":"2004-11-16","translations":["Профессиональный (многоголосый закадровый) (LostFilm)","Профессиональный (многоголосый закадровый) (Домашний)"],"seasons_count":8,"episodes_count":176,"episodes":22,"update":"2021-08-10 18:11:25","iframe_src":"//7741.svetacdn.in/IAF0wWTdNYZm/tv-series/732"},{"id":492,"title":"Форс-мажоры","kp_id":"557806","imdb_id":"tt1632701","world_art_id":null,"type":"serial","add":"2016-09-28 10:28:46","orig_title":"Suits","year":"2011-06-23","translations":["Профессиональный (многоголосый закадровый) (Первый канал | ОРТ)","Профессиональный (многоголосый закадровый) (TVShows)","Любительский (двухголосый закадровый) (Gravi-TV)","Профессиональный (двухголосый закадровый) (NewStudio)","Любительский (многоголосый закадровый) (To4ka)","Профессиональный (многоголосый закадровый) (NewStudio)","Любительский (двухголосый закадровый) (GoldTeam)","Любительский (двухголосый закадровый) (Sunshine Studio)","Профессиональный (многоголосый закадровый) (BaibaKo)","Профессиональный (многоголосый закадровый) (IdeaFilm)","Профессиональный (многоголосый закадровый) (Jaskier)","Любительский (двухголосый закадровый) (KerobTV)","Профессиональный (двухголосый закадровый) (Gears Media)"],"seasons_count":9,"episodes_count":134,"episodes":10,"update":"2021-08-09 14:37:28","iframe_src":"//7741.svetacdn.in/IAF0wWTdNYZm/tv-series/492"}],"current_page":112,"first_page_url":"https://videocdn.tv/api/short?limit=100&api_token=6Onb1W1alEUrBcKJZD3GoKBbWyAl2uG2&cache3112=3112&page=1","from":11101,"last_page":706,"last_page_url":"https://videocdn.tv/api/short?limit=100&api_token=6Onb1W1alEUrBcKJZD3GoKBbWyAl2uG2&cache3112=3112&page=706","next_page_url":"https://videocdn.tv/api/short?limit=100&api_token=6Onb1W1alEUrBcKJZD3GoKBbWyAl2uG2&cache3112=3112&page=113","path":"https://videocdn.tv/api/short","per_page":100,"prev_page_url":"https://videocdn.tv/api/short?limit=100&api_token=6Onb1W1alEUrBcKJZD3GoKBbWyAl2uG2&cache3112=3112&page=111","to":11140,"total":70569}