{"result":true,"data":[{"id":53350,"title":"Разрушенная жизнь","kp_id":"99415","imdb_id":"tt0156641","world_art_id":null,"type":"movie","add":"2021-09-23 19:40:41","orig_title":"Jeevan Mrityu","year":"1984-01-06","translations":["Профессиональный (многоголосый закадровый)"],"quality":"webdl","translation":"Профессиональный (многоголосый закадровый)","update":"2021-09-24 04:44:47","iframe_src":"//7741.svetacdn.in/si4jsFRrtgrT/movie/53350"},{"id":53349,"title":"Джибраил","kp_id":"647635","imdb_id":"tt1883160","world_art_id":null,"type":"movie","add":"2021-09-23 19:34:54","orig_title":"Cibrâil","year":"2011-04-29","translations":["Любительский (одноголосый закадровый)"],"quality":"webdl","translation":"Любительский (одноголосый закадровый)","update":"2021-09-23 19:56:48","iframe_src":"//7741.svetacdn.in/si4jsFRrtgrT/movie/53349"},{"id":53348,"title":"Запись","kp_id":"644942","imdb_id":"tt2179602","world_art_id":null,"type":"movie","add":"2021-09-23 19:29:18","orig_title":"REC [Al-i-ssi]","year":"2011-11-24","translations":["Любительский (одноголосый закадровый)"],"quality":"webdl","translation":"Любительский (одноголосый закадровый)","update":"2021-09-24 04:44:28","iframe_src":"//7741.svetacdn.in/si4jsFRrtgrT/movie/53348"},{"id":53347,"title":"Художник граффити","kp_id":"80165","imdb_id":"tt0402223","world_art_id":null,"type":"movie","add":"2021-09-23 19:21:26","orig_title":"The Graffiti Artist","year":"2004-02-12","translations":["Любительский (одноголосый закадровый)"],"quality":"webdl","translation":"Любительский (одноголосый закадровый)","update":"2021-09-23 19:44:23","iframe_src":"//7741.svetacdn.in/si4jsFRrtgrT/movie/53347"},{"id":53344,"title":"Заткнись и поцелуй меня","kp_id":"500476","imdb_id":"tt1607583","world_art_id":null,"type":"movie","add":"2021-09-23 13:47:55","orig_title":"Shut Up and Kiss Me","year":"2010-07-13","translations":["Любительский (одноголосый закадровый) (Кошкин Василий)"],"quality":"dvdrip","translation":"Любительский (одноголосый закадровый) (Кошкин Василий)","update":"2021-09-23 20:26:09","iframe_src":"//7741.svetacdn.in/si4jsFRrtgrT/movie/53344"},{"id":53343,"title":"Скелет в шкафу","kp_id":"1419640","imdb_id":"tt13137694","world_art_id":null,"type":"movie","add":"2021-09-23 13:45:48","orig_title":"Todos tenemos un muerto en el placard o un hijo en el clóset","year":"2020-08-24","translations":["Любительский (многоголосый закадровый) (Синема УС)"],"quality":"webdl","translation":"Любительский (многоголосый закадровый) (Синема УС)","update":"2021-09-23 22:02:59","iframe_src":"//7741.svetacdn.in/si4jsFRrtgrT/movie/53343"},{"id":53340,"title":"Связанные","kp_id":"4424559","imdb_id":"tt13357564","world_art_id":null,"type":"movie","add":"2021-09-23 09:54:43","orig_title":"Tethered","year":"2021-01-01","translations":["Любительский (многоголосый закадровый) (Синема УС)"],"quality":"webdl","translation":"Любительский (многоголосый закадровый) (Синема УС)","update":"2021-09-23 17:56:59","iframe_src":"//7741.svetacdn.in/si4jsFRrtgrT/movie/53340"},{"id":53338,"title":"Зловещие близнецы","kp_id":"1364596","imdb_id":"tt12088676","world_art_id":null,"type":"movie","add":"2021-09-23 09:46:53","orig_title":"Evul Twinz","year":"2020-03-15","translations":["Любительский (двухголосый закадровый) (Колобок)"],"quality":"webdl","translation":"Любительский (двухголосый закадровый) (Колобок)","update":"2021-09-23 17:55:59","iframe_src":"//7741.svetacdn.in/si4jsFRrtgrT/movie/53338"},{"id":53337,"title":"Коготь","kp_id":"1347742","imdb_id":"tt11760236","world_art_id":null,"type":"movie","add":"2021-09-23 09:44:31","orig_title":"Claw","year":"2021-06-25","translations":["Любительский (многоголосый закадровый) (Синема УС)"],"quality":"webdl","translation":"Любительский (многоголосый закадровый) (Синема УС)","update":"2021-09-23 17:54:56","iframe_src":"//7741.svetacdn.in/si4jsFRrtgrT/movie/53337"},{"id":53336,"title":"Чайна","kp_id":null,"imdb_id":"tt14783560","world_art_id":null,"type":"movie","add":"2021-09-23 09:38:46","orig_title":"Vice Versa: Chyna","year":"2021-01-01","translations":["Любительский (многоголосый закадровый) (Синема УС)"],"quality":"webdl","translation":"Любительский (многоголосый закадровый) (Синема УС)","update":"2021-09-23 17:54:05","iframe_src":"//7741.svetacdn.in/si4jsFRrtgrT/movie/53336"},{"id":53331,"title":"Душа меча","kp_id":"87163","imdb_id":"tt0076692","world_art_id":null,"type":"movie","add":"2021-09-23 05:40:46","orig_title":"Sha jue","year":"1978-04-21","translations":["Любительский (одноголосый закадровый) (Ghostface)"],"quality":"bd","translation":"Любительский (одноголосый закадровый) (Ghostface)","update":"2021-09-24 06:03:49","iframe_src":"//7741.svetacdn.in/si4jsFRrtgrT/movie/53331"},{"id":52844,"title":"Странствующий рыцарь","kp_id":"245857","imdb_id":"tt0072426","world_art_id":null,"type":"movie","add":"2021-09-04 05:42:52","orig_title":"Ying xiong ben se","year":"1973-02-10","translations":["Любительский (одноголосый закадровый) (Береговых Виктор | Jet)"],"quality":"bd","translation":"Любительский (одноголосый закадровый) (Береговых Виктор | Jet)","update":"2021-09-24 06:07:31","iframe_src":"//7741.svetacdn.in/si4jsFRrtgrT/movie/52844"},{"id":52682,"title":"Искра","kp_id":"1012912","imdb_id":"tt6538416","world_art_id":null,"type":"movie","add":"2021-08-27 06:24:32","orig_title":"Hibana","year":"2017-10-15","translations":["Любительский (двухголосый закадровый) (АрхиAsia)","Любительский (многоголосый закадровый) (Синема УС)"],"quality":"bd","translation":"Любительский (двухголосый закадровый) (АрхиAsia)","update":"2021-09-23 18:19:00","iframe_src":"//7741.svetacdn.in/si4jsFRrtgrT/movie/52682"},{"id":49034,"title":"Никто","kp_id":"1309596","imdb_id":"tt7888964","world_art_id":null,"type":"movie","add":"2021-03-23 20:56:47","orig_title":"Nobody","year":"2021-03-18","translations":["Original (English)","Полное дублирование","Любительский (многоголосый закадровый)","Профессиональный (двухголосый закадровый) (Pazl Voice)","Профессиональный (многоголосый закадровый) (HDrezka Studio)","Профессиональный (многоголосый закадровый) (HDrezka Studio 18+)","Любительский (одноголосый закадровый) (RusFilm)","Полное дублирование (Пифагор)","Авторский (одноголосый закадровый) (Яроцкий Михаил | Kyberpunk)","Авторский (одноголосый закадровый) (Есарев Дмитрий)","Авторский (одноголосый закадровый) (Сербин Юрий)","Профессиональный (многоголосый закадровый) (Jaskier)","Профессиональный (двухголосый закадровый) (Кубик в Кубе)","Авторский (одноголосый закадровый) (Гоблин | Пучков Дмитрий)"],"quality":"webdl","translation":"Original (English)","update":"2021-09-24 07:31:25","iframe_src":"//7741.svetacdn.in/si4jsFRrtgrT/movie/49034"},{"id":9186,"title":"И немного волшебства: Город загадок","kp_id":"1340661","imdb_id":"tt11569530","world_art_id":null,"type":"serial","add":"2020-11-03 15:04:59","orig_title":"Just Add Magic: Mystery City","year":"2020-01-17","translations":["Полное дублирование (Пифагор)"],"seasons_count":1,"episodes_count":10,"episodes":10,"update":"2020-11-03 18:32:01","iframe_src":"//7741.svetacdn.in/si4jsFRrtgrT/tv-series/9186"},{"id":9181,"title":"Гнев","kp_id":"4397570","imdb_id":"tt14033154","world_art_id":null,"type":"serial","add":"2020-11-02 18:49:58","orig_title":"Taish","year":"2020-10-29","translations":["Любительский (многоголосый закадровый) (Ultradox)","Профессиональный (многоголосый закадровый) (BaibaKo)"],"seasons_count":1,"episodes_count":6,"episodes":6,"update":"2020-11-03 05:21:31","iframe_src":"//7741.svetacdn.in/si4jsFRrtgrT/tv-series/9181"},{"id":9177,"title":"Соледад","kp_id":"417648","imdb_id":"tt0324910","world_art_id":null,"type":"serial","add":"2020-11-02 13:21:15","orig_title":"Soledad","year":"2001-04-03","translations":["Профессиональный (многоголосый закадровый)"],"seasons_count":1,"episodes_count":195,"episodes":195,"update":"2020-11-02 21:14:10","iframe_src":"//7741.svetacdn.in/si4jsFRrtgrT/tv-series/9177"},{"id":9170,"title":"Новые дела Скуби-Ду","kp_id":"229309","imdb_id":"tt0068112","world_art_id":null,"type":"serial","add":"2020-11-01 22:23:51","orig_title":"The New Scooby-Doo Movies","year":"1972-09-09","translations":["Полное дублирование (Русский дубляж)","Полное дублирование (Пифагор)"],"seasons_count":2,"episodes_count":24,"episodes":8,"update":"2020-11-03 16:35:01","iframe_src":"//7741.svetacdn.in/si4jsFRrtgrT/tv-series/9170"},{"id":9169,"title":"Титаник","kp_id":"89633","imdb_id":"tt0115392","world_art_id":null,"type":"serial","add":"2020-11-01 17:35:08","orig_title":"Titanic","year":"1996-11-17","translations":["Профессиональный (многоголосый закадровый) (Первый канал | ОРТ)"],"seasons_count":1,"episodes_count":2,"episodes":2,"update":"2020-11-02 05:11:36","iframe_src":"//7741.svetacdn.in/si4jsFRrtgrT/tv-series/9169"},{"id":9168,"title":"Сотня страшных историй","kp_id":"885324","imdb_id":null,"world_art_id":null,"type":"serial","add":"2020-11-01 14:32:04","orig_title":"100 Tales of Horror","year":"2002-01-01","translations":["Любительский (одноголосый закадровый) (Воротилин Олег)"],"seasons_count":1,"episodes_count":11,"episodes":11,"update":"2020-11-02 18:00:53","iframe_src":"//7741.svetacdn.in/si4jsFRrtgrT/tv-series/9168"},{"id":9160,"title":"Игра теней","kp_id":"1219473","imdb_id":"tt8879894","world_art_id":null,"type":"serial","add":"2020-10-31 06:31:54","orig_title":"Shadowplay","year":"2020-10-30","translations":["Любительский (многоголосый закадровый) (Ultradox)","Любительский (многоголосый закадровый) (ColdFilm)","Профессиональный (многоголосый закадровый) (Novamedia)","Профессиональный (двухголосый закадровый) (IdeaFilm)"],"seasons_count":1,"episodes_count":8,"episodes":8,"update":"2020-11-03 19:37:08","iframe_src":"//7741.svetacdn.in/si4jsFRrtgrT/tv-series/9160"},{"id":9155,"title":"Дело","kp_id":"806687","imdb_id":"tt2650940","world_art_id":null,"type":"serial","add":"2020-10-30 10:07:51","orig_title":"O Negócio","year":"2013-08-18","translations":["Профессиональный (многоголосый закадровый) (GoodTime Media)"],"seasons_count":4,"episodes_count":51,"episodes":12,"update":"2020-11-04 07:12:28","iframe_src":"//7741.svetacdn.in/si4jsFRrtgrT/tv-series/9155"},{"id":9145,"title":"Лучшие друзья навсегда","kp_id":"981218","imdb_id":"tt4507442","world_art_id":null,"type":"serial","add":"2020-10-28 17:48:10","orig_title":"Best Friends Whenever","year":"2015-06-26","translations":["Полное дублирование (Disney Channel)"],"seasons_count":2,"episodes_count":30,"episodes":12,"update":"2020-11-02 17:36:08","iframe_src":"//7741.svetacdn.in/si4jsFRrtgrT/tv-series/9145"},{"id":9092,"title":"Бэтмен","kp_id":"26003","imdb_id":"tt0035665","world_art_id":null,"type":"serial","add":"2020-10-23 15:08:15","orig_title":"Batman","year":"1943-07-16","translations":["Любительский (одноголосый закадровый) (den904)"],"seasons_count":1,"episodes_count":15,"episodes":15,"update":"2020-11-03 09:10:32","iframe_src":"//7741.svetacdn.in/si4jsFRrtgrT/tv-series/9092"},{"id":9030,"title":"Великая армия","kp_id":"1282613","imdb_id":"tt10473150","world_art_id":null,"type":"serial","add":"2020-10-16 15:10:37","orig_title":"Grand Army","year":"2020-10-16","translations":["Любительский (многоголосый закадровый) (ColdFilm)","Любительский (многоголосый закадровый) (Ultradox)","Профессиональный (многоголосый закадровый) (BaibaKo)","Профессиональный (многоголосый закадровый) (NewStudio)"],"seasons_count":1,"episodes_count":9,"episodes":9,"update":"2020-11-01 21:03:52","iframe_src":"//7741.svetacdn.in/si4jsFRrtgrT/tv-series/9030"},{"id":9019,"title":"Пробуждающий","kp_id":"1113587","imdb_id":"tt7972480","world_art_id":null,"type":"serial","add":"2020-10-15 14:34:38","orig_title":"O Doutrinador: A Série","year":"2019-09-01","translations":["Любительский (многоголосый закадровый) (Ultradox)"],"seasons_count":1,"episodes_count":7,"episodes":7,"update":"2020-11-04 07:16:49","iframe_src":"//7741.svetacdn.in/si4jsFRrtgrT/tv-series/9019"},{"id":8960,"title":"Губернатор","kp_id":null,"imdb_id":"tt7128052","world_art_id":null,"type":"serial","add":"2020-10-09 17:49:28","orig_title":"The Governor","year":"2016-07-07","translations":["Любительский (многоголосый закадровый) (WestFilm)"],"seasons_count":1,"episodes_count":13,"episodes":13,"update":"2020-11-02 19:35:59","iframe_src":"//7741.svetacdn.in/si4jsFRrtgrT/tv-series/8960"},{"id":8907,"title":"Александра Эль","kp_id":"1148216","imdb_id":"tt8185098","world_art_id":null,"type":"serial","add":"2020-10-04 10:24:46","orig_title":"Alexandra Ehle","year":"2018-03-27","translations":["Любительский (многоголосый закадровый) (WestFilm)"],"seasons_count":1,"episodes_count":2,"episodes":2,"update":"2020-11-03 10:26:21","iframe_src":"//7741.svetacdn.in/si4jsFRrtgrT/tv-series/8907"},{"id":8643,"title":"Новая жизнь","kp_id":"1356210","imdb_id":"tt11896074","world_art_id":null,"type":"serial","add":"2020-09-07 08:00:24","orig_title":"Yeni Hayat","year":"2020-09-03","translations":["Любительский (двухголосый закадровый) (SesDizi | DiziMania)","Любительский (многоголосый закадровый) (Octopus)"],"seasons_count":1,"episodes_count":9,"episodes":9,"update":"2020-11-02 07:04:01","iframe_src":"//7741.svetacdn.in/si4jsFRrtgrT/tv-series/8643"},{"id":7151,"title":"Судебный процесс","kp_id":"1283030","imdb_id":"tt10549212","world_art_id":null,"type":"serial","add":"2020-04-10 12:48:50","orig_title":"Il Processo","year":"2019-11-29","translations":["Любительский (многоголосый закадровый) (Octopus)","Профессиональный (двухголосый закадровый) (ViruseProject)"],"seasons_count":1,"episodes_count":8,"episodes":8,"update":"2020-11-02 18:12:11","iframe_src":"//7741.svetacdn.in/si4jsFRrtgrT/tv-series/7151"},{"id":6341,"title":"Штамп в паспорте","kp_id":"1243135","imdb_id":"tt10349500","world_art_id":null,"type":"serial","add":"2020-01-14 13:09:32","orig_title":"Shtamp v Pasporte","year":"2019-02-23","translations":["Оригинальная дорожка"],"seasons_count":1,"episodes_count":4,"episodes":4,"update":"2020-11-02 17:55:25","iframe_src":"//7741.svetacdn.in/si4jsFRrtgrT/tv-series/6341"},{"id":33166,"title":"Убить с интригой","kp_id":"24730","imdb_id":"tt0076227","world_art_id":null,"type":"movie","add":"2019-11-16 19:07:32","orig_title":"Jian hua yan yu jiang nan","year":"1977-07-22","translations":["Профессиональный (многоголосый закадровый) (СТС)","Авторский (одноголосый закадровый) (Визгунов Сергей)"],"quality":"bd","translation":"Профессиональный (многоголосый закадровый) (СТС)","update":"2021-09-24 06:05:21","iframe_src":"//7741.svetacdn.in/si4jsFRrtgrT/movie/33166"},{"id":2780,"title":"Страйк","kp_id":"1007909","imdb_id":"tt4276618","world_art_id":null,"type":"serial","add":"2018-06-10 06:58:57","orig_title":"Strike","year":"2017-08-27","translations":["Профессиональный (многоголосый закадровый) (SDI Media | Iyuno-SDI Group Russia)","Профессиональный (многоголосый закадровый) (LostFilm)","Любительский (многоголосый закадровый) (Octopus)","Любительский (многоголосый закадровый) (ColdFilm)","Профессиональный (двухголосый закадровый) (IdeaFilm)","Профессиональный (многоголосый закадровый) (FocusX)"],"seasons_count":3,"episodes_count":11,"episodes":4,"update":"2020-11-02 18:14:51","iframe_src":"//7741.svetacdn.in/si4jsFRrtgrT/tv-series/2780"},{"id":745,"title":"Пепел","kp_id":"687362","imdb_id":"tt3501672","world_art_id":null,"type":"serial","add":"2016-12-27 09:26:41","orig_title":"Pepel","year":"2013-10-28","translations":["Оригинальная дорожка"],"seasons_count":1,"episodes_count":10,"episodes":10,"update":"2020-11-02 18:08:37","iframe_src":"//7741.svetacdn.in/si4jsFRrtgrT/tv-series/745"},{"id":7875,"title":"Другой мир: Войны крови","kp_id":"840824","imdb_id":"tt3717252","world_art_id":null,"type":"movie","add":"2016-12-05 14:18:13","orig_title":"Underworld: Blood Wars","year":"2016-11-24","translations":["Полное дублирование","Original (English)","Авторский (одноголосый закадровый) (Есарев Дмитрий)","Авторский (одноголосый закадровый) (Гаврилов Андрей)","Авторский (одноголосый закадровый) (Живов Юрий)","Любительский (одноголосый закадровый) (Солодухин Евгений | Solod)","Профессиональный (многоголосый закадровый) (Paradox & Omskbird records)","Original (English)"],"quality":"bd","translation":"Полное дублирование","update":"2021-09-24 07:32:13","iframe_src":"//7741.svetacdn.in/si4jsFRrtgrT/movie/7875"},{"id":337,"title":"Гид геймера практически ко всему на свете","kp_id":"891546","imdb_id":"tt4380272","world_art_id":null,"type":"serial","add":"2016-08-16 06:15:29","orig_title":"Gamer's Guide to Pretty Much Everything","year":"2015-07-22","translations":["Любительский (двухголосый закадровый)","Полное дублирование (Disney Channel)"],"seasons_count":1,"episodes_count":21,"episodes":22,"update":"2020-11-01 15:21:41","iframe_src":"//7741.svetacdn.in/si4jsFRrtgrT/tv-series/337"},{"id":2404,"title":"Ночи в стиле буги","kp_id":"2990","imdb_id":"tt0118749","world_art_id":null,"type":"movie","add":"2016-05-20 14:57:30","orig_title":"Boogie Nights","year":"1997-09-11","translations":["Профессиональный (многоголосый закадровый)","Любительский (одноголосый закадровый) (Филонов Константин | voxsolus)","Авторский (одноголосый закадровый) (Киреев Антон)","Авторский (одноголосый закадровый) (Сербин Юрий)","Авторский (одноголосый закадровый) (Живов Юрий)","Original (English)","Профессиональный (двухголосый закадровый) (Союз Видео)","Профессиональный (многоголосый закадровый)"],"quality":"bd","translation":"Профессиональный (многоголосый закадровый)","update":"2021-09-24 06:17:47","iframe_src":"//7741.svetacdn.in/si4jsFRrtgrT/movie/2404"},{"id":1552,"title":"Игра Эндера","kp_id":"568687","imdb_id":"tt1731141","world_art_id":null,"type":"movie","add":"2016-04-22 14:17:34","orig_title":"Ender's Game","year":"2013-10-24","translations":["Полное дублирование","Авторский (одноголосый закадровый) (Гаврилов Андрей)","Авторский (одноголосый закадровый) (Горчаков Василий)","Полное дублирование (Пифагор)","Original (English)"],"quality":"bd","translation":"Полное дублирование","update":"2021-09-24 07:31:24","iframe_src":"//7741.svetacdn.in/si4jsFRrtgrT/movie/1552"},{"id":1396,"title":"Другой мир","kp_id":"8033","imdb_id":"tt0320691","world_art_id":null,"type":"movie","add":"2016-04-21 09:41:13","orig_title":"Underworld","year":"2003-09-08","translations":["Профессиональный (многоголосый закадровый)","Полное дублирование","Original (English)","Авторский (одноголосый закадровый) (Есарев Дмитрий)","Авторский (одноголосый закадровый) (Гаврилов Андрей)","Любительский (одноголосый закадровый)","Полное дублирование (Мосфильм)","Original (English)","Профессиональный (многоголосый закадровый) (Киномания)"],"quality":"bd","translation":"Профессиональный (многоголосый закадровый)","update":"2021-09-24 06:36:43","iframe_src":"//7741.svetacdn.in/si4jsFRrtgrT/movie/1396"},{"id":679,"title":"Другой мир: Пробуждение","kp_id":"472368","imdb_id":"tt1496025","world_art_id":null,"type":"movie","add":"2016-04-05 21:12:21","orig_title":"Underworld: Awakening","year":"2012-01-19","translations":["Полное дублирование","Original (English)","Авторский (одноголосый закадровый) (Есарев Дмитрий)","Авторский (одноголосый закадровый) (Гаврилов Андрей)","Полное дублирование","Original (English)"],"quality":"bd","translation":"Полное дублирование","update":"2021-09-24 06:45:53","iframe_src":"//7741.svetacdn.in/si4jsFRrtgrT/movie/679"}],"current_page":216,"first_page_url":"https://videocdn.tv/api/short?limit=100&api_token=X6EwAUfE5M9xbo7y0Bp0aPf3uXxG2KLL&cache3216=3216&page=1","from":21501,"last_page":696,"last_page_url":"https://videocdn.tv/api/short?limit=100&api_token=X6EwAUfE5M9xbo7y0Bp0aPf3uXxG2KLL&cache3216=3216&page=696","next_page_url":"https://videocdn.tv/api/short?limit=100&api_token=X6EwAUfE5M9xbo7y0Bp0aPf3uXxG2KLL&cache3216=3216&page=217","path":"https://videocdn.tv/api/short","per_page":100,"prev_page_url":"https://videocdn.tv/api/short?limit=100&api_token=X6EwAUfE5M9xbo7y0Bp0aPf3uXxG2KLL&cache3216=3216&page=215","to":21540,"total":69555}