{"result":true,"data":[{"id":40850,"title":"Зима, картофельные клёцки","kp_id":"844160","imdb_id":"tt4129876","world_art_id":null,"type":"movie","add":"2020-06-01 03:48:52","orig_title":"Winterkartoffelknödel","year":"2014-10-16","translations":["Любительский (одноголосый закадровый)"],"quality":"webdl","translation":"Любительский (одноголосый закадровый)","update":"2020-06-01 04:44:56","iframe_src":"//8944266443434.svetacdn.in/PfJ50H0ZBPg3/movie/40850"},{"id":40849,"title":"Бонни и Бонни","kp_id":"1210735","imdb_id":"tt9168992","world_art_id":null,"type":"movie","add":"2020-06-01 03:42:10","orig_title":"Bonnie & Bonnie","year":"2019-06-14","translations":["Любительский (многоголосый закадровый) (AlphaProject)"],"quality":"webdl","translation":"Любительский (многоголосый закадровый) (AlphaProject)","update":"2020-06-01 06:43:24","iframe_src":"//8944266443434.svetacdn.in/PfJ50H0ZBPg3/movie/40849"},{"id":40848,"title":"Цена верности","kp_id":"1225477","imdb_id":"tt9351226","world_art_id":null,"type":"movie","add":"2020-06-01 03:41:18","orig_title":"Буду смотреть Le prix de la loyauté","year":"2019-04-26","translations":["Любительский (многоголосый закадровый) (Синема УС)"],"quality":"webdl","translation":"Любительский (многоголосый закадровый) (Синема УС)","update":"2020-06-01 06:40:04","iframe_src":"//8944266443434.svetacdn.in/PfJ50H0ZBPg3/movie/40848"},{"id":40832,"title":"Мой маленький пони: Девочки из Эквестрии – Весенние каникулы","kp_id":"1177487","imdb_id":"tt8734872","world_art_id":null,"type":"movie","add":"2020-05-31 09:16:43","orig_title":"My Little Pony: Equestria Girls - Spring Breakdown","year":"2019-03-30","translations":["Полное дублирование (SDI Media | Iyuno-SDI Group Russia)"],"quality":"webdl","translation":"Полное дублирование (SDI Media | Iyuno-SDI Group Russia)","update":"2020-05-31 10:37:09","iframe_src":"//8944266443434.svetacdn.in/PfJ50H0ZBPg3/movie/40832"},{"id":40831,"title":"Спасибо, доктор Рей","kp_id":"21064","imdb_id":"tt0338249","world_art_id":null,"type":"movie","add":"2020-05-31 07:37:49","orig_title":"Merci Docteur Rey","year":"2002-10-13","translations":["Профессиональный (двухголосый закадровый)"],"quality":"dvdrip","translation":"Профессиональный (двухголосый закадровый)","update":"2020-05-31 17:05:55","iframe_src":"//8944266443434.svetacdn.in/PfJ50H0ZBPg3/movie/40831"},{"id":40830,"title":"Братская вечеринка","kp_id":"456816","imdb_id":"tt1414361","world_art_id":null,"type":"movie","add":"2020-05-31 07:35:41","orig_title":"Frat Party","year":"2009-12-01","translations":["Профессиональный (двухголосый закадровый)"],"quality":"hdrip","translation":"Профессиональный (двухголосый закадровый)","update":"2020-05-31 17:05:06","iframe_src":"//8944266443434.svetacdn.in/PfJ50H0ZBPg3/movie/40830"},{"id":40826,"title":"Торжество","kp_id":"465","imdb_id":"tt0154420","world_art_id":null,"type":"movie","add":"2020-05-30 15:32:07","orig_title":"Festen","year":"1998-05-01","translations":["Профессиональный (одноголосый закадровый)"],"quality":"dvdrip","translation":"Профессиональный (одноголосый закадровый)","update":"2020-05-31 07:41:26","iframe_src":"//8944266443434.svetacdn.in/PfJ50H0ZBPg3/movie/40826"},{"id":40825,"title":"Семейное дерево","kp_id":"404231","imdb_id":"tt1582268","world_art_id":null,"type":"movie","add":"2020-05-30 15:30:50","orig_title":"Sunny Side Up","year":"2011-10-15","translations":["Профессиональный (многоголосый закадровый)"],"quality":"bd","translation":"Профессиональный (многоголосый закадровый)","update":"2020-05-31 07:42:33","iframe_src":"//8944266443434.svetacdn.in/PfJ50H0ZBPg3/movie/40825"},{"id":40824,"title":"Операция «Подсолнух»","kp_id":"771659","imdb_id":"tt2964144","world_art_id":null,"type":"movie","add":"2020-05-30 15:29:24","orig_title":"Mivtza Hamaniya","year":"2014-02-13","translations":["Любительский (одноголосый закадровый) (PashaUp | Морозов Павел)"],"quality":"hdtv","translation":"Любительский (одноголосый закадровый) (PashaUp | Морозов Павел)","update":"2020-05-31 07:43:16","iframe_src":"//8944266443434.svetacdn.in/PfJ50H0ZBPg3/movie/40824"},{"id":40823,"title":"Лерой и Стич","kp_id":"251609","imdb_id":"tt0486761","world_art_id":null,"type":"movie","add":"2020-05-30 15:20:43","orig_title":"Leroy & Stitch","year":"2006-06-23","translations":["Полное дублирование"],"quality":"webdl","translation":"Полное дублирование","update":"2020-05-31 07:46:48","iframe_src":"//8944266443434.svetacdn.in/PfJ50H0ZBPg3/movie/40823"},{"id":40822,"title":"Маска","kp_id":"9606","imdb_id":"tt0089560","world_art_id":null,"type":"movie","add":"2020-05-30 15:17:32","orig_title":"Mask","year":"1985-03-08","translations":["Профессиональный (многоголосый закадровый) (НТВ)"],"quality":"dvdrip","translation":"Профессиональный (многоголосый закадровый) (НТВ)","update":"2020-05-31 07:47:51","iframe_src":"//8944266443434.svetacdn.in/PfJ50H0ZBPg3/movie/40822"},{"id":40820,"title":"Джеки Чан: Моя жизнь","kp_id":"77214","imdb_id":"tt0242545","world_art_id":null,"type":"movie","add":"2020-05-30 15:09:22","orig_title":"Jackie Chan: My Story","year":"1998-07-17","translations":["Любительский (одноголосый закадровый)"],"quality":"dvdrip","translation":"Любительский (одноголосый закадровый)","update":"2020-05-31 07:48:48","iframe_src":"//8944266443434.svetacdn.in/PfJ50H0ZBPg3/movie/40820"},{"id":40818,"title":"Игра","kp_id":"429652","imdb_id":"tt1310501","world_art_id":null,"type":"movie","add":"2020-05-30 13:25:22","orig_title":"Deo ge-im","year":"2008-01-31","translations":["Любительский (двухголосый закадровый)"],"quality":"dvdrip","translation":"Любительский (двухголосый закадровый)","update":"2020-05-31 07:51:02","iframe_src":"//8944266443434.svetacdn.in/PfJ50H0ZBPg3/movie/40818"},{"id":40817,"title":"Короли мамбо","kp_id":"18265","imdb_id":"tt0104802","world_art_id":null,"type":"movie","add":"2020-05-30 13:23:51","orig_title":"The Mambo Kings","year":"1992-02-07","translations":["Авторский (одноголосый закадровый) (Гаврилов Андрей)"],"quality":"hdrip","translation":"Авторский (одноголосый закадровый) (Гаврилов Андрей)","update":"2020-05-31 07:51:33","iframe_src":"//8944266443434.svetacdn.in/PfJ50H0ZBPg3/movie/40817"},{"id":40816,"title":"Завороженный","kp_id":"950","imdb_id":"tt0038109","world_art_id":null,"type":"movie","add":"2020-05-30 13:22:26","orig_title":"Spellbound","year":"1945-10-31","translations":["Профессиональный (многоголосый закадровый) (SomeWax)"],"quality":"bd","translation":"Профессиональный (многоголосый закадровый) (SomeWax)","update":"2020-05-31 07:53:08","iframe_src":"//8944266443434.svetacdn.in/PfJ50H0ZBPg3/movie/40816"},{"id":40815,"title":"Слова убийцы","kp_id":"50231","imdb_id":"tt0339489","world_art_id":null,"type":"movie","add":"2020-05-30 13:21:05","orig_title":"Palabras encadenadas","year":"2003-04-30","translations":["Профессиональный (двухголосый закадровый)"],"quality":"dvdrip","translation":"Профессиональный (двухголосый закадровый)","update":"2020-05-31 07:53:51","iframe_src":"//8944266443434.svetacdn.in/PfJ50H0ZBPg3/movie/40815"},{"id":40814,"title":"Конспираторы","kp_id":"764168","imdb_id":"tt2927068","world_art_id":null,"type":"movie","add":"2020-05-30 13:19:06","orig_title":"Tong mou","year":"2013-04-11","translations":["Любительский (одноголосый закадровый) (Береговых Виктор | Jet)"],"quality":"bd","translation":"Любительский (одноголосый закадровый) (Береговых Виктор | Jet)","update":"2020-05-31 07:54:39","iframe_src":"//8944266443434.svetacdn.in/PfJ50H0ZBPg3/movie/40814"},{"id":40813,"title":"Остальные вымерли","kp_id":"1327114","imdb_id":"tt11344598","world_art_id":null,"type":"movie","add":"2020-05-30 13:01:16","orig_title":"Alidu Ulidavaru","year":"2019-12-06","translations":["Любительский (многоголосый закадровый) (Синема УС)"],"quality":"webdl","translation":"Любительский (многоголосый закадровый) (Синема УС)","update":"2020-05-31 06:02:31","iframe_src":"//8944266443434.svetacdn.in/PfJ50H0ZBPg3/movie/40813"},{"id":32359,"title":"Приключения мышонка","kp_id":"741158","imdb_id":"tt2439190","world_art_id":null,"type":"movie","add":"2019-10-25 20:58:24","orig_title":"Rodencia y el Diente de la Princesa","year":"2012-10-11","translations":["Полное дублирование"],"quality":"hdrip","translation":"Полное дублирование","update":"2020-05-31 07:44:15","iframe_src":"//8944266443434.svetacdn.in/PfJ50H0ZBPg3/movie/32359"},{"id":7946,"title":"Наемники","kp_id":"103527","imdb_id":"tt0427528","world_art_id":null,"type":"movie","add":"2016-12-08 13:25:43","orig_title":"Mercenary for Justice","year":"2006-04-25","translations":["Профессиональный (многоголосый закадровый)"],"quality":"bd","translation":"Профессиональный (многоголосый закадровый)","update":"2020-05-31 07:45:51","iframe_src":"//8944266443434.svetacdn.in/PfJ50H0ZBPg3/movie/7946"}],"current_page":1273,"first_page_url":"https://videocdn.tv/api/short?limit=100&api_token=RgFQdUIR2dRmwv8iYa5SnFNgnw3vpjKj&cache31273=31273&page=1","from":127201,"last_page":733,"last_page_url":"https://videocdn.tv/api/short?limit=100&api_token=RgFQdUIR2dRmwv8iYa5SnFNgnw3vpjKj&cache31273=31273&page=733","next_page_url":null,"path":"https://videocdn.tv/api/short","per_page":100,"prev_page_url":"https://videocdn.tv/api/short?limit=100&api_token=RgFQdUIR2dRmwv8iYa5SnFNgnw3vpjKj&cache31273=31273&page=1272","to":127220,"total":73212}