{"result":true,"data":[{"id":31957,"title":"Рождественский пирог","kp_id":"21365","imdb_id":"tt0211286","world_art_id":null,"type":"movie","add":"2019-10-16 05:31:30","orig_title":"La bûche","year":"1999-11-24","translations":["Авторский (одноголосый закадровый) (Сербин Юрий)"],"quality":"dvdrip","translation":"Авторский (одноголосый закадровый) (Сербин Юрий)","update":"2019-10-16 06:18:45","iframe_src":"//83.svetacdn.in/PfJ50H0ZBPg3/movie/31957"},{"id":31956,"title":"Рождество в июле","kp_id":"181562","imdb_id":"tt0032338","world_art_id":null,"type":"movie","add":"2019-10-16 05:30:12","orig_title":"Christmas in July","year":"1940-10-25","translations":["Авторский (одноголосый закадровый) (Кашкин Александр | Первомайский)"],"quality":"dvdrip","translation":"Авторский (одноголосый закадровый) (Кашкин Александр | Первомайский)","update":"2019-10-16 06:19:10","iframe_src":"//83.svetacdn.in/PfJ50H0ZBPg3/movie/31956"},{"id":31955,"title":"Колдовство","kp_id":"3075","imdb_id":"tt0058753","world_art_id":null,"type":"movie","add":"2019-10-15 21:19:14","orig_title":"Witchcraft","year":"1964-10-22","translations":["Любительский (одноголосый закадровый)"],"quality":"webdl","translation":"Любительский (одноголосый закадровый)","update":"2019-10-16 06:10:08","iframe_src":"//83.svetacdn.in/PfJ50H0ZBPg3/movie/31955"},{"id":31954,"title":"Колдовство 7: Час расплаты","kp_id":"31258","imdb_id":"tt0114958","world_art_id":null,"type":"movie","add":"2019-10-15 21:16:33","orig_title":"Witchcraft 7: Judgement Hour","year":"1995-12-27","translations":["Любительский (одноголосый закадровый)"],"quality":"vhs","translation":"Любительский (одноголосый закадровый)","update":"2019-10-16 06:08:51","iframe_src":"//83.svetacdn.in/PfJ50H0ZBPg3/movie/31954"},{"id":31953,"title":"Белый клык","kp_id":"39316","imdb_id":"tt0069536","world_art_id":null,"type":"movie","add":"2019-10-15 21:13:27","orig_title":"Zanna Bianca","year":"1973-12-21","translations":["Полное дублирование"],"quality":"dvdrip","translation":"Полное дублирование","update":"2019-10-16 06:07:37","iframe_src":"//83.svetacdn.in/PfJ50H0ZBPg3/movie/31953"},{"id":31952,"title":"Зима в военное время","kp_id":"317391","imdb_id":"tt0795441","world_art_id":null,"type":"movie","add":"2019-10-15 21:10:24","orig_title":"Oorlogswinter","year":"2008-11-17","translations":["Любительский (двухголосый закадровый)"],"quality":"bd","translation":"Любительский (двухголосый закадровый)","update":"2019-10-16 06:05:46","iframe_src":"//83.svetacdn.in/PfJ50H0ZBPg3/movie/31952"},{"id":31951,"title":"Белый Клык и одинокий охотник","kp_id":"95579","imdb_id":"tt0090318","world_art_id":null,"type":"movie","add":"2019-10-15 21:06:41","orig_title":"Zanna Bianca e il cacciatore solitario","year":"1975-01-01","translations":["Авторский (одноголосый закадровый) (Назаров Вадим)"],"quality":"dvdrip","translation":"Авторский (одноголосый закадровый) (Назаров Вадим)","update":"2019-10-16 06:00:00","iframe_src":"//83.svetacdn.in/PfJ50H0ZBPg3/movie/31951"},{"id":31950,"title":"Лев зимой","kp_id":"514","imdb_id":"tt0063227","world_art_id":null,"type":"movie","add":"2019-10-15 21:03:55","orig_title":"The Lion in Winter","year":"1968-10-30","translations":["Полное дублирование"],"quality":"bd","translation":"Полное дублирование","update":"2019-10-16 05:59:09","iframe_src":"//83.svetacdn.in/PfJ50H0ZBPg3/movie/31950"},{"id":31948,"title":"Последнее соблазнение 2","kp_id":"49849","imdb_id":"tt0177898","world_art_id":null,"type":"movie","add":"2019-10-15 20:56:56","orig_title":"The Last Seduction II","year":"1999-06-08","translations":["Профессиональный (многоголосый закадровый)"],"quality":"dvdrip","translation":"Профессиональный (многоголосый закадровый)","update":"2019-10-16 05:58:00","iframe_src":"//83.svetacdn.in/PfJ50H0ZBPg3/movie/31948"},{"id":31921,"title":"Нечто странное","kp_id":"123292","imdb_id":"tt0062288","world_art_id":null,"type":"movie","add":"2019-10-15 09:05:05","orig_title":"Something Weird","year":"1968-03-27","translations":["Авторский (одноголосый закадровый) (Котов Вячеслав)"],"quality":"dvdrip","translation":"Авторский (одноголосый закадровый) (Котов Вячеслав)","update":"2019-10-16 07:47:16","iframe_src":"//83.svetacdn.in/PfJ50H0ZBPg3/movie/31921"},{"id":31861,"title":"Воскрешение","kp_id":"532868","imdb_id":"tt1571408","world_art_id":null,"type":"movie","add":"2019-10-14 13:27:51","orig_title":"Opstandelsen","year":"2010-08-21","translations":["Любительский (одноголосый закадровый) (den904)"],"quality":"bd","translation":"Любительский (одноголосый закадровый) (den904)","update":"2019-10-16 06:52:38","iframe_src":"//83.svetacdn.in/PfJ50H0ZBPg3/movie/31861"},{"id":31860,"title":"Король джаза","kp_id":"207780","imdb_id":"tt0021025","world_art_id":null,"type":"movie","add":"2019-10-14 13:26:57","orig_title":"King of Jazz","year":"1930-04-20","translations":["Original (English)"],"quality":"bd","translation":"Original (English)","update":"2019-10-16 06:51:34","iframe_src":"//83.svetacdn.in/PfJ50H0ZBPg3/movie/31860"},{"id":31859,"title":"Крестоносцы","kp_id":"63686","imdb_id":"tt0054004","world_art_id":null,"type":"movie","add":"2019-10-14 13:25:55","orig_title":"Krzyzacy","year":"1960-07-15","translations":["Полное дублирование"],"quality":"bd","translation":"Полное дублирование","update":"2019-10-16 06:50:03","iframe_src":"//83.svetacdn.in/PfJ50H0ZBPg3/movie/31859"},{"id":31858,"title":"Глаз-убийца","kp_id":"34238","imdb_id":"tt0177886","world_art_id":null,"type":"movie","add":"2019-10-14 13:24:53","orig_title":"The Killer Eye","year":"1999-01-18","translations":["Авторский (одноголосый закадровый) (Кашкин Александр | Первомайский)"],"quality":"dvdrip","translation":"Авторский (одноголосый закадровый) (Кашкин Александр | Первомайский)","update":"2019-10-16 06:48:31","iframe_src":"//83.svetacdn.in/PfJ50H0ZBPg3/movie/31858"},{"id":31857,"title":"Зона тьмы","kp_id":"32670","imdb_id":"tt0100586","world_art_id":null,"type":"movie","add":"2019-10-14 13:23:42","orig_title":"Shadowzone","year":"1990-01-12","translations":["Авторский (одноголосый закадровый) (Штейн Владимир)"],"quality":"dvdrip","translation":"Авторский (одноголосый закадровый) (Штейн Владимир)","update":"2019-10-16 06:47:13","iframe_src":"//83.svetacdn.in/PfJ50H0ZBPg3/movie/31857"},{"id":31854,"title":"Беглянки","kp_id":"58019","imdb_id":"tt0083375","world_art_id":null,"type":"movie","add":"2019-10-14 13:20:00","orig_title":"Les paumées du petit matin","year":"1981-01-01","translations":["Авторский (одноголосый закадровый) (Алексеев Антон)"],"quality":"bd","translation":"Авторский (одноголосый закадровый) (Алексеев Антон)","update":"2019-10-16 06:35:44","iframe_src":"//83.svetacdn.in/PfJ50H0ZBPg3/movie/31854"},{"id":31640,"title":"Натурал под прикрытием","kp_id":"819167","imdb_id":"tt3421738","world_art_id":null,"type":"movie","add":"2019-10-09 08:40:09","orig_title":"Kicking Out Shoshana","year":"2014-07-17","translations":["Профессиональный (многоголосый закадровый) (iTunes)"],"quality":"webdl","translation":"Профессиональный (многоголосый закадровый) (iTunes)","update":"2019-10-16 06:30:21","iframe_src":"//83.svetacdn.in/PfJ50H0ZBPg3/movie/31640"},{"id":31639,"title":"О Боже, ты велик!","kp_id":"195212","imdb_id":"tt0476550","world_art_id":null,"type":"movie","add":"2019-10-09 08:38:52","orig_title":"God Tussi Great Ho","year":"2008-08-15","translations":["Профессиональный (многоголосый закадровый)"],"quality":"webdl","translation":"Профессиональный (многоголосый закадровый)","update":"2019-10-16 06:29:05","iframe_src":"//83.svetacdn.in/PfJ50H0ZBPg3/movie/31639"},{"id":31638,"title":"Тайное оружие","kp_id":"662617","imdb_id":"tt2187153","world_art_id":null,"type":"movie","add":"2019-10-09 08:37:46","orig_title":"Thuppakki","year":"2012-11-13","translations":["Профессиональный (многоголосый закадровый) (Red Media)"],"quality":"bd","translation":"Профессиональный (многоголосый закадровый) (Red Media)","update":"2019-10-16 06:26:58","iframe_src":"//83.svetacdn.in/PfJ50H0ZBPg3/movie/31638"},{"id":30275,"title":"Западня Венеры","kp_id":"49953","imdb_id":"tt0096372","world_art_id":null,"type":"movie","add":"2019-08-25 19:45:41","orig_title":"Die Venusfalle","year":"1988-05-19","translations":["Любительский (одноголосый закадровый)","Любительский (одноголосый закадровый)"],"quality":"vhs","translation":"Любительский (одноголосый закадровый)","update":"2019-10-16 06:31:57","iframe_src":"//83.svetacdn.in/PfJ50H0ZBPg3/movie/30275"}],"current_page":1217,"first_page_url":"https://videocdn.tv/api/short?limit=100&api_token=RgFQdUIR2dRmwv8iYa5SnFNgnw3vpjKj&cache31217=31217&page=1","from":121601,"last_page":648,"last_page_url":"https://videocdn.tv/api/short?limit=100&api_token=RgFQdUIR2dRmwv8iYa5SnFNgnw3vpjKj&cache31217=31217&page=648","next_page_url":null,"path":"https://videocdn.tv/api/short","per_page":100,"prev_page_url":"https://videocdn.tv/api/short?limit=100&api_token=RgFQdUIR2dRmwv8iYa5SnFNgnw3vpjKj&cache31217=31217&page=1216","to":121620,"total":64722}