{"result":true,"data":[{"id":45847,"title":"Рождество в усадьбе","kp_id":"1347432","imdb_id":"tt11753704","world_art_id":null,"type":"movie","add":"2020-12-04 20:34:56","orig_title":"Christmas Inn Farmstead","year":"2020-11-21","translations":["Любительский (многоголосый закадровый) (AlphaProject)"],"quality":"webdl","translation":"Любительский (многоголосый закадровый) (AlphaProject)","update":"2020-12-05 07:16:27","iframe_src":"//5322.svetacdn.in/si4jsFRrtgrT/movie/45847"},{"id":45844,"title":"Доброе утро, Рождество!","kp_id":"1420175","imdb_id":"tt13109730","world_art_id":null,"type":"movie","add":"2020-12-04 20:23:11","orig_title":"Good Morning Christmas!","year":"2020-11-25","translations":["Любительский (многоголосый закадровый) (AlphaProject)"],"quality":"hdtv","translation":"Любительский (многоголосый закадровый) (AlphaProject)","update":"2020-12-05 07:16:09","iframe_src":"//5322.svetacdn.in/si4jsFRrtgrT/movie/45844"},{"id":45693,"title":"Волчья яма","kp_id":"45824","imdb_id":"tt0175307","world_art_id":null,"type":"movie","add":"2020-11-29 16:32:15","orig_title":"Volchya yama","year":"1984-05-21","translations":["Полное дублирование"],"quality":"vhs","translation":"Полное дублирование","update":"2020-12-04 13:53:44","iframe_src":"//5322.svetacdn.in/si4jsFRrtgrT/movie/45693"},{"id":45692,"title":"Волшебник Ох","kp_id":"491812","imdb_id":"tt6409464","world_art_id":null,"type":"movie","add":"2020-11-29 16:29:50","orig_title":"Volshebnik Okh","year":"1971-01-01","translations":["Оригинальная дорожка"],"quality":"dvdrip","translation":"Оригинальная дорожка","update":"2020-12-04 13:52:56","iframe_src":"//5322.svetacdn.in/si4jsFRrtgrT/movie/45692"},{"id":45691,"title":"Дело №","kp_id":"540988","imdb_id":null,"world_art_id":null,"type":"movie","add":"2020-11-29 16:27:52","orig_title":"Дело №","year":"1964-01-01","translations":["Оригинальная дорожка"],"quality":"sat","translation":"Оригинальная дорожка","update":"2020-12-04 13:52:03","iframe_src":"//5322.svetacdn.in/si4jsFRrtgrT/movie/45691"},{"id":45690,"title":"Женщина и четверо ее мужчин","kp_id":"45305","imdb_id":"tt0088451","world_art_id":null,"type":"movie","add":"2020-11-29 16:21:11","orig_title":"Zhenshchina i chetvero yeyo muzhchin","year":"1984-12-24","translations":["Полное дублирование"],"quality":"webdl","translation":"Полное дублирование","update":"2020-12-04 13:51:07","iframe_src":"//5322.svetacdn.in/si4jsFRrtgrT/movie/45690"},{"id":45689,"title":"Коррупция","kp_id":"447112","imdb_id":"tt5738652","world_art_id":null,"type":"movie","add":"2020-11-29 16:15:52","orig_title":"Korruptsiya","year":"1990-01-01","translations":["Оригинальная дорожка"],"quality":"sat","translation":"Оригинальная дорожка","update":"2020-12-04 13:49:32","iframe_src":"//5322.svetacdn.in/si4jsFRrtgrT/movie/45689"},{"id":45688,"title":"Лермонтов","kp_id":"45072","imdb_id":"tt0037015","world_art_id":null,"type":"movie","add":"2020-11-29 16:13:59","orig_title":"Lermontov","year":"1943-07-07","translations":["Оригинальная дорожка"],"quality":"webdl","translation":"Оригинальная дорожка","update":"2020-12-04 13:48:27","iframe_src":"//5322.svetacdn.in/si4jsFRrtgrT/movie/45688"},{"id":45687,"title":"Рассказы о любви","kp_id":"470897","imdb_id":"tt5516890","world_art_id":null,"type":"movie","add":"2020-11-29 16:11:45","orig_title":"Rasskazy o lyubvi","year":"1980-01-04","translations":["Оригинальная дорожка"],"quality":"vhs","translation":"Оригинальная дорожка","update":"2020-12-04 13:47:38","iframe_src":"//5322.svetacdn.in/si4jsFRrtgrT/movie/45687"},{"id":45686,"title":"Тронка","kp_id":"584351","imdb_id":"tt5303484","world_art_id":null,"type":"movie","add":"2020-11-29 16:07:02","orig_title":"Tronka","year":"1972-04-24","translations":["Оригинальная дорожка"],"quality":"iptv","translation":"Оригинальная дорожка","update":"2020-12-04 13:46:54","iframe_src":"//5322.svetacdn.in/si4jsFRrtgrT/movie/45686"},{"id":45656,"title":"Приключение на даче","kp_id":"695302","imdb_id":null,"world_art_id":null,"type":"movie","add":"2020-11-26 22:48:22","orig_title":"Приключение на даче","year":"1980-01-01","translations":["Оригинальная дорожка"],"quality":"dvdrip","translation":"Оригинальная дорожка","update":"2020-12-04 13:46:16","iframe_src":"//5322.svetacdn.in/si4jsFRrtgrT/movie/45656"},{"id":45655,"title":"Приговоренный","kp_id":"43246","imdb_id":"tt0311673","world_art_id":null,"type":"movie","add":"2020-11-26 22:44:14","orig_title":"Prigovoryonnyy","year":"1989-01-01","translations":["Оригинальная дорожка"],"quality":"sat","translation":"Оригинальная дорожка","update":"2020-12-04 13:45:18","iframe_src":"//5322.svetacdn.in/si4jsFRrtgrT/movie/45655"},{"id":45654,"title":"Последняя индульгенция","kp_id":"161055","imdb_id":"tt0265562","world_art_id":null,"type":"movie","add":"2020-11-26 22:42:20","orig_title":"Poslednyaya indulgentsiya","year":"1986-06-09","translations":["Оригинальная дорожка"],"quality":"sat","translation":"Оригинальная дорожка","update":"2020-12-04 13:42:52","iframe_src":"//5322.svetacdn.in/si4jsFRrtgrT/movie/45654"},{"id":45653,"title":"Отклонение — ноль","kp_id":"42845","imdb_id":"tt0175015","world_art_id":null,"type":"movie","add":"2020-11-26 22:40:10","orig_title":"Otklonenie - nol","year":"1978-02-20","translations":["Оригинальная дорожка"],"quality":"sat","translation":"Оригинальная дорожка","update":"2020-12-04 13:42:00","iframe_src":"//5322.svetacdn.in/si4jsFRrtgrT/movie/45653"},{"id":45652,"title":"О чём не узнают трибуны","kp_id":"567026","imdb_id":"tt5365188","world_art_id":null,"type":"movie","add":"2020-11-26 22:37:07","orig_title":"O chyom ne uznayut tribuny","year":"1975-01-01","translations":["Оригинальная дорожка"],"quality":"dvdrip","translation":"Оригинальная дорожка","update":"2020-12-04 13:41:21","iframe_src":"//5322.svetacdn.in/si4jsFRrtgrT/movie/45652"},{"id":45537,"title":"Мой дедушка — инопланетянин","kp_id":"1101573","imdb_id":"tt7662644","world_art_id":null,"type":"movie","add":"2020-11-23 20:43:38","orig_title":"Moj dida je pao s Marsa","year":"2019-03-21","translations":["Полное дублирование (iTunes)"],"quality":"webdl","translation":"Полное дублирование (iTunes)","update":"2020-12-04 21:25:37","iframe_src":"//5322.svetacdn.in/si4jsFRrtgrT/movie/45537"},{"id":44859,"title":"Любовь без размера","kp_id":"1398964","imdb_id":null,"world_art_id":null,"type":"movie","add":"2020-10-27 20:14:09","orig_title":"Любовь без размера","year":"2020-10-22","translations":["Оригинальная дорожка"],"quality":"webdl","translation":"Оригинальная дорожка","update":"2020-12-04 21:21:25","iframe_src":"//5322.svetacdn.in/si4jsFRrtgrT/movie/44859"},{"id":44601,"title":"Лето'85","kp_id":"1275788","imdb_id":"tt10457128","world_art_id":null,"type":"movie","add":"2020-10-19 19:40:12","orig_title":"Été 85","year":"2020-07-14","translations":["Профессиональный (многоголосый закадровый)","Профессиональный (многоголосый закадровый) (Мельница)"],"quality":"webdl","translation":"Профессиональный (многоголосый закадровый)","update":"2020-12-04 17:03:12","iframe_src":"//5322.svetacdn.in/si4jsFRrtgrT/movie/44601"},{"id":5242,"title":"Сияй или сойди с ума","kp_id":"888206","imdb_id":"tt4412610","world_art_id":null,"type":"serial","add":"2019-09-19 10:43:35","orig_title":"Bitnageona Michigeona","year":"2015-01-19","translations":["Любительский (одноголосый закадровый) (GREEN TEA)"],"seasons_count":1,"episodes_count":24,"episodes":24,"update":"2019-09-19 20:36:47","iframe_src":"//5322.svetacdn.in/si4jsFRrtgrT/tv-series/5242"},{"id":5239,"title":"Эдера","kp_id":"394051","imdb_id":"tt0186051","world_art_id":null,"type":"serial","add":"2019-09-19 06:26:59","orig_title":"Edera","year":"1992-02-18","translations":["Профессиональный (двухголосый закадровый)"],"seasons_count":1,"episodes_count":44,"episodes":44,"update":"2019-09-19 11:40:02","iframe_src":"//5322.svetacdn.in/si4jsFRrtgrT/tv-series/5239"},{"id":5238,"title":"Возвращение Мухтара 10","kp_id":"935875","imdb_id":"tt5108022","world_art_id":null,"type":"serial","add":"2019-09-18 12:19:05","orig_title":"Vozvrashchenie Mukhtara 10","year":"2015-01-01","translations":["Оригинальная дорожка"],"seasons_count":1,"episodes_count":48,"episodes":48,"update":"2019-09-18 21:08:41","iframe_src":"//5322.svetacdn.in/si4jsFRrtgrT/tv-series/5238"},{"id":5237,"title":"Удивительные странствия Геракла","kp_id":"231093","imdb_id":"tt0111999","world_art_id":null,"type":"serial","add":"2019-09-18 12:07:09","orig_title":"Hercules: The Legendary Journeys","year":"1995-01-16","translations":["Профессиональный (многоголосый закадровый) (СТС)"],"seasons_count":6,"episodes_count":111,"episodes":8,"update":"2019-09-19 10:12:09","iframe_src":"//5322.svetacdn.in/si4jsFRrtgrT/tv-series/5237"},{"id":5233,"title":"Желание","kp_id":"467955","imdb_id":"tt0401923","world_art_id":null,"type":"serial","add":"2019-09-18 04:30:38","orig_title":"El Deseo","year":"2004-04-19","translations":["Любительский (одноголосый закадровый)"],"seasons_count":1,"episodes_count":11,"episodes":11,"update":"2019-09-18 10:21:35","iframe_src":"//5322.svetacdn.in/si4jsFRrtgrT/tv-series/5233"},{"id":5232,"title":"Возвращение Мухтара 9","kp_id":"796873","imdb_id":"tt4124210","world_art_id":null,"type":"serial","add":"2019-09-17 20:17:24","orig_title":"Vozvrashchenie Mukhtara 9","year":"2014-02-03","translations":["Оригинальная дорожка"],"seasons_count":1,"episodes_count":96,"episodes":96,"update":"2019-09-19 06:23:11","iframe_src":"//5322.svetacdn.in/si4jsFRrtgrT/tv-series/5232"},{"id":5230,"title":"Герои Энвелла","kp_id":"1072974","imdb_id":"tt7520722","world_art_id":null,"type":"serial","add":"2019-09-17 13:09:38","orig_title":"Heroes of Envell","year":"2017-09-15","translations":["Оригинальная дорожка"],"seasons_count":1,"episodes_count":26,"episodes":26,"update":"2019-09-19 08:02:15","iframe_src":"//5322.svetacdn.in/si4jsFRrtgrT/tv-series/5230"},{"id":5228,"title":"Обратная сторона любви","kp_id":"1112987","imdb_id":"tt10033916","world_art_id":null,"type":"serial","add":"2019-09-17 12:57:53","orig_title":"Obratnaya storona lyubvi","year":"2018-03-17","translations":["Оригинальная дорожка"],"seasons_count":1,"episodes_count":2,"episodes":2,"update":"2019-09-19 11:06:09","iframe_src":"//5322.svetacdn.in/si4jsFRrtgrT/tv-series/5228"},{"id":5227,"title":"Любовь по-японски","kp_id":"1097462","imdb_id":null,"world_art_id":null,"type":"serial","add":"2019-09-17 12:55:16","orig_title":"Любовь по-японски","year":"2018-05-04","translations":["Оригинальная дорожка"],"seasons_count":1,"episodes_count":2,"episodes":2,"update":"2019-09-19 11:04:03","iframe_src":"//5322.svetacdn.in/si4jsFRrtgrT/tv-series/5227"},{"id":5225,"title":"Ген высоты, или как пройти на Эверест","kp_id":"1045927","imdb_id":null,"world_art_id":null,"type":"serial","add":"2019-09-17 12:47:59","orig_title":"Ген высоты, или как пройти на Эверест","year":"2017-01-01","translations":["Оригинальная дорожка"],"seasons_count":1,"episodes_count":3,"episodes":3,"update":"2019-09-19 07:18:09","iframe_src":"//5322.svetacdn.in/si4jsFRrtgrT/tv-series/5225"},{"id":5224,"title":"Шекспир на новый лад","kp_id":"420095","imdb_id":"tt1062205","world_art_id":null,"type":"serial","add":"2019-09-17 11:35:29","orig_title":"ShakespeaRe-Told","year":"2005-11-07","translations":["Профессиональный (многоголосый закадровый) (ТВ3)"],"seasons_count":1,"episodes_count":4,"episodes":4,"update":"2019-09-19 11:01:12","iframe_src":"//5322.svetacdn.in/si4jsFRrtgrT/tv-series/5224"},{"id":5223,"title":"Облом","kp_id":"1142593","imdb_id":"tt7320300","world_art_id":null,"type":"serial","add":"2019-09-17 11:28:00","orig_title":"The Letdown","year":"2017-10-25","translations":["Любительский (многоголосый закадровый) (ColdFilm)","Профессиональный (многоголосый закадровый) (BaibaKo)"],"seasons_count":1,"episodes_count":7,"episodes":7,"update":"2019-09-19 10:57:27","iframe_src":"//5322.svetacdn.in/si4jsFRrtgrT/tv-series/5223"},{"id":5222,"title":"Возвращение Мухтара 8","kp_id":"717058","imdb_id":"tt4124218","world_art_id":null,"type":"serial","add":"2019-09-17 11:25:48","orig_title":"Vozvrashchenie Mukhtara 8","year":"2012-01-01","translations":["Оригинальная дорожка"],"seasons_count":1,"episodes_count":96,"episodes":96,"update":"2019-09-17 20:09:45","iframe_src":"//5322.svetacdn.in/si4jsFRrtgrT/tv-series/5222"},{"id":5217,"title":"Школа","kp_id":"493098","imdb_id":"tt1585899","world_art_id":null,"type":"serial","add":"2019-09-17 06:58:09","orig_title":"Shkola","year":"2010-01-11","translations":["Оригинальная дорожка"],"seasons_count":1,"episodes_count":69,"episodes":69,"update":"2019-09-20 11:35:06","iframe_src":"//5322.svetacdn.in/si4jsFRrtgrT/tv-series/5217"},{"id":5216,"title":"Чемпион","kp_id":"1277590","imdb_id":"tt10476544","world_art_id":null,"type":"serial","add":"2019-09-17 06:28:15","orig_title":"Sampiyon","year":"2019-09-12","translations":["Любительский (одноголосый закадровый)"],"seasons_count":1,"episodes_count":1,"episodes":1,"update":"2019-09-18 07:29:35","iframe_src":"//5322.svetacdn.in/si4jsFRrtgrT/tv-series/5216"},{"id":5215,"title":"Трансформеры: Кибертрон","kp_id":"431152","imdb_id":"tt0472252","world_art_id":null,"type":"serial","add":"2019-09-17 05:12:44","orig_title":"Transformers: Cybertron","year":"2005-01-08","translations":["Полное дублирование"],"seasons_count":1,"episodes_count":52,"episodes":52,"update":"2019-09-18 07:38:13","iframe_src":"//5322.svetacdn.in/si4jsFRrtgrT/tv-series/5215"},{"id":5208,"title":"Осадок","kp_id":"1044394","imdb_id":"tt4568372","world_art_id":null,"type":"serial","add":"2019-09-16 12:32:44","orig_title":"Residue","year":"2015-03-31","translations":["Профессиональный (двухголосый закадровый) (ViruseProject)","Любительский (многоголосый закадровый) (Hamster Studio)"],"seasons_count":1,"episodes_count":3,"episodes":3,"update":"2019-09-18 07:47:12","iframe_src":"//5322.svetacdn.in/si4jsFRrtgrT/tv-series/5208"},{"id":5202,"title":"Роковое наследство","kp_id":"422958","imdb_id":"tt0138257","world_art_id":null,"type":"serial","add":"2019-09-16 09:39:26","orig_title":"O Rei do Gado","year":"1996-08-17","translations":["Профессиональный (многоголосый закадровый)"],"seasons_count":1,"episodes_count":130,"episodes":130,"update":"2019-09-18 05:45:49","iframe_src":"//5322.svetacdn.in/si4jsFRrtgrT/tv-series/5202"},{"id":4996,"title":"Класс врунов","kp_id":"1256284","imdb_id":"tt10467640","world_art_id":null,"type":"serial","add":"2019-08-06 09:38:15","orig_title":"Miseuteo Giganje","year":"2019-07-17","translations":["Любительский (многоголосый закадровый)","Любительский (двухголосый закадровый)"],"seasons_count":1,"episodes_count":16,"episodes":16,"update":"2019-09-19 21:35:09","iframe_src":"//5322.svetacdn.in/si4jsFRrtgrT/tv-series/4996"},{"id":25347,"title":"Версия полковника Зорина","kp_id":"45731","imdb_id":"tt0314841","world_art_id":null,"type":"movie","add":"2019-04-26 07:58:49","orig_title":"Versiya polkovnika Zorina","year":"1979-06-30","translations":["Оригинальная дорожка"],"quality":"hdtv","translation":"Оригинальная дорожка","update":"2020-12-04 13:54:57","iframe_src":"//5322.svetacdn.in/si4jsFRrtgrT/movie/25347"},{"id":24929,"title":"Журавушка","kp_id":"45350","imdb_id":"tt0063838","world_art_id":null,"type":"movie","add":"2019-04-20 20:00:37","orig_title":"Zhuravushka","year":"1969-04-07","translations":["Оригинальная дорожка"],"quality":"webdl","translation":"Оригинальная дорожка","update":"2020-12-04 13:50:22","iframe_src":"//5322.svetacdn.in/si4jsFRrtgrT/movie/24929"},{"id":4135,"title":"Вредитель","kp_id":"1166515","imdb_id":"tt8292872","world_art_id":null,"type":"serial","add":"2019-02-22 15:05:17","orig_title":"Vermin","year":"2018-04-09","translations":["Любительский (двухголосый закадровый) (NewStation)"],"seasons_count":1,"episodes_count":10,"episodes":10,"update":"2019-09-18 07:43:21","iframe_src":"//5322.svetacdn.in/si4jsFRrtgrT/tv-series/4135"}],"current_page":326,"first_page_url":"https://videocdn.tv/api/short?limit=100&api_token=X6EwAUfE5M9xbo7y0Bp0aPf3uXxG2KLL&cache3326=3326&page=1","from":32501,"last_page":621,"last_page_url":"https://videocdn.tv/api/short?limit=100&api_token=X6EwAUfE5M9xbo7y0Bp0aPf3uXxG2KLL&cache3326=3326&page=621","next_page_url":"https://videocdn.tv/api/short?limit=100&api_token=X6EwAUfE5M9xbo7y0Bp0aPf3uXxG2KLL&cache3326=3326&page=327","path":"https://videocdn.tv/api/short","per_page":100,"prev_page_url":"https://videocdn.tv/api/short?limit=100&api_token=X6EwAUfE5M9xbo7y0Bp0aPf3uXxG2KLL&cache3326=3326&page=325","to":32540,"total":62040}