{"result":true,"data":[{"id":54226,"title":"Планета Дюна","kp_id":"4545942","imdb_id":"tt15331462","world_art_id":null,"type":"movie","add":"2021-10-30 16:23:14","orig_title":"Planet Dune","year":"2021-10-29","translations":["Любительский (многоголосый закадровый) (AlphaProject)"],"quality":"webdl","translation":"Любительский (многоголосый закадровый) (AlphaProject)","update":"2021-10-30 22:19:49","iframe_src":"//8965.svetacdn.in/IAF0wWTdNYZm/movie/54226"},{"id":54224,"title":"Былые деньки","kp_id":"1298690","imdb_id":"tt8045592","world_art_id":null,"type":"movie","add":"2021-10-30 16:18:35","orig_title":"Later Days","year":"2021-03-20","translations":["Любительский (многоголосый закадровый) (AlphaProject)"],"quality":"webdl","translation":"Любительский (многоголосый закадровый) (AlphaProject)","update":"2021-10-30 22:24:01","iframe_src":"//8965.svetacdn.in/IAF0wWTdNYZm/movie/54224"},{"id":54222,"title":"Счёт 40 - любовь","kp_id":"1317905","imdb_id":"tt11166512","world_art_id":null,"type":"movie","add":"2021-10-30 16:13:52","orig_title":"Love-40","year":"2021-01-01","translations":["Любительский (многоголосый закадровый) (Синема УС)"],"quality":"webdl","translation":"Любительский (многоголосый закадровый) (Синема УС)","update":"2021-10-30 22:23:21","iframe_src":"//8965.svetacdn.in/IAF0wWTdNYZm/movie/54222"},{"id":54220,"title":"Трюк","kp_id":"4501341","imdb_id":"tt14876294","world_art_id":null,"type":"movie","add":"2021-10-30 16:03:18","orig_title":"The Trick","year":"2021-01-01","translations":["Любительский (многоголосый закадровый) (Синема УС)"],"quality":"webdl","translation":"Любительский (многоголосый закадровый) (Синема УС)","update":"2021-10-30 22:14:56","iframe_src":"//8965.svetacdn.in/IAF0wWTdNYZm/movie/54220"},{"id":54219,"title":"Проснись и пой, Бенедикт Стоун","kp_id":"4510903","imdb_id":"tt14940196","world_art_id":null,"type":"movie","add":"2021-10-30 16:01:12","orig_title":"Rise and Shine, Benedict Stone","year":"2021-09-26","translations":["Любительский (многоголосый закадровый) (AlphaProject)"],"quality":"webdl","translation":"Любительский (многоголосый закадровый) (AlphaProject)","update":"2021-10-30 22:11:07","iframe_src":"//8965.svetacdn.in/IAF0wWTdNYZm/movie/54219"},{"id":54218,"title":"Локильо: Другой я","kp_id":"4522643","imdb_id":"tt14585902","world_art_id":null,"type":"movie","add":"2021-10-30 15:50:57","orig_title":"Lokillo en: Mi Otra Yo","year":"2021-06-01","translations":["Любительский (многоголосый закадровый) (AlphaProject)"],"quality":"webdl","translation":"Любительский (многоголосый закадровый) (AlphaProject)","update":"2021-10-30 22:22:17","iframe_src":"//8965.svetacdn.in/IAF0wWTdNYZm/movie/54218"},{"id":54216,"title":"Убивая Элеанор","kp_id":"1198355","imdb_id":"tt6508740","world_art_id":null,"type":"movie","add":"2021-10-30 15:44:44","orig_title":"Killing Eleanor","year":"2020-10-29","translations":["Любительский (многоголосый закадровый) (AlphaProject)"],"quality":"webdl","translation":"Любительский (многоголосый закадровый) (AlphaProject)","update":"2021-10-30 22:25:36","iframe_src":"//8965.svetacdn.in/IAF0wWTdNYZm/movie/54216"},{"id":54206,"title":"Покажи мне призрака","kp_id":"4522318","imdb_id":"tt15220262","world_art_id":null,"type":"movie","add":"2021-10-30 07:37:52","orig_title":"Syomideogoseuteu","year":"2021-07-10","translations":["Любительский (многоголосый закадровый) (Head Pack Films)"],"quality":"webdl","translation":"Любительский (многоголосый закадровый) (Head Pack Films)","update":"2021-10-30 14:58:13","iframe_src":"//8965.svetacdn.in/IAF0wWTdNYZm/movie/54206"},{"id":54205,"title":"Раскрашенная кожа","kp_id":"4536380","imdb_id":null,"world_art_id":null,"type":"movie","add":"2021-10-30 07:18:14","orig_title":"Hua pi","year":"2020-11-16","translations":["Любительский (одноголосый закадровый) (Seoul Bay)"],"quality":"webdl","translation":"Любительский (одноголосый закадровый) (Seoul Bay)","update":"2021-10-30 14:59:54","iframe_src":"//8965.svetacdn.in/IAF0wWTdNYZm/movie/54205"},{"id":54199,"title":"Лорды Флэтбуша","kp_id":"4027","imdb_id":"tt0071772","world_art_id":null,"type":"movie","add":"2021-10-29 20:17:39","orig_title":"The Lords of Flatbush","year":"1974-03-27","translations":["Профессиональный (двухголосый закадровый) (НТВ)"],"quality":"webdl","translation":"Профессиональный (двухголосый закадровый) (НТВ)","update":"2021-10-30 15:10:42","iframe_src":"//8965.svetacdn.in/IAF0wWTdNYZm/movie/54199"},{"id":54167,"title":"Образ жизни","kp_id":"507900","imdb_id":"tt1633159","world_art_id":null,"type":"movie","add":"2021-10-27 10:53:12","orig_title":"Ada... A Way of Life","year":"2010-12-31","translations":["Профессиональный (многоголосый закадровый) (Bollywood HD)"],"quality":"hdtv","translation":"Профессиональный (многоголосый закадровый) (Bollywood HD)","update":"2021-10-30 11:14:33","iframe_src":"//8965.svetacdn.in/IAF0wWTdNYZm/movie/54167"},{"id":53414,"title":"Иван Денисович","kp_id":"1219003","imdb_id":"tt15225256","world_art_id":null,"type":"movie","add":"2021-09-26 19:11:04","orig_title":"Ivan Denisovich","year":"2021-08-13","translations":["Оригинальная дорожка"],"quality":"webdl","translation":"Оригинальная дорожка","update":"2021-10-30 14:57:04","iframe_src":"//8965.svetacdn.in/IAF0wWTdNYZm/movie/53414"},{"id":52665,"title":"Испытание любовью","kp_id":"94825","imdb_id":"tt0385782","world_art_id":null,"type":"movie","add":"2021-08-26 08:03:54","orig_title":"Inteha","year":"2003-10-24","translations":["Профессиональный (двухголосый закадровый) (Арена)","Профессиональный (многоголосый закадровый) (Bollywood HD)"],"quality":"dvdrip","translation":"Профессиональный (двухголосый закадровый) (Арена)","update":"2021-10-30 11:16:07","iframe_src":"//8965.svetacdn.in/IAF0wWTdNYZm/movie/52665"},{"id":51502,"title":"Проклятый чиновник","kp_id":"4411309","imdb_id":"tt14402530","world_art_id":null,"type":"movie","add":"2021-07-01 07:20:28","orig_title":"Proklyatyy chinovnik","year":"2021-06-25","translations":["Оригинальная дорожка"],"quality":"webdl","translation":"Оригинальная дорожка","update":"2021-10-30 14:54:43","iframe_src":"//8965.svetacdn.in/IAF0wWTdNYZm/movie/51502"},{"id":48882,"title":"По следам козы","kp_id":"4441366","imdb_id":"tt14111726","world_art_id":null,"type":"movie","add":"2021-03-18 19:55:13","orig_title":"Cabras da Peste","year":"2021-03-18","translations":["Любительский (двухголосый закадровый) (OnisFilms)","Любительский (многоголосый закадровый) (Синема УС)","Любительский (многоголосый закадровый) (Синема УС)","Профессиональный (двухголосый закадровый) (ViruseProject)"],"quality":"webdl","translation":"Любительский (двухголосый закадровый) (OnisFilms)","update":"2021-10-30 15:01:40","iframe_src":"//8965.svetacdn.in/IAF0wWTdNYZm/movie/48882"},{"id":7987,"title":"Операция «Кобра»","kp_id":"1066296","imdb_id":"tt6795580","world_art_id":null,"type":"serial","add":"2020-06-24 11:49:31","orig_title":"Operation Cobra","year":"2019-02-15","translations":["Любительский (многоголосый закадровый) (Octopus)"],"seasons_count":1,"episodes_count":6,"episodes":6,"update":"2020-06-24 12:55:23","iframe_src":"//8965.svetacdn.in/IAF0wWTdNYZm/tv-series/7987"},{"id":7981,"title":"Взрослая Вэнсдэй Аддамс","kp_id":"934108","imdb_id":"tt3488236","world_art_id":null,"type":"serial","add":"2020-06-23 20:31:16","orig_title":"Adult Wednesday","year":"2013-09-25","translations":["Любительский (многоголосый закадровый) (Black Street Records)"],"seasons_count":2,"episodes_count":13,"episodes":7,"update":"2020-06-24 14:07:18","iframe_src":"//8965.svetacdn.in/IAF0wWTdNYZm/tv-series/7981"},{"id":7979,"title":"Русская наследница","kp_id":"661078","imdb_id":"tt4102308","world_art_id":null,"type":"serial","add":"2020-06-23 17:16:11","orig_title":"Russkaya naslednitsa","year":"2012-08-16","translations":["Оригинальная дорожка"],"seasons_count":1,"episodes_count":8,"episodes":8,"update":"2020-06-23 20:11:30","iframe_src":"//8965.svetacdn.in/IAF0wWTdNYZm/tv-series/7979"},{"id":7978,"title":"Роковая музыка","kp_id":"295729","imdb_id":"tt0159914","world_art_id":null,"type":"serial","add":"2020-06-23 10:03:55","orig_title":"Soul Music","year":"1997-05-01","translations":["Профессиональный (многоголосый закадровый) (2x2)"],"seasons_count":1,"episodes_count":7,"episodes":7,"update":"2020-06-24 16:01:40","iframe_src":"//8965.svetacdn.in/IAF0wWTdNYZm/tv-series/7978"},{"id":7977,"title":"Расписание судеб","kp_id":"356652","imdb_id":"tt0984637","world_art_id":null,"type":"serial","add":"2020-06-23 09:59:09","orig_title":"Raspisanie sudeb","year":"2009-11-19","translations":["Оригинальная дорожка"],"seasons_count":1,"episodes_count":12,"episodes":12,"update":"2020-06-24 15:50:16","iframe_src":"//8965.svetacdn.in/IAF0wWTdNYZm/tv-series/7977"},{"id":7976,"title":"Пропавшие без вести","kp_id":"1207880","imdb_id":"tt9204160","world_art_id":null,"type":"serial","add":"2020-06-22 19:27:24","orig_title":"Desaparecidos","year":"2020-06-19","translations":["Профессиональный (двухголосый закадровый) (IdeaFilm)"],"seasons_count":1,"episodes_count":13,"episodes":13,"update":"2020-06-24 13:19:11","iframe_src":"//8965.svetacdn.in/IAF0wWTdNYZm/tv-series/7976"},{"id":7970,"title":"Незнакомка из Уайлдфелл-Холла","kp_id":"94269","imdb_id":"tt0115387","world_art_id":null,"type":"serial","add":"2020-06-22 06:56:51","orig_title":"The Tenant of Wildfell Hall","year":"1996-11-17","translations":["Профессиональный (многоголосый закадровый) (Кармен Видео)"],"seasons_count":1,"episodes_count":3,"episodes":3,"update":"2020-06-23 19:13:53","iframe_src":"//8965.svetacdn.in/IAF0wWTdNYZm/tv-series/7970"},{"id":7954,"title":"Зимнее Солнце","kp_id":"1007041","imdb_id":"tt7180934","world_art_id":null,"type":"serial","add":"2020-06-19 12:00:07","orig_title":"Kış Güneşi","year":"2016-02-23","translations":["Авторский (одноголосый закадровый) (Котова Ирина)"],"seasons_count":1,"episodes_count":18,"episodes":18,"update":"2020-06-24 17:49:55","iframe_src":"//8965.svetacdn.in/IAF0wWTdNYZm/tv-series/7954"},{"id":7953,"title":"Карлос","kp_id":"517982","imdb_id":"tt1321865","world_art_id":null,"type":"serial","add":"2020-06-19 10:30:28","orig_title":"Carlos","year":"2010-05-19","translations":["Профессиональный (многоголосый закадровый) (Первый канал | ОРТ)"],"seasons_count":1,"episodes_count":3,"episodes":3,"update":"2020-06-24 17:21:20","iframe_src":"//8965.svetacdn.in/IAF0wWTdNYZm/tv-series/7953"},{"id":7949,"title":"Вероника. Беглянка","kp_id":"728119","imdb_id":"tt4083506","world_art_id":null,"type":"serial","add":"2020-06-19 02:47:59","orig_title":"Veronika. Beglyanka","year":"2013-03-11","translations":["Оригинальная дорожка"],"seasons_count":1,"episodes_count":16,"episodes":16,"update":"2020-06-24 11:01:11","iframe_src":"//8965.svetacdn.in/IAF0wWTdNYZm/tv-series/7949"},{"id":7947,"title":"Гиппократ","kp_id":"1217006","imdb_id":"tt9350920","world_art_id":null,"type":"serial","add":"2020-06-18 20:46:17","orig_title":"Hippocrate","year":"2018-11-26","translations":["Любительский (многоголосый закадровый) (Octopus)"],"seasons_count":1,"episodes_count":8,"episodes":8,"update":"2020-06-23 15:08:44","iframe_src":"//8965.svetacdn.in/IAF0wWTdNYZm/tv-series/7947"},{"id":7945,"title":"УГРО 5","kp_id":"790963","imdb_id":null,"world_art_id":null,"type":"serial","add":"2020-06-18 16:22:13","orig_title":"УГРО 5","year":"2014-06-22","translations":["Оригинальная дорожка"],"seasons_count":1,"episodes_count":24,"episodes":24,"update":"2020-06-23 19:42:00","iframe_src":"//8965.svetacdn.in/IAF0wWTdNYZm/tv-series/7945"},{"id":7944,"title":"УГРО 4","kp_id":"628889","imdb_id":null,"world_art_id":null,"type":"serial","add":"2020-06-18 16:10:10","orig_title":"УГРО 4","year":"2012-11-19","translations":["Оригинальная дорожка"],"seasons_count":1,"episodes_count":24,"episodes":24,"update":"2020-06-23 20:07:33","iframe_src":"//8965.svetacdn.in/IAF0wWTdNYZm/tv-series/7944"},{"id":7862,"title":"Люби меня таким","kp_id":"793904","imdb_id":"tt2735500","world_art_id":null,"type":"serial","add":"2020-06-14 12:48:38","orig_title":"Beni Böyle Sev","year":"2013-02-11","translations":["Профессиональный (многоголосый закадровый) (Мобильное телевидение)"],"seasons_count":3,"episodes_count":89,"episodes":26,"update":"2020-06-24 16:49:21","iframe_src":"//8965.svetacdn.in/IAF0wWTdNYZm/tv-series/7862"},{"id":7840,"title":"В густом лесу","kp_id":"590631","imdb_id":"tt1910645","world_art_id":null,"type":"serial","add":"2020-06-12 12:10:01","orig_title":"The Woods","year":"2020-06-12","translations":["Любительский (многоголосый закадровый) (ColdFilm)","Любительский (многоголосый закадровый) (Octopus)","Профессиональный (двухголосый закадровый) (IdeaFilm)","Профессиональный (многоголосый закадровый) (NewStudio)","Профессиональный (двухголосый закадровый) (ViruseProject)"],"seasons_count":1,"episodes_count":6,"episodes":6,"update":"2020-06-24 15:29:30","iframe_src":"//8965.svetacdn.in/IAF0wWTdNYZm/tv-series/7840"},{"id":7519,"title":"Белые линии","kp_id":"1280210","imdb_id":"tt9073958","world_art_id":null,"type":"serial","add":"2020-05-15 10:04:52","orig_title":"White Lines","year":"2020-05-15","translations":["Любительский (многоголосый закадровый) (ColdFilm)","Полное дублирование (SDI Media | Iyuno-SDI Group Russia)","Любительский (многоголосый закадровый) (Octopus)","Профессиональный (многоголосый закадровый) (NewStudio)","Любительский (многоголосый закадровый) (Синема УС)"],"seasons_count":1,"episodes_count":10,"episodes":10,"update":"2020-06-24 15:24:36","iframe_src":"//8965.svetacdn.in/IAF0wWTdNYZm/tv-series/7519"},{"id":7436,"title":"Безжалостный","kp_id":"1326877","imdb_id":"tt11306366","world_art_id":null,"type":"serial","add":"2020-05-07 20:50:01","orig_title":"Ruthless","year":"2020-03-19","translations":["Любительский (многоголосый закадровый) (Octopus)"],"seasons_count":1,"episodes_count":12,"episodes":12,"update":"2020-06-24 14:24:28","iframe_src":"//8965.svetacdn.in/IAF0wWTdNYZm/tv-series/7436"},{"id":7348,"title":"Кодекс чести","kp_id":"414562","imdb_id":"tt3803976","world_art_id":null,"type":"serial","add":"2020-04-30 07:46:32","orig_title":"Kodeks chesti","year":"2002-02-01","translations":["Оригинальная дорожка"],"seasons_count":7,"episodes_count":133,"episodes":32,"update":"2020-06-24 17:04:03","iframe_src":"//8965.svetacdn.in/IAF0wWTdNYZm/tv-series/7348"},{"id":38718,"title":"Индраджит","kp_id":"78493","imdb_id":"tt0102119","world_art_id":null,"type":"movie","add":"2020-03-30 23:40:07","orig_title":"Indrajeet","year":"1991-08-02","translations":["Профессиональный (многоголосый закадровый) (Bollywood HD)"],"quality":"hdtv","translation":"Профессиональный (многоголосый закадровый) (Bollywood HD)","update":"2021-10-30 11:15:10","iframe_src":"//8965.svetacdn.in/IAF0wWTdNYZm/movie/38718"},{"id":36793,"title":"В тени прошлого","kp_id":"95428","imdb_id":"tt0301215","world_art_id":null,"type":"movie","add":"2020-02-23 16:44:34","orig_title":"Doosara Aadmi","year":"1977-10-14","translations":["Профессиональный (многоголосый закадровый) (Red Media)","Профессиональный (многоголосый закадровый) (Red Media)"],"quality":"dvdrip","translation":"Профессиональный (многоголосый закадровый) (Red Media)","update":"2021-10-30 11:15:31","iframe_src":"//8965.svetacdn.in/IAF0wWTdNYZm/movie/36793"},{"id":6603,"title":"Центральный Багдад","kp_id":"1198734","imdb_id":"tt7411098","world_art_id":null,"type":"serial","add":"2020-02-10 05:32:48","orig_title":"Baghdad Central","year":"2020-02-03","translations":["Любительский (многоголосый закадровый) (ColdFilm)","Профессиональный (многоголосый закадровый) (TVShows)","Профессиональный (многоголосый закадровый) (Кириллица)"],"seasons_count":1,"episodes_count":6,"episodes":6,"update":"2020-06-24 14:14:16","iframe_src":"//8965.svetacdn.in/IAF0wWTdNYZm/tv-series/6603"},{"id":27735,"title":"Хрустальное небо вчерашнего дня","kp_id":"1114960","imdb_id":"tt8161726","world_art_id":null,"type":"movie","add":"2019-06-13 06:03:55","orig_title":"Zuo ri qing kong","year":"2018-07-21","translations":["Полное дублирование (iTunes)"],"quality":"webdl","translation":"Полное дублирование (iTunes)","update":"2021-10-30 15:12:04","iframe_src":"//8965.svetacdn.in/IAF0wWTdNYZm/movie/27735"},{"id":19835,"title":"Остров монстров","kp_id":"1145767","imdb_id":"tt7615722","world_art_id":null,"type":"movie","add":"2018-10-28 21:46:31","orig_title":"Legend of Hallowaiian","year":"2018-09-20","translations":["Профессиональный (многоголосый закадровый) (iTunes)"],"quality":"webdl","translation":"Профессиональный (многоголосый закадровый) (iTunes)","update":"2021-10-30 15:09:01","iframe_src":"//8965.svetacdn.in/IAF0wWTdNYZm/movie/19835"},{"id":19433,"title":"Восход Marvel: Тайные воины","kp_id":"1112802","imdb_id":"tt7728344","world_art_id":null,"type":"movie","add":"2018-10-07 21:27:27","orig_title":"Marvel Rising: Secret Warriors","year":"2018-09-30","translations":["Полное дублирование"],"quality":"webdl","translation":"Полное дублирование","update":"2021-10-30 15:02:41","iframe_src":"//8965.svetacdn.in/IAF0wWTdNYZm/movie/19433"},{"id":441,"title":"Вечность","kp_id":"823594","imdb_id":"tt3487382","world_art_id":null,"type":"serial","add":"2016-09-15 04:20:43","orig_title":"Forever","year":"2014-09-22","translations":["Профессиональный (многоголосый закадровый) (LostFilm)","Профессиональный (многоголосый закадровый) (AlexFilm)","Профессиональный (многоголосый закадровый) (TVShows)","Полное дублирование (ТВ3)","Профессиональный (многоголосый закадровый) (NewStudio)"],"seasons_count":1,"episodes_count":22,"episodes":22,"update":"2020-06-24 16:53:32","iframe_src":"//8965.svetacdn.in/IAF0wWTdNYZm/tv-series/441"}],"current_page":306,"first_page_url":"https://videocdn.tv/api/short?limit=100&api_token=6Onb1W1alEUrBcKJZD3GoKBbWyAl2uG2&cache3306=3306&page=1","from":30501,"last_page":710,"last_page_url":"https://videocdn.tv/api/short?limit=100&api_token=6Onb1W1alEUrBcKJZD3GoKBbWyAl2uG2&cache3306=3306&page=710","next_page_url":"https://videocdn.tv/api/short?limit=100&api_token=6Onb1W1alEUrBcKJZD3GoKBbWyAl2uG2&cache3306=3306&page=307","path":"https://videocdn.tv/api/short","per_page":100,"prev_page_url":"https://videocdn.tv/api/short?limit=100&api_token=6Onb1W1alEUrBcKJZD3GoKBbWyAl2uG2&cache3306=3306&page=305","to":30540,"total":70977}