{"result":true,"data":[{"id":40217,"title":"Порт","kp_id":"1164113","imdb_id":"tt8529772","world_art_id":null,"type":"movie","add":"2020-05-08 20:30:17","orig_title":"Port","year":"2019-11-19","translations":["Оригинальная дорожка"],"quality":"webdl","translation":"Оригинальная дорожка","update":"2020-05-09 07:33:02","iframe_src":"//83.svetacdn.in/PfJ50H0ZBPg3/movie/40217"},{"id":40215,"title":"Уходи, Джо!","kp_id":"959958","imdb_id":"tt4427800","world_art_id":null,"type":"movie","add":"2020-05-08 20:21:07","orig_title":"Walkaway Joe","year":"2020-05-08","translations":["Любительский (многоголосый закадровый) (Синема УС)"],"quality":"webdl","translation":"Любительский (многоголосый закадровый) (Синема УС)","update":"2020-05-09 07:33:59","iframe_src":"//83.svetacdn.in/PfJ50H0ZBPg3/movie/40215"},{"id":32735,"title":"Во славу тьмы?","kp_id":"1234826","imdb_id":"tt9358044","world_art_id":null,"type":"movie","add":"2019-11-05 18:22:29","orig_title":"Hail Satan?","year":"2019-01-25","translations":["Профессиональный (одноголосый закадровый) (Sound Film)","Профессиональный (многоголосый закадровый) (HDrezka Studio)"],"quality":"webdl","translation":"Профессиональный (одноголосый закадровый) (Sound Film)","update":"2020-05-08 14:58:07","iframe_src":"//83.svetacdn.in/PfJ50H0ZBPg3/movie/32735"},{"id":28969,"title":"Искусство обмана","kp_id":"1089131","imdb_id":"tt7558302","world_art_id":null,"type":"movie","add":"2019-07-13 20:17:01","orig_title":"Lying and Stealing","year":"2019-03-21","translations":["Полное дублирование","[EN] Original (English)","Профессиональный (многоголосый закадровый) (HDrezka Studio)"],"quality":"bd","translation":"Полное дублирование","update":"2020-05-08 19:34:45","iframe_src":"//83.svetacdn.in/PfJ50H0ZBPg3/movie/28969"},{"id":24792,"title":"Нигерийский принц","kp_id":"1084996","imdb_id":"tt6851966","world_art_id":null,"type":"movie","add":"2019-04-17 21:50:55","orig_title":"Nigerian Prince","year":"2018-04-24","translations":["Любительский (многоголосый закадровый) (Синема УС)","Профессиональный (многоголосый закадровый) (HDrezka Studio)"],"quality":"webdl","translation":"Любительский (многоголосый закадровый) (Синема УС)","update":"2020-05-08 19:33:39","iframe_src":"//83.svetacdn.in/PfJ50H0ZBPg3/movie/24792"},{"id":24124,"title":"Сын Америки","kp_id":"1152519","imdb_id":"tt6566768","world_art_id":null,"type":"movie","add":"2019-04-08 21:55:22","orig_title":"Native Son","year":"2019-01-24","translations":["Профессиональный (многоголосый закадровый) (Amedia)","[EN] Original (English)","Профессиональный (многоголосый закадровый) (HDrezka Studio)"],"quality":"webdl","translation":"Профессиональный (многоголосый закадровый) (Amedia)","update":"2020-05-08 19:30:36","iframe_src":"//83.svetacdn.in/PfJ50H0ZBPg3/movie/24124"},{"id":23917,"title":"Счастливчик Пер","kp_id":"1152918","imdb_id":"tt8436026","world_art_id":null,"type":"movie","add":"2019-04-05 08:30:16","orig_title":"Lykke-Per","year":"2018-08-20","translations":["Любительский (многоголосый закадровый) (Синема УС)","Профессиональный (многоголосый закадровый) (HDrezka Studio)"],"quality":"bd","translation":"Любительский (многоголосый закадровый) (Синема УС)","update":"2020-05-08 15:33:54","iframe_src":"//83.svetacdn.in/PfJ50H0ZBPg3/movie/23917"},{"id":23698,"title":"Матриарх","kp_id":"1030429","imdb_id":"tt6301452","world_art_id":null,"type":"movie","add":"2019-03-30 19:28:35","orig_title":"Matriarch","year":"2018-10-28","translations":["Профессиональный (многоголосый закадровый) (HDrezka Studio)","Профессиональный (многоголосый закадровый) (HDrezka Studio)"],"quality":"bd","translation":"Профессиональный (многоголосый закадровый) (HDrezka Studio)","update":"2020-05-08 19:33:25","iframe_src":"//83.svetacdn.in/PfJ50H0ZBPg3/movie/23698"},{"id":23566,"title":"Нэнси Дрю и потайная лестница","kp_id":"1122157","imdb_id":"tt8323104","world_art_id":null,"type":"movie","add":"2019-03-27 21:29:38","orig_title":"Nancy Drew and the Hidden Staircase","year":"2019-03-15","translations":["Профессиональный (многоголосый закадровый) (HDrezka Studio)","[EN] Original (English)"],"quality":"bd","translation":"Профессиональный (многоголосый закадровый) (HDrezka Studio)","update":"2020-05-08 15:33:32","iframe_src":"//83.svetacdn.in/PfJ50H0ZBPg3/movie/23566"},{"id":23171,"title":"Не состарится","kp_id":"1209711","imdb_id":"tt1158939","world_art_id":null,"type":"movie","add":"2019-03-17 22:54:44","orig_title":"Never Grow Old","year":"2019-03-15","translations":["Профессиональный (многоголосый закадровый) (HDrezka Studio)"],"quality":"webdl","translation":"Профессиональный (многоголосый закадровый) (HDrezka Studio)","update":"2020-05-08 19:32:52","iframe_src":"//83.svetacdn.in/PfJ50H0ZBPg3/movie/23171"},{"id":22719,"title":"По половому признаку","kp_id":"1073213","imdb_id":"tt4669788","world_art_id":null,"type":"movie","add":"2019-03-05 03:23:32","orig_title":"On the Basis of Sex","year":"2018-11-08","translations":["Полное дублирование","Профессиональный (многоголосый закадровый) (HDrezka Studio)"],"quality":"webdl","translation":"Полное дублирование","update":"2020-05-08 19:35:31","iframe_src":"//83.svetacdn.in/PfJ50H0ZBPg3/movie/22719"},{"id":22651,"title":"Любовный выстрел","kp_id":"1106396","imdb_id":"tt7543072","world_art_id":null,"type":"movie","add":"2019-03-03 11:37:30","orig_title":"Love Shot","year":"2019-02-26","translations":["Любительский (многоголосый закадровый) (Синема УС)","Профессиональный (многоголосый закадровый) (HDrezka Studio)"],"quality":"webdl","translation":"Любительский (многоголосый закадровый) (Синема УС)","update":"2020-05-08 19:33:59","iframe_src":"//83.svetacdn.in/PfJ50H0ZBPg3/movie/22651"},{"id":22598,"title":"Мститель","kp_id":"756502","imdb_id":"tt2787302","world_art_id":null,"type":"movie","add":"2019-02-27 22:28:07","orig_title":"Message Man","year":"2018-02-19","translations":["Любительский (многоголосый закадровый) (Синема УС)","Профессиональный (многоголосый закадровый) (HDrezka Studio)","Полное дублирование","Профессиональный (многоголосый закадровый) (HDrezka Studio)"],"quality":"webdl","translation":"Любительский (многоголосый закадровый) (Синема УС)","update":"2020-05-08 19:31:38","iframe_src":"//83.svetacdn.in/PfJ50H0ZBPg3/movie/22598"},{"id":21261,"title":"Монстры и люди","kp_id":"1108868","imdb_id":"tt7689906","world_art_id":null,"type":"movie","add":"2019-01-05 19:51:09","orig_title":"Monsters and Men","year":"2018-01-19","translations":["Любительский (многоголосый закадровый) (Синема УС)","Любительский (двухголосый закадровый) (HiWayGrope)","Профессиональный (многоголосый закадровый) (HDrezka Studio)"],"quality":"bd","translation":"Любительский (многоголосый закадровый) (Синема УС)","update":"2020-05-08 19:38:36","iframe_src":"//83.svetacdn.in/PfJ50H0ZBPg3/movie/21261"},{"id":16981,"title":"С любовью, Саймон","kp_id":"1008770","imdb_id":"tt5164432","world_art_id":null,"type":"movie","add":"2018-05-31 07:58:28","orig_title":"Love, Simon","year":"2018-02-27","translations":["Любительский (многоголосый закадровый) (Синема УС)","Любительский (двухголосый закадровый) (HiWayGrope)","Профессиональный (многоголосый закадровый)","Профессиональный (многоголосый закадровый) (HDrezka Studio)"],"quality":"webdl","translation":"Любительский (многоголосый закадровый) (Синема УС)","update":"2020-05-08 19:35:46","iframe_src":"//83.svetacdn.in/PfJ50H0ZBPg3/movie/16981"},{"id":16788,"title":"Хорошего дня","kp_id":"1009034","imdb_id":"tt6451304","world_art_id":null,"type":"movie","add":"2018-05-15 06:05:20","orig_title":"Hao ji le","year":"2017-02-17","translations":["Любительский (многоголосый закадровый) (Колобок)","Профессиональный (многоголосый закадровый) (HDrezka Studio)"],"quality":"webdl","translation":"Любительский (многоголосый закадровый) (Колобок)","update":"2020-05-08 16:05:43","iframe_src":"//83.svetacdn.in/PfJ50H0ZBPg3/movie/16788"},{"id":16491,"title":"Неаполь под пеленой","kp_id":"1048129","imdb_id":"tt6892206","world_art_id":null,"type":"movie","add":"2018-04-26 22:22:04","orig_title":"Napoli velata","year":"2017-12-28","translations":["Любительский (многоголосый закадровый) (@MUZOBOZ@)","Профессиональный (многоголосый закадровый) (HDrezka Studio)"],"quality":"bd","translation":"Любительский (многоголосый закадровый) (@MUZOBOZ@)","update":"2020-05-08 19:38:40","iframe_src":"//83.svetacdn.in/PfJ50H0ZBPg3/movie/16491"},{"id":15850,"title":"Полночное солнце","kp_id":"924170","imdb_id":"tt4799066","world_art_id":null,"type":"movie","add":"2018-03-25 22:55:36","orig_title":"Midnight Sun","year":"2018-03-22","translations":["Полное дублирование","Профессиональный (многоголосый закадровый) (HDrezka Studio)"],"quality":"bd","translation":"Полное дублирование","update":"2020-05-08 19:32:30","iframe_src":"//83.svetacdn.in/PfJ50H0ZBPg3/movie/15850"},{"id":14390,"title":"Маршалл","kp_id":"955974","imdb_id":"tt5301662","world_art_id":null,"type":"movie","add":"2017-11-19 21:18:21","orig_title":"Marshall","year":"2017-09-20","translations":["Профессиональный (многоголосый закадровый) (iTunes)","Профессиональный (многоголосый закадровый) (HDrezka Studio)"],"quality":"bd","translation":"Профессиональный (многоголосый закадровый) (iTunes)","update":"2020-05-08 19:35:49","iframe_src":"//83.svetacdn.in/PfJ50H0ZBPg3/movie/14390"},{"id":9301,"title":"Опасная игра Слоун","kp_id":"933307","imdb_id":"tt4540710","world_art_id":null,"type":"movie","add":"2017-01-30 07:19:50","orig_title":"Miss Sloane","year":"2016-11-11","translations":["Любительский (многоголосый закадровый) (@MUZOBOZ@)","Любительский (двухголосый закадровый)","Профессиональный (многоголосый закадровый) (СВ-Студия)","Полное дублирование","Профессиональный (многоголосый закадровый) (HDrezka Studio)"],"quality":"webdl","translation":"Любительский (многоголосый закадровый) (@MUZOBOZ@)","update":"2020-05-08 19:36:25","iframe_src":"//83.svetacdn.in/PfJ50H0ZBPg3/movie/9301"}],"current_page":1209,"first_page_url":"https://videocdn.tv/api/short?limit=100&api_token=RgFQdUIR2dRmwv8iYa5SnFNgnw3vpjKj&cache31209=31209&page=1","from":120801,"last_page":719,"last_page_url":"https://videocdn.tv/api/short?limit=100&api_token=RgFQdUIR2dRmwv8iYa5SnFNgnw3vpjKj&cache31209=31209&page=719","next_page_url":null,"path":"https://videocdn.tv/api/short","per_page":100,"prev_page_url":"https://videocdn.tv/api/short?limit=100&api_token=RgFQdUIR2dRmwv8iYa5SnFNgnw3vpjKj&cache31209=31209&page=1208","to":120820,"total":71846}