{"result":true,"data":[{"id":24044,"title":"Карпатское золото","kp_id":"414670","imdb_id":"tt5827354","world_art_id":null,"type":"movie","add":"2019-04-07 21:01:43","orig_title":"Karpatskoye zoloto","year":"1991-01-01","translations":["Оригинальная дорожка"],"quality":"dvdrip","translation":"Оригинальная дорожка","update":"2019-04-09 07:27:18","iframe_src":"//83.svetacdn.in/PfJ50H0ZBPg3/movie/24044"},{"id":24043,"title":"Живи и помни","kp_id":"279229","imdb_id":"tt1285174","world_art_id":null,"type":"movie","add":"2019-04-07 20:54:37","orig_title":"Zhivi i pomni","year":"2009-06-13","translations":["Оригинальная дорожка"],"quality":"dvdrip","translation":"Оригинальная дорожка","update":"2019-04-09 07:26:30","iframe_src":"//83.svetacdn.in/PfJ50H0ZBPg3/movie/24043"},{"id":24042,"title":"Капитан Фракасс","kp_id":"409048","imdb_id":"tt1206203","world_art_id":null,"type":"movie","add":"2019-04-07 20:51:01","orig_title":"Kapitan Fracasse","year":"1984-01-01","translations":["Оригинальная дорожка"],"quality":"dvdrip","translation":"Оригинальная дорожка","update":"2019-04-09 07:25:34","iframe_src":"//83.svetacdn.in/PfJ50H0ZBPg3/movie/24042"},{"id":24041,"title":"Юбилей","kp_id":"418675","imdb_id":"tt2628814","world_art_id":null,"type":"movie","add":"2019-04-07 20:49:10","orig_title":"Yubiley","year":"2008-01-06","translations":["Оригинальная дорожка"],"quality":"dvdrip","translation":"Оригинальная дорожка","update":"2019-04-09 07:24:51","iframe_src":"//83.svetacdn.in/PfJ50H0ZBPg3/movie/24041"},{"id":24039,"title":"Холодное солнце","kp_id":"413476","imdb_id":"tt1364237","world_art_id":null,"type":"movie","add":"2019-04-07 20:38:01","orig_title":"Kholodnoe solntse","year":"2008-07-10","translations":["Оригинальная дорожка"],"quality":"dvdrip","translation":"Оригинальная дорожка","update":"2019-04-09 07:22:56","iframe_src":"//83.svetacdn.in/PfJ50H0ZBPg3/movie/24039"},{"id":24036,"title":"Имя","kp_id":"42596","imdb_id":"tt0307000","world_art_id":null,"type":"movie","add":"2019-04-07 20:29:39","orig_title":"Imya","year":"1988-01-01","translations":["Оригинальная дорожка"],"quality":"dvdrip","translation":"Оригинальная дорожка","update":"2019-04-09 07:21:52","iframe_src":"//83.svetacdn.in/PfJ50H0ZBPg3/movie/24036"},{"id":24035,"title":"Интервенция","kp_id":"42612","imdb_id":"tt0142405","world_art_id":null,"type":"movie","add":"2019-04-07 20:19:37","orig_title":"Interventsiya","year":"1987-05-10","translations":["Оригинальная дорожка"],"quality":"dvdrip","translation":"Оригинальная дорожка","update":"2019-04-09 07:20:56","iframe_src":"//83.svetacdn.in/PfJ50H0ZBPg3/movie/24035"},{"id":24034,"title":"Кислород","kp_id":"424962","imdb_id":"tt1441309","world_art_id":null,"type":"movie","add":"2019-04-07 20:06:49","orig_title":"Kislorod","year":"2009-07-08","translations":["Оригинальная дорожка"],"quality":"dvdrip","translation":"Оригинальная дорожка","update":"2019-04-09 07:19:54","iframe_src":"//83.svetacdn.in/PfJ50H0ZBPg3/movie/24034"},{"id":24033,"title":"Мертвые дочери","kp_id":"161083","imdb_id":"tt0477340","world_art_id":null,"type":"movie","add":"2019-04-07 19:59:52","orig_title":"Myortvye docheri","year":"2007-02-01","translations":["Оригинальная дорожка"],"quality":"dvdrip","translation":"Оригинальная дорожка","update":"2019-04-09 07:15:11","iframe_src":"//83.svetacdn.in/PfJ50H0ZBPg3/movie/24033"},{"id":24032,"title":"Первый после Бога","kp_id":"93006","imdb_id":"tt0430264","world_art_id":null,"type":"movie","add":"2019-04-07 19:25:33","orig_title":"Pervyy posle Boga","year":"2005-11-10","translations":["Оригинальная дорожка"],"quality":"dvdrip","translation":"Оригинальная дорожка","update":"2019-04-09 07:14:24","iframe_src":"//83.svetacdn.in/PfJ50H0ZBPg3/movie/24032"},{"id":24031,"title":"Свой парень","kp_id":"44061","imdb_id":"tt0072232","world_art_id":null,"type":"movie","add":"2019-04-07 18:51:40","orig_title":"Svoy paren","year":"1974-10-23","translations":["Оригинальная дорожка"],"quality":"dvdrip","translation":"Оригинальная дорожка","update":"2019-04-09 07:11:20","iframe_src":"//83.svetacdn.in/PfJ50H0ZBPg3/movie/24031"},{"id":24030,"title":"Ятинсотэстс","kp_id":"432571","imdb_id":"tt6354386","world_art_id":null,"type":"movie","add":"2019-04-07 17:59:58","orig_title":"Yatinsotests","year":"2004-12-09","translations":["Оригинальная дорожка"],"quality":"dvdrip","translation":"Оригинальная дорожка","update":"2019-04-09 07:09:16","iframe_src":"//83.svetacdn.in/PfJ50H0ZBPg3/movie/24030"},{"id":24029,"title":"Стрелы Робин Гуда","kp_id":"44009","imdb_id":"tt0075274","world_art_id":null,"type":"movie","add":"2019-04-07 17:43:13","orig_title":"Strely Robin Guda","year":"1976-06-14","translations":["Оригинальная дорожка"],"quality":"dvdrip","translation":"Оригинальная дорожка","update":"2019-04-09 07:07:58","iframe_src":"//83.svetacdn.in/PfJ50H0ZBPg3/movie/24029"},{"id":24028,"title":"Суворов","kp_id":"44040","imdb_id":"tt0033118","world_art_id":null,"type":"movie","add":"2019-04-07 17:31:03","orig_title":"Suvorov","year":"1941-01-23","translations":["Оригинальная дорожка"],"quality":"sat","translation":"Оригинальная дорожка","update":"2019-04-09 07:07:10","iframe_src":"//83.svetacdn.in/PfJ50H0ZBPg3/movie/24028"},{"id":24027,"title":"Телец","kp_id":"7647","imdb_id":"tt0283623","world_art_id":null,"type":"movie","add":"2019-04-07 17:20:36","orig_title":"Telets","year":"2001-02-24","translations":["Оригинальная дорожка"],"quality":"dvdrip","translation":"Оригинальная дорожка","update":"2019-04-09 06:51:37","iframe_src":"//83.svetacdn.in/PfJ50H0ZBPg3/movie/24027"},{"id":24026,"title":"Из ада в ад","kp_id":"69643","imdb_id":"tt0116368","world_art_id":null,"type":"movie","add":"2019-04-07 16:49:33","orig_title":"Iz ada v ad","year":"1997-01-01","translations":["Оригинальная дорожка"],"quality":"dvdrip","translation":"Оригинальная дорожка","update":"2019-04-09 06:48:35","iframe_src":"//83.svetacdn.in/PfJ50H0ZBPg3/movie/24026"},{"id":24025,"title":"Искушение","kp_id":"309407","imdb_id":"tt2195310","world_art_id":null,"type":"movie","add":"2019-04-07 16:47:49","orig_title":"Iskushenie","year":"2007-08-16","translations":["Оригинальная дорожка"],"quality":"dvdrip","translation":"Оригинальная дорожка","update":"2019-04-09 06:47:53","iframe_src":"//83.svetacdn.in/PfJ50H0ZBPg3/movie/24025"},{"id":24023,"title":"Иллюзия страха","kp_id":"421411","imdb_id":"tt1334009","world_art_id":null,"type":"movie","add":"2019-04-07 16:43:42","orig_title":"Illyuziya strakha","year":"2008-12-04","translations":["Оригинальная дорожка"],"quality":"dvdrip","translation":"Оригинальная дорожка","update":"2019-04-09 06:47:05","iframe_src":"//83.svetacdn.in/PfJ50H0ZBPg3/movie/24023"},{"id":24022,"title":"Настя","kp_id":"41543","imdb_id":"tt0107658","world_art_id":null,"type":"movie","add":"2019-04-07 16:14:57","orig_title":"Nastya","year":"1993-01-01","translations":["Оригинальная дорожка"],"quality":"dvdrip","translation":"Оригинальная дорожка","update":"2019-04-09 06:45:59","iframe_src":"//83.svetacdn.in/PfJ50H0ZBPg3/movie/24022"},{"id":7540,"title":"Пираты XX века","kp_id":"42978","imdb_id":"tt0151987","world_art_id":null,"type":"movie","add":"2016-11-21 09:14:04","orig_title":"Piraty XX veka","year":"1980-07-14","translations":["Оригинальная дорожка","Оригинальная дорожка"],"quality":"hdtv","translation":"Оригинальная дорожка","update":"2019-04-09 07:13:22","iframe_src":"//83.svetacdn.in/PfJ50H0ZBPg3/movie/7540"}],"current_page":1465,"first_page_url":"https://videocdn.tv/api/short?limit=100&api_token=RgFQdUIR2dRmwv8iYa5SnFNgnw3vpjKj&cache31465=31465&page=1","from":146401,"last_page":616,"last_page_url":"https://videocdn.tv/api/short?limit=100&api_token=RgFQdUIR2dRmwv8iYa5SnFNgnw3vpjKj&cache31465=31465&page=616","next_page_url":null,"path":"https://videocdn.tv/api/short","per_page":100,"prev_page_url":"https://videocdn.tv/api/short?limit=100&api_token=RgFQdUIR2dRmwv8iYa5SnFNgnw3vpjKj&cache31465=31465&page=1464","to":146420,"total":61523}