{"result":true,"data":[{"id":44286,"title":"Джинни выходит замуж за Санни","kp_id":"1280337","imdb_id":"tt10543680","world_art_id":null,"type":"movie","add":"2020-10-09 21:44:10","orig_title":"Ginny Weds Sunny","year":"2020-10-09","translations":["Любительский (многоголосый закадровый) (@MUZOBOZ@)"],"quality":"webdl","translation":"Любительский (многоголосый закадровый) (@MUZOBOZ@)","update":"2020-10-10 05:36:16","iframe_src":"//vc.doramasia.ru/si4jsFRrtgrT/movie/44286"},{"id":44267,"title":"Плохой президент","kp_id":"1292500","imdb_id":"tt10047958","world_art_id":null,"type":"movie","add":"2020-10-09 15:48:14","orig_title":"Bad President","year":"2021-01-01","translations":["Любительский (многоголосый закадровый) (@MUZOBOZ@)"],"quality":"webdl","translation":"Любительский (многоголосый закадровый) (@MUZOBOZ@)","update":"2020-10-09 20:53:37","iframe_src":"//vc.doramasia.ru/si4jsFRrtgrT/movie/44267"},{"id":44263,"title":"Сумасшедшая свадьба 2","kp_id":"1311277","imdb_id":"tt11000242","world_art_id":null,"type":"movie","add":"2020-10-09 15:31:52","orig_title":"Skazhene vesillya 2","year":"2019-12-25","translations":["Профессиональный (многоголосый закадровый)"],"quality":"webdl","translation":"Профессиональный (многоголосый закадровый)","update":"2020-10-09 20:54:44","iframe_src":"//vc.doramasia.ru/si4jsFRrtgrT/movie/44263"},{"id":44197,"title":"Рандеву в Чикаго","kp_id":null,"imdb_id":"tt8092490","world_art_id":null,"type":"movie","add":"2020-10-07 10:54:55","orig_title":"Rendezvous in Chicago","year":"2018-10-19","translations":["Любительский (многоголосый закадровый) (Синема УС)"],"quality":"webdl","translation":"Любительский (многоголосый закадровый) (Синема УС)","update":"2020-10-09 11:36:04","iframe_src":"//vc.doramasia.ru/si4jsFRrtgrT/movie/44197"},{"id":44196,"title":"Красные буквы","kp_id":"1220084","imdb_id":"tt9361810","world_art_id":null,"type":"movie","add":"2020-10-07 10:45:30","orig_title":"Red Letters","year":"2019-10-27","translations":["Любительский (многоголосый закадровый) (Синема УС)"],"quality":"webdl","translation":"Любительский (многоголосый закадровый) (Синема УС)","update":"2020-10-09 11:40:28","iframe_src":"//vc.doramasia.ru/si4jsFRrtgrT/movie/44196"},{"id":44194,"title":"Оцени свидание","kp_id":"1191971","imdb_id":"tt8898812","world_art_id":null,"type":"movie","add":"2020-10-07 10:42:14","orig_title":"Rate Your Date","year":"2019-03-07","translations":["Любительский (многоголосый закадровый) (@MUZOBOZ@)"],"quality":"bd","translation":"Любительский (многоголосый закадровый) (@MUZOBOZ@)","update":"2020-10-09 11:37:00","iframe_src":"//vc.doramasia.ru/si4jsFRrtgrT/movie/44194"},{"id":44193,"title":"Слово Пабло","kp_id":"979489","imdb_id":"tt5594352","world_art_id":null,"type":"movie","add":"2020-10-07 10:39:43","orig_title":"La Palabra de Pablo","year":"2018-08-24","translations":["Любительский (многоголосый закадровый) (Синема УС)"],"quality":"webdl","translation":"Любительский (многоголосый закадровый) (Синема УС)","update":"2020-10-09 11:39:07","iframe_src":"//vc.doramasia.ru/si4jsFRrtgrT/movie/44193"},{"id":44187,"title":"Девять пальцев","kp_id":"1007402","imdb_id":"tt6136188","world_art_id":null,"type":"movie","add":"2020-10-07 09:34:41","orig_title":"9 doigts","year":"2017-08-08","translations":["Любительский (многоголосый закадровый) (Синема УС)"],"quality":"webdl","translation":"Любительский (многоголосый закадровый) (Синема УС)","update":"2020-10-09 11:37:09","iframe_src":"//vc.doramasia.ru/si4jsFRrtgrT/movie/44187"},{"id":43900,"title":"Куратор","kp_id":"1261583","imdb_id":"tt11184010","world_art_id":null,"type":"movie","add":"2020-09-27 23:03:49","orig_title":"Куратор","year":"2020-09-10","translations":["Оригинальная дорожка","Оригинальная дорожка"],"quality":"ts","translation":"Оригинальная дорожка","update":"2020-10-09 20:51:11","iframe_src":"//vc.doramasia.ru/si4jsFRrtgrT/movie/43900"},{"id":43808,"title":"Пистолера","kp_id":"1195052","imdb_id":"tt9037864","world_art_id":null,"type":"movie","add":"2020-09-23 22:15:41","orig_title":"Pistolera","year":"2020-09-18","translations":["Полное дублирование","Original (English)","Полное дублирование (iTunes)"],"quality":"webdl","translation":"Полное дублирование","update":"2020-10-09 16:49:05","iframe_src":"//vc.doramasia.ru/si4jsFRrtgrT/movie/43808"},{"id":43663,"title":"Антебеллум","kp_id":"1261952","imdb_id":"tt10065694","world_art_id":null,"type":"movie","add":"2020-09-18 18:23:39","orig_title":"Antebellum","year":"2020-09-02","translations":["Полное дублирование","Original (English)","Полное дублирование (iTunes)"],"quality":"webdl","translation":"Полное дублирование","update":"2020-10-09 15:57:32","iframe_src":"//vc.doramasia.ru/si4jsFRrtgrT/movie/43663"},{"id":43304,"title":"Гостевой дом","kp_id":"1254412","imdb_id":"tt10054316","world_art_id":null,"type":"movie","add":"2020-09-08 18:38:22","orig_title":"Guest House","year":"2020-09-04","translations":["Original (English)","Любительский (многоголосый закадровый) (@MUZOBOZ@)"],"quality":"webdl","translation":"Original (English)","update":"2020-10-09 17:12:16","iframe_src":"//vc.doramasia.ru/si4jsFRrtgrT/movie/43304"},{"id":43077,"title":"Не входи","kp_id":"1251292","imdb_id":"tt9806370","world_art_id":null,"type":"movie","add":"2020-09-04 11:51:33","orig_title":"The Owners","year":"2020-09-04","translations":["Полное дублирование","Original (English)","Полное дублирование (iTunes)"],"quality":"webdl","translation":"Полное дублирование","update":"2020-10-09 16:29:09","iframe_src":"//vc.doramasia.ru/si4jsFRrtgrT/movie/43077"},{"id":42953,"title":"Вратарь Галактики","kp_id":"841471","imdb_id":"tt7176054","world_art_id":null,"type":"movie","add":"2020-08-31 03:46:19","orig_title":"Вратарь Галактики","year":"2020-08-27","translations":["Оригинальная дорожка","Оригинальная дорожка"],"quality":"ts","translation":"Оригинальная дорожка","update":"2020-10-10 05:34:09","iframe_src":"//vc.doramasia.ru/si4jsFRrtgrT/movie/42953"},{"id":42357,"title":"Былые привычки","kp_id":"1297676","imdb_id":"tt10887902","world_art_id":null,"type":"movie","add":"2020-08-07 20:00:49","orig_title":"I Used to Go Here","year":"2020-08-07","translations":["Любительский (многоголосый закадровый) (Синема УС)","Полное дублирование (iTunes)"],"quality":"webdl","translation":"Любительский (многоголосый закадровый) (Синема УС)","update":"2020-10-09 14:25:20","iframe_src":"//vc.doramasia.ru/si4jsFRrtgrT/movie/42357"},{"id":41862,"title":"Порнолоджи, или Милашка как ты","kp_id":"809733","imdb_id":"tt3278540","world_art_id":null,"type":"movie","add":"2020-07-18 20:46:57","orig_title":"A Nice Girl Like You","year":"2020-07-17","translations":["Любительский (многоголосый закадровый) (AlphaProject)","Original (English)","Полное дублирование (iTunes)"],"quality":"webdl","translation":"Любительский (многоголосый закадровый) (AlphaProject)","update":"2020-10-09 17:16:36","iframe_src":"//vc.doramasia.ru/si4jsFRrtgrT/movie/41862"},{"id":41401,"title":"Лесси. Возвращение домой","kp_id":"1272115","imdb_id":"tt10384944","world_art_id":null,"type":"movie","add":"2020-06-25 20:15:11","orig_title":"Lassie - Eine abenteuerliche Reise","year":"2020-02-20","translations":["Любительский (многоголосый закадровый) (Синема УС)","Полное дублирование (iTunes)"],"quality":"ts","translation":"Любительский (многоголосый закадровый) (Синема УС)","update":"2020-10-09 15:41:13","iframe_src":"//vc.doramasia.ru/si4jsFRrtgrT/movie/41401"},{"id":38091,"title":"Охота","kp_id":"1122129","imdb_id":"tt8244784","world_art_id":null,"type":"movie","add":"2020-03-17 10:11:24","orig_title":"The Hunt","year":"2020-03-11","translations":["Профессиональный (многоголосый закадровый) (HDrezka Studio)","Любительский (многоголосый закадровый) (WestFilm)","Original (English)","Авторский (одноголосый закадровый) (Яроцкий Михаил | Kyberpunk)","Авторский (одноголосый закадровый) (Визгунов Сергей)","Авторский (одноголосый закадровый) (Дольский Андрей)","Полное дублирование"],"quality":"webdl","translation":"Профессиональный (многоголосый закадровый) (HDrezka Studio)","update":"2020-10-09 17:14:49","iframe_src":"//vc.doramasia.ru/si4jsFRrtgrT/movie/38091"},{"id":37498,"title":"Побег из Претории","kp_id":"1055528","imdb_id":"tt5797184","world_art_id":null,"type":"movie","add":"2020-03-06 11:25:37","orig_title":"Escape from Pretoria","year":"2020-03-05","translations":["Профессиональный (многоголосый закадровый) (HDrezka Studio)","Original (English)","Полное дублирование","Полное дублирование (iTunes)"],"quality":"webdl","translation":"Профессиональный (многоголосый закадровый) (HDrezka Studio)","update":"2020-10-09 17:10:24","iframe_src":"//vc.doramasia.ru/si4jsFRrtgrT/movie/37498"},{"id":4425,"title":"Сибириада","kp_id":"43783","imdb_id":"tt0079907","world_art_id":null,"type":"serial","add":"2019-04-29 07:36:32","orig_title":"Sibiriada","year":"1979-11-28","translations":["Оригинальная дорожка"],"seasons_count":1,"episodes_count":2,"episodes":2,"update":"2019-04-29 08:56:26","iframe_src":"//vc.doramasia.ru/si4jsFRrtgrT/tv-series/4425"},{"id":4423,"title":"38 обезьян","kp_id":"403978","imdb_id":"tt0386224","world_art_id":null,"type":"serial","add":"2019-04-26 15:50:55","orig_title":"Monkey Dust","year":"2003-02-09","translations":["Профессиональный (двухголосый закадровый)"],"seasons_count":3,"episodes_count":18,"episodes":6,"update":"2019-04-29 08:34:59","iframe_src":"//vc.doramasia.ru/si4jsFRrtgrT/tv-series/4423"},{"id":4421,"title":"Трое сверху","kp_id":"280161","imdb_id":"tt1392078","world_art_id":null,"type":"serial","add":"2019-04-25 22:34:29","orig_title":"Troe sverkhu","year":"2006-09-25","translations":["Оригинальная дорожка"],"seasons_count":1,"episodes_count":50,"episodes":50,"update":"2019-04-26 05:06:50","iframe_src":"//vc.doramasia.ru/si4jsFRrtgrT/tv-series/4421"},{"id":4411,"title":"Двойник","kp_id":"1255121","imdb_id":null,"world_art_id":null,"type":"serial","add":"2019-04-23 11:54:10","orig_title":"Двойник","year":"2019-04-19","translations":["Оригинальная дорожка"],"seasons_count":1,"episodes_count":4,"episodes":4,"update":"2019-04-24 11:51:18","iframe_src":"//vc.doramasia.ru/si4jsFRrtgrT/tv-series/4411"},{"id":4410,"title":"Крестная","kp_id":"1252694","imdb_id":null,"world_art_id":null,"type":"serial","add":"2019-04-23 11:49:49","orig_title":"Крестная","year":"2019-04-14","translations":["Оригинальная дорожка"],"seasons_count":1,"episodes_count":2,"episodes":2,"update":"2019-04-23 15:08:57","iframe_src":"//vc.doramasia.ru/si4jsFRrtgrT/tv-series/4410"},{"id":4409,"title":"Другая","kp_id":"1172058","imdb_id":null,"world_art_id":null,"type":"serial","add":"2019-04-23 11:35:28","orig_title":"Другая","year":"2019-04-15","translations":["Оригинальная дорожка"],"seasons_count":1,"episodes_count":18,"episodes":18,"update":"2019-04-27 11:19:18","iframe_src":"//vc.doramasia.ru/si4jsFRrtgrT/tv-series/4409"},{"id":4405,"title":"СМЕРШ","kp_id":"1203030","imdb_id":"tt8629418","world_art_id":null,"type":"serial","add":"2019-04-23 10:57:37","orig_title":"Smersh","year":"2019-04-28","translations":["Оригинальная дорожка"],"seasons_count":1,"episodes_count":12,"episodes":12,"update":"2019-04-29 11:47:57","iframe_src":"//vc.doramasia.ru/si4jsFRrtgrT/tv-series/4405"},{"id":4400,"title":"Девять жизней","kp_id":"1254796","imdb_id":null,"world_art_id":null,"type":"serial","add":"2019-04-23 06:08:03","orig_title":"Девять жизней","year":"2019-04-22","translations":["Оригинальная дорожка"],"seasons_count":1,"episodes_count":8,"episodes":8,"update":"2019-04-26 11:34:34","iframe_src":"//vc.doramasia.ru/si4jsFRrtgrT/tv-series/4400"},{"id":4396,"title":"Московские тайны. Графский парк","kp_id":"1235977","imdb_id":null,"world_art_id":null,"type":"serial","add":"2019-04-22 22:26:43","orig_title":"Московские тайны. Графский парк","year":"2019-04-19","translations":["Оригинальная дорожка"],"seasons_count":1,"episodes_count":2,"episodes":2,"update":"2019-04-29 17:08:01","iframe_src":"//vc.doramasia.ru/si4jsFRrtgrT/tv-series/4396"},{"id":4393,"title":"Вверх тормашками","kp_id":null,"imdb_id":"tt9511462","world_art_id":null,"type":"serial","add":"2019-04-19 08:18:49","orig_title":"Flipped","year":"2018-12-24","translations":["Любительский (двухголосый закадровый) (East Dream)"],"seasons_count":1,"episodes_count":24,"episodes":24,"update":"2019-04-25 11:48:55","iframe_src":"//vc.doramasia.ru/si4jsFRrtgrT/tv-series/4393"},{"id":4329,"title":"Мамы чемпионов","kp_id":"1162236","imdb_id":null,"world_art_id":null,"type":"serial","add":"2019-03-28 00:21:39","orig_title":"Мамы чемпионов","year":"2019-03-27","translations":["Оригинальная дорожка"],"seasons_count":1,"episodes_count":20,"episodes":20,"update":"2019-04-24 00:13:41","iframe_src":"//vc.doramasia.ru/si4jsFRrtgrT/tv-series/4329"},{"id":4323,"title":"Военный госпиталь","kp_id":"667480","imdb_id":"tt2346580","world_art_id":null,"type":"serial","add":"2019-03-26 07:58:04","orig_title":"Voennyy gospital","year":"2012-02-20","translations":["Оригинальная дорожка"],"seasons_count":1,"episodes_count":8,"episodes":8,"update":"2019-04-29 17:01:36","iframe_src":"//vc.doramasia.ru/si4jsFRrtgrT/tv-series/4323"},{"id":4322,"title":"Хроника гнусных времен","kp_id":"842271","imdb_id":null,"world_art_id":null,"type":"serial","add":"2019-03-26 07:55:51","orig_title":"Хроника гнусных времен","year":"2014-09-13","translations":["Оригинальная дорожка"],"seasons_count":1,"episodes_count":4,"episodes":4,"update":"2019-04-29 16:53:47","iframe_src":"//vc.doramasia.ru/si4jsFRrtgrT/tv-series/4322"},{"id":4316,"title":"Похищенный","kp_id":"472326","imdb_id":"tt0771329","world_art_id":null,"type":"serial","add":"2019-03-26 06:09:22","orig_title":"Kidnapped","year":"2006-09-20","translations":["Профессиональный (многоголосый закадровый) (СТС)"],"seasons_count":1,"episodes_count":13,"episodes":13,"update":"2019-04-29 17:28:53","iframe_src":"//vc.doramasia.ru/si4jsFRrtgrT/tv-series/4316"},{"id":23162,"title":"Ограбление президента","kp_id":"1002633","imdb_id":"tt6032328","world_art_id":null,"type":"movie","add":"2019-03-17 22:25:45","orig_title":"Finding Steve McQueen","year":"2019-03-15","translations":["Профессиональный (многоголосый закадровый) (HDrezka Studio)","Original (English)","Полное дублирование (iTunes)"],"quality":"webdl","translation":"Профессиональный (многоголосый закадровый) (HDrezka Studio)","update":"2020-10-09 15:44:15","iframe_src":"//vc.doramasia.ru/si4jsFRrtgrT/movie/23162"},{"id":4259,"title":"Мертвое озеро","kp_id":"1043854","imdb_id":"tt8785438","world_art_id":null,"type":"serial","add":"2019-03-14 07:43:27","orig_title":"Myortvoe ozero","year":"2019-03-14","translations":["Оригинальная дорожка"],"seasons_count":1,"episodes_count":8,"episodes":8,"update":"2019-04-25 08:09:50","iframe_src":"//vc.doramasia.ru/si4jsFRrtgrT/tv-series/4259"},{"id":4144,"title":"Лицо Аналии","kp_id":"455478","imdb_id":"tt1315328","world_art_id":null,"type":"serial","add":"2019-02-25 09:01:51","orig_title":"El Rostro de Analía","year":"2008-10-20","translations":["Любительский (одноголосый закадровый)"],"seasons_count":1,"episodes_count":8,"episodes":8,"update":"2019-04-24 01:15:59","iframe_src":"//vc.doramasia.ru/si4jsFRrtgrT/tv-series/4144"},{"id":4111,"title":"Десять стрел для одной","kp_id":"1049110","imdb_id":null,"world_art_id":null,"type":"serial","add":"2019-02-19 08:41:16","orig_title":"Десять стрел для одной","year":"2018-04-29","translations":["Оригинальная дорожка"],"seasons_count":1,"episodes_count":4,"episodes":4,"update":"2019-04-29 16:48:51","iframe_src":"//vc.doramasia.ru/si4jsFRrtgrT/tv-series/4111"},{"id":1733,"title":"Коллективный разум","kp_id":"1040717","imdb_id":"tt6522758","world_art_id":null,"type":"serial","add":"2017-11-13 08:08:57","orig_title":"Wisdom of the Crowd","year":"2017-10-01","translations":["Профессиональный (многоголосый закадровый) (NewStudio)"],"seasons_count":1,"episodes_count":13,"episodes":13,"update":"2019-04-28 16:27:53","iframe_src":"//vc.doramasia.ru/si4jsFRrtgrT/tv-series/1733"},{"id":1392,"title":"Кот Саймона","kp_id":"501985","imdb_id":"tt2057193","world_art_id":null,"type":"serial","add":"2017-07-13 17:04:46","orig_title":"Simon's Cat","year":"2008-03-04","translations":["Оригинальная дорожка"],"seasons_count":1,"episodes_count":108,"episodes":108,"update":"2019-04-29 17:59:14","iframe_src":"//vc.doramasia.ru/si4jsFRrtgrT/tv-series/1392"},{"id":545,"title":"Готэм","kp_id":"804748","imdb_id":"tt3749900","world_art_id":null,"type":"serial","add":"2016-10-20 16:15:51","orig_title":"Gotham","year":"2014-07-26","translations":["Профессиональный (многоголосый закадровый) (NewStudio)","Профессиональный (многоголосый закадровый) (LostFilm)","Профессиональный (многоголосый закадровый) (ColdFilm)"],"seasons_count":5,"episodes_count":101,"episodes":12,"update":"2019-04-29 11:29:20","iframe_src":"//vc.doramasia.ru/si4jsFRrtgrT/tv-series/545"}],"current_page":346,"first_page_url":"https://videocdn.tv/api/short?limit=100&api_token=X6EwAUfE5M9xbo7y0Bp0aPf3uXxG2KLL&cache3346=3346&page=1","from":34501,"last_page":608,"last_page_url":"https://videocdn.tv/api/short?limit=100&api_token=X6EwAUfE5M9xbo7y0Bp0aPf3uXxG2KLL&cache3346=3346&page=608","next_page_url":"https://videocdn.tv/api/short?limit=100&api_token=X6EwAUfE5M9xbo7y0Bp0aPf3uXxG2KLL&cache3346=3346&page=347","path":"https://videocdn.tv/api/short","per_page":100,"prev_page_url":"https://videocdn.tv/api/short?limit=100&api_token=X6EwAUfE5M9xbo7y0Bp0aPf3uXxG2KLL&cache3346=3346&page=345","to":34540,"total":60756}