{"result":true,"data":[{"id":56102,"title":"Дневник безумной черной женщины","kp_id":"83392","imdb_id":"tt0422093","world_art_id":null,"type":"movie","add":"2022-01-21 06:59:13","orig_title":"Diary of a Mad Black Woman","year":"2005-02-25","translations":["Профессиональный (двухголосый закадровый)"],"quality":"bd","translation":"Профессиональный (двухголосый закадровый)","update":"2022-01-21 14:11:58","iframe_src":"//7741.svetacdn.in/si4jsFRrtgrT/movie/56102"},{"id":56101,"title":"Парковочный сервис","kp_id":"173489","imdb_id":"tt0090897","world_art_id":null,"type":"movie","add":"2022-01-21 06:57:14","orig_title":"Dai ke bo che","year":"1986-01-10","translations":["Авторский (одноголосый закадровый) (Багичев Алексей)"],"quality":"bd","translation":"Авторский (одноголосый закадровый) (Багичев Алексей)","update":"2022-01-21 14:13:24","iframe_src":"//7741.svetacdn.in/si4jsFRrtgrT/movie/56101"},{"id":56100,"title":"32-е августа на Земле","kp_id":"56230","imdb_id":"tt0156248","world_art_id":null,"type":"movie","add":"2022-01-21 06:48:58","orig_title":"Un 32 août sur terre","year":"1998-05-21","translations":["Профессиональный (многоголосый закадровый) (OMSKBIRD records)"],"quality":"webdl","translation":"Профессиональный (многоголосый закадровый) (OMSKBIRD records)","update":"2022-01-21 10:52:18","iframe_src":"//7741.svetacdn.in/si4jsFRrtgrT/movie/56100"},{"id":56099,"title":"Этерна: Часть первая","kp_id":"4312912","imdb_id":"tt15531294","world_art_id":null,"type":"movie","add":"2022-01-21 06:34:45","orig_title":"Aeterna. Part 1","year":"2022-01-20","translations":["Оригинальная дорожка"],"quality":"webdl","translation":"Оригинальная дорожка","update":"2022-01-21 09:44:02","iframe_src":"//7741.svetacdn.in/si4jsFRrtgrT/movie/56099"},{"id":56098,"title":"Страх отпирает двери","kp_id":"7632","imdb_id":"tt0068576","world_art_id":null,"type":"movie","add":"2022-01-21 06:31:39","orig_title":"Fear Is the Key","year":"1972-12-26","translations":["Профессиональный (многоголосый закадровый) (Paramount Channel)"],"quality":"webdl","translation":"Профессиональный (многоголосый закадровый) (Paramount Channel)","update":"2022-01-21 14:15:32","iframe_src":"//7741.svetacdn.in/si4jsFRrtgrT/movie/56098"},{"id":56097,"title":"Последнее, что видела Мэри","kp_id":"1322661","imdb_id":"tt9741180","world_art_id":null,"type":"movie","add":"2022-01-21 06:29:15","orig_title":"The Last Thing Mary Saw","year":"2021-08-15","translations":["Профессиональный (многоголосый закадровый) (NewComers)"],"quality":"webdl","translation":"Профессиональный (многоголосый закадровый) (NewComers)","update":"2022-01-21 09:41:58","iframe_src":"//7741.svetacdn.in/si4jsFRrtgrT/movie/56097"},{"id":56096,"title":"Улболсын","kp_id":"1438726","imdb_id":"tt13294010","world_art_id":null,"type":"movie","add":"2022-01-21 06:06:03","orig_title":"Ulbolsyn","year":"2020-11-21","translations":["Оригинальная дорожка"],"quality":"webdl","translation":"Оригинальная дорожка","update":"2022-01-21 09:34:50","iframe_src":"//7741.svetacdn.in/si4jsFRrtgrT/movie/56096"},{"id":56095,"title":"Город собак 2","kp_id":"4713194","imdb_id":"tt15416230","world_art_id":null,"type":"movie","add":"2022-01-21 05:55:57","orig_title":"Dogtown 2","year":"2021-01-01","translations":["Любительский (многоголосый закадровый) (Синема УС)"],"quality":"webdl","translation":"Любительский (многоголосый закадровый) (Синема УС)","update":"2022-01-21 09:07:12","iframe_src":"//7741.svetacdn.in/si4jsFRrtgrT/movie/56095"},{"id":56080,"title":"Кошмар дома на холмах","kp_id":"57778","imdb_id":"tt0078405","world_art_id":null,"type":"movie","add":"2022-01-20 07:17:02","orig_title":"The Toolbox Murders","year":"1978-03-03","translations":["Авторский (одноголосый закадровый) (Дольский Андрей)"],"quality":"bd","translation":"Авторский (одноголосый закадровый) (Дольский Андрей)","update":"2022-01-21 14:47:01","iframe_src":"//7741.svetacdn.in/si4jsFRrtgrT/movie/56080"},{"id":56075,"title":"Челюсти Сатаны","kp_id":"32907","imdb_id":"tt0082580","world_art_id":null,"type":"movie","add":"2022-01-20 06:35:35","orig_title":"Jaws of Satan","year":"1981-07-24","translations":["Авторский (одноголосый закадровый) (Дольский Андрей)"],"quality":"bd","translation":"Авторский (одноголосый закадровый) (Дольский Андрей)","update":"2022-01-21 10:59:51","iframe_src":"//7741.svetacdn.in/si4jsFRrtgrT/movie/56075"},{"id":56045,"title":"Диего Симеоне","kp_id":"4821595","imdb_id":"tt16246178","world_art_id":null,"type":"movie","add":"2022-01-18 19:19:33","orig_title":"Diego, el último adiós","year":"2021-12-16","translations":["[PT] Полное дублирование (Portugues)"],"quality":"webdl","translation":"[PT] Полное дублирование (Portugues)","update":"2022-01-21 08:44:19","iframe_src":"//7741.svetacdn.in/si4jsFRrtgrT/movie/56045"},{"id":55247,"title":"Становление Кусто","kp_id":"4544204","imdb_id":"tt10334438","world_art_id":null,"type":"movie","add":"2021-12-16 09:04:04","orig_title":"Becoming Cousteau","year":"2021-09-02","translations":["Профессиональный (двухголосый закадровый) (Pazl Voice)","Любительский (многоголосый закадровый) (Синема УС)","[PT] Полное дублирование (Portugues)"],"quality":"webdl","translation":"Профессиональный (двухголосый закадровый) (Pazl Voice)","update":"2022-01-21 09:13:04","iframe_src":"//7741.svetacdn.in/si4jsFRrtgrT/movie/55247"},{"id":54669,"title":"Взрывной эфир","kp_id":"2000978","imdb_id":"tt13510660","world_art_id":null,"type":"movie","add":"2021-11-19 17:42:59","orig_title":"Dhamaka","year":"2021-11-19","translations":["Любительский (двухголосый закадровый) (OnisFilms)","Любительский (многоголосый закадровый) (Синема УС)","[PT] Полное дублирование (Portugues)"],"quality":"webdl","translation":"Любительский (двухголосый закадровый) (OnisFilms)","update":"2022-01-21 09:08:40","iframe_src":"//7741.svetacdn.in/si4jsFRrtgrT/movie/54669"},{"id":54555,"title":"Законы пограничья","kp_id":"1391477","imdb_id":"tt11892272","world_art_id":null,"type":"movie","add":"2021-11-15 13:59:14","orig_title":"Las leyes de la frontera","year":"2021-09-25","translations":["Любительский (двухголосый закадровый) (Колобок)","Любительский (многоголосый закадровый) (@MUZOBOZ@)","Профессиональный (двухголосый закадровый) (Pazl Voice)","[PT] Полное дублирование (Portugues)"],"quality":"ts","translation":"Любительский (двухголосый закадровый) (Колобок)","update":"2022-01-21 09:15:47","iframe_src":"//7741.svetacdn.in/si4jsFRrtgrT/movie/54555"},{"id":54314,"title":"Прошлой ночью в Сохо","kp_id":"1236583","imdb_id":"tt9639470","world_art_id":null,"type":"movie","add":"2021-11-05 21:06:46","orig_title":"Last Night in Soho","year":"2021-09-04","translations":["Профессиональный (двухголосый закадровый) (Pazl Voice)","[EN] Original (English)","Любительский (многоголосый закадровый) (AlphaProject)","Профессиональный (многоголосый закадровый) (Jaskier)","Полное дублирование","[PT] Полное дублирование (Portugues)","Полное дублирование (Пифагор)"],"quality":"webdl","translation":"Профессиональный (двухголосый закадровый) (Pazl Voice)","update":"2022-01-21 14:21:50","iframe_src":"//7741.svetacdn.in/si4jsFRrtgrT/movie/54314"},{"id":54215,"title":"Волшебная ночь","kp_id":"1291327","imdb_id":"tt10742934","world_art_id":null,"type":"movie","add":"2021-10-30 15:38:16","orig_title":"La noche mágica","year":"2021-03-11","translations":["Любительский (многоголосый закадровый) (AlphaProject)","[PT] Полное дублирование (Portugues)"],"quality":"webdl","translation":"Любительский (многоголосый закадровый) (AlphaProject)","update":"2022-01-21 09:14:17","iframe_src":"//7741.svetacdn.in/si4jsFRrtgrT/movie/54215"},{"id":54047,"title":"Медиум","kp_id":"1412501","imdb_id":"tt13446168","world_art_id":null,"type":"movie","add":"2021-10-21 22:38:55","orig_title":"The Medium","year":"2021-07-10","translations":["Любительский (многоголосый закадровый) (Синема УС)","[PT] Полное дублирование (Portugues)"],"quality":"webdl","translation":"Любительский (многоголосый закадровый) (Синема УС)","update":"2022-01-21 09:30:38","iframe_src":"//7741.svetacdn.in/si4jsFRrtgrT/movie/54047"},{"id":52518,"title":"Аннетт","kp_id":"1032894","imdb_id":"tt6217926","world_art_id":null,"type":"movie","add":"2021-08-20 14:00:43","orig_title":"Annette","year":"2021-08-06","translations":["Полное дублирование","Полное дублирование","[EN] Original (English)","Полное дублирование","[PT] Полное дублирование (Portugues)"],"quality":"webdl","translation":"Полное дублирование","update":"2022-01-21 09:17:12","iframe_src":"//7741.svetacdn.in/si4jsFRrtgrT/movie/52518"},{"id":11070,"title":"Академия гладиаторов","kp_id":"893822","imdb_id":"tt1531054","world_art_id":null,"type":"serial","add":"2021-07-24 16:25:50","orig_title":"Gladiator Academy","year":"2002-01-01","translations":["Профессиональный (многоголосый закадровый)"],"seasons_count":1,"episodes_count":26,"episodes":26,"update":"2021-07-25 21:18:28","iframe_src":"//7741.svetacdn.in/si4jsFRrtgrT/tv-series/11070"},{"id":11069,"title":"Руй — маленький Сид","kp_id":"760415","imdb_id":"tt1304919","world_art_id":null,"type":"serial","add":"2021-07-24 16:03:06","orig_title":"Ruy, el pequeño Cid","year":"1980-10-05","translations":["Профессиональный (многоголосый закадровый)"],"seasons_count":1,"episodes_count":26,"episodes":26,"update":"2021-07-25 20:21:52","iframe_src":"//7741.svetacdn.in/si4jsFRrtgrT/tv-series/11069"},{"id":11068,"title":"Встреча с инопланетянами","kp_id":"913027","imdb_id":"tt2816662","world_art_id":null,"type":"serial","add":"2021-07-23 19:32:20","orig_title":"Alien Encounters","year":"2013-04-06","translations":["Профессиональный (одноголосый закадровый) (Кириллица)"],"seasons_count":3,"episodes_count":10,"episodes":6,"update":"2021-07-26 10:23:12","iframe_src":"//7741.svetacdn.in/si4jsFRrtgrT/tv-series/11068"},{"id":11067,"title":"Тост из Лондона","kp_id":"710533","imdb_id":"tt2432604","world_art_id":null,"type":"serial","add":"2021-07-23 19:06:21","orig_title":"Toast of London","year":"2012-08-20","translations":["Профессиональный (двухголосый закадровый) (Ozz.tv)"],"seasons_count":3,"episodes_count":19,"episodes":6,"update":"2021-07-26 10:58:29","iframe_src":"//7741.svetacdn.in/si4jsFRrtgrT/tv-series/11067"},{"id":11053,"title":"Агентство моделей","kp_id":null,"imdb_id":"tt0108862","world_art_id":null,"type":"serial","add":"2021-07-19 17:14:45","orig_title":"Models Inc.","year":"1994-06-29","translations":["Профессиональный (двухголосый закадровый) (CBS Drama)"],"seasons_count":1,"episodes_count":29,"episodes":29,"update":"2021-07-25 06:24:14","iframe_src":"//7741.svetacdn.in/si4jsFRrtgrT/tv-series/11053"},{"id":11052,"title":"Хозяйка горы","kp_id":"1291223","imdb_id":null,"world_art_id":null,"type":"serial","add":"2021-07-19 17:03:44","orig_title":"Hozyayka gory","year":"2021-07-19","translations":["Оригинальная дорожка"],"seasons_count":1,"episodes_count":16,"episodes":16,"update":"2021-07-24 12:14:44","iframe_src":"//7741.svetacdn.in/si4jsFRrtgrT/tv-series/11052"},{"id":11046,"title":"Мазантонио","kp_id":"1333877","imdb_id":"tt11418330","world_art_id":null,"type":"serial","add":"2021-07-16 12:05:23","orig_title":"Masantonio","year":"2021-01-04","translations":["Любительский (многоголосый закадровый) (Ultradox)"],"seasons_count":1,"episodes_count":10,"episodes":10,"update":"2021-07-25 18:39:26","iframe_src":"//7741.svetacdn.in/si4jsFRrtgrT/tv-series/11046"},{"id":11011,"title":"Крик","kp_id":"1266337","imdb_id":"tt10319942","world_art_id":null,"type":"serial","add":"2021-07-12 04:29:52","orig_title":"Cheekh","year":"2019-01-05","translations":["Любительский (многоголосый закадровый) (Crazy Cat Studio)"],"seasons_count":1,"episodes_count":9,"episodes":9,"update":"2021-07-25 12:51:59","iframe_src":"//7741.svetacdn.in/si4jsFRrtgrT/tv-series/11011"},{"id":10813,"title":"Заключенный","kp_id":"333405","imdb_id":"tt0061287","world_art_id":null,"type":"serial","add":"2021-06-03 16:54:35","orig_title":"The Prisoner","year":"1967-10-08","translations":["Любительский (двухголосый закадровый) (Hamster Studio)"],"seasons_count":1,"episodes_count":17,"episodes":17,"update":"2021-07-25 21:50:24","iframe_src":"//7741.svetacdn.in/si4jsFRrtgrT/tv-series/10813"},{"id":50578,"title":"Бегство","kp_id":"1330350","imdb_id":"tt11392272","world_art_id":null,"type":"movie","add":"2021-05-23 18:15:52","orig_title":"The Retreat","year":"2021-05-21","translations":["Любительский (многоголосый закадровый) (@MUZOBOZ@)","[EN] Original (English)","Любительский (многоголосый закадровый)"],"quality":"webdl","translation":"Любительский (многоголосый закадровый) (@MUZOBOZ@)","update":"2022-01-21 09:33:04","iframe_src":"//7741.svetacdn.in/si4jsFRrtgrT/movie/50578"},{"id":10668,"title":"Клиника счастья","kp_id":"1412155","imdb_id":null,"world_art_id":null,"type":"serial","add":"2021-05-19 03:50:51","orig_title":"Klinika schastya","year":"2021-05-19","translations":["Оригинальная дорожка"],"seasons_count":1,"episodes_count":8,"episodes":8,"update":"2021-07-24 12:12:54","iframe_src":"//7741.svetacdn.in/si4jsFRrtgrT/tv-series/10668"},{"id":49755,"title":"В земле","kp_id":"1446828","imdb_id":"tt13429362","world_art_id":null,"type":"movie","add":"2021-04-20 19:17:29","orig_title":"In the Earth","year":"2021-01-29","translations":["Любительский (многоголосый закадровый) (Синема УС)","Профессиональный (двухголосый закадровый) (Pazl Voice)","[EN] Original (English)","Полное дублирование (КиноПоиск HD)","[PT] Полное дублирование (Portugues)"],"quality":"webdl","translation":"Любительский (многоголосый закадровый) (Синема УС)","update":"2022-01-21 08:45:28","iframe_src":"//7741.svetacdn.in/si4jsFRrtgrT/movie/49755"},{"id":9754,"title":"Марашанец","kp_id":"1406320","imdb_id":"tt12694140","world_art_id":null,"type":"serial","add":"2021-01-18 15:48:40","orig_title":"Marasli","year":"2021-01-11","translations":["Любительский (двухголосый закадровый)","Любительский (двухголосый закадровый) (SesDizi | DiziMania)","Профессиональный (многоголосый закадровый) (BaibaKo)"],"seasons_count":1,"episodes_count":26,"episodes":26,"update":"2021-07-25 08:19:54","iframe_src":"//7741.svetacdn.in/si4jsFRrtgrT/tv-series/9754"},{"id":8550,"title":"Джеронимо Стилтон","kp_id":"765121","imdb_id":"tt1875337","world_art_id":null,"type":"serial","add":"2020-08-27 10:37:10","orig_title":"Geronimo Stilton","year":"2009-09-15","translations":["Полное дублирование"],"seasons_count":2,"episodes_count":52,"episodes":26,"update":"2021-07-26 11:10:44","iframe_src":"//7741.svetacdn.in/si4jsFRrtgrT/tv-series/8550"},{"id":6293,"title":"Хостел Дейз","kp_id":"1330988","imdb_id":"tt11407524","world_art_id":null,"type":"serial","add":"2020-01-09 17:17:50","orig_title":"Hostel Daze","year":"2019-12-13","translations":["Любительский (многоголосый закадровый) (ColdFilm)","Любительский (многоголосый закадровый) (Ultradox)","Профессиональный (многоголосый закадровый) (BaibaKo)"],"seasons_count":2,"episodes_count":9,"episodes":4,"update":"2021-07-25 08:08:33","iframe_src":"//7741.svetacdn.in/si4jsFRrtgrT/tv-series/6293"},{"id":4641,"title":"Город на холме","kp_id":"1048154","imdb_id":"tt7187044","world_art_id":null,"type":"serial","add":"2019-06-09 07:05:33","orig_title":"City on a Hill","year":"2019-06-16","translations":["Любительский (многоголосый закадровый) (Octopus)","Профессиональный (многоголосый закадровый) (LostFilm)","Профессиональный (многоголосый закадровый) (HDrezka Studio)","Профессиональный (многоголосый закадровый) (Novamedia)","Профессиональный (многоголосый закадровый) (HDrezka Studio 18+)","Профессиональный (многоголосый закадровый) (AlexFilm)","Профессиональный (многоголосый закадровый) (TVShows)","Любительский (многоголосый закадровый) (ColdFilm)","Любительский (многоголосый закадровый) (Ultradox)","Любительский (двухголосый закадровый) (LakeFilms)","Профессиональный (многоголосый закадровый) (BaibaKo)"],"seasons_count":2,"episodes_count":18,"episodes":8,"update":"2021-07-23 19:31:59","iframe_src":"//7741.svetacdn.in/si4jsFRrtgrT/tv-series/4641"},{"id":2182,"title":"Хорошие девчонки","kp_id":"1042826","imdb_id":"tt6474378","world_art_id":null,"type":"serial","add":"2018-03-05 08:56:13","orig_title":"Good Girls","year":"2018-02-26","translations":["Профессиональный (многоголосый закадровый) (NewStudio)","Профессиональный (многоголосый закадровый) (HDrezka Studio)","Профессиональный (многоголосый закадровый) (Jaskier)","Профессиональный (многоголосый закадровый) (AMS)","Профессиональный (многоголосый закадровый) (TVShows)","Любительский (многоголосый закадровый) (ColdFilm)","Любительский (многоголосый закадровый) (Octopus)","Любительский (многоголосый закадровый) (Ultradox)","Профессиональный (многоголосый закадровый) (BaibaKo)"],"seasons_count":4,"episodes_count":50,"episodes":16,"update":"2021-07-25 08:07:20","iframe_src":"//7741.svetacdn.in/si4jsFRrtgrT/tv-series/2182"},{"id":1165,"title":"Побег: Продолжение","kp_id":"968758","imdb_id":"tt4928092","world_art_id":null,"type":"serial","add":"2017-04-05 06:25:44","orig_title":"Prison Break: Sequel","year":"2017-04-04","translations":[],"seasons_count":1,"episodes_count":0,"episodes":0,"update":"2021-07-26 11:31:18","iframe_src":"//7741.svetacdn.in/si4jsFRrtgrT/tv-series/1165"},{"id":516,"title":"Побег","kp_id":"258048","imdb_id":"tt0455275","world_art_id":null,"type":"serial","add":"2016-10-06 08:08:00","orig_title":"Prison Break","year":"2005-08-29","translations":["Полное дублирование","Профессиональный (многоголосый закадровый) (LostFilm)","Профессиональный (многоголосый закадровый) (FOX)","Профессиональный (многоголосый закадровый) (Jaskier)","Профессиональный (многоголосый закадровый) (NewStudio)"],"seasons_count":5,"episodes_count":87,"episodes":9,"update":"2021-07-26 11:31:18","iframe_src":"//7741.svetacdn.in/si4jsFRrtgrT/tv-series/516"},{"id":504,"title":"Люк Кейдж","kp_id":"817507","imdb_id":"tt3322314","world_art_id":null,"type":"serial","add":"2016-10-03 13:49:19","orig_title":"Luke Cage","year":"2016-09-30","translations":["Профессиональный (многоголосый закадровый) (BaibaKo)","Профессиональный (многоголосый закадровый) (LostFilm)","Профессиональный (многоголосый закадровый) (NewStudio)","Профессиональный (многоголосый закадровый) (Jaskier)"],"seasons_count":2,"episodes_count":26,"episodes":13,"update":"2021-07-26 10:42:02","iframe_src":"//7741.svetacdn.in/si4jsFRrtgrT/tv-series/504"},{"id":121,"title":"Мужчина ищет женщину","kp_id":"827682","imdb_id":"tt4189492","world_art_id":null,"type":"serial","add":"2016-06-01 10:39:28","orig_title":"Man Seeking Woman","year":"2015-01-14","translations":["Профессиональный (двухголосый закадровый) (Ozz.tv)"],"seasons_count":3,"episodes_count":30,"episodes":10,"update":"2021-07-26 11:47:53","iframe_src":"//7741.svetacdn.in/si4jsFRrtgrT/tv-series/121"},{"id":54,"title":"Элементарно","kp_id":"661210","imdb_id":"tt2191671","world_art_id":null,"type":"serial","add":"2016-04-07 09:01:00","orig_title":"Elementary","year":"2012-09-27","translations":["Профессиональный (многоголосый закадровый) (LostFilm)","Полное дублирование (Первый канал | ОРТ)","Профессиональный (многоголосый закадровый) (TVShows)","Профессиональный (многоголосый закадровый) (Пифагор)","Профессиональный (многоголосый закадровый) (NewStudio)","Профессиональный (двухголосый закадровый) (Gears Media)","Профессиональный (многоголосый закадровый) (Gears Media)","Профессиональный (многоголосый закадровый) (Jaskier)","Профессиональный (многоголосый закадровый) (BaibaKo)"],"seasons_count":7,"episodes_count":153,"episodes":13,"update":"2021-07-25 23:13:29","iframe_src":"//7741.svetacdn.in/si4jsFRrtgrT/tv-series/54"}],"current_page":117,"first_page_url":"https://videocdn.tv/api/short?limit=100&api_token=X6EwAUfE5M9xbo7y0Bp0aPf3uXxG2KLL&cache3117=3117&page=1","from":11601,"last_page":706,"last_page_url":"https://videocdn.tv/api/short?limit=100&api_token=X6EwAUfE5M9xbo7y0Bp0aPf3uXxG2KLL&cache3117=3117&page=706","next_page_url":"https://videocdn.tv/api/short?limit=100&api_token=X6EwAUfE5M9xbo7y0Bp0aPf3uXxG2KLL&cache3117=3117&page=118","path":"https://videocdn.tv/api/short","per_page":100,"prev_page_url":"https://videocdn.tv/api/short?limit=100&api_token=X6EwAUfE5M9xbo7y0Bp0aPf3uXxG2KLL&cache3117=3117&page=116","to":11640,"total":70502}