{"result":true,"data":[{"id":44520,"title":"Облака","kp_id":"1312668","imdb_id":"tt6473066","world_art_id":null,"type":"movie","add":"2020-10-16 20:45:46","orig_title":"Clouds","year":"2020-10-09","translations":["Любительский (многоголосый закадровый) (@MUZOBOZ@)"],"quality":"webdl","translation":"Любительский (многоголосый закадровый) (@MUZOBOZ@)","update":"2020-10-17 05:11:27","iframe_src":"//8543.svetacdn.in/si4jsFRrtgrT/movie/44520"},{"id":44503,"title":"Бормотание","kp_id":null,"imdb_id":"tt10475900","world_art_id":null,"type":"movie","add":"2020-10-16 14:49:22","orig_title":"Murmur","year":"2020-07-21","translations":["Любительский (многоголосый закадровый) (@MUZOBOZ@)"],"quality":"webdl","translation":"Любительский (многоголосый закадровый) (@MUZOBOZ@)","update":"2020-10-17 06:52:45","iframe_src":"//8543.svetacdn.in/si4jsFRrtgrT/movie/44503"},{"id":44502,"title":"Мир","kp_id":"1112800","imdb_id":"tt7713810","world_art_id":null,"type":"movie","add":"2020-10-16 14:42:21","orig_title":"Peace","year":"2019-10-26","translations":["Любительский (многоголосый закадровый) (AlphaProject)"],"quality":"webdl","translation":"Любительский (многоголосый закадровый) (AlphaProject)","update":"2020-10-16 21:41:51","iframe_src":"//8543.svetacdn.in/si4jsFRrtgrT/movie/44502"},{"id":44495,"title":"Книга солнца","kp_id":"1432172","imdb_id":"tt11833648","world_art_id":null,"type":"movie","add":"2020-10-16 09:57:16","orig_title":"Shams Al-Ma'arif","year":"2020-03-12","translations":["Любительский (многоголосый закадровый) (Синема УС)"],"quality":"webdl","translation":"Любительский (многоголосый закадровый) (Синема УС)","update":"2020-10-16 17:07:49","iframe_src":"//8543.svetacdn.in/si4jsFRrtgrT/movie/44495"},{"id":44494,"title":"Идеальный кандидат","kp_id":"1162824","imdb_id":"tt6971114","world_art_id":null,"type":"movie","add":"2020-10-16 09:55:34","orig_title":"The Perfect Candidate","year":"2020-03-12","translations":["Любительский (многоголосый закадровый) (Синема УС)"],"quality":"webdl","translation":"Любительский (многоголосый закадровый) (Синема УС)","update":"2020-10-16 17:07:23","iframe_src":"//8543.svetacdn.in/si4jsFRrtgrT/movie/44494"},{"id":44490,"title":"Слёзы клоуна","kp_id":"1353928","imdb_id":"tt11764870","world_art_id":null,"type":"movie","add":"2020-10-16 09:29:45","orig_title":"Tears of the Clown","year":"2020-03-04","translations":["Любительский (многоголосый закадровый) (Синема УС)"],"quality":"webdl","translation":"Любительский (многоголосый закадровый) (Синема УС)","update":"2020-10-16 14:22:46","iframe_src":"//8543.svetacdn.in/si4jsFRrtgrT/movie/44490"},{"id":44486,"title":"Неподходящий отчим","kp_id":"1368004","imdb_id":"tt12151870","world_art_id":null,"type":"movie","add":"2020-10-16 08:02:09","orig_title":"The Wrong Stepfather","year":"2020-07-31","translations":["Любительский (многоголосый закадровый) (Синема УС)"],"quality":"hdtv","translation":"Любительский (многоголосый закадровый) (Синема УС)","update":"2020-10-16 18:46:21","iframe_src":"//8543.svetacdn.in/si4jsFRrtgrT/movie/44486"},{"id":44395,"title":"Непоэтичный Токио","kp_id":"1063621","imdb_id":"tt7385518","world_art_id":null,"type":"movie","add":"2020-10-13 14:47:08","orig_title":"Bad Poetry Tokyo","year":"2018-06-29","translations":["Любительский (двухголосый закадровый) (Колобок)"],"quality":"webdl","translation":"Любительский (двухголосый закадровый) (Колобок)","update":"2020-10-17 05:18:15","iframe_src":"//8543.svetacdn.in/si4jsFRrtgrT/movie/44395"},{"id":44393,"title":"Любовники","kp_id":"21155","imdb_id":"tt0101317","world_art_id":null,"type":"movie","add":"2020-10-13 14:40:03","orig_title":"Amantes","year":"1991-02-01","translations":["Профессиональный (двухголосый закадровый) (НТВ)"],"quality":"bd","translation":"Профессиональный (двухголосый закадровый) (НТВ)","update":"2020-10-17 10:22:30","iframe_src":"//8543.svetacdn.in/si4jsFRrtgrT/movie/44393"},{"id":44385,"title":"Дух времени: За пределами","kp_id":"602083","imdb_id":"tt1965308","world_art_id":null,"type":"movie","add":"2020-10-13 12:28:16","orig_title":"Interreflections","year":"2020-01-26","translations":["Original (English)"],"quality":"webdl","translation":"Original (English)","update":"2020-10-16 13:33:14","iframe_src":"//8543.svetacdn.in/si4jsFRrtgrT/movie/44385"},{"id":44384,"title":"Сглаз","kp_id":"1399232","imdb_id":"tt12882620","world_art_id":null,"type":"movie","add":"2020-10-13 12:25:51","orig_title":"Evil Eye","year":"2020-10-13","translations":["Любительский (многоголосый закадровый) (@MUZOBOZ@)","Профессиональный (многоголосый закадровый) (HDrezka Studio)","Профессиональный (многоголосый закадровый) (IdeaFilm)","Original (English)"],"quality":"webdl","translation":"Любительский (многоголосый закадровый) (@MUZOBOZ@)","update":"2020-10-16 13:27:00","iframe_src":"//8543.svetacdn.in/si4jsFRrtgrT/movie/44384"},{"id":44352,"title":"Дом теней","kp_id":"1283006","imdb_id":"tt10546090","world_art_id":null,"type":"movie","add":"2020-10-12 16:56:26","orig_title":"House of Shadows","year":"2020-10-05","translations":["Любительский (многоголосый закадровый) (@MUZOBOZ@)","Original (English)"],"quality":"webdl","translation":"Любительский (многоголосый закадровый) (@MUZOBOZ@)","update":"2020-10-16 13:30:48","iframe_src":"//8543.svetacdn.in/si4jsFRrtgrT/movie/44352"},{"id":44323,"title":"Контрразведка","kp_id":"1021219","imdb_id":"tt6244266","world_art_id":null,"type":"movie","add":"2020-10-11 22:03:45","orig_title":"Counterintelligence","year":"2020-06-28","translations":["Любительский (многоголосый закадровый) (Синема УС)","Original (English)"],"quality":"webdl","translation":"Любительский (многоголосый закадровый) (Синема УС)","update":"2020-10-16 13:23:25","iframe_src":"//8543.svetacdn.in/si4jsFRrtgrT/movie/44323"},{"id":44322,"title":"Кантри от души","kp_id":"1300745","imdb_id":"tt10887492","world_art_id":null,"type":"movie","add":"2020-10-11 22:01:49","orig_title":"Country at Heart","year":"2020-10-03","translations":["Любительский (многоголосый закадровый) (Синема УС)","Original (English)"],"quality":"hdtv","translation":"Любительский (многоголосый закадровый) (Синема УС)","update":"2020-10-16 13:17:28","iframe_src":"//8543.svetacdn.in/si4jsFRrtgrT/movie/44322"},{"id":44321,"title":"Тёмный октябрь","kp_id":null,"imdb_id":"tt13198458","world_art_id":null,"type":"movie","add":"2020-10-11 22:00:07","orig_title":"Dark October","year":"2020-10-09","translations":["Любительский (многоголосый закадровый) (Синема УС)","Original (English)"],"quality":"webdl","translation":"Любительский (многоголосый закадровый) (Синема УС)","update":"2020-10-16 13:26:00","iframe_src":"//8543.svetacdn.in/si4jsFRrtgrT/movie/44321"},{"id":44283,"title":"Основано на вере","kp_id":"1264942","imdb_id":"tt10260692","world_art_id":null,"type":"movie","add":"2020-10-09 21:17:27","orig_title":"Faith Based","year":"2020-01-18","translations":["Любительский (многоголосый закадровый) (@MUZOBOZ@)","Original (English)"],"quality":"webdl","translation":"Любительский (многоголосый закадровый) (@MUZOBOZ@)","update":"2020-10-16 13:28:07","iframe_src":"//8543.svetacdn.in/si4jsFRrtgrT/movie/44283"},{"id":44236,"title":"Секреты команды чирлидеров","kp_id":"1322943","imdb_id":"tt11203772","world_art_id":null,"type":"movie","add":"2020-10-08 10:31:17","orig_title":"Cheer Squad Secrets","year":"2020-10-04","translations":["Любительский (многоголосый закадровый) (@MUZOBOZ@)","Original (English)"],"quality":"webdl","translation":"Любительский (многоголосый закадровый) (@MUZOBOZ@)","update":"2020-10-16 13:16:25","iframe_src":"//8543.svetacdn.in/si4jsFRrtgrT/movie/44236"},{"id":44225,"title":"Книги крови","kp_id":"1323020","imdb_id":"tt11242218","world_art_id":null,"type":"movie","add":"2020-10-08 05:00:57","orig_title":"Books of Blood","year":"2020-10-07","translations":["Любительский (многоголосый закадровый) (@MUZOBOZ@)","Профессиональный (двухголосый закадровый) (IdeaFilm)","Профессиональный (многоголосый закадровый) (HDrezka Studio)","Профессиональный (многоголосый закадровый) (HDrezka Studio)","Профессиональный (многоголосый закадровый) (NewStudio)","Original (English)"],"quality":"webdl","translation":"Любительский (многоголосый закадровый) (@MUZOBOZ@)","update":"2020-10-16 13:20:05","iframe_src":"//8543.svetacdn.in/si4jsFRrtgrT/movie/44225"},{"id":40234,"title":"Куш собачий","kp_id":"1302938","imdb_id":"tt10966156","world_art_id":null,"type":"movie","add":"2020-05-09 03:05:54","orig_title":"Lucky","year":"2020-01-17","translations":["Любительский (многоголосый закадровый) (Синема УС)","Полное дублирование (iTunes)"],"quality":"webdl","translation":"Любительский (многоголосый закадровый) (Синема УС)","update":"2020-10-17 05:13:52","iframe_src":"//8543.svetacdn.in/si4jsFRrtgrT/movie/40234"},{"id":34086,"title":"Господин Дьявол","kp_id":"1172468","imdb_id":"tt8595586","world_art_id":null,"type":"movie","add":"2019-12-14 13:50:08","orig_title":"Il signor Diavolo","year":"2019-08-22","translations":["Любительский (многоголосый закадровый) (Синема УС)","Полное дублирование (iTunes)"],"quality":"bd","translation":"Любительский (многоголосый закадровый) (Синема УС)","update":"2020-10-16 13:35:34","iframe_src":"//8543.svetacdn.in/si4jsFRrtgrT/movie/34086"},{"id":5722,"title":"Ее имя Зехра","kp_id":"1112000","imdb_id":"tt7843954","world_art_id":null,"type":"serial","add":"2019-11-11 13:21:05","orig_title":"Adi: Zehra","year":"2018-02-24","translations":["Любительский (одноголосый закадровый)"],"seasons_count":1,"episodes_count":14,"episodes":14,"update":"2019-11-12 08:13:45","iframe_src":"//8543.svetacdn.in/si4jsFRrtgrT/tv-series/5722"},{"id":5721,"title":"Изо дня в день","kp_id":"1227454","imdb_id":"tt9315990","world_art_id":null,"type":"serial","add":"2019-11-11 13:10:37","orig_title":"7 Days Out","year":"2018-12-21","translations":["Профессиональный (многоголосый закадровый)"],"seasons_count":1,"episodes_count":6,"episodes":6,"update":"2019-11-12 08:41:05","iframe_src":"//8543.svetacdn.in/si4jsFRrtgrT/tv-series/5721"},{"id":5718,"title":"Цвет липы","kp_id":"1311551","imdb_id":null,"world_art_id":null,"type":"serial","add":"2019-11-11 11:13:30","orig_title":"Цвет липы","year":"2019-10-05","translations":["Оригинальная дорожка"],"seasons_count":1,"episodes_count":4,"episodes":4,"update":"2019-11-12 07:31:13","iframe_src":"//8543.svetacdn.in/si4jsFRrtgrT/tv-series/5718"},{"id":5715,"title":"Убийство первой степени","kp_id":"818765","imdb_id":"tt2402061","world_art_id":null,"type":"serial","add":"2019-11-11 07:15:44","orig_title":"Murder in the First","year":"2016-06-26","translations":["Любительский (многоголосый закадровый)","Любительский (многоголосый закадровый) (Hamster Studio)"],"seasons_count":3,"episodes_count":32,"episodes":10,"update":"2019-11-11 18:31:09","iframe_src":"//8543.svetacdn.in/si4jsFRrtgrT/tv-series/5715"},{"id":5714,"title":"Правда скрывает ложь","kp_id":"480731","imdb_id":"tt4757614","world_art_id":null,"type":"serial","add":"2019-11-10 19:39:53","orig_title":"Pravda skryvaet lozh","year":"2009-01-01","translations":["Оригинальная дорожка"],"seasons_count":1,"episodes_count":8,"episodes":8,"update":"2019-11-12 08:57:09","iframe_src":"//8543.svetacdn.in/si4jsFRrtgrT/tv-series/5714"},{"id":5710,"title":"Отставник. Один за всех","kp_id":"1252559","imdb_id":null,"world_art_id":null,"type":"serial","add":"2019-11-10 10:10:20","orig_title":"Отставник. Один за всех","year":"2019-02-23","translations":["Оригинальная дорожка"],"seasons_count":1,"episodes_count":2,"episodes":2,"update":"2019-11-11 12:19:46","iframe_src":"//8543.svetacdn.in/si4jsFRrtgrT/tv-series/5710"},{"id":5708,"title":"Мстители: Всегда вместе","kp_id":"441415","imdb_id":"tt0203247","world_art_id":null,"type":"serial","add":"2019-11-10 08:39:23","orig_title":"Avengers","year":"1999-10-30","translations":["Полное дублирование (РенТВ)"],"seasons_count":1,"episodes_count":13,"episodes":13,"update":"2019-11-11 20:51:02","iframe_src":"//8543.svetacdn.in/si4jsFRrtgrT/tv-series/5708"},{"id":5707,"title":"Другая мечта","kp_id":"1111036","imdb_id":"tt10055748","world_art_id":null,"type":"serial","add":"2019-11-10 08:35:16","orig_title":"Imong","year":"2019-05-04","translations":["Любительский (двухголосый закадровый) (AveDorama)"],"seasons_count":1,"episodes_count":20,"episodes":20,"update":"2019-11-11 12:16:27","iframe_src":"//8543.svetacdn.in/si4jsFRrtgrT/tv-series/5707"},{"id":5706,"title":"Отставник. Спасти врага","kp_id":"1252560","imdb_id":null,"world_art_id":null,"type":"serial","add":"2019-11-10 08:29:22","orig_title":"Отставник. Спасти врага","year":"2019-02-23","translations":["Оригинальная дорожка"],"seasons_count":1,"episodes_count":2,"episodes":2,"update":"2019-11-11 12:02:44","iframe_src":"//8543.svetacdn.in/si4jsFRrtgrT/tv-series/5706"},{"id":5705,"title":"Голос ангела","kp_id":"1254460","imdb_id":"tt10107486","world_art_id":null,"type":"serial","add":"2019-11-10 08:21:11","orig_title":"Golos angela","year":"2019-03-08","translations":["Оригинальная дорожка"],"seasons_count":1,"episodes_count":4,"episodes":4,"update":"2019-11-11 12:01:31","iframe_src":"//8543.svetacdn.in/si4jsFRrtgrT/tv-series/5705"},{"id":5687,"title":"Муж по принуждению","kp_id":"403417","imdb_id":"tt1059255","world_art_id":null,"type":"serial","add":"2019-11-07 10:37:22","orig_title":"Zoraki koca","year":"2007-07-02","translations":["Любительский (двухголосый закадровый)"],"seasons_count":1,"episodes_count":26,"episodes":26,"update":"2019-11-12 07:39:46","iframe_src":"//8543.svetacdn.in/si4jsFRrtgrT/tv-series/5687"},{"id":5686,"title":"Где моя дочь?","kp_id":"705784","imdb_id":"tt1825375","world_art_id":null,"type":"serial","add":"2019-11-07 10:10:59","orig_title":"Kizim nerede","year":"2010-12-17","translations":["Профессиональный (двухголосый закадровый)"],"seasons_count":2,"episodes_count":56,"episodes":28,"update":"2019-11-12 07:22:17","iframe_src":"//8543.svetacdn.in/si4jsFRrtgrT/tv-series/5686"},{"id":5685,"title":"Клерки","kp_id":"229324","imdb_id":"tt0210413","world_art_id":null,"type":"serial","add":"2019-11-07 10:01:28","orig_title":"Clerks","year":"2000-05-31","translations":["Любительский (одноголосый закадровый)"],"seasons_count":1,"episodes_count":6,"episodes":6,"update":"2019-11-11 10:08:48","iframe_src":"//8543.svetacdn.in/si4jsFRrtgrT/tv-series/5685"},{"id":5637,"title":"Военная разведка: Северный фронт","kp_id":"581286","imdb_id":"tt3547862","world_art_id":null,"type":"serial","add":"2019-11-05 13:33:22","orig_title":"Voennaya razvedka. Severnyy front","year":"2012-05-21","translations":["Оригинальная дорожка"],"seasons_count":1,"episodes_count":8,"episodes":8,"update":"2019-11-12 08:26:43","iframe_src":"//8543.svetacdn.in/si4jsFRrtgrT/tv-series/5637"},{"id":5593,"title":"Политиканы","kp_id":"678263","imdb_id":"tt2239947","world_art_id":null,"type":"serial","add":"2019-11-01 08:24:18","orig_title":"Political Animals","year":"2012-07-15","translations":["Профессиональный (многоголосый закадровый) (Amedia)"],"seasons_count":1,"episodes_count":6,"episodes":6,"update":"2019-11-11 11:49:20","iframe_src":"//8543.svetacdn.in/si4jsFRrtgrT/tv-series/5593"},{"id":5589,"title":"Главарь","kp_id":"696820","imdb_id":"tt1830379","world_art_id":null,"type":"serial","add":"2019-10-31 07:26:23","orig_title":"Top Boy","year":"2011-10-31","translations":["Профессиональный (многоголосый закадровый) (ViruseProject)","Профессиональный (многоголосый закадровый) (TVShows)","Полное дублирование (Невафильм)"],"seasons_count":3,"episodes_count":18,"episodes":10,"update":"2019-11-11 10:47:20","iframe_src":"//8543.svetacdn.in/si4jsFRrtgrT/tv-series/5589"},{"id":5498,"title":"В поисках Аляски","kp_id":"929473","imdb_id":"tt3829868","world_art_id":null,"type":"serial","add":"2019-10-21 11:54:45","orig_title":"Looking for Alaska","year":"2019-10-18","translations":["Любительский (двухголосый закадровый) (KerobTV)","Профессиональный (многоголосый закадровый) (HDrezka Studio)"],"seasons_count":1,"episodes_count":8,"episodes":8,"update":"2019-11-11 10:36:49","iframe_src":"//8543.svetacdn.in/si4jsFRrtgrT/tv-series/5498"},{"id":5492,"title":"Жизнь с самим собой","kp_id":"1183824","imdb_id":"tt8880894","world_art_id":null,"type":"serial","add":"2019-10-18 14:44:33","orig_title":"Living with Yourself","year":"2019-10-18","translations":["Полное дублирование (Netflix)","Профессиональный (многоголосый закадровый) (HDrezka Studio)"],"seasons_count":1,"episodes_count":8,"episodes":8,"update":"2019-11-11 10:23:44","iframe_src":"//8543.svetacdn.in/si4jsFRrtgrT/tv-series/5492"},{"id":4668,"title":"Дикий Билл","kp_id":"1200056","imdb_id":"tt9118930","world_art_id":null,"type":"serial","add":"2019-06-16 09:29:43","orig_title":"Wild Bill","year":"2019-06-12","translations":["Любительский (многоголосый закадровый) (Octopus)","Профессиональный (многоголосый закадровый) (HDrezka Studio)"],"seasons_count":1,"episodes_count":6,"episodes":6,"update":"2019-11-11 10:15:08","iframe_src":"//8543.svetacdn.in/si4jsFRrtgrT/tv-series/4668"},{"id":1390,"title":"Миссии","kp_id":"1046513","imdb_id":"tt6445112","world_art_id":null,"type":"serial","add":"2017-07-12 15:38:21","orig_title":"Missions","year":"2017-06-01","translations":["Профессиональный (многоголосый закадровый) (SunshineStudio)","Профессиональный (многоголосый закадровый) (TVShows)"],"seasons_count":1,"episodes_count":10,"episodes":10,"update":"2019-11-11 18:33:46","iframe_src":"//8543.svetacdn.in/si4jsFRrtgrT/tv-series/1390"}],"current_page":279,"first_page_url":"https://videocdn.tv/api/short?limit=100&api_token=X6EwAUfE5M9xbo7y0Bp0aPf3uXxG2KLL&cache3279=3279&page=1","from":27801,"last_page":598,"last_page_url":"https://videocdn.tv/api/short?limit=100&api_token=X6EwAUfE5M9xbo7y0Bp0aPf3uXxG2KLL&cache3279=3279&page=598","next_page_url":"https://videocdn.tv/api/short?limit=100&api_token=X6EwAUfE5M9xbo7y0Bp0aPf3uXxG2KLL&cache3279=3279&page=280","path":"https://videocdn.tv/api/short","per_page":100,"prev_page_url":"https://videocdn.tv/api/short?limit=100&api_token=X6EwAUfE5M9xbo7y0Bp0aPf3uXxG2KLL&cache3279=3279&page=278","to":27840,"total":59725}