{"result":true,"data":[{"id":53916,"title":"Пропавшая мать: Исчезновение Дженнифер Дулос","kp_id":"4439451","imdb_id":"tt14490832","world_art_id":null,"type":"movie","add":"2021-10-17 15:52:51","orig_title":"Gone Mom","year":"2021-06-05","translations":["Любительский (многоголосый закадровый) (AlphaProject)"],"quality":"webdl","translation":"Любительский (многоголосый закадровый) (AlphaProject)","update":"2021-10-17 19:26:12","iframe_src":"//83.svetacdn.in/PfJ50H0ZBPg3/movie/53916"},{"id":53914,"title":"Пожалуйста, убей меня","kp_id":"4633406","imdb_id":"tt15307404","world_art_id":null,"type":"movie","add":"2021-10-17 15:46:42","orig_title":"Please Kill Me","year":"2021-09-24","translations":["Любительский (многоголосый закадровый) (Синема УС)"],"quality":"webdl","translation":"Любительский (многоголосый закадровый) (Синема УС)","update":"2021-10-17 19:27:12","iframe_src":"//83.svetacdn.in/PfJ50H0ZBPg3/movie/53914"},{"id":53913,"title":"Люби меня нежно","kp_id":"1256294","imdb_id":"tt10189466","world_art_id":null,"type":"movie","add":"2021-10-17 07:51:51","orig_title":"Love Me Tender","year":"2019-08-09","translations":["Любительский (многоголосый закадровый) (Синема УС)"],"quality":"webdl","translation":"Любительский (многоголосый закадровый) (Синема УС)","update":"2021-10-17 16:43:16","iframe_src":"//83.svetacdn.in/PfJ50H0ZBPg3/movie/53913"},{"id":53912,"title":"Смертельные провалы","kp_id":"1350099","imdb_id":"tt11839616","world_art_id":null,"type":"movie","add":"2021-10-17 07:51:21","orig_title":"Lapsus Mortal","year":"2020-01-19","translations":["Любительский (многоголосый закадровый) (Синема УС)"],"quality":"webdl","translation":"Любительский (многоголосый закадровый) (Синема УС)","update":"2021-10-17 12:38:31","iframe_src":"//83.svetacdn.in/PfJ50H0ZBPg3/movie/53912"},{"id":53911,"title":"Вся моя жизнь","kp_id":"1304983","imdb_id":"tt10984686","world_art_id":null,"type":"movie","add":"2021-10-17 07:50:38","orig_title":"Jinde Meriye","year":"2020-01-24","translations":["Любительский (многоголосый закадровый) (Синема УС)"],"quality":"webdl","translation":"Любительский (многоголосый закадровый) (Синема УС)","update":"2021-10-17 16:42:20","iframe_src":"//83.svetacdn.in/PfJ50H0ZBPg3/movie/53911"},{"id":53910,"title":"Судьба Алакады","kp_id":"1361877","imdb_id":"tt11829884","world_art_id":null,"type":"movie","add":"2021-10-17 07:50:00","orig_title":"Fate of Alakada","year":"2020-04-03","translations":["Любительский (многоголосый закадровый) (Синема УС)"],"quality":"webdl","translation":"Любительский (многоголосый закадровый) (Синема УС)","update":"2021-10-17 16:42:06","iframe_src":"//83.svetacdn.in/PfJ50H0ZBPg3/movie/53910"},{"id":53909,"title":"Пробуждение","kp_id":"1046795","imdb_id":"tt7128316","world_art_id":null,"type":"movie","add":"2021-10-17 07:49:25","orig_title":"Awaken","year":"2018-11-22","translations":["Любительский (многоголосый закадровый) (AlphaProject)"],"quality":"bd","translation":"Любительский (многоголосый закадровый) (AlphaProject)","update":"2021-10-17 16:41:55","iframe_src":"//83.svetacdn.in/PfJ50H0ZBPg3/movie/53909"},{"id":53907,"title":"365","kp_id":"1136998","imdb_id":"tt7972454","world_art_id":null,"type":"movie","add":"2021-10-17 07:48:41","orig_title":"365","year":"2019-11-15","translations":["Любительский (многоголосый закадровый) (Синема УС)"],"quality":"webdl","translation":"Любительский (многоголосый закадровый) (Синема УС)","update":"2021-10-17 16:41:40","iframe_src":"//83.svetacdn.in/PfJ50H0ZBPg3/movie/53907"},{"id":53885,"title":"Молодой Индиана Джонс: Путь к просветлению","kp_id":"407513","imdb_id":"tt1201558","world_art_id":null,"type":"movie","add":"2021-10-16 18:13:31","orig_title":"The Adventures of Young Indiana Jones: Journey of Radiance","year":"2000-07-11","translations":["Профессиональный (многоголосый закадровый) (Кравец)"],"quality":"dvdrip","translation":"Профессиональный (многоголосый закадровый) (Кравец)","update":"2021-10-17 21:34:11","iframe_src":"//83.svetacdn.in/PfJ50H0ZBPg3/movie/53885"},{"id":53884,"title":"Молодой Индиана Джонс: Путешествие с отцом","kp_id":"229297","imdb_id":"tt0154003","world_art_id":null,"type":"movie","add":"2021-10-16 18:00:36","orig_title":"The Adventures of Young Indiana Jones: Travels with Father","year":"1996-06-16","translations":["Профессиональный (многоголосый закадровый) (Кравец)"],"quality":"dvdrip","translation":"Профессиональный (многоголосый закадровый) (Кравец)","update":"2021-10-17 21:32:51","iframe_src":"//83.svetacdn.in/PfJ50H0ZBPg3/movie/53884"},{"id":53883,"title":"Приключения молодого Индианы Джонса: Ловушки Купидона","kp_id":"772992","imdb_id":"tt1194567","world_art_id":null,"type":"movie","add":"2021-10-16 17:09:34","orig_title":"The Adventures of Young Indiana Jones: The Perils of Cupid","year":"2000-09-19","translations":["Профессиональный (многоголосый закадровый) (Кравец)"],"quality":"dvdrip","translation":"Профессиональный (многоголосый закадровый) (Кравец)","update":"2021-10-17 21:31:28","iframe_src":"//83.svetacdn.in/PfJ50H0ZBPg3/movie/53883"},{"id":53881,"title":"Моё первое приключение","kp_id":"406204","imdb_id":"tt1190535","world_art_id":null,"type":"movie","add":"2021-10-16 16:58:25","orig_title":"The Adventures of Young Indiana Jones: My First Adventure","year":"2000-07-10","translations":["Профессиональный (многоголосый закадровый) (Кравец)"],"quality":"dvdrip","translation":"Профессиональный (многоголосый закадровый) (Кравец)","update":"2021-10-17 08:18:39","iframe_src":"//83.svetacdn.in/PfJ50H0ZBPg3/movie/53881"},{"id":53877,"title":"Гость","kp_id":"41806","imdb_id":"tt0077183","world_art_id":null,"type":"movie","add":"2021-10-16 15:29:07","orig_title":"Atithee","year":"1978-01-01","translations":["Любительский (одноголосый закадровый)"],"quality":"dvdrip","translation":"Любительский (одноголосый закадровый)","update":"2021-10-17 06:36:30","iframe_src":"//83.svetacdn.in/PfJ50H0ZBPg3/movie/53877"},{"id":53876,"title":"Ловушка","kp_id":"655126","imdb_id":"tt2137064","world_art_id":null,"type":"movie","add":"2021-10-16 15:23:06","orig_title":"Lanka","year":"2011-12-09","translations":["Профессиональный (многоголосый закадровый) (Bollywood HD)"],"quality":"hdtv","translation":"Профессиональный (многоголосый закадровый) (Bollywood HD)","update":"2021-10-17 06:35:39","iframe_src":"//83.svetacdn.in/PfJ50H0ZBPg3/movie/53876"},{"id":53843,"title":"Шпик","kp_id":"21325","imdb_id":"tt0067900","world_art_id":null,"type":"movie","add":"2021-10-14 18:59:05","orig_title":"Un flic","year":"1972-10-25","translations":["Профессиональный (многоголосый закадровый) (Первый канал | ОРТ)"],"quality":"bd","translation":"Профессиональный (многоголосый закадровый) (Первый канал | ОРТ)","update":"2021-10-17 17:44:51","iframe_src":"//83.svetacdn.in/PfJ50H0ZBPg3/movie/53843"},{"id":53759,"title":"Родная земля","kp_id":"41736","imdb_id":"tt0232018","world_art_id":null,"type":"movie","add":"2021-10-11 07:39:25","orig_title":"Maati Maangey Khoon","year":"1984-04-06","translations":["Профессиональный (многоголосый закадровый)"],"quality":"webdl","translation":"Профессиональный (многоголосый закадровый)","update":"2021-10-17 06:38:53","iframe_src":"//83.svetacdn.in/PfJ50H0ZBPg3/movie/53759"},{"id":53758,"title":"Происшествие на Хилл-роуд","kp_id":"492452","imdb_id":"tt1570417","world_art_id":null,"type":"movie","add":"2021-10-11 07:33:06","orig_title":"Accident on Hill Road","year":"2009-12-31","translations":["Профессиональный (двухголосый закадровый) (Bollywood HD)"],"quality":"webdl","translation":"Профессиональный (двухголосый закадровый) (Bollywood HD)","update":"2021-10-17 06:37:43","iframe_src":"//83.svetacdn.in/PfJ50H0ZBPg3/movie/53758"},{"id":51303,"title":"Холостяк на свадьбе","kp_id":"1367879","imdb_id":"tt12105554","world_art_id":null,"type":"movie","add":"2021-06-20 11:27:48","orig_title":"Le discours","year":"2020-09-01","translations":["Любительский (двухголосый закадровый) (Колобок)","Полное дублирование (Марафон)"],"quality":"ts","translation":"Любительский (двухголосый закадровый) (Колобок)","update":"2021-10-17 10:54:15","iframe_src":"//83.svetacdn.in/PfJ50H0ZBPg3/movie/51303"},{"id":32647,"title":"Байкеры 3","kp_id":"582354","imdb_id":"tt1833673","world_art_id":null,"type":"movie","add":"2019-11-03 18:27:17","orig_title":"Dhoom:3","year":"2013-12-19","translations":["Любительский (многоголосый закадровый) (ICG)","Профессиональный (многоголосый закадровый) (Индийское кино)"],"quality":"bd","translation":"Любительский (многоголосый закадровый) (ICG)","update":"2021-10-17 06:38:36","iframe_src":"//83.svetacdn.in/PfJ50H0ZBPg3/movie/32647"},{"id":5571,"title":"С небес на землю","kp_id":"893543","imdb_id":null,"world_art_id":null,"type":"serial","add":"2019-10-29 09:49:39","orig_title":"S nebes na zemlu","year":"2015-04-04","translations":["Оригинальная дорожка"],"seasons_count":1,"episodes_count":4,"episodes":4,"update":"2019-10-29 11:58:36","iframe_src":"//83.svetacdn.in/PfJ50H0ZBPg3/tv-series/5571"},{"id":5570,"title":"Крутые берега","kp_id":"586580","imdb_id":"tt3785380","world_art_id":null,"type":"serial","add":"2019-10-29 09:42:16","orig_title":"Krutye berega","year":"2011-05-10","translations":["Оригинальная дорожка"],"seasons_count":1,"episodes_count":14,"episodes":14,"update":"2019-10-29 11:54:35","iframe_src":"//83.svetacdn.in/PfJ50H0ZBPg3/tv-series/5570"},{"id":5569,"title":"Библия","kp_id":"736211","imdb_id":"tt2245988","world_art_id":null,"type":"serial","add":"2019-10-29 09:34:02","orig_title":"The Bible","year":"2013-03-03","translations":["Профессиональный (многоголосый закадровый) (BaibaKo)"],"seasons_count":1,"episodes_count":10,"episodes":10,"update":"2019-10-29 11:46:44","iframe_src":"//83.svetacdn.in/PfJ50H0ZBPg3/tv-series/5569"},{"id":5565,"title":"Муж женщины-политика","kp_id":"727110","imdb_id":"tt2199618","world_art_id":null,"type":"serial","add":"2019-10-29 06:16:04","orig_title":"The Politician's Husband","year":"2013-04-25","translations":["Профессиональный (многоголосый закадровый) (BaibaKo)"],"seasons_count":1,"episodes_count":3,"episodes":3,"update":"2019-10-29 08:11:12","iframe_src":"//83.svetacdn.in/PfJ50H0ZBPg3/tv-series/5565"},{"id":5564,"title":"Шпионы Варшавы","kp_id":"676430","imdb_id":"tt2343137","world_art_id":null,"type":"serial","add":"2019-10-29 06:12:39","orig_title":"Spies of Warsaw","year":"2013-01-09","translations":["Профессиональный (многоголосый закадровый) (BaibaKo)"],"seasons_count":1,"episodes_count":2,"episodes":2,"update":"2019-10-29 08:08:17","iframe_src":"//83.svetacdn.in/PfJ50H0ZBPg3/tv-series/5564"},{"id":5560,"title":"Роковое sms","kp_id":"1221593","imdb_id":null,"world_art_id":null,"type":"serial","add":"2019-10-28 19:04:12","orig_title":"Роковое sms","year":"2018-11-23","translations":["Оригинальная дорожка"],"seasons_count":1,"episodes_count":2,"episodes":2,"update":"2019-10-29 03:54:49","iframe_src":"//83.svetacdn.in/PfJ50H0ZBPg3/tv-series/5560"},{"id":5547,"title":"Досье детектива Дубровского","kp_id":"94422","imdb_id":"tt0216466","world_art_id":null,"type":"serial","add":"2019-10-28 08:21:37","orig_title":"Dose detektiva Dubrovskogo","year":"1999-06-16","translations":["Оригинальная дорожка"],"seasons_count":1,"episodes_count":18,"episodes":18,"update":"2019-10-28 10:31:24","iframe_src":"//83.svetacdn.in/PfJ50H0ZBPg3/tv-series/5547"},{"id":5546,"title":"Тайные дела подружек невесты","kp_id":"1263458","imdb_id":"tt9893174","world_art_id":null,"type":"serial","add":"2019-10-28 07:57:23","orig_title":"Secret Bridesmaids' Business","year":"2019-09-29","translations":["Профессиональный (многоголосый закадровый) (Sound Film)"],"seasons_count":1,"episodes_count":6,"episodes":6,"update":"2019-10-29 06:10:55","iframe_src":"//83.svetacdn.in/PfJ50H0ZBPg3/tv-series/5546"},{"id":5544,"title":"Шпионы на всю голову","kp_id":"1130828","imdb_id":"tt8096690","world_art_id":null,"type":"serial","add":"2019-10-28 07:25:17","orig_title":"Action Team","year":"2018-03-05","translations":["Профессиональный (многоголосый закадровый) (ShowJet)"],"seasons_count":1,"episodes_count":6,"episodes":6,"update":"2019-10-28 13:49:26","iframe_src":"//83.svetacdn.in/PfJ50H0ZBPg3/tv-series/5544"},{"id":5543,"title":"Компаньонка","kp_id":"1302075","imdb_id":"tt10927864","world_art_id":null,"type":"serial","add":"2019-10-28 07:20:06","orig_title":"A Companion","year":"2019-10-27","translations":["Оригинальная дорожка"],"seasons_count":1,"episodes_count":4,"episodes":4,"update":"2019-10-29 07:41:24","iframe_src":"//83.svetacdn.in/PfJ50H0ZBPg3/tv-series/5543"},{"id":5542,"title":"Не те парни","kp_id":"802960","imdb_id":"tt2603596","world_art_id":null,"type":"serial","add":"2019-10-28 05:43:32","orig_title":"The Wrong Mans","year":"2013-09-24","translations":["Любительский (многоголосый закадровый)","Любительский (двухголосый закадровый) (SNK-TV)"],"seasons_count":2,"episodes_count":8,"episodes":2,"update":"2019-10-29 06:50:24","iframe_src":"//83.svetacdn.in/PfJ50H0ZBPg3/tv-series/5542"},{"id":5540,"title":"Чужие крылья","kp_id":"592128","imdb_id":"tt3334172","world_art_id":null,"type":"serial","add":"2019-10-27 16:38:32","orig_title":"Chuzhie krylya","year":"2012-05-08","translations":["Оригинальная дорожка"],"seasons_count":1,"episodes_count":6,"episodes":6,"update":"2019-10-28 13:31:50","iframe_src":"//83.svetacdn.in/PfJ50H0ZBPg3/tv-series/5540"},{"id":5534,"title":"Совсем чужие","kp_id":"1313573","imdb_id":null,"world_art_id":null,"type":"serial","add":"2019-10-27 14:47:08","orig_title":"Совсем чужие","year":"2019-10-26","translations":["Оригинальная дорожка"],"seasons_count":1,"episodes_count":2,"episodes":2,"update":"2019-10-28 17:26:02","iframe_src":"//83.svetacdn.in/PfJ50H0ZBPg3/tv-series/5534"},{"id":5533,"title":"След лисицы на камнях","kp_id":"1235981","imdb_id":null,"world_art_id":null,"type":"serial","add":"2019-10-26 08:05:54","orig_title":"След лисицы на камнях","year":"2019-01-01","translations":["Оригинальная дорожка"],"seasons_count":1,"episodes_count":4,"episodes":4,"update":"2019-10-28 17:24:31","iframe_src":"//83.svetacdn.in/PfJ50H0ZBPg3/tv-series/5533"},{"id":5521,"title":"Голод","kp_id":"398925","imdb_id":"tt0118346","world_art_id":null,"type":"serial","add":"2019-10-24 19:53:04","orig_title":"The Hunger","year":"1997-07-20","translations":["Профессиональный (многоголосый закадровый)"],"seasons_count":2,"episodes_count":44,"episodes":22,"update":"2019-10-25 21:01:26","iframe_src":"//83.svetacdn.in/PfJ50H0ZBPg3/tv-series/5521"},{"id":5491,"title":"Московские тайны. Либерея","kp_id":"1283336","imdb_id":null,"world_art_id":null,"type":"serial","add":"2019-10-18 14:38:30","orig_title":"Московские тайны. Либерея","year":"2019-10-18","translations":["Оригинальная дорожка"],"seasons_count":1,"episodes_count":2,"episodes":2,"update":"2019-10-29 03:53:02","iframe_src":"//83.svetacdn.in/PfJ50H0ZBPg3/tv-series/5491"},{"id":5195,"title":"Предатель","kp_id":"666878","imdb_id":null,"world_art_id":null,"type":"serial","add":"2019-09-13 10:27:53","orig_title":"Предатель","year":"2012-10-11","translations":["Оригинальная дорожка"],"seasons_count":1,"episodes_count":12,"episodes":12,"update":"2019-10-29 12:46:10","iframe_src":"//83.svetacdn.in/PfJ50H0ZBPg3/tv-series/5195"},{"id":5048,"title":"Зелёная граница","kp_id":"1289061","imdb_id":"tt9641192","world_art_id":null,"type":"serial","add":"2019-08-19 11:21:53","orig_title":"Frontera Verde","year":"2019-08-16","translations":["Любительский (многоголосый закадровый) (Octopus)","Профессиональный (двухголосый закадровый) (IdeaFilm)","Профессиональный (многоголосый закадровый) (HDrezka Studio)"],"seasons_count":1,"episodes_count":8,"episodes":8,"update":"2019-10-29 19:08:59","iframe_src":"//83.svetacdn.in/PfJ50H0ZBPg3/tv-series/5048"},{"id":23106,"title":"Только ты","kp_id":"98450","imdb_id":"tt0430702","world_art_id":null,"type":"movie","add":"2019-03-15 11:15:32","orig_title":"Tumsa Nahin Dekha","year":"2004-09-24","translations":["Любительский (двухголосый закадровый)","Профессиональный (двухголосый закадровый) (Bollywood HD)"],"quality":"webdl","translation":"Любительский (двухголосый закадровый)","update":"2021-10-17 06:38:08","iframe_src":"//83.svetacdn.in/PfJ50H0ZBPg3/movie/23106"},{"id":3219,"title":"Канцелярская крыса","kp_id":"1103793","imdb_id":null,"world_art_id":null,"type":"serial","add":"2018-09-25 09:11:06","orig_title":"Канцелярская крыса","year":"2018-09-24","translations":["Оригинальная дорожка"],"seasons_count":2,"episodes_count":36,"episodes":20,"update":"2019-10-26 07:58:23","iframe_src":"//83.svetacdn.in/PfJ50H0ZBPg3/tv-series/3219"},{"id":324,"title":"Спартак: Кровь и песок","kp_id":"469619","imdb_id":"tt1442449","world_art_id":null,"type":"serial","add":"2016-08-03 06:27:31","orig_title":"Spartacus: Blood and Sand","year":"2010-01-22","translations":["Профессиональный (многоголосый закадровый) (LostFilm)","Профессиональный (многоголосый закадровый) (TVShows)","Полное дублирование (РенТВ)"],"seasons_count":3,"episodes_count":33,"episodes":10,"update":"2019-10-25 13:21:23","iframe_src":"//83.svetacdn.in/PfJ50H0ZBPg3/tv-series/324"}],"current_page":436,"first_page_url":"https://videocdn.tv/api/short?limit=100&api_token=RgFQdUIR2dRmwv8iYa5SnFNgnw3vpjKj&cache3436=3436&page=1","from":43501,"last_page":723,"last_page_url":"https://videocdn.tv/api/short?limit=100&api_token=RgFQdUIR2dRmwv8iYa5SnFNgnw3vpjKj&cache3436=3436&page=723","next_page_url":"https://videocdn.tv/api/short?limit=100&api_token=RgFQdUIR2dRmwv8iYa5SnFNgnw3vpjKj&cache3436=3436&page=437","path":"https://videocdn.tv/api/short","per_page":100,"prev_page_url":"https://videocdn.tv/api/short?limit=100&api_token=RgFQdUIR2dRmwv8iYa5SnFNgnw3vpjKj&cache3436=3436&page=435","to":43540,"total":72256}