{"result":true,"data":[{"id":45033,"title":"Секрет племени Бороро","kp_id":"47475","imdb_id":"tt0182686","world_art_id":null,"type":"movie","add":"2020-11-04 22:52:49","orig_title":"Akce Bororo","year":"1973-01-01","translations":["Полное дублирование"],"quality":"dvdrip","translation":"Полное дублирование","update":"2020-11-05 10:13:52","iframe_src":"//83.svetacdn.in/PfJ50H0ZBPg3/movie/45033"},{"id":45023,"title":"Окраина","kp_id":"1240851","imdb_id":"tt9643312","world_art_id":null,"type":"movie","add":"2020-11-04 18:40:18","orig_title":"Baixo Centro","year":"2018-09-27","translations":["Любительский (многоголосый закадровый) (Синема УС)"],"quality":"webdl","translation":"Любительский (многоголосый закадровый) (Синема УС)","update":"2020-11-05 08:57:49","iframe_src":"//83.svetacdn.in/PfJ50H0ZBPg3/movie/45023"},{"id":45022,"title":"Сладкие души","kp_id":"1191233","imdb_id":"tt8985390","world_art_id":null,"type":"movie","add":"2020-11-04 18:35:13","orig_title":"Sweet Taste of Souls","year":"2020-11-01","translations":["Любительский (многоголосый закадровый) (Синема УС)"],"quality":"webdl","translation":"Любительский (многоголосый закадровый) (Синема УС)","update":"2020-11-05 09:04:26","iframe_src":"//83.svetacdn.in/PfJ50H0ZBPg3/movie/45022"},{"id":45020,"title":"Любовь — не любовь","kp_id":"1089398","imdb_id":"tt7415156","world_art_id":null,"type":"movie","add":"2020-11-04 18:32:10","orig_title":"Love Is Not Love","year":"2019-01-01","translations":["Любительский (многоголосый закадровый) (Синема УС)"],"quality":"webdl","translation":"Любительский (многоголосый закадровый) (Синема УС)","update":"2020-11-05 08:58:21","iframe_src":"//83.svetacdn.in/PfJ50H0ZBPg3/movie/45020"},{"id":45019,"title":"Кто есть кто? Или ограбление по...","kp_id":"1162829","imdb_id":null,"world_art_id":null,"type":"movie","add":"2020-11-04 12:40:09","orig_title":"Кто есть кто? Или ограбление по...","year":"2018-01-01","translations":["Оригинальная дорожка"],"quality":"webdl","translation":"Оригинальная дорожка","update":"2020-11-05 09:11:56","iframe_src":"//83.svetacdn.in/PfJ50H0ZBPg3/movie/45019"},{"id":44855,"title":"Почему у зайцев уши длинные","kp_id":"1270761","imdb_id":null,"world_art_id":null,"type":"movie","add":"2020-10-27 17:40:41","orig_title":"Почему у зайцев уши длинные","year":"1973-01-01","translations":["Оригинальная дорожка"],"quality":"dvdrip","translation":"Оригинальная дорожка","update":"2020-11-05 13:44:42","iframe_src":"//83.svetacdn.in/PfJ50H0ZBPg3/movie/44855"},{"id":44854,"title":"Почтовая рыбка","kp_id":"573600","imdb_id":"tt4452020","world_art_id":null,"type":"movie","add":"2020-10-27 17:34:16","orig_title":"Pochtovaya rybka","year":"1976-01-01","translations":["Оригинальная дорожка"],"quality":"dvdrip","translation":"Оригинальная дорожка","update":"2020-11-05 13:41:41","iframe_src":"//83.svetacdn.in/PfJ50H0ZBPg3/movie/44854"},{"id":44853,"title":"Пропавшая грамота","kp_id":"43305","imdb_id":"tt0239843","world_art_id":null,"type":"movie","add":"2020-10-27 17:27:52","orig_title":"Propavshaya gramota","year":"1945-11-09","translations":["Оригинальная дорожка"],"quality":"dvdrip","translation":"Оригинальная дорожка","update":"2020-11-05 13:36:20","iframe_src":"//83.svetacdn.in/PfJ50H0ZBPg3/movie/44853"},{"id":44851,"title":"Танцы кукол","kp_id":"581778","imdb_id":"tt2268664","world_art_id":null,"type":"movie","add":"2020-10-27 17:14:28","orig_title":"Tantsy kukol","year":"1985-01-01","translations":["Оригинальная дорожка"],"quality":"dvdrip","translation":"Оригинальная дорожка","update":"2020-11-05 13:27:46","iframe_src":"//83.svetacdn.in/PfJ50H0ZBPg3/movie/44851"},{"id":44850,"title":"Три толстяка","kp_id":"42306","imdb_id":"tt0213292","world_art_id":null,"type":"movie","add":"2020-10-27 17:11:44","orig_title":"Tri tolstyaka","year":"1963-06-02","translations":["Оригинальная дорожка"],"quality":"dvdrip","translation":"Оригинальная дорожка","update":"2020-11-05 13:26:47","iframe_src":"//83.svetacdn.in/PfJ50H0ZBPg3/movie/44850"},{"id":44849,"title":"Ученик волшебника","kp_id":"681866","imdb_id":"tt8193458","world_art_id":null,"type":"movie","add":"2020-10-27 17:06:07","orig_title":"Uchenik volshebnika","year":"1983-01-01","translations":["Оригинальная дорожка"],"quality":"sat","translation":"Оригинальная дорожка","update":"2020-11-05 13:25:51","iframe_src":"//83.svetacdn.in/PfJ50H0ZBPg3/movie/44849"},{"id":44848,"title":"Впервые на арене","kp_id":"260071","imdb_id":"tt4166498","world_art_id":null,"type":"movie","add":"2020-10-27 17:04:03","orig_title":"Vpervye na arene","year":"1961-01-01","translations":["Оригинальная дорожка"],"quality":"dvdrip","translation":"Оригинальная дорожка","update":"2020-11-05 13:24:30","iframe_src":"//83.svetacdn.in/PfJ50H0ZBPg3/movie/44848"},{"id":44847,"title":"Всё наоборот","kp_id":"574140","imdb_id":"tt7507362","world_art_id":null,"type":"movie","add":"2020-10-27 16:59:58","orig_title":"Vsyo naoborot","year":"1974-01-01","translations":["Оригинальная дорожка"],"quality":"dvdrip","translation":"Оригинальная дорожка","update":"2020-11-05 13:23:22","iframe_src":"//83.svetacdn.in/PfJ50H0ZBPg3/movie/44847"},{"id":44813,"title":"Подари тепло","kp_id":"1316587","imdb_id":null,"world_art_id":null,"type":"movie","add":"2020-10-26 18:11:38","orig_title":"Подари тепло","year":"1987-01-01","translations":["Оригинальная дорожка"],"quality":"dvdrip","translation":"Оригинальная дорожка","update":"2020-11-05 13:21:48","iframe_src":"//83.svetacdn.in/PfJ50H0ZBPg3/movie/44813"},{"id":44812,"title":"Дедушка и внучек","kp_id":"257924","imdb_id":"tt2563878","world_art_id":null,"type":"movie","add":"2020-10-26 18:07:19","orig_title":"Dedushka i vnuchek","year":"1950-03-07","translations":["Оригинальная дорожка"],"quality":"dvdrip","translation":"Оригинальная дорожка","update":"2020-11-05 13:20:14","iframe_src":"//83.svetacdn.in/PfJ50H0ZBPg3/movie/44812"},{"id":44811,"title":"Старый волк и новичок Пуфик","kp_id":"586631","imdb_id":null,"world_art_id":null,"type":"movie","add":"2020-10-26 18:04:36","orig_title":"Старый волк и новичок Пуфик","year":"1974-01-01","translations":["Оригинальная дорожка"],"quality":"dvdrip","translation":"Оригинальная дорожка","update":"2020-11-05 13:19:02","iframe_src":"//83.svetacdn.in/PfJ50H0ZBPg3/movie/44811"},{"id":44810,"title":"Снегопад из холодильника","kp_id":"574577","imdb_id":"tt6052542","world_art_id":null,"type":"movie","add":"2020-10-26 18:00:54","orig_title":"Snegopad iz kholodilnika","year":"1986-01-01","translations":["Оригинальная дорожка"],"quality":"dvdrip","translation":"Оригинальная дорожка","update":"2020-11-05 13:17:50","iframe_src":"//83.svetacdn.in/PfJ50H0ZBPg3/movie/44810"},{"id":44809,"title":"Сказка о твердом орехе","kp_id":"679728","imdb_id":"tt6940710","world_art_id":null,"type":"movie","add":"2020-10-26 17:58:53","orig_title":"Skazka o tvyordom orekhe","year":"1971-04-25","translations":["Оригинальная дорожка"],"quality":"dvdrip","translation":"Оригинальная дорожка","update":"2020-11-05 13:16:32","iframe_src":"//83.svetacdn.in/PfJ50H0ZBPg3/movie/44809"},{"id":44808,"title":"Самовар Иван Иваныч","kp_id":"620078","imdb_id":null,"world_art_id":null,"type":"movie","add":"2020-10-26 17:55:26","orig_title":"Самовар Иван Иваныч","year":"1987-01-01","translations":["Оригинальная дорожка"],"quality":"dvdrip","translation":"Оригинальная дорожка","update":"2020-11-05 13:15:39","iframe_src":"//83.svetacdn.in/PfJ50H0ZBPg3/movie/44808"},{"id":10908,"title":"Только секс","kp_id":"244096","imdb_id":"tt0494277","world_art_id":null,"type":"movie","add":"2017-04-12 11:11:31","orig_title":"Strictly Sexual","year":"2008-06-06","translations":["Профессиональный (двухголосый закадровый)","[EN] Original (English)"],"quality":"dvdrip","translation":"Профессиональный (двухголосый закадровый)","update":"2020-11-05 09:11:07","iframe_src":"//83.svetacdn.in/PfJ50H0ZBPg3/movie/10908"}],"current_page":959,"first_page_url":"https://videocdn.tv/api/short?limit=100&api_token=RgFQdUIR2dRmwv8iYa5SnFNgnw3vpjKj&cache3959=3959&page=1","from":95801,"last_page":719,"last_page_url":"https://videocdn.tv/api/short?limit=100&api_token=RgFQdUIR2dRmwv8iYa5SnFNgnw3vpjKj&cache3959=3959&page=719","next_page_url":null,"path":"https://videocdn.tv/api/short","per_page":100,"prev_page_url":"https://videocdn.tv/api/short?limit=100&api_token=RgFQdUIR2dRmwv8iYa5SnFNgnw3vpjKj&cache3959=3959&page=958","to":95820,"total":71893}