{"result":true,"data":[{"id":48620,"title":"Нюрнберг","kp_id":"93564","imdb_id":"tt0208629","world_art_id":null,"type":"movie","add":"2021-03-10 15:22:04","orig_title":"Nuremberg","year":"2000-07-16","translations":["Профессиональный (многоголосый закадровый)"],"quality":"bd","translation":"Профессиональный (многоголосый закадровый)","update":"2021-03-11 05:54:34","iframe_src":"//5322.svetacdn.in/IAF0wWTdNYZm/movie/48620"},{"id":48619,"title":"Зимнее озеро","kp_id":"1244063","imdb_id":"tt9778348","world_art_id":null,"type":"movie","add":"2021-03-10 13:12:44","orig_title":"The Winter Lake","year":"2020-07-10","translations":["Любительский (многоголосый закадровый) (AlphaProject)"],"quality":"webdl","translation":"Любительский (многоголосый закадровый) (AlphaProject)","update":"2021-03-11 00:42:55","iframe_src":"//5322.svetacdn.in/IAF0wWTdNYZm/movie/48619"},{"id":48616,"title":"Как проснуться от кошмара?","kp_id":"1237313","imdb_id":"tt9587604","world_art_id":null,"type":"movie","add":"2021-03-10 10:35:59","orig_title":"How to Stop a Recurring Dream","year":"2021-03-09","translations":["Любительский (многоголосый закадровый) (Синема УС)"],"quality":"webdl","translation":"Любительский (многоголосый закадровый) (Синема УС)","update":"2021-03-11 00:40:25","iframe_src":"//5322.svetacdn.in/IAF0wWTdNYZm/movie/48616"},{"id":48615,"title":"Убийственная мода","kp_id":"1238745","imdb_id":"tt9741310","world_art_id":null,"type":"movie","add":"2021-03-10 10:32:40","orig_title":"Slaxx","year":"2021-03-18","translations":["Любительский (многоголосый закадровый) (AlphaProject)"],"quality":"webdl","translation":"Любительский (многоголосый закадровый) (AlphaProject)","update":"2021-03-11 00:39:47","iframe_src":"//5322.svetacdn.in/IAF0wWTdNYZm/movie/48615"},{"id":48614,"title":"Озарение","kp_id":"1442309","imdb_id":"tt13313630","world_art_id":null,"type":"movie","add":"2021-03-10 10:30:10","orig_title":"Road to Damascus","year":"2021-03-09","translations":["Любительский (многоголосый закадровый) (@MUZOBOZ@)"],"quality":"webdl","translation":"Любительский (многоголосый закадровый) (@MUZOBOZ@)","update":"2021-03-11 00:39:07","iframe_src":"//5322.svetacdn.in/IAF0wWTdNYZm/movie/48614"},{"id":48612,"title":"Каньонлендс","kp_id":"1266766","imdb_id":"tt10245776","world_art_id":null,"type":"movie","add":"2021-03-10 10:24:38","orig_title":"The Canyonlands","year":"2021-03-05","translations":["Любительский (многоголосый закадровый) (Синема УС)"],"quality":"webdl","translation":"Любительский (многоголосый закадровый) (Синема УС)","update":"2021-03-10 19:53:23","iframe_src":"//5322.svetacdn.in/IAF0wWTdNYZm/movie/48612"},{"id":48611,"title":"Токио: Последний мегаполис","kp_id":"52522","imdb_id":"tt0096240","world_art_id":null,"type":"movie","add":"2021-03-10 10:07:47","orig_title":"Teito monogatari","year":"1988-01-30","translations":["Любительский (одноголосый закадровый)"],"quality":"bd","translation":"Любительский (одноголосый закадровый)","update":"2021-03-11 05:32:24","iframe_src":"//5322.svetacdn.in/IAF0wWTdNYZm/movie/48611"},{"id":48610,"title":"Ложные улики","kp_id":"37078","imdb_id":"tt0082485","world_art_id":null,"type":"movie","add":"2021-03-10 09:43:55","orig_title":"Gui ma zhi duo xing","year":"1981-07-23","translations":["Авторский (одноголосый закадровый) (Дольский Андрей)"],"quality":"bd","translation":"Авторский (одноголосый закадровый) (Дольский Андрей)","update":"2021-03-11 05:31:04","iframe_src":"//5322.svetacdn.in/IAF0wWTdNYZm/movie/48610"},{"id":48605,"title":"Легкомысленно","kp_id":"18584","imdb_id":"tt0020873","world_art_id":null,"type":"movie","add":"2021-03-10 06:43:18","orig_title":"Fast and Loose","year":"1930-11-08","translations":["Любительский (одноголосый закадровый) (Кенс Матвей)"],"quality":"bd","translation":"Любительский (одноголосый закадровый) (Кенс Матвей)","update":"2021-03-10 14:05:26","iframe_src":"//5322.svetacdn.in/IAF0wWTdNYZm/movie/48605"},{"id":48603,"title":"Пламя","kp_id":"224758","imdb_id":"tt0367499","world_art_id":null,"type":"movie","add":"2021-03-10 05:04:14","orig_title":"Angaaray","year":"1986-01-01","translations":["Полное дублирование (Мосфильм)"],"quality":"dvdrip","translation":"Полное дублирование (Мосфильм)","update":"2021-03-10 13:37:32","iframe_src":"//5322.svetacdn.in/IAF0wWTdNYZm/movie/48603"},{"id":48547,"title":"Лифт","kp_id":null,"imdb_id":"tt7685962","world_art_id":null,"type":"movie","add":"2021-03-08 09:44:13","orig_title":"El Ascensor","year":"2021-01-01","translations":["Любительский (многоголосый закадровый) (Синема УС)"],"quality":"webdl","translation":"Любительский (многоголосый закадровый) (Синема УС)","update":"2021-03-10 17:14:46","iframe_src":"//5322.svetacdn.in/IAF0wWTdNYZm/movie/48547"},{"id":48546,"title":"Непригодный: Психология Дональда Трампа","kp_id":null,"imdb_id":"tt12304596","world_art_id":null,"type":"movie","add":"2021-03-08 09:42:50","orig_title":"Unfit: The Psychology of Donald Trump","year":"2020-08-28","translations":["Любительский (многоголосый закадровый) (Синема УС)"],"quality":"webdl","translation":"Любительский (многоголосый закадровый) (Синема УС)","update":"2021-03-10 17:14:34","iframe_src":"//5322.svetacdn.in/IAF0wWTdNYZm/movie/48546"},{"id":8517,"title":"Аария","kp_id":"1388504","imdb_id":"tt12448030","world_art_id":null,"type":"serial","add":"2020-08-24 06:38:33","orig_title":"Aarya","year":"2020-01-19","translations":["Любительский (многоголосый закадровый) (OnisFilms)"],"seasons_count":1,"episodes_count":9,"episodes":9,"update":"2020-08-24 08:02:41","iframe_src":"//5322.svetacdn.in/IAF0wWTdNYZm/tv-series/8517"},{"id":8515,"title":"Наркобизнес","kp_id":null,"imdb_id":"tt12588416","world_art_id":null,"type":"serial","add":"2020-08-23 10:51:27","orig_title":"The Business of Drugs","year":"2020-07-14","translations":["Профессиональный (многоголосый закадровый) (HDrezka Studio)"],"seasons_count":1,"episodes_count":6,"episodes":6,"update":"2020-08-23 16:33:36","iframe_src":"//5322.svetacdn.in/IAF0wWTdNYZm/tv-series/8515"},{"id":8493,"title":"Биохакеры","kp_id":"1395418","imdb_id":"tt9849210","world_art_id":null,"type":"serial","add":"2020-08-20 09:11:22","orig_title":"Biohackers","year":"2020-08-20","translations":["Любительский (многоголосый закадровый) (ColdFilm)","Любительский (многоголосый закадровый) (Octopus)","Профессиональный (двухголосый закадровый) (IdeaFilm)","Любительский (многоголосый закадровый) (KerobTV)","Профессиональный (многоголосый закадровый) (BaibaKo)"],"seasons_count":1,"episodes_count":6,"episodes":6,"update":"2020-08-21 20:40:02","iframe_src":"//5322.svetacdn.in/IAF0wWTdNYZm/tv-series/8493"},{"id":8492,"title":"Непобедимый Железный человек","kp_id":"281888","imdb_id":"tt0206490","world_art_id":null,"type":"serial","add":"2020-08-20 06:12:38","orig_title":"Iron Man","year":"1966-09-06","translations":["Профессиональный (многоголосый закадровый)"],"seasons_count":1,"episodes_count":13,"episodes":13,"update":"2020-08-21 20:29:27","iframe_src":"//5322.svetacdn.in/IAF0wWTdNYZm/tv-series/8492"},{"id":8491,"title":"Супермощная команда: Стражи галактики","kp_id":"611608","imdb_id":"tt0088619","world_art_id":null,"type":"serial","add":"2020-08-20 06:06:29","orig_title":"The Super Powers Team: Galactic Guardians","year":"1985-09-11","translations":["Любительский (многоголосый закадровый)"],"seasons_count":1,"episodes_count":8,"episodes":8,"update":"2020-08-21 20:47:56","iframe_src":"//5322.svetacdn.in/IAF0wWTdNYZm/tv-series/8491"},{"id":8480,"title":"Операция «Цвет нации»","kp_id":"414532","imdb_id":"tt5512192","world_art_id":null,"type":"serial","add":"2020-08-19 09:33:17","orig_title":"Operatsiya «Tsvet natsii»","year":"2004-01-01","translations":["Оригинальная дорожка"],"seasons_count":1,"episodes_count":2,"episodes":2,"update":"2020-08-24 17:05:45","iframe_src":"//5322.svetacdn.in/IAF0wWTdNYZm/tv-series/8480"},{"id":8447,"title":"Планета Шина","kp_id":"594621","imdb_id":"tt1492090","world_art_id":null,"type":"serial","add":"2020-08-16 16:29:17","orig_title":"Planet Sheen","year":"2010-10-02","translations":["Полное дублирование"],"seasons_count":1,"episodes_count":22,"episodes":22,"update":"2020-08-23 17:20:29","iframe_src":"//5322.svetacdn.in/IAF0wWTdNYZm/tv-series/8447"},{"id":8446,"title":"Дэннис-непоседа","kp_id":"229552","imdb_id":"tt0166910","world_art_id":null,"type":"serial","add":"2020-08-16 16:15:11","orig_title":"Dennis the Menace","year":"1986-09-23","translations":["Полное дублирование"],"seasons_count":2,"episodes_count":75,"episodes":10,"update":"2020-08-23 17:02:19","iframe_src":"//5322.svetacdn.in/IAF0wWTdNYZm/tv-series/8446"},{"id":8443,"title":"Семейка Тофу","kp_id":"507820","imdb_id":"tt0417369","world_art_id":null,"type":"serial","add":"2020-08-16 07:41:29","orig_title":"The Tofus","year":"2004-01-01","translations":["Полное дублирование"],"seasons_count":2,"episodes_count":26,"episodes":13,"update":"2020-08-23 15:26:25","iframe_src":"//5322.svetacdn.in/IAF0wWTdNYZm/tv-series/8443"},{"id":8442,"title":"Новая семейка Аддамс","kp_id":"230000","imdb_id":"tt0172031","world_art_id":null,"type":"serial","add":"2020-08-16 07:22:21","orig_title":"The New Addams Family","year":"1998-10-19","translations":["Полное дублирование (СТС)"],"seasons_count":1,"episodes_count":64,"episodes":64,"update":"2020-08-23 15:06:39","iframe_src":"//5322.svetacdn.in/IAF0wWTdNYZm/tv-series/8442"},{"id":8438,"title":"Джимми Кул","kp_id":"490117","imdb_id":"tt1387904","world_art_id":null,"type":"serial","add":"2020-08-15 09:14:40","orig_title":"Jimmy Two-Shoes","year":"2009-02-21","translations":["Полное дублирование (Кипарис)"],"seasons_count":2,"episodes_count":52,"episodes":26,"update":"2020-08-23 10:50:46","iframe_src":"//5322.svetacdn.in/IAF0wWTdNYZm/tv-series/8438"},{"id":8437,"title":"Бешеные кролики: Вторжение","kp_id":"790340","imdb_id":"tt3105674","world_art_id":null,"type":"serial","add":"2020-08-15 08:58:54","orig_title":"Rabbids Invasion","year":"2013-08-03","translations":["Полное дублирование (SDI Media)","Профессиональный (многоголосый закадровый) (VO-Production)"],"seasons_count":2,"episodes_count":19,"episodes":6,"update":"2020-08-23 10:23:24","iframe_src":"//5322.svetacdn.in/IAF0wWTdNYZm/tv-series/8437"},{"id":8434,"title":"Пинки, Элмайра и Брейн","kp_id":"397216","imdb_id":"tt0170996","world_art_id":null,"type":"serial","add":"2020-08-15 08:15:57","orig_title":"Pinky, Elmyra & the Brain","year":"2002-06-19","translations":["Полное дублирование"],"seasons_count":1,"episodes_count":25,"episodes":25,"update":"2020-08-23 09:52:21","iframe_src":"//5322.svetacdn.in/IAF0wWTdNYZm/tv-series/8434"},{"id":8407,"title":"Маруся: Возвращение","kp_id":"616136","imdb_id":"tt3968616","world_art_id":null,"type":"serial","add":"2020-08-10 19:27:00","orig_title":"Marusya. Vozvrashchenie","year":"2011-01-31","translations":["Оригинальная дорожка"],"seasons_count":1,"episodes_count":90,"episodes":90,"update":"2020-08-23 16:24:39","iframe_src":"//5322.svetacdn.in/IAF0wWTdNYZm/tv-series/8407"},{"id":8383,"title":"Габби Дюран: Няня инопланетян","kp_id":"1201586","imdb_id":"tt8792866","world_art_id":null,"type":"serial","add":"2020-08-06 05:15:49","orig_title":"Gabby Duran & The Unsittables","year":"2019-10-11","translations":["Полное дублирование (Disney Channel)"],"seasons_count":1,"episodes_count":19,"episodes":19,"update":"2020-08-24 09:18:47","iframe_src":"//5322.svetacdn.in/IAF0wWTdNYZm/tv-series/8383"},{"id":8357,"title":"Зик и Лютер","kp_id":"406263","imdb_id":"tt1189346","world_art_id":null,"type":"serial","add":"2020-08-04 09:47:39","orig_title":"Zeke and Luther","year":"2009-11-10","translations":["Полное дублирование","Полное дублирование (Disney Channel)"],"seasons_count":2,"episodes_count":47,"episodes":26,"update":"2020-08-24 08:28:02","iframe_src":"//5322.svetacdn.in/IAF0wWTdNYZm/tv-series/8357"},{"id":8321,"title":"Зверобой","kp_id":"430478","imdb_id":"tt1369797","world_art_id":null,"type":"serial","add":"2020-08-03 04:26:16","orig_title":"Zveroboy","year":"2009-02-02","translations":["Оригинальная дорожка"],"seasons_count":1,"episodes_count":32,"episodes":32,"update":"2020-08-23 15:32:38","iframe_src":"//5322.svetacdn.in/IAF0wWTdNYZm/tv-series/8321"},{"id":27127,"title":"Звезда надежды","kp_id":"44649","imdb_id":"tt0078532","world_art_id":null,"type":"movie","add":"2019-05-27 09:14:00","orig_title":"Huso astgh","year":"1978-10-15","translations":["Оригинальная дорожка","Оригинальная дорожка"],"quality":"dvdrip","translation":"Оригинальная дорожка","update":"2021-03-10 13:39:10","iframe_src":"//5322.svetacdn.in/IAF0wWTdNYZm/movie/27127"},{"id":4485,"title":"Фамалам","kp_id":"1120510","imdb_id":"tt7440784","world_art_id":null,"type":"serial","add":"2019-05-10 09:07:55","orig_title":"Famalam","year":"2018-04-09","translations":["Любительский (двухголосый закадровый) (KosharaSerials)","Профессиональный (двухголосый закадровый) (IdeaFilm)"],"seasons_count":3,"episodes_count":13,"episodes":5,"update":"2020-08-24 15:20:56","iframe_src":"//5322.svetacdn.in/IAF0wWTdNYZm/tv-series/4485"},{"id":2341,"title":"Чертова служба в гoспитале M*A*S*H","kp_id":"90206","imdb_id":"tt0068098","world_art_id":null,"type":"serial","add":"2018-04-04 11:05:12","orig_title":"M*A*S*H","year":"1972-09-24","translations":["Профессиональный (двухголосый закадровый) (РенТВ)"],"seasons_count":11,"episodes_count":251,"episodes":16,"update":"2020-08-24 09:18:35","iframe_src":"//5322.svetacdn.in/IAF0wWTdNYZm/tv-series/2341"},{"id":7456,"title":"Исполнитель желаний 2: Зло бессмертно","kp_id":"77232","imdb_id":"tt0156182","world_art_id":null,"type":"movie","add":"2016-11-15 05:22:44","orig_title":"Wishmaster 2: Evil Never Dies","year":"1999-03-12","translations":["Профессиональный (многоголосый закадровый)","Авторский (одноголосый закадровый) (Сербин Юрий)","Профессиональный (многоголосый закадровый) (DVD Group)","Авторский (одноголосый закадровый) (Визгунов Сергей)","Original (English)","Профессиональный (двухголосый закадровый) (ТВ6)"],"quality":"webdl","translation":"Профессиональный (многоголосый закадровый)","update":"2021-03-10 12:59:57","iframe_src":"//5322.svetacdn.in/IAF0wWTdNYZm/movie/7456"},{"id":6191,"title":"Телохранитель Тесс","kp_id":"2554","imdb_id":"tt0109951","world_art_id":null,"type":"movie","add":"2016-10-12 05:35:09","orig_title":"Guarding Tess","year":"1994-03-11","translations":["Профессиональный (многоголосый закадровый)","Профессиональный (многоголосый закадровый) (Видеосервис)"],"quality":"webdl","translation":"Профессиональный (многоголосый закадровый)","update":"2021-03-10 13:40:53","iframe_src":"//5322.svetacdn.in/IAF0wWTdNYZm/movie/6191"},{"id":5491,"title":"Страшилы","kp_id":"5909","imdb_id":"tt0116365","world_art_id":null,"type":"movie","add":"2016-09-26 07:51:39","orig_title":"The Frighteners","year":"1996-07-19","translations":["Профессиональный (многоголосый закадровый)","Профессиональный (двухголосый закадровый)","Авторский (одноголосый закадровый) (Гаврилов Андрей)","Авторский (одноголосый закадровый) (Латышев Максим | CDV)","Авторский (одноголосый закадровый) (Леша-прапорщик)","Авторский (одноголосый закадровый) (Визгунов Сергей)","Авторский (одноголосый закадровый) (Живов Юрий)","Original (English)","Профессиональный (двухголосый закадровый) (Гланц + Королёва)","Профессиональный (двухголосый закадровый) (Премьер Видео Фильм)","Профессиональный (многоголосый закадровый) (СТС)","Профессиональный (многоголосый закадровый) (Позитив)"],"quality":"bd","translation":"Профессиональный (многоголосый закадровый)","update":"2021-03-10 14:16:19","iframe_src":"//5322.svetacdn.in/IAF0wWTdNYZm/movie/5491"},{"id":395,"title":"Виктория","kp_id":"957395","imdb_id":"tt5137338","world_art_id":null,"type":"serial","add":"2016-09-01 15:03:10","orig_title":"Victoria","year":"2016-08-28","translations":["Профессиональный (многоголосый закадровый) (NewStudio)","Профессиональный (многоголосый закадровый) (Jaskier)","Профессиональный (многоголосый закадровый) (BaibaKo)","Профессиональный (многоголосый закадровый) (Good People)","Профессиональный (многоголосый закадровый) (HDrezka Studio)","Профессиональный (двухголосый закадровый) (Gears Media)","Профессиональный (многоголосый закадровый) (TVShows)"],"seasons_count":3,"episodes_count":25,"episodes":8,"update":"2020-08-23 15:51:48","iframe_src":"//5322.svetacdn.in/IAF0wWTdNYZm/tv-series/395"},{"id":1154,"title":"Мальчишник в Вегасе","kp_id":"426004","imdb_id":"tt1119646","world_art_id":null,"type":"movie","add":"2016-04-15 06:21:01","orig_title":"The Hangover","year":"2009-05-30","translations":["Полное дублирование","Авторский (одноголосый закадровый) (Немахов Юрий)","Полное дублирование","Любительский (одноголосый закадровый) (seqw0)","Профессиональный (многоголосый закадровый) (Киномания)"],"quality":"bd","translation":"Полное дублирование","update":"2021-03-10 13:25:14","iframe_src":"//5322.svetacdn.in/IAF0wWTdNYZm/movie/1154"},{"id":692,"title":"Эквилибриум","kp_id":"309","imdb_id":"tt0238380","world_art_id":null,"type":"movie","add":"2016-04-05 21:38:32","orig_title":"Equilibrium","year":"2002-12-06","translations":["Полное дублирование","Авторский (одноголосый закадровый) (Гаврилов Андрей)","Полное дублирование (Мосфильм)","Авторский (одноголосый закадровый) (Королёв Владимир)","Авторский (одноголосый закадровый) (Рудой Евгений)","Авторский (одноголосый закадровый) (Живов Юрий)","Original (English)","Любительский (одноголосый закадровый) (Нурмухаметов Денис)","Любительский (одноголосый закадровый) (Строев Денис)","Профессиональный (многоголосый закадровый) (Киномания)"],"quality":"bd","translation":"Полное дублирование","update":"2021-03-10 13:09:21","iframe_src":"//5322.svetacdn.in/IAF0wWTdNYZm/movie/692"},{"id":416,"title":"Суррогаты","kp_id":"397671","imdb_id":"tt0986263","world_art_id":null,"type":"movie","add":"2016-04-01 16:19:28","orig_title":"Surrogates","year":"2009-09-24","translations":["Полное дублирование","Original (English)","Авторский (одноголосый закадровый) (Гаврилов Андрей)","Original (English)"],"quality":"bd","translation":"Полное дублирование","update":"2021-03-10 13:19:18","iframe_src":"//5322.svetacdn.in/IAF0wWTdNYZm/movie/416"},{"id":59,"title":"Левша","kp_id":"573990","imdb_id":"tt1798684","world_art_id":null,"type":"movie","add":"2016-02-08 10:37:36","orig_title":"Southpaw","year":"2015-06-15","translations":["Полное дублирование","Авторский (одноголосый закадровый) (Чадов Михаил)","Полное дублирование","Original (English)"],"quality":"bd","translation":"Полное дублирование","update":"2021-03-10 13:14:47","iframe_src":"//5322.svetacdn.in/IAF0wWTdNYZm/movie/59"}],"current_page":147,"first_page_url":"https://videocdn.tv/api/short?limit=100&api_token=6Onb1W1alEUrBcKJZD3GoKBbWyAl2uG2&cache3147=3147&page=1","from":14601,"last_page":620,"last_page_url":"https://videocdn.tv/api/short?limit=100&api_token=6Onb1W1alEUrBcKJZD3GoKBbWyAl2uG2&cache3147=3147&page=620","next_page_url":"https://videocdn.tv/api/short?limit=100&api_token=6Onb1W1alEUrBcKJZD3GoKBbWyAl2uG2&cache3147=3147&page=148","path":"https://videocdn.tv/api/short","per_page":100,"prev_page_url":"https://videocdn.tv/api/short?limit=100&api_token=6Onb1W1alEUrBcKJZD3GoKBbWyAl2uG2&cache3147=3147&page=146","to":14640,"total":61975}