{"result":true,"data":[{"id":24802,"title":"Таня","kp_id":"961125","imdb_id":"tt5437374","world_art_id":null,"type":"movie","add":"2019-04-17 22:19:16","orig_title":"Hidden Tears: Tanya","year":"2016-01-01","translations":["Любительский (одноголосый закадровый) (Шадинский Денис)"],"quality":"webdl","translation":"Любительский (одноголосый закадровый) (Шадинский Денис)","update":"2019-04-18 06:42:31","iframe_src":"//83.svetacdn.in/PfJ50H0ZBPg3/movie/24802"},{"id":24793,"title":"Неудержимые","kp_id":null,"imdb_id":"tt6085642","world_art_id":null,"type":"movie","add":"2019-04-17 21:54:47","orig_title":"The Go-Getters","year":"2018-12-25","translations":["Любительский (многоголосый закадровый) (Синема УС)"],"quality":"webdl","translation":"Любительский (многоголосый закадровый) (Синема УС)","update":"2019-04-18 06:41:14","iframe_src":"//83.svetacdn.in/PfJ50H0ZBPg3/movie/24793"},{"id":24787,"title":"Горячие стволы","kp_id":"873704","imdb_id":"tt3949708","world_art_id":null,"type":"movie","add":"2019-04-17 21:40:24","orig_title":"The Blazing Cannons","year":"2017-11-04","translations":["Любительский (многоголосый закадровый) (Синема УС)"],"quality":"webdl","translation":"Любительский (многоголосый закадровый) (Синема УС)","update":"2019-04-18 06:46:33","iframe_src":"//83.svetacdn.in/PfJ50H0ZBPg3/movie/24787"},{"id":24584,"title":"Левша","kp_id":"45089","imdb_id":"tt0091403","world_art_id":null,"type":"movie","add":"2019-04-14 13:45:33","orig_title":"Levsha","year":"1987-03-16","translations":["Оригинальная дорожка"],"quality":"dvdrip","translation":"Оригинальная дорожка","update":"2019-04-18 07:34:26","iframe_src":"//83.svetacdn.in/PfJ50H0ZBPg3/movie/24584"},{"id":24583,"title":"Лагардер: Мститель в маске","kp_id":"254944","imdb_id":"tt0397508","world_art_id":null,"type":"movie","add":"2019-04-14 13:41:10","orig_title":"Lagardère","year":"2003-12-25","translations":["Профессиональный (многоголосый закадровый) (СВ-Дубль)"],"quality":"dvdrip","translation":"Профессиональный (многоголосый закадровый) (СВ-Дубль)","update":"2019-04-18 07:32:47","iframe_src":"//83.svetacdn.in/PfJ50H0ZBPg3/movie/24583"},{"id":24582,"title":"Короли самоубийства","kp_id":"6899","imdb_id":"tt0120241","world_art_id":null,"type":"movie","add":"2019-04-14 13:38:50","orig_title":"Suicide Kings","year":"1997-09-06","translations":["Профессиональный (многоголосый закадровый)"],"quality":"webdl","translation":"Профессиональный (многоголосый закадровый)","update":"2019-04-18 07:26:41","iframe_src":"//83.svetacdn.in/PfJ50H0ZBPg3/movie/24582"},{"id":24581,"title":"Тайное и явное (Цели и деяния сионистов)","kp_id":"626902","imdb_id":null,"world_art_id":null,"type":"movie","add":"2019-04-14 13:33:31","orig_title":"Тайное и явное (Цели и деяния сионистов)","year":"1973-01-01","translations":["Оригинальная дорожка"],"quality":"dvdrip","translation":"Оригинальная дорожка","update":"2019-04-18 07:19:09","iframe_src":"//83.svetacdn.in/PfJ50H0ZBPg3/movie/24581"},{"id":24578,"title":"Революция роботов","kp_id":null,"imdb_id":"tt6964178","world_art_id":null,"type":"movie","add":"2019-04-14 13:21:09","orig_title":"Space Robot Revolution","year":"2015-01-01","translations":["Любительский (одноголосый закадровый)"],"quality":"dvb","translation":"Любительский (одноголосый закадровый)","update":"2019-04-18 07:12:57","iframe_src":"//83.svetacdn.in/PfJ50H0ZBPg3/movie/24578"},{"id":24576,"title":"КША: Конфедеративные штаты Америки","kp_id":"77864","imdb_id":"tt0389828","world_art_id":null,"type":"movie","add":"2019-04-14 13:17:46","orig_title":"C.S.A.: The Confederate States of America","year":"2005-06-24","translations":["Любительский (одноголосый закадровый)"],"quality":"dvdrip","translation":"Любительский (одноголосый закадровый)","update":"2019-04-18 07:12:39","iframe_src":"//83.svetacdn.in/PfJ50H0ZBPg3/movie/24576"},{"id":24573,"title":"Она вас любит","kp_id":"42766","imdb_id":"tt0314459","world_art_id":null,"type":"movie","add":"2019-04-14 13:12:00","orig_title":"Ona vas lyubit","year":"1957-01-07","translations":["Оригинальная дорожка"],"quality":"dvdrip","translation":"Оригинальная дорожка","update":"2019-04-18 07:09:57","iframe_src":"//83.svetacdn.in/PfJ50H0ZBPg3/movie/24573"},{"id":24571,"title":"Том Сойер и Гекльберри Финн","kp_id":"596406","imdb_id":"tt1977087","world_art_id":null,"type":"movie","add":"2019-04-14 13:09:25","orig_title":"Tom Sawyer & Huckleberry Finn","year":"2014-10-23","translations":["Профессиональный (многоголосый закадровый)"],"quality":"dvb","translation":"Профессиональный (многоголосый закадровый)","update":"2019-04-18 07:09:02","iframe_src":"//83.svetacdn.in/PfJ50H0ZBPg3/movie/24571"},{"id":24570,"title":"Осень","kp_id":"42796","imdb_id":"tt0071951","world_art_id":null,"type":"movie","add":"2019-04-14 13:08:22","orig_title":"Osen","year":"1974-09-19","translations":["Оригинальная дорожка"],"quality":"dvdrip","translation":"Оригинальная дорожка","update":"2019-04-18 07:07:50","iframe_src":"//83.svetacdn.in/PfJ50H0ZBPg3/movie/24570"},{"id":24568,"title":"Пеппи Длинныйчулок","kp_id":"94998","imdb_id":"tt0263853","world_art_id":null,"type":"movie","add":"2019-04-14 12:59:32","orig_title":"Peppi Dlinnyychulok","year":"1984-04-29","translations":["Оригинальная дорожка"],"quality":"dvdrip","translation":"Оригинальная дорожка","update":"2019-04-18 07:05:39","iframe_src":"//83.svetacdn.in/PfJ50H0ZBPg3/movie/24568"},{"id":24559,"title":"Питер Пэн","kp_id":"94641","imdb_id":"tt0385166","world_art_id":null,"type":"movie","add":"2019-04-14 11:57:17","orig_title":"Piter Pen","year":"1987-01-01","translations":["Оригинальная дорожка"],"quality":"dvdrip","translation":"Оригинальная дорожка","update":"2019-04-18 06:54:15","iframe_src":"//83.svetacdn.in/PfJ50H0ZBPg3/movie/24559"},{"id":24554,"title":"Поздний ребенок","kp_id":"470629","imdb_id":"tt1726721","world_art_id":null,"type":"movie","add":"2019-04-14 11:42:59","orig_title":"Pozdniy rebyonok","year":"1971-02-11","translations":["Оригинальная дорожка"],"quality":"sat","translation":"Оригинальная дорожка","update":"2019-04-18 06:50:04","iframe_src":"//83.svetacdn.in/PfJ50H0ZBPg3/movie/24554"},{"id":24553,"title":"Приключения Толи Клюквина","kp_id":"43259","imdb_id":"tt0058491","world_art_id":null,"type":"movie","add":"2019-04-14 11:38:08","orig_title":"Priklyucheniya Toli Klyukvina","year":"1964-08-10","translations":["Оригинальная дорожка"],"quality":"dvdrip","translation":"Оригинальная дорожка","update":"2019-04-18 06:48:52","iframe_src":"//83.svetacdn.in/PfJ50H0ZBPg3/movie/24553"},{"id":24552,"title":"Принц и нищий","kp_id":"229642","imdb_id":"tt0069122","world_art_id":null,"type":"movie","add":"2019-04-14 11:26:02","orig_title":"Prints i nishchiy","year":"1973-01-01","translations":["Оригинальная дорожка"],"quality":"dvdrip","translation":"Оригинальная дорожка","update":"2019-04-18 06:48:08","iframe_src":"//83.svetacdn.in/PfJ50H0ZBPg3/movie/24552"},{"id":16204,"title":"Двойное свидание","kp_id":"1011282","imdb_id":"tt6136778","world_art_id":null,"type":"movie","add":"2018-04-11 20:01:30","orig_title":"Double Date","year":"2017-06-30","translations":["Любительский (многоголосый закадровый) (Синема УС)","Любительский (одноголосый закадровый) (Хихикающий доктор)","Любительский (одноголосый закадровый) (Хихикающий доктор)"],"quality":"webdl","translation":"Любительский (многоголосый закадровый) (Синема УС)","update":"2019-04-18 06:40:25","iframe_src":"//83.svetacdn.in/PfJ50H0ZBPg3/movie/16204"},{"id":10115,"title":"Тяжелое ранение","kp_id":"812498","imdb_id":"tt3369350","world_art_id":null,"type":"movie","add":"2017-02-28 22:57:07","orig_title":"Bad Hurt","year":"2015-04-20","translations":["Любительский (многоголосый закадровый) (Синема УС)","Профессиональный (многоголосый закадровый)","Профессиональный (двухголосый закадровый) (SDI Media | Iyuno-SDI Group Russia)"],"quality":"webdl","translation":"Любительский (многоголосый закадровый) (Синема УС)","update":"2019-04-18 06:46:47","iframe_src":"//83.svetacdn.in/PfJ50H0ZBPg3/movie/10115"},{"id":4316,"title":"Конец дня","kp_id":"775460","imdb_id":"tt3007132","world_art_id":null,"type":"movie","add":"2016-08-05 04:55:44","orig_title":"Daylight's End","year":"2016-04-16","translations":["Любительский (многоголосый закадровый) (Студия Пиратского Дубляжа)","Любительский (одноголосый закадровый)"],"quality":"bd","translation":"Любительский (многоголосый закадровый) (Студия Пиратского Дубляжа)","update":"2019-04-18 06:45:08","iframe_src":"//83.svetacdn.in/PfJ50H0ZBPg3/movie/4316"}],"current_page":1894,"first_page_url":"https://videocdn.tv/api/short?limit=100&api_token=RgFQdUIR2dRmwv8iYa5SnFNgnw3vpjKj&cache31894=31894&page=1","from":189301,"last_page":708,"last_page_url":"https://videocdn.tv/api/short?limit=100&api_token=RgFQdUIR2dRmwv8iYa5SnFNgnw3vpjKj&cache31894=31894&page=708","next_page_url":null,"path":"https://videocdn.tv/api/short","per_page":100,"prev_page_url":"https://videocdn.tv/api/short?limit=100&api_token=RgFQdUIR2dRmwv8iYa5SnFNgnw3vpjKj&cache31894=31894&page=1893","to":189320,"total":70737}