{"result":true,"data":[{"id":16711,"title":"Жизнь прекрасна","kp_id":"462515","imdb_id":"tt1306980","world_art_id":null,"type":"movie","add":"2018-05-08 23:13:47","orig_title":"50/50","year":"2011-09-12","translations":["Профессиональный (многоголосый закадровый)"],"quality":"bd","translation":"Профессиональный (многоголосый закадровый)","update":"2018-05-09 03:41:40","iframe_src":"//8332.svetacdn.in/IAF0wWTdNYZm/movie/16711"},{"id":16708,"title":"Боец кунг-фу","kp_id":"807690","imdb_id":"tt3338480","world_art_id":null,"type":"movie","add":"2018-05-08 23:07:28","orig_title":"Gong Fu Zhan Dou Ji","year":"2013-11-15","translations":["Любительский (одноголосый закадровый)"],"quality":"bd","translation":"Любительский (одноголосый закадровый)","update":"2018-05-09 03:42:23","iframe_src":"//8332.svetacdn.in/IAF0wWTdNYZm/movie/16708"},{"id":16706,"title":"Александр. Невская битва","kp_id":"395684","imdb_id":"tt1244496","world_art_id":null,"type":"movie","add":"2018-05-08 23:00:31","orig_title":"Aleksandr. Nevskaya bitva","year":"2008-04-30","translations":["Оригинальная дорожка"],"quality":"bd","translation":"Оригинальная дорожка","update":"2018-05-09 03:43:25","iframe_src":"//8332.svetacdn.in/IAF0wWTdNYZm/movie/16706"},{"id":16704,"title":"Внутри","kp_id":"596518","imdb_id":"tt1961675","world_art_id":null,"type":"movie","add":"2018-05-08 22:55:46","orig_title":"Yeralti","year":"2012-04-13","translations":["Профессиональный (многоголосый закадровый) (GreenРай Studio)"],"quality":"webdl","translation":"Профессиональный (многоголосый закадровый) (GreenРай Studio)","update":"2018-05-09 04:30:20","iframe_src":"//8332.svetacdn.in/IAF0wWTdNYZm/movie/16704"},{"id":16703,"title":"Винчестер 73","kp_id":"8454","imdb_id":"tt0043137","world_art_id":null,"type":"movie","add":"2018-05-08 22:53:36","orig_title":"Winchester '73","year":"1950-06-01","translations":["Профессиональный (многоголосый закадровый)"],"quality":"bd","translation":"Профессиональный (многоголосый закадровый)","update":"2018-05-09 04:33:27","iframe_src":"//8332.svetacdn.in/IAF0wWTdNYZm/movie/16703"},{"id":16702,"title":"Воскрешение оборотня","kp_id":"811703","imdb_id":"tt3361186","world_art_id":null,"type":"movie","add":"2018-05-08 22:51:40","orig_title":"Werewolf Rising","year":"2014-09-22","translations":["Любительский (одноголосый закадровый) (datynet | Агапов Антон)"],"quality":"bd","translation":"Любительский (одноголосый закадровый) (datynet | Агапов Антон)","update":"2018-05-09 04:34:33","iframe_src":"//8332.svetacdn.in/IAF0wWTdNYZm/movie/16702"},{"id":16701,"title":"Ватерлоо","kp_id":"8509","imdb_id":"tt0066549","world_art_id":null,"type":"movie","add":"2018-05-08 22:49:03","orig_title":"Waterloo","year":"1970-10-26","translations":["Профессиональный (многоголосый закадровый)"],"quality":"webdl","translation":"Профессиональный (многоголосый закадровый)","update":"2018-05-09 04:35:32","iframe_src":"//8332.svetacdn.in/IAF0wWTdNYZm/movie/16701"},{"id":16700,"title":"Операция «Нижняя юбка»","kp_id":"982","imdb_id":"tt0053143","world_art_id":null,"type":"movie","add":"2018-05-08 22:39:15","orig_title":"Operation Petticoat","year":"1959-12-03","translations":["Профессиональный (многоголосый закадровый)"],"quality":"bd","translation":"Профессиональный (многоголосый закадровый)","update":"2018-05-09 04:49:31","iframe_src":"//8332.svetacdn.in/IAF0wWTdNYZm/movie/16700"},{"id":16699,"title":"О, счастливчик!","kp_id":"414662","imdb_id":"tt1505901","world_art_id":null,"type":"movie","add":"2018-05-08 22:36:28","orig_title":"O, schastlivchik!","year":"2009-10-01","translations":["Оригинальная дорожка"],"quality":"bd","translation":"Оригинальная дорожка","update":"2018-05-09 04:50:56","iframe_src":"//8332.svetacdn.in/IAF0wWTdNYZm/movie/16699"},{"id":16673,"title":"Охота на роботов","kp_id":"25415","imdb_id":"tt0088024","world_art_id":null,"type":"movie","add":"2018-05-07 08:15:05","orig_title":"Runaway","year":"1984-12-14","translations":["Профессиональный (двухголосый закадровый)"],"quality":"bd","translation":"Профессиональный (двухголосый закадровый)","update":"2018-05-08 20:12:05","iframe_src":"//8332.svetacdn.in/IAF0wWTdNYZm/movie/16673"},{"id":16656,"title":"Гипнотизер","kp_id":"582286","imdb_id":"tt1556243","world_art_id":null,"type":"movie","add":"2018-05-05 23:35:07","orig_title":"Hypnotisören","year":"2012-09-28","translations":["Любительский (одноголосый закадровый) (den904)","Профессиональный (многоголосый закадровый)"],"quality":"bd","translation":"Любительский (одноголосый закадровый) (den904)","update":"2018-05-09 04:46:25","iframe_src":"//8332.svetacdn.in/IAF0wWTdNYZm/movie/16656"},{"id":16638,"title":"Падение Римской империи","kp_id":"8771","imdb_id":"tt0058085","world_art_id":null,"type":"movie","add":"2018-05-05 22:06:59","orig_title":"The Fall of the Roman Empire","year":"1964-03-24","translations":["Профессиональный (многоголосый закадровый)"],"quality":"bd","translation":"Профессиональный (многоголосый закадровый)","update":"2018-05-08 07:07:44","iframe_src":"//8332.svetacdn.in/IAF0wWTdNYZm/movie/16638"},{"id":16637,"title":"Ярость в Байя для агента ОСС 117","kp_id":"150054","imdb_id":"tt0059206","world_art_id":null,"type":"movie","add":"2018-05-05 22:04:52","orig_title":"Furia à Bahia pour OSS 117","year":"1965-07-02","translations":["Любительский (одноголосый закадровый)"],"quality":"bd","translation":"Любительский (одноголосый закадровый)","update":"2018-05-08 07:08:31","iframe_src":"//8332.svetacdn.in/IAF0wWTdNYZm/movie/16637"},{"id":16636,"title":"Большое скандинавское ограбление","kp_id":"437920","imdb_id":"tt1337366","world_art_id":null,"type":"movie","add":"2018-05-05 22:00:23","orig_title":"Nokas","year":"2010-10-01","translations":["Любительский (одноголосый закадровый)"],"quality":"bd","translation":"Любительский (одноголосый закадровый)","update":"2018-05-08 07:11:05","iframe_src":"//8332.svetacdn.in/IAF0wWTdNYZm/movie/16636"},{"id":16629,"title":"Обратный ход","kp_id":"79594","imdb_id":"tt0249378","world_art_id":null,"type":"movie","add":"2018-05-05 21:35:13","orig_title":"Backflash","year":"2001-12-05","translations":["Профессиональный (многоголосый закадровый)"],"quality":"webdl","translation":"Профессиональный (многоголосый закадровый)","update":"2018-05-08 07:30:10","iframe_src":"//8332.svetacdn.in/IAF0wWTdNYZm/movie/16629"},{"id":16604,"title":"Наркокультура","kp_id":"731267","imdb_id":"tt2504022","world_art_id":null,"type":"movie","add":"2018-05-03 20:48:14","orig_title":"Narco Cultura","year":"2013-01-21","translations":["Любительский (одноголосый закадровый) (PashaUp | Морозов Павел)"],"quality":"bd","translation":"Любительский (одноголосый закадровый) (PashaUp | Морозов Павел)","update":"2018-05-08 07:31:05","iframe_src":"//8332.svetacdn.in/IAF0wWTdNYZm/movie/16604"},{"id":16603,"title":"Мисс Пуля","kp_id":"588788","imdb_id":"tt1911600","world_art_id":null,"type":"movie","add":"2018-05-03 20:42:10","orig_title":"Miss Bala","year":"2011-05-30","translations":["Любительский (одноголосый закадровый)"],"quality":"bd","translation":"Любительский (одноголосый закадровый)","update":"2018-05-08 07:33:42","iframe_src":"//8332.svetacdn.in/IAF0wWTdNYZm/movie/16603"},{"id":12753,"title":"Мужские надежды","kp_id":"622813","imdb_id":"tt2051941","world_art_id":null,"type":"movie","add":"2017-08-02 12:44:35","orig_title":"Muži v naději","year":"2011-08-25","translations":["Авторский (одноголосый закадровый) (Алексеев Антон)","Любительский (одноголосый закадровый)"],"quality":"bd","translation":"Авторский (одноголосый закадровый) (Алексеев Антон)","update":"2018-05-08 07:32:56","iframe_src":"//8332.svetacdn.in/IAF0wWTdNYZm/movie/12753"},{"id":7185,"title":"О людях и богах","kp_id":"496869","imdb_id":"tt1588337","world_art_id":null,"type":"movie","add":"2016-11-08 08:50:10","orig_title":"Des hommes et des dieux","year":"2010-05-18","translations":["Профессиональный (многоголосый)","Любительский (одноголосый закадровый) (acolith)"],"quality":"bd","translation":"Профессиональный (многоголосый)","update":"2018-05-08 07:29:02","iframe_src":"//8332.svetacdn.in/IAF0wWTdNYZm/movie/7185"},{"id":2352,"title":"Они были солдатами 2","kp_id":"634716","imdb_id":"tt2082415","world_art_id":null,"type":"movie","add":"2016-05-19 12:50:17","orig_title":"Saints and Soldiers: Airborne Creed","year":"2012-08-17","translations":["Профессиональный (многоголосый закадровый)","Любительский (одноголосый закадровый)"],"quality":"bd","translation":"Профессиональный (многоголосый закадровый)","update":"2018-05-08 07:09:57","iframe_src":"//8332.svetacdn.in/IAF0wWTdNYZm/movie/2352"}],"current_page":1898,"first_page_url":"https://videocdn.tv/api/short?limit=100&api_token=6Onb1W1alEUrBcKJZD3GoKBbWyAl2uG2&cache31898=31898&page=1","from":189701,"last_page":634,"last_page_url":"https://videocdn.tv/api/short?limit=100&api_token=6Onb1W1alEUrBcKJZD3GoKBbWyAl2uG2&cache31898=31898&page=634","next_page_url":null,"path":"https://videocdn.tv/api/short","per_page":100,"prev_page_url":"https://videocdn.tv/api/short?limit=100&api_token=6Onb1W1alEUrBcKJZD3GoKBbWyAl2uG2&cache31898=31898&page=1897","to":189720,"total":63356}