{"result":true,"data":[{"id":40231,"title":"Портье","kp_id":"1178710","imdb_id":"tt8850932","world_art_id":null,"type":"movie","add":"2020-05-09 03:00:11","orig_title":"The Bellmen","year":"2020-05-04","translations":["Любительский (многоголосый закадровый) (Синема УС)"],"quality":"webdl","translation":"Любительский (многоголосый закадровый) (Синема УС)","update":"2020-05-09 09:20:27","iframe_src":"//5322.svetacdn.in/IAF0wWTdNYZm/movie/40231"},{"id":40226,"title":"Яйцо","kp_id":"1229654","imdb_id":"tt9581172","world_art_id":null,"type":"movie","add":"2020-05-09 02:52:37","orig_title":"Öndög","year":"2019-02-08","translations":["Любительский (многоголосый закадровый) (Синема УС)"],"quality":"webdl","translation":"Любительский (многоголосый закадровый) (Синема УС)","update":"2020-05-09 09:19:01","iframe_src":"//5322.svetacdn.in/IAF0wWTdNYZm/movie/40226"},{"id":40223,"title":"Серенада вампира Бёрта","kp_id":"1366109","imdb_id":"tt12099962","world_art_id":null,"type":"movie","add":"2020-05-09 02:47:12","orig_title":"Vampire Burt's Serenade","year":"2020-05-08","translations":["Любительский (многоголосый закадровый) (Синема УС)"],"quality":"webdl","translation":"Любительский (многоголосый закадровый) (Синема УС)","update":"2020-05-09 09:18:37","iframe_src":"//5322.svetacdn.in/IAF0wWTdNYZm/movie/40223"},{"id":40095,"title":"Её звали Криста","kp_id":"1064034","imdb_id":"tt7453138","world_art_id":null,"type":"movie","add":"2020-05-04 16:12:01","orig_title":"Her Name Was Christa","year":"2020-02-14","translations":["Original (English)","Любительский (многоголосый закадровый) (Синема УС)"],"quality":"webdl","translation":"Original (English)","update":"2020-05-09 09:22:23","iframe_src":"//5322.svetacdn.in/IAF0wWTdNYZm/movie/40095"},{"id":40093,"title":"Убийца в гостевом доме","kp_id":"1373822","imdb_id":"tt12204610","world_art_id":null,"type":"movie","add":"2020-05-04 16:02:45","orig_title":"The Killer in the Guest House","year":"2020-04-26","translations":["Original (English)","Любительский (многоголосый закадровый) (Синема УС)"],"quality":"hdtv","translation":"Original (English)","update":"2020-05-09 09:19:39","iframe_src":"//5322.svetacdn.in/IAF0wWTdNYZm/movie/40093"},{"id":33554,"title":"Мэр района Санита","kp_id":"1282828","imdb_id":"tt9778888","world_art_id":null,"type":"movie","add":"2019-11-29 20:28:14","orig_title":"Il sindaco del Rione Sanità","year":"2019-08-30","translations":["Любительский (многоголосый закадровый) (Синема УС)"],"quality":"bd","translation":"Любительский (многоголосый закадровый) (Синема УС)","update":"2020-05-09 09:22:02","iframe_src":"//5322.svetacdn.in/IAF0wWTdNYZm/movie/33554"},{"id":25050,"title":"Микеланджело. Бесконечность","kp_id":"1097938","imdb_id":"tt7587878","world_art_id":null,"type":"movie","add":"2019-04-21 19:25:09","orig_title":"Michelangelo - Infinito","year":"2018-09-27","translations":["Профессиональный (многоголосый закадровый) (HDrezka Studio)","Профессиональный (многоголосый закадровый) (HDrezka Studio)"],"quality":"bd","translation":"Профессиональный (многоголосый закадровый) (HDrezka Studio)","update":"2020-05-09 08:03:50","iframe_src":"//5322.svetacdn.in/IAF0wWTdNYZm/movie/25050"},{"id":24664,"title":"Остров Гуава","kp_id":"1189391","imdb_id":"tt8858104","world_art_id":null,"type":"movie","add":"2019-04-15 21:41:59","orig_title":"Guava Island","year":"2019-04-13","translations":["Профессиональный (многоголосый закадровый) (HDrezka Studio)"],"quality":"webdl","translation":"Профессиональный (многоголосый закадровый) (HDrezka Studio)","update":"2020-05-09 08:08:33","iframe_src":"//5322.svetacdn.in/IAF0wWTdNYZm/movie/24664"},{"id":24566,"title":"Миа и белый лев","kp_id":"1165797","imdb_id":"tt4844148","world_art_id":null,"type":"movie","add":"2019-04-14 12:14:41","orig_title":"Mia et le lion blanc","year":"2018-10-21","translations":["Полное дублирование","Original (English)","Профессиональный (многоголосый закадровый) (HDrezka Studio)"],"quality":"bd","translation":"Полное дублирование","update":"2020-05-09 08:07:09","iframe_src":"//5322.svetacdn.in/IAF0wWTdNYZm/movie/24566"},{"id":23153,"title":"Её запах","kp_id":"1129530","imdb_id":"tt7942742","world_art_id":null,"type":"movie","add":"2019-03-17 17:54:51","orig_title":"Her Smell","year":"2018-09-09","translations":["Профессиональный (многоголосый закадровый) (HDrezka Studio)"],"quality":"webdl","translation":"Профессиональный (многоголосый закадровый) (HDrezka Studio)","update":"2020-05-09 07:54:54","iframe_src":"//5322.svetacdn.in/IAF0wWTdNYZm/movie/23153"},{"id":22590,"title":"З.К.","kp_id":"1141209","imdb_id":"tt7897102","world_art_id":null,"type":"movie","add":"2019-02-27 11:53:31","orig_title":"O.G.","year":"2018-04-20","translations":["Профессиональный (многоголосый закадровый) (Amedia)","Профессиональный (многоголосый закадровый) (HDrezka Studio)"],"quality":"webdl","translation":"Профессиональный (многоголосый закадровый) (Amedia)","update":"2020-05-09 08:04:37","iframe_src":"//5322.svetacdn.in/IAF0wWTdNYZm/movie/22590"},{"id":22363,"title":"Счастливого нового дня смерти","kp_id":"1121425","imdb_id":"tt8155288","world_art_id":null,"type":"movie","add":"2019-02-17 13:43:43","orig_title":"Happy Death Day 2U","year":"2019-02-13","translations":["Полное дублирование","Профессиональный (многоголосый закадровый) (HDrezka Studio)"],"quality":"bd","translation":"Полное дублирование","update":"2020-05-09 08:05:27","iframe_src":"//5322.svetacdn.in/IAF0wWTdNYZm/movie/22363"},{"id":22208,"title":"Мисс Пуля","kp_id":"1100567","imdb_id":"tt5941692","world_art_id":null,"type":"movie","add":"2019-02-10 23:34:46","orig_title":"Miss Bala","year":"2019-01-25","translations":["Профессиональный (многоголосый закадровый)","Original (English)","Профессиональный (многоголосый закадровый) (HDrezka Studio)"],"quality":"bd","translation":"Профессиональный (многоголосый закадровый)","update":"2020-05-09 08:05:04","iframe_src":"//5322.svetacdn.in/IAF0wWTdNYZm/movie/22208"},{"id":21717,"title":"Две королевы","kp_id":"696247","imdb_id":"tt2328900","world_art_id":null,"type":"movie","add":"2019-01-21 22:33:32","orig_title":"Mary Queen of Scots","year":"2018-11-15","translations":["Полное дублирование","Original (English)","Профессиональный (многоголосый закадровый) (HDrezka Studio)"],"quality":"bd","translation":"Полное дублирование","update":"2020-05-09 08:06:50","iframe_src":"//5322.svetacdn.in/IAF0wWTdNYZm/movie/21717"},{"id":21681,"title":"Ги","kp_id":"1088552","imdb_id":"tt7253216","world_art_id":null,"type":"movie","add":"2019-01-20 22:40:32","orig_title":"Guy","year":"2018-05-16","translations":["Любительский (многоголосый закадровый) (Синема УС)","Профессиональный (многоголосый закадровый) (HDrezka Studio)"],"quality":"webdl","translation":"Любительский (многоголосый закадровый) (Синема УС)","update":"2020-05-09 08:11:40","iframe_src":"//5322.svetacdn.in/IAF0wWTdNYZm/movie/21681"},{"id":20585,"title":"Фэншуй","kp_id":"1046045","imdb_id":"tt7046524","world_art_id":null,"type":"movie","add":"2018-12-09 15:31:21","orig_title":"Myeongdang","year":"2018-09-19","translations":["Любительский (многоголосый закадровый) (STEPonee)","Профессиональный (многоголосый закадровый) (HDrezka Studio)"],"quality":"webdl","translation":"Любительский (многоголосый закадровый) (STEPonee)","update":"2020-05-09 08:04:18","iframe_src":"//5322.svetacdn.in/IAF0wWTdNYZm/movie/20585"},{"id":15343,"title":"Охота на монстра 2","kp_id":"1008195","imdb_id":"tt6170484","world_art_id":null,"type":"movie","add":"2018-03-02 15:08:37","orig_title":"Zhuo yao ji 2","year":"2018-02-16","translations":["Любительский (многоголосый закадровый) (Колобок)","Любительский (одноголосый закадровый)","Любительский (двухголосый закадровый) (RealFake)","Профессиональный (многоголосый закадровый) (HDrezka Studio)"],"quality":"webdl","translation":"Любительский (многоголосый закадровый) (Колобок)","update":"2020-05-09 08:06:27","iframe_src":"//5322.svetacdn.in/IAF0wWTdNYZm/movie/15343"},{"id":15292,"title":"Немой","kp_id":"471327","imdb_id":"tt1464763","world_art_id":null,"type":"movie","add":"2018-02-25 05:28:54","orig_title":"Mute","year":"2018-02-23","translations":["Любительский (многоголосый закадровый) (Синема УС)","Профессиональный (многоголосый закадровый) (BaibaKo)","Профессиональный (многоголосый закадровый) (NewStudio)","Профессиональный (многоголосый закадровый) (Jaskier)","Профессиональный (многоголосый закадровый) (GreenРай Studio)","Профессиональный (многоголосый закадровый) (HDrezka Studio)"],"quality":"webdl","translation":"Любительский (многоголосый закадровый) (Синема УС)","update":"2020-05-09 08:02:03","iframe_src":"//5322.svetacdn.in/IAF0wWTdNYZm/movie/15292"},{"id":14993,"title":"Бегущий в лабиринте: Лекарство от смерти","kp_id":"896631","imdb_id":"tt4500922","world_art_id":null,"type":"movie","add":"2018-01-29 16:47:45","orig_title":"Maze Runner: The Death Cure","year":"2018-01-17","translations":["Полное дублирование","Профессиональный (многоголосый закадровый) (GreenРай Studio)","Original (English)","Профессиональный (многоголосый закадровый) (HDrezka Studio)"],"quality":"bd","translation":"Полное дублирование","update":"2020-05-09 08:07:46","iframe_src":"//5322.svetacdn.in/IAF0wWTdNYZm/movie/14993"},{"id":14430,"title":"Виселица","kp_id":"775410","imdb_id":"tt3011960","world_art_id":null,"type":"movie","add":"2017-11-22 22:54:28","orig_title":"Hangman","year":"2017-12-22","translations":["Любительский (двухголосый закадровый) (RecentFilms)","Профессиональный (многоголосый закадровый) (Paradox & Omskbird records)","Любительский (многоголосый закадровый) (@MUZOBOZ@)","Профессиональный (многоголосый закадровый) (GreenРай Studio)","Профессиональный (многоголосый закадровый) (HDrezka Studio)"],"quality":"webdl","translation":"Любительский (двухголосый закадровый) (RecentFilms)","update":"2020-05-09 08:02:24","iframe_src":"//5322.svetacdn.in/IAF0wWTdNYZm/movie/14430"}],"current_page":700,"first_page_url":"https://videocdn.tv/api/short?limit=100&api_token=6Onb1W1alEUrBcKJZD3GoKBbWyAl2uG2&cache3700=3700&page=1","from":69901,"last_page":632,"last_page_url":"https://videocdn.tv/api/short?limit=100&api_token=6Onb1W1alEUrBcKJZD3GoKBbWyAl2uG2&cache3700=3700&page=632","next_page_url":null,"path":"https://videocdn.tv/api/short","per_page":100,"prev_page_url":"https://videocdn.tv/api/short?limit=100&api_token=6Onb1W1alEUrBcKJZD3GoKBbWyAl2uG2&cache3700=3700&page=699","to":69920,"total":63120}