{"result":true,"data":[{"id":44307,"title":"Особенное","kp_id":"1201378","imdb_id":"tt9118804","world_art_id":null,"type":"movie","add":"2020-10-11 17:48:53","orig_title":"The Special","year":"2020-10-13","translations":["Любительский (многоголосый закадровый) (Синема УС)"],"quality":"webdl","translation":"Любительский (многоголосый закадровый) (Синема УС)","update":"2020-10-11 21:38:29","iframe_src":"//83.svetacdn.in/PfJ50H0ZBPg3/movie/44307"},{"id":44290,"title":"В Ад с Харви","kp_id":"1237314","imdb_id":"tt9679538","world_art_id":null,"type":"movie","add":"2020-10-09 22:38:52","orig_title":"To Hell with Harvey","year":"2020-10-09","translations":["Любительский (многоголосый закадровый) (@MUZOBOZ@)"],"quality":"webdl","translation":"Любительский (многоголосый закадровый) (@MUZOBOZ@)","update":"2020-10-10 10:03:42","iframe_src":"//83.svetacdn.in/PfJ50H0ZBPg3/movie/44290"},{"id":44288,"title":"Ранчо Джона Лэндсбурга: подарок на свадьбу","kp_id":"1263537","imdb_id":"tt10302982","world_art_id":null,"type":"movie","add":"2020-10-09 22:35:32","orig_title":"JL Family Ranch: The Wedding Gift","year":"2020-01-01","translations":["Любительский (многоголосый закадровый) (Синема УС)"],"quality":"hdtv","translation":"Любительский (многоголосый закадровый) (Синема УС)","update":"2020-10-10 10:02:40","iframe_src":"//83.svetacdn.in/PfJ50H0ZBPg3/movie/44288"},{"id":44286,"title":"Джинни выходит замуж за Санни","kp_id":"1280337","imdb_id":"tt10543680","world_art_id":null,"type":"movie","add":"2020-10-09 21:44:10","orig_title":"Ginny Weds Sunny","year":"2020-10-09","translations":["Любительский (многоголосый закадровый) (@MUZOBOZ@)"],"quality":"webdl","translation":"Любительский (многоголосый закадровый) (@MUZOBOZ@)","update":"2020-10-10 05:36:16","iframe_src":"//83.svetacdn.in/PfJ50H0ZBPg3/movie/44286"},{"id":44284,"title":"Дарья","kp_id":"1340776","imdb_id":"tt11523872","world_art_id":null,"type":"movie","add":"2020-10-09 21:19:44","orig_title":"Daria","year":"2020-01-30","translations":["Любительский (многоголосый закадровый) (@MUZOBOZ@)"],"quality":"webdl","translation":"Любительский (многоголосый закадровый) (@MUZOBOZ@)","update":"2020-10-10 05:42:29","iframe_src":"//83.svetacdn.in/PfJ50H0ZBPg3/movie/44284"},{"id":44259,"title":"Бит Стрит","kp_id":"25389","imdb_id":"tt0086946","world_art_id":null,"type":"movie","add":"2020-10-08 21:03:31","orig_title":"Beat Street","year":"1984-05-22","translations":["Original (English)","Авторский (одноголосый закадровый) (Королёв Владимир)","Профессиональный (многоголосый закадровый) (НТВ)"],"quality":"dvdrip","translation":"Original (English)","update":"2020-10-11 08:19:10","iframe_src":"//83.svetacdn.in/PfJ50H0ZBPg3/movie/44259"},{"id":44258,"title":"Блю","kp_id":"21442","imdb_id":"tt0106438","world_art_id":null,"type":"movie","add":"2020-10-08 21:00:34","orig_title":"Blue","year":"1993-10-03","translations":["Любительский (одноголосый закадровый) (Огородников Владислав)","Original (English)"],"quality":"dvdrip","translation":"Любительский (одноголосый закадровый) (Огородников Владислав)","update":"2020-10-11 08:21:42","iframe_src":"//83.svetacdn.in/PfJ50H0ZBPg3/movie/44258"},{"id":44257,"title":"Ей это нужно позарез","kp_id":"6429","imdb_id":"tt0091939","world_art_id":null,"type":"movie","add":"2020-10-08 20:55:29","orig_title":"She's Gotta Have It","year":"1986-05-01","translations":["Профессиональный (двухголосый закадровый)"],"quality":"webdl","translation":"Профессиональный (двухголосый закадровый)","update":"2020-10-11 08:23:59","iframe_src":"//83.svetacdn.in/PfJ50H0ZBPg3/movie/44257"},{"id":44243,"title":"Мазлум Кузей и Куддуси 2: Бабки в сейфе!","kp_id":"1257452","imdb_id":"tt10071862","world_art_id":null,"type":"movie","add":"2020-10-08 15:29:47","orig_title":"Mazlum Kuzey & Kuddusi 2 La! Kasada Para Var!","year":"2019-04-12","translations":["Любительский (многоголосый закадровый) (Синема УС)"],"quality":"webdl","translation":"Любительский (многоголосый закадровый) (Синема УС)","update":"2020-10-10 15:14:28","iframe_src":"//83.svetacdn.in/PfJ50H0ZBPg3/movie/44243"},{"id":44242,"title":"Ученица Шершня и шрамы, которые она оставила","kp_id":"1182465","imdb_id":"tt8866718","world_art_id":null,"type":"movie","add":"2020-10-08 15:27:22","orig_title":"The Hornet's Disciple and the Scars She Left","year":"2018-08-03","translations":["Любительский (многоголосый закадровый) (Синема УС)"],"quality":"webdl","translation":"Любительский (многоголосый закадровый) (Синема УС)","update":"2020-10-10 15:15:07","iframe_src":"//83.svetacdn.in/PfJ50H0ZBPg3/movie/44242"},{"id":44241,"title":"Хатчипух","kp_id":"165879","imdb_id":"tt0132204","world_art_id":null,"type":"movie","add":"2020-10-08 12:59:00","orig_title":"Hatschipuh","year":"1987-02-26","translations":["Профессиональный (двухголосый закадровый)"],"quality":"dvdrip","translation":"Профессиональный (двухголосый закадровый)","update":"2020-10-10 16:27:54","iframe_src":"//83.svetacdn.in/PfJ50H0ZBPg3/movie/44241"},{"id":44233,"title":"Охота на девочек у Килиманджаро","kp_id":"121612","imdb_id":"tt0085441","world_art_id":null,"type":"movie","add":"2020-10-08 08:52:28","orig_title":"Dirndljagd am Kilimandscharo","year":"1983-08-12","translations":["Любительский (одноголосый закадровый)"],"quality":"dvdrip","translation":"Любительский (одноголосый закадровый)","update":"2020-10-10 06:00:28","iframe_src":"//83.svetacdn.in/PfJ50H0ZBPg3/movie/44233"},{"id":44176,"title":"Ложь","kp_id":"1112558","imdb_id":"tt7945440","world_art_id":null,"type":"movie","add":"2020-10-06 20:16:57","orig_title":"Between Earth and Sky","year":"2018-09-08","translations":["Original (English)","Профессиональный (многоголосый закадровый) (HDrezka Studio)"],"quality":"webdl","translation":"Original (English)","update":"2020-10-10 14:29:30","iframe_src":"//83.svetacdn.in/PfJ50H0ZBPg3/movie/44176"},{"id":44163,"title":"Богатые дети","kp_id":"766142","imdb_id":"tt2606314","world_art_id":null,"type":"movie","add":"2020-10-06 16:28:27","orig_title":"Caretakers","year":"2018-01-01","translations":["Любительский (многоголосый закадровый) (@MUZOBOZ@)"],"quality":"webdl","translation":"Любительский (многоголосый закадровый) (@MUZOBOZ@)","update":"2020-10-10 09:31:29","iframe_src":"//83.svetacdn.in/PfJ50H0ZBPg3/movie/44163"},{"id":43901,"title":"Я украду тебя у всего мира","kp_id":"1379064","imdb_id":null,"world_art_id":null,"type":"movie","add":"2020-09-27 23:06:02","orig_title":"Я украду тебя у всего мира","year":"2020-09-24","translations":["Оригинальная дорожка","Оригинальная дорожка"],"quality":"ts","translation":"Оригинальная дорожка","update":"2020-10-10 05:39:58","iframe_src":"//83.svetacdn.in/PfJ50H0ZBPg3/movie/43901"},{"id":42953,"title":"Вратарь Галактики","kp_id":"841471","imdb_id":"tt7176054","world_art_id":null,"type":"movie","add":"2020-08-31 03:46:19","orig_title":"Вратарь Галактики","year":"2020-08-27","translations":["Оригинальная дорожка","Оригинальная дорожка"],"quality":"ts","translation":"Оригинальная дорожка","update":"2020-10-10 05:34:09","iframe_src":"//83.svetacdn.in/PfJ50H0ZBPg3/movie/42953"},{"id":41260,"title":"Тебе стоило уйти","kp_id":"1139531","imdb_id":"tt8201852","world_art_id":null,"type":"movie","add":"2020-06-18 16:34:20","orig_title":"You Should Have Left","year":"2020-06-19","translations":["Любительский (многоголосый закадровый) (@MUZOBOZ@)","Профессиональный (многоголосый закадровый) (HDrezka Studio)","Original (English)","Полное дублирование (iTunes)"],"quality":"webdl","translation":"Любительский (многоголосый закадровый) (@MUZOBOZ@)","update":"2020-10-10 05:51:51","iframe_src":"//83.svetacdn.in/PfJ50H0ZBPg3/movie/41260"},{"id":28176,"title":"Наши соседи","kp_id":"46339","imdb_id":"tt0314425","world_art_id":null,"type":"movie","add":"2019-06-22 18:52:21","orig_title":"Nashi sosedi","year":"1957-12-16","translations":["Оригинальная дорожка","Оригинальная дорожка"],"quality":"sat","translation":"Оригинальная дорожка","update":"2020-10-10 16:29:02","iframe_src":"//83.svetacdn.in/PfJ50H0ZBPg3/movie/28176"},{"id":24323,"title":"Молчание","kp_id":"1049282","imdb_id":"tt7315484","world_art_id":null,"type":"movie","add":"2019-04-11 20:13:41","orig_title":"The Silence","year":"2019-04-10","translations":["Полное дублирование (SDI Media | Iyuno-SDI Group Russia)","Original (English)","Профессиональный (многоголосый закадровый) (HDrezka Studio)"],"quality":"webdl","translation":"Полное дублирование (SDI Media | Iyuno-SDI Group Russia)","update":"2020-10-10 09:32:41","iframe_src":"//83.svetacdn.in/PfJ50H0ZBPg3/movie/24323"},{"id":2866,"title":"Sex, кофе, сигареты","kp_id":"723825","imdb_id":"tt4852128","world_art_id":null,"type":"movie","add":"2016-06-03 20:23:59","orig_title":"Sex, kofe, sigarety","year":"2014-11-20","translations":["Оригинальная дорожка","Оригинальная дорожка"],"quality":"webdl","translation":"Оригинальная дорожка","update":"2020-10-10 16:30:27","iframe_src":"//83.svetacdn.in/PfJ50H0ZBPg3/movie/2866"}],"current_page":727,"first_page_url":"https://videocdn.tv/api/short?limit=100&api_token=RgFQdUIR2dRmwv8iYa5SnFNgnw3vpjKj&cache3727=3727&page=1","from":72601,"last_page":680,"last_page_url":"https://videocdn.tv/api/short?limit=100&api_token=RgFQdUIR2dRmwv8iYa5SnFNgnw3vpjKj&cache3727=3727&page=680","next_page_url":null,"path":"https://videocdn.tv/api/short","per_page":100,"prev_page_url":"https://videocdn.tv/api/short?limit=100&api_token=RgFQdUIR2dRmwv8iYa5SnFNgnw3vpjKj&cache3727=3727&page=726","to":72620,"total":67969}