{"result":true,"data":[{"id":49944,"title":"Том и Грант","kp_id":"1080180","imdb_id":"tt7364746","world_art_id":null,"type":"movie","add":"2021-04-27 16:49:53","orig_title":"Tom and Grant","year":"2018-03-01","translations":["Профессиональный (многоголосый закадровый) (HDrezka Studio)"],"quality":"webdl","translation":"Профессиональный (многоголосый закадровый) (HDrezka Studio)","update":"2021-04-27 19:21:34","iframe_src":"//83.svetacdn.in/PfJ50H0ZBPg3/movie/49944"},{"id":49942,"title":"Первый сигнал","kp_id":"1122359","imdb_id":"tt7851428","world_art_id":null,"type":"movie","add":"2021-04-27 13:48:11","orig_title":"First Signal","year":"2021-03-26","translations":["Любительский (многоголосый закадровый) (@MUZOBOZ@)"],"quality":"webdl","translation":"Любительский (многоголосый закадровый) (@MUZOBOZ@)","update":"2021-04-27 19:13:06","iframe_src":"//83.svetacdn.in/PfJ50H0ZBPg3/movie/49942"},{"id":49940,"title":"Без пяти шесть","kp_id":null,"imdb_id":"tt12829798","world_art_id":null,"type":"movie","add":"2021-04-27 13:44:53","orig_title":"Five Fifty Five (5:55)","year":"2021-04-23","translations":["Любительский (многоголосый закадровый) (Синема УС)"],"quality":"webdl","translation":"Любительский (многоголосый закадровый) (Синема УС)","update":"2021-04-27 19:12:53","iframe_src":"//83.svetacdn.in/PfJ50H0ZBPg3/movie/49940"},{"id":49938,"title":"Великая Энди","kp_id":"1211600","imdb_id":"tt9278378","world_art_id":null,"type":"movie","add":"2021-04-27 13:41:45","orig_title":"Andie The Great","year":"2021-02-03","translations":["Любительский (многоголосый закадровый) (Синема УС)"],"quality":"webdl","translation":"Любительский (многоголосый закадровый) (Синема УС)","update":"2021-04-27 19:12:39","iframe_src":"//83.svetacdn.in/PfJ50H0ZBPg3/movie/49938"},{"id":49937,"title":"Бухта","kp_id":"1402226","imdb_id":"tt12922082","world_art_id":null,"type":"movie","add":"2021-04-27 13:39:32","orig_title":"Escape to the Cove","year":"2021-01-17","translations":["Любительский (многоголосый закадровый) (Синема УС)"],"quality":"webdl","translation":"Любительский (многоголосый закадровый) (Синема УС)","update":"2021-04-27 19:12:25","iframe_src":"//83.svetacdn.in/PfJ50H0ZBPg3/movie/49937"},{"id":49935,"title":"Суховей","kp_id":"1375284","imdb_id":"tt11719648","world_art_id":null,"type":"movie","add":"2021-04-27 13:35:12","orig_title":"Vento Seco","year":"2020-02-26","translations":["Любительский (многоголосый закадровый) (Синема УС)"],"quality":"webdl","translation":"Любительский (многоголосый закадровый) (Синема УС)","update":"2021-04-27 19:11:36","iframe_src":"//83.svetacdn.in/PfJ50H0ZBPg3/movie/49935"},{"id":49934,"title":"Лучшие друзья навсегда","kp_id":null,"imdb_id":"tt14372246","world_art_id":null,"type":"movie","add":"2021-04-27 12:31:33","orig_title":"Best Friends Forever","year":"2021-04-02","translations":["Любительский (многоголосый закадровый) (Синема УС)"],"quality":"webdl","translation":"Любительский (многоголосый закадровый) (Синема УС)","update":"2021-04-27 19:11:20","iframe_src":"//83.svetacdn.in/PfJ50H0ZBPg3/movie/49934"},{"id":49933,"title":"Кинотеатр ужасов","kp_id":"1247123","imdb_id":"tt9881330","world_art_id":null,"type":"movie","add":"2021-04-27 12:23:56","orig_title":"The Theatre of Terror","year":"2019-12-01","translations":["Любительский (многоголосый закадровый) (Синема УС)"],"quality":"webdl","translation":"Любительский (многоголосый закадровый) (Синема УС)","update":"2021-04-27 19:11:01","iframe_src":"//83.svetacdn.in/PfJ50H0ZBPg3/movie/49933"},{"id":49932,"title":"Незнакомец в ночи","kp_id":"1085304","imdb_id":"tt7098662","world_art_id":null,"type":"movie","add":"2021-04-27 12:21:48","orig_title":"Stranger in the Night","year":"2019-10-31","translations":["Любительский (многоголосый закадровый) (Синема УС)"],"quality":"webdl","translation":"Любительский (многоголосый закадровый) (Синема УС)","update":"2021-04-27 19:10:46","iframe_src":"//83.svetacdn.in/PfJ50H0ZBPg3/movie/49932"},{"id":49931,"title":"С дедушки хватит","kp_id":"1311292","imdb_id":"tt11042188","world_art_id":null,"type":"movie","add":"2021-04-27 12:17:15","orig_title":"Opa hat die Schnauze voll","year":"2020-12-11","translations":["Любительский (многоголосый закадровый) (Синема УС)"],"quality":"webdl","translation":"Любительский (многоголосый закадровый) (Синема УС)","update":"2021-04-27 19:10:33","iframe_src":"//83.svetacdn.in/PfJ50H0ZBPg3/movie/49931"},{"id":49930,"title":"Бар Джозеф","kp_id":"1197501","imdb_id":"tt8171406","world_art_id":null,"type":"movie","add":"2021-04-27 12:11:44","orig_title":"Bar Joseph","year":"2021-04-21","translations":["Любительский (многоголосый закадровый) (Синема УС)"],"quality":"webdl","translation":"Любительский (многоголосый закадровый) (Синема УС)","update":"2021-04-27 19:10:13","iframe_src":"//83.svetacdn.in/PfJ50H0ZBPg3/movie/49930"},{"id":49928,"title":"Маленькие разбойники","kp_id":"420371","imdb_id":"tt1261910","world_art_id":null,"type":"movie","add":"2021-04-27 10:21:46","orig_title":"Mazie laupitaji","year":"2009-01-01","translations":["Профессиональный (многоголосый закадровый)"],"quality":"dvdrip","translation":"Профессиональный (многоголосый закадровый)","update":"2021-04-27 12:28:57","iframe_src":"//83.svetacdn.in/PfJ50H0ZBPg3/movie/49928"},{"id":49748,"title":"Невеста ядовитой долины","kp_id":null,"imdb_id":"tt13505558","world_art_id":null,"type":"movie","add":"2021-04-20 11:54:03","orig_title":"Yun Xi: Du Gu Xin Niang","year":"2020-11-12","translations":["Любительский (одноголосый закадровый) (Береговых Виктор | Jet)","Любительский (двухголосый закадровый) (Колобок)"],"quality":"webdl","translation":"Любительский (одноголосый закадровый) (Береговых Виктор | Jet)","update":"2021-04-27 19:09:20","iframe_src":"//83.svetacdn.in/PfJ50H0ZBPg3/movie/49748"},{"id":49152,"title":"Годзилла против Конга","kp_id":"965936","imdb_id":"tt5034838","world_art_id":null,"type":"movie","add":"2021-03-28 15:18:34","orig_title":"Godzilla vs. Kong","year":"2021-03-24","translations":["Original (English)","Полное дублирование (Звук с TS)","Полное дублирование","Любительский (одноголосый закадровый) (feofanio)","Авторский (одноголосый закадровый) (Яроцкий Михаил | Kyberpunk)","Полное дублирование","Профессиональный (многоголосый закадровый) (HDrezka Studio)","Полное дублирование (iTunes)"],"quality":"webdl","translation":"Original (English)","update":"2021-04-27 14:06:22","iframe_src":"//83.svetacdn.in/PfJ50H0ZBPg3/movie/49152"},{"id":46373,"title":"Всю мою жизнь","kp_id":"1304220","imdb_id":"tt8305852","world_art_id":null,"type":"movie","add":"2020-12-25 18:08:21","orig_title":"All My Life","year":"2020-10-23","translations":["Любительский (многоголосый закадровый) (Синема УС)","Полное дублирование (iTunes)","Original (English)"],"quality":"webdl","translation":"Любительский (многоголосый закадровый) (Синема УС)","update":"2021-04-27 10:33:56","iframe_src":"//83.svetacdn.in/PfJ50H0ZBPg3/movie/46373"},{"id":42229,"title":"Удушье","kp_id":"1089727","imdb_id":"tt6560352","world_art_id":null,"type":"movie","add":"2020-08-03 19:28:18","orig_title":"Asfixia","year":"2019-10-18","translations":["Любительский (многоголосый закадровый) (Синема УС)","Любительский (многоголосый закадровый) (OnisFilms)"],"quality":"webdl","translation":"Любительский (многоголосый закадровый) (Синема УС)","update":"2021-04-27 14:40:24","iframe_src":"//83.svetacdn.in/PfJ50H0ZBPg3/movie/42229"},{"id":7018,"title":"Супруги 2","kp_id":"584749","imdb_id":"tt5013512","world_art_id":null,"type":"serial","add":"2020-03-28 11:11:19","orig_title":"Suprugi 2","year":"2011-01-01","translations":["Оригинальная дорожка"],"seasons_count":1,"episodes_count":66,"episodes":66,"update":"2020-03-29 09:00:53","iframe_src":"//83.svetacdn.in/PfJ50H0ZBPg3/tv-series/7018"},{"id":7016,"title":"Супруги","kp_id":"481298","imdb_id":"tt5019792","world_art_id":null,"type":"serial","add":"2020-03-28 10:00:47","orig_title":"Suprugi","year":"2009-10-31","translations":["Оригинальная дорожка"],"seasons_count":1,"episodes_count":50,"episodes":50,"update":"2020-03-29 10:10:18","iframe_src":"//83.svetacdn.in/PfJ50H0ZBPg3/tv-series/7016"},{"id":7011,"title":"Падший","kp_id":"393873","imdb_id":"tt0838800","world_art_id":null,"type":"serial","add":"2020-03-27 13:27:13","orig_title":"Fallen","year":"2007-08-04","translations":["Профессиональный (двухголосый закадровый) (НТВ)"],"seasons_count":1,"episodes_count":3,"episodes":3,"update":"2020-03-27 23:04:35","iframe_src":"//83.svetacdn.in/PfJ50H0ZBPg3/tv-series/7011"},{"id":7009,"title":"Заградотряд: Соло на минном поле","kp_id":"490266","imdb_id":"tt3519004","world_art_id":null,"type":"serial","add":"2020-03-27 13:01:56","orig_title":"Zagradotryad","year":"2009-01-01","translations":["Оригинальная дорожка"],"seasons_count":1,"episodes_count":4,"episodes":4,"update":"2020-03-27 23:08:09","iframe_src":"//83.svetacdn.in/PfJ50H0ZBPg3/tv-series/7009"},{"id":7003,"title":"Хранитель","kp_id":"1164014","imdb_id":"tt8551028","world_art_id":null,"type":"serial","add":"2020-03-26 21:50:18","orig_title":"Zhen hun","year":"2018-06-13","translations":["Любительский (двухголосый закадровый) (RusFilm)"],"seasons_count":1,"episodes_count":40,"episodes":40,"update":"2020-03-29 10:31:48","iframe_src":"//83.svetacdn.in/PfJ50H0ZBPg3/tv-series/7003"},{"id":7002,"title":"Не могу забыть тебя","kp_id":"1108398","imdb_id":null,"world_art_id":null,"type":"serial","add":"2020-03-26 21:48:36","orig_title":"Не могу забыть тебя","year":"2018-05-19","translations":["Оригинальная дорожка"],"seasons_count":1,"episodes_count":4,"episodes":4,"update":"2020-03-27 14:02:15","iframe_src":"//83.svetacdn.in/PfJ50H0ZBPg3/tv-series/7002"},{"id":7001,"title":"Братья","kp_id":"455535","imdb_id":null,"world_art_id":null,"type":"serial","add":"2020-03-26 21:46:14","orig_title":"Братья","year":"2009-07-10","translations":["Оригинальная дорожка"],"seasons_count":1,"episodes_count":6,"episodes":6,"update":"2020-03-27 14:05:01","iframe_src":"//83.svetacdn.in/PfJ50H0ZBPg3/tv-series/7001"},{"id":7000,"title":"Слепой поворот","kp_id":"1346419","imdb_id":null,"world_art_id":null,"type":"serial","add":"2020-03-26 21:32:17","orig_title":"Слепой поворот","year":"2020-02-28","translations":["Оригинальная дорожка"],"seasons_count":1,"episodes_count":4,"episodes":4,"update":"2020-03-27 04:50:39","iframe_src":"//83.svetacdn.in/PfJ50H0ZBPg3/tv-series/7000"},{"id":6999,"title":"Подарок судьбы","kp_id":"469664","imdb_id":"tt3033200","world_art_id":null,"type":"serial","add":"2020-03-26 21:29:06","orig_title":"Podarok sudby","year":"2010-12-06","translations":["Оригинальная дорожка"],"seasons_count":1,"episodes_count":20,"episodes":20,"update":"2020-03-27 14:27:50","iframe_src":"//83.svetacdn.in/PfJ50H0ZBPg3/tv-series/6999"},{"id":6998,"title":"Одноклассники смерти","kp_id":"1357494","imdb_id":null,"world_art_id":null,"type":"serial","add":"2020-03-26 21:24:55","orig_title":"Одноклассники смерти","year":"2020-03-14","translations":["Оригинальная дорожка"],"seasons_count":1,"episodes_count":4,"episodes":4,"update":"2020-03-27 04:48:19","iframe_src":"//83.svetacdn.in/PfJ50H0ZBPg3/tv-series/6998"},{"id":6996,"title":"Версия","kp_id":"461835","imdb_id":"tt4994314","world_art_id":null,"type":"serial","add":"2020-03-26 15:03:26","orig_title":"Versiya","year":"2009-05-11","translations":["Оригинальная дорожка"],"seasons_count":3,"episodes_count":28,"episodes":8,"update":"2020-03-27 14:17:28","iframe_src":"//83.svetacdn.in/PfJ50H0ZBPg3/tv-series/6996"},{"id":6991,"title":"Обмани себя","kp_id":"1226469","imdb_id":null,"world_art_id":null,"type":"serial","add":"2020-03-26 07:36:40","orig_title":"Обмани себя","year":"2018-12-17","translations":["Оригинальная дорожка"],"seasons_count":1,"episodes_count":4,"episodes":4,"update":"2020-03-27 04:44:50","iframe_src":"//83.svetacdn.in/PfJ50H0ZBPg3/tv-series/6991"},{"id":6989,"title":"Next 3","kp_id":"425052","imdb_id":"tt2061328","world_art_id":null,"type":"serial","add":"2020-03-25 22:00:30","orig_title":"Next 3","year":"2003-01-01","translations":["Оригинальная дорожка"],"seasons_count":1,"episodes_count":16,"episodes":16,"update":"2020-03-26 23:02:00","iframe_src":"//83.svetacdn.in/PfJ50H0ZBPg3/tv-series/6989"},{"id":6988,"title":"Next 2","kp_id":"79820","imdb_id":"tt0387759","world_art_id":null,"type":"serial","add":"2020-03-25 21:58:55","orig_title":"Next 2","year":"2002-01-01","translations":["Оригинальная дорожка"],"seasons_count":1,"episodes_count":12,"episodes":12,"update":"2020-03-26 22:56:10","iframe_src":"//83.svetacdn.in/PfJ50H0ZBPg3/tv-series/6988"},{"id":6987,"title":"Next. Следующий","kp_id":"79819","imdb_id":"tt0386959","world_art_id":null,"type":"serial","add":"2020-03-25 21:57:00","orig_title":"Next","year":"2001-01-01","translations":["Оригинальная дорожка"],"seasons_count":1,"episodes_count":4,"episodes":4,"update":"2020-03-26 22:51:51","iframe_src":"//83.svetacdn.in/PfJ50H0ZBPg3/tv-series/6987"},{"id":6961,"title":"Джуманджи","kp_id":"95241","imdb_id":"tt0115228","world_art_id":null,"type":"serial","add":"2020-03-22 13:29:43","orig_title":"Jumanji","year":"1996-09-08","translations":["Полное дублирование"],"seasons_count":3,"episodes_count":40,"episodes":14,"update":"2020-03-27 12:39:05","iframe_src":"//83.svetacdn.in/PfJ50H0ZBPg3/tv-series/6961"},{"id":6909,"title":"В шаге от рая","kp_id":"1287549","imdb_id":null,"world_art_id":null,"type":"serial","add":"2020-03-16 23:07:17","orig_title":"В шаге от рая","year":"2020-03-16","translations":["Оригинальная дорожка"],"seasons_count":1,"episodes_count":16,"episodes":16,"update":"2020-03-27 09:48:13","iframe_src":"//83.svetacdn.in/PfJ50H0ZBPg3/tv-series/6909"},{"id":35352,"title":"Отчаянный ход","kp_id":"820701","imdb_id":"tt0783640","world_art_id":null,"type":"movie","add":"2020-01-22 20:21:22","orig_title":"The Last Full Measure","year":"2020-01-24","translations":["Любительский (многоголосый закадровый) (@MUZOBOZ@)","Original (English)","Полное дублирование (iTunes)"],"quality":"webdl","translation":"Любительский (многоголосый закадровый) (@MUZOBOZ@)","update":"2021-04-27 10:36:56","iframe_src":"//83.svetacdn.in/PfJ50H0ZBPg3/movie/35352"},{"id":6213,"title":"Виражи судьбы","kp_id":"1311029","imdb_id":null,"world_art_id":null,"type":"serial","add":"2020-01-03 06:08:33","orig_title":"Виражи судьбы","year":"2019-09-28","translations":["Оригинальная дорожка"],"seasons_count":1,"episodes_count":4,"episodes":4,"update":"2020-03-29 06:55:47","iframe_src":"//83.svetacdn.in/PfJ50H0ZBPg3/tv-series/6213"},{"id":4468,"title":"Жестокий Стамбул","kp_id":"1245958","imdb_id":"tt9910728","world_art_id":null,"type":"serial","add":"2019-05-07 19:21:48","orig_title":"Zalim Istanbul","year":"2019-04-01","translations":["Любительский (двухголосый закадровый)","Любительский (одноголосый закадровый) (Гайдаржи Анастасия)","Любительский (одноголосый закадровый)","Профессиональный (многоголосый закадровый) (West Media Group)"],"seasons_count":2,"episodes_count":36,"episodes":27,"update":"2020-03-28 10:11:31","iframe_src":"//83.svetacdn.in/PfJ50H0ZBPg3/tv-series/4468"},{"id":19858,"title":"Опоссум","kp_id":"1078486","imdb_id":"tt6081670","world_art_id":null,"type":"movie","add":"2018-10-30 00:15:38","orig_title":"Possum","year":"2018-06-25","translations":["Любительский (многоголосый закадровый) (Синема УС)","Любительский (одноголосый закадровый) (BadBajo)","Любительский (двухголосый закадровый) (LakeFilms)","Профессиональный (многоголосый закадровый) (HDrezka Studio)"],"quality":"webdl","translation":"Любительский (многоголосый закадровый) (Синема УС)","update":"2021-04-27 12:01:14","iframe_src":"//83.svetacdn.in/PfJ50H0ZBPg3/movie/19858"},{"id":12115,"title":"Маленький Немо: Приключения в стране снов","kp_id":"23264","imdb_id":"tt0104740","world_art_id":null,"type":"movie","add":"2017-06-23 10:55:38","orig_title":"Little Nemo: Adventures in Slumberland","year":"1989-07-15","translations":["Авторский (одноголосый закадровый) (Дольский Андрей)","Любительский (одноголосый закадровый) (VHSник | Страхов Борис )"],"quality":"bd","translation":"Авторский (одноголосый закадровый) (Дольский Андрей)","update":"2021-04-27 16:29:29","iframe_src":"//83.svetacdn.in/PfJ50H0ZBPg3/movie/12115"},{"id":933,"title":"Сшиватели","kp_id":"891594","imdb_id":"tt3868848","world_art_id":null,"type":"serial","add":"2017-01-24 05:43:45","orig_title":"Stitchers","year":"2015-06-02","translations":["Любительский (двухголосый закадровый) (LevshaFilm)","Профессиональный (многоголосый закадровый) (Кириллица)","Любительский (одноголосый закадровый)","Любительский (двухголосый закадровый) (Hamster Studio)"],"seasons_count":3,"episodes_count":31,"episodes":10,"update":"2020-03-28 16:16:54","iframe_src":"//83.svetacdn.in/PfJ50H0ZBPg3/tv-series/933"},{"id":4593,"title":"99 домов","kp_id":"762919","imdb_id":"tt2891174","world_art_id":null,"type":"movie","add":"2016-08-21 15:19:11","orig_title":"99 Homes","year":"2014-08-29","translations":["Любительский (одноголосый закадровый)","Профессиональный (многоголосый закадровый)","Original (English)"],"quality":"bd","translation":"Любительский (одноголосый закадровый)","update":"2021-04-27 10:35:21","iframe_src":"//83.svetacdn.in/PfJ50H0ZBPg3/movie/4593"}],"current_page":295,"first_page_url":"https://videocdn.tv/api/short?limit=100&api_token=RgFQdUIR2dRmwv8iYa5SnFNgnw3vpjKj&cache3295=3295&page=1","from":29401,"last_page":665,"last_page_url":"https://videocdn.tv/api/short?limit=100&api_token=RgFQdUIR2dRmwv8iYa5SnFNgnw3vpjKj&cache3295=3295&page=665","next_page_url":"https://videocdn.tv/api/short?limit=100&api_token=RgFQdUIR2dRmwv8iYa5SnFNgnw3vpjKj&cache3295=3295&page=296","path":"https://videocdn.tv/api/short","per_page":100,"prev_page_url":"https://videocdn.tv/api/short?limit=100&api_token=RgFQdUIR2dRmwv8iYa5SnFNgnw3vpjKj&cache3295=3295&page=294","to":29440,"total":66453}