{"result":true,"data":[{"id":44598,"title":"Великий иллюзионист","kp_id":"1416874","imdb_id":"tt12839498","world_art_id":null,"type":"movie","add":"2020-10-19 17:25:38","orig_title":"The Great Illusionist","year":"2020-08-07","translations":["Любительский (двухголосый закадровый) (Колобок)"],"quality":"webdl","translation":"Любительский (двухголосый закадровый) (Колобок)","update":"2020-10-20 06:12:09","iframe_src":"//83.svetacdn.in/PfJ50H0ZBPg3/movie/44598"},{"id":44597,"title":"Пробуждение монахини","kp_id":"1256421","imdb_id":"tt10053426","world_art_id":null,"type":"movie","add":"2020-10-19 17:11:51","orig_title":"The Watcher 2","year":"2020-08-18","translations":["Любительский (многоголосый закадровый) (@MUZOBOZ@)"],"quality":"webdl","translation":"Любительский (многоголосый закадровый) (@MUZOBOZ@)","update":"2020-10-20 06:13:18","iframe_src":"//83.svetacdn.in/PfJ50H0ZBPg3/movie/44597"},{"id":44493,"title":"Обратно Домой","kp_id":"1041364","imdb_id":"tt6597246","world_art_id":null,"type":"movie","add":"2020-10-16 09:44:10","orig_title":"Contromano","year":"2018-03-29","translations":["Любительский (многоголосый закадровый) (Синема УС)"],"quality":"webdl","translation":"Любительский (многоголосый закадровый) (Синема УС)","update":"2020-10-20 06:23:16","iframe_src":"//83.svetacdn.in/PfJ50H0ZBPg3/movie/44493"},{"id":44492,"title":"Тайское место","kp_id":"1266060","imdb_id":"tt10295902","world_art_id":null,"type":"movie","add":"2020-10-16 09:32:54","orig_title":"Hemelrijken","year":"2019-12-20","translations":["Любительский (многоголосый закадровый) (Синема УС)"],"quality":"webdl","translation":"Любительский (многоголосый закадровый) (Синема УС)","update":"2020-10-20 06:29:21","iframe_src":"//83.svetacdn.in/PfJ50H0ZBPg3/movie/44492"},{"id":44489,"title":"Пятеро из Мерсисайда","kp_id":null,"imdb_id":"tt7033092","world_art_id":null,"type":"movie","add":"2020-10-16 09:24:28","orig_title":"The Five in Merseyside","year":"2018-11-19","translations":["Любительский (многоголосый закадровый) (Синема УС)"],"quality":"webdl","translation":"Любительский (многоголосый закадровый) (Синема УС)","update":"2020-10-20 06:40:18","iframe_src":"//83.svetacdn.in/PfJ50H0ZBPg3/movie/44489"},{"id":44488,"title":"Решение не вынесено","kp_id":"1137126","imdb_id":"tt7762616","world_art_id":null,"type":"movie","add":"2020-10-16 09:22:17","orig_title":"Yet to Rule","year":"2018-02-17","translations":["Любительский (многоголосый закадровый) (Синема УС)"],"quality":"webdl","translation":"Любительский (многоголосый закадровый) (Синема УС)","update":"2020-10-20 06:43:52","iframe_src":"//83.svetacdn.in/PfJ50H0ZBPg3/movie/44488"},{"id":44487,"title":"Железный мост","kp_id":"1229254","imdb_id":"tt9495122","world_art_id":null,"type":"movie","add":"2020-10-16 09:20:39","orig_title":"Zelazny most","year":"2019-09-17","translations":["Любительский (многоголосый закадровый) (Синема УС)"],"quality":"webdl","translation":"Любительский (многоголосый закадровый) (Синема УС)","update":"2020-10-20 06:49:17","iframe_src":"//83.svetacdn.in/PfJ50H0ZBPg3/movie/44487"},{"id":44484,"title":"15 любовь","kp_id":"78183","imdb_id":"tt0184178","world_art_id":null,"type":"movie","add":"2020-10-16 07:52:30","orig_title":"15 Amore","year":"1998-09-27","translations":["Профессиональный (двухголосый закадровый)"],"quality":"dvdrip","translation":"Профессиональный (двухголосый закадровый)","update":"2020-10-20 06:47:20","iframe_src":"//83.svetacdn.in/PfJ50H0ZBPg3/movie/44484"},{"id":44479,"title":"Медный всадник России","kp_id":"1142568","imdb_id":null,"world_art_id":null,"type":"movie","add":"2020-10-16 07:24:48","orig_title":"Медный всадник России","year":"2019-01-01","translations":["Оригинальная дорожка"],"quality":"webdl","translation":"Оригинальная дорожка","update":"2020-10-20 06:50:52","iframe_src":"//83.svetacdn.in/PfJ50H0ZBPg3/movie/44479"},{"id":44475,"title":"Мои занятия борьбой","kp_id":"736281","imdb_id":"tt2634394","world_art_id":null,"type":"movie","add":"2020-10-15 20:54:10","orig_title":"Mes séances de lutte","year":"2013-02-11","translations":["Авторский (одноголосый закадровый) (Штейн Владимир)"],"quality":"bd","translation":"Авторский (одноголосый закадровый) (Штейн Владимир)","update":"2020-10-20 06:55:54","iframe_src":"//83.svetacdn.in/PfJ50H0ZBPg3/movie/44475"},{"id":44472,"title":"Анна и волки","kp_id":"58334","imdb_id":"tt0068207","world_art_id":null,"type":"movie","add":"2020-10-15 20:48:00","orig_title":"Ana y los lobos","year":"1973-05-20","translations":["Профессиональный (двухголосый закадровый) (Фортуна-Фильм)"],"quality":"bd","translation":"Профессиональный (двухголосый закадровый) (Фортуна-Фильм)","update":"2020-10-20 06:54:08","iframe_src":"//83.svetacdn.in/PfJ50H0ZBPg3/movie/44472"},{"id":44391,"title":"Это была Америка","kp_id":"1201946","imdb_id":"tt9093140","world_art_id":null,"type":"movie","add":"2020-10-13 12:44:11","orig_title":"This Was America","year":"2020-10-12","translations":["Любительский (многоголосый закадровый) (@MUZOBOZ@)","Original (English)"],"quality":"webdl","translation":"Любительский (многоголосый закадровый) (@MUZOBOZ@)","update":"2020-10-20 07:08:27","iframe_src":"//83.svetacdn.in/PfJ50H0ZBPg3/movie/44391"},{"id":44388,"title":"Отряд монстров Зеро","kp_id":"1027778","imdb_id":"tt6222828","world_art_id":null,"type":"movie","add":"2020-10-13 12:34:54","orig_title":"Monster Force Zero","year":"2020-01-01","translations":["Любительский (многоголосый закадровый) (@MUZOBOZ@)","Original (English)"],"quality":"webdl","translation":"Любительский (многоголосый закадровый) (@MUZOBOZ@)","update":"2020-10-20 06:59:05","iframe_src":"//83.svetacdn.in/PfJ50H0ZBPg3/movie/44388"},{"id":44386,"title":"Говнюк: Эпический квест Джордана Кэнтуэлла","kp_id":null,"imdb_id":"tt3801544","world_art_id":null,"type":"movie","add":"2020-10-13 12:31:24","orig_title":"S#!%head: Jordan Cantwell's Epic Quest","year":"2020-10-11","translations":["Original (English)"],"quality":"webdl","translation":"Original (English)","update":"2020-10-20 06:57:06","iframe_src":"//83.svetacdn.in/PfJ50H0ZBPg3/movie/44386"},{"id":44378,"title":"Последний изгоняющий дьявола","kp_id":"1053435","imdb_id":"tt7311330","world_art_id":null,"type":"movie","add":"2020-10-12 20:56:28","orig_title":"The Last Exorcist","year":"2020-10-12","translations":["Любительский (многоголосый закадровый) (@MUZOBOZ@)","Original (English)"],"quality":"webdl","translation":"Любительский (многоголосый закадровый) (@MUZOBOZ@)","update":"2020-10-20 07:06:23","iframe_src":"//83.svetacdn.in/PfJ50H0ZBPg3/movie/44378"},{"id":44361,"title":"Сражение за Атланту","kp_id":"1404524","imdb_id":"tt12935100","world_art_id":null,"type":"movie","add":"2020-10-12 17:52:48","orig_title":"The Burning of Atlanta","year":"2020-11-17","translations":["Любительский (многоголосый закадровый) (@MUZOBOZ@)","Original (English)"],"quality":"webdl","translation":"Любительский (многоголосый закадровый) (@MUZOBOZ@)","update":"2020-10-20 07:04:10","iframe_src":"//83.svetacdn.in/PfJ50H0ZBPg3/movie/44361"},{"id":44206,"title":"Заложник","kp_id":"1064514","imdb_id":"tt7221772","world_art_id":null,"type":"movie","add":"2020-10-07 15:57:03","orig_title":"Seized","year":"2020-10-13","translations":["Любительский (многоголосый закадровый) (@MUZOBOZ@)","Полное дублирование (iTunes)","Original (English)"],"quality":"webdl","translation":"Любительский (многоголосый закадровый) (@MUZOBOZ@)","update":"2020-10-20 07:02:12","iframe_src":"//83.svetacdn.in/PfJ50H0ZBPg3/movie/44206"},{"id":42653,"title":"За призрачной дверью","kp_id":"1242644","imdb_id":"tt9178402","world_art_id":null,"type":"movie","add":"2020-08-21 20:14:26","orig_title":"The Pale Door","year":"2020-08-21","translations":["Любительский (многоголосый закадровый) (@MUZOBOZ@)","Original (English)","Полное дублирование (iTunes)"],"quality":"webdl","translation":"Любительский (многоголосый закадровый) (@MUZOBOZ@)","update":"2020-10-20 06:10:06","iframe_src":"//83.svetacdn.in/PfJ50H0ZBPg3/movie/42653"},{"id":36770,"title":"Всех за борт","kp_id":"4194","imdb_id":"tt0096870","world_art_id":null,"type":"movie","add":"2020-02-22 17:25:05","orig_title":"Going Overboard","year":"1989-05-12","translations":["Original (English)","Профессиональный (многоголосый закадровый) (РенТВ)","Профессиональный (двухголосый закадровый) (РенТВ)"],"quality":"webdl","translation":"Original (English)","update":"2020-10-20 06:52:44","iframe_src":"//83.svetacdn.in/PfJ50H0ZBPg3/movie/36770"},{"id":35077,"title":"Под водой","kp_id":"1031442","imdb_id":"tt5774060","world_art_id":null,"type":"movie","add":"2020-01-15 13:42:29","orig_title":"Underwater","year":"2020-01-07","translations":["Полное дублирование (iTunes)","Original (English)","Любительский (многоголосый закадровый) (Mallorn Studio)"],"quality":"bd","translation":"Полное дублирование (iTunes)","update":"2020-10-20 06:16:03","iframe_src":"//83.svetacdn.in/PfJ50H0ZBPg3/movie/35077"},{"id":862,"title":"Главный подозреваемый 7","kp_id":"277547","imdb_id":"tt0811026","world_art_id":null,"type":"serial","add":"2017-01-10 07:25:41","orig_title":"Prime Suspect: The Final Act","year":"2006-10-15","translations":["Профессиональный (многоголосый закадровый) (Selena International)"],"seasons_count":1,"episodes_count":2,"episodes":2,"update":"2017-01-11 06:35:40","iframe_src":"//83.svetacdn.in/PfJ50H0ZBPg3/tv-series/862"},{"id":861,"title":"Главный подозреваемый 6: Последний свидетель","kp_id":"271519","imdb_id":"tt0365651","world_art_id":null,"type":"serial","add":"2017-01-10 07:22:42","orig_title":"Prime Suspect 6: The Last Witness","year":"2003-11-09","translations":["Профессиональный (многоголосый закадровый) (Selena International)"],"seasons_count":1,"episodes_count":2,"episodes":2,"update":"2017-01-11 06:32:48","iframe_src":"//83.svetacdn.in/PfJ50H0ZBPg3/tv-series/861"},{"id":860,"title":"Главный подозреваемый 5: Судебные ошибки","kp_id":"277818","imdb_id":"tt0115321","world_art_id":null,"type":"serial","add":"2017-01-10 07:19:36","orig_title":"Prime Suspect 5: Errors of Judgement","year":"1996-10-20","translations":["Профессиональный (многоголосый закадровый) (Selena International)"],"seasons_count":1,"episodes_count":2,"episodes":2,"update":"2017-01-11 06:29:14","iframe_src":"//83.svetacdn.in/PfJ50H0ZBPg3/tv-series/860"},{"id":859,"title":"Главный подозреваемый 4: Запах темноты","kp_id":"277817","imdb_id":"tt0114181","world_art_id":null,"type":"serial","add":"2017-01-10 07:11:35","orig_title":"Prime Suspect: The Scent of Darkness","year":"1995-05-15","translations":["Профессиональный (многоголосый закадровый) (Selena International)"],"seasons_count":1,"episodes_count":1,"episodes":1,"update":"2017-01-11 06:24:28","iframe_src":"//83.svetacdn.in/PfJ50H0ZBPg3/tv-series/859"},{"id":858,"title":"Главный подозреваемый 4: Узкий круг","kp_id":"277816","imdb_id":"tt0114180","world_art_id":null,"type":"serial","add":"2017-01-10 07:10:32","orig_title":"Prime Suspect: Inner Circles","year":"1995-05-07","translations":["Профессиональный (многоголосый закадровый) (Selena International)"],"seasons_count":1,"episodes_count":1,"episodes":1,"update":"2017-01-11 06:25:45","iframe_src":"//83.svetacdn.in/PfJ50H0ZBPg3/tv-series/858"},{"id":857,"title":"Главный подозреваемый 4: Потерянный ребенок","kp_id":"277815","imdb_id":"tt0114182","world_art_id":null,"type":"serial","add":"2017-01-10 06:58:43","orig_title":"Prime Suspect: The Lost Child","year":"1995-04-30","translations":["Профессиональный (многоголосый закадровый) (Selena International)"],"seasons_count":1,"episodes_count":1,"episodes":1,"update":"2017-01-11 06:22:29","iframe_src":"//83.svetacdn.in/PfJ50H0ZBPg3/tv-series/857"},{"id":856,"title":"Главный подозреваемый 3","kp_id":"277814","imdb_id":"tt0106104","world_art_id":null,"type":"serial","add":"2017-01-10 06:54:42","orig_title":"Prime Suspect 3","year":"1993-12-19","translations":["Профессиональный (многоголосый закадровый) (Selena International)"],"seasons_count":1,"episodes_count":2,"episodes":2,"update":"2017-01-11 06:21:01","iframe_src":"//83.svetacdn.in/PfJ50H0ZBPg3/tv-series/856"},{"id":855,"title":"Главный подозреваемый 2","kp_id":"277813","imdb_id":"tt0103516","world_art_id":null,"type":"serial","add":"2017-01-10 06:51:53","orig_title":"Prime Suspect 2","year":"1992-12-15","translations":["Профессиональный (многоголосый закадровый) (Selena International)"],"seasons_count":1,"episodes_count":2,"episodes":2,"update":"2017-01-11 06:18:08","iframe_src":"//83.svetacdn.in/PfJ50H0ZBPg3/tv-series/855"},{"id":854,"title":"Главный подозреваемый","kp_id":"277812","imdb_id":"tt0098898","world_art_id":null,"type":"serial","add":"2017-01-10 06:48:42","orig_title":"Prime Suspect","year":"1991-04-07","translations":["Профессиональный (многоголосый закадровый) (Selena International)"],"seasons_count":1,"episodes_count":2,"episodes":2,"update":"2017-01-11 06:12:37","iframe_src":"//83.svetacdn.in/PfJ50H0ZBPg3/tv-series/854"},{"id":849,"title":"Криминолог","kp_id":"1008278","imdb_id":null,"world_art_id":null,"type":"serial","add":"2017-01-09 18:25:24","orig_title":"Криминолог","year":"2016-11-22","translations":["Оригинальная дорожка"],"seasons_count":1,"episodes_count":16,"episodes":16,"update":"2017-01-10 06:44:20","iframe_src":"//83.svetacdn.in/PfJ50H0ZBPg3/tv-series/849"},{"id":846,"title":"Наша эра. Продолжение Библии","kp_id":"891412","imdb_id":"tt4074084","world_art_id":null,"type":"serial","add":"2017-01-09 11:03:44","orig_title":"A.D. The Bible Continues","year":"2015-04-05","translations":["Профессиональный (многоголосый закадровый) (BaibaKo)"],"seasons_count":1,"episodes_count":12,"episodes":12,"update":"2017-01-10 09:58:09","iframe_src":"//83.svetacdn.in/PfJ50H0ZBPg3/tv-series/846"},{"id":845,"title":"Холодное сердце","kp_id":"1008359","imdb_id":null,"world_art_id":null,"type":"serial","add":"2017-01-09 10:59:19","orig_title":"Холодное сердце","year":"2016-12-24","translations":["Оригинальная дорожка"],"seasons_count":1,"episodes_count":2,"episodes":2,"update":"2017-01-10 10:02:55","iframe_src":"//83.svetacdn.in/PfJ50H0ZBPg3/tv-series/845"},{"id":842,"title":"Кулинар","kp_id":"681251","imdb_id":"tt2819270","world_art_id":null,"type":"serial","add":"2017-01-09 06:25:38","orig_title":"Kulinar","year":"2012-05-14","translations":["Оригинальная дорожка"],"seasons_count":1,"episodes_count":20,"episodes":20,"update":"2017-01-10 06:41:54","iframe_src":"//83.svetacdn.in/PfJ50H0ZBPg3/tv-series/842"},{"id":839,"title":"Голубка","kp_id":"532996","imdb_id":"tt4195010","world_art_id":null,"type":"serial","add":"2017-01-09 06:00:05","orig_title":"Golubka","year":"2011-03-14","translations":["Оригинальная дорожка"],"seasons_count":1,"episodes_count":16,"episodes":16,"update":"2017-01-10 15:21:42","iframe_src":"//83.svetacdn.in/PfJ50H0ZBPg3/tv-series/839"},{"id":829,"title":"Больше, чем врач","kp_id":"1008618","imdb_id":null,"world_art_id":null,"type":"serial","add":"2017-01-08 09:38:46","orig_title":"Больше, чем врач","year":"2017-01-06","translations":["Оригинальная дорожка"],"seasons_count":1,"episodes_count":4,"episodes":4,"update":"2017-01-10 08:45:24","iframe_src":"//83.svetacdn.in/PfJ50H0ZBPg3/tv-series/829"},{"id":822,"title":"Половинки невозможного","kp_id":"846891","imdb_id":null,"world_art_id":null,"type":"serial","add":"2017-01-06 12:23:29","orig_title":"Половинки невозможного","year":"2014-12-07","translations":["Оригинальная дорожка"],"seasons_count":1,"episodes_count":4,"episodes":4,"update":"2017-01-10 08:49:45","iframe_src":"//83.svetacdn.in/PfJ50H0ZBPg3/tv-series/822"},{"id":821,"title":"Операция «Горгона»","kp_id":"521695","imdb_id":null,"world_art_id":null,"type":"serial","add":"2017-01-06 12:07:50","orig_title":"Операция «Горгона»","year":"2011-05-07","translations":["Оригинальная дорожка"],"seasons_count":1,"episodes_count":4,"episodes":4,"update":"2017-01-11 12:00:09","iframe_src":"//83.svetacdn.in/PfJ50H0ZBPg3/tv-series/821"},{"id":819,"title":"Домик у реки","kp_id":"841086","imdb_id":"tt5910190","world_art_id":null,"type":"serial","add":"2017-01-06 11:52:42","orig_title":"Domik u reki","year":"2014-11-04","translations":["Оригинальная дорожка"],"seasons_count":1,"episodes_count":4,"episodes":4,"update":"2017-01-12 11:17:17","iframe_src":"//83.svetacdn.in/PfJ50H0ZBPg3/tv-series/819"},{"id":817,"title":"Притворщики","kp_id":"1008512","imdb_id":null,"world_art_id":null,"type":"serial","add":"2017-01-06 11:30:51","orig_title":"Притворщики","year":"2016-12-30","translations":["Оригинальная дорожка"],"seasons_count":1,"episodes_count":2,"episodes":2,"update":"2017-01-10 08:52:52","iframe_src":"//83.svetacdn.in/PfJ50H0ZBPg3/tv-series/817"},{"id":814,"title":"Красавица и чудовище","kp_id":"662464","imdb_id":"tt2193041","world_art_id":null,"type":"serial","add":"2017-01-05 10:50:33","orig_title":"Beauty and the Beast","year":"2012-10-11","translations":["Профессиональный (многоголосый закадровый) (LostFilm)"],"seasons_count":4,"episodes_count":70,"episodes":13,"update":"2017-01-11 06:08:24","iframe_src":"//83.svetacdn.in/PfJ50H0ZBPg3/tv-series/814"}],"current_page":521,"first_page_url":"https://videocdn.tv/api/short?limit=100&api_token=RgFQdUIR2dRmwv8iYa5SnFNgnw3vpjKj&cache3521=3521&page=1","from":52001,"last_page":643,"last_page_url":"https://videocdn.tv/api/short?limit=100&api_token=RgFQdUIR2dRmwv8iYa5SnFNgnw3vpjKj&cache3521=3521&page=643","next_page_url":"https://videocdn.tv/api/short?limit=100&api_token=RgFQdUIR2dRmwv8iYa5SnFNgnw3vpjKj&cache3521=3521&page=522","path":"https://videocdn.tv/api/short","per_page":100,"prev_page_url":"https://videocdn.tv/api/short?limit=100&api_token=RgFQdUIR2dRmwv8iYa5SnFNgnw3vpjKj&cache3521=3521&page=520","to":52040,"total":64295}