{"result":true,"data":[{"id":54273,"title":"Штормовое предупреждение","kp_id":"308840","imdb_id":"tt0983922","world_art_id":null,"type":"movie","add":"2021-11-03 13:03:06","orig_title":"Storm Cell","year":"2008-03-19","translations":["Профессиональный (многоголосый закадровый)"],"quality":"dvdrip","translation":"Профессиональный (многоголосый закадровый)","update":"2021-11-03 13:51:39","iframe_src":"//83.svetacdn.in/PfJ50H0ZBPg3/movie/54273"},{"id":54272,"title":"Перед дождем","kp_id":"19049","imdb_id":"tt0110882","world_art_id":null,"type":"movie","add":"2021-11-03 06:03:40","orig_title":"Pred dozhdot","year":"1994-09-01","translations":["Авторский (одноголосый закадровый) (Иванов Михаил)","Профессиональный (двухголосый закадровый) (ТВЦ)"],"quality":"bd","translation":"Авторский (одноголосый закадровый) (Иванов Михаил)","update":"2021-11-03 15:41:05","iframe_src":"//83.svetacdn.in/PfJ50H0ZBPg3/movie/54272"},{"id":54271,"title":"Семейный бюджет","kp_id":"1301880","imdb_id":null,"world_art_id":null,"type":"movie","add":"2021-11-03 05:39:45","orig_title":"Семейный бюджет","year":"2021-10-28","translations":["Оригинальная дорожка"],"quality":"webdl","translation":"Оригинальная дорожка","update":"2021-11-03 10:29:07","iframe_src":"//83.svetacdn.in/PfJ50H0ZBPg3/movie/54271"},{"id":54270,"title":"Девушки с разворотов","kp_id":"195409","imdb_id":"tt0071295","world_art_id":null,"type":"movie","add":"2021-11-03 05:35:09","orig_title":"The Centerfold Girls","year":"1974-05-17","translations":["Любительский (одноголосый закадровый) (Sephiroth)","Original (English)"],"quality":"bd","translation":"Любительский (одноголосый закадровый) (Sephiroth)","update":"2021-11-03 10:41:33","iframe_src":"//83.svetacdn.in/PfJ50H0ZBPg3/movie/54270"},{"id":54266,"title":"День второй: Битва за Нью-Йорк","kp_id":"630627","imdb_id":"tt1887676","world_art_id":null,"type":"movie","add":"2021-11-02 14:37:50","orig_title":"Battle: New York, Day 2","year":"2011-11-21","translations":["Профессиональный (многоголосый закадровый)"],"quality":"dvdrip","translation":"Профессиональный (многоголосый закадровый)","update":"2021-11-03 08:12:53","iframe_src":"//83.svetacdn.in/PfJ50H0ZBPg3/movie/54266"},{"id":54265,"title":"Исчезнувший бандит","kp_id":"920192","imdb_id":"tt4827896","world_art_id":null,"type":"movie","add":"2021-11-02 12:59:24","orig_title":"Lost Outlaw","year":"2021-06-17","translations":["Любительский (многоголосый закадровый) (Синема УС)"],"quality":"webdl","translation":"Любительский (многоголосый закадровый) (Синема УС)","update":"2021-11-03 10:17:34","iframe_src":"//83.svetacdn.in/PfJ50H0ZBPg3/movie/54265"},{"id":54264,"title":"Расшифровано","kp_id":"1348555","imdb_id":"tt11763296","world_art_id":null,"type":"movie","add":"2021-11-02 12:57:48","orig_title":"Decrypted","year":"2021-11-01","translations":["Любительский (многоголосый закадровый) (@MUZOBOZ@)"],"quality":"webdl","translation":"Любительский (многоголосый закадровый) (@MUZOBOZ@)","update":"2021-11-03 10:13:27","iframe_src":"//83.svetacdn.in/PfJ50H0ZBPg3/movie/54264"},{"id":54263,"title":"Кёртис","kp_id":"1198064","imdb_id":"tt9080846","world_art_id":null,"type":"movie","add":"2021-11-02 12:56:02","orig_title":"Curtis","year":"2020-01-01","translations":["Любительский (многоголосый закадровый) (Синема УС)"],"quality":"webdl","translation":"Любительский (многоголосый закадровый) (Синема УС)","update":"2021-11-03 10:12:34","iframe_src":"//83.svetacdn.in/PfJ50H0ZBPg3/movie/54263"},{"id":54262,"title":"13 минут","kp_id":"1289900","imdb_id":"tt9274670","world_art_id":null,"type":"movie","add":"2021-11-02 12:54:10","orig_title":"13 Minutes","year":"2021-10-29","translations":["Любительский (многоголосый закадровый) (AlphaProject)","Профессиональный (двухголосый закадровый) (Pazl Voice)","Original (English)"],"quality":"webdl","translation":"Любительский (многоголосый закадровый) (AlphaProject)","update":"2021-11-03 10:39:04","iframe_src":"//83.svetacdn.in/PfJ50H0ZBPg3/movie/54262"},{"id":54207,"title":"Змееголовые","kp_id":"1018742","imdb_id":"tt4181232","world_art_id":null,"type":"movie","add":"2021-10-30 11:09:38","orig_title":"Snakehead","year":"2021-04-01","translations":["Original (English)","Любительский (многоголосый закадровый) (@MUZOBOZ@)","Профессиональный (двухголосый закадровый) (Pazl Voice)"],"quality":"webdl","translation":"Original (English)","update":"2021-11-03 10:27:12","iframe_src":"//83.svetacdn.in/PfJ50H0ZBPg3/movie/54207"},{"id":53867,"title":"Битва на Шельде","kp_id":"1313477","imdb_id":"tt10521092","world_art_id":null,"type":"movie","add":"2021-10-16 14:19:07","orig_title":"De slag om de Schelde","year":"2020-12-14","translations":["Любительский (многоголосый закадровый) (AlphaProject)","Профессиональный (двухголосый закадровый) (Pazl Voice)"],"quality":"webdl","translation":"Любительский (многоголосый закадровый) (AlphaProject)","update":"2021-11-03 10:31:47","iframe_src":"//83.svetacdn.in/PfJ50H0ZBPg3/movie/53867"},{"id":53594,"title":"Сигнал бедствия","kp_id":"1321513","imdb_id":"tt11271800","world_art_id":null,"type":"movie","add":"2021-10-03 12:01:48","orig_title":"Mayday","year":"2021-01-31","translations":["Любительский (многоголосый закадровый) (@MUZOBOZ@)","Полное дублирование (iTunes)","Original (English)"],"quality":"webdl","translation":"Любительский (многоголосый закадровый) (@MUZOBOZ@)","update":"2021-11-03 10:35:20","iframe_src":"//83.svetacdn.in/PfJ50H0ZBPg3/movie/53594"},{"id":53472,"title":"Так Джагадиш","kp_id":"1328691","imdb_id":"tt11385078","world_art_id":null,"type":"movie","add":"2021-09-28 08:47:18","orig_title":"Tuck Jagadish","year":"2021-09-10","translations":["Любительский (многоголосый закадровый) (Синема УС)","Любительский (многоголосый закадровый) (LovelyVox)"],"quality":"webdl","translation":"Любительский (многоголосый закадровый) (Синема УС)","update":"2021-11-03 10:36:52","iframe_src":"//83.svetacdn.in/PfJ50H0ZBPg3/movie/53472"},{"id":10572,"title":"Комедийный кроссовер","kp_id":"1397654","imdb_id":"tt12800428","world_art_id":null,"type":"serial","add":"2021-05-05 13:11:05","orig_title":"Game On! A Comedy Crossover Event","year":"2020-08-10","translations":["Полное дублирование (Netflix)"],"seasons_count":1,"episodes_count":4,"episodes":4,"update":"2021-05-05 20:11:20","iframe_src":"//83.svetacdn.in/PfJ50H0ZBPg3/tv-series/10572"},{"id":10567,"title":"Криминальный Амстердам","kp_id":"1113440","imdb_id":"tt7782164","world_art_id":null,"type":"serial","add":"2021-05-04 07:59:47","orig_title":"Der Amsterdam Krimi","year":"2018-01-01","translations":["Профессиональный (многоголосый закадровый) (SDI Media | Iyuno-SDI Group Russia)"],"seasons_count":1,"episodes_count":2,"episodes":2,"update":"2021-05-05 07:05:07","iframe_src":"//83.svetacdn.in/PfJ50H0ZBPg3/tv-series/10567"},{"id":10565,"title":"Звёздная пыль","kp_id":"1344032","imdb_id":"tt0400033","world_art_id":null,"type":"serial","add":"2021-05-04 04:23:00","orig_title":"Stjernestøv","year":"1995-01-01","translations":["Любительский (двухголосый закадровый) (Crazy Cat Studio)"],"seasons_count":1,"episodes_count":24,"episodes":24,"update":"2021-05-04 19:43:41","iframe_src":"//83.svetacdn.in/PfJ50H0ZBPg3/tv-series/10565"},{"id":10563,"title":"Гвен Джонс — ученица Мерлина","kp_id":"532957","imdb_id":"tt0316985","world_art_id":null,"type":"serial","add":"2021-05-03 14:41:48","orig_title":"Guinevere Jones","year":"2002-05-04","translations":["Профессиональный (многоголосый закадровый) (Selena International)"],"seasons_count":2,"episodes_count":26,"episodes":13,"update":"2021-05-04 20:45:35","iframe_src":"//83.svetacdn.in/PfJ50H0ZBPg3/tv-series/10563"},{"id":10560,"title":"Шарп","kp_id":"1397287","imdb_id":"tt12749392","world_art_id":null,"type":"serial","add":"2021-05-03 09:52:54","orig_title":"Sharpe","year":"1993-05-05","translations":["Профессиональный (многоголосый закадровый) (Другое кино)","Профессиональный (многоголосый закадровый) (Первый канал | ОРТ)","Профессиональный (многоголосый закадровый)","Профессиональный (многоголосый закадровый) (Домашний)"],"seasons_count":7,"episodes_count":16,"episodes":1,"update":"2021-05-05 13:35:49","iframe_src":"//83.svetacdn.in/PfJ50H0ZBPg3/tv-series/10560"},{"id":10559,"title":"Склонность","kp_id":"586591","imdb_id":"tt1839417","world_art_id":null,"type":"serial","add":"2021-05-03 08:49:17","orig_title":"Bent","year":"2012-03-21","translations":["Профессиональный (многоголосый закадровый) (ShowJet)"],"seasons_count":1,"episodes_count":6,"episodes":6,"update":"2021-05-04 20:07:52","iframe_src":"//83.svetacdn.in/PfJ50H0ZBPg3/tv-series/10559"},{"id":10557,"title":"Кримэри","kp_id":"4412167","imdb_id":"tt14301316","world_art_id":null,"type":"serial","add":"2021-05-02 18:34:54","orig_title":"Creamerie","year":"2021-04-19","translations":["Профессиональный (многоголосый закадровый) (BaibaKo)"],"seasons_count":1,"episodes_count":6,"episodes":6,"update":"2021-05-06 06:50:16","iframe_src":"//83.svetacdn.in/PfJ50H0ZBPg3/tv-series/10557"},{"id":10544,"title":"Души и кровь","kp_id":null,"imdb_id":"tt7555554","world_art_id":null,"type":"serial","add":"2021-04-30 16:00:25","orig_title":"ANIME E SANGUE","year":"2017-01-01","translations":["Любительский (многоголосый закадровый) (Ultradox)"],"seasons_count":1,"episodes_count":5,"episodes":5,"update":"2021-05-04 13:37:34","iframe_src":"//83.svetacdn.in/PfJ50H0ZBPg3/tv-series/10544"},{"id":10521,"title":"Звёздный охотник","kp_id":"433575","imdb_id":"tt5779830","world_art_id":null,"type":"serial","add":"2021-04-28 07:19:13","orig_title":"Starhunter ReduX","year":"2018-05-29","translations":["Профессиональный (многоголосый закадровый) (SDI Media | Iyuno-SDI Group Russia)"],"seasons_count":2,"episodes_count":44,"episodes":22,"update":"2021-05-04 21:08:06","iframe_src":"//83.svetacdn.in/PfJ50H0ZBPg3/tv-series/10521"},{"id":10383,"title":"В активном поиске","kp_id":"4416198","imdb_id":null,"world_art_id":null,"type":"serial","add":"2021-04-07 22:06:47","orig_title":"В активном поиске","year":"2021-04-08","translations":["Оригинальная дорожка"],"seasons_count":1,"episodes_count":10,"episodes":10,"update":"2021-05-06 09:10:05","iframe_src":"//83.svetacdn.in/PfJ50H0ZBPg3/tv-series/10383"},{"id":10342,"title":"Падший ангел","kp_id":"503299","imdb_id":"tt1446611","world_art_id":null,"type":"serial","add":"2021-03-31 19:33:37","orig_title":"Más sabe el diablo","year":"2009-05-25","translations":["Профессиональный (многоголосый закадровый) (Интра Комьюникейшнс | Intra Communications)"],"seasons_count":1,"episodes_count":181,"episodes":181,"update":"2021-05-06 19:03:08","iframe_src":"//83.svetacdn.in/PfJ50H0ZBPg3/tv-series/10342"},{"id":10263,"title":"Вивиана","kp_id":"523331","imdb_id":"tt0214380","world_art_id":null,"type":"serial","add":"2021-03-22 13:23:54","orig_title":"Viviana","year":"1978-11-13","translations":["Любительский (одноголосый закадровый)"],"seasons_count":1,"episodes_count":97,"episodes":97,"update":"2021-05-05 20:25:26","iframe_src":"//83.svetacdn.in/PfJ50H0ZBPg3/tv-series/10263"},{"id":10262,"title":"Бриллиантовая роза","kp_id":"693485","imdb_id":"tt2270670","world_art_id":null,"type":"serial","add":"2021-03-22 13:22:24","orig_title":"Rosa Diamante","year":"2012-07-10","translations":["Профессиональный (многоголосый закадровый)"],"seasons_count":1,"episodes_count":125,"episodes":125,"update":"2021-05-05 21:48:21","iframe_src":"//83.svetacdn.in/PfJ50H0ZBPg3/tv-series/10262"},{"id":7636,"title":"Тандем","kp_id":"1171893","imdb_id":"tt5595238","world_art_id":null,"type":"serial","add":"2020-05-26 14:52:51","orig_title":"Tandem","year":"2016-03-29","translations":["Любительский (многоголосый закадровый) (WestFilm)","Профессиональный (многоголосый закадровый) (BaibaKo)","Любительский (многоголосый закадровый) (Ultradox)"],"seasons_count":5,"episodes_count":60,"episodes":12,"update":"2021-05-06 16:36:21","iframe_src":"//83.svetacdn.in/PfJ50H0ZBPg3/tv-series/7636"},{"id":38462,"title":"Фильм со мной в главной роли","kp_id":"398292","imdb_id":"tt1139319","world_art_id":null,"type":"movie","add":"2020-03-24 17:12:27","orig_title":"A Film with Me in It","year":"2008-06-26","translations":["Профессиональный (двухголосый закадровый)","Original (English)","Любительский (одноголосый закадровый) (Палата №6 | knopf)"],"quality":"bd","translation":"Профессиональный (двухголосый закадровый)","update":"2021-11-03 10:46:27","iframe_src":"//83.svetacdn.in/PfJ50H0ZBPg3/movie/38462"},{"id":5785,"title":"Тайны Броукенвуда","kp_id":"841729","imdb_id":"tt3640276","world_art_id":null,"type":"serial","add":"2019-11-20 16:14:03","orig_title":"The Brokenwood Mysteries","year":"2014-09-28","translations":["Профессиональный (двухголосый закадровый)","Любительский (многоголосый закадровый) (RusFilm)","Любительский (одноголосый закадровый) (DexterTV)","Любительский (двухголосый закадровый) (GreenРай Studio)","Любительский (многоголосый закадровый) (ColdFilm)","Любительский (многоголосый закадровый) (Octopus)","Любительский (многоголосый закадровый) (Ultradox)","Профессиональный (многоголосый закадровый) (BaibaKo)"],"seasons_count":7,"episodes_count":30,"episodes":6,"update":"2021-05-06 20:26:49","iframe_src":"//83.svetacdn.in/PfJ50H0ZBPg3/tv-series/5785"},{"id":30408,"title":"Перекресток миров","kp_id":"4005","imdb_id":"tt0115985","world_art_id":null,"type":"movie","add":"2019-08-31 20:27:16","orig_title":"Crossworlds","year":"1996-10-01","translations":["Профессиональный (многоголосый закадровый)","Профессиональный (двухголосый закадровый) (Фортуна-Фильм)"],"quality":"dvdrip","translation":"Профессиональный (многоголосый закадровый)","update":"2021-11-03 08:25:59","iframe_src":"//83.svetacdn.in/PfJ50H0ZBPg3/movie/30408"},{"id":4455,"title":"Рапунцель: Новая история","kp_id":"970916","imdb_id":"tt4902964","world_art_id":null,"type":"serial","add":"2019-05-06 10:03:04","orig_title":"Tangled: The Series","year":"2017-03-24","translations":["Полное дублирование"],"seasons_count":3,"episodes_count":59,"episodes":17,"update":"2021-05-06 09:36:10","iframe_src":"//83.svetacdn.in/PfJ50H0ZBPg3/tv-series/4455"},{"id":3910,"title":"Причал","kp_id":"1156358","imdb_id":"tt8297022","world_art_id":null,"type":"serial","add":"2019-01-19 21:47:01","orig_title":"El embarcadero","year":"2019-01-18","translations":["Профессиональный (многоголосый закадровый)","Профессиональный (многоголосый закадровый) (Кириллица)","Любительский (многоголосый закадровый) (WestFilm)"],"seasons_count":2,"episodes_count":16,"episodes":8,"update":"2021-05-06 20:46:42","iframe_src":"//83.svetacdn.in/PfJ50H0ZBPg3/tv-series/3910"},{"id":3683,"title":"Таинственный сад","kp_id":"577325","imdb_id":"tt1841321","world_art_id":null,"type":"serial","add":"2018-12-13 08:07:16","orig_title":"Sikeurit Gadeun","year":"2010-11-14","translations":["Любительский (двухголосый закадровый) (GREEN TEA)","Профессиональный (многоголосый закадровый) (Мобильное телевидение)"],"seasons_count":1,"episodes_count":20,"episodes":20,"update":"2021-05-05 09:01:45","iframe_src":"//83.svetacdn.in/PfJ50H0ZBPg3/tv-series/3683"},{"id":17779,"title":"Убийца 2. Против всех","kp_id":"938461","imdb_id":"tt5052474","world_art_id":null,"type":"movie","add":"2018-07-18 12:56:39","orig_title":"Sicario: Day of the Soldado","year":"2018-06-27","translations":["Любительский (многоголосый закадровый) (@MUZOBOZ@)","Полное дублирование","Любительский (одноголосый закадровый) (BadBajo | Важенин Андрей)","Original (English)","Профессиональный (многоголосый закадровый) (HDrezka Studio)","Полное дублирование (CineLab SoundMix | СинеЛаб СаундМикс)","Авторский (одноголосый закадровый) (Есарев Дмитрий)","Любительский (одноголосый закадровый) (BadBajo | Важенин Андрей)","Original (English)","Авторский (одноголосый закадровый) (Немахов Юрий)"],"quality":"webdl","translation":"Любительский (многоголосый закадровый) (@MUZOBOZ@)","update":"2021-11-03 14:48:41","iframe_src":"//83.svetacdn.in/PfJ50H0ZBPg3/movie/17779"},{"id":1524,"title":"Охотники за древностями","kp_id":"229039","imdb_id":"tt0207919","world_art_id":null,"type":"serial","add":"2017-09-06 07:49:20","orig_title":"Relic Hunter","year":"1999-09-27","translations":["Профессиональный (многоголосый закадровый) (СТС)"],"seasons_count":3,"episodes_count":66,"episodes":22,"update":"2021-05-06 07:57:28","iframe_src":"//83.svetacdn.in/PfJ50H0ZBPg3/tv-series/1524"},{"id":8852,"title":"Вой","kp_id":"3057","imdb_id":"tt0082533","world_art_id":null,"type":"movie","add":"2017-01-12 06:57:13","orig_title":"The Howling","year":"1981-01-21","translations":["Авторский (одноголосый закадровый) (Михалёв Алексей)","Original (English)","Профессиональный (многоголосый закадровый) (CP Digital)","Профессиональный (двухголосый закадровый) (НТВ)","Авторский (одноголосый закадровый) (Сербин Юрий)"],"quality":"bd","translation":"Авторский (одноголосый закадровый) (Михалёв Алексей)","update":"2021-11-03 10:44:14","iframe_src":"//83.svetacdn.in/PfJ50H0ZBPg3/movie/8852"},{"id":7258,"title":"Целитель Адамс","kp_id":"6123","imdb_id":"tt0129290","world_art_id":null,"type":"movie","add":"2016-11-09 16:12:29","orig_title":"Patch Adams","year":"1998-10-21","translations":["Профессиональный (двухголосый закадровый)","Профессиональный (многоголосый закадровый) (Первый канал | ОРТ)","Профессиональный (многоголосый закадровый) (Premier)"],"quality":"hddvd","translation":"Профессиональный (двухголосый закадровый)","update":"2021-11-03 08:21:58","iframe_src":"//83.svetacdn.in/PfJ50H0ZBPg3/movie/7258"},{"id":4294,"title":"2 ствола","kp_id":"464290","imdb_id":"tt1272878","world_art_id":null,"type":"movie","add":"2016-08-04 13:20:07","orig_title":"2 Guns","year":"2013-07-30","translations":["Полное дублирование","Авторский (одноголосый закадровый) (Гаврилов Андрей)","Авторский (одноголосый закадровый) (Сербин Юрий)","Авторский (одноголосый закадровый) (Володарский Леонид)","Профессиональный (многоголосый закадровый) (Рыжий пёс)","Авторский (одноголосый закадровый) (Яроцкий Михаил | Kyberpunk)","Полное дублирование","Original (English)"],"quality":"bd","translation":"Полное дублирование","update":"2021-11-03 08:00:49","iframe_src":"//83.svetacdn.in/PfJ50H0ZBPg3/movie/4294"},{"id":230,"title":"По законам военного времени","kp_id":"841046","imdb_id":"tt4793568","world_art_id":null,"type":"serial","add":"2016-06-26 05:51:11","orig_title":"Po zakonam voennogo vremeni","year":"2016-05-09","translations":["Оригинальная дорожка"],"seasons_count":4,"episodes_count":36,"episodes":8,"update":"2021-05-04 12:28:58","iframe_src":"//83.svetacdn.in/PfJ50H0ZBPg3/tv-series/230"},{"id":1727,"title":"Скалолаз","kp_id":"8164","imdb_id":"tt0106582","world_art_id":null,"type":"movie","add":"2016-04-29 12:14:57","orig_title":"Cliffhanger","year":"1993-05-28","translations":["Профессиональный (двухголосый закадровый) (Twister)","Авторский (одноголосый закадровый) (Гаврилов Андрей)","Авторский (одноголосый закадровый) (Живов Юрий)","Авторский (одноголосый закадровый) (Горчаков Василий)","Авторский (одноголосый закадровый) (Гаврилов Андрей)","Авторский (одноголосый закадровый) (Гаевский Евгений)","Original (English)","Авторский (одноголосый закадровый) (Володарский Леонид)","Профессиональный (многоголосый закадровый) (Первый канал | ОРТ)","Профессиональный (двухголосый закадровый) (СТС)","Профессиональный (многоголосый закадровый) (РТР | Россия)"],"quality":"bd","translation":"Профессиональный (двухголосый закадровый) (Twister)","update":"2021-11-03 08:20:08","iframe_src":"//83.svetacdn.in/PfJ50H0ZBPg3/movie/1727"}],"current_page":131,"first_page_url":"https://videocdn.tv/api/short?limit=100&api_token=RgFQdUIR2dRmwv8iYa5SnFNgnw3vpjKj&cache3131=3131&page=1","from":13001,"last_page":693,"last_page_url":"https://videocdn.tv/api/short?limit=100&api_token=RgFQdUIR2dRmwv8iYa5SnFNgnw3vpjKj&cache3131=3131&page=693","next_page_url":"https://videocdn.tv/api/short?limit=100&api_token=RgFQdUIR2dRmwv8iYa5SnFNgnw3vpjKj&cache3131=3131&page=132","path":"https://videocdn.tv/api/short","per_page":100,"prev_page_url":"https://videocdn.tv/api/short?limit=100&api_token=RgFQdUIR2dRmwv8iYa5SnFNgnw3vpjKj&cache3131=3131&page=130","to":13040,"total":69236}