{"result":true,"data":[{"id":43780,"title":"Про мамонтенка","kp_id":"453189","imdb_id":"tt6295354","world_art_id":null,"type":"movie","add":"2020-09-22 20:59:37","orig_title":"Pro Mamontyonka","year":"1983-01-01","translations":["Оригинальная дорожка"],"quality":"dvdrip","translation":"Оригинальная дорожка","update":"2020-09-23 07:24:32","iframe_src":"//8332.svetacdn.in/71tsRs29n5tZ/movie/43780"},{"id":43779,"title":"Про щенка","kp_id":"260143","imdb_id":"tt6100150","world_art_id":null,"type":"movie","add":"2020-09-22 20:55:30","orig_title":"Pro Shchenka","year":"1979-01-01","translations":["Оригинальная дорожка"],"quality":"dvdrip","translation":"Оригинальная дорожка","update":"2020-09-23 07:23:45","iframe_src":"//8332.svetacdn.in/71tsRs29n5tZ/movie/43779"},{"id":43778,"title":"Про зайку Ой и зайку Ай","kp_id":"565235","imdb_id":null,"world_art_id":null,"type":"movie","add":"2020-09-22 20:52:43","orig_title":"Про зайку Ой и зайку Ай","year":"1985-04-25","translations":["Оригинальная дорожка"],"quality":"dvdrip","translation":"Оригинальная дорожка","update":"2020-09-23 07:22:38","iframe_src":"//8332.svetacdn.in/71tsRs29n5tZ/movie/43778"},{"id":43777,"title":"Про Ксюшу и Компьюшу","kp_id":"660879","imdb_id":"tt4865066","world_art_id":null,"type":"movie","add":"2020-09-22 20:49:01","orig_title":"Pro Ksyushu I Kompyushu","year":"1989-01-01","translations":["Оригинальная дорожка"],"quality":"dvdrip","translation":"Оригинальная дорожка","update":"2020-09-23 07:21:12","iframe_src":"//8332.svetacdn.in/71tsRs29n5tZ/movie/43777"},{"id":43766,"title":"Убийство по заказу","kp_id":"102833","imdb_id":"tt0107117","world_art_id":null,"type":"movie","add":"2020-09-22 16:23:11","orig_title":"The Hit List","year":"1993-01-17","translations":["Профессиональный (многоголосый закадровый) (Хлопушка)"],"quality":"dvdrip","translation":"Профессиональный (многоголосый закадровый) (Хлопушка)","update":"2020-09-23 07:47:36","iframe_src":"//8332.svetacdn.in/71tsRs29n5tZ/movie/43766"},{"id":43729,"title":"Алёшины сказки","kp_id":"777771","imdb_id":"tt7665696","world_art_id":null,"type":"movie","add":"2020-09-21 18:36:53","orig_title":"Alyoshiny skazki","year":"1964-01-01","translations":["Оригинальная дорожка"],"quality":"dvdrip","translation":"Оригинальная дорожка","update":"2020-09-23 07:16:42","iframe_src":"//8332.svetacdn.in/71tsRs29n5tZ/movie/43729"},{"id":43728,"title":"Музыка революции","kp_id":"1007928","imdb_id":"tt10799432","world_art_id":null,"type":"movie","add":"2020-09-21 18:33:28","orig_title":"Muzyka revolyutsii","year":"1987-01-01","translations":["Оригинальная дорожка"],"quality":"dvdrip","translation":"Оригинальная дорожка","update":"2020-09-23 07:16:00","iframe_src":"//8332.svetacdn.in/71tsRs29n5tZ/movie/43728"},{"id":43726,"title":"Пес и кот","kp_id":"1045674","imdb_id":null,"world_art_id":null,"type":"movie","add":"2020-09-21 18:01:03","orig_title":"Пес и кот","year":"1975-01-01","translations":["Оригинальная дорожка"],"quality":"dvdrip","translation":"Оригинальная дорожка","update":"2020-09-23 07:11:03","iframe_src":"//8332.svetacdn.in/71tsRs29n5tZ/movie/43726"},{"id":43725,"title":"С кого брать пример?","kp_id":"668379","imdb_id":"tt6838518","world_art_id":null,"type":"movie","add":"2020-09-21 17:54:57","orig_title":"S kogo brat primer?","year":"1979-01-01","translations":["Оригинальная дорожка"],"quality":"dvdrip","translation":"Оригинальная дорожка","update":"2020-09-23 07:09:15","iframe_src":"//8332.svetacdn.in/71tsRs29n5tZ/movie/43725"},{"id":43724,"title":"Сказки для больших и маленьких","kp_id":"623074","imdb_id":"tt6052484","world_art_id":null,"type":"movie","add":"2020-09-21 17:51:51","orig_title":"Skazki dlya bolshikh i malenkikh","year":"1967-01-01","translations":["Оригинальная дорожка"],"quality":"dvdrip","translation":"Оригинальная дорожка","update":"2020-09-23 07:08:28","iframe_src":"//8332.svetacdn.in/71tsRs29n5tZ/movie/43724"},{"id":43723,"title":"Случилось это зимой","kp_id":"461791","imdb_id":"tt2572000","world_art_id":null,"type":"movie","add":"2020-09-21 17:49:26","orig_title":"Sluchilos eto zimoy","year":"1968-01-19","translations":["Оригинальная дорожка"],"quality":"dvdrip","translation":"Оригинальная дорожка","update":"2020-09-23 07:07:32","iframe_src":"//8332.svetacdn.in/71tsRs29n5tZ/movie/43723"},{"id":43722,"title":"Воскресенье","kp_id":"545584","imdb_id":"tt1075379","world_art_id":null,"type":"movie","add":"2020-09-21 17:47:25","orig_title":"Pühapäev","year":"1977-01-01","translations":["Оригинальная дорожка"],"quality":"tv","translation":"Оригинальная дорожка","update":"2020-09-23 07:06:25","iframe_src":"//8332.svetacdn.in/71tsRs29n5tZ/movie/43722"},{"id":43721,"title":"Страшилище","kp_id":"1046618","imdb_id":"tt5900500","world_art_id":null,"type":"movie","add":"2020-09-21 17:43:57","orig_title":"Baubas","year":"1987-01-01","translations":["Оригинальная дорожка"],"quality":"dvdrip","translation":"Оригинальная дорожка","update":"2020-09-23 07:05:43","iframe_src":"//8332.svetacdn.in/71tsRs29n5tZ/movie/43721"},{"id":43720,"title":"Сверчок","kp_id":"565234","imdb_id":null,"world_art_id":null,"type":"movie","add":"2020-09-21 17:41:21","orig_title":"Сверчок","year":"1982-01-01","translations":["Оригинальная дорожка"],"quality":"dvdrip","translation":"Оригинальная дорожка","update":"2020-09-23 07:04:41","iframe_src":"//8332.svetacdn.in/71tsRs29n5tZ/movie/43720"},{"id":43719,"title":"Сын камня и великан","kp_id":"489296","imdb_id":"tt6372440","world_art_id":null,"type":"movie","add":"2020-09-21 17:26:00","orig_title":"Syn kamnya i velikan","year":"1986-01-01","translations":["Оригинальная дорожка"],"quality":"dvdrip","translation":"Оригинальная дорожка","update":"2020-09-23 07:02:50","iframe_src":"//8332.svetacdn.in/71tsRs29n5tZ/movie/43719"},{"id":43717,"title":"Твой любящий друг","kp_id":"672119","imdb_id":"tt9274962","world_art_id":null,"type":"movie","add":"2020-09-21 17:17:40","orig_title":"Tvoy lyubyashchiy drug","year":"1984-01-01","translations":["Оригинальная дорожка"],"quality":"dvdrip","translation":"Оригинальная дорожка","update":"2020-09-23 07:00:50","iframe_src":"//8332.svetacdn.in/71tsRs29n5tZ/movie/43717"},{"id":43716,"title":"Бедокуры","kp_id":"632475","imdb_id":"tt5871742","world_art_id":null,"type":"movie","add":"2020-09-21 17:14:14","orig_title":"Bedokury","year":"1982-01-01","translations":["Оригинальная дорожка"],"quality":"dvb","translation":"Оригинальная дорожка","update":"2020-09-23 07:00:08","iframe_src":"//8332.svetacdn.in/71tsRs29n5tZ/movie/43716"},{"id":43715,"title":"Великан-эгоист","kp_id":"801314","imdb_id":"tt5871766","world_art_id":null,"type":"movie","add":"2020-09-21 17:11:35","orig_title":"Velikan-egoist","year":"1982-01-01","translations":["Оригинальная дорожка"],"quality":"dvdrip","translation":"Оригинальная дорожка","update":"2020-09-23 06:59:26","iframe_src":"//8332.svetacdn.in/71tsRs29n5tZ/movie/43715"},{"id":43714,"title":"Волшебный клад","kp_id":"257885","imdb_id":"tt4162812","world_art_id":null,"type":"movie","add":"2020-09-21 17:09:42","orig_title":"Volshebnyy klad","year":"1950-01-19","translations":["Оригинальная дорожка"],"quality":"dvdrip","translation":"Оригинальная дорожка","update":"2020-09-23 06:58:47","iframe_src":"//8332.svetacdn.in/71tsRs29n5tZ/movie/43714"},{"id":897,"title":"Теория невероятности","kp_id":"929062","imdb_id":null,"world_art_id":null,"type":"serial","add":"2017-01-18 05:56:38","orig_title":"Теория невероятности","year":"2015-09-05","translations":["Оригинальная дорожка"],"seasons_count":1,"episodes_count":2,"episodes":2,"update":"2017-01-18 12:06:07","iframe_src":"//8332.svetacdn.in/71tsRs29n5tZ/tv-series/897"},{"id":896,"title":"Солдаты 2","kp_id":"500560","imdb_id":"tt4083484","world_art_id":null,"type":"serial","add":"2017-01-18 05:50:43","orig_title":"Soldaty 2","year":"2004-01-01","translations":["Оригинальная дорожка"],"seasons_count":1,"episodes_count":16,"episodes":16,"update":"2017-01-18 08:26:21","iframe_src":"//8332.svetacdn.in/71tsRs29n5tZ/tv-series/896"},{"id":894,"title":"Юркины рассветы","kp_id":"451164","imdb_id":"tt4840330","world_art_id":null,"type":"serial","add":"2017-01-17 12:05:33","orig_title":"Yurkiny rassvety","year":"1975-05-15","translations":["Оригинальная дорожка"],"seasons_count":1,"episodes_count":4,"episodes":4,"update":"2017-01-17 14:24:03","iframe_src":"//8332.svetacdn.in/71tsRs29n5tZ/tv-series/894"},{"id":892,"title":"Кремень","kp_id":"592155","imdb_id":"tt3419982","world_art_id":null,"type":"serial","add":"2017-01-17 07:26:50","orig_title":"Kremen","year":"2012-04-25","translations":["Оригинальная дорожка"],"seasons_count":1,"episodes_count":4,"episodes":4,"update":"2017-01-17 14:19:06","iframe_src":"//8332.svetacdn.in/71tsRs29n5tZ/tv-series/892"},{"id":890,"title":"Мама-детектив","kp_id":"701664","imdb_id":"tt4727960","world_art_id":null,"type":"serial","add":"2017-01-17 06:37:44","orig_title":"Mama-detektiv","year":"2015-06-03","translations":["Оригинальная дорожка"],"seasons_count":1,"episodes_count":12,"episodes":12,"update":"2017-01-17 10:55:31","iframe_src":"//8332.svetacdn.in/71tsRs29n5tZ/tv-series/890"},{"id":889,"title":"В двух километрах от Нового года","kp_id":"425964","imdb_id":"tt3449464","world_art_id":null,"type":"serial","add":"2017-01-17 06:35:04","orig_title":"V dvukh kilometrakh ot Novogo goda","year":"2004-01-01","translations":["Оригинальная дорожка"],"seasons_count":1,"episodes_count":2,"episodes":2,"update":"2017-01-17 09:52:55","iframe_src":"//8332.svetacdn.in/71tsRs29n5tZ/tv-series/889"},{"id":887,"title":"Груз","kp_id":"592056","imdb_id":"tt4763314","world_art_id":null,"type":"serial","add":"2017-01-16 13:05:58","orig_title":"Gruz","year":"2012-01-01","translations":["Оригинальная дорожка"],"seasons_count":1,"episodes_count":24,"episodes":24,"update":"2017-01-17 06:30:13","iframe_src":"//8332.svetacdn.in/71tsRs29n5tZ/tv-series/887"},{"id":886,"title":"Бой после победы","kp_id":"46159","imdb_id":"tt0068312","world_art_id":null,"type":"serial","add":"2017-01-16 12:59:13","orig_title":"Boy posle pobedy","year":"1972-08-28","translations":["Оригинальная дорожка"],"seasons_count":1,"episodes_count":2,"episodes":2,"update":"2017-01-17 06:23:21","iframe_src":"//8332.svetacdn.in/71tsRs29n5tZ/tv-series/886"},{"id":885,"title":"Собачья работа","kp_id":"710038","imdb_id":"tt4522034","world_art_id":null,"type":"serial","add":"2017-01-16 12:48:49","orig_title":"Sobachya rabota","year":"2012-10-08","translations":["Оригинальная дорожка"],"seasons_count":1,"episodes_count":8,"episodes":8,"update":"2017-01-16 15:45:13","iframe_src":"//8332.svetacdn.in/71tsRs29n5tZ/tv-series/885"},{"id":884,"title":"Чужое лицо","kp_id":"694589","imdb_id":null,"world_art_id":null,"type":"serial","add":"2017-01-16 07:49:25","orig_title":"Чужое лицо","year":"2012-02-22","translations":["Оригинальная дорожка"],"seasons_count":1,"episodes_count":4,"episodes":4,"update":"2017-01-16 10:58:00","iframe_src":"//8332.svetacdn.in/71tsRs29n5tZ/tv-series/884"},{"id":883,"title":"Человеческий фактор","kp_id":"830649","imdb_id":"tt5222678","world_art_id":null,"type":"serial","add":"2017-01-16 06:30:45","orig_title":"Chelovecheskiy faktor","year":"2014-02-15","translations":["Оригинальная дорожка"],"seasons_count":1,"episodes_count":2,"episodes":2,"update":"2017-01-16 11:41:25","iframe_src":"//8332.svetacdn.in/71tsRs29n5tZ/tv-series/883"},{"id":882,"title":"Холодное блюдо","kp_id":"932123","imdb_id":null,"world_art_id":null,"type":"serial","add":"2017-01-16 06:25:20","orig_title":"Холодное блюдо","year":"2015-09-19","translations":["Оригинальная дорожка"],"seasons_count":1,"episodes_count":2,"episodes":2,"update":"2017-01-16 09:07:46","iframe_src":"//8332.svetacdn.in/71tsRs29n5tZ/tv-series/882"},{"id":881,"title":"Любовь с испытательным сроком","kp_id":"807415","imdb_id":"tt3501608","world_art_id":null,"type":"serial","add":"2017-01-16 06:16:59","orig_title":"Lyubov s ispytatelnym srokom","year":"2013-11-15","translations":["Оригинальная дорожка"],"seasons_count":1,"episodes_count":2,"episodes":2,"update":"2017-01-16 11:44:17","iframe_src":"//8332.svetacdn.in/71tsRs29n5tZ/tv-series/881"},{"id":879,"title":"Принц Сибири","kp_id":"838953","imdb_id":"tt4760822","world_art_id":null,"type":"serial","add":"2017-01-16 05:41:09","orig_title":"Prints Sibiri","year":"2015-05-11","translations":["Оригинальная дорожка"],"seasons_count":1,"episodes_count":20,"episodes":20,"update":"2017-01-16 09:30:30","iframe_src":"//8332.svetacdn.in/71tsRs29n5tZ/tv-series/879"},{"id":877,"title":"Чужая милая","kp_id":"891385","imdb_id":"tt4682514","world_art_id":null,"type":"serial","add":"2017-01-15 09:03:53","orig_title":"Chuzhaya milaya","year":"2015-09-16","translations":["Оригинальная дорожка"],"seasons_count":1,"episodes_count":4,"episodes":4,"update":"2017-01-16 06:12:18","iframe_src":"//8332.svetacdn.in/71tsRs29n5tZ/tv-series/877"},{"id":876,"title":"Сармат","kp_id":"84831","imdb_id":"tt0429431","world_art_id":null,"type":"serial","add":"2017-01-13 11:36:42","orig_title":"Sarmat","year":"2004-10-11","translations":["Оригинальная дорожка"],"seasons_count":1,"episodes_count":12,"episodes":12,"update":"2017-01-13 17:03:51","iframe_src":"//8332.svetacdn.in/71tsRs29n5tZ/tv-series/876"},{"id":875,"title":"Принцесса цирка","kp_id":"81481","imdb_id":"tt0175070","world_art_id":null,"type":"serial","add":"2017-01-13 11:31:15","orig_title":"Printsessa tsirka","year":"1982-12-25","translations":["Оригинальная дорожка"],"seasons_count":1,"episodes_count":1,"episodes":1,"update":"2017-01-13 15:09:44","iframe_src":"//8332.svetacdn.in/71tsRs29n5tZ/tv-series/875"},{"id":874,"title":"Семейный альбом","kp_id":"927823","imdb_id":"tt4980324","world_art_id":null,"type":"serial","add":"2017-01-13 09:26:56","orig_title":"Semeynyy albom","year":"2016-02-15","translations":["Оригинальная дорожка"],"seasons_count":1,"episodes_count":14,"episodes":14,"update":"2017-01-13 18:15:46","iframe_src":"//8332.svetacdn.in/71tsRs29n5tZ/tv-series/874"},{"id":833,"title":"Гадание при свечах","kp_id":"487349","imdb_id":"tt3723384","world_art_id":null,"type":"serial","add":"2017-01-08 10:17:33","orig_title":"Gadaniye pri svechakh","year":"2011-01-31","translations":["Оригинальная дорожка"],"seasons_count":1,"episodes_count":16,"episodes":16,"update":"2017-01-17 10:36:44","iframe_src":"//8332.svetacdn.in/71tsRs29n5tZ/tv-series/833"},{"id":1222,"title":"Комната","kp_id":"798068","imdb_id":"tt3170832","world_art_id":null,"type":"movie","add":"2016-04-18 19:46:09","orig_title":"Room","year":"2015-09-04","translations":["Любительский (одноголосый закадровый)","Original (English)","Профессиональный (многоголосый закадровый) (HDrezka Studio)","Полное дублирование","Профессиональный (многоголосый закадровый) (FocusX)"],"quality":"bd","translation":"Любительский (одноголосый закадровый)","update":"2020-09-23 07:48:52","iframe_src":"//8332.svetacdn.in/71tsRs29n5tZ/movie/1222"},{"id":40,"title":"Шерлок","kp_id":"502838","imdb_id":"tt1475582","world_art_id":null,"type":"serial","add":"2016-03-31 12:50:11","orig_title":"Sherlock","year":"2010-09-18","translations":["Полное дублирование"],"seasons_count":4,"episodes_count":13,"episodes":4,"update":"2017-01-16 08:17:36","iframe_src":"//8332.svetacdn.in/71tsRs29n5tZ/tv-series/40"}],"current_page":512,"first_page_url":"https://videocdn.tv/api/short?limit=100&api_token=EnbO9h8pv1VyjbCJhg0WM9nG259n7mtz&cache3512=3512&page=1","from":51101,"last_page":635,"last_page_url":"https://videocdn.tv/api/short?limit=100&api_token=EnbO9h8pv1VyjbCJhg0WM9nG259n7mtz&cache3512=3512&page=635","next_page_url":"https://videocdn.tv/api/short?limit=100&api_token=EnbO9h8pv1VyjbCJhg0WM9nG259n7mtz&cache3512=3512&page=513","path":"https://videocdn.tv/api/short","per_page":100,"prev_page_url":"https://videocdn.tv/api/short?limit=100&api_token=EnbO9h8pv1VyjbCJhg0WM9nG259n7mtz&cache3512=3512&page=511","to":51140,"total":63490}