{"result":true,"data":[{"id":50855,"title":"Американский Сасквоч","kp_id":"4308026","imdb_id":"tt13758802","world_art_id":null,"type":"movie","add":"2021-06-02 07:15:59","orig_title":"American Sasquatch","year":"2020-08-11","translations":["Любительский (многоголосый закадровый) (Синема УС)"],"quality":"webdl","translation":"Любительский (многоголосый закадровый) (Синема УС)","update":"2021-06-02 10:37:05","iframe_src":"//8422.svetacdn.in/IAF0wWTdNYZm/movie/50855"},{"id":50854,"title":"Буллинг","kp_id":"1110438","imdb_id":"tt7613194","world_art_id":null,"type":"movie","add":"2021-06-02 07:14:28","orig_title":"Rock Sugar","year":"2021-06-01","translations":["Любительский (многоголосый закадровый) (Синема УС)"],"quality":"webdl","translation":"Любительский (многоголосый закадровый) (Синема УС)","update":"2021-06-02 10:36:51","iframe_src":"//8422.svetacdn.in/IAF0wWTdNYZm/movie/50854"},{"id":50848,"title":"Макс Бишоп","kp_id":"1217592","imdb_id":"tt9379530","world_art_id":null,"type":"movie","add":"2021-06-02 07:02:57","orig_title":"Max Bishop","year":"2021-06-01","translations":["Любительский (многоголосый закадровый) (Синема УС)"],"quality":"webdl","translation":"Любительский (многоголосый закадровый) (Синема УС)","update":"2021-06-02 10:34:18","iframe_src":"//8422.svetacdn.in/IAF0wWTdNYZm/movie/50848"},{"id":50824,"title":"Руби в раю","kp_id":"22107","imdb_id":"tt0108000","world_art_id":null,"type":"movie","add":"2021-06-01 07:22:09","orig_title":"Ruby in Paradise","year":"1993-10-08","translations":["Профессиональный (двухголосый закадровый) (Екатеринбург Арт)","Original (English)"],"quality":"webdl","translation":"Профессиональный (двухголосый закадровый) (Екатеринбург Арт)","update":"2021-06-02 06:32:34","iframe_src":"//8422.svetacdn.in/IAF0wWTdNYZm/movie/50824"},{"id":50819,"title":"Душитель замка Блэкмор","kp_id":"243744","imdb_id":"tt0057692","world_art_id":null,"type":"movie","add":"2021-06-01 07:08:34","orig_title":"Der Würger von Schloß Blackmoor","year":"1963-06-21","translations":["Профессиональный (многоголосый закадровый) (5-й канал СПб)"],"quality":"bd","translation":"Профессиональный (многоголосый закадровый) (5-й канал СПб)","update":"2021-06-02 06:29:37","iframe_src":"//8422.svetacdn.in/IAF0wWTdNYZm/movie/50819"},{"id":50738,"title":"Предатель по-американски","kp_id":"1208246","imdb_id":"tt7050946","world_art_id":null,"type":"movie","add":"2021-05-30 08:24:28","orig_title":"American Traitor: The Trial of Axis Sally","year":"2021-05-28","translations":["Любительский (многоголосый закадровый) (@MUZOBOZ@)","Original (English)","Профессиональный (двухголосый закадровый) (Pazl Voice)"],"quality":"webdl","translation":"Любительский (многоголосый закадровый) (@MUZOBOZ@)","update":"2021-06-02 10:22:54","iframe_src":"//8422.svetacdn.in/IAF0wWTdNYZm/movie/50738"},{"id":49601,"title":"Адский дождь","kp_id":"9522","imdb_id":"tt0072869","world_art_id":null,"type":"movie","add":"2021-04-14 05:12:16","orig_title":"The Devil's Rain","year":"1975-07-01","translations":["Авторский (одноголосый закадровый) (Визгунов Сергей)","Авторский (одноголосый закадровый) (Алексеев Антон)","Original (English)","Любительский (одноголосый закадровый) (Севастьянов Никита | seva1988)"],"quality":"bd","translation":"Авторский (одноголосый закадровый) (Визгунов Сергей)","update":"2021-06-02 06:54:12","iframe_src":"//8422.svetacdn.in/IAF0wWTdNYZm/movie/49601"},{"id":49514,"title":"Норвегия 3D: Дикая природа","kp_id":"789398","imdb_id":null,"world_art_id":null,"type":"movie","add":"2021-04-11 17:02:51","orig_title":"Norway 3D","year":"2013-01-01","translations":["Полное дублирование","Original (English)"],"quality":"bd","translation":"Полное дублирование","update":"2021-06-02 06:22:51","iframe_src":"//8422.svetacdn.in/IAF0wWTdNYZm/movie/49514"},{"id":49275,"title":"Пустой город","kp_id":"568253","imdb_id":"tt1398949","world_art_id":null,"type":"movie","add":"2021-04-02 08:41:59","orig_title":"Blank City","year":"2010-02-15","translations":["Авторский (одноголосый закадровый) (Сербин Юрий)","Original (English)"],"quality":"bd","translation":"Авторский (одноголосый закадровый) (Сербин Юрий)","update":"2021-06-02 06:27:34","iframe_src":"//8422.svetacdn.in/IAF0wWTdNYZm/movie/49275"},{"id":6107,"title":"Филантроп","kp_id":"412384","imdb_id":"tt1217208","world_art_id":null,"type":"serial","add":"2019-12-23 07:22:52","orig_title":"The Philanthropist","year":"2009-01-27","translations":["Любительский (одноголосый закадровый)"],"seasons_count":1,"episodes_count":8,"episodes":8,"update":"2019-12-23 11:06:31","iframe_src":"//8422.svetacdn.in/IAF0wWTdNYZm/tv-series/6107"},{"id":6106,"title":"Последний бронепоезд","kp_id":"194034","imdb_id":"tt0479620","world_art_id":null,"type":"serial","add":"2019-12-23 06:36:14","orig_title":"Posledniy bronepoezd","year":"2006-11-26","translations":["Оригинальная дорожка"],"seasons_count":1,"episodes_count":4,"episodes":4,"update":"2019-12-23 09:39:47","iframe_src":"//8422.svetacdn.in/IAF0wWTdNYZm/tv-series/6106"},{"id":6104,"title":"Нежные листья, ядовитые корни","kp_id":"1283443","imdb_id":null,"world_art_id":null,"type":"serial","add":"2019-12-22 18:23:04","orig_title":"Нежные листья, ядовитые корни","year":"2019-12-22","translations":["Оригинальная дорожка"],"seasons_count":1,"episodes_count":4,"episodes":4,"update":"2019-12-23 10:54:29","iframe_src":"//8422.svetacdn.in/IAF0wWTdNYZm/tv-series/6104"},{"id":6099,"title":"Кривое зеркало любви","kp_id":"1330099","imdb_id":null,"world_art_id":null,"type":"serial","add":"2019-12-22 12:29:02","orig_title":"Кривое зеркало любви","year":"2019-12-21","translations":["Оригинальная дорожка"],"seasons_count":1,"episodes_count":2,"episodes":2,"update":"2019-12-22 17:00:54","iframe_src":"//8422.svetacdn.in/IAF0wWTdNYZm/tv-series/6099"},{"id":6095,"title":"Комната старинных ключей","kp_id":"1283381","imdb_id":null,"world_art_id":null,"type":"serial","add":"2019-12-21 17:07:10","orig_title":"Комната старинных ключей","year":"2019-01-01","translations":["Оригинальная дорожка"],"seasons_count":1,"episodes_count":4,"episodes":4,"update":"2019-12-22 15:16:24","iframe_src":"//8422.svetacdn.in/IAF0wWTdNYZm/tv-series/6095"},{"id":6094,"title":"Чудесное путешествие Нильса с дикими гусями","kp_id":"888178","imdb_id":"tt2125222","world_art_id":null,"type":"serial","add":"2019-12-21 07:00:24","orig_title":"Nils Holgerssons wunderbare Reise","year":"2011-12-25","translations":["Профессиональный (двухголосый закадровый) (Игмар)","Профессиональный (многоголосый закадровый) (Игмар)"],"seasons_count":1,"episodes_count":4,"episodes":4,"update":"2019-12-21 17:33:33","iframe_src":"//8422.svetacdn.in/IAF0wWTdNYZm/tv-series/6094"},{"id":6090,"title":"Галактическая война","kp_id":"103653","imdb_id":"tt0387736","world_art_id":null,"type":"serial","add":"2019-12-20 12:42:00","orig_title":"Farscape: The Peacekeeper Wars","year":"2004-10-17","translations":["Профессиональный (двухголосый закадровый)"],"seasons_count":1,"episodes_count":2,"episodes":2,"update":"2019-12-20 17:10:10","iframe_src":"//8422.svetacdn.in/IAF0wWTdNYZm/tv-series/6090"},{"id":34306,"title":"Звездный крейсер Галактика: План","kp_id":"424052","imdb_id":"tt1286130","world_art_id":null,"type":"movie","add":"2019-12-20 11:59:16","orig_title":"The Plan","year":"2009-10-27","translations":["Профессиональный (многоголосый закадровый)","Профессиональный (многоголосый закадровый) (Кравец)","Original (English)"],"quality":"bd","translation":"Профессиональный (многоголосый закадровый)","update":"2021-06-02 06:22:09","iframe_src":"//8422.svetacdn.in/IAF0wWTdNYZm/movie/34306"},{"id":6088,"title":"Путешествия Гулливера","kp_id":"77304","imdb_id":"tt0115195","world_art_id":null,"type":"serial","add":"2019-12-19 19:53:14","orig_title":"Gulliver's Travels","year":"1996-02-04","translations":["Профессиональный (двухголосый закадровый)"],"seasons_count":1,"episodes_count":2,"episodes":2,"update":"2019-12-20 13:01:15","iframe_src":"//8422.svetacdn.in/IAF0wWTdNYZm/tv-series/6088"},{"id":6087,"title":"Джокер 3. Охота на зверя","kp_id":"1206897","imdb_id":null,"world_art_id":null,"type":"serial","add":"2019-12-19 19:49:51","orig_title":"Джокер 3. Охота на зверя","year":"2018-11-11","translations":["Оригинальная дорожка"],"seasons_count":1,"episodes_count":4,"episodes":4,"update":"2019-12-19 22:24:13","iframe_src":"//8422.svetacdn.in/IAF0wWTdNYZm/tv-series/6087"},{"id":6083,"title":"В ловушке","kp_id":"1174253","imdb_id":"tt8649378","world_art_id":null,"type":"serial","add":"2019-12-19 11:24:04","orig_title":"Taken Down","year":"2018-11-04","translations":["Профессиональный (многоголосый закадровый) (BaibaKo)"],"seasons_count":1,"episodes_count":6,"episodes":6,"update":"2019-12-20 13:51:39","iframe_src":"//8422.svetacdn.in/IAF0wWTdNYZm/tv-series/6083"},{"id":6081,"title":"Монкарт","kp_id":"1209246","imdb_id":null,"world_art_id":null,"type":"serial","add":"2019-12-19 11:12:34","orig_title":"Monkart","year":"2017-08-28","translations":["Полное дублирование"],"seasons_count":1,"episodes_count":52,"episodes":52,"update":"2019-12-20 13:37:57","iframe_src":"//8422.svetacdn.in/IAF0wWTdNYZm/tv-series/6081"},{"id":6069,"title":"A.T.H.F.","kp_id":"230879","imdb_id":"tt0297494","world_art_id":null,"type":"serial","add":"2019-12-17 13:07:23","orig_title":"Aqua Teen Hunger Force","year":"2000-12-30","translations":["Полное дублирование","Original (English)","Профессиональный (многоголосый закадровый) (2x2)"],"seasons_count":10,"episodes_count":124,"episodes":9,"update":"2019-12-20 13:11:29","iframe_src":"//8422.svetacdn.in/IAF0wWTdNYZm/tv-series/6069"},{"id":6050,"title":"Кафе на Садовой","kp_id":"1049107","imdb_id":null,"world_art_id":null,"type":"serial","add":"2019-12-14 13:31:27","orig_title":"Кафе на Садовой","year":"2017-09-24","translations":["Оригинальная дорожка"],"seasons_count":1,"episodes_count":4,"episodes":4,"update":"2019-12-20 15:33:40","iframe_src":"//8422.svetacdn.in/IAF0wWTdNYZm/tv-series/6050"},{"id":6049,"title":"Украденное счастье","kp_id":"968844","imdb_id":null,"world_art_id":null,"type":"serial","add":"2019-12-14 13:29:52","orig_title":"Украденное счастье","year":"2016-04-02","translations":["Оригинальная дорожка"],"seasons_count":1,"episodes_count":2,"episodes":2,"update":"2019-12-23 11:10:23","iframe_src":"//8422.svetacdn.in/IAF0wWTdNYZm/tv-series/6049"},{"id":5957,"title":"Гурманы","kp_id":"1245847","imdb_id":"tt9894488","world_art_id":null,"type":"serial","add":"2019-12-05 20:31:28","orig_title":"Foodie Love","year":"2019-12-04","translations":["Любительский (многоголосый закадровый) (Octopus)"],"seasons_count":1,"episodes_count":8,"episodes":8,"update":"2019-12-22 11:07:29","iframe_src":"//8422.svetacdn.in/IAF0wWTdNYZm/tv-series/5957"},{"id":5703,"title":"Вторая жизнь","kp_id":"929793","imdb_id":"tt5156894","world_art_id":null,"type":"serial","add":"2019-11-09 17:39:15","orig_title":"Vtoraya zhizn","year":"2015-09-13","translations":["Оригинальная дорожка"],"seasons_count":1,"episodes_count":4,"episodes":4,"update":"2019-12-21 17:29:45","iframe_src":"//8422.svetacdn.in/IAF0wWTdNYZm/tv-series/5703"},{"id":31809,"title":"Странная парочка 2","kp_id":"11748","imdb_id":"tt0120773","world_art_id":null,"type":"movie","add":"2019-10-13 07:16:09","orig_title":"The Odd Couple II","year":"1998-04-10","translations":["Профессиональный (многоголосый закадровый)","Original (English)","Любительский (одноголосый закадровый)","Профессиональный (двухголосый закадровый)"],"quality":"bd","translation":"Профессиональный (многоголосый закадровый)","update":"2021-06-02 06:41:00","iframe_src":"//8422.svetacdn.in/IAF0wWTdNYZm/movie/31809"},{"id":5282,"title":"Клуб первых жён","kp_id":null,"imdb_id":"tt7546362","world_art_id":null,"type":"serial","add":"2019-09-25 05:07:17","orig_title":"The First Wives Club","year":"2019-09-19","translations":["Любительский (многоголосый закадровый) (Octopus)","Профессиональный (многоголосый закадровый) (TVShows)"],"seasons_count":1,"episodes_count":9,"episodes":9,"update":"2019-12-22 20:59:16","iframe_src":"//8422.svetacdn.in/IAF0wWTdNYZm/tv-series/5282"},{"id":18032,"title":"Джорнимен","kp_id":"957607","imdb_id":"tt5314118","world_art_id":null,"type":"movie","add":"2018-08-03 00:31:18","orig_title":"Journeyman","year":"2017-10-12","translations":["Любительский (многоголосый закадровый) (@MUZOBOZ@)","Профессиональный (двухголосый закадровый) (Pazl Voice)","Original (English)"],"quality":"bd","translation":"Любительский (многоголосый закадровый) (@MUZOBOZ@)","update":"2021-06-02 06:24:17","iframe_src":"//8422.svetacdn.in/IAF0wWTdNYZm/movie/18032"},{"id":16965,"title":"Паттон","kp_id":"433","imdb_id":"tt0066206","world_art_id":null,"type":"movie","add":"2018-05-30 10:27:04","orig_title":"Patton","year":"1970-02-04","translations":["Профессиональный (многоголосый закадровый)","Original (English)","Профессиональный (двухголосый закадровый)","Профессиональный (многоголосый закадровый) (Первый канал | ОРТ)"],"quality":"bd","translation":"Профессиональный (многоголосый закадровый)","update":"2021-06-02 06:37:20","iframe_src":"//8422.svetacdn.in/IAF0wWTdNYZm/movie/16965"},{"id":2614,"title":"Картер","kp_id":"1114920","imdb_id":"tt7083006","world_art_id":null,"type":"serial","add":"2018-05-22 09:07:42","orig_title":"Carter","year":"2018-04-16","translations":["Любительский (многоголосый закадровый) (ColdFilm)","Любительский (многоголосый закадровый) (Octopus)"],"seasons_count":2,"episodes_count":20,"episodes":10,"update":"2019-12-22 13:18:27","iframe_src":"//8422.svetacdn.in/IAF0wWTdNYZm/tv-series/2614"},{"id":2248,"title":"Ты расскажи, Карадениз","kp_id":"1112363","imdb_id":"tt7932896","world_art_id":null,"type":"serial","add":"2018-03-19 22:17:27","orig_title":"Sen Anlat Karadeniz","year":"2018-01-24","translations":["Любительский (двухголосый закадровый)","Любительский (одноголосый закадровый) (Роджерс Юлия)","Любительский (двухголосый закадровый) (AveTurk)"],"seasons_count":3,"episodes_count":64,"episodes":11,"update":"2019-12-20 17:08:29","iframe_src":"//8422.svetacdn.in/IAF0wWTdNYZm/tv-series/2248"},{"id":10352,"title":"Варвары и воры","kp_id":"479577","imdb_id":"tt1510983","world_art_id":null,"type":"movie","add":"2017-03-14 23:39:43","orig_title":"Heathens and Thieves","year":"2012-01-01","translations":["Профессиональный (двухголосый закадровый) (НТВ)","Original (English)"],"quality":"bd","translation":"Профессиональный (двухголосый закадровый) (НТВ)","update":"2021-06-02 06:25:57","iframe_src":"//8422.svetacdn.in/IAF0wWTdNYZm/movie/10352"},{"id":9535,"title":"Патерсон","kp_id":"954059","imdb_id":"tt5247022","world_art_id":null,"type":"movie","add":"2017-02-09 06:19:53","orig_title":"Paterson","year":"2016-05-16","translations":["Полное дублирование","Original (English)","Авторский (одноголосый закадровый) (Сербин Юрий)","Original (English)"],"quality":"bd","translation":"Полное дублирование","update":"2021-06-02 06:45:38","iframe_src":"//8422.svetacdn.in/IAF0wWTdNYZm/movie/9535"},{"id":8411,"title":"Фантом","kp_id":"821150","imdb_id":"tt3469244","world_art_id":null,"type":"movie","add":"2016-12-28 12:10:44","orig_title":"Phantom","year":"2015-08-28","translations":["Любительский (двухголосый закадровый)","Любительский (многоголосый закадровый) (STEPonee)","Профессиональный (многоголосый закадровый) (SDI Media | Iyuno-SDI Group Russia)","Любительский (многоголосый закадровый) (ICG)","Любительский (двухголосый закадровый) (DeadSno & den904)"],"quality":"bd","translation":"Любительский (двухголосый закадровый)","update":"2021-06-02 08:27:15","iframe_src":"//8422.svetacdn.in/IAF0wWTdNYZm/movie/8411"},{"id":6822,"title":"Сила личности","kp_id":"6063","imdb_id":"tt0105159","world_art_id":null,"type":"movie","add":"2016-10-30 08:21:41","orig_title":"The Power of One","year":"1992-03-27","translations":["Профессиональный (многоголосый закадровый)","Авторский (одноголосый закадровый) (Горчаков Василий)","Авторский (одноголосый закадровый) (Володарский Леонид)","Original (English)","Профессиональный (многоголосый закадровый) (НТВ)"],"quality":"webdl","translation":"Профессиональный (многоголосый закадровый)","update":"2021-06-02 07:53:12","iframe_src":"//8422.svetacdn.in/IAF0wWTdNYZm/movie/6822"},{"id":371,"title":"Нюхач","kp_id":"684449","imdb_id":"tt3326054","world_art_id":null,"type":"serial","add":"2016-08-26 05:49:41","orig_title":"Nyukhach","year":"2013-11-11","translations":["Оригинальная дорожка"],"seasons_count":4,"episodes_count":32,"episodes":8,"update":"2019-12-19 22:22:03","iframe_src":"//8422.svetacdn.in/IAF0wWTdNYZm/tv-series/371"},{"id":4178,"title":"Хеллбой II: Золотая армия","kp_id":"81472","imdb_id":"tt0411477","world_art_id":null,"type":"movie","add":"2016-07-26 12:11:52","orig_title":"Hellboy II: The Golden Army","year":"2008-06-28","translations":["Полное дублирование","Авторский (одноголосый закадровый) (Гаврилов Андрей)","Авторский (одноголосый закадровый) (Королёв Владимир)","Авторский (одноголосый закадровый) (Живов Юрий)","Полное дублирование","Original (English)","Профессиональный (многоголосый закадровый) (Кравец)"],"quality":"bd","translation":"Полное дублирование","update":"2021-06-02 07:48:07","iframe_src":"//8422.svetacdn.in/IAF0wWTdNYZm/movie/4178"},{"id":3993,"title":"Свидетель","kp_id":"5524","imdb_id":"tt0090329","world_art_id":null,"type":"movie","add":"2016-07-16 03:03:11","orig_title":"Witness","year":"1985-02-08","translations":["Профессиональный (двухголосый закадровый)","Профессиональный (двухголосый закадровый) (НТВ)","Авторский (одноголосый закадровый) (Гаврилов Андрей)","Профессиональный (многоголосый закадровый) (СТС)","Original (English)"],"quality":"bd","translation":"Профессиональный (двухголосый закадровый)","update":"2021-06-02 07:02:18","iframe_src":"//8422.svetacdn.in/IAF0wWTdNYZm/movie/3993"},{"id":1950,"title":"Стэнли и Айрис","kp_id":"1876","imdb_id":"tt0100680","world_art_id":null,"type":"movie","add":"2016-05-07 09:20:20","orig_title":"Stanley & Iris","year":"1990-02-09","translations":["Профессиональный (многоголосый закадровый)","Профессиональный (многоголосый закадровый)","Профессиональный (двухголосый закадровый) (НТВ)","Авторский (одноголосый закадровый) (Гаврилов Андрей)","Original (English)","Профессиональный (двухголосый закадровый)"],"quality":"webdl","translation":"Профессиональный (многоголосый закадровый)","update":"2021-06-02 06:49:11","iframe_src":"//8422.svetacdn.in/IAF0wWTdNYZm/movie/1950"}],"current_page":370,"first_page_url":"https://videocdn.tv/api/short?limit=100&api_token=6Onb1W1alEUrBcKJZD3GoKBbWyAl2uG2&cache3370=3370&page=1","from":36901,"last_page":690,"last_page_url":"https://videocdn.tv/api/short?limit=100&api_token=6Onb1W1alEUrBcKJZD3GoKBbWyAl2uG2&cache3370=3370&page=690","next_page_url":"https://videocdn.tv/api/short?limit=100&api_token=6Onb1W1alEUrBcKJZD3GoKBbWyAl2uG2&cache3370=3370&page=371","path":"https://videocdn.tv/api/short","per_page":100,"prev_page_url":"https://videocdn.tv/api/short?limit=100&api_token=6Onb1W1alEUrBcKJZD3GoKBbWyAl2uG2&cache3370=3370&page=369","to":36940,"total":68978}