{"result":true,"data":[{"id":44307,"title":"Особенное","kp_id":"1201378","imdb_id":"tt9118804","world_art_id":null,"type":"movie","add":"2020-10-11 17:48:53","orig_title":"The Special","year":"2020-10-13","translations":["Любительский (многоголосый закадровый) (Синема УС)"],"quality":"webdl","translation":"Любительский (многоголосый закадровый) (Синема УС)","update":"2020-10-11 21:38:29","iframe_src":"//8332.svetacdn.in/si4jsFRrtgrT/movie/44307"},{"id":44304,"title":"Следуй зову сердца","kp_id":"1292662","imdb_id":"tt10777644","world_art_id":null,"type":"movie","add":"2020-10-11 17:41:08","orig_title":"From the Heart","year":"2020-02-21","translations":["Любительский (многоголосый закадровый) (Синема УС)"],"quality":"hdtv","translation":"Любительский (многоголосый закадровый) (Синема УС)","update":"2020-10-11 21:40:09","iframe_src":"//8332.svetacdn.in/si4jsFRrtgrT/movie/44304"},{"id":44302,"title":"Всё из-за тебя","kp_id":"1419209","imdb_id":"tt13106900","world_art_id":null,"type":"movie","add":"2020-10-11 17:36:41","orig_title":"All Because of You","year":"2020-10-01","translations":["Любительский (многоголосый закадровый) (Синема УС)"],"quality":"webdl","translation":"Любительский (многоголосый закадровый) (Синема УС)","update":"2020-10-11 23:38:17","iframe_src":"//8332.svetacdn.in/si4jsFRrtgrT/movie/44302"},{"id":44290,"title":"В Ад с Харви","kp_id":"1237314","imdb_id":"tt9679538","world_art_id":null,"type":"movie","add":"2020-10-09 22:38:52","orig_title":"To Hell with Harvey","year":"2020-10-09","translations":["Любительский (многоголосый закадровый) (@MUZOBOZ@)"],"quality":"webdl","translation":"Любительский (многоголосый закадровый) (@MUZOBOZ@)","update":"2020-10-10 10:03:42","iframe_src":"//8332.svetacdn.in/si4jsFRrtgrT/movie/44290"},{"id":44289,"title":"Мясо и кровь","kp_id":"1126786","imdb_id":"tt8386958","world_art_id":null,"type":"movie","add":"2020-10-09 22:37:18","orig_title":"Kød & blod","year":"2020-02-21","translations":["Любительский (многоголосый закадровый) (AlphaProject)"],"quality":"webdl","translation":"Любительский (многоголосый закадровый) (AlphaProject)","update":"2020-10-10 10:03:11","iframe_src":"//8332.svetacdn.in/si4jsFRrtgrT/movie/44289"},{"id":44288,"title":"Ранчо Джона Лэндсбурга: подарок на свадьбу","kp_id":"1263537","imdb_id":"tt10302982","world_art_id":null,"type":"movie","add":"2020-10-09 22:35:32","orig_title":"JL Family Ranch: The Wedding Gift","year":"2020-01-01","translations":["Любительский (многоголосый закадровый) (Синема УС)"],"quality":"hdtv","translation":"Любительский (многоголосый закадровый) (Синема УС)","update":"2020-10-10 10:02:40","iframe_src":"//8332.svetacdn.in/si4jsFRrtgrT/movie/44288"},{"id":44284,"title":"Дарья","kp_id":"1340776","imdb_id":"tt11523872","world_art_id":null,"type":"movie","add":"2020-10-09 21:19:44","orig_title":"Daria","year":"2020-01-30","translations":["Любительский (многоголосый закадровый) (@MUZOBOZ@)"],"quality":"webdl","translation":"Любительский (многоголосый закадровый) (@MUZOBOZ@)","update":"2020-10-10 05:42:29","iframe_src":"//8332.svetacdn.in/si4jsFRrtgrT/movie/44284"},{"id":44259,"title":"Бит Стрит","kp_id":"25389","imdb_id":"tt0086946","world_art_id":null,"type":"movie","add":"2020-10-08 21:03:31","orig_title":"Beat Street","year":"1984-05-22","translations":["Original (English)","Авторский (одноголосый закадровый) (Королёв Владимир)","Профессиональный (многоголосый закадровый) (НТВ)"],"quality":"dvdrip","translation":"Original (English)","update":"2020-10-11 08:19:10","iframe_src":"//8332.svetacdn.in/si4jsFRrtgrT/movie/44259"},{"id":44258,"title":"Блю","kp_id":"21442","imdb_id":"tt0106438","world_art_id":null,"type":"movie","add":"2020-10-08 21:00:34","orig_title":"Blue","year":"1993-10-03","translations":["Любительский (одноголосый закадровый) (Огородников Владислав)","Original (English)"],"quality":"dvdrip","translation":"Любительский (одноголосый закадровый) (Огородников Владислав)","update":"2020-10-11 08:21:42","iframe_src":"//8332.svetacdn.in/si4jsFRrtgrT/movie/44258"},{"id":44257,"title":"Ей это нужно позарез","kp_id":"6429","imdb_id":"tt0091939","world_art_id":null,"type":"movie","add":"2020-10-08 20:55:29","orig_title":"She's Gotta Have It","year":"1986-05-01","translations":["Профессиональный (двухголосый закадровый)"],"quality":"webdl","translation":"Профессиональный (двухголосый закадровый)","update":"2020-10-11 08:23:59","iframe_src":"//8332.svetacdn.in/si4jsFRrtgrT/movie/44257"},{"id":44243,"title":"Мазлум Кузей и Куддуси 2: Бабки в сейфе!","kp_id":"1257452","imdb_id":"tt10071862","world_art_id":null,"type":"movie","add":"2020-10-08 15:29:47","orig_title":"Mazlum Kuzey & Kuddusi 2 La! Kasada Para Var!","year":"2019-04-12","translations":["Любительский (многоголосый закадровый) (Синема УС)"],"quality":"webdl","translation":"Любительский (многоголосый закадровый) (Синема УС)","update":"2020-10-10 15:14:28","iframe_src":"//8332.svetacdn.in/si4jsFRrtgrT/movie/44243"},{"id":44242,"title":"Ученица Шершня и шрамы, которые она оставила","kp_id":"1182465","imdb_id":"tt8866718","world_art_id":null,"type":"movie","add":"2020-10-08 15:27:22","orig_title":"The Hornet's Disciple and the Scars She Left","year":"2018-08-03","translations":["Любительский (многоголосый закадровый) (Синема УС)"],"quality":"webdl","translation":"Любительский (многоголосый закадровый) (Синема УС)","update":"2020-10-10 15:15:07","iframe_src":"//8332.svetacdn.in/si4jsFRrtgrT/movie/44242"},{"id":44241,"title":"Хатчипух","kp_id":"165879","imdb_id":"tt0132204","world_art_id":null,"type":"movie","add":"2020-10-08 12:59:00","orig_title":"Hatschipuh","year":"1987-02-26","translations":["Профессиональный (двухголосый закадровый)"],"quality":"dvdrip","translation":"Профессиональный (двухголосый закадровый)","update":"2020-10-10 16:27:54","iframe_src":"//8332.svetacdn.in/si4jsFRrtgrT/movie/44241"},{"id":44233,"title":"Охота на девочек у Килиманджаро","kp_id":"121612","imdb_id":"tt0085441","world_art_id":null,"type":"movie","add":"2020-10-08 08:52:28","orig_title":"Dirndljagd am Kilimandscharo","year":"1983-08-12","translations":["Любительский (одноголосый закадровый)"],"quality":"dvdrip","translation":"Любительский (одноголосый закадровый)","update":"2020-10-10 06:00:28","iframe_src":"//8332.svetacdn.in/si4jsFRrtgrT/movie/44233"},{"id":44176,"title":"Ложь","kp_id":"1112558","imdb_id":"tt7945440","world_art_id":null,"type":"movie","add":"2020-10-06 20:16:57","orig_title":"Between Earth and Sky","year":"2018-09-08","translations":["Original (English)","Профессиональный (многоголосый закадровый) (HDrezka Studio)"],"quality":"webdl","translation":"Original (English)","update":"2020-10-10 14:29:30","iframe_src":"//8332.svetacdn.in/si4jsFRrtgrT/movie/44176"},{"id":44163,"title":"Богатые дети","kp_id":"766142","imdb_id":"tt2606314","world_art_id":null,"type":"movie","add":"2020-10-06 16:28:27","orig_title":"Caretakers","year":"2018-01-01","translations":["Любительский (многоголосый закадровый) (@MUZOBOZ@)"],"quality":"webdl","translation":"Любительский (многоголосый закадровый) (@MUZOBOZ@)","update":"2020-10-10 09:31:29","iframe_src":"//8332.svetacdn.in/si4jsFRrtgrT/movie/44163"},{"id":41260,"title":"Тебе стоило уйти","kp_id":"1139531","imdb_id":"tt8201852","world_art_id":null,"type":"movie","add":"2020-06-18 16:34:20","orig_title":"You Should Have Left","year":"2020-06-19","translations":["Любительский (многоголосый закадровый) (@MUZOBOZ@)","Профессиональный (многоголосый закадровый) (HDrezka Studio)","Original (English)","Полное дублирование (iTunes)"],"quality":"webdl","translation":"Любительский (многоголосый закадровый) (@MUZOBOZ@)","update":"2020-10-10 05:51:51","iframe_src":"//8332.svetacdn.in/si4jsFRrtgrT/movie/41260"},{"id":28176,"title":"Наши соседи","kp_id":"46339","imdb_id":"tt0314425","world_art_id":null,"type":"movie","add":"2019-06-22 18:52:21","orig_title":"Nashi sosedi","year":"1957-12-16","translations":["Оригинальная дорожка","Оригинальная дорожка"],"quality":"sat","translation":"Оригинальная дорожка","update":"2020-10-10 16:29:02","iframe_src":"//8332.svetacdn.in/si4jsFRrtgrT/movie/28176"},{"id":24323,"title":"Молчание","kp_id":"1049282","imdb_id":"tt7315484","world_art_id":null,"type":"movie","add":"2019-04-11 20:13:41","orig_title":"The Silence","year":"2019-04-10","translations":["Полное дублирование (SDI Media)","Original (English)","Профессиональный (многоголосый закадровый) (HDrezka Studio)"],"quality":"webdl","translation":"Полное дублирование (SDI Media)","update":"2020-10-10 09:32:41","iframe_src":"//8332.svetacdn.in/si4jsFRrtgrT/movie/24323"},{"id":1200,"title":"Анна Каренина","kp_id":"43498","imdb_id":"tt0061359","world_art_id":null,"type":"serial","add":"2017-04-19 14:09:08","orig_title":"Anna Karenina","year":"1967-11-06","translations":["Оригинальная дорожка"],"seasons_count":1,"episodes_count":2,"episodes":2,"update":"2017-04-20 15:17:46","iframe_src":"//8332.svetacdn.in/si4jsFRrtgrT/tv-series/1200"},{"id":1190,"title":"BBC: Невидимая жизнь растений","kp_id":"281792","imdb_id":"tt0123360","world_art_id":null,"type":"serial","add":"2017-04-17 13:01:40","orig_title":"The Private Life of Plants","year":"1995-01-11","translations":["Профессиональный (одноголосый закадровый)"],"seasons_count":1,"episodes_count":6,"episodes":6,"update":"2017-04-18 05:21:18","iframe_src":"//8332.svetacdn.in/si4jsFRrtgrT/tv-series/1190"},{"id":1186,"title":"Чернобыльские джунгли. 20 лет без человека","kp_id":"670117","imdb_id":null,"world_art_id":null,"type":"serial","add":"2017-04-13 11:05:36","orig_title":"Чернобыльские джунгли. 20 лет без человека","year":"2008-04-25","translations":["Оригинальная дорожка"],"seasons_count":1,"episodes_count":2,"episodes":2,"update":"2017-04-14 06:24:10","iframe_src":"//8332.svetacdn.in/si4jsFRrtgrT/tv-series/1186"},{"id":1184,"title":"Барвиха","kp_id":"452552","imdb_id":"tt1365090","world_art_id":null,"type":"serial","add":"2017-04-12 11:27:25","orig_title":"Barvikha","year":"2009-10-02","translations":["Оригинальная дорожка"],"seasons_count":1,"episodes_count":20,"episodes":20,"update":"2017-04-14 10:38:16","iframe_src":"//8332.svetacdn.in/si4jsFRrtgrT/tv-series/1184"},{"id":1183,"title":"День хомячка","kp_id":"81008","imdb_id":"tt0395130","world_art_id":null,"type":"serial","add":"2017-04-12 11:23:55","orig_title":"Den khomyachka","year":"2003-12-25","translations":["Оригинальная дорожка"],"seasons_count":1,"episodes_count":4,"episodes":4,"update":"2017-04-13 07:24:54","iframe_src":"//8332.svetacdn.in/si4jsFRrtgrT/tv-series/1183"},{"id":1182,"title":"Торгсин","kp_id":"1039734","imdb_id":null,"world_art_id":null,"type":"serial","add":"2017-04-12 11:20:38","orig_title":"Торгсин","year":"2017-04-10","translations":["Оригинальная дорожка"],"seasons_count":1,"episodes_count":8,"episodes":8,"update":"2017-04-14 06:04:28","iframe_src":"//8332.svetacdn.in/si4jsFRrtgrT/tv-series/1182"},{"id":1178,"title":"Призрак Опера","kp_id":"1041213","imdb_id":null,"world_art_id":null,"type":"serial","add":"2017-04-11 05:40:10","orig_title":"Призрак Опера","year":"2017-04-10","translations":["Оригинальная дорожка"],"seasons_count":1,"episodes_count":1,"episodes":1,"update":"2017-04-11 08:16:28","iframe_src":"//8332.svetacdn.in/si4jsFRrtgrT/tv-series/1178"},{"id":1174,"title":"Елена Прекрасная","kp_id":"1043409","imdb_id":null,"world_art_id":null,"type":"serial","add":"2017-04-09 21:02:46","orig_title":"Елена Прекрасная","year":"2017-04-08","translations":["Оригинальная дорожка"],"seasons_count":1,"episodes_count":1,"episodes":1,"update":"2017-04-10 10:16:23","iframe_src":"//8332.svetacdn.in/si4jsFRrtgrT/tv-series/1174"},{"id":1171,"title":"Спасти или уничтожить","kp_id":"760066","imdb_id":null,"world_art_id":null,"type":"serial","add":"2017-04-05 15:34:13","orig_title":"Спасти или уничтожить","year":"2013-09-10","translations":["Оригинальная дорожка"],"seasons_count":1,"episodes_count":4,"episodes":4,"update":"2017-04-06 05:42:29","iframe_src":"//8332.svetacdn.in/si4jsFRrtgrT/tv-series/1171"},{"id":1170,"title":"Раз, два! Люблю тебя!","kp_id":"759750","imdb_id":"tt3298640","world_art_id":null,"type":"serial","add":"2017-04-05 15:30:32","orig_title":"Raz, dva! Lyublyu tebya!","year":"2013-04-29","translations":["Оригинальная дорожка"],"seasons_count":1,"episodes_count":4,"episodes":4,"update":"2017-04-06 05:49:05","iframe_src":"//8332.svetacdn.in/si4jsFRrtgrT/tv-series/1170"},{"id":1169,"title":"Осенняя мелодия любви","kp_id":"799431","imdb_id":null,"world_art_id":null,"type":"serial","add":"2017-04-05 15:27:47","orig_title":"Осенняя мелодия любви","year":"2013-09-07","translations":["Оригинальная дорожка"],"seasons_count":1,"episodes_count":2,"episodes":2,"update":"2017-04-06 05:37:25","iframe_src":"//8332.svetacdn.in/si4jsFRrtgrT/tv-series/1169"},{"id":1168,"title":"Чиста вода у истока","kp_id":"823945","imdb_id":"tt5026486","world_art_id":null,"type":"serial","add":"2017-04-05 15:23:22","orig_title":"Chista voda u istoka","year":"2014-03-30","translations":["Оригинальная дорожка"],"seasons_count":1,"episodes_count":4,"episodes":4,"update":"2017-04-06 05:34:08","iframe_src":"//8332.svetacdn.in/si4jsFRrtgrT/tv-series/1168"},{"id":1162,"title":"Без права на ошибку","kp_id":"505753","imdb_id":null,"world_art_id":null,"type":"serial","add":"2017-04-04 15:42:34","orig_title":"Без права на ошибку","year":"2011-03-01","translations":["Оригинальная дорожка"],"seasons_count":1,"episodes_count":4,"episodes":4,"update":"2017-04-05 14:16:15","iframe_src":"//8332.svetacdn.in/si4jsFRrtgrT/tv-series/1162"},{"id":1156,"title":"Убойная сила","kp_id":"79923","imdb_id":"tt0271242","world_art_id":null,"type":"serial","add":"2017-04-02 12:03:33","orig_title":"Uboynaya sila","year":"2000-03-13","translations":["Оригинальная дорожка"],"seasons_count":6,"episodes_count":57,"episodes":12,"update":"2017-04-06 13:13:21","iframe_src":"//8332.svetacdn.in/si4jsFRrtgrT/tv-series/1156"},{"id":1148,"title":"24 часа: Наследие","kp_id":"957782","imdb_id":"tt5345490","world_art_id":null,"type":"serial","add":"2017-03-29 17:08:46","orig_title":"24: Legacy","year":"2016-12-19","translations":["Профессиональный (многоголосый закадровый) (Jaskier)","Профессиональный (многоголосый закадровый) (NewStudio)"],"seasons_count":1,"episodes_count":12,"episodes":12,"update":"2017-04-19 05:25:27","iframe_src":"//8332.svetacdn.in/si4jsFRrtgrT/tv-series/1148"},{"id":1133,"title":"Бельвю","kp_id":"1009722","imdb_id":"tt6082618","world_art_id":null,"type":"serial","add":"2017-03-21 19:18:36","orig_title":"Bellevue","year":"2017-02-20","translations":["Любительский (двухголосый закадровый) (Sunshine Studio)"],"seasons_count":1,"episodes_count":8,"episodes":8,"update":"2017-04-13 10:43:10","iframe_src":"//8332.svetacdn.in/si4jsFRrtgrT/tv-series/1133"},{"id":1118,"title":"Счастливы вместе","kp_id":"262970","imdb_id":"tt1825482","world_art_id":null,"type":"serial","add":"2017-03-16 17:54:36","orig_title":"Schastlivy vmeste","year":"2006-03-08","translations":["Оригинальная дорожка"],"seasons_count":6,"episodes_count":363,"episodes":49,"update":"2017-04-07 12:18:44","iframe_src":"//8332.svetacdn.in/si4jsFRrtgrT/tv-series/1118"},{"id":1049,"title":"Изгои","kp_id":"542454","imdb_id":"tt1697793","world_art_id":null,"type":"serial","add":"2017-02-26 10:06:45","orig_title":"Outcasts","year":"2011-02-07","translations":["Профессиональный (многоголосый закадровый) (LostFilm)"],"seasons_count":1,"episodes_count":8,"episodes":8,"update":"2017-04-13 13:38:03","iframe_src":"//8332.svetacdn.in/si4jsFRrtgrT/tv-series/1049"},{"id":1047,"title":"Черный список: Искупление","kp_id":"971150","imdb_id":"tt5592230","world_art_id":null,"type":"serial","add":"2017-02-26 09:46:54","orig_title":"The Blacklist: Redemption","year":"2017-02-23","translations":["Профессиональный (многоголосый закадровый) (LostFilm)"],"seasons_count":1,"episodes_count":8,"episodes":8,"update":"2017-04-17 16:05:05","iframe_src":"//8332.svetacdn.in/si4jsFRrtgrT/tv-series/1047"},{"id":558,"title":"Гримм","kp_id":"582314","imdb_id":"tt1830617","world_art_id":null,"type":"serial","add":"2016-10-26 09:21:53","orig_title":"Grimm","year":"2011-10-28","translations":["Профессиональный (многоголосый закадровый) (LostFilm)"],"seasons_count":6,"episodes_count":123,"episodes":13,"update":"2017-04-05 13:56:23","iframe_src":"//8332.svetacdn.in/si4jsFRrtgrT/tv-series/558"},{"id":2866,"title":"Sex, кофе, сигареты","kp_id":"723825","imdb_id":"tt4852128","world_art_id":null,"type":"movie","add":"2016-06-03 20:23:59","orig_title":"Sex, kofe, sigarety","year":"2014-11-20","translations":["Оригинальная дорожка","Оригинальная дорожка"],"quality":"webdl","translation":"Оригинальная дорожка","update":"2020-10-10 16:30:27","iframe_src":"//8332.svetacdn.in/si4jsFRrtgrT/movie/2866"}],"current_page":504,"first_page_url":"https://videocdn.tv/api/short?limit=100&api_token=X6EwAUfE5M9xbo7y0Bp0aPf3uXxG2KLL&cache3504=3504&page=1","from":50301,"last_page":638,"last_page_url":"https://videocdn.tv/api/short?limit=100&api_token=X6EwAUfE5M9xbo7y0Bp0aPf3uXxG2KLL&cache3504=3504&page=638","next_page_url":"https://videocdn.tv/api/short?limit=100&api_token=X6EwAUfE5M9xbo7y0Bp0aPf3uXxG2KLL&cache3504=3504&page=505","path":"https://videocdn.tv/api/short","per_page":100,"prev_page_url":"https://videocdn.tv/api/short?limit=100&api_token=X6EwAUfE5M9xbo7y0Bp0aPf3uXxG2KLL&cache3504=3504&page=503","to":50340,"total":63797}