{"result":true,"data":[{"id":46833,"title":"Торговка и поэт","kp_id":"94713","imdb_id":"tt0175249","world_art_id":null,"type":"movie","add":"2021-01-09 14:31:48","orig_title":"Torgovka i poet","year":"1979-05-04","translations":["Оригинальная дорожка"],"quality":"dvdrip","translation":"Оригинальная дорожка","update":"2021-01-11 10:52:21","iframe_src":"//5322.svetacdn.in/si4jsFRrtgrT/movie/46833"},{"id":46832,"title":"Семейный альбом","kp_id":"683451","imdb_id":"tt2395233","world_art_id":null,"type":"movie","add":"2021-01-09 14:27:15","orig_title":"Gimenes albums","year":"1978-03-21","translations":["Полное дублирование"],"quality":"tv","translation":"Полное дублирование","update":"2021-01-11 10:51:34","iframe_src":"//5322.svetacdn.in/si4jsFRrtgrT/movie/46832"},{"id":46819,"title":"Пой песню, поэт...","kp_id":"253042","imdb_id":"tt0194382","world_art_id":null,"type":"movie","add":"2021-01-08 19:33:49","orig_title":"Poj pesnyu, poet","year":"1971-03-01","translations":["Оригинальная дорожка"],"quality":"dvdrip","translation":"Оригинальная дорожка","update":"2021-01-11 10:50:28","iframe_src":"//5322.svetacdn.in/si4jsFRrtgrT/movie/46819"},{"id":46818,"title":"Окраина","kp_id":"42758","imdb_id":"tt0024402","world_art_id":null,"type":"movie","add":"2021-01-08 19:27:19","orig_title":"Okraina","year":"1933-03-25","translations":["Оригинальная дорожка"],"quality":"dvdrip","translation":"Оригинальная дорожка","update":"2021-01-11 10:49:52","iframe_src":"//5322.svetacdn.in/si4jsFRrtgrT/movie/46818"},{"id":46817,"title":"Конец Любавиных","kp_id":"44897","imdb_id":"tt0067312","world_art_id":null,"type":"movie","add":"2021-01-08 19:22:20","orig_title":"Konets Lyubavinykh","year":"1972-03-27","translations":["Оригинальная дорожка"],"quality":"iptv","translation":"Оригинальная дорожка","update":"2021-01-11 10:48:42","iframe_src":"//5322.svetacdn.in/si4jsFRrtgrT/movie/46817"},{"id":46815,"title":"Иван Великий","kp_id":"634413","imdb_id":"tt3276046","world_art_id":null,"type":"movie","add":"2021-01-08 19:15:47","orig_title":"Ivan Veliky","year":"1987-01-01","translations":["Оригинальная дорожка"],"quality":"dvdrip","translation":"Оригинальная дорожка","update":"2021-01-11 10:47:28","iframe_src":"//5322.svetacdn.in/si4jsFRrtgrT/movie/46815"},{"id":46814,"title":"Испытатели","kp_id":"478854","imdb_id":"tt5687086","world_art_id":null,"type":"movie","add":"2021-01-08 19:10:32","orig_title":"Ispytateli","year":"1987-01-01","translations":["Оригинальная дорожка"],"quality":"sat","translation":"Оригинальная дорожка","update":"2021-01-11 10:45:54","iframe_src":"//5322.svetacdn.in/si4jsFRrtgrT/movie/46814"},{"id":46813,"title":"Дорога домой","kp_id":"183500","imdb_id":"tt0419707","world_art_id":null,"type":"movie","add":"2021-01-08 19:07:43","orig_title":"Doroga domoy","year":"1970-08-17","translations":["Оригинальная дорожка"],"quality":"sat","translation":"Оригинальная дорожка","update":"2021-01-11 10:45:07","iframe_src":"//5322.svetacdn.in/si4jsFRrtgrT/movie/46813"},{"id":46812,"title":"Дорога к звездам","kp_id":"44284","imdb_id":"tt0312635","world_art_id":null,"type":"movie","add":"2021-01-08 19:02:40","orig_title":"Doroga k zvyozdam","year":"1943-03-13","translations":["Оригинальная дорожка"],"quality":"sat","translation":"Оригинальная дорожка","update":"2021-01-11 10:44:27","iframe_src":"//5322.svetacdn.in/si4jsFRrtgrT/movie/46812"},{"id":46811,"title":"Джура","kp_id":"567029","imdb_id":"tt11527474","world_art_id":null,"type":"movie","add":"2021-01-08 18:59:45","orig_title":"Dzhura","year":"1965-02-01","translations":["Оригинальная дорожка"],"quality":"vhs","translation":"Оригинальная дорожка","update":"2021-01-11 10:43:47","iframe_src":"//5322.svetacdn.in/si4jsFRrtgrT/movie/46811"},{"id":46810,"title":"День и вся жизнь","kp_id":"44133","imdb_id":"tt0064221","world_art_id":null,"type":"movie","add":"2021-01-08 18:55:57","orig_title":"Den i vsya zhizn","year":"1969-05-25","translations":["Оригинальная дорожка"],"quality":"dvdrip","translation":"Оригинальная дорожка","update":"2021-01-11 10:43:03","iframe_src":"//5322.svetacdn.in/si4jsFRrtgrT/movie/46810"},{"id":46809,"title":"Чужое имя","kp_id":"271722","imdb_id":"tt5065344","world_art_id":null,"type":"movie","add":"2021-01-08 18:52:30","orig_title":"Chuzhoye imya","year":"1966-06-20","translations":["Оригинальная дорожка"],"quality":"sat","translation":"Оригинальная дорожка","update":"2021-01-11 10:42:24","iframe_src":"//5322.svetacdn.in/si4jsFRrtgrT/movie/46809"},{"id":46808,"title":"Чужая","kp_id":"467041","imdb_id":"tt3141338","world_art_id":null,"type":"movie","add":"2021-01-08 18:48:45","orig_title":"Chuzhaya","year":"1978-01-01","translations":["Оригинальная дорожка"],"quality":"dvdrip","translation":"Оригинальная дорожка","update":"2021-01-11 10:41:50","iframe_src":"//5322.svetacdn.in/si4jsFRrtgrT/movie/46808"},{"id":46807,"title":"Чаша терпения","kp_id":"45439","imdb_id":"tt0172235","world_art_id":null,"type":"movie","add":"2021-01-08 18:44:36","orig_title":"Chasha terpeniya","year":"1989-01-01","translations":["Оригинальная дорожка"],"quality":"iptv","translation":"Оригинальная дорожка","update":"2021-01-11 10:41:18","iframe_src":"//5322.svetacdn.in/si4jsFRrtgrT/movie/46807"},{"id":46783,"title":"Ветер «Надежды»","kp_id":"45759","imdb_id":"tt0332813","world_art_id":null,"type":"movie","add":"2021-01-07 17:25:24","orig_title":"Veter 'Nadezhdy'","year":"1978-03-27","translations":["Оригинальная дорожка"],"quality":"sat","translation":"Оригинальная дорожка","update":"2021-01-11 10:40:38","iframe_src":"//5322.svetacdn.in/si4jsFRrtgrT/movie/46783"},{"id":46782,"title":"За рекой — граница","kp_id":"45182","imdb_id":null,"world_art_id":null,"type":"movie","add":"2021-01-07 17:20:46","orig_title":"За рекой — граница","year":"1972-02-22","translations":["Оригинальная дорожка"],"quality":"vhs","translation":"Оригинальная дорожка","update":"2021-01-11 10:39:34","iframe_src":"//5322.svetacdn.in/si4jsFRrtgrT/movie/46782"},{"id":46780,"title":"Друзья встречаются вновь","kp_id":"268424","imdb_id":"tt0781019","world_art_id":null,"type":"movie","add":"2021-01-07 17:04:49","orig_title":"Druzya vstrechayutsya vnov","year":"1939-01-01","translations":["Оригинальная дорожка"],"quality":"vhs","translation":"Оригинальная дорожка","update":"2021-01-11 10:28:11","iframe_src":"//5322.svetacdn.in/si4jsFRrtgrT/movie/46780"},{"id":46779,"title":"У самого синего моря","kp_id":"42480","imdb_id":"tt0028436","world_art_id":null,"type":"movie","add":"2021-01-07 17:02:41","orig_title":"U samogo sinego morya","year":"1936-04-01","translations":["Оригинальная дорожка"],"quality":"webdl","translation":"Оригинальная дорожка","update":"2021-01-11 10:27:37","iframe_src":"//5322.svetacdn.in/si4jsFRrtgrT/movie/46779"},{"id":46778,"title":"Рейс первый, рейс последний","kp_id":"627829","imdb_id":"tt4837468","world_art_id":null,"type":"movie","add":"2021-01-07 16:59:58","orig_title":"Reys pervyy, reys posledniy","year":"1974-02-03","translations":["Оригинальная дорожка"],"quality":"vhs","translation":"Оригинальная дорожка","update":"2021-01-11 10:26:16","iframe_src":"//5322.svetacdn.in/si4jsFRrtgrT/movie/46778"},{"id":6055,"title":"Другое измерение","kp_id":"161274","imdb_id":"tt0142035","world_art_id":null,"type":"serial","add":"2019-12-16 07:15:52","orig_title":"Eerie, Indiana: The Other Dimension","year":"1998-02-07","translations":["Профессиональный (многоголосый закадровый) (HDrezka Studio)"],"seasons_count":1,"episodes_count":15,"episodes":15,"update":"2019-12-16 11:26:32","iframe_src":"//5322.svetacdn.in/si4jsFRrtgrT/tv-series/6055"},{"id":6053,"title":"Некрасивая подружка","kp_id":"1314718","imdb_id":null,"world_art_id":null,"type":"serial","add":"2019-12-15 18:14:28","orig_title":"Некрасивая подружка","year":"2019-12-15","translations":["Оригинальная дорожка"],"seasons_count":1,"episodes_count":4,"episodes":4,"update":"2019-12-16 11:03:56","iframe_src":"//5322.svetacdn.in/si4jsFRrtgrT/tv-series/6053"},{"id":6051,"title":"Северное сияние. Когда мертвые возвращаются","kp_id":"1291205","imdb_id":null,"world_art_id":null,"type":"serial","add":"2019-12-14 13:58:35","orig_title":"Северное сияние. Когда мертвые возвращаются","year":"2019-01-01","translations":["Оригинальная дорожка"],"seasons_count":1,"episodes_count":2,"episodes":2,"update":"2019-12-16 09:23:28","iframe_src":"//5322.svetacdn.in/si4jsFRrtgrT/tv-series/6051"},{"id":6046,"title":"Девичий лес","kp_id":"1328016","imdb_id":null,"world_art_id":null,"type":"serial","add":"2019-12-14 13:10:41","orig_title":"Девичий лес","year":"2019-01-01","translations":["Оригинальная дорожка"],"seasons_count":1,"episodes_count":4,"episodes":4,"update":"2019-12-14 14:05:49","iframe_src":"//5322.svetacdn.in/si4jsFRrtgrT/tv-series/6046"},{"id":6045,"title":"Великий Мерлин","kp_id":"77213","imdb_id":"tt0130414","world_art_id":null,"type":"serial","add":"2019-12-13 19:06:51","orig_title":"Merlin","year":"1998-04-26","translations":["Профессиональный (многоголосый закадровый) (НТВ)"],"seasons_count":1,"episodes_count":2,"episodes":2,"update":"2019-12-13 21:35:34","iframe_src":"//5322.svetacdn.in/si4jsFRrtgrT/tv-series/6045"},{"id":6044,"title":"Пятница 13","kp_id":"231925","imdb_id":"tt0092357","world_art_id":null,"type":"serial","add":"2019-12-13 12:57:57","orig_title":"Friday the 13th: The Series","year":"1987-10-03","translations":["Профессиональный (многоголосый закадровый) (CBS Drama)"],"seasons_count":3,"episodes_count":71,"episodes":19,"update":"2019-12-13 21:32:59","iframe_src":"//5322.svetacdn.in/si4jsFRrtgrT/tv-series/6044"},{"id":6043,"title":"Бульварное кольцо","kp_id":"842807","imdb_id":"tt9108698","world_art_id":null,"type":"serial","add":"2019-12-13 12:50:14","orig_title":"Bulvarnoye koltso","year":"2015-11-27","translations":["Оригинальная дорожка"],"seasons_count":1,"episodes_count":4,"episodes":4,"update":"2019-12-13 20:42:36","iframe_src":"//5322.svetacdn.in/si4jsFRrtgrT/tv-series/6043"},{"id":6042,"title":"Елизавета I","kp_id":"276243","imdb_id":"tt0465326","world_art_id":null,"type":"serial","add":"2019-12-13 10:38:24","orig_title":"Elizabeth I","year":"2005-09-29","translations":["Профессиональный (многоголосый закадровый)"],"seasons_count":1,"episodes_count":2,"episodes":2,"update":"2019-12-13 17:32:52","iframe_src":"//5322.svetacdn.in/si4jsFRrtgrT/tv-series/6042"},{"id":6041,"title":"Королева-девственница","kp_id":"254771","imdb_id":"tt0481459","world_art_id":null,"type":"serial","add":"2019-12-13 10:24:46","orig_title":"The Virgin Queen","year":"2006-01-22","translations":["Профессиональный (многоголосый закадровый)"],"seasons_count":1,"episodes_count":2,"episodes":2,"update":"2019-12-13 17:32:16","iframe_src":"//5322.svetacdn.in/si4jsFRrtgrT/tv-series/6041"},{"id":6039,"title":"Хиромант 2","kp_id":"497688","imdb_id":null,"world_art_id":null,"type":"serial","add":"2019-12-13 06:21:07","orig_title":"Хиромант 2","year":"2007-01-01","translations":["Оригинальная дорожка"],"seasons_count":1,"episodes_count":12,"episodes":12,"update":"2019-12-14 14:42:49","iframe_src":"//5322.svetacdn.in/si4jsFRrtgrT/tv-series/6039"},{"id":6038,"title":"Наследники","kp_id":"1330097","imdb_id":null,"world_art_id":null,"type":"serial","add":"2019-12-13 05:35:21","orig_title":"Спадкоємці","year":"2019-12-02","translations":["Оригинальная дорожка"],"seasons_count":1,"episodes_count":16,"episodes":16,"update":"2019-12-13 14:09:50","iframe_src":"//5322.svetacdn.in/si4jsFRrtgrT/tv-series/6038"},{"id":6033,"title":"Кабачок «13 стульев»","kp_id":"450174","imdb_id":"tt0366040","world_art_id":null,"type":"serial","add":"2019-12-12 14:44:09","orig_title":"Kabachok 13 stulev","year":"1966-01-16","translations":["Оригинальная дорожка"],"seasons_count":1,"episodes_count":9,"episodes":9,"update":"2019-12-13 20:29:57","iframe_src":"//5322.svetacdn.in/si4jsFRrtgrT/tv-series/6033"},{"id":6026,"title":"Мисс Дьявол","kp_id":"1126585","imdb_id":"tt8286318","world_art_id":null,"type":"serial","add":"2019-12-12 14:27:33","orig_title":"Miss Devil","year":"2018-04-14","translations":["Любительский (двухголосый закадровый) (Voice Project Studio)"],"seasons_count":1,"episodes_count":10,"episodes":10,"update":"2019-12-13 20:25:40","iframe_src":"//5322.svetacdn.in/si4jsFRrtgrT/tv-series/6026"},{"id":6025,"title":"Охота на пиранью","kp_id":"1204973","imdb_id":null,"world_art_id":null,"type":"serial","add":"2019-12-12 14:24:51","orig_title":"Охота на пиранью","year":"2006-11-28","translations":["Оригинальная дорожка"],"seasons_count":1,"episodes_count":4,"episodes":4,"update":"2019-12-13 20:18:07","iframe_src":"//5322.svetacdn.in/si4jsFRrtgrT/tv-series/6025"},{"id":6024,"title":"Город сверхъестественного. Индиана","kp_id":"258531","imdb_id":"tt0101088","world_art_id":null,"type":"serial","add":"2019-12-12 13:53:34","orig_title":"Eerie, Indiana","year":"1991-09-15","translations":["Любительский (одноголосый закадровый)","Профессиональный (многоголосый закадровый) (HDrezka Studio)","Профессиональный (многоголосый закадровый) (FOX)"],"seasons_count":1,"episodes_count":19,"episodes":19,"update":"2019-12-16 11:18:22","iframe_src":"//5322.svetacdn.in/si4jsFRrtgrT/tv-series/6024"},{"id":6023,"title":"Фронт без пощады","kp_id":"403443","imdb_id":"tt0429360","world_art_id":null,"type":"serial","add":"2019-12-12 13:41:06","orig_title":"Front ohne Gnade","year":"1984-01-06","translations":["Авторский (одноголосый закадровый) (Рутилов Виктор | fiendover | overfiend)"],"seasons_count":1,"episodes_count":13,"episodes":13,"update":"2019-12-13 19:47:19","iframe_src":"//5322.svetacdn.in/si4jsFRrtgrT/tv-series/6023"},{"id":6022,"title":"Одинокие стрелки","kp_id":"271980","imdb_id":"tt0243069","world_art_id":null,"type":"serial","add":"2019-12-12 13:30:28","orig_title":"The Lone Gunmen","year":"2001-03-04","translations":["Профессиональный (одноголосый закадровый) (Кравец)"],"seasons_count":1,"episodes_count":14,"episodes":14,"update":"2019-12-13 19:38:48","iframe_src":"//5322.svetacdn.in/si4jsFRrtgrT/tv-series/6022"},{"id":6021,"title":"Современный потрошитель","kp_id":"452968","imdb_id":"tt1186356","world_art_id":null,"type":"serial","add":"2019-12-12 13:10:10","orig_title":"Whitechapel","year":"2009-02-02","translations":["Профессиональный (многоголосый закадровый) (Fox Crime)"],"seasons_count":4,"episodes_count":18,"episodes":6,"update":"2019-12-13 19:31:26","iframe_src":"//5322.svetacdn.in/si4jsFRrtgrT/tv-series/6021"},{"id":6013,"title":"ААА!!! Настоящие монстры","kp_id":"230745","imdb_id":"tt0108684","world_art_id":null,"type":"serial","add":"2019-12-11 19:24:21","orig_title":"Aaahh!!! Real Monsters","year":"1994-10-29","translations":["Полное дублирование"],"seasons_count":4,"episodes_count":52,"episodes":13,"update":"2019-12-13 13:41:55","iframe_src":"//5322.svetacdn.in/si4jsFRrtgrT/tv-series/6013"},{"id":26448,"title":"Иду искать","kp_id":"421040","imdb_id":"tt2256578","world_art_id":null,"type":"movie","add":"2019-05-13 19:51:34","orig_title":"Idu iskat","year":"1966-11-14","translations":["Оригинальная дорожка","Оригинальная дорожка"],"quality":"tv","translation":"Оригинальная дорожка","update":"2021-01-11 10:38:55","iframe_src":"//5322.svetacdn.in/si4jsFRrtgrT/movie/26448"},{"id":3181,"title":"Принц драконов","kp_id":"1175021","imdb_id":"tt8688814","world_art_id":null,"type":"serial","add":"2018-09-17 21:05:01","orig_title":"The Dragon Prince","year":"2018-09-14","translations":["Профессиональный (многоголосый закадровый) (AlexFilm)","Профессиональный (многоголосый закадровый) (HDrezka Studio)","Полное дублирование (SDI Media)"],"seasons_count":3,"episodes_count":27,"episodes":9,"update":"2019-12-16 09:46:11","iframe_src":"//5322.svetacdn.in/si4jsFRrtgrT/tv-series/3181"}],"current_page":298,"first_page_url":"https://videocdn.tv/api/short?limit=100&api_token=X6EwAUfE5M9xbo7y0Bp0aPf3uXxG2KLL&cache3298=3298&page=1","from":29701,"last_page":628,"last_page_url":"https://videocdn.tv/api/short?limit=100&api_token=X6EwAUfE5M9xbo7y0Bp0aPf3uXxG2KLL&cache3298=3298&page=628","next_page_url":"https://videocdn.tv/api/short?limit=100&api_token=X6EwAUfE5M9xbo7y0Bp0aPf3uXxG2KLL&cache3298=3298&page=299","path":"https://videocdn.tv/api/short","per_page":100,"prev_page_url":"https://videocdn.tv/api/short?limit=100&api_token=X6EwAUfE5M9xbo7y0Bp0aPf3uXxG2KLL&cache3298=3298&page=297","to":29740,"total":62702}