{"result":true,"data":[{"id":25768,"title":"Личное дело судьи Ивановой","kp_id":"45094","imdb_id":"tt0170162","world_art_id":null,"type":"movie","add":"2019-04-30 20:22:30","orig_title":"Lichnoe delo sudi Ivanovoy","year":"1986-03-21","translations":["Оригинальная дорожка"],"quality":"dvdrip","translation":"Оригинальная дорожка","update":"2019-05-02 12:31:28","iframe_src":"//83.svetacdn.in/PfJ50H0ZBPg3/movie/25768"},{"id":25767,"title":"Старики-полковники","kp_id":"469704","imdb_id":"tt4528772","world_art_id":null,"type":"movie","add":"2019-04-30 20:17:16","orig_title":"Stariki-polkovniki","year":"2007-01-01","translations":["Оригинальная дорожка"],"quality":"dvdrip","translation":"Оригинальная дорожка","update":"2019-05-02 12:27:47","iframe_src":"//83.svetacdn.in/PfJ50H0ZBPg3/movie/25767"},{"id":25766,"title":"Луной был полон сад","kp_id":"41303","imdb_id":"tt0256898","world_art_id":null,"type":"movie","add":"2019-04-30 19:30:07","orig_title":"Lunoy byl polon sad","year":"2000-01-24","translations":["Оригинальная дорожка"],"quality":"dvdrip","translation":"Оригинальная дорожка","update":"2019-05-02 12:23:37","iframe_src":"//83.svetacdn.in/PfJ50H0ZBPg3/movie/25766"},{"id":25764,"title":"Метель","kp_id":"46618","imdb_id":"tt0058346","world_art_id":null,"type":"movie","add":"2019-04-30 19:20:42","orig_title":"Metel","year":"1965-02-10","translations":["Оригинальная дорожка"],"quality":"dvdrip","translation":"Оригинальная дорожка","update":"2019-05-02 12:11:16","iframe_src":"//83.svetacdn.in/PfJ50H0ZBPg3/movie/25764"},{"id":25763,"title":"Милый, дорогой, любимый, единственный...","kp_id":"46637","imdb_id":"tt0170249","world_art_id":null,"type":"movie","add":"2019-04-30 19:17:06","orig_title":"Milyy, dorogoy, lyubimyy, edinstvennyy...","year":"1985-02-18","translations":["Оригинальная дорожка"],"quality":"dvdrip","translation":"Оригинальная дорожка","update":"2019-05-02 12:10:06","iframe_src":"//83.svetacdn.in/PfJ50H0ZBPg3/movie/25763"},{"id":25761,"title":"Надежда как свидетельство жизни","kp_id":"406136","imdb_id":"tt3238498","world_art_id":null,"type":"movie","add":"2019-04-30 19:07:44","orig_title":"Nadezhda kak svidetelstvo zhizni","year":"2008-01-01","translations":["Оригинальная дорожка"],"quality":"dvdrip","translation":"Оригинальная дорожка","update":"2019-05-02 12:07:34","iframe_src":"//83.svetacdn.in/PfJ50H0ZBPg3/movie/25761"},{"id":25760,"title":"Наших бьют","kp_id":"633996","imdb_id":null,"world_art_id":null,"type":"movie","add":"2019-04-30 19:03:34","orig_title":"Наших бьют","year":"2011-10-21","translations":["Оригинальная дорожка"],"quality":"dvdrip","translation":"Оригинальная дорожка","update":"2019-05-02 12:06:55","iframe_src":"//83.svetacdn.in/PfJ50H0ZBPg3/movie/25760"},{"id":25759,"title":"Не ждали, не гадали","kp_id":"331881","imdb_id":"tt0251894","world_art_id":null,"type":"movie","add":"2019-04-30 18:55:52","orig_title":"Ne zhdali, ne gadali","year":"1982-01-01","translations":["Оригинальная дорожка"],"quality":"dvdrip","translation":"Оригинальная дорожка","update":"2019-05-02 12:05:07","iframe_src":"//83.svetacdn.in/PfJ50H0ZBPg3/movie/25759"},{"id":25758,"title":"Небесные ласточки","kp_id":"46375","imdb_id":"tt0174972","world_art_id":null,"type":"movie","add":"2019-04-30 18:52:40","orig_title":"Nebesnye lastochki","year":"1976-12-19","translations":["Оригинальная дорожка"],"quality":"sat","translation":"Оригинальная дорожка","update":"2019-05-02 12:04:02","iframe_src":"//83.svetacdn.in/PfJ50H0ZBPg3/movie/25758"},{"id":25757,"title":"Перехват","kp_id":"42922","imdb_id":"tt0091745","world_art_id":null,"type":"movie","add":"2019-04-30 18:49:24","orig_title":"Perekhvat","year":"1986-05-01","translations":["Оригинальная дорожка"],"quality":"dvdrip","translation":"Оригинальная дорожка","update":"2019-05-02 12:03:00","iframe_src":"//83.svetacdn.in/PfJ50H0ZBPg3/movie/25757"},{"id":25756,"title":"Неуловимая четверка","kp_id":"438249","imdb_id":null,"world_art_id":null,"type":"movie","add":"2019-04-30 18:18:53","orig_title":"Неуловимая четверка","year":"2007-01-01","translations":["Оригинальная дорожка"],"quality":"sat","translation":"Оригинальная дорожка","update":"2019-05-02 12:01:55","iframe_src":"//83.svetacdn.in/PfJ50H0ZBPg3/movie/25756"},{"id":25755,"title":"Неуправляемый занос","kp_id":"226043","imdb_id":"tt0459478","world_art_id":null,"type":"movie","add":"2019-04-30 18:06:51","orig_title":"Neupravlyaemyy zanos","year":"2005-01-27","translations":["Оригинальная дорожка"],"quality":"dvdrip","translation":"Оригинальная дорожка","update":"2019-05-02 11:48:12","iframe_src":"//83.svetacdn.in/PfJ50H0ZBPg3/movie/25755"},{"id":25754,"title":"Нежный возраст","kp_id":"41561","imdb_id":"tt0292149","world_art_id":null,"type":"movie","add":"2019-04-30 17:58:48","orig_title":"Nezhnyy vozrast","year":"2001-01-28","translations":["Оригинальная дорожка"],"quality":"dvdrip","translation":"Оригинальная дорожка","update":"2019-05-02 11:47:09","iframe_src":"//83.svetacdn.in/PfJ50H0ZBPg3/movie/25754"},{"id":25753,"title":"Ночь светла","kp_id":"261360","imdb_id":"tt0478007","world_art_id":null,"type":"movie","add":"2019-04-30 17:54:44","orig_title":"Noch svetla","year":"2005-07-06","translations":["Оригинальная дорожка"],"quality":"dvdrip","translation":"Оригинальная дорожка","update":"2019-05-02 11:45:49","iframe_src":"//83.svetacdn.in/PfJ50H0ZBPg3/movie/25753"},{"id":25752,"title":"Ночное происшествие","kp_id":"46457","imdb_id":"tt0081244","world_art_id":null,"type":"movie","add":"2019-04-30 17:50:19","orig_title":"Nochnoye proishestviye","year":"1981-03-30","translations":["Оригинальная дорожка"],"quality":"dvdrip","translation":"Оригинальная дорожка","update":"2019-05-02 11:44:35","iframe_src":"//83.svetacdn.in/PfJ50H0ZBPg3/movie/25752"},{"id":25751,"title":"Орех Кракатук","kp_id":"438530","imdb_id":"tt4876542","world_art_id":null,"type":"movie","add":"2019-04-30 17:47:03","orig_title":"Orekh Krakatuk","year":"1977-12-31","translations":["Оригинальная дорожка"],"quality":"dvdrip","translation":"Оригинальная дорожка","update":"2019-05-02 11:43:11","iframe_src":"//83.svetacdn.in/PfJ50H0ZBPg3/movie/25751"},{"id":25750,"title":"Ошибки юности","kp_id":"42808","imdb_id":"tt0078041","world_art_id":null,"type":"movie","add":"2019-04-30 17:43:46","orig_title":"Oshibki yunosti","year":"1978-03-18","translations":["Оригинальная дорожка"],"quality":"dvdrip","translation":"Оригинальная дорожка","update":"2019-05-02 08:44:41","iframe_src":"//83.svetacdn.in/PfJ50H0ZBPg3/movie/25750"},{"id":25749,"title":"Паутинка бабьего лета","kp_id":"634182","imdb_id":"tt7704450","world_art_id":null,"type":"movie","add":"2019-04-30 17:37:16","orig_title":"Pautinka babego leta","year":"2011-10-23","translations":["Оригинальная дорожка"],"quality":"sat","translation":"Оригинальная дорожка","update":"2019-05-02 08:43:42","iframe_src":"//83.svetacdn.in/PfJ50H0ZBPg3/movie/25749"},{"id":25748,"title":"Пиковая дама","kp_id":"42975","imdb_id":"tt0054183","world_art_id":null,"type":"movie","add":"2019-04-30 17:13:01","orig_title":"Pikovaya dama","year":"1960-10-27","translations":["Оригинальная дорожка"],"quality":"dvdrip","translation":"Оригинальная дорожка","update":"2019-05-02 08:43:03","iframe_src":"//83.svetacdn.in/PfJ50H0ZBPg3/movie/25748"},{"id":25732,"title":"Самый-самый-самый-плохой","kp_id":"580726","imdb_id":"tt6181594","world_art_id":null,"type":"movie","add":"2019-04-30 15:24:00","orig_title":"Samiy-samiy-samiy-plokhoy","year":"2010-12-22","translations":["Оригинальная дорожка"],"quality":"dvdrip","translation":"Оригинальная дорожка","update":"2019-05-02 12:26:37","iframe_src":"//83.svetacdn.in/PfJ50H0ZBPg3/movie/25732"}],"current_page":1621,"first_page_url":"https://videocdn.tv/api/short?limit=100&api_token=RgFQdUIR2dRmwv8iYa5SnFNgnw3vpjKj&cache31621=31621&page=1","from":162001,"last_page":666,"last_page_url":"https://videocdn.tv/api/short?limit=100&api_token=RgFQdUIR2dRmwv8iYa5SnFNgnw3vpjKj&cache31621=31621&page=666","next_page_url":null,"path":"https://videocdn.tv/api/short","per_page":100,"prev_page_url":"https://videocdn.tv/api/short?limit=100&api_token=RgFQdUIR2dRmwv8iYa5SnFNgnw3vpjKj&cache31621=31621&page=1620","to":162020,"total":66521}