{"result":true,"data":[{"id":49428,"title":"Страх","kp_id":"432823","imdb_id":"tt001331307","world_art_id":null,"type":"movie","add":"2021-04-08 07:28:48","orig_title":"Dread","year":"2009-07-14","translations":["Любительский (двухголосый закадровый)"],"quality":"hdrip","translation":"Любительский (двухголосый закадровый)","update":"2021-04-08 08:32:41","iframe_src":"//8209.svetacdn.in/71tsRs29n5tZ/movie/49428"},{"id":49427,"title":"Детектив","kp_id":"18377","imdb_id":"tt0089066","world_art_id":null,"type":"movie","add":"2021-04-08 05:44:30","orig_title":"Détective","year":"1985-05-10","translations":["Профессиональный (двухголосый закадровый) (НТВ)"],"quality":"bd","translation":"Профессиональный (двухголосый закадровый) (НТВ)","update":"2021-04-08 12:43:28","iframe_src":"//8209.svetacdn.in/71tsRs29n5tZ/movie/49427"},{"id":49425,"title":"Трина, давай","kp_id":null,"imdb_id":"tt12673240","world_art_id":null,"type":"movie","add":"2021-04-07 21:58:43","orig_title":"Tryna Come Up","year":"2020-05-11","translations":["Любительский (многоголосый закадровый) (Синема УС)"],"quality":"webdl","translation":"Любительский (многоголосый закадровый) (Синема УС)","update":"2021-04-08 07:28:05","iframe_src":"//8209.svetacdn.in/71tsRs29n5tZ/movie/49425"},{"id":49423,"title":"Неверная дорога","kp_id":"1283767","imdb_id":"tt10640760","world_art_id":null,"type":"movie","add":"2021-04-07 21:53:19","orig_title":"The Wrong Path","year":"2021-04-06","translations":["Любительский (многоголосый закадровый) (Синема УС)"],"quality":"webdl","translation":"Любительский (многоголосый закадровый) (Синема УС)","update":"2021-04-08 10:36:07","iframe_src":"//8209.svetacdn.in/71tsRs29n5tZ/movie/49423"},{"id":49234,"title":"Ребёнок и я","kp_id":"1049810","imdb_id":"tt6167566","world_art_id":null,"type":"movie","add":"2021-03-31 08:51:47","orig_title":"Agiwa na","year":"2017-11-23","translations":["Любительский (многоголосый закадровый) (Синема УС)","Любительский (многоголосый закадровый) (Amazing Dubbing)"],"quality":"webdl","translation":"Любительский (многоголосый закадровый) (Синема УС)","update":"2021-04-08 12:39:31","iframe_src":"//8209.svetacdn.in/71tsRs29n5tZ/movie/49234"},{"id":47977,"title":"Магазинчик ужасов","kp_id":"4235","imdb_id":"tt0054033","world_art_id":null,"type":"movie","add":"2021-02-16 09:59:34","orig_title":"The Little Shop of Horrors","year":"1960-08-05","translations":["Профессиональный (многоголосый закадровый) (5-й канал СПб)","Original (English)","Профессиональный (многоголосый закадровый) (DVD Магия)"],"quality":"bd","translation":"Профессиональный (многоголосый закадровый) (5-й канал СПб)","update":"2021-04-08 08:03:48","iframe_src":"//8209.svetacdn.in/71tsRs29n5tZ/movie/47977"},{"id":47912,"title":"Страна чудес Вилли","kp_id":"1319046","imdb_id":"tt8114980","world_art_id":null,"type":"movie","add":"2021-02-14 18:33:47","orig_title":"Willy's Wonderland","year":"2021-02-12","translations":["Любительский (многоголосый закадровый) (@MUZOBOZ@)","Любительский (одноголосый закадровый) (BadBajo)","Original (English)","Профессиональный (многоголосый закадровый) (AMS)","Профессиональный (многоголосый закадровый) (HDrezka Studio 18+)","Профессиональный (многоголосый закадровый) (HDrezka Studio)","Полное дублирование (iTunes)","Авторский (одноголосый закадровый) (Дольский Андрей)"],"quality":"webdl","translation":"Любительский (многоголосый закадровый) (@MUZOBOZ@)","update":"2021-04-08 12:37:07","iframe_src":"//8209.svetacdn.in/71tsRs29n5tZ/movie/47912"},{"id":47903,"title":"Дух Сент-Луиса","kp_id":"8981","imdb_id":"tt0051003","world_art_id":null,"type":"movie","add":"2021-02-14 13:50:59","orig_title":"The Spirit of St. Louis","year":"1957-04-20","translations":["Авторский (одноголосый закадровый) (Живов Юрий)","Авторский (одноголосый закадровый) (Либергал Григорий)","Original (English)"],"quality":"webdl","translation":"Авторский (одноголосый закадровый) (Живов Юрий)","update":"2021-04-08 07:47:59","iframe_src":"//8209.svetacdn.in/71tsRs29n5tZ/movie/47903"},{"id":47878,"title":"Ветер и лев","kp_id":"12862","imdb_id":"tt0073906","world_art_id":null,"type":"movie","add":"2021-02-12 15:47:38","orig_title":"The Wind and the Lion","year":"1975-05-22","translations":["Профессиональный (многоголосый закадровый) (НТВ)","Original (English)","Профессиональный (многоголосый закадровый) (5-й канал СПб)"],"quality":"bd","translation":"Профессиональный (многоголосый закадровый) (НТВ)","update":"2021-04-08 07:56:42","iframe_src":"//8209.svetacdn.in/71tsRs29n5tZ/movie/47878"},{"id":45995,"title":"Охотник на монстров","kp_id":"1038789","imdb_id":"tt6475714","world_art_id":null,"type":"movie","add":"2020-12-10 22:35:27","orig_title":"Monster Hunter","year":"2020-12-03","translations":["Полное дублирование","Любительский (одноголосый закадровый) (BadBajo)","Полное дублирование","Original (English)","Профессиональный (многоголосый закадровый) (HDrezka Studio)","Полное дублирование (iTunes)","Авторский (одноголосый закадровый) (Дольский Андрей)"],"quality":"webdl","translation":"Полное дублирование","update":"2021-04-08 12:38:40","iframe_src":"//8209.svetacdn.in/71tsRs29n5tZ/movie/45995"},{"id":6941,"title":"Смерть девушки","kp_id":"938851","imdb_id":"tt4311196","world_art_id":null,"type":"serial","add":"2020-03-19 21:17:17","orig_title":"Tod eines Mädchens","year":"2015-02-09","translations":["Любительский (одноголосый закадровый) (Project Web Mania)"],"seasons_count":1,"episodes_count":2,"episodes":2,"update":"2020-03-20 13:28:05","iframe_src":"//8209.svetacdn.in/71tsRs29n5tZ/tv-series/6941"},{"id":6940,"title":"Три в одном 7","kp_id":"1352421","imdb_id":null,"world_art_id":null,"type":"serial","add":"2020-03-19 21:12:55","orig_title":"Три в одном 7","year":"2020-01-07","translations":["Оригинальная дорожка"],"seasons_count":1,"episodes_count":2,"episodes":2,"update":"2020-03-20 13:06:45","iframe_src":"//8209.svetacdn.in/71tsRs29n5tZ/tv-series/6940"},{"id":6934,"title":"Содержанки 2","kp_id":"1338227","imdb_id":null,"world_art_id":null,"type":"serial","add":"2020-03-19 12:03:36","orig_title":"Содержанки 2","year":"2020-01-30","translations":[],"seasons_count":1,"episodes_count":8,"episodes":8,"update":"2020-03-20 14:42:23","iframe_src":"//8209.svetacdn.in/71tsRs29n5tZ/tv-series/6934"},{"id":6931,"title":"Другая жизнь Анны","kp_id":"1338008","imdb_id":null,"world_art_id":null,"type":"serial","add":"2020-03-18 18:54:27","orig_title":"Другая жизнь Анны","year":"2019-12-16","translations":["Оригинальная дорожка"],"seasons_count":1,"episodes_count":8,"episodes":8,"update":"2020-03-19 04:56:56","iframe_src":"//8209.svetacdn.in/71tsRs29n5tZ/tv-series/6931"},{"id":6925,"title":"Счастливый билет","kp_id":"674614","imdb_id":"tt3989330","world_art_id":null,"type":"serial","add":"2020-03-18 10:40:35","orig_title":"Schastlivyy bilet","year":"2012-02-04","translations":["Оригинальная дорожка"],"seasons_count":1,"episodes_count":8,"episodes":8,"update":"2020-03-18 20:00:45","iframe_src":"//8209.svetacdn.in/71tsRs29n5tZ/tv-series/6925"},{"id":6924,"title":"По-братски","kp_id":"916131","imdb_id":null,"world_art_id":null,"type":"serial","add":"2020-03-18 09:56:32","orig_title":"Brotherhood","year":"2015-06-02","translations":["Профессиональный (многоголосый закадровый) (Paramount Comedy)"],"seasons_count":1,"episodes_count":8,"episodes":8,"update":"2020-03-18 19:51:18","iframe_src":"//8209.svetacdn.in/71tsRs29n5tZ/tv-series/6924"},{"id":6922,"title":"Худшая подруга","kp_id":"1346922","imdb_id":null,"world_art_id":null,"type":"serial","add":"2020-03-18 09:28:11","orig_title":"Худшая подруга","year":"2020-02-03","translations":["Оригинальная дорожка"],"seasons_count":1,"episodes_count":8,"episodes":8,"update":"2020-03-19 10:36:32","iframe_src":"//8209.svetacdn.in/71tsRs29n5tZ/tv-series/6922"},{"id":6918,"title":"Люблю отца и сына","kp_id":"1338489","imdb_id":null,"world_art_id":null,"type":"serial","add":"2020-03-18 06:02:56","orig_title":"Люблю отца и сына","year":"2020-03-16","translations":["Оригинальная дорожка"],"seasons_count":1,"episodes_count":4,"episodes":4,"update":"2020-03-18 20:18:18","iframe_src":"//8209.svetacdn.in/71tsRs29n5tZ/tv-series/6918"},{"id":6915,"title":"Сыщики-любители экстра класса","kp_id":"103558","imdb_id":"tt0066701","world_art_id":null,"type":"serial","add":"2020-03-17 18:17:57","orig_title":"The Persuaders!","year":"1971-09-17","translations":["Профессиональный (многоголосый закадровый)"],"seasons_count":1,"episodes_count":24,"episodes":24,"update":"2020-03-18 19:48:33","iframe_src":"//8209.svetacdn.in/71tsRs29n5tZ/tv-series/6915"},{"id":6914,"title":"Откровения","kp_id":"627275","imdb_id":"tt2345136","world_art_id":null,"type":"serial","add":"2020-03-17 17:45:23","orig_title":"Otkroveniya","year":"2012-08-13","translations":["Оригинальная дорожка"],"seasons_count":1,"episodes_count":22,"episodes":22,"update":"2020-03-18 19:36:31","iframe_src":"//8209.svetacdn.in/71tsRs29n5tZ/tv-series/6914"},{"id":6912,"title":"Дракон: Возвращение воина","kp_id":"1210830","imdb_id":"tt9281190","world_art_id":null,"type":"serial","add":"2020-03-17 14:28:34","orig_title":"El dragón","year":"2019-09-30","translations":["Любительский (многоголосый закадровый) (ColdFilm)"],"seasons_count":1,"episodes_count":38,"episodes":38,"update":"2020-03-18 15:55:15","iframe_src":"//8209.svetacdn.in/71tsRs29n5tZ/tv-series/6912"},{"id":6911,"title":"Должна прийти весна","kp_id":"1209721","imdb_id":"tt9537172","world_art_id":null,"type":"serial","add":"2020-03-17 11:26:41","orig_title":"Bomi ona bom","year":"2019-01-23","translations":["Любительский (двухголосый закадровый) (SoftBox)"],"seasons_count":1,"episodes_count":16,"episodes":16,"update":"2020-03-19 05:13:15","iframe_src":"//8209.svetacdn.in/71tsRs29n5tZ/tv-series/6911"},{"id":6883,"title":"Братство","kp_id":"1236345","imdb_id":"tt8905964","world_art_id":null,"type":"serial","add":"2020-03-15 14:49:29","orig_title":"Irmandade","year":"2019-10-25","translations":["Профессиональный (многоголосый закадровый) (IdeaFilm)"],"seasons_count":1,"episodes_count":8,"episodes":8,"update":"2020-03-19 05:29:54","iframe_src":"//8209.svetacdn.in/71tsRs29n5tZ/tv-series/6883"},{"id":6870,"title":"Вторжение титанов","kp_id":"749374","imdb_id":"tt2560140","world_art_id":null,"type":"serial","add":"2020-03-14 14:32:33","orig_title":"Shingeki no kyojin","year":"2013-04-07","translations":["Полное дублирование"],"seasons_count":3,"episodes_count":58,"episodes":21,"update":"2020-03-19 14:36:36","iframe_src":"//8209.svetacdn.in/71tsRs29n5tZ/tv-series/6870"},{"id":6380,"title":"Стужа","kp_id":"1330639","imdb_id":"tt11426542","world_art_id":null,"type":"serial","add":"2020-01-17 11:56:52","orig_title":"Zemheri","year":"2020-01-15","translations":["Любительский (двухголосый закадровый) (Анастасия Гайдаржи + Андрей Юрченко)","Любительский (одноголосый закадровый) (turok1990)"],"seasons_count":1,"episodes_count":10,"episodes":10,"update":"2020-03-20 13:08:08","iframe_src":"//8209.svetacdn.in/71tsRs29n5tZ/tv-series/6380"},{"id":5693,"title":"Женская версия. Дедушкина внучка","kp_id":"1268419","imdb_id":"tt12599106","world_art_id":null,"type":"serial","add":"2019-11-08 11:32:20","orig_title":"Zhenskaya versiya. Dedushkina vnuchka","year":"2019-03-30","translations":["Оригинальная дорожка"],"seasons_count":1,"episodes_count":4,"episodes":4,"update":"2020-03-19 12:44:50","iframe_src":"//8209.svetacdn.in/71tsRs29n5tZ/tv-series/5693"},{"id":22477,"title":"Ночь в большом городе","kp_id":"7468","imdb_id":"tt0105001","world_art_id":null,"type":"movie","add":"2019-02-23 21:32:11","orig_title":"Night and the City","year":"1992-10-11","translations":["Профессиональный (многоголосый закадровый)","Профессиональный (двухголосый закадровый) (Twister)","Авторский (одноголосый закадровый) (Горчаков Василий)","Original (English)","Профессиональный (двухголосый закадровый) (Союз Видео)","Профессиональный (многоголосый закадровый)"],"quality":"webdl","translation":"Профессиональный (многоголосый закадровый)","update":"2021-04-08 12:01:36","iframe_src":"//8209.svetacdn.in/71tsRs29n5tZ/movie/22477"},{"id":19045,"title":"Похороненные заживо","kp_id":"102776","imdb_id":"tt0099188","world_art_id":null,"type":"movie","add":"2018-09-17 22:49:30","orig_title":"Buried Alive","year":"1990-05-09","translations":["Профессиональный (двухголосый закадровый)","Полное дублирование","Полное дублирование (СТС)","Авторский (одноголосый закадровый) (Визгунов Сергей)","Original (English)","Профессиональный (двухголосый закадровый)"],"quality":"dvdrip","translation":"Профессиональный (двухголосый закадровый)","update":"2021-04-08 12:11:35","iframe_src":"//8209.svetacdn.in/71tsRs29n5tZ/movie/19045"},{"id":2791,"title":"Вера","kp_id":"574444","imdb_id":"tt1693592","world_art_id":null,"type":"serial","add":"2018-06-11 10:57:47","orig_title":"Vera","year":"2011-05-01","translations":["Профессиональный (многоголосый закадровый)","Любительский (одноголосый закадровый) (ko136)","Любительский (одноголосый закадровый) (Project Web Mania)","Профессиональный (многоголосый закадровый) (AMS)","Любительский (двухголосый закадровый) (Sunshine Studio)","Любительский (многоголосый закадровый) (WestFilm)"],"seasons_count":10,"episodes_count":40,"episodes":4,"update":"2020-03-19 04:06:02","iframe_src":"//8209.svetacdn.in/71tsRs29n5tZ/tv-series/2791"},{"id":1533,"title":"Училки","kp_id":"844528","imdb_id":"tt3975368","world_art_id":null,"type":"serial","add":"2017-09-10 07:52:03","orig_title":"Teachers","year":"2016-01-13","translations":["Профессиональный (многоголосый закадровый) (BaibaKo)"],"seasons_count":3,"episodes_count":50,"episodes":20,"update":"2020-03-18 17:35:12","iframe_src":"//8209.svetacdn.in/71tsRs29n5tZ/tv-series/1533"},{"id":868,"title":"Маленькое королевство","kp_id":"567123","imdb_id":"tt1436544","world_art_id":null,"type":"serial","add":"2017-01-12 09:29:10","orig_title":"Ben & Holly's Little Kingdom","year":"2009-01-01","translations":["Полное дублирование"],"seasons_count":2,"episodes_count":103,"episodes":51,"update":"2020-03-19 13:37:09","iframe_src":"//8209.svetacdn.in/71tsRs29n5tZ/tv-series/868"},{"id":6697,"title":"Дрожь земли","kp_id":"18440","imdb_id":"tt0100814","world_art_id":null,"type":"movie","add":"2016-10-26 05:22:55","orig_title":"Tremors","year":"1990-01-19","translations":["Профессиональный (многоголосый закадровый)","Original (English)","Полное дублирование (ТВ3)","Авторский (одноголосый закадровый) (Гаврилов Андрей)","Авторский (одноголосый закадровый) (Горчаков Василий)","Авторский (одноголосый закадровый) (Готлиб Александр)","Авторский (одноголосый закадровый) (Леша-прапорщик)","Авторский (одноголосый закадровый) (Яроцкий Михаил | Kyberpunk)","Авторский (одноголосый закадровый) (Живов Юрий)","Любительский (одноголосый закадровый)","Любительский (одноголосый закадровый) (Попов Алексей)","Профессиональный (двухголосый закадровый) (Первый канал | ОРТ)","Профессиональный (двухголосый закадровый) (Премьер Видео Фильм)","Профессиональный (многоголосый закадровый)","Профессиональный (многоголосый закадровый) (Киномания)","Профессиональный (многоголосый закадровый) (СВ-Дубль)"],"quality":"bd","translation":"Профессиональный (многоголосый закадровый)","update":"2021-04-08 10:16:41","iframe_src":"//8209.svetacdn.in/71tsRs29n5tZ/movie/6697"},{"id":5348,"title":"Тело","kp_id":"609349","imdb_id":"tt1937149","world_art_id":null,"type":"movie","add":"2016-09-19 17:23:12","orig_title":"El cuerpo","year":"2012-10-04","translations":["Авторский (одноголосый закадровый) (Карповский Антон)","Любительский (многоголосый закадровый)","Профессиональный (многоголосый закадровый) (GreenРай Studio)","Полное дублирование (iTunes)"],"quality":"bd","translation":"Авторский (одноголосый закадровый) (Карповский Антон)","update":"2021-04-08 12:41:02","iframe_src":"//8209.svetacdn.in/71tsRs29n5tZ/movie/5348"},{"id":3681,"title":"Мачеха","kp_id":"1949","imdb_id":"tt0120686","world_art_id":null,"type":"movie","add":"2016-07-05 16:03:48","orig_title":"Stepmom","year":"1998-12-15","translations":["Полное дублирование (Невафильм | Нева-1)","Авторский (одноголосый закадровый) (Дольский Андрей)","Авторский (одноголосый закадровый) (Живов Юрий)","Original (English)","Профессиональный (двухголосый закадровый)"],"quality":"bd","translation":"Полное дублирование (Невафильм | Нева-1)","update":"2021-04-08 12:24:57","iframe_src":"//8209.svetacdn.in/71tsRs29n5tZ/movie/3681"},{"id":3293,"title":"Танцующий с волками","kp_id":"2037","imdb_id":"tt0099348","world_art_id":null,"type":"movie","add":"2016-06-21 10:36:58","orig_title":"Dances with Wolves","year":"1990-10-19","translations":["Профессиональный (многоголосый закадровый)","Авторский (одноголосый закадровый) (Михалёв Алексей)","Original (English)","Профессиональный (многоголосый закадровый)","Профессиональный (многоголосый закадровый) (Позитив)"],"quality":"bd","translation":"Профессиональный (многоголосый закадровый)","update":"2021-04-08 12:20:16","iframe_src":"//8209.svetacdn.in/71tsRs29n5tZ/movie/3293"},{"id":2029,"title":"Другие","kp_id":"494","imdb_id":"tt0230600","world_art_id":null,"type":"movie","add":"2016-05-10 16:11:44","orig_title":"The Others","year":"2001-08-02","translations":["Профессиональный (многоголосый закадровый)","Полное дублирование","Авторский (одноголосый закадровый) (Гаврилов Андрей)","Авторский (одноголосый закадровый) (Живов Юрий)","Original (English)","Профессиональный (многоголосый закадровый)"],"quality":"bd","translation":"Профессиональный (многоголосый закадровый)","update":"2021-04-08 12:16:20","iframe_src":"//8209.svetacdn.in/71tsRs29n5tZ/movie/2029"},{"id":72,"title":"Острые козырьки","kp_id":"716587","imdb_id":"tt2442560","world_art_id":null,"type":"serial","add":"2016-05-07 16:19:26","orig_title":"Peaky Blinders","year":"2013-09-12","translations":["Профессиональный (многоголосый закадровый) (AlexFilm)","Профессиональный (многоголосый закадровый) (LostFilm)","Профессиональный (многоголосый закадровый) (HDrezka Studio)","Профессиональный (двухголосый закадровый) (Кубик в Кубе)","Полное дублирование (True Dubbing Studio)","Профессиональный (двухголосый закадровый) (AlexFilm)"],"seasons_count":5,"episodes_count":30,"episodes":6,"update":"2020-03-19 05:23:17","iframe_src":"//8209.svetacdn.in/71tsRs29n5tZ/tv-series/72"},{"id":1149,"title":"Час пик","kp_id":"6345","imdb_id":"tt0120812","world_art_id":null,"type":"movie","add":"2016-04-14 20:26:12","orig_title":"Rush Hour","year":"1998-09-18","translations":["Полное дублирование","Авторский (одноголосый закадровый) (Санаев Павел)","Авторский (одноголосый закадровый) (Живов Юрий)","Полное дублирование","Original (English)","Профессиональный (двухголосый закадровый) (SDI Media)","Профессиональный (многоголосый закадровый) (Первый канал | ОРТ)"],"quality":"bd","translation":"Полное дублирование","update":"2021-04-08 12:32:18","iframe_src":"//8209.svetacdn.in/71tsRs29n5tZ/movie/1149"},{"id":267,"title":"1+1","kp_id":"535341","imdb_id":"tt1675434","world_art_id":null,"type":"movie","add":"2016-03-15 11:32:39","orig_title":"Intouchables","year":"2011-09-23","translations":["Полное дублирование","Авторский (одноголосый закадровый) (Гаврилов Андрей)","Авторский (одноголосый закадровый) (Яроцкий Михаил | Kyberpunk)","Полное дублирование","Профессиональный (двухголосый закадровый) (Ozz.tv)","Профессиональный (многоголосый закадровый) (SDI Media)"],"quality":"bd","translation":"Полное дублирование","update":"2021-04-08 08:22:44","iframe_src":"//8209.svetacdn.in/71tsRs29n5tZ/movie/267"},{"id":79,"title":"Бёрдмэн","kp_id":"722827","imdb_id":"tt2562232","world_art_id":null,"type":"movie","add":"2016-02-09 11:17:10","orig_title":"Birdman or (The Unexpected Virtue of Ignorance)","year":"2014-08-27","translations":["Полное дублирование","Профессиональный (двухголосый закадровый) (Кубик в Кубе)","Авторский (одноголосый закадровый) (Есарев Дмитрий)","Авторский (одноголосый закадровый) (Матвеев Алексей | Doctor Joker)","Полное дублирование","Original (English)"],"quality":"bd","translation":"Полное дублирование","update":"2021-04-08 12:07:55","iframe_src":"//8209.svetacdn.in/71tsRs29n5tZ/movie/79"}],"current_page":289,"first_page_url":"https://videocdn.tv/api/short?limit=100&api_token=EnbO9h8pv1VyjbCJhg0WM9nG259n7mtz&cache3289=3289&page=1","from":28801,"last_page":657,"last_page_url":"https://videocdn.tv/api/short?limit=100&api_token=EnbO9h8pv1VyjbCJhg0WM9nG259n7mtz&cache3289=3289&page=657","next_page_url":"https://videocdn.tv/api/short?limit=100&api_token=EnbO9h8pv1VyjbCJhg0WM9nG259n7mtz&cache3289=3289&page=290","path":"https://videocdn.tv/api/short","per_page":100,"prev_page_url":"https://videocdn.tv/api/short?limit=100&api_token=EnbO9h8pv1VyjbCJhg0WM9nG259n7mtz&cache3289=3289&page=288","to":28840,"total":65633}