{"result":true,"data":[{"id":26505,"title":"Переселенец","kp_id":"591970","imdb_id":null,"world_art_id":null,"type":"movie","add":"2019-05-14 20:17:38","orig_title":"Переселенец","year":"2009-01-01","translations":["Оригинальная дорожка"],"quality":"sat","translation":"Оригинальная дорожка","update":"2019-05-15 12:01:15","iframe_src":"//8543.svetacdn.in/IAF0wWTdNYZm/movie/26505"},{"id":26504,"title":"Золотая голова на плахе","kp_id":"436247","imdb_id":"tt1386504","world_art_id":null,"type":"movie","add":"2019-05-14 20:09:07","orig_title":"Zolotaya golova na plakhe","year":"2005-09-29","translations":["Оригинальная дорожка"],"quality":"dvdrip","translation":"Оригинальная дорожка","update":"2019-05-15 11:59:38","iframe_src":"//8543.svetacdn.in/IAF0wWTdNYZm/movie/26504"},{"id":26503,"title":"Балалайкин и К","kp_id":"636136","imdb_id":"tt6100218","world_art_id":null,"type":"movie","add":"2019-05-14 20:05:50","orig_title":"Balalaykin i Ko","year":"1973-01-01","translations":["Оригинальная дорожка"],"quality":"dvdrip","translation":"Оригинальная дорожка","update":"2019-05-15 11:58:46","iframe_src":"//8543.svetacdn.in/IAF0wWTdNYZm/movie/26503"},{"id":26492,"title":"Маша","kp_id":"694593","imdb_id":"tt3547890","world_art_id":null,"type":"movie","add":"2019-05-14 08:59:06","orig_title":"Masha","year":"2012-01-01","translations":["Оригинальная дорожка"],"quality":"dvdrip","translation":"Оригинальная дорожка","update":"2019-05-15 11:57:01","iframe_src":"//8543.svetacdn.in/IAF0wWTdNYZm/movie/26492"},{"id":26489,"title":"Лунный свет","kp_id":"734192","imdb_id":null,"world_art_id":null,"type":"movie","add":"2019-05-14 08:26:52","orig_title":"Лунный свет","year":"2012-01-01","translations":["Оригинальная дорожка"],"quality":"dvdrip","translation":"Оригинальная дорожка","update":"2019-05-15 11:56:15","iframe_src":"//8543.svetacdn.in/IAF0wWTdNYZm/movie/26489"},{"id":26487,"title":"Московский жиголо","kp_id":"394409","imdb_id":"tt1095405","world_art_id":null,"type":"movie","add":"2019-05-14 08:16:01","orig_title":"Moskovskiy zhigolo","year":"2008-02-14","translations":["Оригинальная дорожка"],"quality":"dvdrip","translation":"Оригинальная дорожка","update":"2019-05-15 11:55:15","iframe_src":"//8543.svetacdn.in/IAF0wWTdNYZm/movie/26487"},{"id":26485,"title":"Неделя до свадьбы","kp_id":"581951","imdb_id":null,"world_art_id":null,"type":"movie","add":"2019-05-14 07:58:23","orig_title":"Неделя до свадьбы","year":"2011-01-01","translations":["Оригинальная дорожка"],"quality":"dvdrip","translation":"Оригинальная дорожка","update":"2019-05-15 11:44:35","iframe_src":"//8543.svetacdn.in/IAF0wWTdNYZm/movie/26485"},{"id":26484,"title":"Никто не знает про секс","kp_id":"161100","imdb_id":"tt0479728","world_art_id":null,"type":"movie","add":"2019-05-14 07:49:50","orig_title":"Nikto ne znaet pro seks","year":"2006-07-27","translations":["Оригинальная дорожка"],"quality":"dvdrip","translation":"Оригинальная дорожка","update":"2019-05-15 11:43:13","iframe_src":"//8543.svetacdn.in/IAF0wWTdNYZm/movie/26484"},{"id":26482,"title":"Новое платье Королевой","kp_id":"660798","imdb_id":"tt3519278","world_art_id":null,"type":"movie","add":"2019-05-14 07:43:17","orig_title":"Novoe plate Korolevoy","year":"2012-01-14","translations":["Оригинальная дорожка"],"quality":"sat","translation":"Оригинальная дорожка","update":"2019-05-15 11:41:33","iframe_src":"//8543.svetacdn.in/IAF0wWTdNYZm/movie/26482"},{"id":26481,"title":"Пойти и не вернуться","kp_id":"461906","imdb_id":"tt4504954","world_art_id":null,"type":"movie","add":"2019-05-14 07:34:37","orig_title":"Poyti i ne vernutsya","year":"1992-01-01","translations":["Оригинальная дорожка"],"quality":"sat","translation":"Оригинальная дорожка","update":"2019-05-15 11:40:43","iframe_src":"//8543.svetacdn.in/IAF0wWTdNYZm/movie/26481"},{"id":26480,"title":"Нюркина жизнь","kp_id":"451395","imdb_id":"tt4681094","world_art_id":null,"type":"movie","add":"2019-05-13 21:36:16","orig_title":"Nyurkina zhizn","year":"1972-12-11","translations":["Оригинальная дорожка"],"quality":"iptv","translation":"Оригинальная дорожка","update":"2019-05-15 11:37:45","iframe_src":"//8543.svetacdn.in/IAF0wWTdNYZm/movie/26480"},{"id":26479,"title":"Оглашению не подлежит","kp_id":"42738","imdb_id":"tt0300287","world_art_id":null,"type":"movie","add":"2019-05-13 21:32:10","orig_title":"Oglasheniyu ne podlezhit","year":"1987-11-01","translations":["Оригинальная дорожка"],"quality":"sat","translation":"Оригинальная дорожка","update":"2019-05-15 11:35:43","iframe_src":"//8543.svetacdn.in/IAF0wWTdNYZm/movie/26479"},{"id":26478,"title":"Охота на лис","kp_id":"42755","imdb_id":"tt0081271","world_art_id":null,"type":"movie","add":"2019-05-13 21:28:30","orig_title":"Okhota na lis","year":"1980-12-22","translations":["Оригинальная дорожка"],"quality":"dvdrip","translation":"Оригинальная дорожка","update":"2019-05-15 10:42:11","iframe_src":"//8543.svetacdn.in/IAF0wWTdNYZm/movie/26478"},{"id":26477,"title":"Осенний лист","kp_id":"708086","imdb_id":null,"world_art_id":null,"type":"movie","add":"2019-05-13 21:25:10","orig_title":"Осенний лист","year":"2012-09-30","translations":["Оригинальная дорожка"],"quality":"webdl","translation":"Оригинальная дорожка","update":"2019-05-15 10:41:17","iframe_src":"//8543.svetacdn.in/IAF0wWTdNYZm/movie/26477"},{"id":26476,"title":"Отряд Трубачёва сражается","kp_id":"42852","imdb_id":"tt0050809","world_art_id":null,"type":"movie","add":"2019-05-13 21:20:34","orig_title":"Otryad Trubachyova srazhayetsya","year":"1957-05-18","translations":["Оригинальная дорожка"],"quality":"dvdrip","translation":"Оригинальная дорожка","update":"2019-05-15 10:39:22","iframe_src":"//8543.svetacdn.in/IAF0wWTdNYZm/movie/26476"},{"id":26475,"title":"Оттепель","kp_id":"445852","imdb_id":"tt3769150","world_art_id":null,"type":"movie","add":"2019-05-13 21:16:58","orig_title":"Ottepel","year":"2008-01-01","translations":["Оригинальная дорожка"],"quality":"dvdrip","translation":"Оригинальная дорожка","update":"2019-05-15 10:38:22","iframe_src":"//8543.svetacdn.in/IAF0wWTdNYZm/movie/26475"},{"id":26474,"title":"Пистолет Страдивари","kp_id":"485223","imdb_id":"tt6861444","world_art_id":null,"type":"movie","add":"2019-05-13 21:13:38","orig_title":"Pistolet Stradivari","year":"2010-07-18","translations":["Оригинальная дорожка"],"quality":"hdtv","translation":"Оригинальная дорожка","update":"2019-05-15 10:36:29","iframe_src":"//8543.svetacdn.in/IAF0wWTdNYZm/movie/26474"},{"id":26473,"title":"Под созвездием Близнецов","kp_id":"43037","imdb_id":"tt0189014","world_art_id":null,"type":"movie","add":"2019-05-13 21:10:06","orig_title":"Pod sozvezdiem bliznetsov","year":"1979-10-01","translations":["Оригинальная дорожка"],"quality":"tv","translation":"Оригинальная дорожка","update":"2019-05-15 10:35:34","iframe_src":"//8543.svetacdn.in/IAF0wWTdNYZm/movie/26473"},{"id":26472,"title":"Пока безумствует мечта","kp_id":"43077","imdb_id":"tt0078098","world_art_id":null,"type":"movie","add":"2019-05-13 21:06:09","orig_title":"Poka bezumstvuyet mechta","year":"1978-01-01","translations":["Оригинальная дорожка"],"quality":"dvdrip","translation":"Оригинальная дорожка","update":"2019-05-15 10:34:30","iframe_src":"//8543.svetacdn.in/IAF0wWTdNYZm/movie/26472"},{"id":26471,"title":"Поэма о море","kp_id":"43065","imdb_id":"tt0053177","world_art_id":null,"type":"movie","add":"2019-05-13 21:03:33","orig_title":"Poema o more","year":"1958-11-04","translations":["Оригинальная дорожка"],"quality":"dvdrip","translation":"Оригинальная дорожка","update":"2019-05-15 10:33:36","iframe_src":"//8543.svetacdn.in/IAF0wWTdNYZm/movie/26471"}],"current_page":1294,"first_page_url":"https://videocdn.tv/api/short?limit=100&api_token=6Onb1W1alEUrBcKJZD3GoKBbWyAl2uG2&cache31294=31294&page=1","from":129301,"last_page":605,"last_page_url":"https://videocdn.tv/api/short?limit=100&api_token=6Onb1W1alEUrBcKJZD3GoKBbWyAl2uG2&cache31294=31294&page=605","next_page_url":null,"path":"https://videocdn.tv/api/short","per_page":100,"prev_page_url":"https://videocdn.tv/api/short?limit=100&api_token=6Onb1W1alEUrBcKJZD3GoKBbWyAl2uG2&cache31294=31294&page=1293","to":129320,"total":60458}