{"result":true,"data":[{"id":41295,"title":"Дыхание в мрамор","kp_id":"1149175","imdb_id":"tt8400850","world_art_id":null,"type":"movie","add":"2020-06-19 19:36:04","orig_title":"Kvepavimas i marmura","year":"2018-03-17","translations":["Любительский (многоголосый закадровый) (Синема УС)"],"quality":"webdl","translation":"Любительский (многоголосый закадровый) (Синема УС)","update":"2020-06-19 21:40:26","iframe_src":"//24213.svetacdn.in/71tsRs29n5tZ/movie/41295"},{"id":41293,"title":"Судмедэксперт","kp_id":"1257736","imdb_id":"tt10187680","world_art_id":null,"type":"movie","add":"2020-06-19 19:34:05","orig_title":"Forensic","year":"2020-02-28","translations":["Любительский (многоголосый закадровый) (Синема УС)"],"quality":"webdl","translation":"Любительский (многоголосый закадровый) (Синема УС)","update":"2020-06-20 05:00:14","iframe_src":"//24213.svetacdn.in/71tsRs29n5tZ/movie/41293"},{"id":41292,"title":"Золотые двадцать лет","kp_id":"1148231","imdb_id":"tt8354304","world_art_id":null,"type":"movie","add":"2020-06-19 19:32:50","orig_title":"Golden Twenties","year":"2019-08-29","translations":["Любительский (многоголосый закадровый) (Синема УС)"],"quality":"webdl","translation":"Любительский (многоголосый закадровый) (Синема УС)","update":"2020-06-19 21:39:41","iframe_src":"//24213.svetacdn.in/71tsRs29n5tZ/movie/41292"},{"id":41290,"title":"Дух: Начало кошмара","kp_id":"1338090","imdb_id":null,"world_art_id":null,"type":"movie","add":"2020-06-19 19:30:20","orig_title":"Hon: gongpoui sijak","year":"2020-02-13","translations":["Любительский (двухголосый закадровый) (Колобок)"],"quality":"webdl","translation":"Любительский (двухголосый закадровый) (Колобок)","update":"2020-06-19 21:39:21","iframe_src":"//24213.svetacdn.in/71tsRs29n5tZ/movie/41290"},{"id":41277,"title":"Белый викинг","kp_id":"77316","imdb_id":"tt0102081","world_art_id":null,"type":"movie","add":"2020-06-19 05:57:50","orig_title":"Hvíti víkingurinn","year":"1991-11-01","translations":["Авторский (одноголосый закадровый) (Сербин Юрий)"],"quality":"dvdrip","translation":"Авторский (одноголосый закадровый) (Сербин Юрий)","update":"2020-06-19 09:59:14","iframe_src":"//24213.svetacdn.in/71tsRs29n5tZ/movie/41277"},{"id":41270,"title":"Призрак","kp_id":"1340335","imdb_id":"tt11569602","world_art_id":null,"type":"movie","add":"2020-06-18 20:20:24","orig_title":"Affraa Taffri","year":"2020-02-14","translations":["Любительский (многоголосый закадровый) (Синема УС)"],"quality":"webdl","translation":"Любительский (многоголосый закадровый) (Синема УС)","update":"2020-06-19 19:02:09","iframe_src":"//24213.svetacdn.in/71tsRs29n5tZ/movie/41270"},{"id":41268,"title":"Будь мужиком","kp_id":null,"imdb_id":"tt10773606","world_art_id":null,"type":"movie","add":"2020-06-18 20:18:29","orig_title":"Kalek Shanab","year":"2019-09-01","translations":["Любительский (многоголосый закадровый) (Синема УС)"],"quality":"webdl","translation":"Любительский (многоголосый закадровый) (Синема УС)","update":"2020-06-19 19:06:14","iframe_src":"//24213.svetacdn.in/71tsRs29n5tZ/movie/41268"},{"id":41267,"title":"Салон Роми","kp_id":"1157388","imdb_id":"tt7865162","world_art_id":null,"type":"movie","add":"2020-06-18 20:17:26","orig_title":"Kapsalon Romy","year":"2019-07-18","translations":["Любительский (многоголосый закадровый) (Синема УС)"],"quality":"webdl","translation":"Любительский (многоголосый закадровый) (Синема УС)","update":"2020-06-19 19:09:30","iframe_src":"//24213.svetacdn.in/71tsRs29n5tZ/movie/41267"},{"id":41266,"title":"Твой ход","kp_id":"1241524","imdb_id":"tt4292432","world_art_id":null,"type":"movie","add":"2020-06-18 20:16:32","orig_title":"Kuessipan","year":"2019-09-06","translations":["Любительский (многоголосый закадровый) (Синема УС)"],"quality":"webdl","translation":"Любительский (многоголосый закадровый) (Синема УС)","update":"2020-06-19 19:08:42","iframe_src":"//24213.svetacdn.in/71tsRs29n5tZ/movie/41266"},{"id":41265,"title":"Дни моей славы","kp_id":"1231823","imdb_id":"tt9625632","world_art_id":null,"type":"movie","add":"2020-06-18 20:15:34","orig_title":"Mes jours de gloire","year":"2019-08-31","translations":["Любительский (многоголосый закадровый) (AlphaProject)"],"quality":"webdl","translation":"Любительский (многоголосый закадровый) (AlphaProject)","update":"2020-06-19 19:10:09","iframe_src":"//24213.svetacdn.in/71tsRs29n5tZ/movie/41265"},{"id":41264,"title":"Неоновое сердце","kp_id":"1057813","imdb_id":"tt7260830","world_art_id":null,"type":"movie","add":"2020-06-18 20:14:23","orig_title":"Neon Heart","year":"2018-09-26","translations":["Любительский (многоголосый закадровый) (Синема УС)"],"quality":"webdl","translation":"Любительский (многоголосый закадровый) (Синема УС)","update":"2020-06-19 19:04:06","iframe_src":"//24213.svetacdn.in/71tsRs29n5tZ/movie/41264"},{"id":41263,"title":"Цвингли","kp_id":"1120384","imdb_id":"tt8251234","world_art_id":null,"type":"movie","add":"2020-06-18 20:13:15","orig_title":"Zwingli","year":"2019-01-17","translations":["Любительский (многоголосый закадровый) (Синема УС)"],"quality":"webdl","translation":"Любительский (многоголосый закадровый) (Синема УС)","update":"2020-06-19 19:06:56","iframe_src":"//24213.svetacdn.in/71tsRs29n5tZ/movie/41263"},{"id":41159,"title":"Пятеро одной крови","kp_id":"1238532","imdb_id":"tt9777644","world_art_id":null,"type":"movie","add":"2020-06-13 19:18:23","orig_title":"Da 5 Bloods","year":"2020-06-12","translations":["Любительский (многоголосый закадровый) (AlphaProject)","Профессиональный (многоголосый закадровый) (HDrezka Studio)","Профессиональный (многоголосый закадровый) (HDrezka Studio)"],"quality":"webdl","translation":"Любительский (многоголосый закадровый) (AlphaProject)","update":"2020-06-19 12:54:30","iframe_src":"//24213.svetacdn.in/71tsRs29n5tZ/movie/41159"},{"id":38537,"title":"Мисс Фрайни Фишер и гробница слёз","kp_id":"1192725","imdb_id":"tt9010738","world_art_id":null,"type":"movie","add":"2020-03-26 11:49:50","orig_title":"Miss Fisher & the Crypt of Tears","year":"2020-02-27","translations":["Любительский (многоголосый закадровый) (Синема УС)","[EN] Original (English)","Профессиональный (двухголосый закадровый) (ViruseProject)"],"quality":"webdl","translation":"Любительский (многоголосый закадровый) (Синема УС)","update":"2020-06-19 21:34:08","iframe_src":"//24213.svetacdn.in/71tsRs29n5tZ/movie/38537"},{"id":30157,"title":"Хорошие мальчики","kp_id":"1128984","imdb_id":"tt7343762","world_art_id":null,"type":"movie","add":"2019-08-21 12:54:13","orig_title":"Good Boys","year":"2019-03-11","translations":["Полное дублирование (iTunes)","[EN] Original (English)","Авторский (одноголосый закадровый) (Гоблин | Пучков Дмитрий)","Авторский (одноголосый закадровый) (Яроцкий Михаил | Kyberpunk)"],"quality":"bd","translation":"Полное дублирование (iTunes)","update":"2020-06-19 13:47:44","iframe_src":"//24213.svetacdn.in/71tsRs29n5tZ/movie/30157"},{"id":21089,"title":"Черное зеркало: Брандашмыг","kp_id":"1224670","imdb_id":"tt9495224","world_art_id":null,"type":"movie","add":"2019-01-01 15:08:06","orig_title":"Black Mirror: Bandersnatch","year":"2018-12-28","translations":["Полное дублирование","Профессиональный (многоголосый закадровый) (LostFilm)","Любительский (многоголосый закадровый)","Профессиональный (многоголосый закадровый) (HDrezka Studio)"],"quality":"webdl","translation":"Полное дублирование","update":"2020-06-19 10:26:49","iframe_src":"//24213.svetacdn.in/71tsRs29n5tZ/movie/21089"},{"id":20873,"title":"Все о Нине","kp_id":"1084610","imdb_id":"tt7542576","world_art_id":null,"type":"movie","add":"2018-12-20 22:30:34","orig_title":"All About Nina","year":"2018-04-22","translations":["Любительский (многоголосый закадровый) (Синема УС)","Полное дублирование","Профессиональный (многоголосый закадровый) (HDrezka Studio)","Профессиональный (многоголосый закадровый) (HDrezka Studio)"],"quality":"webdl","translation":"Любительский (многоголосый закадровый) (Синема УС)","update":"2020-06-19 10:22:54","iframe_src":"//24213.svetacdn.in/71tsRs29n5tZ/movie/20873"},{"id":19483,"title":"Между мирами","kp_id":"1053512","imdb_id":"tt7295450","world_art_id":null,"type":"movie","add":"2018-10-10 22:34:51","orig_title":"Between Worlds","year":"2018-09-22","translations":["Профессиональный (многоголосый закадровый) (iTunes)","[EN] Original (English)","Профессиональный (многоголосый закадровый) (HDrezka Studio)"],"quality":"bd","translation":"Профессиональный (многоголосый закадровый) (iTunes)","update":"2020-06-19 10:27:51","iframe_src":"//24213.svetacdn.in/71tsRs29n5tZ/movie/19483"},{"id":6447,"title":"Кокон","kp_id":"8866","imdb_id":"tt0088933","world_art_id":null,"type":"movie","add":"2016-10-18 14:45:11","orig_title":"Cocoon","year":"1985-06-21","translations":["Профессиональный (многоголосый закадровый)","Полное дублирование","[EN] Original (English)","Полное дублирование","Авторский (одноголосый закадровый) (Гаврилов Андрей)","Профессиональный (многоголосый закадровый)"],"quality":"bd","translation":"Профессиональный (многоголосый закадровый)","update":"2020-06-19 13:53:51","iframe_src":"//24213.svetacdn.in/71tsRs29n5tZ/movie/6447"},{"id":5416,"title":"Космический джем","kp_id":"8169","imdb_id":"tt0117705","world_art_id":null,"type":"movie","add":"2016-09-22 06:05:08","orig_title":"Space Jam","year":"1996-11-10","translations":["Полное дублирование","Профессиональный (многоголосый закадровый) (РенТВ)","[EN] Original (English)","Полное дублирование (Мост-Видео)","Полное дублирование (Варус-Видео)","Авторский (одноголосый закадровый) (Живов Юрий)","Авторский (одноголосый закадровый) (Визгунов Сергей)","Авторский (одноголосый закадровый) (Санаев Павел)","Авторский (одноголосый закадровый) (Кашкин Александр | Первомайский)"],"quality":"bd","translation":"Полное дублирование","update":"2020-06-19 13:46:26","iframe_src":"//24213.svetacdn.in/71tsRs29n5tZ/movie/5416"}],"current_page":1207,"first_page_url":"https://videocdn.tv/api/short?limit=100&api_token=EnbO9h8pv1VyjbCJhg0WM9nG259n7mtz&cache31207=31207&page=1","from":120601,"last_page":728,"last_page_url":"https://videocdn.tv/api/short?limit=100&api_token=EnbO9h8pv1VyjbCJhg0WM9nG259n7mtz&cache31207=31207&page=728","next_page_url":null,"path":"https://videocdn.tv/api/short","per_page":100,"prev_page_url":"https://videocdn.tv/api/short?limit=100&api_token=EnbO9h8pv1VyjbCJhg0WM9nG259n7mtz&cache31207=31207&page=1206","to":120620,"total":72724}