{"result":true,"data":[{"id":31111,"title":"Портреты","kp_id":"1063993","imdb_id":"tt6786948","world_art_id":null,"type":"movie","add":"2019-09-22 19:28:46","orig_title":"Portraits","year":"2018-05-07","translations":["Любительский (многоголосый закадровый) (Синема УС)"],"quality":"webdl","translation":"Любительский (многоголосый закадровый) (Синема УС)","update":"2019-09-23 09:57:53","iframe_src":"//7720.svetacdn.in/IAF0wWTdNYZm/movie/31111"},{"id":31109,"title":"Патент","kp_id":"1045384","imdb_id":null,"world_art_id":null,"type":"movie","add":"2019-09-22 19:22:55","orig_title":"Патент","year":"2017-01-01","translations":["Оригинальная дорожка"],"quality":"hdtv","translation":"Оригинальная дорожка","update":"2019-09-23 09:58:55","iframe_src":"//7720.svetacdn.in/IAF0wWTdNYZm/movie/31109"},{"id":31067,"title":"Услуга","kp_id":"596445","imdb_id":"tt1971397","world_art_id":null,"type":"movie","add":"2019-09-22 14:52:15","orig_title":"Favor","year":"2013-04-05","translations":["Любительский (одноголосый закадровый) (datynet | Агапов Антон)"],"quality":"webdl","translation":"Любительский (одноголосый закадровый) (datynet | Агапов Антон)","update":"2019-09-23 09:53:45","iframe_src":"//7720.svetacdn.in/IAF0wWTdNYZm/movie/31067"},{"id":31066,"title":"Уик-Энд в Августе","kp_id":"1179931","imdb_id":"tt8806710","world_art_id":null,"type":"movie","add":"2019-09-22 14:38:57","orig_title":"Ein Wochenende im August","year":"2019-08-03","translations":["Любительский (многоголосый закадровый) (Синема УС)"],"quality":"hdtv","translation":"Любительский (многоголосый закадровый) (Синема УС)","update":"2019-09-23 09:38:09","iframe_src":"//7720.svetacdn.in/IAF0wWTdNYZm/movie/31066"},{"id":31065,"title":"Призрачный патруль","kp_id":"826382","imdb_id":"tt3503068","world_art_id":null,"type":"movie","add":"2019-09-22 14:36:36","orig_title":"Deadtectives","year":"2018-10-01","translations":["Любительский (многоголосый закадровый) (Синема УС)"],"quality":"webdl","translation":"Любительский (многоголосый закадровый) (Синема УС)","update":"2019-09-23 09:39:06","iframe_src":"//7720.svetacdn.in/IAF0wWTdNYZm/movie/31065"},{"id":31063,"title":"Голубой янтарь","kp_id":"1163498","imdb_id":"tt8384298","world_art_id":null,"type":"movie","add":"2019-09-22 14:28:42","orig_title":"Dan lan hu po","year":"2018-06-28","translations":["Любительский (многоголосый закадровый) (Колобок)"],"quality":"webdl","translation":"Любительский (многоголосый закадровый) (Колобок)","update":"2019-09-23 09:49:33","iframe_src":"//7720.svetacdn.in/IAF0wWTdNYZm/movie/31063"},{"id":31051,"title":"Бумажный детектив: С первого взгляда","kp_id":"258554","imdb_id":"tt0487264","world_art_id":null,"type":"movie","add":"2019-09-20 21:21:34","orig_title":"Mystery Woman: At First Sight","year":"2006-01-21","translations":["Профессиональный (многоголосый закадровый)"],"quality":"hdtv","translation":"Профессиональный (многоголосый закадровый)","update":"2019-09-23 11:01:59","iframe_src":"//7720.svetacdn.in/IAF0wWTdNYZm/movie/31051"},{"id":31050,"title":"Бумажный детектив: Секрет игры","kp_id":"258374","imdb_id":"tt0466388","world_art_id":null,"type":"movie","add":"2019-09-20 21:19:55","orig_title":"Mystery Woman: Game Time","year":"2005-08-21","translations":["Профессиональный (многоголосый закадровый)"],"quality":"hdtv","translation":"Профессиональный (многоголосый закадровый)","update":"2019-09-23 10:58:59","iframe_src":"//7720.svetacdn.in/IAF0wWTdNYZm/movie/31050"},{"id":31049,"title":"Таинственная женщина: Искупление","kp_id":"364481","imdb_id":"tt0453382","world_art_id":null,"type":"movie","add":"2019-09-20 21:18:29","orig_title":"Mystery Woman: Redemption","year":"2006-08-22","translations":["Профессиональный (многоголосый закадровый)"],"quality":"hdtv","translation":"Профессиональный (многоголосый закадровый)","update":"2019-09-23 10:58:27","iframe_src":"//7720.svetacdn.in/IAF0wWTdNYZm/movie/31049"},{"id":31048,"title":"Бумажный детектив: Предвидение убийства","kp_id":"258323","imdb_id":"tt0439719","world_art_id":null,"type":"movie","add":"2019-09-20 21:16:55","orig_title":"Mystery Woman: Vision of a Murder","year":"2005-06-05","translations":["Профессиональный (многоголосый закадровый)"],"quality":"hdtv","translation":"Профессиональный (многоголосый закадровый)","update":"2019-09-23 10:57:40","iframe_src":"//7720.svetacdn.in/IAF0wWTdNYZm/movie/31048"},{"id":31047,"title":"Люди в белом","kp_id":"295412","imdb_id":"tt0156789","world_art_id":null,"type":"movie","add":"2019-09-20 21:16:07","orig_title":"Men in White","year":"1998-08-16","translations":["Полное дублирование"],"quality":"sat","translation":"Полное дублирование","update":"2019-09-23 10:57:04","iframe_src":"//7720.svetacdn.in/IAF0wWTdNYZm/movie/31047"},{"id":31046,"title":"Таинственная женщина: Песнь об убийстве","kp_id":"258324","imdb_id":"tt0433604","world_art_id":null,"type":"movie","add":"2019-09-20 21:15:27","orig_title":"Mystery Woman: Sing Me a Murder","year":"2005-02-25","translations":["Профессиональный (многоголосый закадровый)"],"quality":"hdtv","translation":"Профессиональный (многоголосый закадровый)","update":"2019-09-23 10:55:40","iframe_src":"//7720.svetacdn.in/IAF0wWTdNYZm/movie/31046"},{"id":31045,"title":"Бумажный детектив: Роковые снимки","kp_id":"258325","imdb_id":"tt0427575","world_art_id":null,"type":"movie","add":"2019-09-20 21:13:56","orig_title":"Mystery Woman: Snapshot","year":"2005-01-28","translations":["Профессиональный (многоголосый закадровый)"],"quality":"hdtv","translation":"Профессиональный (многоголосый закадровый)","update":"2019-09-23 10:55:05","iframe_src":"//7720.svetacdn.in/IAF0wWTdNYZm/movie/31045"},{"id":31043,"title":"Бумажный детектив: Таинственный уик-энд","kp_id":"258326","imdb_id":"tt0427576","world_art_id":null,"type":"movie","add":"2019-09-20 21:08:10","orig_title":"Mystery Woman: Mystery Weekend","year":"2005-01-07","translations":["Профессиональный (многоголосый закадровый)"],"quality":"hdtv","translation":"Профессиональный (многоголосый закадровый)","update":"2019-09-23 10:52:42","iframe_src":"//7720.svetacdn.in/IAF0wWTdNYZm/movie/31043"},{"id":31042,"title":"Соблазнение Джо Тайнана","kp_id":"1903","imdb_id":"tt0079875","world_art_id":null,"type":"movie","add":"2019-09-20 20:57:28","orig_title":"The Seduction of Joe Tynan","year":"1979-08-17","translations":["Профессиональный (многоголосый закадровый)"],"quality":"dvdrip","translation":"Профессиональный (многоголосый закадровый)","update":"2019-09-23 10:51:54","iframe_src":"//7720.svetacdn.in/IAF0wWTdNYZm/movie/31042"},{"id":31036,"title":"Субира","kp_id":"1194564","imdb_id":"tt9019698","world_art_id":null,"type":"movie","add":"2019-09-20 20:47:12","orig_title":"Subira","year":"2017-10-10","translations":["Любительский (многоголосый закадровый) (Синема УС)"],"quality":"webdl","translation":"Любительский (многоголосый закадровый) (Синема УС)","update":"2019-09-23 10:43:03","iframe_src":"//7720.svetacdn.in/IAF0wWTdNYZm/movie/31036"},{"id":31028,"title":"Хороший мальчик","kp_id":"482423","imdb_id":"tt1533013","world_art_id":null,"type":"movie","add":"2019-09-20 20:32:29","orig_title":"Beautiful Boy","year":"2010-09-12","translations":["Профессиональный (двухголосый закадровый) (НТВ)"],"quality":"bd","translation":"Профессиональный (двухголосый закадровый) (НТВ)","update":"2019-09-23 10:41:38","iframe_src":"//7720.svetacdn.in/IAF0wWTdNYZm/movie/31028"},{"id":31025,"title":"Жёсткая краска","kp_id":"1112729","imdb_id":"tt7925066","world_art_id":null,"type":"movie","add":"2019-09-20 20:24:01","orig_title":"Tinta Bruta","year":"2018-02-18","translations":["Любительский (многоголосый закадровый) (Синема УС)"],"quality":"dvdrip","translation":"Любительский (многоголосый закадровый) (Синема УС)","update":"2019-09-23 10:10:15","iframe_src":"//7720.svetacdn.in/IAF0wWTdNYZm/movie/31025"},{"id":31024,"title":"Не навреди","kp_id":"102765","imdb_id":"tt0118526","world_art_id":null,"type":"movie","add":"2019-09-20 20:20:06","orig_title":"...First Do No Harm","year":"1997-02-16","translations":["Авторский (одноголосый закадровый) (Алексеев Антон)"],"quality":"dvdrip","translation":"Авторский (одноголосый закадровый) (Алексеев Антон)","update":"2019-09-23 10:09:16","iframe_src":"//7720.svetacdn.in/IAF0wWTdNYZm/movie/31024"},{"id":31019,"title":"Беспокойное сердце","kp_id":"1896","imdb_id":"tt0089816","world_art_id":null,"type":"movie","add":"2019-09-20 20:02:40","orig_title":"Plenty","year":"1985-09-10","translations":["Профессиональный (многоголосый закадровый)"],"quality":"dvdrip","translation":"Профессиональный (многоголосый закадровый)","update":"2019-09-23 10:08:30","iframe_src":"//7720.svetacdn.in/IAF0wWTdNYZm/movie/31019"}],"current_page":1288,"first_page_url":"https://videocdn.tv/api/short?limit=100&api_token=6Onb1W1alEUrBcKJZD3GoKBbWyAl2uG2&cache31288=31288&page=1","from":128701,"last_page":652,"last_page_url":"https://videocdn.tv/api/short?limit=100&api_token=6Onb1W1alEUrBcKJZD3GoKBbWyAl2uG2&cache31288=31288&page=652","next_page_url":null,"path":"https://videocdn.tv/api/short","per_page":100,"prev_page_url":"https://videocdn.tv/api/short?limit=100&api_token=6Onb1W1alEUrBcKJZD3GoKBbWyAl2uG2&cache31288=31288&page=1287","to":128720,"total":65180}