{"result":true,"data":[{"id":48198,"title":"Грусть","kp_id":null,"imdb_id":"tt13682306","world_art_id":null,"type":"movie","add":"2021-02-23 16:45:44","orig_title":"Blue","year":"2020-02-07","translations":["Любительский (многоголосый закадровый) (Синема УС)"],"quality":"webdl","translation":"Любительский (многоголосый закадровый) (Синема УС)","update":"2021-02-23 20:02:53","iframe_src":"//5322.svetacdn.in/71tsRs29n5tZ/movie/48198"},{"id":48190,"title":"Под каменным небом","kp_id":"42523","imdb_id":"tt0234944","world_art_id":null,"type":"movie","add":"2021-02-23 12:50:24","orig_title":"Under en steinhimmel","year":"1974-10-25","translations":["Оригинальная дорожка"],"quality":"dvdrip","translation":"Оригинальная дорожка","update":"2021-02-23 19:30:11","iframe_src":"//5322.svetacdn.in/71tsRs29n5tZ/movie/48190"},{"id":48187,"title":"Петух Дудл-Ду","kp_id":"725435","imdb_id":"tt2476096","world_art_id":null,"type":"movie","add":"2021-02-23 12:30:31","orig_title":"Le Coq de St-Victor","year":"2014-02-21","translations":["Полное дублирование (iTunes)"],"quality":"webdl","translation":"Полное дублирование (iTunes)","update":"2021-02-24 06:16:56","iframe_src":"//5322.svetacdn.in/71tsRs29n5tZ/movie/48187"},{"id":48177,"title":"Ни одна ночь не станет долгой","kp_id":"337501","imdb_id":"tt0313410","world_art_id":null,"type":"movie","add":"2021-02-23 09:00:20","orig_title":"No Night Is Too Long","year":"2002-12-27","translations":["Original (English)","Любительский (одноголосый закадровый)"],"quality":"dvdrip","translation":"Original (English)","update":"2021-02-23 19:33:12","iframe_src":"//5322.svetacdn.in/71tsRs29n5tZ/movie/48177"},{"id":48176,"title":"Во имя...","kp_id":"732587","imdb_id":"tt2650642","world_art_id":null,"type":"movie","add":"2021-02-23 08:38:50","orig_title":"W imie...","year":"2013-02-08","translations":["Авторский (одноголосый закадровый) (Кошкин Василий)"],"quality":"dvdrip","translation":"Авторский (одноголосый закадровый) (Кошкин Василий)","update":"2021-02-23 19:37:59","iframe_src":"//5322.svetacdn.in/71tsRs29n5tZ/movie/48176"},{"id":43857,"title":"Преданная","kp_id":"1330544","imdb_id":"tt11402054","world_art_id":null,"type":"movie","add":"2020-09-25 19:13:52","orig_title":"Viddana","year":"2020-01-16","translations":["Профессиональный (многоголосый закадровый)","Профессиональный (двухголосый закадровый)"],"quality":"webdl","translation":"Профессиональный (многоголосый закадровый)","update":"2021-02-23 16:03:44","iframe_src":"//5322.svetacdn.in/71tsRs29n5tZ/movie/43857"},{"id":7290,"title":"Дела невиновных","kp_id":"1355773","imdb_id":"tt11958922","world_art_id":null,"type":"serial","add":"2020-04-24 21:38:23","orig_title":"The Innocence Files","year":"2020-04-15","translations":["Профессиональный (двухголосый закадровый) (IdeaFilm)"],"seasons_count":1,"episodes_count":9,"episodes":9,"update":"2020-04-25 07:10:22","iframe_src":"//5322.svetacdn.in/71tsRs29n5tZ/tv-series/7290"},{"id":7289,"title":"Любовь 101","kp_id":"1281911","imdb_id":"tt10516352","world_art_id":null,"type":"serial","add":"2020-04-24 14:42:09","orig_title":"Ask 101","year":"2020-04-24","translations":["Любительский (многоголосый закадровый) (Octopus)"],"seasons_count":1,"episodes_count":8,"episodes":8,"update":"2020-04-25 16:21:54","iframe_src":"//5322.svetacdn.in/71tsRs29n5tZ/tv-series/7289"},{"id":7288,"title":"Внутри убийцы: разум Аарона Эрнандеса","kp_id":"1354110","imdb_id":"tt11475228","world_art_id":null,"type":"serial","add":"2020-04-24 12:25:42","orig_title":"Killer Inside: The Mind of Aaron Hernandez","year":"2020-01-15","translations":["Профессиональный (многоголосый закадровый) (HDrezka Studio)"],"seasons_count":1,"episodes_count":3,"episodes":3,"update":"2020-04-25 14:28:19","iframe_src":"//5322.svetacdn.in/71tsRs29n5tZ/tv-series/7288"},{"id":7279,"title":"Воспитывая Хоуп","kp_id":"502312","imdb_id":"tt1615919","world_art_id":null,"type":"serial","add":"2020-04-22 20:01:58","orig_title":"Raising Hope","year":"2010-09-21","translations":["Полное дублирование (Paramount Comedy)"],"seasons_count":4,"episodes_count":88,"episodes":22,"update":"2020-04-24 13:26:40","iframe_src":"//5322.svetacdn.in/71tsRs29n5tZ/tv-series/7279"},{"id":7276,"title":"Операция \"Тихий океан\"","kp_id":"1347524","imdb_id":"tt10367698","world_art_id":null,"type":"serial","add":"2020-04-22 12:49:11","orig_title":"Operación Pacífico","year":"2020-02-10","translations":["Любительский (многоголосый закадровый) (Octopus)"],"seasons_count":1,"episodes_count":44,"episodes":44,"update":"2020-04-24 16:33:10","iframe_src":"//5322.svetacdn.in/71tsRs29n5tZ/tv-series/7276"},{"id":7274,"title":"Дежурный ангел","kp_id":"567168","imdb_id":null,"world_art_id":null,"type":"serial","add":"2020-04-22 12:23:36","orig_title":"Dejurniy angel","year":"2010-10-01","translations":["Оригинальная дорожка"],"seasons_count":1,"episodes_count":16,"episodes":16,"update":"2020-04-24 12:06:24","iframe_src":"//5322.svetacdn.in/71tsRs29n5tZ/tv-series/7274"},{"id":7267,"title":"Двое из ларца 2","kp_id":"400112","imdb_id":"tt4757638","world_art_id":null,"type":"serial","add":"2020-04-22 11:22:12","orig_title":"Dvoe iz lartsa 2","year":"2008-10-20","translations":["Оригинальная дорожка"],"seasons_count":1,"episodes_count":12,"episodes":12,"update":"2020-04-24 12:00:52","iframe_src":"//5322.svetacdn.in/71tsRs29n5tZ/tv-series/7267"},{"id":7265,"title":"Двое из ларца","kp_id":"400113","imdb_id":"tt4760498","world_art_id":null,"type":"serial","add":"2020-04-22 11:17:34","orig_title":"Dvoe iz lartsa","year":"2010-07-08","translations":["Оригинальная дорожка"],"seasons_count":1,"episodes_count":12,"episodes":12,"update":"2020-04-24 11:55:30","iframe_src":"//5322.svetacdn.in/71tsRs29n5tZ/tv-series/7265"},{"id":7218,"title":"Консультант","kp_id":null,"imdb_id":"tt10899022","world_art_id":null,"type":"serial","add":"2020-04-17 12:52:09","orig_title":"Konsultant","year":"2020-04-13","translations":["Оригинальная дорожка"],"seasons_count":1,"episodes_count":16,"episodes":16,"update":"2020-04-25 10:14:39","iframe_src":"//5322.svetacdn.in/71tsRs29n5tZ/tv-series/7218"},{"id":7161,"title":"Монстры против пришельцев","kp_id":"750063","imdb_id":"tt2782214","world_art_id":null,"type":"serial","add":"2020-04-12 11:06:25","orig_title":"Monsters vs. Aliens","year":"2013-03-23","translations":["Полное дублирование"],"seasons_count":1,"episodes_count":26,"episodes":26,"update":"2020-04-24 19:09:30","iframe_src":"//5322.svetacdn.in/71tsRs29n5tZ/tv-series/7161"},{"id":7157,"title":"Инстинкт выживания","kp_id":null,"imdb_id":"tt5538644","world_art_id":null,"type":"serial","add":"2020-04-10 15:59:49","orig_title":"Primal Survivor","year":"2016-01-21","translations":["Профессиональный (одноголосый закадровый)"],"seasons_count":1,"episodes_count":8,"episodes":8,"update":"2020-04-24 18:50:29","iframe_src":"//5322.svetacdn.in/71tsRs29n5tZ/tv-series/7157"},{"id":7156,"title":"Гонка","kp_id":"280528","imdb_id":"tt0770521","world_art_id":null,"type":"serial","add":"2020-04-10 15:33:22","orig_title":"Drive","year":"2007-01-01","translations":["Профессиональный (многоголосый закадровый) (NovaFilm)"],"seasons_count":1,"episodes_count":6,"episodes":6,"update":"2020-04-24 18:38:47","iframe_src":"//5322.svetacdn.in/71tsRs29n5tZ/tv-series/7156"},{"id":6974,"title":"Бекстрём","kp_id":"1256243","imdb_id":"tt10068932","world_art_id":null,"type":"serial","add":"2020-03-24 06:37:28","orig_title":"Bäckström","year":"2020-03-23","translations":["Любительский (многоголосый закадровый) (Octopus)","Любительский (многоголосый закадровый) (ColdFilm)"],"seasons_count":1,"episodes_count":6,"episodes":6,"update":"2020-04-25 07:14:53","iframe_src":"//5322.svetacdn.in/71tsRs29n5tZ/tv-series/6974"},{"id":6891,"title":"Босс","kp_id":"591861","imdb_id":"tt1833285","world_art_id":null,"type":"serial","add":"2020-03-16 08:45:32","orig_title":"Boss","year":"2011-10-21","translations":["Профессиональный (двухголосый закадровый) (NewStudio)","Профессиональный (многоголосый закадровый) (Sony Turbo)"],"seasons_count":2,"episodes_count":18,"episodes":10,"update":"2020-04-24 16:38:31","iframe_src":"//5322.svetacdn.in/71tsRs29n5tZ/tv-series/6891"},{"id":36763,"title":"Двенадцать","kp_id":"1199014","imdb_id":"tt9048840","world_art_id":null,"type":"movie","add":"2020-02-22 11:07:45","orig_title":"Twelve","year":"2020-01-27","translations":["Профессиональный (многоголосый закадровый) (HDrezka Studio)","Original (English)","Любительский (многоголосый закадровый) (@MUZOBOZ@)"],"quality":"webdl","translation":"Профессиональный (многоголосый закадровый) (HDrezka Studio)","update":"2021-02-23 19:36:14","iframe_src":"//5322.svetacdn.in/71tsRs29n5tZ/movie/36763"},{"id":6254,"title":"Истории о Боге с Морганом Фриманом","kp_id":"957918","imdb_id":"tt5242220","world_art_id":null,"type":"serial","add":"2020-01-06 16:48:55","orig_title":"The Story of God with Morgan Freeman","year":"2016-04-03","translations":["Профессиональный (одноголосый закадровый)","Любительский (двухголосый закадровый) (KosharaSerials)"],"seasons_count":3,"episodes_count":15,"episodes":6,"update":"2020-04-24 19:00:24","iframe_src":"//5322.svetacdn.in/71tsRs29n5tZ/tv-series/6254"},{"id":25995,"title":"Присягнувшая тьме","kp_id":"788669","imdb_id":"tt3111516","world_art_id":null,"type":"movie","add":"2019-05-04 21:25:36","orig_title":"The Convent","year":"2018-08-25","translations":["Полное дублирование","Original (English)","Профессиональный (многоголосый закадровый) (HDrezka Studio)"],"quality":"bd","translation":"Полное дублирование","update":"2021-02-23 14:41:45","iframe_src":"//5322.svetacdn.in/71tsRs29n5tZ/movie/25995"},{"id":23513,"title":"Чрево кита","kp_id":"802292","imdb_id":"tt3180548","world_art_id":null,"type":"movie","add":"2019-03-26 22:15:21","orig_title":"The Belly of the Whale","year":"2018-07-10","translations":["Любительский (многоголосый закадровый) (Синема УС)","Профессиональный (многоголосый закадровый) (HDrezka Studio)","Профессиональный (многоголосый закадровый) (HDrezka Studio)"],"quality":"webdl","translation":"Любительский (многоголосый закадровый) (Синема УС)","update":"2021-02-23 14:43:49","iframe_src":"//5322.svetacdn.in/71tsRs29n5tZ/movie/23513"},{"id":22485,"title":"Яйцеклетка","kp_id":"1048501","imdb_id":"tt7317324","world_art_id":null,"type":"movie","add":"2019-02-23 21:59:43","orig_title":"Egg","year":"2018-04-21","translations":["Профессиональный (многоголосый закадровый) (HDrezka Studio)"],"quality":"webdl","translation":"Профессиональный (многоголосый закадровый) (HDrezka Studio)","update":"2021-02-23 14:44:05","iframe_src":"//5322.svetacdn.in/71tsRs29n5tZ/movie/22485"},{"id":22111,"title":"Голем: Начало","kp_id":"1133347","imdb_id":"tt8329290","world_art_id":null,"type":"movie","add":"2019-02-06 22:24:37","orig_title":"The Golem","year":"2018-08-27","translations":["Полное дублирование","Original (English)","Профессиональный (многоголосый закадровый) (HDrezka Studio)"],"quality":"bd","translation":"Полное дублирование","update":"2021-02-23 14:42:39","iframe_src":"//5322.svetacdn.in/71tsRs29n5tZ/movie/22111"},{"id":3966,"title":"Королевство","kp_id":"1039674","imdb_id":"tt6611916","world_art_id":null,"type":"serial","add":"2019-01-28 06:12:14","orig_title":"Kingdom","year":"2019-01-25","translations":["Профессиональный (многоголосый закадровый) (IdeaFilm)","Профессиональный (многоголосый закадровый) (LostFilm)","Профессиональный (многоголосый закадровый) (HDrezka Studio)","Любительский (многоголосый закадровый) (ColdFilm)","Любительский (многоголосый закадровый) (Octopus)","Профессиональный (двухголосый закадровый) (Gears Media)","Профессиональный (многоголосый закадровый) (NewStudio)"],"seasons_count":2,"episodes_count":12,"episodes":6,"update":"2020-04-25 10:13:20","iframe_src":"//5322.svetacdn.in/71tsRs29n5tZ/tv-series/3966"},{"id":19943,"title":"Агентство расставаний","kp_id":"1087624","imdb_id":"tt6728096","world_art_id":null,"type":"movie","add":"2018-11-03 23:13:09","orig_title":"The Breaker Upperers","year":"2018-03-10","translations":["Профессиональный (многоголосый закадровый) (HDrezka Studio)"],"quality":"webdl","translation":"Профессиональный (многоголосый закадровый) (HDrezka Studio)","update":"2021-02-23 14:44:19","iframe_src":"//5322.svetacdn.in/71tsRs29n5tZ/movie/19943"},{"id":19903,"title":"Фантоцци","kp_id":"103355","imdb_id":"tt0071486","world_art_id":null,"type":"movie","add":"2018-11-01 12:28:58","orig_title":"Fantozzi","year":"1975-03-27","translations":["Профессиональный (многоголосый закадровый)","Авторский (одноголосый закадровый) (Козлов Сергей)","Профессиональный (многоголосый закадровый)","Профессиональный (многоголосый закадровый) (Первый канал | ОРТ)"],"quality":"webdl","translation":"Профессиональный (многоголосый закадровый)","update":"2021-02-23 15:26:25","iframe_src":"//5322.svetacdn.in/71tsRs29n5tZ/movie/19903"},{"id":2997,"title":"Уилл и Грейс","kp_id":"256421","imdb_id":"tt0157246","world_art_id":null,"type":"serial","add":"2018-08-04 08:08:06","orig_title":"Will & Grace","year":"1998-09-21","translations":["Профессиональный (многоголосый закадровый) (SET)","Любительский (одноголосый закадровый)","Любительский (одноголосый закадровый) (Журавлев Владимир)","Любительский (двухголосый закадровый) (GoldTeam)","Любительский (многоголосый закадровый) (ColdFilm)","Профессиональный (многоголосый закадровый) (TVShows)","Любительский (многоголосый закадровый) (Octopus)"],"seasons_count":11,"episodes_count":239,"episodes":18,"update":"2020-04-25 10:13:47","iframe_src":"//5322.svetacdn.in/71tsRs29n5tZ/tv-series/2997"},{"id":16726,"title":"Дом на пляже","kp_id":"1099920","imdb_id":"tt7598968","world_art_id":null,"type":"movie","add":"2018-05-10 19:52:02","orig_title":"The Beach House","year":"2018-04-28","translations":["Профессиональный (многоголосый закадровый) (HDrezka Studio)"],"quality":"webdl","translation":"Профессиональный (многоголосый закадровый) (HDrezka Studio)","update":"2021-02-23 14:42:54","iframe_src":"//5322.svetacdn.in/71tsRs29n5tZ/movie/16726"},{"id":7368,"title":"Мороз по коже","kp_id":"1007521","imdb_id":"tt13295956","world_art_id":null,"type":"movie","add":"2016-11-13 07:59:14","orig_title":"Moroz po kozhe","year":"2016-11-11","translations":["Оригинальная дорожка","Оригинальная дорожка","Оригинальная дорожка"],"quality":"sat","translation":"Оригинальная дорожка","update":"2021-02-23 16:09:19","iframe_src":"//5322.svetacdn.in/71tsRs29n5tZ/movie/7368"},{"id":6733,"title":"Монахини в бегах","kp_id":"6589","imdb_id":"tt0100280","world_art_id":null,"type":"movie","add":"2016-10-27 05:41:41","orig_title":"Nuns on the Run","year":"1990-03-16","translations":["Профессиональный (многоголосый закадровый)","Любительский (одноголосый закадровый)","Original (English)","Профессиональный (двухголосый закадровый) (Кипарис)","Профессиональный (многоголосый закадровый)","Профессиональный (многоголосый закадровый) (5-й канал СПб)"],"quality":"hdtv","translation":"Профессиональный (многоголосый закадровый)","update":"2021-02-23 14:50:33","iframe_src":"//5322.svetacdn.in/71tsRs29n5tZ/movie/6733"},{"id":4797,"title":"На самом дне океана","kp_id":"6546","imdb_id":"tt0120646","world_art_id":null,"type":"movie","add":"2016-08-29 08:28:33","orig_title":"The Deep End of the Ocean","year":"1999-03-12","translations":["Профессиональный (многоголосый закадровый)","Любительский (одноголосый закадровый) (Антонов Николай)","Авторский (одноголосый закадровый) (Кашкин Александр | Первомайский)","Original (English)","Профессиональный (многоголосый закадровый) (Первый канал | ОРТ)","Профессиональный (многоголосый закадровый) (Видеосервис)"],"quality":"webdl","translation":"Профессиональный (многоголосый закадровый)","update":"2021-02-23 16:01:37","iframe_src":"//5322.svetacdn.in/71tsRs29n5tZ/movie/4797"},{"id":257,"title":"Шиттс Крик","kp_id":"869554","imdb_id":"tt3526078","world_art_id":null,"type":"serial","add":"2016-07-05 12:43:48","orig_title":"Schitt's Creek","year":"2015-01-13","translations":["Профессиональный (многоголосый закадровый) (ViruseProject)","Профессиональный (двухголосый закадровый) (ViruseProject)","Любительский (многоголосый закадровый) (ColdFilm)","Любительский (двухголосый закадровый) (GoldTeam)","Профессиональный (многоголосый закадровый) (TVShows)","Профессиональный (двухголосый закадровый) (IdeaFilm)","Профессиональный (двухголосый закадровый) (Gears Media)","Профессиональный (многоголосый закадровый) (IdeaFilm)"],"seasons_count":6,"episodes_count":80,"episodes":14,"update":"2020-04-25 11:55:37","iframe_src":"//5322.svetacdn.in/71tsRs29n5tZ/tv-series/257"},{"id":175,"title":"Эш против Зловещих мертвецов","kp_id":"855898","imdb_id":"tt4189022","world_art_id":null,"type":"serial","add":"2016-06-13 04:41:49","orig_title":"Ash vs Evil Dead","year":"2015-10-31","translations":["Профессиональный (двухголосый закадровый) (Кубик в Кубе)","Авторский (одноголосый закадровый) (Гоблин | Пучков Дмитрий)","Профессиональный (многоголосый закадровый) (NewStudio)"],"seasons_count":3,"episodes_count":30,"episodes":10,"update":"2020-04-24 19:19:42","iframe_src":"//5322.svetacdn.in/71tsRs29n5tZ/tv-series/175"},{"id":79,"title":"Рэй Донован","kp_id":"667871","imdb_id":"tt2249007","world_art_id":null,"type":"serial","add":"2016-05-16 09:26:36","orig_title":"Ray Donovan","year":"2013-06-18","translations":["Профессиональный (многоголосый закадровый) (NewStudio)","Профессиональный (многоголосый закадровый) (Amedia)","Профессиональный (многоголосый закадровый) (TVShows)","Профессиональный (многоголосый закадровый) (BaibaKo)","Профессиональный (многоголосый закадровый) (Jaskier)","Профессиональный (многоголосый закадровый) (IdeaFilm)"],"seasons_count":7,"episodes_count":82,"episodes":10,"update":"2020-04-24 18:42:01","iframe_src":"//5322.svetacdn.in/71tsRs29n5tZ/tv-series/79"},{"id":2139,"title":"Тренер Картер","kp_id":"77531","imdb_id":"tt0393162","world_art_id":null,"type":"movie","add":"2016-05-12 18:20:55","orig_title":"Coach Carter","year":"2005-01-15","translations":["Профессиональный (многоголосый закадровый)","Авторский (одноголосый закадровый) (Рудой Евгений)","Авторский (одноголосый закадровый) (Яроцкий Михаил | Kyberpunk)","Original (English)","Профессиональный (многоголосый закадровый)","Профессиональный (двухголосый закадровый)"],"quality":"bd","translation":"Профессиональный (многоголосый закадровый)","update":"2021-02-23 15:51:40","iframe_src":"//5322.svetacdn.in/71tsRs29n5tZ/movie/2139"},{"id":1451,"title":"Слоеный торт","kp_id":"47250","imdb_id":"tt0375912","world_art_id":null,"type":"movie","add":"2016-04-21 14:10:51","orig_title":"Layer Cake","year":"2004-10-01","translations":["Профессиональный (многоголосый закадровый)","Авторский (одноголосый закадровый) (Яроцкий Михаил | Kyberpunk)","Original (English)","Любительский (одноголосый закадровый)","Профессиональный (двухголосый закадровый)","Профессиональный (двухголосый закадровый) (FDV)","Профессиональный (многоголосый закадровый) (Видеосервис)"],"quality":"bd","translation":"Профессиональный (многоголосый закадровый)","update":"2021-02-23 14:43:55","iframe_src":"//5322.svetacdn.in/71tsRs29n5tZ/movie/1451"},{"id":149,"title":"Игра на понижение","kp_id":"501333","imdb_id":"tt1596363","world_art_id":null,"type":"movie","add":"2016-02-17 14:13:42","orig_title":"The Big Short","year":"2015-11-12","translations":["Любительский (многоголосый закадровый) (Parovoz Production)","Полное дублирование","Авторский (одноголосый закадровый) (Матвеев Алексей | Doctor Joker)","Полное дублирование","Original (English)"],"quality":"dvdscr","translation":"Любительский (многоголосый закадровый) (Parovoz Production)","update":"2021-02-23 15:55:21","iframe_src":"//5322.svetacdn.in/71tsRs29n5tZ/movie/149"}],"current_page":237,"first_page_url":"https://videocdn.tv/api/short?limit=100&api_token=EnbO9h8pv1VyjbCJhg0WM9nG259n7mtz&cache3237=3237&page=1","from":23601,"last_page":632,"last_page_url":"https://videocdn.tv/api/short?limit=100&api_token=EnbO9h8pv1VyjbCJhg0WM9nG259n7mtz&cache3237=3237&page=632","next_page_url":"https://videocdn.tv/api/short?limit=100&api_token=EnbO9h8pv1VyjbCJhg0WM9nG259n7mtz&cache3237=3237&page=238","path":"https://videocdn.tv/api/short","per_page":100,"prev_page_url":"https://videocdn.tv/api/short?limit=100&api_token=EnbO9h8pv1VyjbCJhg0WM9nG259n7mtz&cache3237=3237&page=236","to":23640,"total":63120}