{"result":true,"data":[{"id":41725,"title":"14 дней, 12 ночей","kp_id":"1109913","imdb_id":"tt6976172","world_art_id":null,"type":"movie","add":"2020-07-12 16:52:51","orig_title":"14 jours, 12 nuits","year":"2019-12-12","translations":["Любительский (многоголосый закадровый) (Синема УС)"],"quality":"webdl","translation":"Любительский (многоголосый закадровый) (Синема УС)","update":"2020-07-13 05:12:20","iframe_src":"//7720.svetacdn.in/IAF0wWTdNYZm/movie/41725"},{"id":41724,"title":"Захваченный","kp_id":"682313","imdb_id":"tt2400305","world_art_id":null,"type":"movie","add":"2020-07-12 16:48:21","orig_title":"Captured","year":"2020-01-01","translations":["Любительский (многоголосый закадровый) (Синема УС)"],"quality":"webdl","translation":"Любительский (многоголосый закадровый) (Синема УС)","update":"2020-07-13 05:21:58","iframe_src":"//7720.svetacdn.in/IAF0wWTdNYZm/movie/41724"},{"id":41723,"title":"Я убила своего мужа","kp_id":"945889","imdb_id":"tt4930292","world_art_id":null,"type":"movie","add":"2020-07-12 16:42:40","orig_title":"He matado a mi marido!","year":"2018-04-13","translations":["Любительский (многоголосый закадровый) (AlphaProject)"],"quality":"webdl","translation":"Любительский (многоголосый закадровый) (AlphaProject)","update":"2020-07-13 05:19:21","iframe_src":"//7720.svetacdn.in/IAF0wWTdNYZm/movie/41723"},{"id":41722,"title":"Сезон охоты","kp_id":"1190380","imdb_id":"tt8984382","world_art_id":null,"type":"movie","add":"2020-07-12 16:40:29","orig_title":"Jagdzeit","year":"2020-02-20","translations":["Любительский (многоголосый закадровый) (Синема УС)"],"quality":"webdl","translation":"Любительский (многоголосый закадровый) (Синема УС)","update":"2020-07-13 05:20:14","iframe_src":"//7720.svetacdn.in/IAF0wWTdNYZm/movie/41722"},{"id":41721,"title":"Кайдзи: Последняя игра","kp_id":"1270991","imdb_id":"tt10423160","world_art_id":null,"type":"movie","add":"2020-07-12 16:36:37","orig_title":"Kaiji Fainaru Gemu","year":"2020-01-10","translations":["Любительский (двухголосый закадровый) (Колобок)"],"quality":"webdl","translation":"Любительский (двухголосый закадровый) (Колобок)","update":"2020-07-13 05:18:22","iframe_src":"//7720.svetacdn.in/IAF0wWTdNYZm/movie/41721"},{"id":41720,"title":"Меланхолик","kp_id":"1205255","imdb_id":"tt9155928","world_art_id":null,"type":"movie","add":"2020-07-12 16:34:15","orig_title":"Merankorikku","year":"2018-10-27","translations":["Любительский (многоголосый закадровый) (Синема УС)"],"quality":"webdl","translation":"Любительский (многоголосый закадровый) (Синема УС)","update":"2020-07-13 05:17:19","iframe_src":"//7720.svetacdn.in/IAF0wWTdNYZm/movie/41720"},{"id":41719,"title":"Второстепенный","kp_id":"978382","imdb_id":"tt5658672","world_art_id":null,"type":"movie","add":"2020-07-12 16:28:04","orig_title":"Peripheral","year":"2018-10-31","translations":["Любительский (многоголосый закадровый) (Синема УС)"],"quality":"webdl","translation":"Любительский (многоголосый закадровый) (Синема УС)","update":"2020-07-13 05:16:30","iframe_src":"//7720.svetacdn.in/IAF0wWTdNYZm/movie/41719"},{"id":41718,"title":"Юзеры","kp_id":"1123144","imdb_id":"tt7859722","world_art_id":null,"type":"movie","add":"2020-07-12 16:25:38","orig_title":"The Yousers","year":"2018-05-01","translations":["Любительский (многоголосый закадровый) (Синема УС)"],"quality":"webdl","translation":"Любительский (многоголосый закадровый) (Синема УС)","update":"2020-07-13 05:15:20","iframe_src":"//7720.svetacdn.in/IAF0wWTdNYZm/movie/41718"},{"id":41717,"title":"Сант Марти","kp_id":"971546","imdb_id":"tt5514604","world_art_id":null,"type":"movie","add":"2020-07-12 16:22:08","orig_title":"Sant Martí","year":"2018-02-23","translations":["Любительский (многоголосый закадровый) (Синема УС)"],"quality":"webdl","translation":"Любительский (многоголосый закадровый) (Синема УС)","update":"2020-07-13 05:13:16","iframe_src":"//7720.svetacdn.in/IAF0wWTdNYZm/movie/41717"},{"id":41715,"title":"Потерянные в воспоминаниях","kp_id":"1320480","imdb_id":null,"world_art_id":null,"type":"movie","add":"2020-07-10 20:35:20","orig_title":"Потерянные в воспоминаниях","year":"2019-01-01","translations":["Оригинальная дорожка"],"quality":"webdl","translation":"Оригинальная дорожка","update":"2020-07-12 18:42:48","iframe_src":"//7720.svetacdn.in/IAF0wWTdNYZm/movie/41715"},{"id":41714,"title":"Пляжный домик","kp_id":"1295331","imdb_id":"tt10843306","world_art_id":null,"type":"movie","add":"2020-07-10 20:34:09","orig_title":"The Beach House","year":"2019-09-14","translations":["Любительский (многоголосый закадровый) (@MUZOBOZ@)"],"quality":"webdl","translation":"Любительский (многоголосый закадровый) (@MUZOBOZ@)","update":"2020-07-12 18:45:21","iframe_src":"//7720.svetacdn.in/IAF0wWTdNYZm/movie/41714"},{"id":41713,"title":"Трамвай в Иерусалиме","kp_id":"1183656","imdb_id":"tt8896640","world_art_id":null,"type":"movie","add":"2020-07-10 20:32:32","orig_title":"A Tramway in Jerusalem","year":"2018-09-03","translations":["Любительский (многоголосый закадровый) (Синема УС)"],"quality":"webdl","translation":"Любительский (многоголосый закадровый) (Синема УС)","update":"2020-07-12 18:40:43","iframe_src":"//7720.svetacdn.in/IAF0wWTdNYZm/movie/41713"},{"id":41711,"title":"Разбитые зеркала","kp_id":"1069790","imdb_id":"tt6723102","world_art_id":null,"type":"movie","add":"2020-07-10 20:30:19","orig_title":"Broken Mirrors","year":"2018-10-17","translations":["Любительский (многоголосый закадровый) (Синема УС)"],"quality":"webdl","translation":"Любительский (многоголосый закадровый) (Синема УС)","update":"2020-07-12 18:41:05","iframe_src":"//7720.svetacdn.in/IAF0wWTdNYZm/movie/41711"},{"id":41645,"title":"Подсматривающий","kp_id":"972125","imdb_id":"tt5580306","world_art_id":null,"type":"movie","add":"2020-07-07 20:32:14","orig_title":"Browse","year":"2020-07-07","translations":["Любительский (многоголосый закадровый) (Синема УС)","Original (English)"],"quality":"webdl","translation":"Любительский (многоголосый закадровый) (Синема УС)","update":"2020-07-13 09:26:58","iframe_src":"//7720.svetacdn.in/IAF0wWTdNYZm/movie/41645"},{"id":41634,"title":"Остров Амитивилля","kp_id":"1368878","imdb_id":"tt12057580","world_art_id":null,"type":"movie","add":"2020-07-06 20:36:38","orig_title":"Amityville Island","year":"2020-03-17","translations":["Любительский (многоголосый закадровый) (Синема УС)","Original (English)"],"quality":"webdl","translation":"Любительский (многоголосый закадровый) (Синема УС)","update":"2020-07-13 09:22:30","iframe_src":"//7720.svetacdn.in/IAF0wWTdNYZm/movie/41634"},{"id":41631,"title":"Прожарка","kp_id":"1226683","imdb_id":"tt8997712","world_art_id":null,"type":"movie","add":"2020-07-06 20:33:54","orig_title":"Broil","year":"2020-07-05","translations":["Любительский (многоголосый закадровый) (@MUZOBOZ@)","Original (English)"],"quality":"webdl","translation":"Любительский (многоголосый закадровый) (@MUZOBOZ@)","update":"2020-07-13 09:25:50","iframe_src":"//7720.svetacdn.in/IAF0wWTdNYZm/movie/41631"},{"id":30215,"title":"Тайна печати дракона","kp_id":"840758","imdb_id":"tt6218010","world_art_id":null,"type":"movie","add":"2019-08-23 09:19:17","orig_title":"Tayna pechati drakona","year":"2019-08-16","translations":["Полное дублирование","Original (English)"],"quality":"webdl","translation":"Полное дублирование","update":"2020-07-13 09:20:27","iframe_src":"//7720.svetacdn.in/IAF0wWTdNYZm/movie/30215"},{"id":25435,"title":"Земля надежды","kp_id":"1073550","imdb_id":"tt7220640","world_art_id":null,"type":"movie","add":"2019-04-26 22:36:22","orig_title":"Oma maa","year":"2018-10-26","translations":["Любительский (многоголосый закадровый) (Синема УС)","Любительский (многоголосый закадровый) (Синема УС)"],"quality":"dvdrip","translation":"Любительский (многоголосый закадровый) (Синема УС)","update":"2020-07-13 05:22:49","iframe_src":"//7720.svetacdn.in/IAF0wWTdNYZm/movie/25435"},{"id":20131,"title":"Маленькая ведьма","kp_id":"1039952","imdb_id":"tt6153538","world_art_id":null,"type":"movie","add":"2018-11-14 23:07:50","orig_title":"Die kleine Hexe","year":"2018-02-01","translations":["Любительский (многоголосый закадровый) (AlphaProject)","Профессиональный (многоголосый закадровый) (HDrezka Studio)","Профессиональный (многоголосый закадровый) (HDrezka Studio)"],"quality":"webdl","translation":"Любительский (многоголосый закадровый) (AlphaProject)","update":"2020-07-12 17:03:20","iframe_src":"//7720.svetacdn.in/IAF0wWTdNYZm/movie/20131"},{"id":16718,"title":"12-й человек","kp_id":"807122","imdb_id":"tt3300980","world_art_id":null,"type":"movie","add":"2018-05-09 22:33:44","orig_title":"Den 12. mann","year":"2017-12-25","translations":["Любительский (многоголосый закадровый) (Синема УС)","Любительский (многоголосый закадровый)","Профессиональный (многоголосый закадровый) (GreenРай Studio)","Любительский (многоголосый закадровый) (@MUZOBOZ@)","Профессиональный (многоголосый закадровый) (HDrezka Studio)","Профессиональный (многоголосый закадровый) (HDrezka Studio)"],"quality":"webdl","translation":"Любительский (многоголосый закадровый) (Синема УС)","update":"2020-07-12 18:04:34","iframe_src":"//7720.svetacdn.in/IAF0wWTdNYZm/movie/16718"}],"current_page":701,"first_page_url":"https://videocdn.tv/api/short?limit=100&api_token=6Onb1W1alEUrBcKJZD3GoKBbWyAl2uG2&cache3701=3701&page=1","from":70001,"last_page":650,"last_page_url":"https://videocdn.tv/api/short?limit=100&api_token=6Onb1W1alEUrBcKJZD3GoKBbWyAl2uG2&cache3701=3701&page=650","next_page_url":null,"path":"https://videocdn.tv/api/short","per_page":100,"prev_page_url":"https://videocdn.tv/api/short?limit=100&api_token=6Onb1W1alEUrBcKJZD3GoKBbWyAl2uG2&cache3701=3701&page=700","to":70020,"total":64989}