{"result":true,"data":[{"id":28986,"title":"Злая шутка","kp_id":"1009014","imdb_id":null,"world_art_id":null,"type":"movie","add":"2019-07-14 20:22:31","orig_title":"Злая шутка","year":"2017-02-05","translations":["Оригинальная дорожка"],"quality":"webdl","translation":"Оригинальная дорожка","update":"2019-07-15 09:50:28","iframe_src":"//7720.svetacdn.in/71tsRs29n5tZ/movie/28986"},{"id":28963,"title":"Снежная королева","kp_id":"436176","imdb_id":null,"world_art_id":null,"type":"movie","add":"2019-07-13 20:08:57","orig_title":"Снежная королева","year":"2003-12-31","translations":["Оригинальная дорожка"],"quality":"dvdrip","translation":"Оригинальная дорожка","update":"2019-07-15 11:06:58","iframe_src":"//7720.svetacdn.in/71tsRs29n5tZ/movie/28963"},{"id":28960,"title":"Строится мост","kp_id":"44013","imdb_id":"tt0059761","world_art_id":null,"type":"movie","add":"2019-07-13 20:02:45","orig_title":"Stroitsya most","year":"1966-05-23","translations":["Оригинальная дорожка"],"quality":"dvdrip","translation":"Оригинальная дорожка","update":"2019-07-15 11:03:49","iframe_src":"//7720.svetacdn.in/71tsRs29n5tZ/movie/28960"},{"id":28956,"title":"Лесные качели","kp_id":"485303","imdb_id":"tt3172248","world_art_id":null,"type":"movie","add":"2019-07-13 19:50:47","orig_title":"Lesnyye kacheli","year":"1975-01-01","translations":["Оригинальная дорожка"],"quality":"sat","translation":"Оригинальная дорожка","update":"2019-07-15 11:00:43","iframe_src":"//7720.svetacdn.in/71tsRs29n5tZ/movie/28956"},{"id":28955,"title":"Юность гения","kp_id":"42467","imdb_id":"tt0204067","world_art_id":null,"type":"movie","add":"2019-07-13 19:42:15","orig_title":"Yunost geniya","year":"1983-06-13","translations":["Оригинальная дорожка"],"quality":"sat","translation":"Оригинальная дорожка","update":"2019-07-15 10:37:05","iframe_src":"//7720.svetacdn.in/71tsRs29n5tZ/movie/28955"},{"id":28942,"title":"Изгоняющий заново","kp_id":"15549","imdb_id":"tt0100475","world_art_id":null,"type":"movie","add":"2019-07-13 04:46:24","orig_title":"Repossessed","year":"1990-09-14","translations":["Профессиональный (многоголосый закадровый)"],"quality":"dvdrip","translation":"Профессиональный (многоголосый закадровый)","update":"2019-07-15 10:35:01","iframe_src":"//7720.svetacdn.in/71tsRs29n5tZ/movie/28942"},{"id":28940,"title":"Последний из Сабудара","kp_id":"225433","imdb_id":"tt0265682","world_art_id":null,"type":"movie","add":"2019-07-12 21:55:52","orig_title":"Sabudareli chabuki","year":"1957-07-07","translations":["Оригинальная дорожка"],"quality":"webdl","translation":"Оригинальная дорожка","update":"2019-07-15 10:31:04","iframe_src":"//7720.svetacdn.in/71tsRs29n5tZ/movie/28940"},{"id":28939,"title":"Артист из Кохановки","kp_id":"43542","imdb_id":"tt0312383","world_art_id":null,"type":"movie","add":"2019-07-12 21:52:16","orig_title":"Artist iz Kokhanovki","year":"1962-01-13","translations":["Оригинальная дорожка"],"quality":"sat","translation":"Оригинальная дорожка","update":"2019-07-15 10:13:26","iframe_src":"//7720.svetacdn.in/71tsRs29n5tZ/movie/28939"},{"id":28938,"title":"Авиценна","kp_id":"43562","imdb_id":"tt0312400","world_art_id":null,"type":"movie","add":"2019-07-12 21:48:14","orig_title":"Avitsenna","year":"1956-12-09","translations":["Оригинальная дорожка"],"quality":"sat","translation":"Оригинальная дорожка","update":"2019-07-15 10:12:37","iframe_src":"//7720.svetacdn.in/71tsRs29n5tZ/movie/28938"},{"id":28937,"title":"Беспокойная весна","kp_id":"573879","imdb_id":"tt0233318","world_art_id":null,"type":"movie","add":"2019-07-12 21:44:53","orig_title":"Bespokoynaya vesna","year":"1956-08-25","translations":["Оригинальная дорожка"],"quality":"sat","translation":"Оригинальная дорожка","update":"2019-07-15 10:11:56","iframe_src":"//7720.svetacdn.in/71tsRs29n5tZ/movie/28937"},{"id":28936,"title":"Бессмертный гарнизон","kp_id":"46103","imdb_id":"tt0049001","world_art_id":null,"type":"movie","add":"2019-07-12 21:41:50","orig_title":"Bessmertnyy garnizon","year":"1956-06-21","translations":["Оригинальная дорожка"],"quality":"dvdrip","translation":"Оригинальная дорожка","update":"2019-07-15 10:11:19","iframe_src":"//7720.svetacdn.in/71tsRs29n5tZ/movie/28936"},{"id":28934,"title":"Долина Синих скал","kp_id":"464838","imdb_id":"tt5108418","world_art_id":null,"type":"movie","add":"2019-07-12 21:35:59","orig_title":"Dolina sinikh skal","year":"1957-02-07","translations":["Оригинальная дорожка"],"quality":"sat","translation":"Оригинальная дорожка","update":"2019-07-15 09:57:40","iframe_src":"//7720.svetacdn.in/71tsRs29n5tZ/movie/28934"},{"id":28933,"title":"Искатели","kp_id":"225272","imdb_id":"tt0479686","world_art_id":null,"type":"movie","add":"2019-07-12 21:33:12","orig_title":"Iskateli","year":"1956-05-23","translations":["Оригинальная дорожка"],"quality":"sat","translation":"Оригинальная дорожка","update":"2019-07-15 09:57:00","iframe_src":"//7720.svetacdn.in/71tsRs29n5tZ/movie/28933"},{"id":28932,"title":"Капитан «Старой черепахи»","kp_id":"44704","imdb_id":"tt0314256","world_art_id":null,"type":"movie","add":"2019-07-12 21:29:26","orig_title":"Kapitan 'Staroy cherepakhi'","year":"1956-12-25","translations":["Оригинальная дорожка"],"quality":"sat","translation":"Оригинальная дорожка","update":"2019-07-15 09:56:19","iframe_src":"//7720.svetacdn.in/71tsRs29n5tZ/movie/28932"},{"id":28931,"title":"Клетка для канареек","kp_id":"44820","imdb_id":"tt0130405","world_art_id":null,"type":"movie","add":"2019-07-12 21:26:28","orig_title":"Kletka dlya kanareek","year":"1984-10-10","translations":["Оригинальная дорожка"],"quality":"dvdrip","translation":"Оригинальная дорожка","update":"2019-07-15 09:55:25","iframe_src":"//7720.svetacdn.in/71tsRs29n5tZ/movie/28931"},{"id":28930,"title":"Мороз по коже","kp_id":"395408","imdb_id":"tt0426114","world_art_id":null,"type":"movie","add":"2019-07-12 21:21:37","orig_title":"Moroz po kozhe","year":"2008-07-23","translations":["Оригинальная дорожка"],"quality":"dvdrip","translation":"Оригинальная дорожка","update":"2019-07-15 09:53:29","iframe_src":"//7720.svetacdn.in/71tsRs29n5tZ/movie/28930"},{"id":28929,"title":"Натали","kp_id":"1009592","imdb_id":null,"world_art_id":null,"type":"movie","add":"2019-07-12 21:15:52","orig_title":"Натали","year":"1988-01-01","translations":["Оригинальная дорожка"],"quality":"tv","translation":"Оригинальная дорожка","update":"2019-07-15 09:53:10","iframe_src":"//7720.svetacdn.in/71tsRs29n5tZ/movie/28929"},{"id":28926,"title":"Невеста","kp_id":"46423","imdb_id":"tt0219202","world_art_id":null,"type":"movie","add":"2019-07-12 20:47:25","orig_title":"Nevesta","year":"1956-04-24","translations":["Оригинальная дорожка"],"quality":"dvdrip","translation":"Оригинальная дорожка","update":"2019-07-15 09:51:52","iframe_src":"//7720.svetacdn.in/71tsRs29n5tZ/movie/28926"},{"id":28925,"title":"Облака","kp_id":"481126","imdb_id":"tt4769036","world_art_id":null,"type":"movie","add":"2019-07-12 20:42:28","orig_title":"Oblaka","year":"1973-09-10","translations":["Оригинальная дорожка"],"quality":"sat","translation":"Оригинальная дорожка","update":"2019-07-15 09:50:35","iframe_src":"//7720.svetacdn.in/71tsRs29n5tZ/movie/28925"},{"id":8378,"title":"Опять замуж","kp_id":"1008360","imdb_id":null,"world_art_id":null,"type":"movie","add":"2016-12-27 07:26:18","orig_title":"Опять замуж","year":"2016-12-23","translations":["Оригинальная дорожка","Оригинальная дорожка"],"quality":"hdtv","translation":"Оригинальная дорожка","update":"2019-07-15 10:39:31","iframe_src":"//7720.svetacdn.in/71tsRs29n5tZ/movie/8378"}],"current_page":1370,"first_page_url":"https://videocdn.tv/api/short?limit=100&api_token=EnbO9h8pv1VyjbCJhg0WM9nG259n7mtz&cache31370=31370&page=1","from":136901,"last_page":646,"last_page_url":"https://videocdn.tv/api/short?limit=100&api_token=EnbO9h8pv1VyjbCJhg0WM9nG259n7mtz&cache31370=31370&page=646","next_page_url":null,"path":"https://videocdn.tv/api/short","per_page":100,"prev_page_url":"https://videocdn.tv/api/short?limit=100&api_token=EnbO9h8pv1VyjbCJhg0WM9nG259n7mtz&cache31370=31370&page=1369","to":136920,"total":64588}