{"result":true,"data":[{"id":38328,"title":"Видоизменённый углерод: Восстановленный","kp_id":"1209838","imdb_id":"tt9310328","world_art_id":null,"type":"movie","add":"2020-03-20 22:57:53","orig_title":"Altered Carbon: Resleeved","year":"2020-03-19","translations":["Любительский (одноголосый закадровый) (AniStar)"],"quality":"webdl","translation":"Любительский (одноголосый закадровый) (AniStar)","update":"2020-03-21 07:55:39","iframe_src":"//7720.svetacdn.in/si4jsFRrtgrT/movie/38328"},{"id":38283,"title":"Счастливы вместе","kp_id":"12096","imdb_id":"tt0097478","world_art_id":null,"type":"movie","add":"2020-03-20 07:27:22","orig_title":"Happy Together","year":"1989-05-04","translations":["Профессиональный (двухголосый закадровый) (Варус-Видео)"],"quality":"dvdrip","translation":"Профессиональный (двухголосый закадровый) (Варус-Видео)","update":"2020-03-21 10:12:15","iframe_src":"//7720.svetacdn.in/si4jsFRrtgrT/movie/38283"},{"id":38280,"title":"Командная работа","kp_id":"1238883","imdb_id":"tt9690818","world_art_id":null,"type":"movie","add":"2020-03-20 04:21:06","orig_title":"Tag Team Truckers","year":"2018-11-17","translations":["Любительский (многоголосый закадровый) (Синема УС)"],"quality":"webdl","translation":"Любительский (многоголосый закадровый) (Синема УС)","update":"2020-03-21 10:12:43","iframe_src":"//7720.svetacdn.in/si4jsFRrtgrT/movie/38280"},{"id":38279,"title":"Мой кошмарный арендодатель","kp_id":"1350686","imdb_id":"tt11844684","world_art_id":null,"type":"movie","add":"2020-03-20 04:20:28","orig_title":"My Nightmare Landlord","year":"2020-03-07","translations":["Любительский (многоголосый закадровый) (Синема УС)"],"quality":"webdl","translation":"Любительский (многоголосый закадровый) (Синема УС)","update":"2020-03-20 14:34:08","iframe_src":"//7720.svetacdn.in/si4jsFRrtgrT/movie/38279"},{"id":38278,"title":"Консенсусная реальность","kp_id":"1023153","imdb_id":"tt6292084","world_art_id":null,"type":"movie","add":"2020-03-20 04:19:39","orig_title":"Consensus Reality","year":"2018-08-02","translations":["Любительский (многоголосый закадровый) (Синема УС)"],"quality":"webdl","translation":"Любительский (многоголосый закадровый) (Синема УС)","update":"2020-03-20 14:33:27","iframe_src":"//7720.svetacdn.in/si4jsFRrtgrT/movie/38278"},{"id":38274,"title":"Призвание Трю","kp_id":"901613","imdb_id":"tt4449516","world_art_id":null,"type":"movie","add":"2020-03-20 04:16:02","orig_title":"Trew Calling","year":"2017-02-02","translations":["Любительский (многоголосый закадровый) (Синема УС)"],"quality":"webdl","translation":"Любительский (многоголосый закадровый) (Синема УС)","update":"2020-03-20 20:07:10","iframe_src":"//7720.svetacdn.in/si4jsFRrtgrT/movie/38274"},{"id":38272,"title":"Теплые источники","kp_id":"277560","imdb_id":"tt0423510","world_art_id":null,"type":"movie","add":"2020-03-19 22:06:43","orig_title":"Warm Springs","year":"2005-04-04","translations":["Профессиональный (двухголосый закадровый)"],"quality":"hdtv","translation":"Профессиональный (двухголосый закадровый)","update":"2020-03-20 22:26:50","iframe_src":"//7720.svetacdn.in/si4jsFRrtgrT/movie/38272"},{"id":38235,"title":"Ядви - благородная принцесса","kp_id":"932660","imdb_id":"tt4910010","world_art_id":null,"type":"movie","add":"2020-03-19 11:47:07","orig_title":"YADVI-The Dignified Princess","year":"2017-08-25","translations":["Любительский (многоголосый закадровый) (Синема УС)"],"quality":"webdl","translation":"Любительский (многоголосый закадровый) (Синема УС)","update":"2020-03-20 14:35:24","iframe_src":"//7720.svetacdn.in/si4jsFRrtgrT/movie/38235"},{"id":38234,"title":"Пацанка","kp_id":"1006297","imdb_id":"tt6097984","world_art_id":null,"type":"movie","add":"2020-03-19 11:46:18","orig_title":"Tomboy","year":"2018-02-23","translations":["Любительский (многоголосый закадровый) (Синема УС)"],"quality":"hdtv","translation":"Любительский (многоголосый закадровый) (Синема УС)","update":"2020-03-20 20:45:27","iframe_src":"//7720.svetacdn.in/si4jsFRrtgrT/movie/38234"},{"id":38227,"title":"Госпожа Удача","kp_id":"669728","imdb_id":"tt2246809","world_art_id":null,"type":"movie","add":"2020-03-19 11:34:19","orig_title":"Lady Luck","year":"2017-01-01","translations":["Любительский (многоголосый закадровый) (Синема УС)"],"quality":"webdl","translation":"Любительский (многоголосый закадровый) (Синема УС)","update":"2020-03-20 14:36:18","iframe_src":"//7720.svetacdn.in/si4jsFRrtgrT/movie/38227"},{"id":38224,"title":"Выходим на рассвете","kp_id":"1255612","imdb_id":"tt7622584","world_art_id":null,"type":"movie","add":"2020-03-19 11:29:58","orig_title":"We go in at Dawn","year":"2020-03-16","translations":["Original (English)","Любительский (многоголосый закадровый) (Синема УС)"],"quality":"webdl","translation":"Original (English)","update":"2020-03-20 14:37:38","iframe_src":"//7720.svetacdn.in/si4jsFRrtgrT/movie/38224"},{"id":38199,"title":"Секретный агент","kp_id":"4146","imdb_id":"tt0117582","world_art_id":null,"type":"movie","add":"2020-03-18 17:19:52","orig_title":"The Secret Agent","year":"1996-09-07","translations":["Профессиональный (многоголосый закадровый)"],"quality":"dvdrip","translation":"Профессиональный (многоголосый закадровый)","update":"2020-03-20 16:06:29","iframe_src":"//7720.svetacdn.in/si4jsFRrtgrT/movie/38199"},{"id":38197,"title":"Убей-убей быстро-быстро","kp_id":"253855","imdb_id":"tt0785016","world_art_id":null,"type":"movie","add":"2020-03-18 17:17:38","orig_title":"Kill Kill Faster Faster","year":"2008-04-16","translations":["Профессиональный (многоголосый закадровый)"],"quality":"dvdrip","translation":"Профессиональный (многоголосый закадровый)","update":"2020-03-20 16:13:33","iframe_src":"//7720.svetacdn.in/si4jsFRrtgrT/movie/38197"},{"id":38195,"title":"Пиво моим лошадям","kp_id":"404234","imdb_id":"tt1178640","world_art_id":null,"type":"movie","add":"2020-03-18 17:15:37","orig_title":"Beer for My Horses","year":"2008-08-08","translations":["Профессиональный (многоголосый закадровый)","Профессиональный (многоголосый закадровый) (Инис)","Original (English)"],"quality":"bd","translation":"Профессиональный (многоголосый закадровый)","update":"2020-03-20 16:10:56","iframe_src":"//7720.svetacdn.in/si4jsFRrtgrT/movie/38195"},{"id":38194,"title":"Любит – не любит","kp_id":"9432","imdb_id":"tt0291579","world_art_id":null,"type":"movie","add":"2020-03-18 17:14:42","orig_title":"À la folie... pas du tout","year":"2002-03-27","translations":["Профессиональный (многоголосый закадровый)"],"quality":"dvdrip","translation":"Профессиональный (многоголосый закадровый)","update":"2020-03-20 16:04:26","iframe_src":"//7720.svetacdn.in/si4jsFRrtgrT/movie/38194"},{"id":38193,"title":"Двойная жизнь Камиллы","kp_id":"668444","imdb_id":"tt2253939","world_art_id":null,"type":"movie","add":"2020-03-18 17:13:15","orig_title":"Camille redouble","year":"2012-05-25","translations":["Профессиональный (многоголосый закадровый)"],"quality":"bd","translation":"Профессиональный (многоголосый закадровый)","update":"2020-03-20 14:12:35","iframe_src":"//7720.svetacdn.in/si4jsFRrtgrT/movie/38193"},{"id":38191,"title":"Тень полицейского","kp_id":"577832","imdb_id":"tt1805286","world_art_id":null,"type":"movie","add":"2020-03-18 17:10:02","orig_title":"L'ombre d'un flic","year":"2011-01-07","translations":["Профессиональный (двухголосый закадровый) (Red Media)"],"quality":"hdtv","translation":"Профессиональный (двухголосый закадровый) (Red Media)","update":"2020-03-20 14:09:36","iframe_src":"//7720.svetacdn.in/si4jsFRrtgrT/movie/38191"},{"id":38189,"title":"901 километр","kp_id":"666003","imdb_id":"tt2321157","world_art_id":null,"type":"movie","add":"2020-03-18 17:06:55","orig_title":"901 kilometr","year":"2012-04-12","translations":["Оригинальная дорожка"],"quality":"webdl","translation":"Оригинальная дорожка","update":"2020-03-20 14:08:50","iframe_src":"//7720.svetacdn.in/si4jsFRrtgrT/movie/38189"},{"id":38187,"title":"Австралия: страна попугаев","kp_id":"542377","imdb_id":"tt1366246","world_art_id":null,"type":"movie","add":"2020-03-18 17:04:04","orig_title":"Australia: Land of Parrots","year":"2008-06-01","translations":["Профессиональный (одноголосый закадровый)","Полное дублирование"],"quality":"bd","translation":"Профессиональный (одноголосый закадровый)","update":"2020-03-20 14:06:33","iframe_src":"//7720.svetacdn.in/si4jsFRrtgrT/movie/38187"},{"id":32960,"title":"Гарриет","kp_id":"975301","imdb_id":"tt4648786","world_art_id":null,"type":"movie","add":"2019-11-11 13:03:36","orig_title":"Harriet","year":"2019-09-10","translations":["Полное дублирование"],"quality":"bd","translation":"Полное дублирование","update":"2020-03-20 18:32:55","iframe_src":"//7720.svetacdn.in/si4jsFRrtgrT/movie/32960"}],"current_page":919,"first_page_url":"https://videocdn.tv/api/short?limit=100&api_token=X6EwAUfE5M9xbo7y0Bp0aPf3uXxG2KLL&cache3919=3919&page=1","from":91801,"last_page":653,"last_page_url":"https://videocdn.tv/api/short?limit=100&api_token=X6EwAUfE5M9xbo7y0Bp0aPf3uXxG2KLL&cache3919=3919&page=653","next_page_url":null,"path":"https://videocdn.tv/api/short","per_page":100,"prev_page_url":"https://videocdn.tv/api/short?limit=100&api_token=X6EwAUfE5M9xbo7y0Bp0aPf3uXxG2KLL&cache3919=3919&page=918","to":91820,"total":65298}