{"result":true,"data":[{"id":48353,"title":"Земля теней","kp_id":"1212204","imdb_id":"tt9015714","world_art_id":null,"type":"movie","add":"2021-03-02 19:28:11","orig_title":"Shadowland","year":"2021-02-28","translations":["Любительский (многоголосый закадровый) (AlphaProject)"],"quality":"webdl","translation":"Любительский (многоголосый закадровый) (AlphaProject)","update":"2021-03-03 07:12:58","iframe_src":"//8422.svetacdn.in/IAF0wWTdNYZm/movie/48353"},{"id":48350,"title":"Тигр, о тигр","kp_id":"1184253","imdb_id":"tt8787632","world_art_id":null,"type":"movie","add":"2021-03-02 19:18:14","orig_title":"Tyger Tyger","year":"2021-02-26","translations":["Любительский (многоголосый закадровый) (Синема УС)"],"quality":"webdl","translation":"Любительский (многоголосый закадровый) (Синема УС)","update":"2021-03-03 07:16:22","iframe_src":"//8422.svetacdn.in/IAF0wWTdNYZm/movie/48350"},{"id":48343,"title":"Назад на пристань","kp_id":"1283718","imdb_id":"tt11306684","world_art_id":null,"type":"movie","add":"2021-03-02 19:05:10","orig_title":"Feng ping lang jing","year":"2020-07-29","translations":["Любительский (двухголосый закадровый) (Колобок)"],"quality":"webdl","translation":"Любительский (двухголосый закадровый) (Колобок)","update":"2021-03-03 10:44:51","iframe_src":"//8422.svetacdn.in/IAF0wWTdNYZm/movie/48343"},{"id":48341,"title":"Свадьба в Беверли-Хиллз","kp_id":"4369397","imdb_id":"tt13827742","world_art_id":null,"type":"movie","add":"2021-03-02 19:03:08","orig_title":"Beverly Hills Wedding","year":"2021-02-06","translations":["Любительский (многоголосый закадровый) (AlphaProject)"],"quality":"hdtv","translation":"Любительский (многоголосый закадровый) (AlphaProject)","update":"2021-03-02 21:08:47","iframe_src":"//8422.svetacdn.in/IAF0wWTdNYZm/movie/48341"},{"id":48337,"title":"Волшебная страна","kp_id":"2000501","imdb_id":"tt13582504","world_art_id":null,"type":"movie","add":"2021-03-02 18:45:04","orig_title":"Magikland","year":"2020-12-25","translations":["Любительский (многоголосый закадровый) (Синема УС)"],"quality":"webdl","translation":"Любительский (многоголосый закадровый) (Синема УС)","update":"2021-03-03 10:42:57","iframe_src":"//8422.svetacdn.in/IAF0wWTdNYZm/movie/48337"},{"id":48336,"title":"Древняя кровь","kp_id":"1036821","imdb_id":"tt6084816","world_art_id":null,"type":"movie","add":"2021-03-02 18:42:37","orig_title":"Old Blood","year":"2018-05-09","translations":["Любительский (многоголосый закадровый) (Синема УС)"],"quality":"webdl","translation":"Любительский (многоголосый закадровый) (Синема УС)","update":"2021-03-02 22:51:40","iframe_src":"//8422.svetacdn.in/IAF0wWTdNYZm/movie/48336"},{"id":48335,"title":"Черновик","kp_id":"1426831","imdb_id":"tt12718510","world_art_id":null,"type":"movie","add":"2021-03-02 18:39:45","orig_title":"Rough Cut","year":"2020-07-14","translations":["Любительский (многоголосый закадровый) (Синема УС)"],"quality":"webdl","translation":"Любительский (многоголосый закадровый) (Синема УС)","update":"2021-03-02 22:50:56","iframe_src":"//8422.svetacdn.in/IAF0wWTdNYZm/movie/48335"},{"id":48333,"title":"Ну и городок","kp_id":"1122592","imdb_id":"tt8171236","world_art_id":null,"type":"movie","add":"2021-03-02 12:38:19","orig_title":"This Town","year":"2020-08-06","translations":["Любительский (многоголосый закадровый) (Синема УС)"],"quality":"webdl","translation":"Любительский (многоголосый закадровый) (Синема УС)","update":"2021-03-03 10:46:31","iframe_src":"//8422.svetacdn.in/IAF0wWTdNYZm/movie/48333"},{"id":48331,"title":"Человек-мотылек","kp_id":"475417","imdb_id":"tt1514425","world_art_id":null,"type":"movie","add":"2021-03-02 10:20:38","orig_title":"Mothman","year":"2010-04-24","translations":["Профессиональный (многоголосый закадровый)"],"quality":"hdrip","translation":"Профессиональный (многоголосый закадровый)","update":"2021-03-03 08:45:39","iframe_src":"//8422.svetacdn.in/IAF0wWTdNYZm/movie/48331"},{"id":48329,"title":"Мы все отправимся в рай","kp_id":"39262","imdb_id":"tt0076470","world_art_id":null,"type":"movie","add":"2021-03-02 07:46:28","orig_title":"Nous irons tous au paradis","year":"1977-11-09","translations":["Профессиональный (многоголосый закадровый) (РТР | Россия)"],"quality":"dvdrip","translation":"Профессиональный (многоголосый закадровый) (РТР | Россия)","update":"2021-03-03 08:42:09","iframe_src":"//8422.svetacdn.in/IAF0wWTdNYZm/movie/48329"},{"id":48324,"title":"Он добьётся успеха","kp_id":"1248339","imdb_id":"tt10369872","world_art_id":null,"type":"movie","add":"2021-03-01 19:21:49","orig_title":"A Diamond in the Rough","year":"2019-04-18","translations":["Любительский (двухголосый закадровый) (Храм Дорам ТВ)","Любительский (двухголосый закадровый) (Колобок)"],"quality":"webdl","translation":"Любительский (двухголосый закадровый) (Храм Дорам ТВ)","update":"2021-03-03 08:42:40","iframe_src":"//8422.svetacdn.in/IAF0wWTdNYZm/movie/48324"},{"id":47239,"title":"Гинденбург","kp_id":"15108","imdb_id":"tt0073113","world_art_id":null,"type":"movie","add":"2021-01-20 06:20:23","orig_title":"The Hindenburg","year":"1975-12-25","translations":["Профессиональный (многоголосый закадровый)","Авторский (одноголосый закадровый) (Живов Юрий)","Original (English)","Профессиональный (двухголосый закадровый)"],"quality":"bd","translation":"Профессиональный (многоголосый закадровый)","update":"2021-03-02 15:04:32","iframe_src":"//8422.svetacdn.in/IAF0wWTdNYZm/movie/47239"},{"id":47225,"title":"Мистер Робертс","kp_id":"8253","imdb_id":"tt0048380","world_art_id":null,"type":"movie","add":"2021-01-19 06:50:36","orig_title":"Mister Roberts","year":"1955-07-10","translations":["Профессиональный (двухголосый закадровый) (Культура)","Любительский (одноголосый закадровый) (Медведев Юрий)","Original (English)"],"quality":"bd","translation":"Профессиональный (двухголосый закадровый) (Культура)","update":"2021-03-02 15:07:17","iframe_src":"//8422.svetacdn.in/IAF0wWTdNYZm/movie/47225"},{"id":46260,"title":"Одри","kp_id":"1321267","imdb_id":"tt10731386","world_art_id":null,"type":"movie","add":"2020-12-19 22:28:50","orig_title":"Audrey","year":"2020-12-15","translations":["Любительский (многоголосый закадровый) (AlphaProject)"],"quality":"bd","translation":"Любительский (многоголосый закадровый) (AlphaProject)","update":"2021-03-02 16:46:31","iframe_src":"//8422.svetacdn.in/IAF0wWTdNYZm/movie/46260"},{"id":45788,"title":"Ужасные джунгли","kp_id":"1286246","imdb_id":"tt10366254","world_art_id":null,"type":"movie","add":"2020-12-02 20:38:07","orig_title":"Terrible jungle","year":"2020-01-18","translations":["Любительский (многоголосый закадровый) (@MUZOBOZ@)"],"quality":"webdl","translation":"Любительский (многоголосый закадровый) (@MUZOBOZ@)","update":"2021-03-03 10:46:15","iframe_src":"//8422.svetacdn.in/IAF0wWTdNYZm/movie/45788"},{"id":44543,"title":"Родительский комитет","kp_id":"1282273","imdb_id":"tt10638582","world_art_id":null,"type":"movie","add":"2020-10-18 09:09:54","orig_title":"Parents d'élèves","year":"2020-08-29","translations":["Любительский (многоголосый закадровый) (AlphaProject)"],"quality":"webdl","translation":"Любительский (многоголосый закадровый) (AlphaProject)","update":"2021-03-03 10:40:58","iframe_src":"//8422.svetacdn.in/IAF0wWTdNYZm/movie/44543"},{"id":35880,"title":"Человек президента","kp_id":"77340","imdb_id":"tt0234516","world_art_id":null,"type":"movie","add":"2020-02-06 19:22:45","orig_title":"The President's Man","year":"2000-04-02","translations":["Профессиональный (многоголосый закадровый)","Авторский (одноголосый закадровый) (Сербин Юрий)"],"quality":"dvdrip","translation":"Профессиональный (многоголосый закадровый)","update":"2021-03-03 08:49:19","iframe_src":"//8422.svetacdn.in/IAF0wWTdNYZm/movie/35880"},{"id":1447,"title":"Реальные кабаны","kp_id":"471728","imdb_id":null,"world_art_id":null,"type":"serial","add":"2017-08-03 11:33:34","orig_title":"Реальные кабаны","year":"2015-11-15","translations":["Оригинальная дорожка"],"seasons_count":1,"episodes_count":16,"episodes":16,"update":"2017-08-07 13:31:27","iframe_src":"//8422.svetacdn.in/IAF0wWTdNYZm/tv-series/1447"},{"id":1446,"title":"Тайна пиратских сокровищ","kp_id":"872979","imdb_id":"tt4219938","world_art_id":null,"type":"serial","add":"2017-08-03 08:59:01","orig_title":"Piratskattens hemlighet","year":"2014-12-01","translations":["Профессиональный (многоголосый закадровый) (Игмар)"],"seasons_count":1,"episodes_count":24,"episodes":24,"update":"2017-08-03 13:03:38","iframe_src":"//8422.svetacdn.in/IAF0wWTdNYZm/tv-series/1446"},{"id":1445,"title":"Крестная","kp_id":"1046730","imdb_id":null,"world_art_id":null,"type":"serial","add":"2017-08-03 08:28:13","orig_title":"Крестная","year":"2017-05-28","translations":["Оригинальная дорожка"],"seasons_count":1,"episodes_count":4,"episodes":4,"update":"2017-08-03 09:34:32","iframe_src":"//8422.svetacdn.in/IAF0wWTdNYZm/tv-series/1445"},{"id":1437,"title":"При деньгах","kp_id":"1044629","imdb_id":"tt6210192","world_art_id":null,"type":"serial","add":"2017-07-31 12:03:11","orig_title":"Loaded","year":"2017-05-08","translations":["Профессиональный (многоголосый закадровый) (BaibaKo)"],"seasons_count":1,"episodes_count":4,"episodes":4,"update":"2017-07-31 15:32:48","iframe_src":"//8422.svetacdn.in/IAF0wWTdNYZm/tv-series/1437"},{"id":1435,"title":"Город особого назначения","kp_id":"840743","imdb_id":"tt4043674","world_art_id":null,"type":"serial","add":"2017-07-31 11:21:24","orig_title":"Spetspodrazdelenie 'Gorod'","year":"2015-10-03","translations":["Оригинальная дорожка"],"seasons_count":1,"episodes_count":12,"episodes":12,"update":"2017-08-02 11:27:51","iframe_src":"//8422.svetacdn.in/IAF0wWTdNYZm/tv-series/1435"},{"id":1432,"title":"Лето волков","kp_id":"573773","imdb_id":"tt2992540","world_art_id":null,"type":"serial","add":"2017-07-28 19:39:28","orig_title":"Leto volkov","year":"2012-04-16","translations":["Оригинальная дорожка"],"seasons_count":1,"episodes_count":6,"episodes":6,"update":"2017-07-29 07:08:48","iframe_src":"//8422.svetacdn.in/IAF0wWTdNYZm/tv-series/1432"},{"id":1428,"title":"Терра Нова","kp_id":"542302","imdb_id":"tt1641349","world_art_id":null,"type":"serial","add":"2017-07-27 05:56:01","orig_title":"Terra Nova","year":"2011-09-27","translations":["Профессиональный (многоголосый закадровый) (Первый канал | ОРТ)"],"seasons_count":1,"episodes_count":12,"episodes":12,"update":"2017-07-27 17:15:34","iframe_src":"//8422.svetacdn.in/IAF0wWTdNYZm/tv-series/1428"},{"id":1426,"title":"Рухнувшие небеса","kp_id":"510335","imdb_id":"tt1462059","world_art_id":null,"type":"serial","add":"2017-07-26 14:15:50","orig_title":"Falling Skies","year":"2011-06-19","translations":["Профессиональный (многоголосый закадровый) (LostFilm)"],"seasons_count":5,"episodes_count":51,"episodes":10,"update":"2017-08-02 10:01:33","iframe_src":"//8422.svetacdn.in/IAF0wWTdNYZm/tv-series/1426"},{"id":1424,"title":"Дело судьи Карелиной","kp_id":"1007388","imdb_id":null,"world_art_id":null,"type":"serial","add":"2017-07-26 12:46:24","orig_title":"Дело судьи Карелиной","year":"2017-03-11","translations":["Оригинальная дорожка"],"seasons_count":1,"episodes_count":4,"episodes":4,"update":"2017-07-28 06:42:16","iframe_src":"//8422.svetacdn.in/IAF0wWTdNYZm/tv-series/1424"},{"id":1421,"title":"Джоуи","kp_id":"251959","imdb_id":"tt0375355","world_art_id":null,"type":"serial","add":"2017-07-25 12:10:25","orig_title":"Joey","year":"2004-09-09","translations":["Профессиональный (многоголосый закадровый) (ТНТ)"],"seasons_count":2,"episodes_count":46,"episodes":22,"update":"2017-07-28 11:50:16","iframe_src":"//8422.svetacdn.in/IAF0wWTdNYZm/tv-series/1421"},{"id":1413,"title":"Пока станица спит","kp_id":"762855","imdb_id":"tt3204246","world_art_id":null,"type":"serial","add":"2017-07-22 08:55:37","orig_title":"Poka stanitsa spit","year":"2014-01-06","translations":["Оригинальная дорожка"],"seasons_count":1,"episodes_count":270,"episodes":270,"update":"2017-08-07 06:49:56","iframe_src":"//8422.svetacdn.in/IAF0wWTdNYZm/tv-series/1413"},{"id":1411,"title":"Демоны Да Винчи","kp_id":"677719","imdb_id":"tt2094262","world_art_id":null,"type":"serial","add":"2017-07-21 11:16:24","orig_title":"Da Vinci's Demons","year":"2013-04-12","translations":["Профессиональный (многоголосый закадровый) (AlexFilm)","Профессиональный (многоголосый закадровый) (TVShows)"],"seasons_count":3,"episodes_count":28,"episodes":10,"update":"2017-07-28 14:00:51","iframe_src":"//8422.svetacdn.in/IAF0wWTdNYZm/tv-series/1411"},{"id":1410,"title":"Сладкие и порочные","kp_id":"935042","imdb_id":"tt5012644","world_art_id":null,"type":"serial","add":"2017-07-19 12:32:54","orig_title":"Sweet/Vicious","year":"2016-11-15","translations":["Любительский (многоголосый закадровый) (D1)"],"seasons_count":1,"episodes_count":10,"episodes":10,"update":"2017-08-02 06:40:17","iframe_src":"//8422.svetacdn.in/IAF0wWTdNYZm/tv-series/1410"},{"id":1396,"title":"Клан ювелиров","kp_id":"927790","imdb_id":"tt5077144","world_art_id":null,"type":"serial","add":"2017-07-14 05:02:53","orig_title":"Klan yuvelirov","year":"2015-08-17","translations":["Оригинальная дорожка"],"seasons_count":1,"episodes_count":95,"episodes":95,"update":"2017-08-07 07:28:07","iframe_src":"//8422.svetacdn.in/IAF0wWTdNYZm/tv-series/1396"},{"id":1388,"title":"Ад на колёсах","kp_id":"557760","imdb_id":"tt1699748","world_art_id":null,"type":"serial","add":"2017-07-12 09:36:09","orig_title":"Hell on Wheels","year":"2011-11-06","translations":["Профессиональный (многоголосый закадровый) (LostFilm)","Профессиональный (многоголосый закадровый) (TVShows)"],"seasons_count":5,"episodes_count":56,"episodes":14,"update":"2017-08-01 20:04:23","iframe_src":"//8422.svetacdn.in/IAF0wWTdNYZm/tv-series/1388"},{"id":1325,"title":"Другой майор Соколов","kp_id":"840467","imdb_id":"tt5505004","world_art_id":null,"type":"serial","add":"2017-06-20 07:57:58","orig_title":"Drugoy mayor Sokolov","year":"2015-12-14","translations":["Оригинальная дорожка"],"seasons_count":1,"episodes_count":32,"episodes":32,"update":"2017-08-03 10:24:45","iframe_src":"//8422.svetacdn.in/IAF0wWTdNYZm/tv-series/1325"},{"id":10275,"title":"Конг: Остров черепа","kp_id":"843147","imdb_id":"tt3731562","world_art_id":null,"type":"movie","add":"2017-03-09 22:27:59","orig_title":"Kong: Skull Island","year":"2017-03-08","translations":["Полное дублирование","Любительский (многоголосый закадровый) (Синема УС)","Полное дублирование (iTunes)","Original (English)","Авторский (одноголосый закадровый) (Дохалов Вартан)","Авторский (одноголосый закадровый) (Гаврилов Андрей)","Авторский (одноголосый закадровый) (Сербин Юрий)","Авторский (одноголосый закадровый) (Яроцкий Михаил | Kyberpunk)","Авторский (одноголосый закадровый) (Живов Юрий)","Original (English)"],"quality":"bd","translation":"Полное дублирование","update":"2021-03-03 10:58:57","iframe_src":"//8422.svetacdn.in/IAF0wWTdNYZm/movie/10275"},{"id":6690,"title":"Скакун","kp_id":"1842","imdb_id":"tt0098115","world_art_id":null,"type":"movie","add":"2016-10-26 05:13:00","orig_title":"Prancer","year":"1989-11-17","translations":["Профессиональный (многоголосый закадровый)","Профессиональный (двухголосый закадровый) (НТВ)","Original (English)","Любительский (одноголосый закадровый) (lehachuev)"],"quality":"hdtv","translation":"Профессиональный (многоголосый закадровый)","update":"2021-03-02 15:09:22","iframe_src":"//8422.svetacdn.in/IAF0wWTdNYZm/movie/6690"},{"id":435,"title":"Проще пареной репы","kp_id":"1000926","imdb_id":null,"world_art_id":null,"type":"serial","add":"2016-09-12 05:00:12","orig_title":"Проще пареной репы","year":"2016-09-11","translations":["Оригинальная дорожка"],"seasons_count":1,"episodes_count":2,"episodes":2,"update":"2017-07-29 10:44:36","iframe_src":"//8422.svetacdn.in/IAF0wWTdNYZm/tv-series/435"},{"id":232,"title":"Пороги","kp_id":"931157","imdb_id":null,"world_art_id":null,"type":"serial","add":"2016-06-26 06:30:40","orig_title":"Пороги","year":"2015-07-25","translations":["Оригинальная дорожка"],"seasons_count":1,"episodes_count":16,"episodes":16,"update":"2017-07-29 08:05:58","iframe_src":"//8422.svetacdn.in/IAF0wWTdNYZm/tv-series/232"},{"id":166,"title":"Умник","kp_id":"932060","imdb_id":"tt4649420","world_art_id":null,"type":"serial","add":"2016-06-09 13:04:08","orig_title":"Cleverman","year":"2016-06-02","translations":["Профессиональный (многоголосый закадровый) (NewStudio)","Профессиональный (многоголосый закадровый) (BaibaKo)","Профессиональный (многоголосый закадровый) (Jaskier)"],"seasons_count":2,"episodes_count":12,"episodes":6,"update":"2017-08-07 05:21:31","iframe_src":"//8422.svetacdn.in/IAF0wWTdNYZm/tv-series/166"},{"id":164,"title":"Королевство","kp_id":"842336","imdb_id":"tt3673794","world_art_id":null,"type":"serial","add":"2016-06-09 06:57:48","orig_title":"Kingdom","year":"2014-10-08","translations":["Профессиональный (многоголосый закадровый) (NewStudio)"],"seasons_count":3,"episodes_count":40,"episodes":10,"update":"2017-08-08 07:08:14","iframe_src":"//8422.svetacdn.in/IAF0wWTdNYZm/tv-series/164"},{"id":1586,"title":"Хозяин морей: На краю Земли","kp_id":"5565","imdb_id":"tt0311113","world_art_id":null,"type":"movie","add":"2016-04-24 07:47:30","orig_title":"Master and Commander: The Far Side of the World","year":"2003-11-14","translations":["Полное дублирование","Авторский (одноголосый закадровый) (Гаврилов Андрей)","Полное дублирование","Original (English)","Профессиональный (многоголосый закадровый) (Superbit)"],"quality":"bd","translation":"Полное дублирование","update":"2021-03-03 11:09:55","iframe_src":"//8422.svetacdn.in/IAF0wWTdNYZm/movie/1586"}],"current_page":546,"first_page_url":"https://videocdn.tv/api/short?limit=100&api_token=6Onb1W1alEUrBcKJZD3GoKBbWyAl2uG2&cache3546=3546&page=1","from":54501,"last_page":690,"last_page_url":"https://videocdn.tv/api/short?limit=100&api_token=6Onb1W1alEUrBcKJZD3GoKBbWyAl2uG2&cache3546=3546&page=690","next_page_url":"https://videocdn.tv/api/short?limit=100&api_token=6Onb1W1alEUrBcKJZD3GoKBbWyAl2uG2&cache3546=3546&page=547","path":"https://videocdn.tv/api/short","per_page":100,"prev_page_url":"https://videocdn.tv/api/short?limit=100&api_token=6Onb1W1alEUrBcKJZD3GoKBbWyAl2uG2&cache3546=3546&page=545","to":54540,"total":68978}