{"result":true,"data":[{"id":44871,"title":"Коварная тренерша","kp_id":"1428543","imdb_id":"tt13085822","world_art_id":null,"type":"movie","add":"2020-10-28 12:13:45","orig_title":"The Wrong Cheerleader Coach","year":"2020-10-17","translations":["Любительский (многоголосый закадровый) (Синема УС)"],"quality":"hdtv","translation":"Любительский (многоголосый закадровый) (Синема УС)","update":"2020-10-28 14:39:04","iframe_src":"//7043.svetacdn.in/71tsRs29n5tZ/movie/44871"},{"id":44867,"title":"Цветок магнолии","kp_id":null,"imdb_id":"tt11432888","world_art_id":null,"type":"movie","add":"2020-10-28 12:01:55","orig_title":"Kembang Kantil","year":"2018-04-19","translations":["Любительский (двухголосый закадровый) (Колобок)"],"quality":"webdl","translation":"Любительский (двухголосый закадровый) (Колобок)","update":"2020-10-28 14:38:38","iframe_src":"//7043.svetacdn.in/71tsRs29n5tZ/movie/44867"},{"id":44866,"title":"Банда, глава первая: умереть за наследство","kp_id":"1239082","imdb_id":"tt9663100","world_art_id":null,"type":"movie","add":"2020-10-28 11:56:50","orig_title":"El Equipito, Capítulo 1: ¡Todo por una Herencia!","year":"2019-09-19","translations":["Любительский (многоголосый закадровый) (AlphaProject)"],"quality":"webdl","translation":"Любительский (многоголосый закадровый) (AlphaProject)","update":"2020-10-28 14:38:07","iframe_src":"//7043.svetacdn.in/71tsRs29n5tZ/movie/44866"},{"id":44864,"title":"Спецвыпуск \"Западного крыла\" в поддержку голосования","kp_id":"1432439","imdb_id":"tt13180026","world_art_id":null,"type":"movie","add":"2020-10-28 11:50:00","orig_title":"A West Wing Special to benefit When We All Vote","year":"2020-10-15","translations":["Любительский (многоголосый закадровый) (AlphaProject)"],"quality":"webdl","translation":"Любительский (многоголосый закадровый) (AlphaProject)","update":"2020-10-28 14:37:26","iframe_src":"//7043.svetacdn.in/71tsRs29n5tZ/movie/44864"},{"id":44671,"title":"Афера века","kp_id":"1302575","imdb_id":"tt10948718","world_art_id":null,"type":"movie","add":"2020-10-21 18:45:20","orig_title":"El robo del siglo","year":"2020-01-16","translations":["Полное дублирование","Полное дублирование (iTunes)"],"quality":"webdl","translation":"Полное дублирование","update":"2020-10-28 15:19:30","iframe_src":"//7043.svetacdn.in/71tsRs29n5tZ/movie/44671"},{"id":44583,"title":"Дарю тебе звезду","kp_id":"44103","imdb_id":"tt0260840","world_art_id":null,"type":"movie","add":"2020-10-19 15:37:18","orig_title":"Daryu tebe zvezdu","year":"1974-10-19","translations":["Оригинальная дорожка"],"quality":"tv","translation":"Оригинальная дорожка","update":"2020-10-28 15:57:14","iframe_src":"//7043.svetacdn.in/71tsRs29n5tZ/movie/44583"},{"id":44582,"title":"Бабочка и тигр","kp_id":"432777","imdb_id":"tt1329108","world_art_id":null,"type":"movie","add":"2020-10-19 15:35:13","orig_title":"Babochka i tigr","year":"1978-01-01","translations":["Оригинальная дорожка"],"quality":"dvdrip","translation":"Оригинальная дорожка","update":"2020-10-28 15:56:19","iframe_src":"//7043.svetacdn.in/71tsRs29n5tZ/movie/44582"},{"id":44581,"title":"Поморская быль","kp_id":"461841","imdb_id":"tt6088730","world_art_id":null,"type":"movie","add":"2020-10-19 15:26:49","orig_title":"Pomorskaya byl","year":"1987-01-01","translations":["Оригинальная дорожка"],"quality":"dvdrip","translation":"Оригинальная дорожка","update":"2020-10-28 15:54:56","iframe_src":"//7043.svetacdn.in/71tsRs29n5tZ/movie/44581"},{"id":44580,"title":"Песочные часы","kp_id":"487564","imdb_id":"tt9037044","world_art_id":null,"type":"movie","add":"2020-10-19 15:24:25","orig_title":"Pesochnye chasy","year":"1987-01-01","translations":["Оригинальная дорожка"],"quality":"dvdrip","translation":"Оригинальная дорожка","update":"2020-10-28 15:53:50","iframe_src":"//7043.svetacdn.in/71tsRs29n5tZ/movie/44580"},{"id":44579,"title":"Туда и обратно","kp_id":"461729","imdb_id":"tt6052726","world_art_id":null,"type":"movie","add":"2020-10-19 15:21:19","orig_title":"Tuda i obratno","year":"1985-01-01","translations":["Оригинальная дорожка"],"quality":"dvdrip","translation":"Оригинальная дорожка","update":"2020-10-28 15:52:57","iframe_src":"//7043.svetacdn.in/71tsRs29n5tZ/movie/44579"},{"id":44578,"title":"На воде","kp_id":"257976","imdb_id":null,"world_art_id":null,"type":"movie","add":"2020-10-19 15:18:36","orig_title":"На воде","year":"1986-01-01","translations":["Оригинальная дорожка"],"quality":"dvdrip","translation":"Оригинальная дорожка","update":"2020-10-28 15:51:47","iframe_src":"//7043.svetacdn.in/71tsRs29n5tZ/movie/44578"},{"id":44576,"title":"Парадоксы в стиле рок","kp_id":"467029","imdb_id":"tt6016468","world_art_id":null,"type":"movie","add":"2020-10-19 15:10:25","orig_title":"Paradoksy v stile rok","year":"1982-01-01","translations":["Оригинальная дорожка"],"quality":"dvdrip","translation":"Оригинальная дорожка","update":"2020-10-28 15:50:54","iframe_src":"//7043.svetacdn.in/71tsRs29n5tZ/movie/44576"},{"id":44575,"title":"Берегите хлеб!","kp_id":"485352","imdb_id":"tt2604358","world_art_id":null,"type":"movie","add":"2020-10-19 15:06:39","orig_title":"Beregite khleb!","year":"1982-01-01","translations":["Оригинальная дорожка"],"quality":"sat","translation":"Оригинальная дорожка","update":"2020-10-28 15:49:19","iframe_src":"//7043.svetacdn.in/71tsRs29n5tZ/movie/44575"},{"id":44560,"title":"Прочти и катай в Париж и Китай","kp_id":"632485","imdb_id":null,"world_art_id":null,"type":"movie","add":"2020-10-18 20:32:17","orig_title":"Прочти и катай в Париж и Китай","year":"1960-01-01","translations":["Оригинальная дорожка"],"quality":"sat","translation":"Оригинальная дорожка","update":"2020-10-28 14:43:48","iframe_src":"//7043.svetacdn.in/71tsRs29n5tZ/movie/44560"},{"id":44559,"title":"Раз — горох, два — горох...","kp_id":"257972","imdb_id":"tt1826825","world_art_id":null,"type":"movie","add":"2020-10-18 20:26:39","orig_title":"Raz - gorokh, dva - gorokh...","year":"1981-12-09","translations":["Оригинальная дорожка"],"quality":"dvdrip","translation":"Оригинальная дорожка","update":"2020-10-28 14:42:36","iframe_src":"//7043.svetacdn.in/71tsRs29n5tZ/movie/44559"},{"id":44558,"title":"Самый главный","kp_id":"738478","imdb_id":"tt6852980","world_art_id":null,"type":"movie","add":"2020-10-18 20:13:55","orig_title":"Samyy glavnyy","year":"1970-01-01","translations":["Оригинальная дорожка"],"quality":"sat","translation":"Оригинальная дорожка","update":"2020-10-28 14:41:37","iframe_src":"//7043.svetacdn.in/71tsRs29n5tZ/movie/44558"},{"id":44557,"title":"Сказка о зеркале","kp_id":"1045202","imdb_id":null,"world_art_id":null,"type":"movie","add":"2020-10-18 20:10:34","orig_title":"Сказка о зеркале","year":"1982-01-01","translations":["Оригинальная дорожка"],"quality":"dvdrip","translation":"Оригинальная дорожка","update":"2020-10-28 14:39:56","iframe_src":"//7043.svetacdn.in/71tsRs29n5tZ/movie/44557"},{"id":44556,"title":"Сказка о жадности","kp_id":"667069","imdb_id":"tt9045084","world_art_id":null,"type":"movie","add":"2020-10-18 20:05:20","orig_title":"Skazka o zhadnosti","year":"1976-01-01","translations":["Оригинальная дорожка"],"quality":"dvdrip","translation":"Оригинальная дорожка","update":"2020-10-28 14:38:56","iframe_src":"//7043.svetacdn.in/71tsRs29n5tZ/movie/44556"},{"id":44554,"title":"Слоненок","kp_id":"43852","imdb_id":"tt0219313","world_art_id":null,"type":"movie","add":"2020-10-18 19:58:37","orig_title":"Slonyonok","year":"1967-02-04","translations":["Оригинальная дорожка"],"quality":"dvdrip","translation":"Оригинальная дорожка","update":"2020-10-28 14:15:24","iframe_src":"//7043.svetacdn.in/71tsRs29n5tZ/movie/44554"},{"id":38186,"title":"Идеальный хозяин","kp_id":"437479","imdb_id":"tt1334553","world_art_id":null,"type":"movie","add":"2020-03-18 16:26:43","orig_title":"The Perfect Host","year":"2010-01-01","translations":["Любительский (одноголосый закадровый)  (zamez | Замез Вячеслав)","Профессиональный (многоголосый закадровый) (iTunes)"],"quality":"bd","translation":"Любительский (одноголосый закадровый)  (zamez | Замез Вячеслав)","update":"2020-10-28 15:20:38","iframe_src":"//7043.svetacdn.in/71tsRs29n5tZ/movie/38186"},{"id":4892,"title":"Няня","kp_id":"161259","imdb_id":"tt0106080","world_art_id":null,"type":"serial","add":"2019-07-19 07:57:50","orig_title":"The Nanny","year":"1993-11-03","translations":["Профессиональный (многоголосый закадровый)"],"seasons_count":6,"episodes_count":144,"episodes":21,"update":"2019-07-22 08:36:30","iframe_src":"//7043.svetacdn.in/71tsRs29n5tZ/tv-series/4892"},{"id":4891,"title":"Лабиринт","kp_id":"425828","imdb_id":"tt0161161","world_art_id":null,"type":"serial","add":"2019-07-18 20:15:08","orig_title":"Labirinto","year":"1998-01-01","translations":["Профессиональный (многоголосый закадровый)"],"seasons_count":1,"episodes_count":15,"episodes":15,"update":"2019-07-19 13:44:11","iframe_src":"//7043.svetacdn.in/71tsRs29n5tZ/tv-series/4891"},{"id":4890,"title":"Водоворот чужих желаний","kp_id":"777788","imdb_id":"tt3653382","world_art_id":null,"type":"serial","add":"2019-07-18 20:10:21","orig_title":"Vodovorot chuzhikh zhelaniy","year":"2013-11-10","translations":["Оригинальная дорожка"],"seasons_count":1,"episodes_count":4,"episodes":4,"update":"2019-07-19 12:51:57","iframe_src":"//7043.svetacdn.in/71tsRs29n5tZ/tv-series/4890"},{"id":4889,"title":"Всё будет хорошо","kp_id":"806656","imdb_id":null,"world_art_id":null,"type":"serial","add":"2019-07-18 20:05:07","orig_title":"Всё будет хорошо","year":"2013-10-25","translations":["Оригинальная дорожка"],"seasons_count":1,"episodes_count":4,"episodes":4,"update":"2019-07-19 12:48:57","iframe_src":"//7043.svetacdn.in/71tsRs29n5tZ/tv-series/4889"},{"id":4888,"title":"Наполеон","kp_id":"77227","imdb_id":"tt0253839","world_art_id":null,"type":"serial","add":"2019-07-18 12:23:44","orig_title":"Napoléon","year":"2002-10-07","translations":["Профессиональный (многоголосый закадровый)"],"seasons_count":1,"episodes_count":4,"episodes":4,"update":"2019-07-19 07:53:18","iframe_src":"//7043.svetacdn.in/71tsRs29n5tZ/tv-series/4888"},{"id":4887,"title":"Аляска Кид","kp_id":"94946","imdb_id":"tt0105936","world_art_id":null,"type":"serial","add":"2019-07-18 12:12:07","orig_title":"Alaska Kid","year":"1993-12-01","translations":["Профессиональный (двухголосый закадровый)"],"seasons_count":1,"episodes_count":13,"episodes":13,"update":"2019-07-19 07:52:36","iframe_src":"//7043.svetacdn.in/71tsRs29n5tZ/tv-series/4887"},{"id":4886,"title":"Машины песенки","kp_id":"1272438","imdb_id":null,"world_art_id":null,"type":"serial","add":"2019-07-18 12:00:54","orig_title":"Машины песенки","year":"2019-01-01","translations":["Оригинальная дорожка"],"seasons_count":1,"episodes_count":2,"episodes":2,"update":"2019-07-18 18:59:28","iframe_src":"//7043.svetacdn.in/71tsRs29n5tZ/tv-series/4886"},{"id":4885,"title":"Толедо","kp_id":"660898","imdb_id":"tt2091188","world_art_id":null,"type":"serial","add":"2019-07-18 11:57:01","orig_title":"Toledo","year":"2012-01-10","translations":["Профессиональный (многоголосый закадровый)"],"seasons_count":1,"episodes_count":13,"episodes":13,"update":"2019-07-19 07:44:47","iframe_src":"//7043.svetacdn.in/71tsRs29n5tZ/tv-series/4885"},{"id":4882,"title":"Три в одном 5","kp_id":"1252922","imdb_id":null,"world_art_id":null,"type":"serial","add":"2019-07-18 10:20:59","orig_title":"Три в одном 5","year":"2019-03-15","translations":["Оригинальная дорожка"],"seasons_count":1,"episodes_count":2,"episodes":2,"update":"2019-07-19 07:01:29","iframe_src":"//7043.svetacdn.in/71tsRs29n5tZ/tv-series/4882"},{"id":4881,"title":"Три в одном 4","kp_id":"1252921","imdb_id":null,"world_art_id":null,"type":"serial","add":"2019-07-18 10:16:13","orig_title":"Три в одном 4","year":"2019-03-14","translations":["Оригинальная дорожка"],"seasons_count":1,"episodes_count":2,"episodes":2,"update":"2019-07-19 07:00:53","iframe_src":"//7043.svetacdn.in/71tsRs29n5tZ/tv-series/4881"},{"id":4880,"title":"Три в одном 3","kp_id":"1171631","imdb_id":null,"world_art_id":null,"type":"serial","add":"2019-07-18 10:11:06","orig_title":"Три в одном 3","year":"2018-06-15","translations":["Оригинальная дорожка"],"seasons_count":1,"episodes_count":2,"episodes":2,"update":"2019-07-19 07:00:27","iframe_src":"//7043.svetacdn.in/71tsRs29n5tZ/tv-series/4880"},{"id":4874,"title":"Грязные мокрые деньги","kp_id":"308433","imdb_id":"tt0960136","world_art_id":null,"type":"serial","add":"2019-07-17 11:28:10","orig_title":"Dirty Sexy Money","year":"2007-09-26","translations":["Полное дублирование (Первый канал | ОРТ)"],"seasons_count":2,"episodes_count":23,"episodes":13,"update":"2019-07-19 12:45:46","iframe_src":"//7043.svetacdn.in/71tsRs29n5tZ/tv-series/4874"},{"id":4873,"title":"Амазония","kp_id":"251949","imdb_id":"tt0205737","world_art_id":null,"type":"serial","add":"2019-07-17 11:14:22","orig_title":"Amazon","year":"1999-09-25","translations":["Профессиональный (многоголосый закадровый) (ТВ3)"],"seasons_count":1,"episodes_count":22,"episodes":22,"update":"2019-07-18 09:17:13","iframe_src":"//7043.svetacdn.in/71tsRs29n5tZ/tv-series/4873"},{"id":4871,"title":"Любовь без грима","kp_id":"418603","imdb_id":"tt1086221","world_art_id":null,"type":"serial","add":"2019-07-17 11:00:48","orig_title":"Amor sin maquillaje","year":"2007-09-17","translations":["Любительский (одноголосый закадровый)"],"seasons_count":1,"episodes_count":25,"episodes":25,"update":"2019-07-18 08:57:41","iframe_src":"//7043.svetacdn.in/71tsRs29n5tZ/tv-series/4871"},{"id":4869,"title":"Боевой континент","kp_id":null,"imdb_id":"tt8948436","world_art_id":null,"type":"serial","add":"2019-07-17 10:41:21","orig_title":"Douluo Dalu","year":"2018-01-20","translations":["Любительский (двухголосый закадровый)"],"seasons_count":1,"episodes_count":42,"episodes":42,"update":"2019-07-19 06:58:50","iframe_src":"//7043.svetacdn.in/71tsRs29n5tZ/tv-series/4869"},{"id":4780,"title":"Боишься ли ты темноты?","kp_id":"258226","imdb_id":"tt0103352","world_art_id":null,"type":"serial","add":"2019-07-03 12:24:47","orig_title":"Are You Afraid of the Dark?","year":"1990-10-31","translations":["Профессиональный (многоголосый закадровый)"],"seasons_count":7,"episodes_count":75,"episodes":12,"update":"2019-07-19 12:40:59","iframe_src":"//7043.svetacdn.in/71tsRs29n5tZ/tv-series/4780"},{"id":4607,"title":"Солдаты 15: Новый призыв","kp_id":"565744","imdb_id":null,"world_art_id":null,"type":"serial","add":"2019-05-31 14:54:08","orig_title":"Солдаты 15: Новый призыв","year":"2008-09-01","translations":["Оригинальная дорожка"],"seasons_count":1,"episodes_count":83,"episodes":83,"update":"2019-07-19 13:26:13","iframe_src":"//7043.svetacdn.in/71tsRs29n5tZ/tv-series/4607"},{"id":4606,"title":"Солдаты 14","kp_id":"565507","imdb_id":null,"world_art_id":null,"type":"serial","add":"2019-05-31 14:48:42","orig_title":"Солдаты 14","year":"2008-01-01","translations":["Оригинальная дорожка"],"seasons_count":1,"episodes_count":64,"episodes":64,"update":"2019-07-18 12:25:05","iframe_src":"//7043.svetacdn.in/71tsRs29n5tZ/tv-series/4606"},{"id":3903,"title":"Вскрытие покажет","kp_id":"1235279","imdb_id":"tt9716772","world_art_id":null,"type":"serial","add":"2019-01-18 01:07:34","orig_title":"Вскрытие покажет","year":"2019-01-14","translations":["Оригинальная дорожка"],"seasons_count":1,"episodes_count":32,"episodes":32,"update":"2019-07-19 07:31:15","iframe_src":"//7043.svetacdn.in/71tsRs29n5tZ/tv-series/3903"},{"id":1095,"title":"Ми-ми-мишки","kp_id":"923524","imdb_id":"tt7037778","world_art_id":null,"type":"serial","add":"2017-03-13 06:17:09","orig_title":"Be-Be-Bears","year":"2015-03-21","translations":["Оригинальная дорожка"],"seasons_count":1,"episodes_count":143,"episodes":143,"update":"2019-07-21 15:03:30","iframe_src":"//7043.svetacdn.in/71tsRs29n5tZ/tv-series/1095"}],"current_page":330,"first_page_url":"https://videocdn.tv/api/short?limit=100&api_token=EnbO9h8pv1VyjbCJhg0WM9nG259n7mtz&cache3330=3330&page=1","from":32901,"last_page":611,"last_page_url":"https://videocdn.tv/api/short?limit=100&api_token=EnbO9h8pv1VyjbCJhg0WM9nG259n7mtz&cache3330=3330&page=611","next_page_url":"https://videocdn.tv/api/short?limit=100&api_token=EnbO9h8pv1VyjbCJhg0WM9nG259n7mtz&cache3330=3330&page=331","path":"https://videocdn.tv/api/short","per_page":100,"prev_page_url":"https://videocdn.tv/api/short?limit=100&api_token=EnbO9h8pv1VyjbCJhg0WM9nG259n7mtz&cache3330=3330&page=329","to":32940,"total":61080}