{"result":true,"data":[{"id":35732,"title":"Лети, папочка, лети","kp_id":"277069","imdb_id":"tt0857334","world_art_id":null,"type":"movie","add":"2020-02-02 12:27:51","orig_title":"Peullai, daedi","year":"2006-08-03","translations":["Любительский (одноголосый закадровый)"],"quality":"dvdrip","translation":"Любительский (одноголосый закадровый)","update":"2020-02-03 13:17:44","iframe_src":"//83.svetacdn.in/PfJ50H0ZBPg3/movie/35732"},{"id":35725,"title":"Лишайный парень","kp_id":"37160","imdb_id":"tt0081419","world_art_id":null,"type":"movie","add":"2020-01-31 23:04:49","orig_title":"Chou tou xiao zi","year":"1972-12-21","translations":["Профессиональный (двухголосый закадровый)"],"quality":"dvdrip","translation":"Профессиональный (двухголосый закадровый)","update":"2020-02-03 13:12:14","iframe_src":"//83.svetacdn.in/PfJ50H0ZBPg3/movie/35725"},{"id":35724,"title":"Битва под Орионом","kp_id":"448439","imdb_id":"tt1382642","world_art_id":null,"type":"movie","add":"2020-01-31 23:01:56","orig_title":"Manatsu no Orion","year":"2009-06-13","translations":["Любительский (двухголосый закадровый)"],"quality":"bd","translation":"Любительский (двухголосый закадровый)","update":"2020-02-03 13:11:14","iframe_src":"//83.svetacdn.in/PfJ50H0ZBPg3/movie/35724"},{"id":35723,"title":"Невиданный цветок","kp_id":"931846","imdb_id":"tt4990696","world_art_id":null,"type":"movie","add":"2020-01-31 22:58:41","orig_title":"Ano hi mita hana no namae wo boku wa shiranai","year":"2015-09-21","translations":["Любительский (многоголосый закадровый)"],"quality":"hdtv","translation":"Любительский (многоголосый закадровый)","update":"2020-02-03 13:10:11","iframe_src":"//83.svetacdn.in/PfJ50H0ZBPg3/movie/35723"},{"id":35722,"title":"Никто меня не защитит","kp_id":"404610","imdb_id":"tt1147686","world_art_id":null,"type":"movie","add":"2020-01-31 22:55:49","orig_title":"Dare mo mamotte kurenai","year":"2008-08-31","translations":["Любительский (двухголосый закадровый) (GREEN TEA)"],"quality":"dvdrip","translation":"Любительский (двухголосый закадровый) (GREEN TEA)","update":"2020-02-03 13:01:31","iframe_src":"//83.svetacdn.in/PfJ50H0ZBPg3/movie/35722"},{"id":35721,"title":"Охотники за сокровищами","kp_id":"463518","imdb_id":"tt1328865","world_art_id":null,"type":"movie","add":"2020-01-31 22:53:14","orig_title":"Ci ling","year":"2009-12-30","translations":["Профессиональный (многоголосый закадровый)"],"quality":"dvdrip","translation":"Профессиональный (многоголосый закадровый)","update":"2020-02-03 12:55:40","iframe_src":"//83.svetacdn.in/PfJ50H0ZBPg3/movie/35721"},{"id":35720,"title":"Паучий лес","kp_id":"95561","imdb_id":"tt0407821","world_art_id":null,"type":"movie","add":"2020-01-31 22:47:48","orig_title":"Geomi sup","year":"2004-09-03","translations":["Авторский (одноголосый закадровый) (Карповский Антон)"],"quality":"dvdrip","translation":"Авторский (одноголосый закадровый) (Карповский Антон)","update":"2020-02-03 12:50:29","iframe_src":"//83.svetacdn.in/PfJ50H0ZBPg3/movie/35720"},{"id":35719,"title":"Переработка","kp_id":"401171","imdb_id":"tt1047877","world_art_id":null,"type":"movie","add":"2020-01-31 22:44:55","orig_title":"Resiklo","year":"2007-12-25","translations":["Профессиональный (многоголосый закадровый)"],"quality":"dvdrip","translation":"Профессиональный (многоголосый закадровый)","update":"2020-02-03 12:47:55","iframe_src":"//83.svetacdn.in/PfJ50H0ZBPg3/movie/35719"},{"id":35718,"title":"Воин из ветра","kp_id":"391099","imdb_id":"tt0122569","world_art_id":null,"type":"movie","add":"2020-01-31 22:42:02","orig_title":"Kaze no bushi","year":"1964-01-15","translations":["Авторский (одноголосый закадровый) (Кузнецов Сергей)"],"quality":"dvdrip","translation":"Авторский (одноголосый закадровый) (Кузнецов Сергей)","update":"2020-02-03 12:45:18","iframe_src":"//83.svetacdn.in/PfJ50H0ZBPg3/movie/35718"},{"id":35717,"title":"Вечная вражда","kp_id":"37165","imdb_id":"tt0078884","world_art_id":null,"type":"movie","add":"2020-01-31 22:38:06","orig_title":"Bo ming dan dao duo ming qiang","year":"1979-08-09","translations":["Любительский (одноголосый закадровый)"],"quality":"bd","translation":"Любительский (одноголосый закадровый)","update":"2020-02-03 12:44:20","iframe_src":"//83.svetacdn.in/PfJ50H0ZBPg3/movie/35717"},{"id":35712,"title":"Посланники Шаолиня","kp_id":"384857","imdb_id":"tt0185776","world_art_id":null,"type":"movie","add":"2020-01-31 19:02:24","orig_title":"Xiao lin lao zu","year":"1995-05-04","translations":["Любительский (одноголосый закадровый)"],"quality":"vhs","translation":"Любительский (одноголосый закадровый)","update":"2020-02-03 12:42:21","iframe_src":"//83.svetacdn.in/PfJ50H0ZBPg3/movie/35712"},{"id":35711,"title":"Последняя битва Янг Чао","kp_id":null,"imdb_id":"tt1742032","world_art_id":null,"type":"movie","add":"2020-01-31 18:42:41","orig_title":"Da zhong lie","year":"1976-01-01","translations":["Авторский (одноголосый закадровый) (Багичев Алексей)"],"quality":"dvdrip","translation":"Авторский (одноголосый закадровый) (Багичев Алексей)","update":"2020-02-03 12:40:56","iframe_src":"//83.svetacdn.in/PfJ50H0ZBPg3/movie/35711"},{"id":35710,"title":"Пурпурный шторм","kp_id":"28557","imdb_id":"tt0226693","world_art_id":null,"type":"movie","add":"2020-01-31 18:37:20","orig_title":"Zi yu feng bao","year":"1999-11-25","translations":["Профессиональный (двухголосый закадровый)"],"quality":"dvdrip","translation":"Профессиональный (двухголосый закадровый)","update":"2020-02-03 12:37:50","iframe_src":"//83.svetacdn.in/PfJ50H0ZBPg3/movie/35710"},{"id":35709,"title":"Быстрый меч Окацу","kp_id":"65555","imdb_id":null,"world_art_id":null,"type":"movie","add":"2020-01-31 18:34:32","orig_title":"Yôen dokufu-den: Hitokiri Okatsu","year":"1969-04-22","translations":["Авторский (одноголосый закадровый) (Кузнецов Сергей)"],"quality":"dvdrip","translation":"Авторский (одноголосый закадровый) (Кузнецов Сергей)","update":"2020-02-03 12:37:24","iframe_src":"//83.svetacdn.in/PfJ50H0ZBPg3/movie/35709"},{"id":35708,"title":"Термы Рима 2","kp_id":"740464","imdb_id":"tt2664264","world_art_id":null,"type":"movie","add":"2020-01-31 18:25:28","orig_title":"Terumae romae II","year":"2014-04-26","translations":["Любительский (двухголосый закадровый) (DeadSno & den904)"],"quality":"hdrip","translation":"Любительский (двухголосый закадровый) (DeadSno & den904)","update":"2020-02-03 12:30:01","iframe_src":"//83.svetacdn.in/PfJ50H0ZBPg3/movie/35708"},{"id":35707,"title":"Смертник","kp_id":"60795","imdb_id":"tt0331834","world_art_id":null,"type":"movie","add":"2020-01-31 18:22:24","orig_title":"Alive","year":"2002-09-12","translations":["Профессиональный (многоголосый закадровый)"],"quality":"dvdrip","translation":"Профессиональный (многоголосый закадровый)","update":"2020-02-03 12:24:01","iframe_src":"//83.svetacdn.in/PfJ50H0ZBPg3/movie/35707"},{"id":35706,"title":"Странная битва","kp_id":null,"imdb_id":"tt9434008","world_art_id":null,"type":"movie","add":"2020-01-31 18:18:53","orig_title":"Strange Battle","year":"2016-01-01","translations":["Любительский (двухголосый закадровый) (Колобок)"],"quality":"hdrip","translation":"Любительский (двухголосый закадровый) (Колобок)","update":"2020-02-03 12:10:45","iframe_src":"//83.svetacdn.in/PfJ50H0ZBPg3/movie/35706"},{"id":16970,"title":"Ре-цикл","kp_id":"255102","imdb_id":"tt0498311","world_art_id":null,"type":"movie","add":"2018-05-30 10:39:39","orig_title":"Gwai wik","year":"2006-05-26","translations":["Авторский (одноголосый закадровый) (Сербин Юрий)","Профессиональный (многоголосый закадровый) (Инис)"],"quality":"bd","translation":"Авторский (одноголосый закадровый) (Сербин Юрий)","update":"2020-02-03 12:31:13","iframe_src":"//83.svetacdn.in/PfJ50H0ZBPg3/movie/16970"},{"id":4458,"title":"По пятам","kp_id":"966952","imdb_id":"tt5078188","world_art_id":null,"type":"movie","add":"2016-08-16 13:01:21","orig_title":"The Tag-Along","year":"2015-11-27","translations":["Любительский (двухголосый закадровый)","Любительский (двухголосый закадровый) (DeadSno & den904)"],"quality":"hdrip","translation":"Любительский (двухголосый закадровый)","update":"2020-02-03 13:14:58","iframe_src":"//83.svetacdn.in/PfJ50H0ZBPg3/movie/4458"},{"id":2819,"title":"Паразит: Часть 1","kp_id":"809130","imdb_id":"tt3345472","world_art_id":null,"type":"movie","add":"2016-06-01 15:41:21","orig_title":"Kiseijuu","year":"2014-10-30","translations":["Любительский (многоголосый закадровый) (Колобок)","Любительский (многоголосый закадровый) (CactusTeam)"],"quality":"bd","translation":"Любительский (многоголосый закадровый) (Колобок)","update":"2020-02-03 12:52:19","iframe_src":"//83.svetacdn.in/PfJ50H0ZBPg3/movie/2819"}],"current_page":1020,"first_page_url":"https://videocdn.tv/api/short?limit=100&api_token=RgFQdUIR2dRmwv8iYa5SnFNgnw3vpjKj&cache31020=31020&page=1","from":101901,"last_page":648,"last_page_url":"https://videocdn.tv/api/short?limit=100&api_token=RgFQdUIR2dRmwv8iYa5SnFNgnw3vpjKj&cache31020=31020&page=648","next_page_url":null,"path":"https://videocdn.tv/api/short","per_page":100,"prev_page_url":"https://videocdn.tv/api/short?limit=100&api_token=RgFQdUIR2dRmwv8iYa5SnFNgnw3vpjKj&cache31020=31020&page=1019","to":101920,"total":64704}