{"result":true,"data":[{"id":30304,"title":"Приливная волна зомби","kp_id":"1281756","imdb_id":"tt10551118","world_art_id":null,"type":"movie","add":"2019-08-27 04:22:11","orig_title":"Zombie Tidal Wave","year":"2019-08-17","translations":["Любительский (многоголосый закадровый) (Синема УС)"],"quality":"hdtv","translation":"Любительский (многоголосый закадровый) (Синема УС)","update":"2019-08-27 07:07:16","iframe_src":"//8422.svetacdn.in/IAF0wWTdNYZm/movie/30304"},{"id":30302,"title":"Врата рая","kp_id":"1236302","imdb_id":"tt9730644","world_art_id":null,"type":"movie","add":"2019-08-27 04:19:53","orig_title":"Gates of Paradise","year":"2019-08-17","translations":["Профессиональный (многоголосый закадровый) (AlphaProject)"],"quality":"hdtv","translation":"Профессиональный (многоголосый закадровый) (AlphaProject)","update":"2019-08-27 07:09:19","iframe_src":"//8422.svetacdn.in/IAF0wWTdNYZm/movie/30302"},{"id":30296,"title":"В поисках счастья","kp_id":"779658","imdb_id":"tt3025636","world_art_id":null,"type":"movie","add":"2019-08-26 10:45:55","orig_title":"Searching for Fortune","year":"2018-07-01","translations":["Любительский (многоголосый закадровый) (Синема УС)"],"quality":"webdl","translation":"Любительский (многоголосый закадровый) (Синема УС)","update":"2019-08-26 13:03:10","iframe_src":"//8422.svetacdn.in/IAF0wWTdNYZm/movie/30296"},{"id":30294,"title":"На балконе","kp_id":"1115750","imdb_id":"tt9690762","world_art_id":null,"type":"movie","add":"2019-08-26 10:32:31","orig_title":"Yang tai shang","year":"2019-03-15","translations":["Любительский (многоголосый закадровый) (Колобок)"],"quality":"webdl","translation":"Любительский (многоголосый закадровый) (Колобок)","update":"2019-08-26 13:01:27","iframe_src":"//8422.svetacdn.in/IAF0wWTdNYZm/movie/30294"},{"id":30292,"title":"Итоговый проект","kp_id":"1056853","imdb_id":"tt7083740","world_art_id":null,"type":"movie","add":"2019-08-26 10:21:02","orig_title":"Media Studies","year":"2017-07-10","translations":["Любительский (многоголосый закадровый) (Синема УС)"],"quality":"webdl","translation":"Любительский (многоголосый закадровый) (Синема УС)","update":"2019-08-26 13:00:05","iframe_src":"//8422.svetacdn.in/IAF0wWTdNYZm/movie/30292"},{"id":30291,"title":"Калейдоскоп","kp_id":"975802","imdb_id":"tt5634088","world_art_id":null,"type":"movie","add":"2019-08-26 10:16:52","orig_title":"Kaleidoscope","year":"2016-10-21","translations":["Любительский (многоголосый закадровый) (Синема УС)"],"quality":"bd","translation":"Любительский (многоголосый закадровый) (Синема УС)","update":"2019-08-26 19:11:09","iframe_src":"//8422.svetacdn.in/IAF0wWTdNYZm/movie/30291"},{"id":30290,"title":"В центре внимания","kp_id":"882309","imdb_id":"tt4158316","world_art_id":null,"type":"movie","add":"2019-08-26 10:13:13","orig_title":"Limelight","year":"2017-09-07","translations":["Любительский (многоголосый закадровый) (Синема УС)"],"quality":"webdl","translation":"Любительский (многоголосый закадровый) (Синема УС)","update":"2019-08-26 19:10:09","iframe_src":"//8422.svetacdn.in/IAF0wWTdNYZm/movie/30290"},{"id":30289,"title":"Измена","kp_id":"7631","imdb_id":"tt0085234","world_art_id":null,"type":"movie","add":"2019-08-25 20:37:55","orig_title":"Betrayal","year":"1983-02-20","translations":["Профессиональный (двухголосый закадровый) (НТВ)"],"quality":"dvb","translation":"Профессиональный (двухголосый закадровый) (НТВ)","update":"2019-08-26 12:42:55","iframe_src":"//8422.svetacdn.in/IAF0wWTdNYZm/movie/30289"},{"id":30283,"title":"Авангард","kp_id":"284014","imdb_id":"tt0977669","world_art_id":null,"type":"movie","add":"2019-08-25 20:13:37","orig_title":"The Vanguard","year":"2008-04-06","translations":["Профессиональный (многоголосый закадровый)"],"quality":"dvdrip","translation":"Профессиональный (многоголосый закадровый)","update":"2019-08-26 12:32:56","iframe_src":"//8422.svetacdn.in/IAF0wWTdNYZm/movie/30283"},{"id":30279,"title":"369","kp_id":"1293159","imdb_id":"tt10638296","world_art_id":null,"type":"movie","add":"2019-08-25 20:03:08","orig_title":"Guna 369","year":"2019-08-02","translations":["Любительский (многоголосый закадровый) (Синема УС)"],"quality":"webdl","translation":"Любительский (многоголосый закадровый) (Синема УС)","update":"2019-08-27 07:08:20","iframe_src":"//8422.svetacdn.in/IAF0wWTdNYZm/movie/30279"},{"id":30276,"title":"Живой товар","kp_id":"96511","imdb_id":"tt0068989","world_art_id":null,"type":"movie","add":"2019-08-25 19:51:50","orig_title":"Die Mädchenhändler","year":"1972-09-29","translations":["Авторский (одноголосый закадровый) (Алексеев Антон)"],"quality":"dvdrip","translation":"Авторский (одноголосый закадровый) (Алексеев Антон)","update":"2019-08-26 12:19:16","iframe_src":"//8422.svetacdn.in/IAF0wWTdNYZm/movie/30276"},{"id":30266,"title":"Посетители","kp_id":"104787","imdb_id":"tt0094730","world_art_id":null,"type":"movie","add":"2019-08-25 18:41:53","orig_title":"Besökarna","year":"1988-04-29","translations":["Любительский (одноголосый закадровый) (fiendover)","Профессиональный (многоголосый закадровый) (Варус-Видео)"],"quality":"dvdrip","translation":"Любительский (одноголосый закадровый) (fiendover)","update":"2019-08-26 12:28:59","iframe_src":"//8422.svetacdn.in/IAF0wWTdNYZm/movie/30266"},{"id":30200,"title":"Материнский инстинкт","kp_id":"1058201","imdb_id":"tt7377132","world_art_id":null,"type":"movie","add":"2019-08-22 21:48:16","orig_title":"Duelles","year":"2018-09-07","translations":["Полное дублирование","Полное дублирование"],"quality":"webdl","translation":"Полное дублирование","update":"2019-08-26 19:14:05","iframe_src":"//8422.svetacdn.in/IAF0wWTdNYZm/movie/30200"},{"id":26382,"title":"Собачья жизнь 2","kp_id":"1122114","imdb_id":"tt8385474","world_art_id":null,"type":"movie","add":"2019-05-12 21:39:59","orig_title":"A Dog's Journey","year":"2019-05-03","translations":["Полное дублирование","Original (English)"],"quality":"bd","translation":"Полное дублирование","update":"2019-08-27 04:57:52","iframe_src":"//8422.svetacdn.in/IAF0wWTdNYZm/movie/26382"},{"id":25458,"title":"Робот 2.0","kp_id":"939684","imdb_id":"tt5080556","world_art_id":null,"type":"movie","add":"2019-04-27 20:49:57","orig_title":"2.0","year":"2018-11-29","translations":["Полное дублирование"],"quality":"webdl","translation":"Полное дублирование","update":"2019-08-26 19:12:28","iframe_src":"//8422.svetacdn.in/IAF0wWTdNYZm/movie/25458"},{"id":20739,"title":"Вожделение","kp_id":"257901","imdb_id":"tt0808357","world_art_id":null,"type":"movie","add":"2018-12-13 21:17:01","orig_title":"Se, jie","year":"2007-08-30","translations":["Профессиональный (многоголосый закадровый)"],"quality":"bd","translation":"Профессиональный (многоголосый закадровый)","update":"2019-08-27 04:51:29","iframe_src":"//8422.svetacdn.in/IAF0wWTdNYZm/movie/20739"},{"id":17235,"title":"Эскобар","kp_id":"929885","imdb_id":"tt4682788","world_art_id":null,"type":"movie","add":"2018-06-19 00:38:33","orig_title":"Loving Pablo","year":"2017-09-06","translations":["Полное дублирование","Original (English)"],"quality":"bd","translation":"Полное дублирование","update":"2019-08-27 05:02:46","iframe_src":"//8422.svetacdn.in/IAF0wWTdNYZm/movie/17235"},{"id":16599,"title":"Выжившие","kp_id":"939770","imdb_id":"tt5085522","world_art_id":null,"type":"movie","add":"2018-05-03 20:24:56","orig_title":"Hostile","year":"2017-07-04","translations":["Профессиональный (многоголосый закадровый)","Original (English)"],"quality":"bd","translation":"Профессиональный (многоголосый закадровый)","update":"2019-08-27 05:01:38","iframe_src":"//8422.svetacdn.in/IAF0wWTdNYZm/movie/16599"},{"id":11986,"title":"Супермен 2: Режиссерская версия","kp_id":"260904","imdb_id":"tt0839995","world_art_id":null,"type":"movie","add":"2017-06-16 10:05:34","orig_title":"Superman II","year":"2006-11-02","translations":["Профессиональный (двухголосый закадровый)","Original (English)"],"quality":"bd","translation":"Профессиональный (двухголосый закадровый)","update":"2019-08-27 04:52:45","iframe_src":"//8422.svetacdn.in/IAF0wWTdNYZm/movie/11986"},{"id":3084,"title":"Догвилль","kp_id":"7226","imdb_id":"tt0276919","world_art_id":null,"type":"movie","add":"2016-06-13 15:32:03","orig_title":"Dogville","year":"2003-05-19","translations":["Полное дублирование","Полное дублирование"],"quality":"hdtv","translation":"Полное дублирование","update":"2019-08-26 12:11:57","iframe_src":"//8422.svetacdn.in/IAF0wWTdNYZm/movie/3084"}],"current_page":1442,"first_page_url":"https://videocdn.tv/api/short?limit=100&api_token=6Onb1W1alEUrBcKJZD3GoKBbWyAl2uG2&cache31442=31442&page=1","from":144101,"last_page":676,"last_page_url":"https://videocdn.tv/api/short?limit=100&api_token=6Onb1W1alEUrBcKJZD3GoKBbWyAl2uG2&cache31442=31442&page=676","next_page_url":null,"path":"https://videocdn.tv/api/short","per_page":100,"prev_page_url":"https://videocdn.tv/api/short?limit=100&api_token=6Onb1W1alEUrBcKJZD3GoKBbWyAl2uG2&cache31442=31442&page=1441","to":144120,"total":67526}