{"result":true,"data":[{"id":46224,"title":"У чертова логова","kp_id":"42472","imdb_id":"tt0304860","world_art_id":null,"type":"movie","add":"2020-12-18 19:34:48","orig_title":"U chertova logova","year":"1981-05-13","translations":["Оригинальная дорожка"],"quality":"vhs","translation":"Оригинальная дорожка","update":"2020-12-22 11:47:32","iframe_src":"//8543.svetacdn.in/si4jsFRrtgrT/movie/46224"},{"id":46222,"title":"Пётр Рябинкин","kp_id":"567094","imdb_id":"tt4697548","world_art_id":null,"type":"movie","add":"2020-12-18 19:28:53","orig_title":"Pyotr Ryabinkin","year":"1973-04-16","translations":["Оригинальная дорожка"],"quality":"vhs","translation":"Оригинальная дорожка","update":"2020-12-22 11:08:20","iframe_src":"//8543.svetacdn.in/si4jsFRrtgrT/movie/46222"},{"id":46221,"title":"Вольный ветер","kp_id":"102836","imdb_id":"tt0086558","world_art_id":null,"type":"movie","add":"2020-12-18 19:26:26","orig_title":"Volnyy veter","year":"1983-01-01","translations":["Оригинальная дорожка"],"quality":"webdl","translation":"Оригинальная дорожка","update":"2020-12-22 11:07:22","iframe_src":"//8543.svetacdn.in/si4jsFRrtgrT/movie/46221"},{"id":46219,"title":"Лесная баллада","kp_id":"1043813","imdb_id":"tt11497370","world_art_id":null,"type":"movie","add":"2020-12-18 19:20:40","orig_title":"Lesnaya ballada","year":"1972-12-25","translations":["Оригинальная дорожка"],"quality":"sat","translation":"Оригинальная дорожка","update":"2020-12-22 11:00:05","iframe_src":"//8543.svetacdn.in/si4jsFRrtgrT/movie/46219"},{"id":46218,"title":"Сказка гранатового дерева","kp_id":null,"imdb_id":"tt4353900","world_art_id":null,"type":"movie","add":"2020-12-18 17:49:42","orig_title":"Сказка гранатового дерева","year":"1989-01-01","translations":["Оригинальная дорожка"],"quality":"webdl","translation":"Оригинальная дорожка","update":"2020-12-22 10:59:09","iframe_src":"//8543.svetacdn.in/si4jsFRrtgrT/movie/46218"},{"id":46217,"title":"Потом ты пожалеешь","kp_id":"773892","imdb_id":"tt2997106","world_art_id":null,"type":"movie","add":"2020-12-18 17:41:56","orig_title":"Sonraki pesmançiliq","year":"1978-01-01","translations":["Оригинальная дорожка"],"quality":"webdl","translation":"Оригинальная дорожка","update":"2020-12-22 10:58:19","iframe_src":"//8543.svetacdn.in/si4jsFRrtgrT/movie/46217"},{"id":46169,"title":"Но ведь мы с тобой друзья?","kp_id":"1045663","imdb_id":null,"world_art_id":null,"type":"movie","add":"2020-12-17 17:26:07","orig_title":"Но ведь мы с тобой друзья?","year":"1978-01-01","translations":["Оригинальная дорожка"],"quality":"webdl","translation":"Оригинальная дорожка","update":"2020-12-22 10:57:41","iframe_src":"//8543.svetacdn.in/si4jsFRrtgrT/movie/46169"},{"id":46168,"title":"В талом снеге звон ручья","kp_id":"272255","imdb_id":"tt0899178","world_art_id":null,"type":"movie","add":"2020-12-17 17:14:55","orig_title":"V talom snege zvon ruchya","year":"1982-01-01","translations":["Оригинальная дорожка"],"quality":"webdl","translation":"Оригинальная дорожка","update":"2020-12-22 11:33:07","iframe_src":"//8543.svetacdn.in/si4jsFRrtgrT/movie/46168"},{"id":46167,"title":"В небе только девушки","kp_id":"46731","imdb_id":null,"world_art_id":null,"type":"movie","add":"2020-12-17 17:09:22","orig_title":"В небе только девушки","year":"1967-01-01","translations":["Оригинальная дорожка"],"quality":"webdl","translation":"Оригинальная дорожка","update":"2020-12-22 11:35:36","iframe_src":"//8543.svetacdn.in/si4jsFRrtgrT/movie/46167"},{"id":46166,"title":"Батька","kp_id":"46040","imdb_id":"tt0312432","world_art_id":null,"type":"movie","add":"2020-12-17 16:05:11","orig_title":"Batka","year":"1972-05-08","translations":["Оригинальная дорожка"],"quality":"sat","translation":"Оригинальная дорожка","update":"2020-12-22 11:33:07","iframe_src":"//8543.svetacdn.in/si4jsFRrtgrT/movie/46166"},{"id":46165,"title":"Земля, до востребования","kp_id":"45273","imdb_id":"tt0314941","world_art_id":null,"type":"movie","add":"2020-12-17 15:56:56","orig_title":"Zemlya, do vostrebovaniya","year":"1973-03-26","translations":["Оригинальная дорожка"],"quality":"dvdrip","translation":"Оригинальная дорожка","update":"2020-12-22 11:33:07","iframe_src":"//8543.svetacdn.in/si4jsFRrtgrT/movie/46165"},{"id":46164,"title":"Заряженные смертью","kp_id":"45236","imdb_id":"tt0103321","world_art_id":null,"type":"movie","add":"2020-12-17 15:54:18","orig_title":"Zaryazhennye smertyu","year":"1991-01-01","translations":["Оригинальная дорожка"],"quality":"dvdrip","translation":"Оригинальная дорожка","update":"2020-12-22 11:47:32","iframe_src":"//8543.svetacdn.in/si4jsFRrtgrT/movie/46164"},{"id":46163,"title":"Всё для Вас","kp_id":"45944","imdb_id":"tt0184994","world_art_id":null,"type":"movie","add":"2020-12-17 15:51:38","orig_title":"Vsyo dlya vas","year":"1965-06-14","translations":["Оригинальная дорожка"],"quality":"dvdrip","translation":"Оригинальная дорожка","update":"2020-12-22 11:33:07","iframe_src":"//8543.svetacdn.in/si4jsFRrtgrT/movie/46163"},{"id":46161,"title":"Владивосток, год 1918","kp_id":"45795","imdb_id":"tt0240181","world_art_id":null,"type":"movie","add":"2020-12-17 15:46:09","orig_title":"Vladivostok, god 1918","year":"1982-05-18","translations":["Оригинальная дорожка"],"quality":"dvdrip","translation":"Оригинальная дорожка","update":"2020-12-22 10:25:18","iframe_src":"//8543.svetacdn.in/si4jsFRrtgrT/movie/46161"},{"id":46139,"title":"Нервы, нервы","kp_id":"648212","imdb_id":"tt4697208","world_art_id":null,"type":"movie","add":"2020-12-16 18:23:00","orig_title":"Nervy... Nervy...","year":"1972-12-10","translations":["Оригинальная дорожка"],"quality":"vhs","translation":"Оригинальная дорожка","update":"2020-12-22 10:25:18","iframe_src":"//8543.svetacdn.in/si4jsFRrtgrT/movie/46139"},{"id":7745,"title":"Меня зовут Саша","kp_id":"1335577","imdb_id":null,"world_art_id":null,"type":"serial","add":"2020-06-04 14:56:14","orig_title":"Меня зовут Саша","year":"2019-11-29","translations":["Оригинальная дорожка"],"seasons_count":1,"episodes_count":4,"episodes":4,"update":"2020-06-05 06:59:27","iframe_src":"//8543.svetacdn.in/si4jsFRrtgrT/tv-series/7745"},{"id":7744,"title":"Небесные рыцари","kp_id":"542532","imdb_id":"tt1043820","world_art_id":null,"type":"serial","add":"2020-06-04 14:38:05","orig_title":"Storm Hawks","year":"2007-05-25","translations":["Профессиональный (многоголосый закадровый)"],"seasons_count":2,"episodes_count":52,"episodes":26,"update":"2020-06-05 13:17:37","iframe_src":"//8543.svetacdn.in/si4jsFRrtgrT/tv-series/7744"},{"id":7728,"title":"Бескрайняя Африка","kp_id":null,"imdb_id":"tt9170014","world_art_id":null,"type":"serial","add":"2020-06-04 05:31:24","orig_title":"Massive Africa","year":"2019-03-01","translations":["Профессиональный (одноголосый закадровый)"],"seasons_count":1,"episodes_count":5,"episodes":5,"update":"2020-06-04 13:16:18","iframe_src":"//8543.svetacdn.in/si4jsFRrtgrT/tv-series/7728"},{"id":7726,"title":"Богатство","kp_id":"1112964","imdb_id":"tt8058300","world_art_id":null,"type":"serial","add":"2020-06-03 20:31:12","orig_title":"Servet","year":"2018-04-12","translations":["Любительский (двухголосый закадровый) (TurkStar)"],"seasons_count":1,"episodes_count":4,"episodes":4,"update":"2020-06-04 21:43:40","iframe_src":"//8543.svetacdn.in/si4jsFRrtgrT/tv-series/7726"},{"id":7723,"title":"Водный мир Африки","kp_id":null,"imdb_id":"tt6416330","world_art_id":null,"type":"serial","add":"2020-06-03 13:42:12","orig_title":"Waterworld Africa","year":"2015-01-01","translations":["Профессиональный (одноголосый закадровый)"],"seasons_count":1,"episodes_count":8,"episodes":8,"update":"2020-06-04 11:27:32","iframe_src":"//8543.svetacdn.in/si4jsFRrtgrT/tv-series/7723"},{"id":7720,"title":"Вторая мировая. Великая Отечественная","kp_id":"916859","imdb_id":"tt4808374","world_art_id":null,"type":"serial","add":"2020-06-03 07:43:04","orig_title":"Vtoraya mirovaya. Velikaya Otechestvennaya","year":"2015-01-01","translations":["Оригинальная дорожка"],"seasons_count":1,"episodes_count":5,"episodes":5,"update":"2020-06-03 18:42:48","iframe_src":"//8543.svetacdn.in/si4jsFRrtgrT/tv-series/7720"},{"id":7719,"title":"Светлячок","kp_id":"1048083","imdb_id":"tt7172080","world_art_id":null,"type":"serial","add":"2020-06-03 07:39:05","orig_title":"Atesböcegi","year":"2017-06-29","translations":["Любительский (одноголосый закадровый)"],"seasons_count":1,"episodes_count":17,"episodes":17,"update":"2020-06-03 18:39:42","iframe_src":"//8543.svetacdn.in/si4jsFRrtgrT/tv-series/7719"},{"id":7716,"title":"Валерия","kp_id":"1282249","imdb_id":"tt9731288","world_art_id":null,"type":"serial","add":"2020-06-03 05:07:44","orig_title":"Valeria","year":"2020-05-08","translations":["Профессиональный (многоголосый закадровый) (TVShows)"],"seasons_count":1,"episodes_count":8,"episodes":8,"update":"2020-06-04 06:57:28","iframe_src":"//8543.svetacdn.in/si4jsFRrtgrT/tv-series/7716"},{"id":7715,"title":"Алька","kp_id":"460573","imdb_id":"tt2836586","world_art_id":null,"type":"serial","add":"2020-06-02 20:01:47","orig_title":"Alka","year":"2006-01-01","translations":["Оригинальная дорожка"],"seasons_count":1,"episodes_count":4,"episodes":4,"update":"2020-06-04 21:47:04","iframe_src":"//8543.svetacdn.in/si4jsFRrtgrT/tv-series/7715"},{"id":7707,"title":"Герои в масках","kp_id":"891447","imdb_id":"tt4148744","world_art_id":null,"type":"serial","add":"2020-06-01 21:43:46","orig_title":"PJ Masks","year":"2015-09-18","translations":["Полное дублирование","Полное дублирование (Кипарис)"],"seasons_count":3,"episodes_count":128,"episodes":50,"update":"2020-06-05 12:41:59","iframe_src":"//8543.svetacdn.in/si4jsFRrtgrT/tv-series/7707"},{"id":7706,"title":"Отмороженный: Иван из Юкона","kp_id":"432574","imdb_id":"tt0233129","world_art_id":null,"type":"serial","add":"2020-06-01 20:30:21","orig_title":"Yvon of the Yukon","year":"1999-09-09","translations":["Полное дублирование"],"seasons_count":2,"episodes_count":26,"episodes":13,"update":"2020-06-03 20:57:46","iframe_src":"//8543.svetacdn.in/si4jsFRrtgrT/tv-series/7706"},{"id":7686,"title":"Небесная любовь","kp_id":"585192","imdb_id":"tt1786368","world_art_id":null,"type":"serial","add":"2020-06-01 07:49:22","orig_title":"Yer Gök Ask","year":"2010-01-01","translations":["Профессиональный (многоголосый закадровый)"],"seasons_count":3,"episodes_count":118,"episodes":32,"update":"2020-06-05 08:21:29","iframe_src":"//8543.svetacdn.in/si4jsFRrtgrT/tv-series/7686"},{"id":7685,"title":"Ларри, чудо-пес","kp_id":"1211937","imdb_id":"tt9178386","world_art_id":null,"type":"serial","add":"2020-06-01 04:54:47","orig_title":"Larry the Wonderpup","year":"2018-10-01","translations":["Профессиональный (многоголосый закадровый) (Первый ТВЧ)"],"seasons_count":1,"episodes_count":35,"episodes":35,"update":"2020-06-04 06:46:30","iframe_src":"//8543.svetacdn.in/si4jsFRrtgrT/tv-series/7685"},{"id":7187,"title":"#СидЯдома","kp_id":"1366142","imdb_id":null,"world_art_id":null,"type":"serial","add":"2020-04-14 10:20:28","orig_title":"#СидЯдома","year":"2020-04-14","translations":["Оригинальная дорожка"],"seasons_count":1,"episodes_count":8,"episodes":8,"update":"2020-06-05 04:22:13","iframe_src":"//8543.svetacdn.in/si4jsFRrtgrT/tv-series/7187"},{"id":7053,"title":"Быстрые и громкие","kp_id":"734682","imdb_id":"tt2346169","world_art_id":null,"type":"serial","add":"2020-04-02 06:04:02","orig_title":"Fast n' Loud","year":"2012-06-06","translations":["Любительский (многоголосый закадровый) (ColdFilm)","Любительский (многоголосый закадровый) (Octopus)"],"seasons_count":2,"episodes_count":21,"episodes":10,"update":"2020-06-03 21:30:11","iframe_src":"//8543.svetacdn.in/si4jsFRrtgrT/tv-series/7053"},{"id":6710,"title":"Гиена","kp_id":null,"imdb_id":"tt11534164","world_art_id":null,"type":"serial","add":"2020-02-22 04:59:33","orig_title":"Hyena","year":"2020-02-21","translations":["Любительский (многоголосый закадровый) (ColdFilm)","Любительский (двухголосый закадровый) (SoftBox)"],"seasons_count":1,"episodes_count":16,"episodes":16,"update":"2020-06-04 11:09:51","iframe_src":"//8543.svetacdn.in/si4jsFRrtgrT/tv-series/6710"},{"id":29647,"title":"Верните плату за обучение","kp_id":"992024","imdb_id":"tt5860102","world_art_id":null,"type":"movie","add":"2019-08-01 23:36:22","orig_title":"Vernite platu za obucheniye","year":"1963-01-01","translations":["Оригинальная дорожка","Оригинальная дорожка"],"quality":"vhs","translation":"Оригинальная дорожка","update":"2020-12-22 11:35:36","iframe_src":"//8543.svetacdn.in/si4jsFRrtgrT/movie/29647"},{"id":26220,"title":"Война под крышами","kp_id":"45821","imdb_id":"tt0332820","world_art_id":null,"type":"movie","add":"2019-05-09 20:56:47","orig_title":"Voyna pod kryshami","year":"1967-11-29","translations":["Оригинальная дорожка","Оригинальная дорожка"],"quality":"tv","translation":"Оригинальная дорожка","update":"2020-12-22 10:57:09","iframe_src":"//8543.svetacdn.in/si4jsFRrtgrT/movie/26220"},{"id":24754,"title":"В небе «ночные ведьмы»","kp_id":"45612","imdb_id":"tt0232882","world_art_id":null,"type":"movie","add":"2019-04-17 14:03:59","orig_title":"V nebe 'Nochnye vedmy'","year":"1981-11-30","translations":["Оригинальная дорожка","Оригинальная дорожка"],"quality":"dvdrip","translation":"Оригинальная дорожка","update":"2020-12-22 11:33:07","iframe_src":"//8543.svetacdn.in/si4jsFRrtgrT/movie/24754"},{"id":24313,"title":"Альпийская баллада","kp_id":"43445","imdb_id":"tt0139829","world_art_id":null,"type":"movie","add":"2019-04-11 19:38:37","orig_title":"Alpiyskaya ballada","year":"1966-03-26","translations":["Оригинальная дорожка","Оригинальная дорожка"],"quality":"sat","translation":"Оригинальная дорожка","update":"2020-12-22 11:47:32","iframe_src":"//8543.svetacdn.in/si4jsFRrtgrT/movie/24313"},{"id":4211,"title":"Пиарщица","kp_id":"1158426","imdb_id":"tt8128344","world_art_id":null,"type":"serial","add":"2019-03-06 05:58:21","orig_title":"Flack","year":"2019-02-21","translations":["Профессиональный (многоголосый закадровый) (NewStudio)","Профессиональный (многоголосый закадровый) (HDrezka Studio)","Профессиональный (многоголосый закадровый) (TVShows)","Профессиональный (многоголосый закадровый) (BaibaKo)"],"seasons_count":2,"episodes_count":12,"episodes":6,"update":"2020-06-05 13:45:42","iframe_src":"//8543.svetacdn.in/si4jsFRrtgrT/tv-series/4211"},{"id":4105,"title":"Верь мне","kp_id":"1216650","imdb_id":null,"world_art_id":null,"type":"serial","add":"2019-02-18 22:17:19","orig_title":"Верь мне","year":"2018-09-23","translations":["Оригинальная дорожка"],"seasons_count":1,"episodes_count":4,"episodes":4,"update":"2020-06-05 18:19:14","iframe_src":"//8543.svetacdn.in/si4jsFRrtgrT/tv-series/4105"},{"id":2322,"title":"Сирена","kp_id":"1044468","imdb_id":"tt5615700","world_art_id":null,"type":"serial","add":"2018-04-02 09:11:58","orig_title":"Siren","year":"2018-03-29","translations":["Полное дублирование","Профессиональный (многоголосый закадровый) (NewStudio)","Профессиональный (многоголосый закадровый) (LostFilm)","Профессиональный (многоголосый закадровый) (AlexFilm)","Профессиональный (многоголосый закадровый) (AMS)","Профессиональный (многоголосый закадровый) (ColdFilm)","Профессиональный (многоголосый закадровый) (HDrezka Studio)","Профессиональный (многоголосый закадровый) (TVShows)","Полное дублирование (Кириллица)","Любительский (многоголосый закадровый) (Octopus)","Любительский (многоголосый закадровый) (ColdFilm)"],"seasons_count":3,"episodes_count":36,"episodes":10,"update":"2020-06-05 04:23:48","iframe_src":"//8543.svetacdn.in/si4jsFRrtgrT/tv-series/2322"},{"id":7555,"title":"Женитьба Бальзаминова","kp_id":"45300","imdb_id":"tt0058770","world_art_id":null,"type":"movie","add":"2016-11-21 09:53:40","orig_title":"Zhenitba Balzaminova","year":"1965-05-14","translations":["Оригинальная дорожка","Оригинальная дорожка"],"quality":"hddvd","translation":"Оригинальная дорожка","update":"2020-12-22 11:04:05","iframe_src":"//8543.svetacdn.in/si4jsFRrtgrT/movie/7555"},{"id":181,"title":"Нарко","kp_id":"821565","imdb_id":"tt2707408","world_art_id":null,"type":"serial","add":"2016-06-13 07:54:25","orig_title":"Narcos","year":"2015-08-28","translations":["Профессиональный (многоголосый закадровый) (LostFilm)","Профессиональный (многоголосый закадровый) (NewStudio)"],"seasons_count":3,"episodes_count":30,"episodes":10,"update":"2020-06-05 18:00:32","iframe_src":"//8543.svetacdn.in/si4jsFRrtgrT/tv-series/181"}],"current_page":165,"first_page_url":"https://videocdn.tv/api/short?limit=100&api_token=X6EwAUfE5M9xbo7y0Bp0aPf3uXxG2KLL&cache3165=3165&page=1","from":16401,"last_page":596,"last_page_url":"https://videocdn.tv/api/short?limit=100&api_token=X6EwAUfE5M9xbo7y0Bp0aPf3uXxG2KLL&cache3165=3165&page=596","next_page_url":"https://videocdn.tv/api/short?limit=100&api_token=X6EwAUfE5M9xbo7y0Bp0aPf3uXxG2KLL&cache3165=3165&page=166","path":"https://videocdn.tv/api/short","per_page":100,"prev_page_url":"https://videocdn.tv/api/short?limit=100&api_token=X6EwAUfE5M9xbo7y0Bp0aPf3uXxG2KLL&cache3165=3165&page=164","to":16440,"total":59584}