{"result":true,"data":[{"id":30572,"title":"Близость","kp_id":"814823","imdb_id":"tt3389706","world_art_id":null,"type":"movie","add":"2019-09-05 05:53:13","orig_title":"Proximity","year":"2013-12-05","translations":["Любительский (многоголосый закадровый)"],"quality":"webdl","translation":"Любительский (многоголосый закадровый)","update":"2019-09-05 06:15:19","iframe_src":"//83.svetacdn.in/PfJ50H0ZBPg3/movie/30572"},{"id":30562,"title":"Скорпион: Песня ненависти №701","kp_id":"123108","imdb_id":"tt0226873","world_art_id":null,"type":"movie","add":"2019-09-04 20:46:54","orig_title":"Joshû sasori: 701-gô urami-bushi","year":"1973-12-29","translations":["Любительский (одноголосый закадровый) (Воротилин Олег)"],"quality":"bd","translation":"Любительский (одноголосый закадровый) (Воротилин Олег)","update":"2019-09-05 05:44:14","iframe_src":"//83.svetacdn.in/PfJ50H0ZBPg3/movie/30562"},{"id":30554,"title":"Потомки Хон Гиль-дона","kp_id":"707627","imdb_id":"tt3243196","world_art_id":null,"type":"movie","add":"2019-09-04 18:01:50","orig_title":"The Righteous Thief","year":"2009-11-26","translations":["Любительский (одноголосый закадровый)"],"quality":"dvdrip","translation":"Любительский (одноголосый закадровый)","update":"2019-09-05 05:45:37","iframe_src":"//83.svetacdn.in/PfJ50H0ZBPg3/movie/30554"},{"id":30553,"title":"Красный грузовик серого цвета","kp_id":"62466","imdb_id":"tt0365089","world_art_id":null,"type":"movie","add":"2019-09-04 17:54:18","orig_title":"Sivi kamion crvene boje","year":"2004-08-11","translations":["Профессиональный (многоголосый закадровый)"],"quality":"dvdrip","translation":"Профессиональный (многоголосый закадровый)","update":"2019-09-05 05:48:13","iframe_src":"//83.svetacdn.in/PfJ50H0ZBPg3/movie/30553"},{"id":30552,"title":"Джейн и потерянный город","kp_id":"37320","imdb_id":"tt0093296","world_art_id":null,"type":"movie","add":"2019-09-04 17:50:40","orig_title":"Jane and the Lost City","year":"1987-11-20","translations":["Профессиональный (двухголосый закадровый)"],"quality":"dvdrip","translation":"Профессиональный (двухголосый закадровый)","update":"2019-09-05 05:49:05","iframe_src":"//83.svetacdn.in/PfJ50H0ZBPg3/movie/30552"},{"id":30551,"title":"Грузовик Тёрнер","kp_id":"24851","imdb_id":"tt0072325","world_art_id":null,"type":"movie","add":"2019-09-04 17:46:52","orig_title":"Truck Turner","year":"1974-04-19","translations":["Профессиональный (двухголосый закадровый) (НТВ)"],"quality":"bd","translation":"Профессиональный (двухголосый закадровый) (НТВ)","update":"2019-09-05 05:50:04","iframe_src":"//83.svetacdn.in/PfJ50H0ZBPg3/movie/30551"},{"id":30550,"title":"Зона 51","kp_id":"94942","imdb_id":"tt0120380","world_art_id":null,"type":"movie","add":"2019-09-04 17:43:28","orig_title":"Trucks","year":"1997-10-29","translations":["Профессиональный (многоголосый закадровый)"],"quality":"dvdrip","translation":"Профессиональный (многоголосый закадровый)","update":"2019-09-05 05:50:45","iframe_src":"//83.svetacdn.in/PfJ50H0ZBPg3/movie/30550"},{"id":30549,"title":"Призрачное счастье","kp_id":"147089","imdb_id":"tt0051933","world_art_id":null,"type":"movie","add":"2019-09-04 17:32:42","orig_title":"Le miroir a deux faces","year":"1958-10-15","translations":["Полное дублирование"],"quality":"bd","translation":"Полное дублирование","update":"2019-09-05 05:55:18","iframe_src":"//83.svetacdn.in/PfJ50H0ZBPg3/movie/30549"},{"id":30540,"title":"Полиция нравов","kp_id":"17461","imdb_id":"tt0084861","world_art_id":null,"type":"movie","add":"2019-09-03 21:06:07","orig_title":"Vice Squad","year":"1982-01-22","translations":["Профессиональный (двухголосый закадровый) (НТВ)"],"quality":"bd","translation":"Профессиональный (двухголосый закадровый) (НТВ)","update":"2019-09-05 05:57:06","iframe_src":"//83.svetacdn.in/PfJ50H0ZBPg3/movie/30540"},{"id":30524,"title":"Оборотни","kp_id":"8239","imdb_id":"tt0193253","world_art_id":null,"type":"movie","add":"2019-09-03 15:57:55","orig_title":"Jin-Rô","year":"1999-07-24","translations":["Профессиональный (многоголосый закадровый)"],"quality":"bd","translation":"Профессиональный (многоголосый закадровый)","update":"2019-09-05 06:17:49","iframe_src":"//83.svetacdn.in/PfJ50H0ZBPg3/movie/30524"},{"id":30210,"title":"Ведьма из Блэр: Секс версия","kp_id":"195882","imdb_id":"tt0233289","world_art_id":null,"type":"movie","add":"2019-08-22 22:10:01","orig_title":"The Bare Wench Project","year":"2000-05-16","translations":["Original (English)","Профессиональный (двухголосый закадровый)"],"quality":"dvdrip","translation":"Original (English)","update":"2019-09-05 06:16:40","iframe_src":"//83.svetacdn.in/PfJ50H0ZBPg3/movie/30210"},{"id":27507,"title":"Люди Икс: Темный феникс","kp_id":"1012431","imdb_id":"tt6565702","world_art_id":null,"type":"movie","add":"2019-06-06 15:01:43","orig_title":"Dark Phoenix","year":"2019-06-05","translations":["Полное дублирование","Original (English)"],"quality":"bd","translation":"Полное дублирование","update":"2019-09-05 06:44:15","iframe_src":"//83.svetacdn.in/PfJ50H0ZBPg3/movie/27507"},{"id":19517,"title":"Человек на Луне","kp_id":"463803","imdb_id":"tt1213641","world_art_id":null,"type":"movie","add":"2018-10-12 22:53:10","orig_title":"First Man","year":"2018-08-29","translations":["Полное дублирование (iTunes)","Original (English)"],"quality":"bd","translation":"Полное дублирование (iTunes)","update":"2019-09-05 06:57:35","iframe_src":"//83.svetacdn.in/PfJ50H0ZBPg3/movie/19517"},{"id":17658,"title":"Умираю, как хочу жить","kp_id":"1071375","imdb_id":"tt7362036","world_art_id":null,"type":"movie","add":"2018-07-09 00:51:01","orig_title":"Wo bu shi yao shen","year":"2018-06-19","translations":["Любительский (многоголосый закадровый) (Колобок)","Любительский (двухголосый закадровый) (DeadSno & den904)"],"quality":"webdl","translation":"Любительский (многоголосый закадровый) (Колобок)","update":"2019-09-05 06:00:04","iframe_src":"//83.svetacdn.in/PfJ50H0ZBPg3/movie/17658"},{"id":13811,"title":"Борг/Макинрой","kp_id":"978613","imdb_id":"tt5727282","world_art_id":null,"type":"movie","add":"2017-10-11 20:35:12","orig_title":"Borg McEnroe","year":"2017-09-07","translations":["Полное дублирование (iTunes)","Original (English)"],"quality":"bd","translation":"Полное дублирование (iTunes)","update":"2019-09-05 06:38:33","iframe_src":"//83.svetacdn.in/PfJ50H0ZBPg3/movie/13811"},{"id":7869,"title":"Сорокалетний девственник","kp_id":"81976","imdb_id":"tt0405422","world_art_id":null,"type":"movie","add":"2016-12-05 14:04:35","orig_title":"The 40 Year Old Virgin","year":"2005-08-11","translations":["Полное дублирование"],"quality":"bd","translation":"Полное дублирование","update":"2019-09-05 05:47:26","iframe_src":"//83.svetacdn.in/PfJ50H0ZBPg3/movie/7869"},{"id":2584,"title":"Первый мститель: Противостояние","kp_id":"822708","imdb_id":"tt3498820","world_art_id":null,"type":"movie","add":"2016-05-25 20:07:44","orig_title":"Captain America: Civil War","year":"2016-04-12","translations":["Полное дублирование (iTunes)","Original (English)"],"quality":"bd","translation":"Полное дублирование (iTunes)","update":"2019-09-05 06:41:21","iframe_src":"//83.svetacdn.in/PfJ50H0ZBPg3/movie/2584"},{"id":1721,"title":"Судья Дредд 3D","kp_id":"437678","imdb_id":"tt1343727","world_art_id":null,"type":"movie","add":"2016-04-29 10:45:50","orig_title":"Dredd","year":"2012-07-11","translations":["Полное дублирование","Original (English)"],"quality":"bd","translation":"Полное дублирование","update":"2019-09-05 06:55:53","iframe_src":"//83.svetacdn.in/PfJ50H0ZBPg3/movie/1721"},{"id":1360,"title":"Идентификация Борна","kp_id":"619","imdb_id":"tt0258463","world_art_id":null,"type":"movie","add":"2016-04-20 22:28:16","orig_title":"The Bourne Identity","year":"2002-06-06","translations":["Полное дублирование","Original (English)"],"quality":"bd","translation":"Полное дублирование","update":"2019-09-05 06:40:05","iframe_src":"//83.svetacdn.in/PfJ50H0ZBPg3/movie/1360"},{"id":1153,"title":"Бегущий по лезвию","kp_id":"403","imdb_id":"tt0083658","world_art_id":null,"type":"movie","add":"2016-04-15 06:16:54","orig_title":"Blade Runner","year":"1982-06-25","translations":["Полное дублирование","Original (English)"],"quality":"bd","translation":"Полное дублирование","update":"2019-09-05 06:37:29","iframe_src":"//83.svetacdn.in/PfJ50H0ZBPg3/movie/1153"}],"current_page":1214,"first_page_url":"https://videocdn.tv/api/short?limit=100&api_token=RgFQdUIR2dRmwv8iYa5SnFNgnw3vpjKj&cache31214=31214&page=1","from":121301,"last_page":632,"last_page_url":"https://videocdn.tv/api/short?limit=100&api_token=RgFQdUIR2dRmwv8iYa5SnFNgnw3vpjKj&cache31214=31214&page=632","next_page_url":null,"path":"https://videocdn.tv/api/short","per_page":100,"prev_page_url":"https://videocdn.tv/api/short?limit=100&api_token=RgFQdUIR2dRmwv8iYa5SnFNgnw3vpjKj&cache31214=31214&page=1213","to":121320,"total":63120}