{"result":true,"data":[{"id":51099,"title":"Вор и Солдат","kp_id":"41813","imdb_id":"tt0349212","world_art_id":null,"type":"movie","add":"2021-06-11 10:47:22","orig_title":"Chor Sipahee","year":"1977-01-01","translations":["Любительский (одноголосый закадровый)"],"quality":"webdl","translation":"Любительский (одноголосый закадровый)","update":"2021-06-12 03:44:54","iframe_src":"//5091.svetacdn.in/IAF0wWTdNYZm/movie/51099"},{"id":51098,"title":"Скейтбордистка","kp_id":"1198494","imdb_id":"tt6964940","world_art_id":null,"type":"movie","add":"2021-06-11 10:22:22","orig_title":"Skater Girl","year":"2021-06-11","translations":["Полное дублирование (Netflix)"],"quality":"webdl","translation":"Полное дублирование (Netflix)","update":"2021-06-11 20:10:09","iframe_src":"//5091.svetacdn.in/IAF0wWTdNYZm/movie/51098"},{"id":51097,"title":"Дни и ночи в Ухане","kp_id":"4318300","imdb_id":"tt13788574","world_art_id":null,"type":"movie","add":"2021-06-11 06:55:53","orig_title":"Wuhan ri ye","year":"2021-01-22","translations":["Любительский (двухголосый закадровый) (Колобок)"],"quality":"webdl","translation":"Любительский (двухголосый закадровый) (Колобок)","update":"2021-06-11 21:36:44","iframe_src":"//5091.svetacdn.in/IAF0wWTdNYZm/movie/51097"},{"id":51096,"title":"Мне 10 лет","kp_id":"1395813","imdb_id":"tt12814890","world_art_id":null,"type":"movie","add":"2021-06-11 06:54:06","orig_title":"J'ai 10 ans","year":"2020-07-10","translations":["Любительский (многоголосый закадровый) (AlphaProject)"],"quality":"hdtv","translation":"Любительский (многоголосый закадровый) (AlphaProject)","update":"2021-06-11 21:36:31","iframe_src":"//5091.svetacdn.in/IAF0wWTdNYZm/movie/51096"},{"id":51095,"title":"Плохая мать","kp_id":"1214196","imdb_id":"tt9203084","world_art_id":null,"type":"movie","add":"2021-06-11 06:53:13","orig_title":"Limbo","year":"2020-03-29","translations":["Любительский (многоголосый закадровый) (Синема УС)"],"quality":"webdl","translation":"Любительский (многоголосый закадровый) (Синема УС)","update":"2021-06-11 21:36:21","iframe_src":"//5091.svetacdn.in/IAF0wWTdNYZm/movie/51095"},{"id":51094,"title":"Неудачница 3","kp_id":"4426999","imdb_id":"tt13609560","world_art_id":null,"type":"movie","add":"2021-06-11 06:51:54","orig_title":"Misfit 3: De Finale","year":"2020-12-16","translations":["Любительский (многоголосый закадровый) (Синема УС)"],"quality":"webdl","translation":"Любительский (многоголосый закадровый) (Синема УС)","update":"2021-06-11 21:36:03","iframe_src":"//5091.svetacdn.in/IAF0wWTdNYZm/movie/51094"},{"id":51087,"title":"Пока мы здесь","kp_id":"1279086","imdb_id":"tt10457346","world_art_id":null,"type":"movie","add":"2021-06-10 20:42:55","orig_title":"Enquanto estamos aqui","year":"2019-01-27","translations":["Любительский (многоголосый закадровый) (Синема УС)"],"quality":"webdl","translation":"Любительский (многоголосый закадровый) (Синема УС)","update":"2021-06-11 08:24:30","iframe_src":"//5091.svetacdn.in/IAF0wWTdNYZm/movie/51087"},{"id":51081,"title":"Остров дьявола","kp_id":"1414386","imdb_id":"tt12496582","world_art_id":null,"type":"movie","add":"2021-06-10 14:07:00","orig_title":"Devil's Island","year":"2021-03-15","translations":["Любительский (многоголосый закадровый) (AlphaProject)"],"quality":"webdl","translation":"Любительский (многоголосый закадровый) (AlphaProject)","update":"2021-06-11 13:10:33","iframe_src":"//5091.svetacdn.in/IAF0wWTdNYZm/movie/51081"},{"id":51059,"title":"Доистерия!","kp_id":"33458","imdb_id":"tt0107870","world_art_id":null,"type":"movie","add":"2021-06-10 04:46:48","orig_title":"Prehysteria!","year":"1993-06-30","translations":["Авторский (одноголосый закадровый) (Дохалов Вартан)","Авторский (одноголосый закадровый) (Дольский Андрей)","Авторский (одноголосый закадровый) (Кузнецов Сергей)","Original (English)"],"quality":"bd","translation":"Авторский (одноголосый закадровый) (Дохалов Вартан)","update":"2021-06-11 14:25:19","iframe_src":"//5091.svetacdn.in/IAF0wWTdNYZm/movie/51059"},{"id":51058,"title":"Глаз тигра","kp_id":"12370","imdb_id":"tt0091027","world_art_id":null,"type":"movie","add":"2021-06-10 04:36:07","orig_title":"Eye of the Tiger","year":"1986-11-28","translations":["Авторский (одноголосый закадровый) (Гаврилов Андрей)","Original (English)","Любительский (одноголосый закадровый)","Профессиональный (двухголосый закадровый) (НТВ)"],"quality":"bd","translation":"Авторский (одноголосый закадровый) (Гаврилов Андрей)","update":"2021-06-11 14:20:08","iframe_src":"//5091.svetacdn.in/IAF0wWTdNYZm/movie/51058"},{"id":50930,"title":"Мишень","kp_id":"208320","imdb_id":"tt0363846","world_art_id":null,"type":"movie","add":"2021-06-04 19:38:27","orig_title":"Nishana","year":"1995-01-01","translations":["Профессиональный (двухголосый закадровый) (Элегия фильм)"],"quality":"webdl","translation":"Профессиональный (двухголосый закадровый) (Элегия фильм)","update":"2021-06-12 03:45:26","iframe_src":"//5091.svetacdn.in/IAF0wWTdNYZm/movie/50930"},{"id":50143,"title":"Девятаев","kp_id":"1249213","imdb_id":"tt11892034","world_art_id":null,"type":"movie","add":"2021-05-05 10:52:29","orig_title":"Devyatayev","year":"2021-04-29","translations":["Оригинальная дорожка"],"quality":"webdl","translation":"Оригинальная дорожка","update":"2021-06-11 13:47:41","iframe_src":"//5091.svetacdn.in/IAF0wWTdNYZm/movie/50143"},{"id":49035,"title":"Игры шпионов","kp_id":"1140474","imdb_id":"tt8368512","world_art_id":null,"type":"movie","add":"2021-03-23 20:58:57","orig_title":"The Courier","year":"2020-01-24","translations":["Любительский (двухголосый закадровый) (Колобок)","Original (English)","Профессиональный (двухголосый закадровый) (Pazl Voice)","Полное дублирование","Профессиональный (многоголосый закадровый) (HDrezka Studio)","Полное дублирование (iTunes)"],"quality":"ts","translation":"Любительский (двухголосый закадровый) (Колобок)","update":"2021-06-11 13:45:28","iframe_src":"//5091.svetacdn.in/IAF0wWTdNYZm/movie/49035"},{"id":8359,"title":"Бандитские бандиты","kp_id":"1300248","imdb_id":"tt9814458","world_art_id":null,"type":"serial","add":"2020-08-04 12:21:15","orig_title":"Bandish Bandits","year":"2020-08-04","translations":["Любительский (многоголосый закадровый) (ColdFilm)","Любительский (многоголосый закадровый) (Octopus)"],"seasons_count":1,"episodes_count":10,"episodes":10,"update":"2020-08-05 12:23:37","iframe_src":"//5091.svetacdn.in/IAF0wWTdNYZm/tv-series/8359"},{"id":8354,"title":"Десант есть десант","kp_id":"521411","imdb_id":"tt4391382","world_art_id":null,"type":"serial","add":"2020-08-04 07:12:45","orig_title":"Desant est desant","year":"2010-05-11","translations":["Оригинальная дорожка"],"seasons_count":1,"episodes_count":16,"episodes":16,"update":"2020-08-05 11:29:06","iframe_src":"//5091.svetacdn.in/IAF0wWTdNYZm/tv-series/8354"},{"id":8353,"title":"Афганский призрак","kp_id":"416133","imdb_id":"tt1229833","world_art_id":null,"type":"serial","add":"2020-08-04 07:06:55","orig_title":"Afganskiy prizrak","year":"2008-05-04","translations":["Оригинальная дорожка"],"seasons_count":1,"episodes_count":8,"episodes":8,"update":"2020-08-04 15:33:13","iframe_src":"//5091.svetacdn.in/IAF0wWTdNYZm/tv-series/8353"},{"id":8346,"title":"Мужество","kp_id":"1157553","imdb_id":"tt8409626","world_art_id":null,"type":"serial","add":"2020-08-03 19:11:25","orig_title":"Cold Courage","year":"2020-05-03","translations":["Профессиональный (двухголосый закадровый) (ViruseProject)"],"seasons_count":1,"episodes_count":8,"episodes":8,"update":"2020-08-04 12:46:00","iframe_src":"//5091.svetacdn.in/IAF0wWTdNYZm/tv-series/8346"},{"id":8343,"title":"Новогодний пёс","kp_id":"1254718","imdb_id":null,"world_art_id":null,"type":"serial","add":"2020-08-03 16:06:52","orig_title":"Новогодний пёс","year":"2018-12-31","translations":["Оригинальная дорожка"],"seasons_count":1,"episodes_count":2,"episodes":2,"update":"2020-08-04 15:28:22","iframe_src":"//5091.svetacdn.in/IAF0wWTdNYZm/tv-series/8343"},{"id":8342,"title":"Красная лента","kp_id":"1226425","imdb_id":null,"world_art_id":null,"type":"serial","add":"2020-08-03 16:05:16","orig_title":"Красная лента","year":"2018-12-07","translations":["Оригинальная дорожка"],"seasons_count":1,"episodes_count":2,"episodes":2,"update":"2020-08-04 15:27:38","iframe_src":"//5091.svetacdn.in/IAF0wWTdNYZm/tv-series/8342"},{"id":8341,"title":"Интриганки","kp_id":"1112716","imdb_id":null,"world_art_id":null,"type":"serial","add":"2020-08-03 16:03:07","orig_title":"Интриганки","year":"2018-02-16","translations":["Оригинальная дорожка"],"seasons_count":1,"episodes_count":2,"episodes":2,"update":"2020-08-04 15:27:09","iframe_src":"//5091.svetacdn.in/IAF0wWTdNYZm/tv-series/8341"},{"id":8340,"title":"ГРУ. Тайны военной разведки","kp_id":"648130","imdb_id":null,"world_art_id":null,"type":"serial","add":"2020-08-03 15:59:00","orig_title":"ГРУ. Тайны военной разведки","year":"2011-10-18","translations":["Оригинальная дорожка"],"seasons_count":1,"episodes_count":10,"episodes":10,"update":"2020-08-04 15:31:07","iframe_src":"//5091.svetacdn.in/IAF0wWTdNYZm/tv-series/8340"},{"id":8339,"title":"Гаражный папа","kp_id":"1232231","imdb_id":null,"world_art_id":null,"type":"serial","add":"2020-08-03 15:56:16","orig_title":"Гаражный папа","year":"2019-01-02","translations":["Оригинальная дорожка"],"seasons_count":1,"episodes_count":2,"episodes":2,"update":"2020-08-04 15:26:16","iframe_src":"//5091.svetacdn.in/IAF0wWTdNYZm/tv-series/8339"},{"id":8334,"title":"Ракон","kp_id":"891413","imdb_id":"tt4371812","world_art_id":null,"type":"serial","add":"2020-08-03 10:22:36","orig_title":"Racon","year":"2015-10-03","translations":["Любительский (одноголосый закадровый)"],"seasons_count":1,"episodes_count":4,"episodes":4,"update":"2020-08-04 12:35:06","iframe_src":"//5091.svetacdn.in/IAF0wWTdNYZm/tv-series/8334"},{"id":8333,"title":"Сармат 2: Покушение","kp_id":"302580","imdb_id":"tt5518412","world_art_id":null,"type":"serial","add":"2020-08-03 10:18:36","orig_title":"Sarmat 2","year":"2005-04-18","translations":["Оригинальная дорожка"],"seasons_count":1,"episodes_count":4,"episodes":4,"update":"2020-08-04 12:33:34","iframe_src":"//5091.svetacdn.in/IAF0wWTdNYZm/tv-series/8333"},{"id":8332,"title":"Таксистка 4","kp_id":"466472","imdb_id":null,"world_art_id":null,"type":"serial","add":"2020-08-03 09:38:36","orig_title":"Taksistka 4","year":"2007-10-04","translations":["Оригинальная дорожка"],"seasons_count":1,"episodes_count":12,"episodes":12,"update":"2020-08-04 12:30:01","iframe_src":"//5091.svetacdn.in/IAF0wWTdNYZm/tv-series/8332"},{"id":8316,"title":"Приставы","kp_id":"585369","imdb_id":"tt10856408","world_art_id":null,"type":"serial","add":"2020-08-01 17:41:59","orig_title":"Pristavy","year":"2011-01-01","translations":["Оригинальная дорожка"],"seasons_count":1,"episodes_count":20,"episodes":20,"update":"2020-08-04 13:28:14","iframe_src":"//5091.svetacdn.in/IAF0wWTdNYZm/tv-series/8316"},{"id":8289,"title":"Бешеные псы","kp_id":"570107","imdb_id":"tt1652218","world_art_id":null,"type":"serial","add":"2020-07-30 12:58:47","orig_title":"Mad Dogs","year":"2011-02-10","translations":["Профессиональный (двухголосый закадровый) (Кубик в Кубе)"],"seasons_count":4,"episodes_count":14,"episodes":2,"update":"2020-08-04 13:17:34","iframe_src":"//5091.svetacdn.in/IAF0wWTdNYZm/tv-series/8289"},{"id":8287,"title":"Любовь в нерабочие недели","kp_id":"1388619","imdb_id":null,"world_art_id":null,"type":"serial","add":"2020-07-30 12:23:27","orig_title":"Любовь в нерабочие недели","year":"2020-06-23","translations":["Оригинальная дорожка"],"seasons_count":1,"episodes_count":10,"episodes":10,"update":"2020-08-04 20:51:46","iframe_src":"//5091.svetacdn.in/IAF0wWTdNYZm/tv-series/8287"},{"id":8176,"title":"Такси","kp_id":"623628","imdb_id":null,"world_art_id":null,"type":"serial","add":"2020-07-17 10:54:01","orig_title":"Такси","year":"2011-09-18","translations":["Оригинальная дорожка"],"seasons_count":1,"episodes_count":40,"episodes":40,"update":"2020-08-04 17:42:49","iframe_src":"//5091.svetacdn.in/IAF0wWTdNYZm/tv-series/8176"},{"id":7750,"title":"Игры титанов","kp_id":null,"imdb_id":"tt7967262","world_art_id":null,"type":"serial","add":"2020-06-05 10:57:26","orig_title":"The Titan Games","year":"2019-01-03","translations":["Любительский (многоголосый закадровый) (ColdFilm)","Любительский (многоголосый закадровый) (Octopus)"],"seasons_count":1,"episodes_count":9,"episodes":9,"update":"2020-08-05 05:01:27","iframe_src":"//5091.svetacdn.in/IAF0wWTdNYZm/tv-series/7750"},{"id":6910,"title":"Заговор против Америки","kp_id":"1254369","imdb_id":"tt9308346","world_art_id":null,"type":"serial","add":"2020-03-17 08:41:17","orig_title":"The Plot Against America","year":"2020-03-16","translations":["Любительский (многоголосый закадровый) (Octopus)","Любительский (многоголосый закадровый) (WestFilm)","Любительский (многоголосый закадровый) (ColdFilm)","Профессиональный (многоголосый закадровый) (Кравец)","Профессиональный (многоголосый закадровый) (NewStudio)"],"seasons_count":1,"episodes_count":6,"episodes":6,"update":"2020-08-04 13:07:54","iframe_src":"//5091.svetacdn.in/IAF0wWTdNYZm/tv-series/6910"},{"id":6267,"title":"Президентский помощник","kp_id":"1232576","imdb_id":"tt10220476","world_art_id":null,"type":"serial","add":"2020-01-07 13:44:07","orig_title":"Bojwagwan","year":"2019-06-14","translations":["Любительский (двухголосый закадровый) (Колобок)"],"seasons_count":2,"episodes_count":20,"episodes":10,"update":"2020-08-05 11:39:41","iframe_src":"//5091.svetacdn.in/IAF0wWTdNYZm/tv-series/6267"},{"id":34025,"title":"Человек из другого мира ака Посредник","kp_id":"1157050","imdb_id":"tt7959390","world_art_id":null,"type":"movie","add":"2019-12-12 18:37:53","orig_title":"Além do Homem","year":"2018-06-28","translations":["Любительский (многоголосый закадровый) (Синема УС)","Любительский (многоголосый закадровый) (Синема УС)"],"quality":"dvdrip","translation":"Любительский (многоголосый закадровый) (Синема УС)","update":"2021-06-11 08:26:54","iframe_src":"//5091.svetacdn.in/IAF0wWTdNYZm/movie/34025"},{"id":19855,"title":"Хантер Киллер","kp_id":"589787","imdb_id":"tt1846589","world_art_id":null,"type":"movie","add":"2018-10-30 00:07:09","orig_title":"Hunter Killer","year":"2018-10-19","translations":["Полное дублирование (iTunes)","Original (English)","Профессиональный (многоголосый закадровый) (HDrezka Studio)"],"quality":"bd","translation":"Полное дублирование (iTunes)","update":"2021-06-11 14:15:21","iframe_src":"//5091.svetacdn.in/IAF0wWTdNYZm/movie/19855"},{"id":1045,"title":"Патриот","kp_id":"928407","imdb_id":"tt4687882","world_art_id":null,"type":"serial","add":"2017-02-26 07:28:40","orig_title":"Patriot","year":"2015-11-05","translations":["Профессиональный (многоголосый закадровый) (BaibaKo)","Профессиональный (многоголосый закадровый) (LostFilm)","Профессиональный (многоголосый закадровый) (IdeaFilm)","Профессиональный (многоголосый закадровый) (HDrezka Studio)","Профессиональный (двухголосый закадровый) (Gears Media)","Профессиональный (многоголосый закадровый) (TVShows)","Профессиональный (многоголосый закадровый) (Profix Media)"],"seasons_count":2,"episodes_count":18,"episodes":8,"update":"2020-08-05 12:21:53","iframe_src":"//5091.svetacdn.in/IAF0wWTdNYZm/tv-series/1045"},{"id":3648,"title":"Несколько хороших парней","kp_id":"1588","imdb_id":"tt0104257","world_art_id":null,"type":"movie","add":"2016-07-04 09:48:05","orig_title":"A Few Good Men","year":"1992-12-09","translations":["Полное дублирование","Авторский (одноголосый закадровый) (Гаврилов Андрей)","Авторский (одноголосый закадровый) (Кузнецов Сергей)","Авторский (одноголосый закадровый) (Володарский Леонид)","Полное дублирование","Original (English)","Профессиональный (многоголосый закадровый)"],"quality":"bd","translation":"Полное дублирование","update":"2021-06-11 13:14:15","iframe_src":"//5091.svetacdn.in/IAF0wWTdNYZm/movie/3648"},{"id":3327,"title":"На север через северо-запад","kp_id":"343","imdb_id":"tt0053125","world_art_id":null,"type":"movie","add":"2016-06-23 11:22:39","orig_title":"North by Northwest","year":"1959-07-17","translations":["Профессиональный (многоголосый закадровый)","Авторский (одноголосый закадровый) (Есарев Дмитрий)","Авторский (одноголосый закадровый) (Михалёв Алексей)","Original (English)","Профессиональный (многоголосый закадровый) (DVD Магия)","Профессиональный (многоголосый закадровый) (Мост-Видео)","Профессиональный (многоголосый закадровый) (SomeWax)"],"quality":"bd","translation":"Профессиональный (многоголосый закадровый)","update":"2021-06-11 08:34:45","iframe_src":"//5091.svetacdn.in/IAF0wWTdNYZm/movie/3327"},{"id":2071,"title":"Пришельцы в Америке","kp_id":"2509","imdb_id":"tt0189192","world_art_id":null,"type":"movie","add":"2016-05-11 14:19:26","orig_title":"Just Visiting","year":"2001-04-06","translations":["Полное дублирование","Авторский (одноголосый закадровый) (Дольский Андрей)","Авторский (одноголосый закадровый) (Живов Юрий)","Полное дублирование (Мосфильм)","Original (English)","Профессиональный (двухголосый закадровый)","Профессиональный (многоголосый закадровый)"],"quality":"bd","translation":"Полное дублирование","update":"2021-06-11 13:23:02","iframe_src":"//5091.svetacdn.in/IAF0wWTdNYZm/movie/2071"},{"id":1077,"title":"Хардкор","kp_id":"778218","imdb_id":"tt3072482","world_art_id":null,"type":"movie","add":"2016-04-14 07:53:30","orig_title":"Hardcore Henry","year":"2015-09-12","translations":["Любительский (одноголосый закадровый)","Полное дублирование (iTunes)","Авторский (одноголосый закадровый) (Киреев Антон)","Полное дублирование (iTunes)","Original (English)"],"quality":"webdl","translation":"Любительский (одноголосый закадровый)","update":"2021-06-11 13:37:22","iframe_src":"//5091.svetacdn.in/IAF0wWTdNYZm/movie/1077"},{"id":597,"title":"Сокровище нации","kp_id":"61333","imdb_id":"tt0368891","world_art_id":null,"type":"movie","add":"2016-04-05 13:03:52","orig_title":"National Treasure","year":"2004-11-08","translations":["Полное дублирование","Original (English)","Авторский (одноголосый закадровый) (Гаврилов Андрей)","Авторский (одноголосый закадровый) (Королёв Владимир)","Полное дублирование","Original (English)","Профессиональный (двухголосый закадровый) (Гланц + Королёва)","Профессиональный (двухголосый закадровый) (Tycoon)"],"quality":"bd","translation":"Полное дублирование","update":"2021-06-11 14:14:21","iframe_src":"//5091.svetacdn.in/IAF0wWTdNYZm/movie/597"}],"current_page":221,"first_page_url":"https://videocdn.tv/api/short?limit=100&api_token=6Onb1W1alEUrBcKJZD3GoKBbWyAl2uG2&cache3221=3221&page=1","from":22001,"last_page":667,"last_page_url":"https://videocdn.tv/api/short?limit=100&api_token=6Onb1W1alEUrBcKJZD3GoKBbWyAl2uG2&cache3221=3221&page=667","next_page_url":"https://videocdn.tv/api/short?limit=100&api_token=6Onb1W1alEUrBcKJZD3GoKBbWyAl2uG2&cache3221=3221&page=222","path":"https://videocdn.tv/api/short","per_page":100,"prev_page_url":"https://videocdn.tv/api/short?limit=100&api_token=6Onb1W1alEUrBcKJZD3GoKBbWyAl2uG2&cache3221=3221&page=220","to":22040,"total":66648}