{"result":true,"data":[{"id":20753,"title":"Песнь крота","kp_id":"737560","imdb_id":"tt2643394","world_art_id":null,"type":"movie","add":"2018-12-13 22:03:34","orig_title":"Mogura no uta: Sennyuu sousakan Reiji","year":"2013-11-15","translations":["Любительский (двухголосый закадровый) (GREEN TEA)"],"quality":"bd","translation":"Любительский (двухголосый закадровый) (GREEN TEA)","update":"2018-12-14 06:41:09","iframe_src":"//24213.svetacdn.in/IAF0wWTdNYZm/movie/20753"},{"id":20752,"title":"Желтый платочек счастья","kp_id":"223926","imdb_id":"tt0076935","world_art_id":null,"type":"movie","add":"2018-12-13 22:01:52","orig_title":"Shiawase no kiiroi hankachi","year":"1977-10-01","translations":["Любительский (одноголосый закадровый) (Воротилин Олег)"],"quality":"bd","translation":"Любительский (одноголосый закадровый) (Воротилин Олег)","update":"2018-12-14 06:41:56","iframe_src":"//24213.svetacdn.in/IAF0wWTdNYZm/movie/20752"},{"id":20751,"title":"Токийская полиция крови","kp_id":"405916","imdb_id":"tt1183732","world_art_id":null,"type":"movie","add":"2018-12-13 21:59:47","orig_title":"Tôkyô zankoku keisatsu","year":"2008-05-29","translations":["Профессиональный (двухголосый закадровый)"],"quality":"bd","translation":"Профессиональный (двухголосый закадровый)","update":"2018-12-14 06:42:51","iframe_src":"//24213.svetacdn.in/IAF0wWTdNYZm/movie/20751"},{"id":20748,"title":"Почему ты не играешь в аду?","kp_id":"709085","imdb_id":"tt2409302","world_art_id":null,"type":"movie","add":"2018-12-13 21:53:53","orig_title":"Jigoku de naze warui","year":"2013-08-29","translations":["Любительский (двухголосый закадровый) (DeadSno & den904)"],"quality":"bd","translation":"Любительский (двухголосый закадровый) (DeadSno & den904)","update":"2018-12-14 06:45:13","iframe_src":"//24213.svetacdn.in/IAF0wWTdNYZm/movie/20748"},{"id":20746,"title":"Космические братья","kp_id":"592462","imdb_id":"tt1872220","world_art_id":null,"type":"movie","add":"2018-12-13 21:50:17","orig_title":"Uchû kyôdai","year":"2012-05-05","translations":["Любительский (одноголосый закадровый)"],"quality":"bd","translation":"Любительский (одноголосый закадровый)","update":"2018-12-14 06:45:51","iframe_src":"//24213.svetacdn.in/IAF0wWTdNYZm/movie/20746"},{"id":20745,"title":"Брошенный кролик","kp_id":"557633","imdb_id":"tt1672214","world_art_id":null,"type":"movie","add":"2018-12-13 21:45:04","orig_title":"Usagi doroppu","year":"2011-08-20","translations":["Любительский (многоголосый закадровый) (SHIZA Project)","Любительский (двухголосый закадровый)"],"quality":"bd","translation":"Любительский (многоголосый закадровый) (SHIZA Project)","update":"2018-12-14 06:51:48","iframe_src":"//24213.svetacdn.in/IAF0wWTdNYZm/movie/20745"},{"id":20744,"title":"Я отдам тебе свою первую любовь","kp_id":"458093","imdb_id":"tt1401656","world_art_id":null,"type":"movie","add":"2018-12-13 21:35:01","orig_title":"Boku no hatsukoi wo kimi ni sasagu","year":"2009-10-21","translations":["Любительский (одноголосый закадровый)"],"quality":"bd","translation":"Любительский (одноголосый закадровый)","update":"2018-12-14 06:52:34","iframe_src":"//24213.svetacdn.in/IAF0wWTdNYZm/movie/20744"},{"id":20742,"title":"Две могилы","kp_id":"1076099","imdb_id":"tt6671850","world_art_id":null,"type":"movie","add":"2018-12-13 21:27:09","orig_title":"Two Graves","year":"2018-06-09","translations":["Любительский (многоголосый закадровый) (Синема УС)"],"quality":"webdl","translation":"Любительский (многоголосый закадровый) (Синема УС)","update":"2018-12-14 07:15:07","iframe_src":"//24213.svetacdn.in/IAF0wWTdNYZm/movie/20742"},{"id":20741,"title":"R100","kp_id":"764233","imdb_id":"tt2914838","world_art_id":null,"type":"movie","add":"2018-12-13 21:22:46","orig_title":"R100","year":"2013-09-12","translations":["Любительский (одноголосый закадровый) (PashaUp | Морозов Павел)"],"quality":"bd","translation":"Любительский (одноголосый закадровый) (PashaUp | Морозов Павел)","update":"2018-12-14 07:31:20","iframe_src":"//24213.svetacdn.in/IAF0wWTdNYZm/movie/20741"},{"id":20740,"title":"Одиссея Петра","kp_id":"1199544","imdb_id":null,"world_art_id":null,"type":"movie","add":"2018-12-13 21:19:58","orig_title":"Одиссея Петра","year":"2018-12-11","translations":["Оригинальная дорожка"],"quality":"webdl","translation":"Оригинальная дорожка","update":"2018-12-14 06:37:36","iframe_src":"//24213.svetacdn.in/IAF0wWTdNYZm/movie/20740"},{"id":20738,"title":"Любовь на диете","kp_id":"36760","imdb_id":"tt0286797","world_art_id":null,"type":"movie","add":"2018-12-13 21:14:42","orig_title":"Sau sun nam nui","year":"2001-06-21","translations":["Любительский (одноголосый закадровый)"],"quality":"bd","translation":"Любительский (одноголосый закадровый)","update":"2018-12-14 07:36:00","iframe_src":"//24213.svetacdn.in/IAF0wWTdNYZm/movie/20738"},{"id":20737,"title":"Легенда о трёх царствах","kp_id":"1162787","imdb_id":null,"world_art_id":null,"type":"movie","add":"2018-12-13 21:12:54","orig_title":"San guo sha huan","year":"2018-11-09","translations":["Любительский (многоголосый закадровый) (Колобок)"],"quality":"tc","translation":"Любительский (многоголосый закадровый) (Колобок)","update":"2018-12-14 07:38:42","iframe_src":"//24213.svetacdn.in/IAF0wWTdNYZm/movie/20737"},{"id":20736,"title":"Рождество в Эвергрине: Письма Санте","kp_id":"1198278","imdb_id":"tt9033634","world_art_id":null,"type":"movie","add":"2018-12-13 21:11:34","orig_title":"Christmas in Evergreen: Letters to Santa","year":"2018-11-18","translations":["Любительский (многоголосый закадровый) (Синема УС)"],"quality":"hdtv","translation":"Любительский (многоголосый закадровый) (Синема УС)","update":"2018-12-14 07:39:43","iframe_src":"//24213.svetacdn.in/IAF0wWTdNYZm/movie/20736"},{"id":20707,"title":"Сводные братья","kp_id":"261157","imdb_id":"tt0838283","world_art_id":null,"type":"movie","add":"2018-12-12 23:15:08","orig_title":"Step Brothers","year":"2008-07-25","translations":["[EN] Original (English)","Полное дублирование"],"quality":"bd","translation":"[EN] Original (English)","update":"2018-12-14 07:24:10","iframe_src":"//24213.svetacdn.in/IAF0wWTdNYZm/movie/20707"},{"id":20450,"title":"Странный тип","kp_id":"1135008","imdb_id":"tt8043038","world_art_id":null,"type":"movie","add":"2018-12-02 23:34:47","orig_title":"Prowler","year":"2018-10-01","translations":["Любительский (многоголосый закадровый) (Синема УС)","Любительский (двухголосый закадровый) (HiWayGrope)"],"quality":"webdl","translation":"Любительский (многоголосый закадровый) (Синема УС)","update":"2018-12-14 07:32:39","iframe_src":"//24213.svetacdn.in/IAF0wWTdNYZm/movie/20450"},{"id":20394,"title":"Мотылёк","kp_id":"934207","imdb_id":"tt5258842","world_art_id":null,"type":"movie","add":"2018-11-30 00:11:43","orig_title":"Motylyok","year":"2018-11-22","translations":["Оригинальная дорожка"],"quality":"webdl","translation":"Оригинальная дорожка","update":"2018-12-14 06:55:46","iframe_src":"//24213.svetacdn.in/IAF0wWTdNYZm/movie/20394"},{"id":18254,"title":"Сыр в мышеловке","kp_id":"1009651","imdb_id":"tt6886062","world_art_id":null,"type":"movie","add":"2018-08-12 10:34:20","orig_title":"Chijeu in deo teuraep","year":"2018-03-14","translations":["Любительский (двухголосый закадровый)","Любительский (многоголосый закадровый) (STEPonee)"],"quality":"hdrip","translation":"Любительский (двухголосый закадровый)","update":"2018-12-14 06:53:09","iframe_src":"//24213.svetacdn.in/IAF0wWTdNYZm/movie/18254"},{"id":12048,"title":"Захочу и соскочу: Мастеркласс","kp_id":"998248","imdb_id":"tt5897288","world_art_id":null,"type":"movie","add":"2017-06-19 22:56:58","orig_title":"Smetto quando voglio: Masterclass","year":"2017-02-02","translations":["Профессиональный (многоголосый закадровый) (GreenРай Studio)","Любительский (многоголосый закадровый) (Синема УС)","Профессиональный (многоголосый закадровый) (iTunes)"],"quality":"bd","translation":"Профессиональный (многоголосый закадровый) (GreenРай Studio)","update":"2018-12-14 06:27:28","iframe_src":"//24213.svetacdn.in/IAF0wWTdNYZm/movie/12048"},{"id":9709,"title":"Чихаяфуру. Фильм второй","kp_id":"917846","imdb_id":"tt4802214","world_art_id":null,"type":"movie","add":"2017-02-15 14:30:24","orig_title":"Chihayafuru shimo no ku","year":"2016-04-29","translations":["Любительский (одноголосый закадровый)","Любительский (одноголосый закадровый) (GREEN TEA)"],"quality":"bd","translation":"Любительский (одноголосый закадровый)","update":"2018-12-14 06:49:01","iframe_src":"//24213.svetacdn.in/IAF0wWTdNYZm/movie/9709"},{"id":8370,"title":"Чихаяфуру. Фильм первый","kp_id":"918651","imdb_id":"tt4785440","world_art_id":null,"type":"movie","add":"2016-12-27 07:09:56","orig_title":"Chihayafuru","year":"2016-03-19","translations":["Любительский (одноголосый закадровый)","Любительский (одноголосый закадровый) (GREEN TEA)"],"quality":"bd","translation":"Любительский (одноголосый закадровый)","update":"2018-12-14 06:49:57","iframe_src":"//24213.svetacdn.in/IAF0wWTdNYZm/movie/8370"}],"current_page":2167,"first_page_url":"https://videocdn.tv/api/short?limit=100&api_token=6Onb1W1alEUrBcKJZD3GoKBbWyAl2uG2&cache32167=32167&page=1","from":216601,"last_page":725,"last_page_url":"https://videocdn.tv/api/short?limit=100&api_token=6Onb1W1alEUrBcKJZD3GoKBbWyAl2uG2&cache32167=32167&page=725","next_page_url":null,"path":"https://videocdn.tv/api/short","per_page":100,"prev_page_url":"https://videocdn.tv/api/short?limit=100&api_token=6Onb1W1alEUrBcKJZD3GoKBbWyAl2uG2&cache32167=32167&page=2166","to":216620,"total":72409}