{"result":true,"data":[{"id":43735,"title":"Cуррогатная мать для звезды","kp_id":"1328222","imdb_id":null,"world_art_id":null,"type":"movie","add":"2020-09-22 07:41:58","orig_title":"The Surrogate","year":"2020-09-19","translations":["Любительский (многоголосый закадровый) (Синема УС)"],"quality":"webdl","translation":"Любительский (многоголосый закадровый) (Синема УС)","update":"2020-09-22 10:51:27","iframe_src":"//5322.svetacdn.in/71tsRs29n5tZ/movie/43735"},{"id":43731,"title":"Время чудовищ","kp_id":"1076561","imdb_id":"tt7200370","world_art_id":null,"type":"movie","add":"2020-09-21 19:37:17","orig_title":"Ang panahon ng halimaw","year":"2018-02-20","translations":["Любительский (многоголосый закадровый) (Синема УС)"],"quality":"webdl","translation":"Любительский (многоголосый закадровый) (Синема УС)","update":"2020-09-22 07:14:50","iframe_src":"//5322.svetacdn.in/71tsRs29n5tZ/movie/43731"},{"id":43730,"title":"Билли","kp_id":null,"imdb_id":"tt7692824","world_art_id":null,"type":"movie","add":"2020-09-21 19:19:32","orig_title":"Billy","year":"2018-01-04","translations":["Любительский (многоголосый закадровый) (Синема УС)"],"quality":"webdl","translation":"Любительский (многоголосый закадровый) (Синема УС)","update":"2020-09-22 07:13:30","iframe_src":"//5322.svetacdn.in/71tsRs29n5tZ/movie/43730"},{"id":43708,"title":"Незнайка с нашего двора","kp_id":"94624","imdb_id":"tt0382195","world_art_id":null,"type":"movie","add":"2020-09-21 14:47:59","orig_title":"Neznayka s nashego dvora","year":"1983-01-01","translations":["Оригинальная дорожка"],"quality":"dvdrip","translation":"Оригинальная дорожка","update":"2020-09-22 07:09:26","iframe_src":"//5322.svetacdn.in/71tsRs29n5tZ/movie/43708"},{"id":43704,"title":"Ничья земля","kp_id":"575879","imdb_id":"tt1456660","world_art_id":null,"type":"movie","add":"2020-09-21 08:50:43","orig_title":"Wu ren qu","year":"2013-12-03","translations":["Любительский (двухголосый закадровый) (DeadSno & den904)"],"quality":"hdtv","translation":"Любительский (двухголосый закадровый) (DeadSno & den904)","update":"2020-09-22 07:11:47","iframe_src":"//5322.svetacdn.in/71tsRs29n5tZ/movie/43704"},{"id":43572,"title":"Пересечение","kp_id":"864120","imdb_id":"tt4205718","world_art_id":null,"type":"movie","add":"2020-09-15 18:58:44","orig_title":"Intersect","year":"2020-02-12","translations":["Любительский (многоголосый закадровый) (@MUZOBOZ@)","Любительский (многоголосый закадровый) (@MUZOBOZ@)"],"quality":"webdl","translation":"Любительский (многоголосый закадровый) (@MUZOBOZ@)","update":"2020-09-22 14:34:37","iframe_src":"//5322.svetacdn.in/71tsRs29n5tZ/movie/43572"},{"id":43556,"title":"Эфир","kp_id":"1050231","imdb_id":"tt7368668","world_art_id":null,"type":"movie","add":"2020-09-15 09:37:45","orig_title":"Eter","year":"2018-09-20","translations":["Авторский (одноголосый закадровый) (Чадов Михаил)","Любительский (многоголосый закадровый) (Синема УС)"],"quality":"webdl","translation":"Авторский (одноголосый закадровый) (Чадов Михаил)","update":"2020-09-22 10:50:55","iframe_src":"//5322.svetacdn.in/71tsRs29n5tZ/movie/43556"},{"id":43482,"title":"Петер Баас","kp_id":null,"imdb_id":"tt11959408","world_art_id":null,"type":"movie","add":"2020-09-13 19:23:12","orig_title":"Peter-Baas","year":"2019-12-01","translations":["Оригинальная дорожка"],"quality":"webdl","translation":"Оригинальная дорожка","update":"2020-09-22 14:39:06","iframe_src":"//5322.svetacdn.in/71tsRs29n5tZ/movie/43482"},{"id":43481,"title":"Хомячок Фрош: Друзья в поисках клада","kp_id":"1387126","imdb_id":null,"world_art_id":null,"type":"movie","add":"2020-09-13 19:13:21","orig_title":"Хомячок Фрош: Друзья в поисках клада","year":"2020-05-10","translations":["Оригинальная дорожка"],"quality":"webdl","translation":"Оригинальная дорожка","update":"2020-09-22 14:38:02","iframe_src":"//5322.svetacdn.in/71tsRs29n5tZ/movie/43481"},{"id":43480,"title":"Я хочу жить в зоопарке","kp_id":"1114396","imdb_id":"tt7241520","world_art_id":null,"type":"movie","add":"2020-09-13 19:10:25","orig_title":"I want to live in the Zoo","year":"2018-01-27","translations":["Оригинальная дорожка"],"quality":"webdl","translation":"Оригинальная дорожка","update":"2020-09-22 14:37:25","iframe_src":"//5322.svetacdn.in/71tsRs29n5tZ/movie/43480"},{"id":43479,"title":"Хоботёнок","kp_id":"1199532","imdb_id":"tt9059384","world_art_id":null,"type":"movie","add":"2020-09-13 19:08:03","orig_title":"Khobotyonok","year":"2017-12-23","translations":["Оригинальная дорожка"],"quality":"webdl","translation":"Оригинальная дорожка","update":"2020-09-22 14:36:34","iframe_src":"//5322.svetacdn.in/71tsRs29n5tZ/movie/43479"},{"id":43478,"title":"Даша и людоед","kp_id":"970908","imdb_id":null,"world_art_id":null,"type":"movie","add":"2020-09-13 18:43:55","orig_title":"Даша и людоед","year":"2015-01-01","translations":["Оригинальная дорожка"],"quality":"webdl","translation":"Оригинальная дорожка","update":"2020-09-22 14:36:02","iframe_src":"//5322.svetacdn.in/71tsRs29n5tZ/movie/43478"},{"id":43402,"title":"Няня. Королева проклятых","kp_id":"1309718","imdb_id":"tt11024272","world_art_id":null,"type":"movie","add":"2020-09-10 19:24:37","orig_title":"The Babysitter: Killer Queen","year":"2020-09-10","translations":["Любительский (многоголосый закадровый) (@MUZOBOZ@)","Любительский (двухголосый закадровый) (OnisFilms)","Профессиональный (многоголосый закадровый) (HDrezka Studio)","Профессиональный (многоголосый закадровый) (HDrezka Studio 18+)","Любительский (многоголосый закадровый) (Flarrow Films)"],"quality":"webdl","translation":"Любительский (многоголосый закадровый) (@MUZOBOZ@)","update":"2020-09-22 07:04:16","iframe_src":"//5322.svetacdn.in/71tsRs29n5tZ/movie/43402"},{"id":42785,"title":"Полное уничтожение","kp_id":"1346708","imdb_id":"tt11656172","world_art_id":null,"type":"movie","add":"2020-08-25 20:03:16","orig_title":"Hard Kill","year":"2020-08-21","translations":["Любительский (многоголосый закадровый) (@MUZOBOZ@)","Original (English)","Полное дублирование (iTunes)"],"quality":"webdl","translation":"Любительский (многоголосый закадровый) (@MUZOBOZ@)","update":"2020-09-22 13:33:02","iframe_src":"//5322.svetacdn.in/71tsRs29n5tZ/movie/42785"},{"id":42425,"title":"Перегрузка","kp_id":"1246783","imdb_id":"tt9812258","world_art_id":null,"type":"movie","add":"2020-08-11 22:00:39","orig_title":"G-Loc","year":"2020-08-11","translations":["Любительский (многоголосый закадровый) (@MUZOBOZ@)","Original (English)","Любительский (многоголосый закадровый) (@MUZOBOZ@)"],"quality":"webdl","translation":"Любительский (многоголосый закадровый) (@MUZOBOZ@)","update":"2020-09-22 09:53:02","iframe_src":"//5322.svetacdn.in/71tsRs29n5tZ/movie/42425"},{"id":41912,"title":"Бешенство","kp_id":"1128267","imdb_id":"tt6117824","world_art_id":null,"type":"movie","add":"2020-07-21 04:27:34","orig_title":"Cuerdas","year":"2019-10-10","translations":["Любительский (многоголосый закадровый) (Синема УС)","Полное дублирование (iTunes)"],"quality":"webdl","translation":"Любительский (многоголосый закадровый) (Синема УС)","update":"2020-09-22 09:55:44","iframe_src":"//5322.svetacdn.in/71tsRs29n5tZ/movie/41912"},{"id":41672,"title":"2025: Поле битвы","kp_id":"1123206","imdb_id":"tt8134980","world_art_id":null,"type":"movie","add":"2020-07-08 19:47:42","orig_title":"Battlefield 2025","year":"2020-07-01","translations":["Любительский (многоголосый закадровый) (@MUZOBOZ@)","Original (English)","Любительский (многоголосый закадровый) (@MUZOBOZ@)"],"quality":"webdl","translation":"Любительский (многоголосый закадровый) (@MUZOBOZ@)","update":"2020-09-22 09:54:00","iframe_src":"//5322.svetacdn.in/71tsRs29n5tZ/movie/41672"},{"id":40078,"title":"Подлодка","kp_id":"1179274","imdb_id":"tt8829128","world_art_id":null,"type":"movie","add":"2020-05-03 20:28:03","orig_title":"Torpedo","year":"2019-10-23","translations":["Любительский (многоголосый закадровый) (AlphaProject)","Любительский (многоголосый закадровый) (AlphaProject)"],"quality":"bd","translation":"Любительский (многоголосый закадровый) (AlphaProject)","update":"2020-09-22 14:32:22","iframe_src":"//5322.svetacdn.in/71tsRs29n5tZ/movie/40078"},{"id":36966,"title":"Миссия: Спасти панду","kp_id":"1174430","imdb_id":"tt11566166","world_art_id":null,"type":"movie","add":"2020-02-26 07:06:56","orig_title":"Miseuteo Ju: sarajin VIP","year":"2020-01-22","translations":["Любительский (двухголосый закадровый) (Колобок)","Любительский (одноголосый закадровый) (Береговых Виктор | Jet)","Полное дублирование (iTunes)"],"quality":"webdl","translation":"Любительский (двухголосый закадровый) (Колобок)","update":"2020-09-22 07:07:02","iframe_src":"//5322.svetacdn.in/71tsRs29n5tZ/movie/36966"},{"id":28080,"title":"Исчезновение","kp_id":"938828","imdb_id":"tt5096246","world_art_id":null,"type":"movie","add":"2019-06-20 21:01:33","orig_title":"Disappearance","year":"2019-06-18","translations":["Любительский (многоголосый закадровый) (Синема УС)","Профессиональный (многоголосый закадровый) (IVI)"],"quality":"webdl","translation":"Любительский (многоголосый закадровый) (Синема УС)","update":"2020-09-22 13:31:59","iframe_src":"//5322.svetacdn.in/71tsRs29n5tZ/movie/28080"},{"id":1734,"title":"Ночь после выпуска","kp_id":"1071406","imdb_id":null,"world_art_id":null,"type":"serial","add":"2017-11-13 08:16:05","orig_title":"Ночь после выпуска","year":"2017-11-11","translations":["Оригинальная дорожка"],"seasons_count":1,"episodes_count":2,"episodes":2,"update":"2017-11-13 13:09:07","iframe_src":"//5322.svetacdn.in/71tsRs29n5tZ/tv-series/1734"},{"id":1731,"title":"Ложь во спасение","kp_id":"961718","imdb_id":"tt5564518","world_art_id":null,"type":"serial","add":"2017-11-13 07:37:35","orig_title":"Lozh vo spaseniye","year":"2016-04-09","translations":["Оригинальная дорожка"],"seasons_count":1,"episodes_count":4,"episodes":4,"update":"2017-11-13 11:49:00","iframe_src":"//5322.svetacdn.in/71tsRs29n5tZ/tv-series/1731"},{"id":1730,"title":"Уроки счастья","kp_id":"1097480","imdb_id":null,"world_art_id":null,"type":"serial","add":"2017-11-13 07:33:29","orig_title":"Уроки счастья","year":"2017-11-12","translations":["Оригинальная дорожка"],"seasons_count":1,"episodes_count":4,"episodes":4,"update":"2017-11-13 11:44:59","iframe_src":"//5322.svetacdn.in/71tsRs29n5tZ/tv-series/1730"},{"id":1729,"title":"Последняя электричка","kp_id":"780309","imdb_id":"tt4550744","world_art_id":null,"type":"serial","add":"2017-11-13 06:33:53","orig_title":"Poslednyaya elektrichka","year":"2015-03-01","translations":["Оригинальная дорожка"],"seasons_count":1,"episodes_count":8,"episodes":8,"update":"2017-11-14 07:33:45","iframe_src":"//5322.svetacdn.in/71tsRs29n5tZ/tv-series/1729"},{"id":1722,"title":"Неzлоб","kp_id":"715215","imdb_id":"tt4741988","world_art_id":null,"type":"serial","add":"2017-11-10 08:26:20","orig_title":"Nezlob","year":"2013-11-05","translations":["Оригинальная дорожка"],"seasons_count":1,"episodes_count":16,"episodes":16,"update":"2017-11-12 12:52:56","iframe_src":"//5322.svetacdn.in/71tsRs29n5tZ/tv-series/1722"},{"id":1721,"title":"Кротик и Панда","kp_id":"1046564","imdb_id":null,"world_art_id":null,"type":"serial","add":"2017-11-09 05:08:13","orig_title":"Krtek a panda","year":"2016-03-28","translations":["Полное дублирование"],"seasons_count":1,"episodes_count":52,"episodes":52,"update":"2017-11-10 12:52:57","iframe_src":"//5322.svetacdn.in/71tsRs29n5tZ/tv-series/1721"},{"id":1720,"title":"Демон революции","kp_id":"1043872","imdb_id":"tt7598872","world_art_id":null,"type":"serial","add":"2017-11-07 12:57:07","orig_title":"Demon revolyutsii","year":"2017-11-05","translations":["Оригинальная дорожка"],"seasons_count":1,"episodes_count":3,"episodes":3,"update":"2017-11-08 08:08:05","iframe_src":"//5322.svetacdn.in/71tsRs29n5tZ/tv-series/1720"},{"id":1719,"title":"Троцкий","kp_id":"1008339","imdb_id":null,"world_art_id":null,"type":"serial","add":"2017-11-07 12:52:05","orig_title":"Троцкий","year":"2017-11-06","translations":["Оригинальная дорожка"],"seasons_count":1,"episodes_count":8,"episodes":8,"update":"2017-11-10 07:53:03","iframe_src":"//5322.svetacdn.in/71tsRs29n5tZ/tv-series/1719"},{"id":1718,"title":"Нулевая мировая","kp_id":"1036875","imdb_id":null,"world_art_id":null,"type":"serial","add":"2017-11-06 06:02:55","orig_title":"Нулевая мировая","year":"2017-02-23","translations":["Оригинальная дорожка"],"seasons_count":1,"episodes_count":4,"episodes":4,"update":"2017-11-08 11:12:35","iframe_src":"//5322.svetacdn.in/71tsRs29n5tZ/tv-series/1718"},{"id":1717,"title":"Котовский","kp_id":"466542","imdb_id":"tt3575436","world_art_id":null,"type":"serial","add":"2017-11-06 05:58:39","orig_title":"Kotovskiy","year":"2010-03-01","translations":["Оригинальная дорожка"],"seasons_count":1,"episodes_count":8,"episodes":8,"update":"2017-11-07 11:26:58","iframe_src":"//5322.svetacdn.in/71tsRs29n5tZ/tv-series/1717"},{"id":1716,"title":"Короткое слово нет","kp_id":"1007584","imdb_id":"tt6687196","world_art_id":null,"type":"serial","add":"2017-11-06 05:55:44","orig_title":"Korotkoe slovo 'net'","year":"2017-10-23","translations":["Оригинальная дорожка"],"seasons_count":1,"episodes_count":12,"episodes":12,"update":"2017-11-07 10:31:09","iframe_src":"//5322.svetacdn.in/71tsRs29n5tZ/tv-series/1716"},{"id":1714,"title":"Анна Герман","kp_id":"600835","imdb_id":"tt2729414","world_art_id":null,"type":"serial","add":"2017-11-06 05:44:43","orig_title":"Anna German","year":"2012-09-03","translations":["Оригинальная дорожка"],"seasons_count":1,"episodes_count":10,"episodes":10,"update":"2017-11-08 11:07:46","iframe_src":"//5322.svetacdn.in/71tsRs29n5tZ/tv-series/1714"},{"id":1712,"title":"Жизнь и приключения Мишки Япончика","kp_id":"603888","imdb_id":"tt2317835","world_art_id":null,"type":"serial","add":"2017-11-06 05:34:34","orig_title":"Zhizn i priklyucheniya Mishki Yaponchika","year":"2011-11-09","translations":["Оригинальная дорожка"],"seasons_count":1,"episodes_count":12,"episodes":12,"update":"2017-11-08 10:38:11","iframe_src":"//5322.svetacdn.in/71tsRs29n5tZ/tv-series/1712"},{"id":1711,"title":"Жизнь после жизни","kp_id":"760483","imdb_id":"tt6761836","world_art_id":null,"type":"serial","add":"2017-11-06 05:09:06","orig_title":"Zhizn posle zhizni","year":"2017-02-27","translations":["Оригинальная дорожка"],"seasons_count":1,"episodes_count":16,"episodes":16,"update":"2017-11-07 10:55:49","iframe_src":"//5322.svetacdn.in/71tsRs29n5tZ/tv-series/1711"},{"id":1706,"title":"Мятежный дух","kp_id":"94384","imdb_id":"tt0328789","world_art_id":null,"type":"serial","add":"2017-11-03 21:15:43","orig_title":"Rebelde Way","year":"2002-05-27","translations":["Профессиональный (многоголосый закадровый)"],"seasons_count":2,"episodes_count":318,"episodes":179,"update":"2017-11-08 21:48:46","iframe_src":"//5322.svetacdn.in/71tsRs29n5tZ/tv-series/1706"},{"id":1689,"title":"Император Карлос","kp_id":"891688","imdb_id":"tt4418020","world_art_id":null,"type":"serial","add":"2017-10-30 09:16:52","orig_title":"Carlos, Rey Emperador","year":"2015-09-07","translations":["Любительский (двухголосый закадровый)"],"seasons_count":1,"episodes_count":17,"episodes":17,"update":"2017-11-08 09:42:09","iframe_src":"//5322.svetacdn.in/71tsRs29n5tZ/tv-series/1689"},{"id":1686,"title":"Что делает твоя жена?","kp_id":"1007900","imdb_id":null,"world_art_id":null,"type":"serial","add":"2017-10-30 08:50:12","orig_title":"Что делает твоя жена?","year":"2017-10-28","translations":["Оригинальная дорожка"],"seasons_count":1,"episodes_count":20,"episodes":20,"update":"2017-11-07 12:13:52","iframe_src":"//5322.svetacdn.in/71tsRs29n5tZ/tv-series/1686"},{"id":1680,"title":"Брат за брата 2","kp_id":"679751","imdb_id":"tt4094956","world_art_id":null,"type":"serial","add":"2017-10-27 05:32:20","orig_title":"Brat za brata 2","year":"2013-01-31","translations":["Оригинальная дорожка"],"seasons_count":1,"episodes_count":24,"episodes":24,"update":"2017-11-08 09:35:00","iframe_src":"//5322.svetacdn.in/71tsRs29n5tZ/tv-series/1680"},{"id":1679,"title":"Брат за брата","kp_id":"491881","imdb_id":"tt4339372","world_art_id":null,"type":"serial","add":"2017-10-27 05:30:08","orig_title":"Brat za brata","year":"2010-10-13","translations":["Оригинальная дорожка"],"seasons_count":1,"episodes_count":24,"episodes":24,"update":"2017-11-07 09:59:25","iframe_src":"//5322.svetacdn.in/71tsRs29n5tZ/tv-series/1679"},{"id":523,"title":"Светофор","kp_id":"581693","imdb_id":"tt2341427","world_art_id":null,"type":"serial","add":"2016-10-13 11:14:26","orig_title":"Svetofor","year":"2011-03-28","translations":["Оригинальная дорожка"],"seasons_count":10,"episodes_count":200,"episodes":20,"update":"2017-11-09 14:12:12","iframe_src":"//5322.svetacdn.in/71tsRs29n5tZ/tv-series/523"}],"current_page":473,"first_page_url":"https://videocdn.tv/api/short?limit=100&api_token=EnbO9h8pv1VyjbCJhg0WM9nG259n7mtz&cache3473=3473&page=1","from":47201,"last_page":628,"last_page_url":"https://videocdn.tv/api/short?limit=100&api_token=EnbO9h8pv1VyjbCJhg0WM9nG259n7mtz&cache3473=3473&page=628","next_page_url":"https://videocdn.tv/api/short?limit=100&api_token=EnbO9h8pv1VyjbCJhg0WM9nG259n7mtz&cache3473=3473&page=474","path":"https://videocdn.tv/api/short","per_page":100,"prev_page_url":"https://videocdn.tv/api/short?limit=100&api_token=EnbO9h8pv1VyjbCJhg0WM9nG259n7mtz&cache3473=3473&page=472","to":47240,"total":62702}