{"result":true,"data":[{"id":51557,"title":"Стальная ловушка","kp_id":"198454","imdb_id":"tt0045190","world_art_id":null,"type":"movie","add":"2021-07-03 23:13:38","orig_title":"The Steel Trap","year":"1952-11-12","translations":["Авторский (одноголосый закадровый) (Рутилов Виктор | fiendover | overfiend)"],"quality":"dvdrip","translation":"Авторский (одноголосый закадровый) (Рутилов Виктор | fiendover | overfiend)","update":"2021-07-04 04:57:46","iframe_src":"//8209.svetacdn.in/IAF0wWTdNYZm/movie/51557"},{"id":51556,"title":"Стальная ловушка","kp_id":"279835","imdb_id":"tt0973790","world_art_id":null,"type":"movie","add":"2021-07-03 23:09:43","orig_title":"Steel Trap","year":"2007-11-07","translations":["Профессиональный (многоголосый закадровый)"],"quality":"dvdrip","translation":"Профессиональный (многоголосый закадровый)","update":"2021-07-04 04:56:32","iframe_src":"//8209.svetacdn.in/IAF0wWTdNYZm/movie/51556"},{"id":51555,"title":"Кое-кто из наших жеребцов","kp_id":"1219354","imdb_id":"tt9378658","world_art_id":null,"type":"movie","add":"2021-07-03 20:05:24","orig_title":"Some of Our Stallions","year":"2021-07-02","translations":["Любительский (многоголосый закадровый) (@MUZOBOZ@)"],"quality":"webdl","translation":"Любительский (многоголосый закадровый) (@MUZOBOZ@)","update":"2021-07-04 04:52:44","iframe_src":"//8209.svetacdn.in/IAF0wWTdNYZm/movie/51555"},{"id":51552,"title":"Теперь моя очередь","kp_id":"1075489","imdb_id":"tt7115274","world_art_id":null,"type":"movie","add":"2021-07-03 19:56:13","orig_title":"Adesso tocca a me","year":"2017-07-19","translations":["Любительский (многоголосый закадровый) (Синема УС)"],"quality":"webdl","translation":"Любительский (многоголосый закадровый) (Синема УС)","update":"2021-07-03 22:38:09","iframe_src":"//8209.svetacdn.in/IAF0wWTdNYZm/movie/51552"},{"id":51551,"title":"Локдаун 2025","kp_id":"4481563","imdb_id":"tt14096564","world_art_id":null,"type":"movie","add":"2021-07-03 19:54:28","orig_title":"Lockdown 2025","year":"2021-07-02","translations":["Любительский (многоголосый закадровый) (Синема УС)"],"quality":"webdl","translation":"Любительский (многоголосый закадровый) (Синема УС)","update":"2021-07-03 23:04:19","iframe_src":"//8209.svetacdn.in/IAF0wWTdNYZm/movie/51551"},{"id":51550,"title":"В опустевшей церкви","kp_id":"4307956","imdb_id":"tt13694438","world_art_id":null,"type":"movie","add":"2021-07-03 19:48:16","orig_title":"Scenes from an Empty Church","year":"2021-07-02","translations":["Любительский (многоголосый закадровый) (AlphaProject)"],"quality":"webdl","translation":"Любительский (многоголосый закадровый) (AlphaProject)","update":"2021-07-03 21:39:46","iframe_src":"//8209.svetacdn.in/IAF0wWTdNYZm/movie/51550"},{"id":51549,"title":"Парк развлечений","kp_id":"1209314","imdb_id":"tt9270362","world_art_id":null,"type":"movie","add":"2021-07-03 19:43:57","orig_title":"The Amusement Park","year":"1973-01-01","translations":["Любительский (многоголосый закадровый) (Синема УС)"],"quality":"webdl","translation":"Любительский (многоголосый закадровый) (Синема УС)","update":"2021-07-03 21:38:45","iframe_src":"//8209.svetacdn.in/IAF0wWTdNYZm/movie/51549"},{"id":51547,"title":"Самооборона","kp_id":"38010","imdb_id":"tt0158671","world_art_id":null,"type":"movie","add":"2021-07-03 14:37:13","orig_title":"In Her Defense","year":"1999-01-22","translations":["Профессиональный (двухголосый закадровый)"],"quality":"dvdrip","translation":"Профессиональный (двухголосый закадровый)","update":"2021-07-03 15:54:41","iframe_src":"//8209.svetacdn.in/IAF0wWTdNYZm/movie/51547"},{"id":51539,"title":"Две Фриды","kp_id":"1060587","imdb_id":"tt6749272","world_art_id":null,"type":"movie","add":"2021-07-03 08:01:38","orig_title":"Dos Fridas","year":"2018-11-24","translations":["Любительский (многоголосый закадровый) (Синема УС)"],"quality":"webdl","translation":"Любительский (многоголосый закадровый) (Синема УС)","update":"2021-07-03 15:13:55","iframe_src":"//8209.svetacdn.in/IAF0wWTdNYZm/movie/51539"},{"id":51538,"title":"Даг","kp_id":"1182600","imdb_id":"tt8676514","world_art_id":null,"type":"movie","add":"2021-07-03 08:00:53","orig_title":"Doug","year":"2020-06-11","translations":["Любительский (многоголосый закадровый) (Синема УС)"],"quality":"webdl","translation":"Любительский (многоголосый закадровый) (Синема УС)","update":"2021-07-03 15:13:15","iframe_src":"//8209.svetacdn.in/IAF0wWTdNYZm/movie/51538"},{"id":51536,"title":"Шесть раундов","kp_id":"989446","imdb_id":"tt5643644","world_art_id":null,"type":"movie","add":"2021-07-03 07:58:59","orig_title":"Six Rounds","year":"2017-04-09","translations":["Любительский (многоголосый закадровый) (Синема УС)"],"quality":"webdl","translation":"Любительский (многоголосый закадровый) (Синема УС)","update":"2021-07-03 15:12:45","iframe_src":"//8209.svetacdn.in/IAF0wWTdNYZm/movie/51536"},{"id":51534,"title":"Клятва","kp_id":"1305917","imdb_id":"tt10091630","world_art_id":null,"type":"movie","add":"2021-07-03 06:51:47","orig_title":"Klyatva","year":"2020-02-25","translations":["Оригинальная дорожка"],"quality":"webdl","translation":"Оригинальная дорожка","update":"2021-07-03 16:42:17","iframe_src":"//8209.svetacdn.in/IAF0wWTdNYZm/movie/51534"},{"id":49503,"title":"Мортал Комбат","kp_id":"8062","imdb_id":"tt0293429","world_art_id":null,"type":"movie","add":"2021-04-11 14:51:20","orig_title":"Mortal Kombat","year":"2021-04-08","translations":["Original (English)","Профессиональный (двухголосый закадровый) (Pazl Voice)","Полное дублирование","Профессиональный (многоголосый закадровый) (HDrezka Studio)","Профессиональный (многоголосый закадровый) (HDrezka Studio)","Полное дублирование (Пифагор)","Авторский (одноголосый закадровый) (Яроцкий Михаил | Kyberpunk)","Авторский (одноголосый закадровый) (Назаров Вадим)","Авторский (одноголосый закадровый) (Сербин Юрий)"],"quality":"webdl","translation":"Original (English)","update":"2021-07-03 17:14:49","iframe_src":"//8209.svetacdn.in/IAF0wWTdNYZm/movie/49503"},{"id":48050,"title":"Докопаться до могилы","kp_id":"4381950","imdb_id":"tt7752100","world_art_id":null,"type":"movie","add":"2021-02-19 05:02:33","orig_title":"Digging to Death","year":"2021-01-14","translations":["Любительский (двухголосый закадровый) (datynet & Yuka_chan)","Профессиональный (многоголосый закадровый) (iTunes)","Original (English)"],"quality":"webdl","translation":"Любительский (двухголосый закадровый) (datynet & Yuka_chan)","update":"2021-07-03 16:58:57","iframe_src":"//8209.svetacdn.in/IAF0wWTdNYZm/movie/48050"},{"id":9785,"title":"Без любви","kp_id":"1338051","imdb_id":null,"world_art_id":null,"type":"serial","add":"2021-01-23 12:41:43","orig_title":"Без любви","year":"2021-01-23","translations":["Оригинальная дорожка"],"seasons_count":1,"episodes_count":4,"episodes":4,"update":"2021-01-23 17:18:48","iframe_src":"//8209.svetacdn.in/IAF0wWTdNYZm/tv-series/9785"},{"id":9771,"title":"Линия красоты","kp_id":"400018","imdb_id":"tt0494192","world_art_id":null,"type":"serial","add":"2021-01-21 18:20:28","orig_title":"The Line of Beauty","year":"2006-05-17","translations":["Авторский (одноголосый закадровый) (Алексеев Антон)"],"seasons_count":1,"episodes_count":3,"episodes":3,"update":"2021-01-22 21:28:43","iframe_src":"//8209.svetacdn.in/IAF0wWTdNYZm/tv-series/9771"},{"id":9769,"title":"Новая норма","kp_id":"679626","imdb_id":"tt2087571","world_art_id":null,"type":"serial","add":"2021-01-20 17:02:32","orig_title":"The New Normal","year":"2012-08-29","translations":["Профессиональный (многоголосый закадровый) (BaibaKo)"],"seasons_count":1,"episodes_count":22,"episodes":22,"update":"2021-01-22 09:48:03","iframe_src":"//8209.svetacdn.in/IAF0wWTdNYZm/tv-series/9769"},{"id":9748,"title":"Иствик","kp_id":"453378","imdb_id":"tt1402376","world_art_id":null,"type":"serial","add":"2021-01-17 15:59:34","orig_title":"Eastwick","year":"2009-09-23","translations":["Профессиональный (многоголосый закадровый) (ТНТ)","Профессиональный (двухголосый закадровый) (Кубик в Кубе)"],"seasons_count":1,"episodes_count":13,"episodes":13,"update":"2021-01-21 14:55:03","iframe_src":"//8209.svetacdn.in/IAF0wWTdNYZm/tv-series/9748"},{"id":9725,"title":"До, до, соль, соль, ля, ля, соль","kp_id":"1373693","imdb_id":"tt12850262","world_art_id":null,"type":"serial","add":"2021-01-14 09:10:34","orig_title":"Do Do Sol Sol La La Sol","year":"2020-10-07","translations":["Любительский (двухголосый закадровый) (SoftBox)"],"seasons_count":1,"episodes_count":16,"episodes":16,"update":"2021-01-22 10:46:17","iframe_src":"//8209.svetacdn.in/IAF0wWTdNYZm/tv-series/9725"},{"id":9704,"title":"Убийства в Пембрукшире","kp_id":"1344107","imdb_id":"tt11649104","world_art_id":null,"type":"serial","add":"2021-01-12 02:26:53","orig_title":"The Pembrokeshire Murders","year":"2021-01-11","translations":["Original (English)","Любительский (многоголосый закадровый) (Ultradox)","Любительский (многоголосый закадровый) (ColdFilm)","Любительский (двухголосый закадровый) (KerobTV)","Профессиональный (многоголосый закадровый) (Ozz.tv)","Профессиональный (многоголосый закадровый) (BaibaKo)","Профессиональный (многоголосый закадровый) (HDrezka Studio)","Любительский (многоголосый закадровый) (KerobTV)"],"seasons_count":1,"episodes_count":4,"episodes":4,"update":"2021-01-24 17:08:42","iframe_src":"//8209.svetacdn.in/IAF0wWTdNYZm/tv-series/9704"},{"id":9702,"title":"Влюбленные в танго","kp_id":"416754","imdb_id":"tt0307751","world_art_id":null,"type":"serial","add":"2021-01-11 19:54:41","orig_title":"Franco Buenaventura, el profe","year":"2002-02-04","translations":["Профессиональный (многоголосый закадровый)"],"seasons_count":1,"episodes_count":175,"episodes":175,"update":"2021-01-23 19:48:53","iframe_src":"//8209.svetacdn.in/IAF0wWTdNYZm/tv-series/9702"},{"id":9701,"title":"Кто есть кто?","kp_id":"939800","imdb_id":"tt5020080","world_art_id":null,"type":"serial","add":"2021-01-11 19:52:12","orig_title":"¿Quién es quién?","year":"2015-10-26","translations":["Профессиональный (многоголосый закадровый) (Позитив)"],"seasons_count":1,"episodes_count":120,"episodes":120,"update":"2021-01-21 21:03:49","iframe_src":"//8209.svetacdn.in/IAF0wWTdNYZm/tv-series/9701"},{"id":9543,"title":"Д’Артаньгав и три пса-мушкетёра","kp_id":"408554","imdb_id":"tt0083780","world_art_id":null,"type":"serial","add":"2020-12-16 17:40:13","orig_title":"D'Artacan y los tres mosqueperros","year":"1981-10-09","translations":["Полное дублирование"],"seasons_count":1,"episodes_count":26,"episodes":26,"update":"2021-01-24 16:51:26","iframe_src":"//8209.svetacdn.in/IAF0wWTdNYZm/tv-series/9543"},{"id":45969,"title":"Боевой робот номер 4","kp_id":"1037479","imdb_id":"tt6456326","world_art_id":null,"type":"movie","add":"2020-12-10 05:44:12","orig_title":"Monsters of Man","year":"2020-12-08","translations":["Любительский (многоголосый закадровый) (@MUZOBOZ@)","Авторский (одноголосый закадровый) (Дольский Андрей)","Профессиональный (двухголосый закадровый) (ViruseProject)","Original (English)","Полное дублирование (iTunes)"],"quality":"webdl","translation":"Любительский (многоголосый закадровый) (@MUZOBOZ@)","update":"2021-07-03 17:01:09","iframe_src":"//8209.svetacdn.in/IAF0wWTdNYZm/movie/45969"},{"id":9453,"title":"Астронавты","kp_id":"1408068","imdb_id":"tt11947264","world_art_id":null,"type":"serial","add":"2020-12-02 20:58:58","orig_title":"The Astronauts","year":"2020-11-13","translations":["Любительский (многоголосый закадровый) (KerobTV)","Original (English)","Профессиональный (многоголосый закадровый) (HDrezka Studio)"],"seasons_count":1,"episodes_count":9,"episodes":9,"update":"2021-01-22 06:55:18","iframe_src":"//8209.svetacdn.in/IAF0wWTdNYZm/tv-series/9453"},{"id":9422,"title":"30 сребреников","kp_id":"1236337","imdb_id":"tt9764386","world_art_id":null,"type":"serial","add":"2020-11-29 18:05:02","orig_title":"30 Monedas","year":"2020-11-29","translations":["Профессиональный (двухголосый закадровый) (IdeaFilm)","Любительский (многоголосый закадровый) (Ultradox)","Любительский (многоголосый закадровый) (ColdFilm)","Любительский (многоголосый закадровый) (KerobTV)","Профессиональный (многоголосый закадровый) (Novamedia)","Профессиональный (многоголосый закадровый) (BaibaKo)","Любительский (многоголосый закадровый) (RG.Paravozik)"],"seasons_count":1,"episodes_count":8,"episodes":8,"update":"2021-01-22 08:47:39","iframe_src":"//8209.svetacdn.in/IAF0wWTdNYZm/tv-series/9422"},{"id":9266,"title":"Переломный момент","kp_id":"1341240","imdb_id":"tt11577386","world_art_id":null,"type":"serial","add":"2020-11-11 17:45:09","orig_title":"La faille","year":"2019-12-12","translations":["Профессиональный (многоголосый закадровый) (BaibaKo)","Профессиональный (многоголосый закадровый) (Premier)"],"seasons_count":1,"episodes_count":8,"episodes":8,"update":"2021-01-21 14:43:58","iframe_src":"//8209.svetacdn.in/IAF0wWTdNYZm/tv-series/9266"},{"id":9082,"title":"Ход королевы","kp_id":"1253633","imdb_id":"tt10048342","world_art_id":null,"type":"serial","add":"2020-10-23 10:11:24","orig_title":"The Queen's Gambit","year":"2020-10-23","translations":["Любительский (многоголосый закадровый) (ColdFilm)","Любительский (многоголосый закадровый) (Ultradox)","Полное дублирование (Невафильм | Нева-1)","Профессиональный (многоголосый закадровый) (HDrezka Studio)","Профессиональный (двухголосый закадровый) (IdeaFilm)","Профессиональный (многоголосый закадровый) (OMSKBIRD records)","Профессиональный (двухголосый закадровый) (ViruseProject)","Профессиональный (многоголосый закадровый) (Jaskier)","Профессиональный (многоголосый закадровый) (NewStudio)","Профессиональный (многоголосый закадровый) (LostFilm)","Original (English)"],"seasons_count":1,"episodes_count":7,"episodes":7,"update":"2021-01-22 07:20:56","iframe_src":"//8209.svetacdn.in/IAF0wWTdNYZm/tv-series/9082"},{"id":40301,"title":"Надежда","kp_id":"1244440","imdb_id":"tt9812614","world_art_id":null,"type":"movie","add":"2020-05-11 13:17:31","orig_title":"Håp","year":"2019-09-07","translations":["Любительский (многоголосый закадровый) (Синема УС)","Профессиональный (многоголосый закадровый) (iTunes)"],"quality":"bd","translation":"Любительский (многоголосый закадровый) (Синема УС)","update":"2021-07-03 17:06:51","iframe_src":"//8209.svetacdn.in/IAF0wWTdNYZm/movie/40301"},{"id":40086,"title":"Бунтарь 3","kp_id":"1148275","imdb_id":"tt8366590","world_art_id":null,"type":"movie","add":"2020-05-04 08:28:52","orig_title":"Baaghi 3","year":"2020-03-06","translations":["Любительский (многоголосый закадровый) (Синема УС)","Любительский (многоголосый закадровый) (OnisFilms)"],"quality":"webdl","translation":"Любительский (многоголосый закадровый) (Синема УС)","update":"2021-07-03 21:08:02","iframe_src":"//8209.svetacdn.in/IAF0wWTdNYZm/movie/40086"},{"id":39049,"title":"Солум","kp_id":"1147740","imdb_id":"tt8069980","world_art_id":null,"type":"movie","add":"2020-04-09 05:35:19","orig_title":"Solum","year":"2019-05-01","translations":["Любительский (многоголосый закадровый) (Синема УС)","Профессиональный (многоголосый закадровый) (iTunes)","Original (English)"],"quality":"webdl","translation":"Любительский (многоголосый закадровый) (Синема УС)","update":"2021-07-03 17:04:20","iframe_src":"//8209.svetacdn.in/IAF0wWTdNYZm/movie/39049"},{"id":6990,"title":"257 причин, чтобы жить","kp_id":"1177509","imdb_id":"tt11477416","world_art_id":null,"type":"serial","add":"2020-03-26 07:32:17","orig_title":"257 prichin, chtoby zhit","year":"2020-03-26","translations":["Оригинальная дорожка"],"seasons_count":2,"episodes_count":26,"episodes":13,"update":"2021-01-21 06:09:54","iframe_src":"//8209.svetacdn.in/IAF0wWTdNYZm/tv-series/6990"},{"id":4696,"title":"Эйфория","kp_id":"1178445","imdb_id":"tt8772296","world_art_id":null,"type":"serial","add":"2019-06-18 10:22:52","orig_title":"Euphoria","year":"2019-06-16","translations":["Любительский (многоголосый закадровый) (Octopus)","Профессиональный (многоголосый закадровый)","Профессиональный (двухголосый закадровый) (TUMBLER Studio)","Профессиональный (многоголосый закадровый) (HDrezka Studio)","Original (English)","Профессиональный (многоголосый закадровый) (Novamedia)","Профессиональный (многоголосый закадровый) (TVShows)","Профессиональный (многоголосый закадровый) (Sound Film)","Любительский (двухголосый закадровый) (KerobTV)","Любительский (многоголосый закадровый) (ColdFilm)","Любительский (многоголосый закадровый) (Ultradox)","Профессиональный (многоголосый закадровый) (HDrezka Studio 18+)","Любительский (двухголосый закадровый) (LakeFilms)","Профессиональный (многоголосый закадровый) (Jaskier)"],"seasons_count":2,"episodes_count":10,"episodes":2,"update":"2021-01-24 17:10:28","iframe_src":"//8209.svetacdn.in/IAF0wWTdNYZm/tv-series/4696"},{"id":3878,"title":"Соло для Вайсс","kp_id":"1117214","imdb_id":"tt7856254","world_art_id":null,"type":"serial","add":"2019-01-15 10:55:10","orig_title":"Solo für Weiss","year":"2016-10-01","translations":["Профессиональный (двухголосый закадровый) (ViruseProject)"],"seasons_count":1,"episodes_count":4,"episodes":4,"update":"2021-01-24 17:22:53","iframe_src":"//8209.svetacdn.in/IAF0wWTdNYZm/tv-series/3878"},{"id":2942,"title":"Шарите","kp_id":"1046260","imdb_id":"tt5337806","world_art_id":null,"type":"serial","add":"2018-07-18 06:45:32","orig_title":"Charité","year":"2017-03-13","translations":["Профессиональный (многоголосый закадровый) (GreenРай Studio)","Любительский (многоголосый закадровый) (Ultradox)"],"seasons_count":3,"episodes_count":19,"episodes":7,"update":"2021-01-20 20:13:33","iframe_src":"//8209.svetacdn.in/IAF0wWTdNYZm/tv-series/2942"},{"id":2641,"title":"Пуленепробиваемые","kp_id":"1132323","imdb_id":"tt8038720","world_art_id":null,"type":"serial","add":"2018-05-23 15:19:22","orig_title":"Bulletproof","year":"2018-05-15","translations":["Любительский (двухголосый закадровый) (Sunshine Studio)","Любительский (многоголосый закадровый) (ColdFilm)","Любительский (многоголосый закадровый) (Octopus)","Профессиональный (многоголосый закадровый) (TVShows)","Любительский (многоголосый закадровый) (Ultradox)","Профессиональный (многоголосый закадровый) (BaibaKo)"],"seasons_count":3,"episodes_count":17,"episodes":3,"update":"2021-01-21 17:35:17","iframe_src":"//8209.svetacdn.in/IAF0wWTdNYZm/tv-series/2641"},{"id":2304,"title":"Невеста речного Бога","kp_id":"1008571","imdb_id":"tt6385752","world_art_id":null,"type":"serial","add":"2018-03-31 11:09:48","orig_title":"Habaekui Shinboo","year":"2017-07-03","translations":["Любительский (двухголосый закадровый) (GREEN TEA)","Любительский (двухголосый закадровый) (SoftBox)","Профессиональный (многоголосый закадровый) (Мобильное телевидение)"],"seasons_count":1,"episodes_count":16,"episodes":16,"update":"2021-01-22 10:13:57","iframe_src":"//8209.svetacdn.in/IAF0wWTdNYZm/tv-series/2304"},{"id":1545,"title":"Стальная звезда","kp_id":"981330","imdb_id":"tt4607112","world_art_id":null,"type":"serial","add":"2017-09-14 16:22:12","orig_title":"Tin Star","year":"2017-09-07","translations":["Профессиональный (многоголосый закадровый) (BaibaKo)","Профессиональный (многоголосый закадровый) (LostFilm)","Профессиональный (многоголосый закадровый) (Amedia)","Профессиональный (многоголосый закадровый) (Good People)","Профессиональный (многоголосый закадровый) (ShowJet)","Любительский (двухголосый закадровый) (KosharaSerials)","Профессиональный (двухголосый закадровый) (Кубик в Кубе)","Профессиональный (многоголосый закадровый) (SDI Media)","Любительский (многоголосый закадровый) (Ultradox)","Любительский (многоголосый закадровый) (ColdFilm)","Профессиональный (многоголосый закадровый) (IdeaFilm)","Профессиональный (двухголосый закадровый) (Gears Media)"],"seasons_count":3,"episodes_count":26,"episodes":6,"update":"2021-01-22 13:17:13","iframe_src":"//8209.svetacdn.in/IAF0wWTdNYZm/tv-series/1545"},{"id":6703,"title":"Дарующий бессмертие","kp_id":"337392","imdb_id":"tt0102101","world_art_id":null,"type":"movie","add":"2016-10-26 16:32:47","orig_title":"The Immortalizer","year":"1990-08-29","translations":["Авторский (одноголосый закадровый) (Сербин Юрий)"],"quality":"bd","translation":"Авторский (одноголосый закадровый) (Сербин Юрий)","update":"2021-07-04 04:55:21","iframe_src":"//8209.svetacdn.in/IAF0wWTdNYZm/movie/6703"},{"id":3189,"title":"Святые из Бундока","kp_id":"4917","imdb_id":"tt0144117","world_art_id":null,"type":"movie","add":"2016-06-16 07:32:08","orig_title":"The Boondock Saints","year":"1999-08-04","translations":["Профессиональный (многоголосый закадровый)","Профессиональный (многоголосый закадровый) (Союз Видео)","Профессиональный (двухголосый закадровый) (Tycoon)","Авторский (одноголосый закадровый) (Гоблин | Пучков Дмитрий)","Original (English)","Профессиональный (многоголосый закадровый) (Jaskier)"],"quality":"bd","translation":"Профессиональный (многоголосый закадровый)","update":"2021-07-03 15:48:44","iframe_src":"//8209.svetacdn.in/IAF0wWTdNYZm/movie/3189"}],"current_page":121,"first_page_url":"https://videocdn.tv/api/short?limit=100&api_token=6Onb1W1alEUrBcKJZD3GoKBbWyAl2uG2&cache3121=3121&page=1","from":12001,"last_page":656,"last_page_url":"https://videocdn.tv/api/short?limit=100&api_token=6Onb1W1alEUrBcKJZD3GoKBbWyAl2uG2&cache3121=3121&page=656","next_page_url":"https://videocdn.tv/api/short?limit=100&api_token=6Onb1W1alEUrBcKJZD3GoKBbWyAl2uG2&cache3121=3121&page=122","path":"https://videocdn.tv/api/short","per_page":100,"prev_page_url":"https://videocdn.tv/api/short?limit=100&api_token=6Onb1W1alEUrBcKJZD3GoKBbWyAl2uG2&cache3121=3121&page=120","to":12040,"total":65530}