{"result":true,"data":[{"id":19349,"title":"В ад и обратно. История Кейна Ходдера","kp_id":null,"imdb_id":"tt5654710","world_art_id":null,"type":"movie","add":"2018-10-04 00:36:00","orig_title":"To Hell and Back: The Kane Hodder Story","year":"2017-08-26","translations":["Любительский (многоголосый закадровый) (Синема УС)"],"quality":"bd","translation":"Любительский (многоголосый закадровый) (Синема УС)","update":"2018-10-04 06:21:54","iframe_src":"//24213.svetacdn.in/71tsRs29n5tZ/movie/19349"},{"id":19348,"title":"Великий Будда +","kp_id":"1047952","imdb_id":"tt7010412","world_art_id":null,"type":"movie","add":"2018-10-04 00:33:26","orig_title":"The Great Buddha +","year":"2017-06-29","translations":["Любительский (многоголосый закадровый) (Синема УС)"],"quality":"bd","translation":"Любительский (многоголосый закадровый) (Синема УС)","update":"2018-10-04 06:23:05","iframe_src":"//24213.svetacdn.in/71tsRs29n5tZ/movie/19348"},{"id":19347,"title":"Теннессийский виски: история Дина Диллона","kp_id":null,"imdb_id":"tt6582782","world_art_id":null,"type":"movie","add":"2018-10-04 00:32:00","orig_title":"Tennessee Whiskey: The Dean Dillon Story","year":"2017-08-30","translations":["Любительский (многоголосый закадровый) (Синема УС)"],"quality":"webdl","translation":"Любительский (многоголосый закадровый) (Синема УС)","update":"2018-10-04 06:25:42","iframe_src":"//24213.svetacdn.in/71tsRs29n5tZ/movie/19347"},{"id":19344,"title":"Её украденное прошлое","kp_id":"1112364","imdb_id":"tt7908312","world_art_id":null,"type":"movie","add":"2018-10-04 00:27:23","orig_title":"Her Stolen Past","year":"2018-02-02","translations":["Любительский (многоголосый закадровый) (Синема УС)"],"quality":"webdl","translation":"Любительский (многоголосый закадровый) (Синема УС)","update":"2018-10-04 07:38:57","iframe_src":"//24213.svetacdn.in/71tsRs29n5tZ/movie/19344"},{"id":19342,"title":"Куриные девочки","kp_id":"1163415","imdb_id":"tt8531740","world_art_id":null,"type":"movie","add":"2018-10-04 00:24:00","orig_title":"Chicken Girls: The Movie","year":"2018-06-29","translations":["Любительский (многоголосый закадровый) (Синема УС)"],"quality":"webdl","translation":"Любительский (многоголосый закадровый) (Синема УС)","update":"2018-10-04 07:41:42","iframe_src":"//24213.svetacdn.in/71tsRs29n5tZ/movie/19342"},{"id":19341,"title":"Назад к хорошим временам","kp_id":"1127175","imdb_id":"tt7827658","world_art_id":null,"type":"movie","add":"2018-10-04 00:22:18","orig_title":"Hua jia da ren zhu an nan hai","year":"2018-02-09","translations":["Любительский (многоголосый закадровый) (Колобок)"],"quality":"bd","translation":"Любительский (многоголосый закадровый) (Колобок)","update":"2018-10-04 07:43:00","iframe_src":"//24213.svetacdn.in/71tsRs29n5tZ/movie/19341"},{"id":19340,"title":"Над землёй","kp_id":"825642","imdb_id":"tt3313314","world_art_id":null,"type":"movie","add":"2018-10-04 00:20:58","orig_title":"Above Ground","year":"2017-08-26","translations":["Любительский (многоголосый закадровый) (Синема УС)"],"quality":"webdl","translation":"Любительский (многоголосый закадровый) (Синема УС)","update":"2018-10-04 07:44:24","iframe_src":"//24213.svetacdn.in/71tsRs29n5tZ/movie/19340"},{"id":19270,"title":"Кома","kp_id":"161173","imdb_id":"tt0479125","world_art_id":null,"type":"movie","add":"2018-09-29 10:42:04","orig_title":"The Plague","year":"2006-09-05","translations":["Профессиональный (многоголосый закадровый)"],"quality":"webdl","translation":"Профессиональный (многоголосый закадровый)","update":"2018-10-05 07:50:37","iframe_src":"//24213.svetacdn.in/71tsRs29n5tZ/movie/19270"},{"id":19268,"title":"Третье измерение ада","kp_id":"265125","imdb_id":"tt0837791","world_art_id":null,"type":"movie","add":"2018-09-29 10:38:29","orig_title":"The Devil's Chair","year":"2007-09-12","translations":["Профессиональный (многоголосый закадровый)"],"quality":"webdl","translation":"Профессиональный (многоголосый закадровый)","update":"2018-10-05 07:48:03","iframe_src":"//24213.svetacdn.in/71tsRs29n5tZ/movie/19268"},{"id":19267,"title":"Как в старое доброе время","kp_id":"4093","imdb_id":"tt0081480","world_art_id":null,"type":"movie","add":"2018-09-29 10:37:35","orig_title":"Seems Like Old Times","year":"1980-12-19","translations":["Профессиональный (многоголосый закадровый) (Первый канал | ОРТ)"],"quality":"webdl","translation":"Профессиональный (многоголосый закадровый) (Первый канал | ОРТ)","update":"2018-10-05 07:43:57","iframe_src":"//24213.svetacdn.in/71tsRs29n5tZ/movie/19267"},{"id":19266,"title":"Ритуал","kp_id":"7084","imdb_id":"tt0250698","world_art_id":null,"type":"movie","add":"2018-09-29 10:36:45","orig_title":"Ritual","year":"2002-09-18","translations":["Профессиональный (многоголосый закадровый)"],"quality":"webdl","translation":"Профессиональный (многоголосый закадровый)","update":"2018-10-05 07:41:55","iframe_src":"//24213.svetacdn.in/71tsRs29n5tZ/movie/19266"},{"id":19265,"title":"Джинна вызывали?","kp_id":"8181","imdb_id":"tt0116756","world_art_id":null,"type":"movie","add":"2018-09-29 10:35:20","orig_title":"Kazaam","year":"1996-07-17","translations":["Профессиональный (многоголосый закадровый) (СТС)"],"quality":"webdl","translation":"Профессиональный (многоголосый закадровый) (СТС)","update":"2018-10-05 07:40:23","iframe_src":"//24213.svetacdn.in/71tsRs29n5tZ/movie/19265"},{"id":19264,"title":"Ангел света","kp_id":"266955","imdb_id":"tt0857376","world_art_id":null,"type":"movie","add":"2018-09-29 10:34:35","orig_title":"Gabriel","year":"2007-11-15","translations":["Профессиональный (многоголосый закадровый)"],"quality":"webdl","translation":"Профессиональный (многоголосый закадровый)","update":"2018-10-05 07:34:33","iframe_src":"//24213.svetacdn.in/71tsRs29n5tZ/movie/19264"},{"id":19263,"title":"Закусочная смерти","kp_id":"164198","imdb_id":"tt0466766","world_art_id":null,"type":"movie","add":"2018-09-29 10:33:46","orig_title":"Drive Thru","year":"2007-03-01","translations":["Профессиональный (многоголосый закадровый)"],"quality":"webdl","translation":"Профессиональный (многоголосый закадровый)","update":"2018-10-05 07:33:19","iframe_src":"//24213.svetacdn.in/71tsRs29n5tZ/movie/19263"},{"id":19262,"title":"Поцелуй мамочку на ночь","kp_id":"675899","imdb_id":"tt2328549","world_art_id":null,"type":"movie","add":"2018-09-29 10:32:54","orig_title":"Dark Touch","year":"2013-04-18","translations":["Профессиональный (многоголосый закадровый)"],"quality":"webdl","translation":"Профессиональный (многоголосый закадровый)","update":"2018-10-05 07:32:18","iframe_src":"//24213.svetacdn.in/71tsRs29n5tZ/movie/19262"},{"id":19255,"title":"Баския","kp_id":"6724","imdb_id":"tt0115632","world_art_id":null,"type":"movie","add":"2018-09-28 11:34:16","orig_title":"Basquiat","year":"1996-08-09","translations":["Профессиональный (многоголосый закадровый)"],"quality":"bd","translation":"Профессиональный (многоголосый закадровый)","update":"2018-10-04 07:53:33","iframe_src":"//24213.svetacdn.in/71tsRs29n5tZ/movie/19255"},{"id":19254,"title":"Дом войны","kp_id":"648457","imdb_id":"tt2112331","world_art_id":null,"type":"movie","add":"2018-09-28 11:33:04","orig_title":"Warhouse","year":"2013-10-29","translations":["Профессиональный (двухголосый закадровый) (НТВ)"],"quality":"webdl","translation":"Профессиональный (двухголосый закадровый) (НТВ)","update":"2018-10-04 07:52:40","iframe_src":"//24213.svetacdn.in/71tsRs29n5tZ/movie/19254"},{"id":19253,"title":"Саймон говорит","kp_id":"171895","imdb_id":"tt0458480","world_art_id":null,"type":"movie","add":"2018-09-28 11:31:45","orig_title":"Simon Says","year":"2006-09-24","translations":["Профессиональный (двухголосый закадровый)"],"quality":"webdl","translation":"Профессиональный (двухголосый закадровый)","update":"2018-10-04 07:51:14","iframe_src":"//24213.svetacdn.in/71tsRs29n5tZ/movie/19253"},{"id":19252,"title":"Ночные небеса","kp_id":"189707","imdb_id":"tt0460883","world_art_id":null,"type":"movie","add":"2018-09-28 11:30:55","orig_title":"Night Skies","year":"2007-01-23","translations":["Профессиональный (двухголосый закадровый)"],"quality":"webdl","translation":"Профессиональный (двухголосый закадровый)","update":"2018-10-03 14:27:18","iframe_src":"//24213.svetacdn.in/71tsRs29n5tZ/movie/19252"},{"id":19251,"title":"Подделка","kp_id":"18192","imdb_id":"tt0113037","world_art_id":null,"type":"movie","add":"2018-09-28 11:30:05","orig_title":"Kounterfeit","year":"1996-11-15","translations":["Профессиональный (двухголосый закадровый)"],"quality":"webdl","translation":"Профессиональный (двухголосый закадровый)","update":"2018-10-03 14:26:11","iframe_src":"//24213.svetacdn.in/71tsRs29n5tZ/movie/19251"}],"current_page":2251,"first_page_url":"https://videocdn.tv/api/short?limit=100&api_token=EnbO9h8pv1VyjbCJhg0WM9nG259n7mtz&cache32251=32251&page=1","from":225001,"last_page":728,"last_page_url":"https://videocdn.tv/api/short?limit=100&api_token=EnbO9h8pv1VyjbCJhg0WM9nG259n7mtz&cache32251=32251&page=728","next_page_url":null,"path":"https://videocdn.tv/api/short","per_page":100,"prev_page_url":"https://videocdn.tv/api/short?limit=100&api_token=EnbO9h8pv1VyjbCJhg0WM9nG259n7mtz&cache32251=32251&page=2250","to":225020,"total":72780}