{"result":true,"data":[{"id":43088,"title":"Согласие на побег","kp_id":"1005370","imdb_id":"tt5538670","world_art_id":null,"type":"movie","add":"2020-09-04 20:12:02","orig_title":"Pacto de Fuga","year":"2020-01-23","translations":["Любительский (многоголосый закадровый) (@MUZOBOZ@)"],"quality":"webdl","translation":"Любительский (многоголосый закадровый) (@MUZOBOZ@)","update":"2020-09-05 07:01:50","iframe_src":"//83.svetacdn.in/PfJ50H0ZBPg3/movie/43088"},{"id":43087,"title":"Почти человек","kp_id":null,"imdb_id":"tt12734252","world_art_id":null,"type":"movie","add":"2020-09-04 20:08:18","orig_title":"Almost Human","year":"2020-06-24","translations":["Любительский (многоголосый закадровый) (@MUZOBOZ@)"],"quality":"webdl","translation":"Любительский (многоголосый закадровый) (@MUZOBOZ@)","update":"2020-09-05 07:00:35","iframe_src":"//83.svetacdn.in/PfJ50H0ZBPg3/movie/43087"},{"id":43086,"title":"Анти-коронавирус","kp_id":"1359289","imdb_id":"tt12003124","world_art_id":null,"type":"movie","add":"2020-09-04 20:01:32","orig_title":"Anti Corona Virus","year":"2020-01-01","translations":["Любительский (многоголосый закадровый) (Синема УС)"],"quality":"webdl","translation":"Любительский (многоголосый закадровый) (Синема УС)","update":"2020-09-05 06:59:09","iframe_src":"//83.svetacdn.in/PfJ50H0ZBPg3/movie/43086"},{"id":43082,"title":"Наследие","kp_id":"914434","imdb_id":"tt4714924","world_art_id":null,"type":"movie","add":"2020-09-04 19:31:49","orig_title":"Urma","year":"2019-09-30","translations":["Любительский (многоголосый закадровый) (AlphaProject)"],"quality":"webdl","translation":"Любительский (многоголосый закадровый) (AlphaProject)","update":"2020-09-05 06:52:30","iframe_src":"//83.svetacdn.in/PfJ50H0ZBPg3/movie/43082"},{"id":43076,"title":"Сестринство","kp_id":null,"imdb_id":"tt9838414","world_art_id":null,"type":"movie","add":"2020-09-04 06:48:21","orig_title":"Shisutâfuddo","year":"2019-03-09","translations":["Любительский (многоголосый закадровый) (Синема УС)"],"quality":"webdl","translation":"Любительский (многоголосый закадровый) (Синема УС)","update":"2020-09-05 15:15:22","iframe_src":"//83.svetacdn.in/PfJ50H0ZBPg3/movie/43076"},{"id":43073,"title":"Призрак Блэквелла 4","kp_id":"1340700","imdb_id":"tt11553304","world_art_id":null,"type":"movie","add":"2020-09-04 06:42:07","orig_title":"The Blackwell Ghost 4","year":"2020-01-01","translations":["Любительский (многоголосый закадровый) (Синема УС)"],"quality":"bd","translation":"Любительский (многоголосый закадровый) (Синема УС)","update":"2020-09-04 13:56:09","iframe_src":"//83.svetacdn.in/PfJ50H0ZBPg3/movie/43073"},{"id":43055,"title":"Первая любовь","kp_id":"944134","imdb_id":"tt5155360","world_art_id":null,"type":"movie","add":"2020-09-03 19:17:03","orig_title":"First Love","year":"2019-12-13","translations":["Любительский (многоголосый закадровый) (AlphaProject)"],"quality":"webdl","translation":"Любительский (многоголосый закадровый) (AlphaProject)","update":"2020-09-05 15:17:17","iframe_src":"//83.svetacdn.in/PfJ50H0ZBPg3/movie/43055"},{"id":43048,"title":"Жираф","kp_id":"1190587","imdb_id":"tt8955616","world_art_id":null,"type":"movie","add":"2020-09-03 18:38:57","orig_title":"Giraffe","year":"2020-08-06","translations":["Любительский (многоголосый закадровый) (Синема УС)"],"quality":"webdl","translation":"Любительский (многоголосый закадровый) (Синема УС)","update":"2020-09-04 03:37:14","iframe_src":"//83.svetacdn.in/PfJ50H0ZBPg3/movie/43048"},{"id":43047,"title":"Свайпни вправо, сходи налево","kp_id":"1338571","imdb_id":null,"world_art_id":null,"type":"movie","add":"2020-09-03 18:36:33","orig_title":"Swipe Right, Run Left","year":"2019-12-08","translations":["Любительский (многоголосый закадровый) (Синема УС)"],"quality":"webdl","translation":"Любительский (многоголосый закадровый) (Синема УС)","update":"2020-09-04 03:36:26","iframe_src":"//83.svetacdn.in/PfJ50H0ZBPg3/movie/43047"},{"id":43045,"title":"Свадьба Розы","kp_id":"1255054","imdb_id":"tt10077544","world_art_id":null,"type":"movie","add":"2020-09-03 18:33:47","orig_title":"La boda de Rosa","year":"2020-08-21","translations":["Любительский (многоголосый закадровый) (Синема УС)"],"quality":"ts","translation":"Любительский (многоголосый закадровый) (Синема УС)","update":"2020-09-04 03:35:47","iframe_src":"//83.svetacdn.in/PfJ50H0ZBPg3/movie/43045"},{"id":43044,"title":"Сюджи - Водитель","kp_id":"997550","imdb_id":"tt5737840","world_art_id":null,"type":"movie","add":"2020-09-03 18:29:35","orig_title":"Siji: Driver","year":"2018-07-16","translations":["Любительский (многоголосый закадровый) (Синема УС)"],"quality":"webdl","translation":"Любительский (многоголосый закадровый) (Синема УС)","update":"2020-09-04 03:35:01","iframe_src":"//83.svetacdn.in/PfJ50H0ZBPg3/movie/43044"},{"id":43038,"title":"Дом на компанию","kp_id":null,"imdb_id":"tt11889268","world_art_id":null,"type":"movie","add":"2020-09-03 07:47:53","orig_title":"The Rental","year":"2019-10-25","translations":["Любительский (многоголосый закадровый) (Синема УС)"],"quality":"webdl","translation":"Любительский (многоголосый закадровый) (Синема УС)","update":"2020-09-05 15:20:28","iframe_src":"//83.svetacdn.in/PfJ50H0ZBPg3/movie/43038"},{"id":43030,"title":"Жил-был принц","kp_id":"1125029","imdb_id":"tt8250512","world_art_id":null,"type":"movie","add":"2020-09-02 11:06:47","orig_title":"Once Upon a Prince","year":"2018-04-07","translations":["Профессиональный (многоголосый закадровый) (СТС)"],"quality":"webdl","translation":"Профессиональный (многоголосый закадровый) (СТС)","update":"2020-09-04 08:43:13","iframe_src":"//83.svetacdn.in/PfJ50H0ZBPg3/movie/43030"},{"id":42992,"title":"Неуязвимый Царь","kp_id":null,"imdb_id":"tt12724988","world_art_id":null,"type":"movie","add":"2020-09-01 09:36:03","orig_title":"The King is Invincible","year":"2019-07-28","translations":["Любительский (двухголосый закадровый) (Колобок)"],"quality":"webdl","translation":"Любительский (двухголосый закадровый) (Колобок)","update":"2020-09-04 07:36:51","iframe_src":"//83.svetacdn.in/PfJ50H0ZBPg3/movie/42992"},{"id":42983,"title":"Сантана","kp_id":"1346885","imdb_id":"tt11769162","world_art_id":null,"type":"movie","add":"2020-08-31 16:59:01","orig_title":"Santana","year":"2020-05-15","translations":["Original (English)","Любительский (двухголосый закадровый) (OnisFilms)"],"quality":"webdl","translation":"Original (English)","update":"2020-09-05 15:20:54","iframe_src":"//83.svetacdn.in/PfJ50H0ZBPg3/movie/42983"},{"id":19334,"title":"Игорный дом","kp_id":"3007","imdb_id":"tt0093223","world_art_id":null,"type":"movie","add":"2018-10-03 08:33:42","orig_title":"House of Games","year":"1987-09-04","translations":["Полное дублирование","Авторский (одноголосый закадровый) (Дубровин Владимир)","Полное дублирование (Варус-Видео)","Original (English)","Профессиональный (двухголосый закадровый) (НТВ)"],"quality":"webdl","translation":"Полное дублирование","update":"2020-09-04 13:41:51","iframe_src":"//83.svetacdn.in/PfJ50H0ZBPg3/movie/19334"},{"id":19019,"title":"Мэнди","kp_id":"1078985","imdb_id":"tt6998518","world_art_id":null,"type":"movie","add":"2018-09-16 21:10:46","orig_title":"Mandy","year":"2018-01-19","translations":["Любительский (одноголосый закадровый) (BadBajo)","Любительский (многоголосый закадровый) (@MUZOBOZ@)","Любительский (двухголосый закадровый) (LakeFilms)","Профессиональный (многоголосый закадровый) (HDrezka Studio)","Полное дублирование","Original (English)","Профессиональный (многоголосый закадровый) (HDrezka Studio)"],"quality":"webdl","translation":"Любительский (одноголосый закадровый) (BadBajo)","update":"2020-09-03 12:56:32","iframe_src":"//83.svetacdn.in/PfJ50H0ZBPg3/movie/19019"},{"id":2497,"title":"Первый парень на деревне","kp_id":"1118112","imdb_id":null,"world_art_id":null,"type":"serial","add":"2018-05-03 04:09:20","orig_title":"Первый парень на деревне","year":"2018-05-02","translations":["Оригинальная дорожка"],"seasons_count":1,"episodes_count":4,"episodes":4,"update":"2018-05-03 10:50:28","iframe_src":"//83.svetacdn.in/PfJ50H0ZBPg3/tv-series/2497"},{"id":2496,"title":"Фантазия белых ночей","kp_id":"906893","imdb_id":null,"world_art_id":null,"type":"serial","add":"2018-05-03 04:04:45","orig_title":"Фантазия белых ночей","year":"2018-05-01","translations":["Оригинальная дорожка"],"seasons_count":1,"episodes_count":4,"episodes":4,"update":"2018-05-03 10:56:10","iframe_src":"//83.svetacdn.in/PfJ50H0ZBPg3/tv-series/2496"},{"id":2495,"title":"Дальнобойщик","kp_id":"1101314","imdb_id":null,"world_art_id":null,"type":"serial","add":"2018-05-02 07:33:05","orig_title":"Дальнобойщик","year":"2018-04-30","translations":["Оригинальная дорожка"],"seasons_count":1,"episodes_count":2,"episodes":2,"update":"2018-05-02 10:02:43","iframe_src":"//83.svetacdn.in/PfJ50H0ZBPg3/tv-series/2495"},{"id":2490,"title":"Росомаха и Люди Икс. Начало","kp_id":"439734","imdb_id":"tt0772145","world_art_id":null,"type":"serial","add":"2018-04-30 15:11:51","orig_title":"Wolverine and the X-Men","year":"2008-09-08","translations":["Полное дублирование"],"seasons_count":1,"episodes_count":26,"episodes":26,"update":"2018-05-02 07:10:54","iframe_src":"//83.svetacdn.in/PfJ50H0ZBPg3/tv-series/2490"},{"id":2488,"title":"Трое в лабиринте","kp_id":"1048527","imdb_id":null,"world_art_id":null,"type":"serial","add":"2018-04-30 14:54:41","orig_title":"Трое в лабиринте","year":"2017-01-01","translations":["Оригинальная дорожка"],"seasons_count":1,"episodes_count":2,"episodes":2,"update":"2018-05-03 06:24:07","iframe_src":"//83.svetacdn.in/PfJ50H0ZBPg3/tv-series/2488"},{"id":2487,"title":"Джентльмены и гангстеры","kp_id":"1115290","imdb_id":"tt4600502","world_art_id":null,"type":"serial","add":"2018-04-30 14:10:31","orig_title":"Gentlemen & Gangsters","year":"2016-01-01","translations":["Профессиональный (многоголосый закадровый) (GreenРай Studio)"],"seasons_count":1,"episodes_count":4,"episodes":4,"update":"2018-05-02 12:00:33","iframe_src":"//83.svetacdn.in/PfJ50H0ZBPg3/tv-series/2487"},{"id":2483,"title":"Тима и Тома","kp_id":"988081","imdb_id":null,"world_art_id":null,"type":"serial","add":"2018-04-30 11:17:17","orig_title":"Тима и Тома","year":"2015-09-17","translations":["Оригинальная дорожка"],"seasons_count":1,"episodes_count":52,"episodes":52,"update":"2018-05-01 11:40:56","iframe_src":"//83.svetacdn.in/PfJ50H0ZBPg3/tv-series/2483"},{"id":2468,"title":"Команда восемь","kp_id":"678337","imdb_id":null,"world_art_id":null,"type":"serial","add":"2018-04-26 12:24:26","orig_title":"Команда восемь","year":"2012-04-26","translations":["Оригинальная дорожка"],"seasons_count":1,"episodes_count":4,"episodes":4,"update":"2018-05-03 06:40:11","iframe_src":"//83.svetacdn.in/PfJ50H0ZBPg3/tv-series/2468"},{"id":2466,"title":"Один на всех","kp_id":"701713","imdb_id":"tt3547898","world_art_id":null,"type":"serial","add":"2018-04-26 11:59:00","orig_title":"Odin na vsekh","year":"2013-03-23","translations":["Оригинальная дорожка"],"seasons_count":1,"episodes_count":2,"episodes":2,"update":"2018-04-28 10:49:37","iframe_src":"//83.svetacdn.in/PfJ50H0ZBPg3/tv-series/2466"},{"id":2465,"title":"Обучаю игре на гитаре","kp_id":"708085","imdb_id":"tt3389258","world_art_id":null,"type":"serial","add":"2018-04-26 11:56:46","orig_title":"Obuchayu igre na gitare","year":"2012-09-29","translations":["Оригинальная дорожка"],"seasons_count":1,"episodes_count":4,"episodes":4,"update":"2018-05-03 06:35:49","iframe_src":"//83.svetacdn.in/PfJ50H0ZBPg3/tv-series/2465"},{"id":2464,"title":"Лист ожидания","kp_id":"608764","imdb_id":"tt3084276","world_art_id":null,"type":"serial","add":"2018-04-26 11:53:46","orig_title":"List ozhidaniya","year":"2012-06-24","translations":["Оригинальная дорожка"],"seasons_count":1,"episodes_count":12,"episodes":12,"update":"2018-05-02 10:38:58","iframe_src":"//83.svetacdn.in/PfJ50H0ZBPg3/tv-series/2464"},{"id":2463,"title":"Лекарство для бабушки","kp_id":"592251","imdb_id":"tt5280492","world_art_id":null,"type":"serial","add":"2018-04-26 11:51:34","orig_title":"Lekarstvo dlya babushki","year":"2011-06-18","translations":["Оригинальная дорожка"],"seasons_count":1,"episodes_count":4,"episodes":4,"update":"2018-05-02 09:58:38","iframe_src":"//83.svetacdn.in/PfJ50H0ZBPg3/tv-series/2463"},{"id":2461,"title":"Дорогой мой человек","kp_id":"507165","imdb_id":"tt3294824","world_art_id":null,"type":"serial","add":"2018-04-26 11:44:52","orig_title":"Dorogoy moy chelovek","year":"2011-04-04","translations":["Оригинальная дорожка"],"seasons_count":1,"episodes_count":16,"episodes":16,"update":"2018-04-28 10:46:07","iframe_src":"//83.svetacdn.in/PfJ50H0ZBPg3/tv-series/2461"},{"id":2418,"title":"Ищейка 2","kp_id":"1047564","imdb_id":null,"world_art_id":null,"type":"serial","add":"2018-04-17 07:50:08","orig_title":"Ищейка 2","year":"2018-04-16","translations":["Оригинальная дорожка"],"seasons_count":1,"episodes_count":16,"episodes":16,"update":"2018-04-28 20:00:13","iframe_src":"//83.svetacdn.in/PfJ50H0ZBPg3/tv-series/2418"},{"id":2362,"title":"Частица вселенной","kp_id":"982734","imdb_id":null,"world_art_id":null,"type":"serial","add":"2018-04-10 08:52:40","orig_title":"Частица вселенной","year":"2018-04-09","translations":["Оригинальная дорожка"],"seasons_count":1,"episodes_count":7,"episodes":7,"update":"2018-05-01 19:09:12","iframe_src":"//83.svetacdn.in/PfJ50H0ZBPg3/tv-series/2362"},{"id":2361,"title":"Чистый лист","kp_id":"1045334","imdb_id":"tt5197860","world_art_id":null,"type":"serial","add":"2018-04-10 07:46:56","orig_title":"Tabula Rasa","year":"2017-10-29","translations":["Профессиональный (двухголосый закадровый) (ViruseProject)"],"seasons_count":1,"episodes_count":9,"episodes":9,"update":"2018-05-01 20:00:45","iframe_src":"//83.svetacdn.in/PfJ50H0ZBPg3/tv-series/2361"},{"id":1438,"title":"Скандал","kp_id":"582345","imdb_id":"tt1837576","world_art_id":null,"type":"serial","add":"2017-08-01 06:49:03","orig_title":"Scandal","year":"2012-04-05","translations":["Профессиональный (многоголосый закадровый) (Fox Life)","Любительский (двухголосый закадровый) (Sunshine Studio)"],"seasons_count":7,"episodes_count":124,"episodes":18,"update":"2018-05-01 19:44:17","iframe_src":"//83.svetacdn.in/PfJ50H0ZBPg3/tv-series/1438"},{"id":10700,"title":"Хроники Риддика","kp_id":"5900","imdb_id":"tt0296572","world_art_id":null,"type":"movie","add":"2017-04-03 12:36:18","orig_title":"The Chronicles of Riddick","year":"2004-06-03","translations":["Полное дублирование","Авторский (одноголосый закадровый) (Гаврилов Андрей)","Авторский (одноголосый закадровый) (Гоблин | Пучков Дмитрий)","Авторский (одноголосый закадровый) (Живов Юрий)","Original (English)","Профессиональный (многоголосый закадровый)","Профессиональный (многоголосый закадровый) (CP Digital)","Профессиональный (двухголосый закадровый) (Tycoon)"],"quality":"bd","translation":"Полное дублирование","update":"2020-09-04 13:20:01","iframe_src":"//83.svetacdn.in/PfJ50H0ZBPg3/movie/10700"},{"id":771,"title":"Мик","kp_id":"977496","imdb_id":"tt5638056","world_art_id":null,"type":"serial","add":"2017-01-01 16:01:12","orig_title":"The Mick","year":"2017-01-01","translations":["Профессиональный (многоголосый закадровый) (IdeaFilm)","Любительский (двухголосый закадровый) (Sunshine Studio)"],"seasons_count":2,"episodes_count":37,"episodes":20,"update":"2018-05-02 17:25:14","iframe_src":"//83.svetacdn.in/PfJ50H0ZBPg3/tv-series/771"},{"id":548,"title":"Высшее общество","kp_id":"994602","imdb_id":"tt5923410","world_art_id":null,"type":"serial","add":"2016-10-21 12:22:18","orig_title":"Yüksek Sosyete","year":"2016-06-16","translations":["Любительский (одноголосый закадровый)"],"seasons_count":1,"episodes_count":26,"episodes":26,"update":"2018-05-02 14:48:46","iframe_src":"//83.svetacdn.in/PfJ50H0ZBPg3/tv-series/548"},{"id":3334,"title":"Принцесса-невеста","kp_id":"412","imdb_id":"tt0093779","world_art_id":null,"type":"movie","add":"2016-06-23 13:54:26","orig_title":"The Princess Bride","year":"1987-09-18","translations":["Профессиональный (многоголосый)","Авторский (одноголосый закадровый) (Дольский Андрей)","Авторский (одноголосый закадровый) (Гаврилов Андрей)","Авторский (одноголосый закадровый) (Кузнецов Сергей)","Авторский (одноголосый закадровый) (Санаев Павел)","Авторский (одноголосый закадровый) (Сербин Юрий)","Авторский (одноголосый закадровый) (Визгунов Сергей)","Original (English)","Профессиональный (двухголосый закадровый) (Selena International)","Профессиональный (многоголосый закадровый) (D2Lab)","Профессиональный (многоголосый закадровый) (Selena International)"],"quality":"bd","translation":"Профессиональный (многоголосый)","update":"2020-09-04 13:51:15","iframe_src":"//83.svetacdn.in/PfJ50H0ZBPg3/movie/3334"},{"id":171,"title":"Тупицы","kp_id":"976647","imdb_id":"tt5237932","world_art_id":null,"type":"serial","add":"2016-06-10 04:02:57","orig_title":"Witless","year":"2016-04-22","translations":["Любительский (двухголосый закадровый) (Sunshine Studio)","Профессиональный (многоголосый закадровый) (ShowJet)"],"seasons_count":2,"episodes_count":10,"episodes":5,"update":"2018-05-01 06:56:29","iframe_src":"//83.svetacdn.in/PfJ50H0ZBPg3/tv-series/171"},{"id":1715,"title":"Неудержимые 3","kp_id":"696813","imdb_id":"tt2333784","world_art_id":null,"type":"movie","add":"2016-04-28 19:05:26","orig_title":"The Expendables 3","year":"2014-08-04","translations":["Полное дублирование","Авторский (одноголосый закадровый) (Есарев Дмитрий)","Авторский (одноголосый закадровый) (Гаврилов Андрей)","Авторский (одноголосый закадровый) (Горчаков Василий)","Авторский (одноголосый закадровый) (Володарский Леонид)","Полное дублирование","Original (English)"],"quality":"bd","translation":"Полное дублирование","update":"2020-09-04 13:36:41","iframe_src":"//83.svetacdn.in/PfJ50H0ZBPg3/movie/1715"}],"current_page":426,"first_page_url":"https://videocdn.tv/api/short?limit=100&api_token=RgFQdUIR2dRmwv8iYa5SnFNgnw3vpjKj&cache3426=3426&page=1","from":42501,"last_page":612,"last_page_url":"https://videocdn.tv/api/short?limit=100&api_token=RgFQdUIR2dRmwv8iYa5SnFNgnw3vpjKj&cache3426=3426&page=612","next_page_url":"https://videocdn.tv/api/short?limit=100&api_token=RgFQdUIR2dRmwv8iYa5SnFNgnw3vpjKj&cache3426=3426&page=427","path":"https://videocdn.tv/api/short","per_page":100,"prev_page_url":"https://videocdn.tv/api/short?limit=100&api_token=RgFQdUIR2dRmwv8iYa5SnFNgnw3vpjKj&cache3426=3426&page=425","to":42540,"total":61166}