{"result":true,"data":[{"id":50877,"title":"Найти и уничтожить","kp_id":"184103","imdb_id":"tt0083040","world_art_id":null,"type":"movie","add":"2021-06-02 14:44:34","orig_title":"Search and Destroy","year":"1979-01-27","translations":["Авторский (одноголосый закадровый) (Рутилов Виктор | fiendover | overfiend)"],"quality":"dvdrip","translation":"Авторский (одноголосый закадровый) (Рутилов Виктор | fiendover | overfiend)","update":"2021-06-02 17:25:55","iframe_src":"//7720.svetacdn.in/si4jsFRrtgrT/movie/50877"},{"id":50866,"title":"Отправление","kp_id":"1080271","imdb_id":"tt7023278","world_art_id":null,"type":"movie","add":"2021-06-02 13:41:06","orig_title":"Departure","year":"2019-03-01","translations":["Любительский (многоголосый закадровый) (Синема УС)"],"quality":"webdl","translation":"Любительский (многоголосый закадровый) (Синема УС)","update":"2021-06-02 20:34:46","iframe_src":"//7720.svetacdn.in/si4jsFRrtgrT/movie/50866"},{"id":50863,"title":"Затоiчи и обречённый","kp_id":"230262","imdb_id":"tt0202154","world_art_id":null,"type":"movie","add":"2021-06-02 10:57:41","orig_title":"Zatôichi sakate giri","year":"1965-09-18","translations":["Любительский (одноголосый закадровый)"],"quality":"bd","translation":"Любительский (одноголосый закадровый)","update":"2021-06-02 15:50:10","iframe_src":"//7720.svetacdn.in/si4jsFRrtgrT/movie/50863"},{"id":50862,"title":"Затойчи и шахматный мастер","kp_id":"99800","imdb_id":"tt0059942","world_art_id":null,"type":"movie","add":"2021-06-02 10:56:25","orig_title":"Zatôichi jigoku tabi","year":"1965-12-24","translations":["Профессиональный (многоголосый закадровый)"],"quality":"bd","translation":"Профессиональный (многоголосый закадровый)","update":"2021-06-02 17:04:21","iframe_src":"//7720.svetacdn.in/si4jsFRrtgrT/movie/50862"},{"id":50857,"title":"Адреналин","kp_id":"22130","imdb_id":"tt0115471","world_art_id":null,"type":"movie","add":"2021-06-02 07:58:52","orig_title":"Adrenalin: Fear the Rush","year":"1996-02-02","translations":["Профессиональный (многоголосый закадровый)"],"quality":"dvdrip","translation":"Профессиональный (многоголосый закадровый)","update":"2021-06-02 14:34:16","iframe_src":"//7720.svetacdn.in/si4jsFRrtgrT/movie/50857"},{"id":50853,"title":"Обед в Америке","kp_id":"1198460","imdb_id":"tt9058654","world_art_id":null,"type":"movie","add":"2021-06-02 07:13:17","orig_title":"Dinner in America","year":"2021-01-21","translations":["Любительский (многоголосый закадровый) (Синема УС)"],"quality":"webdl","translation":"Любительский (многоголосый закадровый) (Синема УС)","update":"2021-06-02 15:35:46","iframe_src":"//7720.svetacdn.in/si4jsFRrtgrT/movie/50853"},{"id":50852,"title":"Бриндизи","kp_id":"1162889","imdb_id":"tt8598534","world_art_id":null,"type":"movie","add":"2021-06-02 07:11:41","orig_title":"Brindisi","year":"2019-10-19","translations":["Любительский (многоголосый закадровый) (Синема УС)"],"quality":"webdl","translation":"Любительский (многоголосый закадровый) (Синема УС)","update":"2021-06-02 15:35:33","iframe_src":"//7720.svetacdn.in/si4jsFRrtgrT/movie/50852"},{"id":50850,"title":"Последний монолог","kp_id":"808875","imdb_id":"tt3300874","world_art_id":null,"type":"movie","add":"2021-06-02 07:06:03","orig_title":"Last Call","year":"2020-11-25","translations":["Любительский (многоголосый закадровый) (Синема УС)"],"quality":"webdl","translation":"Любительский (многоголосый закадровый) (Синема УС)","update":"2021-06-02 15:35:03","iframe_src":"//7720.svetacdn.in/si4jsFRrtgrT/movie/50850"},{"id":50849,"title":"Холодная ночь","kp_id":"1280265","imdb_id":"tt5209124","world_art_id":null,"type":"movie","add":"2021-06-02 07:04:26","orig_title":"Cold Night","year":"2019-04-16","translations":["Любительский (многоголосый закадровый) (Синема УС)"],"quality":"webdl","translation":"Любительский (многоголосый закадровый) (Синема УС)","update":"2021-06-02 15:34:49","iframe_src":"//7720.svetacdn.in/si4jsFRrtgrT/movie/50849"},{"id":50847,"title":"Горчичное семя","kp_id":"1200724","imdb_id":"tt9098454","world_art_id":null,"type":"movie","add":"2021-06-02 07:01:08","orig_title":"The Girl Who Believes in Miracles","year":"2021-04-02","translations":["Любительский (многоголосый закадровый) (Синема УС)"],"quality":"webdl","translation":"Любительский (многоголосый закадровый) (Синема УС)","update":"2021-06-02 15:36:28","iframe_src":"//7720.svetacdn.in/si4jsFRrtgrT/movie/50847"},{"id":50846,"title":"Кроссовки-убийцы","kp_id":"1402848","imdb_id":"tt12149060","world_art_id":null,"type":"movie","add":"2021-06-02 06:58:46","orig_title":"Zapatillas asesinas","year":"2019-08-08","translations":["Любительский (многоголосый закадровый) (Синема УС)"],"quality":"webdl","translation":"Любительский (многоголосый закадровый) (Синема УС)","update":"2021-06-02 15:36:14","iframe_src":"//7720.svetacdn.in/si4jsFRrtgrT/movie/50846"},{"id":50843,"title":"Калипсо","kp_id":"996730","imdb_id":"tt5888794","world_art_id":null,"type":"movie","add":"2021-06-01 21:04:33","orig_title":"Calypso","year":"2019-01-20","translations":["Любительский (многоголосый закадровый) (Синема УС)"],"quality":"webdl","translation":"Любительский (многоголосый закадровый) (Синема УС)","update":"2021-06-02 15:14:06","iframe_src":"//7720.svetacdn.in/si4jsFRrtgrT/movie/50843"},{"id":50815,"title":"Кидала в Вегасе","kp_id":"198694","imdb_id":"tt0208871","world_art_id":null,"type":"movie","add":"2021-06-01 06:34:30","orig_title":"Du xia da zhan La Si Wei Jia Si","year":"1999-06-25","translations":["Авторский (одноголосый закадровый) (Дольский Андрей)"],"quality":"bd","translation":"Авторский (одноголосый закадровый) (Дольский Андрей)","update":"2021-06-02 14:29:47","iframe_src":"//7720.svetacdn.in/si4jsFRrtgrT/movie/50815"},{"id":49921,"title":"Любовь и монстры","kp_id":"1313587","imdb_id":"tt13830296","world_art_id":null,"type":"movie","add":"2021-04-26 20:30:12","orig_title":"Love and Monsters","year":"2021-04-22","translations":["Оригинальная дорожка","Оригинальная дорожка"],"quality":"ts","translation":"Оригинальная дорожка","update":"2021-06-02 15:17:02","iframe_src":"//7720.svetacdn.in/si4jsFRrtgrT/movie/49921"},{"id":47997,"title":"Детектив из Чайнатауна 3","kp_id":"1115304","imdb_id":"tt10370822","world_art_id":null,"type":"movie","add":"2021-02-16 22:25:54","orig_title":"Tang ren jie tang an 3","year":"2021-02-12","translations":["Любительский (двухголосый закадровый) (Колобок)","Любительский (двухголосый закадровый) (Колобок)","Любительский (двухголосый закадровый) (Колобок)"],"quality":"ts","translation":"Любительский (двухголосый закадровый) (Колобок)","update":"2021-06-02 17:07:56","iframe_src":"//7720.svetacdn.in/si4jsFRrtgrT/movie/47997"},{"id":47734,"title":"Супернова","kp_id":"1317850","imdb_id":"tt11169050","world_art_id":null,"type":"movie","add":"2021-02-07 22:52:22","orig_title":"Supernova","year":"2020-09-23","translations":["Профессиональный (многоголосый закадровый) (HDrezka Studio)","Полное дублирование","Original (English)","Полное дублирование (iTunes)"],"quality":"webdl","translation":"Профессиональный (многоголосый закадровый) (HDrezka Studio)","update":"2021-06-02 14:28:08","iframe_src":"//7720.svetacdn.in/si4jsFRrtgrT/movie/47734"},{"id":45808,"title":"Дядя","kp_id":"1306234","imdb_id":"tt10975520","world_art_id":null,"type":"movie","add":"2020-12-03 09:32:22","orig_title":"Suk Suk","year":"2019-10-04","translations":["Любительский (одноголосый закадровый)","Любительский (двухголосый закадровый) (Колобок)"],"quality":"bd","translation":"Любительский (одноголосый закадровый)","update":"2021-06-02 20:33:36","iframe_src":"//7720.svetacdn.in/si4jsFRrtgrT/movie/45808"},{"id":9309,"title":"Злоключения за границей","kp_id":"499924","imdb_id":"tt1020109","world_art_id":null,"type":"serial","add":"2020-11-18 08:17:35","orig_title":"Banged Up Abroad","year":"2007-07-24","translations":["Профессиональный (одноголосый закадровый)"],"seasons_count":5,"episodes_count":49,"episodes":10,"update":"2020-11-18 10:17:13","iframe_src":"//7720.svetacdn.in/si4jsFRrtgrT/tv-series/9309"},{"id":9307,"title":"Преступление","kp_id":"1059519","imdb_id":"tt4173216","world_art_id":null,"type":"serial","add":"2020-11-18 05:32:06","orig_title":"Zbrodnia","year":"2014-10-16","translations":["Любительский (многоголосый закадровый) (WestFilm)"],"seasons_count":2,"episodes_count":6,"episodes":3,"update":"2020-11-18 07:57:42","iframe_src":"//7720.svetacdn.in/si4jsFRrtgrT/tv-series/9307"},{"id":9282,"title":"Во власти денег","kp_id":"583650","imdb_id":"tt0429375","world_art_id":null,"type":"serial","add":"2020-11-14 11:30:26","orig_title":"Idolos","year":"2004-01-01","translations":["Профессиональный (многоголосый закадровый)"],"seasons_count":1,"episodes_count":83,"episodes":83,"update":"2020-11-18 08:34:35","iframe_src":"//7720.svetacdn.in/si4jsFRrtgrT/tv-series/9282"},{"id":9247,"title":"Семейство Сатурдей","kp_id":"501804","imdb_id":"tt1291662","world_art_id":null,"type":"serial","add":"2020-11-10 09:37:07","orig_title":"The Secret Saturdays","year":"2008-10-03","translations":["Полное дублирование"],"seasons_count":2,"episodes_count":36,"episodes":10,"update":"2020-11-18 16:48:44","iframe_src":"//7720.svetacdn.in/si4jsFRrtgrT/tv-series/9247"},{"id":9246,"title":"Мой друг Марсупилами","kp_id":"461744","imdb_id":"tt0313099","world_art_id":null,"type":"serial","add":"2020-11-10 09:31:34","orig_title":"Mon ami Marsupilami","year":"2003-01-01","translations":["Профессиональный (многоголосый закадровый)"],"seasons_count":1,"episodes_count":26,"episodes":26,"update":"2020-11-18 15:37:32","iframe_src":"//7720.svetacdn.in/si4jsFRrtgrT/tv-series/9246"},{"id":9224,"title":"Марин и его друзья. Подводные истории","kp_id":"935876","imdb_id":"tt7050224","world_art_id":null,"type":"serial","add":"2020-11-07 11:26:45","orig_title":"Bubble Bubble Marin","year":"2015-11-15","translations":["Полное дублирование"],"seasons_count":1,"episodes_count":52,"episodes":52,"update":"2020-11-18 16:14:08","iframe_src":"//7720.svetacdn.in/si4jsFRrtgrT/tv-series/9224"},{"id":9223,"title":"Лето мыльных пузырей","kp_id":"675281","imdb_id":"tt4374254","world_art_id":null,"type":"serial","add":"2020-11-07 11:12:49","orig_title":"Pao mo zhi xia","year":"2010-05-30","translations":["Любительский (одноголосый закадровый)"],"seasons_count":1,"episodes_count":28,"episodes":28,"update":"2020-11-18 11:49:02","iframe_src":"//7720.svetacdn.in/si4jsFRrtgrT/tv-series/9223"},{"id":9222,"title":"Ракета и Грут","kp_id":"1042099","imdb_id":"tt6603254","world_art_id":null,"type":"serial","add":"2020-11-07 11:09:11","orig_title":"Rocket & Groot","year":"2017-03-10","translations":["Полное дублирование (Невафильм | Нева-1)"],"seasons_count":1,"episodes_count":12,"episodes":12,"update":"2020-11-18 15:13:22","iframe_src":"//7720.svetacdn.in/si4jsFRrtgrT/tv-series/9222"},{"id":9221,"title":"Где-то там...","kp_id":"756154","imdb_id":"tt2377271","world_art_id":null,"type":"serial","add":"2020-11-07 11:05:18","orig_title":"Out There","year":"2013-02-22","translations":["Профессиональный (двухголосый закадровый) (Кубик в Кубе)"],"seasons_count":1,"episodes_count":10,"episodes":10,"update":"2020-11-18 16:22:18","iframe_src":"//7720.svetacdn.in/si4jsFRrtgrT/tv-series/9221"},{"id":9219,"title":"Шоу мистера Пибоди и Шермана","kp_id":"940902","imdb_id":"tt5021206","world_art_id":null,"type":"serial","add":"2020-11-07 10:41:33","orig_title":"The Mr. Peabody & Sherman Show","year":"2015-10-09","translations":["Полное дублирование (SDI Media)"],"seasons_count":4,"episodes_count":52,"episodes":13,"update":"2020-11-18 11:27:21","iframe_src":"//7720.svetacdn.in/si4jsFRrtgrT/tv-series/9219"},{"id":9195,"title":"Ферма чудища","kp_id":"418161","imdb_id":"tt0381784","world_art_id":null,"type":"serial","add":"2020-11-04 10:15:32","orig_title":"Monster Farm","year":"1998-01-01","translations":["Полное дублирование"],"seasons_count":1,"episodes_count":13,"episodes":13,"update":"2020-11-18 15:01:47","iframe_src":"//7720.svetacdn.in/si4jsFRrtgrT/tv-series/9195"},{"id":9194,"title":"Боб и Маргарет","kp_id":"397389","imdb_id":"tt0122813","world_art_id":null,"type":"serial","add":"2020-11-04 10:06:34","orig_title":"Bob and Margaret","year":"1998-06-22","translations":["Профессиональный (многоголосый закадровый)"],"seasons_count":2,"episodes_count":26,"episodes":13,"update":"2020-11-18 14:11:31","iframe_src":"//7720.svetacdn.in/si4jsFRrtgrT/tv-series/9194"},{"id":9150,"title":"Роботы Болт и Блип","kp_id":"494449","imdb_id":"tt1583929","world_art_id":null,"type":"serial","add":"2020-10-29 16:29:52","orig_title":"Bolts & Blip","year":"2010-06-28","translations":["Профессиональный (многоголосый закадровый)"],"seasons_count":1,"episodes_count":26,"episodes":26,"update":"2020-11-18 12:03:27","iframe_src":"//7720.svetacdn.in/si4jsFRrtgrT/tv-series/9150"},{"id":9113,"title":"Ундина 2: На гребне волны","kp_id":"161028","imdb_id":"tt0425722","world_art_id":null,"type":"serial","add":"2020-10-25 14:56:03","orig_title":"Undina 2. Na grebne volny","year":"2004-08-30","translations":["Оригинальная дорожка"],"seasons_count":1,"episodes_count":92,"episodes":92,"update":"2020-11-18 10:34:38","iframe_src":"//7720.svetacdn.in/si4jsFRrtgrT/tv-series/9113"},{"id":8998,"title":"Искатели правды","kp_id":"1293369","imdb_id":"tt7907922","world_art_id":null,"type":"serial","add":"2020-10-12 20:34:00","orig_title":"Truth Seekers","year":"2020-10-30","translations":["Любительский (многоголосый закадровый) (Ultradox)","Профессиональный (многоголосый закадровый) (IdeaFilm)","Профессиональный (многоголосый закадровый) (HDrezka Studio)","Любительский (многоголосый закадровый) (ColdFilm)","Любительский (многоголосый закадровый) (KerobTV)","Профессиональный (многоголосый закадровый) (BaibaKo)","Профессиональный (многоголосый закадровый) (LostFilm)","Профессиональный (многоголосый закадровый) (NewStudio)","Профессиональный (многоголосый закадровый) (Jaskier)","Профессиональный (многоголосый закадровый) (Ozz.tv)"],"seasons_count":1,"episodes_count":8,"episodes":8,"update":"2020-11-18 16:29:53","iframe_src":"//7720.svetacdn.in/si4jsFRrtgrT/tv-series/8998"},{"id":8803,"title":"Южный ветер. Возвращение","kp_id":"1302593","imdb_id":"tt10952900","world_art_id":null,"type":"serial","add":"2020-09-21 06:47:30","orig_title":"Juzni vetar","year":"2020-01-19","translations":[],"seasons_count":1,"episodes_count":14,"episodes":14,"update":"2020-11-18 10:13:45","iframe_src":"//7720.svetacdn.in/si4jsFRrtgrT/tv-series/8803"},{"id":8601,"title":"Разъярённая мать","kp_id":"893606","imdb_id":"tt4535826","world_art_id":null,"type":"serial","add":"2020-09-02 05:41:44","orig_title":"Aenggeurimam","year":"2015-03-18","translations":["Любительский (одноголосый закадровый) (GREEN TEA)","Любительский (одноголосый закадровый) (Seoul Bay)"],"seasons_count":1,"episodes_count":16,"episodes":16,"update":"2020-11-18 10:12:52","iframe_src":"//7720.svetacdn.in/si4jsFRrtgrT/tv-series/8601"},{"id":8089,"title":"Мистер ошибка","kp_id":"1392666","imdb_id":"tt12453442","world_art_id":null,"type":"serial","add":"2020-07-04 14:50:31","orig_title":"Bay Yanlis","year":"2020-06-26","translations":["Любительский (двухголосый закадровый) (Анастасия Гайдаржи + Андрей Юрченко)","Любительский (многоголосый закадровый) (AimaksaLTV)"],"seasons_count":1,"episodes_count":14,"episodes":14,"update":"2020-11-18 08:20:46","iframe_src":"//7720.svetacdn.in/si4jsFRrtgrT/tv-series/8089"},{"id":6503,"title":"Всеведущий","kp_id":"1339669","imdb_id":"tt11542920","world_art_id":null,"type":"serial","add":"2020-01-29 12:02:07","orig_title":"Onisciente","year":"2020-01-29","translations":["Любительский (многоголосый закадровый) (Octopus)","Любительский (многоголосый закадровый) (ColdFilm)","Профессиональный (двухголосый закадровый) (ViruseProject)"],"seasons_count":1,"episodes_count":6,"episodes":6,"update":"2020-11-18 07:51:03","iframe_src":"//7720.svetacdn.in/si4jsFRrtgrT/tv-series/6503"},{"id":30688,"title":"Помогите, я уменьшил своих родителей!","kp_id":"1071904","imdb_id":"tt6818140","world_art_id":null,"type":"movie","add":"2019-09-08 20:56:53","orig_title":"Hilfe, ich hab meine Eltern geschrumpft","year":"2018-01-18","translations":["Любительский (многоголосый закадровый) (Синема УС)","Полное дублирование"],"quality":"bd","translation":"Любительский (многоголосый закадровый) (Синема УС)","update":"2021-06-02 15:35:19","iframe_src":"//7720.svetacdn.in/si4jsFRrtgrT/movie/30688"},{"id":18798,"title":"Ангелы носят белое","kp_id":"1047500","imdb_id":"tt7205208","world_art_id":null,"type":"movie","add":"2018-09-05 23:09:02","orig_title":"Jin nian hua","year":"2017-09-07","translations":["Любительский (многоголосый закадровый) (Синема УС)","Любительский (двухголосый закадровый) (LakeFilms)","Профессиональный (многоголосый закадровый) (HDrezka Studio)"],"quality":"webdl","translation":"Любительский (многоголосый закадровый) (Синема УС)","update":"2021-06-02 15:35:58","iframe_src":"//7720.svetacdn.in/si4jsFRrtgrT/movie/18798"},{"id":2259,"title":"Ребекка Мартинссон","kp_id":"1047714","imdb_id":"tt6623682","world_art_id":null,"type":"serial","add":"2018-03-22 08:35:34","orig_title":"Rebecka Martinsson","year":"2017-03-08","translations":["Профессиональный (двухголосый закадровый) (ViruseProject)","Профессиональный (многоголосый закадровый) (SDI Media)","Любительский (многоголосый закадровый) (Octopus)","Любительский (многоголосый закадровый) (ColdFilm)"],"seasons_count":2,"episodes_count":16,"episodes":8,"update":"2020-11-18 14:53:18","iframe_src":"//7720.svetacdn.in/si4jsFRrtgrT/tv-series/2259"},{"id":4222,"title":"Достоинство","kp_id":"665408","imdb_id":"tt2215673","world_art_id":null,"type":"movie","add":"2016-07-31 12:35:35","orig_title":"The Timber","year":"2015-02-27","translations":["Профессиональный (двухголосый закадровый)","Original (English)","Любительский (одноголосый закадровый) (datynet | Агапов Антон)"],"quality":"bd","translation":"Профессиональный (двухголосый закадровый)","update":"2021-06-02 14:26:31","iframe_src":"//7720.svetacdn.in/si4jsFRrtgrT/movie/4222"}],"current_page":142,"first_page_url":"https://videocdn.tv/api/short?limit=100&api_token=X6EwAUfE5M9xbo7y0Bp0aPf3uXxG2KLL&cache3142=3142&page=1","from":14101,"last_page":650,"last_page_url":"https://videocdn.tv/api/short?limit=100&api_token=X6EwAUfE5M9xbo7y0Bp0aPf3uXxG2KLL&cache3142=3142&page=650","next_page_url":"https://videocdn.tv/api/short?limit=100&api_token=X6EwAUfE5M9xbo7y0Bp0aPf3uXxG2KLL&cache3142=3142&page=143","path":"https://videocdn.tv/api/short","per_page":100,"prev_page_url":"https://videocdn.tv/api/short?limit=100&api_token=X6EwAUfE5M9xbo7y0Bp0aPf3uXxG2KLL&cache3142=3142&page=141","to":14140,"total":64908}