{"result":true,"data":[{"id":34410,"title":"Навстречу невидимому свету","kp_id":"1101192","imdb_id":"tt7603290","world_art_id":null,"type":"movie","add":"2019-12-23 20:08:10","orig_title":"Into Invisible Light","year":"2018-12-01","translations":["Любительский (многоголосый закадровый) (Синема УС)"],"quality":"webdl","translation":"Любительский (многоголосый закадровый) (Синема УС)","update":"2019-12-24 06:55:34","iframe_src":"//8209.svetacdn.in/71tsRs29n5tZ/movie/34410"},{"id":34409,"title":"Энжел Фоллс: история одного праздника","kp_id":"1302421","imdb_id":"tt10922632","world_art_id":null,"type":"movie","add":"2019-12-23 19:50:46","orig_title":"Angel Falls: A Novel Holiday","year":"2019-12-13","translations":["Любительский (многоголосый закадровый) (Синема УС)"],"quality":"hdtv","translation":"Любительский (многоголосый закадровый) (Синема УС)","update":"2019-12-24 06:38:57","iframe_src":"//8209.svetacdn.in/71tsRs29n5tZ/movie/34409"},{"id":34408,"title":"Мисс Ханой","kp_id":"1083569","imdb_id":"tt7040276","world_art_id":null,"type":"movie","add":"2019-12-23 18:32:05","orig_title":"Miss Hanoi","year":"2018-08-09","translations":["Любительский (одноголосый закадровый) (datynet | Агапов Антон)"],"quality":"dvdrip","translation":"Любительский (одноголосый закадровый) (datynet | Агапов Антон)","update":"2019-12-24 06:39:36","iframe_src":"//8209.svetacdn.in/71tsRs29n5tZ/movie/34408"},{"id":34406,"title":"Вдохновение года","kp_id":"1282440","imdb_id":"tt10621180","world_art_id":null,"type":"movie","add":"2019-12-23 18:30:10","orig_title":"Most Likely to Murder","year":"2019-12-14","translations":["Любительский (многоголосый закадровый) (AlphaProject)"],"quality":"hdtv","translation":"Любительский (многоголосый закадровый) (AlphaProject)","update":"2019-12-24 06:41:05","iframe_src":"//8209.svetacdn.in/71tsRs29n5tZ/movie/34406"},{"id":34404,"title":"Родители жены","kp_id":"1163812","imdb_id":"tt8600414","world_art_id":null,"type":"movie","add":"2019-12-23 18:23:03","orig_title":"Beaux-parents","year":"2019-06-19","translations":["Любительский (многоголосый закадровый) (Синема УС)"],"quality":"webdl","translation":"Любительский (многоголосый закадровый) (Синема УС)","update":"2019-12-24 06:42:59","iframe_src":"//8209.svetacdn.in/71tsRs29n5tZ/movie/34404"},{"id":34401,"title":"Легенда о Хэй","kp_id":"1297234","imdb_id":"tt10734928","world_art_id":null,"type":"movie","add":"2019-12-23 18:18:56","orig_title":"Luo Xiao Hei zhan ji","year":"2019-09-07","translations":["Любительский (многоголосый закадровый) (Колобок)"],"quality":"webdl","translation":"Любительский (многоголосый закадровый) (Колобок)","update":"2019-12-24 06:44:27","iframe_src":"//8209.svetacdn.in/71tsRs29n5tZ/movie/34401"},{"id":34390,"title":"Приключения S Николая","kp_id":"1159408","imdb_id":"tt8662114","world_art_id":null,"type":"movie","add":"2019-12-23 11:57:30","orig_title":"December tale or S.Mykolay's Adventures","year":"2018-12-13","translations":["Оригинальная дорожка"],"quality":"webdl","translation":"Оригинальная дорожка","update":"2019-12-23 19:23:44","iframe_src":"//8209.svetacdn.in/71tsRs29n5tZ/movie/34390"},{"id":34380,"title":"Если ты единственная 2","kp_id":"575965","imdb_id":"tt1810602","world_art_id":null,"type":"movie","add":"2019-12-22 20:06:59","orig_title":"Fei cheng wu rao 2","year":"2010-12-22","translations":["Профессиональный (двухголосый закадровый) (Кубик в Кубе)"],"quality":"bd","translation":"Профессиональный (двухголосый закадровый) (Кубик в Кубе)","update":"2019-12-24 06:49:37","iframe_src":"//8209.svetacdn.in/71tsRs29n5tZ/movie/34380"},{"id":34375,"title":"Меч многих влюбленных","kp_id":"220978","imdb_id":"tt0104246","world_art_id":null,"type":"movie","add":"2019-12-22 19:42:10","orig_title":"Fei hu wai zhuan","year":"1993-08-20","translations":["Любительский (одноголосый закадровый)"],"quality":"dvdrip","translation":"Любительский (одноголосый закадровый)","update":"2019-12-23 14:20:32","iframe_src":"//8209.svetacdn.in/71tsRs29n5tZ/movie/34375"},{"id":34374,"title":"Побег в ад","kp_id":"429756","imdb_id":"tt0100960","world_art_id":null,"type":"movie","add":"2019-12-22 19:20:52","orig_title":"Wu hui xing dong","year":"1990-02-10","translations":["Профессиональный (двухголосый закадровый)"],"quality":"vhs","translation":"Профессиональный (двухголосый закадровый)","update":"2019-12-23 14:23:14","iframe_src":"//8209.svetacdn.in/71tsRs29n5tZ/movie/34374"},{"id":34373,"title":"Потерянные души","kp_id":"212017","imdb_id":"tt0284964","world_art_id":null,"type":"movie","add":"2019-12-22 19:17:32","orig_title":"Da se","year":"1980-11-26","translations":["Любительский (одноголосый закадровый) (Береговых Виктор | Jet)"],"quality":"dvdrip","translation":"Любительский (одноголосый закадровый) (Береговых Виктор | Jet)","update":"2019-12-23 14:28:17","iframe_src":"//8209.svetacdn.in/71tsRs29n5tZ/movie/34373"},{"id":34372,"title":"Против течения","kp_id":"426150","imdb_id":"tt1165285","world_art_id":null,"type":"movie","add":"2019-12-22 19:11:50","orig_title":"Gyakuryû","year":"1924-09-26","translations":["Любительский (одноголосый закадровый)"],"quality":"vhs","translation":"Любительский (одноголосый закадровый)","update":"2019-12-23 14:29:27","iframe_src":"//8209.svetacdn.in/71tsRs29n5tZ/movie/34372"},{"id":34371,"title":"Отклонение от нормы","kp_id":"153035","imdb_id":"tt0455195","world_art_id":null,"type":"movie","add":"2019-12-22 19:08:14","orig_title":"Saam cha hau","year":"2005-04-28","translations":["Профессиональный (многоголосый закадровый)"],"quality":"dvdrip","translation":"Профессиональный (многоголосый закадровый)","update":"2019-12-23 14:30:19","iframe_src":"//8209.svetacdn.in/71tsRs29n5tZ/movie/34371"},{"id":34369,"title":"Вечная слава","kp_id":null,"imdb_id":"tt1464605","world_art_id":null,"type":"movie","add":"2019-12-22 18:55:22","orig_title":"Ying lie qian qiu","year":"1976-07-19","translations":["Авторский (одноголосый закадровый) (Воронцов Владимир | Доцент)"],"quality":"webdl","translation":"Авторский (одноголосый закадровый) (Воронцов Владимир | Доцент)","update":"2019-12-24 06:48:19","iframe_src":"//8209.svetacdn.in/71tsRs29n5tZ/movie/34369"},{"id":34361,"title":"Шах и мат","kp_id":"844639","imdb_id":"tt3781616","world_art_id":null,"type":"movie","add":"2019-12-22 18:12:51","orig_title":"Checkmate","year":"2015-07-03","translations":["Любительский (двухголосый закадровый)"],"quality":"dvdrip","translation":"Любительский (двухголосый закадровый)","update":"2019-12-23 16:57:53","iframe_src":"//8209.svetacdn.in/71tsRs29n5tZ/movie/34361"},{"id":34323,"title":"Даже девушки-ковбои иногда грустят","kp_id":"2841","imdb_id":"tt0106834","world_art_id":null,"type":"movie","add":"2019-12-20 22:27:56","orig_title":"Even Cowgirls Get the Blues","year":"1993-09-13","translations":["Авторский (одноголосый закадровый) (Визгунов Сергей)"],"quality":"dvdrip","translation":"Авторский (одноголосый закадровый) (Визгунов Сергей)","update":"2019-12-23 20:28:14","iframe_src":"//8209.svetacdn.in/71tsRs29n5tZ/movie/34323"},{"id":16959,"title":"Ниндзя в логове дракона","kp_id":"36960","imdb_id":"tt0084267","world_art_id":null,"type":"movie","add":"2018-05-30 10:15:11","orig_title":"Long zhi ren zhe","year":"1982-04-17","translations":["Любительский (одноголосый закадровый)","Авторский (одноголосый закадровый) (Рябов Сергей)"],"quality":"bd","translation":"Любительский (одноголосый закадровый)","update":"2019-12-23 14:22:05","iframe_src":"//8209.svetacdn.in/71tsRs29n5tZ/movie/16959"},{"id":4535,"title":"Крадущийся тигр, затаившийся дракон","kp_id":"378","imdb_id":"tt0190332","world_art_id":null,"type":"movie","add":"2016-08-18 08:57:20","orig_title":"Wo hu cang long","year":"2000-07-07","translations":["Профессиональный (многоголосый закадровый)","Профессиональный (многоголосый закадровый) (Первый канал | ОРТ)","Авторский (одноголосый закадровый) (Живов Юрий)","Профессиональный (многоголосый закадровый) (Видеосервис)"],"quality":"bd","translation":"Профессиональный (многоголосый закадровый)","update":"2019-12-24 06:54:38","iframe_src":"//8209.svetacdn.in/71tsRs29n5tZ/movie/4535"},{"id":4280,"title":"Звонок 2","kp_id":"55323","imdb_id":"tt0218553","world_art_id":null,"type":"movie","add":"2016-08-02 14:28:04","orig_title":"Ringu 2","year":"1999-01-23","translations":["Авторский (одноголосый закадровый) (Сербин Юрий)","Авторский (одноголосый закадровый) (Гаврилов Андрей)"],"quality":"bd","translation":"Авторский (одноголосый закадровый) (Сербин Юрий)","update":"2019-12-24 06:50:30","iframe_src":"//8209.svetacdn.in/71tsRs29n5tZ/movie/4280"},{"id":2391,"title":"Темные тайны","kp_id":"681657","imdb_id":"tt2402101","world_art_id":null,"type":"movie","add":"2016-05-20 06:32:46","orig_title":"Dark Places","year":"2015-03-31","translations":["Любительский (двухголосый закадровый)"],"quality":"bd","translation":"Любительский (двухголосый закадровый)","update":"2019-12-23 19:27:42","iframe_src":"//8209.svetacdn.in/71tsRs29n5tZ/movie/2391"}],"current_page":1144,"first_page_url":"https://videocdn.tv/api/short?limit=100&api_token=EnbO9h8pv1VyjbCJhg0WM9nG259n7mtz&cache31144=31144&page=1","from":114301,"last_page":658,"last_page_url":"https://videocdn.tv/api/short?limit=100&api_token=EnbO9h8pv1VyjbCJhg0WM9nG259n7mtz&cache31144=31144&page=658","next_page_url":null,"path":"https://videocdn.tv/api/short","per_page":100,"prev_page_url":"https://videocdn.tv/api/short?limit=100&api_token=EnbO9h8pv1VyjbCJhg0WM9nG259n7mtz&cache31144=31144&page=1143","to":114320,"total":65752}