{"result":true,"data":[{"id":50968,"title":"Меч из трости Затоичи","kp_id":"156715","imdb_id":"tt0186725","world_art_id":null,"type":"movie","add":"2021-06-06 07:17:41","orig_title":"Zatôichi tekka tabi","year":"1967-01-03","translations":["Любительский (одноголосый закадровый)"],"quality":"bd","translation":"Любительский (одноголосый закадровый)","update":"2021-06-07 10:36:46","iframe_src":"//24213.svetacdn.in/71tsRs29n5tZ/movie/50968"},{"id":50966,"title":"Праздник огней","kp_id":"629373","imdb_id":"tt1459034","world_art_id":null,"type":"movie","add":"2021-06-06 06:02:47","orig_title":"Deepavali","year":"2007-02-09","translations":["Профессиональный (многоголосый закадровый) (Red Media)"],"quality":"webdl","translation":"Профессиональный (многоголосый закадровый) (Red Media)","update":"2021-06-07 10:41:13","iframe_src":"//24213.svetacdn.in/71tsRs29n5tZ/movie/50966"},{"id":50964,"title":"Месть Затоiчи","kp_id":"230263","imdb_id":"tt0143012","world_art_id":null,"type":"movie","add":"2021-06-06 05:56:08","orig_title":"Zatôichi no uta ga kikoeru","year":"1966-05-03","translations":["Профессиональный (многоголосый закадровый) (Сонотек)"],"quality":"bd","translation":"Профессиональный (многоголосый закадровый) (Сонотек)","update":"2021-06-07 10:44:08","iframe_src":"//24213.svetacdn.in/71tsRs29n5tZ/movie/50964"},{"id":50963,"title":"Автобусная остановка","kp_id":"11658","imdb_id":"tt0049038","world_art_id":null,"type":"movie","add":"2021-06-06 05:53:37","orig_title":"Bus Stop","year":"1956-08-31","translations":["Профессиональный (многоголосый закадровый) (Первый канал | ОРТ)"],"quality":"bd","translation":"Профессиональный (многоголосый закадровый) (Первый канал | ОРТ)","update":"2021-06-07 10:51:02","iframe_src":"//24213.svetacdn.in/71tsRs29n5tZ/movie/50963"},{"id":50962,"title":"Любовь как бриз","kp_id":"210053","imdb_id":"tt0464071","world_art_id":null,"type":"movie","add":"2021-06-06 05:50:29","orig_title":"Sillunu Oru Kadhal","year":"2006-01-01","translations":["Профессиональный (многоголосый закадровый) (Red Media)"],"quality":"bd","translation":"Профессиональный (многоголосый закадровый) (Red Media)","update":"2021-06-07 10:49:39","iframe_src":"//24213.svetacdn.in/71tsRs29n5tZ/movie/50962"},{"id":50961,"title":"Романс о влюбленных","kp_id":"42125","imdb_id":"tt0072096","world_art_id":null,"type":"movie","add":"2021-06-06 05:46:24","orig_title":"Romans o vlyublyonnykh","year":"1974-07-18","translations":["Оригинальная дорожка"],"quality":"webdl","translation":"Оригинальная дорожка","update":"2021-06-07 10:52:27","iframe_src":"//24213.svetacdn.in/71tsRs29n5tZ/movie/50961"},{"id":49894,"title":"Смертельные истории","kp_id":"28202","imdb_id":"tt0092850","world_art_id":null,"type":"movie","add":"2021-04-26 05:13:52","orig_title":"Deadtime Stories","year":"1986-04-14","translations":["Любительский (одноголосый закадровый) (ДиоНиК)","[EN] Original (English)"],"quality":"bd","translation":"Любительский (одноголосый закадровый) (ДиоНиК)","update":"2021-06-07 10:29:02","iframe_src":"//24213.svetacdn.in/71tsRs29n5tZ/movie/49894"},{"id":49785,"title":"Фриби и Бин","kp_id":"7245","imdb_id":"tt0071521","world_art_id":null,"type":"movie","add":"2021-04-21 13:28:43","orig_title":"Freebie and the Bean","year":"1974-12-25","translations":["Любительский (одноголосый закадровый) (Мусин Эрнест)","[EN] Original (English)"],"quality":"bd","translation":"Любительский (одноголосый закадровый) (Мусин Эрнест)","update":"2021-06-07 09:26:52","iframe_src":"//24213.svetacdn.in/71tsRs29n5tZ/movie/49785"},{"id":49722,"title":"Покойся с миром","kp_id":"85365","imdb_id":"tt0092873","world_art_id":null,"type":"movie","add":"2021-04-19 14:41:17","orig_title":"Descanse en piezas","year":"1987-08-10","translations":["Любительский (одноголосый закадровый)","[EN] Original (English)"],"quality":"bd","translation":"Любительский (одноголосый закадровый)","update":"2021-06-07 09:29:22","iframe_src":"//24213.svetacdn.in/71tsRs29n5tZ/movie/49722"},{"id":49449,"title":"Круг друзей","kp_id":"3617","imdb_id":"tt0112679","world_art_id":null,"type":"movie","add":"2021-04-09 08:07:26","orig_title":"Circle of Friends","year":"1995-03-02","translations":["Профессиональный (двухголосый закадровый) (Мьюзик-Трейд)","[EN] Original (English)"],"quality":"bd","translation":"Профессиональный (двухголосый закадровый) (Мьюзик-Трейд)","update":"2021-06-07 10:30:28","iframe_src":"//24213.svetacdn.in/71tsRs29n5tZ/movie/49449"},{"id":47981,"title":"99 женщин","kp_id":"82102","imdb_id":"tt0063977","world_art_id":null,"type":"movie","add":"2021-02-16 12:21:00","orig_title":"Der heiße Tod","year":"1969-03-05","translations":["Профессиональный (многоголосый закадровый)","Профессиональный (многоголосый закадровый)","[EN] Original (English)"],"quality":"dvdrip","translation":"Профессиональный (многоголосый закадровый)","update":"2021-06-07 09:30:34","iframe_src":"//24213.svetacdn.in/71tsRs29n5tZ/movie/47981"},{"id":47485,"title":"С небес на землю","kp_id":"16136","imdb_id":"tt0039337","world_art_id":null,"type":"movie","add":"2021-01-28 09:57:51","orig_title":"Down to Earth","year":"1947-08-21","translations":["Профессиональный (многоголосый закадровый)","[EN] Original (English)"],"quality":"bd","translation":"Профессиональный (многоголосый закадровый)","update":"2021-06-07 09:27:44","iframe_src":"//24213.svetacdn.in/71tsRs29n5tZ/movie/47485"},{"id":47289,"title":"Дерево растет в Бруклине","kp_id":"1153","imdb_id":"tt0038190","world_art_id":null,"type":"movie","add":"2021-01-21 09:25:07","orig_title":"A Tree Grows in Brooklyn","year":"1945-02-28","translations":["Любительский (одноголосый закадровый)","[EN] Original (English)"],"quality":"bd","translation":"Любительский (одноголосый закадровый)","update":"2021-06-07 10:32:48","iframe_src":"//24213.svetacdn.in/71tsRs29n5tZ/movie/47289"},{"id":38729,"title":"Агнцы Божьи","kp_id":"1255083","imdb_id":"tt10187378","world_art_id":null,"type":"movie","add":"2020-03-31 13:14:21","orig_title":"Cordero de Dios","year":"2020-01-01","translations":["Любительский (многоголосый закадровый) (Синема УС)","Любительский (многоголосый закадровый) (Синема УС)"],"quality":"webdl","translation":"Любительский (многоголосый закадровый) (Синема УС)","update":"2021-06-07 10:47:46","iframe_src":"//24213.svetacdn.in/71tsRs29n5tZ/movie/38729"},{"id":34464,"title":"Повесть о Затоичи","kp_id":"144162","imdb_id":"tt0056714","world_art_id":null,"type":"movie","add":"2019-12-25 22:16:58","orig_title":"Zatôichi monogatari","year":"1962-04-18","translations":["Профессиональный (одноголосый закадровый)","Любительский (одноголосый закадровый)"],"quality":"dvdrip","translation":"Профессиональный (одноголосый закадровый)","update":"2021-06-07 10:37:51","iframe_src":"//24213.svetacdn.in/71tsRs29n5tZ/movie/34464"},{"id":29888,"title":"Двадцать один час в Мюнхене","kp_id":"326947","imdb_id":"tt0074085","world_art_id":null,"type":"movie","add":"2019-08-09 21:02:13","orig_title":"21 Hours at Munich","year":"1976-11-07","translations":["Профессиональный (двухголосый закадровый)","Авторский (одноголосый закадровый) (Яковлев Алексей)","Профессиональный (двухголосый закадровый) (НТВ)","[EN] Original (English)"],"quality":"dvdrip","translation":"Профессиональный (двухголосый закадровый)","update":"2021-06-07 10:33:52","iframe_src":"//24213.svetacdn.in/71tsRs29n5tZ/movie/29888"},{"id":23746,"title":"Опекун","kp_id":"42779","imdb_id":"tt0314465","world_art_id":null,"type":"movie","add":"2019-04-01 09:32:07","orig_title":"Opekun","year":"1970-01-01","translations":["Оригинальная дорожка","Оригинальная дорожка"],"quality":"dvdrip","translation":"Оригинальная дорожка","update":"2021-06-07 10:45:36","iframe_src":"//24213.svetacdn.in/71tsRs29n5tZ/movie/23746"},{"id":22804,"title":"Разные судьбы","kp_id":"42070","imdb_id":"tt0049603","world_art_id":null,"type":"movie","add":"2019-03-07 04:55:16","orig_title":"Raznye sudby","year":"1956-09-21","translations":["Оригинальная дорожка","Оригинальная дорожка"],"quality":"dvdrip","translation":"Оригинальная дорожка","update":"2021-06-07 10:46:49","iframe_src":"//24213.svetacdn.in/71tsRs29n5tZ/movie/22804"},{"id":18839,"title":"Выход на посадку","kp_id":"252255","imdb_id":"tt0493402","world_art_id":null,"type":"movie","add":"2018-09-07 07:49:17","orig_title":"Boarding Gate","year":"2007-05-18","translations":["Профессиональный (двухголосый закадровый)","Профессиональный (двухголосый закадровый) (CP Digital)","[EN] Original (English)"],"quality":"bd","translation":"Профессиональный (двухголосый закадровый)","update":"2021-06-07 10:31:49","iframe_src":"//24213.svetacdn.in/71tsRs29n5tZ/movie/18839"},{"id":4590,"title":"Транзит","kp_id":"464424","imdb_id":"tt1059836","world_art_id":null,"type":"movie","add":"2016-08-21 15:10:28","orig_title":"Transit","year":"2012-01-03","translations":["Профессиональный (многоголосый закадровый)","Профессиональный (двухголосый закадровый)","[EN] Original (English)"],"quality":"bd","translation":"Профессиональный (многоголосый закадровый)","update":"2021-06-07 10:55:57","iframe_src":"//24213.svetacdn.in/71tsRs29n5tZ/movie/4590"}],"current_page":676,"first_page_url":"https://videocdn.tv/api/short?limit=100&api_token=EnbO9h8pv1VyjbCJhg0WM9nG259n7mtz&cache3676=3676&page=1","from":67501,"last_page":729,"last_page_url":"https://videocdn.tv/api/short?limit=100&api_token=EnbO9h8pv1VyjbCJhg0WM9nG259n7mtz&cache3676=3676&page=729","next_page_url":"https://videocdn.tv/api/short?limit=100&api_token=EnbO9h8pv1VyjbCJhg0WM9nG259n7mtz&cache3676=3676&page=677","path":"https://videocdn.tv/api/short","per_page":100,"prev_page_url":"https://videocdn.tv/api/short?limit=100&api_token=EnbO9h8pv1VyjbCJhg0WM9nG259n7mtz&cache3676=3676&page=675","to":67520,"total":72802}