{"result":true,"data":[{"id":43792,"title":"Табу","kp_id":"1237557","imdb_id":"tt9091638","world_art_id":null,"type":"movie","add":"2020-09-23 15:02:39","orig_title":"Tabu: Mengusik Gerbang Iblis","year":"2019-01-24","translations":["Любительский (двухголосый закадровый) (Колобок)"],"quality":"webdl","translation":"Любительский (двухголосый закадровый) (Колобок)","update":"2020-09-23 18:52:43","iframe_src":"//83.svetacdn.in/PfJ50H0ZBPg3/movie/43792"},{"id":43791,"title":"Только по любви","kp_id":"1156814","imdb_id":"tt8438438","world_art_id":null,"type":"movie","add":"2020-09-23 15:00:36","orig_title":"Solo el Amor","year":"2018-10-25","translations":["Любительский (многоголосый закадровый) (Синема УС)"],"quality":"webdl","translation":"Любительский (многоголосый закадровый) (Синема УС)","update":"2020-09-23 18:51:23","iframe_src":"//83.svetacdn.in/PfJ50H0ZBPg3/movie/43791"},{"id":43790,"title":"Август в Мадриде","kp_id":"1144049","imdb_id":"tt8343886","world_art_id":null,"type":"movie","add":"2020-09-23 14:58:19","orig_title":"La virgen de agosto","year":"2019-07-01","translations":["Любительский (многоголосый закадровый) (Синема УС)"],"quality":"webdl","translation":"Любительский (многоголосый закадровый) (Синема УС)","update":"2020-09-23 19:01:08","iframe_src":"//83.svetacdn.in/PfJ50H0ZBPg3/movie/43790"},{"id":43789,"title":"Развратницы-скауты и резня зомби","kp_id":null,"imdb_id":"tt8175920","world_art_id":null,"type":"movie","add":"2020-09-23 14:52:52","orig_title":"Ghoul Scout Zombie Massacre","year":"2018-05-01","translations":["Любительский (многоголосый закадровый) (Синема УС)"],"quality":"webdl","translation":"Любительский (многоголосый закадровый) (Синема УС)","update":"2020-09-23 19:24:37","iframe_src":"//83.svetacdn.in/PfJ50H0ZBPg3/movie/43789"},{"id":43788,"title":"Я не могу быть с тобой","kp_id":"1084037","imdb_id":"tt7141148","world_art_id":null,"type":"movie","add":"2020-09-23 14:50:27","orig_title":"Can't Have You","year":"2018-01-01","translations":["Любительский (многоголосый закадровый) (AlphaProject)"],"quality":"webdl","translation":"Любительский (многоголосый закадровый) (AlphaProject)","update":"2020-09-23 18:54:10","iframe_src":"//83.svetacdn.in/PfJ50H0ZBPg3/movie/43788"},{"id":43786,"title":"Лифт уходит по расписанию","kp_id":"94980","imdb_id":"tt0389109","world_art_id":null,"type":"movie","add":"2020-09-23 14:38:36","orig_title":"Lift ukhodit po raspisaniyu","year":"1999-01-01","translations":["Оригинальная дорожка"],"quality":"dvdrip","translation":"Оригинальная дорожка","update":"2020-09-23 18:40:14","iframe_src":"//83.svetacdn.in/PfJ50H0ZBPg3/movie/43786"},{"id":43785,"title":"Падение западной цивилизации 2: Года металла","kp_id":"21803","imdb_id":"tt0094980","world_art_id":null,"type":"movie","add":"2020-09-23 09:05:03","orig_title":"The Decline of Western Civilization Part II: The Metal Years","year":"1988-06-17","translations":["Авторский (одноголосый закадровый) (Горчаков Василий)"],"quality":"dvdrip","translation":"Авторский (одноголосый закадровый) (Горчаков Василий)","update":"2020-09-23 18:49:50","iframe_src":"//83.svetacdn.in/PfJ50H0ZBPg3/movie/43785"},{"id":43784,"title":"Содержание скотины","kp_id":"160322","imdb_id":"tt0055441","world_art_id":null,"type":"movie","add":"2020-09-23 08:59:33","orig_title":"Shiiku","year":"1961-11-22","translations":["Любительский (одноголосый закадровый)"],"quality":"dvdrip","translation":"Любительский (одноголосый закадровый)","update":"2020-09-23 14:32:14","iframe_src":"//83.svetacdn.in/PfJ50H0ZBPg3/movie/43784"},{"id":43783,"title":"Воспитание Риты","kp_id":"6801","imdb_id":"tt0085478","world_art_id":null,"type":"movie","add":"2020-09-23 07:06:02","orig_title":"Educating Rita","year":"1983-06-16","translations":["Авторский (одноголосый закадровый) (Иванов Михаил)"],"quality":"bd","translation":"Авторский (одноголосый закадровый) (Иванов Михаил)","update":"2020-09-23 08:14:21","iframe_src":"//83.svetacdn.in/PfJ50H0ZBPg3/movie/43783"},{"id":43767,"title":"Одичавший мир","kp_id":"1279950","imdb_id":"tt9542116","world_art_id":null,"type":"movie","add":"2020-09-22 18:49:24","orig_title":"A Feral World","year":"2020-09-22","translations":["Любительский (многоголосый закадровый) (AlphaProject)"],"quality":"webdl","translation":"Любительский (многоголосый закадровый) (AlphaProject)","update":"2020-09-24 05:38:06","iframe_src":"//83.svetacdn.in/PfJ50H0ZBPg3/movie/43767"},{"id":43752,"title":"Окей! Мадам","kp_id":"1209192","imdb_id":"tt12572792","world_art_id":null,"type":"movie","add":"2020-09-22 14:08:26","orig_title":"Ok! Madam","year":"2020-08-12","translations":["Любительский (двухголосый закадровый) (Колобок)"],"quality":"webdl","translation":"Любительский (двухголосый закадровый) (Колобок)","update":"2020-09-23 12:03:47","iframe_src":"//83.svetacdn.in/PfJ50H0ZBPg3/movie/43752"},{"id":43688,"title":"Черная радуга","kp_id":"9578","imdb_id":"tt0099143","world_art_id":null,"type":"movie","add":"2020-09-20 15:30:52","orig_title":"Black Rainbow","year":"1989-10-06","translations":["Авторский (одноголосый закадровый) (Дохалов Вартан)","Авторский (одноголосый закадровый) (Визгунов Сергей)","Original (English)","Профессиональный (многоголосый закадровый)"],"quality":"bd","translation":"Авторский (одноголосый закадровый) (Дохалов Вартан)","update":"2020-09-23 12:22:20","iframe_src":"//83.svetacdn.in/PfJ50H0ZBPg3/movie/43688"},{"id":43492,"title":"Тайный план","kp_id":"2969","imdb_id":"tt0099768","world_art_id":null,"type":"movie","add":"2020-09-13 19:52:20","orig_title":"Hidden Agenda","year":"1990-05-16","translations":["Original (English)","Профессиональный (двухголосый закадровый) (НТВ)"],"quality":"bd","translation":"Original (English)","update":"2020-09-23 12:07:41","iframe_src":"//83.svetacdn.in/PfJ50H0ZBPg3/movie/43492"},{"id":42982,"title":"Финес и Ферб: Кэндис против Вселенной","kp_id":"577532","imdb_id":"tt1817232","world_art_id":null,"type":"movie","add":"2020-08-31 16:57:11","orig_title":"Phineas and Ferb the Movie: Candace Against the Universe","year":"2020-08-28","translations":["Original (English)","Любительский (многоголосый закадровый) (@MUZOBOZ@)","Профессиональный (многоголосый закадровый) (Flarrow Films)"],"quality":"webdl","translation":"Original (English)","update":"2020-09-24 08:19:04","iframe_src":"//83.svetacdn.in/PfJ50H0ZBPg3/movie/42982"},{"id":19056,"title":"Лето шестьдесят седьмого","kp_id":"1084268","imdb_id":"tt6536668","world_art_id":null,"type":"movie","add":"2018-09-18 21:42:06","orig_title":"Summer of '67","year":"2018-06-29","translations":["Любительский (многоголосый закадровый) (Синема УС)","Профессиональный (многоголосый закадровый) (HDrezka Studio)"],"quality":"webdl","translation":"Любительский (многоголосый закадровый) (Синема УС)","update":"2020-09-23 08:54:15","iframe_src":"//83.svetacdn.in/PfJ50H0ZBPg3/movie/19056"},{"id":18984,"title":"Хищник","kp_id":"840829","imdb_id":"tt3829266","world_art_id":null,"type":"movie","add":"2018-09-14 18:32:48","orig_title":"The Predator","year":"2018-09-07","translations":["Любительский (многоголосый закадровый) (@MUZOBOZ@)","Профессиональный (многоголосый закадровый) (HDrezka Studio)","Профессиональный (двухголосый закадровый) (iTunes)","Полное дублирование","Original (English)","Профессиональный (многоголосый закадровый) (HDrezka Studio)"],"quality":"hdtv","translation":"Любительский (многоголосый закадровый) (@MUZOBOZ@)","update":"2020-09-24 09:17:48","iframe_src":"//83.svetacdn.in/PfJ50H0ZBPg3/movie/18984"},{"id":1138,"title":"Bсе началось в Харбине","kp_id":"731699","imdb_id":"tt2878764","world_art_id":null,"type":"serial","add":"2017-03-23 08:31:58","orig_title":"Vse nachalos v Kharbine","year":"2013-05-06","translations":["Оригинальная дорожка"],"seasons_count":1,"episodes_count":8,"episodes":8,"update":"2017-03-23 17:24:13","iframe_src":"//83.svetacdn.in/PfJ50H0ZBPg3/tv-series/1138"},{"id":1136,"title":"Печали – радости Надежды","kp_id":"592365","imdb_id":null,"world_art_id":null,"type":"serial","add":"2017-03-23 08:27:51","orig_title":"Печали – радости Надежды","year":"2011-01-01","translations":["Оригинальная дорожка"],"seasons_count":1,"episodes_count":4,"episodes":4,"update":"2017-03-24 15:07:31","iframe_src":"//83.svetacdn.in/PfJ50H0ZBPg3/tv-series/1136"},{"id":1132,"title":"Дом без выхода","kp_id":"494437","imdb_id":null,"world_art_id":null,"type":"serial","add":"2017-03-21 09:32:43","orig_title":"Дом без выхода","year":"2010-01-20","translations":["Оригинальная дорожка"],"seasons_count":1,"episodes_count":1,"episodes":1,"update":"2017-03-22 16:16:12","iframe_src":"//83.svetacdn.in/PfJ50H0ZBPg3/tv-series/1132"},{"id":1130,"title":"Спецотряд «Шторм»","kp_id":"788168","imdb_id":null,"world_art_id":null,"type":"serial","add":"2017-03-21 09:12:51","orig_title":"Спецотряд «Шторм»","year":"2013-11-16","translations":["Оригинальная дорожка"],"seasons_count":1,"episodes_count":16,"episodes":16,"update":"2017-03-21 15:50:59","iframe_src":"//83.svetacdn.in/PfJ50H0ZBPg3/tv-series/1130"},{"id":1129,"title":"Охота на Берию","kp_id":"425958","imdb_id":"tt2839532","world_art_id":null,"type":"serial","add":"2017-03-21 08:49:59","orig_title":"Aleksandrovskiy sad 3. Okhota na Beriyu","year":"2008-03-05","translations":["Оригинальная дорожка"],"seasons_count":1,"episodes_count":9,"episodes":9,"update":"2017-03-22 06:07:09","iframe_src":"//83.svetacdn.in/PfJ50H0ZBPg3/tv-series/1129"},{"id":1128,"title":"Хиллтоп. Больница на Холме","kp_id":"601838","imdb_id":"tt0215418","world_art_id":null,"type":"serial","add":"2017-03-21 08:44:46","orig_title":"Hilltop Hospital","year":"1999-09-27","translations":["Полное дублирование"],"seasons_count":1,"episodes_count":52,"episodes":52,"update":"2017-03-23 13:15:59","iframe_src":"//83.svetacdn.in/PfJ50H0ZBPg3/tv-series/1128"},{"id":1126,"title":"Парфюмерша 2","kp_id":"1008635","imdb_id":null,"world_art_id":null,"type":"serial","add":"2017-03-21 05:29:11","orig_title":"Парфюмерша 2","year":"2017-03-18","translations":["Оригинальная дорожка"],"seasons_count":1,"episodes_count":4,"episodes":4,"update":"2017-03-22 05:52:15","iframe_src":"//83.svetacdn.in/PfJ50H0ZBPg3/tv-series/1126"},{"id":1125,"title":"Парфюмерша","kp_id":"779980","imdb_id":"tt3806798","world_art_id":null,"type":"serial","add":"2017-03-21 05:25:51","orig_title":"Parfumersha","year":"2014-02-03","translations":["Оригинальная дорожка"],"seasons_count":1,"episodes_count":8,"episodes":8,"update":"2017-03-22 05:30:35","iframe_src":"//83.svetacdn.in/PfJ50H0ZBPg3/tv-series/1125"},{"id":1124,"title":"Брачные игры","kp_id":"1026110","imdb_id":null,"world_art_id":null,"type":"serial","add":"2017-03-21 05:22:57","orig_title":"Брачные игры","year":"2017-03-11","translations":["Оригинальная дорожка"],"seasons_count":1,"episodes_count":2,"episodes":2,"update":"2017-03-22 05:13:20","iframe_src":"//83.svetacdn.in/PfJ50H0ZBPg3/tv-series/1124"},{"id":1123,"title":"Вера","kp_id":"1026224","imdb_id":null,"world_art_id":null,"type":"serial","add":"2017-03-21 05:20:51","orig_title":"Вера","year":"2017-03-12","translations":["Оригинальная дорожка"],"seasons_count":1,"episodes_count":2,"episodes":2,"update":"2017-03-22 05:09:59","iframe_src":"//83.svetacdn.in/PfJ50H0ZBPg3/tv-series/1123"},{"id":1122,"title":"Родное сердце","kp_id":"1039202","imdb_id":null,"world_art_id":null,"type":"serial","add":"2017-03-21 05:16:16","orig_title":"Родное сердце","year":"2017-03-19","translations":["Оригинальная дорожка"],"seasons_count":1,"episodes_count":2,"episodes":2,"update":"2017-03-22 05:06:34","iframe_src":"//83.svetacdn.in/PfJ50H0ZBPg3/tv-series/1122"},{"id":1121,"title":"Напрасные надежды","kp_id":"1039201","imdb_id":null,"world_art_id":null,"type":"serial","add":"2017-03-21 05:13:32","orig_title":"Напрасные надежды","year":"2017-03-18","translations":["Оригинальная дорожка"],"seasons_count":1,"episodes_count":2,"episodes":2,"update":"2017-03-22 05:01:20","iframe_src":"//83.svetacdn.in/PfJ50H0ZBPg3/tv-series/1121"},{"id":1120,"title":"Должок","kp_id":"1007965","imdb_id":null,"world_art_id":null,"type":"serial","add":"2017-03-21 05:11:02","orig_title":"Должок","year":"2017-03-19","translations":["Оригинальная дорожка"],"seasons_count":1,"episodes_count":2,"episodes":2,"update":"2017-03-22 04:57:54","iframe_src":"//83.svetacdn.in/PfJ50H0ZBPg3/tv-series/1120"},{"id":1113,"title":"Королева красоты","kp_id":"922200","imdb_id":null,"world_art_id":null,"type":"serial","add":"2017-03-15 07:05:33","orig_title":"Королева красоты","year":"2015-10-26","translations":["Оригинальная дорожка"],"seasons_count":1,"episodes_count":12,"episodes":12,"update":"2017-03-22 16:17:03","iframe_src":"//83.svetacdn.in/PfJ50H0ZBPg3/tv-series/1113"},{"id":1105,"title":"Тихая охота","kp_id":"771391","imdb_id":"tt3765952","world_art_id":null,"type":"serial","add":"2017-03-14 13:29:54","orig_title":"Tikhaya okhota","year":"2014-05-01","translations":["Оригинальная дорожка"],"seasons_count":1,"episodes_count":30,"episodes":30,"update":"2017-03-17 12:25:13","iframe_src":"//83.svetacdn.in/PfJ50H0ZBPg3/tv-series/1105"},{"id":1104,"title":"Хроники Эйфелевой башни","kp_id":"372217","imdb_id":"tt0469791","world_art_id":null,"type":"serial","add":"2017-03-14 08:00:33","orig_title":"La légende vraie de la tour Eiffe","year":"2005-12-18","translations":["Профессиональный (многоголосый закадровый)"],"seasons_count":1,"episodes_count":2,"episodes":2,"update":"2017-03-17 06:02:41","iframe_src":"//83.svetacdn.in/PfJ50H0ZBPg3/tv-series/1104"},{"id":1103,"title":"Слуга. Правдивая история Пан-джа","kp_id":"905018","imdb_id":"tt3591270","world_art_id":null,"type":"serial","add":"2017-03-14 07:53:24","orig_title":"Bang-ja Chronicles","year":"2011-11-05","translations":["Любительский (многоголосый закадровый) (GREEN TEA)"],"seasons_count":1,"episodes_count":4,"episodes":4,"update":"2017-03-17 05:38:00","iframe_src":"//83.svetacdn.in/PfJ50H0ZBPg3/tv-series/1103"},{"id":1102,"title":"Тест на любовь","kp_id":"808626","imdb_id":null,"world_art_id":null,"type":"serial","add":"2017-03-14 07:50:22","orig_title":"Тест на любовь","year":"2013-11-24","translations":["Оригинальная дорожка"],"seasons_count":1,"episodes_count":4,"episodes":4,"update":"2017-03-17 05:20:13","iframe_src":"//83.svetacdn.in/PfJ50H0ZBPg3/tv-series/1102"},{"id":1100,"title":"Узник замка Иф","kp_id":"42549","imdb_id":"tt0096356","world_art_id":null,"type":"serial","add":"2017-03-14 07:42:20","orig_title":"Uznik zamka If","year":"1989-02-01","translations":["Оригинальная дорожка"],"seasons_count":1,"episodes_count":3,"episodes":3,"update":"2017-03-19 13:31:52","iframe_src":"//83.svetacdn.in/PfJ50H0ZBPg3/tv-series/1100"},{"id":1063,"title":"Египтус","kp_id":"952934","imdb_id":"tt4332766","world_art_id":null,"type":"serial","add":"2017-03-01 09:23:24","orig_title":"Egyxos","year":"2015-02-22","translations":["Полное дублирование"],"seasons_count":1,"episodes_count":26,"episodes":26,"update":"2017-03-17 13:24:01","iframe_src":"//83.svetacdn.in/PfJ50H0ZBPg3/tv-series/1063"},{"id":6718,"title":"Утешение чужаков","kp_id":"6909","imdb_id":"tt0099292","world_art_id":null,"type":"movie","add":"2016-10-27 05:12:04","orig_title":"The Comfort of Strangers","year":"1990-09-01","translations":["Профессиональный (двухголосый закадровый)","Авторский (одноголосый закадровый) (Либергал Григорий)","Original (English)","Профессиональный (двухголосый закадровый) (НТВ)","Профессиональный (многоголосый закадровый) (5-й канал СПб)"],"quality":"hdtv","translation":"Профессиональный (двухголосый закадровый)","update":"2020-09-23 12:17:04","iframe_src":"//83.svetacdn.in/PfJ50H0ZBPg3/movie/6718"},{"id":6271,"title":"Сказки с темной стороны","kp_id":"5940","imdb_id":"tt0100740","world_art_id":null,"type":"movie","add":"2016-10-13 16:09:10","orig_title":"Tales from the Darkside: The Movie","year":"1990-05-04","translations":["Любительский (одноголосый закадровый)","Профессиональный (многоголосый закадровый) (ТВ3)","Авторский (одноголосый закадровый) (Дохалов Вартан)","Авторский (одноголосый закадровый) (Иванов Михаил)","Авторский (одноголосый закадровый) (Кузнецов Сергей)","Авторский (одноголосый закадровый) (Сербин Юрий)","Original (English)","Профессиональный (двухголосый закадровый) (РТР | Россия)","Профессиональный (многоголосый закадровый) (ТВ3)"],"quality":"hdtv","translation":"Любительский (одноголосый закадровый)","update":"2020-09-24 08:22:13","iframe_src":"//83.svetacdn.in/PfJ50H0ZBPg3/movie/6271"},{"id":5805,"title":"Погоня","kp_id":"1724","imdb_id":"tt0109402","world_art_id":null,"type":"movie","add":"2016-10-04 05:59:57","orig_title":"The Chase","year":"1994-03-04","translations":["Профессиональный (многоголосый закадровый)","Авторский (одноголосый закадровый) (Михалёв Алексей)","Original (English)","Профессиональный (многоголосый закадровый)","Профессиональный (многоголосый закадровый) (Невафильм | Нева-1)"],"quality":"hdtv","translation":"Профессиональный (многоголосый закадровый)","update":"2020-09-23 12:54:49","iframe_src":"//83.svetacdn.in/PfJ50H0ZBPg3/movie/5805"},{"id":1932,"title":"Славные парни","kp_id":"350","imdb_id":"tt0099685","world_art_id":null,"type":"movie","add":"2016-05-07 08:32:13","orig_title":"Goodfellas","year":"1990-09-11","translations":["Полное дублирование","Original (English)","Авторский (одноголосый закадровый) (Гоблин | Пучков Дмитрий)","Original (English)","Профессиональный (двухголосый закадровый) (Кубик в Кубе)","Авторский (одноголосый закадровый) (Чадов Михаил)","Авторский (одноголосый закадровый) (Гаевский Евгений)","Авторский (одноголосый закадровый) (Гаврилов Андрей)","Авторский (одноголосый закадровый) (Горчаков Василий)","Авторский (одноголосый закадровый) (Михалёв Алексей)","Авторский (одноголосый закадровый) (Прямостанов Павел)","Авторский (одноголосый закадровый) (Живов Юрий)","Полное дублирование (Варус-Видео)","Профессиональный (двухголосый закадровый) (Гланц + Королёва)","Профессиональный (многоголосый закадровый) (НТВ)","Профессиональный (многоголосый закадровый) (ТНТ)"],"quality":"bd","translation":"Полное дублирование","update":"2020-09-23 13:06:37","iframe_src":"//83.svetacdn.in/PfJ50H0ZBPg3/movie/1932"}],"current_page":500,"first_page_url":"https://videocdn.tv/api/short?limit=100&api_token=RgFQdUIR2dRmwv8iYa5SnFNgnw3vpjKj&cache3500=3500&page=1","from":49901,"last_page":633,"last_page_url":"https://videocdn.tv/api/short?limit=100&api_token=RgFQdUIR2dRmwv8iYa5SnFNgnw3vpjKj&cache3500=3500&page=633","next_page_url":"https://videocdn.tv/api/short?limit=100&api_token=RgFQdUIR2dRmwv8iYa5SnFNgnw3vpjKj&cache3500=3500&page=501","path":"https://videocdn.tv/api/short","per_page":100,"prev_page_url":"https://videocdn.tv/api/short?limit=100&api_token=RgFQdUIR2dRmwv8iYa5SnFNgnw3vpjKj&cache3500=3500&page=499","to":49940,"total":63281}