{"result":true,"data":[{"id":53950,"title":"Адское наследие","kp_id":"415063","imdb_id":"tt1235059","world_art_id":null,"type":"movie","add":"2021-10-18 09:05:46","orig_title":"Bundy: An American Icon","year":"2009-07-21","translations":["Профессиональный (многоголосый закадровый) (ТНТ)"],"quality":"sat","translation":"Профессиональный (многоголосый закадровый) (ТНТ)","update":"2021-10-18 09:34:38","iframe_src":"//7741.svetacdn.in/IAF0wWTdNYZm/movie/53950"},{"id":53945,"title":"Путешествие в Зундевит","kp_id":"464985","imdb_id":"tt0060889","world_art_id":null,"type":"movie","add":"2021-10-18 05:57:18","orig_title":"Die Reise nach Sundevit","year":"1966-05-20","translations":["Авторский (одноголосый закадровый) (Муравский Юрий)"],"quality":"webdl","translation":"Авторский (одноголосый закадровый) (Муравский Юрий)","update":"2021-10-18 08:58:46","iframe_src":"//7741.svetacdn.in/IAF0wWTdNYZm/movie/53945"},{"id":53919,"title":"Калеб","kp_id":"1141470","imdb_id":"tt8074128","world_art_id":null,"type":"movie","add":"2021-10-17 19:38:45","orig_title":"Caleb","year":"2021-09-07","translations":["Любительский (многоголосый закадровый) (AlphaProject)"],"quality":"bd","translation":"Любительский (многоголосый закадровый) (AlphaProject)","update":"2021-10-18 07:42:40","iframe_src":"//7741.svetacdn.in/IAF0wWTdNYZm/movie/53919"},{"id":53918,"title":"Фанатка","kp_id":"1312418","imdb_id":"tt11091664","world_art_id":null,"type":"movie","add":"2021-10-17 16:41:11","orig_title":"Fan Girl","year":"2020-10-31","translations":["Любительский (многоголосый закадровый) (Синема УС)"],"quality":"webdl","translation":"Любительский (многоголосый закадровый) (Синема УС)","update":"2021-10-18 07:44:26","iframe_src":"//7741.svetacdn.in/IAF0wWTdNYZm/movie/53918"},{"id":53917,"title":"Горстка друзей","kp_id":"1344703","imdb_id":"tt11476718","world_art_id":null,"type":"movie","add":"2021-10-17 16:17:15","orig_title":"Un pugno di amici","year":"2020-01-01","translations":["Любительский (многоголосый закадровый) (AlphaProject)"],"quality":"webdl","translation":"Любительский (многоголосый закадровый) (AlphaProject)","update":"2021-10-18 07:44:53","iframe_src":"//7741.svetacdn.in/IAF0wWTdNYZm/movie/53917"},{"id":53915,"title":"День разрушения","kp_id":"1411674","imdb_id":"tt12765462","world_art_id":null,"type":"movie","add":"2021-10-17 15:50:33","orig_title":"The Day of Destruction","year":"2020-07-24","translations":["Любительский (многоголосый закадровый) (Синема УС)"],"quality":"bd","translation":"Любительский (многоголосый закадровый) (Синема УС)","update":"2021-10-18 07:43:43","iframe_src":"//7741.svetacdn.in/IAF0wWTdNYZm/movie/53915"},{"id":53906,"title":"Колдовской апрель","kp_id":"9283","imdb_id":"tt0101811","world_art_id":null,"type":"movie","add":"2021-10-17 07:46:35","orig_title":"Enchanted April","year":"1991-11-06","translations":["[EN] Original (English)","Авторский (одноголосый закадровый) (Михалёв Алексей)"],"quality":"webdl","translation":"[EN] Original (English)","update":"2021-10-18 06:35:53","iframe_src":"//7741.svetacdn.in/IAF0wWTdNYZm/movie/53906"},{"id":53905,"title":"Шоковый коридор","kp_id":"24212","imdb_id":"tt0057495","world_art_id":null,"type":"movie","add":"2021-10-17 07:32:43","orig_title":"Shock Corridor","year":"1963-09-11","translations":["[EN] Original (English)","Профессиональный (многоголосый закадровый) (5-й канал СПб)"],"quality":"bd","translation":"[EN] Original (English)","update":"2021-10-18 06:32:53","iframe_src":"//7741.svetacdn.in/IAF0wWTdNYZm/movie/53905"},{"id":53904,"title":"Ярость во время шторма","kp_id":"1011747","imdb_id":"tt6147716","world_art_id":null,"type":"movie","add":"2021-10-17 07:26:39","orig_title":"Da di long zhong","year":"1974-05-15","translations":["Авторский (одноголосый закадровый) (Багичев Алексей)"],"quality":"bd","translation":"Авторский (одноголосый закадровый) (Багичев Алексей)","update":"2021-10-18 06:37:59","iframe_src":"//7741.svetacdn.in/IAF0wWTdNYZm/movie/53904"},{"id":53880,"title":"Сиятельные трупы","kp_id":"15164","imdb_id":"tt0074262","world_art_id":null,"type":"movie","add":"2021-10-16 16:31:21","orig_title":"Cadaveri eccellenti","year":"1976-02-13","translations":["Любительский (одноголосый закадровый)","Профессиональный (многоголосый закадровый) (5-й канал СПб)","Полное дублирование (Мосфильм)"],"quality":"bd","translation":"Любительский (одноголосый закадровый)","update":"2021-10-18 07:10:23","iframe_src":"//7741.svetacdn.in/IAF0wWTdNYZm/movie/53880"},{"id":53879,"title":"Майя","kp_id":"1139983","imdb_id":"tt6779896","world_art_id":null,"type":"movie","add":"2021-10-16 16:26:47","orig_title":"Maya","year":"2017-01-01","translations":["Любительский (одноголосый закадровый)"],"quality":"webdl","translation":"Любительский (одноголосый закадровый)","update":"2021-10-18 07:14:25","iframe_src":"//7741.svetacdn.in/IAF0wWTdNYZm/movie/53879"},{"id":53878,"title":"Рожденный сражаться","kp_id":"32622","imdb_id":"tt0096970","world_art_id":null,"type":"movie","add":"2021-10-16 16:25:21","orig_title":"Nato per combattere","year":"1989-07-17","translations":["Авторский (одноголосый закадровый) (Багичев Алексей)"],"quality":"bd","translation":"Авторский (одноголосый закадровый) (Багичев Алексей)","update":"2021-10-18 07:12:38","iframe_src":"//7741.svetacdn.in/IAF0wWTdNYZm/movie/53878"},{"id":51489,"title":"Пассажир","kp_id":"1289658","imdb_id":"tt10731264","world_art_id":null,"type":"movie","add":"2021-06-30 19:49:02","orig_title":"Suraj Pe Mangal Bhari","year":"2020-11-15","translations":["Профессиональный (многоголосый закадровый) (ZEE TV)","Профессиональный (многоголосый закадровый) (ZEE TV)"],"quality":"webdl","translation":"Профессиональный (многоголосый закадровый) (ZEE TV)","update":"2021-10-18 06:21:05","iframe_src":"//7741.svetacdn.in/IAF0wWTdNYZm/movie/51489"},{"id":7996,"title":"Верю","kp_id":"690730","imdb_id":"tt4094968","world_art_id":null,"type":"serial","add":"2020-06-24 13:20:43","orig_title":"Veryu","year":"2012-07-16","translations":["Оригинальная дорожка"],"seasons_count":1,"episodes_count":8,"episodes":8,"update":"2020-06-24 21:28:40","iframe_src":"//7741.svetacdn.in/IAF0wWTdNYZm/tv-series/7996"},{"id":7995,"title":"Во саду ли, в огороде","kp_id":"723819","imdb_id":null,"world_art_id":null,"type":"serial","add":"2020-06-24 13:18:46","orig_title":"Во саду ли, в огороде","year":"2012-12-29","translations":["Оригинальная дорожка"],"seasons_count":1,"episodes_count":2,"episodes":2,"update":"2020-06-24 21:24:58","iframe_src":"//7741.svetacdn.in/IAF0wWTdNYZm/tv-series/7995"},{"id":7994,"title":"Была любовь","kp_id":"540646","imdb_id":"tt3323030","world_art_id":null,"type":"serial","add":"2020-06-24 13:16:18","orig_title":"Byla lyubov","year":"2010-09-27","translations":["Оригинальная дорожка"],"seasons_count":1,"episodes_count":16,"episodes":16,"update":"2020-06-24 21:23:52","iframe_src":"//7741.svetacdn.in/IAF0wWTdNYZm/tv-series/7994"},{"id":7993,"title":"Санта Лючия","kp_id":"693649","imdb_id":"tt4197448","world_art_id":null,"type":"serial","add":"2020-06-24 13:12:49","orig_title":"Santa Lyuchiya","year":"2012-07-30","translations":["Оригинальная дорожка"],"seasons_count":1,"episodes_count":8,"episodes":8,"update":"2020-06-24 21:16:03","iframe_src":"//7741.svetacdn.in/IAF0wWTdNYZm/tv-series/7993"},{"id":7992,"title":"Нечаянная радость","kp_id":"709429","imdb_id":null,"world_art_id":null,"type":"serial","add":"2020-06-24 13:10:54","orig_title":"Нечаянная радость","year":"2012-10-06","translations":["Оригинальная дорожка"],"seasons_count":1,"episodes_count":4,"episodes":4,"update":"2020-06-24 21:11:14","iframe_src":"//7741.svetacdn.in/IAF0wWTdNYZm/tv-series/7992"},{"id":7991,"title":"Берега","kp_id":"702738","imdb_id":"tt4428568","world_art_id":null,"type":"serial","add":"2020-06-24 13:08:35","orig_title":"Berega","year":"2013-02-23","translations":["Оригинальная дорожка"],"seasons_count":1,"episodes_count":8,"episodes":8,"update":"2020-06-24 21:09:09","iframe_src":"//7741.svetacdn.in/IAF0wWTdNYZm/tv-series/7991"},{"id":7990,"title":"Отпечаток любви","kp_id":"802391","imdb_id":"tt9494496","world_art_id":null,"type":"serial","add":"2020-06-24 13:06:08","orig_title":"Otpechatok lyubvi","year":"2013-10-05","translations":["Оригинальная дорожка"],"seasons_count":1,"episodes_count":4,"episodes":4,"update":"2020-06-24 21:05:52","iframe_src":"//7741.svetacdn.in/IAF0wWTdNYZm/tv-series/7990"},{"id":7978,"title":"Роковая музыка","kp_id":"295729","imdb_id":"tt0159914","world_art_id":null,"type":"serial","add":"2020-06-23 10:03:55","orig_title":"Soul Music","year":"1997-05-01","translations":["Профессиональный (многоголосый закадровый) (2x2)"],"seasons_count":1,"episodes_count":7,"episodes":7,"update":"2020-06-24 16:01:40","iframe_src":"//7741.svetacdn.in/IAF0wWTdNYZm/tv-series/7978"},{"id":7977,"title":"Расписание судеб","kp_id":"356652","imdb_id":"tt0984637","world_art_id":null,"type":"serial","add":"2020-06-23 09:59:09","orig_title":"Raspisanie sudeb","year":"2009-11-19","translations":["Оригинальная дорожка"],"seasons_count":1,"episodes_count":12,"episodes":12,"update":"2020-06-24 15:50:16","iframe_src":"//7741.svetacdn.in/IAF0wWTdNYZm/tv-series/7977"},{"id":7969,"title":"Параноик","kp_id":"989174","imdb_id":"tt5839454","world_art_id":null,"type":"serial","add":"2020-06-22 06:52:06","orig_title":"Paranoid","year":"2016-09-22","translations":["Любительский (одноголосый закадровый) (Project Web Mania)"],"seasons_count":1,"episodes_count":8,"episodes":8,"update":"2020-06-24 19:00:17","iframe_src":"//7741.svetacdn.in/IAF0wWTdNYZm/tv-series/7969"},{"id":7954,"title":"Зимнее Солнце","kp_id":"1007041","imdb_id":"tt7180934","world_art_id":null,"type":"serial","add":"2020-06-19 12:00:07","orig_title":"Kış Güneşi","year":"2016-02-23","translations":["Авторский (одноголосый закадровый) (Котова Ирина)"],"seasons_count":1,"episodes_count":18,"episodes":18,"update":"2020-06-24 17:49:55","iframe_src":"//7741.svetacdn.in/IAF0wWTdNYZm/tv-series/7954"},{"id":7953,"title":"Карлос","kp_id":"517982","imdb_id":"tt1321865","world_art_id":null,"type":"serial","add":"2020-06-19 10:30:28","orig_title":"Carlos","year":"2010-05-19","translations":["Профессиональный (многоголосый закадровый) (Первый канал | ОРТ)"],"seasons_count":1,"episodes_count":3,"episodes":3,"update":"2020-06-24 17:21:20","iframe_src":"//7741.svetacdn.in/IAF0wWTdNYZm/tv-series/7953"},{"id":7862,"title":"Люби меня таким","kp_id":"793904","imdb_id":"tt2735500","world_art_id":null,"type":"serial","add":"2020-06-14 12:48:38","orig_title":"Beni Böyle Sev","year":"2013-02-11","translations":["Профессиональный (многоголосый закадровый) (Мобильное телевидение)"],"seasons_count":3,"episodes_count":89,"episodes":26,"update":"2020-06-24 16:49:21","iframe_src":"//7741.svetacdn.in/IAF0wWTdNYZm/tv-series/7862"},{"id":7840,"title":"В густом лесу","kp_id":"590631","imdb_id":"tt1910645","world_art_id":null,"type":"serial","add":"2020-06-12 12:10:01","orig_title":"The Woods","year":"2020-06-12","translations":["Любительский (многоголосый закадровый) (ColdFilm)","Любительский (многоголосый закадровый) (Octopus)","Профессиональный (двухголосый закадровый) (IdeaFilm)","Профессиональный (многоголосый закадровый) (NewStudio)","Профессиональный (двухголосый закадровый) (ViruseProject)"],"seasons_count":1,"episodes_count":6,"episodes":6,"update":"2020-06-24 15:29:30","iframe_src":"//7741.svetacdn.in/IAF0wWTdNYZm/tv-series/7840"},{"id":7519,"title":"Белые линии","kp_id":"1280210","imdb_id":"tt9073958","world_art_id":null,"type":"serial","add":"2020-05-15 10:04:52","orig_title":"White Lines","year":"2020-05-15","translations":["Любительский (многоголосый закадровый) (ColdFilm)","Полное дублирование (SDI Media | Iyuno-SDI Group Russia)","Любительский (многоголосый закадровый) (Octopus)","Профессиональный (многоголосый закадровый) (NewStudio)","Любительский (многоголосый закадровый) (Синема УС)"],"seasons_count":1,"episodes_count":10,"episodes":10,"update":"2020-06-24 15:24:36","iframe_src":"//7741.svetacdn.in/IAF0wWTdNYZm/tv-series/7519"},{"id":7436,"title":"Безжалостный","kp_id":"1326877","imdb_id":"tt11306366","world_art_id":null,"type":"serial","add":"2020-05-07 20:50:01","orig_title":"Ruthless","year":"2020-03-19","translations":["Любительский (многоголосый закадровый) (Octopus)"],"seasons_count":1,"episodes_count":12,"episodes":12,"update":"2020-06-24 14:24:28","iframe_src":"//7741.svetacdn.in/IAF0wWTdNYZm/tv-series/7436"},{"id":7348,"title":"Кодекс чести","kp_id":"414562","imdb_id":"tt3803976","world_art_id":null,"type":"serial","add":"2020-04-30 07:46:32","orig_title":"Kodeks chesti","year":"2002-02-01","translations":["Оригинальная дорожка"],"seasons_count":7,"episodes_count":133,"episodes":32,"update":"2020-06-24 17:04:03","iframe_src":"//7741.svetacdn.in/IAF0wWTdNYZm/tv-series/7348"},{"id":7199,"title":"Дьяволы","kp_id":"1186085","imdb_id":"tt7939218","world_art_id":null,"type":"serial","add":"2020-04-15 09:42:58","orig_title":"Devils","year":"2020-04-17","translations":["Любительский (многоголосый закадровый) (KerobTV)","Любительский (многоголосый закадровый) (Octopus)","Любительский (многоголосый закадровый) (ColdFilm)","Профессиональный (многоголосый закадровый) (Кравец)"],"seasons_count":1,"episodes_count":10,"episodes":10,"update":"2020-06-24 19:00:27","iframe_src":"//7741.svetacdn.in/IAF0wWTdNYZm/tv-series/7199"},{"id":37926,"title":"Банкротство","kp_id":"463796","imdb_id":"tt1135083","world_art_id":null,"type":"movie","add":"2020-03-13 09:31:14","orig_title":"Krach","year":"2010-09-01","translations":["Профессиональный (многоголосый закадровый)","Профессиональный (многоголосый закадровый) (НТВ)"],"quality":"hdrip","translation":"Профессиональный (многоголосый закадровый)","update":"2021-10-18 06:27:47","iframe_src":"//7741.svetacdn.in/IAF0wWTdNYZm/movie/37926"},{"id":33565,"title":"Текст","kp_id":"1234848","imdb_id":"tt10767426","world_art_id":null,"type":"movie","add":"2019-11-30 14:54:34","orig_title":"Tekst","year":"2019-10-24","translations":["Оригинальная дорожка"],"quality":"webdl","translation":"Оригинальная дорожка","update":"2021-10-18 08:03:05","iframe_src":"//7741.svetacdn.in/IAF0wWTdNYZm/movie/33565"},{"id":19245,"title":"Фрэнсис","kp_id":"5304","imdb_id":"tt0083967","world_art_id":null,"type":"movie","add":"2018-09-28 01:59:17","orig_title":"Frances","year":"1982-12-03","translations":["Полное дублирование","Профессиональный (двухголосый закадровый)","[EN] Original (English)","Полное дублирование (Мосфильм)"],"quality":"webdl","translation":"Полное дублирование","update":"2021-10-18 07:49:50","iframe_src":"//7741.svetacdn.in/IAF0wWTdNYZm/movie/19245"},{"id":1259,"title":"Спасите наши души","kp_id":"420320","imdb_id":"tt3622540","world_art_id":null,"type":"serial","add":"2017-05-21 06:33:19","orig_title":"Spasite nashi dushi","year":"2008-09-22","translations":["Оригинальная дорожка"],"seasons_count":1,"episodes_count":8,"episodes":8,"update":"2020-06-25 07:33:45","iframe_src":"//7741.svetacdn.in/IAF0wWTdNYZm/tv-series/1259"},{"id":10854,"title":"Эльвира: Повелительница тьмы 2","kp_id":"32061","imdb_id":"tt0265171","world_art_id":null,"type":"movie","add":"2017-04-10 14:20:52","orig_title":"Elvira's Haunted Hills","year":"2001-06-23","translations":["Профессиональный (многоголосый закадровый)","[EN] Original (English)","Профессиональный (многоголосый закадровый)"],"quality":"dvdrip","translation":"Профессиональный (многоголосый закадровый)","update":"2021-10-18 07:57:48","iframe_src":"//7741.svetacdn.in/IAF0wWTdNYZm/movie/10854"},{"id":7331,"title":"Взгляд изнутри","kp_id":"637","imdb_id":"tt0221073","world_art_id":null,"type":"movie","add":"2016-11-11 07:22:57","orig_title":"Chopper","year":"2000-08-03","translations":["Профессиональный (двухголосый закадровый)","[EN] Original (English)","Авторский (одноголосый закадровый) (Яроцкий Михаил | Kyberpunk)","Профессиональный (двухголосый закадровый)"],"quality":"dvdrip","translation":"Профессиональный (двухголосый закадровый)","update":"2021-10-18 07:26:45","iframe_src":"//7741.svetacdn.in/IAF0wWTdNYZm/movie/7331"},{"id":441,"title":"Вечность","kp_id":"823594","imdb_id":"tt3487382","world_art_id":null,"type":"serial","add":"2016-09-15 04:20:43","orig_title":"Forever","year":"2014-09-22","translations":["Профессиональный (многоголосый закадровый) (LostFilm)","Профессиональный (многоголосый закадровый) (AlexFilm)","Профессиональный (многоголосый закадровый) (TVShows)","Полное дублирование (ТВ3)","Профессиональный (многоголосый закадровый) (NewStudio)"],"seasons_count":1,"episodes_count":22,"episodes":22,"update":"2020-06-24 16:53:32","iframe_src":"//7741.svetacdn.in/IAF0wWTdNYZm/tv-series/441"},{"id":3655,"title":"Без изъяна","kp_id":"252502","imdb_id":"tt0780516","world_art_id":null,"type":"movie","add":"2016-07-04 10:03:49","orig_title":"Flawless","year":"2007-09-26","translations":["Профессиональный (многоголосый закадровый)","Любительский (двухголосый закадровый) (Электричка)","[EN] Original (English)","Профессиональный (многоголосый закадровый) (РТР | Россия)"],"quality":"bd","translation":"Профессиональный (многоголосый закадровый)","update":"2021-10-18 08:15:04","iframe_src":"//7741.svetacdn.in/IAF0wWTdNYZm/movie/3655"},{"id":1467,"title":"Дикая штучка","kp_id":"416199","imdb_id":"tt1235189","world_art_id":null,"type":"movie","add":"2016-04-21 15:29:41","orig_title":"Wild Target","year":"2010-04-08","translations":["Профессиональный (многоголосый закадровый)","[EN] Original (English)","Профессиональный (многоголосый закадровый) (Парадиз)"],"quality":"bd","translation":"Профессиональный (многоголосый закадровый)","update":"2021-10-18 06:24:44","iframe_src":"//7741.svetacdn.in/IAF0wWTdNYZm/movie/1467"}],"current_page":302,"first_page_url":"https://videocdn.tv/api/short?limit=100&api_token=6Onb1W1alEUrBcKJZD3GoKBbWyAl2uG2&cache3302=3302&page=1","from":30101,"last_page":708,"last_page_url":"https://videocdn.tv/api/short?limit=100&api_token=6Onb1W1alEUrBcKJZD3GoKBbWyAl2uG2&cache3302=3302&page=708","next_page_url":"https://videocdn.tv/api/short?limit=100&api_token=6Onb1W1alEUrBcKJZD3GoKBbWyAl2uG2&cache3302=3302&page=303","path":"https://videocdn.tv/api/short","per_page":100,"prev_page_url":"https://videocdn.tv/api/short?limit=100&api_token=6Onb1W1alEUrBcKJZD3GoKBbWyAl2uG2&cache3302=3302&page=301","to":30140,"total":70737}