{"result":true,"data":[{"id":24358,"title":"Фантазии Фарятьева","kp_id":"94828","imdb_id":"tt0169892","world_art_id":null,"type":"movie","add":"2019-04-11 21:43:17","orig_title":"Fantazii Faryateva","year":"1982-01-25","translations":["Оригинальная дорожка"],"quality":"dvdrip","translation":"Оригинальная дорожка","update":"2019-04-15 10:05:30","iframe_src":"//83.svetacdn.in/PfJ50H0ZBPg3/movie/24358"},{"id":24357,"title":"Евдокия","kp_id":"42454","imdb_id":"tt0175341","world_art_id":null,"type":"movie","add":"2019-04-11 21:41:52","orig_title":"Evdokiya","year":"1961-04-17","translations":["Оригинальная дорожка"],"quality":"dvdrip","translation":"Оригинальная дорожка","update":"2019-04-15 10:04:18","iframe_src":"//83.svetacdn.in/PfJ50H0ZBPg3/movie/24357"},{"id":24355,"title":"Если враг не сдается...","kp_id":"42449","imdb_id":"tt0084932","world_art_id":null,"type":"movie","add":"2019-04-11 21:36:14","orig_title":"Esli vrag ne sdayotsya...","year":"1983-10-31","translations":["Оригинальная дорожка"],"quality":"dvdrip","translation":"Оригинальная дорожка","update":"2019-04-15 10:02:05","iframe_src":"//83.svetacdn.in/PfJ50H0ZBPg3/movie/24355"},{"id":24354,"title":"Егорушка","kp_id":"496772","imdb_id":null,"world_art_id":null,"type":"movie","add":"2019-04-11 21:33:32","orig_title":"Егорушка","year":"2010-01-01","translations":["Оригинальная дорожка"],"quality":"dvdrip","translation":"Оригинальная дорожка","update":"2019-04-15 10:00:43","iframe_src":"//83.svetacdn.in/PfJ50H0ZBPg3/movie/24354"},{"id":24353,"title":"Действуй по обстановке!..","kp_id":"44115","imdb_id":"tt0087131","world_art_id":null,"type":"movie","add":"2019-04-11 21:30:03","orig_title":"Deystvuy po obstanovke!","year":"1985-04-29","translations":["Оригинальная дорожка"],"quality":"dvdrip","translation":"Оригинальная дорожка","update":"2019-04-15 09:59:46","iframe_src":"//83.svetacdn.in/PfJ50H0ZBPg3/movie/24353"},{"id":24352,"title":"Девочки","kp_id":"414693","imdb_id":"tt0899239","world_art_id":null,"type":"movie","add":"2019-04-11 21:28:33","orig_title":"Devochki","year":"2006-05-20","translations":["Оригинальная дорожка"],"quality":"dvdrip","translation":"Оригинальная дорожка","update":"2019-04-15 09:59:37","iframe_src":"//83.svetacdn.in/PfJ50H0ZBPg3/movie/24352"},{"id":24351,"title":"Девушка и море","kp_id":"757205","imdb_id":"tt5539484","world_art_id":null,"type":"movie","add":"2019-04-11 21:26:42","orig_title":"Devushka i more","year":"1981-01-01","translations":["Оригинальная дорожка"],"quality":"tv","translation":"Оригинальная дорожка","update":"2019-04-15 09:55:24","iframe_src":"//83.svetacdn.in/PfJ50H0ZBPg3/movie/24351"},{"id":24350,"title":"Черта с два","kp_id":"455454","imdb_id":"tt1726608","world_art_id":null,"type":"movie","add":"2019-04-11 21:24:43","orig_title":"Chyorta s dva","year":"2009-01-01","translations":["Оригинальная дорожка"],"quality":"dvdrip","translation":"Оригинальная дорожка","update":"2019-04-15 08:05:21","iframe_src":"//83.svetacdn.in/PfJ50H0ZBPg3/movie/24350"},{"id":24349,"title":"Аннушка","kp_id":"43503","imdb_id":"tt0052568","world_art_id":null,"type":"movie","add":"2019-04-11 21:21:24","orig_title":"Annushka","year":"1959-08-01","translations":["Оригинальная дорожка"],"quality":"sat","translation":"Оригинальная дорожка","update":"2019-04-15 08:05:16","iframe_src":"//83.svetacdn.in/PfJ50H0ZBPg3/movie/24349"},{"id":24348,"title":"Возмездие","kp_id":"45875","imdb_id":"tt0129562","world_art_id":null,"type":"movie","add":"2019-04-11 21:19:21","orig_title":"Vozmezdie","year":"1967-05-19","translations":["Оригинальная дорожка"],"quality":"dvdrip","translation":"Оригинальная дорожка","update":"2019-04-15 08:04:30","iframe_src":"//83.svetacdn.in/PfJ50H0ZBPg3/movie/24348"},{"id":24347,"title":"Белая кость","kp_id":"46058","imdb_id":"tt0094727","world_art_id":null,"type":"movie","add":"2019-04-11 21:16:46","orig_title":"Belaya kost","year":"1989-04-02","translations":["Оригинальная дорожка"],"quality":"dvdrip","translation":"Оригинальная дорожка","update":"2019-04-15 08:03:39","iframe_src":"//83.svetacdn.in/PfJ50H0ZBPg3/movie/24347"},{"id":24346,"title":"Жестокая любовь","kp_id":"511932","imdb_id":null,"world_art_id":null,"type":"movie","add":"2019-04-11 21:15:11","orig_title":"Жестокая любовь","year":"2010-04-30","translations":["Оригинальная дорожка"],"quality":"sat","translation":"Оригинальная дорожка","update":"2019-04-15 08:02:06","iframe_src":"//83.svetacdn.in/PfJ50H0ZBPg3/movie/24346"},{"id":24345,"title":"За кем замужем певица?","kp_id":"45175","imdb_id":"tt0096491","world_art_id":null,"type":"movie","add":"2019-04-11 21:13:31","orig_title":"Za kem zamuzhem pevitsa?","year":"1988-01-01","translations":["Оригинальная дорожка"],"quality":"dvdrip","translation":"Оригинальная дорожка","update":"2019-04-15 08:00:12","iframe_src":"//83.svetacdn.in/PfJ50H0ZBPg3/movie/24345"},{"id":24344,"title":"Жажда","kp_id":"45284","imdb_id":"tt0053466","world_art_id":null,"type":"movie","add":"2019-04-11 21:12:06","orig_title":"Zhazhda","year":"1960-02-02","translations":["Оригинальная дорожка"],"quality":"dvdrip","translation":"Оригинальная дорожка","update":"2019-04-15 07:58:45","iframe_src":"//83.svetacdn.in/PfJ50H0ZBPg3/movie/24344"},{"id":24343,"title":"Золотой эшелон","kp_id":"45385","imdb_id":"tt0178117","world_art_id":null,"type":"movie","add":"2019-04-11 21:10:13","orig_title":"Zolotoy eshelon","year":"1959-11-04","translations":["Оригинальная дорожка"],"quality":"dvdrip","translation":"Оригинальная дорожка","update":"2019-04-15 07:57:42","iframe_src":"//83.svetacdn.in/PfJ50H0ZBPg3/movie/24343"},{"id":24342,"title":"Русичи","kp_id":"409026","imdb_id":"tt1459055","world_art_id":null,"type":"movie","add":"2019-04-11 21:08:38","orig_title":"Rusichi","year":"2008-08-07","translations":["Оригинальная дорожка"],"quality":"bd","translation":"Оригинальная дорожка","update":"2019-04-15 07:57:16","iframe_src":"//83.svetacdn.in/PfJ50H0ZBPg3/movie/24342"},{"id":24341,"title":"Хроника пикирующего бомбардировщика","kp_id":"44800","imdb_id":"tt0175809","world_art_id":null,"type":"movie","add":"2019-04-11 21:06:51","orig_title":"Khronika pikiruyushchego bombardirovshchika","year":"1968-05-20","translations":["Оригинальная дорожка"],"quality":"dvdrip","translation":"Оригинальная дорожка","update":"2019-04-15 07:55:11","iframe_src":"//83.svetacdn.in/PfJ50H0ZBPg3/movie/24341"},{"id":24340,"title":"Украли зебру","kp_id":"413950","imdb_id":"tt5479602","world_art_id":null,"type":"movie","add":"2019-04-11 21:04:53","orig_title":"Ukrali zebru","year":"1972-12-30","translations":["Оригинальная дорожка"],"quality":"dvdrip","translation":"Оригинальная дорожка","update":"2019-04-15 07:54:31","iframe_src":"//83.svetacdn.in/PfJ50H0ZBPg3/movie/24340"},{"id":24339,"title":"Дела семейные","kp_id":"683017","imdb_id":"tt2614030","world_art_id":null,"type":"movie","add":"2019-04-11 21:03:06","orig_title":"Dela semeynye","year":"2012-01-01","translations":["Оригинальная дорожка"],"quality":"sat","translation":"Оригинальная дорожка","update":"2019-04-15 07:52:50","iframe_src":"//83.svetacdn.in/PfJ50H0ZBPg3/movie/24339"},{"id":24336,"title":"Обратный билет","kp_id":"712689","imdb_id":null,"world_art_id":null,"type":"movie","add":"2019-04-11 20:45:29","orig_title":"Обратный билет","year":"2012-10-21","translations":["Оригинальная дорожка"],"quality":"hdtv","translation":"Оригинальная дорожка","update":"2019-04-15 07:49:33","iframe_src":"//83.svetacdn.in/PfJ50H0ZBPg3/movie/24336"}],"current_page":1381,"first_page_url":"https://videocdn.tv/api/short?limit=100&api_token=RgFQdUIR2dRmwv8iYa5SnFNgnw3vpjKj&cache31381=31381&page=1","from":138001,"last_page":602,"last_page_url":"https://videocdn.tv/api/short?limit=100&api_token=RgFQdUIR2dRmwv8iYa5SnFNgnw3vpjKj&cache31381=31381&page=602","next_page_url":null,"path":"https://videocdn.tv/api/short","per_page":100,"prev_page_url":"https://videocdn.tv/api/short?limit=100&api_token=RgFQdUIR2dRmwv8iYa5SnFNgnw3vpjKj&cache31381=31381&page=1380","to":138020,"total":60136}