{"result":true,"data":[{"id":27640,"title":"Игра в желания","kp_id":"1248419","imdb_id":"tt10192308","world_art_id":null,"type":"movie","add":"2019-06-11 04:09:24","orig_title":"The Game of Desire","year":"2019-04-12","translations":["Любительский (многоголосый закадровый) (Колобок)"],"quality":"webdl","translation":"Любительский (многоголосый закадровый) (Колобок)","update":"2019-06-11 08:09:55","iframe_src":"//2413.svetacdn.in/IAF0wWTdNYZm/movie/27640"},{"id":27639,"title":"Дикий мёд","kp_id":"1026035","imdb_id":"tt6122306","world_art_id":null,"type":"movie","add":"2019-06-11 04:00:10","orig_title":"Wild Honey","year":"2017-10-27","translations":["Любительский (многоголосый закадровый) (Синема УС)"],"quality":"webdl","translation":"Любительский (многоголосый закадровый) (Синема УС)","update":"2019-06-11 08:02:38","iframe_src":"//2413.svetacdn.in/IAF0wWTdNYZm/movie/27639"},{"id":27635,"title":"Азиат","kp_id":"43569","imdb_id":"tt0312404","world_art_id":null,"type":"movie","add":"2019-06-10 22:47:38","orig_title":"Aziat","year":"1991-01-01","translations":["Оригинальная дорожка"],"quality":"webdl","translation":"Оригинальная дорожка","update":"2019-06-11 07:49:50","iframe_src":"//2413.svetacdn.in/IAF0wWTdNYZm/movie/27635"},{"id":27634,"title":"Включите северное сияние","kp_id":"45791","imdb_id":"tt0332492","world_art_id":null,"type":"movie","add":"2019-06-10 22:43:54","orig_title":"Vklyuchite severnoye siyaniye","year":"1972-08-27","translations":["Оригинальная дорожка"],"quality":"sat","translation":"Оригинальная дорожка","update":"2019-06-11 07:48:26","iframe_src":"//2413.svetacdn.in/IAF0wWTdNYZm/movie/27634"},{"id":27633,"title":"Государственный преступник","kp_id":"44592","imdb_id":"tt0166629","world_art_id":null,"type":"movie","add":"2019-06-10 22:40:22","orig_title":"Gosudarstvennyy prestupnik","year":"1964-11-09","translations":["Оригинальная дорожка"],"quality":"hdtv","translation":"Оригинальная дорожка","update":"2019-06-11 07:46:39","iframe_src":"//2413.svetacdn.in/IAF0wWTdNYZm/movie/27633"},{"id":27632,"title":"Дураки умирают по пятницам","kp_id":"44322","imdb_id":"tt0367685","world_art_id":null,"type":"movie","add":"2019-06-10 22:36:57","orig_title":"Duraki umirayut po pyatnitsam","year":"1990-01-01","translations":["Оригинальная дорожка"],"quality":"dvdrip","translation":"Оригинальная дорожка","update":"2019-06-11 07:45:16","iframe_src":"//2413.svetacdn.in/IAF0wWTdNYZm/movie/27632"},{"id":27631,"title":"За нами Москва","kp_id":"45178","imdb_id":"tt0348483","world_art_id":null,"type":"movie","add":"2019-06-10 22:33:41","orig_title":"Za nami Moskva","year":"1968-12-02","translations":["Оригинальная дорожка"],"quality":"webdl","translation":"Оригинальная дорожка","update":"2019-06-11 07:43:57","iframe_src":"//2413.svetacdn.in/IAF0wWTdNYZm/movie/27631"},{"id":27630,"title":"Мы – хлопцы живучие","kp_id":"490110","imdb_id":"tt1882114","world_art_id":null,"type":"movie","add":"2019-06-10 22:30:52","orig_title":"My - khloptsy zhivuchiye","year":"1974-01-01","translations":["Оригинальная дорожка"],"quality":"sat","translation":"Оригинальная дорожка","update":"2019-06-11 07:41:48","iframe_src":"//2413.svetacdn.in/IAF0wWTdNYZm/movie/27630"},{"id":27629,"title":"Аэроград","kp_id":"43418","imdb_id":"tt0026040","world_art_id":null,"type":"movie","add":"2019-06-10 17:53:15","orig_title":"Aerograd","year":"1935-11-06","translations":["Оригинальная дорожка"],"quality":"dvdrip","translation":"Оригинальная дорожка","update":"2019-06-11 07:32:56","iframe_src":"//2413.svetacdn.in/IAF0wWTdNYZm/movie/27629"},{"id":27628,"title":"Родина зовет","kp_id":"42105","imdb_id":"tt0128981","world_art_id":null,"type":"movie","add":"2019-06-10 17:47:49","orig_title":"Rodina zovyot","year":"1936-04-29","translations":["Оригинальная дорожка"],"quality":"dvdrip","translation":"Оригинальная дорожка","update":"2019-06-11 07:31:42","iframe_src":"//2413.svetacdn.in/IAF0wWTdNYZm/movie/27628"},{"id":27627,"title":"Волочаевские дни","kp_id":"45832","imdb_id":"tt0030949","world_art_id":null,"type":"movie","add":"2019-06-10 17:41:43","orig_title":"Volochayevskiye dni","year":"1938-01-20","translations":["Оригинальная дорожка"],"quality":"dvdrip","translation":"Оригинальная дорожка","update":"2019-06-11 07:58:11","iframe_src":"//2413.svetacdn.in/IAF0wWTdNYZm/movie/27627"},{"id":27626,"title":"Мужество","kp_id":"46743","imdb_id":"tt0031687","world_art_id":null,"type":"movie","add":"2019-06-10 17:37:18","orig_title":"Muzhestvo","year":"1939-08-16","translations":["Оригинальная дорожка"],"quality":"dvdrip","translation":"Оригинальная дорожка","update":"2019-06-11 07:28:02","iframe_src":"//2413.svetacdn.in/IAF0wWTdNYZm/movie/27626"},{"id":27625,"title":"Казаки","kp_id":"44748","imdb_id":"tt0174810","world_art_id":null,"type":"movie","add":"2019-06-10 17:29:58","orig_title":"Kazaki","year":"1961-08-14","translations":["Оригинальная дорожка"],"quality":"dvdrip","translation":"Оригинальная дорожка","update":"2019-06-11 07:26:08","iframe_src":"//2413.svetacdn.in/IAF0wWTdNYZm/movie/27625"},{"id":27624,"title":"Они шли на Восток","kp_id":"1641","imdb_id":"tt0059323","world_art_id":null,"type":"movie","add":"2019-06-10 17:23:29","orig_title":"Italiani brava gente","year":"1964-09-16","translations":["Профессиональный (одноголосый закадровый)"],"quality":"dvdrip","translation":"Профессиональный (одноголосый закадровый)","update":"2019-06-11 07:13:38","iframe_src":"//2413.svetacdn.in/IAF0wWTdNYZm/movie/27624"},{"id":27623,"title":"А вы любили когда-нибудь?","kp_id":"46778","imdb_id":"tt0147799","world_art_id":null,"type":"movie","add":"2019-06-10 17:09:21","orig_title":"...A vy lyubili kogda-nibud?","year":"1973-01-14","translations":["Оригинальная дорожка"],"quality":"dvdrip","translation":"Оригинальная дорожка","update":"2019-06-11 07:12:26","iframe_src":"//2413.svetacdn.in/IAF0wWTdNYZm/movie/27623"},{"id":27621,"title":"Ар-хи-ме-ды!","kp_id":"43516","imdb_id":"tt0072655","world_art_id":null,"type":"movie","add":"2019-06-10 16:58:57","orig_title":"Ar-khi-me-dy!","year":"1976-11-15","translations":["Оригинальная дорожка"],"quality":"dvdrip","translation":"Оригинальная дорожка","update":"2019-06-11 07:05:17","iframe_src":"//2413.svetacdn.in/IAF0wWTdNYZm/movie/27621"},{"id":27620,"title":"Бег от смерти","kp_id":"161026","imdb_id":"tt0312439","world_art_id":null,"type":"movie","add":"2019-06-10 16:55:30","orig_title":"Beg ot smerti","year":"1997-01-01","translations":["Оригинальная дорожка"],"quality":"dvdrip","translation":"Оригинальная дорожка","update":"2019-06-11 07:03:39","iframe_src":"//2413.svetacdn.in/IAF0wWTdNYZm/movie/27620"},{"id":27619,"title":"Дорога в чат","kp_id":"811291","imdb_id":null,"world_art_id":null,"type":"movie","add":"2019-06-10 16:52:06","orig_title":"Дорога в чат","year":"2014-03-22","translations":["Оригинальная дорожка"],"quality":"dvdrip","translation":"Оригинальная дорожка","update":"2019-06-11 07:02:47","iframe_src":"//2413.svetacdn.in/IAF0wWTdNYZm/movie/27619"},{"id":23928,"title":"...По прозвищу «Зверь»","kp_id":"46783","imdb_id":"tt0098958","world_art_id":null,"type":"movie","add":"2019-04-05 10:00:32","orig_title":"...Po prozvishchu 'Zver'","year":"1990-01-01","translations":["Оригинальная дорожка"],"quality":"hdtv","translation":"Оригинальная дорожка","update":"2019-06-11 07:39:16","iframe_src":"//2413.svetacdn.in/IAF0wWTdNYZm/movie/23928"},{"id":21784,"title":"Прошлым летом в Чулимске","kp_id":"797972","imdb_id":"tt6185664","world_art_id":null,"type":"movie","add":"2019-01-24 19:26:52","orig_title":"Proshlym letom v Chulimske","year":"2014-05-13","translations":["Оригинальная дорожка"],"quality":"webdl","translation":"Оригинальная дорожка","update":"2019-06-11 07:34:35","iframe_src":"//2413.svetacdn.in/IAF0wWTdNYZm/movie/21784"}],"current_page":1824,"first_page_url":"https://videocdn.tv/api/short?limit=100&api_token=6Onb1W1alEUrBcKJZD3GoKBbWyAl2uG2&cache31824=31824&page=1","from":182301,"last_page":719,"last_page_url":"https://videocdn.tv/api/short?limit=100&api_token=6Onb1W1alEUrBcKJZD3GoKBbWyAl2uG2&cache31824=31824&page=719","next_page_url":null,"path":"https://videocdn.tv/api/short","per_page":100,"prev_page_url":"https://videocdn.tv/api/short?limit=100&api_token=6Onb1W1alEUrBcKJZD3GoKBbWyAl2uG2&cache31824=31824&page=1823","to":182320,"total":71846}