{"result":true,"data":[{"id":28843,"title":"Тролли","kp_id":"1163619","imdb_id":"tt8498198","world_art_id":null,"type":"movie","add":"2019-07-09 21:48:38","orig_title":"Trolled","year":"2018-09-18","translations":["Любительский (многоголосый закадровый) (Синема УС)"],"quality":"webdl","translation":"Любительский (многоголосый закадровый) (Синема УС)","update":"2019-07-10 05:36:44","iframe_src":"//83.svetacdn.in/PfJ50H0ZBPg3/movie/28843"},{"id":28842,"title":"Бухгалтер Освенцима","kp_id":"1240322","imdb_id":"tt8148018","world_art_id":null,"type":"movie","add":"2019-07-09 21:46:56","orig_title":"The Accountant of Auschwitz","year":"2018-04-29","translations":["Любительский (многоголосый закадровый) (Синема УС)"],"quality":"webdl","translation":"Любительский (многоголосый закадровый) (Синема УС)","update":"2019-07-10 05:37:54","iframe_src":"//83.svetacdn.in/PfJ50H0ZBPg3/movie/28842"},{"id":28841,"title":"На дне","kp_id":"1036228","imdb_id":"tt6563012","world_art_id":null,"type":"movie","add":"2019-07-09 21:44:46","orig_title":"Saitei.","year":"2017-10-31","translations":["Любительский (многоголосый закадровый) (Синема УС)"],"quality":"bd","translation":"Любительский (многоголосый закадровый) (Синема УС)","update":"2019-07-10 06:04:46","iframe_src":"//83.svetacdn.in/PfJ50H0ZBPg3/movie/28841"},{"id":28840,"title":"История Бобби Дебаржа","kp_id":"1267669","imdb_id":"tt10371014","world_art_id":null,"type":"movie","add":"2019-07-09 21:42:30","orig_title":"The Bobby DeBarge Story","year":"2019-06-29","translations":["Любительский (многоголосый закадровый) (Синема УС)"],"quality":"hdtv","translation":"Любительский (многоголосый закадровый) (Синема УС)","update":"2019-07-10 05:23:21","iframe_src":"//83.svetacdn.in/PfJ50H0ZBPg3/movie/28840"},{"id":28839,"title":"С любовью, ваш Картик","kp_id":"1264251","imdb_id":"tt9890030","world_art_id":null,"type":"movie","add":"2019-07-09 21:40:28","orig_title":"Prematho Mee Karthik","year":"2017-11-17","translations":["Любительский (многоголосый закадровый) (Синема УС)"],"quality":"webdl","translation":"Любительский (многоголосый закадровый) (Синема УС)","update":"2019-07-10 06:05:52","iframe_src":"//83.svetacdn.in/PfJ50H0ZBPg3/movie/28839"},{"id":28838,"title":"Тайна 101: Притворщики","kp_id":"1271892","imdb_id":"tt10369966","world_art_id":null,"type":"movie","add":"2019-07-09 21:38:41","orig_title":"Mystery 101: Playing Dead","year":"2019-06-23","translations":["Любительский (многоголосый закадровый) (Синема УС)"],"quality":"hdtv","translation":"Любительский (многоголосый закадровый) (Синема УС)","update":"2019-07-10 05:24:30","iframe_src":"//83.svetacdn.in/PfJ50H0ZBPg3/movie/28838"},{"id":28836,"title":"Бухта Страха","kp_id":"1178147","imdb_id":"tt8748236","world_art_id":null,"type":"movie","add":"2019-07-09 21:30:46","orig_title":"Fear Bay","year":"2019-07-03","translations":["Любительский (многоголосый закадровый) (Синема УС)"],"quality":"webdl","translation":"Любительский (многоголосый закадровый) (Синема УС)","update":"2019-07-10 05:30:08","iframe_src":"//83.svetacdn.in/PfJ50H0ZBPg3/movie/28836"},{"id":28835,"title":"Путешествие сквозь сосны","kp_id":"1019045","imdb_id":"tt6151110","world_art_id":null,"type":"movie","add":"2019-07-09 21:28:53","orig_title":"A Journey Through Pines","year":"2017-10-06","translations":["Любительский (многоголосый закадровый) (Синема УС)"],"quality":"webdl","translation":"Любительский (многоголосый закадровый) (Синема УС)","update":"2019-07-10 06:12:45","iframe_src":"//83.svetacdn.in/PfJ50H0ZBPg3/movie/28835"},{"id":28834,"title":"13 могил","kp_id":"1059953","imdb_id":"tt7504496","world_art_id":null,"type":"movie","add":"2019-07-09 21:26:59","orig_title":"13 Graves","year":"2019-07-01","translations":["Любительский (многоголосый закадровый) (Синема УС)"],"quality":"webdl","translation":"Любительский (многоголосый закадровый) (Синема УС)","update":"2019-07-10 05:31:31","iframe_src":"//83.svetacdn.in/PfJ50H0ZBPg3/movie/28834"},{"id":28833,"title":"100%: Джулиан Эдельман","kp_id":null,"imdb_id":"tt10468872","world_art_id":null,"type":"movie","add":"2019-07-09 21:25:09","orig_title":"100%: Julian Edelman","year":"2019-06-27","translations":["Любительский (многоголосый закадровый) (Синема УС)"],"quality":"webdl","translation":"Любительский (многоголосый закадровый) (Синема УС)","update":"2019-07-10 05:33:02","iframe_src":"//83.svetacdn.in/PfJ50H0ZBPg3/movie/28833"},{"id":28788,"title":"Жениться в 24 часа","kp_id":"596085","imdb_id":"tt6336626","world_art_id":null,"type":"movie","add":"2019-07-09 08:04:43","orig_title":"Zhenitsya v 24 chasa","year":"2004-01-01","translations":["Оригинальная дорожка"],"quality":"dvb","translation":"Оригинальная дорожка","update":"2019-07-10 06:29:12","iframe_src":"//83.svetacdn.in/PfJ50H0ZBPg3/movie/28788"},{"id":28787,"title":"Конец операции «Резидент»","kp_id":"44898","imdb_id":"tt0266702","world_art_id":null,"type":"movie","add":"2019-07-09 08:00:59","orig_title":"Konets operatsii Rezident","year":"1986-05-12","translations":["Оригинальная дорожка"],"quality":"dvdrip","translation":"Оригинальная дорожка","update":"2019-07-10 06:27:00","iframe_src":"//83.svetacdn.in/PfJ50H0ZBPg3/movie/28787"},{"id":28785,"title":"Подделка","kp_id":"1073232","imdb_id":"tt7268388","world_art_id":null,"type":"movie","add":"2019-07-09 07:58:10","orig_title":"Usohappyaku","year":"2018-01-05","translations":["Любительский (многоголосый закадровый) (Синема УС)"],"quality":"bd","translation":"Любительский (многоголосый закадровый) (Синема УС)","update":"2019-07-10 05:16:55","iframe_src":"//83.svetacdn.in/PfJ50H0ZBPg3/movie/28785"},{"id":28784,"title":"Нет неизвестных солдат","kp_id":"501990","imdb_id":"tt3042522","world_art_id":null,"type":"movie","add":"2019-07-09 07:54:22","orig_title":"Net neizvestnykh soldat","year":"1966-02-21","translations":["Оригинальная дорожка"],"quality":"dvdrip","translation":"Оригинальная дорожка","update":"2019-07-10 06:26:31","iframe_src":"//83.svetacdn.in/PfJ50H0ZBPg3/movie/28784"},{"id":28781,"title":"Одной крови","kp_id":"1226795","imdb_id":"tt5687236","world_art_id":null,"type":"movie","add":"2019-07-09 07:49:07","orig_title":"La Misma Sangre","year":"2019-02-28","translations":["Профессиональный (многоголосый закадровый) (AlphaProject)"],"quality":"webdl","translation":"Профессиональный (многоголосый закадровый) (AlphaProject)","update":"2019-07-10 05:34:07","iframe_src":"//83.svetacdn.in/PfJ50H0ZBPg3/movie/28781"},{"id":28779,"title":"Когда наступает сейчас","kp_id":"1039780","imdb_id":"tt6532954","world_art_id":null,"type":"movie","add":"2019-07-09 07:42:05","orig_title":"No Intenso Agora","year":"2017-02-11","translations":["Любительский (многоголосый закадровый) (Синема УС)"],"quality":"dvdrip","translation":"Любительский (многоголосый закадровый) (Синема УС)","update":"2019-07-10 06:14:46","iframe_src":"//83.svetacdn.in/PfJ50H0ZBPg3/movie/28779"},{"id":28777,"title":"Кровь, пот и слезы","kp_id":"873749","imdb_id":"tt3814486","world_art_id":null,"type":"movie","add":"2019-07-09 07:37:22","orig_title":"Bloed, Zweet & Tranen","year":"2015-04-02","translations":["Любительский (одноголосый закадровый) (den904)"],"quality":"bd","translation":"Любительский (одноголосый закадровый) (den904)","update":"2019-07-10 06:25:12","iframe_src":"//83.svetacdn.in/PfJ50H0ZBPg3/movie/28777"},{"id":28776,"title":"Против течения","kp_id":"43329","imdb_id":"tt0237618","world_art_id":null,"type":"movie","add":"2019-07-09 07:14:11","orig_title":"Protiv techeniya","year":"1981-01-01","translations":["Оригинальная дорожка"],"quality":"dvb","translation":"Оригинальная дорожка","update":"2019-07-10 06:23:55","iframe_src":"//83.svetacdn.in/PfJ50H0ZBPg3/movie/28776"},{"id":28774,"title":"Сказка о прекрасной Айсулу","kp_id":"43812","imdb_id":"tt0300491","world_art_id":null,"type":"movie","add":"2019-07-09 06:36:04","orig_title":"Skazka o prekrasnoy Aysulu","year":"1987-01-01","translations":["Оригинальная дорожка"],"quality":"webdl","translation":"Оригинальная дорожка","update":"2019-07-10 06:24:48","iframe_src":"//83.svetacdn.in/PfJ50H0ZBPg3/movie/28774"},{"id":26324,"title":"Война Анны","kp_id":"963379","imdb_id":"tt7817024","world_art_id":null,"type":"movie","add":"2019-05-11 20:03:28","orig_title":"Voyna Anny","year":"2018-01-28","translations":["Оригинальная дорожка"],"quality":"webdl","translation":"Оригинальная дорожка","update":"2019-07-10 05:39:12","iframe_src":"//83.svetacdn.in/PfJ50H0ZBPg3/movie/26324"}],"current_page":1461,"first_page_url":"https://videocdn.tv/api/short?limit=100&api_token=RgFQdUIR2dRmwv8iYa5SnFNgnw3vpjKj&cache31461=31461&page=1","from":146001,"last_page":663,"last_page_url":"https://videocdn.tv/api/short?limit=100&api_token=RgFQdUIR2dRmwv8iYa5SnFNgnw3vpjKj&cache31461=31461&page=663","next_page_url":null,"path":"https://videocdn.tv/api/short","per_page":100,"prev_page_url":"https://videocdn.tv/api/short?limit=100&api_token=RgFQdUIR2dRmwv8iYa5SnFNgnw3vpjKj&cache31461=31461&page=1460","to":146020,"total":66262}