{"result":true,"data":[{"id":32747,"title":"Cross 3","kp_id":"1088575","imdb_id":"tt6197400","world_art_id":null,"type":"movie","add":"2019-11-05 19:05:09","orig_title":"Cross 3","year":"2019-11-12","translations":["Любительский (многоголосый закадровый) (AlphaProject)"],"quality":"webdl","translation":"Любительский (многоголосый закадровый) (AlphaProject)","update":"2019-11-06 12:25:07","iframe_src":"//8543.svetacdn.in/IAF0wWTdNYZm/movie/32747"},{"id":32745,"title":"Истории из хижины в лесу","kp_id":"1126548","imdb_id":"tt4522922","world_art_id":null,"type":"movie","add":"2019-11-05 18:51:14","orig_title":"Tales from the Lodge","year":"2019-03-09","translations":["Любительский (многоголосый закадровый) (Синема УС)"],"quality":"webdl","translation":"Любительский (многоголосый закадровый) (Синема УС)","update":"2019-11-06 12:27:32","iframe_src":"//8543.svetacdn.in/IAF0wWTdNYZm/movie/32745"},{"id":32744,"title":"Permeation","kp_id":"924693","imdb_id":"tt4842124","world_art_id":null,"type":"movie","add":"2019-11-05 18:50:05","orig_title":"Permeation","year":"2018-04-26","translations":["Любительский (многоголосый закадровый) (Синема УС)"],"quality":"webdl","translation":"Любительский (многоголосый закадровый) (Синема УС)","update":"2019-11-06 12:28:29","iframe_src":"//8543.svetacdn.in/IAF0wWTdNYZm/movie/32744"},{"id":32743,"title":"Obamaland","kp_id":"958426","imdb_id":"tt5317276","world_art_id":null,"type":"movie","add":"2019-11-05 18:47:09","orig_title":"Obamaland","year":"2017-02-01","translations":["Любительский (многоголосый закадровый) (Синема УС)"],"quality":"webdl","translation":"Любительский (многоголосый закадровый) (Синема УС)","update":"2019-11-06 12:29:22","iframe_src":"//8543.svetacdn.in/IAF0wWTdNYZm/movie/32743"},{"id":32742,"title":"Good Day","kp_id":"914441","imdb_id":"tt4695882","world_art_id":null,"type":"movie","add":"2019-11-05 18:45:59","orig_title":"Good Day","year":"2017-08-10","translations":["Любительский (многоголосый закадровый) (Синема УС)"],"quality":"webdl","translation":"Любительский (многоголосый закадровый) (Синема УС)","update":"2019-11-06 12:30:44","iframe_src":"//8543.svetacdn.in/IAF0wWTdNYZm/movie/32742"},{"id":32740,"title":"Domination of The Becoming","kp_id":"1194046","imdb_id":"tt8918988","world_art_id":null,"type":"movie","add":"2019-11-05 18:38:30","orig_title":"Domination of The Becoming","year":"2018-10-31","translations":["Любительский (многоголосый закадровый) (Синема УС)"],"quality":"webdl","translation":"Любительский (многоголосый закадровый) (Синема УС)","update":"2019-11-06 12:31:31","iframe_src":"//8543.svetacdn.in/IAF0wWTdNYZm/movie/32740"},{"id":32738,"title":"Goyenda Junior","kp_id":"1307429","imdb_id":"tt10964190","world_art_id":null,"type":"movie","add":"2019-11-05 18:33:01","orig_title":"Goyenda Junior","year":"2019-09-20","translations":["Любительский (многоголосый закадровый) (Синема УС)"],"quality":"webdl","translation":"Любительский (многоголосый закадровый) (Синема УС)","update":"2019-11-06 12:29:56","iframe_src":"//8543.svetacdn.in/IAF0wWTdNYZm/movie/32738"},{"id":32657,"title":"Вздох","kp_id":"272616","imdb_id":"tt0901475","world_art_id":null,"type":"movie","add":"2019-11-03 20:09:46","orig_title":"Soom","year":"2007-04-29","translations":["Профессиональный (многоголосый закадровый)"],"quality":"dvdrip","translation":"Профессиональный (многоголосый закадровый)","update":"2019-11-06 12:58:49","iframe_src":"//8543.svetacdn.in/IAF0wWTdNYZm/movie/32657"},{"id":32656,"title":"Варенье из инжира","kp_id":"579792","imdb_id":"tt1808197","world_art_id":null,"type":"movie","add":"2019-11-03 20:05:03","orig_title":"Incir Reçeli","year":"2011-02-11","translations":["Любительский (одноголосый закадровый)"],"quality":"dvdrip","translation":"Любительский (одноголосый закадровый)","update":"2019-11-06 12:56:39","iframe_src":"//8543.svetacdn.in/IAF0wWTdNYZm/movie/32656"},{"id":32655,"title":"Сжигатель трупов","kp_id":"179307","imdb_id":"tt0063633","world_art_id":null,"type":"movie","add":"2019-11-03 19:57:51","orig_title":"Spalovac mrtvol","year":"1969-03-14","translations":["Авторский (одноголосый закадровый) (Алексеев Антон)"],"quality":"bd","translation":"Авторский (одноголосый закадровый) (Алексеев Антон)","update":"2019-11-06 12:50:17","iframe_src":"//8543.svetacdn.in/IAF0wWTdNYZm/movie/32655"},{"id":32653,"title":"Зита и Гита","kp_id":"79824","imdb_id":"tt0078222","world_art_id":null,"type":"movie","add":"2019-11-03 19:19:22","orig_title":"Seeta Aur Geeta","year":"1972-11-17","translations":["Полное дублирование"],"quality":"hdtv","translation":"Полное дублирование","update":"2019-11-06 12:39:55","iframe_src":"//8543.svetacdn.in/IAF0wWTdNYZm/movie/32653"},{"id":32652,"title":"Маргаритки","kp_id":"255362","imdb_id":"tt0060959","world_art_id":null,"type":"movie","add":"2019-11-03 19:14:42","orig_title":"Sedmikrásky","year":"1966-12-30","translations":["Профессиональный (многоголосый закадровый)"],"quality":"bd","translation":"Профессиональный (многоголосый закадровый)","update":"2019-11-06 12:38:45","iframe_src":"//8543.svetacdn.in/IAF0wWTdNYZm/movie/32652"},{"id":32650,"title":"Пикник у Висячей скалы","kp_id":"8351","imdb_id":"tt0073540","world_art_id":null,"type":"movie","add":"2019-11-03 18:58:16","orig_title":"Picnic at Hanging Rock","year":"1975-08-08","translations":["Профессиональный (многоголосый закадровый)"],"quality":"bd","translation":"Профессиональный (многоголосый закадровый)","update":"2019-11-06 12:35:30","iframe_src":"//8543.svetacdn.in/IAF0wWTdNYZm/movie/32650"},{"id":32649,"title":"Переиграть судьбу","kp_id":"455752","imdb_id":"tt1396208","world_art_id":null,"type":"movie","add":"2019-11-03 18:52:39","orig_title":"Action Replayy","year":"2010-11-05","translations":["Профессиональный (многоголосый закадровый)"],"quality":"bd","translation":"Профессиональный (многоголосый закадровый)","update":"2019-11-06 12:31:44","iframe_src":"//8543.svetacdn.in/IAF0wWTdNYZm/movie/32649"},{"id":31397,"title":"Председатель Мао в 1949 году","kp_id":"1291070","imdb_id":"tt10551150","world_art_id":null,"type":"movie","add":"2019-10-02 09:53:30","orig_title":"Jue Sheng Shi Ke","year":"2019-09-20","translations":["Любительский (многоголосый закадровый) (Колобок)","Любительский (многоголосый закадровый) (Колобок)"],"quality":"ts","translation":"Любительский (многоголосый закадровый) (Колобок)","update":"2019-11-06 12:26:58","iframe_src":"//8543.svetacdn.in/IAF0wWTdNYZm/movie/31397"},{"id":29952,"title":"Невероятный мир глазами Энцо","kp_id":"470191","imdb_id":"tt1478839","world_art_id":null,"type":"movie","add":"2019-08-13 18:29:05","orig_title":"The Art of Racing in the Rain","year":"2019-08-07","translations":["Полное дублирование (iTunes)"],"quality":"bd","translation":"Полное дублирование (iTunes)","update":"2019-11-06 12:25:45","iframe_src":"//8543.svetacdn.in/IAF0wWTdNYZm/movie/29952"},{"id":9526,"title":"Инструкции не прилагаются","kp_id":"678898","imdb_id":"tt2378281","world_art_id":null,"type":"movie","add":"2017-02-08 10:18:02","orig_title":"No se aceptan devoluciones","year":"2013-08-30","translations":["Профессиональный (многоголосый)","Любительский (одноголосый закадровый)"],"quality":"bd","translation":"Профессиональный (многоголосый)","update":"2019-11-06 12:26:49","iframe_src":"//8543.svetacdn.in/IAF0wWTdNYZm/movie/9526"},{"id":6847,"title":"Служанка","kp_id":"851960","imdb_id":"tt4016934","world_art_id":null,"type":"movie","add":"2016-10-31 11:58:07","orig_title":"Agassi","year":"2016-05-14","translations":["Полное дублирование","Авторский (одноголосый закадровый) (Сербин Юрий)"],"quality":"bd","translation":"Полное дублирование","update":"2019-11-06 12:55:42","iframe_src":"//8543.svetacdn.in/IAF0wWTdNYZm/movie/6847"},{"id":4511,"title":"Вороны: Начало","kp_id":"325455","imdb_id":"tt1016290","world_art_id":null,"type":"movie","add":"2016-08-18 06:31:13","orig_title":"Kurôzu zero","year":"2007-10-27","translations":["Профессиональный (двухголосый закадровый)"],"quality":"bd","translation":"Профессиональный (двухголосый закадровый)","update":"2019-11-06 12:30:32","iframe_src":"//8543.svetacdn.in/IAF0wWTdNYZm/movie/4511"},{"id":3185,"title":"Сонатина","kp_id":"55124","imdb_id":"tt0108188","world_art_id":null,"type":"movie","add":"2016-06-16 07:19:31","orig_title":"Sonatine","year":"1993-06-05","translations":["Профессиональный (двухголосый закадровый)","Профессиональный (двухголосый закадровый)"],"quality":"webdl","translation":"Профессиональный (двухголосый закадровый)","update":"2019-11-06 12:49:12","iframe_src":"//8543.svetacdn.in/IAF0wWTdNYZm/movie/3185"}],"current_page":936,"first_page_url":"https://videocdn.tv/api/short?limit=100&api_token=6Onb1W1alEUrBcKJZD3GoKBbWyAl2uG2&cache3936=3936&page=1","from":93501,"last_page":599,"last_page_url":"https://videocdn.tv/api/short?limit=100&api_token=6Onb1W1alEUrBcKJZD3GoKBbWyAl2uG2&cache3936=3936&page=599","next_page_url":null,"path":"https://videocdn.tv/api/short","per_page":100,"prev_page_url":"https://videocdn.tv/api/short?limit=100&api_token=6Onb1W1alEUrBcKJZD3GoKBbWyAl2uG2&cache3936=3936&page=935","to":93520,"total":59870}