{"result":true,"data":[{"id":23699,"title":"Кошмарный жилец","kp_id":"1248473","imdb_id":"tt9855990","world_art_id":null,"type":"movie","add":"2019-03-30 19:33:10","orig_title":"Nightmare Tenant","year":"2018-12-05","translations":["Профессиональный (многоголосый закадровый) (AlphaProject)"],"quality":"hdtv","translation":"Профессиональный (многоголосый закадровый) (AlphaProject)","update":"2019-04-01 05:32:32","iframe_src":"//7043.svetacdn.in/71tsRs29n5tZ/movie/23699"},{"id":23695,"title":"Байонет","kp_id":"1016025","imdb_id":"tt6472116","world_art_id":null,"type":"movie","add":"2019-03-30 19:19:19","orig_title":"Bayoneta","year":"2018-10-21","translations":["Любительский (многоголосый закадровый) (Синема УС)"],"quality":"webdl","translation":"Любительский (многоголосый закадровый) (Синема УС)","update":"2019-04-01 05:31:14","iframe_src":"//7043.svetacdn.in/71tsRs29n5tZ/movie/23695"},{"id":23689,"title":"Берега","kp_id":null,"imdb_id":"tt5514674","world_art_id":null,"type":"movie","add":"2019-03-30 17:44:41","orig_title":"Tides","year":"2018-12-07","translations":["Любительский (многоголосый закадровый) (Синема УС)"],"quality":"webdl","translation":"Любительский (многоголосый закадровый) (Синема УС)","update":"2019-04-01 07:46:59","iframe_src":"//7043.svetacdn.in/71tsRs29n5tZ/movie/23689"},{"id":23688,"title":"Помешанный сын","kp_id":"1212052","imdb_id":"tt8955144","world_art_id":null,"type":"movie","add":"2019-03-30 17:42:51","orig_title":"Thicker Than Water","year":"2019-03-24","translations":["Любительский (многоголосый закадровый) (Синема УС)"],"quality":"hdtv","translation":"Любительский (многоголосый закадровый) (Синема УС)","update":"2019-04-01 07:42:52","iframe_src":"//7043.svetacdn.in/71tsRs29n5tZ/movie/23688"},{"id":23687,"title":"Парень из моря","kp_id":"1112551","imdb_id":"tt7299388","world_art_id":null,"type":"movie","add":"2019-03-30 17:40:25","orig_title":"Umi wo kakeru","year":"2018-05-26","translations":["Любительский (многоголосый закадровый) (Синема УС)"],"quality":"bd","translation":"Любительский (многоголосый закадровый) (Синема УС)","update":"2019-04-01 07:41:55","iframe_src":"//7043.svetacdn.in/71tsRs29n5tZ/movie/23687"},{"id":23685,"title":"Генератор","kp_id":"993397","imdb_id":"tt5872888","world_art_id":null,"type":"movie","add":"2019-03-30 17:36:59","orig_title":"The Generator","year":"2017-09-28","translations":["Любительский (многоголосый закадровый) (Синема УС)"],"quality":"webdl","translation":"Любительский (многоголосый закадровый) (Синема УС)","update":"2019-04-01 07:08:06","iframe_src":"//7043.svetacdn.in/71tsRs29n5tZ/movie/23685"},{"id":23682,"title":"Суперлопес","kp_id":"862740","imdb_id":"tt4110388","world_art_id":null,"type":"movie","add":"2019-03-30 17:31:19","orig_title":"Superlópez","year":"2018-10-11","translations":["Любительский (многоголосый закадровый) (Синема УС)"],"quality":"webdl","translation":"Любительский (многоголосый закадровый) (Синема УС)","update":"2019-04-01 07:06:51","iframe_src":"//7043.svetacdn.in/71tsRs29n5tZ/movie/23682"},{"id":23681,"title":"Красная бумага","kp_id":null,"imdb_id":"tt7124744","world_art_id":null,"type":"movie","add":"2019-03-30 17:27:21","orig_title":"Red Paper Cut","year":"2017-10-27","translations":["Любительский (многоголосый закадровый) (Колобок)"],"quality":"webdl","translation":"Любительский (многоголосый закадровый) (Колобок)","update":"2019-04-01 07:01:51","iframe_src":"//7043.svetacdn.in/71tsRs29n5tZ/movie/23681"},{"id":23680,"title":"Народная республика желания","kp_id":"1113051","imdb_id":"tt7478112","world_art_id":null,"type":"movie","add":"2019-03-30 17:25:35","orig_title":"People's Republic of Desire","year":"2018-03-10","translations":["Любительский (многоголосый закадровый) (Синема УС)"],"quality":"webdl","translation":"Любительский (многоголосый закадровый) (Синема УС)","update":"2019-04-01 07:57:01","iframe_src":"//7043.svetacdn.in/71tsRs29n5tZ/movie/23680"},{"id":23679,"title":"Это всё не по-настоящему","kp_id":"1228988","imdb_id":"tt7297336","world_art_id":null,"type":"movie","add":"2019-03-30 17:21:49","orig_title":"Nothing Really Happens","year":"2018-05-02","translations":["Любительский (многоголосый закадровый) (Синема УС)"],"quality":"webdl","translation":"Любительский (многоголосый закадровый) (Синема УС)","update":"2019-04-01 08:32:52","iframe_src":"//7043.svetacdn.in/71tsRs29n5tZ/movie/23679"},{"id":23677,"title":"Спасительная любовь","kp_id":"1237307","imdb_id":"tt9759918","world_art_id":null,"type":"movie","add":"2019-03-30 17:15:20","orig_title":"Love to the Rescue","year":"2019-03-23","translations":["Профессиональный (многоголосый закадровый) (AlphaProject)"],"quality":"hdtv","translation":"Профессиональный (многоголосый закадровый) (AlphaProject)","update":"2019-04-01 07:05:29","iframe_src":"//7043.svetacdn.in/71tsRs29n5tZ/movie/23677"},{"id":23674,"title":"Нечеловекоброд","kp_id":"801069","imdb_id":"tt3172668","world_art_id":null,"type":"movie","add":"2019-03-30 17:06:58","orig_title":"Inhumanwich!","year":"2016-12-15","translations":["Любительский (многоголосый закадровый) (Колобок)"],"quality":"webdl","translation":"Любительский (многоголосый закадровый) (Колобок)","update":"2019-04-01 07:00:32","iframe_src":"//7043.svetacdn.in/71tsRs29n5tZ/movie/23674"},{"id":23666,"title":"Разделяй и властвуй: история Роджера Айлза","kp_id":"1209156","imdb_id":"tt6471628","world_art_id":null,"type":"movie","add":"2019-03-30 15:54:55","orig_title":"Divide and Conquer: The Story of Roger Ailes","year":"2018-09-09","translations":["Любительский (многоголосый закадровый) (Синема УС)"],"quality":"webdl","translation":"Любительский (многоголосый закадровый) (Синема УС)","update":"2019-04-01 08:33:44","iframe_src":"//7043.svetacdn.in/71tsRs29n5tZ/movie/23666"},{"id":23663,"title":"Тайны Авроры Тигарден: игра в прятки","kp_id":"1162882","imdb_id":"tt8490686","world_art_id":null,"type":"movie","add":"2019-03-30 15:45:32","orig_title":"Aurora Teagarden Mysteries: The Disappearing Game","year":"2018-07-29","translations":["Любительский (многоголосый закадровый) (Синема УС)"],"quality":"hdtv","translation":"Любительский (многоголосый закадровый) (Синема УС)","update":"2019-04-01 07:29:12","iframe_src":"//7043.svetacdn.in/71tsRs29n5tZ/movie/23663"},{"id":23662,"title":"Безумная семейка","kp_id":"1115071","imdb_id":"tt7748426","world_art_id":null,"type":"movie","add":"2019-03-30 15:44:08","orig_title":"Ailecek Saskiniz","year":"2018-03-02","translations":["Любительский (многоголосый закадровый) (Синема УС)"],"quality":"webdl","translation":"Любительский (многоголосый закадровый) (Синема УС)","update":"2019-04-01 07:44:03","iframe_src":"//7043.svetacdn.in/71tsRs29n5tZ/movie/23662"},{"id":22715,"title":"Мадонна: Рождение легенды","kp_id":"1162387","imdb_id":"tt5321814","world_art_id":null,"type":"movie","add":"2019-03-05 03:17:24","orig_title":"Madonna and the Breakfast Club","year":"2019-02-28","translations":["Профессиональный (многоголосый закадровый)","Профессиональный (многоголосый закадровый)"],"quality":"webdl","translation":"Профессиональный (многоголосый закадровый)","update":"2019-04-01 05:44:01","iframe_src":"//7043.svetacdn.in/71tsRs29n5tZ/movie/22715"},{"id":21820,"title":"Наше время","kp_id":"1009357","imdb_id":"tt5265964","world_art_id":null,"type":"movie","add":"2019-01-25 13:16:08","orig_title":"Nuestro tiempo","year":"2018-09-05","translations":["Профессиональный (многоголосый закадровый)"],"quality":"bd","translation":"Профессиональный (многоголосый закадровый)","update":"2019-04-01 08:32:05","iframe_src":"//7043.svetacdn.in/71tsRs29n5tZ/movie/21820"},{"id":19941,"title":"Щелкунчик и четыре королевства","kp_id":"975292","imdb_id":"tt5523010","world_art_id":null,"type":"movie","add":"2018-11-03 23:04:06","orig_title":"The Nutcracker and the Four Realms","year":"2018-10-26","translations":["Полное дублирование"],"quality":"bd","translation":"Полное дублирование","update":"2019-04-01 05:37:10","iframe_src":"//7043.svetacdn.in/71tsRs29n5tZ/movie/19941"},{"id":18802,"title":"Один день конца света","kp_id":"1067330","imdb_id":"tt7085842","world_art_id":null,"type":"movie","add":"2018-09-05 23:20:36","orig_title":"In un giorno la fine","year":"2017-08-27","translations":["Любительский (многоголосый закадровый) (Синема УС)","Любительский (одноголосый закадровый) (Хихикающий доктор)","Любительский (одноголосый закадровый) (datynet)","Профессиональный (многоголосый закадровый)","Профессиональный (многоголосый закадровый)"],"quality":"webdl","translation":"Любительский (многоголосый закадровый) (Синема УС)","update":"2019-04-01 08:38:17","iframe_src":"//7043.svetacdn.in/71tsRs29n5tZ/movie/18802"},{"id":11937,"title":"Времена года","kp_id":"888259","imdb_id":"tt4283358","world_art_id":null,"type":"movie","add":"2017-06-14 11:46:59","orig_title":"Les saisons","year":"2015-10-23","translations":["Авторский (одноголосый закадровый) (Сербин Юрий)","Любительский (одноголосый закадровый)"],"quality":"bd","translation":"Авторский (одноголосый закадровый) (Сербин Юрий)","update":"2019-04-01 05:50:39","iframe_src":"//7043.svetacdn.in/71tsRs29n5tZ/movie/11937"}],"current_page":1467,"first_page_url":"https://videocdn.tv/api/short?limit=100&api_token=EnbO9h8pv1VyjbCJhg0WM9nG259n7mtz&cache31467=31467&page=1","from":146601,"last_page":612,"last_page_url":"https://videocdn.tv/api/short?limit=100&api_token=EnbO9h8pv1VyjbCJhg0WM9nG259n7mtz&cache31467=31467&page=612","next_page_url":null,"path":"https://videocdn.tv/api/short","per_page":100,"prev_page_url":"https://videocdn.tv/api/short?limit=100&api_token=EnbO9h8pv1VyjbCJhg0WM9nG259n7mtz&cache31467=31467&page=1466","to":146620,"total":61189}