{"result":true,"data":[{"id":24883,"title":"Карусельный лев","kp_id":"260115","imdb_id":"tt6372000","world_art_id":null,"type":"movie","add":"2019-04-19 09:25:37","orig_title":"Karuselniy lev","year":"1974-01-01","translations":["Оригинальная дорожка"],"quality":"dvdrip","translation":"Оригинальная дорожка","update":"2019-04-20 08:34:44","iframe_src":"//83.svetacdn.in/PfJ50H0ZBPg3/movie/24883"},{"id":24881,"title":"Просто так","kp_id":"257031","imdb_id":"tt5480942","world_art_id":null,"type":"movie","add":"2019-04-19 09:21:21","orig_title":"Prosto tak","year":"1976-01-01","translations":["Оригинальная дорожка"],"quality":"dvdrip","translation":"Оригинальная дорожка","update":"2019-04-20 08:36:43","iframe_src":"//83.svetacdn.in/PfJ50H0ZBPg3/movie/24881"},{"id":24879,"title":"Заяц над бездной","kp_id":"161139","imdb_id":"tt0462727","world_art_id":null,"type":"movie","add":"2019-04-19 09:16:54","orig_title":"Zayats nad bezdnoy","year":"2006-02-09","translations":["Оригинальная дорожка"],"quality":"dvdrip","translation":"Оригинальная дорожка","update":"2019-04-20 08:38:49","iframe_src":"//83.svetacdn.in/PfJ50H0ZBPg3/movie/24879"},{"id":24878,"title":"Риорита","kp_id":"419583","imdb_id":"tt3712550","world_art_id":null,"type":"movie","add":"2019-04-19 09:14:26","orig_title":"Riorita","year":"2009-05-09","translations":["Оригинальная дорожка"],"quality":"dvdrip","translation":"Оригинальная дорожка","update":"2019-04-20 08:41:10","iframe_src":"//83.svetacdn.in/PfJ50H0ZBPg3/movie/24878"},{"id":24877,"title":"Смех и горе у Бела моря","kp_id":"279828","imdb_id":"tt0973837","world_art_id":null,"type":"movie","add":"2019-04-19 09:10:08","orig_title":"Smekh i gore u Bela morya","year":"1987-01-01","translations":["Оригинальная дорожка"],"quality":"dvdrip","translation":"Оригинальная дорожка","update":"2019-04-20 08:42:50","iframe_src":"//83.svetacdn.in/PfJ50H0ZBPg3/movie/24877"},{"id":24874,"title":"Дед Мороз всегда звонит… трижды!","kp_id":"655786","imdb_id":"tt3458910","world_art_id":null,"type":"movie","add":"2019-04-19 08:28:30","orig_title":"Ded Moroz vsegda zvonit… trizhdy!","year":"2012-01-02","translations":["Оригинальная дорожка"],"quality":"dvdrip","translation":"Оригинальная дорожка","update":"2019-04-20 09:04:40","iframe_src":"//83.svetacdn.in/PfJ50H0ZBPg3/movie/24874"},{"id":24873,"title":"Дневной поезд","kp_id":"161095","imdb_id":"tt0127518","world_art_id":null,"type":"movie","add":"2019-04-19 08:25:52","orig_title":"Dnevnoy poezd","year":"1976-09-02","translations":["Оригинальная дорожка"],"quality":"hdtv","translation":"Оригинальная дорожка","update":"2019-04-20 09:03:59","iframe_src":"//83.svetacdn.in/PfJ50H0ZBPg3/movie/24873"},{"id":24872,"title":"Странник","kp_id":"1015868","imdb_id":"tt6111842","world_art_id":null,"type":"movie","add":"2019-04-19 08:22:49","orig_title":"Nomad","year":"2018-05-20","translations":["Любительский (многоголосый закадровый) (Синема УС)"],"quality":"webdl","translation":"Любительский (многоголосый закадровый) (Синема УС)","update":"2019-04-20 09:03:08","iframe_src":"//83.svetacdn.in/PfJ50H0ZBPg3/movie/24872"},{"id":24871,"title":"Порадовать женщину","kp_id":"11961","imdb_id":"tt0043052","world_art_id":null,"type":"movie","add":"2019-04-19 08:12:01","orig_title":"To Please a Lady","year":"1950-10-13","translations":["Профессиональный (многоголосый закадровый)"],"quality":"dvdrip","translation":"Профессиональный (многоголосый закадровый)","update":"2019-04-20 09:02:01","iframe_src":"//83.svetacdn.in/PfJ50H0ZBPg3/movie/24871"},{"id":24870,"title":"Снегурочка","kp_id":"43888","imdb_id":"tt0045160","world_art_id":null,"type":"movie","add":"2019-04-19 08:07:04","orig_title":"Snegurochka","year":"1952-01-01","translations":["Оригинальная дорожка"],"quality":"dvdrip","translation":"Оригинальная дорожка","update":"2019-04-20 08:54:05","iframe_src":"//83.svetacdn.in/PfJ50H0ZBPg3/movie/24870"},{"id":24869,"title":"Чернобыль навсегда","kp_id":"699675","imdb_id":"tt2076824","world_art_id":null,"type":"movie","add":"2019-04-19 08:01:54","orig_title":"Chernobyl Forever","year":"2011-04-26","translations":["Оригинальная дорожка"],"quality":"dvdrip","translation":"Оригинальная дорожка","update":"2019-04-20 08:44:30","iframe_src":"//83.svetacdn.in/PfJ50H0ZBPg3/movie/24869"},{"id":24729,"title":"Муха-цокотуха","kp_id":"585267","imdb_id":"tt6005960","world_art_id":null,"type":"movie","add":"2019-04-17 09:23:01","orig_title":"Mukha-tsokotukha","year":"1960-01-01","translations":["Оригинальная дорожка"],"quality":"dvdrip","translation":"Оригинальная дорожка","update":"2019-04-20 09:00:26","iframe_src":"//83.svetacdn.in/PfJ50H0ZBPg3/movie/24729"},{"id":24728,"title":"Персей","kp_id":"315858","imdb_id":"tt0457098","world_art_id":null,"type":"movie","add":"2019-04-17 09:21:35","orig_title":"Persey","year":"1973-01-01","translations":["Оригинальная дорожка"],"quality":"dvdrip","translation":"Оригинальная дорожка","update":"2019-04-20 08:59:19","iframe_src":"//83.svetacdn.in/PfJ50H0ZBPg3/movie/24728"},{"id":24726,"title":"Гадкий утенок","kp_id":"468282","imdb_id":null,"world_art_id":null,"type":"movie","add":"2019-04-17 09:18:53","orig_title":"Гадкий утенок","year":"2009-09-09","translations":["Оригинальная дорожка"],"quality":"bd","translation":"Оригинальная дорожка","update":"2019-04-20 08:58:01","iframe_src":"//83.svetacdn.in/PfJ50H0ZBPg3/movie/24726"},{"id":24725,"title":"«Тигры» на льду","kp_id":"424018","imdb_id":"tt1721108","world_art_id":null,"type":"movie","add":"2019-04-17 09:15:47","orig_title":"Tigry na ldu","year":"1971-01-01","translations":["Оригинальная дорожка"],"quality":"dvdrip","translation":"Оригинальная дорожка","update":"2019-04-20 08:57:03","iframe_src":"//83.svetacdn.in/PfJ50H0ZBPg3/movie/24725"},{"id":24724,"title":"Воробушек","kp_id":"660987","imdb_id":"tt3519268","world_art_id":null,"type":"movie","add":"2019-04-17 09:12:53","orig_title":"Vorobushek","year":"2012-01-24","translations":["Оригинальная дорожка"],"quality":"sat","translation":"Оригинальная дорожка","update":"2019-04-20 08:52:51","iframe_src":"//83.svetacdn.in/PfJ50H0ZBPg3/movie/24724"},{"id":24723,"title":"За тобой","kp_id":"580190","imdb_id":"tt1965307","world_art_id":null,"type":"movie","add":"2019-04-17 09:08:39","orig_title":"Za toboy","year":"2011-08-18","translations":["Оригинальная дорожка"],"quality":"dvdrip","translation":"Оригинальная дорожка","update":"2019-04-20 08:55:33","iframe_src":"//83.svetacdn.in/PfJ50H0ZBPg3/movie/24723"},{"id":24722,"title":"За пределами закона","kp_id":"541903","imdb_id":"tt4127514","world_art_id":null,"type":"movie","add":"2019-04-17 09:06:42","orig_title":"Za predelami zakona","year":"2010-07-25","translations":["Оригинальная дорожка"],"quality":"hdtv","translation":"Оригинальная дорожка","update":"2019-04-20 08:50:57","iframe_src":"//83.svetacdn.in/PfJ50H0ZBPg3/movie/24722"},{"id":24712,"title":"Девичий источник","kp_id":"15188","imdb_id":"tt0053976","world_art_id":null,"type":"movie","add":"2019-04-17 07:54:16","orig_title":"Jungfrukällan","year":"1960-02-08","translations":["Профессиональный (многоголосый закадровый)"],"quality":"bd","translation":"Профессиональный (многоголосый закадровый)","update":"2019-04-20 08:49:42","iframe_src":"//83.svetacdn.in/PfJ50H0ZBPg3/movie/24712"},{"id":24687,"title":"Инфекция: Вторжение начинается","kp_id":"450418","imdb_id":"tt1386583","world_art_id":null,"type":"movie","add":"2019-04-16 08:26:49","orig_title":"Infection: The Invasion Begins","year":"2011-03-02","translations":["Профессиональный (многоголосый закадровый)"],"quality":"webdl","translation":"Профессиональный (многоголосый закадровый)","update":"2019-04-20 08:47:43","iframe_src":"//83.svetacdn.in/PfJ50H0ZBPg3/movie/24687"}],"current_page":1475,"first_page_url":"https://videocdn.tv/api/short?limit=100&api_token=RgFQdUIR2dRmwv8iYa5SnFNgnw3vpjKj&cache31475=31475&page=1","from":147401,"last_page":626,"last_page_url":"https://videocdn.tv/api/short?limit=100&api_token=RgFQdUIR2dRmwv8iYa5SnFNgnw3vpjKj&cache31475=31475&page=626","next_page_url":null,"path":"https://videocdn.tv/api/short","per_page":100,"prev_page_url":"https://videocdn.tv/api/short?limit=100&api_token=RgFQdUIR2dRmwv8iYa5SnFNgnw3vpjKj&cache31475=31475&page=1474","to":147420,"total":62573}