{"result":true,"data":[{"id":47517,"title":"Риалто","kp_id":"1178534","imdb_id":"tt8818842","world_art_id":null,"type":"movie","add":"2021-01-29 13:37:37","orig_title":"Rialto","year":"2019-09-02","translations":["Любительский (многоголосый закадровый) (Синема УС)"],"quality":"webdl","translation":"Любительский (многоголосый закадровый) (Синема УС)","update":"2021-01-29 18:00:30","iframe_src":"//8332.svetacdn.in/71tsRs29n5tZ/movie/47517"},{"id":47516,"title":"Мой будущий бойфренд","kp_id":"572161","imdb_id":"tt1747924","world_art_id":null,"type":"movie","add":"2021-01-29 13:34:13","orig_title":"My Future Boyfriend","year":"2011-04-10","translations":["Профессиональный (двухголосый закадровый) (Elrom)"],"quality":"dvdrip","translation":"Профессиональный (двухголосый закадровый) (Elrom)","update":"2021-01-29 15:59:11","iframe_src":"//8332.svetacdn.in/71tsRs29n5tZ/movie/47516"},{"id":47514,"title":"Олокун - Покровитель Деревень","kp_id":"1207110","imdb_id":"tt9205978","world_art_id":null,"type":"movie","add":"2021-01-29 12:39:32","orig_title":"Olokun","year":"2020-01-01","translations":["Любительский (многоголосый закадровый) (Синема УС)"],"quality":"webdl","translation":"Любительский (многоголосый закадровый) (Синема УС)","update":"2021-01-30 08:28:35","iframe_src":"//8332.svetacdn.in/71tsRs29n5tZ/movie/47514"},{"id":47513,"title":"На мели","kp_id":"1416639","imdb_id":"tt13081358","world_art_id":null,"type":"movie","add":"2021-01-29 12:36:58","orig_title":"Dead in the Water","year":"2021-01-15","translations":["Любительский (многоголосый закадровый) (Синема УС)"],"quality":"webdl","translation":"Любительский (многоголосый закадровый) (Синема УС)","update":"2021-01-30 08:36:27","iframe_src":"//8332.svetacdn.in/71tsRs29n5tZ/movie/47513"},{"id":47512,"title":"Одинокая тоскливая ночь","kp_id":"1281763","imdb_id":"tt10559834","world_art_id":null,"type":"movie","add":"2021-01-29 12:33:22","orig_title":"Lonely Blue Night","year":"2021-01-01","translations":["Любительский (многоголосый закадровый) (Синема УС)"],"quality":"webdl","translation":"Любительский (многоголосый закадровый) (Синема УС)","update":"2021-01-29 14:13:14","iframe_src":"//8332.svetacdn.in/71tsRs29n5tZ/movie/47512"},{"id":47511,"title":"Мой народ, моя родина","kp_id":"1387714","imdb_id":null,"world_art_id":null,"type":"movie","add":"2021-01-29 12:30:00","orig_title":"Wo he wo de jia ziang","year":"2020-10-01","translations":["Любительский (двухголосый закадровый) (Колобок)"],"quality":"webdl","translation":"Любительский (двухголосый закадровый) (Колобок)","update":"2021-01-30 08:35:25","iframe_src":"//8332.svetacdn.in/71tsRs29n5tZ/movie/47511"},{"id":47508,"title":"Нежные руки Деборы","kp_id":"28617","imdb_id":"tt0064243","world_art_id":null,"type":"movie","add":"2021-01-29 08:14:08","orig_title":"Il dolce corpo di Deborah","year":"1968-03-20","translations":["Любительский (одноголосый закадровый) (ССК+ | Кавардаков Сергей)"],"quality":"bd","translation":"Любительский (одноголосый закадровый) (ССК+ | Кавардаков Сергей)","update":"2021-01-30 14:15:10","iframe_src":"//8332.svetacdn.in/71tsRs29n5tZ/movie/47508"},{"id":47507,"title":"Мокрые деревья","kp_id":"378554","imdb_id":"tt0228677","world_art_id":null,"type":"movie","add":"2021-01-29 08:12:44","orig_title":"Onna jigoku: Mori wa nureta","year":"1973-05-23","translations":["Любительский (одноголосый закадровый) (den904)"],"quality":"bd","translation":"Любительский (одноголосый закадровый) (den904)","update":"2021-01-30 14:20:55","iframe_src":"//8332.svetacdn.in/71tsRs29n5tZ/movie/47507"},{"id":47506,"title":"Повороты судьбы","kp_id":"97297","imdb_id":"tt0426059","world_art_id":null,"type":"movie","add":"2021-01-29 06:50:59","orig_title":"Karamdaata","year":"1986-05-20","translations":["Любительский (одноголосый закадровый)"],"quality":"webdl","translation":"Любительский (одноголосый закадровый)","update":"2021-01-29 13:25:37","iframe_src":"//8332.svetacdn.in/71tsRs29n5tZ/movie/47506"},{"id":39192,"title":"Неведомый враг","kp_id":"86844","imdb_id":"tt0079355","world_art_id":null,"type":"movie","add":"2020-04-12 20:01:24","orig_title":"Jaani Dushman","year":"1979-05-22","translations":["Любительский (одноголосый закадровый)","Профессиональный (двухголосый закадровый) (Bollywood HD)"],"quality":"webdl","translation":"Любительский (одноголосый закадровый)","update":"2021-01-29 13:24:14","iframe_src":"//8332.svetacdn.in/71tsRs29n5tZ/movie/39192"},{"id":37591,"title":"Непокоренный","kp_id":"47227","imdb_id":"tt0048956","world_art_id":null,"type":"movie","add":"2020-03-08 22:06:40","orig_title":"Aparajito","year":"1956-10-11","translations":["Профессиональный (многоголосый закадровый) (СВ-Дубль)"],"quality":"bd","translation":"Профессиональный (многоголосый закадровый) (СВ-Дубль)","update":"2021-01-29 11:42:28","iframe_src":"//8332.svetacdn.in/71tsRs29n5tZ/movie/37591"},{"id":6075,"title":"Богач, бедняк...","kp_id":"77250","imdb_id":"tt0173684","world_art_id":null,"type":"serial","add":"2019-12-18 08:33:28","orig_title":"Bogach, bednyak...","year":"1982-06-06","translations":["Оригинальная дорожка"],"seasons_count":1,"episodes_count":4,"episodes":4,"update":"2019-12-18 11:17:17","iframe_src":"//8332.svetacdn.in/71tsRs29n5tZ/tv-series/6075"},{"id":6074,"title":"Мираж","kp_id":"77281","imdb_id":"tt0254913","world_art_id":null,"type":"serial","add":"2019-12-18 08:24:01","orig_title":"Mirazh","year":"1983-08-10","translations":["Оригинальная дорожка"],"seasons_count":1,"episodes_count":3,"episodes":3,"update":"2019-12-18 11:14:54","iframe_src":"//8332.svetacdn.in/71tsRs29n5tZ/tv-series/6074"},{"id":6073,"title":"Овод","kp_id":"102722","imdb_id":"tt0230602","world_art_id":null,"type":"serial","add":"2019-12-18 08:17:34","orig_title":"Ovod","year":"1980-11-03","translations":["Оригинальная дорожка"],"seasons_count":1,"episodes_count":3,"episodes":3,"update":"2019-12-18 11:44:40","iframe_src":"//8332.svetacdn.in/71tsRs29n5tZ/tv-series/6073"},{"id":6072,"title":"Рафферти","kp_id":"94196","imdb_id":"tt0080264","world_art_id":null,"type":"serial","add":"2019-12-18 07:28:24","orig_title":"Rafferty","year":"1980-11-19","translations":["Оригинальная дорожка"],"seasons_count":1,"episodes_count":3,"episodes":3,"update":"2019-12-18 09:48:44","iframe_src":"//8332.svetacdn.in/71tsRs29n5tZ/tv-series/6072"},{"id":6071,"title":"Вторжение","kp_id":"94091","imdb_id":"tt0118452","world_art_id":null,"type":"serial","add":"2019-12-18 05:42:37","orig_title":"Invasion","year":"1997-01-01","translations":["Профессиональный (многоголосый закадровый)"],"seasons_count":1,"episodes_count":2,"episodes":2,"update":"2019-12-18 06:39:04","iframe_src":"//8332.svetacdn.in/71tsRs29n5tZ/tv-series/6071"},{"id":6068,"title":"Сил и дьявольское семя Ародора","kp_id":"1285222","imdb_id":"tt10655906","world_art_id":null,"type":"serial","add":"2019-12-17 12:44:41","orig_title":"Sil and the Devil Seeds of Arodor","year":"2019-11-04","translations":["Любительский (многоголосый закадровый) (Синема УС)"],"seasons_count":1,"episodes_count":4,"episodes":4,"update":"2019-12-17 18:26:57","iframe_src":"//8332.svetacdn.in/71tsRs29n5tZ/tv-series/6068"},{"id":6067,"title":"Анималия","kp_id":"628949","imdb_id":"tt0887305","world_art_id":null,"type":"serial","add":"2019-12-17 08:52:36","orig_title":"Animalia","year":"2007-11-11","translations":["Полное дублирование"],"seasons_count":2,"episodes_count":40,"episodes":22,"update":"2019-12-18 05:25:38","iframe_src":"//8332.svetacdn.in/71tsRs29n5tZ/tv-series/6067"},{"id":6065,"title":"Старость – не радость","kp_id":"702876","imdb_id":"tt2342652","world_art_id":null,"type":"serial","add":"2019-12-16 21:22:01","orig_title":"Getting On","year":"2013-11-24","translations":["Профессиональный (многоголосый закадровый) (АРК-ТВ Studio)","Профессиональный (многоголосый закадровый) (Amedia)"],"seasons_count":3,"episodes_count":18,"episodes":6,"update":"2019-12-18 12:41:35","iframe_src":"//8332.svetacdn.in/71tsRs29n5tZ/tv-series/6065"},{"id":6064,"title":"Я не я","kp_id":"477539","imdb_id":"tt3519036","world_art_id":null,"type":"serial","add":"2019-12-16 20:19:57","orig_title":"Ya ne ya","year":"2010-01-24","translations":["Оригинальная дорожка"],"seasons_count":1,"episodes_count":4,"episodes":4,"update":"2019-12-17 20:03:42","iframe_src":"//8332.svetacdn.in/71tsRs29n5tZ/tv-series/6064"},{"id":6062,"title":"Последний рейв","kp_id":"1320481","imdb_id":null,"world_art_id":null,"type":"serial","add":"2019-12-16 20:11:54","orig_title":"Последний рейв","year":"2019-11-14","translations":["Оригинальная дорожка"],"seasons_count":1,"episodes_count":4,"episodes":4,"update":"2019-12-17 20:06:00","iframe_src":"//8332.svetacdn.in/71tsRs29n5tZ/tv-series/6062"},{"id":6061,"title":"Любимая","kp_id":"1111834","imdb_id":null,"world_art_id":null,"type":"serial","add":"2019-12-16 20:00:01","orig_title":"Любимая","year":"2017-12-08","translations":["Оригинальная дорожка"],"seasons_count":1,"episodes_count":2,"episodes":2,"update":"2019-12-16 21:39:09","iframe_src":"//8332.svetacdn.in/71tsRs29n5tZ/tv-series/6061"},{"id":6059,"title":"Братья Вентура","kp_id":"281897","imdb_id":"tt0417373","world_art_id":null,"type":"serial","add":"2019-12-16 13:01:45","orig_title":"The Venture Bros.","year":"2004-08-07","translations":["Original (English)","Профессиональный (многоголосый закадровый) (2x2)","Любительский (одноголосый закадровый) (VoicePower)"],"seasons_count":7,"episodes_count":85,"episodes":10,"update":"2019-12-17 20:20:47","iframe_src":"//8332.svetacdn.in/71tsRs29n5tZ/tv-series/6059"},{"id":6048,"title":"Девушка с персиками","kp_id":"1112470","imdb_id":null,"world_art_id":null,"type":"serial","add":"2019-12-14 13:26:53","orig_title":"Девушка с персиками","year":"2017-12-15","translations":["Оригинальная дорожка"],"seasons_count":1,"episodes_count":4,"episodes":4,"update":"2019-12-18 11:43:16","iframe_src":"//8332.svetacdn.in/71tsRs29n5tZ/tv-series/6048"},{"id":6047,"title":"Заложница","kp_id":"1045732","imdb_id":null,"world_art_id":null,"type":"serial","add":"2019-12-14 13:24:51","orig_title":"Заложница","year":"2017-05-13","translations":["Оригинальная дорожка"],"seasons_count":1,"episodes_count":4,"episodes":4,"update":"2019-12-18 11:41:13","iframe_src":"//8332.svetacdn.in/71tsRs29n5tZ/tv-series/6047"},{"id":6036,"title":"Умелец Мэнни","kp_id":"472294","imdb_id":"tt0451460","world_art_id":null,"type":"serial","add":"2019-12-12 18:36:23","orig_title":"Handy Manny","year":"2006-09-16","translations":["Полное дублирование"],"seasons_count":3,"episodes_count":117,"episodes":50,"update":"2019-12-17 17:56:55","iframe_src":"//8332.svetacdn.in/71tsRs29n5tZ/tv-series/6036"},{"id":5622,"title":"Завоеватель","kp_id":"1111653","imdb_id":"tt7428834","world_art_id":null,"type":"serial","add":"2019-11-03 10:54:20","orig_title":"Fatih","year":"2018-03-20","translations":["Любительский (многоголосый закадровый) (RusFilm)"],"seasons_count":1,"episodes_count":6,"episodes":6,"update":"2019-12-17 07:25:08","iframe_src":"//8332.svetacdn.in/71tsRs29n5tZ/tv-series/5622"},{"id":2744,"title":"Последняя жертва Анны","kp_id":"893376","imdb_id":"tt5033976","world_art_id":null,"type":"serial","add":"2018-06-05 10:41:12","orig_title":"Poslednyaya zhertva Anny","year":"2015-03-28","translations":["Оригинальная дорожка"],"seasons_count":1,"episodes_count":2,"episodes":2,"update":"2019-12-18 11:44:27","iframe_src":"//8332.svetacdn.in/71tsRs29n5tZ/tv-series/2744"},{"id":16768,"title":"Будка поцелуев","kp_id":"1024882","imdb_id":"tt3799232","world_art_id":null,"type":"movie","add":"2018-05-15 05:07:06","orig_title":"The Kissing Booth","year":"2018-05-11","translations":["Любительский (многоголосый закадровый) (Синема УС)","Профессиональный (многоголосый закадровый) (Jaskier)","Полное дублирование","Профессиональный (многоголосый закадровый) (HDrezka Studio)","Полное дублирование (Пифагор)","Профессиональный (многоголосый закадровый) (Jaskier)","Original (English)"],"quality":"webdl","translation":"Любительский (многоголосый закадровый) (Синема УС)","update":"2021-01-29 11:40:17","iframe_src":"//8332.svetacdn.in/71tsRs29n5tZ/movie/16768"},{"id":2441,"title":"Красная дверь","kp_id":"1110987","imdb_id":"tt6134022","world_art_id":null,"type":"serial","add":"2018-04-22 00:02:02","orig_title":"La Porta Rossa","year":"2017-02-22","translations":["Любительский (многоголосый закадровый) (ColdFilm)","Профессиональный (двухголосый закадровый) (ViruseProject)"],"seasons_count":2,"episodes_count":18,"episodes":6,"update":"2019-12-17 21:33:02","iframe_src":"//8332.svetacdn.in/71tsRs29n5tZ/tv-series/2441"},{"id":2139,"title":"Государственный секретарь","kp_id":"823674","imdb_id":"tt3501074","world_art_id":null,"type":"serial","add":"2018-02-25 23:07:20","orig_title":"Madam Secretary","year":"2014-09-21","translations":["Любительский (двухголосый закадровый) (Kiitos)","Профессиональный (многоголосый закадровый) (BaibaKo)","Профессиональный (многоголосый закадровый) (TVShows)"],"seasons_count":6,"episodes_count":96,"episodes":10,"update":"2019-12-17 21:34:16","iframe_src":"//8332.svetacdn.in/71tsRs29n5tZ/tv-series/2139"},{"id":1940,"title":"4 квартала","kp_id":"1111924","imdb_id":"tt5754602","world_art_id":null,"type":"serial","add":"2018-01-10 13:33:27","orig_title":"4 Blocks","year":"2017-05-08","translations":["Любительский (двухголосый закадровый) (Sunshine Studio)","Профессиональный (многоголосый закадровый) (BaibaKo)","Профессиональный (двухголосый закадровый) (ViruseProject)","Профессиональный (многоголосый закадровый) (ViruseProject)","Любительский (двухголосый закадровый)"],"seasons_count":3,"episodes_count":19,"episodes":6,"update":"2019-12-17 21:36:20","iframe_src":"//8332.svetacdn.in/71tsRs29n5tZ/tv-series/1940"},{"id":7365,"title":"Война против всех","kp_id":"841311","imdb_id":"tt3708886","world_art_id":null,"type":"movie","add":"2016-11-11 11:28:53","orig_title":"War on Everyone","year":"2016-02-12","translations":["Полное дублирование","Полное дублирование (iTunes)","Авторский (одноголосый закадровый) (Гоблин | Пучков Дмитрий)","Авторский (одноголосый закадровый) (Есарев Дмитрий)","Авторский (одноголосый закадровый) (Немахов Юрий)","Авторский (одноголосый закадровый) (Яроцкий Михаил | Kyberpunk)","Полное дублирование","Original (English)"],"quality":"webdl","translation":"Полное дублирование","update":"2021-01-29 12:19:09","iframe_src":"//8332.svetacdn.in/71tsRs29n5tZ/movie/7365"},{"id":7182,"title":"Безумцы","kp_id":"195870","imdb_id":"tt0455407","world_art_id":null,"type":"movie","add":"2016-11-08 08:47:49","orig_title":"The Crazies","year":"2010-02-23","translations":["Полное дублирование","Авторский (одноголосый закадровый) (Сербин Юрий)","Полное дублирование","Original (English)"],"quality":"bd","translation":"Полное дублирование","update":"2021-01-29 11:47:04","iframe_src":"//8332.svetacdn.in/71tsRs29n5tZ/movie/7182"},{"id":6740,"title":"Кидалы","kp_id":"5294","imdb_id":"tt0099703","world_art_id":null,"type":"movie","add":"2016-10-27 05:51:58","orig_title":"The Grifters","year":"1990-09-14","translations":["Профессиональный (многоголосый закадровый)","Авторский (одноголосый закадровый) (Михалёв Алексей)","Original (English)","Профессиональный (многоголосый закадровый)"],"quality":"bd","translation":"Профессиональный (многоголосый закадровый)","update":"2021-01-29 11:51:51","iframe_src":"//8332.svetacdn.in/71tsRs29n5tZ/movie/6740"},{"id":6727,"title":"Ангел тьмы","kp_id":"24948","imdb_id":"tt0099817","world_art_id":null,"type":"movie","add":"2016-10-27 05:35:17","orig_title":"Dark Angel","year":"1990-01-26","translations":["Профессиональный (многоголосый закадровый)","Авторский (одноголосый закадровый) (Гаврилов Андрей)","Авторский (одноголосый закадровый) (Горчаков Василий)","Авторский (одноголосый закадровый) (Визгунов Сергей)","Original (English)","Профессиональный (двухголосый закадровый) (НТВ)","Профессиональный (двухголосый закадровый) (Видеофильм)","Профессиональный (многоголосый закадровый) (Невафильм | Нева-1)","Профессиональный (многоголосый закадровый) (РенТВ)"],"quality":"bd","translation":"Профессиональный (многоголосый закадровый)","update":"2021-01-29 12:12:28","iframe_src":"//8332.svetacdn.in/71tsRs29n5tZ/movie/6727"},{"id":5281,"title":"Страж","kp_id":"15861","imdb_id":"tt0099710","world_art_id":null,"type":"movie","add":"2016-09-15 08:43:06","orig_title":"The Guardian","year":"1990-04-27","translations":["Профессиональный (многоголосый закадровый)","Авторский (одноголосый закадровый) (Михалёв Алексей)","Original (English)","Профессиональный (многоголосый закадровый)","Профессиональный (многоголосый закадровый) (Премьер Видео Фильм)"],"quality":"bd","translation":"Профессиональный (многоголосый закадровый)","update":"2021-01-29 11:57:01","iframe_src":"//8332.svetacdn.in/71tsRs29n5tZ/movie/5281"},{"id":4813,"title":"Настоящее преступление","kp_id":"5813","imdb_id":"tt0139668","world_art_id":null,"type":"movie","add":"2016-08-29 08:40:18","orig_title":"True Crime","year":"1999-03-19","translations":["Профессиональный (многоголосый)","Авторский (одноголосый закадровый) (Живов Юрий)","Original (English)","Профессиональный (многоголосый закадровый) (Варус-Видео)"],"quality":"bd","translation":"Профессиональный (многоголосый)","update":"2021-01-29 12:23:31","iframe_src":"//8332.svetacdn.in/71tsRs29n5tZ/movie/4813"},{"id":669,"title":"Послезавтра","kp_id":"2053","imdb_id":"tt0319262","world_art_id":null,"type":"movie","add":"2016-04-05 20:28:25","orig_title":"The Day After Tomorrow","year":"2004-05-17","translations":["Полное дублирование","Авторский (одноголосый закадровый) (Королёв Владимир)","Авторский (одноголосый закадровый) (Рудой Евгений)","Полное дублирование","Original (English)","Профессиональный (двухголосый закадровый) (Гланц + Королёва)","Профессиональный (двухголосый закадровый) (Tycoon)"],"quality":"bd","translation":"Полное дублирование","update":"2021-01-29 13:22:47","iframe_src":"//8332.svetacdn.in/71tsRs29n5tZ/movie/669"},{"id":403,"title":"Поймай меня, если сможешь","kp_id":"324","imdb_id":"tt0264464","world_art_id":null,"type":"movie","add":"2016-04-01 15:11:07","orig_title":"Catch Me If You Can","year":"2002-12-16","translations":["Полное дублирование","Авторский (одноголосый закадровый) (Гаврилов Андрей)","Авторский (одноголосый закадровый) (Живов Юрий)","Полное дублирование","Original (English)","Профессиональный (многоголосый закадровый)"],"quality":"bd","translation":"Полное дублирование","update":"2021-01-29 13:14:11","iframe_src":"//8332.svetacdn.in/71tsRs29n5tZ/movie/403"}],"current_page":308,"first_page_url":"https://videocdn.tv/api/short?limit=100&api_token=EnbO9h8pv1VyjbCJhg0WM9nG259n7mtz&cache3308=3308&page=1","from":30701,"last_page":637,"last_page_url":"https://videocdn.tv/api/short?limit=100&api_token=EnbO9h8pv1VyjbCJhg0WM9nG259n7mtz&cache3308=3308&page=637","next_page_url":"https://videocdn.tv/api/short?limit=100&api_token=EnbO9h8pv1VyjbCJhg0WM9nG259n7mtz&cache3308=3308&page=309","path":"https://videocdn.tv/api/short","per_page":100,"prev_page_url":"https://videocdn.tv/api/short?limit=100&api_token=EnbO9h8pv1VyjbCJhg0WM9nG259n7mtz&cache3308=3308&page=307","to":30740,"total":63623}