{"result":true,"data":[{"id":44815,"title":"Наши знакомые","kp_id":"417774","imdb_id":"tt5074882","world_art_id":null,"type":"movie","add":"2020-10-26 21:43:45","orig_title":"Nashi znakomyye","year":"1969-06-02","translations":["Оригинальная дорожка"],"quality":"dvdrip","translation":"Оригинальная дорожка","update":"2020-10-27 06:05:25","iframe_src":"//8543.svetacdn.in/71tsRs29n5tZ/movie/44815"},{"id":44803,"title":"Лающие собаки никогда не кусают","kp_id":"65859","imdb_id":"tt0269743","world_art_id":null,"type":"movie","add":"2020-10-26 17:40:17","orig_title":"Flandersui gae","year":"2000-02-19","translations":["Полное дублирование"],"quality":"bd","translation":"Полное дублирование","update":"2020-10-27 06:03:24","iframe_src":"//8543.svetacdn.in/71tsRs29n5tZ/movie/44803"},{"id":44794,"title":"Подсолнух","kp_id":"1311132","imdb_id":"tt10463488","world_art_id":null,"type":"movie","add":"2020-10-26 13:36:17","orig_title":"Podsolnukh","year":"2020-02-19","translations":["Оригинальная дорожка"],"quality":"webdl","translation":"Оригинальная дорожка","update":"2020-10-26 18:08:48","iframe_src":"//8543.svetacdn.in/71tsRs29n5tZ/movie/44794"},{"id":44793,"title":"Кто придумал любовь?","kp_id":"1033743","imdb_id":"tt6071168","world_art_id":null,"type":"movie","add":"2020-10-26 10:50:06","orig_title":"Wer hat eigentlich die Liebe erfunden?","year":"2018-05-03","translations":["Любительский (многоголосый закадровый) (Синема УС)"],"quality":"hdtv","translation":"Любительский (многоголосый закадровый) (Синема УС)","update":"2020-10-26 16:56:11","iframe_src":"//8543.svetacdn.in/71tsRs29n5tZ/movie/44793"},{"id":44792,"title":"В моей комнате","kp_id":"1395399","imdb_id":"tt12762684","world_art_id":null,"type":"movie","add":"2020-10-26 10:47:30","orig_title":"In My Room","year":"2020-09-06","translations":["Любительский (многоголосый закадровый) (Синема УС)"],"quality":"webdl","translation":"Любительский (многоголосый закадровый) (Синема УС)","update":"2020-10-26 13:52:47","iframe_src":"//8543.svetacdn.in/71tsRs29n5tZ/movie/44792"},{"id":44791,"title":"Карты, деньги, два китайца 2: мельбурнский взлом","kp_id":"1438235","imdb_id":"tt13298952","world_art_id":null,"type":"movie","add":"2020-10-26 10:45:01","orig_title":"Chinatown Cannon 2","year":"2020-10-01","translations":["Любительский (двухголосый закадровый) (Колобок)"],"quality":"webdl","translation":"Любительский (двухголосый закадровый) (Колобок)","update":"2020-10-26 13:50:26","iframe_src":"//8543.svetacdn.in/71tsRs29n5tZ/movie/44791"},{"id":44785,"title":"Еще один зомби-апокалипсис","kp_id":"1194537","imdb_id":"tt9004572","world_art_id":null,"type":"movie","add":"2020-10-26 10:10:24","orig_title":"Another Apocalyptic Zombie Movie","year":"2018-09-30","translations":["Любительский (многоголосый закадровый) (Синема УС)"],"quality":"webdl","translation":"Любительский (многоголосый закадровый) (Синема УС)","update":"2020-10-26 13:17:20","iframe_src":"//8543.svetacdn.in/71tsRs29n5tZ/movie/44785"},{"id":44170,"title":"Петушишка","kp_id":"669464","imdb_id":null,"world_art_id":null,"type":"movie","add":"2020-10-06 17:31:09","orig_title":"Петушишка","year":"1985-01-01","translations":["Оригинальная дорожка"],"quality":"dvdrip","translation":"Оригинальная дорожка","update":"2020-10-27 06:57:51","iframe_src":"//8543.svetacdn.in/71tsRs29n5tZ/movie/44170"},{"id":44168,"title":"Небылицы","kp_id":"391089","imdb_id":"tt1075369","world_art_id":null,"type":"movie","add":"2020-10-06 17:19:44","orig_title":"Nebylitsy","year":"1970-01-01","translations":["Оригинальная дорожка"],"quality":"dvdrip","translation":"Оригинальная дорожка","update":"2020-10-27 06:55:06","iframe_src":"//8543.svetacdn.in/71tsRs29n5tZ/movie/44168"},{"id":44167,"title":"Мистер Уолк","kp_id":"416411","imdb_id":"tt1240954","world_art_id":null,"type":"movie","add":"2020-10-06 17:13:29","orig_title":"Mister Volk","year":"1949-01-01","translations":["Оригинальная дорожка"],"quality":"dvdrip","translation":"Оригинальная дорожка","update":"2020-10-27 06:54:04","iframe_src":"//8543.svetacdn.in/71tsRs29n5tZ/movie/44167"},{"id":44166,"title":"Зачем верблюду апельсин?","kp_id":"627308","imdb_id":"tt9337626","world_art_id":null,"type":"movie","add":"2020-10-06 16:43:35","orig_title":"Zachem verblyudu apelsin?","year":"1985-01-01","translations":["Оригинальная дорожка"],"quality":"dvdrip","translation":"Оригинальная дорожка","update":"2020-10-27 06:53:07","iframe_src":"//8543.svetacdn.in/71tsRs29n5tZ/movie/44166"},{"id":44165,"title":"Заяц и ёж","kp_id":"417629","imdb_id":"tt6484796","world_art_id":null,"type":"movie","add":"2020-10-06 16:39:10","orig_title":"Zayats i yozh","year":"1963-01-01","translations":["Оригинальная дорожка"],"quality":"dvdrip","translation":"Оригинальная дорожка","update":"2020-10-27 06:51:49","iframe_src":"//8543.svetacdn.in/71tsRs29n5tZ/movie/44165"},{"id":44055,"title":"Белка и Стрелка: Карибская тайна","kp_id":"984359","imdb_id":null,"world_art_id":null,"type":"movie","add":"2020-10-01 20:23:13","orig_title":"Белка и Стрелка: Карибская тайна","year":"2020-09-24","translations":["Оригинальная дорожка"],"quality":"webdl","translation":"Оригинальная дорожка","update":"2020-10-27 06:39:12","iframe_src":"//8543.svetacdn.in/71tsRs29n5tZ/movie/44055"},{"id":42592,"title":"Ундина","kp_id":"1342810","imdb_id":"tt11617052","world_art_id":null,"type":"movie","add":"2020-08-20 04:12:57","orig_title":"Undine","year":"2020-02-23","translations":["Профессиональный (многоголосый закадровый) (iTunes)"],"quality":"webdl","translation":"Профессиональный (многоголосый закадровый) (iTunes)","update":"2020-10-26 16:50:02","iframe_src":"//8543.svetacdn.in/71tsRs29n5tZ/movie/42592"},{"id":42552,"title":"Залив тишины","kp_id":"972285","imdb_id":"tt5617312","world_art_id":null,"type":"movie","add":"2020-08-18 05:30:34","orig_title":"The Bay of Silence","year":"2020-07-25","translations":["Любительский (многоголосый закадровый) (@MUZOBOZ@)","Original (English)","Полное дублирование (iTunes)"],"quality":"webdl","translation":"Любительский (многоголосый закадровый) (@MUZOBOZ@)","update":"2020-10-26 16:53:22","iframe_src":"//8543.svetacdn.in/71tsRs29n5tZ/movie/42552"},{"id":42448,"title":"Тесла","kp_id":"1214358","imdb_id":"tt5259822","world_art_id":null,"type":"movie","add":"2020-08-13 19:25:09","orig_title":"Tesla","year":"2020-01-27","translations":["Любительский (многоголосый закадровый) (@MUZOBOZ@)","Любительский (многоголосый закадровый) (@MUZOBOZ@)","Original (English)","Полное дублирование","Полное дублирование (iTunes)"],"quality":"webdl","translation":"Любительский (многоголосый закадровый) (@MUZOBOZ@)","update":"2020-10-26 22:36:50","iframe_src":"//8543.svetacdn.in/71tsRs29n5tZ/movie/42448"},{"id":41262,"title":"Сила стихии","kp_id":"1266917","imdb_id":"tt10308928","world_art_id":null,"type":"movie","add":"2020-06-18 19:03:53","orig_title":"Force of Nature","year":"2020-06-25","translations":["Любительский (многоголосый закадровый) (AlphaProject)","Профессиональный (многоголосый закадровый) (HDrezka Studio)","Original (English)","Полное дублирование","Полное дублирование (iTunes)"],"quality":"bd","translation":"Любительский (многоголосый закадровый) (AlphaProject)","update":"2020-10-26 22:41:00","iframe_src":"//8543.svetacdn.in/71tsRs29n5tZ/movie/41262"},{"id":39476,"title":"Любовь на троих","kp_id":"1202442","imdb_id":"tt9147456","world_art_id":null,"type":"movie","add":"2020-04-18 03:57:47","orig_title":"Endings, Beginnings","year":"2019-09-08","translations":["Любительский (многоголосый закадровый) (@MUZOBOZ@)","Полное дублирование","Полное дублирование (iTunes)"],"quality":"webdl","translation":"Любительский (многоголосый закадровый) (@MUZOBOZ@)","update":"2020-10-26 22:42:27","iframe_src":"//8543.svetacdn.in/71tsRs29n5tZ/movie/39476"},{"id":32928,"title":"Верность","kp_id":"1261581","imdb_id":"tt10516086","world_art_id":null,"type":"movie","add":"2019-11-11 09:46:01","orig_title":"Fidelity","year":"2019-10-31","translations":["Оригинальная дорожка"],"quality":"bd","translation":"Оригинальная дорожка","update":"2020-10-26 16:55:14","iframe_src":"//8543.svetacdn.in/71tsRs29n5tZ/movie/32928"},{"id":5496,"title":"Вавилонская башня","kp_id":"422965","imdb_id":"tt0161203","world_art_id":null,"type":"serial","add":"2019-10-21 05:52:09","orig_title":"Torre de Babel","year":"1998-01-01","translations":["Профессиональный (многоголосый закадровый)"],"seasons_count":1,"episodes_count":134,"episodes":134,"update":"2019-10-23 12:29:48","iframe_src":"//8543.svetacdn.in/71tsRs29n5tZ/tv-series/5496"},{"id":5495,"title":"Завтра будет новый день","kp_id":"1311062","imdb_id":null,"world_art_id":null,"type":"serial","add":"2019-10-20 10:01:50","orig_title":"Завтра будет новый день","year":"2019-10-19","translations":["Оригинальная дорожка"],"seasons_count":1,"episodes_count":2,"episodes":2,"update":"2019-10-22 19:23:47","iframe_src":"//8543.svetacdn.in/71tsRs29n5tZ/tv-series/5495"},{"id":5494,"title":"Я знаю твои секреты 2","kp_id":"1283478","imdb_id":null,"world_art_id":null,"type":"serial","add":"2019-10-19 12:40:15","orig_title":"Я знаю твои секреты 2","year":"2019-10-19","translations":["Оригинальная дорожка"],"seasons_count":1,"episodes_count":4,"episodes":4,"update":"2019-10-21 11:28:03","iframe_src":"//8543.svetacdn.in/71tsRs29n5tZ/tv-series/5494"},{"id":5490,"title":"Воздушные замки","kp_id":"422962","imdb_id":"tt0202716","world_art_id":null,"type":"serial","add":"2019-10-18 09:01:41","orig_title":"Andando Nas Nuvens","year":"1999-01-01","translations":["Профессиональный (многоголосый закадровый)"],"seasons_count":1,"episodes_count":131,"episodes":131,"update":"2019-10-18 11:52:10","iframe_src":"//8543.svetacdn.in/71tsRs29n5tZ/tv-series/5490"},{"id":5488,"title":"Человек-невидимка","kp_id":"251610","imdb_id":"tt0220238","world_art_id":null,"type":"serial","add":"2019-10-17 20:11:23","orig_title":"The Invisible Man","year":"2000-06-09","translations":["Профессиональный (многоголосый закадровый) (ТВ3)"],"seasons_count":2,"episodes_count":45,"episodes":22,"update":"2019-10-22 21:32:06","iframe_src":"//8543.svetacdn.in/71tsRs29n5tZ/tv-series/5488"},{"id":5485,"title":"Гранд отель","kp_id":"601854","imdb_id":"tt2006421","world_art_id":null,"type":"serial","add":"2019-10-17 10:29:21","orig_title":"Gran Hotel","year":"2011-10-04","translations":["Полное дублирование (Домашний)","Профессиональный (двухголосый закадровый)"],"seasons_count":3,"episodes_count":39,"episodes":22,"update":"2019-10-18 09:52:51","iframe_src":"//8543.svetacdn.in/71tsRs29n5tZ/tv-series/5485"},{"id":5484,"title":"Сплит: Тайна крови","kp_id":"503033","imdb_id":"tt1885795","world_art_id":null,"type":"serial","add":"2019-10-17 08:42:25","orig_title":"Hatsuya","year":"2009-05-28","translations":["Любительский (многоголосый закадровый)","Любительский (многоголосый закадровый) (Alternative Production)","Профессиональный (многоголосый закадровый)"],"seasons_count":2,"episodes_count":90,"episodes":45,"update":"2019-10-18 07:04:04","iframe_src":"//8543.svetacdn.in/71tsRs29n5tZ/tv-series/5484"},{"id":5480,"title":"Голос сердца","kp_id":"278891","imdb_id":"tt0476078","world_art_id":null,"type":"serial","add":"2019-10-16 11:03:30","orig_title":"Alma Gêmea","year":"2005-06-20","translations":["Профессиональный (многоголосый закадровый)"],"seasons_count":1,"episodes_count":150,"episodes":150,"update":"2019-10-17 20:55:16","iframe_src":"//8543.svetacdn.in/71tsRs29n5tZ/tv-series/5480"},{"id":5478,"title":"Беглянка","kp_id":"574183","imdb_id":"tt1624845","world_art_id":null,"type":"serial","add":"2019-10-16 10:28:48","orig_title":"The Runaway","year":"2011-03-31","translations":["Профессиональный (многоголосый закадровый) (TVShows)"],"seasons_count":1,"episodes_count":6,"episodes":6,"update":"2019-10-16 21:15:13","iframe_src":"//8543.svetacdn.in/71tsRs29n5tZ/tv-series/5478"},{"id":5469,"title":"Государственная защита","kp_id":"491876","imdb_id":"tt10922758","world_art_id":null,"type":"serial","add":"2019-10-15 07:54:15","orig_title":"Gosudarstvennaya zashchita","year":"2010-01-01","translations":["Оригинальная дорожка"],"seasons_count":1,"episodes_count":12,"episodes":12,"update":"2019-10-16 08:50:00","iframe_src":"//8543.svetacdn.in/71tsRs29n5tZ/tv-series/5469"},{"id":5464,"title":"Холодные берега","kp_id":"1236244","imdb_id":"tt10592612","world_art_id":null,"type":"serial","add":"2019-10-14 15:12:43","orig_title":"Kholodnye berega","year":"2019-10-14","translations":["Оригинальная дорожка"],"seasons_count":1,"episodes_count":8,"episodes":8,"update":"2019-10-18 08:34:51","iframe_src":"//8543.svetacdn.in/71tsRs29n5tZ/tv-series/5464"},{"id":5439,"title":"Космос: Далекие уголки","kp_id":"277637","imdb_id":"tt0112173","world_art_id":null,"type":"serial","add":"2019-10-10 16:30:04","orig_title":"Space: Above and Beyond","year":"1995-09-24","translations":["Профессиональный (многоголосый закадровый)"],"seasons_count":1,"episodes_count":23,"episodes":23,"update":"2019-10-17 07:02:23","iframe_src":"//8543.svetacdn.in/71tsRs29n5tZ/tv-series/5439"},{"id":5438,"title":"Мемуары Шерлока Холмса","kp_id":"402508","imdb_id":"tt0108855","world_art_id":null,"type":"serial","add":"2019-10-10 16:25:37","orig_title":"The Memoirs of Sherlock Holmes","year":"1994-03-07","translations":["Профессиональный (многоголосый закадровый) (Русский репортаж)"],"seasons_count":1,"episodes_count":6,"episodes":6,"update":"2019-10-17 06:29:58","iframe_src":"//8543.svetacdn.in/71tsRs29n5tZ/tv-series/5438"},{"id":5437,"title":"Архив Шерлока Холмса","kp_id":"402509","imdb_id":"tt0098765","world_art_id":null,"type":"serial","add":"2019-10-10 16:17:06","orig_title":"The Case-Book of Sherlock Holmes","year":"1991-02-21","translations":["Профессиональный (многоголосый закадровый) (Русский репортаж)"],"seasons_count":3,"episodes_count":9,"episodes":2,"update":"2019-10-17 05:41:59","iframe_src":"//8543.svetacdn.in/71tsRs29n5tZ/tv-series/5437"},{"id":5426,"title":"Стыд. Германия","kp_id":"1168756","imdb_id":"tt8524580","world_art_id":null,"type":"serial","add":"2019-10-09 08:32:34","orig_title":"DRUCK Die Serie","year":"2018-03-24","translations":["Любительский (двухголосый закадровый) (GoldTeam)"],"seasons_count":4,"episodes_count":36,"episodes":6,"update":"2019-10-16 16:26:12","iframe_src":"//8543.svetacdn.in/71tsRs29n5tZ/tv-series/5426"},{"id":5337,"title":"Триада","kp_id":"1271111","imdb_id":"tt11041540","world_art_id":null,"type":"serial","add":"2019-09-30 15:38:58","orig_title":"Триада","year":"2019-09-30","translations":["Оригинальная дорожка"],"seasons_count":1,"episodes_count":16,"episodes":16,"update":"2019-10-23 09:05:55","iframe_src":"//8543.svetacdn.in/71tsRs29n5tZ/tv-series/5337"},{"id":5153,"title":"Форс-мажор","kp_id":"988790","imdb_id":"tt10027956","world_art_id":null,"type":"serial","add":"2019-09-06 15:06:46","orig_title":"Fors-mazhor","year":"2016-01-01","translations":["Оригинальная дорожка"],"seasons_count":1,"episodes_count":10,"episodes":10,"update":"2019-10-23 12:19:43","iframe_src":"//8543.svetacdn.in/71tsRs29n5tZ/tv-series/5153"},{"id":5144,"title":"Шторм","kp_id":"1040562","imdb_id":null,"world_art_id":null,"type":"serial","add":"2019-09-05 09:28:34","orig_title":"Шторм","year":"2019-09-05","translations":["Оригинальная дорожка"],"seasons_count":1,"episodes_count":8,"episodes":8,"update":"2019-10-17 06:17:30","iframe_src":"//8543.svetacdn.in/71tsRs29n5tZ/tv-series/5144"},{"id":4467,"title":"Ворон","kp_id":"1227460","imdb_id":"tt9529500","world_art_id":null,"type":"serial","add":"2019-05-07 19:12:49","orig_title":"Kuzgun","year":"2019-02-13","translations":["Любительский (двухголосый закадровый)"],"seasons_count":2,"episodes_count":21,"episodes":5,"update":"2019-10-22 17:10:05","iframe_src":"//8543.svetacdn.in/71tsRs29n5tZ/tv-series/4467"},{"id":4054,"title":"Я знаю твои секреты","kp_id":"961716","imdb_id":"tt5564484","world_art_id":null,"type":"serial","add":"2019-02-11 04:16:47","orig_title":"Ya znayu tvoi sekrety","year":"2016-04-02","translations":["Оригинальная дорожка"],"seasons_count":1,"episodes_count":4,"episodes":4,"update":"2019-10-18 06:54:17","iframe_src":"//8543.svetacdn.in/71tsRs29n5tZ/tv-series/4054"},{"id":11989,"title":"Бахубали: Завершение","kp_id":"922572","imdb_id":"tt4849438","world_art_id":null,"type":"movie","add":"2017-06-17 23:59:58","orig_title":"Bahubali 2: The Conclusion","year":"2017-04-27","translations":["Профессиональный (двухголосый закадровый)","Любительский (многоголосый закадровый) (Honey&Hoseena)"],"quality":"webdl","translation":"Профессиональный (двухголосый закадровый)","update":"2020-10-26 13:56:35","iframe_src":"//8543.svetacdn.in/71tsRs29n5tZ/movie/11989"}],"current_page":297,"first_page_url":"https://videocdn.tv/api/short?limit=100&api_token=EnbO9h8pv1VyjbCJhg0WM9nG259n7mtz&cache3297=3297&page=1","from":29601,"last_page":604,"last_page_url":"https://videocdn.tv/api/short?limit=100&api_token=EnbO9h8pv1VyjbCJhg0WM9nG259n7mtz&cache3297=3297&page=604","next_page_url":"https://videocdn.tv/api/short?limit=100&api_token=EnbO9h8pv1VyjbCJhg0WM9nG259n7mtz&cache3297=3297&page=298","path":"https://videocdn.tv/api/short","per_page":100,"prev_page_url":"https://videocdn.tv/api/short?limit=100&api_token=EnbO9h8pv1VyjbCJhg0WM9nG259n7mtz&cache3297=3297&page=296","to":29640,"total":60382}