{"result":true,"data":[{"id":50068,"title":"Богом забытая земля","kp_id":"4297081","imdb_id":"tt13576406","world_art_id":null,"type":"movie","add":"2021-05-03 09:19:57","orig_title":"Autio maa - Forsaken Land","year":"2019-07-20","translations":["Любительский (многоголосый закадровый) (Синема УС)"],"quality":"webdl","translation":"Любительский (многоголосый закадровый) (Синема УС)","update":"2021-05-03 11:18:52","iframe_src":"//89442664434375553.svetacdn.in/PfJ50H0ZBPg3/movie/50068"},{"id":50066,"title":"Склонность","kp_id":"3504","imdb_id":"tt0118698","world_art_id":null,"type":"movie","add":"2021-05-03 08:29:30","orig_title":"Bent","year":"1997-05-01","translations":["Авторский (одноголосый закадровый) (Кузнецов Сергей)"],"quality":"hdrip","translation":"Авторский (одноголосый закадровый) (Кузнецов Сергей)","update":"2021-05-03 10:45:26","iframe_src":"//89442664434375553.svetacdn.in/PfJ50H0ZBPg3/movie/50066"},{"id":50065,"title":"Снежный гонщик","kp_id":"22126","imdb_id":"tt0251174","world_art_id":null,"type":"movie","add":"2021-05-03 06:28:24","orig_title":"Kevin of the North","year":"2001-12-19","translations":["Профессиональный (многоголосый закадровый)"],"quality":"dvdrip","translation":"Профессиональный (многоголосый закадровый)","update":"2021-05-03 08:16:37","iframe_src":"//89442664434375553.svetacdn.in/PfJ50H0ZBPg3/movie/50065"},{"id":50021,"title":"Мы расстались","kp_id":"1351968","imdb_id":"tt11867884","world_art_id":null,"type":"movie","add":"2021-04-30 14:59:09","orig_title":"We Broke Up","year":"2021-04-16","translations":["[EN] Original (English)"],"quality":"webdl","translation":"[EN] Original (English)","update":"2021-05-03 07:54:36","iframe_src":"//89442664434375553.svetacdn.in/PfJ50H0ZBPg3/movie/50021"},{"id":50018,"title":"Обезьяна против монстра","kp_id":null,"imdb_id":"tt14516188","world_art_id":null,"type":"movie","add":"2021-04-30 14:13:43","orig_title":"Ape vs. Monster","year":"2021-01-01","translations":["Любительский (многоголосый закадровый) (Синема УС)","[EN] Original (English)"],"quality":"webdl","translation":"Любительский (многоголосый закадровый) (Синема УС)","update":"2021-05-03 07:35:43","iframe_src":"//89442664434375553.svetacdn.in/PfJ50H0ZBPg3/movie/50018"},{"id":50014,"title":"Снежная сказка","kp_id":"1117949","imdb_id":null,"world_art_id":null,"type":"movie","add":"2021-04-30 14:00:23","orig_title":"Снежная сказка","year":"1986-01-01","translations":["Оригинальная дорожка"],"quality":"tc","translation":"Оригинальная дорожка","update":"2021-05-03 11:36:40","iframe_src":"//89442664434375553.svetacdn.in/PfJ50H0ZBPg3/movie/50014"},{"id":49970,"title":"Плохой колдун","kp_id":"1181810","imdb_id":"tt8782956","world_art_id":null,"type":"movie","add":"2021-04-28 09:54:35","orig_title":"Bad Witch","year":"2021-04-27","translations":["Любительский (многоголосый закадровый) (Синема УС)","[EN] Original (English)"],"quality":"webdl","translation":"Любительский (многоголосый закадровый) (Синема УС)","update":"2021-05-03 07:51:46","iframe_src":"//89442664434375553.svetacdn.in/PfJ50H0ZBPg3/movie/49970"},{"id":49968,"title":"Жива или?..","kp_id":null,"imdb_id":"tt13619218","world_art_id":null,"type":"movie","add":"2021-04-28 09:45:16","orig_title":"Dead Or?","year":"2021-01-01","translations":["Любительский (многоголосый закадровый) (Синема УС)","[EN] Original (English)"],"quality":"webdl","translation":"Любительский (многоголосый закадровый) (Синема УС)","update":"2021-05-03 07:53:07","iframe_src":"//89442664434375553.svetacdn.in/PfJ50H0ZBPg3/movie/49968"},{"id":49964,"title":"Соломон","kp_id":"904471","imdb_id":"tt4511400","world_art_id":null,"type":"movie","add":"2021-04-28 08:55:41","orig_title":"Solomon","year":"2021-04-27","translations":["Любительский (многоголосый закадровый) (AlphaProject)","[EN] Original (English)"],"quality":"webdl","translation":"Любительский (многоголосый закадровый) (AlphaProject)","update":"2021-05-03 07:55:23","iframe_src":"//89442664434375553.svetacdn.in/PfJ50H0ZBPg3/movie/49964"},{"id":49962,"title":"Скрытая истина","kp_id":"1268386","imdb_id":"tt10368680","world_art_id":null,"type":"movie","add":"2021-04-28 08:48:02","orig_title":"Below the Fold","year":"2021-04-13","translations":["Любительский (многоголосый закадровый) (@MUZOBOZ@)","[EN] Original (English)"],"quality":"webdl","translation":"Любительский (многоголосый закадровый) (@MUZOBOZ@)","update":"2021-05-03 07:49:53","iframe_src":"//89442664434375553.svetacdn.in/PfJ50H0ZBPg3/movie/49962"},{"id":49515,"title":"Отель инферно 3: Замок криков","kp_id":"1101109","imdb_id":"tt7612146","world_art_id":null,"type":"movie","add":"2021-04-11 17:03:30","orig_title":"Hotel Inferno 3: The Castle of Screams","year":"2021-01-27","translations":["Любительский (двухголосый закадровый) (Колобок)","[EN] Original (English)"],"quality":"webdl","translation":"Любительский (двухголосый закадровый) (Колобок)","update":"2021-05-03 07:46:59","iframe_src":"//89442664434375553.svetacdn.in/PfJ50H0ZBPg3/movie/49515"},{"id":49125,"title":"Нет этим улицам покоя","kp_id":"1248788","imdb_id":"tt9893266","world_art_id":null,"type":"movie","add":"2021-03-26 21:04:25","orig_title":"These Streets We Haunt","year":"2021-03-24","translations":["Любительский (многоголосый закадровый) (Синема УС)","[EN] Original (English)"],"quality":"webdl","translation":"Любительский (многоголосый закадровый) (Синема УС)","update":"2021-05-03 07:47:47","iframe_src":"//89442664434375553.svetacdn.in/PfJ50H0ZBPg3/movie/49125"},{"id":47472,"title":"Волшебник Макс","kp_id":"1119213","imdb_id":"tt7335154","world_art_id":null,"type":"movie","add":"2021-01-28 08:54:00","orig_title":"Magic Max","year":"2020-11-05","translations":["Любительский (многоголосый закадровый) (AlphaProject)","[EN] Original (English)"],"quality":"webdl","translation":"Любительский (многоголосый закадровый) (AlphaProject)","update":"2021-05-03 07:56:15","iframe_src":"//89442664434375553.svetacdn.in/PfJ50H0ZBPg3/movie/47472"},{"id":31161,"title":"Выход","kp_id":"1118187","imdb_id":"tt10648440","world_art_id":null,"type":"movie","add":"2019-09-25 09:09:10","orig_title":"Eksiteu","year":"2019-07-31","translations":["Любительский (многоголосый закадровый) (Колобок)","Любительский (двухголосый закадровый) (RealFake)","Полное дублирование (iTunes)"],"quality":"webdl","translation":"Любительский (многоголосый закадровый) (Колобок)","update":"2021-05-03 11:15:11","iframe_src":"//89442664434375553.svetacdn.in/PfJ50H0ZBPg3/movie/31161"},{"id":23319,"title":"Москва-Кассиопея","kp_id":"46711","imdb_id":"tt0070413","world_art_id":null,"type":"movie","add":"2019-03-21 08:13:10","orig_title":"Moskva-Kassiopeya","year":"1974-09-23","translations":["Оригинальная дорожка"],"quality":"webdl","translation":"Оригинальная дорожка","update":"2021-05-03 11:24:01","iframe_src":"//89442664434375553.svetacdn.in/PfJ50H0ZBPg3/movie/23319"},{"id":15932,"title":"Корабль дураков","kp_id":"16755","imdb_id":"tt0059712","world_art_id":null,"type":"movie","add":"2018-03-30 21:22:27","orig_title":"Ship of Fools","year":"1965-07-29","translations":["Профессиональный (двухголосый закадровый)","Профессиональный (многоголосый закадровый) (Film Prestige)"],"quality":"bd","translation":"Профессиональный (двухголосый закадровый)","update":"2021-05-03 11:32:41","iframe_src":"//89442664434375553.svetacdn.in/PfJ50H0ZBPg3/movie/15932"},{"id":15473,"title":"Похищенная","kp_id":"465740","imdb_id":"tt1422136","world_art_id":null,"type":"movie","add":"2018-03-07 21:21:41","orig_title":"A Lonely Place to Die","year":"2011-04-09","translations":["Профессиональный (многоголосый закадровый)","[EN] Original (English)","Авторский (одноголосый закадровый) (Сербин Юрий)"],"quality":"bd","translation":"Профессиональный (многоголосый закадровый)","update":"2021-05-03 11:10:24","iframe_src":"//89442664434375553.svetacdn.in/PfJ50H0ZBPg3/movie/15473"},{"id":12737,"title":"Монтаж","kp_id":"764266","imdb_id":"tt2969522","world_art_id":null,"type":"movie","add":"2017-08-01 06:25:28","orig_title":"Mongtaju","year":"2013-05-16","translations":["Любительский (многоголосый закадровый) (STEPonee)","Любительский (многоголосый закадровый) (STEPonee)","Любительский (двухголосый закадровый) (DeadSno & den904)"],"quality":"hdtv","translation":"Любительский (многоголосый закадровый) (STEPonee)","update":"2021-05-03 11:35:55","iframe_src":"//89442664434375553.svetacdn.in/PfJ50H0ZBPg3/movie/12737"},{"id":3165,"title":"Восемь с половиной","kp_id":"535","imdb_id":"tt0056801","world_art_id":null,"type":"movie","add":"2016-06-15 10:25:16","orig_title":"8½","year":"1963-02-14","translations":["Профессиональный (многоголосый закадровый)","Профессиональный (многоголосый закадровый) (Film Prestige)"],"quality":"hdtv","translation":"Профессиональный (многоголосый закадровый)","update":"2021-05-03 11:16:54","iframe_src":"//89442664434375553.svetacdn.in/PfJ50H0ZBPg3/movie/3165"},{"id":3059,"title":"Первый рыцарь","kp_id":"17053","imdb_id":"tt0113071","world_art_id":null,"type":"movie","add":"2016-06-09 17:42:23","orig_title":"First Knight","year":"1995-07-07","translations":["Полное дублирование","Авторский (одноголосый закадровый) (Живов Юрий)","Полное дублирование","[EN] Original (English)","Профессиональный (двухголосый закадровый) (РенТВ)","Профессиональный (многоголосый закадровый)","Профессиональный (многоголосый закадровый) (СТС)","Профессиональный (многоголосый закадровый) (ТВЦ)"],"quality":"bd","translation":"Полное дублирование","update":"2021-05-03 10:11:02","iframe_src":"//89442664434375553.svetacdn.in/PfJ50H0ZBPg3/movie/3059"}],"current_page":776,"first_page_url":"https://videocdn.tv/api/short?limit=100&api_token=RgFQdUIR2dRmwv8iYa5SnFNgnw3vpjKj&cache3776=3776&page=1","from":77501,"last_page":734,"last_page_url":"https://videocdn.tv/api/short?limit=100&api_token=RgFQdUIR2dRmwv8iYa5SnFNgnw3vpjKj&cache3776=3776&page=734","next_page_url":null,"path":"https://videocdn.tv/api/short","per_page":100,"prev_page_url":"https://videocdn.tv/api/short?limit=100&api_token=RgFQdUIR2dRmwv8iYa5SnFNgnw3vpjKj&cache3776=3776&page=775","to":77520,"total":73325}