{"result":true,"data":[{"id":52062,"title":"Мерзавец","kp_id":"46613","imdb_id":"tt0307152","world_art_id":null,"type":"movie","add":"2021-07-27 18:10:16","orig_title":"Yaramaz","year":"1988-05-31","translations":["Профессиональный (одноголосый закадровый)"],"quality":"sat","translation":"Профессиональный (одноголосый закадровый)","update":"2021-07-30 08:14:14","iframe_src":"//83.svetacdn.in/PfJ50H0ZBPg3/movie/52062"},{"id":52061,"title":"Мужчина для молодой женщины","kp_id":"46740","imdb_id":"tt0307204","world_art_id":null,"type":"movie","add":"2021-07-27 17:57:51","orig_title":"Ganc qadinin kisisi","year":"1988-05-29","translations":["Профессиональный (одноголосый закадровый)"],"quality":"webdl","translation":"Профессиональный (одноголосый закадровый)","update":"2021-07-30 08:12:40","iframe_src":"//83.svetacdn.in/PfJ50H0ZBPg3/movie/52061"},{"id":52032,"title":"Сказка старого дуба","kp_id":"581369","imdb_id":"tt1726757","world_art_id":null,"type":"movie","add":"2021-07-26 21:36:52","orig_title":"Skazka starogo duba","year":"1984-01-01","translations":["Оригинальная дорожка"],"quality":"webdl","translation":"Оригинальная дорожка","update":"2021-07-30 08:06:39","iframe_src":"//83.svetacdn.in/PfJ50H0ZBPg3/movie/52032"},{"id":52031,"title":"Листопад в пору лета","kp_id":"425034","imdb_id":"tt0378258","world_art_id":null,"type":"movie","add":"2021-07-26 21:34:27","orig_title":"Listopad v poru leta","year":"1986-01-01","translations":["Оригинальная дорожка"],"quality":"vhs","translation":"Оригинальная дорожка","update":"2021-07-30 08:03:44","iframe_src":"//83.svetacdn.in/PfJ50H0ZBPg3/movie/52031"},{"id":52030,"title":"Суд","kp_id":"824959","imdb_id":"tt7147592","world_art_id":null,"type":"movie","add":"2021-07-26 21:31:53","orig_title":"Sud","year":"1967-01-01","translations":["Оригинальная дорожка"],"quality":"webdl","translation":"Оригинальная дорожка","update":"2021-07-30 08:02:16","iframe_src":"//83.svetacdn.in/PfJ50H0ZBPg3/movie/52030"},{"id":51166,"title":"Кошмарные выходные","kp_id":"32631","imdb_id":"tt0091631","world_art_id":null,"type":"movie","add":"2021-06-14 06:56:28","orig_title":"Nightmare Weekend","year":"1986-05-12","translations":["Любительский (одноголосый закадровый) (den904)","[EN] Original (English)"],"quality":"bd","translation":"Любительский (одноголосый закадровый) (den904)","update":"2021-07-30 07:40:45","iframe_src":"//83.svetacdn.in/PfJ50H0ZBPg3/movie/51166"},{"id":51114,"title":"Зло в ночи","kp_id":"49590","imdb_id":"tt0089109","world_art_id":null,"type":"movie","add":"2021-06-11 20:59:38","orig_title":"Evils of the Night","year":"1985-05-11","translations":["Любительский (одноголосый закадровый) (ДиоНиК)","[EN] Original (English)"],"quality":"bd","translation":"Любительский (одноголосый закадровый) (ДиоНиК)","update":"2021-07-30 07:48:43","iframe_src":"//83.svetacdn.in/PfJ50H0ZBPg3/movie/51114"},{"id":50897,"title":"Кровавая вечеринка","kp_id":"32581","imdb_id":"tt0084695","world_art_id":null,"type":"movie","add":"2021-06-03 08:38:26","orig_title":"The Slumber Party Massacre","year":"1982-01-01","translations":["Авторский (одноголосый закадровый) (Дольский Андрей)","Любительский (одноголосый закадровый)","[EN] Original (English)"],"quality":"hdrip","translation":"Авторский (одноголосый закадровый) (Дольский Андрей)","update":"2021-07-30 07:20:55","iframe_src":"//83.svetacdn.in/PfJ50H0ZBPg3/movie/50897"},{"id":50828,"title":"Полевые лилии","kp_id":"20571","imdb_id":"tt0057251","world_art_id":null,"type":"movie","add":"2021-06-01 11:29:15","orig_title":"Lilies of the Field","year":"1963-06-01","translations":["Профессиональный (двухголосый закадровый) (НТВ)","[EN] Original (English)"],"quality":"bd","translation":"Профессиональный (двухголосый закадровый) (НТВ)","update":"2021-07-30 07:44:46","iframe_src":"//83.svetacdn.in/PfJ50H0ZBPg3/movie/50828"},{"id":50827,"title":"Грязная дюжина","kp_id":"6283","imdb_id":"tt0061578","world_art_id":null,"type":"movie","add":"2021-06-01 11:20:04","orig_title":"The Dirty Dozen","year":"1967-06-15","translations":["Профессиональный (многоголосый закадровый)","[EN] Original (English)"],"quality":"bd","translation":"Профессиональный (многоголосый закадровый)","update":"2021-07-30 07:25:18","iframe_src":"//83.svetacdn.in/PfJ50H0ZBPg3/movie/50827"},{"id":50826,"title":"Адская ночь","kp_id":"7433","imdb_id":"tt0082511","world_art_id":null,"type":"movie","add":"2021-06-01 07:38:56","orig_title":"Hell Night","year":"1981-05-20","translations":["Любительский (одноголосый закадровый) (Васильев Андрей)","[EN] Original (English)"],"quality":"bd","translation":"Любительский (одноголосый закадровый) (Васильев Андрей)","update":"2021-07-30 07:46:35","iframe_src":"//83.svetacdn.in/PfJ50H0ZBPg3/movie/50826"},{"id":50825,"title":"Аллигатор","kp_id":"4092","imdb_id":"tt0080354","world_art_id":null,"type":"movie","add":"2021-06-01 07:35:24","orig_title":"Alligator","year":"1980-11-13","translations":["Авторский (одноголосый закадровый) (Живов Юрий)","Авторский (одноголосый закадровый) (Дольский Андрей)","Авторский (одноголосый закадровый) (Кузнецов Сергей)","[EN] Original (English)"],"quality":"bd","translation":"Авторский (одноголосый закадровый) (Живов Юрий)","update":"2021-07-30 07:52:56","iframe_src":"//83.svetacdn.in/PfJ50H0ZBPg3/movie/50825"},{"id":50670,"title":"Танец смерти","kp_id":"4398","imdb_id":"tt0093986","world_art_id":null,"type":"movie","add":"2021-05-25 21:34:51","orig_title":"Slam Dance","year":"1987-05-13","translations":["Профессиональный (двухголосый закадровый) (НТВ)","[EN] Original (English)"],"quality":"bd","translation":"Профессиональный (двухголосый закадровый) (НТВ)","update":"2021-07-30 07:27:02","iframe_src":"//83.svetacdn.in/PfJ50H0ZBPg3/movie/50670"},{"id":50669,"title":"Обход","kp_id":"32740","imdb_id":"tt0067959","world_art_id":null,"type":"movie","add":"2021-05-25 21:32:14","orig_title":"Walkabout","year":"1971-05-16","translations":["Профессиональный (многоголосый закадровый)","[EN] Original (English)"],"quality":"bd","translation":"Профессиональный (многоголосый закадровый)","update":"2021-07-30 07:13:27","iframe_src":"//83.svetacdn.in/PfJ50H0ZBPg3/movie/50669"},{"id":50646,"title":"Страх в ночи","kp_id":"78888","imdb_id":"tt0098072","world_art_id":null,"type":"movie","add":"2021-05-25 11:26:17","orig_title":"Paura nel buio","year":"1989-01-01","translations":["Любительский (одноголосый закадровый)","[EN] Original (English)"],"quality":"bd","translation":"Любительский (одноголосый закадровый)","update":"2021-07-30 07:36:15","iframe_src":"//83.svetacdn.in/PfJ50H0ZBPg3/movie/50646"},{"id":50607,"title":"Однажды тёмной ночью","kp_id":"34220","imdb_id":"tt0086050","world_art_id":null,"type":"movie","add":"2021-05-24 05:34:30","orig_title":"One Dark Night","year":"1982-07-09","translations":["Авторский (одноголосый закадровый) (Дольский Андрей)","[EN] Original (English)"],"quality":"bd","translation":"Авторский (одноголосый закадровый) (Дольский Андрей)","update":"2021-07-30 07:38:15","iframe_src":"//83.svetacdn.in/PfJ50H0ZBPg3/movie/50607"},{"id":50499,"title":"Граница округа Мэйкон","kp_id":"56737","imdb_id":"tt0071788","world_art_id":null,"type":"movie","add":"2021-05-19 14:58:59","orig_title":"Macon County Line","year":"1974-08-08","translations":["Авторский (одноголосый закадровый) (Лагута Андрей)","[EN] Original (English)"],"quality":"bd","translation":"Авторский (одноголосый закадровый) (Лагута Андрей)","update":"2021-07-30 07:42:58","iframe_src":"//83.svetacdn.in/PfJ50H0ZBPg3/movie/50499"},{"id":5523,"title":"Тварь Питера Бенчли","kp_id":"77310","imdb_id":"tt0156205","world_art_id":null,"type":"serial","add":"2019-10-25 06:54:41","orig_title":"Creature","year":"1998-05-17","translations":["Профессиональный (многоголосый закадровый)"],"seasons_count":1,"episodes_count":2,"episodes":2,"update":"2019-10-25 09:42:12","iframe_src":"//83.svetacdn.in/PfJ50H0ZBPg3/tv-series/5523"},{"id":5520,"title":"Долина смерти","kp_id":"591870","imdb_id":"tt1835129","world_art_id":null,"type":"serial","add":"2019-10-24 19:49:37","orig_title":"Death Valley","year":"2011-08-29","translations":["Профессиональный (многоголосый закадровый) (AlexFilm)"],"seasons_count":1,"episodes_count":12,"episodes":12,"update":"2019-10-25 12:07:47","iframe_src":"//83.svetacdn.in/PfJ50H0ZBPg3/tv-series/5520"},{"id":5517,"title":"Степь","kp_id":"1209828","imdb_id":"tt9278408","world_art_id":null,"type":"serial","add":"2019-10-24 04:33:26","orig_title":"Bozkir","year":"2018-11-30","translations":["Профессиональный (двухголосый закадровый) (ViruseProject)"],"seasons_count":1,"episodes_count":10,"episodes":10,"update":"2019-10-25 07:48:03","iframe_src":"//83.svetacdn.in/PfJ50H0ZBPg3/tv-series/5517"},{"id":5516,"title":"Наблюдатель","kp_id":"1235127","imdb_id":"tt10405674","world_art_id":null,"type":"serial","add":"2019-10-24 04:26:39","orig_title":"Watchyeo","year":"2019-07-06","translations":["Любительский (двухголосый закадровый) (Колобок)"],"seasons_count":1,"episodes_count":16,"episodes":16,"update":"2019-10-25 07:45:33","iframe_src":"//83.svetacdn.in/PfJ50H0ZBPg3/tv-series/5516"},{"id":5514,"title":"Бумажки","kp_id":"923516","imdb_id":"tt7983914","world_art_id":null,"type":"serial","add":"2019-10-23 20:22:31","orig_title":"Bumazhki","year":"2015-03-21","translations":["Оригинальная дорожка"],"seasons_count":1,"episodes_count":78,"episodes":78,"update":"2019-10-24 20:50:31","iframe_src":"//83.svetacdn.in/PfJ50H0ZBPg3/tv-series/5514"},{"id":5511,"title":"Сейчас или никогда","kp_id":"390330","imdb_id":"tt0212395","world_art_id":null,"type":"serial","add":"2019-10-23 10:23:34","orig_title":"Now and Again","year":"1999-09-24","translations":["Любительский (двухголосый закадровый)"],"seasons_count":1,"episodes_count":22,"episodes":22,"update":"2019-10-24 21:24:31","iframe_src":"//83.svetacdn.in/PfJ50H0ZBPg3/tv-series/5511"},{"id":5509,"title":"Луи","kp_id":"505736","imdb_id":"tt1492966","world_art_id":null,"type":"serial","add":"2019-10-23 09:36:40","orig_title":"Louie","year":"2010-06-29","translations":["Любительский (двухголосый закадровый)","Профессиональный (двухголосый закадровый) (Ozz.tv)"],"seasons_count":5,"episodes_count":61,"episodes":8,"update":"2019-10-24 13:00:08","iframe_src":"//83.svetacdn.in/PfJ50H0ZBPg3/tv-series/5509"},{"id":5508,"title":"Бездна","kp_id":"594640","imdb_id":"tt1525182","world_art_id":null,"type":"serial","add":"2019-10-23 09:30:37","orig_title":"The Deep","year":"2010-08-03","translations":["Профессиональный (многоголосый закадровый) (TVShows)"],"seasons_count":1,"episodes_count":5,"episodes":5,"update":"2019-10-24 20:28:46","iframe_src":"//83.svetacdn.in/PfJ50H0ZBPg3/tv-series/5508"},{"id":5507,"title":"Активы","kp_id":"818729","imdb_id":"tt3074646","world_art_id":null,"type":"serial","add":"2019-10-23 09:13:41","orig_title":"The Assets","year":"2014-01-02","translations":["Профессиональный (многоголосый закадровый) (TVShows)"],"seasons_count":1,"episodes_count":8,"episodes":8,"update":"2019-10-24 20:21:45","iframe_src":"//83.svetacdn.in/PfJ50H0ZBPg3/tv-series/5507"},{"id":5505,"title":"Пороги времени","kp_id":"89594","imdb_id":"tt0106154","world_art_id":null,"type":"serial","add":"2019-10-23 08:48:59","orig_title":"Time Trax","year":"1993-01-20","translations":["Полное дублирование (СВ-Дубль)"],"seasons_count":2,"episodes_count":43,"episodes":22,"update":"2019-10-24 12:06:21","iframe_src":"//83.svetacdn.in/PfJ50H0ZBPg3/tv-series/5505"},{"id":5504,"title":"Слепой 2","kp_id":"424035","imdb_id":"tt4113972","world_art_id":null,"type":"serial","add":"2019-10-23 08:45:24","orig_title":"Slepoy 2","year":"2005-01-01","translations":["Оригинальная дорожка"],"seasons_count":1,"episodes_count":8,"episodes":8,"update":"2019-10-24 19:58:52","iframe_src":"//83.svetacdn.in/PfJ50H0ZBPg3/tv-series/5504"},{"id":5503,"title":"Школа вампиров","kp_id":"510091","imdb_id":"tt1073449","world_art_id":null,"type":"serial","add":"2019-10-23 07:10:53","orig_title":"Die Schule der kleinen Vampire","year":"2006-01-01","translations":["Полное дублирование"],"seasons_count":3,"episodes_count":78,"episodes":26,"update":"2019-10-24 11:14:03","iframe_src":"//83.svetacdn.in/PfJ50H0ZBPg3/tv-series/5503"},{"id":5495,"title":"Завтра будет новый день","kp_id":"1311062","imdb_id":null,"world_art_id":null,"type":"serial","add":"2019-10-20 10:01:50","orig_title":"Завтра будет новый день","year":"2019-10-19","translations":["Оригинальная дорожка"],"seasons_count":1,"episodes_count":2,"episodes":2,"update":"2019-10-22 19:23:47","iframe_src":"//83.svetacdn.in/PfJ50H0ZBPg3/tv-series/5495"},{"id":5488,"title":"Человек-невидимка","kp_id":"251610","imdb_id":"tt0220238","world_art_id":null,"type":"serial","add":"2019-10-17 20:11:23","orig_title":"The Invisible Man","year":"2000-06-09","translations":["Профессиональный (многоголосый закадровый) (ТВ3)","Профессиональный (многоголосый закадровый) (СТС)"],"seasons_count":2,"episodes_count":45,"episodes":22,"update":"2019-10-22 21:32:06","iframe_src":"//83.svetacdn.in/PfJ50H0ZBPg3/tv-series/5488"},{"id":5483,"title":"Белиссима","kp_id":"325758","imdb_id":"tt0488259","world_art_id":null,"type":"serial","add":"2019-10-16 21:08:48","orig_title":"Belíssima","year":"2005-11-07","translations":["Профессиональный (многоголосый закадровый)"],"seasons_count":1,"episodes_count":180,"episodes":180,"update":"2019-10-25 07:16:03","iframe_src":"//83.svetacdn.in/PfJ50H0ZBPg3/tv-series/5483"},{"id":5475,"title":"Чаггингтон: Веселые паровозики","kp_id":"565228","imdb_id":"tt1307510","world_art_id":null,"type":"serial","add":"2019-10-15 12:21:49","orig_title":"Chuggington","year":"2009-01-01","translations":["Полное дублирование"],"seasons_count":4,"episodes_count":118,"episodes":26,"update":"2019-10-23 20:44:33","iframe_src":"//83.svetacdn.in/PfJ50H0ZBPg3/tv-series/5475"},{"id":5153,"title":"Форс-мажор","kp_id":"988790","imdb_id":"tt10027956","world_art_id":null,"type":"serial","add":"2019-09-06 15:06:46","orig_title":"Fors-mazhor","year":"2016-01-01","translations":["Оригинальная дорожка"],"seasons_count":1,"episodes_count":10,"episodes":10,"update":"2019-10-23 12:19:43","iframe_src":"//83.svetacdn.in/PfJ50H0ZBPg3/tv-series/5153"},{"id":5145,"title":"Элегантная семья","kp_id":"1256142","imdb_id":"tt10815362","world_art_id":null,"type":"serial","add":"2019-09-05 09:31:42","orig_title":"Wooahan Ga","year":"2019-08-21","translations":["Любительский (двухголосый закадровый) (Voice Project Studio)"],"seasons_count":1,"episodes_count":16,"episodes":16,"update":"2019-10-25 04:14:02","iframe_src":"//83.svetacdn.in/PfJ50H0ZBPg3/tv-series/5145"},{"id":5003,"title":"Госпожа","kp_id":"726626","imdb_id":"tt2585808","world_art_id":null,"type":"serial","add":"2019-08-07 11:05:59","orig_title":"La Patrona","year":"2013-01-08","translations":["Любительский (одноголосый закадровый) (Stevie)"],"seasons_count":1,"episodes_count":5,"episodes":5,"update":"2019-10-25 12:00:49","iframe_src":"//83.svetacdn.in/PfJ50H0ZBPg3/tv-series/5003"},{"id":3264,"title":"Учителя","kp_id":"1108687","imdb_id":null,"world_art_id":null,"type":"serial","add":"2018-10-06 09:56:50","orig_title":"Учителя","year":"2018-10-01","translations":["Оригинальная дорожка"],"seasons_count":1,"episodes_count":12,"episodes":12,"update":"2019-10-24 17:54:45","iframe_src":"//83.svetacdn.in/PfJ50H0ZBPg3/tv-series/3264"},{"id":19248,"title":"Инопланетянка из Лос-Анджелеса","kp_id":"36379","imdb_id":"tt0092532","world_art_id":null,"type":"movie","add":"2018-09-28 02:05:05","orig_title":"Alien from L.A.","year":"1988-02-26","translations":["Любительский (одноголосый закадровый)","Любительский (одноголосый закадровый) (Васильев Андрей)","[EN] Original (English)"],"quality":"dvdrip","translation":"Любительский (одноголосый закадровый)","update":"2021-07-30 07:54:49","iframe_src":"//83.svetacdn.in/PfJ50H0ZBPg3/movie/19248"},{"id":2582,"title":"Мозги набекрень","kp_id":"12270","imdb_id":"tt0085894","world_art_id":null,"type":"movie","add":"2016-05-25 13:58:53","orig_title":"The Man with Two Brains","year":"1983-06-03","translations":["Профессиональный (многоголосый закадровый)","[EN] Original (English)"],"quality":"bd","translation":"Профессиональный (многоголосый закадровый)","update":"2021-07-30 07:23:55","iframe_src":"//83.svetacdn.in/PfJ50H0ZBPg3/movie/2582"},{"id":723,"title":"Игры дьявола","kp_id":"12258","imdb_id":"tt0292963","world_art_id":null,"type":"movie","add":"2016-04-06 21:31:30","orig_title":"Before the Devil Knows You're Dead","year":"2007-09-06","translations":["Полное дублирование","Полное дублирование","Авторский (одноголосый закадровый) (Сербин Юрий)","[EN] Original (English)"],"quality":"bd","translation":"Полное дублирование","update":"2021-07-30 07:57:03","iframe_src":"//83.svetacdn.in/PfJ50H0ZBPg3/movie/723"}],"current_page":419,"first_page_url":"https://videocdn.tv/api/short?limit=100&api_token=RgFQdUIR2dRmwv8iYa5SnFNgnw3vpjKj&cache3419=3419&page=1","from":41801,"last_page":708,"last_page_url":"https://videocdn.tv/api/short?limit=100&api_token=RgFQdUIR2dRmwv8iYa5SnFNgnw3vpjKj&cache3419=3419&page=708","next_page_url":"https://videocdn.tv/api/short?limit=100&api_token=RgFQdUIR2dRmwv8iYa5SnFNgnw3vpjKj&cache3419=3419&page=420","path":"https://videocdn.tv/api/short","per_page":100,"prev_page_url":"https://videocdn.tv/api/short?limit=100&api_token=RgFQdUIR2dRmwv8iYa5SnFNgnw3vpjKj&cache3419=3419&page=418","to":41840,"total":70721}