{"result":true,"data":[{"id":5317,"title":"Телевикторина","kp_id":"4321","imdb_id":"tt0110932","world_art_id":null,"type":"movie","add":"2016-09-16 07:49:05","orig_title":"Quiz Show","year":"1994-09-23","translations":["Профессиональный (многоголосый закадровый)"],"quality":"bd","translation":"Профессиональный (многоголосый закадровый)","update":"2016-09-19 17:55:10","iframe_src":"//5322.svetacdn.in/si4jsFRrtgrT/movie/5317"},{"id":5316,"title":"Невероятная тайна Лулу","kp_id":"817973","imdb_id":"tt3400214","world_art_id":null,"type":"movie","add":"2016-09-16 07:48:29","orig_title":"Loulou, l'incroyable secret","year":"2013-12-18","translations":["Полное дублирование (iTunes)"],"quality":"bd","translation":"Полное дублирование (iTunes)","update":"2016-09-19 17:56:59","iframe_src":"//5322.svetacdn.in/si4jsFRrtgrT/movie/5316"},{"id":5312,"title":"Юленька","kp_id":"416132","imdb_id":"tt1372747","world_art_id":null,"type":"movie","add":"2016-09-16 07:45:21","orig_title":"Yulenka","year":"2009-02-19","translations":["Оригинальная дорожка"],"quality":"bd","translation":"Оригинальная дорожка","update":"2016-09-19 18:00:05","iframe_src":"//5322.svetacdn.in/si4jsFRrtgrT/movie/5312"},{"id":5311,"title":"Рождественская пятерка","kp_id":"432619","imdb_id":"tt1328875","world_art_id":null,"type":"movie","add":"2016-09-16 07:44:41","orig_title":"Santa Buddies","year":"2009-11-18","translations":["Полное дублирование"],"quality":"bd","translation":"Полное дублирование","update":"2016-09-19 18:02:50","iframe_src":"//5322.svetacdn.in/si4jsFRrtgrT/movie/5311"},{"id":5310,"title":"Сайпресс Крик","kp_id":"853751","imdb_id":"tt4028134","world_art_id":null,"type":"movie","add":"2016-09-16 07:44:06","orig_title":"Cypress Creek","year":"2014-12-01","translations":["Авторский (одноголосый закадровый) (Дольский Андрей)"],"quality":"bd","translation":"Авторский (одноголосый закадровый) (Дольский Андрей)","update":"2016-09-19 18:04:15","iframe_src":"//5322.svetacdn.in/si4jsFRrtgrT/movie/5310"},{"id":5308,"title":"Спартанец","kp_id":"2974","imdb_id":"tt0360009","world_art_id":null,"type":"movie","add":"2016-09-16 07:42:23","orig_title":"Spartan","year":"2004-01-31","translations":["Полное дублирование"],"quality":"bd","translation":"Полное дублирование","update":"2016-09-19 18:11:11","iframe_src":"//5322.svetacdn.in/si4jsFRrtgrT/movie/5308"},{"id":5306,"title":"7 ящикoв","kp_id":"705678","imdb_id":"tt2333598","world_art_id":null,"type":"movie","add":"2016-09-16 07:41:06","orig_title":"7 cajas","year":"2012-08-10","translations":["Профессиональный (многоголосый закадровый)"],"quality":"bd","translation":"Профессиональный (многоголосый закадровый)","update":"2016-09-19 18:23:50","iframe_src":"//5322.svetacdn.in/si4jsFRrtgrT/movie/5306"},{"id":5305,"title":"Раскаяние","kp_id":"769022","imdb_id":"tt2959536","world_art_id":null,"type":"movie","add":"2016-09-16 07:40:02","orig_title":"Apparition","year":"2015-05-05","translations":["Авторский (одноголосый закадровый) (Дольский Андрей)"],"quality":"bd","translation":"Авторский (одноголосый закадровый) (Дольский Андрей)","update":"2016-09-19 18:23:55","iframe_src":"//5322.svetacdn.in/si4jsFRrtgrT/movie/5305"},{"id":5304,"title":"Лэйк Плэсид: Озеро страха","kp_id":"3449","imdb_id":"tt0139414","world_art_id":null,"type":"movie","add":"2016-09-16 07:38:45","orig_title":"Lake Placid","year":"1999-07-15","translations":["Полное дублирование"],"quality":"bd","translation":"Полное дублирование","update":"2016-09-19 18:33:37","iframe_src":"//5322.svetacdn.in/si4jsFRrtgrT/movie/5304"},{"id":5303,"title":"Куда покойники уходят умирать","kp_id":"645144","imdb_id":"tt2095004","world_art_id":null,"type":"movie","add":"2016-09-16 07:38:06","orig_title":"Where the Dead Go to Die","year":"2012-04-17","translations":["Авторский (одноголосый закадровый) (Дольский Андрей)"],"quality":"bd","translation":"Авторский (одноголосый закадровый) (Дольский Андрей)","update":"2016-09-19 18:29:16","iframe_src":"//5322.svetacdn.in/si4jsFRrtgrT/movie/5303"},{"id":5302,"title":"Теория заговора","kp_id":"667970","imdb_id":"tt2249221","world_art_id":null,"type":"movie","add":"2016-09-16 07:37:12","orig_title":"Zulu","year":"2013-05-26","translations":["Профессиональный (многоголосый закадровый)"],"quality":"bd","translation":"Профессиональный (многоголосый закадровый)","update":"2016-09-19 18:28:08","iframe_src":"//5322.svetacdn.in/si4jsFRrtgrT/movie/5302"},{"id":5301,"title":"Крошка Молли","kp_id":"561529","imdb_id":"tt1707392","world_art_id":null,"type":"movie","add":"2016-09-16 07:35:59","orig_title":"Lovely Molly","year":"2011-09-14","translations":["Полное дублирование"],"quality":"bd","translation":"Полное дублирование","update":"2016-09-19 18:38:36","iframe_src":"//5322.svetacdn.in/si4jsFRrtgrT/movie/5301"},{"id":5300,"title":"Камень желаний","kp_id":"425087","imdb_id":"tt1100119","world_art_id":null,"type":"movie","add":"2016-09-16 07:35:21","orig_title":"Shorts","year":"2009-08-07","translations":["Профессиональный (многоголосый закадровый)"],"quality":"bd","translation":"Профессиональный (многоголосый закадровый)","update":"2016-09-19 18:34:46","iframe_src":"//5322.svetacdn.in/si4jsFRrtgrT/movie/5300"},{"id":5297,"title":"Транссибирский экспресс","kp_id":"263506","imdb_id":"tt0800241","world_art_id":null,"type":"movie","add":"2016-09-16 07:33:14","orig_title":"Transsiberian","year":"2008-01-18","translations":["Профессиональный (многоголосый закадровый)"],"quality":"bd","translation":"Профессиональный (многоголосый закадровый)","update":"2016-09-19 18:42:50","iframe_src":"//5322.svetacdn.in/si4jsFRrtgrT/movie/5297"},{"id":5296,"title":"Кассета 13","kp_id":"819490","imdb_id":"tt3453580","world_art_id":null,"type":"movie","add":"2016-09-16 07:32:33","orig_title":"Tape_13","year":"2014-02-11","translations":["Авторский (одноголосый закадровый) (Дольский Андрей)"],"quality":"bd","translation":"Авторский (одноголосый закадровый) (Дольский Андрей)","update":"2016-09-19 18:47:07","iframe_src":"//5322.svetacdn.in/si4jsFRrtgrT/movie/5296"},{"id":5295,"title":"Из жизни тайных агентов","kp_id":"18247","imdb_id":"tt0108442","world_art_id":null,"type":"movie","add":"2016-09-16 07:31:49","orig_title":"Undercover Blues","year":"1993-09-10","translations":["Профессиональный (многоголосый закадровый)"],"quality":"bd","translation":"Профессиональный (многоголосый закадровый)","update":"2016-09-19 18:48:48","iframe_src":"//5322.svetacdn.in/si4jsFRrtgrT/movie/5295"},{"id":5283,"title":"Выродки","kp_id":"585445","imdb_id":"tt1723124","world_art_id":null,"type":"movie","add":"2016-09-15 08:45:25","orig_title":"Inbred","year":"2011-08-29","translations":["Любительский (одноголосый закадровый)"],"quality":"bd","translation":"Любительский (одноголосый закадровый)","update":"2016-09-17 07:02:49","iframe_src":"//5322.svetacdn.in/si4jsFRrtgrT/movie/5283"},{"id":5275,"title":"Видео Бенни","kp_id":"160030","imdb_id":"tt0103793","world_art_id":null,"type":"movie","add":"2016-09-15 08:33:37","orig_title":"Benny's Video","year":"1992-05-13","translations":["Профессиональный (многоголосый)"],"quality":"hdrip","translation":"Профессиональный (многоголосый)","update":"2016-09-19 06:30:03","iframe_src":"//5322.svetacdn.in/si4jsFRrtgrT/movie/5275"},{"id":5264,"title":"Ниндзя: Шаг в неизвестность","kp_id":"792878","imdb_id":"tt3030970","world_art_id":null,"type":"movie","add":"2016-09-15 08:19:49","orig_title":"Ninja Immovable Heart","year":"2014-02-27","translations":["Профессиональный (многоголосый закадровый)"],"quality":"bd","translation":"Профессиональный (многоголосый закадровый)","update":"2016-09-16 19:41:56","iframe_src":"//5322.svetacdn.in/si4jsFRrtgrT/movie/5264"},{"id":5257,"title":"Воины Эллады","kp_id":"430576","imdb_id":"tt1305800","world_art_id":null,"type":"movie","add":"2016-09-15 08:10:51","orig_title":"Hellhounds","year":"2009-07-19","translations":["Профессиональный (многоголосый закадровый)"],"quality":"bd","translation":"Профессиональный (многоголосый закадровый)","update":"2016-09-16 19:46:39","iframe_src":"//5322.svetacdn.in/si4jsFRrtgrT/movie/5257"}],"current_page":2350,"first_page_url":"https://videocdn.tv/api/short?limit=100&api_token=X6EwAUfE5M9xbo7y0Bp0aPf3uXxG2KLL&cache32350=32350&page=1","from":234901,"last_page":631,"last_page_url":"https://videocdn.tv/api/short?limit=100&api_token=X6EwAUfE5M9xbo7y0Bp0aPf3uXxG2KLL&cache32350=32350&page=631","next_page_url":null,"path":"https://videocdn.tv/api/short","per_page":100,"prev_page_url":"https://videocdn.tv/api/short?limit=100&api_token=X6EwAUfE5M9xbo7y0Bp0aPf3uXxG2KLL&cache32350=32350&page=2349","to":234920,"total":63044}