{"result":true,"data":[{"id":42271,"title":"Донесения о Саре и Салиме","kp_id":"1099321","imdb_id":"tt7158582","world_art_id":null,"type":"movie","add":"2020-08-03 20:49:28","orig_title":"The Reports on Sarah and Saleem","year":"2018-01-28","translations":["Любительский (многоголосый закадровый) (Синема УС)"],"quality":"webdl","translation":"Любительский (многоголосый закадровый) (Синема УС)","update":"2020-08-04 12:47:56","iframe_src":"//8422.svetacdn.in/71tsRs29n5tZ/movie/42271"},{"id":42268,"title":"Игроки","kp_id":"1345598","imdb_id":"tt10078900","world_art_id":null,"type":"movie","add":"2020-08-03 20:44:34","orig_title":"Freej Al Taibeen","year":"2018-04-19","translations":["Любительский (многоголосый закадровый) (Синема УС)"],"quality":"webdl","translation":"Любительский (многоголосый закадровый) (Синема УС)","update":"2020-08-04 12:48:25","iframe_src":"//8422.svetacdn.in/71tsRs29n5tZ/movie/42268"},{"id":42266,"title":"Остаётся только смеяться","kp_id":"1256695","imdb_id":"tt10204704","world_art_id":null,"type":"movie","add":"2020-08-03 20:42:55","orig_title":"Non ci resta che ridere","year":"2019-05-02","translations":["Любительский (многоголосый закадровый) (AlphaProject)"],"quality":"webdl","translation":"Любительский (многоголосый закадровый) (AlphaProject)","update":"2020-08-04 12:48:47","iframe_src":"//8422.svetacdn.in/71tsRs29n5tZ/movie/42266"},{"id":42265,"title":"Что я натворила?","kp_id":"1297098","imdb_id":"tt9163340","world_art_id":null,"type":"movie","add":"2020-08-03 20:41:21","orig_title":"Khabsa - What Did I Mess","year":"2018-11-22","translations":["Любительский (многоголосый закадровый) (Синема УС)"],"quality":"webdl","translation":"Любительский (многоголосый закадровый) (Синема УС)","update":"2020-08-04 12:49:18","iframe_src":"//8422.svetacdn.in/71tsRs29n5tZ/movie/42265"},{"id":42262,"title":"Песня нашей деревни","kp_id":"1138364","imdb_id":"tt8107882","world_art_id":null,"type":"movie","add":"2020-08-03 20:38:03","orig_title":"Bizim Köyün Sarkisi","year":"2018-03-30","translations":["Любительский (многоголосый закадровый) (Синема УС)"],"quality":"webdl","translation":"Любительский (многоголосый закадровый) (Синема УС)","update":"2020-08-04 12:49:43","iframe_src":"//8422.svetacdn.in/71tsRs29n5tZ/movie/42262"},{"id":42260,"title":"Так и живем","kp_id":"1083506","imdb_id":"tt7107570","world_art_id":null,"type":"movie","add":"2020-08-03 20:35:48","orig_title":"¿Cómo Andamos por Casa?","year":"2018-08-16","translations":["Любительский (многоголосый закадровый) (AlphaProject)"],"quality":"webdl","translation":"Любительский (многоголосый закадровый) (AlphaProject)","update":"2020-08-04 12:50:18","iframe_src":"//8422.svetacdn.in/71tsRs29n5tZ/movie/42260"},{"id":42257,"title":"Солнечный удар","kp_id":"1319338","imdb_id":"tt11230050","world_art_id":null,"type":"movie","add":"2020-08-03 20:29:46","orig_title":"Solar Impact","year":"2019-11-15","translations":["Любительский (двухголосый закадровый) (Колобок)"],"quality":"ts","translation":"Любительский (двухголосый закадровый) (Колобок)","update":"2020-08-04 12:52:45","iframe_src":"//8422.svetacdn.in/71tsRs29n5tZ/movie/42257"},{"id":42255,"title":"Искупление","kp_id":"1171870","imdb_id":"tt8666442","world_art_id":null,"type":"movie","add":"2020-08-03 20:26:26","orig_title":"Geula","year":"2018-07-01","translations":["Любительский (многоголосый закадровый) (Синема УС)"],"quality":"webdl","translation":"Любительский (многоголосый закадровый) (Синема УС)","update":"2020-08-04 12:53:22","iframe_src":"//8422.svetacdn.in/71tsRs29n5tZ/movie/42255"},{"id":42253,"title":"Моффи","kp_id":"1294111","imdb_id":"tt10699362","world_art_id":null,"type":"movie","add":"2020-08-03 20:24:38","orig_title":"Moffie","year":"2019-09-04","translations":["Любительский (многоголосый закадровый) (Синема УС)"],"quality":"bd","translation":"Любительский (многоголосый закадровый) (Синема УС)","update":"2020-08-04 12:53:55","iframe_src":"//8422.svetacdn.in/71tsRs29n5tZ/movie/42253"},{"id":42251,"title":"Шуба из медведя","kp_id":"1277253","imdb_id":"tt10519662","world_art_id":null,"type":"movie","add":"2020-08-03 20:21:23","orig_title":"Futro z misia","year":"2019-12-17","translations":["Любительский (многоголосый закадровый) (Синема УС)"],"quality":"webdl","translation":"Любительский (многоголосый закадровый) (Синема УС)","update":"2020-08-04 12:54:45","iframe_src":"//8422.svetacdn.in/71tsRs29n5tZ/movie/42251"},{"id":42248,"title":"Моле-де-олья: оригинальный рецепт","kp_id":null,"imdb_id":"tt6945970","world_art_id":null,"type":"movie","add":"2020-08-03 20:13:22","orig_title":"Mole de Olla, receta Original","year":"2019-02-08","translations":["Любительский (многоголосый закадровый) (Синема УС)"],"quality":"webdl","translation":"Любительский (многоголосый закадровый) (Синема УС)","update":"2020-08-04 12:55:11","iframe_src":"//8422.svetacdn.in/71tsRs29n5tZ/movie/42248"},{"id":42247,"title":"Тайник","kp_id":"1293782","imdb_id":"tt10499448","world_art_id":null,"type":"movie","add":"2020-08-03 20:11:28","orig_title":"La Caleta","year":"2018-10-18","translations":["Любительский (многоголосый закадровый) (Синема УС)"],"quality":"webdl","translation":"Любительский (многоголосый закадровый) (Синема УС)","update":"2020-08-04 12:55:39","iframe_src":"//8422.svetacdn.in/71tsRs29n5tZ/movie/42247"},{"id":42241,"title":"По ошибке","kp_id":null,"imdb_id":"tt8188444","world_art_id":null,"type":"movie","add":"2020-08-03 19:54:40","orig_title":"Bel-Ghalat","year":"2018-03-22","translations":["Любительский (многоголосый закадровый) (Синема УС)"],"quality":"webdl","translation":"Любительский (многоголосый закадровый) (Синема УС)","update":"2020-08-04 12:56:03","iframe_src":"//8422.svetacdn.in/71tsRs29n5tZ/movie/42241"},{"id":42238,"title":"Евангелие Армагеддона","kp_id":"1062154","imdb_id":"tt6235154","world_art_id":null,"type":"movie","add":"2020-08-03 19:51:44","orig_title":"Armageddon Gospels","year":"2019-10-31","translations":["Любительский (многоголосый закадровый) (AlphaProject)"],"quality":"webdl","translation":"Любительский (многоголосый закадровый) (AlphaProject)","update":"2020-08-04 12:56:40","iframe_src":"//8422.svetacdn.in/71tsRs29n5tZ/movie/42238"},{"id":42236,"title":"Мечта Нуры","kp_id":"1297690","imdb_id":"tt10888514","world_art_id":null,"type":"movie","add":"2020-08-03 19:47:59","orig_title":"Noura Rêve","year":"2019-09-09","translations":["Любительский (многоголосый закадровый) (Синема УС)"],"quality":"webdl","translation":"Любительский (многоголосый закадровый) (Синема УС)","update":"2020-08-04 12:57:23","iframe_src":"//8422.svetacdn.in/71tsRs29n5tZ/movie/42236"},{"id":42235,"title":"Каждый из нас","kp_id":"1319181","imdb_id":"tt11143634","world_art_id":null,"type":"movie","add":"2020-08-03 19:45:19","orig_title":"All of Us","year":"2019-10-11","translations":["Любительский (многоголосый закадровый) (AlphaProject)"],"quality":"webdl","translation":"Любительский (многоголосый закадровый) (AlphaProject)","update":"2020-08-04 12:57:44","iframe_src":"//8422.svetacdn.in/71tsRs29n5tZ/movie/42235"},{"id":42234,"title":"Стена между нами","kp_id":"1292715","imdb_id":"tt10814118","world_art_id":null,"type":"movie","add":"2020-08-03 19:43:18","orig_title":"Zwischen uns die Mauer","year":"2019-09-04","translations":["Любительский (многоголосый закадровый) (Синема УС)"],"quality":"webdl","translation":"Любительский (многоголосый закадровый) (Синема УС)","update":"2020-08-04 12:58:12","iframe_src":"//8422.svetacdn.in/71tsRs29n5tZ/movie/42234"},{"id":42175,"title":"Медведь и мышь","kp_id":"773885","imdb_id":"tt2996998","world_art_id":null,"type":"movie","add":"2020-08-01 17:32:39","orig_title":"Ayi va sican","year":"1970-01-01","translations":["Оригинальная дорожка"],"quality":"webdl","translation":"Оригинальная дорожка","update":"2020-08-04 12:25:18","iframe_src":"//8422.svetacdn.in/71tsRs29n5tZ/movie/42175"},{"id":20543,"title":"Осечка","kp_id":"977019","imdb_id":"tt5662550","world_art_id":null,"type":"movie","add":"2018-12-07 08:51:58","orig_title":"Dead Trigger","year":"2017-06-28","translations":["Любительский (многоголосый закадровый) (@MUZOBOZ@)","Профессиональный (многоголосый закадровый) (HDrezka Studio)","Профессиональный (многоголосый закадровый) (HDrezka Studio)"],"quality":"webdl","translation":"Любительский (многоголосый закадровый) (@MUZOBOZ@)","update":"2020-08-04 12:51:51","iframe_src":"//8422.svetacdn.in/71tsRs29n5tZ/movie/20543"},{"id":20035,"title":"Собачьи дни","kp_id":"1049583","imdb_id":"tt7365604","world_art_id":null,"type":"movie","add":"2018-11-09 06:48:54","orig_title":"Dog Days","year":"2018-08-08","translations":["Профессиональный (многоголосый закадровый) (iTunes)","Профессиональный (многоголосый закадровый) (HDrezka Studio)"],"quality":"bd","translation":"Профессиональный (многоголосый закадровый) (iTunes)","update":"2020-08-04 12:52:08","iframe_src":"//8422.svetacdn.in/71tsRs29n5tZ/movie/20035"}],"current_page":817,"first_page_url":"https://videocdn.tv/api/short?limit=100&api_token=EnbO9h8pv1VyjbCJhg0WM9nG259n7mtz&cache3817=3817&page=1","from":81601,"last_page":678,"last_page_url":"https://videocdn.tv/api/short?limit=100&api_token=EnbO9h8pv1VyjbCJhg0WM9nG259n7mtz&cache3817=3817&page=678","next_page_url":null,"path":"https://videocdn.tv/api/short","per_page":100,"prev_page_url":"https://videocdn.tv/api/short?limit=100&api_token=EnbO9h8pv1VyjbCJhg0WM9nG259n7mtz&cache3817=3817&page=816","to":81620,"total":67706}