{"result":true,"data":[{"id":56092,"title":"Космическое радио","kp_id":null,"imdb_id":"tt0840306","world_art_id":null,"type":"movie","add":"2022-01-20 20:41:43","orig_title":"Cosmic Radio","year":"2021-01-01","translations":["Любительский (многоголосый закадровый) (Синема УС)"],"quality":"webdl","translation":"Любительский (многоголосый закадровый) (Синема УС)","update":"2022-01-21 21:06:40","iframe_src":"//7741.svetacdn.in/IAF0wWTdNYZm/movie/56092"},{"id":56091,"title":"Боррелии Бореалис","kp_id":"1382162","imdb_id":"tt12250634","world_art_id":null,"type":"movie","add":"2022-01-20 20:40:46","orig_title":"Borrelia Borealis","year":"2021-06-18","translations":["Любительский (многоголосый закадровый) (Синема УС)"],"quality":"webdl","translation":"Любительский (многоголосый закадровый) (Синема УС)","update":"2022-01-21 21:06:08","iframe_src":"//7741.svetacdn.in/IAF0wWTdNYZm/movie/56091"},{"id":56090,"title":"Как отметить день рождения","kp_id":"4651905","imdb_id":"tt13789722","world_art_id":null,"type":"movie","add":"2022-01-20 20:39:14","orig_title":"Birthday Behavior","year":"2019-01-01","translations":["Любительский (многоголосый закадровый) (Синема УС)"],"quality":"webdl","translation":"Любительский (многоголосый закадровый) (Синема УС)","update":"2022-01-21 21:05:30","iframe_src":"//7741.svetacdn.in/IAF0wWTdNYZm/movie/56090"},{"id":56079,"title":"Агнец божий","kp_id":"75688","imdb_id":"tt0066617","world_art_id":null,"type":"movie","add":"2022-01-20 07:13:58","orig_title":"Égi bárány","year":"1971-04-22","translations":["Любительский (одноголосый закадровый)"],"quality":"bd","translation":"Любительский (одноголосый закадровый)","update":"2022-01-21 14:48:16","iframe_src":"//7741.svetacdn.in/IAF0wWTdNYZm/movie/56079"},{"id":56078,"title":"Дешевое чтиво","kp_id":"21072","imdb_id":"tt0069134","world_art_id":null,"type":"movie","add":"2022-01-20 06:51:29","orig_title":"Pulp","year":"1972-08-16","translations":["Профессиональный (двухголосый закадровый) (НТВ)"],"quality":"bd","translation":"Профессиональный (двухголосый закадровый) (НТВ)","update":"2022-01-21 14:51:55","iframe_src":"//7741.svetacdn.in/IAF0wWTdNYZm/movie/56078"},{"id":56076,"title":"Парижский праздник","kp_id":"15965","imdb_id":"tt0052047","world_art_id":null,"type":"movie","add":"2022-01-20 06:40:31","orig_title":"Paris Holiday","year":"1958-02-27","translations":["Любительский (одноголосый закадровый) (Кенс Матвей)"],"quality":"bd","translation":"Любительский (одноголосый закадровый) (Кенс Матвей)","update":"2022-01-21 14:49:42","iframe_src":"//7741.svetacdn.in/IAF0wWTdNYZm/movie/56076"},{"id":56072,"title":"Возвращение","kp_id":null,"imdb_id":"tt10790396","world_art_id":null,"type":"movie","add":"2022-01-19 21:37:43","orig_title":"Reunion","year":"2019-01-01","translations":["Любительский (многоголосый закадровый) (Синема УС)"],"quality":"webdl","translation":"Любительский (многоголосый закадровый) (Синема УС)","update":"2022-01-21 21:03:27","iframe_src":"//7741.svetacdn.in/IAF0wWTdNYZm/movie/56072"},{"id":56071,"title":"Пилат","kp_id":"1270717","imdb_id":"tt10398080","world_art_id":null,"type":"movie","add":"2022-01-19 21:35:56","orig_title":"Pilátus","year":"2020-01-29","translations":["Любительский (многоголосый закадровый) (Синема УС)"],"quality":"webdl","translation":"Любительский (многоголосый закадровый) (Синема УС)","update":"2022-01-21 21:05:02","iframe_src":"//7741.svetacdn.in/IAF0wWTdNYZm/movie/56071"},{"id":56070,"title":"Владение","kp_id":null,"imdb_id":"tt15348042","world_art_id":null,"type":"movie","add":"2022-01-19 21:34:19","orig_title":"L'indivision","year":"2021-01-01","translations":["Любительский (многоголосый закадровый) (Синема УС)"],"quality":"webdl","translation":"Любительский (многоголосый закадровый) (Синема УС)","update":"2022-01-21 21:02:44","iframe_src":"//7741.svetacdn.in/IAF0wWTdNYZm/movie/56070"},{"id":56069,"title":"Убойное барбекю","kp_id":"1324467","imdb_id":"tt11209892","world_art_id":null,"type":"movie","add":"2022-01-19 21:32:32","orig_title":"Killer BBQ","year":"2019-10-31","translations":["Любительский (многоголосый закадровый) (Синема УС)"],"quality":"webdl","translation":"Любительский (многоголосый закадровый) (Синема УС)","update":"2022-01-21 21:01:46","iframe_src":"//7741.svetacdn.in/IAF0wWTdNYZm/movie/56069"},{"id":56067,"title":"Кажется, теперь мы одни","kp_id":"4529408","imdb_id":"tt12703400","world_art_id":null,"type":"movie","add":"2022-01-19 20:33:23","orig_title":"I Think We're Alone Now","year":"2020-07-13","translations":["Любительский (многоголосый закадровый) (Синема УС)"],"quality":"webdl","translation":"Любительский (многоголосый закадровый) (Синема УС)","update":"2022-01-21 20:57:02","iframe_src":"//7741.svetacdn.in/IAF0wWTdNYZm/movie/56067"},{"id":55943,"title":"Семейные тайны","kp_id":"4512273","imdb_id":"tt14403536","world_art_id":null,"type":"movie","add":"2022-01-15 15:04:13","orig_title":"Hidden Family Secrets","year":"2021-05-23","translations":["Любительский (многоголосый закадровый) (Синема УС)"],"quality":"webdl","translation":"Любительский (многоголосый закадровый) (Синема УС)","update":"2022-01-21 20:55:37","iframe_src":"//7741.svetacdn.in/IAF0wWTdNYZm/movie/55943"},{"id":11090,"title":"Просто о важном. Про Миру и Гошу","kp_id":"2039957","imdb_id":null,"world_art_id":null,"type":"serial","add":"2021-07-27 15:54:23","orig_title":"Просто о важном. Про Миру и Гошу","year":"2019-01-01","translations":["Оригинальная дорожка"],"seasons_count":1,"episodes_count":10,"episodes":10,"update":"2021-07-27 19:49:47","iframe_src":"//7741.svetacdn.in/IAF0wWTdNYZm/tv-series/11090"},{"id":11085,"title":"Токийский процесс","kp_id":"929756","imdb_id":"tt4040530","world_art_id":null,"type":"serial","add":"2021-07-27 10:05:10","orig_title":"Tokyo Trial","year":"2016-12-12","translations":["Любительский (двухголосый закадровый) (Sunshine Studio)"],"seasons_count":1,"episodes_count":4,"episodes":4,"update":"2021-07-27 14:02:20","iframe_src":"//7741.svetacdn.in/IAF0wWTdNYZm/tv-series/11085"},{"id":11083,"title":"Война в Корее","kp_id":"840289","imdb_id":"tt3646678","world_art_id":null,"type":"serial","add":"2021-07-26 23:38:24","orig_title":"Voyna v Koree","year":"2012-01-01","translations":["Оригинальная дорожка"],"seasons_count":1,"episodes_count":4,"episodes":4,"update":"2021-07-27 13:42:09","iframe_src":"//7741.svetacdn.in/IAF0wWTdNYZm/tv-series/11083"},{"id":11082,"title":"Жизнь с тиграми","kp_id":null,"imdb_id":"tt1138488","world_art_id":null,"type":"serial","add":"2021-07-26 22:05:43","orig_title":"Living with Tigers","year":"2003-09-14","translations":["Профессиональный (одноголосый закадровый)"],"seasons_count":1,"episodes_count":2,"episodes":2,"update":"2021-07-26 23:54:27","iframe_src":"//7741.svetacdn.in/IAF0wWTdNYZm/tv-series/11082"},{"id":11080,"title":"Таинственные знаки","kp_id":"397313","imdb_id":"tt0997268","world_art_id":null,"type":"serial","add":"2021-07-26 15:50:48","orig_title":"Mystère","year":"2007-06-13","translations":["Полное дублирование (РенТВ)"],"seasons_count":1,"episodes_count":12,"episodes":12,"update":"2021-07-26 20:54:33","iframe_src":"//7741.svetacdn.in/IAF0wWTdNYZm/tv-series/11080"},{"id":11078,"title":"Имитация","kp_id":"1436042","imdb_id":"tt14371376","world_art_id":null,"type":"serial","add":"2021-07-26 12:52:43","orig_title":"Imitation","year":"2021-05-07","translations":["Любительский (двухголосый закадровый) (SoftBox)"],"seasons_count":1,"episodes_count":12,"episodes":12,"update":"2021-07-26 20:43:00","iframe_src":"//7741.svetacdn.in/IAF0wWTdNYZm/tv-series/11078"},{"id":11076,"title":"Любовницы","kp_id":"420228","imdb_id":"tt0969007","world_art_id":null,"type":"serial","add":"2021-07-25 16:47:03","orig_title":"Mistresses","year":"2008-01-08","translations":["Полное дублирование"],"seasons_count":3,"episodes_count":16,"episodes":4,"update":"2021-07-26 16:52:22","iframe_src":"//7741.svetacdn.in/IAF0wWTdNYZm/tv-series/11076"},{"id":11075,"title":"Куми-Куми","kp_id":"584028","imdb_id":null,"world_art_id":null,"type":"serial","add":"2021-07-25 15:34:55","orig_title":"Куми-Куми","year":"2011-03-30","translations":["Оригинальная дорожка"],"seasons_count":1,"episodes_count":15,"episodes":15,"update":"2021-07-26 13:47:08","iframe_src":"//7741.svetacdn.in/IAF0wWTdNYZm/tv-series/11075"},{"id":11074,"title":"Любовь на шестерых","kp_id":"248134","imdb_id":"tt0237123","world_art_id":null,"type":"serial","add":"2021-07-25 13:15:15","orig_title":"Coupling","year":"2000-05-12","translations":["Профессиональный (многоголосый закадровый)"],"seasons_count":4,"episodes_count":28,"episodes":6,"update":"2021-07-26 15:45:07","iframe_src":"//7741.svetacdn.in/IAF0wWTdNYZm/tv-series/11074"},{"id":11073,"title":"Ник и Босс уделывают Голливуд","kp_id":"468779","imdb_id":null,"world_art_id":null,"type":"serial","add":"2021-07-25 13:06:12","orig_title":"Nick and the Boss are making Hollywood","year":"2003-01-01","translations":["Полное дублирование"],"seasons_count":1,"episodes_count":26,"episodes":26,"update":"2021-07-26 15:43:28","iframe_src":"//7741.svetacdn.in/IAF0wWTdNYZm/tv-series/11073"},{"id":11072,"title":"Бум и красные","kp_id":"602402","imdb_id":null,"world_art_id":null,"type":"serial","add":"2021-07-25 10:47:24","orig_title":"Boom & Reds","year":"2007-01-01","translations":["Оригинальная дорожка"],"seasons_count":1,"episodes_count":15,"episodes":15,"update":"2021-07-26 13:12:18","iframe_src":"//7741.svetacdn.in/IAF0wWTdNYZm/tv-series/11072"},{"id":11071,"title":"Томми и Оскар","kp_id":"893806","imdb_id":"tt1018851","world_art_id":null,"type":"serial","add":"2021-07-24 16:47:15","orig_title":"Tommy & Oscar","year":"1999-01-01","translations":["Полное дублирование"],"seasons_count":2,"episodes_count":52,"episodes":26,"update":"2021-07-26 13:17:33","iframe_src":"//7741.svetacdn.in/IAF0wWTdNYZm/tv-series/11071"},{"id":11061,"title":"Печная лига","kp_id":"1297133","imdb_id":"tt11378124","world_art_id":null,"type":"serial","add":"2021-07-22 16:55:39","orig_title":"Stove League","year":"2019-12-13","translations":["Любительский (двухголосый закадровый) (SoftBox)"],"seasons_count":1,"episodes_count":16,"episodes":16,"update":"2021-07-26 12:34:16","iframe_src":"//7741.svetacdn.in/IAF0wWTdNYZm/tv-series/11061"},{"id":11060,"title":"Игра на деньги","kp_id":"1261540","imdb_id":"tt11478544","world_art_id":null,"type":"serial","add":"2021-07-22 10:25:51","orig_title":"Meonigeim","year":"2020-01-15","translations":["Любительский (двухголосый закадровый) (SoftBox)"],"seasons_count":1,"episodes_count":16,"episodes":16,"update":"2021-07-26 13:07:03","iframe_src":"//7741.svetacdn.in/IAF0wWTdNYZm/tv-series/11060"},{"id":10992,"title":"Летний лагерь","kp_id":null,"imdb_id":"tt7518394","world_art_id":null,"type":"serial","add":"2021-07-07 09:01:37","orig_title":"Sommarkollo","year":"2017-06-01","translations":["Любительский (одноголосый закадровый) (Воленко Алексей)"],"seasons_count":1,"episodes_count":13,"episodes":13,"update":"2021-07-26 14:54:13","iframe_src":"//7741.svetacdn.in/IAF0wWTdNYZm/tv-series/10992"},{"id":10883,"title":"Кевин может пойти на***","kp_id":"1309701","imdb_id":"tt9257258","world_art_id":null,"type":"serial","add":"2021-06-13 14:12:25","orig_title":"Kevin Can F**k Himself","year":"2021-06-13","translations":["Любительский (многоголосый закадровый) (ColdFilm)","Любительский (многоголосый закадровый) (Ultradox)","Профессиональный (многоголосый закадровый) (BaibaKo)"],"seasons_count":1,"episodes_count":8,"episodes":8,"update":"2021-07-27 08:21:29","iframe_src":"//7741.svetacdn.in/IAF0wWTdNYZm/tv-series/10883"},{"id":9874,"title":"Корпорация снов","kp_id":"1008430","imdb_id":"tt5475704","world_art_id":null,"type":"serial","add":"2021-02-08 06:11:31","orig_title":"Dream Corp LLC","year":"2016-10-23","translations":["Любительский (одноголосый закадровый) (Jimmy J.)","Любительский (двухголосый закадровый) (Jimmy J.)","Профессиональный (многоголосый закадровый) (TVShows)"],"seasons_count":3,"episodes_count":28,"episodes":8,"update":"2021-07-27 09:29:18","iframe_src":"//7741.svetacdn.in/IAF0wWTdNYZm/tv-series/9874"},{"id":8795,"title":"Непоседа Зу","kp_id":"793629","imdb_id":"tt2587622","world_art_id":null,"type":"serial","add":"2020-09-20 11:15:55","orig_title":"Zou","year":"2013-09-02","translations":["Полное дублирование (Первый канал | ОРТ)","Полное дублирование"],"seasons_count":2,"episodes_count":119,"episodes":52,"update":"2021-07-26 12:19:22","iframe_src":"//7741.svetacdn.in/IAF0wWTdNYZm/tv-series/8795"},{"id":5369,"title":"Полярная звезда","kp_id":"1289035","imdb_id":"tt10682186","world_art_id":null,"type":"serial","add":"2019-10-02 08:17:14","orig_title":"Kuzey Yildizi","year":"2019-09-14","translations":["Любительский (одноголосый закадровый)","Авторский (одноголосый закадровый) (Котова Ирина)"],"seasons_count":2,"episodes_count":64,"episodes":35,"update":"2021-07-26 19:57:44","iframe_src":"//7741.svetacdn.in/IAF0wWTdNYZm/tv-series/5369"},{"id":24842,"title":"Свидетель","kp_id":"1138899","imdb_id":"tt8562562","world_art_id":null,"type":"movie","add":"2019-04-18 20:19:43","orig_title":"Witness","year":"2019-02-13","translations":["Любительский (многоголосый закадровый) (Колобок)","Любительский (многоголосый закадровый) (Колобок)"],"quality":"webdl","translation":"Любительский (многоголосый закадровый) (Колобок)","update":"2022-01-21 18:27:28","iframe_src":"//7741.svetacdn.in/IAF0wWTdNYZm/movie/24842"},{"id":23375,"title":"Пророк Иеремия: Обличитель царей","kp_id":"230369","imdb_id":"tt0174792","world_art_id":null,"type":"movie","add":"2019-03-22 22:38:07","orig_title":"Jeremiah","year":"1998-12-14","translations":["Профессиональный (многоголосый закадровый)","Профессиональный (многоголосый закадровый) (Екатеринбург Арт)"],"quality":"dvdrip","translation":"Профессиональный (многоголосый закадровый)","update":"2022-01-21 15:05:56","iframe_src":"//7741.svetacdn.in/IAF0wWTdNYZm/movie/23375"},{"id":18704,"title":"Психиатрическая больница Конджиам","kp_id":"1112153","imdb_id":"tt8119752","world_art_id":null,"type":"movie","add":"2018-08-31 22:26:31","orig_title":"Gonjiam","year":"2018-03-28","translations":["Любительский (многоголосый закадровый) (Синема УС)","Любительский (двухголосый закадровый) (STEPonee)","Профессиональный (многоголосый закадровый) (HDrezka Studio)","Любительский (многоголосый закадровый) (Синема УС)"],"quality":"bd","translation":"Любительский (многоголосый закадровый) (Синема УС)","update":"2022-01-21 15:42:37","iframe_src":"//7741.svetacdn.in/IAF0wWTdNYZm/movie/18704"},{"id":18442,"title":"22 мили","kp_id":"921938","imdb_id":"tt4560436","world_art_id":null,"type":"movie","add":"2018-08-20 20:31:31","orig_title":"Mile 22","year":"2018-08-16","translations":["Полное дублирование","[EN] Original (English)","Профессиональный (многоголосый закадровый) (HDrezka Studio)"],"quality":"bd","translation":"Полное дублирование","update":"2022-01-21 15:32:54","iframe_src":"//7741.svetacdn.in/IAF0wWTdNYZm/movie/18442"},{"id":3019,"title":"Господа полицейские","kp_id":"924313","imdb_id":null,"world_art_id":null,"type":"serial","add":"2018-08-11 20:22:19","orig_title":"Господа полицейские","year":"2018-08-11","translations":["Оригинальная дорожка"],"seasons_count":1,"episodes_count":4,"episodes":4,"update":"2021-07-26 21:49:39","iframe_src":"//7741.svetacdn.in/IAF0wWTdNYZm/tv-series/3019"},{"id":5747,"title":"Ходят слухи...","kp_id":"77424","imdb_id":"tt0398375","world_art_id":null,"type":"movie","add":"2016-10-02 18:21:49","orig_title":"Rumor Has It...","year":"2005-12-22","translations":["Полное дублирование","Полное дублирование (Мосфильм)"],"quality":"bd","translation":"Полное дублирование","update":"2022-01-21 15:26:44","iframe_src":"//7741.svetacdn.in/IAF0wWTdNYZm/movie/5747"},{"id":4104,"title":"Миссис Даутфайр","kp_id":"5939","imdb_id":"tt0107614","world_art_id":null,"type":"movie","add":"2016-07-22 07:17:06","orig_title":"Mrs. Doubtfire","year":"1993-11-22","translations":["Профессиональный (многоголосый закадровый)","Авторский (одноголосый закадровый) (Горчаков Василий)","Полное дублирование (Киностудия им. Горького)","Профессиональный (многоголосый закадровый)"],"quality":"bd","translation":"Профессиональный (многоголосый закадровый)","update":"2022-01-21 15:38:01","iframe_src":"//7741.svetacdn.in/IAF0wWTdNYZm/movie/4104"},{"id":3774,"title":"Окончательный анализ","kp_id":"4177","imdb_id":"tt0104265","world_art_id":null,"type":"movie","add":"2016-07-08 12:30:46","orig_title":"Final Analysis","year":"1992-02-07","translations":["Полное дублирование","Полное дублирование (Варус-Видео)"],"quality":"webdl","translation":"Полное дублирование","update":"2022-01-21 15:41:55","iframe_src":"//7741.svetacdn.in/IAF0wWTdNYZm/movie/3774"},{"id":2915,"title":"Джек Ричер","kp_id":"417583","imdb_id":"tt0790724","world_art_id":null,"type":"movie","add":"2016-06-06 18:28:18","orig_title":"Jack Reacher","year":"2012-12-10","translations":["Полное дублирование","Полное дублирование (Пифагор)"],"quality":"bd","translation":"Полное дублирование","update":"2022-01-21 15:30:02","iframe_src":"//7741.svetacdn.in/IAF0wWTdNYZm/movie/2915"}],"current_page":116,"first_page_url":"https://videocdn.tv/api/short?limit=100&api_token=6Onb1W1alEUrBcKJZD3GoKBbWyAl2uG2&cache3116=3116&page=1","from":11501,"last_page":706,"last_page_url":"https://videocdn.tv/api/short?limit=100&api_token=6Onb1W1alEUrBcKJZD3GoKBbWyAl2uG2&cache3116=3116&page=706","next_page_url":"https://videocdn.tv/api/short?limit=100&api_token=6Onb1W1alEUrBcKJZD3GoKBbWyAl2uG2&cache3116=3116&page=117","path":"https://videocdn.tv/api/short","per_page":100,"prev_page_url":"https://videocdn.tv/api/short?limit=100&api_token=6Onb1W1alEUrBcKJZD3GoKBbWyAl2uG2&cache3116=3116&page=115","to":11540,"total":70502}