{"result":true,"data":[{"id":26463,"title":"Горячая дорога","kp_id":"805909","imdb_id":"tt3267258","world_art_id":null,"type":"movie","add":"2019-05-13 20:46:14","orig_title":"Hotto rôdo","year":"2014-08-16","translations":["Любительский (двухголосый закадровый)"],"quality":"bd","translation":"Любительский (двухголосый закадровый)","update":"2019-05-14 05:20:25","iframe_src":"//7923.svetacdn.in/71tsRs29n5tZ/movie/26463"},{"id":26460,"title":"Свидетельство","kp_id":"1048631","imdb_id":"tt6856132","world_art_id":null,"type":"movie","add":"2019-05-13 20:33:07","orig_title":"The Testament","year":"2017-09-06","translations":["Любительский (многоголосый закадровый) (Синема УС)"],"quality":"webdl","translation":"Любительский (многоголосый закадровый) (Синема УС)","update":"2019-05-14 04:55:47","iframe_src":"//7923.svetacdn.in/71tsRs29n5tZ/movie/26460"},{"id":26459,"title":"Самаритяне","kp_id":"964556","imdb_id":"tt5486552","world_art_id":null,"type":"movie","add":"2019-05-13 20:31:24","orig_title":"The Samaritans","year":"2017-10-15","translations":["Любительский (многоголосый закадровый) (Синема УС)"],"quality":"webdl","translation":"Любительский (многоголосый закадровый) (Синема УС)","update":"2019-05-14 04:58:37","iframe_src":"//7923.svetacdn.in/71tsRs29n5tZ/movie/26459"},{"id":26458,"title":"Смерть \"The Icarus Line\"","kp_id":"1024310","imdb_id":"tt5912700","world_art_id":null,"type":"movie","add":"2019-05-13 20:29:43","orig_title":"The Icarus Line Must Die","year":"2017-10-07","translations":["Любительский (многоголосый закадровый) (Синема УС)"],"quality":"webdl","translation":"Любительский (многоголосый закадровый) (Синема УС)","update":"2019-05-14 05:13:46","iframe_src":"//7923.svetacdn.in/71tsRs29n5tZ/movie/26458"},{"id":26453,"title":"Хема Хема: Спой мне, пока я жду","kp_id":"992449","imdb_id":"tt5890038","world_art_id":null,"type":"movie","add":"2019-05-13 20:15:24","orig_title":"Hema Hema: Sing Me a Song While I Wait","year":"2016-08-10","translations":["Любительский (многоголосый закадровый) (Колобок)"],"quality":"webdl","translation":"Любительский (многоголосый закадровый) (Колобок)","update":"2019-05-14 05:19:26","iframe_src":"//7923.svetacdn.in/71tsRs29n5tZ/movie/26453"},{"id":26322,"title":"Кортик","kp_id":"79844","imdb_id":"tt0069600","world_art_id":null,"type":"movie","add":"2019-05-11 20:01:10","orig_title":"Kortik","year":"1974-06-04","translations":["Оригинальная дорожка"],"quality":"dvdrip","translation":"Оригинальная дорожка","update":"2019-05-14 05:21:41","iframe_src":"//7923.svetacdn.in/71tsRs29n5tZ/movie/26322"},{"id":26320,"title":"Любовь Яровая","kp_id":"45158","imdb_id":"tt0046019","world_art_id":null,"type":"movie","add":"2019-05-11 19:57:11","orig_title":"Lyubov Yarovaya","year":"1953-03-13","translations":["Оригинальная дорожка"],"quality":"dvdrip","translation":"Оригинальная дорожка","update":"2019-05-13 08:10:21","iframe_src":"//7923.svetacdn.in/71tsRs29n5tZ/movie/26320"},{"id":26319,"title":"Маэстро вор","kp_id":"41587","imdb_id":"tt0179323","world_art_id":null,"type":"movie","add":"2019-05-11 19:54:29","orig_title":"Maestro vor","year":"1994-01-01","translations":["Оригинальная дорожка"],"quality":"dvdrip","translation":"Оригинальная дорожка","update":"2019-05-13 08:09:20","iframe_src":"//7923.svetacdn.in/71tsRs29n5tZ/movie/26319"},{"id":26318,"title":"Мы, двое мужчин","kp_id":"397454","imdb_id":"tt3855520","world_art_id":null,"type":"movie","add":"2019-05-11 19:51:35","orig_title":"My, dvoe muzhchin","year":"1963-07-22","translations":["Оригинальная дорожка"],"quality":"dvdrip","translation":"Оригинальная дорожка","update":"2019-05-13 08:08:13","iframe_src":"//7923.svetacdn.in/71tsRs29n5tZ/movie/26318"},{"id":26316,"title":"Осенний подарок фей","kp_id":"42800","imdb_id":"tt0087854","world_art_id":null,"type":"movie","add":"2019-05-11 19:48:34","orig_title":"Osenniy podarok fey","year":"1984-01-01","translations":["Оригинальная дорожка"],"quality":"dvdrip","translation":"Оригинальная дорожка","update":"2019-05-13 08:07:37","iframe_src":"//7923.svetacdn.in/71tsRs29n5tZ/movie/26316"},{"id":26314,"title":"Палач","kp_id":"42871","imdb_id":"tt0100322","world_art_id":null,"type":"movie","add":"2019-05-11 19:45:31","orig_title":"Palach","year":"1990-01-01","translations":["Оригинальная дорожка"],"quality":"dvdrip","translation":"Оригинальная дорожка","update":"2019-05-13 08:06:44","iframe_src":"//7923.svetacdn.in/71tsRs29n5tZ/movie/26314"},{"id":26312,"title":"Пятнадцатая весна","kp_id":"43378","imdb_id":"tt0192484","world_art_id":null,"type":"movie","add":"2019-05-11 19:42:48","orig_title":"Pyatnadtsataya vesna","year":"1972-05-13","translations":["Оригинальная дорожка"],"quality":"dvdrip","translation":"Оригинальная дорожка","update":"2019-05-13 08:05:23","iframe_src":"//7923.svetacdn.in/71tsRs29n5tZ/movie/26312"},{"id":26309,"title":"Последнее лето детства","kp_id":"81478","imdb_id":"tt0071037","world_art_id":null,"type":"movie","add":"2019-05-11 19:39:16","orig_title":"Poslednyeye leto detstva","year":"1975-11-07","translations":["Оригинальная дорожка"],"quality":"dvdrip","translation":"Оригинальная дорожка","update":"2019-05-13 08:04:25","iframe_src":"//7923.svetacdn.in/71tsRs29n5tZ/movie/26309"},{"id":26308,"title":"Постарайся остаться живым...","kp_id":"43170","imdb_id":"tt0274730","world_art_id":null,"type":"movie","add":"2019-05-11 19:35:45","orig_title":"Postaraysya ostatsya zhivym","year":"1986-12-01","translations":["Оригинальная дорожка"],"quality":"dvdrip","translation":"Оригинальная дорожка","update":"2019-05-13 08:02:05","iframe_src":"//7923.svetacdn.in/71tsRs29n5tZ/movie/26308"},{"id":26307,"title":"Шу-Чу","kp_id":"586608","imdb_id":"tt1664032","world_art_id":null,"type":"movie","add":"2019-05-11 19:30:59","orig_title":"Shu-Chu","year":"2009-10-06","translations":["Оригинальная дорожка"],"quality":"ts","translation":"Оригинальная дорожка","update":"2019-05-13 08:01:11","iframe_src":"//7923.svetacdn.in/71tsRs29n5tZ/movie/26307"},{"id":26306,"title":"Земля людей","kp_id":"468142","imdb_id":"tt2065014","world_art_id":null,"type":"movie","add":"2019-05-11 19:26:12","orig_title":"Zemlya lyudey","year":"2011-11-19","translations":["Оригинальная дорожка"],"quality":"dvdrip","translation":"Оригинальная дорожка","update":"2019-05-13 08:00:09","iframe_src":"//7923.svetacdn.in/71tsRs29n5tZ/movie/26306"},{"id":26202,"title":"Милость","kp_id":"946802","imdb_id":"tt4930176","world_art_id":null,"type":"movie","add":"2019-05-09 16:39:45","orig_title":"Miséricorde","year":"2016-09-24","translations":["Любительский (многоголосый закадровый) (Синема УС)","Любительский (многоголосый закадровый) (Mallorn Studio)"],"quality":"webdl","translation":"Любительский (многоголосый закадровый) (Синема УС)","update":"2019-05-14 05:17:10","iframe_src":"//7923.svetacdn.in/71tsRs29n5tZ/movie/26202"},{"id":21720,"title":"Ничего себе каникулы!","kp_id":"1062849","imdb_id":"tt7534150","world_art_id":null,"type":"movie","add":"2019-01-21 22:40:18","orig_title":"Premières vacances","year":"2018-09-15","translations":["Любительский (многоголосый закадровый) (Синема УС)","Профессиональный (многоголосый закадровый)"],"quality":"webdl","translation":"Любительский (многоголосый закадровый) (Синема УС)","update":"2019-05-14 05:11:51","iframe_src":"//7923.svetacdn.in/71tsRs29n5tZ/movie/21720"},{"id":18282,"title":"Восьмилетняя помолвка","kp_id":"1009758","imdb_id":"tt6313348","world_art_id":null,"type":"movie","add":"2018-08-13 13:53:41","orig_title":"8-nengoshi no hanayome","year":"2017-12-16","translations":["Любительский (двухголосый закадровый) (Колобок)","Любительский (многоголосый закадровый) (Синема УС)","Любительский (двухголосый закадровый) (Bonsai Studio)"],"quality":"bd","translation":"Любительский (двухголосый закадровый) (Колобок)","update":"2019-05-14 04:53:37","iframe_src":"//7923.svetacdn.in/71tsRs29n5tZ/movie/18282"},{"id":8744,"title":"Арсенал","kp_id":"980773","imdb_id":"tt5580536","world_art_id":null,"type":"movie","add":"2017-01-09 09:45:27","orig_title":"Arsenal","year":"2017-01-06","translations":["Любительский (многоголосый закадровый) (@MUZOBOZ@)","Профессиональный (многоголосый закадровый) (iTunes)","Любительский (одноголосый закадровый)"],"quality":"webdl","translation":"Любительский (многоголосый закадровый) (@MUZOBOZ@)","update":"2019-05-14 05:12:57","iframe_src":"//7923.svetacdn.in/71tsRs29n5tZ/movie/8744"}],"current_page":1480,"first_page_url":"https://videocdn.tv/api/short?limit=100&api_token=EnbO9h8pv1VyjbCJhg0WM9nG259n7mtz&cache31480=31480&page=1","from":147901,"last_page":642,"last_page_url":"https://videocdn.tv/api/short?limit=100&api_token=EnbO9h8pv1VyjbCJhg0WM9nG259n7mtz&cache31480=31480&page=642","next_page_url":null,"path":"https://videocdn.tv/api/short","per_page":100,"prev_page_url":"https://videocdn.tv/api/short?limit=100&api_token=EnbO9h8pv1VyjbCJhg0WM9nG259n7mtz&cache31480=31480&page=1479","to":147920,"total":64170}