{"result":true,"data":[{"id":45594,"title":"Железобетонные планы","kp_id":"1304537","imdb_id":"tt10975750","world_art_id":null,"type":"movie","add":"2020-11-24 21:17:15","orig_title":"Concrete Plans","year":"2020-10-23","translations":["Любительский (многоголосый закадровый) (@MUZOBOZ@)"],"quality":"webdl","translation":"Любительский (многоголосый закадровый) (@MUZOBOZ@)","update":"2020-11-25 08:42:50","iframe_src":"//83.svetacdn.in/PfJ50H0ZBPg3/movie/45594"},{"id":45593,"title":"Гамлет","kp_id":"1443828","imdb_id":null,"world_art_id":null,"type":"movie","add":"2020-11-24 21:15:21","orig_title":"Гамлет","year":"2020-11-22","translations":["Оригинальная дорожка"],"quality":"ts","translation":"Оригинальная дорожка","update":"2020-11-25 04:19:46","iframe_src":"//83.svetacdn.in/PfJ50H0ZBPg3/movie/45593"},{"id":45592,"title":"Мартин и Марго","kp_id":"1354008","imdb_id":"tt8640994","world_art_id":null,"type":"movie","add":"2020-11-24 21:08:34","orig_title":"Martin & Margot or There's No One Around You","year":"2019-12-05","translations":["Любительский (многоголосый закадровый) (Синема УС)"],"quality":"webdl","translation":"Любительский (многоголосый закадровый) (Синема УС)","update":"2020-11-25 06:43:29","iframe_src":"//83.svetacdn.in/PfJ50H0ZBPg3/movie/45592"},{"id":45590,"title":"Долгая ночь","kp_id":"1284745","imdb_id":"tt10660156","world_art_id":null,"type":"movie","add":"2020-11-24 20:22:11","orig_title":"Longa noite","year":"2019-08-14","translations":["Любительский (многоголосый закадровый) (Синема УС)"],"quality":"webdl","translation":"Любительский (многоголосый закадровый) (Синема УС)","update":"2020-11-25 08:20:36","iframe_src":"//83.svetacdn.in/PfJ50H0ZBPg3/movie/45590"},{"id":45589,"title":"Одна летняя ночь","kp_id":"981035","imdb_id":"tt5740308","world_art_id":null,"type":"movie","add":"2020-11-24 20:20:40","orig_title":"One Summer Night","year":"2019-11-09","translations":["Любительский (многоголосый закадровый) (Синема УС)"],"quality":"webdl","translation":"Любительский (многоголосый закадровый) (Синема УС)","update":"2020-11-25 08:21:01","iframe_src":"//83.svetacdn.in/PfJ50H0ZBPg3/movie/45589"},{"id":45587,"title":"Когда вернутся птицы","kp_id":"1044160","imdb_id":"tt6226610","world_art_id":null,"type":"movie","add":"2020-11-24 20:18:49","orig_title":"En attendant les hirondelles","year":"2017-05-22","translations":["Любительский (многоголосый закадровый) (Синема УС)"],"quality":"dvdrip","translation":"Любительский (многоголосый закадровый) (Синема УС)","update":"2020-11-24 21:43:08","iframe_src":"//83.svetacdn.in/PfJ50H0ZBPg3/movie/45587"},{"id":45585,"title":"Райский город","kp_id":"1129645","imdb_id":"tt7876272","world_art_id":null,"type":"movie","add":"2020-11-24 18:08:19","orig_title":"Paradise City","year":"2019-12-01","translations":["Любительский (многоголосый закадровый) (Синема УС)"],"quality":"webdl","translation":"Любительский (многоголосый закадровый) (Синема УС)","update":"2020-11-25 08:21:28","iframe_src":"//83.svetacdn.in/PfJ50H0ZBPg3/movie/45585"},{"id":45584,"title":"Берлин, Александерплац","kp_id":"1038423","imdb_id":"tt6470924","world_art_id":null,"type":"movie","add":"2020-11-24 18:06:51","orig_title":"Berlin Alexanderplatz","year":"2020-02-26","translations":["Любительский (многоголосый закадровый) (@MUZOBOZ@)"],"quality":"bd","translation":"Любительский (многоголосый закадровый) (@MUZOBOZ@)","update":"2020-11-25 04:14:03","iframe_src":"//83.svetacdn.in/PfJ50H0ZBPg3/movie/45584"},{"id":45583,"title":"Лепесток и Моль","kp_id":null,"imdb_id":"tt10397930","world_art_id":null,"type":"movie","add":"2020-11-24 18:03:33","orig_title":"Petal & Moth","year":"2019-10-11","translations":["Любительский (многоголосый закадровый) (AlphaProject)"],"quality":"webdl","translation":"Любительский (многоголосый закадровый) (AlphaProject)","update":"2020-11-24 21:43:54","iframe_src":"//83.svetacdn.in/PfJ50H0ZBPg3/movie/45583"},{"id":45582,"title":"Жена художника","kp_id":"1121828","imdb_id":"tt5806558","world_art_id":null,"type":"movie","add":"2020-11-24 18:01:22","orig_title":"The Artist's Wife","year":"2019-10-11","translations":["Любительский (многоголосый закадровый) (AlphaProject)"],"quality":"webdl","translation":"Любительский (многоголосый закадровый) (AlphaProject)","update":"2020-11-25 08:22:00","iframe_src":"//83.svetacdn.in/PfJ50H0ZBPg3/movie/45582"},{"id":45581,"title":"Эмма Питерс","kp_id":"1151360","imdb_id":"tt7232126","world_art_id":null,"type":"movie","add":"2020-11-24 17:59:54","orig_title":"Emma Peeters","year":"2018-11-02","translations":["Любительский (многоголосый закадровый) (Синема УС)"],"quality":"webdl","translation":"Любительский (многоголосый закадровый) (Синема УС)","update":"2020-11-24 21:44:12","iframe_src":"//83.svetacdn.in/PfJ50H0ZBPg3/movie/45581"},{"id":45580,"title":"Чудовищная любовь","kp_id":"1081302","imdb_id":"tt7117134","world_art_id":null,"type":"movie","add":"2020-11-24 17:58:12","orig_title":"Amor Mutante","year":"2019-11-29","translations":["Любительский (многоголосый закадровый) (AlphaProject)"],"quality":"webdl","translation":"Любительский (многоголосый закадровый) (AlphaProject)","update":"2020-11-25 08:22:19","iframe_src":"//83.svetacdn.in/PfJ50H0ZBPg3/movie/45580"},{"id":45579,"title":"Я существую","kp_id":"1000854","imdb_id":"tt5962036","world_art_id":null,"type":"movie","add":"2020-11-24 17:56:39","orig_title":"I Am That","year":"2018-10-06","translations":["Любительский (многоголосый закадровый) (Синема УС)"],"quality":"webdl","translation":"Любительский (многоголосый закадровый) (Синема УС)","update":"2020-11-25 08:20:12","iframe_src":"//83.svetacdn.in/PfJ50H0ZBPg3/movie/45579"},{"id":45577,"title":"Вдали от нас","kp_id":"1365541","imdb_id":"tt9863150","world_art_id":null,"type":"movie","add":"2020-11-24 17:52:48","orig_title":"Far from Us","year":"2019-02-13","translations":["Любительский (многоголосый закадровый) (Синема УС)"],"quality":"webdl","translation":"Любительский (многоголосый закадровый) (Синема УС)","update":"2020-11-24 20:58:49","iframe_src":"//83.svetacdn.in/PfJ50H0ZBPg3/movie/45577"},{"id":45576,"title":"Езда","kp_id":"1035006","imdb_id":"tt6102104","world_art_id":null,"type":"movie","add":"2020-11-24 17:47:28","orig_title":"Ride","year":"2018-04-27","translations":["Любительский (многоголосый закадровый) (Синема УС)"],"quality":"webdl","translation":"Любительский (многоголосый закадровый) (Синема УС)","update":"2020-11-24 20:59:42","iframe_src":"//83.svetacdn.in/PfJ50H0ZBPg3/movie/45576"},{"id":45550,"title":"Обман или удовольствия","kp_id":"8570","imdb_id":"tt0084825","world_art_id":null,"type":"movie","add":"2020-11-24 08:31:22","orig_title":"Trick or Treats","year":"1982-10-29","translations":["Любительский (одноголосый закадровый) (ДиоНиК)"],"quality":"bd","translation":"Любительский (одноголосый закадровый) (ДиоНиК)","update":"2020-11-25 07:02:39","iframe_src":"//83.svetacdn.in/PfJ50H0ZBPg3/movie/45550"},{"id":45549,"title":"Дорога безумного грома","kp_id":"382767","imdb_id":"tt0081019","world_art_id":null,"type":"movie","add":"2020-11-24 08:27:07","orig_title":"Kuruizaki sanda rodo","year":"1980-05-24","translations":["Любительский (одноголосый закадровый)"],"quality":"bd","translation":"Любительский (одноголосый закадровый)","update":"2020-11-25 07:05:45","iframe_src":"//83.svetacdn.in/PfJ50H0ZBPg3/movie/45549"},{"id":45542,"title":"Женщина, о которой ходят слухи","kp_id":"156598","imdb_id":"tt0047638","world_art_id":null,"type":"movie","add":"2020-11-24 07:12:47","orig_title":"Uwasa no onna","year":"1954-06-20","translations":["Любительский (одноголосый закадровый)"],"quality":"bd","translation":"Любительский (одноголосый закадровый)","update":"2020-11-25 06:53:02","iframe_src":"//83.svetacdn.in/PfJ50H0ZBPg3/movie/45542"},{"id":45540,"title":"Причуды одной блондинки","kp_id":"312873","imdb_id":"tt1013856","world_art_id":null,"type":"movie","add":"2020-11-24 07:07:26","orig_title":"Singularidades de uma Rapariga Loura","year":"2009-02-10","translations":["Авторский (одноголосый закадровый) (Воротилин Олег)"],"quality":"bd","translation":"Авторский (одноголосый закадровый) (Воротилин Олег)","update":"2020-11-25 07:09:21","iframe_src":"//83.svetacdn.in/PfJ50H0ZBPg3/movie/45540"},{"id":3249,"title":"Шпион, выйди вон!","kp_id":"229204","imdb_id":"tt0080297","world_art_id":null,"type":"serial","add":"2018-10-01 19:01:52","orig_title":"Tinker Tailor Soldier Spy","year":"1979-09-10","translations":["Авторский (одноголосый закадровый) (Карцев Пётр)"],"seasons_count":1,"episodes_count":6,"episodes":6,"update":"2018-10-02 08:01:23","iframe_src":"//83.svetacdn.in/PfJ50H0ZBPg3/tv-series/3249"},{"id":3244,"title":"Рискованный роман","kp_id":"1118157","imdb_id":"tt8523020","world_art_id":null,"type":"serial","add":"2018-10-01 09:14:31","orig_title":"Sasaenggyeoldan Romaenseu","year":"2018-07-23","translations":["Любительский (двухголосый закадровый) (HighHopes)"],"seasons_count":1,"episodes_count":16,"episodes":16,"update":"2018-10-01 14:22:41","iframe_src":"//83.svetacdn.in/PfJ50H0ZBPg3/tv-series/3244"},{"id":3243,"title":"Опасная пятёрка","kp_id":"721904","imdb_id":"tt1807165","world_art_id":null,"type":"serial","add":"2018-09-30 16:35:15","orig_title":"Danger 5","year":"2011-11-20","translations":["Любительский (двухголосый закадровый) (LakeFilms)"],"seasons_count":1,"episodes_count":7,"episodes":7,"update":"2018-10-01 12:14:17","iframe_src":"//83.svetacdn.in/PfJ50H0ZBPg3/tv-series/3243"},{"id":3242,"title":"Женщина в зеркале","kp_id":"1162764","imdb_id":null,"world_art_id":null,"type":"serial","add":"2018-09-30 09:31:15","orig_title":"Женщина в зеркале","year":"2018-09-29","translations":["Оригинальная дорожка"],"seasons_count":1,"episodes_count":4,"episodes":4,"update":"2018-10-01 12:18:09","iframe_src":"//83.svetacdn.in/PfJ50H0ZBPg3/tv-series/3242"},{"id":3241,"title":"Шестой пост","kp_id":"1112943","imdb_id":"tt8184066","world_art_id":null,"type":"serial","add":"2018-09-30 08:07:18","orig_title":"Shestoy post","year":"2018-03-15","translations":["Оригинальная дорожка"],"seasons_count":1,"episodes_count":5,"episodes":5,"update":"2018-10-01 11:58:10","iframe_src":"//83.svetacdn.in/PfJ50H0ZBPg3/tv-series/3241"},{"id":3240,"title":"Училка","kp_id":"1192364","imdb_id":null,"world_art_id":null,"type":"serial","add":"2018-09-30 08:03:38","orig_title":"Училка","year":"2018-09-29","translations":["Оригинальная дорожка"],"seasons_count":1,"episodes_count":2,"episodes":2,"update":"2018-10-01 11:51:53","iframe_src":"//83.svetacdn.in/PfJ50H0ZBPg3/tv-series/3240"},{"id":3237,"title":"Любовь ангелов","kp_id":"1163132","imdb_id":"tt8586316","world_art_id":null,"type":"serial","add":"2018-09-28 19:16:14","orig_title":"Meleklerin Aski","year":"2018-07-04","translations":["Любительский (одноголосый закадровый)"],"seasons_count":1,"episodes_count":11,"episodes":11,"update":"2018-10-01 11:49:01","iframe_src":"//83.svetacdn.in/PfJ50H0ZBPg3/tv-series/3237"},{"id":3232,"title":"Страшно прекрасно","kp_id":"1159410","imdb_id":"tt8628658","world_art_id":null,"type":"serial","add":"2018-09-28 10:41:51","orig_title":"Leobeulli Horeobeulli","year":"2018-08-13","translations":["Любительский (двухголосый закадровый) (Храм Дорам ТВ)"],"seasons_count":1,"episodes_count":16,"episodes":16,"update":"2018-10-06 22:38:01","iframe_src":"//83.svetacdn.in/PfJ50H0ZBPg3/tv-series/3232"},{"id":3229,"title":"Саутленд","kp_id":"427129","imdb_id":"tt1299368","world_art_id":null,"type":"serial","add":"2018-09-27 09:38:56","orig_title":"Southland","year":"2011-02-23","translations":["Профессиональный (многоголосый закадровый) (NovaFilm)","Профессиональный (многоголосый закадровый)"],"seasons_count":5,"episodes_count":43,"episodes":10,"update":"2018-09-29 09:37:39","iframe_src":"//83.svetacdn.in/PfJ50H0ZBPg3/tv-series/3229"},{"id":3200,"title":"История одного клана","kp_id":"939810","imdb_id":"tt5056538","world_art_id":null,"type":"serial","add":"2018-09-21 16:43:28","orig_title":"Historia de un clan","year":"2015-09-09","translations":["Профессиональный (двухголосый закадровый) (ViruseProject)"],"seasons_count":1,"episodes_count":11,"episodes":11,"update":"2018-10-03 19:11:17","iframe_src":"//83.svetacdn.in/PfJ50H0ZBPg3/tv-series/3200"},{"id":3186,"title":"История Бобби Брауна","kp_id":"1155815","imdb_id":"tt8101768","world_art_id":null,"type":"serial","add":"2018-09-19 10:18:27","orig_title":"The Bobby Brown Story","year":"2018-09-04","translations":["Любительский (двухголосый закадровый) (Sunshine Studio)"],"seasons_count":1,"episodes_count":2,"episodes":2,"update":"2018-10-01 14:17:44","iframe_src":"//83.svetacdn.in/PfJ50H0ZBPg3/tv-series/3186"},{"id":3184,"title":"Акварели","kp_id":"1189791","imdb_id":null,"world_art_id":null,"type":"serial","add":"2018-09-18 15:39:49","orig_title":"Акварели","year":"2018-09-17","translations":["Оригинальная дорожка"],"seasons_count":1,"episodes_count":16,"episodes":16,"update":"2018-09-30 20:01:40","iframe_src":"//83.svetacdn.in/PfJ50H0ZBPg3/tv-series/3184"},{"id":3169,"title":"Деграсси: Новый класс","kp_id":"963354","imdb_id":"tt5320160","world_art_id":null,"type":"serial","add":"2018-09-14 10:55:41","orig_title":"Degrassi: Next Class","year":"2016-01-04","translations":["Любительский (двухголосый закадровый) (GoldTeam)"],"seasons_count":4,"episodes_count":40,"episodes":10,"update":"2018-10-02 07:31:36","iframe_src":"//83.svetacdn.in/PfJ50H0ZBPg3/tv-series/3169"},{"id":3013,"title":"Сад падающих звёзд","kp_id":"1183069","imdb_id":"tt8690890","world_art_id":null,"type":"serial","add":"2018-08-09 07:00:42","orig_title":"Meteor Garden","year":"2018-07-13","translations":["Любительский (двухголосый закадровый) (SoftBox)"],"seasons_count":1,"episodes_count":49,"episodes":49,"update":"2018-10-05 07:25:23","iframe_src":"//83.svetacdn.in/PfJ50H0ZBPg3/tv-series/3013"},{"id":2817,"title":"Дети маленького бога","kp_id":"1097448","imdb_id":null,"world_art_id":null,"type":"serial","add":"2018-06-14 19:29:13","orig_title":"Jakeun sinui aideul","year":"2018-02-24","translations":["Любительский (многоголосый закадровый) (XDUB Dorama)"],"seasons_count":1,"episodes_count":16,"episodes":16,"update":"2018-09-29 09:19:33","iframe_src":"//83.svetacdn.in/PfJ50H0ZBPg3/tv-series/2817"},{"id":16006,"title":"Бархатные ручки","kp_id":"57738","imdb_id":"tt0079523","world_art_id":null,"type":"movie","add":"2018-04-02 23:00:41","orig_title":"Mani di velluto","year":"1979-12-20","translations":["Профессиональный (многоголосый закадровый) (НТВ)","Любительский (одноголосый закадровый)","Профессиональный (двухголосый закадровый) (РТР | Россия)"],"quality":"bd","translation":"Профессиональный (многоголосый закадровый) (НТВ)","update":"2020-11-25 07:17:04","iframe_src":"//83.svetacdn.in/PfJ50H0ZBPg3/movie/16006"},{"id":1728,"title":"По болезни","kp_id":"982447","imdb_id":"tt5770788","world_art_id":null,"type":"serial","add":"2017-11-13 06:28:18","orig_title":"Sick Note","year":"2017-11-07","translations":["Профессиональный (многоголосый закадровый) (Ozz.tv)"],"seasons_count":2,"episodes_count":14,"episodes":8,"update":"2018-09-29 09:20:18","iframe_src":"//83.svetacdn.in/PfJ50H0ZBPg3/tv-series/1728"},{"id":1480,"title":"Лига справедливости","kp_id":"957938","imdb_id":"tt5419200","world_art_id":null,"type":"serial","add":"2017-08-20 06:29:28","orig_title":"Justice League Action","year":"2016-11-26","translations":["Полное дублирование"],"seasons_count":1,"episodes_count":49,"episodes":49,"update":"2018-10-02 13:58:52","iframe_src":"//83.svetacdn.in/PfJ50H0ZBPg3/tv-series/1480"},{"id":1096,"title":"Британские СС","kp_id":"989091","imdb_id":"tt4939950","world_art_id":null,"type":"serial","add":"2017-03-13 11:48:06","orig_title":"SS-GB","year":"2017-02-19","translations":["Профессиональный (многоголосый закадровый) (Jaskier)","Профессиональный (многоголосый закадровый) (FilmsClub)"],"seasons_count":1,"episodes_count":5,"episodes":5,"update":"2018-10-01 07:34:36","iframe_src":"//83.svetacdn.in/PfJ50H0ZBPg3/tv-series/1096"},{"id":239,"title":"Крушение","kp_id":"888489","imdb_id":"tt4168956","world_art_id":null,"type":"serial","add":"2016-06-29 06:13:23","orig_title":"Wrecked","year":"2016-06-14","translations":["Профессиональный (многоголосый закадровый) (IdeaFilm)","Профессиональный (многоголосый закадровый) (BaibaKo)"],"seasons_count":3,"episodes_count":30,"episodes":10,"update":"2018-10-05 16:38:11","iframe_src":"//83.svetacdn.in/PfJ50H0ZBPg3/tv-series/239"},{"id":128,"title":"Счастливчик","kp_id":"940634","imdb_id":"tt4800878","world_art_id":null,"type":"serial","add":"2016-06-02 12:04:46","orig_title":"Stan Lee's Lucky Man","year":"2016-01-22","translations":["Профессиональный (многоголосый закадровый) (Jaskier)","Профессиональный (многоголосый закадровый) (BaibaKo)"],"seasons_count":3,"episodes_count":28,"episodes":8,"update":"2018-10-01 12:06:46","iframe_src":"//83.svetacdn.in/PfJ50H0ZBPg3/tv-series/128"}],"current_page":424,"first_page_url":"https://videocdn.tv/api/short?limit=100&api_token=RgFQdUIR2dRmwv8iYa5SnFNgnw3vpjKj&cache3424=3424&page=1","from":42301,"last_page":637,"last_page_url":"https://videocdn.tv/api/short?limit=100&api_token=RgFQdUIR2dRmwv8iYa5SnFNgnw3vpjKj&cache3424=3424&page=637","next_page_url":"https://videocdn.tv/api/short?limit=100&api_token=RgFQdUIR2dRmwv8iYa5SnFNgnw3vpjKj&cache3424=3424&page=425","path":"https://videocdn.tv/api/short","per_page":100,"prev_page_url":"https://videocdn.tv/api/short?limit=100&api_token=RgFQdUIR2dRmwv8iYa5SnFNgnw3vpjKj&cache3424=3424&page=423","to":42340,"total":63673}