{"result":true,"data":[{"id":11771,"title":"Приди в себя","kp_id":"807067","imdb_id":"tt3253232","world_art_id":null,"type":"movie","add":"2017-06-01 22:50:21","orig_title":"The Bounce Back","year":"2016-12-09","translations":["Любительский (многоголосый закадровый) (@MUZOBOZ@)"],"quality":"dvdrip","translation":"Любительский (многоголосый закадровый) (@MUZOBOZ@)","update":"2017-06-02 05:58:21","iframe_src":"//5322.svetacdn.in/71tsRs29n5tZ/movie/11771"},{"id":11769,"title":"Северянин","kp_id":"936767","imdb_id":"tt5059782","world_art_id":null,"type":"movie","add":"2017-06-01 22:43:46","orig_title":"The Northlander","year":"2016-09-02","translations":["Любительский (многоголосый закадровый) (Синема УС)"],"quality":"webdl","translation":"Любительский (многоголосый закадровый) (Синема УС)","update":"2017-06-02 06:05:29","iframe_src":"//5322.svetacdn.in/71tsRs29n5tZ/movie/11769"},{"id":11768,"title":"Массовое убийство в Виллиске","kp_id":"807807","imdb_id":"tt3320500","world_art_id":null,"type":"movie","add":"2017-06-01 22:42:11","orig_title":"The Axe Murders of Villisca","year":"2016-06-07","translations":["Любительский (многоголосый закадровый) (Синема УС)"],"quality":"bd","translation":"Любительский (многоголосый закадровый) (Синема УС)","update":"2017-06-02 06:06:29","iframe_src":"//5322.svetacdn.in/71tsRs29n5tZ/movie/11768"},{"id":11767,"title":"Гоблин","kp_id":null,"imdb_id":"tt6086876","world_art_id":null,"type":"movie","add":"2017-06-01 22:40:43","orig_title":"The Goblin","year":"2017-09-01","translations":["Любительский (многоголосый закадровый) (Синема УС)"],"quality":"webdl","translation":"Любительский (многоголосый закадровый) (Синема УС)","update":"2017-06-02 06:07:33","iframe_src":"//5322.svetacdn.in/71tsRs29n5tZ/movie/11767"},{"id":11764,"title":"Стихийное бедствие","kp_id":"1013581","imdb_id":"tt6215044","world_art_id":null,"type":"movie","add":"2017-06-01 22:32:13","orig_title":"Oceans Rising","year":"2017-01-17","translations":["Профессиональный (многоголосый закадровый) (GreenРай Studio)"],"quality":"webdl","translation":"Профессиональный (многоголосый закадровый) (GreenРай Studio)","update":"2017-06-02 06:15:52","iframe_src":"//5322.svetacdn.in/71tsRs29n5tZ/movie/11764"},{"id":11763,"title":"Мой слепой брат","kp_id":"898347","imdb_id":"tt4550420","world_art_id":null,"type":"movie","add":"2017-06-01 22:30:26","orig_title":"My Blind Brother","year":"2016-03-12","translations":["Профессиональный (многоголосый закадровый) (GreenРай Studio)"],"quality":"bd","translation":"Профессиональный (многоголосый закадровый) (GreenРай Studio)","update":"2017-06-02 06:17:19","iframe_src":"//5322.svetacdn.in/71tsRs29n5tZ/movie/11763"},{"id":11759,"title":"Убийства на острове Йе","kp_id":"894435","imdb_id":"tt4077292","world_art_id":null,"type":"movie","add":"2017-06-01 22:20:32","orig_title":"Meurtres à l'Île d'Yeu","year":"2015-03-07","translations":["Любительский (одноголосый закадровый)"],"quality":"tv","translation":"Любительский (одноголосый закадровый)","update":"2017-06-02 06:40:29","iframe_src":"//5322.svetacdn.in/71tsRs29n5tZ/movie/11759"},{"id":11758,"title":"Убийства на острове Ре","kp_id":null,"imdb_id":"tt5621834","world_art_id":null,"type":"movie","add":"2017-06-01 22:15:55","orig_title":"Meurtres à l'île de Ré","year":"2017-04-23","translations":["Профессиональный (многоголосый закадровый)"],"quality":"hdtv","translation":"Профессиональный (многоголосый закадровый)","update":"2017-06-02 06:42:49","iframe_src":"//5322.svetacdn.in/71tsRs29n5tZ/movie/11758"},{"id":11757,"title":"Макларен","kp_id":"935410","imdb_id":"tt5031332","world_art_id":null,"type":"movie","add":"2017-06-01 22:13:49","orig_title":"McLaren","year":"2017-05-25","translations":["Любительский (многоголосый закадровый) (Синема УС)"],"quality":"bd","translation":"Любительский (многоголосый закадровый) (Синема УС)","update":"2017-06-02 06:44:30","iframe_src":"//5322.svetacdn.in/71tsRs29n5tZ/movie/11757"},{"id":11722,"title":"Музыка внутри","kp_id":"232083","imdb_id":"tt0422783","world_art_id":null,"type":"movie","add":"2017-06-01 04:37:37","orig_title":"Music Within","year":"2007-01-05","translations":["Профессиональный (двухголосый закадровый)"],"quality":"bd","translation":"Профессиональный (двухголосый закадровый)","update":"2017-06-01 11:50:11","iframe_src":"//5322.svetacdn.in/71tsRs29n5tZ/movie/11722"},{"id":11721,"title":"Штука","kp_id":"86669","imdb_id":"tt0427998","world_art_id":null,"type":"movie","add":"2017-06-01 04:33:14","orig_title":"The Grand","year":"2007-06-07","translations":["Любительский (двухголосый закадровый)"],"quality":"bd","translation":"Любительский (двухголосый закадровый)","update":"2017-06-01 11:48:10","iframe_src":"//5322.svetacdn.in/71tsRs29n5tZ/movie/11721"},{"id":11718,"title":"Цирк","kp_id":"2119","imdb_id":"tt0018773","world_art_id":null,"type":"movie","add":"2017-05-31 12:25:54","orig_title":"The Circus","year":"1928-01-06","translations":["Оригинальная дорожка"],"quality":"bd","translation":"Оригинальная дорожка","update":"2017-06-01 06:11:46","iframe_src":"//5322.svetacdn.in/71tsRs29n5tZ/movie/11718"},{"id":11717,"title":"Настоящий Гарфилд","kp_id":"394026","imdb_id":"tt1059793","world_art_id":null,"type":"movie","add":"2017-05-31 12:24:16","orig_title":"Garfield Gets Real","year":"2007-10-01","translations":["Любительский (двухголосый закадровый)"],"quality":"dvdrip","translation":"Любительский (двухголосый закадровый)","update":"2017-06-01 06:12:46","iframe_src":"//5322.svetacdn.in/71tsRs29n5tZ/movie/11717"},{"id":11716,"title":"Смерть на похоронах","kp_id":"256498","imdb_id":"tt0795368","world_art_id":null,"type":"movie","add":"2017-05-31 12:18:49","orig_title":"Death at a Funeral","year":"2007-03-02","translations":["Полное дублирование"],"quality":"bd","translation":"Полное дублирование","update":"2017-06-01 06:14:22","iframe_src":"//5322.svetacdn.in/71tsRs29n5tZ/movie/11716"},{"id":11710,"title":"Мститель","kp_id":"32122","imdb_id":"tt0080707","world_art_id":null,"type":"movie","add":"2017-05-31 00:16:20","orig_title":"The Exterminator","year":"1980-06-21","translations":["Профессиональный (двухголосый закадровый) (НТВ)","Любительский (одноголосый закадровый)"],"quality":"hdrip","translation":"Профессиональный (двухголосый закадровый) (НТВ)","update":"2017-06-02 06:12:51","iframe_src":"//5322.svetacdn.in/71tsRs29n5tZ/movie/11710"},{"id":11611,"title":"Любовь и страсть. Далида","kp_id":"935508","imdb_id":"tt5039860","world_art_id":null,"type":"movie","add":"2017-05-18 17:43:44","orig_title":"Dalida","year":"2016-11-30","translations":["Полное дублирование"],"quality":"bd","translation":"Полное дублирование","update":"2017-06-01 11:46:49","iframe_src":"//5322.svetacdn.in/71tsRs29n5tZ/movie/11611"},{"id":11608,"title":"Дэвид Бекхэм: Путешествие в неизведанное","kp_id":"840731","imdb_id":"tt3786312","world_art_id":null,"type":"movie","add":"2017-05-18 16:50:49","orig_title":"David Beckham: Into the Unknown","year":"2014-06-09","translations":["Профессиональный (многоголосый закадровый)"],"quality":"hdtv","translation":"Профессиональный (многоголосый закадровый)","update":"2017-06-01 06:18:33","iframe_src":"//5322.svetacdn.in/71tsRs29n5tZ/movie/11608"},{"id":11311,"title":"Моя девушка – монстр","kp_id":"938513","imdb_id":"tt4680182","world_art_id":null,"type":"movie","add":"2017-05-01 21:32:47","orig_title":"Colossal","year":"2016-09-09","translations":["Любительский (многоголосый закадровый) (Синема УС)","Полное дублирование"],"quality":"webdl","translation":"Любительский (многоголосый закадровый) (Синема УС)","update":"2017-06-01 07:38:08","iframe_src":"//5322.svetacdn.in/71tsRs29n5tZ/movie/11311"},{"id":6002,"title":"Моррис из Америки","kp_id":"904081","imdb_id":"tt3652862","world_art_id":null,"type":"movie","add":"2016-10-09 11:18:00","orig_title":"Morris from America","year":"2016-01-22","translations":["Любительский (многоголосый закадровый)"],"quality":"bd","translation":"Любительский (многоголосый закадровый)","update":"2017-06-02 06:31:38","iframe_src":"//5322.svetacdn.in/71tsRs29n5tZ/movie/6002"},{"id":379,"title":"Отступление","kp_id":"746481","imdb_id":"tt2784936","world_art_id":null,"type":"movie","add":"2016-03-31 18:34:43","orig_title":"Backtrack","year":"2015-04-15","translations":["Любительский (многоголосый закадровый) (Parovoz Production)","Полное дублирование"],"quality":"bd","translation":"Любительский (многоголосый закадровый) (Parovoz Production)","update":"2017-06-02 06:33:44","iframe_src":"//5322.svetacdn.in/71tsRs29n5tZ/movie/379"}],"current_page":2075,"first_page_url":"https://videocdn.tv/api/short?limit=100&api_token=EnbO9h8pv1VyjbCJhg0WM9nG259n7mtz&cache32075=32075&page=1","from":207401,"last_page":624,"last_page_url":"https://videocdn.tv/api/short?limit=100&api_token=EnbO9h8pv1VyjbCJhg0WM9nG259n7mtz&cache32075=32075&page=624","next_page_url":null,"path":"https://videocdn.tv/api/short","per_page":100,"prev_page_url":"https://videocdn.tv/api/short?limit=100&api_token=EnbO9h8pv1VyjbCJhg0WM9nG259n7mtz&cache32075=32075&page=2074","to":207420,"total":62385}