{"result":true,"data":[{"id":26204,"title":"Банди и убийца с Грин-Ривер","kp_id":"1163880","imdb_id":"tt8549254","world_art_id":null,"type":"movie","add":"2019-05-09 16:47:11","orig_title":"Bundy and the Green River Killer","year":"2019-05-07","translations":["Любительский (многоголосый закадровый) (Синема УС)"],"quality":"webdl","translation":"Любительский (многоголосый закадровый) (Синема УС)","update":"2019-05-09 19:02:45","iframe_src":"//8543.svetacdn.in/si4jsFRrtgrT/movie/26204"},{"id":26201,"title":"Новые деньги","kp_id":"1097978","imdb_id":"tt7493184","world_art_id":null,"type":"movie","add":"2019-05-09 16:37:25","orig_title":"New Money","year":"2018-03-01","translations":["Любительский (многоголосый закадровый) (Синема УС)"],"quality":"webdl","translation":"Любительский (многоголосый закадровый) (Синема УС)","update":"2019-05-10 04:10:12","iframe_src":"//8543.svetacdn.in/si4jsFRrtgrT/movie/26201"},{"id":26199,"title":"Где кроется безумие","kp_id":null,"imdb_id":"tt6264264","world_art_id":null,"type":"movie","add":"2019-05-09 07:06:08","orig_title":"That Way Madness Lies...","year":"2018-12-14","translations":["Любительский (многоголосый закадровый) (Синема УС)"],"quality":"webdl","translation":"Любительский (многоголосый закадровый) (Синема УС)","update":"2019-05-09 11:32:01","iframe_src":"//8543.svetacdn.in/si4jsFRrtgrT/movie/26199"},{"id":26198,"title":"Однокашники","kp_id":"986610","imdb_id":"tt5724948","world_art_id":null,"type":"movie","add":"2019-05-09 06:59:33","orig_title":"Old Boys","year":"2018-06-21","translations":["Любительский (многоголосый закадровый) (Синема УС)"],"quality":"webdl","translation":"Любительский (многоголосый закадровый) (Синема УС)","update":"2019-05-09 10:07:11","iframe_src":"//8543.svetacdn.in/si4jsFRrtgrT/movie/26198"},{"id":26197,"title":"Любовь на расстоянии 50 метров","kp_id":"1200948","imdb_id":"tt9033534","world_art_id":null,"type":"movie","add":"2019-05-09 06:58:29","orig_title":"Wu shi mi zhi lian","year":"2019-02-14","translations":["Любительский (многоголосый закадровый) (Синема УС)"],"quality":"bd","translation":"Любительский (многоголосый закадровый) (Синема УС)","update":"2019-05-09 11:32:53","iframe_src":"//8543.svetacdn.in/si4jsFRrtgrT/movie/26197"},{"id":26196,"title":"Невидимый свидетель","kp_id":"1122985","imdb_id":"tt7735502","world_art_id":null,"type":"movie","add":"2019-05-09 06:53:35","orig_title":"Il testimone invisibile","year":"2018-12-13","translations":["Любительский (многоголосый закадровый) (Синема УС)"],"quality":"dvdrip","translation":"Любительский (многоголосый закадровый) (Синема УС)","update":"2019-05-09 11:36:09","iframe_src":"//8543.svetacdn.in/si4jsFRrtgrT/movie/26196"},{"id":26195,"title":"Онрё","kp_id":"849646","imdb_id":"tt3547502","world_art_id":null,"type":"movie","add":"2019-05-09 06:52:03","orig_title":"Onryo","year":"2019-04-26","translations":["Любительский (многоголосый закадровый) (Синема УС)"],"quality":"webdl","translation":"Любительский (многоголосый закадровый) (Синема УС)","update":"2019-05-09 08:22:21","iframe_src":"//8543.svetacdn.in/si4jsFRrtgrT/movie/26195"},{"id":26194,"title":"Аира","kp_id":"1217451","imdb_id":"tt9319896","world_art_id":null,"type":"movie","add":"2019-05-09 06:49:48","orig_title":"Airaa","year":"2019-03-27","translations":["Любительский (многоголосый закадровый) (Синема УС)"],"quality":"webdl","translation":"Любительский (многоголосый закадровый) (Синема УС)","update":"2019-05-09 10:06:12","iframe_src":"//8543.svetacdn.in/si4jsFRrtgrT/movie/26194"},{"id":26192,"title":"Тише, малышка, добро пожаловать в семью","kp_id":"1177559","imdb_id":"tt8722030","world_art_id":null,"type":"movie","add":"2019-05-09 06:41:03","orig_title":"Hush Little Baby Welcome To The Family","year":"2018-10-08","translations":["Любительский (многоголосый закадровый) (Синема УС)"],"quality":"webdl","translation":"Любительский (многоголосый закадровый) (Синема УС)","update":"2019-05-09 08:21:35","iframe_src":"//8543.svetacdn.in/si4jsFRrtgrT/movie/26192"},{"id":26191,"title":"Ревнивая","kp_id":"1055018","imdb_id":"tt7156144","world_art_id":null,"type":"movie","add":"2019-05-09 06:35:27","orig_title":"Jalouse","year":"2017-08-26","translations":["Любительский (многоголосый закадровый) (Синема УС)"],"quality":"bd","translation":"Любительский (многоголосый закадровый) (Синема УС)","update":"2019-05-09 08:18:52","iframe_src":"//8543.svetacdn.in/si4jsFRrtgrT/movie/26191"},{"id":26188,"title":"Сдаётся комната","kp_id":"1071510","imdb_id":"tt6747818","world_art_id":null,"type":"movie","add":"2019-05-09 06:04:10","orig_title":"Room for Rent","year":"2019-02-23","translations":["Любительский (многоголосый закадровый) (Синема УС)"],"quality":"webdl","translation":"Любительский (многоголосый закадровый) (Синема УС)","update":"2019-05-09 07:19:58","iframe_src":"//8543.svetacdn.in/si4jsFRrtgrT/movie/26188"},{"id":26187,"title":"Нарцисс","kp_id":"1237107","imdb_id":"tt9667876","world_art_id":null,"type":"movie","add":"2019-05-09 05:57:08","orig_title":"The Narcissist","year":"2019-04-26","translations":["Любительский (многоголосый закадровый) (Синема УС)"],"quality":"hdtv","translation":"Любительский (многоголосый закадровый) (Синема УС)","update":"2019-05-09 07:23:33","iframe_src":"//8543.svetacdn.in/si4jsFRrtgrT/movie/26187"},{"id":26186,"title":"Отчаянная жизнь","kp_id":"1078726","imdb_id":"tt6917272","world_art_id":null,"type":"movie","add":"2019-05-09 05:54:52","orig_title":"Una vita spericolata","year":"2018-06-21","translations":["Любительский (многоголосый закадровый) (Синема УС)"],"quality":"bd","translation":"Любительский (многоголосый закадровый) (Синема УС)","update":"2019-05-09 08:21:54","iframe_src":"//8543.svetacdn.in/si4jsFRrtgrT/movie/26186"},{"id":26176,"title":"Поздний цветок","kp_id":"495459","imdb_id":"tt1588878","world_art_id":null,"type":"movie","add":"2019-05-07 21:53:20","orig_title":"The Late Bloomer","year":"2016-09-30","translations":["Полное дублирование"],"quality":"webdl","translation":"Полное дублирование","update":"2019-05-09 08:18:54","iframe_src":"//8543.svetacdn.in/si4jsFRrtgrT/movie/26176"},{"id":20902,"title":"Белая графиня","kp_id":"77528","imdb_id":"tt0384686","world_art_id":null,"type":"movie","add":"2018-12-21 14:04:40","orig_title":"The White Countess","year":"2005-10-30","translations":["Профессиональный (многоголосый закадровый)","Original (English)"],"quality":"webdl","translation":"Профессиональный (многоголосый закадровый)","update":"2019-05-09 07:18:43","iframe_src":"//8543.svetacdn.in/si4jsFRrtgrT/movie/20902"},{"id":20901,"title":"Всё о моей родне","kp_id":"85576","imdb_id":"tt0429177","world_art_id":null,"type":"movie","add":"2018-12-21 14:03:43","orig_title":"The Thing About My Folks","year":"2005-06-02","translations":["Профессиональный (многоголосый закадровый)","Original (English)"],"quality":"webdl","translation":"Профессиональный (многоголосый закадровый)","update":"2019-05-09 07:17:57","iframe_src":"//8543.svetacdn.in/si4jsFRrtgrT/movie/20901"},{"id":20830,"title":"Охотник на убийц","kp_id":"3757","imdb_id":"tt0324127","world_art_id":null,"type":"movie","add":"2018-12-18 14:30:33","orig_title":"Suspect Zero","year":"2004-08-27","translations":["Профессиональный (двухголосый закадровый)","Original (English)"],"quality":"webdl","translation":"Профессиональный (двухголосый закадровый)","update":"2019-05-09 07:11:09","iframe_src":"//8543.svetacdn.in/si4jsFRrtgrT/movie/20830"},{"id":20720,"title":"Поющий детектив","kp_id":"1654","imdb_id":"tt0314676","world_art_id":null,"type":"movie","add":"2018-12-13 14:11:28","orig_title":"The Singing Detective","year":"2003-01-17","translations":["Профессиональный (многоголосый закадровый)","Original (English)"],"quality":"webdl","translation":"Профессиональный (многоголосый закадровый)","update":"2019-05-09 07:14:06","iframe_src":"//8543.svetacdn.in/si4jsFRrtgrT/movie/20720"},{"id":20719,"title":"Бурый кролик","kp_id":"11056","imdb_id":"tt0330099","world_art_id":null,"type":"movie","add":"2018-12-13 14:10:26","orig_title":"The Brown Bunny","year":"2003-05-21","translations":["Профессиональный (многоголосый закадровый)","Original (English)"],"quality":"webdl","translation":"Профессиональный (многоголосый закадровый)","update":"2019-05-09 07:12:31","iframe_src":"//8543.svetacdn.in/si4jsFRrtgrT/movie/20719"},{"id":20714,"title":"Игрок","kp_id":"10987","imdb_id":"tt0338467","world_art_id":null,"type":"movie","add":"2018-12-13 14:03:33","orig_title":"Stuey","year":"2003-05-01","translations":["Профессиональный (двухголосый закадровый)","Original (English)"],"quality":"webdl","translation":"Профессиональный (двухголосый закадровый)","update":"2019-05-09 07:10:05","iframe_src":"//8543.svetacdn.in/si4jsFRrtgrT/movie/20714"}],"current_page":1309,"first_page_url":"https://videocdn.tv/api/short?limit=100&api_token=X6EwAUfE5M9xbo7y0Bp0aPf3uXxG2KLL&cache31309=31309&page=1","from":130801,"last_page":605,"last_page_url":"https://videocdn.tv/api/short?limit=100&api_token=X6EwAUfE5M9xbo7y0Bp0aPf3uXxG2KLL&cache31309=31309&page=605","next_page_url":null,"path":"https://videocdn.tv/api/short","per_page":100,"prev_page_url":"https://videocdn.tv/api/short?limit=100&api_token=X6EwAUfE5M9xbo7y0Bp0aPf3uXxG2KLL&cache31309=31309&page=1308","to":130820,"total":60438}