{"result":true,"data":[{"id":15708,"title":"Мэверик: охота в Бразилии","kp_id":"848519","imdb_id":"tt4143066","world_art_id":null,"type":"movie","add":"2018-03-16 21:36:44","orig_title":"Maverick: Manhunt Brazil","year":"2016-09-18","translations":["Любительский (многоголосый закадровый) (Синема УС)"],"quality":"webdl","translation":"Любительский (многоголосый закадровый) (Синема УС)","update":"2018-03-18 09:45:24","iframe_src":"//5322.svetacdn.in/71tsRs29n5tZ/movie/15708"},{"id":15707,"title":"Имитация Девушки","kp_id":"972965","imdb_id":"tt5612564","world_art_id":null,"type":"movie","add":"2018-03-16 21:33:17","orig_title":"Imitation Girl","year":"2017-03-04","translations":["Любительский (многоголосый закадровый) (Синема УС)"],"quality":"webdl","translation":"Любительский (многоголосый закадровый) (Синема УС)","update":"2018-03-18 09:46:38","iframe_src":"//5322.svetacdn.in/71tsRs29n5tZ/movie/15707"},{"id":15705,"title":"Закон исключённого третьего, или третьего не дано","kp_id":"972829","imdb_id":null,"world_art_id":null,"type":"movie","add":"2018-03-16 13:56:54","orig_title":"Закон исключённого третьего, или третьего не дано","year":"2016-09-08","translations":["Оригинальная дорожка"],"quality":"hdtv","translation":"Оригинальная дорожка","update":"2018-03-18 09:49:20","iframe_src":"//5322.svetacdn.in/71tsRs29n5tZ/movie/15705"},{"id":15704,"title":"СМС для тебя","kp_id":"944563","imdb_id":"tt5193460","world_art_id":null,"type":"movie","add":"2018-03-16 13:52:12","orig_title":"SMS für Dich","year":"2016-09-06","translations":["Профессиональный (многоголосый закадровый)"],"quality":"bd","translation":"Профессиональный (многоголосый закадровый)","update":"2018-03-18 09:53:39","iframe_src":"//5322.svetacdn.in/71tsRs29n5tZ/movie/15704"},{"id":15703,"title":"Мел и тряпка","kp_id":"902557","imdb_id":"tt4600778","world_art_id":null,"type":"movie","add":"2018-03-16 13:50:06","orig_title":"Chalk N Duster","year":"2016-01-15","translations":["Профессиональный (многоголосый закадровый)"],"quality":"webdl","translation":"Профессиональный (многоголосый закадровый)","update":"2018-03-18 09:54:09","iframe_src":"//5322.svetacdn.in/71tsRs29n5tZ/movie/15703"},{"id":15701,"title":"Гнев","kp_id":"962068","imdb_id":"tt5335128","world_art_id":null,"type":"movie","add":"2018-03-16 13:36:07","orig_title":"Kali","year":"2016-03-26","translations":["Профессиональный (многоголосый закадровый)"],"quality":"webdl","translation":"Профессиональный (многоголосый закадровый)","update":"2018-03-18 09:57:48","iframe_src":"//5322.svetacdn.in/71tsRs29n5tZ/movie/15701"},{"id":15700,"title":"В двух словах","kp_id":"926024","imdb_id":"tt4857886","world_art_id":null,"type":"movie","add":"2018-03-16 13:34:06","orig_title":"Do Lafzon Ki Kahani","year":"2016-06-10","translations":["Профессиональный (многоголосый закадровый)"],"quality":"webdl","translation":"Профессиональный (многоголосый закадровый)","update":"2018-03-18 09:58:21","iframe_src":"//5322.svetacdn.in/71tsRs29n5tZ/movie/15700"},{"id":15699,"title":"Кукловод","kp_id":"977866","imdb_id":"tt5713232","world_art_id":null,"type":"movie","add":"2018-03-16 13:30:48","orig_title":"Madaari","year":"2016-07-21","translations":["Профессиональный (многоголосый закадровый)"],"quality":"bd","translation":"Профессиональный (многоголосый закадровый)","update":"2018-03-18 09:58:45","iframe_src":"//5322.svetacdn.in/71tsRs29n5tZ/movie/15699"},{"id":15697,"title":"Ваша Сулу","kp_id":"1046843","imdb_id":"tt6791730","world_art_id":null,"type":"movie","add":"2018-03-16 13:15:56","orig_title":"Tumhari Sulu","year":"2017-11-17","translations":["Любительский (многоголосый закадровый)"],"quality":"webdl","translation":"Любительский (многоголосый закадровый)","update":"2018-03-18 09:59:11","iframe_src":"//5322.svetacdn.in/71tsRs29n5tZ/movie/15697"},{"id":15695,"title":"Конфетка из Барели","kp_id":"1047103","imdb_id":"tt6967980","world_art_id":null,"type":"movie","add":"2018-03-16 13:02:46","orig_title":"Bareilly Ki Barfi","year":"2017-08-18","translations":["Профессиональный (многоголосый закадровый)"],"quality":"bd","translation":"Профессиональный (многоголосый закадровый)","update":"2018-03-18 10:00:21","iframe_src":"//5322.svetacdn.in/71tsRs29n5tZ/movie/15695"},{"id":15691,"title":"Финишная черта – Никто не выигрывает на Миллернтор","kp_id":"546318","imdb_id":"tt1688644","world_art_id":null,"type":"movie","add":"2018-03-16 12:26:58","orig_title":"Gegengerade","year":"2011-01-19","translations":["Любительский (одноголосый закадровый)"],"quality":"bd","translation":"Любительский (одноголосый закадровый)","update":"2018-03-18 10:02:52","iframe_src":"//5322.svetacdn.in/71tsRs29n5tZ/movie/15691"},{"id":15690,"title":"Тайны острова","kp_id":null,"imdb_id":"tt6431610","world_art_id":null,"type":"movie","add":"2018-03-16 12:25:09","orig_title":"Les mystères de l'île","year":"2017-01-17","translations":["Профессиональный (многоголосый закадровый) (GreenРай Studio)"],"quality":"hdtv","translation":"Профессиональный (многоголосый закадровый) (GreenРай Studio)","update":"2018-03-18 10:03:26","iframe_src":"//5322.svetacdn.in/71tsRs29n5tZ/movie/15690"},{"id":15689,"title":"Снежный город","kp_id":"569865","imdb_id":"tt1680114","world_art_id":null,"type":"movie","add":"2018-03-16 12:22:15","orig_title":"Snowtown","year":"2011-05-16","translations":["Любительский (одноголосый закадровый)  (zamez | Замез Вячеслав)"],"quality":"bd","translation":"Любительский (одноголосый закадровый)  (zamez | Замез Вячеслав)","update":"2018-03-18 10:04:46","iframe_src":"//5322.svetacdn.in/71tsRs29n5tZ/movie/15689"},{"id":15235,"title":"Мактуб","kp_id":"1059904","imdb_id":"tt7252000","world_art_id":null,"type":"movie","add":"2018-02-20 05:11:38","orig_title":"Maktub","year":"2017-09-06","translations":["Любительский (многоголосый закадровый) (Синема УС)","Профессиональный (многоголосый закадровый) (GreenРай Studio)"],"quality":"webdl","translation":"Любительский (многоголосый закадровый) (Синема УС)","update":"2018-03-18 10:05:22","iframe_src":"//5322.svetacdn.in/71tsRs29n5tZ/movie/15235"},{"id":14997,"title":"Взлом","kp_id":"719961","imdb_id":"tt2531334","world_art_id":null,"type":"movie","add":"2018-01-29 17:15:20","orig_title":"Keep Watching","year":"2017-05-04","translations":["Любительский (многоголосый закадровый) (Синема УС)","Профессиональный (многоголосый закадровый)"],"quality":"webdl","translation":"Любительский (многоголосый закадровый) (Синема УС)","update":"2018-03-18 09:46:10","iframe_src":"//5322.svetacdn.in/71tsRs29n5tZ/movie/14997"},{"id":13818,"title":"Моя милая Бинду","kp_id":"968717","imdb_id":"tt5472374","world_art_id":null,"type":"movie","add":"2017-10-11 20:58:37","orig_title":"Meri Pyaari Bindu","year":"2017-05-11","translations":["Любительский (двухголосый закадровый)"],"quality":"webdl","translation":"Любительский (двухголосый закадровый)","update":"2018-03-18 10:01:06","iframe_src":"//5322.svetacdn.in/71tsRs29n5tZ/movie/13818"},{"id":11305,"title":"Валентин навсегда","kp_id":"826752","imdb_id":"tt3515524","world_art_id":null,"type":"movie","add":"2017-05-01 13:48:59","orig_title":"Valentine Ever After","year":"2016-02-13","translations":["Профессиональный (многоголосый закадровый)"],"quality":"hdtv","translation":"Профессиональный (многоголосый закадровый)","update":"2018-03-18 09:54:41","iframe_src":"//5322.svetacdn.in/71tsRs29n5tZ/movie/11305"},{"id":10108,"title":"Пожар на помойке","kp_id":"936077","imdb_id":"tt5076792","world_art_id":null,"type":"movie","add":"2017-02-28 12:07:26","orig_title":"Trash Fire","year":"2016-01-23","translations":["Любительский (одноголосый закадровый) (Хихикающий доктор)","Профессиональный (двухголосый закадровый)"],"quality":"webdl","translation":"Любительский (одноголосый закадровый) (Хихикающий доктор)","update":"2018-03-18 09:56:02","iframe_src":"//5322.svetacdn.in/71tsRs29n5tZ/movie/10108"},{"id":9055,"title":"Смотри ещё раз","kp_id":"944373","imdb_id":"tt5197544","world_art_id":null,"type":"movie","add":"2017-01-20 05:56:19","orig_title":"Baar Baar Dekho","year":"2016-09-09","translations":["Любительский (двухголосый закадровый)","Профессиональный (многоголосый закадровый)"],"quality":"hdrip","translation":"Любительский (двухголосый закадровый)","update":"2018-03-18 09:51:12","iframe_src":"//5322.svetacdn.in/71tsRs29n5tZ/movie/9055"},{"id":4439,"title":"Свадебный угар","kp_id":"756092","imdb_id":"tt2823054","world_art_id":null,"type":"movie","add":"2016-08-16 06:06:02","orig_title":"Mike and Dave Need Wedding Dates","year":"2016-07-07","translations":["Полное дублирование"],"quality":"bd","translation":"Полное дублирование","update":"2018-03-18 10:05:56","iframe_src":"//5322.svetacdn.in/71tsRs29n5tZ/movie/4439"}],"current_page":1901,"first_page_url":"https://videocdn.tv/api/short?limit=100&api_token=EnbO9h8pv1VyjbCJhg0WM9nG259n7mtz&cache31901=31901&page=1","from":190001,"last_page":623,"last_page_url":"https://videocdn.tv/api/short?limit=100&api_token=EnbO9h8pv1VyjbCJhg0WM9nG259n7mtz&cache31901=31901&page=623","next_page_url":null,"path":"https://videocdn.tv/api/short","per_page":100,"prev_page_url":"https://videocdn.tv/api/short?limit=100&api_token=EnbO9h8pv1VyjbCJhg0WM9nG259n7mtz&cache31901=31901&page=1900","to":190020,"total":62234}