{"result":true,"data":[{"id":53108,"title":"Ловушка","kp_id":"94896","imdb_id":"tt0130530","world_art_id":null,"type":"movie","add":"2021-09-13 18:00:22","orig_title":"Captured","year":"1998-10-11","translations":["Профессиональный (двухголосый закадровый) (Инис)"],"quality":"dvdrip","translation":"Профессиональный (двухголосый закадровый) (Инис)","update":"2021-09-13 20:52:42","iframe_src":"//24213.svetacdn.in/IAF0wWTdNYZm/movie/53108"},{"id":53107,"title":"Соснация","kp_id":null,"imdb_id":"tt13895638","world_art_id":null,"type":"movie","add":"2021-09-13 17:29:54","orig_title":"Sonsational","year":"2021-01-18","translations":["Любительский (многоголосый закадровый) (Синема УС)"],"quality":"webdl","translation":"Любительский (многоголосый закадровый) (Синема УС)","update":"2021-09-14 05:09:32","iframe_src":"//24213.svetacdn.in/IAF0wWTdNYZm/movie/53107"},{"id":53106,"title":"Сладкое ореховое лето","kp_id":"4539341","imdb_id":"tt15202038","world_art_id":null,"type":"movie","add":"2021-09-13 17:27:19","orig_title":"Sweet Pecan Summer","year":"2021-08-21","translations":["Любительский (многоголосый закадровый) (Синема УС)"],"quality":"webdl","translation":"Любительский (многоголосый закадровый) (Синема УС)","update":"2021-09-14 05:09:21","iframe_src":"//24213.svetacdn.in/IAF0wWTdNYZm/movie/53106"},{"id":53105,"title":"Человек из Открытого Космоса","kp_id":"985275","imdb_id":"tt5344150","world_art_id":null,"type":"movie","add":"2021-09-13 17:22:11","orig_title":"The Man from Outer Space","year":"2017-12-05","translations":["Любительский (многоголосый закадровый) (Синема УС)"],"quality":"webdl","translation":"Любительский (многоголосый закадровый) (Синема УС)","update":"2021-09-14 05:09:09","iframe_src":"//24213.svetacdn.in/IAF0wWTdNYZm/movie/53105"},{"id":53104,"title":"Сакура","kp_id":"1256822","imdb_id":"tt10132488","world_art_id":null,"type":"movie","add":"2021-09-13 12:34:01","orig_title":"Sakura","year":"2020-10-03","translations":["Любительский (двухголосый закадровый) (STEPonee)"],"quality":"bd","translation":"Любительский (двухголосый закадровый) (STEPonee)","update":"2021-09-14 06:45:14","iframe_src":"//24213.svetacdn.in/IAF0wWTdNYZm/movie/53104"},{"id":53103,"title":"Чинара на скале","kp_id":"1007865","imdb_id":null,"world_art_id":null,"type":"movie","add":"2021-09-13 10:47:12","orig_title":"Чинара на скале","year":"1965-01-01","translations":["Оригинальная дорожка"],"quality":"sat","translation":"Оригинальная дорожка","update":"2021-09-13 17:54:48","iframe_src":"//24213.svetacdn.in/IAF0wWTdNYZm/movie/53103"},{"id":53097,"title":"Взятие Беверли Хиллз","kp_id":"5968","imdb_id":"tt0105526","world_art_id":null,"type":"movie","add":"2021-09-13 05:54:18","orig_title":"The Taking of Beverly Hills","year":"1991-10-11","translations":["Профессиональный (двухголосый закадровый) (НТВ)","[EN] Original (English)","Авторский (одноголосый закадровый) (Живов Юрий)"],"quality":"bd","translation":"Профессиональный (двухголосый закадровый) (НТВ)","update":"2021-09-14 06:52:36","iframe_src":"//24213.svetacdn.in/IAF0wWTdNYZm/movie/53097"},{"id":53083,"title":"Ужасающий триптих","kp_id":null,"imdb_id":"tt6359482","world_art_id":null,"type":"movie","add":"2021-09-12 16:31:48","orig_title":"Gruesome Threesome","year":"2020-01-01","translations":["Любительский (многоголосый закадровый) (Синема УС)"],"quality":"webdl","translation":"Любительский (многоголосый закадровый) (Синема УС)","update":"2021-09-14 00:01:25","iframe_src":"//24213.svetacdn.in/IAF0wWTdNYZm/movie/53083"},{"id":53082,"title":"Яркая вспышка","kp_id":"4428727","imdb_id":"tt13764318","world_art_id":null,"type":"movie","add":"2021-09-12 16:30:24","orig_title":"Destello bravío","year":"2021-02-02","translations":["Любительский (многоголосый закадровый) (Синема УС)"],"quality":"webdl","translation":"Любительский (многоголосый закадровый) (Синема УС)","update":"2021-09-14 00:00:54","iframe_src":"//24213.svetacdn.in/IAF0wWTdNYZm/movie/53082"},{"id":53080,"title":"Эмбер и Грейс","kp_id":"1221555","imdb_id":"tt9331556","world_art_id":null,"type":"movie","add":"2021-09-12 16:24:35","orig_title":"Amber and Grace","year":"2019-01-01","translations":["Любительский (многоголосый закадровый) (Синема УС)"],"quality":"webdl","translation":"Любительский (многоголосый закадровый) (Синема УС)","update":"2021-09-14 00:00:17","iframe_src":"//24213.svetacdn.in/IAF0wWTdNYZm/movie/53080"},{"id":47431,"title":"Жозе","kp_id":"1253962","imdb_id":"tt13411298","world_art_id":null,"type":"movie","add":"2021-01-26 18:23:49","orig_title":"Josée","year":"2020-12-10","translations":["Любительский (двухголосый закадровый) (Колобок)","Любительский (многоголосый закадровый) (STEPonee)"],"quality":"webdl","translation":"Любительский (двухголосый закадровый) (Колобок)","update":"2021-09-14 06:42:14","iframe_src":"//24213.svetacdn.in/IAF0wWTdNYZm/movie/47431"},{"id":37768,"title":"Правосудие для всех","kp_id":"4879","imdb_id":"tt0078718","world_art_id":null,"type":"movie","add":"2020-03-11 10:55:12","orig_title":"...and justice for all","year":"1979-10-19","translations":["Полное дублирование","Полное дублирование (Киностудия им. Горького)","[EN] Original (English)","Профессиональный (двухголосый закадровый)","Профессиональный (многоголосый закадровый)"],"quality":"bd","translation":"Полное дублирование","update":"2021-09-14 07:29:25","iframe_src":"//24213.svetacdn.in/IAF0wWTdNYZm/movie/37768"},{"id":25984,"title":"Девять Семь Семь","kp_id":"256641","imdb_id":"tt0808139","world_art_id":null,"type":"movie","add":"2019-05-04 20:45:15","orig_title":"977","year":"2006-10-26","translations":["Оригинальная дорожка","Оригинальная дорожка"],"quality":"dvdrip","translation":"Оригинальная дорожка","update":"2021-09-13 17:56:17","iframe_src":"//24213.svetacdn.in/IAF0wWTdNYZm/movie/25984"},{"id":3803,"title":"Ботаны","kp_id":"841295","imdb_id":null,"world_art_id":null,"type":"serial","add":"2018-12-30 15:48:25","orig_title":"Ботаны","year":"2015-10-17","translations":["Оригинальная дорожка"],"seasons_count":1,"episodes_count":40,"episodes":40,"update":"2018-12-31 00:11:57","iframe_src":"//24213.svetacdn.in/IAF0wWTdNYZm/tv-series/3803"},{"id":3801,"title":"Следователи","kp_id":"929798","imdb_id":null,"world_art_id":null,"type":"serial","add":"2018-12-30 15:29:48","orig_title":"Следователи","year":"2015-01-01","translations":["Оригинальная дорожка"],"seasons_count":1,"episodes_count":56,"episodes":56,"update":"2018-12-31 13:26:04","iframe_src":"//24213.svetacdn.in/IAF0wWTdNYZm/tv-series/3801"},{"id":3799,"title":"Богатые дети, бедные родители","kp_id":"501714","imdb_id":"tt1464446","world_art_id":null,"type":"serial","add":"2018-12-30 14:43:21","orig_title":"Niños ricos, pobres padres","year":"2009-07-07","translations":["Профессиональный (многоголосый закадровый)"],"seasons_count":1,"episodes_count":130,"episodes":130,"update":"2018-12-31 14:30:53","iframe_src":"//24213.svetacdn.in/IAF0wWTdNYZm/tv-series/3799"},{"id":3798,"title":"10 друзей Кролика","kp_id":"840917","imdb_id":"tt3282274","world_art_id":null,"type":"serial","add":"2018-12-30 14:32:33","orig_title":"10 druzey Krolika","year":"2014-01-01","translations":["Оригинальная дорожка"],"seasons_count":1,"episodes_count":43,"episodes":43,"update":"2018-12-31 15:44:18","iframe_src":"//24213.svetacdn.in/IAF0wWTdNYZm/tv-series/3798"},{"id":3786,"title":"Новогодний ангел","kp_id":null,"imdb_id":null,"world_art_id":null,"type":"serial","add":"2018-12-30 00:50:08","orig_title":"Новогодний ангел","year":"2018-12-29","translations":["Оригинальная дорожка"],"seasons_count":1,"episodes_count":2,"episodes":2,"update":"2018-12-30 01:47:51","iframe_src":"//24213.svetacdn.in/IAF0wWTdNYZm/tv-series/3786"},{"id":3785,"title":"Король выпечки Ким Тхак-ку","kp_id":"577297","imdb_id":"tt1821771","world_art_id":null,"type":"serial","add":"2018-12-29 00:30:48","orig_title":"Jeppangwang Kim Tak-goo","year":"2010-06-09","translations":["Любительский (одноголосый закадровый) (GREEN TEA)"],"seasons_count":1,"episodes_count":30,"episodes":30,"update":"2018-12-31 19:00:36","iframe_src":"//24213.svetacdn.in/IAF0wWTdNYZm/tv-series/3785"},{"id":3784,"title":"Призрачный вор Яманеко","kp_id":"969300","imdb_id":"tt5207316","world_art_id":null,"type":"serial","add":"2018-12-29 00:20:04","orig_title":"Kaitô Yamaneko","year":"2016-01-16","translations":["Любительский (одноголосый закадровый) (GREEN TEA)"],"seasons_count":1,"episodes_count":10,"episodes":10,"update":"2018-12-31 19:29:20","iframe_src":"//24213.svetacdn.in/IAF0wWTdNYZm/tv-series/3784"},{"id":3783,"title":"Берегитесь Бэтмена","kp_id":"675660","imdb_id":"tt2329077","world_art_id":null,"type":"serial","add":"2018-12-28 20:29:46","orig_title":"Beware the Batman","year":"2013-07-13","translations":["Профессиональный (многоголосый закадровый)"],"seasons_count":1,"episodes_count":26,"episodes":26,"update":"2018-12-30 12:23:22","iframe_src":"//24213.svetacdn.in/IAF0wWTdNYZm/tv-series/3783"},{"id":3779,"title":"Байки из турне","kp_id":"1111930","imdb_id":"tt7212136","world_art_id":null,"type":"serial","add":"2018-12-27 15:14:42","orig_title":"Mike Judge Presents: Tales from the Tour Bus","year":"2017-09-22","translations":["Профессиональный (двухголосый закадровый) (Greb&Creative)"],"seasons_count":2,"episodes_count":16,"episodes":8,"update":"2018-12-31 09:39:01","iframe_src":"//24213.svetacdn.in/IAF0wWTdNYZm/tv-series/3779"},{"id":3777,"title":"Влюблённые с Хэундэ","kp_id":"820442","imdb_id":"tt3467302","world_art_id":null,"type":"serial","add":"2018-12-26 22:21:05","orig_title":"Haeundae Lovers","year":"2012-08-06","translations":["Любительский (одноголосый закадровый) (GREEN TEA)"],"seasons_count":1,"episodes_count":16,"episodes":16,"update":"2018-12-31 19:34:43","iframe_src":"//24213.svetacdn.in/IAF0wWTdNYZm/tv-series/3777"},{"id":3776,"title":"Божественные капли","kp_id":"455567","imdb_id":"tt1360424","world_art_id":null,"type":"serial","add":"2018-12-26 22:16:13","orig_title":"Kami no shizuku","year":"2009-01-13","translations":["Любительский (двухголосый закадровый) (GREEN TEA)"],"seasons_count":1,"episodes_count":9,"episodes":9,"update":"2018-12-31 19:48:18","iframe_src":"//24213.svetacdn.in/IAF0wWTdNYZm/tv-series/3776"},{"id":3775,"title":"Не сахарные","kp_id":"745258","imdb_id":"tt2501566","world_art_id":null,"type":"serial","add":"2018-12-26 22:10:17","orig_title":"Sugarless","year":"2012-10-03","translations":["Любительский (двухголосый закадровый) (GREEN TEA)"],"seasons_count":1,"episodes_count":12,"episodes":12,"update":"2018-12-31 19:53:16","iframe_src":"//24213.svetacdn.in/IAF0wWTdNYZm/tv-series/3775"},{"id":3774,"title":"Грань","kp_id":"839418","imdb_id":"tt3512088","world_art_id":null,"type":"serial","add":"2018-12-26 22:05:23","orig_title":"Border: Keishichô Sôsa Ikka Satsujinhan Sôsa Dai 4-gakkari","year":"2014-04-10","translations":["Любительский (одноголосый закадровый) (GREEN TEA)"],"seasons_count":1,"episodes_count":9,"episodes":9,"update":"2018-12-31 19:59:39","iframe_src":"//24213.svetacdn.in/IAF0wWTdNYZm/tv-series/3774"},{"id":3773,"title":"Лжесвидетельство Соломона","kp_id":"1007940","imdb_id":"tt6256616","world_art_id":null,"type":"serial","add":"2018-12-26 21:42:41","orig_title":"Solromonui Wijeung","year":"2016-12-16","translations":["Любительский (одноголосый закадровый) (GREEN TEA)"],"seasons_count":1,"episodes_count":12,"episodes":12,"update":"2018-12-31 19:42:43","iframe_src":"//24213.svetacdn.in/IAF0wWTdNYZm/tv-series/3773"},{"id":3763,"title":"Off the Air","kp_id":"687809","imdb_id":"tt2289131","world_art_id":null,"type":"serial","add":"2018-12-26 13:13:41","orig_title":"Off the Air","year":"2011-01-01","translations":["Оригинальная дорожка"],"seasons_count":8,"episodes_count":28,"episodes":2,"update":"2018-12-28 10:26:12","iframe_src":"//24213.svetacdn.in/IAF0wWTdNYZm/tv-series/3763"},{"id":3761,"title":"Стандарты красоты. Новая любовь","kp_id":"1008535","imdb_id":null,"world_art_id":null,"type":"serial","add":"2018-12-26 10:01:27","orig_title":"Стандарты красоты. Новая любовь","year":"2018-01-01","translations":["Оригинальная дорожка"],"seasons_count":1,"episodes_count":4,"episodes":4,"update":"2018-12-28 02:16:29","iframe_src":"//24213.svetacdn.in/IAF0wWTdNYZm/tv-series/3761"},{"id":3635,"title":"Лютый 2","kp_id":"1115425","imdb_id":null,"world_art_id":null,"type":"serial","add":"2018-12-06 22:20:31","orig_title":"Лютый 2","year":"2018-12-05","translations":["Оригинальная дорожка"],"seasons_count":1,"episodes_count":4,"episodes":4,"update":"2018-12-28 02:17:36","iframe_src":"//24213.svetacdn.in/IAF0wWTdNYZm/tv-series/3635"},{"id":3619,"title":"Буду рада, если ты умрёшь","kp_id":"1187964","imdb_id":"tt9143894","world_art_id":null,"type":"serial","add":"2018-12-04 20:50:05","orig_title":"Jookeodo Joa","year":"2018-11-07","translations":["Любительский (двухголосый закадровый) (SoftBox)"],"seasons_count":1,"episodes_count":16,"episodes":16,"update":"2018-12-30 15:18:55","iframe_src":"//24213.svetacdn.in/IAF0wWTdNYZm/tv-series/3619"},{"id":3559,"title":"Чужое гнездо","kp_id":"917503","imdb_id":"tt4826772","world_art_id":null,"type":"serial","add":"2018-11-23 14:08:27","orig_title":"Chuzhoe gnezdo","year":"2015-07-06","translations":["Оригинальная дорожка"],"seasons_count":1,"episodes_count":60,"episodes":60,"update":"2018-12-31 00:48:10","iframe_src":"//24213.svetacdn.in/IAF0wWTdNYZm/tv-series/3559"},{"id":3270,"title":"Бар «На грудь»","kp_id":"1182694","imdb_id":null,"world_art_id":null,"type":"serial","add":"2018-10-09 01:10:14","orig_title":"Бар «На грудь»","year":"2018-10-04","translations":["Оригинальная дорожка"],"seasons_count":1,"episodes_count":8,"episodes":8,"update":"2018-12-28 19:48:37","iframe_src":"//24213.svetacdn.in/IAF0wWTdNYZm/tv-series/3270"},{"id":16964,"title":"Рожденный вором","kp_id":"5347","imdb_id":"tt0101020","world_art_id":null,"type":"movie","add":"2018-05-30 10:24:53","orig_title":"Zong heng si hai","year":"1991-02-02","translations":["Профессиональный (многоголосый закадровый)","Авторский (одноголосый закадровый) (Визгунов Сергей)","Профессиональный (многоголосый закадровый)"],"quality":"bd","translation":"Профессиональный (многоголосый закадровый)","update":"2021-09-14 06:50:09","iframe_src":"//24213.svetacdn.in/IAF0wWTdNYZm/movie/16964"},{"id":12323,"title":"Сделано в Америке","kp_id":"6556","imdb_id":"tt0107478","world_art_id":null,"type":"movie","add":"2017-07-05 11:55:17","orig_title":"Made in America","year":"1993-05-28","translations":["Профессиональный (многоголосый закадровый)","[EN] Original (English)","Авторский (одноголосый закадровый) (Горчаков Василий)","Любительский (одноголосый закадровый)","Профессиональный (двухголосый закадровый) (НТВ)","Профессиональный (двухголосый закадровый) (Lazer Video | Лазер видео)","Профессиональный (двухголосый закадровый) (ТНТ)","Профессиональный (многоголосый закадровый) (Гемини)"],"quality":"bd","translation":"Профессиональный (многоголосый закадровый)","update":"2021-09-14 07:44:04","iframe_src":"//24213.svetacdn.in/IAF0wWTdNYZm/movie/12323"},{"id":6738,"title":"Черепашки-ниндзя 2: Тайна изумрудного зелья","kp_id":"32838","imdb_id":"tt0103060","world_art_id":null,"type":"movie","add":"2016-10-27 05:48:15","orig_title":"Teenage Mutant Ninja Turtles II: The Secret of the Ooze","year":"1991-03-22","translations":["Профессиональный (многоголосый закадровый)","Авторский (одноголосый закадровый) (Дохалов Вартан)","Любительский (одноголосый закадровый) (Ошурков Максим)","Авторский (одноголосый закадровый) (Прямостанов Павел)","Авторский (одноголосый закадровый) (Живов Юрий)","[EN] Original (English)","Профессиональный (многоголосый закадровый) (20th Century Fox)","Профессиональный (многоголосый закадровый) (РенТВ)","Авторский (одноголосый закадровый) (Чадов Михаил)","Авторский (одноголосый закадровый) (Дольский Андрей)","Профессиональный (двухголосый закадровый)"],"quality":"bd","translation":"Профессиональный (многоголосый закадровый)","update":"2021-09-14 07:52:18","iframe_src":"//24213.svetacdn.in/IAF0wWTdNYZm/movie/6738"},{"id":3493,"title":"Из Африки","kp_id":"1895","imdb_id":"tt0089755","world_art_id":null,"type":"movie","add":"2016-06-29 08:26:48","orig_title":"Out of Africa","year":"1985-12-10","translations":["Профессиональный (многоголосый закадровый)","Авторский (одноголосый закадровый) (Живов Юрий)","[EN] Original (English)","Профессиональный (многоголосый закадровый)"],"quality":"bd","translation":"Профессиональный (многоголосый закадровый)","update":"2021-09-14 07:10:45","iframe_src":"//24213.svetacdn.in/IAF0wWTdNYZm/movie/3493"},{"id":3441,"title":"К-19","kp_id":"722","imdb_id":"tt0267626","world_art_id":null,"type":"movie","add":"2016-06-28 15:10:11","orig_title":"K-19: The Widowmaker","year":"2002-07-19","translations":["Полное дублирование","Авторский (одноголосый закадровый) (Рудой Евгений)","Авторский (одноголосый закадровый) (Живов Юрий)","Полное дублирование","[EN] Original (English)"],"quality":"bd","translation":"Полное дублирование","update":"2021-09-14 07:18:23","iframe_src":"//24213.svetacdn.in/IAF0wWTdNYZm/movie/3441"},{"id":3243,"title":"Осень в Нью-Йорке","kp_id":"16953","imdb_id":"tt0174480","world_art_id":null,"type":"movie","add":"2016-06-17 10:13:52","orig_title":"Autumn in New York","year":"2000-08-11","translations":["Полное дублирование","Авторский (одноголосый закадровый) (Сербин Юрий)","Полное дублирование","[EN] Original (English)"],"quality":"bd","translation":"Полное дублирование","update":"2021-09-14 06:57:50","iframe_src":"//24213.svetacdn.in/IAF0wWTdNYZm/movie/3243"},{"id":2828,"title":"Большие глаза","kp_id":"573869","imdb_id":"tt1126590","world_art_id":null,"type":"movie","add":"2016-06-02 09:30:45","orig_title":"Big Eyes","year":"2014-11-13","translations":["Полное дублирование","Авторский (одноголосый закадровый) (Немахов Юрий)","Полное дублирование","[EN] Original (English)"],"quality":"bd","translation":"Полное дублирование","update":"2021-09-14 07:23:27","iframe_src":"//24213.svetacdn.in/IAF0wWTdNYZm/movie/2828"}],"current_page":503,"first_page_url":"https://videocdn.tv/api/short?limit=100&api_token=6Onb1W1alEUrBcKJZD3GoKBbWyAl2uG2&cache3503=3503&page=1","from":50201,"last_page":725,"last_page_url":"https://videocdn.tv/api/short?limit=100&api_token=6Onb1W1alEUrBcKJZD3GoKBbWyAl2uG2&cache3503=3503&page=725","next_page_url":"https://videocdn.tv/api/short?limit=100&api_token=6Onb1W1alEUrBcKJZD3GoKBbWyAl2uG2&cache3503=3503&page=504","path":"https://videocdn.tv/api/short","per_page":100,"prev_page_url":"https://videocdn.tv/api/short?limit=100&api_token=6Onb1W1alEUrBcKJZD3GoKBbWyAl2uG2&cache3503=3503&page=502","to":50240,"total":72491}