{"result":true,"data":[{"id":20560,"title":"Черные розы","kp_id":"11042","imdb_id":"tt0094752","world_art_id":null,"type":"movie","add":"2018-12-08 23:06:27","orig_title":"Black Roses","year":"1988-11-01","translations":["Авторский (одноголосый закадровый) (Дольский Андрей)"],"quality":"bd","translation":"Авторский (одноголосый закадровый) (Дольский Андрей)","update":"2018-12-10 09:55:46","iframe_src":"//7043.svetacdn.in/IAF0wWTdNYZm/movie/20560"},{"id":20559,"title":"За дверью","kp_id":"156988","imdb_id":"tt0071212","world_art_id":null,"type":"movie","add":"2018-12-08 23:04:59","orig_title":"Chi sei?","year":"1974-11-21","translations":["Авторский (одноголосый закадровый) (Кузнецов Сергей)"],"quality":"bd","translation":"Авторский (одноголосый закадровый) (Кузнецов Сергей)","update":"2018-12-10 09:56:56","iframe_src":"//7043.svetacdn.in/IAF0wWTdNYZm/movie/20559"},{"id":20557,"title":"Вместо того, чтобы петь песни о любви, подари её мне","kp_id":"668181","imdb_id":"tt2123136","world_art_id":null,"type":"movie","add":"2018-12-08 23:01:55","orig_title":"Ai wo utau yori ore ni oborero!","year":"2012-08-25","translations":["Любительский (многоголосый закадровый)"],"quality":"dvdrip","translation":"Любительский (многоголосый закадровый)","update":"2018-12-10 09:59:14","iframe_src":"//7043.svetacdn.in/IAF0wWTdNYZm/movie/20557"},{"id":8223,"title":"Кровавая закусочная","kp_id":"60245","imdb_id":"tt0092669","world_art_id":null,"type":"movie","add":"2016-12-21 09:32:51","orig_title":"Blood Diner","year":"1987-07-10","translations":["Авторский (одноголосый закадровый) (Карцев Пётр)"],"quality":"bd","translation":"Авторский (одноголосый закадровый) (Карцев Пётр)","update":"2018-12-10 09:54:50","iframe_src":"//7043.svetacdn.in/IAF0wWTdNYZm/movie/8223"},{"id":550,"title":"Я, Алекс Кросс","kp_id":"566232","imdb_id":"tt1712170","world_art_id":null,"type":"movie","add":"2016-04-04 20:40:48","orig_title":"Alex Cross","year":"2012-10-15","translations":["Полное дублирование","Original (English)"],"quality":"bd","translation":"Полное дублирование","update":"2018-12-10 13:38:17","iframe_src":"//7043.svetacdn.in/IAF0wWTdNYZm/movie/550"},{"id":537,"title":"Морпехи","kp_id":"81728","imdb_id":"tt0418763","world_art_id":null,"type":"movie","add":"2016-04-04 19:40:42","orig_title":"Jarhead","year":"2005-11-04","translations":["Полное дублирование","Original (English)"],"quality":"bd","translation":"Полное дублирование","update":"2018-12-10 13:39:29","iframe_src":"//7043.svetacdn.in/IAF0wWTdNYZm/movie/537"},{"id":521,"title":"Динозавр","kp_id":"652","imdb_id":"tt0130623","world_art_id":null,"type":"movie","add":"2016-04-04 11:41:56","orig_title":"Dinosaur","year":"2000-05-13","translations":["Полное дублирование","Original (English)"],"quality":"bd","translation":"Полное дублирование","update":"2018-12-10 13:31:11","iframe_src":"//7043.svetacdn.in/IAF0wWTdNYZm/movie/521"},{"id":512,"title":"Робин Гуд","kp_id":"17579","imdb_id":"tt0070608","world_art_id":null,"type":"movie","add":"2016-04-04 11:32:42","orig_title":"Robin Hood","year":"1973-11-08","translations":["Полное дублирование","Original (English)"],"quality":"hdtv","translation":"Полное дублирование","update":"2018-12-10 13:46:43","iframe_src":"//7043.svetacdn.in/IAF0wWTdNYZm/movie/512"},{"id":510,"title":"LEGO Бэтмен: Супер-герои DC объединяются","kp_id":"723005","imdb_id":"tt2465238","world_art_id":null,"type":"movie","add":"2016-04-04 11:29:17","orig_title":"LEGO Batman: The Movie - DC Super Heroes Unite","year":"2013-05-21","translations":["Полное дублирование","Original (English)"],"quality":"bd","translation":"Полное дублирование","update":"2018-12-10 13:40:20","iframe_src":"//7043.svetacdn.in/IAF0wWTdNYZm/movie/510"},{"id":502,"title":"Делай ноги 2","kp_id":"464851","imdb_id":"tt1402488","world_art_id":null,"type":"movie","add":"2016-04-04 11:21:51","orig_title":"Happy Feet Two","year":"2011-11-17","translations":["Полное дублирование","Original (English)"],"quality":"bd","translation":"Полное дублирование","update":"2018-12-10 13:35:27","iframe_src":"//7043.svetacdn.in/IAF0wWTdNYZm/movie/502"},{"id":492,"title":"Рио 2","kp_id":"677437","imdb_id":"tt2357291","world_art_id":null,"type":"movie","add":"2016-04-03 20:04:22","orig_title":"Rio 2","year":"2014-03-20","translations":["Полное дублирование","Original (English)"],"quality":"bd","translation":"Полное дублирование","update":"2018-12-10 13:44:49","iframe_src":"//7043.svetacdn.in/IAF0wWTdNYZm/movie/492"},{"id":491,"title":"Рио","kp_id":"465674","imdb_id":"tt1436562","world_art_id":null,"type":"movie","add":"2016-04-03 20:03:01","orig_title":"Rio","year":"2011-03-22","translations":["Полное дублирование","Original (English)"],"quality":"bd","translation":"Полное дублирование","update":"2018-12-10 13:45:53","iframe_src":"//7043.svetacdn.in/IAF0wWTdNYZm/movie/491"},{"id":489,"title":"Тайна красной планеты","kp_id":"441432","imdb_id":"tt1305591","world_art_id":null,"type":"movie","add":"2016-04-03 09:40:34","orig_title":"Mars Needs Moms","year":"2011-03-09","translations":["Полное дублирование","Original (English)"],"quality":"bd","translation":"Полное дублирование","update":"2018-12-10 13:41:17","iframe_src":"//7043.svetacdn.in/IAF0wWTdNYZm/movie/489"},{"id":488,"title":"Правдивая история Красной Шапки","kp_id":"88737","imdb_id":"tt0443536","world_art_id":null,"type":"movie","add":"2016-04-03 09:33:50","orig_title":"Hoodwinked!","year":"2005-12-16","translations":["Полное дублирование","Original (English)"],"quality":"bd","translation":"Полное дублирование","update":"2018-12-10 13:36:35","iframe_src":"//7043.svetacdn.in/IAF0wWTdNYZm/movie/488"},{"id":482,"title":"Самолеты: Огонь и вода","kp_id":"769220","imdb_id":"tt2980706","world_art_id":null,"type":"movie","add":"2016-04-03 09:13:36","orig_title":"Planes: Fire & Rescue","year":"2014-07-15","translations":["Полное дублирование","Original (English)"],"quality":"bd","translation":"Полное дублирование","update":"2018-12-10 13:43:02","iframe_src":"//7043.svetacdn.in/IAF0wWTdNYZm/movie/482"},{"id":469,"title":"Бунт ушастых","kp_id":"454962","imdb_id":"tt1411704","world_art_id":null,"type":"movie","add":"2016-04-02 22:09:04","orig_title":"Hop","year":"2011-03-30","translations":["Полное дублирование","Original (English)"],"quality":"bd","translation":"Полное дублирование","update":"2018-12-10 13:37:31","iframe_src":"//7043.svetacdn.in/IAF0wWTdNYZm/movie/469"},{"id":464,"title":"Паранорман, или Как приручить зомби","kp_id":"535390","imdb_id":"tt1623288","world_art_id":null,"type":"movie","add":"2016-04-02 21:44:24","orig_title":"ParaNorman","year":"2012-08-03","translations":["Полное дублирование","Original (English)"],"quality":"bd","translation":"Полное дублирование","update":"2018-12-10 13:42:07","iframe_src":"//7043.svetacdn.in/IAF0wWTdNYZm/movie/464"},{"id":415,"title":"Элитное общество","kp_id":"654875","imdb_id":"tt2132285","world_art_id":null,"type":"movie","add":"2016-04-01 16:16:53","orig_title":"The Bling Ring","year":"2013-05-16","translations":["Полное дублирование","Original (English)"],"quality":"bd","translation":"Полное дублирование","update":"2018-12-10 13:32:35","iframe_src":"//7043.svetacdn.in/IAF0wWTdNYZm/movie/415"},{"id":400,"title":"Эван Всемогущий","kp_id":"103791","imdb_id":"tt0413099","world_art_id":null,"type":"movie","add":"2016-04-01 14:58:09","orig_title":"Evan Almighty","year":"2007-06-21","translations":["Полное дублирование","Original (English)"],"quality":"bd","translation":"Полное дублирование","update":"2018-12-10 13:33:31","iframe_src":"//7043.svetacdn.in/IAF0wWTdNYZm/movie/400"},{"id":377,"title":"Город монстров","kp_id":"874467","imdb_id":"tt4163020","world_art_id":null,"type":"movie","add":"2016-03-31 12:02:40","orig_title":"Tales of Halloween","year":"2015-07-24","translations":["Полное дублирование (iTunes)","Original (English)"],"quality":"bd","translation":"Полное дублирование (iTunes)","update":"2018-12-10 13:34:25","iframe_src":"//7043.svetacdn.in/IAF0wWTdNYZm/movie/377"}],"current_page":1634,"first_page_url":"https://videocdn.tv/api/short?limit=100&api_token=6Onb1W1alEUrBcKJZD3GoKBbWyAl2uG2&cache31634=31634&page=1","from":163301,"last_page":617,"last_page_url":"https://videocdn.tv/api/short?limit=100&api_token=6Onb1W1alEUrBcKJZD3GoKBbWyAl2uG2&cache31634=31634&page=617","next_page_url":null,"path":"https://videocdn.tv/api/short","per_page":100,"prev_page_url":"https://videocdn.tv/api/short?limit=100&api_token=6Onb1W1alEUrBcKJZD3GoKBbWyAl2uG2&cache31634=31634&page=1633","to":163320,"total":61603}