{"result":true,"data":[{"id":52953,"title":"Бескомпромиссная любовь","kp_id":"636116","imdb_id":"tt1872188","world_art_id":null,"type":"movie","add":"2021-09-08 07:56:54","orig_title":"The First Time - Bedingungslose Liebe","year":"2011-07-15","translations":["Любительский (одноголосый закадровый) (Кошкин Василий)"],"quality":"dvdrip","translation":"Любительский (одноголосый закадровый) (Кошкин Василий)","update":"2021-09-08 09:34:20","iframe_src":"//8944266444.svetacdn.in/PfJ50H0ZBPg3/movie/52953"},{"id":52950,"title":"Тестостерон","kp_id":"47379","imdb_id":"tt0378867","world_art_id":null,"type":"movie","add":"2021-09-08 07:42:21","orig_title":"Testosterone","year":"2003-09-11","translations":["Любительский (одноголосый закадровый)"],"quality":"dvdrip","translation":"Любительский (одноголосый закадровый)","update":"2021-09-08 08:45:42","iframe_src":"//8944266444.svetacdn.in/PfJ50H0ZBPg3/movie/52950"},{"id":52949,"title":"Рождество в собачьем парке","kp_id":"853450","imdb_id":"tt3991066","world_art_id":null,"type":"movie","add":"2021-09-08 07:34:19","orig_title":"A Dogwalker's Christmas Tale","year":"2015-11-10","translations":["Любительский (двухголосый закадровый) (RusFilm)"],"quality":"webdl","translation":"Любительский (двухголосый закадровый) (RusFilm)","update":"2021-09-08 08:44:27","iframe_src":"//8944266444.svetacdn.in/PfJ50H0ZBPg3/movie/52949"},{"id":52946,"title":"Честное слово","kp_id":"508458","imdb_id":"tt0173213","world_art_id":null,"type":"movie","add":"2021-09-08 05:53:43","orig_title":"Slowo honoru","year":"1953-01-01","translations":["Авторский (одноголосый закадровый) (Яковлев Алексей)"],"quality":"webdl","translation":"Авторский (одноголосый закадровый) (Яковлев Алексей)","update":"2021-09-08 06:58:32","iframe_src":"//8944266444.svetacdn.in/PfJ50H0ZBPg3/movie/52946"},{"id":52940,"title":"Завтрак на траве","kp_id":"146387","imdb_id":"tt0052765","world_art_id":null,"type":"movie","add":"2021-09-07 22:10:24","orig_title":"Le déjeuner sur l'herbe","year":"1959-11-11","translations":["Любительский (одноголосый закадровый)"],"quality":"bd","translation":"Любительский (одноголосый закадровый)","update":"2021-09-08 07:02:57","iframe_src":"//8944266444.svetacdn.in/PfJ50H0ZBPg3/movie/52940"},{"id":52937,"title":"Алексия","kp_id":"1103223","imdb_id":"tt7658868","world_art_id":null,"type":"movie","add":"2021-09-07 17:06:49","orig_title":"Aleksi","year":"2018-07-14","translations":["Любительский (многоголосый закадровый) (Синема УС)"],"quality":"webdl","translation":"Любительский (многоголосый закадровый) (Синема УС)","update":"2021-09-08 09:06:08","iframe_src":"//8944266444.svetacdn.in/PfJ50H0ZBPg3/movie/52937"},{"id":52936,"title":"Разговоры","kp_id":"1255802","imdb_id":"tt10106082","world_art_id":null,"type":"movie","add":"2021-09-07 17:04:58","orig_title":"Conversaciones","year":"2020-11-26","translations":["Любительский (многоголосый закадровый) (Синема УС)"],"quality":"webdl","translation":"Любительский (многоголосый закадровый) (Синема УС)","update":"2021-09-08 09:09:41","iframe_src":"//8944266444.svetacdn.in/PfJ50H0ZBPg3/movie/52936"},{"id":52935,"title":"Некропат","kp_id":"1168478","imdb_id":"tt8389598","world_art_id":null,"type":"movie","add":"2021-09-07 17:03:10","orig_title":"Necropath","year":"2018-09-28","translations":["Любительский (многоголосый закадровый) (Синема УС)"],"quality":"webdl","translation":"Любительский (многоголосый закадровый) (Синема УС)","update":"2021-09-08 09:11:00","iframe_src":"//8944266444.svetacdn.in/PfJ50H0ZBPg3/movie/52935"},{"id":52934,"title":"Изобретатель","kp_id":"1339757","imdb_id":"tt11614472","world_art_id":null,"type":"movie","add":"2021-09-07 17:01:33","orig_title":"A feltaláló","year":"2020-02-06","translations":["Любительский (многоголосый закадровый) (Синема УС)"],"quality":"webdl","translation":"Любительский (многоголосый закадровый) (Синема УС)","update":"2021-09-08 09:04:27","iframe_src":"//8944266444.svetacdn.in/PfJ50H0ZBPg3/movie/52934"},{"id":52927,"title":"Тигры: Охота на браконьеров","kp_id":"4417953","imdb_id":null,"world_art_id":null,"type":"movie","add":"2021-09-07 10:53:03","orig_title":"Tigers: Hunting the Traffickers","year":"2020-03-04","translations":["Профессиональный (многоголосый закадровый) (SDI Media | Iyuno-SDI Group Russia)"],"quality":"webdl","translation":"Профессиональный (многоголосый закадровый) (SDI Media | Iyuno-SDI Group Russia)","update":"2021-09-08 08:48:21","iframe_src":"//8944266444.svetacdn.in/PfJ50H0ZBPg3/movie/52927"},{"id":52911,"title":"Версия Браунинга","kp_id":"2611","imdb_id":"tt0109340","world_art_id":null,"type":"movie","add":"2021-09-07 05:33:27","orig_title":"The Browning Version","year":"1994-06-08","translations":["[EN] Original (English)","Профессиональный (многоголосый закадровый)","Профессиональный (многоголосый закадровый) (Кириллица)"],"quality":"bd","translation":"[EN] Original (English)","update":"2021-09-08 06:40:51","iframe_src":"//8944266444.svetacdn.in/PfJ50H0ZBPg3/movie/52911"},{"id":52901,"title":"Гремящий гром","kp_id":"11908","imdb_id":"tt0076637","world_art_id":null,"type":"movie","add":"2021-09-06 15:40:08","orig_title":"Rolling Thunder","year":"1977-10-14","translations":["[EN] Original (English)","Профессиональный (двухголосый закадровый) (НТВ)"],"quality":"bd","translation":"[EN] Original (English)","update":"2021-09-08 06:51:51","iframe_src":"//8944266444.svetacdn.in/PfJ50H0ZBPg3/movie/52901"},{"id":52898,"title":"Красный Пион: Печально известный игрок","kp_id":"379603","imdb_id":"tt0064428","world_art_id":null,"type":"movie","add":"2021-09-06 15:31:15","orig_title":"Hibotan bakuto: Tekkaba retsuden","year":"1969-10-01","translations":["Авторский (одноголосый закадровый) (Кузнецов Сергей)"],"quality":"webdl","translation":"Авторский (одноголосый закадровый) (Кузнецов Сергей)","update":"2021-09-08 07:03:48","iframe_src":"//8944266444.svetacdn.in/PfJ50H0ZBPg3/movie/52898"},{"id":30441,"title":"Аниара","kp_id":"1107692","imdb_id":"tt7589524","world_art_id":null,"type":"movie","add":"2019-08-31 23:51:09","orig_title":"Aniara","year":"2018-09-07","translations":["Любительский (многоголосый закадровый) (Синема УС)","Полное дублирование (IVI)"],"quality":"webdl","translation":"Любительский (многоголосый закадровый) (Синема УС)","update":"2021-09-08 08:18:21","iframe_src":"//8944266444.svetacdn.in/PfJ50H0ZBPg3/movie/30441"},{"id":3650,"title":"Цветы дождя","kp_id":"1111795","imdb_id":null,"world_art_id":null,"type":"serial","add":"2018-12-09 15:52:00","orig_title":"Цветы дождя","year":"2018-05-06","translations":["Оригинальная дорожка"],"seasons_count":1,"episodes_count":8,"episodes":8,"update":"2018-12-09 18:15:23","iframe_src":"//8944266444.svetacdn.in/PfJ50H0ZBPg3/tv-series/3650"},{"id":3648,"title":"Вторая жизнь Евы","kp_id":"1049759","imdb_id":null,"world_art_id":null,"type":"serial","add":"2018-12-09 14:43:47","orig_title":"Vtoraya zhizn Evy","year":"2018-06-17","translations":["Оригинальная дорожка"],"seasons_count":1,"episodes_count":8,"episodes":8,"update":"2018-12-09 18:49:11","iframe_src":"//8944266444.svetacdn.in/PfJ50H0ZBPg3/tv-series/3648"},{"id":3645,"title":"Граница: Таежный роман","kp_id":"84793","imdb_id":"tt0306326","world_art_id":null,"type":"serial","add":"2018-12-09 13:43:56","orig_title":"Granitsa. Tayozhnyy roman","year":"2000-12-13","translations":["Оригинальная дорожка"],"seasons_count":1,"episodes_count":8,"episodes":8,"update":"2018-12-09 14:23:16","iframe_src":"//8944266444.svetacdn.in/PfJ50H0ZBPg3/tv-series/3645"},{"id":3644,"title":"Бумажный самолетик","kp_id":"1138853","imdb_id":null,"world_art_id":null,"type":"serial","add":"2018-12-09 13:29:47","orig_title":"Бумажный самолетик","year":"2018-05-13","translations":["Оригинальная дорожка"],"seasons_count":1,"episodes_count":4,"episodes":4,"update":"2018-12-09 15:17:07","iframe_src":"//8944266444.svetacdn.in/PfJ50H0ZBPg3/tv-series/3644"},{"id":3641,"title":"Патриотический акт с Хасаном Минхаджем","kp_id":null,"imdb_id":"tt8080054","world_art_id":null,"type":"serial","add":"2018-12-07 12:06:58","orig_title":"Patriot Act with Hasan Minhaj","year":"2018-10-28","translations":["Любительский (двухголосый закадровый) (KosharaSerials)"],"seasons_count":1,"episodes_count":7,"episodes":7,"update":"2018-12-10 08:31:38","iframe_src":"//8944266444.svetacdn.in/PfJ50H0ZBPg3/tv-series/3641"},{"id":3640,"title":"Капитан Немо","kp_id":"95481","imdb_id":"tt0453375","world_art_id":null,"type":"serial","add":"2018-12-07 09:01:04","orig_title":"Kapitan Nemo","year":"1975-01-25","translations":["Оригинальная дорожка"],"seasons_count":1,"episodes_count":3,"episodes":3,"update":"2018-12-10 10:12:01","iframe_src":"//8944266444.svetacdn.in/PfJ50H0ZBPg3/tv-series/3640"},{"id":3636,"title":"Лютый","kp_id":"811371","imdb_id":"tt3739204","world_art_id":null,"type":"serial","add":"2018-12-06 23:46:00","orig_title":"Лютый","year":"2013-11-28","translations":["Оригинальная дорожка"],"seasons_count":1,"episodes_count":8,"episodes":8,"update":"2018-12-07 23:08:14","iframe_src":"//8944266444.svetacdn.in/PfJ50H0ZBPg3/tv-series/3636"},{"id":3634,"title":"Качели","kp_id":"1049310","imdb_id":null,"world_art_id":null,"type":"serial","add":"2018-12-06 18:10:36","orig_title":"Качели","year":"2016-01-01","translations":["Оригинальная дорожка"],"seasons_count":1,"episodes_count":8,"episodes":8,"update":"2018-12-07 06:41:18","iframe_src":"//8944266444.svetacdn.in/PfJ50H0ZBPg3/tv-series/3634"},{"id":3631,"title":"Гимн смерти","kp_id":"1113026","imdb_id":"tt8160064","world_art_id":null,"type":"serial","add":"2018-12-06 08:45:32","orig_title":"Saui chanmi","year":"2018-11-27","translations":["Любительский (двухголосый закадровый) (SoftBox)"],"seasons_count":1,"episodes_count":1,"episodes":1,"update":"2018-12-07 10:40:35","iframe_src":"//8944266444.svetacdn.in/PfJ50H0ZBPg3/tv-series/3631"},{"id":3629,"title":"Ангелы и бриллианты","kp_id":"703071","imdb_id":"tt1809436","world_art_id":null,"type":"serial","add":"2018-12-06 08:23:50","orig_title":"Angeli & diamanti","year":"2011-07-07","translations":["Профессиональный (многоголосый закадровый)"],"seasons_count":1,"episodes_count":3,"episodes":3,"update":"2018-12-07 10:37:36","iframe_src":"//8944266444.svetacdn.in/PfJ50H0ZBPg3/tv-series/3629"},{"id":3628,"title":"Железная леди. Когда кончается шоу","kp_id":"1001689","imdb_id":"tt5882020","world_art_id":null,"type":"serial","add":"2018-12-06 08:15:08","orig_title":"Yeongeuki Kkeutnago Nan Dwi","year":"2016-07-02","translations":["Любительский (двухголосый закадровый) (SoftBox)"],"seasons_count":1,"episodes_count":8,"episodes":8,"update":"2018-12-07 10:29:44","iframe_src":"//8944266444.svetacdn.in/PfJ50H0ZBPg3/tv-series/3628"},{"id":3626,"title":"Только бок о бок с тобой","kp_id":"1117583","imdb_id":"tt8234128","world_art_id":null,"type":"serial","add":"2018-12-06 01:06:56","orig_title":"Nan fang you qiao mu","year":"2018-03-25","translations":["Любительский (двухголосый закадровый) (Victory-Films)"],"seasons_count":1,"episodes_count":40,"episodes":40,"update":"2018-12-06 13:20:18","iframe_src":"//8944266444.svetacdn.in/PfJ50H0ZBPg3/tv-series/3626"},{"id":3625,"title":"Клирики","kp_id":"837722","imdb_id":"tt2303170","world_art_id":null,"type":"serial","add":"2018-12-05 15:52:21","orig_title":"Ainsi soient-ils","year":"2012-10-11","translations":["Профессиональный (двухголосый закадровый) (ViruseProject)"],"seasons_count":1,"episodes_count":8,"episodes":8,"update":"2018-12-06 11:55:55","iframe_src":"//8944266444.svetacdn.in/PfJ50H0ZBPg3/tv-series/3625"},{"id":20334,"title":"Крутые ребята не танцуют","kp_id":"5023","imdb_id":"tt0094169","world_art_id":null,"type":"movie","add":"2018-11-28 07:57:10","orig_title":"Tough Guys Don't Dance","year":"1987-05-16","translations":["Профессиональный (двухголосый закадровый) (НТВ)","[EN] Original (English)","Авторский (одноголосый закадровый) (Михалёв Алексей)"],"quality":"hdtv","translation":"Профессиональный (двухголосый закадровый) (НТВ)","update":"2021-09-08 06:42:54","iframe_src":"//8944266444.svetacdn.in/PfJ50H0ZBPg3/movie/20334"},{"id":3572,"title":"Американский дракон: Джейк Лонг","kp_id":"542267","imdb_id":"tt0429305","world_art_id":null,"type":"serial","add":"2018-11-27 07:24:48","orig_title":"American Dragon: Jake Long","year":"2005-01-21","translations":["Полное дублирование"],"seasons_count":2,"episodes_count":52,"episodes":31,"update":"2018-12-10 13:09:18","iframe_src":"//8944266444.svetacdn.in/PfJ50H0ZBPg3/tv-series/3572"},{"id":3539,"title":"Жёлтый глаз тигра","kp_id":"1045972","imdb_id":null,"world_art_id":null,"type":"serial","add":"2018-11-19 23:09:45","orig_title":"Жёлтый глаз тигра","year":"2018-11-19","translations":["Оригинальная дорожка"],"seasons_count":1,"episodes_count":16,"episodes":16,"update":"2018-12-07 00:54:44","iframe_src":"//8944266444.svetacdn.in/PfJ50H0ZBPg3/tv-series/3539"},{"id":3310,"title":"Сто миллионов звёзд с неба","kp_id":"1112103","imdb_id":"tt8696768","world_art_id":null,"type":"serial","add":"2018-10-15 07:42:11","orig_title":"Haneuleseo naerineun 1eok gaeui byeol","year":"2018-10-03","translations":["Любительский (двухголосый закадровый) (KinoGolos)","Любительский (двухголосый закадровый) (SoftBox)","Любительский (двухголосый закадровый) (JoyStudio)"],"seasons_count":1,"episodes_count":16,"episodes":16,"update":"2018-12-07 11:47:13","iframe_src":"//8944266444.svetacdn.in/PfJ50H0ZBPg3/tv-series/3310"},{"id":3029,"title":"Норскоу","kp_id":"891799","imdb_id":"tt4141516","world_art_id":null,"type":"serial","add":"2018-08-15 07:16:30","orig_title":"Norskov","year":"2015-09-21","translations":["Любительский (многоголосый закадровый) (GreenРай Studio)","Профессиональный (двухголосый закадровый) (ViruseProject)","Любительский (двухголосый закадровый) (Sunshine Studio)"],"seasons_count":2,"episodes_count":16,"episodes":6,"update":"2018-12-07 11:43:33","iframe_src":"//8944266444.svetacdn.in/PfJ50H0ZBPg3/tv-series/3029"},{"id":2057,"title":"Пэйнсы","kp_id":"1112440","imdb_id":"tt6482686","world_art_id":null,"type":"serial","add":"2018-02-11 13:55:58","orig_title":"The Paynes","year":"2018-01-16","translations":["Любительский (двухголосый закадровый) (ColdFilm)","Любительский (двухголосый закадровый) (KinoGolos)","Любительский (многоголосый закадровый) (ColdFilm)","Любительский (двухголосый закадровый) (GoldTeam)"],"seasons_count":1,"episodes_count":38,"episodes":38,"update":"2018-12-06 23:21:48","iframe_src":"//8944266444.svetacdn.in/PfJ50H0ZBPg3/tv-series/2057"},{"id":967,"title":"Хорошая жена","kp_id":"470344","imdb_id":"tt1442462","world_art_id":null,"type":"serial","add":"2017-02-02 05:46:23","orig_title":"The Good Wife","year":"2009-09-22","translations":["Профессиональный (многоголосый)","Профессиональный (многоголосый закадровый) (Universal Russia)","Профессиональный (многоголосый закадровый) (NewStudio)"],"seasons_count":7,"episodes_count":156,"episodes":22,"update":"2018-12-07 12:20:11","iframe_src":"//8944266444.svetacdn.in/PfJ50H0ZBPg3/tv-series/967"},{"id":7412,"title":"Прибытие","kp_id":"718811","imdb_id":"tt2543164","world_art_id":null,"type":"movie","add":"2016-11-14 05:51:33","orig_title":"Arrival","year":"2016-09-01","translations":["Полное дублирование","Авторский (одноголосый закадровый) (Дасевич Александр)","Авторский (одноголосый закадровый) (Есарев Дмитрий)","Авторский (одноголосый закадровый) (Гаврилов Андрей)","Авторский (одноголосый закадровый) (Матвеев Алексей | Doctor Joker)","Авторский (одноголосый закадровый) (Назаров Вадим)","Авторский (одноголосый закадровый) (Сербин Юрий)","Авторский (одноголосый закадровый) (Визгунов Сергей)","Полное дублирование","[EN] Original (English)","Профессиональный (многоголосый закадровый) (Paradox & Omskbird records)"],"quality":"bd","translation":"Полное дублирование","update":"2021-09-08 08:14:44","iframe_src":"//8944266444.svetacdn.in/PfJ50H0ZBPg3/movie/7412"},{"id":7024,"title":"Урод в замке","kp_id":"58931","imdb_id":"tt0112643","world_art_id":null,"type":"movie","add":"2016-11-03 13:52:27","orig_title":"Castle Freak","year":"1995-11-14","translations":["Авторский (одноголосый закадровый) (Гаврилов Андрей)","[EN] Original (English)","Авторский (одноголосый закадровый) (Визгунов Сергей)","Авторский (одноголосый закадровый) (Гаврилов Андрей)"],"quality":"bd","translation":"Авторский (одноголосый закадровый) (Гаврилов Андрей)","update":"2021-09-08 06:56:03","iframe_src":"//8944266444.svetacdn.in/PfJ50H0ZBPg3/movie/7024"},{"id":561,"title":"Попадец","kp_id":"1006725","imdb_id":"tt6038226","world_art_id":null,"type":"serial","add":"2016-11-01 12:51:25","orig_title":"Zapped","year":"2016-10-13","translations":["Любительский (двухголосый закадровый) (Jimmy J.)"],"seasons_count":3,"episodes_count":15,"episodes":6,"update":"2018-12-06 11:42:20","iframe_src":"//8944266444.svetacdn.in/PfJ50H0ZBPg3/tv-series/561"},{"id":6801,"title":"Кэндимэн","kp_id":"15859","imdb_id":"tt0103919","world_art_id":null,"type":"movie","add":"2016-10-30 07:53:22","orig_title":"Candyman","year":"1992-09-11","translations":["Профессиональный (многоголосый закадровый)","Профессиональный (многоголосый закадровый) (Первый канал | ОРТ)"],"quality":"bd","translation":"Профессиональный (многоголосый закадровый)","update":"2021-09-08 08:43:09","iframe_src":"//8944266444.svetacdn.in/PfJ50H0ZBPg3/movie/6801"},{"id":5929,"title":"В осаде 2: Темная территория","kp_id":"4580","imdb_id":"tt0114781","world_art_id":null,"type":"movie","add":"2016-10-06 15:44:57","orig_title":"Under Siege 2: Dark Territory","year":"1995-07-14","translations":["Профессиональный (многоголосый закадровый)","Авторский (одноголосый закадровый) (Гаврилов Андрей)","Авторский (одноголосый закадровый) (Горчаков Василий)","Авторский (одноголосый закадровый) (Живов Юрий)","[EN] Original (English)","Профессиональный (двухголосый закадровый) (Первый канал | ОРТ)","Профессиональный (многоголосый закадровый)","Профессиональный (многоголосый закадровый) (НТВ)","Профессиональный (многоголосый закадровый) (РТР | Россия)","Профессиональный (многоголосый закадровый) (ТВЦ)"],"quality":"bd","translation":"Профессиональный (многоголосый закадровый)","update":"2021-09-08 07:51:57","iframe_src":"//8944266444.svetacdn.in/PfJ50H0ZBPg3/movie/5929"},{"id":985,"title":"Смерч","kp_id":"1722","imdb_id":"tt0117998","world_art_id":null,"type":"movie","add":"2016-04-12 12:58:12","orig_title":"Twister","year":"1996-05-10","translations":["Полное дублирование","Авторский (одноголосый закадровый) (Гаврилов Андрей)","Авторский (одноголосый закадровый) (Визгунов Сергей)","Авторский (одноголосый закадровый) (Живов Юрий)","Полное дублирование (iTunes)","[EN] Original (English)","Любительский (одноголосый закадровый)","Профессиональный (многоголосый закадровый) (СТС)","Профессиональный (многоголосый закадровый) (НТВ)","Профессиональный (многоголосый закадровый) (Первый канал | ОРТ)"],"quality":"bd","translation":"Полное дублирование","update":"2021-09-08 07:38:41","iframe_src":"//8944266444.svetacdn.in/PfJ50H0ZBPg3/movie/985"}],"current_page":507,"first_page_url":"https://videocdn.tv/api/short?limit=100&api_token=RgFQdUIR2dRmwv8iYa5SnFNgnw3vpjKj&cache3507=3507&page=1","from":50601,"last_page":725,"last_page_url":"https://videocdn.tv/api/short?limit=100&api_token=RgFQdUIR2dRmwv8iYa5SnFNgnw3vpjKj&cache3507=3507&page=725","next_page_url":"https://videocdn.tv/api/short?limit=100&api_token=RgFQdUIR2dRmwv8iYa5SnFNgnw3vpjKj&cache3507=3507&page=508","path":"https://videocdn.tv/api/short","per_page":100,"prev_page_url":"https://videocdn.tv/api/short?limit=100&api_token=RgFQdUIR2dRmwv8iYa5SnFNgnw3vpjKj&cache3507=3507&page=506","to":50640,"total":72409}