{"result":true,"data":[{"id":41017,"title":"Вера","kp_id":"96016","imdb_id":"tt0149345","world_art_id":null,"type":"movie","add":"2020-06-07 18:03:48","orig_title":"Waris","year":"1969-01-01","translations":["Любительский (многоголосый закадровый)"],"quality":"dvdrip","translation":"Любительский (многоголосый закадровый)","update":"2020-06-08 09:55:53","iframe_src":"//83.svetacdn.in/PfJ50H0ZBPg3/movie/41017"},{"id":41015,"title":"Салон красоты","kp_id":"214160","imdb_id":"tt0329796","world_art_id":null,"type":"movie","add":"2020-06-07 17:47:41","orig_title":"Zhenzhen de fa wu","year":"1986-01-01","translations":["Профессиональный (двухголосый закадровый)"],"quality":"vhs","translation":"Профессиональный (двухголосый закадровый)","update":"2020-06-08 09:56:27","iframe_src":"//83.svetacdn.in/PfJ50H0ZBPg3/movie/41015"},{"id":40987,"title":"Аннабеллум: Проклятье Салема","kp_id":"1276733","imdb_id":"tt10498810","world_art_id":null,"type":"movie","add":"2020-06-06 20:05:25","orig_title":"Annabellum: The Curse of Salem","year":"2019-08-12","translations":["Любительский (многоголосый закадровый) (@MUZOBOZ@)"],"quality":"webdl","translation":"Любительский (многоголосый закадровый) (@MUZOBOZ@)","update":"2020-06-07 05:35:20","iframe_src":"//83.svetacdn.in/PfJ50H0ZBPg3/movie/40987"},{"id":40986,"title":"#ЗамужЗаЛучшегоДруга","kp_id":"1129607","imdb_id":"tt8076266","world_art_id":null,"type":"movie","add":"2020-06-06 20:03:45","orig_title":"#TemanTapiMenikah","year":"2018-03-28","translations":["Любительский (многоголосый закадровый) (Синема УС)"],"quality":"webdl","translation":"Любительский (многоголосый закадровый) (Синема УС)","update":"2020-06-07 05:33:59","iframe_src":"//83.svetacdn.in/PfJ50H0ZBPg3/movie/40986"},{"id":40985,"title":"Оставшиеся","kp_id":"1200365","imdb_id":"tt9081558","world_art_id":null,"type":"movie","add":"2020-06-06 19:58:57","orig_title":"Akik maradtak","year":"2019-01-24","translations":["Любительский (многоголосый закадровый) (AlphaProject)"],"quality":"hdtv","translation":"Любительский (многоголосый закадровый) (AlphaProject)","update":"2020-06-07 05:31:42","iframe_src":"//83.svetacdn.in/PfJ50H0ZBPg3/movie/40985"},{"id":40984,"title":"Кисло-сладкая любовь","kp_id":"1348581","imdb_id":"tt11737756","world_art_id":null,"type":"movie","add":"2020-06-06 19:51:38","orig_title":"Golkeri","year":"2020-02-28","translations":["Любительский (многоголосый закадровый) (Синема УС)"],"quality":"webdl","translation":"Любительский (многоголосый закадровый) (Синема УС)","update":"2020-06-07 05:29:11","iframe_src":"//83.svetacdn.in/PfJ50H0ZBPg3/movie/40984"},{"id":40983,"title":"Смерть кувырком: Тайна Авроры Тигардэн","kp_id":"1019858","imdb_id":"tt6543048","world_art_id":null,"type":"movie","add":"2020-06-06 11:36:47","orig_title":"Dead Over Heels: An Aurora Teagarden Mystery","year":"2017-03-19","translations":["Профессиональный (многоголосый закадровый)"],"quality":"webdl","translation":"Профессиональный (многоголосый закадровый)","update":"2020-06-06 15:14:32","iframe_src":"//83.svetacdn.in/PfJ50H0ZBPg3/movie/40983"},{"id":40982,"title":"Молоток","kp_id":"1183923","imdb_id":"tt6853934","world_art_id":null,"type":"movie","add":"2020-06-06 11:33:46","orig_title":"Hammer","year":"2019-12-05","translations":["Любительский (многоголосый закадровый) (@MUZOBOZ@)"],"quality":"webdl","translation":"Любительский (многоголосый закадровый) (@MUZOBOZ@)","update":"2020-06-06 15:16:16","iframe_src":"//83.svetacdn.in/PfJ50H0ZBPg3/movie/40982"},{"id":40980,"title":"Ангелы не Плачут","kp_id":"1135798","imdb_id":"tt8177246","world_art_id":null,"type":"movie","add":"2020-06-06 11:28:30","orig_title":"Angels Never Cry","year":"2019-11-22","translations":["Любительский (многоголосый закадровый) (Синема УС)"],"quality":"webdl","translation":"Любительский (многоголосый закадровый) (Синема УС)","update":"2020-06-06 15:17:30","iframe_src":"//83.svetacdn.in/PfJ50H0ZBPg3/movie/40980"},{"id":40978,"title":"Чем глубже копаешь","kp_id":"1283997","imdb_id":"tt10563420","world_art_id":null,"type":"movie","add":"2020-06-06 11:23:05","orig_title":"The Deeper You Dig","year":"2019-07-11","translations":["Любительский (многоголосый закадровый) (Синема УС)"],"quality":"webdl","translation":"Любительский (многоголосый закадровый) (Синема УС)","update":"2020-06-06 15:18:10","iframe_src":"//83.svetacdn.in/PfJ50H0ZBPg3/movie/40978"},{"id":40975,"title":"Свадьба бабушки","kp_id":"1113736","imdb_id":"tt8022904","world_art_id":null,"type":"movie","add":"2020-06-06 06:46:28","orig_title":"La Boda de la Abuela","year":"2019-10-11","translations":["Любительский (многоголосый закадровый) (Синема УС)"],"quality":"webdl","translation":"Любительский (многоголосый закадровый) (Синема УС)","update":"2020-06-06 13:57:27","iframe_src":"//83.svetacdn.in/PfJ50H0ZBPg3/movie/40975"},{"id":40971,"title":"Джонсы отключаются","kp_id":"987210","imdb_id":"tt5779828","world_art_id":null,"type":"movie","add":"2020-06-06 06:34:27","orig_title":"The Joneses Unplugged","year":"2017-05-06","translations":["Профессиональный (многоголосый закадровый)"],"quality":"webdl","translation":"Профессиональный (многоголосый закадровый)","update":"2020-06-06 14:02:33","iframe_src":"//83.svetacdn.in/PfJ50H0ZBPg3/movie/40971"},{"id":40970,"title":"Аппендикс","kp_id":"1151561","imdb_id":"tt8377790","world_art_id":null,"type":"movie","add":"2020-06-06 06:06:18","orig_title":"Appendix","year":"2017-04-21","translations":["Любительский (многоголосый закадровый) (Синема УС)"],"quality":"webdl","translation":"Любительский (многоголосый закадровый) (Синема УС)","update":"2020-06-06 14:04:06","iframe_src":"//83.svetacdn.in/PfJ50H0ZBPg3/movie/40970"},{"id":40968,"title":"Бесконечная юность","kp_id":"1357506","imdb_id":"tt11908406","world_art_id":null,"type":"movie","add":"2020-06-06 06:01:31","orig_title":"Mugen Foundation","year":"2018-11-19","translations":["Любительский (двухголосый закадровый) (Колобок)"],"quality":"webdl","translation":"Любительский (двухголосый закадровый) (Колобок)","update":"2020-06-06 14:22:18","iframe_src":"//83.svetacdn.in/PfJ50H0ZBPg3/movie/40968"},{"id":40967,"title":"Механика любви","kp_id":"970352","imdb_id":"tt5493392","world_art_id":null,"type":"movie","add":"2020-06-06 05:57:29","orig_title":"The Mechanics of Love","year":"2017-03-13","translations":["Профессиональный (многоголосый закадровый)"],"quality":"webdl","translation":"Профессиональный (многоголосый закадровый)","update":"2020-06-06 14:06:26","iframe_src":"//83.svetacdn.in/PfJ50H0ZBPg3/movie/40967"},{"id":40966,"title":"Шито белыми нитками: тайна Авроры Тигардэн","kp_id":"1124301","imdb_id":"tt8116002","world_art_id":null,"type":"movie","add":"2020-06-06 05:51:19","orig_title":"Reap What You Sew: An Aurora Teagarden Mystery","year":"2018-04-15","translations":["Профессиональный (многоголосый закадровый)"],"quality":"webdl","translation":"Профессиональный (многоголосый закадровый)","update":"2020-06-06 14:07:30","iframe_src":"//83.svetacdn.in/PfJ50H0ZBPg3/movie/40966"},{"id":40964,"title":"Социальная идентичность","kp_id":"861269","imdb_id":"tt3672618","world_art_id":null,"type":"movie","add":"2020-06-05 23:42:02","orig_title":"Dekh Tamasha Dekh","year":"2014-04-18","translations":["Профессиональный (двухголосый закадровый)"],"quality":"dvdrip","translation":"Профессиональный (двухголосый закадровый)","update":"2020-06-08 15:20:41","iframe_src":"//83.svetacdn.in/PfJ50H0ZBPg3/movie/40964"},{"id":39643,"title":"А потом мы танцевали","kp_id":"1212085","imdb_id":"tt8963708","world_art_id":null,"type":"movie","add":"2020-04-21 07:29:27","orig_title":"And Then We Danced","year":"2019-05-16","translations":["Любительский (одноголосый закадровый) (Ашмарин Анатолий)","Любительский (многоголосый закадровый) (AlphaProject)"],"quality":"webdl","translation":"Любительский (одноголосый закадровый) (Ашмарин Анатолий)","update":"2020-06-07 05:37:10","iframe_src":"//83.svetacdn.in/PfJ50H0ZBPg3/movie/39643"},{"id":38003,"title":"Убийства по открыткам","kp_id":"977990","imdb_id":"tt4106514","world_art_id":null,"type":"movie","add":"2020-03-15 04:24:26","orig_title":"The Postcard Killings","year":"2020-03-13","translations":["Любительский (многоголосый закадровый) (@MUZOBOZ@)","Original (English)","Полное дублирование (iTunes)"],"quality":"webdl","translation":"Любительский (многоголосый закадровый) (@MUZOBOZ@)","update":"2020-06-06 15:15:16","iframe_src":"//83.svetacdn.in/PfJ50H0ZBPg3/movie/38003"},{"id":31401,"title":"Подкидыш","kp_id":"656423","imdb_id":null,"world_art_id":null,"type":"movie","add":"2019-10-02 10:01:18","orig_title":"Подкидыш","year":"2019-09-26","translations":["Оригинальная дорожка"],"quality":"webdl","translation":"Оригинальная дорожка","update":"2020-06-06 14:25:34","iframe_src":"//83.svetacdn.in/PfJ50H0ZBPg3/movie/31401"}],"current_page":773,"first_page_url":"https://videocdn.tv/api/short?limit=100&api_token=RgFQdUIR2dRmwv8iYa5SnFNgnw3vpjKj&cache3773=3773&page=1","from":77201,"last_page":655,"last_page_url":"https://videocdn.tv/api/short?limit=100&api_token=RgFQdUIR2dRmwv8iYa5SnFNgnw3vpjKj&cache3773=3773&page=655","next_page_url":null,"path":"https://videocdn.tv/api/short","per_page":100,"prev_page_url":"https://videocdn.tv/api/short?limit=100&api_token=RgFQdUIR2dRmwv8iYa5SnFNgnw3vpjKj&cache3773=3773&page=772","to":77220,"total":65470}