{"result":true,"data":[{"id":43986,"title":"Рождество красавицы и чудовища","kp_id":"1302429","imdb_id":"tt10925838","world_art_id":null,"type":"movie","add":"2020-09-29 19:16:18","orig_title":"A Beauty & The Beast Christmas","year":"2019-12-15","translations":["Любительский (многоголосый закадровый) (Синема УС)"],"quality":"hdtv","translation":"Любительский (многоголосый закадровый) (Синема УС)","update":"2020-09-30 07:09:03","iframe_src":"//83.svetacdn.in/PfJ50H0ZBPg3/movie/43986"},{"id":43982,"title":"Оседлай свою мечту","kp_id":null,"imdb_id":"tt12759310","world_art_id":null,"type":"movie","add":"2020-09-29 19:10:16","orig_title":"Ride Your Dream","year":"2020-09-17","translations":["Любительский (многоголосый закадровый) (Синема УС)"],"quality":"webdl","translation":"Любительский (многоголосый закадровый) (Синема УС)","update":"2020-09-30 07:10:02","iframe_src":"//83.svetacdn.in/PfJ50H0ZBPg3/movie/43982"},{"id":43981,"title":"Стена","kp_id":"1178985","imdb_id":"tt8814620","world_art_id":null,"type":"movie","add":"2020-09-29 19:07:56","orig_title":"Muralla","year":"2018-09-22","translations":["Любительский (многоголосый закадровый) (Синема УС)"],"quality":"webdl","translation":"Любительский (многоголосый закадровый) (Синема УС)","update":"2020-09-30 07:10:32","iframe_src":"//83.svetacdn.in/PfJ50H0ZBPg3/movie/43981"},{"id":42616,"title":"Абсолютно точно","kp_id":"1590","imdb_id":"tt0090103","world_art_id":null,"type":"movie","add":"2020-08-20 17:42:20","orig_title":"The Sure Thing","year":"1985-02-09","translations":["Профессиональный (двухголосый закадровый) (Elrom)","Original (English)"],"quality":"bd","translation":"Профессиональный (двухголосый закадровый) (Elrom)","update":"2020-09-30 07:38:41","iframe_src":"//83.svetacdn.in/PfJ50H0ZBPg3/movie/42616"},{"id":42600,"title":"Малыш-мотоциклист","kp_id":"47712","imdb_id":"tt0090948","world_art_id":null,"type":"movie","add":"2020-08-20 17:04:46","orig_title":"The Dirt Bike Kid","year":"1985-11-01","translations":["Авторский (одноголосый закадровый) (Живов Юрий)","Original (English)"],"quality":"bd","translation":"Авторский (одноголосый закадровый) (Живов Юрий)","update":"2020-09-30 07:39:54","iframe_src":"//83.svetacdn.in/PfJ50H0ZBPg3/movie/42600"},{"id":42599,"title":"Окраплённый университет","kp_id":"78269","imdb_id":"tt0125510","world_art_id":null,"type":"movie","add":"2020-08-20 17:03:39","orig_title":"Splatter University","year":"1984-07-13","translations":["Авторский (одноголосый закадровый) (Дольский Андрей)","Original (English)"],"quality":"bd","translation":"Авторский (одноголосый закадровый) (Дольский Андрей)","update":"2020-09-30 07:40:51","iframe_src":"//83.svetacdn.in/PfJ50H0ZBPg3/movie/42599"},{"id":42554,"title":"Инцидент в Фениксе","kp_id":"881353","imdb_id":"tt4341532","world_art_id":null,"type":"movie","add":"2020-08-18 05:46:59","orig_title":"The Phoenix Incident","year":"2015-06-16","translations":["Профессиональный (двухголосый закадровый) (ViruseProject)","Original (English)"],"quality":"webdl","translation":"Профессиональный (двухголосый закадровый) (ViruseProject)","update":"2020-09-30 07:19:12","iframe_src":"//83.svetacdn.in/PfJ50H0ZBPg3/movie/42554"},{"id":42509,"title":"Майкл Джексон: Жизнь поп-иконы","kp_id":"626829","imdb_id":"tt2113007","world_art_id":null,"type":"movie","add":"2020-08-16 16:03:28","orig_title":"Michael Jackson: The Life of an Icon","year":"2011-11-02","translations":["Профессиональный (многоголосый закадровый)","Original (English)"],"quality":"bd","translation":"Профессиональный (многоголосый закадровый)","update":"2020-09-30 07:42:22","iframe_src":"//83.svetacdn.in/PfJ50H0ZBPg3/movie/42509"},{"id":42508,"title":"Генри Пул уже здесь","kp_id":"325394","imdb_id":"tt1029120","world_art_id":null,"type":"movie","add":"2020-08-16 16:02:00","orig_title":"Henry Poole Is Here","year":"2008-01-21","translations":["Профессиональный (многоголосый закадровый)","Original (English)"],"quality":"bd","translation":"Профессиональный (многоголосый закадровый)","update":"2020-09-30 07:45:44","iframe_src":"//83.svetacdn.in/PfJ50H0ZBPg3/movie/42508"},{"id":42444,"title":"Кельтские саги: Охотник за костями","kp_id":"195458","imdb_id":"tt0459220","world_art_id":null,"type":"movie","add":"2020-08-13 07:10:26","orig_title":"The Bone Hunter","year":"2003-01-01","translations":["Профессиональный (многоголосый закадровый)","Original (English)"],"quality":"dvdrip","translation":"Профессиональный (многоголосый закадровый)","update":"2020-09-30 07:37:48","iframe_src":"//83.svetacdn.in/PfJ50H0ZBPg3/movie/42444"},{"id":42443,"title":"Кельтские саги","kp_id":"23063","imdb_id":"tt0312032","world_art_id":null,"type":"movie","add":"2020-08-13 07:08:01","orig_title":"The Winter Warrior","year":"2003-05-15","translations":["Профессиональный (многоголосый закадровый)","Original (English)"],"quality":"dvdrip","translation":"Профессиональный (многоголосый закадровый)","update":"2020-09-30 07:36:45","iframe_src":"//83.svetacdn.in/PfJ50H0ZBPg3/movie/42443"},{"id":42353,"title":"Банда ангелов","kp_id":"15685","imdb_id":"tt0050166","world_art_id":null,"type":"movie","add":"2020-08-07 12:16:29","orig_title":"Band of Angels","year":"1957-08-03","translations":["Профессиональный (многоголосый закадровый) (СВ-Дубль)","Original (English)"],"quality":"webdl","translation":"Профессиональный (многоголосый закадровый) (СВ-Дубль)","update":"2020-09-30 07:34:46","iframe_src":"//83.svetacdn.in/PfJ50H0ZBPg3/movie/42353"},{"id":42351,"title":"Карающий","kp_id":"38495","imdb_id":"tt0281811","world_art_id":null,"type":"movie","add":"2020-08-07 12:13:29","orig_title":"Disaster","year":"2003-04-17","translations":["Авторский (одноголосый закадровый) (Сербин Юрий)","Original (English)"],"quality":"webdl","translation":"Авторский (одноголосый закадровый) (Сербин Юрий)","update":"2020-09-30 07:25:27","iframe_src":"//83.svetacdn.in/PfJ50H0ZBPg3/movie/42351"},{"id":42350,"title":"Грохот барабанов","kp_id":"13600","imdb_id":"tt0055524","world_art_id":null,"type":"movie","add":"2020-08-07 12:10:37","orig_title":"A Thunder of Drums","year":"1961-09-26","translations":["Авторский (одноголосый закадровый) (Алексеев Антон)","Original (English)"],"quality":"webdl","translation":"Авторский (одноголосый закадровый) (Алексеев Антон)","update":"2020-09-30 07:35:46","iframe_src":"//83.svetacdn.in/PfJ50H0ZBPg3/movie/42350"},{"id":5087,"title":"Главный калибр","kp_id":"412378","imdb_id":null,"world_art_id":null,"type":"serial","add":"2019-08-22 16:38:38","orig_title":"Главный калибр","year":"2007-06-24","translations":["Оригинальная дорожка"],"seasons_count":1,"episodes_count":12,"episodes":12,"update":"2019-08-22 19:55:04","iframe_src":"//83.svetacdn.in/PfJ50H0ZBPg3/tv-series/5087"},{"id":5079,"title":"Бэтмен: Отвага и смелость","kp_id":"466902","imdb_id":"tt1213218","world_art_id":null,"type":"serial","add":"2019-08-21 19:34:54","orig_title":"Batman: The Brave and the Bold","year":"2008-11-14","translations":["Полное дублирование (Пифагор)"],"seasons_count":3,"episodes_count":65,"episodes":13,"update":"2019-08-22 19:33:51","iframe_src":"//83.svetacdn.in/PfJ50H0ZBPg3/tv-series/5079"},{"id":5078,"title":"Космо","kp_id":"1236052","imdb_id":"tt5763984","world_art_id":null,"type":"serial","add":"2019-08-21 19:20:08","orig_title":"Kosmoo","year":"2016-08-13","translations":["Профессиональный (многоголосый закадровый) (Игмар)"],"seasons_count":3,"episodes_count":39,"episodes":13,"update":"2019-08-22 07:32:53","iframe_src":"//83.svetacdn.in/PfJ50H0ZBPg3/tv-series/5078"},{"id":5077,"title":"Большое дело","kp_id":"1209781","imdb_id":"tt9772798","world_art_id":null,"type":"serial","add":"2019-08-21 18:23:21","orig_title":"Big Issue","year":"2019-03-06","translations":["Любительский (двухголосый закадровый) (HighHopes)"],"seasons_count":1,"episodes_count":16,"episodes":16,"update":"2019-08-22 18:05:08","iframe_src":"//83.svetacdn.in/PfJ50H0ZBPg3/tv-series/5077"},{"id":5072,"title":"Поиск: www","kp_id":"1237991","imdb_id":"tt10253244","world_art_id":null,"type":"serial","add":"2019-08-20 19:57:21","orig_title":"Geomsaekeoreul Ibryeokhaseyo: WWW","year":"2019-06-05","translations":["Любительский (двухголосый закадровый) (Храм Дорам ТВ)"],"seasons_count":1,"episodes_count":16,"episodes":16,"update":"2019-08-21 20:27:38","iframe_src":"//83.svetacdn.in/PfJ50H0ZBPg3/tv-series/5072"},{"id":5071,"title":"S.C.I. Коллекция загадочных дел","kp_id":"1287552","imdb_id":null,"world_art_id":null,"type":"serial","add":"2019-08-20 19:30:33","orig_title":"S.C.I. Mi an ji","year":"2018-06-26","translations":["Любительский (двухголосый закадровый) (Voice Project Studio)"],"seasons_count":1,"episodes_count":8,"episodes":8,"update":"2019-08-22 06:50:18","iframe_src":"//83.svetacdn.in/PfJ50H0ZBPg3/tv-series/5071"},{"id":5070,"title":"Антураж","kp_id":"996613","imdb_id":"tt5849698","world_art_id":null,"type":"serial","add":"2019-08-20 12:24:17","orig_title":"Anturaji","year":"2016-11-04","translations":["Любительский (двухголосый закадровый) (SoftBox)"],"seasons_count":1,"episodes_count":12,"episodes":12,"update":"2019-08-22 15:55:53","iframe_src":"//83.svetacdn.in/PfJ50H0ZBPg3/tv-series/5070"},{"id":5057,"title":"Забытое преступление","kp_id":"1162862","imdb_id":null,"world_art_id":null,"type":"serial","add":"2019-08-20 06:24:42","orig_title":"Забытое преступление","year":"2018-09-28","translations":["Оригинальная дорожка"],"seasons_count":1,"episodes_count":2,"episodes":2,"update":"2019-08-21 12:46:54","iframe_src":"//83.svetacdn.in/PfJ50H0ZBPg3/tv-series/5057"},{"id":5053,"title":"Серебряный отблеск счастья","kp_id":"1290941","imdb_id":null,"world_art_id":null,"type":"serial","add":"2019-08-19 19:44:02","orig_title":"Серебряный отблеск счастья","year":"2019-08-17","translations":["Оригинальная дорожка"],"seasons_count":1,"episodes_count":2,"episodes":2,"update":"2019-08-20 11:37:42","iframe_src":"//83.svetacdn.in/PfJ50H0ZBPg3/tv-series/5053"},{"id":5044,"title":"Тысяча и одна ночь","kp_id":"696188","imdb_id":"tt2323894","world_art_id":null,"type":"serial","add":"2019-08-16 14:30:53","orig_title":"Le mille e una notte: Aladino e Sherazade","year":"2012-11-26","translations":["Профессиональный (многоголосый закадровый) (ShowJet)"],"seasons_count":1,"episodes_count":4,"episodes":4,"update":"2019-08-21 12:51:40","iframe_src":"//83.svetacdn.in/PfJ50H0ZBPg3/tv-series/5044"},{"id":5033,"title":"Город соблазнов","kp_id":"453287","imdb_id":"tt1445857","world_art_id":null,"type":"serial","add":"2019-08-15 04:22:53","orig_title":"Gorod soblaznov","year":"2009-05-25","translations":["Оригинальная дорожка"],"seasons_count":1,"episodes_count":48,"episodes":48,"update":"2019-08-22 15:03:01","iframe_src":"//83.svetacdn.in/PfJ50H0ZBPg3/tv-series/5033"},{"id":5031,"title":"Александровский сад","kp_id":"409734","imdb_id":"tt1829786","world_art_id":null,"type":"serial","add":"2019-08-14 15:49:22","orig_title":"Aleksandrovskiy sad","year":"2005-01-01","translations":["Оригинальная дорожка"],"seasons_count":1,"episodes_count":12,"episodes":12,"update":"2019-08-20 15:09:53","iframe_src":"//83.svetacdn.in/PfJ50H0ZBPg3/tv-series/5031"},{"id":5024,"title":"Контакт","kp_id":"1007811","imdb_id":null,"world_art_id":null,"type":"serial","add":"2019-08-13 06:41:57","orig_title":"Контакт","year":"2019-08-12","translations":["Оригинальная дорожка"],"seasons_count":1,"episodes_count":12,"episodes":12,"update":"2019-08-22 05:53:03","iframe_src":"//83.svetacdn.in/PfJ50H0ZBPg3/tv-series/5024"},{"id":4965,"title":"Вне времени","kp_id":"945378","imdb_id":"tt5158846","world_art_id":null,"type":"serial","add":"2019-07-29 09:44:19","orig_title":"Além do Tempo","year":"2015-07-13","translations":["Любительский (двухголосый закадровый)"],"seasons_count":1,"episodes_count":161,"episodes":161,"update":"2019-08-20 07:53:59","iframe_src":"//83.svetacdn.in/PfJ50H0ZBPg3/tv-series/4965"},{"id":4915,"title":"Рая знает всё!","kp_id":"1282467","imdb_id":null,"world_art_id":null,"type":"serial","add":"2019-07-22 21:03:53","orig_title":"Рая знает всё!","year":"2019-07-22","translations":["Оригинальная дорожка"],"seasons_count":1,"episodes_count":50,"episodes":50,"update":"2019-08-20 11:35:13","iframe_src":"//83.svetacdn.in/PfJ50H0ZBPg3/tv-series/4915"},{"id":4739,"title":"Табакерка","kp_id":"579511","imdb_id":"tt0775400","world_art_id":null,"type":"serial","add":"2019-06-24 11:57:30","orig_title":"Snuff Box","year":"2006-02-27","translations":["Профессиональный (многоголосый закадровый) (Ozz.tv)"],"seasons_count":1,"episodes_count":6,"episodes":6,"update":"2019-08-19 11:39:56","iframe_src":"//83.svetacdn.in/PfJ50H0ZBPg3/tv-series/4739"},{"id":4590,"title":"Вавилон","kp_id":"904753","imdb_id":"tt4644530","world_art_id":null,"type":"serial","add":"2019-05-31 11:11:49","orig_title":"Babilônia","year":"2015-03-16","translations":["Любительский (двухголосый закадровый) (AveBrasil)"],"seasons_count":1,"episodes_count":143,"episodes":143,"update":"2019-08-21 08:00:20","iframe_src":"//83.svetacdn.in/PfJ50H0ZBPg3/tv-series/4590"},{"id":21554,"title":"Разрушители","kp_id":"518003","imdb_id":"tt1650028","world_art_id":null,"type":"movie","add":"2019-01-16 16:03:49","orig_title":"Wreckers","year":"2011-12-16","translations":["Профессиональный (многоголосый закадровый)","Профессиональный (двухголосый закадровый)","Original (English)"],"quality":"webdl","translation":"Профессиональный (многоголосый закадровый)","update":"2020-09-30 07:18:04","iframe_src":"//83.svetacdn.in/PfJ50H0ZBPg3/movie/21554"},{"id":13798,"title":"Холодная Луна","kp_id":"893547","imdb_id":"tt4441098","world_art_id":null,"type":"movie","add":"2017-10-09 22:57:36","orig_title":"Cold Moon","year":"2016-05-27","translations":["Любительский (многоголосый закадровый) (Синема УС)","Любительский (многоголосый закадровый) (@MUZOBOZ@)","Original (English)"],"quality":"webdl","translation":"Любительский (многоголосый закадровый) (Синема УС)","update":"2020-09-30 07:27:30","iframe_src":"//83.svetacdn.in/PfJ50H0ZBPg3/movie/13798"},{"id":12278,"title":"Непостижимое","kp_id":"820889","imdb_id":"tt3481634","world_art_id":null,"type":"movie","add":"2017-07-03 21:31:02","orig_title":"Inconceivable","year":"2017-06-30","translations":["Любительский (многоголосый закадровый) (@MUZOBOZ@)","Профессиональный (многоголосый закадровый) (GreenРай Studio)","Полное дублирование (iTunes)","Original (English)"],"quality":"bd","translation":"Любительский (многоголосый закадровый) (@MUZOBOZ@)","update":"2020-09-30 07:44:14","iframe_src":"//83.svetacdn.in/PfJ50H0ZBPg3/movie/12278"},{"id":10965,"title":"Серые небеса","kp_id":"495183","imdb_id":"tt1568332","world_art_id":null,"type":"movie","add":"2017-04-13 22:06:04","orig_title":"Grey Skies","year":"2010-04-13","translations":["Профессиональный (многоголосый закадровый)","Профессиональный (многоголосый закадровый)","Original (English)"],"quality":"sat","translation":"Профессиональный (многоголосый закадровый)","update":"2020-09-30 07:24:18","iframe_src":"//83.svetacdn.in/PfJ50H0ZBPg3/movie/10965"},{"id":1144,"title":"Катастрофа","kp_id":"885344","imdb_id":"tt4374208","world_art_id":null,"type":"serial","add":"2017-03-27 05:55:41","orig_title":"Catastrophe","year":"2015-01-19","translations":["Любительский (двухголосый закадровый) (Jimmy J.)"],"seasons_count":4,"episodes_count":24,"episodes":6,"update":"2019-08-19 10:10:11","iframe_src":"//83.svetacdn.in/PfJ50H0ZBPg3/tv-series/1144"},{"id":8102,"title":"Джек-медведь","kp_id":"12281","imdb_id":"tt0107247","world_art_id":null,"type":"movie","add":"2016-12-17 08:39:32","orig_title":"Jack the Bear","year":"1993-04-02","translations":["Профессиональный (многоголосый закадровый) (Первый канал | ОРТ)","Профессиональный (многоголосый закадровый) (Первый канал | ОРТ)","Original (English)"],"quality":"hdtv","translation":"Профессиональный (многоголосый закадровый) (Первый канал | ОРТ)","update":"2020-09-30 07:20:12","iframe_src":"//83.svetacdn.in/PfJ50H0ZBPg3/movie/8102"},{"id":3379,"title":"Ангелы Чарли 2: Только вперед","kp_id":"1795","imdb_id":"tt0305357","world_art_id":null,"type":"movie","add":"2016-06-27 10:05:18","orig_title":"Charlie's Angels: Full Throttle","year":"2003-06-18","translations":["Полное дублирование","Полное дублирование","Original (English)"],"quality":"bd","translation":"Полное дублирование","update":"2020-09-30 07:29:39","iframe_src":"//83.svetacdn.in/PfJ50H0ZBPg3/movie/3379"},{"id":165,"title":"По волчьим законам","kp_id":"928372","imdb_id":"tt5574490","world_art_id":null,"type":"serial","add":"2016-06-09 13:00:55","orig_title":"Animal Kingdom","year":"2016-06-14","translations":["Профессиональный (многоголосый закадровый) (NewStudio)","Профессиональный (многоголосый закадровый) (LostFilm)"],"seasons_count":4,"episodes_count":49,"episodes":13,"update":"2019-08-23 09:54:49","iframe_src":"//83.svetacdn.in/PfJ50H0ZBPg3/tv-series/165"},{"id":135,"title":"В объезд","kp_id":"927628","imdb_id":"tt4903242","world_art_id":null,"type":"serial","add":"2016-06-03 08:48:24","orig_title":"The Detour","year":"2016-04-11","translations":["Любительский (многоголосый закадровый) (Несмертельное оружие)","Профессиональный (многоголосый закадровый) (Jaskier)","Профессиональный (многоголосый закадровый) (IdeaFilm)","Профессиональный (многоголосый закадровый)","Профессиональный (многоголосый закадровый) (TUMBLER Studio)"],"seasons_count":4,"episodes_count":42,"episodes":10,"update":"2019-08-23 10:20:42","iframe_src":"//83.svetacdn.in/PfJ50H0ZBPg3/tv-series/135"}],"current_page":310,"first_page_url":"https://videocdn.tv/api/short?limit=100&api_token=RgFQdUIR2dRmwv8iYa5SnFNgnw3vpjKj&cache3310=3310&page=1","from":30901,"last_page":600,"last_page_url":"https://videocdn.tv/api/short?limit=100&api_token=RgFQdUIR2dRmwv8iYa5SnFNgnw3vpjKj&cache3310=3310&page=600","next_page_url":"https://videocdn.tv/api/short?limit=100&api_token=RgFQdUIR2dRmwv8iYa5SnFNgnw3vpjKj&cache3310=3310&page=311","path":"https://videocdn.tv/api/short","per_page":100,"prev_page_url":"https://videocdn.tv/api/short?limit=100&api_token=RgFQdUIR2dRmwv8iYa5SnFNgnw3vpjKj&cache3310=3310&page=309","to":30940,"total":59948}