{"result":true,"data":[{"id":16274,"title":"Чёрный принц","kp_id":"844995","imdb_id":"tt3962984","world_art_id":null,"type":"movie","add":"2018-04-15 17:55:24","orig_title":"The Black Prince","year":"2017-03-03","translations":["Любительский (многоголосый закадровый) (AlphaProject)"],"quality":"webdl","translation":"Любительский (многоголосый закадровый) (AlphaProject)","update":"2018-04-16 05:43:22","iframe_src":"//83.svetacdn.in/PfJ50H0ZBPg3/movie/16274"},{"id":16272,"title":"Прими таблетки","kp_id":"1113019","imdb_id":"tt7983844","world_art_id":null,"type":"movie","add":"2018-04-15 17:48:12","orig_title":"Take Your Pills","year":"2018-03-09","translations":["Любительский (многоголосый закадровый) (Синема УС)"],"quality":"webdl","translation":"Любительский (многоголосый закадровый) (Синема УС)","update":"2018-04-16 05:16:29","iframe_src":"//83.svetacdn.in/PfJ50H0ZBPg3/movie/16272"},{"id":16270,"title":"Симфония для Аны","kp_id":"1046010","imdb_id":"tt6866290","world_art_id":null,"type":"movie","add":"2018-04-15 17:32:54","orig_title":"Sinfonía para Ana","year":"2017-10-19","translations":["Профессиональный (многоголосый закадровый) (СВ-Дубль)"],"quality":"sat","translation":"Профессиональный (многоголосый закадровый) (СВ-Дубль)","update":"2018-04-16 05:40:08","iframe_src":"//83.svetacdn.in/PfJ50H0ZBPg3/movie/16270"},{"id":16269,"title":"Скотт и Сид","kp_id":"913584","imdb_id":"tt4702346","world_art_id":null,"type":"movie","add":"2018-04-15 17:31:21","orig_title":"Scott and Sid","year":"2018-03-09","translations":["Любительский (многоголосый закадровый) (Синема УС)"],"quality":"webdl","translation":"Любительский (многоголосый закадровый) (Синема УС)","update":"2018-04-16 05:10:57","iframe_src":"//83.svetacdn.in/PfJ50H0ZBPg3/movie/16269"},{"id":16252,"title":"Красные деревья","kp_id":"1048690","imdb_id":"tt7211972","world_art_id":null,"type":"movie","add":"2018-04-14 22:18:57","orig_title":"Red Trees","year":"2017-07-25","translations":["Любительский (многоголосый закадровый) (Синема УС)"],"quality":"webdl","translation":"Любительский (многоголосый закадровый) (Синема УС)","update":"2018-04-16 05:36:19","iframe_src":"//83.svetacdn.in/PfJ50H0ZBPg3/movie/16252"},{"id":16251,"title":"Вертушка","kp_id":"821826","imdb_id":"tt3455996","world_art_id":null,"type":"movie","add":"2018-04-14 22:16:33","orig_title":"Pinwheel","year":"2017-01-10","translations":["Любительский (многоголосый закадровый) (Колобок)"],"quality":"webdl","translation":"Любительский (многоголосый закадровый) (Колобок)","update":"2018-04-16 05:34:59","iframe_src":"//83.svetacdn.in/PfJ50H0ZBPg3/movie/16251"},{"id":16249,"title":"И гаснет свет","kp_id":"1021277","imdb_id":"tt6029106","world_art_id":null,"type":"movie","add":"2018-04-14 22:06:43","orig_title":"Dim the Fluorescents","year":"2017-01-21","translations":["Любительский (многоголосый закадровый) (Синема УС)"],"quality":"webdl","translation":"Любительский (многоголосый закадровый) (Синема УС)","update":"2018-04-16 05:29:11","iframe_src":"//83.svetacdn.in/PfJ50H0ZBPg3/movie/16249"},{"id":16247,"title":"Координатная ось","kp_id":"1044581","imdb_id":"tt4971346","world_art_id":null,"type":"movie","add":"2018-04-14 22:03:18","orig_title":"Axis","year":"2017-04-07","translations":["Любительский (многоголосый закадровый) (Синема УС)"],"quality":"webdl","translation":"Любительский (многоголосый закадровый) (Синема УС)","update":"2018-04-16 05:23:14","iframe_src":"//83.svetacdn.in/PfJ50H0ZBPg3/movie/16247"},{"id":16246,"title":"Конопляное мочилово","kp_id":"1010357","imdb_id":"tt5946668","world_art_id":null,"type":"movie","add":"2018-04-14 22:00:51","orig_title":"4/20 Massacre","year":"2018-04-03","translations":["Любительский (многоголосый закадровый) (Колобок)"],"quality":"webdl","translation":"Любительский (многоголосый закадровый) (Колобок)","update":"2018-04-16 05:00:48","iframe_src":"//83.svetacdn.in/PfJ50H0ZBPg3/movie/16246"},{"id":16245,"title":"После Луи","kp_id":"997043","imdb_id":"tt5974044","world_art_id":null,"type":"movie","add":"2018-04-14 21:20:07","orig_title":"After Louie","year":"2017-03-17","translations":["Любительский (многоголосый закадровый) (Синема УС)"],"quality":"webdl","translation":"Любительский (многоголосый закадровый) (Синема УС)","update":"2018-04-15 18:45:28","iframe_src":"//83.svetacdn.in/PfJ50H0ZBPg3/movie/16245"},{"id":16233,"title":"Невероятные приключения янки в Африке","kp_id":"56365","imdb_id":"tt0111787","world_art_id":null,"type":"movie","add":"2018-04-13 15:43:43","orig_title":"Yankee Zulu","year":"1993-12-03","translations":["Профессиональный (двухголосый закадровый) (НТВ)"],"quality":"webdl","translation":"Профессиональный (двухголосый закадровый) (НТВ)","update":"2018-04-16 04:41:00","iframe_src":"//83.svetacdn.in/PfJ50H0ZBPg3/movie/16233"},{"id":16232,"title":"ДМБ: Снова в бою","kp_id":"453156","imdb_id":"tt5137806","world_art_id":null,"type":"movie","add":"2018-04-13 15:40:43","orig_title":"Demobbed: Snova v Boyu","year":"2001-01-01","translations":["Оригинальная дорожка"],"quality":"dvdrip","translation":"Оригинальная дорожка","update":"2018-04-16 04:47:44","iframe_src":"//83.svetacdn.in/PfJ50H0ZBPg3/movie/16232"},{"id":16231,"title":"ДМБ-004","kp_id":"468765","imdb_id":"tt5137684","world_art_id":null,"type":"movie","add":"2018-04-13 15:39:29","orig_title":"Demobbed-004","year":"2001-01-01","translations":["Оригинальная дорожка"],"quality":"dvdrip","translation":"Оригинальная дорожка","update":"2018-04-16 04:46:43","iframe_src":"//83.svetacdn.in/PfJ50H0ZBPg3/movie/16231"},{"id":16230,"title":"ДМБ-003","kp_id":"466350","imdb_id":"tt5134806","world_art_id":null,"type":"movie","add":"2018-04-13 15:37:58","orig_title":"Demobbed-003","year":"2001-01-01","translations":["Оригинальная дорожка"],"quality":"dvdrip","translation":"Оригинальная дорожка","update":"2018-04-16 04:45:22","iframe_src":"//83.svetacdn.in/PfJ50H0ZBPg3/movie/16230"},{"id":16229,"title":"ДМБ-002","kp_id":"279023","imdb_id":"tt5121622","world_art_id":null,"type":"movie","add":"2018-04-13 15:36:51","orig_title":"Demobbed-002","year":"2000-01-01","translations":["Оригинальная дорожка"],"quality":"dvdrip","translation":"Оригинальная дорожка","update":"2018-04-16 04:44:09","iframe_src":"//83.svetacdn.in/PfJ50H0ZBPg3/movie/16229"},{"id":16228,"title":"Улица полна неожиданностей","kp_id":"42520","imdb_id":"tt0051124","world_art_id":null,"type":"movie","add":"2018-04-13 15:20:03","orig_title":"Ulitsa polna neozhidannostey","year":"1958-07-24","translations":["Оригинальная дорожка"],"quality":"dvdrip","translation":"Оригинальная дорожка","update":"2018-04-16 04:43:16","iframe_src":"//83.svetacdn.in/PfJ50H0ZBPg3/movie/16228"},{"id":16225,"title":"Четвёртая компания","kp_id":"686750","imdb_id":"tt2197926","world_art_id":null,"type":"movie","add":"2018-04-12 22:31:41","orig_title":"La 4ª Compañía","year":"2016-03-06","translations":["Любительский (многоголосый закадровый) (Синема УС)"],"quality":"webdl","translation":"Любительский (многоголосый закадровый) (Синема УС)","update":"2018-04-13 09:12:40","iframe_src":"//83.svetacdn.in/PfJ50H0ZBPg3/movie/16225"},{"id":14553,"title":"Небесный охотник","kp_id":"1045079","imdb_id":"tt6908536","world_art_id":null,"type":"movie","add":"2017-12-04 21:55:51","orig_title":"Kong tian lie","year":"2017-09-29","translations":["Любительский (многоголосый закадровый) (Колобок)"],"quality":"bd","translation":"Любительский (многоголосый закадровый) (Колобок)","update":"2018-04-13 09:10:01","iframe_src":"//83.svetacdn.in/PfJ50H0ZBPg3/movie/14553"},{"id":13605,"title":"Центр моего мира","kp_id":"928271","imdb_id":"tt4932154","world_art_id":null,"type":"movie","add":"2017-09-26 12:01:57","orig_title":"Die Mitte der Welt","year":"2016-06-26","translations":["Любительский (многоголосый закадровый) (Синема УС)","Профессиональный (многоголосый закадровый) (GreenРай Studio)"],"quality":"bd","translation":"Любительский (многоголосый закадровый) (Синема УС)","update":"2018-04-16 06:09:05","iframe_src":"//83.svetacdn.in/PfJ50H0ZBPg3/movie/13605"},{"id":13467,"title":"Джанго","kp_id":"1008657","imdb_id":"tt6247936","world_art_id":null,"type":"movie","add":"2017-09-12 19:39:11","orig_title":"Django","year":"2017-02-09","translations":["Любительский (многоголосый закадровый) (Синема УС)","Профессиональный (многоголосый закадровый) (GreenРай Studio)"],"quality":"bd","translation":"Любительский (многоголосый закадровый) (Синема УС)","update":"2018-04-16 05:19:08","iframe_src":"//83.svetacdn.in/PfJ50H0ZBPg3/movie/13467"}],"current_page":2343,"first_page_url":"https://videocdn.tv/api/short?limit=100&api_token=RgFQdUIR2dRmwv8iYa5SnFNgnw3vpjKj&cache32343=32343&page=1","from":234201,"last_page":721,"last_page_url":"https://videocdn.tv/api/short?limit=100&api_token=RgFQdUIR2dRmwv8iYa5SnFNgnw3vpjKj&cache32343=32343&page=721","next_page_url":null,"path":"https://videocdn.tv/api/short","per_page":100,"prev_page_url":"https://videocdn.tv/api/short?limit=100&api_token=RgFQdUIR2dRmwv8iYa5SnFNgnw3vpjKj&cache32343=32343&page=2342","to":234220,"total":72083}