{"result":true,"data":[{"id":20882,"title":"Хармс","kp_id":"911235","imdb_id":"tt5485466","world_art_id":null,"type":"movie","add":"2018-12-20 23:00:38","orig_title":"Kharms","year":"2017-07-23","translations":["Оригинальная дорожка"],"quality":"webdl","translation":"Оригинальная дорожка","update":"2018-12-21 07:39:41","iframe_src":"//83.svetacdn.in/PfJ50H0ZBPg3/movie/20882"},{"id":20878,"title":"Преследуемая своим доктором: Месть пациентки","kp_id":"1160057","imdb_id":"tt8499212","world_art_id":null,"type":"movie","add":"2018-12-20 22:53:16","orig_title":"Stalked by My Doctor: Patient's Revenge","year":"2018-06-10","translations":["Любительский (многоголосый закадровый) (Синема УС)"],"quality":"webdl","translation":"Любительский (многоголосый закадровый) (Синема УС)","update":"2018-12-21 07:44:01","iframe_src":"//83.svetacdn.in/PfJ50H0ZBPg3/movie/20878"},{"id":20338,"title":"Бензин, еда, жилье","kp_id":"6998","imdb_id":"tt0104321","world_art_id":null,"type":"movie","add":"2018-11-28 08:02:43","orig_title":"Gas, Food Lodging","year":"1992-07-10","translations":["Профессиональный (многоголосый закадровый) (Первый канал | ОРТ)","Original (English)"],"quality":"bd","translation":"Профессиональный (многоголосый закадровый) (Первый канал | ОРТ)","update":"2018-12-20 13:20:37","iframe_src":"//83.svetacdn.in/PfJ50H0ZBPg3/movie/20338"},{"id":20337,"title":"Вместе с Дидлами","kp_id":"6816","imdb_id":"tt0120645","world_art_id":null,"type":"movie","add":"2018-11-28 08:01:42","orig_title":"Meet the Deedles","year":"1998-03-27","translations":["Профессиональный (двухголосый закадровый) (West Video)","Original (English)"],"quality":"webdl","translation":"Профессиональный (двухголосый закадровый) (West Video)","update":"2018-12-20 13:09:34","iframe_src":"//83.svetacdn.in/PfJ50H0ZBPg3/movie/20337"},{"id":20336,"title":"На всю катушку","kp_id":"5181","imdb_id":"tt0120722","world_art_id":null,"type":"movie","add":"2018-11-28 07:59:29","orig_title":"Living Out Loud","year":"1998-09-15","translations":["Профессиональный (двухголосый закадровый)","Original (English)"],"quality":"webdl","translation":"Профессиональный (двухголосый закадровый)","update":"2018-12-20 13:03:53","iframe_src":"//83.svetacdn.in/PfJ50H0ZBPg3/movie/20336"},{"id":20335,"title":"Американские драконы","kp_id":"2329","imdb_id":"tt0118601","world_art_id":null,"type":"movie","add":"2018-11-28 07:58:21","orig_title":"American Dragons","year":"1998-09-15","translations":["Профессиональный (двухголосый закадровый) (НТВ)","Original (English)"],"quality":"webdl","translation":"Профессиональный (двухголосый закадровый) (НТВ)","update":"2018-12-20 13:02:13","iframe_src":"//83.svetacdn.in/PfJ50H0ZBPg3/movie/20335"},{"id":20282,"title":"Саламандра","kp_id":"5654","imdb_id":"tt0083024","world_art_id":null,"type":"movie","add":"2018-11-25 14:38:34","orig_title":"The Salamander","year":"1982-05-28","translations":["Профессиональный (многоголосый закадровый)","Original (English)"],"quality":"bd","translation":"Профессиональный (многоголосый закадровый)","update":"2018-12-20 13:21:25","iframe_src":"//83.svetacdn.in/PfJ50H0ZBPg3/movie/20282"},{"id":20281,"title":"Преступление на почве страсти","kp_id":"2466","imdb_id":"tt0087100","world_art_id":null,"type":"movie","add":"2018-11-25 14:36:57","orig_title":"Crimes of Passion","year":"1984-10-19","translations":["Профессиональный (многоголосый закадровый)","Original (English)"],"quality":"bd","translation":"Профессиональный (многоголосый закадровый)","update":"2018-12-20 13:19:37","iframe_src":"//83.svetacdn.in/PfJ50H0ZBPg3/movie/20281"},{"id":20280,"title":"Безумная вечеринка","kp_id":"32658","imdb_id":"tt0073903","world_art_id":null,"type":"movie","add":"2018-11-25 14:34:36","orig_title":"The Wild Party","year":"1975-03-01","translations":["Профессиональный (двухголосый закадровый) (НТВ)","Original (English)"],"quality":"webdl","translation":"Профессиональный (двухголосый закадровый) (НТВ)","update":"2018-12-20 13:18:46","iframe_src":"//83.svetacdn.in/PfJ50H0ZBPg3/movie/20280"},{"id":20279,"title":"Испанский узник","kp_id":"9425","imdb_id":"tt0120176","world_art_id":null,"type":"movie","add":"2018-11-25 14:33:00","orig_title":"The Spanish Prisoner","year":"1997-09-08","translations":["Профессиональный (двухголосый закадровый)","Original (English)"],"quality":"webdl","translation":"Профессиональный (двухголосый закадровый)","update":"2018-12-20 13:16:30","iframe_src":"//83.svetacdn.in/PfJ50H0ZBPg3/movie/20279"},{"id":20278,"title":"Золотой лед 2: В погоне за золотом","kp_id":"103725","imdb_id":"tt0463953","world_art_id":null,"type":"movie","add":"2018-11-25 14:31:44","orig_title":"The Cutting Edge: Going for the Gold","year":"2006-02-07","translations":["Профессиональный (двухголосый закадровый)","Original (English)"],"quality":"webdl","translation":"Профессиональный (двухголосый закадровый)","update":"2018-12-20 13:15:44","iframe_src":"//83.svetacdn.in/PfJ50H0ZBPg3/movie/20278"},{"id":20277,"title":"Некоторые девчонки","kp_id":"13080","imdb_id":"tt0098356","world_art_id":null,"type":"movie","add":"2018-11-25 14:30:25","orig_title":"Some Girls","year":"1988-09-09","translations":["Профессиональный (двухголосый закадровый)","Original (English)"],"quality":"webdl","translation":"Профессиональный (двухголосый закадровый)","update":"2018-12-20 13:13:07","iframe_src":"//83.svetacdn.in/PfJ50H0ZBPg3/movie/20277"},{"id":20276,"title":"В открытом море","kp_id":"6441","imdb_id":"tt0119848","world_art_id":null,"type":"movie","add":"2018-11-25 14:29:21","orig_title":"Out to Sea","year":"1997-07-02","translations":["Профессиональный (двухголосый закадровый)","Original (English)"],"quality":"webdl","translation":"Профессиональный (двухголосый закадровый)","update":"2018-12-20 13:17:27","iframe_src":"//83.svetacdn.in/PfJ50H0ZBPg3/movie/20276"},{"id":20275,"title":"Метод","kp_id":"61154","imdb_id":"tt0379380","world_art_id":null,"type":"movie","add":"2018-11-25 14:28:14","orig_title":"Method","year":"2004-06-16","translations":["Профессиональный (двухголосый закадровый)","Original (English)"],"quality":"webdl","translation":"Профессиональный (двухголосый закадровый)","update":"2018-12-20 13:10:49","iframe_src":"//83.svetacdn.in/PfJ50H0ZBPg3/movie/20275"},{"id":20273,"title":"Место на кладбище","kp_id":"14291","imdb_id":"tt0120034","world_art_id":null,"type":"movie","add":"2018-11-25 14:22:36","orig_title":"Roseanna's Grave","year":"1997-03-06","translations":["Профессиональный (двухголосый закадровый) (Elrom)","Original (English)"],"quality":"webdl","translation":"Профессиональный (двухголосый закадровый) (Elrom)","update":"2018-12-20 13:03:05","iframe_src":"//83.svetacdn.in/PfJ50H0ZBPg3/movie/20273"},{"id":20268,"title":"Ночной посетитель","kp_id":"15173","imdb_id":"tt0066141","world_art_id":null,"type":"movie","add":"2018-11-25 14:15:09","orig_title":"The Night Visitor","year":"1971-02-10","translations":["Любительский (одноголосый закадровый)","Original (English)"],"quality":"bd","translation":"Любительский (одноголосый закадровый)","update":"2018-12-20 12:57:26","iframe_src":"//83.svetacdn.in/PfJ50H0ZBPg3/movie/20268"},{"id":20267,"title":"Кто эта девчонка?","kp_id":"18652","imdb_id":"tt0094321","world_art_id":null,"type":"movie","add":"2018-11-25 14:13:49","orig_title":"Who's That Girl","year":"1987-08-07","translations":["Полное дублирование","Original (English)"],"quality":"webdl","translation":"Полное дублирование","update":"2018-12-20 12:56:46","iframe_src":"//83.svetacdn.in/PfJ50H0ZBPg3/movie/20267"},{"id":19260,"title":"Психо","kp_id":"2986","imdb_id":"tt0155975","world_art_id":null,"type":"movie","add":"2018-09-28 11:40:43","orig_title":"Psycho","year":"1998-12-04","translations":["Профессиональный (многоголосый закадровый) (Первый канал | ОРТ)","Original (English)"],"quality":"bd","translation":"Профессиональный (многоголосый закадровый) (Первый канал | ОРТ)","update":"2018-12-20 13:00:16","iframe_src":"//83.svetacdn.in/PfJ50H0ZBPg3/movie/19260"},{"id":10890,"title":"Флот МакХэйла","kp_id":"2905","imdb_id":"tt0119640","world_art_id":null,"type":"movie","add":"2017-04-11 15:59:56","orig_title":"McHale's Navy","year":"1997-04-18","translations":["Профессиональный (многоголосый закадровый)","Профессиональный (двухголосый закадровый)","Original (English)"],"quality":"hdtv","translation":"Профессиональный (многоголосый закадровый)","update":"2018-12-20 12:59:16","iframe_src":"//83.svetacdn.in/PfJ50H0ZBPg3/movie/10890"},{"id":6450,"title":"По ту сторону океана","kp_id":"630465","imdb_id":"tt1920885","world_art_id":null,"type":"movie","add":"2016-10-18 14:48:02","orig_title":"Dayu haitang","year":"2016-07-03","translations":["Любительский (многоголосый закадровый)","Полное дублирование"],"quality":"bd","translation":"Любительский (многоголосый закадровый)","update":"2018-12-21 07:41:46","iframe_src":"//83.svetacdn.in/PfJ50H0ZBPg3/movie/6450"}],"current_page":1805,"first_page_url":"https://videocdn.tv/api/short?limit=100&api_token=RgFQdUIR2dRmwv8iYa5SnFNgnw3vpjKj&cache31805=31805&page=1","from":180401,"last_page":658,"last_page_url":"https://videocdn.tv/api/short?limit=100&api_token=RgFQdUIR2dRmwv8iYa5SnFNgnw3vpjKj&cache31805=31805&page=658","next_page_url":null,"path":"https://videocdn.tv/api/short","per_page":100,"prev_page_url":"https://videocdn.tv/api/short?limit=100&api_token=RgFQdUIR2dRmwv8iYa5SnFNgnw3vpjKj&cache31805=31805&page=1804","to":180420,"total":65702}