{"result":true,"data":[{"id":39832,"title":"После","kp_id":"818780","imdb_id":"tt3145422","world_art_id":null,"type":"movie","add":"2020-04-26 05:32:46","orig_title":"The After","year":"2014-02-06","translations":["Профессиональный (многоголосый закадровый) (NewStudio)"],"quality":"webdl","translation":"Профессиональный (многоголосый закадровый) (NewStudio)","update":"2020-04-26 07:06:52","iframe_src":"//2413.svetacdn.in/si4jsFRrtgrT/movie/39832"},{"id":39831,"title":"Объект Дельта","kp_id":"1235973","imdb_id":"tt9675796","world_art_id":null,"type":"movie","add":"2020-04-26 05:05:11","orig_title":"Subject Delta","year":"2019-01-20","translations":["Оригинальная дорожка"],"quality":"webdl","translation":"Оригинальная дорожка","update":"2020-04-26 07:06:57","iframe_src":"//2413.svetacdn.in/si4jsFRrtgrT/movie/39831"},{"id":39812,"title":"К звездам","kp_id":"1124734","imdb_id":"tt6886080","world_art_id":null,"type":"movie","add":"2020-04-25 03:42:42","orig_title":"To the Stars","year":"2019-01-25","translations":["Любительский (многоголосый закадровый) (@MUZOBOZ@)"],"quality":"webdl","translation":"Любительский (многоголосый закадровый) (@MUZOBOZ@)","update":"2020-04-25 16:23:55","iframe_src":"//2413.svetacdn.in/si4jsFRrtgrT/movie/39812"},{"id":39810,"title":"Кусь","kp_id":"1156891","imdb_id":"tt8425034","world_art_id":null,"type":"movie","add":"2020-04-25 03:39:43","orig_title":"Bit","year":"2019-06-22","translations":["Любительский (многоголосый закадровый) (@MUZOBOZ@)"],"quality":"webdl","translation":"Любительский (многоголосый закадровый) (@MUZOBOZ@)","update":"2020-04-25 12:00:46","iframe_src":"//2413.svetacdn.in/si4jsFRrtgrT/movie/39810"},{"id":39809,"title":"Дорога к китам","kp_id":"696195","imdb_id":"tt2305326","world_art_id":null,"type":"movie","add":"2020-04-25 03:38:26","orig_title":"Braking for Whales","year":"2019-09-20","translations":["Любительский (многоголосый закадровый) (@MUZOBOZ@)"],"quality":"webdl","translation":"Любительский (многоголосый закадровый) (@MUZOBOZ@)","update":"2020-04-25 16:23:42","iframe_src":"//2413.svetacdn.in/si4jsFRrtgrT/movie/39809"},{"id":39805,"title":"Терзания: Смертельная пуля","kp_id":"1146207","imdb_id":"tt8386654","world_art_id":null,"type":"movie","add":"2020-04-25 03:31:23","orig_title":"Torn: Dark Bullets","year":"2020-04-20","translations":["Любительский (многоголосый закадровый) (@MUZOBOZ@)"],"quality":"webdl","translation":"Любительский (многоголосый закадровый) (@MUZOBOZ@)","update":"2020-04-25 12:04:08","iframe_src":"//2413.svetacdn.in/si4jsFRrtgrT/movie/39805"},{"id":39797,"title":"Тутси и фальшивка","kp_id":"1323545","imdb_id":"tt11280100","world_art_id":null,"type":"movie","add":"2020-04-24 21:52:00","orig_title":"Tootsies & the Fake","year":"2019-12-05","translations":["Любительский (многоголосый закадровый) (Синема УС)"],"quality":"webdl","translation":"Любительский (многоголосый закадровый) (Синема УС)","update":"2020-04-25 11:22:37","iframe_src":"//2413.svetacdn.in/si4jsFRrtgrT/movie/39797"},{"id":39795,"title":"Поп, Лок-н-Ролл","kp_id":"755087","imdb_id":"tt2336014","world_art_id":null,"type":"movie","add":"2020-04-24 21:40:06","orig_title":"Pop, Lock 'n Roll","year":"2017-09-29","translations":["Любительский (многоголосый закадровый) (Синема УС)"],"quality":"webdl","translation":"Любительский (многоголосый закадровый) (Синема УС)","update":"2020-04-25 11:20:45","iframe_src":"//2413.svetacdn.in/si4jsFRrtgrT/movie/39795"},{"id":39791,"title":"Песнь Орфея","kp_id":"1280228","imdb_id":"tt10533570","world_art_id":null,"type":"movie","add":"2020-04-24 21:31:18","orig_title":"Orpheus' Song","year":"2019-06-23","translations":["Любительский (многоголосый закадровый) (Синема УС)"],"quality":"webdl","translation":"Любительский (многоголосый закадровый) (Синема УС)","update":"2020-04-25 11:18:46","iframe_src":"//2413.svetacdn.in/si4jsFRrtgrT/movie/39791"},{"id":39786,"title":"Свобода","kp_id":"1256277","imdb_id":"tt10199670","world_art_id":null,"type":"movie","add":"2020-04-24 21:23:06","orig_title":"Liberté","year":"2019-05-18","translations":["Любительский (многоголосый закадровый) (Синема УС)"],"quality":"webdl","translation":"Любительский (многоголосый закадровый) (Синема УС)","update":"2020-04-25 11:18:11","iframe_src":"//2413.svetacdn.in/si4jsFRrtgrT/movie/39786"},{"id":39746,"title":"Изо всех сил 2","kp_id":"1321624","imdb_id":"tt11247064","world_art_id":null,"type":"movie","add":"2020-04-23 16:28:09","orig_title":"Full Out 2: You Got This!","year":"2020-02-01","translations":["[EN] Original (English)","Любительский (многоголосый закадровый) (AlphaProject)"],"quality":"webdl","translation":"[EN] Original (English)","update":"2020-04-25 11:19:40","iframe_src":"//2413.svetacdn.in/si4jsFRrtgrT/movie/39746"},{"id":39633,"title":"В этих стенах","kp_id":"1317589","imdb_id":"tt11189596","world_art_id":null,"type":"movie","add":"2020-04-21 04:39:32","orig_title":"Within These Walls","year":"2020-01-01","translations":["Любительский (двухголосый закадровый) (LakeFilms)","[EN] Original (English)","Любительский (многоголосый закадровый) (@MUZOBOZ@)"],"quality":"hdtv","translation":"Любительский (двухголосый закадровый) (LakeFilms)","update":"2020-04-25 16:22:37","iframe_src":"//2413.svetacdn.in/si4jsFRrtgrT/movie/39633"},{"id":39514,"title":"Прослушивание на роль ДжонБене","kp_id":"1008955","imdb_id":"tt6333052","world_art_id":null,"type":"movie","add":"2020-04-18 20:44:25","orig_title":"Casting JonBenet","year":"2017-04-28","translations":["Профессиональный (многоголосый закадровый) (HDrezka Studio)"],"quality":"webdl","translation":"Профессиональный (многоголосый закадровый) (HDrezka Studio)","update":"2020-04-25 12:17:35","iframe_src":"//2413.svetacdn.in/si4jsFRrtgrT/movie/39514"},{"id":36235,"title":"Добро пожаловать в Хоксфорд","kp_id":"634246","imdb_id":"tt2076987","world_art_id":null,"type":"movie","add":"2020-02-13 18:41:28","orig_title":"Welcome to Hoxford: The Fan Film","year":"2011-10-01","translations":["Профессиональный (многоголосый закадровый)"],"quality":"hdtv","translation":"Профессиональный (многоголосый закадровый)","update":"2020-04-25 12:18:59","iframe_src":"//2413.svetacdn.in/si4jsFRrtgrT/movie/36235"},{"id":22887,"title":"Прогулка. Наездница. Родео","kp_id":"1180591","imdb_id":"tt5848416","world_art_id":null,"type":"movie","add":"2019-03-10 17:14:37","orig_title":"Walk. Ride. Rodeo.","year":"2019-03-08","translations":["Профессиональный (многоголосый закадровый) (HDrezka Studio)"],"quality":"webdl","translation":"Профессиональный (многоголосый закадровый) (HDrezka Studio)","update":"2020-04-25 16:25:52","iframe_src":"//2413.svetacdn.in/si4jsFRrtgrT/movie/22887"},{"id":21207,"title":"Где соприкасаются руки","kp_id":"496642","imdb_id":"tt1235187","world_art_id":null,"type":"movie","add":"2019-01-04 00:12:20","orig_title":"Where Hands Touch","year":"2018-09-09","translations":["Любительский (многоголосый закадровый) (Синема УС)","Профессиональный (многоголосый закадровый)","Профессиональный (многоголосый закадровый) (HDrezka Studio)"],"quality":"webdl","translation":"Любительский (многоголосый закадровый) (Синема УС)","update":"2020-04-25 12:11:12","iframe_src":"//2413.svetacdn.in/si4jsFRrtgrT/movie/21207"},{"id":21139,"title":"Белый кролик","kp_id":"1108787","imdb_id":"tt7689950","world_art_id":null,"type":"movie","add":"2019-01-01 17:58:37","orig_title":"White Rabbit","year":"2018-01-19","translations":["Любительский (многоголосый закадровый) (Синема УС)","Профессиональный (многоголосый закадровый) (HDrezka Studio)"],"quality":"webdl","translation":"Любительский (многоголосый закадровый) (Синема УС)","update":"2020-04-25 12:17:43","iframe_src":"//2413.svetacdn.in/si4jsFRrtgrT/movie/21139"},{"id":16149,"title":"Мы забыли даже то, чего не знали","kp_id":"899860","imdb_id":"tt4499572","world_art_id":null,"type":"movie","add":"2018-04-08 21:36:53","orig_title":"We've Forgotten More Than We Ever Knew","year":"2016-08-28","translations":["Любительский (одноголосый закадровый) (Хихикающий доктор)","Профессиональный (многоголосый закадровый) (HDrezka Studio)"],"quality":"webdl","translation":"Любительский (одноголосый закадровый) (Хихикающий доктор)","update":"2020-04-25 12:13:19","iframe_src":"//2413.svetacdn.in/si4jsFRrtgrT/movie/16149"},{"id":15744,"title":"Добро пожаловать, незнакомец","kp_id":"978800","imdb_id":"tt5716280","world_art_id":null,"type":"movie","add":"2018-03-19 21:55:49","orig_title":"Welcome the Stranger","year":"2018-03-20","translations":["Профессиональный (многоголосый закадровый) (iTunes)","Профессиональный (многоголосый закадровый) (HDrezka Studio)"],"quality":"webdl","translation":"Профессиональный (многоголосый закадровый) (iTunes)","update":"2020-04-25 12:13:45","iframe_src":"//2413.svetacdn.in/si4jsFRrtgrT/movie/15744"},{"id":13878,"title":"Где деньги","kp_id":"977810","imdb_id":"tt5716848","world_art_id":null,"type":"movie","add":"2017-10-17 21:26:45","orig_title":"Where's the Money","year":"2017-10-20","translations":["Профессиональный (многоголосый закадровый) (HDrezka Studio)"],"quality":"webdl","translation":"Профессиональный (многоголосый закадровый) (HDrezka Studio)","update":"2020-04-25 16:38:14","iframe_src":"//2413.svetacdn.in/si4jsFRrtgrT/movie/13878"}],"current_page":1211,"first_page_url":"https://videocdn.tv/api/short?limit=100&api_token=X6EwAUfE5M9xbo7y0Bp0aPf3uXxG2KLL&cache31211=31211&page=1","from":121001,"last_page":716,"last_page_url":"https://videocdn.tv/api/short?limit=100&api_token=X6EwAUfE5M9xbo7y0Bp0aPf3uXxG2KLL&cache31211=31211&page=716","next_page_url":null,"path":"https://videocdn.tv/api/short","per_page":100,"prev_page_url":"https://videocdn.tv/api/short?limit=100&api_token=X6EwAUfE5M9xbo7y0Bp0aPf3uXxG2KLL&cache31211=31211&page=1210","to":121020,"total":71587}