{"result":true,"data":[{"id":37003,"title":"День благодарения с Картерами","kp_id":"1310045","imdb_id":"tt11063548","world_art_id":null,"type":"movie","add":"2020-02-26 13:30:13","orig_title":"Thanksgiving with the Carters","year":"2019-11-11","translations":["Любительский (многоголосый закадровый) (Синема УС)"],"quality":"webdl","translation":"Любительский (многоголосый закадровый) (Синема УС)","update":"2020-02-26 20:47:55","iframe_src":"//83.svetacdn.in/PfJ50H0ZBPg3/movie/37003"},{"id":37001,"title":"Черепа 3","kp_id":"80762","imdb_id":"tt0352851","world_art_id":null,"type":"movie","add":"2020-02-26 13:26:11","orig_title":"The Skulls III","year":"2004-03-23","translations":["Профессиональный (двухголосый закадровый)"],"quality":"dvdrip","translation":"Профессиональный (двухголосый закадровый)","update":"2020-02-26 20:48:33","iframe_src":"//83.svetacdn.in/PfJ50H0ZBPg3/movie/37001"},{"id":36999,"title":"Крещение","kp_id":"1340371","imdb_id":"tt11541780","world_art_id":null,"type":"movie","add":"2020-02-26 13:05:43","orig_title":"Botez","year":"2019-12-26","translations":["Оригинальная дорожка"],"quality":"webdl","translation":"Оригинальная дорожка","update":"2020-02-26 20:49:35","iframe_src":"//83.svetacdn.in/PfJ50H0ZBPg3/movie/36999"},{"id":36969,"title":"Миа","kp_id":"1295705","imdb_id":"tt10778964","world_art_id":null,"type":"movie","add":"2020-02-26 08:39:50","orig_title":"Mia","year":"2019-10-31","translations":["Любительский (многоголосый закадровый) (Синема УС)"],"quality":"webdl","translation":"Любительский (многоголосый закадровый) (Синема УС)","update":"2020-02-26 18:24:45","iframe_src":"//83.svetacdn.in/PfJ50H0ZBPg3/movie/36969"},{"id":36968,"title":"Зоинк","kp_id":"1099429","imdb_id":"tt6366268","world_art_id":null,"type":"movie","add":"2020-02-26 08:37:05","orig_title":"Zoink","year":"2017-01-01","translations":["Любительский (многоголосый закадровый) (Синема УС)"],"quality":"webdl","translation":"Любительский (многоголосый закадровый) (Синема УС)","update":"2020-02-26 18:24:36","iframe_src":"//83.svetacdn.in/PfJ50H0ZBPg3/movie/36968"},{"id":36967,"title":"Рецепт Опасности","kp_id":"1201651","imdb_id":"tt9119200","world_art_id":null,"type":"movie","add":"2020-02-26 08:30:41","orig_title":"Fatal Friend Request","year":"2019-05-15","translations":["Любительский (многоголосый закадровый) (Синема УС)"],"quality":"webdl","translation":"Любительский (многоголосый закадровый) (Синема УС)","update":"2020-02-26 18:24:35","iframe_src":"//83.svetacdn.in/PfJ50H0ZBPg3/movie/36967"},{"id":36965,"title":"Война наркокартелей","kp_id":"1282357","imdb_id":"tt10525174","world_art_id":null,"type":"movie","add":"2020-02-26 07:05:04","orig_title":"Narco Soldiers","year":"2019-01-01","translations":["Любительский (многоголосый закадровый) (@MUZOBOZ@)"],"quality":"bd","translation":"Любительский (многоголосый закадровый) (@MUZOBOZ@)","update":"2020-02-26 18:24:35","iframe_src":"//83.svetacdn.in/PfJ50H0ZBPg3/movie/36965"},{"id":36964,"title":"Кровь у порога","kp_id":"1052421","imdb_id":"tt6491296","world_art_id":null,"type":"movie","add":"2020-02-26 07:02:34","orig_title":"The Blood Is at the Doorstep","year":"2017-03-13","translations":["Любительский (многоголосый закадровый) (Синема УС)"],"quality":"webdl","translation":"Любительский (многоголосый закадровый) (Синема УС)","update":"2020-02-26 18:23:31","iframe_src":"//83.svetacdn.in/PfJ50H0ZBPg3/movie/36964"},{"id":36956,"title":"Любовь и предательство","kp_id":"566596","imdb_id":"tt1686782","world_art_id":null,"type":"movie","add":"2020-02-26 06:44:21","orig_title":"Love & Distrust","year":"2010-08-16","translations":["Профессиональный (многоголосый закадровый)"],"quality":"bd","translation":"Профессиональный (многоголосый закадровый)","update":"2020-02-26 16:31:05","iframe_src":"//83.svetacdn.in/PfJ50H0ZBPg3/movie/36956"},{"id":36949,"title":"Чужеродное вторжение","kp_id":"437367","imdb_id":"tt0996979","world_art_id":null,"type":"movie","add":"2020-02-26 06:07:35","orig_title":"Alien Raiders","year":"2008-09-21","translations":["Профессиональный (двухголосый закадровый)"],"quality":"webdl","translation":"Профессиональный (двухголосый закадровый)","update":"2020-02-26 16:30:00","iframe_src":"//83.svetacdn.in/PfJ50H0ZBPg3/movie/36949"},{"id":36948,"title":"Нормальный","kp_id":"23472","imdb_id":"tt0338290","world_art_id":null,"type":"movie","add":"2020-02-26 06:05:00","orig_title":"Normal","year":"2003-01-21","translations":["Профессиональный (многоголосый закадровый)"],"quality":"dvdrip","translation":"Профессиональный (многоголосый закадровый)","update":"2020-02-26 16:29:30","iframe_src":"//83.svetacdn.in/PfJ50H0ZBPg3/movie/36948"},{"id":36947,"title":"Шанс найти свою любовь","kp_id":"432927","imdb_id":"tt1327812","world_art_id":null,"type":"movie","add":"2020-02-26 06:00:39","orig_title":"Taking a Chance on Love","year":"2009-01-31","translations":["Профессиональный (многоголосый закадровый)"],"quality":"sat","translation":"Профессиональный (многоголосый закадровый)","update":"2020-02-26 16:29:10","iframe_src":"//83.svetacdn.in/PfJ50H0ZBPg3/movie/36947"},{"id":36938,"title":"Бесстрашный 3","kp_id":"1069368","imdb_id":"tt7059844","world_art_id":null,"type":"movie","add":"2020-02-25 21:13:31","orig_title":"Dabangg 3","year":"2019-12-20","translations":["Любительский (многоголосый закадровый) (Honey&Haseena)"],"quality":"webdl","translation":"Любительский (многоголосый закадровый) (Honey&Haseena)","update":"2020-02-26 20:50:44","iframe_src":"//83.svetacdn.in/PfJ50H0ZBPg3/movie/36938"},{"id":36921,"title":"Синдром Франкенштейна","kp_id":"457227","imdb_id":"tt1337686","world_art_id":null,"type":"movie","add":"2020-02-25 18:08:21","orig_title":"The Prometheus Project","year":"2010-10-01","translations":["Любительский (двухголосый закадровый)"],"quality":"bd","translation":"Любительский (двухголосый закадровый)","update":"2020-02-26 17:21:21","iframe_src":"//83.svetacdn.in/PfJ50H0ZBPg3/movie/36921"},{"id":36920,"title":"Одиночки","kp_id":"653773","imdb_id":null,"world_art_id":null,"type":"movie","add":"2020-02-25 18:07:04","orig_title":"Одиночки","year":"2011-12-16","translations":["Оригинальная дорожка"],"quality":"sat","translation":"Оригинальная дорожка","update":"2020-02-26 17:21:54","iframe_src":"//83.svetacdn.in/PfJ50H0ZBPg3/movie/36920"},{"id":36919,"title":"Телефонная будка","kp_id":"488041","imdb_id":"tt1558578","world_art_id":null,"type":"movie","add":"2020-02-25 18:05:17","orig_title":"Knock Out","year":"2010-10-15","translations":["Любительский (многоголосый закадровый)"],"quality":"dvdrip","translation":"Любительский (многоголосый закадровый)","update":"2020-02-26 17:22:39","iframe_src":"//83.svetacdn.in/PfJ50H0ZBPg3/movie/36919"},{"id":36918,"title":"Здравствуй, папа","kp_id":"742524","imdb_id":"tt2751576","world_art_id":null,"type":"movie","add":"2020-02-25 18:03:54","orig_title":"Buongiorno papà","year":"2013-03-05","translations":["Любительский (одноголосый закадровый)"],"quality":"dvdrip","translation":"Любительский (одноголосый закадровый)","update":"2020-02-26 17:23:21","iframe_src":"//83.svetacdn.in/PfJ50H0ZBPg3/movie/36918"},{"id":36917,"title":"Бессердечный","kp_id":"412290","imdb_id":"tt1220214","world_art_id":null,"type":"movie","add":"2020-02-25 18:02:27","orig_title":"Heartless","year":"2009-08-31","translations":["Профессиональный (двухголосый закадровый)"],"quality":"hdrip","translation":"Профессиональный (двухголосый закадровый)","update":"2020-02-26 17:23:47","iframe_src":"//83.svetacdn.in/PfJ50H0ZBPg3/movie/36917"},{"id":36916,"title":"Ад в Тихом океане","kp_id":"18001","imdb_id":"tt0063056","world_art_id":null,"type":"movie","add":"2020-02-25 18:01:08","orig_title":"Hell in the Pacific","year":"1968-12-18","translations":["Профессиональный (многоголосый закадровый) (НТВ)"],"quality":"bd","translation":"Профессиональный (многоголосый закадровый) (НТВ)","update":"2020-02-26 17:26:20","iframe_src":"//83.svetacdn.in/PfJ50H0ZBPg3/movie/36916"},{"id":36834,"title":"Пропавшая Меган","kp_id":"395138","imdb_id":"tt1087461","world_art_id":null,"type":"movie","add":"2020-02-24 09:31:25","orig_title":"Megan Is Missing","year":"2012-11-02","translations":["Любительский (одноголосый закадровый) (datynet | Агапов Антон)"],"quality":"dvdrip","translation":"Любительский (одноголосый закадровый) (datynet | Агапов Антон)","update":"2020-02-26 16:33:15","iframe_src":"//83.svetacdn.in/PfJ50H0ZBPg3/movie/36834"}],"current_page":940,"first_page_url":"https://videocdn.tv/api/short?limit=100&api_token=RgFQdUIR2dRmwv8iYa5SnFNgnw3vpjKj&cache3940=3940&page=1","from":93901,"last_page":645,"last_page_url":"https://videocdn.tv/api/short?limit=100&api_token=RgFQdUIR2dRmwv8iYa5SnFNgnw3vpjKj&cache3940=3940&page=645","next_page_url":null,"path":"https://videocdn.tv/api/short","per_page":100,"prev_page_url":"https://videocdn.tv/api/short?limit=100&api_token=RgFQdUIR2dRmwv8iYa5SnFNgnw3vpjKj&cache3940=3940&page=939","to":93920,"total":64442}