{"result":true,"data":[{"id":48033,"title":"Приключения Кита","kp_id":"28413","imdb_id":"tt0071720","world_art_id":null,"type":"movie","add":"2021-02-18 07:17:59","orig_title":"Kit & Co.","year":"1974-12-15","translations":["Любительский (одноголосый закадровый)"],"quality":"dvdrip","translation":"Любительский (одноголосый закадровый)","update":"2021-02-18 09:28:27","iframe_src":"//7923.svetacdn.in/IAF0wWTdNYZm/movie/48033"},{"id":48031,"title":"Хвастливый мышонок","kp_id":"432674","imdb_id":"tt6115022","world_art_id":null,"type":"movie","add":"2021-02-18 06:32:32","orig_title":"Khvastliviy myshonok","year":"1983-01-01","translations":["Оригинальная дорожка"],"quality":"webdl","translation":"Оригинальная дорожка","update":"2021-02-18 09:30:11","iframe_src":"//7923.svetacdn.in/IAF0wWTdNYZm/movie/48031"},{"id":48027,"title":"Береги свою косынку, Татьяна","kp_id":"105027","imdb_id":"tt0110832","world_art_id":null,"type":"movie","add":"2021-02-18 05:31:38","orig_title":"Pidä huivista kiinni, Tatjana","year":"1994-01-14","translations":["Профессиональный (многоголосый закадровый)"],"quality":"bd","translation":"Профессиональный (многоголосый закадровый)","update":"2021-02-18 09:14:27","iframe_src":"//7923.svetacdn.in/IAF0wWTdNYZm/movie/48027"},{"id":47957,"title":"Шарнохой — желтый пес","kp_id":"1257543","imdb_id":"tt9879106","world_art_id":null,"type":"movie","add":"2021-02-15 20:11:25","orig_title":"Sharnokhoy - zhyoltyy pyos","year":"2019-04-21","translations":["Оригинальная дорожка","Оригинальная дорожка"],"quality":"webdl","translation":"Оригинальная дорожка","update":"2021-02-18 09:10:48","iframe_src":"//7923.svetacdn.in/IAF0wWTdNYZm/movie/47957"},{"id":47478,"title":"Корпорация Ad Libitum","kp_id":"1101306","imdb_id":"tt13958700","world_art_id":null,"type":"movie","add":"2021-01-28 09:08:31","orig_title":"Korporatsiya Ad Libitum","year":"2021-01-21","translations":["Оригинальная дорожка","Оригинальная дорожка"],"quality":"ts","translation":"Оригинальная дорожка","update":"2021-02-18 09:23:58","iframe_src":"//7923.svetacdn.in/IAF0wWTdNYZm/movie/47478"},{"id":47325,"title":"Псих-расчленитель","kp_id":"1321188","imdb_id":"tt11252440","world_art_id":null,"type":"movie","add":"2021-01-22 15:17:12","orig_title":"Psycho Goreman","year":"2020-09-10","translations":["Original (English)","Любительский (многоголосый закадровый) (Синема УС)","Профессиональный (многоголосый закадровый) (Good People)"],"quality":"webdl","translation":"Original (English)","update":"2021-02-18 09:17:23","iframe_src":"//7923.svetacdn.in/IAF0wWTdNYZm/movie/47325"},{"id":46052,"title":"Серебряные коньки","kp_id":"1225587","imdb_id":"tt10525672","world_art_id":null,"type":"movie","add":"2020-12-14 08:10:05","orig_title":"Serebryanye konki","year":"2020-10-11","translations":["Оригинальная дорожка"],"quality":"webdl","translation":"Оригинальная дорожка","update":"2021-02-18 10:33:09","iframe_src":"//7923.svetacdn.in/IAF0wWTdNYZm/movie/46052"},{"id":45061,"title":"Про козла","kp_id":"632460","imdb_id":"tt6668932","world_art_id":null,"type":"movie","add":"2020-11-05 19:04:03","orig_title":"Pro kozla","year":"1960-01-01","translations":["Оригинальная дорожка","Оригинальная дорожка"],"quality":"dvdrip","translation":"Оригинальная дорожка","update":"2021-02-18 09:08:17","iframe_src":"//7923.svetacdn.in/IAF0wWTdNYZm/movie/45061"},{"id":44169,"title":"Кто меня толкнул?","kp_id":"1117948","imdb_id":null,"world_art_id":null,"type":"movie","add":"2020-10-06 17:24:39","orig_title":"Кто меня толкнул?","year":"1973-01-01","translations":["Оригинальная дорожка"],"quality":"webdl","translation":"Оригинальная дорожка","update":"2021-02-18 10:30:44","iframe_src":"//7923.svetacdn.in/IAF0wWTdNYZm/movie/44169"},{"id":43718,"title":"Тайна запечного сверчка","kp_id":"679861","imdb_id":null,"world_art_id":null,"type":"movie","add":"2020-09-21 17:22:17","orig_title":"Тайна запечного сверчка","year":"1977-01-01","translations":["Оригинальная дорожка","Оригинальная дорожка"],"quality":"sat","translation":"Оригинальная дорожка","update":"2021-02-18 09:09:17","iframe_src":"//7923.svetacdn.in/IAF0wWTdNYZm/movie/43718"},{"id":43400,"title":"Говорящие руки Траванкора","kp_id":"1359039","imdb_id":null,"world_art_id":null,"type":"movie","add":"2020-09-10 19:05:39","orig_title":"Говорящие руки Траванкора","year":"1981-01-01","translations":["Оригинальная дорожка","Оригинальная дорожка"],"quality":"webdl","translation":"Оригинальная дорожка","update":"2021-02-18 09:06:23","iframe_src":"//7923.svetacdn.in/IAF0wWTdNYZm/movie/43400"},{"id":37464,"title":"Бомарше","kp_id":"37627","imdb_id":"tt0115638","world_art_id":null,"type":"movie","add":"2020-03-05 19:53:38","orig_title":"Beaumarchais l'insolent","year":"1996-03-20","translations":["Профессиональный (многоголосый закадровый) (Нота)"],"quality":"hdtv","translation":"Профессиональный (многоголосый закадровый) (Нота)","update":"2021-02-18 09:31:34","iframe_src":"//7923.svetacdn.in/IAF0wWTdNYZm/movie/37464"},{"id":6080,"title":"Гитлерюгенд","kp_id":null,"imdb_id":"tt7746692","world_art_id":null,"type":"serial","add":"2019-12-19 11:06:50","orig_title":"Hitler Youth","year":"2017-11-21","translations":["Полное дублирование"],"seasons_count":1,"episodes_count":2,"episodes":2,"update":"2019-12-19 12:34:06","iframe_src":"//7923.svetacdn.in/IAF0wWTdNYZm/tv-series/6080"},{"id":6075,"title":"Богач, бедняк...","kp_id":"77250","imdb_id":"tt0173684","world_art_id":null,"type":"serial","add":"2019-12-18 08:33:28","orig_title":"Bogach, bednyak...","year":"1982-06-06","translations":["Оригинальная дорожка"],"seasons_count":1,"episodes_count":4,"episodes":4,"update":"2019-12-18 11:17:17","iframe_src":"//7923.svetacdn.in/IAF0wWTdNYZm/tv-series/6075"},{"id":6074,"title":"Мираж","kp_id":"77281","imdb_id":"tt0254913","world_art_id":null,"type":"serial","add":"2019-12-18 08:24:01","orig_title":"Mirazh","year":"1983-08-10","translations":["Оригинальная дорожка"],"seasons_count":1,"episodes_count":3,"episodes":3,"update":"2019-12-18 11:14:54","iframe_src":"//7923.svetacdn.in/IAF0wWTdNYZm/tv-series/6074"},{"id":6073,"title":"Овод","kp_id":"102722","imdb_id":"tt0230602","world_art_id":null,"type":"serial","add":"2019-12-18 08:17:34","orig_title":"Ovod","year":"1980-11-03","translations":["Оригинальная дорожка"],"seasons_count":1,"episodes_count":3,"episodes":3,"update":"2019-12-18 11:44:40","iframe_src":"//7923.svetacdn.in/IAF0wWTdNYZm/tv-series/6073"},{"id":6072,"title":"Рафферти","kp_id":"94196","imdb_id":"tt0080264","world_art_id":null,"type":"serial","add":"2019-12-18 07:28:24","orig_title":"Rafferty","year":"1980-11-19","translations":["Оригинальная дорожка"],"seasons_count":1,"episodes_count":3,"episodes":3,"update":"2019-12-18 09:48:44","iframe_src":"//7923.svetacdn.in/IAF0wWTdNYZm/tv-series/6072"},{"id":6071,"title":"Вторжение","kp_id":"94091","imdb_id":"tt0118452","world_art_id":null,"type":"serial","add":"2019-12-18 05:42:37","orig_title":"Invasion","year":"1997-01-01","translations":["Профессиональный (многоголосый закадровый)"],"seasons_count":1,"episodes_count":2,"episodes":2,"update":"2019-12-18 06:39:04","iframe_src":"//7923.svetacdn.in/IAF0wWTdNYZm/tv-series/6071"},{"id":6070,"title":"Непутёвая учёба","kp_id":"701734","imdb_id":"tt2337840","world_art_id":null,"type":"serial","add":"2019-12-17 17:10:46","orig_title":"Bad Education","year":"2012-08-14","translations":["Профессиональный (многоголосый закадровый) (ShowJet)","Любительский (двухголосый закадровый) (SNK-TV)"],"seasons_count":3,"episodes_count":19,"episodes":6,"update":"2019-12-18 18:23:00","iframe_src":"//7923.svetacdn.in/IAF0wWTdNYZm/tv-series/6070"},{"id":6067,"title":"Анималия","kp_id":"628949","imdb_id":"tt0887305","world_art_id":null,"type":"serial","add":"2019-12-17 08:52:36","orig_title":"Animalia","year":"2007-11-11","translations":["Полное дублирование"],"seasons_count":2,"episodes_count":40,"episodes":22,"update":"2019-12-18 05:25:38","iframe_src":"//7923.svetacdn.in/IAF0wWTdNYZm/tv-series/6067"},{"id":6065,"title":"Старость – не радость","kp_id":"702876","imdb_id":"tt2342652","world_art_id":null,"type":"serial","add":"2019-12-16 21:22:01","orig_title":"Getting On","year":"2013-11-24","translations":["Профессиональный (многоголосый закадровый) (АРК-ТВ Studio)","Профессиональный (многоголосый закадровый) (Amedia)"],"seasons_count":3,"episodes_count":18,"episodes":6,"update":"2019-12-18 12:41:35","iframe_src":"//7923.svetacdn.in/IAF0wWTdNYZm/tv-series/6065"},{"id":6059,"title":"Братья Вентура","kp_id":"281897","imdb_id":"tt0417373","world_art_id":null,"type":"serial","add":"2019-12-16 13:01:45","orig_title":"The Venture Bros.","year":"2004-08-07","translations":["Original (English)","Профессиональный (многоголосый закадровый) (2x2)","Любительский (одноголосый закадровый) (VoicePower)"],"seasons_count":7,"episodes_count":85,"episodes":10,"update":"2019-12-17 20:20:47","iframe_src":"//7923.svetacdn.in/IAF0wWTdNYZm/tv-series/6059"},{"id":6048,"title":"Девушка с персиками","kp_id":"1112470","imdb_id":null,"world_art_id":null,"type":"serial","add":"2019-12-14 13:26:53","orig_title":"Девушка с персиками","year":"2017-12-15","translations":["Оригинальная дорожка"],"seasons_count":1,"episodes_count":4,"episodes":4,"update":"2019-12-18 11:43:16","iframe_src":"//7923.svetacdn.in/IAF0wWTdNYZm/tv-series/6048"},{"id":6047,"title":"Заложница","kp_id":"1045732","imdb_id":null,"world_art_id":null,"type":"serial","add":"2019-12-14 13:24:51","orig_title":"Заложница","year":"2017-05-13","translations":["Оригинальная дорожка"],"seasons_count":1,"episodes_count":4,"episodes":4,"update":"2019-12-18 11:41:13","iframe_src":"//7923.svetacdn.in/IAF0wWTdNYZm/tv-series/6047"},{"id":5980,"title":"Рождество с семейкой Муди","kp_id":"799736","imdb_id":"tt3205334","world_art_id":null,"type":"serial","add":"2019-12-09 14:15:36","orig_title":"The Moodys","year":"2019-12-04","translations":["Профессиональный (многоголосый закадровый) (NewStudio)"],"seasons_count":1,"episodes_count":6,"episodes":6,"update":"2019-12-19 11:47:51","iframe_src":"//7923.svetacdn.in/IAF0wWTdNYZm/tv-series/5980"},{"id":5955,"title":"Бесстыдники","kp_id":"405520","imdb_id":"tt0377260","world_art_id":null,"type":"serial","add":"2019-12-05 17:59:58","orig_title":"Shameless","year":"2004-01-13","translations":["Профессиональный (многоголосый закадровый) (AlexFilm)","Профессиональный (многоголосый закадровый) (FocusStudio)"],"seasons_count":11,"episodes_count":139,"episodes":14,"update":"2019-12-18 18:03:55","iframe_src":"//7923.svetacdn.in/IAF0wWTdNYZm/tv-series/5955"},{"id":5549,"title":"Магазин уценённых товаров «Чхоллима»","kp_id":"1267355","imdb_id":"tt10850864","world_art_id":null,"type":"serial","add":"2019-10-28 09:59:18","orig_title":"Ssamnida Cheollimamateu","year":"2019-09-20","translations":["Любительский (многоголосый закадровый) (Voice Project Studio)","Любительский (многоголосый закадровый)"],"seasons_count":1,"episodes_count":12,"episodes":12,"update":"2019-12-18 16:40:22","iframe_src":"//7923.svetacdn.in/IAF0wWTdNYZm/tv-series/5549"},{"id":5512,"title":"Современная любовь","kp_id":"1163856","imdb_id":"tt8543390","world_art_id":null,"type":"serial","add":"2019-10-23 11:01:15","orig_title":"Modern Love","year":"2019-10-18","translations":["Профессиональный (двухголосый закадровый) (Gears Media)","Профессиональный (многоголосый закадровый) (TVShows)"],"seasons_count":1,"episodes_count":8,"episodes":8,"update":"2019-12-18 18:13:47","iframe_src":"//7923.svetacdn.in/IAF0wWTdNYZm/tv-series/5512"},{"id":24884,"title":"Как утёнок-музыкант стал футболистом","kp_id":"574071","imdb_id":"tt2201144","world_art_id":null,"type":"movie","add":"2019-04-19 09:27:14","orig_title":"Kak utyonok-muzykant stal futbolistom","year":"1978-01-01","translations":["Оригинальная дорожка","Оригинальная дорожка"],"quality":"dvdrip","translation":"Оригинальная дорожка","update":"2021-02-18 09:07:10","iframe_src":"//7923.svetacdn.in/IAF0wWTdNYZm/movie/24884"},{"id":24798,"title":"Ночь в баре Маккула","kp_id":"773","imdb_id":"tt0203755","world_art_id":null,"type":"movie","add":"2019-04-17 22:06:54","orig_title":"One Night at McCool's","year":"2001-04-19","translations":["Профессиональный (многоголосый закадровый)","Авторский (одноголосый закадровый) (Карповский Антон)","Original (English)","Профессиональный (многоголосый закадровый)","Профессиональный (многоголосый закадровый) (НТВ)"],"quality":"webdl","translation":"Профессиональный (многоголосый закадровый)","update":"2021-02-18 10:44:32","iframe_src":"//7923.svetacdn.in/IAF0wWTdNYZm/movie/24798"},{"id":2744,"title":"Последняя жертва Анны","kp_id":"893376","imdb_id":"tt5033976","world_art_id":null,"type":"serial","add":"2018-06-05 10:41:12","orig_title":"Poslednyaya zhertva Anny","year":"2015-03-28","translations":["Оригинальная дорожка"],"seasons_count":1,"episodes_count":2,"episodes":2,"update":"2019-12-18 11:44:27","iframe_src":"//7923.svetacdn.in/IAF0wWTdNYZm/tv-series/2744"},{"id":2441,"title":"Красная дверь","kp_id":"1110987","imdb_id":"tt6134022","world_art_id":null,"type":"serial","add":"2018-04-22 00:02:02","orig_title":"La Porta Rossa","year":"2017-02-22","translations":["Любительский (многоголосый закадровый) (ColdFilm)","Профессиональный (двухголосый закадровый) (ViruseProject)"],"seasons_count":2,"episodes_count":18,"episodes":6,"update":"2019-12-17 21:33:02","iframe_src":"//7923.svetacdn.in/IAF0wWTdNYZm/tv-series/2441"},{"id":2139,"title":"Государственный секретарь","kp_id":"823674","imdb_id":"tt3501074","world_art_id":null,"type":"serial","add":"2018-02-25 23:07:20","orig_title":"Madam Secretary","year":"2014-09-21","translations":["Любительский (двухголосый закадровый) (Kiitos)","Профессиональный (многоголосый закадровый) (BaibaKo)","Профессиональный (многоголосый закадровый) (TVShows)"],"seasons_count":6,"episodes_count":96,"episodes":10,"update":"2019-12-17 21:34:16","iframe_src":"//7923.svetacdn.in/IAF0wWTdNYZm/tv-series/2139"},{"id":1940,"title":"4 квартала","kp_id":"1111924","imdb_id":"tt5754602","world_art_id":null,"type":"serial","add":"2018-01-10 13:33:27","orig_title":"4 Blocks","year":"2017-05-08","translations":["Любительский (двухголосый закадровый) (Sunshine Studio)","Профессиональный (многоголосый закадровый) (BaibaKo)","Профессиональный (двухголосый закадровый) (ViruseProject)","Профессиональный (многоголосый закадровый) (ViruseProject)","Любительский (двухголосый закадровый)"],"seasons_count":3,"episodes_count":19,"episodes":6,"update":"2019-12-17 21:36:20","iframe_src":"//7923.svetacdn.in/IAF0wWTdNYZm/tv-series/1940"},{"id":7844,"title":"Любовь к собакам обязательна","kp_id":"84013","imdb_id":"tt0417001","world_art_id":null,"type":"movie","add":"2016-12-04 08:36:27","orig_title":"Must Love Dogs","year":"2005-07-21","translations":["Полное дублирование","Полное дублирование (Мосфильм)","Original (English)","Профессиональный (двухголосый закадровый)"],"quality":"webdl","translation":"Полное дублирование","update":"2021-02-18 10:48:50","iframe_src":"//7923.svetacdn.in/IAF0wWTdNYZm/movie/7844"},{"id":5228,"title":"Повелитель мух","kp_id":"28191","imdb_id":"tt0100054","world_art_id":null,"type":"movie","add":"2016-09-13 09:07:17","orig_title":"Lord of the Flies","year":"1990-03-16","translations":["Профессиональный (многоголосый закадровый)","Авторский (одноголосый закадровый) (Михалёв Алексей)","Original (English)","Профессиональный (двухголосый закадровый) (SDI Media)","Профессиональный (многоголосый закадровый)"],"quality":"bd","translation":"Профессиональный (многоголосый закадровый)","update":"2021-02-18 10:38:28","iframe_src":"//7923.svetacdn.in/IAF0wWTdNYZm/movie/5228"},{"id":4211,"title":"Спайдервик: Хроники","kp_id":"81926","imdb_id":"tt0416236","world_art_id":null,"type":"movie","add":"2016-07-28 06:06:18","orig_title":"The Spiderwick Chronicles","year":"2008-01-31","translations":["Полное дублирование","Авторский (одноголосый закадровый) (Немахов Юрий)","Полное дублирование","Original (English)","Профессиональный (многоголосый закадровый) (LostFilm)"],"quality":"bd","translation":"Полное дублирование","update":"2021-02-18 11:12:42","iframe_src":"//7923.svetacdn.in/IAF0wWTdNYZm/movie/4211"},{"id":3062,"title":"Телохранитель","kp_id":"8143","imdb_id":"tt0103855","world_art_id":null,"type":"movie","add":"2016-06-09 17:46:27","orig_title":"The Bodyguard","year":"1992-11-25","translations":["Полное дублирование","Авторский (одноголосый закадровый) (Гаврилов Андрей)","Авторский (одноголосый закадровый) (Горчаков Василий)","Авторский (одноголосый закадровый) (Живов Юрий)","Полное дублирование","Original (English)","Профессиональный (двухголосый закадровый) (НТВ)"],"quality":"bd","translation":"Полное дублирование","update":"2021-02-18 12:01:32","iframe_src":"//7923.svetacdn.in/IAF0wWTdNYZm/movie/3062"},{"id":2334,"title":"Мужской стриптиз","kp_id":"7732","imdb_id":"tt0119164","world_art_id":null,"type":"movie","add":"2016-05-19 05:39:38","orig_title":"The Full Monty","year":"1997-08-13","translations":["Профессиональный (двухголосый закадровый)","Original (English)","Авторский (одноголосый закадровый) (Есарев Дмитрий)","Авторский (одноголосый закадровый) (Карповский Антон)","Original (English)","Профессиональный (двухголосый закадровый) (Lazer Video)","Профессиональный (двухголосый закадровый) (Премьер Видео Фильм)"],"quality":"bd","translation":"Профессиональный (двухголосый закадровый)","update":"2021-02-18 12:10:18","iframe_src":"//7923.svetacdn.in/IAF0wWTdNYZm/movie/2334"},{"id":1362,"title":"Ультиматум Борна","kp_id":"87672","imdb_id":"tt0440963","world_art_id":null,"type":"movie","add":"2016-04-20 22:30:32","orig_title":"The Bourne Ultimatum","year":"2007-07-25","translations":["Полное дублирование","Original (English)","Авторский (одноголосый закадровый) (Гаврилов Андрей)","Полное дублирование","Original (English)","Профессиональный (двухголосый закадровый) (Гланц + Королёва)"],"quality":"bd","translation":"Полное дублирование","update":"2021-02-18 10:59:52","iframe_src":"//7923.svetacdn.in/IAF0wWTdNYZm/movie/1362"}],"current_page":318,"first_page_url":"https://videocdn.tv/api/short?limit=100&api_token=6Onb1W1alEUrBcKJZD3GoKBbWyAl2uG2&cache3318=3318&page=1","from":31701,"last_page":645,"last_page_url":"https://videocdn.tv/api/short?limit=100&api_token=6Onb1W1alEUrBcKJZD3GoKBbWyAl2uG2&cache3318=3318&page=645","next_page_url":"https://videocdn.tv/api/short?limit=100&api_token=6Onb1W1alEUrBcKJZD3GoKBbWyAl2uG2&cache3318=3318&page=319","path":"https://videocdn.tv/api/short","per_page":100,"prev_page_url":"https://videocdn.tv/api/short?limit=100&api_token=6Onb1W1alEUrBcKJZD3GoKBbWyAl2uG2&cache3318=3318&page=317","to":31740,"total":64471}