{"result":true,"data":[{"id":38906,"title":"Эскадрилья 303. Подлинная история","kp_id":"966220","imdb_id":"tt5475734","world_art_id":null,"type":"movie","add":"2020-04-05 03:24:14","orig_title":"Dywizjon 303","year":"2018-08-31","translations":["Любительский (многоголосый закадровый) (Синема УС)"],"quality":"hdrip","translation":"Любительский (многоголосый закадровый) (Синема УС)","update":"2020-04-05 12:22:35","iframe_src":"//83.svetacdn.in/PfJ50H0ZBPg3/movie/38906"},{"id":38902,"title":"Клевер","kp_id":"1133833","imdb_id":"tt7801350","world_art_id":null,"type":"movie","add":"2020-04-04 21:01:12","orig_title":"Clover","year":"2020-04-03","translations":["Любительский (многоголосый закадровый) (@MUZOBOZ@)"],"quality":"webdl","translation":"Любительский (многоголосый закадровый) (@MUZOBOZ@)","update":"2020-04-05 07:01:01","iframe_src":"//83.svetacdn.in/PfJ50H0ZBPg3/movie/38902"},{"id":38900,"title":"Дом мечты убийцы","kp_id":"1355277","imdb_id":"tt11922698","world_art_id":null,"type":"movie","add":"2020-04-04 14:16:20","orig_title":"Killer Dream Home","year":"2020-03-22","translations":["Любительский (многоголосый закадровый) (AlphaProject)"],"quality":"hdtv","translation":"Любительский (многоголосый закадровый) (AlphaProject)","update":"2020-04-05 04:12:17","iframe_src":"//83.svetacdn.in/PfJ50H0ZBPg3/movie/38900"},{"id":38898,"title":"Аллергия на цветы","kp_id":"963684","imdb_id":"tt5476094","world_art_id":null,"type":"movie","add":"2020-04-04 14:12:42","orig_title":"Allergic to Flowers","year":"2017-02-14","translations":["Любительский (многоголосый закадровый) (Синема УС)"],"quality":"webdl","translation":"Любительский (многоголосый закадровый) (Синема УС)","update":"2020-04-05 04:13:11","iframe_src":"//83.svetacdn.in/PfJ50H0ZBPg3/movie/38898"},{"id":38897,"title":"Продажа","kp_id":"1176550","imdb_id":"tt8739582","world_art_id":null,"type":"movie","add":"2020-04-04 14:10:53","orig_title":"Sell By","year":"2019-05-24","translations":["Любительский (многоголосый закадровый) (Синема УС)"],"quality":"webdl","translation":"Любительский (многоголосый закадровый) (Синема УС)","update":"2020-04-04 17:11:17","iframe_src":"//83.svetacdn.in/PfJ50H0ZBPg3/movie/38897"},{"id":38894,"title":"Бык","kp_id":"1246174","imdb_id":"tt10008784","world_art_id":null,"type":"movie","add":"2020-04-04 05:25:59","orig_title":"Bull","year":"2019-05-15","translations":["Профессиональный (многоголосый закадровый) (iTunes)"],"quality":"webdl","translation":"Профессиональный (многоголосый закадровый) (iTunes)","update":"2020-04-04 10:43:42","iframe_src":"//83.svetacdn.in/PfJ50H0ZBPg3/movie/38894"},{"id":38866,"title":"Русалки","kp_id":"95622","imdb_id":"tt0340842","world_art_id":null,"type":"movie","add":"2020-04-03 20:50:08","orig_title":"Mermaids","year":"2003-11-15","translations":["Профессиональный (двухголосый закадровый)"],"quality":"dvdrip","translation":"Профессиональный (двухголосый закадровый)","update":"2020-04-04 10:46:58","iframe_src":"//83.svetacdn.in/PfJ50H0ZBPg3/movie/38866"},{"id":38863,"title":"Десять заповедей","kp_id":"279612","imdb_id":"tt0955411","world_art_id":null,"type":"movie","add":"2020-04-03 20:22:20","orig_title":"The Ten Commandments","year":"2007-10-19","translations":["Профессиональный (многоголосый закадровый)"],"quality":"dvdrip","translation":"Профессиональный (многоголосый закадровый)","update":"2020-04-04 10:48:04","iframe_src":"//83.svetacdn.in/PfJ50H0ZBPg3/movie/38863"},{"id":38862,"title":"Бухта охотника 2: Одержимость хищника","kp_id":"1273932","imdb_id":"tt7535290","world_art_id":null,"type":"movie","add":"2020-04-03 19:53:06","orig_title":"Stalker's Prey 2","year":"2020-03-21","translations":["Любительский (многоголосый закадровый) (Синема УС)"],"quality":"hdtv","translation":"Любительский (многоголосый закадровый) (Синема УС)","update":"2020-04-04 06:06:25","iframe_src":"//83.svetacdn.in/PfJ50H0ZBPg3/movie/38862"},{"id":38859,"title":"Стряхни Оковы","kp_id":"1118900","imdb_id":"tt7945596","world_art_id":null,"type":"movie","add":"2020-04-03 19:43:24","orig_title":"Sacudete Las Penas","year":"2018-04-27","translations":["Любительский (многоголосый закадровый) (Синема УС)"],"quality":"webdl","translation":"Любительский (многоголосый закадровый) (Синема УС)","update":"2020-04-04 05:57:23","iframe_src":"//83.svetacdn.in/PfJ50H0ZBPg3/movie/38859"},{"id":38854,"title":"Не в форме","kp_id":"1115506","imdb_id":null,"world_art_id":null,"type":"movie","add":"2020-04-03 17:07:59","orig_title":"Ne v forme","year":"2018-10-19","translations":["Оригинальная дорожка"],"quality":"webdl","translation":"Оригинальная дорожка","update":"2020-04-05 12:28:05","iframe_src":"//83.svetacdn.in/PfJ50H0ZBPg3/movie/38854"},{"id":38845,"title":"От чистого сердца","kp_id":"900131","imdb_id":"tt4433970","world_art_id":null,"type":"movie","add":"2020-04-03 04:13:01","orig_title":"Matters of the Heart","year":"2017-08-09","translations":["Профессиональный (многоголосый закадровый) (FOX)"],"quality":"hdtv","translation":"Профессиональный (многоголосый закадровый) (FOX)","update":"2020-04-04 17:13:32","iframe_src":"//83.svetacdn.in/PfJ50H0ZBPg3/movie/38845"},{"id":38793,"title":"Свет от света","kp_id":"1217432","imdb_id":"tt9358160","world_art_id":null,"type":"movie","add":"2020-04-01 23:11:01","orig_title":"Light from Light","year":"2019-01-28","translations":["Любительский (многоголосый закадровый) (AlphaProject)"],"quality":"webdl","translation":"Любительский (многоголосый закадровый) (AlphaProject)","update":"2020-04-04 08:12:41","iframe_src":"//83.svetacdn.in/PfJ50H0ZBPg3/movie/38793"},{"id":38791,"title":"Вторая мишень","kp_id":null,"imdb_id":"tt10930912","world_art_id":null,"type":"movie","add":"2020-04-01 22:19:59","orig_title":"The Second Target","year":"2019-09-06","translations":["Любительский (многоголосый закадровый) (Синема УС)"],"quality":"webdl","translation":"Любительский (многоголосый закадровый) (Синема УС)","update":"2020-04-04 08:13:27","iframe_src":"//83.svetacdn.in/PfJ50H0ZBPg3/movie/38791"},{"id":38730,"title":"Погибель","kp_id":"1263580","imdb_id":"tt10307440","world_art_id":null,"type":"movie","add":"2020-03-31 13:16:16","orig_title":"Jusqu'au déclin","year":"2020-02-27","translations":["Любительский (многоголосый закадровый) (@MUZOBOZ@)","Любительский (одноголосый закадровый)  (zamez | Замез Вячеслав)"],"quality":"webdl","translation":"Любительский (многоголосый закадровый) (@MUZOBOZ@)","update":"2020-04-04 10:44:02","iframe_src":"//83.svetacdn.in/PfJ50H0ZBPg3/movie/38730"},{"id":37981,"title":"Хороший доктор","kp_id":"1312839","imdb_id":"tt11013572","world_art_id":null,"type":"movie","add":"2020-03-14 20:03:36","orig_title":"Docteur?","year":"2019-10-23","translations":["Профессиональный (многоголосый закадровый) (iTunes)"],"quality":"webdl","translation":"Профессиональный (многоголосый закадровый) (iTunes)","update":"2020-04-04 09:18:28","iframe_src":"//83.svetacdn.in/PfJ50H0ZBPg3/movie/37981"},{"id":36775,"title":"Лёд 2","kp_id":"1227963","imdb_id":null,"world_art_id":null,"type":"movie","add":"2020-02-22 20:20:31","orig_title":"Лёд 2","year":"2020-02-14","translations":["Оригинальная дорожка"],"quality":"webdl","translation":"Оригинальная дорожка","update":"2020-04-05 12:22:14","iframe_src":"//83.svetacdn.in/PfJ50H0ZBPg3/movie/36775"},{"id":32548,"title":"Китайский лётчик","kp_id":"1227164","imdb_id":"tt10218664","world_art_id":null,"type":"movie","add":"2019-10-31 20:17:05","orig_title":"Zhong guo ji zhang","year":"2019-09-24","translations":["Любительский (многоголосый закадровый) (Колобок)","Любительский (двухголосый закадровый) (DeadSno & den904)"],"quality":"webdl","translation":"Любительский (многоголосый закадровый) (Колобок)","update":"2020-04-04 10:44:22","iframe_src":"//83.svetacdn.in/PfJ50H0ZBPg3/movie/32548"},{"id":17779,"title":"Убийца 2. Против всех","kp_id":"938461","imdb_id":"tt5052474","world_art_id":null,"type":"movie","add":"2018-07-18 12:56:39","orig_title":"Sicario 2: Soldado","year":"2018-06-27","translations":["Любительский (многоголосый закадровый) (@MUZOBOZ@)","Полное дублирование","Любительский (одноголосый закадровый) (BadBajo)","Original (English)","Профессиональный (многоголосый закадровый) (HDrezka Studio)"],"quality":"webdl","translation":"Любительский (многоголосый закадровый) (@MUZOBOZ@)","update":"2020-04-04 08:08:07","iframe_src":"//83.svetacdn.in/PfJ50H0ZBPg3/movie/17779"},{"id":2724,"title":"Пока я не исчезну","kp_id":"780152","imdb_id":"tt3060492","world_art_id":null,"type":"movie","add":"2016-05-30 21:37:28","orig_title":"Before I Disappear","year":"2014-03-10","translations":["Любительский (одноголосый закадровый)","Профессиональный (многоголосый закадровый) (FocusStudio)"],"quality":"webdl","translation":"Любительский (одноголосый закадровый)","update":"2020-04-05 12:25:44","iframe_src":"//83.svetacdn.in/PfJ50H0ZBPg3/movie/2724"}],"current_page":795,"first_page_url":"https://videocdn.tv/api/short?limit=100&api_token=RgFQdUIR2dRmwv8iYa5SnFNgnw3vpjKj&cache3795=3795&page=1","from":79401,"last_page":635,"last_page_url":"https://videocdn.tv/api/short?limit=100&api_token=RgFQdUIR2dRmwv8iYa5SnFNgnw3vpjKj&cache3795=3795&page=635","next_page_url":null,"path":"https://videocdn.tv/api/short","per_page":100,"prev_page_url":"https://videocdn.tv/api/short?limit=100&api_token=RgFQdUIR2dRmwv8iYa5SnFNgnw3vpjKj&cache3795=3795&page=794","to":79420,"total":63490}