{"result":true,"data":[{"id":27072,"title":"Бросок","kp_id":"46229","imdb_id":"tt0231299","world_art_id":null,"type":"movie","add":"2019-05-26 16:56:03","orig_title":"Brosok","year":"1981-01-01","translations":["Оригинальная дорожка"],"quality":"sat","translation":"Оригинальная дорожка","update":"2019-05-27 17:14:47","iframe_src":"//7043.svetacdn.in/IAF0wWTdNYZm/movie/27072"},{"id":27071,"title":"Будь счастлива, Юлия!","kp_id":"46232","imdb_id":"tt0266368","world_art_id":null,"type":"movie","add":"2019-05-26 16:47:07","orig_title":"Bud schastliva, Yuliya","year":"1983-01-01","translations":["Оригинальная дорожка"],"quality":"sat","translation":"Оригинальная дорожка","update":"2019-05-27 17:14:08","iframe_src":"//7043.svetacdn.in/IAF0wWTdNYZm/movie/27071"},{"id":27069,"title":"Дочки-матери","kp_id":"44244","imdb_id":"tt0071428","world_art_id":null,"type":"movie","add":"2019-05-26 16:38:22","orig_title":"Dochki-materi","year":"1975-03-27","translations":["Оригинальная дорожка"],"quality":"hdtv","translation":"Оригинальная дорожка","update":"2019-05-27 17:11:38","iframe_src":"//7043.svetacdn.in/IAF0wWTdNYZm/movie/27069"},{"id":27068,"title":"Дом на Английской набережной","kp_id":"470915","imdb_id":null,"world_art_id":null,"type":"movie","add":"2019-05-26 16:34:35","orig_title":"Дом на Английской набережной","year":"2007-08-15","translations":["Оригинальная дорожка"],"quality":"sat","translation":"Оригинальная дорожка","update":"2019-05-27 17:09:52","iframe_src":"//7043.svetacdn.in/IAF0wWTdNYZm/movie/27068"},{"id":27067,"title":"Два долгих гудка в тумане","kp_id":"44331","imdb_id":"tt0182056","world_art_id":null,"type":"movie","add":"2019-05-26 16:29:51","orig_title":"Dva dolgikh gudka v tumane","year":"1981-07-20","translations":["Оригинальная дорожка"],"quality":"dvdrip","translation":"Оригинальная дорожка","update":"2019-05-27 17:08:26","iframe_src":"//7043.svetacdn.in/IAF0wWTdNYZm/movie/27067"},{"id":27064,"title":"Фантазия на тему любви","kp_id":"44400","imdb_id":"tt0231565","world_art_id":null,"type":"movie","add":"2019-05-26 16:19:41","orig_title":"Fantaziya na temu lyubvi","year":"1981-04-24","translations":["Оригинальная дорожка"],"quality":"iptv","translation":"Оригинальная дорожка","update":"2019-05-27 17:05:08","iframe_src":"//7043.svetacdn.in/IAF0wWTdNYZm/movie/27064"},{"id":27063,"title":"Гадюка","kp_id":"44448","imdb_id":"tt0174675","world_art_id":null,"type":"movie","add":"2019-05-26 16:16:09","orig_title":"Gadyuka","year":"1966-05-10","translations":["Оригинальная дорожка"],"quality":"dvdrip","translation":"Оригинальная дорожка","update":"2019-05-27 17:03:13","iframe_src":"//7043.svetacdn.in/IAF0wWTdNYZm/movie/27063"},{"id":27062,"title":"Главный конструктор","kp_id":"461724","imdb_id":"tt5497990","world_art_id":null,"type":"movie","add":"2019-05-26 16:12:16","orig_title":"Glavnyy konstruktor","year":"1980-01-01","translations":["Оригинальная дорожка"],"quality":"dvdrip","translation":"Оригинальная дорожка","update":"2019-05-27 17:02:33","iframe_src":"//7043.svetacdn.in/IAF0wWTdNYZm/movie/27062"},{"id":27061,"title":"Илга-Иволга","kp_id":"521688","imdb_id":"tt3002472","world_art_id":null,"type":"movie","add":"2019-05-26 14:04:10","orig_title":"Ilga-Ivolga","year":"1972-05-10","translations":["Оригинальная дорожка"],"quality":"tv","translation":"Оригинальная дорожка","update":"2019-05-27 17:01:52","iframe_src":"//7043.svetacdn.in/IAF0wWTdNYZm/movie/27061"},{"id":27060,"title":"Любовь по расписанию","kp_id":"695452","imdb_id":"tt3816426","world_art_id":null,"type":"movie","add":"2019-05-26 13:57:36","orig_title":"Lyubov po raspisaniyu","year":"2012-08-19","translations":["Оригинальная дорожка"],"quality":"hdtv","translation":"Оригинальная дорожка","update":"2019-05-27 16:57:36","iframe_src":"//7043.svetacdn.in/IAF0wWTdNYZm/movie/27060"},{"id":27059,"title":"Быть влюбленным","kp_id":"41529","imdb_id":"tt0321564","world_art_id":null,"type":"movie","add":"2019-05-26 13:53:17","orig_title":"Byt vlyublyonnym","year":"1992-01-01","translations":["Оригинальная дорожка"],"quality":"sat","translation":"Оригинальная дорожка","update":"2019-05-27 16:56:31","iframe_src":"//7043.svetacdn.in/IAF0wWTdNYZm/movie/27059"},{"id":27036,"title":"Я подарю себе чудо","kp_id":"496777","imdb_id":null,"world_art_id":null,"type":"movie","add":"2019-05-26 11:08:40","orig_title":"Я подарю себе чудо","year":"2010-02-07","translations":["Оригинальная дорожка"],"quality":"sat","translation":"Оригинальная дорожка","update":"2019-05-27 16:54:59","iframe_src":"//7043.svetacdn.in/IAF0wWTdNYZm/movie/27036"},{"id":27034,"title":"Как Вас теперь называть?..","kp_id":"44684","imdb_id":"tt0198593","world_art_id":null,"type":"movie","add":"2019-05-26 10:51:17","orig_title":"Kak vas teper nazyvat?","year":"1965-06-01","translations":["Оригинальная дорожка"],"quality":"dvdrip","translation":"Оригинальная дорожка","update":"2019-05-27 16:52:18","iframe_src":"//7043.svetacdn.in/IAF0wWTdNYZm/movie/27034"},{"id":27033,"title":"Крутые ступени","kp_id":"44998","imdb_id":"tt0177895","world_art_id":null,"type":"movie","add":"2019-05-26 10:20:35","orig_title":"Krutye stupeni","year":"1957-07-25","translations":["Оригинальная дорожка"],"quality":"sat","translation":"Оригинальная дорожка","update":"2019-05-27 16:50:21","iframe_src":"//7043.svetacdn.in/IAF0wWTdNYZm/movie/27033"},{"id":27032,"title":"Мастер Востока","kp_id":"466442","imdb_id":"tt5125726","world_art_id":null,"type":"movie","add":"2019-05-26 10:15:47","orig_title":"Master Vostoka","year":"1992-10-01","translations":["Оригинальная дорожка"],"quality":"dvdrip","translation":"Оригинальная дорожка","update":"2019-05-27 16:48:57","iframe_src":"//7043.svetacdn.in/IAF0wWTdNYZm/movie/27032"},{"id":27031,"title":"Муж на час","kp_id":"426352","imdb_id":"tt1862480","world_art_id":null,"type":"movie","add":"2019-05-26 10:05:55","orig_title":"Muzh na chas","year":"2008-01-07","translations":["Оригинальная дорожка"],"quality":"sat","translation":"Оригинальная дорожка","update":"2019-05-27 16:48:03","iframe_src":"//7043.svetacdn.in/IAF0wWTdNYZm/movie/27031"},{"id":27030,"title":"Не привыкайте к чудесам...","kp_id":"420059","imdb_id":null,"world_art_id":null,"type":"movie","add":"2019-05-26 10:00:35","orig_title":"Не привыкайте к чудесам...","year":"2003-01-01","translations":["Оригинальная дорожка"],"quality":"dvdrip","translation":"Оригинальная дорожка","update":"2019-05-27 16:47:04","iframe_src":"//7043.svetacdn.in/IAF0wWTdNYZm/movie/27030"},{"id":27029,"title":"Ночная фиалка","kp_id":"765650","imdb_id":null,"world_art_id":null,"type":"movie","add":"2019-05-25 23:56:17","orig_title":"Ночная фиалка","year":"2013-06-02","translations":["Оригинальная дорожка"],"quality":"hdtv","translation":"Оригинальная дорожка","update":"2019-05-27 16:45:56","iframe_src":"//7043.svetacdn.in/IAF0wWTdNYZm/movie/27029"},{"id":27025,"title":"Первая любовь","kp_id":"94314","imdb_id":"tt0063424","world_art_id":null,"type":"movie","add":"2019-05-25 23:38:40","orig_title":"Pervaya lyubov","year":"1969-02-09","translations":["Оригинальная дорожка"],"quality":"dvdrip","translation":"Оригинальная дорожка","update":"2019-05-27 17:13:03","iframe_src":"//7043.svetacdn.in/IAF0wWTdNYZm/movie/27025"},{"id":27022,"title":"Пржевальский","kp_id":"43340","imdb_id":"tt0043939","world_art_id":null,"type":"movie","add":"2019-05-25 23:08:39","orig_title":"Przhevalsky","year":"1952-02-26","translations":["Оригинальная дорожка"],"quality":"dvdrip","translation":"Оригинальная дорожка","update":"2019-05-27 16:41:00","iframe_src":"//7043.svetacdn.in/IAF0wWTdNYZm/movie/27022"}],"current_page":1302,"first_page_url":"https://videocdn.tv/api/short?limit=100&api_token=6Onb1W1alEUrBcKJZD3GoKBbWyAl2uG2&cache31302=31302&page=1","from":130101,"last_page":612,"last_page_url":"https://videocdn.tv/api/short?limit=100&api_token=6Onb1W1alEUrBcKJZD3GoKBbWyAl2uG2&cache31302=31302&page=612","next_page_url":null,"path":"https://videocdn.tv/api/short","per_page":100,"prev_page_url":"https://videocdn.tv/api/short?limit=100&api_token=6Onb1W1alEUrBcKJZD3GoKBbWyAl2uG2&cache31302=31302&page=1301","to":130120,"total":61189}