{"result":true,"data":[{"id":37697,"title":"Литус","kp_id":"1191014","imdb_id":"tt8975008","world_art_id":null,"type":"movie","add":"2020-03-10 13:40:10","orig_title":"Litus","year":"2019-03-18","translations":["Любительский (многоголосый закадровый) (AlphaProject)"],"quality":"webdl","translation":"Любительский (многоголосый закадровый) (AlphaProject)","update":"2020-03-10 21:10:38","iframe_src":"//5322.svetacdn.in/71tsRs29n5tZ/movie/37697"},{"id":37696,"title":"Матч: История Энни Тайлер","kp_id":"1308497","imdb_id":"tt9869994","world_art_id":null,"type":"movie","add":"2020-03-10 13:38:25","orig_title":"The Match, The Annie Tyler Story","year":"2018-08-02","translations":["Любительский (многоголосый закадровый) (Синема УС)"],"quality":"webdl","translation":"Любительский (многоголосый закадровый) (Синема УС)","update":"2020-03-10 21:11:18","iframe_src":"//5322.svetacdn.in/71tsRs29n5tZ/movie/37696"},{"id":37695,"title":"Два года любви","kp_id":"965822","imdb_id":"tt3752610","world_art_id":null,"type":"movie","add":"2020-03-10 13:36:46","orig_title":"2 Years of Love","year":"2017-01-24","translations":["Любительский (многоголосый закадровый) (Синема УС)"],"quality":"webdl","translation":"Любительский (многоголосый закадровый) (Синема УС)","update":"2020-03-10 21:11:50","iframe_src":"//5322.svetacdn.in/71tsRs29n5tZ/movie/37695"},{"id":37694,"title":"Я мечтаю о белом Судном дне","kp_id":"1051048","imdb_id":"tt7288442","world_art_id":null,"type":"movie","add":"2020-03-10 13:34:17","orig_title":"I'm Dreaming of a White Doomsday","year":"2017-10-20","translations":["Любительский (многоголосый закадровый) (Синема УС)"],"quality":"webdl","translation":"Любительский (многоголосый закадровый) (Синема УС)","update":"2020-03-10 21:12:30","iframe_src":"//5322.svetacdn.in/71tsRs29n5tZ/movie/37694"},{"id":37693,"title":"Убийца в доме","kp_id":"1283012","imdb_id":"tt10645860","world_art_id":null,"type":"movie","add":"2020-03-10 13:32:10","orig_title":"A Family's Nightmare","year":"2020-02-28","translations":["Любительский (многоголосый закадровый) (AlphaProject)"],"quality":"hdtv","translation":"Любительский (многоголосый закадровый) (AlphaProject)","update":"2020-03-10 21:13:01","iframe_src":"//5322.svetacdn.in/71tsRs29n5tZ/movie/37693"},{"id":37692,"title":"Сантамария","kp_id":"1278707","imdb_id":"tt10081728","world_art_id":null,"type":"movie","add":"2020-03-10 13:30:26","orig_title":"Santamaria","year":"2019-04-20","translations":["Любительский (многоголосый закадровый) (Синема УС)"],"quality":"webdl","translation":"Любительский (многоголосый закадровый) (Синема УС)","update":"2020-03-10 21:13:34","iframe_src":"//5322.svetacdn.in/71tsRs29n5tZ/movie/37692"},{"id":37691,"title":"Культ","kp_id":"1313359","imdb_id":"tt11126738","world_art_id":null,"type":"movie","add":"2020-03-10 13:28:27","orig_title":"The Cult","year":"2019-10-14","translations":["Любительский (многоголосый закадровый) (Синема УС)"],"quality":"webdl","translation":"Любительский (многоголосый закадровый) (Синема УС)","update":"2020-03-10 21:14:12","iframe_src":"//5322.svetacdn.in/71tsRs29n5tZ/movie/37691"},{"id":37689,"title":"Леди – Сказка","kp_id":"252111","imdb_id":"tt0102988","world_art_id":null,"type":"movie","add":"2020-03-10 13:22:28","orig_title":"The Story Lady","year":"1991-12-09","translations":["Профессиональный (многоголосый закадровый)"],"quality":"dvdrip","translation":"Профессиональный (многоголосый закадровый)","update":"2020-03-10 21:15:21","iframe_src":"//5322.svetacdn.in/71tsRs29n5tZ/movie/37689"},{"id":37484,"title":"Любовный недуг","kp_id":"39771","imdb_id":"tt0084532","world_art_id":null,"type":"movie","add":"2020-03-06 09:56:07","orig_title":"Prem Rog","year":"1982-07-31","translations":["Профессиональный (двухголосый закадровый)"],"quality":"dvdrip","translation":"Профессиональный (двухголосый закадровый)","update":"2020-03-11 06:46:34","iframe_src":"//5322.svetacdn.in/71tsRs29n5tZ/movie/37484"},{"id":37483,"title":"Любовная тайна","kp_id":"182502","imdb_id":"tt0262703","world_art_id":null,"type":"movie","add":"2020-03-06 09:53:49","orig_title":"Prem Tapasya","year":"1983-04-15","translations":["Профессиональный (многоголосый закадровый)"],"quality":"dvdrip","translation":"Профессиональный (многоголосый закадровый)","update":"2020-03-11 06:45:57","iframe_src":"//5322.svetacdn.in/71tsRs29n5tZ/movie/37483"},{"id":37482,"title":"Маюри","kp_id":"97639","imdb_id":"tt0249797","world_art_id":null,"type":"movie","add":"2020-03-06 09:51:38","orig_title":"Mayuri","year":"1984-08-15","translations":["Полное дублирование"],"quality":"dvdrip","translation":"Полное дублирование","update":"2020-03-11 06:44:31","iframe_src":"//5322.svetacdn.in/71tsRs29n5tZ/movie/37482"},{"id":37481,"title":"Одержимый любовью","kp_id":"254213","imdb_id":"tt0402607","world_art_id":null,"type":"movie","add":"2020-03-06 09:47:25","orig_title":"Tum: A Dangerous Obsession","year":"2004-02-27","translations":["Профессиональный (двухголосый закадровый)"],"quality":"dvdrip","translation":"Профессиональный (двухголосый закадровый)","update":"2020-03-11 06:43:28","iframe_src":"//5322.svetacdn.in/71tsRs29n5tZ/movie/37481"},{"id":37479,"title":"С любимой под венец","kp_id":"41690","imdb_id":"tt0247992","world_art_id":null,"type":"movie","add":"2020-03-06 07:43:06","orig_title":"Dulhan Hum Le Jayenge","year":"2000-01-15","translations":["Профессиональный (многоголосый закадровый)"],"quality":"dvdrip","translation":"Профессиональный (многоголосый закадровый)","update":"2020-03-11 06:41:32","iframe_src":"//5322.svetacdn.in/71tsRs29n5tZ/movie/37479"},{"id":37477,"title":"Львиное сердце 3","kp_id":"957646","imdb_id":"tt5323640","world_art_id":null,"type":"movie","add":"2020-03-06 07:37:09","orig_title":"Singam 3","year":"2017-02-09","translations":["Профессиональный (многоголосый закадровый) (Индийское кино)"],"quality":"webdl","translation":"Профессиональный (многоголосый закадровый) (Индийское кино)","update":"2020-03-11 06:40:33","iframe_src":"//5322.svetacdn.in/71tsRs29n5tZ/movie/37477"},{"id":37476,"title":"Львиное сердце 2","kp_id":"694601","imdb_id":"tt2309600","world_art_id":null,"type":"movie","add":"2020-03-06 07:35:02","orig_title":"Singam 2","year":"2013-07-04","translations":["Любительский (двухголосый закадровый)"],"quality":"bd","translation":"Любительский (двухголосый закадровый)","update":"2020-03-11 06:39:13","iframe_src":"//5322.svetacdn.in/71tsRs29n5tZ/movie/37476"},{"id":37475,"title":"Так далеко, так близко","kp_id":"40417","imdb_id":"tt0313395","world_art_id":null,"type":"movie","add":"2020-03-06 07:32:40","orig_title":"Kitne Door... Kitne Paas","year":"2002-05-01","translations":["Профессиональный (многоголосый закадровый)"],"quality":"dvdrip","translation":"Профессиональный (многоголосый закадровый)","update":"2020-03-11 06:38:24","iframe_src":"//5322.svetacdn.in/71tsRs29n5tZ/movie/37475"},{"id":37474,"title":"Трое разгневанных мужчин","kp_id":"36631","imdb_id":"tt0100816","world_art_id":null,"type":"movie","add":"2020-03-06 07:28:30","orig_title":"Tridev","year":"1989-07-07","translations":["Полное дублирование"],"quality":"webdl","translation":"Полное дублирование","update":"2020-03-11 06:37:34","iframe_src":"//5322.svetacdn.in/71tsRs29n5tZ/movie/37474"},{"id":37473,"title":"Трое разгневанных мужчин 2","kp_id":"78634","imdb_id":"tt0130350","world_art_id":null,"type":"movie","add":"2020-03-06 07:26:05","orig_title":"Vishwatma","year":"1992-01-24","translations":["Профессиональный (многоголосый закадровый) (Формат AB)"],"quality":"dvdrip","translation":"Профессиональный (многоголосый закадровый) (Формат AB)","update":"2020-03-11 06:36:31","iframe_src":"//5322.svetacdn.in/71tsRs29n5tZ/movie/37473"},{"id":37471,"title":"Вечная любовь","kp_id":"416335","imdb_id":"tt1236441","world_art_id":null,"type":"movie","add":"2020-03-06 07:21:54","orig_title":"Phir Kabhi","year":"2008-01-01","translations":["Профессиональный (двухголосый закадровый)"],"quality":"hdtv","translation":"Профессиональный (двухголосый закадровый)","update":"2020-03-11 06:35:55","iframe_src":"//5322.svetacdn.in/71tsRs29n5tZ/movie/37471"},{"id":37470,"title":"Волшебная лампа Алладина","kp_id":"96963","imdb_id":"tt0139012","world_art_id":null,"type":"movie","add":"2020-03-06 07:19:49","orig_title":"Aladdin Aur Jadui Chirag","year":"1952-01-01","translations":["Профессиональный (многоголосый закадровый)"],"quality":"dvdrip","translation":"Профессиональный (многоголосый закадровый)","update":"2020-03-11 06:35:14","iframe_src":"//5322.svetacdn.in/71tsRs29n5tZ/movie/37470"}],"current_page":832,"first_page_url":"https://videocdn.tv/api/short?limit=100&api_token=EnbO9h8pv1VyjbCJhg0WM9nG259n7mtz&cache3832=3832&page=1","from":83101,"last_page":631,"last_page_url":"https://videocdn.tv/api/short?limit=100&api_token=EnbO9h8pv1VyjbCJhg0WM9nG259n7mtz&cache3832=3832&page=631","next_page_url":null,"path":"https://videocdn.tv/api/short","per_page":100,"prev_page_url":"https://videocdn.tv/api/short?limit=100&api_token=EnbO9h8pv1VyjbCJhg0WM9nG259n7mtz&cache3832=3832&page=831","to":83120,"total":63003}