{"result":true,"data":[{"id":33405,"title":"Старое предание. Когда солнце было богом","kp_id":"66328","imdb_id":"tt0380726","world_art_id":null,"type":"movie","add":"2019-11-24 15:41:08","orig_title":"Stara baśń: Kiedy słońce było bogiem","year":"2003-09-17","translations":["Профессиональный (многоголосый закадровый)"],"quality":"dvdrip","translation":"Профессиональный (многоголосый закадровый)","update":"2019-11-25 06:39:41","iframe_src":"//83.svetacdn.in/PfJ50H0ZBPg3/movie/33405"},{"id":33400,"title":"Переводчик","kp_id":"919978","imdb_id":"tt4488744","world_art_id":null,"type":"movie","add":"2019-11-24 15:33:17","orig_title":"Un traductor","year":"2018-01-19","translations":["Любительский (двухголосый закадровый)"],"quality":"webdl","translation":"Любительский (двухголосый закадровый)","update":"2019-11-25 06:36:21","iframe_src":"//83.svetacdn.in/PfJ50H0ZBPg3/movie/33400"},{"id":33399,"title":"Зодиак","kp_id":"49585","imdb_id":"tt0371739","world_art_id":null,"type":"movie","add":"2019-11-24 15:32:19","orig_title":"The Zodiac","year":"2005-07-31","translations":["Полное дублирование"],"quality":"dvdrip","translation":"Полное дублирование","update":"2019-11-25 06:35:10","iframe_src":"//83.svetacdn.in/PfJ50H0ZBPg3/movie/33399"},{"id":33398,"title":"Лил Рел Ховери: Стендап в Креншоу","kp_id":"1323216","imdb_id":"tt11210886","world_art_id":null,"type":"movie","add":"2019-11-24 15:00:48","orig_title":"Lil Rel Howery: Live in Crenshaw","year":"2019-11-23","translations":["[EN] Original (English)"],"quality":"webdl","translation":"[EN] Original (English)","update":"2019-11-25 06:11:18","iframe_src":"//83.svetacdn.in/PfJ50H0ZBPg3/movie/33398"},{"id":33389,"title":"Лысая","kp_id":"1246592","imdb_id":"tt10017956","world_art_id":null,"type":"movie","add":"2019-11-24 05:54:35","orig_title":"Gone Kesh","year":"2019-03-29","translations":["Любительский (многоголосый закадровый) (Синема УС)"],"quality":"webdl","translation":"Любительский (многоголосый закадровый) (Синема УС)","update":"2019-11-24 10:59:51","iframe_src":"//83.svetacdn.in/PfJ50H0ZBPg3/movie/33389"},{"id":33388,"title":"Все будет хорошо","kp_id":"1067494","imdb_id":"tt7482212","world_art_id":null,"type":"movie","add":"2019-11-24 05:52:19","orig_title":"Las niñas bien","year":"2018-09-09","translations":["Любительский (многоголосый закадровый) (AlphaProject)"],"quality":"webdl","translation":"Любительский (многоголосый закадровый) (AlphaProject)","update":"2019-11-24 23:29:40","iframe_src":"//83.svetacdn.in/PfJ50H0ZBPg3/movie/33388"},{"id":33386,"title":"Нет мужчин – нет проблем","kp_id":"523126","imdb_id":"tt1547090","world_art_id":null,"type":"movie","add":"2019-11-23 21:21:35","orig_title":"Without Men","year":"2011-06-29","translations":["Профессиональный (многоголосый закадровый)"],"quality":"bd","translation":"Профессиональный (многоголосый закадровый)","update":"2019-11-24 07:20:01","iframe_src":"//83.svetacdn.in/PfJ50H0ZBPg3/movie/33386"},{"id":33383,"title":"Маска Торна","kp_id":"1039034","imdb_id":"tt6576144","world_art_id":null,"type":"movie","add":"2019-11-23 15:04:21","orig_title":"Mask of Thorn","year":"2018-10-26","translations":["Любительский (многоголосый закадровый) (Синема УС)"],"quality":"webdl","translation":"Любительский (многоголосый закадровый) (Синема УС)","update":"2019-11-23 15:42:55","iframe_src":"//83.svetacdn.in/PfJ50H0ZBPg3/movie/33383"},{"id":33382,"title":"Летучий отряд Скотланд-Ярда","kp_id":"648929","imdb_id":"tt0857190","world_art_id":null,"type":"movie","add":"2019-11-23 09:07:10","orig_title":"The Sweeney","year":"2012-08-01","translations":["Профессиональный (многоголосый закадровый)"],"quality":"bd","translation":"Профессиональный (многоголосый закадровый)","update":"2019-11-23 14:58:51","iframe_src":"//83.svetacdn.in/PfJ50H0ZBPg3/movie/33382"},{"id":33381,"title":"Восстание андроидов","kp_id":"682619","imdb_id":"tt2385001","world_art_id":null,"type":"movie","add":"2019-11-23 09:05:44","orig_title":"Android Insurrection","year":"2012-05-24","translations":["Профессиональный (многоголосый закадровый)"],"quality":"bd","translation":"Профессиональный (многоголосый закадровый)","update":"2019-11-23 14:59:39","iframe_src":"//83.svetacdn.in/PfJ50H0ZBPg3/movie/33381"},{"id":33377,"title":"Франкенштейн встречает Человека-волка","kp_id":"3144","imdb_id":"tt0035899","world_art_id":null,"type":"movie","add":"2019-11-23 05:40:05","orig_title":"Frankenstein Meets the Wolf Man","year":"1943-03-05","translations":["Профессиональный (многоголосый закадровый)"],"quality":"bd","translation":"Профессиональный (многоголосый закадровый)","update":"2019-11-23 10:11:13","iframe_src":"//83.svetacdn.in/PfJ50H0ZBPg3/movie/33377"},{"id":33375,"title":"Радио \"Рождество\"","kp_id":"1282545","imdb_id":"tt10583460","world_art_id":null,"type":"movie","add":"2019-11-23 05:35:26","orig_title":"Radio Christmas","year":"2019-11-09","translations":["Любительский (многоголосый закадровый) (AlphaProject)"],"quality":"webdl","translation":"Любительский (многоголосый закадровый) (AlphaProject)","update":"2019-11-23 11:12:41","iframe_src":"//83.svetacdn.in/PfJ50H0ZBPg3/movie/33375"},{"id":33372,"title":"Я люблю тебя","kp_id":"784358","imdb_id":null,"world_art_id":null,"type":"movie","add":"2019-11-22 09:36:53","orig_title":"I Love You","year":"2014-01-01","translations":["Любительский (многоголосый закадровый) (Синема УС)"],"quality":"webdl","translation":"Любительский (многоголосый закадровый) (Синема УС)","update":"2019-11-22 19:32:26","iframe_src":"//83.svetacdn.in/PfJ50H0ZBPg3/movie/33372"},{"id":33371,"title":"Взрослые игры","kp_id":"1051154","imdb_id":"tt6836462","world_art_id":null,"type":"movie","add":"2019-11-22 09:32:42","orig_title":"Das Ende der Wahrheit","year":"2019-01-14","translations":["Любительский (многоголосый закадровый) (Синема УС)"],"quality":"bd","translation":"Любительский (многоголосый закадровый) (Синема УС)","update":"2019-11-22 19:30:56","iframe_src":"//83.svetacdn.in/PfJ50H0ZBPg3/movie/33371"},{"id":33370,"title":"Морской ангел","kp_id":"1191276","imdb_id":"tt8890058","world_art_id":null,"type":"movie","add":"2019-11-22 09:30:07","orig_title":"Angelfish","year":"2019-11-19","translations":["Любительский (многоголосый закадровый) (Синема УС)"],"quality":"webdl","translation":"Любительский (многоголосый закадровый) (Синема УС)","update":"2019-11-22 19:30:17","iframe_src":"//83.svetacdn.in/PfJ50H0ZBPg3/movie/33370"},{"id":33273,"title":"Тётушки","kp_id":"744429","imdb_id":"tt2767924","world_art_id":null,"type":"movie","add":"2019-11-19 12:22:44","orig_title":"Tyotushki","year":"2013-12-31","translations":["Оригинальная дорожка"],"quality":"webdl","translation":"Оригинальная дорожка","update":"2019-11-25 06:14:46","iframe_src":"//83.svetacdn.in/PfJ50H0ZBPg3/movie/33273"},{"id":32672,"title":"Рождество в рождественском фильме","kp_id":"1311351","imdb_id":"tt11096888","world_art_id":null,"type":"movie","add":"2019-11-04 05:54:04","orig_title":"A Christmas Movie Christmas","year":"2019-10-27","translations":["Любительский (многоголосый закадровый) (AlphaProject)","[EN] Original (English)"],"quality":"hdtv","translation":"Любительский (многоголосый закадровый) (AlphaProject)","update":"2019-11-25 06:09:27","iframe_src":"//83.svetacdn.in/PfJ50H0ZBPg3/movie/32672"},{"id":30556,"title":"Набор для выживания","kp_id":"1099988","imdb_id":"tt7595276","world_art_id":null,"type":"movie","add":"2019-09-04 20:22:26","orig_title":"Survival Box","year":"2019-08-16","translations":["Любительский (многоголосый закадровый) (Синема УС)","[EN] Original (English)"],"quality":"webdl","translation":"Любительский (многоголосый закадровый) (Синема УС)","update":"2019-11-25 06:11:40","iframe_src":"//83.svetacdn.in/PfJ50H0ZBPg3/movie/30556"},{"id":29293,"title":"Та, которой не было","kp_id":"1090027","imdb_id":"tt7552686","world_art_id":null,"type":"movie","add":"2019-07-22 21:54:59","orig_title":"Celle que vous croyez","year":"2019-02-10","translations":["Профессиональный (многоголосый закадровый) (FocusStudio)","Полное дублирование (iTunes)"],"quality":"webdl","translation":"Профессиональный (многоголосый закадровый) (FocusStudio)","update":"2019-11-23 09:23:28","iframe_src":"//83.svetacdn.in/PfJ50H0ZBPg3/movie/29293"},{"id":19593,"title":"Гофманиада","kp_id":"465181","imdb_id":"tt1849772","world_art_id":null,"type":"movie","add":"2018-10-16 23:20:54","orig_title":"Gofmaniada","year":"2018-06-11","translations":["Оригинальная дорожка"],"quality":"webdl","translation":"Оригинальная дорожка","update":"2019-11-23 09:22:05","iframe_src":"//83.svetacdn.in/PfJ50H0ZBPg3/movie/19593"}],"current_page":1557,"first_page_url":"https://videocdn.tv/api/short?limit=100&api_token=RgFQdUIR2dRmwv8iYa5SnFNgnw3vpjKj&cache31557=31557&page=1","from":155601,"last_page":720,"last_page_url":"https://videocdn.tv/api/short?limit=100&api_token=RgFQdUIR2dRmwv8iYa5SnFNgnw3vpjKj&cache31557=31557&page=720","next_page_url":null,"path":"https://videocdn.tv/api/short","per_page":100,"prev_page_url":"https://videocdn.tv/api/short?limit=100&api_token=RgFQdUIR2dRmwv8iYa5SnFNgnw3vpjKj&cache31557=31557&page=1556","to":155620,"total":71992}