{"result":true,"data":[{"id":40851,"title":"Морщинки","kp_id":"468521","imdb_id":"tt1407052","world_art_id":null,"type":"movie","add":"2020-06-01 04:27:48","orig_title":"Arrugas","year":"2011-09-19","translations":["Профессиональный (многоголосый закадровый) (НТВ)"],"quality":"dvdrip","translation":"Профессиональный (многоголосый закадровый) (НТВ)","update":"2020-06-01 09:25:29","iframe_src":"//83.svetacdn.in/PfJ50H0ZBPg3/movie/40851"},{"id":40850,"title":"Зима, картофельные клёцки","kp_id":"844160","imdb_id":"tt4129876","world_art_id":null,"type":"movie","add":"2020-06-01 03:48:52","orig_title":"Winterkartoffelknödel","year":"2014-10-16","translations":["Любительский (одноголосый закадровый)"],"quality":"webdl","translation":"Любительский (одноголосый закадровый)","update":"2020-06-01 04:44:56","iframe_src":"//83.svetacdn.in/PfJ50H0ZBPg3/movie/40850"},{"id":40849,"title":"Бонни и Бонни","kp_id":"1210735","imdb_id":"tt9168992","world_art_id":null,"type":"movie","add":"2020-06-01 03:42:10","orig_title":"Bonnie & Bonnie","year":"2019-06-14","translations":["Любительский (многоголосый закадровый) (AlphaProject)"],"quality":"webdl","translation":"Любительский (многоголосый закадровый) (AlphaProject)","update":"2020-06-01 06:43:24","iframe_src":"//83.svetacdn.in/PfJ50H0ZBPg3/movie/40849"},{"id":40848,"title":"Цена верности","kp_id":"1225477","imdb_id":"tt9351226","world_art_id":null,"type":"movie","add":"2020-06-01 03:41:18","orig_title":"Буду смотреть Le prix de la loyauté","year":"2019-04-26","translations":["Любительский (многоголосый закадровый) (Синема УС)"],"quality":"webdl","translation":"Любительский (многоголосый закадровый) (Синема УС)","update":"2020-06-01 06:40:04","iframe_src":"//83.svetacdn.in/PfJ50H0ZBPg3/movie/40848"},{"id":40847,"title":"Маленькая гавань","kp_id":"1005685","imdb_id":"tt5778060","world_art_id":null,"type":"movie","add":"2020-06-01 03:40:30","orig_title":"Piata lod","year":"2017-02-12","translations":["Любительский (многоголосый закадровый) (Синема УС)"],"quality":"webdl","translation":"Любительский (многоголосый закадровый) (Синема УС)","update":"2020-06-01 06:45:00","iframe_src":"//83.svetacdn.in/PfJ50H0ZBPg3/movie/40847"},{"id":40846,"title":"Истории любви Доэля 3","kp_id":"1335717","imdb_id":"tt11469660","world_art_id":null,"type":"movie","add":"2020-06-01 03:39:38","orig_title":"Akhir Kisah Cinta Si Doel","year":"2020-01-23","translations":["Любительский (многоголосый закадровый) (Синема УС)"],"quality":"webdl","translation":"Любительский (многоголосый закадровый) (Синема УС)","update":"2020-06-01 06:51:11","iframe_src":"//83.svetacdn.in/PfJ50H0ZBPg3/movie/40846"},{"id":40845,"title":"Весеннее половодье","kp_id":"1273486","imdb_id":"tt10428252","world_art_id":null,"type":"movie","add":"2020-06-01 03:38:57","orig_title":"Chun chao","year":"2019-06-18","translations":["Любительский (многоголосый закадровый) (Синема УС)"],"quality":"webdl","translation":"Любительский (многоголосый закадровый) (Синема УС)","update":"2020-06-01 06:51:44","iframe_src":"//83.svetacdn.in/PfJ50H0ZBPg3/movie/40845"},{"id":40844,"title":"Пороховая бочка","kp_id":"1254311","imdb_id":"tt7397176","world_art_id":null,"type":"movie","add":"2020-06-01 03:38:13","orig_title":"Krudttønden","year":"2020-03-05","translations":["Любительский (многоголосый закадровый) (Синема УС)"],"quality":"webdl","translation":"Любительский (многоголосый закадровый) (Синема УС)","update":"2020-06-01 06:53:30","iframe_src":"//83.svetacdn.in/PfJ50H0ZBPg3/movie/40844"},{"id":40843,"title":"Всё ради мамы","kp_id":"1283190","imdb_id":"tt10613578","world_art_id":null,"type":"movie","add":"2020-06-01 03:35:51","orig_title":"Wszystko dla mojej matki","year":"2019-09-16","translations":["Любительский (многоголосый закадровый) (Синема УС)"],"quality":"webdl","translation":"Любительский (многоголосый закадровый) (Синема УС)","update":"2020-06-01 06:50:00","iframe_src":"//83.svetacdn.in/PfJ50H0ZBPg3/movie/40843"},{"id":40842,"title":"Грязный Сексуальный Святой","kp_id":"1302830","imdb_id":"tt10969656","world_art_id":null,"type":"movie","add":"2020-06-01 03:35:09","orig_title":"Dirty Sexy Saint","year":"2019-12-08","translations":["Любительский (многоголосый закадровый) (Синема УС)"],"quality":"webdl","translation":"Любительский (многоголосый закадровый) (Синема УС)","update":"2020-06-01 06:50:41","iframe_src":"//83.svetacdn.in/PfJ50H0ZBPg3/movie/40842"},{"id":40841,"title":"Однажды мы поговорим об этом","kp_id":"1296735","imdb_id":"tt10773114","world_art_id":null,"type":"movie","add":"2020-06-01 03:34:28","orig_title":"Nanti Kita Cerita Tentang Hari Ini","year":"2020-01-02","translations":["Любительский (многоголосый закадровый) (Синема УС)"],"quality":"webdl","translation":"Любительский (многоголосый закадровый) (Синема УС)","update":"2020-06-01 06:53:03","iframe_src":"//83.svetacdn.in/PfJ50H0ZBPg3/movie/40841"},{"id":40840,"title":"Благородный дикарь","kp_id":"1172077","imdb_id":"tt8665606","world_art_id":null,"type":"movie","add":"2020-06-01 03:33:43","orig_title":"Pere Atzil","year":"2018-06-01","translations":["Любительский (многоголосый закадровый) (AlphaProject)"],"quality":"webdl","translation":"Любительский (многоголосый закадровый) (AlphaProject)","update":"2020-06-01 06:49:19","iframe_src":"//83.svetacdn.in/PfJ50H0ZBPg3/movie/40840"},{"id":40839,"title":"Жажда опасности","kp_id":"1076437","imdb_id":"tt6719566","world_art_id":null,"type":"movie","add":"2020-06-01 03:32:42","orig_title":"Strapped for Danger","year":"2017-10-26","translations":["Любительский (многоголосый закадровый) (Синема УС)"],"quality":"webdl","translation":"Любительский (многоголосый закадровый) (Синема УС)","update":"2020-06-01 06:47:56","iframe_src":"//83.svetacdn.in/PfJ50H0ZBPg3/movie/40839"},{"id":40838,"title":"Блондин","kp_id":"1237275","imdb_id":"tt9789686","world_art_id":null,"type":"movie","add":"2020-06-01 03:31:57","orig_title":"Un rubio","year":"2019-02-26","translations":["Любительский (многоголосый закадровый) (Синема УС)"],"quality":"bd","translation":"Любительский (многоголосый закадровый) (Синема УС)","update":"2020-06-01 06:52:30","iframe_src":"//83.svetacdn.in/PfJ50H0ZBPg3/movie/40838"},{"id":40831,"title":"Спасибо, доктор Рей","kp_id":"21064","imdb_id":"tt0338249","world_art_id":null,"type":"movie","add":"2020-05-31 07:37:49","orig_title":"Merci Docteur Rey","year":"2002-10-13","translations":["Профессиональный (двухголосый закадровый)"],"quality":"dvdrip","translation":"Профессиональный (двухголосый закадровый)","update":"2020-05-31 17:05:55","iframe_src":"//83.svetacdn.in/PfJ50H0ZBPg3/movie/40831"},{"id":40830,"title":"Братская вечеринка","kp_id":"456816","imdb_id":"tt1414361","world_art_id":null,"type":"movie","add":"2020-05-31 07:35:41","orig_title":"Frat Party","year":"2009-12-01","translations":["Профессиональный (двухголосый закадровый)"],"quality":"hdrip","translation":"Профессиональный (двухголосый закадровый)","update":"2020-05-31 17:05:06","iframe_src":"//83.svetacdn.in/PfJ50H0ZBPg3/movie/40830"},{"id":40812,"title":"Американское фанго","kp_id":"922930","imdb_id":"tt4856092","world_art_id":null,"type":"movie","add":"2020-05-30 12:58:38","orig_title":"American Fango","year":"2017-12-05","translations":["Любительский (многоголосый закадровый) (Синема УС)"],"quality":"webdl","translation":"Любительский (многоголосый закадровый) (Синема УС)","update":"2020-06-01 20:03:25","iframe_src":"//83.svetacdn.in/PfJ50H0ZBPg3/movie/40812"},{"id":40811,"title":"Тайны нации","kp_id":"1204840","imdb_id":"tt9165526","world_art_id":null,"type":"movie","add":"2020-05-30 12:54:05","orig_title":"Bhale Manchi Chowka Beram","year":"2018-10-05","translations":["Любительский (многоголосый закадровый) (Синема УС)"],"quality":"webdl","translation":"Любительский (многоголосый закадровый) (Синема УС)","update":"2020-06-01 20:03:02","iframe_src":"//83.svetacdn.in/PfJ50H0ZBPg3/movie/40811"},{"id":40736,"title":"Кричащая тишина","kp_id":"890153","imdb_id":"tt4080812","world_art_id":null,"type":"movie","add":"2020-05-27 15:18:20","orig_title":"The Screaming Silent","year":"2020-05-27","translations":["[EN] Original (English)","Любительский (многоголосый закадровый) (Синема УС)"],"quality":"webdl","translation":"[EN] Original (English)","update":"2020-06-01 06:48:38","iframe_src":"//83.svetacdn.in/PfJ50H0ZBPg3/movie/40736"},{"id":20962,"title":"Времена года","kp_id":"506499","imdb_id":"tt1627924","world_art_id":null,"type":"movie","add":"2018-12-23 10:53:56","orig_title":"Mausam","year":"2011-09-22","translations":["Профессиональный (многоголосый закадровый) (SDI Media | Iyuno-SDI Group Russia)","Любительский (многоголосый закадровый)"],"quality":"webdl","translation":"Профессиональный (многоголосый закадровый) (SDI Media | Iyuno-SDI Group Russia)","update":"2020-06-02 06:25:20","iframe_src":"//83.svetacdn.in/PfJ50H0ZBPg3/movie/20962"}],"current_page":1096,"first_page_url":"https://videocdn.tv/api/short?limit=100&api_token=RgFQdUIR2dRmwv8iYa5SnFNgnw3vpjKj&cache31096=31096&page=1","from":109501,"last_page":709,"last_page_url":"https://videocdn.tv/api/short?limit=100&api_token=RgFQdUIR2dRmwv8iYa5SnFNgnw3vpjKj&cache31096=31096&page=709","next_page_url":null,"path":"https://videocdn.tv/api/short","per_page":100,"prev_page_url":"https://videocdn.tv/api/short?limit=100&api_token=RgFQdUIR2dRmwv8iYa5SnFNgnw3vpjKj&cache31096=31096&page=1095","to":109520,"total":70818}