{"result":true,"data":[{"id":51979,"title":"Скоро увидимся","kp_id":"1394223","imdb_id":"tt12677092","world_art_id":null,"type":"movie","add":"2021-07-24 21:07:36","orig_title":"C U Soon","year":"2020-09-01","translations":["Любительский (многоголосый закадровый) (Crazy Cat Studio)"],"quality":"webdl","translation":"Любительский (многоголосый закадровый) (Crazy Cat Studio)","update":"2021-07-25 08:39:02","iframe_src":"//83.svetacdn.in/PfJ50H0ZBPg3/movie/51979"},{"id":51974,"title":"Сэм","kp_id":"1203022","imdb_id":"tt9293752","world_art_id":null,"type":"movie","add":"2021-07-24 08:07:09","orig_title":"Saem","year":"2017-04-30","translations":["Любительский (многоголосый закадровый) (Синема УС)"],"quality":"webdl","translation":"Любительский (многоголосый закадровый) (Синема УС)","update":"2021-07-24 19:26:22","iframe_src":"//83.svetacdn.in/PfJ50H0ZBPg3/movie/51974"},{"id":51973,"title":"Папоротники","kp_id":"1011128","imdb_id":"tt6095988","world_art_id":null,"type":"movie","add":"2021-07-24 08:06:39","orig_title":"Los Helechos","year":"2019-03-22","translations":["Любительский (многоголосый закадровый) (AlphaProject)"],"quality":"webdl","translation":"Любительский (многоголосый закадровый) (AlphaProject)","update":"2021-07-24 19:26:10","iframe_src":"//83.svetacdn.in/PfJ50H0ZBPg3/movie/51973"},{"id":51972,"title":"Последние дни","kp_id":"1166238","imdb_id":"tt8633882","world_art_id":null,"type":"movie","add":"2021-07-24 08:05:56","orig_title":"Last Days","year":"2019-08-03","translations":["Любительский (многоголосый закадровый) (Синема УС)"],"quality":"webdl","translation":"Любительский (многоголосый закадровый) (Синема УС)","update":"2021-07-24 19:25:55","iframe_src":"//83.svetacdn.in/PfJ50H0ZBPg3/movie/51972"},{"id":51971,"title":"Колловалла","kp_id":"1007719","imdb_id":"tt6197480","world_art_id":null,"type":"movie","add":"2021-07-24 08:05:17","orig_title":"Kollowalla","year":"2019-01-15","translations":["Любительский (многоголосый закадровый) (Синема УС)"],"quality":"webdl","translation":"Любительский (многоголосый закадровый) (Синема УС)","update":"2021-07-24 19:25:37","iframe_src":"//83.svetacdn.in/PfJ50H0ZBPg3/movie/51971"},{"id":51969,"title":"Роковой взрыв","kp_id":"1148189","imdb_id":"tt8174290","world_art_id":null,"type":"movie","add":"2021-07-24 08:03:42","orig_title":"Holy Boom","year":"2018-11-02","translations":["Любительский (многоголосый закадровый) (Синема УС)"],"quality":"webdl","translation":"Любительский (многоголосый закадровый) (Синема УС)","update":"2021-07-24 19:24:17","iframe_src":"//83.svetacdn.in/PfJ50H0ZBPg3/movie/51969"},{"id":51967,"title":"Странное соседство","kp_id":"869065","imdb_id":"tt3978058","world_art_id":null,"type":"movie","add":"2021-07-24 08:02:12","orig_title":"Strange Company","year":"2021-07-23","translations":["Любительский (многоголосый закадровый) (Синема УС)"],"quality":"webdl","translation":"Любительский (многоголосый закадровый) (Синема УС)","update":"2021-07-24 19:26:39","iframe_src":"//83.svetacdn.in/PfJ50H0ZBPg3/movie/51967"},{"id":51966,"title":"Сердце надежды","kp_id":"1427597","imdb_id":"tt13157750","world_art_id":null,"type":"movie","add":"2021-07-24 08:01:33","orig_title":"Heart of Hope","year":"2021-07-27","translations":["Любительский (многоголосый закадровый) (AlphaProject)"],"quality":"webdl","translation":"Любительский (многоголосый закадровый) (AlphaProject)","update":"2021-07-24 19:23:27","iframe_src":"//83.svetacdn.in/PfJ50H0ZBPg3/movie/51966"},{"id":51965,"title":"Просвет","kp_id":"1440217","imdb_id":"tt13210534","world_art_id":null,"type":"movie","add":"2021-07-24 08:00:44","orig_title":"Alleyway","year":"2021-06-25","translations":["Любительский (многоголосый закадровый) (@MUZOBOZ@)"],"quality":"webdl","translation":"Любительский (многоголосый закадровый) (@MUZOBOZ@)","update":"2021-07-24 19:23:05","iframe_src":"//83.svetacdn.in/PfJ50H0ZBPg3/movie/51965"},{"id":51957,"title":"Атлантида","kp_id":"1301687","imdb_id":"tt10749786","world_art_id":null,"type":"movie","add":"2021-07-23 15:30:55","orig_title":"Atlantis","year":"2019-09-04","translations":["Любительский (многоголосый закадровый) (Синема УС)"],"quality":"webdl","translation":"Любительский (многоголосый закадровый) (Синема УС)","update":"2021-07-23 21:32:00","iframe_src":"//83.svetacdn.in/PfJ50H0ZBPg3/movie/51957"},{"id":51956,"title":"ВМВ","kp_id":"4484950","imdb_id":"tt14375756","world_art_id":null,"type":"movie","add":"2021-07-23 15:29:49","orig_title":"LFG","year":"2021-06-17","translations":["Любительский (многоголосый закадровый) (Синема УС)"],"quality":"webdl","translation":"Любительский (многоголосый закадровый) (Синема УС)","update":"2021-07-23 19:32:39","iframe_src":"//83.svetacdn.in/PfJ50H0ZBPg3/movie/51956"},{"id":51955,"title":"Игра на выживание","kp_id":"1188841","imdb_id":"tt8415728","world_art_id":null,"type":"movie","add":"2021-07-23 15:27:59","orig_title":"One of These Days","year":"2020-02-22","translations":["Профессиональный (многоголосый закадровый)"],"quality":"webdl","translation":"Профессиональный (многоголосый закадровый)","update":"2021-07-23 19:32:25","iframe_src":"//83.svetacdn.in/PfJ50H0ZBPg3/movie/51955"},{"id":51954,"title":"Камень, ножницы, бумага (КНБ)","kp_id":"709760","imdb_id":"tt2398276","world_art_id":null,"type":"movie","add":"2021-07-23 15:26:04","orig_title":"Rock, Paper, Scissors (R.P.S.)","year":"2017-01-01","translations":["Любительский (многоголосый закадровый) (Синема УС)"],"quality":"webdl","translation":"Любительский (многоголосый закадровый) (Синема УС)","update":"2021-07-23 21:31:25","iframe_src":"//83.svetacdn.in/PfJ50H0ZBPg3/movie/51954"},{"id":51952,"title":"Акулий пляж с Крисом Хемсвортом","kp_id":null,"imdb_id":"tt12833014","world_art_id":null,"type":"movie","add":"2021-07-23 10:02:14","orig_title":"Shark Beach with Chris Hemsworth","year":"2021-01-01","translations":["Любительский (многоголосый закадровый) (Синема УС)"],"quality":"webdl","translation":"Любительский (многоголосый закадровый) (Синема УС)","update":"2021-07-23 16:53:52","iframe_src":"//83.svetacdn.in/PfJ50H0ZBPg3/movie/51952"},{"id":51951,"title":"Маски для Николаса","kp_id":"1172858","imdb_id":"tt8045396","world_art_id":null,"type":"movie","add":"2021-07-23 09:45:28","orig_title":"Un Disfraz para Nicolas","year":"2020-08-20","translations":["Любительский (многоголосый закадровый) (Синема УС)"],"quality":"webdl","translation":"Любительский (многоголосый закадровый) (Синема УС)","update":"2021-07-23 16:53:31","iframe_src":"//83.svetacdn.in/PfJ50H0ZBPg3/movie/51951"},{"id":51950,"title":"Кем я стала?","kp_id":"1326496","imdb_id":"tt11300738","world_art_id":null,"type":"movie","add":"2021-07-23 09:30:05","orig_title":"Who Am I Now?","year":"2021-01-01","translations":["Любительский (многоголосый закадровый) (AlphaProject)"],"quality":"webdl","translation":"Любительский (многоголосый закадровый) (AlphaProject)","update":"2021-07-23 16:53:09","iframe_src":"//83.svetacdn.in/PfJ50H0ZBPg3/movie/51950"},{"id":51949,"title":"Вина Андреи","kp_id":"1435879","imdb_id":"tt13273326","world_art_id":null,"type":"movie","add":"2021-07-23 09:28:46","orig_title":"Andrea's Fault","year":"2020-01-01","translations":["Любительский (многоголосый закадровый) (Синема УС)"],"quality":"webdl","translation":"Любительский (многоголосый закадровый) (Синема УС)","update":"2021-07-23 16:52:57","iframe_src":"//83.svetacdn.in/PfJ50H0ZBPg3/movie/51949"},{"id":51948,"title":"Кондиционер","kp_id":"1390162","imdb_id":"tt10389922","world_art_id":null,"type":"movie","add":"2021-07-23 09:27:08","orig_title":"Ar Condicionado","year":"2020-01-24","translations":["Любительский (многоголосый закадровый) (Синема УС)"],"quality":"webdl","translation":"Любительский (многоголосый закадровый) (Синема УС)","update":"2021-07-23 16:52:41","iframe_src":"//83.svetacdn.in/PfJ50H0ZBPg3/movie/51948"},{"id":51947,"title":"Столкновение","kp_id":"1179170","imdb_id":"tt8811620","world_art_id":null,"type":"movie","add":"2021-07-23 09:25:57","orig_title":"Convergence","year":"2019-01-01","translations":["Любительский (многоголосый закадровый) (Синема УС)"],"quality":"webdl","translation":"Любительский (многоголосый закадровый) (Синема УС)","update":"2021-07-23 16:52:30","iframe_src":"//83.svetacdn.in/PfJ50H0ZBPg3/movie/51947"},{"id":36746,"title":"Повар","kp_id":"78571","imdb_id":"tt0068257","world_art_id":null,"type":"movie","add":"2020-02-21 21:43:39","orig_title":"Bawarchi","year":"1972-07-07","translations":["Профессиональный (многоголосый закадровый)","Профессиональный (многоголосый закадровый)"],"quality":"bd","translation":"Профессиональный (многоголосый закадровый)","update":"2021-07-24 05:30:39","iframe_src":"//83.svetacdn.in/PfJ50H0ZBPg3/movie/36746"},{"id":3973,"title":"Блестящая карьера","kp_id":"1115245","imdb_id":null,"world_art_id":null,"type":"serial","add":"2019-01-28 13:44:16","orig_title":"Блестящая карьера","year":"2018-03-18","translations":["Оригинальная дорожка"],"seasons_count":1,"episodes_count":2,"episodes":2,"update":"2019-01-29 08:04:06","iframe_src":"//83.svetacdn.in/PfJ50H0ZBPg3/tv-series/3973"},{"id":3967,"title":"Любовь по найму","kp_id":"1111022","imdb_id":null,"world_art_id":null,"type":"serial","add":"2019-01-28 06:35:50","orig_title":"Любовь по найму","year":"2019-01-26","translations":["Оригинальная дорожка"],"seasons_count":1,"episodes_count":2,"episodes":2,"update":"2019-01-28 12:35:17","iframe_src":"//83.svetacdn.in/PfJ50H0ZBPg3/tv-series/3967"},{"id":3960,"title":"Чан Ок-чон","kp_id":"745586","imdb_id":"tt3143308","world_art_id":null,"type":"serial","add":"2019-01-27 06:58:59","orig_title":"Jang Ok-jeong","year":"2013-04-08","translations":["Любительский (двухголосый закадровый) (GREEN TEA)"],"seasons_count":1,"episodes_count":24,"episodes":24,"update":"2019-01-28 11:41:53","iframe_src":"//83.svetacdn.in/PfJ50H0ZBPg3/tv-series/3960"},{"id":3957,"title":"Её прелестные каблучки","kp_id":"839003","imdb_id":"tt3592046","world_art_id":null,"type":"serial","add":"2019-01-25 13:11:36","orig_title":"Yeojamanhwa gudu","year":"2014-02-24","translations":["Любительский (двухголосый закадровый) (GREEN TEA)"],"seasons_count":1,"episodes_count":9,"episodes":9,"update":"2019-01-28 07:50:21","iframe_src":"//83.svetacdn.in/PfJ50H0ZBPg3/tv-series/3957"},{"id":3954,"title":"Ночные стражи","kp_id":"841584","imdb_id":"tt3922408","world_art_id":null,"type":"serial","add":"2019-01-24 18:08:43","orig_title":"The Night Watchman's Journal","year":"2014-08-04","translations":["Любительский (одноголосый закадровый) (GREEN TEA)"],"seasons_count":1,"episodes_count":24,"episodes":24,"update":"2019-01-28 18:25:16","iframe_src":"//83.svetacdn.in/PfJ50H0ZBPg3/tv-series/3954"},{"id":3953,"title":"Будет ли снег на Рождество?","kp_id":"740388","imdb_id":"tt2720634","world_art_id":null,"type":"serial","add":"2019-01-24 18:05:22","orig_title":"Will it Snow at Christmas?","year":"2009-12-02","translations":["Любительский (одноголосый закадровый)"],"seasons_count":1,"episodes_count":16,"episodes":16,"update":"2019-01-25 09:18:59","iframe_src":"//83.svetacdn.in/PfJ50H0ZBPg3/tv-series/3953"},{"id":3952,"title":"Юхан Фальк: Конец","kp_id":"919618","imdb_id":"tt4815716","world_art_id":null,"type":"serial","add":"2019-01-24 13:09:33","orig_title":"Johan Falk: Slutet","year":"2015-08-06","translations":["Профессиональный (многоголосый закадровый) (ShowJet)"],"seasons_count":1,"episodes_count":2,"episodes":2,"update":"2019-01-25 07:55:23","iframe_src":"//83.svetacdn.in/PfJ50H0ZBPg3/tv-series/3952"},{"id":3951,"title":"Юхан Фальк: Строгая изоляция","kp_id":"919389","imdb_id":"tt4815698","world_art_id":null,"type":"serial","add":"2019-01-24 13:07:19","orig_title":"Johan Falk: Lockdown","year":"2015-07-23","translations":["Профессиональный (многоголосый закадровый) (ShowJet)"],"seasons_count":1,"episodes_count":2,"episodes":2,"update":"2019-01-25 07:53:14","iframe_src":"//83.svetacdn.in/PfJ50H0ZBPg3/tv-series/3951"},{"id":3950,"title":"Юхан Фальк: Кровавые бриллианты","kp_id":"919086","imdb_id":"tt4815672","world_art_id":null,"type":"serial","add":"2019-01-24 13:04:21","orig_title":"Johan Falk: Blodsdiamanter","year":"2015-07-09","translations":["Профессиональный (многоголосый закадровый) (ShowJet)"],"seasons_count":1,"episodes_count":2,"episodes":2,"update":"2019-01-25 07:51:00","iframe_src":"//83.svetacdn.in/PfJ50H0ZBPg3/tv-series/3950"},{"id":3949,"title":"Юхан Фальк: Мирная дипломатия","kp_id":"888338","imdb_id":"tt4383196","world_art_id":null,"type":"serial","add":"2019-01-24 13:02:37","orig_title":"Johan Falk: Tyst diplomati","year":"2015-06-25","translations":["Профессиональный (многоголосый закадровый) (ShowJet)"],"seasons_count":1,"episodes_count":2,"episodes":2,"update":"2019-01-25 07:49:11","iframe_src":"//83.svetacdn.in/PfJ50H0ZBPg3/tv-series/3949"},{"id":3948,"title":"Юхан Фальк 13","kp_id":"870555","imdb_id":"tt3775742","world_art_id":null,"type":"serial","add":"2019-01-24 13:00:05","orig_title":"Johan Falk: Ur askan i elden","year":"2015-06-18","translations":["Профессиональный (многоголосый закадровый) (ShowJet)"],"seasons_count":1,"episodes_count":2,"episodes":2,"update":"2019-01-25 07:47:01","iframe_src":"//83.svetacdn.in/PfJ50H0ZBPg3/tv-series/3948"},{"id":3940,"title":"Дом с чёрными котами","kp_id":"1115666","imdb_id":null,"world_art_id":null,"type":"serial","add":"2019-01-23 10:02:37","orig_title":"Дом с чёрными котами","year":"2018-05-05","translations":["Оригинальная дорожка"],"seasons_count":1,"episodes_count":4,"episodes":4,"update":"2019-01-25 07:35:22","iframe_src":"//83.svetacdn.in/PfJ50H0ZBPg3/tv-series/3940"},{"id":3937,"title":"Один","kp_id":"1072964","imdb_id":null,"world_art_id":null,"type":"serial","add":"2019-01-23 07:17:52","orig_title":"Один","year":"2019-01-21","translations":["Оригинальная дорожка"],"seasons_count":1,"episodes_count":12,"episodes":12,"update":"2019-01-25 08:06:29","iframe_src":"//83.svetacdn.in/PfJ50H0ZBPg3/tv-series/3937"},{"id":3923,"title":"Чирс","kp_id":"251582","imdb_id":"tt0083399","world_art_id":null,"type":"serial","add":"2019-01-21 13:57:28","orig_title":"Cheers","year":"1982-09-30","translations":["Профессиональный (двухголосый закадровый) (CBS Drama)"],"seasons_count":4,"episodes_count":95,"episodes":26,"update":"2019-01-25 12:13:32","iframe_src":"//83.svetacdn.in/PfJ50H0ZBPg3/tv-series/3923"},{"id":3899,"title":"Джейн Эйр","kp_id":"89684","imdb_id":"tt0085037","world_art_id":null,"type":"serial","add":"2019-01-16 17:09:00","orig_title":"Jane Eyre","year":"1983-10-09","translations":["Профессиональный (многоголосый закадровый)"],"seasons_count":1,"episodes_count":11,"episodes":11,"update":"2019-01-28 19:23:54","iframe_src":"//83.svetacdn.in/PfJ50H0ZBPg3/tv-series/3899"},{"id":3850,"title":"Султан моего сердца","kp_id":"1111704","imdb_id":"tt8081138","world_art_id":null,"type":"serial","add":"2019-01-08 17:15:58","orig_title":"Kalbimin Sultani","year":"2018-06-13","translations":["Профессиональный (многоголосый закадровый) (Первый канал | ОРТ)"],"seasons_count":1,"episodes_count":24,"episodes":24,"update":"2019-01-27 16:14:40","iframe_src":"//83.svetacdn.in/PfJ50H0ZBPg3/tv-series/3850"},{"id":3800,"title":"Бессмертник","kp_id":"885353","imdb_id":"tt4458082","world_art_id":null,"type":"serial","add":"2018-12-30 15:08:11","orig_title":"Bessmertnik","year":"2015-02-02","translations":["Оригинальная дорожка"],"seasons_count":4,"episodes_count":100,"episodes":26,"update":"2019-01-27 17:53:56","iframe_src":"//83.svetacdn.in/PfJ50H0ZBPg3/tv-series/3800"},{"id":3234,"title":"Лесник","kp_id":"566493","imdb_id":"tt2019343","world_art_id":null,"type":"serial","add":"2018-09-28 11:12:22","orig_title":"Lesnik","year":"2011-04-04","translations":["Оригинальная дорожка"],"seasons_count":1,"episodes_count":48,"episodes":48,"update":"2019-01-24 19:27:18","iframe_src":"//83.svetacdn.in/PfJ50H0ZBPg3/tv-series/3234"},{"id":3199,"title":"Мне неловко","kp_id":"1137263","imdb_id":"tt7979042","world_art_id":null,"type":"serial","add":"2018-09-21 10:53:47","orig_title":"I Feel Bad","year":"2018-09-19","translations":["Любительский (двухголосый закадровый) (Sunshine Studio)","Профессиональный (многоголосый закадровый) (NewStudio)"],"seasons_count":1,"episodes_count":13,"episodes":13,"update":"2019-01-28 10:19:22","iframe_src":"//83.svetacdn.in/PfJ50H0ZBPg3/tv-series/3199"},{"id":891,"title":"Между нами, девочками","kp_id":"893068","imdb_id":null,"world_art_id":null,"type":"serial","add":"2017-01-17 06:43:23","orig_title":"Между нами, девочками","year":"2015-03-10","translations":["Оригинальная дорожка"],"seasons_count":1,"episodes_count":20,"episodes":20,"update":"2019-01-28 12:44:58","iframe_src":"//83.svetacdn.in/PfJ50H0ZBPg3/tv-series/891"}],"current_page":486,"first_page_url":"https://videocdn.tv/api/short?limit=100&api_token=RgFQdUIR2dRmwv8iYa5SnFNgnw3vpjKj&cache3486=3486&page=1","from":48501,"last_page":715,"last_page_url":"https://videocdn.tv/api/short?limit=100&api_token=RgFQdUIR2dRmwv8iYa5SnFNgnw3vpjKj&cache3486=3486&page=715","next_page_url":"https://videocdn.tv/api/short?limit=100&api_token=RgFQdUIR2dRmwv8iYa5SnFNgnw3vpjKj&cache3486=3486&page=487","path":"https://videocdn.tv/api/short","per_page":100,"prev_page_url":"https://videocdn.tv/api/short?limit=100&api_token=RgFQdUIR2dRmwv8iYa5SnFNgnw3vpjKj&cache3486=3486&page=485","to":48540,"total":71489}