{"result":true,"data":[{"id":48748,"title":"Скандал в провинции","kp_id":"152428","imdb_id":"tt0073870","world_art_id":null,"type":"movie","add":"2021-03-15 05:01:57","orig_title":"Il vizio di famiglia","year":"1975-10-07","translations":["Профессиональный (одноголосый закадровый)"],"quality":"dvdrip","translation":"Профессиональный (одноголосый закадровый)","update":"2021-03-15 05:45:49","iframe_src":"//5091.svetacdn.in/si4jsFRrtgrT/movie/48748"},{"id":48739,"title":"Осьминожки желают вам веселого Рождества","kp_id":"48218","imdb_id":"tt0092167","world_art_id":null,"type":"movie","add":"2021-03-14 18:47:47","orig_title":"Veselé vánoce prejí chobotnice","year":"1987-11-01","translations":["Профессиональный (двухголосый закадровый)"],"quality":"dvdrip","translation":"Профессиональный (двухголосый закадровый)","update":"2021-03-15 05:54:52","iframe_src":"//5091.svetacdn.in/si4jsFRrtgrT/movie/48739"},{"id":48738,"title":"Осьминожки со второго этажа","kp_id":"52527","imdb_id":"tt0090834","world_art_id":null,"type":"movie","add":"2021-03-14 18:42:37","orig_title":"Chobotnice z druhého patra","year":"1987-07-01","translations":["Профессиональный (двухголосый закадровый)"],"quality":"dvdrip","translation":"Профессиональный (двухголосый закадровый)","update":"2021-03-15 06:24:12","iframe_src":"//5091.svetacdn.in/si4jsFRrtgrT/movie/48738"},{"id":48737,"title":"Сука","kp_id":"21326","imdb_id":"tt0068868","world_art_id":null,"type":"movie","add":"2021-03-14 17:27:02","orig_title":"Liza","year":"1972-05-03","translations":["Профессиональный (двухголосый закадровый) (Первый канал | ОРТ)"],"quality":"hdtv","translation":"Профессиональный (двухголосый закадровый) (Первый канал | ОРТ)","update":"2021-03-14 22:50:25","iframe_src":"//5091.svetacdn.in/si4jsFRrtgrT/movie/48737"},{"id":48735,"title":"Боксер и смерть","kp_id":"101270","imdb_id":"tt0056885","world_art_id":null,"type":"movie","add":"2021-03-14 14:57:45","orig_title":"Boxer a smrt","year":"1963-04-12","translations":["Авторский (одноголосый закадровый) (Воротилин Олег)"],"quality":"bd","translation":"Авторский (одноголосый закадровый) (Воротилин Олег)","update":"2021-03-15 12:10:50","iframe_src":"//5091.svetacdn.in/si4jsFRrtgrT/movie/48735"},{"id":48733,"title":"Женские грезы","kp_id":"70769","imdb_id":"tt0048272","world_art_id":null,"type":"movie","add":"2021-03-14 14:30:41","orig_title":"Kvinnodröm","year":"1955-08-22","translations":["Профессиональный (двухголосый закадровый) (Инис)"],"quality":"bd","translation":"Профессиональный (двухголосый закадровый) (Инис)","update":"2021-03-15 12:06:55","iframe_src":"//5091.svetacdn.in/si4jsFRrtgrT/movie/48733"},{"id":48729,"title":"Хроники Синсэнгуми","kp_id":"394707","imdb_id":"tt0227492","world_art_id":null,"type":"movie","add":"2021-03-14 14:13:36","orig_title":"Shinsengumi shimatsuki","year":"1963-01-03","translations":["Любительский (одноголосый закадровый)"],"quality":"bd","translation":"Любительский (одноголосый закадровый)","update":"2021-03-15 12:05:18","iframe_src":"//5091.svetacdn.in/si4jsFRrtgrT/movie/48729"},{"id":48727,"title":"Ташкентское дело","kp_id":"1119644","imdb_id":"tt8108268","world_art_id":null,"type":"movie","add":"2021-03-14 09:18:13","orig_title":"The Tashkent Files","year":"2019-04-12","translations":["Профессиональный (многоголосый закадровый) (ZEE TV)"],"quality":"webdl","translation":"Профессиональный (многоголосый закадровый) (ZEE TV)","update":"2021-03-14 16:11:34","iframe_src":"//5091.svetacdn.in/si4jsFRrtgrT/movie/48727"},{"id":48724,"title":"Ставка","kp_id":"1182476","imdb_id":"tt8806252","world_art_id":null,"type":"movie","add":"2021-03-13 22:59:24","orig_title":"The Wager","year":"2020-09-21","translations":["Любительский (многоголосый закадровый) (Синема УС)"],"quality":"webdl","translation":"Любительский (многоголосый закадровый) (Синема УС)","update":"2021-03-14 18:48:00","iframe_src":"//5091.svetacdn.in/si4jsFRrtgrT/movie/48724"},{"id":48723,"title":"Жареный Барри","kp_id":"1200476","imdb_id":"tt9102084","world_art_id":null,"type":"movie","add":"2021-03-13 22:54:04","orig_title":"Fried Barry","year":"2020-08-25","translations":["Любительский (двухголосый закадровый) (Колобок)"],"quality":"webdl","translation":"Любительский (двухголосый закадровый) (Колобок)","update":"2021-03-14 18:01:29","iframe_src":"//5091.svetacdn.in/si4jsFRrtgrT/movie/48723"},{"id":48684,"title":"Семья полицейских 3: Новое расследование","kp_id":"258182","imdb_id":"tt0184456","world_art_id":null,"type":"movie","add":"2021-03-12 10:26:40","orig_title":"Family of Cops III: Under Suspicion","year":"1999-01-12","translations":["Профессиональный (многоголосый закадровый) (ДТВ)"],"quality":"dvdrip","translation":"Профессиональный (многоголосый закадровый) (ДТВ)","update":"2021-03-15 06:01:43","iframe_src":"//5091.svetacdn.in/si4jsFRrtgrT/movie/48684"},{"id":48683,"title":"Семья полицейских 2: Потеря веры","kp_id":"256501","imdb_id":"tt0118770","world_art_id":null,"type":"movie","add":"2021-03-12 10:25:21","orig_title":"Breach of Faith: A Family of Cops II","year":"1997-02-02","translations":["Авторский (одноголосый закадровый) (Визгунов Сергей)"],"quality":"dvdrip","translation":"Авторский (одноголосый закадровый) (Визгунов Сергей)","update":"2021-03-15 06:00:17","iframe_src":"//5091.svetacdn.in/si4jsFRrtgrT/movie/48683"},{"id":48682,"title":"Семья полицейских","kp_id":"256441","imdb_id":"tt0113024","world_art_id":null,"type":"movie","add":"2021-03-12 10:23:48","orig_title":"Family of Cops","year":"1995-11-26","translations":["Профессиональный (многоголосый закадровый)"],"quality":"dvdrip","translation":"Профессиональный (многоголосый закадровый)","update":"2021-03-15 05:58:39","iframe_src":"//5091.svetacdn.in/si4jsFRrtgrT/movie/48682"},{"id":48391,"title":"Охота на ведьм","kp_id":null,"imdb_id":"tt7105196","world_art_id":null,"type":"movie","add":"2021-03-03 14:17:00","orig_title":"Hexenjagd","year":"2021-01-05","translations":["Любительский (многоголосый закадровый) (Синема УС)","Любительский (многоголосый закадровый) (Синема УС)"],"quality":"webdl","translation":"Любительский (многоголосый закадровый) (Синема УС)","update":"2021-03-13 17:43:22","iframe_src":"//5091.svetacdn.in/si4jsFRrtgrT/movie/48391"},{"id":48357,"title":"Неблагоприятный","kp_id":"1165161","imdb_id":"tt8597594","world_art_id":null,"type":"movie","add":"2021-03-02 19:33:21","orig_title":"Adverse","year":"2020-02-28","translations":["Любительский (многоголосый закадровый) (@MUZOBOZ@)"],"quality":"webdl","translation":"Любительский (многоголосый закадровый) (@MUZOBOZ@)","update":"2021-03-13 18:43:10","iframe_src":"//5091.svetacdn.in/si4jsFRrtgrT/movie/48357"},{"id":48009,"title":"Музыка крыш","kp_id":"1443829","imdb_id":null,"world_art_id":null,"type":"movie","add":"2021-02-17 07:55:09","orig_title":"Музыка крыш","year":"2021-02-11","translations":["Оригинальная дорожка"],"quality":"webdl","translation":"Оригинальная дорожка","update":"2021-03-13 17:59:55","iframe_src":"//5091.svetacdn.in/si4jsFRrtgrT/movie/48009"},{"id":45412,"title":"Проклятый дом 4","kp_id":"1223966","imdb_id":"tt9449666","world_art_id":null,"type":"movie","add":"2020-11-18 17:21:05","orig_title":"Playhouse","year":"2020-08-28","translations":["Любительский (многоголосый закадровый) (@MUZOBOZ@)","Original (English)","Полное дублирование"],"quality":"webdl","translation":"Любительский (многоголосый закадровый) (@MUZOBOZ@)","update":"2021-03-14 18:21:53","iframe_src":"//5091.svetacdn.in/si4jsFRrtgrT/movie/45412"},{"id":41869,"title":"Первое Рождество","kp_id":"1274500","imdb_id":"tt10480532","world_art_id":null,"type":"movie","add":"2020-07-19 05:47:48","orig_title":"Il primo Natale","year":"2019-12-12","translations":["Профессиональный (многоголосый закадровый) (iTunes)"],"quality":"webdl","translation":"Профессиональный (многоголосый закадровый) (iTunes)","update":"2021-03-13 18:50:12","iframe_src":"//5091.svetacdn.in/si4jsFRrtgrT/movie/41869"},{"id":4778,"title":"Мент в законе 8","kp_id":"841640","imdb_id":"tt6235632","world_art_id":null,"type":"serial","add":"2019-07-03 11:25:56","orig_title":"Мент в законе 8","year":"2014-08-17","translations":["Оригинальная дорожка"],"seasons_count":1,"episodes_count":24,"episodes":24,"update":"2019-07-03 20:14:20","iframe_src":"//5091.svetacdn.in/si4jsFRrtgrT/tv-series/4778"},{"id":4772,"title":"Робинзон Крузо","kp_id":"412371","imdb_id":"tt1117552","world_art_id":null,"type":"serial","add":"2019-07-01 12:28:29","orig_title":"Crusoe","year":"2008-08-04","translations":["Профессиональный (многоголосый закадровый)"],"seasons_count":1,"episodes_count":13,"episodes":13,"update":"2019-07-01 20:31:49","iframe_src":"//5091.svetacdn.in/si4jsFRrtgrT/tv-series/4772"},{"id":4770,"title":"Каникулы Кроша","kp_id":"231042","imdb_id":"tt0229905","world_art_id":null,"type":"serial","add":"2019-07-01 07:22:53","orig_title":"Kanikuly Krosha","year":"1980-09-30","translations":["Оригинальная дорожка"],"seasons_count":1,"episodes_count":4,"episodes":4,"update":"2019-07-01 08:26:38","iframe_src":"//5091.svetacdn.in/si4jsFRrtgrT/tv-series/4770"},{"id":4765,"title":"Шахматная королева","kp_id":"1236079","imdb_id":null,"world_art_id":null,"type":"serial","add":"2019-06-30 05:09:13","orig_title":"Шахматная королева","year":"2019-02-23","translations":["Оригинальная дорожка"],"seasons_count":1,"episodes_count":4,"episodes":4,"update":"2019-07-01 14:25:36","iframe_src":"//5091.svetacdn.in/si4jsFRrtgrT/tv-series/4765"},{"id":4763,"title":"На краю любви","kp_id":"1048537","imdb_id":null,"world_art_id":null,"type":"serial","add":"2019-06-28 19:20:34","orig_title":"На краю любви","year":"2017-12-02","translations":["Оригинальная дорожка"],"seasons_count":1,"episodes_count":4,"episodes":4,"update":"2019-06-28 20:17:08","iframe_src":"//5091.svetacdn.in/si4jsFRrtgrT/tv-series/4763"},{"id":4762,"title":"Топ Гир Америка","kp_id":null,"imdb_id":"tt6959064","world_art_id":null,"type":"serial","add":"2019-06-28 19:08:35","orig_title":"Top Gear","year":"2017-07-30","translations":["Любительский (многоголосый закадровый) (ColdFilm)"],"seasons_count":1,"episodes_count":8,"episodes":8,"update":"2019-06-28 20:10:37","iframe_src":"//5091.svetacdn.in/si4jsFRrtgrT/tv-series/4762"},{"id":4761,"title":"Бен 10: Инопланетная сила","kp_id":"428704","imdb_id":"tt1192169","world_art_id":null,"type":"serial","add":"2019-06-28 11:42:25","orig_title":"Ben 10: Alien Force","year":"2008-04-18","translations":["Полное дублирование"],"seasons_count":3,"episodes_count":46,"episodes":20,"update":"2019-06-28 20:04:25","iframe_src":"//5091.svetacdn.in/si4jsFRrtgrT/tv-series/4761"},{"id":4760,"title":"Гонщик Гран-При","kp_id":"1112064","imdb_id":"tt7841526","world_art_id":null,"type":"serial","add":"2019-06-28 11:15:49","orig_title":"Grand Prix Driver","year":"2018-02-09","translations":["Любительский (одноголосый закадровый) (GreenРай Studio)"],"seasons_count":1,"episodes_count":4,"episodes":4,"update":"2019-06-28 19:32:17","iframe_src":"//5091.svetacdn.in/si4jsFRrtgrT/tv-series/4760"},{"id":4759,"title":"И была война","kp_id":"468818","imdb_id":null,"world_art_id":null,"type":"serial","add":"2019-06-28 11:10:47","orig_title":"И была война","year":"2010-02-21","translations":["Оригинальная дорожка"],"seasons_count":1,"episodes_count":3,"episodes":3,"update":"2019-06-28 19:28:22","iframe_src":"//5091.svetacdn.in/si4jsFRrtgrT/tv-series/4759"},{"id":4752,"title":"Суперпапочка","kp_id":"933833","imdb_id":"tt5120616","world_art_id":null,"type":"serial","add":"2019-06-26 04:21:29","orig_title":"Syupeodaedi Yeol","year":"2015-02-13","translations":["Любительский (двухголосый закадровый) (GREEN TEA)"],"seasons_count":1,"episodes_count":16,"episodes":16,"update":"2019-07-01 10:23:05","iframe_src":"//5091.svetacdn.in/si4jsFRrtgrT/tv-series/4752"},{"id":4751,"title":"Семейный дом","kp_id":"491552","imdb_id":"tt2916438","world_art_id":null,"type":"serial","add":"2019-06-26 04:19:25","orig_title":"Semeyniy dom","year":"2010-08-30","translations":["Оригинальная дорожка"],"seasons_count":1,"episodes_count":12,"episodes":12,"update":"2019-07-01 14:20:55","iframe_src":"//5091.svetacdn.in/si4jsFRrtgrT/tv-series/4751"},{"id":28261,"title":"Русская пятёрка","kp_id":"1140681","imdb_id":"tt8006926","world_art_id":null,"type":"movie","add":"2019-06-25 16:14:55","orig_title":"The Russian Five","year":"2018-04-11","translations":["Профессиональный (многоголосый закадровый)","Original (English)"],"quality":"webdl","translation":"Профессиональный (многоголосый закадровый)","update":"2021-03-15 05:38:51","iframe_src":"//5091.svetacdn.in/si4jsFRrtgrT/movie/28261"},{"id":4734,"title":"Обреченная стать звездой","kp_id":"273072","imdb_id":"tt2839252","world_art_id":null,"type":"serial","add":"2019-06-21 22:46:32","orig_title":"Obrechennaya stat zvezdoy","year":"2005-09-06","translations":["Оригинальная дорожка"],"seasons_count":1,"episodes_count":366,"episodes":366,"update":"2019-07-02 12:38:19","iframe_src":"//5091.svetacdn.in/si4jsFRrtgrT/tv-series/4734"},{"id":4717,"title":"Перри Мэйсон","kp_id":"229158","imdb_id":"tt0050051","world_art_id":null,"type":"serial","add":"2019-06-19 11:48:34","orig_title":"Perry Mason","year":"1957-09-21","translations":["Профессиональный (многоголосый закадровый)","Профессиональный (многоголосый закадровый) (Культура)","Профессиональный (двухголосый закадровый) (СВ-Дубль)"],"seasons_count":9,"episodes_count":265,"episodes":30,"update":"2019-07-02 20:16:38","iframe_src":"//5091.svetacdn.in/si4jsFRrtgrT/tv-series/4717"},{"id":4689,"title":"Ангел-хранитель","kp_id":"1007681","imdb_id":null,"world_art_id":null,"type":"serial","add":"2019-06-17 19:19:50","orig_title":"Ангел-хранитель","year":"2019-06-17","translations":["Оригинальная дорожка"],"seasons_count":1,"episodes_count":16,"episodes":16,"update":"2019-06-28 13:55:15","iframe_src":"//5091.svetacdn.in/si4jsFRrtgrT/tv-series/4689"},{"id":27878,"title":"Хранилище","kp_id":"1062419","imdb_id":"tt6838918","world_art_id":null,"type":"movie","add":"2019-06-17 06:10:44","orig_title":"Vault","year":"2019-06-07","translations":["Профессиональный (многоголосый закадровый) (HDrezka Studio)","Original (English)","Полное дублирование"],"quality":"bd","translation":"Профессиональный (многоголосый закадровый) (HDrezka Studio)","update":"2021-03-14 18:24:18","iframe_src":"//5091.svetacdn.in/si4jsFRrtgrT/movie/27878"},{"id":4652,"title":"Беловодье. Тайна затерянной страны","kp_id":"768062","imdb_id":null,"world_art_id":null,"type":"serial","add":"2019-06-12 18:04:47","orig_title":"Беловодье. Тайна затерянной страны","year":"2019-06-19","translations":["Оригинальная дорожка"],"seasons_count":1,"episodes_count":12,"episodes":12,"update":"2019-07-01 17:12:05","iframe_src":"//5091.svetacdn.in/si4jsFRrtgrT/tv-series/4652"},{"id":4572,"title":"Нашествие","kp_id":"395979","imdb_id":"tt0460651","world_art_id":null,"type":"serial","add":"2019-05-29 08:40:41","orig_title":"Invasion","year":"2005-09-21","translations":["Профессиональный (многоголосый закадровый) (НТВ)"],"seasons_count":1,"episodes_count":22,"episodes":22,"update":"2019-06-28 16:57:57","iframe_src":"//5091.svetacdn.in/si4jsFRrtgrT/tv-series/4572"},{"id":4571,"title":"Дьявольские деньги","kp_id":"820610","imdb_id":"tt3528388","world_art_id":null,"type":"serial","add":"2019-05-29 08:16:55","orig_title":"Incarnation of Money","year":"2013-02-02","translations":["Любительский (одноголосый закадровый) (GREEN TEA)"],"seasons_count":1,"episodes_count":24,"episodes":24,"update":"2019-06-28 12:00:54","iframe_src":"//5091.svetacdn.in/si4jsFRrtgrT/tv-series/4571"},{"id":4555,"title":"Горячая зона","kp_id":"1227497","imdb_id":"tt4131818","world_art_id":null,"type":"serial","add":"2019-05-27 02:46:10","orig_title":"The Hot Zone","year":"2019-05-27","translations":["Профессиональный (многоголосый закадровый) (LostFilm)","Профессиональный (многоголосый закадровый) (NewStudio)","Профессиональный (многоголосый закадровый) (AMS)"],"seasons_count":1,"episodes_count":6,"episodes":6,"update":"2019-06-30 05:10:26","iframe_src":"//5091.svetacdn.in/si4jsFRrtgrT/tv-series/4555"},{"id":4449,"title":"Пятно","kp_id":"1255051","imdb_id":"tt10147676","world_art_id":null,"type":"serial","add":"2019-05-05 22:45:30","orig_title":"Leke","year":"2019-04-16","translations":["Любительский (двухголосый закадровый)"],"seasons_count":1,"episodes_count":9,"episodes":9,"update":"2019-06-28 10:49:23","iframe_src":"//5091.svetacdn.in/si4jsFRrtgrT/tv-series/4449"},{"id":4190,"title":"Берег мечты","kp_id":"401611","imdb_id":"tt0267218","world_art_id":null,"type":"serial","add":"2019-03-02 08:38:49","orig_title":"Porto dos Milagres","year":"2001-02-05","translations":["Профессиональный (многоголосый закадровый)"],"seasons_count":1,"episodes_count":190,"episodes":190,"update":"2019-07-02 11:27:26","iframe_src":"//5091.svetacdn.in/si4jsFRrtgrT/tv-series/4190"}],"current_page":398,"first_page_url":"https://videocdn.tv/api/short?limit=100&api_token=X6EwAUfE5M9xbo7y0Bp0aPf3uXxG2KLL&cache3398=3398&page=1","from":39701,"last_page":667,"last_page_url":"https://videocdn.tv/api/short?limit=100&api_token=X6EwAUfE5M9xbo7y0Bp0aPf3uXxG2KLL&cache3398=3398&page=667","next_page_url":"https://videocdn.tv/api/short?limit=100&api_token=X6EwAUfE5M9xbo7y0Bp0aPf3uXxG2KLL&cache3398=3398&page=399","path":"https://videocdn.tv/api/short","per_page":100,"prev_page_url":"https://videocdn.tv/api/short?limit=100&api_token=X6EwAUfE5M9xbo7y0Bp0aPf3uXxG2KLL&cache3398=3398&page=397","to":39740,"total":66672}