{"result":true,"data":[{"id":35098,"title":"Предатель","kp_id":"70964","imdb_id":"tt0099456","world_art_id":null,"type":"movie","add":"2020-01-15 21:39:46","orig_title":"Double Crosser","year":"1991-03-01","translations":["Авторский (одноголосый закадровый) (Кашкин Александр | Первомайский)"],"quality":"vhs","translation":"Авторский (одноголосый закадровый) (Кашкин Александр | Первомайский)","update":"2020-01-16 12:39:44","iframe_src":"//7720.svetacdn.in/IAF0wWTdNYZm/movie/35098"},{"id":35097,"title":"Харчевня Дракона","kp_id":"154650","imdb_id":"tt0060635","world_art_id":null,"type":"movie","add":"2020-01-15 21:15:04","orig_title":"Long men kezhan","year":"1967-10-21","translations":["Профессиональный (двухголосый закадровый)"],"quality":"bd","translation":"Профессиональный (двухголосый закадровый)","update":"2020-01-16 12:39:31","iframe_src":"//7720.svetacdn.in/IAF0wWTdNYZm/movie/35097"},{"id":35095,"title":"Голго 13","kp_id":"65515","imdb_id":"tt0076281","world_art_id":null,"type":"movie","add":"2020-01-15 21:04:00","orig_title":"Golgo 13: Kûron no kubi","year":"1977-05-04","translations":["Любительский (одноголосый закадровый) (acolith)"],"quality":"dvdrip","translation":"Любительский (одноголосый закадровый) (acolith)","update":"2020-01-16 12:27:59","iframe_src":"//7720.svetacdn.in/IAF0wWTdNYZm/movie/35095"},{"id":35094,"title":"Провал во времени","kp_id":"77483","imdb_id":"tt0083050","world_art_id":null,"type":"movie","add":"2020-01-15 20:59:43","orig_title":"Sengoku jieitai","year":"1979-12-05","translations":["Профессиональный (многоголосый закадровый)"],"quality":"dvdrip","translation":"Профессиональный (многоголосый закадровый)","update":"2020-01-16 09:57:39","iframe_src":"//7720.svetacdn.in/IAF0wWTdNYZm/movie/35094"},{"id":35093,"title":"Кинозвезда в погонах","kp_id":"325406","imdb_id":"tt1034320","world_art_id":null,"type":"movie","add":"2020-01-15 20:55:27","orig_title":"Major Movie Star","year":"2008-11-07","translations":["Профессиональный (многоголосый закадровый)"],"quality":"dvdrip","translation":"Профессиональный (многоголосый закадровый)","update":"2020-01-16 09:59:10","iframe_src":"//7720.svetacdn.in/IAF0wWTdNYZm/movie/35093"},{"id":35092,"title":"Седьмой код","kp_id":"805760","imdb_id":"tt3265404","world_art_id":null,"type":"movie","add":"2020-01-15 20:55:10","orig_title":"Sebunsu kôdo","year":"2013-11-13","translations":["Любительский (двухголосый закадровый) (GREEN TEA)"],"quality":"dvdrip","translation":"Любительский (двухголосый закадровый) (GREEN TEA)","update":"2020-01-16 12:27:06","iframe_src":"//7720.svetacdn.in/IAF0wWTdNYZm/movie/35092"},{"id":35091,"title":"Долина папоротников 2: Волшебное спасение","kp_id":"48671","imdb_id":"tt0129924","world_art_id":null,"type":"movie","add":"2020-01-15 20:47:14","orig_title":"FernGully 2: The Magical Rescue","year":"1998-03-17","translations":["Профессиональный (многоголосый закадровый)"],"quality":"dvdrip","translation":"Профессиональный (многоголосый закадровый)","update":"2020-01-16 10:00:13","iframe_src":"//7720.svetacdn.in/IAF0wWTdNYZm/movie/35091"},{"id":35090,"title":"Червяк","kp_id":"482510","imdb_id":"tt1508290","world_art_id":null,"type":"movie","add":"2020-01-15 20:36:33","orig_title":"Kyatapirâ","year":"2010-02-15","translations":["Любительский (одноголосый закадровый) (den904)"],"quality":"dvdrip","translation":"Любительский (одноголосый закадровый) (den904)","update":"2020-01-16 12:25:54","iframe_src":"//7720.svetacdn.in/IAF0wWTdNYZm/movie/35090"},{"id":35089,"title":"Проект «Хасима»","kp_id":"805030","imdb_id":"tt3206074","world_art_id":null,"type":"movie","add":"2020-01-15 20:33:51","orig_title":"H Project","year":"2013-10-31","translations":["Любительский (двухголосый закадровый) (DeadSno & den904)"],"quality":"dvdrip","translation":"Любительский (двухголосый закадровый) (DeadSno & den904)","update":"2020-01-16 12:23:51","iframe_src":"//7720.svetacdn.in/IAF0wWTdNYZm/movie/35089"},{"id":35088,"title":"Жестокий мир","kp_id":"223949","imdb_id":"tt0042591","world_art_id":null,"type":"movie","add":"2020-01-15 20:27:23","orig_title":"Ikari no machi","year":"1950-05-14","translations":["Любительский (одноголосый закадровый)"],"quality":"dvdrip","translation":"Любительский (одноголосый закадровый)","update":"2020-01-16 12:21:06","iframe_src":"//7720.svetacdn.in/IAF0wWTdNYZm/movie/35088"},{"id":35087,"title":"Золотой храм","kp_id":"99788","imdb_id":"tt0204432","world_art_id":null,"type":"movie","add":"2020-01-15 20:23:36","orig_title":"Kinkakuji","year":"1976-07-17","translations":["Авторский (одноголосый закадровый) (Воротилин Олег)"],"quality":"dvdrip","translation":"Авторский (одноголосый закадровый) (Воротилин Олег)","update":"2020-01-16 12:20:13","iframe_src":"//7720.svetacdn.in/IAF0wWTdNYZm/movie/35087"},{"id":35086,"title":"Женщина-ящерица","kp_id":"268578","imdb_id":"tt0808894","world_art_id":null,"type":"movie","add":"2020-01-15 20:19:28","orig_title":"Tuk kae phii","year":"2004-11-04","translations":["Любительский (двухголосый закадровый) (DeadSno & den904)"],"quality":"dvdrip","translation":"Любительский (двухголосый закадровый) (DeadSno & den904)","update":"2020-01-16 12:19:37","iframe_src":"//7720.svetacdn.in/IAF0wWTdNYZm/movie/35086"},{"id":35085,"title":"Любовь с седьмого взгляда","kp_id":"818755","imdb_id":"tt6446754","world_art_id":null,"type":"movie","add":"2020-01-15 20:12:25","orig_title":"Qi Tian Ai Shang Ni","year":"2009-11-29","translations":["Любительский (одноголосый закадровый)"],"quality":"dvdrip","translation":"Любительский (одноголосый закадровый)","update":"2020-01-16 12:11:53","iframe_src":"//7720.svetacdn.in/IAF0wWTdNYZm/movie/35085"},{"id":35084,"title":"Коробка для завтрака","kp_id":"254530","imdb_id":"tt0467694","world_art_id":null,"type":"movie","add":"2020-01-15 20:10:01","orig_title":"Tamamono","year":"2004-04-17","translations":["Авторский (одноголосый закадровый) (Воротилин Олег)"],"quality":"dvdrip","translation":"Авторский (одноголосый закадровый) (Воротилин Олег)","update":"2020-01-16 12:10:55","iframe_src":"//7720.svetacdn.in/IAF0wWTdNYZm/movie/35084"},{"id":35083,"title":"Сожженная карта","kp_id":"123072","imdb_id":"tt0203695","world_art_id":null,"type":"movie","add":"2020-01-15 20:06:54","orig_title":"Moetsukita chizu","year":"1968-06-01","translations":["Авторский (одноголосый закадровый) (Алексеев Антон)"],"quality":"dvdrip","translation":"Авторский (одноголосый закадровый) (Алексеев Антон)","update":"2020-01-16 12:09:26","iframe_src":"//7720.svetacdn.in/IAF0wWTdNYZm/movie/35083"},{"id":35081,"title":"Небо и море","kp_id":"711075","imdb_id":"tt2940080","world_art_id":null,"type":"movie","add":"2020-01-15 19:27:32","orig_title":"Haneulgwa bada","year":"2009-10-28","translations":["Любительский (одноголосый закадровый)"],"quality":"dvdrip","translation":"Любительский (одноголосый закадровый)","update":"2020-01-16 12:05:32","iframe_src":"//7720.svetacdn.in/IAF0wWTdNYZm/movie/35081"},{"id":35080,"title":"Ниндзя в смертельной ловушке","kp_id":"64259","imdb_id":"tt0089692","world_art_id":null,"type":"movie","add":"2020-01-15 19:24:59","orig_title":"Shu shi shen chuan","year":"1981-01-01","translations":["Авторский (одноголосый закадровый) (Кузнецов Сергей)"],"quality":"dvdrip","translation":"Авторский (одноголосый закадровый) (Кузнецов Сергей)","update":"2020-01-16 11:58:59","iframe_src":"//7720.svetacdn.in/IAF0wWTdNYZm/movie/35080"},{"id":35079,"title":"Подручный якудза","kp_id":null,"imdb_id":"tt0164750","world_art_id":null,"type":"movie","add":"2020-01-15 19:19:37","orig_title":"Yakuza deka","year":"1970-05-23","translations":["Авторский (одноголосый закадровый) (Кузнецов Сергей)"],"quality":"dvdrip","translation":"Авторский (одноголосый закадровый) (Кузнецов Сергей)","update":"2020-01-16 11:55:42","iframe_src":"//7720.svetacdn.in/IAF0wWTdNYZm/movie/35079"},{"id":7560,"title":"Ким Сон-даль","kp_id":"981325","imdb_id":"tt5729246","world_art_id":null,"type":"movie","add":"2016-11-21 15:27:25","orig_title":"Bongyi Kimseondal","year":"2016-07-06","translations":["Любительский (многоголосый закадровый)","Любительский (многоголосый закадровый) (STEPonee)"],"quality":"bd","translation":"Любительский (многоголосый закадровый)","update":"2020-01-16 12:41:40","iframe_src":"//7720.svetacdn.in/IAF0wWTdNYZm/movie/7560"},{"id":4032,"title":"Мистер Шесть","kp_id":"914279","imdb_id":"tt4701702","world_art_id":null,"type":"movie","add":"2016-07-20 09:06:28","orig_title":"Lao pao er","year":"2015-09-09","translations":["Любительский (многоголосый закадровый) (Синема УС)","Любительский (одноголосый закадровый)"],"quality":"bd","translation":"Любительский (многоголосый закадровый) (Синема УС)","update":"2020-01-16 12:08:33","iframe_src":"//7720.svetacdn.in/IAF0wWTdNYZm/movie/4032"}],"current_page":1050,"first_page_url":"https://videocdn.tv/api/short?limit=100&api_token=6Onb1W1alEUrBcKJZD3GoKBbWyAl2uG2&cache31050=31050&page=1","from":104901,"last_page":647,"last_page_url":"https://videocdn.tv/api/short?limit=100&api_token=6Onb1W1alEUrBcKJZD3GoKBbWyAl2uG2&cache31050=31050&page=647","next_page_url":null,"path":"https://videocdn.tv/api/short","per_page":100,"prev_page_url":"https://videocdn.tv/api/short?limit=100&api_token=6Onb1W1alEUrBcKJZD3GoKBbWyAl2uG2&cache31050=31050&page=1049","to":104920,"total":64653}