{"result":true,"data":[{"id":49164,"title":"Заблудший космический корабль","kp_id":"1445985","imdb_id":"tt13365140","world_art_id":null,"type":"movie","add":"2021-03-28 20:33:44","orig_title":"A Mother of No Destination","year":"2021-03-22","translations":["Любительский (многоголосый закадровый) (Синема УС)"],"quality":"webdl","translation":"Любительский (многоголосый закадровый) (Синема УС)","update":"2021-03-29 06:38:33","iframe_src":"//5322.svetacdn.in/si4jsFRrtgrT/movie/49164"},{"id":49163,"title":"Отель «Коппелиа»","kp_id":"1230380","imdb_id":"tt9497404","world_art_id":null,"type":"movie","add":"2021-03-28 20:32:26","orig_title":"Hotel Coppelia","year":"2021-03-09","translations":["Любительский (многоголосый закадровый) (@MUZOBOZ@)"],"quality":"webdl","translation":"Любительский (многоголосый закадровый) (@MUZOBOZ@)","update":"2021-03-29 06:39:14","iframe_src":"//5322.svetacdn.in/si4jsFRrtgrT/movie/49163"},{"id":49153,"title":"Боже мой, как низко я пала!","kp_id":"39866","imdb_id":"tt0071844","world_art_id":null,"type":"movie","add":"2021-03-28 16:03:51","orig_title":"Mio Dio, come sono caduta in basso!","year":"1974-10-24","translations":["Профессиональный (двухголосый закадровый)"],"quality":"bd","translation":"Профессиональный (двухголосый закадровый)","update":"2021-03-29 05:39:35","iframe_src":"//5322.svetacdn.in/si4jsFRrtgrT/movie/49153"},{"id":49146,"title":"Брак по случайности","kp_id":"1049675","imdb_id":"tt9735232","world_art_id":null,"type":"movie","add":"2021-03-28 06:00:29","orig_title":"Eojjeoda, gyeolhon","year":"2019-02-27","translations":["Любительский (многоголосый закадровый) (Amazing Dubbing)"],"quality":"webdl","translation":"Любительский (многоголосый закадровый) (Amazing Dubbing)","update":"2021-03-28 15:55:25","iframe_src":"//5322.svetacdn.in/si4jsFRrtgrT/movie/49146"},{"id":49145,"title":"Лунана: Як в классной комнате","kp_id":"1261757","imdb_id":"tt10189300","world_art_id":null,"type":"movie","add":"2021-03-27 21:29:32","orig_title":"Lunana: A Yak in the Classroom","year":"2019-10-05","translations":["Любительский (двухголосый закадровый) (Колобок)"],"quality":"webdl","translation":"Любительский (двухголосый закадровый) (Колобок)","update":"2021-03-29 06:37:47","iframe_src":"//5322.svetacdn.in/si4jsFRrtgrT/movie/49145"},{"id":49144,"title":"Роза предательства","kp_id":"1115349","imdb_id":"tt9076512","world_art_id":null,"type":"movie","add":"2021-03-27 21:27:32","orig_title":"Baebanui jangmi","year":"2018-10-18","translations":["Любительский (двухголосый закадровый) (Колобок)"],"quality":"webdl","translation":"Любительский (двухголосый закадровый) (Колобок)","update":"2021-03-29 06:37:18","iframe_src":"//5322.svetacdn.in/si4jsFRrtgrT/movie/49144"},{"id":48039,"title":"Ограбление склепа","kp_id":"1263217","imdb_id":"tt13428686","world_art_id":null,"type":"movie","add":"2021-02-18 20:35:25","orig_title":"Dogul","year":"2020-11-04","translations":["Любительский (двухголосый закадровый) (Колобок)","Любительский (многоголосый закадровый) (Amazing Dubbing)"],"quality":"webdl","translation":"Любительский (двухголосый закадровый) (Колобок)","update":"2021-03-28 15:54:19","iframe_src":"//5322.svetacdn.in/si4jsFRrtgrT/movie/48039"},{"id":47898,"title":"Позднее шоу","kp_id":"20081","imdb_id":"tt0076301","world_art_id":null,"type":"movie","add":"2021-02-13 12:23:00","orig_title":"The Late Show","year":"1977-02-10","translations":["Авторский (одноголосый закадровый) (Назаров Вадим)","Original (English)"],"quality":"webdl","translation":"Авторский (одноголосый закадровый) (Назаров Вадим)","update":"2021-03-29 06:46:46","iframe_src":"//5322.svetacdn.in/si4jsFRrtgrT/movie/47898"},{"id":47780,"title":"Человек Макинтоша","kp_id":"12844","imdb_id":"tt0070351","world_art_id":null,"type":"movie","add":"2021-02-09 06:48:33","orig_title":"The MacKintosh Man","year":"1973-07-25","translations":["Профессиональный (многоголосый закадровый)","Original (English)"],"quality":"webdl","translation":"Профессиональный (многоголосый закадровый)","update":"2021-03-29 06:45:44","iframe_src":"//5322.svetacdn.in/si4jsFRrtgrT/movie/47780"},{"id":47581,"title":"Ковбой издалека","kp_id":"9771","imdb_id":"tt0071288","world_art_id":null,"type":"movie","add":"2021-02-01 14:44:45","orig_title":"The Castaway Cowboy","year":"1974-08-01","translations":["Авторский (одноголосый закадровый) (Кузнецов Сергей)","Original (English)"],"quality":"webdl","translation":"Авторский (одноголосый закадровый) (Кузнецов Сергей)","update":"2021-03-29 06:52:20","iframe_src":"//5322.svetacdn.in/si4jsFRrtgrT/movie/47581"},{"id":47519,"title":"Крест и нож","kp_id":"29942","imdb_id":"tt0068428","world_art_id":null,"type":"movie","add":"2021-01-30 14:26:28","orig_title":"The Cross and the Switchblade","year":"1971-03-17","translations":["Полное дублирование","Original (English)"],"quality":"webdl","translation":"Полное дублирование","update":"2021-03-29 06:48:53","iframe_src":"//5322.svetacdn.in/si4jsFRrtgrT/movie/47519"},{"id":47076,"title":"Мастер побегов","kp_id":"2806","imdb_id":"tt0083900","world_art_id":null,"type":"movie","add":"2021-01-14 12:27:07","orig_title":"The Escape Artist","year":"1982-05-07","translations":["Любительский (одноголосый закадровый) (Воробьев Сергей)","Original (English)"],"quality":"webdl","translation":"Любительский (одноголосый закадровый) (Воробьев Сергей)","update":"2021-03-29 06:47:51","iframe_src":"//5322.svetacdn.in/si4jsFRrtgrT/movie/47076"},{"id":46626,"title":"Сделка","kp_id":"919","imdb_id":"tt0064041","world_art_id":null,"type":"movie","add":"2021-01-03 09:23:47","orig_title":"The Arrangement","year":"1969-11-18","translations":["Профессиональный (двухголосый закадровый) (НТВ)","Original (English)"],"quality":"webdl","translation":"Профессиональный (двухголосый закадровый) (НТВ)","update":"2021-03-29 06:53:28","iframe_src":"//5322.svetacdn.in/si4jsFRrtgrT/movie/46626"},{"id":44603,"title":"Успеть всё за месяц","kp_id":"1318885","imdb_id":"tt11206302","world_art_id":null,"type":"movie","add":"2020-10-19 19:45:46","orig_title":"30 jours max","year":"2020-10-14","translations":["Любительский (многоголосый закадровый) (@MUZOBOZ@)","Любительский (многоголосый закадровый) (@MUZOBOZ@)"],"quality":"webdl","translation":"Любительский (многоголосый закадровый) (@MUZOBOZ@)","update":"2021-03-28 15:51:30","iframe_src":"//5322.svetacdn.in/si4jsFRrtgrT/movie/44603"},{"id":8642,"title":"Конец света","kp_id":"933268","imdb_id":"tt2354851","world_art_id":null,"type":"serial","add":"2020-09-06 21:24:37","orig_title":"Heimsendir","year":"2011-10-02","translations":["Любительский (многоголосый закадровый) (WestFilm)"],"seasons_count":1,"episodes_count":9,"episodes":9,"update":"2020-09-07 07:31:35","iframe_src":"//5322.svetacdn.in/si4jsFRrtgrT/tv-series/8642"},{"id":8640,"title":"Киберотдел","kp_id":"1145664","imdb_id":"tt7781874","world_art_id":null,"type":"serial","add":"2020-09-06 14:32:00","orig_title":"eLegal","year":"2018-01-13","translations":["Любительский (многоголосый закадровый) (WestFilm)"],"seasons_count":1,"episodes_count":10,"episodes":10,"update":"2020-09-06 20:24:42","iframe_src":"//5322.svetacdn.in/si4jsFRrtgrT/tv-series/8640"},{"id":8635,"title":"Яркие краски осени","kp_id":"1330107","imdb_id":null,"world_art_id":null,"type":"serial","add":"2020-09-06 07:59:25","orig_title":"Яркие краски осени","year":"2020-09-05","translations":["Оригинальная дорожка"],"seasons_count":1,"episodes_count":2,"episodes":2,"update":"2020-09-06 12:58:26","iframe_src":"//5322.svetacdn.in/si4jsFRrtgrT/tv-series/8635"},{"id":8634,"title":"Отель Алмиранте","kp_id":null,"imdb_id":"tt4566672","world_art_id":null,"type":"serial","add":"2020-09-06 07:32:34","orig_title":"Hotel Almirante","year":"2015-01-01","translations":["Любительский (многоголосый закадровый) (WestFilm)"],"seasons_count":1,"episodes_count":4,"episodes":4,"update":"2020-09-07 08:17:15","iframe_src":"//5322.svetacdn.in/si4jsFRrtgrT/tv-series/8634"},{"id":8632,"title":"Враньё","kp_id":"840118","imdb_id":"tt3668326","world_art_id":null,"type":"serial","add":"2020-09-06 05:03:02","orig_title":"Mensonges","year":"2014-03-13","translations":["Любительский (многоголосый закадровый) (WestFilm)"],"seasons_count":1,"episodes_count":10,"episodes":10,"update":"2020-09-06 20:36:55","iframe_src":"//5322.svetacdn.in/si4jsFRrtgrT/tv-series/8632"},{"id":8598,"title":"Достаточно одной надежды","kp_id":"1197151","imdb_id":"tt9049036","world_art_id":null,"type":"serial","add":"2020-09-01 10:42:28","orig_title":"Bir Umut Yeter","year":"2018-09-27","translations":["Любительский (одноголосый закадровый) (Гайдаржи Анастасия)"],"seasons_count":1,"episodes_count":6,"episodes":6,"update":"2020-09-06 20:01:59","iframe_src":"//5322.svetacdn.in/si4jsFRrtgrT/tv-series/8598"},{"id":8597,"title":"Дениз в моём сердце","kp_id":"1047619","imdb_id":"tt6345486","world_art_id":null,"type":"serial","add":"2020-09-01 10:21:36","orig_title":"Kalbimdeki Deniz","year":"2016-10-22","translations":["Любительский (одноголосый закадровый)"],"seasons_count":2,"episodes_count":60,"episodes":26,"update":"2020-09-06 08:21:42","iframe_src":"//5322.svetacdn.in/si4jsFRrtgrT/tv-series/8597"},{"id":8553,"title":"Голодные призраки","kp_id":null,"imdb_id":"tt10438052","world_art_id":null,"type":"serial","add":"2020-08-27 19:45:43","orig_title":"Hungry Ghosts","year":"2020-08-24","translations":["Профессиональный (многоголосый закадровый) (NewStudio)"],"seasons_count":1,"episodes_count":4,"episodes":4,"update":"2020-09-06 09:10:21","iframe_src":"//5322.svetacdn.in/si4jsFRrtgrT/tv-series/8553"},{"id":8519,"title":"Лихач","kp_id":"1200027","imdb_id":"tt12061416","world_art_id":null,"type":"serial","add":"2020-08-24 13:08:41","orig_title":"Lihach","year":"2020-08-24","translations":["Оригинальная дорожка"],"seasons_count":1,"episodes_count":20,"episodes":20,"update":"2020-09-06 09:25:24","iframe_src":"//5322.svetacdn.in/si4jsFRrtgrT/tv-series/8519"},{"id":8305,"title":"Маппеты сегодня","kp_id":"1299012","imdb_id":"tt10857210","world_art_id":null,"type":"serial","add":"2020-07-31 15:43:19","orig_title":"Muppets Now","year":"2020-07-31","translations":["Любительский (многоголосый закадровый) (Octopus)","Профессиональный (многоголосый закадровый) (BaibaKo)","Любительский (многоголосый закадровый) (ColdFilm)"],"seasons_count":1,"episodes_count":6,"episodes":6,"update":"2020-09-06 09:26:14","iframe_src":"//5322.svetacdn.in/si4jsFRrtgrT/tv-series/8305"},{"id":8198,"title":"BBC: Дикий Китай","kp_id":"420177","imdb_id":"tt0884762","world_art_id":null,"type":"serial","add":"2020-07-19 05:29:19","orig_title":"Wild China","year":"2008-05-11","translations":["Профессиональный (одноголосый закадровый)","Профессиональный (одноголосый закадровый) (Кипарис)"],"seasons_count":1,"episodes_count":6,"episodes":6,"update":"2020-09-07 08:50:43","iframe_src":"//5322.svetacdn.in/si4jsFRrtgrT/tv-series/8198"},{"id":8148,"title":"Жаркий лед","kp_id":"433802","imdb_id":"tt1712316","world_art_id":null,"type":"serial","add":"2020-07-13 11:55:32","orig_title":"Zharkiy led","year":"2009-01-03","translations":["Оригинальная дорожка"],"seasons_count":1,"episodes_count":100,"episodes":100,"update":"2020-09-07 08:43:28","iframe_src":"//5322.svetacdn.in/si4jsFRrtgrT/tv-series/8148"},{"id":8049,"title":"Я исчезну во тьме","kp_id":"1158929","imdb_id":"tt8259114","world_art_id":null,"type":"serial","add":"2020-06-29 11:40:26","orig_title":"I'll Be Gone in the Dark","year":"2020-06-29","translations":["Любительский (многоголосый закадровый) (Octopus)","Любительский (многоголосый закадровый) (ColdFilm)","Профессиональный (многоголосый закадровый) (Lucky Production)","Любительский (многоголосый закадровый) (WestFilm)"],"seasons_count":1,"episodes_count":6,"episodes":6,"update":"2020-09-06 13:10:00","iframe_src":"//5322.svetacdn.in/si4jsFRrtgrT/tv-series/8049"},{"id":38310,"title":"Разум и чувства","kp_id":"78386","imdb_id":"tt0242572","world_art_id":null,"type":"movie","add":"2020-03-20 17:18:58","orig_title":"Kandukondain Kandukondain","year":"2000-05-04","translations":["Профессиональный (многоголосый закадровый) (Red Media)"],"quality":"webdl","translation":"Профессиональный (многоголосый закадровый) (Red Media)","update":"2021-03-28 15:53:07","iframe_src":"//5322.svetacdn.in/si4jsFRrtgrT/movie/38310"},{"id":38307,"title":"Смятение чувств","kp_id":"83659","imdb_id":"tt0409527","world_art_id":null,"type":"movie","add":"2020-03-20 17:11:20","orig_title":"Shabd","year":"2005-02-04","translations":["Профессиональный (многоголосый закадровый)"],"quality":"webdl","translation":"Профессиональный (многоголосый закадровый)","update":"2021-03-29 05:40:52","iframe_src":"//5322.svetacdn.in/si4jsFRrtgrT/movie/38307"},{"id":4465,"title":"Наша планета","kp_id":"1235081","imdb_id":"tt9253866","world_art_id":null,"type":"serial","add":"2019-05-07 13:13:47","orig_title":"Our Planet","year":"2019-04-05","translations":["Профессиональный (многоголосый закадровый) (TVShows)","Профессиональный (многоголосый закадровый) (HDrezka Studio)","Профессиональный (одноголосый закадровый) (АРК-ТВ Studio)"],"seasons_count":1,"episodes_count":8,"episodes":8,"update":"2020-09-06 09:25:17","iframe_src":"//5322.svetacdn.in/si4jsFRrtgrT/tv-series/4465"},{"id":4123,"title":"Прорыв в Кремниевой долине","kp_id":"1128865","imdb_id":"tt7768092","world_art_id":null,"type":"serial","add":"2019-02-20 12:31:23","orig_title":"Valley of the Boom","year":"2019-01-13","translations":["Профессиональный (многоголосый закадровый) (NewStudio)","Профессиональный (многоголосый закадровый) (HDrezka Studio)","Профессиональный (многоголосый закадровый) (Jaskier)"],"seasons_count":1,"episodes_count":6,"episodes":6,"update":"2020-09-06 09:56:44","iframe_src":"//5322.svetacdn.in/si4jsFRrtgrT/tv-series/4123"},{"id":3711,"title":"Страна приливов","kp_id":"1118017","imdb_id":"tt6898970","world_art_id":null,"type":"serial","add":"2018-12-16 14:06:27","orig_title":"Tidelands","year":"2018-12-14","translations":["Профессиональный (многоголосый закадровый) (IdeaFilm)","Профессиональный (многоголосый закадровый) (LostFilm)","Профессиональный (многоголосый закадровый) (HDrezka Studio)","Профессиональный (двухголосый закадровый) (Gears Media)","Профессиональный (многоголосый закадровый) (OMSKBIRD records)","Профессиональный (многоголосый закадровый) (Profix Media)"],"seasons_count":1,"episodes_count":8,"episodes":8,"update":"2020-09-06 09:43:48","iframe_src":"//5322.svetacdn.in/si4jsFRrtgrT/tv-series/3711"},{"id":20406,"title":"Несломленный: Путь к искуплению","kp_id":"1048677","imdb_id":"tt7339792","world_art_id":null,"type":"movie","add":"2018-11-30 09:38:27","orig_title":"Unbroken: Path to Redemption","year":"2018-09-14","translations":["Любительский (многоголосый закадровый) (Синема УС)","Любительский (двухголосый закадровый) (HiWayGrope)","Профессиональный (многоголосый закадровый) (HDrezka Studio)","Полное дублирование (Пифагор)","Original (English)","Профессиональный (многоголосый закадровый) (HDrezka Studio)"],"quality":"webdl","translation":"Любительский (многоголосый закадровый) (Синема УС)","update":"2021-03-28 14:55:58","iframe_src":"//5322.svetacdn.in/si4jsFRrtgrT/movie/20406"},{"id":20258,"title":"Мы, животные","kp_id":"1108432","imdb_id":"tt7681824","world_art_id":null,"type":"movie","add":"2018-11-22 23:04:45","orig_title":"We the Animals","year":"2018-01-20","translations":["Любительский (многоголосый закадровый) (Синема УС)","Профессиональный (многоголосый закадровый) (Jaskier)","Профессиональный (многоголосый закадровый) (HDrezka Studio)"],"quality":"webdl","translation":"Любительский (многоголосый закадровый) (Синема УС)","update":"2021-03-28 14:56:38","iframe_src":"//5322.svetacdn.in/si4jsFRrtgrT/movie/20258"},{"id":3530,"title":"Побег из тюрьмы Даннемора","kp_id":"1046051","imdb_id":"tt6866266","world_art_id":null,"type":"serial","add":"2018-11-19 08:45:55","orig_title":"Escape at Dannemora","year":"2018-10-15","translations":["Профессиональный (многоголосый закадровый) (IdeaFilm)","Профессиональный (многоголосый закадровый) (LostFilm)","Профессиональный (многоголосый закадровый) (HDrezka Studio)","Профессиональный (двухголосый закадровый) (Gears Media)","Профессиональный (многоголосый закадровый) (BaibaKo)","Профессиональный (многоголосый закадровый) (Jaskier)","Профессиональный (многоголосый закадровый) (NewStudio)","Профессиональный (многоголосый закадровый) (Kansai)","Профессиональный (многоголосый закадровый) (SDI Media)"],"seasons_count":1,"episodes_count":7,"episodes":7,"update":"2020-09-06 08:53:04","iframe_src":"//5322.svetacdn.in/si4jsFRrtgrT/tv-series/3530"},{"id":20105,"title":"Под Сильвер-Лэйк","kp_id":"980327","imdb_id":"tt5691670","world_art_id":null,"type":"movie","add":"2018-11-12 23:11:07","orig_title":"Under the Silver Lake","year":"2018-05-15","translations":["Любительский (многоголосый закадровый) (Синема УС)","Профессиональный (многоголосый закадровый) (HDrezka Studio)","Полное дублирование","Original (English)","Профессиональный (двухголосый закадровый) (Кубик в Кубе)","Профессиональный (многоголосый закадровый) (HDrezka Studio)"],"quality":"webdl","translation":"Любительский (многоголосый закадровый) (Синема УС)","update":"2021-03-28 14:56:17","iframe_src":"//5322.svetacdn.in/si4jsFRrtgrT/movie/20105"},{"id":18036,"title":"Клуб любителей книг и пирогов из картофельных очистков","kp_id":"467760","imdb_id":"tt1289403","world_art_id":null,"type":"movie","add":"2018-08-03 00:43:12","orig_title":"The Guernsey Literary and Potato Peel Pie Society","year":"2018-04-09","translations":["Полное дублирование (iTunes)","Original (English)","Профессиональный (многоголосый закадровый) (HDrezka Studio)"],"quality":"bd","translation":"Полное дублирование (iTunes)","update":"2021-03-28 14:55:37","iframe_src":"//5322.svetacdn.in/si4jsFRrtgrT/movie/18036"},{"id":2113,"title":"Звездные врата: Начало","kp_id":"1047616","imdb_id":"tt7161862","world_art_id":null,"type":"serial","add":"2018-02-18 09:13:18","orig_title":"Stargate Origins","year":"2018-02-15","translations":["Профессиональный (многоголосый закадровый) (LostFilm)","Профессиональный (многоголосый закадровый) (HDrezka Studio)","Профессиональный (многоголосый закадровый) (AMS)","Профессиональный (многоголосый закадровый) (BaibaKo)"],"seasons_count":1,"episodes_count":10,"episodes":10,"update":"2020-09-06 09:36:49","iframe_src":"//5322.svetacdn.in/si4jsFRrtgrT/tv-series/2113"},{"id":1956,"title":"Роузхейвен","kp_id":"1111907","imdb_id":"tt5226698","world_art_id":null,"type":"serial","add":"2018-01-15 20:21:30","orig_title":"Rosehaven","year":"2016-10-12","translations":["Любительский (двухголосый закадровый) (GoldTeam)","Любительский (многоголосый закадровый) (GreenРай Studio)","Любительский (двухголосый закадровый) (KosharaSerials)","Любительский (многоголосый закадровый) (WestFilm)"],"seasons_count":4,"episodes_count":26,"episodes":8,"update":"2020-09-06 09:19:13","iframe_src":"//5322.svetacdn.in/si4jsFRrtgrT/tv-series/1956"},{"id":1607,"title":"Она же Грэйс","kp_id":"463366","imdb_id":"tt1034007","world_art_id":null,"type":"serial","add":"2017-10-08 10:07:17","orig_title":"Alias Grace","year":"2017-09-25","translations":["Любительский (двухголосый закадровый) (Sunshine Studio)","Профессиональный (многоголосый закадровый) (LostFilm)"],"seasons_count":1,"episodes_count":6,"episodes":6,"update":"2020-09-07 07:05:41","iframe_src":"//5322.svetacdn.in/si4jsFRrtgrT/tv-series/1607"}],"current_page":150,"first_page_url":"https://videocdn.tv/api/short?limit=100&api_token=X6EwAUfE5M9xbo7y0Bp0aPf3uXxG2KLL&cache3150=3150&page=1","from":14901,"last_page":628,"last_page_url":"https://videocdn.tv/api/short?limit=100&api_token=X6EwAUfE5M9xbo7y0Bp0aPf3uXxG2KLL&cache3150=3150&page=628","next_page_url":"https://videocdn.tv/api/short?limit=100&api_token=X6EwAUfE5M9xbo7y0Bp0aPf3uXxG2KLL&cache3150=3150&page=151","path":"https://videocdn.tv/api/short","per_page":100,"prev_page_url":"https://videocdn.tv/api/short?limit=100&api_token=X6EwAUfE5M9xbo7y0Bp0aPf3uXxG2KLL&cache3150=3150&page=149","to":14940,"total":62747}