{"result":true,"data":[{"id":50308,"title":"Театр одной актрисы","kp_id":"1257017","imdb_id":"tt10112020","world_art_id":null,"type":"movie","add":"2021-05-11 20:00:22","orig_title":"Solo No","year":"2019-05-06","translations":["Любительский (многоголосый закадровый) (@MUZOBOZ@)"],"quality":"webdl","translation":"Любительский (многоголосый закадровый) (@MUZOBOZ@)","update":"2021-05-12 08:49:08","iframe_src":"//83.svetacdn.in/PfJ50H0ZBPg3/movie/50308"},{"id":50306,"title":"Прощай, дорогуша","kp_id":"1167808","imdb_id":"tt7841954","world_art_id":null,"type":"movie","add":"2021-05-11 19:52:33","orig_title":"Goodbye Honey","year":"2021-05-11","translations":["Любительский (многоголосый закадровый) (@MUZOBOZ@)"],"quality":"webdl","translation":"Любительский (многоголосый закадровый) (@MUZOBOZ@)","update":"2021-05-12 08:48:28","iframe_src":"//83.svetacdn.in/PfJ50H0ZBPg3/movie/50306"},{"id":50305,"title":"Глаза","kp_id":"1353858","imdb_id":"tt11605172","world_art_id":null,"type":"movie","add":"2021-05-11 19:31:09","orig_title":"Doi Mat Am Duong","year":"2020-01-25","translations":["Любительский (многоголосый закадровый) (AlphaProject)"],"quality":"webdl","translation":"Любительский (многоголосый закадровый) (AlphaProject)","update":"2021-05-12 08:46:30","iframe_src":"//83.svetacdn.in/PfJ50H0ZBPg3/movie/50305"},{"id":50296,"title":"Человек с девятью жизнями","kp_id":"32166","imdb_id":"tt0032753","world_art_id":null,"type":"movie","add":"2021-05-11 10:26:43","orig_title":"The Man with Nine Lives","year":"1940-04-18","translations":["[EN] Original (English)"],"quality":"bd","translation":"[EN] Original (English)","update":"2021-05-12 05:22:37","iframe_src":"//83.svetacdn.in/PfJ50H0ZBPg3/movie/50296"},{"id":49197,"title":"Хильда Крейн","kp_id":"51396","imdb_id":"tt0049317","world_art_id":null,"type":"movie","add":"2021-03-30 08:15:18","orig_title":"Hilda Crane","year":"1956-05-02","translations":["Авторский (одноголосый закадровый) (Яковлев Алексей)","[EN] Original (English)"],"quality":"bd","translation":"Авторский (одноголосый закадровый) (Яковлев Алексей)","update":"2021-05-12 06:41:05","iframe_src":"//83.svetacdn.in/PfJ50H0ZBPg3/movie/49197"},{"id":49175,"title":"Спокойной ночи, мистер Том","kp_id":"324658","imdb_id":"tt0175680","world_art_id":null,"type":"movie","add":"2021-03-29 14:38:27","orig_title":"Goodnight, Mister Tom","year":"1998-10-25","translations":["Любительский (одноголосый закадровый)","[EN] Original (English)"],"quality":"bd","translation":"Любительский (одноголосый закадровый)","update":"2021-05-12 06:42:28","iframe_src":"//83.svetacdn.in/PfJ50H0ZBPg3/movie/49175"},{"id":49167,"title":"Три страшных рассказа","kp_id":"19136","imdb_id":"tt0057608","world_art_id":null,"type":"movie","add":"2021-03-29 05:12:45","orig_title":"Twice-Told Tales","year":"1963-10-30","translations":["Профессиональный (двухголосый закадровый) (НТВ)","[EN] Original (English)"],"quality":"bd","translation":"Профессиональный (двухголосый закадровый) (НТВ)","update":"2021-05-12 05:20:11","iframe_src":"//83.svetacdn.in/PfJ50H0ZBPg3/movie/49167"},{"id":48986,"title":"Пять","kp_id":"53893","imdb_id":"tt0043539","world_art_id":null,"type":"movie","add":"2021-03-22 05:24:15","orig_title":"Five","year":"1951-04-25","translations":["Любительский (одноголосый закадровый) (Райдер Александр | Rider)","[EN] Original (English)"],"quality":"bd","translation":"Любительский (одноголосый закадровый) (Райдер Александр | Rider)","update":"2021-05-12 06:44:15","iframe_src":"//83.svetacdn.in/PfJ50H0ZBPg3/movie/48986"},{"id":48968,"title":"Перекрестный огонь","kp_id":"8295","imdb_id":"tt0039286","world_art_id":null,"type":"movie","add":"2021-03-21 07:46:27","orig_title":"Crossfire","year":"1947-07-22","translations":["Профессиональный (многоголосый закадровый) (DVD Classic)","[EN] Original (English)"],"quality":"bd","translation":"Профессиональный (многоголосый закадровый) (DVD Classic)","update":"2021-05-12 06:45:07","iframe_src":"//83.svetacdn.in/PfJ50H0ZBPg3/movie/48968"},{"id":48864,"title":"Навеки женщина","kp_id":"11193","imdb_id":"tt0045782","world_art_id":null,"type":"movie","add":"2021-03-18 06:40:18","orig_title":"Forever Female","year":"1953-11-28","translations":["Любительский (одноголосый закадровый) (Медведев Юрий)","[EN] Original (English)"],"quality":"bd","translation":"Любительский (одноголосый закадровый) (Медведев Юрий)","update":"2021-05-12 06:43:23","iframe_src":"//83.svetacdn.in/PfJ50H0ZBPg3/movie/48864"},{"id":48643,"title":"Два сапога пара","kp_id":"36104","imdb_id":"tt0055253","world_art_id":null,"type":"movie","add":"2021-03-11 06:41:38","orig_title":"On the Double","year":"1961-05-19","translations":["Авторский (одноголосый закадровый) (Алексеев Антон)","[EN] Original (English)"],"quality":"bd","translation":"Авторский (одноголосый закадровый) (Алексеев Антон)","update":"2021-05-12 05:27:14","iframe_src":"//83.svetacdn.in/PfJ50H0ZBPg3/movie/48643"},{"id":48582,"title":"Портрет в черных тонах","kp_id":"10201","imdb_id":"tt0054197","world_art_id":null,"type":"movie","add":"2021-03-09 15:08:16","orig_title":"Portrait in Black","year":"1960-06-23","translations":["Любительский (одноголосый закадровый) (Клушин Игорь | хромолка)","[EN] Original (English)"],"quality":"bd","translation":"Любительский (одноголосый закадровый) (Клушин Игорь | хромолка)","update":"2021-05-12 05:25:21","iframe_src":"//83.svetacdn.in/PfJ50H0ZBPg3/movie/48582"},{"id":33012,"title":"Сиротский Бруклин","kp_id":"837737","imdb_id":"tt0385887","world_art_id":null,"type":"movie","add":"2019-11-12 17:18:13","orig_title":"Motherless Brooklyn","year":"2019-08-30","translations":["Полное дублирование (iTunes)","Авторский (одноголосый закадровый) (Сербин Юрий)","Авторский (одноголосый закадровый) (Яроцкий Михаил | Kyberpunk)","[EN] Original (English)"],"quality":"bd","translation":"Полное дублирование (iTunes)","update":"2021-05-12 07:46:21","iframe_src":"//83.svetacdn.in/PfJ50H0ZBPg3/movie/33012"},{"id":30350,"title":"Американский оборотень в Париже","kp_id":"14941","imdb_id":"tt0118604","world_art_id":null,"type":"movie","add":"2019-08-28 19:03:52","orig_title":"An American Werewolf in Paris","year":"1997-10-18","translations":["Профессиональный (двухголосый закадровый)","Авторский (одноголосый закадровый) (Сербин Юрий)","Авторский (одноголосый закадровый) (Чадов Михаил)","Авторский (одноголосый закадровый) (Гаврилов Андрей)","Авторский (одноголосый закадровый) (Живов Юрий)","[EN] Original (English)","Любительский (одноголосый закадровый)","Профессиональный (двухголосый закадровый) (Amalgama)","Профессиональный (двухголосый закадровый) (НТВ)","Профессиональный (двухголосый закадровый) (РТР | Россия)","Профессиональный (многоголосый закадровый) (СТС)","Профессиональный (многоголосый закадровый) (ТВ3)"],"quality":"bd","translation":"Профессиональный (двухголосый закадровый)","update":"2021-05-12 07:19:57","iframe_src":"//83.svetacdn.in/PfJ50H0ZBPg3/movie/30350"},{"id":22309,"title":"Слон сидит спокойно","kp_id":"1112854","imdb_id":"tt8020896","world_art_id":null,"type":"movie","add":"2019-02-14 20:38:51","orig_title":"Da xiang xi di er zuo","year":"2018-02-16","translations":["Любительский (двухголосый закадровый) (LakeFilms)","Любительский (многоголосый закадровый) (Колобок)","Любительский (двухголосый закадровый) (LakeFilms)","Авторский (одноголосый закадровый) (Сербин Юрий)"],"quality":"webdl","translation":"Любительский (двухголосый закадровый) (LakeFilms)","update":"2021-05-12 06:54:07","iframe_src":"//83.svetacdn.in/PfJ50H0ZBPg3/movie/22309"},{"id":15553,"title":"Тим","kp_id":"15066","imdb_id":"tt0080024","world_art_id":null,"type":"movie","add":"2018-03-10 13:35:51","orig_title":"Tim","year":"1979-07-13","translations":["Любительский (одноголосый закадровый)","Авторский (одноголосый закадровый) (Воротилин Олег)","[EN] Original (English)"],"quality":"bd","translation":"Любительский (одноголосый закадровый)","update":"2021-05-12 05:21:27","iframe_src":"//83.svetacdn.in/PfJ50H0ZBPg3/movie/15553"},{"id":6821,"title":"Любовник","kp_id":"22906","imdb_id":"tt0101316","world_art_id":null,"type":"movie","add":"2016-10-30 08:19:31","orig_title":"L'amant","year":"1992-01-22","translations":["Профессиональный (многоголосый закадровый)","Авторский (одноголосый закадровый) (Гаврилов Андрей)","[EN] Original (English)","Профессиональный (двухголосый закадровый) (НТВ)","Профессиональный (многоголосый закадровый)"],"quality":"bd","translation":"Профессиональный (многоголосый закадровый)","update":"2021-05-12 07:30:21","iframe_src":"//83.svetacdn.in/PfJ50H0ZBPg3/movie/6821"},{"id":6566,"title":"Лето белой воды","kp_id":"5551","imdb_id":"tt0094318","world_art_id":null,"type":"movie","add":"2016-10-21 05:40:02","orig_title":"White Water Summer","year":"1987-07-10","translations":["Профессиональный (многоголосый закадровый)","Профессиональный (многоголосый закадровый) (Первый канал | ОРТ)","Авторский (одноголосый закадровый) (Пронин Антон)","[EN] Original (English)","Профессиональный (многоголосый закадровый) (СТС)","Профессиональный (многоголосый закадровый) (НТВ)"],"quality":"webdl","translation":"Профессиональный (многоголосый закадровый)","update":"2021-05-12 07:42:44","iframe_src":"//83.svetacdn.in/PfJ50H0ZBPg3/movie/6566"},{"id":3477,"title":"Влюбленный Шекспир","kp_id":"7662","imdb_id":"tt0138097","world_art_id":null,"type":"movie","add":"2016-06-29 07:42:22","orig_title":"Shakespeare in Love","year":"1998-12-03","translations":["Профессиональный (многоголосый закадровый)","Профессиональный (многоголосый закадровый) (Позитив)","Авторский (одноголосый закадровый) (Живов Юрий)","[EN] Original (English)","Профессиональный (многоголосый закадровый) (НТВ)","Профессиональный (многоголосый закадровый) (Премьер Видео Фильм)","Профессиональный (многоголосый закадровый) (Universal Russia)"],"quality":"bd","translation":"Профессиональный (многоголосый закадровый)","update":"2021-05-12 07:36:28","iframe_src":"//83.svetacdn.in/PfJ50H0ZBPg3/movie/3477"},{"id":2791,"title":"На игле","kp_id":"515","imdb_id":"tt0117951","world_art_id":null,"type":"movie","add":"2016-05-31 15:01:13","orig_title":"Trainspotting","year":"1996-02-23","translations":["Профессиональный (многоголосый закадровый)","Профессиональный (многоголосый закадровый) (CP Digital)","Авторский (одноголосый закадровый) (Алексеев Антон)","Авторский (одноголосый закадровый) (Чадов Михаил)","Авторский (одноголосый закадровый) (Кашкин Александр | Первомайский)","[EN] Original (English)","Профессиональный (многоголосый закадровый) (FocusStudio)","Профессиональный (многоголосый закадровый) (Первый канал | ОРТ)","Профессиональный (многоголосый закадровый) (Тивионика)"],"quality":"bd","translation":"Профессиональный (многоголосый закадровый)","update":"2021-05-12 07:07:12","iframe_src":"//83.svetacdn.in/PfJ50H0ZBPg3/movie/2791"}],"current_page":664,"first_page_url":"https://videocdn.tv/api/short?limit=100&api_token=RgFQdUIR2dRmwv8iYa5SnFNgnw3vpjKj&cache3664=3664&page=1","from":66301,"last_page":721,"last_page_url":"https://videocdn.tv/api/short?limit=100&api_token=RgFQdUIR2dRmwv8iYa5SnFNgnw3vpjKj&cache3664=3664&page=721","next_page_url":"https://videocdn.tv/api/short?limit=100&api_token=RgFQdUIR2dRmwv8iYa5SnFNgnw3vpjKj&cache3664=3664&page=665","path":"https://videocdn.tv/api/short","per_page":100,"prev_page_url":"https://videocdn.tv/api/short?limit=100&api_token=RgFQdUIR2dRmwv8iYa5SnFNgnw3vpjKj&cache3664=3664&page=663","to":66320,"total":72043}