{"result":true,"data":[{"id":51005,"title":"Массаж вслепую","kp_id":"820250","imdb_id":"tt3469964","world_art_id":null,"type":"movie","add":"2021-06-08 06:09:56","orig_title":"Tui na","year":"2014-02-10","translations":["Любительский (одноголосый закадровый) (Franek Monk)"],"quality":"webdl","translation":"Любительский (одноголосый закадровый) (Franek Monk)","update":"2021-06-08 09:37:41","iframe_src":"//2413.svetacdn.in/71tsRs29n5tZ/movie/51005"},{"id":51001,"title":"Динни Бин мертва","kp_id":"1092938","imdb_id":"tt6957182","world_art_id":null,"type":"movie","add":"2021-06-07 15:12:50","orig_title":"Deany Bean is Dead","year":"2018-06-16","translations":["Любительский (многоголосый закадровый) (Синема УС)"],"quality":"webdl","translation":"Любительский (многоголосый закадровый) (Синема УС)","update":"2021-06-08 08:39:29","iframe_src":"//2413.svetacdn.in/71tsRs29n5tZ/movie/51001"},{"id":50999,"title":"Корпорация \"Пекло\"","kp_id":"1442510","imdb_id":"tt13330106","world_art_id":null,"type":"movie","add":"2021-06-07 15:06:27","orig_title":"Brimstone Incorporated","year":"2021-04-13","translations":["Любительский (многоголосый закадровый) (Синема УС)"],"quality":"webdl","translation":"Любительский (многоголосый закадровый) (Синема УС)","update":"2021-06-08 08:36:58","iframe_src":"//2413.svetacdn.in/71tsRs29n5tZ/movie/50999"},{"id":50998,"title":"Кровавый дух","kp_id":"1235233","imdb_id":"tt9680126","world_art_id":null,"type":"movie","add":"2021-06-07 15:05:04","orig_title":"Blood Spirit","year":"2020-06-18","translations":["Любительский (многоголосый закадровый) (Синема УС)"],"quality":"webdl","translation":"Любительский (многоголосый закадровый) (Синема УС)","update":"2021-06-08 08:35:50","iframe_src":"//2413.svetacdn.in/71tsRs29n5tZ/movie/50998"},{"id":50997,"title":"Плохой Бен: Пандемия","kp_id":"1412951","imdb_id":"tt12975140","world_art_id":null,"type":"movie","add":"2021-06-07 15:03:11","orig_title":"Bad Ben: Pandemic","year":"2020-08-21","translations":["Любительский (многоголосый закадровый) (AlphaProject)"],"quality":"webdl","translation":"Любительский (многоголосый закадровый) (AlphaProject)","update":"2021-06-08 08:34:36","iframe_src":"//2413.svetacdn.in/71tsRs29n5tZ/movie/50997"},{"id":49277,"title":"Левая рука Бога","kp_id":"10041","imdb_id":"tt0048291","world_art_id":null,"type":"movie","add":"2021-04-02 09:42:57","orig_title":"The Left Hand of God","year":"1955-09-02","translations":["Профессиональный (многоголосый закадровый) (Первый канал | ОРТ)","[EN] Original (English)"],"quality":"bd","translation":"Профессиональный (многоголосый закадровый) (Первый канал | ОРТ)","update":"2021-06-08 07:16:44","iframe_src":"//2413.svetacdn.in/71tsRs29n5tZ/movie/49277"},{"id":48910,"title":"Сладости жизни","kp_id":"6776","imdb_id":"tt0100024","world_art_id":null,"type":"movie","add":"2021-03-19 11:36:34","orig_title":"Life Is Sweet","year":"1990-11-15","translations":["Профессиональный (двухголосый закадровый)","[EN] Original (English)"],"quality":"bd","translation":"Профессиональный (двухголосый закадровый)","update":"2021-06-08 07:27:08","iframe_src":"//2413.svetacdn.in/71tsRs29n5tZ/movie/48910"},{"id":48620,"title":"Нюрнберг","kp_id":"93564","imdb_id":"tt0208629","world_art_id":null,"type":"movie","add":"2021-03-10 15:22:04","orig_title":"Nuremberg","year":"2000-07-16","translations":["Профессиональный (многоголосый закадровый)","[EN] Original (English)"],"quality":"bd","translation":"Профессиональный (многоголосый закадровый)","update":"2021-06-08 07:24:43","iframe_src":"//2413.svetacdn.in/71tsRs29n5tZ/movie/48620"},{"id":48334,"title":"Под водой!","kp_id":"12475","imdb_id":"tt0048764","world_art_id":null,"type":"movie","add":"2021-03-02 14:51:35","orig_title":"Underwater!","year":"1955-02-09","translations":["Любительский (одноголосый закадровый) (Andi999)","[EN] Original (English)"],"quality":"bd","translation":"Любительский (одноголосый закадровый) (Andi999)","update":"2021-06-08 07:13:58","iframe_src":"//2413.svetacdn.in/71tsRs29n5tZ/movie/48334"},{"id":48243,"title":"Моя дорогая Клементина","kp_id":"1150","imdb_id":"tt0038762","world_art_id":null,"type":"movie","add":"2021-02-25 08:15:07","orig_title":"My Darling Clementine","year":"1946-10-16","translations":["Профессиональный (многоголосый закадровый) (Светла)","[EN] Original (English)"],"quality":"bd","translation":"Профессиональный (многоголосый закадровый) (Светла)","update":"2021-06-08 07:25:45","iframe_src":"//2413.svetacdn.in/71tsRs29n5tZ/movie/48243"},{"id":47692,"title":"Странная парочка","kp_id":"11763","imdb_id":"tt0063374","world_art_id":null,"type":"movie","add":"2021-02-06 05:56:12","orig_title":"The Odd Couple","year":"1968-05-02","translations":["Профессиональный (многоголосый закадровый) (DVD Магия)","Профессиональный (многоголосый закадровый) (DVD Магия)","[EN] Original (English)"],"quality":"bd","translation":"Профессиональный (многоголосый закадровый) (DVD Магия)","update":"2021-06-08 07:15:59","iframe_src":"//2413.svetacdn.in/71tsRs29n5tZ/movie/47692"},{"id":47553,"title":"Верный шанс","kp_id":"15569","imdb_id":"tt0071194","world_art_id":null,"type":"movie","add":"2021-01-31 20:18:43","orig_title":"The Bank Shot","year":"1974-07-31","translations":["Профессиональный (двухголосый закадровый) (НТВ)","[EN] Original (English)"],"quality":"bd","translation":"Профессиональный (двухголосый закадровый) (НТВ)","update":"2021-06-08 07:19:03","iframe_src":"//2413.svetacdn.in/71tsRs29n5tZ/movie/47553"},{"id":47002,"title":"Хуарес","kp_id":"10345","imdb_id":"tt0031516","world_art_id":null,"type":"movie","add":"2021-01-12 20:20:01","orig_title":"Juarez","year":"1939-04-24","translations":["Профессиональный (одноголосый закадровый)","[EN] Original (English)"],"quality":"webdl","translation":"Профессиональный (одноголосый закадровый)","update":"2021-06-08 07:12:46","iframe_src":"//2413.svetacdn.in/71tsRs29n5tZ/movie/47002"},{"id":47000,"title":"Это случилось на Пятой авеню","kp_id":"93233","imdb_id":"tt0039502","world_art_id":null,"type":"movie","add":"2021-01-12 20:14:58","orig_title":"It Happened on Fifth Avenue","year":"1947-04-05","translations":["Авторский (одноголосый закадровый) (Рутилов Виктор | fiendover | overfiend)","[EN] Original (English)"],"quality":"bd","translation":"Авторский (одноголосый закадровый) (Рутилов Виктор | fiendover | overfiend)","update":"2021-06-08 07:28:24","iframe_src":"//2413.svetacdn.in/71tsRs29n5tZ/movie/47000"},{"id":26478,"title":"Охота на лис","kp_id":"42755","imdb_id":"tt0081271","world_art_id":null,"type":"movie","add":"2019-05-13 21:28:30","orig_title":"Okhota na lis","year":"1980-12-22","translations":["Оригинальная дорожка","Оригинальная дорожка"],"quality":"dvdrip","translation":"Оригинальная дорожка","update":"2021-06-08 07:30:39","iframe_src":"//2413.svetacdn.in/71tsRs29n5tZ/movie/26478"},{"id":19343,"title":"Детектив Ди: Четыре Небесных царя","kp_id":"1045291","imdb_id":"tt8647426","world_art_id":null,"type":"movie","add":"2018-10-04 00:26:05","orig_title":"Di Renjie: zhi si da tian wang","year":"2018-07-26","translations":["Любительский (многоголосый закадровый) (Колобок)","Профессиональный (многоголосый закадровый) (HDrezka Studio)","Профессиональный (многоголосый закадровый) (HDrezka Studio)"],"quality":"webdl","translation":"Любительский (многоголосый закадровый) (Колобок)","update":"2021-06-08 04:06:42","iframe_src":"//2413.svetacdn.in/71tsRs29n5tZ/movie/19343"},{"id":6862,"title":"Городские пижоны 2: Легенда о золоте Кёрли","kp_id":"1600","imdb_id":"tt0109439","world_art_id":null,"type":"movie","add":"2016-10-31 12:19:43","orig_title":"City Slickers II: The Legend of Curly's Gold","year":"1994-06-10","translations":["Профессиональный (многоголосый закадровый)","[EN] Original (English)","Профессиональный (многоголосый закадровый) (Первый канал | ОРТ)","Авторский (одноголосый закадровый) (Михалёв Алексей)"],"quality":"hdtv","translation":"Профессиональный (многоголосый закадровый)","update":"2021-06-08 06:07:28","iframe_src":"//2413.svetacdn.in/71tsRs29n5tZ/movie/6862"},{"id":464,"title":"Ведьма","kp_id":"981320","imdb_id":null,"world_art_id":null,"type":"serial","add":"2016-09-20 05:27:45","orig_title":"Відьма","year":"2016-05-16","translations":["Оригинальная дорожка"],"seasons_count":1,"episodes_count":20,"episodes":20,"update":"2016-09-20 10:46:19","iframe_src":"//2413.svetacdn.in/71tsRs29n5tZ/tv-series/464"},{"id":461,"title":"Случайных встреч не бывает","kp_id":"1006658","imdb_id":null,"world_art_id":null,"type":"serial","add":"2016-09-19 13:41:58","orig_title":"Случайных встреч не бывает","year":"2016-01-01","translations":["Оригинальная дорожка"],"seasons_count":1,"episodes_count":4,"episodes":4,"update":"2016-09-20 06:07:13","iframe_src":"//2413.svetacdn.in/71tsRs29n5tZ/tv-series/461"},{"id":458,"title":"Жертва","kp_id":"819763","imdb_id":"tt3315020","world_art_id":null,"type":"serial","add":"2016-09-19 12:47:13","orig_title":"Prey","year":"2014-04-28","translations":["Профессиональный (многоголосый закадровый) (ViruseProject)"],"seasons_count":2,"episodes_count":6,"episodes":3,"update":"2016-09-20 07:33:59","iframe_src":"//2413.svetacdn.in/71tsRs29n5tZ/tv-series/458"},{"id":457,"title":"Вайнберг","kp_id":"938692","imdb_id":"tt4380968","world_art_id":null,"type":"serial","add":"2016-09-19 09:21:29","orig_title":"Weinberg","year":"2015-10-06","translations":["Профессиональный (многоголосый закадровый) (ViruseProject)"],"seasons_count":1,"episodes_count":6,"episodes":6,"update":"2016-09-21 05:50:07","iframe_src":"//2413.svetacdn.in/71tsRs29n5tZ/tv-series/457"},{"id":456,"title":"Парень с работы","kp_id":"883805","imdb_id":"tt4334446","world_art_id":null,"type":"serial","add":"2016-09-19 09:15:40","orig_title":"Kevin from Work","year":"2015-08-12","translations":["Профессиональный (многоголосый закадровый) (ViruseProject)"],"seasons_count":1,"episodes_count":10,"episodes":10,"update":"2016-09-21 06:45:10","iframe_src":"//2413.svetacdn.in/71tsRs29n5tZ/tv-series/456"},{"id":452,"title":"Отцовский инстинкт","kp_id":"702035","imdb_id":null,"world_art_id":null,"type":"serial","add":"2016-09-19 04:09:23","orig_title":"Отцовский инстинкт","year":"2012-09-09","translations":["Оригинальная дорожка"],"seasons_count":1,"episodes_count":4,"episodes":4,"update":"2016-09-19 11:49:57","iframe_src":"//2413.svetacdn.in/71tsRs29n5tZ/tv-series/452"},{"id":451,"title":"Багряное поле","kp_id":"838421","imdb_id":"tt3494220","world_art_id":null,"type":"serial","add":"2016-09-18 16:04:30","orig_title":"The Crimson Field","year":"2014-04-06","translations":["Профессиональный (многоголосый закадровый) (ViruseProject)"],"seasons_count":1,"episodes_count":6,"episodes":6,"update":"2016-09-19 09:42:39","iframe_src":"//2413.svetacdn.in/71tsRs29n5tZ/tv-series/451"},{"id":450,"title":"После многих бед","kp_id":"990841","imdb_id":null,"world_art_id":null,"type":"serial","add":"2016-09-18 15:53:35","orig_title":"После многих бед","year":"2016-09-17","translations":["Оригинальная дорожка"],"seasons_count":1,"episodes_count":2,"episodes":2,"update":"2016-09-19 11:48:17","iframe_src":"//2413.svetacdn.in/71tsRs29n5tZ/tv-series/450"},{"id":449,"title":"Ивановы","kp_id":"940716","imdb_id":null,"world_art_id":null,"type":"serial","add":"2016-09-18 15:49:44","orig_title":"Ивановы","year":"2016-09-16","translations":["Оригинальная дорожка"],"seasons_count":1,"episodes_count":2,"episodes":2,"update":"2016-09-19 05:38:50","iframe_src":"//2413.svetacdn.in/71tsRs29n5tZ/tv-series/449"},{"id":448,"title":"Свой чужой сын","kp_id":"1006631","imdb_id":null,"world_art_id":null,"type":"serial","add":"2016-09-18 15:44:05","orig_title":"Свой чужой сын","year":"2016-06-17","translations":["Оригинальная дорожка"],"seasons_count":1,"episodes_count":4,"episodes":4,"update":"2016-09-19 05:49:38","iframe_src":"//2413.svetacdn.in/71tsRs29n5tZ/tv-series/448"},{"id":447,"title":"Отель последней надежды","kp_id":"996638","imdb_id":null,"world_art_id":null,"type":"serial","add":"2016-09-18 15:37:55","orig_title":"Отель последней надежды","year":"2016-09-17","translations":["Оригинальная дорожка"],"seasons_count":1,"episodes_count":4,"episodes":4,"update":"2016-09-19 05:24:10","iframe_src":"//2413.svetacdn.in/71tsRs29n5tZ/tv-series/447"},{"id":446,"title":"Капитан полиции метро","kp_id":"1001699","imdb_id":null,"world_art_id":null,"type":"serial","add":"2016-09-16 15:19:03","orig_title":"Капитан полиции метро","year":"2016-09-16","translations":["Оригинальная дорожка"],"seasons_count":1,"episodes_count":2,"episodes":2,"update":"2016-09-19 06:01:23","iframe_src":"//2413.svetacdn.in/71tsRs29n5tZ/tv-series/446"},{"id":440,"title":"Тиран","kp_id":"723534","imdb_id":"tt2568204","world_art_id":null,"type":"serial","add":"2016-09-14 14:02:41","orig_title":"Tyrant","year":"2014-06-24","translations":["Профессиональный (многоголосый закадровый) (NewStudio)"],"seasons_count":3,"episodes_count":32,"episodes":10,"update":"2016-09-15 11:06:37","iframe_src":"//2413.svetacdn.in/71tsRs29n5tZ/tv-series/440"},{"id":438,"title":"Чтобы увидеть радугу...","kp_id":"966755","imdb_id":null,"world_art_id":null,"type":"serial","add":"2016-09-12 11:41:42","orig_title":"Чтобы увидеть радугу...","year":"2016-02-27","translations":["Оригинальная дорожка"],"seasons_count":1,"episodes_count":4,"episodes":4,"update":"2016-09-14 07:54:38","iframe_src":"//2413.svetacdn.in/71tsRs29n5tZ/tv-series/438"},{"id":436,"title":"Медсестра","kp_id":"999459","imdb_id":null,"world_art_id":null,"type":"serial","add":"2016-09-12 06:14:50","orig_title":"Медсестра","year":"2016-09-12","translations":["Оригинальная дорожка"],"seasons_count":1,"episodes_count":12,"episodes":12,"update":"2016-09-21 05:59:42","iframe_src":"//2413.svetacdn.in/71tsRs29n5tZ/tv-series/436"},{"id":429,"title":"Харли и братья Дэвидсон","kp_id":"983078","imdb_id":"tt5111414","world_art_id":null,"type":"serial","add":"2016-09-09 17:04:41","orig_title":"Harley and the Davidsons","year":"2016-09-05","translations":["Профессиональный (многоголосый закадровый) (NewStudio)"],"seasons_count":1,"episodes_count":3,"episodes":3,"update":"2016-09-12 10:09:30","iframe_src":"//2413.svetacdn.in/71tsRs29n5tZ/tv-series/429"},{"id":427,"title":"Инспектор Купер 2","kp_id":"837752","imdb_id":"tt4792606","world_art_id":null,"type":"serial","add":"2016-09-09 05:44:42","orig_title":"Inspektor Kuper 2","year":"2015-05-25","translations":["Оригинальная дорожка"],"seasons_count":1,"episodes_count":30,"episodes":30,"update":"2016-09-13 07:40:02","iframe_src":"//2413.svetacdn.in/71tsRs29n5tZ/tv-series/427"},{"id":412,"title":"Жемчуга (Тайна русской жемчужины)","kp_id":"957750","imdb_id":null,"world_art_id":null,"type":"serial","add":"2016-09-06 06:07:09","orig_title":"Жемчуга (Тайна русской жемчужины)","year":"2016-09-05","translations":["Оригинальная дорожка"],"seasons_count":1,"episodes_count":24,"episodes":24,"update":"2016-09-16 07:03:28","iframe_src":"//2413.svetacdn.in/71tsRs29n5tZ/tv-series/412"},{"id":314,"title":"Шаман","kp_id":"646791","imdb_id":"tt3172272","world_art_id":null,"type":"serial","add":"2016-07-26 15:51:22","orig_title":"Shaman","year":"2011-12-19","translations":["Оригинальная дорожка"],"seasons_count":3,"episodes_count":80,"episodes":32,"update":"2016-09-16 07:22:32","iframe_src":"//2413.svetacdn.in/71tsRs29n5tZ/tv-series/314"},{"id":4052,"title":"Капитан Крюк","kp_id":"4057","imdb_id":"tt0102057","world_art_id":null,"type":"movie","add":"2016-07-20 10:43:25","orig_title":"Hook","year":"1991-12-08","translations":["Полное дублирование","Авторский (одноголосый закадровый) (Дохалов Вартан)","Авторский (одноголосый закадровый) (Сонькин Владимир)","Авторский (одноголосый закадровый) (Живов Юрий)","Полное дублирование","[EN] Original (English)","Профессиональный (многоголосый закадровый)","Профессиональный (многоголосый закадровый) (Superbit)"],"quality":"bd","translation":"Полное дублирование","update":"2021-06-08 08:03:31","iframe_src":"//2413.svetacdn.in/71tsRs29n5tZ/movie/4052"},{"id":244,"title":"Американская готика","kp_id":"958573","imdb_id":"tt5257744","world_art_id":null,"type":"serial","add":"2016-07-03 06:44:36","orig_title":"American Gothic","year":"2016-06-22","translations":["Профессиональный (многоголосый закадровый) (NewStudio)"],"seasons_count":1,"episodes_count":13,"episodes":13,"update":"2016-09-15 04:52:55","iframe_src":"//2413.svetacdn.in/71tsRs29n5tZ/tv-series/244"},{"id":1994,"title":"Настоящая любовь","kp_id":"4149","imdb_id":"tt0108399","world_art_id":null,"type":"movie","add":"2016-05-09 05:22:42","orig_title":"True Romance","year":"1993-09-10","translations":["Профессиональный (многоголосый закадровый)","Авторский (одноголосый закадровый) (Чадов Михаил)","Авторский (одноголосый закадровый) (Гаврилов Андрей)","Авторский (одноголосый закадровый) (Живов Юрий)","[EN] Original (English)","Любительский (одноголосый закадровый)","Профессиональный (двухголосый закадровый) (Тивионика)","Профессиональный (двухголосый закадровый) (Гланц + Королёва)","Профессиональный (многоголосый закадровый) (5-й канал СПб)","Профессиональный (многоголосый закадровый) (ДТВ)","Профессиональный (многоголосый закадровый) (Киномания)","Профессиональный (многоголосый закадровый) (ТВЦ)","Профессиональный (многоголосый закадровый) (Twister)"],"quality":"bd","translation":"Профессиональный (многоголосый закадровый)","update":"2021-06-08 08:22:08","iframe_src":"//2413.svetacdn.in/71tsRs29n5tZ/movie/1994"},{"id":1119,"title":"Не оставляющий следа","kp_id":"264021","imdb_id":"tt0880578","world_art_id":null,"type":"movie","add":"2016-04-14 18:12:52","orig_title":"Untraceable","year":"2008-01-22","translations":["Полное дублирование","Авторский (одноголосый закадровый) (Немахов Юрий)","Полное дублирование","[EN] Original (English)"],"quality":"bd","translation":"Полное дублирование","update":"2021-06-08 07:36:41","iframe_src":"//2413.svetacdn.in/71tsRs29n5tZ/movie/1119"}],"current_page":610,"first_page_url":"https://videocdn.tv/api/short?limit=100&api_token=EnbO9h8pv1VyjbCJhg0WM9nG259n7mtz&cache3610=3610&page=1","from":60901,"last_page":720,"last_page_url":"https://videocdn.tv/api/short?limit=100&api_token=EnbO9h8pv1VyjbCJhg0WM9nG259n7mtz&cache3610=3610&page=720","next_page_url":"https://videocdn.tv/api/short?limit=100&api_token=EnbO9h8pv1VyjbCJhg0WM9nG259n7mtz&cache3610=3610&page=611","path":"https://videocdn.tv/api/short","per_page":100,"prev_page_url":"https://videocdn.tv/api/short?limit=100&api_token=EnbO9h8pv1VyjbCJhg0WM9nG259n7mtz&cache3610=3610&page=609","to":60940,"total":71963}