{"result":true,"data":[{"id":54491,"title":"Тропа призраков","kp_id":"4414818","imdb_id":"tt14102146","world_art_id":null,"type":"movie","add":"2021-11-12 21:28:51","orig_title":"Haunted Trail","year":"2021-10-28","translations":["Любительский (многоголосый закадровый) (Синема УС)"],"quality":"webdl","translation":"Любительский (многоголосый закадровый) (Синема УС)","update":"2021-11-13 06:05:30","iframe_src":"//8422.svetacdn.in/IAF0wWTdNYZm/movie/54491"},{"id":54488,"title":"Рождество в Койот-Крик","kp_id":"4547372","imdb_id":"tt15205430","world_art_id":null,"type":"movie","add":"2021-11-12 21:25:43","orig_title":"Coyote Creek Christmas","year":"2021-10-30","translations":["Любительский (многоголосый закадровый) (Синема УС)"],"quality":"hdtv","translation":"Любительский (многоголосый закадровый) (Синема УС)","update":"2021-11-13 06:05:55","iframe_src":"//8422.svetacdn.in/IAF0wWTdNYZm/movie/54488"},{"id":54487,"title":"Рождество семейства Рич","kp_id":"2000754","imdb_id":"tt12807538","world_art_id":null,"type":"movie","add":"2021-11-12 21:24:07","orig_title":"A Rich Christmas","year":"2021-11-04","translations":["Любительский (многоголосый закадровый) (Синема УС)"],"quality":"webdl","translation":"Любительский (многоголосый закадровый) (Синема УС)","update":"2021-11-13 06:06:26","iframe_src":"//8422.svetacdn.in/IAF0wWTdNYZm/movie/54487"},{"id":54484,"title":"Он","kp_id":"1403691","imdb_id":"tt13002242","world_art_id":null,"type":"movie","add":"2021-11-12 21:16:36","orig_title":"Lui","year":"2021-10-06","translations":["Любительский (многоголосый закадровый) (Синема УС)"],"quality":"ts","translation":"Любительский (многоголосый закадровый) (Синема УС)","update":"2021-11-13 06:07:31","iframe_src":"//8422.svetacdn.in/IAF0wWTdNYZm/movie/54484"},{"id":54483,"title":"Агата Кристи: 100 лет неизведанного","kp_id":null,"imdb_id":"tt13424900","world_art_id":null,"type":"movie","add":"2021-11-12 21:11:28","orig_title":"Agatha Christie: 100 Years of Poirot and Miss Marple","year":"2020-10-10","translations":["Любительский (многоголосый закадровый) (AlphaProject)"],"quality":"webdl","translation":"Любительский (многоголосый закадровый) (AlphaProject)","update":"2021-11-13 06:12:10","iframe_src":"//8422.svetacdn.in/IAF0wWTdNYZm/movie/54483"},{"id":54451,"title":"Легенда о великом мастере дзюдо 2","kp_id":"146785","imdb_id":"tt0038268","world_art_id":null,"type":"movie","add":"2021-11-12 05:33:32","orig_title":"Zoku Sugata Sanshirô","year":"1945-05-03","translations":["Авторский (одноголосый закадровый) (Кузнецов Сергей)"],"quality":"bd","translation":"Авторский (одноголосый закадровый) (Кузнецов Сергей)","update":"2021-11-12 13:26:11","iframe_src":"//8422.svetacdn.in/IAF0wWTdNYZm/movie/54451"},{"id":54448,"title":"Сошествие в ад","kp_id":"15083","imdb_id":"tt0090933","world_art_id":null,"type":"movie","add":"2021-11-11 16:12:46","orig_title":"Descente aux enfers","year":"1986-11-05","translations":["Профессиональный (двухголосый закадровый)"],"quality":"webdl","translation":"Профессиональный (двухголосый закадровый)","update":"2021-11-12 09:28:44","iframe_src":"//8422.svetacdn.in/IAF0wWTdNYZm/movie/54448"},{"id":54447,"title":"Расхитители гробниц","kp_id":"137797","imdb_id":"tt0282672","world_art_id":null,"type":"movie","add":"2021-11-11 16:02:20","orig_title":"Ladrones de tumbas","year":"1989-11-03","translations":["Любительский (одноголосый закадровый) (ДиоНиК)"],"quality":"bd","translation":"Любительский (одноголосый закадровый) (ДиоНиК)","update":"2021-11-12 08:55:37","iframe_src":"//8422.svetacdn.in/IAF0wWTdNYZm/movie/54447"},{"id":54446,"title":"Допрос Майкла Кроу","kp_id":"297680","imdb_id":"tt0330452","world_art_id":null,"type":"movie","add":"2021-11-11 15:57:30","orig_title":"The Interrogation of Michael Crowe","year":"2002-12-04","translations":["Original (English)","Авторский (одноголосый закадровый) (Кузнецов Сергей)"],"quality":"webdl","translation":"Original (English)","update":"2021-11-12 09:32:11","iframe_src":"//8422.svetacdn.in/IAF0wWTdNYZm/movie/54446"},{"id":54315,"title":"Вечные","kp_id":"1198811","imdb_id":"tt9032400","world_art_id":null,"type":"movie","add":"2021-11-05 21:08:27","orig_title":"Eternals","year":"2021-10-18","translations":["Любительский (двухголосый закадровый) (Колобок)","Полное дублирование"],"quality":"ts","translation":"Любительский (двухголосый закадровый) (Колобок)","update":"2021-11-13 06:12:55","iframe_src":"//8422.svetacdn.in/IAF0wWTdNYZm/movie/54315"},{"id":53191,"title":"Дом на другой стороне","kp_id":"1271405","imdb_id":"tt9731534","world_art_id":null,"type":"movie","add":"2021-09-17 13:37:53","orig_title":"The Night House","year":"2020-01-24","translations":["Original (English)","Полное дублирование","Полное дублирование (Line)","Профессиональный (двухголосый закадровый) (Pazl Voice)","Полное дублирование (Невафильм | Нева-1)"],"quality":"webdl","translation":"Original (English)","update":"2021-11-12 10:00:47","iframe_src":"//8422.svetacdn.in/IAF0wWTdNYZm/movie/53191"},{"id":52841,"title":"Шан-Чи и легенда десяти колец","kp_id":"1219149","imdb_id":"tt9376612","world_art_id":null,"type":"movie","add":"2021-09-03 14:27:15","orig_title":"Shang-Chi and the Legend of the Ten Rings","year":"2021-08-16","translations":["Любительский (многоголосый закадровый) (Ultradox)","Original (English)","Полное дублирование (iTunes)"],"quality":"bd","translation":"Любительский (многоголосый закадровый) (Ultradox)","update":"2021-11-12 13:25:11","iframe_src":"//8422.svetacdn.in/IAF0wWTdNYZm/movie/52841"},{"id":10933,"title":"Наполеон и Жозефина. История любви","kp_id":"233520","imdb_id":"tt0092411","world_art_id":null,"type":"serial","add":"2021-06-23 10:36:57","orig_title":"Napoleon and Josephine: A Love Story","year":"1987-11-10","translations":["Полное дублирование (Первый канал | ОРТ)"],"seasons_count":1,"episodes_count":3,"episodes":3,"update":"2021-06-24 06:34:51","iframe_src":"//8422.svetacdn.in/IAF0wWTdNYZm/tv-series/10933"},{"id":10931,"title":"Нам здесь жить","kp_id":"596031","imdb_id":"tt4554556","world_art_id":null,"type":"serial","add":"2021-06-23 08:09:24","orig_title":"Nam zdes zhit","year":"1982-01-01","translations":["Оригинальная дорожка"],"seasons_count":1,"episodes_count":3,"episodes":3,"update":"2021-06-24 06:31:02","iframe_src":"//8422.svetacdn.in/IAF0wWTdNYZm/tv-series/10931"},{"id":10930,"title":"Призрак","kp_id":"1224113","imdb_id":null,"world_art_id":null,"type":"serial","add":"2021-06-21 11:05:55","orig_title":"Призрак","year":"2021-06-23","translations":["Оригинальная дорожка"],"seasons_count":1,"episodes_count":4,"episodes":4,"update":"2021-06-25 07:13:57","iframe_src":"//8422.svetacdn.in/IAF0wWTdNYZm/tv-series/10930"},{"id":10906,"title":"Хитрости","kp_id":"4467466","imdb_id":"tt11815682","world_art_id":null,"type":"serial","add":"2021-06-15 19:09:13","orig_title":"Hacks","year":"2021-05-13","translations":["Профессиональный (многоголосый закадровый) (TVShows)","Профессиональный (многоголосый закадровый) (Novamedia)"],"seasons_count":1,"episodes_count":10,"episodes":10,"update":"2021-06-23 20:23:16","iframe_src":"//8422.svetacdn.in/IAF0wWTdNYZm/tv-series/10906"},{"id":10891,"title":"Смешанный лицей","kp_id":"1404674","imdb_id":"tt11243112","world_art_id":null,"type":"serial","add":"2021-06-14 08:44:53","orig_title":"Mixte","year":"2021-06-14","translations":["Любительский (многоголосый закадровый) (Ultradox)","Любительский (многоголосый закадровый) (ColdFilm)"],"seasons_count":1,"episodes_count":8,"episodes":8,"update":"2021-06-23 12:54:18","iframe_src":"//8422.svetacdn.in/IAF0wWTdNYZm/tv-series/10891"},{"id":10860,"title":"Мемфис Бит","kp_id":"462486","imdb_id":"tt1409008","world_art_id":null,"type":"serial","add":"2021-06-09 07:44:16","orig_title":"Memphis Beat","year":"2010-06-22","translations":["Профессиональный (двухголосый закадровый) (Кубик в Кубе)","Любительский (многоголосый закадровый)"],"seasons_count":2,"episodes_count":20,"episodes":10,"update":"2021-06-23 19:02:45","iframe_src":"//8422.svetacdn.in/IAF0wWTdNYZm/tv-series/10860"},{"id":10859,"title":"Жена моего зятя","kp_id":"971168","imdb_id":"tt5546078","world_art_id":null,"type":"serial","add":"2021-06-09 07:33:18","orig_title":"Nae sawiui yeoja","year":"2016-01-04","translations":["Любительский (двухголосый закадровый) (SoftBox)"],"seasons_count":1,"episodes_count":72,"episodes":72,"update":"2021-06-24 19:06:53","iframe_src":"//8422.svetacdn.in/IAF0wWTdNYZm/tv-series/10859"},{"id":10856,"title":"Ведьма","kp_id":"592466","imdb_id":"tt1947083","world_art_id":null,"type":"serial","add":"2021-06-08 20:08:09","orig_title":"La Bruja","year":"2011-05-30","translations":["Профессиональный (многоголосый закадровый) (Видеопродакшн)"],"seasons_count":1,"episodes_count":29,"episodes":29,"update":"2021-06-23 19:26:40","iframe_src":"//8422.svetacdn.in/IAF0wWTdNYZm/tv-series/10856"},{"id":10841,"title":"Срок","kp_id":"1447322","imdb_id":"tt13138834","world_art_id":null,"type":"serial","add":"2021-06-07 06:20:32","orig_title":"Time","year":"2021-06-06","translations":["Любительский (многоголосый закадровый) (Ultradox)","Любительский (многоголосый закадровый) (ColdFilm)","Профессиональный (многоголосый закадровый) (BaibaKo)","Профессиональный (многоголосый закадровый) (The Kitchen Russia)","Профессиональный (многоголосый закадровый) (LostFilm)","Профессиональный (многоголосый закадровый) (HDrezka Studio)"],"seasons_count":1,"episodes_count":3,"episodes":3,"update":"2021-06-25 09:18:15","iframe_src":"//8422.svetacdn.in/IAF0wWTdNYZm/tv-series/10841"},{"id":10791,"title":"Госпожа Горничная","kp_id":"646362","imdb_id":"tt2087566","world_art_id":null,"type":"serial","add":"2021-05-31 20:21:04","orig_title":"Una Maid en Manhattan","year":"2011-11-29","translations":["Профессиональный (многоголосый закадровый)"],"seasons_count":1,"episodes_count":163,"episodes":163,"update":"2021-06-22 21:01:17","iframe_src":"//8422.svetacdn.in/IAF0wWTdNYZm/tv-series/10791"},{"id":10388,"title":"Они","kp_id":"1290127","imdb_id":"tt9064858","world_art_id":null,"type":"serial","add":"2021-04-09 05:44:16","orig_title":"Them","year":"2021-04-09","translations":["Любительский (многоголосый закадровый) (ColdFilm)","Любительский (многоголосый закадровый) (Ultradox)","Профессиональный (многоголосый закадровый) (HDrezka Studio)","Профессиональный (многоголосый закадровый) (BaibaKo)","Профессиональный (многоголосый закадровый) (TVShows)"],"seasons_count":1,"episodes_count":10,"episodes":10,"update":"2021-06-25 10:11:19","iframe_src":"//8422.svetacdn.in/IAF0wWTdNYZm/tv-series/10388"},{"id":44289,"title":"Мясо и кровь","kp_id":"1126786","imdb_id":"tt8386958","world_art_id":null,"type":"movie","add":"2020-10-09 22:37:18","orig_title":"Kød & blod","year":"2020-02-21","translations":["Любительский (многоголосый закадровый) (AlphaProject)","Профессиональный (двухголосый закадровый) (Pazl Voice)"],"quality":"webdl","translation":"Любительский (многоголосый закадровый) (AlphaProject)","update":"2021-11-12 08:52:56","iframe_src":"//8422.svetacdn.in/IAF0wWTdNYZm/movie/44289"},{"id":7637,"title":"Поселенцы","kp_id":"1245521","imdb_id":"tt9426272","world_art_id":null,"type":"serial","add":"2020-05-26 16:49:09","orig_title":"Barkskins","year":"2020-05-25","translations":["Любительский (многоголосый закадровый) (Octopus)","Профессиональный (многоголосый закадровый) (BaibaKo)","Профессиональный (многоголосый закадровый) (IdeaFilm)","Любительский (многоголосый закадровый) (ColdFilm)","Профессиональный (многоголосый закадровый) (Велес)","Профессиональный (многоголосый закадровый) (TVShows)"],"seasons_count":1,"episodes_count":8,"episodes":8,"update":"2021-06-24 09:32:37","iframe_src":"//8422.svetacdn.in/IAF0wWTdNYZm/tv-series/7637"},{"id":7311,"title":"Том и Джерри","kp_id":"1145146","imdb_id":"tt12158994","world_art_id":null,"type":"serial","add":"2020-04-26 09:35:21","orig_title":"Tom and Jerry","year":"1940-02-10","translations":["Профессиональный (многоголосый закадровый) (СТС)","Любительский (одноголосый закадровый) (Ошурков Максим)","Любительский (одноголосый закадровый)","Профессиональный (многоголосый закадровый)"],"seasons_count":1,"episodes_count":161,"episodes":34,"update":"2021-06-23 12:25:12","iframe_src":"//8422.svetacdn.in/IAF0wWTdNYZm/tv-series/7311"},{"id":5337,"title":"Триада","kp_id":"1271111","imdb_id":"tt11041540","world_art_id":null,"type":"serial","add":"2019-09-30 15:38:58","orig_title":"Триада","year":"2019-09-30","translations":["Оригинальная дорожка"],"seasons_count":2,"episodes_count":32,"episodes":16,"update":"2021-06-25 07:13:09","iframe_src":"//8422.svetacdn.in/IAF0wWTdNYZm/tv-series/5337"},{"id":4494,"title":"Семейный брак","kp_id":"1174219","imdb_id":"tt8708280","world_art_id":null,"type":"serial","add":"2019-05-13 07:01:17","orig_title":"State of the Union","year":"2019-05-06","translations":["Профессиональный (многоголосый закадровый) (IdeaFilm)","Любительский (многоголосый закадровый) (ColdFilm)","Профессиональный (многоголосый закадровый) (HDrezka Studio)","Полное дублирование (Кириллица)","Профессиональный (многоголосый закадровый) (TVShows)"],"seasons_count":1,"episodes_count":10,"episodes":10,"update":"2021-06-23 07:44:03","iframe_src":"//8422.svetacdn.in/IAF0wWTdNYZm/tv-series/4494"},{"id":4443,"title":"Джентльмен Джек","kp_id":"1166571","imdb_id":"tt7211618","world_art_id":null,"type":"serial","add":"2019-05-03 15:09:00","orig_title":"Gentleman Jack","year":"2019-04-22","translations":["Профессиональный (многоголосый закадровый) (TVShows)","Профессиональный (многоголосый закадровый) (NewStudio)","Профессиональный (многоголосый закадровый) (HDrezka Studio)","Профессиональный (многоголосый закадровый) (Greb&Creative)"],"seasons_count":1,"episodes_count":8,"episodes":8,"update":"2021-06-23 07:55:12","iframe_src":"//8422.svetacdn.in/IAF0wWTdNYZm/tv-series/4443"},{"id":3274,"title":"Элита","kp_id":"1117735","imdb_id":"tt7134908","world_art_id":null,"type":"serial","add":"2018-10-09 11:56:06","orig_title":"Élite","year":"2018-10-05","translations":["Профессиональный (многоголосый закадровый) (IdeaFilm)","Профессиональный (многоголосый закадровый) (NewStudio)","Профессиональный (многоголосый закадровый) (HDrezka Studio)","Профессиональный (многоголосый закадровый) (TVShows)","Профессиональный (двухголосый закадровый) (ViruseProject)","Полное дублирование (Пифагор)","Профессиональный (многоголосый закадровый) (HDrezka Studio 18+)","Любительский (двухголосый закадровый) (Hamster Studio)","Профессиональный (двухголосый закадровый) (Gears Media)","Любительский (многоголосый закадровый) (Octopus)","Любительский (многоголосый закадровый) (ColdFilm)","Профессиональный (многоголосый закадровый) (BaibaKo)","Любительский (многоголосый закадровый) (Ultradox)"],"seasons_count":4,"episodes_count":32,"episodes":8,"update":"2021-06-24 19:37:29","iframe_src":"//8422.svetacdn.in/IAF0wWTdNYZm/tv-series/3274"},{"id":1037,"title":"Большая маленькая ложь","kp_id":"947758","imdb_id":"tt3920596","world_art_id":null,"type":"serial","add":"2017-02-23 04:58:08","orig_title":"Big Little Lies","year":"2017-02-19","translations":["Профессиональный (многоголосый закадровый) (NewStudio)","Профессиональный (многоголосый закадровый) (Amedia)","Профессиональный (многоголосый закадровый) (TVShows)","Профессиональный (многоголосый закадровый) (HDrezka Studio)","Любительский (двухголосый закадровый) (Hamster Studio)","Профессиональный (многоголосый закадровый) (LostFilm)","Профессиональный (многоголосый закадровый) (Novamedia)"],"seasons_count":2,"episodes_count":14,"episodes":7,"update":"2021-06-23 10:32:06","iframe_src":"//8422.svetacdn.in/IAF0wWTdNYZm/tv-series/1037"},{"id":6558,"title":"Окно спальни","kp_id":"12344","imdb_id":"tt0092627","world_art_id":null,"type":"movie","add":"2016-10-21 05:30:53","orig_title":"The Bedroom Window","year":"1987-01-16","translations":["Original (English)","Полное дублирование (Мосфильм)","Профессиональный (двухголосый закадровый) (НТВ)","Профессиональный (двухголосый закадровый) (CP Digital)","Профессиональный (двухголосый закадровый) (Екатеринбург Арт)"],"quality":"webdl","translation":"Original (English)","update":"2021-11-12 13:28:17","iframe_src":"//8422.svetacdn.in/IAF0wWTdNYZm/movie/6558"},{"id":6507,"title":"На берегу реки","kp_id":"3815","imdb_id":"tt0091860","world_art_id":null,"type":"movie","add":"2016-10-20 05:51:56","orig_title":"River's Edge","year":"1986-08-27","translations":["Профессиональный (двухголосый закадровый)","Профессиональный (двухголосый закадровый) (НТВ)","Original (English)"],"quality":"bd","translation":"Профессиональный (двухголосый закадровый)","update":"2021-11-12 09:24:38","iframe_src":"//8422.svetacdn.in/IAF0wWTdNYZm/movie/6507"},{"id":6487,"title":"Золотой ребенок","kp_id":"5282","imdb_id":"tt0091129","world_art_id":null,"type":"movie","add":"2016-10-19 16:42:09","orig_title":"The Golden Child","year":"1986-12-12","translations":["Авторский (одноголосый закадровый) (Гаврилов Андрей)","Авторский (одноголосый закадровый) (Горчаков Василий)","Авторский (одноголосый закадровый) (Михалёв Алексей)","Авторский (одноголосый закадровый) (Товбин Юрий)","Original (English)","Профессиональный (двухголосый закадровый) (НТВ)","Профессиональный (двухголосый закадровый) (Премьер Видео Фильм)","Профессиональный (двухголосый закадровый) (Ульпаней Эльром)","Профессиональный (многоголосый закадровый) (СТС)","Профессиональный (многоголосый закадровый) (РТР | Россия)","Профессиональный (многоголосый закадровый) (ТВЦ)"],"quality":"bd","translation":"Авторский (одноголосый закадровый) (Гаврилов Андрей)","update":"2021-11-12 13:41:37","iframe_src":"//8422.svetacdn.in/IAF0wWTdNYZm/movie/6487"},{"id":4536,"title":"Гарри – друг, который желает Вам добра","kp_id":"690","imdb_id":"tt0216800","world_art_id":null,"type":"movie","add":"2016-08-18 08:59:47","orig_title":"Harry, un ami qui vous veut du bien","year":"2000-08-15","translations":["Профессиональный (многоголосый закадровый)"],"quality":"bd","translation":"Профессиональный (многоголосый закадровый)","update":"2021-11-12 08:50:38","iframe_src":"//8422.svetacdn.in/IAF0wWTdNYZm/movie/4536"},{"id":4038,"title":"Джуманджи","kp_id":"8161","imdb_id":"tt0113497","world_art_id":null,"type":"movie","add":"2016-07-20 10:04:59","orig_title":"Jumanji","year":"1995-12-15","translations":["Авторский (одноголосый закадровый) (Гаврилов Андрей)","Авторский (одноголосый закадровый) (Леша-прапорщик)","Авторский (одноголосый закадровый) (Визгунов Сергей)","Авторский (одноголосый закадровый) (Живов Юрий)","Полное дублирование","Original (English)","Профессиональный (многоголосый закадровый) (СТС)","Профессиональный (многоголосый закадровый) (НТВ)","Профессиональный (многоголосый закадровый) (Первый канал | ОРТ)","Профессиональный (многоголосый закадровый) (РТР | Россия)","Профессиональный (многоголосый закадровый) (Superbit)","Профессиональный (многоголосый закадровый) (Видеосервис)"],"quality":"bd","translation":"Авторский (одноголосый закадровый) (Гаврилов Андрей)","update":"2021-11-12 09:58:37","iframe_src":"//8422.svetacdn.in/IAF0wWTdNYZm/movie/4038"},{"id":3200,"title":"Кирпич","kp_id":"77609","imdb_id":"tt0393109","world_art_id":null,"type":"movie","add":"2016-06-16 07:41:42","orig_title":"Brick","year":"2005-09-06","translations":["Профессиональный (многоголосый закадровый)","Авторский (одноголосый закадровый) (Яроцкий Михаил | Kyberpunk)","Original (English)","Полное дублирование (Netflix)","Профессиональный (многоголосый закадровый)"],"quality":"bd","translation":"Профессиональный (многоголосый закадровый)","update":"2021-11-12 13:17:10","iframe_src":"//8422.svetacdn.in/IAF0wWTdNYZm/movie/3200"},{"id":153,"title":"Дарреллы","kp_id":"957807","imdb_id":"tt5014882","world_art_id":null,"type":"serial","add":"2016-06-07 13:05:27","orig_title":"The Durrells","year":"2016-04-03","translations":["Профессиональный (многоголосый закадровый) (Jaskier)","Профессиональный (многоголосый закадровый) (TVShows)","Полное дублирование (Lucky Production)","Профессиональный (многоголосый закадровый) (BaibaKo)","Любительский (двухголосый закадровый) (Sunshine Studio)"],"seasons_count":4,"episodes_count":26,"episodes":6,"update":"2021-06-24 11:46:51","iframe_src":"//8422.svetacdn.in/IAF0wWTdNYZm/tv-series/153"},{"id":61,"title":"Сумеречные охотники","kp_id":"893830","imdb_id":"tt4145054","world_art_id":null,"type":"serial","add":"2016-04-22 07:24:11","orig_title":"Shadowhunters","year":"2016-01-12","translations":["Профессиональный (многоголосый закадровый) (OMSKBIRD records)","Профессиональный (многоголосый закадровый) (NewStudio)","Полное дублирование (RuFilms)","Профессиональный (многоголосый закадровый) (BaibaKo)","Любительский (двухголосый закадровый) (NEON Studio)","Профессиональный (многоголосый закадровый) (TVShows)"],"seasons_count":3,"episodes_count":55,"episodes":22,"update":"2021-06-23 08:54:59","iframe_src":"//8422.svetacdn.in/IAF0wWTdNYZm/tv-series/61"},{"id":687,"title":"Запрещенный прием","kp_id":"429827","imdb_id":"tt0978764","world_art_id":null,"type":"movie","add":"2016-04-05 21:29:13","orig_title":"Sucker Punch","year":"2011-03-21","translations":["Авторский (одноголосый закадровый) (Гаврилов Андрей)","Авторский (одноголосый закадровый) (Матвеев Алексей | Doctor Joker)","Полное дублирование (Мосфильм)","Original (English)","Любительский (одноголосый закадровый) (acolith)","Любительский (одноголосый закадровый)","Профессиональный (двухголосый закадровый) (Кубик в Кубе)"],"quality":"bd","translation":"Авторский (одноголосый закадровый) (Гаврилов Андрей)","update":"2021-11-12 09:46:56","iframe_src":"//8422.svetacdn.in/IAF0wWTdNYZm/movie/687"}],"current_page":102,"first_page_url":"https://videocdn.tv/api/short?limit=100&api_token=6Onb1W1alEUrBcKJZD3GoKBbWyAl2uG2&cache3102=3102&page=1","from":10101,"last_page":690,"last_page_url":"https://videocdn.tv/api/short?limit=100&api_token=6Onb1W1alEUrBcKJZD3GoKBbWyAl2uG2&cache3102=3102&page=690","next_page_url":"https://videocdn.tv/api/short?limit=100&api_token=6Onb1W1alEUrBcKJZD3GoKBbWyAl2uG2&cache3102=3102&page=103","path":"https://videocdn.tv/api/short","per_page":100,"prev_page_url":"https://videocdn.tv/api/short?limit=100&api_token=6Onb1W1alEUrBcKJZD3GoKBbWyAl2uG2&cache3102=3102&page=101","to":10140,"total":68978}