{"result":true,"data":[{"id":33707,"title":"Тревожное исчезновение","kp_id":"1245621","imdb_id":"tt9844166","world_art_id":null,"type":"movie","add":"2019-12-04 14:51:04","orig_title":"Disparition inquiétante","year":"2019-02-27","translations":["Любительский (многоголосый закадровый) (AlphaProject)"],"quality":"hdtv","translation":"Любительский (многоголосый закадровый) (AlphaProject)","update":"2019-12-04 17:13:06","iframe_src":"//83.svetacdn.in/PfJ50H0ZBPg3/movie/33707"},{"id":33706,"title":"Один падёт","kp_id":"1127506","imdb_id":"tt8332808","world_art_id":null,"type":"movie","add":"2019-12-04 14:48:58","orig_title":"One Must Fall","year":"2018-10-31","translations":["Любительский (многоголосый закадровый) (Синема УС)"],"quality":"webdl","translation":"Любительский (многоголосый закадровый) (Синема УС)","update":"2019-12-04 16:45:27","iframe_src":"//83.svetacdn.in/PfJ50H0ZBPg3/movie/33706"},{"id":33704,"title":"Остановка в пути","kp_id":"913659","imdb_id":"tt4699444","world_art_id":null,"type":"movie","add":"2019-12-04 14:45:24","orig_title":"Voir du pays","year":"2016-05-17","translations":["Любительский (многоголосый закадровый) (Синема УС)"],"quality":"webdl","translation":"Любительский (многоголосый закадровый) (Синема УС)","update":"2019-12-04 17:02:10","iframe_src":"//83.svetacdn.in/PfJ50H0ZBPg3/movie/33704"},{"id":33702,"title":"Побег из Либерти","kp_id":"1246004","imdb_id":"tt9844368","world_art_id":null,"type":"movie","add":"2019-12-04 14:40:50","orig_title":"Out of Liberty","year":"2019-09-13","translations":["Любительский (многоголосый закадровый) (Синема УС)"],"quality":"webdl","translation":"Любительский (многоголосый закадровый) (Синема УС)","update":"2019-12-04 17:01:23","iframe_src":"//83.svetacdn.in/PfJ50H0ZBPg3/movie/33702"},{"id":33700,"title":"Дзынь-дзынь","kp_id":"1014184","imdb_id":"tt6473542","world_art_id":null,"type":"movie","add":"2019-12-04 14:38:48","orig_title":"Ring Ring","year":"2019-07-19","translations":["Любительский (многоголосый закадровый) (Синема УС)"],"quality":"webdl","translation":"Любительский (многоголосый закадровый) (Синема УС)","update":"2019-12-04 16:45:09","iframe_src":"//83.svetacdn.in/PfJ50H0ZBPg3/movie/33700"},{"id":33699,"title":"Треугольник Шаста","kp_id":"978619","imdb_id":"tt5153588","world_art_id":null,"type":"movie","add":"2019-12-04 14:37:35","orig_title":"The Shasta Triangle","year":"2019-12-03","translations":["Любительский (многоголосый закадровый) (Синема УС)"],"quality":"webdl","translation":"Любительский (многоголосый закадровый) (Синема УС)","update":"2019-12-04 16:44:28","iframe_src":"//83.svetacdn.in/PfJ50H0ZBPg3/movie/33699"},{"id":33688,"title":"Шпионаж","kp_id":"873898","imdb_id":"tt3652142","world_art_id":null,"type":"movie","add":"2019-12-03 20:49:54","orig_title":"Espionage Tonight","year":"2017-06-08","translations":["Любительский (многоголосый закадровый) (Синема УС)"],"quality":"webdl","translation":"Любительский (многоголосый закадровый) (Синема УС)","update":"2019-12-04 07:47:40","iframe_src":"//83.svetacdn.in/PfJ50H0ZBPg3/movie/33688"},{"id":33687,"title":"Арестант no name","kp_id":"1005364","imdb_id":"tt6071092","world_art_id":null,"type":"movie","add":"2019-12-03 20:47:55","orig_title":"Imprisoned","year":"2018-10-25","translations":["Профессиональный (многоголосый закадровый)"],"quality":"webdl","translation":"Профессиональный (многоголосый закадровый)","update":"2019-12-04 07:38:18","iframe_src":"//83.svetacdn.in/PfJ50H0ZBPg3/movie/33687"},{"id":33677,"title":"Семь чудес света","kp_id":"178890","imdb_id":"tt0049744","world_art_id":null,"type":"movie","add":"2019-12-03 18:50:11","orig_title":"Seven Wonders of the World","year":"1956-04-11","translations":["Профессиональный (одноголосый закадровый)"],"quality":"dvdrip","translation":"Профессиональный (одноголосый закадровый)","update":"2019-12-04 04:48:42","iframe_src":"//83.svetacdn.in/PfJ50H0ZBPg3/movie/33677"},{"id":33671,"title":"Субмарино","kp_id":"433285","imdb_id":"tt1322385","world_art_id":null,"type":"movie","add":"2019-12-03 18:25:52","orig_title":"Submarino","year":"2010-02-13","translations":["Профессиональный (многоголосый закадровый)"],"quality":"bd","translation":"Профессиональный (многоголосый закадровый)","update":"2019-12-04 05:12:04","iframe_src":"//83.svetacdn.in/PfJ50H0ZBPg3/movie/33671"},{"id":33668,"title":"Halo: Падение Предела","kp_id":"1002711","imdb_id":"tt4856322","world_art_id":null,"type":"movie","add":"2019-12-03 18:20:59","orig_title":"Halo: The Fall of Reach","year":"2015-10-27","translations":["Профессиональный (многоголосый закадровый)"],"quality":"bd","translation":"Профессиональный (многоголосый закадровый)","update":"2019-12-04 05:13:10","iframe_src":"//83.svetacdn.in/PfJ50H0ZBPg3/movie/33668"},{"id":33659,"title":"Хроника судного дня","kp_id":"420966","imdb_id":"tt1265621","world_art_id":null,"type":"movie","add":"2019-12-03 17:17:14","orig_title":"Quantum Apocalypse","year":"2010-02-24","translations":["Профессиональный (многоголосый закадровый)"],"quality":"hdrip","translation":"Профессиональный (многоголосый закадровый)","update":"2019-12-04 05:14:15","iframe_src":"//83.svetacdn.in/PfJ50H0ZBPg3/movie/33659"},{"id":33656,"title":"Halo 4: Идущий к рассвету","kp_id":"692309","imdb_id":"tt2262308","world_art_id":null,"type":"movie","add":"2019-12-03 17:09:50","orig_title":"Halo 4: Forward Unto Dawn","year":"2012-10-05","translations":["Профессиональный (многоголосый закадровый)"],"quality":"bd","translation":"Профессиональный (многоголосый закадровый)","update":"2019-12-04 05:18:20","iframe_src":"//83.svetacdn.in/PfJ50H0ZBPg3/movie/33656"},{"id":33655,"title":"Ртуть","kp_id":"268525","imdb_id":"tt0860462","world_art_id":null,"type":"movie","add":"2019-12-03 17:07:17","orig_title":"Mercury Man","year":"2006-08-10","translations":["Профессиональный (двухголосый закадровый)"],"quality":"bd","translation":"Профессиональный (двухголосый закадровый)","update":"2019-12-04 05:19:15","iframe_src":"//83.svetacdn.in/PfJ50H0ZBPg3/movie/33655"},{"id":33654,"title":"Принцы воздуха","kp_id":"194099","imdb_id":"tt0470982","world_art_id":null,"type":"movie","add":"2019-12-03 17:03:50","orig_title":"Air Buddies","year":"2006-12-12","translations":["Профессиональный (многоголосый закадровый)"],"quality":"dvdrip","translation":"Профессиональный (многоголосый закадровый)","update":"2019-12-04 05:20:20","iframe_src":"//83.svetacdn.in/PfJ50H0ZBPg3/movie/33654"},{"id":33650,"title":"Автора! Автора!","kp_id":"4877","imdb_id":"tt0083598","world_art_id":null,"type":"movie","add":"2019-12-03 15:10:56","orig_title":"Author! Author!","year":"1982-06-18","translations":["Профессиональный (многоголосый закадровый)"],"quality":"dvdrip","translation":"Профессиональный (многоголосый закадровый)","update":"2019-12-04 05:21:21","iframe_src":"//83.svetacdn.in/PfJ50H0ZBPg3/movie/33650"},{"id":33636,"title":"Фредди Меркьюри. Великий притворщик","kp_id":"722399","imdb_id":"tt2471626","world_art_id":null,"type":"movie","add":"2019-12-03 12:20:06","orig_title":"Freddie Mercury: The Great Pretender","year":"2012-09-24","translations":["Полное дублирование"],"quality":"hdtv","translation":"Полное дублирование","update":"2019-12-04 11:04:11","iframe_src":"//83.svetacdn.in/PfJ50H0ZBPg3/movie/33636"},{"id":33458,"title":"Призрачный рейс","kp_id":"682087","imdb_id":"tt2158686","world_art_id":null,"type":"movie","add":"2019-11-25 21:19:35","orig_title":"407 Dark Flight 3D","year":"2012-03-22","translations":["Профессиональный (многоголосый закадровый)"],"quality":"hdrip","translation":"Профессиональный (многоголосый закадровый)","update":"2019-12-04 05:10:39","iframe_src":"//83.svetacdn.in/PfJ50H0ZBPg3/movie/33458"},{"id":26206,"title":"Смертельные игрушки","kp_id":"1255700","imdb_id":"tt10078894","world_art_id":null,"type":"movie","add":"2019-05-09 19:58:18","orig_title":"Deadly Playthings","year":"2019-05-08","translations":["Любительский (многоголосый закадровый) (Синема УС)"],"quality":"webdl","translation":"Любительский (многоголосый закадровый) (Синема УС)","update":"2019-12-04 13:02:13","iframe_src":"//83.svetacdn.in/PfJ50H0ZBPg3/movie/26206"},{"id":26063,"title":"SuperЗять","kp_id":"1139849","imdb_id":"tt7419278","world_art_id":null,"type":"movie","add":"2019-05-06 15:53:20","orig_title":"Le gendre de ma vie","year":"2018-12-19","translations":["Полное дублирование (iTunes)"],"quality":"webdl","translation":"Полное дублирование (iTunes)","update":"2019-12-04 04:48:14","iframe_src":"//83.svetacdn.in/PfJ50H0ZBPg3/movie/26063"}],"current_page":1049,"first_page_url":"https://videocdn.tv/api/short?limit=100&api_token=RgFQdUIR2dRmwv8iYa5SnFNgnw3vpjKj&cache31049=31049&page=1","from":104801,"last_page":632,"last_page_url":"https://videocdn.tv/api/short?limit=100&api_token=RgFQdUIR2dRmwv8iYa5SnFNgnw3vpjKj&cache31049=31049&page=632","next_page_url":null,"path":"https://videocdn.tv/api/short","per_page":100,"prev_page_url":"https://videocdn.tv/api/short?limit=100&api_token=RgFQdUIR2dRmwv8iYa5SnFNgnw3vpjKj&cache31049=31049&page=1048","to":104820,"total":63136}