{"result":true,"data":[{"id":47877,"title":"Путь Хико","kp_id":null,"imdb_id":"tt12481806","world_art_id":null,"type":"movie","add":"2021-02-12 09:48:17","orig_title":"Xicos Journey","year":"2020-11-12","translations":["Полное дублирование (Netflix)"],"quality":"webdl","translation":"Полное дублирование (Netflix)","update":"2021-02-12 21:09:58","iframe_src":"//83.svetacdn.in/PfJ50H0ZBPg3/movie/47877"},{"id":47875,"title":"Черноснежка","kp_id":"1255519","imdb_id":"tt10156586","world_art_id":null,"type":"movie","add":"2021-02-12 09:39:33","orig_title":"Snow Black","year":"2021-01-12","translations":["Любительский (многоголосый закадровый) (Синема УС)"],"quality":"webdl","translation":"Любительский (многоголосый закадровый) (Синема УС)","update":"2021-02-12 15:01:46","iframe_src":"//83.svetacdn.in/PfJ50H0ZBPg3/movie/47875"},{"id":47873,"title":"Мое вскрытие","kp_id":"1216619","imdb_id":"tt8527738","world_art_id":null,"type":"movie","add":"2021-02-12 09:29:39","orig_title":"My Autopsy","year":"2020-09-06","translations":["Любительский (многоголосый закадровый) (AlphaProject)"],"quality":"webdl","translation":"Любительский (многоголосый закадровый) (AlphaProject)","update":"2021-02-12 14:38:42","iframe_src":"//83.svetacdn.in/PfJ50H0ZBPg3/movie/47873"},{"id":47872,"title":"Поломка","kp_id":"1408846","imdb_id":"tt12872946","world_art_id":null,"type":"movie","add":"2021-02-12 09:19:41","orig_title":"The Breakdown","year":"2021-02-13","translations":["Любительский (многоголосый закадровый) (Синема УС)"],"quality":"webdl","translation":"Любительский (многоголосый закадровый) (Синема УС)","update":"2021-02-12 21:04:21","iframe_src":"//83.svetacdn.in/PfJ50H0ZBPg3/movie/47872"},{"id":47856,"title":"Приватный чат","kp_id":"1154821","imdb_id":"tt8110004","world_art_id":null,"type":"movie","add":"2021-02-11 18:59:21","orig_title":"PVT CHAT","year":"2020-08-21","translations":["Любительский (многоголосый закадровый) (Синема УС)"],"quality":"webdl","translation":"Любительский (многоголосый закадровый) (Синема УС)","update":"2021-02-12 16:33:36","iframe_src":"//83.svetacdn.in/PfJ50H0ZBPg3/movie/47856"},{"id":47855,"title":"Жениться молодым","kp_id":"1040753","imdb_id":"tt6633870","world_art_id":null,"type":"movie","add":"2021-02-11 18:58:03","orig_title":"Married Young","year":"2019-10-25","translations":["Любительский (многоголосый закадровый) (Синема УС)"],"quality":"webdl","translation":"Любительский (многоголосый закадровый) (Синема УС)","update":"2021-02-12 16:34:09","iframe_src":"//83.svetacdn.in/PfJ50H0ZBPg3/movie/47855"},{"id":47852,"title":"Игра по-крупному","kp_id":"928161","imdb_id":"tt4873098","world_art_id":null,"type":"movie","add":"2021-02-11 18:43:44","orig_title":"Double Down","year":"2020-12-15","translations":["Любительский (многоголосый закадровый) (Синема УС)"],"quality":"webdl","translation":"Любительский (многоголосый закадровый) (Синема УС)","update":"2021-02-12 16:34:33","iframe_src":"//83.svetacdn.in/PfJ50H0ZBPg3/movie/47852"},{"id":47851,"title":"Любовь в квадрате","kp_id":"4321195","imdb_id":"tt13846542","world_art_id":null,"type":"movie","add":"2021-02-11 16:56:52","orig_title":"Milosc do kwadratu","year":"2021-02-11","translations":["Любительский (двухголосый закадровый) (OnisFilms)","Любительский (многоголосый закадровый) (Синема УС)"],"quality":"webdl","translation":"Любительский (двухголосый закадровый) (OnisFilms)","update":"2021-02-12 20:11:14","iframe_src":"//83.svetacdn.in/PfJ50H0ZBPg3/movie/47851"},{"id":47700,"title":"Малкольм и Мари","kp_id":"1394181","imdb_id":"tt12676326","world_art_id":null,"type":"movie","add":"2021-02-06 17:18:58","orig_title":"Malcolm & Marie","year":"2021-02-05","translations":["Любительский (двухголосый закадровый) (OnisFilms)","Original (English)","Профессиональный (многоголосый закадровый) (HDrezka Studio)"],"quality":"webdl","translation":"Любительский (двухголосый закадровый) (OnisFilms)","update":"2021-02-12 12:43:59","iframe_src":"//83.svetacdn.in/PfJ50H0ZBPg3/movie/47700"},{"id":8439,"title":"Здравствуй, мама!","kp_id":"567181","imdb_id":"tt3098846","world_art_id":null,"type":"serial","add":"2020-08-15 09:23:43","orig_title":"Zdravstvuy, mama!","year":"2010-01-01","translations":["Оригинальная дорожка"],"seasons_count":1,"episodes_count":60,"episodes":60,"update":"2020-08-16 15:34:34","iframe_src":"//83.svetacdn.in/PfJ50H0ZBPg3/tv-series/8439"},{"id":8430,"title":"Новогодний романс","kp_id":"432939","imdb_id":null,"world_art_id":null,"type":"serial","add":"2020-08-14 12:40:21","orig_title":"Новогодний романс","year":"2003-01-01","translations":["Оригинальная дорожка"],"seasons_count":1,"episodes_count":2,"episodes":2,"update":"2020-08-14 15:19:53","iframe_src":"//83.svetacdn.in/PfJ50H0ZBPg3/tv-series/8430"},{"id":8425,"title":"Любовь ведьмы","kp_id":"839174","imdb_id":"tt3718908","world_art_id":null,"type":"serial","add":"2020-08-13 09:08:20","orig_title":"Manyeoeui Yeonae","year":"2014-04-14","translations":["Любительский (двухголосый закадровый) (GREEN TEA)"],"seasons_count":1,"episodes_count":16,"episodes":16,"update":"2020-08-16 18:49:50","iframe_src":"//83.svetacdn.in/PfJ50H0ZBPg3/tv-series/8425"},{"id":8424,"title":"Марти — железный мальчик","kp_id":"426276","imdb_id":"tt1001471","world_art_id":null,"type":"serial","add":"2020-08-13 08:06:38","orig_title":"Iron Kid","year":"2007-09-17","translations":["Полное дублирование"],"seasons_count":1,"episodes_count":26,"episodes":26,"update":"2020-08-16 18:31:25","iframe_src":"//83.svetacdn.in/PfJ50H0ZBPg3/tv-series/8424"},{"id":8420,"title":"Маруся: Испытания","kp_id":"616192","imdb_id":"tt3968618","world_art_id":null,"type":"serial","add":"2020-08-12 21:15:15","orig_title":"Marusya: Ispytaniya","year":"2011-01-01","translations":["Оригинальная дорожка"],"seasons_count":1,"episodes_count":85,"episodes":85,"update":"2020-08-16 16:18:28","iframe_src":"//83.svetacdn.in/PfJ50H0ZBPg3/tv-series/8420"},{"id":8416,"title":"От любви не убежать","kp_id":"909655","imdb_id":"tt4518946","world_art_id":null,"type":"serial","add":"2020-08-12 17:57:02","orig_title":"Asktan Kaçilmaz","year":"2014-09-14","translations":["Любительский (одноголосый закадровый)"],"seasons_count":1,"episodes_count":11,"episodes":11,"update":"2020-08-14 09:49:53","iframe_src":"//83.svetacdn.in/PfJ50H0ZBPg3/tv-series/8416"},{"id":8414,"title":"Красавчики из лапшичной","kp_id":"652838","imdb_id":"tt2373543","world_art_id":null,"type":"serial","add":"2020-08-12 11:14:08","orig_title":"Ggotminam ramyeongage","year":"2011-10-31","translations":["Любительский (двухголосый закадровый) (GREEN TEA)"],"seasons_count":1,"episodes_count":16,"episodes":16,"update":"2020-08-16 15:27:59","iframe_src":"//83.svetacdn.in/PfJ50H0ZBPg3/tv-series/8414"},{"id":8405,"title":"Мия и Я","kp_id":"839745","imdb_id":"tt2203143","world_art_id":null,"type":"serial","add":"2020-08-10 16:42:16","orig_title":"Mia and Me","year":"2011-12-19","translations":["Полное дублирование (Русский дубляж)","Полное дублирование"],"seasons_count":2,"episodes_count":52,"episodes":26,"update":"2020-08-14 12:23:26","iframe_src":"//83.svetacdn.in/PfJ50H0ZBPg3/tv-series/8405"},{"id":8320,"title":"Бронкс: отдел спецрасследований","kp_id":"1156827","imdb_id":"tt8390918","world_art_id":null,"type":"serial","add":"2020-08-02 12:51:50","orig_title":"Bronx SIU","year":"2018-07-19","translations":["Любительский (многоголосый закадровый) (Octopus)"],"seasons_count":2,"episodes_count":12,"episodes":6,"update":"2020-08-15 15:50:07","iframe_src":"//83.svetacdn.in/PfJ50H0ZBPg3/tv-series/8320"},{"id":8263,"title":"Не копайся в себе","kp_id":"1274562","imdb_id":"tt10488234","world_art_id":null,"type":"serial","add":"2020-07-27 14:42:57","orig_title":"Don't Look Deeper","year":"2020-07-27","translations":["Любительский (многоголосый закадровый) (Octopus)","Любительский (многоголосый закадровый) (ColdFilm)","Любительский (многоголосый закадровый) (KerobTV)"],"seasons_count":1,"episodes_count":14,"episodes":14,"update":"2020-08-14 15:16:53","iframe_src":"//83.svetacdn.in/PfJ50H0ZBPg3/tv-series/8263"},{"id":8199,"title":"Участковый детектив","kp_id":"624637","imdb_id":"tt4455576","world_art_id":null,"type":"serial","add":"2020-07-19 06:00:15","orig_title":"Uchastkoviy detektiv","year":"2011-09-19","translations":["Оригинальная дорожка"],"seasons_count":1,"episodes_count":73,"episodes":73,"update":"2020-08-15 12:38:20","iframe_src":"//83.svetacdn.in/PfJ50H0ZBPg3/tv-series/8199"},{"id":5868,"title":"Солнечный ноябрь","kp_id":"1249226","imdb_id":null,"world_art_id":null,"type":"serial","add":"2019-11-27 18:48:38","orig_title":"Солнечный ноябрь","year":"2019-03-04","translations":["Оригинальная дорожка"],"seasons_count":1,"episodes_count":16,"episodes":16,"update":"2020-08-16 18:33:43","iframe_src":"//83.svetacdn.in/PfJ50H0ZBPg3/tv-series/5868"},{"id":4092,"title":"Чистота","kp_id":"1132862","imdb_id":"tt8147076","world_art_id":null,"type":"serial","add":"2019-02-17 07:12:45","orig_title":"Pure","year":"2019-01-30","translations":["Профессиональный (многоголосый закадровый) (IdeaFilm)","Профессиональный (многоголосый закадровый) (NewStudio)","Профессиональный (двухголосый закадровый) (Novamedia)","Профессиональный (многоголосый закадровый) (HDrezka Studio)"],"seasons_count":1,"episodes_count":6,"episodes":6,"update":"2020-08-14 09:23:38","iframe_src":"//83.svetacdn.in/PfJ50H0ZBPg3/tv-series/4092"},{"id":3140,"title":"Жажда странствий","kp_id":"1184907","imdb_id":"tt7608238","world_art_id":null,"type":"serial","add":"2018-09-07 08:18:12","orig_title":"Wanderlust","year":"2018-09-04","translations":["Любительский (двухголосый закадровый) (Sunshine Studio)","Профессиональный (многоголосый закадровый) (NewStudio)","Профессиональный (многоголосый закадровый) (HDrezka Studio)"],"seasons_count":1,"episodes_count":6,"episodes":6,"update":"2020-08-14 17:00:15","iframe_src":"//83.svetacdn.in/PfJ50H0ZBPg3/tv-series/3140"},{"id":18689,"title":"Соломенные псы","kp_id":"4528","imdb_id":"tt0067800","world_art_id":null,"type":"movie","add":"2018-08-31 08:23:15","orig_title":"Straw Dogs","year":"1971-11-25","translations":["Профессиональный (многоголосый закадровый)","Авторский (одноголосый закадровый) (Гаврилов Андрей)","Авторский (одноголосый закадровый) (Либергал Григорий)","Авторский (одноголосый закадровый) (Михалёв Алексей)","Авторский (одноголосый закадровый) (Товбин Юрий)","Авторский (одноголосый закадровый) (Живов Юрий)","Original (English)","Профессиональный (многоголосый закадровый) (DVD Магия)","Профессиональный (многоголосый закадровый) (Екатеринбург Арт)"],"quality":"bd","translation":"Профессиональный (многоголосый закадровый)","update":"2021-02-12 12:47:11","iframe_src":"//83.svetacdn.in/PfJ50H0ZBPg3/movie/18689"},{"id":2977,"title":"Эволюция Черепашек-ниндзя","kp_id":"1039078","imdb_id":"tt6601082","world_art_id":null,"type":"serial","add":"2018-07-29 17:23:46","orig_title":"Rise of the Teenage Mutant Ninja Turtles","year":"2018-07-20","translations":["Любительский (многоголосый закадровый) (ColdFilm)","Профессиональный (многоголосый закадровый) (HDrezka Studio)"],"seasons_count":2,"episodes_count":56,"episodes":13,"update":"2020-08-14 09:26:31","iframe_src":"//83.svetacdn.in/PfJ50H0ZBPg3/tv-series/2977"},{"id":2974,"title":"Код убийства: Сан-Франциско","kp_id":"1126841","imdb_id":"tt7978912","world_art_id":null,"type":"serial","add":"2018-07-28 10:13:55","orig_title":"The Bletchley Circle: San Francisco","year":"2018-07-25","translations":["Любительский (двухголосый закадровый) (Sunshine Studio)","Любительский (двухголосый закадровый) (KinoGolos)","Профессиональный (многоголосый закадровый) (HDrezka Studio)"],"seasons_count":1,"episodes_count":8,"episodes":8,"update":"2020-08-14 15:22:06","iframe_src":"//83.svetacdn.in/PfJ50H0ZBPg3/tv-series/2974"},{"id":2637,"title":"Свет и тень","kp_id":"748788","imdb_id":"tt2677314","world_art_id":null,"type":"serial","add":"2018-05-23 11:35:53","orig_title":"Lightfields","year":"2013-02-27","translations":["Профессиональный (многоголосый закадровый) (GreenРай Studio)","Профессиональный (многоголосый закадровый) (ShowJet)"],"seasons_count":1,"episodes_count":5,"episodes":5,"update":"2020-08-14 14:17:00","iframe_src":"//83.svetacdn.in/PfJ50H0ZBPg3/tv-series/2637"},{"id":14205,"title":"Пила 8","kp_id":"810679","imdb_id":"tt3348730","world_art_id":null,"type":"movie","add":"2017-11-01 23:02:04","orig_title":"Jigsaw","year":"2017-10-26","translations":["Полное дублирование","Original (English)","Авторский (одноголосый закадровый) (Дольский Андрей)","Авторский (одноголосый закадровый) (Есарев Дмитрий)","Полное дублирование (iTunes)","Original (English)"],"quality":"bd","translation":"Полное дублирование","update":"2021-02-12 12:01:39","iframe_src":"//83.svetacdn.in/PfJ50H0ZBPg3/movie/14205"},{"id":8909,"title":"Отправь их в ад, Мэлоун!","kp_id":"421560","imdb_id":"tt1258137","world_art_id":null,"type":"movie","add":"2017-01-15 14:24:46","orig_title":"Give 'em Hell Malone","year":"2009-07-25","translations":["Профессиональный (многоголосый закадровый)","Авторский (одноголосый закадровый) (Гоблин | Пучков Дмитрий)","Original (English)","Любительский (одноголосый закадровый) (Штамп Дмитрий | sf@irat)","Любительский (многоголосый закадровый) (1001cinema)","Профессиональный (многоголосый закадровый)"],"quality":"bd","translation":"Профессиональный (многоголосый закадровый)","update":"2021-02-12 13:24:05","iframe_src":"//83.svetacdn.in/PfJ50H0ZBPg3/movie/8909"},{"id":6142,"title":"Пламя и Цитрон","kp_id":"276637","imdb_id":"tt0920458","world_art_id":null,"type":"movie","add":"2016-10-11 08:41:04","orig_title":"Flammen & Citronen","year":"2008-03-28","translations":["Профессиональный (многоголосый)","Авторский (одноголосый закадровый) (Немахов Юрий)","Профессиональный (многоголосый закадровый)"],"quality":"bd","translation":"Профессиональный (многоголосый)","update":"2021-02-12 12:11:53","iframe_src":"//83.svetacdn.in/PfJ50H0ZBPg3/movie/6142"},{"id":5647,"title":"Каспер","kp_id":"7098","imdb_id":"tt0112642","world_art_id":null,"type":"movie","add":"2016-09-28 15:02:46","orig_title":"Casper","year":"1995-05-26","translations":["Профессиональный (многоголосый закадровый)","Авторский (одноголосый закадровый) (Санаев Павел)","Авторский (одноголосый закадровый) (Визгунов Сергей)","Авторский (одноголосый закадровый) (Живов Юрий)","Original (English)","Профессиональный (двухголосый закадровый) (Гланц + Казакова)","Профессиональный (двухголосый закадровый) (НТВ)","Профессиональный (многоголосый закадровый)"],"quality":"bd","translation":"Профессиональный (многоголосый закадровый)","update":"2021-02-12 13:59:23","iframe_src":"//83.svetacdn.in/PfJ50H0ZBPg3/movie/5647"},{"id":410,"title":"Ты - воплощение порока","kp_id":"803719","imdb_id":"tt3228420","world_art_id":null,"type":"serial","add":"2016-09-05 11:12:43","orig_title":"You're the Worst","year":"2014-07-17","translations":["Профессиональный (многоголосый закадровый) (NewStudio)","Профессиональный (многоголосый закадровый) (TVShows)"],"seasons_count":5,"episodes_count":62,"episodes":13,"update":"2020-08-14 13:18:43","iframe_src":"//83.svetacdn.in/PfJ50H0ZBPg3/tv-series/410"},{"id":333,"title":"Братья Доннелли","kp_id":"283459","imdb_id":"tt0805661","world_art_id":null,"type":"serial","add":"2016-08-14 15:38:29","orig_title":"The Black Donnellys","year":"2007-02-26","translations":["Профессиональный (многоголосый закадровый)","Профессиональный (многоголосый закадровый) (ShowJet)"],"seasons_count":1,"episodes_count":13,"episodes":13,"update":"2020-08-14 14:34:11","iframe_src":"//83.svetacdn.in/PfJ50H0ZBPg3/tv-series/333"},{"id":4124,"title":"Город потерянных детей","kp_id":"6494","imdb_id":"tt0112682","world_art_id":null,"type":"movie","add":"2016-07-22 08:55:48","orig_title":"La cité des enfants perdus","year":"1995-05-17","translations":["Профессиональный (многоголосый закадровый) (Екатеринбург Арт)","Авторский (одноголосый закадровый) (Санаев Павел)","Авторский (одноголосый закадровый) (Визгунов Сергей)","Авторский (одноголосый закадровый) (Живов Юрий)","Профессиональный (многоголосый закадровый) (СТС)","Профессиональный (многоголосый закадровый) (Екатеринбург Арт)"],"quality":"bd","translation":"Профессиональный (многоголосый закадровый) (Екатеринбург Арт)","update":"2021-02-12 11:43:41","iframe_src":"//83.svetacdn.in/PfJ50H0ZBPg3/movie/4124"},{"id":3588,"title":"Джоси Уэйлс – человек вне закона","kp_id":"8458","imdb_id":"tt0075029","world_art_id":null,"type":"movie","add":"2016-07-01 11:53:42","orig_title":"The Outlaw Josey Wales","year":"1976-06-26","translations":["Профессиональный (многоголосый закадровый)","Авторский (одноголосый закадровый) (Дохалов Вартан)","Авторский (одноголосый закадровый) (Визгунов Сергей)","Original (English)","Профессиональный (двухголосый закадровый) (Премьер Видео Фильм)","Профессиональный (двухголосый закадровый) (Ульпаней Эльром)","Профессиональный (многоголосый закадровый) (5-й канал СПб)","Профессиональный (многоголосый закадровый) (НТВ)"],"quality":"bd","translation":"Профессиональный (многоголосый закадровый)","update":"2021-02-12 12:55:58","iframe_src":"//83.svetacdn.in/PfJ50H0ZBPg3/movie/3588"},{"id":2248,"title":"Горячие головы 2","kp_id":"3222","imdb_id":"tt0107144","world_art_id":null,"type":"movie","add":"2016-05-17 04:49:24","orig_title":"Hot Shots! Part Deux","year":"1993-05-21","translations":["Полное дублирование","Original (English)","Авторский (одноголосый закадровый) (Михалёв Алексей)","Авторский (одноголосый закадровый) (Живов Юрий)","Original (English)","Профессиональный (двухголосый закадровый) (Премьер Видео Фильм)","Профессиональный (многоголосый закадровый) (Первый канал | ОРТ)"],"quality":"bd","translation":"Полное дублирование","update":"2021-02-12 14:11:29","iframe_src":"//83.svetacdn.in/PfJ50H0ZBPg3/movie/2248"},{"id":2247,"title":"Горячие головы","kp_id":"1729","imdb_id":"tt0102059","world_art_id":null,"type":"movie","add":"2016-05-17 04:48:20","orig_title":"Hot Shots!","year":"1991-07-31","translations":["Профессиональный (многоголосый закадровый)","Original (English)","Авторский (одноголосый закадровый) (Михалёв Алексей)","Авторский (одноголосый закадровый) (Живов Юрий)","Original (English)","Профессиональный (двухголосый закадровый) (Премьер Видео Фильм)","Профессиональный (многоголосый закадровый) (Первый канал | ОРТ)"],"quality":"bd","translation":"Профессиональный (многоголосый закадровый)","update":"2021-02-12 14:04:12","iframe_src":"//83.svetacdn.in/PfJ50H0ZBPg3/movie/2247"},{"id":1585,"title":"Дорога перемен","kp_id":"280932","imdb_id":"tt0959337","world_art_id":null,"type":"movie","add":"2016-04-24 07:45:47","orig_title":"Revolutionary Road","year":"2008-12-15","translations":["Полное дублирование","Original (English)","Авторский (одноголосый закадровый) (Сербин Юрий)","Original (English)"],"quality":"bd","translation":"Полное дублирование","update":"2021-02-12 12:20:24","iframe_src":"//83.svetacdn.in/PfJ50H0ZBPg3/movie/1585"},{"id":39,"title":"Слепое пятно","kp_id":"894877","imdb_id":"tt4474344","world_art_id":null,"type":"serial","add":"2016-03-30 20:30:19","orig_title":"Blindspot","year":"2015-09-21","translations":["Профессиональный (многоголосый закадровый) (NewStudio)","Профессиональный (многоголосый закадровый) (AlexFilm)","Профессиональный (многоголосый закадровый) (LostFilm)","Любительский (многоголосый закадровый) (ColdFilm)","Любительский (многоголосый закадровый) (Octopus)","Профессиональный (многоголосый закадровый) (BaibaKo)","Любительский (многоголосый закадровый) (KerobTV)"],"seasons_count":5,"episodes_count":100,"episodes":11,"update":"2020-08-16 17:49:05","iframe_src":"//83.svetacdn.in/PfJ50H0ZBPg3/tv-series/39"},{"id":77,"title":"Отель «Гранд Будапешт»","kp_id":"683999","imdb_id":"tt2278388","world_art_id":null,"type":"movie","add":"2016-02-09 11:13:03","orig_title":"The Grand Budapest Hotel","year":"2014-02-06","translations":["Полное дублирование","Original (English)","Авторский (одноголосый закадровый) (Сербин Юрий)","Original (English)"],"quality":"bd","translation":"Полное дублирование","update":"2021-02-12 12:06:44","iframe_src":"//83.svetacdn.in/PfJ50H0ZBPg3/movie/77"}],"current_page":137,"first_page_url":"https://videocdn.tv/api/short?limit=100&api_token=RgFQdUIR2dRmwv8iYa5SnFNgnw3vpjKj&cache3137=3137&page=1","from":13601,"last_page":610,"last_page_url":"https://videocdn.tv/api/short?limit=100&api_token=RgFQdUIR2dRmwv8iYa5SnFNgnw3vpjKj&cache3137=3137&page=610","next_page_url":"https://videocdn.tv/api/short?limit=100&api_token=RgFQdUIR2dRmwv8iYa5SnFNgnw3vpjKj&cache3137=3137&page=138","path":"https://videocdn.tv/api/short","per_page":100,"prev_page_url":"https://videocdn.tv/api/short?limit=100&api_token=RgFQdUIR2dRmwv8iYa5SnFNgnw3vpjKj&cache3137=3137&page=136","to":13640,"total":60948}