{"result":true,"data":[{"id":34625,"title":"Король Кёльна","kp_id":"1214677","imdb_id":"tt9239818","world_art_id":null,"type":"movie","add":"2019-12-30 22:42:35","orig_title":"Der König von Köln","year":"2019-12-11","translations":["Любительский (многоголосый закадровый) (Синема УС)"],"quality":"hdtv","translation":"Любительский (многоголосый закадровый) (Синема УС)","update":"2019-12-31 07:08:06","iframe_src":"//5322.svetacdn.in/71tsRs29n5tZ/movie/34625"},{"id":34623,"title":"Морские окуни","kp_id":"1039139","imdb_id":"tt5891260","world_art_id":null,"type":"movie","add":"2019-12-30 22:39:44","orig_title":"Groupers","year":"2019-03-09","translations":["Любительский (многоголосый закадровый) (Синема УС)"],"quality":"webdl","translation":"Любительский (многоголосый закадровый) (Синема УС)","update":"2019-12-31 07:07:04","iframe_src":"//5322.svetacdn.in/71tsRs29n5tZ/movie/34623"},{"id":34621,"title":"На мысочках","kp_id":"1041800","imdb_id":"tt6596944","world_art_id":null,"type":"movie","add":"2019-12-30 22:37:28","orig_title":"In punta di piedi","year":"2018-02-05","translations":["Любительский (многоголосый закадровый) (Синема УС)"],"quality":"hdtv","translation":"Любительский (многоголосый закадровый) (Синема УС)","update":"2019-12-31 07:06:07","iframe_src":"//5322.svetacdn.in/71tsRs29n5tZ/movie/34621"},{"id":34619,"title":"Ангел","kp_id":"1091952","imdb_id":"tt6318728","world_art_id":null,"type":"movie","add":"2019-12-30 22:33:47","orig_title":"Un ange","year":"2018-09-07","translations":["Любительский (многоголосый закадровый) (Синема УС)"],"quality":"webdl","translation":"Любительский (многоголосый закадровый) (Синема УС)","update":"2019-12-31 07:04:13","iframe_src":"//5322.svetacdn.in/71tsRs29n5tZ/movie/34619"},{"id":34617,"title":"Рождество в замке","kp_id":"1167189","imdb_id":"tt8611700","world_art_id":null,"type":"movie","add":"2019-12-30 22:30:03","orig_title":"Christmas at the Chateau","year":"2019-11-04","translations":["Любительский (многоголосый закадровый) (Синема УС)"],"quality":"webdl","translation":"Любительский (многоголосый закадровый) (Синема УС)","update":"2019-12-31 07:01:31","iframe_src":"//5322.svetacdn.in/71tsRs29n5tZ/movie/34617"},{"id":34615,"title":"Граница","kp_id":"959150","imdb_id":"tt5348866","world_art_id":null,"type":"movie","add":"2019-12-30 22:27:25","orig_title":"Il Confine","year":"2018-05-15","translations":["Любительский (многоголосый закадровый) (Синема УС)"],"quality":"hdtv","translation":"Любительский (многоголосый закадровый) (Синема УС)","update":"2019-12-31 07:00:30","iframe_src":"//5322.svetacdn.in/71tsRs29n5tZ/movie/34615"},{"id":34608,"title":"Земля обетованная","kp_id":"999238","imdb_id":"tt5984694","world_art_id":null,"type":"movie","add":"2019-12-30 22:12:48","orig_title":"La Terra Buona","year":"2018-03-01","translations":["Любительский (двухголосый закадровый) (Колобок)"],"quality":"webdl","translation":"Любительский (двухголосый закадровый) (Колобок)","update":"2019-12-31 06:53:37","iframe_src":"//5322.svetacdn.in/71tsRs29n5tZ/movie/34608"},{"id":34607,"title":"Сын птицелова","kp_id":"1159468","imdb_id":"tt7552784","world_art_id":null,"type":"movie","add":"2019-12-30 22:09:25","orig_title":"Fågelfångarens Son","year":"2019-04-05","translations":["Любительский (многоголосый закадровый) (Синема УС)"],"quality":"webdl","translation":"Любительский (многоголосый закадровый) (Синема УС)","update":"2019-12-31 06:52:47","iframe_src":"//5322.svetacdn.in/71tsRs29n5tZ/movie/34607"},{"id":34606,"title":"Аладдин и смертельная лампа","kp_id":"709162","imdb_id":"tt2415710","world_art_id":null,"type":"movie","add":"2019-12-30 09:40:36","orig_title":"Aladdin and the Death Lamp","year":"2012-09-15","translations":["Профессиональный (многоголосый закадровый) (ТВ3)"],"quality":"webdl","translation":"Профессиональный (многоголосый закадровый) (ТВ3)","update":"2019-12-30 18:53:47","iframe_src":"//5322.svetacdn.in/71tsRs29n5tZ/movie/34606"},{"id":34605,"title":"Омут","kp_id":"541052","imdb_id":"tt1694019","world_art_id":null,"type":"movie","add":"2019-12-30 08:48:02","orig_title":"Iggi","year":"2010-07-14","translations":["Любительский (одноголосый закадровый)"],"quality":"bd","translation":"Любительский (одноголосый закадровый)","update":"2019-12-30 18:52:46","iframe_src":"//5322.svetacdn.in/71tsRs29n5tZ/movie/34605"},{"id":34568,"title":"Спасайся","kp_id":"1166014","imdb_id":"tt8618412","world_art_id":null,"type":"movie","add":"2019-12-28 23:47:46","orig_title":"Save Yourself","year":"2018-10-20","translations":["Любительский (многоголосый закадровый) (Синема УС)"],"quality":"webdl","translation":"Любительский (многоголосый закадровый) (Синема УС)","update":"2019-12-31 06:51:55","iframe_src":"//5322.svetacdn.in/71tsRs29n5tZ/movie/34568"},{"id":34554,"title":"Наложница","kp_id":"692519","imdb_id":"tt2544120","world_art_id":null,"type":"movie","add":"2019-12-28 23:00:37","orig_title":"Hoo-goong: Je-wang-eui cheob","year":"2012-06-06","translations":["Любительский (двухголосый закадровый)"],"quality":"bd","translation":"Любительский (двухголосый закадровый)","update":"2019-12-31 12:48:32","iframe_src":"//5322.svetacdn.in/71tsRs29n5tZ/movie/34554"},{"id":34553,"title":"Нефритовый стебель","kp_id":"197948","imdb_id":"tt2639586","world_art_id":null,"type":"movie","add":"2019-12-28 22:56:57","orig_title":"Yu pu tuan zhi yang wu xing jiao","year":"1999-11-06","translations":["Любительский (одноголосый закадровый) (Береговых Виктор | Jet)"],"quality":"dvdrip","translation":"Любительский (одноголосый закадровый) (Береговых Виктор | Jet)","update":"2019-12-31 12:47:43","iframe_src":"//5322.svetacdn.in/71tsRs29n5tZ/movie/34553"},{"id":34552,"title":"Обнаженная убийца","kp_id":"36880","imdb_id":"tt0109412","world_art_id":null,"type":"movie","add":"2019-12-28 22:53:45","orig_title":"Chik loh goh yeung","year":"1992-12-03","translations":["Любительский (одноголосый закадровый)"],"quality":"dvdrip","translation":"Любительский (одноголосый закадровый)","update":"2019-12-31 12:46:40","iframe_src":"//5322.svetacdn.in/71tsRs29n5tZ/movie/34552"},{"id":34551,"title":"Потомок солнца","kp_id":"56261","imdb_id":"tt0084594","world_art_id":null,"type":"movie","add":"2019-12-28 22:50:29","orig_title":"Ri jie","year":"1983-12-16","translations":["Любительский (одноголосый закадровый)"],"quality":"dvdrip","translation":"Любительский (одноголосый закадровый)","update":"2019-12-31 12:00:22","iframe_src":"//5322.svetacdn.in/71tsRs29n5tZ/movie/34551"},{"id":34550,"title":"Скажи «Да»","kp_id":"33656","imdb_id":"tt0293573","world_art_id":null,"type":"movie","add":"2019-12-28 22:22:28","orig_title":"Sae-yi yaeseu","year":"2001-08-18","translations":["Любительский (одноголосый закадровый) (den904)"],"quality":"bd","translation":"Любительский (одноголосый закадровый) (den904)","update":"2019-12-31 11:49:21","iframe_src":"//5322.svetacdn.in/71tsRs29n5tZ/movie/34550"},{"id":34535,"title":"Совместный удар","kp_id":"608470","imdb_id":"tt1823780","world_art_id":null,"type":"movie","add":"2019-12-27 22:14:38","orig_title":"Abekku panchi","year":"2011-06-18","translations":["Любительский (одноголосый закадровый) (Береговых Виктор | Jet)"],"quality":"dvdrip","translation":"Любительский (одноголосый закадровый) (Береговых Виктор | Jet)","update":"2019-12-31 11:48:40","iframe_src":"//5322.svetacdn.in/71tsRs29n5tZ/movie/34535"},{"id":34522,"title":"Чёртов качок в аду","kp_id":"1046558","imdb_id":"tt6403680","world_art_id":null,"type":"movie","add":"2019-12-27 15:33:00","orig_title":"Jigoku no chimidoro muscle builder","year":"2014-03-28","translations":["Любительский (одноголосый закадровый)"],"quality":"webdl","translation":"Любительский (одноголосый закадровый)","update":"2019-12-30 13:36:06","iframe_src":"//5322.svetacdn.in/71tsRs29n5tZ/movie/34522"},{"id":34050,"title":"Рождественская западня","kp_id":"1311432","imdb_id":"tt10964346","world_art_id":null,"type":"movie","add":"2019-12-13 06:32:12","orig_title":"Grounded for Christmas","year":"2019-12-08","translations":["Original (English)","Любительский (многоголосый закадровый) (Синема УС)"],"quality":"webdl","translation":"Original (English)","update":"2019-12-31 07:05:13","iframe_src":"//5322.svetacdn.in/71tsRs29n5tZ/movie/34050"},{"id":5979,"title":"Пристальный взгляд","kp_id":"946865","imdb_id":"tt5214752","world_art_id":null,"type":"movie","add":"2016-10-08 14:44:18","orig_title":"Nozokime","year":"2016-04-02","translations":["Профессиональный (двухголосый закадровый)","Любительский (двухголосый закадровый) (Колобок)"],"quality":"hdrip","translation":"Профессиональный (двухголосый закадровый)","update":"2019-12-31 11:50:42","iframe_src":"//5322.svetacdn.in/71tsRs29n5tZ/movie/5979"}],"current_page":969,"first_page_url":"https://videocdn.tv/api/short?limit=100&api_token=EnbO9h8pv1VyjbCJhg0WM9nG259n7mtz&cache3969=3969&page=1","from":96801,"last_page":625,"last_page_url":"https://videocdn.tv/api/short?limit=100&api_token=EnbO9h8pv1VyjbCJhg0WM9nG259n7mtz&cache3969=3969&page=625","next_page_url":null,"path":"https://videocdn.tv/api/short","per_page":100,"prev_page_url":"https://videocdn.tv/api/short?limit=100&api_token=EnbO9h8pv1VyjbCJhg0WM9nG259n7mtz&cache3969=3969&page=968","to":96820,"total":62484}