{"result":true,"data":[{"id":49026,"title":"Свидания в Париже","kp_id":"58633","imdb_id":"tt0114266","world_art_id":null,"type":"movie","add":"2021-03-23 14:38:25","orig_title":"Les rendez-vous de Paris","year":"1995-03-22","translations":["Авторский (одноголосый закадровый) (Дольский Андрей)"],"quality":"bd","translation":"Авторский (одноголосый закадровый) (Дольский Андрей)","update":"2021-03-24 04:56:22","iframe_src":"//24213.svetacdn.in/si4jsFRrtgrT/movie/49026"},{"id":49018,"title":"Шиндиси","kp_id":"1291863","imdb_id":"tt10715974","world_art_id":null,"type":"movie","add":"2021-03-22 19:49:19","orig_title":"Shindisi","year":"2019-09-05","translations":["Любительский (многоголосый закадровый) (Синема УС)"],"quality":"webdl","translation":"Любительский (многоголосый закадровый) (Синема УС)","update":"2021-03-23 22:05:40","iframe_src":"//24213.svetacdn.in/si4jsFRrtgrT/movie/49018"},{"id":49017,"title":"В погоне за той самой","kp_id":"1401194","imdb_id":"tt12756656","world_art_id":null,"type":"movie","add":"2021-03-22 19:47:55","orig_title":"Chasing the One","year":"2020-06-20","translations":["Любительский (многоголосый закадровый) (Синема УС)"],"quality":"webdl","translation":"Любительский (многоголосый закадровый) (Синема УС)","update":"2021-03-23 22:05:58","iframe_src":"//24213.svetacdn.in/si4jsFRrtgrT/movie/49017"},{"id":49016,"title":"Коронованное Рождество","kp_id":"1413126","imdb_id":"tt12986254","world_art_id":null,"type":"movie","add":"2021-03-22 19:46:19","orig_title":"Christmas with a Crown","year":"2020-12-01","translations":["Любительский (многоголосый закадровый) (Синема УС)"],"quality":"webdl","translation":"Любительский (многоголосый закадровый) (Синема УС)","update":"2021-03-23 22:06:19","iframe_src":"//24213.svetacdn.in/si4jsFRrtgrT/movie/49016"},{"id":49015,"title":"Найти любовь в Маунтин-Вью","kp_id":"1331468","imdb_id":"tt11399362","world_art_id":null,"type":"movie","add":"2021-03-22 19:44:51","orig_title":"Finding Love in Mountain View","year":"2020-09-30","translations":["Любительский (многоголосый закадровый) (Синема УС)"],"quality":"webdl","translation":"Любительский (многоголосый закадровый) (Синема УС)","update":"2021-03-23 22:06:41","iframe_src":"//24213.svetacdn.in/si4jsFRrtgrT/movie/49015"},{"id":49012,"title":"Светило","kp_id":"4319034","imdb_id":"tt5672890","world_art_id":null,"type":"movie","add":"2021-03-22 19:28:22","orig_title":"Illuminate","year":"2020-07-31","translations":["Любительский (многоголосый закадровый) (Синема УС)"],"quality":"webdl","translation":"Любительский (многоголосый закадровый) (Синема УС)","update":"2021-03-23 22:07:06","iframe_src":"//24213.svetacdn.in/si4jsFRrtgrT/movie/49012"},{"id":49004,"title":"Джанго стреляет первым","kp_id":"230260","imdb_id":"tt0061582","world_art_id":null,"type":"movie","add":"2021-03-22 12:55:14","orig_title":"Django spara per primo","year":"1966-10-28","translations":["Авторский (одноголосый закадровый) (Назаров Вадим)"],"quality":"bd","translation":"Авторский (одноголосый закадровый) (Назаров Вадим)","update":"2021-03-23 11:49:50","iframe_src":"//24213.svetacdn.in/si4jsFRrtgrT/movie/49004"},{"id":49001,"title":"Некромант 2020","kp_id":"4297398","imdb_id":"tt13597808","world_art_id":null,"type":"movie","add":"2021-03-22 12:34:12","orig_title":"Necromancer 2020","year":"2019-11-14","translations":["Любительский (двухголосый закадровый) (RealFake)"],"quality":"webdl","translation":"Любительский (двухголосый закадровый) (RealFake)","update":"2021-03-23 11:50:49","iframe_src":"//24213.svetacdn.in/si4jsFRrtgrT/movie/49001"},{"id":48992,"title":"Дон Камилло, монсеньор","kp_id":"115030","imdb_id":"tt0054814","world_art_id":null,"type":"movie","add":"2021-03-22 05:49:00","orig_title":"Don Camillo monsignore... ma non troppo","year":"1961-10-07","translations":["Профессиональный (многоголосый закадровый)"],"quality":"bd","translation":"Профессиональный (многоголосый закадровый)","update":"2021-03-23 11:54:00","iframe_src":"//24213.svetacdn.in/si4jsFRrtgrT/movie/48992"},{"id":48989,"title":"Дон Камилло и депутат Пеппоне","kp_id":"133241","imdb_id":"tt0048002","world_art_id":null,"type":"movie","add":"2021-03-22 05:41:12","orig_title":"Don Camillo e l'on. Peppone","year":"1955-09-30","translations":["Профессиональный (многоголосый закадровый)"],"quality":"bd","translation":"Профессиональный (многоголосый закадровый)","update":"2021-03-23 11:56:01","iframe_src":"//24213.svetacdn.in/si4jsFRrtgrT/movie/48989"},{"id":48988,"title":"Товарищ Дон Камилло","kp_id":"39878","imdb_id":"tt0059049","world_art_id":null,"type":"movie","add":"2021-03-22 05:38:05","orig_title":"Il compagno Don Camillo","year":"1965-09-18","translations":["Профессиональный (многоголосый закадровый)"],"quality":"bd","translation":"Профессиональный (многоголосый закадровый)","update":"2021-03-23 11:55:16","iframe_src":"//24213.svetacdn.in/si4jsFRrtgrT/movie/48988"},{"id":48987,"title":"Дон Камилло","kp_id":"55238","imdb_id":"tt0085454","world_art_id":null,"type":"movie","add":"2021-03-22 05:35:15","orig_title":"Don Camillo","year":"1984-02-08","translations":["Профессиональный (многоголосый закадровый)"],"quality":"bd","translation":"Профессиональный (многоголосый закадровый)","update":"2021-03-23 11:57:08","iframe_src":"//24213.svetacdn.in/si4jsFRrtgrT/movie/48987"},{"id":48982,"title":"Титька и луна","kp_id":"21938","imdb_id":"tt0111403","world_art_id":null,"type":"movie","add":"2021-03-22 04:58:29","orig_title":"La teta y la luna","year":"1994-10-07","translations":["Профессиональный (двухголосый закадровый)"],"quality":"bd","translation":"Профессиональный (двухголосый закадровый)","update":"2021-03-23 12:07:36","iframe_src":"//24213.svetacdn.in/si4jsFRrtgrT/movie/48982"},{"id":48847,"title":"Загородная прогулка","kp_id":"57042","imdb_id":"tt0028445","world_art_id":null,"type":"movie","add":"2021-03-17 16:51:32","orig_title":"Partie de campagne","year":"1946-09-21","translations":["Профессиональный (многоголосый закадровый)"],"quality":"bd","translation":"Профессиональный (многоголосый закадровый)","update":"2021-03-23 12:10:22","iframe_src":"//24213.svetacdn.in/si4jsFRrtgrT/movie/48847"},{"id":47945,"title":"Катхакали","kp_id":"961811","imdb_id":"tt5335394","world_art_id":null,"type":"movie","add":"2021-02-15 14:50:25","orig_title":"Kathakali","year":"2016-01-14","translations":["Любительский (многоголосый закадровый) (OnisFilms)","Любительский (многоголосый закадровый) (LovelyVox)"],"quality":"webdl","translation":"Любительский (многоголосый закадровый) (OnisFilms)","update":"2021-03-23 11:58:23","iframe_src":"//24213.svetacdn.in/si4jsFRrtgrT/movie/47945"},{"id":47601,"title":"Прошлой ночью","kp_id":"3813","imdb_id":"tt0095730","world_art_id":null,"type":"movie","add":"2021-02-02 08:56:31","orig_title":"The Night Before","year":"1988-04-15","translations":["Профессиональный (многоголосый закадровый) (Фортуна-Фильм)","[EN] Original (English)","Авторский (одноголосый закадровый) (Прямостанов Павел)"],"quality":"webdl","translation":"Профессиональный (многоголосый закадровый) (Фортуна-Фильм)","update":"2021-03-24 05:19:50","iframe_src":"//24213.svetacdn.in/si4jsFRrtgrT/movie/47601"},{"id":34924,"title":"Легенда","kp_id":"23603","imdb_id":"tt0106936","world_art_id":null,"type":"movie","add":"2020-01-09 21:48:50","orig_title":"Fong Sai Yuk","year":"1993-03-04","translations":["Профессиональный (двухголосый закадровый)"],"quality":"bd","translation":"Профессиональный (двухголосый закадровый)","update":"2021-03-23 12:01:10","iframe_src":"//24213.svetacdn.in/si4jsFRrtgrT/movie/34924"},{"id":33800,"title":"Вне закона","kp_id":"1316210","imdb_id":"tt11161374","world_art_id":null,"type":"movie","add":"2019-12-07 13:26:22","orig_title":"Beyond the Law","year":"2019-12-06","translations":["Любительский (многоголосый закадровый) (AlphaProject)","[EN] Original (English)"],"quality":"webdl","translation":"Любительский (многоголосый закадровый) (AlphaProject)","update":"2021-03-23 12:04:31","iframe_src":"//24213.svetacdn.in/si4jsFRrtgrT/movie/33800"},{"id":22627,"title":"Восход Эдерлези","kp_id":"948774","imdb_id":"tt5215088","world_art_id":null,"type":"movie","add":"2019-03-03 09:41:22","orig_title":"A.I. Rising","year":"2018-02-25","translations":["Профессиональный (многоголосый закадровый) (СВ-Студия)","[EN] Original (English)","Профессиональный (многоголосый закадровый) (HDrezka Studio)","Любительский (двухголосый закадровый) (OnisFilms)"],"quality":"bd","translation":"Профессиональный (многоголосый закадровый) (СВ-Студия)","update":"2021-03-23 16:43:15","iframe_src":"//24213.svetacdn.in/si4jsFRrtgrT/movie/22627"},{"id":4438,"title":"Спасти мистера Ву","kp_id":"931084","imdb_id":"tt4819560","world_art_id":null,"type":"movie","add":"2016-08-16 06:02:41","orig_title":"Jie jiu Wu xian sheng","year":"2015-09-30","translations":["Любительский (двухголосый закадровый)","Любительский (двухголосый закадровый) (Колобок)"],"quality":"bd","translation":"Любительский (двухголосый закадровый)","update":"2021-03-24 04:58:25","iframe_src":"//24213.svetacdn.in/si4jsFRrtgrT/movie/4438"}],"current_page":828,"first_page_url":"https://videocdn.tv/api/short?limit=100&api_token=X6EwAUfE5M9xbo7y0Bp0aPf3uXxG2KLL&cache3828=3828&page=1","from":82701,"last_page":731,"last_page_url":"https://videocdn.tv/api/short?limit=100&api_token=X6EwAUfE5M9xbo7y0Bp0aPf3uXxG2KLL&cache3828=3828&page=731","next_page_url":null,"path":"https://videocdn.tv/api/short","per_page":100,"prev_page_url":"https://videocdn.tv/api/short?limit=100&api_token=X6EwAUfE5M9xbo7y0Bp0aPf3uXxG2KLL&cache3828=3828&page=827","to":82720,"total":73011}