{"result":true,"data":[{"id":48168,"title":"Месяц август","kp_id":"474544","imdb_id":"tt3238494","world_art_id":null,"type":"movie","add":"2021-02-22 16:43:27","orig_title":"Mesyats avgust","year":"1972-05-29","translations":["Оригинальная дорожка"],"quality":"tv","translation":"Оригинальная дорожка","update":"2021-02-23 09:11:31","iframe_src":"//7043.svetacdn.in/71tsRs29n5tZ/movie/48168"},{"id":48166,"title":"Моя ошибка","kp_id":"994084","imdb_id":null,"world_art_id":null,"type":"movie","add":"2021-02-22 16:37:29","orig_title":"Моя ошибка","year":"1957-01-01","translations":["Оригинальная дорожка"],"quality":"webdl","translation":"Оригинальная дорожка","update":"2021-02-23 09:10:50","iframe_src":"//7043.svetacdn.in/71tsRs29n5tZ/movie/48166"},{"id":48165,"title":"Юбилейное танго","kp_id":"478828","imdb_id":null,"world_art_id":null,"type":"movie","add":"2021-02-22 16:33:49","orig_title":"Юбилейное танго","year":"1989-01-01","translations":["Оригинальная дорожка"],"quality":"tv","translation":"Оригинальная дорожка","update":"2021-02-23 09:08:43","iframe_src":"//7043.svetacdn.in/71tsRs29n5tZ/movie/48165"},{"id":48164,"title":"Отпуск, который не состоялся","kp_id":"414486","imdb_id":"tt3344652","world_art_id":null,"type":"movie","add":"2021-02-22 16:30:20","orig_title":"Otpusk, kotoryy ne sostoyalsya","year":"1977-03-21","translations":["Оригинальная дорожка"],"quality":"sat","translation":"Оригинальная дорожка","update":"2021-02-23 09:07:42","iframe_src":"//7043.svetacdn.in/71tsRs29n5tZ/movie/48164"},{"id":48163,"title":"Песня о счастье","kp_id":"42963","imdb_id":"tt0025646","world_art_id":null,"type":"movie","add":"2021-02-22 16:27:44","orig_title":"Pesnya o shchastye","year":"1934-10-01","translations":["Оригинальная дорожка"],"quality":"sat","translation":"Оригинальная дорожка","update":"2021-02-23 09:06:37","iframe_src":"//7043.svetacdn.in/71tsRs29n5tZ/movie/48163"},{"id":48162,"title":"Я вас дождусь...","kp_id":"42405","imdb_id":"tt0174785","world_art_id":null,"type":"movie","add":"2021-02-22 16:25:10","orig_title":"Ya vas dozhdus","year":"1983-02-21","translations":["Оригинальная дорожка"],"quality":"dvb","translation":"Оригинальная дорожка","update":"2021-02-23 09:05:04","iframe_src":"//7043.svetacdn.in/71tsRs29n5tZ/movie/48162"},{"id":48159,"title":"Рай","kp_id":"1248861","imdb_id":"tt10004574","world_art_id":null,"type":"movie","add":"2021-02-22 14:38:00","orig_title":"Paradise","year":"2019-04-19","translations":["Любительский (многоголосый закадровый) (Синема УС)"],"quality":"webdl","translation":"Любительский (многоголосый закадровый) (Синема УС)","update":"2021-02-23 12:06:31","iframe_src":"//7043.svetacdn.in/71tsRs29n5tZ/movie/48159"},{"id":48111,"title":"Чудо с косичками","kp_id":"45529","imdb_id":"tt0128119","world_art_id":null,"type":"movie","add":"2021-02-21 14:49:38","orig_title":"Chudo s kosichkami","year":"1976-05-03","translations":["Оригинальная дорожка"],"quality":"sat","translation":"Оригинальная дорожка","update":"2021-02-23 09:02:49","iframe_src":"//7043.svetacdn.in/71tsRs29n5tZ/movie/48111"},{"id":48110,"title":"Полесская легенда","kp_id":"596504","imdb_id":"tt0189016","world_art_id":null,"type":"movie","add":"2021-02-21 14:46:58","orig_title":"Poleskaya legenda","year":"1957-06-05","translations":["Оригинальная дорожка"],"quality":"sat","translation":"Оригинальная дорожка","update":"2021-02-23 09:02:12","iframe_src":"//7043.svetacdn.in/71tsRs29n5tZ/movie/48110"},{"id":46538,"title":"Огонь","kp_id":"1183599","imdb_id":"tt12200256","world_art_id":null,"type":"movie","add":"2020-12-30 16:32:31","orig_title":"Ogon","year":"2020-12-24","translations":["Оригинальная дорожка","Оригинальная дорожка"],"quality":"ts","translation":"Оригинальная дорожка","update":"2021-02-23 11:49:05","iframe_src":"//7043.svetacdn.in/71tsRs29n5tZ/movie/46538"},{"id":46204,"title":"Я — твоя женщина","kp_id":"1262088","imdb_id":"tt10243992","world_art_id":null,"type":"movie","add":"2020-12-18 10:33:26","orig_title":"I'm Your Woman","year":"2020-10-15","translations":["Original (English)","Любительский (многоголосый закадровый) (@MUZOBOZ@)","Любительский (многоголосый закадровый) (@MUZOBOZ@)"],"quality":"webdl","translation":"Original (English)","update":"2021-02-23 11:45:38","iframe_src":"//7043.svetacdn.in/71tsRs29n5tZ/movie/46204"},{"id":45666,"title":"Чёрный Красавец","kp_id":"1266946","imdb_id":"tt8484160","world_art_id":null,"type":"movie","add":"2020-11-27 10:23:59","orig_title":"Black Beauty","year":"2020-11-27","translations":["Original (English)","Любительский (многоголосый закадровый) (@MUZOBOZ@)","Любительский (многоголосый закадровый) (@MUZOBOZ@)"],"quality":"webdl","translation":"Original (English)","update":"2021-02-23 11:44:00","iframe_src":"//7043.svetacdn.in/71tsRs29n5tZ/movie/45666"},{"id":8284,"title":"Здесь кто-то есть: Искупление","kp_id":"591723","imdb_id":"tt5074308","world_art_id":null,"type":"serial","add":"2020-07-29 12:51:45","orig_title":"Zdes kto-to est: Iskuplenie","year":"2011-05-10","translations":["Оригинальная дорожка"],"seasons_count":1,"episodes_count":16,"episodes":16,"update":"2020-07-30 13:14:06","iframe_src":"//7043.svetacdn.in/71tsRs29n5tZ/tv-series/8284"},{"id":8283,"title":"Здесь кто-то есть...","kp_id":"573719","imdb_id":"tt2747146","world_art_id":null,"type":"serial","add":"2020-07-29 12:44:40","orig_title":"Zdes' kto-to yest' ...","year":"2010-12-06","translations":["Оригинальная дорожка"],"seasons_count":1,"episodes_count":16,"episodes":16,"update":"2020-07-30 10:31:18","iframe_src":"//7043.svetacdn.in/71tsRs29n5tZ/tv-series/8283"},{"id":8273,"title":"Фриски Динго","kp_id":"453038","imdb_id":"tt0865409","world_art_id":null,"type":"serial","add":"2020-07-28 12:15:22","orig_title":"Frisky Dingo","year":"2006-10-16","translations":["Профессиональный (многоголосый закадровый) (2x2)"],"seasons_count":2,"episodes_count":25,"episodes":12,"update":"2020-07-30 11:38:15","iframe_src":"//7043.svetacdn.in/71tsRs29n5tZ/tv-series/8273"},{"id":8270,"title":"Поцелуй!","kp_id":"803878","imdb_id":"tt3499760","world_art_id":null,"type":"serial","add":"2020-07-28 08:27:45","orig_title":"Potseluy","year":"2013-09-02","translations":["Оригинальная дорожка"],"seasons_count":1,"episodes_count":77,"episodes":77,"update":"2020-07-30 16:18:58","iframe_src":"//7043.svetacdn.in/71tsRs29n5tZ/tv-series/8270"},{"id":8269,"title":"Чемпион","kp_id":"411764","imdb_id":"tt1415243","world_art_id":null,"type":"serial","add":"2020-07-28 08:04:02","orig_title":"Chempion","year":"2008-03-01","translations":["Оригинальная дорожка"],"seasons_count":1,"episodes_count":40,"episodes":40,"update":"2020-07-29 20:45:28","iframe_src":"//7043.svetacdn.in/71tsRs29n5tZ/tv-series/8269"},{"id":8267,"title":"Марисоль","kp_id":"474277","imdb_id":"tt0211827","world_art_id":null,"type":"serial","add":"2020-07-27 17:08:46","orig_title":"Marisol","year":"1996-01-22","translations":["Профессиональный (многоголосый закадровый)"],"seasons_count":1,"episodes_count":133,"episodes":133,"update":"2020-07-29 19:39:14","iframe_src":"//7043.svetacdn.in/71tsRs29n5tZ/tv-series/8267"},{"id":8239,"title":"Макс Грин и инопланетяне","kp_id":"1048000","imdb_id":"tt5420226","world_art_id":null,"type":"serial","add":"2020-07-23 16:52:44","orig_title":"Pumpkin Reports","year":"2016-01-16","translations":["Полное дублирование (CLS Media)"],"seasons_count":1,"episodes_count":52,"episodes":52,"update":"2020-07-30 07:56:00","iframe_src":"//7043.svetacdn.in/71tsRs29n5tZ/tv-series/8239"},{"id":8228,"title":"Ангелы Z: Магия кристалла","kp_id":"427835","imdb_id":"tt0813977","world_art_id":null,"type":"serial","add":"2020-07-21 12:26:59","orig_title":"Z-Squad","year":"2006-07-21","translations":["Полное дублирование (SDI Media)"],"seasons_count":1,"episodes_count":12,"episodes":12,"update":"2020-07-30 16:30:14","iframe_src":"//7043.svetacdn.in/71tsRs29n5tZ/tv-series/8228"},{"id":8227,"title":"Главный подозреваемый","kp_id":"581551","imdb_id":"tt1582456","world_art_id":null,"type":"serial","add":"2020-07-21 12:01:46","orig_title":"Prime Suspect","year":"2011-09-22","translations":["Профессиональный (многоголосый закадровый) (NewStudio)"],"seasons_count":1,"episodes_count":10,"episodes":10,"update":"2020-07-30 16:26:12","iframe_src":"//7043.svetacdn.in/71tsRs29n5tZ/tv-series/8227"},{"id":8226,"title":"СССР. Крах империи","kp_id":"604082","imdb_id":"tt11371080","world_art_id":null,"type":"serial","add":"2020-07-21 11:55:59","orig_title":"SSSR. Krusheniye","year":"2011-08-19","translations":["Оригинальная дорожка"],"seasons_count":1,"episodes_count":7,"episodes":7,"update":"2020-07-30 16:19:26","iframe_src":"//7043.svetacdn.in/71tsRs29n5tZ/tv-series/8226"},{"id":41826,"title":"Заблудшие","kp_id":"1056684","imdb_id":"tt6074820","world_art_id":null,"type":"movie","add":"2020-07-17 21:13:32","orig_title":"Stray","year":"2018-07-22","translations":["Любительский (многоголосый закадровый) (Синема УС)","Профессиональный (многоголосый закадровый) (HDrezka Studio)"],"quality":"webdl","translation":"Любительский (многоголосый закадровый) (Синема УС)","update":"2021-02-23 12:11:05","iframe_src":"//7043.svetacdn.in/71tsRs29n5tZ/movie/41826"},{"id":6332,"title":"Как создавались империи","kp_id":"478548","imdb_id":"tt0848954","world_art_id":null,"type":"serial","add":"2020-01-13 11:48:49","orig_title":"Engineering an Empire","year":"2006-10-16","translations":["Профессиональный (многоголосый закадровый)","Профессиональный (многоголосый закадровый) (HDrezka Studio)"],"seasons_count":1,"episodes_count":14,"episodes":14,"update":"2020-07-29 18:47:57","iframe_src":"//7043.svetacdn.in/71tsRs29n5tZ/tv-series/6332"},{"id":30259,"title":"Музыкальная глухота","kp_id":"1127634","imdb_id":"tt8332666","world_art_id":null,"type":"movie","add":"2019-08-25 10:38:48","orig_title":"Tone-Deaf","year":"2019-03-10","translations":["Профессиональный (многоголосый закадровый) (HDrezka Studio)","Профессиональный (многоголосый закадровый) (HDrezka Studio)"],"quality":"webdl","translation":"Профессиональный (многоголосый закадровый) (HDrezka Studio)","update":"2021-02-23 10:16:53","iframe_src":"//7043.svetacdn.in/71tsRs29n5tZ/movie/30259"},{"id":4911,"title":"Последний шанс","kp_id":"993552","imdb_id":"tt5863126","world_art_id":null,"type":"serial","add":"2019-07-22 10:05:35","orig_title":"Last Chance U","year":"2016-07-29","translations":["Любительский (многоголосый закадровый) (Octopus)","Любительский (многоголосый закадровый) (ColdFilm)"],"seasons_count":2,"episodes_count":11,"episodes":8,"update":"2020-07-29 20:52:14","iframe_src":"//7043.svetacdn.in/71tsRs29n5tZ/tv-series/4911"},{"id":4783,"title":"Парни из Трейлер Парка: Вне Парка","kp_id":"1133037","imdb_id":"tt5937754","world_art_id":null,"type":"serial","add":"2019-07-04 05:13:44","orig_title":"Trailer Park Boys: Out of the Park","year":"2016-10-28","translations":["Авторский (одноголосый закадровый) (Яроцкий Михаил | Kyberpunk)","Профессиональный (многоголосый закадровый) (HDrezka Studio)"],"seasons_count":2,"episodes_count":16,"episodes":8,"update":"2020-07-29 18:19:49","iframe_src":"//7043.svetacdn.in/71tsRs29n5tZ/tv-series/4783"},{"id":27359,"title":"Гибель 31-го отдела","kp_id":"279558","imdb_id":"tt0193191","world_art_id":null,"type":"movie","add":"2019-06-02 20:54:57","orig_title":"31. osakonna hukk","year":"1980-06-13","translations":["Полное дублирование"],"quality":"sat","translation":"Полное дублирование","update":"2021-02-23 09:12:36","iframe_src":"//7043.svetacdn.in/71tsRs29n5tZ/movie/27359"},{"id":4584,"title":"Гресия","kp_id":"255332","imdb_id":"tt0220234","world_art_id":null,"type":"serial","add":"2019-05-30 15:42:21","orig_title":"Grecia","year":"1987-01-01","translations":["Любительский (одноголосый закадровый)","Профессиональный (многоголосый закадровый)"],"seasons_count":1,"episodes_count":145,"episodes":145,"update":"2020-07-30 17:23:40","iframe_src":"//7043.svetacdn.in/71tsRs29n5tZ/tv-series/4584"},{"id":27227,"title":"Морская звезда","kp_id":"979420","imdb_id":"tt5700182","world_art_id":null,"type":"movie","add":"2019-05-29 19:42:09","orig_title":"Starfish","year":"2018-09-21","translations":["Любительский (многоголосый закадровый) (Синема УС)","Любительский (одноголосый закадровый) (BadBajo)","Любительский (двухголосый закадровый) (LakeFilms)","Профессиональный (многоголосый закадровый) (HDrezka Studio)"],"quality":"webdl","translation":"Любительский (многоголосый закадровый) (Синема УС)","update":"2021-02-23 12:09:56","iframe_src":"//7043.svetacdn.in/71tsRs29n5tZ/movie/27227"},{"id":23143,"title":"Ночи Кабирии","kp_id":"63929","imdb_id":"tt0050783","world_art_id":null,"type":"movie","add":"2019-03-15 16:42:30","orig_title":"Le notti di Cabiria","year":"1957-05-11","translations":["Полное дублирование","Полное дублирование"],"quality":"dvdrip","translation":"Полное дублирование","update":"2021-02-23 11:42:49","iframe_src":"//7043.svetacdn.in/71tsRs29n5tZ/movie/23143"},{"id":22771,"title":"Призрак Беверли Хиллз","kp_id":"1150447","imdb_id":"tt8404624","world_art_id":null,"type":"movie","add":"2019-03-07 03:30:37","orig_title":"Beverly Hills Ghost","year":"2018-06-01","translations":["Любительский (многоголосый закадровый) (Синема УС)","Профессиональный (многоголосый закадровый) (HDrezka Studio)"],"quality":"webdl","translation":"Любительский (многоголосый закадровый) (Синема УС)","update":"2021-02-23 10:14:40","iframe_src":"//7043.svetacdn.in/71tsRs29n5tZ/movie/22771"},{"id":3908,"title":"Мне очень жаль","kp_id":"999246","imdb_id":"tt5987254","world_art_id":null,"type":"serial","add":"2019-01-19 15:30:31","orig_title":"I'm Sorry","year":"2017-07-12","translations":["Профессиональный (двухголосый закадровый) (Ozz.tv)","Профессиональный (многоголосый закадровый) (DoubleRec)","Профессиональный (многоголосый закадровый) (HDrezka Studio)"],"seasons_count":2,"episodes_count":20,"episodes":10,"update":"2020-07-29 19:03:45","iframe_src":"//7043.svetacdn.in/71tsRs29n5tZ/tv-series/3908"},{"id":3789,"title":"Аромат","kp_id":"1178611","imdb_id":"tt6811236","world_art_id":null,"type":"serial","add":"2018-12-30 12:48:16","orig_title":"Parfum","year":"2018-11-14","translations":["Профессиональный (многоголосый закадровый) (АРК-ТВ Studio)","Профессиональный (многоголосый закадровый) (HDrezka Studio)"],"seasons_count":1,"episodes_count":6,"episodes":6,"update":"2020-07-29 18:38:48","iframe_src":"//7043.svetacdn.in/71tsRs29n5tZ/tv-series/3789"},{"id":20301,"title":"Я — миллиардер","kp_id":"1108741","imdb_id":"tt6917314","world_art_id":null,"type":"movie","add":"2018-11-25 22:31:05","orig_title":"Io sono Tempesta","year":"2018-04-12","translations":["Любительский (многоголосый закадровый) (@MUZOBOZ@)","Профессиональный (многоголосый закадровый)","Профессиональный (многоголосый закадровый) (HDrezka Studio)"],"quality":"bd","translation":"Любительский (многоголосый закадровый) (@MUZOBOZ@)","update":"2021-02-23 10:15:17","iframe_src":"//7043.svetacdn.in/71tsRs29n5tZ/movie/20301"},{"id":3002,"title":"Мамаша","kp_id":"1049199","imdb_id":"tt6274614","world_art_id":null,"type":"serial","add":"2018-08-05 07:34:21","orig_title":"SMILF","year":"2017-11-05","translations":["Профессиональный (многоголосый закадровый) (FilmsClub)","Любительский (двухголосый закадровый) (KinoGolos)","Любительский (двухголосый закадровый) (GoldTeam)","Профессиональный (многоголосый закадровый) (HDrezka Studio)"],"seasons_count":2,"episodes_count":18,"episodes":10,"update":"2020-07-30 15:51:16","iframe_src":"//7043.svetacdn.in/71tsRs29n5tZ/tv-series/3002"},{"id":1685,"title":"Футурама","kp_id":"79920","imdb_id":"tt0149460","world_art_id":null,"type":"serial","add":"2017-10-29 08:04:18","orig_title":"Futurama","year":"1999-03-28","translations":["Профессиональный (двухголосый закадровый) (РенТВ)","Профессиональный (многоголосый закадровый) (РенТВ)","Профессиональный (многоголосый закадровый) (LostFilm)","Профессиональный (многоголосый закадровый) (2x2)","Профессиональный (двухголосый закадровый) (Кубик в Кубе)","Профессиональный (многоголосый закадровый) (VO-Production)"],"seasons_count":7,"episodes_count":124,"episodes":26,"update":"2020-07-30 16:03:10","iframe_src":"//7043.svetacdn.in/71tsRs29n5tZ/tv-series/1685"},{"id":13190,"title":"Фабрика","kp_id":"400853","imdb_id":"tt1132285","world_art_id":null,"type":"movie","add":"2017-08-28 04:51:17","orig_title":"The Factory","year":"2012-10-10","translations":["Любительский (двухголосый закадровый) (DeadSno & den904)","Профессиональный (многоголосый закадровый) (HDrezka Studio)"],"quality":"bd","translation":"Любительский (двухголосый закадровый) (DeadSno & den904)","update":"2021-02-23 12:11:36","iframe_src":"//7043.svetacdn.in/71tsRs29n5tZ/movie/13190"},{"id":1442,"title":"Раскаяния выжившего","kp_id":"804881","imdb_id":"tt3231022","world_art_id":null,"type":"serial","add":"2017-08-02 12:16:36","orig_title":"Survivor's Remorse","year":"2014-10-04","translations":["Любительский (одноголосый закадровый) (Lord32x)","Профессиональный (многоголосый закадровый) (HDrezka Studio)"],"seasons_count":4,"episodes_count":35,"episodes":10,"update":"2020-07-30 10:25:09","iframe_src":"//7043.svetacdn.in/71tsRs29n5tZ/tv-series/1442"},{"id":921,"title":"Рождение мафии: Чикаго","kp_id":"991610","imdb_id":"tt5777020","world_art_id":null,"type":"serial","add":"2017-01-22 17:10:36","orig_title":"The Making of the Mob: Chicago","year":"2016-07-11","translations":["Профессиональный (многоголосый закадровый) (LostFilm)"],"seasons_count":1,"episodes_count":8,"episodes":16,"update":"2020-07-30 10:59:41","iframe_src":"//7043.svetacdn.in/71tsRs29n5tZ/tv-series/921"}],"current_page":155,"first_page_url":"https://videocdn.tv/api/short?limit=100&api_token=EnbO9h8pv1VyjbCJhg0WM9nG259n7mtz&cache3155=3155&page=1","from":15401,"last_page":616,"last_page_url":"https://videocdn.tv/api/short?limit=100&api_token=EnbO9h8pv1VyjbCJhg0WM9nG259n7mtz&cache3155=3155&page=616","next_page_url":"https://videocdn.tv/api/short?limit=100&api_token=EnbO9h8pv1VyjbCJhg0WM9nG259n7mtz&cache3155=3155&page=156","path":"https://videocdn.tv/api/short","per_page":100,"prev_page_url":"https://videocdn.tv/api/short?limit=100&api_token=EnbO9h8pv1VyjbCJhg0WM9nG259n7mtz&cache3155=3155&page=154","to":15440,"total":61562}