{"result":true,"data":[{"id":6855,"title":"Её звали Муму","kp_id":"861640","imdb_id":"tt5847740","world_art_id":null,"type":"movie","add":"2016-10-31 12:10:27","orig_title":"Eyo zvali Mumu","year":"2016-09-20","translations":["Оригинальная дорожка"],"quality":"webdl","translation":"Оригинальная дорожка","update":"2016-11-01 04:46:37","iframe_src":"//7923.svetacdn.in/IAF0wWTdNYZm/movie/6855"},{"id":6854,"title":"Если Господь пожелает","kp_id":"906683","imdb_id":"tt4643844","world_art_id":null,"type":"movie","add":"2016-10-31 12:08:02","orig_title":"Se Dio vuole","year":"2015-04-09","translations":["Любительский (многоголосый закадровый) (GreenРай Studio)"],"quality":"bd","translation":"Любительский (многоголосый закадровый) (GreenРай Studio)","update":"2016-11-01 04:49:23","iframe_src":"//7923.svetacdn.in/IAF0wWTdNYZm/movie/6854"},{"id":6853,"title":"Признание","kp_id":"912644","imdb_id":"tt4647784","world_art_id":null,"type":"movie","add":"2016-10-31 12:06:53","orig_title":"Le confessioni","year":"2016-04-21","translations":["Любительский (многоголосый закадровый) (GreenРай Studio)"],"quality":"bd","translation":"Любительский (многоголосый закадровый) (GreenРай Studio)","update":"2016-11-01 04:51:50","iframe_src":"//7923.svetacdn.in/IAF0wWTdNYZm/movie/6853"},{"id":6852,"title":"Короче говоря","kp_id":"847798","imdb_id":"tt3892996","world_art_id":null,"type":"movie","add":"2016-10-31 12:05:42","orig_title":"Lang historie kort","year":"2015-05-07","translations":["Любительский (многоголосый закадровый) (GreenРай Studio)"],"quality":"bd","translation":"Любительский (многоголосый закадровый) (GreenРай Studio)","update":"2016-11-01 04:58:01","iframe_src":"//7923.svetacdn.in/IAF0wWTdNYZm/movie/6852"},{"id":6850,"title":"Кемпинг 3","kp_id":"931246","imdb_id":"tt4979860","world_art_id":null,"type":"movie","add":"2016-10-31 12:03:23","orig_title":"Camping 3","year":"2016-06-07","translations":["Любительский (многоголосый закадровый) (Синема УС)"],"quality":"bd","translation":"Любительский (многоголосый закадровый) (Синема УС)","update":"2016-11-01 05:01:19","iframe_src":"//7923.svetacdn.in/IAF0wWTdNYZm/movie/6850"},{"id":6846,"title":"Приключения няни","kp_id":"897603","imdb_id":"tt4456850","world_art_id":null,"type":"movie","add":"2016-10-31 11:55:58","orig_title":"Adventures in Babysitting","year":"2016-06-17","translations":["Полное дублирование"],"quality":"webdl","translation":"Полное дублирование","update":"2016-11-01 05:09:36","iframe_src":"//7923.svetacdn.in/IAF0wWTdNYZm/movie/6846"},{"id":6837,"title":"Остров мастодонтов","kp_id":"21948","imdb_id":"tt0104473","world_art_id":null,"type":"movie","add":"2016-10-30 08:44:37","orig_title":"IP5: L'île aux pachydermes","year":"1992-06-12","translations":["Профессиональный (многоголосый закадровый)"],"quality":"hdtv","translation":"Профессиональный (многоголосый закадровый)","update":"2016-11-01 05:47:30","iframe_src":"//7923.svetacdn.in/IAF0wWTdNYZm/movie/6837"},{"id":6833,"title":"Куда боятся ступить ангелы","kp_id":"12108","imdb_id":"tt0103243","world_art_id":null,"type":"movie","add":"2016-10-30 08:37:32","orig_title":"Where Angels Fear to Tread","year":"1991-06-21","translations":["Профессиональный (двухголосый закадровый)"],"quality":"hdtv","translation":"Профессиональный (двухголосый закадровый)","update":"2016-11-01 05:50:32","iframe_src":"//7923.svetacdn.in/IAF0wWTdNYZm/movie/6833"},{"id":6831,"title":"Сталь и кружево","kp_id":"3636","imdb_id":"tt0100688","world_art_id":null,"type":"movie","add":"2016-10-30 08:34:55","orig_title":"Steel and Lace","year":"1991-01-30","translations":["Профессиональный (двухголосый закадровый)"],"quality":"hdtv","translation":"Профессиональный (двухголосый закадровый)","update":"2016-11-01 05:53:35","iframe_src":"//7923.svetacdn.in/IAF0wWTdNYZm/movie/6831"},{"id":6830,"title":"Рисовальщик","kp_id":"89547","imdb_id":"tt0105420","world_art_id":null,"type":"movie","add":"2016-10-30 08:33:45","orig_title":"Sketch Artist","year":"1992-06-27","translations":["Профессиональный (двухголосый закадровый)"],"quality":"hdtv","translation":"Профессиональный (двухголосый закадровый)","update":"2016-10-31 09:53:03","iframe_src":"//7923.svetacdn.in/IAF0wWTdNYZm/movie/6830"},{"id":6829,"title":"Таинственное свидание","kp_id":"21282","imdb_id":"tt0102500","world_art_id":null,"type":"movie","add":"2016-10-30 08:32:03","orig_title":"Mystery Date","year":"1991-08-16","translations":["Профессиональный (двухголосый закадровый)"],"quality":"hdtv","translation":"Профессиональный (двухголосый закадровый)","update":"2016-11-01 05:56:10","iframe_src":"//7923.svetacdn.in/IAF0wWTdNYZm/movie/6829"},{"id":6828,"title":"Матушка","kp_id":"2690","imdb_id":"tt0100172","world_art_id":null,"type":"movie","add":"2016-10-30 08:30:20","orig_title":"Mom","year":"1991-06-19","translations":["Профессиональный (двухголосый закадровый)"],"quality":"hdtv","translation":"Профессиональный (двухголосый закадровый)","update":"2016-11-01 05:57:59","iframe_src":"//7923.svetacdn.in/IAF0wWTdNYZm/movie/6828"},{"id":6806,"title":"Крепость","kp_id":"18255","imdb_id":"tt0106950","world_art_id":null,"type":"movie","add":"2016-10-30 07:59:27","orig_title":"Fortress","year":"1992-12-18","translations":["Профессиональный (многоголосый закадровый)"],"quality":"bd","translation":"Профессиональный (многоголосый закадровый)","update":"2016-11-01 06:10:14","iframe_src":"//7923.svetacdn.in/IAF0wWTdNYZm/movie/6806"},{"id":6803,"title":"Преступление из-за любви","kp_id":"523230","imdb_id":"tt1459012","world_art_id":null,"type":"movie","add":"2016-10-30 07:55:29","orig_title":"Crime d'amour","year":"2010-08-18","translations":["Профессиональный (многоголосый закадровый)"],"quality":"bd","translation":"Профессиональный (многоголосый закадровый)","update":"2016-11-01 06:02:52","iframe_src":"//7923.svetacdn.in/IAF0wWTdNYZm/movie/6803"},{"id":6717,"title":"Лиза","kp_id":"5067","imdb_id":"tt0100031","world_art_id":null,"type":"movie","add":"2016-10-27 05:10:47","orig_title":"Lisa","year":"1989-10-27","translations":["Профессиональный (двухголосый закадровый)"],"quality":"hdtv","translation":"Профессиональный (двухголосый закадровый)","update":"2016-11-01 05:36:30","iframe_src":"//7923.svetacdn.in/IAF0wWTdNYZm/movie/6717"},{"id":6716,"title":"Стелла","kp_id":"16850","imdb_id":"tt0100691","world_art_id":null,"type":"movie","add":"2016-10-27 05:08:51","orig_title":"Stella","year":"1990-02-02","translations":["Профессиональный (двухголосый закадровый)"],"quality":"hdtv","translation":"Профессиональный (двухголосый закадровый)","update":"2016-11-01 05:34:05","iframe_src":"//7923.svetacdn.in/IAF0wWTdNYZm/movie/6716"},{"id":4673,"title":"Хроники мстителя","kp_id":"874438","imdb_id":"tt3903852","world_art_id":null,"type":"movie","add":"2016-08-24 13:22:12","orig_title":"Vigilante Diaries","year":"2016-02-04","translations":["Любительский (одноголосый закадровый)","Полное дублирование (iTunes)"],"quality":"bd","translation":"Любительский (одноголосый закадровый)","update":"2016-11-01 04:32:50","iframe_src":"//7923.svetacdn.in/IAF0wWTdNYZm/movie/4673"},{"id":4574,"title":"Абсолютная власть","kp_id":"916491","imdb_id":"tt4781612","world_art_id":null,"type":"movie","add":"2016-08-21 09:42:47","orig_title":"Imperium","year":"2016-08-19","translations":["Любительский (многоголосый закадровый)","Профессиональный (многоголосый закадровый)"],"quality":"webdl","translation":"Любительский (многоголосый закадровый)","update":"2016-11-01 04:39:20","iframe_src":"//7923.svetacdn.in/IAF0wWTdNYZm/movie/4574"},{"id":3998,"title":"Судная ночь 3","kp_id":"843907","imdb_id":"tt4094724","world_art_id":null,"type":"movie","add":"2016-07-16 15:47:15","orig_title":"The Purge: Election Year","year":"2016-06-29","translations":["Любительский (многоголосый закадровый) (Parovoz Production)","Полное дублирование"],"quality":"webdl","translation":"Любительский (многоголосый закадровый) (Parovoz Production)","update":"2016-11-01 04:36:23","iframe_src":"//7923.svetacdn.in/IAF0wWTdNYZm/movie/3998"},{"id":3408,"title":"В поисках Дори","kp_id":"692957","imdb_id":"tt2277860","world_art_id":null,"type":"movie","add":"2016-06-28 04:13:58","orig_title":"Finding Dory","year":"2016-06-08","translations":["Полное дублирование (iTunes)"],"quality":"bd","translation":"Полное дублирование (iTunes)","update":"2016-10-31 19:42:13","iframe_src":"//7923.svetacdn.in/IAF0wWTdNYZm/movie/3408"}],"current_page":2349,"first_page_url":"https://videocdn.tv/api/short?limit=100&api_token=6Onb1W1alEUrBcKJZD3GoKBbWyAl2uG2&cache32349=32349&page=1","from":234801,"last_page":643,"last_page_url":"https://videocdn.tv/api/short?limit=100&api_token=6Onb1W1alEUrBcKJZD3GoKBbWyAl2uG2&cache32349=32349&page=643","next_page_url":null,"path":"https://videocdn.tv/api/short","per_page":100,"prev_page_url":"https://videocdn.tv/api/short?limit=100&api_token=6Onb1W1alEUrBcKJZD3GoKBbWyAl2uG2&cache32349=32349&page=2348","to":234820,"total":64295}