{"result":true,"data":[{"id":19096,"title":"Гатао 2: Новый король","kp_id":"1101251","imdb_id":"tt8324576","world_art_id":null,"type":"movie","add":"2018-09-20 22:36:51","orig_title":"Gatao 2: The New King","year":"2018-02-14","translations":["Любительский (многоголосый закадровый) (Колобок)"],"quality":"bd","translation":"Любительский (многоголосый закадровый) (Колобок)","update":"2018-09-21 06:11:46","iframe_src":"//83.svetacdn.in/PfJ50H0ZBPg3/movie/19096"},{"id":19093,"title":"Шум","kp_id":null,"imdb_id":"tt5334900","world_art_id":null,"type":"movie","add":"2018-09-20 22:13:34","orig_title":"The Noise","year":"2015-08-20","translations":["Любительский (многоголосый закадровый) (Колобок)"],"quality":"dvdrip","translation":"Любительский (многоголосый закадровый) (Колобок)","update":"2018-09-21 06:25:15","iframe_src":"//83.svetacdn.in/PfJ50H0ZBPg3/movie/19093"},{"id":19081,"title":"Воскрешение","kp_id":"1048174","imdb_id":"tt7243750","world_art_id":null,"type":"movie","add":"2018-09-20 06:46:51","orig_title":"Heesaeng boohwalja","year":"2017-10-12","translations":["Любительский (многоголосый закадровый) (Колобок)"],"quality":"webdl","translation":"Любительский (многоголосый закадровый) (Колобок)","update":"2018-09-20 10:36:31","iframe_src":"//83.svetacdn.in/PfJ50H0ZBPg3/movie/19081"},{"id":19080,"title":"Самая убиваемая женщина в мире","kp_id":"1013155","imdb_id":"tt6186696","world_art_id":null,"type":"movie","add":"2018-09-20 06:40:25","orig_title":"La femme la plus assassinée du monde","year":"2018-06-27","translations":["Любительский (многоголосый закадровый) (Синема УС)"],"quality":"webdl","translation":"Любительский (многоголосый закадровый) (Синема УС)","update":"2018-09-20 09:27:46","iframe_src":"//83.svetacdn.in/PfJ50H0ZBPg3/movie/19080"},{"id":19079,"title":"Аборт в США","kp_id":null,"imdb_id":"tt8948614","world_art_id":null,"type":"movie","add":"2018-09-20 06:37:52","orig_title":"Reversing Roe","year":"2018-09-13","translations":["Любительский (многоголосый закадровый) (Синема УС)"],"quality":"webdl","translation":"Любительский (многоголосый закадровый) (Синема УС)","update":"2018-09-20 09:29:27","iframe_src":"//83.svetacdn.in/PfJ50H0ZBPg3/movie/19079"},{"id":19078,"title":"Баха","kp_id":"1073758","imdb_id":"tt6701492","world_art_id":null,"type":"movie","add":"2018-09-20 06:34:00","orig_title":"Baja","year":"2018-04-13","translations":["Любительский (многоголосый закадровый) (Синема УС)"],"quality":"bd","translation":"Любительский (многоголосый закадровый) (Синема УС)","update":"2018-09-20 08:40:45","iframe_src":"//83.svetacdn.in/PfJ50H0ZBPg3/movie/19078"},{"id":19077,"title":"Пак Ёль","kp_id":"1007321","imdb_id":"tt6903980","world_art_id":null,"type":"movie","add":"2018-09-20 06:32:46","orig_title":"Park Yeol","year":"2017-06-28","translations":["Любительский (многоголосый закадровый) (Синема УС)","Любительский (многоголосый закадровый) (Колобок)"],"quality":"bd","translation":"Любительский (многоголосый закадровый) (Синема УС)","update":"2018-09-20 10:42:32","iframe_src":"//83.svetacdn.in/PfJ50H0ZBPg3/movie/19077"},{"id":19074,"title":"Эмма","kp_id":"809122","imdb_id":"tt3319070","world_art_id":null,"type":"movie","add":"2018-09-20 06:26:42","orig_title":"Emma","year":"2016-06-07","translations":["Любительский (двухголосый закадровый) (Колобок)"],"quality":"webdl","translation":"Любительский (двухголосый закадровый) (Колобок)","update":"2018-09-20 08:39:08","iframe_src":"//83.svetacdn.in/PfJ50H0ZBPg3/movie/19074"},{"id":19073,"title":"Диана","kp_id":"775915","imdb_id":"tt3021984","world_art_id":null,"type":"movie","add":"2018-09-20 06:25:08","orig_title":"Diane","year":"2017-08-24","translations":["Любительский (многоголосый закадровый) (Синема УС)"],"quality":"webdl","translation":"Любительский (многоголосый закадровый) (Синема УС)","update":"2018-09-20 08:37:50","iframe_src":"//83.svetacdn.in/PfJ50H0ZBPg3/movie/19073"},{"id":19072,"title":"Чемпионы","kp_id":"1081287","imdb_id":"tt6793580","world_art_id":null,"type":"movie","add":"2018-09-20 06:23:40","orig_title":"Campeones","year":"2018-04-03","translations":["Любительский (многоголосый закадровый) (Синема УС)"],"quality":"bd","translation":"Любительский (многоголосый закадровый) (Синема УС)","update":"2018-09-20 10:11:46","iframe_src":"//83.svetacdn.in/PfJ50H0ZBPg3/movie/19072"},{"id":19069,"title":"Прогулки с монстрами будущего","kp_id":"381644","imdb_id":"tt0455253","world_art_id":null,"type":"movie","add":"2018-09-20 06:17:38","orig_title":"The Future Is Wild","year":"2009-12-10","translations":["Профессиональный (одноголосый закадровый)"],"quality":"dvdrip","translation":"Профессиональный (одноголосый закадровый)","update":"2018-09-20 08:04:45","iframe_src":"//83.svetacdn.in/PfJ50H0ZBPg3/movie/19069"},{"id":18988,"title":"Мио, мой Мио","kp_id":"5215","imdb_id":"tt0093543","world_art_id":null,"type":"movie","add":"2018-09-16 08:40:36","orig_title":"Mio min Mio","year":"1987-10-16","translations":["Полное дублирование"],"quality":"webdl","translation":"Полное дублирование","update":"2018-09-20 10:49:12","iframe_src":"//83.svetacdn.in/PfJ50H0ZBPg3/movie/18988"},{"id":18987,"title":"Погоня за Бенджи","kp_id":"148528","imdb_id":"tt0092638","world_art_id":null,"type":"movie","add":"2018-09-16 08:35:55","orig_title":"Benji the Hunted","year":"1987-06-05","translations":["Полное дублирование (iTunes)"],"quality":"webdl","translation":"Полное дублирование (iTunes)","update":"2018-09-20 10:48:15","iframe_src":"//83.svetacdn.in/PfJ50H0ZBPg3/movie/18987"},{"id":18986,"title":"Ковбойская рапсодия","kp_id":"17293","imdb_id":"tt0089945","world_art_id":null,"type":"movie","add":"2018-09-16 08:35:01","orig_title":"Rustlers' Rhapsody","year":"1985-05-10","translations":["Авторский (одноголосый закадровый) (Визгунов Сергей)"],"quality":"webdl","translation":"Авторский (одноголосый закадровый) (Визгунов Сергей)","update":"2018-09-20 10:45:59","iframe_src":"//83.svetacdn.in/PfJ50H0ZBPg3/movie/18986"},{"id":18985,"title":"Цыганка","kp_id":"277681","imdb_id":"tt0107065","world_art_id":null,"type":"movie","add":"2018-09-16 08:33:26","orig_title":"Gypsy","year":"1993-12-12","translations":["Авторский (одноголосый закадровый) (Кузнецов Сергей)"],"quality":"webdl","translation":"Авторский (одноголосый закадровый) (Кузнецов Сергей)","update":"2018-09-19 07:12:38","iframe_src":"//83.svetacdn.in/PfJ50H0ZBPg3/movie/18985"},{"id":18916,"title":"Мозги набекрень","kp_id":"195260","imdb_id":"tt0466771","world_art_id":null,"type":"movie","add":"2018-09-11 19:03:20","orig_title":"Puff, Puff, Pass","year":"2006-05-09","translations":["Профессиональный (многоголосый закадровый)"],"quality":"webdl","translation":"Профессиональный (многоголосый закадровый)","update":"2018-09-19 07:11:24","iframe_src":"//83.svetacdn.in/PfJ50H0ZBPg3/movie/18916"},{"id":18889,"title":"Следующее поколение","kp_id":"1072038","imdb_id":"tt7133686","world_art_id":null,"type":"movie","add":"2018-09-09 23:22:14","orig_title":"Next Gen","year":"2018-09-07","translations":["Полное дублирование"],"quality":"webdl","translation":"Полное дублирование","update":"2018-09-21 06:17:27","iframe_src":"//83.svetacdn.in/PfJ50H0ZBPg3/movie/18889"},{"id":18561,"title":"Пять пальцев для Марселя","kp_id":"686508","imdb_id":"tt2396489","world_art_id":null,"type":"movie","add":"2018-08-26 22:17:41","orig_title":"Five Fingers for Marseilles","year":"2017-09-08","translations":["Любительский (двухголосый закадровый) (datynet & Galina Vasyukova)","Любительский (многоголосый закадровый) (Колобок)"],"quality":"webdl","translation":"Любительский (двухголосый закадровый) (datynet & Galina Vasyukova)","update":"2018-09-21 06:10:36","iframe_src":"//83.svetacdn.in/PfJ50H0ZBPg3/movie/18561"},{"id":10398,"title":"От имени моей дочери","kp_id":"859862","imdb_id":"tt4228810","world_art_id":null,"type":"movie","add":"2017-03-19 19:43:41","orig_title":"Au nom de ma fille","year":"2016-02-14","translations":["Любительский (многоголосый закадровый) (Синема УС)","Профессиональный (многоголосый закадровый)"],"quality":"bd","translation":"Любительский (многоголосый закадровый) (Синема УС)","update":"2018-09-19 21:52:03","iframe_src":"//83.svetacdn.in/PfJ50H0ZBPg3/movie/10398"},{"id":9590,"title":"Джокер","kp_id":"978221","imdb_id":"tt5680590","world_art_id":null,"type":"movie","add":"2017-02-10 06:00:56","orig_title":"Dzhoker","year":"2016-09-26","translations":["Оригинальная дорожка"],"quality":"webdl","translation":"Оригинальная дорожка","update":"2018-09-21 06:27:00","iframe_src":"//83.svetacdn.in/PfJ50H0ZBPg3/movie/9590"}],"current_page":1661,"first_page_url":"https://videocdn.tv/api/short?limit=100&api_token=RgFQdUIR2dRmwv8iYa5SnFNgnw3vpjKj&cache31661=31661&page=1","from":166001,"last_page":606,"last_page_url":"https://videocdn.tv/api/short?limit=100&api_token=RgFQdUIR2dRmwv8iYa5SnFNgnw3vpjKj&cache31661=31661&page=606","next_page_url":null,"path":"https://videocdn.tv/api/short","per_page":100,"prev_page_url":"https://videocdn.tv/api/short?limit=100&api_token=RgFQdUIR2dRmwv8iYa5SnFNgnw3vpjKj&cache31661=31661&page=1660","to":166020,"total":60501}