{"result":true,"data":[{"id":44477,"title":"Не оглядывайся","kp_id":"1271736","imdb_id":"tt10418846","world_art_id":null,"type":"movie","add":"2020-10-15 22:38:55","orig_title":"Don't Look Back","year":"2020-10-16","translations":["Любительский (многоголосый закадровый) (@MUZOBOZ@)"],"quality":"webdl","translation":"Любительский (многоголосый закадровый) (@MUZOBOZ@)","update":"2020-10-16 04:01:22","iframe_src":"//7043.svetacdn.in/IAF0wWTdNYZm/movie/44477"},{"id":44456,"title":"Застрявшие в ловушке тьмы","kp_id":null,"imdb_id":"tt12980794","world_art_id":null,"type":"movie","add":"2020-10-15 08:51:30","orig_title":"Stuck Intrappolati nell'oscurità","year":"2020-06-20","translations":["Любительский (двухголосый закадровый) (Колобок)"],"quality":"webdl","translation":"Любительский (двухголосый закадровый) (Колобок)","update":"2020-10-15 15:06:04","iframe_src":"//7043.svetacdn.in/IAF0wWTdNYZm/movie/44456"},{"id":44455,"title":"Рокамбола","kp_id":"1182480","imdb_id":"tt8790384","world_art_id":null,"type":"movie","add":"2020-10-15 08:47:34","orig_title":"Rocambola","year":"2020-06-05","translations":["Любительский (двухголосый закадровый) (Колобок)"],"quality":"webdl","translation":"Любительский (двухголосый закадровый) (Колобок)","update":"2020-10-15 12:40:01","iframe_src":"//7043.svetacdn.in/IAF0wWTdNYZm/movie/44455"},{"id":44450,"title":"Гримсей","kp_id":"1109809","imdb_id":"tt6485830","world_art_id":null,"type":"movie","add":"2020-10-15 07:47:05","orig_title":"Grimsey","year":"2020-02-01","translations":["Любительский (многоголосый закадровый) (Синема УС)"],"quality":"webdl","translation":"Любительский (многоголосый закадровый) (Синема УС)","update":"2020-10-15 15:34:10","iframe_src":"//7043.svetacdn.in/IAF0wWTdNYZm/movie/44450"},{"id":44381,"title":"В конце спектра","kp_id":"397221","imdb_id":"tt0782839","world_art_id":null,"type":"movie","add":"2020-10-13 11:15:33","orig_title":"Al final del espectro","year":"2006-12-15","translations":["Профессиональный (многоголосый закадровый)"],"quality":"dvdrip","translation":"Профессиональный (многоголосый закадровый)","update":"2020-10-16 07:05:26","iframe_src":"//7043.svetacdn.in/IAF0wWTdNYZm/movie/44381"},{"id":44377,"title":"Я - робот","kp_id":"1164890","imdb_id":"tt8515442","world_art_id":null,"type":"movie","add":"2020-10-12 20:21:14","orig_title":"iBOT","year":"2018-11-15","translations":["Любительский (двухголосый закадровый) (Колобок)"],"quality":"webdl","translation":"Любительский (двухголосый закадровый) (Колобок)","update":"2020-10-15 19:19:05","iframe_src":"//7043.svetacdn.in/IAF0wWTdNYZm/movie/44377"},{"id":44345,"title":"Новый доклад о школьницах 13: Не забывай при сексе о любви","kp_id":"102049","imdb_id":"tt0081461","world_art_id":null,"type":"movie","add":"2020-10-12 11:57:42","orig_title":"Vergiss beim Sex die Liebe nicht - Der neue Schulmädchenreport 13. Teil","year":"1980-08-14","translations":["Авторский (одноголосый закадровый) (Муравский Юрий)"],"quality":"dvdrip","translation":"Авторский (одноголосый закадровый) (Муравский Юрий)","update":"2020-10-15 08:02:20","iframe_src":"//7043.svetacdn.in/IAF0wWTdNYZm/movie/44345"},{"id":44344,"title":"Доклад о школьницах 12: Если бы об этом мамочка знала","kp_id":"160277","imdb_id":"tt0078210","world_art_id":null,"type":"movie","add":"2020-10-12 11:56:26","orig_title":"Schulmädchen-Report 12. Teil - Wenn das die Mammi wüßte","year":"1978-02-03","translations":["Авторский (одноголосый закадровый) (Муравский Юрий)"],"quality":"dvdrip","translation":"Авторский (одноголосый закадровый) (Муравский Юрий)","update":"2020-10-15 08:01:32","iframe_src":"//7043.svetacdn.in/IAF0wWTdNYZm/movie/44344"},{"id":44343,"title":"Доклад о школьницах 11: Опыт лучший учитель","kp_id":"155763","imdb_id":"tt0076672","world_art_id":null,"type":"movie","add":"2020-10-12 11:55:11","orig_title":"Schulmädchen-Report 11. Teil - Probieren geht über Studieren","year":"1977-03-24","translations":["Авторский (одноголосый закадровый) (Муравский Юрий)"],"quality":"dvdrip","translation":"Авторский (одноголосый закадровый) (Муравский Юрий)","update":"2020-10-15 08:00:44","iframe_src":"//7043.svetacdn.in/IAF0wWTdNYZm/movie/44343"},{"id":44342,"title":"Доклад о школьницах 10: Когда-нибудь это случается с каждой","kp_id":"102110","imdb_id":"tt0075172","world_art_id":null,"type":"movie","add":"2020-10-12 11:54:04","orig_title":"Schulmädchen-Report 10. Teil - Irgendwann fängt jede an","year":"1976-03-01","translations":["Авторский (одноголосый закадровый) (Муравский Юрий)"],"quality":"dvdrip","translation":"Авторский (одноголосый закадровый) (Муравский Юрий)","update":"2020-10-15 07:59:49","iframe_src":"//7043.svetacdn.in/IAF0wWTdNYZm/movie/44342"},{"id":44341,"title":"Доклад о школьницах 9: Жизненный экзамен перед выпускными","kp_id":"218140","imdb_id":"tt0073668","world_art_id":null,"type":"movie","add":"2020-10-12 11:52:02","orig_title":"Schulmädchen-Report. 9. Teil: Reifeprüfung vor dem Abitur","year":"1975-08-22","translations":["Авторский (одноголосый закадровый) (Муравский Юрий)"],"quality":"dvdrip","translation":"Авторский (одноголосый закадровый) (Муравский Юрий)","update":"2020-10-15 07:59:23","iframe_src":"//7043.svetacdn.in/IAF0wWTdNYZm/movie/44341"},{"id":44340,"title":"Доклад о школьницах 8: Что родители не должны знать","kp_id":"233490","imdb_id":"tt0072125","world_art_id":null,"type":"movie","add":"2020-10-12 11:50:21","orig_title":"Schulmädchen-Report 8. Teil - Was Eltern nie erfahren dürfen","year":"1974-11-28","translations":["Авторский (одноголосый закадровый) (Муравский Юрий)"],"quality":"dvdrip","translation":"Авторский (одноголосый закадровый) (Муравский Юрий)","update":"2020-10-15 07:58:39","iframe_src":"//7043.svetacdn.in/IAF0wWTdNYZm/movie/44340"},{"id":3456,"title":"Информатор","kp_id":null,"imdb_id":"tt7161312","world_art_id":null,"type":"serial","add":"2018-11-07 06:09:57","orig_title":"Informer","year":"2018-10-16","translations":["Профессиональный (многоголосый закадровый) (NewStudio)"],"seasons_count":1,"episodes_count":6,"episodes":6,"update":"2018-11-07 10:51:59","iframe_src":"//7043.svetacdn.in/IAF0wWTdNYZm/tv-series/3456"},{"id":3452,"title":"Операция «Любовь»","kp_id":"401448","imdb_id":"tt0978140","world_art_id":null,"type":"serial","add":"2018-11-06 08:24:16","orig_title":"Puropôzu dai sakusen","year":"2007-04-16","translations":["Любительский (одноголосый закадровый) (GREEN TEA)"],"seasons_count":1,"episodes_count":12,"episodes":12,"update":"2018-11-07 09:45:42","iframe_src":"//7043.svetacdn.in/IAF0wWTdNYZm/tv-series/3452"},{"id":3451,"title":"Возвращение","kp_id":"401529","imdb_id":"tt0434672","world_art_id":null,"type":"serial","add":"2018-11-06 07:07:26","orig_title":"The Comeback","year":"2005-06-05","translations":["Любительский (двухголосый закадровый) (GoldTeam)"],"seasons_count":1,"episodes_count":7,"episodes":7,"update":"2018-11-07 09:58:37","iframe_src":"//7043.svetacdn.in/IAF0wWTdNYZm/tv-series/3451"},{"id":3448,"title":"Мыслить как преступник","kp_id":"1033099","imdb_id":"tt6568694","world_art_id":null,"type":"serial","add":"2018-11-05 16:21:16","orig_title":"keu-li-mi-neol Ma-in-deu","year":"2017-07-26","translations":["Любительский (двухголосый закадровый) (SoftBox)"],"seasons_count":1,"episodes_count":20,"episodes":20,"update":"2018-11-07 15:17:36","iframe_src":"//7043.svetacdn.in/IAF0wWTdNYZm/tv-series/3448"},{"id":3447,"title":"Поколение девчонок 1979","kp_id":"1047591","imdb_id":"tt7278498","world_art_id":null,"type":"serial","add":"2018-11-05 13:10:38","orig_title":"Lanjeri Sonyeosidae","year":"2017-09-11","translations":["Любительский (двухголосый закадровый) (SoftBox)"],"seasons_count":1,"episodes_count":8,"episodes":8,"update":"2018-11-06 09:07:30","iframe_src":"//7043.svetacdn.in/IAF0wWTdNYZm/tv-series/3447"},{"id":3446,"title":"Нечаянно 18","kp_id":"1047858","imdb_id":"tt7278424","world_art_id":null,"type":"serial","add":"2018-11-05 13:06:34","orig_title":"Eojjeoda 18","year":"2017-08-28","translations":["Любительский (двухголосый закадровый) (SoftBox)"],"seasons_count":1,"episodes_count":10,"episodes":10,"update":"2018-11-06 09:17:00","iframe_src":"//7043.svetacdn.in/IAF0wWTdNYZm/tv-series/3446"},{"id":3444,"title":"Люк","kp_id":"1045824","imdb_id":"tt7094904","world_art_id":null,"type":"serial","add":"2018-11-05 12:59:27","orig_title":"Maenhol","year":"2017-08-09","translations":["Любительский (двухголосый закадровый) (SoftBox)"],"seasons_count":1,"episodes_count":16,"episodes":16,"update":"2018-11-06 12:16:04","iframe_src":"//7043.svetacdn.in/IAF0wWTdNYZm/tv-series/3444"},{"id":3443,"title":"Операция «Любовь»","kp_id":"686561","imdb_id":"tt3211128","world_art_id":null,"type":"serial","add":"2018-11-05 11:50:32","orig_title":"Operation Proposal","year":"2012-02-07","translations":["Любительский (двухголосый закадровый) (STEPonee)"],"seasons_count":1,"episodes_count":16,"episodes":16,"update":"2018-11-06 07:40:22","iframe_src":"//7043.svetacdn.in/IAF0wWTdNYZm/tv-series/3443"},{"id":3442,"title":"Взрослые женщины","kp_id":null,"imdb_id":"tt4976536","world_art_id":null,"type":"serial","add":"2018-11-04 21:57:04","orig_title":"Otona Joshi","year":"2015-10-15","translations":["Любительский (одноголосый закадровый)"],"seasons_count":1,"episodes_count":10,"episodes":10,"update":"2018-11-05 12:15:25","iframe_src":"//7043.svetacdn.in/IAF0wWTdNYZm/tv-series/3442"},{"id":3440,"title":"Безумный художник","kp_id":"1048289","imdb_id":null,"world_art_id":null,"type":"serial","add":"2018-11-03 00:39:45","orig_title":"U-Prince: The Crazy Artist","year":"2017-04-09","translations":["Любительский (двухголосый закадровый) (HighHopes)"],"seasons_count":1,"episodes_count":4,"episodes":4,"update":"2018-11-05 12:52:48","iframe_src":"//7043.svetacdn.in/IAF0wWTdNYZm/tv-series/3440"},{"id":3439,"title":"Свободный режиссер","kp_id":"1047680","imdb_id":"tt6491314","world_art_id":null,"type":"serial","add":"2018-11-03 00:32:22","orig_title":"U-Prince: The Playful Comm-Arts","year":"2016-12-04","translations":["Любительский (одноголосый закадровый)"],"seasons_count":1,"episodes_count":4,"episodes":4,"update":"2018-11-05 12:33:29","iframe_src":"//7043.svetacdn.in/IAF0wWTdNYZm/tv-series/3439"},{"id":3438,"title":"Экстраверт-гуманист","kp_id":"1048291","imdb_id":null,"world_art_id":null,"type":"serial","add":"2018-11-03 00:23:14","orig_title":"U-Prince: The Extroverted Humanist","year":"2017-02-12","translations":["Любительский (одноголосый закадровый)"],"seasons_count":1,"episodes_count":4,"episodes":4,"update":"2018-11-05 12:28:47","iframe_src":"//7043.svetacdn.in/IAF0wWTdNYZm/tv-series/3438"},{"id":3416,"title":"В чужом краю","kp_id":"1048987","imdb_id":null,"world_art_id":null,"type":"serial","add":"2018-10-30 20:19:58","orig_title":"В чужом краю","year":"2018-10-29","translations":["Оригинальная дорожка"],"seasons_count":1,"episodes_count":13,"episodes":13,"update":"2018-11-04 07:22:19","iframe_src":"//7043.svetacdn.in/IAF0wWTdNYZm/tv-series/3416"},{"id":3411,"title":"Ворона","kp_id":"1047721","imdb_id":null,"world_art_id":null,"type":"serial","add":"2018-10-29 10:51:37","orig_title":"Ворона","year":"2018-10-29","translations":["Оригинальная дорожка"],"seasons_count":1,"episodes_count":12,"episodes":12,"update":"2018-11-03 12:44:34","iframe_src":"//7043.svetacdn.in/IAF0wWTdNYZm/tv-series/3411"},{"id":3166,"title":"Восход Черной Земли","kp_id":"1108994","imdb_id":"tt7660730","world_art_id":null,"type":"serial","add":"2018-09-14 09:51:51","orig_title":"Black Earth Rising","year":"2018-09-10","translations":["Любительский (двухголосый закадровый) (Sunshine Studio)","Профессиональный (многоголосый закадровый) (NewStudio)"],"seasons_count":1,"episodes_count":8,"episodes":8,"update":"2018-11-06 06:45:24","iframe_src":"//7043.svetacdn.in/IAF0wWTdNYZm/tv-series/3166"},{"id":2834,"title":"Жизнь на Марсе","kp_id":"1112104","imdb_id":"tt8236544","world_art_id":null,"type":"serial","add":"2018-06-18 08:37:39","orig_title":"La-i-peu on Ma-seu","year":"2018-06-09","translations":["Любительский (двухголосый закадровый) (SoftBox)","Любительский (многоголосый закадровый) (XDUB Dorama + Колобок)"],"seasons_count":1,"episodes_count":16,"episodes":16,"update":"2018-11-07 12:25:58","iframe_src":"//7043.svetacdn.in/IAF0wWTdNYZm/tv-series/2834"},{"id":2175,"title":"Голос","kp_id":"1008085","imdb_id":"tt6212854","world_art_id":null,"type":"serial","add":"2018-03-04 21:09:04","orig_title":"Boiseu","year":"2017-01-07","translations":["Любительский (двухголосый закадровый) (XDUB Dorama)","Любительский (двухголосый закадровый) (Храм Дорам ТВ)","Любительский (двухголосый закадровый) (JoyStudio)"],"seasons_count":2,"episodes_count":28,"episodes":12,"update":"2018-11-05 12:47:57","iframe_src":"//7043.svetacdn.in/IAF0wWTdNYZm/tv-series/2175"},{"id":1740,"title":"Морозова","kp_id":"1049366","imdb_id":null,"world_art_id":null,"type":"serial","add":"2017-11-16 07:11:56","orig_title":"Морозова","year":"2017-11-13","translations":["Оригинальная дорожка"],"seasons_count":2,"episodes_count":100,"episodes":50,"update":"2018-11-03 12:43:31","iframe_src":"//7043.svetacdn.in/IAF0wWTdNYZm/tv-series/1740"},{"id":1596,"title":"София Прекрасная","kp_id":"740886","imdb_id":"tt2136138","world_art_id":null,"type":"serial","add":"2017-10-04 06:34:46","orig_title":"Sofia the First","year":"2013-01-11","translations":["Полное дублирование"],"seasons_count":4,"episodes_count":106,"episodes":25,"update":"2018-11-07 08:24:37","iframe_src":"//7043.svetacdn.in/IAF0wWTdNYZm/tv-series/1596"},{"id":7454,"title":"Стеклянный дом","kp_id":"4303","imdb_id":"tt0221218","world_art_id":null,"type":"movie","add":"2016-11-15 05:20:10","orig_title":"The Glass House","year":"2001-09-14","translations":["Профессиональный (многоголосый закадровый)","Профессиональный (двухголосый закадровый) (Видеосервис)","Профессиональный (многоголосый закадровый) (Первый канал | ОРТ)","Профессиональный (многоголосый закадровый)","Профессиональный (двухголосый закадровый) (Garsu Pasaulis)","Авторский (одноголосый закадровый) (Визгунов Сергей)","Авторский (одноголосый закадровый) (Карповский Антон)","Original (English)"],"quality":"webdl","translation":"Профессиональный (многоголосый закадровый)","update":"2020-10-15 08:00:12","iframe_src":"//7043.svetacdn.in/IAF0wWTdNYZm/movie/7454"},{"id":7021,"title":"Обкуренные","kp_id":"18254","imdb_id":"tt0111293","world_art_id":null,"type":"movie","add":"2016-11-03 13:06:05","orig_title":"The Stöned Age","year":"1994-12-05","translations":["Профессиональный (многоголосый закадровый)","Профессиональный (многоголосый закадровый)","Авторский (одноголосый закадровый) (Володарский Леонид)","Авторский (одноголосый закадровый) (Санаев Павел)","Авторский (одноголосый закадровый) (Дохалов Вартан)","Original (English)"],"quality":"webdl","translation":"Профессиональный (многоголосый закадровый)","update":"2020-10-15 08:01:00","iframe_src":"//7043.svetacdn.in/IAF0wWTdNYZm/movie/7021"},{"id":341,"title":"Карточный домик","kp_id":"581937","imdb_id":"tt1856010","world_art_id":null,"type":"serial","add":"2016-08-17 10:22:32","orig_title":"House of Cards","year":"2013-02-01","translations":["Профессиональный (многоголосый закадровый) (Первый канал | ОРТ)","Профессиональный (многоголосый закадровый) (Amedia)"],"seasons_count":6,"episodes_count":73,"episodes":8,"update":"2018-11-05 09:51:42","iframe_src":"//7043.svetacdn.in/IAF0wWTdNYZm/tv-series/341"},{"id":4443,"title":"Пробуждая мертвецов","kp_id":"874","imdb_id":"tt0127349","world_art_id":null,"type":"movie","add":"2016-08-16 09:11:13","orig_title":"Waking the Dead","year":"2000-03-24","translations":["Любительский (многоголосый закадровый)","Профессиональный (двухголосый закадровый) (West Video)","Профессиональный (многоголосый закадровый) (Первый канал | ОРТ)","Original (English)"],"quality":"bd","translation":"Любительский (многоголосый закадровый)","update":"2020-10-15 08:01:58","iframe_src":"//7043.svetacdn.in/IAF0wWTdNYZm/movie/4443"},{"id":3769,"title":"Обвиняемые","kp_id":"9842","imdb_id":"tt0094608","world_art_id":null,"type":"movie","add":"2016-07-07 13:21:33","orig_title":"The Accused","year":"1988-10-14","translations":["Профессиональный (двухголосый закадровый)","Профессиональный (двухголосый закадровый) (НТВ)","Авторский (одноголосый закадровый) (Гаврилов Андрей)","Профессиональный (двухголосый закадровый)","Профессиональный (многоголосый закадровый) (СТС)","Original (English)"],"quality":"webdl","translation":"Профессиональный (двухголосый закадровый)","update":"2020-10-15 07:58:56","iframe_src":"//7043.svetacdn.in/IAF0wWTdNYZm/movie/3769"},{"id":1879,"title":"Армагеддон","kp_id":"2941","imdb_id":"tt0120591","world_art_id":null,"type":"movie","add":"2016-05-05 11:52:41","orig_title":"Armageddon","year":"1998-06-30","translations":["Полное дублирование","Авторский (одноголосый закадровый) (Гаврилов Андрей)","Авторский (одноголосый закадровый) (Сербин Юрий)","Авторский (одноголосый закадровый) (Визгунов Сергей)","Полное дублирование","Original (English)","Профессиональный (многоголосый закадровый) (Киномания)","Профессиональный (многоголосый закадровый) (Первый канал | ОРТ)","Профессиональный (многоголосый закадровый) (Superbit)"],"quality":"bd","translation":"Полное дублирование","update":"2020-10-16 12:24:20","iframe_src":"//7043.svetacdn.in/IAF0wWTdNYZm/movie/1879"},{"id":1576,"title":"Новые приключения Билла и Теда","kp_id":"3806","imdb_id":"tt0101452","world_art_id":null,"type":"movie","add":"2016-04-22 17:57:41","orig_title":"Bill & Ted's Bogus Journey","year":"1991-07-19","translations":["Профессиональный (двухголосый закадровый)","Original (English)","Авторский (одноголосый закадровый) (Гаврилов Андрей)","Авторский (одноголосый закадровый) (Королёв Владимир)","Профессиональный (двухголосый закадровый) (НТВ)","Профессиональный (двухголосый закадровый) (СВ-Кадр)"],"quality":"webdl","translation":"Профессиональный (двухголосый закадровый)","update":"2020-10-16 12:38:50","iframe_src":"//7043.svetacdn.in/IAF0wWTdNYZm/movie/1576"},{"id":722,"title":"Бэтмен и Робин","kp_id":"3678","imdb_id":"tt0118688","world_art_id":null,"type":"movie","add":"2016-04-06 21:28:10","orig_title":"Batman & Robin","year":"1997-06-12","translations":["Полное дублирование","Авторский (одноголосый закадровый) (Гаврилов Андрей)","Авторский (одноголосый закадровый) (Визгунов Сергей)","Авторский (одноголосый закадровый) (Живов Юрий)","Полное дублирование (Варус-Видео)","Полное дублирование (Мост-Видео)","Original (English)","Любительский (одноголосый закадровый) (Антонов Николай)","Профессиональный (двухголосый закадровый) (SDI Media)","Профессиональный (многоголосый закадровый) (РТР | Россия)"],"quality":"bd","translation":"Полное дублирование","update":"2020-10-16 12:34:24","iframe_src":"//7043.svetacdn.in/IAF0wWTdNYZm/movie/722"},{"id":656,"title":"Пятый элемент","kp_id":"2656","imdb_id":"tt0119116","world_art_id":null,"type":"movie","add":"2016-04-05 19:37:40","orig_title":"The Fifth Element","year":"1997-05-07","translations":["Полное дублирование","Original (English)","Авторский (одноголосый закадровый) (Яроцкий Михаил | Kyberpunk)","Авторский (одноголосый закадровый) (Гаврилов Андрей)","Авторский (одноголосый закадровый) (Живов Юрий)","Полное дублирование (НТВ)","Original (English)","Любительский (одноголосый закадровый) (Антонов Николай)","Профессиональный (двухголосый закадровый) (Гланц + Королёва)","Профессиональный (многоголосый закадровый) (СТС)"],"quality":"bd","translation":"Полное дублирование","update":"2020-10-16 12:13:13","iframe_src":"//7043.svetacdn.in/IAF0wWTdNYZm/movie/656"}],"current_page":395,"first_page_url":"https://videocdn.tv/api/short?limit=100&api_token=6Onb1W1alEUrBcKJZD3GoKBbWyAl2uG2&cache3395=3395&page=1","from":39401,"last_page":618,"last_page_url":"https://videocdn.tv/api/short?limit=100&api_token=6Onb1W1alEUrBcKJZD3GoKBbWyAl2uG2&cache3395=3395&page=618","next_page_url":"https://videocdn.tv/api/short?limit=100&api_token=6Onb1W1alEUrBcKJZD3GoKBbWyAl2uG2&cache3395=3395&page=396","path":"https://videocdn.tv/api/short","per_page":100,"prev_page_url":"https://videocdn.tv/api/short?limit=100&api_token=6Onb1W1alEUrBcKJZD3GoKBbWyAl2uG2&cache3395=3395&page=394","to":39440,"total":61769}