{"result":true,"data":[{"id":42378,"title":"Загадки Маунт Хайдэвей: Бывшие и неприятности","kp_id":"1238886","imdb_id":"tt9641092","world_art_id":null,"type":"movie","add":"2020-08-08 14:24:30","orig_title":"Mount Hideaway Mysteries: Exes and Oh No's","year":"2018-12-08","translations":["Любительский (многоголосый закадровый) (AlphaProject)"],"quality":"webdl","translation":"Любительский (многоголосый закадровый) (AlphaProject)","update":"2020-08-12 21:10:10","iframe_src":"//7720.svetacdn.in/si4jsFRrtgrT/movie/42378"},{"id":42377,"title":"Джалки","kp_id":null,"imdb_id":"tt7743400","world_art_id":null,"type":"movie","add":"2020-08-08 14:19:58","orig_title":"Jhalki","year":"2019-11-14","translations":["Любительский (многоголосый закадровый) (AlphaProject)"],"quality":"webdl","translation":"Любительский (многоголосый закадровый) (AlphaProject)","update":"2020-08-12 21:10:43","iframe_src":"//7720.svetacdn.in/si4jsFRrtgrT/movie/42377"},{"id":42376,"title":"По ту сторону зеркала","kp_id":"1093861","imdb_id":"tt7534306","world_art_id":null,"type":"movie","add":"2020-08-08 14:17:29","orig_title":"Jenseits des Spiegels","year":"2018-01-24","translations":["Любительский (многоголосый закадровый) (Синема УС)"],"quality":"webdl","translation":"Любительский (многоголосый закадровый) (Синема УС)","update":"2020-08-12 21:11:34","iframe_src":"//7720.svetacdn.in/si4jsFRrtgrT/movie/42376"},{"id":42375,"title":"Федра","kp_id":"1161014","imdb_id":"tt8337916","world_art_id":null,"type":"movie","add":"2020-08-08 14:06:42","orig_title":"Phaedra","year":"2018-09-08","translations":["Любительский (многоголосый закадровый) (Синема УС)"],"quality":"webdl","translation":"Любительский (многоголосый закадровый) (Синема УС)","update":"2020-08-12 21:12:11","iframe_src":"//7720.svetacdn.in/si4jsFRrtgrT/movie/42375"},{"id":42070,"title":"Гость","kp_id":"15998","imdb_id":"tt0110066","world_art_id":null,"type":"movie","add":"2020-07-28 11:29:08","orig_title":"Houseguest","year":"1995-01-06","translations":["Авторский (одноголосый закадровый) (Гаврилов Андрей)","Авторский (одноголосый закадровый) (Кузнецов Сергей)","Профессиональный (многоголосый закадровый) (СТС)","Original (English)"],"quality":"webdl","translation":"Авторский (одноголосый закадровый) (Гаврилов Андрей)","update":"2020-08-12 12:30:51","iframe_src":"//7720.svetacdn.in/si4jsFRrtgrT/movie/42070"},{"id":30053,"title":"Неестественный повод","kp_id":"262913","imdb_id":"tt0867464","world_art_id":null,"type":"movie","add":"2019-08-16 16:35:30","orig_title":"Clean Break","year":"2008-04-23","translations":["Профессиональный (многоголосый закадровый)","Профессиональный (многоголосый закадровый) (Первый канал | ОРТ)","Профессиональный (двухголосый закадровый) (Elrom)","Original (English)"],"quality":"hdtv","translation":"Профессиональный (многоголосый закадровый)","update":"2020-08-12 12:19:47","iframe_src":"//7720.svetacdn.in/si4jsFRrtgrT/movie/30053"},{"id":24791,"title":"Парень-каратист","kp_id":"22446","imdb_id":"tt0087538","world_art_id":null,"type":"movie","add":"2019-04-17 21:48:51","orig_title":"The Karate Kid","year":"1984-06-22","translations":["Профессиональный (многоголосый закадровый) (Первый канал | ОРТ)","Профессиональный (многоголосый закадровый) (Good People)","Авторский (одноголосый закадровый) (Горчаков Василий)","Авторский (одноголосый закадровый) (Товбин Юрий)","Original (English)","Профессиональный (многоголосый закадровый) (Первый канал | ОРТ)","Профессиональный (многоголосый закадровый) (РенТВ)"],"quality":"bd","translation":"Профессиональный (многоголосый закадровый) (Первый канал | ОРТ)","update":"2020-08-12 11:48:46","iframe_src":"//7720.svetacdn.in/si4jsFRrtgrT/movie/24791"},{"id":18195,"title":"Скрытая угроза","kp_id":"8108","imdb_id":"tt0249478","world_art_id":null,"type":"movie","add":"2018-08-09 23:30:56","orig_title":"Domestic Disturbance","year":"2001-10-30","translations":["Полное дублирование","Авторский (одноголосый закадровый) (Живов Юрий)","Полное дублирование","Профессиональный (двухголосый закадровый)","Профессиональный (многоголосый закадровый) (5-й канал СПб)","Original (English)"],"quality":"webdl","translation":"Полное дублирование","update":"2020-08-12 12:25:34","iframe_src":"//7720.svetacdn.in/si4jsFRrtgrT/movie/18195"},{"id":12973,"title":"Пошли в тюрьму","kp_id":"105741","imdb_id":"tt0454987","world_art_id":null,"type":"movie","add":"2017-08-15 14:39:56","orig_title":"Let's Go to Prison","year":"2006-11-17","translations":["Полное дублирование","Original (English)","Авторский (одноголосый закадровый) (Яроцкий Михаил | Kyberpunk)","Полное дублирование (Пифагор)","Профессиональный (многоголосый закадровый)","Original (English)"],"quality":"webdl","translation":"Полное дублирование","update":"2020-08-12 12:34:08","iframe_src":"//7720.svetacdn.in/si4jsFRrtgrT/movie/12973"},{"id":8985,"title":"Большое путешествие","kp_id":"13335","imdb_id":"tt0113936","world_art_id":null,"type":"movie","add":"2017-01-17 11:18:07","orig_title":"Senior Trip","year":"1995-09-08","translations":["Профессиональный (многоголосый закадровый)","Авторский (одноголосый закадровый) (Сербин Юрий)","Авторский (одноголосый закадровый) (Володарский Леонид)","Original (English)","Профессиональный (двухголосый закадровый) (SDI Media)","Профессиональный (многоголосый закадровый) (РТР | Россия)"],"quality":"hdtv","translation":"Профессиональный (многоголосый закадровый)","update":"2020-08-12 11:53:58","iframe_src":"//7720.svetacdn.in/si4jsFRrtgrT/movie/8985"},{"id":6834,"title":"Кровь и бетон","kp_id":"17637","imdb_id":"tt0101478","world_art_id":null,"type":"movie","add":"2016-10-30 08:39:09","orig_title":"Blood and Concrete","year":"1991-09-13","translations":["Профессиональный (многоголосый закадровый)","Авторский (одноголосый закадровый) (Гаврилов Андрей)","Авторский (одноголосый закадровый) (Яроцкий Михаил | Kyberpunk)","Профессиональный (многоголосый закадровый) (5-й канал СПб)","Original (English)"],"quality":"hdtv","translation":"Профессиональный (многоголосый закадровый)","update":"2020-08-12 13:57:48","iframe_src":"//7720.svetacdn.in/si4jsFRrtgrT/movie/6834"},{"id":6792,"title":"Герой","kp_id":"2529","imdb_id":"tt0104412","world_art_id":null,"type":"movie","add":"2016-10-30 07:41:55","orig_title":"Hero","year":"1992-10-02","translations":["Профессиональный (двухголосый закадровый)","Авторский (одноголосый закадровый) (Михалёв Алексей)","Авторский (одноголосый закадровый) (Живов Юрий)","Профессиональный (двухголосый закадровый) (НТВ)","Профессиональный (многоголосый закадровый) (Видеосервис)","Original (English)"],"quality":"webdl","translation":"Профессиональный (двухголосый закадровый)","update":"2020-08-12 12:30:02","iframe_src":"//7720.svetacdn.in/si4jsFRrtgrT/movie/6792"},{"id":4970,"title":"Опасные умы","kp_id":"22619","imdb_id":"tt0112792","world_art_id":null,"type":"movie","add":"2016-09-02 11:38:03","orig_title":"Dangerous Minds","year":"1995-08-11","translations":["Профессиональный (двухголосый закадровый)","Авторский (одноголосый закадровый) (Гаврилов Андрей)","Авторский (одноголосый закадровый) (Живов Юрий)","Профессиональный (двухголосый закадровый) (Видеосервис)","Профессиональный (многоголосый закадровый) (Первый канал | ОРТ)","Original (English)"],"quality":"hdtv","translation":"Профессиональный (двухголосый закадровый)","update":"2020-08-12 12:21:25","iframe_src":"//7720.svetacdn.in/si4jsFRrtgrT/movie/4970"},{"id":4262,"title":"Радиоволна","kp_id":"675","imdb_id":"tt0186151","world_art_id":null,"type":"movie","add":"2016-08-01 15:48:06","orig_title":"Frequency","year":"2000-04-28","translations":["Полное дублирование","Авторский (одноголосый закадровый) (Есарев Дмитрий)","Авторский (одноголосый закадровый) (Гаврилов Андрей)","Авторский (одноголосый закадровый) (Визгунов Сергей)","Авторский (одноголосый закадровый) (Живов Юрий)","Полное дублирование (Невафильм | Нева-1)","Профессиональный (двухголосый закадровый) (Garsu Pasaulis)","Профессиональный (многоголосый закадровый) (CP Digital)","Профессиональный (многоголосый закадровый) (Киномания)","Профессиональный (многоголосый закадровый) (ТВ3)","Original (English)"],"quality":"bd","translation":"Полное дублирование","update":"2020-08-12 12:26:43","iframe_src":"//7720.svetacdn.in/si4jsFRrtgrT/movie/4262"},{"id":3759,"title":"Смертный приговор","kp_id":"256164","imdb_id":"tt0804461","world_art_id":null,"type":"movie","add":"2016-07-07 13:09:42","orig_title":"Death Sentence","year":"2007-08-01","translations":["Профессиональный (многоголосый закадровый)","Авторский (одноголосый закадровый) (Гаврилов Андрей)","Авторский (одноголосый закадровый) (Немахов Юрий)","Авторский (одноголосый закадровый) (Яроцкий Михаил | Kyberpunk)","Профессиональный (двухголосый закадровый) (Гланц + Королёва)","Профессиональный (многоголосый закадровый) (Киномания)","Профессиональный (многоголосый закадровый) (РТР | Россия)","Original (English)"],"quality":"bd","translation":"Профессиональный (многоголосый закадровый)","update":"2020-08-12 12:24:39","iframe_src":"//7720.svetacdn.in/si4jsFRrtgrT/movie/3759"},{"id":1963,"title":"Плутовство","kp_id":"2989","imdb_id":"tt0120885","world_art_id":null,"type":"movie","add":"2016-05-07 10:00:58","orig_title":"Wag the Dog","year":"1997-12-17","translations":["Профессиональный (многоголосый закадровый)","Профессиональный (многоголосый закадровый)","Авторский (одноголосый закадровый) (Гаврилов Андрей)","Авторский (одноголосый закадровый) (Живов Юрий)","Профессиональный (двухголосый закадровый)","Профессиональный (многоголосый закадровый) (РТР | Россия)","Профессиональный (многоголосый закадровый)","Original (English)"],"quality":"hdtv","translation":"Профессиональный (многоголосый закадровый)","update":"2020-08-12 12:37:10","iframe_src":"//7720.svetacdn.in/si4jsFRrtgrT/movie/1963"},{"id":1778,"title":"Пуленепробиваемый","kp_id":"4189","imdb_id":"tt0115783","world_art_id":null,"type":"movie","add":"2016-05-02 17:55:14","orig_title":"Bulletproof","year":"1996-09-06","translations":["Профессиональный (многоголосый закадровый)","Авторский (одноголосый закадровый) (Гаврилов Андрей)","Авторский (одноголосый закадровый) (Живов Юрий)","Полное дублирование","Профессиональный (двухголосый закадровый) (Премьер Видео Фильм)","Профессиональный (многоголосый закадровый)","Профессиональный (многоголосый закадровый) (СТС)","Original (English)"],"quality":"bd","translation":"Профессиональный (многоголосый закадровый)","update":"2020-08-12 12:18:20","iframe_src":"//7720.svetacdn.in/si4jsFRrtgrT/movie/1778"},{"id":1731,"title":"Убрать Картера","kp_id":"3603","imdb_id":"tt0208988","world_art_id":null,"type":"movie","add":"2016-04-29 12:30:36","orig_title":"Get Carter","year":"2000-09-25","translations":["Полное дублирование","Авторский (одноголосый закадровый) (Гаврилов Андрей)","Авторский (одноголосый закадровый) (Визгунов Сергей)","Авторский (одноголосый закадровый) (Яроцкий Михаил | Kyberpunk)","Авторский (одноголосый закадровый) (Живов Юрий)","Полное дублирование (Мосфильм)","Профессиональный (многоголосый закадровый) (Первый канал | ОРТ)","Original (English)"],"quality":"bd","translation":"Полное дублирование","update":"2020-08-12 12:28:19","iframe_src":"//7720.svetacdn.in/si4jsFRrtgrT/movie/1731"},{"id":846,"title":"Ограбление по-итальянски","kp_id":"318","imdb_id":"tt0317740","world_art_id":null,"type":"movie","add":"2016-04-08 17:50:12","orig_title":"The Italian Job","year":"2003-05-30","translations":["Полное дублирование","Авторский (одноголосый закадровый) (Гаврилов Андрей)","Авторский (одноголосый закадровый) (Карповский Антон)","Авторский (одноголосый закадровый) (Киреев Антон)","Авторский (одноголосый закадровый) (Сербин Юрий)","Авторский (одноголосый закадровый) (Визгунов Сергей)","Авторский (одноголосый закадровый) (Живов Юрий)","Полное дублирование (iTunes)","Профессиональный (двухголосый закадровый) (DDV)","Профессиональный (двухголосый закадровый) (НТВ)","Профессиональный (многоголосый закадровый) (СТС)","Профессиональный (многоголосый закадровый) (Позитив)","Original (English)"],"quality":"bd","translation":"Полное дублирование","update":"2020-08-12 12:36:19","iframe_src":"//7720.svetacdn.in/si4jsFRrtgrT/movie/846"},{"id":823,"title":"Козырные тузы","kp_id":"182352","imdb_id":"tt0475394","world_art_id":null,"type":"movie","add":"2016-04-08 16:54:13","orig_title":"Smokin' Aces","year":"2006-12-09","translations":["Полное дублирование","Авторский (одноголосый закадровый) (Гаврилов Андрей)","Авторский (одноголосый закадровый) (Немахов Юрий)","Авторский (одноголосый закадровый) (Яроцкий Михаил | Kyberpunk)","Полное дублирование","Original (English)"],"quality":"bd","translation":"Полное дублирование","update":"2020-08-12 12:34:51","iframe_src":"//7720.svetacdn.in/si4jsFRrtgrT/movie/823"}],"current_page":665,"first_page_url":"https://videocdn.tv/api/short?limit=100&api_token=X6EwAUfE5M9xbo7y0Bp0aPf3uXxG2KLL&cache3665=3665&page=1","from":66401,"last_page":650,"last_page_url":"https://videocdn.tv/api/short?limit=100&api_token=X6EwAUfE5M9xbo7y0Bp0aPf3uXxG2KLL&cache3665=3665&page=650","next_page_url":null,"path":"https://videocdn.tv/api/short","per_page":100,"prev_page_url":"https://videocdn.tv/api/short?limit=100&api_token=X6EwAUfE5M9xbo7y0Bp0aPf3uXxG2KLL&cache3665=3665&page=664","to":66420,"total":64984}