{"result":true,"data":[{"id":28414,"title":"Фанаты","kp_id":"208903","imdb_id":"tt0489049","world_art_id":null,"type":"movie","add":"2019-06-30 21:14:43","orig_title":"Fanboys","year":"2009-02-06","translations":["Профессиональный (двухголосый закадровый)"],"quality":"hdrip","translation":"Профессиональный (двухголосый закадровый)","update":"2019-07-01 07:37:25","iframe_src":"//83.svetacdn.in/PfJ50H0ZBPg3/movie/28414"},{"id":28410,"title":"Прямохождение","kp_id":"103561","imdb_id":"tt0440730","world_art_id":null,"type":"movie","add":"2019-06-30 18:19:46","orig_title":"Pryamokhozhdenie","year":"2005-02-02","translations":["Оригинальная дорожка"],"quality":"dvdrip","translation":"Оригинальная дорожка","update":"2019-07-01 07:36:19","iframe_src":"//83.svetacdn.in/PfJ50H0ZBPg3/movie/28410"},{"id":28409,"title":"Давид Бек","kp_id":"44106","imdb_id":"tt0036747","world_art_id":null,"type":"movie","add":"2019-06-30 18:17:03","orig_title":"David Bek","year":"1944-02-14","translations":["Оригинальная дорожка"],"quality":"dvdrip","translation":"Оригинальная дорожка","update":"2019-07-01 07:34:34","iframe_src":"//83.svetacdn.in/PfJ50H0ZBPg3/movie/28409"},{"id":28408,"title":"Дорога правды","kp_id":"44287","imdb_id":"tt0049157","world_art_id":null,"type":"movie","add":"2019-06-30 18:14:33","orig_title":"Doroga pravdy","year":"1956-09-13","translations":["Оригинальная дорожка"],"quality":"sat","translation":"Оригинальная дорожка","update":"2019-07-01 07:33:46","iframe_src":"//83.svetacdn.in/PfJ50H0ZBPg3/movie/28408"},{"id":28407,"title":"Наш милый доктор","kp_id":"46330","imdb_id":"tt0170289","world_art_id":null,"type":"movie","add":"2019-06-30 18:11:40","orig_title":"Nash milyy doktor","year":"1957-06-12","translations":["Оригинальная дорожка"],"quality":"sat","translation":"Оригинальная дорожка","update":"2019-07-01 07:33:01","iframe_src":"//83.svetacdn.in/PfJ50H0ZBPg3/movie/28407"},{"id":28406,"title":"Смена начинается в шесть","kp_id":"472315","imdb_id":"tt5096302","world_art_id":null,"type":"movie","add":"2019-06-30 18:08:20","orig_title":"...Smena nachinayetsya v shest","year":"1959-04-08","translations":["Оригинальная дорожка"],"quality":"dvdrip","translation":"Оригинальная дорожка","update":"2019-07-01 07:32:14","iframe_src":"//83.svetacdn.in/PfJ50H0ZBPg3/movie/28406"},{"id":28396,"title":"Академик Иван Павлов","kp_id":"43434","imdb_id":"tt0041101","world_art_id":null,"type":"movie","add":"2019-06-29 11:39:42","orig_title":"Akademik Ivan Pavlov","year":"1949-02-21","translations":["Оригинальная дорожка"],"quality":"dvdrip","translation":"Оригинальная дорожка","update":"2019-07-01 07:31:04","iframe_src":"//83.svetacdn.in/PfJ50H0ZBPg3/movie/28396"},{"id":28395,"title":"Александр Пархоменко","kp_id":"43452","imdb_id":"tt0034443","world_art_id":null,"type":"movie","add":"2019-06-29 11:35:58","orig_title":"Aleksandr Parkhomenko","year":"1942-07-20","translations":["Оригинальная дорожка"],"quality":"sat","translation":"Оригинальная дорожка","update":"2019-07-01 07:30:03","iframe_src":"//83.svetacdn.in/PfJ50H0ZBPg3/movie/28395"},{"id":28394,"title":"Без вести пропавший","kp_id":"46119","imdb_id":"tt0312474","world_art_id":null,"type":"movie","add":"2019-06-29 11:31:42","orig_title":"Bez vesti propavshiy","year":"1957-01-07","translations":["Оригинальная дорожка"],"quality":"dvdrip","translation":"Оригинальная дорожка","update":"2019-07-01 07:29:17","iframe_src":"//83.svetacdn.in/PfJ50H0ZBPg3/movie/28394"},{"id":28393,"title":"Чернов. Chernov","kp_id":"45492","imdb_id":"tt0099249","world_art_id":null,"type":"movie","add":"2019-06-29 11:12:34","orig_title":"Chernov/Chernov","year":"1990-01-01","translations":["Оригинальная дорожка"],"quality":"vhs","translation":"Оригинальная дорожка","update":"2019-07-01 07:24:09","iframe_src":"//83.svetacdn.in/PfJ50H0ZBPg3/movie/28393"},{"id":28392,"title":"Дни и ночи","kp_id":"44228","imdb_id":"tt0037646","world_art_id":null,"type":"movie","add":"2019-06-29 11:06:34","orig_title":"Dni i nochi","year":"1945-08-28","translations":["Оригинальная дорожка"],"quality":"dvdrip","translation":"Оригинальная дорожка","update":"2019-07-01 07:23:13","iframe_src":"//83.svetacdn.in/PfJ50H0ZBPg3/movie/28392"},{"id":28391,"title":"Драгоценные зерна","kp_id":"44300","imdb_id":"tt0171242","world_art_id":null,"type":"movie","add":"2019-06-29 11:02:52","orig_title":"Dragotsennye zyorna","year":"1948-07-17","translations":["Оригинальная дорожка"],"quality":"sat","translation":"Оригинальная дорожка","update":"2019-07-01 07:22:08","iframe_src":"//83.svetacdn.in/PfJ50H0ZBPg3/movie/28391"},{"id":28390,"title":"Фронтовые подруги","kp_id":"44441","imdb_id":"tt0033637","world_art_id":null,"type":"movie","add":"2019-06-29 10:59:45","orig_title":"Frontovye podrugi","year":"1941-05-19","translations":["Оригинальная дорожка"],"quality":"dvdrip","translation":"Оригинальная дорожка","update":"2019-07-01 07:21:18","iframe_src":"//83.svetacdn.in/PfJ50H0ZBPg3/movie/28390"},{"id":28389,"title":"Гололед","kp_id":"41191","imdb_id":"tt0353504","world_art_id":null,"type":"movie","add":"2019-06-29 10:56:35","orig_title":"Gololyod","year":"2003-01-25","translations":["Оригинальная дорожка"],"quality":"dvdrip","translation":"Оригинальная дорожка","update":"2019-07-01 07:19:57","iframe_src":"//83.svetacdn.in/PfJ50H0ZBPg3/movie/28389"},{"id":28387,"title":"Квартира из сыра","kp_id":"481591","imdb_id":null,"world_art_id":null,"type":"movie","add":"2019-06-29 10:47:46","orig_title":"Квартира из сыра","year":"1989-01-01","translations":["Оригинальная дорожка"],"quality":"dvdrip","translation":"Оригинальная дорожка","update":"2019-07-01 07:16:21","iframe_src":"//83.svetacdn.in/PfJ50H0ZBPg3/movie/28387"},{"id":28386,"title":"Пока жив человек","kp_id":"542286","imdb_id":"tt5019354","world_art_id":null,"type":"movie","add":"2019-06-29 10:43:19","orig_title":"Poka zhiv chelovek","year":"1963-02-08","translations":["Оригинальная дорожка"],"quality":"sat","translation":"Оригинальная дорожка","update":"2019-07-01 07:15:03","iframe_src":"//83.svetacdn.in/PfJ50H0ZBPg3/movie/28386"},{"id":28385,"title":"Просто повезло","kp_id":"419531","imdb_id":null,"world_art_id":null,"type":"movie","add":"2019-06-29 10:39:56","orig_title":"Просто повезло","year":"2007-08-03","translations":["Оригинальная дорожка"],"quality":"dvdrip","translation":"Оригинальная дорожка","update":"2019-07-01 07:13:46","iframe_src":"//83.svetacdn.in/PfJ50H0ZBPg3/movie/28385"},{"id":28384,"title":"Сказка про темноту","kp_id":"460540","imdb_id":"tt1426384","world_art_id":null,"type":"movie","add":"2019-06-29 10:36:16","orig_title":"Skazka pro temnotu","year":"2009-05-21","translations":["Оригинальная дорожка"],"quality":"dvdrip","translation":"Оригинальная дорожка","update":"2019-07-01 07:12:43","iframe_src":"//83.svetacdn.in/PfJ50H0ZBPg3/movie/28384"},{"id":28383,"title":"Следы апостолов","kp_id":"762077","imdb_id":"tt5277222","world_art_id":null,"type":"movie","add":"2019-06-29 10:32:44","orig_title":"Sledy apostolov","year":"2013-05-11","translations":["Оригинальная дорожка"],"quality":"webdl","translation":"Оригинальная дорожка","update":"2019-07-01 07:11:43","iframe_src":"//83.svetacdn.in/PfJ50H0ZBPg3/movie/28383"},{"id":28382,"title":"Слова и музыка","kp_id":"80989","imdb_id":"tt0416227","world_art_id":null,"type":"movie","add":"2019-06-29 10:28:00","orig_title":"Slova i muzyka","year":"2004-09-09","translations":["Оригинальная дорожка"],"quality":"dvdrip","translation":"Оригинальная дорожка","update":"2019-07-01 07:10:22","iframe_src":"//83.svetacdn.in/PfJ50H0ZBPg3/movie/28382"}],"current_page":1454,"first_page_url":"https://videocdn.tv/api/short?limit=100&api_token=RgFQdUIR2dRmwv8iYa5SnFNgnw3vpjKj&cache31454=31454&page=1","from":145301,"last_page":658,"last_page_url":"https://videocdn.tv/api/short?limit=100&api_token=RgFQdUIR2dRmwv8iYa5SnFNgnw3vpjKj&cache31454=31454&page=658","next_page_url":null,"path":"https://videocdn.tv/api/short","per_page":100,"prev_page_url":"https://videocdn.tv/api/short?limit=100&api_token=RgFQdUIR2dRmwv8iYa5SnFNgnw3vpjKj&cache31454=31454&page=1453","to":145320,"total":65702}