{"result":true,"data":[{"id":53836,"title":"Священник","kp_id":"18816","imdb_id":"tt0110889","world_art_id":null,"type":"movie","add":"2021-10-14 05:50:07","orig_title":"Priest","year":"1994-09-12","translations":["[EN] Original (English)","Авторский (одноголосый закадровый) (Алексеев Антон)"],"quality":"webdl","translation":"[EN] Original (English)","update":"2021-10-14 10:10:19","iframe_src":"//83.svetacdn.in/PfJ50H0ZBPg3/movie/53836"},{"id":53835,"title":"Белый автобус","kp_id":"9881","imdb_id":"tt0061181","world_art_id":null,"type":"movie","add":"2021-10-14 05:44:36","orig_title":"The White Bus","year":"1967-12-01","translations":["[EN] Original (English)","Профессиональный (двухголосый закадровый) (НТВ)"],"quality":"bd","translation":"[EN] Original (English)","update":"2021-10-14 12:24:48","iframe_src":"//83.svetacdn.in/PfJ50H0ZBPg3/movie/53835"},{"id":53834,"title":"Парни из Трейлерпарка","kp_id":"141094","imdb_id":"tt0425601","world_art_id":null,"type":"movie","add":"2021-10-14 05:40:31","orig_title":"Trailer Park Boys: The Movie","year":"2006-10-06","translations":["[EN] Original (English)","Профессиональный (многоголосый закадровый) (Jaskier)","Авторский (одноголосый закадровый) (Яроцкий Михаил | Kyberpunk)"],"quality":"bd","translation":"[EN] Original (English)","update":"2021-10-14 11:57:04","iframe_src":"//83.svetacdn.in/PfJ50H0ZBPg3/movie/53834"},{"id":53832,"title":"Опасное лечение сексом","kp_id":"4290873","imdb_id":"tt12879746","world_art_id":null,"type":"movie","add":"2021-10-14 05:07:10","orig_title":"Sei no Gekiyaku","year":"2020-02-14","translations":["Любительский (двухголосый закадровый) (Странные миры)"],"quality":"webdl","translation":"Любительский (двухголосый закадровый) (Странные миры)","update":"2021-10-14 09:48:23","iframe_src":"//83.svetacdn.in/PfJ50H0ZBPg3/movie/53832"},{"id":53831,"title":"Раджа и кольцо","kp_id":"187346","imdb_id":"tt0316493","world_art_id":null,"type":"movie","add":"2021-10-14 05:00:40","orig_title":"The Ring and the Rajah","year":"1914-03-01","translations":["[EN] Original (English)","Любительский (одноголосый закадровый) (Nastia)"],"quality":"webdl","translation":"[EN] Original (English)","update":"2021-10-14 09:43:18","iframe_src":"//83.svetacdn.in/PfJ50H0ZBPg3/movie/53831"},{"id":53830,"title":"Майор Хубаль","kp_id":"66057","imdb_id":"tt0071633","world_art_id":null,"type":"movie","add":"2021-10-13 22:26:40","orig_title":"Hubal","year":"1973-09-03","translations":["Полное дублирование (Союзмультфильм)"],"quality":"bd","translation":"Полное дублирование (Союзмультфильм)","update":"2021-10-14 10:26:28","iframe_src":"//83.svetacdn.in/PfJ50H0ZBPg3/movie/53830"},{"id":53829,"title":"Вечернее платье","kp_id":"20900","imdb_id":"tt0092068","world_art_id":null,"type":"movie","add":"2021-10-13 22:22:56","orig_title":"Tenue de soirée","year":"1986-04-23","translations":["Профессиональный (многоголосый закадровый)"],"quality":"bd","translation":"Профессиональный (многоголосый закадровый)","update":"2021-10-14 10:31:44","iframe_src":"//83.svetacdn.in/PfJ50H0ZBPg3/movie/53829"},{"id":53827,"title":"Те, кто нас окружает","kp_id":"1276401","imdb_id":"tt10042622","world_art_id":null,"type":"movie","add":"2021-10-13 21:26:41","orig_title":"They Who Surround Us","year":"2021-08-27","translations":["Любительский (многоголосый закадровый) (Синема УС)"],"quality":"webdl","translation":"Любительский (многоголосый закадровый) (Синема УС)","update":"2021-10-14 07:41:53","iframe_src":"//83.svetacdn.in/PfJ50H0ZBPg3/movie/53827"},{"id":53825,"title":"Обитатели","kp_id":"1222965","imdb_id":"tt9285338","world_art_id":null,"type":"movie","add":"2021-10-13 20:53:35","orig_title":"Dwellers","year":"2021-02-20","translations":["Любительский (многоголосый закадровый) (Синема УС)"],"quality":"webdl","translation":"Любительский (многоголосый закадровый) (Синема УС)","update":"2021-10-14 07:42:31","iframe_src":"//83.svetacdn.in/PfJ50H0ZBPg3/movie/53825"},{"id":53824,"title":"Нас других не будет","kp_id":"4533253","imdb_id":null,"world_art_id":null,"type":"movie","add":"2021-10-13 20:50:01","orig_title":"Нас других не будет","year":"2021-10-07","translations":["Оригинальная дорожка"],"quality":"ts","translation":"Оригинальная дорожка","update":"2021-10-14 07:37:34","iframe_src":"//83.svetacdn.in/PfJ50H0ZBPg3/movie/53824"},{"id":53823,"title":"На краю пропасти","kp_id":"1346269","imdb_id":"tt11464430","world_art_id":null,"type":"movie","add":"2021-10-13 20:48:48","orig_title":"On the Fringe of Wild","year":"2021-04-28","translations":["Любительский (многоголосый закадровый) (Синема УС)"],"quality":"webdl","translation":"Любительский (многоголосый закадровый) (Синема УС)","update":"2021-10-14 07:43:39","iframe_src":"//83.svetacdn.in/PfJ50H0ZBPg3/movie/53823"},{"id":53822,"title":"Духовный квест","kp_id":"1302982","imdb_id":"tt10919446","world_art_id":null,"type":"movie","add":"2021-10-13 20:47:16","orig_title":"Spirit Quest","year":"2021-10-12","translations":["Любительский (многоголосый закадровый) (Синема УС)"],"quality":"webdl","translation":"Любительский (многоголосый закадровый) (Синема УС)","update":"2021-10-14 07:44:13","iframe_src":"//83.svetacdn.in/PfJ50H0ZBPg3/movie/53822"},{"id":53715,"title":"Поместье","kp_id":"1447269","imdb_id":"tt13372794","world_art_id":null,"type":"movie","add":"2021-10-09 14:21:14","orig_title":"The Manor","year":"2021-10-08","translations":["Профессиональный (двухголосый закадровый) (Pazl Voice)","Любительский (многоголосый закадровый) (@MUZOBOZ@)","[EN] Original (English)","Профессиональный (многоголосый закадровый) (HDrezka Studio)","Профессиональный (многоголосый закадровый) (HDrezka Studio)"],"quality":"webdl","translation":"Профессиональный (двухголосый закадровый) (Pazl Voice)","update":"2021-10-14 11:14:56","iframe_src":"//83.svetacdn.in/PfJ50H0ZBPg3/movie/53715"},{"id":48088,"title":"Паранормальная тюрьма","kp_id":"1232713","imdb_id":"tt9013780","world_art_id":null,"type":"movie","add":"2021-02-21 08:07:05","orig_title":"Paranormal Prison","year":"2021-02-19","translations":["Любительский (многоголосый закадровый) (Синема УС)","Профессиональный (многоголосый закадровый) (iTunes)","[EN] Original (English)"],"quality":"webdl","translation":"Любительский (многоголосый закадровый) (Синема УС)","update":"2021-10-14 09:51:37","iframe_src":"//83.svetacdn.in/PfJ50H0ZBPg3/movie/48088"},{"id":47513,"title":"Незнакомец","kp_id":"1416639","imdb_id":"tt13081358","world_art_id":null,"type":"movie","add":"2021-01-29 12:36:58","orig_title":"Dead in the Water","year":"2021-01-15","translations":["Любительский (многоголосый закадровый) (Синема УС)","Полное дублирование (iTunes)","[EN] Original (English)"],"quality":"webdl","translation":"Любительский (многоголосый закадровый) (Синема УС)","update":"2021-10-14 10:28:30","iframe_src":"//83.svetacdn.in/PfJ50H0ZBPg3/movie/47513"},{"id":42820,"title":"Турецкий Геркулес","kp_id":"1227819","imdb_id":"tt9500372","world_art_id":null,"type":"movie","add":"2020-08-27 08:31:18","orig_title":"Cep Herkülü: Naim Süleymanoglu","year":"2019-11-22","translations":["Любительский (многоголосый закадровый) (Синема УС)","Любительский (двухголосый закадровый) (datynet & Yuka_chan)"],"quality":"webdl","translation":"Любительский (многоголосый закадровый) (Синема УС)","update":"2021-10-14 10:30:19","iframe_src":"//83.svetacdn.in/PfJ50H0ZBPg3/movie/42820"},{"id":5463,"title":"Васильки","kp_id":"716857","imdb_id":null,"world_art_id":null,"type":"serial","add":"2019-10-14 09:36:54","orig_title":"Васильки","year":"2013-01-01","translations":["Оригинальная дорожка"],"seasons_count":1,"episodes_count":2,"episodes":2,"update":"2019-10-14 23:17:59","iframe_src":"//83.svetacdn.in/PfJ50H0ZBPg3/tv-series/5463"},{"id":5461,"title":"Одержимый","kp_id":"469223","imdb_id":"tt4372838","world_art_id":null,"type":"serial","add":"2019-10-14 07:03:59","orig_title":"Oderzhimiy","year":"2010-08-26","translations":["Оригинальная дорожка"],"seasons_count":1,"episodes_count":12,"episodes":12,"update":"2019-10-15 10:54:19","iframe_src":"//83.svetacdn.in/PfJ50H0ZBPg3/tv-series/5461"},{"id":5460,"title":"Знаки судьбы","kp_id":null,"imdb_id":null,"world_art_id":null,"type":"serial","add":"2019-10-14 06:58:15","orig_title":"Znaki sudbi","year":"2017-01-01","translations":["Оригинальная дорожка"],"seasons_count":1,"episodes_count":20,"episodes":20,"update":"2019-10-15 10:50:37","iframe_src":"//83.svetacdn.in/PfJ50H0ZBPg3/tv-series/5460"},{"id":5459,"title":"Беги","kp_id":"717627","imdb_id":"tt2297604","world_art_id":null,"type":"serial","add":"2019-10-14 05:44:09","orig_title":"Run","year":"2013-07-15","translations":["Профессиональный (многоголосый закадровый) (TVShows)"],"seasons_count":1,"episodes_count":4,"episodes":4,"update":"2019-10-14 08:07:06","iframe_src":"//83.svetacdn.in/PfJ50H0ZBPg3/tv-series/5459"},{"id":5458,"title":"Линия жизни","kp_id":"1309170","imdb_id":null,"world_art_id":null,"type":"serial","add":"2019-10-14 05:39:46","orig_title":"Линия жизни","year":"2019-10-12","translations":["Оригинальная дорожка"],"seasons_count":1,"episodes_count":2,"episodes":2,"update":"2019-10-14 08:10:56","iframe_src":"//83.svetacdn.in/PfJ50H0ZBPg3/tv-series/5458"},{"id":5455,"title":"Сказание о Сельме","kp_id":"1043432","imdb_id":"tt6210414","world_art_id":null,"type":"serial","add":"2019-10-12 22:36:56","orig_title":"Selmas saga","year":"2016-12-01","translations":["Профессиональный (многоголосый закадровый)"],"seasons_count":1,"episodes_count":24,"episodes":24,"update":"2019-10-14 10:14:12","iframe_src":"//83.svetacdn.in/PfJ50H0ZBPg3/tv-series/5455"},{"id":5454,"title":"Волшебники двора","kp_id":"1270775","imdb_id":null,"world_art_id":null,"type":"serial","add":"2019-10-12 22:16:56","orig_title":"Волшебники двора","year":"2016-01-01","translations":["Оригинальная дорожка"],"seasons_count":2,"episodes_count":16,"episodes":6,"update":"2019-10-13 08:09:54","iframe_src":"//83.svetacdn.in/PfJ50H0ZBPg3/tv-series/5454"},{"id":5452,"title":"Госпожа лекарь","kp_id":"1046870","imdb_id":"tt5686372","world_art_id":null,"type":"serial","add":"2019-10-12 13:42:04","orig_title":"The Imperial Doctress","year":"2016-02-13","translations":["Любительский (двухголосый закадровый) (East Dream)"],"seasons_count":1,"episodes_count":50,"episodes":50,"update":"2019-10-13 21:52:27","iframe_src":"//83.svetacdn.in/PfJ50H0ZBPg3/tv-series/5452"},{"id":5451,"title":"Маменькин сынок","kp_id":"1272301","imdb_id":null,"world_art_id":null,"type":"serial","add":"2019-10-12 13:34:19","orig_title":"Маменькин сынок","year":"2019-01-01","translations":["Оригинальная дорожка"],"seasons_count":1,"episodes_count":4,"episodes":4,"update":"2019-10-14 16:54:47","iframe_src":"//83.svetacdn.in/PfJ50H0ZBPg3/tv-series/5451"},{"id":5449,"title":"Сограждане","kp_id":"1209858","imdb_id":null,"world_art_id":null,"type":"serial","add":"2019-10-12 11:47:12","orig_title":"Gukmin yeoreobun","year":"2019-04-01","translations":["Любительский (двухголосый закадровый) (GREEN TEA)"],"seasons_count":1,"episodes_count":18,"episodes":18,"update":"2019-10-14 11:35:53","iframe_src":"//83.svetacdn.in/PfJ50H0ZBPg3/tv-series/5449"},{"id":5448,"title":"Кузей Гюней","kp_id":"622126","imdb_id":"tt2050064","world_art_id":null,"type":"serial","add":"2019-10-12 08:06:21","orig_title":"Kuzey Güney","year":"2011-09-07","translations":["Профессиональный (многоголосый закадровый)","Любительский (одноголосый закадровый)"],"seasons_count":2,"episodes_count":80,"episodes":40,"update":"2019-10-14 10:54:23","iframe_src":"//83.svetacdn.in/PfJ50H0ZBPg3/tv-series/5448"},{"id":5446,"title":"Дарья","kp_id":"281885","imdb_id":"tt0118298","world_art_id":null,"type":"serial","add":"2019-10-11 20:35:49","orig_title":"Daria","year":"1997-03-03","translations":["Профессиональный (многоголосый закадровый) (MTV)"],"seasons_count":5,"episodes_count":65,"episodes":13,"update":"2019-10-14 20:17:27","iframe_src":"//83.svetacdn.in/PfJ50H0ZBPg3/tv-series/5446"},{"id":5443,"title":"Планеты","kp_id":"1272394","imdb_id":"tt10394800","world_art_id":null,"type":"serial","add":"2019-10-11 14:19:31","orig_title":"The Planets","year":"2019-05-28","translations":["Профессиональный (двухголосый закадровый)"],"seasons_count":1,"episodes_count":5,"episodes":10,"update":"2019-10-15 14:55:37","iframe_src":"//83.svetacdn.in/PfJ50H0ZBPg3/tv-series/5443"},{"id":5442,"title":"Московские тайны. Проклятие Мастера","kp_id":"1283332","imdb_id":null,"world_art_id":null,"type":"serial","add":"2019-10-11 14:05:53","orig_title":"Московские тайны. Проклятие Мастера","year":"2019-10-11","translations":["Оригинальная дорожка"],"seasons_count":1,"episodes_count":2,"episodes":2,"update":"2019-10-12 09:04:01","iframe_src":"//83.svetacdn.in/PfJ50H0ZBPg3/tv-series/5442"},{"id":5431,"title":"Притворщик","kp_id":"271787","imdb_id":"tt0115320","world_art_id":null,"type":"serial","add":"2019-10-10 12:33:13","orig_title":"The Pretender","year":"1996-09-19","translations":["Профессиональный (многоголосый закадровый) (Sony Sci-Fi)","Профессиональный (многоголосый закадровый) (ТВ3)","Профессиональный (двухголосый закадровый) (Sony Sci-Fi)"],"seasons_count":4,"episodes_count":83,"episodes":20,"update":"2019-10-11 20:32:21","iframe_src":"//83.svetacdn.in/PfJ50H0ZBPg3/tv-series/5431"},{"id":5392,"title":"Дикий","kp_id":"431095","imdb_id":"tt1415357","world_art_id":null,"type":"serial","add":"2019-10-04 09:44:01","orig_title":"Dikiy","year":"2009-12-16","translations":["Оригинальная дорожка"],"seasons_count":1,"episodes_count":16,"episodes":16,"update":"2019-10-11 21:08:04","iframe_src":"//83.svetacdn.in/PfJ50H0ZBPg3/tv-series/5392"},{"id":5390,"title":"Белые волки","kp_id":"732531","imdb_id":"tt3069028","world_art_id":null,"type":"serial","add":"2019-10-04 09:34:22","orig_title":"Belye volki","year":"2013-02-03","translations":["Оригинальная дорожка"],"seasons_count":1,"episodes_count":14,"episodes":14,"update":"2019-10-11 21:25:07","iframe_src":"//83.svetacdn.in/PfJ50H0ZBPg3/tv-series/5390"},{"id":5389,"title":"Белые волки 2","kp_id":"843916","imdb_id":null,"world_art_id":null,"type":"serial","add":"2019-10-04 09:25:45","orig_title":"Белые волки 2","year":"2014-11-15","translations":["Оригинальная дорожка"],"seasons_count":1,"episodes_count":12,"episodes":12,"update":"2019-10-11 21:34:57","iframe_src":"//83.svetacdn.in/PfJ50H0ZBPg3/tv-series/5389"},{"id":31012,"title":"Фантазм возвращается","kp_id":"47953","imdb_id":"tt0076015","world_art_id":null,"type":"movie","add":"2019-09-19 20:57:33","orig_title":"Fantasm Comes Again","year":"1977-12-26","translations":["Профессиональный (двухголосый закадровый)","[EN] Original (English)","Профессиональный (двухголосый закадровый) (Кипарис)"],"quality":"dvdrip","translation":"Профессиональный (двухголосый закадровый)","update":"2021-10-14 10:14:44","iframe_src":"//83.svetacdn.in/PfJ50H0ZBPg3/movie/31012"},{"id":4893,"title":"Красивая неудачница","kp_id":"528256","imdb_id":"tt1653312","world_art_id":null,"type":"serial","add":"2019-07-19 19:40:22","orig_title":"Bella Calamidades","year":"2010-03-24","translations":["Профессиональный (многоголосый закадровый)"],"seasons_count":1,"episodes_count":140,"episodes":140,"update":"2019-10-12 11:39:21","iframe_src":"//83.svetacdn.in/PfJ50H0ZBPg3/tv-series/4893"},{"id":4435,"title":"Дети сестер","kp_id":"1227459","imdb_id":"tt9529618","world_art_id":null,"type":"serial","add":"2019-05-02 08:19:29","orig_title":"Kardes Çocuklari","year":"2019-01-27","translations":["Любительский (одноголосый закадровый)"],"seasons_count":2,"episodes_count":20,"episodes":3,"update":"2019-10-12 07:36:27","iframe_src":"//83.svetacdn.in/PfJ50H0ZBPg3/tv-series/4435"},{"id":4096,"title":"Мистериум. Тьма в бутылке","kp_id":"843300","imdb_id":"tt4088268","world_art_id":null,"type":"movie","add":"2016-07-22 05:12:21","orig_title":"Flaskepost fra P","year":"2016-03-03","translations":["Любительский (многоголосый закадровый) (Студия Пиратского Дубляжа)","Профессиональный (многоголосый закадровый) (GreenРай Studio)","Полное дублирование (iTunes)"],"quality":"webdl","translation":"Любительский (многоголосый закадровый) (Студия Пиратского Дубляжа)","update":"2021-10-14 10:28:50","iframe_src":"//83.svetacdn.in/PfJ50H0ZBPg3/movie/4096"},{"id":3665,"title":"Мизери","kp_id":"1574","imdb_id":"tt0100157","world_art_id":null,"type":"movie","add":"2016-07-05 05:37:18","orig_title":"Misery","year":"1990-11-30","translations":["Профессиональный (многоголосый закадровый)","Авторский (одноголосый закадровый) (Михалёв Алексей)","Полное дублирование (Мосфильм)","[EN] Original (English)","Профессиональный (многоголосый закадровый)","Профессиональный (многоголосый закадровый) (Киномания)"],"quality":"bd","translation":"Профессиональный (многоголосый закадровый)","update":"2021-10-14 07:41:36","iframe_src":"//83.svetacdn.in/PfJ50H0ZBPg3/movie/3665"},{"id":3568,"title":"Смертельный оргазм","kp_id":"857131","imdb_id":"tt3705412","world_art_id":null,"type":"movie","add":"2016-07-01 04:38:32","orig_title":"Deathgasm","year":"2015-03-14","translations":["Профессиональный (многоголосый закадровый) (Paradox & Omskbird records)","[EN] Original (English)","Любительский (одноголосый закадровый) (datynet | Агапов Антон)","Любительский (одноголосый закадровый) (Васька Куролесов)","Профессиональный (многоголосый закадровый) (Paradox & Omskbird records)"],"quality":"bd","translation":"Профессиональный (многоголосый закадровый) (Paradox & Omskbird records)","update":"2021-10-14 07:34:30","iframe_src":"//83.svetacdn.in/PfJ50H0ZBPg3/movie/3568"}],"current_page":439,"first_page_url":"https://videocdn.tv/api/short?limit=100&api_token=RgFQdUIR2dRmwv8iYa5SnFNgnw3vpjKj&cache3439=3439&page=1","from":43801,"last_page":723,"last_page_url":"https://videocdn.tv/api/short?limit=100&api_token=RgFQdUIR2dRmwv8iYa5SnFNgnw3vpjKj&cache3439=3439&page=723","next_page_url":"https://videocdn.tv/api/short?limit=100&api_token=RgFQdUIR2dRmwv8iYa5SnFNgnw3vpjKj&cache3439=3439&page=440","path":"https://videocdn.tv/api/short","per_page":100,"prev_page_url":"https://videocdn.tv/api/short?limit=100&api_token=RgFQdUIR2dRmwv8iYa5SnFNgnw3vpjKj&cache3439=3439&page=438","to":43840,"total":72256}