{"result":true,"data":[{"id":52352,"title":"Возвращение","kp_id":"1143167","imdb_id":"tt8429394","world_art_id":null,"type":"movie","add":"2021-08-10 19:18:29","orig_title":"The Return","year":"2020-09-05","translations":["Любительский (многоголосый закадровый) (@MUZOBOZ@)"],"quality":"webdl","translation":"Любительский (многоголосый закадровый) (@MUZOBOZ@)","update":"2021-08-11 07:41:34","iframe_src":"//24213.svetacdn.in/si4jsFRrtgrT/movie/52352"},{"id":52349,"title":"Как стать кем-то","kp_id":"1304210","imdb_id":"tt10986214","world_art_id":null,"type":"movie","add":"2021-08-10 18:39:27","orig_title":"To Be Someone","year":"2020-04-01","translations":["Любительский (многоголосый закадровый) (Синема УС)"],"quality":"webdl","translation":"Любительский (многоголосый закадровый) (Синема УС)","update":"2021-08-11 07:42:11","iframe_src":"//24213.svetacdn.in/si4jsFRrtgrT/movie/52349"},{"id":52345,"title":"Пан или пропал","kp_id":"1288817","imdb_id":"tt10661640","world_art_id":null,"type":"movie","add":"2021-08-10 13:37:22","orig_title":"This or That","year":"2020-09-04","translations":["Любительский (многоголосый закадровый) (Синема УС)"],"quality":"webdl","translation":"Любительский (многоголосый закадровый) (Синема УС)","update":"2021-08-10 21:18:47","iframe_src":"//24213.svetacdn.in/si4jsFRrtgrT/movie/52345"},{"id":52344,"title":"В петле времени","kp_id":"1122390","imdb_id":"tt8241138","world_art_id":null,"type":"movie","add":"2021-08-10 13:34:17","orig_title":"Loop","year":"2020-03-07","translations":["Полное дублирование (iTunes)"],"quality":"webdl","translation":"Полное дублирование (iTunes)","update":"2021-08-10 17:32:26","iframe_src":"//24213.svetacdn.in/si4jsFRrtgrT/movie/52344"},{"id":52343,"title":"Бродячие псы","kp_id":"1344262","imdb_id":"tt11669056","world_art_id":null,"type":"movie","add":"2021-08-10 13:27:51","orig_title":"Stray Dogs","year":"2020-11-14","translations":["Любительский (многоголосый закадровый) (Синема УС)"],"quality":"webdl","translation":"Любительский (многоголосый закадровый) (Синема УС)","update":"2021-08-10 21:17:21","iframe_src":"//24213.svetacdn.in/si4jsFRrtgrT/movie/52343"},{"id":52341,"title":"Бегущее время","kp_id":"2904","imdb_id":"tt0120042","world_art_id":null,"type":"movie","add":"2021-08-10 12:08:51","orig_title":"Running Time","year":"1997-11-02","translations":["Любительский (одноголосый закадровый)","[EN] Original (English)"],"quality":"webdl","translation":"Любительский (одноголосый закадровый)","update":"2021-08-11 06:18:28","iframe_src":"//24213.svetacdn.in/si4jsFRrtgrT/movie/52341"},{"id":52337,"title":"Тропа Аллилуйя","kp_id":"14559","imdb_id":"tt0059250","world_art_id":null,"type":"movie","add":"2021-08-10 05:55:21","orig_title":"The Hallelujah Trail","year":"1965-06-23","translations":["[EN] Original (English)","Профессиональный (многоголосый закадровый)"],"quality":"webdl","translation":"[EN] Original (English)","update":"2021-08-11 06:21:42","iframe_src":"//24213.svetacdn.in/si4jsFRrtgrT/movie/52337"},{"id":52336,"title":"Леди поет блюз","kp_id":"9195","imdb_id":"tt0068828","world_art_id":null,"type":"movie","add":"2021-08-10 05:21:39","orig_title":"Lady Sings the Blues","year":"1972-10-12","translations":["Любительский (одноголосый закадровый) (maksciganov)","[EN] Original (English)"],"quality":"bd","translation":"Любительский (одноголосый закадровый) (maksciganov)","update":"2021-08-11 06:28:07","iframe_src":"//24213.svetacdn.in/si4jsFRrtgrT/movie/52336"},{"id":52335,"title":"Карта человеческого сердца","kp_id":"16879","imdb_id":"tt0104812","world_art_id":null,"type":"movie","add":"2021-08-10 05:16:16","orig_title":"Map of the Human Heart","year":"1992-05-07","translations":["[EN] Original (English)","Профессиональный (двухголосый закадровый) (Союз Видео)"],"quality":"bd","translation":"[EN] Original (English)","update":"2021-08-11 06:24:39","iframe_src":"//24213.svetacdn.in/si4jsFRrtgrT/movie/52335"},{"id":52334,"title":"Натюрморт","kp_id":"1349974","imdb_id":"tt11724700","world_art_id":null,"type":"movie","add":"2021-08-09 21:10:16","orig_title":"Natureza Morta","year":"2020-01-31","translations":["Любительский (многоголосый закадровый) (Синема УС)"],"quality":"webdl","translation":"Любительский (многоголосый закадровый) (Синема УС)","update":"2021-08-10 17:08:20","iframe_src":"//24213.svetacdn.in/si4jsFRrtgrT/movie/52334"},{"id":52333,"title":"Злые умыслы","kp_id":"4294312","imdb_id":"tt13567252","world_art_id":null,"type":"movie","add":"2021-08-09 21:08:42","orig_title":"Malicious Motives","year":"2021-07-30","translations":["Любительский (многоголосый закадровый) (AlphaProject)"],"quality":"webdl","translation":"Любительский (многоголосый закадровый) (AlphaProject)","update":"2021-08-10 17:07:38","iframe_src":"//24213.svetacdn.in/si4jsFRrtgrT/movie/52333"},{"id":52228,"title":"Клин клином","kp_id":"23251","imdb_id":"tt0091053","world_art_id":null,"type":"movie","add":"2021-08-05 04:52:49","orig_title":"Fire with Fire","year":"1986-05-09","translations":["Авторский (одноголосый закадровый) (Алексеев Антон)","[EN] Original (English)","Профессиональный (многоголосый закадровый) (Paramount Channel)"],"quality":"bd","translation":"Авторский (одноголосый закадровый) (Алексеев Антон)","update":"2021-08-11 09:52:22","iframe_src":"//24213.svetacdn.in/si4jsFRrtgrT/movie/52228"},{"id":51554,"title":"Комитет Бога","kp_id":"1254321","imdb_id":"tt6852526","world_art_id":null,"type":"movie","add":"2021-07-03 20:01:56","orig_title":"The God Committee","year":"2021-06-20","translations":["Любительский (многоголосый закадровый) (@MUZOBOZ@)","Любительский (многоголосый закадровый) (@MUZOBOZ@)","[EN] Original (English)"],"quality":"webdl","translation":"Любительский (многоголосый закадровый) (@MUZOBOZ@)","update":"2021-08-11 06:14:29","iframe_src":"//24213.svetacdn.in/si4jsFRrtgrT/movie/51554"},{"id":34547,"title":"Ночь у Мод","kp_id":"23889","imdb_id":"tt0064612","world_art_id":null,"type":"movie","add":"2019-12-28 09:27:41","orig_title":"Ma nuit chez Maud","year":"1969-05-15","translations":["Профессиональный (многоголосый закадровый)","Авторский (одноголосый закадровый) (Козлов Сергей)","Профессиональный (двухголосый закадровый) (Видеоимпульс)","Профессиональный (многоголосый закадровый) (СВ-Дубль)"],"quality":"dvdrip","translation":"Профессиональный (многоголосый закадровый)","update":"2021-08-11 09:40:55","iframe_src":"//24213.svetacdn.in/si4jsFRrtgrT/movie/34547"},{"id":29593,"title":"Зардоз","kp_id":"17478","imdb_id":"tt0070948","world_art_id":null,"type":"movie","add":"2019-08-01 12:00:09","orig_title":"Zardoz","year":"1974-02-06","translations":["Профессиональный (многоголосый закадровый)","[EN] Original (English)","Профессиональный (двухголосый закадровый) (Lazer Video | Лазер видео)","Профессиональный (многоголосый закадровый)"],"quality":"bd","translation":"Профессиональный (многоголосый закадровый)","update":"2021-08-11 09:30:02","iframe_src":"//24213.svetacdn.in/si4jsFRrtgrT/movie/29593"},{"id":1827,"title":"Мне с вами по пути","kp_id":"1103820","imdb_id":null,"world_art_id":null,"type":"serial","add":"2017-12-10 11:41:53","orig_title":"Мне с вами по пути","year":"2017-12-09","translations":["Оригинальная дорожка"],"seasons_count":1,"episodes_count":2,"episodes":2,"update":"2017-12-11 09:05:49","iframe_src":"//24213.svetacdn.in/si4jsFRrtgrT/tv-series/1827"},{"id":1817,"title":"Мозгоправ","kp_id":"1041732","imdb_id":"tt6059726","world_art_id":null,"type":"serial","add":"2017-12-06 14:08:48","orig_title":"Shrink","year":"2017-03-16","translations":["Профессиональный (многоголосый закадровый) (Ozz.tv)"],"seasons_count":1,"episodes_count":8,"episodes":8,"update":"2017-12-11 09:00:13","iframe_src":"//24213.svetacdn.in/si4jsFRrtgrT/tv-series/1817"},{"id":1815,"title":"Настоящие","kp_id":"580219","imdb_id":"tt2819288","world_art_id":null,"type":"serial","add":"2017-12-06 09:53:12","orig_title":"Nastoyashchie","year":"2011-10-03","translations":["Оригинальная дорожка"],"seasons_count":1,"episodes_count":8,"episodes":8,"update":"2017-12-06 16:45:32","iframe_src":"//24213.svetacdn.in/si4jsFRrtgrT/tv-series/1815"},{"id":1814,"title":"Понаехали тут","kp_id":"592364","imdb_id":"tt4291220","world_art_id":null,"type":"serial","add":"2017-12-06 09:45:42","orig_title":"Ponaekhali tut","year":"2011-10-15","translations":["Оригинальная дорожка"],"seasons_count":1,"episodes_count":4,"episodes":4,"update":"2017-12-06 11:10:51","iframe_src":"//24213.svetacdn.in/si4jsFRrtgrT/tv-series/1814"},{"id":1811,"title":"Выйти замуж за генерала","kp_id":"619951","imdb_id":null,"world_art_id":null,"type":"serial","add":"2017-12-06 05:50:57","orig_title":"Выйти замуж за генерала","year":"2011-09-17","translations":["Оригинальная дорожка"],"seasons_count":1,"episodes_count":4,"episodes":4,"update":"2017-12-07 11:55:06","iframe_src":"//24213.svetacdn.in/si4jsFRrtgrT/tv-series/1811"},{"id":1809,"title":"Защита Красина","kp_id":"428974","imdb_id":"tt4127630","world_art_id":null,"type":"serial","add":"2017-12-06 04:45:23","orig_title":"Zashchita Krasina","year":"2009-04-21","translations":["Оригинальная дорожка"],"seasons_count":1,"episodes_count":12,"episodes":12,"update":"2017-12-08 10:23:30","iframe_src":"//24213.svetacdn.in/si4jsFRrtgrT/tv-series/1809"},{"id":1808,"title":"Защита Красина 2","kp_id":"428972","imdb_id":"tt4420592","world_art_id":null,"type":"serial","add":"2017-12-06 04:40:44","orig_title":"Zashchita Krasina 2","year":"2009-03-10","translations":["Оригинальная дорожка"],"seasons_count":1,"episodes_count":12,"episodes":12,"update":"2017-12-08 12:10:10","iframe_src":"//24213.svetacdn.in/si4jsFRrtgrT/tv-series/1808"},{"id":1803,"title":"Счастливчик Пашка","kp_id":"565145","imdb_id":null,"world_art_id":null,"type":"serial","add":"2017-12-05 07:51:48","orig_title":"Счастливчик Пашка","year":"2011-10-23","translations":["Оригинальная дорожка"],"seasons_count":1,"episodes_count":12,"episodes":12,"update":"2017-12-05 13:15:15","iframe_src":"//24213.svetacdn.in/si4jsFRrtgrT/tv-series/1803"},{"id":1802,"title":"Погоня за тенью","kp_id":"565731","imdb_id":null,"world_art_id":null,"type":"serial","add":"2017-12-04 14:03:55","orig_title":"Погоня за тенью","year":"2011-02-14","translations":["Оригинальная дорожка"],"seasons_count":1,"episodes_count":24,"episodes":24,"update":"2017-12-07 13:58:38","iframe_src":"//24213.svetacdn.in/si4jsFRrtgrT/tv-series/1802"},{"id":1800,"title":"Трюфельный пёс королевы Джованны","kp_id":"1045224","imdb_id":null,"world_art_id":null,"type":"serial","add":"2017-12-04 10:31:28","orig_title":"Трюфельный пёс королевы Джованны","year":"2017-12-02","translations":["Оригинальная дорожка"],"seasons_count":1,"episodes_count":4,"episodes":4,"update":"2017-12-04 14:17:57","iframe_src":"//24213.svetacdn.in/si4jsFRrtgrT/tv-series/1800"},{"id":1799,"title":"Лучик","kp_id":"958467","imdb_id":null,"world_art_id":null,"type":"serial","add":"2017-12-04 10:30:08","orig_title":"Лучик","year":"2017-12-02","translations":["Оригинальная дорожка"],"seasons_count":1,"episodes_count":4,"episodes":4,"update":"2017-12-04 14:20:17","iframe_src":"//24213.svetacdn.in/si4jsFRrtgrT/tv-series/1799"},{"id":1797,"title":"Кадетство","kp_id":"260185","imdb_id":"tt3774988","world_art_id":null,"type":"serial","add":"2017-12-03 16:38:32","orig_title":"Kadetstvo","year":"2006-09-04","translations":["Оригинальная дорожка"],"seasons_count":3,"episodes_count":160,"episodes":70,"update":"2017-12-04 09:14:36","iframe_src":"//24213.svetacdn.in/si4jsFRrtgrT/tv-series/1797"},{"id":1796,"title":"Убежище","kp_id":"906883","imdb_id":"tt4567314","world_art_id":null,"type":"serial","add":"2017-12-03 08:57:06","orig_title":"Safe House","year":"2015-04-20","translations":["Любительский (одноголосый закадровый) (Levelin)","Любительский (двухголосый закадровый) (Sunshine Studio)"],"seasons_count":2,"episodes_count":8,"episodes":4,"update":"2017-12-05 12:47:34","iframe_src":"//24213.svetacdn.in/si4jsFRrtgrT/tv-series/1796"},{"id":1795,"title":"Спираль","kp_id":"744246","imdb_id":"tt2758950","world_art_id":null,"type":"serial","add":"2017-12-03 08:41:08","orig_title":"Helix","year":"2014-01-10","translations":["Профессиональный (многоголосый закадровый) (LostFilm)"],"seasons_count":2,"episodes_count":26,"episodes":13,"update":"2017-12-05 10:31:03","iframe_src":"//24213.svetacdn.in/si4jsFRrtgrT/tv-series/1795"},{"id":1793,"title":"25-й час","kp_id":"842798","imdb_id":"tt4786998","world_art_id":null,"type":"serial","add":"2017-12-03 08:17:46","orig_title":"25-y chas","year":"2016-10-17","translations":["Оригинальная дорожка"],"seasons_count":1,"episodes_count":12,"episodes":12,"update":"2017-12-06 13:55:22","iframe_src":"//24213.svetacdn.in/si4jsFRrtgrT/tv-series/1793"},{"id":1792,"title":"Второе зрение","kp_id":"904910","imdb_id":null,"world_art_id":null,"type":"serial","add":"2017-12-01 06:57:48","orig_title":"Второе зрение","year":"2017-11-29","translations":["Оригинальная дорожка"],"seasons_count":1,"episodes_count":12,"episodes":12,"update":"2017-12-08 09:40:49","iframe_src":"//24213.svetacdn.in/si4jsFRrtgrT/tv-series/1792"},{"id":1789,"title":"Наша Russia","kp_id":"412173","imdb_id":"tt1202543","world_art_id":null,"type":"serial","add":"2017-11-30 12:39:13","orig_title":"Nasha Russia","year":"2006-11-04","translations":["Оригинальная дорожка"],"seasons_count":5,"episodes_count":77,"episodes":20,"update":"2017-12-06 08:51:15","iframe_src":"//24213.svetacdn.in/si4jsFRrtgrT/tv-series/1789"},{"id":1776,"title":"Хождение по мукам","kp_id":"1006683","imdb_id":"tt7620312","world_art_id":null,"type":"serial","add":"2017-11-28 09:07:57","orig_title":"Khozhdenie po mukam","year":"2017-11-27","translations":["Оригинальная дорожка"],"seasons_count":1,"episodes_count":12,"episodes":12,"update":"2017-12-06 13:10:26","iframe_src":"//24213.svetacdn.in/si4jsFRrtgrT/tv-series/1776"},{"id":1745,"title":"Золотая клетка","kp_id":"1046172","imdb_id":null,"world_art_id":null,"type":"serial","add":"2017-11-17 10:20:17","orig_title":"Ek thi rajkumari","year":"2008-01-01","translations":["Профессиональный (многоголосый закадровый)"],"seasons_count":1,"episodes_count":95,"episodes":95,"update":"2017-12-06 08:12:11","iframe_src":"//24213.svetacdn.in/si4jsFRrtgrT/tv-series/1745"},{"id":1708,"title":"Махабхарата","kp_id":"807847","imdb_id":"tt3212600","world_art_id":null,"type":"serial","add":"2017-11-05 13:10:13","orig_title":"Mahabharat","year":"2013-09-16","translations":["Профессиональный (одноголосый закадровый)"],"seasons_count":1,"episodes_count":267,"episodes":267,"update":"2017-12-06 10:24:53","iframe_src":"//24213.svetacdn.in/si4jsFRrtgrT/tv-series/1708"},{"id":11383,"title":"Испытание Акилы","kp_id":"88151","imdb_id":"tt0437800","world_art_id":null,"type":"movie","add":"2017-05-04 22:37:27","orig_title":"Akeelah and the Bee","year":"2006-03-16","translations":["Профессиональный (многоголосый закадровый)","[EN] Original (English)","Профессиональный (многоголосый закадровый)","Профессиональный (многоголосый закадровый) (Инис)"],"quality":"webdl","translation":"Профессиональный (многоголосый закадровый)","update":"2021-08-11 09:34:07","iframe_src":"//24213.svetacdn.in/si4jsFRrtgrT/movie/11383"},{"id":7309,"title":"Афера Томаса Крауна","kp_id":"12836","imdb_id":"tt0063688","world_art_id":null,"type":"movie","add":"2016-11-10 13:40:44","orig_title":"The Thomas Crown Affair","year":"1968-06-19","translations":["Профессиональный (многоголосый закадровый)","Авторский (одноголосый закадровый) (Гаврилов Андрей)","[EN] Original (English)","Профессиональный (многоголосый закадровый) (DVD Магия)","Профессиональный (многоголосый закадровый) (НТВ)"],"quality":"bd","translation":"Профессиональный (многоголосый закадровый)","update":"2021-08-11 09:25:28","iframe_src":"//24213.svetacdn.in/si4jsFRrtgrT/movie/7309"},{"id":6681,"title":"Чаттахучи","kp_id":"2789","imdb_id":"tt0099242","world_art_id":null,"type":"movie","add":"2016-10-26 04:44:49","orig_title":"Chattahoochee","year":"1989-09-16","translations":["Профессиональный (многоголосый закадровый)","[EN] Original (English)","Профессиональный (двухголосый закадровый) (НТВ)","Профессиональный (многоголосый закадровый) (Настроение Видео)"],"quality":"hdtv","translation":"Профессиональный (многоголосый закадровый)","update":"2021-08-11 07:11:57","iframe_src":"//24213.svetacdn.in/si4jsFRrtgrT/movie/6681"},{"id":3342,"title":"Убить пересмешника","kp_id":"357","imdb_id":"tt0056592","world_art_id":null,"type":"movie","add":"2016-06-23 14:14:55","orig_title":"To Kill a Mockingbird","year":"1962-12-25","translations":["Полное дублирование","Полное дублирование","[EN] Original (English)","Профессиональный (многоголосый закадровый)"],"quality":"bd","translation":"Полное дублирование","update":"2021-08-11 09:55:56","iframe_src":"//24213.svetacdn.in/si4jsFRrtgrT/movie/3342"},{"id":1904,"title":"Осада","kp_id":"7394","imdb_id":"tt0133952","world_art_id":null,"type":"movie","add":"2016-05-05 12:38:27","orig_title":"The Siege","year":"1998-11-06","translations":["Полное дублирование","Авторский (одноголосый закадровый) (Живов Юрий)","Полное дублирование","[EN] Original (English)","Любительский (одноголосый закадровый) (Антонов Николай)","Профессиональный (двухголосый закадровый) (Гланц + Королёва)","Профессиональный (многоголосый закадровый) (Первый канал | ОРТ)"],"quality":"bd","translation":"Полное дублирование","update":"2021-08-11 07:03:22","iframe_src":"//24213.svetacdn.in/si4jsFRrtgrT/movie/1904"}],"current_page":576,"first_page_url":"https://videocdn.tv/api/short?limit=100&api_token=X6EwAUfE5M9xbo7y0Bp0aPf3uXxG2KLL&cache3576=3576&page=1","from":57501,"last_page":729,"last_page_url":"https://videocdn.tv/api/short?limit=100&api_token=X6EwAUfE5M9xbo7y0Bp0aPf3uXxG2KLL&cache3576=3576&page=729","next_page_url":"https://videocdn.tv/api/short?limit=100&api_token=X6EwAUfE5M9xbo7y0Bp0aPf3uXxG2KLL&cache3576=3576&page=577","path":"https://videocdn.tv/api/short","per_page":100,"prev_page_url":"https://videocdn.tv/api/short?limit=100&api_token=X6EwAUfE5M9xbo7y0Bp0aPf3uXxG2KLL&cache3576=3576&page=575","to":57540,"total":72802}