{"result":true,"data":[{"id":31339,"title":"Мой спутник 2","kp_id":"1181638","imdb_id":"tt8748256","world_art_id":null,"type":"movie","add":"2019-09-30 19:18:25","orig_title":"Yol Arkadasim 2","year":"2018-10-12","translations":["Профессиональный (многоголосый закадровый) (AlphaProject)"],"quality":"webdl","translation":"Профессиональный (многоголосый закадровый) (AlphaProject)","update":"2019-10-01 05:38:43","iframe_src":"//8965.svetacdn.in/si4jsFRrtgrT/movie/31339"},{"id":31338,"title":"Видимое и невидимое","kp_id":"1048139","imdb_id":"tt7215548","world_art_id":null,"type":"movie","add":"2019-09-30 19:16:49","orig_title":"Sekala Niskala","year":"2017-09-11","translations":["Любительский (многоголосый закадровый) (Синема УС)"],"quality":"webdl","translation":"Любительский (многоголосый закадровый) (Синема УС)","update":"2019-10-01 05:48:13","iframe_src":"//8965.svetacdn.in/si4jsFRrtgrT/movie/31338"},{"id":31337,"title":"Правила для всего","kp_id":"1023175","imdb_id":"tt6275296","world_art_id":null,"type":"movie","add":"2019-09-30 19:15:19","orig_title":"The Rules for Everything","year":"2017-01-27","translations":["Любительский (многоголосый закадровый) (Синема УС)"],"quality":"bd","translation":"Любительский (многоголосый закадровый) (Синема УС)","update":"2019-10-01 05:44:28","iframe_src":"//8965.svetacdn.in/si4jsFRrtgrT/movie/31337"},{"id":31336,"title":"Основной убийца","kp_id":"1141238","imdb_id":"tt7888054","world_art_id":null,"type":"movie","add":"2019-09-30 19:12:48","orig_title":"Primary Hitman","year":"2018-09-28","translations":["Любительский (многоголосый закадровый) (Синема УС)"],"quality":"webdl","translation":"Любительский (многоголосый закадровый) (Синема УС)","update":"2019-10-01 05:46:21","iframe_src":"//8965.svetacdn.in/si4jsFRrtgrT/movie/31336"},{"id":31335,"title":"Мой рейнджер","kp_id":"1053795","imdb_id":"tt7079474","world_art_id":null,"type":"movie","add":"2019-09-30 19:11:19","orig_title":"My Ranger","year":"2017-09-22","translations":["Любительский (многоголосый закадровый) (Синема УС)"],"quality":"webdl","translation":"Любительский (многоголосый закадровый) (Синема УС)","update":"2019-10-01 05:45:16","iframe_src":"//8965.svetacdn.in/si4jsFRrtgrT/movie/31335"},{"id":31334,"title":"Задиры","kp_id":"1103832","imdb_id":null,"world_art_id":null,"type":"movie","add":"2019-09-30 19:09:16","orig_title":"Iljin","year":"2018-03-08","translations":["Любительский (многоголосый закадровый) (Колобок)"],"quality":"webdl","translation":"Любительский (многоголосый закадровый) (Колобок)","update":"2019-10-01 06:30:45","iframe_src":"//8965.svetacdn.in/si4jsFRrtgrT/movie/31334"},{"id":31333,"title":"Фабрика ничего","kp_id":"920283","imdb_id":"tt4540384","world_art_id":null,"type":"movie","add":"2019-09-30 19:07:43","orig_title":"A Fábrica de Nada","year":"2017-05-25","translations":["Любительский (многоголосый закадровый) (Синема УС)"],"quality":"dvdrip","translation":"Любительский (многоголосый закадровый) (Синема УС)","update":"2019-10-01 06:31:22","iframe_src":"//8965.svetacdn.in/si4jsFRrtgrT/movie/31333"},{"id":31332,"title":"Лесной Барон, сезон первый","kp_id":"1237601","imdb_id":"tt9733098","world_art_id":null,"type":"movie","add":"2019-09-30 19:06:19","orig_title":"Lumber Baron Season One the Movie","year":"2018-07-09","translations":["Любительский (многоголосый закадровый) (Синема УС)"],"quality":"webdl","translation":"Любительский (многоголосый закадровый) (Синема УС)","update":"2019-10-01 05:41:10","iframe_src":"//8965.svetacdn.in/si4jsFRrtgrT/movie/31332"},{"id":31329,"title":"Любовь и долги","kp_id":null,"imdb_id":"tt3221910","world_art_id":null,"type":"movie","add":"2019-09-30 19:00:46","orig_title":"Love & Debt","year":"2019-09-21","translations":["Любительский (многоголосый закадровый) (Синема УС)"],"quality":"webdl","translation":"Любительский (многоголосый закадровый) (Синема УС)","update":"2019-10-01 05:37:34","iframe_src":"//8965.svetacdn.in/si4jsFRrtgrT/movie/31329"},{"id":31326,"title":"День отца","kp_id":"1221878","imdb_id":"tt9465588","world_art_id":null,"type":"movie","add":"2019-09-30 18:57:28","orig_title":"Father's Day","year":"2019-05-21","translations":["Любительский (многоголосый закадровый) (Синема УС)"],"quality":"webdl","translation":"Любительский (многоголосый закадровый) (Синема УС)","update":"2019-10-01 06:25:12","iframe_src":"//8965.svetacdn.in/si4jsFRrtgrT/movie/31326"},{"id":31294,"title":"В тени Луны","kp_id":"290800","imdb_id":"tt0925248","world_art_id":null,"type":"movie","add":"2019-09-29 17:06:32","orig_title":"In the Shadow of the Moon","year":"2007-01-19","translations":["Любительский (одноголосый закадровый)"],"quality":"bd","translation":"Любительский (одноголосый закадровый)","update":"2019-09-30 12:40:57","iframe_src":"//8965.svetacdn.in/si4jsFRrtgrT/movie/31294"},{"id":31293,"title":"Белоснежка","kp_id":"469894","imdb_id":"tt1479358","world_art_id":null,"type":"movie","add":"2019-09-29 17:04:06","orig_title":"Schneewittchen","year":"2009-11-19","translations":["Профессиональный (многоголосый закадровый) (Игмар)"],"quality":"hdtv","translation":"Профессиональный (многоголосый закадровый) (Игмар)","update":"2019-09-30 12:42:24","iframe_src":"//8965.svetacdn.in/si4jsFRrtgrT/movie/31293"},{"id":31266,"title":"Джорджино","kp_id":"36366","imdb_id":"tt0109900","world_art_id":null,"type":"movie","add":"2019-09-29 15:20:14","orig_title":"Giorgino","year":"1994-10-05","translations":["Профессиональный (многоголосый закадровый)"],"quality":"dvdrip","translation":"Профессиональный (многоголосый закадровый)","update":"2019-10-01 06:41:21","iframe_src":"//8965.svetacdn.in/si4jsFRrtgrT/movie/31266"},{"id":31264,"title":"Долина смерти","kp_id":"22234","imdb_id":"tt0083805","world_art_id":null,"type":"movie","add":"2019-09-29 15:16:45","orig_title":"Death Valley","year":"1982-01-22","translations":["Любительский (одноголосый закадровый) (Логинофф Максим)"],"quality":"bd","translation":"Любительский (одноголосый закадровый) (Логинофф Максим)","update":"2019-10-01 06:40:31","iframe_src":"//8965.svetacdn.in/si4jsFRrtgrT/movie/31264"},{"id":31256,"title":"Токио!","kp_id":"279707","imdb_id":"tt0976060","world_art_id":null,"type":"movie","add":"2019-09-29 15:01:23","orig_title":"Tokyo!","year":"2008-05-15","translations":["Профессиональный (двухголосый закадровый) (CP Digital)"],"quality":"bd","translation":"Профессиональный (двухголосый закадровый) (CP Digital)","update":"2019-10-01 06:33:26","iframe_src":"//8965.svetacdn.in/si4jsFRrtgrT/movie/31256"},{"id":28398,"title":"Безбашенная пуля","kp_id":"1170198","imdb_id":"tt8648640","world_art_id":null,"type":"movie","add":"2019-06-29 20:44:53","orig_title":"Hollow Point","year":"2019-06-13","translations":["Полное дублирование"],"quality":"webdl","translation":"Полное дублирование","update":"2019-10-01 05:50:06","iframe_src":"//8965.svetacdn.in/si4jsFRrtgrT/movie/28398"},{"id":28121,"title":"Зов волка","kp_id":"1085318","imdb_id":"tt7458762","world_art_id":null,"type":"movie","add":"2019-06-22 07:30:52","orig_title":"Le chant du loup","year":"2019-01-17","translations":["Профессиональный (многоголосый закадровый) (СВ-Студия)","Полное дублирование"],"quality":"bd","translation":"Профессиональный (многоголосый закадровый) (СВ-Студия)","update":"2019-10-01 05:54:36","iframe_src":"//8965.svetacdn.in/si4jsFRrtgrT/movie/28121"},{"id":22334,"title":"Невеста Пугала","kp_id":"1152894","imdb_id":"tt7906262","world_art_id":null,"type":"movie","add":"2019-02-16 23:44:37","orig_title":"Bride of Scarecrow","year":"2018-10-03","translations":["Профессиональный (многоголосый закадровый)"],"quality":"bd","translation":"Профессиональный (многоголосый закадровый)","update":"2019-10-01 05:43:14","iframe_src":"//8965.svetacdn.in/si4jsFRrtgrT/movie/22334"},{"id":18716,"title":"Плохая монахиня","kp_id":"1136152","imdb_id":"tt8063826","world_art_id":null,"type":"movie","add":"2018-09-02 00:11:46","orig_title":"The Watcher","year":"2018-10-13","translations":["Профессиональный (многоголосый закадровый)"],"quality":"bd","translation":"Профессиональный (многоголосый закадровый)","update":"2019-10-01 06:28:11","iframe_src":"//8965.svetacdn.in/si4jsFRrtgrT/movie/18716"},{"id":4695,"title":"К черту любовь!","kp_id":"7646","imdb_id":"tt0309530","world_art_id":null,"type":"movie","add":"2016-08-25 13:24:16","orig_title":"Down with Love","year":"2003-05-09","translations":["Полное дублирование"],"quality":"bd","translation":"Полное дублирование","update":"2019-10-01 06:42:55","iframe_src":"//8965.svetacdn.in/si4jsFRrtgrT/movie/4695"}],"current_page":1579,"first_page_url":"https://videocdn.tv/api/short?limit=100&api_token=X6EwAUfE5M9xbo7y0Bp0aPf3uXxG2KLL&cache31579=31579&page=1","from":157801,"last_page":709,"last_page_url":"https://videocdn.tv/api/short?limit=100&api_token=X6EwAUfE5M9xbo7y0Bp0aPf3uXxG2KLL&cache31579=31579&page=709","next_page_url":null,"path":"https://videocdn.tv/api/short","per_page":100,"prev_page_url":"https://videocdn.tv/api/short?limit=100&api_token=X6EwAUfE5M9xbo7y0Bp0aPf3uXxG2KLL&cache31579=31579&page=1578","to":157820,"total":70884}