{"result":true,"data":[{"id":42095,"title":"С чего мы начинаем","kp_id":"1127927","imdb_id":"tt7861076","world_art_id":null,"type":"movie","add":"2020-07-29 11:35:23","orig_title":"Where We Begin","year":"2020-05-05","translations":["Любительский (многоголосый закадровый) (Синема УС)"],"quality":"webdl","translation":"Любительский (многоголосый закадровый) (Синема УС)","update":"2020-07-29 16:22:33","iframe_src":"//2413.svetacdn.in/71tsRs29n5tZ/movie/42095"},{"id":42049,"title":"Кровавый дождь","kp_id":"122492","imdb_id":"tt0462684","world_art_id":null,"type":"movie","add":"2020-07-27 17:26:48","orig_title":"Hyeoleui nu","year":"2005-05-04","translations":["Профессиональный (многоголосый закадровый)"],"quality":"webdl","translation":"Профессиональный (многоголосый закадровый)","update":"2020-07-29 08:02:07","iframe_src":"//2413.svetacdn.in/71tsRs29n5tZ/movie/42049"},{"id":42047,"title":"Вторая кожа","kp_id":"16963","imdb_id":"tt0232611","world_art_id":null,"type":"movie","add":"2020-07-27 17:24:27","orig_title":"Segunda piel","year":"2000-01-14","translations":["Профессиональный (двухголосый закадровый)"],"quality":"webdl","translation":"Профессиональный (двухголосый закадровый)","update":"2020-07-29 07:51:51","iframe_src":"//2413.svetacdn.in/71tsRs29n5tZ/movie/42047"},{"id":42040,"title":"Медвежонок на дороге","kp_id":"258044","imdb_id":"tt2221747","world_art_id":null,"type":"movie","add":"2020-07-26 20:19:15","orig_title":"Medvezhonok na doroge","year":"1965-01-01","translations":["Оригинальная дорожка"],"quality":"dvdrip","translation":"Оригинальная дорожка","update":"2020-07-29 05:55:55","iframe_src":"//2413.svetacdn.in/71tsRs29n5tZ/movie/42040"},{"id":42039,"title":"Котёнок","kp_id":"842131","imdb_id":"tt6405708","world_art_id":null,"type":"movie","add":"2020-07-26 20:15:47","orig_title":"Kotyonok","year":"1979-01-01","translations":["Оригинальная дорожка"],"quality":"dvdrip","translation":"Оригинальная дорожка","update":"2020-07-29 05:54:57","iframe_src":"//2413.svetacdn.in/71tsRs29n5tZ/movie/42039"},{"id":42038,"title":"Кошкин дом","kp_id":"573749","imdb_id":"tt6791094","world_art_id":null,"type":"movie","add":"2020-07-26 19:59:26","orig_title":"Koshkin dom","year":"1982-01-01","translations":["Оригинальная дорожка"],"quality":"dvdrip","translation":"Оригинальная дорожка","update":"2020-07-29 05:50:49","iframe_src":"//2413.svetacdn.in/71tsRs29n5tZ/movie/42038"},{"id":42037,"title":"Как мыши кота хоронили","kp_id":"42118","imdb_id":"tt0170095","world_art_id":null,"type":"movie","add":"2020-07-26 19:48:56","orig_title":"Rogor damarkhes tagvebma kata","year":"1969-01-01","translations":["Оригинальная дорожка"],"quality":"vhs","translation":"Оригинальная дорожка","update":"2020-07-29 05:45:51","iframe_src":"//2413.svetacdn.in/71tsRs29n5tZ/movie/42037"},{"id":42036,"title":"Шайбу! Шайбу!","kp_id":"447521","imdb_id":"tt3335068","world_art_id":null,"type":"movie","add":"2020-07-26 19:46:25","orig_title":"Shaybu! Shaybu!!","year":"1964-01-01","translations":["Оригинальная дорожка"],"quality":"webdl","translation":"Оригинальная дорожка","update":"2020-07-29 05:44:17","iframe_src":"//2413.svetacdn.in/71tsRs29n5tZ/movie/42036"},{"id":41269,"title":"Вор дней","kp_id":"1313240","imdb_id":"tt11092546","world_art_id":null,"type":"movie","add":"2020-06-18 20:19:25","orig_title":"Il ladro di giorni","year":"2019-10-20","translations":["Любительский (многоголосый закадровый) (Синема УС)","Любительский (одноголосый закадровый)"],"quality":"webdl","translation":"Любительский (многоголосый закадровый) (Синема УС)","update":"2020-07-29 13:46:07","iframe_src":"//2413.svetacdn.in/71tsRs29n5tZ/movie/41269"},{"id":39426,"title":"Услышь меня","kp_id":"1209570","imdb_id":null,"world_art_id":null,"type":"movie","add":"2020-04-17 08:20:12","orig_title":"Услышь меня","year":"2020-03-12","translations":["Оригинальная дорожка","Оригинальная дорожка"],"quality":"webdl","translation":"Оригинальная дорожка","update":"2020-07-29 14:02:48","iframe_src":"//2413.svetacdn.in/71tsRs29n5tZ/movie/39426"},{"id":25802,"title":"День полнолуния","kp_id":"41119","imdb_id":"tt0148059","world_art_id":null,"type":"movie","add":"2019-05-01 13:30:46","orig_title":"Den polnoluniya","year":"1998-08-29","translations":["Оригинальная дорожка","Оригинальная дорожка"],"quality":"dvdrip","translation":"Оригинальная дорожка","update":"2020-07-29 13:52:07","iframe_src":"//2413.svetacdn.in/71tsRs29n5tZ/movie/25802"},{"id":24182,"title":"Умка","kp_id":"438262","imdb_id":"tt3336054","world_art_id":null,"type":"movie","add":"2019-04-09 08:42:05","orig_title":"Umka","year":"1969-01-01","translations":["Оригинальная дорожка","Оригинальная дорожка"],"quality":"dvdrip","translation":"Оригинальная дорожка","update":"2020-07-29 05:57:31","iframe_src":"//2413.svetacdn.in/71tsRs29n5tZ/movie/24182"},{"id":23652,"title":"Неподдающиеся","kp_id":"46403","imdb_id":"tt0147081","world_art_id":null,"type":"movie","add":"2019-03-29 19:07:17","orig_title":"Nepoddayushchiyesya","year":"1959-06-20","translations":["Оригинальная дорожка","Оригинальная дорожка"],"quality":"dvdrip","translation":"Оригинальная дорожка","update":"2020-07-29 13:59:45","iframe_src":"//2413.svetacdn.in/71tsRs29n5tZ/movie/23652"},{"id":23540,"title":"Одиноким предоставляется общежитие","kp_id":"42727","imdb_id":"tt0174997","world_art_id":null,"type":"movie","add":"2019-03-27 09:07:14","orig_title":"Odinokim predostavlyaetsya obshchezhitiye","year":"1984-01-02","translations":["Оригинальная дорожка","Оригинальная дорожка"],"quality":"hdtv","translation":"Оригинальная дорожка","update":"2020-07-29 14:00:59","iframe_src":"//2413.svetacdn.in/71tsRs29n5tZ/movie/23540"},{"id":23330,"title":"Чиполлино","kp_id":"260347","imdb_id":"tt2474800","world_art_id":null,"type":"movie","add":"2019-03-21 09:16:17","orig_title":"Chipollino","year":"1961-01-01","translations":["Оригинальная дорожка","Оригинальная дорожка"],"quality":"dvdrip","translation":"Оригинальная дорожка","update":"2020-07-29 05:52:10","iframe_src":"//2413.svetacdn.in/71tsRs29n5tZ/movie/23330"},{"id":19756,"title":"Где находится нофелет?","kp_id":"44476","imdb_id":"tt0093077","world_art_id":null,"type":"movie","add":"2018-10-24 10:44:52","orig_title":"Gde nakhoditsya Nofelet?","year":"1988-05-10","translations":["Оригинальная дорожка","Оригинальная дорожка"],"quality":"webdl","translation":"Оригинальная дорожка","update":"2020-07-29 13:54:13","iframe_src":"//2413.svetacdn.in/71tsRs29n5tZ/movie/19756"},{"id":16998,"title":"Поцелуи украдкой","kp_id":"973153","imdb_id":"tt5572566","world_art_id":null,"type":"movie","add":"2018-06-02 21:53:30","orig_title":"Baisers cachés","year":"2016-02-04","translations":["Любительский (многоголосый закадровый) (Синема УС)","Любительский (двухголосый закадровый) (LakeFilms)","Любительский (одноголосый закадровый) (Ашмарин Анатолий)"],"quality":"hdtv","translation":"Любительский (многоголосый закадровый) (Синема УС)","update":"2020-07-29 13:43:28","iframe_src":"//2413.svetacdn.in/71tsRs29n5tZ/movie/16998"},{"id":15276,"title":"Судьба человека","kp_id":"44027","imdb_id":"tt0053317","world_art_id":null,"type":"movie","add":"2018-02-24 00:11:08","orig_title":"Sudba cheloveka","year":"1959-04-12","translations":["Оригинальная дорожка","Оригинальная дорожка"],"quality":"webdl","translation":"Оригинальная дорожка","update":"2020-07-29 14:01:49","iframe_src":"//2413.svetacdn.in/71tsRs29n5tZ/movie/15276"},{"id":14049,"title":"Цветик-семицветик","kp_id":"257883","imdb_id":"tt2487736","world_art_id":null,"type":"movie","add":"2017-10-26 10:57:16","orig_title":"Tsvetik-semitsvetik","year":"1948-01-01","translations":["Оригинальная дорожка","Оригинальная дорожка"],"quality":"dvdrip","translation":"Оригинальная дорожка","update":"2020-07-29 05:53:39","iframe_src":"//2413.svetacdn.in/71tsRs29n5tZ/movie/14049"},{"id":8104,"title":"Американская дочь","kp_id":"40995","imdb_id":"tt0112348","world_art_id":null,"type":"movie","add":"2016-12-17 09:00:31","orig_title":"Amerikanskaya doch","year":"2002-09-21","translations":["Оригинальная дорожка","Оригинальная дорожка"],"quality":"hdtv","translation":"Оригинальная дорожка","update":"2020-07-29 13:47:22","iframe_src":"//2413.svetacdn.in/71tsRs29n5tZ/movie/8104"}],"current_page":1042,"first_page_url":"https://videocdn.tv/api/short?limit=100&api_token=EnbO9h8pv1VyjbCJhg0WM9nG259n7mtz&cache31042=31042&page=1","from":104101,"last_page":711,"last_page_url":"https://videocdn.tv/api/short?limit=100&api_token=EnbO9h8pv1VyjbCJhg0WM9nG259n7mtz&cache31042=31042&page=711","next_page_url":null,"path":"https://videocdn.tv/api/short","per_page":100,"prev_page_url":"https://videocdn.tv/api/short?limit=100&api_token=EnbO9h8pv1VyjbCJhg0WM9nG259n7mtz&cache31042=31042&page=1041","to":104120,"total":71035}