{"result":true,"data":[{"id":56140,"title":"Полиция","kp_id":"197952","imdb_id":"tt0070243","world_art_id":null,"type":"movie","add":"2022-01-23 08:11:40","orig_title":"Jing cha","year":"1973-06-16","translations":["Любительский (одноголосый закадровый) (Shangu)"],"quality":"bd","translation":"Любительский (одноголосый закадровый) (Shangu)","update":"2022-01-23 15:06:30","iframe_src":"//7741.svetacdn.in/si4jsFRrtgrT/movie/56140"},{"id":56139,"title":"Взлом 2","kp_id":"59714","imdb_id":"tt0085374","world_art_id":null,"type":"movie","add":"2022-01-23 07:34:15","orig_title":"El crack dos","year":"1983-08-01","translations":["Авторский (одноголосый закадровый) (Янкелевич Роман)"],"quality":"bd","translation":"Авторский (одноголосый закадровый) (Янкелевич Роман)","update":"2022-01-23 15:05:16","iframe_src":"//7741.svetacdn.in/si4jsFRrtgrT/movie/56139"},{"id":56138,"title":"Царство гаргулий","kp_id":"308310","imdb_id":"tt0969322","world_art_id":null,"type":"movie","add":"2022-01-23 07:27:20","orig_title":"Reign of the Gargoyles","year":"2007-03-24","translations":["Профессиональный (многоголосый закадровый) (ТВ3)"],"quality":"bd","translation":"Профессиональный (многоголосый закадровый) (ТВ3)","update":"2022-01-23 14:19:47","iframe_src":"//7741.svetacdn.in/si4jsFRrtgrT/movie/56138"},{"id":56137,"title":"Стокгольмская восточная","kp_id":"630508","imdb_id":"tt2072241","world_art_id":null,"type":"movie","add":"2022-01-23 07:25:00","orig_title":"Stockholm Östra","year":"2011-10-14","translations":["Авторский (одноголосый закадровый) (Данилов Владислав | Kenum)"],"quality":"bd","translation":"Авторский (одноголосый закадровый) (Данилов Владислав | Kenum)","update":"2022-01-23 14:21:21","iframe_src":"//7741.svetacdn.in/si4jsFRrtgrT/movie/56137"},{"id":56135,"title":"В королевском стиле","kp_id":"4422107","imdb_id":"tt13989030","world_art_id":null,"type":"movie","add":"2022-01-23 06:58:27","orig_title":"The Royal Treatment","year":"2022-01-20","translations":["Полное дублирование (SDI Media | Iyuno-SDI Group Russia)"],"quality":"webdl","translation":"Полное дублирование (SDI Media | Iyuno-SDI Group Russia)","update":"2022-01-23 14:18:24","iframe_src":"//7741.svetacdn.in/si4jsFRrtgrT/movie/56135"},{"id":56133,"title":"Человек за камерой","kp_id":"1003265","imdb_id":"tt5843778","world_art_id":null,"type":"movie","add":"2022-01-22 22:26:12","orig_title":"The Man Behind the Camera","year":"2021-01-01","translations":["Любительский (многоголосый закадровый) (Синема УС)"],"quality":"webdl","translation":"Любительский (многоголосый закадровый) (Синема УС)","update":"2022-01-23 21:17:14","iframe_src":"//7741.svetacdn.in/si4jsFRrtgrT/movie/56133"},{"id":56132,"title":"Республика","kp_id":"4374727","imdb_id":"tt13914000","world_art_id":null,"type":"movie","add":"2022-01-22 22:22:51","orig_title":"Republic","year":"2021-09-30","translations":["Любительский (многоголосый закадровый) (Синема УС)"],"quality":"webdl","translation":"Любительский (многоголосый закадровый) (Синема УС)","update":"2022-01-23 21:16:17","iframe_src":"//7741.svetacdn.in/si4jsFRrtgrT/movie/56132"},{"id":56131,"title":"Любовь живёт здесь","kp_id":"1434884","imdb_id":"tt9900398","world_art_id":null,"type":"movie","add":"2022-01-22 22:21:17","orig_title":"Love Lives Here","year":"2019-01-01","translations":["Любительский (многоголосый закадровый) (Синема УС)"],"quality":"webdl","translation":"Любительский (многоголосый закадровый) (Синема УС)","update":"2022-01-23 21:15:30","iframe_src":"//7741.svetacdn.in/si4jsFRrtgrT/movie/56131"},{"id":56130,"title":"Гаттер","kp_id":"4421704","imdb_id":"tt14200420","world_art_id":null,"type":"movie","add":"2022-01-22 22:19:49","orig_title":"GUTTER","year":"2022-01-01","translations":["Любительский (многоголосый закадровый) (Синема УС)"],"quality":"webdl","translation":"Любительский (многоголосый закадровый) (Синема УС)","update":"2022-01-23 21:05:27","iframe_src":"//7741.svetacdn.in/si4jsFRrtgrT/movie/56130"},{"id":56129,"title":"Смерть металу","kp_id":"1152467","imdb_id":"tt8396130","world_art_id":null,"type":"movie","add":"2022-01-22 22:15:29","orig_title":"Death to Metal","year":"2019-11-01","translations":["Любительский (многоголосый закадровый) (Синема УС)"],"quality":"webdl","translation":"Любительский (многоголосый закадровый) (Синема УС)","update":"2022-01-23 21:04:36","iframe_src":"//7741.svetacdn.in/si4jsFRrtgrT/movie/56129"},{"id":56128,"title":"Бисер перед свиньями","kp_id":"1351817","imdb_id":"tt11826862","world_art_id":null,"type":"movie","add":"2022-01-22 22:13:58","orig_title":"De l'or pour les chiens","year":"2020-08-29","translations":["Любительский (многоголосый закадровый) (Синема УС)"],"quality":"webdl","translation":"Любительский (многоголосый закадровый) (Синема УС)","update":"2022-01-23 21:03:29","iframe_src":"//7741.svetacdn.in/si4jsFRrtgrT/movie/56128"},{"id":56122,"title":"Властелин ада","kp_id":"51134","imdb_id":"tt0165489","world_art_id":null,"type":"movie","add":"2022-01-22 13:53:32","orig_title":"Hellmaster","year":"1992-12-16","translations":["Любительский (одноголосый закадровый) (ДиоНиК)"],"quality":"bd","translation":"Любительский (одноголосый закадровый) (ДиоНиК)","update":"2022-01-23 15:11:27","iframe_src":"//7741.svetacdn.in/si4jsFRrtgrT/movie/56122"},{"id":56116,"title":"Человек с каменным сердцем","kp_id":"36624","imdb_id":"tt0187395","world_art_id":null,"type":"movie","add":"2022-01-22 07:54:31","orig_title":"Pathar Ke Insan","year":"1990-01-01","translations":["Любительский (одноголосый закадровый)"],"quality":"webdl","translation":"Любительский (одноголосый закадровый)","update":"2022-01-23 15:13:48","iframe_src":"//7741.svetacdn.in/si4jsFRrtgrT/movie/56116"},{"id":55950,"title":"Когда упало небо","kp_id":"1322105","imdb_id":"tt11233506","world_art_id":null,"type":"movie","add":"2022-01-16 07:58:45","orig_title":"When the Sky Fell","year":"2021-05-27","translations":["Любительский (многоголосый закадровый) (AlphaProject)"],"quality":"webdl","translation":"Любительский (многоголосый закадровый) (AlphaProject)","update":"2022-01-23 10:29:31","iframe_src":"//7741.svetacdn.in/si4jsFRrtgrT/movie/55950"},{"id":54791,"title":"Чёрная пятница","kp_id":"1449789","imdb_id":"tt11649338","world_art_id":null,"type":"movie","add":"2021-11-23 20:05:55","orig_title":"Black Friday","year":"2021-09-24","translations":["Любительский (многоголосый закадровый) (AlphaProject)","[EN] Original (English)","Любительский (одноголосый закадровый)","[PT] Полное дублирование (Portugues)","Любительский (многоголосый закадровый) (Shadow Dub Project)"],"quality":"webdl","translation":"Любительский (многоголосый закадровый) (AlphaProject)","update":"2022-01-23 14:15:44","iframe_src":"//7741.svetacdn.in/si4jsFRrtgrT/movie/54791"},{"id":54128,"title":"Кошачьи миры Луиса Уэйна","kp_id":"1290289","imdb_id":"tt10687506","world_art_id":null,"type":"movie","add":"2021-10-25 17:06:49","orig_title":"The Electrical Life of Louis Wain","year":"2021-09-02","translations":["Полное дублирование (Мосфильм)","[EN] Original (English)","[PT] Полное дублирование (Portugues)","Профессиональный (многоголосый закадровый) (Jaskier)"],"quality":"webdl","translation":"Полное дублирование (Мосфильм)","update":"2022-01-23 14:23:07","iframe_src":"//7741.svetacdn.in/si4jsFRrtgrT/movie/54128"},{"id":54076,"title":"У Германтов","kp_id":"4542083","imdb_id":"tt15242370","world_art_id":null,"type":"movie","add":"2021-10-23 06:51:46","orig_title":"Guermantes","year":"2021-09-29","translations":["Любительский (многоголосый закадровый) (Синема УС)","Любительский (многоголосый закадровый) (Синема УС)"],"quality":"ts","translation":"Любительский (многоголосый закадровый) (Синема УС)","update":"2022-01-23 21:07:45","iframe_src":"//7741.svetacdn.in/si4jsFRrtgrT/movie/54076"},{"id":53547,"title":"ЛЕГО Звёздные войны: Ужасающие сказки","kp_id":"4523353","imdb_id":"tt15164924","world_art_id":null,"type":"movie","add":"2021-10-01 12:22:49","orig_title":"Lego Star Wars Terrifying Tales","year":"2021-10-01","translations":["Любительский (многоголосый закадровый) (ColdFilm)","Любительский (многоголосый закадровый) (@MUZOBOZ@)","Профессиональный (многоголосый закадровый) (Flarrow Films)"],"quality":"webdl","translation":"Любительский (многоголосый закадровый) (ColdFilm)","update":"2022-01-23 13:45:45","iframe_src":"//7741.svetacdn.in/si4jsFRrtgrT/movie/53547"},{"id":53173,"title":"Лунные приключения","kp_id":"4440524","imdb_id":"tt14534992","world_art_id":null,"type":"movie","add":"2021-09-17 00:04:35","orig_title":"Moonbound","year":"2021-06-24","translations":["Любительский (многоголосый закадровый) (@MUZOBOZ@)","Профессиональный (двухголосый закадровый) (Pazl Voice)"],"quality":"webdl","translation":"Любительский (многоголосый закадровый) (@MUZOBOZ@)","update":"2022-01-23 13:43:23","iframe_src":"//7741.svetacdn.in/si4jsFRrtgrT/movie/53173"},{"id":52909,"title":"Мой шумный дом: Фильм","kp_id":"1044006","imdb_id":"tt6714432","world_art_id":null,"type":"movie","add":"2021-09-06 20:19:13","orig_title":"The Loud House","year":"2021-08-20","translations":["[EN] Original (English)","Полное дублирование (SDI Media | Iyuno-SDI Group Russia)"],"quality":"webdl","translation":"[EN] Original (English)","update":"2022-01-23 13:47:08","iframe_src":"//7741.svetacdn.in/si4jsFRrtgrT/movie/52909"},{"id":11010,"title":"Когда джинн творит чудеса","kp_id":"1320561","imdb_id":"tt11180176","world_art_id":null,"type":"serial","add":"2021-07-12 04:23:47","orig_title":"Yehh Jadu Hai Jinn Ka","year":"2019-10-14","translations":["Любительский (многоголосый закадровый) (Crazy Cat Studio)"],"seasons_count":1,"episodes_count":10,"episodes":10,"update":"2021-07-12 08:36:07","iframe_src":"//7741.svetacdn.in/si4jsFRrtgrT/tv-series/11010"},{"id":11008,"title":"Полигон","kp_id":"4362405","imdb_id":"tt13853524","world_art_id":null,"type":"serial","add":"2021-07-12 03:41:05","orig_title":"Poligon","year":"2020-12-17","translations":["Оригинальная дорожка"],"seasons_count":1,"episodes_count":6,"episodes":6,"update":"2021-07-12 08:39:10","iframe_src":"//7741.svetacdn.in/si4jsFRrtgrT/tv-series/11008"},{"id":11007,"title":"Частный заказ","kp_id":"397436","imdb_id":"tt4361772","world_art_id":null,"type":"serial","add":"2021-07-11 16:19:41","orig_title":"Chastniy zakaz","year":"2007-10-01","translations":["Оригинальная дорожка"],"seasons_count":1,"episodes_count":8,"episodes":8,"update":"2021-07-12 10:10:42","iframe_src":"//7741.svetacdn.in/si4jsFRrtgrT/tv-series/11007"},{"id":11005,"title":"Кво Вадис","kp_id":"231138","imdb_id":"tt0089870","world_art_id":null,"type":"serial","add":"2021-07-10 17:55:32","orig_title":"Quo Vadis?","year":"1985-02-24","translations":["Профессиональный (многоголосый закадровый) (Культура | Россия К)"],"seasons_count":1,"episodes_count":6,"episodes":6,"update":"2021-07-11 17:03:07","iframe_src":"//7741.svetacdn.in/si4jsFRrtgrT/tv-series/11005"},{"id":11004,"title":"Уцелевшие","kp_id":"1331264","imdb_id":null,"world_art_id":null,"type":"serial","add":"2021-07-10 09:17:00","orig_title":"Уцелевшие","year":"2021-07-10","translations":["Оригинальная дорожка"],"seasons_count":1,"episodes_count":8,"episodes":8,"update":"2021-07-12 08:35:23","iframe_src":"//7741.svetacdn.in/si4jsFRrtgrT/tv-series/11004"},{"id":11003,"title":"Инквизиция","kp_id":"799938","imdb_id":"tt1871629","world_art_id":null,"type":"serial","add":"2021-07-09 14:34:31","orig_title":"Inquisitio","year":"2012-07-04","translations":["Профессиональный (многоголосый закадровый) (СВ-Дубль)"],"seasons_count":1,"episodes_count":8,"episodes":8,"update":"2021-07-10 09:38:51","iframe_src":"//7741.svetacdn.in/si4jsFRrtgrT/tv-series/11003"},{"id":10986,"title":"За счастьем","kp_id":"1309178","imdb_id":null,"world_art_id":null,"type":"serial","add":"2021-07-05 13:50:33","orig_title":"За счастьем","year":"2021-07-05","translations":["Оригинальная дорожка"],"seasons_count":1,"episodes_count":8,"episodes":8,"update":"2021-07-09 20:35:48","iframe_src":"//7741.svetacdn.in/si4jsFRrtgrT/tv-series/10986"},{"id":10983,"title":"Смятение","kp_id":null,"imdb_id":"tt14820482","world_art_id":null,"type":"serial","add":"2021-07-05 10:54:09","orig_title":"Grahan","year":"2021-06-24","translations":["Любительский (многоголосый закадровый) (Ultradox)"],"seasons_count":1,"episodes_count":8,"episodes":8,"update":"2021-07-12 15:39:54","iframe_src":"//7741.svetacdn.in/si4jsFRrtgrT/tv-series/10983"},{"id":10982,"title":"Элементы. Приключения в микромире","kp_id":"913020","imdb_id":"tt4731474","world_art_id":null,"type":"serial","add":"2021-07-05 10:46:26","orig_title":"LMN's: Adventures in the Microworld","year":"2009-01-01","translations":["Профессиональный (многоголосый закадровый)"],"seasons_count":1,"episodes_count":52,"episodes":52,"update":"2021-07-11 11:25:08","iframe_src":"//7741.svetacdn.in/si4jsFRrtgrT/tv-series/10982"},{"id":10973,"title":"Уборщица","kp_id":"4478567","imdb_id":"tt14675456","world_art_id":null,"type":"serial","add":"2021-06-30 13:53:13","orig_title":"La Muchacha Que Limpia","year":"2021-06-30","translations":["Любительский (многоголосый закадровый) (Ultradox)","Профессиональный (многоголосый закадровый) (BaibaKo)","Любительский (многоголосый закадровый) (ColdFilm)","Профессиональный (многоголосый закадровый) (HDrezka Studio)"],"seasons_count":1,"episodes_count":8,"episodes":8,"update":"2021-07-11 08:50:24","iframe_src":"//7741.svetacdn.in/si4jsFRrtgrT/tv-series/10973"},{"id":10971,"title":"Мы, жертвы","kp_id":"4479379","imdb_id":"tt14719590","world_art_id":null,"type":"serial","add":"2021-06-30 09:45:59","orig_title":"Somos.","year":"2021-06-30","translations":["Любительский (многоголосый закадровый) (Ultradox)","Любительский (многоголосый закадровый) (ColdFilm)","Профессиональный (многоголосый закадровый) (BaibaKo)"],"seasons_count":1,"episodes_count":6,"episodes":6,"update":"2021-07-11 06:22:14","iframe_src":"//7741.svetacdn.in/si4jsFRrtgrT/tv-series/10971"},{"id":10959,"title":"Большое небо","kp_id":"1171940","imdb_id":null,"world_art_id":null,"type":"serial","add":"2021-06-28 13:38:48","orig_title":"Большое небо","year":"2021-06-28","translations":["Оригинальная дорожка"],"seasons_count":1,"episodes_count":12,"episodes":12,"update":"2021-07-10 08:20:23","iframe_src":"//7741.svetacdn.in/si4jsFRrtgrT/tv-series/10959"},{"id":8493,"title":"Биохакеры","kp_id":"1395418","imdb_id":"tt9849210","world_art_id":null,"type":"serial","add":"2020-08-20 09:11:22","orig_title":"Biohackers","year":"2020-08-20","translations":["Любительский (многоголосый закадровый) (ColdFilm)","Любительский (многоголосый закадровый) (Octopus)","Профессиональный (двухголосый закадровый) (IdeaFilm)","Любительский (многоголосый закадровый) (KerobTV)","Профессиональный (многоголосый закадровый) (BaibaKo)","Профессиональный (многоголосый закадровый) (TVShows)","Любительский (многоголосый закадровый) (Ultradox)"],"seasons_count":2,"episodes_count":12,"episodes":6,"update":"2021-07-11 08:59:52","iframe_src":"//7741.svetacdn.in/si4jsFRrtgrT/tv-series/8493"},{"id":8293,"title":"Цветок зла","kp_id":"1338255","imdb_id":"tt11691684","world_art_id":null,"type":"serial","add":"2020-07-31 04:45:56","orig_title":"The Flower of Evil","year":"2020-07-29","translations":["Любительский (многоголосый закадровый) (Octopus)","Любительский (многоголосый закадровый) (ColdFilm)","Любительский (двухголосый закадровый) (SoftBox)","Любительский (двухголосый закадровый) (GREEN TEA)","Профессиональный (многоголосый закадровый) (Мобильное телевидение)"],"seasons_count":1,"episodes_count":16,"episodes":16,"update":"2021-07-10 19:25:05","iframe_src":"//7741.svetacdn.in/si4jsFRrtgrT/tv-series/8293"},{"id":7402,"title":"Избранные","kp_id":"1228882","imdb_id":"tt9471404","world_art_id":null,"type":"serial","add":"2020-05-05 10:51:24","orig_title":"The Chosen","year":"2019-04-19","translations":["Полное дублирование","Любительский (многоголосый закадровый) (Ultradox)"],"seasons_count":2,"episodes_count":16,"episodes":8,"update":"2021-07-12 15:36:09","iframe_src":"//7741.svetacdn.in/si4jsFRrtgrT/tv-series/7402"},{"id":5486,"title":"Лаймтаун","kp_id":"1207875","imdb_id":"tt9103772","world_art_id":null,"type":"serial","add":"2019-10-17 11:36:26","orig_title":"Limetown","year":"2019-10-16","translations":["Любительский (многоголосый закадровый) (ColdFilm)","Профессиональный (двухголосый закадровый) (IdeaFilm)","Профессиональный (многоголосый закадровый) (BaibaKo)","Профессиональный (многоголосый закадровый) (HDrezka Studio)","Любительский (многоголосый закадровый) (Octopus)","Профессиональный (многоголосый закадровый) (TVShows)"],"seasons_count":1,"episodes_count":10,"episodes":10,"update":"2021-07-12 08:46:55","iframe_src":"//7741.svetacdn.in/si4jsFRrtgrT/tv-series/5486"},{"id":3157,"title":"Алиби","kp_id":"891656","imdb_id":"tt3582458","world_art_id":null,"type":"serial","add":"2018-09-11 12:27:52","orig_title":"Frikjent","year":"2015-03-02","translations":["Профессиональный (многоголосый закадровый) (GreenРай Studio)","Профессиональный (многоголосый закадровый) (TVShows)","Профессиональный (многоголосый закадровый) (ShowJet)"],"seasons_count":2,"episodes_count":18,"episodes":8,"update":"2021-07-12 08:32:44","iframe_src":"//7741.svetacdn.in/si4jsFRrtgrT/tv-series/3157"},{"id":2202,"title":"Всё в порядке, это любовь","kp_id":"841713","imdb_id":"tt4031224","world_art_id":null,"type":"serial","add":"2018-03-10 15:10:54","orig_title":"Gwaenchana, sarangiya","year":"2014-07-23","translations":["Любительский (двухголосый закадровый) (GREEN TEA)","Профессиональный (многоголосый закадровый) (Мобильное телевидение)"],"seasons_count":1,"episodes_count":16,"episodes":16,"update":"2021-07-10 15:10:25","iframe_src":"//7741.svetacdn.in/si4jsFRrtgrT/tv-series/2202"},{"id":1955,"title":"Конец ***го мира","kp_id":"1071384","imdb_id":"tt6257970","world_art_id":null,"type":"serial","add":"2018-01-15 14:49:25","orig_title":"The End of the F***ing World","year":"2017-10-24","translations":["Любительский (многоголосый закадровый) (D1)","Полное дублирование (Netflix)","Профессиональный (двухголосый закадровый) (Кубик в Кубе)","Профессиональный (многоголосый закадровый) (Jaskier)","Профессиональный (многоголосый закадровый) (NewStudio)","Полное дублирование","Профессиональный (многоголосый закадровый) (TVShows)"],"seasons_count":2,"episodes_count":16,"episodes":8,"update":"2021-07-12 09:57:31","iframe_src":"//7741.svetacdn.in/si4jsFRrtgrT/tv-series/1955"},{"id":444,"title":"Белая королева","kp_id":"723644","imdb_id":"tt2372220","world_art_id":null,"type":"serial","add":"2016-09-16 05:33:43","orig_title":"The White Queen","year":"2013-06-16","translations":["Профессиональный (многоголосый закадровый) (Amedia)","Профессиональный (многоголосый закадровый) (TVShows)","Профессиональный (многоголосый закадровый) (SDI Media | Iyuno-SDI Group Russia)"],"seasons_count":1,"episodes_count":10,"episodes":10,"update":"2021-07-10 17:48:16","iframe_src":"//7741.svetacdn.in/si4jsFRrtgrT/tv-series/444"}],"current_page":123,"first_page_url":"https://videocdn.tv/api/short?limit=100&api_token=X6EwAUfE5M9xbo7y0Bp0aPf3uXxG2KLL&cache3123=3123&page=1","from":12201,"last_page":707,"last_page_url":"https://videocdn.tv/api/short?limit=100&api_token=X6EwAUfE5M9xbo7y0Bp0aPf3uXxG2KLL&cache3123=3123&page=707","next_page_url":"https://videocdn.tv/api/short?limit=100&api_token=X6EwAUfE5M9xbo7y0Bp0aPf3uXxG2KLL&cache3123=3123&page=124","path":"https://videocdn.tv/api/short","per_page":100,"prev_page_url":"https://videocdn.tv/api/short?limit=100&api_token=X6EwAUfE5M9xbo7y0Bp0aPf3uXxG2KLL&cache3123=3123&page=122","to":12240,"total":70605}