{"result":true,"data":[{"id":3783,"title":"Программа защиты принцесс","kp_id":"407633","imdb_id":"tt1196339","world_art_id":null,"type":"movie","add":"2016-07-08 12:39:30","orig_title":"Princess Protection Progra","year":"2009-05-20","translations":["Полное дублирование"],"quality":"webdl","translation":"Полное дублирование","update":"2016-07-08 20:18:18","iframe_src":"//7043.svetacdn.in/IAF0wWTdNYZm/movie/3783"},{"id":3782,"title":"Шикарное приключение Шарпей","kp_id":"518159","imdb_id":"tt1629440","world_art_id":null,"type":"movie","add":"2016-07-08 12:38:38","orig_title":"Sharpay's Fabulous Adventure","year":"2011-04-19","translations":["Полное дублирование"],"quality":"bd","translation":"Полное дублирование","update":"2016-07-08 20:15:48","iframe_src":"//7043.svetacdn.in/IAF0wWTdNYZm/movie/3782"},{"id":3781,"title":"Ханна Монтана: Кино","kp_id":"405606","imdb_id":"tt1114677","world_art_id":null,"type":"movie","add":"2016-07-08 12:37:52","orig_title":"Hannah Montana: The Movie","year":"2009-04-08","translations":["Полное дублирование"],"quality":"bd","translation":"Полное дублирование","update":"2016-07-08 20:13:38","iframe_src":"//7043.svetacdn.in/IAF0wWTdNYZm/movie/3781"},{"id":3779,"title":"Танец-вспышка","kp_id":"4083","imdb_id":"tt0085549","world_art_id":null,"type":"movie","add":"2016-07-08 12:34:24","orig_title":"Flashdance","year":"1983-04-15","translations":["Профессиональный (многоголосый закадровый)"],"quality":"bd","translation":"Профессиональный (многоголосый закадровый)","update":"2016-07-08 20:08:27","iframe_src":"//7043.svetacdn.in/IAF0wWTdNYZm/movie/3779"},{"id":3767,"title":"Оскар и Люсинда","kp_id":"5561","imdb_id":"tt0119843","world_art_id":null,"type":"movie","add":"2016-07-07 13:19:04","orig_title":"Oscar and Lucinda","year":"1997-12-31","translations":["Профессиональный (многоголосый закадровый)"],"quality":"webdl","translation":"Профессиональный (многоголосый закадровый)","update":"2016-07-08 10:49:43","iframe_src":"//7043.svetacdn.in/IAF0wWTdNYZm/movie/3767"},{"id":3766,"title":"Соммерсби","kp_id":"8801","imdb_id":"tt0108185","world_art_id":null,"type":"movie","add":"2016-07-07 13:18:13","orig_title":"Sommersby","year":"1993-02-05","translations":["Профессиональный (многоголосый закадровый)"],"quality":"bd","translation":"Профессиональный (многоголосый закадровый)","update":"2016-07-08 10:55:51","iframe_src":"//7043.svetacdn.in/IAF0wWTdNYZm/movie/3766"},{"id":3765,"title":"Любовная лихорадка","kp_id":"61272","imdb_id":"tt0369672","world_art_id":null,"type":"movie","add":"2016-07-07 13:17:27","orig_title":"A Love Song for Bobby Long","year":"2004-09-02","translations":["Профессиональный (двухголосый закадровый)"],"quality":"bd","translation":"Профессиональный (двухголосый закадровый)","update":"2016-07-08 11:00:06","iframe_src":"//7043.svetacdn.in/IAF0wWTdNYZm/movie/3765"},{"id":3763,"title":"Скандальный дневник","kp_id":"104942","imdb_id":"tt0465551","world_art_id":null,"type":"movie","add":"2016-07-07 13:14:59","orig_title":"Notes on a Scandal","year":"2006-12-25","translations":["Профессиональный (многоголосый закадровый)"],"quality":"bd","translation":"Профессиональный (многоголосый закадровый)","update":"2016-07-08 11:01:51","iframe_src":"//7043.svetacdn.in/IAF0wWTdNYZm/movie/3763"},{"id":3762,"title":"Мария-Антуанетта","kp_id":"81561","imdb_id":"tt0422720","world_art_id":null,"type":"movie","add":"2016-07-07 13:13:54","orig_title":"Marie Antoinette","year":"2006-05-24","translations":["Профессиональный (многоголосый закадровый)"],"quality":"bd","translation":"Профессиональный (многоголосый закадровый)","update":"2016-07-08 11:08:10","iframe_src":"//7043.svetacdn.in/IAF0wWTdNYZm/movie/3762"},{"id":3760,"title":"Паранойя","kp_id":"252268","imdb_id":"tt0486822","world_art_id":null,"type":"movie","add":"2016-07-07 13:11:23","orig_title":"Disturbia","year":"2007-04-04","translations":["Полное дублирование"],"quality":"bd","translation":"Полное дублирование","update":"2016-07-08 11:15:48","iframe_src":"//7043.svetacdn.in/IAF0wWTdNYZm/movie/3760"},{"id":3758,"title":"Маленький человек Тейт","kp_id":"9841","imdb_id":"tt0102316","world_art_id":null,"type":"movie","add":"2016-07-07 13:08:50","orig_title":"Little Man Tate","year":"1991-09-06","translations":["Профессиональный (двухголосый закадровый)"],"quality":"hdtv","translation":"Профессиональный (двухголосый закадровый)","update":"2016-07-08 07:05:53","iframe_src":"//7043.svetacdn.in/IAF0wWTdNYZm/movie/3758"},{"id":3753,"title":"Крутая компания","kp_id":"64173","imdb_id":"tt0385267","world_art_id":null,"type":"movie","add":"2016-07-07 13:00:58","orig_title":"In Good Company","year":"2004-12-06","translations":["Профессиональный (многоголосый закадровый)"],"quality":"hddvd","translation":"Профессиональный (многоголосый закадровый)","update":"2016-07-08 10:35:06","iframe_src":"//7043.svetacdn.in/IAF0wWTdNYZm/movie/3753"},{"id":3752,"title":"Бог грома","kp_id":"898798","imdb_id":"tt4527268","world_art_id":null,"type":"movie","add":"2016-07-07 11:48:00","orig_title":"God of Thunder","year":"2015-06-22","translations":["Любительский (многоголосый закадровый) (Parovoz Production)"],"quality":"bd","translation":"Любительский (многоголосый закадровый) (Parovoz Production)","update":"2016-07-08 06:58:26","iframe_src":"//7043.svetacdn.in/IAF0wWTdNYZm/movie/3752"},{"id":3750,"title":"Не менее странно, чем любовь","kp_id":"772907","imdb_id":"tt2998406","world_art_id":null,"type":"movie","add":"2016-07-07 10:39:22","orig_title":"No Stranger Than Love","year":"2015-04-30","translations":["Любительский (многоголосый закадровый) (Parovoz Production)"],"quality":"webdl","translation":"Любительский (многоголосый закадровый) (Parovoz Production)","update":"2016-07-08 06:54:16","iframe_src":"//7043.svetacdn.in/IAF0wWTdNYZm/movie/3750"},{"id":3744,"title":"Потомки","kp_id":"395369","imdb_id":"tt1033575","world_art_id":null,"type":"movie","add":"2016-07-06 14:30:39","orig_title":"The Descendants","year":"2011-09-02","translations":["Полное дублирование"],"quality":"bd","translation":"Полное дублирование","update":"2016-07-07 09:20:40","iframe_src":"//7043.svetacdn.in/IAF0wWTdNYZm/movie/3744"},{"id":3743,"title":"Королева","kp_id":"161917","imdb_id":"tt0436697","world_art_id":null,"type":"movie","add":"2016-07-06 14:29:57","orig_title":"The Queen","year":"2006-09-02","translations":["Полное дублирование"],"quality":"bd","translation":"Полное дублирование","update":"2016-07-07 09:18:57","iframe_src":"//7043.svetacdn.in/IAF0wWTdNYZm/movie/3743"},{"id":3742,"title":"Конец романа","kp_id":"7634","imdb_id":"tt0172396","world_art_id":null,"type":"movie","add":"2016-07-06 14:28:53","orig_title":"The End of the Affair","year":"1999-12-02","translations":["Профессиональный (многоголосый закадровый)"],"quality":"webdl","translation":"Профессиональный (многоголосый закадровый)","update":"2016-07-07 09:08:43","iframe_src":"//7043.svetacdn.in/IAF0wWTdNYZm/movie/3742"},{"id":3740,"title":"Незаконченная жизнь","kp_id":"6058","imdb_id":"tt0350261","world_art_id":null,"type":"movie","add":"2016-07-06 14:25:20","orig_title":"An Unfinished Life","year":"2005-08-19","translations":["Полное дублирование"],"quality":"bd","translation":"Полное дублирование","update":"2016-07-07 08:48:48","iframe_src":"//7043.svetacdn.in/IAF0wWTdNYZm/movie/3740"},{"id":3739,"title":"Спасибо за обмен","kp_id":"592209","imdb_id":"tt1932718","world_art_id":null,"type":"movie","add":"2016-07-06 14:24:32","orig_title":"Thanks for Sharing","year":"2012-09-08","translations":["Профессиональный (многоголосый закадровый)"],"quality":"bd","translation":"Профессиональный (многоголосый закадровый)","update":"2016-07-07 09:02:31","iframe_src":"//7043.svetacdn.in/IAF0wWTdNYZm/movie/3739"},{"id":3708,"title":"Парикмахерская 2: Снова в деле","kp_id":"6864","imdb_id":"tt0337579","world_art_id":null,"type":"movie","add":"2016-07-06 05:29:59","orig_title":"Barbershop 2: Back in Business","year":"2004-01-20","translations":["Профессиональный (многоголосый закадровый)"],"quality":"hdtv","translation":"Профессиональный (многоголосый закадровый)","update":"2016-07-08 08:28:58","iframe_src":"//7043.svetacdn.in/IAF0wWTdNYZm/movie/3708"}],"current_page":2347,"first_page_url":"https://videocdn.tv/api/short?limit=100&api_token=6Onb1W1alEUrBcKJZD3GoKBbWyAl2uG2&cache32347=32347&page=1","from":234601,"last_page":616,"last_page_url":"https://videocdn.tv/api/short?limit=100&api_token=6Onb1W1alEUrBcKJZD3GoKBbWyAl2uG2&cache32347=32347&page=616","next_page_url":null,"path":"https://videocdn.tv/api/short","per_page":100,"prev_page_url":"https://videocdn.tv/api/short?limit=100&api_token=6Onb1W1alEUrBcKJZD3GoKBbWyAl2uG2&cache32347=32347&page=2346","to":234620,"total":61594}