{"result":true,"data":[{"id":12212,"title":"Принц и 108 царей-демоно","kp_id":"821843","imdb_id":"tt3433622","world_art_id":null,"type":"movie","add":"2017-06-29 04:43:59","orig_title":"108 Rois-Démons","year":"2014-12-04","translations":["Любительский (одноголосый закадровый) (BadBajo | Важенин Андрей)"],"quality":"webdl","translation":"Любительский (одноголосый закадровый) (BadBajo | Важенин Андрей)","update":"2017-06-29 07:09:27","iframe_src":"//83.svetacdn.in/PfJ50H0ZBPg3/movie/12212"},{"id":12209,"title":"Последние дни Сэйди на Земле","kp_id":"985729","imdb_id":"tt5777802","world_art_id":null,"type":"movie","add":"2017-06-29 04:40:19","orig_title":"Sadie's Last Days on Earth","year":"2016-12-09","translations":["Любительский (многоголосый закадровый) (Синема УС)"],"quality":"webdl","translation":"Любительский (многоголосый закадровый) (Синема УС)","update":"2017-06-29 07:07:12","iframe_src":"//83.svetacdn.in/PfJ50H0ZBPg3/movie/12209"},{"id":12170,"title":"Книга джунглей","kp_id":"8133","imdb_id":"tt0061852","world_art_id":null,"type":"movie","add":"2017-06-27 07:01:12","orig_title":"The Jungle Book","year":"1967-10-18","translations":["Полное дублирование"],"quality":"bd","translation":"Полное дублирование","update":"2017-06-29 11:24:01","iframe_src":"//83.svetacdn.in/PfJ50H0ZBPg3/movie/12170"},{"id":12169,"title":"Неуловимый Люк","kp_id":"415322","imdb_id":"tt1235536","world_art_id":null,"type":"movie","add":"2017-06-27 06:59:34","orig_title":"Lucky Luke","year":"2009-10-21","translations":["Полное дублирование"],"quality":"bd","translation":"Полное дублирование","update":"2017-06-29 11:22:45","iframe_src":"//83.svetacdn.in/PfJ50H0ZBPg3/movie/12169"},{"id":12168,"title":"Спасай свою жизнь, Чарли Браун","kp_id":"231941","imdb_id":"tt0076591","world_art_id":null,"type":"movie","add":"2017-06-27 06:54:45","orig_title":"Race for Your Life, Charlie Brown","year":"1977-07-16","translations":["Авторский (одноголосый закадровый) (Дохалов Вартан)"],"quality":"webdl","translation":"Авторский (одноголосый закадровый) (Дохалов Вартан)","update":"2017-06-29 11:20:55","iframe_src":"//83.svetacdn.in/PfJ50H0ZBPg3/movie/12168"},{"id":12161,"title":"Дедушка в подарок","kp_id":"451397","imdb_id":"tt1508256","world_art_id":null,"type":"movie","add":"2017-06-26 12:15:51","orig_title":"Dedushka v podarok","year":"2009-01-11","translations":["Оригинальная дорожка"],"quality":"webdl","translation":"Оригинальная дорожка","update":"2017-06-29 07:12:15","iframe_src":"//83.svetacdn.in/PfJ50H0ZBPg3/movie/12161"},{"id":12160,"title":"Уснувший пассажир","kp_id":"411823","imdb_id":"tt4533776","world_art_id":null,"type":"movie","add":"2017-06-26 12:14:50","orig_title":"Usnuvshiy passazhir","year":"1993-01-01","translations":["Оригинальная дорожка"],"quality":"hdtv","translation":"Оригинальная дорожка","update":"2017-06-29 07:10:46","iframe_src":"//83.svetacdn.in/PfJ50H0ZBPg3/movie/12160"},{"id":12159,"title":"Тайна записной книжки","kp_id":"42175","imdb_id":"tt0237798","world_art_id":null,"type":"movie","add":"2017-06-26 12:13:36","orig_title":"Tayna zapisnoy knizhki","year":"1981-12-21","translations":["Оригинальная дорожка"],"quality":"hdtv","translation":"Оригинальная дорожка","update":"2017-06-29 07:09:41","iframe_src":"//83.svetacdn.in/PfJ50H0ZBPg3/movie/12159"},{"id":12158,"title":"Шахта","kp_id":"782091","imdb_id":null,"world_art_id":null,"type":"movie","add":"2017-06-26 12:12:24","orig_title":"Шахта","year":"2013-12-10","translations":["Оригинальная дорожка"],"quality":"hdtv","translation":"Оригинальная дорожка","update":"2017-06-29 07:08:08","iframe_src":"//83.svetacdn.in/PfJ50H0ZBPg3/movie/12158"},{"id":12157,"title":"Один шанс из тысячи","kp_id":"42719","imdb_id":"tt0166291","world_art_id":null,"type":"movie","add":"2017-06-26 12:10:32","orig_title":"Odin shans iz tysyachi","year":"1969-08-22","translations":["Оригинальная дорожка"],"quality":"hdtv","translation":"Оригинальная дорожка","update":"2017-06-29 07:06:12","iframe_src":"//83.svetacdn.in/PfJ50H0ZBPg3/movie/12157"},{"id":12156,"title":"Королева бензоколонки","kp_id":"44927","imdb_id":"tt0057232","world_art_id":null,"type":"movie","add":"2017-06-26 12:09:26","orig_title":"Koroleva benzokolonki","year":"1963-12-05","translations":["Оригинальная дорожка"],"quality":"hdtv","translation":"Оригинальная дорожка","update":"2017-06-29 07:04:55","iframe_src":"//83.svetacdn.in/PfJ50H0ZBPg3/movie/12156"},{"id":12155,"title":"Дачная поездка сержанта Цыбули","kp_id":"44080","imdb_id":"tt0079021","world_art_id":null,"type":"movie","add":"2017-06-26 12:08:03","orig_title":"Dachnaya poezdka serzhanta Tsybuli","year":"1980-12-22","translations":["Оригинальная дорожка"],"quality":"hdtv","translation":"Оригинальная дорожка","update":"2017-06-29 07:03:16","iframe_src":"//83.svetacdn.in/PfJ50H0ZBPg3/movie/12155"},{"id":12154,"title":"Укрощение строптивых","kp_id":"467492","imdb_id":"tt1515960","world_art_id":null,"type":"movie","add":"2017-06-26 12:06:42","orig_title":"Ukroshchenie stroptivykh","year":"2009-10-29","translations":["Оригинальная дорожка"],"quality":"bd","translation":"Оригинальная дорожка","update":"2017-06-29 07:01:56","iframe_src":"//83.svetacdn.in/PfJ50H0ZBPg3/movie/12154"},{"id":12153,"title":"Новая Земля","kp_id":"408403","imdb_id":"tt1234435","world_art_id":null,"type":"movie","add":"2017-06-26 12:05:40","orig_title":"Novaya Zemlya","year":"2008-10-19","translations":["Оригинальная дорожка"],"quality":"bd","translation":"Оригинальная дорожка","update":"2017-06-29 07:01:01","iframe_src":"//83.svetacdn.in/PfJ50H0ZBPg3/movie/12153"},{"id":12151,"title":"Маугли","kp_id":"14000","imdb_id":"tt0217590","world_art_id":null,"type":"movie","add":"2017-06-26 12:02:46","orig_title":"Maugli","year":"1973-01-01","translations":["Оригинальная дорожка"],"quality":"bd","translation":"Оригинальная дорожка","update":"2017-06-29 06:59:27","iframe_src":"//83.svetacdn.in/PfJ50H0ZBPg3/movie/12151"},{"id":12150,"title":"Мамы","kp_id":"584084","imdb_id":"tt2258465","world_art_id":null,"type":"movie","add":"2017-06-26 12:01:26","orig_title":"Mamy","year":"2012-03-01","translations":["Оригинальная дорожка"],"quality":"bd","translation":"Оригинальная дорожка","update":"2017-06-29 06:58:25","iframe_src":"//83.svetacdn.in/PfJ50H0ZBPg3/movie/12150"},{"id":12149,"title":"Код апокалипсиса","kp_id":"257772","imdb_id":"tt1087832","world_art_id":null,"type":"movie","add":"2017-06-26 12:00:28","orig_title":"Kod apokalipsisa","year":"2007-10-04","translations":["Оригинальная дорожка"],"quality":"bd","translation":"Оригинальная дорожка","update":"2017-06-29 06:57:48","iframe_src":"//83.svetacdn.in/PfJ50H0ZBPg3/movie/12149"},{"id":12147,"title":"Чужие","kp_id":"422941","imdb_id":"tt1332007","world_art_id":null,"type":"movie","add":"2017-06-26 11:57:43","orig_title":"Chuzhie","year":"2008-11-13","translations":["Оригинальная дорожка"],"quality":"bd","translation":"Оригинальная дорожка","update":"2017-06-29 06:52:14","iframe_src":"//83.svetacdn.in/PfJ50H0ZBPg3/movie/12147"},{"id":12125,"title":"Астерикс завоевывает Америку","kp_id":"47244","imdb_id":"tt0109162","world_art_id":null,"type":"movie","add":"2017-06-23 11:09:34","orig_title":"Asterix in America","year":"1994-09-29","translations":["Профессиональный (многоголосый закадровый)"],"quality":"bd","translation":"Профессиональный (многоголосый закадровый)","update":"2017-06-29 05:17:37","iframe_src":"//83.svetacdn.in/PfJ50H0ZBPg3/movie/12125"},{"id":9265,"title":"Секреты Эмили Блэр","kp_id":"861274","imdb_id":"tt4276206","world_art_id":null,"type":"movie","add":"2017-01-27 08:11:21","orig_title":"The Secrets of Emily Blair","year":"2016-10-01","translations":["Любительский (одноголосый закадровый) (Хихикающий доктор)","Любительский (многоголосый закадровый) (Синема УС)"],"quality":"webdl","translation":"Любительский (одноголосый закадровый) (Хихикающий доктор)","update":"2017-06-29 07:08:28","iframe_src":"//83.svetacdn.in/PfJ50H0ZBPg3/movie/9265"}],"current_page":2440,"first_page_url":"https://videocdn.tv/api/short?limit=100&api_token=RgFQdUIR2dRmwv8iYa5SnFNgnw3vpjKj&cache32440=32440&page=1","from":243901,"last_page":709,"last_page_url":"https://videocdn.tv/api/short?limit=100&api_token=RgFQdUIR2dRmwv8iYa5SnFNgnw3vpjKj&cache32440=32440&page=709","next_page_url":null,"path":"https://videocdn.tv/api/short","per_page":100,"prev_page_url":"https://videocdn.tv/api/short?limit=100&api_token=RgFQdUIR2dRmwv8iYa5SnFNgnw3vpjKj&cache32440=32440&page=2439","to":243920,"total":70840}