{"result":true,"data":[{"id":33228,"title":"Карьера Гитлера","kp_id":"121660","imdb_id":"tt0191182","world_art_id":null,"type":"movie","add":"2019-11-18 14:33:43","orig_title":"Hitler - Eine Karriere","year":"1977-07-08","translations":["Профессиональный (одноголосый закадровый)"],"quality":"dvdrip","translation":"Профессиональный (одноголосый закадровый)","update":"2019-11-18 22:43:42","iframe_src":"//5322.svetacdn.in/IAF0wWTdNYZm/movie/33228"},{"id":33227,"title":"Замученная","kp_id":"764383","imdb_id":"tt2923526","world_art_id":null,"type":"movie","add":"2019-11-18 14:31:55","orig_title":"The Tormented","year":"2016-01-01","translations":["Любительский (многоголосый закадровый) (Синема УС)"],"quality":"webdl","translation":"Любительский (многоголосый закадровый) (Синема УС)","update":"2019-11-18 22:40:51","iframe_src":"//5322.svetacdn.in/IAF0wWTdNYZm/movie/33227"},{"id":33226,"title":"КЛ 24: Зомби","kp_id":"1038706","imdb_id":"tt6508770","world_art_id":null,"type":"movie","add":"2019-11-18 14:28:40","orig_title":"KL24: Zombies","year":"2017-01-08","translations":["Любительский (многоголосый закадровый) (Синема УС)"],"quality":"webdl","translation":"Любительский (многоголосый закадровый) (Синема УС)","update":"2019-11-18 22:40:07","iframe_src":"//5322.svetacdn.in/IAF0wWTdNYZm/movie/33226"},{"id":30600,"title":"Смерть и жизнь Джона Ф. Донована","kp_id":"843066","imdb_id":"tt4042818","world_art_id":null,"type":"movie","add":"2019-09-05 12:23:18","orig_title":"The Death and Life of John F. Donovan","year":"2018-09-10","translations":["Полное дублирование (iTunes)","Профессиональный (многоголосый закадровый) (HDrezka Studio)"],"quality":"webdl","translation":"Полное дублирование (iTunes)","update":"2019-11-19 04:39:25","iframe_src":"//5322.svetacdn.in/IAF0wWTdNYZm/movie/30600"},{"id":30111,"title":"Тачка на миллион","kp_id":"1053846","imdb_id":"tt5592796","world_art_id":null,"type":"movie","add":"2019-08-19 07:49:55","orig_title":"Driven","year":"2018-09-08","translations":["Полное дублирование","Original (English)","Профессиональный (многоголосый закадровый) (HDrezka Studio)"],"quality":"bd","translation":"Полное дублирование","update":"2019-11-19 04:26:20","iframe_src":"//5322.svetacdn.in/IAF0wWTdNYZm/movie/30111"},{"id":29922,"title":"Свет моей жизни","kp_id":"1008320","imdb_id":"tt6063090","world_art_id":null,"type":"movie","add":"2019-08-12 10:17:37","orig_title":"Light of My Life","year":"2019-02-08","translations":["Полное дублирование","Профессиональный (многоголосый закадровый) (HDrezka Studio)"],"quality":"bd","translation":"Полное дублирование","update":"2019-11-19 04:30:23","iframe_src":"//5322.svetacdn.in/IAF0wWTdNYZm/movie/29922"},{"id":29869,"title":"Маленькое красное платье","kp_id":"1055306","imdb_id":"tt7464188","world_art_id":null,"type":"movie","add":"2019-08-08 22:16:24","orig_title":"In Fabric","year":"2018-09-13","translations":["Профессиональный (многоголосый закадровый) (HDrezka Studio)","Профессиональный (многоголосый закадровый)","Профессиональный (многоголосый закадровый) (HDrezka Studio)"],"quality":"bd","translation":"Профессиональный (многоголосый закадровый) (HDrezka Studio)","update":"2019-11-19 04:28:51","iframe_src":"//5322.svetacdn.in/IAF0wWTdNYZm/movie/29869"},{"id":28999,"title":"Али, рули!","kp_id":"1143927","imdb_id":"tt7734218","world_art_id":null,"type":"movie","add":"2019-07-15 05:42:06","orig_title":"Stuber","year":"2019-03-13","translations":["Полное дублирование","Профессиональный (многоголосый закадровый) (HDrezka Studio)"],"quality":"bd","translation":"Полное дублирование","update":"2019-11-19 04:37:58","iframe_src":"//5322.svetacdn.in/IAF0wWTdNYZm/movie/28999"},{"id":28305,"title":"Анна","kp_id":"1049727","imdb_id":"tt7456310","world_art_id":null,"type":"movie","add":"2019-06-27 12:16:11","orig_title":"Anna","year":"2019-06-19","translations":["Полное дублирование","Профессиональный (многоголосый закадровый) (HDrezka Studio)"],"quality":"bd","translation":"Полное дублирование","update":"2019-11-19 04:24:17","iframe_src":"//5322.svetacdn.in/IAF0wWTdNYZm/movie/28305"},{"id":27873,"title":"Плюс один","kp_id":"1269608","imdb_id":"tt7645122","world_art_id":null,"type":"movie","add":"2019-06-17 06:03:51","orig_title":"Plus One","year":"2019-04-28","translations":["Полное дублирование (iTunes)","Original (English)","Профессиональный (многоголосый закадровый) (HDrezka Studio)"],"quality":"bd","translation":"Полное дублирование (iTunes)","update":"2019-11-19 04:31:37","iframe_src":"//5322.svetacdn.in/IAF0wWTdNYZm/movie/27873"},{"id":27734,"title":"Люди в черном: Интернэшнл","kp_id":"693730","imdb_id":"tt2283336","world_art_id":null,"type":"movie","add":"2019-06-13 06:02:37","orig_title":"Men in Black International","year":"2019-06-12","translations":["Полное дублирование","Original (English)","Профессиональный (многоголосый закадровый) (HDrezka Studio)"],"quality":"bd","translation":"Полное дублирование","update":"2019-11-19 04:30:51","iframe_src":"//5322.svetacdn.in/IAF0wWTdNYZm/movie/27734"},{"id":27456,"title":"Рокетмен","kp_id":"627299","imdb_id":"tt2066051","world_art_id":null,"type":"movie","add":"2019-06-05 03:43:58","orig_title":"Rocketman","year":"2019-05-16","translations":["Полное дублирование","Original (English)","Профессиональный (многоголосый закадровый) (HDrezka Studio)"],"quality":"bd","translation":"Полное дублирование","update":"2019-11-19 04:32:00","iframe_src":"//5322.svetacdn.in/IAF0wWTdNYZm/movie/27456"},{"id":26971,"title":"Аладдин","kp_id":"1007049","imdb_id":"tt6139732","world_art_id":null,"type":"movie","add":"2019-05-23 17:43:27","orig_title":"Aladdin","year":"2019-05-08","translations":["Полное дублирование","Original (English)","Профессиональный (многоголосый закадровый) (HDrezka Studio)"],"quality":"bd","translation":"Полное дублирование","update":"2019-11-19 04:26:53","iframe_src":"//5322.svetacdn.in/IAF0wWTdNYZm/movie/26971"},{"id":26667,"title":"Джон Уик 3","kp_id":"1009536","imdb_id":"tt6146586","world_art_id":null,"type":"movie","add":"2019-05-17 22:12:33","orig_title":"John Wick: Chapter 3 - Parabellum","year":"2019-05-15","translations":["Полное дублирование","Original (English)","Профессиональный (многоголосый закадровый) (HDrezka Studio)"],"quality":"bd","translation":"Полное дублирование","update":"2019-11-19 04:29:31","iframe_src":"//5322.svetacdn.in/IAF0wWTdNYZm/movie/26667"},{"id":22839,"title":"Капернаум","kp_id":"1118042","imdb_id":"tt8267604","world_art_id":null,"type":"movie","add":"2019-03-10 12:49:35","orig_title":"Capharnaüm","year":"2018-05-17","translations":["Любительский (многоголосый закадровый) (@MUZOBOZ@)","Профессиональный (многоголосый закадровый) (iTunes)","Профессиональный (многоголосый закадровый) (HDrezka Studio)"],"quality":"bd","translation":"Любительский (многоголосый закадровый) (@MUZOBOZ@)","update":"2019-11-19 04:24:52","iframe_src":"//5322.svetacdn.in/IAF0wWTdNYZm/movie/22839"},{"id":21488,"title":"Hамерения 2: Достижение уровня","kp_id":"1100538","imdb_id":"tt7613996","world_art_id":null,"type":"movie","add":"2019-01-13 21:05:45","orig_title":"The Intent 2: The Come Up","year":"2018-09-21","translations":["Любительский (многоголосый закадровый) (Синема УС)","Профессиональный (многоголосый закадровый) (HDrezka Studio)"],"quality":"webdl","translation":"Любительский (многоголосый закадровый) (Синема УС)","update":"2019-11-19 04:40:53","iframe_src":"//5322.svetacdn.in/IAF0wWTdNYZm/movie/21488"},{"id":20455,"title":"Суспирия","kp_id":"423063","imdb_id":"tt1034415","world_art_id":null,"type":"movie","add":"2018-12-02 23:46:41","orig_title":"Suspiria","year":"2018-09-01","translations":["Полное дублирование","Любительский (многоголосый закадровый) (@MUZOBOZ@)","Любительский (двухголосый закадровый) (HiWayGrope)","Любительский (двухголосый закадровый) (LakeFilms)","Профессиональный (многоголосый закадровый) (HDrezka Studio)"],"quality":"bd","translation":"Полное дублирование","update":"2019-11-19 04:38:59","iframe_src":"//5322.svetacdn.in/IAF0wWTdNYZm/movie/20455"},{"id":18118,"title":"Дом завтрашнего дня","kp_id":"993762","imdb_id":"tt5910344","world_art_id":null,"type":"movie","add":"2018-08-05 22:48:02","orig_title":"The House of Tomorrow","year":"2017-04-08","translations":["Любительский (многоголосый закадровый) (Синема УС)","Любительский (двухголосый закадровый) (HiWayGrope)","Профессиональный (многоголосый закадровый) (GreenРай Studio)","Профессиональный (многоголосый закадровый) (HDrezka Studio)"],"quality":"hdrip","translation":"Любительский (многоголосый закадровый) (Синема УС)","update":"2019-11-19 04:39:54","iframe_src":"//5322.svetacdn.in/IAF0wWTdNYZm/movie/18118"},{"id":13137,"title":"Звёздный десант: Предатель Марса","kp_id":"1045679","imdb_id":"tt6977240","world_art_id":null,"type":"movie","add":"2017-08-25 04:40:09","orig_title":"Starship Troopers: Traitor of Mars","year":"2017-08-21","translations":["Профессиональный (многоголосый закадровый)","Original (English)","Профессиональный (многоголосый закадровый) (HDrezka Studio)"],"quality":"bd","translation":"Профессиональный (многоголосый закадровый)","update":"2019-11-19 04:37:26","iframe_src":"//5322.svetacdn.in/IAF0wWTdNYZm/movie/13137"},{"id":5750,"title":"День драфта","kp_id":"688777","imdb_id":"tt2223990","world_art_id":null,"type":"movie","add":"2016-10-03 05:06:31","orig_title":"Draft Day","year":"2014-04-11","translations":["Любительский (двухголосый закадровый)","Профессиональный (многоголосый закадровый) (HDrezka Studio)"],"quality":"bd","translation":"Любительский (двухголосый закадровый)","update":"2019-11-19 04:25:34","iframe_src":"//5322.svetacdn.in/IAF0wWTdNYZm/movie/5750"}],"current_page":1045,"first_page_url":"https://videocdn.tv/api/short?limit=100&api_token=6Onb1W1alEUrBcKJZD3GoKBbWyAl2uG2&cache31045=31045&page=1","from":104401,"last_page":626,"last_page_url":"https://videocdn.tv/api/short?limit=100&api_token=6Onb1W1alEUrBcKJZD3GoKBbWyAl2uG2&cache31045=31045&page=626","next_page_url":null,"path":"https://videocdn.tv/api/short","per_page":100,"prev_page_url":"https://videocdn.tv/api/short?limit=100&api_token=6Onb1W1alEUrBcKJZD3GoKBbWyAl2uG2&cache31045=31045&page=1044","to":104420,"total":62573}