{"result":true,"data":[{"id":21731,"title":"Секреты Джонатана Сперри","kp_id":"393032","imdb_id":"tt1070858","world_art_id":null,"type":"movie","add":"2019-01-22 10:12:43","orig_title":"The Secrets of Jonathan Sperry","year":"2008-04-27","translations":["Любительский (одноголосый закадровый)"],"quality":"dvdrip","translation":"Любительский (одноголосый закадровый)","update":"2019-01-22 12:37:21","iframe_src":"//8543.svetacdn.in/71tsRs29n5tZ/movie/21731"},{"id":21730,"title":"Отважные доберманы","kp_id":"82366","imdb_id":"tt0069944","world_art_id":null,"type":"movie","add":"2019-01-22 10:10:54","orig_title":"The Daring Dobermans","year":"1974-11-09","translations":["Профессиональный (двухголосый закадровый)"],"quality":"tv","translation":"Профессиональный (двухголосый закадровый)","update":"2019-01-22 14:53:45","iframe_src":"//8543.svetacdn.in/71tsRs29n5tZ/movie/21730"},{"id":21719,"title":"Внутри Alton Towers","kp_id":null,"imdb_id":"tt9193752","world_art_id":null,"type":"movie","add":"2019-01-21 22:38:54","orig_title":"Inside Alton Towers","year":"2018-08-23","translations":["Любительский (многоголосый закадровый) (Синема УС)"],"quality":"webdl","translation":"Любительский (многоголосый закадровый) (Синема УС)","update":"2019-01-22 05:39:33","iframe_src":"//8543.svetacdn.in/71tsRs29n5tZ/movie/21719"},{"id":21718,"title":"Секретные тоннели Гитлера","kp_id":null,"imdb_id":"tt9547802","world_art_id":null,"type":"movie","add":"2019-01-21 22:36:07","orig_title":"Hitler's Secret Tunnels","year":"2019-01-03","translations":["Любительский (многоголосый закадровый) (Синема УС)"],"quality":"hdtv","translation":"Любительский (многоголосый закадровый) (Синема УС)","update":"2019-01-22 05:40:27","iframe_src":"//8543.svetacdn.in/71tsRs29n5tZ/movie/21718"},{"id":21716,"title":"Отказ от дневной работы","kp_id":"1156168","imdb_id":"tt7816596","world_art_id":null,"type":"movie","add":"2019-01-21 22:30:22","orig_title":"Above & Beyond: Giving Up the Day Job","year":"2018-01-30","translations":["Любительский (многоголосый закадровый) (Синема УС)"],"quality":"webdl","translation":"Любительский (многоголосый закадровый) (Синема УС)","update":"2019-01-22 05:45:40","iframe_src":"//8543.svetacdn.in/71tsRs29n5tZ/movie/21716"},{"id":21660,"title":"Сохрани мою речь навсегда","kp_id":"842545","imdb_id":null,"world_art_id":null,"type":"movie","add":"2019-01-20 21:37:52","orig_title":"Сохрани мою речь навсегда","year":"2015-10-22","translations":["Оригинальная дорожка"],"quality":"sat","translation":"Оригинальная дорожка","update":"2019-01-22 02:36:23","iframe_src":"//8543.svetacdn.in/71tsRs29n5tZ/movie/21660"},{"id":21658,"title":"Праздник непослушания","kp_id":"765125","imdb_id":null,"world_art_id":null,"type":"movie","add":"2019-01-20 21:32:07","orig_title":"Праздник непослушания","year":"2015-01-01","translations":["Оригинальная дорожка"],"quality":"webdl","translation":"Оригинальная дорожка","update":"2019-01-22 02:42:25","iframe_src":"//8543.svetacdn.in/71tsRs29n5tZ/movie/21658"},{"id":21657,"title":"15 суток","kp_id":"882279","imdb_id":null,"world_art_id":null,"type":"movie","add":"2019-01-20 21:29:14","orig_title":"15 суток","year":"2015-01-01","translations":["Оригинальная дорожка"],"quality":"webdl","translation":"Оригинальная дорожка","update":"2019-01-22 18:18:09","iframe_src":"//8543.svetacdn.in/71tsRs29n5tZ/movie/21657"},{"id":21656,"title":"Птичка","kp_id":"957724","imdb_id":"tt6278604","world_art_id":null,"type":"movie","add":"2019-01-20 21:23:30","orig_title":"Ptichka","year":"2015-10-21","translations":["Оригинальная дорожка"],"quality":"webdl","translation":"Оригинальная дорожка","update":"2019-01-22 02:40:45","iframe_src":"//8543.svetacdn.in/71tsRs29n5tZ/movie/21656"},{"id":21655,"title":"Психи","kp_id":"921497","imdb_id":"tt5544806","world_art_id":null,"type":"movie","add":"2019-01-20 21:13:31","orig_title":"Psikh","year":"2016-11-24","translations":["Оригинальная дорожка"],"quality":"webdl","translation":"Оригинальная дорожка","update":"2019-01-22 18:21:13","iframe_src":"//8543.svetacdn.in/71tsRs29n5tZ/movie/21655"},{"id":21618,"title":"Таинственный сад","kp_id":"1083656","imdb_id":"tt7334352","world_art_id":null,"type":"movie","add":"2019-01-19 13:12:43","orig_title":"The Secret Garden","year":"2017-09-09","translations":["Любительский (многоголосый закадровый) (Синема УС)","Любительский (двухголосый закадровый) (HiWayGrope)"],"quality":"dvdrip","translation":"Любительский (многоголосый закадровый) (Синема УС)","update":"2019-01-22 05:34:41","iframe_src":"//8543.svetacdn.in/71tsRs29n5tZ/movie/21618"},{"id":21455,"title":"Мумия","kp_id":"32185","imdb_id":"tt0023245","world_art_id":null,"type":"movie","add":"2019-01-12 08:32:23","orig_title":"The Mummy","year":"1932-12-22","translations":["Профессиональный (многоголосый закадровый)"],"quality":"bd","translation":"Профессиональный (многоголосый закадровый)","update":"2019-01-22 07:23:53","iframe_src":"//8543.svetacdn.in/71tsRs29n5tZ/movie/21455"},{"id":21454,"title":"М убийца","kp_id":"373","imdb_id":"tt0022100","world_art_id":null,"type":"movie","add":"2019-01-12 08:31:17","orig_title":"M - Eine Stadt sucht einen Mörder","year":"1931-05-11","translations":["Профессиональный (многоголосый закадровый)"],"quality":"bd","translation":"Профессиональный (многоголосый закадровый)","update":"2019-01-22 07:22:59","iframe_src":"//8543.svetacdn.in/71tsRs29n5tZ/movie/21454"},{"id":21452,"title":"Гранд Отель","kp_id":"7682","imdb_id":"tt0022958","world_art_id":null,"type":"movie","add":"2019-01-12 08:25:24","orig_title":"Grand Hotel","year":"1932-04-12","translations":["Профессиональный (многоголосый закадровый) (Фильм Престиж)"],"quality":"bd","translation":"Профессиональный (многоголосый закадровый) (Фильм Престиж)","update":"2019-01-22 06:02:29","iframe_src":"//8543.svetacdn.in/71tsRs29n5tZ/movie/21452"},{"id":21451,"title":"Франкенштейн","kp_id":"8360","imdb_id":"tt0021884","world_art_id":null,"type":"movie","add":"2019-01-12 08:24:18","orig_title":"Frankenstein","year":"1931-11-21","translations":["Профессиональный (многоголосый закадровый)"],"quality":"bd","translation":"Профессиональный (многоголосый закадровый)","update":"2019-01-22 06:01:22","iframe_src":"//8543.svetacdn.in/71tsRs29n5tZ/movie/21451"},{"id":21450,"title":"Дракула","kp_id":"8436","imdb_id":"tt0021814","world_art_id":null,"type":"movie","add":"2019-01-12 08:23:01","orig_title":"Dracula","year":"1931-02-12","translations":["Профессиональный (многоголосый закадровый)"],"quality":"bd","translation":"Профессиональный (многоголосый закадровый)","update":"2019-01-22 06:00:29","iframe_src":"//8543.svetacdn.in/71tsRs29n5tZ/movie/21450"},{"id":21449,"title":"Будю, спасенный из воды","kp_id":"154233","imdb_id":"tt0022718","world_art_id":null,"type":"movie","add":"2019-01-12 08:20:53","orig_title":"Boudu sauvé des eaux","year":"1932-11-11","translations":["Профессиональный (многоголосый закадровый) (Культура)"],"quality":"bd","translation":"Профессиональный (многоголосый закадровый) (Культура)","update":"2019-01-22 05:59:24","iframe_src":"//8543.svetacdn.in/71tsRs29n5tZ/movie/21449"},{"id":21448,"title":"На западном фронте без перемен","kp_id":"460","imdb_id":"tt0020629","world_art_id":null,"type":"movie","add":"2019-01-12 08:19:17","orig_title":"All Quiet on the Western Front","year":"1930-04-21","translations":["Профессиональный (многоголосый закадровый)"],"quality":"bd","translation":"Профессиональный (многоголосый закадровый)","update":"2019-01-22 05:58:06","iframe_src":"//8543.svetacdn.in/71tsRs29n5tZ/movie/21448"},{"id":20491,"title":"Колетт","kp_id":"963094","imdb_id":"tt5437928","world_art_id":null,"type":"movie","add":"2018-12-04 00:44:17","orig_title":"Colette","year":"2018-01-20","translations":["Любительский (многоголосый закадровый) (@MUZOBOZ@)","Профессиональный (многоголосый закадровый) (HDrezka Studio)","Полное дублирование"],"quality":"webdl","translation":"Любительский (многоголосый закадровый) (@MUZOBOZ@)","update":"2019-01-22 05:44:06","iframe_src":"//8543.svetacdn.in/71tsRs29n5tZ/movie/20491"},{"id":14784,"title":"Мир, полный чудес","kp_id":"960416","imdb_id":"tt5208216","world_art_id":null,"type":"movie","add":"2018-01-04 00:16:08","orig_title":"Wonderstruck","year":"2017-05-18","translations":["Профессиональный (многоголосый закадровый) (GreenРай Studio)","Любительский (многоголосый закадровый) (@MUZOBOZ@)","Любительский (одноголосый закадровый) (BadBajo)","Профессиональный (многоголосый закадровый) (Jaskier)"],"quality":"webdl","translation":"Профессиональный (многоголосый закадровый) (GreenРай Studio)","update":"2019-01-22 05:50:46","iframe_src":"//8543.svetacdn.in/71tsRs29n5tZ/movie/14784"}],"current_page":1548,"first_page_url":"https://videocdn.tv/api/short?limit=100&api_token=EnbO9h8pv1VyjbCJhg0WM9nG259n7mtz&cache31548=31548&page=1","from":154701,"last_page":610,"last_page_url":"https://videocdn.tv/api/short?limit=100&api_token=EnbO9h8pv1VyjbCJhg0WM9nG259n7mtz&cache31548=31548&page=610","next_page_url":null,"path":"https://videocdn.tv/api/short","per_page":100,"prev_page_url":"https://videocdn.tv/api/short?limit=100&api_token=EnbO9h8pv1VyjbCJhg0WM9nG259n7mtz&cache31548=31548&page=1547","to":154720,"total":60916}