{"result":true,"data":[{"id":51383,"title":"Прикасаясь вплотную","kp_id":"275386","imdb_id":"tt0497148","world_art_id":null,"type":"movie","add":"2021-06-23 15:56:43","orig_title":"À bras le corps","year":"2005-11-29","translations":["Любительский (одноголосый закадровый) (Водяной Александр)"],"quality":"webdl","translation":"Любительский (одноголосый закадровый) (Водяной Александр)","update":"2021-06-24 05:29:27","iframe_src":"//2413.svetacdn.in/si4jsFRrtgrT/movie/51383"},{"id":51372,"title":"Жажда мира","kp_id":"677938","imdb_id":"tt2364729","world_art_id":null,"type":"movie","add":"2021-06-23 09:19:02","orig_title":"La soif du monde","year":"2012-03-20","translations":["Авторский (одноголосый закадровый) (Курдов Владимир)"],"quality":"bd","translation":"Авторский (одноголосый закадровый) (Курдов Владимир)","update":"2021-06-24 06:26:10","iframe_src":"//2413.svetacdn.in/si4jsFRrtgrT/movie/51372"},{"id":51369,"title":"Приятный разговор","kp_id":"9241","imdb_id":"tt0090037","world_art_id":null,"type":"movie","add":"2021-06-23 07:27:12","orig_title":"Smooth Talk","year":"1985-09-10","translations":["Авторский (одноголосый закадровый) (Воротилин Олег)"],"quality":"bd","translation":"Авторский (одноголосый закадровый) (Воротилин Олег)","update":"2021-06-24 06:24:47","iframe_src":"//2413.svetacdn.in/si4jsFRrtgrT/movie/51369"},{"id":51365,"title":"История солдата 2: Воскрешение из мертвых","kp_id":"1113683","imdb_id":"tt7908426","world_art_id":null,"type":"movie","add":"2021-06-23 04:31:05","orig_title":"A Soldier's Story 2: Return from the Dead","year":"2020-12-11","translations":["Любительский (многоголосый закадровый) (Синема УС)"],"quality":"webdl","translation":"Любительский (многоголосый закадровый) (Синема УС)","update":"2021-06-23 20:19:04","iframe_src":"//2413.svetacdn.in/si4jsFRrtgrT/movie/51365"},{"id":51364,"title":"Нянька должна умереть","kp_id":"1342777","imdb_id":"tt11505682","world_art_id":null,"type":"movie","add":"2021-06-23 04:29:54","orig_title":"Josie Jane: Kill the Babysitter","year":"2020-10-23","translations":["Любительский (многоголосый закадровый) (@MUZOBOZ@)","Любительский (одноголосый закадровый) (datynet | Агапов Антон)"],"quality":"webdl","translation":"Любительский (многоголосый закадровый) (@MUZOBOZ@)","update":"2021-06-24 05:27:59","iframe_src":"//2413.svetacdn.in/si4jsFRrtgrT/movie/51364"},{"id":51353,"title":"Дом с деньгами","kp_id":"54344","imdb_id":"tt0175615","world_art_id":null,"type":"movie","add":"2021-06-22 17:16:49","orig_title":"Fleur d'oseille","year":"1967-09-22","translations":["Любительский (одноголосый закадровый) (dimadima)"],"quality":"bd","translation":"Любительский (одноголосый закадровый) (dimadima)","update":"2021-06-24 06:23:47","iframe_src":"//2413.svetacdn.in/si4jsFRrtgrT/movie/51353"},{"id":51351,"title":"Хищники океанов 3D","kp_id":"788422","imdb_id":"tt3241768","world_art_id":null,"type":"movie","add":"2021-06-22 11:40:19","orig_title":"Ocean Predators","year":"2013-11-12","translations":["Полное дублирование"],"quality":"bd","translation":"Полное дублирование","update":"2021-06-24 06:18:38","iframe_src":"//2413.svetacdn.in/si4jsFRrtgrT/movie/51351"},{"id":51350,"title":"Бурдж-Халифа. Вертикальный город","kp_id":null,"imdb_id":"tt4890496","world_art_id":null,"type":"movie","add":"2021-06-22 11:37:02","orig_title":"Burj Khalifa: Dubai's Vertical City","year":"2011-01-01","translations":["Профессиональный (двухголосый закадровый) (Видеофильм)"],"quality":"webdl","translation":"Профессиональный (двухголосый закадровый) (Видеофильм)","update":"2021-06-24 06:16:03","iframe_src":"//2413.svetacdn.in/si4jsFRrtgrT/movie/51350"},{"id":50357,"title":"Большой дом","kp_id":"3098","imdb_id":"tt0047879","world_art_id":null,"type":"movie","add":"2021-05-13 05:24:15","orig_title":"Big House, U.S.A.","year":"1955-03-03","translations":["Любительский (одноголосый закадровый) (rtys)","[EN] Original (English)"],"quality":"bd","translation":"Любительский (одноголосый закадровый) (rtys)","update":"2021-06-24 06:30:55","iframe_src":"//2413.svetacdn.in/si4jsFRrtgrT/movie/50357"},{"id":50307,"title":"Вместе-вместе","kp_id":"1321809","imdb_id":"tt11285280","world_art_id":null,"type":"movie","add":"2021-05-11 19:54:12","orig_title":"Together Together","year":"2021-01-31","translations":["Профессиональный (многоголосый закадровый) (iTunes)","[EN] Original (English)"],"quality":"webdl","translation":"Профессиональный (многоголосый закадровый) (iTunes)","update":"2021-06-24 05:31:31","iframe_src":"//2413.svetacdn.in/si4jsFRrtgrT/movie/50307"},{"id":35048,"title":"Душа на кожаном шнурке","kp_id":"997810","imdb_id":"tt5974624","world_art_id":null,"type":"movie","add":"2020-01-14 22:30:13","orig_title":"Pi sheng shang de hun","year":"2016-06-15","translations":["Любительский (одноголосый закадровый) (BadBajo | Важенин Андрей)","Любительский (одноголосый закадровый) (BadBajo | Важенин Андрей)"],"quality":"dvdrip","translation":"Любительский (одноголосый закадровый) (BadBajo | Важенин Андрей)","update":"2021-06-24 05:33:05","iframe_src":"//2413.svetacdn.in/si4jsFRrtgrT/movie/35048"},{"id":29309,"title":"Добровольцы","kp_id":"44239","imdb_id":"tt0051541","world_art_id":null,"type":"movie","add":"2019-07-23 06:33:28","orig_title":"Dobrovoltsy","year":"1958-10-20","translations":["Оригинальная дорожка","Оригинальная дорожка"],"quality":"dvdrip","translation":"Оригинальная дорожка","update":"2021-06-24 06:25:37","iframe_src":"//2413.svetacdn.in/si4jsFRrtgrT/movie/29309"},{"id":26833,"title":"Дом, в котором я живу","kp_id":"44270","imdb_id":"tt0167900","world_art_id":null,"type":"movie","add":"2019-05-21 17:28:50","orig_title":"Dom, v kotorom ya zhivu","year":"1957-12-23","translations":["Оригинальная дорожка","Оригинальная дорожка"],"quality":"dvdrip","translation":"Оригинальная дорожка","update":"2021-06-24 06:22:03","iframe_src":"//2413.svetacdn.in/si4jsFRrtgrT/movie/26833"},{"id":26354,"title":"Александр Маленький","kp_id":"43451","imdb_id":"tt0081998","world_art_id":null,"type":"movie","add":"2019-05-11 21:51:36","orig_title":"Aleksandr malenkiy","year":"1981-03-28","translations":["Оригинальная дорожка"],"quality":"webdl","translation":"Оригинальная дорожка","update":"2021-06-24 06:17:44","iframe_src":"//2413.svetacdn.in/si4jsFRrtgrT/movie/26354"},{"id":25180,"title":"Спокойный день в конце войны","kp_id":"43945","imdb_id":"tt0066399","world_art_id":null,"type":"movie","add":"2019-04-23 08:35:50","orig_title":"Spokoynyy den v kontse voyny","year":"1970-01-26","translations":["Оригинальная дорожка"],"quality":"webdl","translation":"Оригинальная дорожка","update":"2021-06-24 06:20:09","iframe_src":"//2413.svetacdn.in/si4jsFRrtgrT/movie/25180"},{"id":20396,"title":"Подчиняйся","kp_id":"1009440","imdb_id":"tt6145764","world_art_id":null,"type":"movie","add":"2018-11-30 00:15:13","orig_title":"Obey","year":"2018-04-22","translations":["Любительский (многоголосый закадровый) (Синема УС)","Любительский (двухголосый закадровый) (HiWayGrope)","Профессиональный (многоголосый закадровый) (HDrezka Studio)","Профессиональный (многоголосый закадровый) (HDrezka Studio)"],"quality":"webdl","translation":"Любительский (многоголосый закадровый) (Синема УС)","update":"2021-06-23 20:21:16","iframe_src":"//2413.svetacdn.in/si4jsFRrtgrT/movie/20396"},{"id":20362,"title":"Без тебя","kp_id":"271969","imdb_id":"tt0290326","world_art_id":null,"type":"movie","add":"2018-11-29 08:47:24","orig_title":"Tum Bin...: Love Will Find a Way","year":"2001-07-13","translations":["Профессиональный (двухголосый закадровый)","Профессиональный (двухголосый закадровый)"],"quality":"webdl","translation":"Профессиональный (двухголосый закадровый)","update":"2021-06-23 22:24:31","iframe_src":"//2413.svetacdn.in/si4jsFRrtgrT/movie/20362"},{"id":19600,"title":"Мадмуазель Паради","kp_id":"973126","imdb_id":"tt5584756","world_art_id":null,"type":"movie","add":"2018-10-16 23:36:26","orig_title":"Mademoiselle Paradis","year":"2017-09-08","translations":["Любительский (многоголосый закадровый) (Синема УС)","Любительский (двухголосый закадровый) (LakeFilms)","Профессиональный (многоголосый закадровый) (HDrezka Studio)"],"quality":"bd","translation":"Любительский (многоголосый закадровый) (Синема УС)","update":"2021-06-23 20:19:39","iframe_src":"//2413.svetacdn.in/si4jsFRrtgrT/movie/19600"},{"id":14320,"title":"Квадрат","kp_id":"980367","imdb_id":"tt4995790","world_art_id":null,"type":"movie","add":"2017-11-11 18:30:52","orig_title":"The Square","year":"2017-05-20","translations":["Любительский (многоголосый закадровый) (Синема УС)","Профессиональный (многоголосый закадровый)","Профессиональный (многоголосый закадровый) (Мельница)","Профессиональный (многоголосый закадровый) (AB-Video)"],"quality":"webdl","translation":"Любительский (многоголосый закадровый) (Синема УС)","update":"2021-06-24 06:22:45","iframe_src":"//2413.svetacdn.in/si4jsFRrtgrT/movie/14320"},{"id":520,"title":"Даша и друзья: приключения в городе","kp_id":"943868","imdb_id":"tt4048256","world_art_id":null,"type":"serial","add":"2016-10-07 10:12:12","orig_title":"Dora and Friends: Into the City","year":"2014-08-18","translations":["Полное дублирование"],"seasons_count":1,"episodes_count":17,"episodes":17,"update":"2016-10-08 16:59:21","iframe_src":"//2413.svetacdn.in/si4jsFRrtgrT/tv-series/520"},{"id":514,"title":"Кризис в шести сценах","kp_id":"885605","imdb_id":"tt4354616","world_art_id":null,"type":"serial","add":"2016-10-06 06:08:27","orig_title":"Crisis in Six Scenes","year":"2016-09-30","translations":["Профессиональный (многоголосый закадровый) (BaibaKo)"],"seasons_count":1,"episodes_count":6,"episodes":6,"update":"2016-10-06 11:11:45","iframe_src":"//2413.svetacdn.in/si4jsFRrtgrT/tv-series/514"},{"id":510,"title":"Призраки","kp_id":"596357","imdb_id":"tt1772379","world_art_id":null,"type":"serial","add":"2016-10-04 19:06:37","orig_title":"The Fades","year":"2011-09-11","translations":["Профессиональный (многоголосый закадровый) (AlexFilm)"],"seasons_count":1,"episodes_count":6,"episodes":6,"update":"2016-10-05 05:32:38","iframe_src":"//2413.svetacdn.in/si4jsFRrtgrT/tv-series/510"},{"id":509,"title":"Конец парада","kp_id":"592391","imdb_id":"tt1956017","world_art_id":null,"type":"serial","add":"2016-10-04 18:45:50","orig_title":"Parade's End","year":"2012-08-24","translations":["Профессиональный (многоголосый закадровый) (BaibaKo)"],"seasons_count":1,"episodes_count":5,"episodes":5,"update":"2016-10-05 05:39:00","iframe_src":"//2413.svetacdn.in/si4jsFRrtgrT/tv-series/509"},{"id":508,"title":"Вместе","kp_id":"818783","imdb_id":"tt3061830","world_art_id":null,"type":"serial","add":"2016-10-04 06:18:57","orig_title":"Togetherness","year":"2015-01-11","translations":["Профессиональный (многоголосый закадровый) (Amedia)"],"seasons_count":2,"episodes_count":16,"episodes":8,"update":"2016-10-05 07:20:55","iframe_src":"//2413.svetacdn.in/si4jsFRrtgrT/tv-series/508"},{"id":506,"title":"Дипломат","kp_id":"446048","imdb_id":"tt1090903","world_art_id":null,"type":"serial","add":"2016-10-04 06:09:59","orig_title":"False Witness","year":"2009-01-11","translations":["Профессиональный (двухголосый закадровый)"],"seasons_count":1,"episodes_count":2,"episodes":2,"update":"2016-10-05 05:34:15","iframe_src":"//2413.svetacdn.in/si4jsFRrtgrT/tv-series/506"},{"id":503,"title":"Хэтфилды и МакКои","kp_id":"666906","imdb_id":"tt1985443","world_art_id":null,"type":"serial","add":"2016-10-03 13:44:37","orig_title":"Hatfields & McCoys","year":"2012-05-28","translations":["Профессиональный (многоголосый закадровый) (AlexFilm)"],"seasons_count":1,"episodes_count":3,"episodes":3,"update":"2016-10-04 07:32:33","iframe_src":"//2413.svetacdn.in/si4jsFRrtgrT/tv-series/503"},{"id":500,"title":"Случай в Кеттеринге","kp_id":"891601","imdb_id":"tt4228802","world_art_id":null,"type":"serial","add":"2016-10-03 13:28:36","orig_title":"The Kettering Incident","year":"2016-07-04","translations":["Профессиональный (многоголосый закадровый) (ViruseProject)"],"seasons_count":1,"episodes_count":8,"episodes":8,"update":"2016-10-04 08:31:24","iframe_src":"//2413.svetacdn.in/si4jsFRrtgrT/tv-series/500"},{"id":499,"title":"Неваляшка","kp_id":"1002692","imdb_id":null,"world_art_id":null,"type":"serial","add":"2016-10-03 07:09:24","orig_title":"Неваляшка","year":"2016-10-01","translations":["Оригинальная дорожка"],"seasons_count":1,"episodes_count":2,"episodes":2,"update":"2016-10-03 12:02:29","iframe_src":"//2413.svetacdn.in/si4jsFRrtgrT/tv-series/499"},{"id":498,"title":"Хирургия. Территория любви","kp_id":"1005012","imdb_id":null,"world_art_id":null,"type":"serial","add":"2016-10-03 07:06:58","orig_title":"Хирургия. Территория любви","year":"2016-10-02","translations":["Оригинальная дорожка"],"seasons_count":1,"episodes_count":4,"episodes":4,"update":"2016-10-03 11:06:11","iframe_src":"//2413.svetacdn.in/si4jsFRrtgrT/tv-series/498"},{"id":497,"title":"Перчатка Авроры","kp_id":"986627","imdb_id":null,"world_art_id":null,"type":"serial","add":"2016-10-03 06:58:40","orig_title":"Перчатка Авроры","year":"2016-10-02","translations":["Оригинальная дорожка"],"seasons_count":1,"episodes_count":4,"episodes":4,"update":"2016-10-03 11:39:57","iframe_src":"//2413.svetacdn.in/si4jsFRrtgrT/tv-series/497"},{"id":496,"title":"Осколки счастья","kp_id":"842592","imdb_id":null,"world_art_id":null,"type":"serial","add":"2016-10-03 06:26:45","orig_title":"Осколки счастья","year":"2015-03-29","translations":["Оригинальная дорожка"],"seasons_count":2,"episodes_count":8,"episodes":4,"update":"2016-10-03 10:22:15","iframe_src":"//2413.svetacdn.in/si4jsFRrtgrT/tv-series/496"},{"id":493,"title":"Белый воротничок","kp_id":"445186","imdb_id":"tt1358522","world_art_id":null,"type":"serial","add":"2016-09-28 10:58:32","orig_title":"White Collar","year":"2009-10-23","translations":["Профессиональный (многоголосый закадровый) (Первый канал | ОРТ)","Профессиональный (многоголосый закадровый) (TVShows)","Профессиональный (многоголосый закадровый) (Fox Life)","Любительский (одноголосый закадровый) (MaxMeister)","Профессиональный (многоголосый закадровый) (NewStudio)","Любительский (многоголосый закадровый) (Gramalant)"],"seasons_count":6,"episodes_count":81,"episodes":6,"update":"2016-10-03 11:06:38","iframe_src":"//2413.svetacdn.in/si4jsFRrtgrT/tv-series/493"},{"id":491,"title":"Беженка","kp_id":null,"imdb_id":null,"world_art_id":null,"type":"serial","add":"2016-09-27 05:46:57","orig_title":"Беженка","year":"2016-09-25","translations":["Оригинальная дорожка"],"seasons_count":1,"episodes_count":4,"episodes":4,"update":"2016-09-27 07:50:23","iframe_src":"//2413.svetacdn.in/si4jsFRrtgrT/tv-series/491"},{"id":489,"title":"Идеальный брак","kp_id":"693938","imdb_id":"tt3512106","world_art_id":null,"type":"serial","add":"2016-09-27 05:32:16","orig_title":"Idealnyy brak","year":"2013-04-01","translations":["Оригинальная дорожка"],"seasons_count":1,"episodes_count":8,"episodes":8,"update":"2016-09-27 10:49:44","iframe_src":"//2413.svetacdn.in/si4jsFRrtgrT/tv-series/489"},{"id":487,"title":"Агент Икс","kp_id":"824033","imdb_id":"tt3499120","world_art_id":null,"type":"serial","add":"2016-09-26 06:48:14","orig_title":"Agent X","year":"2015-11-08","translations":["Профессиональный (двухголосый закадровый) (Gears Media)"],"seasons_count":1,"episodes_count":10,"episodes":10,"update":"2016-09-28 11:41:08","iframe_src":"//2413.svetacdn.in/si4jsFRrtgrT/tv-series/487"},{"id":481,"title":"Любовь как стихийное бедствие","kp_id":"1001700","imdb_id":null,"world_art_id":null,"type":"serial","add":"2016-09-25 14:58:19","orig_title":"Любовь как стихийное бедствие","year":"2016-09-24","translations":["Оригинальная дорожка"],"seasons_count":1,"episodes_count":2,"episodes":2,"update":"2016-09-27 14:40:55","iframe_src":"//2413.svetacdn.in/si4jsFRrtgrT/tv-series/481"},{"id":476,"title":"Укушенная","kp_id":"799284","imdb_id":"tt2365946","world_art_id":null,"type":"serial","add":"2016-09-23 09:38:08","orig_title":"Bitten","year":"2014-01-11","translations":["Профессиональный (многоголосый закадровый) (LostFilm)"],"seasons_count":3,"episodes_count":33,"episodes":10,"update":"2016-09-30 09:12:42","iframe_src":"//2413.svetacdn.in/si4jsFRrtgrT/tv-series/476"},{"id":471,"title":"Клан Кеннеди","kp_id":"573358","imdb_id":"tt1567215","world_art_id":null,"type":"serial","add":"2016-09-22 16:13:56","orig_title":"The Kennedys","year":"2011-04-03","translations":["Профессиональный (многоголосый закадровый) (LostFilm)"],"seasons_count":1,"episodes_count":8,"episodes":8,"update":"2016-09-27 08:44:27","iframe_src":"//2413.svetacdn.in/si4jsFRrtgrT/tv-series/471"},{"id":460,"title":"Женский детектив","kp_id":"935930","imdb_id":null,"world_art_id":null,"type":"serial","add":"2016-09-19 13:39:16","orig_title":"Женский детектив","year":"2016-01-01","translations":["Оригинальная дорожка"],"seasons_count":1,"episodes_count":20,"episodes":20,"update":"2016-09-28 17:45:51","iframe_src":"//2413.svetacdn.in/si4jsFRrtgrT/tv-series/460"},{"id":1473,"title":"Я есть гнев","kp_id":"800676","imdb_id":"tt3212232","world_art_id":null,"type":"movie","add":"2016-04-22 06:06:23","orig_title":"I Am Wrath","year":"2016-04-14","translations":["Любительский (многоголосый закадровый)","Любительский (двухголосый закадровый)","Авторский (одноголосый закадровый) (Котов Вячеслав)"],"quality":"webdl","translation":"Любительский (многоголосый закадровый)","update":"2021-06-24 06:20:09","iframe_src":"//2413.svetacdn.in/si4jsFRrtgrT/movie/1473"}],"current_page":612,"first_page_url":"https://videocdn.tv/api/short?limit=100&api_token=X6EwAUfE5M9xbo7y0Bp0aPf3uXxG2KLL&cache3612=3612&page=1","from":61101,"last_page":724,"last_page_url":"https://videocdn.tv/api/short?limit=100&api_token=X6EwAUfE5M9xbo7y0Bp0aPf3uXxG2KLL&cache3612=3612&page=724","next_page_url":"https://videocdn.tv/api/short?limit=100&api_token=X6EwAUfE5M9xbo7y0Bp0aPf3uXxG2KLL&cache3612=3612&page=613","path":"https://videocdn.tv/api/short","per_page":100,"prev_page_url":"https://videocdn.tv/api/short?limit=100&api_token=X6EwAUfE5M9xbo7y0Bp0aPf3uXxG2KLL&cache3612=3612&page=611","to":61140,"total":72342}