{"result":true,"data":[{"id":43990,"title":"Неоновые дни","kp_id":"1131326","imdb_id":"tt7656446","world_art_id":null,"type":"movie","add":"2020-09-29 21:03:22","orig_title":"Neon Days","year":"2019-03-01","translations":["Любительский (многоголосый закадровый) (AlphaProject)"],"quality":"webdl","translation":"Любительский (многоголосый закадровый) (AlphaProject)","update":"2020-09-30 06:38:08","iframe_src":"//8209.svetacdn.in/IAF0wWTdNYZm/movie/43990"},{"id":43986,"title":"Рождество красавицы и чудовища","kp_id":"1302429","imdb_id":"tt10925838","world_art_id":null,"type":"movie","add":"2020-09-29 19:16:18","orig_title":"A Beauty & The Beast Christmas","year":"2019-12-15","translations":["Любительский (многоголосый закадровый) (Синема УС)"],"quality":"hdtv","translation":"Любительский (многоголосый закадровый) (Синема УС)","update":"2020-09-30 07:09:03","iframe_src":"//8209.svetacdn.in/IAF0wWTdNYZm/movie/43986"},{"id":43982,"title":"Оседлай свою мечту","kp_id":null,"imdb_id":"tt12759310","world_art_id":null,"type":"movie","add":"2020-09-29 19:10:16","orig_title":"Ride Your Dream","year":"2020-09-17","translations":["Любительский (многоголосый закадровый) (Синема УС)"],"quality":"webdl","translation":"Любительский (многоголосый закадровый) (Синема УС)","update":"2020-09-30 07:10:02","iframe_src":"//8209.svetacdn.in/IAF0wWTdNYZm/movie/43982"},{"id":43981,"title":"Стена","kp_id":"1178985","imdb_id":"tt8814620","world_art_id":null,"type":"movie","add":"2020-09-29 19:07:56","orig_title":"Muralla","year":"2018-09-22","translations":["Любительский (многоголосый закадровый) (Синема УС)"],"quality":"webdl","translation":"Любительский (многоголосый закадровый) (Синема УС)","update":"2020-09-30 07:10:32","iframe_src":"//8209.svetacdn.in/IAF0wWTdNYZm/movie/43981"},{"id":42616,"title":"Абсолютно точно","kp_id":"1590","imdb_id":"tt0090103","world_art_id":null,"type":"movie","add":"2020-08-20 17:42:20","orig_title":"The Sure Thing","year":"1985-02-09","translations":["Профессиональный (двухголосый закадровый) (Elrom)","Original (English)"],"quality":"bd","translation":"Профессиональный (двухголосый закадровый) (Elrom)","update":"2020-09-30 07:38:41","iframe_src":"//8209.svetacdn.in/IAF0wWTdNYZm/movie/42616"},{"id":42600,"title":"Малыш-мотоциклист","kp_id":"47712","imdb_id":"tt0090948","world_art_id":null,"type":"movie","add":"2020-08-20 17:04:46","orig_title":"The Dirt Bike Kid","year":"1985-11-01","translations":["Авторский (одноголосый закадровый) (Живов Юрий)","Original (English)"],"quality":"bd","translation":"Авторский (одноголосый закадровый) (Живов Юрий)","update":"2020-09-30 07:39:54","iframe_src":"//8209.svetacdn.in/IAF0wWTdNYZm/movie/42600"},{"id":42599,"title":"Окраплённый университет","kp_id":"78269","imdb_id":"tt0125510","world_art_id":null,"type":"movie","add":"2020-08-20 17:03:39","orig_title":"Splatter University","year":"1984-07-13","translations":["Авторский (одноголосый закадровый) (Дольский Андрей)","Original (English)"],"quality":"bd","translation":"Авторский (одноголосый закадровый) (Дольский Андрей)","update":"2020-09-30 07:40:51","iframe_src":"//8209.svetacdn.in/IAF0wWTdNYZm/movie/42599"},{"id":42554,"title":"Инцидент в Фениксе","kp_id":"881353","imdb_id":"tt4341532","world_art_id":null,"type":"movie","add":"2020-08-18 05:46:59","orig_title":"The Phoenix Incident","year":"2015-06-16","translations":["Профессиональный (двухголосый закадровый) (ViruseProject)","Original (English)"],"quality":"webdl","translation":"Профессиональный (двухголосый закадровый) (ViruseProject)","update":"2020-09-30 07:19:12","iframe_src":"//8209.svetacdn.in/IAF0wWTdNYZm/movie/42554"},{"id":42509,"title":"Майкл Джексон: Жизнь поп-иконы","kp_id":"626829","imdb_id":"tt2113007","world_art_id":null,"type":"movie","add":"2020-08-16 16:03:28","orig_title":"Michael Jackson: The Life of an Icon","year":"2011-11-02","translations":["Профессиональный (многоголосый закадровый)","Original (English)"],"quality":"bd","translation":"Профессиональный (многоголосый закадровый)","update":"2020-09-30 07:42:22","iframe_src":"//8209.svetacdn.in/IAF0wWTdNYZm/movie/42509"},{"id":42444,"title":"Кельтские саги: Охотник за костями","kp_id":"195458","imdb_id":"tt0459220","world_art_id":null,"type":"movie","add":"2020-08-13 07:10:26","orig_title":"The Bone Hunter","year":"2003-01-01","translations":["Профессиональный (многоголосый закадровый)","Original (English)"],"quality":"dvdrip","translation":"Профессиональный (многоголосый закадровый)","update":"2020-09-30 07:37:48","iframe_src":"//8209.svetacdn.in/IAF0wWTdNYZm/movie/42444"},{"id":42443,"title":"Кельтские саги","kp_id":"23063","imdb_id":"tt0312032","world_art_id":null,"type":"movie","add":"2020-08-13 07:08:01","orig_title":"The Winter Warrior","year":"2003-05-15","translations":["Профессиональный (многоголосый закадровый)","Original (English)"],"quality":"dvdrip","translation":"Профессиональный (многоголосый закадровый)","update":"2020-09-30 07:36:45","iframe_src":"//8209.svetacdn.in/IAF0wWTdNYZm/movie/42443"},{"id":42353,"title":"Банда ангелов","kp_id":"15685","imdb_id":"tt0050166","world_art_id":null,"type":"movie","add":"2020-08-07 12:16:29","orig_title":"Band of Angels","year":"1957-08-03","translations":["Профессиональный (многоголосый закадровый) (СВ-Дубль)","Original (English)"],"quality":"webdl","translation":"Профессиональный (многоголосый закадровый) (СВ-Дубль)","update":"2020-09-30 07:34:46","iframe_src":"//8209.svetacdn.in/IAF0wWTdNYZm/movie/42353"},{"id":42351,"title":"Карающий","kp_id":"38495","imdb_id":"tt0281811","world_art_id":null,"type":"movie","add":"2020-08-07 12:13:29","orig_title":"Disaster","year":"2003-04-17","translations":["Авторский (одноголосый закадровый) (Сербин Юрий)","Original (English)"],"quality":"webdl","translation":"Авторский (одноголосый закадровый) (Сербин Юрий)","update":"2020-09-30 07:25:27","iframe_src":"//8209.svetacdn.in/IAF0wWTdNYZm/movie/42351"},{"id":42350,"title":"Грохот барабанов","kp_id":"13600","imdb_id":"tt0055524","world_art_id":null,"type":"movie","add":"2020-08-07 12:10:37","orig_title":"A Thunder of Drums","year":"1961-09-26","translations":["Авторский (одноголосый закадровый) (Алексеев Антон)","Original (English)"],"quality":"webdl","translation":"Авторский (одноголосый закадровый) (Алексеев Антон)","update":"2020-09-30 07:35:46","iframe_src":"//8209.svetacdn.in/IAF0wWTdNYZm/movie/42350"},{"id":21554,"title":"Разрушители","kp_id":"518003","imdb_id":"tt1650028","world_art_id":null,"type":"movie","add":"2019-01-16 16:03:49","orig_title":"Wreckers","year":"2011-12-16","translations":["Профессиональный (многоголосый закадровый)","Профессиональный (двухголосый закадровый)","Original (English)"],"quality":"webdl","translation":"Профессиональный (многоголосый закадровый)","update":"2020-09-30 07:18:04","iframe_src":"//8209.svetacdn.in/IAF0wWTdNYZm/movie/21554"},{"id":13798,"title":"Холодная Луна","kp_id":"893547","imdb_id":"tt4441098","world_art_id":null,"type":"movie","add":"2017-10-09 22:57:36","orig_title":"Cold Moon","year":"2016-05-27","translations":["Любительский (многоголосый закадровый) (Синема УС)","Любительский (многоголосый закадровый) (@MUZOBOZ@)","Original (English)"],"quality":"webdl","translation":"Любительский (многоголосый закадровый) (Синема УС)","update":"2020-09-30 07:27:30","iframe_src":"//8209.svetacdn.in/IAF0wWTdNYZm/movie/13798"},{"id":10965,"title":"Серые небеса","kp_id":"495183","imdb_id":"tt1568332","world_art_id":null,"type":"movie","add":"2017-04-13 22:06:04","orig_title":"Grey Skies","year":"2010-04-13","translations":["Профессиональный (многоголосый закадровый)","Профессиональный (многоголосый закадровый)","Original (English)"],"quality":"sat","translation":"Профессиональный (многоголосый закадровый)","update":"2020-09-30 07:24:18","iframe_src":"//8209.svetacdn.in/IAF0wWTdNYZm/movie/10965"},{"id":8102,"title":"Джек-медведь","kp_id":"12281","imdb_id":"tt0107247","world_art_id":null,"type":"movie","add":"2016-12-17 08:39:32","orig_title":"Jack the Bear","year":"1993-04-02","translations":["Профессиональный (многоголосый закадровый) (Первый канал | ОРТ)","Профессиональный (многоголосый закадровый) (Первый канал | ОРТ)","Original (English)"],"quality":"hdtv","translation":"Профессиональный (многоголосый закадровый) (Первый канал | ОРТ)","update":"2020-09-30 07:20:12","iframe_src":"//8209.svetacdn.in/IAF0wWTdNYZm/movie/8102"},{"id":3379,"title":"Ангелы Чарли 2: Только вперед","kp_id":"1795","imdb_id":"tt0305357","world_art_id":null,"type":"movie","add":"2016-06-27 10:05:18","orig_title":"Charlie's Angels: Full Throttle","year":"2003-06-18","translations":["Полное дублирование","Полное дублирование","Original (English)"],"quality":"bd","translation":"Полное дублирование","update":"2020-09-30 07:29:39","iframe_src":"//8209.svetacdn.in/IAF0wWTdNYZm/movie/3379"},{"id":3139,"title":"Титаник","kp_id":"2213","imdb_id":"tt0120338","world_art_id":null,"type":"movie","add":"2016-06-15 09:47:36","orig_title":"Titanic","year":"1997-11-01","translations":["Полное дублирование","Original (English)","Авторский (одноголосый закадровый) (Гаврилов Андрей)","Авторский (одноголосый закадровый) (Кашкин Александр | Первомайский)","Авторский (одноголосый закадровый) (Сербин Юрий)","Авторский (одноголосый закадровый) (Визгунов Сергей)","Авторский (одноголосый закадровый) (Живов Юрий)","Original (English)","Любительский (одноголосый закадровый) (Антонов Николай)","Профессиональный (двухголосый закадровый) (Гланц + Королёва)","Профессиональный (двухголосый закадровый) (НТВ)","Профессиональный (многоголосый закадровый) (Киномания)"],"quality":"bd","translation":"Полное дублирование","update":"2020-09-30 07:01:07","iframe_src":"//8209.svetacdn.in/IAF0wWTdNYZm/movie/3139"}],"current_page":603,"first_page_url":"https://videocdn.tv/api/short?limit=100&api_token=6Onb1W1alEUrBcKJZD3GoKBbWyAl2uG2&cache3603=3603&page=1","from":60201,"last_page":655,"last_page_url":"https://videocdn.tv/api/short?limit=100&api_token=6Onb1W1alEUrBcKJZD3GoKBbWyAl2uG2&cache3603=3603&page=655","next_page_url":"https://videocdn.tv/api/short?limit=100&api_token=6Onb1W1alEUrBcKJZD3GoKBbWyAl2uG2&cache3603=3603&page=604","path":"https://videocdn.tv/api/short","per_page":100,"prev_page_url":"https://videocdn.tv/api/short?limit=100&api_token=6Onb1W1alEUrBcKJZD3GoKBbWyAl2uG2&cache3603=3603&page=602","to":60220,"total":65403}