{"result":true,"data":[{"id":54814,"title":"Сладкий пирог","kp_id":"814012","imdb_id":null,"world_art_id":null,"type":"movie","add":"2021-11-24 08:00:16","orig_title":"Сладкий пирог","year":"1937-01-01","translations":["Оригинальная дорожка"],"quality":"webdl","translation":"Оригинальная дорожка","update":"2021-11-24 11:55:26","iframe_src":"//7741.svetacdn.in/71tsRs29n5tZ/movie/54814"},{"id":54811,"title":"Скотланд Ярд против доктора Мабузе","kp_id":"57214","imdb_id":"tt0057479","world_art_id":null,"type":"movie","add":"2021-11-24 06:06:16","orig_title":"Scotland Yard jagt Dr. Mabuse","year":"1963-09-20","translations":["Профессиональный (многоголосый закадровый) (5-й канал СПб)"],"quality":"bd","translation":"Профессиональный (многоголосый закадровый) (5-й канал СПб)","update":"2021-11-24 13:25:44","iframe_src":"//7741.svetacdn.in/71tsRs29n5tZ/movie/54811"},{"id":54809,"title":"Их поменяли мозгами","kp_id":"5937","imdb_id":"tt0164192","world_art_id":null,"type":"movie","add":"2021-11-24 06:01:58","orig_title":"Big Monster on Campus","year":"2000-02-25","translations":["[EN] Original (English)","Профессиональный (двухголосый закадровый) (НТВ)"],"quality":"webdl","translation":"[EN] Original (English)","update":"2021-11-24 13:12:22","iframe_src":"//7741.svetacdn.in/71tsRs29n5tZ/movie/54809"},{"id":54794,"title":"Рождество в гармонии","kp_id":"4632319","imdb_id":"tt15425920","world_art_id":null,"type":"movie","add":"2021-11-23 20:10:25","orig_title":"Christmas in Harmony","year":"2021-10-29","translations":["Любительский (многоголосый закадровый) (Синема УС)"],"quality":"hdtv","translation":"Любительский (многоголосый закадровый) (Синема УС)","update":"2021-11-24 06:50:11","iframe_src":"//7741.svetacdn.in/71tsRs29n5tZ/movie/54794"},{"id":54790,"title":"Карамельное Рождество","kp_id":"4633220","imdb_id":"tt15302344","world_art_id":null,"type":"movie","add":"2021-11-23 20:05:07","orig_title":"Candy Coated Christmas","year":"2021-11-19","translations":["Любительский (многоголосый закадровый) (Синема УС)"],"quality":"webdl","translation":"Любительский (многоголосый закадровый) (Синема УС)","update":"2021-11-24 06:49:11","iframe_src":"//7741.svetacdn.in/71tsRs29n5tZ/movie/54790"},{"id":54789,"title":"Рождественский Купидон","kp_id":"1352515","imdb_id":"tt11877948","world_art_id":null,"type":"movie","add":"2021-11-23 20:03:54","orig_title":"Cupid for Christmas","year":"2021-01-01","translations":["Любительский (многоголосый закадровый) (Синема УС)"],"quality":"webdl","translation":"Любительский (многоголосый закадровый) (Синема УС)","update":"2021-11-24 06:51:31","iframe_src":"//7741.svetacdn.in/71tsRs29n5tZ/movie/54789"},{"id":54788,"title":"Убийственные дебютантки: Ночь, за которую стоит умереть","kp_id":"4437965","imdb_id":"tt14576760","world_art_id":null,"type":"movie","add":"2021-11-23 20:02:05","orig_title":"Deadly Debutantes: A Night to Die For","year":"2021-09-25","translations":["Любительский (многоголосый закадровый) (Синема УС)"],"quality":"webdl","translation":"Любительский (многоголосый закадровый) (Синема УС)","update":"2021-11-24 06:51:14","iframe_src":"//7741.svetacdn.in/71tsRs29n5tZ/movie/54788"},{"id":54787,"title":"Подстава","kp_id":"4412636","imdb_id":"tt14012734","world_art_id":null,"type":"movie","add":"2021-11-23 20:00:32","orig_title":"Fixed","year":"2021-11-22","translations":["Любительский (многоголосый закадровый) (@MUZOBOZ@)"],"quality":"webdl","translation":"Любительский (многоголосый закадровый) (@MUZOBOZ@)","update":"2021-11-24 06:47:32","iframe_src":"//7741.svetacdn.in/71tsRs29n5tZ/movie/54787"},{"id":54771,"title":"Опасные роды","kp_id":"4673406","imdb_id":"tt15653954","world_art_id":null,"type":"movie","add":"2021-11-23 05:48:31","orig_title":"Deadly Due Date","year":"2021-10-29","translations":["Любительский (многоголосый закадровый) (AlphaProject)"],"quality":"webdl","translation":"Любительский (многоголосый закадровый) (AlphaProject)","update":"2021-11-23 20:36:15","iframe_src":"//7741.svetacdn.in/71tsRs29n5tZ/movie/54771"},{"id":54770,"title":"Лос-Анджелес","kp_id":"1309464","imdb_id":"tt11057572","world_art_id":null,"type":"movie","add":"2021-11-23 05:44:19","orig_title":"Los Angeles","year":"2021-11-07","translations":["Любительский (многоголосый закадровый) (Синема УС)"],"quality":"webdl","translation":"Любительский (многоголосый закадровый) (Синема УС)","update":"2021-11-23 20:37:07","iframe_src":"//7741.svetacdn.in/71tsRs29n5tZ/movie/54770"},{"id":54769,"title":"Возвращение Годзиллы","kp_id":"1198078","imdb_id":"tt9015178","world_art_id":null,"type":"movie","add":"2021-11-22 23:15:59","orig_title":"Gojira","year":"1984-12-15","translations":["Любительский (одноголосый закадровый)"],"quality":"bd","translation":"Любительский (одноголосый закадровый)","update":"2021-11-23 16:59:24","iframe_src":"//7741.svetacdn.in/71tsRs29n5tZ/movie/54769"},{"id":54768,"title":"Террор Мехагодзиллы","kp_id":"153891","imdb_id":"tt0073373","world_art_id":null,"type":"movie","add":"2021-11-22 23:05:49","orig_title":"Mekagojira no gyakushu","year":"1975-03-15","translations":["Любительский (одноголосый закадровый) (Pr0peLLer)"],"quality":"bd","translation":"Любительский (одноголосый закадровый) (Pr0peLLer)","update":"2021-11-23 15:09:00","iframe_src":"//7741.svetacdn.in/71tsRs29n5tZ/movie/54768"},{"id":54712,"title":"Центр мира","kp_id":"23542","imdb_id":"tt0240402","world_art_id":null,"type":"movie","add":"2021-11-21 06:42:06","orig_title":"The Center of the World","year":"2001-04-19","translations":["Любительский (одноголосый закадровый)","[EN] Original (English)"],"quality":"webdl","translation":"Любительский (одноголосый закадровый)","update":"2021-11-23 14:55:52","iframe_src":"//7741.svetacdn.in/71tsRs29n5tZ/movie/54712"},{"id":54634,"title":"Под открытым небом","kp_id":"1395450","imdb_id":"tt12801374","world_art_id":null,"type":"movie","add":"2021-11-18 05:31:30","orig_title":"Subarashiki Sekai","year":"2020-09-10","translations":["Любительский (одноголосый закадровый) (BadBajo | Важенин Андрей)","Любительский (многоголосый закадровый) (Синема УС)"],"quality":"bd","translation":"Любительский (одноголосый закадровый) (BadBajo | Важенин Андрей)","update":"2021-11-24 06:53:11","iframe_src":"//7741.svetacdn.in/71tsRs29n5tZ/movie/54634"},{"id":9204,"title":"Скорая помощь 2","kp_id":"1345697","imdb_id":null,"world_art_id":null,"type":"serial","add":"2020-11-05 10:47:20","orig_title":"Скорая помощь 2","year":"2019-10-28","translations":["Оригинальная дорожка"],"seasons_count":1,"episodes_count":20,"episodes":20,"update":"2020-11-05 16:20:52","iframe_src":"//7741.svetacdn.in/71tsRs29n5tZ/tv-series/9204"},{"id":9203,"title":"Неправильная мама","kp_id":"891677","imdb_id":"tt4324796","world_art_id":null,"type":"serial","add":"2020-11-05 09:58:18","orig_title":"Odd Mom Out","year":"2015-06-08","translations":["Профессиональный (многоголосый закадровый) (ViruseProject)"],"seasons_count":3,"episodes_count":29,"episodes":10,"update":"2020-11-06 15:08:42","iframe_src":"//7741.svetacdn.in/71tsRs29n5tZ/tv-series/9203"},{"id":9199,"title":"Серёжки с сапфирами","kp_id":"1399244","imdb_id":null,"world_art_id":null,"type":"serial","add":"2020-11-04 18:29:10","orig_title":"Серёжки с сапфирами","year":"2020-11-04","translations":["Оригинальная дорожка"],"seasons_count":1,"episodes_count":4,"episodes":4,"update":"2020-11-05 08:16:48","iframe_src":"//7741.svetacdn.in/71tsRs29n5tZ/tv-series/9199"},{"id":9190,"title":"Игрушки","kp_id":"468239","imdb_id":"tt3136238","world_art_id":null,"type":"serial","add":"2020-11-04 08:00:47","orig_title":"Igrushki","year":"2010-04-05","translations":["Оригинальная дорожка"],"seasons_count":2,"episodes_count":40,"episodes":20,"update":"2020-11-06 12:25:20","iframe_src":"//7741.svetacdn.in/71tsRs29n5tZ/tv-series/9190"},{"id":9185,"title":"Мелочи жизни","kp_id":"405656","imdb_id":"tt0103490","world_art_id":null,"type":"serial","add":"2020-11-03 12:50:26","orig_title":"Melochi zhizni","year":"1992-01-01","translations":["Оригинальная дорожка"],"seasons_count":1,"episodes_count":74,"episodes":74,"update":"2020-11-06 12:15:40","iframe_src":"//7741.svetacdn.in/71tsRs29n5tZ/tv-series/9185"},{"id":9183,"title":"Цыганка","kp_id":"255347","imdb_id":"tt0199287","world_art_id":null,"type":"serial","add":"2020-11-02 21:29:15","orig_title":"Zíngara","year":"1996-03-11","translations":["Профессиональный (многоголосый закадровый)"],"seasons_count":1,"episodes_count":202,"episodes":202,"update":"2020-11-05 20:40:56","iframe_src":"//7741.svetacdn.in/71tsRs29n5tZ/tv-series/9183"},{"id":9182,"title":"Хороший Полицейский","kp_id":"1235085","imdb_id":"tt6070434","world_art_id":null,"type":"serial","add":"2020-11-02 20:11:34","orig_title":"Hashoter Hatov","year":"2015-08-15","translations":["Любительский (многоголосый закадровый) (WestFilm)"],"seasons_count":1,"episodes_count":15,"episodes":15,"update":"2020-11-05 09:07:25","iframe_src":"//7741.svetacdn.in/71tsRs29n5tZ/tv-series/9182"},{"id":9178,"title":"Неоконченный бой","kp_id":"840571","imdb_id":null,"world_art_id":null,"type":"serial","add":"2020-11-02 14:34:10","orig_title":"Neokonchennyy boy","year":"2016-01-01","translations":["Оригинальная дорожка"],"seasons_count":1,"episodes_count":8,"episodes":8,"update":"2020-11-05 18:49:23","iframe_src":"//7741.svetacdn.in/71tsRs29n5tZ/tv-series/9178"},{"id":9176,"title":"Провинциал","kp_id":"762275","imdb_id":null,"world_art_id":null,"type":"serial","add":"2020-11-02 12:32:32","orig_title":"Provincial","year":"2013-05-06","translations":["Оригинальная дорожка"],"seasons_count":1,"episodes_count":16,"episodes":16,"update":"2020-11-05 18:34:22","iframe_src":"//7741.svetacdn.in/71tsRs29n5tZ/tv-series/9176"},{"id":9175,"title":"Хищные птицы","kp_id":"447695","imdb_id":"tt0312098","world_art_id":null,"type":"serial","add":"2020-11-02 12:17:05","orig_title":"Birds of Prey","year":"2002-10-02","translations":["Любительский (двухголосый закадровый)"],"seasons_count":1,"episodes_count":13,"episodes":13,"update":"2020-11-05 18:28:12","iframe_src":"//7741.svetacdn.in/71tsRs29n5tZ/tv-series/9175"},{"id":9174,"title":"Белая гвоздика","kp_id":"1047176","imdb_id":"tt7172256","world_art_id":null,"type":"serial","add":"2020-11-02 12:14:02","orig_title":"Beyaz Karanfil","year":"2014-10-24","translations":["Любительский (одноголосый закадровый) (turok1990)"],"seasons_count":1,"episodes_count":6,"episodes":6,"update":"2020-11-05 18:24:16","iframe_src":"//7741.svetacdn.in/71tsRs29n5tZ/tv-series/9174"},{"id":9141,"title":"Хозяйка моей судьбы","kp_id":"601735","imdb_id":"tt3702432","world_art_id":null,"type":"serial","add":"2020-10-27 19:52:37","orig_title":"Khozyayka moey sudby","year":"2012-01-03","translations":["Оригинальная дорожка"],"seasons_count":1,"episodes_count":50,"episodes":50,"update":"2020-11-04 11:54:03","iframe_src":"//7741.svetacdn.in/71tsRs29n5tZ/tv-series/9141"},{"id":9122,"title":"Два озера","kp_id":null,"imdb_id":"tt6343514","world_art_id":null,"type":"serial","add":"2020-10-26 11:12:47","orig_title":"Dos Lagos","year":"2017-11-09","translations":["Любительский (многоголосый закадровый) (WestFilm)"],"seasons_count":1,"episodes_count":12,"episodes":12,"update":"2020-11-06 07:53:55","iframe_src":"//7741.svetacdn.in/71tsRs29n5tZ/tv-series/9122"},{"id":9111,"title":"Неопытные мамы","kp_id":"1440282","imdb_id":"tt13286658","world_art_id":null,"type":"serial","add":"2020-10-25 07:43:38","orig_title":"Acemi anneler","year":"2020-10-19","translations":["Авторский (одноголосый закадровый) (BeniAffet)"],"seasons_count":1,"episodes_count":3,"episodes":3,"update":"2020-11-05 08:13:04","iframe_src":"//7741.svetacdn.in/71tsRs29n5tZ/tv-series/9111"},{"id":9085,"title":"Овощной магазин холостяка","kp_id":"724890","imdb_id":"tt6385836","world_art_id":null,"type":"serial","add":"2020-10-23 10:49:13","orig_title":"Chonggakne yachaegage","year":"2011-12-21","translations":["Любительский (одноголосый закадровый) (GREEN TEA)"],"seasons_count":1,"episodes_count":24,"episodes":24,"update":"2020-11-05 08:38:06","iframe_src":"//7741.svetacdn.in/71tsRs29n5tZ/tv-series/9085"},{"id":8894,"title":"Сестра","kp_id":"1311628","imdb_id":"tt10642480","world_art_id":null,"type":"serial","add":"2020-10-01 11:19:10","orig_title":"Because the Night","year":"2020-10-01","translations":["Профессиональный (многоголосый закадровый) (VIP Serial HD)","Любительский (многоголосый закадровый) (Ultradox)","Профессиональный (многоголосый закадровый) (IdeaFilm)","Любительский (многоголосый закадровый) (ColdFilm)","Профессиональный (многоголосый закадровый) (NewStudio)","Профессиональный (многоголосый закадровый) (BaibaKo)","Профессиональный (двухголосый закадровый) (IdeaFilm)"],"seasons_count":1,"episodes_count":4,"episodes":4,"update":"2020-11-05 16:25:55","iframe_src":"//7741.svetacdn.in/71tsRs29n5tZ/tv-series/8894"},{"id":8886,"title":"Столкновение","kp_id":"1210102","imdb_id":"tt9312856","world_art_id":null,"type":"serial","add":"2020-09-30 17:05:56","orig_title":"Clash","year":"2018-11-05","translations":["Любительский (многоголосый закадровый) (WestFilm)"],"seasons_count":1,"episodes_count":48,"episodes":48,"update":"2020-11-05 16:24:22","iframe_src":"//7741.svetacdn.in/71tsRs29n5tZ/tv-series/8886"},{"id":8571,"title":"Чехол для экзорциста","kp_id":"913493","imdb_id":"tt3672936","world_art_id":null,"type":"serial","add":"2020-08-30 03:21:05","orig_title":"Prípad pro exorcistu","year":"2015-01-11","translations":["Любительский (многоголосый закадровый) (WestFilm)","Профессиональный (двухголосый закадровый) (ViruseProject)"],"seasons_count":1,"episodes_count":3,"episodes":3,"update":"2020-11-05 08:58:47","iframe_src":"//7741.svetacdn.in/71tsRs29n5tZ/tv-series/8571"},{"id":40061,"title":"Возвращение мистера Рипли","kp_id":"6375","imdb_id":"tt0219171","world_art_id":null,"type":"movie","add":"2020-05-02 11:35:55","orig_title":"Ripley Under Ground","year":"2005-11-06","translations":["Профессиональный (многоголосый закадровый) (Инис)","[EN] Original (English)"],"quality":"webdl","translation":"Профессиональный (многоголосый закадровый) (Инис)","update":"2021-11-23 15:05:43","iframe_src":"//7741.svetacdn.in/71tsRs29n5tZ/movie/40061"},{"id":33454,"title":"Томас и его друзья: Кругосветное путешествие","kp_id":"1064657","imdb_id":"tt7415466","world_art_id":null,"type":"movie","add":"2019-11-25 20:33:39","orig_title":"Thomas & Friends: Big World! Big Adventures! The Movie","year":"2018-07-07","translations":["Любительский (многоголосый закадровый) (Синема УС)","Полное дублирование"],"quality":"webdl","translation":"Любительский (многоголосый закадровый) (Синема УС)","update":"2021-11-24 12:01:18","iframe_src":"//7741.svetacdn.in/71tsRs29n5tZ/movie/33454"},{"id":5355,"title":"Идеальная гармония","kp_id":"1264250","imdb_id":"tt10329046","world_art_id":null,"type":"serial","add":"2019-10-01 09:21:28","orig_title":"Perfect Harmony","year":"2019-09-26","translations":["Профессиональный (многоголосый закадровый) (BaibaKo)","Профессиональный (многоголосый закадровый) (TVShows)","Профессиональный (многоголосый закадровый) (Fox Life)"],"seasons_count":1,"episodes_count":13,"episodes":13,"update":"2020-11-05 08:07:33","iframe_src":"//7741.svetacdn.in/71tsRs29n5tZ/tv-series/5355"},{"id":6120,"title":"Весенние надежды","kp_id":"484523","imdb_id":"tt1535438","world_art_id":null,"type":"movie","add":"2016-10-11 08:23:27","orig_title":"Hope Springs","year":"2012-08-06","translations":["[EN] Original (English)","Любительский (двухголосый закадровый) (Сладкая парочка)","Полное дублирование (Пифагор)"],"quality":"bd","translation":"[EN] Original (English)","update":"2021-11-23 15:09:30","iframe_src":"//7741.svetacdn.in/71tsRs29n5tZ/movie/6120"},{"id":3768,"title":"Преданный садовник","kp_id":"77527","imdb_id":"tt0387131","world_art_id":null,"type":"movie","add":"2016-07-07 13:20:00","orig_title":"The Constant Gardener","year":"2005-08-31","translations":["Профессиональный (многоголосый закадровый)","[EN] Original (English)","Профессиональный (двухголосый закадровый)","Профессиональный (многоголосый закадровый) (Первый канал | ОРТ)","Профессиональный (многоголосый закадровый) (Superbit)","Профессиональный (двухголосый закадровый) (CP Digital)","Полное дублирование (Paramount Channel)","Профессиональный (двухголосый закадровый)"],"quality":"bd","translation":"Профессиональный (многоголосый закадровый)","update":"2021-11-24 13:26:58","iframe_src":"//7741.svetacdn.in/71tsRs29n5tZ/movie/3768"},{"id":3069,"title":"Идём со мной","kp_id":"857011","imdb_id":"tt4061010","world_art_id":null,"type":"movie","add":"2016-06-11 10:54:27","orig_title":"Go with Me","year":"2015-09-11","translations":["Полное дублирование (iTunes)","[EN] Original (English)"],"quality":"bd","translation":"Полное дублирование (iTunes)","update":"2021-11-23 14:57:27","iframe_src":"//7741.svetacdn.in/71tsRs29n5tZ/movie/3069"},{"id":90,"title":"Марсель","kp_id":"891828","imdb_id":"tt4003966","world_art_id":null,"type":"serial","add":"2016-05-24 13:51:04","orig_title":"Marseille","year":"2016-05-05","translations":["Профессиональный (многоголосый закадровый) (NewStudio)","Профессиональный (многоголосый закадровый) (Jaskier)","Профессиональный (многоголосый закадровый) (BaibaKo)"],"seasons_count":2,"episodes_count":16,"episodes":8,"update":"2020-11-05 19:30:57","iframe_src":"//7741.svetacdn.in/71tsRs29n5tZ/tv-series/90"},{"id":2374,"title":"Счастливчик","kp_id":"485238","imdb_id":"tt1473397","world_art_id":null,"type":"movie","add":"2016-05-19 14:47:05","orig_title":"Lucky","year":"2011-07-15","translations":["Профессиональный (двухголосый закадровый)"],"quality":"bd","translation":"Профессиональный (двухголосый закадровый)","update":"2021-11-24 05:43:54","iframe_src":"//7741.svetacdn.in/71tsRs29n5tZ/movie/2374"}],"current_page":232,"first_page_url":"https://videocdn.tv/api/short?limit=100&api_token=EnbO9h8pv1VyjbCJhg0WM9nG259n7mtz&cache3232=3232&page=1","from":23101,"last_page":707,"last_page_url":"https://videocdn.tv/api/short?limit=100&api_token=EnbO9h8pv1VyjbCJhg0WM9nG259n7mtz&cache3232=3232&page=707","next_page_url":"https://videocdn.tv/api/short?limit=100&api_token=EnbO9h8pv1VyjbCJhg0WM9nG259n7mtz&cache3232=3232&page=233","path":"https://videocdn.tv/api/short","per_page":100,"prev_page_url":"https://videocdn.tv/api/short?limit=100&api_token=EnbO9h8pv1VyjbCJhg0WM9nG259n7mtz&cache3232=3232&page=231","to":23140,"total":70654}