{"result":true,"data":[{"id":27096,"title":"Сарай мертвецов","kp_id":"936518","imdb_id":"tt3602422","world_art_id":null,"type":"movie","add":"2019-05-26 19:40:11","orig_title":"Shed of the Dead","year":"2019-05-20","translations":["Любительский (многоголосый закадровый) (Синема УС)"],"quality":"bd","translation":"Любительский (многоголосый закадровый) (Синема УС)","update":"2019-05-27 06:02:26","iframe_src":"//7923.svetacdn.in/71tsRs29n5tZ/movie/27096"},{"id":27094,"title":"Сумасшедшая бабушка","kp_id":"1228353","imdb_id":"tt9557416","world_art_id":null,"type":"movie","add":"2019-05-26 19:35:54","orig_title":"Psycho Granny","year":"2019-01-01","translations":["Любительский (многоголосый закадровый) (Синема УС)"],"quality":"hdtv","translation":"Любительский (многоголосый закадровый) (Синема УС)","update":"2019-05-27 06:00:48","iframe_src":"//7923.svetacdn.in/71tsRs29n5tZ/movie/27094"},{"id":27092,"title":"Умные самолетики","kp_id":"1145237","imdb_id":"tt8426800","world_art_id":null,"type":"movie","add":"2019-05-26 19:32:58","orig_title":"Planes with Brains","year":"2018-09-09","translations":["Любительский (многоголосый закадровый) (Синема УС)"],"quality":"webdl","translation":"Любительский (многоголосый закадровый) (Синема УС)","update":"2019-05-27 06:04:51","iframe_src":"//7923.svetacdn.in/71tsRs29n5tZ/movie/27092"},{"id":27091,"title":"Деньги","kp_id":"1045048","imdb_id":"tt6890618","world_art_id":null,"type":"movie","add":"2019-05-26 19:31:05","orig_title":"Don","year":"2019-03-20","translations":["Любительский (двухголосый закадровый) (Колобок)"],"quality":"webdl","translation":"Любительский (двухголосый закадровый) (Колобок)","update":"2019-05-27 05:25:02","iframe_src":"//7923.svetacdn.in/71tsRs29n5tZ/movie/27091"},{"id":27090,"title":"ДаГрам","kp_id":null,"imdb_id":"tt9366716","world_art_id":null,"type":"movie","add":"2019-05-26 19:29:18","orig_title":"DaGram","year":"2018-05-01","translations":["Любительский (многоголосый закадровый) (Синема УС)"],"quality":"webdl","translation":"Любительский (многоголосый закадровый) (Синема УС)","update":"2019-05-27 05:20:47","iframe_src":"//7923.svetacdn.in/71tsRs29n5tZ/movie/27090"},{"id":27089,"title":"Нападение в Лос Анджелесе","kp_id":"1254478","imdb_id":"tt10079698","world_art_id":null,"type":"movie","add":"2019-05-26 19:27:59","orig_title":"Attack in LA","year":"2018-09-01","translations":["Любительский (многоголосый закадровый) (Синема УС)"],"quality":"webdl","translation":"Любительский (многоголосый закадровый) (Синема УС)","update":"2019-05-27 05:18:06","iframe_src":"//7923.svetacdn.in/71tsRs29n5tZ/movie/27089"},{"id":27087,"title":"Мои дни с Мёрси","kp_id":"997203","imdb_id":"tt5978724","world_art_id":null,"type":"movie","add":"2019-05-26 19:24:14","orig_title":"My Days of Mercy","year":"2017-09-08","translations":["Любительский (многоголосый закадровый) (Синема УС)"],"quality":"webdl","translation":"Любительский (многоголосый закадровый) (Синема УС)","update":"2019-05-27 05:23:50","iframe_src":"//7923.svetacdn.in/71tsRs29n5tZ/movie/27087"},{"id":27085,"title":"Удовольствие","kp_id":"1189779","imdb_id":"tt8917752","world_art_id":null,"type":"movie","add":"2019-05-26 19:19:48","orig_title":"Joy","year":"2018-09-03","translations":["Любительский (многоголосый закадровый) (Синема УС)"],"quality":"webdl","translation":"Любительский (многоголосый закадровый) (Синема УС)","update":"2019-05-27 05:42:19","iframe_src":"//7923.svetacdn.in/71tsRs29n5tZ/movie/27085"},{"id":27084,"title":"Изабель","kp_id":"1005200","imdb_id":"tt6098380","world_art_id":null,"type":"movie","add":"2019-05-26 19:18:18","orig_title":"Isabelle","year":"2018-10-06","translations":["Любительский (многоголосый закадровый) (Синема УС)"],"quality":"webdl","translation":"Любительский (многоголосый закадровый) (Синема УС)","update":"2019-05-27 05:56:09","iframe_src":"//7923.svetacdn.in/71tsRs29n5tZ/movie/27084"},{"id":27082,"title":"Половина неба","kp_id":"1261866","imdb_id":null,"world_art_id":null,"type":"movie","add":"2019-05-26 19:15:40","orig_title":"Half the Sky","year":"2018-10-11","translations":["Любительский (многоголосый закадровый) (Колобок)"],"quality":"webdl","translation":"Любительский (многоголосый закадровый) (Колобок)","update":"2019-05-27 05:49:15","iframe_src":"//7923.svetacdn.in/71tsRs29n5tZ/movie/27082"},{"id":27081,"title":"Смешная история","kp_id":"1057115","imdb_id":"tt7422552","world_art_id":null,"type":"movie","add":"2019-05-26 19:13:15","orig_title":"Funny Story","year":"2018-01-21","translations":["Любительский (многоголосый закадровый) (Синема УС)"],"quality":"webdl","translation":"Любительский (многоголосый закадровый) (Синема УС)","update":"2019-05-27 05:50:39","iframe_src":"//7923.svetacdn.in/71tsRs29n5tZ/movie/27081"},{"id":27080,"title":"Посчитай свои раны","kp_id":"966616","imdb_id":"tt5196472","world_art_id":null,"type":"movie","add":"2019-05-26 19:11:54","orig_title":"Compte tes blessures","year":"2016-09-19","translations":["Любительский (многоголосый закадровый) (Колобок)"],"quality":"webdl","translation":"Любительский (многоголосый закадровый) (Колобок)","update":"2019-05-27 06:03:47","iframe_src":"//7923.svetacdn.in/71tsRs29n5tZ/movie/27080"},{"id":27079,"title":"Катакомба","kp_id":"979728","imdb_id":"tt5585900","world_art_id":null,"type":"movie","add":"2019-05-26 19:10:28","orig_title":"Catacomba","year":"2016-09-15","translations":["Любительский (одноголосый закадровый) (Хихикающий доктор)"],"quality":"webdl","translation":"Любительский (одноголосый закадровый) (Хихикающий доктор)","update":"2019-05-27 05:28:43","iframe_src":"//7923.svetacdn.in/71tsRs29n5tZ/movie/27079"},{"id":26996,"title":"Тиан – тайна Шмукштрассе","kp_id":"1054450","imdb_id":"tt7071250","world_art_id":null,"type":"movie","add":"2019-05-24 21:56:11","orig_title":"Tian - Das Geheimnis der Schmuckstraße","year":"2017-10-10","translations":["Профессиональный (многоголосый закадровый)"],"quality":"webdl","translation":"Профессиональный (многоголосый закадровый)","update":"2019-05-27 06:08:12","iframe_src":"//7923.svetacdn.in/71tsRs29n5tZ/movie/26996"},{"id":26992,"title":"Ритуалы вины","kp_id":"1184104","imdb_id":"tt8875622","world_art_id":null,"type":"movie","add":"2019-05-24 21:45:17","orig_title":"Rituals of Guilt","year":"2018-11-05","translations":["Любительский (многоголосый закадровый) (Синема УС)"],"quality":"webdl","translation":"Любительский (многоголосый закадровый) (Синема УС)","update":"2019-05-27 06:25:45","iframe_src":"//7923.svetacdn.in/71tsRs29n5tZ/movie/26992"},{"id":26990,"title":"Любовь — это вечеринка","kp_id":"1065884","imdb_id":"tt6451260","world_art_id":null,"type":"movie","add":"2019-05-24 21:41:07","orig_title":"L'amour est une fête","year":"2018-09-19","translations":["Любительский (многоголосый закадровый) (Синема УС)"],"quality":"webdl","translation":"Любительский (многоголосый закадровый) (Синема УС)","update":"2019-05-27 06:17:01","iframe_src":"//7923.svetacdn.in/71tsRs29n5tZ/movie/26990"},{"id":26989,"title":"На исходе","kp_id":"1160443","imdb_id":"tt8505942","world_art_id":null,"type":"movie","add":"2019-05-24 21:39:08","orig_title":"Out of Gas","year":"2018-03-21","translations":["Любительский (многоголосый закадровый) (Синема УС)"],"quality":"webdl","translation":"Любительский (многоголосый закадровый) (Синема УС)","update":"2019-05-27 06:15:32","iframe_src":"//7923.svetacdn.in/71tsRs29n5tZ/movie/26989"},{"id":26986,"title":"Облегчение","kp_id":"1127843","imdb_id":"tt8136908","world_art_id":null,"type":"movie","add":"2019-05-24 21:31:50","orig_title":"Halkaa","year":"2018-09-07","translations":["Любительский (многоголосый закадровый) (Синема УС)"],"quality":"webdl","translation":"Любительский (многоголосый закадровый) (Синема УС)","update":"2019-05-27 06:30:43","iframe_src":"//7923.svetacdn.in/71tsRs29n5tZ/movie/26986"},{"id":26982,"title":"В угаре","kp_id":"1066827","imdb_id":"tt6652828","world_art_id":null,"type":"movie","add":"2019-05-24 21:24:24","orig_title":"Daze Like This","year":"2017-07-04","translations":["Любительский (многоголосый закадровый) (Синема УС)"],"quality":"webdl","translation":"Любительский (многоголосый закадровый) (Синема УС)","update":"2019-05-27 06:29:25","iframe_src":"//7923.svetacdn.in/71tsRs29n5tZ/movie/26982"},{"id":9105,"title":"Заговор на острове Джекилл","kp_id":"806891","imdb_id":"tt3297382","world_art_id":null,"type":"movie","add":"2017-01-22 12:57:42","orig_title":"Jekyll Island","year":"2017-01-13","translations":["Любительский (многоголосый закадровый) (Синема УС)","Профессиональный (многоголосый закадровый)"],"quality":"webdl","translation":"Любительский (многоголосый закадровый) (Синема УС)","update":"2019-05-27 06:09:26","iframe_src":"//7923.svetacdn.in/71tsRs29n5tZ/movie/9105"}],"current_page":1459,"first_page_url":"https://videocdn.tv/api/short?limit=100&api_token=EnbO9h8pv1VyjbCJhg0WM9nG259n7mtz&cache31459=31459&page=1","from":145801,"last_page":645,"last_page_url":"https://videocdn.tv/api/short?limit=100&api_token=EnbO9h8pv1VyjbCJhg0WM9nG259n7mtz&cache31459=31459&page=645","next_page_url":null,"path":"https://videocdn.tv/api/short","per_page":100,"prev_page_url":"https://videocdn.tv/api/short?limit=100&api_token=EnbO9h8pv1VyjbCJhg0WM9nG259n7mtz&cache31459=31459&page=1458","to":145820,"total":64442}