{"result":true,"data":[{"id":43016,"title":"Вплотную","kp_id":"1252646","imdb_id":"tt10054876","world_art_id":null,"type":"movie","add":"2020-09-01 19:20:02","orig_title":"Zero Distance","year":"2020-07-31","translations":["Любительский (многоголосый закадровый) (Синема УС)"],"quality":"webdl","translation":"Любительский (многоголосый закадровый) (Синема УС)","update":"2020-09-01 21:02:22","iframe_src":"//7741.svetacdn.in/si4jsFRrtgrT/movie/43016"},{"id":43007,"title":"Завещание Теслы","kp_id":"1194544","imdb_id":"tt9023894","world_art_id":null,"type":"movie","add":"2020-09-01 18:58:01","orig_title":"Final Frequency","year":"2021-08-23","translations":["Полное дублирование"],"quality":"webdl","translation":"Полное дублирование","update":"2020-09-02 04:24:19","iframe_src":"//7741.svetacdn.in/si4jsFRrtgrT/movie/43007"},{"id":43000,"title":"Портниха","kp_id":"1100009","imdb_id":"tt7514020","world_art_id":null,"type":"movie","add":"2020-09-01 11:54:47","orig_title":"Cô Ba Sài Gòn","year":"2017-10-14","translations":["Любительский (многоголосый закадровый) (Синема УС)"],"quality":"webdl","translation":"Любительский (многоголосый закадровый) (Синема УС)","update":"2020-09-02 06:30:34","iframe_src":"//7741.svetacdn.in/si4jsFRrtgrT/movie/43000"},{"id":42999,"title":"Расчленитель в маске","kp_id":"1236329","imdb_id":"tt9736774","world_art_id":null,"type":"movie","add":"2020-09-01 11:52:25","orig_title":"Masked Mutilator","year":"2019-05-14","translations":["Любительский (многоголосый закадровый) (Синема УС)"],"quality":"webdl","translation":"Любительский (многоголосый закадровый) (Синема УС)","update":"2020-09-02 06:30:56","iframe_src":"//7741.svetacdn.in/si4jsFRrtgrT/movie/42999"},{"id":42997,"title":"Соле","kp_id":"1233134","imdb_id":"tt9648994","world_art_id":null,"type":"movie","add":"2020-09-01 11:48:04","orig_title":"Sole","year":"2019-08-29","translations":["Любительский (многоголосый закадровый) (Синема УС)"],"quality":"webdl","translation":"Любительский (многоголосый закадровый) (Синема УС)","update":"2020-09-02 06:31:38","iframe_src":"//7741.svetacdn.in/si4jsFRrtgrT/movie/42997"},{"id":42996,"title":"Где она?","kp_id":"1318114","imdb_id":"tt11089638","world_art_id":null,"type":"movie","add":"2020-09-01 11:46:49","orig_title":"Where Is She?","year":"2019-10-06","translations":["Любительский (многоголосый закадровый) (Синема УС)"],"quality":"webdl","translation":"Любительский (многоголосый закадровый) (Синема УС)","update":"2020-09-02 06:32:11","iframe_src":"//7741.svetacdn.in/si4jsFRrtgrT/movie/42996"},{"id":42995,"title":"Брейк","kp_id":"897836","imdb_id":"tt4590390","world_art_id":null,"type":"movie","add":"2020-09-01 11:45:14","orig_title":"Break","year":"2020-07-22","translations":["Любительский (многоголосый закадровый) (@MUZOBOZ@)"],"quality":"webdl","translation":"Любительский (многоголосый закадровый) (@MUZOBOZ@)","update":"2020-09-01 18:36:36","iframe_src":"//7741.svetacdn.in/si4jsFRrtgrT/movie/42995"},{"id":42994,"title":"Тёмная тропа","kp_id":"1283019","imdb_id":"tt10546058","world_art_id":null,"type":"movie","add":"2020-09-01 11:40:26","orig_title":"A Dark Path","year":"2020-08-10","translations":["Любительский (многоголосый закадровый) (@MUZOBOZ@)"],"quality":"webdl","translation":"Любительский (многоголосый закадровый) (@MUZOBOZ@)","update":"2020-09-01 18:40:45","iframe_src":"//7741.svetacdn.in/si4jsFRrtgrT/movie/42994"},{"id":42993,"title":"Легенда острова Леди-оборотня","kp_id":"1021569","imdb_id":"tt6389864","world_art_id":null,"type":"movie","add":"2020-09-01 11:17:37","orig_title":"The Legend of Dog Lady Island","year":"2020-08-04","translations":["Любительский (многоголосый закадровый) (Синема УС)"],"quality":"webdl","translation":"Любительский (многоголосый закадровый) (Синема УС)","update":"2020-09-01 18:41:19","iframe_src":"//7741.svetacdn.in/si4jsFRrtgrT/movie/42993"},{"id":42979,"title":"405 миль до Бомбея","kp_id":"224689","imdb_id":"tt0157418","world_art_id":null,"type":"movie","add":"2020-08-31 12:51:35","orig_title":"Bombay 405 Miles","year":"1980-01-01","translations":["Профессиональный (двухголосый закадровый) (Bollywood HD)"],"quality":"hdtv","translation":"Профессиональный (двухголосый закадровый) (Bollywood HD)","update":"2020-09-02 08:08:39","iframe_src":"//7741.svetacdn.in/si4jsFRrtgrT/movie/42979"},{"id":42898,"title":"Нападение неведомого","kp_id":"1179921","imdb_id":"tt8804580","world_art_id":null,"type":"movie","add":"2020-08-28 20:23:02","orig_title":"Attack of the Unknown","year":"2020-08-28","translations":["Любительский (многоголосый закадровый) (@MUZOBOZ@)","Original (English)"],"quality":"webdl","translation":"Любительский (многоголосый закадровый) (@MUZOBOZ@)","update":"2020-09-02 08:15:20","iframe_src":"//7741.svetacdn.in/si4jsFRrtgrT/movie/42898"},{"id":37023,"title":"Супермен: Красный сын","kp_id":"1305916","imdb_id":"tt10985510","world_art_id":null,"type":"movie","add":"2020-02-27 04:45:59","orig_title":"Superman: Red Son","year":"2020-02-25","translations":["Любительский (многоголосый закадровый) (@MUZOBOZ@)","Профессиональный (многоголосый закадровый) (HDrezka Studio)","Original (English)"],"quality":"webdl","translation":"Любительский (многоголосый закадровый) (@MUZOBOZ@)","update":"2020-09-02 08:13:58","iframe_src":"//7741.svetacdn.in/si4jsFRrtgrT/movie/37023"},{"id":33689,"title":"Тварь","kp_id":"1138880","imdb_id":"tt8291886","world_art_id":null,"type":"movie","add":"2019-12-04 09:43:17","orig_title":"Tvar","year":"2019-09-26","translations":["Оригинальная дорожка","Оригинальная дорожка"],"quality":"webdl","translation":"Оригинальная дорожка","update":"2020-09-02 07:09:45","iframe_src":"//7741.svetacdn.in/si4jsFRrtgrT/movie/33689"},{"id":25762,"title":"Монтана","kp_id":"280303","imdb_id":"tt1108855","world_art_id":null,"type":"movie","add":"2019-04-30 19:12:06","orig_title":"Montana","year":"2008-02-07","translations":["Оригинальная дорожка","Оригинальная дорожка"],"quality":"bd","translation":"Оригинальная дорожка","update":"2020-09-02 07:07:50","iframe_src":"//7741.svetacdn.in/si4jsFRrtgrT/movie/25762"},{"id":25494,"title":"Скорпион на ладони","kp_id":"595932","imdb_id":null,"world_art_id":null,"type":"movie","add":"2019-04-28 10:17:22","orig_title":"Скорпион на ладони","year":"2013-01-01","translations":["Оригинальная дорожка","Оригинальная дорожка"],"quality":"webdl","translation":"Оригинальная дорожка","update":"2020-09-02 08:06:43","iframe_src":"//7741.svetacdn.in/si4jsFRrtgrT/movie/25494"},{"id":18228,"title":"Медовый месяц","kp_id":"1048297","imdb_id":"tt6852872","world_art_id":null,"type":"movie","add":"2018-08-12 09:06:31","orig_title":"Elizabeth Harvest","year":"2018-03-10","translations":["Профессиональный (многоголосый закадровый) (iTunes)","Профессиональный (многоголосый закадровый) (HDrezka Studio)"],"quality":"bd","translation":"Профессиональный (многоголосый закадровый) (iTunes)","update":"2020-09-01 17:18:51","iframe_src":"//7741.svetacdn.in/si4jsFRrtgrT/movie/18228"},{"id":17404,"title":"Сладостный край","kp_id":"1047310","imdb_id":"tt6958212","world_art_id":null,"type":"movie","add":"2018-06-26 22:10:16","orig_title":"Sweet Country","year":"2017-09-06","translations":["Любительский (одноголосый закадровый) (BadBajo | Важенин Андрей)","Любительский (многоголосый закадровый) (Синема УС)","Original (English)","Профессиональный (многоголосый закадровый) (HDrezka Studio)"],"quality":"bd","translation":"Любительский (одноголосый закадровый) (BadBajo | Важенин Андрей)","update":"2020-09-01 17:19:14","iframe_src":"//7741.svetacdn.in/si4jsFRrtgrT/movie/17404"},{"id":11974,"title":"Бабоньки","kp_id":"970602","imdb_id":"tt10520870","world_art_id":null,"type":"movie","add":"2017-06-15 13:26:13","orig_title":"Babonki","year":"2016-04-14","translations":["Оригинальная дорожка","Оригинальная дорожка"],"quality":"hdtv","translation":"Оригинальная дорожка","update":"2020-09-02 07:10:38","iframe_src":"//7741.svetacdn.in/si4jsFRrtgrT/movie/11974"},{"id":7044,"title":"Шрек 2","kp_id":"5273","imdb_id":"tt0298148","world_art_id":null,"type":"movie","add":"2016-11-04 06:54:56","orig_title":"Shrek 2","year":"2004-05-15","translations":["Полное дублирование","Авторский (одноголосый закадровый) (Гоблин | Пучков Дмитрий)"],"quality":"bd","translation":"Полное дублирование","update":"2020-09-02 08:11:34","iframe_src":"//7741.svetacdn.in/si4jsFRrtgrT/movie/7044"},{"id":6547,"title":"Дом 2: Проклятая обитель","kp_id":"9215","imdb_id":"tt0093220","world_art_id":null,"type":"movie","add":"2016-10-21 05:10:09","orig_title":"House II: The Second Story","year":"1987-05-14","translations":["Профессиональный (многоголосый закадровый)","Авторский (одноголосый закадровый) (Гаврилов Андрей)","Авторский (одноголосый закадровый) (Визгунов Сергей)","Original (English)","Любительский (одноголосый закадровый)","Профессиональный (двухголосый закадровый)","Профессиональный (двухголосый закадровый) (РенТВ)","Профессиональный (многоголосый закадровый) (CP Digital)"],"quality":"hdtv","translation":"Профессиональный (многоголосый закадровый)","update":"2020-09-02 07:04:34","iframe_src":"//7741.svetacdn.in/si4jsFRrtgrT/movie/6547"}],"current_page":877,"first_page_url":"https://videocdn.tv/api/short?limit=100&api_token=X6EwAUfE5M9xbo7y0Bp0aPf3uXxG2KLL&cache3877=3877&page=1","from":87601,"last_page":696,"last_page_url":"https://videocdn.tv/api/short?limit=100&api_token=X6EwAUfE5M9xbo7y0Bp0aPf3uXxG2KLL&cache3877=3877&page=696","next_page_url":null,"path":"https://videocdn.tv/api/short","per_page":100,"prev_page_url":"https://videocdn.tv/api/short?limit=100&api_token=X6EwAUfE5M9xbo7y0Bp0aPf3uXxG2KLL&cache3877=3877&page=876","to":87620,"total":69555}