{"result":true,"data":[{"id":22419,"title":"Самопознание","kp_id":"696543","imdb_id":"tt2237012","world_art_id":null,"type":"movie","add":"2019-02-21 09:22:30","orig_title":"The Watcher Self","year":"2016-03-25","translations":["Любительский (многоголосый закадровый) (Синема УС)"],"quality":"webdl","translation":"Любительский (многоголосый закадровый) (Синема УС)","update":"2019-02-22 06:06:41","iframe_src":"//8543.svetacdn.in/si4jsFRrtgrT/movie/22419"},{"id":22406,"title":"Противоположность любви","kp_id":"530358","imdb_id":"tt1667108","world_art_id":null,"type":"movie","add":"2019-02-20 05:08:59","orig_title":"Lo contrario al amor","year":"2011-08-26","translations":["Любительский (одноголосый закадровый)"],"quality":"dvdrip","translation":"Любительский (одноголосый закадровый)","update":"2019-02-20 16:44:14","iframe_src":"//8543.svetacdn.in/si4jsFRrtgrT/movie/22406"},{"id":22404,"title":"Боб Марли","kp_id":"485260","imdb_id":"tt1183919","world_art_id":null,"type":"movie","add":"2019-02-20 05:04:52","orig_title":"Marley","year":"2012-02-12","translations":["Профессиональный (многоголосый закадровый)"],"quality":"bd","translation":"Профессиональный (многоголосый закадровый)","update":"2019-02-20 12:47:28","iframe_src":"//8543.svetacdn.in/si4jsFRrtgrT/movie/22404"},{"id":22290,"title":"Я не ведьма","kp_id":"1028290","imdb_id":"tt6213284","world_art_id":null,"type":"movie","add":"2019-02-14 19:50:43","orig_title":"I Am Not a Witch","year":"2017-05-25","translations":["Любительский (одноголосый закадровый)","Любительский (двухголосый закадровый) (LakeFilms)"],"quality":"bd","translation":"Любительский (одноголосый закадровый)","update":"2019-02-22 06:04:29","iframe_src":"//8543.svetacdn.in/si4jsFRrtgrT/movie/22290"},{"id":22146,"title":"Днепровский рубеж","kp_id":"460141","imdb_id":"tt2154649","world_art_id":null,"type":"movie","add":"2019-02-09 07:52:00","orig_title":"Dneprovskiy rubezh","year":"2009-06-21","translations":["Оригинальная дорожка"],"quality":"hdtv","translation":"Оригинальная дорожка","update":"2019-02-21 09:39:53","iframe_src":"//8543.svetacdn.in/si4jsFRrtgrT/movie/22146"},{"id":22145,"title":"Оранжевый цвет любви","kp_id":"487704","imdb_id":"tt1533748","world_art_id":null,"type":"movie","add":"2019-02-09 07:50:56","orig_title":"Orange","year":"2010-11-26","translations":["Любительский (двухголосый закадровый)"],"quality":"bd","translation":"Любительский (двухголосый закадровый)","update":"2019-02-21 09:38:29","iframe_src":"//8543.svetacdn.in/si4jsFRrtgrT/movie/22145"},{"id":22144,"title":"Сезон хороших дождей","kp_id":"477298","imdb_id":"tt1477859","world_art_id":null,"type":"movie","add":"2019-02-09 07:49:55","orig_title":"Housijeol","year":"2009-10-08","translations":["Любительский (двухголосый закадровый)"],"quality":"bd","translation":"Любительский (двухголосый закадровый)","update":"2019-02-21 09:37:39","iframe_src":"//8543.svetacdn.in/si4jsFRrtgrT/movie/22144"},{"id":22143,"title":"Бен","kp_id":"9108","imdb_id":"tt0068264","world_art_id":null,"type":"movie","add":"2019-02-09 07:48:10","orig_title":"Ben","year":"1972-06-21","translations":["Любительский (двухголосый закадровый)"],"quality":"bd","translation":"Любительский (двухголосый закадровый)","update":"2019-02-21 09:36:00","iframe_src":"//8543.svetacdn.in/si4jsFRrtgrT/movie/22143"},{"id":22142,"title":"Дикая семерка","kp_id":"646407","imdb_id":"tt1851085","world_art_id":null,"type":"movie","add":"2019-02-09 07:46:59","orig_title":"Wairudo 7","year":"2011-12-21","translations":["Любительский (одноголосый закадровый) (den904)"],"quality":"bd","translation":"Любительский (одноголосый закадровый) (den904)","update":"2019-02-21 09:34:37","iframe_src":"//8543.svetacdn.in/si4jsFRrtgrT/movie/22142"},{"id":22141,"title":"Малек","kp_id":"502972","imdb_id":"tt1059969","world_art_id":null,"type":"movie","add":"2019-02-09 07:45:51","orig_title":"Spud","year":"2010-12-03","translations":["Любительский (одноголосый закадровый)"],"quality":"bd","translation":"Любительский (одноголосый закадровый)","update":"2019-02-21 09:33:07","iframe_src":"//8543.svetacdn.in/si4jsFRrtgrT/movie/22141"},{"id":22139,"title":"Командир взвода","kp_id":"36690","imdb_id":"tt0095877","world_art_id":null,"type":"movie","add":"2019-02-09 07:43:09","orig_title":"Platoon Leader","year":"1989-01-13","translations":["Авторский (одноголосый закадровый) (Володарский Леонид)"],"quality":"bd","translation":"Авторский (одноголосый закадровый) (Володарский Леонид)","update":"2019-02-21 09:30:17","iframe_src":"//8543.svetacdn.in/si4jsFRrtgrT/movie/22139"},{"id":20661,"title":"Изменяющий время","kp_id":"6330","imdb_id":"tt0295725","world_art_id":null,"type":"movie","add":"2018-12-11 14:14:17","orig_title":"Time Changer","year":"2002-10-25","translations":["Профессиональный (многоголосый закадровый)","Original (English)"],"quality":"webdl","translation":"Профессиональный (многоголосый закадровый)","update":"2019-02-20 12:44:08","iframe_src":"//8543.svetacdn.in/si4jsFRrtgrT/movie/20661"},{"id":20660,"title":"Большой автобус","kp_id":"24894","imdb_id":"tt0074205","world_art_id":null,"type":"movie","add":"2018-12-11 14:13:13","orig_title":"The Big Bus","year":"1976-06-23","translations":["Профессиональный (многоголосый закадровый) (Paramount Channel)","Original (English)"],"quality":"webdl","translation":"Профессиональный (многоголосый закадровый) (Paramount Channel)","update":"2019-02-20 12:43:38","iframe_src":"//8543.svetacdn.in/si4jsFRrtgrT/movie/20660"},{"id":20659,"title":"Звезда Плейбоя","kp_id":"1929","imdb_id":"tt0086355","world_art_id":null,"type":"movie","add":"2018-12-11 14:12:12","orig_title":"Star 80","year":"1983-03-30","translations":["Профессиональный (многоголосый закадровый) (РенТВ)","Original (English)"],"quality":"webdl","translation":"Профессиональный (многоголосый закадровый) (РенТВ)","update":"2019-02-20 12:42:53","iframe_src":"//8543.svetacdn.in/si4jsFRrtgrT/movie/20659"},{"id":20658,"title":"Парни из женской общаги","kp_id":"21507","imdb_id":"tt0279781","world_art_id":null,"type":"movie","add":"2018-12-11 14:11:06","orig_title":"Sorority Boys","year":"2002-03-19","translations":["Профессиональный (многоголосый закадровый)","Original (English)"],"quality":"webdl","translation":"Профессиональный (многоголосый закадровый)","update":"2019-02-20 12:42:02","iframe_src":"//8543.svetacdn.in/si4jsFRrtgrT/movie/20658"},{"id":20657,"title":"Чуваки","kp_id":"5417","imdb_id":"tt0240900","world_art_id":null,"type":"movie","add":"2018-12-11 14:10:02","orig_title":"Slackers","year":"2002-02-01","translations":["Профессиональный (многоголосый закадровый)","Original (English)"],"quality":"webdl","translation":"Профессиональный (многоголосый закадровый)","update":"2019-02-20 12:41:14","iframe_src":"//8543.svetacdn.in/si4jsFRrtgrT/movie/20657"},{"id":20656,"title":"Игра Рипли","kp_id":"16901","imdb_id":"tt0265651","world_art_id":null,"type":"movie","add":"2018-12-11 14:09:08","orig_title":"Ripley's Game","year":"2002-09-02","translations":["Профессиональный (многоголосый закадровый)","Original (English)"],"quality":"webdl","translation":"Профессиональный (многоголосый закадровый)","update":"2019-02-20 12:40:32","iframe_src":"//8543.svetacdn.in/si4jsFRrtgrT/movie/20656"},{"id":20655,"title":"Мэй","kp_id":"2007","imdb_id":"tt0303361","world_art_id":null,"type":"movie","add":"2018-12-11 14:05:18","orig_title":"May","year":"2002-01-13","translations":["Профессиональный (многоголосый закадровый) (Екатеринбург Арт)","Original (English)"],"quality":"webdl","translation":"Профессиональный (многоголосый закадровый) (Екатеринбург Арт)","update":"2019-02-20 12:39:42","iframe_src":"//8543.svetacdn.in/si4jsFRrtgrT/movie/20655"},{"id":20654,"title":"Макс","kp_id":"16682","imdb_id":"tt0290210","world_art_id":null,"type":"movie","add":"2018-12-11 14:03:22","orig_title":"Max","year":"2002-09-10","translations":["Профессиональный (многоголосый закадровый)","Original (English)"],"quality":"webdl","translation":"Профессиональный (многоголосый закадровый)","update":"2019-02-20 12:38:59","iframe_src":"//8543.svetacdn.in/si4jsFRrtgrT/movie/20654"},{"id":7847,"title":"Морис Ришар","kp_id":"105925","imdb_id":"tt0460505","world_art_id":null,"type":"movie","add":"2016-12-05 06:02:26","orig_title":"Maurice Richard","year":"2005-11-25","translations":["Любительский (одноголосый закадровый)","Профессиональный (многоголосый закадровый)"],"quality":"bd","translation":"Любительский (одноголосый закадровый)","update":"2019-02-21 09:27:21","iframe_src":"//8543.svetacdn.in/si4jsFRrtgrT/movie/7847"}],"current_page":1473,"first_page_url":"https://videocdn.tv/api/short?limit=100&api_token=X6EwAUfE5M9xbo7y0Bp0aPf3uXxG2KLL&cache31473=31473&page=1","from":147201,"last_page":601,"last_page_url":"https://videocdn.tv/api/short?limit=100&api_token=X6EwAUfE5M9xbo7y0Bp0aPf3uXxG2KLL&cache31473=31473&page=601","next_page_url":null,"path":"https://videocdn.tv/api/short","per_page":100,"prev_page_url":"https://videocdn.tv/api/short?limit=100&api_token=X6EwAUfE5M9xbo7y0Bp0aPf3uXxG2KLL&cache31473=31473&page=1472","to":147220,"total":60013}