{"result":true,"data":[{"id":23716,"title":"Мое дорогое братство","kp_id":"1061940","imdb_id":"tt6984534","world_art_id":null,"type":"movie","add":"2019-03-31 22:27:39","orig_title":"Mi querida cofradía","year":"2018-04-17","translations":["Любительский (многоголосый закадровый) (Синема УС)"],"quality":"bd","translation":"Любительский (многоголосый закадровый) (Синема УС)","update":"2019-04-01 04:14:47","iframe_src":"//83.svetacdn.in/PfJ50H0ZBPg3/movie/23716"},{"id":23711,"title":"Городские ребята","kp_id":"1006327","imdb_id":"tt6107562","world_art_id":null,"type":"movie","add":"2019-03-31 22:08:43","orig_title":"Concrete Kids","year":"2018-06-17","translations":["Любительский (многоголосый закадровый) (Синема УС)"],"quality":"webdl","translation":"Любительский (многоголосый закадровый) (Синема УС)","update":"2019-04-01 04:13:41","iframe_src":"//83.svetacdn.in/PfJ50H0ZBPg3/movie/23711"},{"id":23656,"title":"Бывший сотрудник","kp_id":"632977","imdb_id":"tt2837614","world_art_id":null,"type":"movie","add":"2019-03-29 19:27:51","orig_title":"B/S* *byvshiy sotrudnik","year":"2012-02-18","translations":["Оригинальная дорожка"],"quality":"dvdrip","translation":"Оригинальная дорожка","update":"2019-03-30 19:52:25","iframe_src":"//83.svetacdn.in/PfJ50H0ZBPg3/movie/23656"},{"id":23654,"title":"Трактористы","kp_id":"42279","imdb_id":"tt0032050","world_art_id":null,"type":"movie","add":"2019-03-29 19:19:10","orig_title":"Traktoristy","year":"1939-07-03","translations":["Оригинальная дорожка"],"quality":"dvdrip","translation":"Оригинальная дорожка","update":"2019-03-30 19:47:40","iframe_src":"//83.svetacdn.in/PfJ50H0ZBPg3/movie/23654"},{"id":23653,"title":"Плохой робот","kp_id":"477366","imdb_id":"tt1520494","world_art_id":null,"type":"movie","add":"2019-03-29 19:09:32","orig_title":"BlinkyTM","year":"2011-03-20","translations":["Любительский (многоголосый закадровый)"],"quality":"dvdrip","translation":"Любительский (многоголосый закадровый)","update":"2019-03-30 19:44:48","iframe_src":"//83.svetacdn.in/PfJ50H0ZBPg3/movie/23653"},{"id":23650,"title":"Турнир Долины Фей","kp_id":"477849","imdb_id":"tt1450334","world_art_id":null,"type":"movie","add":"2019-03-29 18:35:58","orig_title":"Pixie Hollow Games","year":"2011-11-19","translations":["Полное дублирование"],"quality":"bd","translation":"Полное дублирование","update":"2019-03-30 19:40:45","iframe_src":"//83.svetacdn.in/PfJ50H0ZBPg3/movie/23650"},{"id":23649,"title":"Слепая","kp_id":"605365","imdb_id":"tt2025506","world_art_id":null,"type":"movie","add":"2019-03-29 18:25:05","orig_title":"Beul-la-in-deu","year":"2011-08-10","translations":["Любительский (одноголосый закадровый)"],"quality":"bd","translation":"Любительский (одноголосый закадровый)","update":"2019-03-30 19:38:51","iframe_src":"//83.svetacdn.in/PfJ50H0ZBPg3/movie/23649"},{"id":23648,"title":"Барби: Сказочная страна","kp_id":"160916","imdb_id":"tt0450982","world_art_id":null,"type":"movie","add":"2019-03-29 18:19:15","orig_title":"Barbie: Fairytopia","year":"2005-03-08","translations":["Полное дублирование"],"quality":"dvdrip","translation":"Полное дублирование","update":"2019-03-30 19:36:32","iframe_src":"//83.svetacdn.in/PfJ50H0ZBPg3/movie/23648"},{"id":23647,"title":"Зал самоубийц","kp_id":"577934","imdb_id":"tt1808454","world_art_id":null,"type":"movie","add":"2019-03-29 18:11:16","orig_title":"Sala samobójców","year":"2011-03-04","translations":["Любительский (двухголосый закадровый)"],"quality":"dvdrip","translation":"Любительский (двухголосый закадровый)","update":"2019-03-30 19:34:00","iframe_src":"//83.svetacdn.in/PfJ50H0ZBPg3/movie/23647"},{"id":23645,"title":"Недодел и передел","kp_id":"465005","imdb_id":"tt4540330","world_art_id":null,"type":"movie","add":"2019-03-29 17:48:51","orig_title":"Nedodel i peredel","year":"1979-01-01","translations":["Оригинальная дорожка"],"quality":"dvdrip","translation":"Оригинальная дорожка","update":"2019-03-30 19:15:47","iframe_src":"//83.svetacdn.in/PfJ50H0ZBPg3/movie/23645"},{"id":23644,"title":"Сказка про лень","kp_id":"485298","imdb_id":"tt6071064","world_art_id":null,"type":"movie","add":"2019-03-29 17:38:42","orig_title":"Skazka pro len","year":"1976-01-01","translations":["Оригинальная дорожка"],"quality":"dvdrip","translation":"Оригинальная дорожка","update":"2019-03-30 19:19:51","iframe_src":"//83.svetacdn.in/PfJ50H0ZBPg3/movie/23644"},{"id":23643,"title":"Так сойдет","kp_id":"257212","imdb_id":null,"world_art_id":null,"type":"movie","add":"2019-03-29 17:34:06","orig_title":"Так сойдет","year":"1981-01-01","translations":["Оригинальная дорожка"],"quality":"dvdrip","translation":"Оригинальная дорожка","update":"2019-03-30 19:22:15","iframe_src":"//83.svetacdn.in/PfJ50H0ZBPg3/movie/23643"},{"id":23642,"title":"Чудеса в решете","kp_id":"259987","imdb_id":"tt6583366","world_art_id":null,"type":"movie","add":"2019-03-29 17:28:21","orig_title":"Chudesa v reshete","year":"1978-01-01","translations":["Оригинальная дорожка"],"quality":"dvdrip","translation":"Оригинальная дорожка","update":"2019-03-30 19:25:55","iframe_src":"//83.svetacdn.in/PfJ50H0ZBPg3/movie/23642"},{"id":23641,"title":"Кто самый сильный","kp_id":"450171","imdb_id":"tt6248918","world_art_id":null,"type":"movie","add":"2019-03-29 17:24:50","orig_title":"Kto samyy silnyy","year":"1961-01-01","translations":["Оригинальная дорожка"],"quality":"dvdrip","translation":"Оригинальная дорожка","update":"2019-03-30 19:27:16","iframe_src":"//83.svetacdn.in/PfJ50H0ZBPg3/movie/23641"},{"id":23640,"title":"Про бегемота, который боялся прививок","kp_id":"43282","imdb_id":"tt0214021","world_art_id":null,"type":"movie","add":"2019-03-29 17:15:14","orig_title":"Pro begemota, kotoryy boyalsya privivok","year":"1966-01-01","translations":["Оригинальная дорожка"],"quality":"dvdrip","translation":"Оригинальная дорожка","update":"2019-03-30 19:12:24","iframe_src":"//83.svetacdn.in/PfJ50H0ZBPg3/movie/23640"},{"id":23639,"title":"Самый большой друг","kp_id":"540819","imdb_id":"tt5467364","world_art_id":null,"type":"movie","add":"2019-03-29 17:12:17","orig_title":"Samyy bolshoy drug","year":"1968-01-01","translations":["Оригинальная дорожка"],"quality":"dvdrip","translation":"Оригинальная дорожка","update":"2019-03-30 19:06:21","iframe_src":"//83.svetacdn.in/PfJ50H0ZBPg3/movie/23639"},{"id":23638,"title":"Подарок для самого слабого","kp_id":"256983","imdb_id":"tt1068274","world_art_id":null,"type":"movie","add":"2019-03-29 17:05:40","orig_title":"Podarok dlya samogo slabogo","year":"1966-01-01","translations":["Оригинальная дорожка"],"quality":"dvdrip","translation":"Оригинальная дорожка","update":"2019-03-30 19:29:32","iframe_src":"//83.svetacdn.in/PfJ50H0ZBPg3/movie/23638"},{"id":23637,"title":"Кентервильское привидение","kp_id":"44759","imdb_id":"tt0165844","world_art_id":null,"type":"movie","add":"2019-03-29 16:54:50","orig_title":"Kentervilskoe prividenie","year":"1970-01-01","translations":["Оригинальная дорожка"],"quality":"dvdrip","translation":"Оригинальная дорожка","update":"2019-03-30 18:59:35","iframe_src":"//83.svetacdn.in/PfJ50H0ZBPg3/movie/23637"},{"id":23635,"title":"Конец императора тайги","kp_id":"44896","imdb_id":"tt0314284","world_art_id":null,"type":"movie","add":"2019-03-29 16:42:47","orig_title":"Konets imperatora taygi","year":"1978-11-15","translations":["Оригинальная дорожка"],"quality":"dvdrip","translation":"Оригинальная дорожка","update":"2019-03-30 19:02:33","iframe_src":"//83.svetacdn.in/PfJ50H0ZBPg3/movie/23635"},{"id":204,"title":"Боевой механизм","kp_id":"917796","imdb_id":"tt4776564","world_art_id":null,"type":"movie","add":"2016-03-07 22:08:24","orig_title":"Swap","year":"2016-03-01","translations":["Любительский (многоголосый закадровый) (Parovoz Production)","Любительский (многоголосый закадровый) (Синема УС)","Original (English)","Профессиональный (многоголосый закадровый)"],"quality":"bd","translation":"Любительский (многоголосый закадровый) (Parovoz Production)","update":"2019-04-01 04:15:48","iframe_src":"//83.svetacdn.in/PfJ50H0ZBPg3/movie/204"}],"current_page":1458,"first_page_url":"https://videocdn.tv/api/short?limit=100&api_token=RgFQdUIR2dRmwv8iYa5SnFNgnw3vpjKj&cache31458=31458&page=1","from":145701,"last_page":610,"last_page_url":"https://videocdn.tv/api/short?limit=100&api_token=RgFQdUIR2dRmwv8iYa5SnFNgnw3vpjKj&cache31458=31458&page=610","next_page_url":null,"path":"https://videocdn.tv/api/short","per_page":100,"prev_page_url":"https://videocdn.tv/api/short?limit=100&api_token=RgFQdUIR2dRmwv8iYa5SnFNgnw3vpjKj&cache31458=31458&page=1457","to":145720,"total":60948}