{"result":true,"data":[{"id":47772,"title":"Не сдавайся","kp_id":"4297113","imdb_id":"tt13611662","world_art_id":null,"type":"movie","add":"2021-02-08 18:15:47","orig_title":"Don't Give Up","year":"2021-01-02","translations":["Любительский (многоголосый закадровый) (Синема УС)"],"quality":"webdl","translation":"Любительский (многоголосый закадровый) (Синема УС)","update":"2021-02-08 21:33:49","iframe_src":"//7923.svetacdn.in/si4jsFRrtgrT/movie/47772"},{"id":47731,"title":"Ковбойши против птеродактилей","kp_id":"1230473","imdb_id":"tt9571756","world_art_id":null,"type":"movie","add":"2021-02-07 22:45:16","orig_title":"Cowgirls vs. Pterodactyls","year":"2021-01-22","translations":["Любительский (многоголосый закадровый) (Синема УС)"],"quality":"webdl","translation":"Любительский (многоголосый закадровый) (Синема УС)","update":"2021-02-08 16:23:09","iframe_src":"//7923.svetacdn.in/si4jsFRrtgrT/movie/47731"},{"id":47721,"title":"Море нашей надежды","kp_id":"272463","imdb_id":"tt0900960","world_art_id":null,"type":"movie","add":"2021-02-07 15:21:52","orig_title":"More nashey nadezhdy","year":"1971-08-06","translations":["Оригинальная дорожка"],"quality":"sat","translation":"Оригинальная дорожка","update":"2021-02-08 15:22:21","iframe_src":"//7923.svetacdn.in/si4jsFRrtgrT/movie/47721"},{"id":47720,"title":"Голубой лед","kp_id":"44542","imdb_id":"tt0285583","world_art_id":null,"type":"movie","add":"2021-02-07 15:18:40","orig_title":"Goluboy lyod","year":"1970-01-05","translations":["Оригинальная дорожка"],"quality":"tv","translation":"Оригинальная дорожка","update":"2021-02-08 15:21:50","iframe_src":"//7923.svetacdn.in/si4jsFRrtgrT/movie/47720"},{"id":47719,"title":"Ганна Главари","kp_id":"744494","imdb_id":"tt2739026","world_art_id":null,"type":"movie","add":"2021-02-07 15:15:37","orig_title":"Hanna Glawari","year":"1979-01-01","translations":["Оригинальная дорожка"],"quality":"dvdrip","translation":"Оригинальная дорожка","update":"2021-02-08 15:20:34","iframe_src":"//7923.svetacdn.in/si4jsFRrtgrT/movie/47719"},{"id":47718,"title":"Экзамен на бессмертие","kp_id":"41985","imdb_id":"tt0174616","world_art_id":null,"type":"movie","add":"2021-02-07 15:11:17","orig_title":"Ekzamen na bessmertie","year":"1983-01-01","translations":["Оригинальная дорожка"],"quality":"tv","translation":"Оригинальная дорожка","update":"2021-02-08 15:19:45","iframe_src":"//7923.svetacdn.in/si4jsFRrtgrT/movie/47718"},{"id":47717,"title":"Дорога","kp_id":"464134","imdb_id":"tt4842572","world_art_id":null,"type":"movie","add":"2021-02-07 15:07:32","orig_title":"Doroga","year":"1975-01-01","translations":["Оригинальная дорожка"],"quality":"dvdrip","translation":"Оригинальная дорожка","update":"2021-02-08 15:18:33","iframe_src":"//7923.svetacdn.in/si4jsFRrtgrT/movie/47717"},{"id":47716,"title":"Цветы для Оли","kp_id":"317412","imdb_id":"tt0202636","world_art_id":null,"type":"movie","add":"2021-02-07 14:44:09","orig_title":"Tsvety dlya Oli","year":"1977-05-01","translations":["Оригинальная дорожка"],"quality":"dvdrip","translation":"Оригинальная дорожка","update":"2021-02-08 15:17:37","iframe_src":"//7923.svetacdn.in/si4jsFRrtgrT/movie/47716"},{"id":47715,"title":"Музыка Верди","kp_id":"635975","imdb_id":"tt4202946","world_art_id":null,"type":"movie","add":"2021-02-07 14:40:14","orig_title":"Muzyka Verdi","year":"1961-10-01","translations":["Оригинальная дорожка"],"quality":"sat","translation":"Оригинальная дорожка","update":"2021-02-08 15:16:54","iframe_src":"//7923.svetacdn.in/si4jsFRrtgrT/movie/47715"},{"id":47714,"title":"Записки сумасшедшего","kp_id":"497578","imdb_id":"tt5892150","world_art_id":null,"type":"movie","add":"2021-02-07 13:35:14","orig_title":"Zapiski sumasshedshego","year":"1968-01-28","translations":["Оригинальная дорожка"],"quality":"dvdrip","translation":"Оригинальная дорожка","update":"2021-02-08 15:14:17","iframe_src":"//7923.svetacdn.in/si4jsFRrtgrT/movie/47714"},{"id":47713,"title":"Серебряные трубы","kp_id":"474665","imdb_id":"tt2942750","world_art_id":null,"type":"movie","add":"2021-02-07 13:31:27","orig_title":"Serebryanye truby","year":"1971-03-22","translations":["Оригинальная дорожка"],"quality":"tv","translation":"Оригинальная дорожка","update":"2021-02-08 15:12:08","iframe_src":"//7923.svetacdn.in/si4jsFRrtgrT/movie/47713"},{"id":47712,"title":"Так начиналась легенда","kp_id":"42186","imdb_id":"tt0075304","world_art_id":null,"type":"movie","add":"2021-02-07 13:28:53","orig_title":"Tak nachinalas legenda","year":"1976-04-11","translations":["Оригинальная дорожка"],"quality":"tv","translation":"Оригинальная дорожка","update":"2021-02-08 15:11:12","iframe_src":"//7923.svetacdn.in/si4jsFRrtgrT/movie/47712"},{"id":47711,"title":"Комэск","kp_id":"472200","imdb_id":"tt9357278","world_art_id":null,"type":"movie","add":"2021-02-07 13:25:03","orig_title":"Komesk","year":"1965-01-01","translations":["Оригинальная дорожка"],"quality":"vhs","translation":"Оригинальная дорожка","update":"2021-02-08 15:09:31","iframe_src":"//7923.svetacdn.in/si4jsFRrtgrT/movie/47711"},{"id":47710,"title":"Золотые слова","kp_id":"668175","imdb_id":"tt7972470","world_art_id":null,"type":"movie","add":"2021-02-07 13:21:42","orig_title":"Zolotye Slova","year":"1989-01-01","translations":["Оригинальная дорожка"],"quality":"dvdrip","translation":"Оригинальная дорожка","update":"2021-02-08 15:08:39","iframe_src":"//7923.svetacdn.in/si4jsFRrtgrT/movie/47710"},{"id":47572,"title":"Свинья","kp_id":"1278277","imdb_id":"tt10539136","world_art_id":null,"type":"movie","add":"2021-02-01 08:46:56","orig_title":"Praseto","year":"2019-03-11","translations":["Любительский (многоголосый закадровый) (Синема УС)"],"quality":"webdl","translation":"Любительский (многоголосый закадровый) (Синема УС)","update":"2021-02-08 16:48:30","iframe_src":"//7923.svetacdn.in/si4jsFRrtgrT/movie/47572"},{"id":47571,"title":"Повторный захват горы тигра","kp_id":"1211754","imdb_id":"tt9286542","world_art_id":null,"type":"movie","add":"2021-02-01 08:40:10","orig_title":"Taking Tiger Mountain Revisited","year":"2019-02-10","translations":["Любительский (многоголосый закадровый) (Синема УС)"],"quality":"webdl","translation":"Любительский (многоголосый закадровый) (Синема УС)","update":"2021-02-08 16:48:59","iframe_src":"//7923.svetacdn.in/si4jsFRrtgrT/movie/47571"},{"id":5780,"title":"Что случилось, Пхун-сан?","kp_id":"1206355","imdb_id":"tt9466856","world_art_id":null,"type":"serial","add":"2019-11-20 11:32:58","orig_title":"Waegeurae Pungsangssi","year":"2019-01-09","translations":["Любительский (двухголосый закадровый) (SoftBox)"],"seasons_count":1,"episodes_count":20,"episodes":20,"update":"2019-11-20 21:35:30","iframe_src":"//7923.svetacdn.in/si4jsFRrtgrT/tv-series/5780"},{"id":5779,"title":"Школа «Черная дыра»","kp_id":"255688","imdb_id":"tt0337539","world_art_id":null,"type":"serial","add":"2019-11-19 18:26:21","orig_title":"Strange Days at Blake Holsey High","year":"2002-10-05","translations":["Профессиональный (двухголосый закадровый)","Любительский (двухголосый закадровый)"],"seasons_count":4,"episodes_count":40,"episodes":1,"update":"2019-11-20 21:21:55","iframe_src":"//7923.svetacdn.in/si4jsFRrtgrT/tv-series/5779"},{"id":5778,"title":"Прекрасный мир","kp_id":"1219937","imdb_id":"tt9863724","world_art_id":null,"type":"serial","add":"2019-11-19 18:19:30","orig_title":"Areumdaun Sesang","year":"2019-04-05","translations":["Любительский (двухголосый закадровый) (SoftBox)"],"seasons_count":1,"episodes_count":16,"episodes":16,"update":"2019-11-20 21:01:55","iframe_src":"//7923.svetacdn.in/si4jsFRrtgrT/tv-series/5778"},{"id":5777,"title":"Счастливый конец","kp_id":"506140","imdb_id":"tt1587678","world_art_id":null,"type":"serial","add":"2019-11-19 18:05:58","orig_title":"Happy Endings","year":"2011-04-13","translations":["Профессиональный (многоголосый закадровый) (Fox Life)"],"seasons_count":3,"episodes_count":57,"episodes":22,"update":"2019-11-20 20:50:48","iframe_src":"//7923.svetacdn.in/si4jsFRrtgrT/tv-series/5777"},{"id":5776,"title":"Штрих","kp_id":"1209062","imdb_id":"tt9467164","world_art_id":null,"type":"serial","add":"2019-11-19 18:00:09","orig_title":"Haechi","year":"2019-02-11","translations":["Любительский (двухголосый закадровый) (SoftBox)"],"seasons_count":1,"episodes_count":24,"episodes":24,"update":"2019-11-20 12:10:26","iframe_src":"//7923.svetacdn.in/si4jsFRrtgrT/tv-series/5776"},{"id":5774,"title":"Криминальный талант","kp_id":"84670","imdb_id":"tt0307070","world_art_id":null,"type":"serial","add":"2019-11-19 15:39:50","orig_title":"Kriminalnyy talant","year":"1989-03-25","translations":["Оригинальная дорожка"],"seasons_count":1,"episodes_count":2,"episodes":2,"update":"2019-11-20 12:58:46","iframe_src":"//7923.svetacdn.in/si4jsFRrtgrT/tv-series/5774"},{"id":5773,"title":"Охота на изюбря","kp_id":"161166","imdb_id":"tt0479619","world_art_id":null,"type":"serial","add":"2019-11-19 15:31:24","orig_title":"Okhota na izyubrya","year":"2005-11-01","translations":["Оригинальная дорожка"],"seasons_count":1,"episodes_count":12,"episodes":12,"update":"2019-11-20 12:16:50","iframe_src":"//7923.svetacdn.in/si4jsFRrtgrT/tv-series/5773"},{"id":5760,"title":"Сашка","kp_id":"818558","imdb_id":"tt3862118","world_art_id":null,"type":"serial","add":"2019-11-15 11:30:25","orig_title":"Sashka","year":"2014-01-06","translations":["Оригинальная дорожка"],"seasons_count":1,"episodes_count":100,"episodes":100,"update":"2019-11-19 19:01:40","iframe_src":"//7923.svetacdn.in/si4jsFRrtgrT/tv-series/5760"},{"id":5753,"title":"Охотник за головами","kp_id":"951953","imdb_id":"tt5501420","world_art_id":null,"type":"serial","add":"2019-11-15 10:48:23","orig_title":"Okhotnik za golovami","year":"2015-12-19","translations":["Оригинальная дорожка"],"seasons_count":1,"episodes_count":12,"episodes":12,"update":"2019-11-20 11:47:14","iframe_src":"//7923.svetacdn.in/si4jsFRrtgrT/tv-series/5753"},{"id":5741,"title":"Невеста","kp_id":"425815","imdb_id":"tt0924171","world_art_id":null,"type":"serial","add":"2019-11-13 13:21:49","orig_title":"Ezo Gelin","year":"2006-01-01","translations":["Профессиональный (многоголосый закадровый)"],"seasons_count":2,"episodes_count":65,"episodes":35,"update":"2019-11-20 12:02:43","iframe_src":"//7923.svetacdn.in/si4jsFRrtgrT/tv-series/5741"},{"id":5738,"title":"Автономка","kp_id":"271674","imdb_id":"tt4983964","world_art_id":null,"type":"serial","add":"2019-11-13 10:13:08","orig_title":"Avtonomka","year":"2006-01-01","translations":["Оригинальная дорожка"],"seasons_count":1,"episodes_count":32,"episodes":32,"update":"2019-11-20 09:42:36","iframe_src":"//7923.svetacdn.in/si4jsFRrtgrT/tv-series/5738"},{"id":5733,"title":"Металлопокалипсис","kp_id":"390371","imdb_id":"tt0839188","world_art_id":null,"type":"serial","add":"2019-11-12 11:12:31","orig_title":"Metalocalypse","year":"2006-08-06","translations":["Профессиональный (многоголосый закадровый) (2x2)","Любительский (одноголосый закадровый)"],"seasons_count":4,"episodes_count":60,"episodes":12,"update":"2019-11-20 10:31:40","iframe_src":"//7923.svetacdn.in/si4jsFRrtgrT/tv-series/5733"},{"id":5732,"title":"Грязные деньги, лживая любовь","kp_id":"838305","imdb_id":"tt3565486","world_art_id":null,"type":"serial","add":"2019-11-12 10:47:21","orig_title":"Kara Para Ask","year":"2014-03-12","translations":["Любительский (одноголосый закадровый) (turok1990)"],"seasons_count":2,"episodes_count":54,"episodes":41,"update":"2019-11-20 08:15:52","iframe_src":"//7923.svetacdn.in/si4jsFRrtgrT/tv-series/5732"},{"id":5725,"title":"Без вины виноватая","kp_id":"579606","imdb_id":"tt1783916","world_art_id":null,"type":"serial","add":"2019-11-11 16:49:47","orig_title":"Fatmagül'ün Suçu Ne?","year":"2010-09-16","translations":["Профессиональный (многоголосый закадровый)"],"seasons_count":2,"episodes_count":80,"episodes":41,"update":"2019-11-20 07:19:20","iframe_src":"//7923.svetacdn.in/si4jsFRrtgrT/tv-series/5725"},{"id":5716,"title":"Исчезновение","kp_id":"971160","imdb_id":"tt3687802","world_art_id":null,"type":"serial","add":"2019-11-11 07:29:52","orig_title":"Disparue","year":"2015-04-22","translations":["Профессиональный (многоголосый закадровый) (Эй Би Видео | AB-Video)","Профессиональный (многоголосый закадровый) (Первый канал | ОРТ)"],"seasons_count":1,"episodes_count":8,"episodes":8,"update":"2019-11-19 12:44:45","iframe_src":"//7923.svetacdn.in/si4jsFRrtgrT/tv-series/5716"},{"id":5639,"title":"Военная разведка: Западный фронт","kp_id":"470911","imdb_id":"tt2836788","world_art_id":null,"type":"serial","add":"2019-11-05 13:44:54","orig_title":"Voennaya razvedka. Zapadnyy front","year":"2010-09-25","translations":["Оригинальная дорожка"],"seasons_count":1,"episodes_count":8,"episodes":8,"update":"2019-11-20 08:21:38","iframe_src":"//7923.svetacdn.in/si4jsFRrtgrT/tv-series/5639"},{"id":32457,"title":"Господин 420","kp_id":"39747","imdb_id":"tt0048613","world_art_id":null,"type":"movie","add":"2019-10-28 21:56:05","orig_title":"Shree 420","year":"1955-09-06","translations":["Профессиональный (многоголосый закадровый)","Полное дублирование"],"quality":"dvdrip","translation":"Профессиональный (многоголосый закадровый)","update":"2021-02-08 18:27:33","iframe_src":"//7923.svetacdn.in/si4jsFRrtgrT/movie/32457"},{"id":5531,"title":"Приключения муми-троллей","kp_id":"397360","imdb_id":"tt0247117","world_art_id":null,"type":"serial","add":"2019-10-25 20:53:41","orig_title":"Tanoshî Mûmin ikka","year":"1990-04-12","translations":["Профессиональный (многоголосый закадровый)","Любительский (двухголосый закадровый)"],"seasons_count":2,"episodes_count":104,"episodes":26,"update":"2019-11-20 11:27:04","iframe_src":"//7923.svetacdn.in/si4jsFRrtgrT/tv-series/5531"},{"id":4784,"title":"Маньяк","kp_id":"968463","imdb_id":"tt3714902","world_art_id":null,"type":"serial","add":"2019-07-04 05:18:01","orig_title":"Maniac","year":"2015-12-01","translations":["Любительский (одноголосый закадровый) (datynet | Агапов Антон)"],"seasons_count":1,"episodes_count":10,"episodes":10,"update":"2019-11-20 11:56:26","iframe_src":"//7923.svetacdn.in/si4jsFRrtgrT/tv-series/4784"},{"id":24308,"title":"Белый рояль","kp_id":"46074","imdb_id":"tt0312454","world_art_id":null,"type":"movie","add":"2019-04-11 19:30:09","orig_title":"Belyy royal","year":"1969-06-30","translations":["Оригинальная дорожка","Оригинальная дорожка"],"quality":"tv","translation":"Оригинальная дорожка","update":"2021-02-08 15:13:09","iframe_src":"//7923.svetacdn.in/si4jsFRrtgrT/movie/24308"},{"id":18348,"title":"Ловушка для одинокого мужчины","kp_id":"45121","imdb_id":"tt0100069","world_art_id":null,"type":"movie","add":"2018-08-16 13:25:12","orig_title":"Lovushka dlya odinokogo muzhchiny","year":"1990-12-01","translations":["Оригинальная дорожка","Оригинальная дорожка"],"quality":"hdtv","translation":"Оригинальная дорожка","update":"2021-02-08 15:10:31","iframe_src":"//7923.svetacdn.in/si4jsFRrtgrT/movie/18348"},{"id":1339,"title":"Обман","kp_id":"885661","imdb_id":"tt3638488","world_art_id":null,"type":"serial","add":"2017-06-30 05:09:45","orig_title":"Bedrag","year":"2016-01-01","translations":[],"seasons_count":3,"episodes_count":30,"episodes":10,"update":"2019-11-19 14:22:10","iframe_src":"//7923.svetacdn.in/si4jsFRrtgrT/tv-series/1339"},{"id":7526,"title":"Летят журавли","kp_id":"7724","imdb_id":"tt0050634","world_art_id":null,"type":"movie","add":"2016-11-20 08:11:52","orig_title":"Letyat zhuravli","year":"1957-11-27","translations":["Оригинальная дорожка","Оригинальная дорожка"],"quality":"webdl","translation":"Оригинальная дорожка","update":"2021-02-08 15:16:00","iframe_src":"//7923.svetacdn.in/si4jsFRrtgrT/movie/7526"},{"id":403,"title":"Коллекция","kp_id":"991571","imdb_id":"tt5239494","world_art_id":null,"type":"serial","add":"2016-09-04 11:54:14","orig_title":"The Collection","year":"2016-09-02","translations":["Профессиональный (многоголосый закадровый) (BaibaKo)","Профессиональный (многоголосый закадровый) (Первый канал | ОРТ)"],"seasons_count":1,"episodes_count":9,"episodes":9,"update":"2019-11-20 09:23:36","iframe_src":"//7923.svetacdn.in/si4jsFRrtgrT/tv-series/403"}],"current_page":332,"first_page_url":"https://videocdn.tv/api/short?limit=100&api_token=X6EwAUfE5M9xbo7y0Bp0aPf3uXxG2KLL&cache3332=3332&page=1","from":33101,"last_page":644,"last_page_url":"https://videocdn.tv/api/short?limit=100&api_token=X6EwAUfE5M9xbo7y0Bp0aPf3uXxG2KLL&cache3332=3332&page=644","next_page_url":"https://videocdn.tv/api/short?limit=100&api_token=X6EwAUfE5M9xbo7y0Bp0aPf3uXxG2KLL&cache3332=3332&page=333","path":"https://videocdn.tv/api/short","per_page":100,"prev_page_url":"https://videocdn.tv/api/short?limit=100&api_token=X6EwAUfE5M9xbo7y0Bp0aPf3uXxG2KLL&cache3332=3332&page=331","to":33140,"total":64398}