{"result":true,"data":[{"id":43517,"title":"Паранормальное влечение","kp_id":"1259395","imdb_id":"tt10223876","world_art_id":null,"type":"movie","add":"2020-09-14 11:16:17","orig_title":"Paranormal Attraction","year":"2020-09-09","translations":["Любительский (многоголосый закадровый) (@MUZOBOZ@)"],"quality":"webdl","translation":"Любительский (многоголосый закадровый) (@MUZOBOZ@)","update":"2020-09-14 16:13:28","iframe_src":"//8209.svetacdn.in/71tsRs29n5tZ/movie/43517"},{"id":43516,"title":"Эскорт на высоте","kp_id":"1318596","imdb_id":"tt11114708","world_art_id":null,"type":"movie","add":"2020-09-14 11:13:42","orig_title":"Secrets in the Air","year":"2020-03-16","translations":["Любительский (многоголосый закадровый) (Синема УС)"],"quality":"webdl","translation":"Любительский (многоголосый закадровый) (Синема УС)","update":"2020-09-14 16:14:08","iframe_src":"//8209.svetacdn.in/71tsRs29n5tZ/movie/43516"},{"id":43508,"title":"Я и я","kp_id":"1196968","imdb_id":"tt12805676","world_art_id":null,"type":"movie","add":"2020-09-14 10:53:29","orig_title":"Me and Me","year":"2020-06-18","translations":["Любительский (двухголосый закадровый) (Колобок)"],"quality":"webdl","translation":"Любительский (двухголосый закадровый) (Колобок)","update":"2020-09-14 19:10:22","iframe_src":"//8209.svetacdn.in/71tsRs29n5tZ/movie/43508"},{"id":43226,"title":"Мартышка и смычки","kp_id":"487053","imdb_id":"tt9239288","world_art_id":null,"type":"movie","add":"2020-09-07 17:22:06","orig_title":"Martyshka i smychki","year":"1970-01-01","translations":["Оригинальная дорожка"],"quality":"dvdrip","translation":"Оригинальная дорожка","update":"2020-09-14 15:21:38","iframe_src":"//8209.svetacdn.in/71tsRs29n5tZ/movie/43226"},{"id":43224,"title":"Мы за солнышком идем","kp_id":"257965","imdb_id":"tt6052634","world_art_id":null,"type":"movie","add":"2020-09-07 17:17:04","orig_title":"My Za Solnyshkom Idyom","year":"1958-08-04","translations":["Оригинальная дорожка"],"quality":"dvdrip","translation":"Оригинальная дорожка","update":"2020-09-14 15:20:27","iframe_src":"//8209.svetacdn.in/71tsRs29n5tZ/movie/43224"},{"id":43223,"title":"Найда","kp_id":"465013","imdb_id":"tt6052736","world_art_id":null,"type":"movie","add":"2020-09-07 17:14:39","orig_title":"Nayda","year":"1984-01-01","translations":["Оригинальная дорожка"],"quality":"dvdrip","translation":"Оригинальная дорожка","update":"2020-09-14 15:19:29","iframe_src":"//8209.svetacdn.in/71tsRs29n5tZ/movie/43223"},{"id":43222,"title":"Настоящий медвежонок","kp_id":"579594","imdb_id":"tt6369626","world_art_id":null,"type":"movie","add":"2020-09-07 17:10:01","orig_title":"Nastoyashchiy medvezhonok","year":"1977-01-01","translations":["Оригинальная дорожка"],"quality":"dvdrip","translation":"Оригинальная дорожка","update":"2020-09-14 15:18:35","iframe_src":"//8209.svetacdn.in/71tsRs29n5tZ/movie/43222"},{"id":43132,"title":"Осторожно, караси!","kp_id":"838968","imdb_id":null,"world_art_id":null,"type":"movie","add":"2020-09-06 18:34:04","orig_title":"Осторожно, караси!","year":"1987-01-01","translations":["Оригинальная дорожка"],"quality":"webdl","translation":"Оригинальная дорожка","update":"2020-09-14 15:17:42","iframe_src":"//8209.svetacdn.in/71tsRs29n5tZ/movie/43132"},{"id":43131,"title":"Отчего кошку назвали кошкой","kp_id":"670129","imdb_id":"tt8987748","world_art_id":null,"type":"movie","add":"2020-09-06 18:28:56","orig_title":"Otchego koshku nazvali koshkoy","year":"1982-01-01","translations":["Оригинальная дорожка"],"quality":"dvdrip","translation":"Оригинальная дорожка","update":"2020-09-14 15:16:48","iframe_src":"//8209.svetacdn.in/71tsRs29n5tZ/movie/43131"},{"id":43130,"title":"Представление начинается","kp_id":"1271103","imdb_id":null,"world_art_id":null,"type":"movie","add":"2020-09-06 18:26:35","orig_title":"Представление начинается","year":"1966-01-01","translations":["Оригинальная дорожка"],"quality":"dvdrip","translation":"Оригинальная дорожка","update":"2020-09-14 15:15:55","iframe_src":"//8209.svetacdn.in/71tsRs29n5tZ/movie/43130"},{"id":43129,"title":"Приключения малыша Гиппопо","kp_id":"678709","imdb_id":"tt9272834","world_art_id":null,"type":"movie","add":"2020-09-06 18:22:15","orig_title":"Priklyucheniya malysha Gippopo","year":"1974-01-01","translations":["Оригинальная дорожка"],"quality":"dvdrip","translation":"Оригинальная дорожка","update":"2020-09-14 15:14:38","iframe_src":"//8209.svetacdn.in/71tsRs29n5tZ/movie/43129"},{"id":43128,"title":"Про верблюжонка","kp_id":"260109","imdb_id":null,"world_art_id":null,"type":"movie","add":"2020-09-06 18:19:37","orig_title":"Про верблюжонка","year":"1987-01-01","translations":["Оригинальная дорожка"],"quality":"dvdrip","translation":"Оригинальная дорожка","update":"2020-09-14 15:13:23","iframe_src":"//8209.svetacdn.in/71tsRs29n5tZ/movie/43128"},{"id":43127,"title":"Птицелов","kp_id":"628565","imdb_id":"tt9716832","world_art_id":null,"type":"movie","add":"2020-09-06 18:16:00","orig_title":"Ptitselov","year":"1984-01-01","translations":["Оригинальная дорожка"],"quality":"sat","translation":"Оригинальная дорожка","update":"2020-09-14 07:41:16","iframe_src":"//8209.svetacdn.in/71tsRs29n5tZ/movie/43127"},{"id":43126,"title":"Самый удобный, самый прочный, самый красивый домик","kp_id":null,"imdb_id":"tt10228170","world_art_id":null,"type":"movie","add":"2020-09-06 18:13:13","orig_title":"Samiy udobniy, samiy prochniy, samiy krasiviy domik","year":"1983-01-01","translations":["Оригинальная дорожка"],"quality":"dvdrip","translation":"Оригинальная дорожка","update":"2020-09-14 07:40:15","iframe_src":"//8209.svetacdn.in/71tsRs29n5tZ/movie/43126"},{"id":43125,"title":"Сказка о волшебном гранате","kp_id":"647476","imdb_id":"tt3812798","world_art_id":null,"type":"movie","add":"2020-09-06 18:06:38","orig_title":"Skazka o volshebnom granate","year":"1982-01-01","translations":["Оригинальная дорожка"],"quality":"dvdrip","translation":"Оригинальная дорожка","update":"2020-09-14 07:38:52","iframe_src":"//8209.svetacdn.in/71tsRs29n5tZ/movie/43125"},{"id":43124,"title":"Сказка про Бачо и его маму","kp_id":"270708","imdb_id":"tt0822034","world_art_id":null,"type":"movie","add":"2020-09-06 18:03:21","orig_title":"Zgapari Bachoze da dedamisze","year":"1978-01-01","translations":["Оригинальная дорожка"],"quality":"sat","translation":"Оригинальная дорожка","update":"2020-09-14 07:37:40","iframe_src":"//8209.svetacdn.in/71tsRs29n5tZ/movie/43124"},{"id":43123,"title":"Утренняя песенка","kp_id":"465611","imdb_id":null,"world_art_id":null,"type":"movie","add":"2020-09-06 17:58:34","orig_title":"Утренняя песенка","year":"1976-06-04","translations":["Оригинальная дорожка"],"quality":"dvdrip","translation":"Оригинальная дорожка","update":"2020-09-14 07:37:05","iframe_src":"//8209.svetacdn.in/71tsRs29n5tZ/movie/43123"},{"id":30593,"title":"Побег роботов","kp_id":"1681","imdb_id":"tt0082507","world_art_id":null,"type":"movie","add":"2019-09-05 12:13:20","orig_title":"Heartbeeps","year":"1981-12-18","translations":["Профессиональный (многоголосый закадровый)","Original (English)","Профессиональный (двухголосый закадровый)"],"quality":"webdl","translation":"Профессиональный (многоголосый закадровый)","update":"2020-09-14 10:15:54","iframe_src":"//8209.svetacdn.in/71tsRs29n5tZ/movie/30593"},{"id":19135,"title":"Счастье в волосах","kp_id":"84043","imdb_id":"tt0365545","world_art_id":null,"type":"movie","add":"2018-09-23 22:04:34","orig_title":"Nappily Ever After","year":"2018-09-21","translations":["Полное дублирование","Профессиональный (многоголосый закадровый) (Jaskier)","Полное дублирование","Профессиональный (многоголосый закадровый) (HDrezka Studio)"],"quality":"webdl","translation":"Полное дублирование","update":"2020-09-14 07:43:21","iframe_src":"//8209.svetacdn.in/71tsRs29n5tZ/movie/19135"},{"id":15591,"title":"Совсем не Золушка","kp_id":"1065007","imdb_id":"tt7231572","world_art_id":null,"type":"movie","add":"2018-03-13 21:56:22","orig_title":"Not Cinderella's Type","year":"2018-02-20","translations":["Любительский (многоголосый закадровый) (Синема УС)","Любительский (многоголосый закадровый) (Синема УС)"],"quality":"webdl","translation":"Любительский (многоголосый закадровый) (Синема УС)","update":"2020-09-14 10:14:35","iframe_src":"//8209.svetacdn.in/71tsRs29n5tZ/movie/15591"}],"current_page":678,"first_page_url":"https://videocdn.tv/api/short?limit=100&api_token=EnbO9h8pv1VyjbCJhg0WM9nG259n7mtz&cache3678=3678&page=1","from":67701,"last_page":663,"last_page_url":"https://videocdn.tv/api/short?limit=100&api_token=EnbO9h8pv1VyjbCJhg0WM9nG259n7mtz&cache3678=3678&page=663","next_page_url":null,"path":"https://videocdn.tv/api/short","per_page":100,"prev_page_url":"https://videocdn.tv/api/short?limit=100&api_token=EnbO9h8pv1VyjbCJhg0WM9nG259n7mtz&cache3678=3678&page=677","to":67720,"total":66293}