{"result":true,"data":[{"id":24473,"title":"Экипаж машины боевой","kp_id":"41983","imdb_id":"tt0085481","world_art_id":null,"type":"movie","add":"2019-04-12 22:28:10","orig_title":"Ekipazh mashiny boevoy","year":"1984-04-30","translations":["Оригинальная дорожка"],"quality":"dvdrip","translation":"Оригинальная дорожка","update":"2019-04-16 12:00:52","iframe_src":"//8422.svetacdn.in/si4jsFRrtgrT/movie/24473"},{"id":24472,"title":"Друзья из табора","kp_id":"94203","imdb_id":"tt0424056","world_art_id":null,"type":"movie","add":"2019-04-12 22:26:08","orig_title":"Druzya iz tabora","year":"1938-06-15","translations":["Оригинальная дорожка"],"quality":"dvdrip","translation":"Оригинальная дорожка","update":"2019-04-16 12:00:24","iframe_src":"//8422.svetacdn.in/si4jsFRrtgrT/movie/24472"},{"id":24471,"title":"Дом там, где Харт","kp_id":"31993","imdb_id":"tt0093204","world_art_id":null,"type":"movie","add":"2019-04-12 22:23:52","orig_title":"Home Is Where the Hart Is","year":"1987-12-04","translations":["Профессиональный (двухголосый закадровый) (НТВ)"],"quality":"hdtv","translation":"Профессиональный (двухголосый закадровый) (НТВ)","update":"2019-04-16 11:59:37","iframe_src":"//8422.svetacdn.in/si4jsFRrtgrT/movie/24471"},{"id":24470,"title":"День командира дивизии","kp_id":"44134","imdb_id":"tt0252367","world_art_id":null,"type":"movie","add":"2019-04-12 22:22:36","orig_title":"Den komandira divizii","year":"1983-08-08","translations":["Оригинальная дорожка"],"quality":"dvdrip","translation":"Оригинальная дорожка","update":"2019-04-16 11:57:42","iframe_src":"//8422.svetacdn.in/si4jsFRrtgrT/movie/24470"},{"id":24469,"title":"Комната потерянных игрушек","kp_id":"422924","imdb_id":null,"world_art_id":null,"type":"movie","add":"2019-04-12 21:34:33","orig_title":"Комната потерянных игрушек","year":"2007-01-01","translations":["Оригинальная дорожка"],"quality":"sat","translation":"Оригинальная дорожка","update":"2019-04-16 11:56:18","iframe_src":"//8422.svetacdn.in/si4jsFRrtgrT/movie/24469"},{"id":24465,"title":"Конек-Горбунок","kp_id":"44915","imdb_id":"tt0239535","world_art_id":null,"type":"movie","add":"2019-04-12 21:23:20","orig_title":"Konyok-gorbunok","year":"1941-07-31","translations":["Оригинальная дорожка"],"quality":"dvdrip","translation":"Оригинальная дорожка","update":"2019-04-16 11:53:41","iframe_src":"//8422.svetacdn.in/si4jsFRrtgrT/movie/24465"},{"id":24461,"title":"Король, дама, валет","kp_id":"439790","imdb_id":null,"world_art_id":null,"type":"movie","add":"2019-04-12 21:09:07","orig_title":"Король, дама, валет","year":"2008-10-25","translations":["Оригинальная дорожка"],"quality":"dvdrip","translation":"Оригинальная дорожка","update":"2019-04-16 11:52:43","iframe_src":"//8422.svetacdn.in/si4jsFRrtgrT/movie/24461"},{"id":24457,"title":"Крепость на колесах","kp_id":"461755","imdb_id":"tt4974212","world_art_id":null,"type":"movie","add":"2019-04-12 20:59:17","orig_title":"Krepost na kolyosakh","year":"1961-02-20","translations":["Оригинальная дорожка"],"quality":"dvdrip","translation":"Оригинальная дорожка","update":"2019-04-16 11:50:08","iframe_src":"//8422.svetacdn.in/si4jsFRrtgrT/movie/24457"},{"id":24451,"title":"Райский уголок","kp_id":"460118","imdb_id":"tt3562806","world_art_id":null,"type":"movie","add":"2019-04-12 20:47:57","orig_title":"Krovosmeshenie","year":"2009-11-09","translations":["Оригинальная дорожка"],"quality":"dvdrip","translation":"Оригинальная дорожка","update":"2019-04-16 11:36:34","iframe_src":"//8422.svetacdn.in/si4jsFRrtgrT/movie/24451"},{"id":24445,"title":"Та сторона, где ветер","kp_id":"474702","imdb_id":"tt2390331","world_art_id":null,"type":"movie","add":"2019-04-12 20:33:18","orig_title":"Ta storona, gde veter","year":"1979-01-01","translations":["Оригинальная дорожка"],"quality":"webdl","translation":"Оригинальная дорожка","update":"2019-04-16 11:33:06","iframe_src":"//8422.svetacdn.in/si4jsFRrtgrT/movie/24445"},{"id":24444,"title":"Лев Гурыч Синичкин","kp_id":"81429","imdb_id":"tt0071749","world_art_id":null,"type":"movie","add":"2019-04-12 20:19:58","orig_title":"Lev Gurych Sinichkin","year":"1974-12-31","translations":["Оригинальная дорожка"],"quality":"dvdrip","translation":"Оригинальная дорожка","update":"2019-04-16 11:24:44","iframe_src":"//8422.svetacdn.in/si4jsFRrtgrT/movie/24444"},{"id":24443,"title":"Любушка","kp_id":"429037","imdb_id":"tt4988454","world_art_id":null,"type":"movie","add":"2019-04-12 19:59:07","orig_title":"Lyubushka","year":"1961-08-09","translations":["Оригинальная дорожка"],"quality":"sat","translation":"Оригинальная дорожка","update":"2019-04-16 11:22:53","iframe_src":"//8422.svetacdn.in/si4jsFRrtgrT/movie/24443"},{"id":24442,"title":"Майские звезды","kp_id":"46509","imdb_id":"tt0053036","world_art_id":null,"type":"movie","add":"2019-04-12 19:55:10","orig_title":"Mayskie zvyozdy","year":"1959-05-05","translations":["Оригинальная дорожка"],"quality":"dvdrip","translation":"Оригинальная дорожка","update":"2019-04-16 11:22:04","iframe_src":"//8422.svetacdn.in/si4jsFRrtgrT/movie/24442"},{"id":24441,"title":"Мир входящему","kp_id":"46645","imdb_id":"tt0055181","world_art_id":null,"type":"movie","add":"2019-04-12 19:49:54","orig_title":"Mir vkhodyashchemu","year":"1961-09-04","translations":["Оригинальная дорожка"],"quality":"dvdrip","translation":"Оригинальная дорожка","update":"2019-04-16 11:16:37","iframe_src":"//8422.svetacdn.in/si4jsFRrtgrT/movie/24441"},{"id":24440,"title":"В шесть часов вечера после войны","kp_id":"45632","imdb_id":"tt0037423","world_art_id":null,"type":"movie","add":"2019-04-12 19:38:08","orig_title":"V shest chasov vechera posle voyny","year":"1944-11-16","translations":["Оригинальная дорожка"],"quality":"dvdrip","translation":"Оригинальная дорожка","update":"2019-04-16 11:13:55","iframe_src":"//8422.svetacdn.in/si4jsFRrtgrT/movie/24440"},{"id":24439,"title":"Ночь бойца","kp_id":"447689","imdb_id":"tt1495887","world_art_id":null,"type":"movie","add":"2019-04-12 19:22:05","orig_title":"Noch boytsa","year":"2009-09-10","translations":["Оригинальная дорожка"],"quality":"dvdrip","translation":"Оригинальная дорожка","update":"2019-04-16 11:12:26","iframe_src":"//8422.svetacdn.in/si4jsFRrtgrT/movie/24439"},{"id":24438,"title":"Обида","kp_id":"42693","imdb_id":"tt0273903","world_art_id":null,"type":"movie","add":"2019-04-12 19:17:18","orig_title":"Obida","year":"1987-09-01","translations":["Оригинальная дорожка"],"quality":"sat","translation":"Оригинальная дорожка","update":"2019-04-16 11:11:46","iframe_src":"//8422.svetacdn.in/si4jsFRrtgrT/movie/24438"},{"id":24437,"title":"Одиссея 1989","kp_id":"419534","imdb_id":"tt2200070","world_art_id":null,"type":"movie","add":"2019-04-12 19:11:42","orig_title":"Odisseya 1989","year":"2003-02-18","translations":["Оригинальная дорожка"],"quality":"dvdrip","translation":"Оригинальная дорожка","update":"2019-04-16 11:10:37","iframe_src":"//8422.svetacdn.in/si4jsFRrtgrT/movie/24437"},{"id":24436,"title":"Папа напрокат","kp_id":"433680","imdb_id":"tt1775357","world_art_id":null,"type":"movie","add":"2019-04-12 19:01:50","orig_title":"Papa naprokat","year":"2008-11-30","translations":["Оригинальная дорожка"],"quality":"hdtv","translation":"Оригинальная дорожка","update":"2019-04-16 11:08:12","iframe_src":"//8422.svetacdn.in/si4jsFRrtgrT/movie/24436"},{"id":24435,"title":"Петька в космосе","kp_id":"474724","imdb_id":"tt1538515","world_art_id":null,"type":"movie","add":"2019-04-12 18:42:03","orig_title":"Petka v kosmose","year":"1973-04-30","translations":["Оригинальная дорожка"],"quality":"sat","translation":"Оригинальная дорожка","update":"2019-04-16 11:06:52","iframe_src":"//8422.svetacdn.in/si4jsFRrtgrT/movie/24435"}],"current_page":1736,"first_page_url":"https://videocdn.tv/api/short?limit=100&api_token=X6EwAUfE5M9xbo7y0Bp0aPf3uXxG2KLL&cache31736=31736&page=1","from":173501,"last_page":677,"last_page_url":"https://videocdn.tv/api/short?limit=100&api_token=X6EwAUfE5M9xbo7y0Bp0aPf3uXxG2KLL&cache31736=31736&page=677","next_page_url":null,"path":"https://videocdn.tv/api/short","per_page":100,"prev_page_url":"https://videocdn.tv/api/short?limit=100&api_token=X6EwAUfE5M9xbo7y0Bp0aPf3uXxG2KLL&cache31736=31736&page=1735","to":173520,"total":67678}