{"result":true,"data":[{"id":39884,"title":"Тайна рабочего","kp_id":"1184513","imdb_id":"tt8819168","world_art_id":null,"type":"movie","add":"2020-04-27 20:43:16","orig_title":"Employee's Mystery","year":"2019-02-04","translations":["Любительский (многоголосый закадровый) (Синема УС)"],"quality":"webdl","translation":"Любительский (многоголосый закадровый) (Синема УС)","update":"2020-04-28 05:36:29","iframe_src":"//2413.svetacdn.in/IAF0wWTdNYZm/movie/39884"},{"id":39883,"title":"Фишертаг","kp_id":null,"imdb_id":"tt10406630","world_art_id":null,"type":"movie","add":"2020-04-27 20:40:34","orig_title":"Fischertag","year":"2019-05-23","translations":["Любительский (многоголосый закадровый) (Синема УС)"],"quality":"webdl","translation":"Любительский (многоголосый закадровый) (Синема УС)","update":"2020-04-28 05:35:35","iframe_src":"//2413.svetacdn.in/IAF0wWTdNYZm/movie/39883"},{"id":39881,"title":"Эти странные дни","kp_id":"1129401","imdb_id":"tt7897352","world_art_id":null,"type":"movie","add":"2020-04-27 20:29:14","orig_title":"Los días particulares","year":"2019-06-28","translations":["Любительский (многоголосый закадровый) (Синема УС)"],"quality":"webdl","translation":"Любительский (многоголосый закадровый) (Синема УС)","update":"2020-04-28 05:28:47","iframe_src":"//2413.svetacdn.in/IAF0wWTdNYZm/movie/39881"},{"id":39880,"title":"Шахта в Рьен","kp_id":"1229182","imdb_id":"tt9568486","world_art_id":null,"type":"movie","add":"2020-04-27 20:26:16","orig_title":"Mine de rien","year":"2020-01-16","translations":["Любительский (многоголосый закадровый) (AlphaProject)"],"quality":"webdl","translation":"Любительский (многоголосый закадровый) (AlphaProject)","update":"2020-04-28 05:27:41","iframe_src":"//2413.svetacdn.in/IAF0wWTdNYZm/movie/39880"},{"id":39877,"title":"Четырнадцать","kp_id":"1231577","imdb_id":"tt9626278","world_art_id":null,"type":"movie","add":"2020-04-27 11:23:27","orig_title":"Fourteen","year":"2019-02-08","translations":["Любительский (многоголосый закадровый) (Синема УС)"],"quality":"webdl","translation":"Любительский (многоголосый закадровый) (Синема УС)","update":"2020-04-27 12:41:29","iframe_src":"//2413.svetacdn.in/IAF0wWTdNYZm/movie/39877"},{"id":39871,"title":"Курьёзы","kp_id":"1320569","imdb_id":null,"world_art_id":null,"type":"movie","add":"2020-04-27 04:25:17","orig_title":"Kuryozy","year":"2019-01-01","translations":["Оригинальная дорожка"],"quality":"webdl","translation":"Оригинальная дорожка","update":"2020-04-27 16:27:16","iframe_src":"//2413.svetacdn.in/IAF0wWTdNYZm/movie/39871"},{"id":39777,"title":"Бюро находок (Фильм 4)","kp_id":"460550","imdb_id":null,"world_art_id":null,"type":"movie","add":"2020-04-24 12:33:45","orig_title":"Бюро находок (Фильм 4)","year":"1984-01-01","translations":["Оригинальная дорожка"],"quality":"dvdrip","translation":"Оригинальная дорожка","update":"2020-04-27 12:30:22","iframe_src":"//2413.svetacdn.in/IAF0wWTdNYZm/movie/39777"},{"id":39745,"title":"Природа любви","kp_id":"1341250","imdb_id":"tt11616596","world_art_id":null,"type":"movie","add":"2020-04-23 16:16:11","orig_title":"Nature of Love","year":"2020-04-18","translations":["[EN] Original (English)","Любительский (многоголосый закадровый) (AlphaProject)"],"quality":"hdtv","translation":"[EN] Original (English)","update":"2020-04-27 12:31:40","iframe_src":"//2413.svetacdn.in/IAF0wWTdNYZm/movie/39745"},{"id":39644,"title":"Хорошая химия","kp_id":"272425","imdb_id":"tt0496306","world_art_id":null,"type":"movie","add":"2020-04-21 07:32:19","orig_title":"Good Chemistry","year":"2008-01-04","translations":["Профессиональный (двухголосый закадровый)"],"quality":"dvdrip","translation":"Профессиональный (двухголосый закадровый)","update":"2020-04-28 08:07:02","iframe_src":"//2413.svetacdn.in/IAF0wWTdNYZm/movie/39644"},{"id":39566,"title":"Междоусобная война","kp_id":"34966","imdb_id":"tt0280396","world_art_id":null,"type":"movie","add":"2020-04-19 12:06:07","orig_title":"Adharm","year":"1992-02-21","translations":["Профессиональный (многоголосый закадровый) (ZEE TV)"],"quality":"dvdrip","translation":"Профессиональный (многоголосый закадровый) (ZEE TV)","update":"2020-04-28 10:20:08","iframe_src":"//2413.svetacdn.in/IAF0wWTdNYZm/movie/39566"},{"id":39565,"title":"Говорить опасно для здоровья","kp_id":"820459","imdb_id":"tt3465996","world_art_id":null,"type":"movie","add":"2020-04-19 12:03:42","orig_title":"Vaayai Moodi Pesavum","year":"2014-04-24","translations":["Профессиональный (многоголосый закадровый) (SDI Media | Iyuno-SDI Group Russia)"],"quality":"hdrip","translation":"Профессиональный (многоголосый закадровый) (SDI Media | Iyuno-SDI Group Russia)","update":"2020-04-28 09:16:08","iframe_src":"//2413.svetacdn.in/IAF0wWTdNYZm/movie/39565"},{"id":39564,"title":"Одиночка","kp_id":"36621","imdb_id":"tt0101284","world_art_id":null,"type":"movie","add":"2020-04-19 11:56:28","orig_title":"Akayla","year":"1991-11-08","translations":["Профессиональный (многоголосый закадровый) (Формат AB)"],"quality":"dvdrip","translation":"Профессиональный (многоголосый закадровый) (Формат AB)","update":"2020-04-28 09:12:38","iframe_src":"//2413.svetacdn.in/IAF0wWTdNYZm/movie/39564"},{"id":39562,"title":"Щедрое сердце","kp_id":"77199","imdb_id":"tt0317117","world_art_id":null,"type":"movie","add":"2020-04-19 11:52:38","orig_title":"Bade Dil Wala","year":"1983-09-24","translations":["Любительский (одноголосый закадровый)"],"quality":"dvdrip","translation":"Любительский (одноголосый закадровый)","update":"2020-04-28 09:12:00","iframe_src":"//2413.svetacdn.in/IAF0wWTdNYZm/movie/39562"},{"id":39561,"title":"Такой как ты не встречал","kp_id":"272201","imdb_id":"tt0051117","world_art_id":null,"type":"movie","add":"2020-04-19 11:50:27","orig_title":"Tumsa Nahin Dekha","year":"1957-01-01","translations":["Любительский (одноголосый закадровый)"],"quality":"dvdrip","translation":"Любительский (одноголосый закадровый)","update":"2020-04-28 09:10:31","iframe_src":"//2413.svetacdn.in/IAF0wWTdNYZm/movie/39561"},{"id":39560,"title":"Одиночка","kp_id":"930676","imdb_id":"tt4987556","world_art_id":null,"type":"movie","add":"2020-04-19 11:48:02","orig_title":"Thani Oruvan","year":"2015-08-28","translations":["Любительский (одноголосый закадровый)"],"quality":"hdrip","translation":"Любительский (одноголосый закадровый)","update":"2020-04-28 09:08:53","iframe_src":"//2413.svetacdn.in/IAF0wWTdNYZm/movie/39560"},{"id":39516,"title":"Рабы, предназначенные мне судьбой","kp_id":"1032842","imdb_id":"tt6493974","world_art_id":null,"type":"movie","add":"2020-04-18 21:09:46","orig_title":"Enakku Vaaitha Adimaigal","year":"2017-02-02","translations":["Профессиональный (двухголосый закадровый) (Red Media)"],"quality":"sat","translation":"Профессиональный (двухголосый закадровый) (Red Media)","update":"2020-04-28 09:06:22","iframe_src":"//2413.svetacdn.in/IAF0wWTdNYZm/movie/39516"},{"id":39515,"title":"Я и Чарльз","kp_id":"881248","imdb_id":"tt4024944","world_art_id":null,"type":"movie","add":"2020-04-18 21:06:58","orig_title":"Main Aur Charles","year":"2015-10-30","translations":["Любительский (многоголосый закадровый) (ICG)"],"quality":"webdl","translation":"Любительский (многоголосый закадровый) (ICG)","update":"2020-04-28 09:03:57","iframe_src":"//2413.svetacdn.in/IAF0wWTdNYZm/movie/39515"},{"id":39512,"title":"Человек-невидимка","kp_id":"98034","imdb_id":"tt0414040","world_art_id":null,"type":"movie","add":"2020-04-18 19:15:16","orig_title":"Gayab","year":"2004-07-16","translations":["Профессиональный (многоголосый закадровый) (ZEE TV)"],"quality":"hdrip","translation":"Профессиональный (многоголосый закадровый) (ZEE TV)","update":"2020-04-28 09:03:28","iframe_src":"//2413.svetacdn.in/IAF0wWTdNYZm/movie/39512"},{"id":7613,"title":"Раненый: Возвращение","kp_id":"910230","imdb_id":"tt4683366","world_art_id":null,"type":"movie","add":"2016-11-24 14:08:38","orig_title":"Ghayal Once Again","year":"2016-02-05","translations":["Любительский (двухголосый закадровый)","Любительский (многоголосый закадровый) (Honey&Haseena)"],"quality":"webdl","translation":"Любительский (двухголосый закадровый)","update":"2020-04-28 09:08:04","iframe_src":"//2413.svetacdn.in/IAF0wWTdNYZm/movie/7613"},{"id":7575,"title":"Джил, Джанг и Джак","kp_id":"960916","imdb_id":"tt5459644","world_art_id":null,"type":"movie","add":"2016-11-22 16:34:20","orig_title":"Jil Jung Juk","year":"2016-02-11","translations":["Любительский (многоголосый закадровый)","Любительский (многоголосый закадровый) (Honey&Haseena)"],"quality":"webdl","translation":"Любительский (многоголосый закадровый)","update":"2020-04-28 09:15:37","iframe_src":"//2413.svetacdn.in/IAF0wWTdNYZm/movie/7575"}],"current_page":1226,"first_page_url":"https://videocdn.tv/api/short?limit=100&api_token=6Onb1W1alEUrBcKJZD3GoKBbWyAl2uG2&cache31226=31226&page=1","from":122501,"last_page":718,"last_page_url":"https://videocdn.tv/api/short?limit=100&api_token=6Onb1W1alEUrBcKJZD3GoKBbWyAl2uG2&cache31226=31226&page=718","next_page_url":null,"path":"https://videocdn.tv/api/short","per_page":100,"prev_page_url":"https://videocdn.tv/api/short?limit=100&api_token=6Onb1W1alEUrBcKJZD3GoKBbWyAl2uG2&cache31226=31226&page=1225","to":122520,"total":71790}