{"result":true,"data":[{"id":37788,"title":"Плохая карма","kp_id":"590479","imdb_id":"tt1847548","world_art_id":null,"type":"movie","add":"2020-03-11 14:16:43","orig_title":"Bad Karma","year":"2012-09-11","translations":["Профессиональный (многоголосый закадровый) (Кинопоказ)"],"quality":"hdrip","translation":"Профессиональный (многоголосый закадровый) (Кинопоказ)","update":"2020-03-11 18:00:38","iframe_src":"//83.svetacdn.in/PfJ50H0ZBPg3/movie/37788"},{"id":37784,"title":"Аквариум","kp_id":"421506","imdb_id":"tt1232776","world_art_id":null,"type":"movie","add":"2020-03-11 13:34:57","orig_title":"Fish Tank","year":"2009-05-14","translations":["Профессиональный (многоголосый закадровый)"],"quality":"bd","translation":"Профессиональный (многоголосый закадровый)","update":"2020-03-11 19:01:26","iframe_src":"//83.svetacdn.in/PfJ50H0ZBPg3/movie/37784"},{"id":37778,"title":"Битва за огонь","kp_id":"6501","imdb_id":"tt0082484","world_art_id":null,"type":"movie","add":"2020-03-11 12:13:00","orig_title":"La guerre du feu","year":"1981-12-16","translations":["Оригинальная дорожка"],"quality":"bd","translation":"Оригинальная дорожка","update":"2020-03-11 19:51:59","iframe_src":"//83.svetacdn.in/PfJ50H0ZBPg3/movie/37778"},{"id":37773,"title":"Последние дни динозавров","kp_id":"574650","imdb_id":"tt1780888","world_art_id":null,"type":"movie","add":"2020-03-11 11:37:46","orig_title":"Last Day of the Dinosaurs","year":"2010-08-29","translations":["Профессиональный (одноголосый закадровый)"],"quality":"bd","translation":"Профессиональный (одноголосый закадровый)","update":"2020-03-11 20:19:40","iframe_src":"//83.svetacdn.in/PfJ50H0ZBPg3/movie/37773"},{"id":37765,"title":"Прекрасная эпоха","kp_id":"1207666","imdb_id":"tt9172422","world_art_id":null,"type":"movie","add":"2020-03-11 10:49:01","orig_title":"La Belle Époque","year":"2019-05-20","translations":["Полное дублирование (iTunes)"],"quality":"bd","translation":"Полное дублирование (iTunes)","update":"2020-03-11 17:26:37","iframe_src":"//83.svetacdn.in/PfJ50H0ZBPg3/movie/37765"},{"id":37719,"title":"Щедрость Перрье","kp_id":"436170","imdb_id":"tt1003034","world_art_id":null,"type":"movie","add":"2020-03-10 19:13:13","orig_title":"Perrier's Bounty","year":"2009-09-11","translations":["Авторский (одноголосый закадровый) (Сербин Юрий)"],"quality":"bd","translation":"Авторский (одноголосый закадровый) (Сербин Юрий)","update":"2020-03-11 18:11:10","iframe_src":"//83.svetacdn.in/PfJ50H0ZBPg3/movie/37719"},{"id":37718,"title":"На краю рая","kp_id":"272410","imdb_id":"tt0880502","world_art_id":null,"type":"movie","add":"2020-03-10 19:10:12","orig_title":"Auf der anderen Seite","year":"2007-05-23","translations":["Профессиональный (многоголосый закадровый) (НТВ)"],"quality":"dvdrip","translation":"Профессиональный (многоголосый закадровый) (НТВ)","update":"2020-03-11 18:11:22","iframe_src":"//83.svetacdn.in/PfJ50H0ZBPg3/movie/37718"},{"id":37714,"title":"Борьба за выживание","kp_id":"2290","imdb_id":"tt0098415","world_art_id":null,"type":"movie","add":"2020-03-10 18:39:38","orig_title":"Survival Quest","year":"1988-09-09","translations":["Авторский (одноголосый закадровый) (Карцев Пётр)"],"quality":"dvdrip","translation":"Авторский (одноголосый закадровый) (Карцев Пётр)","update":"2020-03-11 18:13:03","iframe_src":"//83.svetacdn.in/PfJ50H0ZBPg3/movie/37714"},{"id":37713,"title":"Как назло Сибирь","kp_id":"582591","imdb_id":"tt1833843","world_art_id":null,"type":"movie","add":"2020-03-10 18:38:14","orig_title":"Ausgerechnet Sibirien","year":"2012-05-10","translations":["Профессиональный (многоголосый закадровый)"],"quality":"bd","translation":"Профессиональный (многоголосый закадровый)","update":"2020-03-11 18:14:10","iframe_src":"//83.svetacdn.in/PfJ50H0ZBPg3/movie/37713"},{"id":37712,"title":"Девочки сверху: Французский поцелуй","kp_id":"255454","imdb_id":"tt0781429","world_art_id":null,"type":"movie","add":"2020-03-10 18:36:56","orig_title":"Mes copines","year":"2006-06-21","translations":["Профессиональный (двухголосый закадровый)"],"quality":"dvdrip","translation":"Профессиональный (двухголосый закадровый)","update":"2020-03-11 18:21:15","iframe_src":"//83.svetacdn.in/PfJ50H0ZBPg3/movie/37712"},{"id":37711,"title":"Я остаюсь!","kp_id":"15071","imdb_id":"tt0348841","world_art_id":null,"type":"movie","add":"2020-03-10 18:35:53","orig_title":"Je reste!","year":"2003-10-01","translations":["Профессиональный (многоголосый закадровый)"],"quality":"dvdrip","translation":"Профессиональный (многоголосый закадровый)","update":"2020-03-11 18:21:46","iframe_src":"//83.svetacdn.in/PfJ50H0ZBPg3/movie/37711"},{"id":37710,"title":"Холлэм Фоу","kp_id":"195481","imdb_id":"tt0466816","world_art_id":null,"type":"movie","add":"2020-03-10 18:34:41","orig_title":"Hallam Foe","year":"2007-02-16","translations":["Профессиональный (многоголосый закадровый)"],"quality":"hdtv","translation":"Профессиональный (многоголосый закадровый)","update":"2020-03-11 18:23:10","iframe_src":"//83.svetacdn.in/PfJ50H0ZBPg3/movie/37710"},{"id":37709,"title":"Эльдорадо","kp_id":"40107","imdb_id":"tt0095053","world_art_id":null,"type":"movie","add":"2020-03-10 18:33:21","orig_title":"El Dorado","year":"1988-04-20","translations":["Профессиональный (многоголосый закадровый)"],"quality":"dvdrip","translation":"Профессиональный (многоголосый закадровый)","update":"2020-03-11 18:23:37","iframe_src":"//83.svetacdn.in/PfJ50H0ZBPg3/movie/37709"},{"id":37708,"title":"Все маленькие животные","kp_id":"5209","imdb_id":"tt0120584","world_art_id":null,"type":"movie","add":"2020-03-10 18:32:11","orig_title":"All the Little Animals","year":"1998-09-13","translations":["Профессиональный (многоголосый закадровый)"],"quality":"dvdrip","translation":"Профессиональный (многоголосый закадровый)","update":"2020-03-11 18:24:45","iframe_src":"//83.svetacdn.in/PfJ50H0ZBPg3/movie/37708"},{"id":37706,"title":"Ярость и дисциплина","kp_id":"106291","imdb_id":"tt0391414","world_art_id":null,"type":"movie","add":"2020-03-10 16:39:40","orig_title":"Rage and Discipline","year":"2004-01-01","translations":["Профессиональный (двухголосый закадровый)"],"quality":"dvdrip","translation":"Профессиональный (двухголосый закадровый)","update":"2020-03-11 18:26:22","iframe_src":"//83.svetacdn.in/PfJ50H0ZBPg3/movie/37706"},{"id":37705,"title":"Камера пыток","kp_id":"534579","imdb_id":"tt1663696","world_art_id":null,"type":"movie","add":"2020-03-10 16:33:52","orig_title":"Torture Chamber","year":"2013-10-10","translations":["Любительский (одноголосый закадровый) (Хихикающий доктор)"],"quality":"bd","translation":"Любительский (одноголосый закадровый) (Хихикающий доктор)","update":"2020-03-11 18:27:13","iframe_src":"//83.svetacdn.in/PfJ50H0ZBPg3/movie/37705"},{"id":37423,"title":"Лихорадка","kp_id":"20303","imdb_id":"tt0177769","world_art_id":null,"type":"movie","add":"2020-03-05 09:16:49","orig_title":"Fever","year":"1999-05-16","translations":["Профессиональный (многоголосый закадровый)"],"quality":"dvdrip","translation":"Профессиональный (многоголосый закадровый)","update":"2020-03-11 17:21:19","iframe_src":"//83.svetacdn.in/PfJ50H0ZBPg3/movie/37423"},{"id":35172,"title":"Цвет из иных миров","kp_id":"1233447","imdb_id":"tt5073642","world_art_id":null,"type":"movie","add":"2020-01-18 07:54:28","orig_title":"Color Out of Space","year":"2019-09-07","translations":["Полное дублирование (iTunes)"],"quality":"bd","translation":"Полное дублирование (iTunes)","update":"2020-03-11 18:03:57","iframe_src":"//83.svetacdn.in/PfJ50H0ZBPg3/movie/35172"},{"id":34689,"title":"Ущерб","kp_id":"2947","imdb_id":"tt0104237","world_art_id":null,"type":"movie","add":"2020-01-03 16:46:42","orig_title":"Damage","year":"1992-12-09","translations":["Профессиональный (многоголосый закадровый)"],"quality":"bd","translation":"Профессиональный (многоголосый закадровый)","update":"2020-03-11 19:56:42","iframe_src":"//83.svetacdn.in/PfJ50H0ZBPg3/movie/34689"},{"id":28323,"title":"Последний черный в Сан-Франциско","kp_id":"1115907","imdb_id":"tt4353250","world_art_id":null,"type":"movie","add":"2019-06-27 21:39:45","orig_title":"The Last Black Man in San Francisco","year":"2019-01-26","translations":["Профессиональный (многоголосый закадровый) (Zone Vision Studio)"],"quality":"bd","translation":"Профессиональный (многоголосый закадровый) (Zone Vision Studio)","update":"2020-03-11 17:47:50","iframe_src":"//83.svetacdn.in/PfJ50H0ZBPg3/movie/28323"}],"current_page":1085,"first_page_url":"https://videocdn.tv/api/short?limit=100&api_token=RgFQdUIR2dRmwv8iYa5SnFNgnw3vpjKj&cache31085=31085&page=1","from":108401,"last_page":681,"last_page_url":"https://videocdn.tv/api/short?limit=100&api_token=RgFQdUIR2dRmwv8iYa5SnFNgnw3vpjKj&cache31085=31085&page=681","next_page_url":null,"path":"https://videocdn.tv/api/short","per_page":100,"prev_page_url":"https://videocdn.tv/api/short?limit=100&api_token=RgFQdUIR2dRmwv8iYa5SnFNgnw3vpjKj&cache31085=31085&page=1084","to":108420,"total":68040}