{"result":true,"data":[{"id":20300,"title":"Рождество в Грейсленде","kp_id":"1190298","imdb_id":"tt8694374","world_art_id":null,"type":"movie","add":"2018-11-25 22:26:02","orig_title":"Christmas at Gracelan","year":"2018-11-17","translations":["Любительский (многоголосый закадровый) (Синема УС)"],"quality":"hdtv","translation":"Любительский (многоголосый закадровый) (Синема УС)","update":"2018-11-26 12:09:54","iframe_src":"//2413.svetacdn.in/71tsRs29n5tZ/movie/20300"},{"id":20299,"title":"Дик Джонсон и Томмиган против копа-каннибала","kp_id":"863175","imdb_id":"tt3710616","world_art_id":null,"type":"movie","add":"2018-11-25 22:20:14","orig_title":"Dick Johnson & Tommygun vs. The Cannibal Cop: Based on a True Story","year":"2018-09-12","translations":["Любительский (многоголосый закадровый) (Колобок)"],"quality":"webdl","translation":"Любительский (многоголосый закадровый) (Колобок)","update":"2018-11-26 12:07:55","iframe_src":"//2413.svetacdn.in/71tsRs29n5tZ/movie/20299"},{"id":20298,"title":"Цвета ветра","kp_id":"899425","imdb_id":"tt4578910","world_art_id":null,"type":"movie","add":"2018-11-25 22:18:27","orig_title":"Kaze no iro","year":"2017-07-14","translations":["Любительский (многоголосый закадровый) (Синема УС)"],"quality":"bd","translation":"Любительский (многоголосый закадровый) (Синема УС)","update":"2018-11-26 12:06:33","iframe_src":"//2413.svetacdn.in/71tsRs29n5tZ/movie/20298"},{"id":20297,"title":"Клайд Купер","kp_id":"1050489","imdb_id":"tt6876788","world_art_id":null,"type":"movie","add":"2018-11-25 22:16:07","orig_title":"Clyde Cooper","year":"2018-11-22","translations":["Любительский (многоголосый закадровый) (Синема УС)"],"quality":"webdl","translation":"Любительский (многоголосый закадровый) (Синема УС)","update":"2018-11-26 12:05:26","iframe_src":"//2413.svetacdn.in/71tsRs29n5tZ/movie/20297"},{"id":20292,"title":"Королева-психопатка","kp_id":"1145014","imdb_id":"tt8320402","world_art_id":null,"type":"movie","add":"2018-11-25 20:59:30","orig_title":"Mean Queen","year":"2018-11-04","translations":["Любительский (многоголосый закадровый) (Синема УС)"],"quality":"hdtv","translation":"Любительский (многоголосый закадровый) (Синема УС)","update":"2018-11-27 05:44:31","iframe_src":"//2413.svetacdn.in/71tsRs29n5tZ/movie/20292"},{"id":20270,"title":"Рябиновый вальс","kp_id":"480554","imdb_id":"tt1557860","world_art_id":null,"type":"movie","add":"2018-11-25 14:17:25","orig_title":"Ryabinovyy vals","year":"2010-10-22","translations":["Оригинальная дорожка"],"quality":"webdl","translation":"Оригинальная дорожка","update":"2018-11-26 12:34:00","iframe_src":"//2413.svetacdn.in/71tsRs29n5tZ/movie/20270"},{"id":20269,"title":"Отличный гамбургер","kp_id":"23255","imdb_id":"tt0119215","world_art_id":null,"type":"movie","add":"2018-11-25 14:16:13","orig_title":"Good Burger","year":"1997-07-25","translations":["Любительский (одноголосый закадровый)"],"quality":"webdl","translation":"Любительский (одноголосый закадровый)","update":"2018-11-26 12:32:51","iframe_src":"//2413.svetacdn.in/71tsRs29n5tZ/movie/20269"},{"id":20265,"title":"Зорро","kp_id":"101095","imdb_id":"tt0072448","world_art_id":null,"type":"movie","add":"2018-11-25 14:11:34","orig_title":"Zorro","year":"1975-03-06","translations":["Полное дублирование"],"quality":"bd","translation":"Полное дублирование","update":"2018-11-26 12:29:12","iframe_src":"//2413.svetacdn.in/71tsRs29n5tZ/movie/20265"},{"id":14825,"title":"Вина","kp_id":"900243","imdb_id":"tt4607722","world_art_id":null,"type":"movie","add":"2018-01-08 07:44:09","orig_title":"Blame","year":"2017-04-22","translations":["Любительский (многоголосый закадровый) (Синема УС)","Профессиональный (многоголосый закадровый) (GreenРай Studio)","Профессиональный (многоголосый закадровый) (Jaskier)"],"quality":"webdl","translation":"Любительский (многоголосый закадровый) (Синема УС)","update":"2018-11-26 12:02:57","iframe_src":"//2413.svetacdn.in/71tsRs29n5tZ/movie/14825"},{"id":14321,"title":"Эксперимент «Офис» 2","kp_id":"972464","imdb_id":"tt4348012","world_art_id":null,"type":"movie","add":"2017-11-11 18:36:56","orig_title":"Mayhem","year":"2017-03-13","translations":["Любительский (двухголосый закадровый) (RecentFilms)","Профессиональный (многоголосый закадровый) (Paradox & Omskbird records)","Профессиональный (многоголосый закадровый) (GreenРай Studio)","Любительский (многоголосый закадровый) (Синема УС)","Профессиональный (многоголосый закадровый) (iTunes)","Профессиональный (многоголосый закадровый) (Jaskier)"],"quality":"webdl","translation":"Любительский (двухголосый закадровый) (RecentFilms)","update":"2018-11-27 05:34:40","iframe_src":"//2413.svetacdn.in/71tsRs29n5tZ/movie/14321"},{"id":2091,"title":"Громче, чем бомбы","kp_id":"667651","imdb_id":"tt2217859","world_art_id":null,"type":"movie","add":"2016-05-12 09:29:55","orig_title":"Louder Than Bombs","year":"2015-05-18","translations":["Полное дублирование","[EN] Original (English)"],"quality":"bd","translation":"Полное дублирование","update":"2018-11-26 16:21:37","iframe_src":"//2413.svetacdn.in/71tsRs29n5tZ/movie/2091"},{"id":2067,"title":"Дни и ночи","kp_id":"677704","imdb_id":"tt2359381","world_art_id":null,"type":"movie","add":"2016-05-11 14:12:12","orig_title":"Days and Nights","year":"2014-01-04","translations":["Профессиональный (многоголосый закадровый)","[EN] Original (English)"],"quality":"bd","translation":"Профессиональный (многоголосый закадровый)","update":"2018-11-26 12:23:56","iframe_src":"//2413.svetacdn.in/71tsRs29n5tZ/movie/2067"},{"id":1105,"title":"Анатомия любви","kp_id":"695449","imdb_id":"tt2318092","world_art_id":null,"type":"movie","add":"2016-04-14 08:48:45","orig_title":"Endless Love","year":"2014-02-12","translations":["Полное дублирование","[EN] Original (English)"],"quality":"bd","translation":"Полное дублирование","update":"2018-11-26 16:13:32","iframe_src":"//2413.svetacdn.in/71tsRs29n5tZ/movie/1105"},{"id":1104,"title":"Небезопасно для работы","kp_id":"666763","imdb_id":"tt2226495","world_art_id":null,"type":"movie","add":"2016-04-14 08:46:58","orig_title":"Not Safe for Work","year":"2012-05-09","translations":["Полное дублирование","[EN] Original (English)"],"quality":"bd","translation":"Полное дублирование","update":"2018-11-26 16:25:48","iframe_src":"//2413.svetacdn.in/71tsRs29n5tZ/movie/1104"},{"id":1093,"title":"Мрачные небеса","kp_id":"680185","imdb_id":"tt2387433","world_art_id":null,"type":"movie","add":"2016-04-14 08:24:05","orig_title":"Dark Skies","year":"2013-02-21","translations":["Полное дублирование","[EN] Original (English)"],"quality":"bd","translation":"Полное дублирование","update":"2018-11-26 12:22:58","iframe_src":"//2413.svetacdn.in/71tsRs29n5tZ/movie/1093"},{"id":1090,"title":"Криминальная фишка от Генри","kp_id":"463782","imdb_id":"tt1220888","world_art_id":null,"type":"movie","add":"2016-04-14 08:18:17","orig_title":"Henry's Crime","year":"2010-09-14","translations":["Полное дублирование","[EN] Original (English)"],"quality":"bd","translation":"Полное дублирование","update":"2018-11-26 16:20:51","iframe_src":"//2413.svetacdn.in/71tsRs29n5tZ/movie/1090"},{"id":1083,"title":"Все любят китов","kp_id":"462588","imdb_id":"tt1430615","world_art_id":null,"type":"movie","add":"2016-04-14 08:03:38","orig_title":"Big Miracle","year":"2012-02-02","translations":["Полное дублирование","[EN] Original (English)"],"quality":"bd","translation":"Полное дублирование","update":"2018-11-26 12:18:55","iframe_src":"//2413.svetacdn.in/71tsRs29n5tZ/movie/1083"},{"id":1080,"title":"Белоснежка: Месть гномов","kp_id":"544226","imdb_id":"tt1667353","world_art_id":null,"type":"movie","add":"2016-04-14 07:58:27","orig_title":"Mirror Mirror","year":"2012-03-15","translations":["Полное дублирование","[EN] Original (English)"],"quality":"bd","translation":"Полное дублирование","update":"2018-11-26 12:17:06","iframe_src":"//2413.svetacdn.in/71tsRs29n5tZ/movie/1080"},{"id":1079,"title":"На грани","kp_id":"493222","imdb_id":"tt1568338","world_art_id":null,"type":"movie","add":"2016-04-14 07:56:34","orig_title":"Man on a Ledge","year":"2012-01-26","translations":["Полное дублирование","[EN] Original (English)"],"quality":"bd","translation":"Полное дублирование","update":"2018-11-26 16:23:37","iframe_src":"//2413.svetacdn.in/71tsRs29n5tZ/movie/1079"},{"id":1078,"title":"Хроника","kp_id":"559242","imdb_id":"tt1706593","world_art_id":null,"type":"movie","add":"2016-04-14 07:53:37","orig_title":"Chronicle","year":"2012-01-28","translations":["Полное дублирование","[EN] Original (English)"],"quality":"bd","translation":"Полное дублирование","update":"2018-11-26 12:20:50","iframe_src":"//2413.svetacdn.in/71tsRs29n5tZ/movie/1078"}],"current_page":2168,"first_page_url":"https://videocdn.tv/api/short?limit=100&api_token=EnbO9h8pv1VyjbCJhg0WM9nG259n7mtz&cache32168=32168&page=1","from":216701,"last_page":721,"last_page_url":"https://videocdn.tv/api/short?limit=100&api_token=EnbO9h8pv1VyjbCJhg0WM9nG259n7mtz&cache32168=32168&page=721","next_page_url":null,"path":"https://videocdn.tv/api/short","per_page":100,"prev_page_url":"https://videocdn.tv/api/short?limit=100&api_token=EnbO9h8pv1VyjbCJhg0WM9nG259n7mtz&cache32168=32168&page=2167","to":216720,"total":72043}