{"result":true,"data":[{"id":39340,"title":"Не моё собачье дело","kp_id":"777027","imdb_id":null,"world_art_id":null,"type":"movie","add":"2020-04-15 13:55:03","orig_title":"Ne moyo sobachye delo","year":"2020-01-01","translations":["Оригинальная дорожка"],"quality":"webdl","translation":"Оригинальная дорожка","update":"2020-04-15 18:19:20","iframe_src":"//7720.svetacdn.in/si4jsFRrtgrT/movie/39340"},{"id":39338,"title":"Двойное бельгийское","kp_id":"1131393","imdb_id":"tt8009102","world_art_id":null,"type":"movie","add":"2020-04-15 08:15:39","orig_title":"Double Belgian","year":"2019-01-02","translations":["Любительский (многоголосый закадровый) (AlphaProject)"],"quality":"webdl","translation":"Любительский (многоголосый закадровый) (AlphaProject)","update":"2020-04-16 08:18:19","iframe_src":"//7720.svetacdn.in/si4jsFRrtgrT/movie/39338"},{"id":39337,"title":"Лапочка","kp_id":"1228359","imdb_id":"tt9522080","world_art_id":null,"type":"movie","add":"2020-04-15 08:02:13","orig_title":"Papicha","year":"2019-05-17","translations":["Любительский (многоголосый закадровый) (Синема УС)"],"quality":"bd","translation":"Любительский (многоголосый закадровый) (Синема УС)","update":"2020-04-15 17:03:11","iframe_src":"//7720.svetacdn.in/si4jsFRrtgrT/movie/39337"},{"id":39336,"title":"Z","kp_id":"1191283","imdb_id":"tt8995218","world_art_id":null,"type":"movie","add":"2020-04-15 07:13:54","orig_title":"Z","year":"2019-06-01","translations":["Полное дублирование (iTunes)"],"quality":"webdl","translation":"Полное дублирование (iTunes)","update":"2020-04-15 15:06:43","iframe_src":"//7720.svetacdn.in/si4jsFRrtgrT/movie/39336"},{"id":39334,"title":"Марио Франчезе - Смерть от рук мафии","kp_id":"1116658","imdb_id":"tt7901350","world_art_id":null,"type":"movie","add":"2020-04-15 06:48:20","orig_title":"Mario Francese","year":"2018-01-21","translations":["Любительский (многоголосый закадровый) (Синема УС)"],"quality":"webdl","translation":"Любительский (многоголосый закадровый) (Синема УС)","update":"2020-04-15 12:29:11","iframe_src":"//7720.svetacdn.in/si4jsFRrtgrT/movie/39334"},{"id":39332,"title":"Митрон","kp_id":"1181449","imdb_id":"tt8852558","world_art_id":null,"type":"movie","add":"2020-04-15 06:46:12","orig_title":"Mitron","year":"2018-09-14","translations":["Любительский (многоголосый закадровый) (Синема УС)"],"quality":"webdl","translation":"Любительский (многоголосый закадровый) (Синема УС)","update":"2020-04-15 12:28:13","iframe_src":"//7720.svetacdn.in/si4jsFRrtgrT/movie/39332"},{"id":39328,"title":"Двойник","kp_id":"1278726","imdb_id":"tt10423214","world_art_id":null,"type":"movie","add":"2020-04-15 06:37:56","orig_title":"Doppel","year":"2019-01-01","translations":["Любительский (многоголосый закадровый) (@MUZOBOZ@)"],"quality":"webdl","translation":"Любительский (многоголосый закадровый) (@MUZOBOZ@)","update":"2020-04-15 15:12:41","iframe_src":"//7720.svetacdn.in/si4jsFRrtgrT/movie/39328"},{"id":39307,"title":"Лучшие планы","kp_id":"572188","imdb_id":"tt1764198","world_art_id":null,"type":"movie","add":"2020-04-14 11:33:48","orig_title":"Best Laid Plans","year":"2012-02-03","translations":["Любительский (двухголосый закадровый)"],"quality":"hdrip","translation":"Любительский (двухголосый закадровый)","update":"2020-04-15 12:20:12","iframe_src":"//7720.svetacdn.in/si4jsFRrtgrT/movie/39307"},{"id":39218,"title":"Желаемое и обретаемое","kp_id":null,"imdb_id":"tt0237089","world_art_id":null,"type":"movie","add":"2020-04-13 07:32:22","orig_title":"Chaowa-Pawa","year":"1959-01-01","translations":["Любительский (одноголосый закадровый)"],"quality":"webdl","translation":"Любительский (одноголосый закадровый)","update":"2020-04-15 12:17:44","iframe_src":"//7720.svetacdn.in/si4jsFRrtgrT/movie/39218"},{"id":39217,"title":"Золото долины Нангла","kp_id":"63266","imdb_id":"tt0069871","world_art_id":null,"type":"movie","add":"2020-04-13 07:27:39","orig_title":"Chhupa Rustam","year":"1973-05-07","translations":["Любительский (одноголосый закадровый)"],"quality":"webdl","translation":"Любительский (одноголосый закадровый)","update":"2020-04-15 12:17:09","iframe_src":"//7720.svetacdn.in/si4jsFRrtgrT/movie/39217"},{"id":39216,"title":"В поисках счастья","kp_id":"182639","imdb_id":"tt0246456","world_art_id":null,"type":"movie","add":"2020-04-13 07:23:27","orig_title":"Bazaar","year":"1982-05-21","translations":["Профессиональный (многоголосый закадровый) (Домашний)"],"quality":"dvdrip","translation":"Профессиональный (многоголосый закадровый) (Домашний)","update":"2020-04-15 12:16:24","iframe_src":"//7720.svetacdn.in/si4jsFRrtgrT/movie/39216"},{"id":39201,"title":"Сетупати","kp_id":"964967","imdb_id":"tt5491920","world_art_id":null,"type":"movie","add":"2020-04-12 20:40:58","orig_title":"Sethupathi","year":"2016-02-19","translations":["Профессиональный (многоголосый закадровый)"],"quality":"hdrip","translation":"Профессиональный (многоголосый закадровый)","update":"2020-04-15 12:15:04","iframe_src":"//7720.svetacdn.in/si4jsFRrtgrT/movie/39201"},{"id":39200,"title":"Бывшие друзья","kp_id":"18738","imdb_id":"tt0251194","world_art_id":null,"type":"movie","add":"2020-04-12 20:35:28","orig_title":"Mahaanta: The Film","year":"1997-05-23","translations":["Профессиональный (многоголосый закадровый)"],"quality":"webdl","translation":"Профессиональный (многоголосый закадровый)","update":"2020-04-15 12:11:38","iframe_src":"//7720.svetacdn.in/si4jsFRrtgrT/movie/39200"},{"id":39199,"title":"Людские заботы","kp_id":"88638","imdb_id":"tt0438875","world_art_id":null,"type":"movie","add":"2020-04-12 20:28:36","orig_title":"Insan","year":"2005-01-14","translations":["Профессиональный (многоголосый закадровый)"],"quality":"dvdrip","translation":"Профессиональный (многоголосый закадровый)","update":"2020-04-15 12:07:31","iframe_src":"//7720.svetacdn.in/si4jsFRrtgrT/movie/39199"},{"id":39198,"title":"Кави Калидаса","kp_id":"96960","imdb_id":"tt0389068","world_art_id":null,"type":"movie","add":"2020-04-12 20:24:13","orig_title":"Kavi Kalidas","year":"1959-01-01","translations":["Любительский (одноголосый закадровый)"],"quality":"dvdrip","translation":"Любительский (одноголосый закадровый)","update":"2020-04-15 12:06:50","iframe_src":"//7720.svetacdn.in/si4jsFRrtgrT/movie/39198"},{"id":39197,"title":"Эта связь","kp_id":"41792","imdb_id":"tt0250121","world_art_id":null,"type":"movie","add":"2020-04-12 20:21:36","orig_title":"Yeh Nazdeekiyan","year":"1982-01-01","translations":["Любительский (одноголосый закадровый)"],"quality":"dvdrip","translation":"Любительский (одноголосый закадровый)","update":"2020-04-15 12:06:16","iframe_src":"//7720.svetacdn.in/si4jsFRrtgrT/movie/39197"},{"id":39195,"title":"Глубокая рана","kp_id":"222989","imdb_id":"tt0085456","world_art_id":null,"type":"movie","add":"2020-04-12 20:15:07","orig_title":"Durdesh","year":"1983-03-31","translations":["Любительский (одноголосый закадровый)"],"quality":"dvdrip","translation":"Любительский (одноголосый закадровый)","update":"2020-04-15 12:03:10","iframe_src":"//7720.svetacdn.in/si4jsFRrtgrT/movie/39195"},{"id":39194,"title":"Море любви","kp_id":"18771","imdb_id":"tt0152256","world_art_id":null,"type":"movie","add":"2020-04-12 20:06:58","orig_title":"Saagar","year":"1985-08-09","translations":["Профессиональный (двухголосый закадровый)"],"quality":"dvdrip","translation":"Профессиональный (двухголосый закадровый)","update":"2020-04-15 12:02:05","iframe_src":"//7720.svetacdn.in/si4jsFRrtgrT/movie/39194"},{"id":32818,"title":"Марьян","kp_id":"749706","imdb_id":"tt2793930","world_art_id":null,"type":"movie","add":"2019-11-07 08:01:54","orig_title":"Maryan","year":"2013-07-18","translations":["Любительский (многоголосый закадровый) (ICG)","Любительский (одноголосый закадровый) (datynet | Агапов Антон)"],"quality":"dvdrip","translation":"Любительский (многоголосый закадровый) (ICG)","update":"2020-04-15 12:08:29","iframe_src":"//7720.svetacdn.in/si4jsFRrtgrT/movie/32818"},{"id":7562,"title":"Мохенджо Даро","kp_id":"847230","imdb_id":"tt3859980","world_art_id":null,"type":"movie","add":"2016-11-21 15:34:51","orig_title":"Mohenjo Daro","year":"2016-08-11","translations":["Любительский (многоголосый закадровый)","Любительский (многоголосый закадровый) (Honey&Haseena)"],"quality":"bd","translation":"Любительский (многоголосый закадровый)","update":"2020-04-15 12:13:20","iframe_src":"//7720.svetacdn.in/si4jsFRrtgrT/movie/7562"}],"current_page":856,"first_page_url":"https://videocdn.tv/api/short?limit=100&api_token=X6EwAUfE5M9xbo7y0Bp0aPf3uXxG2KLL&cache3856=3856&page=1","from":85501,"last_page":652,"last_page_url":"https://videocdn.tv/api/short?limit=100&api_token=X6EwAUfE5M9xbo7y0Bp0aPf3uXxG2KLL&cache3856=3856&page=652","next_page_url":null,"path":"https://videocdn.tv/api/short","per_page":100,"prev_page_url":"https://videocdn.tv/api/short?limit=100&api_token=X6EwAUfE5M9xbo7y0Bp0aPf3uXxG2KLL&cache3856=3856&page=855","to":85520,"total":65180}