{"result":true,"data":[{"id":27113,"title":"Как ограбить банк","kp_id":"252820","imdb_id":"tt0762104","world_art_id":null,"type":"movie","add":"2019-05-27 03:46:26","orig_title":"How to Rob a Bank (and 10 Tips to Actually Get Away with It)","year":"2007-06-25","translations":["Профессиональный (многоголосый закадровый)"],"quality":"dvdrip","translation":"Профессиональный (многоголосый закадровый)","update":"2019-05-27 08:51:25","iframe_src":"//5091.svetacdn.in/71tsRs29n5tZ/movie/27113"},{"id":27112,"title":"Снега Килиманджаро","kp_id":"11856","imdb_id":"tt0045162","world_art_id":null,"type":"movie","add":"2019-05-27 03:43:04","orig_title":"The Snows of Kilimanjaro","year":"1952-09-17","translations":["Полное дублирование"],"quality":"dvdrip","translation":"Полное дублирование","update":"2019-05-27 08:49:19","iframe_src":"//5091.svetacdn.in/71tsRs29n5tZ/movie/27112"},{"id":27111,"title":"Черная река","kp_id":"251953","imdb_id":"tt0280241","world_art_id":null,"type":"movie","add":"2019-05-27 03:41:32","orig_title":"Black River","year":"2001-07-06","translations":["Профессиональный (двухголосый закадровый) (НТВ)"],"quality":"dvdrip","translation":"Профессиональный (двухголосый закадровый) (НТВ)","update":"2019-05-27 08:54:27","iframe_src":"//5091.svetacdn.in/71tsRs29n5tZ/movie/27111"},{"id":27109,"title":"А ей ни слова обо мне","kp_id":"1975","imdb_id":"tt0099450","world_art_id":null,"type":"movie","add":"2019-05-27 03:35:25","orig_title":"Don't Tell Her It's Me","year":"1990-09-21","translations":["Профессиональный (двухголосый закадровый)"],"quality":"dvdrip","translation":"Профессиональный (двухголосый закадровый)","update":"2019-05-27 08:49:59","iframe_src":"//5091.svetacdn.in/71tsRs29n5tZ/movie/27109"},{"id":27108,"title":"Все, что блестит...","kp_id":"345089","imdb_id":"tt0208517","world_art_id":null,"type":"movie","add":"2019-05-27 03:32:57","orig_title":"Tout ce qui brille","year":"1996-01-01","translations":["Профессиональный (двухголосый закадровый) (РенТВ)"],"quality":"sat","translation":"Профессиональный (двухголосый закадровый) (РенТВ)","update":"2019-05-27 08:52:08","iframe_src":"//5091.svetacdn.in/71tsRs29n5tZ/movie/27108"},{"id":27107,"title":"Слава Богу, он встретил Лиззи","kp_id":"5562","imdb_id":"tt0120316","world_art_id":null,"type":"movie","add":"2019-05-27 03:30:50","orig_title":"Thank God He Met Lizzie","year":"1997-11-20","translations":["Профессиональный (многоголосый закадровый)"],"quality":"vhs","translation":"Профессиональный (многоголосый закадровый)","update":"2019-05-27 08:48:47","iframe_src":"//5091.svetacdn.in/71tsRs29n5tZ/movie/27107"},{"id":27102,"title":"Воздушный охотник","kp_id":"18195","imdb_id":"tt0179477","world_art_id":null,"type":"movie","add":"2019-05-27 03:19:15","orig_title":"Storm Catcher","year":"1999-09-10","translations":["Профессиональный (многоголосый закадровый)"],"quality":"dvdrip","translation":"Профессиональный (многоголосый закадровый)","update":"2019-05-27 08:48:06","iframe_src":"//5091.svetacdn.in/71tsRs29n5tZ/movie/27102"},{"id":27101,"title":"Персики","kp_id":"3819","imdb_id":"tt0347755","world_art_id":null,"type":"movie","add":"2019-05-27 03:17:18","orig_title":"Peaches","year":"2004-08-30","translations":["Профессиональный (многоголосый закадровый)"],"quality":"dvdrip","translation":"Профессиональный (многоголосый закадровый)","update":"2019-05-27 08:50:46","iframe_src":"//5091.svetacdn.in/71tsRs29n5tZ/movie/27101"},{"id":27032,"title":"Мастер Востока","kp_id":"466442","imdb_id":"tt5125726","world_art_id":null,"type":"movie","add":"2019-05-26 10:15:47","orig_title":"Master Vostoka","year":"1992-10-01","translations":["Оригинальная дорожка"],"quality":"dvdrip","translation":"Оригинальная дорожка","update":"2019-05-27 16:48:57","iframe_src":"//5091.svetacdn.in/71tsRs29n5tZ/movie/27032"},{"id":27031,"title":"Муж на час","kp_id":"426352","imdb_id":"tt1862480","world_art_id":null,"type":"movie","add":"2019-05-26 10:05:55","orig_title":"Muzh na chas","year":"2008-01-07","translations":["Оригинальная дорожка"],"quality":"sat","translation":"Оригинальная дорожка","update":"2019-05-27 16:48:03","iframe_src":"//5091.svetacdn.in/71tsRs29n5tZ/movie/27031"},{"id":27030,"title":"Не привыкайте к чудесам...","kp_id":"420059","imdb_id":null,"world_art_id":null,"type":"movie","add":"2019-05-26 10:00:35","orig_title":"Не привыкайте к чудесам...","year":"2003-01-01","translations":["Оригинальная дорожка"],"quality":"dvdrip","translation":"Оригинальная дорожка","update":"2019-05-27 16:47:04","iframe_src":"//5091.svetacdn.in/71tsRs29n5tZ/movie/27030"},{"id":27029,"title":"Ночная фиалка","kp_id":"765650","imdb_id":null,"world_art_id":null,"type":"movie","add":"2019-05-25 23:56:17","orig_title":"Ночная фиалка","year":"2013-06-02","translations":["Оригинальная дорожка"],"quality":"hdtv","translation":"Оригинальная дорожка","update":"2019-05-27 16:45:56","iframe_src":"//5091.svetacdn.in/71tsRs29n5tZ/movie/27029"},{"id":27028,"title":"Ночной гость","kp_id":"46455","imdb_id":"tt0052008","world_art_id":null,"type":"movie","add":"2019-05-25 23:49:53","orig_title":"Nochnoy gost","year":"1958-11-11","translations":["Оригинальная дорожка"],"quality":"dvdrip","translation":"Оригинальная дорожка","update":"2019-05-27 16:38:29","iframe_src":"//5091.svetacdn.in/71tsRs29n5tZ/movie/27028"},{"id":27026,"title":"Отцы и дети","kp_id":"42855","imdb_id":"tt0053817","world_art_id":null,"type":"movie","add":"2019-05-25 23:41:55","orig_title":"Ottsy i deti","year":"1959-05-04","translations":["Оригинальная дорожка"],"quality":"sat","translation":"Оригинальная дорожка","update":"2019-05-27 16:40:59","iframe_src":"//5091.svetacdn.in/71tsRs29n5tZ/movie/27026"},{"id":27024,"title":"Первые радости","kp_id":"42955","imdb_id":"tt0049613","world_art_id":null,"type":"movie","add":"2019-05-25 23:24:47","orig_title":"Pervye radosti","year":"1956-07-02","translations":["Оригинальная дорожка"],"quality":"dvdrip","translation":"Оригинальная дорожка","update":"2019-05-27 16:40:52","iframe_src":"//5091.svetacdn.in/71tsRs29n5tZ/movie/27024"},{"id":27023,"title":"Поэма о крыльях","kp_id":"43063","imdb_id":"tt0079730","world_art_id":null,"type":"movie","add":"2019-05-25 23:18:46","orig_title":"Poema o krylyakh","year":"1980-04-15","translations":["Оригинальная дорожка"],"quality":"tv","translation":"Оригинальная дорожка","update":"2019-05-27 16:40:55","iframe_src":"//5091.svetacdn.in/71tsRs29n5tZ/movie/27023"},{"id":27022,"title":"Пржевальский","kp_id":"43340","imdb_id":"tt0043939","world_art_id":null,"type":"movie","add":"2019-05-25 23:08:39","orig_title":"Przhevalsky","year":"1952-02-26","translations":["Оригинальная дорожка"],"quality":"dvdrip","translation":"Оригинальная дорожка","update":"2019-05-27 16:41:00","iframe_src":"//5091.svetacdn.in/71tsRs29n5tZ/movie/27022"},{"id":27021,"title":"Салават Юлаев","kp_id":"43594","imdb_id":"tt0034147","world_art_id":null,"type":"movie","add":"2019-05-25 23:04:54","orig_title":"Salavat Yulayev","year":"1940-08-31","translations":["Оригинальная дорожка"],"quality":"dvdrip","translation":"Оригинальная дорожка","update":"2019-05-27 16:40:56","iframe_src":"//5091.svetacdn.in/71tsRs29n5tZ/movie/27021"},{"id":27020,"title":"Шуб – баба Люба!","kp_id":"419441","imdb_id":"tt5206892","world_art_id":null,"type":"movie","add":"2019-05-25 23:01:51","orig_title":"Shub-baba Lyuba!","year":"2000-01-01","translations":["Оригинальная дорожка"],"quality":"sat","translation":"Оригинальная дорожка","update":"2019-05-27 16:40:55","iframe_src":"//5091.svetacdn.in/71tsRs29n5tZ/movie/27020"},{"id":27019,"title":"Сотрудник ЧК","kp_id":"43928","imdb_id":"tt0057520","world_art_id":null,"type":"movie","add":"2019-05-25 22:57:46","orig_title":"Sotrudnik ChK","year":"1964-04-27","translations":["Оригинальная дорожка"],"quality":"dvdrip","translation":"Оригинальная дорожка","update":"2019-05-27 16:40:26","iframe_src":"//5091.svetacdn.in/71tsRs29n5tZ/movie/27019"}],"current_page":1550,"first_page_url":"https://videocdn.tv/api/short?limit=100&api_token=EnbO9h8pv1VyjbCJhg0WM9nG259n7mtz&cache31550=31550&page=1","from":154901,"last_page":664,"last_page_url":"https://videocdn.tv/api/short?limit=100&api_token=EnbO9h8pv1VyjbCJhg0WM9nG259n7mtz&cache31550=31550&page=664","next_page_url":null,"path":"https://videocdn.tv/api/short","per_page":100,"prev_page_url":"https://videocdn.tv/api/short?limit=100&api_token=EnbO9h8pv1VyjbCJhg0WM9nG259n7mtz&cache31550=31550&page=1549","to":154920,"total":66363}