{"result":true,"data":[{"id":36482,"title":"Магия крови","kp_id":"83658","imdb_id":"tt0418096","world_art_id":null,"type":"movie","add":"2020-02-18 15:36:55","orig_title":"Rakht","year":"2004-09-03","translations":["Профессиональный (многоголосый закадровый)"],"quality":"dvdrip","translation":"Профессиональный (многоголосый закадровый)","update":"2020-02-19 10:37:21","iframe_src":"//5322.svetacdn.in/si4jsFRrtgrT/movie/36482"},{"id":36481,"title":"Мать Индия","kp_id":"97018","imdb_id":"tt0050188","world_art_id":null,"type":"movie","add":"2020-02-18 15:33:52","orig_title":"Mother India","year":"1957-02-14","translations":["Профессиональный (многоголосый закадровый)"],"quality":"dvdrip","translation":"Профессиональный (многоголосый закадровый)","update":"2020-02-19 10:35:13","iframe_src":"//5322.svetacdn.in/si4jsFRrtgrT/movie/36481"},{"id":36477,"title":"Мой друг Бобби Деол","kp_id":"264729","imdb_id":"tt0845494","world_art_id":null,"type":"movie","add":"2020-02-18 14:52:27","orig_title":"Nanhe Jaisalmer: A Dream Come True","year":"2007-09-14","translations":["Профессиональный (многоголосый закадровый)"],"quality":"dvdrip","translation":"Профессиональный (многоголосый закадровый)","update":"2020-02-19 10:34:23","iframe_src":"//5322.svetacdn.in/si4jsFRrtgrT/movie/36477"},{"id":36474,"title":"Ночные откровения","kp_id":"161097","imdb_id":"tt0383975","world_art_id":null,"type":"movie","add":"2020-02-18 14:49:06","orig_title":"Chameli","year":"2003-12-31","translations":["Профессиональный (многоголосый закадровый)"],"quality":"dvdrip","translation":"Профессиональный (многоголосый закадровый)","update":"2020-02-19 10:33:30","iframe_src":"//5322.svetacdn.in/si4jsFRrtgrT/movie/36474"},{"id":36472,"title":"Новая надежда","kp_id":"40446","imdb_id":"tt0187344","world_art_id":null,"type":"movie","add":"2020-02-18 14:45:38","orig_title":"Naya Kadam","year":"1984-10-05","translations":["Профессиональный (многоголосый закадровый)"],"quality":"dvdrip","translation":"Профессиональный (многоголосый закадровый)","update":"2020-02-19 10:32:37","iframe_src":"//5322.svetacdn.in/si4jsFRrtgrT/movie/36472"},{"id":36471,"title":"О, мой друг!","kp_id":"641778","imdb_id":"tt2088847","world_art_id":null,"type":"movie","add":"2020-02-18 14:41:37","orig_title":"Oh My Friend","year":"2011-11-11","translations":["Профессиональный (многоголосый закадровый) (Red Media)"],"quality":"webdl","translation":"Профессиональный (многоголосый закадровый) (Red Media)","update":"2020-02-19 10:32:00","iframe_src":"//5322.svetacdn.in/si4jsFRrtgrT/movie/36471"},{"id":36470,"title":"Откровение","kp_id":"77193","imdb_id":"tt0091256","world_art_id":null,"type":"movie","add":"2020-02-18 14:39:04","orig_title":"Ijaazat","year":"1987-07-08","translations":["Профессиональный (двухголосый закадровый)"],"quality":"dvdrip","translation":"Профессиональный (двухголосый закадровый)","update":"2020-02-19 10:30:52","iframe_src":"//5322.svetacdn.in/si4jsFRrtgrT/movie/36470"},{"id":36468,"title":"Чандра","kp_id":"775443","imdb_id":"tt2995952","world_art_id":null,"type":"movie","add":"2020-02-18 14:34:16","orig_title":"Chandra","year":"2013-06-27","translations":["Любительский (одноголосый закадровый)"],"quality":"webdl","translation":"Любительский (одноголосый закадровый)","update":"2020-02-19 10:29:16","iframe_src":"//5322.svetacdn.in/si4jsFRrtgrT/movie/36468"},{"id":36467,"title":"Пропащий","kp_id":"317141","imdb_id":"tt0246420","world_art_id":null,"type":"movie","add":"2020-02-18 14:31:53","orig_title":"Amanush","year":"1975-03-21","translations":["Любительский (одноголосый закадровый)"],"quality":"dvdrip","translation":"Любительский (одноголосый закадровый)","update":"2020-02-19 10:28:14","iframe_src":"//5322.svetacdn.in/si4jsFRrtgrT/movie/36467"},{"id":36463,"title":"После свадьбы","kp_id":"225240","imdb_id":"tt0255593","world_art_id":null,"type":"movie","add":"2020-02-18 14:26:48","orig_title":"Shaadi Ke Baad","year":"1972-01-01","translations":["Профессиональный (многоголосый закадровый)"],"quality":"dvdrip","translation":"Профессиональный (многоголосый закадровый)","update":"2020-02-19 10:27:50","iframe_src":"//5322.svetacdn.in/si4jsFRrtgrT/movie/36463"},{"id":36450,"title":"Кровавое письмо","kp_id":"666901","imdb_id":"tt2187149","world_art_id":null,"type":"movie","add":"2020-02-18 13:59:11","orig_title":"Thiên menh anh hùng","year":"2012-01-20","translations":["Профессиональный (многоголосый закадровый) (НТВ)"],"quality":"bd","translation":"Профессиональный (многоголосый закадровый) (НТВ)","update":"2020-02-19 10:27:06","iframe_src":"//5322.svetacdn.in/si4jsFRrtgrT/movie/36450"},{"id":36335,"title":"Воскрешение","kp_id":"577667","imdb_id":"tt1817276","world_art_id":null,"type":"movie","add":"2020-02-16 17:14:15","orig_title":"A Resurrection","year":"2013-03-22","translations":["Полное дублирование"],"quality":"hdrip","translation":"Полное дублирование","update":"2020-02-19 07:28:20","iframe_src":"//5322.svetacdn.in/si4jsFRrtgrT/movie/36335"},{"id":36334,"title":"Каролина","kp_id":"2551","imdb_id":"tt0289889","world_art_id":null,"type":"movie","add":"2020-02-16 17:11:07","orig_title":"Carolina","year":"2003-07-04","translations":["Полное дублирование"],"quality":"dvdrip","translation":"Полное дублирование","update":"2020-02-19 07:25:20","iframe_src":"//5322.svetacdn.in/si4jsFRrtgrT/movie/36334"},{"id":36333,"title":"Двое на дороге","kp_id":"571258","imdb_id":"tt1754799","world_art_id":null,"type":"movie","add":"2020-02-16 17:09:23","orig_title":"The Suite Life Movie","year":"2011-03-25","translations":["Полное дублирование"],"quality":"dvb","translation":"Полное дублирование","update":"2020-02-19 07:24:17","iframe_src":"//5322.svetacdn.in/si4jsFRrtgrT/movie/36333"},{"id":36192,"title":"Испытание любви","kp_id":"25391","imdb_id":"tt0266824","world_art_id":null,"type":"movie","add":"2020-02-13 10:26:47","orig_title":"The Painting","year":"2001-10-27","translations":["Профессиональный (многоголосый закадровый)"],"quality":"dvdrip","translation":"Профессиональный (многоголосый закадровый)","update":"2020-02-19 10:19:27","iframe_src":"//5322.svetacdn.in/si4jsFRrtgrT/movie/36192"},{"id":36183,"title":"Последний камикадзе","kp_id":"77508","imdb_id":"tt0327128","world_art_id":null,"type":"movie","add":"2020-02-13 09:20:25","orig_title":"Saigo no tokkôtai","year":"1970-10-29","translations":["Любительский (одноголосый закадровый)"],"quality":"dvdrip","translation":"Любительский (одноголосый закадровый)","update":"2020-02-19 10:25:17","iframe_src":"//5322.svetacdn.in/si4jsFRrtgrT/movie/36183"},{"id":35675,"title":"Мои африканские приключения","kp_id":"724496","imdb_id":"tt2493386","world_art_id":null,"type":"movie","add":"2020-01-30 21:48:54","orig_title":"Min søsters børn i Afrika","year":"2013-01-31","translations":["Профессиональный (многоголосый закадровый) (НТВ)"],"quality":"bd","translation":"Профессиональный (многоголосый закадровый) (НТВ)","update":"2020-02-19 07:20:28","iframe_src":"//5322.svetacdn.in/si4jsFRrtgrT/movie/35675"},{"id":32603,"title":"Моя няня – вампир","kp_id":"531670","imdb_id":"tt1673423","world_art_id":null,"type":"movie","add":"2019-11-02 12:40:13","orig_title":"My Babysitter's a Vampire","year":"2010-10-09","translations":["Полное дублирование (Невафильм | Нева-1)","Original (English)"],"quality":"webdl","translation":"Полное дублирование (Невафильм | Нева-1)","update":"2020-02-19 07:18:59","iframe_src":"//5322.svetacdn.in/si4jsFRrtgrT/movie/32603"},{"id":1837,"title":"Расплата","kp_id":"12522","imdb_id":"tt0120784","world_art_id":null,"type":"movie","add":"2016-05-04 04:38:05","orig_title":"Payback","year":"1999-02-05","translations":["Полное дублирование","Авторский (одноголосый закадровый) (Гаврилов Андрей)","Авторский (одноголосый закадровый) (Гоблин | Пучков Дмитрий)","Авторский (одноголосый закадровый) (Живов Юрий)","Original (English)","Профессиональный (двухголосый закадровый) (Tycoon)","Профессиональный (многоголосый закадровый)"],"quality":"bd","translation":"Полное дублирование","update":"2020-02-19 07:44:26","iframe_src":"//5322.svetacdn.in/si4jsFRrtgrT/movie/1837"},{"id":1701,"title":"Неудержимый","kp_id":"463475","imdb_id":"tt1308729","world_art_id":null,"type":"movie","add":"2016-04-28 17:55:47","orig_title":"Bullet to the Head","year":"2012-11-14","translations":["Полное дублирование","Авторский (одноголосый закадровый) (Гоблин | Пучков Дмитрий)","Original (English)","Авторский (одноголосый закадровый) (Гаврилов Андрей)","Авторский (одноголосый закадровый) (Сербин Юрий)","Авторский (одноголосый закадровый) (Володарский Леонид)"],"quality":"bd","translation":"Полное дублирование","update":"2020-02-19 07:37:43","iframe_src":"//5322.svetacdn.in/si4jsFRrtgrT/movie/1701"}],"current_page":857,"first_page_url":"https://videocdn.tv/api/short?limit=100&api_token=X6EwAUfE5M9xbo7y0Bp0aPf3uXxG2KLL&cache3857=3857&page=1","from":85601,"last_page":623,"last_page_url":"https://videocdn.tv/api/short?limit=100&api_token=X6EwAUfE5M9xbo7y0Bp0aPf3uXxG2KLL&cache3857=3857&page=623","next_page_url":null,"path":"https://videocdn.tv/api/short","per_page":100,"prev_page_url":"https://videocdn.tv/api/short?limit=100&api_token=X6EwAUfE5M9xbo7y0Bp0aPf3uXxG2KLL&cache3857=3857&page=856","to":85620,"total":62268}