{"result":true,"data":[{"id":44422,"title":"Жуткая невеста","kp_id":"1275100","imdb_id":"tt10498022","world_art_id":null,"type":"movie","add":"2020-10-13 20:36:41","orig_title":"Scary Bride","year":"2020-10-13","translations":["Любительский (многоголосый закадровый) (@MUZOBOZ@)"],"quality":"webdl","translation":"Любительский (многоголосый закадровый) (@MUZOBOZ@)","update":"2020-10-14 05:53:17","iframe_src":"//2413.svetacdn.in/IAF0wWTdNYZm/movie/44422"},{"id":44419,"title":"Художник","kp_id":"1114480","imdb_id":"tt7772872","world_art_id":null,"type":"movie","add":"2020-10-13 19:58:41","orig_title":"Painter","year":"2020-10-13","translations":["Любительский (многоголосый закадровый) (@MUZOBOZ@)"],"quality":"webdl","translation":"Любительский (многоголосый закадровый) (@MUZOBOZ@)","update":"2020-10-14 05:54:22","iframe_src":"//2413.svetacdn.in/IAF0wWTdNYZm/movie/44419"},{"id":44400,"title":"Призраки на перекрестке Долины Смерти","kp_id":"1141932","imdb_id":"tt8359620","world_art_id":null,"type":"movie","add":"2020-10-13 17:27:41","orig_title":"Haunting at Death Valley Junction","year":"2020-10-06","translations":["Любительский (многоголосый закадровый) (Синема УС)"],"quality":"webdl","translation":"Любительский (многоголосый закадровый) (Синема УС)","update":"2020-10-13 20:21:43","iframe_src":"//2413.svetacdn.in/IAF0wWTdNYZm/movie/44400"},{"id":44399,"title":"Отчаянные меры","kp_id":"1419811","imdb_id":"tt13090630","world_art_id":null,"type":"movie","add":"2020-10-13 17:08:49","orig_title":"Times & Measures","year":"2020-09-01","translations":["Любительский (многоголосый закадровый) (Синема УС)"],"quality":"webdl","translation":"Любительский (многоголосый закадровый) (Синема УС)","update":"2020-10-13 19:44:11","iframe_src":"//2413.svetacdn.in/IAF0wWTdNYZm/movie/44399"},{"id":44398,"title":"Кармилла","kp_id":"1051550","imdb_id":"tt7280218","world_art_id":null,"type":"movie","add":"2020-10-13 17:02:29","orig_title":"Carmilla","year":"2019-06-28","translations":["Любительский (многоголосый закадровый) (@MUZOBOZ@)"],"quality":"webdl","translation":"Любительский (многоголосый закадровый) (@MUZOBOZ@)","update":"2020-10-13 21:26:13","iframe_src":"//2413.svetacdn.in/IAF0wWTdNYZm/movie/44398"},{"id":44324,"title":"Никто не умрет","kp_id":"1286757","imdb_id":"tt10682318","world_art_id":null,"type":"movie","add":"2020-10-11 22:06:19","orig_title":"Ander Mens","year":"2019-12-23","translations":["Любительский (многоголосый закадровый) (@MUZOBOZ@)"],"quality":"webdl","translation":"Любительский (многоголосый закадровый) (@MUZOBOZ@)","update":"2020-10-14 05:57:23","iframe_src":"//2413.svetacdn.in/IAF0wWTdNYZm/movie/44324"},{"id":44319,"title":"Кричащая тишина","kp_id":"1248887","imdb_id":"tt8302022","world_art_id":null,"type":"movie","add":"2020-10-11 21:55:31","orig_title":"El silencio a gritos","year":"2018-04-15","translations":["Любительский (многоголосый закадровый) (Синема УС)"],"quality":"webdl","translation":"Любительский (многоголосый закадровый) (Синема УС)","update":"2020-10-14 05:55:53","iframe_src":"//2413.svetacdn.in/IAF0wWTdNYZm/movie/44319"},{"id":44306,"title":"Дьявольский холст","kp_id":"959359","imdb_id":"tt5343026","world_art_id":null,"type":"movie","add":"2020-10-11 17:45:06","orig_title":"The Devil Frame","year":"2019-01-01","translations":["Любительский (многоголосый закадровый) (Синема УС)"],"quality":"webdl","translation":"Любительский (многоголосый закадровый) (Синема УС)","update":"2020-10-14 05:58:51","iframe_src":"//2413.svetacdn.in/IAF0wWTdNYZm/movie/44306"},{"id":44305,"title":"Разлучница","kp_id":"1282275","imdb_id":"tt10560862","world_art_id":null,"type":"movie","add":"2020-10-11 17:42:38","orig_title":"Homewrecker","year":"2019-07-26","translations":["Любительский (многоголосый закадровый) (Синема УС)"],"quality":"webdl","translation":"Любительский (многоголосый закадровый) (Синема УС)","update":"2020-10-14 06:00:27","iframe_src":"//2413.svetacdn.in/IAF0wWTdNYZm/movie/44305"},{"id":44301,"title":"Волки","kp_id":"1033137","imdb_id":"tt6130920","world_art_id":null,"type":"movie","add":"2020-10-11 10:33:17","orig_title":"Wolfe","year":"2018-10-26","translations":["Любительский (многоголосый закадровый) (Синема УС)"],"quality":"webdl","translation":"Любительский (многоголосый закадровый) (Синема УС)","update":"2020-10-13 21:36:45","iframe_src":"//2413.svetacdn.in/IAF0wWTdNYZm/movie/44301"},{"id":44300,"title":"Каприз","kp_id":"936326","imdb_id":"tt5068902","world_art_id":null,"type":"movie","add":"2020-10-11 10:30:17","orig_title":"Caprice","year":"2018-03-30","translations":["Любительский (многоголосый закадровый) (Синема УС)"],"quality":"webdl","translation":"Любительский (многоголосый закадровый) (Синема УС)","update":"2020-10-13 21:39:14","iframe_src":"//2413.svetacdn.in/IAF0wWTdNYZm/movie/44300"},{"id":44299,"title":"Чудовище","kp_id":"1092419","imdb_id":"tt6840904","world_art_id":null,"type":"movie","add":"2020-10-11 10:28:23","orig_title":"Monster","year":"2018-06-29","translations":["Любительский (многоголосый закадровый) (Синема УС)"],"quality":"webdl","translation":"Любительский (многоголосый закадровый) (Синема УС)","update":"2020-10-13 21:33:51","iframe_src":"//2413.svetacdn.in/IAF0wWTdNYZm/movie/44299"},{"id":44298,"title":"Сэмхейн: Ужас в ночь на Хэллоуин","kp_id":"1197532","imdb_id":"tt8968844","world_art_id":null,"type":"movie","add":"2020-10-11 09:35:05","orig_title":"Samhain: A Halloween Horror Movie","year":"2018-09-29","translations":["Любительский (многоголосый закадровый) (Синема УС)"],"quality":"webdl","translation":"Любительский (многоголосый закадровый) (Синема УС)","update":"2020-10-14 06:06:16","iframe_src":"//2413.svetacdn.in/IAF0wWTdNYZm/movie/44298"},{"id":44297,"title":"Девочка из прошлого","kp_id":"1326161","imdb_id":"tt7194618","world_art_id":null,"type":"movie","add":"2020-10-11 09:33:00","orig_title":"Co gai den tu hom qua","year":"2017-07-21","translations":["Любительский (многоголосый закадровый) (Синема УС)"],"quality":"webdl","translation":"Любительский (многоголосый закадровый) (Синема УС)","update":"2020-10-13 21:35:14","iframe_src":"//2413.svetacdn.in/IAF0wWTdNYZm/movie/44297"},{"id":44296,"title":"Банши: Музыка смерти","kp_id":"367606","imdb_id":"tt0488496","world_art_id":null,"type":"movie","add":"2020-10-11 09:15:55","orig_title":"Banshee","year":"2006-06-24","translations":["Профессиональный (многоголосый закадровый)"],"quality":"hdtv","translation":"Профессиональный (многоголосый закадровый)","update":"2020-10-14 06:04:46","iframe_src":"//2413.svetacdn.in/IAF0wWTdNYZm/movie/44296"},{"id":44295,"title":"Улица Малберри","kp_id":"195326","imdb_id":"tt0473514","world_art_id":null,"type":"movie","add":"2020-10-11 09:12:25","orig_title":"Mulberry St","year":"2006-11-16","translations":["Любительский (одноголосый закадровый)"],"quality":"dvdrip","translation":"Любительский (одноголосый закадровый)","update":"2020-10-13 21:29:22","iframe_src":"//2413.svetacdn.in/IAF0wWTdNYZm/movie/44295"},{"id":44292,"title":"Сестры Мунэката","kp_id":"156245","imdb_id":"tt0042762","world_art_id":null,"type":"movie","add":"2020-10-10 12:45:54","orig_title":"Munekata kyôdai","year":"1950-08-25","translations":["Любительский (многоголосый закадровый)"],"quality":"webdl","translation":"Любительский (многоголосый закадровый)","update":"2020-10-13 17:54:30","iframe_src":"//2413.svetacdn.in/IAF0wWTdNYZm/movie/44292"},{"id":44291,"title":"Уютные норки","kp_id":"50640","imdb_id":"tt0167331","world_art_id":null,"type":"movie","add":"2020-10-10 07:16:28","orig_title":"Pelísky","year":"1999-04-08","translations":["Профессиональный (многоголосый закадровый)"],"quality":"bd","translation":"Профессиональный (многоголосый закадровый)","update":"2020-10-13 15:41:38","iframe_src":"//2413.svetacdn.in/IAF0wWTdNYZm/movie/44291"},{"id":44200,"title":"Поцелуями сотри кровь с моих рук","kp_id":"15244","imdb_id":"tt0040512","world_art_id":null,"type":"movie","add":"2020-10-07 11:16:07","orig_title":"Kiss the Blood Off My Hands","year":"1948-10-30","translations":["[EN] Original (English)","Профессиональный (многоголосый закадровый) (СТС)"],"quality":"dvdrip","translation":"[EN] Original (English)","update":"2020-10-13 19:41:57","iframe_src":"//2413.svetacdn.in/IAF0wWTdNYZm/movie/44200"},{"id":13715,"title":"Операция «Мутанты»","kp_id":"17016","imdb_id":"tt0106215","world_art_id":null,"type":"movie","add":"2017-10-04 07:45:57","orig_title":"Acción mutante","year":"1993-01-18","translations":["Профессиональный (двухголосый закадровый)","Профессиональный (двухголосый закадровый)"],"quality":"dvdrip","translation":"Профессиональный (двухголосый закадровый)","update":"2020-10-13 17:56:40","iframe_src":"//2413.svetacdn.in/IAF0wWTdNYZm/movie/13715"}],"current_page":963,"first_page_url":"https://videocdn.tv/api/short?limit=100&api_token=6Onb1W1alEUrBcKJZD3GoKBbWyAl2uG2&cache3963=3963&page=1","from":96201,"last_page":716,"last_page_url":"https://videocdn.tv/api/short?limit=100&api_token=6Onb1W1alEUrBcKJZD3GoKBbWyAl2uG2&cache3963=3963&page=716","next_page_url":null,"path":"https://videocdn.tv/api/short","per_page":100,"prev_page_url":"https://videocdn.tv/api/short?limit=100&api_token=6Onb1W1alEUrBcKJZD3GoKBbWyAl2uG2&cache3963=3963&page=962","to":96220,"total":71552}