{"result":true,"data":[{"id":27817,"title":"Вне закона","kp_id":"257456","imdb_id":"tt0758771","world_art_id":null,"type":"movie","add":"2019-06-15 06:39:13","orig_title":"Outlaw","year":"2007-03-09","translations":["Полное дублирование","Original (English)"],"quality":"bd","translation":"Полное дублирование","update":"2019-06-15 14:00:13","iframe_src":"//8543.svetacdn.in/IAF0wWTdNYZm/movie/27817"},{"id":27810,"title":"Пираньи Неаполя","kp_id":"1193418","imdb_id":"tt8740778","world_art_id":null,"type":"movie","add":"2019-06-15 05:51:31","orig_title":"La paranza dei bambini","year":"2019-02-12","translations":["Полное дублирование (iTunes)"],"quality":"bd","translation":"Полное дублирование (iTunes)","update":"2019-06-15 14:05:52","iframe_src":"//8543.svetacdn.in/IAF0wWTdNYZm/movie/27810"},{"id":27809,"title":"Собственность, Повесть о двух Америках","kp_id":"881878","imdb_id":"tt3589224","world_art_id":null,"type":"movie","add":"2019-06-15 05:50:39","orig_title":"Owned, A Tale of Two Americas","year":"2018-04-12","translations":["Любительский (многоголосый закадровый) (Синема УС)"],"quality":"bd","translation":"Любительский (многоголосый закадровый) (Синема УС)","update":"2019-06-15 14:07:16","iframe_src":"//8543.svetacdn.in/IAF0wWTdNYZm/movie/27809"},{"id":27789,"title":"Одной любви недостаточно","kp_id":"895562","imdb_id":"tt3888806","world_art_id":null,"type":"movie","add":"2019-06-14 04:35:56","orig_title":"Love Is Not Enough","year":"2018-11-02","translations":["Любительский (многоголосый закадровый) (Синема УС)"],"quality":"webdl","translation":"Любительский (многоголосый закадровый) (Синема УС)","update":"2019-06-14 06:51:51","iframe_src":"//8543.svetacdn.in/IAF0wWTdNYZm/movie/27789"},{"id":27788,"title":"Роллердром","kp_id":"1013243","imdb_id":"tt6522084","world_art_id":null,"type":"movie","add":"2019-06-14 04:35:04","orig_title":"Rink","year":"2018-01-01","translations":["Любительский (многоголосый закадровый) (Синема УС)"],"quality":"webdl","translation":"Любительский (многоголосый закадровый) (Синема УС)","update":"2019-06-14 06:53:05","iframe_src":"//8543.svetacdn.in/IAF0wWTdNYZm/movie/27788"},{"id":27787,"title":"Грехи презренной жены","kp_id":"1175897","imdb_id":"tt8634326","world_art_id":null,"type":"movie","add":"2019-06-14 04:34:12","orig_title":"Sins of a Scorned Wife","year":"2019-04-30","translations":["Любительский (многоголосый закадровый) (Синема УС)"],"quality":"webdl","translation":"Любительский (многоголосый закадровый) (Синема УС)","update":"2019-06-14 06:54:10","iframe_src":"//8543.svetacdn.in/IAF0wWTdNYZm/movie/27787"},{"id":27786,"title":"Я люблю тебя","kp_id":"1120898","imdb_id":"tt8315092","world_art_id":null,"type":"movie","add":"2019-06-14 04:33:16","orig_title":"Ui rabu","year":"2018-11-09","translations":["Любительский (многоголосый закадровый) (Синема УС)"],"quality":"bd","translation":"Любительский (многоголосый закадровый) (Синема УС)","update":"2019-06-14 06:50:53","iframe_src":"//8543.svetacdn.in/IAF0wWTdNYZm/movie/27786"},{"id":27785,"title":"Убрать Картера","kp_id":"21073","imdb_id":"tt0067128","world_art_id":null,"type":"movie","add":"2019-06-14 03:27:01","orig_title":"Get Carter","year":"1971-02-03","translations":["Профессиональный (многоголосый закадровый)"],"quality":"bd","translation":"Профессиональный (многоголосый закадровый)","update":"2019-06-14 13:19:18","iframe_src":"//8543.svetacdn.in/IAF0wWTdNYZm/movie/27785"},{"id":27784,"title":"История эльфа: Эльф на полке","kp_id":"644125","imdb_id":"tt2094761","world_art_id":null,"type":"movie","add":"2019-06-14 03:24:47","orig_title":"An Elf's Story: The Elf on the Shelf","year":"2011-11-26","translations":["Профессиональный (двухголосый закадровый)"],"quality":"bd","translation":"Профессиональный (двухголосый закадровый)","update":"2019-06-15 12:30:23","iframe_src":"//8543.svetacdn.in/IAF0wWTdNYZm/movie/27784"},{"id":27783,"title":"Девять месяцев","kp_id":"35556","imdb_id":"tt0110646","world_art_id":null,"type":"movie","add":"2019-06-14 03:23:12","orig_title":"Neuf mois","year":"1994-02-02","translations":["Профессиональный (двухголосый закадровый)"],"quality":"hdtv","translation":"Профессиональный (двухголосый закадровый)","update":"2019-06-14 10:49:42","iframe_src":"//8543.svetacdn.in/IAF0wWTdNYZm/movie/27783"},{"id":27782,"title":"Удостоверение","kp_id":"18853","imdb_id":"tt0113375","world_art_id":null,"type":"movie","add":"2019-06-14 03:21:09","orig_title":"I.D.","year":"1995-05-05","translations":["Любительский (одноголосый закадровый)"],"quality":"bd","translation":"Любительский (одноголосый закадровый)","update":"2019-06-14 10:56:45","iframe_src":"//8543.svetacdn.in/IAF0wWTdNYZm/movie/27782"},{"id":27781,"title":"Монти Уолш","kp_id":"326104","imdb_id":"tt0329390","world_art_id":null,"type":"movie","add":"2019-06-14 03:19:06","orig_title":"Monte Walsh","year":"2003-01-17","translations":["Профессиональный (многоголосый закадровый)"],"quality":"hdtv","translation":"Профессиональный (многоголосый закадровый)","update":"2019-06-15 12:38:47","iframe_src":"//8543.svetacdn.in/IAF0wWTdNYZm/movie/27781"},{"id":27763,"title":"Утреннее шоссе","kp_id":"42543","imdb_id":"tt0307624","world_art_id":null,"type":"movie","add":"2019-06-13 20:55:32","orig_title":"Utrenneye shosse","year":"1988-01-01","translations":["Оригинальная дорожка"],"quality":"dvdrip","translation":"Оригинальная дорожка","update":"2019-06-14 06:35:55","iframe_src":"//8543.svetacdn.in/IAF0wWTdNYZm/movie/27763"},{"id":27762,"title":"В старых ритмах","kp_id":"45633","imdb_id":"tt0240159","world_art_id":null,"type":"movie","add":"2019-06-13 20:50:30","orig_title":"V starykh ritmakh","year":"1982-11-22","translations":["Оригинальная дорожка"],"quality":"dvdrip","translation":"Оригинальная дорожка","update":"2019-06-14 06:37:24","iframe_src":"//8543.svetacdn.in/IAF0wWTdNYZm/movie/27762"},{"id":27761,"title":"Вкус халвы","kp_id":"45792","imdb_id":"tt0073872","world_art_id":null,"type":"movie","add":"2019-06-13 20:47:11","orig_title":"Vkus khalvy","year":"1975-01-01","translations":["Оригинальная дорожка"],"quality":"dvdrip","translation":"Оригинальная дорожка","update":"2019-06-14 06:38:27","iframe_src":"//8543.svetacdn.in/IAF0wWTdNYZm/movie/27761"},{"id":27760,"title":"Впереди океан","kp_id":"528222","imdb_id":"tt5593212","world_art_id":null,"type":"movie","add":"2019-06-13 20:44:05","orig_title":"Vperedi okean","year":"1983-01-01","translations":["Оригинальная дорожка"],"quality":"dvdrip","translation":"Оригинальная дорожка","update":"2019-06-14 06:39:21","iframe_src":"//8543.svetacdn.in/IAF0wWTdNYZm/movie/27760"},{"id":27759,"title":"Время для размышлений","kp_id":"279029","imdb_id":"tt0084877","world_art_id":null,"type":"movie","add":"2019-06-13 20:39:53","orig_title":"Vremya dlya razmyshleniy","year":"1983-01-18","translations":["Оригинальная дорожка"],"quality":"dvdrip","translation":"Оригинальная дорожка","update":"2019-06-14 06:42:39","iframe_src":"//8543.svetacdn.in/IAF0wWTdNYZm/movie/27759"},{"id":27758,"title":"Здесь твой фронт","kp_id":"45254","imdb_id":"tt0253975","world_art_id":null,"type":"movie","add":"2019-06-13 20:36:27","orig_title":"Zdes tvoy front","year":"1983-01-01","translations":["Оригинальная дорожка"],"quality":"dvdrip","translation":"Оригинальная дорожка","update":"2019-06-14 06:45:46","iframe_src":"//8543.svetacdn.in/IAF0wWTdNYZm/movie/27758"},{"id":27757,"title":"Полет к тысячам солнц","kp_id":"596531","imdb_id":"tt7717840","world_art_id":null,"type":"movie","add":"2019-06-13 20:32:48","orig_title":"Polyot k tysyacham solnts","year":"1963-01-01","translations":["Оригинальная дорожка"],"quality":"webdl","translation":"Оригинальная дорожка","update":"2019-06-14 06:48:05","iframe_src":"//8543.svetacdn.in/IAF0wWTdNYZm/movie/27757"},{"id":23722,"title":"Пляжный бездельник","kp_id":"1018804","imdb_id":"tt6511932","world_art_id":null,"type":"movie","add":"2019-03-31 22:41:03","orig_title":"The Beach Bum","year":"2019-03-09","translations":["Полное дублирование (iTunes)"],"quality":"bd","translation":"Полное дублирование (iTunes)","update":"2019-06-14 10:36:46","iframe_src":"//8543.svetacdn.in/IAF0wWTdNYZm/movie/23722"}],"current_page":1203,"first_page_url":"https://videocdn.tv/api/short?limit=100&api_token=6Onb1W1alEUrBcKJZD3GoKBbWyAl2uG2&cache31203=31203&page=1","from":120201,"last_page":599,"last_page_url":"https://videocdn.tv/api/short?limit=100&api_token=6Onb1W1alEUrBcKJZD3GoKBbWyAl2uG2&cache31203=31203&page=599","next_page_url":null,"path":"https://videocdn.tv/api/short","per_page":100,"prev_page_url":"https://videocdn.tv/api/short?limit=100&api_token=6Onb1W1alEUrBcKJZD3GoKBbWyAl2uG2&cache31203=31203&page=1202","to":120220,"total":59825}