{"result":true,"data":[{"id":50603,"title":"Шторы","kp_id":"1355858","imdb_id":"tt11957450","world_art_id":null,"type":"movie","add":"2021-05-23 19:14:20","orig_title":"Blinders","year":"2020-08-31","translations":["Любительский (многоголосый закадровый) (@MUZOBOZ@)"],"quality":"webdl","translation":"Любительский (многоголосый закадровый) (@MUZOBOZ@)","update":"2021-05-24 07:12:00","iframe_src":"//24213.svetacdn.in/IAF0wWTdNYZm/movie/50603"},{"id":50602,"title":"Вечеринка","kp_id":null,"imdb_id":"tt11385190","world_art_id":null,"type":"movie","add":"2021-05-23 19:09:16","orig_title":"La Pachanga","year":"2019-12-26","translations":["Любительский (многоголосый закадровый) (Синема УС)"],"quality":"webdl","translation":"Любительский (многоголосый закадровый) (Синема УС)","update":"2021-05-24 07:12:36","iframe_src":"//24213.svetacdn.in/IAF0wWTdNYZm/movie/50602"},{"id":50601,"title":"Золото монстра","kp_id":"1275644","imdb_id":"tt8995178","world_art_id":null,"type":"movie","add":"2021-05-23 19:07:19","orig_title":"Monster Gold","year":"2019-11-24","translations":["Любительский (многоголосый закадровый) (Синема УС)"],"quality":"webdl","translation":"Любительский (многоголосый закадровый) (Синема УС)","update":"2021-05-24 07:12:58","iframe_src":"//24213.svetacdn.in/IAF0wWTdNYZm/movie/50601"},{"id":50596,"title":"Гора Фостер","kp_id":"1223535","imdb_id":"tt9480146","world_art_id":null,"type":"movie","add":"2021-05-23 18:56:50","orig_title":"Mont Foster","year":"2020-03-02","translations":["Любительский (многоголосый закадровый) (Синема УС)"],"quality":"webdl","translation":"Любительский (многоголосый закадровый) (Синема УС)","update":"2021-05-24 07:14:19","iframe_src":"//24213.svetacdn.in/IAF0wWTdNYZm/movie/50596"},{"id":50592,"title":"Часики тикают","kp_id":"1284288","imdb_id":"tt10664496","world_art_id":null,"type":"movie","add":"2021-05-23 18:44:50","orig_title":"Die fruchtbaren Jahre sind vorbei","year":"2019-08-11","translations":["Любительский (многоголосый закадровый) (Синема УС)"],"quality":"webdl","translation":"Любительский (многоголосый закадровый) (Синема УС)","update":"2021-05-24 07:14:48","iframe_src":"//24213.svetacdn.in/IAF0wWTdNYZm/movie/50592"},{"id":50591,"title":"Исаак","kp_id":"970119","imdb_id":"tt5537378","world_art_id":null,"type":"movie","add":"2021-05-23 18:43:03","orig_title":"Izaokas","year":"2019-11-27","translations":["Любительский (многоголосый закадровый) (Синема УС)"],"quality":"webdl","translation":"Любительский (многоголосый закадровый) (Синема УС)","update":"2021-05-24 07:15:14","iframe_src":"//24213.svetacdn.in/IAF0wWTdNYZm/movie/50591"},{"id":50589,"title":"Виолету подвозить не надо","kp_id":"1323499","imdb_id":"tt11214054","world_art_id":null,"type":"movie","add":"2021-05-23 18:39:05","orig_title":"Violeta no coge el ascensor","year":"2019-11-14","translations":["Любительский (многоголосый закадровый) (Синема УС)"],"quality":"webdl","translation":"Любительский (многоголосый закадровый) (Синема УС)","update":"2021-05-24 07:15:26","iframe_src":"//24213.svetacdn.in/IAF0wWTdNYZm/movie/50589"},{"id":50587,"title":"Мир лжи","kp_id":"1073090","imdb_id":"tt7531600","world_art_id":null,"type":"movie","add":"2021-05-23 18:35:51","orig_title":"Lie of You","year":"2019-10-03","translations":["Любительский (многоголосый закадровый) (Синема УС)"],"quality":"webdl","translation":"Любительский (многоголосый закадровый) (Синема УС)","update":"2021-05-24 07:16:18","iframe_src":"//24213.svetacdn.in/IAF0wWTdNYZm/movie/50587"},{"id":50586,"title":"Навсегда и никогда","kp_id":"1209305","imdb_id":"tt9244792","world_art_id":null,"type":"movie","add":"2021-05-23 18:33:18","orig_title":"Mai per sempre","year":"2019-10-01","translations":["Любительский (многоголосый закадровый) (AlphaProject)"],"quality":"webdl","translation":"Любительский (многоголосый закадровый) (AlphaProject)","update":"2021-05-24 07:16:40","iframe_src":"//24213.svetacdn.in/IAF0wWTdNYZm/movie/50586"},{"id":50585,"title":"Несчастная любовь","kp_id":"1349611","imdb_id":"tt11045952","world_art_id":null,"type":"movie","add":"2021-05-23 18:31:35","orig_title":"Luv Gone Wrong","year":"2019-08-23","translations":["Любительский (многоголосый закадровый) (Синема УС)"],"quality":"webdl","translation":"Любительский (многоголосый закадровый) (Синема УС)","update":"2021-05-24 07:16:59","iframe_src":"//24213.svetacdn.in/IAF0wWTdNYZm/movie/50585"},{"id":50583,"title":"Знаменитый","kp_id":"1250967","imdb_id":"tt9636120","world_art_id":null,"type":"movie","add":"2021-05-23 18:28:22","orig_title":"Famous","year":"2019-05-19","translations":["Любительский (многоголосый закадровый) (Синема УС)"],"quality":"webdl","translation":"Любительский (многоголосый закадровый) (Синема УС)","update":"2021-05-24 07:17:19","iframe_src":"//24213.svetacdn.in/IAF0wWTdNYZm/movie/50583"},{"id":50582,"title":"Жизнь","kp_id":"1300999","imdb_id":"tt10043742","world_art_id":null,"type":"movie","add":"2021-05-23 18:23:25","orig_title":"Jiyan","year":"2019-11-21","translations":["Любительский (многоголосый закадровый) (Синема УС)"],"quality":"webdl","translation":"Любительский (многоголосый закадровый) (Синема УС)","update":"2021-05-24 07:17:49","iframe_src":"//24213.svetacdn.in/IAF0wWTdNYZm/movie/50582"},{"id":50581,"title":"Сердцеед","kp_id":"1064572","imdb_id":"tt7234048","world_art_id":null,"type":"movie","add":"2021-05-23 18:21:57","orig_title":"O Galã","year":"2019-02-07","translations":["Любительский (многоголосый закадровый) (Синема УС)"],"quality":"webdl","translation":"Любительский (многоголосый закадровый) (Синема УС)","update":"2021-05-24 07:18:08","iframe_src":"//24213.svetacdn.in/IAF0wWTdNYZm/movie/50581"},{"id":50580,"title":"Город кулаков","kp_id":"1167390","imdb_id":"tt8442402","world_art_id":null,"type":"movie","add":"2021-05-23 18:20:16","orig_title":"Knuckle City","year":"2019-07-18","translations":["Любительский (многоголосый закадровый) (Синема УС)"],"quality":"webdl","translation":"Любительский (многоголосый закадровый) (Синема УС)","update":"2021-05-24 07:18:33","iframe_src":"//24213.svetacdn.in/IAF0wWTdNYZm/movie/50580"},{"id":50579,"title":"Серебряный лес","kp_id":"1298774","imdb_id":"tt10921490","world_art_id":null,"type":"movie","add":"2021-05-23 18:18:41","orig_title":"La forêt d'argent","year":"2019-09-24","translations":["Любительский (многоголосый закадровый) (Синема УС)"],"quality":"webdl","translation":"Любительский (многоголосый закадровый) (Синема УС)","update":"2021-05-24 07:18:54","iframe_src":"//24213.svetacdn.in/IAF0wWTdNYZm/movie/50579"},{"id":50571,"title":"Картонные облака","kp_id":"1272189","imdb_id":"tt9161260","world_art_id":null,"type":"movie","add":"2021-05-23 13:32:20","orig_title":"Nubes de cartón","year":"2019-11-01","translations":["Любительский (многоголосый закадровый) (Синема УС)"],"quality":"webdl","translation":"Любительский (многоголосый закадровый) (Синема УС)","update":"2021-05-24 07:19:38","iframe_src":"//24213.svetacdn.in/IAF0wWTdNYZm/movie/50571"},{"id":50570,"title":"Однажды в Апокалипсисе","kp_id":"1307325","imdb_id":"tt10939474","world_art_id":null,"type":"movie","add":"2021-05-23 13:30:23","orig_title":"Once Upon a Time in the Apocalypse","year":"2019-01-01","translations":["Любительский (многоголосый закадровый) (AlphaProject)"],"quality":"webdl","translation":"Любительский (многоголосый закадровый) (AlphaProject)","update":"2021-05-24 07:19:54","iframe_src":"//24213.svetacdn.in/IAF0wWTdNYZm/movie/50570"},{"id":50569,"title":"Муна","kp_id":"1271880","imdb_id":"tt10264732","world_art_id":null,"type":"movie","add":"2021-05-23 13:28:36","orig_title":"Muna","year":"2019-12-06","translations":["Любительский (многоголосый закадровый) (Синема УС)"],"quality":"webdl","translation":"Любительский (многоголосый закадровый) (Синема УС)","update":"2021-05-24 07:20:24","iframe_src":"//24213.svetacdn.in/IAF0wWTdNYZm/movie/50569"},{"id":50565,"title":"Сорвиголова","kp_id":"798055","imdb_id":"tt3187080","world_art_id":null,"type":"movie","add":"2021-05-23 05:47:59","orig_title":"Potugadu","year":"2013-09-14","translations":["Любительский (одноголосый закадровый) (datynet | Агапов Антон)"],"quality":"webdl","translation":"Любительский (одноголосый закадровый) (datynet | Агапов Антон)","update":"2021-05-24 07:20:15","iframe_src":"//24213.svetacdn.in/IAF0wWTdNYZm/movie/50565"},{"id":40375,"title":"Пурнами","kp_id":"247874","imdb_id":"tt0471862","world_art_id":null,"type":"movie","add":"2020-05-13 19:37:52","orig_title":"Pournami","year":"2006-04-01","translations":["Профессиональный (многоголосый закадровый) (Red Media)","Профессиональный (многоголосый закадровый) (Red Media)"],"quality":"dvdrip","translation":"Профессиональный (многоголосый закадровый) (Red Media)","update":"2021-05-24 07:18:45","iframe_src":"//24213.svetacdn.in/IAF0wWTdNYZm/movie/40375"}],"current_page":689,"first_page_url":"https://videocdn.tv/api/short?limit=100&api_token=6Onb1W1alEUrBcKJZD3GoKBbWyAl2uG2&cache3689=3689&page=1","from":68801,"last_page":727,"last_page_url":"https://videocdn.tv/api/short?limit=100&api_token=6Onb1W1alEUrBcKJZD3GoKBbWyAl2uG2&cache3689=3689&page=727","next_page_url":"https://videocdn.tv/api/short?limit=100&api_token=6Onb1W1alEUrBcKJZD3GoKBbWyAl2uG2&cache3689=3689&page=690","path":"https://videocdn.tv/api/short","per_page":100,"prev_page_url":"https://videocdn.tv/api/short?limit=100&api_token=6Onb1W1alEUrBcKJZD3GoKBbWyAl2uG2&cache3689=3689&page=688","to":68820,"total":72691}