{"result":true,"data":[{"id":4313,"title":"Винни Пух: Рождественский Пух","kp_id":"367607","imdb_id":"tt0324572","world_art_id":null,"type":"movie","add":"2016-08-04 14:05:05","orig_title":"Winnie the Pooh: A Very Merry Pooh Year","year":"2002-11-12","translations":["Полное дублирование"],"quality":"bd","translation":"Полное дублирование","update":"2016-08-05 06:31:04","iframe_src":"//8543.svetacdn.in/si4jsFRrtgrT/movie/4313"},{"id":4310,"title":"Приключения Тигрули","kp_id":"17019","imdb_id":"tt0220099","world_art_id":null,"type":"movie","add":"2016-08-04 13:53:24","orig_title":"The Tigger Movie","year":"2000-02-11","translations":["Полное дублирование"],"quality":"bd","translation":"Полное дублирование","update":"2016-08-05 06:33:58","iframe_src":"//8543.svetacdn.in/si4jsFRrtgrT/movie/4310"},{"id":4306,"title":"Набережная Орфевр, 36","kp_id":"77583","imdb_id":"tt0390808","world_art_id":null,"type":"movie","add":"2016-08-04 13:46:32","orig_title":"36 Quai des Orfèvres","year":"2004-11-24","translations":["Полное дублирование"],"quality":"bd","translation":"Полное дублирование","update":"2016-08-05 07:21:53","iframe_src":"//8543.svetacdn.in/si4jsFRrtgrT/movie/4306"},{"id":4305,"title":"Остров сокровищ","kp_id":"271978","imdb_id":"tt0499435","world_art_id":null,"type":"movie","add":"2016-08-04 13:44:57","orig_title":"L'île aux trésors","year":"2007-01-16","translations":["Полное дублирование"],"quality":"bd","translation":"Полное дублирование","update":"2016-08-05 07:34:31","iframe_src":"//8543.svetacdn.in/si4jsFRrtgrT/movie/4305"},{"id":4303,"title":"Ничего себе поездочка 3","kp_id":"790512","imdb_id":"tt3138376","world_art_id":null,"type":"movie","add":"2016-08-04 13:41:57","orig_title":"Joy Ride 3: Road Kill","year":"2014-06-09","translations":["Профессиональный (многоголосый закадровый)"],"quality":"bd","translation":"Профессиональный (многоголосый закадровый)","update":"2016-08-05 07:30:26","iframe_src":"//8543.svetacdn.in/si4jsFRrtgrT/movie/4303"},{"id":4302,"title":"Ничего себе поездочка","kp_id":"721","imdb_id":"tt0206314","world_art_id":null,"type":"movie","add":"2016-08-04 13:39:53","orig_title":"Joy Ride","year":"2001-09-09","translations":["Полное дублирование"],"quality":"bd","translation":"Полное дублирование","update":"2016-08-05 07:28:24","iframe_src":"//8543.svetacdn.in/si4jsFRrtgrT/movie/4302"},{"id":4301,"title":"Иван Царевич и Серый Волк 3","kp_id":"705346","imdb_id":"tt5315110","world_art_id":null,"type":"movie","add":"2016-08-04 13:38:09","orig_title":"Ivan Tsarevich i Seryy Volk 3","year":"2016-06-18","translations":["Оригинальная дорожка"],"quality":"bd","translation":"Оригинальная дорожка","update":"2016-08-05 06:49:59","iframe_src":"//8543.svetacdn.in/si4jsFRrtgrT/movie/4301"},{"id":4300,"title":"Иван Царевич и Серый Волк 2","kp_id":"707217","imdb_id":"tt3338434","world_art_id":null,"type":"movie","add":"2016-08-04 13:32:51","orig_title":"Ivan Tsarevich i Seryy Volk 2","year":"2013-12-26","translations":["Оригинальная дорожка"],"quality":"bd","translation":"Оригинальная дорожка","update":"2016-08-05 06:37:34","iframe_src":"//8543.svetacdn.in/si4jsFRrtgrT/movie/4300"},{"id":4299,"title":"Иван Царевич и Серый Волк","kp_id":"406175","imdb_id":"tt2141789","world_art_id":null,"type":"movie","add":"2016-08-04 13:30:44","orig_title":"Ivan Tsarevich i Seryy Volk","year":"2011-12-30","translations":["Оригинальная дорожка"],"quality":"bd","translation":"Оригинальная дорожка","update":"2016-08-05 06:35:31","iframe_src":"//8543.svetacdn.in/si4jsFRrtgrT/movie/4299"},{"id":4298,"title":"Хорошие дети не плачут","kp_id":"607235","imdb_id":"tt1800372","world_art_id":null,"type":"movie","add":"2016-08-04 13:28:25","orig_title":"Achtste-groepers huilen niet","year":"2012-02-15","translations":["Профессиональный (многоголосый закадровый)"],"quality":"bd","translation":"Профессиональный (многоголосый закадровый)","update":"2016-08-05 07:26:26","iframe_src":"//8543.svetacdn.in/si4jsFRrtgrT/movie/4298"},{"id":4296,"title":"Август","kp_id":"462273","imdb_id":"tt1322269","world_art_id":null,"type":"movie","add":"2016-08-04 13:22:54","orig_title":"August: Osage County","year":"2013-09-09","translations":["Полное дублирование"],"quality":"bd","translation":"Полное дублирование","update":"2016-08-05 07:24:20","iframe_src":"//8543.svetacdn.in/si4jsFRrtgrT/movie/4296"},{"id":4295,"title":"Простое желание","kp_id":"9492","imdb_id":"tt0120133","world_art_id":null,"type":"movie","add":"2016-08-04 13:21:31","orig_title":"A Simple Wish","year":"1997-07-11","translations":["Профессиональный (многоголосый закадровый)"],"quality":"bd","translation":"Профессиональный (многоголосый закадровый)","update":"2016-08-05 07:19:35","iframe_src":"//8543.svetacdn.in/si4jsFRrtgrT/movie/4295"},{"id":4294,"title":"2 ствола","kp_id":"464290","imdb_id":"tt1272878","world_art_id":null,"type":"movie","add":"2016-08-04 13:20:07","orig_title":"2 Guns","year":"2013-07-30","translations":["Полное дублирование"],"quality":"bd","translation":"Полное дублирование","update":"2016-08-05 07:17:41","iframe_src":"//8543.svetacdn.in/si4jsFRrtgrT/movie/4294"},{"id":4292,"title":"Вымирание","kp_id":"820277","imdb_id":"tt3467412","world_art_id":null,"type":"movie","add":"2016-08-04 04:54:40","orig_title":"Extinction","year":"2015-07-18","translations":["Профессиональный (многоголосый закадровый) (iTunes)"],"quality":"bd","translation":"Профессиональный (многоголосый закадровый) (iTunes)","update":"2016-08-04 12:37:42","iframe_src":"//8543.svetacdn.in/si4jsFRrtgrT/movie/4292"},{"id":4275,"title":"Полтергейст 3","kp_id":"2430","imdb_id":"tt0095889","world_art_id":null,"type":"movie","add":"2016-08-02 14:09:24","orig_title":"Poltergeist III","year":"1988-06-10","translations":["Профессиональный (многоголосый закадровый)"],"quality":"bd","translation":"Профессиональный (многоголосый закадровый)","update":"2016-08-04 07:44:53","iframe_src":"//8543.svetacdn.in/si4jsFRrtgrT/movie/4275"},{"id":4274,"title":"Полтергейст 2: Обратная сторона","kp_id":"21136","imdb_id":"tt0091778","world_art_id":null,"type":"movie","add":"2016-08-02 14:07:45","orig_title":"Poltergeist II: The Other Side","year":"1986-05-23","translations":["Профессиональный (двухголосый закадровый)"],"quality":"bd","translation":"Профессиональный (двухголосый закадровый)","update":"2016-08-04 07:43:32","iframe_src":"//8543.svetacdn.in/si4jsFRrtgrT/movie/4274"},{"id":4273,"title":"Полтергейст","kp_id":"7116","imdb_id":"tt0084516","world_art_id":null,"type":"movie","add":"2016-08-02 14:05:58","orig_title":"Poltergeist","year":"1982-06-04","translations":["Профессиональный (многоголосый закадровый)"],"quality":"bd","translation":"Профессиональный (многоголосый закадровый)","update":"2016-08-04 07:41:56","iframe_src":"//8543.svetacdn.in/si4jsFRrtgrT/movie/4273"},{"id":4272,"title":"Короли Догтауна","kp_id":"12197","imdb_id":"tt0355702","world_art_id":null,"type":"movie","add":"2016-08-02 14:03:58","orig_title":"Lords of Dogtown","year":"2005-06-03","translations":["Профессиональный (двухголосый закадровый)"],"quality":"bd","translation":"Профессиональный (двухголосый закадровый)","update":"2016-08-04 07:32:54","iframe_src":"//8543.svetacdn.in/si4jsFRrtgrT/movie/4272"},{"id":4271,"title":"Дурацкое дело нехитрое","kp_id":"736224","imdb_id":"tt2675914","world_art_id":null,"type":"movie","add":"2016-08-02 14:02:16","orig_title":"Kraftidioten","year":"2014-02-10","translations":["Профессиональный (многоголосый закадровый)"],"quality":"bd","translation":"Профессиональный (многоголосый закадровый)","update":"2016-08-04 07:31:24","iframe_src":"//8543.svetacdn.in/si4jsFRrtgrT/movie/4271"},{"id":2899,"title":"Варкрафт","kp_id":"277328","imdb_id":"tt0803096","world_art_id":null,"type":"movie","add":"2016-06-05 06:38:35","orig_title":"Warcraft","year":"2016-05-25","translations":["Звук с CAMRip","Полное дублирование"],"quality":"tc","translation":"Звук с CAMRip","update":"2016-08-04 12:48:39","iframe_src":"//8543.svetacdn.in/si4jsFRrtgrT/movie/2899"}],"current_page":2266,"first_page_url":"https://videocdn.tv/api/short?limit=100&api_token=X6EwAUfE5M9xbo7y0Bp0aPf3uXxG2KLL&cache32266=32266&page=1","from":226501,"last_page":601,"last_page_url":"https://videocdn.tv/api/short?limit=100&api_token=X6EwAUfE5M9xbo7y0Bp0aPf3uXxG2KLL&cache32266=32266&page=601","next_page_url":null,"path":"https://videocdn.tv/api/short","per_page":100,"prev_page_url":"https://videocdn.tv/api/short?limit=100&api_token=X6EwAUfE5M9xbo7y0Bp0aPf3uXxG2KLL&cache32266=32266&page=2265","to":226520,"total":60055}