{"result":true,"data":[{"id":26029,"title":"Карусель","kp_id":"44723","imdb_id":"tt0065934","world_art_id":null,"type":"movie","add":"2019-05-05 21:57:04","orig_title":"Karusel","year":"1971-01-01","translations":["Оригинальная дорожка"],"quality":"dvdrip","translation":"Оригинальная дорожка","update":"2019-05-07 05:35:29","iframe_src":"//7043.svetacdn.in/IAF0wWTdNYZm/movie/26029"},{"id":26028,"title":"Последний гарем","kp_id":"21472","imdb_id":"tt0179841","world_art_id":null,"type":"movie","add":"2019-05-05 21:57:04","orig_title":"Harem Suare","year":"1999-05-21","translations":["Профессиональный (многоголосый закадровый)"],"quality":"dvdrip","translation":"Профессиональный (многоголосый закадровый)","update":"2019-05-07 05:33:19","iframe_src":"//7043.svetacdn.in/IAF0wWTdNYZm/movie/26028"},{"id":26027,"title":"Убийство в красном свете","kp_id":"48935","imdb_id":"tt0116068","world_art_id":null,"type":"movie","add":"2019-05-05 21:55:25","orig_title":"Delitti a luce rossa","year":"1996-06-29","translations":["Авторский (одноголосый закадровый) (Сербин Юрий)"],"quality":"vhs","translation":"Авторский (одноголосый закадровый) (Сербин Юрий)","update":"2019-05-07 05:32:12","iframe_src":"//7043.svetacdn.in/IAF0wWTdNYZm/movie/26027"},{"id":26026,"title":"Никудышная","kp_id":"260359","imdb_id":"tt0170311","world_art_id":null,"type":"movie","add":"2019-05-05 21:53:33","orig_title":"Nikudyshnaya","year":"1982-08-03","translations":["Оригинальная дорожка"],"quality":"sat","translation":"Оригинальная дорожка","update":"2019-05-07 05:24:54","iframe_src":"//7043.svetacdn.in/IAF0wWTdNYZm/movie/26026"},{"id":26025,"title":"Венецианка","kp_id":"24869","imdb_id":"tt0092157","world_art_id":null,"type":"movie","add":"2019-05-05 21:53:28","orig_title":"La venexiana","year":"1986-04-04","translations":["Профессиональный (двухголосый закадровый)"],"quality":"dvdrip","translation":"Профессиональный (двухголосый закадровый)","update":"2019-05-07 05:23:52","iframe_src":"//7043.svetacdn.in/IAF0wWTdNYZm/movie/26025"},{"id":26024,"title":"История Джейн Менсфилд","kp_id":"295805","imdb_id":"tt0080947","world_art_id":null,"type":"movie","add":"2019-05-05 21:51:52","orig_title":"The Jayne Mansfield Story","year":"1980-10-29","translations":["Профессиональный (многоголосый закадровый)"],"quality":"dvdrip","translation":"Профессиональный (многоголосый закадровый)","update":"2019-05-07 05:17:50","iframe_src":"//7043.svetacdn.in/IAF0wWTdNYZm/movie/26024"},{"id":26022,"title":"Княжна Мери","kp_id":"44834","imdb_id":"tt0048264","world_art_id":null,"type":"movie","add":"2019-05-05 21:50:12","orig_title":"Knyazhna Meri","year":"1955-08-15","translations":["Оригинальная дорожка"],"quality":"sat","translation":"Оригинальная дорожка","update":"2019-05-07 05:16:20","iframe_src":"//7043.svetacdn.in/IAF0wWTdNYZm/movie/26022"},{"id":26021,"title":"Ночная женщина","kp_id":"63117","imdb_id":"tt0090018","world_art_id":null,"type":"movie","add":"2019-05-05 21:48:48","orig_title":"La signora della notte","year":"1986-02-27","translations":["Любительский (одноголосый закадровый)"],"quality":"dvdrip","translation":"Любительский (одноголосый закадровый)","update":"2019-05-07 05:13:52","iframe_src":"//7043.svetacdn.in/IAF0wWTdNYZm/movie/26021"},{"id":26020,"title":"Служанка","kp_id":"50474","imdb_id":"tt0090763","world_art_id":null,"type":"movie","add":"2019-05-05 21:47:12","orig_title":"La bonne","year":"1986-04-18","translations":["Любительский (одноголосый закадровый)"],"quality":"dvdrip","translation":"Любительский (одноголосый закадровый)","update":"2019-05-07 05:11:53","iframe_src":"//7043.svetacdn.in/IAF0wWTdNYZm/movie/26020"},{"id":26019,"title":"Веселое волшебство","kp_id":"45754","imdb_id":"tt0283582","world_art_id":null,"type":"movie","add":"2019-05-05 21:46:06","orig_title":"Vesyoloye volshebstvo","year":"1969-02-23","translations":["Оригинальная дорожка"],"quality":"dvdrip","translation":"Оригинальная дорожка","update":"2019-05-07 05:02:42","iframe_src":"//7043.svetacdn.in/IAF0wWTdNYZm/movie/26019"},{"id":26018,"title":"Интим","kp_id":"713","imdb_id":"tt0256103","world_art_id":null,"type":"movie","add":"2019-05-05 21:45:53","orig_title":"Intimacy","year":"2001-01-20","translations":["Профессиональный (многоголосый закадровый)"],"quality":"dvdrip","translation":"Профессиональный (многоголосый закадровый)","update":"2019-05-07 05:01:06","iframe_src":"//7043.svetacdn.in/IAF0wWTdNYZm/movie/26018"},{"id":26017,"title":"Философия будуара маркиза Де Сада","kp_id":"255029","imdb_id":"tt0824320","world_art_id":null,"type":"movie","add":"2019-05-05 21:44:06","orig_title":"L'educazione sentimentale di Eugenie","year":"2005-06-17","translations":["Профессиональный (многоголосый закадровый)"],"quality":"dvdrip","translation":"Профессиональный (многоголосый закадровый)","update":"2019-05-07 04:59:33","iframe_src":"//7043.svetacdn.in/IAF0wWTdNYZm/movie/26017"},{"id":26016,"title":"Казанова и Компания","kp_id":"11704","imdb_id":"tt0074290","world_art_id":null,"type":"movie","add":"2019-05-05 21:42:15","orig_title":"Casanova & Co.","year":"1977-03-01","translations":["Любительский (одноголосый закадровый) (Медведев Юрий)"],"quality":"dvdrip","translation":"Любительский (одноголосый закадровый) (Медведев Юрий)","update":"2019-05-07 04:58:09","iframe_src":"//7043.svetacdn.in/IAF0wWTdNYZm/movie/26016"},{"id":26015,"title":"Место на земле","kp_id":"41614","imdb_id":"tt0288624","world_art_id":null,"type":"movie","add":"2019-05-05 21:41:42","orig_title":"Mesto na zemle","year":"2001-07-12","translations":["Оригинальная дорожка"],"quality":"dvdrip","translation":"Оригинальная дорожка","update":"2019-05-07 04:57:03","iframe_src":"//7043.svetacdn.in/IAF0wWTdNYZm/movie/26015"},{"id":26014,"title":"С тобой и без тебя","kp_id":"43573","imdb_id":"tt0144588","world_art_id":null,"type":"movie","add":"2019-05-05 21:38:50","orig_title":"S toboy i bez tebya","year":"1974-05-06","translations":["Оригинальная дорожка"],"quality":"dvdrip","translation":"Оригинальная дорожка","update":"2019-05-07 04:56:12","iframe_src":"//7043.svetacdn.in/IAF0wWTdNYZm/movie/26014"},{"id":26013,"title":"Стань мной","kp_id":"661056","imdb_id":"tt3390562","world_art_id":null,"type":"movie","add":"2019-05-05 21:34:00","orig_title":"Stan mnoy","year":"2012-01-27","translations":["Оригинальная дорожка"],"quality":"sat","translation":"Оригинальная дорожка","update":"2019-05-07 04:55:13","iframe_src":"//7043.svetacdn.in/IAF0wWTdNYZm/movie/26013"},{"id":26012,"title":"Мифы моего детства","kp_id":"398302","imdb_id":"tt1141263","world_art_id":null,"type":"movie","add":"2019-05-05 21:30:52","orig_title":"Mify moego detstva","year":"2005-09-01","translations":["Оригинальная дорожка"],"quality":"dvdrip","translation":"Оригинальная дорожка","update":"2019-05-07 04:54:06","iframe_src":"//7043.svetacdn.in/IAF0wWTdNYZm/movie/26012"},{"id":26011,"title":"Признать виновным","kp_id":"43278","imdb_id":"tt0086144","world_art_id":null,"type":"movie","add":"2019-05-05 21:27:25","orig_title":"Priznat vinovnym","year":"1983-04-02","translations":["Оригинальная дорожка"],"quality":"sat","translation":"Оригинальная дорожка","update":"2019-05-07 04:51:42","iframe_src":"//7043.svetacdn.in/IAF0wWTdNYZm/movie/26011"},{"id":26010,"title":"Портрет в сумерках","kp_id":"587505","imdb_id":"tt2043962","world_art_id":null,"type":"movie","add":"2019-05-05 21:21:44","orig_title":"Portret v sumerkakh","year":"2011-09-02","translations":["Оригинальная дорожка"],"quality":"dvdrip","translation":"Оригинальная дорожка","update":"2019-05-07 04:49:10","iframe_src":"//7043.svetacdn.in/IAF0wWTdNYZm/movie/26010"},{"id":26009,"title":"Три женщины Достоевского","kp_id":"471789","imdb_id":null,"world_art_id":null,"type":"movie","add":"2019-05-05 21:17:39","orig_title":"Три женщины Достоевского","year":"2010-01-01","translations":["Оригинальная дорожка"],"quality":"dvdrip","translation":"Оригинальная дорожка","update":"2019-05-07 04:47:12","iframe_src":"//7043.svetacdn.in/IAF0wWTdNYZm/movie/26009"}],"current_page":1383,"first_page_url":"https://videocdn.tv/api/short?limit=100&api_token=6Onb1W1alEUrBcKJZD3GoKBbWyAl2uG2&cache31383=31383&page=1","from":138201,"last_page":618,"last_page_url":"https://videocdn.tv/api/short?limit=100&api_token=6Onb1W1alEUrBcKJZD3GoKBbWyAl2uG2&cache31383=31383&page=618","next_page_url":null,"path":"https://videocdn.tv/api/short","per_page":100,"prev_page_url":"https://videocdn.tv/api/short?limit=100&api_token=6Onb1W1alEUrBcKJZD3GoKBbWyAl2uG2&cache31383=31383&page=1382","to":138220,"total":61769}