{"result":true,"data":[{"id":48261,"title":"Адская дева","kp_id":"1190419","imdb_id":"tt8991564","world_art_id":null,"type":"movie","add":"2021-02-26 06:33:18","orig_title":"Jigoko Shojo","year":"2019-11-15","translations":["Любительский (двухголосый закадровый) (XDUB Dorama)"],"quality":"bd","translation":"Любительский (двухголосый закадровый) (XDUB Dorama)","update":"2021-02-26 13:17:37","iframe_src":"//83.svetacdn.in/PfJ50H0ZBPg3/movie/48261"},{"id":48257,"title":"Сто шагов","kp_id":"54706","imdb_id":"tt0238891","world_art_id":null,"type":"movie","add":"2021-02-25 20:49:09","orig_title":"I cento passi","year":"2000-08-31","translations":["Авторский (одноголосый закадровый) (Штейн Владимир)"],"quality":"webdl","translation":"Авторский (одноголосый закадровый) (Штейн Владимир)","update":"2021-02-26 10:18:26","iframe_src":"//83.svetacdn.in/PfJ50H0ZBPg3/movie/48257"},{"id":48249,"title":"Давай поцелуемся","kp_id":"276419","imdb_id":"tt0920473","world_art_id":null,"type":"movie","add":"2021-02-25 13:05:11","orig_title":"Un baiser s'il vous plaît","year":"2007-09-04","translations":["Профессиональный (многоголосый закадровый)"],"quality":"bd","translation":"Профессиональный (многоголосый закадровый)","update":"2021-02-26 10:12:22","iframe_src":"//83.svetacdn.in/PfJ50H0ZBPg3/movie/48249"},{"id":48248,"title":"Донна","kp_id":"1270248","imdb_id":"tt10383290","world_art_id":null,"type":"movie","add":"2021-02-25 12:26:14","orig_title":"Donna","year":"2021-02-23","translations":["Любительский (многоголосый закадровый) (AlphaProject)"],"quality":"webdl","translation":"Любительский (многоголосый закадровый) (AlphaProject)","update":"2021-02-26 09:32:00","iframe_src":"//83.svetacdn.in/PfJ50H0ZBPg3/movie/48248"},{"id":48247,"title":"И снова Новый год","kp_id":"1343771","imdb_id":"tt11646756","world_art_id":null,"type":"movie","add":"2021-02-25 12:22:25","orig_title":"30 Chua Phai Tet","year":"2020-01-25","translations":["Любительский (многоголосый закадровый) (AlphaProject)"],"quality":"webdl","translation":"Любительский (многоголосый закадровый) (AlphaProject)","update":"2021-02-26 09:22:45","iframe_src":"//83.svetacdn.in/PfJ50H0ZBPg3/movie/48247"},{"id":48246,"title":"Звонок последней надежды","kp_id":"1173855","imdb_id":"tt8629592","world_art_id":null,"type":"movie","add":"2021-02-25 12:19:08","orig_title":"Last Call","year":"2019-02-28","translations":["Любительский (многоголосый закадровый) (Синема УС)"],"quality":"webdl","translation":"Любительский (многоголосый закадровый) (Синема УС)","update":"2021-02-26 09:14:22","iframe_src":"//83.svetacdn.in/PfJ50H0ZBPg3/movie/48246"},{"id":48245,"title":"Ярость","kp_id":null,"imdb_id":"tt8874764","world_art_id":null,"type":"movie","add":"2021-02-25 12:14:22","orig_title":"Rage","year":"2021-02-01","translations":["Любительский (многоголосый закадровый) (AlphaProject)"],"quality":"webdl","translation":"Любительский (многоголосый закадровый) (AlphaProject)","update":"2021-02-26 09:12:24","iframe_src":"//83.svetacdn.in/PfJ50H0ZBPg3/movie/48245"},{"id":48244,"title":"Озеро","kp_id":"1296832","imdb_id":"tt10739160","world_art_id":null,"type":"movie","add":"2021-02-25 12:08:13","orig_title":"The Pond","year":"2021-02-23","translations":["Любительский (многоголосый закадровый) (Синема УС)"],"quality":"webdl","translation":"Любительский (многоголосый закадровый) (Синема УС)","update":"2021-02-26 09:09:04","iframe_src":"//83.svetacdn.in/PfJ50H0ZBPg3/movie/48244"},{"id":47123,"title":"Держи удар","kp_id":"1138014","imdb_id":"tt4187366","world_art_id":null,"type":"movie","add":"2021-01-15 22:13:57","orig_title":"Vechtmeisje","year":"2018-09-30","translations":["Полное дублирование (iTunes)"],"quality":"webdl","translation":"Полное дублирование (iTunes)","update":"2021-02-26 10:15:24","iframe_src":"//83.svetacdn.in/PfJ50H0ZBPg3/movie/47123"},{"id":46964,"title":"Спаситель","kp_id":"908348","imdb_id":"tt4439620","world_art_id":null,"type":"movie","add":"2021-01-12 13:19:23","orig_title":"Redemption Day","year":"2021-01-08","translations":["Любительский (многоголосый закадровый) (AlphaProject)","Original (English)","Профессиональный (многоголосый закадровый) (IVI)"],"quality":"webdl","translation":"Любительский (многоголосый закадровый) (AlphaProject)","update":"2021-02-26 10:17:29","iframe_src":"//83.svetacdn.in/PfJ50H0ZBPg3/movie/46964"},{"id":41366,"title":"Пациент Зеро","kp_id":"1309571","imdb_id":"tt11054164","world_art_id":null,"type":"movie","add":"2020-06-24 12:51:20","orig_title":"Yummy","year":"2019-12-18","translations":["Любительский (многоголосый закадровый) (@MUZOBOZ@)","Любительский (одноголосый закадровый) (Хихикающий доктор)","Original (English)","Полное дублирование (iTunes)"],"quality":"webdl","translation":"Любительский (многоголосый закадровый) (@MUZOBOZ@)","update":"2021-02-26 10:16:16","iframe_src":"//83.svetacdn.in/PfJ50H0ZBPg3/movie/41366"},{"id":7092,"title":"Счастье можно дарить","kp_id":"1162850","imdb_id":null,"world_art_id":null,"type":"serial","add":"2020-04-05 09:53:38","orig_title":"Счастье можно дарить","year":"2020-04-04","translations":["Оригинальная дорожка"],"seasons_count":1,"episodes_count":2,"episodes":2,"update":"2020-04-05 19:26:41","iframe_src":"//83.svetacdn.in/PfJ50H0ZBPg3/tv-series/7092"},{"id":7087,"title":"Адвокатъ Ардашевъ. Убийство на водах","kp_id":"1363315","imdb_id":null,"world_art_id":null,"type":"serial","add":"2020-04-04 10:34:09","orig_title":"Адвокатъ Ардашевъ. Убийство на водах","year":"2020-04-04","translations":["Оригинальная дорожка"],"seasons_count":1,"episodes_count":4,"episodes":4,"update":"2020-04-05 12:21:41","iframe_src":"//83.svetacdn.in/PfJ50H0ZBPg3/tv-series/7087"},{"id":7084,"title":"НАСА: Необъяснимые материалы","kp_id":"911212","imdb_id":"tt3952194","world_art_id":null,"type":"serial","add":"2020-04-04 09:26:05","orig_title":"NASA's Unexplained Files","year":"2012-03-27","translations":["Профессиональный (одноголосый закадровый)"],"seasons_count":1,"episodes_count":6,"episodes":6,"update":"2020-04-05 12:49:11","iframe_src":"//83.svetacdn.in/PfJ50H0ZBPg3/tv-series/7084"},{"id":7080,"title":"Час","kp_id":"574433","imdb_id":"tt1778108","world_art_id":null,"type":"serial","add":"2020-04-03 20:18:43","orig_title":"The Hour","year":"2011-07-19","translations":["Профессиональный (многоголосый закадровый) (Кинопоказ)"],"seasons_count":1,"episodes_count":6,"episodes":6,"update":"2020-04-05 16:57:57","iframe_src":"//83.svetacdn.in/PfJ50H0ZBPg3/tv-series/7080"},{"id":7079,"title":"Планета монстров","kp_id":"401161","imdb_id":"tt0169510","world_art_id":null,"type":"serial","add":"2020-04-03 16:14:53","orig_title":"Shadow Raiders","year":"1998-09-16","translations":["Полное дублирование (СВ-Дубль)"],"seasons_count":2,"episodes_count":26,"episodes":13,"update":"2020-04-05 12:26:51","iframe_src":"//83.svetacdn.in/PfJ50H0ZBPg3/tv-series/7079"},{"id":7078,"title":"Бигль","kp_id":"654719","imdb_id":"tt3781542","world_art_id":null,"type":"serial","add":"2020-04-03 15:50:17","orig_title":"Bigl","year":"2012-03-26","translations":["Оригинальная дорожка"],"seasons_count":1,"episodes_count":24,"episodes":24,"update":"2020-04-05 12:03:57","iframe_src":"//83.svetacdn.in/PfJ50H0ZBPg3/tv-series/7078"},{"id":7077,"title":"Худшая неделя моей жизни","kp_id":"409461","imdb_id":"tt1197632","world_art_id":null,"type":"serial","add":"2020-04-03 14:53:30","orig_title":"Worst Week","year":"2008-09-22","translations":["Профессиональный (многоголосый закадровый)"],"seasons_count":1,"episodes_count":16,"episodes":16,"update":"2020-04-04 11:03:44","iframe_src":"//83.svetacdn.in/PfJ50H0ZBPg3/tv-series/7077"},{"id":7072,"title":"Битва за Москву","kp_id":"725092","imdb_id":null,"world_art_id":null,"type":"serial","add":"2020-04-03 10:59:29","orig_title":"Bitva za Moskvu","year":"2007-04-19","translations":["Оригинальная дорожка"],"seasons_count":1,"episodes_count":10,"episodes":10,"update":"2020-04-04 15:11:40","iframe_src":"//83.svetacdn.in/PfJ50H0ZBPg3/tv-series/7072"},{"id":7071,"title":"Помни меня","kp_id":"843933","imdb_id":"tt3484180","world_art_id":null,"type":"serial","add":"2020-04-03 09:58:47","orig_title":"Remember Me","year":"2014-11-23","translations":["Любительский (двухголосый закадровый) (Kiitos)"],"seasons_count":1,"episodes_count":3,"episodes":3,"update":"2020-04-04 15:00:30","iframe_src":"//83.svetacdn.in/PfJ50H0ZBPg3/tv-series/7071"},{"id":7070,"title":"Лунный камень","kp_id":"1111807","imdb_id":"tt5932466","world_art_id":null,"type":"serial","add":"2020-04-03 09:53:36","orig_title":"The Moonstone","year":"2016-10-31","translations":["Любительский (двухголосый закадровый) (Project Web Mania)"],"seasons_count":1,"episodes_count":5,"episodes":5,"update":"2020-04-04 14:59:08","iframe_src":"//83.svetacdn.in/PfJ50H0ZBPg3/tv-series/7070"},{"id":7068,"title":"Известная Вселенная","kp_id":"646785","imdb_id":"tt1375408","world_art_id":null,"type":"serial","add":"2020-04-03 09:36:07","orig_title":"Known Universe","year":"2009-02-15","translations":["Профессиональный (одноголосый закадровый)"],"seasons_count":1,"episodes_count":3,"episodes":3,"update":"2020-04-05 12:55:34","iframe_src":"//83.svetacdn.in/PfJ50H0ZBPg3/tv-series/7068"},{"id":7067,"title":"Атом","kp_id":"471988","imdb_id":null,"world_art_id":null,"type":"serial","add":"2020-04-03 09:30:24","orig_title":"Atom","year":"2007-07-26","translations":["Любительский (одноголосый закадровый)"],"seasons_count":1,"episodes_count":3,"episodes":3,"update":"2020-04-05 12:52:35","iframe_src":"//83.svetacdn.in/PfJ50H0ZBPg3/tv-series/7067"},{"id":7064,"title":"Провинциалка","kp_id":"880705","imdb_id":null,"world_art_id":null,"type":"serial","add":"2020-04-02 15:57:39","orig_title":"Provintsialka","year":"2015-08-08","translations":["Оригинальная дорожка"],"seasons_count":1,"episodes_count":2,"episodes":2,"update":"2020-04-04 14:56:02","iframe_src":"//83.svetacdn.in/PfJ50H0ZBPg3/tv-series/7064"},{"id":7063,"title":"Городок","kp_id":"722999","imdb_id":"tt2563158","world_art_id":null,"type":"serial","add":"2020-04-02 15:30:15","orig_title":"The Town","year":"2012-12-05","translations":["Профессиональный (двухголосый закадровый)"],"seasons_count":1,"episodes_count":3,"episodes":3,"update":"2020-04-04 12:38:15","iframe_src":"//83.svetacdn.in/PfJ50H0ZBPg3/tv-series/7063"},{"id":7058,"title":"Противостояние","kp_id":"153012","imdb_id":"tt0108941","world_art_id":null,"type":"serial","add":"2020-04-02 14:08:55","orig_title":"The Stand","year":"1994-05-08","translations":["Профессиональный (двухголосый закадровый) (ViruseProject)"],"seasons_count":1,"episodes_count":4,"episodes":4,"update":"2020-04-05 12:54:15","iframe_src":"//83.svetacdn.in/PfJ50H0ZBPg3/tv-series/7058"},{"id":6686,"title":"Когда пыль осела","kp_id":"1237018","imdb_id":"tt9280016","world_art_id":null,"type":"serial","add":"2020-02-19 20:58:38","orig_title":"Når støvet har lagt sig","year":"2020-01-28","translations":["Любительский (многоголосый закадровый) (ColdFilm)","Любительский (многоголосый закадровый) (Octopus)"],"seasons_count":1,"episodes_count":10,"episodes":10,"update":"2020-04-05 06:42:14","iframe_src":"//83.svetacdn.in/PfJ50H0ZBPg3/tv-series/6686"},{"id":6443,"title":"Обмен","kp_id":"843046","imdb_id":null,"world_art_id":null,"type":"serial","add":"2020-01-22 13:58:32","orig_title":"Обмен","year":"2014-10-10","translations":["Оригинальная дорожка"],"seasons_count":1,"episodes_count":4,"episodes":4,"update":"2020-04-05 12:58:00","iframe_src":"//83.svetacdn.in/PfJ50H0ZBPg3/tv-series/6443"},{"id":5132,"title":"Восемь дней","kp_id":"1118044","imdb_id":"tt6374028","world_art_id":null,"type":"serial","add":"2019-09-03 07:12:57","orig_title":"8 Tage","year":"2019-03-01","translations":["Любительский (двухголосый закадровый) (KosharaSerials)","Профессиональный (многоголосый закадровый) (TVShows)","Профессиональный (многоголосый закадровый) (Novamedia)"],"seasons_count":1,"episodes_count":8,"episodes":8,"update":"2020-04-04 16:17:50","iframe_src":"//83.svetacdn.in/PfJ50H0ZBPg3/tv-series/5132"},{"id":17313,"title":"Beзунчик","kp_id":"12513","imdb_id":"tt0338216","world_art_id":null,"type":"movie","add":"2018-06-22 07:32:55","orig_title":"Lucky You","year":"2007-05-01","translations":["Профессиональный (многоголосый закадровый)","Original (English)","Профессиональный (двухголосый закадровый)","Профессиональный (многоголосый закадровый) (iTunes)"],"quality":"webdl","translation":"Профессиональный (многоголосый закадровый)","update":"2021-02-26 09:03:09","iframe_src":"//83.svetacdn.in/PfJ50H0ZBPg3/movie/17313"},{"id":2460,"title":"Шале","kp_id":null,"imdb_id":"tt8168678","world_art_id":null,"type":"serial","add":"2018-04-26 09:06:15","orig_title":"Le chalet","year":"2018-03-26","translations":["Профессиональный (многоголосый закадровый) (BaibaKo)","Профессиональный (двухголосый закадровый) (ViruseProject)"],"seasons_count":1,"episodes_count":6,"episodes":6,"update":"2020-04-05 17:02:23","iframe_src":"//83.svetacdn.in/PfJ50H0ZBPg3/tv-series/2460"},{"id":588,"title":"Декстер","kp_id":"277537","imdb_id":"tt0773262","world_art_id":null,"type":"serial","add":"2016-11-15 13:51:45","orig_title":"Dexter","year":"2006-10-01","translations":["Профессиональный (многоголосый закадровый) (LostFilm)","Профессиональный (многоголосый закадровый) (Netflix)","Профессиональный (многоголосый закадровый) (NovaFilm)"],"seasons_count":8,"episodes_count":96,"episodes":12,"update":"2020-04-04 14:55:37","iframe_src":"//83.svetacdn.in/PfJ50H0ZBPg3/tv-series/588"},{"id":7384,"title":"Вертикальный предел","kp_id":"2209","imdb_id":"tt0190865","world_art_id":null,"type":"movie","add":"2016-11-13 12:08:04","orig_title":"Vertical Limit","year":"2000-12-03","translations":["Полное дублирование","Авторский (одноголосый закадровый) (Дольский Андрей)","Авторский (одноголосый закадровый) (Гаврилов Андрей)","Авторский (одноголосый закадровый) (Живов Юрий)","Полное дублирование","Original (English)","Профессиональный (многоголосый закадровый)","Профессиональный (многоголосый закадровый) (Видеосервис)","Профессиональный (многоголосый закадровый) (Первый канал | ОРТ)"],"quality":"bd","translation":"Полное дублирование","update":"2021-02-26 12:21:33","iframe_src":"//83.svetacdn.in/PfJ50H0ZBPg3/movie/7384"},{"id":3480,"title":"Манхэттен","kp_id":"420","imdb_id":"tt0079522","world_art_id":null,"type":"movie","add":"2016-06-29 07:56:20","orig_title":"Manhattan","year":"1979-04-25","translations":["Профессиональный (многоголосый закадровый)","Авторский (одноголосый закадровый) (Михалёв Алексей)","Original (English)","Профессиональный (многоголосый закадровый)"],"quality":"bd","translation":"Профессиональный (многоголосый закадровый)","update":"2021-02-26 10:44:58","iframe_src":"//83.svetacdn.in/PfJ50H0ZBPg3/movie/3480"},{"id":3385,"title":"Заводной апельсин","kp_id":"391","imdb_id":"tt0066921","world_art_id":null,"type":"movie","add":"2016-06-27 19:19:00","orig_title":"A Clockwork Orange","year":"1971-12-19","translations":["Профессиональный (многоголосый закадровый)","Авторский (одноголосый закадровый) (Горчаков Василий)","Авторский (одноголосый закадровый) (Матвеев Алексей | Doctor Joker)","Авторский (одноголосый закадровый) (Живов Юрий)","Original (English)","Профессиональный (двухголосый закадровый)","Профессиональный (многоголосый закадровый)","Профессиональный (многоголосый закадровый) (НТВ)"],"quality":"bd","translation":"Профессиональный (многоголосый закадровый)","update":"2021-02-26 13:07:48","iframe_src":"//83.svetacdn.in/PfJ50H0ZBPg3/movie/3385"},{"id":2430,"title":"Ближайший родственник","kp_id":"1992","imdb_id":"tt0097967","world_art_id":null,"type":"movie","add":"2016-05-20 18:33:36","orig_title":"Next of Kin","year":"1989-10-20","translations":["Профессиональный (многоголосый закадровый)","Авторский (одноголосый закадровый) (Дохалов Вартан)","Авторский (одноголосый закадровый) (Горчаков Василий)","Любительский (одноголосый закадровый) (Никитин)","Original (English)","Профессиональный (двухголосый закадровый) (НТВ)","Профессиональный (многоголосый закадровый) (РенТВ)","Профессиональный (многоголосый закадровый) (ТВ3)"],"quality":"bd","translation":"Профессиональный (многоголосый закадровый)","update":"2021-02-26 11:47:14","iframe_src":"//83.svetacdn.in/PfJ50H0ZBPg3/movie/2430"},{"id":2156,"title":"Не пойман — не вор","kp_id":"103785","imdb_id":"tt0454848","world_art_id":null,"type":"movie","add":"2016-05-12 19:32:50","orig_title":"Inside Man","year":"2006-03-16","translations":["Полное дублирование","Авторский (одноголосый закадровый) (Гаврилов Андрей)","Авторский (одноголосый закадровый) (Немахов Юрий)","Полное дублирование","Original (English)","Профессиональный (двухголосый закадровый) (Гланц + Королёва)","Профессиональный (двухголосый закадровый) (Tycoon)"],"quality":"bd","translation":"Полное дублирование","update":"2021-02-26 13:15:49","iframe_src":"//83.svetacdn.in/PfJ50H0ZBPg3/movie/2156"},{"id":2119,"title":"Вечное сияние чистого разума","kp_id":"5492","imdb_id":"tt0338013","world_art_id":null,"type":"movie","add":"2016-05-12 17:44:22","orig_title":"Eternal Sunshine of the Spotless Mind","year":"2004-03-09","translations":["Полное дублирование","Авторский (одноголосый закадровый) (Алексеев Антон)","Авторский (одноголосый закадровый) (Горчаков Василий)","Авторский (одноголосый закадровый) (Королёв Владимир)","Авторский (одноголосый закадровый) (Рудой Евгений)","Авторский (одноголосый закадровый) (Сербин Юрий)","Полное дублирование (АРК-ТВ Studio)","Полное дублирование (Мосфильм)","Original (English)","Профессиональный (двухголосый закадровый)","Профессиональный (двухголосый закадровый) (SDI Media)","Профессиональный (двухголосый закадровый) (Tycoon)"],"quality":"bd","translation":"Полное дублирование","update":"2021-02-26 12:56:39","iframe_src":"//83.svetacdn.in/PfJ50H0ZBPg3/movie/2119"},{"id":1979,"title":"Параллельный мир","kp_id":"9319","imdb_id":"tt0104009","world_art_id":null,"type":"movie","add":"2016-05-09 04:53:38","orig_title":"Cool World","year":"1992-07-10","translations":["Профессиональный (многоголосый закадровый)","Авторский (одноголосый закадровый) (Михалёв Алексей)","Original (English)","Профессиональный (двухголосый закадровый)","Профессиональный (двухголосый закадровый) (Paramount Channel)","Профессиональный (двухголосый закадровый) (Премьер Видео Фильм)","Профессиональный (многоголосый закадровый) (СТС)"],"quality":"hdtv","translation":"Профессиональный (многоголосый закадровый)","update":"2021-02-26 10:29:57","iframe_src":"//83.svetacdn.in/PfJ50H0ZBPg3/movie/1979"},{"id":1616,"title":"Дело о пеликанах","kp_id":"8159","imdb_id":"tt0107798","world_art_id":null,"type":"movie","add":"2016-04-24 11:27:05","orig_title":"The Pelican Brief","year":"1993-12-17","translations":["Полное дублирование","Авторский (одноголосый закадровый) (Михалёв Алексей)","Полное дублирование (Варус-Видео)","Полное дублирование (Мост-Видео)","Original (English)","Профессиональный (многоголосый закадровый)","Профессиональный (многоголосый закадровый) (НТВ)"],"quality":"bd","translation":"Полное дублирование","update":"2021-02-26 09:14:40","iframe_src":"//83.svetacdn.in/PfJ50H0ZBPg3/movie/1616"}],"current_page":254,"first_page_url":"https://videocdn.tv/api/short?limit=100&api_token=RgFQdUIR2dRmwv8iYa5SnFNgnw3vpjKj&cache3254=3254&page=1","from":25301,"last_page":636,"last_page_url":"https://videocdn.tv/api/short?limit=100&api_token=RgFQdUIR2dRmwv8iYa5SnFNgnw3vpjKj&cache3254=3254&page=636","next_page_url":"https://videocdn.tv/api/short?limit=100&api_token=RgFQdUIR2dRmwv8iYa5SnFNgnw3vpjKj&cache3254=3254&page=255","path":"https://videocdn.tv/api/short","per_page":100,"prev_page_url":"https://videocdn.tv/api/short?limit=100&api_token=RgFQdUIR2dRmwv8iYa5SnFNgnw3vpjKj&cache3254=3254&page=253","to":25340,"total":63545}