{"result":true,"data":[{"id":18155,"title":"Пираньи","kp_id":"4106","imdb_id":"tt0078087","world_art_id":null,"type":"movie","add":"2018-08-07 23:43:46","orig_title":"Piranha","year":"1978-08-03","translations":["Авторский (одноголосый закадровый) (Гаврилов Андрей)"],"quality":"dvdrip","translation":"Авторский (одноголосый закадровый) (Гаврилов Андрей)","update":"2018-08-08 05:31:25","iframe_src":"//5091.svetacdn.in/71tsRs29n5tZ/movie/18155"},{"id":18154,"title":"Парману: История Похрана","kp_id":"1046864","imdb_id":"tt6826438","world_art_id":null,"type":"movie","add":"2018-08-07 23:39:18","orig_title":"Parmanu: The Story of Pokhran","year":"2018-05-25","translations":["Любительский (многоголосый закадровый) (Синема УС)"],"quality":"webdl","translation":"Любительский (многоголосый закадровый) (Синема УС)","update":"2018-08-08 05:34:28","iframe_src":"//5091.svetacdn.in/71tsRs29n5tZ/movie/18154"},{"id":18153,"title":"Убийца Картеля","kp_id":"902602","imdb_id":"tt4607748","world_art_id":null,"type":"movie","add":"2018-08-07 23:37:17","orig_title":"Paralytic","year":"2016-05-11","translations":["Любительский (многоголосый закадровый) (Синема УС)"],"quality":"dvdrip","translation":"Любительский (многоголосый закадровый) (Синема УС)","update":"2018-08-08 05:34:30","iframe_src":"//5091.svetacdn.in/71tsRs29n5tZ/movie/18153"},{"id":18152,"title":"Миссия «Алмаз»","kp_id":"61196","imdb_id":"tt0275611","world_art_id":null,"type":"movie","add":"2018-08-07 23:34:28","orig_title":"Witness to a Kill","year":"2001-01-01","translations":["Профессиональный (многоголосый закадровый)"],"quality":"dvdrip","translation":"Профессиональный (многоголосый закадровый)","update":"2018-08-08 05:37:28","iframe_src":"//5091.svetacdn.in/71tsRs29n5tZ/movie/18152"},{"id":18151,"title":"Пожарный","kp_id":"1046427","imdb_id":"tt6645154","world_art_id":null,"type":"movie","add":"2018-08-07 23:31:50","orig_title":"Les hommes du feu","year":"2017-06-23","translations":["Любительский (многоголосый закадровый) (Синема УС)"],"quality":"bd","translation":"Любительский (многоголосый закадровый) (Синема УС)","update":"2018-08-08 05:38:59","iframe_src":"//5091.svetacdn.in/71tsRs29n5tZ/movie/18151"},{"id":18147,"title":"Невозможность защиты","kp_id":"1018802","imdb_id":"tt6207118","world_art_id":null,"type":"movie","add":"2018-08-07 23:23:31","orig_title":"Funohan","year":"2017-12-01","translations":["Любительский (многоголосый закадровый) (Колобок)"],"quality":"hdtv","translation":"Любительский (многоголосый закадровый) (Колобок)","update":"2018-08-08 06:21:12","iframe_src":"//5091.svetacdn.in/71tsRs29n5tZ/movie/18147"},{"id":18146,"title":"Исцеление","kp_id":"952753","imdb_id":"tt5239942","world_art_id":null,"type":"movie","add":"2018-08-07 23:21:16","orig_title":"Heal","year":"2017-10-20","translations":["Любительский (многоголосый закадровый) (Синема УС)"],"quality":"webdl","translation":"Любительский (многоголосый закадровый) (Синема УС)","update":"2018-08-08 06:19:32","iframe_src":"//5091.svetacdn.in/71tsRs29n5tZ/movie/18146"},{"id":18145,"title":"Стеклянный дом 2: Смертельная опека","kp_id":"258977","imdb_id":"tt0498348","world_art_id":null,"type":"movie","add":"2018-08-07 23:18:26","orig_title":"Glass House: The Good Mother","year":"2006-10-03","translations":["Профессиональный (многоголосый закадровый)"],"quality":"webdl","translation":"Профессиональный (многоголосый закадровый)","update":"2018-08-08 06:18:37","iframe_src":"//5091.svetacdn.in/71tsRs29n5tZ/movie/18145"},{"id":18144,"title":"Сосед-призрак","kp_id":"1021064","imdb_id":"tt6225534","world_art_id":null,"type":"movie","add":"2018-08-07 23:16:47","orig_title":"Ghostmates","year":"2016-12-14","translations":["Любительский (многоголосый закадровый) (Синема УС)"],"quality":"webdl","translation":"Любительский (многоголосый закадровый) (Синема УС)","update":"2018-08-08 06:17:50","iframe_src":"//5091.svetacdn.in/71tsRs29n5tZ/movie/18144"},{"id":18142,"title":"Серое золото","kp_id":"482205","imdb_id":"tt1525826","world_art_id":null,"type":"movie","add":"2018-08-07 23:13:10","orig_title":"Det grå guld","year":"2013-03-28","translations":["Профессиональный (многоголосый закадровый) (GreenРай Studio)"],"quality":"dvdrip","translation":"Профессиональный (многоголосый закадровый) (GreenРай Studio)","update":"2018-08-08 06:14:23","iframe_src":"//5091.svetacdn.in/71tsRs29n5tZ/movie/18142"},{"id":18141,"title":"Что скрывает Лох-Несс","kp_id":"36728","imdb_id":"tt0256155","world_art_id":null,"type":"movie","add":"2018-08-07 23:07:49","orig_title":"Beneath Loch Ness","year":"2001-07-06","translations":["Профессиональный (двухголосый закадровый)"],"quality":"dvdrip","translation":"Профессиональный (двухголосый закадровый)","update":"2018-08-08 06:10:52","iframe_src":"//5091.svetacdn.in/71tsRs29n5tZ/movie/18141"},{"id":18140,"title":"Борис без Беатрис","kp_id":"919567","imdb_id":"tt4780842","world_art_id":null,"type":"movie","add":"2018-08-07 23:02:14","orig_title":"Boris sans Béatrice","year":"2016-02-12","translations":["Профессиональный (многоголосый закадровый) (GreenРай Studio)"],"quality":"webdl","translation":"Профессиональный (многоголосый закадровый) (GreenРай Studio)","update":"2018-08-08 05:40:36","iframe_src":"//5091.svetacdn.in/71tsRs29n5tZ/movie/18140"},{"id":18139,"title":"Блюбарелла: Супервумен","kp_id":"570149","imdb_id":"tt1756427","world_art_id":null,"type":"movie","add":"2018-08-07 23:00:13","orig_title":"Blubberella","year":"2011-07-29","translations":["Профессиональный (многоголосый закадровый)"],"quality":"bd","translation":"Профессиональный (многоголосый закадровый)","update":"2018-08-08 06:06:30","iframe_src":"//5091.svetacdn.in/71tsRs29n5tZ/movie/18139"},{"id":18138,"title":"Biggie: Жизнь Notorious B.I.G.","kp_id":null,"imdb_id":"tt7297472","world_art_id":null,"type":"movie","add":"2018-08-07 22:57:44","orig_title":"Biggie: The Life of Notorious B.I.G.","year":"2017-09-04","translations":["Любительский (многоголосый закадровый) (Синема УС)"],"quality":"webdl","translation":"Любительский (многоголосый закадровый) (Синема УС)","update":"2018-08-08 06:05:53","iframe_src":"//5091.svetacdn.in/71tsRs29n5tZ/movie/18138"},{"id":18137,"title":"Баллистика: Экс против Сивер","kp_id":"1048","imdb_id":"tt0308208","world_art_id":null,"type":"movie","add":"2018-08-07 22:55:49","orig_title":"Ballistic: Ecks vs. Sever","year":"2002-09-18","translations":["Полное дублирование"],"quality":"webdl","translation":"Полное дублирование","update":"2018-08-08 06:04:10","iframe_src":"//5091.svetacdn.in/71tsRs29n5tZ/movie/18137"},{"id":18136,"title":"Анджела","kp_id":"12861","imdb_id":"tt0075681","world_art_id":null,"type":"movie","add":"2018-08-07 22:43:52","orig_title":"Angela","year":"1977-11-10","translations":["Авторский (одноголосый закадровый) (Сербин Юрий)"],"quality":"dvdrip","translation":"Авторский (одноголосый закадровый) (Сербин Юрий)","update":"2018-08-08 06:01:48","iframe_src":"//5091.svetacdn.in/71tsRs29n5tZ/movie/18136"},{"id":18135,"title":"Альберт","kp_id":"1000113","imdb_id":"tt5894846","world_art_id":null,"type":"movie","add":"2018-08-07 22:41:28","orig_title":"Al Berto","year":"2017-10-05","translations":["Любительский (многоголосый закадровый) (Синема УС)"],"quality":"dvdrip","translation":"Любительский (многоголосый закадровый) (Синема УС)","update":"2018-08-08 06:00:53","iframe_src":"//5091.svetacdn.in/71tsRs29n5tZ/movie/18135"},{"id":18131,"title":"Монстр Икс","kp_id":"1020326","imdb_id":"tt6494542","world_art_id":null,"type":"movie","add":"2018-08-06 23:59:17","orig_title":"Monster X","year":"2017-03-01","translations":["Любительский (двухголосый закадровый) (HiWayGrope)","Любительский (многоголосый закадровый) (Синема УС)"],"quality":"dvdrip","translation":"Любительский (двухголосый закадровый) (HiWayGrope)","update":"2018-08-08 05:35:35","iframe_src":"//5091.svetacdn.in/71tsRs29n5tZ/movie/18131"},{"id":18072,"title":"Ловушка для родителей","kp_id":"18671","imdb_id":"tt0055277","world_art_id":null,"type":"movie","add":"2018-08-05 15:31:05","orig_title":"The Parent Trap","year":"1961-05-13","translations":["Профессиональный (многоголосый закадровый) (НТВ)"],"quality":"webdl","translation":"Профессиональный (многоголосый закадровый) (НТВ)","update":"2018-08-08 05:59:02","iframe_src":"//5091.svetacdn.in/71tsRs29n5tZ/movie/18072"},{"id":8993,"title":"День патриота","kp_id":"893842","imdb_id":"tt4572514","world_art_id":null,"type":"movie","add":"2017-01-17 11:42:34","orig_title":"Patriots Day","year":"2016-11-17","translations":["Любительский (многоголосый закадровый) (@MUZOBOZ@)","Профессиональный (многоголосый закадровый) (СВ-Студия)"],"quality":"bd","translation":"Любительский (многоголосый закадровый) (@MUZOBOZ@)","update":"2018-08-08 05:33:13","iframe_src":"//5091.svetacdn.in/71tsRs29n5tZ/movie/8993"}],"current_page":1982,"first_page_url":"https://videocdn.tv/api/short?limit=100&api_token=EnbO9h8pv1VyjbCJhg0WM9nG259n7mtz&cache31982=31982&page=1","from":198101,"last_page":668,"last_page_url":"https://videocdn.tv/api/short?limit=100&api_token=EnbO9h8pv1VyjbCJhg0WM9nG259n7mtz&cache31982=31982&page=668","next_page_url":null,"path":"https://videocdn.tv/api/short","per_page":100,"prev_page_url":"https://videocdn.tv/api/short?limit=100&api_token=EnbO9h8pv1VyjbCJhg0WM9nG259n7mtz&cache31982=31982&page=1981","to":198120,"total":66714}