{"result":true,"data":[{"id":14159,"title":"Тадзёмару","kp_id":"438434","imdb_id":"tt1347008","world_art_id":null,"type":"movie","add":"2017-10-29 21:07:35","orig_title":"Tajomaru","year":"2009-09-12","translations":["Любительский (двухголосый закадровый)"],"quality":"dvdrip","translation":"Любительский (двухголосый закадровый)","update":"2017-10-29 22:12:59","iframe_src":"//5322.svetacdn.in/71tsRs29n5tZ/movie/14159"},{"id":14136,"title":"Цикл","kp_id":"401015","imdb_id":"tt1153102","world_art_id":null,"type":"movie","add":"2017-10-29 09:24:15","orig_title":"The Cycle","year":"2009-05-19","translations":["Профессиональный (многоголосый закадровый)"],"quality":"dvdrip","translation":"Профессиональный (многоголосый закадровый)","update":"2017-10-29 22:06:34","iframe_src":"//5322.svetacdn.in/71tsRs29n5tZ/movie/14136"},{"id":14129,"title":"Тридцать седьмой роман","kp_id":"490291","imdb_id":"tt1912511","world_art_id":null,"type":"movie","add":"2017-10-29 08:23:29","orig_title":"Tridtsat sedmoy roman","year":"2011-05-12","translations":["Оригинальная дорожка"],"quality":"sat","translation":"Оригинальная дорожка","update":"2017-10-29 16:29:45","iframe_src":"//5322.svetacdn.in/71tsRs29n5tZ/movie/14129"},{"id":14127,"title":"Люми","kp_id":"45172","imdb_id":"tt0102363","world_art_id":null,"type":"movie","add":"2017-10-29 08:01:04","orig_title":"Lyumi","year":"1991-01-01","translations":["Оригинальная дорожка"],"quality":"dvdrip","translation":"Оригинальная дорожка","update":"2017-10-29 16:32:17","iframe_src":"//5322.svetacdn.in/71tsRs29n5tZ/movie/14127"},{"id":14126,"title":"Прогулка","kp_id":"40966","imdb_id":"tt0372478","world_art_id":null,"type":"movie","add":"2017-10-29 01:27:33","orig_title":"Progulka","year":"2003-05-15","translations":["Оригинальная дорожка"],"quality":"dvdrip","translation":"Оригинальная дорожка","update":"2017-10-29 16:47:13","iframe_src":"//5322.svetacdn.in/71tsRs29n5tZ/movie/14126"},{"id":14125,"title":"Карусель","kp_id":"521528","imdb_id":"tt3799518","world_art_id":null,"type":"movie","add":"2017-10-29 01:23:37","orig_title":"Karusel","year":"2010-10-17","translations":["Оригинальная дорожка"],"quality":"sat","translation":"Оригинальная дорожка","update":"2017-10-29 16:45:23","iframe_src":"//5322.svetacdn.in/71tsRs29n5tZ/movie/14125"},{"id":14124,"title":"Игра палача","kp_id":"835941","imdb_id":"tt1827429","world_art_id":null,"type":"movie","add":"2017-10-29 01:14:56","orig_title":"Hangman's Game","year":"2015-10-28","translations":["Любительский (одноголосый закадровый) (Хихикающий доктор)"],"quality":"webdl","translation":"Любительский (одноголосый закадровый) (Хихикающий доктор)","update":"2017-10-29 21:35:58","iframe_src":"//5322.svetacdn.in/71tsRs29n5tZ/movie/14124"},{"id":14122,"title":"Король-лягушонок","kp_id":"419203","imdb_id":"tt1258947","world_art_id":null,"type":"movie","add":"2017-10-29 00:35:23","orig_title":"Der Froschkönig","year":"2008-11-13","translations":["Профессиональный (многоголосый закадровый)"],"quality":"hdtv","translation":"Профессиональный (многоголосый закадровый)","update":"2017-10-29 16:41:07","iframe_src":"//5322.svetacdn.in/71tsRs29n5tZ/movie/14122"},{"id":14111,"title":"Друзья-бегуны","kp_id":"464580","imdb_id":"tt1360825","world_art_id":null,"type":"movie","add":"2017-10-28 23:22:00","orig_title":"Running Mates","year":"2011-06-09","translations":["Профессиональный (многоголосый закадровый)"],"quality":"hdtv","translation":"Профессиональный (многоголосый закадровый)","update":"2017-10-29 16:38:52","iframe_src":"//5322.svetacdn.in/71tsRs29n5tZ/movie/14111"},{"id":14109,"title":"Сопротивление","kp_id":"466679","imdb_id":"tt1391116","world_art_id":null,"type":"movie","add":"2017-10-28 23:11:06","orig_title":"Resistance","year":"2011-09-16","translations":["Любительский (одноголосый закадровый)"],"quality":"dvdrip","translation":"Любительский (одноголосый закадровый)","update":"2017-10-29 16:36:15","iframe_src":"//5322.svetacdn.in/71tsRs29n5tZ/movie/14109"},{"id":14107,"title":"Возвращение блудного мужа","kp_id":"452536","imdb_id":null,"world_art_id":null,"type":"movie","add":"2017-10-28 22:52:08","orig_title":"Возвращение блудного мужа","year":"2009-08-20","translations":["Оригинальная дорожка"],"quality":"sat","translation":"Оригинальная дорожка","update":"2017-10-29 16:55:04","iframe_src":"//5322.svetacdn.in/71tsRs29n5tZ/movie/14107"},{"id":14105,"title":"Отцы","kp_id":"567064","imdb_id":"tt3911760","world_art_id":null,"type":"movie","add":"2017-10-28 22:33:10","orig_title":"Ottsy","year":"2010-11-28","translations":["Оригинальная дорожка"],"quality":"dvdrip","translation":"Оригинальная дорожка","update":"2017-10-30 03:50:33","iframe_src":"//5322.svetacdn.in/71tsRs29n5tZ/movie/14105"},{"id":14104,"title":"Фортуна","kp_id":"41171","imdb_id":"tt0260910","world_art_id":null,"type":"movie","add":"2017-10-28 22:29:17","orig_title":"Fortuna","year":"2000-02-26","translations":["Оригинальная дорожка"],"quality":"dvdrip","translation":"Оригинальная дорожка","update":"2017-10-29 16:57:52","iframe_src":"//5322.svetacdn.in/71tsRs29n5tZ/movie/14104"},{"id":14102,"title":"На глубине морской 3D","kp_id":"313210","imdb_id":"tt1020876","world_art_id":null,"type":"movie","add":"2017-10-27 08:20:45","orig_title":"Under the Sea 3D","year":"2009-02-13","translations":["Любительский (одноголосый закадровый)"],"quality":"bd","translation":"Любительский (одноголосый закадровый)","update":"2017-10-29 16:49:16","iframe_src":"//5322.svetacdn.in/71tsRs29n5tZ/movie/14102"},{"id":14099,"title":"Музыка в ожидании","kp_id":"448432","imdb_id":"tt1372282","world_art_id":null,"type":"movie","add":"2017-10-27 07:59:32","orig_title":"Música en espera","year":"2009-03-19","translations":["Любительский (одноголосый закадровый)"],"quality":"dvdrip","translation":"Любительский (одноголосый закадровый)","update":"2017-10-29 17:08:26","iframe_src":"//5322.svetacdn.in/71tsRs29n5tZ/movie/14099"},{"id":14097,"title":"Сколько весит троянский конь?","kp_id":"436587","imdb_id":"tt1344726","world_art_id":null,"type":"movie","add":"2017-10-27 07:51:35","orig_title":"Ile wazy kon trojanski?","year":"2008-12-26","translations":["Любительский (одноголосый закадровый)"],"quality":"bd","translation":"Любительский (одноголосый закадровый)","update":"2017-10-29 17:05:28","iframe_src":"//5322.svetacdn.in/71tsRs29n5tZ/movie/14097"},{"id":14095,"title":"Джордж Карлин: Это плохо для тебя!","kp_id":"308906","imdb_id":"tt0963207","world_art_id":null,"type":"movie","add":"2017-10-27 07:41:00","orig_title":"George Carlin... It's Bad for Ya!","year":"2008-03-01","translations":["Любительский (одноголосый закадровый)"],"quality":"bd","translation":"Любительский (одноголосый закадровый)","update":"2017-10-29 17:01:22","iframe_src":"//5322.svetacdn.in/71tsRs29n5tZ/movie/14095"},{"id":14093,"title":"Дилан Моран: Yeah, Yeah","kp_id":"653774","imdb_id":"tt2114375","world_art_id":null,"type":"movie","add":"2017-10-27 07:32:31","orig_title":"Dylan Moran: Yeah, Yeah","year":"2011-10-05","translations":["Профессиональный (одноголосый закадровый)"],"quality":"dvdrip","translation":"Профессиональный (одноголосый закадровый)","update":"2017-10-29 16:59:52","iframe_src":"//5322.svetacdn.in/71tsRs29n5tZ/movie/14093"},{"id":14086,"title":"Чернокнижник: Новое поколение","kp_id":"94620","imdb_id":"tt0280502","world_art_id":null,"type":"movie","add":"2017-10-27 06:45:35","orig_title":"The Brotherhood 2: Young Warlocks","year":"2001-09-25","translations":["Профессиональный (двухголосый закадровый)"],"quality":"dvdrip","translation":"Профессиональный (двухголосый закадровый)","update":"2017-10-29 17:02:44","iframe_src":"//5322.svetacdn.in/71tsRs29n5tZ/movie/14086"},{"id":14084,"title":"Стюарт Ли: Мир ковровых обрезков","kp_id":"728572","imdb_id":"tt2534670","world_art_id":null,"type":"movie","add":"2017-10-27 06:19:41","orig_title":"Stewart Lee: Carpet Remnant World","year":"2012-11-12","translations":["Профессиональный (одноголосый закадровый)"],"quality":"iptv","translation":"Профессиональный (одноголосый закадровый)","update":"2017-10-29 17:11:34","iframe_src":"//5322.svetacdn.in/71tsRs29n5tZ/movie/14084"}],"current_page":2001,"first_page_url":"https://videocdn.tv/api/short?limit=100&api_token=EnbO9h8pv1VyjbCJhg0WM9nG259n7mtz&cache32001=32001&page=1","from":200001,"last_page":630,"last_page_url":"https://videocdn.tv/api/short?limit=100&api_token=EnbO9h8pv1VyjbCJhg0WM9nG259n7mtz&cache32001=32001&page=630","next_page_url":null,"path":"https://videocdn.tv/api/short","per_page":100,"prev_page_url":"https://videocdn.tv/api/short?limit=100&api_token=EnbO9h8pv1VyjbCJhg0WM9nG259n7mtz&cache32001=32001&page=2000","to":200020,"total":62984}