{"result":true,"data":[{"id":43385,"title":"Сказка о карасях, зайце и бубликах","kp_id":"676949","imdb_id":"tt6230130","world_art_id":null,"type":"movie","add":"2020-09-10 17:23:46","orig_title":"Skazka o karasyakh, zaytse i bublikakh","year":"1984-01-01","translations":["Оригинальная дорожка"],"quality":"dvdrip","translation":"Оригинальная дорожка","update":"2020-09-15 13:47:39","iframe_src":"//8422.svetacdn.in/si4jsFRrtgrT/movie/43385"},{"id":43368,"title":"Волчок","kp_id":"257998","imdb_id":"tt11559144","world_art_id":null,"type":"movie","add":"2020-09-09 19:35:38","orig_title":"Volchok","year":"1985-01-01","translations":["Оригинальная дорожка"],"quality":"dvdrip","translation":"Оригинальная дорожка","update":"2020-09-15 13:46:51","iframe_src":"//8422.svetacdn.in/si4jsFRrtgrT/movie/43368"},{"id":43367,"title":"Композиция на тему... Рыжик","kp_id":"665419","imdb_id":null,"world_art_id":null,"type":"movie","add":"2020-09-09 19:13:51","orig_title":"Композиция на тему... Рыжик","year":"1989-01-01","translations":["Оригинальная дорожка"],"quality":"sat","translation":"Оригинальная дорожка","update":"2020-09-15 13:46:01","iframe_src":"//8422.svetacdn.in/si4jsFRrtgrT/movie/43367"},{"id":43366,"title":"Рыбья упряжка","kp_id":"478639","imdb_id":null,"world_art_id":null,"type":"movie","add":"2020-09-09 19:08:14","orig_title":"Рыбья упряжка","year":"1982-01-01","translations":["Оригинальная дорожка"],"quality":"sat","translation":"Оригинальная дорожка","update":"2020-09-15 13:45:16","iframe_src":"//8422.svetacdn.in/si4jsFRrtgrT/movie/43366"},{"id":43365,"title":"Про черепаху","kp_id":"445710","imdb_id":"tt1332583","world_art_id":null,"type":"movie","add":"2020-09-09 18:58:26","orig_title":"Pro cherepakhu","year":"1980-01-01","translations":["Оригинальная дорожка"],"quality":"dvdrip","translation":"Оригинальная дорожка","update":"2020-09-15 13:43:27","iframe_src":"//8422.svetacdn.in/si4jsFRrtgrT/movie/43365"},{"id":43364,"title":"Композиция на тему... Паршивец","kp_id":"665423","imdb_id":null,"world_art_id":null,"type":"movie","add":"2020-09-09 18:54:13","orig_title":"Композиция на тему... Паршивец","year":"1990-01-01","translations":["Оригинальная дорожка"],"quality":"webdl","translation":"Оригинальная дорожка","update":"2020-09-15 13:42:16","iframe_src":"//8422.svetacdn.in/si4jsFRrtgrT/movie/43364"},{"id":43363,"title":"Композиция на тему... Принцесса-Мимо","kp_id":"665424","imdb_id":null,"world_art_id":null,"type":"movie","add":"2020-09-09 18:47:42","orig_title":"Композиция на тему... Принцесса-Мимо","year":"1991-01-01","translations":["Оригинальная дорожка"],"quality":"sat","translation":"Оригинальная дорожка","update":"2020-09-15 13:41:34","iframe_src":"//8422.svetacdn.in/si4jsFRrtgrT/movie/43363"},{"id":43362,"title":"Катавасия","kp_id":"1270745","imdb_id":null,"world_art_id":null,"type":"movie","add":"2020-09-09 18:40:48","orig_title":"Катавасия","year":"1974-01-01","translations":["Оригинальная дорожка"],"quality":"dvdrip","translation":"Оригинальная дорожка","update":"2020-09-15 13:40:21","iframe_src":"//8422.svetacdn.in/si4jsFRrtgrT/movie/43362"},{"id":43361,"title":"Каменный век","kp_id":"481587","imdb_id":null,"world_art_id":null,"type":"movie","add":"2020-09-09 18:36:38","orig_title":"Каменный век","year":"1987-01-01","translations":["Оригинальная дорожка"],"quality":"sat","translation":"Оригинальная дорожка","update":"2020-09-15 13:39:40","iframe_src":"//8422.svetacdn.in/si4jsFRrtgrT/movie/43361"},{"id":43359,"title":"Как мышонок летучим стал","kp_id":"584773","imdb_id":null,"world_art_id":null,"type":"movie","add":"2020-09-09 18:32:31","orig_title":"Как мышонок летучим стал","year":"1991-01-01","translations":["Оригинальная дорожка"],"quality":"dvdrip","translation":"Оригинальная дорожка","update":"2020-09-15 13:38:50","iframe_src":"//8422.svetacdn.in/si4jsFRrtgrT/movie/43359"},{"id":43358,"title":"Как казаки в футбол играли","kp_id":"260251","imdb_id":"tt1230144","world_art_id":null,"type":"movie","add":"2020-09-09 18:26:13","orig_title":"Kak kazaki v futbol igrali","year":"1970-01-01","translations":["Оригинальная дорожка"],"quality":"dvdrip","translation":"Оригинальная дорожка","update":"2020-09-15 13:36:26","iframe_src":"//8422.svetacdn.in/si4jsFRrtgrT/movie/43358"},{"id":43357,"title":"История кузнечика Скрипконожкина","kp_id":"923487","imdb_id":null,"world_art_id":null,"type":"movie","add":"2020-09-09 18:15:27","orig_title":"История кузнечика Скрипконожкина","year":"1974-01-01","translations":["Любительский (одноголосый закадровый)"],"quality":"dvdrip","translation":"Любительский (одноголосый закадровый)","update":"2020-09-15 13:35:29","iframe_src":"//8422.svetacdn.in/si4jsFRrtgrT/movie/43357"},{"id":43319,"title":"Жихарка","kp_id":"45316","imdb_id":"tt0219421","world_art_id":null,"type":"movie","add":"2020-09-08 20:47:13","orig_title":"Zhikharka","year":"1977-10-07","translations":["Оригинальная дорожка"],"quality":"dvdrip","translation":"Оригинальная дорожка","update":"2020-09-15 13:34:43","iframe_src":"//8422.svetacdn.in/si4jsFRrtgrT/movie/43319"},{"id":43318,"title":"Игра","kp_id":"540675","imdb_id":null,"world_art_id":null,"type":"movie","add":"2020-09-08 20:44:38","orig_title":"Игра","year":"1985-01-01","translations":["Оригинальная дорожка"],"quality":"dvdrip","translation":"Оригинальная дорожка","update":"2020-09-15 13:33:40","iframe_src":"//8422.svetacdn.in/si4jsFRrtgrT/movie/43318"},{"id":43317,"title":"Гордиев узел","kp_id":"630260","imdb_id":null,"world_art_id":null,"type":"movie","add":"2020-09-08 20:07:52","orig_title":"Гордиев узел","year":"1989-01-01","translations":["Оригинальная дорожка"],"quality":"sat","translation":"Оригинальная дорожка","update":"2020-09-15 13:32:35","iframe_src":"//8422.svetacdn.in/si4jsFRrtgrT/movie/43317"},{"id":43316,"title":"Герон","kp_id":"1270743","imdb_id":null,"world_art_id":null,"type":"movie","add":"2020-09-08 19:59:28","orig_title":"Герон","year":"1979-01-01","translations":["Оригинальная дорожка"],"quality":"dvdrip","translation":"Оригинальная дорожка","update":"2020-09-15 13:31:30","iframe_src":"//8422.svetacdn.in/si4jsFRrtgrT/movie/43316"},{"id":43315,"title":"Домик для всех","kp_id":"648211","imdb_id":null,"world_art_id":null,"type":"movie","add":"2020-09-08 19:52:36","orig_title":"Домик для всех","year":"1985-01-01","translations":["Оригинальная дорожка"],"quality":"sat","translation":"Оригинальная дорожка","update":"2020-09-15 13:18:56","iframe_src":"//8422.svetacdn.in/si4jsFRrtgrT/movie/43315"},{"id":43294,"title":"Десять лет спустя","kp_id":"841504","imdb_id":"tt4886170","world_art_id":null,"type":"movie","add":"2020-09-08 17:54:41","orig_title":"Desyat let spustya","year":"1969-01-01","translations":["Оригинальная дорожка"],"quality":"webdl","translation":"Оригинальная дорожка","update":"2020-09-15 13:18:01","iframe_src":"//8422.svetacdn.in/si4jsFRrtgrT/movie/43294"},{"id":43293,"title":"Чужие окна","kp_id":"628586","imdb_id":null,"world_art_id":null,"type":"movie","add":"2020-09-08 17:51:03","orig_title":"Чужие окна","year":"1985-01-01","translations":["Оригинальная дорожка"],"quality":"dvdrip","translation":"Оригинальная дорожка","update":"2020-09-15 13:16:15","iframe_src":"//8422.svetacdn.in/si4jsFRrtgrT/movie/43293"},{"id":43291,"title":"Северный дракон","kp_id":"137834","imdb_id":"tt0452385","world_art_id":null,"type":"movie","add":"2020-09-08 17:39:53","orig_title":"Põhjakonn","year":"1959-01-01","translations":["Любительский (одноголосый закадровый)"],"quality":"dvdrip","translation":"Любительский (одноголосый закадровый)","update":"2020-09-15 13:12:10","iframe_src":"//8422.svetacdn.in/si4jsFRrtgrT/movie/43291"}],"current_page":749,"first_page_url":"https://videocdn.tv/api/short?limit=100&api_token=X6EwAUfE5M9xbo7y0Bp0aPf3uXxG2KLL&cache3749=3749&page=1","from":74801,"last_page":677,"last_page_url":"https://videocdn.tv/api/short?limit=100&api_token=X6EwAUfE5M9xbo7y0Bp0aPf3uXxG2KLL&cache3749=3749&page=677","next_page_url":null,"path":"https://videocdn.tv/api/short","per_page":100,"prev_page_url":"https://videocdn.tv/api/short?limit=100&api_token=X6EwAUfE5M9xbo7y0Bp0aPf3uXxG2KLL&cache3749=3749&page=748","to":74820,"total":67678}