{"result":true,"data":[{"id":15875,"title":"Монстры","kp_id":"1112282","imdb_id":null,"world_art_id":null,"type":"movie","add":"2018-03-27 21:38:24","orig_title":"Goemuldeul","year":"2018-03-08","translations":["Любительский (многоголосый закадровый) (Колобок)"],"quality":"webdl","translation":"Любительский (многоголосый закадровый) (Колобок)","update":"2018-03-28 04:28:35","iframe_src":"//8543.svetacdn.in/si4jsFRrtgrT/movie/15875"},{"id":15872,"title":"Тирунал","kp_id":"968592","imdb_id":"tt5495270","world_art_id":null,"type":"movie","add":"2018-03-27 21:28:13","orig_title":"Thirunaal","year":"2016-08-05","translations":["Любительский (многоголосый закадровый) (Колобок)"],"quality":"webdl","translation":"Любительский (многоголосый закадровый) (Колобок)","update":"2018-03-28 04:29:41","iframe_src":"//8543.svetacdn.in/si4jsFRrtgrT/movie/15872"},{"id":15871,"title":"Полный жесткач","kp_id":"864250","imdb_id":"tt4111826","world_art_id":null,"type":"movie","add":"2018-03-27 21:24:01","orig_title":"Rough Stuff","year":"2017-03-16","translations":["Любительский (многоголосый закадровый) (Синема УС)"],"quality":"webdl","translation":"Любительский (многоголосый закадровый) (Синема УС)","update":"2018-03-28 04:40:06","iframe_src":"//8543.svetacdn.in/si4jsFRrtgrT/movie/15871"},{"id":15863,"title":"Взаперти","kp_id":"1076252","imdb_id":"tt6645896","world_art_id":null,"type":"movie","add":"2018-03-27 08:15:39","orig_title":"Locked In","year":"2017-08-19","translations":["Любительский (многоголосый закадровый) (Синема УС)"],"quality":"webdl","translation":"Любительский (многоголосый закадровый) (Синема УС)","update":"2018-03-27 13:31:13","iframe_src":"//8543.svetacdn.in/si4jsFRrtgrT/movie/15863"},{"id":15861,"title":"Любовное наваждение","kp_id":"867936","imdb_id":"tt3909476","world_art_id":null,"type":"movie","add":"2018-03-27 08:03:08","orig_title":"Apo erota","year":"2014-12-04","translations":["Профессиональный (многоголосый закадровый) (GreenРай Studio)"],"quality":"dvdrip","translation":"Профессиональный (многоголосый закадровый) (GreenРай Studio)","update":"2018-03-27 13:36:55","iframe_src":"//8543.svetacdn.in/si4jsFRrtgrT/movie/15861"},{"id":15860,"title":"Амун","kp_id":"1044309","imdb_id":null,"world_art_id":null,"type":"movie","add":"2018-03-27 08:00:49","orig_title":"Амун","year":"2018-03-19","translations":["Оригинальная дорожка"],"quality":"webdl","translation":"Оригинальная дорожка","update":"2018-03-27 13:40:49","iframe_src":"//8543.svetacdn.in/si4jsFRrtgrT/movie/15860"},{"id":15859,"title":"Как есть","kp_id":"942501","imdb_id":"tt4444438","world_art_id":null,"type":"movie","add":"2018-03-26 18:20:19","orig_title":"As You Are","year":"2016-01-25","translations":["Профессиональный (многоголосый закадровый) (GreenРай Studio)"],"quality":"webdl","translation":"Профессиональный (многоголосый закадровый) (GreenРай Studio)","update":"2018-03-27 13:44:20","iframe_src":"//8543.svetacdn.in/si4jsFRrtgrT/movie/15859"},{"id":15858,"title":"Невозможно не влюбиться","kp_id":"1046163","imdb_id":"tt6725484","world_art_id":null,"type":"movie","add":"2018-03-26 17:45:57","orig_title":"Can't Help Falling in Love","year":"2017-04-15","translations":["Любительский (многоголосый закадровый) (GreenРай Studio)"],"quality":"webdl","translation":"Любительский (многоголосый закадровый) (GreenРай Studio)","update":"2018-03-27 13:45:29","iframe_src":"//8543.svetacdn.in/si4jsFRrtgrT/movie/15858"},{"id":15853,"title":"Маттерхорн","kp_id":"733651","imdb_id":"tt2650718","world_art_id":null,"type":"movie","add":"2018-03-26 08:43:35","orig_title":"Matterhorn","year":"2013-02-07","translations":["Любительский (одноголосый закадровый)"],"quality":"dvdrip","translation":"Любительский (одноголосый закадровый)","update":"2018-03-27 09:05:18","iframe_src":"//8543.svetacdn.in/si4jsFRrtgrT/movie/15853"},{"id":15821,"title":"Повелитель мух","kp_id":"35122","imdb_id":"tt0057261","world_art_id":null,"type":"movie","add":"2018-03-25 12:08:22","orig_title":"Lord of the Flies","year":"1963-05-12","translations":["Профессиональный (многоголосый закадровый)"],"quality":"bd","translation":"Профессиональный (многоголосый закадровый)","update":"2018-03-27 06:02:12","iframe_src":"//8543.svetacdn.in/si4jsFRrtgrT/movie/15821"},{"id":15820,"title":"Подмена","kp_id":"10927","imdb_id":"tt0103016","world_art_id":null,"type":"movie","add":"2018-03-25 12:06:28","orig_title":"Switch","year":"1991-05-10","translations":["Полное дублирование"],"quality":"webdl","translation":"Полное дублирование","update":"2018-03-27 06:03:32","iframe_src":"//8543.svetacdn.in/si4jsFRrtgrT/movie/15820"},{"id":15819,"title":"Мальчики-налетчики","kp_id":"420986","imdb_id":"tt1135084","world_art_id":null,"type":"movie","add":"2018-03-25 12:04:31","orig_title":"Takers","year":"2010-08-04","translations":["Полное дублирование"],"quality":"bd","translation":"Полное дублирование","update":"2018-03-27 06:04:41","iframe_src":"//8543.svetacdn.in/si4jsFRrtgrT/movie/15819"},{"id":15818,"title":"Ужасно медленный убийца с крайне неэффективным оружием","kp_id":"431366","imdb_id":"tt1301160","world_art_id":null,"type":"movie","add":"2018-03-25 12:02:24","orig_title":"The Horribly Slow Murderer with the Extremely Inefficient Weapon","year":"2008-09-18","translations":["Любительский (одноголосый закадровый)"],"quality":"webdl","translation":"Любительский (одноголосый закадровый)","update":"2018-03-27 06:06:07","iframe_src":"//8543.svetacdn.in/si4jsFRrtgrT/movie/15818"},{"id":15817,"title":"Зерофилия","kp_id":"86420","imdb_id":"tt0421090","world_art_id":null,"type":"movie","add":"2018-03-25 12:00:40","orig_title":"Zerophilia","year":"2005-10-26","translations":["Любительский (одноголосый закадровый)"],"quality":"webdl","translation":"Любительский (одноголосый закадровый)","update":"2018-03-27 06:07:35","iframe_src":"//8543.svetacdn.in/si4jsFRrtgrT/movie/15817"},{"id":15816,"title":"Муха 2","kp_id":"7428","imdb_id":"tt0097368","world_art_id":null,"type":"movie","add":"2018-03-25 11:58:12","orig_title":"The Fly II","year":"1989-02-10","translations":["Профессиональный (многоголосый закадровый)"],"quality":"hdtv","translation":"Профессиональный (многоголосый закадровый)","update":"2018-03-27 06:08:32","iframe_src":"//8543.svetacdn.in/si4jsFRrtgrT/movie/15816"},{"id":15815,"title":"Выход Дьявола","kp_id":"5704","imdb_id":"tt0062885","world_art_id":null,"type":"movie","add":"2018-03-25 11:53:52","orig_title":"The Devil Rides Out","year":"1968-07-20","translations":["Профессиональный (многоголосый закадровый) (5-й канал СПб)"],"quality":"bd","translation":"Профессиональный (многоголосый закадровый) (5-й канал СПб)","update":"2018-03-27 06:10:34","iframe_src":"//8543.svetacdn.in/si4jsFRrtgrT/movie/15815"},{"id":15814,"title":"Арабские приключения","kp_id":"5658","imdb_id":"tt0078792","world_art_id":null,"type":"movie","add":"2018-03-25 10:59:59","orig_title":"Arabian Adventure","year":"1979-06-05","translations":["Полное дублирование"],"quality":"webdl","translation":"Полное дублирование","update":"2018-03-27 06:13:09","iframe_src":"//8543.svetacdn.in/si4jsFRrtgrT/movie/15814"},{"id":15184,"title":"Место встречи","kp_id":"1059224","imdb_id":"tt7063210","world_art_id":null,"type":"movie","add":"2018-02-15 22:28:16","orig_title":"The Place","year":"2017-11-09","translations":["Полное дублирование"],"quality":"bd","translation":"Полное дублирование","update":"2018-03-28 04:32:52","iframe_src":"//8543.svetacdn.in/si4jsFRrtgrT/movie/15184"},{"id":15177,"title":"Бегущие по краю","kp_id":"924717","imdb_id":"tt4872260","world_art_id":null,"type":"movie","add":"2018-02-14 23:34:23","orig_title":"Ridge Runners","year":"2018-01-17","translations":["Любительский (многоголосый закадровый) (Синема УС)","Любительский (многоголосый закадровый) (GreenРай Studio)"],"quality":"webdl","translation":"Любительский (многоголосый закадровый) (Синема УС)","update":"2018-03-28 04:41:44","iframe_src":"//8543.svetacdn.in/si4jsFRrtgrT/movie/15177"},{"id":14617,"title":"Жильцы снизу","kp_id":"986228","imdb_id":"tt5735582","world_art_id":null,"type":"movie","add":"2017-12-10 21:12:37","orig_title":"Lou xia de fang ke","year":"2016-06-30","translations":["Любительский (многоголосый закадровый) (Синема УС)","Профессиональный (многоголосый закадровый) (GreenРай Studio)"],"quality":"bd","translation":"Любительский (многоголосый закадровый) (Синема УС)","update":"2018-03-28 04:30:40","iframe_src":"//8543.svetacdn.in/si4jsFRrtgrT/movie/14617"}],"current_page":1814,"first_page_url":"https://videocdn.tv/api/short?limit=100&api_token=X6EwAUfE5M9xbo7y0Bp0aPf3uXxG2KLL&cache31814=31814&page=1","from":181301,"last_page":605,"last_page_url":"https://videocdn.tv/api/short?limit=100&api_token=X6EwAUfE5M9xbo7y0Bp0aPf3uXxG2KLL&cache31814=31814&page=605","next_page_url":null,"path":"https://videocdn.tv/api/short","per_page":100,"prev_page_url":"https://videocdn.tv/api/short?limit=100&api_token=X6EwAUfE5M9xbo7y0Bp0aPf3uXxG2KLL&cache31814=31814&page=1813","to":181320,"total":60438}