{"result":true,"data":[{"id":29179,"title":"Мандат","kp_id":"46534","imdb_id":"tt0305800","world_art_id":null,"type":"movie","add":"2019-07-20 03:00:03","orig_title":"Mandat","year":"1965-02-26","translations":["Оригинальная дорожка"],"quality":"vhs","translation":"Оригинальная дорожка","update":"2019-07-22 06:26:32","iframe_src":"//2413.svetacdn.in/IAF0wWTdNYZm/movie/29179"},{"id":29178,"title":"Три сестрички","kp_id":"425390","imdb_id":"tt5209162","world_art_id":null,"type":"movie","add":"2019-07-20 02:54:47","orig_title":"Tri sestrichki","year":"2002-01-01","translations":["Оригинальная дорожка"],"quality":"vhs","translation":"Оригинальная дорожка","update":"2019-07-22 06:25:52","iframe_src":"//2413.svetacdn.in/IAF0wWTdNYZm/movie/29178"},{"id":29177,"title":"Человек с планеты Земля","kp_id":"45466","imdb_id":"tt0141573","world_art_id":null,"type":"movie","add":"2019-07-20 02:49:53","orig_title":"Chelovek s planety Zemlya","year":"1959-01-16","translations":["Оригинальная дорожка"],"quality":"sat","translation":"Оригинальная дорожка","update":"2019-07-22 06:24:49","iframe_src":"//2413.svetacdn.in/IAF0wWTdNYZm/movie/29177"},{"id":29176,"title":"Григорий Сковорода","kp_id":"583669","imdb_id":"tt5091592","world_art_id":null,"type":"movie","add":"2019-07-20 02:43:57","orig_title":"Grigoriy Skovoroda","year":"1960-03-15","translations":["Оригинальная дорожка"],"quality":"sat","translation":"Оригинальная дорожка","update":"2019-07-22 06:23:38","iframe_src":"//2413.svetacdn.in/IAF0wWTdNYZm/movie/29176"},{"id":29175,"title":"И я там был","kp_id":"742016","imdb_id":null,"world_art_id":null,"type":"movie","add":"2019-07-20 02:40:47","orig_title":"И я там был","year":"2015-01-01","translations":["Оригинальная дорожка"],"quality":"sat","translation":"Оригинальная дорожка","update":"2019-07-22 06:22:32","iframe_src":"//2413.svetacdn.in/IAF0wWTdNYZm/movie/29175"},{"id":29174,"title":"Лиха беда начало","kp_id":"45099","imdb_id":"tt0264798","world_art_id":null,"type":"movie","add":"2019-07-20 02:34:14","orig_title":"Likha beda nachalo","year":"1985-01-01","translations":["Оригинальная дорожка"],"quality":"dvdrip","translation":"Оригинальная дорожка","update":"2019-07-22 06:04:21","iframe_src":"//2413.svetacdn.in/IAF0wWTdNYZm/movie/29174"},{"id":29173,"title":"Мальчики","kp_id":"490265","imdb_id":"tt3171420","world_art_id":null,"type":"movie","add":"2019-07-20 02:31:15","orig_title":"Malchiki","year":"1960-02-21","translations":["Оригинальная дорожка"],"quality":"sat","translation":"Оригинальная дорожка","update":"2019-07-22 06:03:32","iframe_src":"//2413.svetacdn.in/IAF0wWTdNYZm/movie/29173"},{"id":29172,"title":"На зеленой земле моей","kp_id":"636124","imdb_id":"tt5094426","world_art_id":null,"type":"movie","add":"2019-07-20 02:27:43","orig_title":"Na zelyonoy zemle moyey","year":"1958-12-14","translations":["Оригинальная дорожка"],"quality":"dvdrip","translation":"Оригинальная дорожка","update":"2019-07-22 06:02:29","iframe_src":"//2413.svetacdn.in/IAF0wWTdNYZm/movie/29172"},{"id":29171,"title":"Начало пути","kp_id":"394411","imdb_id":"tt1084963","world_art_id":null,"type":"movie","add":"2019-07-20 02:25:14","orig_title":"Nachalo puti","year":"2004-01-01","translations":["Оригинальная дорожка"],"quality":"dvdrip","translation":"Оригинальная дорожка","update":"2019-07-22 06:01:49","iframe_src":"//2413.svetacdn.in/IAF0wWTdNYZm/movie/29171"},{"id":29170,"title":"Память сердца","kp_id":"42877","imdb_id":"tt0188123","world_art_id":null,"type":"movie","add":"2019-07-20 02:14:08","orig_title":"Pamyat serdtsa","year":"1958-05-26","translations":["Оригинальная дорожка"],"quality":"dvdrip","translation":"Оригинальная дорожка","update":"2019-07-22 06:00:37","iframe_src":"//2413.svetacdn.in/IAF0wWTdNYZm/movie/29170"},{"id":29169,"title":"По ту сторону","kp_id":"43017","imdb_id":"tt0232423","world_art_id":null,"type":"movie","add":"2019-07-20 02:10:40","orig_title":"Po tu storonu","year":"1958-10-20","translations":["Оригинальная дорожка"],"quality":"sat","translation":"Оригинальная дорожка","update":"2019-07-22 06:00:01","iframe_src":"//2413.svetacdn.in/IAF0wWTdNYZm/movie/29169"},{"id":29168,"title":"Под стук колес","kp_id":"43038","imdb_id":"tt0351563","world_art_id":null,"type":"movie","add":"2019-07-20 02:07:35","orig_title":"Pod stuk kolyos","year":"1959-04-07","translations":["Оригинальная дорожка"],"quality":"sat","translation":"Оригинальная дорожка","update":"2019-07-22 05:59:24","iframe_src":"//2413.svetacdn.in/IAF0wWTdNYZm/movie/29168"},{"id":29167,"title":"Изгой","kp_id":"42677","imdb_id":"tt0107237","world_art_id":null,"type":"movie","add":"2019-07-20 02:03:01","orig_title":"Izgoy","year":"1991-01-01","translations":["Профессиональный (одноголосый закадровый)"],"quality":"dvdrip","translation":"Профессиональный (одноголосый закадровый)","update":"2019-07-22 05:58:40","iframe_src":"//2413.svetacdn.in/IAF0wWTdNYZm/movie/29167"},{"id":29166,"title":"Пропавший без вести","kp_id":"521529","imdb_id":"tt1679646","world_art_id":null,"type":"movie","add":"2019-07-20 01:58:46","orig_title":"Propavshiy bez vesti","year":"2010-10-12","translations":["Оригинальная дорожка"],"quality":"webdl","translation":"Оригинальная дорожка","update":"2019-07-22 05:58:08","iframe_src":"//2413.svetacdn.in/IAF0wWTdNYZm/movie/29166"},{"id":29165,"title":"Сампо","kp_id":"43611","imdb_id":"tt0053240","world_art_id":null,"type":"movie","add":"2019-07-20 01:55:14","orig_title":"Sampo","year":"1959-08-24","translations":["Оригинальная дорожка"],"quality":"sat","translation":"Оригинальная дорожка","update":"2019-07-22 05:52:05","iframe_src":"//2413.svetacdn.in/IAF0wWTdNYZm/movie/29165"},{"id":29164,"title":"Страницы былого","kp_id":"565252","imdb_id":"tt5108322","world_art_id":null,"type":"movie","add":"2019-07-20 01:52:24","orig_title":"Stranitsy bylogo","year":"1958-04-29","translations":["Оригинальная дорожка"],"quality":"sat","translation":"Оригинальная дорожка","update":"2019-07-22 05:51:34","iframe_src":"//2413.svetacdn.in/IAF0wWTdNYZm/movie/29164"},{"id":29163,"title":"Стучись в любую дверь","kp_id":"44015","imdb_id":"tt0314731","world_art_id":null,"type":"movie","add":"2019-07-20 01:48:58","orig_title":"Stuchis' v lyubuyu dver'","year":"1959-09-07","translations":["Оригинальная дорожка"],"quality":"vhs","translation":"Оригинальная дорожка","update":"2019-07-22 05:49:54","iframe_src":"//2413.svetacdn.in/IAF0wWTdNYZm/movie/29163"},{"id":29162,"title":"Судьба поэта","kp_id":"565153","imdb_id":"tt2238937","world_art_id":null,"type":"movie","add":"2019-07-20 01:44:40","orig_title":"Sudba pojeta","year":"1959-09-28","translations":["Оригинальная дорожка"],"quality":"dvdrip","translation":"Оригинальная дорожка","update":"2019-07-22 05:48:57","iframe_src":"//2413.svetacdn.in/IAF0wWTdNYZm/movie/29162"},{"id":29161,"title":"Улица молодости","kp_id":"468008","imdb_id":"tt5096456","world_art_id":null,"type":"movie","add":"2019-07-20 01:41:53","orig_title":"Ulitsa molodosti","year":"1958-07-08","translations":["Оригинальная дорожка"],"quality":"sat","translation":"Оригинальная дорожка","update":"2019-07-22 05:48:24","iframe_src":"//2413.svetacdn.in/IAF0wWTdNYZm/movie/29161"},{"id":26830,"title":"Искатели приключений","kp_id":"408965","imdb_id":"tt2085829","world_art_id":null,"type":"movie","add":"2019-05-21 17:18:00","orig_title":"Iskateli priklyucheniy","year":"2012-10-18","translations":["Оригинальная дорожка"],"quality":"hdtv","translation":"Оригинальная дорожка","update":"2019-07-22 06:20:27","iframe_src":"//2413.svetacdn.in/IAF0wWTdNYZm/movie/26830"}],"current_page":1717,"first_page_url":"https://videocdn.tv/api/short?limit=100&api_token=6Onb1W1alEUrBcKJZD3GoKBbWyAl2uG2&cache31717=31717&page=1","from":171601,"last_page":715,"last_page_url":"https://videocdn.tv/api/short?limit=100&api_token=6Onb1W1alEUrBcKJZD3GoKBbWyAl2uG2&cache31717=31717&page=715","next_page_url":null,"path":"https://videocdn.tv/api/short","per_page":100,"prev_page_url":"https://videocdn.tv/api/short?limit=100&api_token=6Onb1W1alEUrBcKJZD3GoKBbWyAl2uG2&cache31717=31717&page=1716","to":171620,"total":71457}