{"result":true,"data":[{"id":32501,"title":"Опус Зеро","kp_id":"1013580","imdb_id":"tt6195904","world_art_id":null,"type":"movie","add":"2019-10-30 17:44:57","orig_title":"Opus Zero","year":"2017-11-10","translations":["Любительский (многоголосый закадровый) (AlphaProject)"],"quality":"webdl","translation":"Любительский (многоголосый закадровый) (AlphaProject)","update":"2019-10-31 14:34:32","iframe_src":"//83.svetacdn.in/PfJ50H0ZBPg3/movie/32501"},{"id":32500,"title":"Свидетели","kp_id":"1003120","imdb_id":"tt6050668","world_art_id":null,"type":"movie","add":"2019-10-30 17:44:11","orig_title":"The Best People","year":"2017-01-01","translations":["Любительский (многоголосый закадровый) (Синема УС)"],"quality":"webdl","translation":"Любительский (многоголосый закадровый) (Синема УС)","update":"2019-10-31 14:36:02","iframe_src":"//83.svetacdn.in/PfJ50H0ZBPg3/movie/32500"},{"id":32499,"title":"Семь","kp_id":"1161521","imdb_id":"tt8095862","world_art_id":null,"type":"movie","add":"2019-10-30 17:43:33","orig_title":"The Seven","year":"2019-10-28","translations":["Любительский (многоголосый закадровый) (AlphaProject)"],"quality":"webdl","translation":"Любительский (многоголосый закадровый) (AlphaProject)","update":"2019-10-31 14:36:58","iframe_src":"//83.svetacdn.in/PfJ50H0ZBPg3/movie/32499"},{"id":32498,"title":"Вечная зима","kp_id":"1039030","imdb_id":"tt6605812","world_art_id":null,"type":"movie","add":"2019-10-30 17:39:37","orig_title":"Örök tél","year":"2018-01-30","translations":["Любительский (многоголосый закадровый) (AlphaProject)"],"quality":"hdtv","translation":"Любительский (многоголосый закадровый) (AlphaProject)","update":"2019-11-01 13:53:14","iframe_src":"//83.svetacdn.in/PfJ50H0ZBPg3/movie/32498"},{"id":32497,"title":"Искупление","kp_id":"974830","imdb_id":"tt5582566","world_art_id":null,"type":"movie","add":"2019-10-30 17:38:20","orig_title":"Redemption Way","year":"2017-08-01","translations":["Любительский (многоголосый закадровый) (Синема УС)"],"quality":"webdl","translation":"Любительский (многоголосый закадровый) (Синема УС)","update":"2019-10-31 14:39:03","iframe_src":"//83.svetacdn.in/PfJ50H0ZBPg3/movie/32497"},{"id":32496,"title":"Возвращение в Боллен","kp_id":"1104802","imdb_id":"tt7525910","world_art_id":null,"type":"movie","add":"2019-10-30 17:37:33","orig_title":"Retour à Bollène","year":"2017-10-23","translations":["Любительский (многоголосый закадровый) (Синема УС)"],"quality":"webdl","translation":"Любительский (многоголосый закадровый) (Синема УС)","update":"2019-10-31 14:43:21","iframe_src":"//83.svetacdn.in/PfJ50H0ZBPg3/movie/32496"},{"id":32495,"title":"Дом кричащих мертвецов","kp_id":"911483","imdb_id":"tt4675356","world_art_id":null,"type":"movie","add":"2019-10-30 17:36:10","orig_title":"The House of Screaming Death","year":"2017-01-01","translations":["Любительский (многоголосый закадровый) (Синема УС)"],"quality":"webdl","translation":"Любительский (многоголосый закадровый) (Синема УС)","update":"2019-10-31 14:44:54","iframe_src":"//83.svetacdn.in/PfJ50H0ZBPg3/movie/32495"},{"id":32494,"title":"Повстанцы","kp_id":"1041281","imdb_id":"tt6642662","world_art_id":null,"type":"movie","add":"2019-10-30 17:35:15","orig_title":"The Rebels","year":"2019-10-28","translations":["Любительский (многоголосый закадровый) (@MUZOBOZ@)"],"quality":"webdl","translation":"Любительский (многоголосый закадровый) (@MUZOBOZ@)","update":"2019-10-31 14:46:23","iframe_src":"//83.svetacdn.in/PfJ50H0ZBPg3/movie/32494"},{"id":32493,"title":"Ты не сможешь отказаться","kp_id":"990971","imdb_id":"tt5848986","world_art_id":null,"type":"movie","add":"2019-10-30 17:34:28","orig_title":"You Can't Say No","year":"2018-03-03","translations":["Любительский (многоголосый закадровый) (AlphaProject)"],"quality":"webdl","translation":"Любительский (многоголосый закадровый) (AlphaProject)","update":"2019-11-01 13:50:27","iframe_src":"//83.svetacdn.in/PfJ50H0ZBPg3/movie/32493"},{"id":32492,"title":"Брайан Бэнкс","kp_id":"1137143","imdb_id":"tt3920820","world_art_id":null,"type":"movie","add":"2019-10-30 17:33:24","orig_title":"Brian Banks","year":"2018-09-22","translations":["Любительский (многоголосый закадровый) (@MUZOBOZ@)"],"quality":"webdl","translation":"Любительский (многоголосый закадровый) (@MUZOBOZ@)","update":"2019-10-31 14:53:31","iframe_src":"//83.svetacdn.in/PfJ50H0ZBPg3/movie/32492"},{"id":32491,"title":"Без тормозов","kp_id":"1302591","imdb_id":"tt10952472","world_art_id":null,"type":"movie","add":"2019-10-30 17:32:41","orig_title":"Chil Zadap","year":"2019-09-06","translations":["Любительский (многоголосый закадровый) (Синема УС)"],"quality":"webdl","translation":"Любительский (многоголосый закадровый) (Синема УС)","update":"2019-10-31 14:52:38","iframe_src":"//83.svetacdn.in/PfJ50H0ZBPg3/movie/32491"},{"id":32490,"title":"Дверь в лесу","kp_id":"1015319","imdb_id":"tt6269942","world_art_id":null,"type":"movie","add":"2019-10-30 17:31:58","orig_title":"Door in the Woods","year":"2019-01-24","translations":["Любительский (многоголосый закадровый) (Синема УС)"],"quality":"webdl","translation":"Любительский (многоголосый закадровый) (Синема УС)","update":"2019-10-31 14:51:46","iframe_src":"//83.svetacdn.in/PfJ50H0ZBPg3/movie/32490"},{"id":32489,"title":"Кровавый водопад","kp_id":"1203116","imdb_id":"tt9143166","world_art_id":null,"type":"movie","add":"2019-10-30 17:29:55","orig_title":"Blood Falls","year":"2018-11-30","translations":["Любительский (многоголосый закадровый) (Синема УС)"],"quality":"webdl","translation":"Любительский (многоголосый закадровый) (Синема УС)","update":"2019-10-31 14:54:39","iframe_src":"//83.svetacdn.in/PfJ50H0ZBPg3/movie/32489"},{"id":32488,"title":"Экимму: Вожделение мёртвых","kp_id":"720408","imdb_id":"tt2364690","world_art_id":null,"type":"movie","add":"2019-10-30 17:29:19","orig_title":"Ekimmu: The Dead Lust","year":"2017-06-18","translations":["Любительский (многоголосый закадровый) (Синема УС)"],"quality":"webdl","translation":"Любительский (многоголосый закадровый) (Синема УС)","update":"2019-10-31 14:50:59","iframe_src":"//83.svetacdn.in/PfJ50H0ZBPg3/movie/32488"},{"id":32487,"title":"Джирга","kp_id":"1085871","imdb_id":"tt7083846","world_art_id":null,"type":"movie","add":"2019-10-30 17:28:03","orig_title":"Jirga","year":"2018-06-08","translations":["Любительский (многоголосый закадровый) (Синема УС)"],"quality":"webdl","translation":"Любительский (многоголосый закадровый) (Синема УС)","update":"2019-10-31 14:50:07","iframe_src":"//83.svetacdn.in/PfJ50H0ZBPg3/movie/32487"},{"id":32486,"title":"В этом мире мне места нет","kp_id":"997368","imdb_id":"tt5921148","world_art_id":null,"type":"movie","add":"2019-10-30 17:27:26","orig_title":"No Place in This World","year":"2017-10-20","translations":["Любительский (многоголосый закадровый) (Синема УС)"],"quality":"webdl","translation":"Любительский (многоголосый закадровый) (Синема УС)","update":"2019-10-31 14:48:59","iframe_src":"//83.svetacdn.in/PfJ50H0ZBPg3/movie/32486"},{"id":32485,"title":"Райский пляж","kp_id":"1093323","imdb_id":"tt7511008","world_art_id":null,"type":"movie","add":"2019-10-30 17:26:40","orig_title":"Paradise Beach","year":"2019-02-13","translations":["Любительский (многоголосый закадровый) (Синема УС)"],"quality":"webdl","translation":"Любительский (многоголосый закадровый) (Синема УС)","update":"2019-10-31 14:47:53","iframe_src":"//83.svetacdn.in/PfJ50H0ZBPg3/movie/32485"},{"id":32484,"title":"Резонанс","kp_id":"1060989","imdb_id":"tt6119210","world_art_id":null,"type":"movie","add":"2019-10-30 17:25:49","orig_title":"Resonance","year":"2018-05-27","translations":["Любительский (многоголосый закадровый) (Синема УС)"],"quality":"webdl","translation":"Любительский (многоголосый закадровый) (Синема УС)","update":"2019-10-31 14:38:05","iframe_src":"//83.svetacdn.in/PfJ50H0ZBPg3/movie/32484"},{"id":32479,"title":"Моя маленькая невеста","kp_id":"65835","imdb_id":"tt0395140","world_art_id":null,"type":"movie","add":"2019-10-29 20:32:33","orig_title":"Eorin shinbu","year":"2004-04-02","translations":["Любительский (одноголосый закадровый)"],"quality":"hdtv","translation":"Любительский (одноголосый закадровый)","update":"2019-10-30 13:14:53","iframe_src":"//83.svetacdn.in/PfJ50H0ZBPg3/movie/32479"},{"id":17669,"title":"Великий воин","kp_id":"494448","imdb_id":"tt1447500","world_art_id":null,"type":"movie","add":"2018-07-09 12:21:37","orig_title":"Magadheera","year":"2009-07-30","translations":["Профессиональный (многоголосый закадровый)","Любительский (двухголосый закадровый)","Профессиональный (многоголосый закадровый) (Red Media)"],"quality":"webdl","translation":"Профессиональный (многоголосый закадровый)","update":"2019-11-01 14:03:15","iframe_src":"//83.svetacdn.in/PfJ50H0ZBPg3/movie/17669"}],"current_page":1196,"first_page_url":"https://videocdn.tv/api/short?limit=100&api_token=RgFQdUIR2dRmwv8iYa5SnFNgnw3vpjKj&cache31196=31196&page=1","from":119501,"last_page":649,"last_page_url":"https://videocdn.tv/api/short?limit=100&api_token=RgFQdUIR2dRmwv8iYa5SnFNgnw3vpjKj&cache31196=31196&page=649","next_page_url":null,"path":"https://videocdn.tv/api/short","per_page":100,"prev_page_url":"https://videocdn.tv/api/short?limit=100&api_token=RgFQdUIR2dRmwv8iYa5SnFNgnw3vpjKj&cache31196=31196&page=1195","to":119520,"total":64878}