{"result":true,"data":[{"id":21891,"title":"За пределами границ: Скандал с Харви Вайнштейном","kp_id":null,"imdb_id":"tt9129406","world_art_id":null,"type":"movie","add":"2019-01-27 18:00:52","orig_title":"Beyond Boundaries: The Harvey Weinstein Scandal","year":"2018-08-21","translations":["Любительский (многоголосый закадровый) (Синема УС)"],"quality":"webdl","translation":"Любительский (многоголосый закадровый) (Синема УС)","update":"2019-01-28 06:12:44","iframe_src":"//7043.svetacdn.in/71tsRs29n5tZ/movie/21891"},{"id":21890,"title":"4 мужчины, 175 детей: британские супердоноры спермы","kp_id":null,"imdb_id":"tt8485384","world_art_id":null,"type":"movie","add":"2019-01-27 17:59:12","orig_title":"4 Men, 175 Babies: Britain's Super Sperm Donors","year":"2018-05-29","translations":["Любительский (многоголосый закадровый) (Синема УС)"],"quality":"hdtv","translation":"Любительский (многоголосый закадровый) (Синема УС)","update":"2019-01-28 06:14:59","iframe_src":"//7043.svetacdn.in/71tsRs29n5tZ/movie/21890"},{"id":21889,"title":"МакКеллен: Играя роль","kp_id":"1012838","imdb_id":"tt6127326","world_art_id":null,"type":"movie","add":"2019-01-27 17:57:02","orig_title":"McKellen: Playing the Part","year":"2017-11-01","translations":["Любительский (многоголосый закадровый) (Синема УС)"],"quality":"webdl","translation":"Любительский (многоголосый закадровый) (Синема УС)","update":"2019-01-28 06:16:03","iframe_src":"//7043.svetacdn.in/71tsRs29n5tZ/movie/21889"},{"id":21888,"title":"Локерби: Неуслышанные голоса","kp_id":null,"imdb_id":"tt9408982","world_art_id":null,"type":"movie","add":"2019-01-27 17:55:28","orig_title":"Lockerbie: The Unheard Voices","year":"2018-12-04","translations":["Любительский (многоголосый закадровый) (Синема УС)"],"quality":"hdtv","translation":"Любительский (многоголосый закадровый) (Синема УС)","update":"2019-01-28 06:16:43","iframe_src":"//7043.svetacdn.in/71tsRs29n5tZ/movie/21888"},{"id":21880,"title":"После Апокалипсиса","kp_id":"1119498","imdb_id":"tt8306938","world_art_id":null,"type":"movie","add":"2019-01-27 17:25:25","orig_title":"Ultra pulpe","year":"2018-05-16","translations":["Любительский (многоголосый закадровый) (Колобок)"],"quality":"webdl","translation":"Любительский (многоголосый закадровый) (Колобок)","update":"2019-01-28 06:10:41","iframe_src":"//7043.svetacdn.in/71tsRs29n5tZ/movie/21880"},{"id":21878,"title":"Врата","kp_id":"887562","imdb_id":"tt4404296","world_art_id":null,"type":"movie","add":"2019-01-27 17:20:23","orig_title":"The Gatehouse","year":"2016-10-01","translations":["Любительский (многоголосый закадровый) (Синема УС)"],"quality":"dvdrip","translation":"Любительский (многоголосый закадровый) (Синема УС)","update":"2019-01-28 06:35:09","iframe_src":"//7043.svetacdn.in/71tsRs29n5tZ/movie/21878"},{"id":21877,"title":"История Иисуса Христа для детей","kp_id":"282475","imdb_id":"tt0447461","world_art_id":null,"type":"movie","add":"2019-01-27 17:16:19","orig_title":"The Story of Jesus for Children","year":"2010-03-06","translations":["Полное дублирование"],"quality":"dvdrip","translation":"Полное дублирование","update":"2019-01-28 06:37:18","iframe_src":"//7043.svetacdn.in/71tsRs29n5tZ/movie/21877"},{"id":21856,"title":"Дьявол, которого мы знаем в лицо","kp_id":"1111348","imdb_id":"tt7689910","world_art_id":null,"type":"movie","add":"2019-01-27 00:15:41","orig_title":"The Devil We Know","year":"2018-01-21","translations":["Любительский (многоголосый закадровый) (Синема УС)"],"quality":"webdl","translation":"Любительский (многоголосый закадровый) (Синема УС)","update":"2019-01-28 06:36:23","iframe_src":"//7043.svetacdn.in/71tsRs29n5tZ/movie/21856"},{"id":21853,"title":"Только моя","kp_id":"1209628","imdb_id":"tt9271164","world_art_id":null,"type":"movie","add":"2019-01-27 00:09:34","orig_title":"Only Mine","year":"2019-01-15","translations":["Любительский (многоголосый закадровый) (Синема УС)"],"quality":"webdl","translation":"Любительский (многоголосый закадровый) (Синема УС)","update":"2019-01-28 06:11:34","iframe_src":"//7043.svetacdn.in/71tsRs29n5tZ/movie/21853"},{"id":21850,"title":"Старики под присмотром","kp_id":"1179150","imdb_id":"tt8749922","world_art_id":null,"type":"movie","add":"2019-01-27 00:02:17","orig_title":"Grand-Daddy Day Care","year":"2019-02-05","translations":["Любительский (многоголосый закадровый) (Синема УС)"],"quality":"dvdrip","translation":"Любительский (многоголосый закадровый) (Синема УС)","update":"2019-01-28 06:40:26","iframe_src":"//7043.svetacdn.in/71tsRs29n5tZ/movie/21850"},{"id":21847,"title":"Безумная свадьба","kp_id":"1114843","imdb_id":null,"world_art_id":null,"type":"movie","add":"2019-01-26 21:47:09","orig_title":"Безумная свадьба","year":"2018-10-04","translations":["Любительский (многоголосый закадровый) (Синема УС)"],"quality":"webdl","translation":"Любительский (многоголосый закадровый) (Синема УС)","update":"2019-01-28 06:45:31","iframe_src":"//7043.svetacdn.in/71tsRs29n5tZ/movie/21847"},{"id":21845,"title":"Обломов","kp_id":"1099792","imdb_id":"tt7572012","world_art_id":null,"type":"movie","add":"2019-01-26 21:38:52","orig_title":"Oblomov","year":"2017-01-26","translations":["Любительский (двухголосый закадровый) (LakeFilms)"],"quality":"tv","translation":"Любительский (двухголосый закадровый) (LakeFilms)","update":"2019-01-28 06:47:25","iframe_src":"//7043.svetacdn.in/71tsRs29n5tZ/movie/21845"},{"id":21844,"title":"Эммануэль: Королева страсти","kp_id":"83217","imdb_id":"tt0079104","world_art_id":null,"type":"movie","add":"2019-01-26 21:32:31","orig_title":"I mavri Emmanouella","year":"1980-03-13","translations":["Профессиональный (двухголосый закадровый)"],"quality":"dvdrip","translation":"Профессиональный (двухголосый закадровый)","update":"2019-01-28 07:07:45","iframe_src":"//7043.svetacdn.in/71tsRs29n5tZ/movie/21844"},{"id":21843,"title":"Эммануэль в деревне","kp_id":"166425","imdb_id":"tt0077731","world_art_id":null,"type":"movie","add":"2019-01-26 21:29:46","orig_title":"Messo comunale praticamente spione","year":"1982-01-01","translations":["Любительский (одноголосый закадровый)"],"quality":"dvdrip","translation":"Любительский (одноголосый закадровый)","update":"2019-01-28 07:08:26","iframe_src":"//7043.svetacdn.in/71tsRs29n5tZ/movie/21843"},{"id":21842,"title":"Эммануэль в Гонконге","kp_id":"322908","imdb_id":"tt0770177","world_art_id":null,"type":"movie","add":"2019-01-26 21:28:11","orig_title":"Heung Gong ngaai maan nau ji sau sing pui yuk","year":"2003-06-06","translations":["Любительский (одноголосый закадровый)"],"quality":"dvdrip","translation":"Любительский (одноголосый закадровый)","update":"2019-01-28 07:09:03","iframe_src":"//7043.svetacdn.in/71tsRs29n5tZ/movie/21842"},{"id":21841,"title":"Эммануэль в Венеции","kp_id":"22154","imdb_id":"tt0338002","world_art_id":null,"type":"movie","add":"2019-01-26 21:26:24","orig_title":"Emmanuelle à Venise","year":"1993-03-07","translations":["Профессиональный (двухголосый закадровый) (РенТВ)"],"quality":"dvdrip","translation":"Профессиональный (двухголосый закадровый) (РенТВ)","update":"2019-01-28 07:10:00","iframe_src":"//7043.svetacdn.in/71tsRs29n5tZ/movie/21841"},{"id":21840,"title":"Эммануэль в Америке","kp_id":"77366","imdb_id":null,"world_art_id":null,"type":"movie","add":"2019-01-26 21:24:42","orig_title":"Emanuelle in America","year":"1977-01-05","translations":["Профессиональный (двухголосый закадровый)"],"quality":"dvdrip","translation":"Профессиональный (двухголосый закадровый)","update":"2019-01-28 07:10:46","iframe_src":"//7043.svetacdn.in/71tsRs29n5tZ/movie/21840"},{"id":20924,"title":"Музей","kp_id":"1009936","imdb_id":"tt4958448","world_art_id":null,"type":"movie","add":"2018-12-23 00:18:02","orig_title":"Museo","year":"2018-02-22","translations":["Любительский (многоголосый закадровый) (Синема УС)","Любительский (двухголосый закадровый) (LakeFilms)"],"quality":"webdl","translation":"Любительский (многоголосый закадровый) (Синема УС)","update":"2019-01-28 06:49:00","iframe_src":"//7043.svetacdn.in/71tsRs29n5tZ/movie/20924"},{"id":19829,"title":"Прятки","kp_id":"857535","imdb_id":"tt3519946","world_art_id":null,"type":"movie","add":"2018-10-28 21:36:08","orig_title":"Hide and Go Seek","year":"2018-10-21","translations":["Любительский (многоголосый закадровый) (Синема УС)","Любительский (двухголосый закадровый) (HiWayGrope)","Любительский (двухголосый закадровый) (LakeFilms)"],"quality":"webdl","translation":"Любительский (многоголосый закадровый) (Синема УС)","update":"2019-01-28 06:43:38","iframe_src":"//7043.svetacdn.in/71tsRs29n5tZ/movie/19829"},{"id":16775,"title":"Сицилийская история призраков","kp_id":"1045232","imdb_id":"tt5375434","world_art_id":null,"type":"movie","add":"2018-05-15 05:32:19","orig_title":"Sicilian Ghost Story","year":"2017-05-18","translations":["Любительский (многоголосый закадровый) (@MUZOBOZ@)","Любительский (двухголосый закадровый) (LakeFilms)"],"quality":"dvdrip","translation":"Любительский (многоголосый закадровый) (@MUZOBOZ@)","update":"2019-01-28 07:04:30","iframe_src":"//7043.svetacdn.in/71tsRs29n5tZ/movie/16775"}],"current_page":1555,"first_page_url":"https://videocdn.tv/api/short?limit=100&api_token=EnbO9h8pv1VyjbCJhg0WM9nG259n7mtz&cache31555=31555&page=1","from":155401,"last_page":613,"last_page_url":"https://videocdn.tv/api/short?limit=100&api_token=EnbO9h8pv1VyjbCJhg0WM9nG259n7mtz&cache31555=31555&page=613","next_page_url":null,"path":"https://videocdn.tv/api/short","per_page":100,"prev_page_url":"https://videocdn.tv/api/short?limit=100&api_token=EnbO9h8pv1VyjbCJhg0WM9nG259n7mtz&cache31555=31555&page=1554","to":155420,"total":61220}