{"result":true,"data":[{"id":33708,"title":"Прежде чем ты узнаешь","kp_id":"1181936","imdb_id":"tt8856090","world_art_id":null,"type":"movie","add":"2019-12-04 14:52:45","orig_title":"Before You Know It","year":"2019-01-27","translations":["Любительский (многоголосый закадровый) (Синема УС)"],"quality":"webdl","translation":"Любительский (многоголосый закадровый) (Синема УС)","update":"2019-12-04 18:08:06","iframe_src":"//8332.svetacdn.in/71tsRs29n5tZ/movie/33708"},{"id":33707,"title":"Тревожное исчезновение","kp_id":"1245621","imdb_id":"tt9844166","world_art_id":null,"type":"movie","add":"2019-12-04 14:51:04","orig_title":"Disparition inquiétante","year":"2019-02-27","translations":["Любительский (многоголосый закадровый) (AlphaProject)"],"quality":"hdtv","translation":"Любительский (многоголосый закадровый) (AlphaProject)","update":"2019-12-04 17:13:06","iframe_src":"//8332.svetacdn.in/71tsRs29n5tZ/movie/33707"},{"id":33706,"title":"Один падёт","kp_id":"1127506","imdb_id":"tt8332808","world_art_id":null,"type":"movie","add":"2019-12-04 14:48:58","orig_title":"One Must Fall","year":"2018-10-31","translations":["Любительский (многоголосый закадровый) (Синема УС)"],"quality":"webdl","translation":"Любительский (многоголосый закадровый) (Синема УС)","update":"2019-12-04 16:45:27","iframe_src":"//8332.svetacdn.in/71tsRs29n5tZ/movie/33706"},{"id":33705,"title":"Книга Бёрди","kp_id":"1008789","imdb_id":"tt5142400","world_art_id":null,"type":"movie","add":"2019-12-04 14:46:49","orig_title":"The Book of Birdie","year":"2017-01-30","translations":["Любительский (многоголосый закадровый) (Синема УС)"],"quality":"webdl","translation":"Любительский (многоголосый закадровый) (Синема УС)","update":"2019-12-04 17:46:16","iframe_src":"//8332.svetacdn.in/71tsRs29n5tZ/movie/33705"},{"id":33704,"title":"Остановка в пути","kp_id":"913659","imdb_id":"tt4699444","world_art_id":null,"type":"movie","add":"2019-12-04 14:45:24","orig_title":"Voir du pays","year":"2016-05-17","translations":["Любительский (многоголосый закадровый) (Синема УС)"],"quality":"webdl","translation":"Любительский (многоголосый закадровый) (Синема УС)","update":"2019-12-04 17:02:10","iframe_src":"//8332.svetacdn.in/71tsRs29n5tZ/movie/33704"},{"id":33703,"title":"Пакеты с кровью","kp_id":"1095119","imdb_id":"tt7362370","world_art_id":null,"type":"movie","add":"2019-12-04 14:42:04","orig_title":"Blood Bags","year":"2018-11-13","translations":["Любительский (многоголосый закадровый) (Синема УС)"],"quality":"webdl","translation":"Любительский (многоголосый закадровый) (Синема УС)","update":"2019-12-04 17:44:58","iframe_src":"//8332.svetacdn.in/71tsRs29n5tZ/movie/33703"},{"id":33702,"title":"Побег из Либерти","kp_id":"1246004","imdb_id":"tt9844368","world_art_id":null,"type":"movie","add":"2019-12-04 14:40:50","orig_title":"Out of Liberty","year":"2019-09-13","translations":["Любительский (многоголосый закадровый) (Синема УС)"],"quality":"webdl","translation":"Любительский (многоголосый закадровый) (Синема УС)","update":"2019-12-04 17:01:23","iframe_src":"//8332.svetacdn.in/71tsRs29n5tZ/movie/33702"},{"id":33701,"title":"Разоблачение","kp_id":"1100599","imdb_id":"tt7632274","world_art_id":null,"type":"movie","add":"2019-12-04 14:39:50","orig_title":"Red Handed","year":"2019-10-05","translations":["Любительский (многоголосый закадровый) (Синема УС)"],"quality":"webdl","translation":"Любительский (многоголосый закадровый) (Синема УС)","update":"2019-12-04 17:45:32","iframe_src":"//8332.svetacdn.in/71tsRs29n5tZ/movie/33701"},{"id":33700,"title":"Дзынь-дзынь","kp_id":"1014184","imdb_id":"tt6473542","world_art_id":null,"type":"movie","add":"2019-12-04 14:38:48","orig_title":"Ring Ring","year":"2019-07-19","translations":["Любительский (многоголосый закадровый) (Синема УС)"],"quality":"webdl","translation":"Любительский (многоголосый закадровый) (Синема УС)","update":"2019-12-04 16:45:09","iframe_src":"//8332.svetacdn.in/71tsRs29n5tZ/movie/33700"},{"id":33699,"title":"Треугольник Шаста","kp_id":"978619","imdb_id":"tt5153588","world_art_id":null,"type":"movie","add":"2019-12-04 14:37:35","orig_title":"The Shasta Triangle","year":"2019-12-03","translations":["Любительский (многоголосый закадровый) (Синема УС)"],"quality":"webdl","translation":"Любительский (многоголосый закадровый) (Синема УС)","update":"2019-12-04 16:44:28","iframe_src":"//8332.svetacdn.in/71tsRs29n5tZ/movie/33699"},{"id":33695,"title":"Каменный дождь","kp_id":"423076","imdb_id":"tt1285162","world_art_id":null,"type":"movie","add":"2019-12-04 11:23:15","orig_title":"Fall of Hyperion","year":"2008-10-10","translations":["Профессиональный (многоголосый закадровый)"],"quality":"dvdrip","translation":"Профессиональный (многоголосый закадровый)","update":"2019-12-04 19:07:52","iframe_src":"//8332.svetacdn.in/71tsRs29n5tZ/movie/33695"},{"id":33694,"title":"Молния: Смертельный разряд","kp_id":"48999","imdb_id":"tt0347411","world_art_id":null,"type":"movie","add":"2019-12-04 11:21:11","orig_title":"Lightning: Bolts of Destruction","year":"2003-12-10","translations":["Профессиональный (многоголосый закадровый)"],"quality":"dvdrip","translation":"Профессиональный (многоголосый закадровый)","update":"2019-12-04 19:07:10","iframe_src":"//8332.svetacdn.in/71tsRs29n5tZ/movie/33694"},{"id":33688,"title":"Шпионаж","kp_id":"873898","imdb_id":"tt3652142","world_art_id":null,"type":"movie","add":"2019-12-03 20:49:54","orig_title":"Espionage Tonight","year":"2017-06-08","translations":["Любительский (многоголосый закадровый) (Синема УС)"],"quality":"webdl","translation":"Любительский (многоголосый закадровый) (Синема УС)","update":"2019-12-04 07:47:40","iframe_src":"//8332.svetacdn.in/71tsRs29n5tZ/movie/33688"},{"id":33687,"title":"Арестант no name","kp_id":"1005364","imdb_id":"tt6071092","world_art_id":null,"type":"movie","add":"2019-12-03 20:47:55","orig_title":"Imprisoned","year":"2018-10-25","translations":["Профессиональный (многоголосый закадровый)"],"quality":"webdl","translation":"Профессиональный (многоголосый закадровый)","update":"2019-12-04 07:38:18","iframe_src":"//8332.svetacdn.in/71tsRs29n5tZ/movie/33687"},{"id":33673,"title":"Спаркс","kp_id":"666979","imdb_id":"tt2234429","world_art_id":null,"type":"movie","add":"2019-12-03 18:29:38","orig_title":"Sparks","year":"2013-03-01","translations":["Любительский (двухголосый закадровый)"],"quality":"bd","translation":"Любительский (двухголосый закадровый)","update":"2019-12-04 18:55:50","iframe_src":"//8332.svetacdn.in/71tsRs29n5tZ/movie/33673"},{"id":33654,"title":"Принцы воздуха","kp_id":"194099","imdb_id":"tt0470982","world_art_id":null,"type":"movie","add":"2019-12-03 17:03:50","orig_title":"Air Buddies","year":"2006-12-12","translations":["Профессиональный (многоголосый закадровый)"],"quality":"dvdrip","translation":"Профессиональный (многоголосый закадровый)","update":"2019-12-04 05:20:20","iframe_src":"//8332.svetacdn.in/71tsRs29n5tZ/movie/33654"},{"id":33650,"title":"Автора! Автора!","kp_id":"4877","imdb_id":"tt0083598","world_art_id":null,"type":"movie","add":"2019-12-03 15:10:56","orig_title":"Author! Author!","year":"1982-06-18","translations":["Профессиональный (многоголосый закадровый)"],"quality":"dvdrip","translation":"Профессиональный (многоголосый закадровый)","update":"2019-12-04 05:21:21","iframe_src":"//8332.svetacdn.in/71tsRs29n5tZ/movie/33650"},{"id":33636,"title":"Фредди Меркьюри. Великий притворщик","kp_id":"722399","imdb_id":"tt2471626","world_art_id":null,"type":"movie","add":"2019-12-03 12:20:06","orig_title":"Freddie Mercury: The Great Pretender","year":"2012-09-24","translations":["Полное дублирование"],"quality":"hdtv","translation":"Полное дублирование","update":"2019-12-04 11:04:11","iframe_src":"//8332.svetacdn.in/71tsRs29n5tZ/movie/33636"},{"id":32692,"title":"Гремучая змея","kp_id":"1215131","imdb_id":"tt9257484","world_art_id":null,"type":"movie","add":"2019-11-04 13:45:50","orig_title":"Rattlesnake","year":"2019-10-24","translations":["Любительский (двухголосый закадровый) (LakeFilms)","Original (English)","Любительский (многоголосый закадровый) (Синема УС)"],"quality":"webdl","translation":"Любительский (двухголосый закадровый) (LakeFilms)","update":"2019-12-04 19:06:30","iframe_src":"//8332.svetacdn.in/71tsRs29n5tZ/movie/32692"},{"id":26206,"title":"Смертельные игрушки","kp_id":"1255700","imdb_id":"tt10078894","world_art_id":null,"type":"movie","add":"2019-05-09 19:58:18","orig_title":"Deadly Playthings","year":"2019-05-08","translations":["Любительский (многоголосый закадровый) (Синема УС)"],"quality":"webdl","translation":"Любительский (многоголосый закадровый) (Синема УС)","update":"2019-12-04 13:02:13","iframe_src":"//8332.svetacdn.in/71tsRs29n5tZ/movie/26206"}],"current_page":1056,"first_page_url":"https://videocdn.tv/api/short?limit=100&api_token=EnbO9h8pv1VyjbCJhg0WM9nG259n7mtz&cache31056=31056&page=1","from":105501,"last_page":633,"last_page_url":"https://videocdn.tv/api/short?limit=100&api_token=EnbO9h8pv1VyjbCJhg0WM9nG259n7mtz&cache31056=31056&page=633","next_page_url":null,"path":"https://videocdn.tv/api/short","per_page":100,"prev_page_url":"https://videocdn.tv/api/short?limit=100&api_token=EnbO9h8pv1VyjbCJhg0WM9nG259n7mtz&cache31056=31056&page=1055","to":105520,"total":63281}