{"result":true,"data":[{"id":48133,"title":"Один против якудза","kp_id":"93916","imdb_id":"tt0117978","world_art_id":null,"type":"movie","add":"2021-02-21 22:40:27","orig_title":"True Vengeance","year":"1997-02-14","translations":["Профессиональный (двухголосый закадровый) (Варус-Видео)"],"quality":"dvdrip","translation":"Профессиональный (двухголосый закадровый) (Варус-Видео)","update":"2021-02-22 08:04:19","iframe_src":"//8209.svetacdn.in/si4jsFRrtgrT/movie/48133"},{"id":48132,"title":"Душа как красная икра","kp_id":"253803","imdb_id":"tt0775461","world_art_id":null,"type":"movie","add":"2021-02-21 22:32:55","orig_title":"Destová víla","year":"2010-02-11","translations":["Профессиональный (двухголосый закадровый) (Детский)"],"quality":"hdtv","translation":"Профессиональный (двухголосый закадровый) (Детский)","update":"2021-02-22 08:02:49","iframe_src":"//8209.svetacdn.in/si4jsFRrtgrT/movie/48132"},{"id":48130,"title":"Слишком свободный человек","kp_id":"1008664","imdb_id":"tt6273862","world_art_id":null,"type":"movie","add":"2021-02-21 21:35:36","orig_title":"Slishkom svobodnyy chelovek","year":"2016-12-03","translations":["Оригинальная дорожка"],"quality":"webdl","translation":"Оригинальная дорожка","update":"2021-02-22 08:09:42","iframe_src":"//8209.svetacdn.in/si4jsFRrtgrT/movie/48130"},{"id":48129,"title":"Ловушка","kp_id":"420404","imdb_id":null,"world_art_id":null,"type":"movie","add":"2021-02-21 21:32:00","orig_title":"Ловушка","year":"2007-01-01","translations":["Оригинальная дорожка"],"quality":"dvdrip","translation":"Оригинальная дорожка","update":"2021-02-22 08:11:49","iframe_src":"//8209.svetacdn.in/si4jsFRrtgrT/movie/48129"},{"id":48128,"title":"Безликие","kp_id":"58056","imdb_id":"tt0095125","world_art_id":null,"type":"movie","add":"2021-02-21 21:21:24","orig_title":"Faceless","year":"1987-09-01","translations":["Авторский (одноголосый закадровый) (Сонькин Владимир)"],"quality":"dvdrip","translation":"Авторский (одноголосый закадровый) (Сонькин Владимир)","update":"2021-02-22 08:13:01","iframe_src":"//8209.svetacdn.in/si4jsFRrtgrT/movie/48128"},{"id":48127,"title":"Микс кебаб","kp_id":"486638","imdb_id":"tt1301308","world_art_id":null,"type":"movie","add":"2021-02-21 19:34:38","orig_title":"Mixed Kebab","year":"2012-02-29","translations":["Авторский (одноголосый закадровый) (Кошкин Василий)"],"quality":"dvdrip","translation":"Авторский (одноголосый закадровый) (Кошкин Василий)","update":"2021-02-22 08:13:56","iframe_src":"//8209.svetacdn.in/si4jsFRrtgrT/movie/48127"},{"id":48126,"title":"Будь, что будет","kp_id":"197105","imdb_id":"tt0470614","world_art_id":null,"type":"movie","add":"2021-02-21 18:22:16","orig_title":"Yun Hota Toh Kya Hota","year":"2006-07-19","translations":["Профессиональный (многоголосый закадровый)"],"quality":"dvdrip","translation":"Профессиональный (многоголосый закадровый)","update":"2021-02-22 08:05:47","iframe_src":"//8209.svetacdn.in/si4jsFRrtgrT/movie/48126"},{"id":48125,"title":"Эль Роуз","kp_id":"1304859","imdb_id":"tt10737860","world_art_id":null,"type":"movie","add":"2021-02-21 18:13:26","orig_title":"Elle Rose","year":"2021-01-30","translations":["Любительский (многоголосый закадровый) (Синема УС)"],"quality":"webdl","translation":"Любительский (многоголосый закадровый) (Синема УС)","update":"2021-02-22 07:59:39","iframe_src":"//8209.svetacdn.in/si4jsFRrtgrT/movie/48125"},{"id":48124,"title":"Фассбиндер","kp_id":"1297843","imdb_id":"tt10855798","world_art_id":null,"type":"movie","add":"2021-02-21 17:16:26","orig_title":"Enfant Terrible","year":"2020-09-24","translations":["Профессиональный (многоголосый закадровый)"],"quality":"webdl","translation":"Профессиональный (многоголосый закадровый)","update":"2021-02-22 07:57:54","iframe_src":"//8209.svetacdn.in/si4jsFRrtgrT/movie/48124"},{"id":48123,"title":"От меча и погибнет","kp_id":"1398989","imdb_id":"tt12484058","world_art_id":null,"type":"movie","add":"2021-02-21 17:13:51","orig_title":"Die by the Sword","year":"2020-10-06","translations":["Любительский (многоголосый закадровый) (@MUZOBOZ@)"],"quality":"webdl","translation":"Любительский (многоголосый закадровый) (@MUZOBOZ@)","update":"2021-02-22 07:56:24","iframe_src":"//8209.svetacdn.in/si4jsFRrtgrT/movie/48123"},{"id":48122,"title":"Выходные честности","kp_id":"1253485","imdb_id":"tt10131028","world_art_id":null,"type":"movie","add":"2021-02-21 17:04:18","orig_title":"Honesty Weekend","year":"2020-03-14","translations":["Любительский (многоголосый закадровый) (@MUZOBOZ@)"],"quality":"webdl","translation":"Любительский (многоголосый закадровый) (@MUZOBOZ@)","update":"2021-02-22 08:01:00","iframe_src":"//8209.svetacdn.in/si4jsFRrtgrT/movie/48122"},{"id":48121,"title":"Однажды в Тумстоуне","kp_id":"1445450","imdb_id":"tt13374182","world_art_id":null,"type":"movie","add":"2021-02-21 16:56:57","orig_title":"Once Upon a Time in Tombstone","year":"2021-02-16","translations":["Любительский (многоголосый закадровый) (Синема УС)"],"quality":"webdl","translation":"Любительский (многоголосый закадровый) (Синема УС)","update":"2021-02-22 05:20:35","iframe_src":"//8209.svetacdn.in/si4jsFRrtgrT/movie/48121"},{"id":48120,"title":"Перемены","kp_id":"1094455","imdb_id":"tt7029534","world_art_id":null,"type":"movie","add":"2021-02-21 16:49:25","orig_title":"Things Don't Stay Fixed","year":"2021-02-12","translations":["Любительский (многоголосый закадровый) (Синема УС)"],"quality":"webdl","translation":"Любительский (многоголосый закадровый) (Синема УС)","update":"2021-02-22 05:22:06","iframe_src":"//8209.svetacdn.in/si4jsFRrtgrT/movie/48120"},{"id":48119,"title":"Кошерный поцелуй","kp_id":"1210006","imdb_id":"tt7698982","world_art_id":null,"type":"movie","add":"2021-02-21 16:44:47","orig_title":"Kiss Me Before It Blows Up","year":"2020-09-07","translations":["Любительский (многоголосый закадровый) (Синема УС)"],"quality":"webdl","translation":"Любительский (многоголосый закадровый) (Синема УС)","update":"2021-02-22 05:19:26","iframe_src":"//8209.svetacdn.in/si4jsFRrtgrT/movie/48119"},{"id":48116,"title":"Плохой Купидон","kp_id":"1325140","imdb_id":"tt11333938","world_art_id":null,"type":"movie","add":"2021-02-21 16:34:27","orig_title":"Bad Cupid","year":"2021-02-12","translations":["Любительский (многоголосый закадровый) (Синема УС)"],"quality":"webdl","translation":"Любительский (многоголосый закадровый) (Синема УС)","update":"2021-02-22 05:18:14","iframe_src":"//8209.svetacdn.in/si4jsFRrtgrT/movie/48116"},{"id":48112,"title":"Запретные шаги","kp_id":"1143970","imdb_id":"tt4578102","world_art_id":null,"type":"movie","add":"2021-02-21 16:11:42","orig_title":"I'll Meet You There","year":"2020-08-15","translations":["Любительский (многоголосый закадровый) (Синема УС)"],"quality":"webdl","translation":"Любительский (многоголосый закадровый) (Синема УС)","update":"2021-02-22 05:15:58","iframe_src":"//8209.svetacdn.in/si4jsFRrtgrT/movie/48112"},{"id":48093,"title":"Мёртвая частота","kp_id":"1426341","imdb_id":"tt12262224","world_art_id":null,"type":"movie","add":"2021-02-21 08:40:25","orig_title":"Dead Air","year":"2021-02-19","translations":["Любительский (многоголосый закадровый) (AlphaProject)"],"quality":"webdl","translation":"Любительский (многоголосый закадровый) (AlphaProject)","update":"2021-02-22 09:24:12","iframe_src":"//8209.svetacdn.in/si4jsFRrtgrT/movie/48093"},{"id":48092,"title":"Отвези меня в Тарзану","kp_id":"1258981","imdb_id":"tt10188398","world_art_id":null,"type":"movie","add":"2021-02-21 08:38:33","orig_title":"Take Me to Tarzana","year":"2021-02-19","translations":["Любительский (многоголосый закадровый) (Синема УС)"],"quality":"webdl","translation":"Любительский (многоголосый закадровый) (Синема УС)","update":"2021-02-22 09:24:44","iframe_src":"//8209.svetacdn.in/si4jsFRrtgrT/movie/48092"},{"id":48088,"title":"Паранормальная тюрьма","kp_id":"1232713","imdb_id":"tt9013780","world_art_id":null,"type":"movie","add":"2021-02-21 08:07:05","orig_title":"Paranormal Prison","year":"2021-02-19","translations":["Любительский (многоголосый закадровый) (Синема УС)"],"quality":"webdl","translation":"Любительский (многоголосый закадровый) (Синема УС)","update":"2021-02-22 09:23:30","iframe_src":"//8209.svetacdn.in/si4jsFRrtgrT/movie/48088"},{"id":48085,"title":"Жестокое сердце","kp_id":"1231026","imdb_id":"tt8310476","world_art_id":null,"type":"movie","add":"2021-02-21 08:00:06","orig_title":"The Violent Heart","year":"2021-02-19","translations":["Любительский (многоголосый закадровый) (Синема УС)"],"quality":"webdl","translation":"Любительский (многоголосый закадровый) (Синема УС)","update":"2021-02-22 09:21:18","iframe_src":"//8209.svetacdn.in/si4jsFRrtgrT/movie/48085"},{"id":4314,"title":"Моя семья и другие животные","kp_id":"464914","imdb_id":"tt0166450","world_art_id":null,"type":"serial","add":"2019-03-25 23:43:09","orig_title":"My Family and Other Animals","year":"1987-10-17","translations":["Профессиональный (многоголосый закадровый)"],"seasons_count":1,"episodes_count":10,"episodes":10,"update":"2019-03-26 04:30:58","iframe_src":"//8209.svetacdn.in/si4jsFRrtgrT/tv-series/4314"},{"id":4306,"title":"Тишина","kp_id":"567093","imdb_id":"tt1568202","world_art_id":null,"type":"serial","add":"2019-03-23 06:39:55","orig_title":"The Silence","year":"2010-07-12","translations":["Профессиональный (многоголосый закадровый) (ShowJet)"],"seasons_count":1,"episodes_count":4,"episodes":4,"update":"2019-03-25 07:10:02","iframe_src":"//8209.svetacdn.in/si4jsFRrtgrT/tv-series/4306"},{"id":4305,"title":"Под Большой медведицей","kp_id":"423002","imdb_id":"tt4394024","world_art_id":null,"type":"serial","add":"2019-03-23 06:36:27","orig_title":"Pod Bolshoy medveditsey","year":"2006-01-01","translations":["Оригинальная дорожка"],"seasons_count":1,"episodes_count":8,"episodes":8,"update":"2019-03-25 14:39:20","iframe_src":"//8209.svetacdn.in/si4jsFRrtgrT/tv-series/4305"},{"id":4302,"title":"Один единственный и навсегда","kp_id":"592442","imdb_id":null,"world_art_id":null,"type":"serial","add":"2019-03-23 06:21:04","orig_title":"Один единственный и навсегда","year":"2011-06-25","translations":["Оригинальная дорожка"],"seasons_count":1,"episodes_count":4,"episodes":4,"update":"2019-03-23 08:31:52","iframe_src":"//8209.svetacdn.in/si4jsFRrtgrT/tv-series/4302"},{"id":4301,"title":"Жизнь, по слухам, одна","kp_id":"1045961","imdb_id":null,"world_art_id":null,"type":"serial","add":"2019-03-23 06:19:00","orig_title":"Жизнь, по слухам, одна","year":"2017-06-10","translations":["Оригинальная дорожка"],"seasons_count":1,"episodes_count":4,"episodes":4,"update":"2019-03-23 08:30:12","iframe_src":"//8209.svetacdn.in/si4jsFRrtgrT/tv-series/4301"},{"id":4297,"title":"Мой генерал","kp_id":"396480","imdb_id":null,"world_art_id":null,"type":"serial","add":"2019-03-22 11:37:36","orig_title":"Мой генерал","year":"2010-04-15","translations":["Оригинальная дорожка"],"seasons_count":1,"episodes_count":8,"episodes":8,"update":"2019-03-22 15:24:23","iframe_src":"//8209.svetacdn.in/si4jsFRrtgrT/tv-series/4297"},{"id":4296,"title":"Запасной инстинкт","kp_id":"419118","imdb_id":null,"world_art_id":null,"type":"serial","add":"2019-03-22 11:35:12","orig_title":"Запасной инстинкт","year":"2006-06-13","translations":["Оригинальная дорожка"],"seasons_count":1,"episodes_count":4,"episodes":4,"update":"2019-03-22 15:19:41","iframe_src":"//8209.svetacdn.in/si4jsFRrtgrT/tv-series/4296"},{"id":4295,"title":"Развод и девичья фамилия","kp_id":"256144","imdb_id":null,"world_art_id":null,"type":"serial","add":"2019-03-22 11:29:25","orig_title":"Развод и девичья фамилия","year":"2006-06-08","translations":["Оригинальная дорожка"],"seasons_count":1,"episodes_count":5,"episodes":5,"update":"2019-03-22 17:46:53","iframe_src":"//8209.svetacdn.in/si4jsFRrtgrT/tv-series/4295"},{"id":4294,"title":"Подруга особого назначения","kp_id":"418674","imdb_id":"tt6462028","world_art_id":null,"type":"serial","add":"2019-03-22 11:26:42","orig_title":"Podruga osobogo naznacheniya","year":"2005-06-30","translations":["Оригинальная дорожка"],"seasons_count":1,"episodes_count":4,"episodes":4,"update":"2019-03-22 13:56:34","iframe_src":"//8209.svetacdn.in/si4jsFRrtgrT/tv-series/4294"},{"id":4293,"title":"Миф об идеальном мужчине","kp_id":"419417","imdb_id":null,"world_art_id":null,"type":"serial","add":"2019-03-22 11:25:01","orig_title":"Миф об идеальном мужчине","year":"2005-08-11","translations":["Оригинальная дорожка"],"seasons_count":1,"episodes_count":2,"episodes":2,"update":"2019-03-22 13:54:14","iframe_src":"//8209.svetacdn.in/si4jsFRrtgrT/tv-series/4293"},{"id":4292,"title":"Обиженные цветы","kp_id":"947470","imdb_id":"tt5224200","world_art_id":null,"type":"serial","add":"2019-03-20 19:15:29","orig_title":"Kirgin Çiçekler","year":"2015-06-29","translations":["Любительский (одноголосый закадровый)"],"seasons_count":3,"episodes_count":111,"episodes":23,"update":"2019-03-25 14:27:00","iframe_src":"//8209.svetacdn.in/si4jsFRrtgrT/tv-series/4292"},{"id":4291,"title":"Гетто","kp_id":"401157","imdb_id":"tt0373732","world_art_id":null,"type":"serial","add":"2019-03-20 15:01:53","orig_title":"The Boondocks","year":"2005-11-06","translations":["Профессиональный (многоголосый закадровый)","Профессиональный (многоголосый закадровый) (2x2)","Любительский (многоголосый закадровый)"],"seasons_count":4,"episodes_count":55,"episodes":10,"update":"2019-03-25 17:52:53","iframe_src":"//8209.svetacdn.in/si4jsFRrtgrT/tv-series/4291"},{"id":4290,"title":"Звезда, покорившая Луну 2","kp_id":null,"imdb_id":"tt6481634","world_art_id":null,"type":"serial","add":"2019-03-20 14:51:08","orig_title":"Dao Kiang Duen","year":"2014-01-01","translations":["Любительский (одноголосый закадровый) (Julia Prosenuk)"],"seasons_count":1,"episodes_count":14,"episodes":14,"update":"2019-03-22 11:20:57","iframe_src":"//8209.svetacdn.in/si4jsFRrtgrT/tv-series/4290"},{"id":4289,"title":"За любовью на край света","kp_id":"1105217","imdb_id":null,"world_art_id":null,"type":"serial","add":"2019-03-20 14:46:02","orig_title":"Lah Ruk Sut Kob Fah","year":"2014-07-24","translations":["Любительский (одноголосый закадровый) (Julia Prosenuk)"],"seasons_count":1,"episodes_count":20,"episodes":20,"update":"2019-03-22 11:01:34","iframe_src":"//8209.svetacdn.in/si4jsFRrtgrT/tv-series/4289"},{"id":4287,"title":"Ангелы в Америке","kp_id":"103151","imdb_id":"tt0318997","world_art_id":null,"type":"serial","add":"2019-03-20 11:53:08","orig_title":"Angels in America","year":"2003-12-08","translations":["Профессиональный (многоголосый закадровый)"],"seasons_count":1,"episodes_count":6,"episodes":6,"update":"2019-03-22 11:27:55","iframe_src":"//8209.svetacdn.in/si4jsFRrtgrT/tv-series/4287"},{"id":4283,"title":"Пули","kp_id":"1157312","imdb_id":"tt7867522","world_art_id":null,"type":"serial","add":"2019-03-18 13:50:06","orig_title":"Bullets","year":"2018-10-19","translations":["Профессиональный (многоголосый закадровый) (Кравец)","Профессиональный (многоголосый закадровый) (Amedia)"],"seasons_count":1,"episodes_count":10,"episodes":10,"update":"2019-03-26 08:10:35","iframe_src":"//8209.svetacdn.in/si4jsFRrtgrT/tv-series/4283"},{"id":4274,"title":"Маримар","kp_id":"260953","imdb_id":"tt0130410","world_art_id":null,"type":"serial","add":"2019-03-17 21:54:24","orig_title":"Marimar","year":"1994-01-31","translations":["Любительский (одноголосый закадровый)"],"seasons_count":1,"episodes_count":3,"episodes":3,"update":"2019-03-21 20:25:46","iframe_src":"//8209.svetacdn.in/si4jsFRrtgrT/tv-series/4274"},{"id":4248,"title":"Шифр","kp_id":"1108411","imdb_id":null,"world_art_id":null,"type":"serial","add":"2019-03-12 16:09:52","orig_title":"Шифр","year":"2019-03-11","translations":["Оригинальная дорожка"],"seasons_count":1,"episodes_count":16,"episodes":16,"update":"2019-03-23 07:42:27","iframe_src":"//8209.svetacdn.in/si4jsFRrtgrT/tv-series/4248"},{"id":1028,"title":"Близкие люди","kp_id":"418906","imdb_id":null,"world_art_id":null,"type":"serial","add":"2017-02-17 09:11:03","orig_title":"Близкие люди","year":"2006-05-25","translations":["Оригинальная дорожка"],"seasons_count":1,"episodes_count":4,"episodes":4,"update":"2019-03-22 13:59:11","iframe_src":"//8209.svetacdn.in/si4jsFRrtgrT/tv-series/1028"},{"id":864,"title":"Свеча в гробнице","kp_id":"1008631","imdb_id":"tt6413278","world_art_id":null,"type":"serial","add":"2017-01-11 09:39:21","orig_title":"Gui chuideng zhi jing jue gucheng","year":"2016-12-19","translations":["Любительский (двухголосый закадровый) (Victory-Films)"],"seasons_count":1,"episodes_count":21,"episodes":21,"update":"2019-03-25 04:49:33","iframe_src":"//8209.svetacdn.in/si4jsFRrtgrT/tv-series/864"}],"current_page":412,"first_page_url":"https://videocdn.tv/api/short?limit=100&api_token=X6EwAUfE5M9xbo7y0Bp0aPf3uXxG2KLL&cache3412=3412&page=1","from":41101,"last_page":663,"last_page_url":"https://videocdn.tv/api/short?limit=100&api_token=X6EwAUfE5M9xbo7y0Bp0aPf3uXxG2KLL&cache3412=3412&page=663","next_page_url":"https://videocdn.tv/api/short?limit=100&api_token=X6EwAUfE5M9xbo7y0Bp0aPf3uXxG2KLL&cache3412=3412&page=413","path":"https://videocdn.tv/api/short","per_page":100,"prev_page_url":"https://videocdn.tv/api/short?limit=100&api_token=X6EwAUfE5M9xbo7y0Bp0aPf3uXxG2KLL&cache3412=3412&page=411","to":41140,"total":66262}