{"result":true,"data":[{"id":54290,"title":"Знаменитый бигфут","kp_id":"4631306","imdb_id":"tt15006276","world_art_id":null,"type":"movie","add":"2021-11-04 06:43:39","orig_title":"Bigfoot Famous","year":"2021-11-02","translations":["Любительский (многоголосый закадровый) (Синема УС)"],"quality":"webdl","translation":"Любительский (многоголосый закадровый) (Синема УС)","update":"2021-11-04 11:19:29","iframe_src":"//24213.svetacdn.in/71tsRs29n5tZ/movie/54290"},{"id":54288,"title":"Зажигательный Иисус","kp_id":"1175158","imdb_id":"tt8666022","world_art_id":null,"type":"movie","add":"2021-11-04 06:36:40","orig_title":"Electric Jesus","year":"2021-11-02","translations":["Любительский (многоголосый закадровый) (Синема УС)"],"quality":"webdl","translation":"Любительский (многоголосый закадровый) (Синема УС)","update":"2021-11-04 12:23:55","iframe_src":"//24213.svetacdn.in/71tsRs29n5tZ/movie/54288"},{"id":54287,"title":"Изоляция","kp_id":"1402197","imdb_id":"tt12712710","world_art_id":null,"type":"movie","add":"2021-11-04 06:35:21","orig_title":"Isolation","year":"2021-11-02","translations":["Любительский (многоголосый закадровый) (@MUZOBOZ@)"],"quality":"webdl","translation":"Любительский (многоголосый закадровый) (@MUZOBOZ@)","update":"2021-11-04 12:23:27","iframe_src":"//24213.svetacdn.in/71tsRs29n5tZ/movie/54287"},{"id":54286,"title":"Ночь в отеле «Игл инн»","kp_id":"4512016","imdb_id":"tt13828966","world_art_id":null,"type":"movie","add":"2021-11-04 06:34:09","orig_title":"Night at the Eagle Inn","year":"2021-11-02","translations":["Любительский (многоголосый закадровый) (Синема УС)"],"quality":"webdl","translation":"Любительский (многоголосый закадровый) (Синема УС)","update":"2021-11-04 11:19:18","iframe_src":"//24213.svetacdn.in/71tsRs29n5tZ/movie/54286"},{"id":54278,"title":"Мастера го","kp_id":"47715","imdb_id":"tt0089594","world_art_id":null,"type":"movie","add":"2021-11-04 06:05:48","orig_title":"Mikan no taikyoku","year":"1982-09-15","translations":["Любительский (одноголосый закадровый) (iDimo)"],"quality":"bd","translation":"Любительский (одноголосый закадровый) (iDimo)","update":"2021-11-04 12:48:48","iframe_src":"//24213.svetacdn.in/71tsRs29n5tZ/movie/54278"},{"id":54277,"title":"Дальнобойщики 3","kp_id":"222747","imdb_id":"tt0360089","world_art_id":null,"type":"movie","add":"2021-11-04 05:55:21","orig_title":"Torakku yarô: Bôkyô Ichibanboshi","year":"1976-08-07","translations":["Любительский (одноголосый закадровый) (Береговых Виктор | Jet)"],"quality":"bd","translation":"Любительский (одноголосый закадровый) (Береговых Виктор | Jet)","update":"2021-11-04 11:17:19","iframe_src":"//24213.svetacdn.in/71tsRs29n5tZ/movie/54277"},{"id":54276,"title":"Крути бутылочку","kp_id":"60141","imdb_id":"tt0131596","world_art_id":null,"type":"movie","add":"2021-11-03 17:29:24","orig_title":"Spin the Bottle","year":"1998-10-02","translations":["Авторский (одноголосый закадровый) (Алексеев Антон)"],"quality":"dvdrip","translation":"Авторский (одноголосый закадровый) (Алексеев Антон)","update":"2021-11-04 07:36:02","iframe_src":"//24213.svetacdn.in/71tsRs29n5tZ/movie/54276"},{"id":54275,"title":"Красный Желтый Розовый","kp_id":"1268861","imdb_id":"tt10254662","world_art_id":null,"type":"movie","add":"2021-11-03 16:11:52","orig_title":"Red Yellow Pink","year":"2020-09-30","translations":["Любительский (одноголосый закадровый)"],"quality":"webdl","translation":"Любительский (одноголосый закадровый)","update":"2021-11-04 07:37:43","iframe_src":"//24213.svetacdn.in/71tsRs29n5tZ/movie/54275"},{"id":54273,"title":"Штормовое предупреждение","kp_id":"308840","imdb_id":"tt0983922","world_art_id":null,"type":"movie","add":"2021-11-03 13:03:06","orig_title":"Storm Cell","year":"2008-03-19","translations":["Профессиональный (многоголосый закадровый)"],"quality":"dvdrip","translation":"Профессиональный (многоголосый закадровый)","update":"2021-11-03 13:51:39","iframe_src":"//24213.svetacdn.in/71tsRs29n5tZ/movie/54273"},{"id":54272,"title":"Перед дождем","kp_id":"19049","imdb_id":"tt0110882","world_art_id":null,"type":"movie","add":"2021-11-03 06:03:40","orig_title":"Pred dozhdot","year":"1994-09-01","translations":["Авторский (одноголосый закадровый) (Иванов Михаил)","Профессиональный (двухголосый закадровый) (ТВЦ)"],"quality":"bd","translation":"Авторский (одноголосый закадровый) (Иванов Михаил)","update":"2021-11-03 15:41:05","iframe_src":"//24213.svetacdn.in/71tsRs29n5tZ/movie/54272"},{"id":54270,"title":"Девушки с разворотов","kp_id":"195409","imdb_id":"tt0071295","world_art_id":null,"type":"movie","add":"2021-11-03 05:35:09","orig_title":"The Centerfold Girls","year":"1974-05-17","translations":["Любительский (одноголосый закадровый) (Sephiroth)","[EN] Original (English)"],"quality":"bd","translation":"Любительский (одноголосый закадровый) (Sephiroth)","update":"2021-11-03 10:41:33","iframe_src":"//24213.svetacdn.in/71tsRs29n5tZ/movie/54270"},{"id":53472,"title":"Так Джагадиш","kp_id":"1328691","imdb_id":"tt11385078","world_art_id":null,"type":"movie","add":"2021-09-28 08:47:18","orig_title":"Tuck Jagadish","year":"2021-09-10","translations":["Любительский (многоголосый закадровый) (Синема УС)","Любительский (многоголосый закадровый) (LovelyVox)"],"quality":"webdl","translation":"Любительский (многоголосый закадровый) (Синема УС)","update":"2021-11-03 10:36:52","iframe_src":"//24213.svetacdn.in/71tsRs29n5tZ/movie/53472"},{"id":53431,"title":"Маленькая мама","kp_id":"1435980","imdb_id":"tt13204490","world_art_id":null,"type":"movie","add":"2021-09-26 21:28:05","orig_title":"Petite maman","year":"2021-06-02","translations":["Любительский (многоголосый закадровый) (Синема УС)","Профессиональный (многоголосый закадровый) (Позитив)"],"quality":"webdl","translation":"Любительский (многоголосый закадровый) (Синема УС)","update":"2021-11-04 07:52:16","iframe_src":"//24213.svetacdn.in/71tsRs29n5tZ/movie/53431"},{"id":50364,"title":"Медовый месяц в Иерусалиме","kp_id":"1356424","imdb_id":"tt11905730","world_art_id":null,"type":"movie","add":"2021-05-13 08:42:27","orig_title":"Honeymood","year":"2021-04-15","translations":["Любительский (многоголосый закадровый) (Синема УС)","Полное дублирование (Позитив)"],"quality":"webdl","translation":"Любительский (многоголосый закадровый) (Синема УС)","update":"2021-11-04 11:15:40","iframe_src":"//24213.svetacdn.in/71tsRs29n5tZ/movie/50364"},{"id":38462,"title":"Фильм со мной в главной роли","kp_id":"398292","imdb_id":"tt1139319","world_art_id":null,"type":"movie","add":"2020-03-24 17:12:27","orig_title":"A Film with Me in It","year":"2008-06-26","translations":["Профессиональный (двухголосый закадровый)","[EN] Original (English)","Любительский (одноголосый закадровый) (Палата №6 | knopf)"],"quality":"bd","translation":"Профессиональный (двухголосый закадровый)","update":"2021-11-03 10:46:27","iframe_src":"//24213.svetacdn.in/71tsRs29n5tZ/movie/38462"},{"id":5259,"title":"В воскресенье рано зелье копала","kp_id":"1252967","imdb_id":null,"world_art_id":null,"type":"serial","add":"2019-09-20 12:44:06","orig_title":"В воскресенье рано зелье копала","year":"2019-02-11","translations":["Оригинальная дорожка"],"seasons_count":1,"episodes_count":24,"episodes":24,"update":"2019-09-20 19:57:16","iframe_src":"//24213.svetacdn.in/71tsRs29n5tZ/tv-series/5259"},{"id":5257,"title":"Чудеса на виражах","kp_id":"94673","imdb_id":"tt0098924","world_art_id":null,"type":"serial","add":"2019-09-20 11:16:17","orig_title":"TaleSpin","year":"1990-09-07","translations":["Полное дублирование"],"seasons_count":1,"episodes_count":65,"episodes":65,"update":"2019-09-23 12:15:29","iframe_src":"//24213.svetacdn.in/71tsRs29n5tZ/tv-series/5257"},{"id":5249,"title":"Запретная любовь","kp_id":"491522","imdb_id":"tt1286677","world_art_id":null,"type":"serial","add":"2019-09-19 12:25:30","orig_title":"Ask-i Memnu","year":"2008-09-04","translations":["Профессиональный (двухголосый закадровый)"],"seasons_count":2,"episodes_count":79,"episodes":41,"update":"2019-09-23 10:43:56","iframe_src":"//24213.svetacdn.in/71tsRs29n5tZ/tv-series/5249"},{"id":5246,"title":"Ни за что не сдамся","kp_id":"1045908","imdb_id":null,"world_art_id":null,"type":"serial","add":"2019-09-19 11:56:45","orig_title":"Ни за что не сдамся","year":"2017-11-18","translations":["Оригинальная дорожка"],"seasons_count":1,"episodes_count":2,"episodes":2,"update":"2019-09-24 08:10:02","iframe_src":"//24213.svetacdn.in/71tsRs29n5tZ/tv-series/5246"},{"id":5244,"title":"Двенадцать чудес","kp_id":"1045035","imdb_id":"tt9513654","world_art_id":null,"type":"serial","add":"2019-09-19 11:50:34","orig_title":"Dvenadtsat chudes","year":"2017-10-13","translations":["Оригинальная дорожка"],"seasons_count":1,"episodes_count":2,"episodes":2,"update":"2019-09-24 07:16:22","iframe_src":"//24213.svetacdn.in/71tsRs29n5tZ/tv-series/5244"},{"id":5243,"title":"Ты – моя жизнь","kp_id":"256512","imdb_id":"tt0482439","world_art_id":null,"type":"serial","add":"2019-09-19 11:07:01","orig_title":"Sos mi vida","year":"2006-01-16","translations":["Профессиональный (многоголосый закадровый)"],"seasons_count":1,"episodes_count":230,"episodes":230,"update":"2019-09-20 21:18:43","iframe_src":"//24213.svetacdn.in/71tsRs29n5tZ/tv-series/5243"},{"id":5242,"title":"Сияй или сойди с ума","kp_id":"888206","imdb_id":"tt4412610","world_art_id":null,"type":"serial","add":"2019-09-19 10:43:35","orig_title":"Bitnageona Michigeona","year":"2015-01-19","translations":["Любительский (одноголосый закадровый) (GREEN TEA)"],"seasons_count":1,"episodes_count":24,"episodes":24,"update":"2019-09-19 20:36:47","iframe_src":"//24213.svetacdn.in/71tsRs29n5tZ/tv-series/5242"},{"id":5240,"title":"Последний тамплиер","kp_id":"454305","imdb_id":"tt1197580","world_art_id":null,"type":"serial","add":"2019-09-19 07:09:57","orig_title":"The Last Templar","year":"2009-01-26","translations":["Профессиональный (многоголосый закадровый) (ТВ3)"],"seasons_count":1,"episodes_count":2,"episodes":2,"update":"2019-09-24 07:12:52","iframe_src":"//24213.svetacdn.in/71tsRs29n5tZ/tv-series/5240"},{"id":5239,"title":"Эдера","kp_id":"394051","imdb_id":"tt0186051","world_art_id":null,"type":"serial","add":"2019-09-19 06:26:59","orig_title":"Edera","year":"1992-02-18","translations":["Профессиональный (двухголосый закадровый)"],"seasons_count":1,"episodes_count":44,"episodes":44,"update":"2019-09-19 11:40:02","iframe_src":"//24213.svetacdn.in/71tsRs29n5tZ/tv-series/5239"},{"id":5236,"title":"Молодая гвардия","kp_id":"880743","imdb_id":"tt4763260","world_art_id":null,"type":"serial","add":"2019-09-18 10:48:20","orig_title":"Molodaya gvardiya","year":"2015-01-01","translations":["Оригинальная дорожка"],"seasons_count":1,"episodes_count":12,"episodes":12,"update":"2019-09-24 06:57:23","iframe_src":"//24213.svetacdn.in/71tsRs29n5tZ/tv-series/5236"},{"id":5234,"title":"Паутина 7","kp_id":"822086","imdb_id":null,"world_art_id":null,"type":"serial","add":"2019-09-18 08:44:08","orig_title":"Паутина 7","year":"2013-01-01","translations":["Оригинальная дорожка"],"seasons_count":1,"episodes_count":24,"episodes":24,"update":"2019-09-20 12:36:32","iframe_src":"//24213.svetacdn.in/71tsRs29n5tZ/tv-series/5234"},{"id":5229,"title":"Радуга в небе","kp_id":"1101265","imdb_id":"tt10104150","world_art_id":null,"type":"serial","add":"2019-09-17 13:00:52","orig_title":"Raduga v nebe","year":"2017-11-19","translations":["Оригинальная дорожка"],"seasons_count":1,"episodes_count":4,"episodes":4,"update":"2019-09-24 07:07:32","iframe_src":"//24213.svetacdn.in/71tsRs29n5tZ/tv-series/5229"},{"id":5226,"title":"Птичка певчая","kp_id":"1115028","imdb_id":"tt10107504","world_art_id":null,"type":"serial","add":"2019-09-17 12:51:43","orig_title":"Ptichka pevchaya","year":"2018-03-04","translations":["Оригинальная дорожка"],"seasons_count":1,"episodes_count":4,"episodes":4,"update":"2019-09-24 07:03:23","iframe_src":"//24213.svetacdn.in/71tsRs29n5tZ/tv-series/5226"},{"id":5219,"title":"Дознаватель 2","kp_id":"738461","imdb_id":"tt4263490","world_art_id":null,"type":"serial","add":"2019-09-17 07:19:16","orig_title":"Doznavatel 2","year":"2013-01-01","translations":["Оригинальная дорожка"],"seasons_count":1,"episodes_count":32,"episodes":32,"update":"2019-09-20 12:58:33","iframe_src":"//24213.svetacdn.in/71tsRs29n5tZ/tv-series/5219"},{"id":5218,"title":"Дознаватель","kp_id":"528183","imdb_id":"tt4185900","world_art_id":null,"type":"serial","add":"2019-09-17 07:13:20","orig_title":"Doznavatel'","year":"2010-01-01","translations":["Оригинальная дорожка"],"seasons_count":1,"episodes_count":24,"episodes":24,"update":"2019-09-20 12:22:46","iframe_src":"//24213.svetacdn.in/71tsRs29n5tZ/tv-series/5218"},{"id":5217,"title":"Школа","kp_id":"493098","imdb_id":"tt1585899","world_art_id":null,"type":"serial","add":"2019-09-17 06:58:09","orig_title":"Shkola","year":"2010-01-11","translations":["Оригинальная дорожка"],"seasons_count":1,"episodes_count":69,"episodes":69,"update":"2019-09-20 11:35:06","iframe_src":"//24213.svetacdn.in/71tsRs29n5tZ/tv-series/5217"},{"id":5175,"title":"Не женская работа","kp_id":"1261551","imdb_id":"tt10349602","world_art_id":null,"type":"serial","add":"2019-09-10 06:14:02","orig_title":"Ne zhenskaya rabota","year":"2019-01-01","translations":["Оригинальная дорожка"],"seasons_count":2,"episodes_count":20,"episodes":8,"update":"2019-09-22 07:46:12","iframe_src":"//24213.svetacdn.in/71tsRs29n5tZ/tv-series/5175"},{"id":5049,"title":"Дневник водителя Uber","kp_id":"1221243","imdb_id":"tt9407764","world_art_id":null,"type":"serial","add":"2019-08-19 11:25:31","orig_title":"Diary of an Uber Driver","year":"2019-08-14","translations":["Профессиональный (двухголосый закадровый) (TUMBLER Studio)"],"seasons_count":1,"episodes_count":6,"episodes":6,"update":"2019-09-22 10:45:58","iframe_src":"//24213.svetacdn.in/71tsRs29n5tZ/tv-series/5049"},{"id":4700,"title":"Дочка","kp_id":"1190375","imdb_id":"tt8961058","world_art_id":null,"type":"serial","add":"2019-06-18 12:21:40","orig_title":"Kizim","year":"2018-09-19","translations":["Любительский (двухголосый закадровый) (Котова Ирина и Ахмеджанов Эльдор)"],"seasons_count":1,"episodes_count":34,"episodes":34,"update":"2019-09-23 14:29:26","iframe_src":"//24213.svetacdn.in/71tsRs29n5tZ/tv-series/4700"},{"id":1886,"title":"Новый день","kp_id":"271964","imdb_id":"tt0801425","world_art_id":null,"type":"serial","add":"2017-12-21 06:57:46","orig_title":"Day Break","year":"2006-11-15","translations":["Профессиональный (многоголосый закадровый) (ТВ3)","Профессиональный (многоголосый закадровый) (LostFilm)"],"seasons_count":1,"episodes_count":13,"episodes":13,"update":"2019-09-24 08:05:25","iframe_src":"//24213.svetacdn.in/71tsRs29n5tZ/tv-series/1886"},{"id":8852,"title":"Вой","kp_id":"3057","imdb_id":"tt0082533","world_art_id":null,"type":"movie","add":"2017-01-12 06:57:13","orig_title":"The Howling","year":"1981-01-21","translations":["Авторский (одноголосый закадровый) (Михалёв Алексей)","[EN] Original (English)","Профессиональный (многоголосый закадровый) (CP Digital)","Профессиональный (двухголосый закадровый) (НТВ)","Авторский (одноголосый закадровый) (Сербин Юрий)"],"quality":"bd","translation":"Авторский (одноголосый закадровый) (Михалёв Алексей)","update":"2021-11-03 10:44:14","iframe_src":"//24213.svetacdn.in/71tsRs29n5tZ/movie/8852"},{"id":5116,"title":"Разборка в Бронксе","kp_id":"24693","imdb_id":"tt0113326","world_art_id":null,"type":"movie","add":"2016-09-08 06:52:04","orig_title":"Hong faan kui","year":"1995-01-21","translations":["Профессиональный (многоголосый закадровый)","Авторский (одноголосый закадровый) (Кашкин Александр | Первомайский)","Авторский (одноголосый закадровый) (Леша-прапорщик)","[EN] Original (English)","Профессиональный (двухголосый закадровый) (Премьер Видео Фильм)","Профессиональный (многоголосый закадровый) (West Video)","Профессиональный (многоголосый закадровый) (Премьер Видео Фильм)"],"quality":"bd","translation":"Профессиональный (многоголосый закадровый)","update":"2021-11-04 06:44:18","iframe_src":"//24213.svetacdn.in/71tsRs29n5tZ/movie/5116"},{"id":2777,"title":"Ничего не вижу, ничего не слышу","kp_id":"4064","imdb_id":"tt0098282","world_art_id":null,"type":"movie","add":"2016-05-31 14:51:04","orig_title":"See No Evil, Hear No Evil","year":"1989-05-12","translations":["Профессиональный (многоголосый закадровый)","Профессиональный (многоголосый закадровый) (Видеосервис)","Авторский (одноголосый закадровый) (Горчаков Василий)","Авторский (одноголосый закадровый) (Михалёв Алексей)","Авторский (одноголосый закадровый) (Яроцкий Михаил | Kyberpunk)","[EN] Original (English)","Профессиональный (многоголосый закадровый) (СТС)","Профессиональный (многоголосый закадровый) (Первый канал | ОРТ)"],"quality":"bd","translation":"Профессиональный (многоголосый закадровый)","update":"2021-11-04 07:59:45","iframe_src":"//24213.svetacdn.in/71tsRs29n5tZ/movie/2777"},{"id":2472,"title":"Охотники за привидениями 2","kp_id":"2461","imdb_id":"tt0097428","world_art_id":null,"type":"movie","add":"2016-05-23 13:03:20","orig_title":"Ghostbusters II","year":"1989-06-16","translations":["Профессиональный (многоголосый закадровый)","Авторский (одноголосый закадровый) (Горчаков Василий)","Авторский (одноголосый закадровый) (Либергал Григорий)","Авторский (одноголосый закадровый) (Володарский Леонид)","Авторский (одноголосый закадровый) (Живов Юрий)","[EN] Original (English)","Любительский (одноголосый закадровый) (Ирэн)","Профессиональный (двухголосый закадровый) (Первый канал | ОРТ)","Профессиональный (двухголосый закадровый) (РенТВ)","Профессиональный (многоголосый закадровый) (РТР | Россия)","Профессиональный (многоголосый закадровый) (Видеосервис)"],"quality":"bd","translation":"Профессиональный (многоголосый закадровый)","update":"2021-11-04 08:18:55","iframe_src":"//24213.svetacdn.in/71tsRs29n5tZ/movie/2472"},{"id":836,"title":"Бессонница","kp_id":"712","imdb_id":"tt0278504","world_art_id":null,"type":"movie","add":"2016-04-08 17:17:43","orig_title":"Insomnia","year":"2002-05-03","translations":["Полное дублирование","Авторский (одноголосый закадровый) (Гаевский Евгений)","Авторский (одноголосый закадровый) (Гаврилов Андрей)","Авторский (одноголосый закадровый) (Киреев Антон)","Авторский (одноголосый закадровый) (Живов Юрий)","Полное дублирование","[EN] Original (English)","Профессиональный (двухголосый закадровый) (Гланц + Королёва)","Профессиональный (многоголосый закадровый)"],"quality":"bd","translation":"Полное дублирование","update":"2021-11-04 07:49:27","iframe_src":"//24213.svetacdn.in/71tsRs29n5tZ/movie/836"}],"current_page":452,"first_page_url":"https://videocdn.tv/api/short?limit=100&api_token=EnbO9h8pv1VyjbCJhg0WM9nG259n7mtz&cache3452=3452&page=1","from":45101,"last_page":728,"last_page_url":"https://videocdn.tv/api/short?limit=100&api_token=EnbO9h8pv1VyjbCJhg0WM9nG259n7mtz&cache3452=3452&page=728","next_page_url":"https://videocdn.tv/api/short?limit=100&api_token=EnbO9h8pv1VyjbCJhg0WM9nG259n7mtz&cache3452=3452&page=453","path":"https://videocdn.tv/api/short","per_page":100,"prev_page_url":"https://videocdn.tv/api/short?limit=100&api_token=EnbO9h8pv1VyjbCJhg0WM9nG259n7mtz&cache3452=3452&page=451","to":45140,"total":72780}