{"result":true,"data":[{"id":50960,"title":"Белые полосы","kp_id":"869689","imdb_id":"tt4203666","world_art_id":null,"type":"movie","add":"2021-06-05 23:29:42","orig_title":"White Lines","year":"2020-01-01","translations":["Любительский (многоголосый закадровый) (@MUZOBOZ@)"],"quality":"webdl","translation":"Любительский (многоголосый закадровый) (@MUZOBOZ@)","update":"2021-06-06 09:16:46","iframe_src":"//2413.svetacdn.in/71tsRs29n5tZ/movie/50960"},{"id":50959,"title":"Все считают себя особенными","kp_id":"1300877","imdb_id":"tt10849722","world_art_id":null,"type":"movie","add":"2021-06-05 23:27:44","orig_title":"We All Think We're Special","year":"2021-05-28","translations":["Любительский (многоголосый закадровый) (@MUZOBOZ@)"],"quality":"webdl","translation":"Любительский (многоголосый закадровый) (@MUZOBOZ@)","update":"2021-06-06 09:16:04","iframe_src":"//2413.svetacdn.in/71tsRs29n5tZ/movie/50959"},{"id":50958,"title":"Папа","kp_id":"1445218","imdb_id":null,"world_art_id":null,"type":"movie","add":"2021-06-05 23:26:21","orig_title":"Папа","year":"2021-06-03","translations":["Оригинальная дорожка"],"quality":"ts","translation":"Оригинальная дорожка","update":"2021-06-06 09:14:16","iframe_src":"//2413.svetacdn.in/71tsRs29n5tZ/movie/50958"},{"id":50957,"title":"Мисс Мама","kp_id":"4407911","imdb_id":"tt13556254","world_art_id":null,"type":"movie","add":"2021-06-05 23:24:47","orig_title":"Xun han ji","year":"2021-05-01","translations":["Любительский (двухголосый закадровый) (Колобок)"],"quality":"webdl","translation":"Любительский (двухголосый закадровый) (Колобок)","update":"2021-06-06 08:55:54","iframe_src":"//2413.svetacdn.in/71tsRs29n5tZ/movie/50957"},{"id":50955,"title":"Смерть в Техасе","kp_id":"969317","imdb_id":"tt4472508","world_art_id":null,"type":"movie","add":"2021-06-05 23:06:47","orig_title":"Death in Texas","year":"2021-06-04","translations":["Любительский (многоголосый закадровый) (AlphaProject)"],"quality":"webdl","translation":"Любительский (многоголосый закадровый) (AlphaProject)","update":"2021-06-06 08:47:30","iframe_src":"//2413.svetacdn.in/71tsRs29n5tZ/movie/50955"},{"id":50954,"title":"Плотоядные","kp_id":"1071930","imdb_id":"tt6649930","world_art_id":null,"type":"movie","add":"2021-06-05 23:04:59","orig_title":"The Carnivores","year":"2020-03-14","translations":["Любительский (многоголосый закадровый) (Синема УС)"],"quality":"webdl","translation":"Любительский (многоголосый закадровый) (Синема УС)","update":"2021-06-06 08:54:03","iframe_src":"//2413.svetacdn.in/71tsRs29n5tZ/movie/50954"},{"id":50953,"title":"Ночь живых мертвецов: Перерождение","kp_id":"875759","imdb_id":"tt3976044","world_art_id":null,"type":"movie","add":"2021-06-05 23:03:13","orig_title":"Rebirth","year":"2020-10-25","translations":["Любительский (многоголосый закадровый) (Синема УС)"],"quality":"webdl","translation":"Любительский (многоголосый закадровый) (Синема УС)","update":"2021-06-06 08:43:37","iframe_src":"//2413.svetacdn.in/71tsRs29n5tZ/movie/50953"},{"id":50952,"title":"Благодать и стойкость","kp_id":"1100554","imdb_id":"tt3910630","world_art_id":null,"type":"movie","add":"2021-06-05 22:59:02","orig_title":"Grace and Grit","year":"2021-06-04","translations":["Любительский (многоголосый закадровый) (AlphaProject)"],"quality":"webdl","translation":"Любительский (многоголосый закадровый) (AlphaProject)","update":"2021-06-06 08:52:22","iframe_src":"//2413.svetacdn.in/71tsRs29n5tZ/movie/50952"},{"id":50950,"title":"В поисках чуда","kp_id":"859127","imdb_id":"tt3552186","world_art_id":null,"type":"movie","add":"2021-06-05 22:54:15","orig_title":"Chasing Wonders","year":"2020-10-23","translations":["Любительский (многоголосый закадровый) (AlphaProject)"],"quality":"webdl","translation":"Любительский (многоголосый закадровый) (AlphaProject)","update":"2021-06-06 08:46:39","iframe_src":"//2413.svetacdn.in/71tsRs29n5tZ/movie/50950"},{"id":50944,"title":"Автострада","kp_id":"79561","imdb_id":"tt0119975","world_art_id":null,"type":"movie","add":"2021-06-05 11:04:07","orig_title":"Quicksilver Highway","year":"1997-01-01","translations":["Профессиональный (двухголосый закадровый)"],"quality":"dvdrip","translation":"Профессиональный (двухголосый закадровый)","update":"2021-06-05 13:54:52","iframe_src":"//2413.svetacdn.in/71tsRs29n5tZ/movie/50944"},{"id":50942,"title":"Бей, барабан!","kp_id":"46055","imdb_id":"tt0174497","world_art_id":null,"type":"movie","add":"2021-06-05 10:28:05","orig_title":"Bey, baraban!","year":"1962-05-20","translations":["Оригинальная дорожка"],"quality":"vhs","translation":"Оригинальная дорожка","update":"2021-06-05 10:51:56","iframe_src":"//2413.svetacdn.in/71tsRs29n5tZ/movie/50942"},{"id":50941,"title":"Алешкина охота","kp_id":"43472","imdb_id":"tt0302256","world_art_id":null,"type":"movie","add":"2021-06-05 10:12:12","orig_title":"Alyoshkina okhota","year":"1966-08-22","translations":["Оригинальная дорожка"],"quality":"tv","translation":"Оригинальная дорожка","update":"2021-06-05 10:53:31","iframe_src":"//2413.svetacdn.in/71tsRs29n5tZ/movie/50941"},{"id":50939,"title":"Инфицированные: самый темный день","kp_id":null,"imdb_id":"tt14412524","world_art_id":null,"type":"movie","add":"2021-06-04 20:39:02","orig_title":"Infected: The Darkest Day","year":"2021-04-23","translations":["Любительский (многоголосый закадровый) (@MUZOBOZ@)"],"quality":"webdl","translation":"Любительский (многоголосый закадровый) (@MUZOBOZ@)","update":"2021-06-05 08:40:08","iframe_src":"//2413.svetacdn.in/71tsRs29n5tZ/movie/50939"},{"id":50938,"title":"Путешествие Химеры","kp_id":"1296931","imdb_id":"tt14251154","world_art_id":null,"type":"movie","add":"2021-06-04 20:37:31","orig_title":"Voyage of the Chimera","year":"2021-04-10","translations":["Любительский (многоголосый закадровый) (Синема УС)"],"quality":"webdl","translation":"Любительский (многоголосый закадровый) (Синема УС)","update":"2021-06-05 08:34:38","iframe_src":"//2413.svetacdn.in/71tsRs29n5tZ/movie/50938"},{"id":50937,"title":"Путешествие к морю","kp_id":"1348818","imdb_id":"tt11015340","world_art_id":null,"type":"movie","add":"2021-06-04 20:35:25","orig_title":"Qin mi lu xing","year":"2019-10-03","translations":["Любительский (двухголосый закадровый) (Колобок)"],"quality":"webdl","translation":"Любительский (двухголосый закадровый) (Колобок)","update":"2021-06-05 08:33:17","iframe_src":"//2413.svetacdn.in/71tsRs29n5tZ/movie/50937"},{"id":50936,"title":"Сумеречный час","kp_id":"1243929","imdb_id":"tt10309218","world_art_id":null,"type":"movie","add":"2021-06-04 20:32:34","orig_title":"Buru Awa ni Buttobasu","year":"2019-03-28","translations":["Любительский (многоголосый закадровый) (Синема УС)"],"quality":"bd","translation":"Любительский (многоголосый закадровый) (Синема УС)","update":"2021-06-05 08:31:13","iframe_src":"//2413.svetacdn.in/71tsRs29n5tZ/movie/50936"},{"id":50912,"title":"Раненый человек","kp_id":"20953","imdb_id":"tt0084085","world_art_id":null,"type":"movie","add":"2021-06-03 22:02:34","orig_title":"L'homme blessé","year":"1983-05-18","translations":["Любительский (одноголосый закадровый)"],"quality":"dvdrip","translation":"Любительский (одноголосый закадровый)","update":"2021-06-05 09:47:40","iframe_src":"//2413.svetacdn.in/71tsRs29n5tZ/movie/50912"},{"id":50911,"title":"3 мальчика, 1 девочка, 2 свадьбы","kp_id":"340163","imdb_id":"tt0413635","world_art_id":null,"type":"movie","add":"2021-06-03 19:46:34","orig_title":"3 garçons, 1 fille, 2 mariages","year":"2004-02-01","translations":["Любительский (одноголосый закадровый)"],"quality":"dvdrip","translation":"Любительский (одноголосый закадровый)","update":"2021-06-05 09:46:15","iframe_src":"//2413.svetacdn.in/71tsRs29n5tZ/movie/50911"},{"id":46237,"title":"Ты иногда вспоминай","kp_id":"648888","imdb_id":"tt4890758","world_art_id":null,"type":"movie","add":"2020-12-19 17:04:43","orig_title":"Ty inogda vspominay","year":"1978-03-27","translations":["Оригинальная дорожка"],"quality":"sat","translation":"Оригинальная дорожка","update":"2021-06-05 09:43:32","iframe_src":"//2413.svetacdn.in/71tsRs29n5tZ/movie/46237"},{"id":18889,"title":"Следующее поколение","kp_id":"1072038","imdb_id":"tt7133686","world_art_id":null,"type":"movie","add":"2018-09-09 23:22:14","orig_title":"Next Gen","year":"2018-09-07","translations":["Полное дублирование","Профессиональный (многоголосый закадровый) (HDrezka Studio)"],"quality":"webdl","translation":"Полное дублирование","update":"2021-06-05 12:01:38","iframe_src":"//2413.svetacdn.in/71tsRs29n5tZ/movie/18889"},{"id":695,"title":"Неоновый Джо – Охотник на оборотней","kp_id":"949166","imdb_id":"tt5176266","world_art_id":null,"type":"serial","add":"2016-12-15 10:33:56","orig_title":"Neon Joe, Werewolf Hunter","year":"2015-12-07","translations":["Любительский (двухголосый закадровый) (Jimmy J.)"],"seasons_count":1,"episodes_count":5,"episodes":5,"update":"2016-12-16 05:31:39","iframe_src":"//2413.svetacdn.in/71tsRs29n5tZ/tv-series/695"},{"id":686,"title":"Крылья","kp_id":"1005006","imdb_id":null,"world_art_id":null,"type":"serial","add":"2016-12-13 06:44:22","orig_title":"Крылья","year":"2016-12-11","translations":["Оригинальная дорожка"],"seasons_count":1,"episodes_count":4,"episodes":4,"update":"2016-12-13 11:04:12","iframe_src":"//2413.svetacdn.in/71tsRs29n5tZ/tv-series/686"},{"id":682,"title":"Флеминг","kp_id":"774749","imdb_id":"tt2647420","world_art_id":null,"type":"serial","add":"2016-12-12 16:04:16","orig_title":"Fleming","year":"2014-02-12","translations":["Профессиональный (многоголосый закадровый) (LostFilm)"],"seasons_count":1,"episodes_count":4,"episodes":4,"update":"2016-12-13 11:57:48","iframe_src":"//2413.svetacdn.in/71tsRs29n5tZ/tv-series/682"},{"id":681,"title":"Череп и кости","kp_id":"733151","imdb_id":"tt2400631","world_art_id":null,"type":"serial","add":"2016-12-12 14:03:21","orig_title":"Crossbones","year":"2014-05-30","translations":["Профессиональный (многоголосый закадровый) (LostFilm)"],"seasons_count":1,"episodes_count":9,"episodes":9,"update":"2016-12-13 11:52:51","iframe_src":"//2413.svetacdn.in/71tsRs29n5tZ/tv-series/681"},{"id":676,"title":"Джокер","kp_id":"565254","imdb_id":null,"world_art_id":null,"type":"serial","add":"2016-12-11 19:00:47","orig_title":"Джокер","year":"2010-12-24","translations":["Оригинальная дорожка"],"seasons_count":1,"episodes_count":8,"episodes":8,"update":"2016-12-12 05:48:31","iframe_src":"//2413.svetacdn.in/71tsRs29n5tZ/tv-series/676"},{"id":675,"title":"Гитлер: Bосхождение дьявола","kp_id":"89539","imdb_id":"tt0346293","world_art_id":null,"type":"serial","add":"2016-12-11 18:43:07","orig_title":"Hitler: The Rise of Evil","year":"2003-05-18","translations":["Профессиональный (многоголосый)"],"seasons_count":1,"episodes_count":2,"episodes":2,"update":"2016-12-12 05:35:37","iframe_src":"//2413.svetacdn.in/71tsRs29n5tZ/tv-series/675"},{"id":671,"title":"Прерванный путь","kp_id":"276355","imdb_id":"tt0482857","world_art_id":null,"type":"serial","add":"2016-12-08 06:32:41","orig_title":"Broken Trail","year":"2006-06-24","translations":["Профессиональный (многоголосый закадровый)"],"seasons_count":1,"episodes_count":2,"episodes":2,"update":"2016-12-09 05:28:21","iframe_src":"//2413.svetacdn.in/71tsRs29n5tZ/tv-series/671"},{"id":670,"title":"10.5 баллов: Апокалипсис","kp_id":"230396","imdb_id":"tt0463850","world_art_id":null,"type":"serial","add":"2016-12-08 06:23:27","orig_title":"10.5: Apocalypse","year":"2006-05-21","translations":["Профессиональный (многоголосый закадровый)"],"seasons_count":1,"episodes_count":2,"episodes":2,"update":"2016-12-08 10:58:39","iframe_src":"//2413.svetacdn.in/71tsRs29n5tZ/tv-series/670"},{"id":663,"title":"Опекун","kp_id":"921489","imdb_id":null,"world_art_id":null,"type":"serial","add":"2016-12-06 06:09:56","orig_title":"Опекун","year":"2016-12-05","translations":["Оригинальная дорожка"],"seasons_count":1,"episodes_count":16,"episodes":16,"update":"2016-12-09 08:31:56","iframe_src":"//2413.svetacdn.in/71tsRs29n5tZ/tv-series/663"},{"id":660,"title":"Самозванец","kp_id":"918745","imdb_id":"tt4543708","world_art_id":null,"type":"serial","add":"2016-12-05 06:52:08","orig_title":"Impastor","year":"2015-07-15","translations":["Любительский (многоголосый закадровый) (Четыре в квадрате)"],"seasons_count":2,"episodes_count":16,"episodes":6,"update":"2016-12-05 17:19:47","iframe_src":"//2413.svetacdn.in/71tsRs29n5tZ/tv-series/660"},{"id":655,"title":"По следу зверя","kp_id":"888151","imdb_id":null,"world_art_id":null,"type":"serial","add":"2016-12-01 07:06:44","orig_title":"По следу зверя","year":"2015-02-13","translations":["Оригинальная дорожка"],"seasons_count":1,"episodes_count":4,"episodes":4,"update":"2016-12-01 10:06:13","iframe_src":"//2413.svetacdn.in/71tsRs29n5tZ/tv-series/655"},{"id":654,"title":"Синхронистки","kp_id":"1007942","imdb_id":null,"world_art_id":null,"type":"serial","add":"2016-12-01 07:00:42","orig_title":"Синхронистки","year":"2016-11-27","translations":["Оригинальная дорожка"],"seasons_count":1,"episodes_count":4,"episodes":4,"update":"2016-12-01 08:54:57","iframe_src":"//2413.svetacdn.in/71tsRs29n5tZ/tv-series/654"},{"id":653,"title":"Золотой транзит","kp_id":"1008187","imdb_id":null,"world_art_id":null,"type":"serial","add":"2016-12-01 06:56:44","orig_title":"Золотой транзит","year":"2016-11-27","translations":["Оригинальная дорожка"],"seasons_count":1,"episodes_count":2,"episodes":2,"update":"2016-12-01 08:50:12","iframe_src":"//2413.svetacdn.in/71tsRs29n5tZ/tv-series/653"},{"id":651,"title":"Казаки","kp_id":"885701","imdb_id":"tt4787006","world_art_id":null,"type":"serial","add":"2016-11-30 08:12:58","orig_title":"Kazaki","year":"2016-11-28","translations":["Оригинальная дорожка"],"seasons_count":1,"episodes_count":16,"episodes":16,"update":"2016-12-02 09:10:11","iframe_src":"//2413.svetacdn.in/71tsRs29n5tZ/tv-series/651"},{"id":650,"title":"Быть человеком","kp_id":"573577","imdb_id":"tt1595680","world_art_id":null,"type":"serial","add":"2016-11-29 14:45:11","orig_title":"Being Human","year":"2011-01-17","translations":["Профессиональный (многоголосый закадровый) (LostFilm)"],"seasons_count":4,"episodes_count":52,"episodes":13,"update":"2016-12-01 10:27:48","iframe_src":"//2413.svetacdn.in/71tsRs29n5tZ/tv-series/650"},{"id":647,"title":"София","kp_id":"977734","imdb_id":null,"world_art_id":null,"type":"serial","add":"2016-11-29 09:43:05","orig_title":"София","year":"2016-11-28","translations":["Оригинальная дорожка"],"seasons_count":1,"episodes_count":8,"episodes":8,"update":"2016-12-02 07:45:37","iframe_src":"//2413.svetacdn.in/71tsRs29n5tZ/tv-series/647"},{"id":639,"title":"На этой неделе у моей жены роман","kp_id":"1003867","imdb_id":"tt6075078","world_art_id":null,"type":"serial","add":"2016-11-28 10:20:55","orig_title":"Ibeon ju, anaega barameul pibnida","year":"2016-10-28","translations":["Любительский (двухголосый закадровый) (HighHopes)"],"seasons_count":1,"episodes_count":12,"episodes":12,"update":"2016-12-12 05:06:21","iframe_src":"//2413.svetacdn.in/71tsRs29n5tZ/tv-series/639"},{"id":637,"title":"Блант говорит","kp_id":"891623","imdb_id":"tt4197508","world_art_id":null,"type":"serial","add":"2016-11-27 11:56:47","orig_title":"Blunt Talk","year":"2015-08-22","translations":["Профессиональный (многоголосый закадровый) (AlexFilm)"],"seasons_count":2,"episodes_count":20,"episodes":10,"update":"2016-12-14 11:10:38","iframe_src":"//2413.svetacdn.in/71tsRs29n5tZ/tv-series/637"},{"id":629,"title":"Континуум","kp_id":"609246","imdb_id":"tt1954347","world_art_id":null,"type":"serial","add":"2016-11-25 07:54:51","orig_title":"Continuum","year":"2012-05-27","translations":["Профессиональный (многоголосый закадровый) (LostFilm)"],"seasons_count":4,"episodes_count":42,"episodes":6,"update":"2016-12-12 06:20:18","iframe_src":"//2413.svetacdn.in/71tsRs29n5tZ/tv-series/629"},{"id":572,"title":"Подача","kp_id":"968455","imdb_id":"tt5500158","world_art_id":null,"type":"serial","add":"2016-11-09 09:12:27","orig_title":"Pitch","year":"2016-09-22","translations":["Профессиональный (многоголосый закадровый) (NewStudio)"],"seasons_count":1,"episodes_count":10,"episodes":10,"update":"2016-12-14 08:22:03","iframe_src":"//2413.svetacdn.in/71tsRs29n5tZ/tv-series/572"}],"current_page":604,"first_page_url":"https://videocdn.tv/api/short?limit=100&api_token=EnbO9h8pv1VyjbCJhg0WM9nG259n7mtz&cache3604=3604&page=1","from":60301,"last_page":719,"last_page_url":"https://videocdn.tv/api/short?limit=100&api_token=EnbO9h8pv1VyjbCJhg0WM9nG259n7mtz&cache3604=3604&page=719","next_page_url":"https://videocdn.tv/api/short?limit=100&api_token=EnbO9h8pv1VyjbCJhg0WM9nG259n7mtz&cache3604=3604&page=605","path":"https://videocdn.tv/api/short","per_page":100,"prev_page_url":"https://videocdn.tv/api/short?limit=100&api_token=EnbO9h8pv1VyjbCJhg0WM9nG259n7mtz&cache3604=3604&page=603","to":60340,"total":71893}