{"result":true,"data":[{"id":25976,"title":"Алый камень","kp_id":"43467","imdb_id":"tt0090620","world_art_id":null,"type":"movie","add":"2019-05-04 20:31:29","orig_title":"Alyy kamen","year":"1987-08-31","translations":["Оригинальная дорожка"],"quality":"dvdrip","translation":"Оригинальная дорожка","update":"2019-05-06 12:32:16","iframe_src":"//7720.svetacdn.in/71tsRs29n5tZ/movie/25976"},{"id":25975,"title":"Анна","kp_id":"412071","imdb_id":"tt1332482","world_art_id":null,"type":"movie","add":"2019-05-04 20:28:07","orig_title":"Anna","year":"2005-11-15","translations":["Оригинальная дорожка"],"quality":"dvdrip","translation":"Оригинальная дорожка","update":"2019-05-06 12:31:08","iframe_src":"//7720.svetacdn.in/71tsRs29n5tZ/movie/25975"},{"id":25974,"title":"Анна: От 6 до 18","kp_id":"41007","imdb_id":"tt0106290","world_art_id":null,"type":"movie","add":"2019-05-04 20:24:22","orig_title":"Anna ot 6 do 18","year":"1994-02-16","translations":["Оригинальная дорожка"],"quality":"dvdrip","translation":"Оригинальная дорожка","update":"2019-05-06 12:30:22","iframe_src":"//7720.svetacdn.in/71tsRs29n5tZ/movie/25974"},{"id":25973,"title":"Ася","kp_id":"43547","imdb_id":"tt0122969","world_art_id":null,"type":"movie","add":"2019-05-04 20:20:11","orig_title":"Asya","year":"1978-03-13","translations":["Оригинальная дорожка"],"quality":"dvdrip","translation":"Оригинальная дорожка","update":"2019-05-06 12:29:34","iframe_src":"//7720.svetacdn.in/71tsRs29n5tZ/movie/25973"},{"id":25972,"title":"Бабушки надвое сказали...","kp_id":"331864","imdb_id":"tt0078817","world_art_id":null,"type":"movie","add":"2019-05-04 20:16:19","orig_title":"Babushki nadvoe skazali...","year":"1979-12-31","translations":["Оригинальная дорожка"],"quality":"dvdrip","translation":"Оригинальная дорожка","update":"2019-05-06 12:28:42","iframe_src":"//7720.svetacdn.in/71tsRs29n5tZ/movie/25972"},{"id":25971,"title":"Баллада о Беринге и его друзьях","kp_id":"46016","imdb_id":"tt0065447","world_art_id":null,"type":"movie","add":"2019-05-04 20:13:15","orig_title":"Ballada o Beringe i ego druzyakh","year":"1971-01-13","translations":["Оригинальная дорожка"],"quality":"dvdrip","translation":"Оригинальная дорожка","update":"2019-05-06 12:27:59","iframe_src":"//7720.svetacdn.in/71tsRs29n5tZ/movie/25971"},{"id":25970,"title":"Бесы","kp_id":"41496","imdb_id":"tt0103799","world_art_id":null,"type":"movie","add":"2019-05-04 20:07:53","orig_title":"Besy","year":"1992-01-01","translations":["Оригинальная дорожка"],"quality":"dvdrip","translation":"Оригинальная дорожка","update":"2019-05-06 12:26:09","iframe_src":"//7720.svetacdn.in/71tsRs29n5tZ/movie/25970"},{"id":25969,"title":"Без вины виноватые","kp_id":"46121","imdb_id":"tt0037540","world_art_id":null,"type":"movie","add":"2019-05-04 20:04:29","orig_title":"Bez viny vinovatye","year":"1945-09-21","translations":["Оригинальная дорожка"],"quality":"dvdrip","translation":"Оригинальная дорожка","update":"2019-05-06 12:25:02","iframe_src":"//7720.svetacdn.in/71tsRs29n5tZ/movie/25969"},{"id":25968,"title":"Браслет-2","kp_id":"46211","imdb_id":"tt0321522","world_art_id":null,"type":"movie","add":"2019-05-04 20:01:30","orig_title":"Braslet-2","year":"1968-02-26","translations":["Оригинальная дорожка"],"quality":"dvdrip","translation":"Оригинальная дорожка","update":"2019-05-06 12:24:14","iframe_src":"//7720.svetacdn.in/71tsRs29n5tZ/movie/25968"},{"id":25967,"title":"Час пик","kp_id":"161130","imdb_id":"tt0477278","world_art_id":null,"type":"movie","add":"2019-05-04 19:58:15","orig_title":"Chas pik","year":"2006-06-26","translations":["Оригинальная дорожка"],"quality":"dvdrip","translation":"Оригинальная дорожка","update":"2019-05-06 12:22:57","iframe_src":"//7720.svetacdn.in/71tsRs29n5tZ/movie/25967"},{"id":25966,"title":"Чермен","kp_id":"45490","imdb_id":"tt0275256","world_art_id":null,"type":"movie","add":"2019-05-04 19:54:23","orig_title":"Chermeni","year":"1971-05-31","translations":["Оригинальная дорожка"],"quality":"dvdrip","translation":"Оригинальная дорожка","update":"2019-05-06 12:22:18","iframe_src":"//7720.svetacdn.in/71tsRs29n5tZ/movie/25966"},{"id":25965,"title":"Четвертая высота","kp_id":"266540","imdb_id":"tt0799979","world_art_id":null,"type":"movie","add":"2019-05-04 19:51:24","orig_title":"Chetvyortaya vysota","year":"1979-03-26","translations":["Оригинальная дорожка"],"quality":"dvdrip","translation":"Оригинальная дорожка","update":"2019-05-06 12:21:42","iframe_src":"//7720.svetacdn.in/71tsRs29n5tZ/movie/25965"},{"id":25964,"title":"Дай лапу, Друг","kp_id":"225362","imdb_id":"tt0383294","world_art_id":null,"type":"movie","add":"2019-05-04 19:37:44","orig_title":"Day lapu, drug!","year":"1967-07-13","translations":["Оригинальная дорожка"],"quality":"dvdrip","translation":"Оригинальная дорожка","update":"2019-05-06 12:20:40","iframe_src":"//7720.svetacdn.in/71tsRs29n5tZ/movie/25964"},{"id":25963,"title":"Дикарка","kp_id":"41131","imdb_id":"tt0319297","world_art_id":null,"type":"movie","add":"2019-05-04 19:31:17","orig_title":"Dikarka","year":"2002-05-05","translations":["Оригинальная дорожка"],"quality":"dvdrip","translation":"Оригинальная дорожка","update":"2019-05-06 12:19:00","iframe_src":"//7720.svetacdn.in/71tsRs29n5tZ/movie/25963"},{"id":25962,"title":"Доченька моя","kp_id":"432575","imdb_id":"tt2041339","world_art_id":null,"type":"movie","add":"2019-05-04 19:25:03","orig_title":"Dochenka moya","year":"2007-10-10","translations":["Оригинальная дорожка"],"quality":"dvdrip","translation":"Оригинальная дорожка","update":"2019-05-06 12:06:45","iframe_src":"//7720.svetacdn.in/71tsRs29n5tZ/movie/25962"},{"id":25961,"title":"Другое небо","kp_id":"468288","imdb_id":"tt1680075","world_art_id":null,"type":"movie","add":"2019-05-04 19:19:35","orig_title":"Drugoe nebo","year":"2010-07-08","translations":["Оригинальная дорожка"],"quality":"dvdrip","translation":"Оригинальная дорожка","update":"2019-05-06 12:05:55","iframe_src":"//7720.svetacdn.in/71tsRs29n5tZ/movie/25961"},{"id":25960,"title":"Двое в новом доме","kp_id":"161125","imdb_id":"tt0383333","world_art_id":null,"type":"movie","add":"2019-05-04 19:14:34","orig_title":"Dvoe v novom dome","year":"1979-07-16","translations":["Оригинальная дорожка"],"quality":"sat","translation":"Оригинальная дорожка","update":"2019-05-06 11:57:30","iframe_src":"//7720.svetacdn.in/71tsRs29n5tZ/movie/25960"},{"id":25959,"title":"Джоконда на асфальте","kp_id":"397419","imdb_id":null,"world_art_id":null,"type":"movie","add":"2019-05-04 19:10:53","orig_title":"Джоконда на асфальте","year":"2007-11-15","translations":["Оригинальная дорожка"],"quality":"dvdrip","translation":"Оригинальная дорожка","update":"2019-05-06 11:49:55","iframe_src":"//7720.svetacdn.in/71tsRs29n5tZ/movie/25959"},{"id":25956,"title":"Всё это цветочки...","kp_id":"419511","imdb_id":"tt3555678","world_art_id":null,"type":"movie","add":"2019-05-04 19:03:41","orig_title":"Eto vsyo tsvetochki","year":"2005-01-01","translations":["Оригинальная дорожка"],"quality":"dvdrip","translation":"Оригинальная дорожка","update":"2019-05-06 11:45:35","iframe_src":"//7720.svetacdn.in/71tsRs29n5tZ/movie/25956"},{"id":25405,"title":"Беременный","kp_id":"571250","imdb_id":"tt1820462","world_art_id":null,"type":"movie","add":"2019-04-26 16:31:58","orig_title":"Beremennyy","year":"2011-09-08","translations":["Оригинальная дорожка"],"quality":"bd","translation":"Оригинальная дорожка","update":"2019-05-06 12:27:17","iframe_src":"//7720.svetacdn.in/71tsRs29n5tZ/movie/25405"}],"current_page":1536,"first_page_url":"https://videocdn.tv/api/short?limit=100&api_token=EnbO9h8pv1VyjbCJhg0WM9nG259n7mtz&cache31536=31536&page=1","from":153501,"last_page":650,"last_page_url":"https://videocdn.tv/api/short?limit=100&api_token=EnbO9h8pv1VyjbCJhg0WM9nG259n7mtz&cache31536=31536&page=650","next_page_url":null,"path":"https://videocdn.tv/api/short","per_page":100,"prev_page_url":"https://videocdn.tv/api/short?limit=100&api_token=EnbO9h8pv1VyjbCJhg0WM9nG259n7mtz&cache31536=31536&page=1535","to":153520,"total":64957}