{"result":true,"data":[{"id":19307,"title":"Молли","kp_id":"1039972","imdb_id":"tt6522982","world_art_id":null,"type":"movie","add":"2018-09-30 21:13:03","orig_title":"Molly","year":"2017-02-11","translations":["Любительский (многоголосый закадровый) (Синема УС)"],"quality":"webdl","translation":"Любительский (многоголосый закадровый) (Синема УС)","update":"2018-10-01 06:59:45","iframe_src":"//5322.svetacdn.in/71tsRs29n5tZ/movie/19307"},{"id":19304,"title":"Вопреки судьбе","kp_id":"1192360","imdb_id":null,"world_art_id":null,"type":"movie","add":"2018-09-30 20:32:15","orig_title":"Вопреки судьбе","year":"2018-09-29","translations":["Оригинальная дорожка"],"quality":"webdl","translation":"Оригинальная дорожка","update":"2018-10-01 07:04:10","iframe_src":"//5322.svetacdn.in/71tsRs29n5tZ/movie/19304"},{"id":19303,"title":"Поездка на Луну","kp_id":"1096924","imdb_id":"tt5858968","world_art_id":null,"type":"movie","add":"2018-09-30 20:30:46","orig_title":"Un viaje a la Luna","year":"2018-03-01","translations":["Любительский (многоголосый закадровый) (Синема УС)"],"quality":"webdl","translation":"Любительский (многоголосый закадровый) (Синема УС)","update":"2018-10-01 07:48:08","iframe_src":"//5322.svetacdn.in/71tsRs29n5tZ/movie/19303"},{"id":19300,"title":"Человек, который любит себе вредить","kp_id":null,"imdb_id":"tt6856540","world_art_id":null,"type":"movie","add":"2018-09-30 20:23:12","orig_title":"The Man Who Loves to Hurt Himself","year":"2017-05-01","translations":["Любительский (многоголосый закадровый) (Синема УС)"],"quality":"bd","translation":"Любительский (многоголосый закадровый) (Синема УС)","update":"2018-10-01 07:10:35","iframe_src":"//5322.svetacdn.in/71tsRs29n5tZ/movie/19300"},{"id":19298,"title":"Кое-что напоследок","kp_id":"972498","imdb_id":"tt5327410","world_art_id":null,"type":"movie","add":"2018-09-30 20:18:15","orig_title":"One Last Thing","year":"2018-06-13","translations":["Любительский (многоголосый закадровый) (Синема УС)"],"quality":"dvdrip","translation":"Любительский (многоголосый закадровый) (Синема УС)","update":"2018-10-01 07:47:10","iframe_src":"//5322.svetacdn.in/71tsRs29n5tZ/movie/19298"},{"id":19297,"title":"Мисирлу","kp_id":"694308","imdb_id":"tt2273648","world_art_id":null,"type":"movie","add":"2018-09-30 20:15:58","orig_title":"Misirlou","year":"2017-09-29","translations":["Любительский (многоголосый закадровый) (Синема УС)"],"quality":"bd","translation":"Любительский (многоголосый закадровый) (Синема УС)","update":"2018-10-01 07:50:59","iframe_src":"//5322.svetacdn.in/71tsRs29n5tZ/movie/19297"},{"id":19293,"title":"Дети Корделии","kp_id":null,"imdb_id":"tt5574292","world_art_id":null,"type":"movie","add":"2018-09-30 13:02:13","orig_title":"Cordelias Kinder","year":"2015-04-11","translations":["Любительский (многоголосый закадровый) (Синема УС)"],"quality":"webdl","translation":"Любительский (многоголосый закадровый) (Синема УС)","update":"2018-10-01 07:56:48","iframe_src":"//5322.svetacdn.in/71tsRs29n5tZ/movie/19293"},{"id":19292,"title":"Капитан Гром и Святой Грааль","kp_id":"464269","imdb_id":"tt1233259","world_art_id":null,"type":"movie","add":"2018-09-30 12:34:50","orig_title":"El Capitán Trueno y el Santo Grial","year":"2011-10-07","translations":["Профессиональный (многоголосый закадровый) (НТВ)"],"quality":"bd","translation":"Профессиональный (многоголосый закадровый) (НТВ)","update":"2018-10-01 08:04:23","iframe_src":"//5322.svetacdn.in/71tsRs29n5tZ/movie/19292"},{"id":19291,"title":"Сэм «Шесть кубиков»","kp_id":"846940","imdb_id":"tt3654052","world_art_id":null,"type":"movie","add":"2018-09-30 12:32:44","orig_title":"Inhumanity","year":"2018-07-21","translations":["Любительский (многоголосый закадровый) (Синема УС)"],"quality":"webdl","translation":"Любительский (многоголосый закадровый) (Синема УС)","update":"2018-10-01 08:05:15","iframe_src":"//5322.svetacdn.in/71tsRs29n5tZ/movie/19291"},{"id":19290,"title":"Внутри секты Мэнсона: утерянные плёнки","kp_id":"1163478","imdb_id":"tt8527036","world_art_id":null,"type":"movie","add":"2018-09-30 12:30:35","orig_title":"Inside the Manson Cult: The Lost Tapes","year":"2018-09-17","translations":["Любительский (многоголосый закадровый) (Синема УС)"],"quality":"webdl","translation":"Любительский (многоголосый закадровый) (Синема УС)","update":"2018-10-01 08:06:10","iframe_src":"//5322.svetacdn.in/71tsRs29n5tZ/movie/19290"},{"id":19288,"title":"Лимбо","kp_id":"768076","imdb_id":"tt2945892","world_art_id":null,"type":"movie","add":"2018-09-30 12:23:54","orig_title":"Limbo","year":"2014-02-02","translations":["Профессиональный (многоголосый закадровый) (GreenРай Studio)","Любительский (одноголосый закадровый) (PashaUp | Морозов Павел)"],"quality":"bd","translation":"Профессиональный (многоголосый закадровый) (GreenРай Studio)","update":"2018-10-01 08:02:15","iframe_src":"//5322.svetacdn.in/71tsRs29n5tZ/movie/19288"},{"id":19287,"title":"Наблюдение няни","kp_id":"1152034","imdb_id":"tt8452572","world_art_id":null,"type":"movie","add":"2018-09-30 12:20:27","orig_title":"Nanny Surveillance","year":"2018-07-15","translations":["Любительский (многоголосый закадровый) (Синема УС)"],"quality":"hdtv","translation":"Любительский (многоголосый закадровый) (Синема УС)","update":"2018-10-01 08:10:52","iframe_src":"//5322.svetacdn.in/71tsRs29n5tZ/movie/19287"},{"id":19285,"title":"Соблазнённая незнакомцем","kp_id":"999689","imdb_id":"tt5974406","world_art_id":null,"type":"movie","add":"2018-09-30 12:14:19","orig_title":"Ring of Deception","year":"2017-05-20","translations":["Любительский (многоголосый закадровый) (Синема УС)"],"quality":"webdl","translation":"Любительский (многоголосый закадровый) (Синема УС)","update":"2018-10-01 08:14:28","iframe_src":"//5322.svetacdn.in/71tsRs29n5tZ/movie/19285"},{"id":19284,"title":"Барбекю","kp_id":"1039841","imdb_id":"tt6558114","world_art_id":null,"type":"movie","add":"2018-09-30 12:04:21","orig_title":"The BBQ","year":"2018-02-22","translations":["Любительский (многоголосый закадровый) (Синема УС)"],"quality":"dvdrip","translation":"Любительский (многоголосый закадровый) (Синема УС)","update":"2018-10-01 08:30:58","iframe_src":"//5322.svetacdn.in/71tsRs29n5tZ/movie/19284"},{"id":19224,"title":"Охота на динозавра","kp_id":"271752","imdb_id":"tt0827735","world_art_id":null,"type":"movie","add":"2018-09-27 00:10:03","orig_title":"Supergator","year":"2007-07-14","translations":["Профессиональный (двухголосый закадровый)"],"quality":"bd","translation":"Профессиональный (двухголосый закадровый)","update":"2018-09-28 10:05:06","iframe_src":"//5322.svetacdn.in/71tsRs29n5tZ/movie/19224"},{"id":19125,"title":"Прячься на свету","kp_id":"900869","imdb_id":"tt4369136","world_art_id":null,"type":"movie","add":"2018-09-23 21:25:50","orig_title":"Hide in the Light","year":"2018-10-23","translations":["Любительский (многоголосый закадровый) (Синема УС)","Любительский (двухголосый закадровый) (HiWayGrope)"],"quality":"webdl","translation":"Любительский (многоголосый закадровый) (Синема УС)","update":"2018-10-01 06:35:54","iframe_src":"//5322.svetacdn.in/71tsRs29n5tZ/movie/19125"},{"id":19059,"title":"Эпидемия","kp_id":"1200021","imdb_id":"tt7819394","world_art_id":null,"type":"movie","add":"2018-09-18 21:59:01","orig_title":"Epidemic","year":"2018-09-04","translations":["Любительский (многоголосый закадровый) (Синема УС)","Любительский (двухголосый закадровый) (HiWayGrope)"],"quality":"webdl","translation":"Любительский (многоголосый закадровый) (Синема УС)","update":"2018-10-01 06:37:37","iframe_src":"//5322.svetacdn.in/71tsRs29n5tZ/movie/19059"},{"id":18353,"title":"Хорошие манеры","kp_id":"968464","imdb_id":"tt5480782","world_art_id":null,"type":"movie","add":"2018-08-16 22:24:29","orig_title":"As Boas Maneiras","year":"2017-08-06","translations":["Любительский (многоголосый закадровый) (Синема УС)"],"quality":"dvdrip","translation":"Любительский (многоголосый закадровый) (Синема УС)","update":"2018-10-01 07:53:46","iframe_src":"//5322.svetacdn.in/71tsRs29n5tZ/movie/18353"},{"id":13729,"title":"Мандарин","kp_id":"844923","imdb_id":"tt3824458","world_art_id":null,"type":"movie","add":"2017-10-04 22:05:35","orig_title":"Tangerine","year":"2015-01-23","translations":["Любительский (многоголосый закадровый) (@MUZOBOZ@)","Профессиональный (многоголосый закадровый) (GreenРай Studio)"],"quality":"bd","translation":"Любительский (многоголосый закадровый) (@MUZOBOZ@)","update":"2018-10-01 08:17:05","iframe_src":"//5322.svetacdn.in/71tsRs29n5tZ/movie/13729"},{"id":13689,"title":"Итси-Битси","kp_id":"789345","imdb_id":"tt3119360","world_art_id":null,"type":"movie","add":"2017-10-02 22:17:37","orig_title":"Steppeulven","year":"2014-09-04","translations":["Любительский (многоголосый закадровый) (Синема УС)","Любительский (многоголосый закадровый) (GreenРай Studio)"],"quality":"webdl","translation":"Любительский (многоголосый закадровый) (Синема УС)","update":"2018-10-01 08:33:30","iframe_src":"//5322.svetacdn.in/71tsRs29n5tZ/movie/13689"}],"current_page":1731,"first_page_url":"https://videocdn.tv/api/short?limit=100&api_token=EnbO9h8pv1VyjbCJhg0WM9nG259n7mtz&cache31731=31731&page=1","from":173001,"last_page":623,"last_page_url":"https://videocdn.tv/api/short?limit=100&api_token=EnbO9h8pv1VyjbCJhg0WM9nG259n7mtz&cache31731=31731&page=623","next_page_url":null,"path":"https://videocdn.tv/api/short","per_page":100,"prev_page_url":"https://videocdn.tv/api/short?limit=100&api_token=EnbO9h8pv1VyjbCJhg0WM9nG259n7mtz&cache31731=31731&page=1730","to":173020,"total":62234}