{"result":true,"data":[{"id":48739,"title":"Осьминожки желают вам веселого Рождества","kp_id":"48218","imdb_id":"tt0092167","world_art_id":null,"type":"movie","add":"2021-03-14 18:47:47","orig_title":"Veselé vánoce prejí chobotnice","year":"1987-11-01","translations":["Профессиональный (двухголосый закадровый)"],"quality":"dvdrip","translation":"Профессиональный (двухголосый закадровый)","update":"2021-03-15 05:54:52","iframe_src":"//5091.svetacdn.in/si4jsFRrtgrT/movie/48739"},{"id":48738,"title":"Осьминожки со второго этажа","kp_id":"52527","imdb_id":"tt0090834","world_art_id":null,"type":"movie","add":"2021-03-14 18:42:37","orig_title":"Chobotnice z druhého patra","year":"1987-07-01","translations":["Профессиональный (двухголосый закадровый)"],"quality":"dvdrip","translation":"Профессиональный (двухголосый закадровый)","update":"2021-03-15 06:24:12","iframe_src":"//5091.svetacdn.in/si4jsFRrtgrT/movie/48738"},{"id":48736,"title":"Трамвай до парка аттракционов","kp_id":"1043805","imdb_id":null,"world_art_id":null,"type":"movie","add":"2021-03-14 15:00:55","orig_title":"Трамвай до парка аттракционов","year":"2016-01-01","translations":["Оригинальная дорожка"],"quality":"webdl","translation":"Оригинальная дорожка","update":"2021-03-15 12:14:41","iframe_src":"//5091.svetacdn.in/si4jsFRrtgrT/movie/48736"},{"id":48735,"title":"Боксер и смерть","kp_id":"101270","imdb_id":"tt0056885","world_art_id":null,"type":"movie","add":"2021-03-14 14:57:45","orig_title":"Boxer a smrt","year":"1963-04-12","translations":["Авторский (одноголосый закадровый) (Воротилин Олег)"],"quality":"bd","translation":"Авторский (одноголосый закадровый) (Воротилин Олег)","update":"2021-03-15 12:10:50","iframe_src":"//5091.svetacdn.in/si4jsFRrtgrT/movie/48735"},{"id":48733,"title":"Женские грезы","kp_id":"70769","imdb_id":"tt0048272","world_art_id":null,"type":"movie","add":"2021-03-14 14:30:41","orig_title":"Kvinnodröm","year":"1955-08-22","translations":["Профессиональный (двухголосый закадровый) (Инис)"],"quality":"bd","translation":"Профессиональный (двухголосый закадровый) (Инис)","update":"2021-03-15 12:06:55","iframe_src":"//5091.svetacdn.in/si4jsFRrtgrT/movie/48733"},{"id":48731,"title":"Сцены из супружеской жизни","kp_id":"1083065","imdb_id":"tt6725014","world_art_id":null,"type":"movie","add":"2021-03-14 14:20:35","orig_title":"Scener ur ett äktenskap","year":"1974-09-15","translations":["Профессиональный (двухголосый закадровый) (Кармен Видео)"],"quality":"bd","translation":"Профессиональный (двухголосый закадровый) (Кармен Видео)","update":"2021-03-15 12:17:22","iframe_src":"//5091.svetacdn.in/si4jsFRrtgrT/movie/48731"},{"id":48729,"title":"Хроники Синсэнгуми","kp_id":"394707","imdb_id":"tt0227492","world_art_id":null,"type":"movie","add":"2021-03-14 14:13:36","orig_title":"Shinsengumi shimatsuki","year":"1963-01-03","translations":["Любительский (одноголосый закадровый)"],"quality":"bd","translation":"Любительский (одноголосый закадровый)","update":"2021-03-15 12:05:18","iframe_src":"//5091.svetacdn.in/si4jsFRrtgrT/movie/48729"},{"id":48720,"title":"Путь через Дунай","kp_id":"332225","imdb_id":"tt0186919","world_art_id":null,"type":"movie","add":"2021-03-13 15:45:24","orig_title":"Chodník cez Dunaj","year":"1989-01-01","translations":["Авторский (одноголосый закадровый) (Воротилин Олег)"],"quality":"bd","translation":"Авторский (одноголосый закадровый) (Воротилин Олег)","update":"2021-03-15 12:21:01","iframe_src":"//5091.svetacdn.in/si4jsFRrtgrT/movie/48720"},{"id":48718,"title":"Замужество Марии Браун","kp_id":"54874","imdb_id":"tt0079095","world_art_id":null,"type":"movie","add":"2021-03-13 15:39:22","orig_title":"Die Ehe der Maria Braun","year":"1979-02-20","translations":["Профессиональный (двухголосый закадровый)"],"quality":"bd","translation":"Профессиональный (двухголосый закадровый)","update":"2021-03-15 12:24:48","iframe_src":"//5091.svetacdn.in/si4jsFRrtgrT/movie/48718"},{"id":48717,"title":"В России идет снег","kp_id":null,"imdb_id":"tt1777632","world_art_id":null,"type":"movie","add":"2021-03-13 15:24:45","orig_title":"V Rossii idet sneg","year":"2010-01-01","translations":["Оригинальная дорожка"],"quality":"webdl","translation":"Оригинальная дорожка","update":"2021-03-15 12:31:41","iframe_src":"//5091.svetacdn.in/si4jsFRrtgrT/movie/48717"},{"id":48716,"title":"Птички, сироты и блаженные","kp_id":"179305","imdb_id":"tt0065193","world_art_id":null,"type":"movie","add":"2021-03-13 15:17:27","orig_title":"Vtáčkovia, siroty a blázni","year":"1969-09-27","translations":["Авторский (одноголосый закадровый) (Воротилин Олег)"],"quality":"bd","translation":"Авторский (одноголосый закадровый) (Воротилин Олег)","update":"2021-03-15 12:26:21","iframe_src":"//5091.svetacdn.in/si4jsFRrtgrT/movie/48716"},{"id":48684,"title":"Семья полицейских 3: Новое расследование","kp_id":"258182","imdb_id":"tt0184456","world_art_id":null,"type":"movie","add":"2021-03-12 10:26:40","orig_title":"Family of Cops III: Under Suspicion","year":"1999-01-12","translations":["Профессиональный (многоголосый закадровый) (ДТВ)"],"quality":"dvdrip","translation":"Профессиональный (многоголосый закадровый) (ДТВ)","update":"2021-03-15 06:01:43","iframe_src":"//5091.svetacdn.in/si4jsFRrtgrT/movie/48684"},{"id":48683,"title":"Семья полицейских 2: Потеря веры","kp_id":"256501","imdb_id":"tt0118770","world_art_id":null,"type":"movie","add":"2021-03-12 10:25:21","orig_title":"Breach of Faith: A Family of Cops II","year":"1997-02-02","translations":["Авторский (одноголосый закадровый) (Визгунов Сергей)"],"quality":"dvdrip","translation":"Авторский (одноголосый закадровый) (Визгунов Сергей)","update":"2021-03-15 06:00:17","iframe_src":"//5091.svetacdn.in/si4jsFRrtgrT/movie/48683"},{"id":48682,"title":"Семья полицейских","kp_id":"256441","imdb_id":"tt0113024","world_art_id":null,"type":"movie","add":"2021-03-12 10:23:48","orig_title":"Family of Cops","year":"1995-11-26","translations":["Профессиональный (многоголосый закадровый)"],"quality":"dvdrip","translation":"Профессиональный (многоголосый закадровый)","update":"2021-03-15 05:58:39","iframe_src":"//5091.svetacdn.in/si4jsFRrtgrT/movie/48682"},{"id":46640,"title":"Хлеб с ветчиной","kp_id":"1168428","imdb_id":"tt8529134","world_art_id":null,"type":"movie","add":"2021-01-03 19:00:46","orig_title":"Ham on Rye","year":"2019-02-08","translations":["Любительский (многоголосый закадровый) (Синема УС)","Original (English)"],"quality":"webdl","translation":"Любительский (многоголосый закадровый) (Синема УС)","update":"2021-03-15 12:27:43","iframe_src":"//5091.svetacdn.in/si4jsFRrtgrT/movie/46640"},{"id":45672,"title":"Чудовище","kp_id":"1342651","imdb_id":"tt11499506","world_art_id":null,"type":"movie","add":"2020-11-27 19:45:15","orig_title":"La belva","year":"2020-11-27","translations":["Любительский (одноголосый закадровый) (datynet | Агапов Антон)","Любительский (многоголосый закадровый) (@MUZOBOZ@)","Любительский (многоголосый закадровый) (@MUZOBOZ@)"],"quality":"webdl","translation":"Любительский (одноголосый закадровый) (datynet | Агапов Антон)","update":"2021-03-15 12:19:58","iframe_src":"//5091.svetacdn.in/si4jsFRrtgrT/movie/45672"},{"id":38620,"title":"Ты видишь луну, Даниэль?","kp_id":"1208175","imdb_id":"tt9179230","world_art_id":null,"type":"movie","add":"2020-03-27 15:17:32","orig_title":"Ser du månen, Daniel","year":"2019-08-29","translations":["Любительский (многоголосый закадровый) (AlphaProject)","Любительский (многоголосый закадровый) (AlphaProject)"],"quality":"bd","translation":"Любительский (многоголосый закадровый) (AlphaProject)","update":"2021-03-15 12:30:41","iframe_src":"//5091.svetacdn.in/si4jsFRrtgrT/movie/38620"},{"id":34185,"title":"Маленький солдат","kp_id":"38297","imdb_id":"tt0054177","world_art_id":null,"type":"movie","add":"2019-12-16 20:26:38","orig_title":"Le petit soldat","year":"1963-01-25","translations":["Профессиональный (многоголосый закадровый)","Профессиональный (многоголосый закадровый)"],"quality":"dvdrip","translation":"Профессиональный (многоголосый закадровый)","update":"2021-03-15 12:34:36","iframe_src":"//5091.svetacdn.in/si4jsFRrtgrT/movie/34185"},{"id":29351,"title":"Девочка и эхо","kp_id":"42901","imdb_id":"tt0194918","world_art_id":null,"type":"movie","add":"2019-07-23 21:46:17","orig_title":"Paskutine atostogu diena","year":"1965-12-30","translations":["Полное дублирование","Полное дублирование"],"quality":"sat","translation":"Полное дублирование","update":"2021-03-15 12:13:24","iframe_src":"//5091.svetacdn.in/si4jsFRrtgrT/movie/29351"},{"id":4819,"title":"Пустыня в огне","kp_id":"93570","imdb_id":"tt0127509","world_art_id":null,"type":"serial","add":"2019-07-08 11:51:56","orig_title":"Il deserto di fuoco","year":"1997-10-19","translations":["Профессиональный (многоголосый закадровый)"],"seasons_count":1,"episodes_count":3,"episodes":3,"update":"2019-07-08 12:38:53","iframe_src":"//5091.svetacdn.in/si4jsFRrtgrT/tv-series/4819"},{"id":4818,"title":"Язон и аргонавты","kp_id":"77311","imdb_id":"tt0217579","world_art_id":null,"type":"serial","add":"2019-07-08 11:45:21","orig_title":"Jason and the Argonauts","year":"2000-05-07","translations":["Профессиональный (многоголосый закадровый)"],"seasons_count":1,"episodes_count":2,"episodes":2,"update":"2019-07-08 12:28:23","iframe_src":"//5091.svetacdn.in/si4jsFRrtgrT/tv-series/4818"},{"id":4815,"title":"Гюльчатай. Ради любви","kp_id":"837912","imdb_id":"tt3687302","world_art_id":null,"type":"serial","add":"2019-07-07 11:07:58","orig_title":"Gyulchatay. Radi lyubvi","year":"2014-02-24","translations":["Оригинальная дорожка"],"seasons_count":1,"episodes_count":16,"episodes":16,"update":"2019-07-08 11:38:10","iframe_src":"//5091.svetacdn.in/si4jsFRrtgrT/tv-series/4815"},{"id":4812,"title":"Мотыльки","kp_id":"730926","imdb_id":"tt2934916","world_art_id":null,"type":"serial","add":"2019-07-07 08:26:11","orig_title":"Motylki","year":"2013-04-23","translations":["Оригинальная дорожка"],"seasons_count":1,"episodes_count":4,"episodes":4,"update":"2019-07-08 20:32:03","iframe_src":"//5091.svetacdn.in/si4jsFRrtgrT/tv-series/4812"},{"id":4811,"title":"И падает снег...","kp_id":"419570","imdb_id":"tt3136210","world_art_id":null,"type":"serial","add":"2019-07-07 08:22:24","orig_title":"I padayet sneg","year":"2007-01-01","translations":["Оригинальная дорожка"],"seasons_count":1,"episodes_count":8,"episodes":8,"update":"2019-07-08 20:22:43","iframe_src":"//5091.svetacdn.in/si4jsFRrtgrT/tv-series/4811"},{"id":4810,"title":"Герой нашего времени","kp_id":"160896","imdb_id":"tt0456780","world_art_id":null,"type":"serial","add":"2019-07-07 08:11:36","orig_title":"Geroy nashego vremeni","year":"2007-06-05","translations":["Оригинальная дорожка"],"seasons_count":1,"episodes_count":6,"episodes":6,"update":"2019-07-08 12:42:50","iframe_src":"//5091.svetacdn.in/si4jsFRrtgrT/tv-series/4810"},{"id":4806,"title":"Королева ночи","kp_id":"957250","imdb_id":"tt5303602","world_art_id":null,"type":"serial","add":"2019-07-05 21:09:06","orig_title":"Gecenin Kraliçesi","year":"2016-01-12","translations":["Профессиональный (многоголосый закадровый)"],"seasons_count":1,"episodes_count":15,"episodes":15,"update":"2019-07-08 21:11:00","iframe_src":"//5091.svetacdn.in/si4jsFRrtgrT/tv-series/4806"},{"id":4803,"title":"Белые одежды","kp_id":"94736","imdb_id":"tt0101044","world_art_id":null,"type":"serial","add":"2019-07-05 20:47:14","orig_title":"Belye odezhdy","year":"1992-01-01","translations":["Оригинальная дорожка"],"seasons_count":1,"episodes_count":7,"episodes":7,"update":"2019-07-08 12:44:22","iframe_src":"//5091.svetacdn.in/si4jsFRrtgrT/tv-series/4803"},{"id":4802,"title":"Замечательный зять","kp_id":"1008981","imdb_id":"tt5922962","world_art_id":null,"type":"serial","add":"2019-07-05 20:43:10","orig_title":"Sahane Damat","year":"2016-01-01","translations":["Любительский (одноголосый закадровый) (turok1990)"],"seasons_count":1,"episodes_count":8,"episodes":8,"update":"2019-07-08 12:36:30","iframe_src":"//5091.svetacdn.in/si4jsFRrtgrT/tv-series/4802"},{"id":4799,"title":"Маршрут","kp_id":"280956","imdb_id":null,"world_art_id":null,"type":"serial","add":"2019-07-05 11:49:01","orig_title":"Маршрут","year":"2007-01-01","translations":["Оригинальная дорожка"],"seasons_count":1,"episodes_count":8,"episodes":8,"update":"2019-07-08 21:02:25","iframe_src":"//5091.svetacdn.in/si4jsFRrtgrT/tv-series/4799"},{"id":4797,"title":"Парни из стали","kp_id":"398646","imdb_id":"tt0881555","world_art_id":null,"type":"serial","add":"2019-07-05 11:40:15","orig_title":"Parni iz stali","year":"2004-01-01","translations":["Оригинальная дорожка"],"seasons_count":1,"episodes_count":12,"episodes":12,"update":"2019-07-08 20:39:48","iframe_src":"//5091.svetacdn.in/si4jsFRrtgrT/tv-series/4797"},{"id":4787,"title":"Пятницкий. Глава вторая","kp_id":"679817","imdb_id":"tt4080186","world_art_id":null,"type":"serial","add":"2019-07-04 09:41:46","orig_title":"Pyatnitskiy. Glava vtoraya","year":"2012-10-15","translations":["Оригинальная дорожка"],"seasons_count":1,"episodes_count":32,"episodes":32,"update":"2019-07-08 11:18:12","iframe_src":"//5091.svetacdn.in/si4jsFRrtgrT/tv-series/4787"},{"id":4786,"title":"Карпов. Сезон третий","kp_id":"841314","imdb_id":"tt4136598","world_art_id":null,"type":"serial","add":"2019-07-04 09:12:22","orig_title":"Karpov 3","year":"2014-10-06","translations":["Оригинальная дорожка"],"seasons_count":1,"episodes_count":32,"episodes":32,"update":"2019-07-09 06:21:51","iframe_src":"//5091.svetacdn.in/si4jsFRrtgrT/tv-series/4786"},{"id":4777,"title":"Карпов. Сезон второй","kp_id":"794742","imdb_id":"tt3994966","world_art_id":null,"type":"serial","add":"2019-07-03 10:31:52","orig_title":"Karpov 2","year":"2013-10-07","translations":["Оригинальная дорожка"],"seasons_count":1,"episodes_count":30,"episodes":30,"update":"2019-07-09 07:22:08","iframe_src":"//5091.svetacdn.in/si4jsFRrtgrT/tv-series/4777"},{"id":4756,"title":"Игра влияния","kp_id":"1274286","imdb_id":"tt7680918","world_art_id":null,"type":"serial","add":"2019-06-26 11:45:45","orig_title":"Jeux d'influence","year":"2018-09-14","translations":["Профессиональный (двухголосый закадровый) (TUMBLER Studio)"],"seasons_count":1,"episodes_count":6,"episodes":6,"update":"2019-07-08 11:03:15","iframe_src":"//5091.svetacdn.in/si4jsFRrtgrT/tv-series/4756"},{"id":4729,"title":"Женщины познакомятся","kp_id":"453167","imdb_id":"tt0969676","world_art_id":null,"type":"serial","add":"2019-06-21 00:02:32","orig_title":"Se busca un hombre","year":"2007-02-12","translations":["Профессиональный (многоголосый закадровый)"],"seasons_count":1,"episodes_count":171,"episodes":171,"update":"2019-07-09 07:07:33","iframe_src":"//5091.svetacdn.in/si4jsFRrtgrT/tv-series/4729"},{"id":27964,"title":"Во мраке","kp_id":"1147707","imdb_id":"tt10949534","world_art_id":null,"type":"movie","add":"2019-06-18 09:57:43","orig_title":"Vo mrake","year":"2018-01-01","translations":["Оригинальная дорожка","Оригинальная дорожка"],"quality":"sat","translation":"Оригинальная дорожка","update":"2021-03-15 12:19:02","iframe_src":"//5091.svetacdn.in/si4jsFRrtgrT/movie/27964"},{"id":4304,"title":"Романтическое приложение","kp_id":"1196967","imdb_id":"tt9130542","world_art_id":null,"type":"serial","add":"2019-03-23 06:33:54","orig_title":"Romaenseuneun Byulchaekboorok","year":"2019-01-26","translations":["Любительский (двухголосый закадровый) (Храм Дорам ТВ)","Любительский (двухголосый закадровый) (SoftBox)","Любительский (двухголосый закадровый) (GREEN TEA)","Любительский (двухголосый закадровый) (HighHopes)"],"seasons_count":1,"episodes_count":16,"episodes":16,"update":"2019-07-09 05:53:31","iframe_src":"//5091.svetacdn.in/si4jsFRrtgrT/tv-series/4304"},{"id":4145,"title":"Последняя императрица","kp_id":"1199547","imdb_id":"tt9146104","world_art_id":null,"type":"serial","add":"2019-02-25 09:15:27","orig_title":"Hwanghooui Poomkyeok","year":"2018-11-21","translations":["Любительский (двухголосый закадровый) (HighHopes)","Любительский (двухголосый закадровый) (GREEN TEA)"],"seasons_count":1,"episodes_count":26,"episodes":26,"update":"2019-07-09 10:33:12","iframe_src":"//5091.svetacdn.in/si4jsFRrtgrT/tv-series/4145"},{"id":4122,"title":"Успех","kp_id":"1143721","imdb_id":"tt8453458","world_art_id":null,"type":"serial","add":"2019-02-20 12:28:55","orig_title":"Uspjeh","year":"2019-01-06","translations":["Профессиональный (многоголосый закадровый) (NewStudio)"],"seasons_count":1,"episodes_count":6,"episodes":6,"update":"2019-07-08 08:27:27","iframe_src":"//5091.svetacdn.in/si4jsFRrtgrT/tv-series/4122"},{"id":3736,"title":"Приберись получше","kp_id":"1049778","imdb_id":"tt7981562","world_art_id":null,"type":"serial","add":"2018-12-20 08:34:27","orig_title":"Ildan Ddeugeobge Chungsohara","year":"2018-11-26","translations":["Любительский (двухголосый закадровый) (HighHopes)","Любительский (двухголосый закадровый) (GREEN TEA)"],"seasons_count":1,"episodes_count":16,"episodes":16,"update":"2019-07-08 13:57:03","iframe_src":"//5091.svetacdn.in/si4jsFRrtgrT/tv-series/3736"}],"current_page":396,"first_page_url":"https://videocdn.tv/api/short?limit=100&api_token=X6EwAUfE5M9xbo7y0Bp0aPf3uXxG2KLL&cache3396=3396&page=1","from":39501,"last_page":667,"last_page_url":"https://videocdn.tv/api/short?limit=100&api_token=X6EwAUfE5M9xbo7y0Bp0aPf3uXxG2KLL&cache3396=3396&page=667","next_page_url":"https://videocdn.tv/api/short?limit=100&api_token=X6EwAUfE5M9xbo7y0Bp0aPf3uXxG2KLL&cache3396=3396&page=397","path":"https://videocdn.tv/api/short","per_page":100,"prev_page_url":"https://videocdn.tv/api/short?limit=100&api_token=X6EwAUfE5M9xbo7y0Bp0aPf3uXxG2KLL&cache3396=3396&page=395","to":39540,"total":66648}