{"result":true,"data":[{"id":26108,"title":"Незнакомое оружие, или Крестоносец-2","kp_id":"222453","imdb_id":"tt0132271","world_art_id":null,"type":"movie","add":"2019-05-06 23:17:52","orig_title":"Krestonosets-2","year":"1998-01-01","translations":["Оригинальная дорожка"],"quality":"sat","translation":"Оригинальная дорожка","update":"2019-05-07 06:59:31","iframe_src":"//7720.svetacdn.in/IAF0wWTdNYZm/movie/26108"},{"id":26107,"title":"Пчелка","kp_id":"40883","imdb_id":"tt0204546","world_art_id":null,"type":"movie","add":"2019-05-06 23:12:07","orig_title":"Pchyolka","year":"1993-01-01","translations":["Оригинальная дорожка"],"quality":"dvdrip","translation":"Оригинальная дорожка","update":"2019-05-07 06:58:28","iframe_src":"//7720.svetacdn.in/IAF0wWTdNYZm/movie/26107"},{"id":26106,"title":"Похождения зубного врача","kp_id":"43089","imdb_id":"tt0155028","world_art_id":null,"type":"movie","add":"2019-05-06 23:08:35","orig_title":"Pokhozhdeniya zubnogo vracha","year":"1965-02-27","translations":["Оригинальная дорожка"],"quality":"dvdrip","translation":"Оригинальная дорожка","update":"2019-05-07 06:57:27","iframe_src":"//7720.svetacdn.in/IAF0wWTdNYZm/movie/26106"},{"id":26105,"title":"Рикки-Тикки-Тави","kp_id":"34074","imdb_id":"tt0073627","world_art_id":null,"type":"movie","add":"2019-05-06 23:04:56","orig_title":"Rikki-Tikki-Tavi","year":"1979-11-10","translations":["Оригинальная дорожка"],"quality":"dvdrip","translation":"Оригинальная дорожка","update":"2019-05-07 06:53:08","iframe_src":"//7720.svetacdn.in/IAF0wWTdNYZm/movie/26105"},{"id":26104,"title":"Сэнит Зон","kp_id":"43676","imdb_id":"tt0100576","world_art_id":null,"type":"movie","add":"2019-05-06 22:54:59","orig_title":"Senit zon","year":"1990-01-01","translations":["Оригинальная дорожка"],"quality":"dvdrip","translation":"Оригинальная дорожка","update":"2019-05-07 06:48:32","iframe_src":"//7720.svetacdn.in/IAF0wWTdNYZm/movie/26104"},{"id":26103,"title":"Стоянка поезда – две минуты","kp_id":"255043","imdb_id":"tt0069317","world_art_id":null,"type":"movie","add":"2019-05-06 22:51:22","orig_title":"Stoyanka poyezda - 2 minuty","year":"1972-12-31","translations":["Оригинальная дорожка"],"quality":"dvdrip","translation":"Оригинальная дорожка","update":"2019-05-07 06:47:26","iframe_src":"//7720.svetacdn.in/IAF0wWTdNYZm/movie/26103"},{"id":26102,"title":"Туннель","kp_id":"42368","imdb_id":"tt0062399","world_art_id":null,"type":"movie","add":"2019-05-06 22:46:13","orig_title":"Tunelul","year":"1966-11-08","translations":["Оригинальная дорожка"],"quality":"dvdrip","translation":"Оригинальная дорожка","update":"2019-05-07 06:46:46","iframe_src":"//7720.svetacdn.in/IAF0wWTdNYZm/movie/26102"},{"id":26101,"title":"Убить Шакала","kp_id":"470616","imdb_id":"tt5844554","world_art_id":null,"type":"movie","add":"2019-05-06 22:42:47","orig_title":"Ubit 'Shakala'","year":"1991-06-01","translations":["Оригинальная дорожка"],"quality":"dvdrip","translation":"Оригинальная дорожка","update":"2019-05-07 06:45:46","iframe_src":"//7720.svetacdn.in/IAF0wWTdNYZm/movie/26101"},{"id":26099,"title":"Феофания, рисующая смерть","kp_id":"64007","imdb_id":"tt0210043","world_art_id":null,"type":"movie","add":"2019-05-06 22:10:43","orig_title":"Fiofaniya, risuyushchaya smert","year":"1991-10-01","translations":["Профессиональный (многоголосый закадровый)"],"quality":"dvdrip","translation":"Профессиональный (многоголосый закадровый)","update":"2019-05-07 06:42:36","iframe_src":"//7720.svetacdn.in/IAF0wWTdNYZm/movie/26099"},{"id":26098,"title":"Ирина Палм сделает ЭТО лучше","kp_id":"263746","imdb_id":"tt0762110","world_art_id":null,"type":"movie","add":"2019-05-06 22:08:21","orig_title":"Irina Palm","year":"2007-02-13","translations":["Профессиональный (многоголосый закадровый)"],"quality":"dvdrip","translation":"Профессиональный (многоголосый закадровый)","update":"2019-05-07 06:41:03","iframe_src":"//7720.svetacdn.in/IAF0wWTdNYZm/movie/26098"},{"id":26097,"title":"В стреляющей глуши","kp_id":"45638","imdb_id":"tt0267077","world_art_id":null,"type":"movie","add":"2019-05-06 21:52:08","orig_title":"V strelyayushchey glushi","year":"1985-01-01","translations":["Оригинальная дорожка"],"quality":"dvdrip","translation":"Оригинальная дорожка","update":"2019-05-07 06:40:05","iframe_src":"//7720.svetacdn.in/IAF0wWTdNYZm/movie/26097"},{"id":26096,"title":"Ярославна, королева Франции","kp_id":"42421","imdb_id":"tt0078514","world_art_id":null,"type":"movie","add":"2019-05-06 21:48:32","orig_title":"Yaroslavna, koroleva Frantsii","year":"1979-04-23","translations":["Оригинальная дорожка"],"quality":"dvdrip","translation":"Оригинальная дорожка","update":"2019-05-07 06:39:06","iframe_src":"//7720.svetacdn.in/IAF0wWTdNYZm/movie/26096"},{"id":26095,"title":"Варька","kp_id":"331848","imdb_id":"tt0334594","world_art_id":null,"type":"movie","add":"2019-05-06 21:45:00","orig_title":"Var'ka","year":"1971-01-01","translations":["Оригинальная дорожка"],"quality":"dvdrip","translation":"Оригинальная дорожка","update":"2019-05-07 06:38:07","iframe_src":"//7720.svetacdn.in/IAF0wWTdNYZm/movie/26095"},{"id":26094,"title":"Женская работа с риском для жизни","kp_id":"426316","imdb_id":null,"world_art_id":null,"type":"movie","add":"2019-05-06 21:42:01","orig_title":"Женская работа с риском для жизни","year":"2006-01-01","translations":["Оригинальная дорожка"],"quality":"dvdrip","translation":"Оригинальная дорожка","update":"2019-05-07 06:37:07","iframe_src":"//7720.svetacdn.in/IAF0wWTdNYZm/movie/26094"},{"id":26093,"title":"Груз без маркировки","kp_id":"44616","imdb_id":"tt0087368","world_art_id":null,"type":"movie","add":"2019-05-06 21:36:49","orig_title":"Gruz bez markirovki","year":"1985-03-04","translations":["Оригинальная дорожка"],"quality":"dvdrip","translation":"Оригинальная дорожка","update":"2019-05-07 06:35:51","iframe_src":"//7720.svetacdn.in/IAF0wWTdNYZm/movie/26093"},{"id":26092,"title":"Таяние снегов","kp_id":"451407","imdb_id":"tt1354003","world_art_id":null,"type":"movie","add":"2019-05-06 21:32:06","orig_title":"La fonte des neiges","year":"2008-01-30","translations":["Любительский (одноголосый закадровый)"],"quality":"dvdrip","translation":"Любительский (одноголосый закадровый)","update":"2019-05-07 06:34:55","iframe_src":"//7720.svetacdn.in/IAF0wWTdNYZm/movie/26092"},{"id":26091,"title":"Дуэнья","kp_id":"85092","imdb_id":"tt0077477","world_art_id":null,"type":"movie","add":"2019-05-06 21:31:41","orig_title":"Duenya","year":"1979-07-27","translations":["Оригинальная дорожка"],"quality":"dvdrip","translation":"Оригинальная дорожка","update":"2019-05-07 06:33:16","iframe_src":"//7720.svetacdn.in/IAF0wWTdNYZm/movie/26091"},{"id":26090,"title":"Иностранка","kp_id":"42607","imdb_id":"tt0059313","world_art_id":null,"type":"movie","add":"2019-05-06 21:28:09","orig_title":"Inostranka","year":"1966-04-24","translations":["Оригинальная дорожка"],"quality":"dvdrip","translation":"Оригинальная дорожка","update":"2019-05-07 06:31:45","iframe_src":"//7720.svetacdn.in/IAF0wWTdNYZm/movie/26090"},{"id":18272,"title":"Живите в радости","kp_id":"45327","imdb_id":"tt0078524","world_art_id":null,"type":"movie","add":"2018-08-12 15:21:25","orig_title":"Zhivite v radosti","year":"1979-03-05","translations":["Оригинальная дорожка","Оригинальная дорожка"],"quality":"hdtv","translation":"Оригинальная дорожка","update":"2019-05-07 06:43:40","iframe_src":"//7720.svetacdn.in/IAF0wWTdNYZm/movie/18272"},{"id":13552,"title":"Симон прощается со своей крайней плотью","kp_id":"894607","imdb_id":"tt4568934","world_art_id":null,"type":"movie","add":"2017-09-20 23:19:03","orig_title":"Simon sagt «Auf Wiedersehen» zu seiner Vorhaut","year":"2015-10-10","translations":["Любительский (одноголосый закадровый)","Любительский (многоголосый закадровый) (Синема УС)"],"quality":"dvdrip","translation":"Любительский (одноголосый закадровый)","update":"2019-05-07 06:29:42","iframe_src":"//7720.svetacdn.in/IAF0wWTdNYZm/movie/13552"}],"current_page":1546,"first_page_url":"https://videocdn.tv/api/short?limit=100&api_token=6Onb1W1alEUrBcKJZD3GoKBbWyAl2uG2&cache31546=31546&page=1","from":154501,"last_page":653,"last_page_url":"https://videocdn.tv/api/short?limit=100&api_token=6Onb1W1alEUrBcKJZD3GoKBbWyAl2uG2&cache31546=31546&page=653","next_page_url":null,"path":"https://videocdn.tv/api/short","per_page":100,"prev_page_url":"https://videocdn.tv/api/short?limit=100&api_token=6Onb1W1alEUrBcKJZD3GoKBbWyAl2uG2&cache31546=31546&page=1545","to":154520,"total":65279}