{"result":true,"data":[{"id":43706,"title":"Ярость","kp_id":null,"imdb_id":"tt12179952","world_art_id":null,"type":"movie","add":"2020-09-21 09:01:21","orig_title":"Rage: Lléname de rabia","year":"2020-04-18","translations":["Любительский (двухголосый закадровый) (Колобок)"],"quality":"webdl","translation":"Любительский (двухголосый закадровый) (Колобок)","update":"2020-09-21 15:56:59","iframe_src":"//8332.svetacdn.in/si4jsFRrtgrT/movie/43706"},{"id":43702,"title":"План расторжения","kp_id":"1259679","imdb_id":"tt9020602","world_art_id":null,"type":"movie","add":"2020-09-21 08:34:26","orig_title":"Ke Hoach Doi Chong","year":"2018-09-28","translations":["Любительский (многоголосый закадровый) (AlphaProject)"],"quality":"webdl","translation":"Любительский (многоголосый закадровый) (AlphaProject)","update":"2020-09-21 15:52:34","iframe_src":"//8332.svetacdn.in/si4jsFRrtgrT/movie/43702"},{"id":43701,"title":"Босой император","kp_id":"1163931","imdb_id":"tt8439922","world_art_id":null,"type":"movie","add":"2020-09-21 08:31:47","orig_title":"The Barefoot Emperor","year":"2020-09-06","translations":["Любительский (многоголосый закадровый) (Синема УС)"],"quality":"webdl","translation":"Любительский (многоголосый закадровый) (Синема УС)","update":"2020-09-21 15:51:17","iframe_src":"//8332.svetacdn.in/si4jsFRrtgrT/movie/43701"},{"id":43651,"title":"Процесс","kp_id":"1183564","imdb_id":"tt8897390","world_art_id":null,"type":"movie","add":"2020-09-18 12:29:44","orig_title":"Process","year":"2018-09-06","translations":["Оригинальная дорожка"],"quality":"webdl","translation":"Оригинальная дорожка","update":"2020-09-21 12:15:29","iframe_src":"//8332.svetacdn.in/si4jsFRrtgrT/movie/43651"},{"id":43491,"title":"Ай, Кармела!","kp_id":"58312","imdb_id":"tt0101025","world_art_id":null,"type":"movie","add":"2020-09-13 19:50:40","orig_title":"¡Ay, Carmela!","year":"1990-03-15","translations":["Профессиональный (двухголосый закадровый) (Первый канал | ОРТ)"],"quality":"bd","translation":"Профессиональный (двухголосый закадровый) (Первый канал | ОРТ)","update":"2020-09-21 16:12:06","iframe_src":"//8332.svetacdn.in/si4jsFRrtgrT/movie/43491"},{"id":43477,"title":"Чертик на заборе","kp_id":"837623","imdb_id":"tt6221806","world_art_id":null,"type":"movie","add":"2020-09-13 18:41:45","orig_title":"Chertik Na Zabore","year":"2012-01-01","translations":["Оригинальная дорожка"],"quality":"webdl","translation":"Оригинальная дорожка","update":"2020-09-21 16:11:00","iframe_src":"//8332.svetacdn.in/si4jsFRrtgrT/movie/43477"},{"id":43476,"title":"Белоснежье","kp_id":null,"imdb_id":"tt11960072","world_art_id":null,"type":"movie","add":"2020-09-13 18:39:52","orig_title":"Whiteland","year":"2018-06-30","translations":["Оригинальная дорожка"],"quality":"webdl","translation":"Оригинальная дорожка","update":"2020-09-21 16:08:50","iframe_src":"//8332.svetacdn.in/si4jsFRrtgrT/movie/43476"},{"id":43475,"title":"Вернер. Твердый, как кость","kp_id":"55802","imdb_id":"tt0100912","world_art_id":null,"type":"movie","add":"2020-09-13 18:33:55","orig_title":"Werner - Beinhart!","year":"1990-11-29","translations":["Профессиональный (одноголосый закадровый)"],"quality":"webdl","translation":"Профессиональный (одноголосый закадровый)","update":"2020-09-21 16:09:55","iframe_src":"//8332.svetacdn.in/si4jsFRrtgrT/movie/43475"},{"id":43456,"title":"Внимание! Волки!","kp_id":"493905","imdb_id":"tt2017040","world_art_id":null,"type":"movie","add":"2020-09-12 20:42:51","orig_title":"Vnimanie! Volki!","year":"1970-01-01","translations":["Оригинальная дорожка","Оригинальная дорожка"],"quality":"dvdrip","translation":"Оригинальная дорожка","update":"2020-09-21 08:31:43","iframe_src":"//8332.svetacdn.in/si4jsFRrtgrT/movie/43456"},{"id":43402,"title":"Няня. Королева проклятых","kp_id":"1309718","imdb_id":"tt11024272","world_art_id":null,"type":"movie","add":"2020-09-10 19:24:37","orig_title":"The Babysitter: Killer Queen","year":"2020-09-10","translations":["Любительский (многоголосый закадровый) (@MUZOBOZ@)","Любительский (двухголосый закадровый) (OnisFilms)","Профессиональный (многоголосый закадровый) (HDrezka Studio)","Профессиональный (многоголосый закадровый) (HDrezka Studio 18+)","Профессиональный (многоголосый закадровый) (Flarrow Films)"],"quality":"webdl","translation":"Любительский (многоголосый закадровый) (@MUZOBOZ@)","update":"2020-09-22 07:04:16","iframe_src":"//8332.svetacdn.in/si4jsFRrtgrT/movie/43402"},{"id":42618,"title":"Легенда о старом маяке","kp_id":"639364","imdb_id":"tt7564348","world_art_id":null,"type":"movie","add":"2020-08-20 19:33:19","orig_title":"Legenda o starom mayake","year":"1976-01-01","translations":["Оригинальная дорожка","Оригинальная дорожка"],"quality":"dvdrip","translation":"Оригинальная дорожка","update":"2020-09-21 08:28:49","iframe_src":"//8332.svetacdn.in/si4jsFRrtgrT/movie/42618"},{"id":42322,"title":"Одна из многих","kp_id":"818478","imdb_id":"tt6371922","world_art_id":null,"type":"movie","add":"2020-08-06 20:31:21","orig_title":"Odna iz mnogikh","year":"1943-01-01","translations":["Оригинальная дорожка"],"quality":"webdl","translation":"Оригинальная дорожка","update":"2020-09-21 08:29:38","iframe_src":"//8332.svetacdn.in/si4jsFRrtgrT/movie/42322"},{"id":40069,"title":"Заклятье. Дом 32","kp_id":"1303058","imdb_id":"tt10952782","world_art_id":null,"type":"movie","add":"2020-05-03 03:34:59","orig_title":"Malasaña 32","year":"2020-01-16","translations":["Любительский (многоголосый закадровый) (@MUZOBOZ@)","Полное дублирование"],"quality":"bd","translation":"Любительский (многоголосый закадровый) (@MUZOBOZ@)","update":"2020-09-21 15:55:55","iframe_src":"//8332.svetacdn.in/si4jsFRrtgrT/movie/40069"},{"id":39222,"title":"Человек из черной «Волги»","kp_id":"262969","imdb_id":"tt0465937","world_art_id":null,"type":"movie","add":"2020-04-13 07:44:22","orig_title":"Chelovek iz chyornoi Volgi","year":"1990-12-10","translations":["Оригинальная дорожка","Оригинальная дорожка"],"quality":"dvdscr","translation":"Оригинальная дорожка","update":"2020-09-21 08:26:36","iframe_src":"//8332.svetacdn.in/si4jsFRrtgrT/movie/39222"},{"id":34609,"title":"Фиксики против кработов","kp_id":"1115685","imdb_id":"tt11498676","world_art_id":null,"type":"movie","add":"2019-12-30 22:19:24","orig_title":"Fiksiki protiv krabotov","year":"2019-12-21","translations":["Оригинальная дорожка","Оригинальная дорожка"],"quality":"webdl","translation":"Оригинальная дорожка","update":"2020-09-21 08:27:37","iframe_src":"//8332.svetacdn.in/si4jsFRrtgrT/movie/34609"},{"id":32900,"title":"Урфин Джюс возвращается","kp_id":"1113015","imdb_id":"tt10975312","world_art_id":null,"type":"movie","add":"2019-11-11 08:11:29","orig_title":"Urfin Dzhyus vozvrashchaetsya","year":"2019-11-10","translations":["Оригинальная дорожка","Оригинальная дорожка"],"quality":"webdl","translation":"Оригинальная дорожка","update":"2020-09-21 08:30:34","iframe_src":"//8332.svetacdn.in/si4jsFRrtgrT/movie/32900"},{"id":19376,"title":"Веном","kp_id":"463634","imdb_id":"tt1270797","world_art_id":null,"type":"movie","add":"2018-10-05 22:50:42","orig_title":"Venom","year":"2018-10-03","translations":["Любительский (многоголосый закадровый) (@MUZOBOZ@)","Профессиональный (многоголосый закадровый) (HDrezka Studio)","Original (English)","Полное дублирование","Профессиональный (многоголосый закадровый) (HDrezka Studio)"],"quality":"webdl","translation":"Любительский (многоголосый закадровый) (@MUZOBOZ@)","update":"2020-09-21 11:52:25","iframe_src":"//8332.svetacdn.in/si4jsFRrtgrT/movie/19376"},{"id":813,"title":"Шоу ужасов Рокки Хоррора","kp_id":"463048","imdb_id":"tt1267299","world_art_id":null,"type":"serial","add":"2017-01-05 04:55:09","orig_title":"The Rocky Horror Picture Show: Let's Do the Time Warp Again","year":"2016-10-18","translations":["Профессиональный (многоголосый закадровый) (BaibaKo)"],"seasons_count":1,"episodes_count":1,"episodes":1,"update":"2017-01-05 09:14:02","iframe_src":"//8332.svetacdn.in/si4jsFRrtgrT/tv-series/813"},{"id":810,"title":"Сатисфакция","kp_id":"256060","imdb_id":"tt0768685","world_art_id":null,"type":"serial","add":"2017-01-04 11:39:34","orig_title":"Satisfaktsiya","year":"2006-01-02","translations":["Оригинальная дорожка"],"seasons_count":1,"episodes_count":8,"episodes":8,"update":"2017-01-05 13:26:19","iframe_src":"//8332.svetacdn.in/si4jsFRrtgrT/tv-series/810"},{"id":809,"title":"Морпехи","kp_id":"572190","imdb_id":"tt1754226","world_art_id":null,"type":"serial","add":"2017-01-04 11:36:20","orig_title":"Morpekhi","year":"2011-10-03","translations":["Оригинальная дорожка"],"seasons_count":1,"episodes_count":8,"episodes":8,"update":"2017-01-05 05:52:54","iframe_src":"//8332.svetacdn.in/si4jsFRrtgrT/tv-series/809"},{"id":808,"title":"Фёдоров","kp_id":"764727","imdb_id":null,"world_art_id":null,"type":"serial","add":"2017-01-04 11:31:00","orig_title":"Фёдоров","year":"2013-06-02","translations":["Оригинальная дорожка"],"seasons_count":1,"episodes_count":4,"episodes":4,"update":"2017-01-05 05:44:39","iframe_src":"//8332.svetacdn.in/si4jsFRrtgrT/tv-series/808"},{"id":807,"title":"Азазель","kp_id":"79568","imdb_id":"tt0312403","world_art_id":null,"type":"serial","add":"2017-01-04 11:28:56","orig_title":"Azazel","year":"2002-03-10","translations":["Оригинальная дорожка"],"seasons_count":1,"episodes_count":3,"episodes":3,"update":"2017-01-04 20:16:19","iframe_src":"//8332.svetacdn.in/si4jsFRrtgrT/tv-series/807"},{"id":806,"title":"Цветок папоротника","kp_id":"861663","imdb_id":"tt4792382","world_art_id":null,"type":"serial","add":"2017-01-04 11:24:19","orig_title":"Tsvetok paporotnika","year":"2015-04-13","translations":["Оригинальная дорожка"],"seasons_count":1,"episodes_count":16,"episodes":16,"update":"2017-01-05 06:33:50","iframe_src":"//8332.svetacdn.in/si4jsFRrtgrT/tv-series/806"},{"id":804,"title":"Знак истинного пути","kp_id":"694591","imdb_id":"tt4744408","world_art_id":null,"type":"serial","add":"2017-01-04 07:00:32","orig_title":"Znak istinnogo puti","year":"2012-08-11","translations":["Оригинальная дорожка"],"seasons_count":1,"episodes_count":4,"episodes":4,"update":"2017-01-04 09:47:50","iframe_src":"//8332.svetacdn.in/si4jsFRrtgrT/tv-series/804"},{"id":803,"title":"Женщина в беде","kp_id":"812255","imdb_id":"tt3514458","world_art_id":null,"type":"serial","add":"2017-01-03 08:40:24","orig_title":"Zhenshchina v bede","year":"2014-05-27","translations":["Оригинальная дорожка"],"seasons_count":1,"episodes_count":4,"episodes":4,"update":"2017-01-04 06:21:39","iframe_src":"//8332.svetacdn.in/si4jsFRrtgrT/tv-series/803"},{"id":800,"title":"Пенсильвания","kp_id":"922155","imdb_id":"tt4976378","world_art_id":null,"type":"serial","add":"2017-01-02 11:01:56","orig_title":"Pensilvaniya","year":"2015-01-01","translations":["Оригинальная дорожка"],"seasons_count":1,"episodes_count":16,"episodes":16,"update":"2017-01-05 08:39:56","iframe_src":"//8332.svetacdn.in/si4jsFRrtgrT/tv-series/800"},{"id":799,"title":"Злая судьба","kp_id":"1005003","imdb_id":null,"world_art_id":null,"type":"serial","add":"2017-01-02 10:52:02","orig_title":"Злая судьба","year":"2016-10-08","translations":["Оригинальная дорожка"],"seasons_count":1,"episodes_count":2,"episodes":2,"update":"2017-01-04 18:18:12","iframe_src":"//8332.svetacdn.in/si4jsFRrtgrT/tv-series/799"},{"id":798,"title":"Забудь и вспомни","kp_id":"978859","imdb_id":null,"world_art_id":null,"type":"serial","add":"2017-01-02 10:46:24","orig_title":"Забудь и вспомни","year":"2016-05-16","translations":["Оригинальная дорожка"],"seasons_count":1,"episodes_count":12,"episodes":12,"update":"2017-01-05 07:03:54","iframe_src":"//8332.svetacdn.in/si4jsFRrtgrT/tv-series/798"},{"id":797,"title":"Портрет любимого","kp_id":"1005070","imdb_id":null,"world_art_id":null,"type":"serial","add":"2017-01-02 10:43:19","orig_title":"Портрет любимого","year":"2016-10-15","translations":["Оригинальная дорожка"],"seasons_count":1,"episodes_count":4,"episodes":4,"update":"2017-01-03 10:08:39","iframe_src":"//8332.svetacdn.in/si4jsFRrtgrT/tv-series/797"},{"id":796,"title":"Женщина его мечты","kp_id":"984271","imdb_id":"tt5923568","world_art_id":null,"type":"serial","add":"2017-01-02 09:48:50","orig_title":"Zhenshchina ego mechty","year":"2016-10-08","translations":["Оригинальная дорожка"],"seasons_count":1,"episodes_count":4,"episodes":4,"update":"2017-01-03 09:53:40","iframe_src":"//8332.svetacdn.in/si4jsFRrtgrT/tv-series/796"},{"id":795,"title":"Невеста из Москвы","kp_id":"993555","imdb_id":null,"world_art_id":null,"type":"serial","add":"2017-01-02 09:37:34","orig_title":"Невеста из Москвы","year":"2016-10-16","translations":["Оригинальная дорожка"],"seasons_count":1,"episodes_count":4,"episodes":4,"update":"2017-01-03 10:02:10","iframe_src":"//8332.svetacdn.in/si4jsFRrtgrT/tv-series/795"},{"id":794,"title":"Расплата за счастье","kp_id":"1006117","imdb_id":null,"world_art_id":null,"type":"serial","add":"2017-01-02 09:34:46","orig_title":"Расплата за счастье","year":"2016-10-15","translations":["Оригинальная дорожка"],"seasons_count":1,"episodes_count":2,"episodes":2,"update":"2017-01-04 06:40:12","iframe_src":"//8332.svetacdn.in/si4jsFRrtgrT/tv-series/794"},{"id":793,"title":"Жемчужная свадьба","kp_id":"1006113","imdb_id":null,"world_art_id":null,"type":"serial","add":"2017-01-02 09:32:24","orig_title":"Жемчужная свадьба","year":"2016-10-15","translations":["Оригинальная дорожка"],"seasons_count":1,"episodes_count":4,"episodes":4,"update":"2017-01-03 09:57:54","iframe_src":"//8332.svetacdn.in/si4jsFRrtgrT/tv-series/793"},{"id":790,"title":"Дедвуд","kp_id":"255671","imdb_id":"tt0348914","world_art_id":null,"type":"serial","add":"2017-01-02 09:01:09","orig_title":"Deadwood","year":"2004-03-21","translations":["Профессиональный (многоголосый закадровый) (РенТВ)"],"seasons_count":3,"episodes_count":36,"episodes":12,"update":"2017-01-05 06:51:50","iframe_src":"//8332.svetacdn.in/si4jsFRrtgrT/tv-series/790"},{"id":787,"title":"Мистер Хутен и Леди Александра","kp_id":"992628","imdb_id":"tt5663062","world_art_id":null,"type":"serial","add":"2017-01-02 08:07:25","orig_title":"Hooten & the Lady","year":"2016-09-16","translations":["Профессиональный (многоголосый закадровый) (Jaskier)"],"seasons_count":1,"episodes_count":8,"episodes":8,"update":"2017-01-03 09:49:41","iframe_src":"//8332.svetacdn.in/si4jsFRrtgrT/tv-series/787"},{"id":732,"title":"Доктор Хаус","kp_id":"178710","imdb_id":"tt0412142","world_art_id":null,"type":"serial","add":"2016-12-25 13:20:28","orig_title":"House M.D.","year":"2004-11-16","translations":["Профессиональный (многоголосый закадровый) (LostFilm)"],"seasons_count":8,"episodes_count":176,"episodes":22,"update":"2017-01-05 09:49:16","iframe_src":"//8332.svetacdn.in/si4jsFRrtgrT/tv-series/732"},{"id":6550,"title":"Повелители вселенной","kp_id":"18279","imdb_id":"tt0093507","world_art_id":null,"type":"movie","add":"2016-10-21 05:13:45","orig_title":"Masters of the Universe","year":"1987-08-07","translations":["Профессиональный (многоголосый закадровый)","Авторский (одноголосый закадровый) (Гаврилов Андрей)"],"quality":"bd","translation":"Профессиональный (многоголосый закадровый)","update":"2020-09-21 13:20:45","iframe_src":"//8332.svetacdn.in/si4jsFRrtgrT/movie/6550"},{"id":5874,"title":"Король Лев","kp_id":"2360","imdb_id":"tt0110357","world_art_id":null,"type":"movie","add":"2016-10-05 07:46:42","orig_title":"The Lion King","year":"1994-05-07","translations":["Полное дублирование","Original (English)","Авторский (одноголосый закадровый) (Гаврилов Андрей)","Авторский (одноголосый закадровый) (Живов Юрий)","Авторский (одноголосый закадровый) (Латышев Максим | CDV)","Авторский (одноголосый закадровый) (Яковлев Алексей)"],"quality":"bd","translation":"Полное дублирование","update":"2020-09-21 17:13:27","iframe_src":"//8332.svetacdn.in/si4jsFRrtgrT/movie/5874"},{"id":267,"title":"Ангел из ада","kp_id":"893721","imdb_id":"tt4424726","world_art_id":null,"type":"serial","add":"2016-07-07 11:35:01","orig_title":"Angel from Hell","year":"2016-01-07","translations":["Профессиональный (двухголосый закадровый) (Ozz.tv)","Профессиональный (многоголосый закадровый) (NewStudio)"],"seasons_count":1,"episodes_count":13,"episodes":13,"update":"2017-01-04 17:39:51","iframe_src":"//8332.svetacdn.in/si4jsFRrtgrT/tv-series/267"},{"id":1719,"title":"Вспомнить всё","kp_id":"2443","imdb_id":"tt0100802","world_art_id":null,"type":"movie","add":"2016-04-28 19:18:33","orig_title":"Total Recall","year":"1990-06-01","translations":["Профессиональный (многоголосый закадровый) (РТР | Россия)","Профессиональный (многоголосый закадровый) (Superbit)","Авторский (одноголосый закадровый) (Гаврилов Андрей)","Original (English)","Авторский (одноголосый закадровый) (Живов Юрий)","Авторский (одноголосый закадровый) (Горчаков Василий)","Профессиональный (многоголосый закадровый) (Первый канал | ОРТ)","Профессиональный (двухголосый закадровый) (R5)"],"quality":"bd","translation":"Профессиональный (многоголосый закадровый) (РТР | Россия)","update":"2020-09-21 17:12:26","iframe_src":"//8332.svetacdn.in/si4jsFRrtgrT/movie/1719"}],"current_page":515,"first_page_url":"https://videocdn.tv/api/short?limit=100&api_token=X6EwAUfE5M9xbo7y0Bp0aPf3uXxG2KLL&cache3515=3515&page=1","from":51401,"last_page":635,"last_page_url":"https://videocdn.tv/api/short?limit=100&api_token=X6EwAUfE5M9xbo7y0Bp0aPf3uXxG2KLL&cache3515=3515&page=635","next_page_url":"https://videocdn.tv/api/short?limit=100&api_token=X6EwAUfE5M9xbo7y0Bp0aPf3uXxG2KLL&cache3515=3515&page=516","path":"https://videocdn.tv/api/short","per_page":100,"prev_page_url":"https://videocdn.tv/api/short?limit=100&api_token=X6EwAUfE5M9xbo7y0Bp0aPf3uXxG2KLL&cache3515=3515&page=514","to":51440,"total":63457}