{"result":true,"data":[{"id":12439,"title":"Влюбленные и медведь","kp_id":"888263","imdb_id":"tt4412528","world_art_id":null,"type":"movie","add":"2017-07-10 11:37:22","orig_title":"Two Lovers and a Bear","year":"2016-05-18","translations":["Профессиональный (многоголосый закадровый) (iTunes)"],"quality":"webdl","translation":"Профессиональный (многоголосый закадровый) (iTunes)","update":"2017-07-11 05:00:14","iframe_src":"//2413.svetacdn.in/71tsRs29n5tZ/movie/12439"},{"id":12438,"title":"Конституция хорватской республики","kp_id":"969878","imdb_id":"tt5545674","world_art_id":null,"type":"movie","add":"2017-07-10 11:35:47","orig_title":"Ustav Republike Hrvatske","year":"2016-09-03","translations":["Профессиональный (многоголосый закадровый) (GreenРай Studio)"],"quality":"dvdrip","translation":"Профессиональный (многоголосый закадровый) (GreenРай Studio)","update":"2017-07-11 05:05:22","iframe_src":"//2413.svetacdn.in/71tsRs29n5tZ/movie/12438"},{"id":12436,"title":"Поминки","kp_id":"764583","imdb_id":"tt2931376","world_art_id":null,"type":"movie","add":"2017-07-10 11:26:28","orig_title":"The Wake","year":"2017-07-04","translations":["Любительский (многоголосый закадровый) (Синема УС)"],"quality":"webdl","translation":"Любительский (многоголосый закадровый) (Синема УС)","update":"2017-07-11 05:12:06","iframe_src":"//2413.svetacdn.in/71tsRs29n5tZ/movie/12436"},{"id":12435,"title":"Сладкая жизнь","kp_id":"922587","imdb_id":"tt4838534","world_art_id":null,"type":"movie","add":"2017-07-10 11:24:04","orig_title":"The Sweet Life","year":"2016-06-07","translations":["Профессиональный (многоголосый закадровый) (GreenРай Studio)"],"quality":"webdl","translation":"Профессиональный (многоголосый закадровый) (GreenРай Studio)","update":"2017-07-11 05:13:42","iframe_src":"//2413.svetacdn.in/71tsRs29n5tZ/movie/12435"},{"id":12433,"title":"Реки","kp_id":"620073","imdb_id":"tt1961485","world_art_id":null,"type":"movie","add":"2017-07-10 11:07:19","orig_title":"Rives","year":"2011-05-16","translations":["Профессиональный (двухголосый закадровый)"],"quality":"iptv","translation":"Профессиональный (двухголосый закадровый)","update":"2017-07-11 05:37:17","iframe_src":"//2413.svetacdn.in/71tsRs29n5tZ/movie/12433"},{"id":12432,"title":"Бритвы","kp_id":"730175","imdb_id":"tt2565974","world_art_id":null,"type":"movie","add":"2017-07-10 11:05:12","orig_title":"Razors: The Return of Jack the Ripper","year":"2016-10-06","translations":["Любительский (многоголосый закадровый) (Синема УС)"],"quality":"webdl","translation":"Любительский (многоголосый закадровый) (Синема УС)","update":"2017-07-11 05:38:45","iframe_src":"//2413.svetacdn.in/71tsRs29n5tZ/movie/12432"},{"id":12431,"title":"Противоположные полюсы","kp_id":"871084","imdb_id":"tt4172042","world_art_id":null,"type":"movie","add":"2017-07-10 11:03:21","orig_title":"Poli opposti","year":"2015-10-08","translations":["Любительский (двухголосый закадровый)"],"quality":"hdtv","translation":"Любительский (двухголосый закадровый)","update":"2017-07-11 05:40:11","iframe_src":"//2413.svetacdn.in/71tsRs29n5tZ/movie/12431"},{"id":12430,"title":"Не просто счастливый конец","kp_id":"606824","imdb_id":"tt1808339","world_art_id":null,"type":"movie","add":"2017-07-10 10:59:36","orig_title":"Not Another Happy Ending","year":"2013-06-30","translations":["Любительский (многоголосый закадровый)"],"quality":"webdl","translation":"Любительский (многоголосый закадровый)","update":"2017-07-11 05:42:29","iframe_src":"//2413.svetacdn.in/71tsRs29n5tZ/movie/12430"},{"id":12428,"title":"Дорогая мамочка","kp_id":"12828","imdb_id":"tt0082766","world_art_id":null,"type":"movie","add":"2017-07-10 10:53:42","orig_title":"Mommie Dearest","year":"1981-09-16","translations":["Профессиональный (многоголосый закадровый)"],"quality":"webdl","translation":"Профессиональный (многоголосый закадровый)","update":"2017-07-11 05:49:58","iframe_src":"//2413.svetacdn.in/71tsRs29n5tZ/movie/12428"},{"id":12427,"title":"Лузервилль","kp_id":"906789","imdb_id":"tt4558040","world_art_id":null,"type":"movie","add":"2017-07-10 10:48:46","orig_title":"Loserville","year":"2016-09-30","translations":["Любительский (многоголосый закадровый) (Синема УС)"],"quality":"webdl","translation":"Любительский (многоголосый закадровый) (Синема УС)","update":"2017-07-11 05:51:15","iframe_src":"//2413.svetacdn.in/71tsRs29n5tZ/movie/12427"},{"id":12406,"title":"Camp Rock: Музыкальные каникулы","kp_id":"402589","imdb_id":"tt1055366","world_art_id":null,"type":"movie","add":"2017-07-10 06:35:26","orig_title":"Camp Rock","year":"2008-06-20","translations":["Полное дублирование"],"quality":"bd","translation":"Полное дублирование","update":"2017-07-11 05:08:16","iframe_src":"//2413.svetacdn.in/71tsRs29n5tZ/movie/12406"},{"id":12404,"title":"Добейся успеха: Борись до конца","kp_id":"437845","imdb_id":"tt1349482","world_art_id":null,"type":"movie","add":"2017-07-10 06:33:10","orig_title":"Bring It On: Fight to the Finish","year":"2009-07-31","translations":["Профессиональный (двухголосый закадровый)"],"quality":"bd","translation":"Профессиональный (двухголосый закадровый)","update":"2017-07-11 05:07:20","iframe_src":"//2413.svetacdn.in/71tsRs29n5tZ/movie/12404"},{"id":12403,"title":"Кельвин Маршалл","kp_id":"398613","imdb_id":"tt0496673","world_art_id":null,"type":"movie","add":"2017-07-10 06:31:47","orig_title":"Calvin Marshall","year":"2009-10-23","translations":["Профессиональный (многоголосый закадровый)"],"quality":"hdtv","translation":"Профессиональный (многоголосый закадровый)","update":"2017-07-11 05:09:34","iframe_src":"//2413.svetacdn.in/71tsRs29n5tZ/movie/12403"},{"id":12337,"title":"Объединенная зона безопасности","kp_id":"47386","imdb_id":"tt0260991","world_art_id":null,"type":"movie","add":"2017-07-06 13:03:33","orig_title":"Gongdong gyeongbi guyeok JSA","year":"2000-09-09","translations":["Профессиональный (двухголосый закадровый)"],"quality":"bd","translation":"Профессиональный (двухголосый закадровый)","update":"2017-07-10 10:16:19","iframe_src":"//2413.svetacdn.in/71tsRs29n5tZ/movie/12337"},{"id":12336,"title":"Сцены у моря","kp_id":"55140","imdb_id":"tt0103704","world_art_id":null,"type":"movie","add":"2017-07-06 13:02:15","orig_title":"Ano natsu, ichiban shizukana umi","year":"1991-10-19","translations":["Профессиональный (двухголосый закадровый)"],"quality":"bd","translation":"Профессиональный (двухголосый закадровый)","update":"2017-07-10 10:15:02","iframe_src":"//2413.svetacdn.in/71tsRs29n5tZ/movie/12336"},{"id":12335,"title":"Фейерверк","kp_id":"50737","imdb_id":"tt0119250","world_art_id":null,"type":"movie","add":"2017-07-06 13:00:36","orig_title":"Hana-bi","year":"1997-09-03","translations":["Профессиональный (двухголосый закадровый)"],"quality":"bd","translation":"Профессиональный (двухголосый закадровый)","update":"2017-07-10 10:13:41","iframe_src":"//2413.svetacdn.in/71tsRs29n5tZ/movie/12335"},{"id":12325,"title":"Шепоты в ночи","kp_id":"9903","imdb_id":"tt0105811","world_art_id":null,"type":"movie","add":"2017-07-05 11:57:17","orig_title":"Whispers in the Dark","year":"1992-08-07","translations":["Профессиональный (многоголосый закадровый)"],"quality":"webdl","translation":"Профессиональный (многоголосый закадровый)","update":"2017-07-10 10:12:37","iframe_src":"//2413.svetacdn.in/71tsRs29n5tZ/movie/12325"},{"id":12324,"title":"Веселые няньки","kp_id":"3632","imdb_id":"tt0112435","world_art_id":null,"type":"movie","add":"2017-07-05 11:56:17","orig_title":"The Baby-Sitters Club","year":"1995-08-18","translations":["Профессиональный (многоголосый закадровый) (Первый канал | ОРТ)"],"quality":"webdl","translation":"Профессиональный (многоголосый закадровый) (Первый канал | ОРТ)","update":"2017-07-10 10:10:26","iframe_src":"//2413.svetacdn.in/71tsRs29n5tZ/movie/12324"},{"id":12300,"title":"Домашняя вечеринка","kp_id":"31739","imdb_id":"tt0099800","world_art_id":null,"type":"movie","add":"2017-07-05 11:28:47","orig_title":"House Party","year":"1990-03-09","translations":["Профессиональный (многоголосый закадровый)"],"quality":"webdl","translation":"Профессиональный (многоголосый закадровый)","update":"2017-07-10 10:07:30","iframe_src":"//2413.svetacdn.in/71tsRs29n5tZ/movie/12300"},{"id":7640,"title":"Темный странник","kp_id":"840345","imdb_id":"tt3653650","world_art_id":null,"type":"movie","add":"2016-11-27 08:47:32","orig_title":"The Dark Stranger","year":"2015-11-28","translations":["Любительский (одноголосый закадровый) (Хихикающий доктор)","Любительский (многоголосый закадровый) (Синема УС)"],"quality":"hdrip","translation":"Любительский (одноголосый закадровый) (Хихикающий доктор)","update":"2017-07-11 05:54:35","iframe_src":"//2413.svetacdn.in/71tsRs29n5tZ/movie/7640"}],"current_page":2443,"first_page_url":"https://videocdn.tv/api/short?limit=100&api_token=EnbO9h8pv1VyjbCJhg0WM9nG259n7mtz&cache32443=32443&page=1","from":244201,"last_page":711,"last_page_url":"https://videocdn.tv/api/short?limit=100&api_token=EnbO9h8pv1VyjbCJhg0WM9nG259n7mtz&cache32443=32443&page=711","next_page_url":null,"path":"https://videocdn.tv/api/short","per_page":100,"prev_page_url":"https://videocdn.tv/api/short?limit=100&api_token=EnbO9h8pv1VyjbCJhg0WM9nG259n7mtz&cache32443=32443&page=2442","to":244220,"total":71035}