{"result":true,"data":[{"id":33473,"title":"Рад быть полезным","kp_id":null,"imdb_id":"tt10413458","world_art_id":null,"type":"movie","add":"2019-11-26 21:08:08","orig_title":"To Be of Service","year":"2019-11-01","translations":["Любительский (многоголосый закадровый) (Синема УС)"],"quality":"webdl","translation":"Любительский (многоголосый закадровый) (Синема УС)","update":"2019-11-27 04:47:55","iframe_src":"//7741.svetacdn.in/si4jsFRrtgrT/movie/33473"},{"id":33471,"title":"Море теней","kp_id":"1235103","imdb_id":"tt9326056","world_art_id":null,"type":"movie","add":"2019-11-26 18:17:44","orig_title":"Sea of Shadows","year":"2019-03-22","translations":["Любительский (многоголосый закадровый) (Синема УС)"],"quality":"webdl","translation":"Любительский (многоголосый закадровый) (Синема УС)","update":"2019-11-26 21:48:23","iframe_src":"//7741.svetacdn.in/si4jsFRrtgrT/movie/33471"},{"id":33469,"title":"Побег из Алькатраса: Потерянные доказательства","kp_id":null,"imdb_id":"tt8453538","world_art_id":null,"type":"movie","add":"2019-11-26 18:10:42","orig_title":"Alcatraz Escape: The Lost Evidence","year":"2018-07-18","translations":["Любительский (многоголосый закадровый) (Синема УС)"],"quality":"hdtv","translation":"Любительский (многоголосый закадровый) (Синема УС)","update":"2019-11-26 20:52:13","iframe_src":"//7741.svetacdn.in/si4jsFRrtgrT/movie/33469"},{"id":33468,"title":"Симметрия это не баланс","kp_id":"1200609","imdb_id":"tt9082152","world_art_id":null,"type":"movie","add":"2019-11-26 18:02:46","orig_title":"Balance, Not Symmetry","year":"2019-06-23","translations":["Любительский (многоголосый закадровый) (Синема УС)"],"quality":"webdl","translation":"Любительский (многоголосый закадровый) (Синема УС)","update":"2019-11-26 20:53:50","iframe_src":"//7741.svetacdn.in/si4jsFRrtgrT/movie/33468"},{"id":33467,"title":"Невеста насилия","kp_id":"879581","imdb_id":"tt3813018","world_art_id":null,"type":"movie","add":"2019-11-26 18:02:06","orig_title":"Bride of Violence","year":"2018-10-11","translations":["Любительский (многоголосый закадровый) (Синема УС)"],"quality":"webdl","translation":"Любительский (многоголосый закадровый) (Синема УС)","update":"2019-11-26 20:22:28","iframe_src":"//7741.svetacdn.in/si4jsFRrtgrT/movie/33467"},{"id":33466,"title":"Магазин","kp_id":null,"imdb_id":"tt7596704","world_art_id":null,"type":"movie","add":"2019-11-26 18:01:24","orig_title":"Buy Sell Trade","year":"2018-01-01","translations":["Любительский (многоголосый закадровый) (Синема УС)"],"quality":"webdl","translation":"Любительский (многоголосый закадровый) (Синема УС)","update":"2019-11-26 21:49:57","iframe_src":"//7741.svetacdn.in/si4jsFRrtgrT/movie/33466"},{"id":33465,"title":"Связь","kp_id":"1210971","imdb_id":"tt8804688","world_art_id":null,"type":"movie","add":"2019-11-26 18:00:25","orig_title":"Connect","year":"2019-02-23","translations":["Любительский (многоголосый закадровый) (Синема УС)"],"quality":"webdl","translation":"Любительский (многоголосый закадровый) (Синема УС)","update":"2019-11-26 20:54:58","iframe_src":"//7741.svetacdn.in/si4jsFRrtgrT/movie/33465"},{"id":33464,"title":"Портрет рыцаря","kp_id":"1053935","imdb_id":"tt6951946","world_art_id":null,"type":"movie","add":"2019-11-26 17:59:06","orig_title":"Portrait of a Knight","year":"2018-10-22","translations":["Любительский (многоголосый закадровый) (Синема УС)"],"quality":"webdl","translation":"Любительский (многоголосый закадровый) (Синема УС)","update":"2019-11-26 20:21:31","iframe_src":"//7741.svetacdn.in/si4jsFRrtgrT/movie/33464"},{"id":33463,"title":"Рутвуд","kp_id":"1189929","imdb_id":"tt8976608","world_art_id":null,"type":"movie","add":"2019-11-26 17:56:58","orig_title":"Rootwood","year":"2018-12-08","translations":["Любительский (многоголосый закадровый) (Синема УС)"],"quality":"webdl","translation":"Любительский (многоголосый закадровый) (Синема УС)","update":"2019-11-26 20:50:40","iframe_src":"//7741.svetacdn.in/si4jsFRrtgrT/movie/33463"},{"id":33462,"title":"Кровь за плоть","kp_id":"4606210","imdb_id":"tt10915756","world_art_id":null,"type":"movie","add":"2019-11-26 17:56:31","orig_title":"Sangre para la carne","year":"2019-08-28","translations":["Любительский (многоголосый закадровый) (Колобок)"],"quality":"webdl","translation":"Любительский (многоголосый закадровый) (Колобок)","update":"2019-11-26 20:20:27","iframe_src":"//7741.svetacdn.in/si4jsFRrtgrT/movie/33462"},{"id":33461,"title":"Призрак Фор Поинтса","kp_id":"982244","imdb_id":"tt5748438","world_art_id":null,"type":"movie","add":"2019-11-26 17:54:49","orig_title":"The Haunting of Four Points","year":"2017-09-23","translations":["Любительский (многоголосый закадровый) (Синема УС)"],"quality":"webdl","translation":"Любительский (многоголосый закадровый) (Синема УС)","update":"2019-11-26 21:49:25","iframe_src":"//7741.svetacdn.in/si4jsFRrtgrT/movie/33461"},{"id":33460,"title":"Мама, рак и я","kp_id":"1147143","imdb_id":"tt8258538","world_art_id":null,"type":"movie","add":"2019-11-26 13:34:21","orig_title":"Ma mère, le crabe et moi","year":"2018-09-15","translations":["Любительский (многоголосый закадровый) (Синема УС)"],"quality":"hdtv","translation":"Любительский (многоголосый закадровый) (Синема УС)","update":"2019-11-26 20:34:03","iframe_src":"//7741.svetacdn.in/si4jsFRrtgrT/movie/33460"},{"id":33459,"title":"Демон","kp_id":"1228662","imdb_id":"tt9477520","world_art_id":null,"type":"movie","add":"2019-11-26 13:32:36","orig_title":"Asuran","year":"2019-10-04","translations":["Любительский (многоголосый закадровый) (Синема УС)"],"quality":"webdl","translation":"Любительский (многоголосый закадровый) (Синема УС)","update":"2019-11-26 20:34:33","iframe_src":"//7741.svetacdn.in/si4jsFRrtgrT/movie/33459"},{"id":33447,"title":"Бросок из под юбки","kp_id":"1075334","imdb_id":"tt7131194","world_art_id":null,"type":"movie","add":"2019-11-25 20:21:35","orig_title":"Granny Shot","year":"2018-04-07","translations":["Любительский (многоголосый закадровый) (Синема УС)"],"quality":"webdl","translation":"Любительский (многоголосый закадровый) (Синема УС)","update":"2019-11-26 13:49:39","iframe_src":"//7741.svetacdn.in/si4jsFRrtgrT/movie/33447"},{"id":33445,"title":"Сладкий рождественский роман","kp_id":"1298402","imdb_id":"tt10887870","world_art_id":null,"type":"movie","add":"2019-11-25 20:15:50","orig_title":"A Sweet Christmas Romance","year":"2019-11-10","translations":["Любительский (многоголосый закадровый) (Синема УС)"],"quality":"webdl","translation":"Любительский (многоголосый закадровый) (Синема УС)","update":"2019-11-26 13:50:09","iframe_src":"//7741.svetacdn.in/si4jsFRrtgrT/movie/33445"},{"id":33444,"title":"Некрологи","kp_id":"1159451","imdb_id":"tt8505360","world_art_id":null,"type":"movie","add":"2019-11-25 20:13:53","orig_title":"Nécrologies","year":"2018-06-01","translations":["Любительский (многоголосый закадровый) (Колобок)"],"quality":"webdl","translation":"Любительский (многоголосый закадровый) (Колобок)","update":"2019-11-26 13:50:35","iframe_src":"//7741.svetacdn.in/si4jsFRrtgrT/movie/33444"},{"id":33442,"title":"Рождество по-новозеландски","kp_id":"1072684","imdb_id":"tt6710606","world_art_id":null,"type":"movie","add":"2019-11-25 20:12:18","orig_title":"Kiwi Christmas","year":"2017-11-30","translations":["Любительский (многоголосый закадровый) (Синема УС)"],"quality":"webdl","translation":"Любительский (многоголосый закадровый) (Синема УС)","update":"2019-11-26 13:51:06","iframe_src":"//7741.svetacdn.in/si4jsFRrtgrT/movie/33442"},{"id":33440,"title":"Темнота","kp_id":"993311","imdb_id":"tt4935746","world_art_id":null,"type":"movie","add":"2019-11-25 20:10:40","orig_title":"Las tinieblas","year":"2016-09-07","translations":["Любительский (многоголосый закадровый) (Синема УС)"],"quality":"webdl","translation":"Любительский (многоголосый закадровый) (Синема УС)","update":"2019-11-26 13:51:49","iframe_src":"//7741.svetacdn.in/si4jsFRrtgrT/movie/33440"},{"id":33437,"title":"Мягкая игрушка","kp_id":"1104892","imdb_id":"tt6832138","world_art_id":null,"type":"movie","add":"2019-11-25 20:05:54","orig_title":"Le doudou","year":"2018-01-17","translations":["Любительский (многоголосый закадровый) (AlphaProject)"],"quality":"bd","translation":"Любительский (многоголосый закадровый) (AlphaProject)","update":"2019-11-26 13:52:58","iframe_src":"//7741.svetacdn.in/si4jsFRrtgrT/movie/33437"},{"id":33305,"title":"Рождественское чудо","kp_id":"1311726","imdb_id":"tt10922620","world_art_id":null,"type":"movie","add":"2019-11-20 07:46:52","orig_title":"A Christmas Miracle","year":"2019-11-14","translations":["[EN] Original (English)","Любительский (многоголосый закадровый) (Синема УС)"],"quality":"hdtv","translation":"[EN] Original (English)","update":"2019-11-26 13:49:11","iframe_src":"//7741.svetacdn.in/si4jsFRrtgrT/movie/33305"}],"current_page":1455,"first_page_url":"https://videocdn.tv/api/short?limit=100&api_token=X6EwAUfE5M9xbo7y0Bp0aPf3uXxG2KLL&cache31455=31455&page=1","from":145401,"last_page":707,"last_page_url":"https://videocdn.tv/api/short?limit=100&api_token=X6EwAUfE5M9xbo7y0Bp0aPf3uXxG2KLL&cache31455=31455&page=707","next_page_url":null,"path":"https://videocdn.tv/api/short","per_page":100,"prev_page_url":"https://videocdn.tv/api/short?limit=100&api_token=X6EwAUfE5M9xbo7y0Bp0aPf3uXxG2KLL&cache31455=31455&page=1454","to":145420,"total":70605}