{"result":true,"data":[{"id":33901,"title":"Ловкие руки","kp_id":"6452","imdb_id":"tt0323939","world_art_id":null,"type":"movie","add":"2019-12-10 05:57:45","orig_title":"Shade","year":"2003-09-06","translations":["Профессиональный (многоголосый закадровый)"],"quality":"dvdrip","translation":"Профессиональный (многоголосый закадровый)","update":"2019-12-10 06:20:21","iframe_src":"//7043.svetacdn.in/71tsRs29n5tZ/movie/33901"},{"id":33900,"title":"Сорвать маску","kp_id":"13931","imdb_id":"tt0087777","world_art_id":null,"type":"movie","add":"2019-12-10 05:47:01","orig_title":"The Naked Face","year":"1984-06-01","translations":["Профессиональный (многоголосый закадровый)"],"quality":"dvdrip","translation":"Профессиональный (многоголосый закадровый)","update":"2019-12-10 06:18:20","iframe_src":"//7043.svetacdn.in/71tsRs29n5tZ/movie/33900"},{"id":33897,"title":"Темная сторона желания","kp_id":"34886","imdb_id":"tt0348843","world_art_id":null,"type":"movie","add":"2019-12-10 05:27:47","orig_title":"Jism","year":"2003-01-17","translations":["Профессиональный (многоголосый закадровый) (Формат AB)"],"quality":"dvdrip","translation":"Профессиональный (многоголосый закадровый) (Формат AB)","update":"2019-12-10 06:11:42","iframe_src":"//7043.svetacdn.in/71tsRs29n5tZ/movie/33897"},{"id":33888,"title":"Выжившее зло","kp_id":"452649","imdb_id":"tt0804539","world_art_id":null,"type":"movie","add":"2019-12-09 20:25:32","orig_title":"Surviving Evil","year":"2009-07-10","translations":["Профессиональный (многоголосый закадровый)"],"quality":"hdtv","translation":"Профессиональный (многоголосый закадровый)","update":"2019-12-09 21:14:11","iframe_src":"//7043.svetacdn.in/71tsRs29n5tZ/movie/33888"},{"id":33886,"title":"В безопасности","kp_id":"634238","imdb_id":"tt2081274","world_art_id":null,"type":"movie","add":"2019-12-09 20:21:21","orig_title":"In Security","year":"2013-04-25","translations":["Любительский (одноголосый закадровый)"],"quality":"webdl","translation":"Любительский (одноголосый закадровый)","update":"2019-12-09 21:14:43","iframe_src":"//7043.svetacdn.in/71tsRs29n5tZ/movie/33886"},{"id":33885,"title":"Белый дракон","kp_id":"178542","imdb_id":"tt0441263","world_art_id":null,"type":"movie","add":"2019-12-09 20:19:50","orig_title":"Fei hap Siu bak lung","year":"2004-10-28","translations":["Профессиональный (многоголосый закадровый)"],"quality":"dvdrip","translation":"Профессиональный (многоголосый закадровый)","update":"2019-12-09 21:15:13","iframe_src":"//7043.svetacdn.in/71tsRs29n5tZ/movie/33885"},{"id":33884,"title":"Дьявольская миля","kp_id":"606860","imdb_id":"tt2018136","world_art_id":null,"type":"movie","add":"2019-12-09 20:18:11","orig_title":"Devil's Mile","year":"2014-07-26","translations":["Любительский (одноголосый закадровый)"],"quality":"webdl","translation":"Любительский (одноголосый закадровый)","update":"2019-12-09 21:15:42","iframe_src":"//7043.svetacdn.in/71tsRs29n5tZ/movie/33884"},{"id":33883,"title":"Аравт – 10 солдат Чингисхана","kp_id":"707588","imdb_id":"tt2245990","world_art_id":null,"type":"movie","add":"2019-12-09 20:16:11","orig_title":"Genghis: The Legend of the Ten","year":"2012-04-21","translations":["Любительский (многоголосый закадровый)"],"quality":"hdrip","translation":"Любительский (многоголосый закадровый)","update":"2019-12-09 21:16:07","iframe_src":"//7043.svetacdn.in/71tsRs29n5tZ/movie/33883"},{"id":33876,"title":"Письмо незнакомки","kp_id":"327818","imdb_id":"tt0298411","world_art_id":null,"type":"movie","add":"2019-12-09 19:10:33","orig_title":"Lettre d'une inconnue","year":"2002-06-01","translations":["Профессиональный (многоголосый закадровый)"],"quality":"dvdrip","translation":"Профессиональный (многоголосый закадровый)","update":"2019-12-10 05:23:47","iframe_src":"//7043.svetacdn.in/71tsRs29n5tZ/movie/33876"},{"id":33862,"title":"Предчувствие бури","kp_id":"592161","imdb_id":"tt1942798","world_art_id":null,"type":"movie","add":"2019-12-09 17:12:30","orig_title":"Alien Tornado","year":"2012-04-21","translations":["Профессиональный (многоголосый закадровый)"],"quality":"hdtv","translation":"Профессиональный (многоголосый закадровый)","update":"2019-12-09 19:37:45","iframe_src":"//7043.svetacdn.in/71tsRs29n5tZ/movie/33862"},{"id":33858,"title":"Три мушкетера: Месть миледи","kp_id":"64027","imdb_id":"tt0055548","world_art_id":null,"type":"movie","add":"2019-12-09 11:03:21","orig_title":"Les trois mousquetaires: La vengeance de Milady","year":"1961-10-18","translations":["Полное дублирование"],"quality":"hdtv","translation":"Полное дублирование","update":"2019-12-09 17:54:42","iframe_src":"//7043.svetacdn.in/71tsRs29n5tZ/movie/33858"},{"id":33843,"title":"Я здесь","kp_id":"249105","imdb_id":"tt0417010","world_art_id":null,"type":"movie","add":"2019-12-08 12:15:40","orig_title":"Nenunnanu","year":"2004-04-06","translations":["Любительский (одноголосый закадровый)  (zamez | Замез Вячеслав)"],"quality":"webdl","translation":"Любительский (одноголосый закадровый)  (zamez | Замез Вячеслав)","update":"2019-12-10 06:54:50","iframe_src":"//7043.svetacdn.in/71tsRs29n5tZ/movie/33843"},{"id":33823,"title":"Кулак возмездия","kp_id":"24741","imdb_id":"tt0070017","world_art_id":null,"type":"movie","add":"2019-12-07 20:57:06","orig_title":"Ding tian li di","year":"1973-01-12","translations":["Авторский (одноголосый закадровый) (Визгунов Сергей)"],"quality":"dvdrip","translation":"Авторский (одноголосый закадровый) (Визгунов Сергей)","update":"2019-12-09 15:57:00","iframe_src":"//7043.svetacdn.in/71tsRs29n5tZ/movie/33823"},{"id":33822,"title":"Абсурдная храбрость","kp_id":null,"imdb_id":"tt4748166","world_art_id":null,"type":"movie","add":"2019-12-07 20:54:04","orig_title":"Peng gong qi an","year":"1969-01-01","translations":["Любительский (одноголосый закадровый) (Береговых Виктор | Jet)"],"quality":"dvdrip","translation":"Любительский (одноголосый закадровый) (Береговых Виктор | Jet)","update":"2019-12-09 15:56:18","iframe_src":"//7043.svetacdn.in/71tsRs29n5tZ/movie/33822"},{"id":33821,"title":"Кровь, слёзы, любовь, месть","kp_id":"1008489","imdb_id":null,"world_art_id":null,"type":"movie","add":"2019-12-07 20:42:17","orig_title":"Xue lei qing chou","year":"1989-01-01","translations":["Любительский (одноголосый закадровый) (Береговых Виктор | Jet)"],"quality":"dvdrip","translation":"Любительский (одноголосый закадровый) (Береговых Виктор | Jet)","update":"2019-12-09 15:47:11","iframe_src":"//7043.svetacdn.in/71tsRs29n5tZ/movie/33821"},{"id":33819,"title":"Легендарный удар","kp_id":"57248","imdb_id":"tt0077829","world_art_id":null,"type":"movie","add":"2019-12-07 20:36:39","orig_title":"Lang tzu yi chao","year":"1978-11-30","translations":["Авторский (одноголосый закадровый) (Кузнецов Сергей)"],"quality":"dvdrip","translation":"Авторский (одноголосый закадровый) (Кузнецов Сергей)","update":"2019-12-09 15:45:27","iframe_src":"//7043.svetacdn.in/71tsRs29n5tZ/movie/33819"},{"id":33818,"title":"Казино","kp_id":"154503","imdb_id":"tt0165336","world_art_id":null,"type":"movie","add":"2019-12-07 20:32:49","orig_title":"Ji xiang du fang","year":"1972-03-30","translations":["Любительский (одноголосый закадровый) (Береговых Виктор | Jet)"],"quality":"dvdrip","translation":"Любительский (одноголосый закадровый) (Береговых Виктор | Jet)","update":"2019-12-09 15:42:34","iframe_src":"//7043.svetacdn.in/71tsRs29n5tZ/movie/33818"},{"id":33810,"title":"Безумный монах","kp_id":"22743","imdb_id":"tt0106538","world_art_id":null,"type":"movie","add":"2019-12-07 18:44:28","orig_title":"Chai Gong","year":"1993-07-29","translations":["Любительский (одноголосый закадровый)"],"quality":"bd","translation":"Любительский (одноголосый закадровый)","update":"2019-12-10 06:53:48","iframe_src":"//7043.svetacdn.in/71tsRs29n5tZ/movie/33810"},{"id":31021,"title":"Тёмная сторона","kp_id":"1183843","imdb_id":"tt8883524","world_art_id":null,"type":"movie","add":"2019-09-20 20:06:13","orig_title":"Bloodline","year":"2018-09-22","translations":["Полное дублирование"],"quality":"bd","translation":"Полное дублирование","update":"2019-12-09 16:50:43","iframe_src":"//7043.svetacdn.in/71tsRs29n5tZ/movie/31021"},{"id":28477,"title":"Три мушкетера: Подвески королевы","kp_id":"64026","imdb_id":"tt0055549","world_art_id":null,"type":"movie","add":"2019-07-02 10:29:39","orig_title":"Les trois mousquetaires: Première époque - Les ferrets de la reine","year":"1961-10-04","translations":["Полное дублирование"],"quality":"hdtv","translation":"Полное дублирование","update":"2019-12-09 17:53:48","iframe_src":"//7043.svetacdn.in/71tsRs29n5tZ/movie/28477"}],"current_page":955,"first_page_url":"https://videocdn.tv/api/short?limit=100&api_token=EnbO9h8pv1VyjbCJhg0WM9nG259n7mtz&cache3955=3955&page=1","from":95401,"last_page":615,"last_page_url":"https://videocdn.tv/api/short?limit=100&api_token=EnbO9h8pv1VyjbCJhg0WM9nG259n7mtz&cache3955=3955&page=615","next_page_url":null,"path":"https://videocdn.tv/api/short","per_page":100,"prev_page_url":"https://videocdn.tv/api/short?limit=100&api_token=EnbO9h8pv1VyjbCJhg0WM9nG259n7mtz&cache3955=3955&page=954","to":95420,"total":61457}