{"result":true,"data":[{"id":13139,"title":"Три спальни, один труп: Тайна Авроры Тигарден","kp_id":"985906","imdb_id":"tt5790274","world_art_id":null,"type":"movie","add":"2017-08-25 04:42:09","orig_title":"Three Bedrooms, One Corpse: An Aurora Teagarden Mystery","year":"2016-06-12","translations":["Любительский (многоголосый закадровый) (Синема УС)"],"quality":"hdtv","translation":"Любительский (многоголосый закадровый) (Синема УС)","update":"2017-08-25 08:58:10","iframe_src":"//7043.svetacdn.in/si4jsFRrtgrT/movie/13139"},{"id":13138,"title":"Звон колокольчиков","kp_id":"1008948","imdb_id":"tt6349282","world_art_id":null,"type":"movie","add":"2017-08-25 04:41:19","orig_title":"Sleigh Bells Ring","year":"2016-12-18","translations":["Любительский (многоголосый закадровый) (Синема УС)"],"quality":"hdtv","translation":"Любительский (многоголосый закадровый) (Синема УС)","update":"2017-08-25 07:03:44","iframe_src":"//7043.svetacdn.in/si4jsFRrtgrT/movie/13138"},{"id":13136,"title":"Акулы в Миссисипи","kp_id":"1038809","imdb_id":"tt6581990","world_art_id":null,"type":"movie","add":"2017-08-25 04:39:20","orig_title":"Mississippi River Sharks","year":"2017-07-31","translations":["Любительский (многоголосый закадровый) (Синема УС)"],"quality":"hdtv","translation":"Любительский (многоголосый закадровый) (Синема УС)","update":"2017-08-25 08:57:35","iframe_src":"//7043.svetacdn.in/si4jsFRrtgrT/movie/13136"},{"id":13135,"title":"Лимон","kp_id":"997757","imdb_id":"tt5973364","world_art_id":null,"type":"movie","add":"2017-08-25 04:38:28","orig_title":"Lemon","year":"2017-01-22","translations":["Любительский (многоголосый закадровый) (Синема УС)"],"quality":"webdl","translation":"Любительский (многоголосый закадровый) (Синема УС)","update":"2017-08-25 07:03:21","iframe_src":"//7043.svetacdn.in/si4jsFRrtgrT/movie/13135"},{"id":13134,"title":"Свадебный марш 2","kp_id":"1046108","imdb_id":"tt7042800","world_art_id":null,"type":"movie","add":"2017-08-23 21:15:26","orig_title":"Wedding March 2: Resorting to Love","year":"2017-06-17","translations":["Любительский (многоголосый закадровый) (Синема УС)"],"quality":"hdtv","translation":"Любительский (многоголосый закадровый) (Синема УС)","update":"2017-08-24 04:47:29","iframe_src":"//7043.svetacdn.in/si4jsFRrtgrT/movie/13134"},{"id":13133,"title":"Девушка с камелиями","kp_id":"961695","imdb_id":"tt4876334","world_art_id":null,"type":"movie","add":"2017-08-23 21:06:49","orig_title":"Shôjo tsubaki","year":"2016-05-21","translations":["Любительский (многоголосый закадровый) (Синема УС)"],"quality":"bd","translation":"Любительский (многоголосый закадровый) (Синема УС)","update":"2017-08-24 09:30:41","iframe_src":"//7043.svetacdn.in/si4jsFRrtgrT/movie/13133"},{"id":13132,"title":"Свадебный ужас","kp_id":"1006084","imdb_id":"tt6104992","world_art_id":null,"type":"movie","add":"2017-08-23 20:44:57","orig_title":"Nightmare Wedding","year":"2016-11-19","translations":["Любительский (многоголосый закадровый) (Синема УС)"],"quality":"hdtv","translation":"Любительский (многоголосый закадровый) (Синема УС)","update":"2017-08-24 05:04:34","iframe_src":"//7043.svetacdn.in/si4jsFRrtgrT/movie/13132"},{"id":13130,"title":"Предназначение: Музыкальное приключение Льюиса и Кларка","kp_id":"964970","imdb_id":"tt5498536","world_art_id":null,"type":"movie","add":"2017-08-23 20:39:50","orig_title":"Manifest Destiny: The Lewis & Clark Musical Adventure","year":"2016-07-13","translations":["Любительский (многоголосый закадровый) (Синема УС)"],"quality":"webdl","translation":"Любительский (многоголосый закадровый) (Синема УС)","update":"2017-08-24 05:20:01","iframe_src":"//7043.svetacdn.in/si4jsFRrtgrT/movie/13130"},{"id":13129,"title":"Любовь с первого лая","kp_id":"1028132","imdb_id":"tt6456614","world_art_id":null,"type":"movie","add":"2017-08-23 20:34:57","orig_title":"Love at First Bark","year":"2017-04-01","translations":["Любительский (многоголосый закадровый) (Синема УС)"],"quality":"hdtv","translation":"Любительский (многоголосый закадровый) (Синема УС)","update":"2017-08-24 05:21:03","iframe_src":"//7043.svetacdn.in/si4jsFRrtgrT/movie/13129"},{"id":13128,"title":"Кладоискатели","kp_id":"696938","imdb_id":null,"world_art_id":null,"type":"movie","add":"2017-08-23 20:24:59","orig_title":"Кладоискатели","year":"2011-08-23","translations":["Оригинальная дорожка"],"quality":"unknown","translation":"Оригинальная дорожка","update":"2017-08-24 05:23:43","iframe_src":"//7043.svetacdn.in/si4jsFRrtgrT/movie/13128"},{"id":13127,"title":"Как объяснить тебе, что ты придурок","kp_id":"961158","imdb_id":"tt5280984","world_art_id":null,"type":"movie","add":"2017-08-23 20:21:13","orig_title":"How to Tell You're a Douchebag","year":"2016-01-25","translations":["Любительский (многоголосый закадровый) (Синема УС)"],"quality":"hdtv","translation":"Любительский (многоголосый закадровый) (Синема УС)","update":"2017-08-24 05:09:03","iframe_src":"//7043.svetacdn.in/si4jsFRrtgrT/movie/13127"},{"id":13125,"title":"Как найти мужа","kp_id":"963767","imdb_id":"tt5364518","world_art_id":null,"type":"movie","add":"2017-08-23 20:06:26","orig_title":"Dater's Handbook","year":"2016-01-30","translations":["Любительский (многоголосый закадровый) (Синема УС)"],"quality":"hdtv","translation":"Любительский (многоголосый закадровый) (Синема УС)","update":"2017-08-24 05:24:45","iframe_src":"//7043.svetacdn.in/si4jsFRrtgrT/movie/13125"},{"id":13124,"title":"Рождественский список","kp_id":"997845","imdb_id":"tt5902138","world_art_id":null,"type":"movie","add":"2017-08-23 20:01:32","orig_title":"Christmas List","year":"2016-11-25","translations":["Любительский (многоголосый закадровый) (Синема УС)"],"quality":"hdtv","translation":"Любительский (многоголосый закадровый) (Синема УС)","update":"2017-08-24 05:27:17","iframe_src":"//7043.svetacdn.in/si4jsFRrtgrT/movie/13124"},{"id":13123,"title":"Рождество в Хоумстед","kp_id":"1008950","imdb_id":"tt6273004","world_art_id":null,"type":"movie","add":"2017-08-23 19:59:13","orig_title":"Christmas in Homestead","year":"2016-11-24","translations":["Любительский (многоголосый закадровый) (Синема УС)"],"quality":"hdtv","translation":"Любительский (многоголосый закадровый) (Синема УС)","update":"2017-08-24 09:31:44","iframe_src":"//7043.svetacdn.in/si4jsFRrtgrT/movie/13123"},{"id":13122,"title":"Большие люди: Жол-inclusive","kp_id":"893163","imdb_id":null,"world_art_id":null,"type":"movie","add":"2017-08-23 19:53:50","orig_title":"Большие люди: Жол-inclusive","year":"2014-08-23","translations":["Оригинальная дорожка"],"quality":"webdl","translation":"Оригинальная дорожка","update":"2017-08-24 05:28:53","iframe_src":"//7043.svetacdn.in/si4jsFRrtgrT/movie/13122"},{"id":13121,"title":"После свадьбы","kp_id":"707973","imdb_id":"tt2382622","world_art_id":null,"type":"movie","add":"2017-08-23 19:46:22","orig_title":"After the Wedding","year":"2017-07-28","translations":["Любительский (многоголосый закадровый) (Синема УС)"],"quality":"webdl","translation":"Любительский (многоголосый закадровый) (Синема УС)","update":"2017-08-24 05:16:15","iframe_src":"//7043.svetacdn.in/si4jsFRrtgrT/movie/13121"},{"id":13120,"title":"Целая вечность","kp_id":"881377","imdb_id":"tt4338434","world_art_id":null,"type":"movie","add":"2017-08-23 19:39:29","orig_title":"A Month of Sundays","year":"2015-09-13","translations":["Любительский (многоголосый закадровый) (Синема УС)"],"quality":"webdl","translation":"Любительский (многоголосый закадровый) (Синема УС)","update":"2017-08-24 05:29:49","iframe_src":"//7043.svetacdn.in/si4jsFRrtgrT/movie/13120"},{"id":13119,"title":"Тайна Авроры Тигадэн: Свести счеты","kp_id":"859551","imdb_id":"tt4200442","world_art_id":null,"type":"movie","add":"2017-08-23 19:35:42","orig_title":"Aurora Teagarden Mystery: A Bone to Pick","year":"2015-04-04","translations":["Любительский (многоголосый закадровый) (Синема УС)"],"quality":"hdtv","translation":"Любительский (многоголосый закадровый) (Синема УС)","update":"2017-08-24 05:31:09","iframe_src":"//7043.svetacdn.in/si4jsFRrtgrT/movie/13119"},{"id":13099,"title":"Свинки","kp_id":"481594","imdb_id":"tt1441344","world_art_id":null,"type":"movie","add":"2017-08-23 04:10:20","orig_title":"Swinki","year":"2009-09-16","translations":["Любительский (одноголосый закадровый)"],"quality":"dvdrip","translation":"Любительский (одноголосый закадровый)","update":"2017-08-23 10:17:19","iframe_src":"//7043.svetacdn.in/si4jsFRrtgrT/movie/13099"},{"id":11987,"title":"Очень плохие девчонки","kp_id":"975912","imdb_id":"tt4799050","world_art_id":null,"type":"movie","add":"2017-06-17 23:58:19","orig_title":"Rough Night","year":"2017-06-15","translations":["Полное дублирование","Полное дублирование (iTunes)"],"quality":"bd","translation":"Полное дублирование","update":"2017-08-25 08:57:03","iframe_src":"//7043.svetacdn.in/si4jsFRrtgrT/movie/11987"}],"current_page":1988,"first_page_url":"https://videocdn.tv/api/short?limit=100&api_token=X6EwAUfE5M9xbo7y0Bp0aPf3uXxG2KLL&cache31988=31988&page=1","from":198701,"last_page":617,"last_page_url":"https://videocdn.tv/api/short?limit=100&api_token=X6EwAUfE5M9xbo7y0Bp0aPf3uXxG2KLL&cache31988=31988&page=617","next_page_url":null,"path":"https://videocdn.tv/api/short","per_page":100,"prev_page_url":"https://videocdn.tv/api/short?limit=100&api_token=X6EwAUfE5M9xbo7y0Bp0aPf3uXxG2KLL&cache31988=31988&page=1987","to":198720,"total":61696}