{"result":true,"data":[{"id":49977,"title":"Телефон дьявола 2","kp_id":"33641","imdb_id":"tt0101256","world_art_id":null,"type":"movie","add":"2021-04-28 12:50:16","orig_title":"976-Evil II","year":"1991-12-31","translations":["Профессиональный (многоголосый закадровый) (ТВ3)"],"quality":"dvdrip","translation":"Профессиональный (многоголосый закадровый) (ТВ3)","update":"2021-04-28 18:56:44","iframe_src":"//5091.svetacdn.in/si4jsFRrtgrT/movie/49977"},{"id":49976,"title":"Помидоры-убийцы съедают Францию!","kp_id":"18122","imdb_id":"tt0102210","world_art_id":null,"type":"movie","add":"2021-04-28 12:39:51","orig_title":"Killer Tomatoes Eat France!","year":"1992-11-18","translations":["Любительский (одноголосый закадровый)"],"quality":"dvdrip","translation":"Любительский (одноголосый закадровый)","update":"2021-04-28 16:57:59","iframe_src":"//5091.svetacdn.in/si4jsFRrtgrT/movie/49976"},{"id":49975,"title":"Помидоры-убийцы наносят ответный удар","kp_id":"25409","imdb_id":"tt0099935","world_art_id":null,"type":"movie","add":"2021-04-28 12:33:56","orig_title":"Killer Tomatoes Strike Back!","year":"1991-11-14","translations":["Любительский (одноголосый закадровый) (Сафронов Иван | *Jonathan*)"],"quality":"dvdrip","translation":"Любительский (одноголосый закадровый) (Сафронов Иван | *Jonathan*)","update":"2021-04-28 16:56:47","iframe_src":"//5091.svetacdn.in/si4jsFRrtgrT/movie/49975"},{"id":49973,"title":"Бархатные пальчики","kp_id":"244384","imdb_id":"tt0423651","world_art_id":null,"type":"movie","add":"2021-04-28 12:02:59","orig_title":"Fingersmith","year":"2005-03-27","translations":["Профессиональный (двухголосый закадровый)"],"quality":"dvdrip","translation":"Профессиональный (двухголосый закадровый)","update":"2021-04-28 13:36:16","iframe_src":"//5091.svetacdn.in/si4jsFRrtgrT/movie/49973"},{"id":49972,"title":"Грехи моего отца","kp_id":"477891","imdb_id":"tt1523980","world_art_id":null,"type":"movie","add":"2021-04-28 11:27:37","orig_title":"Pecados de mi padre","year":"2009-09-01","translations":["Профессиональный (многоголосый закадровый) (Позитив)"],"quality":"bd","translation":"Профессиональный (многоголосый закадровый) (Позитив)","update":"2021-04-28 23:10:27","iframe_src":"//5091.svetacdn.in/si4jsFRrtgrT/movie/49972"},{"id":49971,"title":"Принцесса Карабу","kp_id":"15533","imdb_id":"tt0110892","world_art_id":null,"type":"movie","add":"2021-04-28 11:18:51","orig_title":"Princess Caraboo","year":"1994-09-16","translations":["Профессиональный (многоголосый закадровый)","Профессиональный (двухголосый закадровый) (Selena International)"],"quality":"dvdrip","translation":"Профессиональный (многоголосый закадровый)","update":"2021-04-28 16:54:27","iframe_src":"//5091.svetacdn.in/si4jsFRrtgrT/movie/49971"},{"id":49965,"title":"Убей, похорони, победи","kp_id":"1165832","imdb_id":"tt8592498","world_art_id":null,"type":"movie","add":"2021-04-28 08:59:37","orig_title":"Murder Bury Win","year":"2020-10-22","translations":["Любительский (многоголосый закадровый) (Синема УС)"],"quality":"webdl","translation":"Любительский (многоголосый закадровый) (Синема УС)","update":"2021-04-28 17:46:25","iframe_src":"//5091.svetacdn.in/si4jsFRrtgrT/movie/49965"},{"id":49963,"title":"Театр сумасшедших 3","kp_id":"1205252","imdb_id":"tt9163226","world_art_id":null,"type":"movie","add":"2021-04-28 08:51:42","orig_title":"Theatre of the Deranged III","year":"2019-07-01","translations":["Любительский (многоголосый закадровый) (Синема УС)"],"quality":"webdl","translation":"Любительский (многоголосый закадровый) (Синема УС)","update":"2021-04-28 17:50:37","iframe_src":"//5091.svetacdn.in/si4jsFRrtgrT/movie/49963"},{"id":49961,"title":"Самое лучшее лето: мюзикл","kp_id":"1137354","imdb_id":"tt7543058","world_art_id":null,"type":"movie","add":"2021-04-28 08:45:32","orig_title":"Best Summer Ever","year":"2020-10-10","translations":["Любительский (многоголосый закадровый) (Синема УС)"],"quality":"webdl","translation":"Любительский (многоголосый закадровый) (Синема УС)","update":"2021-04-28 17:23:06","iframe_src":"//5091.svetacdn.in/si4jsFRrtgrT/movie/49961"},{"id":49960,"title":"Тихие воды","kp_id":"1280901","imdb_id":"tt10558990","world_art_id":null,"type":"movie","add":"2021-04-28 08:43:16","orig_title":"Still The Water","year":"2020-09-17","translations":["Любительский (многоголосый закадровый) (@MUZOBOZ@)"],"quality":"webdl","translation":"Любительский (многоголосый закадровый) (@MUZOBOZ@)","update":"2021-04-28 14:32:16","iframe_src":"//5091.svetacdn.in/si4jsFRrtgrT/movie/49960"},{"id":49959,"title":"Июльская рапсодия","kp_id":"52236","imdb_id":"tt0312886","world_art_id":null,"type":"movie","add":"2021-04-28 05:39:20","orig_title":"Nam yan sei sap","year":"2002-03-14","translations":["Любительский (одноголосый закадровый) (Shaman)"],"quality":"bd","translation":"Любительский (одноголосый закадровый) (Shaman)","update":"2021-04-28 10:23:32","iframe_src":"//5091.svetacdn.in/si4jsFRrtgrT/movie/49959"},{"id":49957,"title":"Черный аист","kp_id":"224111","imdb_id":"tt0106569","world_art_id":null,"type":"movie","add":"2021-04-28 05:34:58","orig_title":"Chyornyy aist","year":"1993-01-01","translations":["Оригинальная дорожка"],"quality":"webdl","translation":"Оригинальная дорожка","update":"2021-04-28 10:34:18","iframe_src":"//5091.svetacdn.in/si4jsFRrtgrT/movie/49957"},{"id":49955,"title":"Героиня","kp_id":"942054","imdb_id":"tt5159412","world_art_id":null,"type":"movie","add":"2021-04-27 18:50:45","orig_title":"Nayagi","year":"2016-07-15","translations":["Любительский (многоголосый закадровый) (LovelyVox)"],"quality":"webdl","translation":"Любительский (многоголосый закадровый) (LovelyVox)","update":"2021-04-28 09:57:12","iframe_src":"//5091.svetacdn.in/si4jsFRrtgrT/movie/49955"},{"id":49954,"title":"Моя именинная песнь","kp_id":"886241","imdb_id":"tt4335954","world_art_id":null,"type":"movie","add":"2021-04-27 18:48:15","orig_title":"My Birthday Song","year":"2018-01-19","translations":["Любительский (многоголосый закадровый) (FanStudio)"],"quality":"webdl","translation":"Любительский (многоголосый закадровый) (FanStudio)","update":"2021-04-28 09:56:57","iframe_src":"//5091.svetacdn.in/si4jsFRrtgrT/movie/49954"},{"id":49953,"title":"Шанс","kp_id":"961956","imdb_id":"tt5436158","world_art_id":null,"type":"movie","add":"2021-04-27 18:46:07","orig_title":"Oozham","year":"2016-09-08","translations":["Любительский (многоголосый закадровый) (FanStudio)"],"quality":"dvdrip","translation":"Любительский (многоголосый закадровый) (FanStudio)","update":"2021-04-28 09:56:45","iframe_src":"//5091.svetacdn.in/si4jsFRrtgrT/movie/49953"},{"id":49952,"title":"Безумие","kp_id":"41808","imdb_id":"tt0077783","world_art_id":null,"type":"movie","add":"2021-04-27 18:44:05","orig_title":"Junoon","year":"1979-03-30","translations":["Любительский (одноголосый закадровый)"],"quality":"dvdrip","translation":"Любительский (одноголосый закадровый)","update":"2021-04-28 09:56:29","iframe_src":"//5091.svetacdn.in/si4jsFRrtgrT/movie/49952"},{"id":49951,"title":"Ланг и Лачи","kp_id":"1112888","imdb_id":"tt8024556","world_art_id":null,"type":"movie","add":"2021-04-27 18:40:43","orig_title":"Laung Laachi","year":"2018-03-09","translations":["Любительский (многоголосый закадровый) (FanStudio)"],"quality":"hdrip","translation":"Любительский (многоголосый закадровый) (FanStudio)","update":"2021-04-28 09:55:59","iframe_src":"//5091.svetacdn.in/si4jsFRrtgrT/movie/49951"},{"id":49950,"title":"Свадьба Вира","kp_id":"1064788","imdb_id":"tt7262178","world_art_id":null,"type":"movie","add":"2021-04-27 18:36:54","orig_title":"Veerey Ki Wedding","year":"2018-03-02","translations":["Любительский (многоголосый закадровый) (FanStudio)"],"quality":"hdrip","translation":"Любительский (многоголосый закадровый) (FanStudio)","update":"2021-04-28 09:55:44","iframe_src":"//5091.svetacdn.in/si4jsFRrtgrT/movie/49950"},{"id":48519,"title":"Райя и последний дракон","kp_id":"1015471","imdb_id":"tt5109280","world_art_id":null,"type":"movie","add":"2021-03-07 11:54:14","orig_title":"Raya and the Last Dragon","year":"2021-03-03","translations":["Профессиональный (многоголосый закадровый) (HDrezka Studio)","Полное дублирование"],"quality":"webdl","translation":"Профессиональный (многоголосый закадровый) (HDrezka Studio)","update":"2021-04-29 03:31:49","iframe_src":"//5091.svetacdn.in/si4jsFRrtgrT/movie/48519"},{"id":7036,"title":"Императрица Сисси","kp_id":"494648","imdb_id":"tt1442136","world_art_id":null,"type":"serial","add":"2020-04-01 09:14:31","orig_title":"Sisi","year":"2009-12-16","translations":["Профессиональный (многоголосый закадровый)"],"seasons_count":1,"episodes_count":2,"episodes":2,"update":"2020-04-01 11:53:26","iframe_src":"//5091.svetacdn.in/si4jsFRrtgrT/tv-series/7036"},{"id":7034,"title":"Приключения реактивного поросенка","kp_id":"430601","imdb_id":null,"world_art_id":null,"type":"serial","add":"2020-03-31 14:05:18","orig_title":"Приключения реактивного поросенка","year":"2004-01-01","translations":["Оригинальная дорожка"],"seasons_count":1,"episodes_count":5,"episodes":5,"update":"2020-03-31 22:24:34","iframe_src":"//5091.svetacdn.in/si4jsFRrtgrT/tv-series/7034"},{"id":7032,"title":"Стакан воды","kp_id":"94752","imdb_id":"tt0173242","world_art_id":null,"type":"serial","add":"2020-03-30 22:21:27","orig_title":"Stakan vody","year":"1979-08-25","translations":["Оригинальная дорожка"],"seasons_count":1,"episodes_count":2,"episodes":2,"update":"2020-03-31 14:10:37","iframe_src":"//5091.svetacdn.in/si4jsFRrtgrT/tv-series/7032"},{"id":7031,"title":"Второй убойный 2","kp_id":"885346","imdb_id":"tt4455570","world_art_id":null,"type":"serial","add":"2020-03-30 17:44:46","orig_title":"Vtoroy uboynyy 2","year":"2013-01-01","translations":["Оригинальная дорожка"],"seasons_count":1,"episodes_count":16,"episodes":16,"update":"2020-03-31 15:30:20","iframe_src":"//5091.svetacdn.in/si4jsFRrtgrT/tv-series/7031"},{"id":7030,"title":"Второй убойный","kp_id":"672943","imdb_id":null,"world_art_id":null,"type":"serial","add":"2020-03-30 17:34:16","orig_title":"Второй убойный","year":"2012-01-23","translations":["Оригинальная дорожка"],"seasons_count":1,"episodes_count":16,"episodes":16,"update":"2020-03-31 14:35:22","iframe_src":"//5091.svetacdn.in/si4jsFRrtgrT/tv-series/7030"},{"id":7023,"title":"Только один взгляд","kp_id":"1209003","imdb_id":"tt6272384","world_art_id":null,"type":"serial","add":"2020-03-29 04:41:47","orig_title":"Juste un regard","year":"2017-06-02","translations":["Профессиональный (многоголосый закадровый)"],"seasons_count":1,"episodes_count":6,"episodes":6,"update":"2020-03-31 17:57:07","iframe_src":"//5091.svetacdn.in/si4jsFRrtgrT/tv-series/7023"},{"id":7019,"title":"Космические спасатели лейтенанта Марша","kp_id":"280488","imdb_id":"tt0106842","world_art_id":null,"type":"serial","add":"2020-03-28 11:49:55","orig_title":"Exosquad","year":"1993-09-18","translations":["Полное дублирование"],"seasons_count":2,"episodes_count":52,"episodes":39,"update":"2020-03-31 17:21:52","iframe_src":"//5091.svetacdn.in/si4jsFRrtgrT/tv-series/7019"},{"id":7014,"title":"Пересекая черту","kp_id":"763048","imdb_id":"tt2427220","world_art_id":null,"type":"serial","add":"2020-03-27 21:56:17","orig_title":"Crossing Lines","year":"2013-06-09","translations":["Профессиональный (многоголосый закадровый) (Sony Turbo)"],"seasons_count":3,"episodes_count":33,"episodes":11,"update":"2020-03-30 14:55:15","iframe_src":"//5091.svetacdn.in/si4jsFRrtgrT/tv-series/7014"},{"id":7010,"title":"Пеппи Длинный чулок","kp_id":"161263","imdb_id":"tt0062598","world_art_id":null,"type":"serial","add":"2020-03-27 13:14:45","orig_title":"Pippi Långstrump","year":"1969-02-08","translations":["Профессиональный (многоголосый закадровый)"],"seasons_count":1,"episodes_count":21,"episodes":21,"update":"2020-03-30 14:18:23","iframe_src":"//5091.svetacdn.in/si4jsFRrtgrT/tv-series/7010"},{"id":7008,"title":"Вернуть из мертвых","kp_id":"277914","imdb_id":"tt0364817","world_art_id":null,"type":"serial","add":"2020-03-27 12:55:04","orig_title":"Tru Calling","year":"2003-10-30","translations":["Профессиональный (многоголосый закадровый)"],"seasons_count":2,"episodes_count":26,"episodes":6,"update":"2020-03-30 14:04:07","iframe_src":"//5091.svetacdn.in/si4jsFRrtgrT/tv-series/7008"},{"id":7006,"title":"Любовь под прикрытием","kp_id":"1101284","imdb_id":null,"world_art_id":null,"type":"serial","add":"2020-03-27 11:00:51","orig_title":"Wo de ai qing bu ping fan","year":"2017-03-26","translations":["Профессиональный (многоголосый закадровый) (GreenРай Studio)","Профессиональный (многоголосый закадровый)"],"seasons_count":1,"episodes_count":31,"episodes":31,"update":"2020-03-30 17:09:27","iframe_src":"//5091.svetacdn.in/si4jsFRrtgrT/tv-series/7006"},{"id":6986,"title":"Черная метка","kp_id":"301080","imdb_id":"tt0810788","world_art_id":null,"type":"serial","add":"2020-03-25 09:23:44","orig_title":"Burn Notice","year":"2007-06-28","translations":["Профессиональный (многоголосый закадровый) (ТВ3)","Профессиональный (многоголосый закадровый) (TVShows)","Любительский (многоголосый закадровый) (FilmGate)","Любительский (одноголосый закадровый)"],"seasons_count":7,"episodes_count":111,"episodes":13,"update":"2020-03-31 14:12:37","iframe_src":"//5091.svetacdn.in/si4jsFRrtgrT/tv-series/6986"},{"id":6982,"title":"Автомастера: деньги из ржавчины","kp_id":null,"imdb_id":"tt8893550","world_art_id":null,"type":"serial","add":"2020-03-25 06:15:33","orig_title":"Car Masters: Rust to Riches","year":"2018-09-14","translations":["Любительский (многоголосый закадровый) (Octopus)"],"seasons_count":1,"episodes_count":8,"episodes":8,"update":"2020-04-01 15:29:29","iframe_src":"//5091.svetacdn.in/si4jsFRrtgrT/tv-series/6982"},{"id":6890,"title":"Служанки","kp_id":"1346748","imdb_id":"tt11755606","world_art_id":null,"type":"serial","add":"2020-03-16 08:33:21","orig_title":"Hizmetçiler","year":"2020-03-07","translations":["Любительский (двухголосый закадровый) (Анастасия Гайдаржи + Андрей Юрченко)"],"seasons_count":1,"episodes_count":3,"episodes":3,"update":"2020-03-30 15:24:44","iframe_src":"//5091.svetacdn.in/si4jsFRrtgrT/tv-series/6890"},{"id":6808,"title":"Затмение","kp_id":"1253516","imdb_id":null,"world_art_id":null,"type":"serial","add":"2020-03-09 04:52:58","orig_title":"Затмение","year":"2018-08-27","translations":["Оригинальная дорожка"],"seasons_count":1,"episodes_count":8,"episodes":8,"update":"2020-04-01 15:44:59","iframe_src":"//5091.svetacdn.in/si4jsFRrtgrT/tv-series/6808"},{"id":6777,"title":"Класс: Жизнь после","kp_id":"565779","imdb_id":"tt1670474","world_art_id":null,"type":"serial","add":"2020-03-04 09:03:36","orig_title":"Klass - Elu pärast","year":"2010-11-06","translations":["Любительский (одноголосый закадровый)"],"seasons_count":1,"episodes_count":7,"episodes":7,"update":"2020-04-01 15:37:49","iframe_src":"//5091.svetacdn.in/si4jsFRrtgrT/tv-series/6777"},{"id":6243,"title":"Линкольн Райм: Охота на Собирателя костей","kp_id":"1209836","imdb_id":"tt9307990","world_art_id":null,"type":"serial","add":"2020-01-06 09:10:13","orig_title":"Lincoln Rhyme: Hunt for the Bone Collector","year":"2020-01-10","translations":["Любительский (многоголосый закадровый) (Octopus)","Профессиональный (двухголосый закадровый) (Gears Media)","Профессиональный (многоголосый закадровый) (TVShows)","Профессиональный (многоголосый закадровый) (BaibaKo)"],"seasons_count":1,"episodes_count":10,"episodes":10,"update":"2020-04-01 11:00:18","iframe_src":"//5091.svetacdn.in/si4jsFRrtgrT/tv-series/6243"},{"id":4691,"title":"Лондон убивает","kp_id":"1188779","imdb_id":"tt8571906","world_art_id":null,"type":"serial","add":"2019-06-17 19:27:16","orig_title":"London Kills","year":"2019-02-25","translations":["Профессиональный (многоголосый закадровый) (HDrezka Studio)","Любительский (многоголосый закадровый) (Octopus)"],"seasons_count":2,"episodes_count":10,"episodes":5,"update":"2020-03-30 13:59:22","iframe_src":"//5091.svetacdn.in/si4jsFRrtgrT/tv-series/4691"},{"id":4342,"title":"Охотник","kp_id":"1142166","imdb_id":"tt8118950","world_art_id":null,"type":"serial","add":"2019-04-01 04:13:44","orig_title":"Il cacciatore","year":"2018-03-14","translations":["Профессиональный (многоголосый закадровый)","Любительский (многоголосый закадровый) (ColdFilm)","Любительский (многоголосый закадровый) (Octopus)"],"seasons_count":2,"episodes_count":14,"episodes":8,"update":"2020-03-31 06:23:58","iframe_src":"//5091.svetacdn.in/si4jsFRrtgrT/tv-series/4342"},{"id":1150,"title":"Германия 83","kp_id":"885659","imdb_id":"tt4445154","world_art_id":null,"type":"serial","add":"2017-03-29 17:26:55","orig_title":"Deutschland 83","year":"2015-11-26","translations":["Профессиональный (многоголосый закадровый) (AlexFilm)","Профессиональный (многоголосый закадровый) (HDrezka Studio)"],"seasons_count":1,"episodes_count":8,"episodes":8,"update":"2020-03-30 13:46:48","iframe_src":"//5091.svetacdn.in/si4jsFRrtgrT/tv-series/1150"},{"id":5467,"title":"Освободите Вилли","kp_id":"14833","imdb_id":"tt0106965","world_art_id":null,"type":"movie","add":"2016-09-23 09:31:37","orig_title":"Free Willy","year":"1993-07-16","translations":["Профессиональный (двухголосый закадровый)","Полное дублирование","Авторский (одноголосый закадровый) (Дольский Андрей)","Авторский (одноголосый закадровый) (Горчаков Василий)","Полное дублирование (Гемини)","Полное дублирование (iTunes)","Original (English)","Профессиональный (многоголосый закадровый)","Профессиональный (многоголосый закадровый) (Первый канал | ОРТ)"],"quality":"bd","translation":"Профессиональный (двухголосый закадровый)","update":"2021-04-28 10:16:57","iframe_src":"//5091.svetacdn.in/si4jsFRrtgrT/movie/5467"}],"current_page":293,"first_page_url":"https://videocdn.tv/api/short?limit=100&api_token=X6EwAUfE5M9xbo7y0Bp0aPf3uXxG2KLL&cache3293=3293&page=1","from":29201,"last_page":665,"last_page_url":"https://videocdn.tv/api/short?limit=100&api_token=X6EwAUfE5M9xbo7y0Bp0aPf3uXxG2KLL&cache3293=3293&page=665","next_page_url":"https://videocdn.tv/api/short?limit=100&api_token=X6EwAUfE5M9xbo7y0Bp0aPf3uXxG2KLL&cache3293=3293&page=294","path":"https://videocdn.tv/api/short","per_page":100,"prev_page_url":"https://videocdn.tv/api/short?limit=100&api_token=X6EwAUfE5M9xbo7y0Bp0aPf3uXxG2KLL&cache3293=3293&page=292","to":29240,"total":66453}