{"result":true,"data":[{"id":43580,"title":"Поющая в Хоре","kp_id":"1012142","imdb_id":"tt6069908","world_art_id":null,"type":"movie","add":"2020-09-15 20:08:50","orig_title":"Choir Girl","year":"2019-12-05","translations":["Любительский (многоголосый закадровый) (Синема УС)"],"quality":"webdl","translation":"Любительский (многоголосый закадровый) (Синема УС)","update":"2020-09-16 06:19:55","iframe_src":"//7741.svetacdn.in/si4jsFRrtgrT/movie/43580"},{"id":43579,"title":"Битва на рельсах","kp_id":"25604","imdb_id":"tt0038334","world_art_id":null,"type":"movie","add":"2020-09-15 19:43:45","orig_title":"Bataille du rail","year":"1946-02-27","translations":["Авторский (одноголосый закадровый) (Рябов Сергей)"],"quality":"bd","translation":"Авторский (одноголосый закадровый) (Рябов Сергей)","update":"2020-09-16 06:46:31","iframe_src":"//7741.svetacdn.in/si4jsFRrtgrT/movie/43579"},{"id":43577,"title":"Финальный Смех","kp_id":null,"imdb_id":"tt8333418","world_art_id":null,"type":"movie","add":"2020-09-15 19:12:13","orig_title":"The Last Laugh","year":"2020-09-15","translations":["Любительский (многоголосый закадровый) (AlphaProject)"],"quality":"webdl","translation":"Любительский (многоголосый закадровый) (AlphaProject)","update":"2020-09-16 06:23:14","iframe_src":"//7741.svetacdn.in/si4jsFRrtgrT/movie/43577"},{"id":43576,"title":"Явление зла","kp_id":"1144877","imdb_id":"tt7904362","world_art_id":null,"type":"movie","add":"2020-09-15 19:08:39","orig_title":"Demon Nun","year":"2020-05-14","translations":["Любительский (многоголосый закадровый) (Синема УС)"],"quality":"webdl","translation":"Любительский (многоголосый закадровый) (Синема УС)","update":"2020-09-16 06:36:11","iframe_src":"//7741.svetacdn.in/si4jsFRrtgrT/movie/43576"},{"id":43575,"title":"Культистки","kp_id":"967118","imdb_id":"tt5533938","world_art_id":null,"type":"movie","add":"2020-09-15 19:05:35","orig_title":"Cult Girls","year":"2019-10-11","translations":["Любительский (многоголосый закадровый) (Синема УС)"],"quality":"webdl","translation":"Любительский (многоголосый закадровый) (Синема УС)","update":"2020-09-16 06:21:29","iframe_src":"//7741.svetacdn.in/si4jsFRrtgrT/movie/43575"},{"id":43574,"title":"Зло пускает корни","kp_id":"1118035","imdb_id":"tt7830416","world_art_id":null,"type":"movie","add":"2020-09-15 19:03:02","orig_title":"Evil Takes Root","year":"2020-09-15","translations":["Любительский (многоголосый закадровый) (@MUZOBOZ@)"],"quality":"webdl","translation":"Любительский (многоголосый закадровый) (@MUZOBOZ@)","update":"2020-09-16 06:13:01","iframe_src":"//7741.svetacdn.in/si4jsFRrtgrT/movie/43574"},{"id":43573,"title":"Ферма страха","kp_id":"1206210","imdb_id":"tt9191844","world_art_id":null,"type":"movie","add":"2020-09-15 19:00:41","orig_title":"Fear Pharm","year":"2020-09-11","translations":["Любительский (многоголосый закадровый) (@MUZOBOZ@)"],"quality":"webdl","translation":"Любительский (многоголосый закадровый) (@MUZOBOZ@)","update":"2020-09-16 06:28:51","iframe_src":"//7741.svetacdn.in/si4jsFRrtgrT/movie/43573"},{"id":43571,"title":"Терапия для убийцы","kp_id":"1194432","imdb_id":"tt9029572","world_art_id":null,"type":"movie","add":"2020-09-15 18:56:12","orig_title":"Killer Therapy","year":"2019-12-06","translations":["Любительский (многоголосый закадровый) (AlphaProject)"],"quality":"webdl","translation":"Любительский (многоголосый закадровый) (AlphaProject)","update":"2020-09-16 06:24:37","iframe_src":"//7741.svetacdn.in/si4jsFRrtgrT/movie/43571"},{"id":43553,"title":"Колокола для босых","kp_id":"428104","imdb_id":"tt0124222","world_art_id":null,"type":"movie","add":"2020-09-15 09:15:30","orig_title":"Zvony pre bosých","year":"1965-12-24","translations":["Авторский (одноголосый закадровый) (Данилов Владислав | Kenum)"],"quality":"hdtv","translation":"Авторский (одноголосый закадровый) (Данилов Владислав | Kenum)","update":"2020-09-15 20:37:45","iframe_src":"//7741.svetacdn.in/si4jsFRrtgrT/movie/43553"},{"id":43431,"title":"Неженка","kp_id":"46384","imdb_id":"tt0145930","world_art_id":null,"type":"movie","add":"2020-09-11 19:59:59","orig_title":"Nebieri","year":"1950-03-04","translations":["Оригинальная дорожка"],"quality":"dvdrip","translation":"Оригинальная дорожка","update":"2020-09-16 07:30:08","iframe_src":"//7741.svetacdn.in/si4jsFRrtgrT/movie/43431"},{"id":43430,"title":"Джябжа","kp_id":"682698","imdb_id":"tt2381165","world_art_id":null,"type":"movie","add":"2020-09-11 19:56:46","orig_title":"Dzhyabzha","year":"1938-01-01","translations":["Оригинальная дорожка"],"quality":"sat","translation":"Оригинальная дорожка","update":"2020-09-16 07:28:52","iframe_src":"//7741.svetacdn.in/si4jsFRrtgrT/movie/43430"},{"id":43399,"title":"Быть или... пить?","kp_id":"1115357","imdb_id":null,"world_art_id":null,"type":"movie","add":"2020-09-10 19:02:06","orig_title":"Быть или... пить?","year":"1985-01-01","translations":["Оригинальная дорожка"],"quality":"vhs","translation":"Оригинальная дорожка","update":"2020-09-16 07:26:35","iframe_src":"//7741.svetacdn.in/si4jsFRrtgrT/movie/43399"},{"id":43398,"title":"В мире басен","kp_id":"478680","imdb_id":"tt3454420","world_art_id":null,"type":"movie","add":"2020-09-10 18:58:43","orig_title":"V mire basen","year":"1973-01-01","translations":["Оригинальная дорожка"],"quality":"dvdrip","translation":"Оригинальная дорожка","update":"2020-09-16 07:25:16","iframe_src":"//7741.svetacdn.in/si4jsFRrtgrT/movie/43398"},{"id":43397,"title":"Возвращенное солнце","kp_id":"675758","imdb_id":"tt4854128","world_art_id":null,"type":"movie","add":"2020-09-10 18:56:34","orig_title":"Vozvrashchennoe solntse","year":"1936-01-01","translations":["Оригинальная дорожка"],"quality":"sat","translation":"Оригинальная дорожка","update":"2020-09-16 07:24:18","iframe_src":"//7741.svetacdn.in/si4jsFRrtgrT/movie/43397"},{"id":43396,"title":"Знакомые лица","kp_id":"541020","imdb_id":null,"world_art_id":null,"type":"movie","add":"2020-09-10 18:43:07","orig_title":"Знакомые лица","year":"1966-01-01","translations":["Оригинальная дорожка"],"quality":"sat","translation":"Оригинальная дорожка","update":"2020-09-16 07:23:06","iframe_src":"//7741.svetacdn.in/si4jsFRrtgrT/movie/43396"},{"id":43395,"title":"Злодейка с наклейкой","kp_id":"478802","imdb_id":"tt6289304","world_art_id":null,"type":"movie","add":"2020-09-10 18:34:35","orig_title":"Zlodeyka s nakleykoy","year":"1954-01-01","translations":["Оригинальная дорожка"],"quality":"vhs","translation":"Оригинальная дорожка","update":"2020-09-16 07:21:52","iframe_src":"//7741.svetacdn.in/si4jsFRrtgrT/movie/43395"},{"id":43394,"title":"Вам старт!","kp_id":"1047007","imdb_id":null,"world_art_id":null,"type":"movie","add":"2020-09-10 18:31:28","orig_title":"Вам старт!","year":"1979-01-01","translations":["Оригинальная дорожка"],"quality":"tv","translation":"Оригинальная дорожка","update":"2020-09-16 07:20:51","iframe_src":"//7741.svetacdn.in/si4jsFRrtgrT/movie/43394"},{"id":43393,"title":"Узел","kp_id":"118756","imdb_id":null,"world_art_id":null,"type":"movie","add":"2020-09-10 18:25:35","orig_title":"Узел","year":"1983-10-31","translations":["Оригинальная дорожка"],"quality":"vhs","translation":"Оригинальная дорожка","update":"2020-09-16 07:19:40","iframe_src":"//7741.svetacdn.in/si4jsFRrtgrT/movie/43393"},{"id":43392,"title":"3 новеллы","kp_id":"581684","imdb_id":"tt5900488","world_art_id":null,"type":"movie","add":"2020-09-10 18:19:37","orig_title":"3 novelly","year":"1986-01-01","translations":["Оригинальная дорожка"],"quality":"webdl","translation":"Оригинальная дорожка","update":"2020-09-16 07:18:55","iframe_src":"//7741.svetacdn.in/si4jsFRrtgrT/movie/43392"},{"id":43391,"title":"Страна Считалия","kp_id":"420211","imdb_id":"tt6416646","world_art_id":null,"type":"movie","add":"2020-09-10 18:09:17","orig_title":"Strana Schitaliya","year":"1982-01-01","translations":["Оригинальная дорожка"],"quality":"dvdrip","translation":"Оригинальная дорожка","update":"2020-09-16 07:17:17","iframe_src":"//7741.svetacdn.in/si4jsFRrtgrT/movie/43391"}],"current_page":939,"first_page_url":"https://videocdn.tv/api/short?limit=100&api_token=X6EwAUfE5M9xbo7y0Bp0aPf3uXxG2KLL&cache3939=3939&page=1","from":93801,"last_page":707,"last_page_url":"https://videocdn.tv/api/short?limit=100&api_token=X6EwAUfE5M9xbo7y0Bp0aPf3uXxG2KLL&cache3939=3939&page=707","next_page_url":null,"path":"https://videocdn.tv/api/short","per_page":100,"prev_page_url":"https://videocdn.tv/api/short?limit=100&api_token=X6EwAUfE5M9xbo7y0Bp0aPf3uXxG2KLL&cache3939=3939&page=938","to":93820,"total":70679}