{"result":true,"data":[{"id":16568,"title":"Психопатка, с которой она познакомилась в сети","kp_id":"1010040","imdb_id":"tt6079060","world_art_id":null,"type":"movie","add":"2018-05-01 23:01:05","orig_title":"The Psycho She Met Online","year":"2017-04-09","translations":["Любительский (многоголосый закадровый) (Синема УС)"],"quality":"webdl","translation":"Любительский (многоголосый закадровый) (Синема УС)","update":"2018-05-02 05:06:34","iframe_src":"//83.svetacdn.in/PfJ50H0ZBPg3/movie/16568"},{"id":16566,"title":"Террор 5","kp_id":"907129","imdb_id":"tt4661276","world_art_id":null,"type":"movie","add":"2018-05-01 22:49:18","orig_title":"Terror 5","year":"2016-05-13","translations":["Любительский (одноголосый закадровый) (datynet)"],"quality":"bd","translation":"Любительский (одноголосый закадровый) (datynet)","update":"2018-05-02 05:04:36","iframe_src":"//83.svetacdn.in/PfJ50H0ZBPg3/movie/16566"},{"id":16557,"title":"Детектив из Чайнатауна","kp_id":"962338","imdb_id":"tt5290882","world_art_id":null,"type":"movie","add":"2018-05-01 08:10:34","orig_title":"Tang ren jie tan an","year":"2015-12-31","translations":["Любительский (многоголосый закадровый)"],"quality":"webdl","translation":"Любительский (многоголосый закадровый)","update":"2018-05-01 20:06:09","iframe_src":"//83.svetacdn.in/PfJ50H0ZBPg3/movie/16557"},{"id":16546,"title":"Что они сделали с Соланж?","kp_id":"59446","imdb_id":"tt0068416","world_art_id":null,"type":"movie","add":"2018-04-29 23:35:47","orig_title":"Cosa avete fatto a Solange?","year":"1972-03-09","translations":["Любительский (одноголосый закадровый)"],"quality":"bd","translation":"Любительский (одноголосый закадровый)","update":"2018-05-01 06:16:14","iframe_src":"//83.svetacdn.in/PfJ50H0ZBPg3/movie/16546"},{"id":16545,"title":"Растительная нация","kp_id":"993576","imdb_id":"tt3699150","world_art_id":null,"type":"movie","add":"2018-04-29 23:25:42","orig_title":"PlantPure Nation","year":"2015-04-04","translations":["Любительский (двухголосый закадровый)"],"quality":"webdl","translation":"Любительский (двухголосый закадровый)","update":"2018-05-01 06:17:19","iframe_src":"//83.svetacdn.in/PfJ50H0ZBPg3/movie/16545"},{"id":16544,"title":"Предмет красоты","kp_id":"16906","imdb_id":"tt0102573","world_art_id":null,"type":"movie","add":"2018-04-29 23:23:45","orig_title":"The Object of Beauty","year":"1991-04-12","translations":["Профессиональный (двухголосый закадровый) (НТВ)"],"quality":"webdl","translation":"Профессиональный (двухголосый закадровый) (НТВ)","update":"2018-05-01 06:18:20","iframe_src":"//83.svetacdn.in/PfJ50H0ZBPg3/movie/16544"},{"id":16543,"title":"Один пропущенный звонок","kp_id":"220671","imdb_id":"tt0479968","world_art_id":null,"type":"movie","add":"2018-04-29 23:18:21","orig_title":"One Missed Call","year":"2008-01-04","translations":["Полное дублирование"],"quality":"bd","translation":"Полное дублирование","update":"2018-05-01 06:23:04","iframe_src":"//83.svetacdn.in/PfJ50H0ZBPg3/movie/16543"},{"id":16540,"title":"Война и мир","kp_id":"9980","imdb_id":"tt0049934","world_art_id":null,"type":"movie","add":"2018-04-29 23:09:31","orig_title":"War and Peace","year":"1956-08-21","translations":["Полное дублирование"],"quality":"bd","translation":"Полное дублирование","update":"2018-05-01 06:30:20","iframe_src":"//83.svetacdn.in/PfJ50H0ZBPg3/movie/16540"},{"id":16539,"title":"Ты несешь меня","kp_id":"715157","imdb_id":"tt2486856","world_art_id":null,"type":"movie","add":"2018-04-29 23:07:28","orig_title":"Ti mene nosis","year":"2015-05-03","translations":["Профессиональный (многоголосый закадровый) (GreenРай Studio)"],"quality":"dvdrip","translation":"Профессиональный (многоголосый закадровый) (GreenРай Studio)","update":"2018-05-01 06:30:36","iframe_src":"//83.svetacdn.in/PfJ50H0ZBPg3/movie/16539"},{"id":16536,"title":"Вечный сон","kp_id":"8969","imdb_id":"tt0077234","world_art_id":null,"type":"movie","add":"2018-04-29 22:39:58","orig_title":"The Big Sleep","year":"1978-03-13","translations":["Профессиональный (многоголосый закадровый)"],"quality":"bd","translation":"Профессиональный (многоголосый закадровый)","update":"2018-05-01 06:38:53","iframe_src":"//83.svetacdn.in/PfJ50H0ZBPg3/movie/16536"},{"id":16535,"title":"Чувство","kp_id":"56875","imdb_id":"tt0047469","world_art_id":null,"type":"movie","add":"2018-04-29 22:37:32","orig_title":"Senso","year":"1954-09-02","translations":["Профессиональный (многоголосый закадровый)"],"quality":"bd","translation":"Профессиональный (многоголосый закадровый)","update":"2018-05-01 06:40:16","iframe_src":"//83.svetacdn.in/PfJ50H0ZBPg3/movie/16535"},{"id":16357,"title":"Зачарованный город","kp_id":"1081289","imdb_id":"tt6981634","world_art_id":null,"type":"movie","add":"2018-04-18 23:08:01","orig_title":"Wanderland","year":"2018-04-20","translations":["Любительский (многоголосый закадровый) (Синема УС)","Любительский (двухголосый закадровый) (HiWayGrope)"],"quality":"webdl","translation":"Любительский (многоголосый закадровый) (Синема УС)","update":"2018-05-01 06:28:26","iframe_src":"//83.svetacdn.in/PfJ50H0ZBPg3/movie/16357"},{"id":14472,"title":"Дом с призраками","kp_id":"855355","imdb_id":"tt3530328","world_art_id":null,"type":"movie","add":"2017-11-27 18:00:36","orig_title":"Haunted","year":"2017-09-12","translations":["Профессиональный (многоголосый закадровый) (GreenРай Studio)","Любительский (двухголосый закадровый) (RecentFilms)"],"quality":"bd","translation":"Профессиональный (многоголосый закадровый) (GreenРай Studio)","update":"2018-05-02 04:54:23","iframe_src":"//83.svetacdn.in/PfJ50H0ZBPg3/movie/14472"},{"id":13425,"title":"Удивительный волшебник из Лапы","kp_id":"878954","imdb_id":"tt3762666","world_art_id":null,"type":"movie","add":"2017-09-11 21:41:34","orig_title":"The Amazing Wizard of Paws","year":"2015-03-03","translations":["Любительский (одноголосый закадровый)","Профессиональный (многоголосый закадровый) (GreenРай Studio)"],"quality":"dvdrip","translation":"Любительский (одноголосый закадровый)","update":"2018-05-02 04:57:26","iframe_src":"//83.svetacdn.in/PfJ50H0ZBPg3/movie/13425"},{"id":12548,"title":"Западное побережье","kp_id":"849862","imdb_id":"tt4131240","world_art_id":null,"type":"movie","add":"2017-07-17 22:11:08","orig_title":"West Coast","year":"2016-07-17","translations":["Любительский (одноголосый закадровый) (datynet)","Профессиональный (многоголосый закадровый) (GreenРай Studio)"],"quality":"hdrip","translation":"Любительский (одноголосый закадровый) (datynet)","update":"2018-05-01 06:23:57","iframe_src":"//83.svetacdn.in/PfJ50H0ZBPg3/movie/12548"},{"id":10373,"title":"Терапия для вампира","kp_id":"819300","imdb_id":"tt3400980","world_art_id":null,"type":"movie","add":"2017-03-15 22:22:44","orig_title":"Der Vampir auf der Couch","year":"2014-09-26","translations":["Любительский (одноголосый закадровый) (datynet)","Профессиональный (многоголосый закадровый) (GreenРай Studio)"],"quality":"bd","translation":"Любительский (одноголосый закадровый) (datynet)","update":"2018-05-01 06:33:01","iframe_src":"//83.svetacdn.in/PfJ50H0ZBPg3/movie/10373"},{"id":7256,"title":"Подъем с глубины","kp_id":"3551","imdb_id":"tt0118956","world_art_id":null,"type":"movie","add":"2016-11-09 16:10:05","orig_title":"Deep Rising","year":"1998-01-30","translations":["Профессиональный (двухголосый закадровый)","Профессиональный (многоголосый закадровый) (Первый канал | ОРТ)"],"quality":"bd","translation":"Профессиональный (двухголосый закадровый)","update":"2018-05-01 06:20:23","iframe_src":"//83.svetacdn.in/PfJ50H0ZBPg3/movie/7256"},{"id":7085,"title":"Восстановление","kp_id":"862607","imdb_id":"tt3685668","world_art_id":null,"type":"movie","add":"2016-11-05 19:02:09","orig_title":"Recovery","year":"2016-10-27","translations":["Любительский (многоголосый закадровый) (Синема УС)","Любительский (одноголосый закадровый)"],"quality":"bd","translation":"Любительский (многоголосый закадровый) (Синема УС)","update":"2018-05-02 05:14:09","iframe_src":"//83.svetacdn.in/PfJ50H0ZBPg3/movie/7085"},{"id":4819,"title":"Жертва","kp_id":"632094","imdb_id":"tt2078718","world_art_id":null,"type":"movie","add":"2016-08-29 09:41:30","orig_title":"Sacrifice","year":"2016-04-29","translations":["Любительский (двухголосый закадровый) (DeadSno & den904)","Любительский (одноголосый закадровый)"],"quality":"bd","translation":"Любительский (двухголосый закадровый) (DeadSno & den904)","update":"2018-05-02 05:13:12","iframe_src":"//83.svetacdn.in/PfJ50H0ZBPg3/movie/4819"},{"id":1659,"title":"Сын Саула","kp_id":"869452","imdb_id":"tt3808342","world_art_id":null,"type":"movie","add":"2016-04-25 09:30:40","orig_title":"Saul fia","year":"2015-05-15","translations":["Любительский (двухголосый закадровый)","Любительский (одноголосый закадровый)"],"quality":"bd","translation":"Любительский (двухголосый закадровый)","update":"2018-05-02 05:43:44","iframe_src":"//83.svetacdn.in/PfJ50H0ZBPg3/movie/1659"}],"current_page":1812,"first_page_url":"https://videocdn.tv/api/short?limit=100&api_token=RgFQdUIR2dRmwv8iYa5SnFNgnw3vpjKj&cache31812=31812&page=1","from":181101,"last_page":613,"last_page_url":"https://videocdn.tv/api/short?limit=100&api_token=RgFQdUIR2dRmwv8iYa5SnFNgnw3vpjKj&cache31812=31812&page=613","next_page_url":null,"path":"https://videocdn.tv/api/short","per_page":100,"prev_page_url":"https://videocdn.tv/api/short?limit=100&api_token=RgFQdUIR2dRmwv8iYa5SnFNgnw3vpjKj&cache31812=31812&page=1811","to":181120,"total":61220}