{"result":true,"data":[{"id":38343,"title":"Лис и кит","kp_id":"1059158","imdb_id":"tt5778110","world_art_id":null,"type":"movie","add":"2020-03-22 06:51:59","orig_title":"Fox and the Whale","year":"2016-09-03","translations":["Оригинальная дорожка"],"quality":"webdl","translation":"Оригинальная дорожка","update":"2020-03-22 11:54:50","iframe_src":"//83.svetacdn.in/PfJ50H0ZBPg3/movie/38343"},{"id":38342,"title":"Королевства","kp_id":"1234643","imdb_id":"tt9643408","world_art_id":null,"type":"movie","add":"2020-03-21 14:49:13","orig_title":"Domains","year":"2019-01-24","translations":["Любительский (многоголосый закадровый) (Синема УС)"],"quality":"webdl","translation":"Любительский (многоголосый закадровый) (Синема УС)","update":"2020-03-22 14:31:10","iframe_src":"//83.svetacdn.in/PfJ50H0ZBPg3/movie/38342"},{"id":38341,"title":"Хэллоуинская семейка","kp_id":"1293774","imdb_id":"tt10691094","world_art_id":null,"type":"movie","add":"2020-03-21 14:47:36","orig_title":"The Halloween Family","year":"2019-09-10","translations":["Любительский (многоголосый закадровый) (Синема УС)"],"quality":"webdl","translation":"Любительский (многоголосый закадровый) (Синема УС)","update":"2020-03-22 14:31:30","iframe_src":"//83.svetacdn.in/PfJ50H0ZBPg3/movie/38341"},{"id":38340,"title":"Неразвитая страна","kp_id":"1071656","imdb_id":"tt6911110","world_art_id":null,"type":"movie","add":"2020-03-21 14:45:42","orig_title":"Slow Country","year":"2017-05-19","translations":["Любительский (многоголосый закадровый) (Синема УС)"],"quality":"webdl","translation":"Любительский (многоголосый закадровый) (Синема УС)","update":"2020-03-22 14:31:56","iframe_src":"//83.svetacdn.in/PfJ50H0ZBPg3/movie/38340"},{"id":38339,"title":"Мёртвый груз","kp_id":"1150433","imdb_id":"tt8116154","world_art_id":null,"type":"movie","add":"2020-03-21 14:43:35","orig_title":"Dead Weight","year":"2019-07-31","translations":["Любительский (многоголосый закадровый) (Синема УС)"],"quality":"webdl","translation":"Любительский (многоголосый закадровый) (Синема УС)","update":"2020-03-22 14:32:31","iframe_src":"//83.svetacdn.in/PfJ50H0ZBPg3/movie/38339"},{"id":38337,"title":"Приключение дракона","kp_id":"1296256","imdb_id":"tt10691312","world_art_id":null,"type":"movie","add":"2020-03-21 14:36:36","orig_title":"A Dragon Adventure","year":"2019-11-05","translations":["Любительский (многоголосый закадровый) (Синема УС)"],"quality":"webdl","translation":"Любительский (многоголосый закадровый) (Синема УС)","update":"2020-03-22 14:34:07","iframe_src":"//83.svetacdn.in/PfJ50H0ZBPg3/movie/38337"},{"id":38336,"title":"Эма: Танец страсти","kp_id":"1178826","imdb_id":"tt8800266","world_art_id":null,"type":"movie","add":"2020-03-21 14:34:42","orig_title":"Ema","year":"2019-08-31","translations":["Профессиональный (многоголосый закадровый) (iTunes)"],"quality":"webdl","translation":"Профессиональный (многоголосый закадровый) (iTunes)","update":"2020-03-21 19:56:30","iframe_src":"//83.svetacdn.in/PfJ50H0ZBPg3/movie/38336"},{"id":38335,"title":"Осторожно: дети!","kp_id":"1228792","imdb_id":"tt9573180","world_art_id":null,"type":"movie","add":"2020-03-21 14:32:33","orig_title":"Barn","year":"2019-09-03","translations":["Любительский (многоголосый закадровый) (AlphaProject)"],"quality":"bd","translation":"Любительский (многоголосый закадровый) (AlphaProject)","update":"2020-03-22 14:34:49","iframe_src":"//83.svetacdn.in/PfJ50H0ZBPg3/movie/38335"},{"id":38333,"title":"Танцевальная История","kp_id":"1177279","imdb_id":"tt8723010","world_art_id":null,"type":"movie","add":"2020-03-21 14:24:31","orig_title":"A Dance Story","year":"2019-03-31","translations":["Любительский (многоголосый закадровый) (Синема УС)"],"quality":"webdl","translation":"Любительский (многоголосый закадровый) (Синема УС)","update":"2020-03-22 14:35:48","iframe_src":"//83.svetacdn.in/PfJ50H0ZBPg3/movie/38333"},{"id":38332,"title":"Переплетающиеся души","kp_id":"1088241","imdb_id":"tt6267926","world_art_id":null,"type":"movie","add":"2020-03-21 14:22:21","orig_title":"Binding Souls","year":"2019-08-08","translations":["Любительский (многоголосый закадровый) (Синема УС)"],"quality":"bd","translation":"Любительский (многоголосый закадровый) (Синема УС)","update":"2020-03-22 14:36:15","iframe_src":"//83.svetacdn.in/PfJ50H0ZBPg3/movie/38332"},{"id":38331,"title":"Затерянное львиное королевство","kp_id":"1256444","imdb_id":"tt10187800","world_art_id":null,"type":"movie","add":"2020-03-21 13:30:18","orig_title":"The Lost Lion Kingdom","year":"2019-07-16","translations":["Профессиональный (многоголосый закадровый)"],"quality":"webdl","translation":"Профессиональный (многоголосый закадровый)","update":"2020-03-22 14:37:26","iframe_src":"//83.svetacdn.in/PfJ50H0ZBPg3/movie/38331"},{"id":38219,"title":"Вступая в контакт","kp_id":"109044","imdb_id":"tt0089378","world_art_id":null,"type":"movie","add":"2020-03-19 10:34:53","orig_title":"Joey","year":"1985-11-01","translations":["Профессиональный (многоголосый закадровый)"],"quality":"bd","translation":"Профессиональный (многоголосый закадровый)","update":"2020-03-21 11:06:49","iframe_src":"//83.svetacdn.in/PfJ50H0ZBPg3/movie/38219"},{"id":38218,"title":"В твоё отсутствие","kp_id":"439882","imdb_id":"tt1289396","world_art_id":null,"type":"movie","add":"2020-03-19 06:16:21","orig_title":"En tu ausencia","year":"2008-10-07","translations":["Любительский (одноголосый закадровый)"],"quality":"dvdrip","translation":"Любительский (одноголосый закадровый)","update":"2020-03-21 11:06:21","iframe_src":"//83.svetacdn.in/PfJ50H0ZBPg3/movie/38218"},{"id":38217,"title":"Таннер Холл","kp_id":"402333","imdb_id":"tt1151410","world_art_id":null,"type":"movie","add":"2020-03-19 06:13:24","orig_title":"Tanner Hall","year":"2009-09-14","translations":["Профессиональный (двухголосый закадровый)"],"quality":"hdrip","translation":"Профессиональный (двухголосый закадровый)","update":"2020-03-21 11:05:21","iframe_src":"//83.svetacdn.in/PfJ50H0ZBPg3/movie/38217"},{"id":38216,"title":"Сокровища ацтеков","kp_id":"412642","imdb_id":"tt1229370","world_art_id":null,"type":"movie","add":"2020-03-19 06:06:22","orig_title":"The Lost Treasure of the Grand Canyon","year":"2008-12-20","translations":["Профессиональный (многоголосый закадровый)"],"quality":"bd","translation":"Профессиональный (многоголосый закадровый)","update":"2020-03-21 11:04:49","iframe_src":"//83.svetacdn.in/PfJ50H0ZBPg3/movie/38216"},{"id":38198,"title":"Моя семья и другие звери","kp_id":"276126","imdb_id":"tt0482552","world_art_id":null,"type":"movie","add":"2020-03-18 17:18:49","orig_title":"My Family and Other Animals","year":"2005-12-27","translations":["Профессиональный (многоголосый закадровый) (Кинопоказ)"],"quality":"dvdrip","translation":"Профессиональный (многоголосый закадровый) (Кинопоказ)","update":"2020-03-22 06:59:51","iframe_src":"//83.svetacdn.in/PfJ50H0ZBPg3/movie/38198"},{"id":38196,"title":"Роковая встреча","kp_id":"106113","imdb_id":"tt0366276","world_art_id":null,"type":"movie","add":"2020-03-18 17:16:43","orig_title":"Calcutta Mail","year":"2003-06-30","translations":["Профессиональный (многоголосый закадровый) (Формат AB)"],"quality":"dvdrip","translation":"Профессиональный (многоголосый закадровый) (Формат AB)","update":"2020-03-22 06:57:40","iframe_src":"//83.svetacdn.in/PfJ50H0ZBPg3/movie/38196"},{"id":36781,"title":"Стендапер по жизни","kp_id":"1050478","imdb_id":"tt6173484","world_art_id":null,"type":"movie","add":"2020-02-22 22:24:07","orig_title":"Standing Up, Falling Down","year":"2019-04-25","translations":["Полное дублирование (iTunes)"],"quality":"webdl","translation":"Полное дублирование (iTunes)","update":"2020-03-22 14:37:57","iframe_src":"//83.svetacdn.in/PfJ50H0ZBPg3/movie/36781"},{"id":31523,"title":"Акулы","kp_id":"1220074","imdb_id":"tt9358136","world_art_id":null,"type":"movie","add":"2019-10-06 19:45:15","orig_title":"Los tiburones","year":"2019-01-25","translations":["Полное дублирование (iTunes)"],"quality":"webdl","translation":"Полное дублирование (iTunes)","update":"2020-03-22 14:39:26","iframe_src":"//83.svetacdn.in/PfJ50H0ZBPg3/movie/31523"},{"id":31503,"title":"Потерянные части","kp_id":"946614","imdb_id":"tt4827922","world_art_id":null,"type":"movie","add":"2019-10-05 18:53:08","orig_title":"The Parts You Lose","year":"2019-10-04","translations":["Полное дублирование (iTunes)","Original (English)"],"quality":"bd","translation":"Полное дублирование (iTunes)","update":"2020-03-22 11:53:30","iframe_src":"//83.svetacdn.in/PfJ50H0ZBPg3/movie/31503"}],"current_page":764,"first_page_url":"https://videocdn.tv/api/short?limit=100&api_token=RgFQdUIR2dRmwv8iYa5SnFNgnw3vpjKj&cache3764=3764&page=1","from":76301,"last_page":623,"last_page_url":"https://videocdn.tv/api/short?limit=100&api_token=RgFQdUIR2dRmwv8iYa5SnFNgnw3vpjKj&cache3764=3764&page=623","next_page_url":null,"path":"https://videocdn.tv/api/short","per_page":100,"prev_page_url":"https://videocdn.tv/api/short?limit=100&api_token=RgFQdUIR2dRmwv8iYa5SnFNgnw3vpjKj&cache3764=3764&page=763","to":76320,"total":62268}