{"result":true,"data":[{"id":52568,"title":"Плач по бандиту","kp_id":"59014","imdb_id":"tt0058297","world_art_id":null,"type":"movie","add":"2021-08-22 10:12:11","orig_title":"Llanto por un bandido","year":"1964-09-17","translations":["Профессиональный (двухголосый закадровый) (СВ-Дубль)"],"quality":"webdl","translation":"Профессиональный (двухголосый закадровый) (СВ-Дубль)","update":"2021-08-23 09:22:10","iframe_src":"//83.svetacdn.in/PfJ50H0ZBPg3/movie/52568"},{"id":52557,"title":"Цена справедливости","kp_id":"40413","imdb_id":"tt0364135","world_art_id":null,"type":"movie","add":"2021-08-22 06:51:17","orig_title":"Zakhmi Aurat","year":"1988-09-02","translations":["Профессиональный (многоголосый закадровый)"],"quality":"webdl","translation":"Профессиональный (многоголосый закадровый)","update":"2021-08-23 10:31:27","iframe_src":"//83.svetacdn.in/PfJ50H0ZBPg3/movie/52557"},{"id":52556,"title":"Жить и умереть вместе","kp_id":"39683","imdb_id":"tt0337651","world_art_id":null,"type":"movie","add":"2021-08-22 06:49:50","orig_title":"Jeena Marna Tere Sang","year":"1992-01-01","translations":["Любительский (одноголосый закадровый)"],"quality":"webdl","translation":"Любительский (одноголосый закадровый)","update":"2021-08-23 10:33:05","iframe_src":"//83.svetacdn.in/PfJ50H0ZBPg3/movie/52556"},{"id":52555,"title":"Прощальная песня","kp_id":"99667","imdb_id":"tt0320790","world_art_id":null,"type":"movie","add":"2021-08-22 06:47:35","orig_title":"Zesshô","year":"1975-12-20","translations":["Любительский (двухголосый закадровый) (АрхиAsia)"],"quality":"bd","translation":"Любительский (двухголосый закадровый) (АрхиAsia)","update":"2021-08-23 10:11:48","iframe_src":"//83.svetacdn.in/PfJ50H0ZBPg3/movie/52555"},{"id":52550,"title":"Твои, мои и наши","kp_id":"9967","imdb_id":"tt0063829","world_art_id":null,"type":"movie","add":"2021-08-21 11:11:26","orig_title":"Yours, Mine and Ours","year":"1968-04-24","translations":["[EN] Original (English)","Профессиональный (двухголосый закадровый) (НТВ)"],"quality":"bd","translation":"[EN] Original (English)","update":"2021-08-23 10:21:42","iframe_src":"//83.svetacdn.in/PfJ50H0ZBPg3/movie/52550"},{"id":52549,"title":"Чaсы отчаяния","kp_id":"8312","imdb_id":"tt0047985","world_art_id":null,"type":"movie","add":"2021-08-21 11:08:45","orig_title":"The Desperate Hours","year":"1955-10-05","translations":["[EN] Original (English)","Профессиональный (многоголосый закадровый) (Film Prestige)"],"quality":"webdl","translation":"[EN] Original (English)","update":"2021-08-23 11:07:03","iframe_src":"//83.svetacdn.in/PfJ50H0ZBPg3/movie/52549"},{"id":52548,"title":"Перемирие","kp_id":"4315","imdb_id":"tt0117959","world_art_id":null,"type":"movie","add":"2021-08-21 11:07:51","orig_title":"La tregua","year":"1997-02-10","translations":["Профессиональный (двухголосый закадровый)","[EN] Original (English)"],"quality":"webdl","translation":"Профессиональный (двухголосый закадровый)","update":"2021-08-23 11:10:20","iframe_src":"//83.svetacdn.in/PfJ50H0ZBPg3/movie/52548"},{"id":52546,"title":"Миза ми","kp_id":"66525","imdb_id":"tt0342777","world_art_id":null,"type":"movie","add":"2021-08-21 10:32:13","orig_title":"Misa mi","year":"2003-09-30","translations":["Профессиональный (многоголосый закадровый)"],"quality":"webdl","translation":"Профессиональный (многоголосый закадровый)","update":"2021-08-23 10:34:37","iframe_src":"//83.svetacdn.in/PfJ50H0ZBPg3/movie/52546"},{"id":52545,"title":"Далекие горизонты","kp_id":"10386","imdb_id":"tt0048056","world_art_id":null,"type":"movie","add":"2021-08-21 10:31:20","orig_title":"The Far Horizons","year":"1955-05-20","translations":["[EN] Original (English)","Авторский (одноголосый закадровый) (Кузнецов Сергей)"],"quality":"bd","translation":"[EN] Original (English)","update":"2021-08-23 11:12:40","iframe_src":"//83.svetacdn.in/PfJ50H0ZBPg3/movie/52545"},{"id":51521,"title":"От всего сердца: Гостиница любви","kp_id":"1049523","imdb_id":"tt7243076","world_art_id":null,"type":"movie","add":"2021-07-02 19:16:01","orig_title":"All of My Heart: Inn Love","year":"2017-10-07","translations":["Любительский (многоголосый закадровый) (Синема УС)","Любительский (многоголосый закадровый) (Синема УС)","[EN] Original (English)"],"quality":"webdl","translation":"Любительский (многоголосый закадровый) (Синема УС)","update":"2021-08-23 10:14:52","iframe_src":"//83.svetacdn.in/PfJ50H0ZBPg3/movie/51521"},{"id":42652,"title":"Несломленная","kp_id":"1120932","imdb_id":"tt8191620","world_art_id":null,"type":"movie","add":"2020-08-21 20:12:19","orig_title":"Swing Low","year":"2019-08-30","translations":["Любительский (многоголосый закадровый) (@MUZOBOZ@)","[EN] Original (English)","Полное дублирование (iTunes)"],"quality":"webdl","translation":"Любительский (многоголосый закадровый) (@MUZOBOZ@)","update":"2021-08-23 09:20:58","iframe_src":"//83.svetacdn.in/PfJ50H0ZBPg3/movie/42652"},{"id":42477,"title":"План дочери начать убивать","kp_id":"1309459","imdb_id":"tt11058006","world_art_id":null,"type":"movie","add":"2020-08-16 11:01:22","orig_title":"A Daughter's Plan To Kill","year":"2019-11-15","translations":["Любительский (многоголосый закадровый) (Синема УС)","[EN] Original (English)","Профессиональный (многоголосый закадровый) (iTunes)"],"quality":"webdl","translation":"Любительский (многоголосый закадровый) (Синема УС)","update":"2021-08-23 10:06:22","iframe_src":"//83.svetacdn.in/PfJ50H0ZBPg3/movie/42477"},{"id":39997,"title":"Неисполненное желание","kp_id":"224843","imdb_id":"tt0154720","world_art_id":null,"type":"movie","add":"2020-04-30 21:16:36","orig_title":"Kasak","year":"1992-01-01","translations":["Профессиональный (одноголосый закадровый)","Профессиональный (одноголосый закадровый)"],"quality":"dvdrip","translation":"Профессиональный (одноголосый закадровый)","update":"2021-08-23 10:26:10","iframe_src":"//83.svetacdn.in/PfJ50H0ZBPg3/movie/39997"},{"id":6676,"title":"Золотые годы","kp_id":"257951","imdb_id":"tt0101206","world_art_id":null,"type":"serial","add":"2020-02-18 13:54:53","orig_title":"Golden Years","year":"1991-07-16","translations":["Авторский (одноголосый закадровый) (Марченко Александр)"],"seasons_count":1,"episodes_count":2,"episodes":2,"update":"2020-02-18 21:00:00","iframe_src":"//83.svetacdn.in/PfJ50H0ZBPg3/tv-series/6676"},{"id":6672,"title":"Бархатные ножки","kp_id":"79839","imdb_id":"tt0324264","world_art_id":null,"type":"serial","add":"2020-02-18 09:47:49","orig_title":"Tipping the Velvet","year":"2002-10-09","translations":["Профессиональный (многоголосый закадровый)"],"seasons_count":1,"episodes_count":3,"episodes":3,"update":"2020-02-18 11:06:53","iframe_src":"//83.svetacdn.in/PfJ50H0ZBPg3/tv-series/6672"},{"id":6671,"title":"На безымянной высоте","kp_id":"252023","imdb_id":null,"world_art_id":null,"type":"serial","add":"2020-02-18 09:26:46","orig_title":"Na bezimyannoy vysote","year":"2004-05-08","translations":["Оригинальная дорожка"],"seasons_count":1,"episodes_count":4,"episodes":4,"update":"2020-02-18 10:47:56","iframe_src":"//83.svetacdn.in/PfJ50H0ZBPg3/tv-series/6671"},{"id":6669,"title":"Дом на Озерной","kp_id":"453293","imdb_id":"tt3634088","world_art_id":null,"type":"serial","add":"2020-02-17 19:19:53","orig_title":"Dom na Ozyornoy","year":"2009-12-21","translations":["Оригинальная дорожка"],"seasons_count":1,"episodes_count":6,"episodes":6,"update":"2020-02-18 05:15:49","iframe_src":"//83.svetacdn.in/PfJ50H0ZBPg3/tv-series/6669"},{"id":6667,"title":"Вверх и вниз по лестнице","kp_id":"574240","imdb_id":"tt1782352","world_art_id":null,"type":"serial","add":"2020-02-17 18:56:40","orig_title":"Upstairs Downstairs","year":"2010-12-26","translations":["Профессиональный (многоголосый закадровый) (BaibaKo)"],"seasons_count":1,"episodes_count":3,"episodes":3,"update":"2020-02-18 21:07:16","iframe_src":"//83.svetacdn.in/PfJ50H0ZBPg3/tv-series/6667"},{"id":6666,"title":"Городские шпионы","kp_id":"772832","imdb_id":"tt3508584","world_art_id":null,"type":"serial","add":"2020-02-17 17:28:24","orig_title":"Gorodskie shpiony","year":"2013-10-11","translations":["Оригинальная дорожка"],"seasons_count":1,"episodes_count":12,"episodes":12,"update":"2020-02-18 18:22:57","iframe_src":"//83.svetacdn.in/PfJ50H0ZBPg3/tv-series/6666"},{"id":6665,"title":"BBC: Индия с Майклом Вудом","kp_id":"678551","imdb_id":"tt1333053","world_art_id":null,"type":"serial","add":"2020-02-17 15:08:17","orig_title":"The Story of India","year":"2007-08-24","translations":["Профессиональный (двухголосый закадровый)"],"seasons_count":1,"episodes_count":6,"episodes":6,"update":"2020-02-18 18:24:43","iframe_src":"//83.svetacdn.in/PfJ50H0ZBPg3/tv-series/6665"},{"id":6662,"title":"Следы в прошлое","kp_id":"1311115","imdb_id":null,"world_art_id":null,"type":"serial","add":"2020-02-17 11:13:37","orig_title":"Sledy v proshloye","year":"2018-11-25","translations":["Оригинальная дорожка"],"seasons_count":1,"episodes_count":4,"episodes":4,"update":"2020-02-17 18:14:01","iframe_src":"//83.svetacdn.in/PfJ50H0ZBPg3/tv-series/6662"},{"id":6659,"title":"Космобольцы","kp_id":"478839","imdb_id":"tt0870980","world_art_id":null,"type":"serial","add":"2020-02-17 10:27:12","orig_title":"Spaceballs: The Animated Series","year":"2008-09-21","translations":["Профессиональный (многоголосый закадровый) (2x2)"],"seasons_count":1,"episodes_count":15,"episodes":15,"update":"2020-02-17 18:06:38","iframe_src":"//83.svetacdn.in/PfJ50H0ZBPg3/tv-series/6659"},{"id":6652,"title":"Каникулы Петрова и Васечкина, обыкновенные и невероятные","kp_id":"81480","imdb_id":"tt0082941","world_art_id":null,"type":"serial","add":"2020-02-16 16:24:00","orig_title":"Kanikuly Petrova i Vasechkina, obyknovennye i neveroyatnye","year":"1984-06-03","translations":["Оригинальная дорожка"],"seasons_count":1,"episodes_count":2,"episodes":2,"update":"2020-02-18 17:53:50","iframe_src":"//83.svetacdn.in/PfJ50H0ZBPg3/tv-series/6652"},{"id":6650,"title":"Чёрная роза - эмблема печали, красная роза - эмблема любви","kp_id":"45553","imdb_id":"tt0097062","world_art_id":null,"type":"serial","add":"2020-02-16 16:09:00","orig_title":"Chyornaya roza - emblema pechali, krasnaya roza - emblema lyubvi","year":"1990-01-01","translations":["Оригинальная дорожка"],"seasons_count":1,"episodes_count":2,"episodes":2,"update":"2020-02-18 17:52:49","iframe_src":"//83.svetacdn.in/PfJ50H0ZBPg3/tv-series/6650"},{"id":6632,"title":"Большие надежды","kp_id":"1346400","imdb_id":null,"world_art_id":null,"type":"serial","add":"2020-02-13 19:30:06","orig_title":"Большие надежды","year":"2020-02-10","translations":["Оригинальная дорожка"],"seasons_count":1,"episodes_count":8,"episodes":8,"update":"2020-02-18 21:12:33","iframe_src":"//83.svetacdn.in/PfJ50H0ZBPg3/tv-series/6632"},{"id":6476,"title":"Забытая армия","kp_id":"1266618","imdb_id":"tt10289938","world_art_id":null,"type":"serial","add":"2020-01-26 05:46:14","orig_title":"The Forgotten Army - Azaadi ke liye","year":"2020-01-24","translations":["Любительский (многоголосый закадровый) (Octopus)","Любительский (многоголосый закадровый) (ColdFilm)"],"seasons_count":1,"episodes_count":5,"episodes":5,"update":"2020-02-18 12:36:20","iframe_src":"//83.svetacdn.in/PfJ50H0ZBPg3/tv-series/6476"},{"id":6348,"title":"Джодха и Акбар: История великой любви","kp_id":"839953","imdb_id":"tt3426342","world_art_id":null,"type":"serial","add":"2020-01-14 20:54:20","orig_title":"Jodha Akbar","year":"2013-06-18","translations":["Профессиональный (многоголосый закадровый)"],"seasons_count":1,"episodes_count":576,"episodes":576,"update":"2020-02-17 20:18:57","iframe_src":"//83.svetacdn.in/PfJ50H0ZBPg3/tv-series/6348"},{"id":34297,"title":"Солдат в юбке","kp_id":"993","imdb_id":"tt0041498","world_art_id":null,"type":"movie","add":"2019-12-20 07:04:33","orig_title":"I Was a Male War Bride","year":"1949-09-19","translations":["Профессиональный (многоголосый закадровый)","[EN] Original (English)"],"quality":"bd","translation":"Профессиональный (многоголосый закадровый)","update":"2021-08-23 11:13:43","iframe_src":"//83.svetacdn.in/PfJ50H0ZBPg3/movie/34297"},{"id":34139,"title":"Город банд","kp_id":"1174355","imdb_id":"tt8722440","world_art_id":null,"type":"movie","add":"2019-12-16 05:33:12","orig_title":"Mob Town","year":"2019-12-13","translations":["Любительский (многоголосый закадровый) (@MUZOBOZ@)","Полное дублирование (iTunes)","[EN] Original (English)"],"quality":"webdl","translation":"Любительский (многоголосый закадровый) (@MUZOBOZ@)","update":"2021-08-23 09:47:19","iframe_src":"//83.svetacdn.in/PfJ50H0ZBPg3/movie/34139"},{"id":5769,"title":"По расчету","kp_id":"1179447","imdb_id":"tt8200550","world_art_id":null,"type":"serial","add":"2019-11-17 22:36:28","orig_title":"Gold Digger","year":"2019-11-12","translations":["Профессиональный (многоголосый закадровый) (TVShows)","Любительский (многоголосый закадровый) (ColdFilm)"],"seasons_count":1,"episodes_count":6,"episodes":6,"update":"2020-02-17 17:18:40","iframe_src":"//83.svetacdn.in/PfJ50H0ZBPg3/tv-series/5769"},{"id":5300,"title":"Явление","kp_id":"1246237","imdb_id":"tt9169658","world_art_id":null,"type":"serial","add":"2019-09-25 20:10:28","orig_title":"Emergence","year":"2019-09-24","translations":["Любительский (многоголосый закадровый) (Octopus)","Профессиональный (многоголосый закадровый) (HDrezka Studio)","Профессиональный (многоголосый закадровый) (NewStudio)","Профессиональный (многоголосый закадровый) (TVShows)","Полное дублирование","Полное дублирование (Кириллица)"],"seasons_count":1,"episodes_count":13,"episodes":13,"update":"2020-02-17 10:32:07","iframe_src":"//83.svetacdn.in/PfJ50H0ZBPg3/tv-series/5300"},{"id":4782,"title":"Анна. Жена егеря","kp_id":"963393","imdb_id":null,"world_art_id":null,"type":"serial","add":"2019-07-03 20:35:26","orig_title":"Анна. Жена егеря","year":"2016-03-01","translations":["Оригинальная дорожка"],"seasons_count":1,"episodes_count":4,"episodes":4,"update":"2020-02-18 20:00:49","iframe_src":"//83.svetacdn.in/PfJ50H0ZBPg3/tv-series/4782"},{"id":25696,"title":"А ну-ка, девочка, разденься!","kp_id":"102065","imdb_id":"tt0070096","world_art_id":null,"type":"movie","add":"2019-04-29 22:22:28","orig_title":"Geh, zieh dein Dirndl aus","year":"1973-10-19","translations":["Профессиональный (многоголосый закадровый)","Любительский (одноголосый закадровый) (Лаврова Н.)","Любительский (одноголосый закадровый) (ДиоНиК)","Профессиональный (двухголосый закадровый)"],"quality":"dvdrip","translation":"Профессиональный (многоголосый закадровый)","update":"2021-08-23 09:14:11","iframe_src":"//83.svetacdn.in/PfJ50H0ZBPg3/movie/25696"},{"id":4127,"title":"Жить без разрешения","kp_id":"1216708","imdb_id":"tt6970700","world_art_id":null,"type":"serial","add":"2019-02-21 08:19:38","orig_title":"Vivir sin permiso","year":"2018-09-24","translations":["Профессиональный (двухголосый закадровый) (ViruseProject)","Любительский (многоголосый закадровый) (ColdFilm)"],"seasons_count":2,"episodes_count":23,"episodes":10,"update":"2020-02-17 19:30:15","iframe_src":"//83.svetacdn.in/PfJ50H0ZBPg3/tv-series/4127"},{"id":21936,"title":"Как избавиться от предков","kp_id":"1000293","imdb_id":"tt6012446","world_art_id":null,"type":"movie","add":"2019-01-30 04:57:18","orig_title":"Extracurricular Activities","year":"2019-01-28","translations":["Профессиональный (многоголосый закадровый) (HDrezka Studio)","[EN] Original (English)","Полное дублирование (iTunes)"],"quality":"webdl","translation":"Профессиональный (многоголосый закадровый) (HDrezka Studio)","update":"2021-08-23 09:50:48","iframe_src":"//83.svetacdn.in/PfJ50H0ZBPg3/movie/21936"},{"id":20288,"title":"Никаких больше вечеринок","kp_id":"1089711","imdb_id":"tt7500618","world_art_id":null,"type":"movie","add":"2018-11-25 20:35:05","orig_title":"Party Hard Die Young","year":"2018-03-23","translations":["Любительский (многоголосый закадровый) (Синема УС)","Полное дублирование (iTunes)"],"quality":"webdl","translation":"Любительский (многоголосый закадровый) (Синема УС)","update":"2021-08-23 10:08:43","iframe_src":"//83.svetacdn.in/PfJ50H0ZBPg3/movie/20288"},{"id":2297,"title":"Шериф","kp_id":"806683","imdb_id":"tt2707504","world_art_id":null,"type":"serial","add":"2018-03-30 10:56:41","orig_title":"Cherif","year":"2013-10-25","translations":["Любительский (одноголосый закадровый)","Профессиональный (двухголосый закадровый) (ViruseProject)","Любительский (многоголосый закадровый)","Профессиональный (многоголосый закадровый) (West Video)","Любительский (многоголосый закадровый) (GreenРай Studio)"],"seasons_count":6,"episodes_count":60,"episodes":12,"update":"2020-02-18 04:39:31","iframe_src":"//83.svetacdn.in/PfJ50H0ZBPg3/tv-series/2297"},{"id":1344,"title":"Под куполом","kp_id":"574704","imdb_id":"tt1553656","world_art_id":null,"type":"serial","add":"2017-06-30 10:52:45","orig_title":"Under the Dome","year":"2013-06-24","translations":["Профессиональный (многоголосый закадровый) (LostFilm)","Профессиональный (многоголосый закадровый) (Пифагор)"],"seasons_count":3,"episodes_count":39,"episodes":14,"update":"2020-02-18 05:05:51","iframe_src":"//83.svetacdn.in/PfJ50H0ZBPg3/tv-series/1344"},{"id":6717,"title":"Лиза","kp_id":"5067","imdb_id":"tt0100031","world_art_id":null,"type":"movie","add":"2016-10-27 05:10:47","orig_title":"Lisa","year":"1989-10-27","translations":["Профессиональный (двухголосый закадровый)","[EN] Original (English)","Авторский (одноголосый закадровый) (Кузнецов Сергей)","Профессиональный (двухголосый закадровый) (НТВ)"],"quality":"hdtv","translation":"Профессиональный (двухголосый закадровый)","update":"2021-08-23 09:35:13","iframe_src":"//83.svetacdn.in/PfJ50H0ZBPg3/movie/6717"},{"id":3087,"title":"Филадельфийский эксперимент","kp_id":"2445","imdb_id":"tt0087910","world_art_id":null,"type":"movie","add":"2016-06-13 15:35:19","orig_title":"The Philadelphia Experiment","year":"1984-08-03","translations":["Профессиональный (многоголосый)","Авторский (одноголосый закадровый) (Михалёв Алексей)","Полное дублирование","[EN] Original (English)","Профессиональный (двухголосый закадровый) (НТВ)","Профессиональный (многоголосый закадровый)","Профессиональный (многоголосый закадровый) (Варус-Видео)","Авторский (одноголосый закадровый) (Либергал Григорий)"],"quality":"bd","translation":"Профессиональный (многоголосый)","update":"2021-08-23 11:14:53","iframe_src":"//83.svetacdn.in/PfJ50H0ZBPg3/movie/3087"}],"current_page":365,"first_page_url":"https://videocdn.tv/api/short?limit=100&api_token=RgFQdUIR2dRmwv8iYa5SnFNgnw3vpjKj&cache3365=3365&page=1","from":36401,"last_page":706,"last_page_url":"https://videocdn.tv/api/short?limit=100&api_token=RgFQdUIR2dRmwv8iYa5SnFNgnw3vpjKj&cache3365=3365&page=706","next_page_url":"https://videocdn.tv/api/short?limit=100&api_token=RgFQdUIR2dRmwv8iYa5SnFNgnw3vpjKj&cache3365=3365&page=366","path":"https://videocdn.tv/api/short","per_page":100,"prev_page_url":"https://videocdn.tv/api/short?limit=100&api_token=RgFQdUIR2dRmwv8iYa5SnFNgnw3vpjKj&cache3365=3365&page=364","to":36440,"total":70558}