{"result":true,"data":[{"id":12882,"title":"Фисгармония","kp_id":"948343","imdb_id":"tt5182856","world_art_id":null,"type":"movie","add":"2017-08-09 11:43:52","orig_title":"Fuchi ni tatsu","year":"2016-05-14","translations":["Профессиональный (многоголосый закадровый) (GreenРай Studio)"],"quality":"bd","translation":"Профессиональный (многоголосый закадровый) (GreenРай Studio)","update":"2017-08-09 18:59:12","iframe_src":"//8332.svetacdn.in/si4jsFRrtgrT/movie/12882"},{"id":12870,"title":"Шарлотта","kp_id":null,"imdb_id":"tt6013186","world_art_id":null,"type":"movie","add":"2017-08-08 23:58:05","orig_title":"Charlotte","year":"2017-08-08","translations":["Любительский (многоголосый закадровый) (Синема УС)"],"quality":"webdl","translation":"Любительский (многоголосый закадровый) (Синема УС)","update":"2017-08-09 05:11:20","iframe_src":"//8332.svetacdn.in/si4jsFRrtgrT/movie/12870"},{"id":12867,"title":"Исповедь","kp_id":"968735","imdb_id":"tt5546300","world_art_id":null,"type":"movie","add":"2017-08-08 23:32:11","orig_title":"La confession","year":"2016-11-10","translations":["Любительский (многоголосый закадровый) (Синема УС)"],"quality":"webdl","translation":"Любительский (многоголосый закадровый) (Синема УС)","update":"2017-08-09 05:16:08","iframe_src":"//8332.svetacdn.in/si4jsFRrtgrT/movie/12867"},{"id":12866,"title":"Миллион ударов","kp_id":"849418","imdb_id":"tt3756838","world_art_id":null,"type":"movie","add":"2017-08-08 23:18:49","orig_title":"One Million K(l)icks","year":"2014-09-13","translations":["Любительский (многоголосый закадровый) (Синема УС)"],"quality":"webdl","translation":"Любительский (многоголосый закадровый) (Синема УС)","update":"2017-08-09 05:23:36","iframe_src":"//8332.svetacdn.in/si4jsFRrtgrT/movie/12866"},{"id":12865,"title":"Всё будет хорошо","kp_id":"869417","imdb_id":"tt3854262","world_art_id":null,"type":"movie","add":"2017-08-08 23:15:28","orig_title":"People Hold On","year":"2015-09-21","translations":["Любительский (многоголосый закадровый) (Синема УС)"],"quality":"webdl","translation":"Любительский (многоголосый закадровый) (Синема УС)","update":"2017-08-09 05:26:52","iframe_src":"//8332.svetacdn.in/si4jsFRrtgrT/movie/12865"},{"id":12864,"title":"Когда я был жив","kp_id":"722720","imdb_id":"tt2463692","world_art_id":null,"type":"movie","add":"2017-08-08 23:10:16","orig_title":"Quando Eu Era Vivo","year":"2014-01-24","translations":["Любительский (одноголосый закадровый)"],"quality":"webdl","translation":"Любительский (одноголосый закадровый)","update":"2017-08-09 05:31:00","iframe_src":"//8332.svetacdn.in/si4jsFRrtgrT/movie/12864"},{"id":12861,"title":"Рандеву","kp_id":"920605","imdb_id":"tt4827878","world_art_id":null,"type":"movie","add":"2017-08-08 22:19:03","orig_title":"The Rendezvous","year":"2016-10-08","translations":["Любительский (многоголосый закадровый) (Синема УС)"],"quality":"dvdrip","translation":"Любительский (многоголосый закадровый) (Синема УС)","update":"2017-08-09 05:45:02","iframe_src":"//8332.svetacdn.in/si4jsFRrtgrT/movie/12861"},{"id":12857,"title":"Наследие нытика","kp_id":"860038","imdb_id":"tt3766040","world_art_id":null,"type":"movie","add":"2017-08-08 21:44:31","orig_title":"A Legacy of Whining","year":"2016-04-05","translations":["Любительский (многоголосый закадровый) (Синема УС)"],"quality":"webdl","translation":"Любительский (многоголосый закадровый) (Синема УС)","update":"2017-08-09 05:58:21","iframe_src":"//8332.svetacdn.in/si4jsFRrtgrT/movie/12857"},{"id":12842,"title":"Время покажет","kp_id":"805616","imdb_id":"tt3247286","world_art_id":null,"type":"movie","add":"2017-08-08 04:27:57","orig_title":"All in Time","year":"2016-10-07","translations":["Любительский (многоголосый закадровый) (Синема УС)"],"quality":"webdl","translation":"Любительский (многоголосый закадровый) (Синема УС)","update":"2017-08-08 06:42:36","iframe_src":"//8332.svetacdn.in/si4jsFRrtgrT/movie/12842"},{"id":12841,"title":"Дневник Умимати","kp_id":"846911","imdb_id":"tt3756788","world_art_id":null,"type":"movie","add":"2017-08-08 04:26:49","orig_title":"Umimachi Diary","year":"2015-05-14","translations":["Любительский (многоголосый закадровый) (Синема УС)"],"quality":"bd","translation":"Любительский (многоголосый закадровый) (Синема УС)","update":"2017-08-08 06:43:18","iframe_src":"//8332.svetacdn.in/si4jsFRrtgrT/movie/12841"},{"id":12840,"title":"Майкл Джексон ищет Неверленд","kp_id":"1011391","imdb_id":"tt6428912","world_art_id":null,"type":"movie","add":"2017-08-08 04:25:49","orig_title":"Michael Jackson: Searching for Neverland","year":"2017-05-29","translations":["Любительский (многоголосый закадровый) (Синема УС)"],"quality":"hdtv","translation":"Любительский (многоголосый закадровый) (Синема УС)","update":"2017-08-08 06:45:56","iframe_src":"//8332.svetacdn.in/si4jsFRrtgrT/movie/12840"},{"id":12835,"title":"В твоих глазах","kp_id":"646295","imdb_id":"tt2101569","world_art_id":null,"type":"movie","add":"2017-08-07 15:37:02","orig_title":"In Your Eyes","year":"2014-04-20","translations":["Профессиональный (многоголосый закадровый) (FocusStudio)"],"quality":"bd","translation":"Профессиональный (многоголосый закадровый) (FocusStudio)","update":"2017-08-09 06:15:47","iframe_src":"//8332.svetacdn.in/si4jsFRrtgrT/movie/12835"},{"id":12834,"title":"Дрянная девчонка","kp_id":"395720","imdb_id":"tt1107319","world_art_id":null,"type":"movie","add":"2017-08-07 15:35:19","orig_title":"Dirty Girl","year":"2010-09-12","translations":["Профессиональный (многоголосый закадровый)"],"quality":"bd","translation":"Профессиональный (многоголосый закадровый)","update":"2017-08-09 06:14:32","iframe_src":"//8332.svetacdn.in/si4jsFRrtgrT/movie/12834"},{"id":12833,"title":"Без ансамбля","kp_id":"416347","imdb_id":"tt1153706","world_art_id":null,"type":"movie","add":"2017-08-07 15:34:09","orig_title":"Dance Flick","year":"2009-05-22","translations":["Профессиональный (многоголосый закадровый)"],"quality":"bd","translation":"Профессиональный (многоголосый закадровый)","update":"2017-08-09 06:12:31","iframe_src":"//8332.svetacdn.in/si4jsFRrtgrT/movie/12833"},{"id":12832,"title":"Приглашение к разводу","kp_id":"603324","imdb_id":"tt2006721","world_art_id":null,"type":"movie","add":"2017-08-07 15:31:56","orig_title":"Divorce Invitation","year":"2012-11-15","translations":["Профессиональный (двухголосый закадровый) (Elrom)"],"quality":"webdl","translation":"Профессиональный (двухголосый закадровый) (Elrom)","update":"2017-08-09 06:11:03","iframe_src":"//8332.svetacdn.in/si4jsFRrtgrT/movie/12832"},{"id":12284,"title":"Тёмный дух","kp_id":"932773","imdb_id":"tt4970294","world_art_id":null,"type":"movie","add":"2017-07-03 21:50:52","orig_title":"Scaler, Dark Spirit","year":"2016-06-08","translations":["Любительский (многоголосый закадровый) (Синема УС)","Профессиональный (многоголосый закадровый) (GreenРай Studio)"],"quality":"webdl","translation":"Любительский (многоголосый закадровый) (Синема УС)","update":"2017-08-09 05:32:58","iframe_src":"//8332.svetacdn.in/si4jsFRrtgrT/movie/12284"},{"id":11556,"title":"Опека","kp_id":"905248","imdb_id":"tt4575930","world_art_id":null,"type":"movie","add":"2017-05-15 23:16:47","orig_title":"Custody","year":"2017-04-17","translations":["Любительский (многоголосый закадровый) (Синема УС)","Полное дублирование"],"quality":"webdl","translation":"Любительский (многоголосый закадровый) (Синема УС)","update":"2017-08-09 05:13:50","iframe_src":"//8332.svetacdn.in/si4jsFRrtgrT/movie/11556"},{"id":11131,"title":"Бараны","kp_id":"913471","imdb_id":"tt3296658","world_art_id":null,"type":"movie","add":"2017-04-19 22:45:34","orig_title":"Hrútar","year":"2015-05-28","translations":["Любительский (двухголосый закадровый)","Любительский (многоголосый закадровый) (Синема УС)"],"quality":"bd","translation":"Любительский (двухголосый закадровый)","update":"2017-08-08 06:44:52","iframe_src":"//8332.svetacdn.in/si4jsFRrtgrT/movie/11131"},{"id":10831,"title":"Кожа","kp_id":"987318","imdb_id":"tt5808778","world_art_id":null,"type":"movie","add":"2017-04-09 21:25:42","orig_title":"Pieles","year":"2017-02-11","translations":["Любительский (одноголосый закадровый) (BadBajo)","Любительский (многоголосый закадровый) (Синема УС)"],"quality":"webdl","translation":"Любительский (одноголосый закадровый) (BadBajo)","update":"2017-08-09 05:29:10","iframe_src":"//8332.svetacdn.in/si4jsFRrtgrT/movie/10831"},{"id":5980,"title":"Сон в летнюю ночь","kp_id":"937468","imdb_id":"tt5051278","world_art_id":null,"type":"movie","add":"2016-10-08 14:47:29","orig_title":"A Midsummer Night's Dream","year":"2016-05-30","translations":["Любительский (одноголосый закадровый)","Любительский (многоголосый закадровый) (Синема УС)"],"quality":"hdtv","translation":"Любительский (одноголосый закадровый)","update":"2017-08-09 05:56:54","iframe_src":"//8332.svetacdn.in/si4jsFRrtgrT/movie/5980"}],"current_page":2078,"first_page_url":"https://videocdn.tv/api/short?limit=100&api_token=X6EwAUfE5M9xbo7y0Bp0aPf3uXxG2KLL&cache32078=32078&page=1","from":207701,"last_page":636,"last_page_url":"https://videocdn.tv/api/short?limit=100&api_token=X6EwAUfE5M9xbo7y0Bp0aPf3uXxG2KLL&cache32078=32078&page=636","next_page_url":null,"path":"https://videocdn.tv/api/short","per_page":100,"prev_page_url":"https://videocdn.tv/api/short?limit=100&api_token=X6EwAUfE5M9xbo7y0Bp0aPf3uXxG2KLL&cache32078=32078&page=2077","to":207720,"total":63561}