{"result":true,"data":[{"id":47505,"title":"Соседи сверху","kp_id":"1311843","imdb_id":"tt11028768","world_art_id":null,"type":"movie","add":"2021-01-29 06:45:52","orig_title":"Sentimental","year":"2020-09-24","translations":["Полное дублирование (iTunes)"],"quality":"webdl","translation":"Полное дублирование (iTunes)","update":"2021-01-29 09:01:48","iframe_src":"//8543.svetacdn.in/IAF0wWTdNYZm/movie/47505"},{"id":47404,"title":"Итальянская работа","kp_id":"3514874","imdb_id":"tt0064505","world_art_id":null,"type":"movie","add":"2021-01-26 08:11:53","orig_title":"The Italian Job","year":"1969-06-05","translations":["Профессиональный (многоголосый закадровый)"],"quality":"bd","translation":"Профессиональный (многоголосый закадровый)","update":"2021-01-29 08:46:23","iframe_src":"//8543.svetacdn.in/IAF0wWTdNYZm/movie/47404"},{"id":8214,"title":"Бойня в Джонстауне","kp_id":"1207526","imdb_id":"tt8014232","world_art_id":null,"type":"serial","add":"2020-07-20 13:02:33","orig_title":"Jonestown: Terror in the Jungle","year":"2018-11-17","translations":["Профессиональный (многоголосый закадровый) (HDrezka Studio)"],"seasons_count":1,"episodes_count":4,"episodes":4,"update":"2020-07-20 17:02:00","iframe_src":"//8543.svetacdn.in/IAF0wWTdNYZm/tv-series/8214"},{"id":8191,"title":"Лоис и Кларк: Новые приключения Супермена","kp_id":"258130","imdb_id":"tt0106057","world_art_id":null,"type":"serial","add":"2020-07-18 15:54:50","orig_title":"Lois & Clark: The New Adventures of Superman","year":"2000-01-10","translations":["Профессиональный (многоголосый закадровый) (Syfy Universal)"],"seasons_count":4,"episodes_count":87,"episodes":22,"update":"2020-07-20 14:49:36","iframe_src":"//8543.svetacdn.in/IAF0wWTdNYZm/tv-series/8191"},{"id":8181,"title":"Сказочная Русь","kp_id":"767127","imdb_id":null,"world_art_id":null,"type":"serial","add":"2020-07-17 16:33:33","orig_title":"Сказочная Русь","year":"2012-11-16","translations":["Оригинальная дорожка"],"seasons_count":8,"episodes_count":192,"episodes":15,"update":"2020-07-20 12:23:59","iframe_src":"//8543.svetacdn.in/IAF0wWTdNYZm/tv-series/8181"},{"id":8180,"title":"Ракетная мощь","kp_id":"431229","imdb_id":"tt0244926","world_art_id":null,"type":"serial","add":"2020-07-17 15:48:56","orig_title":"Rocket Power","year":"1999-08-16","translations":["Полное дублирование"],"seasons_count":3,"episodes_count":58,"episodes":22,"update":"2020-07-20 11:03:11","iframe_src":"//8543.svetacdn.in/IAF0wWTdNYZm/tv-series/8180"},{"id":8174,"title":"Из уст в уста","kp_id":"1312558","imdb_id":"tt11131962","world_art_id":null,"type":"serial","add":"2020-07-17 09:36:34","orig_title":"Boca a Boca","year":"2020-07-17","translations":["Любительский (многоголосый закадровый) (ColdFilm)","Любительский (многоголосый закадровый) (Octopus)","Любительский (двухголосый закадровый) (OnisFilms)"],"seasons_count":1,"episodes_count":6,"episodes":6,"update":"2020-07-21 06:46:46","iframe_src":"//8543.svetacdn.in/IAF0wWTdNYZm/tv-series/8174"},{"id":8173,"title":"Кандидат","kp_id":"1256542","imdb_id":"tt10171930","world_art_id":null,"type":"serial","add":"2020-07-17 09:34:34","orig_title":"El Candidato","year":"2020-07-17","translations":["Любительский (многоголосый закадровый) (ColdFilm)","Любительский (многоголосый закадровый) (Octopus)"],"seasons_count":1,"episodes_count":10,"episodes":10,"update":"2020-07-20 09:12:53","iframe_src":"//8543.svetacdn.in/IAF0wWTdNYZm/tv-series/8173"},{"id":8169,"title":"Моя прекрасная толстушка","kp_id":"276279","imdb_id":"tt0352078","world_art_id":null,"type":"serial","add":"2020-07-16 12:36:57","orig_title":"Mi gorda bella","year":"2002-11-20","translations":["Профессиональный (многоголосый закадровый)"],"seasons_count":1,"episodes_count":178,"episodes":178,"update":"2020-07-20 21:07:33","iframe_src":"//8543.svetacdn.in/IAF0wWTdNYZm/tv-series/8169"},{"id":8097,"title":"Привет, Мини","kp_id":"1221434","imdb_id":"tt9454892","world_art_id":null,"type":"serial","add":"2020-07-06 06:10:26","orig_title":"Hello Mini","year":"2019-10-11","translations":["Любительский (многоголосый закадровый) (Octopus)","Любительский (многоголосый закадровый) (ColdFilm)"],"seasons_count":1,"episodes_count":15,"episodes":15,"update":"2020-07-20 20:37:36","iframe_src":"//8543.svetacdn.in/IAF0wWTdNYZm/tv-series/8097"},{"id":8088,"title":"Дикая Бразилия","kp_id":null,"imdb_id":"tt6416314","world_art_id":null,"type":"serial","add":"2020-07-04 09:35:28","orig_title":"Brazil Untamed","year":"2016-08-19","translations":["Профессиональный (одноголосый закадровый)"],"seasons_count":1,"episodes_count":4,"episodes":4,"update":"2020-07-20 10:34:14","iframe_src":"//8543.svetacdn.in/IAF0wWTdNYZm/tv-series/8088"},{"id":8046,"title":"Проклятие острова Оук","kp_id":"820519","imdb_id":"tt3455408","world_art_id":null,"type":"serial","add":"2020-06-29 05:36:56","orig_title":"The Curse of Oak Island","year":"2014-01-05","translations":["Профессиональный (двухголосый закадровый)"],"seasons_count":1,"episodes_count":22,"episodes":22,"update":"2020-07-20 18:22:41","iframe_src":"//8543.svetacdn.in/IAF0wWTdNYZm/tv-series/8046"},{"id":39970,"title":"Если бы...","kp_id":"36636","imdb_id":"tt0156691","world_art_id":null,"type":"movie","add":"2020-04-29 22:55:21","orig_title":"«Kaash»","year":"1987-09-04","translations":["Полное дублирование"],"quality":"webdl","translation":"Полное дублирование","update":"2021-01-29 10:41:36","iframe_src":"//8543.svetacdn.in/IAF0wWTdNYZm/movie/39970"},{"id":39785,"title":"Препятствие в пути","kp_id":"97759","imdb_id":"tt0151917","world_art_id":null,"type":"movie","add":"2020-04-24 21:22:50","orig_title":"Pathey Holo Deri","year":"1957-12-05","translations":["Любительский (одноголосый закадровый) (Бахурани)"],"quality":"dvdrip","translation":"Любительский (одноголосый закадровый) (Бахурани)","update":"2021-01-29 08:10:25","iframe_src":"//8543.svetacdn.in/IAF0wWTdNYZm/movie/39785"},{"id":39431,"title":"Индрани","kp_id":"248853","imdb_id":"tt0233937","world_art_id":null,"type":"movie","add":"2020-04-17 13:34:53","orig_title":"Indrani","year":"1958-01-01","translations":["Любительский (одноголосый закадровый) (Бахурани)"],"quality":"dvdrip","translation":"Любительский (одноголосый закадровый) (Бахурани)","update":"2021-01-29 08:05:01","iframe_src":"//8543.svetacdn.in/IAF0wWTdNYZm/movie/39431"},{"id":39221,"title":"Отдай своё сердце","kp_id":"95939","imdb_id":"tt0230141","world_art_id":null,"type":"movie","add":"2020-04-13 07:41:08","orig_title":"Dil Deke Dekho","year":"1959-01-01","translations":["Любительский (одноголосый закадровый) (Семыкина Юлия)"],"quality":"dvdrip","translation":"Любительский (одноголосый закадровый) (Семыкина Юлия)","update":"2021-01-29 09:13:05","iframe_src":"//8543.svetacdn.in/IAF0wWTdNYZm/movie/39221"},{"id":39192,"title":"Неведомый враг","kp_id":"86844","imdb_id":"tt0079355","world_art_id":null,"type":"movie","add":"2020-04-12 20:01:24","orig_title":"Jaani Dushman","year":"1979-05-22","translations":["Любительский (одноголосый закадровый)","Профессиональный (двухголосый закадровый) (Bollywood HD)"],"quality":"webdl","translation":"Любительский (одноголосый закадровый)","update":"2021-01-29 13:24:14","iframe_src":"//8543.svetacdn.in/IAF0wWTdNYZm/movie/39192"},{"id":38671,"title":"Мадхумати","kp_id":"96033","imdb_id":"tt0050665","world_art_id":null,"type":"movie","add":"2020-03-29 14:12:25","orig_title":"Madhumati","year":"1958-09-12","translations":["Любительский (одноголосый закадровый) (Nastia)"],"quality":"dvdrip","translation":"Любительский (одноголосый закадровый) (Nastia)","update":"2021-01-29 08:11:39","iframe_src":"//8543.svetacdn.in/IAF0wWTdNYZm/movie/38671"},{"id":37591,"title":"Непокоренный","kp_id":"47227","imdb_id":"tt0048956","world_art_id":null,"type":"movie","add":"2020-03-08 22:06:40","orig_title":"Aparajito","year":"1956-10-11","translations":["Профессиональный (многоголосый закадровый) (СВ-Дубль)"],"quality":"bd","translation":"Профессиональный (многоголосый закадровый) (СВ-Дубль)","update":"2021-01-29 11:42:28","iframe_src":"//8543.svetacdn.in/IAF0wWTdNYZm/movie/37591"},{"id":5594,"title":"Пятеро вернулись домой","kp_id":"1033779","imdb_id":"tt6587094","world_art_id":null,"type":"serial","add":"2019-11-01 08:29:07","orig_title":"Five Came Back","year":"2017-03-31","translations":["Любительский (многоголосый закадровый) (ColdFilm)","Профессиональный (многоголосый закадровый) (HDrezka Studio)"],"seasons_count":1,"episodes_count":3,"episodes":3,"update":"2020-07-20 16:52:57","iframe_src":"//8543.svetacdn.in/IAF0wWTdNYZm/tv-series/5594"},{"id":5440,"title":"Первая команда: Ювентус","kp_id":"1112516","imdb_id":"tt7924812","world_art_id":null,"type":"serial","add":"2019-10-10 19:45:03","orig_title":"First Team: Juventus","year":"2018-02-16","translations":["Любительский (многоголосый закадровый) (ColdFilm)","Профессиональный (многоголосый закадровый) (HDrezka Studio)"],"seasons_count":2,"episodes_count":6,"episodes":3,"update":"2020-07-20 19:15:13","iframe_src":"//8543.svetacdn.in/IAF0wWTdNYZm/tv-series/5440"},{"id":4835,"title":"Грязные деньги","kp_id":"1213642","imdb_id":"tt8201142","world_art_id":null,"type":"serial","add":"2019-07-11 13:08:49","orig_title":"Dark Mon£y","year":"2019-07-08","translations":["Любительский (многоголосый закадровый) (ColdFilm)","Профессиональный (многоголосый закадровый) (NewStudio)","Профессиональный (многоголосый закадровый) (HDrezka Studio)"],"seasons_count":1,"episodes_count":4,"episodes":4,"update":"2020-07-20 16:49:54","iframe_src":"//8543.svetacdn.in/IAF0wWTdNYZm/tv-series/4835"},{"id":4530,"title":"Популярен во Франции","kp_id":"1179330","imdb_id":"tt8009602","world_art_id":null,"type":"serial","add":"2019-05-20 21:26:08","orig_title":"Huge in France","year":"2019-05-12","translations":["Любительский (многоголосый закадровый) (ColdFilm)","Профессиональный (многоголосый закадровый) (HDrezka Studio)"],"seasons_count":1,"episodes_count":8,"episodes":8,"update":"2020-07-20 19:20:12","iframe_src":"//8543.svetacdn.in/IAF0wWTdNYZm/tv-series/4530"},{"id":22905,"title":"Оскар","kp_id":"79762","imdb_id":"tt0062083","world_art_id":null,"type":"movie","add":"2019-03-10 18:13:50","orig_title":"Oscar","year":"1967-07-13","translations":["Полное дублирование","Полное дублирование (Союзмультфильм)","Профессиональный (двухголосый закадровый) (Cinema Prestige)"],"quality":"bd","translation":"Полное дублирование","update":"2021-01-29 08:53:23","iframe_src":"//8543.svetacdn.in/IAF0wWTdNYZm/movie/22905"},{"id":3492,"title":"Воин","kp_id":"1118207","imdb_id":"tt6586344","world_art_id":null,"type":"serial","add":"2018-11-13 17:16:37","orig_title":"Kriger","year":"2018-10-01","translations":["Любительский (двухголосый закадровый) (KosharaSerials)","Профессиональный (многоголосый закадровый) (HDrezka Studio)"],"seasons_count":1,"episodes_count":6,"episodes":6,"update":"2020-07-20 16:55:14","iframe_src":"//8543.svetacdn.in/IAF0wWTdNYZm/tv-series/3492"},{"id":3403,"title":"Опять она","kp_id":"1183701","imdb_id":"tt8594496","world_art_id":null,"type":"serial","add":"2018-10-27 12:32:16","orig_title":"There She Goes","year":"2018-10-16","translations":["Профессиональный (многоголосый закадровый) (Ozz.tv)"],"seasons_count":2,"episodes_count":10,"episodes":5,"update":"2020-07-20 17:55:38","iframe_src":"//8543.svetacdn.in/IAF0wWTdNYZm/tv-series/3403"},{"id":3260,"title":"Умирающий детектив","kp_id":"1148165","imdb_id":"tt7582346","world_art_id":null,"type":"serial","add":"2018-10-04 07:20:04","orig_title":"Den döende detektiven","year":"2018-01-03","translations":["Любительский (многоголосый закадровый) (GreenРай Studio)","Профессиональный (многоголосый закадровый) (HDrezka Studio)"],"seasons_count":1,"episodes_count":3,"episodes":3,"update":"2020-07-20 10:55:03","iframe_src":"//8543.svetacdn.in/IAF0wWTdNYZm/tv-series/3260"},{"id":16768,"title":"Будка поцелуев","kp_id":"1024882","imdb_id":"tt3799232","world_art_id":null,"type":"movie","add":"2018-05-15 05:07:06","orig_title":"The Kissing Booth","year":"2018-05-11","translations":["Любительский (многоголосый закадровый) (Синема УС)","Профессиональный (многоголосый закадровый) (Jaskier)","Полное дублирование","Профессиональный (многоголосый закадровый) (HDrezka Studio)","Полное дублирование (Пифагор)","Профессиональный (многоголосый закадровый) (Jaskier)","Original (English)"],"quality":"webdl","translation":"Любительский (многоголосый закадровый) (Синема УС)","update":"2021-01-29 11:40:17","iframe_src":"//8543.svetacdn.in/IAF0wWTdNYZm/movie/16768"},{"id":2540,"title":"Патрик Мелроуз","kp_id":"1046844","imdb_id":"tt6586318","world_art_id":null,"type":"serial","add":"2018-05-08 05:12:38","orig_title":"Patrick Melrose","year":"2018-05-12","translations":["Профессиональный (многоголосый закадровый) (LostFilm)","Профессиональный (многоголосый закадровый) (HDrezka Studio)","Профессиональный (многоголосый закадровый) (AMS)"],"seasons_count":1,"episodes_count":5,"episodes":5,"update":"2020-07-20 15:46:21","iframe_src":"//8543.svetacdn.in/IAF0wWTdNYZm/tv-series/2540"},{"id":2298,"title":"Константин: Город демонов","kp_id":"1008690","imdb_id":"tt6404896","world_art_id":null,"type":"serial","add":"2018-03-30 11:01:10","orig_title":"Constantine: City of Demons","year":"2018-03-24","translations":["Профессиональный (многоголосый закадровый) (LostFilm)","Профессиональный (многоголосый закадровый) (HDrezka Studio)"],"seasons_count":1,"episodes_count":5,"episodes":5,"update":"2020-07-20 19:17:05","iframe_src":"//8543.svetacdn.in/IAF0wWTdNYZm/tv-series/2298"},{"id":2017,"title":"Говардс-Энд","kp_id":"1009681","imdb_id":"tt2577192","world_art_id":null,"type":"serial","add":"2018-02-02 06:00:44","orig_title":"Howards End","year":"2017-11-12","translations":["Профессиональный (многоголосый закадровый) (ColdFilm)","Профессиональный (многоголосый закадровый) (GreenРай Studio)","Профессиональный (многоголосый закадровый) (HDrezka Studio)"],"seasons_count":1,"episodes_count":4,"episodes":4,"update":"2020-07-20 19:12:26","iframe_src":"//8543.svetacdn.in/IAF0wWTdNYZm/tv-series/2017"},{"id":7365,"title":"Война против всех","kp_id":"841311","imdb_id":"tt3708886","world_art_id":null,"type":"movie","add":"2016-11-11 11:28:53","orig_title":"War on Everyone","year":"2016-02-12","translations":["Полное дублирование","Полное дублирование (iTunes)","Авторский (одноголосый закадровый) (Гоблин | Пучков Дмитрий)","Авторский (одноголосый закадровый) (Есарев Дмитрий)","Авторский (одноголосый закадровый) (Немахов Юрий)","Авторский (одноголосый закадровый) (Яроцкий Михаил | Kyberpunk)","Полное дублирование","Original (English)"],"quality":"webdl","translation":"Полное дублирование","update":"2021-01-29 12:19:09","iframe_src":"//8543.svetacdn.in/IAF0wWTdNYZm/movie/7365"},{"id":7182,"title":"Безумцы","kp_id":"195870","imdb_id":"tt0455407","world_art_id":null,"type":"movie","add":"2016-11-08 08:47:49","orig_title":"The Crazies","year":"2010-02-23","translations":["Полное дублирование","Авторский (одноголосый закадровый) (Сербин Юрий)","Полное дублирование","Original (English)"],"quality":"bd","translation":"Полное дублирование","update":"2021-01-29 11:47:04","iframe_src":"//8543.svetacdn.in/IAF0wWTdNYZm/movie/7182"},{"id":6740,"title":"Кидалы","kp_id":"5294","imdb_id":"tt0099703","world_art_id":null,"type":"movie","add":"2016-10-27 05:51:58","orig_title":"The Grifters","year":"1990-09-14","translations":["Профессиональный (многоголосый закадровый)","Авторский (одноголосый закадровый) (Михалёв Алексей)","Original (English)","Профессиональный (многоголосый закадровый)"],"quality":"bd","translation":"Профессиональный (многоголосый закадровый)","update":"2021-01-29 11:51:51","iframe_src":"//8543.svetacdn.in/IAF0wWTdNYZm/movie/6740"},{"id":6727,"title":"Ангел тьмы","kp_id":"24948","imdb_id":"tt0099817","world_art_id":null,"type":"movie","add":"2016-10-27 05:35:17","orig_title":"Dark Angel","year":"1990-01-26","translations":["Профессиональный (многоголосый закадровый)","Авторский (одноголосый закадровый) (Гаврилов Андрей)","Авторский (одноголосый закадровый) (Горчаков Василий)","Авторский (одноголосый закадровый) (Визгунов Сергей)","Original (English)","Профессиональный (двухголосый закадровый) (НТВ)","Профессиональный (двухголосый закадровый) (Видеофильм)","Профессиональный (многоголосый закадровый) (Нева-1)","Профессиональный (многоголосый закадровый) (РенТВ)"],"quality":"bd","translation":"Профессиональный (многоголосый закадровый)","update":"2021-01-29 12:12:28","iframe_src":"//8543.svetacdn.in/IAF0wWTdNYZm/movie/6727"},{"id":5281,"title":"Страж","kp_id":"15861","imdb_id":"tt0099710","world_art_id":null,"type":"movie","add":"2016-09-15 08:43:06","orig_title":"The Guardian","year":"1990-04-27","translations":["Профессиональный (многоголосый закадровый)","Авторский (одноголосый закадровый) (Михалёв Алексей)","Original (English)","Профессиональный (многоголосый закадровый)","Профессиональный (многоголосый закадровый) (Премьер Видео Фильм)"],"quality":"bd","translation":"Профессиональный (многоголосый закадровый)","update":"2021-01-29 11:57:01","iframe_src":"//8543.svetacdn.in/IAF0wWTdNYZm/movie/5281"},{"id":4813,"title":"Настоящее преступление","kp_id":"5813","imdb_id":"tt0139668","world_art_id":null,"type":"movie","add":"2016-08-29 08:40:18","orig_title":"True Crime","year":"1999-03-19","translations":["Профессиональный (многоголосый)","Авторский (одноголосый закадровый) (Живов Юрий)","Original (English)","Профессиональный (многоголосый закадровый) (Варус-Видео)"],"quality":"bd","translation":"Профессиональный (многоголосый)","update":"2021-01-29 12:23:31","iframe_src":"//8543.svetacdn.in/IAF0wWTdNYZm/movie/4813"},{"id":3498,"title":"Побег из Нью-Йорка","kp_id":"4404","imdb_id":"tt0082340","world_art_id":null,"type":"movie","add":"2016-06-29 14:33:50","orig_title":"Escape from New York","year":"1981-05-23","translations":["Профессиональный (многоголосый закадровый)","Авторский (одноголосый закадровый) (Белов Вадим)","Авторский (одноголосый закадровый) (Гаврилов Андрей)","Авторский (одноголосый закадровый) (Горчаков Василий)","Авторский (одноголосый закадровый) (Иванов Михаил)","Авторский (одноголосый закадровый) (Михалёв Алексей)","Авторский (одноголосый закадровый) (Сербин Юрий)","Авторский (одноголосый закадровый) (Володарский Леонид)","Original (English)","Профессиональный (многоголосый закадровый) (Amalgama)","Профессиональный (многоголосый закадровый) (Екатеринбург Арт)","Профессиональный (многоголосый закадровый) (Киномания)","Профессиональный (многоголосый закадровый) (Первый канал | ОРТ)"],"quality":"bd","translation":"Профессиональный (многоголосый закадровый)","update":"2021-01-29 08:50:08","iframe_src":"//8543.svetacdn.in/IAF0wWTdNYZm/movie/3498"},{"id":669,"title":"Послезавтра","kp_id":"2053","imdb_id":"tt0319262","world_art_id":null,"type":"movie","add":"2016-04-05 20:28:25","orig_title":"The Day After Tomorrow","year":"2004-05-17","translations":["Полное дублирование","Авторский (одноголосый закадровый) (Королёв Владимир)","Авторский (одноголосый закадровый) (Рудой Евгений)","Полное дублирование","Original (English)","Профессиональный (двухголосый закадровый) (Гланц + Королёва)","Профессиональный (двухголосый закадровый) (Tycoon)"],"quality":"bd","translation":"Полное дублирование","update":"2021-01-29 13:22:47","iframe_src":"//8543.svetacdn.in/IAF0wWTdNYZm/movie/669"},{"id":403,"title":"Поймай меня, если сможешь","kp_id":"324","imdb_id":"tt0264464","world_art_id":null,"type":"movie","add":"2016-04-01 15:11:07","orig_title":"Catch Me If You Can","year":"2002-12-16","translations":["Полное дублирование","Авторский (одноголосый закадровый) (Гаврилов Андрей)","Авторский (одноголосый закадровый) (Живов Юрий)","Полное дублирование","Original (English)","Профессиональный (многоголосый закадровый)"],"quality":"bd","translation":"Полное дублирование","update":"2021-01-29 13:14:11","iframe_src":"//8543.svetacdn.in/IAF0wWTdNYZm/movie/403"}],"current_page":152,"first_page_url":"https://videocdn.tv/api/short?limit=100&api_token=6Onb1W1alEUrBcKJZD3GoKBbWyAl2uG2&cache3152=3152&page=1","from":15101,"last_page":608,"last_page_url":"https://videocdn.tv/api/short?limit=100&api_token=6Onb1W1alEUrBcKJZD3GoKBbWyAl2uG2&cache3152=3152&page=608","next_page_url":"https://videocdn.tv/api/short?limit=100&api_token=6Onb1W1alEUrBcKJZD3GoKBbWyAl2uG2&cache3152=3152&page=153","path":"https://videocdn.tv/api/short","per_page":100,"prev_page_url":"https://videocdn.tv/api/short?limit=100&api_token=6Onb1W1alEUrBcKJZD3GoKBbWyAl2uG2&cache3152=3152&page=151","to":15140,"total":60756}