{"result":true,"data":[{"id":44034,"title":"Мёртвый","kp_id":"1369824","imdb_id":"tt12145322","world_art_id":null,"type":"movie","add":"2020-10-01 15:05:10","orig_title":"Dead","year":"2020-08-07","translations":["[EN] Original (English)","Любительский (многоголосый закадровый) (@MUZOBOZ@)"],"quality":"webdl","translation":"[EN] Original (English)","update":"2020-11-16 14:38:55","iframe_src":"//2413.svetacdn.in/si4jsFRrtgrT/movie/44034"},{"id":43953,"title":"Внутренний страх","kp_id":"22469","imdb_id":"tt0096246","world_art_id":null,"type":"movie","add":"2020-09-29 07:33:43","orig_title":"The Terror Within","year":"1989-01-20","translations":["Профессиональный (многоголосый закадровый) (Selena International)","[EN] Original (English)"],"quality":"bd","translation":"Профессиональный (многоголосый закадровый) (Selena International)","update":"2020-11-16 13:40:29","iframe_src":"//2413.svetacdn.in/si4jsFRrtgrT/movie/43953"},{"id":43943,"title":"Призраки","kp_id":"12124","imdb_id":"tt0116393","world_art_id":null,"type":"movie","add":"2020-09-28 19:43:52","orig_title":"Gang in Blue","year":"1996-09-08","translations":["Авторский (одноголосый закадровый) (Визгунов Сергей)","[EN] Original (English)"],"quality":"webdl","translation":"Авторский (одноголосый закадровый) (Визгунов Сергей)","update":"2020-11-16 15:07:29","iframe_src":"//2413.svetacdn.in/si4jsFRrtgrT/movie/43943"},{"id":43899,"title":"Дорога надежды","kp_id":"629607","imdb_id":"tt2069708","world_art_id":null,"type":"movie","add":"2020-09-27 20:27:49","orig_title":"Abel's Field","year":"2012-09-15","translations":["Профессиональный (многоголосый закадровый)","[EN] Original (English)"],"quality":"webdl","translation":"Профессиональный (многоголосый закадровый)","update":"2020-11-16 13:55:28","iframe_src":"//2413.svetacdn.in/si4jsFRrtgrT/movie/43899"},{"id":43865,"title":"Женщина","kp_id":"565813","imdb_id":"tt1714208","world_art_id":null,"type":"movie","add":"2020-09-26 09:30:31","orig_title":"The Woman","year":"2011-01-23","translations":["Авторский (одноголосый закадровый) (Дольский Андрей)","[EN] Original (English)"],"quality":"bd","translation":"Авторский (одноголосый закадровый) (Дольский Андрей)","update":"2020-11-16 13:42:59","iframe_src":"//2413.svetacdn.in/si4jsFRrtgrT/movie/43865"},{"id":43864,"title":"Шизополис","kp_id":"18302","imdb_id":"tt0117561","world_art_id":null,"type":"movie","add":"2020-09-26 08:46:36","orig_title":"Schizopolis","year":"1996-05-18","translations":["Профессиональный (многоголосый закадровый) (Видеосервис)","[EN] Original (English)"],"quality":"webdl","translation":"Профессиональный (многоголосый закадровый) (Видеосервис)","update":"2020-11-16 15:14:05","iframe_src":"//2413.svetacdn.in/si4jsFRrtgrT/movie/43864"},{"id":43861,"title":"Дальнобойщица","kp_id":"394440","imdb_id":"tt1087527","world_art_id":null,"type":"movie","add":"2020-09-25 20:11:16","orig_title":"Trucker","year":"2008-04-24","translations":["Профессиональный (многоголосый закадровый)","Профессиональный (двухголосый закадровый) (Elrom)","[EN] Original (English)"],"quality":"bd","translation":"Профессиональный (многоголосый закадровый)","update":"2020-11-16 13:47:40","iframe_src":"//2413.svetacdn.in/si4jsFRrtgrT/movie/43861"},{"id":43841,"title":"Очарование Манхэттена","kp_id":"26719","imdb_id":"tt0025731","world_art_id":null,"type":"movie","add":"2020-09-25 09:09:27","orig_title":"Romance in Manhattan","year":"1935-01-11","translations":["Профессиональный (одноголосый закадровый)","Профессиональный (одноголосый закадровый)","[EN] Original (English)"],"quality":"dvdrip","translation":"Профессиональный (одноголосый закадровый)","update":"2020-11-16 15:13:03","iframe_src":"//2413.svetacdn.in/si4jsFRrtgrT/movie/43841"},{"id":43813,"title":"Бостонский душитель","kp_id":"7007","imdb_id":"tt0062755","world_art_id":null,"type":"movie","add":"2020-09-24 05:11:57","orig_title":"The Boston Strangler","year":"1968-10-01","translations":["Профессиональный (многоголосый закадровый) (20th Century Fox)","Профессиональный (многоголосый закадровый) (НТВ)","[EN] Original (English)"],"quality":"bd","translation":"Профессиональный (многоголосый закадровый) (20th Century Fox)","update":"2020-11-16 13:28:00","iframe_src":"//2413.svetacdn.in/si4jsFRrtgrT/movie/43813"},{"id":43762,"title":"Рост населения: Ноль","kp_id":"17525","imdb_id":"tt0069530","world_art_id":null,"type":"movie","add":"2020-09-22 14:28:01","orig_title":"Z.P.G.","year":"1972-05-25","translations":["Авторский (одноголосый закадровый) (Котов Вячеслав)","[EN] Original (English)"],"quality":"bd","translation":"Авторский (одноголосый закадровый) (Котов Вячеслав)","update":"2020-11-16 13:49:40","iframe_src":"//2413.svetacdn.in/si4jsFRrtgrT/movie/43762"},{"id":43732,"title":"Восходящая Луна","kp_id":"4663","imdb_id":"tt0065032","world_art_id":null,"type":"movie","add":"2020-09-21 20:35:31","orig_title":"The Stalking Moon","year":"1968-12-21","translations":["Авторский (одноголосый закадровый) (Дьяконов Константин)","[EN] Original (English)"],"quality":"bd","translation":"Авторский (одноголосый закадровый) (Дьяконов Константин)","update":"2020-11-16 13:32:08","iframe_src":"//2413.svetacdn.in/si4jsFRrtgrT/movie/43732"},{"id":43709,"title":"Дневник Анны Франк","kp_id":"16557","imdb_id":"tt0052738","world_art_id":null,"type":"movie","add":"2020-09-21 14:57:09","orig_title":"The Diary of Anne Frank","year":"1959-03-18","translations":["Профессиональный (многоголосый закадровый)","[EN] Original (English)"],"quality":"bd","translation":"Профессиональный (многоголосый закадровый)","update":"2020-11-16 13:30:54","iframe_src":"//2413.svetacdn.in/si4jsFRrtgrT/movie/43709"},{"id":43697,"title":"Марионетка","kp_id":"1166326","imdb_id":"tt8237272","world_art_id":null,"type":"movie","add":"2020-09-20 21:16:54","orig_title":"Marionette","year":"2020-09-28","translations":["Любительский (многоголосый закадровый) (@MUZOBOZ@)","Полное дублирование (iTunes)","[EN] Original (English)"],"quality":"webdl","translation":"Любительский (многоголосый закадровый) (@MUZOBOZ@)","update":"2020-11-16 15:11:18","iframe_src":"//2413.svetacdn.in/si4jsFRrtgrT/movie/43697"},{"id":43696,"title":"Скуби-Ду! Нападение Меха-Пса","kp_id":"808289","imdb_id":"tt3328486","world_art_id":null,"type":"movie","add":"2020-09-20 19:29:10","orig_title":"Scooby-Doo! Mecha Mutt Menace","year":"2013-09-24","translations":["Полное дублирование","[EN] Original (English)"],"quality":"hdtv","translation":"Полное дублирование","update":"2020-11-16 13:53:23","iframe_src":"//2413.svetacdn.in/si4jsFRrtgrT/movie/43696"},{"id":43622,"title":"Другая сторона горы","kp_id":"23849","imdb_id":"tt0073496","world_art_id":null,"type":"movie","add":"2020-09-17 09:11:04","orig_title":"The Other Side of the Mountain","year":"1975-07-25","translations":["Профессиональный (многоголосый закадровый)","[EN] Original (English)"],"quality":"webdl","translation":"Профессиональный (многоголосый закадровый)","update":"2020-11-16 15:15:07","iframe_src":"//2413.svetacdn.in/si4jsFRrtgrT/movie/43622"},{"id":43419,"title":"Интимные услуги","kp_id":"6798","imdb_id":"tt0093727","world_art_id":null,"type":"movie","add":"2020-09-11 11:48:34","orig_title":"Personal Services","year":"1987-02-12","translations":["Авторский (одноголосый закадровый) (Гранкин Евгений)","[EN] Original (English)"],"quality":"webdl","translation":"Авторский (одноголосый закадровый) (Гранкин Евгений)","update":"2020-11-16 15:12:04","iframe_src":"//2413.svetacdn.in/si4jsFRrtgrT/movie/43419"},{"id":43405,"title":"Лесси возвращается домой","kp_id":"17884","imdb_id":"tt0036098","world_art_id":null,"type":"movie","add":"2020-09-10 19:33:36","orig_title":"Lassie Come Home","year":"1943-10-07","translations":["Профессиональный (многоголосый закадровый)","[EN] Original (English)"],"quality":"webdl","translation":"Профессиональный (многоголосый закадровый)","update":"2020-11-16 15:10:15","iframe_src":"//2413.svetacdn.in/si4jsFRrtgrT/movie/43405"},{"id":43096,"title":"Доппельгангер","kp_id":"1815","imdb_id":"tt0106753","world_art_id":null,"type":"movie","add":"2020-09-05 20:26:05","orig_title":"Doppelganger","year":"1993-01-01","translations":["Авторский (одноголосый закадровый) (Гаврилов Андрей)","Авторский (одноголосый закадровый) (Визгунов Сергей)","Профессиональный (двухголосый закадровый) (Екатеринбург Арт)","[EN] Original (English)"],"quality":"webdl","translation":"Авторский (одноголосый закадровый) (Гаврилов Андрей)","update":"2020-11-16 15:04:33","iframe_src":"//2413.svetacdn.in/si4jsFRrtgrT/movie/43096"},{"id":40165,"title":"Сердца и кости","kp_id":"1183769","imdb_id":"tt8689644","world_art_id":null,"type":"movie","add":"2020-05-06 19:15:41","orig_title":"Hearts and Bones","year":"2019-06-15","translations":["Любительский (многоголосый закадровый) (@MUZOBOZ@)","Профессиональный (многоголосый закадровый) (iTunes)","[EN] Original (English)"],"quality":"webdl","translation":"Любительский (многоголосый закадровый) (@MUZOBOZ@)","update":"2020-11-16 15:08:58","iframe_src":"//2413.svetacdn.in/si4jsFRrtgrT/movie/40165"},{"id":14985,"title":"Глупый и бессмысленный жест","kp_id":"971283","imdb_id":"tt5566790","world_art_id":null,"type":"movie","add":"2018-01-29 05:20:14","orig_title":"A Futile and Stupid Gesture","year":"2018-01-24","translations":["Любительский (многоголосый закадровый) (Синема УС)","Профессиональный (многоголосый закадровый) (NewStudio)","Профессиональный (многоголосый закадровый) (Good People)","[EN] Original (English)"],"quality":"webdl","translation":"Любительский (многоголосый закадровый) (Синема УС)","update":"2020-11-16 13:54:30","iframe_src":"//2413.svetacdn.in/si4jsFRrtgrT/movie/14985"}],"current_page":958,"first_page_url":"https://videocdn.tv/api/short?limit=100&api_token=X6EwAUfE5M9xbo7y0Bp0aPf3uXxG2KLL&cache3958=3958&page=1","from":95701,"last_page":721,"last_page_url":"https://videocdn.tv/api/short?limit=100&api_token=X6EwAUfE5M9xbo7y0Bp0aPf3uXxG2KLL&cache3958=3958&page=721","next_page_url":null,"path":"https://videocdn.tv/api/short","per_page":100,"prev_page_url":"https://videocdn.tv/api/short?limit=100&api_token=X6EwAUfE5M9xbo7y0Bp0aPf3uXxG2KLL&cache3958=3958&page=957","to":95720,"total":72083}