{"result":true,"data":[{"id":50167,"title":"Потуси со мной","kp_id":"1165783","imdb_id":"tt7821712","world_art_id":null,"type":"movie","add":"2021-05-05 21:00:54","orig_title":"Party with Me","year":"2020-05-30","translations":["Любительский (многоголосый закадровый) (Синема УС)"],"quality":"webdl","translation":"Любительский (многоголосый закадровый) (Синема УС)","update":"2021-05-06 08:40:50","iframe_src":"//7741.svetacdn.in/IAF0wWTdNYZm/movie/50167"},{"id":50166,"title":"Молодёжное служение","kp_id":"1005275","imdb_id":"tt6096296","world_art_id":null,"type":"movie","add":"2021-05-05 20:58:09","orig_title":"YouthMin","year":"2021-04-28","translations":["Любительский (многоголосый закадровый) (Синема УС)"],"quality":"webdl","translation":"Любительский (многоголосый закадровый) (Синема УС)","update":"2021-05-06 08:39:21","iframe_src":"//7741.svetacdn.in/IAF0wWTdNYZm/movie/50166"},{"id":50165,"title":"Китайско-говорящие вампиры","kp_id":"1297186","imdb_id":"tt10005622","world_art_id":null,"type":"movie","add":"2021-05-05 19:16:48","orig_title":"Chinese Speaking Vampires","year":"2021-01-10","translations":["Любительский (многоголосый закадровый) (Синема УС)"],"quality":"webdl","translation":"Любительский (многоголосый закадровый) (Синема УС)","update":"2021-05-05 22:02:11","iframe_src":"//7741.svetacdn.in/IAF0wWTdNYZm/movie/50165"},{"id":50164,"title":"Экстренный вызов","kp_id":"1079875","imdb_id":"tt7019516","world_art_id":null,"type":"movie","add":"2021-05-05 19:15:08","orig_title":"Blue Call","year":"2021-05-04","translations":["Любительский (многоголосый закадровый) (Синема УС)"],"quality":"webdl","translation":"Любительский (многоголосый закадровый) (Синема УС)","update":"2021-05-06 06:52:00","iframe_src":"//7741.svetacdn.in/IAF0wWTdNYZm/movie/50164"},{"id":50162,"title":"Незримая ложь","kp_id":"1397903","imdb_id":"tt12660938","world_art_id":null,"type":"movie","add":"2021-05-05 19:11:54","orig_title":"Invisible Lies","year":"2021-01-01","translations":["Любительский (многоголосый закадровый) (Синема УС)"],"quality":"webdl","translation":"Любительский (многоголосый закадровый) (Синема УС)","update":"2021-05-05 21:42:47","iframe_src":"//7741.svetacdn.in/IAF0wWTdNYZm/movie/50162"},{"id":50156,"title":"Мозг","kp_id":"1161024","imdb_id":"tt7933232","world_art_id":null,"type":"movie","add":"2021-05-05 17:30:29","orig_title":"Cerebrum","year":"2021-04-25","translations":["Любительский (многоголосый закадровый) (@MUZOBOZ@)"],"quality":"webdl","translation":"Любительский (многоголосый закадровый) (@MUZOBOZ@)","update":"2021-05-05 21:44:28","iframe_src":"//7741.svetacdn.in/IAF0wWTdNYZm/movie/50156"},{"id":50130,"title":"Косоглазый","kp_id":"1411064","imdb_id":"tt13009122","world_art_id":null,"type":"movie","add":"2021-05-05 05:34:34","orig_title":"Bizco","year":"2019-01-01","translations":["Любительский (двухголосый закадровый)"],"quality":"webdl","translation":"Любительский (двухголосый закадровый)","update":"2021-05-06 06:13:40","iframe_src":"//7741.svetacdn.in/IAF0wWTdNYZm/movie/50130"},{"id":50128,"title":"Мой двоюродный брат Матео","kp_id":null,"imdb_id":"tt12931814","world_art_id":null,"type":"movie","add":"2021-05-05 05:28:21","orig_title":"Mi primo Mateo","year":"2019-12-13","translations":["Любительский (одноголосый закадровый) (Водяной Александр)"],"quality":"webdl","translation":"Любительский (одноголосый закадровый) (Водяной Александр)","update":"2021-05-06 06:17:17","iframe_src":"//7741.svetacdn.in/IAF0wWTdNYZm/movie/50128"},{"id":50126,"title":"Банк","kp_id":"2154","imdb_id":"tt0004936","world_art_id":null,"type":"movie","add":"2021-05-05 05:03:50","orig_title":"The Bank","year":"1915-08-09","translations":["[EN] Original (English)"],"quality":"bd","translation":"[EN] Original (English)","update":"2021-05-06 06:21:03","iframe_src":"//7741.svetacdn.in/IAF0wWTdNYZm/movie/50126"},{"id":50114,"title":"Его новая работа","kp_id":"2163","imdb_id":"tt0005489","world_art_id":null,"type":"movie","add":"2021-05-04 15:03:39","orig_title":"His New Job","year":"1915-02-01","translations":["[EN] Original (English)"],"quality":"bd","translation":"[EN] Original (English)","update":"2021-05-06 06:24:08","iframe_src":"//7741.svetacdn.in/IAF0wWTdNYZm/movie/50114"},{"id":50113,"title":"Работа","kp_id":"2156","imdb_id":"tt0006313","world_art_id":null,"type":"movie","add":"2021-05-04 15:01:52","orig_title":"Work","year":"1915-06-21","translations":["[EN] Original (English)"],"quality":"bd","translation":"[EN] Original (English)","update":"2021-05-06 06:23:27","iframe_src":"//7741.svetacdn.in/IAF0wWTdNYZm/movie/50113"},{"id":50112,"title":"Завербованный","kp_id":"2153","imdb_id":"tt0006032","world_art_id":null,"type":"movie","add":"2021-05-04 15:01:00","orig_title":"Shanghaied","year":"1915-10-04","translations":["[EN] Original (English)"],"quality":"bd","translation":"[EN] Original (English)","update":"2021-05-06 06:25:45","iframe_src":"//7741.svetacdn.in/IAF0wWTdNYZm/movie/50112"},{"id":50111,"title":"Женщина","kp_id":"2155","imdb_id":"tt0006309","world_art_id":null,"type":"movie","add":"2021-05-04 14:57:49","orig_title":"A Woman","year":"1915-07-12","translations":["[EN] Original (English)"],"quality":"bd","translation":"[EN] Original (English)","update":"2021-05-06 06:26:53","iframe_src":"//7741.svetacdn.in/IAF0wWTdNYZm/movie/50111"},{"id":49148,"title":"Мальчики в душе","kp_id":null,"imdb_id":"tt14104642","world_art_id":null,"type":"movie","add":"2021-03-28 06:34:21","orig_title":"Shower Boys","year":"2021-03-14","translations":["Любительский (одноголосый закадровый)","Любительский (одноголосый закадровый) (Водяной Александр)"],"quality":"webdl","translation":"Любительский (одноголосый закадровый)","update":"2021-05-06 06:15:10","iframe_src":"//7741.svetacdn.in/IAF0wWTdNYZm/movie/49148"},{"id":49128,"title":"Хромофобия","kp_id":"81701","imdb_id":"tt0419641","world_art_id":null,"type":"movie","add":"2021-03-27 05:44:01","orig_title":"Chromophobia","year":"2005-05-21","translations":["Профессиональный (двухголосый закадровый) (Ульпаней Эльром)","[EN] Original (English)"],"quality":"webdl","translation":"Профессиональный (двухголосый закадровый) (Ульпаней Эльром)","update":"2021-05-06 07:26:40","iframe_src":"//7741.svetacdn.in/IAF0wWTdNYZm/movie/49128"},{"id":48749,"title":"Типа крутые спартанцы","kp_id":"467910","imdb_id":"tt1059887","world_art_id":null,"type":"movie","add":"2021-03-15 05:09:32","orig_title":"The Legend of Awesomest Maximus","year":"2011-08-05","translations":["Профессиональный (многоголосый закадровый)","[EN] Original (English)","Профессиональный (многоголосый закадровый)"],"quality":"bd","translation":"Профессиональный (многоголосый закадровый)","update":"2021-05-06 06:22:01","iframe_src":"//7741.svetacdn.in/IAF0wWTdNYZm/movie/48749"},{"id":29366,"title":"Фанфан-Тюльпан","kp_id":"34724","imdb_id":"tt0044602","world_art_id":null,"type":"movie","add":"2019-07-25 08:28:19","orig_title":"Fanfan la Tulipe","year":"1952-03-30","translations":["Полное дублирование","Полное дублирование (Киностудия им. Горького)","Профессиональный (одноголосый закадровый) (Видеофильм ТВ)","Профессиональный (двухголосый закадровый) (НТВ)","Профессиональный (многоголосый закадровый) (DVD Магия)","Профессиональный (многоголосый закадровый) (Позитив)","Профессиональный (многоголосый закадровый) (SomeWax)"],"quality":"dvdrip","translation":"Полное дублирование","update":"2021-05-06 06:38:11","iframe_src":"//7741.svetacdn.in/IAF0wWTdNYZm/movie/29366"},{"id":19043,"title":"Ангел","kp_id":"1067466","imdb_id":"tt5968274","world_art_id":null,"type":"movie","add":"2018-09-17 22:41:23","orig_title":"The Angel","year":"2018-09-14","translations":["Любительский (многоголосый закадровый) (Синема УС)","Профессиональный (многоголосый закадровый) (HDrezka Studio)","Полное дублирование","Профессиональный (многоголосый закадровый) (BaibaKo)","[EN] Original (English)"],"quality":"webdl","translation":"Любительский (многоголосый закадровый) (Синема УС)","update":"2021-05-06 06:19:01","iframe_src":"//7741.svetacdn.in/IAF0wWTdNYZm/movie/19043"},{"id":2029,"title":"Выбор","kp_id":"1112099","imdb_id":null,"world_art_id":null,"type":"serial","add":"2018-02-05 10:58:01","orig_title":"Выбор","year":"2018-02-03","translations":["Оригинальная дорожка"],"seasons_count":1,"episodes_count":2,"episodes":2,"update":"2018-02-05 16:30:07","iframe_src":"//7741.svetacdn.in/IAF0wWTdNYZm/tv-series/2029"},{"id":2020,"title":"Если у Вас нету тети","kp_id":"424956","imdb_id":"tt3521418","world_art_id":null,"type":"serial","add":"2018-02-04 18:55:36","orig_title":"Esli u Vas netu teti...","year":"2008-09-25","translations":["Оригинальная дорожка"],"seasons_count":1,"episodes_count":8,"episodes":8,"update":"2018-02-06 08:47:36","iframe_src":"//7741.svetacdn.in/IAF0wWTdNYZm/tv-series/2020"},{"id":2019,"title":"Четыре кризиса любви","kp_id":"1112150","imdb_id":null,"world_art_id":null,"type":"serial","add":"2018-02-04 18:50:16","orig_title":"Четыре кризиса любви","year":"2018-02-02","translations":["Оригинальная дорожка"],"seasons_count":1,"episodes_count":2,"episodes":2,"update":"2018-02-05 15:55:41","iframe_src":"//7741.svetacdn.in/IAF0wWTdNYZm/tv-series/2019"},{"id":2016,"title":"Заговоренный","kp_id":"840737","imdb_id":"tt3845026","world_art_id":null,"type":"serial","add":"2018-02-01 07:39:18","orig_title":"Zagovorennyy","year":"2015-04-25","translations":["Оригинальная дорожка"],"seasons_count":1,"episodes_count":8,"episodes":8,"update":"2018-02-02 20:38:58","iframe_src":"//7741.svetacdn.in/IAF0wWTdNYZm/tv-series/2016"},{"id":2013,"title":"Перекресток свободы","kp_id":null,"imdb_id":"tt6723402","world_art_id":null,"type":"serial","add":"2018-01-30 06:58:10","orig_title":"Liberty Crossing","year":"2018-01-08","translations":["Любительский (двухголосый закадровый) (Sunshine Studio)"],"seasons_count":1,"episodes_count":8,"episodes":8,"update":"2018-01-31 12:12:51","iframe_src":"//7741.svetacdn.in/IAF0wWTdNYZm/tv-series/2013"},{"id":2012,"title":"Икра","kp_id":"1112110","imdb_id":null,"world_art_id":null,"type":"serial","add":"2018-01-30 06:55:36","orig_title":"Икра","year":"2018-01-29","translations":["Оригинальная дорожка"],"seasons_count":1,"episodes_count":8,"episodes":8,"update":"2018-02-02 07:10:12","iframe_src":"//7741.svetacdn.in/IAF0wWTdNYZm/tv-series/2012"},{"id":2009,"title":"Святая трава","kp_id":null,"imdb_id":"tt7714460","world_art_id":null,"type":"serial","add":"2018-01-29 11:59:53","orig_title":"Holly Weed","year":"2017-12-21","translations":["Любительский (двухголосый закадровый) (Sunshine Studio)"],"seasons_count":1,"episodes_count":12,"episodes":12,"update":"2018-02-01 11:19:38","iframe_src":"//7741.svetacdn.in/IAF0wWTdNYZm/tv-series/2009"},{"id":2002,"title":"Отличные новости","kp_id":"977494","imdb_id":"tt4955480","world_art_id":null,"type":"serial","add":"2018-01-28 07:40:52","orig_title":"Great News","year":"2014-04-25","translations":["Любительский (двухголосый закадровый) (RG.Paravozik)","Любительский (двухголосый закадровый) (Sunshine Studio)"],"seasons_count":2,"episodes_count":23,"episodes":13,"update":"2018-01-30 06:51:51","iframe_src":"//7741.svetacdn.in/IAF0wWTdNYZm/tv-series/2002"},{"id":2000,"title":"Шеф","kp_id":"686841","imdb_id":"tt2351652","world_art_id":null,"type":"serial","add":"2018-01-27 18:09:14","orig_title":"Shef","year":"2012-06-18","translations":["Оригинальная дорожка"],"seasons_count":1,"episodes_count":24,"episodes":24,"update":"2018-01-28 14:32:13","iframe_src":"//7741.svetacdn.in/IAF0wWTdNYZm/tv-series/2000"},{"id":1999,"title":"Наследники","kp_id":"947441","imdb_id":null,"world_art_id":null,"type":"serial","add":"2018-01-27 17:13:24","orig_title":"Наследники","year":"2017-06-05","translations":["Оригинальная дорожка"],"seasons_count":1,"episodes_count":60,"episodes":60,"update":"2018-01-28 14:40:47","iframe_src":"//7741.svetacdn.in/IAF0wWTdNYZm/tv-series/1999"},{"id":1998,"title":"Приключения Джимми Нейтрона, мальчика-гения","kp_id":"229066","imdb_id":"tt0320808","world_art_id":null,"type":"serial","add":"2018-01-27 11:55:25","orig_title":"The Adventures of Jimmy Neutron: Boy Genius","year":"2002-07-20","translations":["Полное дублирование"],"seasons_count":3,"episodes_count":47,"episodes":18,"update":"2018-01-27 17:33:26","iframe_src":"//7741.svetacdn.in/IAF0wWTdNYZm/tv-series/1998"},{"id":1994,"title":"РеГенезис","kp_id":"271725","imdb_id":"tt0429422","world_art_id":null,"type":"serial","add":"2018-01-25 13:32:16","orig_title":"ReGenesis","year":"2004-10-24","translations":["Профессиональный (многоголосый закадровый) (Первый ТВЧ)"],"seasons_count":4,"episodes_count":52,"episodes":13,"update":"2018-01-31 07:40:16","iframe_src":"//7741.svetacdn.in/IAF0wWTdNYZm/tv-series/1994"},{"id":1993,"title":"Притяжению вопреки","kp_id":"469685","imdb_id":"tt1319690","world_art_id":null,"type":"serial","add":"2018-01-25 13:24:59","orig_title":"Defying Gravity","year":"2009-08-02","translations":["Профессиональный (многоголосый закадровый) (LostFilm)"],"seasons_count":1,"episodes_count":13,"episodes":13,"update":"2018-02-01 13:08:26","iframe_src":"//7741.svetacdn.in/IAF0wWTdNYZm/tv-series/1993"},{"id":1991,"title":"Поверхность","kp_id":"161014","imdb_id":"tt0452718","world_art_id":null,"type":"serial","add":"2018-01-25 13:18:24","orig_title":"Surface","year":"2005-09-19","translations":["Профессиональный (многоголосый закадровый) (Первый канал | ОРТ)"],"seasons_count":1,"episodes_count":15,"episodes":15,"update":"2018-01-31 13:14:44","iframe_src":"//7741.svetacdn.in/IAF0wWTdNYZm/tv-series/1991"},{"id":1981,"title":"Последняя статья журналиста","kp_id":"994622","imdb_id":null,"world_art_id":null,"type":"serial","add":"2018-01-23 06:39:01","orig_title":"Последняя статья журналиста","year":"2018-01-22","translations":["Оригинальная дорожка"],"seasons_count":1,"episodes_count":16,"episodes":16,"update":"2018-02-01 10:22:17","iframe_src":"//7741.svetacdn.in/IAF0wWTdNYZm/tv-series/1981"},{"id":1979,"title":"Инцидент","kp_id":"891686","imdb_id":"tt3913562","world_art_id":null,"type":"serial","add":"2018-01-22 17:51:53","orig_title":"El incidente","year":"2017-09-05","translations":["Профессиональный (двухголосый закадровый) (ViruseProject)"],"seasons_count":1,"episodes_count":5,"episodes":5,"update":"2018-01-28 09:30:35","iframe_src":"//7741.svetacdn.in/IAF0wWTdNYZm/tv-series/1979"},{"id":1887,"title":"Как назвать эту любовь?","kp_id":"724896","imdb_id":"tt2300165","world_art_id":null,"type":"serial","add":"2017-12-21 07:41:39","orig_title":"Iss Pyaar Ko Kya Naam Doon","year":"2011-01-01","translations":["Профессиональный (многоголосый закадровый)"],"seasons_count":2,"episodes_count":407,"episodes":9,"update":"2018-02-01 08:44:22","iframe_src":"//7741.svetacdn.in/IAF0wWTdNYZm/tv-series/1887"},{"id":1739,"title":"Отважные","kp_id":"1016162","imdb_id":"tt6461736","world_art_id":null,"type":"serial","add":"2017-11-15 11:44:07","orig_title":"The Brave","year":"2017-09-25","translations":["Любительский (двухголосый закадровый)","Профессиональный (двухголосый закадровый)"],"seasons_count":1,"episodes_count":13,"episodes":13,"update":"2018-01-31 07:52:02","iframe_src":"//7741.svetacdn.in/IAF0wWTdNYZm/tv-series/1739"},{"id":1683,"title":"Доблесть","kp_id":"1039555","imdb_id":"tt6503244","world_art_id":null,"type":"serial","add":"2017-10-27 08:15:10","orig_title":"Valor","year":"2017-10-09","translations":["Профессиональный (многоголосый закадровый) (NewStudio)"],"seasons_count":1,"episodes_count":13,"episodes":13,"update":"2018-02-05 15:37:12","iframe_src":"//7741.svetacdn.in/IAF0wWTdNYZm/tv-series/1683"},{"id":1376,"title":"Чужое счастье","kp_id":"1025981","imdb_id":null,"world_art_id":null,"type":"serial","add":"2017-07-07 09:15:57","orig_title":"Чужое счастье","year":"2017-03-09","translations":["Оригинальная дорожка"],"seasons_count":1,"episodes_count":8,"episodes":10,"update":"2018-01-29 14:09:47","iframe_src":"//7741.svetacdn.in/IAF0wWTdNYZm/tv-series/1376"},{"id":3661,"title":"Кровавый четверг","kp_id":"15641","imdb_id":"tt0124901","world_art_id":null,"type":"movie","add":"2016-07-05 05:30:19","orig_title":"Thursday","year":"1998-09-10","translations":["Профессиональный (многоголосый закадровый)","Авторский (одноголосый закадровый) (Гоблин | Пучков Дмитрий)","[EN] Original (English)","Авторский (одноголосый закадровый) (Сербин Юрий)","Авторский (одноголосый закадровый) (Визгунов Сергей)","Авторский (одноголосый закадровый) (Яроцкий Михаил | Kyberpunk)","Авторский (одноголосый закадровый) (Живов Юрий)","Профессиональный (двухголосый закадровый) (НТВ)"],"quality":"bd","translation":"Профессиональный (многоголосый закадровый)","update":"2021-05-06 07:17:29","iframe_src":"//7741.svetacdn.in/IAF0wWTdNYZm/movie/3661"},{"id":2771,"title":"Малхолланд Драйв","kp_id":"466","imdb_id":"tt0166924","world_art_id":null,"type":"movie","add":"2016-05-31 14:44:54","orig_title":"Mulholland Dr.","year":"2001-05-16","translations":["Полное дублирование","Профессиональный (многоголосый закадровый) (Видеосервис)","Авторский (одноголосый закадровый) (Горчаков Василий)","Авторский (одноголосый закадровый) (Сербин Юрий)","Авторский (одноголосый закадровый) (Визгунов Сергей)","Авторский (одноголосый закадровый) (Живов Юрий)","Полное дублирование","[EN] Original (English)","Профессиональный (двухголосый закадровый) (CP Digital)","Профессиональный (двухголосый закадровый) (Гланц + Королёва)","Профессиональный (двухголосый закадровый) (Карусель)","Профессиональный (двухголосый закадровый) (Видеосервис)"],"quality":"bd","translation":"Полное дублирование","update":"2021-05-06 07:41:21","iframe_src":"//7741.svetacdn.in/IAF0wWTdNYZm/movie/2771"}],"current_page":544,"first_page_url":"https://videocdn.tv/api/short?limit=100&api_token=6Onb1W1alEUrBcKJZD3GoKBbWyAl2uG2&cache3544=3544&page=1","from":54301,"last_page":706,"last_page_url":"https://videocdn.tv/api/short?limit=100&api_token=6Onb1W1alEUrBcKJZD3GoKBbWyAl2uG2&cache3544=3544&page=706","next_page_url":"https://videocdn.tv/api/short?limit=100&api_token=6Onb1W1alEUrBcKJZD3GoKBbWyAl2uG2&cache3544=3544&page=545","path":"https://videocdn.tv/api/short","per_page":100,"prev_page_url":"https://videocdn.tv/api/short?limit=100&api_token=6Onb1W1alEUrBcKJZD3GoKBbWyAl2uG2&cache3544=3544&page=543","to":54340,"total":70558}