{"result":true,"data":[{"id":46496,"title":"Стандарт","kp_id":"1317364","imdb_id":"tt11157344","world_art_id":null,"type":"movie","add":"2020-12-28 21:25:04","orig_title":"Estándar","year":"2020-08-15","translations":["Любительский (двухголосый закадровый) (Колобок)"],"quality":"ts","translation":"Любительский (двухголосый закадровый) (Колобок)","update":"2020-12-29 08:57:33","iframe_src":"//5322.svetacdn.in/si4jsFRrtgrT/movie/46496"},{"id":46495,"title":"Львица","kp_id":"1238035","imdb_id":"tt9793446","world_art_id":null,"type":"movie","add":"2020-12-28 21:23:20","orig_title":"The Lioness","year":"2019-02-21","translations":["Любительский (многоголосый закадровый) (Синема УС)"],"quality":"webdl","translation":"Любительский (многоголосый закадровый) (Синема УС)","update":"2020-12-29 09:17:14","iframe_src":"//5322.svetacdn.in/si4jsFRrtgrT/movie/46495"},{"id":46494,"title":"Женский кровавый спорт","kp_id":null,"imdb_id":"tt9485592","world_art_id":null,"type":"movie","add":"2020-12-28 21:21:36","orig_title":"Girl Blood Sport","year":"2019-02-25","translations":["Любительский (многоголосый закадровый) (Синема УС)"],"quality":"webdl","translation":"Любительский (многоголосый закадровый) (Синема УС)","update":"2020-12-29 09:17:45","iframe_src":"//5322.svetacdn.in/si4jsFRrtgrT/movie/46494"},{"id":46493,"title":"Агентство лжецов","kp_id":"1147633","imdb_id":"tt7735508","world_art_id":null,"type":"movie","add":"2020-12-28 21:18:35","orig_title":"L'agenzia dei bugiardi","year":"2019-01-17","translations":["Любительский (многоголосый закадровый) (Синема УС)"],"quality":"dvdrip","translation":"Любительский (многоголосый закадровый) (Синема УС)","update":"2020-12-29 09:18:13","iframe_src":"//5322.svetacdn.in/si4jsFRrtgrT/movie/46493"},{"id":46492,"title":"Рождественский ужин","kp_id":"1417606","imdb_id":"tt13148548","world_art_id":null,"type":"movie","add":"2020-12-28 21:14:47","orig_title":"Cooking Up Christmas","year":"2020-12-15","translations":["Любительский (многоголосый закадровый) (AlphaProject)"],"quality":"hdtv","translation":"Любительский (многоголосый закадровый) (AlphaProject)","update":"2020-12-29 08:57:57","iframe_src":"//5322.svetacdn.in/si4jsFRrtgrT/movie/46492"},{"id":46491,"title":"Сводная сестра","kp_id":"1273374","imdb_id":"tt10409582","world_art_id":null,"type":"movie","add":"2020-12-28 21:12:39","orig_title":"Polsestra","year":"2019-07-02","translations":["Любительский (многоголосый закадровый) (Синема УС)"],"quality":"webdl","translation":"Любительский (многоголосый закадровый) (Синема УС)","update":"2020-12-29 09:19:19","iframe_src":"//5322.svetacdn.in/si4jsFRrtgrT/movie/46491"},{"id":46490,"title":"Каратэ-до","kp_id":"1278871","imdb_id":"tt10223114","world_art_id":null,"type":"movie","add":"2020-12-28 21:07:35","orig_title":"Karate Do","year":"2019-08-01","translations":["Любительский (многоголосый закадровый) (AlphaProject)"],"quality":"webdl","translation":"Любительский (многоголосый закадровый) (AlphaProject)","update":"2020-12-29 09:20:30","iframe_src":"//5322.svetacdn.in/si4jsFRrtgrT/movie/46490"},{"id":46489,"title":"Она написала Рождество","kp_id":"1441409","imdb_id":"tt13097858","world_art_id":null,"type":"movie","add":"2020-12-28 21:01:55","orig_title":"Christmas She Wrote","year":"2020-12-06","translations":["Любительский (многоголосый закадровый) (Синема УС)"],"quality":"hdtv","translation":"Любительский (многоголосый закадровый) (Синема УС)","update":"2020-12-29 08:59:40","iframe_src":"//5322.svetacdn.in/si4jsFRrtgrT/movie/46489"},{"id":46488,"title":"А.К. против А.К.","kp_id":"2003706","imdb_id":"tt11651796","world_art_id":null,"type":"movie","add":"2020-12-28 21:00:09","orig_title":"AK vs AK","year":"2020-12-24","translations":["Любительский (многоголосый закадровый) (Синема УС)"],"quality":"webdl","translation":"Любительский (многоголосый закадровый) (Синема УС)","update":"2020-12-29 09:00:07","iframe_src":"//5322.svetacdn.in/si4jsFRrtgrT/movie/46488"},{"id":46487,"title":"Гостиница к Рождеству","kp_id":"1345150","imdb_id":"tt11666938","world_art_id":null,"type":"movie","add":"2020-12-28 20:58:11","orig_title":"Inn for Christmas","year":"2020-12-18","translations":["Любительский (многоголосый закадровый) (Синема УС)"],"quality":"webdl","translation":"Любительский (многоголосый закадровый) (Синема УС)","update":"2020-12-29 09:04:07","iframe_src":"//5322.svetacdn.in/si4jsFRrtgrT/movie/46487"},{"id":46486,"title":"Не выходи","kp_id":"1337346","imdb_id":"tt11482936","world_art_id":null,"type":"movie","add":"2020-12-28 20:54:54","orig_title":"Don't Get Out","year":"2019-12-22","translations":["Любительский (многоголосый закадровый) (Синема УС)"],"quality":"webdl","translation":"Любительский (многоголосый закадровый) (Синема УС)","update":"2020-12-29 09:21:00","iframe_src":"//5322.svetacdn.in/si4jsFRrtgrT/movie/46486"},{"id":46485,"title":"Апория","kp_id":"1274054","imdb_id":"tt10004944","world_art_id":null,"type":"movie","add":"2020-12-28 20:52:31","orig_title":"Aporia","year":"2019-07-12","translations":["Любительский (многоголосый закадровый) (Синема УС)"],"quality":"webdl","translation":"Любительский (многоголосый закадровый) (Синема УС)","update":"2020-12-29 09:22:01","iframe_src":"//5322.svetacdn.in/si4jsFRrtgrT/movie/46485"},{"id":46477,"title":"Группа крови","kp_id":"980416","imdb_id":"tt5731746","world_art_id":null,"type":"movie","add":"2020-12-28 20:30:46","orig_title":"Blood Type","year":"2019-11-29","translations":["Любительский (многоголосый закадровый) (Синема УС)"],"quality":"webdl","translation":"Любительский (многоголосый закадровый) (Синема УС)","update":"2020-12-29 09:06:17","iframe_src":"//5322.svetacdn.in/si4jsFRrtgrT/movie/46477"},{"id":46420,"title":"Ретрокаузальность","kp_id":"1131519","imdb_id":"tt7535666","world_art_id":null,"type":"movie","add":"2020-12-27 14:55:39","orig_title":"Retrocausality","year":"2019-08-31","translations":["Original (English)","Любительский (многоголосый закадровый) (Синема УС)"],"quality":"webdl","translation":"Original (English)","update":"2020-12-29 09:19:56","iframe_src":"//5322.svetacdn.in/si4jsFRrtgrT/movie/46420"},{"id":45409,"title":"Смертельный декабрь","kp_id":"1213851","imdb_id":"tt9301428","world_art_id":null,"type":"movie","add":"2020-11-18 17:05:25","orig_title":"Deathcember","year":"2019-10-31","translations":["Любительский (многоголосый закадровый) (@MUZOBOZ@)","Профессиональный (многоголосый закадровый) (IVI)"],"quality":"webdl","translation":"Любительский (многоголосый закадровый) (@MUZOBOZ@)","update":"2020-12-29 08:19:46","iframe_src":"//5322.svetacdn.in/si4jsFRrtgrT/movie/45409"},{"id":36620,"title":"Проклятие монахини Роуз","kp_id":"1109169","imdb_id":"tt7461372","world_art_id":null,"type":"movie","add":"2020-02-20 08:47:05","orig_title":"The Dawn","year":"2019-09-25","translations":["Любительский (многоголосый закадровый) (Синема УС)","Полное дублирование (iTunes)"],"quality":"webdl","translation":"Любительский (многоголосый закадровый) (Синема УС)","update":"2020-12-29 08:24:44","iframe_src":"//5322.svetacdn.in/si4jsFRrtgrT/movie/36620"},{"id":33239,"title":"Рождество в Блу Ридж Маунтин","kp_id":"1302464","imdb_id":"tt10936658","world_art_id":null,"type":"movie","add":"2019-11-18 21:10:35","orig_title":"A Blue Ridge Mountain Christmas","year":"2019-11-07","translations":["Любительский (многоголосый закадровый) (AlphaProject)","Профессиональный (многоголосый закадровый)"],"quality":"hdtv","translation":"Любительский (многоголосый закадровый) (AlphaProject)","update":"2020-12-29 08:18:31","iframe_src":"//5322.svetacdn.in/si4jsFRrtgrT/movie/33239"},{"id":5242,"title":"Сияй или сойди с ума","kp_id":"888206","imdb_id":"tt4412610","world_art_id":null,"type":"serial","add":"2019-09-19 10:43:35","orig_title":"Bitnageona Michigeona","year":"2015-01-19","translations":["Любительский (одноголосый закадровый) (GREEN TEA)"],"seasons_count":1,"episodes_count":24,"episodes":24,"update":"2019-09-19 20:36:47","iframe_src":"//5322.svetacdn.in/si4jsFRrtgrT/tv-series/5242"},{"id":5239,"title":"Эдера","kp_id":"394051","imdb_id":"tt0186051","world_art_id":null,"type":"serial","add":"2019-09-19 06:26:59","orig_title":"Edera","year":"1992-02-18","translations":["Профессиональный (двухголосый закадровый)"],"seasons_count":1,"episodes_count":44,"episodes":44,"update":"2019-09-19 11:40:02","iframe_src":"//5322.svetacdn.in/si4jsFRrtgrT/tv-series/5239"},{"id":5238,"title":"Возвращение Мухтара 10","kp_id":"935875","imdb_id":"tt5108022","world_art_id":null,"type":"serial","add":"2019-09-18 12:19:05","orig_title":"Vozvrashchenie Mukhtara 10","year":"2015-01-01","translations":["Оригинальная дорожка"],"seasons_count":1,"episodes_count":48,"episodes":48,"update":"2019-09-18 21:08:41","iframe_src":"//5322.svetacdn.in/si4jsFRrtgrT/tv-series/5238"},{"id":5237,"title":"Удивительные странствия Геракла","kp_id":"231093","imdb_id":"tt0111999","world_art_id":null,"type":"serial","add":"2019-09-18 12:07:09","orig_title":"Hercules: The Legendary Journeys","year":"1995-01-16","translations":["Профессиональный (многоголосый закадровый) (СТС)"],"seasons_count":6,"episodes_count":111,"episodes":8,"update":"2019-09-19 10:12:09","iframe_src":"//5322.svetacdn.in/si4jsFRrtgrT/tv-series/5237"},{"id":5234,"title":"Паутина 7","kp_id":"822086","imdb_id":null,"world_art_id":null,"type":"serial","add":"2019-09-18 08:44:08","orig_title":"Паутина 7","year":"2013-01-01","translations":["Оригинальная дорожка"],"seasons_count":1,"episodes_count":24,"episodes":24,"update":"2019-09-20 12:36:32","iframe_src":"//5322.svetacdn.in/si4jsFRrtgrT/tv-series/5234"},{"id":5233,"title":"Желание","kp_id":"467955","imdb_id":"tt0401923","world_art_id":null,"type":"serial","add":"2019-09-18 04:30:38","orig_title":"El Deseo","year":"2004-04-19","translations":["Любительский (одноголосый закадровый)"],"seasons_count":1,"episodes_count":11,"episodes":11,"update":"2019-09-18 10:21:35","iframe_src":"//5322.svetacdn.in/si4jsFRrtgrT/tv-series/5233"},{"id":30937,"title":"Высшая форма","kp_id":"1033145","imdb_id":"tt6222286","world_art_id":null,"type":"movie","add":"2019-09-17 22:49:24","orig_title":"Perfect","year":"2018-03-11","translations":["Любительский (многоголосый закадровый) (Синема УС)","Профессиональный (многоголосый закадровый) (iTunes)"],"quality":"webdl","translation":"Любительский (многоголосый закадровый) (Синема УС)","update":"2020-12-29 08:26:23","iframe_src":"//5322.svetacdn.in/si4jsFRrtgrT/movie/30937"},{"id":5232,"title":"Возвращение Мухтара 9","kp_id":"796873","imdb_id":"tt4124210","world_art_id":null,"type":"serial","add":"2019-09-17 20:17:24","orig_title":"Vozvrashchenie Mukhtara 9","year":"2014-02-03","translations":["Оригинальная дорожка"],"seasons_count":1,"episodes_count":96,"episodes":96,"update":"2019-09-19 06:23:11","iframe_src":"//5322.svetacdn.in/si4jsFRrtgrT/tv-series/5232"},{"id":5230,"title":"Герои Энвелла","kp_id":"1072974","imdb_id":"tt7520722","world_art_id":null,"type":"serial","add":"2019-09-17 13:09:38","orig_title":"Heroes of Envell","year":"2017-09-15","translations":["Оригинальная дорожка"],"seasons_count":1,"episodes_count":26,"episodes":26,"update":"2019-09-19 08:02:15","iframe_src":"//5322.svetacdn.in/si4jsFRrtgrT/tv-series/5230"},{"id":5228,"title":"Обратная сторона любви","kp_id":"1112987","imdb_id":"tt10033916","world_art_id":null,"type":"serial","add":"2019-09-17 12:57:53","orig_title":"Obratnaya storona lyubvi","year":"2018-03-17","translations":["Оригинальная дорожка"],"seasons_count":1,"episodes_count":2,"episodes":2,"update":"2019-09-19 11:06:09","iframe_src":"//5322.svetacdn.in/si4jsFRrtgrT/tv-series/5228"},{"id":5227,"title":"Любовь по-японски","kp_id":"1097462","imdb_id":null,"world_art_id":null,"type":"serial","add":"2019-09-17 12:55:16","orig_title":"Любовь по-японски","year":"2018-05-04","translations":["Оригинальная дорожка"],"seasons_count":1,"episodes_count":2,"episodes":2,"update":"2019-09-19 11:04:03","iframe_src":"//5322.svetacdn.in/si4jsFRrtgrT/tv-series/5227"},{"id":5225,"title":"Ген высоты, или как пройти на Эверест","kp_id":"1045927","imdb_id":null,"world_art_id":null,"type":"serial","add":"2019-09-17 12:47:59","orig_title":"Ген высоты, или как пройти на Эверест","year":"2017-01-01","translations":["Оригинальная дорожка"],"seasons_count":1,"episodes_count":3,"episodes":3,"update":"2019-09-19 07:18:09","iframe_src":"//5322.svetacdn.in/si4jsFRrtgrT/tv-series/5225"},{"id":5224,"title":"Шекспир на новый лад","kp_id":"420095","imdb_id":"tt1062205","world_art_id":null,"type":"serial","add":"2019-09-17 11:35:29","orig_title":"ShakespeaRe-Told","year":"2005-11-07","translations":["Профессиональный (многоголосый закадровый) (ТВ3)"],"seasons_count":1,"episodes_count":4,"episodes":4,"update":"2019-09-19 11:01:12","iframe_src":"//5322.svetacdn.in/si4jsFRrtgrT/tv-series/5224"},{"id":5223,"title":"Облом","kp_id":"1142593","imdb_id":"tt7320300","world_art_id":null,"type":"serial","add":"2019-09-17 11:28:00","orig_title":"The Letdown","year":"2017-10-25","translations":["Любительский (многоголосый закадровый) (ColdFilm)","Профессиональный (многоголосый закадровый) (BaibaKo)"],"seasons_count":1,"episodes_count":7,"episodes":7,"update":"2019-09-19 10:57:27","iframe_src":"//5322.svetacdn.in/si4jsFRrtgrT/tv-series/5223"},{"id":5218,"title":"Дознаватель","kp_id":"528183","imdb_id":"tt4185900","world_art_id":null,"type":"serial","add":"2019-09-17 07:13:20","orig_title":"Doznavatel'","year":"2010-01-01","translations":["Оригинальная дорожка"],"seasons_count":1,"episodes_count":24,"episodes":24,"update":"2019-09-20 12:22:46","iframe_src":"//5322.svetacdn.in/si4jsFRrtgrT/tv-series/5218"},{"id":5217,"title":"Школа","kp_id":"493098","imdb_id":"tt1585899","world_art_id":null,"type":"serial","add":"2019-09-17 06:58:09","orig_title":"Shkola","year":"2010-01-11","translations":["Оригинальная дорожка"],"seasons_count":1,"episodes_count":69,"episodes":69,"update":"2019-09-20 11:35:06","iframe_src":"//5322.svetacdn.in/si4jsFRrtgrT/tv-series/5217"},{"id":5216,"title":"Чемпион","kp_id":"1277590","imdb_id":"tt10476544","world_art_id":null,"type":"serial","add":"2019-09-17 06:28:15","orig_title":"Sampiyon","year":"2019-09-12","translations":["Любительский (одноголосый закадровый)"],"seasons_count":1,"episodes_count":1,"episodes":1,"update":"2019-09-18 07:29:35","iframe_src":"//5322.svetacdn.in/si4jsFRrtgrT/tv-series/5216"},{"id":5215,"title":"Трансформеры: Кибертрон","kp_id":"431152","imdb_id":"tt0472252","world_art_id":null,"type":"serial","add":"2019-09-17 05:12:44","orig_title":"Transformers: Cybertron","year":"2005-01-08","translations":["Полное дублирование"],"seasons_count":1,"episodes_count":52,"episodes":52,"update":"2019-09-18 07:38:13","iframe_src":"//5322.svetacdn.in/si4jsFRrtgrT/tv-series/5215"},{"id":5208,"title":"Осадок","kp_id":"1044394","imdb_id":"tt4568372","world_art_id":null,"type":"serial","add":"2019-09-16 12:32:44","orig_title":"Residue","year":"2015-03-31","translations":["Профессиональный (двухголосый закадровый) (ViruseProject)","Любительский (многоголосый закадровый) (Hamster Studio)"],"seasons_count":1,"episodes_count":3,"episodes":3,"update":"2019-09-18 07:47:12","iframe_src":"//5322.svetacdn.in/si4jsFRrtgrT/tv-series/5208"},{"id":4996,"title":"Класс врунов","kp_id":"1256284","imdb_id":"tt10467640","world_art_id":null,"type":"serial","add":"2019-08-06 09:38:15","orig_title":"Miseuteo Giganje","year":"2019-07-17","translations":["Любительский (многоголосый закадровый)","Любительский (двухголосый закадровый)"],"seasons_count":1,"episodes_count":16,"episodes":16,"update":"2019-09-19 21:35:09","iframe_src":"//5322.svetacdn.in/si4jsFRrtgrT/tv-series/4996"},{"id":28482,"title":"Идеальное Рождество","kp_id":"260585","imdb_id":"tt0841032","world_art_id":null,"type":"movie","add":"2019-07-02 13:07:56","orig_title":"The Perfect Holiday","year":"2007-12-12","translations":["Авторский (одноголосый закадровый) (Гранкин Евгений)","Авторский (одноголосый закадровый) (Гранкин Евгений)"],"quality":"dvdrip","translation":"Авторский (одноголосый закадровый) (Гранкин Евгений)","update":"2020-12-29 08:21:22","iframe_src":"//5322.svetacdn.in/si4jsFRrtgrT/movie/28482"},{"id":4135,"title":"Вредитель","kp_id":"1166515","imdb_id":"tt8292872","world_art_id":null,"type":"serial","add":"2019-02-22 15:05:17","orig_title":"Vermin","year":"2018-04-09","translations":["Любительский (двухголосый закадровый) (NewStation)"],"seasons_count":1,"episodes_count":10,"episodes":10,"update":"2019-09-18 07:43:21","iframe_src":"//5322.svetacdn.in/si4jsFRrtgrT/tv-series/4135"},{"id":8760,"title":"Зимняя сказка, или Королева, потерявшая имя","kp_id":"905585","imdb_id":"tt4637050","world_art_id":null,"type":"movie","add":"2017-01-09 11:31:46","orig_title":"Fräulein: una fiaba d'inverno","year":"2016-05-26","translations":["Любительский (многоголосый закадровый)","Профессиональный (многоголосый закадровый) (IVI)"],"quality":"dvdrip","translation":"Любительский (многоголосый закадровый)","update":"2020-12-29 08:23:04","iframe_src":"//5322.svetacdn.in/si4jsFRrtgrT/movie/8760"}],"current_page":337,"first_page_url":"https://videocdn.tv/api/short?limit=100&api_token=X6EwAUfE5M9xbo7y0Bp0aPf3uXxG2KLL&cache3337=3337&page=1","from":33601,"last_page":630,"last_page_url":"https://videocdn.tv/api/short?limit=100&api_token=X6EwAUfE5M9xbo7y0Bp0aPf3uXxG2KLL&cache3337=3337&page=630","next_page_url":"https://videocdn.tv/api/short?limit=100&api_token=X6EwAUfE5M9xbo7y0Bp0aPf3uXxG2KLL&cache3337=3337&page=338","path":"https://videocdn.tv/api/short","per_page":100,"prev_page_url":"https://videocdn.tv/api/short?limit=100&api_token=X6EwAUfE5M9xbo7y0Bp0aPf3uXxG2KLL&cache3337=3337&page=336","to":33640,"total":62945}