{"result":true,"data":[{"id":15991,"title":"Реальная сказка","kp_id":"471573","imdb_id":"tt2093218","world_art_id":null,"type":"movie","add":"2018-04-01 23:23:08","orig_title":"Realnaya skazka","year":"2011-11-03","translations":["Оригинальная дорожка"],"quality":"bd","translation":"Оригинальная дорожка","update":"2018-04-02 13:14:25","iframe_src":"//2413.svetacdn.in/si4jsFRrtgrT/movie/15991"},{"id":15985,"title":"Дурацкий план","kp_id":"1093922","imdb_id":"tt6447952","world_art_id":null,"type":"movie","add":"2018-04-01 23:07:07","orig_title":"Foolish Plan","year":"2016-12-11","translations":["Любительский (многоголосый закадровый) (Синема УС)"],"quality":"bd","translation":"Любительский (многоголосый закадровый) (Синема УС)","update":"2018-04-02 09:12:15","iframe_src":"//2413.svetacdn.in/si4jsFRrtgrT/movie/15985"},{"id":15981,"title":"Усадьба Кэндлшу","kp_id":"9848","imdb_id":"tt0075807","world_art_id":null,"type":"movie","add":"2018-04-01 22:42:21","orig_title":"Candleshoe","year":"1977-12-16","translations":["Полное дублирование"],"quality":"webdl","translation":"Полное дублирование","update":"2018-04-02 09:39:36","iframe_src":"//2413.svetacdn.in/si4jsFRrtgrT/movie/15981"},{"id":15979,"title":"Комендантский час 2","kp_id":"25296","imdb_id":"tt0104823","world_art_id":null,"type":"movie","add":"2018-04-01 22:38:21","orig_title":"Martial Law II: Undercover","year":"1992-01-31","translations":["Профессиональный (многоголосый закадровый)"],"quality":"bd","translation":"Профессиональный (многоголосый закадровый)","update":"2018-04-02 13:19:33","iframe_src":"//2413.svetacdn.in/si4jsFRrtgrT/movie/15979"},{"id":15977,"title":"Золушка","kp_id":"45398","imdb_id":"tt0168269","world_art_id":null,"type":"movie","add":"2018-04-01 22:32:51","orig_title":"Zolushka","year":"1947-05-16","translations":["Оригинальная дорожка"],"quality":"bd","translation":"Оригинальная дорожка","update":"2018-04-02 13:22:03","iframe_src":"//2413.svetacdn.in/si4jsFRrtgrT/movie/15977"},{"id":15974,"title":"Бедуин","kp_id":"477351","imdb_id":"tt2117825","world_art_id":null,"type":"movie","add":"2018-04-01 22:00:08","orig_title":"Beduin","year":"2011-11-21","translations":["Оригинальная дорожка"],"quality":"bd","translation":"Оригинальная дорожка","update":"2018-04-02 13:26:31","iframe_src":"//2413.svetacdn.in/si4jsFRrtgrT/movie/15974"},{"id":15973,"title":"Путешествие в Китай","kp_id":"858414","imdb_id":"tt3672186","world_art_id":null,"type":"movie","add":"2018-04-01 21:55:10","orig_title":"Voyage en Chine","year":"2015-03-25","translations":["Профессиональный (многоголосый закадровый) (GreenРай Studio)"],"quality":"hdtv","translation":"Профессиональный (многоголосый закадровый) (GreenРай Studio)","update":"2018-04-02 13:38:34","iframe_src":"//2413.svetacdn.in/si4jsFRrtgrT/movie/15973"},{"id":15970,"title":"Никогда в жизни","kp_id":"848646","imdb_id":"tt3612936","world_art_id":null,"type":"movie","add":"2018-04-01 21:35:21","orig_title":"Jamais de la vie","year":"2015-02-21","translations":["Профессиональный (многоголосый закадровый) (GreenРай Studio)"],"quality":"hdtv","translation":"Профессиональный (многоголосый закадровый) (GreenРай Studio)","update":"2018-04-02 13:40:14","iframe_src":"//2413.svetacdn.in/si4jsFRrtgrT/movie/15970"},{"id":15964,"title":"Затерянный ручей","kp_id":"856396","imdb_id":"tt5610746","world_art_id":null,"type":"movie","add":"2018-04-01 17:08:16","orig_title":"Lost Creek","year":"2017-01-15","translations":["Любительский (многоголосый закадровый) (Синема УС)"],"quality":"webdl","translation":"Любительский (многоголосый закадровый) (Синема УС)","update":"2018-04-02 09:15:28","iframe_src":"//2413.svetacdn.in/si4jsFRrtgrT/movie/15964"},{"id":15944,"title":"До края мира","kp_id":"1047393","imdb_id":"tt7962598","world_art_id":null,"type":"movie","add":"2018-03-30 22:43:43","orig_title":"Nan ji jue lian","year":"2018-02-01","translations":["Любительский (многоголосый закадровый) (Колобок)"],"quality":"webdl","translation":"Любительский (многоголосый закадровый) (Колобок)","update":"2018-04-02 10:46:43","iframe_src":"//2413.svetacdn.in/si4jsFRrtgrT/movie/15944"},{"id":15942,"title":"Кармилла","kp_id":"1081402","imdb_id":"tt7427856","world_art_id":null,"type":"movie","add":"2018-03-30 22:36:19","orig_title":"The Carmilla Movie","year":"2017-10-26","translations":["Профессиональный (многоголосый закадровый) (GreenРай Studio)","Любительский (многоголосый закадровый) (Синема УС)"],"quality":"webdl","translation":"Профессиональный (многоголосый закадровый) (GreenРай Studio)","update":"2018-04-02 13:12:51","iframe_src":"//2413.svetacdn.in/si4jsFRrtgrT/movie/15942"},{"id":15928,"title":"Моя любимая мумия 2","kp_id":"993863","imdb_id":"tt5830200","world_art_id":null,"type":"movie","add":"2018-03-30 21:11:41","orig_title":"Dummie de Mummie en de tombe van Achnetoet","year":"2017-09-23","translations":["Любительский (многоголосый закадровый) (Синема УС)"],"quality":"webdl","translation":"Любительский (многоголосый закадровый) (Синема УС)","update":"2018-04-02 09:07:57","iframe_src":"//2413.svetacdn.in/si4jsFRrtgrT/movie/15928"},{"id":15927,"title":"Два лотерейных билета","kp_id":"980128","imdb_id":"tt5700224","world_art_id":null,"type":"movie","add":"2018-03-30 21:09:18","orig_title":"Doua lozuri","year":"2016-05-31","translations":["Профессиональный (многоголосый закадровый) (GreenРай Studio)"],"quality":"dvdrip","translation":"Профессиональный (многоголосый закадровый) (GreenРай Studio)","update":"2018-04-02 09:20:05","iframe_src":"//2413.svetacdn.in/si4jsFRrtgrT/movie/15927"},{"id":13836,"title":"Лунатик","kp_id":"844190","imdb_id":"tt4185370","world_art_id":null,"type":"movie","add":"2017-10-12 21:51:21","orig_title":"Sleepwalker","year":"2017-10-10","translations":["Профессиональный (двухголосый закадровый) (RecentFilms)","Любительский (многоголосый закадровый) (Синема УС)","Профессиональный (многоголосый закадровый) (AlexFilm)","Профессиональный (многоголосый закадровый) (GreenРай Studio)"],"quality":"webdl","translation":"Профессиональный (двухголосый закадровый) (RecentFilms)","update":"2018-04-02 09:43:35","iframe_src":"//2413.svetacdn.in/si4jsFRrtgrT/movie/13836"},{"id":13752,"title":"Рыцари проклятья","kp_id":"996836","imdb_id":"tt5931670","world_art_id":null,"type":"movie","add":"2017-10-05 21:37:58","orig_title":"Knights of the Damned","year":"2017-09-25","translations":["Любительский (многоголосый закадровый) (Синема УС)"],"quality":"bd","translation":"Любительский (многоголосый закадровый) (Синема УС)","update":"2018-04-02 09:06:29","iframe_src":"//2413.svetacdn.in/si4jsFRrtgrT/movie/13752"},{"id":11931,"title":"Прекрасные дни в Аранхуэсе","kp_id":"913557","imdb_id":"tt4715652","world_art_id":null,"type":"movie","add":"2017-06-13 06:35:01","orig_title":"Les beaux jours d'Aranjuez","year":"2016-09-01","translations":["Профессиональный (многоголосый закадровый)","Профессиональный (многоголосый закадровый) (GreenРай Studio)"],"quality":"webdl","translation":"Профессиональный (многоголосый закадровый)","update":"2018-04-02 09:18:31","iframe_src":"//2413.svetacdn.in/si4jsFRrtgrT/movie/11931"},{"id":9661,"title":"Плохие семена","kp_id":"962389","imdb_id":"tt5456706","world_art_id":null,"type":"movie","add":"2017-02-14 07:42:59","orig_title":"Les mauvaises herbes","year":"2016-08-24","translations":["Любительский (одноголосый закадровый)","Профессиональный (многоголосый закадровый) (GreenРай Studio)"],"quality":"webdl","translation":"Любительский (одноголосый закадровый)","update":"2018-04-02 09:17:23","iframe_src":"//2413.svetacdn.in/si4jsFRrtgrT/movie/9661"},{"id":7080,"title":"Молот","kp_id":"765098","imdb_id":"tt5909128","world_art_id":null,"type":"movie","add":"2016-11-05 06:40:58","orig_title":"Molot","year":"2016-11-03","translations":["Оригинальная дорожка"],"quality":"bd","translation":"Оригинальная дорожка","update":"2018-04-02 09:22:35","iframe_src":"//2413.svetacdn.in/si4jsFRrtgrT/movie/7080"},{"id":1477,"title":"СуперБобровы","kp_id":"893814","imdb_id":"tt5576334","world_art_id":null,"type":"movie","add":"2016-04-22 06:09:52","orig_title":"SuperBobrovy","year":"2016-04-01","translations":["Оригинальная дорожка"],"quality":"bd","translation":"Оригинальная дорожка","update":"2018-04-02 09:23:48","iframe_src":"//2413.svetacdn.in/si4jsFRrtgrT/movie/1477"},{"id":580,"title":"Пятница","kp_id":"843821","imdb_id":"tt5311004","world_art_id":null,"type":"movie","add":"2016-04-05 07:59:03","orig_title":"Pyatnitsa","year":"2016-03-23","translations":["Оригинальная дорожка"],"quality":"bd","translation":"Оригинальная дорожка","update":"2018-04-02 09:21:21","iframe_src":"//2413.svetacdn.in/si4jsFRrtgrT/movie/580"}],"current_page":2351,"first_page_url":"https://videocdn.tv/api/short?limit=100&api_token=X6EwAUfE5M9xbo7y0Bp0aPf3uXxG2KLL&cache32351=32351&page=1","from":235001,"last_page":720,"last_page_url":"https://videocdn.tv/api/short?limit=100&api_token=X6EwAUfE5M9xbo7y0Bp0aPf3uXxG2KLL&cache32351=32351&page=720","next_page_url":null,"path":"https://videocdn.tv/api/short","per_page":100,"prev_page_url":"https://videocdn.tv/api/short?limit=100&api_token=X6EwAUfE5M9xbo7y0Bp0aPf3uXxG2KLL&cache32351=32351&page=2350","to":235020,"total":71963}