{"result":true,"data":[{"id":32331,"title":"Любовь и предательство","kp_id":"61719","imdb_id":"tt0337578","world_art_id":null,"type":"movie","add":"2019-10-25 07:19:41","orig_title":"Baghban","year":"2003-10-02","translations":["Профессиональный (многоголосый закадровый)"],"quality":"bd","translation":"Профессиональный (многоголосый закадровый)","update":"2019-10-25 12:19:37","iframe_src":"//8332.svetacdn.in/71tsRs29n5tZ/movie/32331"},{"id":32329,"title":"Чужой ребенок","kp_id":"65138","imdb_id":"tt0256692","world_art_id":null,"type":"movie","add":"2019-10-25 06:53:12","orig_title":"Chori Chori Chupke Chupke","year":"2001-03-09","translations":["Профессиональный (многоголосый закадровый)"],"quality":"webdl","translation":"Профессиональный (многоголосый закадровый)","update":"2019-10-25 12:12:35","iframe_src":"//8332.svetacdn.in/71tsRs29n5tZ/movie/32329"},{"id":32327,"title":"Гинтама 2: Правила для того, чтобы их нарушать","kp_id":"1103205","imdb_id":"tt7639528","world_art_id":null,"type":"movie","add":"2019-10-25 06:47:45","orig_title":"Gintama 2: Okite wa yaburu tame ni koso aru","year":"2018-08-17","translations":["Любительский (многоголосый закадровый) (Колобок)"],"quality":"webdl","translation":"Любительский (многоголосый закадровый) (Колобок)","update":"2019-10-25 12:11:09","iframe_src":"//8332.svetacdn.in/71tsRs29n5tZ/movie/32327"},{"id":32325,"title":"Харакири","kp_id":"103148","imdb_id":"tt0056058","world_art_id":null,"type":"movie","add":"2019-10-25 06:37:45","orig_title":"Seppuku","year":"1962-09-16","translations":["Профессиональный (многоголосый закадровый)"],"quality":"bd","translation":"Профессиональный (многоголосый закадровый)","update":"2019-10-25 12:09:08","iframe_src":"//8332.svetacdn.in/71tsRs29n5tZ/movie/32325"},{"id":30764,"title":"Заместитель шерифа Дестри","kp_id":"28791","imdb_id":"tt0046906","world_art_id":null,"type":"movie","add":"2019-09-11 15:04:55","orig_title":"Destry","year":"1954-12-01","translations":["Любительский (одноголосый закадровый)","Original (English)"],"quality":"webdl","translation":"Любительский (одноголосый закадровый)","update":"2019-10-25 12:36:23","iframe_src":"//8332.svetacdn.in/71tsRs29n5tZ/movie/30764"},{"id":30762,"title":"Обман","kp_id":"4949","imdb_id":"tt0101694","world_art_id":null,"type":"movie","add":"2019-09-11 15:02:49","orig_title":"Deceived","year":"1991-09-27","translations":["Полное дублирование","Original (English)"],"quality":"webdl","translation":"Полное дублирование","update":"2019-10-25 12:35:34","iframe_src":"//8332.svetacdn.in/71tsRs29n5tZ/movie/30762"},{"id":30759,"title":"Амитивилль 4: Зло спасается","kp_id":"229621","imdb_id":"tt0096808","world_art_id":null,"type":"movie","add":"2019-09-11 14:59:33","orig_title":"Amityville: The Evil Escapes","year":"1989-05-12","translations":["Авторский (одноголосый закадровый) (Визгунов Сергей)","Original (English)"],"quality":"webdl","translation":"Авторский (одноголосый закадровый) (Визгунов Сергей)","update":"2019-10-25 12:27:54","iframe_src":"//8332.svetacdn.in/71tsRs29n5tZ/movie/30759"},{"id":30758,"title":"Амитивилль 1992: Вопрос времени","kp_id":"229235","imdb_id":"tt0103678","world_art_id":null,"type":"movie","add":"2019-09-11 14:58:20","orig_title":"Amityville: It's About Time","year":"1992-05-24","translations":["Авторский (одноголосый закадровый) (Живов Юрий)","Original (English)"],"quality":"webdl","translation":"Авторский (одноголосый закадровый) (Живов Юрий)","update":"2019-10-25 12:26:38","iframe_src":"//8332.svetacdn.in/71tsRs29n5tZ/movie/30758"},{"id":30757,"title":"Амитивилль 7: Новое поколение","kp_id":"229243","imdb_id":"tt0106262","world_art_id":null,"type":"movie","add":"2019-09-11 14:56:52","orig_title":"Amityville: A New Generation","year":"1993-08-07","translations":["Авторский (одноголосый закадровый) (Дольский Андрей)","Original (English)"],"quality":"webdl","translation":"Авторский (одноголосый закадровый) (Дольский Андрей)","update":"2019-10-25 12:25:52","iframe_src":"//8332.svetacdn.in/71tsRs29n5tZ/movie/30757"},{"id":30589,"title":"Госпиталь «Британия»","kp_id":"6606","imdb_id":"tt0083694","world_art_id":null,"type":"movie","add":"2019-09-05 12:05:23","orig_title":"Britannia Hospital","year":"1982-05-22","translations":["Профессиональный (двухголосый закадровый) (Видеосервис)","Original (English)"],"quality":"webdl","translation":"Профессиональный (двухголосый закадровый) (Видеосервис)","update":"2019-10-25 12:33:33","iframe_src":"//8332.svetacdn.in/71tsRs29n5tZ/movie/30589"},{"id":30479,"title":"Все ради Пита","kp_id":"25554","imdb_id":"tt0071514","world_art_id":null,"type":"movie","add":"2019-09-02 13:41:08","orig_title":"For Pete's Sake","year":"1974-06-26","translations":["Профессиональный (многоголосый закадровый)","Original (English)"],"quality":"webdl","translation":"Профессиональный (многоголосый закадровый)","update":"2019-10-25 12:39:04","iframe_src":"//8332.svetacdn.in/71tsRs29n5tZ/movie/30479"},{"id":30478,"title":"Уловка 22","kp_id":"3974","imdb_id":"tt0065528","world_art_id":null,"type":"movie","add":"2019-09-02 13:40:05","orig_title":"Catch-22","year":"1970-06-24","translations":["Профессиональный (многоголосый закадровый) (SomeWax)","Original (English)"],"quality":"webdl","translation":"Профессиональный (многоголосый закадровый) (SomeWax)","update":"2019-10-25 12:34:42","iframe_src":"//8332.svetacdn.in/71tsRs29n5tZ/movie/30478"},{"id":30477,"title":"Набалдашник и метла","kp_id":"14107","imdb_id":"tt0066817","world_art_id":null,"type":"movie","add":"2019-09-02 13:37:21","orig_title":"Bedknobs and Broomsticks","year":"1971-10-07","translations":["Профессиональный (многоголосый закадровый)","Original (English)"],"quality":"webdl","translation":"Профессиональный (многоголосый закадровый)","update":"2019-10-25 12:32:08","iframe_src":"//8332.svetacdn.in/71tsRs29n5tZ/movie/30477"},{"id":30476,"title":"И Бог создал женщину","kp_id":"23424","imdb_id":"tt0092559","world_art_id":null,"type":"movie","add":"2019-09-02 13:36:19","orig_title":"And God Created Woman","year":"1988-03-04","translations":["Профессиональный (многоголосый закадровый)","Original (English)"],"quality":"webdl","translation":"Профессиональный (многоголосый закадровый)","update":"2019-10-25 12:29:07","iframe_src":"//8332.svetacdn.in/71tsRs29n5tZ/movie/30476"},{"id":30475,"title":"Человек на все времена","kp_id":"564","imdb_id":"tt0060665","world_art_id":null,"type":"movie","add":"2019-09-02 13:34:59","orig_title":"A Man for All Seasons","year":"1966-12-12","translations":["Профессиональный (многоголосый закадровый) (SomeWax)","Original (English)"],"quality":"webdl","translation":"Профессиональный (многоголосый закадровый) (SomeWax)","update":"2019-10-25 12:24:33","iframe_src":"//8332.svetacdn.in/71tsRs29n5tZ/movie/30475"},{"id":30388,"title":"Дориан Грей","kp_id":"38232","imdb_id":"tt0065656","world_art_id":null,"type":"movie","add":"2019-08-30 07:15:02","orig_title":"Dorian Gray","year":"1970-04-24","translations":["Профессиональный (двухголосый закадровый) (НТВ)","Original (English)"],"quality":"webdl","translation":"Профессиональный (двухголосый закадровый) (НТВ)","update":"2019-10-25 12:37:39","iframe_src":"//8332.svetacdn.in/71tsRs29n5tZ/movie/30388"},{"id":30381,"title":"Животные","kp_id":"807289","imdb_id":"tt3297554","world_art_id":null,"type":"movie","add":"2019-08-30 07:07:06","orig_title":"Animals","year":"2014-03-09","translations":["Любительский (одноголосый закадровый)","Original (English)"],"quality":"webdl","translation":"Любительский (одноголосый закадровый)","update":"2019-10-25 12:31:15","iframe_src":"//8332.svetacdn.in/71tsRs29n5tZ/movie/30381"},{"id":10730,"title":"Бесстрашный","kp_id":"102161","imdb_id":"tt0446059","world_art_id":null,"type":"movie","add":"2017-04-04 15:34:08","orig_title":"Huo yuanjia","year":"2006-01-26","translations":["Полное дублирование","Авторский (одноголосый закадровый) (Дольский Андрей)"],"quality":"bd","translation":"Полное дублирование","update":"2019-10-25 12:17:17","iframe_src":"//8332.svetacdn.in/71tsRs29n5tZ/movie/10730"},{"id":7356,"title":"Большая жратва","kp_id":"4260","imdb_id":"tt0348333","world_art_id":null,"type":"movie","add":"2016-11-11 08:00:41","orig_title":"Waiting...","year":"2005-10-07","translations":["Профессиональный (многоголосый закадровый)","Полное дублирование","Original (English)"],"quality":"bd","translation":"Профессиональный (многоголосый закадровый)","update":"2019-10-25 12:22:55","iframe_src":"//8332.svetacdn.in/71tsRs29n5tZ/movie/7356"},{"id":6624,"title":"Птица","kp_id":"4778","imdb_id":"tt0094747","world_art_id":null,"type":"movie","add":"2016-10-25 05:28:50","orig_title":"Bird","year":"1988-05-21","translations":["Профессиональный (многоголосый закадровый)","Original (English)"],"quality":"webdl","translation":"Профессиональный (многоголосый закадровый)","update":"2019-10-25 12:33:01","iframe_src":"//8332.svetacdn.in/71tsRs29n5tZ/movie/6624"}],"current_page":1120,"first_page_url":"https://videocdn.tv/api/short?limit=100&api_token=EnbO9h8pv1VyjbCJhg0WM9nG259n7mtz&cache31120=31120&page=1","from":111901,"last_page":632,"last_page_url":"https://videocdn.tv/api/short?limit=100&api_token=EnbO9h8pv1VyjbCJhg0WM9nG259n7mtz&cache31120=31120&page=632","next_page_url":null,"path":"https://videocdn.tv/api/short","per_page":100,"prev_page_url":"https://videocdn.tv/api/short?limit=100&api_token=EnbO9h8pv1VyjbCJhg0WM9nG259n7mtz&cache31120=31120&page=1119","to":111920,"total":63170}