{"result":true,"data":[{"id":51279,"title":"Призраки имения семьи Морган","kp_id":"1421871","imdb_id":"tt12422064","world_art_id":null,"type":"movie","add":"2021-06-18 21:42:35","orig_title":"The Haunting of the Morgan Estate","year":"2020-01-01","translations":["Любительский (многоголосый закадровый) (Синема УС)"],"quality":"webdl","translation":"Любительский (многоголосый закадровый) (Синема УС)","update":"2021-06-19 09:00:33","iframe_src":"//2413.svetacdn.in/71tsRs29n5tZ/movie/51279"},{"id":51278,"title":"Хорошие поступки демонов","kp_id":"1218852","imdb_id":"tt8740332","world_art_id":null,"type":"movie","add":"2021-06-18 21:41:06","orig_title":"The Good Things Devils Do","year":"2020-01-01","translations":["Любительский (многоголосый закадровый) (Синема УС)"],"quality":"webdl","translation":"Любительский (многоголосый закадровый) (Синема УС)","update":"2021-06-19 08:59:33","iframe_src":"//2413.svetacdn.in/71tsRs29n5tZ/movie/51278"},{"id":51274,"title":"Искательница призраков","kp_id":"1400302","imdb_id":"tt12900276","world_art_id":null,"type":"movie","add":"2021-06-18 21:31:09","orig_title":"Ghost Finder","year":"2020-08-22","translations":["Любительский (многоголосый закадровый) (Синема УС)"],"quality":"webdl","translation":"Любительский (многоголосый закадровый) (Синема УС)","update":"2021-06-19 10:48:23","iframe_src":"//2413.svetacdn.in/71tsRs29n5tZ/movie/51274"},{"id":51265,"title":"Фан Шиюй - медная кожа и железные кости","kp_id":null,"imdb_id":"tt14278036","world_art_id":null,"type":"movie","add":"2021-06-18 05:51:05","orig_title":"Copper Skin and Iron Bones of Fang Shiyu","year":"2021-03-02","translations":["Любительский (двухголосый закадровый) (Колобок)"],"quality":"webdl","translation":"Любительский (двухголосый закадровый) (Колобок)","update":"2021-06-18 21:22:02","iframe_src":"//2413.svetacdn.in/71tsRs29n5tZ/movie/51265"},{"id":51264,"title":"Чудовище из Драконьего Озера","kp_id":"1415631","imdb_id":"tt12262526","world_art_id":null,"type":"movie","add":"2021-06-18 05:49:19","orig_title":"Long tan ju shou","year":"2020-05-03","translations":["Любительский (двухголосый закадровый) (Колобок)"],"quality":"webdl","translation":"Любительский (двухголосый закадровый) (Колобок)","update":"2021-06-18 21:21:46","iframe_src":"//2413.svetacdn.in/71tsRs29n5tZ/movie/51264"},{"id":51263,"title":"Ужасные видения","kp_id":"1417467","imdb_id":"tt13133486","world_art_id":null,"type":"movie","add":"2021-06-18 05:47:53","orig_title":"Frightvision","year":"2020-08-21","translations":["Любительский (многоголосый закадровый) (Синема УС)"],"quality":"webdl","translation":"Любительский (многоголосый закадровый) (Синема УС)","update":"2021-06-18 21:21:27","iframe_src":"//2413.svetacdn.in/71tsRs29n5tZ/movie/51263"},{"id":51262,"title":"Веселуха","kp_id":"1248037","imdb_id":"tt9842792","world_art_id":null,"type":"movie","add":"2021-06-18 05:46:20","orig_title":"FUN.","year":"2020-10-09","translations":["Любительский (многоголосый закадровый) (Синема УС)"],"quality":"webdl","translation":"Любительский (многоголосый закадровый) (Синема УС)","update":"2021-06-18 21:21:11","iframe_src":"//2413.svetacdn.in/71tsRs29n5tZ/movie/51262"},{"id":51261,"title":"Гато","kp_id":"1349985","imdb_id":"tt11687018","world_art_id":null,"type":"movie","add":"2021-06-18 05:45:06","orig_title":"Gato","year":"2020-02-16","translations":["Профессиональный (многоголосый закадровый) (HDrezka Studio)"],"quality":"webdl","translation":"Профессиональный (многоголосый закадровый) (HDrezka Studio)","update":"2021-06-18 21:20:54","iframe_src":"//2413.svetacdn.in/71tsRs29n5tZ/movie/51261"},{"id":51260,"title":"Гвардия зла 2","kp_id":"1384825","imdb_id":"tt12366630","world_art_id":null,"type":"movie","add":"2021-06-18 05:43:44","orig_title":"Guardia de Malé 2","year":"2020-05-07","translations":["Любительский (многоголосый закадровый) (AlphaProject)"],"quality":"webdl","translation":"Любительский (многоголосый закадровый) (AlphaProject)","update":"2021-06-18 21:20:33","iframe_src":"//2413.svetacdn.in/71tsRs29n5tZ/movie/51260"},{"id":51259,"title":"Урожай ужасов","kp_id":"1193161","imdb_id":"tt8987358","world_art_id":null,"type":"movie","add":"2021-06-18 05:42:28","orig_title":"Harvest of Horrors","year":"2020-01-01","translations":["Любительский (многоголосый закадровый) (Синема УС)"],"quality":"webdl","translation":"Любительский (многоголосый закадровый) (Синема УС)","update":"2021-06-18 21:20:29","iframe_src":"//2413.svetacdn.in/71tsRs29n5tZ/movie/51259"},{"id":51257,"title":"Резня крюком для мяса 2","kp_id":"1013119","imdb_id":"tt6137138","world_art_id":null,"type":"movie","add":"2021-06-18 05:36:41","orig_title":"Meathook Massacre II","year":"2017-02-01","translations":["Любительский (многоголосый закадровый) (Синема УС)"],"quality":"webdl","translation":"Любительский (многоголосый закадровый) (Синема УС)","update":"2021-06-18 21:19:49","iframe_src":"//2413.svetacdn.in/71tsRs29n5tZ/movie/51257"},{"id":51256,"title":"Я закопаю тебя","kp_id":"749676","imdb_id":"tt2805168","world_art_id":null,"type":"movie","add":"2021-06-17 16:02:00","orig_title":"Je te survivrai","year":"2014-01-16","translations":["Профессиональный (многоголосый закадровый)"],"quality":"webdl","translation":"Профессиональный (многоголосый закадровый)","update":"2021-06-19 11:04:20","iframe_src":"//2413.svetacdn.in/71tsRs29n5tZ/movie/51256"},{"id":51233,"title":"Триумф воли","kp_id":"39426","imdb_id":"tt0025913","world_art_id":null,"type":"movie","add":"2021-06-16 15:37:21","orig_title":"Triumph des Willens","year":"1935-03-28","translations":["Авторский (одноголосый закадровый) (Рябов Сергей)"],"quality":"bd","translation":"Авторский (одноголосый закадровый) (Рябов Сергей)","update":"2021-06-19 11:02:03","iframe_src":"//2413.svetacdn.in/71tsRs29n5tZ/movie/51233"},{"id":51232,"title":"Тёмная звезда","kp_id":"31729","imdb_id":"tt0069945","world_art_id":null,"type":"movie","add":"2021-06-16 12:23:08","orig_title":"Dark Star","year":"1975-01-16","translations":["[EN] Original (English)","Любительский (одноголосый закадровый)","Профессиональный (двухголосый закадровый)","Авторский (одноголосый закадровый) (Визгунов Сергей)"],"quality":"bd","translation":"[EN] Original (English)","update":"2021-06-18 13:14:10","iframe_src":"//2413.svetacdn.in/71tsRs29n5tZ/movie/51232"},{"id":40673,"title":"Аурангзеб","kp_id":"749521","imdb_id":"tt2804026","world_art_id":null,"type":"movie","add":"2020-05-25 10:54:50","orig_title":"Aurangzeb","year":"2013-05-17","translations":["Профессиональный (многоголосый закадровый) (SDI Media | Iyuno-SDI Group Russia)","Любительский (многоголосый закадровый) (ICG)"],"quality":"hdrip","translation":"Профессиональный (многоголосый закадровый) (SDI Media | Iyuno-SDI Group Russia)","update":"2021-06-19 11:00:13","iframe_src":"//2413.svetacdn.in/71tsRs29n5tZ/movie/40673"},{"id":11078,"title":"Малыш Галахад","kp_id":"13599","imdb_id":"tt0056138","world_art_id":null,"type":"movie","add":"2017-04-18 17:08:05","orig_title":"Kid Galahad","year":"1962-08-11","translations":["Профессиональный (двухголосый закадровый) (НТВ)","Авторский (одноголосый закадровый) (Визгунов Сергей)","[EN] Original (English)","Профессиональный (двухголосый закадровый) (НТВ)"],"quality":"bd","translation":"Профессиональный (двухголосый закадровый) (НТВ)","update":"2021-06-18 13:25:43","iframe_src":"//2413.svetacdn.in/71tsRs29n5tZ/movie/11078"},{"id":871,"title":"Визит дамы","kp_id":"77257","imdb_id":"tt0127966","world_art_id":null,"type":"serial","add":"2017-01-13 05:47:40","orig_title":"Vizit damy","year":"1989-01-01","translations":["Оригинальная дорожка"],"seasons_count":1,"episodes_count":2,"episodes":2,"update":"2017-01-13 09:34:38","iframe_src":"//2413.svetacdn.in/71tsRs29n5tZ/tv-series/871"},{"id":862,"title":"Главный подозреваемый 7","kp_id":"277547","imdb_id":"tt0811026","world_art_id":null,"type":"serial","add":"2017-01-10 07:25:41","orig_title":"Prime Suspect: The Final Act","year":"2006-10-15","translations":["Профессиональный (многоголосый закадровый) (Selena International)"],"seasons_count":1,"episodes_count":2,"episodes":2,"update":"2017-01-11 06:35:40","iframe_src":"//2413.svetacdn.in/71tsRs29n5tZ/tv-series/862"},{"id":861,"title":"Главный подозреваемый 6: Последний свидетель","kp_id":"271519","imdb_id":"tt0365651","world_art_id":null,"type":"serial","add":"2017-01-10 07:22:42","orig_title":"Prime Suspect 6: The Last Witness","year":"2003-11-09","translations":["Профессиональный (многоголосый закадровый) (Selena International)"],"seasons_count":1,"episodes_count":2,"episodes":2,"update":"2017-01-11 06:32:48","iframe_src":"//2413.svetacdn.in/71tsRs29n5tZ/tv-series/861"},{"id":860,"title":"Главный подозреваемый 5: Судебные ошибки","kp_id":"277818","imdb_id":"tt0115321","world_art_id":null,"type":"serial","add":"2017-01-10 07:19:36","orig_title":"Prime Suspect 5: Errors of Judgement","year":"1996-10-20","translations":["Профессиональный (многоголосый закадровый) (Selena International)"],"seasons_count":1,"episodes_count":2,"episodes":2,"update":"2017-01-11 06:29:14","iframe_src":"//2413.svetacdn.in/71tsRs29n5tZ/tv-series/860"},{"id":859,"title":"Главный подозреваемый 4: Запах темноты","kp_id":"277817","imdb_id":"tt0114181","world_art_id":null,"type":"serial","add":"2017-01-10 07:11:35","orig_title":"Prime Suspect: The Scent of Darkness","year":"1995-05-15","translations":["Профессиональный (многоголосый закадровый) (Selena International)"],"seasons_count":1,"episodes_count":1,"episodes":1,"update":"2017-01-11 06:24:28","iframe_src":"//2413.svetacdn.in/71tsRs29n5tZ/tv-series/859"},{"id":858,"title":"Главный подозреваемый 4: Узкий круг","kp_id":"277816","imdb_id":"tt0114180","world_art_id":null,"type":"serial","add":"2017-01-10 07:10:32","orig_title":"Prime Suspect: Inner Circles","year":"1995-05-07","translations":["Профессиональный (многоголосый закадровый) (Selena International)"],"seasons_count":1,"episodes_count":1,"episodes":1,"update":"2017-01-11 06:25:45","iframe_src":"//2413.svetacdn.in/71tsRs29n5tZ/tv-series/858"},{"id":857,"title":"Главный подозреваемый 4: Потерянный ребенок","kp_id":"277815","imdb_id":"tt0114182","world_art_id":null,"type":"serial","add":"2017-01-10 06:58:43","orig_title":"Prime Suspect: The Lost Child","year":"1995-04-30","translations":["Профессиональный (многоголосый закадровый) (Selena International)"],"seasons_count":1,"episodes_count":1,"episodes":1,"update":"2017-01-11 06:22:29","iframe_src":"//2413.svetacdn.in/71tsRs29n5tZ/tv-series/857"},{"id":856,"title":"Главный подозреваемый 3","kp_id":"277814","imdb_id":"tt0106104","world_art_id":null,"type":"serial","add":"2017-01-10 06:54:42","orig_title":"Prime Suspect 3","year":"1993-12-19","translations":["Профессиональный (многоголосый закадровый) (Selena International)"],"seasons_count":1,"episodes_count":2,"episodes":2,"update":"2017-01-11 06:21:01","iframe_src":"//2413.svetacdn.in/71tsRs29n5tZ/tv-series/856"},{"id":855,"title":"Главный подозреваемый 2","kp_id":"277813","imdb_id":"tt0103516","world_art_id":null,"type":"serial","add":"2017-01-10 06:51:53","orig_title":"Prime Suspect 2","year":"1992-12-15","translations":["Профессиональный (многоголосый закадровый) (Selena International)"],"seasons_count":1,"episodes_count":2,"episodes":2,"update":"2017-01-11 06:18:08","iframe_src":"//2413.svetacdn.in/71tsRs29n5tZ/tv-series/855"},{"id":854,"title":"Главный подозреваемый","kp_id":"277812","imdb_id":"tt0098898","world_art_id":null,"type":"serial","add":"2017-01-10 06:48:42","orig_title":"Prime Suspect","year":"1991-04-07","translations":["Профессиональный (многоголосый закадровый) (Selena International)"],"seasons_count":1,"episodes_count":2,"episodes":2,"update":"2017-01-11 06:12:37","iframe_src":"//2413.svetacdn.in/71tsRs29n5tZ/tv-series/854"},{"id":846,"title":"Наша эра. Продолжение Библии","kp_id":"891412","imdb_id":"tt4074084","world_art_id":null,"type":"serial","add":"2017-01-09 11:03:44","orig_title":"A.D. The Bible Continues","year":"2015-04-05","translations":["Профессиональный (многоголосый закадровый) (BaibaKo)"],"seasons_count":1,"episodes_count":12,"episodes":12,"update":"2017-01-10 09:58:09","iframe_src":"//2413.svetacdn.in/71tsRs29n5tZ/tv-series/846"},{"id":845,"title":"Холодное сердце","kp_id":"1008359","imdb_id":null,"world_art_id":null,"type":"serial","add":"2017-01-09 10:59:19","orig_title":"Холодное сердце","year":"2016-12-24","translations":["Оригинальная дорожка"],"seasons_count":1,"episodes_count":2,"episodes":2,"update":"2017-01-10 10:02:55","iframe_src":"//2413.svetacdn.in/71tsRs29n5tZ/tv-series/845"},{"id":839,"title":"Голубка","kp_id":"532996","imdb_id":"tt4195010","world_art_id":null,"type":"serial","add":"2017-01-09 06:00:05","orig_title":"Golubka","year":"2011-03-14","translations":["Оригинальная дорожка"],"seasons_count":1,"episodes_count":16,"episodes":16,"update":"2017-01-10 15:21:42","iframe_src":"//2413.svetacdn.in/71tsRs29n5tZ/tv-series/839"},{"id":829,"title":"Больше, чем врач","kp_id":"1008618","imdb_id":null,"world_art_id":null,"type":"serial","add":"2017-01-08 09:38:46","orig_title":"Больше, чем врач","year":"2017-01-06","translations":["Оригинальная дорожка"],"seasons_count":1,"episodes_count":4,"episodes":4,"update":"2017-01-10 08:45:24","iframe_src":"//2413.svetacdn.in/71tsRs29n5tZ/tv-series/829"},{"id":822,"title":"Половинки невозможного","kp_id":"846891","imdb_id":null,"world_art_id":null,"type":"serial","add":"2017-01-06 12:23:29","orig_title":"Половинки невозможного","year":"2014-12-07","translations":["Оригинальная дорожка"],"seasons_count":1,"episodes_count":4,"episodes":4,"update":"2017-01-10 08:49:45","iframe_src":"//2413.svetacdn.in/71tsRs29n5tZ/tv-series/822"},{"id":821,"title":"Операция «Горгона»","kp_id":"521695","imdb_id":null,"world_art_id":null,"type":"serial","add":"2017-01-06 12:07:50","orig_title":"Операция «Горгона»","year":"2011-05-07","translations":["Оригинальная дорожка"],"seasons_count":1,"episodes_count":4,"episodes":4,"update":"2017-01-11 12:00:09","iframe_src":"//2413.svetacdn.in/71tsRs29n5tZ/tv-series/821"},{"id":819,"title":"Домик у реки","kp_id":"841086","imdb_id":"tt5910190","world_art_id":null,"type":"serial","add":"2017-01-06 11:52:42","orig_title":"Domik u reki","year":"2014-11-04","translations":["Оригинальная дорожка"],"seasons_count":1,"episodes_count":4,"episodes":4,"update":"2017-01-12 11:17:17","iframe_src":"//2413.svetacdn.in/71tsRs29n5tZ/tv-series/819"},{"id":817,"title":"Притворщики","kp_id":"1008512","imdb_id":null,"world_art_id":null,"type":"serial","add":"2017-01-06 11:30:51","orig_title":"Притворщики","year":"2016-12-30","translations":["Оригинальная дорожка"],"seasons_count":1,"episodes_count":2,"episodes":2,"update":"2017-01-10 08:52:52","iframe_src":"//2413.svetacdn.in/71tsRs29n5tZ/tv-series/817"},{"id":814,"title":"Красавица и чудовище","kp_id":"662464","imdb_id":"tt2193041","world_art_id":null,"type":"serial","add":"2017-01-05 10:50:33","orig_title":"Beauty and the Beast","year":"2012-10-11","translations":["Профессиональный (многоголосый закадровый) (LostFilm)"],"seasons_count":4,"episodes_count":70,"episodes":13,"update":"2017-01-11 06:08:24","iframe_src":"//2413.svetacdn.in/71tsRs29n5tZ/tv-series/814"},{"id":5366,"title":"Турнир на выживание","kp_id":"276600","imdb_id":"tt0471041","world_art_id":null,"type":"movie","add":"2016-09-20 08:52:06","orig_title":"The Tournament","year":"2009-08-19","translations":["Профессиональный (многоголосый закадровый)","Профессиональный (многоголосый закадровый) (Киномания)","Авторский (одноголосый закадровый) (Гаврилов Андрей)","Авторский (одноголосый закадровый) (Немахов Юрий)","[EN] Original (English)","Профессиональный (многоголосый закадровый) (Lizard Cinema)"],"quality":"bd","translation":"Профессиональный (многоголосый закадровый)","update":"2021-06-18 13:15:56","iframe_src":"//2413.svetacdn.in/71tsRs29n5tZ/movie/5366"},{"id":455,"title":"Отдел Ромео","kp_id":"976651","imdb_id":"tt4716230","world_art_id":null,"type":"serial","add":"2016-09-19 09:10:05","orig_title":"The Romeo Section","year":"2015-10-14","translations":["Профессиональный (многоголосый закадровый) (ViruseProject)"],"seasons_count":2,"episodes_count":20,"episodes":10,"update":"2017-01-13 05:23:26","iframe_src":"//2413.svetacdn.in/71tsRs29n5tZ/tv-series/455"},{"id":3679,"title":"Взрослая неожиданность","kp_id":"87841","imdb_id":"tt0430922","world_art_id":null,"type":"movie","add":"2016-07-05 05:59:52","orig_title":"Role Models","year":"2008-10-22","translations":["Полное дублирование","Полное дублирование","[EN] Original (English)","Профессиональный (двухголосый закадровый)"],"quality":"bd","translation":"Полное дублирование","update":"2021-06-18 13:20:56","iframe_src":"//2413.svetacdn.in/71tsRs29n5tZ/movie/3679"},{"id":3176,"title":"Чужие среди нас","kp_id":"12340","imdb_id":"tt0096256","world_art_id":null,"type":"movie","add":"2016-06-16 07:05:48","orig_title":"They Live","year":"1988-11-04","translations":["Профессиональный (многоголосый закадровый)","Авторский (одноголосый закадровый) (Котов Вячеслав)","Авторский (одноголосый закадровый) (Дохалов Вартан)","Авторский (одноголосый закадровый) (Горчаков Василий)","Авторский (одноголосый закадровый) (Живов Юрий)","Профессиональный (многоголосый закадровый) (CP Digital)","[EN] Original (English)"],"quality":"bd","translation":"Профессиональный (многоголосый закадровый)","update":"2021-06-18 12:33:48","iframe_src":"//2413.svetacdn.in/71tsRs29n5tZ/movie/3176"},{"id":2456,"title":"Город порока","kp_id":"462787","imdb_id":"tt1235522","world_art_id":null,"type":"movie","add":"2016-05-23 11:19:31","orig_title":"Broken City","year":"2013-01-18","translations":["Профессиональный (многоголосый закадровый)","Полное дублирование","Авторский (одноголосый закадровый) (Гаевский Евгений)","Авторский (одноголосый закадровый) (Немахов Юрий)","[EN] Original (English)","Профессиональный (многоголосый закадровый)"],"quality":"bd","translation":"Профессиональный (многоголосый закадровый)","update":"2021-06-18 13:31:05","iframe_src":"//2413.svetacdn.in/71tsRs29n5tZ/movie/2456"}],"current_page":600,"first_page_url":"https://videocdn.tv/api/short?limit=100&api_token=EnbO9h8pv1VyjbCJhg0WM9nG259n7mtz&cache3600=3600&page=1","from":59901,"last_page":721,"last_page_url":"https://videocdn.tv/api/short?limit=100&api_token=EnbO9h8pv1VyjbCJhg0WM9nG259n7mtz&cache3600=3600&page=721","next_page_url":"https://videocdn.tv/api/short?limit=100&api_token=EnbO9h8pv1VyjbCJhg0WM9nG259n7mtz&cache3600=3600&page=601","path":"https://videocdn.tv/api/short","per_page":100,"prev_page_url":"https://videocdn.tv/api/short?limit=100&api_token=EnbO9h8pv1VyjbCJhg0WM9nG259n7mtz&cache3600=3600&page=599","to":59940,"total":72083}