{"result":true,"data":[{"id":45250,"title":"Не открывай приложение","kp_id":null,"imdb_id":"tt9372388","world_art_id":null,"type":"movie","add":"2020-11-12 21:38:48","orig_title":"Stay Off the App","year":"2020-11-05","translations":["Любительский (многоголосый закадровый) (Синема УС)"],"quality":"webdl","translation":"Любительский (многоголосый закадровый) (Синема УС)","update":"2020-11-13 04:31:50","iframe_src":"//7741.svetacdn.in/71tsRs29n5tZ/movie/45250"},{"id":45212,"title":"Я - Рен","kp_id":"1309765","imdb_id":"tt11067160","world_art_id":null,"type":"movie","add":"2020-11-11 16:15:31","orig_title":"Jestem REN","year":"2019-10-11","translations":["Любительский (многоголосый закадровый) (@MUZOBOZ@)"],"quality":"webdl","translation":"Любительский (многоголосый закадровый) (@MUZOBOZ@)","update":"2020-11-12 17:15:53","iframe_src":"//7741.svetacdn.in/71tsRs29n5tZ/movie/45212"},{"id":45204,"title":"Сила любви","kp_id":"619291","imdb_id":"tt1703807","world_art_id":null,"type":"movie","add":"2020-11-11 12:43:33","orig_title":"Depth of Pyaar","year":"2019-11-17","translations":["Любительский (многоголосый закадровый) (Синема УС)"],"quality":"webdl","translation":"Любительский (многоголосый закадровый) (Синема УС)","update":"2020-11-12 16:58:47","iframe_src":"//7741.svetacdn.in/71tsRs29n5tZ/movie/45204"},{"id":45157,"title":"Блики","kp_id":"630044","imdb_id":"tt2405464","world_art_id":null,"type":"movie","add":"2020-11-09 17:46:42","orig_title":"Bliki","year":"1981-01-01","translations":["Оригинальная дорожка"],"quality":"dvdrip","translation":"Оригинальная дорожка","update":"2020-11-12 14:31:11","iframe_src":"//7741.svetacdn.in/71tsRs29n5tZ/movie/45157"},{"id":45156,"title":"Бобренок Чука","kp_id":"612237","imdb_id":"tt0781071","world_art_id":null,"type":"movie","add":"2020-11-09 17:44:19","orig_title":"Patara takhvi chuka","year":"1953-11-16","translations":["Оригинальная дорожка"],"quality":"dvdrip","translation":"Оригинальная дорожка","update":"2020-11-12 14:30:24","iframe_src":"//7741.svetacdn.in/71tsRs29n5tZ/movie/45156"},{"id":45155,"title":"Богатырская каша","kp_id":"259936","imdb_id":"tt2381927","world_art_id":null,"type":"movie","add":"2020-11-09 17:41:26","orig_title":"Bogatyrskaya kasha","year":"1987-01-01","translations":["Оригинальная дорожка"],"quality":"dvdrip","translation":"Оригинальная дорожка","update":"2020-11-12 14:29:32","iframe_src":"//7741.svetacdn.in/71tsRs29n5tZ/movie/45155"},{"id":45154,"title":"Большая эстафета","kp_id":"528148","imdb_id":"tt9126618","world_art_id":null,"type":"movie","add":"2020-11-09 17:39:27","orig_title":"Bolshaya estafeta","year":"1979-01-01","translations":["Оригинальная дорожка"],"quality":"dvdrip","translation":"Оригинальная дорожка","update":"2020-11-12 14:28:39","iframe_src":"//7741.svetacdn.in/71tsRs29n5tZ/movie/45154"},{"id":45153,"title":"Большие неприятности","kp_id":"46179","imdb_id":"tt0211966","world_art_id":null,"type":"movie","add":"2020-11-09 17:37:21","orig_title":"Bolshie nepriyatnosti","year":"1961-03-16","translations":["Оригинальная дорожка"],"quality":"dvdrip","translation":"Оригинальная дорожка","update":"2020-11-12 14:27:22","iframe_src":"//7741.svetacdn.in/71tsRs29n5tZ/movie/45153"},{"id":45152,"title":"Новые большие неприятности","kp_id":"259930","imdb_id":"tt4489680","world_art_id":null,"type":"movie","add":"2020-11-09 17:35:01","orig_title":"Novye bolshie nepriyatnosti","year":"1973-01-01","translations":["Оригинальная дорожка"],"quality":"dvdrip","translation":"Оригинальная дорожка","update":"2020-11-12 14:26:15","iframe_src":"//7741.svetacdn.in/71tsRs29n5tZ/movie/45152"},{"id":45151,"title":"Большой Тылль","kp_id":"451153","imdb_id":"tt0475747","world_art_id":null,"type":"movie","add":"2020-11-09 17:32:04","orig_title":"Suur Tõll","year":"1980-01-01","translations":["Полное дублирование"],"quality":"dvdrip","translation":"Полное дублирование","update":"2020-11-12 14:22:07","iframe_src":"//7741.svetacdn.in/71tsRs29n5tZ/movie/45151"},{"id":45150,"title":"Бравый инспектор Мамочкин","kp_id":"258043","imdb_id":"tt6053118","world_art_id":null,"type":"movie","add":"2020-11-09 17:29:46","orig_title":"Bravyy inspektor Mamochkin","year":"1977-01-01","translations":["Оригинальная дорожка"],"quality":"dvdrip","translation":"Оригинальная дорожка","update":"2020-11-12 14:21:03","iframe_src":"//7741.svetacdn.in/71tsRs29n5tZ/movie/45150"},{"id":45149,"title":"Брак","kp_id":"260237","imdb_id":"tt1284448","world_art_id":null,"type":"movie","add":"2020-11-09 17:26:48","orig_title":"Brak","year":"1987-02-28","translations":["Оригинальная дорожка"],"quality":"dvdrip","translation":"Оригинальная дорожка","update":"2020-11-12 14:19:43","iframe_src":"//7741.svetacdn.in/71tsRs29n5tZ/movie/45149"},{"id":45148,"title":"Братец Кролик и братец Лис","kp_id":"520537","imdb_id":"tt6194502","world_art_id":null,"type":"movie","add":"2020-11-09 17:24:08","orig_title":"Bratets Krolik i bratets Lis","year":"1972-09-16","translations":["Оригинальная дорожка"],"quality":"dvdrip","translation":"Оригинальная дорожка","update":"2020-11-12 12:36:40","iframe_src":"//7741.svetacdn.in/71tsRs29n5tZ/movie/45148"},{"id":45147,"title":"В зоопарке — ремонт","kp_id":"259330","imdb_id":"tt4053858","world_art_id":null,"type":"movie","add":"2020-11-09 17:21:15","orig_title":"V zooparke - remont!","year":"1987-03-18","translations":["Оригинальная дорожка"],"quality":"dvdrip","translation":"Оригинальная дорожка","update":"2020-11-12 12:33:54","iframe_src":"//7741.svetacdn.in/71tsRs29n5tZ/movie/45147"},{"id":45146,"title":"Почта","kp_id":"723433","imdb_id":"tt0250660","world_art_id":null,"type":"movie","add":"2020-11-09 16:18:50","orig_title":"Pochta","year":"1964-01-01","translations":["Оригинальная дорожка"],"quality":"dvdrip","translation":"Оригинальная дорожка","update":"2020-11-12 12:31:21","iframe_src":"//7741.svetacdn.in/71tsRs29n5tZ/movie/45146"},{"id":45114,"title":"Василиса прекрасная","kp_id":"464832","imdb_id":"tt2954570","world_art_id":null,"type":"movie","add":"2020-11-08 16:16:42","orig_title":"Vasilisa Prekrasnaya","year":"1977-05-04","translations":["Оригинальная дорожка"],"quality":"hdtv","translation":"Оригинальная дорожка","update":"2020-11-12 12:24:23","iframe_src":"//7741.svetacdn.in/71tsRs29n5tZ/movie/45114"},{"id":45113,"title":"Ваня и крокодил","kp_id":"532856","imdb_id":"tt3615764","world_art_id":null,"type":"movie","add":"2020-11-08 16:13:45","orig_title":"Vanya i krokodil","year":"1984-01-01","translations":["Оригинальная дорожка"],"quality":"dvdrip","translation":"Оригинальная дорожка","update":"2020-11-12 12:23:11","iframe_src":"//7741.svetacdn.in/71tsRs29n5tZ/movie/45113"},{"id":45112,"title":"Пудя","kp_id":"689613","imdb_id":null,"world_art_id":null,"type":"movie","add":"2020-11-08 16:09:34","orig_title":"Пудя","year":"1990-01-01","translations":["Оригинальная дорожка"],"quality":"sat","translation":"Оригинальная дорожка","update":"2020-11-12 12:21:27","iframe_src":"//7741.svetacdn.in/71tsRs29n5tZ/movie/45112"},{"id":44308,"title":"Знаменитый утенок Тим","kp_id":"632945","imdb_id":null,"world_art_id":null,"type":"movie","add":"2020-10-11 18:53:20","orig_title":"Знаменитый утенок Тим","year":"1973-01-01","translations":["Оригинальная дорожка"],"quality":"dvdrip","translation":"Оригинальная дорожка","update":"2020-11-12 12:33:10","iframe_src":"//7741.svetacdn.in/71tsRs29n5tZ/movie/44308"},{"id":40807,"title":"Бог грома","kp_id":"979779","imdb_id":"tt5715066","world_art_id":null,"type":"movie","add":"2020-05-30 12:23:08","orig_title":"Mortal","year":"2020-02-28","translations":["Любительский (многоголосый закадровый) (AlphaProject)","Полное дублирование (iTunes)","[EN] Original (English)"],"quality":"webdl","translation":"Любительский (многоголосый закадровый) (AlphaProject)","update":"2020-11-12 15:14:53","iframe_src":"//7741.svetacdn.in/71tsRs29n5tZ/movie/40807"}],"current_page":838,"first_page_url":"https://videocdn.tv/api/short?limit=100&api_token=EnbO9h8pv1VyjbCJhg0WM9nG259n7mtz&cache3838=3838&page=1","from":83701,"last_page":706,"last_page_url":"https://videocdn.tv/api/short?limit=100&api_token=EnbO9h8pv1VyjbCJhg0WM9nG259n7mtz&cache3838=3838&page=706","next_page_url":null,"path":"https://videocdn.tv/api/short","per_page":100,"prev_page_url":"https://videocdn.tv/api/short?limit=100&api_token=EnbO9h8pv1VyjbCJhg0WM9nG259n7mtz&cache3838=3838&page=837","to":83720,"total":70569}