{"result":true,"data":[{"id":50302,"title":"Отряд Таганок","kp_id":"4326621","imdb_id":null,"world_art_id":null,"type":"movie","add":"2021-05-11 17:20:30","orig_title":"Отряд Таганок","year":"2021-03-04","translations":["Оригинальная дорожка"],"quality":"webdl","translation":"Оригинальная дорожка","update":"2021-05-11 20:13:56","iframe_src":"//8965.svetacdn.in/si4jsFRrtgrT/movie/50302"},{"id":50301,"title":"Жар-птица","kp_id":"451158","imdb_id":"tt1075415","world_art_id":null,"type":"movie","add":"2021-05-11 14:06:35","orig_title":"Värvilind","year":"1974-01-01","translations":["Оригинальная дорожка"],"quality":"webdl","translation":"Оригинальная дорожка","update":"2021-05-11 17:10:26","iframe_src":"//8965.svetacdn.in/si4jsFRrtgrT/movie/50301"},{"id":50300,"title":"Похороны на втором этаже","kp_id":"471074","imdb_id":"tt5133120","world_art_id":null,"type":"movie","add":"2021-05-11 12:48:06","orig_title":"Pokhorony na vtorom etazhe","year":"1991-01-01","translations":["Оригинальная дорожка"],"quality":"vhs","translation":"Оригинальная дорожка","update":"2021-05-11 17:03:33","iframe_src":"//8965.svetacdn.in/si4jsFRrtgrT/movie/50300"},{"id":50299,"title":"2149: Последствия войны","kp_id":"1414707","imdb_id":"tt13970466","world_art_id":null,"type":"movie","add":"2021-05-11 10:45:00","orig_title":"Confinement","year":"2021-01-11","translations":["Любительский (многоголосый закадровый) (AlphaProject)"],"quality":"webdl","translation":"Любительский (многоголосый закадровый) (AlphaProject)","update":"2021-05-11 14:42:42","iframe_src":"//8965.svetacdn.in/si4jsFRrtgrT/movie/50299"},{"id":50298,"title":"Бигфут против Иллюминатов","kp_id":"1417267","imdb_id":"tt12969650","world_art_id":null,"type":"movie","add":"2021-05-11 10:40:21","orig_title":"Bigfoot vs the Illuminati","year":"2020-10-06","translations":["Любительский (многоголосый закадровый) (Синема УС)"],"quality":"webdl","translation":"Любительский (многоголосый закадровый) (Синема УС)","update":"2021-05-11 14:41:50","iframe_src":"//8965.svetacdn.in/si4jsFRrtgrT/movie/50298"},{"id":50296,"title":"Человек с девятью жизнями","kp_id":"32166","imdb_id":"tt0032753","world_art_id":null,"type":"movie","add":"2021-05-11 10:26:43","orig_title":"The Man with Nine Lives","year":"1940-04-18","translations":["[EN] Original (English)"],"quality":"bd","translation":"[EN] Original (English)","update":"2021-05-12 05:22:37","iframe_src":"//8965.svetacdn.in/si4jsFRrtgrT/movie/50296"},{"id":50295,"title":"Человек, который обошел весь мир","kp_id":"4395541","imdb_id":"tt13283460","world_art_id":null,"type":"movie","add":"2021-05-11 08:19:23","orig_title":"The Man Who Walked Around the World","year":"2020-11-12","translations":["Профессиональный (многоголосый закадровый) (HDrezka Studio)"],"quality":"bd","translation":"Профессиональный (многоголосый закадровый) (HDrezka Studio)","update":"2021-05-11 15:30:22","iframe_src":"//8965.svetacdn.in/si4jsFRrtgrT/movie/50295"},{"id":50285,"title":"Вечная дилемма","kp_id":"1201368","imdb_id":"tt9103708","world_art_id":null,"type":"movie","add":"2021-05-11 07:00:11","orig_title":"The Forever Choice","year":"2021-04-16","translations":["Любительский (многоголосый закадровый) (AlphaProject)"],"quality":"webdl","translation":"Любительский (многоголосый закадровый) (AlphaProject)","update":"2021-05-11 19:59:02","iframe_src":"//8965.svetacdn.in/si4jsFRrtgrT/movie/50285"},{"id":50284,"title":"Ночная смена","kp_id":"4413440","imdb_id":"tt13676878","world_art_id":null,"type":"movie","add":"2021-05-10 21:38:51","orig_title":"The Graveyard Gang","year":"2018-10-01","translations":["Любительский (многоголосый закадровый) (Синема УС)"],"quality":"webdl","translation":"Любительский (многоголосый закадровый) (Синема УС)","update":"2021-05-11 21:12:25","iframe_src":"//8965.svetacdn.in/si4jsFRrtgrT/movie/50284"},{"id":50281,"title":"Готика Теннесси","kp_id":"998160","imdb_id":"tt5952372","world_art_id":null,"type":"movie","add":"2021-05-10 20:38:28","orig_title":"Tennessee Gothic","year":"2019-10-15","translations":["Любительский (многоголосый закадровый) (Синема УС)"],"quality":"webdl","translation":"Любительский (многоголосый закадровый) (Синема УС)","update":"2021-05-11 21:14:16","iframe_src":"//8965.svetacdn.in/si4jsFRrtgrT/movie/50281"},{"id":50280,"title":"Таинственная эскортница","kp_id":"1283866","imdb_id":"tt10660810","world_art_id":null,"type":"movie","add":"2021-05-10 18:16:33","orig_title":"Secret Escort","year":"2019-07-18","translations":["Любительский (многоголосый закадровый) (Синема УС)"],"quality":"webdl","translation":"Любительский (многоголосый закадровый) (Синема УС)","update":"2021-05-11 21:14:31","iframe_src":"//8965.svetacdn.in/si4jsFRrtgrT/movie/50280"},{"id":50279,"title":"Возвращение домой","kp_id":"985266","imdb_id":"tt5496554","world_art_id":null,"type":"movie","add":"2021-05-10 18:14:42","orig_title":"Coming Home","year":"2017-12-15","translations":["Любительский (многоголосый закадровый) (Синема УС)"],"quality":"webdl","translation":"Любительский (многоголосый закадровый) (Синема УС)","update":"2021-05-11 21:14:49","iframe_src":"//8965.svetacdn.in/si4jsFRrtgrT/movie/50279"},{"id":50278,"title":"Домашняя битва","kp_id":"1294689","imdb_id":"tt10685330","world_art_id":null,"type":"movie","add":"2021-05-10 18:12:51","orig_title":"Domestic Warfare","year":"2019-12-12","translations":["Любительский (многоголосый закадровый) (Синема УС)"],"quality":"webdl","translation":"Любительский (многоголосый закадровый) (Синема УС)","update":"2021-05-11 21:15:08","iframe_src":"//8965.svetacdn.in/si4jsFRrtgrT/movie/50278"},{"id":50277,"title":"Изгнание","kp_id":"1190855","imdb_id":"tt8955708","world_art_id":null,"type":"movie","add":"2021-05-10 18:10:57","orig_title":"Exil","year":"2020-01-27","translations":["Любительский (многоголосый закадровый) (Синема УС)"],"quality":"webdl","translation":"Любительский (многоголосый закадровый) (Синема УС)","update":"2021-05-11 21:15:30","iframe_src":"//8965.svetacdn.in/si4jsFRrtgrT/movie/50277"},{"id":50276,"title":"Картинка в доме","kp_id":null,"imdb_id":"tt9574384","world_art_id":null,"type":"movie","add":"2021-05-10 18:08:22","orig_title":"The Picture in the House","year":"2019-03-20","translations":["Любительский (двухголосый закадровый) (Колобок)"],"quality":"webdl","translation":"Любительский (двухголосый закадровый) (Колобок)","update":"2021-05-11 21:15:54","iframe_src":"//8965.svetacdn.in/si4jsFRrtgrT/movie/50276"},{"id":50275,"title":"Кексбург","kp_id":"1043494","imdb_id":"tt6660148","world_art_id":null,"type":"movie","add":"2021-05-10 18:05:41","orig_title":"Kecksburg","year":"2019-09-14","translations":["Любительский (многоголосый закадровый) (Синема УС)"],"quality":"webdl","translation":"Любительский (многоголосый закадровый) (Синема УС)","update":"2021-05-11 21:16:12","iframe_src":"//8965.svetacdn.in/si4jsFRrtgrT/movie/50275"},{"id":49167,"title":"Три страшных рассказа","kp_id":"19136","imdb_id":"tt0057608","world_art_id":null,"type":"movie","add":"2021-03-29 05:12:45","orig_title":"Twice-Told Tales","year":"1963-10-30","translations":["Профессиональный (двухголосый закадровый) (НТВ)","[EN] Original (English)"],"quality":"bd","translation":"Профессиональный (двухголосый закадровый) (НТВ)","update":"2021-05-12 05:20:11","iframe_src":"//8965.svetacdn.in/si4jsFRrtgrT/movie/49167"},{"id":43227,"title":"Маленький мотороллер","kp_id":"137822","imdb_id":"tt0452537","world_art_id":null,"type":"movie","add":"2020-09-07 17:35:27","orig_title":"Väike motoroller","year":"1962-01-01","translations":["Оригинальная дорожка","Оригинальная дорожка"],"quality":"dvdrip","translation":"Оригинальная дорожка","update":"2021-05-11 17:11:13","iframe_src":"//8965.svetacdn.in/si4jsFRrtgrT/movie/43227"},{"id":15553,"title":"Тим","kp_id":"15066","imdb_id":"tt0080024","world_art_id":null,"type":"movie","add":"2018-03-10 13:35:51","orig_title":"Tim","year":"1979-07-13","translations":["Любительский (одноголосый закадровый)","Авторский (одноголосый закадровый) (Воротилин Олег)","[EN] Original (English)"],"quality":"bd","translation":"Любительский (одноголосый закадровый)","update":"2021-05-12 05:21:27","iframe_src":"//8965.svetacdn.in/si4jsFRrtgrT/movie/15553"},{"id":1286,"title":"В стиле Джейн","kp_id":"574719","imdb_id":"tt1743904","world_art_id":null,"type":"serial","add":"2017-06-07 11:49:40","orig_title":"Jane by Design","year":"2012-01-03","translations":["Профессиональный (многоголосый закадровый) (Fox Life)"],"seasons_count":1,"episodes_count":18,"episodes":18,"update":"2017-06-08 10:09:27","iframe_src":"//8965.svetacdn.in/si4jsFRrtgrT/tv-series/1286"},{"id":1285,"title":"А у нас во дворе","kp_id":"923154","imdb_id":null,"world_art_id":null,"type":"serial","add":"2017-06-07 11:45:38","orig_title":"А у нас во дворе","year":"2017-05-29","translations":["Оригинальная дорожка"],"seasons_count":1,"episodes_count":12,"episodes":12,"update":"2017-06-09 07:48:35","iframe_src":"//8965.svetacdn.in/si4jsFRrtgrT/tv-series/1285"},{"id":1283,"title":"Деньги","kp_id":"1045530","imdb_id":null,"world_art_id":null,"type":"serial","add":"2017-06-06 11:54:00","orig_title":"Деньги","year":"2017-06-04","translations":["Оригинальная дорожка"],"seasons_count":1,"episodes_count":2,"episodes":2,"update":"2017-06-07 04:21:36","iframe_src":"//8965.svetacdn.in/si4jsFRrtgrT/tv-series/1283"},{"id":1281,"title":"Джек в стране чудес","kp_id":"77219","imdb_id":"tt0264262","world_art_id":null,"type":"serial","add":"2017-06-05 04:54:14","orig_title":"Jack and the Beanstalk: The Real Story","year":"2001-10-01","translations":["Профессиональный (многоголосый закадровый)"],"seasons_count":1,"episodes_count":2,"episodes":2,"update":"2017-06-05 12:22:38","iframe_src":"//8965.svetacdn.in/si4jsFRrtgrT/tv-series/1281"},{"id":1280,"title":"Никому не говори","kp_id":"1045304","imdb_id":null,"world_art_id":null,"type":"serial","add":"2017-06-05 04:51:55","orig_title":"Никому не говори","year":"2017-06-03","translations":["Оригинальная дорожка"],"seasons_count":1,"episodes_count":2,"episodes":2,"update":"2017-06-05 12:23:41","iframe_src":"//8965.svetacdn.in/si4jsFRrtgrT/tv-series/1280"},{"id":1279,"title":"Мои соседи EXO","kp_id":"908346","imdb_id":"tt4775200","world_art_id":null,"type":"serial","add":"2017-06-02 10:54:49","orig_title":"Woo-Ri Yup-Jip-Ae Exo-Ga San-Da","year":"2015-04-09","translations":["Любительский (двухголосый закадровый) (STEPonee)"],"seasons_count":1,"episodes_count":16,"episodes":16,"update":"2017-06-06 09:43:28","iframe_src":"//8965.svetacdn.in/si4jsFRrtgrT/tv-series/1279"},{"id":1277,"title":"Адские кошки","kp_id":"506450","imdb_id":"tt1596356","world_art_id":null,"type":"serial","add":"2017-06-02 04:44:17","orig_title":"Hellcats","year":"2010-09-08","translations":["Профессиональный (многоголосый закадровый) (MTV)"],"seasons_count":1,"episodes_count":22,"episodes":22,"update":"2017-06-05 10:43:48","iframe_src":"//8965.svetacdn.in/si4jsFRrtgrT/tv-series/1277"},{"id":1275,"title":"Чудаки-одиночки","kp_id":"842715","imdb_id":"tt3549436","world_art_id":null,"type":"serial","add":"2017-05-31 11:47:36","orig_title":"Weird Loners","year":"2015-03-31","translations":["Любительский (многоголосый закадровый) (GladiolusTV)"],"seasons_count":1,"episodes_count":6,"episodes":6,"update":"2017-06-02 08:09:43","iframe_src":"//8965.svetacdn.in/si4jsFRrtgrT/tv-series/1275"},{"id":1274,"title":"Красные браслеты","kp_id":"574644","imdb_id":"tt1698292","world_art_id":null,"type":"serial","add":"2017-05-31 11:28:29","orig_title":"Polseres vermelles","year":"2011-01-24","translations":["Любительский (многоголосый закадровый) (Dream Records)"],"seasons_count":2,"episodes_count":28,"episodes":15,"update":"2017-06-02 07:50:34","iframe_src":"//8965.svetacdn.in/si4jsFRrtgrT/tv-series/1274"},{"id":1273,"title":"Босс и я","kp_id":"906890","imdb_id":"tt6186406","world_art_id":null,"type":"serial","add":"2017-05-30 12:04:40","orig_title":"Shan Shan Lai Le","year":"2014-01-01","translations":["Любительский (одноголосый закадровый)"],"seasons_count":1,"episodes_count":33,"episodes":33,"update":"2017-05-31 06:33:15","iframe_src":"//8965.svetacdn.in/si4jsFRrtgrT/tv-series/1273"},{"id":1270,"title":"Что ты затеяла, лиса?","kp_id":"716629","imdb_id":"tt3541132","world_art_id":null,"type":"serial","add":"2017-05-29 18:39:31","orig_title":"Yeowooya Mwohani","year":"2006-09-20","translations":["Любительский (одноголосый закадровый)"],"seasons_count":1,"episodes_count":16,"episodes":16,"update":"2017-06-02 08:29:22","iframe_src":"//8965.svetacdn.in/si4jsFRrtgrT/tv-series/1270"},{"id":1268,"title":"Призраки дома Хатэвэй","kp_id":"731926","imdb_id":"tt2535732","world_art_id":null,"type":"serial","add":"2017-05-28 07:05:19","orig_title":"The Haunted Hathaways","year":"2013-07-13","translations":["Полное дублирование","Профессиональный (многоголосый закадровый) (HDrezka Studio)"],"seasons_count":2,"episodes_count":31,"episodes":5,"update":"2017-05-29 10:09:12","iframe_src":"//8965.svetacdn.in/si4jsFRrtgrT/tv-series/1268"},{"id":1265,"title":"Капитанша","kp_id":"1044988","imdb_id":null,"world_art_id":null,"type":"serial","add":"2017-05-26 09:30:42","orig_title":"Капитанша","year":"2017-05-17","translations":["Оригинальная дорожка"],"seasons_count":1,"episodes_count":16,"episodes":16,"update":"2017-05-30 13:05:46","iframe_src":"//8965.svetacdn.in/si4jsFRrtgrT/tv-series/1265"},{"id":1264,"title":"Полицейский с Рублевки в Бескудниково","kp_id":"1044770","imdb_id":null,"world_art_id":null,"type":"serial","add":"2017-05-26 09:08:48","orig_title":"Полицейский с Рублевки в Бескудниково","year":"2017-05-22","translations":["Оригинальная дорожка"],"seasons_count":1,"episodes_count":8,"episodes":8,"update":"2017-06-05 05:17:28","iframe_src":"//8965.svetacdn.in/si4jsFRrtgrT/tv-series/1264"},{"id":1261,"title":"Восьмидесятые","kp_id":"592383","imdb_id":"tt3765628","world_art_id":null,"type":"serial","add":"2017-05-23 10:52:44","orig_title":"Vosmidesyatye","year":"2012-01-30","translations":["Оригинальная дорожка"],"seasons_count":6,"episodes_count":105,"episodes":13,"update":"2017-05-31 13:09:58","iframe_src":"//8965.svetacdn.in/si4jsFRrtgrT/tv-series/1261"},{"id":1260,"title":"Зои Харт из южного штата","kp_id":"584941","imdb_id":"tt1832979","world_art_id":null,"type":"serial","add":"2017-05-21 06:39:48","orig_title":"Hart of Dixie","year":"2011-09-26","translations":["Любительский (многоголосый закадровый) (To4ka)"],"seasons_count":3,"episodes_count":59,"episodes":15,"update":"2017-05-30 11:08:13","iframe_src":"//8965.svetacdn.in/si4jsFRrtgrT/tv-series/1260"},{"id":1243,"title":"Громолёты, вперёд!","kp_id":"818761","imdb_id":"tt3138604","world_art_id":null,"type":"serial","add":"2017-05-12 09:40:15","orig_title":"Thunderbirds Are Go","year":"2015-04-04","translations":["Полное дублирование"],"seasons_count":1,"episodes_count":26,"episodes":26,"update":"2017-05-31 10:55:43","iframe_src":"//8965.svetacdn.in/si4jsFRrtgrT/tv-series/1243"},{"id":1222,"title":"Слово женщине","kp_id":"472357","imdb_id":"tt4222744","world_art_id":null,"type":"serial","add":"2017-04-27 06:22:53","orig_title":"Slovo Zhenshine","year":"2010-01-18","translations":["Оригинальная дорожка"],"seasons_count":1,"episodes_count":253,"episodes":253,"update":"2017-05-25 13:59:43","iframe_src":"//8965.svetacdn.in/si4jsFRrtgrT/tv-series/1222"},{"id":1116,"title":"Темный ангел","kp_id":"963358","imdb_id":"tt4742700","world_art_id":null,"type":"serial","add":"2017-03-15 07:39:38","orig_title":"Dark Angel","year":"2016-10-31","translations":["Профессиональный (многоголосый закадровый)"],"seasons_count":1,"episodes_count":1,"episodes":1,"update":"2017-06-09 12:57:08","iframe_src":"//8965.svetacdn.in/si4jsFRrtgrT/tv-series/1116"},{"id":990,"title":"Тренировочный день","kp_id":"960301","imdb_id":"tt4946972","world_art_id":null,"type":"serial","add":"2017-02-09 12:55:45","orig_title":"Training Day","year":"2017-02-02","translations":["Профессиональный (многоголосый закадровый) (Jaskier)"],"seasons_count":1,"episodes_count":13,"episodes":13,"update":"2017-05-26 11:38:16","iframe_src":"//8965.svetacdn.in/si4jsFRrtgrT/tv-series/990"},{"id":364,"title":"Бэтмен против Супермена: На заре справедливости","kp_id":"770631","imdb_id":"tt2975590","world_art_id":null,"type":"movie","add":"2016-03-30 13:49:09","orig_title":"Batman v Superman: Dawn of Justice","year":"2016-03-19","translations":["Полное дублирование","Полное дублирование","Авторский (одноголосый закадровый) (Гаврилов Андрей)","Авторский (одноголосый закадровый) (Матвеев Алексей | Doctor Joker)","Авторский (одноголосый закадровый) (Живов Юрий)","[EN] Original (English)","Любительский (одноголосый закадровый) (Солодухин Евгений | Solod)","Профессиональный (многоголосый закадровый) (FocusStudio)","Любительский (одноголосый закадровый) (lord666 | Емельянов Антон)"],"quality":"bd","translation":"Полное дублирование","update":"2021-05-11 14:40:09","iframe_src":"//8965.svetacdn.in/si4jsFRrtgrT/movie/364"}],"current_page":574,"first_page_url":"https://videocdn.tv/api/short?limit=100&api_token=X6EwAUfE5M9xbo7y0Bp0aPf3uXxG2KLL&cache3574=3574&page=1","from":57301,"last_page":710,"last_page_url":"https://videocdn.tv/api/short?limit=100&api_token=X6EwAUfE5M9xbo7y0Bp0aPf3uXxG2KLL&cache3574=3574&page=710","next_page_url":"https://videocdn.tv/api/short?limit=100&api_token=X6EwAUfE5M9xbo7y0Bp0aPf3uXxG2KLL&cache3574=3574&page=575","path":"https://videocdn.tv/api/short","per_page":100,"prev_page_url":"https://videocdn.tv/api/short?limit=100&api_token=X6EwAUfE5M9xbo7y0Bp0aPf3uXxG2KLL&cache3574=3574&page=573","to":57340,"total":70952}