{"result":true,"data":[{"id":51381,"title":"Никакой вечеринки, пока не отомстишь","kp_id":"1314524","imdb_id":"tt11057114","world_art_id":null,"type":"movie","add":"2021-06-23 10:45:54","orig_title":"No vendetta no party","year":"2019-01-01","translations":["Любительский (многоголосый закадровый) (Синема УС)"],"quality":"webdl","translation":"Любительский (многоголосый закадровый) (Синема УС)","update":"2021-06-24 10:42:44","iframe_src":"//7741.svetacdn.in/71tsRs29n5tZ/movie/51381"},{"id":51380,"title":"Просто друг","kp_id":"1002316","imdb_id":"tt6032708","world_art_id":null,"type":"movie","add":"2021-06-23 10:43:19","orig_title":"Just a Friend","year":"2019-01-01","translations":["Любительский (многоголосый закадровый) (Синема УС)"],"quality":"webdl","translation":"Любительский (многоголосый закадровый) (Синема УС)","update":"2021-06-24 10:44:00","iframe_src":"//7741.svetacdn.in/71tsRs29n5tZ/movie/51380"},{"id":51379,"title":"Потерянный ультрамарин","kp_id":"1272360","imdb_id":"tt10448536","world_art_id":null,"type":"movie","add":"2021-06-23 10:40:19","orig_title":"Inakunare Gunjo","year":"2019-09-06","translations":["Любительский (многоголосый закадровый) (AlphaProject)"],"quality":"webdl","translation":"Любительский (многоголосый закадровый) (AlphaProject)","update":"2021-06-24 10:45:17","iframe_src":"//7741.svetacdn.in/71tsRs29n5tZ/movie/51379"},{"id":51378,"title":"Деранс","kp_id":"1174269","imdb_id":"tt8705658","world_art_id":null,"type":"movie","add":"2021-06-23 09:49:23","orig_title":"Desrances","year":"2019-02-23","translations":["Любительский (многоголосый закадровый) (Синема УС)"],"quality":"webdl","translation":"Любительский (многоголосый закадровый) (Синема УС)","update":"2021-06-24 10:46:08","iframe_src":"//7741.svetacdn.in/71tsRs29n5tZ/movie/51378"},{"id":51375,"title":"Те ещё звери","kp_id":"1126327","imdb_id":"tt8278754","world_art_id":null,"type":"movie","add":"2021-06-23 09:31:05","orig_title":"Algunas Bestias","year":"2019-09-28","translations":["Любительский (многоголосый закадровый) (Синема УС)"],"quality":"webdl","translation":"Любительский (многоголосый закадровый) (Синема УС)","update":"2021-06-24 10:47:04","iframe_src":"//7741.svetacdn.in/71tsRs29n5tZ/movie/51375"},{"id":51355,"title":"Мститель","kp_id":"407821","imdb_id":"tt1200065","world_art_id":null,"type":"movie","add":"2021-06-22 18:33:53","orig_title":"Kantri","year":"2008-05-23","translations":["Любительский (многоголосый закадровый) (ICG)"],"quality":"hdrip","translation":"Любительский (многоголосый закадровый) (ICG)","update":"2021-06-24 19:40:19","iframe_src":"//7741.svetacdn.in/71tsRs29n5tZ/movie/51355"},{"id":51352,"title":"Полночная жара","kp_id":"5873","imdb_id":"tt0112266","world_art_id":null,"type":"movie","add":"2021-06-22 17:14:35","orig_title":"Blackout","year":"1996-01-26","translations":["Авторский (одноголосый закадровый) (Гаврилов Андрей)","[EN] Original (English)","Профессиональный (многоголосый закадровый)"],"quality":"webdl","translation":"Авторский (одноголосый закадровый) (Гаврилов Андрей)","update":"2021-06-24 13:26:47","iframe_src":"//7741.svetacdn.in/71tsRs29n5tZ/movie/51352"},{"id":51341,"title":"Королевская свадьба","kp_id":"26954","imdb_id":"tt0043983","world_art_id":null,"type":"movie","add":"2021-06-22 06:06:37","orig_title":"Royal Wedding","year":"1951-03-08","translations":["[EN] Original (English)","Профессиональный (двухголосый закадровый) (DVD Магия)","Профессиональный (двухголосый закадровый) (НТВ)","Профессиональный (двухголосый закадровый) (Культура | Россия К)","Профессиональный (двухголосый закадровый) (Светла)"],"quality":"bd","translation":"[EN] Original (English)","update":"2021-06-24 13:20:36","iframe_src":"//7741.svetacdn.in/71tsRs29n5tZ/movie/51341"},{"id":51326,"title":"Ченнелинг","kp_id":"1236892","imdb_id":"tt9779380","world_art_id":null,"type":"movie","add":"2021-06-21 12:03:59","orig_title":"Broken Halos","year":"2020-10-06","translations":["Профессиональный (многоголосый закадровый) (iTunes)","Профессиональный (многоголосый закадровый) (iTunes)"],"quality":"webdl","translation":"Профессиональный (многоголосый закадровый) (iTunes)","update":"2021-06-24 18:54:34","iframe_src":"//7741.svetacdn.in/71tsRs29n5tZ/movie/51326"},{"id":51316,"title":"Игры, в которые играют люди","kp_id":"1283279","imdb_id":"tt10613992","world_art_id":null,"type":"movie","add":"2021-06-21 06:17:55","orig_title":"Seurapeli","year":"2020-08-21","translations":["Любительский (многоголосый закадровый) (Синема УС)"],"quality":"webdl","translation":"Любительский (многоголосый закадровый) (Синема УС)","update":"2021-06-24 19:40:07","iframe_src":"//7741.svetacdn.in/71tsRs29n5tZ/movie/51316"},{"id":51224,"title":"Курочка","kp_id":"1038490","imdb_id":"tt6533000","world_art_id":null,"type":"movie","add":"2021-06-16 10:39:04","orig_title":"Ben Niao","year":"2017-02-01","translations":["Любительский (многоголосый закадровый) (Синема УС)"],"quality":"webdl","translation":"Любительский (многоголосый закадровый) (Синема УС)","update":"2021-06-24 19:39:53","iframe_src":"//7741.svetacdn.in/71tsRs29n5tZ/movie/51224"},{"id":51223,"title":"Мы благодарны (Сиябонга)","kp_id":"1194170","imdb_id":"tt8329376","world_art_id":null,"type":"movie","add":"2021-06-16 10:36:56","orig_title":"We Are Thankful","year":"2018-08-10","translations":["Любительский (многоголосый закадровый) (Синема УС)"],"quality":"webdl","translation":"Любительский (многоголосый закадровый) (Синема УС)","update":"2021-06-24 19:39:36","iframe_src":"//7741.svetacdn.in/71tsRs29n5tZ/movie/51223"},{"id":51221,"title":"Подсчет пуль","kp_id":"1364451","imdb_id":"tt12079822","world_art_id":null,"type":"movie","add":"2021-06-16 10:33:19","orig_title":"Counting Bullets","year":"2021-04-03","translations":["Любительский (многоголосый закадровый) (AlphaProject)"],"quality":"webdl","translation":"Любительский (многоголосый закадровый) (AlphaProject)","update":"2021-06-24 19:39:22","iframe_src":"//7741.svetacdn.in/71tsRs29n5tZ/movie/51221"},{"id":50757,"title":"Играй со мной","kp_id":"4322000","imdb_id":"tt14376312","world_art_id":null,"type":"movie","add":"2021-05-30 21:40:48","orig_title":"Igray so mnoy","year":"2021-05-27","translations":["Оригинальная дорожка"],"quality":"webdl","translation":"Оригинальная дорожка","update":"2021-06-24 12:28:31","iframe_src":"//7741.svetacdn.in/71tsRs29n5tZ/movie/50757"},{"id":50500,"title":"Новый порядок","kp_id":"1390940","imdb_id":"tt12474056","world_art_id":null,"type":"movie","add":"2021-05-19 16:28:54","orig_title":"Nuevo orden","year":"2020-09-10","translations":["Любительский (многоголосый закадровый) (Синема УС)","Профессиональный (многоголосый закадровый) (HDrezka Studio 18+)","Профессиональный (многоголосый закадровый) (HDrezka Studio)","Полное дублирование","Профессиональный (многоголосый закадровый) (HDrezka Studio 18+)","Профессиональный (многоголосый закадровый) (HDrezka Studio)","Полное дублирование (iTunes)"],"quality":"webdl","translation":"Любительский (многоголосый закадровый) (Синема УС)","update":"2021-06-24 19:17:30","iframe_src":"//7741.svetacdn.in/71tsRs29n5tZ/movie/50500"},{"id":33897,"title":"Темная сторона желания","kp_id":"34886","imdb_id":"tt0348843","world_art_id":null,"type":"movie","add":"2019-12-10 05:27:47","orig_title":"Jism","year":"2003-01-17","translations":["Профессиональный (многоголосый закадровый) (Формат AB)","Профессиональный (многоголосый закадровый) (ZEE TV)"],"quality":"dvdrip","translation":"Профессиональный (многоголосый закадровый) (Формат AB)","update":"2021-06-24 19:40:30","iframe_src":"//7741.svetacdn.in/71tsRs29n5tZ/movie/33897"},{"id":4007,"title":"Мафия убивает только летом","kp_id":"1216656","imdb_id":"tt6246232","world_art_id":null,"type":"serial","add":"2019-01-31 12:48:13","orig_title":"La mafia uccide solo d'estate","year":"2016-11-21","translations":["Профессиональный (многоголосый закадровый) (SDI Media | Iyuno-SDI Group Russia)"],"seasons_count":1,"episodes_count":12,"episodes":12,"update":"2019-02-01 10:18:45","iframe_src":"//7741.svetacdn.in/71tsRs29n5tZ/tv-series/4007"},{"id":4005,"title":"Чистая любовь","kp_id":"433797","imdb_id":"tt0940629","world_art_id":null,"type":"serial","add":"2019-01-30 22:26:48","orig_title":"Destilando amor","year":"2007-01-22","translations":["Любительский (одноголосый закадровый)"],"seasons_count":1,"episodes_count":170,"episodes":170,"update":"2019-01-31 14:00:51","iframe_src":"//7741.svetacdn.in/71tsRs29n5tZ/tv-series/4005"},{"id":4003,"title":"Влюбленная ведьма","kp_id":"574241","imdb_id":"tt5476060","world_art_id":null,"type":"serial","add":"2019-01-30 19:31:25","orig_title":"Manyeo yuhee","year":"2007-03-21","translations":["Любительский (двухголосый закадровый) (XDUB Dorama)"],"seasons_count":1,"episodes_count":16,"episodes":16,"update":"2019-02-01 08:55:50","iframe_src":"//7741.svetacdn.in/71tsRs29n5tZ/tv-series/4003"},{"id":4002,"title":"Мисс Шерлок","kp_id":"1112719","imdb_id":"tt7755494","world_art_id":null,"type":"serial","add":"2019-01-30 18:13:12","orig_title":"Miss Sherlock","year":"2018-04-27","translations":["Профессиональный (многоголосый закадровый) (IdeaFilm)"],"seasons_count":1,"episodes_count":8,"episodes":8,"update":"2019-01-31 11:01:57","iframe_src":"//7741.svetacdn.in/71tsRs29n5tZ/tv-series/4002"},{"id":3985,"title":"Дежурная аптека","kp_id":"281878","imdb_id":"tt0098794","world_art_id":null,"type":"serial","add":"2019-01-28 19:14:08","orig_title":"Farmacia de guardia","year":"1991-09-19","translations":["Профессиональный (многоголосый закадровый)"],"seasons_count":5,"episodes_count":169,"episodes":13,"update":"2019-01-31 16:07:17","iframe_src":"//7741.svetacdn.in/71tsRs29n5tZ/tv-series/3985"},{"id":3983,"title":"Паутина 4","kp_id":"565126","imdb_id":null,"world_art_id":null,"type":"serial","add":"2019-01-28 17:32:25","orig_title":"Паутина 4","year":"2011-01-11","translations":["Оригинальная дорожка"],"seasons_count":1,"episodes_count":16,"episodes":16,"update":"2019-01-31 19:29:51","iframe_src":"//7741.svetacdn.in/71tsRs29n5tZ/tv-series/3983"},{"id":3982,"title":"Паутина 3","kp_id":"464841","imdb_id":null,"world_art_id":null,"type":"serial","add":"2019-01-28 17:26:23","orig_title":"Паутина 3","year":"2010-01-20","translations":["Оригинальная дорожка"],"seasons_count":1,"episodes_count":12,"episodes":12,"update":"2019-01-31 19:39:29","iframe_src":"//7741.svetacdn.in/71tsRs29n5tZ/tv-series/3982"},{"id":3981,"title":"Паутина 2","kp_id":"428973","imdb_id":null,"world_art_id":null,"type":"serial","add":"2019-01-28 17:17:29","orig_title":"Паутина 2","year":"2008-01-01","translations":["Оригинальная дорожка"],"seasons_count":1,"episodes_count":12,"episodes":12,"update":"2019-01-31 19:45:39","iframe_src":"//7741.svetacdn.in/71tsRs29n5tZ/tv-series/3981"},{"id":3980,"title":"Паутина","kp_id":"428979","imdb_id":"tt5013810","world_art_id":null,"type":"serial","add":"2019-01-28 14:57:30","orig_title":"Pautina","year":"2008-01-09","translations":["Оригинальная дорожка"],"seasons_count":1,"episodes_count":16,"episodes":16,"update":"2019-01-31 19:50:25","iframe_src":"//7741.svetacdn.in/71tsRs29n5tZ/tv-series/3980"},{"id":3965,"title":"Золотая радуга","kp_id":"807881","imdb_id":"tt3362466","world_art_id":null,"type":"serial","add":"2019-01-27 14:52:51","orig_title":"Gold Rainbow","year":"2013-11-02","translations":["Любительский (одноголосый закадровый)"],"seasons_count":1,"episodes_count":41,"episodes":41,"update":"2019-01-31 19:53:28","iframe_src":"//7741.svetacdn.in/71tsRs29n5tZ/tv-series/3965"},{"id":3964,"title":"Чужой район 3","kp_id":"797028","imdb_id":null,"world_art_id":null,"type":"serial","add":"2019-01-27 12:20:19","orig_title":"Чужой район 3","year":"2014-04-14","translations":["Оригинальная дорожка"],"seasons_count":1,"episodes_count":32,"episodes":32,"update":"2019-01-31 19:30:32","iframe_src":"//7741.svetacdn.in/71tsRs29n5tZ/tv-series/3964"},{"id":3963,"title":"Чужой район 2","kp_id":"756251","imdb_id":null,"world_art_id":null,"type":"serial","add":"2019-01-27 12:05:53","orig_title":"Чужой район 2","year":"2013-04-08","translations":["Оригинальная дорожка"],"seasons_count":1,"episodes_count":32,"episodes":32,"update":"2019-01-31 19:40:34","iframe_src":"//7741.svetacdn.in/71tsRs29n5tZ/tv-series/3963"},{"id":3962,"title":"Чужой район","kp_id":"627273","imdb_id":null,"world_art_id":null,"type":"serial","add":"2019-01-27 11:43:26","orig_title":"Чужой район","year":"2012-02-15","translations":["Оригинальная дорожка"],"seasons_count":1,"episodes_count":24,"episodes":24,"update":"2019-01-31 19:11:47","iframe_src":"//7741.svetacdn.in/71tsRs29n5tZ/tv-series/3962"},{"id":3926,"title":"Воздушный волк","kp_id":"258363","imdb_id":"tt0086662","world_art_id":null,"type":"serial","add":"2019-01-22 10:28:06","orig_title":"Airwolf","year":"1984-01-22","translations":["Профессиональный (многоголосый закадровый)"],"seasons_count":2,"episodes_count":33,"episodes":22,"update":"2019-02-01 12:46:25","iframe_src":"//7741.svetacdn.in/71tsRs29n5tZ/tv-series/3926"},{"id":3851,"title":"До смерти красива","kp_id":"424056","imdb_id":"tt1280822","world_art_id":null,"type":"serial","add":"2019-01-08 18:06:42","orig_title":"Drop Dead Diva","year":"2009-07-12","translations":["Профессиональный (многоголосый закадровый) (SET)"],"seasons_count":6,"episodes_count":78,"episodes":13,"update":"2019-01-31 21:07:42","iframe_src":"//7741.svetacdn.in/71tsRs29n5tZ/tv-series/3851"},{"id":20747,"title":"Нож в сердце","kp_id":"1027483","imdb_id":"tt6426028","world_art_id":null,"type":"movie","add":"2018-12-13 21:52:02","orig_title":"Un couteau dans le coeur","year":"2018-05-17","translations":["Профессиональный (многоголосый закадровый) (HDrezka Studio)","Профессиональный (многоголосый закадровый) (HDrezka Studio)"],"quality":"webdl","translation":"Профессиональный (многоголосый закадровый) (HDrezka Studio)","update":"2021-06-24 19:39:12","iframe_src":"//7741.svetacdn.in/71tsRs29n5tZ/movie/20747"},{"id":2789,"title":"Джинглики","kp_id":"779038","imdb_id":null,"world_art_id":null,"type":"serial","add":"2018-06-11 05:28:25","orig_title":"Джинглики","year":"2015-12-08","translations":["Оригинальная дорожка"],"seasons_count":1,"episodes_count":14,"episodes":14,"update":"2019-01-31 11:48:46","iframe_src":"//7741.svetacdn.in/71tsRs29n5tZ/tv-series/2789"},{"id":1629,"title":"Призрачные войны","kp_id":"1048239","imdb_id":"tt6856484","world_art_id":null,"type":"serial","add":"2017-10-11 09:52:23","orig_title":"Ghost Wars","year":"2017-10-05","translations":["Профессиональный (многоголосый закадровый) (BaibaKo)"],"seasons_count":1,"episodes_count":13,"episodes":13,"update":"2019-02-01 04:22:24","iframe_src":"//7741.svetacdn.in/71tsRs29n5tZ/tv-series/1629"},{"id":903,"title":"Их перепутали в роддоме","kp_id":"571914","imdb_id":"tt1758772","world_art_id":null,"type":"serial","add":"2017-01-19 10:25:17","orig_title":"Switched at Birth","year":"2011-06-06","translations":["Профессиональный (двухголосый закадровый) (Sunshine Studio)","Профессиональный (многоголосый закадровый) (Кириллица)"],"seasons_count":5,"episodes_count":103,"episodes":10,"update":"2019-01-31 20:41:15","iframe_src":"//7741.svetacdn.in/71tsRs29n5tZ/tv-series/903"},{"id":7029,"title":"Крикуны","kp_id":"28214","imdb_id":"tt0114367","world_art_id":null,"type":"movie","add":"2016-11-03 14:01:07","orig_title":"Screamers","year":"1995-09-08","translations":["Полное дублирование","Авторский (одноголосый закадровый) (Есарев Дмитрий)","Авторский (одноголосый закадровый) (Карцев Пётр)","Авторский (одноголосый закадровый) (Визгунов Сергей)","Полное дублирование (Видеосервис)","[EN] Original (English)","Профессиональный (многоголосый закадровый)","Профессиональный (многоголосый закадровый) (Первый канал | ОРТ)","Профессиональный (многоголосый закадровый) (РТР | Россия)","Профессиональный (многоголосый закадровый) (Видеосервис)"],"quality":"bd","translation":"Полное дублирование","update":"2021-06-24 13:08:26","iframe_src":"//7741.svetacdn.in/71tsRs29n5tZ/movie/7029"},{"id":495,"title":"Фиксики","kp_id":"581653","imdb_id":"tt3886188","world_art_id":null,"type":"serial","add":"2016-10-01 06:24:30","orig_title":"Fiksiki","year":"2010-12-13","translations":["Оригинальная дорожка"],"seasons_count":3,"episodes_count":143,"episodes":39,"update":"2019-01-31 12:20:17","iframe_src":"//7741.svetacdn.in/71tsRs29n5tZ/tv-series/495"},{"id":5117,"title":"Мистер Крутой","kp_id":"24691","imdb_id":"tt0117786","world_art_id":null,"type":"movie","add":"2016-09-08 06:53:44","orig_title":"Yat goh ho yan","year":"1997-01-31","translations":["Профессиональный (многоголосый закадровый)","Авторский (одноголосый закадровый) (Кашкин Александр | Первомайский)","Профессиональный (многоголосый закадровый) (West Video)","Авторский (одноголосый закадровый) (Есарев Дмитрий)","[EN] Original (English)"],"quality":"webdl","translation":"Профессиональный (многоголосый закадровый)","update":"2021-06-24 13:12:58","iframe_src":"//7741.svetacdn.in/71tsRs29n5tZ/movie/5117"},{"id":174,"title":"Адам портит всё","kp_id":"934101","imdb_id":"tt5034326","world_art_id":null,"type":"serial","add":"2016-06-13 04:27:47","orig_title":"Adam Ruins Everything","year":"2015-09-29","translations":["Профессиональный (двухголосый закадровый) (Ozz.tv)","Профессиональный (многоголосый закадровый) (Ozz.tv)","Профессиональный (многоголосый закадровый) (ColdFilm)","Любительский (двухголосый закадровый) (KinoGolos)"],"seasons_count":3,"episodes_count":60,"episodes":8,"update":"2019-01-31 11:48:08","iframe_src":"//7741.svetacdn.in/71tsRs29n5tZ/tv-series/174"},{"id":2566,"title":"В одиночестве","kp_id":"880617","imdb_id":"tt4271730","world_art_id":null,"type":"movie","add":"2016-05-24 20:54:01","orig_title":"Alone","year":"2015-01-16","translations":["Любительский (одноголосый закадровый)","Профессиональный (многоголосый закадровый) (SDI Media | Iyuno-SDI Group Russia)","Профессиональный (многоголосый закадровый) (ZEE TV)"],"quality":"webdl","translation":"Любительский (одноголосый закадровый)","update":"2021-06-24 19:40:47","iframe_src":"//7741.svetacdn.in/71tsRs29n5tZ/movie/2566"}],"current_page":475,"first_page_url":"https://videocdn.tv/api/short?limit=100&api_token=EnbO9h8pv1VyjbCJhg0WM9nG259n7mtz&cache3475=3475&page=1","from":47401,"last_page":708,"last_page_url":"https://videocdn.tv/api/short?limit=100&api_token=EnbO9h8pv1VyjbCJhg0WM9nG259n7mtz&cache3475=3475&page=708","next_page_url":"https://videocdn.tv/api/short?limit=100&api_token=EnbO9h8pv1VyjbCJhg0WM9nG259n7mtz&cache3475=3475&page=476","path":"https://videocdn.tv/api/short","per_page":100,"prev_page_url":"https://videocdn.tv/api/short?limit=100&api_token=EnbO9h8pv1VyjbCJhg0WM9nG259n7mtz&cache3475=3475&page=474","to":47440,"total":70737}