{"result":true,"data":[{"id":47595,"title":"Безумный шляпник","kp_id":"1289873","imdb_id":"tt10746060","world_art_id":null,"type":"movie","add":"2021-02-01 22:22:50","orig_title":"The Mad Hatter","year":"2021-09-24","translations":["Любительский (двухголосый закадровый) (Колобок)"],"quality":"ts","translation":"Любительский (двухголосый закадровый) (Колобок)","update":"2021-02-02 05:09:17","iframe_src":"//8543.svetacdn.in/71tsRs29n5tZ/movie/47595"},{"id":47593,"title":"Похищение в раю","kp_id":"1419103","imdb_id":"tt13107582","world_art_id":null,"type":"movie","add":"2021-02-01 20:16:12","orig_title":"Kidnapped","year":"2021-01-02","translations":["Любительский (многоголосый закадровый) (AlphaProject)"],"quality":"hdtv","translation":"Любительский (многоголосый закадровый) (AlphaProject)","update":"2021-02-01 23:05:15","iframe_src":"//8543.svetacdn.in/71tsRs29n5tZ/movie/47593"},{"id":47582,"title":"Хелтер Скелтер","kp_id":"254774","imdb_id":"tt0383393","world_art_id":null,"type":"movie","add":"2021-02-01 15:41:11","orig_title":"Helter Skelter","year":"2004-05-16","translations":["Профессиональный (многоголосый закадровый)"],"quality":"dvdrip","translation":"Профессиональный (многоголосый закадровый)","update":"2021-02-01 20:20:52","iframe_src":"//8543.svetacdn.in/71tsRs29n5tZ/movie/47582"},{"id":47581,"title":"Ковбой издалека","kp_id":"9771","imdb_id":"tt0071288","world_art_id":null,"type":"movie","add":"2021-02-01 14:44:45","orig_title":"The Castaway Cowboy","year":"1974-08-01","translations":["Авторский (одноголосый закадровый) (Кузнецов Сергей)"],"quality":"webdl","translation":"Авторский (одноголосый закадровый) (Кузнецов Сергей)","update":"2021-02-02 07:09:55","iframe_src":"//8543.svetacdn.in/71tsRs29n5tZ/movie/47581"},{"id":47579,"title":"Затемнение","kp_id":"2624","imdb_id":"tt0080711","world_art_id":null,"type":"movie","add":"2021-02-01 14:18:42","orig_title":"Fade to Black","year":"1980-05-13","translations":["Авторский (одноголосый закадровый) (Карповский Антон)"],"quality":"bd","translation":"Авторский (одноголосый закадровый) (Карповский Антон)","update":"2021-02-02 07:07:06","iframe_src":"//8543.svetacdn.in/71tsRs29n5tZ/movie/47579"},{"id":47577,"title":"Плохой парень","kp_id":"1347166","imdb_id":"tt11720240","world_art_id":null,"type":"movie","add":"2021-02-01 09:52:41","orig_title":"Un mauvais garçon","year":"2021-01-31","translations":["Любительский (многоголосый закадровый) (Синема УС)"],"quality":"webdl","translation":"Любительский (многоголосый закадровый) (Синема УС)","update":"2021-02-01 18:37:58","iframe_src":"//8543.svetacdn.in/71tsRs29n5tZ/movie/47577"},{"id":47576,"title":"Неидеальный парень","kp_id":"1446544","imdb_id":"tt13391458","world_art_id":null,"type":"movie","add":"2021-02-01 09:35:32","orig_title":"The Wrong Mr. Right","year":"2021-01-15","translations":["Любительский (многоголосый закадровый) (AlphaProject)"],"quality":"webdl","translation":"Любительский (многоголосый закадровый) (AlphaProject)","update":"2021-02-01 12:27:46","iframe_src":"//8543.svetacdn.in/71tsRs29n5tZ/movie/47576"},{"id":47574,"title":"Летайте, ребята. летайте!","kp_id":"1312480","imdb_id":"tt11116736","world_art_id":null,"type":"movie","add":"2021-02-01 08:55:58","orig_title":"FLY! BOYS, FLY! Bokutachi CA hajimemashita","year":"2019-09-24","translations":["Любительский (многоголосый закадровый) (Синема УС)"],"quality":"webdl","translation":"Любительский (многоголосый закадровый) (Синема УС)","update":"2021-02-01 18:42:41","iframe_src":"//8543.svetacdn.in/71tsRs29n5tZ/movie/47574"},{"id":47573,"title":"Одержимый няней","kp_id":null,"imdb_id":"tt13807318","world_art_id":null,"type":"movie","add":"2021-02-01 08:49:14","orig_title":"Obsessed with the Babysitter","year":"2021-01-09","translations":["Любительский (многоголосый закадровый) (Синема УС)"],"quality":"hdtv","translation":"Любительский (многоголосый закадровый) (Синема УС)","update":"2021-02-01 18:36:25","iframe_src":"//8543.svetacdn.in/71tsRs29n5tZ/movie/47573"},{"id":47570,"title":"Пускай мертвые лежат в могилах","kp_id":"122487","imdb_id":"tt0071431","world_art_id":null,"type":"movie","add":"2021-02-01 06:50:00","orig_title":"No profanar el sueño de los muertos","year":"1974-09-30","translations":["Авторский (одноголосый закадровый) (Гранкин Евгений)"],"quality":"bd","translation":"Авторский (одноголосый закадровый) (Гранкин Евгений)","update":"2021-02-01 13:29:05","iframe_src":"//8543.svetacdn.in/71tsRs29n5tZ/movie/47570"},{"id":47568,"title":"После тонкого человека","kp_id":"9013","imdb_id":"tt0027260","world_art_id":null,"type":"movie","add":"2021-02-01 06:15:05","orig_title":"After the Thin Man","year":"1936-12-25","translations":["Любительский (одноголосый закадровый) (Герусов)"],"quality":"bd","translation":"Любительский (одноголосый закадровый) (Герусов)","update":"2021-02-01 13:30:12","iframe_src":"//8543.svetacdn.in/71tsRs29n5tZ/movie/47568"},{"id":47564,"title":"История монахини","kp_id":"3016","imdb_id":"tt0053131","world_art_id":null,"type":"movie","add":"2021-02-01 05:45:10","orig_title":"The Nun's Story","year":"1959-06-18","translations":["Профессиональный (двухголосый закадровый) (СВ-Дубль)"],"quality":"webdl","translation":"Профессиональный (двухголосый закадровый) (СВ-Дубль)","update":"2021-02-02 07:12:51","iframe_src":"//8543.svetacdn.in/71tsRs29n5tZ/movie/47564"},{"id":47562,"title":"Поджигатель","kp_id":"1313094","imdb_id":"tt10436798","world_art_id":null,"type":"movie","add":"2021-01-31 20:58:56","orig_title":"The Arsonist","year":"2020-12-03","translations":["Любительский (многоголосый закадровый) (Синема УС)"],"quality":"webdl","translation":"Любительский (многоголосый закадровый) (Синема УС)","update":"2021-02-01 18:45:19","iframe_src":"//8543.svetacdn.in/71tsRs29n5tZ/movie/47562"},{"id":47560,"title":"Кто мой отец?","kp_id":null,"imdb_id":"tt13476378","world_art_id":null,"type":"movie","add":"2021-01-31 20:41:18","orig_title":"My God! Father","year":"2020-11-13","translations":["Любительский (многоголосый закадровый) (Синема УС)"],"quality":"webdl","translation":"Любительский (многоголосый закадровый) (Синема УС)","update":"2021-02-01 16:59:51","iframe_src":"//8543.svetacdn.in/71tsRs29n5tZ/movie/47560"},{"id":47553,"title":"Верный шанс","kp_id":"15569","imdb_id":"tt0071194","world_art_id":null,"type":"movie","add":"2021-01-31 20:18:43","orig_title":"The Bank Shot","year":"1974-07-31","translations":["Профессиональный (двухголосый закадровый) (НТВ)"],"quality":"bd","translation":"Профессиональный (двухголосый закадровый) (НТВ)","update":"2021-02-01 20:22:59","iframe_src":"//8543.svetacdn.in/71tsRs29n5tZ/movie/47553"},{"id":46974,"title":"Тодд","kp_id":"1222182","imdb_id":"tt9412088","world_art_id":null,"type":"movie","add":"2021-01-12 13:42:15","orig_title":"Todd","year":"2021-03-01","translations":["Original (English)","Любительский (многоголосый закадровый) (Синема УС)"],"quality":"webdl","translation":"Original (English)","update":"2021-02-01 18:38:46","iframe_src":"//8543.svetacdn.in/71tsRs29n5tZ/movie/46974"},{"id":44898,"title":"Смертельные сказки 2","kp_id":"402074","imdb_id":"tt1156300","world_art_id":null,"type":"movie","add":"2020-10-29 17:31:07","orig_title":"Deadtime Stories 2","year":"2011-09-20","translations":["Любительский (двухголосый закадровый) (Колобок)","Любительский (двухголосый закадровый) (Колобок)"],"quality":"dvdrip","translation":"Любительский (двухголосый закадровый) (Колобок)","update":"2021-02-02 07:11:34","iframe_src":"//8543.svetacdn.in/71tsRs29n5tZ/movie/44898"},{"id":8747,"title":"Родом из 1914-го","kp_id":"880703","imdb_id":"tt4094242","world_art_id":null,"type":"serial","add":"2020-09-15 16:07:49","orig_title":"Ceux de 14","year":"2014-10-28","translations":["Любительский (многоголосый закадровый) (WestFilm)"],"seasons_count":1,"episodes_count":6,"episodes":6,"update":"2020-09-16 07:02:24","iframe_src":"//8543.svetacdn.in/71tsRs29n5tZ/tv-series/8747"},{"id":8743,"title":"Пропавшие письма","kp_id":"838792","imdb_id":"tt3592718","world_art_id":null,"type":"serial","add":"2020-09-15 13:40:20","orig_title":"Signed, Sealed, Delivered","year":"2014-04-20","translations":["Любительский (многоголосый закадровый) (WestFilm)"],"seasons_count":1,"episodes_count":19,"episodes":19,"update":"2020-09-16 08:13:31","iframe_src":"//8543.svetacdn.in/71tsRs29n5tZ/tv-series/8743"},{"id":8742,"title":"Это был не мой сын","kp_id":"1236033","imdb_id":"tt5774280","world_art_id":null,"type":"serial","add":"2020-09-15 13:35:01","orig_title":"Non è stato mio figlio","year":"2016-03-15","translations":["Любительский (многоголосый закадровый) (WestFilm)"],"seasons_count":1,"episodes_count":8,"episodes":8,"update":"2020-09-16 07:01:09","iframe_src":"//8543.svetacdn.in/71tsRs29n5tZ/tv-series/8742"},{"id":8741,"title":"От колыбели до могилы","kp_id":"932437","imdb_id":"tt4658612","world_art_id":null,"type":"serial","add":"2020-09-15 13:26:53","orig_title":"Cradle to Grave","year":"2015-09-03","translations":["Любительский (многоголосый закадровый) (WestFilm)"],"seasons_count":1,"episodes_count":8,"episodes":8,"update":"2020-09-16 07:59:27","iframe_src":"//8543.svetacdn.in/71tsRs29n5tZ/tv-series/8741"},{"id":8734,"title":"Дети","kp_id":"1367895","imdb_id":"tt11744632","world_art_id":null,"type":"serial","add":"2020-09-15 06:05:58","orig_title":"Babies","year":"2020-02-21","translations":["Профессиональный (одноголосый закадровый) (Sound Film)"],"seasons_count":2,"episodes_count":8,"episodes":2,"update":"2020-09-15 11:05:02","iframe_src":"//8543.svetacdn.in/71tsRs29n5tZ/tv-series/8734"},{"id":8733,"title":"Брестфордские жены","kp_id":"1175741","imdb_id":"tt7875562","world_art_id":null,"type":"serial","add":"2020-09-14 20:55:10","orig_title":"Bedford Wives","year":"2017-08-24","translations":["Любительский (многоголосый закадровый) (WestFilm)"],"seasons_count":1,"episodes_count":13,"episodes":13,"update":"2020-09-16 10:28:25","iframe_src":"//8543.svetacdn.in/71tsRs29n5tZ/tv-series/8733"},{"id":8730,"title":"Писатель","kp_id":"1268536","imdb_id":"tt10312958","world_art_id":null,"type":"serial","add":"2020-09-14 14:58:35","orig_title":"The Writer","year":"2019-05-06","translations":["Любительский (многоголосый закадровый) (WestFilm)"],"seasons_count":1,"episodes_count":30,"episodes":30,"update":"2020-09-15 14:08:38","iframe_src":"//8543.svetacdn.in/71tsRs29n5tZ/tv-series/8730"},{"id":8716,"title":"Прелюбодеяние","kp_id":"718211","imdb_id":"tt1870949","world_art_id":null,"type":"serial","add":"2020-09-13 17:54:52","orig_title":"Overspel","year":"2011-09-08","translations":["Любительский (многоголосый закадровый) (WestFilm)"],"seasons_count":3,"episodes_count":32,"episodes":10,"update":"2020-09-16 09:49:12","iframe_src":"//8543.svetacdn.in/71tsRs29n5tZ/tv-series/8716"},{"id":8714,"title":"Кровавая свадьба","kp_id":"1145453","imdb_id":"tt8324820","world_art_id":null,"type":"serial","add":"2020-09-13 08:15:20","orig_title":"Noces Rouges","year":"2018-08-05","translations":["Любительский (многоголосый закадровый) (WestFilm)","Профессиональный (многоголосый закадровый) (ViruseProject)","Профессиональный (двухголосый закадровый) (ViruseProject)"],"seasons_count":1,"episodes_count":6,"episodes":6,"update":"2020-09-16 08:01:31","iframe_src":"//8543.svetacdn.in/71tsRs29n5tZ/tv-series/8714"},{"id":5500,"title":"Клика","kp_id":"1039549","imdb_id":"tt6563112","world_art_id":null,"type":"serial","add":"2019-10-21 19:40:01","orig_title":"Clique","year":"2017-03-05","translations":["Профессиональный (многоголосый закадровый) (TVShows)","Профессиональный (многоголосый закадровый) (HDrezka Studio)"],"seasons_count":2,"episodes_count":12,"episodes":6,"update":"2020-09-16 07:13:20","iframe_src":"//8543.svetacdn.in/71tsRs29n5tZ/tv-series/5500"},{"id":23441,"title":"Русская невеста","kp_id":"1039866","imdb_id":"tt6214468","world_art_id":null,"type":"movie","add":"2019-03-24 17:39:04","orig_title":"The Russian Bride","year":"2019-03-02","translations":["Профессиональный (многоголосый закадровый) (iTunes)","Original (English)","Профессиональный (многоголосый закадровый) (HDrezka Studio)"],"quality":"webdl","translation":"Профессиональный (многоголосый закадровый) (iTunes)","update":"2021-02-01 19:08:23","iframe_src":"//8543.svetacdn.in/71tsRs29n5tZ/movie/23441"},{"id":3992,"title":"Имя мне Ночь","kp_id":"1167864","imdb_id":"tt7186588","world_art_id":null,"type":"serial","add":"2019-01-29 08:17:08","orig_title":"I Am the Night","year":"2019-01-28","translations":["Профессиональный (многоголосый закадровый) (ColdFilm)","Профессиональный (многоголосый закадровый) (LostFilm)","Профессиональный (многоголосый закадровый) (Novamedia)","Профессиональный (многоголосый закадровый) (HDrezka Studio)","Профессиональный (двухголосый закадровый) (Gears Media)","Профессиональный (многоголосый закадровый) (OMSKBIRD records)","Профессиональный (многоголосый закадровый) (TVShows)","Профессиональный (многоголосый закадровый) (NewStudio)","Профессиональный (многоголосый закадровый) (Jaskier)"],"seasons_count":1,"episodes_count":6,"episodes":6,"update":"2020-09-15 18:00:34","iframe_src":"//8543.svetacdn.in/71tsRs29n5tZ/tv-series/3992"},{"id":3682,"title":"Смерть и соловьи","kp_id":"1167442","imdb_id":"tt8359610","world_art_id":null,"type":"serial","add":"2018-12-13 08:04:52","orig_title":"Death and Nightingales","year":"2018-11-26","translations":["Профессиональный (многоголосый закадровый) (NewStudio)","Профессиональный (многоголосый закадровый) (HDrezka Studio)"],"seasons_count":1,"episodes_count":3,"episodes":3,"update":"2020-09-15 12:34:40","iframe_src":"//8543.svetacdn.in/71tsRs29n5tZ/tv-series/3682"},{"id":3569,"title":"Чудо: Слезы Мадонны","kp_id":"1123161","imdb_id":"tt7806456","world_art_id":null,"type":"serial","add":"2018-11-26 11:12:25","orig_title":"Il miracolo","year":"2018-05-08","translations":["Профессиональный (двухголосый закадровый) (ViruseProject)","Профессиональный (многоголосый закадровый) (HDrezka Studio)"],"seasons_count":1,"episodes_count":8,"episodes":8,"update":"2020-09-16 07:16:01","iframe_src":"//8543.svetacdn.in/71tsRs29n5tZ/tv-series/3569"},{"id":3500,"title":"Навеки Салли","kp_id":"1148415","imdb_id":"tt8358050","world_art_id":null,"type":"serial","add":"2018-11-14 08:35:32","orig_title":"Sally4Ever","year":"2018-10-28","translations":["Любительский (многоголосый закадровый) (ColdFilm)","Профессиональный (многоголосый закадровый) (Amedia)","Профессиональный (многоголосый закадровый) (NewStudio)","Профессиональный (многоголосый закадровый) (HDrezka Studio)"],"seasons_count":1,"episodes_count":7,"episodes":7,"update":"2020-09-15 12:46:02","iframe_src":"//8543.svetacdn.in/71tsRs29n5tZ/tv-series/3500"},{"id":19715,"title":"Ночь идёт за нами","kp_id":"1011846","imdb_id":"tt6116856","world_art_id":null,"type":"movie","add":"2018-10-22 23:40:08","orig_title":"The Night Comes for Us","year":"2018-09-23","translations":["Профессиональный (многоголосый закадровый) (HDrezka Studio)","Любительский (многоголосый закадровый) (AlphaProject)","Любительский (одноголосый закадровый) (Cmert)","Профессиональный (многоголосый закадровый) (GreenРай Studio)","Авторский (одноголосый закадровый) (Сербин Юрий)"],"quality":"webdl","translation":"Профессиональный (многоголосый закадровый) (HDrezka Studio)","update":"2021-02-01 15:01:17","iframe_src":"//8543.svetacdn.in/71tsRs29n5tZ/movie/19715"},{"id":19368,"title":"Волшебный бриллиант. Фильм 2","kp_id":"34963","imdb_id":"tt0187351","world_art_id":null,"type":"movie","add":"2018-10-05 08:15:42","orig_title":"Nigahen: Nagina Part II","year":"1989-08-11","translations":["Профессиональный (многоголосый закадровый)","Профессиональный (многоголосый закадровый)"],"quality":"webdl","translation":"Профессиональный (многоголосый закадровый)","update":"2021-02-02 07:08:40","iframe_src":"//8543.svetacdn.in/71tsRs29n5tZ/movie/19368"},{"id":3258,"title":"Счастливы вместе","kp_id":"1149042","imdb_id":"tt7976568","world_art_id":null,"type":"serial","add":"2018-10-03 07:15:26","orig_title":"Happy Together","year":"2018-10-01","translations":["Любительский (многоголосый закадровый) (ColdFilm)","Профессиональный (многоголосый закадровый) (NewStudio)","Профессиональный (многоголосый закадровый) (HDrezka Studio)"],"seasons_count":1,"episodes_count":13,"episodes":13,"update":"2020-09-15 12:50:59","iframe_src":"//8543.svetacdn.in/71tsRs29n5tZ/tv-series/3258"},{"id":3172,"title":"Навсегда","kp_id":"1177752","imdb_id":"tt7720790","world_art_id":null,"type":"serial","add":"2018-09-16 08:01:38","orig_title":"Forever","year":"2018-09-14","translations":["Профессиональный (многоголосый закадровый) (BaibaKo)","Профессиональный (многоголосый закадровый) (HDrezka Studio)","Профессиональный (многоголосый закадровый) (TVShows)"],"seasons_count":1,"episodes_count":8,"episodes":8,"update":"2020-09-15 17:59:13","iframe_src":"//8543.svetacdn.in/71tsRs29n5tZ/tv-series/3172"},{"id":1604,"title":"Ответный удар","kp_id":"505661","imdb_id":"tt1492179","world_art_id":null,"type":"serial","add":"2017-10-06 07:19:52","orig_title":"Strike Back","year":"2010-05-05","translations":["Профессиональный (многоголосый закадровый)","Профессиональный (многоголосый закадровый) (СТС)","Профессиональный (многоголосый закадровый) (BaibaKo)","Профессиональный (многоголосый закадровый) (Novamedia)","Профессиональный (двухголосый закадровый) (Novamedia)","Профессиональный (многоголосый закадровый) (IdeaFilm)","Профессиональный (многоголосый закадровый) (TVShows)","Любительский (многоголосый закадровый) (Octopus)"],"seasons_count":8,"episodes_count":72,"episodes":10,"update":"2020-09-15 11:01:26","iframe_src":"//8543.svetacdn.in/71tsRs29n5tZ/tv-series/1604"},{"id":593,"title":"Парки и зоны отдыха","kp_id":"455368","imdb_id":"tt1266020","world_art_id":null,"type":"serial","add":"2016-11-16 09:36:00","orig_title":"Parks and Recreation","year":"2009-04-09","translations":["Любительский (многоголосый закадровый) (To4ka)","Любительский (двухголосый закадровый) (Gravi-TV)","Профессиональный (многоголосый закадровый) (moygolos)","Любительский (двухголосый закадровый) (1001cinema)"],"seasons_count":7,"episodes_count":123,"episodes":13,"update":"2020-09-15 12:51:33","iframe_src":"//8543.svetacdn.in/71tsRs29n5tZ/tv-series/593"},{"id":581,"title":"Граница","kp_id":"958575","imdb_id":"tt4686698","world_art_id":null,"type":"serial","add":"2016-11-15 04:17:55","orig_title":"Frontier","year":"2016-11-06","translations":["Профессиональный (многоголосый закадровый) (NewStudio)","Профессиональный (многоголосый закадровый) (Jaskier)","Профессиональный (многоголосый закадровый) (HDrezka Studio)","Профессиональный (многоголосый закадровый) (GostFilm)","Профессиональный (двухголосый закадровый) (Gears Media)","Профессиональный (многоголосый закадровый) (IdeaFilm)"],"seasons_count":3,"episodes_count":18,"episodes":6,"update":"2020-09-15 18:13:20","iframe_src":"//8543.svetacdn.in/71tsRs29n5tZ/tv-series/581"},{"id":549,"title":"Радиоволна","kp_id":"970032","imdb_id":"tt5531470","world_art_id":null,"type":"serial","add":"2016-10-21 15:05:32","orig_title":"Frequency","year":"2016-10-05","translations":["Профессиональный (многоголосый закадровый) (Кравец)","Профессиональный (двухголосый закадровый) (Sunshine Studio)","Профессиональный (многоголосый закадровый) (NewStudio)","Профессиональный (многоголосый закадровый) (LostFilm)","Любительский (двухголосый закадровый) (Sunshine Studio)"],"seasons_count":1,"episodes_count":14,"episodes":14,"update":"2020-09-15 12:51:52","iframe_src":"//8543.svetacdn.in/71tsRs29n5tZ/tv-series/549"}],"current_page":108,"first_page_url":"https://videocdn.tv/api/short?limit=100&api_token=EnbO9h8pv1VyjbCJhg0WM9nG259n7mtz&cache3108=3108&page=1","from":10701,"last_page":602,"last_page_url":"https://videocdn.tv/api/short?limit=100&api_token=EnbO9h8pv1VyjbCJhg0WM9nG259n7mtz&cache3108=3108&page=602","next_page_url":"https://videocdn.tv/api/short?limit=100&api_token=EnbO9h8pv1VyjbCJhg0WM9nG259n7mtz&cache3108=3108&page=109","path":"https://videocdn.tv/api/short","per_page":100,"prev_page_url":"https://videocdn.tv/api/short?limit=100&api_token=EnbO9h8pv1VyjbCJhg0WM9nG259n7mtz&cache3108=3108&page=107","to":10740,"total":60177}