{"result":true,"data":[{"id":42677,"title":"Внуки для новичков","kp_id":"1263777","imdb_id":"tt10252330","world_art_id":null,"type":"movie","add":"2020-08-23 08:40:09","orig_title":"Enkel für Anfänger","year":"2020-02-06","translations":["Любительский (многоголосый закадровый) (AlphaProject)"],"quality":"bd","translation":"Любительский (многоголосый закадровый) (AlphaProject)","update":"2020-08-23 18:47:37","iframe_src":"//8543.svetacdn.in/71tsRs29n5tZ/movie/42677"},{"id":42674,"title":"Кровавый закат","kp_id":"1304834","imdb_id":"tt10931910","world_art_id":null,"type":"movie","add":"2020-08-23 08:24:26","orig_title":"Red Sunset Drive","year":"2019-10-12","translations":["Любительский (многоголосый закадровый) (Синема УС)"],"quality":"webdl","translation":"Любительский (многоголосый закадровый) (Синема УС)","update":"2020-08-23 18:49:06","iframe_src":"//8543.svetacdn.in/71tsRs29n5tZ/movie/42674"},{"id":42670,"title":"Невезуха","kp_id":null,"imdb_id":"tt8080674","world_art_id":null,"type":"movie","add":"2020-08-21 20:48:37","orig_title":"Bad Break","year":"2018-03-01","translations":["Любительский (многоголосый закадровый) (Синема УС)"],"quality":"webdl","translation":"Любительский (многоголосый закадровый) (Синема УС)","update":"2020-08-22 07:30:58","iframe_src":"//8543.svetacdn.in/71tsRs29n5tZ/movie/42670"},{"id":42668,"title":"Сайдбуб","kp_id":"1016435","imdb_id":"tt6464986","world_art_id":null,"type":"movie","add":"2020-08-21 20:46:09","orig_title":"Sideboob","year":"2018-12-10","translations":["Любительский (многоголосый закадровый) (AlphaProject)"],"quality":"webdl","translation":"Любительский (многоголосый закадровый) (AlphaProject)","update":"2020-08-22 07:30:34","iframe_src":"//8543.svetacdn.in/71tsRs29n5tZ/movie/42668"},{"id":42666,"title":"Жилище в горах Фучунь","kp_id":"1259312","imdb_id":"tt10219146","world_art_id":null,"type":"movie","add":"2020-08-21 20:42:38","orig_title":"Chun Jiang Shui Nuan","year":"2019-05-22","translations":["Любительский (многоголосый закадровый) (Синема УС)"],"quality":"bd","translation":"Любительский (многоголосый закадровый) (Синема УС)","update":"2020-08-22 07:30:10","iframe_src":"//8543.svetacdn.in/71tsRs29n5tZ/movie/42666"},{"id":42665,"title":"Лучшие Комптона","kp_id":"1032472","imdb_id":"tt6078288","world_art_id":null,"type":"movie","add":"2020-08-21 20:40:17","orig_title":"Compton's Finest","year":"2018-12-07","translations":["Любительский (многоголосый закадровый) (Синема УС)"],"quality":"webdl","translation":"Любительский (многоголосый закадровый) (Синема УС)","update":"2020-08-22 07:29:37","iframe_src":"//8543.svetacdn.in/71tsRs29n5tZ/movie/42665"},{"id":42663,"title":"Столкновение миров","kp_id":"810757","imdb_id":"tt3277446","world_art_id":null,"type":"movie","add":"2020-08-21 20:37:33","orig_title":"As Worlds Collide","year":"2018-05-23","translations":["Любительский (многоголосый закадровый) (AlphaProject)"],"quality":"webdl","translation":"Любительский (многоголосый закадровый) (AlphaProject)","update":"2020-08-22 07:29:14","iframe_src":"//8543.svetacdn.in/71tsRs29n5tZ/movie/42663"},{"id":42662,"title":"Джастин","kp_id":"1120476","imdb_id":"tt8202262","world_art_id":null,"type":"movie","add":"2020-08-21 20:34:54","orig_title":"Justine","year":"2019-06-23","translations":["Любительский (многоголосый закадровый) (Синема УС)"],"quality":"webdl","translation":"Любительский (многоголосый закадровый) (Синема УС)","update":"2020-08-22 07:28:48","iframe_src":"//8543.svetacdn.in/71tsRs29n5tZ/movie/42662"},{"id":42661,"title":"Селеста","kp_id":"1055379","imdb_id":"tt5705306","world_art_id":null,"type":"movie","add":"2020-08-21 20:33:01","orig_title":"Celeste","year":"2018-08-03","translations":["Любительский (многоголосый закадровый) (Синема УС)"],"quality":"webdl","translation":"Любительский (многоголосый закадровый) (Синема УС)","update":"2020-08-22 07:28:23","iframe_src":"//8543.svetacdn.in/71tsRs29n5tZ/movie/42661"},{"id":42658,"title":"Граница","kp_id":"1161086","imdb_id":"tt8421518","world_art_id":null,"type":"movie","add":"2020-08-21 20:25:21","orig_title":"Frontera","year":"2018-10-06","translations":["Любительский (многоголосый закадровый) (Синема УС)"],"quality":"webdl","translation":"Любительский (многоголосый закадровый) (Синема УС)","update":"2020-08-22 07:27:35","iframe_src":"//8543.svetacdn.in/71tsRs29n5tZ/movie/42658"},{"id":42652,"title":"Опустошение","kp_id":"1120932","imdb_id":"tt8191620","world_art_id":null,"type":"movie","add":"2020-08-21 20:12:19","orig_title":"Swing Low","year":"2019-08-30","translations":["Любительский (многоголосый закадровый) (@MUZOBOZ@)"],"quality":"webdl","translation":"Любительский (многоголосый закадровый) (@MUZOBOZ@)","update":"2020-08-22 07:25:02","iframe_src":"//8543.svetacdn.in/71tsRs29n5tZ/movie/42652"},{"id":42650,"title":"Сообщение","kp_id":"1126793","imdb_id":"tt7847002","world_art_id":null,"type":"movie","add":"2020-08-21 20:10:06","orig_title":"The Message","year":"2020-08-21","translations":["Любительский (многоголосый закадровый) (Синема УС)"],"quality":"webdl","translation":"Любительский (многоголосый закадровый) (Синема УС)","update":"2020-08-21 21:27:06","iframe_src":"//8543.svetacdn.in/71tsRs29n5tZ/movie/42650"},{"id":42649,"title":"Восход Marvel: Операция Шури","kp_id":"1313583","imdb_id":"tt11113964","world_art_id":null,"type":"movie","add":"2020-08-21 20:08:11","orig_title":"Marvel Rising: Operation Shuri","year":"2019-10-11","translations":["Любительский (многоголосый закадровый) (@MUZOBOZ@)"],"quality":"webdl","translation":"Любительский (многоголосый закадровый) (@MUZOBOZ@)","update":"2020-08-21 21:05:47","iframe_src":"//8543.svetacdn.in/71tsRs29n5tZ/movie/42649"},{"id":42647,"title":"Медовый месяц","kp_id":"1072015","imdb_id":"tt7277942","world_art_id":null,"type":"movie","add":"2020-08-21 20:06:14","orig_title":"The Honeymoon Phase","year":"2019-11-03","translations":["Любительский (многоголосый закадровый) (@MUZOBOZ@)"],"quality":"webdl","translation":"Любительский (многоголосый закадровый) (@MUZOBOZ@)","update":"2020-08-22 06:51:21","iframe_src":"//8543.svetacdn.in/71tsRs29n5tZ/movie/42647"},{"id":42636,"title":"Мистер Монстр","kp_id":"1255046","imdb_id":"tt10097484","world_art_id":null,"type":"movie","add":"2020-08-21 11:37:57","orig_title":"Guai wu xian sheng","year":"2020-08-18","translations":["Любительский (двухголосый закадровый) (Колобок)"],"quality":"webdl","translation":"Любительский (двухголосый закадровый) (Колобок)","update":"2020-08-21 15:12:40","iframe_src":"//8543.svetacdn.in/71tsRs29n5tZ/movie/42636"},{"id":42635,"title":"Вот это ночка!","kp_id":"1301982","imdb_id":"tt10888708","world_art_id":null,"type":"movie","add":"2020-08-21 10:43:20","orig_title":"The Sleepover","year":"2020-08-21","translations":["Полное дублирование (Невафильм)"],"quality":"webdl","translation":"Полное дублирование (Невафильм)","update":"2020-08-21 15:39:58","iframe_src":"//8543.svetacdn.in/71tsRs29n5tZ/movie/42635"},{"id":42634,"title":"Португалка","kp_id":"1243573","imdb_id":"tt7746590","world_art_id":null,"type":"movie","add":"2020-08-20 20:58:23","orig_title":"A Portuguesa","year":"2018-11-12","translations":["Любительский (многоголосый закадровый) (AlphaProject)"],"quality":"webdl","translation":"Любительский (многоголосый закадровый) (AlphaProject)","update":"2020-08-21 21:05:22","iframe_src":"//8543.svetacdn.in/71tsRs29n5tZ/movie/42634"},{"id":42633,"title":"Талант на неприятности","kp_id":"847473","imdb_id":"tt4168628","world_art_id":null,"type":"movie","add":"2020-08-20 20:55:53","orig_title":"A Talent for Trouble","year":"2018-04-03","translations":["Любительский (многоголосый закадровый) (Синема УС)"],"quality":"webdl","translation":"Любительский (многоголосый закадровый) (Синема УС)","update":"2020-08-21 21:06:18","iframe_src":"//8543.svetacdn.in/71tsRs29n5tZ/movie/42633"},{"id":41764,"title":"Деревня Инунаки","kp_id":"1297231","imdb_id":"tt10919074","world_art_id":null,"type":"movie","add":"2020-07-15 05:54:18","orig_title":"Howling Village","year":"2019-10-10","translations":["Любительский (двухголосый закадровый) (Колобок)","Любительский (двухголосый закадровый) (Колобок)"],"quality":"ts","translation":"Любительский (двухголосый закадровый) (Колобок)","update":"2020-08-23 18:49:32","iframe_src":"//8543.svetacdn.in/71tsRs29n5tZ/movie/41764"},{"id":19819,"title":"Солнце","kp_id":"1014067","imdb_id":"tt6134274","world_art_id":null,"type":"movie","add":"2018-10-28 15:15:32","orig_title":"Solis","year":"2018-06-27","translations":["Любительский (многоголосый закадровый) (@MUZOBOZ@)","Любительский (двухголосый закадровый) (HiWayGrope)","Original (English)","Профессиональный (многоголосый закадровый) (HDrezka Studio)"],"quality":"webdl","translation":"Любительский (многоголосый закадровый) (@MUZOBOZ@)","update":"2020-08-23 15:30:27","iframe_src":"//8543.svetacdn.in/71tsRs29n5tZ/movie/19819"},{"id":2860,"title":"Сговор (Футбольная мафия)","kp_id":null,"imdb_id":"tt6868774","world_art_id":null,"type":"serial","add":"2018-06-23 06:44:41","orig_title":"Voetbalmaffia","year":"2017-11-05","translations":["Профессиональный (многоголосый закадровый)"],"seasons_count":1,"episodes_count":8,"episodes":8,"update":"2018-06-24 08:35:52","iframe_src":"//8543.svetacdn.in/71tsRs29n5tZ/tv-series/2860"},{"id":2858,"title":"Плакучая ива","kp_id":"1049533","imdb_id":null,"world_art_id":null,"type":"serial","add":"2018-06-22 07:22:53","orig_title":"Плакучая ива","year":"2018-06-20","translations":["Оригинальная дорожка"],"seasons_count":1,"episodes_count":12,"episodes":12,"update":"2018-06-25 09:28:53","iframe_src":"//8543.svetacdn.in/71tsRs29n5tZ/tv-series/2858"},{"id":2855,"title":"Каменская 5","kp_id":"467511","imdb_id":"tt4359222","world_art_id":null,"type":"serial","add":"2018-06-21 12:56:19","orig_title":"Kamenskaya pyat","year":"2009-03-25","translations":["Оригинальная дорожка"],"seasons_count":1,"episodes_count":12,"episodes":12,"update":"2018-06-22 11:33:09","iframe_src":"//8543.svetacdn.in/71tsRs29n5tZ/tv-series/2855"},{"id":2852,"title":"Зыбь","kp_id":"1178199","imdb_id":"tt4662890","world_art_id":null,"type":"serial","add":"2018-06-20 09:19:57","orig_title":"Als de dijken breken","year":"2016-11-05","translations":["Профессиональный (многоголосый закадровый)"],"seasons_count":1,"episodes_count":6,"episodes":6,"update":"2018-06-21 08:49:10","iframe_src":"//8543.svetacdn.in/71tsRs29n5tZ/tv-series/2852"},{"id":2846,"title":"Модус","kp_id":"938865","imdb_id":"tt4600404","world_art_id":null,"type":"serial","add":"2018-06-19 07:53:36","orig_title":"Modus","year":"2015-09-23","translations":["Любительский (многоголосый закадровый) (ColdFilm)"],"seasons_count":2,"episodes_count":16,"episodes":8,"update":"2018-06-19 21:15:14","iframe_src":"//8543.svetacdn.in/71tsRs29n5tZ/tv-series/2846"},{"id":2845,"title":"Внимание, любовь!","kp_id":"1112801","imdb_id":"tt7774954","world_art_id":null,"type":"serial","add":"2018-06-19 07:51:12","orig_title":"Attention, love!","year":"2017-07-30","translations":["Любительский (двухголосый закадровый) (XDUB Dorama)"],"seasons_count":1,"episodes_count":15,"episodes":15,"update":"2018-06-19 20:46:42","iframe_src":"//8543.svetacdn.in/71tsRs29n5tZ/tv-series/2845"},{"id":2838,"title":"Этюды о свободе","kp_id":"1115318","imdb_id":null,"world_art_id":null,"type":"serial","add":"2018-06-18 11:03:12","orig_title":"Этюды о свободе","year":"2018-04-08","translations":["Оригинальная дорожка"],"seasons_count":1,"episodes_count":3,"episodes":3,"update":"2018-06-19 11:43:09","iframe_src":"//8543.svetacdn.in/71tsRs29n5tZ/tv-series/2838"},{"id":2837,"title":"Ты, я и конец света","kp_id":"891626","imdb_id":"tt4337894","world_art_id":null,"type":"serial","add":"2018-06-18 10:59:14","orig_title":"You, Me and the Apocalypse","year":"2015-09-30","translations":["Профессиональный (многоголосый закадровый) (AlexFilm)"],"seasons_count":1,"episodes_count":10,"episodes":10,"update":"2018-06-19 10:33:29","iframe_src":"//8543.svetacdn.in/71tsRs29n5tZ/tv-series/2837"},{"id":2813,"title":"Сила обстоятельств","kp_id":"1118421","imdb_id":null,"world_art_id":null,"type":"serial","add":"2018-06-14 04:59:49","orig_title":"Сила обстоятельств","year":"2018-05-19","translations":["Оригинальная дорожка"],"seasons_count":1,"episodes_count":2,"episodes":2,"update":"2018-06-25 11:53:52","iframe_src":"//8543.svetacdn.in/71tsRs29n5tZ/tv-series/2813"},{"id":2806,"title":"Злоумышленница","kp_id":"1112696","imdb_id":null,"world_art_id":null,"type":"serial","add":"2018-06-13 06:51:20","orig_title":"Злоумышленница","year":"2018-03-03","translations":["Оригинальная дорожка"],"seasons_count":1,"episodes_count":2,"episodes":2,"update":"2018-06-25 11:50:44","iframe_src":"//8543.svetacdn.in/71tsRs29n5tZ/tv-series/2806"},{"id":2805,"title":"Золотая парочка","kp_id":"1044437","imdb_id":null,"world_art_id":null,"type":"serial","add":"2018-06-13 06:48:53","orig_title":"Золотая парочка","year":"2018-05-18","translations":["Оригинальная дорожка"],"seasons_count":1,"episodes_count":2,"episodes":2,"update":"2018-06-25 11:48:52","iframe_src":"//8543.svetacdn.in/71tsRs29n5tZ/tv-series/2805"},{"id":2792,"title":"Пасечник","kp_id":"684217","imdb_id":"tt3389488","world_art_id":null,"type":"serial","add":"2018-06-11 14:04:52","orig_title":"Pasechnik","year":"2013-10-07","translations":["Оригинальная дорожка"],"seasons_count":1,"episodes_count":32,"episodes":32,"update":"2018-06-19 11:38:41","iframe_src":"//8543.svetacdn.in/71tsRs29n5tZ/tv-series/2792"},{"id":2682,"title":"Посольство","kp_id":"968760","imdb_id":"tt5266278","world_art_id":null,"type":"serial","add":"2018-05-29 08:29:07","orig_title":"La embajada","year":"2016-04-08","translations":["Профессиональный (многоголосый закадровый) (GreenРай Studio)"],"seasons_count":1,"episodes_count":4,"episodes":4,"update":"2018-06-20 13:48:20","iframe_src":"//8543.svetacdn.in/71tsRs29n5tZ/tv-series/2682"},{"id":2672,"title":"Займемся физкультурой","kp_id":"1112128","imdb_id":"tt6923968","world_art_id":null,"type":"serial","add":"2018-05-28 05:13:55","orig_title":"Let's Get Physical","year":"2018-01-24","translations":["Профессиональный (многоголосый закадровый) (IdeaFilm)"],"seasons_count":1,"episodes_count":8,"episodes":8,"update":"2018-06-19 14:29:55","iframe_src":"//8543.svetacdn.in/71tsRs29n5tZ/tv-series/2672"},{"id":2656,"title":"12 стульев","kp_id":"46789","imdb_id":"tt0065670","world_art_id":null,"type":"serial","add":"2018-05-26 07:52:12","orig_title":"12 stulev","year":"1971-06-21","translations":["Оригинальная дорожка"],"seasons_count":1,"episodes_count":1,"episodes":1,"update":"2018-06-22 07:19:58","iframe_src":"//8543.svetacdn.in/71tsRs29n5tZ/tv-series/2656"},{"id":2655,"title":"Гордость","kp_id":"1122306","imdb_id":"tt8334618","world_art_id":null,"type":"serial","add":"2018-05-26 07:14:02","orig_title":"Fiertés","year":"2018-04-26","translations":["Любительский (одноголосый закадровый)"],"seasons_count":1,"episodes_count":3,"episodes":3,"update":"2018-06-21 21:27:53","iframe_src":"//8543.svetacdn.in/71tsRs29n5tZ/tv-series/2655"},{"id":1198,"title":"По расчету","kp_id":"928637","imdb_id":"tt4941288","world_art_id":null,"type":"serial","add":"2017-04-19 10:06:25","orig_title":"The Arrangement","year":"2017-03-05","translations":["Любительский (двухголосый закадровый) (RusFilm)","Любительский (двухголосый закадровый) (Sunshine Studio)"],"seasons_count":2,"episodes_count":20,"episodes":10,"update":"2018-06-21 14:59:31","iframe_src":"//8543.svetacdn.in/71tsRs29n5tZ/tv-series/1198"},{"id":1110,"title":"Охота на дьявола","kp_id":"989198","imdb_id":null,"world_art_id":null,"type":"serial","add":"2017-03-15 06:35:13","orig_title":"Охота на дьявола","year":"2017-03-13","translations":["Оригинальная дорожка"],"seasons_count":1,"episodes_count":16,"episodes":16,"update":"2018-06-20 15:07:44","iframe_src":"//8543.svetacdn.in/71tsRs29n5tZ/tv-series/1110"},{"id":893,"title":"Риццоли и Айлс","kp_id":"495591","imdb_id":"tt1551632","world_art_id":null,"type":"serial","add":"2017-01-17 07:31:56","orig_title":"Rizzoli & Isles","year":"2010-06-12","translations":["Профессиональный (многоголосый закадровый) (SET)","Профессиональный (многоголосый закадровый) (NewStudio)"],"seasons_count":7,"episodes_count":105,"episodes":13,"update":"2018-06-25 13:18:55","iframe_src":"//8543.svetacdn.in/71tsRs29n5tZ/tv-series/893"},{"id":677,"title":"Лед","kp_id":"1007829","imdb_id":"tt4659174","world_art_id":null,"type":"serial","add":"2016-12-12 08:21:54","orig_title":"Ice","year":"2016-11-16","translations":["Профессиональный (многоголосый закадровый) (SunshineStudio)","Любительский (двухголосый закадровый) (Sunshine Studio)","Профессиональный (многоголосый закадровый) (BaibaKo)"],"seasons_count":2,"episodes_count":20,"episodes":10,"update":"2018-06-21 10:58:29","iframe_src":"//8543.svetacdn.in/71tsRs29n5tZ/tv-series/677"}],"current_page":403,"first_page_url":"https://videocdn.tv/api/short?limit=100&api_token=EnbO9h8pv1VyjbCJhg0WM9nG259n7mtz&cache3403=3403&page=1","from":40201,"last_page":604,"last_page_url":"https://videocdn.tv/api/short?limit=100&api_token=EnbO9h8pv1VyjbCJhg0WM9nG259n7mtz&cache3403=3403&page=604","next_page_url":"https://videocdn.tv/api/short?limit=100&api_token=EnbO9h8pv1VyjbCJhg0WM9nG259n7mtz&cache3403=3403&page=404","path":"https://videocdn.tv/api/short","per_page":100,"prev_page_url":"https://videocdn.tv/api/short?limit=100&api_token=EnbO9h8pv1VyjbCJhg0WM9nG259n7mtz&cache3403=3403&page=402","to":40240,"total":60344}