{"result":true,"data":[{"id":51729,"title":"Милая Махагони 2: Излишества","kp_id":"4502687","imdb_id":"tt13871408","world_art_id":null,"type":"movie","add":"2021-07-13 15:52:21","orig_title":"Sweet Mahogany 2: Pure Indulgence","year":"2021-02-23","translations":["Любительский (многоголосый закадровый) (Синема УС)"],"quality":"webdl","translation":"Любительский (многоголосый закадровый) (Синема УС)","update":"2021-07-13 19:21:33","iframe_src":"//7741.svetacdn.in/IAF0wWTdNYZm/movie/51729"},{"id":51728,"title":"Тараканий прилив","kp_id":"4382287","imdb_id":"tt13796104","world_art_id":null,"type":"movie","add":"2021-07-13 15:50:27","orig_title":"Khepri Cockroach Tide","year":"2020-11-27","translations":["Любительский (двухголосый закадровый) (Колобок)"],"quality":"webdl","translation":"Любительский (двухголосый закадровый) (Колобок)","update":"2021-07-13 19:20:52","iframe_src":"//7741.svetacdn.in/IAF0wWTdNYZm/movie/51728"},{"id":51725,"title":"Агнета: АББА и после неё","kp_id":"841898","imdb_id":"tt3593376","world_art_id":null,"type":"movie","add":"2021-07-13 12:38:57","orig_title":"Agnetha: Abba & After","year":"2013-06-11","translations":["Полное дублирование (Первый канал | ОРТ)"],"quality":"hdtv","translation":"Полное дублирование (Первый канал | ОРТ)","update":"2021-07-13 19:06:44","iframe_src":"//7741.svetacdn.in/IAF0wWTdNYZm/movie/51725"},{"id":51724,"title":"Смерть подружки","kp_id":"4448710","imdb_id":"tt14357826","world_art_id":null,"type":"movie","add":"2021-07-13 11:17:46","orig_title":"Death of a Girlfriend","year":"2021-04-30","translations":["Любительский (двухголосый закадровый) (Колобок)"],"quality":"webdl","translation":"Любительский (двухголосый закадровый) (Колобок)","update":"2021-07-13 17:48:36","iframe_src":"//7741.svetacdn.in/IAF0wWTdNYZm/movie/51724"},{"id":51723,"title":"Лживые лица","kp_id":"1078643","imdb_id":"tt6778790","world_art_id":null,"type":"movie","add":"2021-07-13 11:16:20","orig_title":"Faces of Deceit","year":"2018-01-01","translations":["Любительский (многоголосый закадровый) (Синема УС)"],"quality":"webdl","translation":"Любительский (многоголосый закадровый) (Синема УС)","update":"2021-07-13 17:47:39","iframe_src":"//7741.svetacdn.in/IAF0wWTdNYZm/movie/51723"},{"id":51722,"title":"Эпидемия","kp_id":"989691","imdb_id":"tt5801522","world_art_id":null,"type":"movie","add":"2021-07-13 11:14:55","orig_title":"Into the Outbreak","year":"2017-01-01","translations":["Любительский (многоголосый закадровый) (Синема УС)"],"quality":"webdl","translation":"Любительский (многоголосый закадровый) (Синема УС)","update":"2021-07-13 17:46:42","iframe_src":"//7741.svetacdn.in/IAF0wWTdNYZm/movie/51722"},{"id":51721,"title":"Опасные связи","kp_id":"4423229","imdb_id":"tt14403496","world_art_id":null,"type":"movie","add":"2021-07-13 11:13:44","orig_title":"A Date with Danger","year":"2021-07-03","translations":["Любительский (многоголосый закадровый) (Синема УС)"],"quality":"webdl","translation":"Любительский (многоголосый закадровый) (Синема УС)","update":"2021-07-13 17:45:52","iframe_src":"//7741.svetacdn.in/IAF0wWTdNYZm/movie/51721"},{"id":51720,"title":"Откуда ты знаешь Криса?","kp_id":"1167666","imdb_id":"tt8355036","world_art_id":null,"type":"movie","add":"2021-07-13 11:12:34","orig_title":"How Do You Know Chris?","year":"2020-01-01","translations":["Любительский (многоголосый закадровый) (Синема УС)"],"quality":"webdl","translation":"Любительский (многоголосый закадровый) (Синема УС)","update":"2021-07-13 17:45:01","iframe_src":"//7741.svetacdn.in/IAF0wWTdNYZm/movie/51720"},{"id":51719,"title":"Идеальная картина лжи","kp_id":"4499575","imdb_id":"tt13914276","world_art_id":null,"type":"movie","add":"2021-07-13 07:49:40","orig_title":"Picture Perfect Lies","year":"2021-05-30","translations":["Любительский (многоголосый закадровый) (Синема УС)"],"quality":"webdl","translation":"Любительский (многоголосый закадровый) (Синема УС)","update":"2021-07-13 11:56:08","iframe_src":"//7741.svetacdn.in/IAF0wWTdNYZm/movie/51719"},{"id":51715,"title":"Дочери Евы","kp_id":"410934","imdb_id":"tt0292236","world_art_id":null,"type":"movie","add":"2021-07-12 17:49:24","orig_title":"Silip","year":"1985-02-07","translations":["Авторский (одноголосый закадровый) (Алексеев Антон)"],"quality":"bd","translation":"Авторский (одноголосый закадровый) (Алексеев Антон)","update":"2021-07-13 12:34:55","iframe_src":"//7741.svetacdn.in/IAF0wWTdNYZm/movie/51715"},{"id":51508,"title":"Брат","kp_id":"41697","imdb_id":"tt0135161","world_art_id":null,"type":"movie","add":"2021-07-01 07:36:06","orig_title":"Bhai","year":"1997-10-30","translations":["Профессиональный (двухголосый закадровый) (Bollywood HD)"],"quality":"webdl","translation":"Профессиональный (двухголосый закадровый) (Bollywood HD)","update":"2021-07-13 19:23:40","iframe_src":"//7741.svetacdn.in/IAF0wWTdNYZm/movie/51508"},{"id":51507,"title":"Джалеби","kp_id":"1190555","imdb_id":"tt8426854","world_art_id":null,"type":"movie","add":"2021-07-01 07:31:54","orig_title":"Jalebi","year":"2018-10-12","translations":["Профессиональный (двухголосый закадровый) (Bollywood HD)"],"quality":"webdl","translation":"Профессиональный (двухголосый закадровый) (Bollywood HD)","update":"2021-07-13 19:24:28","iframe_src":"//7741.svetacdn.in/IAF0wWTdNYZm/movie/51507"},{"id":38651,"title":"Злодей","kp_id":"36610","imdb_id":"tt0107311","world_art_id":null,"type":"movie","add":"2020-03-29 12:38:15","orig_title":"Khal Nayak","year":"1993-06-15","translations":["Профессиональный (двухголосый закадровый)","Профессиональный (многоголосый закадровый) (ZEE TV)"],"quality":"dvdrip","translation":"Профессиональный (двухголосый закадровый)","update":"2021-07-13 19:24:39","iframe_src":"//7741.svetacdn.in/IAF0wWTdNYZm/movie/38651"},{"id":6238,"title":"Референт","kp_id":"1254247","imdb_id":"tt10183194","world_art_id":null,"type":"serial","add":"2020-01-05 12:12:06","orig_title":"Referent","year":"2019-02-03","translations":["Оригинальная дорожка"],"seasons_count":1,"episodes_count":4,"episodes":4,"update":"2020-01-06 06:07:50","iframe_src":"//7741.svetacdn.in/IAF0wWTdNYZm/tv-series/6238"},{"id":6236,"title":"Бородин. Возвращение генерала","kp_id":"450332","imdb_id":null,"world_art_id":null,"type":"serial","add":"2020-01-05 08:44:16","orig_title":"Бородин. Возвращение генерала","year":"2008-01-01","translations":["Оригинальная дорожка"],"seasons_count":1,"episodes_count":8,"episodes":8,"update":"2020-01-06 14:50:52","iframe_src":"//7741.svetacdn.in/IAF0wWTdNYZm/tv-series/6236"},{"id":6235,"title":"Я заплачу завтра","kp_id":"1254240","imdb_id":null,"world_art_id":null,"type":"serial","add":"2020-01-05 01:42:09","orig_title":"Я заплачу завтра","year":"2019-03-24","translations":["Оригинальная дорожка"],"seasons_count":1,"episodes_count":4,"episodes":4,"update":"2020-01-05 05:11:38","iframe_src":"//7741.svetacdn.in/IAF0wWTdNYZm/tv-series/6235"},{"id":6234,"title":"Старая гвардия. Прощальная вечеринка","kp_id":"1291169","imdb_id":null,"world_art_id":null,"type":"serial","add":"2020-01-05 01:38:48","orig_title":"Старая гвардия. Прощальная вечеринка","year":"2019-01-01","translations":["Оригинальная дорожка"],"seasons_count":1,"episodes_count":4,"episodes":4,"update":"2020-01-05 04:58:37","iframe_src":"//7741.svetacdn.in/IAF0wWTdNYZm/tv-series/6234"},{"id":6231,"title":"Смертельные поля","kp_id":"965831","imdb_id":"tt5350248","world_art_id":null,"type":"serial","add":"2020-01-04 12:58:32","orig_title":"Killing Fields","year":"2016-01-05","translations":["Профессиональный (многоголосый закадровый)"],"seasons_count":1,"episodes_count":8,"episodes":8,"update":"2020-01-04 17:51:07","iframe_src":"//7741.svetacdn.in/IAF0wWTdNYZm/tv-series/6231"},{"id":6230,"title":"Замуж в Новый год","kp_id":"1008639","imdb_id":null,"world_art_id":null,"type":"serial","add":"2020-01-04 12:57:05","orig_title":"Замуж в Новый год","year":"2016-12-31","translations":["Оригинальная дорожка"],"seasons_count":1,"episodes_count":1,"episodes":1,"update":"2020-01-05 11:27:28","iframe_src":"//7741.svetacdn.in/IAF0wWTdNYZm/tv-series/6230"},{"id":6224,"title":"Пятая группа крови","kp_id":"565127","imdb_id":"tt4312906","world_art_id":null,"type":"serial","add":"2020-01-03 20:14:41","orig_title":"Pyataya gruppa krovi","year":"2011-01-17","translations":["Оригинальная дорожка"],"seasons_count":1,"episodes_count":16,"episodes":16,"update":"2020-01-05 20:07:36","iframe_src":"//7741.svetacdn.in/IAF0wWTdNYZm/tv-series/6224"},{"id":6218,"title":"Дикая роза","kp_id":"294989","imdb_id":"tt0211858","world_art_id":null,"type":"serial","add":"2020-01-03 11:43:41","orig_title":"Rosa salvaje","year":"1987-01-01","translations":["Полное дублирование"],"seasons_count":1,"episodes_count":99,"episodes":99,"update":"2020-01-06 21:18:42","iframe_src":"//7741.svetacdn.in/IAF0wWTdNYZm/tv-series/6218"},{"id":6217,"title":"Дом который","kp_id":"1253420","imdb_id":"tt10116700","world_art_id":null,"type":"serial","add":"2020-01-03 11:41:47","orig_title":"Dom kotoryy","year":"2019-02-24","translations":["Оригинальная дорожка"],"seasons_count":1,"episodes_count":4,"episodes":4,"update":"2020-01-06 14:20:48","iframe_src":"//7741.svetacdn.in/IAF0wWTdNYZm/tv-series/6217"},{"id":6215,"title":"Любимые дети","kp_id":"1334838","imdb_id":null,"world_art_id":null,"type":"serial","add":"2020-01-03 06:41:12","orig_title":"Любимые дети","year":"2019-09-23","translations":["Оригинальная дорожка"],"seasons_count":1,"episodes_count":8,"episodes":8,"update":"2020-01-06 06:14:04","iframe_src":"//7741.svetacdn.in/IAF0wWTdNYZm/tv-series/6215"},{"id":6209,"title":"Следователь Протасов","kp_id":"837980","imdb_id":"tt3221464","world_art_id":null,"type":"serial","add":"2020-01-02 20:57:20","orig_title":"Sledovatel Protasov","year":"2013-01-01","translations":["Оригинальная дорожка"],"seasons_count":1,"episodes_count":16,"episodes":16,"update":"2020-01-04 18:11:03","iframe_src":"//7741.svetacdn.in/IAF0wWTdNYZm/tv-series/6209"},{"id":6208,"title":"Дневник свекрови","kp_id":"935918","imdb_id":"tt10919012","world_art_id":null,"type":"serial","add":"2020-01-02 20:47:23","orig_title":"Dnevnik svekrovi","year":"2016-01-01","translations":["Оригинальная дорожка"],"seasons_count":1,"episodes_count":8,"episodes":8,"update":"2020-01-04 17:54:11","iframe_src":"//7741.svetacdn.in/IAF0wWTdNYZm/tv-series/6208"},{"id":6207,"title":"Главные роли","kp_id":"445049","imdb_id":"tt3725100","world_art_id":null,"type":"serial","add":"2020-01-02 20:43:10","orig_title":"Glavnye roli","year":"2002-01-01","translations":["Оригинальная дорожка"],"seasons_count":1,"episodes_count":12,"episodes":12,"update":"2020-01-04 17:16:20","iframe_src":"//7741.svetacdn.in/IAF0wWTdNYZm/tv-series/6207"},{"id":5954,"title":"Вампирские войны","kp_id":"1142624","imdb_id":"tt7403736","world_art_id":null,"type":"serial","add":"2019-12-05 17:54:17","orig_title":"V-Wars","year":"2019-12-05","translations":["Полное дублирование (Невафильм | Нева-1)","Профессиональный (многоголосый закадровый) (LostFilm)"],"seasons_count":1,"episodes_count":10,"episodes":10,"update":"2020-01-06 14:16:15","iframe_src":"//7741.svetacdn.in/IAF0wWTdNYZm/tv-series/5954"},{"id":32653,"title":"Зита и Гита","kp_id":"79824","imdb_id":"tt0078222","world_art_id":null,"type":"movie","add":"2019-11-03 19:19:22","orig_title":"Seeta Aur Geeta","year":"1972-11-17","translations":["Полное дублирование"],"quality":"webdl","translation":"Полное дублирование","update":"2021-07-13 13:50:46","iframe_src":"//7741.svetacdn.in/IAF0wWTdNYZm/movie/32653"},{"id":5554,"title":"Рассвет","kp_id":"1214381","imdb_id":"tt8755226","world_art_id":null,"type":"serial","add":"2019-10-28 12:06:19","orig_title":"Daybreak","year":"2019-10-24","translations":["Профессиональный (многоголосый закадровый) (BaibaKo)","Полное дублирование (SDI Media | Iyuno-SDI Group Russia)","Профессиональный (многоголосый закадровый) (TVShows)"],"seasons_count":1,"episodes_count":10,"episodes":10,"update":"2020-01-05 05:08:44","iframe_src":"//7741.svetacdn.in/IAF0wWTdNYZm/tv-series/5554"},{"id":5537,"title":"Шоу МетодМена и РедМена","kp_id":"466534","imdb_id":"tt0406438","world_art_id":null,"type":"serial","add":"2019-10-27 15:05:16","orig_title":"Method & Red","year":"2004-06-16","translations":["Профессиональный (одноголосый закадровый) (Кураж-Бамбей)"],"seasons_count":1,"episodes_count":9,"episodes":9,"update":"2020-01-06 11:24:05","iframe_src":"//7741.svetacdn.in/IAF0wWTdNYZm/tv-series/5537"},{"id":5291,"title":"Преступник: Франция","kp_id":"1309151","imdb_id":"tt10986052","world_art_id":null,"type":"serial","add":"2019-09-25 11:51:29","orig_title":"Criminal: France","year":"2019-09-20","translations":["Профессиональный (многоголосый закадровый) (IdeaFilm)","Любительский (многоголосый закадровый) (Octopus)","Профессиональный (многоголосый закадровый) (HDrezka Studio)","Профессиональный (многоголосый закадровый) (LostFilm)"],"seasons_count":1,"episodes_count":3,"episodes":3,"update":"2020-01-06 06:09:17","iframe_src":"//7741.svetacdn.in/IAF0wWTdNYZm/tv-series/5291"},{"id":5128,"title":"Никогда не бывает поздно","kp_id":"1268351","imdb_id":null,"world_art_id":null,"type":"serial","add":"2019-09-02 19:23:54","orig_title":"Никогда не бывает поздно","year":"2019-09-01","translations":["Оригинальная дорожка"],"seasons_count":1,"episodes_count":4,"episodes":4,"update":"2020-01-06 06:17:05","iframe_src":"//7741.svetacdn.in/IAF0wWTdNYZm/tv-series/5128"},{"id":4708,"title":"А.Л.Ж.И.Р.","kp_id":"1044497","imdb_id":null,"world_art_id":null,"type":"serial","add":"2019-06-19 03:37:08","orig_title":"А.Л.Ж.И.Р.","year":"2019-06-17","translations":["Оригинальная дорожка"],"seasons_count":1,"episodes_count":11,"episodes":11,"update":"2020-01-05 16:54:26","iframe_src":"//7741.svetacdn.in/IAF0wWTdNYZm/tv-series/4708"},{"id":15560,"title":"Хихикающий доктор","kp_id":"15278","imdb_id":"tt0104139","world_art_id":null,"type":"movie","add":"2018-03-10 14:07:04","orig_title":"Dr. Giggles","year":"1992-10-23","translations":["Авторский (одноголосый закадровый) (Гаврилов Андрей)","Любительский (многоголосый закадровый) (Синема УС)","Авторский (одноголосый закадровый) (Гаврилов Андрей)","Авторский (одноголосый закадровый) (Володарский Леонид)","Авторский (одноголосый закадровый) (Живов Юрий)","Original (English)"],"quality":"bd","translation":"Авторский (одноголосый закадровый) (Гаврилов Андрей)","update":"2021-07-13 09:03:24","iframe_src":"//7741.svetacdn.in/IAF0wWTdNYZm/movie/15560"},{"id":14511,"title":"Симран","kp_id":"1029381","imdb_id":"tt6405126","world_art_id":null,"type":"movie","add":"2017-11-30 22:55:25","orig_title":"Simran","year":"2017-09-14","translations":["Любительский (многоголосый закадровый) (Синема УС)","Профессиональный (двухголосый закадровый) (Bollywood HD)"],"quality":"webdl","translation":"Любительский (многоголосый закадровый) (Синема УС)","update":"2021-07-13 19:24:13","iframe_src":"//7741.svetacdn.in/IAF0wWTdNYZm/movie/14511"},{"id":1043,"title":"Мэри убивает людей","kp_id":"1008782","imdb_id":"tt6236572","world_art_id":null,"type":"serial","add":"2017-02-26 07:09:43","orig_title":"Mary Kills People","year":"2017-01-25","translations":["Любительский (двухголосый закадровый) (Микрофон Включен | OnAir)","Любительский (двухголосый закадровый) (Shadow Dub Project)","Любительский (двухголосый закадровый) (Sunshine Studio)","Оригинальная дорожка","Профессиональный (многоголосый закадровый) (BaibaKo)"],"seasons_count":3,"episodes_count":18,"episodes":6,"update":"2020-01-04 17:46:48","iframe_src":"//7741.svetacdn.in/IAF0wWTdNYZm/tv-series/1043"},{"id":6948,"title":"Супербратья Марио","kp_id":"2282","imdb_id":"tt0108255","world_art_id":null,"type":"movie","add":"2016-11-01 12:32:41","orig_title":"Super Mario Bros.","year":"1993-05-28","translations":["Профессиональный (многоголосый закадровый)","Авторский (одноголосый закадровый) (Горчаков Василий)","Авторский (одноголосый закадровый) (Михалёв Алексей)","Авторский (одноголосый закадровый) (Пронин Антон)","Original (English)","Любительский (одноголосый закадровый)","Профессиональный (двухголосый закадровый) (Екатеринбург Арт)","Профессиональный (многоголосый закадровый)"],"quality":"bd","translation":"Профессиональный (многоголосый закадровый)","update":"2021-07-13 08:56:48","iframe_src":"//7741.svetacdn.in/IAF0wWTdNYZm/movie/6948"},{"id":3816,"title":"Лондон 1920","kp_id":"976104","imdb_id":"tt5638500","world_art_id":null,"type":"movie","add":"2016-07-10 18:02:13","orig_title":"1920 London","year":"2016-05-06","translations":["Любительский (двухголосый закадровый)","Любительский (многоголосый закадровый) (ICG)","Профессиональный (многоголосый закадровый) (ZEE TV)"],"quality":"webdl","translation":"Любительский (двухголосый закадровый)","update":"2021-07-13 19:25:08","iframe_src":"//7741.svetacdn.in/IAF0wWTdNYZm/movie/3816"},{"id":3093,"title":"Девушка №6","kp_id":"3541","imdb_id":"tt0116414","world_art_id":null,"type":"movie","add":"2016-06-13 15:49:32","orig_title":"Girl 6","year":"1996-03-22","translations":["Авторский (одноголосый закадровый) (Гаврилов Андрей)","Original (English)","Профессиональный (многоголосый закадровый) (Первый канал | ОРТ)"],"quality":"bd","translation":"Авторский (одноголосый закадровый) (Гаврилов Андрей)","update":"2021-07-13 09:12:57","iframe_src":"//7741.svetacdn.in/IAF0wWTdNYZm/movie/3093"},{"id":1427,"title":"Перевозчик","kp_id":"6206","imdb_id":"tt0293662","world_art_id":null,"type":"movie","add":"2016-04-21 13:05:23","orig_title":"The Transporter","year":"2002-10-02","translations":["Полное дублирование","Original (English)","Авторский (одноголосый закадровый) (Чадов Михаил)","Авторский (одноголосый закадровый) (Гаврилов Андрей)","Авторский (одноголосый закадровый) (Рудой Евгений)","Авторский (одноголосый закадровый) (Живов Юрий)","Полное дублирование","Original (English)","Профессиональный (многоголосый закадровый)"],"quality":"bd","translation":"Полное дублирование","update":"2021-07-13 13:36:59","iframe_src":"//7741.svetacdn.in/IAF0wWTdNYZm/movie/1427"}],"current_page":377,"first_page_url":"https://videocdn.tv/api/short?limit=100&api_token=6Onb1W1alEUrBcKJZD3GoKBbWyAl2uG2&cache3377=3377&page=1","from":37601,"last_page":701,"last_page_url":"https://videocdn.tv/api/short?limit=100&api_token=6Onb1W1alEUrBcKJZD3GoKBbWyAl2uG2&cache3377=3377&page=701","next_page_url":"https://videocdn.tv/api/short?limit=100&api_token=6Onb1W1alEUrBcKJZD3GoKBbWyAl2uG2&cache3377=3377&page=378","path":"https://videocdn.tv/api/short","per_page":100,"prev_page_url":"https://videocdn.tv/api/short?limit=100&api_token=6Onb1W1alEUrBcKJZD3GoKBbWyAl2uG2&cache3377=3377&page=376","to":37640,"total":70041}