{"result":true,"data":[{"id":48055,"title":"Мусоровозик. Рождественские приключения","kp_id":"4292278","imdb_id":"tt13458584","world_art_id":null,"type":"movie","add":"2021-02-19 08:47:05","orig_title":"A Trash Truck Christmas","year":"2020-12-11","translations":["Любительский (двухголосый закадровый) (FilmPlay)"],"quality":"webdl","translation":"Любительский (двухголосый закадровый) (FilmPlay)","update":"2021-02-19 11:18:33","iframe_src":"//83.svetacdn.in/PfJ50H0ZBPg3/movie/48055"},{"id":48035,"title":"Моя жизнь с Джеймсом Дином","kp_id":"959826","imdb_id":"tt5356260","world_art_id":null,"type":"movie","add":"2021-02-18 18:59:19","orig_title":"Ma vie avec James Dean","year":"2017-11-15","translations":["Любительский (одноголосый закадровый) (Ашмарин Анатолий)"],"quality":"hdrip","translation":"Любительский (одноголосый закадровый) (Ашмарин Анатолий)","update":"2021-02-19 05:19:12","iframe_src":"//83.svetacdn.in/PfJ50H0ZBPg3/movie/48035"},{"id":48034,"title":"Смерть на винограднике","kp_id":"1311354","imdb_id":"tt11096446","world_art_id":null,"type":"movie","add":"2021-02-18 18:48:52","orig_title":"Murder in the Vineyard","year":"2020-07-18","translations":["[EN] Original (English)"],"quality":"webdl","translation":"[EN] Original (English)","update":"2021-02-19 05:17:20","iframe_src":"//83.svetacdn.in/PfJ50H0ZBPg3/movie/48034"},{"id":48032,"title":"Только для взрослых. Выпуск третий","kp_id":"633686","imdb_id":null,"world_art_id":null,"type":"movie","add":"2021-02-18 06:36:04","orig_title":"Только для взрослых. Выпуск третий","year":"1974-01-01","translations":["Оригинальная дорожка"],"quality":"webdl","translation":"Оригинальная дорожка","update":"2021-02-18 12:24:45","iframe_src":"//83.svetacdn.in/PfJ50H0ZBPg3/movie/48032"},{"id":48029,"title":"Августина","kp_id":"645108","imdb_id":"tt2098628","world_art_id":null,"type":"movie","add":"2021-02-18 06:00:24","orig_title":"Augustine","year":"2012-05-19","translations":["Профессиональный (двухголосый закадровый) (Elrom)"],"quality":"bd","translation":"Профессиональный (двухголосый закадровый) (Elrom)","update":"2021-02-18 12:27:06","iframe_src":"//83.svetacdn.in/PfJ50H0ZBPg3/movie/48029"},{"id":48001,"title":"Белые вороны","kp_id":"819257","imdb_id":"tt3409270","world_art_id":null,"type":"movie","add":"2021-02-16 22:42:38","orig_title":"Baby Doll","year":"2020-01-01","translations":["Любительский (многоголосый закадровый) (AlphaProject)"],"quality":"webdl","translation":"Любительский (многоголосый закадровый) (AlphaProject)","update":"2021-02-18 14:46:20","iframe_src":"//83.svetacdn.in/PfJ50H0ZBPg3/movie/48001"},{"id":46052,"title":"Серебряные коньки","kp_id":"1225587","imdb_id":"tt10525672","world_art_id":null,"type":"movie","add":"2020-12-14 08:10:05","orig_title":"Serebryanye konki","year":"2020-10-11","translations":["Оригинальная дорожка"],"quality":"webdl","translation":"Оригинальная дорожка","update":"2021-02-18 10:33:09","iframe_src":"//83.svetacdn.in/PfJ50H0ZBPg3/movie/46052"},{"id":44169,"title":"Кто меня толкнул?","kp_id":"1117948","imdb_id":null,"world_art_id":null,"type":"movie","add":"2020-10-06 17:24:39","orig_title":"Кто меня толкнул?","year":"1973-01-01","translations":["Оригинальная дорожка"],"quality":"webdl","translation":"Оригинальная дорожка","update":"2021-02-18 10:30:44","iframe_src":"//83.svetacdn.in/PfJ50H0ZBPg3/movie/44169"},{"id":41956,"title":"Воплощенная мечта","kp_id":"818473","imdb_id":"tt12067142","world_art_id":null,"type":"movie","add":"2020-07-23 18:58:46","orig_title":"Voploschyonnaya mechta","year":"1957-01-01","translations":["Оригинальная дорожка"],"quality":"webdl","translation":"Оригинальная дорожка","update":"2021-02-18 12:25:46","iframe_src":"//83.svetacdn.in/PfJ50H0ZBPg3/movie/41956"},{"id":24798,"title":"Ночь в баре Маккула","kp_id":"773","imdb_id":"tt0203755","world_art_id":null,"type":"movie","add":"2019-04-17 22:06:54","orig_title":"One Night at McCool's","year":"2001-04-19","translations":["Профессиональный (многоголосый закадровый)","Авторский (одноголосый закадровый) (Карповский Антон)","[EN] Original (English)","Профессиональный (многоголосый закадровый)","Профессиональный (многоголосый закадровый) (НТВ)"],"quality":"webdl","translation":"Профессиональный (многоголосый закадровый)","update":"2021-02-18 10:44:32","iframe_src":"//83.svetacdn.in/PfJ50H0ZBPg3/movie/24798"},{"id":20237,"title":"Эффект спускового курка","kp_id":"2381","imdb_id":"tt0117965","world_art_id":null,"type":"movie","add":"2018-11-21 09:00:02","orig_title":"The Trigger Effect","year":"1996-08-30","translations":["Профессиональный (многоголосый закадровый)","[EN] Original (English)","Авторский (одноголосый закадровый) (Живов Юрий)","[EN] Original (English)","Профессиональный (двухголосый закадровый) (РТР | Россия)","Профессиональный (многоголосый закадровый)"],"quality":"webdl","translation":"Профессиональный (многоголосый закадровый)","update":"2021-02-18 12:19:19","iframe_src":"//83.svetacdn.in/PfJ50H0ZBPg3/movie/20237"},{"id":7844,"title":"Любовь к собакам обязательна","kp_id":"84013","imdb_id":"tt0417001","world_art_id":null,"type":"movie","add":"2016-12-04 08:36:27","orig_title":"Must Love Dogs","year":"2005-07-21","translations":["Полное дублирование","Полное дублирование (Мосфильм)","[EN] Original (English)","Профессиональный (двухголосый закадровый)"],"quality":"webdl","translation":"Полное дублирование","update":"2021-02-18 10:48:50","iframe_src":"//83.svetacdn.in/PfJ50H0ZBPg3/movie/7844"},{"id":5228,"title":"Повелитель мух","kp_id":"28191","imdb_id":"tt0100054","world_art_id":null,"type":"movie","add":"2016-09-13 09:07:17","orig_title":"Lord of the Flies","year":"1990-03-16","translations":["Профессиональный (многоголосый закадровый)","Авторский (одноголосый закадровый) (Михалёв Алексей)","[EN] Original (English)","Профессиональный (двухголосый закадровый) (SDI Media | Iyuno-SDI Group Russia)","Профессиональный (многоголосый закадровый)"],"quality":"bd","translation":"Профессиональный (многоголосый закадровый)","update":"2021-02-18 10:38:28","iframe_src":"//83.svetacdn.in/PfJ50H0ZBPg3/movie/5228"},{"id":4156,"title":"Короткое замыкание 2","kp_id":"16471","imdb_id":"tt0096101","world_art_id":null,"type":"movie","add":"2016-07-25 15:30:41","orig_title":"Short Circuit 2","year":"1988-07-06","translations":["Полное дублирование","Авторский (одноголосый закадровый) (Дольский Андрей)","Авторский (одноголосый закадровый) (Карповский Антон)","Авторский (одноголосый закадровый) (Кузнецов Сергей)","Авторский (одноголосый закадровый) (Прямостанов Павел)","Полное дублирование","[EN] Original (English)"],"quality":"bd","translation":"Полное дублирование","update":"2021-02-19 10:51:11","iframe_src":"//83.svetacdn.in/PfJ50H0ZBPg3/movie/4156"},{"id":4155,"title":"Короткое замыкание","kp_id":"18282","imdb_id":"tt0091949","world_art_id":null,"type":"movie","add":"2016-07-25 15:29:13","orig_title":"Short Circuit","year":"1986-05-09","translations":["Полное дублирование","Профессиональный (многоголосый закадровый)","Авторский (одноголосый закадровый) (Дольский Андрей)","Авторский (одноголосый закадровый) (Кузнецов Сергей)","Авторский (одноголосый закадровый) (Живов Юрий)","Профессиональный (многоголосый закадровый) (СТС)","Полное дублирование","[EN] Original (English)"],"quality":"bd","translation":"Полное дублирование","update":"2021-02-19 10:34:44","iframe_src":"//83.svetacdn.in/PfJ50H0ZBPg3/movie/4155"},{"id":3776,"title":"Щепка","kp_id":"17287","imdb_id":"tt0108162","world_art_id":null,"type":"movie","add":"2016-07-08 12:32:05","orig_title":"Sliver","year":"1993-05-21","translations":["Профессиональный (многоголосый закадровый)","Авторский (одноголосый закадровый) (Михалёв Алексей)","Авторский (одноголосый закадровый) (Пронин Антон)","[EN] Original (English)","Профессиональный (многоголосый закадровый) (НТВ)","Профессиональный (многоголосый закадровый) (Премьер Видео Фильм)"],"quality":"hdtv","translation":"Профессиональный (многоголосый закадровый)","update":"2021-02-19 11:05:28","iframe_src":"//83.svetacdn.in/PfJ50H0ZBPg3/movie/3776"},{"id":3734,"title":"Зимняя кость","kp_id":"455627","imdb_id":"tt1399683","world_art_id":null,"type":"movie","add":"2016-07-06 14:17:59","orig_title":"Winter's Bone","year":"2010-01-21","translations":["Профессиональный (двухголосый закадровый)","[EN] Original (English)","Профессиональный (двухголосый закадровый) (Elrom)","Профессиональный (многоголосый закадровый) (Культура | Россия К)"],"quality":"bd","translation":"Профессиональный (двухголосый закадровый)","update":"2021-02-18 12:22:58","iframe_src":"//83.svetacdn.in/PfJ50H0ZBPg3/movie/3734"},{"id":3062,"title":"Телохранитель","kp_id":"8143","imdb_id":"tt0103855","world_art_id":null,"type":"movie","add":"2016-06-09 17:46:27","orig_title":"The Bodyguard","year":"1992-11-25","translations":["Полное дублирование","Авторский (одноголосый закадровый) (Гаврилов Андрей)","Авторский (одноголосый закадровый) (Горчаков Василий)","Авторский (одноголосый закадровый) (Живов Юрий)","Полное дублирование","[EN] Original (English)","Профессиональный (двухголосый закадровый) (НТВ)"],"quality":"bd","translation":"Полное дублирование","update":"2021-02-18 12:01:32","iframe_src":"//83.svetacdn.in/PfJ50H0ZBPg3/movie/3062"},{"id":2334,"title":"Мужской стриптиз","kp_id":"7732","imdb_id":"tt0119164","world_art_id":null,"type":"movie","add":"2016-05-19 05:39:38","orig_title":"The Full Monty","year":"1997-08-13","translations":["Профессиональный (двухголосый закадровый)","[EN] Original (English)","Авторский (одноголосый закадровый) (Есарев Дмитрий)","Авторский (одноголосый закадровый) (Карповский Антон)","[EN] Original (English)","Профессиональный (двухголосый закадровый) (Lazer Video | Лазер видео)","Профессиональный (двухголосый закадровый) (Премьер Видео Фильм)"],"quality":"bd","translation":"Профессиональный (двухголосый закадровый)","update":"2021-02-18 12:10:18","iframe_src":"//83.svetacdn.in/PfJ50H0ZBPg3/movie/2334"},{"id":1757,"title":"Бешеные псы","kp_id":"394","imdb_id":"tt0105236","world_art_id":null,"type":"movie","add":"2016-04-30 17:20:23","orig_title":"Reservoir Dogs","year":"1992-01-21","translations":["Профессиональный (многоголосый)","Авторский (одноголосый закадровый) (Гоблин | Пучков Дмитрий)","Авторский (одноголосый закадровый) (Гаврилов Андрей)","Авторский (одноголосый закадровый) (Гоблин | Пучков Дмитрий)","Авторский (одноголосый закадровый) (Горчаков Василий)","Авторский (одноголосый закадровый) (Сербин Юрий)","Авторский (одноголосый закадровый) (Живов Юрий)","[EN] Original (English)","Профессиональный (многоголосый закадровый)","Профессиональный (многоголосый закадровый) (CP Digital)","Профессиональный (многоголосый закадровый) (Екатеринбург Арт)","Профессиональный (многоголосый закадровый) (НТВ)","Профессиональный (многоголосый закадровый) (РТР | Россия)","Профессиональный (многоголосый закадровый) (Twister)"],"quality":"bd","translation":"Профессиональный (многоголосый)","update":"2021-02-19 07:15:50","iframe_src":"//83.svetacdn.in/PfJ50H0ZBPg3/movie/1757"}],"current_page":783,"first_page_url":"https://videocdn.tv/api/short?limit=100&api_token=RgFQdUIR2dRmwv8iYa5SnFNgnw3vpjKj&cache3783=3783&page=1","from":78201,"last_page":719,"last_page_url":"https://videocdn.tv/api/short?limit=100&api_token=RgFQdUIR2dRmwv8iYa5SnFNgnw3vpjKj&cache3783=3783&page=719","next_page_url":null,"path":"https://videocdn.tv/api/short","per_page":100,"prev_page_url":"https://videocdn.tv/api/short?limit=100&api_token=RgFQdUIR2dRmwv8iYa5SnFNgnw3vpjKj&cache3783=3783&page=782","to":78220,"total":71805}