{"result":true,"data":[{"id":36308,"title":"Обман","kp_id":"195616","imdb_id":"tt0427470","world_art_id":null,"type":"movie","add":"2020-02-16 04:31:46","orig_title":"The Lookout","year":"2007-03-09","translations":["Профессиональный (многоголосый закадровый)"],"quality":"bd","translation":"Профессиональный (многоголосый закадровый)","update":"2020-02-16 10:55:30","iframe_src":"//8543.svetacdn.in/si4jsFRrtgrT/movie/36308"},{"id":36306,"title":"Риф. Новые приключения","kp_id":"1297353","imdb_id":"tt10920376","world_art_id":null,"type":"movie","add":"2020-02-15 13:47:40","orig_title":"Go Fish","year":"2019-11-19","translations":["Полное дублирование"],"quality":"webdl","translation":"Полное дублирование","update":"2020-02-15 19:09:36","iframe_src":"//8543.svetacdn.in/si4jsFRrtgrT/movie/36306"},{"id":36305,"title":"С Новым годом!","kp_id":"1134893","imdb_id":"tt8265174","world_art_id":null,"type":"movie","add":"2020-02-15 13:35:23","orig_title":"BÚÉK","year":"2018-12-06","translations":["Любительский (многоголосый закадровый) (Синема УС)"],"quality":"webdl","translation":"Любительский (многоголосый закадровый) (Синема УС)","update":"2020-02-15 21:29:24","iframe_src":"//8543.svetacdn.in/si4jsFRrtgrT/movie/36305"},{"id":36302,"title":"Попутчик: Дорога смерти","kp_id":"276614","imdb_id":"tt0934459","world_art_id":null,"type":"movie","add":"2020-02-15 13:25:19","orig_title":"The Hitchhiker","year":"2007-03-05","translations":["Профессиональный (многоголосый закадровый)"],"quality":"dvdrip","translation":"Профессиональный (многоголосый закадровый)","update":"2020-02-15 21:31:09","iframe_src":"//8543.svetacdn.in/si4jsFRrtgrT/movie/36302"},{"id":36300,"title":"Незнакомец","kp_id":"4389","imdb_id":"tt0113965","world_art_id":null,"type":"movie","add":"2020-02-15 13:17:31","orig_title":"Never Talk to Strangers","year":"1995-10-20","translations":["Профессиональный (многоголосый закадровый)"],"quality":"bd","translation":"Профессиональный (многоголосый закадровый)","update":"2020-02-15 21:40:57","iframe_src":"//8543.svetacdn.in/si4jsFRrtgrT/movie/36300"},{"id":36299,"title":"Драка девочек","kp_id":"626027","imdb_id":"tt1956502","world_art_id":null,"type":"movie","add":"2020-02-15 13:14:53","orig_title":"Girl Fight","year":"2011-10-03","translations":["Профессиональный (двухголосый закадровый) (NLS)"],"quality":"hdtv","translation":"Профессиональный (двухголосый закадровый) (NLS)","update":"2020-02-15 21:31:49","iframe_src":"//8543.svetacdn.in/si4jsFRrtgrT/movie/36299"},{"id":36293,"title":"Кёртис","kp_id":"1063258","imdb_id":"tt6774588","world_art_id":null,"type":"movie","add":"2020-02-15 09:56:58","orig_title":"Curtiz","year":"2018-09-01","translations":["Любительский (многоголосый закадровый) (Синема УС)"],"quality":"webdl","translation":"Любительский (многоголосый закадровый) (Синема УС)","update":"2020-02-15 13:52:50","iframe_src":"//8543.svetacdn.in/si4jsFRrtgrT/movie/36293"},{"id":36292,"title":"Дедушки","kp_id":"1115560","imdb_id":"tt8092586","world_art_id":null,"type":"movie","add":"2020-02-15 09:53:53","orig_title":"Abuelos","year":"2019-03-17","translations":["Любительский (многоголосый закадровый) (Синема УС)"],"quality":"webdl","translation":"Любительский (многоголосый закадровый) (Синема УС)","update":"2020-02-15 13:53:32","iframe_src":"//8543.svetacdn.in/si4jsFRrtgrT/movie/36292"},{"id":36291,"title":"Зимой","kp_id":"1063893","imdb_id":"tt6749002","world_art_id":null,"type":"movie","add":"2020-02-15 09:51:30","orig_title":"In Winter","year":"2017-01-01","translations":["Любительский (многоголосый закадровый) (Синема УС)"],"quality":"webdl","translation":"Любительский (многоголосый закадровый) (Синема УС)","update":"2020-02-15 13:54:19","iframe_src":"//8543.svetacdn.in/si4jsFRrtgrT/movie/36291"},{"id":36290,"title":"Там, где я никогда не жила","kp_id":"1074092","imdb_id":"tt7382828","world_art_id":null,"type":"movie","add":"2020-02-15 09:48:38","orig_title":"Dove non ho mai abitato","year":"2017-10-12","translations":["Любительский (многоголосый закадровый) (Синема УС)"],"quality":"bd","translation":"Любительский (многоголосый закадровый) (Синема УС)","update":"2020-02-15 13:55:24","iframe_src":"//8543.svetacdn.in/si4jsFRrtgrT/movie/36290"},{"id":36289,"title":"Без Границ","kp_id":"1016464","imdb_id":"tt6173418","world_art_id":null,"type":"movie","add":"2020-02-15 00:13:03","orig_title":"Unconditional","year":"2018-06-28","translations":["Любительский (многоголосый закадровый) (Синема УС)"],"quality":"webdl","translation":"Любительский (многоголосый закадровый) (Синема УС)","update":"2020-02-15 23:11:27","iframe_src":"//8543.svetacdn.in/si4jsFRrtgrT/movie/36289"},{"id":36288,"title":"Поэтический слэм","kp_id":"1094249","imdb_id":"tt7006476","world_art_id":null,"type":"movie","add":"2020-02-15 00:09:42","orig_title":"Poetry Slammed","year":"2018-06-01","translations":["Любительский (многоголосый закадровый) (Синема УС)"],"quality":"webdl","translation":"Любительский (многоголосый закадровый) (Синема УС)","update":"2020-02-15 23:09:47","iframe_src":"//8543.svetacdn.in/si4jsFRrtgrT/movie/36288"},{"id":36287,"title":"Живите и процветайте","kp_id":"1345937","imdb_id":"tt7502828","world_art_id":null,"type":"movie","add":"2020-02-15 00:03:56","orig_title":"Khair wa Barakah","year":"2017-08-30","translations":["Любительский (многоголосый закадровый) (Синема УС)"],"quality":"webdl","translation":"Любительский (многоголосый закадровый) (Синема УС)","update":"2020-02-15 23:06:31","iframe_src":"//8543.svetacdn.in/si4jsFRrtgrT/movie/36287"},{"id":36238,"title":"Белый медведь","kp_id":"21554","imdb_id":"tt0167132","world_art_id":null,"type":"movie","add":"2020-02-13 19:27:02","orig_title":"Der Eisbär","year":"1998-11-12","translations":["Профессиональный (одноголосый закадровый)"],"quality":"dvdrip","translation":"Профессиональный (одноголосый закадровый)","update":"2020-02-15 14:17:39","iframe_src":"//8543.svetacdn.in/si4jsFRrtgrT/movie/36238"},{"id":36237,"title":"Последние дни","kp_id":"77832","imdb_id":"tt0403217","world_art_id":null,"type":"movie","add":"2020-02-13 19:24:58","orig_title":"Last Days","year":"2005-05-13","translations":["Авторский (одноголосый закадровый) (Карповский Антон)"],"quality":"webdl","translation":"Авторский (одноголосый закадровый) (Карповский Антон)","update":"2020-02-15 14:18:17","iframe_src":"//8543.svetacdn.in/si4jsFRrtgrT/movie/36237"},{"id":34714,"title":"Давай разведемся!","kp_id":"1192366","imdb_id":"tt10484902","world_art_id":null,"type":"movie","add":"2020-01-04 07:26:38","orig_title":"Davay razvedemsya!","year":"2019-11-21","translations":["Оригинальная дорожка","Оригинальная дорожка"],"quality":"webdl","translation":"Оригинальная дорожка","update":"2020-02-16 10:54:21","iframe_src":"//8543.svetacdn.in/si4jsFRrtgrT/movie/34714"},{"id":34520,"title":"Реальная любовь в Нью-Йорке","kp_id":"1138614","imdb_id":"tt6515910","world_art_id":null,"type":"movie","add":"2019-12-27 13:05:55","orig_title":"The Kindness of Strangers","year":"2019-02-07","translations":["Профессиональный (многоголосый закадровый) (iTunes)"],"quality":"webdl","translation":"Профессиональный (многоголосый закадровый) (iTunes)","update":"2020-02-15 21:29:05","iframe_src":"//8543.svetacdn.in/si4jsFRrtgrT/movie/34520"},{"id":34356,"title":"Фабрика грёз","kp_id":"1135113","imdb_id":"tt8157074","world_art_id":null,"type":"movie","add":"2019-12-22 07:24:07","orig_title":"Traumfabrik","year":"2019-06-24","translations":["Полное дублирование"],"quality":"webdl","translation":"Полное дублирование","update":"2020-02-15 14:21:02","iframe_src":"//8543.svetacdn.in/si4jsFRrtgrT/movie/34356"},{"id":22276,"title":"Министр","kp_id":"978692","imdb_id":"tt5707720","world_art_id":null,"type":"movie","add":"2019-02-13 23:56:09","orig_title":"Il Ministro","year":"2016-05-05","translations":["Профессиональный (многоголосый закадровый) (iTunes)"],"quality":"webdl","translation":"Профессиональный (многоголосый закадровый) (iTunes)","update":"2020-02-15 14:18:47","iframe_src":"//8543.svetacdn.in/si4jsFRrtgrT/movie/22276"},{"id":3814,"title":"Амнезия","kp_id":"4492","imdb_id":"tt0315297","world_art_id":null,"type":"movie","add":"2016-07-08 15:04:20","orig_title":"Twisted","year":"2004-02-23","translations":["Полное дублирование"],"quality":"hdtv","translation":"Полное дублирование","update":"2020-02-15 14:19:44","iframe_src":"//8543.svetacdn.in/si4jsFRrtgrT/movie/3814"}],"current_page":774,"first_page_url":"https://videocdn.tv/api/short?limit=100&api_token=X6EwAUfE5M9xbo7y0Bp0aPf3uXxG2KLL&cache3774=3774&page=1","from":77301,"last_page":605,"last_page_url":"https://videocdn.tv/api/short?limit=100&api_token=X6EwAUfE5M9xbo7y0Bp0aPf3uXxG2KLL&cache3774=3774&page=605","next_page_url":null,"path":"https://videocdn.tv/api/short","per_page":100,"prev_page_url":"https://videocdn.tv/api/short?limit=100&api_token=X6EwAUfE5M9xbo7y0Bp0aPf3uXxG2KLL&cache3774=3774&page=773","to":77320,"total":60438}