{"result":true,"data":[{"id":13036,"title":"Пятый сезон","kp_id":"694613","imdb_id":"tt2298820","world_art_id":null,"type":"movie","add":"2017-08-17 22:30:46","orig_title":"La cinquième saison","year":"2012-09-06","translations":["Любительский (одноголосый закадровый)"],"quality":"dvdrip","translation":"Любительский (одноголосый закадровый)","update":"2017-08-18 06:00:52","iframe_src":"//83.svetacdn.in/PfJ50H0ZBPg3/movie/13036"},{"id":13035,"title":"Что было прошлой ночью","kp_id":"933442","imdb_id":"tt5028822","world_art_id":null,"type":"movie","add":"2017-08-17 21:53:45","orig_title":"What Happened Last Night","year":"2016-11-04","translations":["Любительский (многоголосый закадровый) (Синема УС)"],"quality":"webdl","translation":"Любительский (многоголосый закадровый) (Синема УС)","update":"2017-08-18 06:08:10","iframe_src":"//83.svetacdn.in/PfJ50H0ZBPg3/movie/13035"},{"id":13006,"title":"Чeловеческая многоножка 2","kp_id":"507910","imdb_id":"tt1530509","world_art_id":null,"type":"movie","add":"2017-08-17 07:17:06","orig_title":"The Human Centipede II","year":"2011-09-22","translations":["Профессиональный (многоголосый закадровый)"],"quality":"bd","translation":"Профессиональный (многоголосый закадровый)","update":"2017-08-17 13:57:20","iframe_src":"//83.svetacdn.in/PfJ50H0ZBPg3/movie/13006"},{"id":13005,"title":"Мученицы","kp_id":"313524","imdb_id":"tt1029234","world_art_id":null,"type":"movie","add":"2017-08-17 07:06:26","orig_title":"Martyrs","year":"2008-08-19","translations":["Профессиональный (многоголосый закадровый) (CP Digital)"],"quality":"bd","translation":"Профессиональный (многоголосый закадровый) (CP Digital)","update":"2017-08-17 14:45:24","iframe_src":"//83.svetacdn.in/PfJ50H0ZBPg3/movie/13005"},{"id":13004,"title":"Преследуемая своим доктором: Возвращение","kp_id":"1000270","imdb_id":"tt5989054","world_art_id":null,"type":"movie","add":"2017-08-17 04:27:46","orig_title":"Stalked by My Doctor: The Return","year":"2016-09-05","translations":["Любительский (многоголосый закадровый) (Синема УС)"],"quality":"hdtv","translation":"Любительский (многоголосый закадровый) (Синема УС)","update":"2017-08-17 06:43:58","iframe_src":"//83.svetacdn.in/PfJ50H0ZBPg3/movie/13004"},{"id":13002,"title":"Пока ты ходил на свидания","kp_id":"1009232","imdb_id":"tt6295106","world_art_id":null,"type":"movie","add":"2017-08-17 04:25:16","orig_title":"While You Were Dating","year":"2017-02-12","translations":["Любительский (многоголосый закадровый) (Синема УС)"],"quality":"hdtv","translation":"Любительский (многоголосый закадровый) (Синема УС)","update":"2017-08-17 06:44:25","iframe_src":"//83.svetacdn.in/PfJ50H0ZBPg3/movie/13002"},{"id":13000,"title":"Стокгольм, любовь моя","kp_id":null,"imdb_id":"tt6107412","world_art_id":null,"type":"movie","add":"2017-08-17 04:23:06","orig_title":"Stockholm, My Love","year":"2016-11-16","translations":["Любительский (многоголосый закадровый) (Синема УС)"],"quality":"bd","translation":"Любительский (многоголосый закадровый) (Синема УС)","update":"2017-08-17 06:41:49","iframe_src":"//83.svetacdn.in/PfJ50H0ZBPg3/movie/13000"},{"id":12998,"title":"О Боже... Мы в фильме ужасов","kp_id":"856996","imdb_id":"tt3720468","world_art_id":null,"type":"movie","add":"2017-08-17 04:20:00","orig_title":"OMG... We're in a Horror Movie","year":"2016-12-09","translations":["Любительский (многоголосый закадровый) (Синема УС)"],"quality":"bd","translation":"Любительский (многоголосый закадровый) (Синема УС)","update":"2017-08-17 07:27:51","iframe_src":"//83.svetacdn.in/PfJ50H0ZBPg3/movie/12998"},{"id":12972,"title":"Невеста и предрассудки","kp_id":"24204","imdb_id":"tt0361411","world_art_id":null,"type":"movie","add":"2017-08-15 14:38:55","orig_title":"Bride & Prejudice","year":"2004-10-06","translations":["Полное дублирование"],"quality":"hdtv","translation":"Полное дублирование","update":"2017-08-17 05:46:52","iframe_src":"//83.svetacdn.in/PfJ50H0ZBPg3/movie/12972"},{"id":12971,"title":"Врата в 3D","kp_id":"422398","imdb_id":"tt1085779","world_art_id":null,"type":"movie","add":"2017-08-15 14:37:46","orig_title":"The Hole","year":"2009-09-11","translations":["Полное дублирование"],"quality":"bd","translation":"Полное дублирование","update":"2017-08-17 05:45:56","iframe_src":"//83.svetacdn.in/PfJ50H0ZBPg3/movie/12971"},{"id":12970,"title":"Неотразимая Тамара","kp_id":"471108","imdb_id":"tt1486190","world_art_id":null,"type":"movie","add":"2017-08-15 14:36:14","orig_title":"Tamara Drewe","year":"2010-05-18","translations":["Полное дублирование"],"quality":"bd","translation":"Полное дублирование","update":"2017-08-17 05:33:56","iframe_src":"//83.svetacdn.in/PfJ50H0ZBPg3/movie/12970"},{"id":12969,"title":"Душевная кухня","kp_id":"430571","imdb_id":"tt1244668","world_art_id":null,"type":"movie","add":"2017-08-15 14:35:09","orig_title":"Soul Kitchen","year":"2009-09-10","translations":["Полное дублирование"],"quality":"bd","translation":"Полное дублирование","update":"2017-08-17 05:32:06","iframe_src":"//83.svetacdn.in/PfJ50H0ZBPg3/movie/12969"},{"id":12968,"title":"Брак по-итальянски","kp_id":"26821","imdb_id":"tt0058335","world_art_id":null,"type":"movie","add":"2017-08-15 14:34:10","orig_title":"Matrimonio all'italiana","year":"1964-12-19","translations":["Полное дублирование"],"quality":"bd","translation":"Полное дублирование","update":"2017-08-17 05:28:53","iframe_src":"//83.svetacdn.in/PfJ50H0ZBPg3/movie/12968"},{"id":12967,"title":"Затерянный мир","kp_id":"180960","imdb_id":"tt0457400","world_art_id":null,"type":"movie","add":"2017-08-15 14:33:06","orig_title":"Land of the Lost","year":"2009-06-05","translations":["Полное дублирование"],"quality":"bd","translation":"Полное дублирование","update":"2017-08-17 04:53:32","iframe_src":"//83.svetacdn.in/PfJ50H0ZBPg3/movie/12967"},{"id":12966,"title":"Приколисты","kp_id":"409348","imdb_id":"tt1201167","world_art_id":null,"type":"movie","add":"2017-08-15 14:32:06","orig_title":"Funny People","year":"2009-07-20","translations":["Полное дублирование"],"quality":"bd","translation":"Полное дублирование","update":"2017-08-17 04:51:24","iframe_src":"//83.svetacdn.in/PfJ50H0ZBPg3/movie/12966"},{"id":12965,"title":"Супруги Морган в бегах","kp_id":"452857","imdb_id":"tt1314228","world_art_id":null,"type":"movie","add":"2017-08-15 14:30:47","orig_title":"Did You Hear About the Morgans?","year":"2009-12-18","translations":["Полное дублирование"],"quality":"bd","translation":"Полное дублирование","update":"2017-08-17 04:49:52","iframe_src":"//83.svetacdn.in/PfJ50H0ZBPg3/movie/12965"},{"id":12916,"title":"Приливы","kp_id":"661915","imdb_id":"tt2201251","world_art_id":null,"type":"movie","add":"2017-08-10 13:39:34","orig_title":"The Hot Flashes","year":"2013-07-12","translations":["Профессиональный (многоголосый закадровый)"],"quality":"webdl","translation":"Профессиональный (многоголосый закадровый)","update":"2017-08-17 04:47:05","iframe_src":"//83.svetacdn.in/PfJ50H0ZBPg3/movie/12916"},{"id":12915,"title":"У нас есть Папа!","kp_id":"570063","imdb_id":"tt1456472","world_art_id":null,"type":"movie","add":"2017-08-10 13:38:43","orig_title":"Habemus Papam","year":"2011-04-15","translations":["Профессиональный (многоголосый закадровый)"],"quality":"hdtv","translation":"Профессиональный (многоголосый закадровый)","update":"2017-08-17 04:45:08","iframe_src":"//83.svetacdn.in/PfJ50H0ZBPg3/movie/12915"},{"id":12914,"title":"10 правил соблазнения","kp_id":"647085","imdb_id":"tt2100371","world_art_id":null,"type":"movie","add":"2017-08-10 13:37:29","orig_title":"10 regole per fare innamorare","year":"2012-03-16","translations":["Профессиональный (многоголосый закадровый)"],"quality":"hdtv","translation":"Профессиональный (многоголосый закадровый)","update":"2017-08-17 04:44:01","iframe_src":"//83.svetacdn.in/PfJ50H0ZBPg3/movie/12914"},{"id":6295,"title":"Чeловеческая многоножка 3","kp_id":"599868","imdb_id":"tt1883367","world_art_id":null,"type":"movie","add":"2016-10-14 07:13:01","orig_title":"The Human Centipede III","year":"2015-05-22","translations":["Любительский (двухголосый закадровый)","Любительский (двухголосый закадровый) (DeadSno & den904)"],"quality":"webdl","translation":"Любительский (двухголосый закадровый)","update":"2017-08-17 09:53:42","iframe_src":"//83.svetacdn.in/PfJ50H0ZBPg3/movie/6295"}],"current_page":1985,"first_page_url":"https://videocdn.tv/api/short?limit=100&api_token=RgFQdUIR2dRmwv8iYa5SnFNgnw3vpjKj&cache31985=31985&page=1","from":198401,"last_page":616,"last_page_url":"https://videocdn.tv/api/short?limit=100&api_token=RgFQdUIR2dRmwv8iYa5SnFNgnw3vpjKj&cache31985=31985&page=616","next_page_url":null,"path":"https://videocdn.tv/api/short","per_page":100,"prev_page_url":"https://videocdn.tv/api/short?limit=100&api_token=RgFQdUIR2dRmwv8iYa5SnFNgnw3vpjKj&cache31985=31985&page=1984","to":198420,"total":61523}