{"result":true,"data":[{"id":15192,"title":"Вилки вместо ножей","kp_id":"503632","imdb_id":"tt1567233","world_art_id":null,"type":"movie","add":"2018-02-15 23:05:51","orig_title":"Forks Over Knives","year":"2011-05-06","translations":["Любительский (двухголосый закадровый)"],"quality":"webdl","translation":"Любительский (двухголосый закадровый)","update":"2018-02-16 07:01:34","iframe_src":"//8332.svetacdn.in/71tsRs29n5tZ/movie/15192"},{"id":15189,"title":"Американский футбол","kp_id":"700249","imdb_id":"tt2361150","world_art_id":null,"type":"movie","add":"2018-02-15 23:00:21","orig_title":"Gridiron UK","year":"2016-09-06","translations":["Любительский (многоголосый закадровый) (Синема УС)"],"quality":"hdtv","translation":"Любительский (многоголосый закадровый) (Синема УС)","update":"2018-02-16 06:58:22","iframe_src":"//8332.svetacdn.in/71tsRs29n5tZ/movie/15189"},{"id":15188,"title":"В погоне за счастьем","kp_id":"935142","imdb_id":"tt5025254","world_art_id":null,"type":"movie","add":"2018-02-15 22:55:20","orig_title":"The Golden Rut","year":"2016-10-16","translations":["Любительский (многоголосый закадровый) (Синема УС)"],"quality":"webdl","translation":"Любительский (многоголосый закадровый) (Синема УС)","update":"2018-02-16 06:55:04","iframe_src":"//8332.svetacdn.in/71tsRs29n5tZ/movie/15188"},{"id":15186,"title":"Кровавый лагерь 7: Оно убивает","kp_id":"1097471","imdb_id":"tt7546024","world_art_id":null,"type":"movie","add":"2018-02-15 22:40:49","orig_title":"It Kills","year":"2017-11-11","translations":["Профессиональный (многоголосый закадровый)"],"quality":"webdl","translation":"Профессиональный (многоголосый закадровый)","update":"2018-02-16 06:52:03","iframe_src":"//8332.svetacdn.in/71tsRs29n5tZ/movie/15186"},{"id":15185,"title":"Дятлы","kp_id":"1009212","imdb_id":"tt5999770","world_art_id":null,"type":"movie","add":"2018-02-15 22:34:40","orig_title":"Carpinteros","year":"2017-01-23","translations":["Любительский (многоголосый закадровый) (Синема УС)"],"quality":"dvdrip","translation":"Любительский (многоголосый закадровый) (Синема УС)","update":"2018-02-16 06:50:23","iframe_src":"//8332.svetacdn.in/71tsRs29n5tZ/movie/15185"},{"id":15180,"title":"Колдовство 14: Ангел Смерти","kp_id":"916781","imdb_id":"tt4756770","world_art_id":null,"type":"movie","add":"2018-02-14 23:56:54","orig_title":"Witchcraft 14: Angel of Death","year":"2017-01-09","translations":["Любительский (многоголосый закадровый) (Синема УС)"],"quality":"webdl","translation":"Любительский (многоголосый закадровый) (Синема УС)","update":"2018-02-15 06:50:02","iframe_src":"//8332.svetacdn.in/71tsRs29n5tZ/movie/15180"},{"id":15179,"title":"Таинственный День Святого Валентина","kp_id":"1112262","imdb_id":"tt7936510","world_art_id":null,"type":"movie","add":"2018-02-14 23:49:45","orig_title":"Very, Very, Valentine","year":"2018-02-10","translations":["Любительский (многоголосый закадровый) (Синема УС)"],"quality":"hdtv","translation":"Любительский (многоголосый закадровый) (Синема УС)","update":"2018-02-15 06:46:51","iframe_src":"//8332.svetacdn.in/71tsRs29n5tZ/movie/15179"},{"id":15178,"title":"Репетиция","kp_id":"991865","imdb_id":"tt5820812","world_art_id":null,"type":"movie","add":"2018-02-14 23:42:56","orig_title":"The Rehearsal","year":"2017-07-23","translations":["Любительский (многоголосый закадровый) (Синема УС)"],"quality":"webdl","translation":"Любительский (многоголосый закадровый) (Синема УС)","update":"2018-02-15 06:42:06","iframe_src":"//8332.svetacdn.in/71tsRs29n5tZ/movie/15178"},{"id":15175,"title":"Главная собака","kp_id":"17311","imdb_id":"tt0114697","world_art_id":null,"type":"movie","add":"2018-02-14 08:58:43","orig_title":"Top Dog","year":"1995-04-28","translations":["Профессиональный (двухголосый закадровый)"],"quality":"dvdrip","translation":"Профессиональный (двухголосый закадровый)","update":"2018-02-15 06:06:52","iframe_src":"//8332.svetacdn.in/71tsRs29n5tZ/movie/15175"},{"id":15174,"title":"Странный Томас","kp_id":"572461","imdb_id":"tt1767354","world_art_id":null,"type":"movie","add":"2018-02-14 07:51:32","orig_title":"Odd Thomas","year":"2013-04-06","translations":["Профессиональный (многоголосый закадровый)"],"quality":"bd","translation":"Профессиональный (многоголосый закадровый)","update":"2018-02-14 20:06:46","iframe_src":"//8332.svetacdn.in/71tsRs29n5tZ/movie/15174"},{"id":15166,"title":"В лучах солнца","kp_id":"944814","imdb_id":"tt5129818","world_art_id":null,"type":"movie","add":"2018-02-13 13:11:17","orig_title":"V paprscích slunce","year":"2015-10-29","translations":["Профессиональный (одноголосый закадровый)"],"quality":"webdl","translation":"Профессиональный (одноголосый закадровый)","update":"2018-02-14 11:54:43","iframe_src":"//8332.svetacdn.in/71tsRs29n5tZ/movie/15166"},{"id":15164,"title":"Любимчик","kp_id":"77414","imdb_id":"tt0388213","world_art_id":null,"type":"movie","add":"2018-02-13 13:06:14","orig_title":"Loverboy","year":"2005-01-24","translations":["Профессиональный (многоголосый закадровый)"],"quality":"webdl","translation":"Профессиональный (многоголосый закадровый)","update":"2018-02-15 08:48:17","iframe_src":"//8332.svetacdn.in/71tsRs29n5tZ/movie/15164"},{"id":15162,"title":"Больница","kp_id":"1099288","imdb_id":"tt7068588","world_art_id":null,"type":"movie","add":"2018-02-13 13:02:32","orig_title":"Hospital","year":"2017-04-13","translations":["Любительский (двухголосый закадровый) (RealFake)"],"quality":"webdl","translation":"Любительский (двухголосый закадровый) (RealFake)","update":"2018-02-14 12:05:51","iframe_src":"//8332.svetacdn.in/71tsRs29n5tZ/movie/15162"},{"id":15161,"title":"Победители","kp_id":null,"imdb_id":"tt5577390","world_art_id":null,"type":"movie","add":"2018-02-13 11:29:26","orig_title":"Winning","year":"2016-04-23","translations":["Любительский (многоголосый закадровый) (Синема УС)"],"quality":"webdl","translation":"Любительский (многоголосый закадровый) (Синема УС)","update":"2018-02-15 07:02:52","iframe_src":"//8332.svetacdn.in/71tsRs29n5tZ/movie/15161"},{"id":15160,"title":"История Симоны Байлз: На Пути к Вершине","kp_id":"1112526","imdb_id":"tt7978660","world_art_id":null,"type":"movie","add":"2018-02-13 11:17:03","orig_title":"The Simone Biles Story: Courage to Soar","year":"2018-02-03","translations":["Любительский (многоголосый закадровый) (Синема УС)"],"quality":"hdtv","translation":"Любительский (многоголосый закадровый) (Синема УС)","update":"2018-02-14 06:33:34","iframe_src":"//8332.svetacdn.in/71tsRs29n5tZ/movie/15160"},{"id":15157,"title":"Коронный прием","kp_id":"984586","imdb_id":"tt5328952","world_art_id":null,"type":"movie","add":"2018-02-13 11:00:28","orig_title":"Signature Move","year":"2017-03-11","translations":["Профессиональный (многоголосый закадровый)"],"quality":"webdl","translation":"Профессиональный (многоголосый закадровый)","update":"2018-02-15 07:02:57","iframe_src":"//8332.svetacdn.in/71tsRs29n5tZ/movie/15157"},{"id":14921,"title":"Эффект воздействия","kp_id":"923939","imdb_id":"tt4875962","world_art_id":null,"type":"movie","add":"2018-01-18 22:50:33","orig_title":"The Spearhead Effect","year":"2017-04-06","translations":["Любительский (многоголосый закадровый) (Синема УС)","Профессиональный (многоголосый закадровый) (GreenРай Studio)"],"quality":"webdl","translation":"Любительский (многоголосый закадровый) (Синема УС)","update":"2018-02-15 06:43:57","iframe_src":"//8332.svetacdn.in/71tsRs29n5tZ/movie/14921"},{"id":14811,"title":"День мертвецов: Злая кровь","kp_id":"779484","imdb_id":"tt3053228","world_art_id":null,"type":"movie","add":"2018-01-06 01:39:28","orig_title":"Day of the Dead: Bloodline","year":"2018-01-05","translations":["Любительский (многоголосый закадровый) (@MUZOBOZ@)","Любительский (многоголосый закадровый) (GreenРай Studio)","Полное дублирование"],"quality":"webdl","translation":"Любительский (многоголосый закадровый) (@MUZOBOZ@)","update":"2018-02-14 06:35:56","iframe_src":"//8332.svetacdn.in/71tsRs29n5tZ/movie/14811"},{"id":14392,"title":"Мифы","kp_id":"934121","imdb_id":"tt6458726","world_art_id":null,"type":"movie","add":"2017-11-19 21:21:32","orig_title":"Mify","year":"2017-11-16","translations":["Оригинальная дорожка"],"quality":"webdl","translation":"Оригинальная дорожка","update":"2018-02-15 06:32:19","iframe_src":"//8332.svetacdn.in/71tsRs29n5tZ/movie/14392"},{"id":12893,"title":"По ту сторону надежды","kp_id":"952574","imdb_id":"tt5222918","world_art_id":null,"type":"movie","add":"2017-08-10 08:57:38","orig_title":"Toivon tuolla puolen","year":"2017-01-25","translations":["Любительский (многоголосый закадровый) (Синема УС)","Профессиональный (многоголосый закадровый) (GreenРай Studio)","Профессиональный (многоголосый закадровый)"],"quality":"bd","translation":"Любительский (многоголосый закадровый) (Синема УС)","update":"2018-02-14 06:34:49","iframe_src":"//8332.svetacdn.in/71tsRs29n5tZ/movie/12893"}],"current_page":1993,"first_page_url":"https://videocdn.tv/api/short?limit=100&api_token=EnbO9h8pv1VyjbCJhg0WM9nG259n7mtz&cache31993=31993&page=1","from":199201,"last_page":639,"last_page_url":"https://videocdn.tv/api/short?limit=100&api_token=EnbO9h8pv1VyjbCJhg0WM9nG259n7mtz&cache31993=31993&page=639","next_page_url":null,"path":"https://videocdn.tv/api/short","per_page":100,"prev_page_url":"https://videocdn.tv/api/short?limit=100&api_token=EnbO9h8pv1VyjbCJhg0WM9nG259n7mtz&cache31993=31993&page=1992","to":199220,"total":63841}