{"result":true,"data":[{"id":31111,"title":"Портреты","kp_id":"1063993","imdb_id":"tt6786948","world_art_id":null,"type":"movie","add":"2019-09-22 19:28:46","orig_title":"Portraits","year":"2018-05-07","translations":["Любительский (многоголосый закадровый) (Синема УС)"],"quality":"webdl","translation":"Любительский (многоголосый закадровый) (Синема УС)","update":"2019-09-23 09:57:53","iframe_src":"//7741.svetacdn.in/71tsRs29n5tZ/movie/31111"},{"id":31109,"title":"Патент","kp_id":"1045384","imdb_id":null,"world_art_id":null,"type":"movie","add":"2019-09-22 19:22:55","orig_title":"Патент","year":"2017-01-01","translations":["Оригинальная дорожка"],"quality":"hdtv","translation":"Оригинальная дорожка","update":"2019-09-23 09:58:55","iframe_src":"//7741.svetacdn.in/71tsRs29n5tZ/movie/31109"},{"id":31078,"title":"Вертинский. Одинокий странник","kp_id":"1259222","imdb_id":null,"world_art_id":null,"type":"movie","add":"2019-09-22 15:24:36","orig_title":"Вертинский. Одинокий странник","year":"2019-06-06","translations":["Оригинальная дорожка"],"quality":"webdl","translation":"Оригинальная дорожка","update":"2019-09-23 09:28:59","iframe_src":"//7741.svetacdn.in/71tsRs29n5tZ/movie/31078"},{"id":31076,"title":"Гризли","kp_id":"1035074","imdb_id":"tt6365796","world_art_id":null,"type":"movie","add":"2019-09-22 15:15:49","orig_title":"The Grizzlies","year":"2018-09-08","translations":["Любительский (многоголосый закадровый) (Синема УС)"],"quality":"webdl","translation":"Любительский (многоголосый закадровый) (Синема УС)","update":"2019-09-23 09:30:45","iframe_src":"//7741.svetacdn.in/71tsRs29n5tZ/movie/31076"},{"id":31073,"title":"Следующая остановка","kp_id":"886548","imdb_id":"tt4316472","world_art_id":null,"type":"movie","add":"2019-09-22 15:05:39","orig_title":"One Stop Away","year":"2017-12-01","translations":["Любительский (многоголосый закадровый) (Синема УС)"],"quality":"webdl","translation":"Любительский (многоголосый закадровый) (Синема УС)","update":"2019-09-23 09:31:46","iframe_src":"//7741.svetacdn.in/71tsRs29n5tZ/movie/31073"},{"id":31068,"title":"ООО «Дом Ада» 3: Огненное озеро","kp_id":"1286084","imdb_id":"tt10675136","world_art_id":null,"type":"movie","add":"2019-09-22 14:53:35","orig_title":"Hell House LLC III: Lake of Fire","year":"2019-09-19","translations":["Любительский (многоголосый закадровый) (Синема УС)"],"quality":"webdl","translation":"Любительский (многоголосый закадровый) (Синема УС)","update":"2019-09-23 09:33:40","iframe_src":"//7741.svetacdn.in/71tsRs29n5tZ/movie/31068"},{"id":31067,"title":"Услуга","kp_id":"596445","imdb_id":"tt1971397","world_art_id":null,"type":"movie","add":"2019-09-22 14:52:15","orig_title":"Favor","year":"2013-04-05","translations":["Любительский (одноголосый закадровый) (datynet | Агапов Антон)"],"quality":"webdl","translation":"Любительский (одноголосый закадровый) (datynet | Агапов Антон)","update":"2019-09-23 09:53:45","iframe_src":"//7741.svetacdn.in/71tsRs29n5tZ/movie/31067"},{"id":31066,"title":"Уик-Энд в Августе","kp_id":"1179931","imdb_id":"tt8806710","world_art_id":null,"type":"movie","add":"2019-09-22 14:38:57","orig_title":"Ein Wochenende im August","year":"2019-08-03","translations":["Любительский (многоголосый закадровый) (Синема УС)"],"quality":"hdtv","translation":"Любительский (многоголосый закадровый) (Синема УС)","update":"2019-09-23 09:38:09","iframe_src":"//7741.svetacdn.in/71tsRs29n5tZ/movie/31066"},{"id":31063,"title":"Голубой янтарь","kp_id":"1163498","imdb_id":"tt8384298","world_art_id":null,"type":"movie","add":"2019-09-22 14:28:42","orig_title":"Dan lan hu po","year":"2018-06-28","translations":["Любительский (многоголосый закадровый) (Колобок)"],"quality":"webdl","translation":"Любительский (многоголосый закадровый) (Колобок)","update":"2019-09-23 09:49:33","iframe_src":"//7741.svetacdn.in/71tsRs29n5tZ/movie/31063"},{"id":31062,"title":"Голограмма","kp_id":"1100824","imdb_id":"tt7596220","world_art_id":null,"type":"movie","add":"2019-09-22 14:25:51","orig_title":"Auggie","year":"2019-03-09","translations":["Любительский (многоголосый закадровый) (Синема УС)"],"quality":"webdl","translation":"Любительский (многоголосый закадровый) (Синема УС)","update":"2019-09-23 09:34:42","iframe_src":"//7741.svetacdn.in/71tsRs29n5tZ/movie/31062"},{"id":31039,"title":"10 лет в Японии","kp_id":"1118228","imdb_id":"tt7521860","world_art_id":null,"type":"movie","add":"2019-09-20 20:52:56","orig_title":"Ten Years Japan","year":"2018-10-07","translations":["Любительский (многоголосый закадровый) (Синема УС)"],"quality":"bd","translation":"Любительский (многоголосый закадровый) (Синема УС)","update":"2019-09-21 14:54:17","iframe_src":"//7741.svetacdn.in/71tsRs29n5tZ/movie/31039"},{"id":31035,"title":"Выход","kp_id":"998727","imdb_id":"tt5976166","world_art_id":null,"type":"movie","add":"2019-09-20 20:45:03","orig_title":"Die Hütte","year":"2019-01-17","translations":["Любительский (многоголосый закадровый) (Синема УС)"],"quality":"webdl","translation":"Любительский (многоголосый закадровый) (Синема УС)","update":"2019-09-21 14:51:16","iframe_src":"//7741.svetacdn.in/71tsRs29n5tZ/movie/31035"},{"id":31034,"title":"История о летнем любовнике","kp_id":"1182140","imdb_id":"tt8299032","world_art_id":null,"type":"movie","add":"2019-09-20 20:43:10","orig_title":"Povestea unui pierde-vara","year":"2018-09-21","translations":["Любительский (многоголосый закадровый) (Синема УС)"],"quality":"webdl","translation":"Любительский (многоголосый закадровый) (Синема УС)","update":"2019-09-21 14:50:00","iframe_src":"//7741.svetacdn.in/71tsRs29n5tZ/movie/31034"},{"id":31030,"title":"Северные тигры в тюрьме Фолсом","kp_id":"1296752","imdb_id":"tt10857582","world_art_id":null,"type":"movie","add":"2019-09-20 20:36:38","orig_title":"Los Tigres del Norte at Folsom Prison","year":"2019-09-15","translations":["Любительский (многоголосый закадровый) (Синема УС)"],"quality":"webdl","translation":"Любительский (многоголосый закадровый) (Синема УС)","update":"2019-09-21 15:00:11","iframe_src":"//7741.svetacdn.in/71tsRs29n5tZ/movie/31030"},{"id":31029,"title":"Трусливая любовь","kp_id":"1078578","imdb_id":"tt5887630","world_art_id":null,"type":"movie","add":"2019-09-20 20:35:03","orig_title":"Los amores cobardes","year":"2018-04-20","translations":["Любительский (многоголосый закадровый) (Синема УС)"],"quality":"bd","translation":"Любительский (многоголосый закадровый) (Синема УС)","update":"2019-09-21 14:47:01","iframe_src":"//7741.svetacdn.in/71tsRs29n5tZ/movie/31029"},{"id":31027,"title":"Привет, привилегии. Это я, Челси","kp_id":null,"imdb_id":"tt10847138","world_art_id":null,"type":"movie","add":"2019-09-20 20:30:51","orig_title":"Hello, Privilege. It's Me, Chelsea","year":"2019-09-13","translations":["Любительский (многоголосый закадровый) (Синема УС)"],"quality":"webdl","translation":"Любительский (многоголосый закадровый) (Синема УС)","update":"2019-09-21 14:58:38","iframe_src":"//7741.svetacdn.in/71tsRs29n5tZ/movie/31027"},{"id":31026,"title":"Вооруженные до зубов","kp_id":"1301722","imdb_id":"tt7609436","world_art_id":null,"type":"movie","add":"2019-09-20 20:25:21","orig_title":"Hasta los dientes","year":"2018-03-23","translations":["Любительский (многоголосый закадровый) (Синема УС)"],"quality":"webdl","translation":"Любительский (многоголосый закадровый) (Синема УС)","update":"2019-09-21 14:57:24","iframe_src":"//7741.svetacdn.in/71tsRs29n5tZ/movie/31026"},{"id":31025,"title":"Жёсткая краска","kp_id":"1112729","imdb_id":"tt7925066","world_art_id":null,"type":"movie","add":"2019-09-20 20:24:01","orig_title":"Tinta Bruta","year":"2018-02-18","translations":["Любительский (многоголосый закадровый) (Синема УС)"],"quality":"dvdrip","translation":"Любительский (многоголосый закадровый) (Синема УС)","update":"2019-09-23 10:10:15","iframe_src":"//7741.svetacdn.in/71tsRs29n5tZ/movie/31025"},{"id":31024,"title":"Не навреди","kp_id":"102765","imdb_id":"tt0118526","world_art_id":null,"type":"movie","add":"2019-09-20 20:20:06","orig_title":"...First Do No Harm","year":"1997-02-16","translations":["Авторский (одноголосый закадровый) (Алексеев Антон)"],"quality":"dvdrip","translation":"Авторский (одноголосый закадровый) (Алексеев Антон)","update":"2019-09-23 10:09:16","iframe_src":"//7741.svetacdn.in/71tsRs29n5tZ/movie/31024"},{"id":31019,"title":"Беспокойное сердце","kp_id":"1896","imdb_id":"tt0089816","world_art_id":null,"type":"movie","add":"2019-09-20 20:02:40","orig_title":"Plenty","year":"1985-09-10","translations":["Профессиональный (многоголосый закадровый)"],"quality":"dvdrip","translation":"Профессиональный (многоголосый закадровый)","update":"2019-09-23 10:08:30","iframe_src":"//7741.svetacdn.in/71tsRs29n5tZ/movie/31019"}],"current_page":1544,"first_page_url":"https://videocdn.tv/api/short?limit=100&api_token=EnbO9h8pv1VyjbCJhg0WM9nG259n7mtz&cache31544=31544&page=1","from":154301,"last_page":702,"last_page_url":"https://videocdn.tv/api/short?limit=100&api_token=EnbO9h8pv1VyjbCJhg0WM9nG259n7mtz&cache31544=31544&page=702","next_page_url":null,"path":"https://videocdn.tv/api/short","per_page":100,"prev_page_url":"https://videocdn.tv/api/short?limit=100&api_token=EnbO9h8pv1VyjbCJhg0WM9nG259n7mtz&cache31544=31544&page=1543","to":154320,"total":70147}