{"result":true,"data":[{"id":46333,"title":"Герои и трусы","kp_id":"1213661","imdb_id":"tt9257920","world_art_id":null,"type":"movie","add":"2020-12-23 10:14:14","orig_title":"Heroes and Cowards","year":"2019-07-19","translations":["Любительский (многоголосый закадровый) (AlphaProject)"],"quality":"webdl","translation":"Любительский (многоголосый закадровый) (AlphaProject)","update":"2020-12-24 07:48:04","iframe_src":"//5322.svetacdn.in/71tsRs29n5tZ/movie/46333"},{"id":46326,"title":"Не забывай меня","kp_id":"1109702","imdb_id":"tt6632276","world_art_id":null,"type":"movie","add":"2020-12-23 06:06:16","orig_title":"Forget Me Not","year":"2019-11-16","translations":["Любительский (многоголосый закадровый) (Синема УС)"],"quality":"webdl","translation":"Любительский (многоголосый закадровый) (Синема УС)","update":"2020-12-24 07:46:59","iframe_src":"//5322.svetacdn.in/71tsRs29n5tZ/movie/46326"},{"id":46216,"title":"Просто друзья","kp_id":"77582","imdb_id":"tt0399222","world_art_id":null,"type":"movie","add":"2020-12-18 16:41:28","orig_title":"Je préfère qu'on reste amis","year":"2005-02-23","translations":["Профессиональный (двухголосый закадровый)"],"quality":"bd","translation":"Профессиональный (двухголосый закадровый)","update":"2020-12-24 14:06:15","iframe_src":"//5322.svetacdn.in/71tsRs29n5tZ/movie/46216"},{"id":46215,"title":"Фурии","kp_id":"12604","imdb_id":"tt0042490","world_art_id":null,"type":"movie","add":"2020-12-18 16:37:09","orig_title":"The Furies","year":"1950-07-21","translations":["Любительский (одноголосый закадровый)"],"quality":"webdl","translation":"Любительский (одноголосый закадровый)","update":"2020-12-24 13:46:45","iframe_src":"//5322.svetacdn.in/71tsRs29n5tZ/movie/46215"},{"id":46206,"title":"Двое на качелях","kp_id":"2575","imdb_id":"tt0056626","world_art_id":null,"type":"movie","add":"2020-12-18 10:59:04","orig_title":"Two for the Seesaw","year":"1962-11-21","translations":["Авторский (одноголосый закадровый) (Кашкин Александр | Первомайский)"],"quality":"bd","translation":"Авторский (одноголосый закадровый) (Кашкин Александр | Первомайский)","update":"2020-12-24 13:40:47","iframe_src":"//5322.svetacdn.in/71tsRs29n5tZ/movie/46206"},{"id":46202,"title":"Двойник","kp_id":"44355","imdb_id":"tt0266491","world_art_id":null,"type":"movie","add":"2020-12-18 10:07:28","orig_title":"Dubultnieks","year":"1987-04-20","translations":["Полное дублирование"],"quality":"tc","translation":"Полное дублирование","update":"2020-12-24 13:42:30","iframe_src":"//5322.svetacdn.in/71tsRs29n5tZ/movie/46202"},{"id":46198,"title":"Когда волк влюбляется в овечку","kp_id":"733111","imdb_id":"tt2636362","world_art_id":null,"type":"movie","add":"2020-12-18 09:34:54","orig_title":"Nanfang xiao yang muchang","year":"2012-11-09","translations":["Любительский (одноголосый закадровый) (mi24)"],"quality":"bd","translation":"Любительский (одноголосый закадровый) (mi24)","update":"2020-12-24 13:45:55","iframe_src":"//5322.svetacdn.in/71tsRs29n5tZ/movie/46198"},{"id":46197,"title":"Что нового, кошечка?","kp_id":"10158","imdb_id":"tt0059903","world_art_id":null,"type":"movie","add":"2020-12-18 09:30:54","orig_title":"What's New Pussycat","year":"1965-06-22","translations":["Профессиональный (двухголосый закадровый)"],"quality":"bd","translation":"Профессиональный (двухголосый закадровый)","update":"2020-12-24 14:08:23","iframe_src":"//5322.svetacdn.in/71tsRs29n5tZ/movie/46197"},{"id":46192,"title":"Доктор Джек","kp_id":"200724","imdb_id":"tt0013075","world_art_id":null,"type":"movie","add":"2020-12-18 09:13:29","orig_title":"Dr. Jack","year":"1922-11-26","translations":["Original (English)"],"quality":"webdl","translation":"Original (English)","update":"2020-12-24 13:45:04","iframe_src":"//5322.svetacdn.in/71tsRs29n5tZ/movie/46192"},{"id":46191,"title":"Дети капитана Кидда","kp_id":"199674","imdb_id":"tt0009986","world_art_id":null,"type":"movie","add":"2020-12-18 09:11:05","orig_title":"Captain Kidd's Kids","year":"1919-11-30","translations":["Original (English)"],"quality":"webdl","translation":"Original (English)","update":"2020-12-24 13:44:05","iframe_src":"//5322.svetacdn.in/71tsRs29n5tZ/movie/46191"},{"id":46190,"title":"Убийство в школе","kp_id":"3877","imdb_id":"tt0074875","world_art_id":null,"type":"movie","add":"2020-12-18 09:09:26","orig_title":"Massacre at Central High","year":"1976-11-10","translations":["Авторский (одноголосый закадровый) (Назаров Вадим)"],"quality":"bd","translation":"Авторский (одноголосый закадровый) (Назаров Вадим)","update":"2020-12-24 13:39:42","iframe_src":"//5322.svetacdn.in/71tsRs29n5tZ/movie/46190"},{"id":46181,"title":"Полуночная чистка","kp_id":"13680","imdb_id":"tt0102443","world_art_id":null,"type":"movie","add":"2020-12-18 07:07:08","orig_title":"A Midnight Clear","year":"1992-04-24","translations":["Профессиональный (одноголосый закадровый) (НТВ)"],"quality":"bd","translation":"Профессиональный (одноголосый закадровый) (НТВ)","update":"2020-12-24 14:02:25","iframe_src":"//5322.svetacdn.in/71tsRs29n5tZ/movie/46181"},{"id":46180,"title":"Венсан, Франсуа, Поль и другие","kp_id":"20935","imdb_id":"tt0072368","world_art_id":null,"type":"movie","add":"2020-12-18 06:38:27","orig_title":"Vincent, François, Paul... et les autres","year":"1974-10-20","translations":["Профессиональный (двухголосый закадровый)"],"quality":"bd","translation":"Профессиональный (двухголосый закадровый)","update":"2020-12-24 14:07:00","iframe_src":"//5322.svetacdn.in/71tsRs29n5tZ/movie/46180"},{"id":46145,"title":"Порча","kp_id":"1238352","imdb_id":"tt9719452","world_art_id":null,"type":"movie","add":"2020-12-16 18:32:28","orig_title":"Heks","year":"2020-12-14","translations":["Любительский (многоголосый закадровый) (Синема УС)","Любительский (одноголосый закадровый) (datynet)"],"quality":"webdl","translation":"Любительский (многоголосый закадровый) (Синема УС)","update":"2020-12-24 13:36:47","iframe_src":"//5322.svetacdn.in/71tsRs29n5tZ/movie/46145"},{"id":41271,"title":"Вихрь","kp_id":"1251543","imdb_id":"tt10074486","world_art_id":null,"type":"movie","add":"2020-06-18 20:28:26","orig_title":"Ting er zou xian","year":"2019-06-21","translations":["Любительский (одноголосый закадровый) (Franek Monk)","Любительский (одноголосый закадровый) (Franek Monk)"],"quality":"webdl","translation":"Любительский (одноголосый закадровый) (Franek Monk)","update":"2020-12-24 13:37:32","iframe_src":"//5322.svetacdn.in/71tsRs29n5tZ/movie/41271"},{"id":33720,"title":"Золото сегуна","kp_id":"99909","imdb_id":"tt0064387","world_art_id":null,"type":"movie","add":"2019-12-04 20:06:46","orig_title":"Goyôkin","year":"1969-05-01","translations":["Любительский (двухголосый закадровый)","Любительский (двухголосый закадровый)"],"quality":"dvdrip","translation":"Любительский (двухголосый закадровый)","update":"2020-12-24 14:01:03","iframe_src":"//5322.svetacdn.in/71tsRs29n5tZ/movie/33720"},{"id":5680,"title":"Пощечина","kp_id":"840105","imdb_id":"tt3476576","world_art_id":null,"type":"serial","add":"2019-11-07 08:48:25","orig_title":"The Slap","year":"2015-02-12","translations":["Профессиональный (многоголосый закадровый) (NewStudio)"],"seasons_count":1,"episodes_count":8,"episodes":8,"update":"2019-11-08 07:02:21","iframe_src":"//5322.svetacdn.in/71tsRs29n5tZ/tv-series/5680"},{"id":5674,"title":"Александра и Алеша","kp_id":"1309219","imdb_id":null,"world_art_id":null,"type":"serial","add":"2019-11-07 08:34:31","orig_title":"Александра и Алеша","year":"2019-05-10","translations":["Оригинальная дорожка"],"seasons_count":1,"episodes_count":2,"episodes":2,"update":"2019-11-08 06:56:23","iframe_src":"//5322.svetacdn.in/71tsRs29n5tZ/tv-series/5674"},{"id":5671,"title":"Диккенсовщина","kp_id":"934170","imdb_id":"tt4531728","world_art_id":null,"type":"serial","add":"2019-11-06 19:45:27","orig_title":"Dickensian","year":"2015-12-26","translations":["Профессиональный (многоголосый закадровый) (AlexFilm)"],"seasons_count":1,"episodes_count":20,"episodes":20,"update":"2019-11-08 08:46:16","iframe_src":"//5322.svetacdn.in/71tsRs29n5tZ/tv-series/5671"},{"id":5664,"title":"Святой Августин","kp_id":"584958","imdb_id":"tt1327890","world_art_id":null,"type":"serial","add":"2019-11-06 12:06:36","orig_title":"Sant'Agostino","year":"2010-01-31","translations":["Профессиональный (многоголосый закадровый) (Культура)"],"seasons_count":1,"episodes_count":2,"episodes":2,"update":"2019-11-08 10:57:50","iframe_src":"//5322.svetacdn.in/71tsRs29n5tZ/tv-series/5664"},{"id":5659,"title":"Рейк","kp_id":"718193","imdb_id":"tt2515462","world_art_id":null,"type":"serial","add":"2019-11-06 11:49:41","orig_title":"Rake","year":"2014-01-23","translations":["Профессиональный (многоголосый закадровый) (AlexFilm)"],"seasons_count":1,"episodes_count":13,"episodes":13,"update":"2019-11-08 10:52:19","iframe_src":"//5322.svetacdn.in/71tsRs29n5tZ/tv-series/5659"},{"id":5655,"title":"Грейспойнт","kp_id":"818890","imdb_id":"tt3435532","world_art_id":null,"type":"serial","add":"2019-11-05 20:11:09","orig_title":"Gracepoint","year":"2014-10-02","translations":["Профессиональный (многоголосый закадровый) (NewStudio)"],"seasons_count":1,"episodes_count":10,"episodes":10,"update":"2019-11-07 20:22:58","iframe_src":"//5322.svetacdn.in/71tsRs29n5tZ/tv-series/5655"},{"id":5654,"title":"Вторжение паразитов","kp_id":"592094","imdb_id":"tt1820966","world_art_id":null,"type":"serial","add":"2019-11-05 20:05:45","orig_title":"Infested!","year":"2011-01-09","translations":["Профессиональный (одноголосый закадровый)"],"seasons_count":1,"episodes_count":3,"episodes":3,"update":"2019-11-07 13:29:10","iframe_src":"//5322.svetacdn.in/71tsRs29n5tZ/tv-series/5654"},{"id":5652,"title":"Красные браслеты","kp_id":"838540","imdb_id":"tt3576794","world_art_id":null,"type":"serial","add":"2019-11-05 19:44:51","orig_title":"Red Band Society","year":"2014-09-17","translations":["Полное дублирование (Невафильм | Нева-1)"],"seasons_count":1,"episodes_count":13,"episodes":13,"update":"2019-11-07 20:08:44","iframe_src":"//5322.svetacdn.in/71tsRs29n5tZ/tv-series/5652"},{"id":5651,"title":"Раш","kp_id":"819374","imdb_id":"tt3413236","world_art_id":null,"type":"serial","add":"2019-11-05 19:41:50","orig_title":"Rush","year":"2014-07-17","translations":["Профессиональный (многоголосый закадровый) (IdeaFilm)"],"seasons_count":1,"episodes_count":10,"episodes":10,"update":"2019-11-07 13:26:51","iframe_src":"//5322.svetacdn.in/71tsRs29n5tZ/tv-series/5651"},{"id":5650,"title":"Те, кто убивают","kp_id":"661763","imdb_id":"tt2188931","world_art_id":null,"type":"serial","add":"2019-11-05 19:37:52","orig_title":"Those Who Kill","year":"2014-03-03","translations":["Профессиональный (многоголосый закадровый) (ViruseProject)"],"seasons_count":1,"episodes_count":10,"episodes":10,"update":"2019-11-07 13:21:22","iframe_src":"//5322.svetacdn.in/71tsRs29n5tZ/tv-series/5650"},{"id":5649,"title":"Курт Сеит и Александра","kp_id":"821526","imdb_id":"tt3467380","world_art_id":null,"type":"serial","add":"2019-11-05 19:32:47","orig_title":"Kurt Seyit ve Sura","year":"2014-03-04","translations":["Полное дублирование (СВ-Дубль)"],"seasons_count":2,"episodes_count":21,"episodes":8,"update":"2019-11-07 13:15:41","iframe_src":"//5322.svetacdn.in/71tsRs29n5tZ/tv-series/5649"},{"id":5630,"title":"Американское преступление","kp_id":"824461","imdb_id":"tt3488298","world_art_id":null,"type":"serial","add":"2019-11-05 07:49:55","orig_title":"American Crime","year":"2015-03-05","translations":["Профессиональный (многоголосый закадровый) (Кириллица)"],"seasons_count":3,"episodes_count":29,"episodes":8,"update":"2019-11-08 10:55:37","iframe_src":"//5322.svetacdn.in/71tsRs29n5tZ/tv-series/5630"},{"id":5625,"title":"Шэгги и Скуби-Ду ключ найдут!","kp_id":"397404","imdb_id":"tt0850642","world_art_id":null,"type":"serial","add":"2019-11-03 18:41:38","orig_title":"Shaggy & Scooby-Doo Get a Clue!","year":"2006-09-23","translations":["Полное дублирование"],"seasons_count":2,"episodes_count":26,"episodes":13,"update":"2019-11-08 09:41:53","iframe_src":"//5322.svetacdn.in/71tsRs29n5tZ/tv-series/5625"},{"id":5609,"title":"Щенок по кличке Скуби Ду","kp_id":"229241","imdb_id":"tt0094531","world_art_id":null,"type":"serial","add":"2019-11-02 13:30:42","orig_title":"A Pup Named Scooby-Doo","year":"1988-09-10","translations":["Полное дублирование (Пифагор)"],"seasons_count":4,"episodes_count":27,"episodes":3,"update":"2019-11-08 06:16:55","iframe_src":"//5322.svetacdn.in/71tsRs29n5tZ/tv-series/5609"},{"id":5608,"title":"13 привидений Скуби-Ду","kp_id":"229449","imdb_id":"tt0088628","world_art_id":null,"type":"serial","add":"2019-11-02 13:21:22","orig_title":"The 13 Ghosts of Scooby-Doo","year":"1985-09-07","translations":["Полное дублирование"],"seasons_count":1,"episodes_count":13,"episodes":13,"update":"2019-11-08 05:30:53","iframe_src":"//5322.svetacdn.in/71tsRs29n5tZ/tv-series/5608"},{"id":5607,"title":"Новые загадки для Скуби-Ду","kp_id":"229840","imdb_id":"tt0086767","world_art_id":null,"type":"serial","add":"2019-11-02 12:54:51","orig_title":"The New Scooby-Doo Mysteries","year":"1983-09-10","translations":["Полное дублирование"],"seasons_count":2,"episodes_count":26,"episodes":13,"update":"2019-11-07 13:02:20","iframe_src":"//5322.svetacdn.in/71tsRs29n5tZ/tv-series/5607"},{"id":5606,"title":"Новое шоу Скуби и Скрэппи Ду","kp_id":"229444","imdb_id":"tt0084970","world_art_id":null,"type":"serial","add":"2019-11-02 12:46:14","orig_title":"The New Scooby and Scrappy-Doo Show","year":"1983-09-10","translations":["Полное дублирование"],"seasons_count":1,"episodes_count":13,"episodes":13,"update":"2019-11-07 12:58:11","iframe_src":"//5322.svetacdn.in/71tsRs29n5tZ/tv-series/5606"},{"id":32504,"title":"Дзен","kp_id":"420887","imdb_id":"tt1156470","world_art_id":null,"type":"movie","add":"2019-10-30 19:43:18","orig_title":"Zen","year":"2009-01-10","translations":["Любительский (одноголосый закадровый)","Любительский (одноголосый закадровый)"],"quality":"dvdrip","translation":"Любительский (одноголосый закадровый)","update":"2020-12-24 13:57:13","iframe_src":"//5322.svetacdn.in/71tsRs29n5tZ/movie/32504"},{"id":5456,"title":"18 для жизни","kp_id":"494180","imdb_id":"tt1411254","world_art_id":null,"type":"serial","add":"2019-10-12 22:52:17","orig_title":"18 to Life","year":"2011-01-11","translations":["Профессиональный (многоголосый закадровый) (TVShows)"],"seasons_count":2,"episodes_count":25,"episodes":13,"update":"2019-11-08 08:49:12","iframe_src":"//5322.svetacdn.in/71tsRs29n5tZ/tv-series/5456"},{"id":5116,"title":"Тёмный кристалл: Эпоха сопротивления","kp_id":"1045246","imdb_id":"tt6905542","world_art_id":null,"type":"serial","add":"2019-08-30 12:24:57","orig_title":"The Dark Crystal: Age of Resistance","year":"2019-08-30","translations":["Полное дублирование (Пифагор)","Профессиональный (многоголосый закадровый) (NewStudio)","Профессиональный (многоголосый закадровый) (AlexFilm)","Профессиональный (многоголосый закадровый) (HDrezka Studio)"],"seasons_count":1,"episodes_count":10,"episodes":10,"update":"2019-11-07 14:34:39","iframe_src":"//5322.svetacdn.in/71tsRs29n5tZ/tv-series/5116"},{"id":4157,"title":"Мылодрама","kp_id":"1235046","imdb_id":"tt11095572","world_art_id":null,"type":"serial","add":"2019-02-25 16:50:35","orig_title":"Мылодрама","year":"2019-02-25","translations":["Оригинальная дорожка"],"seasons_count":1,"episodes_count":9,"episodes":9,"update":"2019-11-08 06:59:55","iframe_src":"//5322.svetacdn.in/71tsRs29n5tZ/tv-series/4157"},{"id":1960,"title":"Неприкасаемые","kp_id":"533","imdb_id":"tt0094226","world_art_id":null,"type":"movie","add":"2016-05-07 09:55:54","orig_title":"The Untouchables","year":"1987-06-02","translations":["Профессиональный (многоголосый закадровый)","Авторский (одноголосый закадровый) (Горчаков Василий)","Авторский (одноголосый закадровый) (Михалёв Алексей)","Авторский (одноголосый закадровый) (Володарский Леонид)","Авторский (одноголосый закадровый) (Яроцкий Михаил | Kyberpunk)","Авторский (одноголосый закадровый) (Живов Юрий)","Original (English)","Профессиональный (двухголосый закадровый) (НТВ)","Профессиональный (двухголосый закадровый) (Премьер Видео Фильм)","Профессиональный (многоголосый закадровый)","Профессиональный (многоголосый закадровый) (Позитив)","Профессиональный (многоголосый закадровый) (Фильм Престиж)"],"quality":"bd","translation":"Профессиональный (многоголосый закадровый)","update":"2020-12-24 12:42:28","iframe_src":"//5322.svetacdn.in/71tsRs29n5tZ/movie/1960"},{"id":1348,"title":"Терминатор 2: Судный день","kp_id":"444","imdb_id":"tt0103064","world_art_id":null,"type":"movie","add":"2016-04-20 22:07:09","orig_title":"Terminator 2: Judgment Day","year":"1991-07-01","translations":["Профессиональный (многоголосый закадровый)","Original (English)","Авторский (одноголосый закадровый) (Гаврилов Андрей)","Авторский (одноголосый закадровый) (Гоблин | Пучков Дмитрий)","Авторский (одноголосый закадровый) (Гаврилов Андрей)","Авторский (одноголосый закадровый) (Гоблин | Пучков Дмитрий)","Авторский (одноголосый закадровый) (Горчаков Василий)","Авторский (одноголосый закадровый) (Живов Юрий)","Original (English)","Профессиональный (многоголосый закадровый) (CP Digital)","Профессиональный (многоголосый закадровый) (Киномания)","Профессиональный (многоголосый закадровый) (Первый канал | ОРТ)","Профессиональный (многоголосый закадровый) (Позитив)","Профессиональный (многоголосый закадровый) (ТВ6)"],"quality":"bd","translation":"Профессиональный (многоголосый закадровый)","update":"2020-12-24 12:53:26","iframe_src":"//5322.svetacdn.in/71tsRs29n5tZ/movie/1348"},{"id":427,"title":"Брюс Всемогущий","kp_id":"39577","imdb_id":"tt0315327","world_art_id":null,"type":"movie","add":"2016-04-01 17:29:27","orig_title":"Bruce Almighty","year":"2003-05-23","translations":["Полное дублирование","Original (English)","Авторский (одноголосый закадровый) (Рудой Евгений)","Любительский (двухголосый закадровый)","Профессиональный (многоголосый закадровый) (СТС)","Профессиональный (двухголосый закадровый)"],"quality":"bd","translation":"Полное дублирование","update":"2020-12-24 13:38:23","iframe_src":"//5322.svetacdn.in/71tsRs29n5tZ/movie/427"}],"current_page":312,"first_page_url":"https://videocdn.tv/api/short?limit=100&api_token=EnbO9h8pv1VyjbCJhg0WM9nG259n7mtz&cache3312=3312&page=1","from":31101,"last_page":623,"last_page_url":"https://videocdn.tv/api/short?limit=100&api_token=EnbO9h8pv1VyjbCJhg0WM9nG259n7mtz&cache3312=3312&page=623","next_page_url":"https://videocdn.tv/api/short?limit=100&api_token=EnbO9h8pv1VyjbCJhg0WM9nG259n7mtz&cache3312=3312&page=313","path":"https://videocdn.tv/api/short","per_page":100,"prev_page_url":"https://videocdn.tv/api/short?limit=100&api_token=EnbO9h8pv1VyjbCJhg0WM9nG259n7mtz&cache3312=3312&page=311","to":31140,"total":62268}