{"result":true,"data":[{"id":37209,"title":"Одна квадратная миля","kp_id":"668276","imdb_id":"tt2217895","world_art_id":null,"type":"movie","add":"2020-03-02 13:07:00","orig_title":"One Square Mile","year":"2014-06-05","translations":["Любительский (одноголосый закадровый)"],"quality":"webdl","translation":"Любительский (одноголосый закадровый)","update":"2020-03-02 21:50:54","iframe_src":"//83.svetacdn.in/PfJ50H0ZBPg3/movie/37209"},{"id":37207,"title":"Уоллес и Громит: Дело о смертельной выпечке","kp_id":"395901","imdb_id":"tt1118511","world_art_id":null,"type":"movie","add":"2020-03-02 13:03:55","orig_title":"A Matter of Loaf and Death","year":"2008-12-03","translations":["Любительский (двухголосый закадровый)"],"quality":"bd","translation":"Любительский (двухголосый закадровый)","update":"2020-03-02 21:53:19","iframe_src":"//83.svetacdn.in/PfJ50H0ZBPg3/movie/37207"},{"id":37206,"title":"Расследования на Мартас-Винъярде: Пронизанный обманом","kp_id":"1342259","imdb_id":"tt11617476","world_art_id":null,"type":"movie","add":"2020-03-02 12:57:12","orig_title":"Riddled with Deceit: A Martha's Vineyard Mystery","year":"2020-02-23","translations":["Любительский (многоголосый закадровый) (AlphaProject)"],"quality":"hdtv","translation":"Любительский (многоголосый закадровый) (AlphaProject)","update":"2020-03-02 20:18:54","iframe_src":"//83.svetacdn.in/PfJ50H0ZBPg3/movie/37206"},{"id":37188,"title":"Смертельная охота","kp_id":"13582","imdb_id":"tt0082247","world_art_id":null,"type":"movie","add":"2020-03-01 17:11:24","orig_title":"Death Hunt","year":"1981-03-30","translations":["Профессиональный (многоголосый закадровый)","Профессиональный (многоголосый закадровый) (Первый канал | ОРТ)","[EN] Original (English)","Авторский (одноголосый закадровый) (Михалёв Алексей)","Авторский (одноголосый закадровый) (Гаврилов Андрей)"],"quality":"bd","translation":"Профессиональный (многоголосый закадровый)","update":"2020-03-03 07:34:20","iframe_src":"//83.svetacdn.in/PfJ50H0ZBPg3/movie/37188"},{"id":37161,"title":"К востоку от рая","kp_id":"7692","imdb_id":"tt0048028","world_art_id":null,"type":"movie","add":"2020-02-29 19:59:03","orig_title":"East of Eden","year":"1955-03-09","translations":["Профессиональный (многоголосый закадровый)"],"quality":"hdtv","translation":"Профессиональный (многоголосый закадровый)","update":"2020-03-02 22:09:24","iframe_src":"//83.svetacdn.in/PfJ50H0ZBPg3/movie/37161"},{"id":33913,"title":"Миллион мелких осколков","kp_id":"1092976","imdb_id":"tt0427543","world_art_id":null,"type":"movie","add":"2019-12-10 06:12:10","orig_title":"A Million Little Pieces","year":"2018-09-10","translations":["Полное дублирование (iTunes)"],"quality":"webdl","translation":"Полное дублирование (iTunes)","update":"2020-03-02 22:08:08","iframe_src":"//83.svetacdn.in/PfJ50H0ZBPg3/movie/33913"},{"id":33859,"title":"Джуманджи: Новый уровень","kp_id":"1112539","imdb_id":"tt7975244","world_art_id":null,"type":"movie","add":"2019-12-09 15:10:26","orig_title":"Jumanji: The Next Level","year":"2019-12-04","translations":["Полное дублирование"],"quality":"bd","translation":"Полное дублирование","update":"2020-03-02 21:56:03","iframe_src":"//83.svetacdn.in/PfJ50H0ZBPg3/movie/33859"},{"id":33411,"title":"С. Дарко","kp_id":"412487","imdb_id":"tt1231277","world_art_id":null,"type":"movie","add":"2019-11-25 05:47:39","orig_title":"S. Darko","year":"2009-05-12","translations":["Профессиональный (двухголосый закадровый)","[EN] Original (English)"],"quality":"bd","translation":"Профессиональный (двухголосый закадровый)","update":"2020-03-03 07:36:21","iframe_src":"//83.svetacdn.in/PfJ50H0ZBPg3/movie/33411"},{"id":33368,"title":"Вой Банши","kp_id":"488300","imdb_id":"tt1548628","world_art_id":null,"type":"movie","add":"2019-11-22 06:50:05","orig_title":"Scream of the Banshee","year":"2011-03-04","translations":["Профессиональный (многоголосый закадровый)","[EN] Original (English)"],"quality":"bd","translation":"Профессиональный (многоголосый закадровый)","update":"2020-03-03 07:37:08","iframe_src":"//83.svetacdn.in/PfJ50H0ZBPg3/movie/33368"},{"id":33280,"title":"Однажды эта боль принесет тебе пользу","kp_id":"565945","imdb_id":"tt1703125","world_art_id":null,"type":"movie","add":"2019-11-19 12:58:35","orig_title":"Someday This Pain Will Be Useful to You","year":"2011-11-02","translations":["Профессиональный (многоголосый закадровый)","Профессиональный (двухголосый закадровый) (Elrom)","[EN] Original (English)"],"quality":"bd","translation":"Профессиональный (многоголосый закадровый)","update":"2020-03-03 07:40:11","iframe_src":"//83.svetacdn.in/PfJ50H0ZBPg3/movie/33280"},{"id":33212,"title":"Немножко женаты","kp_id":"462508","imdb_id":"tt1195478","world_art_id":null,"type":"movie","add":"2019-11-18 13:58:14","orig_title":"The Five-Year Engagement","year":"2012-04-18","translations":["Полное дублирование","[EN] Original (English)"],"quality":"bd","translation":"Полное дублирование","update":"2020-03-03 07:48:17","iframe_src":"//83.svetacdn.in/PfJ50H0ZBPg3/movie/33212"},{"id":33189,"title":"Тайны старого отеля","kp_id":"502111","imdb_id":"tt1594562","world_art_id":null,"type":"movie","add":"2019-11-17 15:50:43","orig_title":"The Innkeepers","year":"2011-03-12","translations":["Полное дублирование","[EN] Original (English)"],"quality":"bd","translation":"Полное дублирование","update":"2020-03-03 07:50:09","iframe_src":"//83.svetacdn.in/PfJ50H0ZBPg3/movie/33189"},{"id":33165,"title":"Ворон: Жестокое причастие","kp_id":"11501","imdb_id":"tt0353324","world_art_id":null,"type":"movie","add":"2019-11-16 15:50:41","orig_title":"The Crow: Wicked Prayer","year":"2005-06-03","translations":["Профессиональный (многоголосый закадровый) (CP Digital)","Авторский (одноголосый закадровый) (Карповский Антон)","Авторский (одноголосый закадровый) (Немахов Юрий)","[EN] Original (English)"],"quality":"bd","translation":"Профессиональный (многоголосый закадровый) (CP Digital)","update":"2020-03-03 07:46:56","iframe_src":"//83.svetacdn.in/PfJ50H0ZBPg3/movie/33165"},{"id":33106,"title":"Закопанные","kp_id":"145242","imdb_id":"tt0445939","world_art_id":null,"type":"movie","add":"2019-11-14 14:12:54","orig_title":"The Burrowers","year":"2008-09-09","translations":["Профессиональный (многоголосый закадровый)","[EN] Original (English)"],"quality":"bd","translation":"Профессиональный (многоголосый закадровый)","update":"2020-03-03 07:45:57","iframe_src":"//83.svetacdn.in/PfJ50H0ZBPg3/movie/33106"},{"id":23965,"title":"Шазам!","kp_id":"840372","imdb_id":"tt0448115","world_art_id":null,"type":"movie","add":"2019-04-06 20:27:59","orig_title":"Shazam!","year":"2019-03-25","translations":["Полное дублирование","[EN] Original (English)","Профессиональный (многоголосый закадровый) (HDrezka Studio)"],"quality":"bd","translation":"Полное дублирование","update":"2020-03-03 04:59:43","iframe_src":"//83.svetacdn.in/PfJ50H0ZBPg3/movie/23965"},{"id":19777,"title":"Апофеоз","kp_id":"258861","imdb_id":"tt0822858","world_art_id":null,"type":"movie","add":"2018-10-24 21:43:05","orig_title":"Sublime","year":"2007-02-28","translations":["Профессиональный (двухголосый закадровый) (НТВ)","[EN] Original (English)"],"quality":"bd","translation":"Профессиональный (двухголосый закадровый) (НТВ)","update":"2020-03-03 07:41:04","iframe_src":"//83.svetacdn.in/PfJ50H0ZBPg3/movie/19777"},{"id":16667,"title":"Психонавты, забытые дети","kp_id":"955883","imdb_id":"tt5004766","world_art_id":null,"type":"movie","add":"2018-05-06 21:54:43","orig_title":"Psiconautas, los niños olvidados","year":"2015-09-24","translations":["Любительский (двухголосый закадровый) (NewStation)"],"quality":"webdl","translation":"Любительский (двухголосый закадровый) (NewStation)","update":"2020-03-02 21:54:01","iframe_src":"//83.svetacdn.in/PfJ50H0ZBPg3/movie/16667"},{"id":5463,"title":"Под прицелом","kp_id":"32980","imdb_id":"tt0117653","world_art_id":null,"type":"movie","add":"2016-09-23 09:29:18","orig_title":"Silent Trigger","year":"1996-07-04","translations":["Профессиональный (двухголосый закадровый)","Профессиональный (двухголосый закадровый) (РТР | Россия)","Профессиональный (двухголосый закадровый)","Авторский (одноголосый закадровый) (Визгунов Сергей)","Авторский (одноголосый закадровый) (Карцев Пётр)","Авторский (одноголосый закадровый) (Гаевский Евгений)","[EN] Original (English)"],"quality":"bd","translation":"Профессиональный (двухголосый закадровый)","update":"2020-03-03 07:38:42","iframe_src":"//83.svetacdn.in/PfJ50H0ZBPg3/movie/5463"},{"id":4768,"title":"Без чувств","kp_id":"5084","imdb_id":"tt0120820","world_art_id":null,"type":"movie","add":"2016-08-29 07:56:32","orig_title":"Senseless","year":"1998-02-20","translations":["Профессиональный (двухголосый закадровый)","Профессиональный (многоголосый закадровый)","Профессиональный (двухголосый закадровый)","Авторский (одноголосый закадровый) (Санаев Павел)","[EN] Original (English)"],"quality":"bd","translation":"Профессиональный (двухголосый закадровый)","update":"2020-03-03 07:38:01","iframe_src":"//83.svetacdn.in/PfJ50H0ZBPg3/movie/4768"},{"id":2461,"title":"Доказательство","kp_id":"3836","imdb_id":"tt0102721","world_art_id":null,"type":"movie","add":"2016-05-23 12:01:42","orig_title":"Proof","year":"1991-08-15","translations":["Профессиональный (двухголосый закадровый)","Авторский (одноголосый закадровый) (Алексеев Антон)","[EN] Original (English)"],"quality":"bd","translation":"Профессиональный (двухголосый закадровый)","update":"2020-03-03 07:35:41","iframe_src":"//83.svetacdn.in/PfJ50H0ZBPg3/movie/2461"}],"current_page":1265,"first_page_url":"https://videocdn.tv/api/short?limit=100&api_token=RgFQdUIR2dRmwv8iYa5SnFNgnw3vpjKj&cache31265=31265&page=1","from":126401,"last_page":706,"last_page_url":"https://videocdn.tv/api/short?limit=100&api_token=RgFQdUIR2dRmwv8iYa5SnFNgnw3vpjKj&cache31265=31265&page=706","next_page_url":null,"path":"https://videocdn.tv/api/short","per_page":100,"prev_page_url":"https://videocdn.tv/api/short?limit=100&api_token=RgFQdUIR2dRmwv8iYa5SnFNgnw3vpjKj&cache31265=31265&page=1264","to":126420,"total":70558}