{"result":true,"data":[{"id":23915,"title":"Ночные сестры","kp_id":"271685","imdb_id":"tt1040025","world_art_id":null,"type":"movie","add":"2019-04-04 22:01:46","orig_title":"Nochnye syostry","year":"2007-11-29","translations":["Оригинальная дорожка"],"quality":"dvdrip","translation":"Оригинальная дорожка","update":"2019-04-05 05:31:57","iframe_src":"//8332.svetacdn.in/IAF0wWTdNYZm/movie/23915"},{"id":23914,"title":"Никто не знает про секс 2: No sex","kp_id":"271697","imdb_id":"tt1312132","world_art_id":null,"type":"movie","add":"2019-04-04 21:59:17","orig_title":"Nikto ne znaet pro sex 2: No sex","year":"2008-04-10","translations":["Оригинальная дорожка"],"quality":"dvdrip","translation":"Оригинальная дорожка","update":"2019-04-05 05:33:51","iframe_src":"//8332.svetacdn.in/IAF0wWTdNYZm/movie/23914"},{"id":23912,"title":"Мужчина для жизни","kp_id":"420164","imdb_id":"tt3065666","world_art_id":null,"type":"movie","add":"2019-04-04 21:56:11","orig_title":"Muzhchina dlya zhizni, ili Na brak ne pretenduyu","year":"2008-04-13","translations":["Оригинальная дорожка"],"quality":"dvdrip","translation":"Оригинальная дорожка","update":"2019-04-05 05:40:13","iframe_src":"//8332.svetacdn.in/IAF0wWTdNYZm/movie/23912"},{"id":23908,"title":"Без альтернативы","kp_id":"993172","imdb_id":"tt5874752","world_art_id":null,"type":"movie","add":"2019-04-04 21:41:46","orig_title":"No Alternative","year":"2018-06-07","translations":["Любительский (многоголосый закадровый) (Синема УС)"],"quality":"webdl","translation":"Любительский (многоголосый закадровый) (Синема УС)","update":"2019-04-05 05:19:28","iframe_src":"//8332.svetacdn.in/IAF0wWTdNYZm/movie/23908"},{"id":23905,"title":"Секс и ничего личного","kp_id":"1214056","imdb_id":"tt9319960","world_art_id":null,"type":"movie","add":"2019-04-04 21:13:12","orig_title":"Just Sex, Nothing Personal","year":"2018-12-20","translations":["Любительский (многоголосый закадровый) (@MUZOBOZ@)"],"quality":"webdl","translation":"Любительский (многоголосый закадровый) (@MUZOBOZ@)","update":"2019-04-05 05:20:53","iframe_src":"//8332.svetacdn.in/IAF0wWTdNYZm/movie/23905"},{"id":23904,"title":"В реальности","kp_id":null,"imdb_id":"tt6106980","world_art_id":null,"type":"movie","add":"2019-04-04 21:10:29","orig_title":"In Reality","year":"2018-07-18","translations":["Любительский (многоголосый закадровый) (Синема УС)"],"quality":"webdl","translation":"Любительский (многоголосый закадровый) (Синема УС)","update":"2019-04-05 05:22:49","iframe_src":"//8332.svetacdn.in/IAF0wWTdNYZm/movie/23904"},{"id":23891,"title":"Кисть любви","kp_id":"1238007","imdb_id":"tt9783876","world_art_id":null,"type":"movie","add":"2019-04-04 20:11:17","orig_title":"A Brush with Love","year":"2019-03-30","translations":["Любительский (многоголосый закадровый) (Синема УС)"],"quality":"hdtv","translation":"Любительский (многоголосый закадровый) (Синема УС)","update":"2019-04-05 05:27:11","iframe_src":"//8332.svetacdn.in/IAF0wWTdNYZm/movie/23891"},{"id":23890,"title":"40 дней и ночей","kp_id":"712491","imdb_id":"tt2439946","world_art_id":null,"type":"movie","add":"2019-04-04 20:06:57","orig_title":"40 Days and Nights","year":"2012-11-27","translations":["Профессиональный (многоголосый закадровый) (Universal Russia)"],"quality":"bd","translation":"Профессиональный (многоголосый закадровый) (Universal Russia)","update":"2019-04-05 05:30:15","iframe_src":"//8332.svetacdn.in/IAF0wWTdNYZm/movie/23890"},{"id":23868,"title":"Вероника возвращается","kp_id":"101438","imdb_id":"tt0070874","world_art_id":null,"type":"movie","add":"2019-04-04 07:08:15","orig_title":"Veronica se întoarce","year":"1973-12-17","translations":["Профессиональный (одноголосый закадровый)"],"quality":"dvdrip","translation":"Профессиональный (одноголосый закадровый)","update":"2019-04-04 08:47:30","iframe_src":"//8332.svetacdn.in/IAF0wWTdNYZm/movie/23868"},{"id":23867,"title":"Тигриная история","kp_id":"20367","imdb_id":"tt0094148","world_art_id":null,"type":"movie","add":"2019-04-03 22:51:48","orig_title":"A Tiger's Tale","year":"1987-08-22","translations":["Авторский (одноголосый закадровый) (Алексеев Антон)"],"quality":"dvdrip","translation":"Авторский (одноголосый закадровый) (Алексеев Антон)","update":"2019-04-04 07:22:41","iframe_src":"//8332.svetacdn.in/IAF0wWTdNYZm/movie/23867"},{"id":23866,"title":"Соленый пес","kp_id":"43912","imdb_id":"tt0070713","world_art_id":null,"type":"movie","add":"2019-04-03 22:49:53","orig_title":"Solyonyy pyos","year":"1974-12-23","translations":["Оригинальная дорожка"],"quality":"tv","translation":"Оригинальная дорожка","update":"2019-04-04 07:21:18","iframe_src":"//8332.svetacdn.in/IAF0wWTdNYZm/movie/23866"},{"id":23863,"title":"Зов предков","kp_id":"77323","imdb_id":"tt0118811","world_art_id":null,"type":"movie","add":"2019-04-03 22:44:25","orig_title":"The Call of the Wild: Dog of the Yukon","year":"1997-01-12","translations":["Профессиональный (многоголосый закадровый)"],"quality":"dvdrip","translation":"Профессиональный (многоголосый закадровый)","update":"2019-04-04 07:19:20","iframe_src":"//8332.svetacdn.in/IAF0wWTdNYZm/movie/23863"},{"id":23859,"title":"Трижды воскресший","kp_id":"42318","imdb_id":"tt0054405","world_art_id":null,"type":"movie","add":"2019-04-03 22:36:33","orig_title":"Trizhdy voskresshiy","year":"1960-07-17","translations":["Оригинальная дорожка"],"quality":"dvdrip","translation":"Оригинальная дорожка","update":"2019-04-04 07:17:26","iframe_src":"//8332.svetacdn.in/IAF0wWTdNYZm/movie/23859"},{"id":23852,"title":"Румпельштильцхен","kp_id":"18198","imdb_id":"tt0114306","world_art_id":null,"type":"movie","add":"2019-04-03 22:22:43","orig_title":"Rumpelstiltskin","year":"1995-11-24","translations":["Авторский (одноголосый закадровый) (Гаврилов Андрей)"],"quality":"dvdrip","translation":"Авторский (одноголосый закадровый) (Гаврилов Андрей)","update":"2019-04-04 07:14:39","iframe_src":"//8332.svetacdn.in/IAF0wWTdNYZm/movie/23852"},{"id":23849,"title":"Планета бурь","kp_id":"42990","imdb_id":"tt0056352","world_art_id":null,"type":"movie","add":"2019-04-03 22:15:22","orig_title":"Planeta bur","year":"1961-04-14","translations":["Оригинальная дорожка"],"quality":"dvdrip","translation":"Оригинальная дорожка","update":"2019-04-04 07:12:21","iframe_src":"//8332.svetacdn.in/IAF0wWTdNYZm/movie/23849"},{"id":23841,"title":"Я тебя теряю","kp_id":"9570","imdb_id":"tt0142393","world_art_id":null,"type":"movie","add":"2019-04-03 21:54:12","orig_title":"I'm Losing You","year":"1998-09-03","translations":["Профессиональный (многоголосый закадровый)"],"quality":"dvdrip","translation":"Профессиональный (многоголосый закадровый)","update":"2019-04-04 07:11:31","iframe_src":"//8332.svetacdn.in/IAF0wWTdNYZm/movie/23841"},{"id":23837,"title":"Фильм любви и анархии, или Сегодня в десять утра на Виа деи Фьори в известном доме терпимости","kp_id":"23204","imdb_id":"tt0070061","world_art_id":null,"type":"movie","add":"2019-04-03 21:45:20","orig_title":"Film d'amore e d'anarchia, ovvero «stamattina alle 10 in via dei Fiori nella nota casa di tolleranza...»","year":"1973-02-23","translations":["Профессиональный (одноголосый закадровый)"],"quality":"bd","translation":"Профессиональный (одноголосый закадровый)","update":"2019-04-04 07:10:42","iframe_src":"//8332.svetacdn.in/IAF0wWTdNYZm/movie/23837"},{"id":21483,"title":"Путь домой","kp_id":"1100959","imdb_id":"tt7616798","world_art_id":null,"type":"movie","add":"2019-01-13 20:52:41","orig_title":"A Dog's Way Home","year":"2019-01-10","translations":["Любительский (многоголосый закадровый) (@MUZOBOZ@)","Полное дублирование","Полное дублирование"],"quality":"hdtv","translation":"Любительский (многоголосый закадровый) (@MUZOBOZ@)","update":"2019-04-05 05:00:52","iframe_src":"//8332.svetacdn.in/IAF0wWTdNYZm/movie/21483"},{"id":21158,"title":"Танцуй со мной","kp_id":"1960","imdb_id":"tt0120576","world_art_id":null,"type":"movie","add":"2019-01-01 23:27:03","orig_title":"Dance with Me","year":"1998-08-21","translations":["Профессиональный (двухголосый закадровый)","Оригинальная дорожка"],"quality":"webdl","translation":"Профессиональный (двухголосый закадровый)","update":"2019-04-04 07:16:14","iframe_src":"//8332.svetacdn.in/IAF0wWTdNYZm/movie/21158"},{"id":19553,"title":"Девушка по прозвищу Зверь","kp_id":"1005859","imdb_id":"tt6082614","world_art_id":null,"type":"movie","add":"2018-10-13 21:06:37","orig_title":"Tiger Girl","year":"2017-02-10","translations":["Любительский (многоголосый закадровый) (Синема УС)","Любительский (многоголосый закадровый) (Синема УС)"],"quality":"webdl","translation":"Любительский (многоголосый закадровый) (Синема УС)","update":"2019-04-05 05:05:04","iframe_src":"//8332.svetacdn.in/IAF0wWTdNYZm/movie/19553"}],"current_page":1566,"first_page_url":"https://videocdn.tv/api/short?limit=100&api_token=6Onb1W1alEUrBcKJZD3GoKBbWyAl2uG2&cache31566=31566&page=1","from":156501,"last_page":635,"last_page_url":"https://videocdn.tv/api/short?limit=100&api_token=6Onb1W1alEUrBcKJZD3GoKBbWyAl2uG2&cache31566=31566&page=635","next_page_url":null,"path":"https://videocdn.tv/api/short","per_page":100,"prev_page_url":"https://videocdn.tv/api/short?limit=100&api_token=6Onb1W1alEUrBcKJZD3GoKBbWyAl2uG2&cache31566=31566&page=1565","to":156520,"total":63490}