{"result":true,"data":[{"id":25231,"title":"Атлант расправил плечи","kp_id":"221368","imdb_id":"tt0480239","world_art_id":null,"type":"movie","add":"2019-04-24 07:52:35","orig_title":"Atlas Shrugged: Part I","year":"2011-04-15","translations":["Профессиональный (двухголосый закадровый)"],"quality":"bd","translation":"Профессиональный (двухголосый закадровый)","update":"2019-04-24 09:32:20","iframe_src":"//83.svetacdn.in/PfJ50H0ZBPg3/movie/25231"},{"id":25230,"title":"Космические Стражи 2","kp_id":"1164063","imdb_id":"tt8560130","world_art_id":null,"type":"movie","add":"2019-04-24 07:48:05","orig_title":"Space Guardians 2","year":"2018-12-11","translations":["Любительский (многоголосый закадровый) (Синема УС)"],"quality":"webdl","translation":"Любительский (многоголосый закадровый) (Синема УС)","update":"2019-04-24 09:20:39","iframe_src":"//83.svetacdn.in/PfJ50H0ZBPg3/movie/25230"},{"id":25229,"title":"Уайтфолкс: история великого мошенника","kp_id":"1092682","imdb_id":"tt7222072","world_art_id":null,"type":"movie","add":"2019-04-24 07:46:10","orig_title":"Whitefolks","year":"2017-06-28","translations":["Любительский (многоголосый закадровый) (Синема УС)"],"quality":"webdl","translation":"Любительский (многоголосый закадровый) (Синема УС)","update":"2019-04-24 10:15:52","iframe_src":"//83.svetacdn.in/PfJ50H0ZBPg3/movie/25229"},{"id":25228,"title":"Родная душа","kp_id":"1002553","imdb_id":"tt6054290","world_art_id":null,"type":"movie","add":"2019-04-24 07:41:08","orig_title":"Qi yue yu an sheng","year":"2016-09-14","translations":["Любительский (многоголосый закадровый) (Синема УС)"],"quality":"bd","translation":"Любительский (многоголосый закадровый) (Синема УС)","update":"2019-04-24 09:19:52","iframe_src":"//83.svetacdn.in/PfJ50H0ZBPg3/movie/25228"},{"id":25226,"title":"Дурдом Мекка","kp_id":"944503","imdb_id":"tt4693788","world_art_id":null,"type":"movie","add":"2019-04-24 07:29:37","orig_title":"Madhouse Mecca","year":"2018-04-05","translations":["Любительский (многоголосый закадровый) (Синема УС)"],"quality":"webdl","translation":"Любительский (многоголосый закадровый) (Синема УС)","update":"2019-04-24 08:59:22","iframe_src":"//83.svetacdn.in/PfJ50H0ZBPg3/movie/25226"},{"id":25225,"title":"Расстояния","kp_id":null,"imdb_id":"tt6256452","world_art_id":null,"type":"movie","add":"2019-04-24 07:26:23","orig_title":"Les distàncies","year":"2018-09-07","translations":["Любительский (многоголосый закадровый) (Синема УС)"],"quality":"bd","translation":"Любительский (многоголосый закадровый) (Синема УС)","update":"2019-04-24 09:18:12","iframe_src":"//83.svetacdn.in/PfJ50H0ZBPg3/movie/25225"},{"id":25224,"title":"Окружной суд","kp_id":"977884","imdb_id":"tt5595160","world_art_id":null,"type":"movie","add":"2019-04-24 07:21:50","orig_title":"Landgericht","year":"2017-01-30","translations":["Любительский (многоголосый закадровый) (Синема УС)"],"quality":"webdl","translation":"Любительский (многоголосый закадровый) (Синема УС)","update":"2019-04-24 09:06:31","iframe_src":"//83.svetacdn.in/PfJ50H0ZBPg3/movie/25224"},{"id":25221,"title":"Девушка из ниоткуда","kp_id":"894443","imdb_id":"tt4554186","world_art_id":null,"type":"movie","add":"2019-04-24 07:12:15","orig_title":"Girl from Nowhere","year":"2017-01-25","translations":["Любительский (многоголосый закадровый) (Синема УС)"],"quality":"webdl","translation":"Любительский (многоголосый закадровый) (Синема УС)","update":"2019-04-24 08:55:04","iframe_src":"//83.svetacdn.in/PfJ50H0ZBPg3/movie/25221"},{"id":25174,"title":"Тимур & его коммандо$","kp_id":"392088","imdb_id":"tt3769724","world_art_id":null,"type":"movie","add":"2019-04-23 08:14:03","orig_title":"Timur i yego kommandos","year":"2004-01-21","translations":["Оригинальная дорожка"],"quality":"dvdrip","translation":"Оригинальная дорожка","update":"2019-04-24 10:39:02","iframe_src":"//83.svetacdn.in/PfJ50H0ZBPg3/movie/25174"},{"id":25173,"title":"Только вернись!","kp_id":"427004","imdb_id":null,"world_art_id":null,"type":"movie","add":"2019-04-23 08:10:34","orig_title":"Только вернись!","year":"2008-01-01","translations":["Оригинальная дорожка"],"quality":"dvdrip","translation":"Оригинальная дорожка","update":"2019-04-24 10:38:01","iframe_src":"//83.svetacdn.in/PfJ50H0ZBPg3/movie/25173"},{"id":25172,"title":"Трио","kp_id":"47207","imdb_id":"tt0378912","world_art_id":null,"type":"movie","add":"2019-04-23 08:05:16","orig_title":"Trio","year":"2003-09-05","translations":["Оригинальная дорожка"],"quality":"dvdrip","translation":"Оригинальная дорожка","update":"2019-04-24 10:36:55","iframe_src":"//83.svetacdn.in/PfJ50H0ZBPg3/movie/25172"},{"id":25171,"title":"Трижды о любви","kp_id":"42317","imdb_id":"tt0176245","world_art_id":null,"type":"movie","add":"2019-04-23 08:02:20","orig_title":"Trizhdy o lyubvi","year":"1982-08-21","translations":["Оригинальная дорожка"],"quality":"sat","translation":"Оригинальная дорожка","update":"2019-04-24 10:34:24","iframe_src":"//83.svetacdn.in/PfJ50H0ZBPg3/movie/25171"},{"id":25170,"title":"Щит Отечества","kp_id":"471132","imdb_id":"tt5258630","world_art_id":null,"type":"movie","add":"2019-04-23 07:58:07","orig_title":"Shchit otechestva","year":"2007-12-17","translations":["Оригинальная дорожка"],"quality":"dvdrip","translation":"Оригинальная дорожка","update":"2019-04-24 06:49:29","iframe_src":"//83.svetacdn.in/PfJ50H0ZBPg3/movie/25170"},{"id":25169,"title":"Трое с площади Карронад","kp_id":"441248","imdb_id":"tt2117658","world_art_id":null,"type":"movie","add":"2019-04-23 07:42:17","orig_title":"Troe s ploshchadi Karronad","year":"2008-01-01","translations":["Оригинальная дорожка"],"quality":"dvdrip","translation":"Оригинальная дорожка","update":"2019-04-24 06:48:28","iframe_src":"//83.svetacdn.in/PfJ50H0ZBPg3/movie/25169"},{"id":25168,"title":"Уравнение со всеми известными","kp_id":"417757","imdb_id":"tt3340994","world_art_id":null,"type":"movie","add":"2019-04-23 07:26:03","orig_title":"Uravnenie so vsemi izvestnymi","year":"2008-01-01","translations":["Оригинальная дорожка"],"quality":"dvdrip","translation":"Оригинальная дорожка","update":"2019-04-24 06:47:37","iframe_src":"//83.svetacdn.in/PfJ50H0ZBPg3/movie/25168"},{"id":25167,"title":"Вы не оставите меня","kp_id":"271514","imdb_id":"tt1503000","world_art_id":null,"type":"movie","add":"2019-04-23 07:22:35","orig_title":"Vy ne ostavite menya","year":"2006-11-30","translations":["Оригинальная дорожка"],"quality":"dvdrip","translation":"Оригинальная дорожка","update":"2019-04-24 06:47:00","iframe_src":"//83.svetacdn.in/PfJ50H0ZBPg3/movie/25167"},{"id":25166,"title":"Это начиналось так...","kp_id":"42020","imdb_id":"tt0049191","world_art_id":null,"type":"movie","add":"2019-04-23 07:19:02","orig_title":"Eto nachinalos tak...","year":"1956-12-25","translations":["Оригинальная дорожка"],"quality":"sat","translation":"Оригинальная дорожка","update":"2019-04-24 06:45:56","iframe_src":"//83.svetacdn.in/PfJ50H0ZBPg3/movie/25166"},{"id":25165,"title":"Женские слезы","kp_id":"460494","imdb_id":"tt3069614","world_art_id":null,"type":"movie","add":"2019-04-23 07:07:16","orig_title":"Zhenskie slyozy","year":"2006-01-01","translations":["Оригинальная дорожка"],"quality":"dvdrip","translation":"Оригинальная дорожка","update":"2019-04-24 06:45:00","iframe_src":"//83.svetacdn.in/PfJ50H0ZBPg3/movie/25165"},{"id":25164,"title":"Атлант расправил плечи: Часть 2","kp_id":"599733","imdb_id":"tt1985017","world_art_id":null,"type":"movie","add":"2019-04-23 06:59:37","orig_title":"Atlas Shrugged II: The Strike","year":"2012-10-12","translations":["Любительский (одноголосый закадровый)"],"quality":"bd","translation":"Любительский (одноголосый закадровый)","update":"2019-04-24 07:55:03","iframe_src":"//83.svetacdn.in/PfJ50H0ZBPg3/movie/25164"},{"id":25158,"title":"7 дней. 7 ночей","kp_id":"84254","imdb_id":"tt0054091","world_art_id":null,"type":"movie","add":"2019-04-23 06:35:03","orig_title":"Moderato cantabile","year":"1960-05-25","translations":["Профессиональный (многоголосый закадровый)"],"quality":"dvdrip","translation":"Профессиональный (многоголосый закадровый)","update":"2019-04-24 07:56:37","iframe_src":"//83.svetacdn.in/PfJ50H0ZBPg3/movie/25158"}],"current_page":1646,"first_page_url":"https://videocdn.tv/api/short?limit=100&api_token=RgFQdUIR2dRmwv8iYa5SnFNgnw3vpjKj&cache31646=31646&page=1","from":164501,"last_page":665,"last_page_url":"https://videocdn.tv/api/short?limit=100&api_token=RgFQdUIR2dRmwv8iYa5SnFNgnw3vpjKj&cache31646=31646&page=665","next_page_url":null,"path":"https://videocdn.tv/api/short","per_page":100,"prev_page_url":"https://videocdn.tv/api/short?limit=100&api_token=RgFQdUIR2dRmwv8iYa5SnFNgnw3vpjKj&cache31646=31646&page=1645","to":164520,"total":66426}