{"result":true,"data":[{"id":21727,"title":"Не валяй дурака...","kp_id":"41551","imdb_id":"tt0266791","world_art_id":null,"type":"movie","add":"2019-01-22 09:12:09","orig_title":"Ne valyay duraka","year":"1997-01-01","translations":["Оригинальная дорожка"],"quality":"dvdrip","translation":"Оригинальная дорожка","update":"2019-01-23 09:10:38","iframe_src":"//5091.svetacdn.in/71tsRs29n5tZ/movie/21727"},{"id":21691,"title":"Паскаль: Фильм","kp_id":"1202782","imdb_id":"tt9063106","world_art_id":null,"type":"movie","add":"2019-01-21 09:48:11","orig_title":"Paskal: The Movie","year":"2018-09-27","translations":["Любительский (многоголосый закадровый) (Колобок)"],"quality":"webdl","translation":"Любительский (многоголосый закадровый) (Колобок)","update":"2019-01-23 07:44:12","iframe_src":"//5091.svetacdn.in/71tsRs29n5tZ/movie/21691"},{"id":21690,"title":"Подарок Сталину","kp_id":"429002","imdb_id":"tt1305027","world_art_id":null,"type":"movie","add":"2019-01-21 09:27:11","orig_title":"Podarok Stalinu","year":"2008-10-02","translations":["Оригинальная дорожка"],"quality":"dvdrip","translation":"Оригинальная дорожка","update":"2019-01-23 07:42:42","iframe_src":"//5091.svetacdn.in/71tsRs29n5tZ/movie/21690"},{"id":21689,"title":"Учитель в законе","kp_id":"424628","imdb_id":"tt3524738","world_art_id":null,"type":"movie","add":"2019-01-21 09:23:10","orig_title":"Uchitel v zakone","year":"2008-09-25","translations":["Оригинальная дорожка"],"quality":"dvdrip","translation":"Оригинальная дорожка","update":"2019-01-23 07:41:07","iframe_src":"//5091.svetacdn.in/71tsRs29n5tZ/movie/21689"},{"id":21688,"title":"Рамбл: Индейцы, которые зажгли мир","kp_id":"1009180","imdb_id":"tt6333080","world_art_id":null,"type":"movie","add":"2019-01-21 09:13:56","orig_title":"Rumble: The Indians Who Rocked The World","year":"2017-01-22","translations":["Любительский (многоголосый закадровый)"],"quality":"dvdrip","translation":"Любительский (многоголосый закадровый)","update":"2019-01-23 07:39:41","iframe_src":"//5091.svetacdn.in/71tsRs29n5tZ/movie/21688"},{"id":21687,"title":"Токсичная акула","kp_id":"1049347","imdb_id":"tt6973866","world_art_id":null,"type":"movie","add":"2019-01-21 09:00:17","orig_title":"Toxic Shark","year":"2017-08-03","translations":["Профессиональный (многоголосый закадровый)"],"quality":"webdl","translation":"Профессиональный (многоголосый закадровый)","update":"2019-01-23 07:37:45","iframe_src":"//5091.svetacdn.in/71tsRs29n5tZ/movie/21687"},{"id":21686,"title":"Миллион на Рождество","kp_id":"281029","imdb_id":"tt0991150","world_art_id":null,"type":"movie","add":"2019-01-21 08:54:25","orig_title":"Christmas in Wonderland","year":"2007-11-09","translations":["Полное дублирование"],"quality":"dvdrip","translation":"Полное дублирование","update":"2019-01-23 07:36:31","iframe_src":"//5091.svetacdn.in/71tsRs29n5tZ/movie/21686"},{"id":21685,"title":"Лавэ","kp_id":"471104","imdb_id":"tt3999410","world_art_id":null,"type":"movie","add":"2019-01-21 08:46:22","orig_title":"Lave","year":"2009-10-08","translations":["Оригинальная дорожка"],"quality":"dvdrip","translation":"Оригинальная дорожка","update":"2019-01-23 07:35:10","iframe_src":"//5091.svetacdn.in/71tsRs29n5tZ/movie/21685"},{"id":21583,"title":"Зачем мы женимся?","kp_id":"276732","imdb_id":"tt0906108","world_art_id":null,"type":"movie","add":"2019-01-17 08:46:20","orig_title":"Why Did I Get Married?","year":"2007-10-04","translations":["Профессиональный (многоголосый закадровый)"],"quality":"dvdrip","translation":"Профессиональный (многоголосый закадровый)","update":"2019-01-23 07:33:02","iframe_src":"//5091.svetacdn.in/71tsRs29n5tZ/movie/21583"},{"id":21552,"title":"Мальчишник в Новом Орлеане","kp_id":"403593","imdb_id":"tt1083462","world_art_id":null,"type":"movie","add":"2019-01-16 16:01:59","orig_title":"Mardi Gras: Spring Break","year":"2011-09-23","translations":["Профессиональный (многоголосый закадровый)"],"quality":"webdl","translation":"Профессиональный (многоголосый закадровый)","update":"2019-01-24 07:01:21","iframe_src":"//5091.svetacdn.in/71tsRs29n5tZ/movie/21552"},{"id":21551,"title":"Игра","kp_id":"572449","imdb_id":"tt1772872","world_art_id":null,"type":"movie","add":"2019-01-16 16:00:32","orig_title":"Game","year":"2011-03-31","translations":["Профессиональный (многоголосый закадровый) (SDI Media)"],"quality":"webdl","translation":"Профессиональный (многоголосый закадровый) (SDI Media)","update":"2019-01-24 07:00:30","iframe_src":"//5091.svetacdn.in/71tsRs29n5tZ/movie/21551"},{"id":21550,"title":"Альбатрос","kp_id":"484347","imdb_id":"tt1541149","world_art_id":null,"type":"movie","add":"2019-01-16 15:58:12","orig_title":"Albatross","year":"2011-06-19","translations":["Профессиональный (многоголосый закадровый)"],"quality":"webdl","translation":"Профессиональный (многоголосый закадровый)","update":"2019-01-24 06:59:24","iframe_src":"//5091.svetacdn.in/71tsRs29n5tZ/movie/21550"},{"id":21549,"title":"Путешествие отверженных","kp_id":"1779","imdb_id":"tt0075406","world_art_id":null,"type":"movie","add":"2019-01-16 15:57:03","orig_title":"Voyage of the Damned","year":"1976-12-20","translations":["Профессиональный (многоголосый закадровый)"],"quality":"bd","translation":"Профессиональный (многоголосый закадровый)","update":"2019-01-24 06:57:40","iframe_src":"//5091.svetacdn.in/71tsRs29n5tZ/movie/21549"},{"id":21548,"title":"Последнее соблазнение","kp_id":"17686","imdb_id":"tt0110308","world_art_id":null,"type":"movie","add":"2019-01-16 15:55:51","orig_title":"The Last Seduction","year":"1994-05-26","translations":["Профессиональный (многоголосый закадровый) (Екатеринбург Арт)"],"quality":"bd","translation":"Профессиональный (многоголосый закадровый) (Екатеринбург Арт)","update":"2019-01-23 12:09:41","iframe_src":"//5091.svetacdn.in/71tsRs29n5tZ/movie/21548"},{"id":21547,"title":"Мангер Роуд","kp_id":"565942","imdb_id":"tt1720172","world_art_id":null,"type":"movie","add":"2019-01-16 15:53:49","orig_title":"Munger Road","year":"2011-09-30","translations":["Профессиональный (двухголосый закадровый)"],"quality":"webdl","translation":"Профессиональный (двухголосый закадровый)","update":"2019-01-23 12:08:26","iframe_src":"//5091.svetacdn.in/71tsRs29n5tZ/movie/21547"},{"id":21543,"title":"Три раза про это","kp_id":"502844","imdb_id":"tt2122516","world_art_id":null,"type":"movie","add":"2019-01-16 12:05:06","orig_title":"Tri raza pro eto","year":"2013-09-21","translations":["Оригинальная дорожка"],"quality":"webdl","translation":"Оригинальная дорожка","update":"2019-01-23 12:05:49","iframe_src":"//5091.svetacdn.in/71tsRs29n5tZ/movie/21543"},{"id":21542,"title":"Любовь на два полюса","kp_id":"660997","imdb_id":"tt3638692","world_art_id":null,"type":"movie","add":"2019-01-16 12:03:51","orig_title":"Lyubov na dva polyusa","year":"2012-03-11","translations":["Оригинальная дорожка"],"quality":"webdl","translation":"Оригинальная дорожка","update":"2019-01-23 12:04:18","iframe_src":"//5091.svetacdn.in/71tsRs29n5tZ/movie/21542"},{"id":21541,"title":"БАгИ","kp_id":"521993","imdb_id":"tt1806792","world_art_id":null,"type":"movie","add":"2019-01-16 11:59:41","orig_title":"BAgI","year":"2011-05-20","translations":["Оригинальная дорожка"],"quality":"webdl","translation":"Оригинальная дорожка","update":"2019-01-23 12:03:33","iframe_src":"//5091.svetacdn.in/71tsRs29n5tZ/movie/21541"},{"id":21540,"title":"Аварийное состояние","kp_id":"679753","imdb_id":"tt2373208","world_art_id":null,"type":"movie","add":"2019-01-16 11:58:38","orig_title":"Avariynoe sostoyanie","year":"2012-06-01","translations":["Оригинальная дорожка"],"quality":"webdl","translation":"Оригинальная дорожка","update":"2019-01-23 12:02:23","iframe_src":"//5091.svetacdn.in/71tsRs29n5tZ/movie/21540"},{"id":21460,"title":"Марокко","kp_id":"3389","imdb_id":"tt0021156","world_art_id":null,"type":"movie","add":"2019-01-12 08:38:03","orig_title":"Morocco","year":"1930-11-14","translations":["Профессиональный (многоголосый закадровый) (Film Prestige)"],"quality":"webdl","translation":"Профессиональный (многоголосый закадровый) (Film Prestige)","update":"2019-01-23 07:06:32","iframe_src":"//5091.svetacdn.in/71tsRs29n5tZ/movie/21460"}],"current_page":1802,"first_page_url":"https://videocdn.tv/api/short?limit=100&api_token=EnbO9h8pv1VyjbCJhg0WM9nG259n7mtz&cache31802=31802&page=1","from":180101,"last_page":665,"last_page_url":"https://videocdn.tv/api/short?limit=100&api_token=EnbO9h8pv1VyjbCJhg0WM9nG259n7mtz&cache31802=31802&page=665","next_page_url":null,"path":"https://videocdn.tv/api/short","per_page":100,"prev_page_url":"https://videocdn.tv/api/short?limit=100&api_token=EnbO9h8pv1VyjbCJhg0WM9nG259n7mtz&cache31802=31802&page=1801","to":180120,"total":66453}