{"result":true,"data":[{"id":24688,"title":"Анна Каренина","kp_id":"296664","imdb_id":"tt0267267","world_art_id":null,"type":"movie","add":"2019-04-16 08:33:34","orig_title":"Anna Karenina","year":"1961-11-03","translations":["Любительский (многоголосый закадровый) (Колобок)"],"quality":"dvdrip","translation":"Любительский (многоголосый закадровый) (Колобок)","update":"2019-04-16 09:23:51","iframe_src":"//8543.svetacdn.in/71tsRs29n5tZ/movie/24688"},{"id":24658,"title":"Готика Бронкса","kp_id":"1046460","imdb_id":"tt6709826","world_art_id":null,"type":"movie","add":"2019-04-15 21:25:43","orig_title":"Bronx Gothic","year":"2017-04-08","translations":["Любительский (многоголосый закадровый) (Синема УС)"],"quality":"webdl","translation":"Любительский (многоголосый закадровый) (Синема УС)","update":"2019-04-16 06:05:57","iframe_src":"//8543.svetacdn.in/71tsRs29n5tZ/movie/24658"},{"id":24373,"title":"Караван смерти","kp_id":"44715","imdb_id":"tt0102188","world_art_id":null,"type":"movie","add":"2019-04-11 23:35:49","orig_title":"Karavan smerti","year":"1991-01-01","translations":["Оригинальная дорожка"],"quality":"dvdrip","translation":"Оригинальная дорожка","update":"2019-04-16 10:17:14","iframe_src":"//8543.svetacdn.in/71tsRs29n5tZ/movie/24373"},{"id":24372,"title":"Мой друг Иван Лапшин","kp_id":"46671","imdb_id":"tt0084345","world_art_id":null,"type":"movie","add":"2019-04-11 23:30:36","orig_title":"Moy drug Ivan Lapshin","year":"1986-09-26","translations":["Оригинальная дорожка"],"quality":"dvdrip","translation":"Оригинальная дорожка","update":"2019-04-16 10:16:25","iframe_src":"//8543.svetacdn.in/71tsRs29n5tZ/movie/24372"},{"id":24371,"title":"Назначение","kp_id":"95346","imdb_id":"tt0141649","world_art_id":null,"type":"movie","add":"2019-04-11 23:23:22","orig_title":"Naznacheniye","year":"1980-01-01","translations":["Оригинальная дорожка"],"quality":"dvdrip","translation":"Оригинальная дорожка","update":"2019-04-16 06:13:42","iframe_src":"//8543.svetacdn.in/71tsRs29n5tZ/movie/24371"},{"id":24370,"title":"Наутилус","kp_id":"46355","imdb_id":"tt0100231","world_art_id":null,"type":"movie","add":"2019-04-11 23:16:16","orig_title":"Nautilus","year":"1990-01-01","translations":["Оригинальная дорожка"],"quality":"tv","translation":"Оригинальная дорожка","update":"2019-04-16 06:12:52","iframe_src":"//8543.svetacdn.in/71tsRs29n5tZ/movie/24370"},{"id":24369,"title":"Разведчики","kp_id":"42073","imdb_id":"tt0063491","world_art_id":null,"type":"movie","add":"2019-04-11 23:07:06","orig_title":"Razvedchiki","year":"1969-05-19","translations":["Оригинальная дорожка"],"quality":"dvdrip","translation":"Оригинальная дорожка","update":"2019-04-16 06:11:08","iframe_src":"//8543.svetacdn.in/71tsRs29n5tZ/movie/24369"},{"id":24368,"title":"Семейное счастье","kp_id":"43666","imdb_id":"tt0165465","world_art_id":null,"type":"movie","add":"2019-04-11 22:40:36","orig_title":"Semeynoe schaste","year":"1970-06-08","translations":["Оригинальная дорожка"],"quality":"dvdrip","translation":"Оригинальная дорожка","update":"2019-04-16 06:09:51","iframe_src":"//8543.svetacdn.in/71tsRs29n5tZ/movie/24368"},{"id":24367,"title":"Таинственная стена","kp_id":"42166","imdb_id":"tt0164187","world_art_id":null,"type":"movie","add":"2019-04-11 22:33:04","orig_title":"Tainstvennaya stena","year":"1967-01-01","translations":["Оригинальная дорожка"],"quality":"sat","translation":"Оригинальная дорожка","update":"2019-04-16 06:08:54","iframe_src":"//8543.svetacdn.in/71tsRs29n5tZ/movie/24367"},{"id":24365,"title":"Устрицы из Лозанны","kp_id":"40846","imdb_id":"tt0105707","world_art_id":null,"type":"movie","add":"2019-04-11 22:21:12","orig_title":"Ustritsy iz Lozanny","year":"1992-01-01","translations":["Оригинальная дорожка"],"quality":"dvdrip","translation":"Оригинальная дорожка","update":"2019-04-16 06:06:54","iframe_src":"//8543.svetacdn.in/71tsRs29n5tZ/movie/24365"},{"id":23361,"title":"Тройная угроза","kp_id":"1041862","imdb_id":"tt6643972","world_art_id":null,"type":"movie","add":"2019-03-22 06:09:15","orig_title":"Triple Threat","year":"2019-02-28","translations":["Полное дублирование (iTunes)","Original (English)"],"quality":"bd","translation":"Полное дублирование (iTunes)","update":"2019-04-16 06:54:51","iframe_src":"//8543.svetacdn.in/71tsRs29n5tZ/movie/23361"},{"id":22496,"title":"Вокс люкс","kp_id":"1005972","imdb_id":"tt5960374","world_art_id":null,"type":"movie","add":"2019-02-23 22:35:18","orig_title":"Vox Lux","year":"2018-09-04","translations":["Полное дублирование (iTunes)","Любительский (многоголосый закадровый) (@MUZOBOZ@)","Профессиональный (многоголосый закадровый) (HDrezka Studio)","Original (English)"],"quality":"bd","translation":"Полное дублирование (iTunes)","update":"2019-04-16 06:57:07","iframe_src":"//8543.svetacdn.in/71tsRs29n5tZ/movie/22496"},{"id":21930,"title":"Убийственная вечеринка","kp_id":"1148761","imdb_id":"tt8236214","world_art_id":null,"type":"movie","add":"2019-01-30 04:42:40","orig_title":"Slasher Party","year":"2019-01-27","translations":["Профессиональный (многоголосый закадровый) (HDrezka Studio)","Любительский (многоголосый закадровый) (Синема УС)","Original (English)"],"quality":"webdl","translation":"Профессиональный (многоголосый закадровый) (HDrezka Studio)","update":"2019-04-16 07:07:55","iframe_src":"//8543.svetacdn.in/71tsRs29n5tZ/movie/21930"},{"id":21855,"title":"Катастрофа \"Челленджера\"","kp_id":"1127531","imdb_id":"tt7783966","world_art_id":null,"type":"movie","add":"2019-01-27 00:14:20","orig_title":"The Challenger Disaster","year":"2019-01-25","translations":["Профессиональный (многоголосый закадровый) (HDrezka Studio)","Любительский (многоголосый закадровый) (Синема УС)","Original (English)"],"quality":"webdl","translation":"Профессиональный (многоголосый закадровый) (HDrezka Studio)","update":"2019-04-16 07:09:22","iframe_src":"//8543.svetacdn.in/71tsRs29n5tZ/movie/21855"},{"id":21609,"title":"Ио","kp_id":"806417","imdb_id":"tt3256226","world_art_id":null,"type":"movie","add":"2019-01-19 11:54:46","orig_title":"IO","year":"2019-01-18","translations":["Профессиональный (многоголосый закадровый) (HDrezka Studio)","Любительский (двухголосый закадровый)","Профессиональный (многоголосый закадровый) (AlphaProject)","Original (English)"],"quality":"webdl","translation":"Профессиональный (многоголосый закадровый) (HDrezka Studio)","update":"2019-04-16 07:04:08","iframe_src":"//8543.svetacdn.in/71tsRs29n5tZ/movie/21609"},{"id":8369,"title":"Пассажиры","kp_id":"470689","imdb_id":"tt1355644","world_art_id":null,"type":"movie","add":"2016-12-27 06:50:58","orig_title":"Passengers","year":"2016-12-14","translations":["Полное дублирование (iTunes)","Полное дублирование","Original (English)"],"quality":"webdl","translation":"Полное дублирование (iTunes)","update":"2019-04-16 06:49:22","iframe_src":"//8543.svetacdn.in/71tsRs29n5tZ/movie/8369"},{"id":3326,"title":"В джазе только девушки","kp_id":"356","imdb_id":"tt0053291","world_art_id":null,"type":"movie","add":"2016-06-23 11:21:51","orig_title":"Some Like It Hot","year":"1959-03-19","translations":["Полное дублирование","Original (English)"],"quality":"bd","translation":"Полное дублирование","update":"2019-04-16 06:52:04","iframe_src":"//8543.svetacdn.in/71tsRs29n5tZ/movie/3326"},{"id":2169,"title":"Хатико: Самый верный друг","kp_id":"387556","imdb_id":"tt1028532","world_art_id":null,"type":"movie","add":"2016-05-13 10:29:33","orig_title":"Hachi: A Dog's Tale","year":"2009-06-13","translations":["Полное дублирование","Original (English)"],"quality":"bd","translation":"Полное дублирование","update":"2019-04-16 06:34:58","iframe_src":"//8543.svetacdn.in/71tsRs29n5tZ/movie/2169"},{"id":2062,"title":"Падение Лондона","kp_id":"806977","imdb_id":"tt3300542","world_art_id":null,"type":"movie","add":"2016-05-11 11:34:38","orig_title":"London Has Fallen","year":"2016-03-01","translations":["Полное дублирование","Original (English)"],"quality":"webdl","translation":"Полное дублирование","update":"2019-04-16 06:37:11","iframe_src":"//8543.svetacdn.in/71tsRs29n5tZ/movie/2062"},{"id":1825,"title":"Храброе сердце","kp_id":"399","imdb_id":"tt0112573","world_art_id":null,"type":"movie","add":"2016-05-03 16:17:16","orig_title":"Braveheart","year":"1995-05-18","translations":["Полное дублирование","Original (English)"],"quality":"bd","translation":"Полное дублирование","update":"2019-04-16 06:30:37","iframe_src":"//8543.svetacdn.in/71tsRs29n5tZ/movie/1825"}],"current_page":1379,"first_page_url":"https://videocdn.tv/api/short?limit=100&api_token=EnbO9h8pv1VyjbCJhg0WM9nG259n7mtz&cache31379=31379&page=1","from":137801,"last_page":602,"last_page_url":"https://videocdn.tv/api/short?limit=100&api_token=EnbO9h8pv1VyjbCJhg0WM9nG259n7mtz&cache31379=31379&page=602","next_page_url":null,"path":"https://videocdn.tv/api/short","per_page":100,"prev_page_url":"https://videocdn.tv/api/short?limit=100&api_token=EnbO9h8pv1VyjbCJhg0WM9nG259n7mtz&cache31379=31379&page=1378","to":137820,"total":60136}