{"result":true,"data":[{"id":54916,"title":"Отпуск в наручниках","kp_id":"307537","imdb_id":"tt0938666","world_art_id":null,"type":"movie","add":"2021-11-30 06:25:26","orig_title":"Holiday in Handcuffs","year":"2006-02-04","translations":["[EN] Original (English)","Профессиональный (двухголосый закадровый) (НТВ)"],"quality":"webdl","translation":"[EN] Original (English)","update":"2021-11-30 11:50:00","iframe_src":"//2413.svetacdn.in/IAF0wWTdNYZm/movie/54916"},{"id":54915,"title":"Дракон, буйствующий в Северном море","kp_id":"55471","imdb_id":"tt0060510","world_art_id":null,"type":"movie","add":"2021-11-30 05:25:16","orig_title":"Hokkai no Abare-Ryu","year":"1966-01-01","translations":["Любительский (двухголосый закадровый) (АрхиAsia)"],"quality":"webdl","translation":"Любительский (двухголосый закадровый) (АрхиAsia)","update":"2021-11-30 08:18:35","iframe_src":"//2413.svetacdn.in/IAF0wWTdNYZm/movie/54915"},{"id":54914,"title":"Дядя Наджи","kp_id":null,"imdb_id":"tt15467960","world_art_id":null,"type":"movie","add":"2021-11-29 20:08:46","orig_title":"Uncle Naji","year":"2021-10-28","translations":["Любительский (двухголосый закадровый) (Колобок)"],"quality":"ts","translation":"Любительский (двухголосый закадровый) (Колобок)","update":"2021-11-30 08:37:22","iframe_src":"//2413.svetacdn.in/IAF0wWTdNYZm/movie/54914"},{"id":54913,"title":"Шоу Джемиля","kp_id":"1406778","imdb_id":"tt11843944","world_art_id":null,"type":"movie","add":"2021-11-29 20:00:06","orig_title":"The Cemil Show","year":"2021-02-04","translations":["Любительский (двухголосый закадровый) (Колобок)"],"quality":"ts","translation":"Любительский (двухголосый закадровый) (Колобок)","update":"2021-11-30 08:40:59","iframe_src":"//2413.svetacdn.in/IAF0wWTdNYZm/movie/54913"},{"id":54911,"title":"Чрево моря","kp_id":"1399331","imdb_id":"tt12831788","world_art_id":null,"type":"movie","add":"2021-11-29 19:56:29","orig_title":"El ventre del mar","year":"2021-06-04","translations":["Любительский (двухголосый закадровый) (Колобок)"],"quality":"ts","translation":"Любительский (двухголосый закадровый) (Колобок)","update":"2021-11-30 08:41:35","iframe_src":"//2413.svetacdn.in/IAF0wWTdNYZm/movie/54911"},{"id":54908,"title":"Залив Аламо","kp_id":"18435","imdb_id":"tt0088689","world_art_id":null,"type":"movie","add":"2021-11-29 09:30:43","orig_title":"Alamo Bay","year":"1985-04-03","translations":["Профессиональный (многоголосый закадровый) (Первый канал | ОРТ)"],"quality":"bd","translation":"Профессиональный (многоголосый закадровый) (Первый канал | ОРТ)","update":"2021-11-30 09:50:06","iframe_src":"//2413.svetacdn.in/IAF0wWTdNYZm/movie/54908"},{"id":54905,"title":"Власть","kp_id":"4367026","imdb_id":"tt13802376","world_art_id":null,"type":"movie","add":"2021-11-29 05:50:54","orig_title":"The Power","year":"2021-01-14","translations":["Профессиональный (многоголосый закадровый) (Лексикон)","Любительский (многоголосый закадровый) (Honey&Haseena)","Любительский (многоголосый закадровый) (FanStudio)"],"quality":"bd","translation":"Профессиональный (многоголосый закадровый) (Лексикон)","update":"2021-11-29 11:58:13","iframe_src":"//2413.svetacdn.in/IAF0wWTdNYZm/movie/54905"},{"id":54883,"title":"Протей","kp_id":"49093","imdb_id":"tt0379461","world_art_id":null,"type":"movie","add":"2021-11-27 16:50:49","orig_title":"Proteus","year":"2003-09-07","translations":["Любительский (одноголосый закадровый) (Кошкин Василий)"],"quality":"dvdrip","translation":"Любительский (одноголосый закадровый) (Кошкин Василий)","update":"2021-11-29 09:43:29","iframe_src":"//2413.svetacdn.in/IAF0wWTdNYZm/movie/54883"},{"id":54880,"title":"Подлый роман","kp_id":"480962","imdb_id":"tt1318995","world_art_id":null,"type":"movie","add":"2021-11-27 16:39:44","orig_title":"Vil romance","year":"2008-11-12","translations":["Любительский (одноголосый закадровый) (Кошкин Василий)"],"quality":"dvdrip","translation":"Любительский (одноголосый закадровый) (Кошкин Василий)","update":"2021-11-29 09:51:56","iframe_src":"//2413.svetacdn.in/IAF0wWTdNYZm/movie/54880"},{"id":54879,"title":"Истинная любовь","kp_id":"341856","imdb_id":"tt0436852","world_art_id":null,"type":"movie","add":"2021-11-27 16:37:52","orig_title":"True Love","year":"2004-08-26","translations":["Любительский (одноголосый закадровый) (Кошкин Василий)"],"quality":"dvdrip","translation":"Любительский (одноголосый закадровый) (Кошкин Василий)","update":"2021-11-29 09:50:05","iframe_src":"//2413.svetacdn.in/IAF0wWTdNYZm/movie/54879"},{"id":54877,"title":"Чилаут","kp_id":"77226","imdb_id":"tt0260799","world_art_id":null,"type":"movie","add":"2021-11-27 15:59:31","orig_title":"Chill Out","year":"2000-09-08","translations":["Любительский (одноголосый закадровый) (Кошкин Василий)"],"quality":"dvdrip","translation":"Любительский (одноголосый закадровый) (Кошкин Василий)","update":"2021-11-29 09:53:55","iframe_src":"//2413.svetacdn.in/IAF0wWTdNYZm/movie/54877"},{"id":7445,"title":"Танкист","kp_id":"1366227","imdb_id":null,"world_art_id":null,"type":"serial","add":"2020-05-08 19:43:52","orig_title":"Танкист","year":"2015-01-01","translations":["Оригинальная дорожка"],"seasons_count":1,"episodes_count":4,"episodes":4,"update":"2020-05-09 06:44:05","iframe_src":"//2413.svetacdn.in/IAF0wWTdNYZm/tv-series/7445"},{"id":7435,"title":"Расширяющаяся вселенная Эшли Гарсиа","kp_id":"1307541","imdb_id":"tt10380934","world_art_id":null,"type":"serial","add":"2020-05-07 20:34:56","orig_title":"The Expanding Universe of Ashley Garcia","year":"2020-02-17","translations":["Любительский (многоголосый закадровый) (Octopus)"],"seasons_count":1,"episodes_count":8,"episodes":8,"update":"2020-05-08 05:55:10","iframe_src":"//2413.svetacdn.in/IAF0wWTdNYZm/tv-series/7435"},{"id":7430,"title":"Возвращение чемпиона","kp_id":"1033117","imdb_id":"tt5154952","world_art_id":null,"type":"serial","add":"2020-05-07 12:15:33","orig_title":"Vechtershart","year":"2015-11-22","translations":["Профессиональный (многоголосый закадровый) (ShowJet)"],"seasons_count":2,"episodes_count":18,"episodes":10,"update":"2020-05-07 21:27:54","iframe_src":"//2413.svetacdn.in/IAF0wWTdNYZm/tv-series/7430"},{"id":7428,"title":"BBC: Чудеса Солнечной системы","kp_id":"573738","imdb_id":"tt1611787","world_art_id":null,"type":"serial","add":"2020-05-07 09:18:57","orig_title":"Wonders of the Solar System","year":"2010-03-07","translations":["Профессиональный (одноголосый закадровый)"],"seasons_count":1,"episodes_count":5,"episodes":5,"update":"2020-05-07 19:01:35","iframe_src":"//2413.svetacdn.in/IAF0wWTdNYZm/tv-series/7428"},{"id":7427,"title":"В одну реку дважды","kp_id":"1371989","imdb_id":null,"world_art_id":null,"type":"serial","add":"2020-05-07 08:09:40","orig_title":"В одну реку дважды","year":"2020-05-16","translations":["Оригинальная дорожка"],"seasons_count":1,"episodes_count":4,"episodes":4,"update":"2020-05-07 17:47:38","iframe_src":"//2413.svetacdn.in/IAF0wWTdNYZm/tv-series/7427"},{"id":7426,"title":"Идеальный брак","kp_id":"1346402","imdb_id":null,"world_art_id":null,"type":"serial","add":"2020-05-07 08:03:34","orig_title":"Идеальный брак","year":"2020-02-15","translations":["Оригинальная дорожка"],"seasons_count":1,"episodes_count":4,"episodes":4,"update":"2020-05-07 17:39:00","iframe_src":"//2413.svetacdn.in/IAF0wWTdNYZm/tv-series/7426"},{"id":7423,"title":"Гнилые","kp_id":"1111973","imdb_id":"tt7763662","world_art_id":null,"type":"serial","add":"2020-05-06 20:04:51","orig_title":"Rotten","year":"2018-01-05","translations":["Любительский (одноголосый закадровый)"],"seasons_count":1,"episodes_count":6,"episodes":6,"update":"2020-05-07 21:16:21","iframe_src":"//2413.svetacdn.in/IAF0wWTdNYZm/tv-series/7423"},{"id":7413,"title":"Истории на изоляции","kp_id":"1378756","imdb_id":"tt12250382","world_art_id":null,"type":"serial","add":"2020-05-06 10:05:54","orig_title":"Isolation Stories","year":"2020-05-04","translations":["Любительский (многоголосый закадровый) (Octopus)","Любительский (многоголосый закадровый) (ColdFilm)"],"seasons_count":1,"episodes_count":4,"episodes":4,"update":"2020-05-08 17:19:34","iframe_src":"//2413.svetacdn.in/IAF0wWTdNYZm/tv-series/7413"},{"id":7412,"title":"Супер Макс","kp_id":"724223","imdb_id":"tt3501648","world_art_id":null,"type":"serial","add":"2020-05-06 09:49:02","orig_title":"Super Maks","year":"2013-07-20","translations":["Оригинальная дорожка"],"seasons_count":1,"episodes_count":20,"episodes":20,"update":"2020-05-08 15:30:13","iframe_src":"//2413.svetacdn.in/IAF0wWTdNYZm/tv-series/7412"},{"id":7410,"title":"Эшелон","kp_id":"391404","imdb_id":"tt0951314","world_art_id":null,"type":"serial","add":"2020-05-06 09:34:37","orig_title":"Eshelon","year":"2005-01-01","translations":["Оригинальная дорожка"],"seasons_count":1,"episodes_count":8,"episodes":8,"update":"2020-05-08 14:59:28","iframe_src":"//2413.svetacdn.in/IAF0wWTdNYZm/tv-series/7410"},{"id":7403,"title":"Человеческая Вселенная","kp_id":"893674","imdb_id":"tt4162128","world_art_id":null,"type":"serial","add":"2020-05-05 11:13:29","orig_title":"Human Universe","year":"2014-10-07","translations":["Профессиональный (двухголосый закадровый) (Омикрон)"],"seasons_count":1,"episodes_count":5,"episodes":5,"update":"2020-05-08 17:31:44","iframe_src":"//2413.svetacdn.in/IAF0wWTdNYZm/tv-series/7403"},{"id":7400,"title":"Вторая мировая война — день за днём","kp_id":"466550","imdb_id":"tt4621142","world_art_id":null,"type":"serial","add":"2020-05-05 05:14:06","orig_title":"Vtoraya mirovaya voyna: den za dnem","year":"2005-03-01","translations":["Оригинальная дорожка"],"seasons_count":1,"episodes_count":96,"episodes":96,"update":"2020-05-08 11:13:47","iframe_src":"//2413.svetacdn.in/IAF0wWTdNYZm/tv-series/7400"},{"id":7396,"title":"Непобедимый Спайдермен","kp_id":"229687","imdb_id":"tt0207120","world_art_id":null,"type":"serial","add":"2020-05-04 12:48:54","orig_title":"Spider-Man Unlimited","year":"1999-10-02","translations":["Полное дублирование (РенТВ)"],"seasons_count":1,"episodes_count":13,"episodes":13,"update":"2020-05-07 19:31:02","iframe_src":"//2413.svetacdn.in/IAF0wWTdNYZm/tv-series/7396"},{"id":7395,"title":"Второе восстание Спартака","kp_id":"661143","imdb_id":null,"world_art_id":null,"type":"serial","add":"2020-05-04 12:39:41","orig_title":"Vtoroye vosstaniye Spartaka","year":"2013-02-08","translations":["Оригинальная дорожка"],"seasons_count":1,"episodes_count":8,"episodes":8,"update":"2020-05-07 19:26:44","iframe_src":"//2413.svetacdn.in/IAF0wWTdNYZm/tv-series/7395"},{"id":7360,"title":"Трансформеры: Зверо-роботы","kp_id":"229208","imdb_id":"tt0189315","world_art_id":null,"type":"serial","add":"2020-05-01 09:06:31","orig_title":"Beast Machines: Transformers","year":"1999-09-18","translations":["Профессиональный (многоголосый закадровый)"],"seasons_count":2,"episodes_count":26,"episodes":13,"update":"2020-05-08 13:52:10","iframe_src":"//2413.svetacdn.in/IAF0wWTdNYZm/tv-series/7360"},{"id":7264,"title":"Добровольцы","kp_id":"1253103","imdb_id":"tt10086768","world_art_id":null,"type":"serial","add":"2020-04-22 11:02:22","orig_title":"Dobrovoltsy","year":"2020-04-20","translations":["Оригинальная дорожка"],"seasons_count":1,"episodes_count":16,"episodes":16,"update":"2020-05-07 12:24:53","iframe_src":"//2413.svetacdn.in/IAF0wWTdNYZm/tv-series/7264"},{"id":33962,"title":"Секта","kp_id":"1264122","imdb_id":"tt4925340","world_art_id":null,"type":"movie","add":"2019-12-11 18:22:34","orig_title":"Il nido","year":"2019-08-15","translations":["Любительский (многоголосый закадровый) (AlphaProject)","Полное дублирование","Полное дублирование (SoulPro)"],"quality":"bd","translation":"Любительский (многоголосый закадровый) (AlphaProject)","update":"2021-11-29 09:52:55","iframe_src":"//2413.svetacdn.in/IAF0wWTdNYZm/movie/33962"},{"id":5421,"title":"Параллельные миры","kp_id":"89587","imdb_id":"tt0112167","world_art_id":null,"type":"serial","add":"2019-10-08 11:59:58","orig_title":"Sliders","year":"1995-03-22","translations":["Профессиональный (многоголосый закадровый) (AXN Sci-Fi)"],"seasons_count":5,"episodes_count":87,"episodes":18,"update":"2020-05-08 09:39:39","iframe_src":"//2413.svetacdn.in/IAF0wWTdNYZm/tv-series/5421"},{"id":28016,"title":"Волчья стая","kp_id":"181542","imdb_id":"tt0140683","world_art_id":null,"type":"movie","add":"2019-06-19 19:51:09","orig_title":"Volchya staya","year":"1975-11-24","translations":["Оригинальная дорожка"],"quality":"webdl","translation":"Оригинальная дорожка","update":"2021-11-30 09:52:23","iframe_src":"//2413.svetacdn.in/IAF0wWTdNYZm/movie/28016"},{"id":23571,"title":"Великая война гоблинов","kp_id":"88258","imdb_id":"tt0425661","world_art_id":null,"type":"movie","add":"2019-03-27 22:00:04","orig_title":"Yôkai daisensô","year":"2005-08-06","translations":["Профессиональный (многоголосый закадровый) (Инис)"],"quality":"bd","translation":"Профессиональный (многоголосый закадровый) (Инис)","update":"2021-11-30 06:38:10","iframe_src":"//2413.svetacdn.in/IAF0wWTdNYZm/movie/23571"},{"id":22678,"title":"Сверхъестественное","kp_id":"1020883","imdb_id":"tt6294226","world_art_id":null,"type":"movie","add":"2019-03-03 20:58:28","orig_title":"Stray","year":"2019-03-01","translations":["Профессиональный (многоголосый закадровый) (HDrezka Studio)","Профессиональный (многоголосый закадровый) (IVI)","[EN] Original (English)"],"quality":"webdl","translation":"Профессиональный (многоголосый закадровый) (HDrezka Studio)","update":"2021-11-30 08:19:46","iframe_src":"//2413.svetacdn.in/IAF0wWTdNYZm/movie/22678"},{"id":2667,"title":"Спаси меня","kp_id":"1115038","imdb_id":"tt6538034","world_art_id":null,"type":"serial","add":"2018-05-27 09:35:20","orig_title":"Save Me","year":"2018-02-28","translations":["Профессиональный (многоголосый закадровый) (BaibaKo)","Профессиональный (многоголосый закадровый) (NewStudio)","Любительский (многоголосый закадровый) (ColdFilm)"],"seasons_count":2,"episodes_count":12,"episodes":6,"update":"2020-05-08 06:04:55","iframe_src":"//2413.svetacdn.in/IAF0wWTdNYZm/tv-series/2667"},{"id":11570,"title":"Мания величия","kp_id":"37825","imdb_id":"tt0067108","world_art_id":null,"type":"movie","add":"2017-05-16 05:37:49","orig_title":"La folie des grandeurs","year":"1971-12-08","translations":["Профессиональный (многоголосый закадровый) (Первый канал | ОРТ)","Профессиональный (многоголосый закадровый) (DVD Магия)"],"quality":"bd","translation":"Профессиональный (многоголосый закадровый) (Первый канал | ОРТ)","update":"2021-11-30 12:09:34","iframe_src":"//2413.svetacdn.in/IAF0wWTdNYZm/movie/11570"},{"id":1194,"title":"Брокмайр","kp_id":"1008790","imdb_id":"tt5722190","world_art_id":null,"type":"serial","add":"2017-04-18 07:23:27","orig_title":"Brockmire","year":"2017-04-05","translations":["Профессиональный (многоголосый закадровый) (IdeaFilm)","Профессиональный (многоголосый закадровый) (BaibaKo)","Профессиональный (многоголосый закадровый) (TVShows)","Любительский (многоголосый закадровый) (ColdFilm)"],"seasons_count":4,"episodes_count":32,"episodes":8,"update":"2020-05-08 13:05:53","iframe_src":"//2413.svetacdn.in/IAF0wWTdNYZm/tv-series/1194"},{"id":914,"title":"Деньги","kp_id":"954289","imdb_id":"tt6574888","world_art_id":null,"type":"serial","add":"2017-01-20 07:02:49","orig_title":"Dengi","year":"2016-04-25","translations":["Оригинальная дорожка"],"seasons_count":1,"episodes_count":8,"episodes":8,"update":"2020-05-07 13:37:33","iframe_src":"//2413.svetacdn.in/IAF0wWTdNYZm/tv-series/914"},{"id":4425,"title":"Приказано уничтожить","kp_id":"3532","imdb_id":"tt0116253","world_art_id":null,"type":"movie","add":"2016-08-15 08:23:21","orig_title":"Executive Decision","year":"1996-03-15","translations":["Полное дублирование (Варус-Видео)","Полное дублирование (Мост-Видео)","[EN] Original (English)","Авторский (одноголосый закадровый) (Гаврилов Андрей)","Авторский (одноголосый закадровый) (Визгунов Сергей)","Профессиональный (двухголосый закадровый) (НТВ)","Профессиональный (многоголосый закадровый) (РТР | Россия)"],"quality":"bd","translation":"Полное дублирование (Варус-Видео)","update":"2021-11-29 14:46:38","iframe_src":"//2413.svetacdn.in/IAF0wWTdNYZm/movie/4425"},{"id":4266,"title":"В воздухе","kp_id":"714934","imdb_id":"tt2494384","world_art_id":null,"type":"movie","add":"2016-08-02 04:38:31","orig_title":"Aloft","year":"2014-02-12","translations":["[EN] Original (English)","Профессиональный (многоголосый закадровый)"],"quality":"bd","translation":"[EN] Original (English)","update":"2021-11-30 11:58:02","iframe_src":"//2413.svetacdn.in/IAF0wWTdNYZm/movie/4266"},{"id":2338,"title":"Тебе конец!","kp_id":"584175","imdb_id":"tt1853739","world_art_id":null,"type":"movie","add":"2016-05-19 05:46:18","orig_title":"You're Next","year":"2011-09-10","translations":["Полное дублирование","[EN] Original (English)","Полное дублирование","Авторский (одноголосый закадровый) (Дольский Андрей)"],"quality":"bd","translation":"Полное дублирование","update":"2021-11-30 12:02:52","iframe_src":"//2413.svetacdn.in/IAF0wWTdNYZm/movie/2338"},{"id":2106,"title":"Голос","kp_id":"806934","imdb_id":"tt3302706","world_art_id":null,"type":"movie","add":"2016-05-12 16:16:22","orig_title":"Boychoir","year":"2014-09-05","translations":["[EN] Original (English)","Полное дублирование (Прайд Продакшн | Pride Production)"],"quality":"bd","translation":"[EN] Original (English)","update":"2021-11-30 11:46:04","iframe_src":"//2413.svetacdn.in/IAF0wWTdNYZm/movie/2106"}],"current_page":344,"first_page_url":"https://videocdn.tv/api/short?limit=100&api_token=6Onb1W1alEUrBcKJZD3GoKBbWyAl2uG2&cache3344=3344&page=1","from":34301,"last_page":720,"last_page_url":"https://videocdn.tv/api/short?limit=100&api_token=6Onb1W1alEUrBcKJZD3GoKBbWyAl2uG2&cache3344=3344&page=720","next_page_url":"https://videocdn.tv/api/short?limit=100&api_token=6Onb1W1alEUrBcKJZD3GoKBbWyAl2uG2&cache3344=3344&page=345","path":"https://videocdn.tv/api/short","per_page":100,"prev_page_url":"https://videocdn.tv/api/short?limit=100&api_token=6Onb1W1alEUrBcKJZD3GoKBbWyAl2uG2&cache3344=3344&page=343","to":34340,"total":71934}