{"result":true,"data":[{"id":50756,"title":"Жилец","kp_id":"9150","imdb_id":"tt0017075","world_art_id":null,"type":"movie","add":"2021-05-30 15:40:36","orig_title":"The Lodger: A Story of the London Fog","year":"1927-01-01","translations":["[EN] Original (English)"],"quality":"bd","translation":"[EN] Original (English)","update":"2021-05-31 07:29:59","iframe_src":"//2413.svetacdn.in/IAF0wWTdNYZm/movie/50756"},{"id":50719,"title":"Тоби","kp_id":"132976","imdb_id":"tt0078404","world_art_id":null,"type":"movie","add":"2021-05-29 05:33:58","orig_title":"Tobi","year":"1978-12-19","translations":["Любительский (одноголосый закадровый) (den904)"],"quality":"webdl","translation":"Любительский (одноголосый закадровый) (den904)","update":"2021-05-31 07:05:34","iframe_src":"//2413.svetacdn.in/IAF0wWTdNYZm/movie/50719"},{"id":50718,"title":"У пана Бога за межой","kp_id":"447116","imdb_id":"tt1368448","world_art_id":null,"type":"movie","add":"2021-05-29 05:31:36","orig_title":"U Pana Boga za miedza","year":"2009-04-22","translations":["Любительский (одноголосый закадровый)"],"quality":"bd","translation":"Любительский (одноголосый закадровый)","update":"2021-05-31 06:53:49","iframe_src":"//2413.svetacdn.in/IAF0wWTdNYZm/movie/50718"},{"id":50705,"title":"Джульетта и духи","kp_id":"63926","imdb_id":"tt0059229","world_art_id":null,"type":"movie","add":"2021-05-28 10:11:41","orig_title":"Giulietta degli spiriti","year":"1965-10-16","translations":["Профессиональный (двухголосый закадровый) (Культура | Россия К)"],"quality":"bd","translation":"Профессиональный (двухголосый закадровый) (Культура | Россия К)","update":"2021-05-31 07:14:20","iframe_src":"//2413.svetacdn.in/IAF0wWTdNYZm/movie/50705"},{"id":49147,"title":"Последние изображения кораблекрушения","kp_id":"108851","imdb_id":"tt0098732","world_art_id":null,"type":"movie","add":"2021-03-28 06:32:08","orig_title":"Últimas imágenes del naufragio","year":"1989-09-04","translations":["Авторский (одноголосый закадровый) (Чадов Михаил)","Авторский (одноголосый закадровый) (Алексеев Антон)"],"quality":"webdl","translation":"Авторский (одноголосый закадровый) (Чадов Михаил)","update":"2021-05-31 06:09:35","iframe_src":"//2413.svetacdn.in/IAF0wWTdNYZm/movie/49147"},{"id":49025,"title":"Опус мистера Холланда","kp_id":"2994","imdb_id":"tt0113862","world_art_id":null,"type":"movie","add":"2021-03-23 14:32:08","orig_title":"Mr. Holland's Opus","year":"1995-12-29","translations":["Профессиональный (двухголосый закадровый) (НТВ)","[EN] Original (English)","Авторский (одноголосый закадровый) (Володарский Леонид)"],"quality":"bd","translation":"Профессиональный (двухголосый закадровый) (НТВ)","update":"2021-05-31 07:29:04","iframe_src":"//2413.svetacdn.in/IAF0wWTdNYZm/movie/49025"},{"id":48983,"title":"Ваня с 42-й улицы","kp_id":"9913","imdb_id":"tt0111590","world_art_id":null,"type":"movie","add":"2021-03-22 04:59:40","orig_title":"Vanya on 42nd Street","year":"1994-09-10","translations":["Профессиональный (двухголосый закадровый) (СВ-Дубль)","[EN] Original (English)","Авторский (одноголосый закадровый) (Иванов Михаил)"],"quality":"bd","translation":"Профессиональный (двухголосый закадровый) (СВ-Дубль)","update":"2021-05-31 06:50:28","iframe_src":"//2413.svetacdn.in/IAF0wWTdNYZm/movie/48983"},{"id":48881,"title":"Ночной гость","kp_id":"13653","imdb_id":"tt0100254","world_art_id":null,"type":"movie","add":"2021-03-18 14:16:52","orig_title":"Night Visitor","year":"1989-05-12","translations":["Авторский (одноголосый закадровый) (Володарский Леонид)","[EN] Original (English)","Авторский (одноголосый закадровый) (Штейн Владимир)"],"quality":"bd","translation":"Авторский (одноголосый закадровый) (Володарский Леонид)","update":"2021-05-31 06:57:12","iframe_src":"//2413.svetacdn.in/IAF0wWTdNYZm/movie/48881"},{"id":47884,"title":"Начало","kp_id":"1387204","imdb_id":"tt12444572","world_art_id":null,"type":"movie","add":"2021-02-12 19:28:20","orig_title":"Beginning","year":"2020-09-11","translations":["Любительский (многоголосый закадровый) (Синема УС)","Любительский (многоголосый закадровый) (Синема УС)"],"quality":"webdl","translation":"Любительский (многоголосый закадровый) (Синема УС)","update":"2021-05-31 07:08:59","iframe_src":"//2413.svetacdn.in/IAF0wWTdNYZm/movie/47884"},{"id":30517,"title":"Безмолвная схватка","kp_id":"5532","imdb_id":"tt0111187","world_art_id":null,"type":"movie","add":"2019-09-03 13:33:07","orig_title":"Silent Fall","year":"1994-10-28","translations":["Полное дублирование (Варус-Видео)","[EN] Original (English)","Профессиональный (многоголосый закадровый) (Инис)"],"quality":"bd","translation":"Полное дублирование (Варус-Видео)","update":"2021-05-31 06:55:33","iframe_src":"//2413.svetacdn.in/IAF0wWTdNYZm/movie/30517"},{"id":11238,"title":"В плену у космоса","kp_id":"669525","imdb_id":"tt2268573","world_art_id":null,"type":"movie","add":"2017-04-26 13:15:17","orig_title":"Stranded","year":"2013-05-27","translations":["Профессиональный (двухголосый закадровый)","Любительский (одноголосый закадровый) (den904)","[EN] Original (English)"],"quality":"bd","translation":"Профессиональный (двухголосый закадровый)","update":"2021-05-31 05:42:41","iframe_src":"//2413.svetacdn.in/IAF0wWTdNYZm/movie/11238"},{"id":11032,"title":"Дорога на Вэлвилл","kp_id":"9866","imdb_id":"tt0111001","world_art_id":null,"type":"movie","add":"2017-04-17 14:24:51","orig_title":"The Road to Wellville","year":"1994-10-28","translations":["Профессиональный (многоголосый закадровый)","[EN] Original (English)","Авторский (одноголосый закадровый) (Сербин Юрий)"],"quality":"bd","translation":"Профессиональный (многоголосый закадровый)","update":"2021-05-31 07:34:01","iframe_src":"//2413.svetacdn.in/IAF0wWTdNYZm/movie/11032"},{"id":1090,"title":"Тихая семейная жизнь","kp_id":"430458","imdb_id":"tt1411972","world_art_id":null,"type":"serial","add":"2017-03-10 05:32:43","orig_title":"Tikhaya semeynaya zhizn","year":"2008-12-25","translations":["Оригинальная дорожка"],"seasons_count":1,"episodes_count":2,"episodes":2,"update":"2017-03-10 06:20:35","iframe_src":"//2413.svetacdn.in/IAF0wWTdNYZm/tv-series/1090"},{"id":1089,"title":"Лесное трио","kp_id":"885604","imdb_id":"tt1892622","world_art_id":null,"type":"serial","add":"2017-03-10 05:28:36","orig_title":"Log Jam","year":"2008-01-01","translations":["Оригинальная дорожка"],"seasons_count":1,"episodes_count":5,"episodes":5,"update":"2017-03-10 06:27:01","iframe_src":"//2413.svetacdn.in/IAF0wWTdNYZm/tv-series/1089"},{"id":1088,"title":"Доктор Анна","kp_id":"992619","imdb_id":null,"world_art_id":null,"type":"serial","add":"2017-03-09 09:29:40","orig_title":"Доктор Анна","year":"2017-01-30","translations":["Оригинальная дорожка"],"seasons_count":1,"episodes_count":8,"episodes":8,"update":"2017-03-09 14:43:44","iframe_src":"//2413.svetacdn.in/IAF0wWTdNYZm/tv-series/1088"},{"id":1087,"title":"Чистый футбол","kp_id":"1009198","imdb_id":null,"world_art_id":null,"type":"serial","add":"2017-03-09 09:10:42","orig_title":"Чистый футбол","year":"2017-02-09","translations":["Оригинальная дорожка"],"seasons_count":1,"episodes_count":2,"episodes":2,"update":"2017-03-09 14:56:13","iframe_src":"//2413.svetacdn.in/IAF0wWTdNYZm/tv-series/1087"},{"id":1084,"title":"Куркуль","kp_id":"1007967","imdb_id":null,"world_art_id":null,"type":"serial","add":"2017-03-06 06:34:15","orig_title":"Куркуль","year":"2017-03-05","translations":["Оригинальная дорожка"],"seasons_count":1,"episodes_count":2,"episodes":2,"update":"2017-03-07 05:58:52","iframe_src":"//2413.svetacdn.in/IAF0wWTdNYZm/tv-series/1084"},{"id":1083,"title":"Офицеры 2","kp_id":"447658","imdb_id":"tt1343355","world_art_id":null,"type":"serial","add":"2017-03-05 07:47:19","orig_title":"Ofitsery 2: Vsyo budet khorosho","year":"2009-02-25","translations":["Оригинальная дорожка"],"seasons_count":1,"episodes_count":8,"episodes":8,"update":"2017-03-07 12:10:09","iframe_src":"//2413.svetacdn.in/IAF0wWTdNYZm/tv-series/1083"},{"id":1082,"title":"Офицеры","kp_id":"254978","imdb_id":"tt0477235","world_art_id":null,"type":"serial","add":"2017-03-05 07:44:19","orig_title":"Ofitsery: Poslednie voiny imperii","year":"2006-03-01","translations":["Оригинальная дорожка"],"seasons_count":1,"episodes_count":8,"episodes":8,"update":"2017-03-06 11:15:45","iframe_src":"//2413.svetacdn.in/IAF0wWTdNYZm/tv-series/1082"},{"id":1081,"title":"Гадкий утёнок","kp_id":"581955","imdb_id":null,"world_art_id":null,"type":"serial","add":"2017-03-05 07:39:19","orig_title":"Гадкий утёнок","year":"2011-03-26","translations":["Оригинальная дорожка"],"seasons_count":1,"episodes_count":4,"episodes":4,"update":"2017-03-06 11:19:13","iframe_src":"//2413.svetacdn.in/IAF0wWTdNYZm/tv-series/1081"},{"id":1077,"title":"Ликвидация","kp_id":"378244","imdb_id":"tt1048097","world_art_id":null,"type":"serial","add":"2017-03-05 06:43:59","orig_title":"Likvidatsiya","year":"2007-10-21","translations":["Оригинальная дорожка"],"seasons_count":1,"episodes_count":14,"episodes":14,"update":"2017-03-06 10:53:43","iframe_src":"//2413.svetacdn.in/IAF0wWTdNYZm/tv-series/1077"},{"id":1074,"title":"Правосудие Чикаго","kp_id":"978844","imdb_id":"tt5640060","world_art_id":null,"type":"serial","add":"2017-03-04 06:00:49","orig_title":"Chicago Justice","year":"2017-03-01","translations":["Профессиональный (многоголосый закадровый) (IdeaFilm)"],"seasons_count":1,"episodes_count":1,"episodes":1,"update":"2017-03-06 07:53:46","iframe_src":"//2413.svetacdn.in/IAF0wWTdNYZm/tv-series/1074"},{"id":1072,"title":"Сэм и Кэт","kp_id":"716991","imdb_id":"tt2487090","world_art_id":null,"type":"serial","add":"2017-03-03 15:34:44","orig_title":"Sam & Cat","year":"2013-06-08","translations":["Полное дублирование"],"seasons_count":1,"episodes_count":35,"episodes":35,"update":"2017-03-06 10:50:52","iframe_src":"//2413.svetacdn.in/IAF0wWTdNYZm/tv-series/1072"},{"id":1071,"title":"Спасатель","kp_id":"1009504","imdb_id":null,"world_art_id":null,"type":"serial","add":"2017-03-03 12:07:27","orig_title":"Спасатель","year":"2017-02-19","translations":["Оригинальная дорожка"],"seasons_count":1,"episodes_count":2,"episodes":2,"update":"2017-03-03 17:25:32","iframe_src":"//2413.svetacdn.in/IAF0wWTdNYZm/tv-series/1071"},{"id":1070,"title":"Верность","kp_id":"1009348","imdb_id":null,"world_art_id":null,"type":"serial","add":"2017-03-03 12:05:48","orig_title":"Верность","year":"2017-02-18","translations":["Оригинальная дорожка"],"seasons_count":1,"episodes_count":2,"episodes":2,"update":"2017-03-03 17:01:05","iframe_src":"//2413.svetacdn.in/IAF0wWTdNYZm/tv-series/1070"},{"id":1068,"title":"Сколько стоит счастье","kp_id":"1009196","imdb_id":null,"world_art_id":null,"type":"serial","add":"2017-03-03 12:02:49","orig_title":"Сколько стоит счастье","year":"2017-02-11","translations":["Оригинальная дорожка"],"seasons_count":1,"episodes_count":2,"episodes":2,"update":"2017-03-03 17:02:00","iframe_src":"//2413.svetacdn.in/IAF0wWTdNYZm/tv-series/1068"},{"id":1064,"title":"Штрафник","kp_id":"958513","imdb_id":null,"world_art_id":null,"type":"serial","add":"2017-03-01 09:30:07","orig_title":"Штрафник","year":"2017-02-27","translations":["Оригинальная дорожка"],"seasons_count":1,"episodes_count":12,"episodes":12,"update":"2017-03-09 14:32:46","iframe_src":"//2413.svetacdn.in/IAF0wWTdNYZm/tv-series/1064"},{"id":1060,"title":"Екатерина","kp_id":"837646","imdb_id":"tt4231140","world_art_id":null,"type":"serial","add":"2017-02-28 13:55:39","orig_title":"Ekaterina","year":"2014-11-24","translations":["Оригинальная дорожка"],"seasons_count":1,"episodes_count":10,"episodes":10,"update":"2017-03-10 09:04:38","iframe_src":"//2413.svetacdn.in/IAF0wWTdNYZm/tv-series/1060"},{"id":1059,"title":"Екатерина. Взлет","kp_id":"992524","imdb_id":null,"world_art_id":null,"type":"serial","add":"2017-02-28 13:51:58","orig_title":"Екатерина. Взлет","year":"2017-02-27","translations":["Оригинальная дорожка"],"seasons_count":1,"episodes_count":12,"episodes":12,"update":"2017-03-09 14:36:25","iframe_src":"//2413.svetacdn.in/IAF0wWTdNYZm/tv-series/1059"},{"id":1058,"title":"Учитель в законе. Возвращение","kp_id":"712889","imdb_id":null,"world_art_id":null,"type":"serial","add":"2017-02-28 13:40:31","orig_title":"Учитель в законе. Возвращение","year":"2013-03-11","translations":["Оригинальная дорожка"],"seasons_count":1,"episodes_count":32,"episodes":32,"update":"2017-03-10 14:58:50","iframe_src":"//2413.svetacdn.in/IAF0wWTdNYZm/tv-series/1058"},{"id":852,"title":"Изумрудный город","kp_id":"840106","imdb_id":"tt3579018","world_art_id":null,"type":"serial","add":"2017-01-09 19:05:42","orig_title":"Emerald City","year":"2017-01-06","translations":["Профессиональный (многоголосый закадровый) (LostFilm)"],"seasons_count":1,"episodes_count":10,"episodes":10,"update":"2017-03-06 07:50:47","iframe_src":"//2413.svetacdn.in/IAF0wWTdNYZm/tv-series/852"},{"id":5981,"title":"Хороший сосед","kp_id":"674921","imdb_id":"tt2262315","world_art_id":null,"type":"movie","add":"2016-10-08 14:48:28","orig_title":"The Good Neighbor","year":"2016-03-13","translations":["Любительский (многоголосый закадровый) (Синема УС)","Профессиональный (многоголосый закадровый) (GreenРай Studio)","Профессиональный (двухголосый закадровый) (Киноужас)","Авторский (одноголосый закадровый) (Дохалов Вартан)","[EN] Original (English)"],"quality":"bd","translation":"Любительский (многоголосый закадровый) (Синема УС)","update":"2021-05-31 05:41:07","iframe_src":"//2413.svetacdn.in/IAF0wWTdNYZm/movie/5981"},{"id":439,"title":"Мамочки","kp_id":"935892","imdb_id":null,"world_art_id":null,"type":"serial","add":"2016-09-12 14:45:30","orig_title":"Мамочки","year":"2015-12-07","translations":["Оригинальная дорожка"],"seasons_count":3,"episodes_count":60,"episodes":20,"update":"2017-03-08 08:35:40","iframe_src":"//2413.svetacdn.in/IAF0wWTdNYZm/tv-series/439"},{"id":4076,"title":"Цветок моей тайны","kp_id":"16994","imdb_id":"tt0113083","world_art_id":null,"type":"movie","add":"2016-07-20 21:33:42","orig_title":"La flor de mi secreto","year":"1995-09-22","translations":["Любительский (двухголосый закадровый)","Профессиональный (двухголосый закадровый)","Профессиональный (двухголосый закадровый) (Видеоимпульс)"],"quality":"bd","translation":"Любительский (двухголосый закадровый)","update":"2021-05-31 07:24:10","iframe_src":"//2413.svetacdn.in/IAF0wWTdNYZm/movie/4076"},{"id":3202,"title":"Доверься","kp_id":"25376","imdb_id":"tt0103130","world_art_id":null,"type":"movie","add":"2016-06-16 07:44:42","orig_title":"Trust","year":"1990-09-09","translations":["Любительский (одноголосый закадровый)","Авторский (одноголосый закадровый) (Есарев Дмитрий)","[EN] Original (English)","Любительский (одноголосый закадровый)"],"quality":"bd","translation":"Любительский (одноголосый закадровый)","update":"2021-05-31 06:52:03","iframe_src":"//2413.svetacdn.in/IAF0wWTdNYZm/movie/3202"},{"id":2760,"title":"Хулиганы","kp_id":"77444","imdb_id":"tt0385002","world_art_id":null,"type":"movie","add":"2016-05-31 07:15:59","orig_title":"Hooligans","year":"2005-03-12","translations":["Профессиональный (многоголосый закадровый)","Профессиональный (многоголосый закадровый) (Tycoon)","Профессиональный (многоголосый закадровый) (CP Digital)","[EN] Original (English)"],"quality":"bd","translation":"Профессиональный (многоголосый закадровый)","update":"2021-05-31 05:53:45","iframe_src":"//2413.svetacdn.in/IAF0wWTdNYZm/movie/2760"},{"id":2239,"title":"Братья","kp_id":"253761","imdb_id":"tt0765010","world_art_id":null,"type":"movie","add":"2016-05-17 04:32:57","orig_title":"Brothers","year":"2009-11-22","translations":["Профессиональный (многоголосый закадровый)","Профессиональный (многоголосый закадровый) (CP Digital)","Авторский (одноголосый закадровый) (Немахов Юрий)","[EN] Original (English)"],"quality":"bd","translation":"Профессиональный (многоголосый закадровый)","update":"2021-05-31 05:57:49","iframe_src":"//2413.svetacdn.in/IAF0wWTdNYZm/movie/2239"},{"id":2187,"title":"Мой личный штат Айдахо","kp_id":"3805","imdb_id":"tt0102494","world_art_id":null,"type":"movie","add":"2016-05-15 06:37:17","orig_title":"My Own Private Idaho","year":"1991-07-20","translations":["Профессиональный (многоголосый закадровый)","Профессиональный (двухголосый закадровый) (Союз Видео)","[EN] Original (English)","Авторский (одноголосый закадровый) (Кузнецов Сергей)"],"quality":"bd","translation":"Профессиональный (многоголосый закадровый)","update":"2021-05-31 07:32:30","iframe_src":"//2413.svetacdn.in/IAF0wWTdNYZm/movie/2187"},{"id":1984,"title":"Семь лет в Тибете","kp_id":"5423","imdb_id":"tt0120102","world_art_id":null,"type":"movie","add":"2016-05-09 05:01:24","orig_title":"Seven Years in Tibet","year":"1997-09-03","translations":["Профессиональный (многоголосый закадровый)","Профессиональный (многоголосый закадровый) (Видеосервис)","[EN] Original (English)","Профессиональный (многоголосый закадровый) (Superbit)"],"quality":"bd","translation":"Профессиональный (многоголосый закадровый)","update":"2021-05-31 06:58:44","iframe_src":"//2413.svetacdn.in/IAF0wWTdNYZm/movie/1984"},{"id":1460,"title":"Сутенер","kp_id":"491850","imdb_id":"tt1437361","world_art_id":null,"type":"movie","add":"2016-04-21 15:02:16","orig_title":"Le mac","year":"2010-01-22","translations":["Полное дублирование","Профессиональный (многоголосый закадровый) (Первый канал | ОРТ)","Полное дублирование"],"quality":"bd","translation":"Полное дублирование","update":"2021-05-31 07:04:27","iframe_src":"//2413.svetacdn.in/IAF0wWTdNYZm/movie/1460"}],"current_page":587,"first_page_url":"https://videocdn.tv/api/short?limit=100&api_token=6Onb1W1alEUrBcKJZD3GoKBbWyAl2uG2&cache3587=3587&page=1","from":58601,"last_page":717,"last_page_url":"https://videocdn.tv/api/short?limit=100&api_token=6Onb1W1alEUrBcKJZD3GoKBbWyAl2uG2&cache3587=3587&page=717","next_page_url":"https://videocdn.tv/api/short?limit=100&api_token=6Onb1W1alEUrBcKJZD3GoKBbWyAl2uG2&cache3587=3587&page=588","path":"https://videocdn.tv/api/short","per_page":100,"prev_page_url":"https://videocdn.tv/api/short?limit=100&api_token=6Onb1W1alEUrBcKJZD3GoKBbWyAl2uG2&cache3587=3587&page=586","to":58640,"total":71614}