{"result":true,"data":[{"id":42995,"title":"Брейк","kp_id":"897836","imdb_id":"tt4590390","world_art_id":null,"type":"movie","add":"2020-09-01 11:45:14","orig_title":"Break","year":"2020-07-22","translations":["Любительский (многоголосый закадровый) (@MUZOBOZ@)"],"quality":"webdl","translation":"Любительский (многоголосый закадровый) (@MUZOBOZ@)","update":"2020-09-01 18:36:36","iframe_src":"//83.svetacdn.in/PfJ50H0ZBPg3/movie/42995"},{"id":42994,"title":"Тёмная тропа","kp_id":"1283019","imdb_id":"tt10546058","world_art_id":null,"type":"movie","add":"2020-09-01 11:40:26","orig_title":"A Dark Path","year":"2020-08-10","translations":["Любительский (многоголосый закадровый) (@MUZOBOZ@)"],"quality":"webdl","translation":"Любительский (многоголосый закадровый) (@MUZOBOZ@)","update":"2020-09-01 18:40:45","iframe_src":"//83.svetacdn.in/PfJ50H0ZBPg3/movie/42994"},{"id":42993,"title":"Легенда острова Леди-оборотня","kp_id":"1021569","imdb_id":"tt6389864","world_art_id":null,"type":"movie","add":"2020-09-01 11:17:37","orig_title":"The Legend of Dog Lady Island","year":"2020-08-04","translations":["Любительский (многоголосый закадровый) (Синема УС)"],"quality":"webdl","translation":"Любительский (многоголосый закадровый) (Синема УС)","update":"2020-09-01 18:41:19","iframe_src":"//83.svetacdn.in/PfJ50H0ZBPg3/movie/42993"},{"id":42951,"title":"Веселые сценки из жизни животных","kp_id":"41207","imdb_id":"tt0002226","world_art_id":null,"type":"movie","add":"2020-08-30 21:23:40","orig_title":"Veselye stsenki iz zhizni zhivotnykh","year":"1912-01-01","translations":["Оригинальная дорожка"],"quality":"dvdrip","translation":"Оригинальная дорожка","update":"2020-09-01 12:55:29","iframe_src":"//83.svetacdn.in/PfJ50H0ZBPg3/movie/42951"},{"id":42950,"title":"Алло! Вас слышу!","kp_id":"591978","imdb_id":"tt2323786","world_art_id":null,"type":"movie","add":"2020-08-30 21:20:22","orig_title":"Allo! Vas slyshu!","year":"1971-01-01","translations":["Оригинальная дорожка"],"quality":"sat","translation":"Оригинальная дорожка","update":"2020-09-01 12:54:32","iframe_src":"//83.svetacdn.in/PfJ50H0ZBPg3/movie/42950"},{"id":42949,"title":"Бабушкин зонтик","kp_id":"452892","imdb_id":"tt11667930","world_art_id":null,"type":"movie","add":"2020-08-30 21:18:19","orig_title":"Babushkin zontik","year":"1969-01-01","translations":["Оригинальная дорожка"],"quality":"sat","translation":"Оригинальная дорожка","update":"2020-09-01 12:53:52","iframe_src":"//83.svetacdn.in/PfJ50H0ZBPg3/movie/42949"},{"id":42948,"title":"Бестолковый вомбат","kp_id":"586447","imdb_id":null,"world_art_id":null,"type":"movie","add":"2020-08-30 21:15:27","orig_title":"Бестолковый вомбат","year":"1990-01-01","translations":["Оригинальная дорожка"],"quality":"dvdrip","translation":"Оригинальная дорожка","update":"2020-09-01 12:52:46","iframe_src":"//83.svetacdn.in/PfJ50H0ZBPg3/movie/42948"},{"id":42947,"title":"Братья Лю","kp_id":"255159","imdb_id":"tt2407346","world_art_id":null,"type":"movie","add":"2020-08-30 21:09:31","orig_title":"Bratya Lyu","year":"1953-01-01","translations":["Оригинальная дорожка"],"quality":"dvdrip","translation":"Оригинальная дорожка","update":"2020-09-01 12:36:52","iframe_src":"//83.svetacdn.in/PfJ50H0ZBPg3/movie/42947"},{"id":42946,"title":"Четыре неразлучных таракана и сверчок","kp_id":"446082","imdb_id":"tt6053024","world_art_id":null,"type":"movie","add":"2020-08-30 20:56:31","orig_title":"Chetyre nerazluchnykh tarakana i sverchok","year":"1975-01-01","translations":["Оригинальная дорожка"],"quality":"sat","translation":"Оригинальная дорожка","update":"2020-09-01 12:35:31","iframe_src":"//83.svetacdn.in/PfJ50H0ZBPg3/movie/42946"},{"id":42945,"title":"Где ты, мой конь?","kp_id":"581848","imdb_id":"tt6210206","world_art_id":null,"type":"movie","add":"2020-08-30 20:52:40","orig_title":"Gde ty, moy kon?","year":"1988-01-01","translations":["Оригинальная дорожка"],"quality":"dvdrip","translation":"Оригинальная дорожка","update":"2020-09-01 12:34:39","iframe_src":"//83.svetacdn.in/PfJ50H0ZBPg3/movie/42945"},{"id":42944,"title":"История Власа, лентяя и лоботряса","kp_id":"704840","imdb_id":null,"world_art_id":null,"type":"movie","add":"2020-08-30 20:49:18","orig_title":"История Власа, лентяя и лоботряса","year":"1959-01-01","translations":["Оригинальная дорожка"],"quality":"dvdrip","translation":"Оригинальная дорожка","update":"2020-09-01 12:34:04","iframe_src":"//83.svetacdn.in/PfJ50H0ZBPg3/movie/42944"},{"id":28454,"title":"Человек-паук: Вдали от дома","kp_id":"1008445","imdb_id":"tt6320628","world_art_id":null,"type":"movie","add":"2019-07-01 19:38:45","orig_title":"Spider-Man: Far from Home","year":"2019-06-26","translations":["Полное дублирование (iTunes)","Профессиональный (многоголосый закадровый) (HDrezka Studio)"],"quality":"bd","translation":"Полное дублирование (iTunes)","update":"2020-09-01 17:19:59","iframe_src":"//83.svetacdn.in/PfJ50H0ZBPg3/movie/28454"},{"id":18228,"title":"Элизабет Харвест","kp_id":"1048297","imdb_id":"tt6852872","world_art_id":null,"type":"movie","add":"2018-08-12 09:06:31","orig_title":"Elizabeth Harvest","year":"2018-03-10","translations":["Профессиональный (многоголосый закадровый) (iTunes)","Профессиональный (многоголосый закадровый) (HDrezka Studio)"],"quality":"bd","translation":"Профессиональный (многоголосый закадровый) (iTunes)","update":"2020-09-01 17:18:51","iframe_src":"//83.svetacdn.in/PfJ50H0ZBPg3/movie/18228"},{"id":17504,"title":"Тау","kp_id":"983798","imdb_id":"tt4357394","world_art_id":null,"type":"movie","add":"2018-07-02 01:07:49","orig_title":"Tau","year":"2018-06-29","translations":["Любительский (многоголосый закадровый) (@MUZOBOZ@)","Профессиональный (многоголосый закадровый) (HDrezka Studio)","Профессиональный (многоголосый закадровый) (HDrezka Studio)"],"quality":"webdl","translation":"Любительский (многоголосый закадровый) (@MUZOBOZ@)","update":"2020-09-01 17:17:51","iframe_src":"//83.svetacdn.in/PfJ50H0ZBPg3/movie/17504"},{"id":17404,"title":"Сладостный край","kp_id":"1047310","imdb_id":"tt6958212","world_art_id":null,"type":"movie","add":"2018-06-26 22:10:16","orig_title":"Sweet Country","year":"2017-09-06","translations":["Любительский (одноголосый закадровый) (BadBajo)","Любительский (многоголосый закадровый) (Синема УС)","Original (English)","Профессиональный (многоголосый закадровый) (HDrezka Studio)"],"quality":"bd","translation":"Любительский (одноголосый закадровый) (BadBajo)","update":"2020-09-01 17:19:14","iframe_src":"//83.svetacdn.in/PfJ50H0ZBPg3/movie/17404"},{"id":16923,"title":"Горячие каникулы","kp_id":"965641","imdb_id":"tt5473090","world_art_id":null,"type":"movie","add":"2018-05-27 00:18:03","orig_title":"Swinging Safari","year":"2018-01-18","translations":["Любительский (многоголосый закадровый) (Синема УС)","Профессиональный (многоголосый закадровый) (GreenРай Studio)","Профессиональный (многоголосый закадровый) (HDrezka Studio)"],"quality":"bd","translation":"Любительский (многоголосый закадровый) (Синема УС)","update":"2020-09-01 17:18:06","iframe_src":"//83.svetacdn.in/PfJ50H0ZBPg3/movie/16923"},{"id":16622,"title":"Оскорбление","kp_id":"1047308","imdb_id":"tt7048622","world_art_id":null,"type":"movie","add":"2018-05-04 22:43:05","orig_title":"L'insulte","year":"2017-08-31","translations":["Любительский (многоголосый закадровый) (Синема УС)","Профессиональный (многоголосый закадровый) (HDrezka Studio)","Профессиональный (многоголосый закадровый) (GreenРай Studio)","Профессиональный (многоголосый закадровый) (HDrezka Studio)"],"quality":"bd","translation":"Любительский (многоголосый закадровый) (Синема УС)","update":"2020-09-01 17:18:22","iframe_src":"//83.svetacdn.in/PfJ50H0ZBPg3/movie/16622"},{"id":16538,"title":"Побег заключённого 614","kp_id":"1059373","imdb_id":"tt7375578","world_art_id":null,"type":"movie","add":"2018-04-29 23:03:15","orig_title":"The Escape of Prisoner 614","year":"2018-04-27","translations":["Любительский (многоголосый закадровый) (Синема УС)","Профессиональный (многоголосый закадровый) (HDrezka Studio)","Профессиональный (многоголосый закадровый) (HDrezka Studio)"],"quality":"webdl","translation":"Любительский (многоголосый закадровый) (Синема УС)","update":"2020-09-01 17:16:50","iframe_src":"//83.svetacdn.in/PfJ50H0ZBPg3/movie/16538"},{"id":15173,"title":"Портал","kp_id":"1032240","imdb_id":"tt6179746","world_art_id":null,"type":"movie","add":"2018-02-13 22:05:16","orig_title":"The Gateway","year":"2018-02-08","translations":["Любительский (многоголосый закадровый) (Синема УС)","Любительский (двухголосый закадровый) (HiWayGrope)","Профессиональный (многоголосый закадровый) (HDrezka Studio)","Original (English)","Профессиональный (многоголосый закадровый) (HDrezka Studio)"],"quality":"webdl","translation":"Любительский (многоголосый закадровый) (Синема УС)","update":"2020-09-01 17:16:21","iframe_src":"//83.svetacdn.in/PfJ50H0ZBPg3/movie/15173"},{"id":15158,"title":"Поезд на Париж","kp_id":"1046481","imdb_id":"tt6802308","world_art_id":null,"type":"movie","add":"2018-02-13 11:02:32","orig_title":"The 15:17 to Paris","year":"2018-02-07","translations":["Полное дублирование (iTunes)","Любительский (многоголосый закадровый) (Колобок)","Original (English)","Профессиональный (многоголосый закадровый) (HDrezka Studio)"],"quality":"bd","translation":"Полное дублирование (iTunes)","update":"2020-09-01 17:17:08","iframe_src":"//83.svetacdn.in/PfJ50H0ZBPg3/movie/15158"},{"id":1027,"title":"Всё по закону","kp_id":"840960","imdb_id":null,"world_art_id":null,"type":"serial","add":"2017-02-17 09:09:12","orig_title":"Всё по закону","year":"2016-04-25","translations":["Оригинальная дорожка"],"seasons_count":1,"episodes_count":14,"episodes":14,"update":"2017-02-17 12:38:51","iframe_src":"//83.svetacdn.in/PfJ50H0ZBPg3/tv-series/1027"},{"id":1025,"title":"Сердце Бонивура","kp_id":"427079","imdb_id":"tt5085470","world_art_id":null,"type":"serial","add":"2017-02-17 09:04:28","orig_title":"Serdtse Bonivura","year":"1969-10-21","translations":["Оригинальная дорожка"],"seasons_count":1,"episodes_count":4,"episodes":4,"update":"2017-02-17 12:42:48","iframe_src":"//83.svetacdn.in/PfJ50H0ZBPg3/tv-series/1025"},{"id":1024,"title":"Бен Гур","kp_id":"468033","imdb_id":"tt2009776","world_art_id":null,"type":"serial","add":"2017-02-17 05:52:00","orig_title":"Ben Hur","year":"2010-04-04","translations":["Профессиональный (многоголосый закадровый)","Профессиональный (многоголосый закадровый) (TVShows)"],"seasons_count":1,"episodes_count":2,"episodes":2,"update":"2017-02-17 09:13:13","iframe_src":"//83.svetacdn.in/PfJ50H0ZBPg3/tv-series/1024"},{"id":1023,"title":"Он","kp_id":"965838","imdb_id":"tt5214372","world_art_id":null,"type":"serial","add":"2017-02-16 14:32:11","orig_title":"Him","year":"2016-10-19","translations":["Профессиональный (многоголосый закадровый) (BaibaKo)"],"seasons_count":1,"episodes_count":3,"episodes":3,"update":"2017-02-17 11:21:47","iframe_src":"//83.svetacdn.in/PfJ50H0ZBPg3/tv-series/1023"},{"id":1022,"title":"Начало и конец Вселенной","kp_id":"1007525","imdb_id":"tt6083778","world_art_id":null,"type":"serial","add":"2017-02-16 14:28:34","orig_title":"The Beginning and End of the Universe","year":"2016-03-22","translations":["Любительский (одноголосый закадровый)"],"seasons_count":1,"episodes_count":2,"episodes":2,"update":"2017-02-17 11:26:03","iframe_src":"//83.svetacdn.in/PfJ50H0ZBPg3/tv-series/1022"},{"id":1021,"title":"Уравнение любви","kp_id":"692464","imdb_id":"tt4083498","world_art_id":null,"type":"serial","add":"2017-02-16 14:23:35","orig_title":"Uravnenie lyubvi","year":"2013-04-11","translations":["Оригинальная дорожка"],"seasons_count":1,"episodes_count":8,"episodes":8,"update":"2017-02-17 11:38:37","iframe_src":"//83.svetacdn.in/PfJ50H0ZBPg3/tv-series/1021"},{"id":1020,"title":"Цветы зла","kp_id":"762293","imdb_id":"tt4083546","world_art_id":null,"type":"serial","add":"2017-02-16 14:20:52","orig_title":"Tsvety zla","year":"2013-05-07","translations":["Оригинальная дорожка"],"seasons_count":1,"episodes_count":4,"episodes":4,"update":"2017-02-17 12:11:10","iframe_src":"//83.svetacdn.in/PfJ50H0ZBPg3/tv-series/1020"},{"id":1019,"title":"Танцы марионеток","kp_id":"771393","imdb_id":"tt4744382","world_art_id":null,"type":"serial","add":"2017-02-16 14:17:58","orig_title":"Tantsy marionetok","year":"2013-11-22","translations":["Оригинальная дорожка"],"seasons_count":1,"episodes_count":4,"episodes":4,"update":"2017-02-17 12:29:27","iframe_src":"//83.svetacdn.in/PfJ50H0ZBPg3/tv-series/1019"},{"id":1018,"title":"Случайный свидетель","kp_id":"573859","imdb_id":null,"world_art_id":null,"type":"serial","add":"2017-02-16 14:14:17","orig_title":"Случайный свидетель","year":"2011-11-06","translations":["Оригинальная дорожка"],"seasons_count":1,"episodes_count":8,"episodes":8,"update":"2017-02-17 12:38:12","iframe_src":"//83.svetacdn.in/PfJ50H0ZBPg3/tv-series/1018"},{"id":1017,"title":"Отражение","kp_id":"485414","imdb_id":null,"world_art_id":null,"type":"serial","add":"2017-02-16 07:53:06","orig_title":"Отражение","year":"2011-01-01","translations":["Оригинальная дорожка"],"seasons_count":1,"episodes_count":12,"episodes":12,"update":"2017-02-17 12:24:54","iframe_src":"//83.svetacdn.in/PfJ50H0ZBPg3/tv-series/1017"},{"id":1016,"title":"Моя граница","kp_id":"257797","imdb_id":"tt0370178","world_art_id":null,"type":"serial","add":"2017-02-16 07:12:52","orig_title":"Moya granitsa","year":"2002-01-01","translations":["Оригинальная дорожка"],"seasons_count":1,"episodes_count":4,"episodes":4,"update":"2017-02-16 12:25:19","iframe_src":"//83.svetacdn.in/PfJ50H0ZBPg3/tv-series/1016"},{"id":1015,"title":"Летучий отряд","kp_id":"455362","imdb_id":"tt4462758","world_art_id":null,"type":"serial","add":"2017-02-16 06:35:49","orig_title":"Letuchiy otryad","year":"2009-07-13","translations":["Оригинальная дорожка"],"seasons_count":1,"episodes_count":8,"episodes":8,"update":"2017-02-16 11:45:41","iframe_src":"//83.svetacdn.in/PfJ50H0ZBPg3/tv-series/1015"},{"id":1014,"title":"Бандитский Петербург 10: Расплата","kp_id":"426310","imdb_id":"tt4786988","world_art_id":null,"type":"serial","add":"2017-02-15 15:32:28","orig_title":"Banditskiy Peterburg: Rasplata","year":"2007-06-05","translations":["Оригинальная дорожка"],"seasons_count":1,"episodes_count":12,"episodes":12,"update":"2017-02-17 12:56:19","iframe_src":"//83.svetacdn.in/PfJ50H0ZBPg3/tv-series/1014"},{"id":1013,"title":"Бандитский Петербург 9: Голландский Пассаж","kp_id":"420337","imdb_id":"tt4810954","world_art_id":null,"type":"serial","add":"2017-02-15 15:29:23","orig_title":"Banditskiy Peterburg: Gollandskiy Passazh","year":"2006-12-05","translations":["Оригинальная дорожка"],"seasons_count":1,"episodes_count":12,"episodes":12,"update":"2017-02-16 09:57:43","iframe_src":"//83.svetacdn.in/PfJ50H0ZBPg3/tv-series/1013"},{"id":1012,"title":"Бандитский Петербург 8: Терминал","kp_id":"426309","imdb_id":"tt4791006","world_art_id":null,"type":"serial","add":"2017-02-15 15:25:48","orig_title":"Banditskiy Peterburg: Terminal","year":"2006-09-01","translations":["Оригинальная дорожка"],"seasons_count":1,"episodes_count":12,"episodes":12,"update":"2017-02-16 09:41:23","iframe_src":"//83.svetacdn.in/PfJ50H0ZBPg3/tv-series/1012"},{"id":1011,"title":"Бандитский Петербург 7: Передел","kp_id":"426306","imdb_id":"tt5031866","world_art_id":null,"type":"serial","add":"2017-02-15 15:22:12","orig_title":"Banditskiy Peterburg: Peredel","year":"2005-11-14","translations":["Оригинальная дорожка"],"seasons_count":1,"episodes_count":12,"episodes":12,"update":"2017-02-16 08:47:11","iframe_src":"//83.svetacdn.in/PfJ50H0ZBPg3/tv-series/1011"},{"id":1010,"title":"Бандитский Петербург 6: Журналист","kp_id":"77386","imdb_id":"tt0368591","world_art_id":null,"type":"serial","add":"2017-02-15 15:18:29","orig_title":"Banditskiy Peterburg: Zhurnalist","year":"2003-06-04","translations":["Оригинальная дорожка"],"seasons_count":1,"episodes_count":7,"episodes":7,"update":"2017-02-16 08:28:24","iframe_src":"//83.svetacdn.in/PfJ50H0ZBPg3/tv-series/1010"},{"id":1008,"title":"Бандитский Петербург 5: Опер","kp_id":"77387","imdb_id":"tt0368590","world_art_id":null,"type":"serial","add":"2017-02-14 16:53:54","orig_title":"Banditskiy Peterburg: Oper","year":"2003-05-28","translations":["Оригинальная дорожка"],"seasons_count":1,"episodes_count":5,"episodes":5,"update":"2017-02-15 16:37:17","iframe_src":"//83.svetacdn.in/PfJ50H0ZBPg3/tv-series/1008"},{"id":1007,"title":"Бандитский Петербург 4: Арестант","kp_id":"77385","imdb_id":"tt0368588","world_art_id":null,"type":"serial","add":"2017-02-14 16:49:03","orig_title":"Banditskiy Peterburg: Arestant","year":"2003-03-31","translations":["Оригинальная дорожка"],"seasons_count":1,"episodes_count":7,"episodes":7,"update":"2017-02-15 16:14:48","iframe_src":"//83.svetacdn.in/PfJ50H0ZBPg3/tv-series/1007"},{"id":1005,"title":"Назад в СССР","kp_id":"570147","imdb_id":"tt2725710","world_art_id":null,"type":"serial","add":"2017-02-14 08:32:22","orig_title":"Nazad v SSSR","year":"2010-12-11","translations":["Оригинальная дорожка"],"seasons_count":1,"episodes_count":4,"episodes":4,"update":"2017-02-15 05:50:01","iframe_src":"//83.svetacdn.in/PfJ50H0ZBPg3/tv-series/1005"}],"current_page":493,"first_page_url":"https://videocdn.tv/api/short?limit=100&api_token=RgFQdUIR2dRmwv8iYa5SnFNgnw3vpjKj&cache3493=3493&page=1","from":49201,"last_page":624,"last_page_url":"https://videocdn.tv/api/short?limit=100&api_token=RgFQdUIR2dRmwv8iYa5SnFNgnw3vpjKj&cache3493=3493&page=624","next_page_url":"https://videocdn.tv/api/short?limit=100&api_token=RgFQdUIR2dRmwv8iYa5SnFNgnw3vpjKj&cache3493=3493&page=494","path":"https://videocdn.tv/api/short","per_page":100,"prev_page_url":"https://videocdn.tv/api/short?limit=100&api_token=RgFQdUIR2dRmwv8iYa5SnFNgnw3vpjKj&cache3493=3493&page=492","to":49240,"total":62339}