{"result":true,"data":[{"id":34159,"title":"Лига хранителей легенд: Тени","kp_id":"1034337","imdb_id":"tt6170432","world_art_id":null,"type":"movie","add":"2019-12-16 06:17:56","orig_title":"The League of Legend Keepers: Shadows","year":"2019-12-10","translations":["Любительский (многоголосый закадровый) (Синема УС)"],"quality":"webdl","translation":"Любительский (многоголосый закадровый) (Синема УС)","update":"2019-12-16 12:19:24","iframe_src":"//2413.svetacdn.in/si4jsFRrtgrT/movie/34159"},{"id":34154,"title":"Мост","kp_id":"1135291","imdb_id":"tt8193396","world_art_id":null,"type":"movie","add":"2019-12-16 06:11:16","orig_title":"The Bridge","year":"2017-12-08","translations":["Любительский (многоголосый закадровый) (Синема УС)"],"quality":"webdl","translation":"Любительский (многоголосый закадровый) (Синема УС)","update":"2019-12-16 12:03:00","iframe_src":"//2413.svetacdn.in/si4jsFRrtgrT/movie/34154"},{"id":34153,"title":"Последнее \"Прощай\"","kp_id":"1015048","imdb_id":"tt6443380","world_art_id":null,"type":"movie","add":"2019-12-16 06:06:27","orig_title":"The Final Goodbye","year":"2018-09-09","translations":["Любительский (многоголосый закадровый) (Синема УС)"],"quality":"webdl","translation":"Любительский (многоголосый закадровый) (Синема УС)","update":"2019-12-16 12:47:07","iframe_src":"//2413.svetacdn.in/si4jsFRrtgrT/movie/34153"},{"id":34145,"title":"Первая мировая","kp_id":"1037867","imdb_id":"tt6198246","world_art_id":null,"type":"movie","add":"2019-12-16 05:38:49","orig_title":"The Great War","year":"2019-04-07","translations":["Любительский (многоголосый закадровый) (@MUZOBOZ@)"],"quality":"webdl","translation":"Любительский (многоголосый закадровый) (@MUZOBOZ@)","update":"2019-12-16 12:10:17","iframe_src":"//2413.svetacdn.in/si4jsFRrtgrT/movie/34145"},{"id":34144,"title":"Рождественский дуэт","kp_id":"1328493","imdb_id":"tt10768208","world_art_id":null,"type":"movie","add":"2019-12-16 05:37:28","orig_title":"A Christmas Duet","year":"2019-11-25","translations":["Любительский (многоголосый закадровый) (AlphaProject)"],"quality":"hdtv","translation":"Любительский (многоголосый закадровый) (AlphaProject)","update":"2019-12-16 12:15:27","iframe_src":"//2413.svetacdn.in/si4jsFRrtgrT/movie/34144"},{"id":34143,"title":"Рассвет детей-людоедов","kp_id":"996450","imdb_id":"tt5944812","world_art_id":null,"type":"movie","add":"2019-12-16 05:36:58","orig_title":"Dead Sunrise","year":"2017-09-13","translations":["Любительский (многоголосый закадровый) (Синема УС)"],"quality":"webdl","translation":"Любительский (многоголосый закадровый) (Синема УС)","update":"2019-12-16 12:20:59","iframe_src":"//2413.svetacdn.in/si4jsFRrtgrT/movie/34143"},{"id":34142,"title":"Ад на границе","kp_id":"1176055","imdb_id":"tt8652584","world_art_id":null,"type":"movie","add":"2019-12-16 05:36:11","orig_title":"Hell on the Border","year":"2019-12-13","translations":["Любительский (многоголосый закадровый) (@MUZOBOZ@)"],"quality":"webdl","translation":"Любительский (многоголосый закадровый) (@MUZOBOZ@)","update":"2019-12-16 12:13:26","iframe_src":"//2413.svetacdn.in/si4jsFRrtgrT/movie/34142"},{"id":34132,"title":"Кровавая маргаритка","kp_id":"1314956","imdb_id":"tt11151764","world_art_id":null,"type":"movie","add":"2019-12-16 05:27:06","orig_title":"Zhui xiong shi jiu nian","year":"2019-10-14","translations":["Любительский (двухголосый закадровый) (Колобок)"],"quality":"webdl","translation":"Любительский (двухголосый закадровый) (Колобок)","update":"2019-12-16 12:16:45","iframe_src":"//2413.svetacdn.in/si4jsFRrtgrT/movie/34132"},{"id":34060,"title":"Ты сделал Рождество ярче","kp_id":"1319188","imdb_id":"tt10964516","world_art_id":null,"type":"movie","add":"2019-12-13 06:59:32","orig_title":"You Light Up My Christmas","year":"2019-12-01","translations":["Любительский (многоголосый закадровый) (Синема УС)","[EN] Original (English)"],"quality":"webdl","translation":"Любительский (многоголосый закадровый) (Синема УС)","update":"2019-12-16 12:27:41","iframe_src":"//2413.svetacdn.in/si4jsFRrtgrT/movie/34060"},{"id":34059,"title":"The Little Mermaid Live!","kp_id":"1291998","imdb_id":"tt6897772","world_art_id":null,"type":"movie","add":"2019-12-13 06:53:09","orig_title":"The Little Mermaid Live!","year":"2019-11-05","translations":["[EN] Original (English)"],"quality":"webdl","translation":"[EN] Original (English)","update":"2019-12-16 12:35:20","iframe_src":"//2413.svetacdn.in/si4jsFRrtgrT/movie/34059"},{"id":34057,"title":"Рождественская хижина","kp_id":"1177031","imdb_id":"tt8717018","world_art_id":null,"type":"movie","add":"2019-12-13 06:49:32","orig_title":"The Christmas Cabin","year":"2019-11-04","translations":["[EN] Original (English)"],"quality":"webdl","translation":"[EN] Original (English)","update":"2019-12-16 12:37:33","iframe_src":"//2413.svetacdn.in/si4jsFRrtgrT/movie/34057"},{"id":34056,"title":"Рождественские украшения","kp_id":"1298523","imdb_id":"tt10873852","world_art_id":null,"type":"movie","add":"2019-12-13 06:47:23","orig_title":"Staging Christmas","year":"2019-11-29","translations":["Любительский (многоголосый закадровый) (AlphaProject)","[EN] Original (English)"],"quality":"hdtv","translation":"Любительский (многоголосый закадровый) (AlphaProject)","update":"2019-12-16 12:38:34","iframe_src":"//2413.svetacdn.in/si4jsFRrtgrT/movie/34056"},{"id":34051,"title":"Джек Уайтхолл: Рождество с отцом","kp_id":null,"imdb_id":"tt11313076","world_art_id":null,"type":"movie","add":"2019-12-13 06:38:22","orig_title":"Jack Whitehall: Christmas with My Father","year":"2019-12-12","translations":["[EN] Original (English)"],"quality":"webdl","translation":"[EN] Original (English)","update":"2019-12-16 12:48:29","iframe_src":"//2413.svetacdn.in/si4jsFRrtgrT/movie/34051"},{"id":34049,"title":"Призрачный дух Рождества","kp_id":null,"imdb_id":"tt9288486","world_art_id":null,"type":"movie","add":"2019-12-13 06:30:56","orig_title":"Ghosting: The Spirit of Christmas","year":"2019-12-04","translations":["Любительский (многоголосый закадровый) (Синема УС)","[EN] Original (English)"],"quality":"webdl","translation":"Любительский (многоголосый закадровый) (Синема УС)","update":"2019-12-16 12:49:38","iframe_src":"//2413.svetacdn.in/si4jsFRrtgrT/movie/34049"},{"id":34042,"title":"Империя страсти","kp_id":"65511","imdb_id":"tt0077132","world_art_id":null,"type":"movie","add":"2019-12-12 21:38:30","orig_title":"Ai no bôrei","year":"1978-05-19","translations":["Профессиональный (двухголосый закадровый)"],"quality":"bd","translation":"Профессиональный (двухголосый закадровый)","update":"2019-12-16 12:24:24","iframe_src":"//2413.svetacdn.in/si4jsFRrtgrT/movie/34042"},{"id":33828,"title":"Подстава в День благодарения","kp_id":"1324670","imdb_id":"tt11047498","world_art_id":null,"type":"movie","add":"2019-12-08 08:00:36","orig_title":"Turkey Drop","year":"2019-11-23","translations":["Любительский (многоголосый закадровый) (AlphaProject)","[EN] Original (English)"],"quality":"webdl","translation":"Любительский (многоголосый закадровый) (AlphaProject)","update":"2019-12-16 12:29:27","iframe_src":"//2413.svetacdn.in/si4jsFRrtgrT/movie/33828"},{"id":33646,"title":"Рождественское мороженое","kp_id":"1263707","imdb_id":"tt10210182","world_art_id":null,"type":"movie","add":"2019-12-03 15:01:51","orig_title":"Christmas a la Mode","year":"2019-11-15","translations":["Любительский (многоголосый закадровый) (Синема УС)","[EN] Original (English)"],"quality":"webdl","translation":"Любительский (многоголосый закадровый) (Синема УС)","update":"2019-12-16 12:51:25","iframe_src":"//2413.svetacdn.in/si4jsFRrtgrT/movie/33646"},{"id":33619,"title":"Волшебная обувь на Рождество","kp_id":"1321090","imdb_id":"tt10963986","world_art_id":null,"type":"movie","add":"2019-12-02 17:00:28","orig_title":"Magical Christmas Shoes","year":"2019-11-22","translations":["Любительский (многоголосый закадровый) (Синема УС)","[EN] Original (English)"],"quality":"webdl","translation":"Любительский (многоголосый закадровый) (Синема УС)","update":"2019-12-16 12:34:18","iframe_src":"//2413.svetacdn.in/si4jsFRrtgrT/movie/33619"},{"id":33550,"title":"Блистай до самого конца","kp_id":"1309524","imdb_id":"tt10964168","world_art_id":null,"type":"movie","add":"2019-11-29 12:29:58","orig_title":"Twinkle all the Way","year":"2019-11-23","translations":["Любительский (многоголосый закадровый) (AlphaProject)","[EN] Original (English)"],"quality":"webdl","translation":"Любительский (многоголосый закадровый) (AlphaProject)","update":"2019-12-16 12:28:28","iframe_src":"//2413.svetacdn.in/si4jsFRrtgrT/movie/33550"},{"id":33513,"title":"Внезапные проявления Рождества","kp_id":"1283869","imdb_id":"tt10471748","world_art_id":null,"type":"movie","add":"2019-11-28 22:20:51","orig_title":"Random Acts of Christmas","year":"2019-11-17","translations":["Любительский (многоголосый закадровый) (Синема УС)","[EN] Original (English)"],"quality":"webdl","translation":"Любительский (многоголосый закадровый) (Синема УС)","update":"2019-12-16 12:41:54","iframe_src":"//2413.svetacdn.in/si4jsFRrtgrT/movie/33513"}],"current_page":1493,"first_page_url":"https://videocdn.tv/api/short?limit=100&api_token=X6EwAUfE5M9xbo7y0Bp0aPf3uXxG2KLL&cache31493=31493&page=1","from":149201,"last_page":717,"last_page_url":"https://videocdn.tv/api/short?limit=100&api_token=X6EwAUfE5M9xbo7y0Bp0aPf3uXxG2KLL&cache31493=31493&page=717","next_page_url":null,"path":"https://videocdn.tv/api/short","per_page":100,"prev_page_url":"https://videocdn.tv/api/short?limit=100&api_token=X6EwAUfE5M9xbo7y0Bp0aPf3uXxG2KLL&cache31493=31493&page=1492","to":149220,"total":71641}