{"result":true,"data":[{"id":36911,"title":"Захолустная проповедь","kp_id":"625573","imdb_id":"tt2050634","world_art_id":null,"type":"movie","add":"2020-02-25 09:56:38","orig_title":"The Backwater Gospel","year":"2011-09-23","translations":["Любительский (одноголосый закадровый)"],"quality":"webdl","translation":"Любительский (одноголосый закадровый)","update":"2020-02-26 07:26:10","iframe_src":"//8543.svetacdn.in/71tsRs29n5tZ/movie/36911"},{"id":36910,"title":"Северное море, Техас","kp_id":"538370","imdb_id":"tt1625150","world_art_id":null,"type":"movie","add":"2020-02-25 09:47:22","orig_title":"Noordzee, Texas","year":"2011-03-16","translations":["Любительский (одноголосый закадровый)"],"quality":"hdrip","translation":"Любительский (одноголосый закадровый)","update":"2020-02-26 07:23:30","iframe_src":"//8543.svetacdn.in/71tsRs29n5tZ/movie/36910"},{"id":36903,"title":"Стопроцентная любовь","kp_id":"1101793","imdb_id":"tt7521384","world_art_id":null,"type":"movie","add":"2020-02-25 08:33:06","orig_title":"100% Kadhal","year":"2019-10-04","translations":["Любительский (многоголосый закадровый) (Синема УС)"],"quality":"webdl","translation":"Любительский (многоголосый закадровый) (Синема УС)","update":"2020-02-25 19:42:56","iframe_src":"//8543.svetacdn.in/71tsRs29n5tZ/movie/36903"},{"id":36902,"title":"Просто живи. Любовь","kp_id":"1172329","imdb_id":null,"world_art_id":null,"type":"movie","add":"2020-02-25 08:29:35","orig_title":"Ikiteru dake de, ai","year":"2018-11-09","translations":["Любительский (многоголосый закадровый) (Синема УС)"],"quality":"bd","translation":"Любительский (многоголосый закадровый) (Синема УС)","update":"2020-02-25 19:43:24","iframe_src":"//8543.svetacdn.in/71tsRs29n5tZ/movie/36902"},{"id":36901,"title":"Тивава","kp_id":"1162538","imdb_id":"tt8549590","world_art_id":null,"type":"movie","add":"2020-02-25 08:26:26","orig_title":"Chiwawa-chan","year":"2019-01-18","translations":["Любительский (двухголосый закадровый) (Колобок)"],"quality":"bd","translation":"Любительский (двухголосый закадровый) (Колобок)","update":"2020-02-25 19:44:27","iframe_src":"//8543.svetacdn.in/71tsRs29n5tZ/movie/36901"},{"id":36900,"title":"Чёрные деньги","kp_id":"1290962","imdb_id":null,"world_art_id":null,"type":"movie","add":"2020-02-25 08:23:45","orig_title":"Beullaek meoni","year":"2019-11-13","translations":["Любительский (двухголосый закадровый) (Колобок)"],"quality":"webdl","translation":"Любительский (двухголосый закадровый) (Колобок)","update":"2020-02-25 19:45:02","iframe_src":"//8543.svetacdn.in/71tsRs29n5tZ/movie/36900"},{"id":36897,"title":"Личность: неизвестна","kp_id":"568709","imdb_id":"tt1731998","world_art_id":null,"type":"movie","add":"2020-02-25 08:17:53","orig_title":"ID:A","year":"2011-11-24","translations":["Любительский (одноголосый закадровый)"],"quality":"bd","translation":"Любительский (одноголосый закадровый)","update":"2020-02-26 07:18:15","iframe_src":"//8543.svetacdn.in/71tsRs29n5tZ/movie/36897"},{"id":36889,"title":"Хэллоуинтаун","kp_id":"271575","imdb_id":"tt0173886","world_art_id":null,"type":"movie","add":"2020-02-24 20:47:12","orig_title":"Halloweentown","year":"1998-10-17","translations":["Полное дублирование"],"quality":"dvdrip","translation":"Полное дублирование","update":"2020-02-25 20:07:10","iframe_src":"//8543.svetacdn.in/71tsRs29n5tZ/movie/36889"},{"id":36887,"title":"Осквернение","kp_id":"1015666","imdb_id":"tt6454764","world_art_id":null,"type":"movie","add":"2020-02-24 20:35:08","orig_title":"Desecration","year":"2017-04-21","translations":["Любительский (многоголосый закадровый) (Синема УС)"],"quality":"webdl","translation":"Любительский (многоголосый закадровый) (Синема УС)","update":"2020-02-25 20:12:07","iframe_src":"//8543.svetacdn.in/71tsRs29n5tZ/movie/36887"},{"id":36879,"title":"Неуправляемый","kp_id":"564979","imdb_id":"tt1706317","world_art_id":null,"type":"movie","add":"2020-02-24 19:45:04","orig_title":"Tezz","year":"2012-04-25","translations":["Любительский (многоголосый закадровый) (ICG)"],"quality":"webdl","translation":"Любительский (многоголосый закадровый) (ICG)","update":"2020-02-26 07:09:56","iframe_src":"//8543.svetacdn.in/71tsRs29n5tZ/movie/36879"},{"id":36878,"title":"Поезд","kp_id":"317949","imdb_id":"tt0995827","world_art_id":null,"type":"movie","add":"2020-02-24 19:41:16","orig_title":"The Train: Some Lines Should Never Be Crossed...","year":"2007-06-07","translations":["Профессиональный (многоголосый закадровый)"],"quality":"webdl","translation":"Профессиональный (многоголосый закадровый)","update":"2020-02-26 07:08:41","iframe_src":"//8543.svetacdn.in/71tsRs29n5tZ/movie/36878"},{"id":36491,"title":"Принесите мне голову Альфредо Гарсиа","kp_id":"22040","imdb_id":"tt0071249","world_art_id":null,"type":"movie","add":"2020-02-18 17:00:42","orig_title":"Bring Me the Head of Alfredo Garcia","year":"1974-08-01","translations":["Профессиональный (многоголосый закадровый) (НТВ)"],"quality":"bd","translation":"Профессиональный (многоголосый закадровый) (НТВ)","update":"2020-02-26 07:25:20","iframe_src":"//8543.svetacdn.in/71tsRs29n5tZ/movie/36491"},{"id":34665,"title":"Союз Спасения","kp_id":"972740","imdb_id":"tt8769146","world_art_id":null,"type":"movie","add":"2020-01-02 07:25:12","orig_title":"Soyuz spaseniya","year":"2019-12-26","translations":["Оригинальная дорожка"],"quality":"webdl","translation":"Оригинальная дорожка","update":"2020-02-25 20:11:14","iframe_src":"//8543.svetacdn.in/71tsRs29n5tZ/movie/34665"},{"id":33016,"title":"Ледяная принцесса","kp_id":"990272","imdb_id":"tt5817548","world_art_id":null,"type":"movie","add":"2019-11-12 20:21:06","orig_title":"Tabaluga","year":"2018-11-25","translations":["Полное дублирование (iTunes)"],"quality":"bd","translation":"Полное дублирование (iTunes)","update":"2020-02-25 20:10:26","iframe_src":"//8543.svetacdn.in/71tsRs29n5tZ/movie/33016"},{"id":23439,"title":"Грязь","kp_id":"262909","imdb_id":"tt0800325","world_art_id":null,"type":"movie","add":"2019-03-24 17:32:55","orig_title":"The Dirt","year":"2019-03-18","translations":["Полное дублирование (Пифагор)","Профессиональный (многоголосый закадровый) (HDrezka Studio)"],"quality":"webdl","translation":"Полное дублирование (Пифагор)","update":"2020-02-25 19:51:04","iframe_src":"//8543.svetacdn.in/71tsRs29n5tZ/movie/23439"},{"id":14963,"title":"Бэтмен: Готэм в газовом свете","kp_id":"1047168","imdb_id":"tt7167630","world_art_id":null,"type":"movie","add":"2018-01-25 06:21:23","orig_title":"Batman: Gotham by Gaslight","year":"2018-01-12","translations":["Любительский (многоголосый закадровый) (Колобок)","Профессиональный (многоголосый закадровый) (Jaskier)","Любительский (двухголосый закадровый) (RusFilm)","Профессиональный (многоголосый закадровый) (GreenРай Studio)","Профессиональный (многоголосый закадровый) (HDrezka Studio)"],"quality":"webdl","translation":"Любительский (многоголосый закадровый) (Колобок)","update":"2020-02-25 19:47:01","iframe_src":"//8543.svetacdn.in/71tsRs29n5tZ/movie/14963"},{"id":14837,"title":"Форма воды","kp_id":"977743","imdb_id":"tt5580390","world_art_id":null,"type":"movie","add":"2018-01-08 20:42:30","orig_title":"The Shape of Water","year":"2017-08-31","translations":["Полное дублирование (iTunes)","Любительский (многоголосый закадровый) (@MUZOBOZ@)","Профессиональный (многоголосый закадровый) (GreenРай Studio)","Полное дублирование","Любительский (двухголосый закадровый) (HiWayGrope)","Original (English)","Профессиональный (многоголосый закадровый) (HDrezka Studio)"],"quality":"bd","translation":"Полное дублирование (iTunes)","update":"2020-02-25 19:46:53","iframe_src":"//8543.svetacdn.in/71tsRs29n5tZ/movie/14837"},{"id":12100,"title":"Счастливчик","kp_id":"990655","imdb_id":"tt5859238","world_art_id":null,"type":"movie","add":"2017-06-22 22:44:42","orig_title":"Lucky","year":"2017-03-11","translations":["Любительский (многоголосый закадровый) (Синема УС)","Профессиональный (многоголосый закадровый) (Jaskier)","Профессиональный (многоголосый закадровый) (HDrezka Studio)"],"quality":"webdl","translation":"Любительский (многоголосый закадровый) (Синема УС)","update":"2020-02-25 19:47:32","iframe_src":"//8543.svetacdn.in/71tsRs29n5tZ/movie/12100"},{"id":8836,"title":"И снова добро пожаловать","kp_id":"795271","imdb_id":"tt3159708","world_art_id":null,"type":"movie","add":"2017-01-11 13:12:23","orig_title":"Welcome Back","year":"2015-09-03","translations":["Любительский (двухголосый закадровый) (DeadSno & den904)"],"quality":"bd","translation":"Любительский (двухголосый закадровый) (DeadSno & den904)","update":"2020-02-26 07:07:39","iframe_src":"//8543.svetacdn.in/71tsRs29n5tZ/movie/8836"},{"id":4633,"title":"Ачи & Сипак: Убойный дуэт","kp_id":"276352","imdb_id":"tt0972542","world_art_id":null,"type":"movie","add":"2016-08-22 12:04:55","orig_title":"Aachi & Ssipak","year":"2006-06-29","translations":["Любительский (одноголосый закадровый)","Профессиональный (многоголосый закадровый)"],"quality":"bd","translation":"Любительский (одноголосый закадровый)","update":"2020-02-26 05:04:10","iframe_src":"//8543.svetacdn.in/71tsRs29n5tZ/movie/4633"}],"current_page":768,"first_page_url":"https://videocdn.tv/api/short?limit=100&api_token=EnbO9h8pv1VyjbCJhg0WM9nG259n7mtz&cache3768=3768&page=1","from":76701,"last_page":610,"last_page_url":"https://videocdn.tv/api/short?limit=100&api_token=EnbO9h8pv1VyjbCJhg0WM9nG259n7mtz&cache3768=3768&page=610","next_page_url":null,"path":"https://videocdn.tv/api/short","per_page":100,"prev_page_url":"https://videocdn.tv/api/short?limit=100&api_token=EnbO9h8pv1VyjbCJhg0WM9nG259n7mtz&cache3768=3768&page=767","to":76720,"total":60937}