{"result":true,"data":[{"id":48175,"title":"Разбивающий сердца","kp_id":"47552","imdb_id":"tt0107093","world_art_id":null,"type":"movie","add":"2021-02-23 08:05:38","orig_title":"The Heartbreak Kid","year":"1993-06-17","translations":["Профессиональный (многоголосый закадровый) (HDrezka Studio)"],"quality":"webdl","translation":"Профессиональный (многоголосый закадровый) (HDrezka Studio)","update":"2021-02-23 12:18:13","iframe_src":"//8422.svetacdn.in/si4jsFRrtgrT/movie/48175"},{"id":48159,"title":"Рай","kp_id":"1248861","imdb_id":"tt10004574","world_art_id":null,"type":"movie","add":"2021-02-22 14:38:00","orig_title":"Paradise","year":"2019-04-19","translations":["Любительский (многоголосый закадровый) (Синема УС)"],"quality":"webdl","translation":"Любительский (многоголосый закадровый) (Синема УС)","update":"2021-02-23 12:06:31","iframe_src":"//8422.svetacdn.in/si4jsFRrtgrT/movie/48159"},{"id":46538,"title":"Огонь","kp_id":"1183599","imdb_id":"tt12200256","world_art_id":null,"type":"movie","add":"2020-12-30 16:32:31","orig_title":"Ogon","year":"2020-12-24","translations":["Оригинальная дорожка","Оригинальная дорожка"],"quality":"ts","translation":"Оригинальная дорожка","update":"2021-02-23 11:49:05","iframe_src":"//8422.svetacdn.in/si4jsFRrtgrT/movie/46538"},{"id":46204,"title":"Я — твоя женщина","kp_id":"1262088","imdb_id":"tt10243992","world_art_id":null,"type":"movie","add":"2020-12-18 10:33:26","orig_title":"I'm Your Woman","year":"2020-10-15","translations":["Original (English)","Любительский (многоголосый закадровый) (@MUZOBOZ@)","Любительский (многоголосый закадровый) (@MUZOBOZ@)"],"quality":"webdl","translation":"Original (English)","update":"2021-02-23 11:45:38","iframe_src":"//8422.svetacdn.in/si4jsFRrtgrT/movie/46204"},{"id":45666,"title":"Чёрный Красавец","kp_id":"1266946","imdb_id":"tt8484160","world_art_id":null,"type":"movie","add":"2020-11-27 10:23:59","orig_title":"Black Beauty","year":"2020-11-27","translations":["Original (English)","Любительский (многоголосый закадровый) (@MUZOBOZ@)","Любительский (многоголосый закадровый) (@MUZOBOZ@)"],"quality":"webdl","translation":"Original (English)","update":"2021-02-23 11:44:00","iframe_src":"//8422.svetacdn.in/si4jsFRrtgrT/movie/45666"},{"id":41826,"title":"Заблудшие","kp_id":"1056684","imdb_id":"tt6074820","world_art_id":null,"type":"movie","add":"2020-07-17 21:13:32","orig_title":"Stray","year":"2018-07-22","translations":["Любительский (многоголосый закадровый) (Синема УС)","Профессиональный (многоголосый закадровый) (HDrezka Studio)"],"quality":"webdl","translation":"Любительский (многоголосый закадровый) (Синема УС)","update":"2021-02-23 12:11:05","iframe_src":"//8422.svetacdn.in/si4jsFRrtgrT/movie/41826"},{"id":40938,"title":"Этюд #2","kp_id":"1359043","imdb_id":"tt11963636","world_art_id":null,"type":"movie","add":"2020-06-04 20:08:42","orig_title":"Etyud #2","year":"2020-03-06","translations":["Оригинальная дорожка","Оригинальная дорожка"],"quality":"webdl","translation":"Оригинальная дорожка","update":"2021-02-23 13:10:34","iframe_src":"//8422.svetacdn.in/si4jsFRrtgrT/movie/40938"},{"id":27227,"title":"Морская звезда","kp_id":"979420","imdb_id":"tt5700182","world_art_id":null,"type":"movie","add":"2019-05-29 19:42:09","orig_title":"Starfish","year":"2018-09-21","translations":["Любительский (многоголосый закадровый) (Синема УС)","Любительский (одноголосый закадровый) (BadBajo | Важенин Андрей)","Любительский (двухголосый закадровый) (LakeFilms)","Профессиональный (многоголосый закадровый) (HDrezka Studio)"],"quality":"webdl","translation":"Любительский (многоголосый закадровый) (Синема УС)","update":"2021-02-23 12:09:56","iframe_src":"//8422.svetacdn.in/si4jsFRrtgrT/movie/27227"},{"id":25995,"title":"Присягнувшая тьме","kp_id":"788669","imdb_id":"tt3111516","world_art_id":null,"type":"movie","add":"2019-05-04 21:25:36","orig_title":"The Convent","year":"2018-08-25","translations":["Полное дублирование","Original (English)","Профессиональный (многоголосый закадровый) (HDrezka Studio)"],"quality":"bd","translation":"Полное дублирование","update":"2021-02-23 14:41:45","iframe_src":"//8422.svetacdn.in/si4jsFRrtgrT/movie/25995"},{"id":25329,"title":"Стикс","kp_id":"1112855","imdb_id":"tt5942864","world_art_id":null,"type":"movie","add":"2019-04-25 21:19:50","orig_title":"Styx","year":"2018-02-16","translations":["Профессиональный (многоголосый закадровый) (HDrezka Studio)","Любительский (многоголосый закадровый) (Синема УС)","Original (English)"],"quality":"webdl","translation":"Профессиональный (многоголосый закадровый) (HDrezka Studio)","update":"2021-02-23 12:20:03","iframe_src":"//8422.svetacdn.in/si4jsFRrtgrT/movie/25329"},{"id":24693,"title":"Чертова дюжина","kp_id":"1158675","imdb_id":"tt5220602","world_art_id":null,"type":"movie","add":"2019-04-16 20:29:42","orig_title":"D-Day Assassins","year":"2019-05-28","translations":["Профессиональный (многоголосый закадровый) (HDrezka Studio)","Профессиональный (многоголосый закадровый) (HDrezka Studio)"],"quality":"webdl","translation":"Профессиональный (многоголосый закадровый) (HDrezka Studio)","update":"2021-02-23 12:12:07","iframe_src":"//8422.svetacdn.in/si4jsFRrtgrT/movie/24693"},{"id":23975,"title":"Время монстров","kp_id":"1036250","imdb_id":"tt6469548","world_art_id":null,"type":"movie","add":"2019-04-06 21:23:19","orig_title":"The Head Hunter","year":"2018-10-06","translations":["Полное дублирование (iTunes)","Профессиональный (многоголосый закадровый) (HDrezka Studio)"],"quality":"bd","translation":"Полное дублирование (iTunes)","update":"2021-02-23 12:17:23","iframe_src":"//8422.svetacdn.in/si4jsFRrtgrT/movie/23975"},{"id":23143,"title":"Ночи Кабирии","kp_id":"63929","imdb_id":"tt0050783","world_art_id":null,"type":"movie","add":"2019-03-15 16:42:30","orig_title":"Le notti di Cabiria","year":"1957-05-11","translations":["Полное дублирование","Полное дублирование"],"quality":"dvdrip","translation":"Полное дублирование","update":"2021-02-23 11:42:49","iframe_src":"//8422.svetacdn.in/si4jsFRrtgrT/movie/23143"},{"id":22824,"title":"Нечто","kp_id":"1084947","imdb_id":"tt6185266","world_art_id":null,"type":"movie","add":"2019-03-07 22:11:56","orig_title":"Something","year":"2018-02-28","translations":["Профессиональный (многоголосый закадровый) (HDrezka Studio)","Профессиональный (многоголосый закадровый) (HDrezka Studio)"],"quality":"webdl","translation":"Профессиональный (многоголосый закадровый) (HDrezka Studio)","update":"2021-02-23 12:17:53","iframe_src":"//8422.svetacdn.in/si4jsFRrtgrT/movie/22824"},{"id":14363,"title":"Бюро человечества","kp_id":"1012936","imdb_id":"tt6143568","world_art_id":null,"type":"movie","add":"2017-11-14 22:17:13","orig_title":"The Humanity Bureau","year":"2017-12-01","translations":["Любительский (многоголосый закадровый) (@MUZOBOZ@)","Original (English)","Профессиональный (многоголосый закадровый)","Профессиональный (многоголосый закадровый) (HDrezka Studio)"],"quality":"bd","translation":"Любительский (многоголосый закадровый) (@MUZOBOZ@)","update":"2021-02-23 12:19:39","iframe_src":"//8422.svetacdn.in/si4jsFRrtgrT/movie/14363"},{"id":13190,"title":"Фабрика","kp_id":"400853","imdb_id":"tt1132285","world_art_id":null,"type":"movie","add":"2017-08-28 04:51:17","orig_title":"The Factory","year":"2012-10-10","translations":["Любительский (двухголосый закадровый) (DeadSno & den904)","Профессиональный (многоголосый закадровый) (HDrezka Studio)"],"quality":"bd","translation":"Любительский (двухголосый закадровый) (DeadSno & den904)","update":"2021-02-23 12:11:36","iframe_src":"//8422.svetacdn.in/si4jsFRrtgrT/movie/13190"},{"id":1378,"title":"Байки Митяя","kp_id":"655912","imdb_id":"tt4104710","world_art_id":null,"type":"serial","add":"2017-07-09 07:08:51","orig_title":"Bayki Mityaya","year":"2012-02-06","translations":["Оригинальная дорожка"],"seasons_count":1,"episodes_count":20,"episodes":20,"update":"2017-07-10 07:14:32","iframe_src":"//8422.svetacdn.in/si4jsFRrtgrT/tv-series/1378"},{"id":1372,"title":"Женщина в беде 4","kp_id":"961722","imdb_id":null,"world_art_id":null,"type":"serial","add":"2017-07-06 05:51:54","orig_title":"Женщина в беде 4","year":"2017-05-27","translations":["Оригинальная дорожка"],"seasons_count":1,"episodes_count":4,"episodes":4,"update":"2017-07-07 10:21:34","iframe_src":"//8422.svetacdn.in/si4jsFRrtgrT/tv-series/1372"},{"id":1371,"title":"Женщина в беде 3","kp_id":"961721","imdb_id":null,"world_art_id":null,"type":"serial","add":"2017-07-06 05:49:57","orig_title":"Женщина в беде 3","year":"2017-05-20","translations":["Оригинальная дорожка"],"seasons_count":1,"episodes_count":4,"episodes":4,"update":"2017-07-07 08:59:05","iframe_src":"//8422.svetacdn.in/si4jsFRrtgrT/tv-series/1371"},{"id":1369,"title":"Женщина в беде 2","kp_id":"842591","imdb_id":null,"world_art_id":null,"type":"serial","add":"2017-07-06 05:29:20","orig_title":"Женщина в беде 2","year":"2015-04-18","translations":["Оригинальная дорожка"],"seasons_count":1,"episodes_count":4,"episodes":4,"update":"2017-07-07 08:53:18","iframe_src":"//8422.svetacdn.in/si4jsFRrtgrT/tv-series/1369"},{"id":1366,"title":"Я – Ангина","kp_id":"788462","imdb_id":null,"world_art_id":null,"type":"serial","add":"2017-07-06 04:49:59","orig_title":"Я – Ангина","year":"2013-08-23","translations":["Оригинальная дорожка"],"seasons_count":1,"episodes_count":4,"episodes":4,"update":"2017-07-07 10:29:57","iframe_src":"//8422.svetacdn.in/si4jsFRrtgrT/tv-series/1366"},{"id":1365,"title":"Сила Веры","kp_id":"763547","imdb_id":null,"world_art_id":null,"type":"serial","add":"2017-07-06 04:46:50","orig_title":"Сила Веры","year":"2013-05-18","translations":["Оригинальная дорожка"],"seasons_count":1,"episodes_count":2,"episodes":2,"update":"2017-07-06 11:45:11","iframe_src":"//8422.svetacdn.in/si4jsFRrtgrT/tv-series/1365"},{"id":1364,"title":"Предельная глубина","kp_id":"839266","imdb_id":null,"world_art_id":null,"type":"serial","add":"2017-07-06 04:34:33","orig_title":"Предельная глубина","year":"2014-04-16","translations":["Оригинальная дорожка"],"seasons_count":1,"episodes_count":4,"episodes":4,"update":"2017-07-06 12:29:32","iframe_src":"//8422.svetacdn.in/si4jsFRrtgrT/tv-series/1364"},{"id":1363,"title":"Лектор","kp_id":"532874","imdb_id":"tt1687471","world_art_id":null,"type":"serial","add":"2017-07-06 04:30:05","orig_title":"Lektor","year":"2011-10-30","translations":["Оригинальная дорожка"],"seasons_count":1,"episodes_count":8,"episodes":8,"update":"2017-07-06 11:40:11","iframe_src":"//8422.svetacdn.in/si4jsFRrtgrT/tv-series/1363"},{"id":1360,"title":"Дедушка","kp_id":"897046","imdb_id":"tt4465368","world_art_id":null,"type":"serial","add":"2017-07-05 11:00:37","orig_title":"Grandfathered","year":"2015-09-29","translations":["Любительский (многоголосый закадровый) (Alternative Production)"],"seasons_count":1,"episodes_count":22,"episodes":22,"update":"2017-07-07 14:25:37","iframe_src":"//8422.svetacdn.in/si4jsFRrtgrT/tv-series/1360"},{"id":1359,"title":"За пределами","kp_id":"799433","imdb_id":"tt3155320","world_art_id":null,"type":"serial","add":"2017-07-05 10:43:25","orig_title":"Extant","year":"2014-07-09","translations":["Профессиональный (многоголосый закадровый) (LostFilm)"],"seasons_count":2,"episodes_count":26,"episodes":13,"update":"2017-07-07 09:37:43","iframe_src":"//8422.svetacdn.in/si4jsFRrtgrT/tv-series/1359"},{"id":1357,"title":"Уилфред","kp_id":"558127","imdb_id":"tt1703925","world_art_id":null,"type":"serial","add":"2017-07-04 09:16:29","orig_title":"Wilfred","year":"2011-06-23","translations":["Профессиональный (двухголосый закадровый) (Кубик в Кубе)"],"seasons_count":4,"episodes_count":49,"episodes":10,"update":"2017-07-06 11:15:57","iframe_src":"//8422.svetacdn.in/si4jsFRrtgrT/tv-series/1357"},{"id":1354,"title":"Три дороги","kp_id":"961717","imdb_id":"tt5564504","world_art_id":null,"type":"serial","add":"2017-07-04 05:12:43","orig_title":"Tree Dorogy","year":"2016-01-01","translations":["Оригинальная дорожка"],"seasons_count":1,"episodes_count":4,"episodes":4,"update":"2017-07-05 06:06:40","iframe_src":"//8422.svetacdn.in/si4jsFRrtgrT/tv-series/1354"},{"id":1352,"title":"Саша + Даша + Глаша","kp_id":"843285","imdb_id":null,"world_art_id":null,"type":"serial","add":"2017-07-03 13:11:17","orig_title":"Саша + Даша + Глаша","year":"2017-06-21","translations":["Оригинальная дорожка"],"seasons_count":1,"episodes_count":4,"episodes":4,"update":"2017-07-07 10:38:27","iframe_src":"//8422.svetacdn.in/si4jsFRrtgrT/tv-series/1352"},{"id":1351,"title":"Любовь говорит","kp_id":"933352","imdb_id":"tt5088016","world_art_id":null,"type":"serial","add":"2017-07-03 13:07:28","orig_title":"Lyubov govorit","year":"2015-09-30","translations":["Оригинальная дорожка"],"seasons_count":1,"episodes_count":4,"episodes":4,"update":"2017-07-06 12:24:19","iframe_src":"//8422.svetacdn.in/si4jsFRrtgrT/tv-series/1351"},{"id":1349,"title":"Константин","kp_id":"822704","imdb_id":"tt3489184","world_art_id":null,"type":"serial","add":"2017-07-03 09:57:31","orig_title":"Constantine","year":"2014-10-24","translations":["Профессиональный (многоголосый закадровый) (LostFilm)"],"seasons_count":1,"episodes_count":13,"episodes":13,"update":"2017-07-05 06:13:18","iframe_src":"//8422.svetacdn.in/si4jsFRrtgrT/tv-series/1349"},{"id":1347,"title":"Тёмный мир: Равновесие","kp_id":"682079","imdb_id":"tt3716168","world_art_id":null,"type":"serial","add":"2017-07-02 09:01:19","orig_title":"Temnyy mir: Ravnovesie","year":"2014-05-12","translations":["Оригинальная дорожка"],"seasons_count":1,"episodes_count":12,"episodes":12,"update":"2017-07-04 10:57:22","iframe_src":"//8422.svetacdn.in/si4jsFRrtgrT/tv-series/1347"},{"id":1345,"title":"Цыганка","kp_id":"972838","imdb_id":"tt5503718","world_art_id":null,"type":"serial","add":"2017-07-02 07:54:26","orig_title":"Gypsy","year":"2017-06-30","translations":["Любительский (двухголосый закадровый) (Sunshine Studio)"],"seasons_count":1,"episodes_count":10,"episodes":10,"update":"2017-07-03 06:50:29","iframe_src":"//8422.svetacdn.in/si4jsFRrtgrT/tv-series/1345"},{"id":1322,"title":"Розыск 3","kp_id":"837657","imdb_id":"tt5038390","world_art_id":null,"type":"serial","add":"2017-06-15 18:11:15","orig_title":"Rozysk 3","year":"2015-01-01","translations":["Оригинальная дорожка"],"seasons_count":1,"episodes_count":16,"episodes":16,"update":"2017-07-05 11:18:01","iframe_src":"//8422.svetacdn.in/si4jsFRrtgrT/tv-series/1322"},{"id":1196,"title":"Измерение 404","kp_id":"1042181","imdb_id":"tt5798078","world_art_id":null,"type":"serial","add":"2017-04-18 07:50:32","orig_title":"Dimension 404","year":"2017-04-04","translations":["Профессиональный (многоголосый закадровый) (NewStudio)"],"seasons_count":1,"episodes_count":6,"episodes":6,"update":"2017-07-03 12:16:59","iframe_src":"//8422.svetacdn.in/si4jsFRrtgrT/tv-series/1196"},{"id":8348,"title":"Выход Дракона","kp_id":"24743","imdb_id":"tt0070034","world_art_id":null,"type":"movie","add":"2016-12-26 07:29:06","orig_title":"Enter the Dragon","year":"1973-07-26","translations":["Полное дублирование","Авторский (одноголосый закадровый) (Горчаков Василий)","Авторский (одноголосый закадровый) (Королёв Владимир)","Авторский (одноголосый закадровый) (Михалёв Алексей)","Авторский (одноголосый закадровый) (Товбин Юрий)","Авторский (одноголосый закадровый) (Володарский Леонид)","Авторский (одноголосый закадровый) (Живов Юрий)","Полное дублирование","Original (English)","Профессиональный (многоголосый закадровый) (Superbit)"],"quality":"bd","translation":"Полное дублирование","update":"2021-02-23 13:37:48","iframe_src":"//8422.svetacdn.in/si4jsFRrtgrT/movie/8348"},{"id":6708,"title":"Новичок","kp_id":"7143","imdb_id":"tt0099615","world_art_id":null,"type":"movie","add":"2016-10-26 16:43:20","orig_title":"The Freshman","year":"1990-07-20","translations":["Полное дублирование","Авторский (одноголосый закадровый) (Михалёв Алексей)","Полное дублирование (Варус-Видео)","Original (English)","Профессиональный (многоголосый закадровый) (Первый канал | ОРТ)"],"quality":"webdl","translation":"Полное дублирование","update":"2021-02-23 14:28:01","iframe_src":"//8422.svetacdn.in/si4jsFRrtgrT/movie/6708"},{"id":6668,"title":"Кукловоды","kp_id":"6226","imdb_id":"tt0111003","world_art_id":null,"type":"movie","add":"2016-10-25 15:37:14","orig_title":"The Puppet Masters","year":"1994-10-21","translations":["Профессиональный (двухголосый закадровый)","Профессиональный (многоголосый закадровый) (Первый канал | ОРТ)","Авторский (одноголосый закадровый) (Алексеев Антон)","Авторский (одноголосый закадровый) (Кашкин Александр | Первомайский)","Авторский (одноголосый закадровый) (Кузнецов Сергей)","Профессиональный (многоголосый закадровый) (Первый канал | ОРТ)","Авторский (одноголосый закадровый) (Володарский Леонид)","Авторский (одноголосый закадровый) (Живов Юрий)","Original (English)","Профессиональный (двухголосый закадровый) (НТВ)","Профессиональный (двухголосый закадровый) (Видеосервис)"],"quality":"bd","translation":"Профессиональный (двухголосый закадровый)","update":"2021-02-23 13:49:07","iframe_src":"//8422.svetacdn.in/si4jsFRrtgrT/movie/6668"},{"id":5111,"title":"Гонщики","kp_id":"94488","imdb_id":"tt0111002","world_art_id":null,"type":"movie","add":"2016-09-08 06:46:55","orig_title":"Roadracers","year":"1994-07-22","translations":["Профессиональный (многоголосый закадровый)","Авторский (одноголосый закадровый) (Чадов Михаил)","Авторский (одноголосый закадровый) (Гаврилов Андрей)","Original (English)","Профессиональный (двухголосый закадровый)"],"quality":"bd","translation":"Профессиональный (многоголосый закадровый)","update":"2021-02-23 14:35:49","iframe_src":"//8422.svetacdn.in/si4jsFRrtgrT/movie/5111"},{"id":284,"title":"Живые и мёртвые","kp_id":"926991","imdb_id":"tt4928166","world_art_id":null,"type":"serial","add":"2016-07-14 12:16:26","orig_title":"The Living and the Dead","year":"2016-06-28","translations":["Профессиональный (многоголосый закадровый) (BaibaKo)"],"seasons_count":1,"episodes_count":6,"episodes":6,"update":"2017-07-04 08:23:31","iframe_src":"//8422.svetacdn.in/si4jsFRrtgrT/tv-series/284"}],"current_page":547,"first_page_url":"https://videocdn.tv/api/short?limit=100&api_token=X6EwAUfE5M9xbo7y0Bp0aPf3uXxG2KLL&cache3547=3547&page=1","from":54601,"last_page":689,"last_page_url":"https://videocdn.tv/api/short?limit=100&api_token=X6EwAUfE5M9xbo7y0Bp0aPf3uXxG2KLL&cache3547=3547&page=689","next_page_url":"https://videocdn.tv/api/short?limit=100&api_token=X6EwAUfE5M9xbo7y0Bp0aPf3uXxG2KLL&cache3547=3547&page=548","path":"https://videocdn.tv/api/short","per_page":100,"prev_page_url":"https://videocdn.tv/api/short?limit=100&api_token=X6EwAUfE5M9xbo7y0Bp0aPf3uXxG2KLL&cache3547=3547&page=546","to":54640,"total":68803}