{"result":true,"data":[{"id":14170,"title":"Реджеп Иведик 4","kp_id":"821699","imdb_id":"tt3477064","world_art_id":null,"type":"movie","add":"2017-10-29 22:10:22","orig_title":"Recep Ivedik 4","year":"2014-02-20","translations":["Любительский (многоголосый закадровый) (Синема УС)"],"quality":"webdl","translation":"Любительский (многоголосый закадровый) (Синема УС)","update":"2017-10-30 06:50:36","iframe_src":"//7720.svetacdn.in/IAF0wWTdNYZm/movie/14170"},{"id":14168,"title":"Охота на Оленя","kp_id":"630204","imdb_id":"tt2066070","world_art_id":null,"type":"movie","add":"2017-10-29 22:05:57","orig_title":"Stag Hunt","year":"2015-05-16","translations":["Любительский (многоголосый закадровый) (Синема УС)"],"quality":"bd","translation":"Любительский (многоголосый закадровый) (Синема УС)","update":"2017-10-30 06:47:38","iframe_src":"//7720.svetacdn.in/IAF0wWTdNYZm/movie/14168"},{"id":14167,"title":"Убийственное сестринство","kp_id":"971487","imdb_id":"tt5595364","world_art_id":null,"type":"movie","add":"2017-10-29 22:03:20","orig_title":"Deadly Sorority","year":"2017-04-03","translations":["Любительский (многоголосый закадровый) (Синема УС)"],"quality":"hdtv","translation":"Любительский (многоголосый закадровый) (Синема УС)","update":"2017-10-30 06:46:26","iframe_src":"//7720.svetacdn.in/IAF0wWTdNYZm/movie/14167"},{"id":14166,"title":"Бей изо всех сил","kp_id":"907776","imdb_id":"tt4653950","world_art_id":null,"type":"movie","add":"2017-10-29 21:57:36","orig_title":"Swing Away","year":"2017-10-13","translations":["Любительский (многоголосый закадровый) (Синема УС)"],"quality":"webdl","translation":"Любительский (многоголосый закадровый) (Синема УС)","update":"2017-10-30 06:41:41","iframe_src":"//7720.svetacdn.in/IAF0wWTdNYZm/movie/14166"},{"id":14164,"title":"Счастливая серая мышь","kp_id":"1049609","imdb_id":null,"world_art_id":null,"type":"movie","add":"2017-10-29 21:52:50","orig_title":"Счастливая серая мышь","year":"2017-10-28","translations":["Оригинальная дорожка"],"quality":"webdl","translation":"Оригинальная дорожка","update":"2017-10-30 06:36:40","iframe_src":"//7720.svetacdn.in/IAF0wWTdNYZm/movie/14164"},{"id":14159,"title":"Тадзёмару","kp_id":"438434","imdb_id":"tt1347008","world_art_id":null,"type":"movie","add":"2017-10-29 21:07:35","orig_title":"Tajomaru","year":"2009-09-12","translations":["Любительский (двухголосый закадровый)"],"quality":"dvdrip","translation":"Любительский (двухголосый закадровый)","update":"2017-10-29 22:12:59","iframe_src":"//7720.svetacdn.in/IAF0wWTdNYZm/movie/14159"},{"id":14136,"title":"Цикл","kp_id":"401015","imdb_id":"tt1153102","world_art_id":null,"type":"movie","add":"2017-10-29 09:24:15","orig_title":"The Cycle","year":"2009-05-19","translations":["Профессиональный (многоголосый закадровый)"],"quality":"dvdrip","translation":"Профессиональный (многоголосый закадровый)","update":"2017-10-29 22:06:34","iframe_src":"//7720.svetacdn.in/IAF0wWTdNYZm/movie/14136"},{"id":14124,"title":"Игра палача","kp_id":"835941","imdb_id":"tt1827429","world_art_id":null,"type":"movie","add":"2017-10-29 01:14:56","orig_title":"Hangman's Game","year":"2015-10-28","translations":["Любительский (одноголосый закадровый) (Хихикающий доктор)"],"quality":"webdl","translation":"Любительский (одноголосый закадровый) (Хихикающий доктор)","update":"2017-10-29 21:35:58","iframe_src":"//7720.svetacdn.in/IAF0wWTdNYZm/movie/14124"},{"id":14107,"title":"Возвращение блудного мужа","kp_id":"452536","imdb_id":null,"world_art_id":null,"type":"movie","add":"2017-10-28 22:52:08","orig_title":"Возвращение блудного мужа","year":"2009-08-20","translations":["Оригинальная дорожка"],"quality":"sat","translation":"Оригинальная дорожка","update":"2017-10-29 16:55:04","iframe_src":"//7720.svetacdn.in/IAF0wWTdNYZm/movie/14107"},{"id":14105,"title":"Отцы","kp_id":"567064","imdb_id":"tt3911760","world_art_id":null,"type":"movie","add":"2017-10-28 22:33:10","orig_title":"Ottsy","year":"2010-11-28","translations":["Оригинальная дорожка"],"quality":"dvdrip","translation":"Оригинальная дорожка","update":"2017-10-30 03:50:33","iframe_src":"//7720.svetacdn.in/IAF0wWTdNYZm/movie/14105"},{"id":14104,"title":"Фортуна","kp_id":"41171","imdb_id":"tt0260910","world_art_id":null,"type":"movie","add":"2017-10-28 22:29:17","orig_title":"Fortuna","year":"2000-02-26","translations":["Оригинальная дорожка"],"quality":"dvdrip","translation":"Оригинальная дорожка","update":"2017-10-29 16:57:52","iframe_src":"//7720.svetacdn.in/IAF0wWTdNYZm/movie/14104"},{"id":14099,"title":"Музыка в ожидании","kp_id":"448432","imdb_id":"tt1372282","world_art_id":null,"type":"movie","add":"2017-10-27 07:59:32","orig_title":"Música en espera","year":"2009-03-19","translations":["Любительский (одноголосый закадровый)"],"quality":"dvdrip","translation":"Любительский (одноголосый закадровый)","update":"2017-10-29 17:08:26","iframe_src":"//7720.svetacdn.in/IAF0wWTdNYZm/movie/14099"},{"id":14097,"title":"Сколько весит троянский конь?","kp_id":"436587","imdb_id":"tt1344726","world_art_id":null,"type":"movie","add":"2017-10-27 07:51:35","orig_title":"Ile wazy kon trojanski?","year":"2008-12-26","translations":["Любительский (одноголосый закадровый)"],"quality":"bd","translation":"Любительский (одноголосый закадровый)","update":"2017-10-29 17:05:28","iframe_src":"//7720.svetacdn.in/IAF0wWTdNYZm/movie/14097"},{"id":14095,"title":"Джордж Карлин: Это плохо для тебя!","kp_id":"308906","imdb_id":"tt0963207","world_art_id":null,"type":"movie","add":"2017-10-27 07:41:00","orig_title":"George Carlin... It's Bad for Ya!","year":"2008-03-01","translations":["Любительский (одноголосый закадровый)"],"quality":"bd","translation":"Любительский (одноголосый закадровый)","update":"2017-10-29 17:01:22","iframe_src":"//7720.svetacdn.in/IAF0wWTdNYZm/movie/14095"},{"id":14093,"title":"Дилан Моран: Yeah, Yeah","kp_id":"653774","imdb_id":"tt2114375","world_art_id":null,"type":"movie","add":"2017-10-27 07:32:31","orig_title":"Dylan Moran: Yeah, Yeah","year":"2011-10-05","translations":["Профессиональный (одноголосый закадровый)"],"quality":"dvdrip","translation":"Профессиональный (одноголосый закадровый)","update":"2017-10-29 16:59:52","iframe_src":"//7720.svetacdn.in/IAF0wWTdNYZm/movie/14093"},{"id":14086,"title":"Чернокнижник: Новое поколение","kp_id":"94620","imdb_id":"tt0280502","world_art_id":null,"type":"movie","add":"2017-10-27 06:45:35","orig_title":"The Brotherhood 2: Young Warlocks","year":"2001-09-25","translations":["Профессиональный (двухголосый закадровый)"],"quality":"dvdrip","translation":"Профессиональный (двухголосый закадровый)","update":"2017-10-29 17:02:44","iframe_src":"//7720.svetacdn.in/IAF0wWTdNYZm/movie/14086"},{"id":14084,"title":"Стюарт Ли: Мир ковровых обрезков","kp_id":"728572","imdb_id":"tt2534670","world_art_id":null,"type":"movie","add":"2017-10-27 06:19:41","orig_title":"Stewart Lee: Carpet Remnant World","year":"2012-11-12","translations":["Профессиональный (одноголосый закадровый)"],"quality":"iptv","translation":"Профессиональный (одноголосый закадровый)","update":"2017-10-29 17:11:34","iframe_src":"//7720.svetacdn.in/IAF0wWTdNYZm/movie/14084"},{"id":8918,"title":"Элитный спецотряд","kp_id":"919813","imdb_id":"tt4806012","world_art_id":null,"type":"movie","add":"2017-01-15 14:49:01","orig_title":"Cuerpo de Élite","year":"2016-08-26","translations":["Любительский (одноголосый закадровый)","Любительский (многоголосый закадровый) (Синема УС)"],"quality":"bd","translation":"Любительский (одноголосый закадровый)","update":"2017-10-30 06:33:57","iframe_src":"//7720.svetacdn.in/IAF0wWTdNYZm/movie/8918"},{"id":8471,"title":"Клуб мёртвых","kp_id":"751745","imdb_id":"tt2820578","world_art_id":null,"type":"movie","add":"2016-12-30 12:23:08","orig_title":"Club Dead","year":"2015-11-01","translations":["Любительский (двухголосый закадровый)","Любительский (многоголосый закадровый) (Синема УС)"],"quality":"webdl","translation":"Любительский (двухголосый закадровый)","update":"2017-10-30 06:45:18","iframe_src":"//7720.svetacdn.in/IAF0wWTdNYZm/movie/8471"},{"id":5067,"title":"Под водой","kp_id":"805039","imdb_id":"tt3236976","world_art_id":null,"type":"movie","add":"2016-09-06 09:04:44","orig_title":"Submerged","year":"2015-11-27","translations":["Любительский (одноголосый закадровый)","Любительский (многоголосый закадровый) (Синема УС)"],"quality":"webdl","translation":"Любительский (одноголосый закадровый)","update":"2017-10-30 06:43:25","iframe_src":"//7720.svetacdn.in/IAF0wWTdNYZm/movie/5067"}],"current_page":2092,"first_page_url":"https://videocdn.tv/api/short?limit=100&api_token=6Onb1W1alEUrBcKJZD3GoKBbWyAl2uG2&cache32092=32092&page=1","from":209101,"last_page":651,"last_page_url":"https://videocdn.tv/api/short?limit=100&api_token=6Onb1W1alEUrBcKJZD3GoKBbWyAl2uG2&cache32092=32092&page=651","next_page_url":null,"path":"https://videocdn.tv/api/short","per_page":100,"prev_page_url":"https://videocdn.tv/api/short?limit=100&api_token=6Onb1W1alEUrBcKJZD3GoKBbWyAl2uG2&cache32092=32092&page=2091","to":209120,"total":65076}