{"result":true,"data":[{"id":42219,"title":"Последний транзит","kp_id":"1207749","imdb_id":"tt7952850","world_art_id":null,"type":"movie","add":"2020-08-03 15:24:56","orig_title":"Final Transit","year":"2019-07-28","translations":["Любительский (многоголосый закадровый) (Синема УС)"],"quality":"webdl","translation":"Любительский (многоголосый закадровый) (Синема УС)","update":"2020-08-03 20:54:18","iframe_src":"//7043.svetacdn.in/si4jsFRrtgrT/movie/42219"},{"id":42218,"title":"Хорошие девочки уходят в отрыв","kp_id":"1108649","imdb_id":"tt7688638","world_art_id":null,"type":"movie","add":"2020-08-03 15:16:03","orig_title":"Good Girls Get High","year":"2019-11-08","translations":["Любительский (многоголосый закадровый) (Синема УС)"],"quality":"webdl","translation":"Любительский (многоголосый закадровый) (Синема УС)","update":"2020-08-03 20:50:47","iframe_src":"//7043.svetacdn.in/si4jsFRrtgrT/movie/42218"},{"id":42215,"title":"Джек Джона","kp_id":"1291499","imdb_id":"tt10731666","world_art_id":null,"type":"movie","add":"2020-08-03 14:41:25","orig_title":"Jack Jonah","year":"2019-01-01","translations":["Любительский (многоголосый закадровый) (Синема УС)"],"quality":"webdl","translation":"Любительский (многоголосый закадровый) (Синема УС)","update":"2020-08-03 20:43:11","iframe_src":"//7043.svetacdn.in/si4jsFRrtgrT/movie/42215"},{"id":42214,"title":"Змей в бутылке","kp_id":"732189","imdb_id":"tt2610890","world_art_id":null,"type":"movie","add":"2020-08-03 14:08:30","orig_title":"Serpent in the Bottle","year":"2020-04-20","translations":["Любительский (многоголосый закадровый) (Синема УС)"],"quality":"webdl","translation":"Любительский (многоголосый закадровый) (Синема УС)","update":"2020-08-03 20:39:07","iframe_src":"//7043.svetacdn.in/si4jsFRrtgrT/movie/42214"},{"id":42194,"title":"Феномен «Бумажного дома»","kp_id":"1387142","imdb_id":"tt12078990","world_art_id":null,"type":"movie","add":"2020-08-02 15:33:25","orig_title":"La casa de papel: El fenómeno","year":"2020-04-03","translations":["Профессиональный (многоголосый закадровый) (HDrezka Studio)"],"quality":"webdl","translation":"Профессиональный (многоголосый закадровый) (HDrezka Studio)","update":"2020-08-02 19:02:47","iframe_src":"//7043.svetacdn.in/si4jsFRrtgrT/movie/42194"},{"id":42172,"title":"Нюрнберг: Нацисты перед лицом своих преступлений","kp_id":"470052","imdb_id":"tt0889626","world_art_id":null,"type":"movie","add":"2020-07-31 21:27:31","orig_title":"Nuremberg - Les nazis face à leurs crimes","year":"2006-10-04","translations":["Профессиональный (многоголосый закадровый)"],"quality":"sat","translation":"Профессиональный (многоголосый закадровый)","update":"2020-08-01 07:06:13","iframe_src":"//7043.svetacdn.in/si4jsFRrtgrT/movie/42172"},{"id":42171,"title":"Шутки в сторону","kp_id":"1392013","imdb_id":"tt11010144","world_art_id":null,"type":"movie","add":"2020-07-31 21:04:32","orig_title":"Seriously Single","year":"2020-07-31","translations":["Любительский (многоголосый закадровый) (Синема УС)"],"quality":"webdl","translation":"Любительский (многоголосый закадровый) (Синема УС)","update":"2020-08-01 07:05:51","iframe_src":"//7043.svetacdn.in/si4jsFRrtgrT/movie/42171"},{"id":42169,"title":"Чёрный - цвет королей","kp_id":"1390874","imdb_id":"tt12607910","world_art_id":null,"type":"movie","add":"2020-07-31 20:54:06","orig_title":"Black Is King","year":"2020-07-31","translations":["Любительский (многоголосый закадровый) (Синема УС)"],"quality":"webdl","translation":"Любительский (многоголосый закадровый) (Синема УС)","update":"2020-08-01 06:18:05","iframe_src":"//7043.svetacdn.in/si4jsFRrtgrT/movie/42169"},{"id":42168,"title":"Случайные акты насилия","kp_id":"587141","imdb_id":"tt1925493","world_art_id":null,"type":"movie","add":"2020-07-31 20:52:17","orig_title":"Random Acts of Violence","year":"2019-09-19","translations":["Любительский (многоголосый закадровый) (@MUZOBOZ@)"],"quality":"webdl","translation":"Любительский (многоголосый закадровый) (@MUZOBOZ@)","update":"2020-08-01 06:17:22","iframe_src":"//7043.svetacdn.in/si4jsFRrtgrT/movie/42168"},{"id":42167,"title":"Страна солнца","kp_id":"1044792","imdb_id":"tt6841122","world_art_id":null,"type":"movie","add":"2020-07-31 20:50:36","orig_title":"Summerland","year":"2020-07-31","translations":["Любительский (многоголосый закадровый) (@MUZOBOZ@)"],"quality":"webdl","translation":"Любительский (многоголосый закадровый) (@MUZOBOZ@)","update":"2020-08-01 06:16:53","iframe_src":"//7043.svetacdn.in/si4jsFRrtgrT/movie/42167"},{"id":42147,"title":"Клянусь тебе, это не я!","kp_id":null,"imdb_id":"tt4980154","world_art_id":null,"type":"movie","add":"2020-07-31 12:33:47","orig_title":"Te juro que yo no fui","year":"2018-10-12","translations":["Любительский (многоголосый закадровый) (AlphaProject)"],"quality":"webdl","translation":"Любительский (многоголосый закадровый) (AlphaProject)","update":"2020-07-31 20:30:37","iframe_src":"//7043.svetacdn.in/si4jsFRrtgrT/movie/42147"},{"id":42146,"title":"Старший брат","kp_id":"1072462","imdb_id":"tt6409416","world_art_id":null,"type":"movie","add":"2020-07-31 12:28:47","orig_title":"Moothon","year":"2019-09-09","translations":["Любительский (многоголосый закадровый) (Синема УС)"],"quality":"webdl","translation":"Любительский (многоголосый закадровый) (Синема УС)","update":"2020-07-31 20:31:19","iframe_src":"//7043.svetacdn.in/si4jsFRrtgrT/movie/42146"},{"id":42045,"title":"Непослушный котёнок","kp_id":"464844","imdb_id":"tt5897294","world_art_id":null,"type":"movie","add":"2020-07-27 17:18:59","orig_title":"Neposlushnyy kotyonok","year":"1953-01-01","translations":["Оригинальная дорожка"],"quality":"dvdrip","translation":"Оригинальная дорожка","update":"2020-08-04 06:27:05","iframe_src":"//7043.svetacdn.in/si4jsFRrtgrT/movie/42045"},{"id":42044,"title":"Муха-цокотуха","kp_id":"478805","imdb_id":"tt2285593","world_art_id":null,"type":"movie","add":"2020-07-27 17:12:35","orig_title":"Mukha-tsokotukha","year":"1976-01-01","translations":["Оригинальная дорожка"],"quality":"dvdrip","translation":"Оригинальная дорожка","update":"2020-08-04 06:26:12","iframe_src":"//7043.svetacdn.in/si4jsFRrtgrT/movie/42044"},{"id":42043,"title":"Не заглушить, не вытоптать года...","kp_id":"840451","imdb_id":null,"world_art_id":null,"type":"movie","add":"2020-07-27 16:52:58","orig_title":"Не заглушить, не вытоптать года...","year":"1981-01-01","translations":["Оригинальная дорожка"],"quality":"dvdrip","translation":"Оригинальная дорожка","update":"2020-08-04 06:23:47","iframe_src":"//7043.svetacdn.in/si4jsFRrtgrT/movie/42043"},{"id":24183,"title":"Умка ищет друга","kp_id":"438264","imdb_id":"tt5214544","world_art_id":null,"type":"movie","add":"2019-04-09 08:43:48","orig_title":"Umka ishchet druga","year":"1970-01-01","translations":["Оригинальная дорожка","Оригинальная дорожка"],"quality":"dvdrip","translation":"Оригинальная дорожка","update":"2020-08-04 06:25:08","iframe_src":"//7043.svetacdn.in/si4jsFRrtgrT/movie/24183"},{"id":22241,"title":"Красиво сломленные","kp_id":"973407","imdb_id":"tt5645932","world_art_id":null,"type":"movie","add":"2019-02-12 09:02:15","orig_title":"Beautifully Broken","year":"2018-08-24","translations":["Любительский (многоголосый закадровый) (Синема УС)","Профессиональный (многоголосый закадровый) (HDrezka Studio)"],"quality":"dvdrip","translation":"Любительский (многоголосый закадровый) (Синема УС)","update":"2020-08-03 17:53:21","iframe_src":"//7043.svetacdn.in/si4jsFRrtgrT/movie/22241"},{"id":21926,"title":"Смерть на воде","kp_id":"1189410","imdb_id":"tt8883164","world_art_id":null,"type":"movie","add":"2019-01-30 04:24:14","orig_title":"Dead in the Water","year":"2018-10-27","translations":["Любительский (многоголосый закадровый) (Синема УС)","Любительский (одноголосый закадровый) (HiWay Grope)","Профессиональный (многоголосый закадровый) (HDrezka Studio)","Профессиональный (многоголосый закадровый) (HDrezka Studio)"],"quality":"webdl","translation":"Любительский (многоголосый закадровый) (Синема УС)","update":"2020-08-03 17:52:32","iframe_src":"//7043.svetacdn.in/si4jsFRrtgrT/movie/21926"},{"id":19801,"title":"Улисс: Тёмная Одиссея","kp_id":"983174","imdb_id":"tt5581752","world_art_id":null,"type":"movie","add":"2018-10-26 20:42:36","orig_title":"Ulysses: A Dark Odyssey","year":"2018-06-14","translations":["Любительский (многоголосый закадровый) (@MUZOBOZ@)","Профессиональный (многоголосый закадровый) (HDrezka Studio)"],"quality":"bd","translation":"Любительский (многоголосый закадровый) (@MUZOBOZ@)","update":"2020-08-03 17:51:07","iframe_src":"//7043.svetacdn.in/si4jsFRrtgrT/movie/19801"},{"id":18646,"title":"Не волнуйся, он далеко не уйдёт","kp_id":"1008748","imdb_id":"tt6288124","world_art_id":null,"type":"movie","add":"2018-08-30 00:25:02","orig_title":"Don't Worry, He Won't Get Far on Foot","year":"2018-01-19","translations":["Любительский (многоголосый закадровый) (@MUZOBOZ@)","Профессиональный (многоголосый закадровый) (HDrezka Studio)","Профессиональный (многоголосый закадровый)","Профессиональный (двухголосый закадровый) (iTunes)","Original (English)","Профессиональный (многоголосый закадровый) (HDrezka Studio)"],"quality":"bd","translation":"Любительский (многоголосый закадровый) (@MUZOBOZ@)","update":"2020-08-03 17:54:23","iframe_src":"//7043.svetacdn.in/si4jsFRrtgrT/movie/18646"},{"id":562,"title":"Налёт","kp_id":"497678","imdb_id":"tt1429534","world_art_id":null,"type":"serial","add":"2016-11-01 14:01:39","orig_title":"Braquo","year":"2009-10-12","translations":["Профессиональный (многоголосый закадровый) (BaibaKo)","Профессиональный (многоголосый закадровый) (CasStudio)"],"seasons_count":4,"episodes_count":32,"episodes":8,"update":"2016-11-02 07:47:21","iframe_src":"//7043.svetacdn.in/si4jsFRrtgrT/tv-series/562"},{"id":559,"title":"Забудь меня, мама!","kp_id":"984273","imdb_id":"tt5923560","world_art_id":null,"type":"serial","add":"2016-10-30 13:10:50","orig_title":"Zabud' menya, mama!","year":"2016-10-28","translations":["Оригинальная дорожка"],"seasons_count":1,"episodes_count":1,"episodes":1,"update":"2016-10-30 17:09:17","iframe_src":"//7043.svetacdn.in/si4jsFRrtgrT/tv-series/559"},{"id":555,"title":"Интим не предлагать","kp_id":"1006644","imdb_id":null,"world_art_id":null,"type":"serial","add":"2016-10-25 11:32:48","orig_title":"Интим не предлагать","year":"2016-10-10","translations":["Оригинальная дорожка"],"seasons_count":1,"episodes_count":1,"episodes":1,"update":"2016-10-25 13:25:31","iframe_src":"//7043.svetacdn.in/si4jsFRrtgrT/tv-series/555"},{"id":546,"title":"Мотив","kp_id":"734343","imdb_id":"tt2443340","world_art_id":null,"type":"serial","add":"2016-10-21 05:38:25","orig_title":"Motive","year":"2013-02-03","translations":["Любительский (двухголосый закадровый) (Sunshine Studio)","Любительский (многоголосый закадровый) (ApofysTeam)"],"seasons_count":4,"episodes_count":52,"episodes":13,"update":"2016-10-22 15:54:32","iframe_src":"//7043.svetacdn.in/si4jsFRrtgrT/tv-series/546"},{"id":537,"title":"Ментовские войны 10","kp_id":"957857","imdb_id":null,"world_art_id":null,"type":"serial","add":"2016-10-18 18:52:15","orig_title":"Ментовские войны 10","year":"2016-10-17","translations":["Оригинальная дорожка"],"seasons_count":1,"episodes_count":16,"episodes":16,"update":"2016-10-28 18:12:05","iframe_src":"//7043.svetacdn.in/si4jsFRrtgrT/tv-series/537"},{"id":532,"title":"Маппеты","kp_id":"906851","imdb_id":"tt4651824","world_art_id":null,"type":"serial","add":"2016-10-18 04:42:42","orig_title":"The Muppets.","year":"2015-09-22","translations":["Профессиональный (многоголосый закадровый) (BaibaKo)"],"seasons_count":1,"episodes_count":16,"episodes":16,"update":"2016-10-21 11:54:55","iframe_src":"//7043.svetacdn.in/si4jsFRrtgrT/tv-series/532"},{"id":528,"title":"Сводные сестры","kp_id":"984272","imdb_id":null,"world_art_id":null,"type":"serial","add":"2016-10-15 04:29:14","orig_title":"Сводные сестры","year":"2016-10-14","translations":["Оригинальная дорожка"],"seasons_count":1,"episodes_count":1,"episodes":1,"update":"2016-10-15 09:06:58","iframe_src":"//7043.svetacdn.in/si4jsFRrtgrT/tv-series/528"},{"id":524,"title":"Эволюция метала","kp_id":"603845","imdb_id":"tt1978940","world_art_id":null,"type":"serial","add":"2016-10-13 14:58:31","orig_title":"Metal Evolution","year":"2011-11-11","translations":["Авторский (одноголосый закадровый) (Чадов Михаил)"],"seasons_count":1,"episodes_count":12,"episodes":12,"update":"2016-10-14 08:08:38","iframe_src":"//7043.svetacdn.in/si4jsFRrtgrT/tv-series/524"},{"id":522,"title":"Одинокий голубь","kp_id":"276113","imdb_id":"tt0096639","world_art_id":null,"type":"serial","add":"2016-10-11 08:17:34","orig_title":"Lonesome Dove","year":"1989-02-05","translations":["Профессиональный (многоголосый)"],"seasons_count":1,"episodes_count":4,"episodes":4,"update":"2016-10-12 08:00:07","iframe_src":"//7043.svetacdn.in/si4jsFRrtgrT/tv-series/522"},{"id":520,"title":"Даша и друзья: приключения в городе","kp_id":"943868","imdb_id":"tt4048256","world_art_id":null,"type":"serial","add":"2016-10-07 10:12:12","orig_title":"Dora and Friends: Into the City","year":"2014-08-18","translations":["Полное дублирование"],"seasons_count":1,"episodes_count":17,"episodes":17,"update":"2016-10-08 16:59:21","iframe_src":"//7043.svetacdn.in/si4jsFRrtgrT/tv-series/520"},{"id":517,"title":"Опочтарение","kp_id":"469563","imdb_id":"tt1219817","world_art_id":null,"type":"serial","add":"2016-10-07 08:36:11","orig_title":"Going Postal","year":"2010-05-30","translations":["Профессиональный (многоголосый)"],"seasons_count":1,"episodes_count":1,"episodes":1,"update":"2016-10-15 09:34:32","iframe_src":"//7043.svetacdn.in/si4jsFRrtgrT/tv-series/517"},{"id":516,"title":"Побег","kp_id":"258048","imdb_id":"tt0455275","world_art_id":null,"type":"serial","add":"2016-10-06 08:08:00","orig_title":"Prison Break","year":"2005-08-29","translations":["Полное дублирование"],"seasons_count":4,"episodes_count":78,"episodes":21,"update":"2016-11-01 14:09:45","iframe_src":"//7043.svetacdn.in/si4jsFRrtgrT/tv-series/516"},{"id":514,"title":"Кризис в шести сценах","kp_id":"885605","imdb_id":"tt4354616","world_art_id":null,"type":"serial","add":"2016-10-06 06:08:27","orig_title":"Crisis in Six Scenes","year":"2016-09-30","translations":["Профессиональный (многоголосый закадровый) (BaibaKo)"],"seasons_count":1,"episodes_count":6,"episodes":6,"update":"2016-10-06 11:11:45","iframe_src":"//7043.svetacdn.in/si4jsFRrtgrT/tv-series/514"},{"id":511,"title":"Космос: Одиссея через пространство и время","kp_id":"762381","imdb_id":"tt2395695","world_art_id":null,"type":"serial","add":"2016-10-05 06:49:03","orig_title":"Cosmos: A Spacetime Odyssey","year":"2014-03-09","translations":["Профессиональный (одноголосый закадровый)"],"seasons_count":1,"episodes_count":13,"episodes":13,"update":"2016-10-10 10:15:16","iframe_src":"//7043.svetacdn.in/si4jsFRrtgrT/tv-series/511"},{"id":490,"title":"Гончие","kp_id":"428976","imdb_id":"tt3772480","world_art_id":null,"type":"serial","add":"2016-09-27 05:42:44","orig_title":"Gonchie","year":"2007-01-01","translations":["Оригинальная дорожка"],"seasons_count":6,"episodes_count":84,"episodes":16,"update":"2016-10-16 16:38:56","iframe_src":"//7043.svetacdn.in/si4jsFRrtgrT/tv-series/490"},{"id":478,"title":"Тонкий лёд","kp_id":"924301","imdb_id":null,"world_art_id":null,"type":"serial","add":"2016-09-23 14:52:18","orig_title":"Тонкий лёд","year":"2016-09-26","translations":["Оригинальная дорожка"],"seasons_count":1,"episodes_count":12,"episodes":12,"update":"2016-10-13 09:56:59","iframe_src":"//7043.svetacdn.in/si4jsFRrtgrT/tv-series/478"},{"id":431,"title":"Наемник Куорри","kp_id":"771363","imdb_id":"tt2980696","world_art_id":null,"type":"serial","add":"2016-09-11 08:02:37","orig_title":"Quarry","year":"2016-09-09","translations":["Профессиональный (многоголосый закадровый) (Amedia)"],"seasons_count":1,"episodes_count":8,"episodes":8,"update":"2016-10-30 08:59:34","iframe_src":"//7043.svetacdn.in/si4jsFRrtgrT/tv-series/431"},{"id":424,"title":"Код","kp_id":"842849","imdb_id":"tt3914672","world_art_id":null,"type":"serial","add":"2016-09-08 15:33:51","orig_title":"The Code","year":"2014-09-21","translations":["Профессиональный (многоголосый закадровый) (AlexFilm)"],"seasons_count":2,"episodes_count":12,"episodes":6,"update":"2016-10-09 14:45:35","iframe_src":"//7043.svetacdn.in/si4jsFRrtgrT/tv-series/424"},{"id":402,"title":"Мэри + Джейн","kp_id":"1005004","imdb_id":"tt5940390","world_art_id":null,"type":"serial","add":"2016-09-04 11:50:51","orig_title":"Mary + Jane","year":"2016-09-05","translations":["Профессиональный (многоголосый закадровый) (BaibaKo)"],"seasons_count":1,"episodes_count":6,"episodes":6,"update":"2016-10-12 16:06:45","iframe_src":"//7043.svetacdn.in/si4jsFRrtgrT/tv-series/402"},{"id":338,"title":"Демоница","kp_id":null,"imdb_id":"tt5870778","world_art_id":null,"type":"serial","add":"2016-08-16 06:22:06","orig_title":"Ban Yao Qing Cheng","year":"2016-07-01","translations":["Любительский (двухголосый закадровый)"],"seasons_count":1,"episodes_count":3,"episodes":3,"update":"2016-10-25 06:24:37","iframe_src":"//7043.svetacdn.in/si4jsFRrtgrT/tv-series/338"}],"current_page":501,"first_page_url":"https://videocdn.tv/api/short?limit=100&api_token=X6EwAUfE5M9xbo7y0Bp0aPf3uXxG2KLL&cache3501=3501&page=1","from":50001,"last_page":616,"last_page_url":"https://videocdn.tv/api/short?limit=100&api_token=X6EwAUfE5M9xbo7y0Bp0aPf3uXxG2KLL&cache3501=3501&page=616","next_page_url":"https://videocdn.tv/api/short?limit=100&api_token=X6EwAUfE5M9xbo7y0Bp0aPf3uXxG2KLL&cache3501=3501&page=502","path":"https://videocdn.tv/api/short","per_page":100,"prev_page_url":"https://videocdn.tv/api/short?limit=100&api_token=X6EwAUfE5M9xbo7y0Bp0aPf3uXxG2KLL&cache3501=3501&page=500","to":50040,"total":61594}