{"result":true,"data":[{"id":29155,"title":"Полнолуние девственниц","kp_id":"95842","imdb_id":"tt0070547","world_art_id":null,"type":"movie","add":"2019-07-19 03:49:45","orig_title":"Il plenilunio delle vergini","year":"1973-03-14","translations":["Любительский (одноголосый закадровый)"],"quality":"bd","translation":"Любительский (одноголосый закадровый)","update":"2019-07-19 06:11:07","iframe_src":"//5091.svetacdn.in/IAF0wWTdNYZm/movie/29155"},{"id":29154,"title":"Черный ястреб","kp_id":"134255","imdb_id":"tt0117446","world_art_id":null,"type":"movie","add":"2019-07-19 03:47:54","orig_title":"Raven Hawk","year":"1996-07-20","translations":["Авторский (одноголосый закадровый) (Сербин Юрий)"],"quality":"dvdrip","translation":"Авторский (одноголосый закадровый) (Сербин Юрий)","update":"2019-07-19 06:08:52","iframe_src":"//5091.svetacdn.in/IAF0wWTdNYZm/movie/29154"},{"id":29153,"title":"Принцесса дракон","kp_id":"77493","imdb_id":"tt0165256","world_art_id":null,"type":"movie","add":"2019-07-19 03:46:18","orig_title":"Hissatsu onna kenshi","year":"1976-01-31","translations":["Авторский (одноголосый закадровый) (Кузнецов Сергей)"],"quality":"dvdrip","translation":"Авторский (одноголосый закадровый) (Кузнецов Сергей)","update":"2019-07-19 06:08:17","iframe_src":"//5091.svetacdn.in/IAF0wWTdNYZm/movie/29153"},{"id":29152,"title":"Любовь во время оккупации","kp_id":"663913","imdb_id":"tt2178929","world_art_id":null,"type":"movie","add":"2019-07-19 03:44:36","orig_title":"Amour et sexe sous l'occupation","year":"2011-10-11","translations":["Профессиональный (двухголосый закадровый)"],"quality":"dvdrip","translation":"Профессиональный (двухголосый закадровый)","update":"2019-07-19 06:06:54","iframe_src":"//5091.svetacdn.in/IAF0wWTdNYZm/movie/29152"},{"id":29151,"title":"Любовь в лифте","kp_id":"583659","imdb_id":"tt1721022","world_art_id":null,"type":"movie","add":"2019-07-19 03:42:54","orig_title":"Love in an Elevator","year":"2010-01-01","translations":["Профессиональный (многоголосый закадровый)"],"quality":"sat","translation":"Профессиональный (многоголосый закадровый)","update":"2019-07-19 06:05:39","iframe_src":"//5091.svetacdn.in/IAF0wWTdNYZm/movie/29151"},{"id":29150,"title":"Поцелуй меня, убей меня","kp_id":"875386","imdb_id":"tt3912214","world_art_id":null,"type":"movie","add":"2019-07-19 03:39:30","orig_title":"Kiss Me, Kill Me","year":"2015-09-18","translations":["Original (English)"],"quality":"webdl","translation":"Original (English)","update":"2019-07-19 06:17:26","iframe_src":"//5091.svetacdn.in/IAF0wWTdNYZm/movie/29150"},{"id":29149,"title":"Тарбозавр 3D","kp_id":"521715","imdb_id":"tt2248068","world_art_id":null,"type":"movie","add":"2019-07-19 03:38:07","orig_title":"Jeombaki: hanbandoui gongryong 3D","year":"2012-01-26","translations":["Полное дублирование"],"quality":"bd","translation":"Полное дублирование","update":"2019-07-19 06:25:34","iframe_src":"//5091.svetacdn.in/IAF0wWTdNYZm/movie/29149"},{"id":29148,"title":"Похищенные Далеками","kp_id":"308207","imdb_id":"tt0945478","world_art_id":null,"type":"movie","add":"2019-07-19 03:35:14","orig_title":"Abducted by the Daleks","year":"2005-01-01","translations":["Любительский (одноголосый закадровый)"],"quality":"dvdrip","translation":"Любительский (одноголосый закадровый)","update":"2019-07-19 06:01:15","iframe_src":"//5091.svetacdn.in/IAF0wWTdNYZm/movie/29148"},{"id":29138,"title":"Ботанический сад","kp_id":"63902","imdb_id":"tt0135814","world_art_id":null,"type":"movie","add":"2019-07-18 22:42:39","orig_title":"Botanicheskiy sad","year":"1997-01-01","translations":["Оригинальная дорожка"],"quality":"sat","translation":"Оригинальная дорожка","update":"2019-07-19 05:54:56","iframe_src":"//5091.svetacdn.in/IAF0wWTdNYZm/movie/29138"},{"id":29137,"title":"Чертовы куклы","kp_id":"224229","imdb_id":"tt0384882","world_art_id":null,"type":"movie","add":"2019-07-18 22:39:50","orig_title":"Chyortovy kukly","year":"1993-01-01","translations":["Оригинальная дорожка"],"quality":"sat","translation":"Оригинальная дорожка","update":"2019-07-19 07:26:05","iframe_src":"//5091.svetacdn.in/IAF0wWTdNYZm/movie/29137"},{"id":29136,"title":"Дожди","kp_id":"708857","imdb_id":"tt4175638","world_art_id":null,"type":"movie","add":"2019-07-18 22:37:07","orig_title":"Dozhdi","year":"1958-05-18","translations":["Оригинальная дорожка"],"quality":"sat","translation":"Оригинальная дорожка","update":"2019-07-19 05:53:20","iframe_src":"//5091.svetacdn.in/IAF0wWTdNYZm/movie/29136"},{"id":29135,"title":"Город зажигает огни","kp_id":"44573","imdb_id":"tt0042516","world_art_id":null,"type":"movie","add":"2019-07-18 22:34:26","orig_title":"Gorod zazhigaet ogni","year":"1958-07-21","translations":["Оригинальная дорожка"],"quality":"sat","translation":"Оригинальная дорожка","update":"2019-07-19 05:52:37","iframe_src":"//5091.svetacdn.in/IAF0wWTdNYZm/movie/29135"},{"id":29134,"title":"Гойя, или тяжкий путь познания","kp_id":"44596","imdb_id":"tt0067155","world_art_id":null,"type":"movie","add":"2019-07-18 22:30:39","orig_title":"Goya - oder Der arge Weg der Erkenntnis","year":"1971-09-16","translations":["Полное дублирование"],"quality":"dvdrip","translation":"Полное дублирование","update":"2019-07-19 05:51:25","iframe_src":"//5091.svetacdn.in/IAF0wWTdNYZm/movie/29134"},{"id":29133,"title":"Я, Франциск Скорина...","kp_id":"475983","imdb_id":"tt5091302","world_art_id":null,"type":"movie","add":"2019-07-18 22:19:09","orig_title":"Ya, Frantsisk Skorina...","year":"1970-11-30","translations":["Оригинальная дорожка"],"quality":"dvb","translation":"Оригинальная дорожка","update":"2019-07-19 05:50:18","iframe_src":"//5091.svetacdn.in/IAF0wWTdNYZm/movie/29133"},{"id":29132,"title":"История кавалера де Грие и Манон Леско","kp_id":"303721","imdb_id":"tt0830191","world_art_id":null,"type":"movie","add":"2019-07-18 22:14:09","orig_title":"Istoriya kavalera de Grie i Manon Lesko","year":"1979-01-01","translations":["Оригинальная дорожка"],"quality":"dvdrip","translation":"Оригинальная дорожка","update":"2019-07-19 05:49:48","iframe_src":"//5091.svetacdn.in/IAF0wWTdNYZm/movie/29132"},{"id":29131,"title":"Кочубей","kp_id":"44836","imdb_id":"tt0173962","world_art_id":null,"type":"movie","add":"2019-07-18 22:08:54","orig_title":"Kochubey","year":"1958-12-02","translations":["Оригинальная дорожка"],"quality":"dvdrip","translation":"Оригинальная дорожка","update":"2019-07-19 05:45:01","iframe_src":"//5091.svetacdn.in/IAF0wWTdNYZm/movie/29131"},{"id":29106,"title":"Пленённая модель","kp_id":"1210089","imdb_id":"tt9312100","world_art_id":null,"type":"movie","add":"2019-07-18 19:47:33","orig_title":"A Model Kidnapping","year":"2019-07-06","translations":["Любительский (многоголосый закадровый) (Синема УС)"],"quality":"hdtv","translation":"Любительский (многоголосый закадровый) (Синема УС)","update":"2019-07-19 12:23:36","iframe_src":"//5091.svetacdn.in/IAF0wWTdNYZm/movie/29106"},{"id":29105,"title":"Медведи-соседи: Большое уменьшение","kp_id":"1112659","imdb_id":"tt8028526","world_art_id":null,"type":"movie","add":"2019-07-18 19:44:47","orig_title":"Xiong chu mei zhi bian xing ji","year":"2018-02-16","translations":["Любительский (многоголосый закадровый) (Синема УС)"],"quality":"webdl","translation":"Любительский (многоголосый закадровый) (Синема УС)","update":"2019-07-19 12:22:45","iframe_src":"//5091.svetacdn.in/IAF0wWTdNYZm/movie/29105"},{"id":27668,"title":"Игра","kp_id":"1108404","imdb_id":null,"world_art_id":null,"type":"movie","add":"2019-06-11 15:40:15","orig_title":"Игра","year":"2019-06-06","translations":["Оригинальная дорожка","Оригинальная дорожка"],"quality":"webdl","translation":"Оригинальная дорожка","update":"2019-07-19 05:57:41","iframe_src":"//5091.svetacdn.in/IAF0wWTdNYZm/movie/27668"},{"id":13642,"title":"Кинотавр Shorts","kp_id":"999453","imdb_id":null,"world_art_id":null,"type":"movie","add":"2017-09-26 21:54:21","orig_title":"Кинотавр Shorts","year":"2016-09-18","translations":["Оригинальная дорожка","Оригинальная дорожка"],"quality":"webdl","translation":"Оригинальная дорожка","update":"2019-07-19 05:49:07","iframe_src":"//5091.svetacdn.in/IAF0wWTdNYZm/movie/13642"}],"current_page":1456,"first_page_url":"https://videocdn.tv/api/short?limit=100&api_token=6Onb1W1alEUrBcKJZD3GoKBbWyAl2uG2&cache31456=31456&page=1","from":145501,"last_page":666,"last_page_url":"https://videocdn.tv/api/short?limit=100&api_token=6Onb1W1alEUrBcKJZD3GoKBbWyAl2uG2&cache31456=31456&page=666","next_page_url":null,"path":"https://videocdn.tv/api/short","per_page":100,"prev_page_url":"https://videocdn.tv/api/short?limit=100&api_token=6Onb1W1alEUrBcKJZD3GoKBbWyAl2uG2&cache31456=31456&page=1455","to":145520,"total":66517}