{"result":true,"data":[{"id":51255,"title":"Шваль","kp_id":null,"imdb_id":"tt10351040","world_art_id":null,"type":"movie","add":"2021-06-17 08:59:17","orig_title":"Trash","year":"2019-05-01","translations":["Любительский (многоголосый закадровый) (Синема УС)"],"quality":"webdl","translation":"Любительский (многоголосый закадровый) (Синема УС)","update":"2021-06-18 08:45:50","iframe_src":"//5091.svetacdn.in/IAF0wWTdNYZm/movie/51255"},{"id":51253,"title":"Всего лишь сон","kp_id":"1240506","imdb_id":"tt8778296","world_art_id":null,"type":"movie","add":"2021-06-17 08:55:10","orig_title":"Just Another Dream","year":"2021-06-15","translations":["Любительский (многоголосый закадровый) (Синема УС)"],"quality":"webdl","translation":"Любительский (многоголосый закадровый) (Синема УС)","update":"2021-06-18 08:43:17","iframe_src":"//5091.svetacdn.in/IAF0wWTdNYZm/movie/51253"},{"id":51252,"title":"Непростая любовь","kp_id":"1232261","imdb_id":"tt9630868","world_art_id":null,"type":"movie","add":"2021-06-17 08:52:22","orig_title":"No Ordinary Love","year":"2019-05-19","translations":["Любительский (многоголосый закадровый) (Синема УС)"],"quality":"webdl","translation":"Любительский (многоголосый закадровый) (Синема УС)","update":"2021-06-18 08:45:26","iframe_src":"//5091.svetacdn.in/IAF0wWTdNYZm/movie/51252"},{"id":51251,"title":"Цена безопасности","kp_id":"1354035","imdb_id":"tt11892916","world_art_id":null,"type":"movie","add":"2021-06-17 08:51:19","orig_title":"Security","year":"2021-06-07","translations":["Любительский (многоголосый закадровый) (@MUZOBOZ@)"],"quality":"webdl","translation":"Любительский (многоголосый закадровый) (@MUZOBOZ@)","update":"2021-06-18 08:44:04","iframe_src":"//5091.svetacdn.in/IAF0wWTdNYZm/movie/51251"},{"id":51250,"title":"Тени и эхо","kp_id":"1390151","imdb_id":"tt11448496","world_art_id":null,"type":"movie","add":"2021-06-17 08:49:48","orig_title":"Shadows and Echoes","year":"2019-04-07","translations":["Любительский (двухголосый закадровый) (Колобок)"],"quality":"webdl","translation":"Любительский (двухголосый закадровый) (Колобок)","update":"2021-06-18 08:44:18","iframe_src":"//5091.svetacdn.in/IAF0wWTdNYZm/movie/51250"},{"id":51249,"title":"Зачем мы дышим","kp_id":"1214711","imdb_id":"tt9290138","world_art_id":null,"type":"movie","add":"2021-06-17 08:48:50","orig_title":"Why We Breathe","year":"2020-12-16","translations":["Любительский (многоголосый закадровый) (Синема УС)"],"quality":"webdl","translation":"Любительский (многоголосый закадровый) (Синема УС)","update":"2021-06-18 08:46:05","iframe_src":"//5091.svetacdn.in/IAF0wWTdNYZm/movie/51249"},{"id":51248,"title":"Демон с того света","kp_id":"1406725","imdb_id":"tt11285882","world_art_id":null,"type":"movie","add":"2021-06-17 08:42:26","orig_title":"Zhi Zun xian sheng","year":"2019-07-01","translations":["Любительский (двухголосый закадровый) (Колобок)"],"quality":"webdl","translation":"Любительский (двухголосый закадровый) (Колобок)","update":"2021-06-18 08:45:14","iframe_src":"//5091.svetacdn.in/IAF0wWTdNYZm/movie/51248"},{"id":51247,"title":"Что-то скрывается в тени","kp_id":null,"imdb_id":"tt14741844","world_art_id":null,"type":"movie","add":"2021-06-17 08:41:00","orig_title":"There's Something in the Shadows","year":"2021-05-31","translations":["Любительский (многоголосый закадровый) (Синема УС)"],"quality":"webdl","translation":"Любительский (многоголосый закадровый) (Синема УС)","update":"2021-06-18 08:45:01","iframe_src":"//5091.svetacdn.in/IAF0wWTdNYZm/movie/51247"},{"id":51246,"title":"Без шума","kp_id":"1060823","imdb_id":"tt6682438","world_art_id":null,"type":"movie","add":"2021-06-17 08:39:00","orig_title":"Szép csendben","year":"2019-10-13","translations":["Любительский (многоголосый закадровый) (Синема УС)"],"quality":"webdl","translation":"Любительский (многоголосый закадровый) (Синема УС)","update":"2021-06-18 08:44:42","iframe_src":"//5091.svetacdn.in/IAF0wWTdNYZm/movie/51246"},{"id":51245,"title":"Мускулкар","kp_id":null,"imdb_id":"tt7680690","world_art_id":null,"type":"movie","add":"2021-06-17 08:37:30","orig_title":"Musclecar","year":"2017-11-01","translations":["Любительский (многоголосый закадровый) (Синема УС)"],"quality":"webdl","translation":"Любительский (многоголосый закадровый) (Синема УС)","update":"2021-06-18 08:43:46","iframe_src":"//5091.svetacdn.in/IAF0wWTdNYZm/movie/51245"},{"id":51244,"title":"Протечка","kp_id":"1393699","imdb_id":"tt9145448","world_art_id":null,"type":"movie","add":"2021-06-17 08:36:06","orig_title":"Leakage","year":"2019-02-14","translations":["Любительский (многоголосый закадровый) (Синема УС)"],"quality":"webdl","translation":"Любительский (многоголосый закадровый) (Синема УС)","update":"2021-06-18 08:43:32","iframe_src":"//5091.svetacdn.in/IAF0wWTdNYZm/movie/51244"},{"id":51243,"title":"В ночь на Хэллуин","kp_id":"1276523","imdb_id":"tt10520218","world_art_id":null,"type":"movie","add":"2021-06-17 08:35:06","orig_title":"Halloween Night","year":"2020-03-13","translations":["Любительский (многоголосый закадровый) (Синема УС)"],"quality":"webdl","translation":"Любительский (многоголосый закадровый) (Синема УС)","update":"2021-06-18 08:42:49","iframe_src":"//5091.svetacdn.in/IAF0wWTdNYZm/movie/51243"},{"id":51242,"title":"Двенадцать баллов","kp_id":"1250797","imdb_id":"tt10066522","world_art_id":null,"type":"movie","add":"2021-06-17 08:32:57","orig_title":"Douze Points","year":"2019-05-19","translations":["Любительский (многоголосый закадровый) (Синема УС)"],"quality":"webdl","translation":"Любительский (многоголосый закадровый) (Синема УС)","update":"2021-06-18 08:42:04","iframe_src":"//5091.svetacdn.in/IAF0wWTdNYZm/movie/51242"},{"id":51241,"title":"Предчувствие","kp_id":null,"imdb_id":"tt11612158","world_art_id":null,"type":"movie","add":"2021-06-17 08:31:43","orig_title":"Anticipation","year":"2019-08-11","translations":["Любительский (многоголосый закадровый) (Синема УС)"],"quality":"webdl","translation":"Любительский (многоголосый закадровый) (Синема УС)","update":"2021-06-18 08:41:43","iframe_src":"//5091.svetacdn.in/IAF0wWTdNYZm/movie/51241"},{"id":51240,"title":"Вибратор Амитивилля","kp_id":"1306831","imdb_id":"tt10384472","world_art_id":null,"type":"movie","add":"2021-06-17 08:30:21","orig_title":"Amityville Vibrator","year":"2020-06-06","translations":["Любительский (многоголосый закадровый) (Синема УС)"],"quality":"webdl","translation":"Любительский (многоголосый закадровый) (Синема УС)","update":"2021-06-18 08:41:23","iframe_src":"//5091.svetacdn.in/IAF0wWTdNYZm/movie/51240"},{"id":51239,"title":"Вампир Амитивилля","kp_id":"1237362","imdb_id":"tt9723642","world_art_id":null,"type":"movie","add":"2021-06-17 08:28:51","orig_title":"Amityville Vampire","year":"2021-05-24","translations":["Любительский (многоголосый закадровый) (Синема УС)"],"quality":"webdl","translation":"Любительский (многоголосый закадровый) (Синема УС)","update":"2021-06-18 08:36:30","iframe_src":"//5091.svetacdn.in/IAF0wWTdNYZm/movie/51239"},{"id":51232,"title":"Тёмная звезда","kp_id":"31729","imdb_id":"tt0069945","world_art_id":null,"type":"movie","add":"2021-06-16 12:23:08","orig_title":"Dark Star","year":"1975-01-16","translations":["Original (English)","Любительский (одноголосый закадровый)","Профессиональный (двухголосый закадровый)","Авторский (одноголосый закадровый) (Визгунов Сергей)"],"quality":"bd","translation":"Original (English)","update":"2021-06-18 13:14:10","iframe_src":"//5091.svetacdn.in/IAF0wWTdNYZm/movie/51232"},{"id":8616,"title":"YOLO: Кристальная фантазия","kp_id":"1371086","imdb_id":"tt12058366","world_art_id":null,"type":"serial","add":"2020-09-04 05:34:38","orig_title":"YOLO: Crystal Fantasy","year":"2020-03-31","translations":["Любительский (многоголосый закадровый) (ColdFilm)"],"seasons_count":1,"episodes_count":8,"episodes":8,"update":"2020-09-04 11:46:34","iframe_src":"//5091.svetacdn.in/IAF0wWTdNYZm/tv-series/8616"},{"id":8615,"title":"Захер. История соблазна","kp_id":"1007067","imdb_id":"tt5672212","world_art_id":null,"type":"serial","add":"2020-09-03 20:20:09","orig_title":"Das Sacher. In bester Gesellschaft","year":"2016-12-27","translations":["Любительский (многоголосый закадровый) (WestFilm)"],"seasons_count":1,"episodes_count":6,"episodes":6,"update":"2020-09-04 11:48:44","iframe_src":"//5091.svetacdn.in/IAF0wWTdNYZm/tv-series/8615"},{"id":8609,"title":"Джонго","kp_id":null,"imdb_id":"tt5432734","world_art_id":null,"type":"serial","add":"2020-09-02 19:31:13","orig_title":"Jongo","year":"2016-02-15","translations":["Любительский (многоголосый закадровый) (WestFilm)"],"seasons_count":1,"episodes_count":16,"episodes":16,"update":"2020-09-03 04:55:45","iframe_src":"//5091.svetacdn.in/IAF0wWTdNYZm/tv-series/8609"},{"id":8605,"title":"Убийство в пригороде","kp_id":"654963","imdb_id":"tt0396997","world_art_id":null,"type":"serial","add":"2020-09-02 10:58:35","orig_title":"Murder in Suburbia","year":"2004-03-13","translations":["Любительский (многоголосый закадровый) (WestFilm)"],"seasons_count":2,"episodes_count":12,"episodes":6,"update":"2020-09-04 05:27:07","iframe_src":"//5091.svetacdn.in/IAF0wWTdNYZm/tv-series/8605"},{"id":8604,"title":"Лживая весна","kp_id":"817740","imdb_id":"tt2091214","world_art_id":null,"type":"serial","add":"2020-09-02 10:09:54","orig_title":"Yalanci Bahar","year":"2011-09-05","translations":["Любительский (двухголосый закадровый)"],"seasons_count":1,"episodes_count":9,"episodes":9,"update":"2020-09-03 20:07:02","iframe_src":"//5091.svetacdn.in/IAF0wWTdNYZm/tv-series/8604"},{"id":8603,"title":"В плену страсти","kp_id":"271713","imdb_id":"tt0405589","world_art_id":null,"type":"serial","add":"2020-09-02 07:27:31","orig_title":"Prisionera","year":"2004-03-04","translations":["Профессиональный (многоголосый закадровый)"],"seasons_count":1,"episodes_count":180,"episodes":180,"update":"2020-09-04 07:43:24","iframe_src":"//5091.svetacdn.in/IAF0wWTdNYZm/tv-series/8603"},{"id":8575,"title":"Незабытая","kp_id":"1402757","imdb_id":null,"world_art_id":null,"type":"serial","add":"2020-08-30 08:32:52","orig_title":"Незабытая","year":"2020-08-30","translations":["Оригинальная дорожка"],"seasons_count":1,"episodes_count":4,"episodes":4,"update":"2020-09-03 14:15:21","iframe_src":"//5091.svetacdn.in/IAF0wWTdNYZm/tv-series/8575"},{"id":8560,"title":"И вот возникла жизнь","kp_id":"408572","imdb_id":"tt0284735","world_art_id":null,"type":"serial","add":"2020-08-28 13:48:54","orig_title":"Il était une fois... la vie","year":"1987-09-13","translations":["Полное дублирование (Лексикон)"],"seasons_count":1,"episodes_count":26,"episodes":26,"update":"2020-09-04 08:52:59","iframe_src":"//5091.svetacdn.in/IAF0wWTdNYZm/tv-series/8560"},{"id":8528,"title":"Ведьмы","kp_id":null,"imdb_id":"tt12803682","world_art_id":null,"type":"serial","add":"2020-08-25 03:11:05","orig_title":"Churails","year":"2020-08-11","translations":["Любительский (многоголосый закадровый) (Octopus)"],"seasons_count":1,"episodes_count":10,"episodes":10,"update":"2020-09-02 19:09:43","iframe_src":"//5091.svetacdn.in/IAF0wWTdNYZm/tv-series/8528"},{"id":8306,"title":"Последний агент УБН","kp_id":"1388380","imdb_id":"tt12163674","world_art_id":null,"type":"serial","add":"2020-08-01 09:01:41","orig_title":"The Last Narc","year":"2020-07-31","translations":["Профессиональный (двухголосый закадровый) (IdeaFilm)","Профессиональный (многоголосый закадровый) (HDrezka Studio)","Любительский (многоголосый закадровый) (ColdFilm)","Любительский (многоголосый закадровый) (WestFilm)"],"seasons_count":1,"episodes_count":4,"episodes":4,"update":"2020-09-03 05:15:35","iframe_src":"//5091.svetacdn.in/IAF0wWTdNYZm/tv-series/8306"},{"id":8215,"title":"Думаю вам стоит уйти с Тимом Робинсоном","kp_id":"1254442","imdb_id":"tt10050772","world_art_id":null,"type":"serial","add":"2020-07-20 13:07:31","orig_title":"I Think You Should Leave with Tim Robinson","year":"2019-04-23","translations":["Профессиональный (многоголосый закадровый) (HDrezka Studio)","Профессиональный (двухголосый закадровый) (ViruseProject)"],"seasons_count":1,"episodes_count":6,"episodes":6,"update":"2020-09-03 11:48:34","iframe_src":"//5091.svetacdn.in/IAF0wWTdNYZm/tv-series/8215"},{"id":8080,"title":"Проклятие: Начало","kp_id":"1354759","imdb_id":"tt12313914","world_art_id":null,"type":"serial","add":"2020-07-03 09:52:09","orig_title":"Ju-on: Origins","year":"2020-07-03","translations":["Любительский (многоголосый закадровый) (ColdFilm)","Любительский (многоголосый закадровый) (Octopus)","Профессиональный (многоголосый закадровый) (BaibaKo)","Профессиональный (многоголосый закадровый) (OMSKBIRD records)","Профессиональный (двухголосый закадровый) (IdeaFilm)","Любительский (многоголосый закадровый) (KerobTV)","Любительский (многоголосый закадровый) (WestFilm)"],"seasons_count":1,"episodes_count":6,"episodes":6,"update":"2020-09-03 20:22:22","iframe_src":"//5091.svetacdn.in/IAF0wWTdNYZm/tv-series/8080"},{"id":6624,"title":"Искусство преступления","kp_id":"1113109","imdb_id":"tt6190050","world_art_id":null,"type":"serial","add":"2020-02-12 15:54:56","orig_title":"L'art du crime","year":"2017-09-14","translations":["Любительский (многоголосый закадровый) (WestFilm)","Любительский (многоголосый закадровый) (GreenРай Studio)"],"seasons_count":3,"episodes_count":16,"episodes":4,"update":"2020-09-04 03:53:56","iframe_src":"//5091.svetacdn.in/IAF0wWTdNYZm/tv-series/6624"},{"id":5160,"title":"Грязные деньги","kp_id":"1112417","imdb_id":"tt7889220","world_art_id":null,"type":"serial","add":"2019-09-07 07:04:19","orig_title":"Dirty Money","year":"2018-01-26","translations":["Любительский (одноголосый закадровый) (Jimmy J.)","Профессиональный (многоголосый закадровый) (HDrezka Studio)","Любительский (многоголосый закадровый) (WestFilm)"],"seasons_count":2,"episodes_count":12,"episodes":6,"update":"2020-09-03 14:05:55","iframe_src":"//5091.svetacdn.in/IAF0wWTdNYZm/tv-series/5160"},{"id":3749,"title":"Диаблеро","kp_id":"1148801","imdb_id":"tt7414954","world_art_id":null,"type":"serial","add":"2018-12-23 21:39:57","orig_title":"Diablero","year":"2018-12-21","translations":["Любительский (двухголосый закадровый) (Sunshine Studio)","Профессиональный (многоголосый закадровый) (HDrezka Studio)","Профессиональный (многоголосый закадровый) (TVShows)","Профессиональный (двухголосый закадровый) (Gears Media)","Любительский (многоголосый закадровый) (Octopus)","Любительский (многоголосый закадровый) (WestFilm)"],"seasons_count":2,"episodes_count":14,"episodes":6,"update":"2020-09-04 12:40:14","iframe_src":"//5091.svetacdn.in/IAF0wWTdNYZm/tv-series/3749"},{"id":3745,"title":"Прорвёмся","kp_id":"1043837","imdb_id":"tt6824234","world_art_id":null,"type":"serial","add":"2018-12-21 00:54:13","orig_title":"Ssam, Maiwei","year":"2017-05-22","translations":["Любительский (двухголосый закадровый) (SoftBox)","Любительский (двухголосый закадровый) (GREEN TEA)","Профессиональный (многоголосый закадровый) (Мобильное телевидение)"],"seasons_count":1,"episodes_count":16,"episodes":16,"update":"2020-09-03 07:34:30","iframe_src":"//5091.svetacdn.in/IAF0wWTdNYZm/tv-series/3745"},{"id":3293,"title":"Гари и его демоны","kp_id":"1145673","imdb_id":"tt8421152","world_art_id":null,"type":"serial","add":"2018-10-14 08:27:15","orig_title":"Gary and his Demons","year":"2018-04-15","translations":["Любительский (одноголосый закадровый) (Т.О Друзей)","Любительский (двухголосый закадровый) (NewStation)","Профессиональный (многоголосый закадровый) (HDrezka Studio)","Профессиональный (многоголосый закадровый) (2x2)"],"seasons_count":1,"episodes_count":16,"episodes":16,"update":"2020-09-03 11:32:53","iframe_src":"//5091.svetacdn.in/IAF0wWTdNYZm/tv-series/3293"},{"id":13804,"title":"Сканер-полицейский 2","kp_id":"4633","imdb_id":"tt0114344","world_art_id":null,"type":"movie","add":"2017-10-10 07:47:15","orig_title":"Scanner Cop II","year":"1995-01-25","translations":["Профессиональный (многоголосый закадровый)","Профессиональный (многоголосый закадровый)","Авторский (одноголосый закадровый) (Карцев Пётр)","Original (English)","Профессиональный (двухголосый закадровый) (РенТВ)"],"quality":"dvdrip","translation":"Профессиональный (многоголосый закадровый)","update":"2021-06-18 12:31:46","iframe_src":"//5091.svetacdn.in/IAF0wWTdNYZm/movie/13804"},{"id":1593,"title":"В лесах и на горах","kp_id":"475000","imdb_id":"tt2572826","world_art_id":null,"type":"serial","add":"2017-10-02 15:14:33","orig_title":"V lesakh i na gorakh","year":"2010-09-13","translations":["Оригинальная дорожка"],"seasons_count":1,"episodes_count":24,"episodes":24,"update":"2020-09-04 07:58:41","iframe_src":"//5091.svetacdn.in/IAF0wWTdNYZm/tv-series/1593"},{"id":992,"title":"Легион","kp_id":"939002","imdb_id":"tt5114356","world_art_id":null,"type":"serial","add":"2017-02-11 17:20:07","orig_title":"Legion","year":"2017-02-09","translations":["Профессиональный (многоголосый закадровый) (Кравец)","Профессиональный (многоголосый закадровый) (LostFilm)","Профессиональный (многоголосый закадровый) (HDrezka Studio)","Профессиональный (многоголосый закадровый) (FOX)","Профессиональный (многоголосый закадровый) (Jaskier)","Профессиональный (многоголосый закадровый) (NewStudio)","Профессиональный (многоголосый закадровый) (TVShows)","Профессиональный (двухголосый закадровый) (Кубик в Кубе)","Профессиональный (многоголосый закадровый) (Good People)","Профессиональный (многоголосый закадровый) (Profix Media)","Профессиональный (многоголосый закадровый) (AMS)","Профессиональный (двухголосый закадровый) (Gears Media)"],"seasons_count":3,"episodes_count":27,"episodes":8,"update":"2020-09-03 20:02:53","iframe_src":"//5091.svetacdn.in/IAF0wWTdNYZm/tv-series/992"},{"id":557,"title":"Рита","kp_id":"742763","imdb_id":"tt1973692","world_art_id":null,"type":"serial","add":"2016-10-26 05:37:19","orig_title":"Rita","year":"2012-02-09","translations":["Любительский (двухголосый закадровый) (Jimmy J.)","Любительский (многоголосый закадровый) (Octopus)","Любительский (многоголосый закадровый) (ColdFilm)"],"seasons_count":5,"episodes_count":40,"episodes":8,"update":"2020-09-03 13:58:28","iframe_src":"//5091.svetacdn.in/IAF0wWTdNYZm/tv-series/557"},{"id":3176,"title":"Чужие среди нас","kp_id":"12340","imdb_id":"tt0096256","world_art_id":null,"type":"movie","add":"2016-06-16 07:05:48","orig_title":"They Live","year":"1988-11-04","translations":["Профессиональный (многоголосый закадровый)","Авторский (одноголосый закадровый) (Котов Вячеслав)","Авторский (одноголосый закадровый) (Дохалов Вартан)","Авторский (одноголосый закадровый) (Горчаков Василий)","Авторский (одноголосый закадровый) (Живов Юрий)","Профессиональный (многоголосый закадровый) (CP Digital)","Original (English)"],"quality":"bd","translation":"Профессиональный (многоголосый закадровый)","update":"2021-06-18 12:33:48","iframe_src":"//5091.svetacdn.in/IAF0wWTdNYZm/movie/3176"},{"id":2962,"title":"Звездный Путь 4: Дорога домой","kp_id":"6527","imdb_id":"tt0092007","world_art_id":null,"type":"movie","add":"2016-06-07 19:52:56","orig_title":"Star Trek IV: The Voyage Home","year":"1986-11-26","translations":["Любительский (одноголосый закадровый)","Профессиональный (многоголосый закадровый) (SDI Media)","Авторский (одноголосый закадровый) (Живов Юрий)","Original (English)"],"quality":"bd","translation":"Любительский (одноголосый закадровый)","update":"2021-06-18 08:03:21","iframe_src":"//5091.svetacdn.in/IAF0wWTdNYZm/movie/2962"}],"current_page":205,"first_page_url":"https://videocdn.tv/api/short?limit=100&api_token=6Onb1W1alEUrBcKJZD3GoKBbWyAl2uG2&cache3205=3205&page=1","from":20401,"last_page":666,"last_page_url":"https://videocdn.tv/api/short?limit=100&api_token=6Onb1W1alEUrBcKJZD3GoKBbWyAl2uG2&cache3205=3205&page=666","next_page_url":"https://videocdn.tv/api/short?limit=100&api_token=6Onb1W1alEUrBcKJZD3GoKBbWyAl2uG2&cache3205=3205&page=206","path":"https://videocdn.tv/api/short","per_page":100,"prev_page_url":"https://videocdn.tv/api/short?limit=100&api_token=6Onb1W1alEUrBcKJZD3GoKBbWyAl2uG2&cache3205=3205&page=204","to":20440,"total":66579}