{"result":true,"data":[{"id":35702,"title":"Отель романтических свиданий","kp_id":"734287","imdb_id":"tt2644800","world_art_id":null,"type":"movie","add":"2020-01-31 11:59:24","orig_title":"Hôtel Normandy","year":"2013-05-08","translations":["Профессиональный (многоголосый закадровый)"],"quality":"hdrip","translation":"Профессиональный (многоголосый закадровый)","update":"2020-01-31 13:01:31","iframe_src":"//7043.svetacdn.in/si4jsFRrtgrT/movie/35702"},{"id":35689,"title":"Дети Уиндермира","kp_id":"1283093","imdb_id":"tt10370380","world_art_id":null,"type":"movie","add":"2020-01-31 08:00:44","orig_title":"The Windermere Children","year":"2020-01-26","translations":["Любительский (многоголосый закадровый) (Синема УС)"],"quality":"webdl","translation":"Любительский (многоголосый закадровый) (Синема УС)","update":"2020-01-31 12:46:55","iframe_src":"//7043.svetacdn.in/si4jsFRrtgrT/movie/35689"},{"id":35688,"title":"Давно потерянная сестра","kp_id":"1270212","imdb_id":"tt10378926","world_art_id":null,"type":"movie","add":"2020-01-31 07:58:52","orig_title":"Long Lost Sister","year":"2020-01-17","translations":["Любительский (многоголосый закадровый) (Синема УС)"],"quality":"hdtv","translation":"Любительский (многоголосый закадровый) (Синема УС)","update":"2020-01-31 12:47:43","iframe_src":"//7043.svetacdn.in/si4jsFRrtgrT/movie/35688"},{"id":35687,"title":"Пригородное убийство","kp_id":"1172912","imdb_id":"tt8564600","world_art_id":null,"type":"movie","add":"2020-01-31 07:57:17","orig_title":"Secrets at the Lake","year":"2019-08-27","translations":["Любительский (многоголосый закадровый) (AlphaProject)"],"quality":"hdtv","translation":"Любительский (многоголосый закадровый) (AlphaProject)","update":"2020-01-31 12:46:31","iframe_src":"//7043.svetacdn.in/si4jsFRrtgrT/movie/35687"},{"id":35686,"title":"Лысый","kp_id":"1220976","imdb_id":"tt9420648","world_art_id":null,"type":"movie","add":"2020-01-31 07:54:10","orig_title":"Bala","year":"2019-11-07","translations":["Любительский (многоголосый закадровый) (Синема УС)"],"quality":"webdl","translation":"Любительский (многоголосый закадровый) (Синема УС)","update":"2020-01-31 12:47:15","iframe_src":"//7043.svetacdn.in/si4jsFRrtgrT/movie/35686"},{"id":35678,"title":"МакКаник","kp_id":"693978","imdb_id":"tt2295564","world_art_id":null,"type":"movie","add":"2020-01-30 21:54:13","orig_title":"McCanick","year":"2013-09-09","translations":["Любительский (одноголосый закадровый)"],"quality":"hdrip","translation":"Любительский (одноголосый закадровый)","update":"2020-01-31 12:54:58","iframe_src":"//7043.svetacdn.in/si4jsFRrtgrT/movie/35678"},{"id":35677,"title":"Маруся","kp_id":"637982","imdb_id":"tt1906422","world_art_id":null,"type":"movie","add":"2020-01-30 21:52:47","orig_title":"Marussia","year":"2013-02-10","translations":["Профессиональный (многоголосый закадровый)"],"quality":"hdtv","translation":"Профессиональный (многоголосый закадровый)","update":"2020-01-31 13:00:23","iframe_src":"//7043.svetacdn.in/si4jsFRrtgrT/movie/35677"},{"id":35666,"title":"Неприкаянная серебряная бабочка 2: Рисковый игрок","kp_id":"402723","imdb_id":"tt0978601","world_art_id":null,"type":"movie","add":"2020-01-30 20:59:25","orig_title":"Gincho nagaremono mesuneko bakuchi","year":"1972-10-25","translations":["Любительский (одноголосый закадровый) (neko64)"],"quality":"dvdrip","translation":"Любительский (одноголосый закадровый) (neko64)","update":"2020-01-31 13:17:11","iframe_src":"//7043.svetacdn.in/si4jsFRrtgrT/movie/35666"},{"id":35664,"title":"Ассоциация","kp_id":"37181","imdb_id":"tt0072423","world_art_id":null,"type":"movie","add":"2020-01-30 20:54:47","orig_title":"Yan ku shen tan","year":"1974-11-21","translations":["Любительский (одноголосый закадровый)"],"quality":"dvdrip","translation":"Любительский (одноголосый закадровый)","update":"2020-01-31 13:13:16","iframe_src":"//7043.svetacdn.in/si4jsFRrtgrT/movie/35664"},{"id":35663,"title":"Уведомление о преступлении","kp_id":"843862","imdb_id":"tt3952226","world_art_id":null,"type":"movie","add":"2020-01-30 20:47:55","orig_title":"Yokokuhan","year":"2015-06-06","translations":["Любительский (многоголосый закадровый)"],"quality":"bd","translation":"Любительский (многоголосый закадровый)","update":"2020-01-31 13:08:30","iframe_src":"//7043.svetacdn.in/si4jsFRrtgrT/movie/35663"},{"id":35648,"title":"Империя убийц","kp_id":"585152","imdb_id":"tt1730720","world_art_id":null,"type":"movie","add":"2020-01-30 11:08:44","orig_title":"Empire of Assassins","year":"2011-07-05","translations":["Любительский (одноголосый закадровый) (Береговых Виктор | Jet)"],"quality":"dvdrip","translation":"Любительский (одноголосый закадровый) (Береговых Виктор | Jet)","update":"2020-01-31 13:04:10","iframe_src":"//7043.svetacdn.in/si4jsFRrtgrT/movie/35648"},{"id":35646,"title":"Лимон со сливками","kp_id":"395277","imdb_id":"tt0472840","world_art_id":null,"type":"movie","add":"2020-01-30 10:58:17","orig_title":"Kurîmu remon","year":"2004-09-25","translations":["Любительский (одноголосый закадровый) (Воротилин Олег)"],"quality":"dvdrip","translation":"Любительский (одноголосый закадровый) (Воротилин Олег)","update":"2020-01-31 12:53:52","iframe_src":"//7043.svetacdn.in/si4jsFRrtgrT/movie/35646"},{"id":35645,"title":"Молния кунг-фу","kp_id":"198672","imdb_id":"tt0083313","world_art_id":null,"type":"movie","add":"2020-01-30 10:56:08","orig_title":"Wan ren zan","year":"1980-03-28","translations":["Авторский (одноголосый закадровый) (Дольский Андрей)"],"quality":"bd","translation":"Авторский (одноголосый закадровый) (Дольский Андрей)","update":"2020-01-31 12:53:08","iframe_src":"//7043.svetacdn.in/si4jsFRrtgrT/movie/35645"},{"id":35644,"title":"Ниндзя: Последняя дуэль","kp_id":"64284","imdb_id":"tt0091636","world_art_id":null,"type":"movie","add":"2020-01-30 10:53:44","orig_title":"Ren zhe da","year":"1986-01-01","translations":["Авторский (одноголосый закадровый) (Кузнецов Сергей)"],"quality":"dvdrip","translation":"Авторский (одноголосый закадровый) (Кузнецов Сергей)","update":"2020-01-31 12:52:05","iframe_src":"//7043.svetacdn.in/si4jsFRrtgrT/movie/35644"},{"id":35643,"title":"Орёл тихого океана","kp_id":"90655","imdb_id":"tt0046395","world_art_id":null,"type":"movie","add":"2020-01-30 07:42:54","orig_title":"Taiheiyô no washi","year":"1953-10-21","translations":["Авторский (одноголосый закадровый) (Рутилов Виктор | fiendover)"],"quality":"dvdrip","translation":"Авторский (одноголосый закадровый) (Рутилов Виктор | fiendover)","update":"2020-01-31 12:49:55","iframe_src":"//7043.svetacdn.in/si4jsFRrtgrT/movie/35643"},{"id":35641,"title":"В крови","kp_id":"36959","imdb_id":"tt0093956","world_art_id":null,"type":"movie","add":"2020-01-30 07:38:09","orig_title":"Shen tan fu zi bing","year":"1988-07-22","translations":["Любительский (одноголосый закадровый)"],"quality":"vhs","translation":"Любительский (одноголосый закадровый)","update":"2020-01-31 12:49:25","iframe_src":"//7043.svetacdn.in/si4jsFRrtgrT/movie/35641"},{"id":35640,"title":"Истории ужаса из Токио","kp_id":"998507","imdb_id":"tt5984586","world_art_id":null,"type":"movie","add":"2020-01-30 07:35:39","orig_title":"Honto ni Atta Kowai Hanashi Summer Special 2016","year":"2016-08-20","translations":["Любительский (одноголосый закадровый)"],"quality":"hdtv","translation":"Любительский (одноголосый закадровый)","update":"2020-01-31 12:47:58","iframe_src":"//7043.svetacdn.in/si4jsFRrtgrT/movie/35640"},{"id":35639,"title":"Триады: Логово мафии","kp_id":"36524","imdb_id":"tt0109428","world_art_id":null,"type":"movie","add":"2020-01-30 07:32:21","orig_title":"Chung ngon sat luk: O gei","year":"1994-01-07","translations":["Авторский (одноголосый закадровый) (Живов Юрий)"],"quality":"dvdrip","translation":"Авторский (одноголосый закадровый) (Живов Юрий)","update":"2020-01-31 11:53:15","iframe_src":"//7043.svetacdn.in/si4jsFRrtgrT/movie/35639"},{"id":35638,"title":"Женщина вне закона: Убийственная мелодия","kp_id":"110887","imdb_id":"tt0451984","world_art_id":null,"type":"movie","add":"2020-01-30 07:28:07","orig_title":"Zenka onna: Koroshi-bushi","year":"1973-10-27","translations":["Любительский (одноголосый закадровый)"],"quality":"dvdrip","translation":"Любительский (одноголосый закадровый)","update":"2020-01-31 11:52:14","iframe_src":"//7043.svetacdn.in/si4jsFRrtgrT/movie/35638"},{"id":33537,"title":"Хороший лжец","kp_id":"1115125","imdb_id":"tt5563334","world_art_id":null,"type":"movie","add":"2019-11-29 07:59:11","orig_title":"The Good Liar","year":"2019-11-08","translations":["Полное дублирование (iTunes)","Original (English)"],"quality":"bd","translation":"Полное дублирование (iTunes)","update":"2020-01-31 12:48:02","iframe_src":"//7043.svetacdn.in/si4jsFRrtgrT/movie/33537"}],"current_page":854,"first_page_url":"https://videocdn.tv/api/short?limit=100&api_token=X6EwAUfE5M9xbo7y0Bp0aPf3uXxG2KLL&cache3854=3854&page=1","from":85301,"last_page":614,"last_page_url":"https://videocdn.tv/api/short?limit=100&api_token=X6EwAUfE5M9xbo7y0Bp0aPf3uXxG2KLL&cache3854=3854&page=614","next_page_url":null,"path":"https://videocdn.tv/api/short","per_page":100,"prev_page_url":"https://videocdn.tv/api/short?limit=100&api_token=X6EwAUfE5M9xbo7y0Bp0aPf3uXxG2KLL&cache3854=3854&page=853","to":85320,"total":61324}