{"result":true,"data":[{"id":16074,"title":"Граф Монтенегро","kp_id":"271793","imdb_id":"tt0887742","world_art_id":null,"type":"movie","add":"2018-04-05 00:48:40","orig_title":"Graf Montenegro","year":"2006-03-30","translations":["Оригинальная дорожка"],"quality":"hddvd","translation":"Оригинальная дорожка","update":"2018-04-05 07:36:59","iframe_src":"//7720.svetacdn.in/71tsRs29n5tZ/movie/16074"},{"id":16070,"title":"Россия 88","kp_id":"445042","imdb_id":"tt1362118","world_art_id":null,"type":"movie","add":"2018-04-05 00:33:54","orig_title":"Russia 88","year":"2009-02-06","translations":["Оригинальная дорожка"],"quality":"bd","translation":"Оригинальная дорожка","update":"2018-04-05 07:39:04","iframe_src":"//7720.svetacdn.in/71tsRs29n5tZ/movie/16070"},{"id":16069,"title":"Перегон","kp_id":"86203","imdb_id":"tt0416111","world_art_id":null,"type":"movie","add":"2018-04-04 23:44:49","orig_title":"Peregon","year":"2006-07-06","translations":["Оригинальная дорожка"],"quality":"bd","translation":"Оригинальная дорожка","update":"2018-04-05 07:40:04","iframe_src":"//7720.svetacdn.in/71tsRs29n5tZ/movie/16069"},{"id":16068,"title":"Любовная фобия","kp_id":"261521","imdb_id":"tt0777837","world_art_id":null,"type":"movie","add":"2018-04-04 23:42:59","orig_title":"Domabaem","year":"2006-04-05","translations":["Любительский (двухголосый закадровый) (RealFake)"],"quality":"dvdrip","translation":"Любительский (двухголосый закадровый) (RealFake)","update":"2018-04-05 07:41:05","iframe_src":"//7720.svetacdn.in/71tsRs29n5tZ/movie/16068"},{"id":16066,"title":"Багровый цвет снегопада","kp_id":"424012","imdb_id":"tt2235208","world_art_id":null,"type":"movie","add":"2018-04-04 23:35:07","orig_title":"Bagrovyy tsvet snegopada","year":"2008-09-11","translations":["Оригинальная дорожка"],"quality":"bd","translation":"Оригинальная дорожка","update":"2018-04-05 07:48:17","iframe_src":"//7720.svetacdn.in/71tsRs29n5tZ/movie/16066"},{"id":16064,"title":"Червонный","kp_id":"1043756","imdb_id":"tt5591786","world_art_id":null,"type":"movie","add":"2018-04-04 21:26:34","orig_title":"Chervonyy","year":"2017-08-24","translations":["Оригинальная дорожка"],"quality":"webdl","translation":"Оригинальная дорожка","update":"2018-04-05 06:42:07","iframe_src":"//7720.svetacdn.in/71tsRs29n5tZ/movie/16064"},{"id":16063,"title":"Жажда","kp_id":"52765","imdb_id":"tt0080016","world_art_id":null,"type":"movie","add":"2018-04-04 21:19:50","orig_title":"Thirst","year":"1979-09-28","translations":["Профессиональный (многоголосый закадровый)"],"quality":"bd","translation":"Профессиональный (многоголосый закадровый)","update":"2018-04-05 07:49:31","iframe_src":"//7720.svetacdn.in/71tsRs29n5tZ/movie/16063"},{"id":16061,"title":"Возмездие","kp_id":"852899","imdb_id":"tt3548276","world_art_id":null,"type":"movie","add":"2018-04-04 21:12:29","orig_title":"Retribution","year":"2016-03-05","translations":["Любительский (многоголосый закадровый) (AlphaProject)"],"quality":"webdl","translation":"Любительский (многоголосый закадровый) (AlphaProject)","update":"2018-04-05 06:48:52","iframe_src":"//7720.svetacdn.in/71tsRs29n5tZ/movie/16061"},{"id":16059,"title":"Наизнанку","kp_id":"1048213","imdb_id":"tt7260048","world_art_id":null,"type":"movie","add":"2018-04-04 21:05:38","orig_title":"Outside In","year":"2017-09-08","translations":["Любительский (многоголосый закадровый) (Синема УС)"],"quality":"webdl","translation":"Любительский (многоголосый закадровый) (Синема УС)","update":"2018-04-05 06:50:22","iframe_src":"//7720.svetacdn.in/71tsRs29n5tZ/movie/16059"},{"id":16056,"title":"Оно пришло из пустыни","kp_id":"883585","imdb_id":"tt4288674","world_art_id":null,"type":"movie","add":"2018-04-04 20:56:46","orig_title":"It Came from the Desert","year":"2017-09-15","translations":["Любительский (многоголосый закадровый) (Синема УС)"],"quality":"bd","translation":"Любительский (многоголосый закадровый) (Синема УС)","update":"2018-04-05 06:51:55","iframe_src":"//7720.svetacdn.in/71tsRs29n5tZ/movie/16056"},{"id":16055,"title":"Одиночество, секс и жалость","kp_id":"930340","imdb_id":"tt4217878","world_art_id":null,"type":"movie","add":"2018-04-04 20:53:03","orig_title":"Einsamkeit und Sex und Mitleid","year":"2017-02-17","translations":["Профессиональный (многоголосый закадровый) (GreenРай Studio)"],"quality":"webdl","translation":"Профессиональный (многоголосый закадровый) (GreenРай Studio)","update":"2018-04-05 06:54:49","iframe_src":"//7720.svetacdn.in/71tsRs29n5tZ/movie/16055"},{"id":16054,"title":"Цвет игры","kp_id":"1045938","imdb_id":"tt7240562","world_art_id":null,"type":"movie","add":"2018-04-04 20:45:12","orig_title":"Hei bai mi gong","year":"2017-08-31","translations":["Любительский (многоголосый закадровый) (Колобок)"],"quality":"webdl","translation":"Любительский (многоголосый закадровый) (Колобок)","update":"2018-04-05 10:26:15","iframe_src":"//7720.svetacdn.in/71tsRs29n5tZ/movie/16054"},{"id":16053,"title":"Бабс","kp_id":"1023072","imdb_id":"tt6217830","world_art_id":null,"type":"movie","add":"2018-04-04 20:39:00","orig_title":"Babs","year":"2017-09-21","translations":["Любительский (многоголосый закадровый) (AlphaProject)"],"quality":"webdl","translation":"Любительский (многоголосый закадровый) (AlphaProject)","update":"2018-04-05 07:17:36","iframe_src":"//7720.svetacdn.in/71tsRs29n5tZ/movie/16053"},{"id":13904,"title":"Тот, кого ждали","kp_id":"977782","imdb_id":"tt5717484","world_art_id":null,"type":"movie","add":"2017-10-19 22:09:39","orig_title":"Celui qu'on attendait","year":"2016-06-08","translations":["Любительский (многоголосый закадровый) (Синема УС)","Профессиональный (многоголосый закадровый) (GreenРай Studio)"],"quality":"hdtv","translation":"Любительский (многоголосый закадровый) (Синема УС)","update":"2018-04-05 07:50:36","iframe_src":"//7720.svetacdn.in/71tsRs29n5tZ/movie/13904"},{"id":13055,"title":"6 дней","kp_id":"914052","imdb_id":"tt4703048","world_art_id":null,"type":"movie","add":"2017-08-20 19:33:06","orig_title":"6 Days","year":"2017-08-04","translations":["Любительский (многоголосый закадровый) (Синема УС)","Любительский (многоголосый закадровый)","Профессиональный (многоголосый закадровый) (iTunes)"],"quality":"bd","translation":"Любительский (многоголосый закадровый) (Синема УС)","update":"2018-04-05 06:39:59","iframe_src":"//7720.svetacdn.in/71tsRs29n5tZ/movie/13055"},{"id":9133,"title":"Точка невозврата","kp_id":"778751","imdb_id":"tt3027716","world_art_id":null,"type":"movie","add":"2017-01-24 04:34:18","orig_title":"Crossing Point","year":"2016-05-03","translations":["Любительский (многоголосый закадровый) (Parovoz Production)","Профессиональный (многоголосый закадровый) (GreenРай Studio)"],"quality":"webdl","translation":"Любительский (многоголосый закадровый) (Parovoz Production)","update":"2018-04-05 07:25:19","iframe_src":"//7720.svetacdn.in/71tsRs29n5tZ/movie/9133"},{"id":8961,"title":"Земля дураков","kp_id":"970619","imdb_id":"tt5574372","world_art_id":null,"type":"movie","add":"2017-01-17 06:17:54","orig_title":"Nerdland","year":"2016-04-14","translations":["Любительский (двухголосый закадровый) (Sunshine Studio)","Профессиональный (многоголосый закадровый) (GreenРай Studio)"],"quality":"webdl","translation":"Любительский (двухголосый закадровый) (Sunshine Studio)","update":"2018-04-05 07:28:24","iframe_src":"//7720.svetacdn.in/71tsRs29n5tZ/movie/8961"},{"id":6173,"title":"Пиковая дама: Черный обряд","kp_id":"880665","imdb_id":"tt4901756","world_art_id":null,"type":"movie","add":"2016-10-11 09:54:16","orig_title":"Pikovaya dama. Chyornyy obryad","year":"2015-10-28","translations":["Оригинальная дорожка"],"quality":"bd","translation":"Оригинальная дорожка","update":"2018-04-05 07:35:38","iframe_src":"//7720.svetacdn.in/71tsRs29n5tZ/movie/6173"},{"id":5781,"title":"Всё о мужчинах","kp_id":"976542","imdb_id":"tt6261136","world_art_id":null,"type":"movie","add":"2016-10-04 05:01:08","orig_title":"Vse o muzhchinakh","year":"2016-09-01","translations":["Оригинальная дорожка"],"quality":"bd","translation":"Оригинальная дорожка","update":"2018-04-05 07:43:00","iframe_src":"//7720.svetacdn.in/71tsRs29n5tZ/movie/5781"},{"id":2559,"title":"Дорога на Берлин","kp_id":"843761","imdb_id":"tt4686604","world_art_id":null,"type":"movie","add":"2016-05-24 20:27:19","orig_title":"Doroga na Berlin","year":"2015-07-31","translations":["Оригинальная дорожка"],"quality":"bd","translation":"Оригинальная дорожка","update":"2018-04-05 07:47:10","iframe_src":"//7720.svetacdn.in/71tsRs29n5tZ/movie/2559"}],"current_page":1990,"first_page_url":"https://videocdn.tv/api/short?limit=100&api_token=EnbO9h8pv1VyjbCJhg0WM9nG259n7mtz&cache31990=31990&page=1","from":198901,"last_page":648,"last_page_url":"https://videocdn.tv/api/short?limit=100&api_token=EnbO9h8pv1VyjbCJhg0WM9nG259n7mtz&cache31990=31990&page=648","next_page_url":null,"path":"https://videocdn.tv/api/short","per_page":100,"prev_page_url":"https://videocdn.tv/api/short?limit=100&api_token=EnbO9h8pv1VyjbCJhg0WM9nG259n7mtz&cache31990=31990&page=1989","to":198920,"total":64730}