{"result":true,"data":[{"id":36750,"title":"Последнее, чего он хотел","kp_id":"1159405","imdb_id":"tt7456312","world_art_id":null,"type":"movie","add":"2020-02-22 10:38:21","orig_title":"The Last Thing He Wanted","year":"2020-01-27","translations":["Полное дублирование (Пифагор)"],"quality":"webdl","translation":"Полное дублирование (Пифагор)","update":"2020-02-22 14:29:43","iframe_src":"//7741.svetacdn.in/si4jsFRrtgrT/movie/36750"},{"id":36748,"title":"Соседские мальчишки","kp_id":"13105","imdb_id":"tt0090770","world_art_id":null,"type":"movie","add":"2020-02-22 05:08:37","orig_title":"The Boys Next Door","year":"1986-03-14","translations":["Полное дублирование"],"quality":"bd","translation":"Полное дублирование","update":"2020-02-22 11:45:03","iframe_src":"//7741.svetacdn.in/si4jsFRrtgrT/movie/36748"},{"id":36741,"title":"Боязнь клоунов","kp_id":"1199903","imdb_id":"tt8516596","world_art_id":null,"type":"movie","add":"2020-02-21 21:00:55","orig_title":"Clown Fear","year":"2020-02-18","translations":["Любительский (многоголосый закадровый) (Синема УС)"],"quality":"webdl","translation":"Любительский (многоголосый закадровый) (Синема УС)","update":"2020-02-21 22:54:48","iframe_src":"//7741.svetacdn.in/si4jsFRrtgrT/movie/36741"},{"id":36740,"title":"Коричневый бумажный пакет","kp_id":"1179593","imdb_id":"tt8755500","world_art_id":null,"type":"movie","add":"2020-02-21 20:58:25","orig_title":"Brown Paper Bag","year":"2020-02-14","translations":["Любительский (многоголосый закадровый) (Синема УС)"],"quality":"webdl","translation":"Любительский (многоголосый закадровый) (Синема УС)","update":"2020-02-21 23:31:42","iframe_src":"//7741.svetacdn.in/si4jsFRrtgrT/movie/36740"},{"id":36727,"title":"Последнее слово","kp_id":"3907","imdb_id":"tt0110313","world_art_id":null,"type":"movie","add":"2020-02-21 20:24:14","orig_title":"The Last Word","year":"1995-08-27","translations":["Авторский (одноголосый закадровый) (Карцев Пётр)"],"quality":"dvdrip","translation":"Авторский (одноголосый закадровый) (Карцев Пётр)","update":"2020-02-21 21:23:33","iframe_src":"//7741.svetacdn.in/si4jsFRrtgrT/movie/36727"},{"id":36726,"title":"Синий сок","kp_id":"18205","imdb_id":"tt0112537","world_art_id":null,"type":"movie","add":"2020-02-21 20:21:46","orig_title":"Blue Juice","year":"1995-09-15","translations":["Профессиональный (многоголосый закадровый)"],"quality":"dvdrip","translation":"Профессиональный (многоголосый закадровый)","update":"2020-02-21 21:24:01","iframe_src":"//7741.svetacdn.in/si4jsFRrtgrT/movie/36726"},{"id":36725,"title":"Принц жемчужного острова","kp_id":"78282","imdb_id":"tt0246870","world_art_id":null,"type":"movie","add":"2020-02-21 20:20:05","orig_title":"Le prince du Pacifique","year":"2000-12-20","translations":["Профессиональный (многоголосый закадровый)"],"quality":"dvdrip","translation":"Профессиональный (многоголосый закадровый)","update":"2020-02-21 21:24:33","iframe_src":"//7741.svetacdn.in/si4jsFRrtgrT/movie/36725"},{"id":36724,"title":"Спокойной ночи, Луна","kp_id":"503071","imdb_id":"tt1623745","world_art_id":null,"type":"movie","add":"2020-02-21 20:18:17","orig_title":"Little Birds","year":"2011-01-23","translations":["Профессиональный (многоголосый закадровый)"],"quality":"webdl","translation":"Профессиональный (многоголосый закадровый)","update":"2020-02-21 21:50:08","iframe_src":"//7741.svetacdn.in/si4jsFRrtgrT/movie/36724"},{"id":36718,"title":"Римская весна миссис Стоун","kp_id":"277583","imdb_id":"tt0311730","world_art_id":null,"type":"movie","add":"2020-02-21 13:58:24","orig_title":"The Roman Spring of Mrs. Stone","year":"2003-03-31","translations":["Профессиональный (двухголосый закадровый)"],"quality":"dvdrip","translation":"Профессиональный (двухголосый закадровый)","update":"2020-02-21 21:25:44","iframe_src":"//7741.svetacdn.in/si4jsFRrtgrT/movie/36718"},{"id":36716,"title":"Золотые мальчики","kp_id":"272033","imdb_id":"tt0882969","world_art_id":null,"type":"movie","add":"2020-02-21 13:56:26","orig_title":"The Golden Boys","year":"2008-11-16","translations":["Профессиональный (многоголосый закадровый)"],"quality":"dvdrip","translation":"Профессиональный (многоголосый закадровый)","update":"2020-02-21 21:26:25","iframe_src":"//7741.svetacdn.in/si4jsFRrtgrT/movie/36716"},{"id":36711,"title":"Минута молчания","kp_id":"461722","imdb_id":"tt3638664","world_art_id":null,"type":"movie","add":"2020-02-21 09:39:12","orig_title":"Minuta molchaniya","year":"1971-11-01","translations":["Оригинальная дорожка"],"quality":"dvdrip","translation":"Оригинальная дорожка","update":"2020-02-22 13:01:19","iframe_src":"//7741.svetacdn.in/si4jsFRrtgrT/movie/36711"},{"id":36710,"title":"Банда","kp_id":"433180","imdb_id":"tt1313113","world_art_id":null,"type":"movie","add":"2020-02-21 09:36:20","orig_title":"The Firm","year":"2009-09-18","translations":["Любительский (одноголосый закадровый)"],"quality":"bd","translation":"Любительский (одноголосый закадровый)","update":"2020-02-22 13:00:18","iframe_src":"//7741.svetacdn.in/si4jsFRrtgrT/movie/36710"},{"id":36709,"title":"Настоящий индийский роман","kp_id":"772154","imdb_id":"tt2988272","world_art_id":null,"type":"movie","add":"2020-02-21 09:32:47","orig_title":"Shuddh Desi Romance","year":"2013-09-06","translations":["Любительский (многоголосый закадровый)"],"quality":"bd","translation":"Любительский (многоголосый закадровый)","update":"2020-02-22 12:59:51","iframe_src":"//7741.svetacdn.in/si4jsFRrtgrT/movie/36709"},{"id":36708,"title":"Спасти сказку","kp_id":"420550","imdb_id":"tt1264895","world_art_id":null,"type":"movie","add":"2020-02-21 09:30:29","orig_title":"Moonlight & Mistletoe","year":"2008-11-29","translations":["Профессиональный (двухголосый закадровый)"],"quality":"dvdrip","translation":"Профессиональный (двухголосый закадровый)","update":"2020-02-22 12:59:14","iframe_src":"//7741.svetacdn.in/si4jsFRrtgrT/movie/36708"},{"id":36707,"title":"Собака Баскервилей","kp_id":"251727","imdb_id":"tt0322622","world_art_id":null,"type":"movie","add":"2020-02-21 09:27:30","orig_title":"The Hound of the Baskervilles","year":"2002-12-26","translations":["Профессиональный (многоголосый закадровый)"],"quality":"dvdrip","translation":"Профессиональный (многоголосый закадровый)","update":"2020-02-22 12:58:38","iframe_src":"//7741.svetacdn.in/si4jsFRrtgrT/movie/36707"},{"id":36706,"title":"96 минут","kp_id":"518310","imdb_id":"tt1641385","world_art_id":null,"type":"movie","add":"2020-02-21 09:25:01","orig_title":"96 Minutes","year":"2011-10-14","translations":["Профессиональный (многоголосый закадровый)"],"quality":"hdrip","translation":"Профессиональный (многоголосый закадровый)","update":"2020-02-22 12:45:35","iframe_src":"//7741.svetacdn.in/si4jsFRrtgrT/movie/36706"},{"id":36705,"title":"Гарри Браун","kp_id":"427127","imdb_id":"tt1289406","world_art_id":null,"type":"movie","add":"2020-02-21 09:23:00","orig_title":"Harry Brown","year":"2009-11-09","translations":["Профессиональный (многоголосый закадровый)"],"quality":"bd","translation":"Профессиональный (многоголосый закадровый)","update":"2020-02-22 12:46:17","iframe_src":"//7741.svetacdn.in/si4jsFRrtgrT/movie/36705"},{"id":36704,"title":"Наваждение","kp_id":"11909","imdb_id":"tt0074991","world_art_id":null,"type":"movie","add":"2020-02-21 09:20:22","orig_title":"Obsession","year":"1976-09-01","translations":["Профессиональный (многоголосый закадровый)"],"quality":"bd","translation":"Профессиональный (многоголосый закадровый)","update":"2020-02-22 12:44:30","iframe_src":"//7741.svetacdn.in/si4jsFRrtgrT/movie/36704"},{"id":36703,"title":"Добро пожаловать на борт","kp_id":"606656","imdb_id":"tt1890377","world_art_id":null,"type":"movie","add":"2020-02-21 09:17:18","orig_title":"Bienvenue à bord","year":"2011-10-05","translations":["Профессиональный (многоголосый закадровый) (Первый канал | ОРТ)"],"quality":"bd","translation":"Профессиональный (многоголосый закадровый) (Первый канал | ОРТ)","update":"2020-02-22 12:43:25","iframe_src":"//7741.svetacdn.in/si4jsFRrtgrT/movie/36703"},{"id":9422,"title":"Семейный заговор","kp_id":"9111","imdb_id":"tt0074512","world_art_id":null,"type":"movie","add":"2017-02-05 08:17:42","orig_title":"Family Plot","year":"1976-04-09","translations":["Полное дублирование"],"quality":"bd","translation":"Полное дублирование","update":"2020-02-22 11:45:49","iframe_src":"//7741.svetacdn.in/si4jsFRrtgrT/movie/9422"}],"current_page":1297,"first_page_url":"https://videocdn.tv/api/short?limit=100&api_token=X6EwAUfE5M9xbo7y0Bp0aPf3uXxG2KLL&cache31297=31297&page=1","from":129601,"last_page":707,"last_page_url":"https://videocdn.tv/api/short?limit=100&api_token=X6EwAUfE5M9xbo7y0Bp0aPf3uXxG2KLL&cache31297=31297&page=707","next_page_url":null,"path":"https://videocdn.tv/api/short","per_page":100,"prev_page_url":"https://videocdn.tv/api/short?limit=100&api_token=X6EwAUfE5M9xbo7y0Bp0aPf3uXxG2KLL&cache31297=31297&page=1296","to":129620,"total":70662}