{"result":true,"data":[{"id":14207,"title":"Дом ситтера","kp_id":"918400","imdb_id":"tt4794814","world_art_id":null,"type":"movie","add":"2017-11-01 23:05:36","orig_title":"The House Sitter","year":"2015-12-27","translations":["Любительский (многоголосый закадровый) (Синема УС)"],"quality":"hdtv","translation":"Любительский (многоголосый закадровый) (Синема УС)","update":"2017-11-02 06:02:17","iframe_src":"//83.svetacdn.in/PfJ50H0ZBPg3/movie/14207"},{"id":14200,"title":"Слендер","kp_id":"813440","imdb_id":"tt3317158","world_art_id":null,"type":"movie","add":"2017-10-31 22:45:23","orig_title":"Slender","year":"2016-04-05","translations":["Любительский (многоголосый закадровый) (Синема УС)"],"quality":"webdl","translation":"Любительский (многоголосый закадровый) (Синема УС)","update":"2017-11-01 06:37:29","iframe_src":"//83.svetacdn.in/PfJ50H0ZBPg3/movie/14200"},{"id":14199,"title":"Кошмарная медсестра","kp_id":"944177","imdb_id":"tt5176442","world_art_id":null,"type":"movie","add":"2017-10-31 22:43:27","orig_title":"Nightmare Nurse","year":"2016-03-05","translations":["Любительский (многоголосый закадровый) (Синема УС)"],"quality":"hdtv","translation":"Любительский (многоголосый закадровый) (Синема УС)","update":"2017-11-01 06:41:54","iframe_src":"//83.svetacdn.in/PfJ50H0ZBPg3/movie/14199"},{"id":14197,"title":"Снежный человек против зомби","kp_id":"964023","imdb_id":"tt5307698","world_art_id":null,"type":"movie","add":"2017-10-31 22:39:52","orig_title":"Bigfoot Vs. Zombies","year":"2016-02-23","translations":["Любительский (многоголосый закадровый) (Синема УС)"],"quality":"webdl","translation":"Любительский (многоголосый закадровый) (Синема УС)","update":"2017-11-01 06:45:15","iframe_src":"//83.svetacdn.in/PfJ50H0ZBPg3/movie/14197"},{"id":14196,"title":"Мы не одни","kp_id":"919267","imdb_id":"tt4696502","world_art_id":null,"type":"movie","add":"2017-10-31 22:12:48","orig_title":"No estamos solos","year":"2016-01-16","translations":["Любительский (двухголосый закадровый) (RecentFilms)"],"quality":"webdl","translation":"Любительский (двухголосый закадровый) (RecentFilms)","update":"2017-11-01 06:47:07","iframe_src":"//83.svetacdn.in/PfJ50H0ZBPg3/movie/14196"},{"id":14195,"title":"Да здравствует кризис","kp_id":"989999","imdb_id":"tt5849814","world_art_id":null,"type":"movie","add":"2017-10-31 22:10:46","orig_title":"Vive la crise","year":"2017-05-10","translations":["Любительский (многоголосый закадровый) (Синема УС)"],"quality":"webdl","translation":"Любительский (многоголосый закадровый) (Синема УС)","update":"2017-11-01 06:48:27","iframe_src":"//83.svetacdn.in/PfJ50H0ZBPg3/movie/14195"},{"id":14193,"title":"Кричать на дьявола","kp_id":"731042","imdb_id":"tt2622672","world_art_id":null,"type":"movie","add":"2017-10-31 21:49:33","orig_title":"Scream at the Devil","year":"2016-03-02","translations":["Любительский (многоголосый закадровый) (Синема УС)"],"quality":"bd","translation":"Любительский (многоголосый закадровый) (Синема УС)","update":"2017-11-01 07:35:20","iframe_src":"//83.svetacdn.in/PfJ50H0ZBPg3/movie/14193"},{"id":14192,"title":"Нашла коса на камень","kp_id":"1044311","imdb_id":"tt6841414","world_art_id":null,"type":"movie","add":"2017-10-31 21:37:11","orig_title":"Nashla kosa na kamen","year":"2017-10-26","translations":["Оригинальная дорожка"],"quality":"ts","translation":"Оригинальная дорожка","update":"2017-11-01 07:37:51","iframe_src":"//83.svetacdn.in/PfJ50H0ZBPg3/movie/14192"},{"id":14190,"title":"Крампус: Древнее зло","kp_id":"979165","imdb_id":"tt5714322","world_art_id":null,"type":"movie","add":"2017-10-31 21:25:18","orig_title":"Krampus Unleashed","year":"2017-11-01","translations":["Любительский (многоголосый закадровый) (@MUZOBOZ@)"],"quality":"bd","translation":"Любительский (многоголосый закадровый) (@MUZOBOZ@)","update":"2017-11-01 07:50:52","iframe_src":"//83.svetacdn.in/PfJ50H0ZBPg3/movie/14190"},{"id":14172,"title":"Расцвет бесчувственных ублюдков","kp_id":"849683","imdb_id":"tt4076926","world_art_id":null,"type":"movie","add":"2017-10-29 22:14:59","orig_title":"The Heyday of the Insensitive Bastards","year":"2015-03-25","translations":["Любительский (многоголосый закадровый) (@MUZOBOZ@)","Любительский (двухголосый закадровый) (RecentFilms)"],"quality":"webdl","translation":"Любительский (многоголосый закадровый) (@MUZOBOZ@)","update":"2017-11-01 08:27:11","iframe_src":"//83.svetacdn.in/PfJ50H0ZBPg3/movie/14172"},{"id":14051,"title":"Волк и семеро козлят","kp_id":"440080","imdb_id":"tt2273812","world_art_id":null,"type":"movie","add":"2017-10-26 10:59:17","orig_title":"Volk i semero kozlyat","year":"1957-01-01","translations":["Оригинальная дорожка"],"quality":"dvdrip","translation":"Оригинальная дорожка","update":"2017-10-31 12:56:29","iframe_src":"//83.svetacdn.in/PfJ50H0ZBPg3/movie/14051"},{"id":14050,"title":"Василиса Микулишна","kp_id":"448949","imdb_id":"tt1384790","world_art_id":null,"type":"movie","add":"2017-10-26 10:58:16","orig_title":"Vasilisa Mikulishna","year":"1975-01-01","translations":["Оригинальная дорожка"],"quality":"dvdrip","translation":"Оригинальная дорожка","update":"2017-10-31 12:53:28","iframe_src":"//83.svetacdn.in/PfJ50H0ZBPg3/movie/14050"},{"id":14047,"title":"Сказка о рыбаке и рыбке","kp_id":"438329","imdb_id":"tt5437470","world_art_id":null,"type":"movie","add":"2017-10-26 10:53:49","orig_title":"Skazka o rybake i rybke","year":"1950-01-01","translations":["Оригинальная дорожка"],"quality":"dvdrip","translation":"Оригинальная дорожка","update":"2017-10-31 12:48:37","iframe_src":"//83.svetacdn.in/PfJ50H0ZBPg3/movie/14047"},{"id":14046,"title":"Сказка о попе и о работнике его Балде","kp_id":"468263","imdb_id":"tt5669170","world_art_id":null,"type":"movie","add":"2017-10-26 10:52:18","orig_title":"Skazka o pope i o rabotnike ego Balde","year":"1956-03-09","translations":["Оригинальная дорожка"],"quality":"dvdrip","translation":"Оригинальная дорожка","update":"2017-10-31 12:43:53","iframe_src":"//83.svetacdn.in/PfJ50H0ZBPg3/movie/14046"},{"id":13339,"title":"Группа «Лейкопластырь»","kp_id":"987347","imdb_id":"tt5816374","world_art_id":null,"type":"movie","add":"2017-09-04 22:24:13","orig_title":"Band Aid","year":"2017-01-24","translations":["Любительский (многоголосый закадровый) (Синема УС)","Профессиональный (многоголосый закадровый) (GreenРай Studio)","Профессиональный (многоголосый закадровый)"],"quality":"bd","translation":"Любительский (многоголосый закадровый) (Синема УС)","update":"2017-11-01 08:07:59","iframe_src":"//83.svetacdn.in/PfJ50H0ZBPg3/movie/13339"},{"id":13335,"title":"Хранилище","kp_id":"588550","imdb_id":"tt1785635","world_art_id":null,"type":"movie","add":"2017-09-04 22:08:31","orig_title":"The Vault","year":"2017-09-01","translations":["Любительский (многоголосый закадровый) (@MUZOBOZ@)","Профессиональный (многоголосый закадровый)"],"quality":"webdl","translation":"Любительский (многоголосый закадровый) (@MUZOBOZ@)","update":"2017-11-01 08:17:38","iframe_src":"//83.svetacdn.in/PfJ50H0ZBPg3/movie/13335"},{"id":9701,"title":"Париж это праздник","kp_id":"919417","imdb_id":"tt4795546","world_art_id":null,"type":"movie","add":"2017-02-15 14:14:02","orig_title":"Nocturama","year":"2016-07-08","translations":["Любительский (двухголосый закадровый) (Колобок)","Профессиональный (многоголосый закадровый) (GreenРай Studio)"],"quality":"webdl","translation":"Любительский (двухголосый закадровый) (Колобок)","update":"2017-11-02 06:24:39","iframe_src":"//83.svetacdn.in/PfJ50H0ZBPg3/movie/9701"},{"id":9520,"title":"Венецианские львы","kp_id":"814482","imdb_id":"tt3367114","world_art_id":null,"type":"movie","add":"2017-02-08 07:59:36","orig_title":"Leoni","year":"2015-02-05","translations":["Полное дублирование","Профессиональный (многоголосый закадровый)"],"quality":"dvdrip","translation":"Полное дублирование","update":"2017-11-02 06:26:09","iframe_src":"//83.svetacdn.in/PfJ50H0ZBPg3/movie/9520"},{"id":5242,"title":"Зоозомби","kp_id":"960172","imdb_id":"tt5340882","world_art_id":null,"type":"movie","add":"2016-09-13 09:20:54","orig_title":"Zoombies","year":"2016-03-01","translations":["Любительский (двухголосый закадровый)","Любительский (многоголосый закадровый) (Синема УС)"],"quality":"bd","translation":"Любительский (двухголосый закадровый)","update":"2017-11-01 08:15:32","iframe_src":"//83.svetacdn.in/PfJ50H0ZBPg3/movie/5242"},{"id":4836,"title":"Прирожденные шутники","kp_id":"855142","imdb_id":"tt3671086","world_art_id":null,"type":"movie","add":"2016-08-29 09:55:46","orig_title":"Natural Born Pranksters","year":"2016-04-01","translations":["Любительский (двухголосый закадровый)","Любительский (многоголосый закадровый) (Синема УС)"],"quality":"webdl","translation":"Любительский (двухголосый закадровый)","update":"2017-11-01 07:36:45","iframe_src":"//83.svetacdn.in/PfJ50H0ZBPg3/movie/4836"}],"current_page":2353,"first_page_url":"https://videocdn.tv/api/short?limit=100&api_token=RgFQdUIR2dRmwv8iYa5SnFNgnw3vpjKj&cache32353=32353&page=1","from":235201,"last_page":708,"last_page_url":"https://videocdn.tv/api/short?limit=100&api_token=RgFQdUIR2dRmwv8iYa5SnFNgnw3vpjKj&cache32353=32353&page=708","next_page_url":null,"path":"https://videocdn.tv/api/short","per_page":100,"prev_page_url":"https://videocdn.tv/api/short?limit=100&api_token=RgFQdUIR2dRmwv8iYa5SnFNgnw3vpjKj&cache32353=32353&page=2352","to":235220,"total":70707}