{"result":true,"data":[{"id":44698,"title":"Нечеловеческая природа","kp_id":null,"imdb_id":"tt7637160","world_art_id":null,"type":"movie","add":"2020-10-22 19:04:47","orig_title":"Unhuman Nature","year":"2020-10-01","translations":["Любительский (многоголосый закадровый) (@MUZOBOZ@)"],"quality":"webdl","translation":"Любительский (многоголосый закадровый) (@MUZOBOZ@)","update":"2020-10-23 03:02:27","iframe_src":"//2413.svetacdn.in/71tsRs29n5tZ/movie/44698"},{"id":44692,"title":"Метеорит","kp_id":"1405961","imdb_id":"tt13021916","world_art_id":null,"type":"movie","add":"2020-10-22 18:32:12","orig_title":"Meteorite","year":"2020-10-21","translations":["Оригинальная дорожка"],"quality":"webdl","translation":"Оригинальная дорожка","update":"2020-10-23 02:58:05","iframe_src":"//2413.svetacdn.in/71tsRs29n5tZ/movie/44692"},{"id":44677,"title":"Смерть от тысячи порезов","kp_id":"1364598","imdb_id":"tt12029164","world_art_id":null,"type":"movie","add":"2020-10-22 10:14:16","orig_title":"Death by 1000 Cuts","year":"2020-09-22","translations":["Любительский (многоголосый закадровый) (@MUZOBOZ@)"],"quality":"webdl","translation":"Любительский (многоголосый закадровый) (@MUZOBOZ@)","update":"2020-10-22 15:02:33","iframe_src":"//2413.svetacdn.in/71tsRs29n5tZ/movie/44677"},{"id":44656,"title":"Бабье царство","kp_id":"164776","imdb_id":"tt0056310","world_art_id":null,"type":"movie","add":"2020-10-21 07:37:03","orig_title":"Onna no za","year":"1962-01-14","translations":["Любительский (многоголосый закадровый) (STEPonee)"],"quality":"webdl","translation":"Любительский (многоголосый закадровый) (STEPonee)","update":"2020-10-22 16:00:07","iframe_src":"//2413.svetacdn.in/71tsRs29n5tZ/movie/44656"},{"id":44655,"title":"Доверие","kp_id":"36158","imdb_id":"tt0078868","world_art_id":null,"type":"movie","add":"2020-10-21 07:34:09","orig_title":"Bizalom","year":"1980-01-10","translations":["Любительский (одноголосый закадровый)"],"quality":"bd","translation":"Любительский (одноголосый закадровый)","update":"2020-10-22 19:35:23","iframe_src":"//2413.svetacdn.in/71tsRs29n5tZ/movie/44655"},{"id":44641,"title":"Утопающая","kp_id":"1226755","imdb_id":"tt9506000","world_art_id":null,"type":"movie","add":"2020-10-20 18:04:15","orig_title":"Drowning","year":"2019-10-20","translations":["Любительский (многоголосый закадровый) (@MUZOBOZ@)"],"quality":"webdl","translation":"Любительский (многоголосый закадровый) (@MUZOBOZ@)","update":"2020-10-22 15:07:41","iframe_src":"//2413.svetacdn.in/71tsRs29n5tZ/movie/44641"},{"id":44591,"title":"Собака на сене","kp_id":"59736","imdb_id":"tt0114115","world_art_id":null,"type":"movie","add":"2020-10-19 16:18:11","orig_title":"El perro del hortelano","year":"1996-10-25","translations":["Полное дублирование"],"quality":"bd","translation":"Полное дублирование","update":"2020-10-23 13:26:25","iframe_src":"//2413.svetacdn.in/71tsRs29n5tZ/movie/44591"},{"id":44529,"title":"Приключения кузнечика Кузи (История вторая)","kp_id":"257197","imdb_id":"tt6235272","world_art_id":null,"type":"movie","add":"2020-10-17 19:47:07","orig_title":"Priklyucheniya kuznechika Kuzi (Istoriya vtoraya)","year":"1991-01-01","translations":["Оригинальная дорожка"],"quality":"webdl","translation":"Оригинальная дорожка","update":"2020-10-23 07:18:16","iframe_src":"//2413.svetacdn.in/71tsRs29n5tZ/movie/44529"},{"id":44528,"title":"Приключения кузнечика Кузи (История первая)","kp_id":"257210","imdb_id":"tt6235266","world_art_id":null,"type":"movie","add":"2020-10-17 19:44:10","orig_title":"Priklyucheniya kuznechika Kuzi (Istoriya pervaya)","year":"1990-01-01","translations":["Оригинальная дорожка"],"quality":"webdl","translation":"Оригинальная дорожка","update":"2020-10-23 07:17:14","iframe_src":"//2413.svetacdn.in/71tsRs29n5tZ/movie/44528"},{"id":44525,"title":"Осень в семействе Кохаягава","kp_id":"99944","imdb_id":"tt0055052","world_art_id":null,"type":"movie","add":"2020-10-17 09:02:31","orig_title":"Kohayagawa-ke no aki","year":"1961-10-29","translations":["Любительский (многоголосый закадровый) (STEPonee)"],"quality":"webdl","translation":"Любительский (многоголосый закадровый) (STEPonee)","update":"2020-10-23 07:11:15","iframe_src":"//2413.svetacdn.in/71tsRs29n5tZ/movie/44525"},{"id":44524,"title":"Цветы Хиган","kp_id":"175119","imdb_id":"tt0051720","world_art_id":null,"type":"movie","add":"2020-10-17 08:49:00","orig_title":"Higanbana","year":"1958-09-07","translations":["Авторский (одноголосый закадровый) (Воротилин Олег)"],"quality":"bd","translation":"Авторский (одноголосый закадровый) (Воротилин Олег)","update":"2020-10-23 07:13:48","iframe_src":"//2413.svetacdn.in/71tsRs29n5tZ/movie/44524"},{"id":44523,"title":"Обломок империи","kp_id":"42695","imdb_id":"tt0020232","world_art_id":null,"type":"movie","add":"2020-10-17 08:10:32","orig_title":"Oblomok imperii","year":"1930-01-25","translations":["Оригинальная дорожка"],"quality":"bd","translation":"Оригинальная дорожка","update":"2020-10-23 07:13:12","iframe_src":"//2413.svetacdn.in/71tsRs29n5tZ/movie/44523"},{"id":44497,"title":"Остров лебедей","kp_id":"91754","imdb_id":"tt0085730","world_art_id":null,"type":"movie","add":"2020-10-16 10:07:41","orig_title":"Insel der Schwäne","year":"1983-04-28","translations":["Авторский (одноголосый закадровый) (Муравский Юрий)"],"quality":"webdl","translation":"Авторский (одноголосый закадровый) (Муравский Юрий)","update":"2020-10-23 07:15:50","iframe_src":"//2413.svetacdn.in/71tsRs29n5tZ/movie/44497"},{"id":42903,"title":"Кутёж","kp_id":"1307468","imdb_id":"tt10994688","world_art_id":null,"type":"movie","add":"2020-08-29 06:23:20","orig_title":"The Binge","year":"2020-08-28","translations":["Любительский (многоголосый закадровый) (@MUZOBOZ@)","[EN] Original (English)","Любительский (многоголосый закадровый) (@MUZOBOZ@)"],"quality":"webdl","translation":"Любительский (многоголосый закадровый) (@MUZOBOZ@)","update":"2020-10-23 07:02:09","iframe_src":"//2413.svetacdn.in/71tsRs29n5tZ/movie/42903"},{"id":38998,"title":"Пастушья кукла","kp_id":"427566","imdb_id":"tt1296077","world_art_id":null,"type":"movie","add":"2020-04-07 11:48:57","orig_title":"Sennentuntschi","year":"2010-09-23","translations":["Любительский (многоголосый закадровый)","Авторский (одноголосый закадровый) (Визгунов Сергей)"],"quality":"bd","translation":"Любительский (многоголосый закадровый)","update":"2020-10-22 15:58:31","iframe_src":"//2413.svetacdn.in/71tsRs29n5tZ/movie/38998"},{"id":25712,"title":"Моя любовь","kp_id":"46718","imdb_id":"tt0032812","world_art_id":null,"type":"movie","add":"2019-04-30 10:09:31","orig_title":"Moya lyubov","year":"1940-07-08","translations":["Оригинальная дорожка","Оригинальная дорожка"],"quality":"dvdrip","translation":"Оригинальная дорожка","update":"2020-10-22 13:39:06","iframe_src":"//2413.svetacdn.in/71tsRs29n5tZ/movie/25712"},{"id":11497,"title":"Взрыватель","kp_id":"5925","imdb_id":"tt0120724","world_art_id":null,"type":"movie","add":"2017-05-11 12:09:52","orig_title":"Knock Off","year":"1998-05-27","translations":["Профессиональный (двухголосый закадровый)","Профессиональный (многоголосый закадровый)","Авторский (одноголосый закадровый) (Яроцкий Михаил | Kyberpunk)","Авторский (одноголосый закадровый) (Живов Юрий)","[EN] Original (English)","Профессиональный (двухголосый закадровый)","Профессиональный (двухголосый закадровый) (Екатеринбург Арт)","Профессиональный (двухголосый закадровый) (НТВ)","Профессиональный (двухголосый закадровый) (ТНТ)","Профессиональный (многоголосый закадровый) (СТС)"],"quality":"dvdrip","translation":"Профессиональный (двухголосый закадровый)","update":"2020-10-23 13:14:45","iframe_src":"//2413.svetacdn.in/71tsRs29n5tZ/movie/11497"},{"id":7191,"title":"Скуби-Ду 4: Проклятье озерного монстра","kp_id":"503358","imdb_id":"tt1618435","world_art_id":null,"type":"movie","add":"2016-11-08 08:53:51","orig_title":"Scooby-Doo! Curse of the Lake Monster","year":"2010-10-16","translations":["Любительский (двухголосый закадровый)","Любительский (многоголосый закадровый) (Jetvis Studio)","Полное дублирование (Пифагор)","[EN] Original (English)"],"quality":"bd","translation":"Любительский (двухголосый закадровый)","update":"2020-10-23 07:10:20","iframe_src":"//2413.svetacdn.in/71tsRs29n5tZ/movie/7191"},{"id":6125,"title":"Матильда","kp_id":"7643","imdb_id":"tt0117008","world_art_id":null,"type":"movie","add":"2016-10-11 08:26:33","orig_title":"Matilda","year":"1996-07-28","translations":["Полное дублирование","Авторский (одноголосый закадровый) (Кузнецов Сергей)","Авторский (одноголосый закадровый) (Володарский Леонид)","Полное дублирование","[EN] Original (English)","Профессиональный (многоголосый закадровый)"],"quality":"bd","translation":"Полное дублирование","update":"2020-10-23 13:20:30","iframe_src":"//2413.svetacdn.in/71tsRs29n5tZ/movie/6125"},{"id":2740,"title":"Самый жестокий год","kp_id":"765147","imdb_id":"tt2937898","world_art_id":null,"type":"movie","add":"2016-05-30 21:58:15","orig_title":"A Most Violent Year","year":"2014-11-06","translations":["Любительский (двухголосый закадровый) (ColdFilm)","Любительский (одноголосый закадровый)","[EN] Original (English)","Профессиональный (многоголосый закадровый) (iTunes)"],"quality":"bd","translation":"Любительский (двухголосый закадровый) (ColdFilm)","update":"2020-10-23 07:06:14","iframe_src":"//2413.svetacdn.in/71tsRs29n5tZ/movie/2740"}],"current_page":952,"first_page_url":"https://videocdn.tv/api/short?limit=100&api_token=EnbO9h8pv1VyjbCJhg0WM9nG259n7mtz&cache3952=3952&page=1","from":95101,"last_page":716,"last_page_url":"https://videocdn.tv/api/short?limit=100&api_token=EnbO9h8pv1VyjbCJhg0WM9nG259n7mtz&cache3952=3952&page=716","next_page_url":null,"path":"https://videocdn.tv/api/short","per_page":100,"prev_page_url":"https://videocdn.tv/api/short?limit=100&api_token=EnbO9h8pv1VyjbCJhg0WM9nG259n7mtz&cache3952=3952&page=951","to":95120,"total":71587}