{"result":true,"data":[{"id":26953,"title":"Выстрел в тумане","kp_id":"45982","imdb_id":"tt0314861","world_art_id":null,"type":"movie","add":"2019-05-23 16:07:57","orig_title":"Vystrel v tumane","year":"1964-06-08","translations":["Оригинальная дорожка"],"quality":"sat","translation":"Оригинальная дорожка","update":"2019-05-24 06:41:21","iframe_src":"//7720.svetacdn.in/71tsRs29n5tZ/movie/26953"},{"id":26951,"title":"Миллионы Ферфакса","kp_id":"46636","imdb_id":"tt0230529","world_art_id":null,"type":"movie","add":"2019-05-23 15:46:33","orig_title":"Milliony Ferfaksa","year":"1981-07-13","translations":["Оригинальная дорожка"],"quality":"dvdrip","translation":"Оригинальная дорожка","update":"2019-05-24 06:40:37","iframe_src":"//7720.svetacdn.in/71tsRs29n5tZ/movie/26951"},{"id":26950,"title":"На дорогах войны","kp_id":"46264","imdb_id":"tt0351402","world_art_id":null,"type":"movie","add":"2019-05-23 15:43:30","orig_title":"Na dorogakh voyny","year":"1959-01-05","translations":["Оригинальная дорожка"],"quality":"sat","translation":"Оригинальная дорожка","update":"2019-05-24 06:39:35","iframe_src":"//7720.svetacdn.in/71tsRs29n5tZ/movie/26950"},{"id":26949,"title":"Непобедимые","kp_id":"46402","imdb_id":"tt0035118","world_art_id":null,"type":"movie","add":"2019-05-23 15:40:33","orig_title":"Nepobedimye","year":"1943-01-23","translations":["Оригинальная дорожка"],"quality":"dvdrip","translation":"Оригинальная дорожка","update":"2019-05-24 06:38:29","iframe_src":"//7720.svetacdn.in/71tsRs29n5tZ/movie/26949"},{"id":26948,"title":"О чем шумит река","kp_id":"188714","imdb_id":"tt0420690","world_art_id":null,"type":"movie","add":"2019-05-23 15:37:46","orig_title":"Inchu e aghmkum gete","year":"1959-10-05","translations":["Оригинальная дорожка"],"quality":"sat","translation":"Оригинальная дорожка","update":"2019-05-24 06:37:45","iframe_src":"//7720.svetacdn.in/71tsRs29n5tZ/movie/26948"},{"id":26947,"title":"Обвиняется свадьба","kp_id":"25104","imdb_id":"tt0091664","world_art_id":null,"type":"movie","add":"2019-05-23 15:34:35","orig_title":"Obvinyaetsya svadba","year":"1986-07-21","translations":["Оригинальная дорожка"],"quality":"dvdrip","translation":"Оригинальная дорожка","update":"2019-05-24 06:37:06","iframe_src":"//7720.svetacdn.in/71tsRs29n5tZ/movie/26947"},{"id":26946,"title":"Ожидания","kp_id":"472318","imdb_id":"tt4180344","world_art_id":null,"type":"movie","add":"2019-05-23 15:31:49","orig_title":"Ozhidaniya","year":"1966-11-10","translations":["Оригинальная дорожка"],"quality":"sat","translation":"Оригинальная дорожка","update":"2019-05-24 06:35:53","iframe_src":"//7720.svetacdn.in/71tsRs29n5tZ/movie/26946"},{"id":26945,"title":"Паутина","kp_id":"425969","imdb_id":"tt3098782","world_art_id":null,"type":"movie","add":"2019-05-23 15:28:20","orig_title":"Pautina","year":"1992-01-01","translations":["Оригинальная дорожка"],"quality":"sat","translation":"Оригинальная дорожка","update":"2019-05-24 06:34:51","iframe_src":"//7720.svetacdn.in/71tsRs29n5tZ/movie/26945"},{"id":26944,"title":"Переступи порог","kp_id":"42929","imdb_id":"tt0066211","world_art_id":null,"type":"movie","add":"2019-05-23 15:24:52","orig_title":"Perestupi porog","year":"1970-08-19","translations":["Оригинальная дорожка"],"quality":"iptv","translation":"Оригинальная дорожка","update":"2019-05-24 06:34:00","iframe_src":"//7720.svetacdn.in/71tsRs29n5tZ/movie/26944"},{"id":26943,"title":"Подпоручикъ Ромашовъ","kp_id":"703044","imdb_id":"tt3565156","world_art_id":null,"type":"movie","add":"2019-05-23 15:21:39","orig_title":"Podporuchik Romashov","year":"2013-05-08","translations":["Оригинальная дорожка"],"quality":"sat","translation":"Оригинальная дорожка","update":"2019-05-24 06:32:53","iframe_src":"//7720.svetacdn.in/71tsRs29n5tZ/movie/26943"},{"id":26942,"title":"Приказано взять живым","kp_id":"43249","imdb_id":"tt0261200","world_art_id":null,"type":"movie","add":"2019-05-23 15:17:47","orig_title":"Prikazano vzyat zhivym","year":"1984-05-03","translations":["Оригинальная дорожка"],"quality":"dvdrip","translation":"Оригинальная дорожка","update":"2019-05-24 06:31:46","iframe_src":"//7720.svetacdn.in/71tsRs29n5tZ/movie/26942"},{"id":26941,"title":"Простодушный","kp_id":"40971","imdb_id":"tt0110904","world_art_id":null,"type":"movie","add":"2019-05-23 15:14:11","orig_title":"Prostodushnyy","year":"1994-01-01","translations":["Оригинальная дорожка"],"quality":"vhs","translation":"Оригинальная дорожка","update":"2019-05-24 06:31:01","iframe_src":"//7720.svetacdn.in/71tsRs29n5tZ/movie/26941"},{"id":26940,"title":"Путь в небо...","kp_id":"674051","imdb_id":"tt7357286","world_art_id":null,"type":"movie","add":"2019-05-23 15:11:17","orig_title":"Put v nebo...","year":"2012-03-14","translations":["Оригинальная дорожка"],"quality":"webdl","translation":"Оригинальная дорожка","update":"2019-05-24 06:29:38","iframe_src":"//7720.svetacdn.in/71tsRs29n5tZ/movie/26940"},{"id":26939,"title":"Расплата","kp_id":"42046","imdb_id":"tt0066284","world_art_id":null,"type":"movie","add":"2019-05-23 15:06:48","orig_title":"Rasplata","year":"1970-01-23","translations":["Оригинальная дорожка"],"quality":"dvdrip","translation":"Оригинальная дорожка","update":"2019-05-24 06:28:58","iframe_src":"//7720.svetacdn.in/71tsRs29n5tZ/movie/26939"},{"id":26938,"title":"Река","kp_id":"702180","imdb_id":"tt4562030","world_art_id":null,"type":"movie","add":"2019-05-23 15:03:26","orig_title":"Reka","year":"2014-01-26","translations":["Оригинальная дорожка"],"quality":"webdl","translation":"Оригинальная дорожка","update":"2019-05-24 06:26:40","iframe_src":"//7720.svetacdn.in/71tsRs29n5tZ/movie/26938"},{"id":26937,"title":"Сказка о громком барабане","kp_id":"39935","imdb_id":"tt0300490","world_art_id":null,"type":"movie","add":"2019-05-23 14:58:42","orig_title":"Skazka o gromkom barabane","year":"1987-01-01","translations":["Оригинальная дорожка"],"quality":"dvdrip","translation":"Оригинальная дорожка","update":"2019-05-24 06:24:48","iframe_src":"//7720.svetacdn.in/71tsRs29n5tZ/movie/26937"},{"id":26935,"title":"Сапоги всмятку","kp_id":"634134","imdb_id":"tt5455590","world_art_id":null,"type":"movie","add":"2019-05-23 13:55:34","orig_title":"Sapogi vsmyatku","year":"1978-10-31","translations":["Оригинальная дорожка"],"quality":"sat","translation":"Оригинальная дорожка","update":"2019-05-24 06:23:27","iframe_src":"//7720.svetacdn.in/71tsRs29n5tZ/movie/26935"},{"id":26934,"title":"Везучая","kp_id":"806510","imdb_id":"tt3324570","world_art_id":null,"type":"movie","add":"2019-05-23 13:50:27","orig_title":"Vezuchaya","year":"2013-09-22","translations":["Оригинальная дорожка"],"quality":"hdtv","translation":"Оригинальная дорожка","update":"2019-05-24 06:22:31","iframe_src":"//7720.svetacdn.in/71tsRs29n5tZ/movie/26934"},{"id":26933,"title":"Серебристый звон ручья","kp_id":"743800","imdb_id":null,"world_art_id":null,"type":"movie","add":"2019-05-23 12:51:03","orig_title":"Серебристый звон ручья","year":"2013-03-17","translations":["Оригинальная дорожка"],"quality":"hdtv","translation":"Оригинальная дорожка","update":"2019-05-24 06:21:46","iframe_src":"//7720.svetacdn.in/71tsRs29n5tZ/movie/26933"},{"id":26932,"title":"Следую своим курсом","kp_id":"417796","imdb_id":"tt4839860","world_art_id":null,"type":"movie","add":"2019-05-23 12:45:50","orig_title":"Sleduyu svoim kursom","year":"1975-06-09","translations":["Оригинальная дорожка"],"quality":"dvdrip","translation":"Оригинальная дорожка","update":"2019-05-24 06:20:30","iframe_src":"//7720.svetacdn.in/71tsRs29n5tZ/movie/26932"}],"current_page":1466,"first_page_url":"https://videocdn.tv/api/short?limit=100&api_token=EnbO9h8pv1VyjbCJhg0WM9nG259n7mtz&cache31466=31466&page=1","from":146501,"last_page":646,"last_page_url":"https://videocdn.tv/api/short?limit=100&api_token=EnbO9h8pv1VyjbCJhg0WM9nG259n7mtz&cache31466=31466&page=646","next_page_url":null,"path":"https://videocdn.tv/api/short","per_page":100,"prev_page_url":"https://videocdn.tv/api/short?limit=100&api_token=EnbO9h8pv1VyjbCJhg0WM9nG259n7mtz&cache31466=31466&page=1465","to":146520,"total":64539}