{"result":true,"data":[{"id":9529,"title":"За шкуру полицейского","kp_id":"93580","imdb_id":"tt0082935","world_art_id":null,"type":"movie","add":"2017-02-08 13:56:24","orig_title":"Pour la peau d'un flic","year":"1981-09-09","translations":["Профессиональный (многоголосый закадровый)"],"quality":"bd","translation":"Профессиональный (многоголосый закадровый)","update":"2017-02-09 05:10:44","iframe_src":"//7741.svetacdn.in/si4jsFRrtgrT/movie/9529"},{"id":9528,"title":"Наш собственный дом","kp_id":"13880","imdb_id":"tt0107130","world_art_id":null,"type":"movie","add":"2017-02-08 13:52:24","orig_title":"A Home of Our Own","year":"1993-11-05","translations":["Профессиональный (двухголосый закадровый)"],"quality":"bd","translation":"Профессиональный (двухголосый закадровый)","update":"2017-02-09 05:14:57","iframe_src":"//7741.svetacdn.in/si4jsFRrtgrT/movie/9528"},{"id":9527,"title":"День труда","kp_id":"596217","imdb_id":"tt1967545","world_art_id":null,"type":"movie","add":"2017-02-08 10:18:40","orig_title":"Labor Day","year":"2013-08-30","translations":["Полное дублирование"],"quality":"bd","translation":"Полное дублирование","update":"2017-02-08 14:00:10","iframe_src":"//7741.svetacdn.in/si4jsFRrtgrT/movie/9527"},{"id":9524,"title":"Всадники","kp_id":"45920","imdb_id":"tt0032103","world_art_id":null,"type":"movie","add":"2017-02-08 08:19:59","orig_title":"Vsadniki","year":"1942-04-13","translations":["Оригинальная дорожка"],"quality":"dvdrip","translation":"Оригинальная дорожка","update":"2017-02-08 13:57:44","iframe_src":"//7741.svetacdn.in/si4jsFRrtgrT/movie/9524"},{"id":9522,"title":"Симшар","kp_id":"720997","imdb_id":"tt2521700","world_art_id":null,"type":"movie","add":"2017-02-08 08:01:59","orig_title":"Simshar","year":"2014-04-27","translations":["Профессиональный (многоголосый закадровый)"],"quality":"webdl","translation":"Профессиональный (многоголосый закадровый)","update":"2017-02-09 05:16:22","iframe_src":"//7741.svetacdn.in/si4jsFRrtgrT/movie/9522"},{"id":9521,"title":"Частная жизнь Елизаветы и Эссекса","kp_id":"13382","imdb_id":"tt0031826","world_art_id":null,"type":"movie","add":"2017-02-08 08:00:55","orig_title":"The Private Lives of Elizabeth and Essex","year":"1939-09-27","translations":["Профессиональный (многоголосый закадровый)"],"quality":"dvdrip","translation":"Профессиональный (многоголосый закадровый)","update":"2017-02-09 05:19:03","iframe_src":"//7741.svetacdn.in/si4jsFRrtgrT/movie/9521"},{"id":9518,"title":"Мальчик-оборотень","kp_id":"695489","imdb_id":"tt2315152","world_art_id":null,"type":"movie","add":"2017-02-08 07:56:56","orig_title":"Neukdae sonyeon","year":"2012-09-11","translations":["Профессиональный (многоголосый закадровый)"],"quality":"bd","translation":"Профессиональный (многоголосый закадровый)","update":"2017-02-09 05:24:05","iframe_src":"//7741.svetacdn.in/si4jsFRrtgrT/movie/9518"},{"id":9517,"title":"Сады осенью","kp_id":"260964","imdb_id":"tt0494239","world_art_id":null,"type":"movie","add":"2017-02-08 07:55:29","orig_title":"Jardins en Automne","year":"2006-07-07","translations":["Профессиональный (двухголосый закадровый)"],"quality":"dvdrip","translation":"Профессиональный (двухголосый закадровый)","update":"2017-02-09 05:25:43","iframe_src":"//7741.svetacdn.in/si4jsFRrtgrT/movie/9517"},{"id":9516,"title":"Салон красоты","kp_id":"43596","imdb_id":"tt0089954","world_art_id":null,"type":"movie","add":"2017-02-08 07:53:45","orig_title":"Salon krasoty","year":"1986-05-12","translations":["Оригинальная дорожка"],"quality":"tv","translation":"Оригинальная дорожка","update":"2017-02-09 05:27:59","iframe_src":"//7741.svetacdn.in/si4jsFRrtgrT/movie/9516"},{"id":9515,"title":"Король чёртова острова","kp_id":"466994","imdb_id":"tt1332134","world_art_id":null,"type":"movie","add":"2017-02-08 07:50:52","orig_title":"Kongen av Bastøy","year":"2010-12-17","translations":["Любительский (одноголосый закадровый)"],"quality":"bd","translation":"Любительский (одноголосый закадровый)","update":"2017-02-09 05:29:26","iframe_src":"//7741.svetacdn.in/si4jsFRrtgrT/movie/9515"},{"id":9503,"title":"За нас двоих","kp_id":"21313","imdb_id":"tt0080184","world_art_id":null,"type":"movie","add":"2017-02-07 13:49:41","orig_title":"À nous deux","year":"1979-05-23","translations":["Профессиональный (многоголосый)"],"quality":"bd","translation":"Профессиональный (многоголосый)","update":"2017-02-08 13:31:01","iframe_src":"//7741.svetacdn.in/si4jsFRrtgrT/movie/9503"},{"id":9412,"title":"Собака Баскервилей","kp_id":"299022","imdb_id":"tt0085692","world_art_id":null,"type":"movie","add":"2017-02-03 10:18:13","orig_title":"The Hound of the Baskervilles","year":"1983-11-03","translations":["Полное дублирование"],"quality":"bd","translation":"Полное дублирование","update":"2017-02-08 09:53:23","iframe_src":"//7741.svetacdn.in/si4jsFRrtgrT/movie/9412"},{"id":9411,"title":"Грэйс","kp_id":"409985","imdb_id":"tt1220213","world_art_id":null,"type":"movie","add":"2017-02-03 10:12:03","orig_title":"Grace","year":"2009-01-16","translations":["Профессиональный (двухголосый закадровый) (ХИТ)"],"quality":"bd","translation":"Профессиональный (двухголосый закадровый) (ХИТ)","update":"2017-02-08 09:52:05","iframe_src":"//7741.svetacdn.in/si4jsFRrtgrT/movie/9411"},{"id":9410,"title":"Нулевой эффект","kp_id":"5019","imdb_id":"tt0120906","world_art_id":null,"type":"movie","add":"2017-02-03 10:09:18","orig_title":"Zero Effect","year":"1998-01-30","translations":["Профессиональный (многоголосый закадровый)"],"quality":"webdl","translation":"Профессиональный (многоголосый закадровый)","update":"2017-02-08 09:57:55","iframe_src":"//7741.svetacdn.in/si4jsFRrtgrT/movie/9410"},{"id":9409,"title":"Дерево, мэр и медиатека","kp_id":"55012","imdb_id":"tt0106301","world_art_id":null,"type":"movie","add":"2017-02-03 10:06:36","orig_title":"L'arbre, le maire et la médiathèque","year":"1993-02-10","translations":["Профессиональный (одноголосый закадровый)"],"quality":"bd","translation":"Профессиональный (одноголосый закадровый)","update":"2017-02-08 09:48:33","iframe_src":"//7741.svetacdn.in/si4jsFRrtgrT/movie/9409"},{"id":9408,"title":"Судный день","kp_id":"570076","imdb_id":"tt1756799","world_art_id":null,"type":"movie","add":"2017-02-03 09:50:38","orig_title":"The Day","year":"2011-09-16","translations":["Профессиональный (многоголосый)"],"quality":"bd","translation":"Профессиональный (многоголосый)","update":"2017-02-08 09:49:03","iframe_src":"//7741.svetacdn.in/si4jsFRrtgrT/movie/9408"},{"id":9401,"title":"Доктор","kp_id":"679707","imdb_id":"tt2518336","world_art_id":null,"type":"movie","add":"2017-02-03 07:36:24","orig_title":"Doktor","year":"2012-08-16","translations":["Оригинальная дорожка"],"quality":"hdtv","translation":"Оригинальная дорожка","update":"2017-02-08 11:19:30","iframe_src":"//7741.svetacdn.in/si4jsFRrtgrT/movie/9401"},{"id":9400,"title":"Шалопай","kp_id":"29820","imdb_id":"tt0089601","world_art_id":null,"type":"movie","add":"2017-02-03 07:33:11","orig_title":"Mischief","year":"1985-02-08","translations":["Профессиональный (двухголосый закадровый)"],"quality":"webdl","translation":"Профессиональный (двухголосый закадровый)","update":"2017-02-08 11:19:31","iframe_src":"//7741.svetacdn.in/si4jsFRrtgrT/movie/9400"},{"id":9398,"title":"Принц-медведь","kp_id":"920290","imdb_id":"tt4733142","world_art_id":null,"type":"movie","add":"2017-02-03 07:29:39","orig_title":"Der Prinz im Bärenfell","year":"2015-12-26","translations":["Профессиональный (многоголосый закадровый) (Игмар)"],"quality":"hdtv","translation":"Профессиональный (многоголосый закадровый) (Игмар)","update":"2017-02-08 11:19:31","iframe_src":"//7741.svetacdn.in/si4jsFRrtgrT/movie/9398"},{"id":9396,"title":"Команда Шарки","kp_id":"31316","imdb_id":"tt0083064","world_art_id":null,"type":"movie","add":"2017-02-03 07:21:40","orig_title":"Sharky's Machine","year":"1981-12-18","translations":["Профессиональный (многоголосый)"],"quality":"bd","translation":"Профессиональный (многоголосый)","update":"2017-02-08 11:18:57","iframe_src":"//7741.svetacdn.in/si4jsFRrtgrT/movie/9396"}],"current_page":2529,"first_page_url":"https://videocdn.tv/api/short?limit=100&api_token=X6EwAUfE5M9xbo7y0Bp0aPf3uXxG2KLL&cache32529=32529&page=1","from":252801,"last_page":706,"last_page_url":"https://videocdn.tv/api/short?limit=100&api_token=X6EwAUfE5M9xbo7y0Bp0aPf3uXxG2KLL&cache32529=32529&page=706","next_page_url":null,"path":"https://videocdn.tv/api/short","per_page":100,"prev_page_url":"https://videocdn.tv/api/short?limit=100&api_token=X6EwAUfE5M9xbo7y0Bp0aPf3uXxG2KLL&cache32529=32529&page=2528","to":252820,"total":70558}