{"result":true,"data":[{"id":48980,"title":"Нянька на ночь","kp_id":"82754","imdb_id":"tt0077732","world_art_id":null,"type":"movie","add":"2021-03-21 22:01:24","orig_title":"L'infermiera di notte","year":"1979-02-07","translations":["Любительский (одноголосый закадровый) (Andi999)"],"quality":"dvdrip","translation":"Любительский (одноголосый закадровый) (Andi999)","update":"2021-03-22 05:31:56","iframe_src":"//5322.svetacdn.in/si4jsFRrtgrT/movie/48980"},{"id":48979,"title":"Дети ночи","kp_id":"25514","imdb_id":"tt0103957","world_art_id":null,"type":"movie","add":"2021-03-21 21:55:26","orig_title":"Children of the Night","year":"1991-09-06","translations":["Авторский (одноголосый закадровый) (Дохалов Вартан)"],"quality":"dvdrip","translation":"Авторский (одноголосый закадровый) (Дохалов Вартан)","update":"2021-03-22 05:28:58","iframe_src":"//5322.svetacdn.in/si4jsFRrtgrT/movie/48979"},{"id":48972,"title":"Хьюи","kp_id":"1328753","imdb_id":"tt11347394","world_art_id":null,"type":"movie","add":"2021-03-21 12:23:21","orig_title":"Huey","year":"2021-01-08","translations":["Любительский (многоголосый закадровый) (Синема УС)"],"quality":"webdl","translation":"Любительский (многоголосый закадровый) (Синема УС)","update":"2021-03-21 15:55:42","iframe_src":"//5322.svetacdn.in/si4jsFRrtgrT/movie/48972"},{"id":48971,"title":"Зомбовирус: Заражение центрального района","kp_id":"1447555","imdb_id":"tt13392582","world_art_id":null,"type":"movie","add":"2021-03-21 10:06:14","orig_title":"Zombacter: Center City Contagion","year":"2020-11-20","translations":["Любительский (многоголосый закадровый) (Синема УС)"],"quality":"webdl","translation":"Любительский (многоголосый закадровый) (Синема УС)","update":"2021-03-21 15:26:46","iframe_src":"//5322.svetacdn.in/si4jsFRrtgrT/movie/48971"},{"id":48967,"title":"Роман на день рождения","kp_id":"1409553","imdb_id":"tt13099852","world_art_id":null,"type":"movie","add":"2021-03-20 22:36:39","orig_title":"My Birthday Romance","year":"2020-09-05","translations":["Любительский (многоголосый закадровый) (AlphaProject)"],"quality":"webdl","translation":"Любительский (многоголосый закадровый) (AlphaProject)","update":"2021-03-21 11:41:47","iframe_src":"//5322.svetacdn.in/si4jsFRrtgrT/movie/48967"},{"id":48966,"title":"Прямо перед глазами","kp_id":"980097","imdb_id":"tt5723462","world_art_id":null,"type":"movie","add":"2021-03-20 22:31:41","orig_title":"Right Before Your Eyes","year":"2019-05-11","translations":["Любительский (многоголосый закадровый) (AlphaProject)"],"quality":"webdl","translation":"Любительский (многоголосый закадровый) (AlphaProject)","update":"2021-03-21 11:40:49","iframe_src":"//5322.svetacdn.in/si4jsFRrtgrT/movie/48966"},{"id":48965,"title":"Клуб \"Ракета\"","kp_id":"896558","imdb_id":"tt3971214","world_art_id":null,"type":"movie","add":"2021-03-20 22:29:41","orig_title":"Rocket Club","year":"2019-08-23","translations":["Любительский (многоголосый закадровый) (Синема УС)"],"quality":"webdl","translation":"Любительский (многоголосый закадровый) (Синема УС)","update":"2021-03-21 11:38:56","iframe_src":"//5322.svetacdn.in/si4jsFRrtgrT/movie/48965"},{"id":48964,"title":"Счастливый конец","kp_id":"1182466","imdb_id":"tt8282582","world_art_id":null,"type":"movie","add":"2021-03-20 22:26:04","orig_title":"A Storybook Ending","year":"2020-08-04","translations":["Любительский (многоголосый закадровый) (Синема УС)"],"quality":"webdl","translation":"Любительский (многоголосый закадровый) (Синема УС)","update":"2021-03-21 11:39:45","iframe_src":"//5322.svetacdn.in/si4jsFRrtgrT/movie/48964"},{"id":48963,"title":"Хрустальный дворец пришельца","kp_id":"1050341","imdb_id":"tt7254808","world_art_id":null,"type":"movie","add":"2021-03-20 22:07:21","orig_title":"Alien Crystal Palace","year":"2018-08-25","translations":["Любительский (многоголосый закадровый) (Синема УС)"],"quality":"webdl","translation":"Любительский (многоголосый закадровый) (Синема УС)","update":"2021-03-21 13:45:30","iframe_src":"//5322.svetacdn.in/si4jsFRrtgrT/movie/48963"},{"id":48954,"title":"Полицейский-каратист","kp_id":"31582","imdb_id":"tt0102187","world_art_id":null,"type":"movie","add":"2021-03-20 20:37:38","orig_title":"Karate Cop","year":"1991-12-31","translations":["Авторский (одноголосый закадровый) (Володарский Леонид)","Авторский (одноголосый закадровый) (Гаврилов Андрей)"],"quality":"dvdrip","translation":"Авторский (одноголосый закадровый) (Володарский Леонид)","update":"2021-03-22 05:40:08","iframe_src":"//5322.svetacdn.in/si4jsFRrtgrT/movie/48954"},{"id":48943,"title":"Крик зверя","kp_id":"486195","imdb_id":"tt1517506","world_art_id":null,"type":"movie","add":"2021-03-20 15:12:47","orig_title":"Le poil de la bête","year":"2010-10-01","translations":["Профессиональный (двухголосый закадровый) (НТВ)"],"quality":"hdrip","translation":"Профессиональный (двухголосый закадровый) (НТВ)","update":"2021-03-22 05:37:02","iframe_src":"//5322.svetacdn.in/si4jsFRrtgrT/movie/48943"},{"id":48910,"title":"Сладости жизни","kp_id":"6776","imdb_id":"tt0100024","world_art_id":null,"type":"movie","add":"2021-03-19 11:36:34","orig_title":"Life Is Sweet","year":"1990-11-15","translations":["Профессиональный (двухголосый закадровый)"],"quality":"bd","translation":"Профессиональный (двухголосый закадровый)","update":"2021-03-22 05:56:27","iframe_src":"//5322.svetacdn.in/si4jsFRrtgrT/movie/48910"},{"id":48909,"title":"Мандрагора","kp_id":"26982","imdb_id":"tt0059424","world_art_id":null,"type":"movie","add":"2021-03-19 09:32:11","orig_title":"La mandragola","year":"1965-11-18","translations":["Любительский (двухголосый закадровый) (DeadSno & den904)"],"quality":"dvdrip","translation":"Любительский (двухголосый закадровый) (DeadSno & den904)","update":"2021-03-22 05:54:56","iframe_src":"//5322.svetacdn.in/si4jsFRrtgrT/movie/48909"},{"id":48908,"title":"Дю Геклен","kp_id":"205819","imdb_id":"tt0040304","world_art_id":null,"type":"movie","add":"2021-03-19 09:26:44","orig_title":"Du Guesclin","year":"1949-06-03","translations":["Любительский (одноголосый закадровый) (Линда)"],"quality":"dvdrip","translation":"Любительский (одноголосый закадровый) (Линда)","update":"2021-03-22 05:53:10","iframe_src":"//5322.svetacdn.in/si4jsFRrtgrT/movie/48908"},{"id":48906,"title":"Великолепная погоня","kp_id":"274119","imdb_id":"tt0329257","world_art_id":null,"type":"movie","add":"2021-03-19 09:14:36","orig_title":"Karei-naru tsuiseki","year":"1975-04-26","translations":["Любительский (одноголосый закадровый) (Береговых Виктор | Jet)"],"quality":"hdtv","translation":"Любительский (одноголосый закадровый) (Береговых Виктор | Jet)","update":"2021-03-22 05:51:41","iframe_src":"//5322.svetacdn.in/si4jsFRrtgrT/movie/48906"},{"id":48904,"title":"Опасный Джонни","kp_id":"11887","imdb_id":"tt0087507","world_art_id":null,"type":"movie","add":"2021-03-19 06:04:26","orig_title":"Johnny Dangerously","year":"1984-12-21","translations":["Профессиональный (многоголосый закадровый)"],"quality":"webdl","translation":"Профессиональный (многоголосый закадровый)","update":"2021-03-22 05:42:23","iframe_src":"//5322.svetacdn.in/si4jsFRrtgrT/movie/48904"},{"id":48056,"title":"Аферистка","kp_id":"1248786","imdb_id":"tt9893250","world_art_id":null,"type":"movie","add":"2021-02-19 08:49:30","orig_title":"I Care a Lot","year":"2020-09-12","translations":["Original (English)","Полное дублирование (Netflix)","Полное дублирование (iTunes)"],"quality":"webdl","translation":"Original (English)","update":"2021-03-21 16:04:15","iframe_src":"//5322.svetacdn.in/si4jsFRrtgrT/movie/48056"},{"id":46375,"title":"Восхождение","kp_id":"1168534","imdb_id":"tt8637440","world_art_id":null,"type":"movie","add":"2020-12-25 18:09:31","orig_title":"The Climb","year":"2019-05-17","translations":["Профессиональный (многоголосый закадровый) (iTunes)","Original (English)"],"quality":"webdl","translation":"Профессиональный (многоголосый закадровый) (iTunes)","update":"2021-03-22 06:47:06","iframe_src":"//5322.svetacdn.in/si4jsFRrtgrT/movie/46375"},{"id":45444,"title":"Латинский киллер","kp_id":"1411545","imdb_id":"tt13051214","world_art_id":null,"type":"movie","add":"2020-11-19 14:43:34","orig_title":"Latin Hitman","year":"2020-11-01","translations":["Original (English)","Любительский (многоголосый закадровый) (Синема УС)"],"quality":"webdl","translation":"Original (English)","update":"2021-03-21 11:38:24","iframe_src":"//5322.svetacdn.in/si4jsFRrtgrT/movie/45444"},{"id":8842,"title":"Просто представь, что мы знаем","kp_id":"1355058","imdb_id":"tt11966878","world_art_id":null,"type":"serial","add":"2020-09-25 18:40:43","orig_title":"Just Imagine Things We Know","year":"2020-09-24","translations":["Оригинальная дорожка"],"seasons_count":1,"episodes_count":4,"episodes":4,"update":"2020-09-25 21:32:37","iframe_src":"//5322.svetacdn.in/si4jsFRrtgrT/tv-series/8842"},{"id":8838,"title":"Апогей духовной зимы","kp_id":"931131","imdb_id":"tt4853930","world_art_id":null,"type":"serial","add":"2020-09-25 08:29:21","orig_title":"Midwinter of the Spirit","year":"2015-09-23","translations":["Профессиональный (двухголосый закадровый) (ViruseProject)"],"seasons_count":1,"episodes_count":3,"episodes":3,"update":"2020-09-25 12:27:53","iframe_src":"//5322.svetacdn.in/si4jsFRrtgrT/tv-series/8838"},{"id":8837,"title":"Возвращение в Брайдсхед","kp_id":"81232","imdb_id":"tt0083390","world_art_id":null,"type":"serial","add":"2020-09-24 15:51:05","orig_title":"Brideshead Revisited","year":"1981-10-12","translations":["Профессиональный (многоголосый закадровый)"],"seasons_count":1,"episodes_count":11,"episodes":11,"update":"2020-09-24 20:58:57","iframe_src":"//5322.svetacdn.in/si4jsFRrtgrT/tv-series/8837"},{"id":8835,"title":"Грязеземье","kp_id":"574267","imdb_id":"tt1623133","world_art_id":null,"type":"serial","add":"2020-09-24 10:01:51","orig_title":"Muddle Earth","year":"2010-03-15","translations":["Полное дублирование"],"seasons_count":2,"episodes_count":26,"episodes":13,"update":"2020-09-26 06:18:06","iframe_src":"//5322.svetacdn.in/si4jsFRrtgrT/tv-series/8835"},{"id":8831,"title":"Ведьмин клинок","kp_id":"230362","imdb_id":"tt0274298","world_art_id":null,"type":"serial","add":"2020-09-24 07:20:38","orig_title":"Witchblade","year":"2001-06-12","translations":["Профессиональный (многоголосый закадровый)"],"seasons_count":2,"episodes_count":24,"episodes":12,"update":"2020-09-26 06:04:38","iframe_src":"//5322.svetacdn.in/si4jsFRrtgrT/tv-series/8831"},{"id":8828,"title":"Суровые меры","kp_id":"1405948","imdb_id":"tt12701270","world_art_id":null,"type":"serial","add":"2020-09-23 22:32:48","orig_title":"Crackdown","year":"2020-09-23","translations":["Любительский (многоголосый закадровый) (Octopus)"],"seasons_count":1,"episodes_count":8,"episodes":8,"update":"2020-09-24 15:34:30","iframe_src":"//5322.svetacdn.in/si4jsFRrtgrT/tv-series/8828"},{"id":8770,"title":"Рубеж: Внутренняя осада","kp_id":"1392657","imdb_id":"tt12392458","world_art_id":null,"type":"serial","add":"2020-09-17 14:38:43","orig_title":"Avrodh the Siege Within","year":"2020-07-31","translations":["Любительский (многоголосый закадровый) (Octopus)"],"seasons_count":1,"episodes_count":8,"episodes":8,"update":"2020-09-24 19:41:59","iframe_src":"//5322.svetacdn.in/si4jsFRrtgrT/tv-series/8770"},{"id":8768,"title":"Плоть","kp_id":"1246318","imdb_id":"tt9875006","world_art_id":null,"type":"serial","add":"2020-09-17 14:34:30","orig_title":"Flesh","year":"2020-08-21","translations":["Любительский (многоголосый закадровый) (Octopus)"],"seasons_count":1,"episodes_count":8,"episodes":8,"update":"2020-09-24 15:29:14","iframe_src":"//5322.svetacdn.in/si4jsFRrtgrT/tv-series/8768"},{"id":8728,"title":"Шифр 2","kp_id":"1378869","imdb_id":null,"world_art_id":null,"type":"serial","add":"2020-09-14 13:36:12","orig_title":"Шифр 2","year":"2020-09-14","translations":["Оригинальная дорожка"],"seasons_count":1,"episodes_count":8,"episodes":8,"update":"2020-09-25 05:37:32","iframe_src":"//5322.svetacdn.in/si4jsFRrtgrT/tv-series/8728"},{"id":8726,"title":"Покойо","kp_id":"667269","imdb_id":"tt0487849","world_art_id":null,"type":"serial","add":"2020-09-14 10:41:33","orig_title":"Pocoyo","year":"2005-01-01","translations":["Полное дублирование"],"seasons_count":2,"episodes_count":104,"episodes":52,"update":"2020-09-25 15:47:06","iframe_src":"//5322.svetacdn.in/si4jsFRrtgrT/tv-series/8726"},{"id":8681,"title":"Манхэттенская любовная история","kp_id":"477598","imdb_id":"tt0420426","world_art_id":null,"type":"serial","add":"2020-09-10 07:42:32","orig_title":"Manhattan rabu stôrî","year":"2003-10-09","translations":["Любительский (одноголосый закадровый) (GREEN TEA)"],"seasons_count":1,"episodes_count":11,"episodes":11,"update":"2020-09-25 18:40:01","iframe_src":"//5322.svetacdn.in/si4jsFRrtgrT/tv-series/8681"},{"id":8680,"title":"Прошу внимания","kp_id":"321834","imdb_id":"tt0765424","world_art_id":null,"type":"serial","add":"2020-09-10 07:40:15","orig_title":"Atenshon purizu","year":"2006-04-18","translations":["Любительский (одноголосый закадровый) (GREEN TEA)"],"seasons_count":1,"episodes_count":11,"episodes":11,"update":"2020-09-25 06:51:31","iframe_src":"//5322.svetacdn.in/si4jsFRrtgrT/tv-series/8680"},{"id":8606,"title":"Успеть за две недели","kp_id":"1289949","imdb_id":"tt6075088","world_art_id":null,"type":"serial","add":"2020-09-02 11:20:03","orig_title":"Two Weeks to Live","year":"2020-09-02","translations":["Любительский (многоголосый закадровый) (Octopus)","Профессиональный (двухголосый закадровый) (IdeaFilm)","Профессиональный (двухголосый закадровый) (Gears Media)","Любительский (многоголосый закадровый) (ColdFilm)","Профессиональный (многоголосый закадровый) (Кравец)"],"seasons_count":1,"episodes_count":6,"episodes":6,"update":"2020-09-25 11:04:41","iframe_src":"//5322.svetacdn.in/si4jsFRrtgrT/tv-series/8606"},{"id":6229,"title":"Неполноценные люди","kp_id":"1262867","imdb_id":"tt11227980","world_art_id":null,"type":"serial","add":"2020-01-04 07:40:14","orig_title":"Hajaittneun ingandeul","year":"2019-11-27","translations":["Любительский (двухголосый закадровый) (SoftBox)","Любительский (одноголосый закадровый) (GREEN TEA)"],"seasons_count":1,"episodes_count":16,"episodes":16,"update":"2020-09-24 16:01:56","iframe_src":"//5322.svetacdn.in/si4jsFRrtgrT/tv-series/6229"},{"id":4801,"title":"Её личная жизнь","kp_id":"1234916","imdb_id":"tt9899340","world_art_id":null,"type":"serial","add":"2019-07-05 15:38:25","orig_title":"Geunyeoui Sasaenghwal","year":"2019-04-10","translations":["Любительский (двухголосый закадровый) (Храм Дорам ТВ)","Профессиональный (многоголосый закадровый) (Мобильное телевидение)"],"seasons_count":1,"episodes_count":16,"episodes":16,"update":"2020-09-25 13:31:27","iframe_src":"//5322.svetacdn.in/si4jsFRrtgrT/tv-series/4801"},{"id":21017,"title":"Дебошир","kp_id":"962077","imdb_id":"tt5471472","world_art_id":null,"type":"movie","add":"2018-12-26 05:36:06","orig_title":"The Brawler","year":"2019-01-18","translations":["Любительский (многоголосый закадровый) (Синема УС)","Любительский (двухголосый закадровый) (LakeFilms)","Полное дублирование (iTunes)","Original (English)"],"quality":"webdl","translation":"Любительский (многоголосый закадровый) (Синема УС)","update":"2021-03-22 06:48:17","iframe_src":"//5322.svetacdn.in/si4jsFRrtgrT/movie/21017"},{"id":3536,"title":"СеняФедя","kp_id":"1171650","imdb_id":"tt9296592","world_art_id":null,"type":"serial","add":"2018-11-19 11:57:20","orig_title":"СеняФедя","year":"2018-11-19","translations":["Оригинальная дорожка"],"seasons_count":4,"episodes_count":57,"episodes":17,"update":"2020-09-24 15:27:07","iframe_src":"//5322.svetacdn.in/si4jsFRrtgrT/tv-series/3536"},{"id":3150,"title":"Пресса","kp_id":"1184877","imdb_id":"tt7547518","world_art_id":null,"type":"serial","add":"2018-09-10 08:26:54","orig_title":"Press","year":"2018-09-06","translations":["Любительский (двухголосый закадровый) (Sunshine Studio)","Профессиональный (многоголосый закадровый) (NewStudio)","Профессиональный (многоголосый закадровый) (HDrezka Studio)"],"seasons_count":1,"episodes_count":6,"episodes":6,"update":"2020-09-24 12:11:20","iframe_src":"//5322.svetacdn.in/si4jsFRrtgrT/tv-series/3150"},{"id":3129,"title":"Я Фрэнки","kp_id":"1048564","imdb_id":"tt5620962","world_art_id":null,"type":"serial","add":"2018-09-06 04:52:57","orig_title":"I Am Frankie","year":"2017-09-04","translations":["Любительский (многоголосый закадровый) (ColdFilm)","Полное дублирование (Кипарис)","Полное дублирование","Профессиональный (многоголосый закадровый) (ColdFilm)"],"seasons_count":2,"episodes_count":40,"episodes":21,"update":"2020-09-25 04:01:18","iframe_src":"//5322.svetacdn.in/si4jsFRrtgrT/tv-series/3129"},{"id":1253,"title":"Доярка из Хацапетовки 3","kp_id":"600824","imdb_id":"tt2180923","world_art_id":null,"type":"serial","add":"2017-05-18 08:58:36","orig_title":"Doyarka iz Khatsapetovki III","year":"2011-07-25","translations":["Оригинальная дорожка"],"seasons_count":1,"episodes_count":16,"episodes":16,"update":"2020-09-25 15:55:26","iframe_src":"//5322.svetacdn.in/si4jsFRrtgrT/tv-series/1253"},{"id":494,"title":"Ольга","kp_id":"940680","imdb_id":"tt6481562","world_art_id":null,"type":"serial","add":"2016-09-30 08:14:28","orig_title":"Olga","year":"2016-09-05","translations":["Оригинальная дорожка"],"seasons_count":4,"episodes_count":74,"episodes":18,"update":"2020-09-25 05:36:38","iframe_src":"//5322.svetacdn.in/si4jsFRrtgrT/tv-series/494"}],"current_page":128,"first_page_url":"https://videocdn.tv/api/short?limit=100&api_token=X6EwAUfE5M9xbo7y0Bp0aPf3uXxG2KLL&cache3128=3128&page=1","from":12701,"last_page":620,"last_page_url":"https://videocdn.tv/api/short?limit=100&api_token=X6EwAUfE5M9xbo7y0Bp0aPf3uXxG2KLL&cache3128=3128&page=620","next_page_url":"https://videocdn.tv/api/short?limit=100&api_token=X6EwAUfE5M9xbo7y0Bp0aPf3uXxG2KLL&cache3128=3128&page=129","path":"https://videocdn.tv/api/short","per_page":100,"prev_page_url":"https://videocdn.tv/api/short?limit=100&api_token=X6EwAUfE5M9xbo7y0Bp0aPf3uXxG2KLL&cache3128=3128&page=127","to":12740,"total":62000}