{"result":true,"data":[{"id":52468,"title":"Скандал","kp_id":"1409429","imdb_id":"tt13068388","world_art_id":null,"type":"movie","add":"2021-08-16 15:57:44","orig_title":"Vacarme","year":"2020-11-10","translations":["Любительский (многоголосый закадровый) (Синема УС)"],"quality":"webdl","translation":"Любительский (многоголосый закадровый) (Синема УС)","update":"2021-08-16 20:17:43","iframe_src":"//7741.svetacdn.in/si4jsFRrtgrT/movie/52468"},{"id":52467,"title":"Кот, мечтающий о севере","kp_id":null,"imdb_id":"tt13988482","world_art_id":null,"type":"movie","add":"2021-08-16 15:51:52","orig_title":"Un Chat Rêve Du Nord","year":"2020-01-01","translations":["Любительский (многоголосый закадровый) (Синема УС)"],"quality":"webdl","translation":"Любительский (многоголосый закадровый) (Синема УС)","update":"2021-08-16 20:17:06","iframe_src":"//7741.svetacdn.in/si4jsFRrtgrT/movie/52467"},{"id":52466,"title":"Обручальное Кольцо","kp_id":"4368703","imdb_id":"tt13888054","world_art_id":null,"type":"movie","add":"2021-08-16 15:46:15","orig_title":"A Wedding Ring","year":"2021-03-11","translations":["Любительский (многоголосый закадровый) (AlphaProject)"],"quality":"webdl","translation":"Любительский (многоголосый закадровый) (AlphaProject)","update":"2021-08-16 20:16:40","iframe_src":"//7741.svetacdn.in/si4jsFRrtgrT/movie/52466"},{"id":52465,"title":"Естественный свет","kp_id":"1345290","imdb_id":"tt11681056","world_art_id":null,"type":"movie","add":"2021-08-16 15:44:31","orig_title":"Természetes fény","year":"2021-05-31","translations":["Любительский (многоголосый закадровый) (AlphaProject)"],"quality":"webdl","translation":"Любительский (многоголосый закадровый) (AlphaProject)","update":"2021-08-16 20:16:13","iframe_src":"//7741.svetacdn.in/si4jsFRrtgrT/movie/52465"},{"id":52461,"title":"Когда исчезло солнце","kp_id":null,"imdb_id":"tt12593404","world_art_id":null,"type":"movie","add":"2021-08-16 15:23:10","orig_title":"Covered Sun","year":"2020-01-01","translations":["Любительский (многоголосый закадровый) (Синема УС)"],"quality":"dvdrip","translation":"Любительский (многоголосый закадровый) (Синема УС)","update":"2021-08-16 20:14:49","iframe_src":"//7741.svetacdn.in/si4jsFRrtgrT/movie/52461"},{"id":52459,"title":"Под землёй","kp_id":null,"imdb_id":"tt14355874","world_art_id":null,"type":"movie","add":"2021-08-16 15:16:55","orig_title":"Subterrânea","year":"2020-01-01","translations":["Любительский (многоголосый закадровый) (Синема УС)"],"quality":"webdl","translation":"Любительский (многоголосый закадровый) (Синема УС)","update":"2021-08-16 20:15:24","iframe_src":"//7741.svetacdn.in/si4jsFRrtgrT/movie/52459"},{"id":52457,"title":"Убийство","kp_id":"1407503","imdb_id":"tt12592664","world_art_id":null,"type":"movie","add":"2021-08-16 14:55:41","orig_title":"Murder","year":"2020-12-24","translations":["Любительский (многоголосый закадровый) (Синема УС)"],"quality":"webdl","translation":"Любительский (многоголосый закадровый) (Синема УС)","update":"2021-08-17 02:03:21","iframe_src":"//7741.svetacdn.in/si4jsFRrtgrT/movie/52457"},{"id":52455,"title":"Лондон убивает меня","kp_id":"5880","imdb_id":"tt0102328","world_art_id":null,"type":"movie","add":"2021-08-16 13:40:44","orig_title":"London Kills Me","year":"1991-11-20","translations":["[EN] Original (English)","Авторский (одноголосый закадровый) (Живов Юрий)"],"quality":"bd","translation":"[EN] Original (English)","update":"2021-08-17 06:31:41","iframe_src":"//7741.svetacdn.in/si4jsFRrtgrT/movie/52455"},{"id":52454,"title":"Лак для волос","kp_id":"18385","imdb_id":"tt0095270","world_art_id":null,"type":"movie","add":"2021-08-16 13:38:10","orig_title":"Hairspray","year":"1988-02-16","translations":["[EN] Original (English)","Авторский (одноголосый закадровый) (Алексеев Антон)"],"quality":"webdl","translation":"[EN] Original (English)","update":"2021-08-17 07:16:44","iframe_src":"//7741.svetacdn.in/si4jsFRrtgrT/movie/52454"},{"id":52375,"title":"Эббот и Костелло встречают человека-невидимку","kp_id":"199983","imdb_id":"tt0043255","world_art_id":null,"type":"movie","add":"2021-08-11 17:30:53","orig_title":"Bud Abbott and Lou Costello Meet the Invisible Man","year":"1951-03-07","translations":["Любительский (одноголосый закадровый)"],"quality":"webdl","translation":"Любительский (одноголосый закадровый)","update":"2021-08-16 19:57:07","iframe_src":"//7741.svetacdn.in/si4jsFRrtgrT/movie/52375"},{"id":41019,"title":"Роботрикс","kp_id":"56100","imdb_id":"tt0102562","world_art_id":null,"type":"movie","add":"2020-06-07 19:36:13","orig_title":"Nu ji xie ren","year":"1991-05-31","translations":["Любительский (одноголосый закадровый) (Акира | Хохлов Борис)","Любительский (одноголосый закадровый) (allecs2010)"],"quality":"bd","translation":"Любительский (одноголосый закадровый) (Акира | Хохлов Борис)","update":"2021-08-17 06:25:41","iframe_src":"//7741.svetacdn.in/si4jsFRrtgrT/movie/41019"},{"id":34289,"title":"Экспресс миллионеров","kp_id":"28590","imdb_id":"tt0091091","world_art_id":null,"type":"movie","add":"2019-12-19 22:40:46","orig_title":"Foo gwai lit che","year":"1986-01-30","translations":["Любительский (одноголосый закадровый)","Авторский (одноголосый закадровый) (Горчаков Василий)"],"quality":"bd","translation":"Любительский (одноголосый закадровый)","update":"2021-08-17 07:02:34","iframe_src":"//7741.svetacdn.in/si4jsFRrtgrT/movie/34289"},{"id":6056,"title":"Жанна Д'Арк","kp_id":"79439","imdb_id":"tt0178145","world_art_id":null,"type":"serial","add":"2019-12-16 07:48:06","orig_title":"Joan of Arc","year":"1999-05-16","translations":["Профессиональный (многоголосый закадровый)"],"seasons_count":1,"episodes_count":2,"episodes":2,"update":"2019-12-16 11:37:28","iframe_src":"//7741.svetacdn.in/si4jsFRrtgrT/tv-series/6056"},{"id":6055,"title":"Другое измерение","kp_id":"161274","imdb_id":"tt0142035","world_art_id":null,"type":"serial","add":"2019-12-16 07:15:52","orig_title":"Eerie, Indiana: The Other Dimension","year":"1998-02-07","translations":["Профессиональный (многоголосый закадровый) (HDrezka Studio)"],"seasons_count":1,"episodes_count":15,"episodes":15,"update":"2019-12-16 11:26:32","iframe_src":"//7741.svetacdn.in/si4jsFRrtgrT/tv-series/6055"},{"id":6053,"title":"Некрасивая подружка","kp_id":"1314718","imdb_id":null,"world_art_id":null,"type":"serial","add":"2019-12-15 18:14:28","orig_title":"Некрасивая подружка","year":"2019-12-15","translations":["Оригинальная дорожка"],"seasons_count":1,"episodes_count":4,"episodes":4,"update":"2019-12-16 11:03:56","iframe_src":"//7741.svetacdn.in/si4jsFRrtgrT/tv-series/6053"},{"id":6052,"title":"Моя идеальная мама","kp_id":"1309525","imdb_id":null,"world_art_id":null,"type":"serial","add":"2019-12-15 18:04:42","orig_title":"Моя идеальная мама","year":"2019-03-16","translations":["Оригинальная дорожка"],"seasons_count":1,"episodes_count":4,"episodes":4,"update":"2019-12-16 14:33:17","iframe_src":"//7741.svetacdn.in/si4jsFRrtgrT/tv-series/6052"},{"id":6051,"title":"Северное сияние. Когда мертвые возвращаются","kp_id":"1291205","imdb_id":null,"world_art_id":null,"type":"serial","add":"2019-12-14 13:58:35","orig_title":"Северное сияние. Когда мертвые возвращаются","year":"2019-01-01","translations":["Оригинальная дорожка"],"seasons_count":1,"episodes_count":2,"episodes":2,"update":"2019-12-16 09:23:28","iframe_src":"//7741.svetacdn.in/si4jsFRrtgrT/tv-series/6051"},{"id":6045,"title":"Великий Мерлин","kp_id":"77213","imdb_id":"tt0130414","world_art_id":null,"type":"serial","add":"2019-12-13 19:06:51","orig_title":"Merlin","year":"1998-04-26","translations":["Профессиональный (многоголосый закадровый) (НТВ)"],"seasons_count":1,"episodes_count":2,"episodes":2,"update":"2019-12-13 21:35:34","iframe_src":"//7741.svetacdn.in/si4jsFRrtgrT/tv-series/6045"},{"id":6044,"title":"Пятница 13","kp_id":"231925","imdb_id":"tt0092357","world_art_id":null,"type":"serial","add":"2019-12-13 12:57:57","orig_title":"Friday the 13th: The Series","year":"1987-10-03","translations":["Профессиональный (многоголосый закадровый) (CBS Drama)"],"seasons_count":3,"episodes_count":71,"episodes":19,"update":"2019-12-13 21:32:59","iframe_src":"//7741.svetacdn.in/si4jsFRrtgrT/tv-series/6044"},{"id":6043,"title":"Бульварное кольцо","kp_id":"842807","imdb_id":"tt9108698","world_art_id":null,"type":"serial","add":"2019-12-13 12:50:14","orig_title":"Bulvarnoye koltso","year":"2015-11-27","translations":["Оригинальная дорожка"],"seasons_count":1,"episodes_count":4,"episodes":4,"update":"2019-12-13 20:42:36","iframe_src":"//7741.svetacdn.in/si4jsFRrtgrT/tv-series/6043"},{"id":6039,"title":"Хиромант 2","kp_id":"497688","imdb_id":null,"world_art_id":null,"type":"serial","add":"2019-12-13 06:21:07","orig_title":"Хиромант 2","year":"2007-01-01","translations":["Оригинальная дорожка"],"seasons_count":1,"episodes_count":12,"episodes":12,"update":"2019-12-14 14:42:49","iframe_src":"//7741.svetacdn.in/si4jsFRrtgrT/tv-series/6039"},{"id":6033,"title":"Кабачок «13 стульев»","kp_id":"450174","imdb_id":"tt0366040","world_art_id":null,"type":"serial","add":"2019-12-12 14:44:09","orig_title":"Kabachok 13 stulev","year":"1966-01-16","translations":["Оригинальная дорожка"],"seasons_count":1,"episodes_count":9,"episodes":9,"update":"2019-12-13 20:29:57","iframe_src":"//7741.svetacdn.in/si4jsFRrtgrT/tv-series/6033"},{"id":6026,"title":"Мисс Дьявол","kp_id":"1126585","imdb_id":"tt8286318","world_art_id":null,"type":"serial","add":"2019-12-12 14:27:33","orig_title":"Miss Devil","year":"2018-04-14","translations":["Любительский (двухголосый закадровый) (Voice Project Studio)"],"seasons_count":1,"episodes_count":10,"episodes":10,"update":"2019-12-13 20:25:40","iframe_src":"//7741.svetacdn.in/si4jsFRrtgrT/tv-series/6026"},{"id":6025,"title":"Охота на пиранью","kp_id":"1204973","imdb_id":null,"world_art_id":null,"type":"serial","add":"2019-12-12 14:24:51","orig_title":"Охота на пиранью","year":"2006-11-28","translations":["Оригинальная дорожка"],"seasons_count":1,"episodes_count":4,"episodes":4,"update":"2019-12-13 20:18:07","iframe_src":"//7741.svetacdn.in/si4jsFRrtgrT/tv-series/6025"},{"id":6024,"title":"Город сверхъестественного. Индиана","kp_id":"258531","imdb_id":"tt0101088","world_art_id":null,"type":"serial","add":"2019-12-12 13:53:34","orig_title":"Eerie, Indiana","year":"1991-09-15","translations":["Любительский (одноголосый закадровый)","Профессиональный (многоголосый закадровый) (HDrezka Studio)","Профессиональный (многоголосый закадровый) (FOX)"],"seasons_count":1,"episodes_count":19,"episodes":19,"update":"2019-12-16 11:18:22","iframe_src":"//7741.svetacdn.in/si4jsFRrtgrT/tv-series/6024"},{"id":6023,"title":"Фронт без пощады","kp_id":"403443","imdb_id":"tt0429360","world_art_id":null,"type":"serial","add":"2019-12-12 13:41:06","orig_title":"Front ohne Gnade","year":"1984-01-06","translations":["Авторский (одноголосый закадровый) (Рутилов Виктор | fiendover | overfiend)"],"seasons_count":1,"episodes_count":13,"episodes":13,"update":"2019-12-13 19:47:19","iframe_src":"//7741.svetacdn.in/si4jsFRrtgrT/tv-series/6023"},{"id":6022,"title":"Одинокие стрелки","kp_id":"271980","imdb_id":"tt0243069","world_art_id":null,"type":"serial","add":"2019-12-12 13:30:28","orig_title":"The Lone Gunmen","year":"2001-03-04","translations":["Профессиональный (одноголосый закадровый) (Кравец)"],"seasons_count":1,"episodes_count":14,"episodes":14,"update":"2019-12-13 19:38:48","iframe_src":"//7741.svetacdn.in/si4jsFRrtgrT/tv-series/6022"},{"id":6021,"title":"Современный потрошитель","kp_id":"452968","imdb_id":"tt1186356","world_art_id":null,"type":"serial","add":"2019-12-12 13:10:10","orig_title":"Whitechapel","year":"2009-02-02","translations":["Профессиональный (многоголосый закадровый) (Fox Crime)"],"seasons_count":4,"episodes_count":18,"episodes":6,"update":"2019-12-13 19:31:26","iframe_src":"//7741.svetacdn.in/si4jsFRrtgrT/tv-series/6021"},{"id":6009,"title":"Ни слова о любви","kp_id":"1173989","imdb_id":"tt10143416","world_art_id":null,"type":"serial","add":"2019-12-11 13:00:11","orig_title":"Ni slova o lyubvi","year":"2018-03-31","translations":["Оригинальная дорожка"],"seasons_count":1,"episodes_count":4,"episodes":4,"update":"2019-12-16 14:27:09","iframe_src":"//7741.svetacdn.in/si4jsFRrtgrT/tv-series/6009"},{"id":5979,"title":"Под чужим флагом","kp_id":null,"imdb_id":"tt3602528","world_art_id":null,"type":"serial","add":"2019-12-09 09:09:47","orig_title":"Kfulim","year":"2015-10-29","translations":["Профессиональный (многоголосый закадровый) (FOX)"],"seasons_count":2,"episodes_count":18,"episodes":10,"update":"2019-12-16 18:39:07","iframe_src":"//7741.svetacdn.in/si4jsFRrtgrT/tv-series/5979"},{"id":5730,"title":"Даллас","kp_id":"161108","imdb_id":"tt0077000","world_art_id":null,"type":"serial","add":"2019-11-12 08:14:13","orig_title":"Dallas","year":"1978-04-02","translations":["Полное дублирование"],"seasons_count":14,"episodes_count":357,"episodes":23,"update":"2019-12-16 15:58:39","iframe_src":"//7741.svetacdn.in/si4jsFRrtgrT/tv-series/5730"},{"id":5177,"title":"Джамп стрит, 21","kp_id":"271510","imdb_id":"tt0092312","world_art_id":null,"type":"serial","add":"2019-09-10 06:37:34","orig_title":"21 Jump Street","year":"1987-04-12","translations":["Профессиональный (многоголосый закадровый) (HDrezka Studio)"],"seasons_count":5,"episodes_count":104,"episodes":23,"update":"2019-12-16 18:50:29","iframe_src":"//7741.svetacdn.in/si4jsFRrtgrT/tv-series/5177"},{"id":25765,"title":"Масакра","kp_id":"471946","imdb_id":"tt2165975","world_art_id":null,"type":"movie","add":"2019-04-30 19:24:54","orig_title":"Masakra","year":"2010-11-11","translations":["Оригинальная дорожка","Оригинальная дорожка"],"quality":"dvdrip","translation":"Оригинальная дорожка","update":"2021-08-17 07:24:02","iframe_src":"//7741.svetacdn.in/si4jsFRrtgrT/movie/25765"},{"id":19065,"title":"Школа зомби","kp_id":"28206","imdb_id":"tt0094383","world_art_id":null,"type":"movie","add":"2018-09-18 22:12:32","orig_title":"Zombie High","year":"1987-10-02","translations":["Любительский (одноголосый закадровый)","Любительский (одноголосый закадровый) (Sanchez)","[EN] Original (English)"],"quality":"bd","translation":"Любительский (одноголосый закадровый)","update":"2021-08-17 06:37:18","iframe_src":"//7741.svetacdn.in/si4jsFRrtgrT/movie/19065"},{"id":18223,"title":"За отдельными столиками","kp_id":"12440","imdb_id":"tt0052182","world_art_id":null,"type":"movie","add":"2018-08-11 00:50:43","orig_title":"Separate Tables","year":"1958-12-18","translations":["Профессиональный (многоголосый закадровый)","[EN] Original (English)","Профессиональный (двухголосый закадровый) (НТВ)","Профессиональный (многоголосый закадровый) (Домашний)"],"quality":"bd","translation":"Профессиональный (многоголосый закадровый)","update":"2021-08-17 07:55:59","iframe_src":"//7741.svetacdn.in/si4jsFRrtgrT/movie/18223"},{"id":12304,"title":"Морское приключение","kp_id":"5174","imdb_id":"tt0285462","world_art_id":null,"type":"movie","add":"2017-07-05 11:32:52","orig_title":"Boat Trip","year":"2002-10-04","translations":["Полное дублирование","Авторский (одноголосый закадровый) (Рудой Евгений)","Полное дублирование","[EN] Original (English)","Профессиональный (многоголосый закадровый)"],"quality":"webdl","translation":"Полное дублирование","update":"2021-08-17 07:41:15","iframe_src":"//7741.svetacdn.in/si4jsFRrtgrT/movie/12304"},{"id":8704,"title":"Кочевники","kp_id":"17472","imdb_id":"tt0091647","world_art_id":null,"type":"movie","add":"2017-01-08 10:14:27","orig_title":"Nomads","year":"1986-03-07","translations":["Профессиональный (двухголосый закадровый)","Профессиональный (двухголосый закадровый) (Cinema Prestige)","[EN] Original (English)"],"quality":"dvdrip","translation":"Профессиональный (двухголосый закадровый)","update":"2021-08-17 06:56:31","iframe_src":"//7741.svetacdn.in/si4jsFRrtgrT/movie/8704"},{"id":4771,"title":"Тёмный город","kp_id":"4739","imdb_id":"tt0118929","world_art_id":null,"type":"movie","add":"2016-08-29 07:58:39","orig_title":"Dark City","year":"1998-02-27","translations":["Профессиональный (многоголосый закадровый)","Авторский (одноголосый закадровый) (Сербин Юрий)","Авторский (одноголосый закадровый) (Живов Юрий)","[EN] Original (English)","Профессиональный (двухголосый закадровый) (Garsu Pasaulis)","Профессиональный (двухголосый закадровый) (НТВ)","Профессиональный (многоголосый закадровый) (Киномания)","Профессиональный (многоголосый закадровый) (РТР | Россия)"],"quality":"bd","translation":"Профессиональный (многоголосый закадровый)","update":"2021-08-17 07:50:21","iframe_src":"//7741.svetacdn.in/si4jsFRrtgrT/movie/4771"},{"id":4075,"title":"Матадор","kp_id":"17000","imdb_id":"tt0091495","world_art_id":null,"type":"movie","add":"2016-07-20 21:32:56","orig_title":"Matador","year":"1986-03-07","translations":["Любительский (одноголосый закадровый)","Авторский (одноголосый закадровый) (Алексеев Антон)"],"quality":"bd","translation":"Любительский (одноголосый закадровый)","update":"2021-08-17 07:04:44","iframe_src":"//7741.svetacdn.in/si4jsFRrtgrT/movie/4075"},{"id":3806,"title":"В постели с врагом","kp_id":"8157","imdb_id":"tt0102945","world_art_id":null,"type":"movie","add":"2016-07-08 14:46:59","orig_title":"Sleeping with the Enemy","year":"1991-02-04","translations":["Полное дублирование","Любительский (одноголосый закадровый) (Попов Алексей)","Авторский (одноголосый закадровый) (Прямостанов Павел)","Авторский (одноголосый закадровый) (Живов Юрий)","Полное дублирование","[EN] Original (English)","Профессиональный (двухголосый закадровый) (НТВ)","Профессиональный (двухголосый закадровый) (Премьер Видео Фильм)","Профессиональный (многоголосый закадровый) (Lazer Video | Лазер видео)","Профессиональный (многоголосый закадровый) (Первый канал | ОРТ)"],"quality":"bd","translation":"Полное дублирование","update":"2021-08-17 07:34:24","iframe_src":"//7741.svetacdn.in/si4jsFRrtgrT/movie/3806"}],"current_page":397,"first_page_url":"https://videocdn.tv/api/short?limit=100&api_token=X6EwAUfE5M9xbo7y0Bp0aPf3uXxG2KLL&cache3397=3397&page=1","from":39601,"last_page":708,"last_page_url":"https://videocdn.tv/api/short?limit=100&api_token=X6EwAUfE5M9xbo7y0Bp0aPf3uXxG2KLL&cache3397=3397&page=708","next_page_url":"https://videocdn.tv/api/short?limit=100&api_token=X6EwAUfE5M9xbo7y0Bp0aPf3uXxG2KLL&cache3397=3397&page=398","path":"https://videocdn.tv/api/short","per_page":100,"prev_page_url":"https://videocdn.tv/api/short?limit=100&api_token=X6EwAUfE5M9xbo7y0Bp0aPf3uXxG2KLL&cache3397=3397&page=396","to":39640,"total":70752}