{"result":true,"data":[{"id":19349,"title":"В ад и обратно. История Кейна Ходдера","kp_id":null,"imdb_id":"tt5654710","world_art_id":null,"type":"movie","add":"2018-10-04 00:36:00","orig_title":"To Hell and Back: The Kane Hodder Story","year":"2017-08-26","translations":["Любительский (многоголосый закадровый) (Синема УС)"],"quality":"bd","translation":"Любительский (многоголосый закадровый) (Синема УС)","update":"2018-10-04 06:21:54","iframe_src":"//5322.svetacdn.in/IAF0wWTdNYZm/movie/19349"},{"id":19348,"title":"Великий Будда +","kp_id":"1047952","imdb_id":"tt7010412","world_art_id":null,"type":"movie","add":"2018-10-04 00:33:26","orig_title":"The Great Buddha +","year":"2017-06-29","translations":["Любительский (многоголосый закадровый) (Синема УС)"],"quality":"bd","translation":"Любительский (многоголосый закадровый) (Синема УС)","update":"2018-10-04 06:23:05","iframe_src":"//5322.svetacdn.in/IAF0wWTdNYZm/movie/19348"},{"id":19347,"title":"Теннессийский виски: история Дина Диллона","kp_id":null,"imdb_id":"tt6582782","world_art_id":null,"type":"movie","add":"2018-10-04 00:32:00","orig_title":"Tennessee Whiskey: The Dean Dillon Story","year":"2017-08-30","translations":["Любительский (многоголосый закадровый) (Синема УС)"],"quality":"webdl","translation":"Любительский (многоголосый закадровый) (Синема УС)","update":"2018-10-04 06:25:42","iframe_src":"//5322.svetacdn.in/IAF0wWTdNYZm/movie/19347"},{"id":19344,"title":"Её украденное прошлое","kp_id":"1112364","imdb_id":"tt7908312","world_art_id":null,"type":"movie","add":"2018-10-04 00:27:23","orig_title":"Her Stolen Past","year":"2018-02-02","translations":["Любительский (многоголосый закадровый) (Синема УС)"],"quality":"webdl","translation":"Любительский (многоголосый закадровый) (Синема УС)","update":"2018-10-04 07:38:57","iframe_src":"//5322.svetacdn.in/IAF0wWTdNYZm/movie/19344"},{"id":19342,"title":"Куриные девочки","kp_id":"1163415","imdb_id":"tt8531740","world_art_id":null,"type":"movie","add":"2018-10-04 00:24:00","orig_title":"Chicken Girls: The Movie","year":"2018-06-29","translations":["Любительский (многоголосый закадровый) (Синема УС)"],"quality":"webdl","translation":"Любительский (многоголосый закадровый) (Синема УС)","update":"2018-10-04 07:41:42","iframe_src":"//5322.svetacdn.in/IAF0wWTdNYZm/movie/19342"},{"id":19341,"title":"Назад к хорошим временам","kp_id":"1127175","imdb_id":"tt7827658","world_art_id":null,"type":"movie","add":"2018-10-04 00:22:18","orig_title":"Hua jia da ren zhu an nan hai","year":"2018-02-09","translations":["Любительский (многоголосый закадровый) (Колобок)"],"quality":"bd","translation":"Любительский (многоголосый закадровый) (Колобок)","update":"2018-10-04 07:43:00","iframe_src":"//5322.svetacdn.in/IAF0wWTdNYZm/movie/19341"},{"id":19340,"title":"Над землёй","kp_id":"825642","imdb_id":"tt3313314","world_art_id":null,"type":"movie","add":"2018-10-04 00:20:58","orig_title":"Above Ground","year":"2017-08-26","translations":["Любительский (многоголосый закадровый) (Синема УС)"],"quality":"webdl","translation":"Любительский (многоголосый закадровый) (Синема УС)","update":"2018-10-04 07:44:24","iframe_src":"//5322.svetacdn.in/IAF0wWTdNYZm/movie/19340"},{"id":19264,"title":"Ангел света","kp_id":"266955","imdb_id":"tt0857376","world_art_id":null,"type":"movie","add":"2018-09-29 10:34:35","orig_title":"Gabriel","year":"2007-11-15","translations":["Профессиональный (многоголосый закадровый)"],"quality":"webdl","translation":"Профессиональный (многоголосый закадровый)","update":"2018-10-05 07:34:33","iframe_src":"//5322.svetacdn.in/IAF0wWTdNYZm/movie/19264"},{"id":19263,"title":"Закусочная смерти","kp_id":"164198","imdb_id":"tt0466766","world_art_id":null,"type":"movie","add":"2018-09-29 10:33:46","orig_title":"Drive Thru","year":"2007-03-01","translations":["Профессиональный (многоголосый закадровый)"],"quality":"webdl","translation":"Профессиональный (многоголосый закадровый)","update":"2018-10-05 07:33:19","iframe_src":"//5322.svetacdn.in/IAF0wWTdNYZm/movie/19263"},{"id":19262,"title":"Поцелуй мамочку на ночь","kp_id":"675899","imdb_id":"tt2328549","world_art_id":null,"type":"movie","add":"2018-09-29 10:32:54","orig_title":"Dark Touch","year":"2013-04-18","translations":["Профессиональный (многоголосый закадровый)"],"quality":"webdl","translation":"Профессиональный (многоголосый закадровый)","update":"2018-10-05 07:32:18","iframe_src":"//5322.svetacdn.in/IAF0wWTdNYZm/movie/19262"},{"id":19259,"title":"Остров доктора Моро","kp_id":"19194","imdb_id":"tt0076210","world_art_id":null,"type":"movie","add":"2018-09-28 11:38:24","orig_title":"The Island of Dr. Moreau","year":"1977-07-13","translations":["Профессиональный (многоголосый закадровый)"],"quality":"bd","translation":"Профессиональный (многоголосый закадровый)","update":"2018-10-04 07:58:13","iframe_src":"//5322.svetacdn.in/IAF0wWTdNYZm/movie/19259"},{"id":19258,"title":"Смоки и Бандит 3","kp_id":"31315","imdb_id":"tt0086325","world_art_id":null,"type":"movie","add":"2018-09-28 11:37:29","orig_title":"Smokey and the Bandit Part 3","year":"1983-08-12","translations":["Профессиональный (многоголосый закадровый)"],"quality":"bd","translation":"Профессиональный (многоголосый закадровый)","update":"2018-10-04 07:56:47","iframe_src":"//5322.svetacdn.in/IAF0wWTdNYZm/movie/19258"},{"id":19257,"title":"Смоки и Бандит 2","kp_id":"4094","imdb_id":"tt0081529","world_art_id":null,"type":"movie","add":"2018-09-28 11:36:31","orig_title":"Smokey and the Bandit II","year":"1980-08-15","translations":["Профессиональный (многоголосый закадровый)"],"quality":"bd","translation":"Профессиональный (многоголосый закадровый)","update":"2018-10-04 07:55:11","iframe_src":"//5322.svetacdn.in/IAF0wWTdNYZm/movie/19257"},{"id":19256,"title":"Смоки и Бандит","kp_id":"8140","imdb_id":"tt0076729","world_art_id":null,"type":"movie","add":"2018-09-28 11:35:27","orig_title":"Smokey and the Bandit","year":"1977-05-19","translations":["Профессиональный (многоголосый закадровый)"],"quality":"bd","translation":"Профессиональный (многоголосый закадровый)","update":"2018-10-04 07:54:17","iframe_src":"//5322.svetacdn.in/IAF0wWTdNYZm/movie/19256"},{"id":19255,"title":"Баския","kp_id":"6724","imdb_id":"tt0115632","world_art_id":null,"type":"movie","add":"2018-09-28 11:34:16","orig_title":"Basquiat","year":"1996-08-09","translations":["Профессиональный (многоголосый закадровый)"],"quality":"bd","translation":"Профессиональный (многоголосый закадровый)","update":"2018-10-04 07:53:33","iframe_src":"//5322.svetacdn.in/IAF0wWTdNYZm/movie/19255"},{"id":19254,"title":"Дом войны","kp_id":"648457","imdb_id":"tt2112331","world_art_id":null,"type":"movie","add":"2018-09-28 11:33:04","orig_title":"Warhouse","year":"2013-10-29","translations":["Профессиональный (двухголосый закадровый) (НТВ)"],"quality":"webdl","translation":"Профессиональный (двухголосый закадровый) (НТВ)","update":"2018-10-04 07:52:40","iframe_src":"//5322.svetacdn.in/IAF0wWTdNYZm/movie/19254"},{"id":19253,"title":"Саймон говорит","kp_id":"171895","imdb_id":"tt0458480","world_art_id":null,"type":"movie","add":"2018-09-28 11:31:45","orig_title":"Simon Says","year":"2006-09-24","translations":["Профессиональный (двухголосый закадровый)"],"quality":"webdl","translation":"Профессиональный (двухголосый закадровый)","update":"2018-10-04 07:51:14","iframe_src":"//5322.svetacdn.in/IAF0wWTdNYZm/movie/19253"},{"id":19252,"title":"Ночные небеса","kp_id":"189707","imdb_id":"tt0460883","world_art_id":null,"type":"movie","add":"2018-09-28 11:30:55","orig_title":"Night Skies","year":"2007-01-23","translations":["Профессиональный (двухголосый закадровый)"],"quality":"webdl","translation":"Профессиональный (двухголосый закадровый)","update":"2018-10-03 14:27:18","iframe_src":"//5322.svetacdn.in/IAF0wWTdNYZm/movie/19252"},{"id":19251,"title":"Подделка","kp_id":"18192","imdb_id":"tt0113037","world_art_id":null,"type":"movie","add":"2018-09-28 11:30:05","orig_title":"Kounterfeit","year":"1996-11-15","translations":["Профессиональный (двухголосый закадровый)"],"quality":"webdl","translation":"Профессиональный (двухголосый закадровый)","update":"2018-10-03 14:26:11","iframe_src":"//5322.svetacdn.in/IAF0wWTdNYZm/movie/19251"},{"id":19250,"title":"Сновидения","kp_id":"6290","imdb_id":"tt0120710","world_art_id":null,"type":"movie","add":"2018-09-28 11:28:32","orig_title":"In Dreams","year":"1999-01-06","translations":["Профессиональный (двухголосый закадровый)"],"quality":"webdl","translation":"Профессиональный (двухголосый закадровый)","update":"2018-10-03 14:24:52","iframe_src":"//5322.svetacdn.in/IAF0wWTdNYZm/movie/19250"}],"current_page":1737,"first_page_url":"https://videocdn.tv/api/short?limit=100&api_token=6Onb1W1alEUrBcKJZD3GoKBbWyAl2uG2&cache31737=31737&page=1","from":173601,"last_page":625,"last_page_url":"https://videocdn.tv/api/short?limit=100&api_token=6Onb1W1alEUrBcKJZD3GoKBbWyAl2uG2&cache31737=31737&page=625","next_page_url":null,"path":"https://videocdn.tv/api/short","per_page":100,"prev_page_url":"https://videocdn.tv/api/short?limit=100&api_token=6Onb1W1alEUrBcKJZD3GoKBbWyAl2uG2&cache31737=31737&page=1736","to":173620,"total":62484}