{"result":true,"data":[{"id":25516,"title":"Дядя Миша","kp_id":"44367","imdb_id":"tt0218169","world_art_id":null,"type":"movie","add":"2019-04-28 11:06:25","orig_title":"Dyadya Misha","year":"1970-01-01","translations":["Оригинальная дорожка"],"quality":"dvdrip","translation":"Оригинальная дорожка","update":"2019-04-29 06:56:00","iframe_src":"//2413.svetacdn.in/IAF0wWTdNYZm/movie/25516"},{"id":25511,"title":"Личное дело майора Баранова","kp_id":"699681","imdb_id":"tt3289004","world_art_id":null,"type":"movie","add":"2019-04-28 10:59:43","orig_title":"Lichnoe delo mayora Baranova","year":"2012-09-09","translations":["Оригинальная дорожка"],"quality":"hdtv","translation":"Оригинальная дорожка","update":"2019-04-29 06:50:54","iframe_src":"//2413.svetacdn.in/IAF0wWTdNYZm/movie/25511"},{"id":25509,"title":"Мой дом – моя крепость","kp_id":"585372","imdb_id":"tt9442926","world_art_id":null,"type":"movie","add":"2019-04-28 10:41:39","orig_title":"Moy dom - moya krepost'","year":"2012-02-10","translations":["Оригинальная дорожка"],"quality":"sat","translation":"Оригинальная дорожка","update":"2019-04-29 06:49:55","iframe_src":"//2413.svetacdn.in/IAF0wWTdNYZm/movie/25509"},{"id":25507,"title":"Урок литературы","kp_id":"42531","imdb_id":"tt0063752","world_art_id":null,"type":"movie","add":"2019-04-28 10:39:31","orig_title":"Urok literatury","year":"1968-01-01","translations":["Оригинальная дорожка"],"quality":"dvdrip","translation":"Оригинальная дорожка","update":"2019-04-29 06:49:15","iframe_src":"//2413.svetacdn.in/IAF0wWTdNYZm/movie/25507"},{"id":25505,"title":"Тот, кто прошел сквозь огонь","kp_id":"613332","imdb_id":"tt1927035","world_art_id":null,"type":"movie","add":"2019-04-28 10:35:56","orig_title":"ToyKhtoProyshovKrizVohon","year":"2012-01-19","translations":["Оригинальная дорожка"],"quality":"dvdrip","translation":"Оригинальная дорожка","update":"2019-04-29 06:48:38","iframe_src":"//2413.svetacdn.in/IAF0wWTdNYZm/movie/25505"},{"id":25504,"title":"На помощь, братцы!","kp_id":"46279","imdb_id":"tt0307212","world_art_id":null,"type":"movie","add":"2019-04-28 10:33:33","orig_title":"Na pomoshch, brattsy!","year":"1988-01-01","translations":["Оригинальная дорожка"],"quality":"dvdrip","translation":"Оригинальная дорожка","update":"2019-04-29 06:47:25","iframe_src":"//2413.svetacdn.in/IAF0wWTdNYZm/movie/25504"},{"id":25502,"title":"Сладкая женщина","kp_id":"43834","imdb_id":"tt0170592","world_art_id":null,"type":"movie","add":"2019-04-28 10:31:26","orig_title":"Sladkaya zhenshchina","year":"1977-05-23","translations":["Оригинальная дорожка"],"quality":"dvdrip","translation":"Оригинальная дорожка","update":"2019-04-29 06:46:02","iframe_src":"//2413.svetacdn.in/IAF0wWTdNYZm/movie/25502"},{"id":25417,"title":"Чужая Белая и Рябой","kp_id":"45538","imdb_id":"tt0090845","world_art_id":null,"type":"movie","add":"2019-04-26 18:18:50","orig_title":"Chuzhaya belaya i ryaboy","year":"1986-10-30","translations":["Оригинальная дорожка"],"quality":"dvdrip","translation":"Оригинальная дорожка","update":"2019-04-29 07:19:35","iframe_src":"//2413.svetacdn.in/IAF0wWTdNYZm/movie/25417"},{"id":25416,"title":"Депутат Балтики","kp_id":"44145","imdb_id":"tt0027509","world_art_id":null,"type":"movie","add":"2019-04-26 18:15:18","orig_title":"Deputat Baltiki","year":"1937-03-27","translations":["Оригинальная дорожка"],"quality":"dvdrip","translation":"Оригинальная дорожка","update":"2019-04-29 07:18:13","iframe_src":"//2413.svetacdn.in/IAF0wWTdNYZm/movie/25416"},{"id":25415,"title":"Дети капитана Гранта","kp_id":"44160","imdb_id":"tt0027516","world_art_id":null,"type":"movie","add":"2019-04-26 18:11:11","orig_title":"Deti kapitana Granta","year":"1936-09-15","translations":["Оригинальная дорожка"],"quality":"dvdrip","translation":"Оригинальная дорожка","update":"2019-04-29 07:17:25","iframe_src":"//2413.svetacdn.in/IAF0wWTdNYZm/movie/25415"},{"id":25394,"title":"Добрая подружка для всех","kp_id":"436272","imdb_id":null,"world_art_id":null,"type":"movie","add":"2019-04-26 15:28:22","orig_title":"Добрая подружка для всех","year":"2008-12-21","translations":["Оригинальная дорожка"],"quality":"dvdrip","translation":"Оригинальная дорожка","update":"2019-04-29 07:16:39","iframe_src":"//2413.svetacdn.in/IAF0wWTdNYZm/movie/25394"},{"id":25393,"title":"Дубля не будет","kp_id":"586690","imdb_id":null,"world_art_id":null,"type":"movie","add":"2019-04-26 15:19:00","orig_title":"Дубля не будет","year":"2011-05-29","translations":["Оригинальная дорожка"],"quality":"sat","translation":"Оригинальная дорожка","update":"2019-04-29 07:15:45","iframe_src":"//2413.svetacdn.in/IAF0wWTdNYZm/movie/25393"},{"id":25392,"title":"Дума о Ковпаке: Буран","kp_id":"44315","imdb_id":"tt0072916","world_art_id":null,"type":"movie","add":"2019-04-26 15:12:11","orig_title":"Duma o Kovpake: Buran","year":"1976-09-09","translations":["Оригинальная дорожка"],"quality":"dvdrip","translation":"Оригинальная дорожка","update":"2019-04-29 07:13:49","iframe_src":"//2413.svetacdn.in/IAF0wWTdNYZm/movie/25392"},{"id":25391,"title":"Фарт","kp_id":"260363","imdb_id":"tt0886488","world_art_id":null,"type":"movie","add":"2019-04-26 14:41:03","orig_title":"Fart","year":"2005-12-01","translations":["Оригинальная дорожка"],"quality":"dvdrip","translation":"Оригинальная дорожка","update":"2019-04-29 07:12:41","iframe_src":"//2413.svetacdn.in/IAF0wWTdNYZm/movie/25391"},{"id":25389,"title":"Гоп-стоп","kp_id":"468217","imdb_id":"tt1890415","world_art_id":null,"type":"movie","add":"2019-04-26 14:23:33","orig_title":"Gop-Stop","year":"2011-04-28","translations":["Оригинальная дорожка"],"quality":"dvdrip","translation":"Оригинальная дорожка","update":"2019-04-29 07:09:06","iframe_src":"//2413.svetacdn.in/IAF0wWTdNYZm/movie/25389"},{"id":25388,"title":"Храни меня, мой талисман","kp_id":"44796","imdb_id":"tt0091335","world_art_id":null,"type":"movie","add":"2019-04-26 12:25:02","orig_title":"Khrani menya, moy talisman","year":"1986-09-15","translations":["Оригинальная дорожка"],"quality":"dvdrip","translation":"Оригинальная дорожка","update":"2019-04-29 06:52:04","iframe_src":"//2413.svetacdn.in/IAF0wWTdNYZm/movie/25388"},{"id":25387,"title":"Им было девятнадцать","kp_id":"42587","imdb_id":"tt0314195","world_art_id":null,"type":"movie","add":"2019-04-26 12:20:59","orig_title":"Im bylo devyatnadtsat","year":"1960-11-13","translations":["Оригинальная дорожка"],"quality":"sat","translation":"Оригинальная дорожка","update":"2019-04-29 06:50:33","iframe_src":"//2413.svetacdn.in/IAF0wWTdNYZm/movie/25387"},{"id":25386,"title":"Исправленному верить","kp_id":"161159","imdb_id":"tt0471762","world_art_id":null,"type":"movie","add":"2019-04-26 12:17:47","orig_title":"Ispravlennomu verit","year":"1960-03-17","translations":["Оригинальная дорожка"],"quality":"dvdrip","translation":"Оригинальная дорожка","update":"2019-04-29 06:49:27","iframe_src":"//2413.svetacdn.in/IAF0wWTdNYZm/movie/25386"},{"id":25385,"title":"Иван-дурак","kp_id":"394771","imdb_id":"tt1098210","world_art_id":null,"type":"movie","add":"2019-04-26 12:14:42","orig_title":"Ivan-Durak","year":"2002-01-01","translations":["Оригинальная дорожка"],"quality":"dvdrip","translation":"Оригинальная дорожка","update":"2019-04-29 06:48:20","iframe_src":"//2413.svetacdn.in/IAF0wWTdNYZm/movie/25385"},{"id":25384,"title":"Капитан «Пилигрима»","kp_id":"44703","imdb_id":"tt0266686","world_art_id":null,"type":"movie","add":"2019-04-26 12:09:42","orig_title":"Kapitan 'Piligrima'","year":"1986-12-22","translations":["Оригинальная дорожка"],"quality":"dvdrip","translation":"Оригинальная дорожка","update":"2019-04-29 06:46:49","iframe_src":"//2413.svetacdn.in/IAF0wWTdNYZm/movie/25384"}],"current_page":1903,"first_page_url":"https://videocdn.tv/api/short?limit=100&api_token=6Onb1W1alEUrBcKJZD3GoKBbWyAl2uG2&cache31903=31903&page=1","from":190201,"last_page":716,"last_page_url":"https://videocdn.tv/api/short?limit=100&api_token=6Onb1W1alEUrBcKJZD3GoKBbWyAl2uG2&cache31903=31903&page=716","next_page_url":null,"path":"https://videocdn.tv/api/short","per_page":100,"prev_page_url":"https://videocdn.tv/api/short?limit=100&api_token=6Onb1W1alEUrBcKJZD3GoKBbWyAl2uG2&cache31903=31903&page=1902","to":190220,"total":71552}