{"result":true,"data":[{"id":1907,"title":"Неуязвимый","kp_id":"866","imdb_id":"tt0217869","world_art_id":null,"type":"movie","add":"2016-05-05 12:43:35","orig_title":"Unbreakable","year":"2000-11-14","translations":["Полное дублирование"],"quality":"bd","translation":"Полное дублирование","update":"2016-05-06 09:40:12","iframe_src":"//8543.svetacdn.in/IAF0wWTdNYZm/movie/1907"},{"id":1906,"title":"Девять ярдов 2","kp_id":"8047","imdb_id":"tt0327247","world_art_id":null,"type":"movie","add":"2016-05-05 12:42:00","orig_title":"The Whole Ten Yards","year":"2004-04-07","translations":["Полное дублирование"],"quality":"bd","translation":"Полное дублирование","update":"2016-05-06 10:08:31","iframe_src":"//8543.svetacdn.in/IAF0wWTdNYZm/movie/1906"},{"id":1905,"title":"Девять ярдов","kp_id":"883","imdb_id":"tt0190138","world_art_id":null,"type":"movie","add":"2016-05-05 12:40:21","orig_title":"The Whole Nine Yards","year":"2000-02-17","translations":["Полное дублирование"],"quality":"bd","translation":"Полное дублирование","update":"2016-05-06 09:48:53","iframe_src":"//8543.svetacdn.in/IAF0wWTdNYZm/movie/1905"},{"id":1904,"title":"Осада","kp_id":"7394","imdb_id":"tt0133952","world_art_id":null,"type":"movie","add":"2016-05-05 12:38:27","orig_title":"The Siege","year":"1998-11-06","translations":["Полное дублирование"],"quality":"bd","translation":"Полное дублирование","update":"2016-05-06 07:21:08","iframe_src":"//8543.svetacdn.in/IAF0wWTdNYZm/movie/1904"},{"id":1900,"title":"Слезы солнца","kp_id":"855","imdb_id":"tt0314353","world_art_id":null,"type":"movie","add":"2016-05-05 12:31:39","orig_title":"Tears of the Sun","year":"2003-03-03","translations":["Полное дублирование"],"quality":"bd","translation":"Полное дублирование","update":"2016-05-06 10:04:05","iframe_src":"//8543.svetacdn.in/IAF0wWTdNYZm/movie/1900"},{"id":1897,"title":"Дураков нет","kp_id":"6366","imdb_id":"tt0110684","world_art_id":null,"type":"movie","add":"2016-05-05 12:24:16","orig_title":"Nobody's Fool","year":"1994-12-23","translations":["Профессиональный (многоголосый закадровый)"],"quality":"webdl","translation":"Профессиональный (многоголосый закадровый)","update":"2016-05-06 06:48:12","iframe_src":"//8543.svetacdn.in/IAF0wWTdNYZm/movie/1897"},{"id":1889,"title":"Заложник","kp_id":"9543","imdb_id":"tt0340163","world_art_id":null,"type":"movie","add":"2016-05-05 12:08:20","orig_title":"Hostage","year":"2005-03-09","translations":["Полное дублирование"],"quality":"bd","translation":"Полное дублирование","update":"2016-05-06 10:13:48","iframe_src":"//8543.svetacdn.in/IAF0wWTdNYZm/movie/1889"},{"id":1886,"title":"Смерть ей к лицу","kp_id":"1889","imdb_id":"tt0104070","world_art_id":null,"type":"movie","add":"2016-05-05 12:03:35","orig_title":"Death Becomes Her","year":"1992-07-31","translations":["Профессиональный (многоголосый закадровый)"],"quality":"bd","translation":"Профессиональный (многоголосый закадровый)","update":"2016-05-06 06:38:14","iframe_src":"//8543.svetacdn.in/IAF0wWTdNYZm/movie/1886"},{"id":1884,"title":"Цвет ночи","kp_id":"2276","imdb_id":"tt0109456","world_art_id":null,"type":"movie","add":"2016-05-05 12:00:15","orig_title":"Color of Night","year":"1994-08-19","translations":["Профессиональный (многоголосый закадровый)"],"quality":"bd","translation":"Профессиональный (многоголосый закадровый)","update":"2016-05-06 06:51:10","iframe_src":"//8543.svetacdn.in/IAF0wWTdNYZm/movie/1884"},{"id":1882,"title":"Свидание вслепую","kp_id":"4072","imdb_id":"tt0092666","world_art_id":null,"type":"movie","add":"2016-05-05 11:57:12","orig_title":"Blind Date","year":"1987-03-24","translations":["Полное дублирование"],"quality":"bd","translation":"Полное дублирование","update":"2016-05-06 06:22:25","iframe_src":"//8543.svetacdn.in/IAF0wWTdNYZm/movie/1882"},{"id":1881,"title":"Билли Батгейт","kp_id":"4518","imdb_id":"tt0101453","world_art_id":null,"type":"movie","add":"2016-05-05 11:55:55","orig_title":"Billy Bathgate","year":"1991-11-01","translations":["Полное дублирование"],"quality":"bd","translation":"Полное дублирование","update":"2016-05-06 06:27:47","iframe_src":"//8543.svetacdn.in/IAF0wWTdNYZm/movie/1881"},{"id":1880,"title":"Бандиты","kp_id":"602","imdb_id":"tt0219965","world_art_id":null,"type":"movie","add":"2016-05-05 11:54:20","orig_title":"Bandits","year":"2001-10-12","translations":["Профессиональный (многоголосый закадровый)"],"quality":"bd","translation":"Профессиональный (многоголосый закадровый)","update":"2016-05-06 09:56:19","iframe_src":"//8543.svetacdn.in/IAF0wWTdNYZm/movie/1880"},{"id":1874,"title":"Вам письмо","kp_id":"5330","imdb_id":"tt0128853","world_art_id":null,"type":"movie","add":"2016-05-04 16:23:17","orig_title":"You've Got Mail","year":"1998-12-18","translations":["Полное дублирование"],"quality":"bd","translation":"Полное дублирование","update":"2016-05-05 07:25:06","iframe_src":"//8543.svetacdn.in/IAF0wWTdNYZm/movie/1874"},{"id":1872,"title":"История игрушек: Большой побег","kp_id":"258328","imdb_id":"tt0435761","world_art_id":null,"type":"movie","add":"2016-05-04 16:19:21","orig_title":"Toy Story 3","year":"2010-06-12","translations":["Полное дублирование"],"quality":"bd","translation":"Полное дублирование","update":"2016-05-05 07:53:40","iframe_src":"//8543.svetacdn.in/IAF0wWTdNYZm/movie/1872"},{"id":1870,"title":"Игры джентльменов","kp_id":"2885","imdb_id":"tt0335245","world_art_id":null,"type":"movie","add":"2016-05-04 16:10:50","orig_title":"The Ladykillers","year":"2004-03-26","translations":["Полное дублирование"],"quality":"webdl","translation":"Полное дублирование","update":"2016-05-05 07:28:04","iframe_src":"//8543.svetacdn.in/IAF0wWTdNYZm/movie/1870"},{"id":1866,"title":"То, что ты делаешь","kp_id":"4593","imdb_id":"tt0117887","world_art_id":null,"type":"movie","add":"2016-05-04 15:59:06","orig_title":"That Thing You Do!","year":"1996-09-14","translations":["Профессиональный (многоголосый закадровый)"],"quality":"hdtv","translation":"Профессиональный (многоголосый закадровый)","update":"2016-05-05 07:20:44","iframe_src":"//8543.svetacdn.in/IAF0wWTdNYZm/movie/1866"},{"id":1864,"title":"Неспящие в Сиэттле","kp_id":"1573","imdb_id":"tt0108160","world_art_id":null,"type":"movie","add":"2016-05-04 15:53:45","orig_title":"Sleepless in Seattle","year":"1993-06-25","translations":["Полное дублирование"],"quality":"bd","translation":"Полное дублирование","update":"2016-05-05 07:10:16","iframe_src":"//8543.svetacdn.in/IAF0wWTdNYZm/movie/1864"},{"id":1862,"title":"Филадельфия","kp_id":"6403","imdb_id":"tt0107818","world_art_id":null,"type":"movie","add":"2016-05-04 15:19:27","orig_title":"Philadelphia","year":"1993-12-22","translations":["Полное дублирование"],"quality":"bd","translation":"Полное дублирование","update":"2016-05-05 07:01:23","iframe_src":"//8543.svetacdn.in/IAF0wWTdNYZm/movie/1862"},{"id":1859,"title":"Жутко громко и запредельно близко","kp_id":"195432","imdb_id":"tt0477302","world_art_id":null,"type":"movie","add":"2016-05-04 15:13:51","orig_title":"Extremely Loud & Incredibly Close","year":"2011-12-25","translations":["Профессиональный (многоголосый закадровый)"],"quality":"bd","translation":"Профессиональный (многоголосый закадровый)","update":"2016-05-05 07:45:51","iframe_src":"//8543.svetacdn.in/IAF0wWTdNYZm/movie/1859"},{"id":1857,"title":"Капитан Филлипс","kp_id":"484438","imdb_id":"tt1535109","world_art_id":null,"type":"movie","add":"2016-05-04 15:10:09","orig_title":"Captain Phillips","year":"2013-09-27","translations":["Полное дублирование"],"quality":"bd","translation":"Полное дублирование","update":"2016-05-05 07:50:21","iframe_src":"//8543.svetacdn.in/IAF0wWTdNYZm/movie/1857"}],"current_page":2354,"first_page_url":"https://videocdn.tv/api/short?limit=100&api_token=6Onb1W1alEUrBcKJZD3GoKBbWyAl2uG2&cache32354=32354&page=1","from":235301,"last_page":601,"last_page_url":"https://videocdn.tv/api/short?limit=100&api_token=6Onb1W1alEUrBcKJZD3GoKBbWyAl2uG2&cache32354=32354&page=601","next_page_url":null,"path":"https://videocdn.tv/api/short","per_page":100,"prev_page_url":"https://videocdn.tv/api/short?limit=100&api_token=6Onb1W1alEUrBcKJZD3GoKBbWyAl2uG2&cache32354=32354&page=2353","to":235320,"total":60055}