{"result":true,"data":[{"id":36895,"title":"Королевишна Синди","kp_id":"1142231","imdb_id":"tt8200456","world_art_id":null,"type":"movie","add":"2020-02-24 23:24:24","orig_title":"Cindy La Regia","year":"2020-01-24","translations":["Любительский (многоголосый закадровый) (Синема УС)"],"quality":"webdl","translation":"Любительский (многоголосый закадровый) (Синема УС)","update":"2020-02-25 08:02:49","iframe_src":"//2413.svetacdn.in/IAF0wWTdNYZm/movie/36895"},{"id":36828,"title":"Таинственный убийца: секрет ДНК","kp_id":"1287602","imdb_id":"tt10696018","world_art_id":null,"type":"movie","add":"2020-02-24 08:45:58","orig_title":"DNA Killer","year":"2020-02-16","translations":["Любительский (многоголосый закадровый) (Синема УС)"],"quality":"hdtv","translation":"Любительский (многоголосый закадровый) (Синема УС)","update":"2020-02-24 15:35:23","iframe_src":"//2413.svetacdn.in/IAF0wWTdNYZm/movie/36828"},{"id":36823,"title":"Жизнь в стиле кантри 2","kp_id":"488100","imdb_id":"tt1549571","world_art_id":null,"type":"movie","add":"2020-02-23 20:55:44","orig_title":"Pure Country 2: The Gift","year":"2010-10-15","translations":["Профессиональный (многоголосый закадровый) (ТВ3)"],"quality":"dvdrip","translation":"Профессиональный (многоголосый закадровый) (ТВ3)","update":"2020-02-24 21:45:13","iframe_src":"//2413.svetacdn.in/IAF0wWTdNYZm/movie/36823"},{"id":36795,"title":"Совесть","kp_id":null,"imdb_id":"tt1537041","world_art_id":null,"type":"movie","add":"2020-02-23 16:52:51","orig_title":"Thana Theke Aschi","year":"1965-01-01","translations":["Любительский (одноголосый закадровый)"],"quality":"webdl","translation":"Любительский (одноголосый закадровый)","update":"2020-02-25 08:02:12","iframe_src":"//2413.svetacdn.in/IAF0wWTdNYZm/movie/36795"},{"id":36794,"title":"Узник прошлого","kp_id":"198929","imdb_id":"tt0488906","world_art_id":null,"type":"movie","add":"2020-02-23 16:47:38","orig_title":"Zinda","year":"2006-01-12","translations":["Профессиональный (многоголосый закадровый)"],"quality":"iptv","translation":"Профессиональный (многоголосый закадровый)","update":"2020-02-25 08:01:11","iframe_src":"//2413.svetacdn.in/IAF0wWTdNYZm/movie/36794"},{"id":36792,"title":"Мудрость","kp_id":"1047825","imdb_id":"tt6878378","world_art_id":null,"type":"movie","add":"2020-02-23 16:42:06","orig_title":"Vivegam","year":"2017-08-24","translations":["Любительский (двухголосый закадровый) (Колобок)"],"quality":"webdl","translation":"Любительский (двухголосый закадровый) (Колобок)","update":"2020-02-25 07:59:18","iframe_src":"//2413.svetacdn.in/IAF0wWTdNYZm/movie/36792"},{"id":36791,"title":"Во имя любви","kp_id":"181251","imdb_id":"tt0314186","world_art_id":null,"type":"movie","add":"2020-02-23 16:39:30","orig_title":"Humko Tumse Pyaar Hai","year":"2006-02-24","translations":["Профессиональный (многоголосый закадровый) (ZEE TV)"],"quality":"dvdrip","translation":"Профессиональный (многоголосый закадровый) (ZEE TV)","update":"2020-02-25 07:58:17","iframe_src":"//2413.svetacdn.in/IAF0wWTdNYZm/movie/36791"},{"id":36790,"title":"Водочные дневники","kp_id":"1019701","imdb_id":"tt6275262","world_art_id":null,"type":"movie","add":"2020-02-23 16:35:54","orig_title":"Vodka Diaries","year":"2018-01-19","translations":["Любительский (многоголосый закадровый)"],"quality":"webdl","translation":"Любительский (многоголосый закадровый)","update":"2020-02-25 07:57:22","iframe_src":"//2413.svetacdn.in/IAF0wWTdNYZm/movie/36790"},{"id":36789,"title":"Я не могу тебя забыть","kp_id":"94798","imdb_id":"tt0310254","world_art_id":null,"type":"movie","add":"2020-02-23 16:32:55","orig_title":"Tumko Na Bhool Paayenge","year":"2002-02-21","translations":["Профессиональный (многоголосый закадровый) (Формат AB)"],"quality":"dvdrip","translation":"Профессиональный (многоголосый закадровый) (Формат AB)","update":"2020-02-25 07:55:24","iframe_src":"//2413.svetacdn.in/IAF0wWTdNYZm/movie/36789"},{"id":36779,"title":"Строптивый муж","kp_id":"97635","imdb_id":"tt0245917","world_art_id":null,"type":"movie","add":"2020-02-22 21:51:02","orig_title":"Gharaana Mogudu","year":"1992-04-05","translations":["Любительский (двухголосый закадровый) (OnisFilms)"],"quality":"webdl","translation":"Любительский (двухголосый закадровый) (OnisFilms)","update":"2020-02-25 07:54:41","iframe_src":"//2413.svetacdn.in/IAF0wWTdNYZm/movie/36779"},{"id":36778,"title":"Сила Шакти","kp_id":"568578","imdb_id":"tt1736647","world_art_id":null,"type":"movie","add":"2020-02-22 21:44:18","orig_title":"Shakti","year":"2011-03-31","translations":["Профессиональный (многоголосый закадровый) (Red Media)"],"quality":"bd","translation":"Профессиональный (многоголосый закадровый) (Red Media)","update":"2020-02-25 07:45:43","iframe_src":"//2413.svetacdn.in/IAF0wWTdNYZm/movie/36778"},{"id":36773,"title":"Скачки","kp_id":"623795","imdb_id":"tt2055790","world_art_id":null,"type":"movie","add":"2020-02-22 17:33:22","orig_title":"Turf","year":"2013-02-13","translations":["Профессиональный (многоголосый закадровый) (Первый канал | ОРТ)"],"quality":"hdrip","translation":"Профессиональный (многоголосый закадровый) (Первый канал | ОРТ)","update":"2020-02-25 07:11:55","iframe_src":"//2413.svetacdn.in/IAF0wWTdNYZm/movie/36773"},{"id":36772,"title":"Поколение игры «Doom»","kp_id":"2023","imdb_id":"tt0112887","world_art_id":null,"type":"movie","add":"2020-02-22 17:32:20","orig_title":"The Doom Generation","year":"1995-01-26","translations":["Профессиональный (многоголосый закадровый)"],"quality":"dvdrip","translation":"Профессиональный (многоголосый закадровый)","update":"2020-02-25 07:10:24","iframe_src":"//2413.svetacdn.in/IAF0wWTdNYZm/movie/36772"},{"id":36769,"title":"Никуда не годится","kp_id":"577851","imdb_id":"tt1783285","world_art_id":null,"type":"movie","add":"2020-02-22 17:23:42","orig_title":"Good for Nothing","year":"2011-01-29","translations":["[EN] Original (English)","Любительский (одноголосый закадровый) (datynet | Агапов Антон)"],"quality":"bd","translation":"[EN] Original (English)","update":"2020-02-25 07:00:42","iframe_src":"//2413.svetacdn.in/IAF0wWTdNYZm/movie/36769"},{"id":36768,"title":"Три рождественские сказки","kp_id":"710893","imdb_id":"tt1942787","world_art_id":null,"type":"movie","add":"2020-02-22 17:21:52","orig_title":"3 Holiday Tails","year":"2011-11-15","translations":["[EN] Original (English)","Профессиональный (многоголосый закадровый)"],"quality":"bd","translation":"[EN] Original (English)","update":"2020-02-25 06:57:55","iframe_src":"//2413.svetacdn.in/IAF0wWTdNYZm/movie/36768"},{"id":36766,"title":"Золотоискатели","kp_id":"47259","imdb_id":"tt0376717","world_art_id":null,"type":"movie","add":"2020-02-22 17:19:41","orig_title":"Lady Killers","year":"2003-06-15","translations":["Полное дублирование"],"quality":"dvdrip","translation":"Полное дублирование","update":"2020-02-25 06:54:41","iframe_src":"//2413.svetacdn.in/IAF0wWTdNYZm/movie/36766"},{"id":36743,"title":"Подкидыш","kp_id":"86762","imdb_id":"tt0286640","world_art_id":null,"type":"movie","add":"2020-02-21 21:11:09","orig_title":"Gair","year":"1999-10-10","translations":["Профессиональный (многоголосый закадровый)"],"quality":"webdl","translation":"Профессиональный (многоголосый закадровый)","update":"2020-02-25 07:18:51","iframe_src":"//2413.svetacdn.in/IAF0wWTdNYZm/movie/36743"},{"id":34957,"title":"Жить дважды Любовь однажды","kp_id":"1199251","imdb_id":"tt9063902","world_art_id":null,"type":"movie","add":"2020-01-10 21:49:57","orig_title":"Vivir dos veces","year":"2019-09-06","translations":["Любительский (многоголосый закадровый) (WestFilm)"],"quality":"webdl","translation":"Любительский (многоголосый закадровый) (WestFilm)","update":"2020-02-24 23:27:51","iframe_src":"//2413.svetacdn.in/IAF0wWTdNYZm/movie/34957"},{"id":8649,"title":"Сын Сатьямурти","kp_id":"900020","imdb_id":"tt4596814","world_art_id":null,"type":"movie","add":"2017-01-07 08:52:27","orig_title":"S/O Satyamurthy","year":"2015-04-09","translations":["Любительский (двухголосый закадровый) (Колобок)","Профессиональный (многоголосый закадровый) (SDI Media | Iyuno-SDI Group Russia)"],"quality":"bd","translation":"Любительский (двухголосый закадровый) (Колобок)","update":"2020-02-25 07:44:45","iframe_src":"//2413.svetacdn.in/IAF0wWTdNYZm/movie/8649"},{"id":3226,"title":"Круто сваренные","kp_id":"5343","imdb_id":"tt0104684","world_art_id":null,"type":"movie","add":"2016-06-17 07:20:17","orig_title":"Lat sau san taam","year":"1992-04-16","translations":["Профессиональный (двухголосый закадровый)","Авторский (одноголосый закадровый) (Гаврилов Андрей)","Профессиональный (двухголосый закадровый) (Tycoon)"],"quality":"bd","translation":"Профессиональный (двухголосый закадровый)","update":"2020-02-25 07:17:35","iframe_src":"//2413.svetacdn.in/IAF0wWTdNYZm/movie/3226"}],"current_page":1394,"first_page_url":"https://videocdn.tv/api/short?limit=100&api_token=6Onb1W1alEUrBcKJZD3GoKBbWyAl2uG2&cache31394=31394&page=1","from":139301,"last_page":721,"last_page_url":"https://videocdn.tv/api/short?limit=100&api_token=6Onb1W1alEUrBcKJZD3GoKBbWyAl2uG2&cache31394=31394&page=721","next_page_url":null,"path":"https://videocdn.tv/api/short","per_page":100,"prev_page_url":"https://videocdn.tv/api/short?limit=100&api_token=6Onb1W1alEUrBcKJZD3GoKBbWyAl2uG2&cache31394=31394&page=1393","to":139320,"total":72083}