{"result":true,"data":[{"id":18630,"title":"Магнетизм","kp_id":"801650","imdb_id":"tt3194622","world_art_id":null,"type":"movie","add":"2018-08-29 00:41:50","orig_title":"Magnetic","year":"2015-03-29","translations":["Любительский (многоголосый закадровый) (Колобок)"],"quality":"webdl","translation":"Любительский (многоголосый закадровый) (Колобок)","update":"2018-08-29 06:04:08","iframe_src":"//8332.svetacdn.in/71tsRs29n5tZ/movie/18630"},{"id":18629,"title":"Вампир Видар","kp_id":"1013519","imdb_id":"tt6147514","world_art_id":null,"type":"movie","add":"2018-08-29 00:39:59","orig_title":"Vampyr Vidar","year":"2017-08-23","translations":["Любительский (многоголосый закадровый) (Колобок)"],"quality":"webdl","translation":"Любительский (многоголосый закадровый) (Колобок)","update":"2018-08-29 06:05:38","iframe_src":"//8332.svetacdn.in/71tsRs29n5tZ/movie/18629"},{"id":18628,"title":"Лишняя мать","kp_id":"882822","imdb_id":"tt4359686","world_art_id":null,"type":"movie","add":"2018-08-29 00:38:36","orig_title":"Une mère en trop","year":"2015-06-20","translations":["Профессиональный (многоголосый закадровый) (GreenРай Studio)"],"quality":"hdtv","translation":"Профессиональный (многоголосый закадровый) (GreenРай Studio)","update":"2018-08-29 06:06:22","iframe_src":"//8332.svetacdn.in/71tsRs29n5tZ/movie/18628"},{"id":18627,"title":"Президент","kp_id":"841960","imdb_id":"tt3966942","world_art_id":null,"type":"movie","add":"2018-08-29 00:36:47","orig_title":"The President","year":"2014-08-30","translations":["Любительский (многоголосый закадровый) (GreenРай Studio)"],"quality":"dvdrip","translation":"Любительский (многоголосый закадровый) (GreenРай Studio)","update":"2018-08-29 06:07:44","iframe_src":"//8332.svetacdn.in/71tsRs29n5tZ/movie/18627"},{"id":18619,"title":"Возвращение вампира","kp_id":"27553","imdb_id":"tt0037219","world_art_id":null,"type":"movie","add":"2018-08-27 23:06:06","orig_title":"The Return of the Vampire","year":"1944-11-01","translations":["Любительский (одноголосый закадровый) (Воробьев Сергей)"],"quality":"webdl","translation":"Любительский (одноголосый закадровый) (Воробьев Сергей)","update":"2018-08-28 07:35:57","iframe_src":"//8332.svetacdn.in/71tsRs29n5tZ/movie/18619"},{"id":18618,"title":"Женщина в окне","kp_id":"8306","imdb_id":"tt0037469","world_art_id":null,"type":"movie","add":"2018-08-27 23:02:44","orig_title":"The Woman in the Window","year":"1944-10-25","translations":["Профессиональный (двухголосый закадровый)"],"quality":"bd","translation":"Профессиональный (двухголосый закадровый)","update":"2018-08-28 07:29:39","iframe_src":"//8332.svetacdn.in/71tsRs29n5tZ/movie/18618"},{"id":18617,"title":"Невыразимый ужас","kp_id":"105770","imdb_id":"tt0096344","world_art_id":null,"type":"movie","add":"2018-08-27 23:01:09","orig_title":"The Unnamable","year":"1989-02-13","translations":["Профессиональный (двухголосый закадровый)"],"quality":"bd","translation":"Профессиональный (двухголосый закадровый)","update":"2018-08-28 07:27:41","iframe_src":"//8332.svetacdn.in/71tsRs29n5tZ/movie/18617"},{"id":18616,"title":"Жеребец","kp_id":"29786","imdb_id":"tt0078333","world_art_id":null,"type":"movie","add":"2018-08-27 22:59:20","orig_title":"The Stud","year":"1978-04-12","translations":["Профессиональный (двухголосый закадровый)"],"quality":"bd","translation":"Профессиональный (двухголосый закадровый)","update":"2018-08-28 07:25:34","iframe_src":"//8332.svetacdn.in/71tsRs29n5tZ/movie/18616"},{"id":18615,"title":"Во власти идола","kp_id":"15947","imdb_id":"tt0081366","world_art_id":null,"type":"movie","add":"2018-08-27 22:57:47","orig_title":"The Power","year":"1984-01-20","translations":["Профессиональный (двухголосый закадровый)"],"quality":"bd","translation":"Профессиональный (двухголосый закадровый)","update":"2018-08-28 07:19:35","iframe_src":"//8332.svetacdn.in/71tsRs29n5tZ/movie/18615"},{"id":18614,"title":"Яма","kp_id":"700","imdb_id":"tt0242527","world_art_id":null,"type":"movie","add":"2018-08-27 22:56:14","orig_title":"The Hole","year":"2001-04-20","translations":["Профессиональный (многоголосый закадровый) (CP Digital)"],"quality":"bd","translation":"Профессиональный (многоголосый закадровый) (CP Digital)","update":"2018-08-28 07:16:51","iframe_src":"//8332.svetacdn.in/71tsRs29n5tZ/movie/18614"},{"id":18613,"title":"Женщина моего друга","kp_id":"77754","imdb_id":"tt0085529","world_art_id":null,"type":"movie","add":"2018-08-27 22:50:24","orig_title":"La femme de mon pote","year":"1983-08-31","translations":["Профессиональный (многоголосый закадровый)"],"quality":"bd","translation":"Профессиональный (многоголосый закадровый)","update":"2018-08-28 07:12:26","iframe_src":"//8332.svetacdn.in/71tsRs29n5tZ/movie/18613"},{"id":18612,"title":"Красный круг","kp_id":"79507","imdb_id":"tt0065531","world_art_id":null,"type":"movie","add":"2018-08-27 22:48:52","orig_title":"Le cercle rouge","year":"1970-10-20","translations":["Профессиональный (многоголосый закадровый) (SomeWax)"],"quality":"bd","translation":"Профессиональный (многоголосый закадровый) (SomeWax)","update":"2018-08-28 07:09:44","iframe_src":"//8332.svetacdn.in/71tsRs29n5tZ/movie/18612"},{"id":18611,"title":"Развратные девушки автостопщицы","kp_id":"650590","imdb_id":"tt0125806","world_art_id":null,"type":"movie","add":"2018-08-27 22:47:05","orig_title":"Jeunes filles impudiques","year":"1973-08-16","translations":["Любительский (двухголосый закадровый) (DeadSno & den904)"],"quality":"bd","translation":"Любительский (двухголосый закадровый) (DeadSno & den904)","update":"2018-08-28 07:03:03","iframe_src":"//8332.svetacdn.in/71tsRs29n5tZ/movie/18611"},{"id":18610,"title":"Джейк Speed","kp_id":"17038","imdb_id":"tt0091282","world_art_id":null,"type":"movie","add":"2018-08-27 22:45:38","orig_title":"Jake Speed","year":"1986-05-30","translations":["Профессиональный (многоголосый закадровый)"],"quality":"bd","translation":"Профессиональный (многоголосый закадровый)","update":"2018-08-28 07:01:16","iframe_src":"//8332.svetacdn.in/71tsRs29n5tZ/movie/18610"},{"id":18609,"title":"Гротеск","kp_id":"440766","imdb_id":"tt1352369","world_art_id":null,"type":"movie","add":"2018-08-27 22:43:06","orig_title":"Gurotesuku","year":"2009-01-17","translations":["Любительский (одноголосый закадровый)"],"quality":"bd","translation":"Любительский (одноголосый закадровый)","update":"2018-08-28 06:56:03","iframe_src":"//8332.svetacdn.in/71tsRs29n5tZ/movie/18609"},{"id":18604,"title":"Восемь часов ужаса","kp_id":"395220","imdb_id":"tt0050476","world_art_id":null,"type":"movie","add":"2018-08-27 22:20:33","orig_title":"Hachijikan no kyôfu","year":"1957-03-08","translations":["Любительский (одноголосый закадровый) (Воротилин Олег)"],"quality":"bd","translation":"Любительский (одноголосый закадровый) (Воротилин Олег)","update":"2018-08-28 06:50:52","iframe_src":"//8332.svetacdn.in/71tsRs29n5tZ/movie/18604"},{"id":18603,"title":"Ад каннибалов 2","kp_id":"94732","imdb_id":"tt0081112","world_art_id":null,"type":"movie","add":"2018-08-27 22:19:03","orig_title":"Mangiati vivi!","year":"1980-03-20","translations":["Авторский (одноголосый закадровый) (Визгунов Сергей)"],"quality":"bd","translation":"Авторский (одноголосый закадровый) (Визгунов Сергей)","update":"2018-08-28 06:49:35","iframe_src":"//8332.svetacdn.in/71tsRs29n5tZ/movie/18603"},{"id":18524,"title":"Эндемит Альберт","kp_id":"1124183","imdb_id":"tt8242978","world_art_id":null,"type":"movie","add":"2018-08-26 12:06:15","orig_title":"Endemit Albert","year":"2017-01-01","translations":["Профессиональный (многоголосый закадровый) (GreenРай Studio)"],"quality":"webdl","translation":"Профессиональный (многоголосый закадровый) (GreenРай Studio)","update":"2018-08-28 06:57:46","iframe_src":"//8332.svetacdn.in/71tsRs29n5tZ/movie/18524"},{"id":8716,"title":"Чингиз Хан","kp_id":"10306","imdb_id":"tt0059219","world_art_id":null,"type":"movie","add":"2017-01-08 12:45:20","orig_title":"Genghis Khan","year":"1965-04-15","translations":["Профессиональный (многоголосый закадровый)"],"quality":"bd","translation":"Профессиональный (многоголосый закадровый)","update":"2018-08-28 06:51:52","iframe_src":"//8332.svetacdn.in/71tsRs29n5tZ/movie/8716"},{"id":7415,"title":"Вверх тормашками","kp_id":"1540","imdb_id":"tt0192111","world_art_id":null,"type":"movie","add":"2016-11-14 13:44:08","orig_title":"Head Over Heels","year":"2001-02-02","translations":["Профессиональный (многоголосый закадровый)"],"quality":"webdl","translation":"Профессиональный (многоголосый закадровый)","update":"2018-08-28 06:59:29","iframe_src":"//8332.svetacdn.in/71tsRs29n5tZ/movie/7415"}],"current_page":1820,"first_page_url":"https://videocdn.tv/api/short?limit=100&api_token=EnbO9h8pv1VyjbCJhg0WM9nG259n7mtz&cache31820=31820&page=1","from":181901,"last_page":637,"last_page_url":"https://videocdn.tv/api/short?limit=100&api_token=EnbO9h8pv1VyjbCJhg0WM9nG259n7mtz&cache31820=31820&page=637","next_page_url":null,"path":"https://videocdn.tv/api/short","per_page":100,"prev_page_url":"https://videocdn.tv/api/short?limit=100&api_token=EnbO9h8pv1VyjbCJhg0WM9nG259n7mtz&cache31820=31820&page=1819","to":181920,"total":63623}