{"result":true,"data":[{"id":9809,"title":"Клуб приключений","kp_id":"942404","imdb_id":"tt4229578","world_art_id":null,"type":"movie","add":"2017-02-19 12:44:35","orig_title":"The Adventure Club","year":"2017-02-10","translations":["Любительский (многоголосый закадровый) (Синема УС)"],"quality":"webdl","translation":"Любительский (многоголосый закадровый) (Синема УС)","update":"2017-02-20 05:58:43","iframe_src":"//83.svetacdn.in/PfJ50H0ZBPg3/movie/9809"},{"id":9808,"title":"Сердцебиение","kp_id":"960038","imdb_id":"tt5390246","world_art_id":null,"type":"movie","add":"2017-02-19 12:43:18","orig_title":"Taken Heart","year":"2017-01-24","translations":["Любительский (многоголосый закадровый) (Синема УС)"],"quality":"webdl","translation":"Любительский (многоголосый закадровый) (Синема УС)","update":"2017-02-20 06:01:51","iframe_src":"//83.svetacdn.in/PfJ50H0ZBPg3/movie/9808"},{"id":9807,"title":"Я не сволочь","kp_id":"843957","imdb_id":"tt4084060","world_art_id":null,"type":"movie","add":"2017-02-19 12:41:08","orig_title":"Je ne suis pas un salaud","year":"2015-08-25","translations":["Любительский (многоголосый закадровый) (Синема УС)"],"quality":"webdl","translation":"Любительский (многоголосый закадровый) (Синема УС)","update":"2017-02-20 06:04:51","iframe_src":"//83.svetacdn.in/PfJ50H0ZBPg3/movie/9807"},{"id":9805,"title":"Боязнь воды","kp_id":"788514","imdb_id":"tt3108742","world_art_id":null,"type":"movie","add":"2017-02-19 12:38:10","orig_title":"Fear of Water","year":"2015-05-15","translations":["Любительский (многоголосый закадровый) (Синема УС)"],"quality":"webdl","translation":"Любительский (многоголосый закадровый) (Синема УС)","update":"2017-02-20 06:11:18","iframe_src":"//83.svetacdn.in/PfJ50H0ZBPg3/movie/9805"},{"id":9804,"title":"Вечные","kp_id":"525183","imdb_id":"tt1662500","world_art_id":null,"type":"movie","add":"2017-02-19 12:36:01","orig_title":"Everlasting","year":"2016-02-13","translations":["Любительский (многоголосый закадровый) (Синема УС)"],"quality":"webdl","translation":"Любительский (многоголосый закадровый) (Синема УС)","update":"2017-02-20 06:12:53","iframe_src":"//83.svetacdn.in/PfJ50H0ZBPg3/movie/9804"},{"id":9803,"title":"Модель бога по Эйнштейну","kp_id":"587992","imdb_id":"tt1773389","world_art_id":null,"type":"movie","add":"2017-02-19 12:35:08","orig_title":"Einstein's God Model","year":"2016-05-11","translations":["Любительский (многоголосый закадровый) (Синема УС)"],"quality":"webdl","translation":"Любительский (многоголосый закадровый) (Синема УС)","update":"2017-02-20 06:14:53","iframe_src":"//83.svetacdn.in/PfJ50H0ZBPg3/movie/9803"},{"id":9801,"title":"Прости нас, господи","kp_id":"928038","imdb_id":"tt4944596","world_art_id":null,"type":"movie","add":"2017-02-19 12:28:46","orig_title":"Que Dios nos perdone","year":"2016-10-28","translations":["Любительский (многоголосый закадровый) (Синема УС)"],"quality":"bd","translation":"Любительский (многоголосый закадровый) (Синема УС)","update":"2017-02-20 06:39:02","iframe_src":"//83.svetacdn.in/PfJ50H0ZBPg3/movie/9801"},{"id":9799,"title":"Ради единственной Лейлы","kp_id":"817601","imdb_id":"tt3399462","world_art_id":null,"type":"movie","add":"2017-02-19 12:26:05","orig_title":"Oka Laila Kosam","year":"2014-10-16","translations":["Любительский (двухголосый закадровый)"],"quality":"webdl","translation":"Любительский (двухголосый закадровый)","update":"2017-02-20 06:42:59","iframe_src":"//83.svetacdn.in/PfJ50H0ZBPg3/movie/9799"},{"id":9798,"title":"Попрощайся со всем этим","kp_id":"711645","imdb_id":"tt2437548","world_art_id":null,"type":"movie","add":"2017-02-19 12:24:37","orig_title":"Goodbye to All That","year":"2014-04-17","translations":["Любительский (двухголосый закадровый)"],"quality":"bd","translation":"Любительский (двухголосый закадровый)","update":"2017-02-20 10:39:50","iframe_src":"//83.svetacdn.in/PfJ50H0ZBPg3/movie/9798"},{"id":9797,"title":"Капитан Фалкан","kp_id":"806353","imdb_id":"tt1941478","world_art_id":null,"type":"movie","add":"2017-02-19 12:22:26","orig_title":"Capitão Falcão","year":"2014-12-25","translations":["Любительский (одноголосый закадровый)"],"quality":"bd","translation":"Любительский (одноголосый закадровый)","update":"2017-02-20 06:45:19","iframe_src":"//83.svetacdn.in/PfJ50H0ZBPg3/movie/9797"},{"id":9796,"title":"Вам нравится мой подвал?","kp_id":"708777","imdb_id":"tt2280302","world_art_id":null,"type":"movie","add":"2017-02-19 11:56:46","orig_title":"Do You Like My Basement","year":"2014-10-06","translations":["Любительский (двухголосый закадровый)"],"quality":"webdl","translation":"Любительский (двухголосый закадровый)","update":"2017-02-20 10:10:39","iframe_src":"//83.svetacdn.in/PfJ50H0ZBPg3/movie/9796"},{"id":9790,"title":"Грани любви","kp_id":"24740","imdb_id":"tt0070049","world_art_id":null,"type":"movie","add":"2017-02-17 08:56:51","orig_title":"Bei di yan zhi","year":"1973-04-05","translations":["Любительский (одноголосый закадровый) (Sedorelli)"],"quality":"dvdrip","translation":"Любительский (одноголосый закадровый) (Sedorelli)","update":"2017-02-20 12:26:19","iframe_src":"//83.svetacdn.in/PfJ50H0ZBPg3/movie/9790"},{"id":9761,"title":"Вирунга","kp_id":"842876","imdb_id":"tt3455224","world_art_id":null,"type":"movie","add":"2017-02-16 13:33:32","orig_title":"Virunga","year":"2014-04-17","translations":["Любительский (одноголосый закадровый)"],"quality":"webdl","translation":"Любительский (одноголосый закадровый)","update":"2017-02-20 10:58:59","iframe_src":"//83.svetacdn.in/PfJ50H0ZBPg3/movie/9761"},{"id":9760,"title":"Подарок","kp_id":"841213","imdb_id":"tt4126604","world_art_id":null,"type":"movie","add":"2017-02-16 13:32:37","orig_title":"The Gift","year":"2014-07-26","translations":["Любительский (одноголосый закадровый)"],"quality":"webdl","translation":"Любительский (одноголосый закадровый)","update":"2017-02-20 10:57:03","iframe_src":"//83.svetacdn.in/PfJ50H0ZBPg3/movie/9760"},{"id":9757,"title":"Главный братан Фадиль","kp_id":"872055","imdb_id":"tt3954196","world_art_id":null,"type":"movie","add":"2017-02-16 13:26:36","orig_title":"Abang Long Fadil","year":"2014-05-29","translations":["Любительский (одноголосый закадровый) (den904)"],"quality":"webdl","translation":"Любительский (одноголосый закадровый) (den904)","update":"2017-02-20 10:51:33","iframe_src":"//83.svetacdn.in/PfJ50H0ZBPg3/movie/9757"},{"id":9756,"title":"Тайком","kp_id":"807585","imdb_id":"tt3289362","world_art_id":null,"type":"movie","add":"2017-02-16 13:25:41","orig_title":"A escondidas","year":"2014-03-22","translations":["Любительский (одноголосый закадровый)"],"quality":"webdl","translation":"Любительский (одноголосый закадровый)","update":"2017-02-20 10:48:49","iframe_src":"//83.svetacdn.in/PfJ50H0ZBPg3/movie/9756"},{"id":9755,"title":"Рыба-солнце","kp_id":"765538","imdb_id":"tt2941330","world_art_id":null,"type":"movie","add":"2017-02-16 13:24:25","orig_title":"Klumpfisken","year":"2014-01-27","translations":["Любительский (одноголосый закадровый)"],"quality":"dvdrip","translation":"Любительский (одноголосый закадровый)","update":"2017-02-20 10:45:18","iframe_src":"//83.svetacdn.in/PfJ50H0ZBPg3/movie/9755"},{"id":9754,"title":"Зубастики: Охотник за головами","kp_id":"868507","imdb_id":"tt4301262","world_art_id":null,"type":"movie","add":"2017-02-16 13:23:21","orig_title":"Critters: Bounty Hunter","year":"2014-12-22","translations":["Любительский (одноголосый закадровый)"],"quality":"bd","translation":"Любительский (одноголосый закадровый)","update":"2017-02-20 10:47:23","iframe_src":"//83.svetacdn.in/PfJ50H0ZBPg3/movie/9754"},{"id":9753,"title":"Феи: Спорт и торт","kp_id":"841489","imdb_id":"tt3717836","world_art_id":null,"type":"movie","add":"2017-02-16 13:22:20","orig_title":"Pixie Hollow Bake Off","year":"2013-10-20","translations":["Полное дублирование"],"quality":"bd","translation":"Полное дублирование","update":"2017-02-20 10:48:02","iframe_src":"//83.svetacdn.in/PfJ50H0ZBPg3/movie/9753"},{"id":9750,"title":"Медведи","kp_id":"713342","imdb_id":"tt2458776","world_art_id":null,"type":"movie","add":"2017-02-16 13:18:40","orig_title":"Bears","year":"2014-04-05","translations":["Полное дублирование"],"quality":"bd","translation":"Полное дублирование","update":"2017-02-20 10:43:33","iframe_src":"//83.svetacdn.in/PfJ50H0ZBPg3/movie/9750"}],"current_page":2525,"first_page_url":"https://videocdn.tv/api/short?limit=100&api_token=RgFQdUIR2dRmwv8iYa5SnFNgnw3vpjKj&cache32525=32525&page=1","from":252401,"last_page":707,"last_page_url":"https://videocdn.tv/api/short?limit=100&api_token=RgFQdUIR2dRmwv8iYa5SnFNgnw3vpjKj&cache32525=32525&page=707","next_page_url":null,"path":"https://videocdn.tv/api/short","per_page":100,"prev_page_url":"https://videocdn.tv/api/short?limit=100&api_token=RgFQdUIR2dRmwv8iYa5SnFNgnw3vpjKj&cache32525=32525&page=2524","to":252420,"total":70687}