{"result":true,"data":[{"id":52055,"title":"Второй шанс","kp_id":null,"imdb_id":"tt11354356","world_art_id":null,"type":"movie","add":"2021-07-27 09:18:27","orig_title":"Second Chances","year":"2021-07-16","translations":["Любительский (многоголосый закадровый) (Синема УС)"],"quality":"webdl","translation":"Любительский (многоголосый закадровый) (Синема УС)","update":"2021-07-27 10:40:04","iframe_src":"//83.svetacdn.in/PfJ50H0ZBPg3/movie/52055"},{"id":52053,"title":"Наследник кобальта","kp_id":"4427060","imdb_id":"tt13085598","world_art_id":null,"type":"movie","add":"2021-07-27 09:13:06","orig_title":"Cobalt Heir","year":"2020-09-13","translations":["Любительский (многоголосый закадровый) (Синема УС)"],"quality":"webdl","translation":"Любительский (многоголосый закадровый) (Синема УС)","update":"2021-07-27 10:41:13","iframe_src":"//83.svetacdn.in/PfJ50H0ZBPg3/movie/52053"},{"id":52052,"title":"Пистолет и Библия в отеле","kp_id":"1285178","imdb_id":"tt10661500","world_art_id":null,"type":"movie","add":"2021-07-27 09:11:31","orig_title":"Gun and a Hotel Bible","year":"2021-01-05","translations":["Любительский (многоголосый закадровый) (Синема УС)"],"quality":"webdl","translation":"Любительский (многоголосый закадровый) (Синема УС)","update":"2021-07-27 10:45:36","iframe_src":"//83.svetacdn.in/PfJ50H0ZBPg3/movie/52052"},{"id":52051,"title":"Типа любовь","kp_id":"1207949","imdb_id":"tt8466970","world_art_id":null,"type":"movie","add":"2021-07-27 08:55:35","orig_title":"Like Love","year":"2020-09-10","translations":["Любительский (многоголосый закадровый) (Синема УС)"],"quality":"webdl","translation":"Любительский (многоголосый закадровый) (Синема УС)","update":"2021-07-27 11:47:56","iframe_src":"//83.svetacdn.in/PfJ50H0ZBPg3/movie/52051"},{"id":52050,"title":"Мать","kp_id":"1295452","imdb_id":"tt10750608","world_art_id":null,"type":"movie","add":"2021-07-27 08:53:40","orig_title":"Mater","year":"2019-11-01","translations":["Любительский (многоголосый закадровый) (AlphaProject)"],"quality":"webdl","translation":"Любительский (многоголосый закадровый) (AlphaProject)","update":"2021-07-27 10:43:11","iframe_src":"//83.svetacdn.in/PfJ50H0ZBPg3/movie/52050"},{"id":52049,"title":"Открытый","kp_id":"1356048","imdb_id":"tt11947216","world_art_id":null,"type":"movie","add":"2021-07-27 08:51:14","orig_title":"Open","year":"2021-07-15","translations":["Любительский (многоголосый закадровый) (Синема УС)"],"quality":"webdl","translation":"Любительский (многоголосый закадровый) (Синема УС)","update":"2021-07-27 10:46:31","iframe_src":"//83.svetacdn.in/PfJ50H0ZBPg3/movie/52049"},{"id":52048,"title":"Я Р.Е.Г.И.Н.А.","kp_id":"1347584","imdb_id":"tt11665206","world_art_id":null,"type":"movie","add":"2021-07-27 08:48:13","orig_title":"R.E.G.I.N.A. I Am","year":"2020-08-25","translations":["Любительский (многоголосый закадровый) (Синема УС)"],"quality":"webdl","translation":"Любительский (многоголосый закадровый) (Синема УС)","update":"2021-07-27 10:51:53","iframe_src":"//83.svetacdn.in/PfJ50H0ZBPg3/movie/52048"},{"id":52047,"title":"Номер 441","kp_id":null,"imdb_id":"tt11702678","world_art_id":null,"type":"movie","add":"2021-07-27 08:41:45","orig_title":"Room 441","year":"2020-02-14","translations":["Любительский (многоголосый закадровый) (Синема УС)"],"quality":"webdl","translation":"Любительский (многоголосый закадровый) (Синема УС)","update":"2021-07-27 10:39:13","iframe_src":"//83.svetacdn.in/PfJ50H0ZBPg3/movie/52047"},{"id":52046,"title":"Таззека","kp_id":"989421","imdb_id":"tt5227512","world_art_id":null,"type":"movie","add":"2021-07-27 08:25:35","orig_title":"Tazzeka","year":"2017-10-22","translations":["Любительский (многоголосый закадровый) (Синема УС)"],"quality":"webdl","translation":"Любительский (многоголосый закадровый) (Синема УС)","update":"2021-07-27 10:44:35","iframe_src":"//83.svetacdn.in/PfJ50H0ZBPg3/movie/52046"},{"id":52045,"title":"Жилец","kp_id":"4510786","imdb_id":"tt14182228","world_art_id":null,"type":"movie","add":"2021-07-27 08:23:54","orig_title":"Tenant","year":"2021-01-15","translations":["Любительский (многоголосый закадровый) (Синема УС)"],"quality":"webdl","translation":"Любительский (многоголосый закадровый) (Синема УС)","update":"2021-07-27 11:49:10","iframe_src":"//83.svetacdn.in/PfJ50H0ZBPg3/movie/52045"},{"id":52044,"title":"Сигареты со вкусом текилы","kp_id":"1176181","imdb_id":"tt8737874","world_art_id":null,"type":"movie","add":"2021-07-27 08:20:08","orig_title":"Tequila Flavored Cigarettes","year":"2019-11-18","translations":["Любительский (многоголосый закадровый) (Синема УС)"],"quality":"webdl","translation":"Любительский (многоголосый закадровый) (Синема УС)","update":"2021-07-27 10:47:46","iframe_src":"//83.svetacdn.in/PfJ50H0ZBPg3/movie/52044"},{"id":52043,"title":"Уолкеры","kp_id":"4442027","imdb_id":"tt14118430","world_art_id":null,"type":"movie","add":"2021-07-27 08:17:28","orig_title":"The Walkers film","year":"2021-06-05","translations":["Любительский (многоголосый закадровый) (Синема УС)"],"quality":"webdl","translation":"Любительский (многоголосый закадровый) (Синема УС)","update":"2021-07-27 11:46:48","iframe_src":"//83.svetacdn.in/PfJ50H0ZBPg3/movie/52043"},{"id":52041,"title":"Бесполезные подарки","kp_id":"1409782","imdb_id":"tt12842524","world_art_id":null,"type":"movie","add":"2021-07-27 08:08:44","orig_title":"White Elephant","year":"2020-11-23","translations":["Любительский (многоголосый закадровый) (AlphaProject)"],"quality":"webdl","translation":"Любительский (многоголосый закадровый) (AlphaProject)","update":"2021-07-27 09:35:33","iframe_src":"//83.svetacdn.in/PfJ50H0ZBPg3/movie/52041"},{"id":52038,"title":"SOS - лето загадок","kp_id":"458042","imdb_id":"tt1186025","world_art_id":null,"type":"movie","add":"2021-07-27 05:57:01","orig_title":"S.O.S Svartskjær","year":"2008-02-15","translations":["Любительский (одноголосый закадровый) (Ващенко Семён)"],"quality":"webdl","translation":"Любительский (одноголосый закадровый) (Ващенко Семён)","update":"2021-07-27 09:55:02","iframe_src":"//83.svetacdn.in/PfJ50H0ZBPg3/movie/52038"},{"id":52037,"title":"Ужас из недр","kp_id":"565893","imdb_id":"tt1706680","world_art_id":null,"type":"movie","add":"2021-07-27 05:51:49","orig_title":"The Terror Beneath","year":"2011-10-08","translations":["Профессиональный (многоголосый закадровый) (ТВ3)","Профессиональный (двухголосый закадровый) (SyFy)","[EN] Original (English)"],"quality":"bd","translation":"Профессиональный (многоголосый закадровый) (ТВ3)","update":"2021-07-27 12:11:41","iframe_src":"//83.svetacdn.in/PfJ50H0ZBPg3/movie/52037"},{"id":52036,"title":"Не все собаки кусачие","kp_id":"479385","imdb_id":"tt1518191","world_art_id":null,"type":"movie","add":"2021-07-27 05:48:51","orig_title":"Some Dogs Bite","year":"2010-10-01","translations":["Профессиональный (многоголосый закадровый) (Кинопоказ)","[EN] Original (English)"],"quality":"bd","translation":"Профессиональный (многоголосый закадровый) (Кинопоказ)","update":"2021-07-27 12:53:23","iframe_src":"//83.svetacdn.in/PfJ50H0ZBPg3/movie/52036"},{"id":47914,"title":"Космические воины","kp_id":"675806","imdb_id":"tt2328745","world_art_id":null,"type":"movie","add":"2021-02-14 18:36:24","orig_title":"Space Warriors","year":"2013-04-26","translations":["Профессиональный (многоголосый закадровый)","Профессиональный (многоголосый закадровый) (СТС)","[EN] Original (English)"],"quality":"hdrip","translation":"Профессиональный (многоголосый закадровый)","update":"2021-07-27 12:04:05","iframe_src":"//83.svetacdn.in/PfJ50H0ZBPg3/movie/47914"},{"id":45512,"title":"Так далеко","kp_id":"1218751","imdb_id":"tt9382140","world_art_id":null,"type":"movie","add":"2020-11-22 20:58:57","orig_title":"Zu weit weg","year":"2019-05-30","translations":["Любительский (многоголосый закадровый) (Синема УС)","Любительский (одноголосый закадровый) (Ващенко Семён)"],"quality":"webdl","translation":"Любительский (многоголосый закадровый) (Синема УС)","update":"2021-07-27 12:06:42","iframe_src":"//83.svetacdn.in/PfJ50H0ZBPg3/movie/45512"},{"id":23083,"title":"Пурпурная дива","kp_id":"35732","imdb_id":"tt0218581","world_art_id":null,"type":"movie","add":"2019-03-14 23:38:34","orig_title":"Scarlet Diva","year":"2000-05-26","translations":["Профессиональный (многоголосый закадровый)","Профессиональный (двухголосый закадровый)","Профессиональный (многоголосый закадровый) (Видеоимпульс)"],"quality":"dvdrip","translation":"Профессиональный (многоголосый закадровый)","update":"2021-07-27 08:30:43","iframe_src":"//83.svetacdn.in/PfJ50H0ZBPg3/movie/23083"},{"id":2979,"title":"Однажды в Ростове","kp_id":"508647","imdb_id":"tt4573408","world_art_id":null,"type":"serial","add":"2018-07-30 11:41:19","orig_title":"Odnazhdy v Rostove","year":"2012-04-23","translations":["Оригинальная дорожка"],"seasons_count":1,"episodes_count":24,"episodes":24,"update":"2018-07-31 09:28:51","iframe_src":"//83.svetacdn.in/PfJ50H0ZBPg3/tv-series/2979"},{"id":2976,"title":"Любовь, которая убивает","kp_id":"461364","imdb_id":"tt0499280","world_art_id":null,"type":"serial","add":"2018-07-29 05:51:56","orig_title":"I jukilnomui sarang","year":"2005-10-31","translations":["Профессиональный (многоголосый закадровый)"],"seasons_count":1,"episodes_count":16,"episodes":16,"update":"2018-07-30 15:59:04","iframe_src":"//83.svetacdn.in/PfJ50H0ZBPg3/tv-series/2976"},{"id":2972,"title":"Город влюблённых","kp_id":"574908","imdb_id":"tt5478360","world_art_id":null,"type":"serial","add":"2018-07-27 07:49:24","orig_title":"Ajikdo Gyeolhonhago Shipeun Yeoja","year":"2010-01-20","translations":["Любительский (двухголосый закадровый)"],"seasons_count":1,"episodes_count":16,"episodes":16,"update":"2018-07-31 08:06:47","iframe_src":"//83.svetacdn.in/PfJ50H0ZBPg3/tv-series/2972"},{"id":2967,"title":"В созвездии Стрельца","kp_id":"841018","imdb_id":"tt4813776","world_art_id":null,"type":"serial","add":"2018-07-26 05:35:06","orig_title":"V sozvezdii Streltsa","year":"2015-01-01","translations":["Оригинальная дорожка"],"seasons_count":1,"episodes_count":8,"episodes":8,"update":"2018-07-27 06:22:27","iframe_src":"//83.svetacdn.in/PfJ50H0ZBPg3/tv-series/2967"},{"id":2966,"title":"Инквизитор","kp_id":"839686","imdb_id":"tt3828180","world_art_id":null,"type":"serial","add":"2018-07-26 05:29:34","orig_title":"Inkvizitor","year":"2014-04-21","translations":["Оригинальная дорожка"],"seasons_count":1,"episodes_count":12,"episodes":12,"update":"2018-07-26 10:04:29","iframe_src":"//83.svetacdn.in/PfJ50H0ZBPg3/tv-series/2966"},{"id":2961,"title":"Счастливая жизнь Ксении","kp_id":"1047755","imdb_id":null,"world_art_id":null,"type":"serial","add":"2018-07-25 05:13:27","orig_title":"Счастливая жизнь Ксении","year":"2017-08-26","translations":["Оригинальная дорожка"],"seasons_count":1,"episodes_count":4,"episodes":4,"update":"2018-07-25 06:37:19","iframe_src":"//83.svetacdn.in/PfJ50H0ZBPg3/tv-series/2961"},{"id":2960,"title":"Необычный детектив","kp_id":"416249","imdb_id":"tt1240976","world_art_id":null,"type":"serial","add":"2018-07-24 16:27:07","orig_title":"The Unusuals","year":"2009-04-08","translations":["Профессиональный (многоголосый закадровый) (СТС)"],"seasons_count":1,"episodes_count":10,"episodes":10,"update":"2018-07-27 06:38:18","iframe_src":"//83.svetacdn.in/PfJ50H0ZBPg3/tv-series/2960"},{"id":2957,"title":"Одессит","kp_id":"807215","imdb_id":null,"world_art_id":null,"type":"serial","add":"2018-07-24 06:12:31","orig_title":"Одессит","year":"2013-10-05","translations":["Оригинальная дорожка"],"seasons_count":1,"episodes_count":4,"episodes":4,"update":"2018-07-24 11:50:37","iframe_src":"//83.svetacdn.in/PfJ50H0ZBPg3/tv-series/2957"},{"id":2956,"title":"Партнёры","kp_id":"736109","imdb_id":null,"world_art_id":null,"type":"serial","add":"2018-07-23 23:10:15","orig_title":"Pateuneo","year":"2009-06-24","translations":["Любительский (одноголосый закадровый) (GREEN TEA)"],"seasons_count":1,"episodes_count":16,"episodes":16,"update":"2018-07-25 06:31:35","iframe_src":"//83.svetacdn.in/PfJ50H0ZBPg3/tv-series/2956"},{"id":2953,"title":"Быть Эрикой","kp_id":"400995","imdb_id":"tt1149608","world_art_id":null,"type":"serial","add":"2018-07-22 08:26:29","orig_title":"Being Erica","year":"2009-01-05","translations":["Профессиональный (многоголосый закадровый) (ТВ3)","Профессиональный (двухголосый закадровый) (DIVA Universal)"],"seasons_count":3,"episodes_count":38,"episodes":13,"update":"2018-07-27 10:39:40","iframe_src":"//83.svetacdn.in/PfJ50H0ZBPg3/tv-series/2953"},{"id":2943,"title":"Отдел 44","kp_id":"929664","imdb_id":null,"world_art_id":null,"type":"serial","add":"2018-07-18 06:53:39","orig_title":"Отдел 44","year":"2015-09-01","translations":["Оригинальная дорожка"],"seasons_count":2,"episodes_count":108,"episodes":28,"update":"2018-07-27 17:23:33","iframe_src":"//83.svetacdn.in/PfJ50H0ZBPg3/tv-series/2943"},{"id":2935,"title":"Льюис","kp_id":"373053","imdb_id":"tt0874608","world_art_id":null,"type":"serial","add":"2018-07-16 12:28:36","orig_title":"Lewis","year":"2006-01-29","translations":["Профессиональный (многоголосый закадровый) (ТВЦ)"],"seasons_count":8,"episodes_count":30,"episodes":3,"update":"2018-07-20 12:05:31","iframe_src":"//83.svetacdn.in/PfJ50H0ZBPg3/tv-series/2935"},{"id":2912,"title":"Sпарта","kp_id":"927627","imdb_id":"tt6840106","world_art_id":null,"type":"serial","add":"2018-07-11 16:28:54","orig_title":"Sparta","year":"2018-07-09","translations":["Оригинальная дорожка"],"seasons_count":1,"episodes_count":8,"episodes":8,"update":"2018-07-21 11:56:25","iframe_src":"//83.svetacdn.in/PfJ50H0ZBPg3/tv-series/2912"},{"id":2809,"title":"Подойди и обними меня","kp_id":"1112298","imdb_id":"tt8269398","world_art_id":null,"type":"serial","add":"2018-06-13 08:12:27","orig_title":"Iriwa Anajwo","year":"2018-05-16","translations":["Любительский (двухголосый закадровый) (SoftBox)","Оригинальная дорожка"],"seasons_count":1,"episodes_count":16,"episodes":16,"update":"2018-07-24 08:41:49","iframe_src":"//83.svetacdn.in/PfJ50H0ZBPg3/tv-series/2809"},{"id":2493,"title":"Звездопад","kp_id":null,"imdb_id":"tt7635308","world_art_id":null,"type":"serial","add":"2018-04-30 17:18:37","orig_title":"Star Falls","year":"2018-03-31","translations":["Любительский (многоголосый закадровый) (ColdFilm)"],"seasons_count":1,"episodes_count":20,"episodes":20,"update":"2018-07-24 16:26:48","iframe_src":"//83.svetacdn.in/PfJ50H0ZBPg3/tv-series/2493"},{"id":2294,"title":"Собака на сене","kp_id":"77206","imdb_id":"tt0076732","world_art_id":null,"type":"serial","add":"2018-03-29 22:00:32","orig_title":"Sobaka na sene","year":"1978-01-01","translations":["Оригинальная дорожка"],"seasons_count":1,"episodes_count":2,"episodes":2,"update":"2018-07-25 06:43:47","iframe_src":"//83.svetacdn.in/PfJ50H0ZBPg3/tv-series/2294"},{"id":2244,"title":"Гюлизар","kp_id":"1112362","imdb_id":"tt7807054","world_art_id":null,"type":"serial","add":"2018-03-18 22:52:15","orig_title":"Gülizar","year":"2018-01-20","translations":["Любительский (двухголосый закадровый)"],"seasons_count":1,"episodes_count":10,"episodes":10,"update":"2018-07-23 11:33:43","iframe_src":"//83.svetacdn.in/PfJ50H0ZBPg3/tv-series/2244"},{"id":1563,"title":"Призраки","kp_id":"1034906","imdb_id":"tt6053538","world_art_id":null,"type":"serial","add":"2017-09-25 10:59:51","orig_title":"Ghosted","year":"2017-10-01","translations":["Профессиональный (многоголосый закадровый) (NewStudio)","Профессиональный (многоголосый закадровый) (LostFilm)"],"seasons_count":1,"episodes_count":16,"episodes":16,"update":"2018-07-24 15:45:24","iframe_src":"//83.svetacdn.in/PfJ50H0ZBPg3/tv-series/1563"},{"id":761,"title":"Нэшвилл","kp_id":"669919","imdb_id":"tt2281375","world_art_id":null,"type":"serial","add":"2016-12-29 19:34:31","orig_title":"Nashville","year":"2012-10-10","translations":["Любительский (двухголосый закадровый) (Kiitos)","Профессиональный (многоголосый закадровый) (SET)","Любительский (многоголосый закадровый) (To4ka)","Профессиональный (многоголосый закадровый) (BaibaKo)"],"seasons_count":6,"episodes_count":120,"episodes":16,"update":"2018-07-31 12:39:17","iframe_src":"//83.svetacdn.in/PfJ50H0ZBPg3/tv-series/761"},{"id":387,"title":"Я работаю в суде","kp_id":null,"imdb_id":null,"world_art_id":null,"type":"serial","add":"2016-08-30 04:59:28","orig_title":"Я работаю в суде","year":"2016-08-29","translations":["Оригинальная дорожка"],"seasons_count":1,"episodes_count":20,"episodes":20,"update":"2018-07-23 07:22:38","iframe_src":"//83.svetacdn.in/PfJ50H0ZBPg3/tv-series/387"},{"id":1021,"title":"Тринадцать привидений","kp_id":"7639","imdb_id":"tt0245674","world_art_id":null,"type":"movie","add":"2016-04-12 15:44:16","orig_title":"Thir13en Ghosts","year":"2001-10-23","translations":["Профессиональный (многоголосый закадровый)","Авторский (одноголосый закадровый) (Гаврилов Андрей)","Авторский (одноголосый закадровый) (Визгунов Сергей)","Авторский (одноголосый закадровый) (Живов Юрий)","Полное дублирование (Невафильм | Нева-1)","[EN] Original (English)","Профессиональный (многоголосый закадровый) (Интер-Фильм)","Профессиональный (многоголосый закадровый) (Карусель)","Профессиональный (многоголосый закадровый)","Профессиональный (многоголосый закадровый) (ТВ3)"],"quality":"bd","translation":"Профессиональный (многоголосый закадровый)","update":"2021-07-27 09:21:18","iframe_src":"//83.svetacdn.in/PfJ50H0ZBPg3/movie/1021"}],"current_page":523,"first_page_url":"https://videocdn.tv/api/short?limit=100&api_token=RgFQdUIR2dRmwv8iYa5SnFNgnw3vpjKj&cache3523=3523&page=1","from":52201,"last_page":719,"last_page_url":"https://videocdn.tv/api/short?limit=100&api_token=RgFQdUIR2dRmwv8iYa5SnFNgnw3vpjKj&cache3523=3523&page=719","next_page_url":"https://videocdn.tv/api/short?limit=100&api_token=RgFQdUIR2dRmwv8iYa5SnFNgnw3vpjKj&cache3523=3523&page=524","path":"https://videocdn.tv/api/short","per_page":100,"prev_page_url":"https://videocdn.tv/api/short?limit=100&api_token=RgFQdUIR2dRmwv8iYa5SnFNgnw3vpjKj&cache3523=3523&page=522","to":52240,"total":71893}