{"result":true,"data":[{"id":32883,"title":"Пусть идёт снег","kp_id":"607031","imdb_id":"tt1950235","world_art_id":null,"type":"movie","add":"2019-11-09 07:48:35","orig_title":"Let It Snow","year":"2019-11-08","translations":["Полное дублирование"],"quality":"webdl","translation":"Полное дублирование","update":"2019-11-09 12:04:48","iframe_src":"//8965.svetacdn.in/71tsRs29n5tZ/movie/32883"},{"id":32872,"title":"Волшебная таблетка","kp_id":null,"imdb_id":"tt6035294","world_art_id":null,"type":"movie","add":"2019-11-08 21:38:42","orig_title":"The Magic Pill","year":"2017-09-07","translations":["Любительский (многоголосый закадровый)"],"quality":"webdl","translation":"Любительский (многоголосый закадровый)","update":"2019-11-09 06:23:38","iframe_src":"//8965.svetacdn.in/71tsRs29n5tZ/movie/32872"},{"id":32871,"title":"Хранители огня","kp_id":"422412","imdb_id":"tt1275861","world_art_id":null,"type":"movie","add":"2019-11-08 21:22:49","orig_title":"Under the Mountain","year":"2009-09-13","translations":["Профессиональный (многоголосый закадровый)"],"quality":"hdrip","translation":"Профессиональный (многоголосый закадровый)","update":"2019-11-09 06:26:17","iframe_src":"//8965.svetacdn.in/71tsRs29n5tZ/movie/32871"},{"id":32869,"title":"Следователь","kp_id":"394882","imdb_id":"tt1092021","world_art_id":null,"type":"movie","add":"2019-11-08 21:14:27","orig_title":"A nyomozó","year":"2008-07-10","translations":["Любительский (многоголосый закадровый)"],"quality":"dvdrip","translation":"Любительский (многоголосый закадровый)","update":"2019-11-09 06:24:50","iframe_src":"//8965.svetacdn.in/71tsRs29n5tZ/movie/32869"},{"id":32859,"title":"Чужой: Одна","kp_id":"1258053","imdb_id":"tt10172856","world_art_id":null,"type":"movie","add":"2019-11-08 14:48:05","orig_title":"Alien:Alone","year":"2019-03-15","translations":["Профессиональный (многоголосый закадровый) (LostFilm)"],"quality":"webdl","translation":"Профессиональный (многоголосый закадровый) (LostFilm)","update":"2019-11-09 15:00:14","iframe_src":"//8965.svetacdn.in/71tsRs29n5tZ/movie/32859"},{"id":32855,"title":"Примесь","kp_id":"636156","imdb_id":"tt2084989","world_art_id":null,"type":"movie","add":"2019-11-08 10:01:45","orig_title":"Upstream Color","year":"2013-01-21","translations":["Любительский (двухголосый закадровый)"],"quality":"bd","translation":"Любительский (двухголосый закадровый)","update":"2019-11-09 06:30:24","iframe_src":"//8965.svetacdn.in/71tsRs29n5tZ/movie/32855"},{"id":32849,"title":"Пропавшая","kp_id":"1009652","imdb_id":"tt4823122","world_art_id":null,"type":"movie","add":"2019-11-07 21:28:16","orig_title":"Bang jia zhe","year":"2017-04-01","translations":["Любительский (многоголосый закадровый) (Колобок)"],"quality":"hdrip","translation":"Любительский (многоголосый закадровый) (Колобок)","update":"2019-11-08 22:37:33","iframe_src":"//8965.svetacdn.in/71tsRs29n5tZ/movie/32849"},{"id":32825,"title":"Годзилла","kp_id":"60752","imdb_id":"tt0087344","world_art_id":null,"type":"movie","add":"2019-11-07 12:19:48","orig_title":"Godzilla 1985","year":"1985-07-26","translations":["Любительский (одноголосый закадровый)"],"quality":"dvdrip","translation":"Любительский (одноголосый закадровый)","update":"2019-11-08 22:36:50","iframe_src":"//8965.svetacdn.in/71tsRs29n5tZ/movie/32825"},{"id":32824,"title":"Годзилла: Миллениум","kp_id":"25402","imdb_id":"tt0188640","world_art_id":null,"type":"movie","add":"2019-11-07 12:17:09","orig_title":"Gojira ni-sen mireniamu","year":"1999-11-06","translations":["Профессиональный (двухголосый закадровый)"],"quality":"dvdrip","translation":"Профессиональный (двухголосый закадровый)","update":"2019-11-08 22:36:18","iframe_src":"//8965.svetacdn.in/71tsRs29n5tZ/movie/32824"},{"id":32817,"title":"Читающий лица","kp_id":"775516","imdb_id":"tt3008014","world_art_id":null,"type":"movie","add":"2019-11-07 07:44:47","orig_title":"Gwansang","year":"2013-09-11","translations":["Любительский (одноголосый закадровый)"],"quality":"bd","translation":"Любительский (одноголосый закадровый)","update":"2019-11-08 13:41:51","iframe_src":"//8965.svetacdn.in/71tsRs29n5tZ/movie/32817"},{"id":32816,"title":"Меченосцы","kp_id":"566095","imdb_id":"tt1718199","world_art_id":null,"type":"movie","add":"2019-11-07 07:37:53","orig_title":"Wu xia","year":"2011-05-13","translations":["Любительский (одноголосый закадровый)"],"quality":"bd","translation":"Любительский (одноголосый закадровый)","update":"2019-11-08 13:24:33","iframe_src":"//8965.svetacdn.in/71tsRs29n5tZ/movie/32816"},{"id":32805,"title":"Путь в тысячу миль","kp_id":"87848","imdb_id":"tt0437447","world_art_id":null,"type":"movie","add":"2019-11-06 21:27:09","orig_title":"Qian li zou dan qi","year":"2005-10-22","translations":["Профессиональный (многоголосый закадровый)"],"quality":"dvdrip","translation":"Профессиональный (многоголосый закадровый)","update":"2019-11-08 13:22:57","iframe_src":"//8965.svetacdn.in/71tsRs29n5tZ/movie/32805"},{"id":32804,"title":"Всё, что мне осталось от тебя","kp_id":"894321","imdb_id":"tt4508986","world_art_id":null,"type":"movie","add":"2019-11-06 21:20:49","orig_title":"Senden Bana Kalan","year":"2015-04-17","translations":["Любительский (двухголосый закадровый)"],"quality":"webdl","translation":"Любительский (двухголосый закадровый)","update":"2019-11-08 13:22:27","iframe_src":"//8965.svetacdn.in/71tsRs29n5tZ/movie/32804"},{"id":32803,"title":"Храм Шаолинь","kp_id":"23612","imdb_id":"tt0079891","world_art_id":null,"type":"movie","add":"2019-11-06 21:18:06","orig_title":"Shao Lin si","year":"1982-01-21","translations":["Авторский (одноголосый закадровый) (Кузнецов Сергей)"],"quality":"bd","translation":"Авторский (одноголосый закадровый) (Кузнецов Сергей)","update":"2019-11-08 13:21:40","iframe_src":"//8965.svetacdn.in/71tsRs29n5tZ/movie/32803"},{"id":32802,"title":"Светлое будущее 2: Ураганный огонь","kp_id":"5372","imdb_id":"tt0094357","world_art_id":null,"type":"movie","add":"2019-11-06 21:12:31","orig_title":"Ying hung boon sik II","year":"1987-12-17","translations":["Профессиональный (многоголосый закадровый) (Film Prestige)"],"quality":"bd","translation":"Профессиональный (многоголосый закадровый) (Film Prestige)","update":"2019-11-08 13:20:23","iframe_src":"//8965.svetacdn.in/71tsRs29n5tZ/movie/32802"},{"id":32800,"title":"Ход конём","kp_id":"780337","imdb_id":"tt3204366","world_art_id":null,"type":"movie","add":"2019-11-06 21:03:48","orig_title":"Khod konem","year":"2013-10-10","translations":["Профессиональный (многоголосый закадровый)"],"quality":"webdl","translation":"Профессиональный (многоголосый закадровый)","update":"2019-11-08 13:13:43","iframe_src":"//8965.svetacdn.in/71tsRs29n5tZ/movie/32800"},{"id":32799,"title":"Зеро 2","kp_id":"497882","imdb_id":"tt1592292","world_art_id":null,"type":"movie","add":"2019-11-06 20:57:19","orig_title":"Zero 2","year":"2010-01-20","translations":["Профессиональный (одноголосый закадровый)"],"quality":"bd","translation":"Профессиональный (одноголосый закадровый)","update":"2019-11-08 12:50:21","iframe_src":"//8965.svetacdn.in/71tsRs29n5tZ/movie/32799"},{"id":32798,"title":"Он и она","kp_id":"772356","imdb_id":"tt4190402","world_art_id":null,"type":"movie","add":"2019-11-06 20:53:44","orig_title":"On i Ona","year":"2013-10-10","translations":["Оригинальная дорожка"],"quality":"webdl","translation":"Оригинальная дорожка","update":"2019-11-08 12:49:24","iframe_src":"//8965.svetacdn.in/71tsRs29n5tZ/movie/32798"},{"id":32759,"title":"Прекрасный дождь","kp_id":"394709","imdb_id":"tt1067086","world_art_id":null,"type":"movie","add":"2019-11-05 21:05:16","orig_title":"Suwîto rein: Shinigami no seido","year":"2008-03-22","translations":["Любительский (одноголосый закадровый)"],"quality":"dvdrip","translation":"Любительский (одноголосый закадровый)","update":"2019-11-08 12:43:27","iframe_src":"//8965.svetacdn.in/71tsRs29n5tZ/movie/32759"},{"id":32758,"title":"Тайная миссия","kp_id":"756940","imdb_id":"tt2967578","world_art_id":null,"type":"movie","add":"2019-11-05 20:53:46","orig_title":"Eunmilhage widaehage","year":"2013-06-05","translations":["Любительский (двухголосый закадровый) (GREEN TEA)"],"quality":"bd","translation":"Любительский (двухголосый закадровый) (GREEN TEA)","update":"2019-11-08 12:42:52","iframe_src":"//8965.svetacdn.in/71tsRs29n5tZ/movie/32758"}],"current_page":1506,"first_page_url":"https://videocdn.tv/api/short?limit=100&api_token=EnbO9h8pv1VyjbCJhg0WM9nG259n7mtz&cache31506=31506&page=1","from":150501,"last_page":709,"last_page_url":"https://videocdn.tv/api/short?limit=100&api_token=EnbO9h8pv1VyjbCJhg0WM9nG259n7mtz&cache31506=31506&page=709","next_page_url":null,"path":"https://videocdn.tv/api/short","per_page":100,"prev_page_url":"https://videocdn.tv/api/short?limit=100&api_token=EnbO9h8pv1VyjbCJhg0WM9nG259n7mtz&cache31506=31506&page=1505","to":150520,"total":70884}