{"result":true,"data":[{"id":47750,"title":"Ишвар","kp_id":"322943","imdb_id":"tt0924219","world_art_id":null,"type":"movie","add":"2021-02-08 10:04:59","orig_title":"Eeshwar","year":"2002-11-11","translations":["Любительский (одноголосый закадровый)  (zamez | Замез Вячеслав)"],"quality":"webdl","translation":"Любительский (одноголосый закадровый)  (zamez | Замез Вячеслав)","update":"2021-02-08 15:02:47","iframe_src":"//24213.svetacdn.in/71tsRs29n5tZ/movie/47750"},{"id":47749,"title":"Стрелы Амура","kp_id":"760463","imdb_id":"tt2845796","world_art_id":null,"type":"movie","add":"2021-02-08 09:58:36","orig_title":"Attakathi","year":"2012-08-15","translations":["Профессиональный (многоголосый закадровый) (Индия ТВ)"],"quality":"webdl","translation":"Профессиональный (многоголосый закадровый) (Индия ТВ)","update":"2021-02-08 15:01:24","iframe_src":"//24213.svetacdn.in/71tsRs29n5tZ/movie/47749"},{"id":47748,"title":"Трилогия ужаса 2","kp_id":"298350","imdb_id":"tt0117966","world_art_id":null,"type":"movie","add":"2021-02-08 09:50:35","orig_title":"Trilogy of Terror II","year":"1996-10-30","translations":["Авторский (одноголосый закадровый) (Дольский Андрей)"],"quality":"hdrip","translation":"Авторский (одноголосый закадровый) (Дольский Андрей)","update":"2021-02-08 11:47:21","iframe_src":"//24213.svetacdn.in/71tsRs29n5tZ/movie/47748"},{"id":47747,"title":"Битва с демоном","kp_id":"208321","imdb_id":"tt0114236","world_art_id":null,"type":"movie","add":"2021-02-08 09:50:04","orig_title":"Ravan Raaj: A True Story","year":"1995-06-23","translations":["Профессиональный (одноголосый закадровый)"],"quality":"webdl","translation":"Профессиональный (одноголосый закадровый)","update":"2021-02-08 15:00:52","iframe_src":"//24213.svetacdn.in/71tsRs29n5tZ/movie/47747"},{"id":47736,"title":"Маркиза","kp_id":"15074","imdb_id":"tt0119623","world_art_id":null,"type":"movie","add":"2021-02-08 06:31:01","orig_title":"Marquise","year":"1997-08-20","translations":["Профессиональный (многоголосый закадровый) (Лексикон)"],"quality":"bd","translation":"Профессиональный (многоголосый закадровый) (Лексикон)","update":"2021-02-08 14:46:11","iframe_src":"//24213.svetacdn.in/71tsRs29n5tZ/movie/47736"},{"id":47712,"title":"Так начиналась легенда","kp_id":"42186","imdb_id":"tt0075304","world_art_id":null,"type":"movie","add":"2021-02-07 13:28:53","orig_title":"Tak nachinalas legenda","year":"1976-04-11","translations":["Оригинальная дорожка"],"quality":"tv","translation":"Оригинальная дорожка","update":"2021-02-08 15:11:12","iframe_src":"//24213.svetacdn.in/71tsRs29n5tZ/movie/47712"},{"id":47711,"title":"Комэск","kp_id":"472200","imdb_id":"tt9357278","world_art_id":null,"type":"movie","add":"2021-02-07 13:25:03","orig_title":"Komesk","year":"1965-01-01","translations":["Оригинальная дорожка"],"quality":"vhs","translation":"Оригинальная дорожка","update":"2021-02-08 15:09:31","iframe_src":"//24213.svetacdn.in/71tsRs29n5tZ/movie/47711"},{"id":47710,"title":"Золотые слова","kp_id":"668175","imdb_id":"tt7972470","world_art_id":null,"type":"movie","add":"2021-02-07 13:21:42","orig_title":"Zolotye Slova","year":"1989-01-01","translations":["Оригинальная дорожка"],"quality":"dvdrip","translation":"Оригинальная дорожка","update":"2021-02-08 15:08:39","iframe_src":"//24213.svetacdn.in/71tsRs29n5tZ/movie/47710"},{"id":47665,"title":"Товарищ песня","kp_id":"477490","imdb_id":"tt8224806","world_art_id":null,"type":"movie","add":"2021-02-04 18:44:22","orig_title":"Tovarishch pesnya","year":"1966-08-01","translations":["Оригинальная дорожка"],"quality":"tv","translation":"Оригинальная дорожка","update":"2021-02-08 15:07:47","iframe_src":"//24213.svetacdn.in/71tsRs29n5tZ/movie/47665"},{"id":47664,"title":"Парень из тайги","kp_id":"43213","imdb_id":"tt0189945","world_art_id":null,"type":"movie","add":"2021-02-04 18:40:59","orig_title":"Paren iz taygi","year":"1941-05-12","translations":["Оригинальная дорожка"],"quality":"webdl","translation":"Оригинальная дорожка","update":"2021-02-08 15:06:46","iframe_src":"//24213.svetacdn.in/71tsRs29n5tZ/movie/47664"},{"id":47663,"title":"Охота на последнего журавля","kp_id":"1044438","imdb_id":"tt5674480","world_art_id":null,"type":"movie","add":"2021-02-04 18:37:51","orig_title":"Palyavanne na aposhnyaga zhuraulya","year":"1986-01-01","translations":["Оригинальная дорожка"],"quality":"iptv","translation":"Оригинальная дорожка","update":"2021-02-08 15:05:56","iframe_src":"//24213.svetacdn.in/71tsRs29n5tZ/movie/47663"},{"id":47662,"title":"Наш честный хлеб","kp_id":"46327","imdb_id":"tt0172859","world_art_id":null,"type":"movie","add":"2021-02-04 18:34:58","orig_title":"Nash chestnyy khleb","year":"1964-12-07","translations":["Оригинальная дорожка"],"quality":"vhs","translation":"Оригинальная дорожка","update":"2021-02-08 15:05:13","iframe_src":"//24213.svetacdn.in/71tsRs29n5tZ/movie/47662"},{"id":47660,"title":"Всего один поворот","kp_id":"491692","imdb_id":"tt2023810","world_art_id":null,"type":"movie","add":"2021-02-04 18:30:02","orig_title":"Vsego odin povorot","year":"1987-06-21","translations":["Оригинальная дорожка"],"quality":"tv","translation":"Оригинальная дорожка","update":"2021-02-08 15:04:43","iframe_src":"//24213.svetacdn.in/71tsRs29n5tZ/movie/47660"},{"id":47659,"title":"Узнай меня","kp_id":"475016","imdb_id":"tt4971550","world_art_id":null,"type":"movie","add":"2021-02-04 18:27:42","orig_title":"Uznay menya","year":"1979-07-01","translations":["Оригинальная дорожка"],"quality":"dvdrip","translation":"Оригинальная дорожка","update":"2021-02-08 15:04:06","iframe_src":"//24213.svetacdn.in/71tsRs29n5tZ/movie/47659"},{"id":47658,"title":"Утренняя музыка","kp_id":"627272","imdb_id":null,"world_art_id":null,"type":"movie","add":"2021-02-04 18:25:40","orig_title":"Утренняя музыка","year":"1974-01-01","translations":["Оригинальная дорожка"],"quality":"dvdrip","translation":"Оригинальная дорожка","update":"2021-02-08 15:03:23","iframe_src":"//24213.svetacdn.in/71tsRs29n5tZ/movie/47658"},{"id":47657,"title":"Три рубля","kp_id":"43603","imdb_id":"tt0283075","world_art_id":null,"type":"movie","add":"2021-02-04 18:21:03","orig_title":"Sami maneti","year":"1976-06-01","translations":["Оригинальная дорожка"],"quality":"sat","translation":"Оригинальная дорожка","update":"2021-02-08 15:02:42","iframe_src":"//24213.svetacdn.in/71tsRs29n5tZ/movie/47657"},{"id":39950,"title":"Фея","kp_id":"1254046","imdb_id":"tt12235234","world_art_id":null,"type":"movie","add":"2020-04-29 20:05:07","orig_title":"Feya","year":"2020-09-18","translations":["Оригинальная дорожка","Оригинальная дорожка"],"quality":"webdl","translation":"Оригинальная дорожка","update":"2021-02-08 14:48:46","iframe_src":"//24213.svetacdn.in/71tsRs29n5tZ/movie/39950"},{"id":32756,"title":"Мать","kp_id":"410597","imdb_id":"tt1216496","world_art_id":null,"type":"movie","add":"2019-11-05 20:42:02","orig_title":"Madeo","year":"2009-05-16","translations":["Авторский (одноголосый закадровый) (Сербин Юрий)","Профессиональный (многоголосый закадровый)"],"quality":"bd","translation":"Авторский (одноголосый закадровый) (Сербин Юрий)","update":"2021-02-08 14:51:24","iframe_src":"//24213.svetacdn.in/71tsRs29n5tZ/movie/32756"},{"id":24455,"title":"Кромовъ","kp_id":"417599","imdb_id":"tt3752316","world_art_id":null,"type":"movie","add":"2019-04-12 20:54:57","orig_title":"Kromov","year":"2009-01-01","translations":["Оригинальная дорожка","Оригинальная дорожка"],"quality":"dvdrip","translation":"Оригинальная дорожка","update":"2021-02-08 14:49:41","iframe_src":"//24213.svetacdn.in/71tsRs29n5tZ/movie/24455"},{"id":18348,"title":"Ловушка для одинокого мужчины","kp_id":"45121","imdb_id":"tt0100069","world_art_id":null,"type":"movie","add":"2018-08-16 13:25:12","orig_title":"Lovushka dlya odinokogo muzhchiny","year":"1990-12-01","translations":["Оригинальная дорожка","Оригинальная дорожка"],"quality":"hdtv","translation":"Оригинальная дорожка","update":"2021-02-08 15:10:31","iframe_src":"//24213.svetacdn.in/71tsRs29n5tZ/movie/18348"}],"current_page":866,"first_page_url":"https://videocdn.tv/api/short?limit=100&api_token=EnbO9h8pv1VyjbCJhg0WM9nG259n7mtz&cache3866=3866&page=1","from":86501,"last_page":727,"last_page_url":"https://videocdn.tv/api/short?limit=100&api_token=EnbO9h8pv1VyjbCJhg0WM9nG259n7mtz&cache3866=3866&page=727","next_page_url":null,"path":"https://videocdn.tv/api/short","per_page":100,"prev_page_url":"https://videocdn.tv/api/short?limit=100&api_token=EnbO9h8pv1VyjbCJhg0WM9nG259n7mtz&cache3866=3866&page=865","to":86520,"total":72634}