{"result":true,"data":[{"id":20224,"title":"То-хи","kp_id":"839231","imdb_id":"tt3661798","world_art_id":null,"type":"movie","add":"2018-11-20 22:23:43","orig_title":"Doheeya","year":"2014-05-19","translations":["Любительский (двухголосый закадровый) (DeadSno & den904)"],"quality":"bd","translation":"Любительский (двухголосый закадровый) (DeadSno & den904)","update":"2018-11-21 07:51:06","iframe_src":"//83.svetacdn.in/PfJ50H0ZBPg3/movie/20224"},{"id":20214,"title":"Ф.О.Т.О.Г.Р.А.Ф.","kp_id":"1111646","imdb_id":null,"world_art_id":null,"type":"movie","add":"2018-11-20 09:12:02","orig_title":"Ф.О.Т.О.Г.Р.А.Ф.","year":"2018-03-11","translations":["Оригинальная дорожка"],"quality":"webdl","translation":"Оригинальная дорожка","update":"2018-11-20 21:30:52","iframe_src":"//83.svetacdn.in/PfJ50H0ZBPg3/movie/20214"},{"id":20212,"title":"Видеоман","kp_id":"961919","imdb_id":"tt5295774","world_art_id":null,"type":"movie","add":"2018-11-19 21:34:52","orig_title":"Videomannen","year":"2018-08-24","translations":["Любительский (многоголосый закадровый) (Синема УС)"],"quality":"bd","translation":"Любительский (многоголосый закадровый) (Синема УС)","update":"2018-11-20 07:07:27","iframe_src":"//83.svetacdn.in/PfJ50H0ZBPg3/movie/20212"},{"id":20211,"title":"Техасский хлопок","kp_id":"1132800","imdb_id":"tt8009578","world_art_id":null,"type":"movie","add":"2018-11-19 21:25:31","orig_title":"Texas Cotton","year":"2018-10-28","translations":["Любительский (многоголосый закадровый) (Синема УС)"],"quality":"webdl","translation":"Любительский (многоголосый закадровый) (Синема УС)","update":"2018-11-20 07:12:58","iframe_src":"//83.svetacdn.in/PfJ50H0ZBPg3/movie/20211"},{"id":20210,"title":"Там же, через неделю","kp_id":"1000272","imdb_id":"tt5985260","world_art_id":null,"type":"movie","add":"2018-11-19 21:21:58","orig_title":"Same Time Next Week","year":"2017-08-05","translations":["Любительский (многоголосый закадровый) (Синема УС)"],"quality":"webdl","translation":"Любительский (многоголосый закадровый) (Синема УС)","update":"2018-11-20 07:15:22","iframe_src":"//83.svetacdn.in/PfJ50H0ZBPg3/movie/20210"},{"id":20209,"title":"Рукья: Экзорцизм","kp_id":"1126168","imdb_id":"tt7336274","world_art_id":null,"type":"movie","add":"2018-11-19 21:20:18","orig_title":"Ruqyah: The Exorcism","year":"2017-10-05","translations":["Любительский (многоголосый закадровый) (Колобок)"],"quality":"webdl","translation":"Любительский (многоголосый закадровый) (Колобок)","update":"2018-11-20 07:16:30","iframe_src":"//83.svetacdn.in/PfJ50H0ZBPg3/movie/20209"},{"id":20208,"title":"Путь к Рождеству","kp_id":"1178527","imdb_id":"tt8732914","world_art_id":null,"type":"movie","add":"2018-11-19 21:18:34","orig_title":"Road to Christmas","year":"2018-11-04","translations":["Любительский (многоголосый закадровый) (Синема УС)"],"quality":"hdtv","translation":"Любительский (многоголосый закадровый) (Синема УС)","update":"2018-11-20 07:17:31","iframe_src":"//83.svetacdn.in/PfJ50H0ZBPg3/movie/20208"},{"id":20206,"title":"Муч","kp_id":null,"imdb_id":"tt7240568","world_art_id":null,"type":"movie","add":"2018-11-19 21:11:07","orig_title":"Mooch","year":"2018-10-23","translations":["Любительский (многоголосый закадровый) (Синема УС)"],"quality":"webdl","translation":"Любительский (многоголосый закадровый) (Синема УС)","update":"2018-11-20 07:22:05","iframe_src":"//83.svetacdn.in/PfJ50H0ZBPg3/movie/20206"},{"id":20203,"title":"Мэгги Блэк","kp_id":"848917","imdb_id":"tt3852028","world_art_id":null,"type":"movie","add":"2018-11-19 21:03:02","orig_title":"Maggie Black","year":"2017-04-20","translations":["Любительский (многоголосый закадровый) (Синема УС)"],"quality":"webdl","translation":"Любительский (многоголосый закадровый) (Синема УС)","update":"2018-11-20 07:28:29","iframe_src":"//83.svetacdn.in/PfJ50H0ZBPg3/movie/20203"},{"id":20200,"title":"Ночи с фурри","kp_id":null,"imdb_id":"tt6285002","world_art_id":null,"type":"movie","add":"2018-11-19 20:58:08","orig_title":"Furry Nights","year":"2016-11-30","translations":["Любительский (многоголосый закадровый) (Колобок)"],"quality":"webdl","translation":"Любительский (многоголосый закадровый) (Колобок)","update":"2018-11-20 07:34:04","iframe_src":"//83.svetacdn.in/PfJ50H0ZBPg3/movie/20200"},{"id":20198,"title":"Миг","kp_id":"1031080","imdb_id":"tt6544524","world_art_id":null,"type":"movie","add":"2018-11-19 20:54:46","orig_title":"Blink","year":"2018-09-07","translations":["Любительский (многоголосый закадровый) (Синема УС)"],"quality":"webdl","translation":"Любительский (многоголосый закадровый) (Синема УС)","update":"2018-11-20 07:32:40","iframe_src":"//83.svetacdn.in/PfJ50H0ZBPg3/movie/20198"},{"id":20163,"title":"Нахальные трусики","kp_id":"582133","imdb_id":"tt1822302","world_art_id":null,"type":"movie","add":"2018-11-17 21:47:32","orig_title":"Sassy Pants","year":"2012-10-26","translations":["[EN] Original (English)"],"quality":"hdtv","translation":"[EN] Original (English)","update":"2018-11-20 11:50:03","iframe_src":"//83.svetacdn.in/PfJ50H0ZBPg3/movie/20163"},{"id":20162,"title":"Поцелуй меня","kp_id":"663023","imdb_id":"tt2184219","world_art_id":null,"type":"movie","add":"2018-11-17 21:39:19","orig_title":"Kiss Me","year":"2014-02-14","translations":["[EN] Original (English)"],"quality":"hdtv","translation":"[EN] Original (English)","update":"2018-11-20 12:11:50","iframe_src":"//83.svetacdn.in/PfJ50H0ZBPg3/movie/20162"},{"id":18368,"title":"Что еще остается","kp_id":"1000016","imdb_id":"tt6013156","world_art_id":null,"type":"movie","add":"2018-08-16 22:52:09","orig_title":"What Still Remains","year":"2018-08-14","translations":["Любительский (многоголосый закадровый) (Синема УС)"],"quality":"bd","translation":"Любительский (многоголосый закадровый) (Синема УС)","update":"2018-11-20 07:06:05","iframe_src":"//83.svetacdn.in/PfJ50H0ZBPg3/movie/18368"},{"id":17705,"title":"Громила","kp_id":"842181","imdb_id":"tt3831810","world_art_id":null,"type":"movie","add":"2018-07-12 22:34:23","orig_title":"Big Driver","year":"2014-10-18","translations":["Профессиональный (многоголосый закадровый)","[EN] Original (English)"],"quality":"bd","translation":"Профессиональный (многоголосый закадровый)","update":"2018-11-20 07:37:16","iframe_src":"//83.svetacdn.in/PfJ50H0ZBPg3/movie/17705"},{"id":17699,"title":"Кем мы стали","kp_id":"1045936","imdb_id":"tt6680312","world_art_id":null,"type":"movie","add":"2018-07-11 22:55:43","orig_title":"Who We Are Now","year":"2017-09-09","translations":["Любительский (многоголосый закадровый) (Синема УС)","Полное дублирование"],"quality":"webdl","translation":"Любительский (многоголосый закадровый) (Синема УС)","update":"2018-11-21 07:52:37","iframe_src":"//83.svetacdn.in/PfJ50H0ZBPg3/movie/17699"},{"id":17340,"title":"Пусть трупы загорают","kp_id":"998791","imdb_id":"tt5827212","world_art_id":null,"type":"movie","add":"2018-06-24 23:02:33","orig_title":"Laissez bronzer les cadavres","year":"2017-08-04","translations":["Любительский (многоголосый закадровый) (Колобок)","Профессиональный (многоголосый закадровый) (GreenРай Studio)","Любительский (двухголосый закадровый) (LakeFilms)"],"quality":"webdl","translation":"Любительский (многоголосый закадровый) (Колобок)","update":"2018-11-20 07:05:01","iframe_src":"//83.svetacdn.in/PfJ50H0ZBPg3/movie/17340"},{"id":12514,"title":"До костей","kp_id":"968770","imdb_id":"tt5541240","world_art_id":null,"type":"movie","add":"2017-07-17 08:43:47","orig_title":"To the Bone","year":"2017-01-22","translations":["Любительский (многоголосый закадровый) (@MUZOBOZ@)","Профессиональный (многоголосый закадровый) (GreenРай Studio)","Любительский (двухголосый закадровый) (LakeFilms)","[EN] Original (English)"],"quality":"webdl","translation":"Любительский (многоголосый закадровый) (@MUZOBOZ@)","update":"2018-11-20 07:40:08","iframe_src":"//83.svetacdn.in/PfJ50H0ZBPg3/movie/12514"},{"id":3344,"title":"Хэллоуин 2","kp_id":"429039","imdb_id":"tt1311067","world_art_id":null,"type":"movie","add":"2016-06-23 14:21:02","orig_title":"Halloween II","year":"2009-08-28","translations":["Профессиональный (многоголосый закадровый)","Любительский (двухголосый закадровый)"],"quality":"bd","translation":"Профессиональный (многоголосый закадровый)","update":"2018-11-21 07:47:15","iframe_src":"//83.svetacdn.in/PfJ50H0ZBPg3/movie/3344"},{"id":1205,"title":"Специалист по выживанию","kp_id":"726835","imdb_id":"tt2580382","world_art_id":null,"type":"movie","add":"2016-04-18 11:13:12","orig_title":"The Survivalist","year":"2015-04-18","translations":["Любительский (многоголосый закадровый) (Паровоз Продакшн | Parovoz Production)","Любительский (многоголосый закадровый) (Синема УС)","[EN] Original (English)"],"quality":"webdl","translation":"Любительский (многоголосый закадровый) (Паровоз Продакшн | Parovoz Production)","update":"2018-11-19 14:47:35","iframe_src":"//83.svetacdn.in/PfJ50H0ZBPg3/movie/1205"}],"current_page":2177,"first_page_url":"https://videocdn.tv/api/short?limit=100&api_token=RgFQdUIR2dRmwv8iYa5SnFNgnw3vpjKj&cache32177=32177&page=1","from":217601,"last_page":721,"last_page_url":"https://videocdn.tv/api/short?limit=100&api_token=RgFQdUIR2dRmwv8iYa5SnFNgnw3vpjKj&cache32177=32177&page=721","next_page_url":null,"path":"https://videocdn.tv/api/short","per_page":100,"prev_page_url":"https://videocdn.tv/api/short?limit=100&api_token=RgFQdUIR2dRmwv8iYa5SnFNgnw3vpjKj&cache32177=32177&page=2176","to":217620,"total":72083}