{"result":true,"data":[{"id":38934,"title":"Фейерверк","kp_id":"1292458","imdb_id":"tt10750020","world_art_id":null,"type":"movie","add":"2020-04-06 08:54:54","orig_title":"Pattas","year":"2020-01-15","translations":["Любительский (многоголосый закадровый) (Синема УС)"],"quality":"webdl","translation":"Любительский (многоголосый закадровый) (Синема УС)","update":"2020-04-06 15:01:36","iframe_src":"//8332.svetacdn.in/71tsRs29n5tZ/movie/38934"},{"id":38924,"title":"Ахтамар","kp_id":"493124","imdb_id":null,"world_art_id":null,"type":"movie","add":"2020-04-06 07:45:50","orig_title":"Ahtamar","year":"2009-10-22","translations":["Оригинальная дорожка"],"quality":"hdrip","translation":"Оригинальная дорожка","update":"2020-04-06 14:37:17","iframe_src":"//8332.svetacdn.in/71tsRs29n5tZ/movie/38924"},{"id":38916,"title":"Король Данило","kp_id":"1221064","imdb_id":null,"world_art_id":null,"type":"movie","add":"2020-04-06 07:24:36","orig_title":"Король Данило","year":"2018-11-22","translations":["Любительский (многоголосый закадровый) (@MUZOBOZ@)"],"quality":"webdl","translation":"Любительский (многоголосый закадровый) (@MUZOBOZ@)","update":"2020-04-06 15:29:59","iframe_src":"//8332.svetacdn.in/71tsRs29n5tZ/movie/38916"},{"id":38797,"title":"Песочные часы","kp_id":"931112","imdb_id":"tt4959326","world_art_id":null,"type":"movie","add":"2020-04-01 23:32:34","orig_title":"Size Zero","year":"2015-11-26","translations":["Любительский (двухголосый закадровый)"],"quality":"webdl","translation":"Любительский (двухголосый закадровый)","update":"2020-04-06 14:45:42","iframe_src":"//8332.svetacdn.in/71tsRs29n5tZ/movie/38797"},{"id":38795,"title":"Тик-тик-тик","kp_id":"1047770","imdb_id":"tt7280786","world_art_id":null,"type":"movie","add":"2020-04-01 23:28:01","orig_title":"Tik Tik Tik","year":"2018-06-21","translations":["Любительский (многоголосый закадровый) (FanStudio)"],"quality":"webdl","translation":"Любительский (многоголосый закадровый) (FanStudio)","update":"2020-04-06 14:43:48","iframe_src":"//8332.svetacdn.in/71tsRs29n5tZ/movie/38795"},{"id":38794,"title":"Три друга","kp_id":"39700","imdb_id":"tt0361772","world_art_id":null,"type":"movie","add":"2020-04-01 23:24:16","orig_title":"Jeete Hain Shaan Se","year":"1988-01-01","translations":["Любительский (одноголосый закадровый)"],"quality":"dvdrip","translation":"Любительский (одноголосый закадровый)","update":"2020-04-06 14:43:03","iframe_src":"//8332.svetacdn.in/71tsRs29n5tZ/movie/38794"},{"id":38781,"title":"Небеса","kp_id":"569800","imdb_id":"tt1704144","world_art_id":null,"type":"movie","add":"2020-04-01 17:49:18","orig_title":"Gaganam","year":"2011-02-11","translations":["Профессиональный (многоголосый закадровый) (Red Media)"],"quality":"bd","translation":"Профессиональный (многоголосый закадровый) (Red Media)","update":"2020-04-06 14:41:39","iframe_src":"//8332.svetacdn.in/71tsRs29n5tZ/movie/38781"},{"id":38753,"title":"Их свела судьба","kp_id":"403784","imdb_id":"tt1170399","world_art_id":null,"type":"movie","add":"2020-03-31 21:20:47","orig_title":"C Kkompany","year":"2008-08-29","translations":["Профессиональный (двухголосый закадровый)"],"quality":"hdtv","translation":"Профессиональный (двухголосый закадровый)","update":"2020-04-06 14:23:41","iframe_src":"//8332.svetacdn.in/71tsRs29n5tZ/movie/38753"},{"id":38752,"title":"Замужняя женщина","kp_id":"103295","imdb_id":"tt0437407","world_art_id":null,"type":"movie","add":"2020-03-31 21:13:21","orig_title":"Parineeta","year":"2005-06-09","translations":["Профессиональный (многоголосый закадровый)"],"quality":"dvdrip","translation":"Профессиональный (многоголосый закадровый)","update":"2020-04-06 14:19:52","iframe_src":"//8332.svetacdn.in/71tsRs29n5tZ/movie/38752"},{"id":38751,"title":"Гость в Лондоне","kp_id":"1025827","imdb_id":"tt6173826","world_art_id":null,"type":"movie","add":"2020-03-31 21:10:33","orig_title":"Guest iin London","year":"2017-07-06","translations":["Любительский (многоголосый закадровый) (FanStudio)"],"quality":"webdl","translation":"Любительский (многоголосый закадровый) (FanStudio)","update":"2020-04-06 14:19:05","iframe_src":"//8332.svetacdn.in/71tsRs29n5tZ/movie/38751"},{"id":38750,"title":"Добрые друзья","kp_id":"69419","imdb_id":"tt0102071","world_art_id":null,"type":"movie","add":"2020-03-31 21:03:32","orig_title":"Hum","year":"1991-02-01","translations":["Профессиональный (многоголосый закадровый) (Формат AB)"],"quality":"dvdrip","translation":"Профессиональный (многоголосый закадровый) (Формат AB)","update":"2020-04-06 14:14:30","iframe_src":"//8332.svetacdn.in/71tsRs29n5tZ/movie/38750"},{"id":38749,"title":"Измена, ставшая роковой","kp_id":"275083","imdb_id":"tt0875692","world_art_id":null,"type":"movie","add":"2020-03-31 21:00:23","orig_title":"Aggar: Passion Betrayal Terror","year":"2007-09-14","translations":["Профессиональный (многоголосый закадровый)"],"quality":"dvdrip","translation":"Профессиональный (многоголосый закадровый)","update":"2020-04-06 14:13:33","iframe_src":"//8332.svetacdn.in/71tsRs29n5tZ/movie/38749"},{"id":38748,"title":"Саами","kp_id":"153749","imdb_id":"tt0376144","world_art_id":null,"type":"movie","add":"2020-03-31 20:54:57","orig_title":"Saamy","year":"2003-05-01","translations":["Профессиональный (многоголосый закадровый) (SDI Media)"],"quality":"webdl","translation":"Профессиональный (многоголосый закадровый) (SDI Media)","update":"2020-04-06 14:09:58","iframe_src":"//8332.svetacdn.in/71tsRs29n5tZ/movie/38748"},{"id":37186,"title":"Лучший игрок","kp_id":"34933","imdb_id":"tt0114317","world_art_id":null,"type":"movie","add":"2020-03-01 17:02:02","orig_title":"Sabse Bada Khiladi","year":"1995-06-09","translations":["Профессиональный (многоголосый закадровый)"],"quality":"dvdrip","translation":"Профессиональный (многоголосый закадровый)","update":"2020-04-06 14:08:27","iframe_src":"//8332.svetacdn.in/71tsRs29n5tZ/movie/37186"},{"id":35066,"title":"Горячие мамочки","kp_id":"1091613","imdb_id":"tt7205316","world_art_id":null,"type":"movie","add":"2020-01-15 11:06:54","orig_title":"MILF","year":"2018-05-02","translations":["Полное дублирование (iTunes)"],"quality":"webdl","translation":"Полное дублирование (iTunes)","update":"2020-04-06 14:47:37","iframe_src":"//8332.svetacdn.in/71tsRs29n5tZ/movie/35066"},{"id":32590,"title":"Да, моя радость!","kp_id":"857822","imdb_id":"tt4271820","world_art_id":null,"type":"movie","add":"2019-11-01 12:39:51","orig_title":"OK Kanmani","year":"2015-04-16","translations":["Профессиональный (многоголосый закадровый) (SDI Media)","Любительский (двухголосый закадровый) (datynet & Galina Vasyukova)"],"quality":"webdl","translation":"Профессиональный (многоголосый закадровый) (SDI Media)","update":"2020-04-06 14:16:19","iframe_src":"//8332.svetacdn.in/71tsRs29n5tZ/movie/32590"},{"id":21769,"title":"Октябрь","kp_id":"1108601","imdb_id":"tt7700730","world_art_id":null,"type":"movie","add":"2019-01-24 17:53:49","orig_title":"October","year":"2018-04-13","translations":["Профессиональный (многоголосый закадровый)","Любительский (многоголосый закадровый) (Honey&Haseena)"],"quality":"webdl","translation":"Профессиональный (многоголосый закадровый)","update":"2020-04-06 14:26:27","iframe_src":"//8332.svetacdn.in/71tsRs29n5tZ/movie/21769"},{"id":21178,"title":"Саркар Радж","kp_id":"230912","imdb_id":"tt0490210","world_art_id":null,"type":"movie","add":"2019-01-03 08:14:25","orig_title":"Sarkar Raj","year":"2008-06-05","translations":["Профессиональный (многоголосый закадровый)"],"quality":"bd","translation":"Профессиональный (многоголосый закадровый)","update":"2020-04-06 14:11:10","iframe_src":"//8332.svetacdn.in/71tsRs29n5tZ/movie/21178"},{"id":15011,"title":"Ньютон","kp_id":"1032486","imdb_id":"tt6484982","world_art_id":null,"type":"movie","add":"2018-01-30 03:35:11","orig_title":"Newton","year":"2017-02-10","translations":["Любительский (многоголосый закадровый) (Honey&Haseena)"],"quality":"bd","translation":"Любительский (многоголосый закадровый) (Honey&Haseena)","update":"2020-04-06 14:40:38","iframe_src":"//8332.svetacdn.in/71tsRs29n5tZ/movie/15011"},{"id":9665,"title":"Бунтарь","kp_id":"927806","imdb_id":"tt4864932","world_art_id":null,"type":"movie","add":"2017-02-14 07:55:56","orig_title":"Baaghi","year":"2016-04-28","translations":["Профессиональный (многоголосый закадровый) (ZEE TV)"],"quality":"bd","translation":"Профессиональный (многоголосый закадровый) (ZEE TV)","update":"2020-04-06 14:18:10","iframe_src":"//8332.svetacdn.in/71tsRs29n5tZ/movie/9665"}],"current_page":786,"first_page_url":"https://videocdn.tv/api/short?limit=100&api_token=EnbO9h8pv1VyjbCJhg0WM9nG259n7mtz&cache3786=3786&page=1","from":78501,"last_page":634,"last_page_url":"https://videocdn.tv/api/short?limit=100&api_token=EnbO9h8pv1VyjbCJhg0WM9nG259n7mtz&cache3786=3786&page=634","next_page_url":null,"path":"https://videocdn.tv/api/short","per_page":100,"prev_page_url":"https://videocdn.tv/api/short?limit=100&api_token=EnbO9h8pv1VyjbCJhg0WM9nG259n7mtz&cache3786=3786&page=785","to":78520,"total":63367}