{"result":true,"data":[{"id":28846,"title":"Нарочно не придумаешь","kp_id":"782268","imdb_id":null,"world_art_id":null,"type":"movie","add":"2019-07-09 22:28:18","orig_title":"Нарочно не придумаешь","year":"2013-08-04","translations":["Оригинальная дорожка"],"quality":"hdtv","translation":"Оригинальная дорожка","update":"2019-07-10 08:06:50","iframe_src":"//5322.svetacdn.in/si4jsFRrtgrT/movie/28846"},{"id":28845,"title":"Следы на снегу","kp_id":"43843","imdb_id":"tt0048631","world_art_id":null,"type":"movie","add":"2019-07-09 22:19:56","orig_title":"Sledy na snegu","year":"1955-10-24","translations":["Оригинальная дорожка"],"quality":"sat","translation":"Оригинальная дорожка","update":"2019-07-10 08:03:59","iframe_src":"//5322.svetacdn.in/si4jsFRrtgrT/movie/28845"},{"id":28832,"title":"День ангела","kp_id":"77271","imdb_id":"tt0391920","world_art_id":null,"type":"movie","add":"2019-07-09 20:15:34","orig_title":"Den angela","year":"1968-06-30","translations":["Оригинальная дорожка"],"quality":"dvdrip","translation":"Оригинальная дорожка","update":"2019-07-10 08:02:43","iframe_src":"//5322.svetacdn.in/si4jsFRrtgrT/movie/28832"},{"id":28831,"title":"Большой концерт","kp_id":"46182","imdb_id":"tt0043351","world_art_id":null,"type":"movie","add":"2019-07-09 20:11:09","orig_title":"Bolshoy kontsert","year":"1952-03-21","translations":["Оригинальная дорожка"],"quality":"dvdrip","translation":"Оригинальная дорожка","update":"2019-07-10 08:02:04","iframe_src":"//5322.svetacdn.in/si4jsFRrtgrT/movie/28831"},{"id":28830,"title":"Гвоздь программы","kp_id":"44625","imdb_id":"tt0338084","world_art_id":null,"type":"movie","add":"2019-07-09 20:07:30","orig_title":"Gvozd programmy","year":"1956-02-03","translations":["Оригинальная дорожка"],"quality":"sat","translation":"Оригинальная дорожка","update":"2019-07-10 08:00:55","iframe_src":"//5322.svetacdn.in/si4jsFRrtgrT/movie/28830"},{"id":28829,"title":"Костёр бессмертия","kp_id":"252105","imdb_id":"tt0254503","world_art_id":null,"type":"movie","add":"2019-07-09 20:03:59","orig_title":"Kostyor bessmertiya","year":"1956-08-22","translations":["Оригинальная дорожка"],"quality":"vhs","translation":"Оригинальная дорожка","update":"2019-07-10 08:00:02","iframe_src":"//5322.svetacdn.in/si4jsFRrtgrT/movie/28829"},{"id":28828,"title":"Крушение эмирата","kp_id":"44996","imdb_id":"tt0170126","world_art_id":null,"type":"movie","add":"2019-07-09 20:01:15","orig_title":"Krushenie emirata","year":"1955-06-20","translations":["Оригинальная дорожка"],"quality":"sat","translation":"Оригинальная дорожка","update":"2019-07-10 07:31:41","iframe_src":"//5322.svetacdn.in/si4jsFRrtgrT/movie/28828"},{"id":28826,"title":"Мать","kp_id":"46557","imdb_id":"tt0048359","world_art_id":null,"type":"movie","add":"2019-07-09 19:58:00","orig_title":"Mat","year":"1956-02-14","translations":["Оригинальная дорожка"],"quality":"dvdrip","translation":"Оригинальная дорожка","update":"2019-07-10 07:30:57","iframe_src":"//5322.svetacdn.in/si4jsFRrtgrT/movie/28826"},{"id":28824,"title":"Мы с дедушкой","kp_id":"806534","imdb_id":"tt8053928","world_art_id":null,"type":"movie","add":"2019-07-09 19:54:31","orig_title":"My s dedushkoy","year":"2014-05-20","translations":["Оригинальная дорожка"],"quality":"webdl","translation":"Оригинальная дорожка","update":"2019-07-10 07:29:45","iframe_src":"//5322.svetacdn.in/si4jsFRrtgrT/movie/28824"},{"id":28823,"title":"Незаконченный ужин","kp_id":"276604","imdb_id":"tt0938750","world_art_id":null,"type":"movie","add":"2019-07-09 19:49:44","orig_title":"Nezakonchennyy uzhin","year":"1979-03-27","translations":["Оригинальная дорожка"],"quality":"sat","translation":"Оригинальная дорожка","update":"2019-07-10 07:29:16","iframe_src":"//5322.svetacdn.in/si4jsFRrtgrT/movie/28823"},{"id":28822,"title":"Ветер забвения","kp_id":"93059","imdb_id":"tt0104594","world_art_id":null,"type":"movie","add":"2019-07-09 19:45:57","orig_title":"Qamin unaynutyan","year":"1990-03-09","translations":["Оригинальная дорожка"],"quality":"dvb","translation":"Оригинальная дорожка","update":"2019-07-10 07:28:22","iframe_src":"//5322.svetacdn.in/si4jsFRrtgrT/movie/28822"},{"id":28821,"title":"Нестерка","kp_id":"46419","imdb_id":"tt0177040","world_art_id":null,"type":"movie","add":"2019-07-09 19:41:54","orig_title":"Nesterka","year":"1955-09-05","translations":["Оригинальная дорожка"],"quality":"dvdrip","translation":"Оригинальная дорожка","update":"2019-07-10 07:27:43","iframe_src":"//5322.svetacdn.in/si4jsFRrtgrT/movie/28821"},{"id":28820,"title":"Падение в небеса","kp_id":"323109","imdb_id":null,"world_art_id":null,"type":"movie","add":"2019-07-09 19:38:54","orig_title":"Падение в небеса","year":"2007-07-26","translations":["Оригинальная дорожка"],"quality":"dvdrip","translation":"Оригинальная дорожка","update":"2019-07-10 07:26:51","iframe_src":"//5322.svetacdn.in/si4jsFRrtgrT/movie/28820"},{"id":28819,"title":"Полигон 27","kp_id":"761888","imdb_id":null,"world_art_id":null,"type":"movie","add":"2019-07-09 19:35:22","orig_title":"Полигон 27","year":"2013-05-26","translations":["Оригинальная дорожка"],"quality":"webdl","translation":"Оригинальная дорожка","update":"2019-07-10 07:25:29","iframe_src":"//5322.svetacdn.in/si4jsFRrtgrT/movie/28819"},{"id":28818,"title":"Стрелок 2","kp_id":"839714","imdb_id":"tt4808280","world_art_id":null,"type":"movie","add":"2019-07-09 19:31:03","orig_title":"Strelok-2","year":"2014-08-14","translations":["Оригинальная дорожка"],"quality":"dvdrip","translation":"Оригинальная дорожка","update":"2019-07-10 07:25:21","iframe_src":"//5322.svetacdn.in/si4jsFRrtgrT/movie/28818"},{"id":28817,"title":"Стрелок","kp_id":"677722","imdb_id":null,"world_art_id":null,"type":"movie","add":"2019-07-09 19:27:34","orig_title":"Стрелок","year":"2012-05-01","translations":["Оригинальная дорожка"],"quality":"dvdrip","translation":"Оригинальная дорожка","update":"2019-07-10 07:24:20","iframe_src":"//5322.svetacdn.in/si4jsFRrtgrT/movie/28817"},{"id":28816,"title":"Варвары","kp_id":"481186","imdb_id":"tt0045542","world_art_id":null,"type":"movie","add":"2019-07-09 19:22:17","orig_title":"Varvary","year":"1953-07-17","translations":["Оригинальная дорожка"],"quality":"dvdrip","translation":"Оригинальная дорожка","update":"2019-07-10 07:23:57","iframe_src":"//5322.svetacdn.in/si4jsFRrtgrT/movie/28816"},{"id":28815,"title":"Враги","kp_id":"45903","imdb_id":"tt0046526","world_art_id":null,"type":"movie","add":"2019-07-09 19:19:42","orig_title":"Vragi","year":"1953-09-11","translations":["Оригинальная дорожка"],"quality":"dvdrip","translation":"Оригинальная дорожка","update":"2019-07-10 07:23:04","iframe_src":"//5322.svetacdn.in/si4jsFRrtgrT/movie/28815"},{"id":28814,"title":"Время собирать","kp_id":"839510","imdb_id":null,"world_art_id":null,"type":"movie","add":"2019-07-09 19:16:38","orig_title":"Время собирать","year":"2014-05-01","translations":["Оригинальная дорожка"],"quality":"hdtv","translation":"Оригинальная дорожка","update":"2019-07-10 07:22:38","iframe_src":"//5322.svetacdn.in/si4jsFRrtgrT/movie/28814"},{"id":4564,"title":"По небу босиком","kp_id":"885602","imdb_id":null,"world_art_id":null,"type":"movie","add":"2016-08-19 07:41:35","orig_title":"По небу босиком","year":"2015-12-17","translations":["Оригинальная дорожка"],"quality":"webdl","translation":"Оригинальная дорожка","update":"2019-07-10 08:06:00","iframe_src":"//5322.svetacdn.in/si4jsFRrtgrT/movie/4564"}],"current_page":1306,"first_page_url":"https://videocdn.tv/api/short?limit=100&api_token=X6EwAUfE5M9xbo7y0Bp0aPf3uXxG2KLL&cache31306=31306&page=1","from":130501,"last_page":631,"last_page_url":"https://videocdn.tv/api/short?limit=100&api_token=X6EwAUfE5M9xbo7y0Bp0aPf3uXxG2KLL&cache31306=31306&page=631","next_page_url":null,"path":"https://videocdn.tv/api/short","per_page":100,"prev_page_url":"https://videocdn.tv/api/short?limit=100&api_token=X6EwAUfE5M9xbo7y0Bp0aPf3uXxG2KLL&cache31306=31306&page=1305","to":130520,"total":63081}