{"result":true,"data":[{"id":50222,"title":"Зоя Космодемьянская","kp_id":"4365698","imdb_id":null,"world_art_id":null,"type":"movie","add":"2021-05-08 07:52:55","orig_title":"Зоя Космодемьянская","year":"2021-05-06","translations":["Оригинальная дорожка"],"quality":"webdl","translation":"Оригинальная дорожка","update":"2021-05-08 11:45:47","iframe_src":"//2413.svetacdn.in/71tsRs29n5tZ/movie/50222"},{"id":50221,"title":"Узница","kp_id":"1168122","imdb_id":"tt8273104","world_art_id":null,"type":"movie","add":"2021-05-07 20:51:55","orig_title":"Captive","year":"2020-10-30","translations":["Любительский (многоголосый закадровый) (Синема УС)"],"quality":"webdl","translation":"Любительский (многоголосый закадровый) (Синема УС)","update":"2021-05-08 11:22:24","iframe_src":"//2413.svetacdn.in/71tsRs29n5tZ/movie/50221"},{"id":50220,"title":"Джим Пуговка и чёртова дюжина","kp_id":"1243461","imdb_id":"tt9839038","world_art_id":null,"type":"movie","add":"2021-05-07 20:25:18","orig_title":"Jim Knopf und die Wilde 13","year":"2020-10-01","translations":["Любительский (многоголосый закадровый) (@MUZOBOZ@)"],"quality":"webdl","translation":"Любительский (многоголосый закадровый) (@MUZOBOZ@)","update":"2021-05-08 11:21:30","iframe_src":"//2413.svetacdn.in/71tsRs29n5tZ/movie/50220"},{"id":50216,"title":"Запертые","kp_id":"1313238","imdb_id":"tt6439792","world_art_id":null,"type":"movie","add":"2021-05-07 19:54:02","orig_title":"Locked In","year":"2021-05-07","translations":["Любительский (многоголосый закадровый) (@MUZOBOZ@)"],"quality":"webdl","translation":"Любительский (многоголосый закадровый) (@MUZOBOZ@)","update":"2021-05-08 08:58:02","iframe_src":"//2413.svetacdn.in/71tsRs29n5tZ/movie/50216"},{"id":50213,"title":"Интимный дневник дровосека","kp_id":"132332","imdb_id":null,"world_art_id":null,"type":"movie","add":"2021-05-07 18:18:53","orig_title":"Le journal érotique d'un bûcheron","year":"1974-03-27","translations":["Любительский (одноголосый закадровый)"],"quality":"dvdrip","translation":"Любительский (одноголосый закадровый)","update":"2021-05-08 14:45:14","iframe_src":"//2413.svetacdn.in/71tsRs29n5tZ/movie/50213"},{"id":50211,"title":"Под прицелом","kp_id":"1289895","imdb_id":"tt10704342","world_art_id":null,"type":"movie","add":"2021-05-07 16:44:19","orig_title":"Framed","year":"2021-04-21","translations":["Любительский (многоголосый закадровый) (Синема УС)"],"quality":"webdl","translation":"Любительский (многоголосый закадровый) (Синема УС)","update":"2021-05-07 22:18:39","iframe_src":"//2413.svetacdn.in/71tsRs29n5tZ/movie/50211"},{"id":50202,"title":"118","kp_id":"1174020","imdb_id":"tt8660422","world_art_id":null,"type":"movie","add":"2021-05-07 07:51:49","orig_title":"118","year":"2019-02-28","translations":["Любительский (многоголосый закадровый) (LovelyVox)"],"quality":"webdl","translation":"Любительский (многоголосый закадровый) (LovelyVox)","update":"2021-05-08 10:41:49","iframe_src":"//2413.svetacdn.in/71tsRs29n5tZ/movie/50202"},{"id":50200,"title":"Прохиндиада 2","kp_id":"43300","imdb_id":"tt0190667","world_art_id":null,"type":"movie","add":"2021-05-06 21:26:12","orig_title":"Prokhindiada 2","year":"1994-01-01","translations":["Оригинальная дорожка"],"quality":"sat","translation":"Оригинальная дорожка","update":"2021-05-08 15:43:09","iframe_src":"//2413.svetacdn.in/71tsRs29n5tZ/movie/50200"},{"id":50199,"title":"Ангел мести","kp_id":"94244","imdb_id":"tt0112423","world_art_id":null,"type":"movie","add":"2021-05-06 21:24:17","orig_title":"The Avenging Angel","year":"1995-01-22","translations":["Профессиональный (многоголосый закадровый)"],"quality":"vhs","translation":"Профессиональный (многоголосый закадровый)","update":"2021-05-08 15:40:11","iframe_src":"//2413.svetacdn.in/71tsRs29n5tZ/movie/50199"},{"id":50198,"title":"Домохозяйка пришелец против Гея зомби","kp_id":"976395","imdb_id":"tt5643804","world_art_id":null,"type":"movie","add":"2021-05-06 19:41:09","orig_title":"Housewife Alien vs. Gay Zombie","year":"2017-10-09","translations":["Любительский (двухголосый закадровый) (Колобок)"],"quality":"webdl","translation":"Любительский (двухголосый закадровый) (Колобок)","update":"2021-05-08 20:07:12","iframe_src":"//2413.svetacdn.in/71tsRs29n5tZ/movie/50198"},{"id":50197,"title":"Клуб полуночников","kp_id":"1190559","imdb_id":"tt8954954","world_art_id":null,"type":"movie","add":"2021-05-06 19:10:18","orig_title":"El Club de los Idealistas","year":"2020-09-24","translations":["Любительский (многоголосый закадровый) (Синема УС)"],"quality":"webdl","translation":"Любительский (многоголосый закадровый) (Синема УС)","update":"2021-05-08 20:07:34","iframe_src":"//2413.svetacdn.in/71tsRs29n5tZ/movie/50197"},{"id":50196,"title":"Убийца с разбитым сердцем","kp_id":"1229890","imdb_id":"tt9588024","world_art_id":null,"type":"movie","add":"2021-05-06 19:08:34","orig_title":"The Hart-Break Killer","year":"2019-03-31","translations":["Любительский (многоголосый закадровый) (AlphaProject)"],"quality":"webdl","translation":"Любительский (многоголосый закадровый) (AlphaProject)","update":"2021-05-08 20:07:56","iframe_src":"//2413.svetacdn.in/71tsRs29n5tZ/movie/50196"},{"id":50193,"title":"Корпорация \"Кураж\"","kp_id":"1266332","imdb_id":"tt10349842","world_art_id":null,"type":"movie","add":"2021-05-06 19:04:08","orig_title":"Swag Inc.","year":"2019-10-12","translations":["Любительский (многоголосый закадровый) (Синема УС)"],"quality":"webdl","translation":"Любительский (многоголосый закадровый) (Синема УС)","update":"2021-05-08 20:08:50","iframe_src":"//2413.svetacdn.in/71tsRs29n5tZ/movie/50193"},{"id":50177,"title":"Понедельник","kp_id":"55152","imdb_id":"tt0239655","world_art_id":null,"type":"movie","add":"2021-05-06 14:42:21","orig_title":"Monday","year":"2000-02-16","translations":["Профессиональный (многоголосый закадровый)"],"quality":"dvdrip","translation":"Профессиональный (многоголосый закадровый)","update":"2021-05-08 13:57:56","iframe_src":"//2413.svetacdn.in/71tsRs29n5tZ/movie/50177"},{"id":50173,"title":"Убийцы","kp_id":"250299","imdb_id":"tt0256858","world_art_id":null,"type":"movie","add":"2021-05-06 06:23:43","orig_title":"Killers","year":"1996-01-01","translations":["Авторский (одноголосый закадровый) (Сербин Юрий)"],"quality":"webdl","translation":"Авторский (одноголосый закадровый) (Сербин Юрий)","update":"2021-05-08 13:53:07","iframe_src":"//2413.svetacdn.in/71tsRs29n5tZ/movie/50173"},{"id":50154,"title":"Ребята и музыкальный автомат","kp_id":"132984","imdb_id":"tt0053207","world_art_id":null,"type":"movie","add":"2021-05-05 14:02:33","orig_title":"Ragazzi del Juke-Box","year":"1959-08-13","translations":["Любительский (одноголосый закадровый) (Сибирский)"],"quality":"dvdrip","translation":"Любительский (одноголосый закадровый) (Сибирский)","update":"2021-05-08 13:55:58","iframe_src":"//2413.svetacdn.in/71tsRs29n5tZ/movie/50154"},{"id":50107,"title":"Остров лжи","kp_id":"1246316","imdb_id":"tt9843470","world_art_id":null,"type":"movie","add":"2021-05-04 07:29:27","orig_title":"La isla de las mentiras","year":"2020-05-14","translations":["Любительский (многоголосый закадровый) (Синема УС)"],"quality":"webdl","translation":"Любительский (многоголосый закадровый) (Синема УС)","update":"2021-05-08 15:29:00","iframe_src":"//2413.svetacdn.in/71tsRs29n5tZ/movie/50107"},{"id":40705,"title":"Академия волшебства","kp_id":"1380563","imdb_id":"tt5768992","world_art_id":null,"type":"movie","add":"2020-05-26 06:17:59","orig_title":"The Academy of Magic","year":"2020-01-05","translations":["[EN] Original (English)","Любительский (многоголосый закадровый) (Синема УС)","Полное дублирование"],"quality":"webdl","translation":"[EN] Original (English)","update":"2021-05-07 16:41:04","iframe_src":"//2413.svetacdn.in/71tsRs29n5tZ/movie/40705"},{"id":25143,"title":"Однажды в Лондоне","kp_id":"899912","imdb_id":"tt4444956","world_art_id":null,"type":"movie","add":"2019-04-22 21:23:19","orig_title":"Once Upon a Time in London","year":"2019-04-19","translations":["Профессиональный (многоголосый закадровый) (HDrezka Studio)","[EN] Original (English)","Профессиональный (многоголосый закадровый) (iTunes)"],"quality":"webdl","translation":"Профессиональный (многоголосый закадровый) (HDrezka Studio)","update":"2021-05-08 15:27:19","iframe_src":"//2413.svetacdn.in/71tsRs29n5tZ/movie/25143"},{"id":2725,"title":"Раз нашла – беру себе","kp_id":"837332","imdb_id":"tt3534842","world_art_id":null,"type":"movie","add":"2016-05-30 21:41:25","orig_title":"Finders Keepers","year":"2014-10-18","translations":["Любительский (одноголосый закадровый)","Полное дублирование"],"quality":"hdtv","translation":"Любительский (одноголосый закадровый)","update":"2021-05-08 13:59:21","iframe_src":"//2413.svetacdn.in/71tsRs29n5tZ/movie/2725"}],"current_page":690,"first_page_url":"https://videocdn.tv/api/short?limit=100&api_token=EnbO9h8pv1VyjbCJhg0WM9nG259n7mtz&cache3690=3690&page=1","from":68901,"last_page":724,"last_page_url":"https://videocdn.tv/api/short?limit=100&api_token=EnbO9h8pv1VyjbCJhg0WM9nG259n7mtz&cache3690=3690&page=724","next_page_url":"https://videocdn.tv/api/short?limit=100&api_token=EnbO9h8pv1VyjbCJhg0WM9nG259n7mtz&cache3690=3690&page=691","path":"https://videocdn.tv/api/short","per_page":100,"prev_page_url":"https://videocdn.tv/api/short?limit=100&api_token=EnbO9h8pv1VyjbCJhg0WM9nG259n7mtz&cache3690=3690&page=689","to":68920,"total":72301}