{"result":true,"data":[{"id":32322,"title":"Смертельный поединок","kp_id":"58836","imdb_id":"tt0114582","world_art_id":null,"type":"movie","add":"2019-10-25 06:30:31","orig_title":"Superfights","year":"1995-01-01","translations":["Профессиональный (многоголосый закадровый)"],"quality":"dvdrip","translation":"Профессиональный (многоголосый закадровый)","update":"2019-10-25 07:33:16","iframe_src":"//7043.svetacdn.in/si4jsFRrtgrT/movie/32322"},{"id":32320,"title":"Восставший","kp_id":"63237","imdb_id":"tt0061847","world_art_id":null,"type":"movie","add":"2019-10-25 06:22:43","orig_title":"Jôi-uchi: Hairyô tsuma shimatsu","year":"1967-05-27","translations":["Профессиональный (многоголосый закадровый)"],"quality":"webdl","translation":"Профессиональный (многоголосый закадровый)","update":"2019-10-25 12:06:06","iframe_src":"//7043.svetacdn.in/si4jsFRrtgrT/movie/32320"},{"id":32318,"title":"Золушка","kp_id":"653977","imdb_id":"tt2129885","world_art_id":null,"type":"movie","add":"2019-10-25 06:17:07","orig_title":"Aschenputtel","year":"2011-12-25","translations":["Профессиональный (многоголосый закадровый) (Игмар)"],"quality":"hdtv","translation":"Профессиональный (многоголосый закадровый) (Игмар)","update":"2019-10-25 07:25:31","iframe_src":"//7043.svetacdn.in/si4jsFRrtgrT/movie/32318"},{"id":32317,"title":"Беляночка и Розочка","kp_id":"721696","imdb_id":"tt2562310","world_art_id":null,"type":"movie","add":"2019-10-25 06:09:58","orig_title":"Schneeweißchen und Rosenrot","year":"2012-12-25","translations":["Профессиональный (многоголосый закадровый) (Игмар)"],"quality":"hdtv","translation":"Профессиональный (многоголосый закадровый) (Игмар)","update":"2019-10-25 07:24:56","iframe_src":"//7043.svetacdn.in/si4jsFRrtgrT/movie/32317"},{"id":32316,"title":"Храброе сердце Ирены Сендлер","kp_id":"432845","imdb_id":"tt1010278","world_art_id":null,"type":"movie","add":"2019-10-25 05:42:02","orig_title":"The Courageous Heart of Irena Sendler","year":"2009-04-19","translations":["Профессиональный (двухголосый закадровый)"],"quality":"hdtv","translation":"Профессиональный (двухголосый закадровый)","update":"2019-10-25 07:24:16","iframe_src":"//7043.svetacdn.in/si4jsFRrtgrT/movie/32316"},{"id":32315,"title":"Лев зимой","kp_id":"79759","imdb_id":"tt0319754","world_art_id":null,"type":"movie","add":"2019-10-25 05:34:57","orig_title":"The Lion in Winter","year":"2003-12-26","translations":["Профессиональный (многоголосый закадровый)"],"quality":"dvdrip","translation":"Профессиональный (многоголосый закадровый)","update":"2019-10-25 09:42:39","iframe_src":"//7043.svetacdn.in/si4jsFRrtgrT/movie/32315"},{"id":32314,"title":"Чудо Рождества","kp_id":"842714","imdb_id":"tt3595848","world_art_id":null,"type":"movie","add":"2019-10-25 05:33:08","orig_title":"Northpole","year":"2014-11-15","translations":["Профессиональный (многоголосый закадровый)"],"quality":"bd","translation":"Профессиональный (многоголосый закадровый)","update":"2019-10-25 09:03:18","iframe_src":"//7043.svetacdn.in/si4jsFRrtgrT/movie/32314"},{"id":32309,"title":"Супермен/Бэтмен: Апокалипсис","kp_id":"527655","imdb_id":"tt1673430","world_art_id":null,"type":"movie","add":"2019-10-25 04:45:35","orig_title":"Superman/Batman: Apocalypse","year":"2010-09-28","translations":["Любительский (многоголосый закадровый)"],"quality":"bd","translation":"Любительский (многоголосый закадровый)","update":"2019-10-25 09:43:43","iframe_src":"//7043.svetacdn.in/si4jsFRrtgrT/movie/32309"},{"id":32308,"title":"Наперегонки со временем","kp_id":"297753","imdb_id":"tt0100529","world_art_id":null,"type":"movie","add":"2019-10-25 04:38:46","orig_title":"Running Against Time","year":"1990-11-21","translations":["Профессиональный (многоголосый закадровый)"],"quality":"vhs","translation":"Профессиональный (многоголосый закадровый)","update":"2019-10-25 08:05:45","iframe_src":"//7043.svetacdn.in/si4jsFRrtgrT/movie/32308"},{"id":31505,"title":"Венеция зовет","kp_id":"1236319","imdb_id":"tt8655574","world_art_id":null,"type":"movie","add":"2019-10-05 18:57:19","orig_title":"Venise n'est pas en Italie","year":"2019-05-16","translations":["Полное дублирование","Полное дублирование (iTunes)"],"quality":"bd","translation":"Полное дублирование","update":"2019-10-25 09:02:01","iframe_src":"//7043.svetacdn.in/si4jsFRrtgrT/movie/31505"},{"id":30580,"title":"Тюремный корабль","kp_id":"33475","imdb_id":"tt0087945","world_art_id":null,"type":"movie","add":"2019-09-05 11:52:50","orig_title":"Prison Ship","year":"1987-05-11","translations":["Авторский (одноголосый закадровый) (Кузнецов Сергей)","Original (English)"],"quality":"bd","translation":"Авторский (одноголосый закадровый) (Кузнецов Сергей)","update":"2019-10-25 07:38:35","iframe_src":"//7043.svetacdn.in/si4jsFRrtgrT/movie/30580"},{"id":30579,"title":"Грузовик-призрак","kp_id":"416401","imdb_id":"tt1241330","world_art_id":null,"type":"movie","add":"2019-09-05 06:51:14","orig_title":"Road Train","year":"2010-05-28","translations":["Профессиональный (многоголосый закадровый)","Original (English)"],"quality":"bd","translation":"Профессиональный (многоголосый закадровый)","update":"2019-10-25 07:40:13","iframe_src":"//7043.svetacdn.in/si4jsFRrtgrT/movie/30579"},{"id":30474,"title":"Портрет Дориана Грея","kp_id":"8431","imdb_id":"tt0037988","world_art_id":null,"type":"movie","add":"2019-09-02 13:33:03","orig_title":"The Picture of Dorian Gray","year":"1945-03-01","translations":["Профессиональный (многоголосый закадровый)","Original (English)"],"quality":"bd","translation":"Профессиональный (многоголосый закадровый)","update":"2019-10-25 07:55:28","iframe_src":"//7043.svetacdn.in/si4jsFRrtgrT/movie/30474"},{"id":30387,"title":"Черный скакун","kp_id":"7331","imdb_id":"tt0078872","world_art_id":null,"type":"movie","add":"2019-08-30 07:13:47","orig_title":"The Black Stallion","year":"1979-10-13","translations":["Профессиональный (двухголосый закадровый)","Original (English)"],"quality":"bd","translation":"Профессиональный (двухголосый закадровый)","update":"2019-10-25 07:53:41","iframe_src":"//7043.svetacdn.in/si4jsFRrtgrT/movie/30387"},{"id":30380,"title":"Животное","kp_id":"772880","imdb_id":"tt2996684","world_art_id":null,"type":"movie","add":"2019-08-30 07:05:39","orig_title":"Animal","year":"2014-06-13","translations":["Любительский (одноголосый закадровый) (den904)","Original (English)"],"quality":"bd","translation":"Любительский (одноголосый закадровый) (den904)","update":"2019-10-25 07:34:39","iframe_src":"//7043.svetacdn.in/si4jsFRrtgrT/movie/30380"},{"id":18057,"title":"Марионетка","kp_id":"1113005","imdb_id":"tt8134688","world_art_id":null,"type":"movie","add":"2018-08-05 14:31:02","orig_title":"Nareul gieokhae","year":"2018-04-19","translations":["Любительский (многоголосый закадровый) (Колобок)","Любительский (многоголосый закадровый) (STEPonee)"],"quality":"webdl","translation":"Любительский (многоголосый закадровый) (Колобок)","update":"2019-10-25 12:04:35","iframe_src":"//7043.svetacdn.in/si4jsFRrtgrT/movie/18057"},{"id":7130,"title":"Клетка для пташек","kp_id":"8142","imdb_id":"tt0115685","world_art_id":null,"type":"movie","add":"2016-11-07 13:56:34","orig_title":"The Birdcage","year":"1996-03-08","translations":["Полное дублирование","Original (English)"],"quality":"bd","translation":"Полное дублирование","update":"2019-10-25 07:52:23","iframe_src":"//7043.svetacdn.in/si4jsFRrtgrT/movie/7130"},{"id":6370,"title":"Заваруха в городе","kp_id":"5974","imdb_id":"tt0087062","world_art_id":null,"type":"movie","add":"2016-10-17 10:43:28","orig_title":"City Heat","year":"1984-12-05","translations":["Профессиональный (многоголосый закадровый)","Original (English)"],"quality":"bd","translation":"Профессиональный (многоголосый закадровый)","update":"2019-10-25 07:37:09","iframe_src":"//7043.svetacdn.in/si4jsFRrtgrT/movie/6370"},{"id":5753,"title":"Дархэмские быки","kp_id":"7358","imdb_id":"tt0094812","world_art_id":null,"type":"movie","add":"2016-10-03 05:10:50","orig_title":"Bull Durham","year":"1988-06-15","translations":["Авторский (одноголосый закадровый) (Сербин Юрий)","Профессиональный (двухголосый закадровый)","Авторский (одноголосый закадровый) (Гаврилов Андрей)","Original (English)"],"quality":"bd","translation":"Авторский (одноголосый закадровый) (Сербин Юрий)","update":"2019-10-25 07:36:19","iframe_src":"//7043.svetacdn.in/si4jsFRrtgrT/movie/5753"},{"id":2527,"title":"Проказник из психушки","kp_id":"17731","imdb_id":"tt0094910","world_art_id":null,"type":"movie","add":"2016-05-24 07:29:23","orig_title":"The Couch Trip","year":"1988-01-15","translations":["Полное дублирование","Original (English)"],"quality":"bd","translation":"Полное дублирование","update":"2019-10-25 07:54:12","iframe_src":"//7043.svetacdn.in/si4jsFRrtgrT/movie/2527"}],"current_page":1044,"first_page_url":"https://videocdn.tv/api/short?limit=100&api_token=X6EwAUfE5M9xbo7y0Bp0aPf3uXxG2KLL&cache31044=31044&page=1","from":104301,"last_page":616,"last_page_url":"https://videocdn.tv/api/short?limit=100&api_token=X6EwAUfE5M9xbo7y0Bp0aPf3uXxG2KLL&cache31044=31044&page=616","next_page_url":null,"path":"https://videocdn.tv/api/short","per_page":100,"prev_page_url":"https://videocdn.tv/api/short?limit=100&api_token=X6EwAUfE5M9xbo7y0Bp0aPf3uXxG2KLL&cache31044=31044&page=1043","to":104320,"total":61599}