{"result":true,"data":[{"id":30165,"title":"Мари","kp_id":"1198619","imdb_id":"tt8917964","world_art_id":null,"type":"movie","add":"2019-08-21 13:15:48","orig_title":"Mari","year":"2018-10-18","translations":["Любительский (многоголосый закадровый) (Синема УС)"],"quality":"webdl","translation":"Любительский (многоголосый закадровый) (Синема УС)","update":"2019-08-22 05:48:58","iframe_src":"//83.svetacdn.in/PfJ50H0ZBPg3/movie/30165"},{"id":30164,"title":"Ключ от любви","kp_id":"1263906","imdb_id":"tt10136908","world_art_id":null,"type":"movie","add":"2019-08-21 13:13:50","orig_title":"In the Key of Love","year":"2019-06-29","translations":["Любительский (многоголосый закадровый) (Синема УС)"],"quality":"webdl","translation":"Любительский (многоголосый закадровый) (Синема УС)","update":"2019-08-21 15:42:14","iframe_src":"//83.svetacdn.in/PfJ50H0ZBPg3/movie/30164"},{"id":30163,"title":"Гаон","kp_id":"1071943","imdb_id":"tt6667252","world_art_id":null,"type":"movie","add":"2019-08-21 13:12:14","orig_title":"Gaon","year":"2018-01-17","translations":["Любительский (многоголосый закадровый) (Синема УС)"],"quality":"webdl","translation":"Любительский (многоголосый закадровый) (Синема УС)","update":"2019-08-21 15:51:16","iframe_src":"//83.svetacdn.in/PfJ50H0ZBPg3/movie/30163"},{"id":30162,"title":"Провальное лето одного неудачника","kp_id":"1069005","imdb_id":"tt6959256","world_art_id":null,"type":"movie","add":"2019-08-21 13:10:46","orig_title":"Lucky Loser - Ein Sommer in der Bredouille","year":"2017-06-25","translations":["Любительский (многоголосый закадровый) (Синема УС)"],"quality":"bd","translation":"Любительский (многоголосый закадровый) (Синема УС)","update":"2019-08-21 15:50:05","iframe_src":"//83.svetacdn.in/PfJ50H0ZBPg3/movie/30162"},{"id":30161,"title":"Ни с места!","kp_id":"1012049","imdb_id":"tt6231398","world_art_id":null,"type":"movie","add":"2019-08-21 13:07:35","orig_title":"Halt: The Motion Picture","year":"2018-09-29","translations":["Любительский (многоголосый закадровый) (Синема УС)"],"quality":"webdl","translation":"Любительский (многоголосый закадровый) (Синема УС)","update":"2019-08-21 15:47:03","iframe_src":"//83.svetacdn.in/PfJ50H0ZBPg3/movie/30161"},{"id":30160,"title":"Потоп","kp_id":"1027146","imdb_id":"tt5954556","world_art_id":null,"type":"movie","add":"2019-08-21 13:06:38","orig_title":"The Flood","year":"2019-06-21","translations":["Любительский (многоголосый закадровый) (@MUZOBOZ@)"],"quality":"webdl","translation":"Любительский (многоголосый закадровый) (@MUZOBOZ@)","update":"2019-08-21 15:48:56","iframe_src":"//83.svetacdn.in/PfJ50H0ZBPg3/movie/30160"},{"id":30159,"title":"Голубая луна","kp_id":"1018585","imdb_id":"tt6128244","world_art_id":null,"type":"movie","add":"2019-08-21 13:05:52","orig_title":"Bluest Moon","year":"2018-06-19","translations":["Любительский (многоголосый закадровый) (AlphaProject)"],"quality":"webdl","translation":"Любительский (многоголосый закадровый) (AlphaProject)","update":"2019-08-22 05:47:30","iframe_src":"//83.svetacdn.in/PfJ50H0ZBPg3/movie/30159"},{"id":30158,"title":"Роза Ли","kp_id":"1144136","imdb_id":"tt8348286","world_art_id":null,"type":"movie","add":"2019-08-21 13:04:12","orig_title":"Rosa Leigh","year":"2018-03-30","translations":["Любительский (многоголосый закадровый) (Синема УС)"],"quality":"webdl","translation":"Любительский (многоголосый закадровый) (Синема УС)","update":"2019-08-21 15:44:51","iframe_src":"//83.svetacdn.in/PfJ50H0ZBPg3/movie/30158"},{"id":30146,"title":"Тайна подземелья","kp_id":"394621","imdb_id":"tt1087842","world_art_id":null,"type":"movie","add":"2019-08-20 19:31:07","orig_title":"Eden Log","year":"2007-12-26","translations":["Профессиональный (двухголосый закадровый)"],"quality":"dvdrip","translation":"Профессиональный (двухголосый закадровый)","update":"2019-08-21 04:36:06","iframe_src":"//83.svetacdn.in/PfJ50H0ZBPg3/movie/30146"},{"id":30145,"title":"Лок & Кей","kp_id":"1255888","imdb_id":"tt10091268","world_art_id":null,"type":"movie","add":"2019-08-20 19:24:42","orig_title":"Lock & Key","year":"2019-03-25","translations":["Любительский (двухголосый закадровый)"],"quality":"webdl","translation":"Любительский (двухголосый закадровый)","update":"2019-08-21 04:37:09","iframe_src":"//83.svetacdn.in/PfJ50H0ZBPg3/movie/30145"},{"id":30144,"title":"Паутина зла","kp_id":"391237","imdb_id":"tt1065092","world_art_id":null,"type":"movie","add":"2019-08-20 19:14:53","orig_title":"In the Spider's Web","year":"2007-08-26","translations":["Профессиональный (двухголосый закадровый)"],"quality":"dvdrip","translation":"Профессиональный (двухголосый закадровый)","update":"2019-08-21 04:38:36","iframe_src":"//83.svetacdn.in/PfJ50H0ZBPg3/movie/30144"},{"id":30143,"title":"Военный робот","kp_id":"118144","imdb_id":"tt0096000","world_art_id":null,"type":"movie","add":"2019-08-20 19:07:47","orig_title":"Robowar - Robot da guerra","year":"1989-09-09","translations":["Авторский (одноголосый закадровый) (Дольский Андрей)"],"quality":"bd","translation":"Авторский (одноголосый закадровый) (Дольский Андрей)","update":"2019-08-21 04:41:14","iframe_src":"//83.svetacdn.in/PfJ50H0ZBPg3/movie/30143"},{"id":30142,"title":"Совершенно секретно!","kp_id":"8695","imdb_id":"tt0088286","world_art_id":null,"type":"movie","add":"2019-08-20 18:52:46","orig_title":"Top Secret!","year":"1984-06-08","translations":["Профессиональный (многоголосый закадровый) (НТВ)"],"quality":"webdl","translation":"Профессиональный (многоголосый закадровый) (НТВ)","update":"2019-08-21 04:45:52","iframe_src":"//83.svetacdn.in/PfJ50H0ZBPg3/movie/30142"},{"id":30136,"title":"Серебрянный лес","kp_id":"985000","imdb_id":"tt5658198","world_art_id":null,"type":"movie","add":"2019-08-20 12:30:56","orig_title":"Silver Woods","year":"2017-09-12","translations":["Любительский (многоголосый закадровый) (Синема УС)"],"quality":"webdl","translation":"Любительский (многоголосый закадровый) (Синема УС)","update":"2019-08-21 19:43:17","iframe_src":"//83.svetacdn.in/PfJ50H0ZBPg3/movie/30136"},{"id":30132,"title":"Следопыт","kp_id":"462411","imdb_id":"tt1414378","world_art_id":null,"type":"movie","add":"2019-08-20 12:24:49","orig_title":"Tracker","year":"2010-09-12","translations":["Профессиональный (двухголосый закадровый) (НТВ)"],"quality":"bd","translation":"Профессиональный (двухголосый закадровый) (НТВ)","update":"2019-08-21 19:39:39","iframe_src":"//83.svetacdn.in/PfJ50H0ZBPg3/movie/30132"},{"id":30131,"title":"Без предупреждения","kp_id":"18533","imdb_id":"tt0081764","world_art_id":null,"type":"movie","add":"2019-08-20 12:23:21","orig_title":"Without Warning","year":"1980-09-26","translations":["Авторский (одноголосый закадровый) (Гаврилов Андрей)"],"quality":"hdtv","translation":"Авторский (одноголосый закадровый) (Гаврилов Андрей)","update":"2019-08-21 19:41:09","iframe_src":"//83.svetacdn.in/PfJ50H0ZBPg3/movie/30131"},{"id":30129,"title":"Жизнь в отчаянии","kp_id":"22290","imdb_id":"tt0075936","world_art_id":null,"type":"movie","add":"2019-08-20 06:15:30","orig_title":"Desperate Living","year":"1977-05-27","translations":["Любительский (одноголосый закадровый)"],"quality":"dvdrip","translation":"Любительский (одноголосый закадровый)","update":"2019-08-21 04:42:07","iframe_src":"//83.svetacdn.in/PfJ50H0ZBPg3/movie/30129"},{"id":7213,"title":"Крутые стволы","kp_id":"33492","imdb_id":"tt0119642","world_art_id":null,"type":"movie","add":"2016-11-09 04:47:33","orig_title":"Mean Guns","year":"1997-07-10","translations":["Профессиональный (многоголосый закадровый)"],"quality":"bd","translation":"Профессиональный (многоголосый закадровый)","update":"2019-08-21 04:44:39","iframe_src":"//83.svetacdn.in/PfJ50H0ZBPg3/movie/7213"},{"id":6982,"title":"Реальность кусается","kp_id":"5333","imdb_id":"tt0110950","world_art_id":null,"type":"movie","add":"2016-11-02 15:36:49","orig_title":"Reality Bites","year":"1994-02-18","translations":["Профессиональный (двухголосый закадровый)"],"quality":"bd","translation":"Профессиональный (двухголосый закадровый)","update":"2019-08-22 05:51:43","iframe_src":"//83.svetacdn.in/PfJ50H0ZBPg3/movie/6982"},{"id":6878,"title":"Привычка жениться","kp_id":"2313","imdb_id":"tt0102411","world_art_id":null,"type":"movie","add":"2016-10-31 12:45:53","orig_title":"The Marrying Man","year":"1991-04-05","translations":["Полное дублирование"],"quality":"bd","translation":"Полное дублирование","update":"2019-08-21 04:40:24","iframe_src":"//83.svetacdn.in/PfJ50H0ZBPg3/movie/6878"}],"current_page":1192,"first_page_url":"https://videocdn.tv/api/short?limit=100&api_token=RgFQdUIR2dRmwv8iYa5SnFNgnw3vpjKj&cache31192=31192&page=1","from":119101,"last_page":622,"last_page_url":"https://videocdn.tv/api/short?limit=100&api_token=RgFQdUIR2dRmwv8iYa5SnFNgnw3vpjKj&cache31192=31192&page=622","next_page_url":null,"path":"https://videocdn.tv/api/short","per_page":100,"prev_page_url":"https://videocdn.tv/api/short?limit=100&api_token=RgFQdUIR2dRmwv8iYa5SnFNgnw3vpjKj&cache31192=31192&page=1191","to":119120,"total":62197}