{"result":true,"data":[{"id":52801,"title":"Отвёртка","kp_id":"1425074","imdb_id":"tt12392516","world_art_id":null,"type":"movie","add":"2021-09-01 08:33:14","orig_title":"Screwdriver","year":"2021-08-10","translations":["Любительский (многоголосый закадровый) (Синема УС)"],"quality":"webdl","translation":"Любительский (многоголосый закадровый) (Синема УС)","update":"2021-09-01 10:39:32","iframe_src":"//89442664434375553.svetacdn.in/PfJ50H0ZBPg3/movie/52801"},{"id":52800,"title":"Простой ###нный жест","kp_id":"1313883","imdb_id":"tt11129798","world_art_id":null,"type":"movie","add":"2021-09-01 08:31:07","orig_title":"A Simple F*cking Gesture","year":"2020-08-14","translations":["Любительский (двухголосый закадровый) (datynet & Yuka_chan)"],"quality":"webdl","translation":"Любительский (двухголосый закадровый) (datynet & Yuka_chan)","update":"2021-09-01 09:48:36","iframe_src":"//89442664434375553.svetacdn.in/PfJ50H0ZBPg3/movie/52800"},{"id":52796,"title":"Свадебный Марш 3: Встречайте невесту","kp_id":"1114889","imdb_id":"tt8125466","world_art_id":null,"type":"movie","add":"2021-09-01 07:30:02","orig_title":"Wedding March: Here Comes the Bride","year":"2018-02-17","translations":["Любительский (многоголосый закадровый) (Синема УС)"],"quality":"hdtv","translation":"Любительский (многоголосый закадровый) (Синема УС)","update":"2021-09-01 11:38:13","iframe_src":"//89442664434375553.svetacdn.in/PfJ50H0ZBPg3/movie/52796"},{"id":52793,"title":"Заложники","kp_id":"4438974","imdb_id":"tt14497172","world_art_id":null,"type":"movie","add":"2021-08-31 16:32:10","orig_title":"Ostaggi","year":"2021-07-22","translations":["Любительский (многоголосый закадровый) (Синема УС)"],"quality":"webdl","translation":"Любительский (многоголосый закадровый) (Синема УС)","update":"2021-09-01 06:01:38","iframe_src":"//89442664434375553.svetacdn.in/PfJ50H0ZBPg3/movie/52793"},{"id":52792,"title":"Человек против бигфута","kp_id":"1257446","imdb_id":"tt10116022","world_art_id":null,"type":"movie","add":"2021-08-31 16:31:39","orig_title":"Man vs Bigfoot","year":"2021-08-30","translations":["Любительский (многоголосый закадровый) (@MUZOBOZ@)"],"quality":"webdl","translation":"Любительский (многоголосый закадровый) (@MUZOBOZ@)","update":"2021-09-01 06:01:12","iframe_src":"//89442664434375553.svetacdn.in/PfJ50H0ZBPg3/movie/52792"},{"id":52789,"title":"Всадник смерти в Доме вампиров","kp_id":"1337748","imdb_id":"tt11505680","world_art_id":null,"type":"movie","add":"2021-08-31 16:29:42","orig_title":"Death Rider in the House of Vampires","year":"2021-08-27","translations":["Любительский (двухголосый закадровый) (Колобок)"],"quality":"ts","translation":"Любительский (двухголосый закадровый) (Колобок)","update":"2021-09-01 05:59:44","iframe_src":"//89442664434375553.svetacdn.in/PfJ50H0ZBPg3/movie/52789"},{"id":52787,"title":"Темная лошадка","kp_id":"557850","imdb_id":"tt1690455","world_art_id":null,"type":"movie","add":"2021-08-31 15:30:28","orig_title":"Dark Horse","year":"2011-09-05","translations":["Профессиональный (многоголосый закадровый)"],"quality":"hdrip","translation":"Профессиональный (многоголосый закадровый)","update":"2021-09-01 07:24:00","iframe_src":"//89442664434375553.svetacdn.in/PfJ50H0ZBPg3/movie/52787"},{"id":52782,"title":"Парень из кальция","kp_id":"5571","imdb_id":"tt0330111","world_art_id":null,"type":"movie","add":"2021-08-31 11:48:51","orig_title":"The Calcium Kid","year":"2004-04-30","translations":["Профессиональный (двухголосый закадровый)"],"quality":"dvdrip","translation":"Профессиональный (двухголосый закадровый)","update":"2021-09-01 07:26:55","iframe_src":"//89442664434375553.svetacdn.in/PfJ50H0ZBPg3/movie/52782"},{"id":52781,"title":"Педро","kp_id":"424316","imdb_id":"tt1281383","world_art_id":null,"type":"movie","add":"2021-08-31 11:45:49","orig_title":"Pedro","year":"2008-09-07","translations":["Авторский (одноголосый закадровый) (Кузнецов Сергей)"],"quality":"dvdrip","translation":"Авторский (одноголосый закадровый) (Кузнецов Сергей)","update":"2021-09-01 07:25:16","iframe_src":"//89442664434375553.svetacdn.in/PfJ50H0ZBPg3/movie/52781"},{"id":52780,"title":"Братство","kp_id":"438501","imdb_id":"tt1327820","world_art_id":null,"type":"movie","add":"2021-08-31 11:40:58","orig_title":"Broderskab","year":"2009-10-21","translations":["Любительский (одноголосый закадровый) (Кошкин Василий)"],"quality":"dvdrip","translation":"Любительский (одноголосый закадровый) (Кошкин Василий)","update":"2021-08-31 23:20:32","iframe_src":"//89442664434375553.svetacdn.in/PfJ50H0ZBPg3/movie/52780"},{"id":52779,"title":"Слишком крут для неудачи","kp_id":"568291","imdb_id":"tt1742683","world_art_id":null,"type":"movie","add":"2021-08-31 11:32:39","orig_title":"Too Big to Fail","year":"2011-05-23","translations":["Профессиональный (двухголосый закадровый) (Кубик в Кубе | Kubik³)","[EN] Original (English)"],"quality":"bd","translation":"Профессиональный (двухголосый закадровый) (Кубик в Кубе | Kubik³)","update":"2021-09-01 08:52:58","iframe_src":"//89442664434375553.svetacdn.in/PfJ50H0ZBPg3/movie/52779"},{"id":52778,"title":"Мнимая любовница","kp_id":"75374","imdb_id":"tt0154473","world_art_id":null,"type":"movie","add":"2021-08-31 11:30:12","orig_title":"La fausse maîtresse","year":"1942-08-14","translations":["Любительский (одноголосый закадровый) (Линда)"],"quality":"bd","translation":"Любительский (одноголосый закадровый) (Линда)","update":"2021-09-01 09:15:23","iframe_src":"//89442664434375553.svetacdn.in/PfJ50H0ZBPg3/movie/52778"},{"id":52776,"title":"Хлеб, любовь и...","kp_id":"26843","imdb_id":"tt0050817","world_art_id":null,"type":"movie","add":"2021-08-31 05:58:39","orig_title":"Pane, amore e.....","year":"1955-12-22","translations":["Любительский (одноголосый закадровый) (Rollinghead | Синица Сергей)"],"quality":"webdl","translation":"Любительский (одноголосый закадровый) (Rollinghead | Синица Сергей)","update":"2021-09-01 10:17:08","iframe_src":"//89442664434375553.svetacdn.in/PfJ50H0ZBPg3/movie/52776"},{"id":52775,"title":"Истребители «Зеро»: Великое воздушное сражение","kp_id":"99677","imdb_id":"tt0298612","world_art_id":null,"type":"movie","add":"2021-08-31 05:38:33","orig_title":"Zero faita dai kûsen","year":"1966-07-13","translations":["Любительский (одноголосый закадровый) (den904)"],"quality":"webdl","translation":"Любительский (одноголосый закадровый) (den904)","update":"2021-09-01 10:21:50","iframe_src":"//89442664434375553.svetacdn.in/PfJ50H0ZBPg3/movie/52775"},{"id":52751,"title":"Отбросы","kp_id":"22374","imdb_id":"tt0079871","world_art_id":null,"type":"movie","add":"2021-08-30 05:37:42","orig_title":"Scum","year":"1979-09-12","translations":["Авторский (одноголосый закадровый) (Кузнецов Сергей)","[EN] Original (English)"],"quality":"bd","translation":"Авторский (одноголосый закадровый) (Кузнецов Сергей)","update":"2021-09-01 10:03:30","iframe_src":"//89442664434375553.svetacdn.in/PfJ50H0ZBPg3/movie/52751"},{"id":52720,"title":"Бекки Шарп","kp_id":"13815","imdb_id":"tt0026104","world_art_id":null,"type":"movie","add":"2021-08-29 06:43:24","orig_title":"Becky Sharp","year":"1935-06-13","translations":["[EN] Original (English)","Авторский (одноголосый закадровый) (Данилов Владислав | Kenum)"],"quality":"bd","translation":"[EN] Original (English)","update":"2021-09-01 10:20:16","iframe_src":"//89442664434375553.svetacdn.in/PfJ50H0ZBPg3/movie/52720"},{"id":52684,"title":"Пират","kp_id":"13169","imdb_id":"tt0040694","world_art_id":null,"type":"movie","add":"2021-08-27 06:42:40","orig_title":"The Pirate","year":"1948-05-14","translations":["[EN] Original (English)","Профессиональный (многоголосый закадровый) (Домашний)"],"quality":"bd","translation":"[EN] Original (English)","update":"2021-09-01 09:23:30","iframe_src":"//89442664434375553.svetacdn.in/PfJ50H0ZBPg3/movie/52684"},{"id":51116,"title":"Инопланетянин в чужом теле","kp_id":"31673","imdb_id":"tt0101502","world_art_id":null,"type":"movie","add":"2021-06-11 21:17:20","orig_title":"The Borrower","year":"1991-05-25","translations":["Профессиональный (двухголосый закадровый)","[EN] Original (English)","Профессиональный (двухголосый закадровый)"],"quality":"dvdrip","translation":"Профессиональный (двухголосый закадровый)","update":"2021-09-01 09:49:32","iframe_src":"//89442664434375553.svetacdn.in/PfJ50H0ZBPg3/movie/51116"},{"id":40358,"title":"По ком звонит колокол","kp_id":"952","imdb_id":"tt0035896","world_art_id":null,"type":"movie","add":"2020-05-13 14:21:20","orig_title":"For Whom the Bell Tolls","year":"1943-07-14","translations":["Профессиональный (многоголосый закадровый)","[EN] Original (English)","Профессиональный (двухголосый закадровый) (New Dream Media)","Профессиональный (двухголосый закадровый) (НТВ)","Профессиональный (многоголосый закадровый) (Film Prestige)"],"quality":"bd","translation":"Профессиональный (многоголосый закадровый)","update":"2021-09-01 10:07:41","iframe_src":"//89442664434375553.svetacdn.in/PfJ50H0ZBPg3/movie/40358"},{"id":29613,"title":"Пленки Андерсона","kp_id":"6923","imdb_id":"tt0066767","world_art_id":null,"type":"movie","add":"2019-08-01 20:01:35","orig_title":"The Anderson Tapes","year":"1971-06-17","translations":["Профессиональный (многоголосый закадровый) (НТВ)","[EN] Original (English)","Авторский (одноголосый закадровый) (Визгунов Сергей)","Профессиональный (многоголосый закадровый) (DVD Магия)","Профессиональный (многоголосый закадровый) (НТВ)"],"quality":"bd","translation":"Профессиональный (многоголосый закадровый) (НТВ)","update":"2021-09-01 09:57:53","iframe_src":"//89442664434375553.svetacdn.in/PfJ50H0ZBPg3/movie/29613"},{"id":1702,"title":"Порох","kp_id":"1044295","imdb_id":"tt6128262","world_art_id":null,"type":"serial","add":"2017-11-02 06:51:32","orig_title":"Gunpowder","year":"2017-10-21","translations":["Профессиональный (многоголосый закадровый) (BaibaKo)"],"seasons_count":1,"episodes_count":3,"episodes":3,"update":"2017-11-02 15:30:32","iframe_src":"//89442664434375553.svetacdn.in/PfJ50H0ZBPg3/tv-series/1702"},{"id":1693,"title":"Живу с моделями","kp_id":"891745","imdb_id":"tt4214468","world_art_id":null,"type":"serial","add":"2017-10-30 10:36:34","orig_title":"I Live with Models","year":"2015-02-23","translations":["Профессиональный (одноголосый закадровый) (Кураж-Бамбей)"],"seasons_count":2,"episodes_count":16,"episodes":8,"update":"2017-11-01 12:10:57","iframe_src":"//89442664434375553.svetacdn.in/PfJ50H0ZBPg3/tv-series/1693"},{"id":1688,"title":"Клянусь любить тебя вечно","kp_id":"1049747","imdb_id":null,"world_art_id":null,"type":"serial","add":"2017-10-30 08:58:00","orig_title":"Клянусь любить тебя вечно","year":"2017-10-27","translations":["Оригинальная дорожка"],"seasons_count":1,"episodes_count":4,"episodes":4,"update":"2017-10-31 13:18:16","iframe_src":"//89442664434375553.svetacdn.in/PfJ50H0ZBPg3/tv-series/1688"},{"id":1673,"title":"Лучшие пончики","kp_id":"958621","imdb_id":"tt5462364","world_art_id":null,"type":"serial","add":"2017-10-26 05:26:59","orig_title":"Superior Donuts","year":"2017-02-02","translations":["Профессиональный (многоголосый закадровый) (BaibaKo)"],"seasons_count":1,"episodes_count":13,"episodes":13,"update":"2017-10-27 10:39:32","iframe_src":"//89442664434375553.svetacdn.in/PfJ50H0ZBPg3/tv-series/1673"},{"id":1670,"title":"Дом терпимости","kp_id":"614535","imdb_id":"tt1521186","world_art_id":null,"type":"serial","add":"2017-10-25 13:40:05","orig_title":"Maison close","year":"2010-10-04","translations":["Профессиональный (многоголосый закадровый) (BaibaKo)"],"seasons_count":2,"episodes_count":16,"episodes":8,"update":"2017-10-30 13:00:38","iframe_src":"//89442664434375553.svetacdn.in/PfJ50H0ZBPg3/tv-series/1670"},{"id":1665,"title":"Легавый 2","kp_id":"782252","imdb_id":"tt4208456","world_art_id":null,"type":"serial","add":"2017-10-24 05:34:07","orig_title":"Legavyy 2","year":"2014-11-10","translations":["Оригинальная дорожка"],"seasons_count":1,"episodes_count":32,"episodes":32,"update":"2017-10-31 13:29:49","iframe_src":"//89442664434375553.svetacdn.in/PfJ50H0ZBPg3/tv-series/1665"},{"id":1663,"title":"Милдред Пирс","kp_id":"508365","imdb_id":"tt1492030","world_art_id":null,"type":"serial","add":"2017-10-23 09:00:03","orig_title":"Mildred Pierce","year":"2011-03-27","translations":["Профессиональный (многоголосый закадровый) (LostFilm)"],"seasons_count":1,"episodes_count":5,"episodes":5,"update":"2017-10-23 15:17:08","iframe_src":"//89442664434375553.svetacdn.in/PfJ50H0ZBPg3/tv-series/1663"},{"id":1661,"title":"Как вернуть мужа за 30 дней","kp_id":"1045403","imdb_id":null,"world_art_id":null,"type":"serial","add":"2017-10-23 08:00:34","orig_title":"Как вернуть мужа за 30 дней","year":"2017-10-20","translations":["Оригинальная дорожка"],"seasons_count":1,"episodes_count":2,"episodes":2,"update":"2017-10-23 14:50:49","iframe_src":"//89442664434375553.svetacdn.in/PfJ50H0ZBPg3/tv-series/1661"},{"id":1660,"title":"Милые обманщицы","kp_id":"505748","imdb_id":"tt1578873","world_art_id":null,"type":"serial","add":"2017-10-21 06:29:38","orig_title":"Pretty Little Liars","year":"2010-06-08","translations":["Полное дублирование (MTV)","Полное дублирование","Профессиональный (многоголосый закадровый) (NewStudio)"],"seasons_count":7,"episodes_count":160,"episodes":20,"update":"2017-10-30 12:13:29","iframe_src":"//89442664434375553.svetacdn.in/PfJ50H0ZBPg3/tv-series/1660"},{"id":1658,"title":"Волчья кровь","kp_id":"707089","imdb_id":"tt2321596","world_art_id":null,"type":"serial","add":"2017-10-19 05:46:57","orig_title":"Wolfblood","year":"2012-09-10","translations":["Любительский (многоголосый закадровый) (Dream Records)"],"seasons_count":5,"episodes_count":62,"episodes":10,"update":"2017-10-24 07:45:18","iframe_src":"//89442664434375553.svetacdn.in/PfJ50H0ZBPg3/tv-series/1658"},{"id":1654,"title":"Неудачников.Nеt","kp_id":"470896","imdb_id":null,"world_art_id":null,"type":"serial","add":"2017-10-18 07:04:09","orig_title":"Неудачников.Nеt","year":"2010-11-20","translations":["Оригинальная дорожка"],"seasons_count":1,"episodes_count":29,"episodes":29,"update":"2017-11-01 13:54:11","iframe_src":"//89442664434375553.svetacdn.in/PfJ50H0ZBPg3/tv-series/1654"},{"id":1652,"title":"Бумеранг","kp_id":"1045808","imdb_id":null,"world_art_id":null,"type":"serial","add":"2017-10-18 06:48:34","orig_title":"Бумеранг","year":"2017-10-16","translations":["Оригинальная дорожка"],"seasons_count":1,"episodes_count":16,"episodes":16,"update":"2017-10-27 10:13:45","iframe_src":"//89442664434375553.svetacdn.in/PfJ50H0ZBPg3/tv-series/1652"},{"id":1651,"title":"Исчезнувшая","kp_id":"1049346","imdb_id":null,"world_art_id":null,"type":"serial","add":"2017-10-18 06:45:36","orig_title":"Исчезнувшая","year":"2017-10-16","translations":["Оригинальная дорожка"],"seasons_count":1,"episodes_count":16,"episodes":16,"update":"2017-10-27 10:12:17","iframe_src":"//89442664434375553.svetacdn.in/PfJ50H0ZBPg3/tv-series/1651"},{"id":1648,"title":"Гостиница «Россия»","kp_id":"958468","imdb_id":null,"world_art_id":null,"type":"serial","add":"2017-10-17 05:47:47","orig_title":"Гостиница «Россия»","year":"2017-10-16","translations":["Оригинальная дорожка"],"seasons_count":1,"episodes_count":12,"episodes":12,"update":"2017-10-25 10:31:24","iframe_src":"//89442664434375553.svetacdn.in/PfJ50H0ZBPg3/tv-series/1648"},{"id":1644,"title":"Метод Лавровой","kp_id":"503233","imdb_id":"tt3859500","world_art_id":null,"type":"serial","add":"2017-10-15 17:49:16","orig_title":"Metod Lavrovoy","year":"2011-05-23","translations":["Оригинальная дорожка"],"seasons_count":1,"episodes_count":40,"episodes":40,"update":"2017-11-02 15:45:06","iframe_src":"//89442664434375553.svetacdn.in/PfJ50H0ZBPg3/tv-series/1644"},{"id":1630,"title":"Чемпионки","kp_id":"699565","imdb_id":"tt4083492","world_art_id":null,"type":"serial","add":"2017-10-11 10:33:05","orig_title":"Chempionki","year":"2012-10-01","translations":["Оригинальная дорожка"],"seasons_count":1,"episodes_count":20,"episodes":20,"update":"2017-10-24 12:21:41","iframe_src":"//89442664434375553.svetacdn.in/PfJ50H0ZBPg3/tv-series/1630"},{"id":1439,"title":"Сомнение","kp_id":"893668","imdb_id":"tt4447390","world_art_id":null,"type":"serial","add":"2017-08-01 17:31:23","orig_title":"Doubt","year":"2017-02-15","translations":["Профессиональный (многоголосый закадровый) (IdeaFilm)"],"seasons_count":1,"episodes_count":13,"episodes":13,"update":"2017-11-01 12:27:41","iframe_src":"//89442664434375553.svetacdn.in/PfJ50H0ZBPg3/tv-series/1439"},{"id":666,"title":"Грейвс","kp_id":"930479","imdb_id":"tt4866982","world_art_id":null,"type":"serial","add":"2016-12-06 14:17:47","orig_title":"Graves","year":"2016-10-16","translations":["Профессиональный (двухголосый закадровый) (Sunshine Studio)","Любительский (двухголосый закадровый) (Sunshine Studio)"],"seasons_count":2,"episodes_count":10,"episodes":1,"update":"2017-10-25 13:57:53","iframe_src":"//89442664434375553.svetacdn.in/PfJ50H0ZBPg3/tv-series/666"},{"id":134,"title":"Улица милосердия","kp_id":"913404","imdb_id":"tt4597870","world_art_id":null,"type":"serial","add":"2016-06-03 08:39:26","orig_title":"Mercy Street","year":"2016-01-17","translations":["Профессиональный (многоголосый закадровый) (BaibaKo)","Профессиональный (многоголосый закадровый) (IdeaFilm)"],"seasons_count":2,"episodes_count":12,"episodes":6,"update":"2017-11-02 07:02:26","iframe_src":"//89442664434375553.svetacdn.in/PfJ50H0ZBPg3/tv-series/134"},{"id":46,"title":"Физрук","kp_id":"789914","imdb_id":"tt3656076","world_art_id":null,"type":"serial","add":"2016-04-03 10:05:46","orig_title":"Fizruk","year":"2014-04-07","translations":["Оригинальная дорожка"],"seasons_count":4,"episodes_count":77,"episodes":16,"update":"2017-11-02 06:47:32","iframe_src":"//89442664434375553.svetacdn.in/PfJ50H0ZBPg3/tv-series/46"}],"current_page":585,"first_page_url":"https://videocdn.tv/api/short?limit=100&api_token=RgFQdUIR2dRmwv8iYa5SnFNgnw3vpjKj&cache3585=3585&page=1","from":58401,"last_page":734,"last_page_url":"https://videocdn.tv/api/short?limit=100&api_token=RgFQdUIR2dRmwv8iYa5SnFNgnw3vpjKj&cache3585=3585&page=734","next_page_url":"https://videocdn.tv/api/short?limit=100&api_token=RgFQdUIR2dRmwv8iYa5SnFNgnw3vpjKj&cache3585=3585&page=586","path":"https://videocdn.tv/api/short","per_page":100,"prev_page_url":"https://videocdn.tv/api/short?limit=100&api_token=RgFQdUIR2dRmwv8iYa5SnFNgnw3vpjKj&cache3585=3585&page=584","to":58440,"total":73325}