{"result":true,"data":[{"id":36480,"title":"Вальс золотых тельцов","kp_id":"41395","imdb_id":"tt0199122","world_art_id":null,"type":"movie","add":"2020-02-18 15:18:21","orig_title":"Vals zolotykh teltsov","year":"1992-01-01","translations":["Оригинальная дорожка"],"quality":"dvdrip","translation":"Оригинальная дорожка","update":"2020-02-18 17:42:54","iframe_src":"//2413.svetacdn.in/si4jsFRrtgrT/movie/36480"},{"id":36479,"title":"Это моя жизнь","kp_id":"3988","imdb_id":"tt0105577","world_art_id":null,"type":"movie","add":"2020-02-18 15:15:54","orig_title":"This Is My Life","year":"1992-02-21","translations":["Любительский (одноголосый закадровый)"],"quality":"vhs","translation":"Любительский (одноголосый закадровый)","update":"2020-02-18 19:14:42","iframe_src":"//2413.svetacdn.in/si4jsFRrtgrT/movie/36479"},{"id":36478,"title":"Падает тень","kp_id":"601646","imdb_id":"tt1883184","world_art_id":null,"type":"movie","add":"2020-02-18 15:02:22","orig_title":"Falls the Shadow","year":"2014-03-25","translations":["Профессиональный (двухголосый закадровый) (НТВ)"],"quality":"bd","translation":"Профессиональный (двухголосый закадровый) (НТВ)","update":"2020-02-18 20:20:41","iframe_src":"//2413.svetacdn.in/si4jsFRrtgrT/movie/36478"},{"id":36476,"title":"Святая девушка","kp_id":"81602","imdb_id":"tt0300270","world_art_id":null,"type":"movie","add":"2020-02-18 14:52:11","orig_title":"La niña santa","year":"2004-05-06","translations":["Любительский (одноголосый закадровый)"],"quality":"dvdrip","translation":"Любительский (одноголосый закадровый)","update":"2020-02-18 19:33:17","iframe_src":"//2413.svetacdn.in/si4jsFRrtgrT/movie/36476"},{"id":36475,"title":"В мире грёз","kp_id":"34898","imdb_id":"tt0283911","world_art_id":null,"type":"movie","add":"2020-02-18 14:50:22","orig_title":"Bas Itna Sa Khwaab Hai...","year":"2001-07-06","translations":["Профессиональный (двухголосый закадровый)"],"quality":"dvdrip","translation":"Профессиональный (двухголосый закадровый)","update":"2020-02-18 18:15:10","iframe_src":"//2413.svetacdn.in/si4jsFRrtgrT/movie/36475"},{"id":36473,"title":"Возвращение чемпиона","kp_id":"94643","imdb_id":"tt0356414","world_art_id":null,"type":"movie","add":"2020-02-18 14:48:26","orig_title":"Big Spender","year":"2003-03-25","translations":["Профессиональный (многоголосый закадровый)"],"quality":"dvdrip","translation":"Профессиональный (многоголосый закадровый)","update":"2020-02-18 18:47:50","iframe_src":"//2413.svetacdn.in/si4jsFRrtgrT/movie/36473"},{"id":36466,"title":"Слепая любовь","kp_id":"1088756","imdb_id":"tt7439220","world_art_id":null,"type":"movie","add":"2020-02-18 14:31:21","orig_title":"Askin Gören Gözlere Ihtiyaci yok","year":"2017-09-28","translations":["Любительский (многоголосый закадровый) (Синема УС)"],"quality":"webdl","translation":"Любительский (многоголосый закадровый) (Синема УС)","update":"2020-02-18 20:53:08","iframe_src":"//2413.svetacdn.in/si4jsFRrtgrT/movie/36466"},{"id":36465,"title":"Красный","kp_id":"1178075","imdb_id":"tt8956390","world_art_id":null,"type":"movie","add":"2020-02-18 14:29:37","orig_title":"Rojo","year":"2018-09-10","translations":["Любительский (многоголосый закадровый) (Синема УС)"],"quality":"bd","translation":"Любительский (многоголосый закадровый) (Синема УС)","update":"2020-02-18 20:53:43","iframe_src":"//2413.svetacdn.in/si4jsFRrtgrT/movie/36465"},{"id":36464,"title":"Родина","kp_id":"1322846","imdb_id":"tt9647980","world_art_id":null,"type":"movie","add":"2020-02-18 14:27:54","orig_title":"Patria","year":"2019-01-18","translations":["Любительский (многоголосый закадровый) (Синема УС)"],"quality":"webdl","translation":"Любительский (многоголосый закадровый) (Синема УС)","update":"2020-02-18 20:54:16","iframe_src":"//2413.svetacdn.in/si4jsFRrtgrT/movie/36464"},{"id":36462,"title":"Клоуны и грабители","kp_id":"1062212","imdb_id":"tt7390104","world_art_id":null,"type":"movie","add":"2020-02-18 14:25:39","orig_title":"Clowns & Robbers","year":"2018-06-21","translations":["Любительский (многоголосый закадровый) (Синема УС)"],"quality":"webdl","translation":"Любительский (многоголосый закадровый) (Синема УС)","update":"2020-02-18 20:54:51","iframe_src":"//2413.svetacdn.in/si4jsFRrtgrT/movie/36462"},{"id":36461,"title":"Однажды став гангстером","kp_id":"506111","imdb_id":"tt1611840","world_art_id":null,"type":"movie","add":"2020-02-18 14:23:36","orig_title":"Fei saa fung chung chun","year":"2010-05-20","translations":["Любительский (одноголосый закадровый) (Акира | Хохлов Борис)"],"quality":"bd","translation":"Любительский (одноголосый закадровый) (Акира | Хохлов Борис)","update":"2020-02-18 20:55:47","iframe_src":"//2413.svetacdn.in/si4jsFRrtgrT/movie/36461"},{"id":36460,"title":"Мужские разборки","kp_id":"81009","imdb_id":"tt0048021","world_art_id":null,"type":"movie","add":"2020-02-18 14:22:50","orig_title":"Du rififi chez les hommes","year":"1955-04-13","translations":["Профессиональный (многоголосый закадровый)"],"quality":"bd","translation":"Профессиональный (многоголосый закадровый)","update":"2020-02-18 18:39:34","iframe_src":"//2413.svetacdn.in/si4jsFRrtgrT/movie/36460"},{"id":36459,"title":"В оцепенении","kp_id":"1188794","imdb_id":"tt8890690","world_art_id":null,"type":"movie","add":"2020-02-18 14:21:06","orig_title":"Familia sumergida","year":"2018-08-04","translations":["Любительский (многоголосый закадровый) (Синема УС)"],"quality":"webdl","translation":"Любительский (многоголосый закадровый) (Синема УС)","update":"2020-02-18 20:56:19","iframe_src":"//2413.svetacdn.in/si4jsFRrtgrT/movie/36459"},{"id":36457,"title":"Даас","kp_id":"601029","imdb_id":"tt1927006","world_art_id":null,"type":"movie","add":"2020-02-18 14:17:34","orig_title":"Daas","year":"2011-06-07","translations":["Любительский (одноголосый закадровый)"],"quality":"dvdrip","translation":"Любительский (одноголосый закадровый)","update":"2020-02-18 20:56:49","iframe_src":"//2413.svetacdn.in/si4jsFRrtgrT/movie/36457"},{"id":36455,"title":"Долгая долгая ночь любви","kp_id":"23162","imdb_id":"tt0274637","world_art_id":null,"type":"movie","add":"2020-02-18 14:14:17","orig_title":"Una lunga lunga lunga notte d'amore","year":"2001-02-14","translations":["Профессиональный (двухголосый закадровый)"],"quality":"dvdrip","translation":"Профессиональный (двухголосый закадровый)","update":"2020-02-18 18:40:35","iframe_src":"//2413.svetacdn.in/si4jsFRrtgrT/movie/36455"},{"id":36451,"title":"Съезд на Марракеш","kp_id":"596831","imdb_id":"tt1982177","world_art_id":null,"type":"movie","add":"2020-02-18 14:06:20","orig_title":"Exit Marrakech","year":"2013-06-28","translations":["Любительский (двухголосый закадровый)"],"quality":"dvdrip","translation":"Любительский (двухголосый закадровый)","update":"2020-02-18 19:11:30","iframe_src":"//2413.svetacdn.in/si4jsFRrtgrT/movie/36451"},{"id":36449,"title":"Опасная жалость","kp_id":"432980","imdb_id":"tt1319145","world_art_id":null,"type":"movie","add":"2020-02-18 13:57:49","orig_title":"La pitié dangereuse","year":"1979-12-26","translations":["Профессиональный (многоголосый закадровый)"],"quality":"dvdrip","translation":"Профессиональный (многоголосый закадровый)","update":"2020-02-18 18:36:56","iframe_src":"//2413.svetacdn.in/si4jsFRrtgrT/movie/36449"},{"id":36436,"title":"Место под солнцем","kp_id":"689564","imdb_id":"tt2230434","world_art_id":null,"type":"movie","add":"2020-02-17 20:03:03","orig_title":"En plats i solen","year":"2012-08-29","translations":["Профессиональный (многоголосый закадровый)"],"quality":"bd","translation":"Профессиональный (многоголосый закадровый)","update":"2020-02-18 19:59:17","iframe_src":"//2413.svetacdn.in/si4jsFRrtgrT/movie/36436"},{"id":36429,"title":"Качая железо","kp_id":"65144","imdb_id":"tt0076578","world_art_id":null,"type":"movie","add":"2020-02-17 19:39:36","orig_title":"Pumping Iron","year":"1977-01-18","translations":["Профессиональный (одноголосый закадровый)"],"quality":"bd","translation":"Профессиональный (одноголосый закадровый)","update":"2020-02-18 19:57:42","iframe_src":"//2413.svetacdn.in/si4jsFRrtgrT/movie/36429"},{"id":36415,"title":"Отверженная","kp_id":"592457","imdb_id":"tt1233334","world_art_id":null,"type":"movie","add":"2020-02-17 12:55:06","orig_title":"Pariah","year":"2011-01-20","translations":["Любительский (одноголосый закадровый)"],"quality":"hdrip","translation":"Любительский (одноголосый закадровый)","update":"2020-02-18 19:36:44","iframe_src":"//2413.svetacdn.in/si4jsFRrtgrT/movie/36415"}],"current_page":1404,"first_page_url":"https://videocdn.tv/api/short?limit=100&api_token=X6EwAUfE5M9xbo7y0Bp0aPf3uXxG2KLL&cache31404=31404&page=1","from":140301,"last_page":720,"last_page_url":"https://videocdn.tv/api/short?limit=100&api_token=X6EwAUfE5M9xbo7y0Bp0aPf3uXxG2KLL&cache31404=31404&page=720","next_page_url":null,"path":"https://videocdn.tv/api/short","per_page":100,"prev_page_url":"https://videocdn.tv/api/short?limit=100&api_token=X6EwAUfE5M9xbo7y0Bp0aPf3uXxG2KLL&cache31404=31404&page=1403","to":140320,"total":71963}