{"result":true,"data":[{"id":36564,"title":"Любовная связь","kp_id":"78523","imdb_id":"tt0083081","world_art_id":null,"type":"movie","add":"2020-02-19 16:41:05","orig_title":"Silsila","year":"1981-08-14","translations":["Профессиональный (многоголосый закадровый) (Red Media)"],"quality":"bd","translation":"Профессиональный (многоголосый закадровый) (Red Media)","update":"2020-02-20 12:27:28","iframe_src":"//7043.svetacdn.in/IAF0wWTdNYZm/movie/36564"},{"id":36563,"title":"Солнце и тень","kp_id":"224971","imdb_id":"tt0379257","world_art_id":null,"type":"movie","add":"2020-02-19 16:38:48","orig_title":"Dhoop Chhaon","year":"1977-03-23","translations":["Профессиональный (многоголосый закадровый)"],"quality":"sat","translation":"Профессиональный (многоголосый закадровый)","update":"2020-02-20 12:26:40","iframe_src":"//7043.svetacdn.in/IAF0wWTdNYZm/movie/36563"},{"id":36562,"title":"Свадьба лучшей подруги","kp_id":"991579","imdb_id":"tt5842616","world_art_id":null,"type":"movie","add":"2020-02-19 16:36:17","orig_title":"Veere Di Wedding","year":"2018-01-06","translations":["Любительский (многоголосый закадровый) (Honey&Hoseena)"],"quality":"webdl","translation":"Любительский (многоголосый закадровый) (Honey&Hoseena)","update":"2020-02-20 12:26:01","iframe_src":"//7043.svetacdn.in/IAF0wWTdNYZm/movie/36562"},{"id":36561,"title":"Тени","kp_id":"95686","imdb_id":"tt0139398","world_art_id":null,"type":"movie","add":"2020-02-19 16:33:04","orig_title":"Kaajal","year":"1965-01-01","translations":["Профессиональный (многоголосый закадровый)"],"quality":"dvdrip","translation":"Профессиональный (многоголосый закадровый)","update":"2020-02-20 12:25:29","iframe_src":"//7043.svetacdn.in/IAF0wWTdNYZm/movie/36561"},{"id":36560,"title":"Тройной удар","kp_id":"312396","imdb_id":"tt1027849","world_art_id":null,"type":"movie","add":"2020-02-19 16:29:44","orig_title":"Rangbaaz","year":"1996-10-25","translations":["Профессиональный (многоголосый закадровый)"],"quality":"sat","translation":"Профессиональный (многоголосый закадровый)","update":"2020-02-20 12:24:42","iframe_src":"//7043.svetacdn.in/IAF0wWTdNYZm/movie/36560"},{"id":36559,"title":"В тени закона","kp_id":"160432","imdb_id":"tt0096922","world_art_id":null,"type":"movie","add":"2020-02-19 16:22:38","orig_title":"Bhrashtachar","year":"1989-11-22","translations":["Профессиональный (многоголосый закадровый)"],"quality":"dvdrip","translation":"Профессиональный (многоголосый закадровый)","update":"2020-02-20 12:21:27","iframe_src":"//7043.svetacdn.in/IAF0wWTdNYZm/movie/36559"},{"id":36556,"title":"Вир – герой народа","kp_id":"472314","imdb_id":"tt1185412","world_art_id":null,"type":"movie","add":"2020-02-19 16:15:09","orig_title":"Veer","year":"2010-01-22","translations":["Профессиональный (многоголосый закадровый) (ZEE TV)"],"quality":"bd","translation":"Профессиональный (многоголосый закадровый) (ZEE TV)","update":"2020-02-20 12:14:28","iframe_src":"//7043.svetacdn.in/IAF0wWTdNYZm/movie/36556"},{"id":36549,"title":"Порнографические связи","kp_id":"77300","imdb_id":"tt0204709","world_art_id":null,"type":"movie","add":"2020-02-19 13:49:53","orig_title":"Une liaison pornographique","year":"1999-09-04","translations":["Профессиональный (многоголосый закадровый)"],"quality":"dvdrip","translation":"Профессиональный (многоголосый закадровый)","update":"2020-02-20 12:00:35","iframe_src":"//7043.svetacdn.in/IAF0wWTdNYZm/movie/36549"},{"id":36548,"title":"Это дело семьи","kp_id":"7225","imdb_id":"tt0338497","world_art_id":null,"type":"movie","add":"2020-02-19 13:48:36","orig_title":"This Thing of Ours","year":"2003-07-18","translations":["Профессиональный (многоголосый закадровый)"],"quality":"dvdrip","translation":"Профессиональный (многоголосый закадровый)","update":"2020-02-20 11:59:33","iframe_src":"//7043.svetacdn.in/IAF0wWTdNYZm/movie/36548"},{"id":36545,"title":"7500","kp_id":"596489","imdb_id":"tt1975159","world_art_id":null,"type":"movie","add":"2020-02-19 13:44:38","orig_title":"Flight 7500","year":"2014-05-16","translations":["Профессиональный (многоголосый закадровый)","Original (English)"],"quality":"bd","translation":"Профессиональный (многоголосый закадровый)","update":"2020-02-20 12:04:22","iframe_src":"//7043.svetacdn.in/IAF0wWTdNYZm/movie/36545"},{"id":36469,"title":"Откровение","kp_id":"522324","imdb_id":"tt1649431","world_art_id":null,"type":"movie","add":"2020-02-18 14:36:51","orig_title":"Vedam","year":"2010-06-04","translations":["Любительский (многоголосый закадровый) (ICG)","Профессиональный (многоголосый закадровый) (Red Media)"],"quality":"bd","translation":"Любительский (многоголосый закадровый) (ICG)","update":"2020-02-20 12:15:51","iframe_src":"//7043.svetacdn.in/IAF0wWTdNYZm/movie/36469"},{"id":33150,"title":"Тормоз","kp_id":"596443","imdb_id":"tt1990181","world_art_id":null,"type":"movie","add":"2019-11-16 07:08:10","orig_title":"Brake","year":"2012-03-23","translations":["Профессиональный (многоголосый закадровый)","Original (English)"],"quality":"bd","translation":"Профессиональный (многоголосый закадровый)","update":"2020-02-20 12:08:42","iframe_src":"//7043.svetacdn.in/IAF0wWTdNYZm/movie/33150"},{"id":33149,"title":"Астрал на улице Арлетт","kp_id":"572103","imdb_id":"tt1767272","world_art_id":null,"type":"movie","add":"2019-11-16 07:07:07","orig_title":"388 Arletta Avenue","year":"2011-09-11","translations":["Профессиональный (многоголосый закадровый)","Original (English)"],"quality":"bd","translation":"Профессиональный (многоголосый закадровый)","update":"2020-02-20 12:03:32","iframe_src":"//7043.svetacdn.in/IAF0wWTdNYZm/movie/33149"},{"id":33058,"title":"Забытое","kp_id":"898074","imdb_id":"tt4510398","world_art_id":null,"type":"movie","add":"2019-11-13 08:07:10","orig_title":"4Got10","year":"2015-09-11","translations":["Любительский (одноголосый закадровый) (PashaUp | Морозов Павел)","Original (English)"],"quality":"bd","translation":"Любительский (одноголосый закадровый) (PashaUp | Морозов Павел)","update":"2020-02-20 12:02:24","iframe_src":"//7043.svetacdn.in/IAF0wWTdNYZm/movie/33058"},{"id":33056,"title":"Пуля","kp_id":"720100","imdb_id":"tt2544734","world_art_id":null,"type":"movie","add":"2019-11-13 07:54:24","orig_title":"Bullet","year":"2014-02-22","translations":["Профессиональный (многоголосый закадровый)","Original (English)"],"quality":"bd","translation":"Профессиональный (многоголосый закадровый)","update":"2020-02-20 12:09:39","iframe_src":"//7043.svetacdn.in/IAF0wWTdNYZm/movie/33056"},{"id":32993,"title":"Глаза дракона","kp_id":"568551","imdb_id":"tt1735862","world_art_id":null,"type":"movie","add":"2019-11-12 08:11:06","orig_title":"Dragon Eyes","year":"2012-04-09","translations":["Профессиональный (двухголосый закадровый) (НТВ)","Original (English)"],"quality":"bd","translation":"Профессиональный (двухголосый закадровый) (НТВ)","update":"2020-02-20 12:11:10","iframe_src":"//7043.svetacdn.in/IAF0wWTdNYZm/movie/32993"},{"id":32853,"title":"Большие приключения в Африке","kp_id":"497926","imdb_id":"tt1429313","world_art_id":null,"type":"movie","add":"2019-11-08 08:39:48","orig_title":"Africa United","year":"2010-10-22","translations":["Профессиональный (многоголосый закадровый)","Original (English)"],"quality":"bd","translation":"Профессиональный (многоголосый закадровый)","update":"2020-02-20 12:05:22","iframe_src":"//7043.svetacdn.in/IAF0wWTdNYZm/movie/32853"},{"id":30428,"title":"Паучок","kp_id":"1096360","imdb_id":"tt6895284","world_art_id":null,"type":"movie","add":"2019-08-31 23:16:30","orig_title":"Itsy Bitsy","year":"2019-08-10","translations":["Полное дублирование","Любительский (многоголосый закадровый) (Синема УС)","Авторский (одноголосый закадровый) (Дольский Андрей)","Original (English)"],"quality":"webdl","translation":"Полное дублирование","update":"2020-02-20 12:07:23","iframe_src":"//7043.svetacdn.in/IAF0wWTdNYZm/movie/30428"},{"id":29954,"title":"После свадьбы","kp_id":"1126670","imdb_id":"tt7985692","world_art_id":null,"type":"movie","add":"2019-08-13 18:32:28","orig_title":"After the Wedding","year":"2019-01-24","translations":["Полное дублирование (iTunes)","Original (English)"],"quality":"bd","translation":"Полное дублирование (iTunes)","update":"2020-02-20 12:06:15","iframe_src":"//7043.svetacdn.in/IAF0wWTdNYZm/movie/29954"},{"id":9961,"title":"Полицейский","kp_id":"681062","imdb_id":"tt2392447","world_art_id":null,"type":"movie","add":"2017-02-23 07:14:05","orig_title":"Ungli","year":"2014-11-27","translations":["Любительский (двухголосый закадровый)","Профессиональный (двухголосый закадровый)"],"quality":"bd","translation":"Любительский (двухголосый закадровый)","update":"2020-02-20 12:23:48","iframe_src":"//7043.svetacdn.in/IAF0wWTdNYZm/movie/9961"}],"current_page":796,"first_page_url":"https://videocdn.tv/api/short?limit=100&api_token=6Onb1W1alEUrBcKJZD3GoKBbWyAl2uG2&cache3796=3796&page=1","from":79501,"last_page":612,"last_page_url":"https://videocdn.tv/api/short?limit=100&api_token=6Onb1W1alEUrBcKJZD3GoKBbWyAl2uG2&cache3796=3796&page=612","next_page_url":null,"path":"https://videocdn.tv/api/short","per_page":100,"prev_page_url":"https://videocdn.tv/api/short?limit=100&api_token=6Onb1W1alEUrBcKJZD3GoKBbWyAl2uG2&cache3796=3796&page=795","to":79520,"total":61166}