{"result":true,"data":[{"id":29466,"title":"Забытая река","kp_id":"1075305","imdb_id":"tt6915596","world_art_id":null,"type":"movie","add":"2019-07-28 12:00:50","orig_title":"Mayaanadhi","year":"2017-12-22","translations":["Любительский (многоголосый закадровый) (Синема УС)"],"quality":"webdl","translation":"Любительский (многоголосый закадровый) (Синема УС)","update":"2019-07-28 16:44:35","iframe_src":"//83.svetacdn.in/PfJ50H0ZBPg3/movie/29466"},{"id":29465,"title":"Сын","kp_id":"1140823","imdb_id":"tt8160262","world_art_id":null,"type":"movie","add":"2019-07-28 11:58:36","orig_title":"El Hijo","year":"2019-05-02","translations":["Любительский (многоголосый закадровый) (Синема УС)"],"quality":"webdl","translation":"Любительский (многоголосый закадровый) (Синема УС)","update":"2019-07-28 16:45:57","iframe_src":"//83.svetacdn.in/PfJ50H0ZBPg3/movie/29465"},{"id":29463,"title":"Особый Эд","kp_id":"1204279","imdb_id":"tt8916810","world_art_id":null,"type":"movie","add":"2019-07-28 11:54:05","orig_title":"Special Ed","year":"2018-01-01","translations":["Любительский (многоголосый закадровый) (Синема УС)"],"quality":"webdl","translation":"Любительский (многоголосый закадровый) (Синема УС)","update":"2019-07-28 16:45:12","iframe_src":"//83.svetacdn.in/PfJ50H0ZBPg3/movie/29463"},{"id":29462,"title":"Девушки с шариками","kp_id":"916629","imdb_id":"tt4725842","world_art_id":null,"type":"movie","add":"2019-07-28 11:51:51","orig_title":"Girls with Balls","year":"2018-08-23","translations":["Любительский (многоголосый закадровый) (Синема УС)"],"quality":"webdl","translation":"Любительский (многоголосый закадровый) (Синема УС)","update":"2019-07-28 16:41:31","iframe_src":"//83.svetacdn.in/PfJ50H0ZBPg3/movie/29462"},{"id":29460,"title":"Бой","kp_id":"1194950","imdb_id":"tt9010900","world_art_id":null,"type":"movie","add":"2019-07-28 11:47:36","orig_title":"Boi","year":"2019-03-29","translations":["Любительский (многоголосый закадровый) (Синема УС)"],"quality":"webdl","translation":"Любительский (многоголосый закадровый) (Синема УС)","update":"2019-07-28 16:29:05","iframe_src":"//83.svetacdn.in/PfJ50H0ZBPg3/movie/29460"},{"id":29459,"title":"Билл Тилман и бандиты","kp_id":"1153663","imdb_id":"tt7941194","world_art_id":null,"type":"movie","add":"2019-07-28 11:43:04","orig_title":"Bill Tilghman and the Outlaws","year":"2019-02-07","translations":["Любительский (многоголосый закадровый) (Синема УС)"],"quality":"webdl","translation":"Любительский (многоголосый закадровый) (Синема УС)","update":"2019-07-28 16:24:21","iframe_src":"//83.svetacdn.in/PfJ50H0ZBPg3/movie/29459"},{"id":29454,"title":"Пробуждая мертвецов","kp_id":"915748","imdb_id":"tt4765610","world_art_id":null,"type":"movie","add":"2019-07-26 23:09:56","orig_title":"Wake the Dead","year":"2017-10-27","translations":["Любительский (многоголосый закадровый) (Синема УС)"],"quality":"webdl","translation":"Любительский (многоголосый закадровый) (Синема УС)","update":"2019-07-28 07:30:09","iframe_src":"//83.svetacdn.in/PfJ50H0ZBPg3/movie/29454"},{"id":29449,"title":"Иной","kp_id":"1042856","imdb_id":null,"world_art_id":null,"type":"movie","add":"2019-07-26 22:54:45","orig_title":"The Other One","year":"2017-04-02","translations":["Любительский (многоголосый закадровый) (Синема УС)"],"quality":"webdl","translation":"Любительский (многоголосый закадровый) (Синема УС)","update":"2019-07-28 07:31:01","iframe_src":"//83.svetacdn.in/PfJ50H0ZBPg3/movie/29449"},{"id":29445,"title":"Маленькая принцесса","kp_id":"1048949","imdb_id":"tt8191502","world_art_id":null,"type":"movie","add":"2019-07-26 22:20:35","orig_title":"Sogongnyeo","year":"2017-10-13","translations":["Любительский (многоголосый закадровый) (Синема УС)"],"quality":"webdl","translation":"Любительский (многоголосый закадровый) (Синема УС)","update":"2019-07-28 07:32:56","iframe_src":"//83.svetacdn.in/PfJ50H0ZBPg3/movie/29445"},{"id":29429,"title":"Потерянное счастье","kp_id":"1187967","imdb_id":null,"world_art_id":null,"type":"movie","add":"2019-07-26 21:31:52","orig_title":"Потерянное счастье","year":"2018-01-01","translations":["Оригинальная дорожка"],"quality":"hdtv","translation":"Оригинальная дорожка","update":"2019-07-28 07:21:25","iframe_src":"//83.svetacdn.in/PfJ50H0ZBPg3/movie/29429"},{"id":29428,"title":"Рождественский лагерь","kp_id":"1157809","imdb_id":"tt8354006","world_art_id":null,"type":"movie","add":"2019-07-26 21:30:49","orig_title":"Christmas Camp","year":"2018-12-20","translations":["Любительский (многоголосый закадровый) (Синема УС)"],"quality":"hdtv","translation":"Любительский (многоголосый закадровый) (Синема УС)","update":"2019-07-28 07:24:33","iframe_src":"//83.svetacdn.in/PfJ50H0ZBPg3/movie/29428"},{"id":29426,"title":"Рваные трусы","kp_id":"1168309","imdb_id":"tt8637950","world_art_id":null,"type":"movie","add":"2019-07-26 21:23:31","orig_title":"Calzones Rotos","year":"2018-06-21","translations":["Любительский (многоголосый закадровый) (Синема УС)"],"quality":"webdl","translation":"Любительский (многоголосый закадровый) (Синема УС)","update":"2019-07-28 07:25:21","iframe_src":"//83.svetacdn.in/PfJ50H0ZBPg3/movie/29426"},{"id":29421,"title":"Птицы наших надежд","kp_id":"43345","imdb_id":"tt0376096","world_art_id":null,"type":"movie","add":"2019-07-26 20:44:44","orig_title":"Ptitsy nashikh nadezhd","year":"1977-04-25","translations":["Оригинальная дорожка"],"quality":"sat","translation":"Оригинальная дорожка","update":"2019-07-29 04:54:15","iframe_src":"//83.svetacdn.in/PfJ50H0ZBPg3/movie/29421"},{"id":29418,"title":"На семи ветрах","kp_id":"46283","imdb_id":"tt0056269","world_art_id":null,"type":"movie","add":"2019-07-26 20:39:51","orig_title":"Na semi vetrakh","year":"1962-05-08","translations":["Оригинальная дорожка"],"quality":"dvdrip","translation":"Оригинальная дорожка","update":"2019-07-29 04:53:59","iframe_src":"//83.svetacdn.in/PfJ50H0ZBPg3/movie/29418"},{"id":29411,"title":"Про любовь, дружбу и судьбу","kp_id":"43286","imdb_id":"tt0300374","world_art_id":null,"type":"movie","add":"2019-07-26 20:16:01","orig_title":"Pro lyubov, druzhbu i sud'bu","year":"1988-01-05","translations":["Оригинальная дорожка"],"quality":"sat","translation":"Оригинальная дорожка","update":"2019-07-29 04:51:55","iframe_src":"//83.svetacdn.in/PfJ50H0ZBPg3/movie/29411"},{"id":29410,"title":"Путь к сердцу","kp_id":"493799","imdb_id":"tt4676080","world_art_id":null,"type":"movie","add":"2019-07-26 20:11:19","orig_title":"Put k serdtsu","year":"1971-01-19","translations":["Оригинальная дорожка"],"quality":"vhs","translation":"Оригинальная дорожка","update":"2019-07-29 04:50:59","iframe_src":"//83.svetacdn.in/PfJ50H0ZBPg3/movie/29410"},{"id":29409,"title":"Ринг","kp_id":"446101","imdb_id":"tt2350964","world_art_id":null,"type":"movie","add":"2019-07-26 20:06:42","orig_title":"Ring","year":"1973-12-03","translations":["Оригинальная дорожка"],"quality":"sat","translation":"Оригинальная дорожка","update":"2019-07-29 04:49:57","iframe_src":"//83.svetacdn.in/PfJ50H0ZBPg3/movie/29409"},{"id":22278,"title":"Асфальтовые джунгли","kp_id":"1033528","imdb_id":"tt6175802","world_art_id":null,"type":"movie","add":"2019-02-14 00:03:31","orig_title":"Asphaltgorillas","year":"2018-08-30","translations":["Любительский (двухголосый закадровый) (HiWayGrope)"],"quality":"bd","translation":"Любительский (двухголосый закадровый) (HiWayGrope)","update":"2019-07-28 07:25:24","iframe_src":"//83.svetacdn.in/PfJ50H0ZBPg3/movie/22278"},{"id":17284,"title":"Олюшка","kp_id":"1114846","imdb_id":null,"world_art_id":null,"type":"movie","add":"2018-06-21 00:51:04","orig_title":"Олюшка","year":"2018-06-19","translations":["Оригинальная дорожка"],"quality":"webdl","translation":"Оригинальная дорожка","update":"2019-07-28 07:26:58","iframe_src":"//83.svetacdn.in/PfJ50H0ZBPg3/movie/17284"},{"id":13387,"title":"В моей смерти прошу винить Клаву К.","kp_id":"45606","imdb_id":"tt0080073","world_art_id":null,"type":"movie","add":"2017-09-08 11:16:33","orig_title":"V moey smerti proshu vinit Klavu K.","year":"1982-07-13","translations":["Оригинальная дорожка","Оригинальная дорожка"],"quality":"sat","translation":"Оригинальная дорожка","update":"2019-07-29 04:56:07","iframe_src":"//83.svetacdn.in/PfJ50H0ZBPg3/movie/13387"}],"current_page":1305,"first_page_url":"https://videocdn.tv/api/short?limit=100&api_token=RgFQdUIR2dRmwv8iYa5SnFNgnw3vpjKj&cache31305=31305&page=1","from":130401,"last_page":638,"last_page_url":"https://videocdn.tv/api/short?limit=100&api_token=RgFQdUIR2dRmwv8iYa5SnFNgnw3vpjKj&cache31305=31305&page=638","next_page_url":null,"path":"https://videocdn.tv/api/short","per_page":100,"prev_page_url":"https://videocdn.tv/api/short?limit=100&api_token=RgFQdUIR2dRmwv8iYa5SnFNgnw3vpjKj&cache31305=31305&page=1304","to":130420,"total":63713}