{"result":true,"data":[{"id":51546,"title":"Инопланетное вторжение","kp_id":"4399101","imdb_id":"tt14134070","world_art_id":null,"type":"movie","add":"2021-07-03 08:07:26","orig_title":"Alien Conquest","year":"2021-02-26","translations":["Любительский (многоголосый закадровый) (Синема УС)"],"quality":"webdl","translation":"Любительский (многоголосый закадровый) (Синема УС)","update":"2021-07-03 15:05:34","iframe_src":"//24213.svetacdn.in/si4jsFRrtgrT/movie/51546"},{"id":51545,"title":"Впусти нас","kp_id":"1278889","imdb_id":"tt10533804","world_art_id":null,"type":"movie","add":"2021-07-03 08:06:29","orig_title":"Let Us In","year":"2021-07-02","translations":["Любительский (многоголосый закадровый) (Синема УС)"],"quality":"webdl","translation":"Любительский (многоголосый закадровый) (Синема УС)","update":"2021-07-03 15:10:47","iframe_src":"//24213.svetacdn.in/si4jsFRrtgrT/movie/51545"},{"id":51543,"title":"7 грехов","kp_id":"1396187","imdb_id":"tt12802016","world_art_id":null,"type":"movie","add":"2021-07-03 08:04:29","orig_title":"7 Sins","year":"2020-07-28","translations":["Любительский (многоголосый закадровый) (Синема УС)"],"quality":"webdl","translation":"Любительский (многоголосый закадровый) (Синема УС)","update":"2021-07-03 15:04:56","iframe_src":"//24213.svetacdn.in/si4jsFRrtgrT/movie/51543"},{"id":51542,"title":"Алисия","kp_id":"1114333","imdb_id":"tt7842662","world_art_id":null,"type":"movie","add":"2021-07-03 08:03:47","orig_title":"Alicia","year":"2019-03-14","translations":["Любительский (многоголосый закадровый) (Синема УС)"],"quality":"webdl","translation":"Любительский (многоголосый закадровый) (Синема УС)","update":"2021-07-03 15:11:33","iframe_src":"//24213.svetacdn.in/si4jsFRrtgrT/movie/51542"},{"id":51541,"title":"Душа героя","kp_id":"1265219","imdb_id":"tt10254472","world_art_id":null,"type":"movie","add":"2021-07-03 08:03:11","orig_title":"Alma de Héroe","year":"2019-05-02","translations":["Любительский (многоголосый закадровый) (Синема УС)"],"quality":"webdl","translation":"Любительский (многоголосый закадровый) (Синема УС)","update":"2021-07-03 15:06:51","iframe_src":"//24213.svetacdn.in/si4jsFRrtgrT/movie/51541"},{"id":51540,"title":"Пересекая границы","kp_id":"1377605","imdb_id":"tt11188850","world_art_id":null,"type":"movie","add":"2021-07-03 08:02:28","orig_title":"Biking Borders","year":"2021-02-19","translations":["Любительский (многоголосый закадровый) (Синема УС)"],"quality":"webdl","translation":"Любительский (многоголосый закадровый) (Синема УС)","update":"2021-07-03 15:07:41","iframe_src":"//24213.svetacdn.in/si4jsFRrtgrT/movie/51540"},{"id":51538,"title":"Даг","kp_id":"1182600","imdb_id":"tt8676514","world_art_id":null,"type":"movie","add":"2021-07-03 08:00:53","orig_title":"Doug","year":"2020-06-11","translations":["Любительский (многоголосый закадровый) (Синема УС)"],"quality":"webdl","translation":"Любительский (многоголосый закадровый) (Синема УС)","update":"2021-07-03 15:13:15","iframe_src":"//24213.svetacdn.in/si4jsFRrtgrT/movie/51538"},{"id":51537,"title":"Рики Рэппер и мнимый Винсент","kp_id":"1275053","imdb_id":"tt10449432","world_art_id":null,"type":"movie","add":"2021-07-03 08:00:06","orig_title":"Risto Räppääjä ja väärä Vincent","year":"2020-10-09","translations":["Любительский (многоголосый закадровый) (Синема УС)"],"quality":"webdl","translation":"Любительский (многоголосый закадровый) (Синема УС)","update":"2021-07-03 15:12:17","iframe_src":"//24213.svetacdn.in/si4jsFRrtgrT/movie/51537"},{"id":51536,"title":"Шесть раундов","kp_id":"989446","imdb_id":"tt5643644","world_art_id":null,"type":"movie","add":"2021-07-03 07:58:59","orig_title":"Six Rounds","year":"2017-04-09","translations":["Любительский (многоголосый закадровый) (Синема УС)"],"quality":"webdl","translation":"Любительский (многоголосый закадровый) (Синема УС)","update":"2021-07-03 15:12:45","iframe_src":"//24213.svetacdn.in/si4jsFRrtgrT/movie/51536"},{"id":51535,"title":"Дикари улиц","kp_id":null,"imdb_id":"tt13582180","world_art_id":null,"type":"movie","add":"2021-07-03 07:58:03","orig_title":"Posibilidades AKA Street Savages","year":"2020-04-08","translations":["Любительский (многоголосый закадровый) (Синема УС)"],"quality":"webdl","translation":"Любительский (многоголосый закадровый) (Синема УС)","update":"2021-07-03 15:08:19","iframe_src":"//24213.svetacdn.in/si4jsFRrtgrT/movie/51535"},{"id":51531,"title":"Четыре минуты","kp_id":"121613","imdb_id":"tt0461694","world_art_id":null,"type":"movie","add":"2021-07-02 20:31:41","orig_title":"Vier Minuten","year":"2006-06-23","translations":["Профессиональный (многоголосый закадровый) (Cinema Prestige)"],"quality":"bd","translation":"Профессиональный (многоголосый закадровый) (Cinema Prestige)","update":"2021-07-03 10:46:28","iframe_src":"//24213.svetacdn.in/si4jsFRrtgrT/movie/51531"},{"id":51526,"title":"Камушки на воде","kp_id":"1280665","imdb_id":"tt3722884","world_art_id":null,"type":"movie","add":"2021-07-02 19:35:51","orig_title":"Skipping Stones","year":"2020-10-04","translations":["Любительский (многоголосый закадровый) (Синема УС)"],"quality":"webdl","translation":"Любительский (многоголосый закадровый) (Синема УС)","update":"2021-07-03 07:57:09","iframe_src":"//24213.svetacdn.in/si4jsFRrtgrT/movie/51526"},{"id":51525,"title":"Карлики с обложки","kp_id":"1084214","imdb_id":"tt7136436","world_art_id":null,"type":"movie","add":"2021-07-02 19:33:52","orig_title":"Patuljci sa naslovnih strana","year":"2018-01-17","translations":["Любительский (многоголосый закадровый) (Синема УС)"],"quality":"webdl","translation":"Любительский (многоголосый закадровый) (Синема УС)","update":"2021-07-03 07:58:03","iframe_src":"//24213.svetacdn.in/si4jsFRrtgrT/movie/51525"},{"id":51524,"title":"Люк и Джо","kp_id":"1022901","imdb_id":null,"world_art_id":null,"type":"movie","add":"2021-07-02 19:30:31","orig_title":"Luke & Jo","year":"2018-04-12","translations":["Любительский (многоголосый закадровый) (Синема УС)"],"quality":"webdl","translation":"Любительский (многоголосый закадровый) (Синема УС)","update":"2021-07-03 07:58:51","iframe_src":"//24213.svetacdn.in/si4jsFRrtgrT/movie/51524"},{"id":51523,"title":"Девушка из Хейтс 2","kp_id":"1360965","imdb_id":"tt12008636","world_art_id":null,"type":"movie","add":"2021-07-02 19:21:15","orig_title":"Heights Girl 2","year":"2020-03-22","translations":["Любительский (многоголосый закадровый) (Синема УС)"],"quality":"webdl","translation":"Любительский (многоголосый закадровый) (Синема УС)","update":"2021-07-03 07:59:20","iframe_src":"//24213.svetacdn.in/si4jsFRrtgrT/movie/51523"},{"id":51522,"title":"Смертельная Страсть","kp_id":null,"imdb_id":"tt14532974","world_art_id":null,"type":"movie","add":"2021-07-02 19:19:34","orig_title":"Deadly Passion","year":"2021-01-01","translations":["Любительский (многоголосый закадровый) (Синема УС)"],"quality":"webdl","translation":"Любительский (многоголосый закадровый) (Синема УС)","update":"2021-07-03 08:00:25","iframe_src":"//24213.svetacdn.in/si4jsFRrtgrT/movie/51522"},{"id":51520,"title":"Рассказать, возбудить, раскрутить","kp_id":"199930","imdb_id":"tt0084634","world_art_id":null,"type":"movie","add":"2021-07-02 06:17:40","orig_title":"Sballato, gasato, completamente fuso","year":"1982-04-01","translations":["Любительский (одноголосый закадровый) (Andi999)"],"quality":"webdl","translation":"Любительский (одноголосый закадровый) (Andi999)","update":"2021-07-02 19:04:06","iframe_src":"//24213.svetacdn.in/si4jsFRrtgrT/movie/51520"},{"id":20076,"title":"Лучший день моей жизни","kp_id":"1055450","imdb_id":"tt6069162","world_art_id":null,"type":"movie","add":"2018-11-11 21:38:27","orig_title":"Here and Now","year":"2018-04-19","translations":["Профессиональный (многоголосый закадровый)","Профессиональный (многоголосый закадровый) (HDrezka Studio)"],"quality":"webdl","translation":"Профессиональный (многоголосый закадровый)","update":"2021-07-03 14:28:51","iframe_src":"//24213.svetacdn.in/si4jsFRrtgrT/movie/20076"},{"id":11604,"title":"Отважная","kp_id":"824416","imdb_id":"tt3495000","world_art_id":null,"type":"movie","add":"2017-05-18 16:45:40","orig_title":"Mardaani","year":"2014-08-21","translations":["Любительский (многоголосый закадровый) (ICG)","Любительский (многоголосый закадровый)","Любительский (многоголосый закадровый) (ICG)"],"quality":"bd","translation":"Любительский (многоголосый закадровый) (ICG)","update":"2021-07-02 20:37:46","iframe_src":"//24213.svetacdn.in/si4jsFRrtgrT/movie/11604"},{"id":9225,"title":"Бэйби","kp_id":"846290","imdb_id":"tt3848892","world_art_id":null,"type":"movie","add":"2017-01-26 12:38:31","orig_title":"Baby","year":"2015-01-23","translations":["Любительский (многоголосый закадровый)","Профессиональный (многоголосый закадровый) (SDI Media | Iyuno-SDI Group Russia)","Любительский (многоголосый закадровый) (ICG)"],"quality":"bd","translation":"Любительский (многоголосый закадровый)","update":"2021-07-02 20:45:24","iframe_src":"//24213.svetacdn.in/si4jsFRrtgrT/movie/9225"},{"id":838,"title":"Банды","kp_id":"565161","imdb_id":"tt4042116","world_art_id":null,"type":"serial","add":"2017-01-08 12:56:09","orig_title":"Bandy","year":"2010-09-23","translations":["Оригинальная дорожка"],"seasons_count":1,"episodes_count":12,"episodes":12,"update":"2017-01-08 18:44:09","iframe_src":"//24213.svetacdn.in/si4jsFRrtgrT/tv-series/838"},{"id":834,"title":"Слепой","kp_id":"400061","imdb_id":"tt4265764","world_art_id":null,"type":"serial","add":"2017-01-08 10:29:04","orig_title":"Slepoy","year":"2008-12-04","translations":["Оригинальная дорожка"],"seasons_count":1,"episodes_count":8,"episodes":8,"update":"2017-01-08 16:54:52","iframe_src":"//24213.svetacdn.in/si4jsFRrtgrT/tv-series/834"},{"id":832,"title":"Перевозчик","kp_id":"587984","imdb_id":"tt1885102","world_art_id":null,"type":"serial","add":"2017-01-08 10:13:06","orig_title":"Transporter: The Series","year":"2012-11-29","translations":["Профессиональный (многоголосый закадровый) (LostFilm)"],"seasons_count":2,"episodes_count":24,"episodes":12,"update":"2017-01-08 17:15:25","iframe_src":"//24213.svetacdn.in/si4jsFRrtgrT/tv-series/832"},{"id":828,"title":"Верни мою любовь","kp_id":"846894","imdb_id":"tt4307052","world_art_id":null,"type":"serial","add":"2017-01-07 14:00:48","orig_title":"Verni moyu lyubov","year":"2014-12-08","translations":["Оригинальная дорожка"],"seasons_count":1,"episodes_count":24,"episodes":24,"update":"2017-01-08 12:27:19","iframe_src":"//24213.svetacdn.in/si4jsFRrtgrT/tv-series/828"},{"id":827,"title":"Грешник","kp_id":"807496","imdb_id":"tt3660088","world_art_id":null,"type":"serial","add":"2017-01-07 13:15:23","orig_title":"Greshnik","year":"2015-05-29","translations":["Оригинальная дорожка"],"seasons_count":1,"episodes_count":2,"episodes":2,"update":"2017-01-07 17:21:06","iframe_src":"//24213.svetacdn.in/si4jsFRrtgrT/tv-series/827"},{"id":823,"title":"Доброе имя","kp_id":"840043","imdb_id":"tt3772494","world_art_id":null,"type":"serial","add":"2017-01-07 08:02:24","orig_title":"Dobroe imya","year":"2014-05-19","translations":["Оригинальная дорожка"],"seasons_count":1,"episodes_count":12,"episodes":12,"update":"2017-01-09 06:55:50","iframe_src":"//24213.svetacdn.in/si4jsFRrtgrT/tv-series/823"},{"id":815,"title":"Домработница","kp_id":"913424","imdb_id":null,"world_art_id":null,"type":"serial","add":"2017-01-06 10:16:03","orig_title":"Домработница","year":"2015-06-13","translations":["Оригинальная дорожка"],"seasons_count":1,"episodes_count":2,"episodes":2,"update":"2017-01-06 12:41:48","iframe_src":"//24213.svetacdn.in/si4jsFRrtgrT/tv-series/815"},{"id":813,"title":"Шоу ужасов Рокки Хоррора","kp_id":"463048","imdb_id":"tt1267299","world_art_id":null,"type":"serial","add":"2017-01-05 04:55:09","orig_title":"The Rocky Horror Picture Show: Let's Do the Time Warp Again","year":"2016-10-18","translations":["Профессиональный (многоголосый закадровый) (BaibaKo)"],"seasons_count":1,"episodes_count":1,"episodes":1,"update":"2017-01-05 09:14:02","iframe_src":"//24213.svetacdn.in/si4jsFRrtgrT/tv-series/813"},{"id":812,"title":"Бомж","kp_id":"481550","imdb_id":null,"world_art_id":null,"type":"serial","add":"2017-01-04 11:57:32","orig_title":"Бомж","year":"2010-06-06","translations":["Оригинальная дорожка"],"seasons_count":1,"episodes_count":12,"episodes":12,"update":"2017-01-06 08:07:19","iframe_src":"//24213.svetacdn.in/si4jsFRrtgrT/tv-series/812"},{"id":811,"title":"Ниро Вульф и Арчи Гудвин","kp_id":"80261","imdb_id":null,"world_art_id":null,"type":"serial","add":"2017-01-04 11:54:57","orig_title":"Ниро Вульф и Арчи Гудвин","year":"2002-01-03","translations":["Оригинальная дорожка"],"seasons_count":1,"episodes_count":10,"episodes":10,"update":"2017-01-06 06:33:27","iframe_src":"//24213.svetacdn.in/si4jsFRrtgrT/tv-series/811"},{"id":810,"title":"Сатисфакция","kp_id":"256060","imdb_id":"tt0768685","world_art_id":null,"type":"serial","add":"2017-01-04 11:39:34","orig_title":"Satisfaktsiya","year":"2006-01-02","translations":["Оригинальная дорожка"],"seasons_count":1,"episodes_count":8,"episodes":8,"update":"2017-01-05 13:26:19","iframe_src":"//24213.svetacdn.in/si4jsFRrtgrT/tv-series/810"},{"id":809,"title":"Морпехи","kp_id":"572190","imdb_id":"tt1754226","world_art_id":null,"type":"serial","add":"2017-01-04 11:36:20","orig_title":"Morpekhi","year":"2011-10-03","translations":["Оригинальная дорожка"],"seasons_count":1,"episodes_count":8,"episodes":8,"update":"2017-01-05 05:52:54","iframe_src":"//24213.svetacdn.in/si4jsFRrtgrT/tv-series/809"},{"id":806,"title":"Цветок папоротника","kp_id":"861663","imdb_id":"tt4792382","world_art_id":null,"type":"serial","add":"2017-01-04 11:24:19","orig_title":"Tsvetok paporotnika","year":"2015-04-13","translations":["Оригинальная дорожка"],"seasons_count":1,"episodes_count":16,"episodes":16,"update":"2017-01-05 06:33:50","iframe_src":"//24213.svetacdn.in/si4jsFRrtgrT/tv-series/806"},{"id":802,"title":"Острог. Дело Федора Сеченова","kp_id":"405659","imdb_id":null,"world_art_id":null,"type":"serial","add":"2017-01-02 11:07:28","orig_title":"Острог. Дело Федора Сеченова","year":"2006-08-01","translations":["Оригинальная дорожка"],"seasons_count":1,"episodes_count":40,"episodes":40,"update":"2017-01-07 09:01:07","iframe_src":"//24213.svetacdn.in/si4jsFRrtgrT/tv-series/802"},{"id":800,"title":"Пенсильвания","kp_id":"922155","imdb_id":"tt4976378","world_art_id":null,"type":"serial","add":"2017-01-02 11:01:56","orig_title":"Pensilvaniya","year":"2015-01-01","translations":["Оригинальная дорожка"],"seasons_count":1,"episodes_count":16,"episodes":16,"update":"2017-01-05 08:39:56","iframe_src":"//24213.svetacdn.in/si4jsFRrtgrT/tv-series/800"},{"id":798,"title":"Забудь и вспомни","kp_id":"978859","imdb_id":null,"world_art_id":null,"type":"serial","add":"2017-01-02 10:46:24","orig_title":"Забудь и вспомни","year":"2016-05-16","translations":["Оригинальная дорожка"],"seasons_count":1,"episodes_count":12,"episodes":12,"update":"2017-01-05 07:03:54","iframe_src":"//24213.svetacdn.in/si4jsFRrtgrT/tv-series/798"},{"id":790,"title":"Дедвуд","kp_id":"255671","imdb_id":"tt0348914","world_art_id":null,"type":"serial","add":"2017-01-02 09:01:09","orig_title":"Deadwood","year":"2004-03-21","translations":["Профессиональный (многоголосый закадровый) (РенТВ)"],"seasons_count":3,"episodes_count":36,"episodes":12,"update":"2017-01-05 06:51:50","iframe_src":"//24213.svetacdn.in/si4jsFRrtgrT/tv-series/790"},{"id":756,"title":"Удаленные","kp_id":"1008004","imdb_id":"tt5684430","world_art_id":null,"type":"serial","add":"2016-12-28 16:22:29","orig_title":"The Deleted","year":"2016-12-04","translations":["Любительский (двухголосый закадровый) (Hamster Studio)"],"seasons_count":1,"episodes_count":8,"episodes":8,"update":"2017-01-09 08:19:59","iframe_src":"//24213.svetacdn.in/si4jsFRrtgrT/tv-series/756"},{"id":708,"title":"Улица потрошителя","kp_id":"677725","imdb_id":"tt2183641","world_art_id":null,"type":"serial","add":"2016-12-19 08:54:27","orig_title":"Ripper Street","year":"2012-12-30","translations":["Профессиональный (многоголосый закадровый) (NewStudio)"],"seasons_count":5,"episodes_count":36,"episodes":6,"update":"2017-01-09 07:06:41","iframe_src":"//24213.svetacdn.in/si4jsFRrtgrT/tv-series/708"},{"id":573,"title":"Образцовые бунтарки","kp_id":"923787","imdb_id":"tt4687892","world_art_id":null,"type":"serial","add":"2016-11-13 06:31:42","orig_title":"Good Girls Revolt","year":"2015-11-04","translations":["Профессиональный (многоголосый закадровый) (NewStudio)"],"seasons_count":1,"episodes_count":10,"episodes":10,"update":"2017-01-06 06:28:19","iframe_src":"//24213.svetacdn.in/si4jsFRrtgrT/tv-series/573"}],"current_page":605,"first_page_url":"https://videocdn.tv/api/short?limit=100&api_token=X6EwAUfE5M9xbo7y0Bp0aPf3uXxG2KLL&cache3605=3605&page=1","from":60401,"last_page":725,"last_page_url":"https://videocdn.tv/api/short?limit=100&api_token=X6EwAUfE5M9xbo7y0Bp0aPf3uXxG2KLL&cache3605=3605&page=725","next_page_url":"https://videocdn.tv/api/short?limit=100&api_token=X6EwAUfE5M9xbo7y0Bp0aPf3uXxG2KLL&cache3605=3605&page=606","path":"https://videocdn.tv/api/short","per_page":100,"prev_page_url":"https://videocdn.tv/api/short?limit=100&api_token=X6EwAUfE5M9xbo7y0Bp0aPf3uXxG2KLL&cache3605=3605&page=604","to":60440,"total":72409}