{"result":true,"data":[{"id":12480,"title":"Жизнь","kp_id":"936758","imdb_id":"tt5078134","world_art_id":null,"type":"movie","add":"2017-07-13 16:59:53","orig_title":"Une vie","year":"2016-09-06","translations":["Профессиональный (многоголосый закадровый)"],"quality":"webdl","translation":"Профессиональный (многоголосый закадровый)","update":"2017-07-14 08:37:20","iframe_src":"//24213.svetacdn.in/71tsRs29n5tZ/movie/12480"},{"id":12478,"title":"Аутсайдер","kp_id":"939112","imdb_id":"tt5114984","world_art_id":null,"type":"movie","add":"2017-07-13 09:25:21","orig_title":"L'outsider","year":"2016-06-21","translations":["Профессиональный (многоголосый закадровый) (GreenРай Studio)"],"quality":"bd","translation":"Профессиональный (многоголосый закадровый) (GreenРай Studio)","update":"2017-07-13 12:26:19","iframe_src":"//24213.svetacdn.in/71tsRs29n5tZ/movie/12478"},{"id":12476,"title":"Момент ясности","kp_id":"810923","imdb_id":"tt3359754","world_art_id":null,"type":"movie","add":"2017-07-13 04:58:23","orig_title":"Moments of Clarity","year":"2016-09-16","translations":["Любительский (многоголосый закадровый) (Синема УС)"],"quality":"webdl","translation":"Любительский (многоголосый закадровый) (Синема УС)","update":"2017-07-13 12:20:43","iframe_src":"//24213.svetacdn.in/71tsRs29n5tZ/movie/12476"},{"id":12475,"title":"Наркоугроза","kp_id":"1039580","imdb_id":null,"world_art_id":null,"type":"movie","add":"2017-07-13 04:57:22","orig_title":"Du. Jie","year":"2017-05-12","translations":["Любительский (многоголосый закадровый) (Синема УС)"],"quality":"bd","translation":"Любительский (многоголосый закадровый) (Синема УС)","update":"2017-07-13 12:21:17","iframe_src":"//24213.svetacdn.in/71tsRs29n5tZ/movie/12475"},{"id":12402,"title":"Теперь мой ход","kp_id":"18179","imdb_id":"tt0080936","world_art_id":null,"type":"movie","add":"2017-07-09 06:48:06","orig_title":"It's My Turn","year":"1980-10-24","translations":["Профессиональный (многоголосый закадровый)"],"quality":"webdl","translation":"Профессиональный (многоголосый закадровый)","update":"2017-07-14 08:35:40","iframe_src":"//24213.svetacdn.in/71tsRs29n5tZ/movie/12402"},{"id":12400,"title":"Рядовой Бенджамин","kp_id":"4407","imdb_id":"tt0081375","world_art_id":null,"type":"movie","add":"2017-07-09 06:45:55","orig_title":"Private Benjamin","year":"1980-10-07","translations":["Профессиональный (многоголосый закадровый)"],"quality":"hdtv","translation":"Профессиональный (многоголосый закадровый)","update":"2017-07-14 08:32:18","iframe_src":"//24213.svetacdn.in/71tsRs29n5tZ/movie/12400"},{"id":12398,"title":"Подержанные автомобили","kp_id":"7118","imdb_id":"tt0081698","world_art_id":null,"type":"movie","add":"2017-07-09 06:43:47","orig_title":"Used Cars","year":"1980-07-11","translations":["Профессиональный (многоголосый закадровый)"],"quality":"bd","translation":"Профессиональный (многоголосый закадровый)","update":"2017-07-14 08:29:42","iframe_src":"//24213.svetacdn.in/71tsRs29n5tZ/movie/12398"},{"id":12397,"title":"Зеркало треснуло","kp_id":"11147","imdb_id":"tt0081163","world_art_id":null,"type":"movie","add":"2017-07-09 06:42:57","orig_title":"The Mirror Crack'd","year":"1980-12-19","translations":["Профессиональный (многоголосый закадровый)"],"quality":"bd","translation":"Профессиональный (многоголосый закадровый)","update":"2017-07-14 08:28:00","iframe_src":"//24213.svetacdn.in/71tsRs29n5tZ/movie/12397"},{"id":12396,"title":"Долгая Страстная пятница","kp_id":"17098","imdb_id":"tt0081070","world_art_id":null,"type":"movie","add":"2017-07-09 06:41:54","orig_title":"The Long Good Friday","year":"1980-11-13","translations":["Профессиональный (многоголосый закадровый)"],"quality":"bd","translation":"Профессиональный (многоголосый закадровый)","update":"2017-07-14 08:26:28","iframe_src":"//24213.svetacdn.in/71tsRs29n5tZ/movie/12396"},{"id":12395,"title":"Последний отсчет","kp_id":"1775","imdb_id":"tt0080736","world_art_id":null,"type":"movie","add":"2017-07-09 06:40:08","orig_title":"The Final Countdown","year":"1980-05-21","translations":["Профессиональный (многоголосый закадровый) (5-й канал СПб)"],"quality":"bd","translation":"Профессиональный (многоголосый закадровый) (5-й канал СПб)","update":"2017-07-14 08:25:04","iframe_src":"//24213.svetacdn.in/71tsRs29n5tZ/movie/12395"},{"id":12394,"title":"Псы войны","kp_id":"6918","imdb_id":"tt0080641","world_art_id":null,"type":"movie","add":"2017-07-09 06:39:07","orig_title":"The Dogs of War","year":"1980-12-17","translations":["Профессиональный (многоголосый закадровый)"],"quality":"bd","translation":"Профессиональный (многоголосый закадровый)","update":"2017-07-14 08:23:48","iframe_src":"//24213.svetacdn.in/71tsRs29n5tZ/movie/12394"},{"id":12392,"title":"Невинный","kp_id":"23197","imdb_id":"tt0074686","world_art_id":null,"type":"movie","add":"2017-07-09 06:36:42","orig_title":"L'innocente","year":"1976-05-15","translations":["Профессиональный (многоголосый закадровый)"],"quality":"bd","translation":"Профессиональный (многоголосый закадровый)","update":"2017-07-14 05:42:13","iframe_src":"//24213.svetacdn.in/71tsRs29n5tZ/movie/12392"},{"id":12391,"title":"Внутренняя империя","kp_id":"104987","imdb_id":"tt0460829","world_art_id":null,"type":"movie","add":"2017-07-09 06:35:33","orig_title":"Inland Empire","year":"2006-09-06","translations":["Профессиональный (многоголосый закадровый) (CP Digital)"],"quality":"bd","translation":"Профессиональный (многоголосый закадровый) (CP Digital)","update":"2017-07-14 05:40:42","iframe_src":"//24213.svetacdn.in/71tsRs29n5tZ/movie/12391"},{"id":12390,"title":"Преисподняя","kp_id":"37235","imdb_id":"tt0080923","world_art_id":null,"type":"movie","add":"2017-07-09 06:34:26","orig_title":"Inferno","year":"1980-02-07","translations":["Профессиональный (многоголосый закадровый)"],"quality":"bd","translation":"Профессиональный (многоголосый закадровый)","update":"2017-07-14 05:39:09","iframe_src":"//24213.svetacdn.in/71tsRs29n5tZ/movie/12390"},{"id":12389,"title":"Жить","kp_id":"64131","imdb_id":"tt0044741","world_art_id":null,"type":"movie","add":"2017-07-09 06:33:36","orig_title":"Ikiru","year":"1952-10-09","translations":["Профессиональный (многоголосый закадровый)"],"quality":"bd","translation":"Профессиональный (многоголосый закадровый)","update":"2017-07-14 05:37:28","iframe_src":"//24213.svetacdn.in/71tsRs29n5tZ/movie/12389"},{"id":12386,"title":"Американский друг","kp_id":"11540","imdb_id":"tt0075675","world_art_id":null,"type":"movie","add":"2017-07-09 06:30:04","orig_title":"Der amerikanische Freund","year":"1977-05-26","translations":["Профессиональный (многоголосый закадровый)"],"quality":"bd","translation":"Профессиональный (многоголосый закадровый)","update":"2017-07-14 05:32:14","iframe_src":"//24213.svetacdn.in/71tsRs29n5tZ/movie/12386"},{"id":12382,"title":"Техперсонал","kp_id":"4096","imdb_id":"tt0081433","world_art_id":null,"type":"movie","add":"2017-07-09 06:25:49","orig_title":"Roadie","year":"1980-06-13","translations":["Профессиональный (двухголосый закадровый) (НТВ)"],"quality":"hdtv","translation":"Профессиональный (двухголосый закадровый) (НТВ)","update":"2017-07-13 10:16:55","iframe_src":"//24213.svetacdn.in/71tsRs29n5tZ/movie/12382"},{"id":12381,"title":"Ничего личного","kp_id":"5143","imdb_id":"tt0081246","world_art_id":null,"type":"movie","add":"2017-07-09 06:24:39","orig_title":"Nothing Personal","year":"1980-03-28","translations":["Профессиональный (двухголосый закадровый) (НТВ)"],"quality":"hdtv","translation":"Профессиональный (двухголосый закадровый) (НТВ)","update":"2017-07-13 10:15:25","iframe_src":"//24213.svetacdn.in/71tsRs29n5tZ/movie/12381"},{"id":11906,"title":"11:55","kp_id":"864057","imdb_id":"tt4250438","world_art_id":null,"type":"movie","add":"2017-06-12 22:50:45","orig_title":"11:55","year":"2016-06-05","translations":["Любительский (многоголосый закадровый) (Синема УС)","Профессиональный (многоголосый закадровый) (GreenРай Studio)"],"quality":"webdl","translation":"Любительский (многоголосый закадровый) (Синема УС)","update":"2017-07-13 12:26:45","iframe_src":"//24213.svetacdn.in/71tsRs29n5tZ/movie/11906"},{"id":5713,"title":"Школьница с бензопилой","kp_id":"972945","imdb_id":"tt5145840","world_art_id":null,"type":"movie","add":"2016-09-29 12:48:08","orig_title":"Chimamire sukeban chênsô","year":"2016-02-20","translations":["Любительский (двухголосый закадровый)","Любительский (многоголосый закадровый) (Синема УС)"],"quality":"bd","translation":"Любительский (двухголосый закадровый)","update":"2017-07-14 08:38:52","iframe_src":"//24213.svetacdn.in/71tsRs29n5tZ/movie/5713"}],"current_page":2542,"first_page_url":"https://videocdn.tv/api/short?limit=100&api_token=EnbO9h8pv1VyjbCJhg0WM9nG259n7mtz&cache32542=32542&page=1","from":254101,"last_page":730,"last_page_url":"https://videocdn.tv/api/short?limit=100&api_token=EnbO9h8pv1VyjbCJhg0WM9nG259n7mtz&cache32542=32542&page=730","next_page_url":null,"path":"https://videocdn.tv/api/short","per_page":100,"prev_page_url":"https://videocdn.tv/api/short?limit=100&api_token=EnbO9h8pv1VyjbCJhg0WM9nG259n7mtz&cache32542=32542&page=2541","to":254120,"total":72950}