{"result":true,"data":[{"id":14408,"title":"Рубеж","kp_id":"1082467","imdb_id":"tt7267706","world_art_id":null,"type":"movie","add":"2017-11-20 22:40:32","orig_title":"Seam","year":"2017-10-15","translations":["Любительский (многоголосый закадровый)"],"quality":"webdl","translation":"Любительский (многоголосый закадровый)","update":"2017-11-21 06:37:43","iframe_src":"//24213.svetacdn.in/IAF0wWTdNYZm/movie/14408"},{"id":14406,"title":"Маргарита и Жюльен","kp_id":"886690","imdb_id":"tt4428800","world_art_id":null,"type":"movie","add":"2017-11-20 22:31:33","orig_title":"Marguerite et Julien","year":"2015-05-19","translations":["Любительский (многоголосый закадровый) (Синема УС)"],"quality":"dvdrip","translation":"Любительский (многоголосый закадровый) (Синема УС)","update":"2017-11-21 06:51:08","iframe_src":"//24213.svetacdn.in/IAF0wWTdNYZm/movie/14406"},{"id":14400,"title":"Пропавшая жена Роберта Дерста","kp_id":"1049728","imdb_id":"tt6920766","world_art_id":null,"type":"movie","add":"2017-11-19 21:44:40","orig_title":"The Lost Wife of Robert Durst","year":"2017-11-04","translations":["Профессиональный (многоголосый закадровый)"],"quality":"hdtv","translation":"Профессиональный (многоголосый закадровый)","update":"2017-11-20 05:54:58","iframe_src":"//24213.svetacdn.in/IAF0wWTdNYZm/movie/14400"},{"id":14399,"title":"Последний спуск","kp_id":"994179","imdb_id":"tt5895892","world_art_id":null,"type":"movie","add":"2017-11-19 21:43:10","orig_title":"The Last Descent","year":"2016-09-16","translations":["Любительский (многоголосый закадровый) (Синема УС)"],"quality":"dvdrip","translation":"Любительский (многоголосый закадровый) (Синема УС)","update":"2017-11-20 05:56:28","iframe_src":"//24213.svetacdn.in/IAF0wWTdNYZm/movie/14399"},{"id":14396,"title":"Незнакомцы в доме","kp_id":"848260","imdb_id":"tt3884282","world_art_id":null,"type":"movie","add":"2017-11-19 21:36:44","orig_title":"Strangers Within","year":"2016-10-25","translations":["Любительский (многоголосый закадровый) (Синема УС)"],"quality":"dvdrip","translation":"Любительский (многоголосый закадровый) (Синема УС)","update":"2017-11-20 06:17:07","iframe_src":"//24213.svetacdn.in/IAF0wWTdNYZm/movie/14396"},{"id":14395,"title":"Приготовится к удару","kp_id":"976841","imdb_id":"tt5568250","world_art_id":null,"type":"movie","add":"2017-11-19 21:33:22","orig_title":"Brace for Impact","year":"2016-04-03","translations":["Профессиональный (многоголосый закадровый)"],"quality":"hdtv","translation":"Профессиональный (многоголосый закадровый)","update":"2017-11-20 06:21:02","iframe_src":"//24213.svetacdn.in/IAF0wWTdNYZm/movie/14395"},{"id":14394,"title":"Моя дочь пропала","kp_id":"1025938","imdb_id":"tt6253360","world_art_id":null,"type":"movie","add":"2017-11-19 21:25:13","orig_title":"My Daughter Is Missing","year":"2017-06-01","translations":["Любительский (многоголосый закадровый) (Синема УС)"],"quality":"hdtv","translation":"Любительский (многоголосый закадровый) (Синема УС)","update":"2017-11-20 06:28:45","iframe_src":"//24213.svetacdn.in/IAF0wWTdNYZm/movie/14394"},{"id":14391,"title":"Виды под угрозой исчезновения","kp_id":"1007624","imdb_id":"tt6218440","world_art_id":null,"type":"movie","add":"2017-11-19 21:20:06","orig_title":"Maya Dardel","year":"2017-03-12","translations":["Любительский (многоголосый закадровый) (Синема УС)"],"quality":"webdl","translation":"Любительский (многоголосый закадровый) (Синема УС)","update":"2017-11-20 10:53:38","iframe_src":"//24213.svetacdn.in/IAF0wWTdNYZm/movie/14391"},{"id":14388,"title":"Семейные игры","kp_id":"730538","imdb_id":"tt2615952","world_art_id":null,"type":"movie","add":"2017-11-19 21:12:14","orig_title":"Juegos de familia","year":"2016-04-19","translations":["Любительский (многоголосый закадровый) (Синема УС)"],"quality":"webdl","translation":"Любительский (многоголосый закадровый) (Синема УС)","update":"2017-11-20 06:36:46","iframe_src":"//24213.svetacdn.in/IAF0wWTdNYZm/movie/14388"},{"id":14387,"title":"50 оттенков Элис","kp_id":"863326","imdb_id":"tt4208432","world_art_id":null,"type":"movie","add":"2017-11-19 21:10:21","orig_title":"Darker Shades of Elise","year":"2017-07-10","translations":["Любительский (многоголосый закадровый) (Синема УС)"],"quality":"webdl","translation":"Любительский (многоголосый закадровый) (Синема УС)","update":"2017-11-20 07:12:47","iframe_src":"//24213.svetacdn.in/IAF0wWTdNYZm/movie/14387"},{"id":14386,"title":"Папочка","kp_id":"1045998","imdb_id":"tt6926486","world_art_id":null,"type":"movie","add":"2017-11-19 21:08:24","orig_title":"Daddy","year":"2017-09-07","translations":["Любительский (многоголосый закадровый) (Синема УС)"],"quality":"webdl","translation":"Любительский (многоголосый закадровый) (Синема УС)","update":"2017-11-20 07:15:21","iframe_src":"//24213.svetacdn.in/IAF0wWTdNYZm/movie/14386"},{"id":14385,"title":"Маленькие милые твари","kp_id":"764309","imdb_id":"tt2917484","world_art_id":null,"type":"movie","add":"2017-11-19 21:05:27","orig_title":"Cute Little Buggers","year":"2017-02-10","translations":["Любительский (многоголосый закадровый) (Синема УС)"],"quality":"webdl","translation":"Любительский (многоголосый закадровый) (Синема УС)","update":"2017-11-20 07:19:15","iframe_src":"//24213.svetacdn.in/IAF0wWTdNYZm/movie/14385"},{"id":14383,"title":"Ведьмин бал","kp_id":"988774","imdb_id":"tt5814408","world_art_id":null,"type":"movie","add":"2017-11-19 20:55:37","orig_title":"The Witches' Ball","year":"2017-05-06","translations":["Профессиональный (многоголосый закадровый)"],"quality":"hdtv","translation":"Профессиональный (многоголосый закадровый)","update":"2017-11-20 07:44:28","iframe_src":"//24213.svetacdn.in/IAF0wWTdNYZm/movie/14383"},{"id":14375,"title":"Распространение тьмы","kp_id":"575338","imdb_id":"tt1791611","world_art_id":null,"type":"movie","add":"2017-11-16 21:50:05","orig_title":"Spreading Darkness","year":"2017-12-29","translations":["Любительский (многоголосый закадровый) (Синема УС)"],"quality":"webdl","translation":"Любительский (многоголосый закадровый) (Синема УС)","update":"2017-11-17 04:46:48","iframe_src":"//24213.svetacdn.in/IAF0wWTdNYZm/movie/14375"},{"id":14372,"title":"Помада под моей паранджой","kp_id":"922837","imdb_id":"tt4807830","world_art_id":null,"type":"movie","add":"2017-11-16 21:41:28","orig_title":"Lipstick Wale Sapne","year":"2016-10-26","translations":["Любительский (многоголосый закадровый) (Синема УС)"],"quality":"bd","translation":"Любительский (многоголосый закадровый) (Синема УС)","update":"2017-11-17 05:01:52","iframe_src":"//24213.svetacdn.in/IAF0wWTdNYZm/movie/14372"},{"id":14370,"title":"Восставшие из ада","kp_id":"1062732","imdb_id":"tt7071348","world_art_id":null,"type":"movie","add":"2017-11-16 21:38:20","orig_title":"Hellriser","year":"2017-10-09","translations":["Любительский (многоголосый закадровый) (Синема УС)"],"quality":"dvdrip","translation":"Любительский (многоголосый закадровый) (Синема УС)","update":"2017-11-17 05:04:37","iframe_src":"//24213.svetacdn.in/IAF0wWTdNYZm/movie/14370"},{"id":13861,"title":"Музей изящных искусств","kp_id":"979198","imdb_id":"tt5091530","world_art_id":null,"type":"movie","add":"2017-10-15 22:45:34","orig_title":"M.F.A.","year":"2017-03-13","translations":["Любительский (многоголосый закадровый) (@MUZOBOZ@)"],"quality":"bd","translation":"Любительский (многоголосый закадровый) (@MUZOBOZ@)","update":"2017-11-21 06:53:56","iframe_src":"//24213.svetacdn.in/IAF0wWTdNYZm/movie/13861"},{"id":11990,"title":"Одни","kp_id":"1008531","imdb_id":"tt3838034","world_art_id":null,"type":"movie","add":"2017-06-18 00:00:33","orig_title":"Seuls","year":"2017-01-23","translations":["Любительский (многоголосый закадровый) (Синема УС)","Авторский (одноголосый закадровый) (Карповский Антон)"],"quality":"bd","translation":"Любительский (многоголосый закадровый) (Синема УС)","update":"2017-11-20 06:19:39","iframe_src":"//24213.svetacdn.in/IAF0wWTdNYZm/movie/11990"},{"id":11766,"title":"Воспоминание","kp_id":"708687","imdb_id":"tt2387692","world_art_id":null,"type":"movie","add":"2017-06-01 22:38:48","orig_title":"Souvenir","year":"2016-08-24","translations":["Любительский (многоголосый закадровый) (Синема УС)"],"quality":"bd","translation":"Любительский (многоголосый закадровый) (Синема УС)","update":"2017-11-21 06:47:39","iframe_src":"//24213.svetacdn.in/IAF0wWTdNYZm/movie/11766"},{"id":7574,"title":"Бета-тест","kp_id":"851925","imdb_id":"tt4244162","world_art_id":null,"type":"movie","add":"2016-11-22 16:32:55","orig_title":"Beta Test","year":"2016-07-22","translations":["Любительский (многоголосый закадровый) (Студия Пиратского Дубляжа)","Профессиональный (многоголосый закадровый)","Любительский (двухголосый закадровый) (RecentFilms)"],"quality":"webdl","translation":"Любительский (многоголосый закадровый) (Студия Пиратского Дубляжа)","update":"2017-11-17 10:22:20","iframe_src":"//24213.svetacdn.in/IAF0wWTdNYZm/movie/7574"}],"current_page":2437,"first_page_url":"https://videocdn.tv/api/short?limit=100&api_token=6Onb1W1alEUrBcKJZD3GoKBbWyAl2uG2&cache32437=32437&page=1","from":243601,"last_page":725,"last_page_url":"https://videocdn.tv/api/short?limit=100&api_token=6Onb1W1alEUrBcKJZD3GoKBbWyAl2uG2&cache32437=32437&page=725","next_page_url":null,"path":"https://videocdn.tv/api/short","per_page":100,"prev_page_url":"https://videocdn.tv/api/short?limit=100&api_token=6Onb1W1alEUrBcKJZD3GoKBbWyAl2uG2&cache32437=32437&page=2436","to":243620,"total":72431}