{"result":true,"data":[{"id":43783,"title":"Воспитание Риты","kp_id":"6801","imdb_id":"tt0085478","world_art_id":null,"type":"movie","add":"2020-09-23 07:06:02","orig_title":"Educating Rita","year":"1983-06-16","translations":["Авторский (одноголосый закадровый) (Иванов Михаил)"],"quality":"bd","translation":"Авторский (одноголосый закадровый) (Иванов Михаил)","update":"2020-09-23 08:14:21","iframe_src":"//8965.svetacdn.in/71tsRs29n5tZ/movie/43783"},{"id":43780,"title":"Про мамонтенка","kp_id":"453189","imdb_id":"tt6295354","world_art_id":null,"type":"movie","add":"2020-09-22 20:59:37","orig_title":"Pro Mamontyonka","year":"1983-01-01","translations":["Оригинальная дорожка"],"quality":"dvdrip","translation":"Оригинальная дорожка","update":"2020-09-23 07:24:32","iframe_src":"//8965.svetacdn.in/71tsRs29n5tZ/movie/43780"},{"id":43779,"title":"Про щенка","kp_id":"260143","imdb_id":"tt6100150","world_art_id":null,"type":"movie","add":"2020-09-22 20:55:30","orig_title":"Pro Shchenka","year":"1979-01-01","translations":["Оригинальная дорожка"],"quality":"dvdrip","translation":"Оригинальная дорожка","update":"2020-09-23 07:23:45","iframe_src":"//8965.svetacdn.in/71tsRs29n5tZ/movie/43779"},{"id":43778,"title":"Про зайку Ой и зайку Ай","kp_id":"565235","imdb_id":null,"world_art_id":null,"type":"movie","add":"2020-09-22 20:52:43","orig_title":"Про зайку Ой и зайку Ай","year":"1985-04-25","translations":["Оригинальная дорожка"],"quality":"dvdrip","translation":"Оригинальная дорожка","update":"2020-09-23 07:22:38","iframe_src":"//8965.svetacdn.in/71tsRs29n5tZ/movie/43778"},{"id":43777,"title":"Про Ксюшу и Компьюшу","kp_id":"660879","imdb_id":"tt4865066","world_art_id":null,"type":"movie","add":"2020-09-22 20:49:01","orig_title":"Pro Ksyushu I Kompyushu","year":"1989-01-01","translations":["Оригинальная дорожка"],"quality":"dvdrip","translation":"Оригинальная дорожка","update":"2020-09-23 07:21:12","iframe_src":"//8965.svetacdn.in/71tsRs29n5tZ/movie/43777"},{"id":43771,"title":"(Не)идеальная женщина","kp_id":"1136307","imdb_id":"tt8069260","world_art_id":null,"type":"movie","add":"2020-09-22 19:42:24","orig_title":"I gefsi tis agapis","year":"2018-02-14","translations":["Полное дублирование"],"quality":"webdl","translation":"Полное дублирование","update":"2020-09-23 07:54:28","iframe_src":"//8965.svetacdn.in/71tsRs29n5tZ/movie/43771"},{"id":43766,"title":"Убийство по заказу","kp_id":"102833","imdb_id":"tt0107117","world_art_id":null,"type":"movie","add":"2020-09-22 16:23:11","orig_title":"The Hit List","year":"1993-01-17","translations":["Профессиональный (многоголосый закадровый) (Хлопушка)"],"quality":"dvdrip","translation":"Профессиональный (многоголосый закадровый) (Хлопушка)","update":"2020-09-23 07:47:36","iframe_src":"//8965.svetacdn.in/71tsRs29n5tZ/movie/43766"},{"id":43729,"title":"Алёшины сказки","kp_id":"777771","imdb_id":"tt7665696","world_art_id":null,"type":"movie","add":"2020-09-21 18:36:53","orig_title":"Alyoshiny skazki","year":"1964-01-01","translations":["Оригинальная дорожка"],"quality":"dvdrip","translation":"Оригинальная дорожка","update":"2020-09-23 07:16:42","iframe_src":"//8965.svetacdn.in/71tsRs29n5tZ/movie/43729"},{"id":43728,"title":"Музыка революции","kp_id":"1007928","imdb_id":"tt10799432","world_art_id":null,"type":"movie","add":"2020-09-21 18:33:28","orig_title":"Muzyka revolyutsii","year":"1987-01-01","translations":["Оригинальная дорожка"],"quality":"dvdrip","translation":"Оригинальная дорожка","update":"2020-09-23 07:16:00","iframe_src":"//8965.svetacdn.in/71tsRs29n5tZ/movie/43728"},{"id":43726,"title":"Пес и кот","kp_id":"1045674","imdb_id":null,"world_art_id":null,"type":"movie","add":"2020-09-21 18:01:03","orig_title":"Пес и кот","year":"1975-01-01","translations":["Оригинальная дорожка"],"quality":"dvdrip","translation":"Оригинальная дорожка","update":"2020-09-23 07:11:03","iframe_src":"//8965.svetacdn.in/71tsRs29n5tZ/movie/43726"},{"id":43725,"title":"С кого брать пример?","kp_id":"668379","imdb_id":"tt6838518","world_art_id":null,"type":"movie","add":"2020-09-21 17:54:57","orig_title":"S kogo brat primer?","year":"1979-01-01","translations":["Оригинальная дорожка"],"quality":"dvdrip","translation":"Оригинальная дорожка","update":"2020-09-23 07:09:15","iframe_src":"//8965.svetacdn.in/71tsRs29n5tZ/movie/43725"},{"id":43724,"title":"Сказки для больших и маленьких","kp_id":"623074","imdb_id":"tt6052484","world_art_id":null,"type":"movie","add":"2020-09-21 17:51:51","orig_title":"Skazki dlya bolshikh i malenkikh","year":"1967-01-01","translations":["Оригинальная дорожка"],"quality":"dvdrip","translation":"Оригинальная дорожка","update":"2020-09-23 07:08:28","iframe_src":"//8965.svetacdn.in/71tsRs29n5tZ/movie/43724"},{"id":43722,"title":"Воскресенье","kp_id":"545584","imdb_id":"tt1075379","world_art_id":null,"type":"movie","add":"2020-09-21 17:47:25","orig_title":"Pühapäev","year":"1977-01-01","translations":["Оригинальная дорожка"],"quality":"tv","translation":"Оригинальная дорожка","update":"2020-09-23 07:06:25","iframe_src":"//8965.svetacdn.in/71tsRs29n5tZ/movie/43722"},{"id":43721,"title":"Страшилище","kp_id":"1046618","imdb_id":"tt5900500","world_art_id":null,"type":"movie","add":"2020-09-21 17:43:57","orig_title":"Baubas","year":"1987-01-01","translations":["Оригинальная дорожка"],"quality":"dvdrip","translation":"Оригинальная дорожка","update":"2020-09-23 07:05:43","iframe_src":"//8965.svetacdn.in/71tsRs29n5tZ/movie/43721"},{"id":43720,"title":"Сверчок","kp_id":"565234","imdb_id":null,"world_art_id":null,"type":"movie","add":"2020-09-21 17:41:21","orig_title":"Сверчок","year":"1982-01-01","translations":["Оригинальная дорожка"],"quality":"dvdrip","translation":"Оригинальная дорожка","update":"2020-09-23 07:04:41","iframe_src":"//8965.svetacdn.in/71tsRs29n5tZ/movie/43720"},{"id":43719,"title":"Сын камня и великан","kp_id":"489296","imdb_id":"tt6372440","world_art_id":null,"type":"movie","add":"2020-09-21 17:26:00","orig_title":"Syn kamnya i velikan","year":"1986-01-01","translations":["Оригинальная дорожка"],"quality":"dvdrip","translation":"Оригинальная дорожка","update":"2020-09-23 07:02:50","iframe_src":"//8965.svetacdn.in/71tsRs29n5tZ/movie/43719"},{"id":43717,"title":"Твой любящий друг","kp_id":"672119","imdb_id":"tt9274962","world_art_id":null,"type":"movie","add":"2020-09-21 17:17:40","orig_title":"Tvoy lyubyashchiy drug","year":"1984-01-01","translations":["Оригинальная дорожка"],"quality":"dvdrip","translation":"Оригинальная дорожка","update":"2020-09-23 07:00:50","iframe_src":"//8965.svetacdn.in/71tsRs29n5tZ/movie/43717"},{"id":43716,"title":"Бедокуры","kp_id":"632475","imdb_id":"tt5871742","world_art_id":null,"type":"movie","add":"2020-09-21 17:14:14","orig_title":"Bedokury","year":"1982-01-01","translations":["Оригинальная дорожка"],"quality":"dvb","translation":"Оригинальная дорожка","update":"2020-09-23 07:00:08","iframe_src":"//8965.svetacdn.in/71tsRs29n5tZ/movie/43716"},{"id":32251,"title":"Столкновение с тьмой","kp_id":"1141560","imdb_id":"tt8269120","world_art_id":null,"type":"movie","add":"2019-10-22 20:37:06","orig_title":"Dark Encounter","year":"2019-08-23","translations":["Любительский (многоголосый закадровый) (@MUZOBOZ@)","Профессиональный (многоголосый закадровый) (iTunes)"],"quality":"webdl","translation":"Любительский (многоголосый закадровый) (@MUZOBOZ@)","update":"2020-09-23 07:50:19","iframe_src":"//8965.svetacdn.in/71tsRs29n5tZ/movie/32251"},{"id":19056,"title":"Лето шестьдесят седьмого","kp_id":"1084268","imdb_id":"tt6536668","world_art_id":null,"type":"movie","add":"2018-09-18 21:42:06","orig_title":"Summer of '67","year":"2018-06-29","translations":["Любительский (многоголосый закадровый) (Синема УС)","Профессиональный (многоголосый закадровый) (HDrezka Studio)"],"quality":"webdl","translation":"Любительский (многоголосый закадровый) (Синема УС)","update":"2020-09-23 08:54:15","iframe_src":"//8965.svetacdn.in/71tsRs29n5tZ/movie/19056"}],"current_page":943,"first_page_url":"https://videocdn.tv/api/short?limit=100&api_token=EnbO9h8pv1VyjbCJhg0WM9nG259n7mtz&cache3943=3943&page=1","from":94201,"last_page":709,"last_page_url":"https://videocdn.tv/api/short?limit=100&api_token=EnbO9h8pv1VyjbCJhg0WM9nG259n7mtz&cache3943=3943&page=709","next_page_url":null,"path":"https://videocdn.tv/api/short","per_page":100,"prev_page_url":"https://videocdn.tv/api/short?limit=100&api_token=EnbO9h8pv1VyjbCJhg0WM9nG259n7mtz&cache3943=3943&page=942","to":94220,"total":70884}