{"result":true,"data":[{"id":30353,"title":"Купи, одолжи, укради","kp_id":"281378","imdb_id":"tt0985593","world_art_id":null,"type":"movie","add":"2019-08-28 19:18:44","orig_title":"Miss Conception","year":"2008-03-05","translations":["Профессиональный (многоголосый закадровый)"],"quality":"dvdrip","translation":"Профессиональный (многоголосый закадровый)","update":"2019-08-29 06:12:37","iframe_src":"//7043.svetacdn.in/si4jsFRrtgrT/movie/30353"},{"id":30352,"title":"Прекрасный боксер","kp_id":"80860","imdb_id":"tt0401248","world_art_id":null,"type":"movie","add":"2019-08-28 19:13:35","orig_title":"Beautiful Boxer","year":"2004-02-07","translations":["Профессиональный (многоголосый закадровый)"],"quality":"dvdrip","translation":"Профессиональный (многоголосый закадровый)","update":"2019-08-29 06:11:37","iframe_src":"//7043.svetacdn.in/si4jsFRrtgrT/movie/30352"},{"id":30351,"title":"Прослушка","kp_id":"105595","imdb_id":"tt0427461","world_art_id":null,"type":"movie","add":"2019-08-28 19:08:05","orig_title":"In ascolto","year":"2006-04-28","translations":["Профессиональный (двухголосый закадровый)"],"quality":"dvdrip","translation":"Профессиональный (двухголосый закадровый)","update":"2019-08-29 06:10:50","iframe_src":"//7043.svetacdn.in/si4jsFRrtgrT/movie/30351"},{"id":30349,"title":"Странная история доктора Джекилла и мистера Хайда","kp_id":"146866","imdb_id":"tt0472186","world_art_id":null,"type":"movie","add":"2019-08-28 18:26:14","orig_title":"The Strange Case of Dr. Jekyll and Mr. Hyde","year":"2006-09-29","translations":["Профессиональный (многоголосый закадровый)"],"quality":"hdtv","translation":"Профессиональный (многоголосый закадровый)","update":"2019-08-29 05:51:51","iframe_src":"//7043.svetacdn.in/si4jsFRrtgrT/movie/30349"},{"id":30338,"title":"После эпидемии","kp_id":"920180","imdb_id":"tt4801456","world_art_id":null,"type":"movie","add":"2019-08-27 22:02:25","orig_title":"After the Outbreak","year":"2017-01-01","translations":["Любительский (многоголосый закадровый) (Синема УС)"],"quality":"webdl","translation":"Любительский (многоголосый закадровый) (Синема УС)","update":"2019-08-28 14:23:46","iframe_src":"//7043.svetacdn.in/si4jsFRrtgrT/movie/30338"},{"id":30336,"title":"Смешное происшествие по дороге на Форум","kp_id":"11305","imdb_id":"tt0060438","world_art_id":null,"type":"movie","add":"2019-08-27 19:24:19","orig_title":"A Funny Thing Happened on the Way to the Forum","year":"1966-10-16","translations":["Профессиональный (двухголосый закадровый)"],"quality":"hdtv","translation":"Профессиональный (двухголосый закадровый)","update":"2019-08-28 07:05:08","iframe_src":"//7043.svetacdn.in/si4jsFRrtgrT/movie/30336"},{"id":30333,"title":"Черная маска","kp_id":"23592","imdb_id":"tt0115693","world_art_id":null,"type":"movie","add":"2019-08-27 19:11:13","orig_title":"Hak hap","year":"1996-11-09","translations":["Профессиональный (двухголосый закадровый)"],"quality":"bd","translation":"Профессиональный (двухголосый закадровый)","update":"2019-08-28 07:01:30","iframe_src":"//7043.svetacdn.in/si4jsFRrtgrT/movie/30333"},{"id":30332,"title":"Черная маска 2: Город масок","kp_id":"31455","imdb_id":"tt0264429","world_art_id":null,"type":"movie","add":"2019-08-27 19:08:10","orig_title":"Black Mask 2: City of Masks","year":"2002-12-17","translations":["Профессиональный (многоголосый закадровый)"],"quality":"bd","translation":"Профессиональный (многоголосый закадровый)","update":"2019-08-28 07:00:37","iframe_src":"//7043.svetacdn.in/si4jsFRrtgrT/movie/30332"},{"id":30326,"title":"Ярость в заливе Контрабандистов","kp_id":"8735","imdb_id":"tt0057085","world_art_id":null,"type":"movie","add":"2019-08-27 18:51:57","orig_title":"Fury at Smugglers' Bay","year":"1961-10-13","translations":["Авторский (одноголосый закадровый) (Дольский Андрей)"],"quality":"dvdrip","translation":"Авторский (одноголосый закадровый) (Дольский Андрей)","update":"2019-08-28 06:59:17","iframe_src":"//7043.svetacdn.in/si4jsFRrtgrT/movie/30326"},{"id":30325,"title":"Шанхайский связной","kp_id":"22615","imdb_id":"tt0266408","world_art_id":null,"type":"movie","add":"2019-08-27 18:44:45","orig_title":"Leui ting jin ging","year":"2000-12-21","translations":["Профессиональный (двухголосый закадровый)"],"quality":"dvdrip","translation":"Профессиональный (двухголосый закадровый)","update":"2019-08-28 06:56:03","iframe_src":"//7043.svetacdn.in/si4jsFRrtgrT/movie/30325"},{"id":30323,"title":"Контрабандисты","kp_id":"418919","imdb_id":"tt1248917","world_art_id":null,"type":"movie","add":"2019-08-27 18:40:49","orig_title":"Dekker & Adi - Wer bremst verliert!","year":"2008-07-10","translations":["Профессиональный (многоголосый закадровый)"],"quality":"dvdrip","translation":"Профессиональный (многоголосый закадровый)","update":"2019-08-28 06:53:19","iframe_src":"//7043.svetacdn.in/si4jsFRrtgrT/movie/30323"},{"id":30322,"title":"Месть мертвецов","kp_id":"61285","imdb_id":"tt0369918","world_art_id":null,"type":"movie","add":"2019-08-27 18:38:57","orig_title":"Shallow Ground","year":"2004-04-24","translations":["Полное дублирование"],"quality":"bd","translation":"Полное дублирование","update":"2019-08-28 06:52:50","iframe_src":"//7043.svetacdn.in/si4jsFRrtgrT/movie/30322"},{"id":30321,"title":"Марадона","kp_id":"195621","imdb_id":"tt0454976","world_art_id":null,"type":"movie","add":"2019-08-27 18:31:37","orig_title":"Maradona by Kusturica","year":"2008-05-20","translations":["Профессиональный (многоголосый закадровый)"],"quality":"dvdrip","translation":"Профессиональный (многоголосый закадровый)","update":"2019-08-28 06:47:43","iframe_src":"//7043.svetacdn.in/si4jsFRrtgrT/movie/30321"},{"id":30319,"title":"Беспокойный свидетель","kp_id":"13326","imdb_id":"tt0185284","world_art_id":null,"type":"movie","add":"2019-08-27 18:30:11","orig_title":"Do Not Disturb","year":"1999-11-04","translations":["Полное дублирование"],"quality":"dvdrip","translation":"Полное дублирование","update":"2019-08-28 06:46:55","iframe_src":"//7043.svetacdn.in/si4jsFRrtgrT/movie/30319"},{"id":30318,"title":"Папа Гринвич-Виллидж","kp_id":"2746","imdb_id":"tt0087932","world_art_id":null,"type":"movie","add":"2019-08-27 18:25:51","orig_title":"The Pope of Greenwich Village","year":"1984-06-22","translations":["Профессиональный (двухголосый закадровый) (НТВ)"],"quality":"bd","translation":"Профессиональный (двухголосый закадровый) (НТВ)","update":"2019-08-28 06:46:22","iframe_src":"//7043.svetacdn.in/si4jsFRrtgrT/movie/30318"},{"id":4532,"title":"Фанатик","kp_id":"698","imdb_id":"tt0146882","world_art_id":null,"type":"movie","add":"2016-08-18 08:48:46","orig_title":"High Fidelity","year":"2000-03-31","translations":["Профессиональный (двухголосый закадровый)"],"quality":"bd","translation":"Профессиональный (двухголосый закадровый)","update":"2019-08-29 06:23:54","iframe_src":"//7043.svetacdn.in/si4jsFRrtgrT/movie/4532"},{"id":4516,"title":"Городские легенды 2: Последний отрезок","kp_id":"5005","imdb_id":"tt0192731","world_art_id":null,"type":"movie","add":"2016-08-18 06:44:45","orig_title":"Urban Legends: Final Cut","year":"2000-09-22","translations":["Профессиональный (двухголосый закадровый)"],"quality":"bd","translation":"Профессиональный (двухголосый закадровый)","update":"2019-08-29 06:25:10","iframe_src":"//7043.svetacdn.in/si4jsFRrtgrT/movie/4516"},{"id":3206,"title":"Битлджус","kp_id":"2389","imdb_id":"tt0094721","world_art_id":null,"type":"movie","add":"2016-06-16 07:48:53","orig_title":"Beetle Juice","year":"1988-03-29","translations":["Полное дублирование","Профессиональный (двухголосый закадровый) (Tycoon)"],"quality":"bd","translation":"Полное дублирование","update":"2019-08-29 06:30:29","iframe_src":"//7043.svetacdn.in/si4jsFRrtgrT/movie/3206"},{"id":3107,"title":"Медведь","kp_id":"22907","imdb_id":"tt0095800","world_art_id":null,"type":"movie","add":"2016-06-13 18:18:38","orig_title":"L' Ours","year":"1988-10-19","translations":["Профессиональный (одноголосый закадровый)"],"quality":"bd","translation":"Профессиональный (одноголосый закадровый)","update":"2019-08-28 06:51:37","iframe_src":"//7043.svetacdn.in/si4jsFRrtgrT/movie/3107"},{"id":938,"title":"Супер Начо","kp_id":"160911","imdb_id":"tt0457510","world_art_id":null,"type":"movie","add":"2016-04-09 21:58:46","orig_title":"Nacho Libre","year":"2006-06-16","translations":["Полное дублирование"],"quality":"bd","translation":"Полное дублирование","update":"2019-08-29 05:38:47","iframe_src":"//7043.svetacdn.in/si4jsFRrtgrT/movie/938"}],"current_page":1134,"first_page_url":"https://videocdn.tv/api/short?limit=100&api_token=X6EwAUfE5M9xbo7y0Bp0aPf3uXxG2KLL&cache31134=31134&page=1","from":113301,"last_page":613,"last_page_url":"https://videocdn.tv/api/short?limit=100&api_token=X6EwAUfE5M9xbo7y0Bp0aPf3uXxG2KLL&cache31134=31134&page=613","next_page_url":null,"path":"https://videocdn.tv/api/short","per_page":100,"prev_page_url":"https://videocdn.tv/api/short?limit=100&api_token=X6EwAUfE5M9xbo7y0Bp0aPf3uXxG2KLL&cache31134=31134&page=1133","to":113320,"total":61250}