{"result":true,"data":[{"id":53027,"title":"Первое лицо множественного числа","kp_id":"1167709","imdb_id":"tt8530904","world_art_id":null,"type":"movie","add":"2021-09-10 15:58:28","orig_title":"First Person Plural","year":"2019-04-12","translations":["Любительский (многоголосый закадровый) (Синема УС)"],"quality":"webdl","translation":"Любительский (многоголосый закадровый) (Синема УС)","update":"2021-09-10 19:45:11","iframe_src":"//8422.svetacdn.in/si4jsFRrtgrT/movie/53027"},{"id":53026,"title":"Королевство","kp_id":"1218563","imdb_id":"tt9334814","world_art_id":null,"type":"movie","add":"2021-09-10 15:56:41","orig_title":"Il Regno","year":"2020-06-26","translations":["Любительский (многоголосый закадровый) (Синема УС)"],"quality":"webdl","translation":"Любительский (многоголосый закадровый) (Синема УС)","update":"2021-09-10 19:44:39","iframe_src":"//8422.svetacdn.in/si4jsFRrtgrT/movie/53026"},{"id":53025,"title":"Лунный камень для Мандей","kp_id":"1256767","imdb_id":"tt6685476","world_art_id":null,"type":"movie","add":"2021-09-10 15:54:33","orig_title":"Moon Rock for Monday","year":"2020-08-27","translations":["Любительский (многоголосый закадровый) (Синема УС)"],"quality":"webdl","translation":"Любительский (многоголосый закадровый) (Синема УС)","update":"2021-09-10 19:44:24","iframe_src":"//8422.svetacdn.in/si4jsFRrtgrT/movie/53025"},{"id":53022,"title":"Земля между озёрами","kp_id":null,"imdb_id":"tt14557056","world_art_id":null,"type":"movie","add":"2021-09-10 15:49:44","orig_title":"The Land Between the Lakes","year":"2021-06-08","translations":["Любительский (многоголосый закадровый) (Синема УС)"],"quality":"webdl","translation":"Любительский (многоголосый закадровый) (Синема УС)","update":"2021-09-11 05:04:23","iframe_src":"//8422.svetacdn.in/si4jsFRrtgrT/movie/53022"},{"id":53021,"title":"Звездное небо над римским гетто","kp_id":"1302846","imdb_id":"tt10961186","world_art_id":null,"type":"movie","add":"2021-09-10 15:47:52","orig_title":"Un cielo stellato sopra il ghetto di Roma","year":"2020-10-14","translations":["Любительский (многоголосый закадровый) (Синема УС)"],"quality":"webdl","translation":"Любительский (многоголосый закадровый) (Синема УС)","update":"2021-09-10 19:44:09","iframe_src":"//8422.svetacdn.in/si4jsFRrtgrT/movie/53021"},{"id":53020,"title":"И так хорошо","kp_id":"1208060","imdb_id":"tt9160050","world_art_id":null,"type":"movie","add":"2021-09-10 15:46:26","orig_title":"Va bene così","year":"2021-03-26","translations":["Любительский (многоголосый закадровый) (Синема УС)"],"quality":"webdl","translation":"Любительский (многоголосый закадровый) (Синема УС)","update":"2021-09-10 19:43:55","iframe_src":"//8422.svetacdn.in/si4jsFRrtgrT/movie/53020"},{"id":53014,"title":"Любовь как букет цветов","kp_id":"1318929","imdb_id":"tt11219254","world_art_id":null,"type":"movie","add":"2021-09-10 11:55:51","orig_title":"Hanataba mitaina koi o shita","year":"2021-01-29","translations":["Любительский (двухголосый закадровый) (АрхиAsia)"],"quality":"bd","translation":"Любительский (двухголосый закадровый) (АрхиAsia)","update":"2021-09-10 19:47:07","iframe_src":"//8422.svetacdn.in/si4jsFRrtgrT/movie/53014"},{"id":53004,"title":"Отравленный холст","kp_id":"887048","imdb_id":"tt3629580","world_art_id":null,"type":"movie","add":"2021-09-09 17:28:53","orig_title":"Tainted Canvas","year":"2020-02-25","translations":["Любительский (многоголосый закадровый) (Синема УС)"],"quality":"webdl","translation":"Любительский (многоголосый закадровый) (Синема УС)","update":"2021-09-10 19:05:06","iframe_src":"//8422.svetacdn.in/si4jsFRrtgrT/movie/53004"},{"id":53003,"title":"Словесное мастерство","kp_id":"1137655","imdb_id":"tt8240242","world_art_id":null,"type":"movie","add":"2021-09-09 17:24:27","orig_title":"Language Arts","year":"2020-03-13","translations":["Любительский (многоголосый закадровый) (Синема УС)"],"quality":"webdl","translation":"Любительский (многоголосый закадровый) (Синема УС)","update":"2021-09-10 19:06:14","iframe_src":"//8422.svetacdn.in/si4jsFRrtgrT/movie/53003"},{"id":53002,"title":"Пятьдесят штук","kp_id":"1065542","imdb_id":"tt6881446","world_art_id":null,"type":"movie","add":"2021-09-09 17:04:05","orig_title":"50K","year":"2018-09-27","translations":["Любительский (многоголосый закадровый) (Синема УС)"],"quality":"webdl","translation":"Любительский (многоголосый закадровый) (Синема УС)","update":"2021-09-10 19:06:36","iframe_src":"//8422.svetacdn.in/si4jsFRrtgrT/movie/53002"},{"id":52999,"title":"Амараика","kp_id":"1189311","imdb_id":"tt8736742","world_art_id":null,"type":"movie","add":"2021-09-09 11:52:42","orig_title":"Amaraica","year":"2020-11-04","translations":["Любительский (многоголосый закадровый) (Синема УС)"],"quality":"webdl","translation":"Любительский (многоголосый закадровый) (Синема УС)","update":"2021-09-10 19:07:08","iframe_src":"//8422.svetacdn.in/si4jsFRrtgrT/movie/52999"},{"id":52997,"title":"Дети грязи","kp_id":"4497066","imdb_id":"tt7845872","world_art_id":null,"type":"movie","add":"2021-09-09 11:44:32","orig_title":"Children of Mud","year":"2020-10-01","translations":["Любительский (многоголосый закадровый) (Синема УС)"],"quality":"webdl","translation":"Любительский (многоголосый закадровый) (Синема УС)","update":"2021-09-10 19:07:28","iframe_src":"//8422.svetacdn.in/si4jsFRrtgrT/movie/52997"},{"id":52996,"title":"Она — Кристина","kp_id":"1190469","imdb_id":"tt8912128","world_art_id":null,"type":"movie","add":"2021-09-09 11:42:20","orig_title":"Ella es Cristina","year":"2019-06-13","translations":["Любительский (многоголосый закадровый) (Синема УС)"],"quality":"webdl","translation":"Любительский (многоголосый закадровый) (Синема УС)","update":"2021-09-10 19:07:55","iframe_src":"//8422.svetacdn.in/si4jsFRrtgrT/movie/52996"},{"id":52995,"title":"Остров","kp_id":"1194917","imdb_id":"tt9031490","world_art_id":null,"type":"movie","add":"2021-09-09 11:37:54","orig_title":"Ilha","year":"2018-09-19","translations":["Любительский (многоголосый закадровый) (Синема УС)"],"quality":"webdl","translation":"Любительский (многоголосый закадровый) (Синема УС)","update":"2021-09-10 19:08:29","iframe_src":"//8422.svetacdn.in/si4jsFRrtgrT/movie/52995"},{"id":52994,"title":"Лошади Вильденштейна","kp_id":"1186616","imdb_id":"tt8901422","world_art_id":null,"type":"movie","add":"2021-09-09 10:52:26","orig_title":"Reiterhof Wildenstein","year":"2019-05-10","translations":["Любительский (многоголосый закадровый) (Синема УС)"],"quality":"webdl","translation":"Любительский (многоголосый закадровый) (Синема УС)","update":"2021-09-10 19:09:01","iframe_src":"//8422.svetacdn.in/si4jsFRrtgrT/movie/52994"},{"id":52992,"title":"Местное пугало","kp_id":"1247121","imdb_id":"tt9891874","world_art_id":null,"type":"movie","add":"2021-09-09 10:24:26","orig_title":"Scarecrow County","year":"2019-10-18","translations":["Любительский (многоголосый закадровый) (Синема УС)"],"quality":"webdl","translation":"Любительский (многоголосый закадровый) (Синема УС)","update":"2021-09-10 19:10:05","iframe_src":"//8422.svetacdn.in/si4jsFRrtgrT/movie/52992"},{"id":52989,"title":"Девочка прощается с тобой","kp_id":"1132951","imdb_id":"tt8056916","world_art_id":null,"type":"movie","add":"2021-09-09 10:16:53","orig_title":"The Goodbye Girl","year":"2018-03-25","translations":["Любительский (многоголосый закадровый) (Синема УС)"],"quality":"webdl","translation":"Любительский (многоголосый закадровый) (Синема УС)","update":"2021-09-10 19:10:42","iframe_src":"//8422.svetacdn.in/si4jsFRrtgrT/movie/52989"},{"id":52982,"title":"Пятый округ","kp_id":"1137112","imdb_id":"tt8241876","world_art_id":null,"type":"movie","add":"2021-09-09 07:34:17","orig_title":"5th Borough","year":"2020-06-03","translations":["Любительский (многоголосый закадровый) (Синема УС)"],"quality":"webdl","translation":"Любительский (многоголосый закадровый) (Синема УС)","update":"2021-09-10 19:11:10","iframe_src":"//8422.svetacdn.in/si4jsFRrtgrT/movie/52982"},{"id":52970,"title":"Зимний залив","kp_id":"1406607","imdb_id":"tt12299824","world_art_id":null,"type":"movie","add":"2021-09-09 04:21:03","orig_title":"Vinterviken","year":"2021-09-08","translations":["Любительский (двухголосый закадровый) (OnisFilms)","Любительский (многоголосый закадровый) (Синема УС)"],"quality":"webdl","translation":"Любительский (двухголосый закадровый) (OnisFilms)","update":"2021-09-11 05:04:06","iframe_src":"//8422.svetacdn.in/si4jsFRrtgrT/movie/52970"},{"id":52908,"title":"Город теней","kp_id":"1239754","imdb_id":"tt9806258","world_art_id":null,"type":"movie","add":"2021-09-06 20:13:12","orig_title":"Shadowtown","year":"2020-03-01","translations":["Original (English)","Любительский (многоголосый закадровый) (AlphaProject)"],"quality":"webdl","translation":"Original (English)","update":"2021-09-10 19:05:38","iframe_src":"//8422.svetacdn.in/si4jsFRrtgrT/movie/52908"},{"id":9471,"title":"Русский транзит","kp_id":"40736","imdb_id":"tt0175134","world_art_id":null,"type":"serial","add":"2020-12-05 12:26:20","orig_title":"Russkiy tranzit","year":"1994-01-01","translations":["Оригинальная дорожка"],"seasons_count":1,"episodes_count":6,"episodes":6,"update":"2020-12-06 10:26:35","iframe_src":"//8422.svetacdn.in/si4jsFRrtgrT/tv-series/9471"},{"id":9464,"title":"Взрослые дети","kp_id":"447313","imdb_id":"tt0404607","world_art_id":null,"type":"serial","add":"2020-12-04 17:40:14","orig_title":"Frecuencia .04","year":"2004-04-19","translations":["Профессиональный (многоголосый закадровый)"],"seasons_count":1,"episodes_count":106,"episodes":106,"update":"2020-12-06 10:00:20","iframe_src":"//8422.svetacdn.in/si4jsFRrtgrT/tv-series/9464"},{"id":9461,"title":"Мрачные дни","kp_id":"676968","imdb_id":"tt2232307","world_art_id":null,"type":"serial","add":"2020-12-04 11:13:38","orig_title":"Si shen shao nu","year":"2010-10-09","translations":["Любительский (одноголосый закадровый) (GREEN TEA)"],"seasons_count":1,"episodes_count":20,"episodes":20,"update":"2020-12-06 09:51:37","iframe_src":"//8422.svetacdn.in/si4jsFRrtgrT/tv-series/9461"},{"id":9455,"title":"Бурные воды","kp_id":"1304585","imdb_id":"tt10518558","world_art_id":null,"type":"serial","add":"2020-12-03 14:00:52","orig_title":"Eaux Turbulentes","year":"2019-12-13","translations":["Профессиональный (двухголосый закадровый) (ViruseProject)"],"seasons_count":1,"episodes_count":4,"episodes":4,"update":"2020-12-04 08:18:02","iframe_src":"//8422.svetacdn.in/si4jsFRrtgrT/tv-series/9455"},{"id":9450,"title":"Богатые и знаменитые","kp_id":"321817","imdb_id":"tt0202199","world_art_id":null,"type":"serial","add":"2020-12-02 17:25:25","orig_title":"Ricos y famosos","year":"1997-01-01","translations":["Профессиональный (многоголосый закадровый)"],"seasons_count":1,"episodes_count":175,"episodes":175,"update":"2020-12-05 18:41:51","iframe_src":"//8422.svetacdn.in/si4jsFRrtgrT/tv-series/9450"},{"id":9443,"title":"Волчонок","kp_id":"842866","imdb_id":"tt0272412","world_art_id":null,"type":"serial","add":"2020-12-02 15:16:58","orig_title":"Teen Wolf","year":"1986-09-13","translations":["Любительский (многоголосый закадровый)"],"seasons_count":1,"episodes_count":2,"episodes":2,"update":"2020-12-05 16:04:17","iframe_src":"//8422.svetacdn.in/si4jsFRrtgrT/tv-series/9443"},{"id":9442,"title":"Супермен Руби и Спирса","kp_id":"636115","imdb_id":"tt0213370","world_art_id":null,"type":"serial","add":"2020-12-02 14:33:59","orig_title":"Superman","year":"1988-09-17","translations":["Любительский (одноголосый закадровый)"],"seasons_count":1,"episodes_count":13,"episodes":13,"update":"2020-12-05 16:03:40","iframe_src":"//8422.svetacdn.in/si4jsFRrtgrT/tv-series/9442"},{"id":9437,"title":"Вишну Пурана","kp_id":"576040","imdb_id":"tt0397214","world_art_id":null,"type":"serial","add":"2020-12-01 18:14:10","orig_title":"Vishnu Puran","year":"2000-01-01","translations":["Профессиональный (одноголосый закадровый)"],"seasons_count":1,"episodes_count":120,"episodes":120,"update":"2020-12-05 15:56:22","iframe_src":"//8422.svetacdn.in/si4jsFRrtgrT/tv-series/9437"},{"id":9415,"title":"София, дай мне время","kp_id":"161260","imdb_id":"tt0356299","world_art_id":null,"type":"serial","add":"2020-11-28 12:25:44","orig_title":"Sofía dame tiempo","year":"2003-02-24","translations":["Профессиональный (многоголосый закадровый)"],"seasons_count":1,"episodes_count":130,"episodes":130,"update":"2020-12-04 19:29:36","iframe_src":"//8422.svetacdn.in/si4jsFRrtgrT/tv-series/9415"},{"id":9395,"title":"Трое против всех 2","kp_id":"280544","imdb_id":"tt0903577","world_art_id":null,"type":"serial","add":"2020-11-25 20:13:50","orig_title":"Troe protiv vsekh 2","year":"2003-01-01","translations":["Оригинальная дорожка"],"seasons_count":1,"episodes_count":44,"episodes":44,"update":"2020-12-05 13:10:40","iframe_src":"//8422.svetacdn.in/si4jsFRrtgrT/tv-series/9395"},{"id":9394,"title":"Трое против всех","kp_id":"280545","imdb_id":"tt0903578","world_art_id":null,"type":"serial","add":"2020-11-25 20:01:39","orig_title":"Troye protiv vsekh","year":"2002-01-01","translations":["Оригинальная дорожка"],"seasons_count":1,"episodes_count":30,"episodes":30,"update":"2020-12-05 12:01:41","iframe_src":"//8422.svetacdn.in/si4jsFRrtgrT/tv-series/9394"},{"id":9393,"title":"Дороги любви","kp_id":"460312","imdb_id":"tt0348238","world_art_id":null,"type":"serial","add":"2020-11-25 19:53:31","orig_title":"Trapos íntimos","year":"2002-01-01","translations":["Профессиональный (многоголосый закадровый)"],"seasons_count":1,"episodes_count":160,"episodes":160,"update":"2020-12-04 19:43:51","iframe_src":"//8422.svetacdn.in/si4jsFRrtgrT/tv-series/9393"},{"id":9388,"title":"Салон","kp_id":"1189276","imdb_id":"tt8718938","world_art_id":null,"type":"serial","add":"2020-11-25 17:10:01","orig_title":"SALON","year":"2018-09-17","translations":["Любительский (многоголосый закадровый) (Ultradox)"],"seasons_count":1,"episodes_count":10,"episodes":10,"update":"2020-12-04 14:04:00","iframe_src":"//8422.svetacdn.in/si4jsFRrtgrT/tv-series/9388"},{"id":9364,"title":"Доктор Преображенский","kp_id":"1049069","imdb_id":null,"world_art_id":null,"type":"serial","add":"2020-11-23 11:03:31","orig_title":"Доктор Преображенский","year":"2020-11-23","translations":["Оригинальная дорожка"],"seasons_count":1,"episodes_count":12,"episodes":12,"update":"2020-12-04 17:28:41","iframe_src":"//8422.svetacdn.in/si4jsFRrtgrT/tv-series/9364"},{"id":9349,"title":"Другой берег","kp_id":"438330","imdb_id":"tt0397848","world_art_id":null,"type":"serial","add":"2020-11-20 17:06:21","orig_title":"The Wrong Coast","year":"2004-04-07","translations":["Профессиональный (многоголосый закадровый) (2x2)"],"seasons_count":1,"episodes_count":13,"episodes":13,"update":"2020-12-04 21:35:46","iframe_src":"//8422.svetacdn.in/si4jsFRrtgrT/tv-series/9349"},{"id":9067,"title":"Махакали. Конец — это начало","kp_id":"1101303","imdb_id":"tt7194736","world_art_id":null,"type":"serial","add":"2020-10-20 15:07:41","orig_title":"Mahakaali - Anth Hi Aarambh Hai","year":"2017-07-22","translations":["Любительский (двухголосый закадровый)"],"seasons_count":1,"episodes_count":95,"episodes":95,"update":"2020-12-04 12:49:39","iframe_src":"//8422.svetacdn.in/si4jsFRrtgrT/tv-series/9067"},{"id":8821,"title":"Неприлично богатые","kp_id":"1263855","imdb_id":"tt10327526","world_art_id":null,"type":"serial","add":"2020-09-22 08:34:29","orig_title":"Filthy Rich","year":"2020-09-21","translations":["Любительский (многоголосый закадровый) (ColdFilm)","Любительский (многоголосый закадровый) (Octopus)","Профессиональный (двухголосый закадровый) (IdeaFilm)","Любительский (двухголосый закадровый) (KerobTV)","Профессиональный (многоголосый закадровый) (BaibaKo)"],"seasons_count":1,"episodes_count":10,"episodes":10,"update":"2020-12-04 11:52:03","iframe_src":"//8422.svetacdn.in/si4jsFRrtgrT/tv-series/8821"},{"id":8700,"title":"Герцогиня","kp_id":"1343134","imdb_id":"tt9310390","world_art_id":null,"type":"serial","add":"2020-09-11 11:53:59","orig_title":"The Duchess","year":"2020-09-11","translations":["Любительский (многоголосый закадровый) (Octopus)","Любительский (многоголосый закадровый) (ColdFilm)","Профессиональный (многоголосый закадровый) (BaibaKo)"],"seasons_count":1,"episodes_count":6,"episodes":6,"update":"2020-12-04 11:43:42","iframe_src":"//8422.svetacdn.in/si4jsFRrtgrT/tv-series/8700"},{"id":8513,"title":"Поквитайся","kp_id":"1304504","imdb_id":"tt9724628","world_art_id":null,"type":"serial","add":"2020-08-23 03:40:55","orig_title":"Get Even","year":"2020-02-15","translations":["Любительский (двухголосый закадровый) (OnisFilms)","Любительский (многоголосый закадровый) (WestFilm)","Любительский (двухголосый закадровый) (NEON Studio)"],"seasons_count":1,"episodes_count":10,"episodes":10,"update":"2020-12-05 16:00:21","iframe_src":"//8422.svetacdn.in/si4jsFRrtgrT/tv-series/8513"},{"id":1931,"title":"Елена – принцесса Авалора","kp_id":"945362","imdb_id":"tt4549142","world_art_id":null,"type":"serial","add":"2018-01-08 19:25:20","orig_title":"Elena of Avalor","year":"2016-06-20","translations":["Полное дублирование"],"seasons_count":3,"episodes_count":77,"episodes":27,"update":"2020-12-04 08:21:00","iframe_src":"//8422.svetacdn.in/si4jsFRrtgrT/tv-series/1931"}],"current_page":192,"first_page_url":"https://videocdn.tv/api/short?limit=100&api_token=X6EwAUfE5M9xbo7y0Bp0aPf3uXxG2KLL&cache3192=3192&page=1","from":19101,"last_page":689,"last_page_url":"https://videocdn.tv/api/short?limit=100&api_token=X6EwAUfE5M9xbo7y0Bp0aPf3uXxG2KLL&cache3192=3192&page=689","next_page_url":"https://videocdn.tv/api/short?limit=100&api_token=X6EwAUfE5M9xbo7y0Bp0aPf3uXxG2KLL&cache3192=3192&page=193","path":"https://videocdn.tv/api/short","per_page":100,"prev_page_url":"https://videocdn.tv/api/short?limit=100&api_token=X6EwAUfE5M9xbo7y0Bp0aPf3uXxG2KLL&cache3192=3192&page=191","to":19140,"total":68803}