{"result":true,"data":[{"id":19866,"title":"Маккуин","kp_id":"1117969","imdb_id":"tt6510332","world_art_id":null,"type":"movie","add":"2018-10-31 00:42:01","orig_title":"McQueen","year":"2018-04-22","translations":["Любительский (многоголосый закадровый) (Синема УС)"],"quality":"bd","translation":"Любительский (многоголосый закадровый) (Синема УС)","update":"2018-10-31 07:21:04","iframe_src":"//8543.svetacdn.in/71tsRs29n5tZ/movie/19866"},{"id":19864,"title":"На свой страх и риск","kp_id":"969588","imdb_id":"tt4967924","world_art_id":null,"type":"movie","add":"2018-10-31 00:32:48","orig_title":"At Your Own Risk","year":"2018-04-27","translations":["Любительский (многоголосый закадровый) (Синема УС)"],"quality":"webdl","translation":"Любительский (многоголосый закадровый) (Синема УС)","update":"2018-10-31 07:26:12","iframe_src":"//8543.svetacdn.in/71tsRs29n5tZ/movie/19864"},{"id":19863,"title":"Отвязная рождественская история","kp_id":"1192941","imdb_id":"tt8879926","world_art_id":null,"type":"movie","add":"2018-10-31 00:30:36","orig_title":"A Raunchy Christmas Story","year":"2018-08-30","translations":["Любительский (многоголосый закадровый) (Синема УС)"],"quality":"webdl","translation":"Любительский (многоголосый закадровый) (Синема УС)","update":"2018-10-31 07:29:32","iframe_src":"//8543.svetacdn.in/71tsRs29n5tZ/movie/19863"},{"id":19848,"title":"Война крёстных отцов","kp_id":"100615","imdb_id":"tt0154468","world_art_id":null,"type":"movie","add":"2018-10-29 13:33:41","orig_title":"Quelli che contano","year":"1974-01-11","translations":["Любительский (одноголосый закадровый)"],"quality":"bd","translation":"Любительский (одноголосый закадровый)","update":"2018-10-31 07:51:32","iframe_src":"//8543.svetacdn.in/71tsRs29n5tZ/movie/19848"},{"id":19845,"title":"Политех","kp_id":"406687","imdb_id":"tt1194238","world_art_id":null,"type":"movie","add":"2018-10-29 13:28:02","orig_title":"Polytechnique","year":"2009-02-06","translations":["Авторский (одноголосый закадровый) (Алексеев Антон)"],"quality":"bd","translation":"Авторский (одноголосый закадровый) (Алексеев Антон)","update":"2018-10-31 07:47:28","iframe_src":"//8543.svetacdn.in/71tsRs29n5tZ/movie/19845"},{"id":19769,"title":"Забытая мелодия для флейты","kp_id":"45195","imdb_id":"tt0096492","world_art_id":null,"type":"movie","add":"2018-10-24 11:41:46","orig_title":"Zabytaya melodiya dlya fleyty","year":"1988-12-21","translations":["Оригинальная дорожка"],"quality":"webdl","translation":"Оригинальная дорожка","update":"2018-10-31 07:42:37","iframe_src":"//8543.svetacdn.in/71tsRs29n5tZ/movie/19769"},{"id":19768,"title":"За последней чертой","kp_id":"45180","imdb_id":"tt0204752","world_art_id":null,"type":"movie","add":"2018-10-24 11:40:30","orig_title":"Za posledney chertoy","year":"1991-01-01","translations":["Оригинальная дорожка"],"quality":"webdl","translation":"Оригинальная дорожка","update":"2018-10-31 07:41:30","iframe_src":"//8543.svetacdn.in/71tsRs29n5tZ/movie/19768"},{"id":19767,"title":"Ворошиловский стрелок","kp_id":"41442","imdb_id":"tt0200267","world_art_id":null,"type":"movie","add":"2018-10-24 11:39:28","orig_title":"Voroshilovskiy strelok","year":"2000-02-14","translations":["Оригинальная дорожка"],"quality":"webdl","translation":"Оригинальная дорожка","update":"2018-10-31 07:40:11","iframe_src":"//8543.svetacdn.in/71tsRs29n5tZ/movie/19767"},{"id":19766,"title":"Вор","kp_id":"7651","imdb_id":"tt0124207","world_art_id":null,"type":"movie","add":"2018-10-24 11:38:08","orig_title":"Vor","year":"1997-08-31","translations":["Оригинальная дорожка"],"quality":"webdl","translation":"Оригинальная дорожка","update":"2018-10-31 07:37:51","iframe_src":"//8543.svetacdn.in/71tsRs29n5tZ/movie/19766"},{"id":19765,"title":"Упражнения в прекрасном","kp_id":"521647","imdb_id":"tt2107851","world_art_id":null,"type":"movie","add":"2018-10-24 11:37:01","orig_title":"Uprazhneniya v prekrasnom","year":"2011-11-20","translations":["Оригинальная дорожка"],"quality":"webdl","translation":"Оригинальная дорожка","update":"2018-10-31 07:36:20","iframe_src":"//8543.svetacdn.in/71tsRs29n5tZ/movie/19765"},{"id":19764,"title":"Служили два товарища","kp_id":"43870","imdb_id":"tt0063615","world_art_id":null,"type":"movie","add":"2018-10-24 11:34:32","orig_title":"Sluzhili dva tovarishcha","year":"1969-05-08","translations":["Оригинальная дорожка"],"quality":"webdl","translation":"Оригинальная дорожка","update":"2018-10-31 07:35:03","iframe_src":"//8543.svetacdn.in/71tsRs29n5tZ/movie/19764"},{"id":19763,"title":"Школьный вальс","kp_id":"43757","imdb_id":"tt0165942","world_art_id":null,"type":"movie","add":"2018-10-24 10:55:00","orig_title":"Shkolnyy vals","year":"1979-09-06","translations":["Оригинальная дорожка"],"quality":"webdl","translation":"Оригинальная дорожка","update":"2018-10-31 07:33:45","iframe_src":"//8543.svetacdn.in/71tsRs29n5tZ/movie/19763"},{"id":19762,"title":"Розыгрыш","kp_id":"42135","imdb_id":"tt0075155","world_art_id":null,"type":"movie","add":"2018-10-24 10:53:38","orig_title":"Rozygrysh","year":"1977-01-10","translations":["Оригинальная дорожка"],"quality":"webdl","translation":"Оригинальная дорожка","update":"2018-10-30 08:55:37","iframe_src":"//8543.svetacdn.in/71tsRs29n5tZ/movie/19762"},{"id":19761,"title":"Республика ШКИД","kp_id":"42088","imdb_id":"tt0135625","world_art_id":null,"type":"movie","add":"2018-10-24 10:51:43","orig_title":"Respublika ShKID","year":"1966-12-29","translations":["Оригинальная дорожка"],"quality":"webdl","translation":"Оригинальная дорожка","update":"2018-10-30 08:54:31","iframe_src":"//8543.svetacdn.in/71tsRs29n5tZ/movie/19761"},{"id":19760,"title":"Похороните меня за плинтусом","kp_id":"423989","imdb_id":"tt1403085","world_art_id":null,"type":"movie","add":"2018-10-24 10:50:38","orig_title":"Pokhoronite menya za plintusom","year":"2009-12-23","translations":["Оригинальная дорожка"],"quality":"webdl","translation":"Оригинальная дорожка","update":"2018-10-30 08:53:08","iframe_src":"//8543.svetacdn.in/71tsRs29n5tZ/movie/19760"},{"id":19759,"title":"Осенний марафон","kp_id":"42799","imdb_id":"tt0079679","world_art_id":null,"type":"movie","add":"2018-10-24 10:48:17","orig_title":"Osenniy marafon","year":"1979-08-30","translations":["Оригинальная дорожка"],"quality":"webdl","translation":"Оригинальная дорожка","update":"2018-10-30 08:52:03","iframe_src":"//8543.svetacdn.in/71tsRs29n5tZ/movie/19759"},{"id":19758,"title":"Кавказский пленник","kp_id":"7652","imdb_id":"tt0116754","world_art_id":null,"type":"movie","add":"2018-10-24 10:47:14","orig_title":"Kavkazskiy plennik","year":"1996-09-08","translations":["Оригинальная дорожка"],"quality":"webdl","translation":"Оригинальная дорожка","update":"2018-10-30 08:50:10","iframe_src":"//8543.svetacdn.in/71tsRs29n5tZ/movie/19758"},{"id":19757,"title":"Карьера Димы Горина","kp_id":"44726","imdb_id":"tt0177880","world_art_id":null,"type":"movie","add":"2018-10-24 10:46:05","orig_title":"Karyera Dimy Gorina","year":"1961-11-30","translations":["Оригинальная дорожка"],"quality":"webdl","translation":"Оригинальная дорожка","update":"2018-10-30 08:49:32","iframe_src":"//8543.svetacdn.in/71tsRs29n5tZ/movie/19757"},{"id":14048,"title":"Царевна-лягушка","kp_id":"260352","imdb_id":"tt4270534","world_art_id":null,"type":"movie","add":"2017-10-26 10:55:10","orig_title":"Tsarevna-lyagushka","year":"1954-01-01","translations":["Оригинальная дорожка"],"quality":"bd","translation":"Оригинальная дорожка","update":"2018-10-31 07:44:19","iframe_src":"//8543.svetacdn.in/71tsRs29n5tZ/movie/14048"},{"id":12920,"title":"Алойс","kp_id":"934686","imdb_id":"tt5065810","world_art_id":null,"type":"movie","add":"2017-08-13 22:00:31","orig_title":"Aloys","year":"2016-02-13","translations":["Любительский (многоголосый закадровый) (Синема УС)","Профессиональный (многоголосый закадровый) (GreenРай Studio)"],"quality":"bd","translation":"Любительский (многоголосый закадровый) (Синема УС)","update":"2018-10-31 07:28:00","iframe_src":"//8543.svetacdn.in/71tsRs29n5tZ/movie/12920"}],"current_page":1636,"first_page_url":"https://videocdn.tv/api/short?limit=100&api_token=EnbO9h8pv1VyjbCJhg0WM9nG259n7mtz&cache31636=31636&page=1","from":163501,"last_page":607,"last_page_url":"https://videocdn.tv/api/short?limit=100&api_token=EnbO9h8pv1VyjbCJhg0WM9nG259n7mtz&cache31636=31636&page=607","next_page_url":null,"path":"https://videocdn.tv/api/short","per_page":100,"prev_page_url":"https://videocdn.tv/api/short?limit=100&api_token=EnbO9h8pv1VyjbCJhg0WM9nG259n7mtz&cache31636=31636&page=1635","to":163520,"total":60644}