{"result":true,"data":[{"id":48851,"title":"Князь Юрий Долгорукий","kp_id":"41246","imdb_id":"tt0319692","world_art_id":null,"type":"movie","add":"2021-03-17 17:15:53","orig_title":"Knyaz Yuriy Dolgorukiy","year":"1998-01-01","translations":["Оригинальная дорожка"],"quality":"dvdrip","translation":"Оригинальная дорожка","update":"2021-03-18 06:28:09","iframe_src":"//5322.svetacdn.in/71tsRs29n5tZ/movie/48851"},{"id":48848,"title":"Лиса и Дрозд","kp_id":"258036","imdb_id":"tt3254786","world_art_id":null,"type":"movie","add":"2021-03-17 16:52:40","orig_title":"Lisa i drozd","year":"1946-01-01","translations":["Оригинальная дорожка"],"quality":"dvdrip","translation":"Оригинальная дорожка","update":"2021-03-18 06:25:34","iframe_src":"//5322.svetacdn.in/71tsRs29n5tZ/movie/48848"},{"id":48840,"title":"Горькие годы","kp_id":"1220737","imdb_id":"tt9326498","world_art_id":null,"type":"movie","add":"2021-03-17 14:41:52","orig_title":"Gli anni amari","year":"2020-03-12","translations":["Любительский (многоголосый закадровый) (Синема УС)"],"quality":"dvdrip","translation":"Любительский (многоголосый закадровый) (Синема УС)","update":"2021-03-17 18:13:48","iframe_src":"//5322.svetacdn.in/71tsRs29n5tZ/movie/48840"},{"id":48838,"title":"Багровый","kp_id":"4366524","imdb_id":"tt13006520","world_art_id":null,"type":"movie","add":"2021-03-17 14:38:56","orig_title":"Crimson","year":"2020-10-29","translations":["Любительский (многоголосый закадровый) (Синема УС)"],"quality":"webdl","translation":"Любительский (многоголосый закадровый) (Синема УС)","update":"2021-03-17 18:13:14","iframe_src":"//5322.svetacdn.in/71tsRs29n5tZ/movie/48838"},{"id":48837,"title":"Безоговорочная любовь","kp_id":"1050918","imdb_id":"tt6840692","world_art_id":null,"type":"movie","add":"2021-03-17 14:32:24","orig_title":"Love Without Hairs","year":"2020-11-11","translations":["Любительский (многоголосый закадровый) (AlphaProject)"],"quality":"webdl","translation":"Любительский (многоголосый закадровый) (AlphaProject)","update":"2021-03-17 18:12:59","iframe_src":"//5322.svetacdn.in/71tsRs29n5tZ/movie/48837"},{"id":48835,"title":"Кража Кубка Мира","kp_id":"4297115","imdb_id":"tt13617604","world_art_id":null,"type":"movie","add":"2021-03-17 14:28:15","orig_title":"World Cup Heist","year":"2020-12-18","translations":["Любительский (многоголосый закадровый) (Синема УС)"],"quality":"webdl","translation":"Любительский (многоголосый закадровый) (Синема УС)","update":"2021-03-18 05:22:01","iframe_src":"//5322.svetacdn.in/71tsRs29n5tZ/movie/48835"},{"id":48820,"title":"Этот счастливый народ","kp_id":"15213","imdb_id":"tt0037367","world_art_id":null,"type":"movie","add":"2021-03-17 06:22:09","orig_title":"This Happy Breed","year":"1944-05-28","translations":["Профессиональный (многоголосый закадровый)"],"quality":"bd","translation":"Профессиональный (многоголосый закадровый)","update":"2021-03-18 07:35:12","iframe_src":"//5322.svetacdn.in/71tsRs29n5tZ/movie/48820"},{"id":48819,"title":"Иностранный корреспондент","kp_id":"9126","imdb_id":"tt0032484","world_art_id":null,"type":"movie","add":"2021-03-17 06:20:44","orig_title":"Foreign Correspondent","year":"1940-08-16","translations":["Профессиональный (многоголосый закадровый)"],"quality":"bd","translation":"Профессиональный (многоголосый закадровый)","update":"2021-03-18 07:42:39","iframe_src":"//5322.svetacdn.in/71tsRs29n5tZ/movie/48819"},{"id":48817,"title":"Жюдекс","kp_id":"190267","imdb_id":"tt0057207","world_art_id":null,"type":"movie","add":"2021-03-17 06:13:40","orig_title":"Judex","year":"1963-12-04","translations":["Авторский (одноголосый закадровый) (Штейн Владимир)"],"quality":"bd","translation":"Авторский (одноголосый закадровый) (Штейн Владимир)","update":"2021-03-18 07:38:39","iframe_src":"//5322.svetacdn.in/71tsRs29n5tZ/movie/48817"},{"id":48816,"title":"Лола","kp_id":"19346","imdb_id":"tt0055093","world_art_id":null,"type":"movie","add":"2021-03-17 06:00:55","orig_title":"Lola","year":"1961-03-03","translations":["Любительский (одноголосый закадровый) (lehachuev)"],"quality":"bd","translation":"Любительский (одноголосый закадровый) (lehachuev)","update":"2021-03-18 07:56:02","iframe_src":"//5322.svetacdn.in/71tsRs29n5tZ/movie/48816"},{"id":48815,"title":"Воскресенья в Виль-д'Эвре","kp_id":"58438","imdb_id":"tt0055910","world_art_id":null,"type":"movie","add":"2021-03-17 05:54:58","orig_title":"Les dimanches de Ville d'Avray","year":"1962-11-12","translations":["Профессиональный (многоголосый закадровый) (5-й канал СПб)"],"quality":"bd","translation":"Профессиональный (многоголосый закадровый) (5-й канал СПб)","update":"2021-03-18 07:39:37","iframe_src":"//5322.svetacdn.in/71tsRs29n5tZ/movie/48815"},{"id":48814,"title":"Невинные","kp_id":"8428","imdb_id":"tt0055018","world_art_id":null,"type":"movie","add":"2021-03-17 05:50:47","orig_title":"The Innocents","year":"1961-11-24","translations":["Авторский (одноголосый закадровый) (Гаврилов Андрей)"],"quality":"bd","translation":"Авторский (одноголосый закадровый) (Гаврилов Андрей)","update":"2021-03-18 07:06:24","iframe_src":"//5322.svetacdn.in/71tsRs29n5tZ/movie/48814"},{"id":48812,"title":"Паства","kp_id":"1103998","imdb_id":"tt7681186","world_art_id":null,"type":"movie","add":"2021-03-16 18:53:14","orig_title":"The Parish","year":"2019-11-15","translations":["Любительский (многоголосый закадровый) (@MUZOBOZ@)"],"quality":"webdl","translation":"Любительский (многоголосый закадровый) (@MUZOBOZ@)","update":"2021-03-17 20:15:03","iframe_src":"//5322.svetacdn.in/71tsRs29n5tZ/movie/48812"},{"id":48810,"title":"Все мертвецы","kp_id":"1181025","imdb_id":"tt8845322","world_art_id":null,"type":"movie","add":"2021-03-16 17:16:55","orig_title":"Todos os Mortos","year":"2020-02-23","translations":["Любительский (многоголосый закадровый) (AlphaProject)"],"quality":"webdl","translation":"Любительский (многоголосый закадровый) (AlphaProject)","update":"2021-03-17 20:15:33","iframe_src":"//5322.svetacdn.in/71tsRs29n5tZ/movie/48810"},{"id":48801,"title":"Воздыхатель","kp_id":"172230","imdb_id":"tt0056514","world_art_id":null,"type":"movie","add":"2021-03-16 14:06:55","orig_title":"Le soupirant","year":"1962-11-12","translations":["Любительский (одноголосый закадровый)"],"quality":"bd","translation":"Любительский (одноголосый закадровый)","update":"2021-03-18 08:36:12","iframe_src":"//5322.svetacdn.in/71tsRs29n5tZ/movie/48801"},{"id":48795,"title":"Трафик","kp_id":"79857","imdb_id":"tt0069400","world_art_id":null,"type":"movie","add":"2021-03-16 07:04:40","orig_title":"Trafic","year":"1971-04-16","translations":["Профессиональный (двухголосый закадровый) (РенТВ)"],"quality":"bd","translation":"Профессиональный (двухголосый закадровый) (РенТВ)","update":"2021-03-18 07:41:37","iframe_src":"//5322.svetacdn.in/71tsRs29n5tZ/movie/48795"},{"id":48725,"title":"Серый в чёрно-белом, часть 2: Выбор","kp_id":"1361774","imdb_id":"tt12008248","world_art_id":null,"type":"movie","add":"2021-03-13 23:07:34","orig_title":"Gray in White and Black Film Project part 2: The Choice","year":"2019-05-31","translations":["Любительский (многоголосый закадровый) (Синема УС)"],"quality":"webdl","translation":"Любительский (многоголосый закадровый) (Синема УС)","update":"2021-03-17 22:02:09","iframe_src":"//5322.svetacdn.in/71tsRs29n5tZ/movie/48725"},{"id":45599,"title":"Цыганская Королева","kp_id":"1060387","imdb_id":"tt6593706","world_art_id":null,"type":"movie","add":"2020-11-25 09:03:48","orig_title":"Gipsy Queen","year":"2019-12-06","translations":["Любительский (многоголосый закадровый) (Синема УС)"],"quality":"webdl","translation":"Любительский (многоголосый закадровый) (Синема УС)","update":"2021-03-18 07:59:10","iframe_src":"//5322.svetacdn.in/71tsRs29n5tZ/movie/45599"},{"id":8397,"title":"Тайная лаборатория","kp_id":null,"imdb_id":"tt12723962","world_art_id":null,"type":"serial","add":"2020-08-07 12:45:05","orig_title":"Mystery Lab","year":"2020-08-04","translations":["Любительский (двухголосый закадровый) (OnisFilms)"],"seasons_count":1,"episodes_count":8,"episodes":8,"update":"2020-08-07 16:27:14","iframe_src":"//5322.svetacdn.in/71tsRs29n5tZ/tv-series/8397"},{"id":8391,"title":"Терминал","kp_id":"532907","imdb_id":null,"world_art_id":null,"type":"serial","add":"2020-08-06 10:16:41","orig_title":"Terminal","year":"2011-03-14","translations":["Оригинальная дорожка"],"seasons_count":1,"episodes_count":24,"episodes":24,"update":"2020-08-08 13:45:31","iframe_src":"//5322.svetacdn.in/71tsRs29n5tZ/tv-series/8391"},{"id":8382,"title":"Опасные связи","kp_id":"969977","imdb_id":"tt5349022","world_art_id":null,"type":"serial","add":"2020-08-06 02:38:33","orig_title":"Ligacoes perigosas","year":"2016-01-04","translations":["Любительский (одноголосый закадровый)"],"seasons_count":1,"episodes_count":10,"episodes":10,"update":"2020-08-07 17:42:41","iframe_src":"//5322.svetacdn.in/71tsRs29n5tZ/tv-series/8382"},{"id":8379,"title":"Каникулы в каньоне","kp_id":"718765","imdb_id":"tt1885560","world_art_id":null,"type":"serial","add":"2020-08-05 21:05:19","orig_title":"Crash Canyon","year":"2011-09-18","translations":["Полное дублирование (2x2)"],"seasons_count":2,"episodes_count":26,"episodes":13,"update":"2020-08-07 21:23:51","iframe_src":"//5322.svetacdn.in/71tsRs29n5tZ/tv-series/8379"},{"id":8378,"title":"Эон Флакс","kp_id":"229646","imdb_id":"tt0111873","world_art_id":null,"type":"serial","add":"2020-08-05 20:48:14","orig_title":"Æon Flux","year":"1991-06-30","translations":["Профессиональный (многоголосый закадровый)"],"seasons_count":3,"episodes_count":16,"episodes":10,"update":"2020-08-07 21:14:20","iframe_src":"//5322.svetacdn.in/71tsRs29n5tZ/tv-series/8378"},{"id":8375,"title":"Великолепная четвёрка","kp_id":"390372","imdb_id":"tt0278231","world_art_id":null,"type":"serial","add":"2020-08-05 12:31:43","orig_title":"Quads!","year":"2001-02-02","translations":["Профессиональный (многоголосый закадровый) (2x2)"],"seasons_count":2,"episodes_count":26,"episodes":13,"update":"2020-08-07 21:02:03","iframe_src":"//5322.svetacdn.in/71tsRs29n5tZ/tv-series/8375"},{"id":8374,"title":"Легенда о принце Валианте","kp_id":"102717","imdb_id":"tt0101171","world_art_id":null,"type":"serial","add":"2020-08-05 12:07:43","orig_title":"The Legend of Prince Valiant","year":"1991-09-03","translations":["Полное дублирование"],"seasons_count":2,"episodes_count":65,"episodes":39,"update":"2020-08-07 13:50:24","iframe_src":"//5322.svetacdn.in/71tsRs29n5tZ/tv-series/8374"},{"id":8275,"title":"Алло, алло!","kp_id":"404592","imdb_id":"tt0086659","world_art_id":null,"type":"serial","add":"2020-07-28 13:00:13","orig_title":"'Allo 'Allo!","year":"1984-09-14","translations":["Профессиональный (многоголосый закадровый) (НСТ)","Профессиональный (двухголосый закадровый)"],"seasons_count":9,"episodes_count":84,"episodes":6,"update":"2020-08-07 22:00:54","iframe_src":"//5322.svetacdn.in/71tsRs29n5tZ/tv-series/8275"},{"id":8258,"title":"Вердикт - Штат против Нанавати","kp_id":"1207319","imdb_id":"tt9193600","world_art_id":null,"type":"serial","add":"2020-07-27 11:32:49","orig_title":"The Verdict - State Vs Nanavati","year":"2019-09-30","translations":["Любительский (многоголосый закадровый) (Octopus)","Любительский (многоголосый закадровый) (ColdFilm)"],"seasons_count":1,"episodes_count":10,"episodes":10,"update":"2020-08-07 16:28:18","iframe_src":"//5322.svetacdn.in/71tsRs29n5tZ/tv-series/8258"},{"id":7968,"title":"Чуть свет — в Кэндлфорд","kp_id":"474837","imdb_id":"tt1077744","world_art_id":null,"type":"serial","add":"2020-06-22 06:31:01","orig_title":"Lark Rise to Candleford","year":"2008-01-13","translations":["Профессиональный (многоголосый закадровый) (Культура)","Профессиональный (многоголосый закадровый) (FocusX)","Любительский (одноголосый закадровый)"],"seasons_count":4,"episodes_count":37,"episodes":6,"update":"2020-08-07 07:22:48","iframe_src":"//5322.svetacdn.in/71tsRs29n5tZ/tv-series/7968"},{"id":5445,"title":"Ослепленные огнями","kp_id":"1228354","imdb_id":"tt6520930","world_art_id":null,"type":"serial","add":"2019-10-11 19:34:09","orig_title":"Blinded by the Lights","year":"2018-10-27","translations":["Любительский (двухголосый закадровый) (KinoGolos)","Профессиональный (многоголосый закадровый) (HDrezka Studio)"],"seasons_count":1,"episodes_count":8,"episodes":8,"update":"2020-08-07 04:56:40","iframe_src":"//5322.svetacdn.in/71tsRs29n5tZ/tv-series/5445"},{"id":4758,"title":"Когда они нас увидят","kp_id":"1174230","imdb_id":"tt7137906","world_art_id":null,"type":"serial","add":"2019-06-27 10:58:34","orig_title":"When They See Us","year":"2019-05-31","translations":["Профессиональный (многоголосый закадровый) (NewStudio)","Профессиональный (многоголосый закадровый) (HDrezka Studio)","Профессиональный (многоголосый закадровый) (TVShows)"],"seasons_count":1,"episodes_count":4,"episodes":4,"update":"2020-08-07 07:42:21","iframe_src":"//5322.svetacdn.in/71tsRs29n5tZ/tv-series/4758"},{"id":4645,"title":"Городские истории","kp_id":"1150413","imdb_id":"tt7087260","world_art_id":null,"type":"serial","add":"2019-06-10 07:09:25","orig_title":"Tales of the City","year":"2019-06-07","translations":["Профессиональный (одноголосый закадровый)","Профессиональный (многоголосый закадровый) (HDrezka Studio)","Профессиональный (многоголосый закадровый) (TVShows)"],"seasons_count":1,"episodes_count":10,"episodes":10,"update":"2020-08-07 15:49:11","iframe_src":"//5322.svetacdn.in/71tsRs29n5tZ/tv-series/4645"},{"id":4369,"title":"Сумеречная зона","kp_id":"762172","imdb_id":"tt2583620","world_art_id":null,"type":"serial","add":"2019-04-07 16:31:18","orig_title":"The Twilight Zone","year":"2019-04-01","translations":["Профессиональный (многоголосый закадровый) (AlexFilm)","Профессиональный (многоголосый закадровый) (NewStudio)","Профессиональный (многоголосый закадровый) (HDrezka Studio)","Профессиональный (многоголосый закадровый) (Novamedia)","Профессиональный (многоголосый закадровый) (Profix Media)","Любительский (многоголосый закадровый) (ColdFilm)","Любительский (многоголосый закадровый) (Octopus)","Любительский (многоголосый закадровый) (KerobTV)","Профессиональный (многоголосый закадровый) (IdeaFilm)","Профессиональный (многоголосый закадровый) (Jaskier)","Профессиональный (многоголосый закадровый) (OMSKBIRD records)"],"seasons_count":2,"episodes_count":20,"episodes":10,"update":"2020-08-07 17:48:31","iframe_src":"//5322.svetacdn.in/71tsRs29n5tZ/tv-series/4369"},{"id":3696,"title":"Убей меня, исцели меня","kp_id":"885737","imdb_id":"tt4339192","world_art_id":null,"type":"serial","add":"2018-12-14 09:31:05","orig_title":"Kilmi, hilmi","year":"2015-01-07","translations":["Любительский (двухголосый закадровый) (GREEN TEA)","Профессиональный (двухголосый закадровый) (Нарышкин)"],"seasons_count":1,"episodes_count":20,"episodes":20,"update":"2020-08-07 11:59:29","iframe_src":"//5322.svetacdn.in/71tsRs29n5tZ/tv-series/3696"},{"id":3693,"title":"Ментовские войны 6","kp_id":"606937","imdb_id":"tt4423228","world_art_id":null,"type":"serial","add":"2018-12-14 08:52:47","orig_title":"Mentovskie voyny - 6","year":"2012-02-06","translations":["Оригинальная дорожка"],"seasons_count":1,"episodes_count":16,"episodes":16,"update":"2020-08-07 07:37:30","iframe_src":"//5322.svetacdn.in/71tsRs29n5tZ/tv-series/3693"},{"id":3167,"title":"Незнакомцы","kp_id":"1189945","imdb_id":"tt7551216","world_art_id":null,"type":"serial","add":"2018-09-14 09:56:16","orig_title":"Strangers","year":"2018-09-10","translations":["Профессиональный (многоголосый закадровый) (IdeaFilm)","Профессиональный (многоголосый закадровый) (HDrezka Studio)"],"seasons_count":1,"episodes_count":8,"episodes":8,"update":"2020-08-07 13:19:59","iframe_src":"//5322.svetacdn.in/71tsRs29n5tZ/tv-series/3167"},{"id":2892,"title":"Кандис Ренуар","kp_id":"796030","imdb_id":"tt2819924","world_art_id":null,"type":"serial","add":"2018-07-06 07:28:15","orig_title":"Candice Renoir","year":"2013-04-19","translations":["Профессиональный (многоголосый закадровый)","Профессиональный (многоголосый закадровый) (Fox Life)","Профессиональный (многоголосый закадровый) (Игмар)","Любительский (многоголосый закадровый) (ColdFilm)","Любительский (многоголосый закадровый) (Octopus)"],"seasons_count":8,"episodes_count":78,"episodes":10,"update":"2020-08-07 17:27:28","iframe_src":"//5322.svetacdn.in/71tsRs29n5tZ/tv-series/2892"},{"id":17467,"title":"Кот","kp_id":"26761","imdb_id":"tt0066906","world_art_id":null,"type":"movie","add":"2018-06-29 11:48:21","orig_title":"Le chat","year":"1971-04-24","translations":["Профессиональный (многоголосый закадровый)","Профессиональный (многоголосый закадровый) (Неоклассика)"],"quality":"hdtv","translation":"Профессиональный (многоголосый закадровый)","update":"2021-03-18 07:53:38","iframe_src":"//5322.svetacdn.in/71tsRs29n5tZ/movie/17467"},{"id":2545,"title":"Женщина в белом","kp_id":"1117958","imdb_id":"tt6036728","world_art_id":null,"type":"serial","add":"2018-05-09 04:43:43","orig_title":"The Woman in White","year":"2018-04-22","translations":["Профессиональный (многоголосый закадровый) (BaibaKo)","Профессиональный (многоголосый закадровый) (HDrezka Studio)"],"seasons_count":1,"episodes_count":5,"episodes":5,"update":"2020-08-07 05:04:40","iframe_src":"//5322.svetacdn.in/71tsRs29n5tZ/tv-series/2545"},{"id":430,"title":"Стартап","kp_id":"972878","imdb_id":"tt5028002","world_art_id":null,"type":"serial","add":"2016-09-09 17:08:49","orig_title":"StartUp","year":"2016-09-06","translations":["Профессиональный (многоголосый закадровый) (NewStudio)","Профессиональный (многоголосый закадровый) (LostFilm)","Профессиональный (двухголосый закадровый) (Gears Media)","Профессиональный (многоголосый закадровый) (Jaskier)","Полное дублирование (True Dubbing Studio)","Профессиональный (многоголосый закадровый) (IdeaFilm)","Профессиональный (многоголосый закадровый) (HDrezka Studio)"],"seasons_count":3,"episodes_count":30,"episodes":10,"update":"2020-08-08 13:37:24","iframe_src":"//5322.svetacdn.in/71tsRs29n5tZ/tv-series/430"},{"id":2466,"title":"Быстрый и мёртвый","kp_id":"2273","imdb_id":"tt0114214","world_art_id":null,"type":"movie","add":"2016-05-23 12:17:54","orig_title":"The Quick and the Dead","year":"1995-02-10","translations":["Полное дублирование","Авторский (одноголосый закадровый) (Гаврилов Андрей)","Авторский (одноголосый закадровый) (Визгунов Сергей)","Полное дублирование","Original (English)","Профессиональный (многоголосый закадровый)","Профессиональный (многоголосый закадровый) (Первый канал | ОРТ)"],"quality":"bd","translation":"Полное дублирование","update":"2021-03-18 09:39:44","iframe_src":"//5322.svetacdn.in/71tsRs29n5tZ/movie/2466"}],"current_page":164,"first_page_url":"https://videocdn.tv/api/short?limit=100&api_token=EnbO9h8pv1VyjbCJhg0WM9nG259n7mtz&cache3164=3164&page=1","from":16301,"last_page":626,"last_page_url":"https://videocdn.tv/api/short?limit=100&api_token=EnbO9h8pv1VyjbCJhg0WM9nG259n7mtz&cache3164=3164&page=626","next_page_url":"https://videocdn.tv/api/short?limit=100&api_token=EnbO9h8pv1VyjbCJhg0WM9nG259n7mtz&cache3164=3164&page=165","path":"https://videocdn.tv/api/short","per_page":100,"prev_page_url":"https://videocdn.tv/api/short?limit=100&api_token=EnbO9h8pv1VyjbCJhg0WM9nG259n7mtz&cache3164=3164&page=163","to":16340,"total":62573}