{"result":true,"data":[{"id":20260,"title":"Секс втроем","kp_id":"1035099","imdb_id":"tt6465940","world_art_id":null,"type":"movie","add":"2018-11-22 23:15:36","orig_title":"Threesomething","year":"2018-08-21","translations":["Любительский (многоголосый закадровый) (Синема УС)"],"quality":"webdl","translation":"Любительский (многоголосый закадровый) (Синема УС)","update":"2018-11-23 08:16:24","iframe_src":"//8543.svetacdn.in/IAF0wWTdNYZm/movie/20260"},{"id":20240,"title":"Уже Рождество, Ив","kp_id":"1141871","imdb_id":"tt8300786","world_art_id":null,"type":"movie","add":"2018-11-22 08:01:05","orig_title":"It's Christmas, Eve","year":"2018-11-10","translations":["Любительский (многоголосый закадровый) (Синема УС)"],"quality":"hdtv","translation":"Любительский (многоголосый закадровый) (Синема УС)","update":"2018-11-22 10:01:04","iframe_src":"//8543.svetacdn.in/IAF0wWTdNYZm/movie/20240"},{"id":19880,"title":"Приветствие джаггера","kp_id":"1113","imdb_id":"tt0094764","world_art_id":null,"type":"movie","add":"2018-10-31 12:10:01","orig_title":"The Blood of Heroes","year":"1989-09-13","translations":["Профессиональный (многоголосый закадровый)","Original (English)"],"quality":"bd","translation":"Профессиональный (многоголосый закадровый)","update":"2018-11-22 12:22:01","iframe_src":"//8543.svetacdn.in/IAF0wWTdNYZm/movie/19880"},{"id":19878,"title":"Маленький большой человек","kp_id":"2826","imdb_id":"tt0065988","world_art_id":null,"type":"movie","add":"2018-10-31 12:07:55","orig_title":"Little Big Man","year":"1970-12-14","translations":["Профессиональный (многоголосый закадровый)","Original (English)"],"quality":"bd","translation":"Профессиональный (многоголосый закадровый)","update":"2018-11-22 12:22:49","iframe_src":"//8543.svetacdn.in/IAF0wWTdNYZm/movie/19878"},{"id":19875,"title":"Незабываемый роман","kp_id":"986","imdb_id":"tt0050105","world_art_id":null,"type":"movie","add":"2018-10-31 12:04:06","orig_title":"An Affair to Remember","year":"1957-07-11","translations":["Профессиональный (многоголосый закадровый)","Original (English)"],"quality":"bd","translation":"Профессиональный (многоголосый закадровый)","update":"2018-11-22 12:23:48","iframe_src":"//8543.svetacdn.in/IAF0wWTdNYZm/movie/19875"},{"id":19874,"title":"Таинственная стена","kp_id":"298742","imdb_id":"tt0386108","world_art_id":null,"type":"movie","add":"2018-10-31 12:02:50","orig_title":"Wall of Secrets","year":"2004-03-06","translations":["Профессиональный (двухголосый закадровый)","Original (English)"],"quality":"webdl","translation":"Профессиональный (двухголосый закадровый)","update":"2018-11-22 12:24:35","iframe_src":"//8543.svetacdn.in/IAF0wWTdNYZm/movie/19874"},{"id":19873,"title":"Белый рассвет","kp_id":"9301","imdb_id":"tt0072403","world_art_id":null,"type":"movie","add":"2018-10-31 12:01:56","orig_title":"The White Dawn","year":"1974-07-21","translations":["Профессиональный (двухголосый закадровый)","Original (English)"],"quality":"webdl","translation":"Профессиональный (двухголосый закадровый)","update":"2018-11-22 12:25:50","iframe_src":"//8543.svetacdn.in/IAF0wWTdNYZm/movie/19873"},{"id":19872,"title":"Жестокие улицы","kp_id":"88160","imdb_id":"tt0437459","world_art_id":null,"type":"movie","add":"2018-10-31 12:00:59","orig_title":"Rollin' with the Nines","year":"2006-04-21","translations":["Профессиональный (двухголосый закадровый)","Original (English)"],"quality":"webdl","translation":"Профессиональный (двухголосый закадровый)","update":"2018-11-22 12:26:25","iframe_src":"//8543.svetacdn.in/IAF0wWTdNYZm/movie/19872"},{"id":19871,"title":"Зодчий теней","kp_id":"21251","imdb_id":"tt0117611","world_art_id":null,"type":"movie","add":"2018-10-31 12:00:04","orig_title":"Shadow Builder","year":"1998-02-07","translations":["Профессиональный (двухголосый закадровый)","Original (English)"],"quality":"bd","translation":"Профессиональный (двухголосый закадровый)","update":"2018-11-22 12:27:20","iframe_src":"//8543.svetacdn.in/IAF0wWTdNYZm/movie/19871"},{"id":19695,"title":"С любовью спешить не стоит","kp_id":"23614","imdb_id":"tt0096483","world_art_id":null,"type":"movie","add":"2018-10-22 12:53:51","orig_title":"You Can't Hurry Love","year":"1988-01-20","translations":["Профессиональный (многоголосый закадровый)","Original (English)"],"quality":"webdl","translation":"Профессиональный (многоголосый закадровый)","update":"2018-11-22 09:18:52","iframe_src":"//8543.svetacdn.in/IAF0wWTdNYZm/movie/19695"},{"id":19694,"title":"Желтый роллс-ройс","kp_id":"932","imdb_id":"tt0059927","world_art_id":null,"type":"movie","add":"2018-10-22 12:50:42","orig_title":"The Yellow Rolls-Royce","year":"1964-12-31","translations":["Профессиональный (многоголосый закадровый) (ТНТ)","Original (English)"],"quality":"webdl","translation":"Профессиональный (многоголосый закадровый) (ТНТ)","update":"2018-11-22 09:18:11","iframe_src":"//8543.svetacdn.in/IAF0wWTdNYZm/movie/19694"},{"id":19693,"title":"Преследование Д. Б. Купера","kp_id":"7201","imdb_id":"tt0082958","world_art_id":null,"type":"movie","add":"2018-10-22 12:49:30","orig_title":"The Pursuit of D.B. Cooper","year":"1981-11-13","translations":["Профессиональный (многоголосый закадровый)","Original (English)"],"quality":"webdl","translation":"Профессиональный (многоголосый закадровый)","update":"2018-11-22 09:17:18","iframe_src":"//8543.svetacdn.in/IAF0wWTdNYZm/movie/19693"},{"id":19692,"title":"Арена","kp_id":"25181","imdb_id":"tt0069729","world_art_id":null,"type":"movie","add":"2018-10-22 12:48:31","orig_title":"The Arena","year":"1974-03-13","translations":["Профессиональный (многоголосый закадровый)","Original (English)"],"quality":"webdl","translation":"Профессиональный (многоголосый закадровый)","update":"2018-11-22 09:16:01","iframe_src":"//8543.svetacdn.in/IAF0wWTdNYZm/movie/19692"},{"id":19691,"title":"Завещание","kp_id":"5446","imdb_id":"tt0086429","world_art_id":null,"type":"movie","add":"2018-10-22 12:46:51","orig_title":"Testament","year":"1983-11-04","translations":["Профессиональный (многоголосый закадровый) (Paramount Channel)","Original (English)"],"quality":"webdl","translation":"Профессиональный (многоголосый закадровый) (Paramount Channel)","update":"2018-11-22 09:14:45","iframe_src":"//8543.svetacdn.in/IAF0wWTdNYZm/movie/19691"},{"id":19690,"title":"Телефон","kp_id":"13583","imdb_id":"tt0076804","world_art_id":null,"type":"movie","add":"2018-10-22 12:45:56","orig_title":"Telefon","year":"1977-12-16","translations":["Профессиональный (многоголосый закадровый) (5-й канал СПб)","Original (English)"],"quality":"webdl","translation":"Профессиональный (многоголосый закадровый) (5-й канал СПб)","update":"2018-11-22 09:13:53","iframe_src":"//8543.svetacdn.in/IAF0wWTdNYZm/movie/19690"},{"id":19689,"title":"Гонщик Строкер","kp_id":"24949","imdb_id":"tt0086379","world_art_id":null,"type":"movie","add":"2018-10-22 12:44:51","orig_title":"Stroker Ace","year":"1983-07-01","translations":["Профессиональный (многоголосый закадровый) (СТС)","Original (English)"],"quality":"webdl","translation":"Профессиональный (многоголосый закадровый) (СТС)","update":"2018-11-22 09:13:18","iframe_src":"//8543.svetacdn.in/IAF0wWTdNYZm/movie/19689"},{"id":19688,"title":"Война Мерфи","kp_id":"10151","imdb_id":"tt0067458","world_art_id":null,"type":"movie","add":"2018-10-22 12:44:00","orig_title":"Murphy's War","year":"1971-01-13","translations":["Профессиональный (многоголосый закадровый)","Original (English)"],"quality":"webdl","translation":"Профессиональный (многоголосый закадровый)","update":"2018-11-22 09:11:59","iframe_src":"//8543.svetacdn.in/IAF0wWTdNYZm/movie/19688"},{"id":19687,"title":"Грязное дело","kp_id":"16252","imdb_id":"tt0073133","world_art_id":null,"type":"movie","add":"2018-10-22 12:43:03","orig_title":"Hustle","year":"1975-12-25","translations":["Профессиональный (многоголосый закадровый) (Paramount Channel)","Original (English)"],"quality":"webdl","translation":"Профессиональный (многоголосый закадровый) (Paramount Channel)","update":"2018-11-22 09:10:30","iframe_src":"//8543.svetacdn.in/IAF0wWTdNYZm/movie/19687"},{"id":19686,"title":"Фактотум","kp_id":"81663","imdb_id":"tt0417658","world_art_id":null,"type":"movie","add":"2018-10-22 12:40:37","orig_title":"Factotum","year":"2005-04-12","translations":["Профессиональный (многоголосый закадровый) (Первый канал | ОРТ)","Original (English)"],"quality":"webdl","translation":"Профессиональный (многоголосый закадровый) (Первый канал | ОРТ)","update":"2018-11-22 09:09:40","iframe_src":"//8543.svetacdn.in/IAF0wWTdNYZm/movie/19686"},{"id":14098,"title":"Гидра: Затерянный остров","kp_id":"325389","imdb_id":"tt1034447","world_art_id":null,"type":"movie","add":"2017-10-27 07:55:21","orig_title":"Hydra","year":"2009-02-22","translations":["Профессиональный (многоголосый закадровый)","Original (English)"],"quality":"webdl","translation":"Профессиональный (многоголосый закадровый)","update":"2018-11-22 12:20:23","iframe_src":"//8543.svetacdn.in/IAF0wWTdNYZm/movie/14098"}],"current_page":1629,"first_page_url":"https://videocdn.tv/api/short?limit=100&api_token=6Onb1W1alEUrBcKJZD3GoKBbWyAl2uG2&cache31629=31629&page=1","from":162801,"last_page":610,"last_page_url":"https://videocdn.tv/api/short?limit=100&api_token=6Onb1W1alEUrBcKJZD3GoKBbWyAl2uG2&cache31629=31629&page=610","next_page_url":null,"path":"https://videocdn.tv/api/short","per_page":100,"prev_page_url":"https://videocdn.tv/api/short?limit=100&api_token=6Onb1W1alEUrBcKJZD3GoKBbWyAl2uG2&cache31629=31629&page=1628","to":162820,"total":60948}