{"result":true,"data":[{"id":42194,"title":"Феномен «Бумажного дома»","kp_id":"1387142","imdb_id":"tt12078990","world_art_id":null,"type":"movie","add":"2020-08-02 15:33:25","orig_title":"La casa de papel: El fenómeno","year":"2020-04-03","translations":["Профессиональный (многоголосый закадровый) (HDrezka Studio)"],"quality":"webdl","translation":"Профессиональный (многоголосый закадровый) (HDrezka Studio)","update":"2020-08-02 19:02:47","iframe_src":"//8332.svetacdn.in/si4jsFRrtgrT/movie/42194"},{"id":42172,"title":"Нюрнберг: Нацисты перед лицом своих преступлений","kp_id":"470052","imdb_id":"tt0889626","world_art_id":null,"type":"movie","add":"2020-07-31 21:27:31","orig_title":"Nuremberg - Les nazis face à leurs crimes","year":"2006-10-04","translations":["Профессиональный (многоголосый закадровый)"],"quality":"sat","translation":"Профессиональный (многоголосый закадровый)","update":"2020-08-01 07:06:13","iframe_src":"//8332.svetacdn.in/si4jsFRrtgrT/movie/42172"},{"id":42171,"title":"Шутки в сторону","kp_id":"1392013","imdb_id":"tt11010144","world_art_id":null,"type":"movie","add":"2020-07-31 21:04:32","orig_title":"Seriously Single","year":"2020-07-31","translations":["Любительский (многоголосый закадровый) (Синема УС)"],"quality":"webdl","translation":"Любительский (многоголосый закадровый) (Синема УС)","update":"2020-08-01 07:05:51","iframe_src":"//8332.svetacdn.in/si4jsFRrtgrT/movie/42171"},{"id":42169,"title":"Чёрный - цвет королей","kp_id":"1390874","imdb_id":"tt12607910","world_art_id":null,"type":"movie","add":"2020-07-31 20:54:06","orig_title":"Black Is King","year":"2020-07-31","translations":["Любительский (многоголосый закадровый) (Синема УС)"],"quality":"webdl","translation":"Любительский (многоголосый закадровый) (Синема УС)","update":"2020-08-01 06:18:05","iframe_src":"//8332.svetacdn.in/si4jsFRrtgrT/movie/42169"},{"id":42168,"title":"Случайные акты насилия","kp_id":"587141","imdb_id":"tt1925493","world_art_id":null,"type":"movie","add":"2020-07-31 20:52:17","orig_title":"Random Acts of Violence","year":"2019-09-19","translations":["Любительский (многоголосый закадровый) (@MUZOBOZ@)"],"quality":"webdl","translation":"Любительский (многоголосый закадровый) (@MUZOBOZ@)","update":"2020-08-01 06:17:22","iframe_src":"//8332.svetacdn.in/si4jsFRrtgrT/movie/42168"},{"id":42167,"title":"Страна солнца","kp_id":"1044792","imdb_id":"tt6841122","world_art_id":null,"type":"movie","add":"2020-07-31 20:50:36","orig_title":"Summerland","year":"2020-07-31","translations":["Любительский (многоголосый закадровый) (@MUZOBOZ@)"],"quality":"webdl","translation":"Любительский (многоголосый закадровый) (@MUZOBOZ@)","update":"2020-08-01 06:16:53","iframe_src":"//8332.svetacdn.in/si4jsFRrtgrT/movie/42167"},{"id":42151,"title":"Три желания","kp_id":"1021635","imdb_id":"tt6364538","world_art_id":null,"type":"movie","add":"2020-07-31 12:43:31","orig_title":"Prání k mání","year":"2017-12-07","translations":["Любительский (многоголосый закадровый) (Синема УС)"],"quality":"webdl","translation":"Любительский (многоголосый закадровый) (Синема УС)","update":"2020-07-31 20:28:25","iframe_src":"//8332.svetacdn.in/si4jsFRrtgrT/movie/42151"},{"id":42150,"title":"Моя семья в беспорядке","kp_id":"938797","imdb_id":"tt4792446","world_art_id":null,"type":"movie","add":"2020-07-31 12:40:51","orig_title":"La mia famiglia a soqquadro","year":"2017-03-30","translations":["Любительский (многоголосый закадровый) (Синема УС)"],"quality":"webdl","translation":"Любительский (многоголосый закадровый) (Синема УС)","update":"2020-07-31 20:28:47","iframe_src":"//8332.svetacdn.in/si4jsFRrtgrT/movie/42150"},{"id":42149,"title":"Милеа: звуки прошлого от Дилана","kp_id":"1318521","imdb_id":"tt11127878","world_art_id":null,"type":"movie","add":"2020-07-31 12:38:16","orig_title":"Milea: Suara dari Dilan","year":"2020-02-13","translations":["Любительский (многоголосый закадровый) (Синема УС)"],"quality":"webdl","translation":"Любительский (многоголосый закадровый) (Синема УС)","update":"2020-07-31 19:04:44","iframe_src":"//8332.svetacdn.in/si4jsFRrtgrT/movie/42149"},{"id":42148,"title":"Пять вещей, которые я не понимаю","kp_id":"1255620","imdb_id":"tt10050722","world_art_id":null,"type":"movie","add":"2020-07-31 12:35:52","orig_title":"Thing I Don't Get","year":"2018-10-24","translations":["Любительский (многоголосый закадровый) (Синема УС)"],"quality":"webdl","translation":"Любительский (многоголосый закадровый) (Синема УС)","update":"2020-07-31 20:29:47","iframe_src":"//8332.svetacdn.in/si4jsFRrtgrT/movie/42148"},{"id":42147,"title":"Клянусь тебе, это не я!","kp_id":null,"imdb_id":"tt4980154","world_art_id":null,"type":"movie","add":"2020-07-31 12:33:47","orig_title":"Te juro que yo no fui","year":"2018-10-12","translations":["Любительский (многоголосый закадровый) (AlphaProject)"],"quality":"webdl","translation":"Любительский (многоголосый закадровый) (AlphaProject)","update":"2020-07-31 20:30:37","iframe_src":"//8332.svetacdn.in/si4jsFRrtgrT/movie/42147"},{"id":42146,"title":"Старший брат","kp_id":"1072462","imdb_id":"tt6409416","world_art_id":null,"type":"movie","add":"2020-07-31 12:28:47","orig_title":"Moothon","year":"2019-09-09","translations":["Любительский (многоголосый закадровый) (Синема УС)"],"quality":"webdl","translation":"Любительский (многоголосый закадровый) (Синема УС)","update":"2020-07-31 20:31:19","iframe_src":"//8332.svetacdn.in/si4jsFRrtgrT/movie/42146"},{"id":42019,"title":"Люби, если можешь","kp_id":"989258","imdb_id":"tt5820810","world_art_id":null,"type":"movie","add":"2020-07-26 16:48:47","orig_title":"Love Possibly","year":"2018-08-01","translations":["Любительский (многоголосый закадровый) (Синема УС)"],"quality":"webdl","translation":"Любительский (многоголосый закадровый) (Синема УС)","update":"2020-07-31 15:22:23","iframe_src":"//8332.svetacdn.in/si4jsFRrtgrT/movie/42019"},{"id":38083,"title":"Роковая связь","kp_id":"977303","imdb_id":"tt5688068","world_art_id":null,"type":"movie","add":"2020-03-17 06:56:57","orig_title":"Above Suspicion","year":"2019-07-04","translations":["Любительский (многоголосый закадровый) (AlphaProject)","Профессиональный (многоголосый закадровый) (iTunes)"],"quality":"webdl","translation":"Любительский (многоголосый закадровый) (AlphaProject)","update":"2020-07-31 11:38:46","iframe_src":"//8332.svetacdn.in/si4jsFRrtgrT/movie/38083"},{"id":22241,"title":"Красиво сломленные","kp_id":"973407","imdb_id":"tt5645932","world_art_id":null,"type":"movie","add":"2019-02-12 09:02:15","orig_title":"Beautifully Broken","year":"2018-08-24","translations":["Любительский (многоголосый закадровый) (Синема УС)","Профессиональный (многоголосый закадровый) (HDrezka Studio)"],"quality":"dvdrip","translation":"Любительский (многоголосый закадровый) (Синема УС)","update":"2020-08-03 17:53:21","iframe_src":"//8332.svetacdn.in/si4jsFRrtgrT/movie/22241"},{"id":21926,"title":"Смерть на воде","kp_id":"1189410","imdb_id":"tt8883164","world_art_id":null,"type":"movie","add":"2019-01-30 04:24:14","orig_title":"Dead in the Water","year":"2018-10-27","translations":["Любительский (многоголосый закадровый) (Синема УС)","Любительский (одноголосый закадровый) (HiWay Grope)","Профессиональный (многоголосый закадровый) (HDrezka Studio)","Профессиональный (многоголосый закадровый) (HDrezka Studio)"],"quality":"webdl","translation":"Любительский (многоголосый закадровый) (Синема УС)","update":"2020-08-03 17:52:32","iframe_src":"//8332.svetacdn.in/si4jsFRrtgrT/movie/21926"},{"id":19801,"title":"Улисс: Тёмная Одиссея","kp_id":"983174","imdb_id":"tt5581752","world_art_id":null,"type":"movie","add":"2018-10-26 20:42:36","orig_title":"Ulysses: A Dark Odyssey","year":"2018-06-14","translations":["Любительский (многоголосый закадровый) (@MUZOBOZ@)","Профессиональный (многоголосый закадровый) (HDrezka Studio)"],"quality":"bd","translation":"Любительский (многоголосый закадровый) (@MUZOBOZ@)","update":"2020-08-03 17:51:07","iframe_src":"//8332.svetacdn.in/si4jsFRrtgrT/movie/19801"},{"id":10068,"title":"В зоне особого внимания","kp_id":"45650","imdb_id":"tt0078450","world_art_id":null,"type":"movie","add":"2017-02-26 07:11:14","orig_title":"V zone osobogo vnimaniya","year":"1978-10-29","translations":["Оригинальная дорожка","Оригинальная дорожка"],"quality":"webdl","translation":"Оригинальная дорожка","update":"2020-07-31 11:33:30","iframe_src":"//8332.svetacdn.in/si4jsFRrtgrT/movie/10068"},{"id":7882,"title":"Ликвидаторы","kp_id":"900615","imdb_id":"tt4587366","world_art_id":null,"type":"movie","add":"2016-12-06 12:48:22","orig_title":"Eliminators","year":"2016-10-11","translations":["Любительский (многоголосый закадровый)","Профессиональный (многоголосый закадровый) (iTunes)"],"quality":"bd","translation":"Любительский (многоголосый закадровый)","update":"2020-07-31 11:40:46","iframe_src":"//8332.svetacdn.in/si4jsFRrtgrT/movie/7882"},{"id":5032,"title":"Кикбоксер 2: Дорога назад","kp_id":"11882","imdb_id":"tt0102202","world_art_id":null,"type":"movie","add":"2016-09-05 10:57:59","orig_title":"Kickboxer 2: The Road Back","year":"1991-02-01","translations":["Профессиональный (многоголосый закадровый)","Авторский (одноголосый закадровый) (Гаврилов Андрей)","Авторский (одноголосый закадровый) (Кузнецов Сергей)","Авторский (одноголосый закадровый) (Сербин Юрий)","Original (English)","Профессиональный (двухголосый закадровый) (НТВ)","Профессиональный (многоголосый закадровый) (РТР | Россия)"],"quality":"webdl","translation":"Профессиональный (многоголосый закадровый)","update":"2020-07-31 11:54:47","iframe_src":"//8332.svetacdn.in/si4jsFRrtgrT/movie/5032"}],"current_page":613,"first_page_url":"https://videocdn.tv/api/short?limit=100&api_token=X6EwAUfE5M9xbo7y0Bp0aPf3uXxG2KLL&cache3613=3613&page=1","from":61201,"last_page":638,"last_page_url":"https://videocdn.tv/api/short?limit=100&api_token=X6EwAUfE5M9xbo7y0Bp0aPf3uXxG2KLL&cache3613=3613&page=638","next_page_url":"https://videocdn.tv/api/short?limit=100&api_token=X6EwAUfE5M9xbo7y0Bp0aPf3uXxG2KLL&cache3613=3613&page=614","path":"https://videocdn.tv/api/short","per_page":100,"prev_page_url":"https://videocdn.tv/api/short?limit=100&api_token=X6EwAUfE5M9xbo7y0Bp0aPf3uXxG2KLL&cache3613=3613&page=612","to":61220,"total":63713}