{"result":true,"data":[{"id":19307,"title":"Молли","kp_id":"1039972","imdb_id":"tt6522982","world_art_id":null,"type":"movie","add":"2018-09-30 21:13:03","orig_title":"Molly","year":"2017-02-11","translations":["Любительский (многоголосый закадровый) (Синема УС)"],"quality":"webdl","translation":"Любительский (многоголосый закадровый) (Синема УС)","update":"2018-10-01 06:59:45","iframe_src":"//8543.svetacdn.in/71tsRs29n5tZ/movie/19307"},{"id":19304,"title":"Вопреки судьбе","kp_id":"1192360","imdb_id":null,"world_art_id":null,"type":"movie","add":"2018-09-30 20:32:15","orig_title":"Вопреки судьбе","year":"2018-09-29","translations":["Оригинальная дорожка"],"quality":"webdl","translation":"Оригинальная дорожка","update":"2018-10-01 07:04:10","iframe_src":"//8543.svetacdn.in/71tsRs29n5tZ/movie/19304"},{"id":19303,"title":"Поездка на Луну","kp_id":"1096924","imdb_id":"tt5858968","world_art_id":null,"type":"movie","add":"2018-09-30 20:30:46","orig_title":"Un viaje a la Luna","year":"2018-03-01","translations":["Любительский (многоголосый закадровый) (Синема УС)"],"quality":"webdl","translation":"Любительский (многоголосый закадровый) (Синема УС)","update":"2018-10-01 07:48:08","iframe_src":"//8543.svetacdn.in/71tsRs29n5tZ/movie/19303"},{"id":19300,"title":"Человек, который любит себе вредить","kp_id":null,"imdb_id":"tt6856540","world_art_id":null,"type":"movie","add":"2018-09-30 20:23:12","orig_title":"The Man Who Loves to Hurt Himself","year":"2017-05-01","translations":["Любительский (многоголосый закадровый) (Синема УС)"],"quality":"bd","translation":"Любительский (многоголосый закадровый) (Синема УС)","update":"2018-10-01 07:10:35","iframe_src":"//8543.svetacdn.in/71tsRs29n5tZ/movie/19300"},{"id":19298,"title":"Кое-что напоследок","kp_id":"972498","imdb_id":"tt5327410","world_art_id":null,"type":"movie","add":"2018-09-30 20:18:15","orig_title":"One Last Thing","year":"2018-06-13","translations":["Любительский (многоголосый закадровый) (Синема УС)"],"quality":"dvdrip","translation":"Любительский (многоголосый закадровый) (Синема УС)","update":"2018-10-01 07:47:10","iframe_src":"//8543.svetacdn.in/71tsRs29n5tZ/movie/19298"},{"id":19297,"title":"Мисирлу","kp_id":"694308","imdb_id":"tt2273648","world_art_id":null,"type":"movie","add":"2018-09-30 20:15:58","orig_title":"Misirlou","year":"2017-09-29","translations":["Любительский (многоголосый закадровый) (Синема УС)"],"quality":"bd","translation":"Любительский (многоголосый закадровый) (Синема УС)","update":"2018-10-01 07:50:59","iframe_src":"//8543.svetacdn.in/71tsRs29n5tZ/movie/19297"},{"id":19293,"title":"Дети Корделии","kp_id":null,"imdb_id":"tt5574292","world_art_id":null,"type":"movie","add":"2018-09-30 13:02:13","orig_title":"Cordelias Kinder","year":"2015-04-11","translations":["Любительский (многоголосый закадровый) (Синема УС)"],"quality":"webdl","translation":"Любительский (многоголосый закадровый) (Синема УС)","update":"2018-10-01 07:56:48","iframe_src":"//8543.svetacdn.in/71tsRs29n5tZ/movie/19293"},{"id":19292,"title":"Капитан Гром и Святой Грааль","kp_id":"464269","imdb_id":"tt1233259","world_art_id":null,"type":"movie","add":"2018-09-30 12:34:50","orig_title":"El Capitán Trueno y el Santo Grial","year":"2011-10-07","translations":["Профессиональный (многоголосый закадровый) (НТВ)"],"quality":"bd","translation":"Профессиональный (многоголосый закадровый) (НТВ)","update":"2018-10-01 08:04:23","iframe_src":"//8543.svetacdn.in/71tsRs29n5tZ/movie/19292"},{"id":19288,"title":"Лимбо","kp_id":"768076","imdb_id":"tt2945892","world_art_id":null,"type":"movie","add":"2018-09-30 12:23:54","orig_title":"Limbo","year":"2014-02-02","translations":["Профессиональный (многоголосый закадровый) (GreenРай Studio)","Любительский (одноголосый закадровый) (PashaUp | Морозов Павел)"],"quality":"bd","translation":"Профессиональный (многоголосый закадровый) (GreenРай Studio)","update":"2018-10-01 08:02:15","iframe_src":"//8543.svetacdn.in/71tsRs29n5tZ/movie/19288"},{"id":19243,"title":"Пуля","kp_id":"4823","imdb_id":"tt0115781","world_art_id":null,"type":"movie","add":"2018-09-28 01:54:36","orig_title":"Bullet","year":"1997-03-13","translations":["Профессиональный (многоголосый закадровый) (ТВЦ)","Авторский (одноголосый закадровый) (Есарев Дмитрий)"],"quality":"webdl","translation":"Профессиональный (многоголосый закадровый) (ТВЦ)","update":"2018-09-28 10:03:13","iframe_src":"//8543.svetacdn.in/71tsRs29n5tZ/movie/19243"},{"id":19224,"title":"Охота на динозавра","kp_id":"271752","imdb_id":"tt0827735","world_art_id":null,"type":"movie","add":"2018-09-27 00:10:03","orig_title":"Supergator","year":"2007-07-14","translations":["Профессиональный (двухголосый закадровый)"],"quality":"bd","translation":"Профессиональный (двухголосый закадровый)","update":"2018-09-28 10:05:06","iframe_src":"//8543.svetacdn.in/71tsRs29n5tZ/movie/19224"},{"id":19125,"title":"Прячься на свету","kp_id":"900869","imdb_id":"tt4369136","world_art_id":null,"type":"movie","add":"2018-09-23 21:25:50","orig_title":"Hide in the Light","year":"2018-10-23","translations":["Любительский (многоголосый закадровый) (Синема УС)","Любительский (двухголосый закадровый) (HiWayGrope)"],"quality":"webdl","translation":"Любительский (многоголосый закадровый) (Синема УС)","update":"2018-10-01 06:35:54","iframe_src":"//8543.svetacdn.in/71tsRs29n5tZ/movie/19125"},{"id":19113,"title":"Сокровище Матекумбе","kp_id":"2714","imdb_id":"tt0075347","world_art_id":null,"type":"movie","add":"2018-09-21 10:52:45","orig_title":"Treasure of Matecumbe","year":"1976-07-01","translations":["Профессиональный (многоголосый закадровый)"],"quality":"webdl","translation":"Профессиональный (многоголосый закадровый)","update":"2018-09-28 07:11:11","iframe_src":"//8543.svetacdn.in/71tsRs29n5tZ/movie/19113"},{"id":19112,"title":"Иметь и не иметь","kp_id":"8389","imdb_id":"tt0037382","world_art_id":null,"type":"movie","add":"2018-09-21 10:51:53","orig_title":"To Have and Have Not","year":"1944-10-11","translations":["Профессиональный (многоголосый закадровый)"],"quality":"webdl","translation":"Профессиональный (многоголосый закадровый)","update":"2018-09-28 07:10:26","iframe_src":"//8543.svetacdn.in/71tsRs29n5tZ/movie/19112"},{"id":19111,"title":"Возвращение Фрэнка Джеймса","kp_id":"9992","imdb_id":"tt0032983","world_art_id":null,"type":"movie","add":"2018-09-21 10:50:55","orig_title":"The Return of Frank James","year":"1940-08-10","translations":["Профессиональный (многоголосый закадровый)"],"quality":"webdl","translation":"Профессиональный (многоголосый закадровый)","update":"2018-09-28 07:09:17","iframe_src":"//8543.svetacdn.in/71tsRs29n5tZ/movie/19111"},{"id":19109,"title":"Нэйт и Хейс","kp_id":"5996","imdb_id":"tt0085994","world_art_id":null,"type":"movie","add":"2018-09-21 10:44:53","orig_title":"Nate and Hayes","year":"1983-11-18","translations":["Профессиональный (многоголосый закадровый)"],"quality":"webdl","translation":"Профессиональный (многоголосый закадровый)","update":"2018-09-28 07:06:38","iframe_src":"//8543.svetacdn.in/71tsRs29n5tZ/movie/19109"},{"id":19086,"title":"Стрелок","kp_id":"1139","imdb_id":"tt0042531","world_art_id":null,"type":"movie","add":"2018-09-20 16:15:50","orig_title":"The Gunfighter","year":"1950-05-26","translations":["Авторский (одноголосый закадровый) (Карцев Пётр)","Профессиональный (многоголосый закадровый)"],"quality":"webdl","translation":"Авторский (одноголосый закадровый) (Карцев Пётр)","update":"2018-09-28 07:08:27","iframe_src":"//8543.svetacdn.in/71tsRs29n5tZ/movie/19086"},{"id":19059,"title":"Эпидемия","kp_id":"1200021","imdb_id":"tt7819394","world_art_id":null,"type":"movie","add":"2018-09-18 21:59:01","orig_title":"Epidemic","year":"2018-09-04","translations":["Любительский (многоголосый закадровый) (Синема УС)","Любительский (двухголосый закадровый) (HiWayGrope)"],"quality":"webdl","translation":"Любительский (многоголосый закадровый) (Синема УС)","update":"2018-10-01 06:37:37","iframe_src":"//8543.svetacdn.in/71tsRs29n5tZ/movie/19059"},{"id":18353,"title":"Хорошие манеры","kp_id":"968464","imdb_id":"tt5480782","world_art_id":null,"type":"movie","add":"2018-08-16 22:24:29","orig_title":"As Boas Maneiras","year":"2017-08-06","translations":["Любительский (многоголосый закадровый) (Синема УС)"],"quality":"dvdrip","translation":"Любительский (многоголосый закадровый) (Синема УС)","update":"2018-10-01 07:53:46","iframe_src":"//8543.svetacdn.in/71tsRs29n5tZ/movie/18353"},{"id":9740,"title":"Остаться в живых","kp_id":"2002","imdb_id":"tt0086361","world_art_id":null,"type":"movie","add":"2017-02-16 07:18:31","orig_title":"Staying Alive","year":"1983-07-11","translations":["Профессиональный (двухголосый закадровый)"],"quality":"webdl","translation":"Профессиональный (двухголосый закадровый)","update":"2018-09-28 07:12:57","iframe_src":"//8543.svetacdn.in/71tsRs29n5tZ/movie/9740"}],"current_page":1638,"first_page_url":"https://videocdn.tv/api/short?limit=100&api_token=EnbO9h8pv1VyjbCJhg0WM9nG259n7mtz&cache31638=31638&page=1","from":163701,"last_page":602,"last_page_url":"https://videocdn.tv/api/short?limit=100&api_token=EnbO9h8pv1VyjbCJhg0WM9nG259n7mtz&cache31638=31638&page=602","next_page_url":null,"path":"https://videocdn.tv/api/short","per_page":100,"prev_page_url":"https://videocdn.tv/api/short?limit=100&api_token=EnbO9h8pv1VyjbCJhg0WM9nG259n7mtz&cache31638=31638&page=1637","to":163720,"total":60155}