{"result":true,"data":[{"id":49760,"title":"Ночью приходят волки","kp_id":"1188182","imdb_id":"tt8778040","world_art_id":null,"type":"movie","add":"2021-04-20 19:24:26","orig_title":"At Night Comes Wolves","year":"2021-04-20","translations":["Любительский (многоголосый закадровый) (@MUZOBOZ@)"],"quality":"webdl","translation":"Любительский (многоголосый закадровый) (@MUZOBOZ@)","update":"2021-04-21 07:13:26","iframe_src":"//2413.svetacdn.in/71tsRs29n5tZ/movie/49760"},{"id":49759,"title":"Кто здесь босс","kp_id":"1445372","imdb_id":"tt13370858","world_art_id":null,"type":"movie","add":"2021-04-20 19:23:00","orig_title":"Who's the Boss","year":"2020-02-28","translations":["Любительский (многоголосый закадровый) (Синема УС)"],"quality":"webdl","translation":"Любительский (многоголосый закадровый) (Синема УС)","update":"2021-04-21 07:13:45","iframe_src":"//2413.svetacdn.in/71tsRs29n5tZ/movie/49759"},{"id":49758,"title":"День, когда я умерла","kp_id":"1274282","imdb_id":"tt13423318","world_art_id":null,"type":"movie","add":"2021-04-20 19:21:40","orig_title":"The Day I Died: Unclosed Case","year":"2020-11-12","translations":["Любительский (двухголосый закадровый) (Колобок)"],"quality":"webdl","translation":"Любительский (двухголосый закадровый) (Колобок)","update":"2021-04-21 07:14:09","iframe_src":"//2413.svetacdn.in/71tsRs29n5tZ/movie/49758"},{"id":49757,"title":"Обычный ребёнок","kp_id":null,"imdb_id":"tt9312704","world_art_id":null,"type":"movie","add":"2021-04-20 19:20:20","orig_title":"Just a Child","year":"2019-01-01","translations":["Любительский (многоголосый закадровый) (AlphaProject)"],"quality":"webdl","translation":"Любительский (многоголосый закадровый) (AlphaProject)","update":"2021-04-20 21:44:50","iframe_src":"//2413.svetacdn.in/71tsRs29n5tZ/movie/49757"},{"id":49756,"title":"Праведные злодеи","kp_id":"1335238","imdb_id":"tt10920190","world_art_id":null,"type":"movie","add":"2021-04-20 19:18:44","orig_title":"Righteous Villains","year":"2020-12-01","translations":["Любительский (многоголосый закадровый) (Синема УС)"],"quality":"webdl","translation":"Любительский (многоголосый закадровый) (Синема УС)","update":"2021-04-21 07:14:33","iframe_src":"//2413.svetacdn.in/71tsRs29n5tZ/movie/49756"},{"id":49753,"title":"Доктор Куин, женщина врач: От сердца к сердцу","kp_id":"231086","imdb_id":"tt0285034","world_art_id":null,"type":"movie","add":"2021-04-20 16:29:37","orig_title":"Dr. Quinn, Medicine Woman: The Heart Within","year":"2001-05-12","translations":["Профессиональный (многоголосый закадровый)"],"quality":"tv","translation":"Профессиональный (многоголосый закадровый)","update":"2021-04-21 07:07:28","iframe_src":"//2413.svetacdn.in/71tsRs29n5tZ/movie/49753"},{"id":49752,"title":"Доктор Куинн, женщина врач","kp_id":"231084","imdb_id":"tt0196512","world_art_id":null,"type":"movie","add":"2021-04-20 16:21:34","orig_title":"Dr. Quinn Medicine Woman: The Movie","year":"1999-05-22","translations":["Профессиональный (многоголосый закадровый)"],"quality":"tv","translation":"Профессиональный (многоголосый закадровый)","update":"2021-04-20 21:26:03","iframe_src":"//2413.svetacdn.in/71tsRs29n5tZ/movie/49752"},{"id":49751,"title":"Охотники за тенями","kp_id":"267963","imdb_id":"tt0199664","world_art_id":null,"type":"movie","add":"2021-04-20 15:17:30","orig_title":"Kage gari","year":"1973-10-17","translations":["Авторский (одноголосый закадровый) (Кузнецов Сергей)"],"quality":"webdl","translation":"Авторский (одноголосый закадровый) (Кузнецов Сергей)","update":"2021-04-21 05:56:22","iframe_src":"//2413.svetacdn.in/71tsRs29n5tZ/movie/49751"},{"id":49750,"title":"От винта 2","kp_id":"1239328","imdb_id":"tt14379040","world_art_id":null,"type":"movie","add":"2021-04-20 15:00:43","orig_title":"Ot vinta 2","year":"2021-04-15","translations":["Оригинальная дорожка"],"quality":"ts","translation":"Оригинальная дорожка","update":"2021-04-20 19:21:40","iframe_src":"//2413.svetacdn.in/71tsRs29n5tZ/movie/49750"},{"id":49749,"title":"Кармен","kp_id":"35384","imdb_id":"tt0052675","world_art_id":null,"type":"movie","add":"2021-04-20 12:01:27","orig_title":"Carmen la de Ronda","year":"1959-09-21","translations":["Профессиональный (многоголосый закадровый) (Cinema Prestige)"],"quality":"bd","translation":"Профессиональный (многоголосый закадровый) (Cinema Prestige)","update":"2021-04-21 06:09:33","iframe_src":"//2413.svetacdn.in/71tsRs29n5tZ/movie/49749"},{"id":49747,"title":"Непреодолимый порыв","kp_id":"102744","imdb_id":"tt0116652","world_art_id":null,"type":"movie","add":"2021-04-20 11:39:58","orig_title":"Irresistible Impulse","year":"1996-08-27","translations":["Профессиональный (двухголосый закадровый) (Екатеринбург Арт)","Профессиональный (многоголосый закадровый)"],"quality":"dvdrip","translation":"Профессиональный (двухголосый закадровый) (Екатеринбург Арт)","update":"2021-04-20 15:32:56","iframe_src":"//2413.svetacdn.in/71tsRs29n5tZ/movie/49747"},{"id":49746,"title":"Thibaan и BNK48: от всего сердца","kp_id":"1403898","imdb_id":"tt12222324","world_art_id":null,"type":"movie","add":"2021-04-20 09:25:28","orig_title":"Thibaan × BNK48","year":"2020-01-23","translations":["Любительский (многоголосый закадровый) (Синема УС)"],"quality":"webdl","translation":"Любительский (многоголосый закадровый) (Синема УС)","update":"2021-04-20 14:52:36","iframe_src":"//2413.svetacdn.in/71tsRs29n5tZ/movie/49746"},{"id":49509,"title":"Маша","kp_id":"1162783","imdb_id":"tt11892302","world_art_id":null,"type":"movie","add":"2021-04-11 16:24:27","orig_title":"Masha","year":"2021-04-01","translations":["Оригинальная дорожка","Оригинальная дорожка"],"quality":"ts","translation":"Оригинальная дорожка","update":"2021-04-21 08:38:07","iframe_src":"//2413.svetacdn.in/71tsRs29n5tZ/movie/49509"},{"id":39421,"title":"Инфекция","kp_id":"1021334","imdb_id":"tt6022266","world_art_id":null,"type":"movie","add":"2020-04-17 04:55:07","orig_title":"Infección","year":"2019-03-09","translations":["Профессиональный (многоголосый закадровый) (Киноужас)"],"quality":"bd","translation":"Профессиональный (многоголосый закадровый) (Киноужас)","update":"2021-04-21 06:12:49","iframe_src":"//2413.svetacdn.in/71tsRs29n5tZ/movie/39421"},{"id":32027,"title":"Вместе поневоле","kp_id":"1178748","imdb_id":"tt8785426","world_art_id":null,"type":"movie","add":"2019-10-18 18:44:12","orig_title":"Jabariya Jodi","year":"2019-08-09","translations":["Любительский (многоголосый закадровый) (Синема УС)","Профессиональный (многоголосый закадровый) (Лексикон)"],"quality":"webdl","translation":"Любительский (многоголосый закадровый) (Синема УС)","update":"2021-04-21 05:59:57","iframe_src":"//2413.svetacdn.in/71tsRs29n5tZ/movie/32027"},{"id":27935,"title":"Дочь волка","kp_id":"1147874","imdb_id":"tt7615052","world_art_id":null,"type":"movie","add":"2019-06-18 06:33:09","orig_title":"Daughter of the Wolf","year":"2019-06-14","translations":["Любительский (одноголосый закадровый) (datynet | Агапов Антон)","[EN] Original (English)","Любительский (многоголосый закадровый) (@MUZOBOZ@)","Любительский (одноголосый закадровый) (RusFilm)","Полное дублирование (iTunes)"],"quality":"webdl","translation":"Любительский (одноголосый закадровый) (datynet | Агапов Антон)","update":"2021-04-21 08:40:14","iframe_src":"//2413.svetacdn.in/71tsRs29n5tZ/movie/27935"},{"id":20680,"title":"И грянул гром","kp_id":"4473","imdb_id":"tt0318081","world_art_id":null,"type":"movie","add":"2018-12-12 00:04:52","orig_title":"A Sound of Thunder","year":"2005-08-26","translations":["Полное дублирование (Мосфильм)","[EN] Original (English)","Профессиональный (двухголосый закадровый)"],"quality":"webdl","translation":"Полное дублирование (Мосфильм)","update":"2021-04-21 06:42:51","iframe_src":"//2413.svetacdn.in/71tsRs29n5tZ/movie/20680"},{"id":3117,"title":"Однажды на Диком Западе","kp_id":"376","imdb_id":"tt0064116","world_art_id":null,"type":"movie","add":"2016-06-13 18:27:37","orig_title":"C'era una volta il West","year":"1968-12-21","translations":["Профессиональный (многоголосый закадровый)","Авторский (одноголосый закадровый) (Либергал Григорий)","Авторский (одноголосый закадровый) (Володарский Леонид)","[EN] Original (English)","Любительский (одноголосый закадровый)","Профессиональный (многоголосый закадровый)","Профессиональный (многоголосый закадровый) (СТС)","Профессиональный (многоголосый закадровый) (НТВ)","Профессиональный (многоголосый закадровый) (SomeWax)","Профессиональный (многоголосый закадровый) (VideoBIZ)","Авторский (одноголосый закадровый) (Горчаков Василий)"],"quality":"bd","translation":"Профессиональный (многоголосый закадровый)","update":"2021-04-21 06:22:06","iframe_src":"//2413.svetacdn.in/71tsRs29n5tZ/movie/3117"},{"id":1445,"title":"Ярость","kp_id":"740644","imdb_id":"tt2713180","world_art_id":null,"type":"movie","add":"2016-04-21 13:55:16","orig_title":"Fury","year":"2014-10-15","translations":["Полное дублирование","[EN] Original (English)","Авторский (одноголосый закадровый) (Гаврилов Андрей)","Авторский (одноголосый закадровый) (Матвеев Алексей | Doctor Joker)","Полное дублирование","[EN] Original (English)"],"quality":"bd","translation":"Полное дублирование","update":"2021-04-21 06:37:47","iframe_src":"//2413.svetacdn.in/71tsRs29n5tZ/movie/1445"},{"id":848,"title":"Шоугелз","kp_id":"5954","imdb_id":"tt0114436","world_art_id":null,"type":"movie","add":"2016-04-08 17:54:11","orig_title":"Showgirls","year":"1995-09-21","translations":["[EN] Original (English)","Полное дублирование","[EN] Original (English)","Авторский (одноголосый закадровый) (Гаврилов Андрей)","Авторский (одноголосый закадровый) (Кашкин Александр | Первомайский)","Авторский (одноголосый закадровый) (Яроцкий Михаил | Kyberpunk)","Авторский (одноголосый закадровый) (Живов Юрий)","Полное дублирование (Невафильм | Нева-1)","Любительский (многоголосый закадровый) (Black Street Records)","Профессиональный (многоголосый закадровый) (CP Digital)","Профессиональный (многоголосый закадровый) (СТС)"],"quality":"bd","translation":"[EN] Original (English)","update":"2021-04-21 08:33:06","iframe_src":"//2413.svetacdn.in/71tsRs29n5tZ/movie/848"}],"current_page":697,"first_page_url":"https://videocdn.tv/api/short?limit=100&api_token=EnbO9h8pv1VyjbCJhg0WM9nG259n7mtz&cache3697=3697&page=1","from":69601,"last_page":720,"last_page_url":"https://videocdn.tv/api/short?limit=100&api_token=EnbO9h8pv1VyjbCJhg0WM9nG259n7mtz&cache3697=3697&page=720","next_page_url":"https://videocdn.tv/api/short?limit=100&api_token=EnbO9h8pv1VyjbCJhg0WM9nG259n7mtz&cache3697=3697&page=698","path":"https://videocdn.tv/api/short","per_page":100,"prev_page_url":"https://videocdn.tv/api/short?limit=100&api_token=EnbO9h8pv1VyjbCJhg0WM9nG259n7mtz&cache3697=3697&page=696","to":69620,"total":71992}