{"result":true,"data":[{"id":25473,"title":"Тринадцать","kp_id":"42313","imdb_id":"tt0028413","world_art_id":null,"type":"movie","add":"2019-04-28 06:56:47","orig_title":"Trinadtsat","year":"1937-05-08","translations":["Оригинальная дорожка"],"quality":"sat","translation":"Оригинальная дорожка","update":"2019-04-29 12:03:32","iframe_src":"//8332.svetacdn.in/si4jsFRrtgrT/movie/25473"},{"id":25472,"title":"Городские легенды 3: Кровавая Мэри","kp_id":"160961","imdb_id":"tt0451957","world_art_id":null,"type":"movie","add":"2019-04-27 22:19:15","orig_title":"Urban Legends: Bloody Mary","year":"2005-07-19","translations":["Профессиональный (многоголосый закадровый)"],"quality":"bd","translation":"Профессиональный (многоголосый закадровый)","update":"2019-04-29 12:02:34","iframe_src":"//8332.svetacdn.in/si4jsFRrtgrT/movie/25472"},{"id":25461,"title":"Террор","kp_id":"55258","imdb_id":"tt0141897","world_art_id":null,"type":"movie","add":"2019-04-27 20:56:40","orig_title":"Terror","year":"1979-10-26","translations":["Любительский (одноголосый закадровый)"],"quality":"bd","translation":"Любительский (одноголосый закадровый)","update":"2019-04-29 12:00:56","iframe_src":"//8332.svetacdn.in/si4jsFRrtgrT/movie/25461"},{"id":25459,"title":"Фальшивое лицо","kp_id":"38420","imdb_id":"tt0074510","world_art_id":null,"type":"movie","add":"2019-04-27 20:51:20","orig_title":"False Face","year":"1977-01-01","translations":["Авторский (одноголосый закадровый) (Гаврилов Андрей)"],"quality":"bd","translation":"Авторский (одноголосый закадровый) (Гаврилов Андрей)","update":"2019-04-29 11:59:34","iframe_src":"//8332.svetacdn.in/si4jsFRrtgrT/movie/25459"},{"id":25457,"title":"Цирк сгорел, и клоуны разбежались","kp_id":"40797","imdb_id":"tt0137432","world_art_id":null,"type":"movie","add":"2019-04-27 20:45:12","orig_title":"Tsirk sgorel, i klouny razbezhalis","year":"1998-07-04","translations":["Оригинальная дорожка"],"quality":"dvdrip","translation":"Оригинальная дорожка","update":"2019-04-29 11:33:02","iframe_src":"//8332.svetacdn.in/si4jsFRrtgrT/movie/25457"},{"id":25454,"title":"Тюремный романс","kp_id":"279826","imdb_id":"tt0977241","world_art_id":null,"type":"movie","add":"2019-04-27 20:38:40","orig_title":"Tyuremnyy romans","year":"1993-01-01","translations":["Оригинальная дорожка"],"quality":"hdtv","translation":"Оригинальная дорожка","update":"2019-04-29 11:31:46","iframe_src":"//8332.svetacdn.in/si4jsFRrtgrT/movie/25454"},{"id":25452,"title":"Заваруха на Гавайях","kp_id":"25400","imdb_id":"tt0093146","world_art_id":null,"type":"movie","add":"2019-04-27 20:36:08","orig_title":"Hard Ticket to Hawaii","year":"1987-09-26","translations":["Любительский (одноголосый закадровый)"],"quality":"bd","translation":"Любительский (одноголосый закадровый)","update":"2019-04-29 11:30:20","iframe_src":"//8332.svetacdn.in/si4jsFRrtgrT/movie/25452"},{"id":25448,"title":"Четвертый","kp_id":"45502","imdb_id":"tt0068366","world_art_id":null,"type":"movie","add":"2019-04-27 20:11:00","orig_title":"Chetvyortyy","year":"1973-05-07","translations":["Оригинальная дорожка"],"quality":"hdtv","translation":"Оригинальная дорожка","update":"2019-04-29 11:15:03","iframe_src":"//8332.svetacdn.in/si4jsFRrtgrT/movie/25448"},{"id":25447,"title":"Девочки","kp_id":"455451","imdb_id":"tt1741685","world_art_id":null,"type":"movie","add":"2019-04-27 20:00:26","orig_title":"Devochki","year":"2006-01-01","translations":["Оригинальная дорожка"],"quality":"dvdrip","translation":"Оригинальная дорожка","update":"2019-04-29 11:13:57","iframe_src":"//8332.svetacdn.in/si4jsFRrtgrT/movie/25447"},{"id":25436,"title":"Человек, который слишком много знал","kp_id":"8982","imdb_id":"tt0049470","world_art_id":null,"type":"movie","add":"2019-04-26 22:41:53","orig_title":"The Man Who Knew Too Much","year":"1956-04-29","translations":["Полное дублирование"],"quality":"bd","translation":"Полное дублирование","update":"2019-04-29 11:11:28","iframe_src":"//8332.svetacdn.in/si4jsFRrtgrT/movie/25436"},{"id":25430,"title":"Праздник святого Иоргена","kp_id":"43222","imdb_id":"tt0021268","world_art_id":null,"type":"movie","add":"2019-04-26 19:50:15","orig_title":"Prazdnik svyatogo Yorgena","year":"1930-08-25","translations":["Оригинальная дорожка"],"quality":"dvdrip","translation":"Оригинальная дорожка","update":"2019-04-29 11:08:04","iframe_src":"//8332.svetacdn.in/si4jsFRrtgrT/movie/25430"},{"id":25429,"title":"Небо зовет","kp_id":"7340","imdb_id":"tt0053103","world_art_id":null,"type":"movie","add":"2019-04-26 19:46:02","orig_title":"Nebo zovyot","year":"1959-09-12","translations":["Оригинальная дорожка"],"quality":"dvdrip","translation":"Оригинальная дорожка","update":"2019-04-29 11:07:13","iframe_src":"//8332.svetacdn.in/si4jsFRrtgrT/movie/25429"},{"id":25428,"title":"Чистое небо","kp_id":"45513","imdb_id":"tt0053712","world_art_id":null,"type":"movie","add":"2019-04-26 19:42:47","orig_title":"Chistoe nebo","year":"1961-05-20","translations":["Оригинальная дорожка"],"quality":"dvdrip","translation":"Оригинальная дорожка","update":"2019-04-29 11:05:38","iframe_src":"//8332.svetacdn.in/si4jsFRrtgrT/movie/25428"},{"id":25427,"title":"Аэлита, не приставай к мужчинам","kp_id":"43416","imdb_id":"tt0126775","world_art_id":null,"type":"movie","add":"2019-04-26 19:24:41","orig_title":"Aelita, ne pristavay k muzhchinam!","year":"1988-01-01","translations":["Оригинальная дорожка"],"quality":"dvdrip","translation":"Оригинальная дорожка","update":"2019-04-29 11:04:46","iframe_src":"//8332.svetacdn.in/si4jsFRrtgrT/movie/25427"},{"id":25426,"title":"Акция","kp_id":"43442","imdb_id":"tt0092526","world_art_id":null,"type":"movie","add":"2019-04-26 19:20:57","orig_title":"Aktsiya","year":"1987-10-01","translations":["Оригинальная дорожка"],"quality":"dvdrip","translation":"Оригинальная дорожка","update":"2019-04-29 11:03:19","iframe_src":"//8332.svetacdn.in/si4jsFRrtgrT/movie/25426"},{"id":25425,"title":"Акванавты","kp_id":"43444","imdb_id":"tt0197218","world_art_id":null,"type":"movie","add":"2019-04-26 19:17:31","orig_title":"Akvanavty","year":"1980-10-11","translations":["Оригинальная дорожка"],"quality":"dvdrip","translation":"Оригинальная дорожка","update":"2019-04-29 11:00:44","iframe_src":"//8332.svetacdn.in/si4jsFRrtgrT/movie/25425"},{"id":12594,"title":"Кровавый округ: 1983","kp_id":"422421","imdb_id":"tt1259573","world_art_id":null,"type":"movie","add":"2017-07-21 05:08:20","orig_title":"Red Riding: In the Year of Our Lord 1983","year":"2009-02-28","translations":["Профессиональный (двухголосый закадровый) (НТВ)","Любительский (одноголосый закадровый)"],"quality":"bd","translation":"Профессиональный (двухголосый закадровый) (НТВ)","update":"2019-04-29 11:53:26","iframe_src":"//8332.svetacdn.in/si4jsFRrtgrT/movie/12594"},{"id":12593,"title":"Кровавый округ: 1980","kp_id":"422420","imdb_id":"tt1260581","world_art_id":null,"type":"movie","add":"2017-07-21 05:07:05","orig_title":"Red Riding: In the Year of Our Lord 1980","year":"2009-02-28","translations":["Профессиональный (двухголосый закадровый) (НТВ)","Любительский (одноголосый закадровый)"],"quality":"bd","translation":"Профессиональный (двухголосый закадровый) (НТВ)","update":"2019-04-29 11:52:08","iframe_src":"//8332.svetacdn.in/si4jsFRrtgrT/movie/12593"},{"id":8531,"title":"Анна и король","kp_id":"5336","imdb_id":"tt0166485","world_art_id":null,"type":"movie","add":"2017-01-02 19:59:56","orig_title":"Anna and the King","year":"1999-12-06","translations":["Профессиональный (многоголосый закадровый)","Полное дублирование"],"quality":"hdtv","translation":"Профессиональный (многоголосый закадровый)","update":"2019-04-29 12:01:46","iframe_src":"//8332.svetacdn.in/si4jsFRrtgrT/movie/8531"},{"id":1112,"title":"Чужая страна","kp_id":"687081","imdb_id":"tt2325977","world_art_id":null,"type":"movie","add":"2016-04-14 17:29:58","orig_title":"Strangerland","year":"2015-01-23","translations":["Любительский (одноголосый закадровый)","Профессиональный (многоголосый закадровый)"],"quality":"bd","translation":"Любительский (одноголосый закадровый)","update":"2019-04-29 11:09:49","iframe_src":"//8332.svetacdn.in/si4jsFRrtgrT/movie/1112"}],"current_page":1487,"first_page_url":"https://videocdn.tv/api/short?limit=100&api_token=X6EwAUfE5M9xbo7y0Bp0aPf3uXxG2KLL&cache31487=31487&page=1","from":148601,"last_page":635,"last_page_url":"https://videocdn.tv/api/short?limit=100&api_token=X6EwAUfE5M9xbo7y0Bp0aPf3uXxG2KLL&cache31487=31487&page=635","next_page_url":null,"path":"https://videocdn.tv/api/short","per_page":100,"prev_page_url":"https://videocdn.tv/api/short?limit=100&api_token=X6EwAUfE5M9xbo7y0Bp0aPf3uXxG2KLL&cache31487=31487&page=1486","to":148620,"total":63430}