{"result":true,"data":[{"id":50585,"title":"Несчастная любовь","kp_id":"1349611","imdb_id":"tt11045952","world_art_id":null,"type":"movie","add":"2021-05-23 18:31:35","orig_title":"Luv Gone Wrong","year":"2019-08-23","translations":["Любительский (многоголосый закадровый) (Синема УС)"],"quality":"webdl","translation":"Любительский (многоголосый закадровый) (Синема УС)","update":"2021-05-24 07:16:59","iframe_src":"//7720.svetacdn.in/si4jsFRrtgrT/movie/50585"},{"id":50583,"title":"Знаменитый","kp_id":"1250967","imdb_id":"tt9636120","world_art_id":null,"type":"movie","add":"2021-05-23 18:28:22","orig_title":"Famous","year":"2019-05-19","translations":["Любительский (многоголосый закадровый) (Синема УС)"],"quality":"webdl","translation":"Любительский (многоголосый закадровый) (Синема УС)","update":"2021-05-24 07:17:19","iframe_src":"//7720.svetacdn.in/si4jsFRrtgrT/movie/50583"},{"id":50582,"title":"Жизнь","kp_id":"1300999","imdb_id":"tt10043742","world_art_id":null,"type":"movie","add":"2021-05-23 18:23:25","orig_title":"Jiyan","year":"2019-11-21","translations":["Любительский (многоголосый закадровый) (Синема УС)"],"quality":"webdl","translation":"Любительский (многоголосый закадровый) (Синема УС)","update":"2021-05-24 07:17:49","iframe_src":"//7720.svetacdn.in/si4jsFRrtgrT/movie/50582"},{"id":50581,"title":"Сердцеед","kp_id":"1064572","imdb_id":"tt7234048","world_art_id":null,"type":"movie","add":"2021-05-23 18:21:57","orig_title":"O Galã","year":"2019-02-07","translations":["Любительский (многоголосый закадровый) (Синема УС)"],"quality":"webdl","translation":"Любительский (многоголосый закадровый) (Синема УС)","update":"2021-05-24 07:18:08","iframe_src":"//7720.svetacdn.in/si4jsFRrtgrT/movie/50581"},{"id":50580,"title":"Город кулаков","kp_id":"1167390","imdb_id":"tt8442402","world_art_id":null,"type":"movie","add":"2021-05-23 18:20:16","orig_title":"Knuckle City","year":"2019-07-18","translations":["Любительский (многоголосый закадровый) (Синема УС)"],"quality":"webdl","translation":"Любительский (многоголосый закадровый) (Синема УС)","update":"2021-05-24 07:18:33","iframe_src":"//7720.svetacdn.in/si4jsFRrtgrT/movie/50580"},{"id":50579,"title":"Серебряный лес","kp_id":"1298774","imdb_id":"tt10921490","world_art_id":null,"type":"movie","add":"2021-05-23 18:18:41","orig_title":"La forêt d'argent","year":"2019-09-24","translations":["Любительский (многоголосый закадровый) (Синема УС)"],"quality":"webdl","translation":"Любительский (многоголосый закадровый) (Синема УС)","update":"2021-05-24 07:18:54","iframe_src":"//7720.svetacdn.in/si4jsFRrtgrT/movie/50579"},{"id":50576,"title":"Годзилла против Мехагодзиллы","kp_id":"146750","imdb_id":"tt0071565","world_art_id":null,"type":"movie","add":"2021-05-23 14:31:00","orig_title":"Gojira tai Mekagojira","year":"1974-03-21","translations":["Любительский (одноголосый закадровый)"],"quality":"dvdrip","translation":"Любительский (одноголосый закадровый)","update":"2021-05-24 08:19:16","iframe_src":"//7720.svetacdn.in/si4jsFRrtgrT/movie/50576"},{"id":50575,"title":"Обнаженные тела","kp_id":"6348","imdb_id":"tt0172627","world_art_id":null,"type":"movie","add":"2021-05-23 14:29:03","orig_title":"Body Shots","year":"1999-10-07","translations":["Профессиональный (многоголосый закадровый)"],"quality":"dvdrip","translation":"Профессиональный (многоголосый закадровый)","update":"2021-05-24 08:22:26","iframe_src":"//7720.svetacdn.in/si4jsFRrtgrT/movie/50575"},{"id":50574,"title":"Унабомбер: Подлинная история","kp_id":"297348","imdb_id":"tt0118024","world_art_id":null,"type":"movie","add":"2021-05-23 14:07:32","orig_title":"Unabomber: The True Story","year":"1996-09-11","translations":["Авторский (одноголосый закадровый) (Визгунов Сергей)"],"quality":"dvdrip","translation":"Авторский (одноголосый закадровый) (Визгунов Сергей)","update":"2021-05-24 08:17:41","iframe_src":"//7720.svetacdn.in/si4jsFRrtgrT/movie/50574"},{"id":50573,"title":"Другой день","kp_id":"326579","imdb_id":"tt0295172","world_art_id":null,"type":"movie","add":"2021-05-23 14:05:07","orig_title":"Another Day","year":"2001-12-04","translations":["Профессиональный (многоголосый закадровый)"],"quality":"dvdrip","translation":"Профессиональный (многоголосый закадровый)","update":"2021-05-24 08:14:51","iframe_src":"//7720.svetacdn.in/si4jsFRrtgrT/movie/50573"},{"id":50572,"title":"Брак по расчету","kp_id":"94774","imdb_id":"tt0165587","world_art_id":null,"type":"movie","add":"2021-05-23 14:03:06","orig_title":"A Marriage of Convenience","year":"1998-10-11","translations":["Профессиональный (многоголосый закадровый) (СТС)"],"quality":"sat","translation":"Профессиональный (многоголосый закадровый) (СТС)","update":"2021-05-24 08:12:34","iframe_src":"//7720.svetacdn.in/si4jsFRrtgrT/movie/50572"},{"id":50571,"title":"Картонные облака","kp_id":"1272189","imdb_id":"tt9161260","world_art_id":null,"type":"movie","add":"2021-05-23 13:32:20","orig_title":"Nubes de cartón","year":"2019-11-01","translations":["Любительский (многоголосый закадровый) (Синема УС)"],"quality":"webdl","translation":"Любительский (многоголосый закадровый) (Синема УС)","update":"2021-05-24 07:19:38","iframe_src":"//7720.svetacdn.in/si4jsFRrtgrT/movie/50571"},{"id":50570,"title":"Однажды в Апокалипсисе","kp_id":"1307325","imdb_id":"tt10939474","world_art_id":null,"type":"movie","add":"2021-05-23 13:30:23","orig_title":"Once Upon a Time in the Apocalypse","year":"2019-01-01","translations":["Любительский (многоголосый закадровый) (AlphaProject)"],"quality":"webdl","translation":"Любительский (многоголосый закадровый) (AlphaProject)","update":"2021-05-24 07:19:54","iframe_src":"//7720.svetacdn.in/si4jsFRrtgrT/movie/50570"},{"id":50569,"title":"Муна","kp_id":"1271880","imdb_id":"tt10264732","world_art_id":null,"type":"movie","add":"2021-05-23 13:28:36","orig_title":"Muna","year":"2019-12-06","translations":["Любительский (многоголосый закадровый) (Синема УС)"],"quality":"webdl","translation":"Любительский (многоголосый закадровый) (Синема УС)","update":"2021-05-24 07:20:24","iframe_src":"//7720.svetacdn.in/si4jsFRrtgrT/movie/50569"},{"id":50565,"title":"Сорвиголова","kp_id":"798055","imdb_id":"tt3187080","world_art_id":null,"type":"movie","add":"2021-05-23 05:47:59","orig_title":"Potugadu","year":"2013-09-14","translations":["Любительский (одноголосый закадровый) (datynet | Агапов Антон)"],"quality":"webdl","translation":"Любительский (одноголосый закадровый) (datynet | Агапов Антон)","update":"2021-05-24 07:20:15","iframe_src":"//7720.svetacdn.in/si4jsFRrtgrT/movie/50565"},{"id":48307,"title":"Закупочная цена","kp_id":"12636","imdb_id":"tt0023362","world_art_id":null,"type":"movie","add":"2021-03-01 06:27:51","orig_title":"The Purchase Price","year":"1932-07-23","translations":["Любительский (одноголосый закадровый) (minyaev)","Original (English)"],"quality":"webdl","translation":"Любительский (одноголосый закадровый) (minyaev)","update":"2021-05-24 08:36:21","iframe_src":"//7720.svetacdn.in/si4jsFRrtgrT/movie/48307"},{"id":47368,"title":"Репетиция свадьбы","kp_id":"35449","imdb_id":"tt0024757","world_art_id":null,"type":"movie","add":"2021-01-24 18:05:11","orig_title":"Wedding Rehearsal","year":"1932-07-25","translations":["Профессиональный (двухголосый закадровый) (Культура)","Original (English)"],"quality":"webdl","translation":"Профессиональный (двухголосый закадровый) (Культура)","update":"2021-05-24 08:35:07","iframe_src":"//7720.svetacdn.in/si4jsFRrtgrT/movie/47368"},{"id":47242,"title":"Толпа ревет","kp_id":"31149","imdb_id":"tt0022792","world_art_id":null,"type":"movie","add":"2021-01-20 11:00:20","orig_title":"The Crowd Roars","year":"1932-04-13","translations":["Профессиональный (одноголосый закадровый) (Светла)","Original (English)"],"quality":"webdl","translation":"Профессиональный (одноголосый закадровый) (Светла)","update":"2021-05-24 08:37:52","iframe_src":"//7720.svetacdn.in/si4jsFRrtgrT/movie/47242"},{"id":9130,"title":"Фолловеры","kp_id":"1248516","imdb_id":"tt10049610","world_art_id":null,"type":"serial","add":"2020-10-26 23:14:08","orig_title":"Followers","year":"2020-02-27","translations":["Любительский (многоголосый закадровый) (WestFilm)"],"seasons_count":1,"episodes_count":9,"episodes":9,"update":"2020-10-27 06:46:53","iframe_src":"//7720.svetacdn.in/si4jsFRrtgrT/tv-series/9130"},{"id":9112,"title":"Бой машин","kp_id":null,"imdb_id":"tt4606734","world_art_id":null,"type":"serial","add":"2020-10-25 14:50:07","orig_title":"Boy Machine","year":"2015-10-16","translations":["Любительский (многоголосый закадровый) (WestFilm)"],"seasons_count":1,"episodes_count":8,"episodes":8,"update":"2020-10-26 07:59:39","iframe_src":"//7720.svetacdn.in/si4jsFRrtgrT/tv-series/9112"},{"id":9108,"title":"Злоба","kp_id":null,"imdb_id":"tt5050114","world_art_id":null,"type":"serial","add":"2020-10-24 17:46:49","orig_title":"Malicia","year":"2015-01-01","translations":["Любительский (многоголосый закадровый) (WestFilm)"],"seasons_count":1,"episodes_count":13,"episodes":13,"update":"2020-10-26 17:24:11","iframe_src":"//7720.svetacdn.in/si4jsFRrtgrT/tv-series/9108"},{"id":9107,"title":"Татонка","kp_id":"705981","imdb_id":null,"world_art_id":null,"type":"serial","add":"2020-10-24 17:41:04","orig_title":"Les Legendes De Tatonka","year":"2010-01-01","translations":["Полное дублирование"],"seasons_count":1,"episodes_count":52,"episodes":52,"update":"2020-10-26 17:53:50","iframe_src":"//7720.svetacdn.in/si4jsFRrtgrT/tv-series/9107"},{"id":9106,"title":"Рыцарь Майк","kp_id":"722586","imdb_id":"tt2320669","world_art_id":null,"type":"serial","add":"2020-10-24 17:11:22","orig_title":"Mike the Knight","year":"2011-11-01","translations":["Полное дублирование (Первый канал | ОРТ)"],"seasons_count":1,"episodes_count":52,"episodes":52,"update":"2020-10-26 18:22:00","iframe_src":"//7720.svetacdn.in/si4jsFRrtgrT/tv-series/9106"},{"id":9072,"title":"Ты прекрасен!","kp_id":"493757","imdb_id":"tt2074131","world_art_id":null,"type":"serial","add":"2020-10-21 12:44:54","orig_title":"Minami Shineyo","year":"2009-10-07","translations":["Любительский (двухголосый закадровый)","Профессиональный (многоголосый закадровый) (Мобильное телевидение)"],"seasons_count":1,"episodes_count":16,"episodes":16,"update":"2020-10-26 09:54:40","iframe_src":"//7720.svetacdn.in/si4jsFRrtgrT/tv-series/9072"},{"id":9047,"title":"Отряд джунглей спешит на помощь","kp_id":"1046654","imdb_id":"tt2276589","world_art_id":null,"type":"serial","add":"2020-10-17 12:20:32","orig_title":"Les As de la Jungle En Direct","year":"2011-10-10","translations":["Полное дублирование"],"seasons_count":2,"episodes_count":52,"episodes":26,"update":"2020-10-27 07:44:21","iframe_src":"//7720.svetacdn.in/si4jsFRrtgrT/tv-series/9047"},{"id":9046,"title":"Черная богиня","kp_id":"426871","imdb_id":"tt4516798","world_art_id":null,"type":"serial","add":"2020-10-17 12:14:22","orig_title":"Chernaya boginya","year":"2005-09-26","translations":["Оригинальная дорожка"],"seasons_count":1,"episodes_count":100,"episodes":100,"update":"2020-10-27 08:34:22","iframe_src":"//7720.svetacdn.in/si4jsFRrtgrT/tv-series/9046"},{"id":9043,"title":"Гарфилд шоу","kp_id":"710522","imdb_id":"tt1470837","world_art_id":null,"type":"serial","add":"2020-10-17 11:30:56","orig_title":"The Garfield Show","year":"2008-12-22","translations":["Полное дублирование","Полное дублирование (SDI Media)"],"seasons_count":5,"episodes_count":92,"episodes":1,"update":"2020-10-26 13:36:52","iframe_src":"//7720.svetacdn.in/si4jsFRrtgrT/tv-series/9043"},{"id":9042,"title":"Машины одежки","kp_id":"1112483","imdb_id":null,"world_art_id":null,"type":"serial","add":"2020-10-17 11:27:53","orig_title":"Машины одежки","year":"2015-01-01","translations":["Оригинальная дорожка"],"seasons_count":1,"episodes_count":26,"episodes":26,"update":"2020-10-26 10:57:58","iframe_src":"//7720.svetacdn.in/si4jsFRrtgrT/tv-series/9042"},{"id":9023,"title":"Тихоокеанские расследования","kp_id":"1322495","imdb_id":"tt11278600","world_art_id":null,"type":"serial","add":"2020-10-15 20:27:09","orig_title":"OPJ Pacifique Sud","year":"2019-11-11","translations":["Любительский (многоголосый закадровый) (WestFilm)"],"seasons_count":1,"episodes_count":20,"episodes":20,"update":"2020-10-26 17:18:25","iframe_src":"//7720.svetacdn.in/si4jsFRrtgrT/tv-series/9023"},{"id":8934,"title":"Полицейский дневник 2.0","kp_id":"1335046","imdb_id":"tt11390470","world_art_id":null,"type":"serial","add":"2020-10-07 12:55:50","orig_title":"Police Diary 2.0","year":"2019-11-01","translations":["Любительский (многоголосый закадровый) (Ultradox)"],"seasons_count":1,"episodes_count":20,"episodes":20,"update":"2020-10-26 21:27:24","iframe_src":"//7720.svetacdn.in/si4jsFRrtgrT/tv-series/8934"},{"id":8911,"title":"Расследование","kp_id":"1200321","imdb_id":"tt9112152","world_art_id":null,"type":"serial","add":"2020-10-04 16:40:49","orig_title":"The Investigation","year":"2020-09-28","translations":["Профессиональный (многоголосый закадровый) (Novamedia)","Любительский (многоголосый закадровый) (Ultradox)"],"seasons_count":1,"episodes_count":6,"episodes":6,"update":"2020-10-26 08:41:05","iframe_src":"//7720.svetacdn.in/si4jsFRrtgrT/tv-series/8911"},{"id":8897,"title":"Узурпаторша","kp_id":"1289398","imdb_id":"tt10709178","world_art_id":null,"type":"serial","add":"2020-10-01 16:08:52","orig_title":"La usurpadora","year":"2019-09-02","translations":["Любительский (многоголосый закадровый) (WestFilm)","Любительский (двухголосый закадровый) (RusFilm)"],"seasons_count":1,"episodes_count":25,"episodes":25,"update":"2020-10-26 11:09:14","iframe_src":"//7720.svetacdn.in/si4jsFRrtgrT/tv-series/8897"},{"id":8775,"title":"Сестра Рэтчед","kp_id":"1233464","imdb_id":"tt7423538","world_art_id":null,"type":"serial","add":"2020-09-18 10:54:09","orig_title":"Ratched","year":"2020-09-18","translations":["Любительский (многоголосый закадровый) (Octopus)","Любительский (многоголосый закадровый) (ColdFilm)","Профессиональный (многоголосый закадровый) (BaibaKo)","Профессиональный (двухголосый закадровый) (IdeaFilm)","Профессиональный (многоголосый закадровый) (HDrezka Studio)","Профессиональный (многоголосый закадровый) (LostFilm)","Профессиональный (многоголосый закадровый) (NewStudio)","Профессиональный (многоголосый закадровый) (Jaskier)","Любительский (многоголосый закадровый) (WestFilm)"],"seasons_count":1,"episodes_count":8,"episodes":8,"update":"2020-10-26 17:12:59","iframe_src":"//7720.svetacdn.in/si4jsFRrtgrT/tv-series/8775"},{"id":8696,"title":"Жестокий романс","kp_id":"837690","imdb_id":"tt6973630","world_art_id":null,"type":"serial","add":"2020-09-11 06:03:20","orig_title":"Jin xiu yuan huali mao xian","year":"2015-03-03","translations":["Любительский (двухголосый закадровый)"],"seasons_count":1,"episodes_count":31,"episodes":31,"update":"2020-10-27 06:50:01","iframe_src":"//7720.svetacdn.in/si4jsFRrtgrT/tv-series/8696"},{"id":8589,"title":"Стереоскоп","kp_id":null,"imdb_id":"tt13026888","world_art_id":null,"type":"serial","add":"2020-08-31 14:27:21","orig_title":"Stereoscope","year":"2017-01-31","translations":["Любительский (многоголосый закадровый) (ColdFilm)","Любительский (многоголосый закадровый) (Octopus)","Профессиональный (многоголосый закадровый) (NewStudio)","Любительский (двухголосый закадровый) (KerobTV)"],"seasons_count":1,"episodes_count":10,"episodes":10,"update":"2020-10-26 07:10:48","iframe_src":"//7720.svetacdn.in/si4jsFRrtgrT/tv-series/8589"},{"id":8232,"title":"Тени над Балканами","kp_id":"1195676","imdb_id":"tt6108262","world_art_id":null,"type":"serial","add":"2020-07-22 03:29:25","orig_title":"Senke nad Balkanom","year":"2017-08-16","translations":["Профессиональный (двухголосый закадровый) (ViruseProject)","Любительский (многоголосый закадровый) (WestFilm)"],"seasons_count":2,"episodes_count":20,"episodes":10,"update":"2020-10-26 07:13:11","iframe_src":"//7720.svetacdn.in/si4jsFRrtgrT/tv-series/8232"},{"id":40375,"title":"Пурнами","kp_id":"247874","imdb_id":"tt0471862","world_art_id":null,"type":"movie","add":"2020-05-13 19:37:52","orig_title":"Pournami","year":"2006-04-01","translations":["Профессиональный (многоголосый закадровый) (Red Media)","Профессиональный (многоголосый закадровый) (Red Media)"],"quality":"dvdrip","translation":"Профессиональный (многоголосый закадровый) (Red Media)","update":"2021-05-24 07:18:45","iframe_src":"//7720.svetacdn.in/si4jsFRrtgrT/movie/40375"},{"id":6455,"title":"Звёздный путь: Пикар","kp_id":"1178022","imdb_id":"tt8806524","world_art_id":null,"type":"serial","add":"2020-01-23 12:31:18","orig_title":"Star Trek: Picard","year":"2020-01-23","translations":["Любительский (многоголосый закадровый) (Octopus)","Любительский (многоголосый закадровый) (ColdFilm)","Любительский (многоголосый закадровый) (KerobTV)","Профессиональный (многоголосый закадровый) (SDI Media)","Профессиональный (многоголосый закадровый) (IdeaFilm)","Профессиональный (многоголосый закадровый) (HDrezka Studio)","Профессиональный (многоголосый закадровый) (LostFilm)","Профессиональный (многоголосый закадровый) (Jaskier)","Профессиональный (многоголосый закадровый) (NewStudio)","Профессиональный (многоголосый закадровый) (TVShows)","Профессиональный (многоголосый закадровый) (AlexFilm)","Профессиональный (многоголосый закадровый) (BaibaKo)","Любительский (многоголосый закадровый) (WestFilm)"],"seasons_count":1,"episodes_count":10,"episodes":10,"update":"2020-10-27 06:52:41","iframe_src":"//7720.svetacdn.in/si4jsFRrtgrT/tv-series/6455"},{"id":6513,"title":"Отряд «Дельта»","kp_id":"4651","imdb_id":"tt0090927","world_art_id":null,"type":"movie","add":"2016-10-20 06:00:19","orig_title":"The Delta Force","year":"1986-02-14","translations":["Профессиональный (многоголосый закадровый)","Любительский (многоголосый закадровый)","Авторский (одноголосый закадровый) (Дольский Андрей)","Авторский (одноголосый закадровый) (Горчаков Василий)","Авторский (одноголосый закадровый) (Сонькин Владимир)","Авторский (одноголосый закадровый) (Володарский Леонид)","Original (English)","Любительский (одноголосый закадровый)","Профессиональный (многоголосый закадровый) (2x2)","Профессиональный (многоголосый закадровый) (5-й канал СПб)","Профессиональный (многоголосый закадровый) (СТС)"],"quality":"hdtv","translation":"Профессиональный (многоголосый закадровый)","update":"2021-05-24 07:44:13","iframe_src":"//7720.svetacdn.in/si4jsFRrtgrT/movie/6513"},{"id":152,"title":"Слово на букву А","kp_id":"972221","imdb_id":"tt5311790","world_art_id":null,"type":"serial","add":"2016-06-07 10:27:23","orig_title":"The A Word","year":"2016-03-22","translations":["Любительский (двухголосый закадровый) (Sunshine Studio)","Профессиональный (многоголосый закадровый) (NewStudio)","Любительский (двухголосый закадровый) (Hamster Studio)"],"seasons_count":3,"episodes_count":18,"episodes":6,"update":"2020-10-26 13:37:20","iframe_src":"//7720.svetacdn.in/si4jsFRrtgrT/tv-series/152"}],"current_page":151,"first_page_url":"https://videocdn.tv/api/short?limit=100&api_token=X6EwAUfE5M9xbo7y0Bp0aPf3uXxG2KLL&cache3151=3151&page=1","from":15001,"last_page":648,"last_page_url":"https://videocdn.tv/api/short?limit=100&api_token=X6EwAUfE5M9xbo7y0Bp0aPf3uXxG2KLL&cache3151=3151&page=648","next_page_url":"https://videocdn.tv/api/short?limit=100&api_token=X6EwAUfE5M9xbo7y0Bp0aPf3uXxG2KLL&cache3151=3151&page=152","path":"https://videocdn.tv/api/short","per_page":100,"prev_page_url":"https://videocdn.tv/api/short?limit=100&api_token=X6EwAUfE5M9xbo7y0Bp0aPf3uXxG2KLL&cache3151=3151&page=150","to":15040,"total":64730}