{"result":true,"data":[{"id":45970,"title":"Рождественские зомби","kp_id":null,"imdb_id":"tt12906940","world_art_id":null,"type":"movie","add":"2020-12-10 05:46:11","orig_title":"Christmas Zombies","year":"2020-10-15","translations":["Любительский (многоголосый закадровый) (Синема УС)"],"quality":"webdl","translation":"Любительский (многоголосый закадровый) (Синема УС)","update":"2020-12-10 10:04:17","iframe_src":"//2413.svetacdn.in/si4jsFRrtgrT/movie/45970"},{"id":45935,"title":"Последняя ночь детства","kp_id":"467915","imdb_id":null,"world_art_id":null,"type":"movie","add":"2020-12-08 20:13:12","orig_title":"Последняя ночь детства","year":"1968-01-22","translations":["Оригинальная дорожка"],"quality":"webdl","translation":"Оригинальная дорожка","update":"2020-12-10 11:19:51","iframe_src":"//2413.svetacdn.in/si4jsFRrtgrT/movie/45935"},{"id":45934,"title":"Пыль под солнцем","kp_id":"487560","imdb_id":"tt4879382","world_art_id":null,"type":"movie","add":"2020-12-08 20:06:01","orig_title":"Pyl pod solntsem","year":"1978-11-13","translations":["Оригинальная дорожка"],"quality":"webdl","translation":"Оригинальная дорожка","update":"2020-12-10 11:18:07","iframe_src":"//2413.svetacdn.in/si4jsFRrtgrT/movie/45934"},{"id":45933,"title":"Рожденные бурей","kp_id":"42134","imdb_id":"tt0083011","world_art_id":null,"type":"movie","add":"2020-12-08 20:01:36","orig_title":"Rozhdyonnye burey","year":"1981-10-01","translations":["Оригинальная дорожка"],"quality":"webdl","translation":"Оригинальная дорожка","update":"2020-12-10 11:17:05","iframe_src":"//2413.svetacdn.in/si4jsFRrtgrT/movie/45933"},{"id":45932,"title":"Семь похищенных женихов","kp_id":"1209737","imdb_id":"tt5396392","world_art_id":null,"type":"movie","add":"2020-12-08 19:51:48","orig_title":"Sem pokhishchennykh zhenikhov","year":"1976-01-01","translations":["Оригинальная дорожка"],"quality":"webdl","translation":"Оригинальная дорожка","update":"2020-12-10 11:15:25","iframe_src":"//2413.svetacdn.in/si4jsFRrtgrT/movie/45932"},{"id":45931,"title":"Сказ о матери","kp_id":"471802","imdb_id":null,"world_art_id":null,"type":"movie","add":"2020-12-08 19:46:37","orig_title":"Сказ о матери","year":"1964-03-09","translations":["Оригинальная дорожка"],"quality":"webdl","translation":"Оригинальная дорожка","update":"2020-12-10 11:14:26","iframe_src":"//2413.svetacdn.in/si4jsFRrtgrT/movie/45931"},{"id":45928,"title":"Сорочинская ярмарка","kp_id":"43919","imdb_id":"tt0195292","world_art_id":null,"type":"movie","add":"2020-12-08 19:42:17","orig_title":"Sorochinskaya yarmarka","year":"1939-06-19","translations":["Оригинальная дорожка"],"quality":"dvdrip","translation":"Оригинальная дорожка","update":"2020-12-10 11:13:41","iframe_src":"//2413.svetacdn.in/si4jsFRrtgrT/movie/45928"},{"id":45926,"title":"Умри на коне","kp_id":"654809","imdb_id":null,"world_art_id":null,"type":"movie","add":"2020-12-08 19:39:25","orig_title":"Умри на коне","year":"1980-05-10","translations":["Оригинальная дорожка"],"quality":"iptv","translation":"Оригинальная дорожка","update":"2020-12-10 10:59:30","iframe_src":"//2413.svetacdn.in/si4jsFRrtgrT/movie/45926"},{"id":45924,"title":"Шквал","kp_id":"471854","imdb_id":null,"world_art_id":null,"type":"movie","add":"2020-12-08 19:34:17","orig_title":"Шквал","year":"1958-12-20","translations":["Оригинальная дорожка"],"quality":"webdl","translation":"Оригинальная дорожка","update":"2020-12-10 10:58:20","iframe_src":"//2413.svetacdn.in/si4jsFRrtgrT/movie/45924"},{"id":45909,"title":"Соль и хлеб","kp_id":"745409","imdb_id":null,"world_art_id":null,"type":"movie","add":"2020-12-07 21:42:11","orig_title":"Соль и хлеб","year":"1977-01-01","translations":["Оригинальная дорожка"],"quality":"webdl","translation":"Оригинальная дорожка","update":"2020-12-10 10:57:52","iframe_src":"//2413.svetacdn.in/si4jsFRrtgrT/movie/45909"},{"id":45908,"title":"Ты, песня моя","kp_id":"474538","imdb_id":"tt5372656","world_art_id":null,"type":"movie","add":"2020-12-07 21:35:10","orig_title":"Ty, pesnya moya","year":"1975-03-01","translations":["Оригинальная дорожка"],"quality":"tv","translation":"Оригинальная дорожка","update":"2020-12-10 10:56:46","iframe_src":"//2413.svetacdn.in/si4jsFRrtgrT/movie/45908"},{"id":45907,"title":"Улан","kp_id":"42518","imdb_id":"tt0174305","world_art_id":null,"type":"movie","add":"2020-12-07 21:32:44","orig_title":"Ulan","year":"1977-01-29","translations":["Оригинальная дорожка"],"quality":"webdl","translation":"Оригинальная дорожка","update":"2020-12-10 10:53:49","iframe_src":"//2413.svetacdn.in/si4jsFRrtgrT/movie/45907"},{"id":45906,"title":"Умей сказать «нет!»","kp_id":"959888","imdb_id":"tt5396534","world_art_id":null,"type":"movie","add":"2020-12-07 21:28:18","orig_title":"Umey skazat «net»!","year":"1976-01-01","translations":["Полное дублирование"],"quality":"webdl","translation":"Полное дублирование","update":"2020-12-10 10:52:56","iframe_src":"//2413.svetacdn.in/si4jsFRrtgrT/movie/45906"},{"id":45903,"title":"Человек и цепи","kp_id":"532934","imdb_id":null,"world_art_id":null,"type":"movie","add":"2020-12-07 21:12:29","orig_title":"Человек и цепи","year":"1964-01-01","translations":["Полное дублирование"],"quality":"vhs","translation":"Полное дублирование","update":"2020-12-10 10:28:50","iframe_src":"//2413.svetacdn.in/si4jsFRrtgrT/movie/45903"},{"id":45902,"title":"Я — Водолаз-2","kp_id":"472370","imdb_id":null,"world_art_id":null,"type":"movie","add":"2020-12-07 21:06:30","orig_title":"Я — Водолаз-2","year":"1976-07-26","translations":["Оригинальная дорожка"],"quality":"tv","translation":"Оригинальная дорожка","update":"2020-12-10 10:26:44","iframe_src":"//2413.svetacdn.in/si4jsFRrtgrT/movie/45902"},{"id":45791,"title":"Виктория","kp_id":"1438350","imdb_id":"tt12765534","world_art_id":null,"type":"movie","add":"2020-12-02 20:44:25","orig_title":"Victoria","year":"2020-11-26","translations":["Оригинальная дорожка","Оригинальная дорожка"],"quality":"ts","translation":"Оригинальная дорожка","update":"2020-12-10 05:03:22","iframe_src":"//2413.svetacdn.in/si4jsFRrtgrT/movie/45791"},{"id":38858,"title":"Напугай меня","kp_id":"1256089","imdb_id":"tt10126434","world_art_id":null,"type":"movie","add":"2020-04-03 19:40:37","orig_title":"Scare Me","year":"2020-01-24","translations":["Любительский (многоголосый закадровый) (Синема УС)","[EN] Original (English)","Любительский (многоголосый закадровый) (@MUZOBOZ@)","Полное дублирование (iTunes)"],"quality":"webdl","translation":"Любительский (многоголосый закадровый) (Синема УС)","update":"2020-12-10 10:01:29","iframe_src":"//2413.svetacdn.in/si4jsFRrtgrT/movie/38858"},{"id":7071,"title":"Между ангелом и бесом","kp_id":"20881","imdb_id":"tt0112366","world_art_id":null,"type":"movie","add":"2016-11-04 14:22:32","orig_title":"Les anges gardiens","year":"1995-10-11","translations":["Профессиональный (многоголосый закадровый)","Профессиональный (двухголосый закадровый)","Профессиональный (двухголосый закадровый) (Первый канал | ОРТ)","Профессиональный (многоголосый закадровый) (5-й канал СПб)","Профессиональный (многоголосый закадровый) (РТР | Россия)","Профессиональный (многоголосый закадровый) (Союз Видео)","Профессиональный (многоголосый закадровый) (Twister)"],"quality":"hdtv","translation":"Профессиональный (многоголосый закадровый)","update":"2020-12-10 08:01:47","iframe_src":"//2413.svetacdn.in/si4jsFRrtgrT/movie/7071"},{"id":5112,"title":"Плачущий убийца","kp_id":"5426","imdb_id":"tt0112750","world_art_id":null,"type":"movie","add":"2016-09-08 06:47:24","orig_title":"Crying Freeman","year":"1995-09-14","translations":["Профессиональный (многоголосый закадровый)","Авторский (одноголосый закадровый) (Гаевский Евгений)","Авторский (одноголосый закадровый) (Гаврилов Андрей)","[EN] Original (English)","Профессиональный (двухголосый закадровый) (РенТВ)","Профессиональный (многоголосый закадровый)","Профессиональный (многоголосый закадровый) (Нота)"],"quality":"bd","translation":"Профессиональный (многоголосый закадровый)","update":"2020-12-10 07:23:43","iframe_src":"//2413.svetacdn.in/si4jsFRrtgrT/movie/5112"},{"id":1797,"title":"Схватка","kp_id":"571","imdb_id":"tt0113277","world_art_id":null,"type":"movie","add":"2016-05-03 05:05:55","orig_title":"Heat","year":"1995-12-15","translations":["Профессиональный (многоголосый закадровый)","Авторский (одноголосый закадровый) (Есарев Дмитрий)","Авторский (одноголосый закадровый) (Гаевский Евгений)","Авторский (одноголосый закадровый) (Гаврилов Андрей)","Авторский (одноголосый закадровый) (Гоблин | Пучков Дмитрий)","Авторский (одноголосый закадровый) (Горчаков Василий)","Авторский (одноголосый закадровый) (Володарский Леонид)","Авторский (одноголосый закадровый) (Живов Юрий)","[EN] Original (English)","Профессиональный (двухголосый закадровый) (РенТВ)","Профессиональный (многоголосый закадровый) (Гемини)","Профессиональный (многоголосый закадровый) (Карусель)","Профессиональный (многоголосый закадровый) (Первый канал | ОРТ)","Профессиональный (многоголосый закадровый) (Twister)"],"quality":"bd","translation":"Профессиональный (многоголосый закадровый)","update":"2020-12-10 07:15:05","iframe_src":"//2413.svetacdn.in/si4jsFRrtgrT/movie/1797"}],"current_page":850,"first_page_url":"https://videocdn.tv/api/short?limit=100&api_token=X6EwAUfE5M9xbo7y0Bp0aPf3uXxG2KLL&cache3850=3850&page=1","from":84901,"last_page":711,"last_page_url":"https://videocdn.tv/api/short?limit=100&api_token=X6EwAUfE5M9xbo7y0Bp0aPf3uXxG2KLL&cache3850=3850&page=711","next_page_url":null,"path":"https://videocdn.tv/api/short","per_page":100,"prev_page_url":"https://videocdn.tv/api/short?limit=100&api_token=X6EwAUfE5M9xbo7y0Bp0aPf3uXxG2KLL&cache3850=3850&page=849","to":84920,"total":71091}