{"result":true,"data":[{"id":29147,"title":"День, когда мы ступили на луну","kp_id":null,"imdb_id":"tt9577222","world_art_id":null,"type":"movie","add":"2019-07-19 03:29:55","orig_title":"The Day We Walked On The Moon","year":"2019-07-07","translations":["Любительский (многоголосый закадровый) (Синема УС)"],"quality":"webdl","translation":"Любительский (многоголосый закадровый) (Синема УС)","update":"2019-07-19 05:23:12","iframe_src":"//7720.svetacdn.in/71tsRs29n5tZ/movie/29147"},{"id":29146,"title":"На грани","kp_id":"1244971","imdb_id":"tt9600932","world_art_id":null,"type":"movie","add":"2019-07-19 03:26:58","orig_title":"The Brink","year":"2019-01-30","translations":["Любительский (многоголосый закадровый) (Синема УС)"],"quality":"webdl","translation":"Любительский (многоголосый закадровый) (Синема УС)","update":"2019-07-19 05:24:42","iframe_src":"//7720.svetacdn.in/71tsRs29n5tZ/movie/29146"},{"id":29145,"title":"Записки Нила Армстронга","kp_id":null,"imdb_id":"tt10525592","world_art_id":null,"type":"movie","add":"2019-07-19 03:25:27","orig_title":"The Armstrong Tapes","year":"2019-07-08","translations":["Любительский (многоголосый закадровый) (Синема УС)"],"quality":"webdl","translation":"Любительский (многоголосый закадровый) (Синема УС)","update":"2019-07-19 04:45:44","iframe_src":"//7720.svetacdn.in/71tsRs29n5tZ/movie/29145"},{"id":29144,"title":"Кванта","kp_id":"1014033","imdb_id":"tt5865284","world_art_id":null,"type":"movie","add":"2019-07-19 03:19:37","orig_title":"Quanta","year":"2019-01-01","translations":["Любительский (многоголосый закадровый) (Синема УС)"],"quality":"webdl","translation":"Любительский (многоголосый закадровый) (Синема УС)","update":"2019-07-19 04:49:34","iframe_src":"//7720.svetacdn.in/71tsRs29n5tZ/movie/29144"},{"id":29143,"title":"Оннели, Аннели и усыпляющие часы","kp_id":"1215276","imdb_id":"tt9140306","world_art_id":null,"type":"movie","add":"2019-07-19 03:17:56","orig_title":"Onneli, Anneli ja nukutuskello","year":"2018-12-25","translations":["Профессиональный (многоголосый закадровый) (AlphaProject)"],"quality":"dvdrip","translation":"Профессиональный (многоголосый закадровый) (AlphaProject)","update":"2019-07-19 04:50:55","iframe_src":"//7720.svetacdn.in/71tsRs29n5tZ/movie/29143"},{"id":29142,"title":"Найди меня","kp_id":"1082107","imdb_id":"tt6740154","world_art_id":null,"type":"movie","add":"2019-07-19 03:12:26","orig_title":"Find Me","year":"2018-10-06","translations":["Любительский (многоголосый закадровый) (Синема УС)"],"quality":"webdl","translation":"Любительский (многоголосый закадровый) (Синема УС)","update":"2019-07-19 04:52:16","iframe_src":"//7720.svetacdn.in/71tsRs29n5tZ/movie/29142"},{"id":29141,"title":"Капитан Блэк","kp_id":"1003389","imdb_id":"tt6063648","world_art_id":null,"type":"movie","add":"2019-07-19 03:09:57","orig_title":"Captain Black","year":"2019-07-17","translations":["Любительский (многоголосый закадровый) (Синема УС)"],"quality":"webdl","translation":"Любительский (многоголосый закадровый) (Синема УС)","update":"2019-07-19 04:50:54","iframe_src":"//7720.svetacdn.in/71tsRs29n5tZ/movie/29141"},{"id":29140,"title":"Андрэ Гигант","kp_id":"1118146","imdb_id":"tt6543420","world_art_id":null,"type":"movie","add":"2019-07-19 03:04:14","orig_title":"Andre the Giant","year":"2018-04-10","translations":["Любительский (многоголосый закадровый) (Синема УС)"],"quality":"webdl","translation":"Любительский (многоголосый закадровый) (Синема УС)","update":"2019-07-19 04:54:45","iframe_src":"//7720.svetacdn.in/71tsRs29n5tZ/movie/29140"},{"id":29139,"title":"Баллада о непобежденном","kp_id":"1047085","imdb_id":"tt7652314","world_art_id":null,"type":"movie","add":"2019-07-18 22:45:32","orig_title":"Ballada o nepobezhdyonnom","year":"2017-03-01","translations":["Оригинальная дорожка"],"quality":"webdl","translation":"Оригинальная дорожка","update":"2019-07-19 04:55:50","iframe_src":"//7720.svetacdn.in/71tsRs29n5tZ/movie/29139"},{"id":29119,"title":"Военная тайна","kp_id":"45866","imdb_id":"tt0334661","world_art_id":null,"type":"movie","add":"2019-07-18 21:24:20","orig_title":"Voennaya tayna","year":"1959-05-18","translations":["Оригинальная дорожка"],"quality":"sat","translation":"Оригинальная дорожка","update":"2019-07-19 05:33:21","iframe_src":"//7720.svetacdn.in/71tsRs29n5tZ/movie/29119"},{"id":29118,"title":"Вольный ветер","kp_id":"45831","imdb_id":"tt0176297","world_art_id":null,"type":"movie","add":"2019-07-18 21:21:10","orig_title":"Volnyy veter","year":"1961-07-03","translations":["Оригинальная дорожка"],"quality":"dvdrip","translation":"Оригинальная дорожка","update":"2019-07-19 05:32:45","iframe_src":"//7720.svetacdn.in/71tsRs29n5tZ/movie/29118"},{"id":29117,"title":"Меч победы","kp_id":"740433","imdb_id":"tt2870706","world_art_id":null,"type":"movie","add":"2019-07-18 21:18:28","orig_title":"Mech Pobedy","year":"2013-02-28","translations":["Оригинальная дорожка"],"quality":"iptv","translation":"Оригинальная дорожка","update":"2019-07-19 05:31:16","iframe_src":"//7720.svetacdn.in/71tsRs29n5tZ/movie/29117"},{"id":29116,"title":"Бесаме","kp_id":"46095","imdb_id":"tt0286501","world_art_id":null,"type":"movie","add":"2019-07-18 21:12:59","orig_title":"Besame","year":"1989-01-01","translations":["Профессиональный (двухголосый закадровый)"],"quality":"dvb","translation":"Профессиональный (двухголосый закадровый)","update":"2019-07-19 05:29:39","iframe_src":"//7720.svetacdn.in/71tsRs29n5tZ/movie/29116"},{"id":29115,"title":"Сын председателя","kp_id":"44068","imdb_id":"tt0075298","world_art_id":null,"type":"movie","add":"2019-07-18 21:08:39","orig_title":"Syn predsedatelya","year":"1976-10-25","translations":["Оригинальная дорожка"],"quality":"dvb","translation":"Оригинальная дорожка","update":"2019-07-19 05:02:13","iframe_src":"//7720.svetacdn.in/71tsRs29n5tZ/movie/29115"},{"id":29114,"title":"В одной спальне","kp_id":"1065048","imdb_id":"tt7236434","world_art_id":null,"type":"movie","add":"2019-07-18 20:32:31","orig_title":"One Bedroom","year":"2018-04-27","translations":["Любительский (многоголосый закадровый) (Синема УС)"],"quality":"webdl","translation":"Любительский (многоголосый закадровый) (Синема УС)","update":"2019-07-19 04:12:19","iframe_src":"//7720.svetacdn.in/71tsRs29n5tZ/movie/29114"},{"id":29113,"title":"Возвращение в Отель Ужасов","kp_id":"1282748","imdb_id":"tt10581102","world_art_id":null,"type":"movie","add":"2019-07-18 20:27:58","orig_title":"Return to Horror Hotel","year":"2019-06-13","translations":["Любительский (многоголосый закадровый) (Синема УС)"],"quality":"webdl","translation":"Любительский (многоголосый закадровый) (Синема УС)","update":"2019-07-19 04:11:25","iframe_src":"//7720.svetacdn.in/71tsRs29n5tZ/movie/29113"},{"id":29112,"title":"Забери меня на Луну","kp_id":"1073238","imdb_id":null,"world_art_id":null,"type":"movie","add":"2019-07-18 20:25:48","orig_title":"Dai wo qu yue qiu","year":"2017-12-01","translations":["Любительский (многоголосый закадровый) (Синема УС)"],"quality":"bd","translation":"Любительский (многоголосый закадровый) (Синема УС)","update":"2019-07-19 04:09:35","iframe_src":"//7720.svetacdn.in/71tsRs29n5tZ/movie/29112"},{"id":29111,"title":"Искушая судьбу","kp_id":"1173186","imdb_id":"tt8700938","world_art_id":null,"type":"movie","add":"2019-07-18 20:21:38","orig_title":"Tempting Fate","year":"2019-06-15","translations":["Любительский (многоголосый закадровый) (Синема УС)"],"quality":"webdl","translation":"Любительский (многоголосый закадровый) (Синема УС)","update":"2019-07-19 04:13:31","iframe_src":"//7720.svetacdn.in/71tsRs29n5tZ/movie/29111"},{"id":25946,"title":"Караси","kp_id":"420302","imdb_id":"tt3473888","world_art_id":null,"type":"movie","add":"2019-05-04 18:10:19","orig_title":"Karasi","year":"2008-03-30","translations":["Оригинальная дорожка","Оригинальная дорожка"],"quality":"hdtv","translation":"Оригинальная дорожка","update":"2019-07-19 05:31:28","iframe_src":"//7720.svetacdn.in/71tsRs29n5tZ/movie/25946"},{"id":10833,"title":"Танцы насмерть","kp_id":"930535","imdb_id":"tt5242684","world_art_id":null,"type":"movie","add":"2017-04-09 21:33:31","orig_title":"Tantsy nasmert","year":"2017-04-06","translations":["Оригинальная дорожка","Оригинальная дорожка"],"quality":"webdl","translation":"Оригинальная дорожка","update":"2019-07-19 04:58:57","iframe_src":"//7720.svetacdn.in/71tsRs29n5tZ/movie/10833"}],"current_page":1377,"first_page_url":"https://videocdn.tv/api/short?limit=100&api_token=EnbO9h8pv1VyjbCJhg0WM9nG259n7mtz&cache31377=31377&page=1","from":137601,"last_page":649,"last_page_url":"https://videocdn.tv/api/short?limit=100&api_token=EnbO9h8pv1VyjbCJhg0WM9nG259n7mtz&cache31377=31377&page=649","next_page_url":null,"path":"https://videocdn.tv/api/short","per_page":100,"prev_page_url":"https://videocdn.tv/api/short?limit=100&api_token=EnbO9h8pv1VyjbCJhg0WM9nG259n7mtz&cache31377=31377&page=1376","to":137620,"total":64845}