{"result":true,"data":[{"id":51694,"title":"Витрина DC: Лузеры","kp_id":"4501693","imdb_id":"tt14948338","world_art_id":null,"type":"movie","add":"2021-07-11 16:23:08","orig_title":"DC Showcase: The Losers","year":"2021-06-22","translations":["Любительский (многоголосый закадровый) (NewStation)"],"quality":"bd","translation":"Любительский (многоголосый закадровый) (NewStation)","update":"2021-07-11 17:21:04","iframe_src":"//7741.svetacdn.in/71tsRs29n5tZ/movie/51694"},{"id":51689,"title":"Одной ногой в раю","kp_id":"25353","imdb_id":"tt0102667","world_art_id":null,"type":"movie","add":"2021-07-11 06:44:36","orig_title":"Un piede in paradiso","year":"1991-03-15","translations":["Original (English)","Любительский (одноголосый закадровый) (Кудрявцев Антон)"],"quality":"bd","translation":"Original (English)","update":"2021-07-12 06:44:45","iframe_src":"//7741.svetacdn.in/71tsRs29n5tZ/movie/51689"},{"id":51688,"title":"Девушка с чемоданом","kp_id":"13539","imdb_id":"tt0054225","world_art_id":null,"type":"movie","add":"2021-07-11 06:38:02","orig_title":"La ragazza con la valigia","year":"1961-02-09","translations":["Профессиональный (двухголосый закадровый) (РенТВ)"],"quality":"bd","translation":"Профессиональный (двухголосый закадровый) (РенТВ)","update":"2021-07-12 06:53:31","iframe_src":"//7741.svetacdn.in/71tsRs29n5tZ/movie/51688"},{"id":51687,"title":"Дикки Робертс: Звездный ребенок","kp_id":"4195","imdb_id":"tt0325258","world_art_id":null,"type":"movie","add":"2021-07-11 06:33:22","orig_title":"Dickie Roberts: Former Child Star","year":"2003-09-03","translations":["Профессиональный (многоголосый закадровый)","Original (English)"],"quality":"webdl","translation":"Профессиональный (многоголосый закадровый)","update":"2021-07-12 06:56:33","iframe_src":"//7741.svetacdn.in/71tsRs29n5tZ/movie/51687"},{"id":51676,"title":"Грабители поездов","kp_id":"1333","imdb_id":"tt0070825","world_art_id":null,"type":"movie","add":"2021-07-10 13:11:34","orig_title":"The Train Robbers","year":"1973-02-07","translations":["Original (English)","Полное дублирование (Варус-Видео)"],"quality":"bd","translation":"Original (English)","update":"2021-07-12 07:25:31","iframe_src":"//7741.svetacdn.in/71tsRs29n5tZ/movie/51676"},{"id":51662,"title":"Супермен/Бэтмен: Враги общества","kp_id":"456468","imdb_id":"tt1398941","world_art_id":null,"type":"movie","add":"2021-07-09 13:05:35","orig_title":"Superman/Batman: Public Enemies","year":"2009-09-29","translations":["Профессиональный (многоголосый закадровый) (Flarrow Films)"],"quality":"bd","translation":"Профессиональный (многоголосый закадровый) (Flarrow Films)","update":"2021-07-11 17:28:02","iframe_src":"//7741.svetacdn.in/71tsRs29n5tZ/movie/51662"},{"id":48047,"title":"Дара из Ясеноваца","kp_id":"1282662","imdb_id":"tt10554232","world_art_id":null,"type":"movie","add":"2021-02-19 00:49:25","orig_title":"Dara iz Jasenovca","year":"2021-02-05","translations":["Любительский (многоголосый закадровый) (@MUZOBOZ@)","Профессиональный (двухголосый закадровый) (Pazl Voice)"],"quality":"webdl","translation":"Любительский (многоголосый закадровый) (@MUZOBOZ@)","update":"2021-07-12 06:47:59","iframe_src":"//7741.svetacdn.in/71tsRs29n5tZ/movie/48047"},{"id":45378,"title":"ЛЕГО Звездные войны: Праздничный спецвыпуск","kp_id":"1402705","imdb_id":"tt12885438","world_art_id":null,"type":"movie","add":"2020-11-17 18:26:31","orig_title":"The Lego Star Wars Holiday Special","year":"2020-11-17","translations":["Любительский (многоголосый закадровый) (AlphaProject)","Original (English)","Профессиональный (многоголосый закадровый) (Flarrow Films)"],"quality":"webdl","translation":"Любительский (многоголосый закадровый) (AlphaProject)","update":"2021-07-11 17:36:45","iframe_src":"//7741.svetacdn.in/71tsRs29n5tZ/movie/45378"},{"id":37467,"title":"Джунгли","kp_id":"1052754","imdb_id":"tt7463730","world_art_id":null,"type":"movie","add":"2020-03-05 19:58:48","orig_title":"Junglee","year":"2019-03-28","translations":["Любительский (многоголосый закадровый) (Honey&Haseena)","Любительский (двухголосый закадровый) (OnisFilms)"],"quality":"webdl","translation":"Любительский (многоголосый закадровый) (Honey&Haseena)","update":"2021-07-12 07:09:28","iframe_src":"//7741.svetacdn.in/71tsRs29n5tZ/movie/37467"},{"id":34680,"title":"Авансцена 2","kp_id":"400665","imdb_id":"tt1145144","world_art_id":null,"type":"movie","add":"2020-01-02 20:01:31","orig_title":"Center Stage: Turn It Up","year":"2008-10-30","translations":["Профессиональный (двухголосый закадровый)","Профессиональный (двухголосый закадровый) (НТВ)","Original (English)"],"quality":"hdtv","translation":"Профессиональный (двухголосый закадровый)","update":"2021-07-12 06:39:12","iframe_src":"//7741.svetacdn.in/71tsRs29n5tZ/movie/34680"},{"id":6032,"title":"Остров сокровищ","kp_id":"95172","imdb_id":"tt0084452","world_art_id":null,"type":"serial","add":"2019-12-12 14:42:22","orig_title":"Ostrov sokrovishch","year":"1982-12-31","translations":["Оригинальная дорожка"],"seasons_count":1,"episodes_count":3,"episodes":3,"update":"2019-12-12 20:02:18","iframe_src":"//7741.svetacdn.in/71tsRs29n5tZ/tv-series/6032"},{"id":6031,"title":"Сердце не камень","kp_id":"79879","imdb_id":"tt0098291","world_art_id":null,"type":"serial","add":"2019-12-12 14:40:19","orig_title":"Serdtse ne kamen","year":"1989-01-01","translations":["Оригинальная дорожка"],"seasons_count":1,"episodes_count":2,"episodes":2,"update":"2019-12-12 20:03:15","iframe_src":"//7741.svetacdn.in/71tsRs29n5tZ/tv-series/6031"},{"id":6030,"title":"Два капитана","kp_id":"81483","imdb_id":"tt0287213","world_art_id":null,"type":"serial","add":"2019-12-12 14:37:36","orig_title":"Dva kapitana","year":"1976-02-26","translations":["Оригинальная дорожка"],"seasons_count":1,"episodes_count":6,"episodes":6,"update":"2019-12-12 20:05:58","iframe_src":"//7741.svetacdn.in/71tsRs29n5tZ/tv-series/6030"},{"id":6029,"title":"Отряд специального назначения","kp_id":"468116","imdb_id":"tt4760824","world_art_id":null,"type":"serial","add":"2019-12-12 14:34:56","orig_title":"Otryad spetsyalnogo naznacheniya","year":"1987-12-20","translations":["Оригинальная дорожка"],"seasons_count":1,"episodes_count":5,"episodes":5,"update":"2019-12-12 20:08:58","iframe_src":"//7741.svetacdn.in/71tsRs29n5tZ/tv-series/6029"},{"id":6028,"title":"Сказки старого волшебника","kp_id":"43819","imdb_id":"tt0258968","world_art_id":null,"type":"serial","add":"2019-12-12 14:32:12","orig_title":"Skazki starogo volshebnika","year":"1985-01-01","translations":["Оригинальная дорожка"],"seasons_count":1,"episodes_count":2,"episodes":2,"update":"2019-12-12 20:07:07","iframe_src":"//7741.svetacdn.in/71tsRs29n5tZ/tv-series/6028"},{"id":6017,"title":"Высоко над страхом","kp_id":"1320016","imdb_id":null,"world_art_id":null,"type":"serial","add":"2019-12-12 05:12:20","orig_title":"Высоко над страхом","year":"2019-09-20","translations":["Оригинальная дорожка"],"seasons_count":1,"episodes_count":2,"episodes":2,"update":"2019-12-12 10:30:00","iframe_src":"//7741.svetacdn.in/71tsRs29n5tZ/tv-series/6017"},{"id":6016,"title":"Родные руки","kp_id":"1252897","imdb_id":null,"world_art_id":null,"type":"serial","add":"2019-12-12 05:10:15","orig_title":"Родные руки","year":"2019-03-22","translations":["Оригинальная дорожка"],"seasons_count":1,"episodes_count":2,"episodes":2,"update":"2019-12-12 10:15:03","iframe_src":"//7741.svetacdn.in/71tsRs29n5tZ/tv-series/6016"},{"id":6012,"title":"Сплит","kp_id":"635403","imdb_id":"tt4601526","world_art_id":null,"type":"serial","add":"2019-12-11 19:09:01","orig_title":"Split","year":"2011-10-17","translations":["Оригинальная дорожка"],"seasons_count":1,"episodes_count":40,"episodes":40,"update":"2019-12-12 19:59:21","iframe_src":"//7741.svetacdn.in/71tsRs29n5tZ/tv-series/6012"},{"id":6011,"title":"Семейный детектив","kp_id":"660984","imdb_id":"tt2188305","world_art_id":null,"type":"serial","add":"2019-12-11 18:31:36","orig_title":"Semeynyy detektiv","year":"2012-01-23","translations":["Оригинальная дорожка"],"seasons_count":2,"episodes_count":65,"episodes":25,"update":"2019-12-12 19:44:58","iframe_src":"//7741.svetacdn.in/71tsRs29n5tZ/tv-series/6011"},{"id":6006,"title":"Зеленый Фонарь: Анимационный сериал","kp_id":"568058","imdb_id":"tt1724587","world_art_id":null,"type":"serial","add":"2019-12-11 10:21:12","orig_title":"Green Lantern: The Animated Series","year":"2011-11-11","translations":["Полное дублирование (Пифагор)"],"seasons_count":1,"episodes_count":25,"episodes":25,"update":"2019-12-11 18:03:16","iframe_src":"//7741.svetacdn.in/71tsRs29n5tZ/tv-series/6006"},{"id":6005,"title":"Я всё преодолею","kp_id":"840218","imdb_id":null,"world_art_id":null,"type":"serial","add":"2019-12-11 08:40:35","orig_title":"Я всё преодолею","year":"2014-06-07","translations":["Оригинальная дорожка"],"seasons_count":1,"episodes_count":4,"episodes":4,"update":"2019-12-11 17:42:07","iframe_src":"//7741.svetacdn.in/71tsRs29n5tZ/tv-series/6005"},{"id":6001,"title":"Лило и Стич","kp_id":"230374","imdb_id":"tt0364774","world_art_id":null,"type":"serial","add":"2019-12-10 13:07:13","orig_title":"Lilo & Stitch: The Series","year":"2003-09-20","translations":["Полное дублирование (Невафильм | Нева-1)"],"seasons_count":2,"episodes_count":65,"episodes":26,"update":"2019-12-12 19:08:11","iframe_src":"//7741.svetacdn.in/71tsRs29n5tZ/tv-series/6001"},{"id":5985,"title":"Стыд. Нидерланды","kp_id":"1214468","imdb_id":"tt8929792","world_art_id":null,"type":"serial","add":"2019-12-09 17:32:54","orig_title":"Skam NL","year":"2018-09-16","translations":["Любительский (двухголосый закадровый) (GoldTeam)"],"seasons_count":1,"episodes_count":10,"episodes":10,"update":"2019-12-12 17:19:31","iframe_src":"//7741.svetacdn.in/71tsRs29n5tZ/tv-series/5985"},{"id":5969,"title":"Психология любви","kp_id":"1283726","imdb_id":null,"world_art_id":null,"type":"serial","add":"2019-12-07 06:07:16","orig_title":"Психология любви","year":"2019-04-16","translations":["Оригинальная дорожка"],"seasons_count":1,"episodes_count":4,"episodes":4,"update":"2019-12-11 17:38:29","iframe_src":"//7741.svetacdn.in/71tsRs29n5tZ/tv-series/5969"},{"id":5946,"title":"Полицейский с Рублёвки. Полицейская академия","kp_id":"1323572","imdb_id":null,"world_art_id":null,"type":"serial","add":"2019-12-05 05:31:04","orig_title":"Полицейский с Рублёвки. Полицейская академия","year":"2019-12-05","translations":["Оригинальная дорожка"],"seasons_count":1,"episodes_count":8,"episodes":8,"update":"2019-12-12 02:49:11","iframe_src":"//7741.svetacdn.in/71tsRs29n5tZ/tv-series/5946"},{"id":5945,"title":"Поймай призрака","kp_id":"1253834","imdb_id":"tt10712926","world_art_id":null,"type":"serial","add":"2019-12-04 22:47:42","orig_title":"Yooryungeul Jabara","year":"2019-10-21","translations":["Любительский (двухголосый закадровый) (HighHopes)"],"seasons_count":1,"episodes_count":16,"episodes":16,"update":"2019-12-12 15:22:37","iframe_src":"//7741.svetacdn.in/71tsRs29n5tZ/tv-series/5945"},{"id":5891,"title":"Классный мюзикл: Мюзикл","kp_id":"1216620","imdb_id":"tt8510382","world_art_id":null,"type":"serial","add":"2019-11-29 11:46:28","orig_title":"High School Musical: The Musical - The Series","year":"2019-11-08","translations":["Профессиональный (одноголосый закадровый) (Sound Film)"],"seasons_count":1,"episodes_count":5,"episodes":5,"update":"2019-12-12 16:15:17","iframe_src":"//7741.svetacdn.in/71tsRs29n5tZ/tv-series/5891"},{"id":32851,"title":"Бэтмен: Рыцарь Готэма","kp_id":"401176","imdb_id":"tt1117563","world_art_id":null,"type":"movie","add":"2019-11-07 21:38:12","orig_title":"Batman: Gotham Knight","year":"2008-07-03","translations":["Профессиональный (двухголосый закадровый)","Профессиональный (многоголосый закадровый) (Flarrow Films)"],"quality":"bd","translation":"Профессиональный (двухголосый закадровый)","update":"2021-07-11 17:30:05","iframe_src":"//7741.svetacdn.in/71tsRs29n5tZ/movie/32851"},{"id":5576,"title":"Миссис Флетчер","kp_id":"1118647","imdb_id":"tt8304608","world_art_id":null,"type":"serial","add":"2019-10-30 09:30:58","orig_title":"Mrs. Fletcher","year":"2019-10-27","translations":["Профессиональный (многоголосый закадровый) (Jaskier)","Любительский (многоголосый закадровый) (Octopus)","Профессиональный (многоголосый закадровый) (TVShows)"],"seasons_count":1,"episodes_count":7,"episodes":7,"update":"2019-12-12 15:19:27","iframe_src":"//7741.svetacdn.in/71tsRs29n5tZ/tv-series/5576"},{"id":5535,"title":"Система","kp_id":"1192380","imdb_id":"tt4699888","world_art_id":null,"type":"serial","add":"2019-10-27 14:54:57","orig_title":"Il sistema","year":"2016-04-18","translations":["Профессиональный (многоголосый закадровый) (ViruseProject)"],"seasons_count":1,"episodes_count":12,"episodes":12,"update":"2019-12-12 13:33:36","iframe_src":"//7741.svetacdn.in/71tsRs29n5tZ/tv-series/5535"},{"id":32309,"title":"Супермен/Бэтмен: Апокалипсис","kp_id":"527655","imdb_id":"tt1673430","world_art_id":null,"type":"movie","add":"2019-10-25 04:45:35","orig_title":"Superman/Batman: Apocalypse","year":"2010-09-28","translations":["Любительский (многоголосый закадровый)","Профессиональный (многоголосый закадровый) (Flarrow Films)"],"quality":"bd","translation":"Любительский (многоголосый закадровый)","update":"2021-07-11 17:15:00","iframe_src":"//7741.svetacdn.in/71tsRs29n5tZ/movie/32309"},{"id":27237,"title":"Бэтмэн: Маска фантазма","kp_id":"8669","imdb_id":"tt0106364","world_art_id":null,"type":"movie","add":"2019-05-30 03:57:44","orig_title":"Batman: Mask of the Phantasm","year":"1993-12-25","translations":["Профессиональный (двухголосый закадровый)","Профессиональный (многоголосый закадровый) (Flarrow Films)"],"quality":"bd","translation":"Профессиональный (двухголосый закадровый)","update":"2021-07-11 17:09:47","iframe_src":"//7741.svetacdn.in/71tsRs29n5tZ/movie/27237"},{"id":24389,"title":"В двух шагах от «Рая»","kp_id":"45593","imdb_id":"tt0262863","world_art_id":null,"type":"movie","add":"2019-04-12 11:10:23","orig_title":"V dvukh shagakh ot 'Raya'","year":"1985-05-06","translations":["Оригинальная дорожка","Оригинальная дорожка"],"quality":"dvdrip","translation":"Оригинальная дорожка","update":"2021-07-12 06:31:51","iframe_src":"//7741.svetacdn.in/71tsRs29n5tZ/movie/24389"},{"id":16842,"title":"Настоящее преступление","kp_id":"587732","imdb_id":"tt1901024","world_art_id":null,"type":"movie","add":"2018-05-19 21:13:03","orig_title":"True Crimes","year":"2016-10-12","translations":["Любительский (многоголосый закадровый) (@MUZOBOZ@)","Полное дублирование","Профессиональный (многоголосый закадровый) (GreenРай Studio)","Профессиональный (многоголосый закадровый) (Jaskier)","Профессиональный (многоголосый закадровый) (HDrezka Studio)","Профессиональный (многоголосый закадровый) (Flarrow Films)"],"quality":"webdl","translation":"Любительский (многоголосый закадровый) (@MUZOBOZ@)","update":"2021-07-11 17:11:52","iframe_src":"//7741.svetacdn.in/71tsRs29n5tZ/movie/16842"},{"id":16752,"title":"Голод","kp_id":"9418","imdb_id":"tt0085701","world_art_id":null,"type":"movie","add":"2018-05-10 23:22:15","orig_title":"The Hunger","year":"1983-04-29","translations":["Авторский (одноголосый закадровый) (Михалёв Алексей)","Профессиональный (многоголосый закадровый)"],"quality":"bd","translation":"Авторский (одноголосый закадровый) (Михалёв Алексей)","update":"2021-07-12 07:07:12","iframe_src":"//7741.svetacdn.in/71tsRs29n5tZ/movie/16752"},{"id":16384,"title":"Сверхновый Супермен","kp_id":"557848","imdb_id":"tt1699114","world_art_id":null,"type":"movie","add":"2018-04-20 07:55:05","orig_title":"All-Star Superman","year":"2011-02-22","translations":["Любительский (двухголосый закадровый)","Профессиональный (многоголосый закадровый) (Flarrow Films)"],"quality":"bd","translation":"Любительский (двухголосый закадровый)","update":"2021-07-11 17:43:26","iframe_src":"//7741.svetacdn.in/71tsRs29n5tZ/movie/16384"},{"id":14248,"title":"Целитель","kp_id":"898818","imdb_id":"tt4356480","world_art_id":null,"type":"movie","add":"2017-11-05 23:11:08","orig_title":"The Healer","year":"2017-02-17","translations":["Любительский (двухголосый закадровый) (RecentFilms)","Любительский (многоголосый закадровый) (Синема УС)","Original (English)","Любительский (двухголосый закадровый) (RecentFilms)"],"quality":"bd","translation":"Любительский (двухголосый закадровый) (RecentFilms)","update":"2021-07-12 06:52:21","iframe_src":"//7741.svetacdn.in/71tsRs29n5tZ/movie/14248"},{"id":1467,"title":"Аббатство Даунтон","kp_id":"518192","imdb_id":"tt1606375","world_art_id":null,"type":"serial","add":"2017-08-14 16:05:57","orig_title":"Downton Abbey","year":"2010-09-26","translations":["Профессиональный (многоголосый закадровый) (Русский дубляж)","Профессиональный (многоголосый закадровый) (BaibaKo)","Профессиональный (многоголосый закадровый) (СВ-Дубль)"],"seasons_count":6,"episodes_count":52,"episodes":9,"update":"2019-12-12 17:23:31","iframe_src":"//7741.svetacdn.in/71tsRs29n5tZ/tv-series/1467"},{"id":11146,"title":"Игби идет ко дну","kp_id":"709","imdb_id":"tt0280760","world_art_id":null,"type":"movie","add":"2017-04-20 16:32:35","orig_title":"Igby Goes Down","year":"2002-05-23","translations":["Профессиональный (двухголосый закадровый)","Профессиональный (многоголосый закадровый) (Гемини)"],"quality":"hdtv","translation":"Профессиональный (двухголосый закадровый)","update":"2021-07-12 07:08:15","iframe_src":"//7741.svetacdn.in/71tsRs29n5tZ/movie/11146"},{"id":6422,"title":"Бэтмен: Возвращение рыцарей в масках","kp_id":"997205","imdb_id":"tt5973626","world_art_id":null,"type":"movie","add":"2016-10-18 07:11:06","orig_title":"Batman: Return of the Caped Crusaders","year":"2016-10-06","translations":["Любительский (многоголосый закадровый)","Профессиональный (многоголосый закадровый) (Flarrow Films)"],"quality":"webdl","translation":"Любительский (многоголосый закадровый)","update":"2021-07-11 17:47:32","iframe_src":"//7741.svetacdn.in/71tsRs29n5tZ/movie/6422"}],"current_page":389,"first_page_url":"https://videocdn.tv/api/short?limit=100&api_token=EnbO9h8pv1VyjbCJhg0WM9nG259n7mtz&cache3389=3389&page=1","from":38801,"last_page":702,"last_page_url":"https://videocdn.tv/api/short?limit=100&api_token=EnbO9h8pv1VyjbCJhg0WM9nG259n7mtz&cache3389=3389&page=702","next_page_url":"https://videocdn.tv/api/short?limit=100&api_token=EnbO9h8pv1VyjbCJhg0WM9nG259n7mtz&cache3389=3389&page=390","path":"https://videocdn.tv/api/short","per_page":100,"prev_page_url":"https://videocdn.tv/api/short?limit=100&api_token=EnbO9h8pv1VyjbCJhg0WM9nG259n7mtz&cache3389=3389&page=388","to":38840,"total":70147}