{"result":true,"data":[{"id":17396,"title":"Отелло","kp_id":"3735","imdb_id":"tt0114057","world_art_id":null,"type":"movie","add":"2018-06-26 05:06:54","orig_title":"Othello","year":"1995-12-15","translations":["Профессиональный (многоголосый закадровый)"],"quality":"webdl","translation":"Профессиональный (многоголосый закадровый)","update":"2018-06-28 10:54:45","iframe_src":"//83.svetacdn.in/PfJ50H0ZBPg3/movie/17396"},{"id":17395,"title":"Доводы рассудка","kp_id":"37331","imdb_id":"tt0114117","world_art_id":null,"type":"movie","add":"2018-06-26 05:05:32","orig_title":"Persuasion","year":"1995-04-16","translations":["Профессиональный (многоголосый закадровый)"],"quality":"webdl","translation":"Профессиональный (многоголосый закадровый)","update":"2018-06-28 10:55:56","iframe_src":"//83.svetacdn.in/PfJ50H0ZBPg3/movie/17395"},{"id":17394,"title":"Не тронь добычу","kp_id":"83134","imdb_id":"tt0046451","world_art_id":null,"type":"movie","add":"2018-06-26 05:03:46","orig_title":"Touchez pas au grisbi","year":"1954-03-17","translations":["Профессиональный (многоголосый закадровый)"],"quality":"bd","translation":"Профессиональный (многоголосый закадровый)","update":"2018-06-28 10:57:02","iframe_src":"//83.svetacdn.in/PfJ50H0ZBPg3/movie/17394"},{"id":17393,"title":"Девочка из переулка","kp_id":"6972","imdb_id":"tt0074806","world_art_id":null,"type":"movie","add":"2018-06-26 05:02:48","orig_title":"The Little Girl Who Lives Down the Lane","year":"1976-12-25","translations":["Профессиональный (многоголосый закадровый)"],"quality":"bd","translation":"Профессиональный (многоголосый закадровый)","update":"2018-06-28 10:57:49","iframe_src":"//83.svetacdn.in/PfJ50H0ZBPg3/movie/17393"},{"id":17392,"title":"Президент","kp_id":"54368","imdb_id":"tt0055336","world_art_id":null,"type":"movie","add":"2018-06-26 05:00:26","orig_title":"Le président","year":"1961-03-01","translations":["Профессиональный (многоголосый закадровый) (5-й канал СПб)"],"quality":"bd","translation":"Профессиональный (многоголосый закадровый) (5-й канал СПб)","update":"2018-06-28 11:18:10","iframe_src":"//83.svetacdn.in/PfJ50H0ZBPg3/movie/17392"},{"id":17391,"title":"Дневник горничной","kp_id":"63915","imdb_id":"tt0058249","world_art_id":null,"type":"movie","add":"2018-06-26 04:59:24","orig_title":"Le journal d'une femme de chambre","year":"1964-03-04","translations":["Профессиональный (многоголосый закадровый)"],"quality":"bd","translation":"Профессиональный (многоголосый закадровый)","update":"2018-06-28 11:19:45","iframe_src":"//83.svetacdn.in/PfJ50H0ZBPg3/movie/17391"},{"id":17390,"title":"Лихорадка приходит в Эль-Пао","kp_id":"58964","imdb_id":"tt0052810","world_art_id":null,"type":"movie","add":"2018-06-26 04:55:47","orig_title":"La fièvre monte à El Pao","year":"1959-12-05","translations":["Профессиональный (многоголосый закадровый) (5-й канал СПб)"],"quality":"bd","translation":"Профессиональный (многоголосый закадровый) (5-й канал СПб)","update":"2018-06-28 11:20:19","iframe_src":"//83.svetacdn.in/PfJ50H0ZBPg3/movie/17390"},{"id":17341,"title":"Тайны ночного клуба","kp_id":"1086380","imdb_id":"tt7440524","world_art_id":null,"type":"movie","add":"2018-06-24 23:15:07","orig_title":"Bottle Girl","year":"2018-06-02","translations":["Любительский (многоголосый закадровый) (Синема УС)"],"quality":"hdtv","translation":"Любительский (многоголосый закадровый) (Синема УС)","update":"2018-06-27 11:11:27","iframe_src":"//83.svetacdn.in/PfJ50H0ZBPg3/movie/17341"},{"id":17338,"title":"Кампус с привидениями","kp_id":"1113131","imdb_id":"tt4684488","world_art_id":null,"type":"movie","add":"2018-06-24 22:48:06","orig_title":"Hontido Kyanpasu","year":"2016-07-02","translations":["Любительский (многоголосый закадровый) (Колобок)"],"quality":"bd","translation":"Любительский (многоголосый закадровый) (Колобок)","update":"2018-06-27 11:27:03","iframe_src":"//83.svetacdn.in/PfJ50H0ZBPg3/movie/17338"},{"id":17337,"title":"Дом ужасов Hammer: сотрудничество с Warner Bros.","kp_id":null,"imdb_id":"tt5508108","world_art_id":null,"type":"movie","add":"2018-06-24 22:44:22","orig_title":"Hammer Horror: The Warner Bros Years","year":"2018-02-13","translations":["Любительский (многоголосый закадровый) (Синема УС)"],"quality":"bd","translation":"Любительский (многоголосый закадровый) (Синема УС)","update":"2018-06-27 11:28:03","iframe_src":"//83.svetacdn.in/PfJ50H0ZBPg3/movie/17337"},{"id":17334,"title":"Братство","kp_id":"935259","imdb_id":"tt5051826","world_art_id":null,"type":"movie","add":"2018-06-24 22:35:01","orig_title":"Frat Pack","year":"2018-06-19","translations":["Любительский (многоголосый закадровый) (Синема УС)"],"quality":"webdl","translation":"Любительский (многоголосый закадровый) (Синема УС)","update":"2018-06-27 11:29:31","iframe_src":"//83.svetacdn.in/PfJ50H0ZBPg3/movie/17334"},{"id":17227,"title":"Параноидальные записи","kp_id":"929827","imdb_id":"tt4967450","world_art_id":null,"type":"movie","add":"2018-06-17 22:43:12","orig_title":"Paranoia Tapes","year":"2017-07-11","translations":["Любительский (многоголосый закадровый) (Синема УС)","Любительский (двухголосый закадровый) (HiWayGrope)"],"quality":"webdl","translation":"Любительский (многоголосый закадровый) (Синема УС)","update":"2018-06-27 09:40:42","iframe_src":"//83.svetacdn.in/PfJ50H0ZBPg3/movie/17227"},{"id":16896,"title":"Пранки","kp_id":"1104457","imdb_id":"tt7528150","world_art_id":null,"type":"movie","add":"2018-05-24 20:50:29","orig_title":"Prankz","year":"2017-10-01","translations":["Любительский (многоголосый закадровый) (Колобок)","Любительский (двухголосый закадровый) (HiWayGrope)"],"quality":"webdl","translation":"Любительский (многоголосый закадровый) (Колобок)","update":"2018-06-27 09:39:51","iframe_src":"//83.svetacdn.in/PfJ50H0ZBPg3/movie/16896"},{"id":16445,"title":"Родная кровь","kp_id":"841913","imdb_id":"tt3538666","world_art_id":null,"type":"movie","add":"2018-04-23 22:59:57","orig_title":"Blood Is Blood","year":"2016-08-01","translations":["Любительский (одноголосый закадровый) (Хихикающий доктор)","Профессиональный (многоголосый закадровый) (GreenРай Studio)","Любительский (многоголосый закадровый) (Колобок)"],"quality":"webdl","translation":"Любительский (одноголосый закадровый) (Хихикающий доктор)","update":"2018-06-27 11:32:16","iframe_src":"//83.svetacdn.in/PfJ50H0ZBPg3/movie/16445"},{"id":16415,"title":"Точка невозврата","kp_id":"924167","imdb_id":"tt4669264","world_art_id":null,"type":"movie","add":"2018-04-22 09:26:00","orig_title":"High Wire Act","year":"2018-01-22","translations":["Полное дублирование"],"quality":"bd","translation":"Полное дублирование","update":"2018-06-27 11:24:42","iframe_src":"//83.svetacdn.in/PfJ50H0ZBPg3/movie/16415"},{"id":15071,"title":"Ложь, которую мы говорим","kp_id":"930628","imdb_id":"tt4423984","world_art_id":null,"type":"movie","add":"2018-02-04 19:14:38","orig_title":"Lies We Tell","year":"2017-09-21","translations":["Любительский (многоголосый закадровый) (Синема УС)","Любительский (двухголосый закадровый) (HiWayGrope)"],"quality":"webdl","translation":"Любительский (многоголосый закадровый) (Синема УС)","update":"2018-06-27 11:16:15","iframe_src":"//83.svetacdn.in/PfJ50H0ZBPg3/movie/15071"},{"id":15035,"title":"Приказ: Убить","kp_id":"880535","imdb_id":"tt3847642","world_art_id":null,"type":"movie","add":"2018-02-01 22:03:03","orig_title":"Kill Order","year":"2017-09-02","translations":["Любительский (многоголосый закадровый) (Синема УС)","Любительский (двухголосый закадровый) (HiWayGrope)"],"quality":"bd","translation":"Любительский (многоголосый закадровый) (Синема УС)","update":"2018-06-27 11:21:30","iframe_src":"//83.svetacdn.in/PfJ50H0ZBPg3/movie/15035"},{"id":14435,"title":"Обитель теней","kp_id":"992500","imdb_id":"tt5886440","world_art_id":null,"type":"movie","add":"2017-11-23 23:03:50","orig_title":"Marrowbone","year":"2017-09-11","translations":["Полное дублирование","Полное дублирование (iTunes)","Любительский (двухголосый закадровый) (HiWayGrope)"],"quality":"webdl","translation":"Полное дублирование","update":"2018-06-27 11:12:25","iframe_src":"//83.svetacdn.in/PfJ50H0ZBPg3/movie/14435"},{"id":13755,"title":"Телефонная линия","kp_id":"980322","imdb_id":"tt5737862","world_art_id":null,"type":"movie","add":"2017-10-05 21:48:37","orig_title":"Landline","year":"2017-01-20","translations":["Любительский (многоголосый закадровый) (Синема УС)","Профессиональный (многоголосый закадровый) (GreenРай Studio)","Профессиональный (многоголосый закадровый)"],"quality":"webdl","translation":"Любительский (многоголосый закадровый) (Синема УС)","update":"2018-06-27 11:19:43","iframe_src":"//83.svetacdn.in/PfJ50H0ZBPg3/movie/13755"},{"id":7500,"title":"Позднее лето","kp_id":"857962","imdb_id":"tt4182064","world_art_id":null,"type":"movie","add":"2016-11-19 09:07:19","orig_title":"Late Summer","year":"2016-06-17","translations":["Любительский (одноголосый закадровый)","Любительский (многоголосый закадровый) (Колобок)"],"quality":"hdrip","translation":"Любительский (одноголосый закадровый)","update":"2018-06-27 11:18:40","iframe_src":"//83.svetacdn.in/PfJ50H0ZBPg3/movie/7500"}],"current_page":1813,"first_page_url":"https://videocdn.tv/api/short?limit=100&api_token=RgFQdUIR2dRmwv8iYa5SnFNgnw3vpjKj&cache31813=31813&page=1","from":181201,"last_page":622,"last_page_url":"https://videocdn.tv/api/short?limit=100&api_token=RgFQdUIR2dRmwv8iYa5SnFNgnw3vpjKj&cache31813=31813&page=622","next_page_url":null,"path":"https://videocdn.tv/api/short","per_page":100,"prev_page_url":"https://videocdn.tv/api/short?limit=100&api_token=RgFQdUIR2dRmwv8iYa5SnFNgnw3vpjKj&cache31813=31813&page=1812","to":181220,"total":62135}