{"result":true,"data":[{"id":54573,"title":"Программа","kp_id":"3535","imdb_id":"tt0107889","world_art_id":null,"type":"movie","add":"2021-11-16 06:49:20","orig_title":"The Program","year":"1993-09-24","translations":["Авторский (одноголосый закадровый) (Алексеев Антон)","[EN] Original (English)","Профессиональный (двухголосый закадровый) (НТВ)"],"quality":"webdl","translation":"Авторский (одноголосый закадровый) (Алексеев Антон)","update":"2021-11-16 14:45:38","iframe_src":"//24213.svetacdn.in/si4jsFRrtgrT/movie/54573"},{"id":54572,"title":"Посрами дьявола","kp_id":"12850","imdb_id":"tt0046414","world_art_id":null,"type":"movie","add":"2021-11-16 06:46:04","orig_title":"Beat the Devil","year":"1953-11-24","translations":["Авторский (одноголосый закадровый) (Горчаков Василий)","[EN] Original (English)","Профессиональный (двухголосый закадровый) (Культура | Россия К)","Профессиональный (многоголосый закадровый) (Светла)"],"quality":"bd","translation":"Авторский (одноголосый закадровый) (Горчаков Василий)","update":"2021-11-16 14:37:23","iframe_src":"//24213.svetacdn.in/si4jsFRrtgrT/movie/54572"},{"id":54562,"title":"Погоня","kp_id":"497171","imdb_id":"tt1594964","world_art_id":null,"type":"movie","add":"2021-11-15 18:40:15","orig_title":"Chase","year":"2010-04-30","translations":["Профессиональный (многоголосый закадровый) (Bollywood HD)"],"quality":"hdtv","translation":"Профессиональный (многоголосый закадровый) (Bollywood HD)","update":"2021-11-16 15:38:36","iframe_src":"//24213.svetacdn.in/si4jsFRrtgrT/movie/54562"},{"id":54561,"title":"Стиль жизни","kp_id":"412406","imdb_id":"tt1224454","world_art_id":null,"type":"movie","add":"2021-11-15 18:35:56","orig_title":"Sirf....: Life Looks Greener on the Other Side","year":"2008-04-25","translations":["Профессиональный (двухголосый закадровый) (Bollywood HD)"],"quality":"hdtv","translation":"Профессиональный (двухголосый закадровый) (Bollywood HD)","update":"2021-11-16 15:38:17","iframe_src":"//24213.svetacdn.in/si4jsFRrtgrT/movie/54561"},{"id":54560,"title":"Лабиринты судьбы","kp_id":"406785","imdb_id":"tt1097006","world_art_id":null,"type":"movie","add":"2021-11-15 18:33:38","orig_title":"Kaisay Kahein...","year":"2007-08-28","translations":["Профессиональный (двухголосый закадровый) (Bollywood HD)"],"quality":"hdtv","translation":"Профессиональный (двухголосый закадровый) (Bollywood HD)","update":"2021-11-16 15:37:54","iframe_src":"//24213.svetacdn.in/si4jsFRrtgrT/movie/54560"},{"id":54559,"title":"Ложь во спасение","kp_id":"437993","imdb_id":"tt1322257","world_art_id":null,"type":"movie","add":"2021-11-15 18:31:52","orig_title":"Jhootha Hi Sahi","year":"2010-10-22","translations":["Профессиональный (многоголосый закадровый) (Bollywood HD)"],"quality":"hdtv","translation":"Профессиональный (многоголосый закадровый) (Bollywood HD)","update":"2021-11-16 15:37:40","iframe_src":"//24213.svetacdn.in/si4jsFRrtgrT/movie/54559"},{"id":54558,"title":"Путь к успеху","kp_id":"412901","imdb_id":"tt1229390","world_art_id":null,"type":"movie","add":"2021-11-15 18:29:52","orig_title":"Shortkut - The Con Is On","year":"2009-07-10","translations":["Профессиональный (двухголосый закадровый) (Bollywood HD)"],"quality":"hdtv","translation":"Профессиональный (двухголосый закадровый) (Bollywood HD)","update":"2021-11-16 15:37:30","iframe_src":"//24213.svetacdn.in/si4jsFRrtgrT/movie/54558"},{"id":54557,"title":"Видение","kp_id":"80439","imdb_id":"tt0371922","world_art_id":null,"type":"movie","add":"2021-11-15 18:13:52","orig_title":"Saaya","year":"2003-07-04","translations":["Профессиональный (многоголосый закадровый) (Bollywood HD)"],"quality":"hdtv","translation":"Профессиональный (многоголосый закадровый) (Bollywood HD)","update":"2021-11-16 15:35:06","iframe_src":"//24213.svetacdn.in/si4jsFRrtgrT/movie/54557"},{"id":54497,"title":"Юка в понедельник","kp_id":"252557","imdb_id":"tt0322399","world_art_id":null,"type":"movie","add":"2021-11-13 13:12:20","orig_title":"Getsuyôbi no Yuka","year":"1964-03-04","translations":["Любительский (одноголосый закадровый) (Horror Maker | Хоррор Мэйкер)"],"quality":"webdl","translation":"Любительский (одноголосый закадровый) (Horror Maker | Хоррор Мэйкер)","update":"2021-11-16 15:20:10","iframe_src":"//24213.svetacdn.in/si4jsFRrtgrT/movie/54497"},{"id":54494,"title":"Последний круиз на яхте «Шейла»","kp_id":"4864","imdb_id":"tt0070291","world_art_id":null,"type":"movie","add":"2021-11-13 13:03:27","orig_title":"The Last of Sheila","year":"1973-06-14","translations":["[EN] Original (English)","Профессиональный (многоголосый закадровый)"],"quality":"bd","translation":"[EN] Original (English)","update":"2021-11-16 15:15:08","iframe_src":"//24213.svetacdn.in/si4jsFRrtgrT/movie/54494"},{"id":54470,"title":"Последняя перестрелка","kp_id":"164618","imdb_id":"tt0053603","world_art_id":null,"type":"movie","add":"2021-11-12 14:00:35","orig_title":"Ankokugai no taiketsu","year":"1960-01-03","translations":["Любительский (одноголосый закадровый)"],"quality":"webdl","translation":"Любительский (одноголосый закадровый)","update":"2021-11-16 15:22:43","iframe_src":"//24213.svetacdn.in/si4jsFRrtgrT/movie/54470"},{"id":54469,"title":"Темный полдень","kp_id":"5508","imdb_id":"tt0114099","world_art_id":null,"type":"movie","add":"2021-11-12 13:59:33","orig_title":"The Passion of Darkly Noon","year":"1995-05-19","translations":["Профессиональный (двухголосый закадровый) (Союз Видео)","[EN] Original (English)"],"quality":"bd","translation":"Профессиональный (двухголосый закадровый) (Союз Видео)","update":"2021-11-16 15:21:31","iframe_src":"//24213.svetacdn.in/si4jsFRrtgrT/movie/54469"},{"id":54385,"title":"Безумный Новый год","kp_id":"903278","imdb_id":"tt4481934","world_art_id":null,"type":"movie","add":"2021-11-08 16:28:27","orig_title":"Yi lu jing xi","year":"2015-02-06","translations":["Любительский (одноголосый закадровый) (Asian Miracle Group)","Любительский (двухголосый закадровый)"],"quality":"bd","translation":"Любительский (одноголосый закадровый) (Asian Miracle Group)","update":"2021-11-16 15:24:51","iframe_src":"//24213.svetacdn.in/si4jsFRrtgrT/movie/54385"},{"id":39968,"title":"Жертва любви","kp_id":"224696","imdb_id":"tt0095955","world_art_id":null,"type":"movie","add":"2020-04-29 22:48:02","orig_title":"Ram-Avtar","year":"1988-05-20","translations":["Профессиональный (многоголосый закадровый)","Профессиональный (многоголосый закадровый) (SDI Media | Iyuno-SDI Group Russia)"],"quality":"webdl","translation":"Профессиональный (многоголосый закадровый)","update":"2021-11-16 15:35:53","iframe_src":"//24213.svetacdn.in/si4jsFRrtgrT/movie/39968"},{"id":39678,"title":"С надеждой на лучшее","kp_id":"412887","imdb_id":"tt1227524","world_art_id":null,"type":"movie","add":"2020-04-21 21:42:38","orig_title":"Aashayein","year":"2010-08-27","translations":["Профессиональный (двухголосый закадровый) (Bollywood HD)","Любительский (одноголосый закадровый) (Саня Белый)","Профессиональный (двухголосый закадровый) (Ульпаней Эльром)"],"quality":"hdtv","translation":"Профессиональный (двухголосый закадровый) (Bollywood HD)","update":"2021-11-16 15:18:16","iframe_src":"//24213.svetacdn.in/si4jsFRrtgrT/movie/39678"},{"id":37615,"title":"Чамку","kp_id":"421946","imdb_id":"tt1266545","world_art_id":null,"type":"movie","add":"2020-03-09 14:47:41","orig_title":"Chamku","year":"2008-08-29","translations":["Профессиональный (многоголосый закадровый) (Bollywood HD)"],"quality":"hdtv","translation":"Профессиональный (многоголосый закадровый) (Bollywood HD)","update":"2021-11-16 15:36:07","iframe_src":"//24213.svetacdn.in/si4jsFRrtgrT/movie/37615"},{"id":33104,"title":"Свора","kp_id":"104986","imdb_id":"tt0455362","world_art_id":null,"type":"movie","add":"2019-11-14 14:07:08","orig_title":"The Breed","year":"2006-06-01","translations":["Полное дублирование","[EN] Original (English)","Авторский (одноголосый закадровый) (Яроцкий Михаил | Kyberpunk)","Профессиональный (многоголосый закадровый) (ТВ3)"],"quality":"bd","translation":"Полное дублирование","update":"2021-11-16 14:48:10","iframe_src":"//24213.svetacdn.in/si4jsFRrtgrT/movie/33104"},{"id":32616,"title":"Огненный путь","kp_id":"585232","imdb_id":"tt1849718","world_art_id":null,"type":"movie","add":"2019-11-02 18:51:25","orig_title":"Agneepath","year":"2012-01-25","translations":["Любительский (двухголосый закадровый)","Любительский (многоголосый закадровый)","Профессиональный (многоголосый закадровый) (Bollywood HD)"],"quality":"bd","translation":"Любительский (двухголосый закадровый)","update":"2021-11-16 15:35:37","iframe_src":"//24213.svetacdn.in/si4jsFRrtgrT/movie/32616"},{"id":5275,"title":"Дронго","kp_id":"89591","imdb_id":"tt0367320","world_art_id":null,"type":"serial","add":"2019-09-24 06:22:47","orig_title":"Drongo","year":"2002-01-01","translations":["Оригинальная дорожка"],"seasons_count":1,"episodes_count":13,"episodes":13,"update":"2019-09-25 06:36:12","iframe_src":"//24213.svetacdn.in/si4jsFRrtgrT/tv-series/5275"},{"id":5273,"title":"Настоящие люди","kp_id":"738813","imdb_id":"tt2180271","world_art_id":null,"type":"serial","add":"2019-09-24 06:06:09","orig_title":"Äkta människor","year":"2012-01-22","translations":["Профессиональный (многоголосый закадровый) (BaibaKo)"],"seasons_count":2,"episodes_count":20,"episodes":10,"update":"2019-09-24 12:30:59","iframe_src":"//24213.svetacdn.in/si4jsFRrtgrT/tv-series/5273"},{"id":5270,"title":"Поезд динозавров","kp_id":"762329","imdb_id":"tt1460205","world_art_id":null,"type":"serial","add":"2019-09-23 20:19:04","orig_title":"Dinosaur Train","year":"2009-09-07","translations":["Полное дублирование"],"seasons_count":4,"episodes_count":112,"episodes":20,"update":"2019-09-24 20:39:22","iframe_src":"//24213.svetacdn.in/si4jsFRrtgrT/tv-series/5270"},{"id":5269,"title":"Русское лекарство","kp_id":"427001","imdb_id":null,"world_art_id":null,"type":"serial","add":"2019-09-23 10:08:21","orig_title":"Русское лекарство","year":"2004-01-01","translations":["Оригинальная дорожка"],"seasons_count":1,"episodes_count":18,"episodes":18,"update":"2019-09-25 07:18:04","iframe_src":"//24213.svetacdn.in/si4jsFRrtgrT/tv-series/5269"},{"id":5267,"title":"Никто кроме тебя","kp_id":"161107","imdb_id":"tt0214377","world_art_id":null,"type":"serial","add":"2019-09-23 09:41:55","orig_title":"Tú o nadie","year":"1985-02-01","translations":["Профессиональный (многоголосый закадровый) (СВ-Дубль)"],"seasons_count":1,"episodes_count":60,"episodes":60,"update":"2019-09-25 07:37:01","iframe_src":"//24213.svetacdn.in/si4jsFRrtgrT/tv-series/5267"},{"id":5266,"title":"Капитан Гордеев","kp_id":"465178","imdb_id":"tt4449084","world_art_id":null,"type":"serial","add":"2019-09-23 09:12:01","orig_title":"Kapitan Gordeyev","year":"2010-01-01","translations":["Оригинальная дорожка"],"seasons_count":1,"episodes_count":12,"episodes":12,"update":"2019-09-25 07:22:25","iframe_src":"//24213.svetacdn.in/si4jsFRrtgrT/tv-series/5266"},{"id":5261,"title":"Ментовские войны. Одесса","kp_id":"1100366","imdb_id":"tt10101888","world_art_id":null,"type":"serial","add":"2019-09-22 06:43:29","orig_title":"Mentovskie voyny. Odessa","year":"2017-08-14","translations":["Оригинальная дорожка"],"seasons_count":2,"episodes_count":24,"episodes":12,"update":"2019-09-25 07:59:23","iframe_src":"//24213.svetacdn.in/si4jsFRrtgrT/tv-series/5261"},{"id":5257,"title":"Чудеса на виражах","kp_id":"94673","imdb_id":"tt0098924","world_art_id":null,"type":"serial","add":"2019-09-20 11:16:17","orig_title":"TaleSpin","year":"1990-09-07","translations":["Полное дублирование"],"seasons_count":1,"episodes_count":65,"episodes":65,"update":"2019-09-23 12:15:29","iframe_src":"//24213.svetacdn.in/si4jsFRrtgrT/tv-series/5257"},{"id":5249,"title":"Запретная любовь","kp_id":"491522","imdb_id":"tt1286677","world_art_id":null,"type":"serial","add":"2019-09-19 12:25:30","orig_title":"Ask-i Memnu","year":"2008-09-04","translations":["Профессиональный (двухголосый закадровый)"],"seasons_count":2,"episodes_count":79,"episodes":41,"update":"2019-09-23 10:43:56","iframe_src":"//24213.svetacdn.in/si4jsFRrtgrT/tv-series/5249"},{"id":5246,"title":"Ни за что не сдамся","kp_id":"1045908","imdb_id":null,"world_art_id":null,"type":"serial","add":"2019-09-19 11:56:45","orig_title":"Ни за что не сдамся","year":"2017-11-18","translations":["Оригинальная дорожка"],"seasons_count":1,"episodes_count":2,"episodes":2,"update":"2019-09-24 08:10:02","iframe_src":"//24213.svetacdn.in/si4jsFRrtgrT/tv-series/5246"},{"id":5244,"title":"Двенадцать чудес","kp_id":"1045035","imdb_id":"tt9513654","world_art_id":null,"type":"serial","add":"2019-09-19 11:50:34","orig_title":"Dvenadtsat chudes","year":"2017-10-13","translations":["Оригинальная дорожка"],"seasons_count":1,"episodes_count":2,"episodes":2,"update":"2019-09-24 07:16:22","iframe_src":"//24213.svetacdn.in/si4jsFRrtgrT/tv-series/5244"},{"id":5243,"title":"Ты – моя жизнь","kp_id":"256512","imdb_id":"tt0482439","world_art_id":null,"type":"serial","add":"2019-09-19 11:07:01","orig_title":"Sos mi vida","year":"2006-01-16","translations":["Профессиональный (многоголосый закадровый)"],"seasons_count":1,"episodes_count":230,"episodes":230,"update":"2019-09-20 21:18:43","iframe_src":"//24213.svetacdn.in/si4jsFRrtgrT/tv-series/5243"},{"id":5240,"title":"Последний тамплиер","kp_id":"454305","imdb_id":"tt1197580","world_art_id":null,"type":"serial","add":"2019-09-19 07:09:57","orig_title":"The Last Templar","year":"2009-01-26","translations":["Профессиональный (многоголосый закадровый) (ТВ3)"],"seasons_count":1,"episodes_count":2,"episodes":2,"update":"2019-09-24 07:12:52","iframe_src":"//24213.svetacdn.in/si4jsFRrtgrT/tv-series/5240"},{"id":5236,"title":"Молодая гвардия","kp_id":"880743","imdb_id":"tt4763260","world_art_id":null,"type":"serial","add":"2019-09-18 10:48:20","orig_title":"Molodaya gvardiya","year":"2015-01-01","translations":["Оригинальная дорожка"],"seasons_count":1,"episodes_count":12,"episodes":12,"update":"2019-09-24 06:57:23","iframe_src":"//24213.svetacdn.in/si4jsFRrtgrT/tv-series/5236"},{"id":5229,"title":"Радуга в небе","kp_id":"1101265","imdb_id":"tt10104150","world_art_id":null,"type":"serial","add":"2019-09-17 13:00:52","orig_title":"Raduga v nebe","year":"2017-11-19","translations":["Оригинальная дорожка"],"seasons_count":1,"episodes_count":4,"episodes":4,"update":"2019-09-24 07:07:32","iframe_src":"//24213.svetacdn.in/si4jsFRrtgrT/tv-series/5229"},{"id":5226,"title":"Птичка певчая","kp_id":"1115028","imdb_id":"tt10107504","world_art_id":null,"type":"serial","add":"2019-09-17 12:51:43","orig_title":"Ptichka pevchaya","year":"2018-03-04","translations":["Оригинальная дорожка"],"seasons_count":1,"episodes_count":4,"episodes":4,"update":"2019-09-24 07:03:23","iframe_src":"//24213.svetacdn.in/si4jsFRrtgrT/tv-series/5226"},{"id":5175,"title":"Не женская работа","kp_id":"1261551","imdb_id":"tt10349602","world_art_id":null,"type":"serial","add":"2019-09-10 06:14:02","orig_title":"Ne zhenskaya rabota","year":"2019-01-01","translations":["Оригинальная дорожка"],"seasons_count":2,"episodes_count":20,"episodes":8,"update":"2019-09-22 07:46:12","iframe_src":"//24213.svetacdn.in/si4jsFRrtgrT/tv-series/5175"},{"id":5049,"title":"Дневник водителя Uber","kp_id":"1221243","imdb_id":"tt9407764","world_art_id":null,"type":"serial","add":"2019-08-19 11:25:31","orig_title":"Diary of an Uber Driver","year":"2019-08-14","translations":["Профессиональный (двухголосый закадровый) (TUMBLER Studio)"],"seasons_count":1,"episodes_count":6,"episodes":6,"update":"2019-09-22 10:45:58","iframe_src":"//24213.svetacdn.in/si4jsFRrtgrT/tv-series/5049"},{"id":4700,"title":"Дочка","kp_id":"1190375","imdb_id":"tt8961058","world_art_id":null,"type":"serial","add":"2019-06-18 12:21:40","orig_title":"Kizim","year":"2018-09-19","translations":["Любительский (двухголосый закадровый) (Котова Ирина и Ахмеджанов Эльдор)"],"seasons_count":1,"episodes_count":34,"episodes":34,"update":"2019-09-23 14:29:26","iframe_src":"//24213.svetacdn.in/si4jsFRrtgrT/tv-series/4700"},{"id":1886,"title":"Новый день","kp_id":"271964","imdb_id":"tt0801425","world_art_id":null,"type":"serial","add":"2017-12-21 06:57:46","orig_title":"Day Break","year":"2006-11-15","translations":["Профессиональный (многоголосый закадровый) (ТВ3)","Профессиональный (многоголосый закадровый) (LostFilm)"],"seasons_count":1,"episodes_count":13,"episodes":13,"update":"2019-09-24 08:05:25","iframe_src":"//24213.svetacdn.in/si4jsFRrtgrT/tv-series/1886"},{"id":9523,"title":"Американские приключения","kp_id":"5463","imdb_id":"tt0120530","world_art_id":null,"type":"movie","add":"2017-02-08 08:03:15","orig_title":"Wong fei hung VI: Sai wik hung see","year":"1997-02-01","translations":["Профессиональный (двухголосый закадровый)","Профессиональный (двухголосый закадровый) (РенТВ)","Авторский (одноголосый закадровый) (Живов Юрий)","Авторский (одноголосый закадровый) (Кашкин Александр | Первомайский)"],"quality":"bd","translation":"Профессиональный (двухголосый закадровый)","update":"2021-11-16 15:11:44","iframe_src":"//24213.svetacdn.in/si4jsFRrtgrT/movie/9523"},{"id":6341,"title":"Верзила","kp_id":"524942","imdb_id":"tt1658837","world_art_id":null,"type":"movie","add":"2016-10-16 08:14:45","orig_title":"The Tall Man","year":"2012-03-12","translations":["Авторский (одноголосый закадровый) (Карповский Антон)","Профессиональный (многоголосый закадровый) (Лексикон)","Любительский (двухголосый закадровый) (DeadSno & den904)","[EN] Original (English)"],"quality":"bd","translation":"Авторский (одноголосый закадровый) (Карповский Антон)","update":"2021-11-16 14:54:05","iframe_src":"//24213.svetacdn.in/si4jsFRrtgrT/movie/6341"}],"current_page":455,"first_page_url":"https://videocdn.tv/api/short?limit=100&api_token=X6EwAUfE5M9xbo7y0Bp0aPf3uXxG2KLL&cache3455=3455&page=1","from":45401,"last_page":731,"last_page_url":"https://videocdn.tv/api/short?limit=100&api_token=X6EwAUfE5M9xbo7y0Bp0aPf3uXxG2KLL&cache3455=3455&page=731","next_page_url":"https://videocdn.tv/api/short?limit=100&api_token=X6EwAUfE5M9xbo7y0Bp0aPf3uXxG2KLL&cache3455=3455&page=456","path":"https://videocdn.tv/api/short","per_page":100,"prev_page_url":"https://videocdn.tv/api/short?limit=100&api_token=X6EwAUfE5M9xbo7y0Bp0aPf3uXxG2KLL&cache3455=3455&page=454","to":45440,"total":73011}