{"result":true,"data":[{"id":38247,"title":"Объездная дорога","kp_id":"1208147","imdb_id":"tt9176260","world_art_id":null,"type":"movie","add":"2020-03-19 13:43:11","orig_title":"Bypass Road","year":"2019-11-09","translations":["Любительский (многоголосый закадровый) (Honey&Hoseena)"],"quality":"webdl","translation":"Любительский (многоголосый закадровый) (Honey&Hoseena)","update":"2020-03-20 13:17:48","iframe_src":"//8543.svetacdn.in/IAF0wWTdNYZm/movie/38247"},{"id":38233,"title":"Правила совместного проживания","kp_id":"987552","imdb_id":"tt5746464","world_art_id":null,"type":"movie","add":"2020-03-19 11:45:01","orig_title":"Micah and Noel Share an Apartment: An Origin Story","year":"2017-04-01","translations":["Любительский (многоголосый закадровый) (Синема УС)"],"quality":"webdl","translation":"Любительский (многоголосый закадровый) (Синема УС)","update":"2020-03-19 17:48:51","iframe_src":"//8543.svetacdn.in/IAF0wWTdNYZm/movie/38233"},{"id":38232,"title":"Техасские зомбовойны: База Титан","kp_id":"1037630","imdb_id":"tt6539404","world_art_id":null,"type":"movie","add":"2020-03-19 11:44:04","orig_title":"TZW4 Titan Base","year":"2019-12-01","translations":["Любительский (многоголосый закадровый) (Синема УС)"],"quality":"webdl","translation":"Любительский (многоголосый закадровый) (Синема УС)","update":"2020-03-19 15:21:03","iframe_src":"//8543.svetacdn.in/IAF0wWTdNYZm/movie/38232"},{"id":38231,"title":"Бесчестный","kp_id":"1168713","imdb_id":"tt8422628","world_art_id":null,"type":"movie","add":"2020-03-19 11:43:13","orig_title":"Nefarious","year":"2019-08-24","translations":["Любительский (многоголосый закадровый) (Синема УС)"],"quality":"webdl","translation":"Любительский (многоголосый закадровый) (Синема УС)","update":"2020-03-19 15:37:56","iframe_src":"//8543.svetacdn.in/IAF0wWTdNYZm/movie/38231"},{"id":38230,"title":"Виноградная лоза: Рассказ лягушки","kp_id":"1247439","imdb_id":"tt9886872","world_art_id":null,"type":"movie","add":"2020-03-19 11:36:48","orig_title":"Munthiri Monchan: Oru Thavala Paranja Kadha","year":"2019-12-06","translations":["Любительский (многоголосый закадровый) (Синема УС)"],"quality":"webdl","translation":"Любительский (многоголосый закадровый) (Синема УС)","update":"2020-03-19 15:18:56","iframe_src":"//8543.svetacdn.in/IAF0wWTdNYZm/movie/38230"},{"id":38229,"title":"Комплекс убийцы","kp_id":"1293828","imdb_id":"tt10793604","world_art_id":null,"type":"movie","add":"2020-03-19 11:35:48","orig_title":"Overlook","year":"2020-02-07","translations":["Любительский (многоголосый закадровый) (Синема УС)"],"quality":"webdl","translation":"Любительский (многоголосый закадровый) (Синема УС)","update":"2020-03-19 15:20:06","iframe_src":"//8543.svetacdn.in/IAF0wWTdNYZm/movie/38229"},{"id":38228,"title":"Последние ответчики: жизнь после смерти","kp_id":"937136","imdb_id":"tt4697722","world_art_id":null,"type":"movie","add":"2020-03-19 11:35:04","orig_title":"The Last Responders: Life After Death","year":"2019-09-29","translations":["Любительский (многоголосый закадровый) (AlphaProject)"],"quality":"webdl","translation":"Любительский (многоголосый закадровый) (AlphaProject)","update":"2020-03-19 15:22:18","iframe_src":"//8543.svetacdn.in/IAF0wWTdNYZm/movie/38228"},{"id":38226,"title":"Помилование","kp_id":"1108602","imdb_id":"tt5577494","world_art_id":null,"type":"movie","add":"2020-03-19 11:33:20","orig_title":"Clemency","year":"2019-01-27","translations":["Любительский (многоголосый закадровый) (AlphaProject)"],"quality":"webdl","translation":"Любительский (многоголосый закадровый) (AlphaProject)","update":"2020-03-19 14:37:01","iframe_src":"//8543.svetacdn.in/IAF0wWTdNYZm/movie/38226"},{"id":38225,"title":"Под конец дня","kp_id":"1293649","imdb_id":"tt4693840","world_art_id":null,"type":"movie","add":"2020-03-19 11:32:13","orig_title":"By Days End","year":"2020-03-17","translations":["Любительский (многоголосый закадровый) (Синема УС)","Original (English)"],"quality":"webdl","translation":"Любительский (многоголосый закадровый) (Синема УС)","update":"2020-03-20 11:19:54","iframe_src":"//8543.svetacdn.in/IAF0wWTdNYZm/movie/38225"},{"id":38223,"title":"Убийца в костюме Санты","kp_id":"1304049","imdb_id":"tt10969156","world_art_id":null,"type":"movie","add":"2020-03-19 11:28:19","orig_title":"The Santa Suicides","year":"2019-08-25","translations":["Любительский (многоголосый закадровый) (Синема УС)"],"quality":"webdl","translation":"Любительский (многоголосый закадровый) (Синема УС)","update":"2020-03-19 14:35:47","iframe_src":"//8543.svetacdn.in/IAF0wWTdNYZm/movie/38223"},{"id":38222,"title":"Тот, кто рядом","kp_id":"1209191","imdb_id":"tt11358398","world_art_id":null,"type":"movie","add":"2020-03-19 11:26:49","orig_title":"Namsanui bujangdeul","year":"2020-01-22","translations":["Любительский (двухголосый закадровый) (Колобок)"],"quality":"webdl","translation":"Любительский (двухголосый закадровый) (Колобок)","update":"2020-03-19 15:36:37","iframe_src":"//8543.svetacdn.in/IAF0wWTdNYZm/movie/38222"},{"id":38221,"title":"Остриё реки","kp_id":"1231989","imdb_id":"tt7533054","world_art_id":null,"type":"movie","add":"2020-03-19 11:24:47","orig_title":"Razor River","year":"2019-05-22","translations":["Любительский (многоголосый закадровый) (Синема УС)"],"quality":"webdl","translation":"Любительский (многоголосый закадровый) (Синема УС)","update":"2020-03-19 14:01:32","iframe_src":"//8543.svetacdn.in/IAF0wWTdNYZm/movie/38221"},{"id":38190,"title":"Расплата кровью","kp_id":"309438","imdb_id":"tt1013651","world_art_id":null,"type":"movie","add":"2020-03-18 17:07:57","orig_title":"The Man Who Came Back","year":"2008-02-08","translations":["Профессиональный (двухголосый закадровый)"],"quality":"dvdrip","translation":"Профессиональный (двухголосый закадровый)","update":"2020-03-20 10:40:07","iframe_src":"//8543.svetacdn.in/IAF0wWTdNYZm/movie/38190"},{"id":38119,"title":"Путь наверх","kp_id":"81782","imdb_id":"tt0419168","world_art_id":null,"type":"movie","add":"2020-03-17 17:57:15","orig_title":"The Hit","year":"2007-09-20","translations":["Профессиональный (двухголосый закадровый)"],"quality":"dvdrip","translation":"Профессиональный (двухголосый закадровый)","update":"2020-03-20 10:31:21","iframe_src":"//8543.svetacdn.in/IAF0wWTdNYZm/movie/38119"},{"id":38004,"title":"Матери чудовищ","kp_id":"1126654","imdb_id":"tt8186932","world_art_id":null,"type":"movie","add":"2020-03-15 04:30:11","orig_title":"M.O.M. Mothers of Monsters","year":"2020-03-13","translations":["Любительский (многоголосый закадровый) (Синема УС)","Original (English)"],"quality":"webdl","translation":"Любительский (многоголосый закадровый) (Синема УС)","update":"2020-03-20 10:55:40","iframe_src":"//8543.svetacdn.in/IAF0wWTdNYZm/movie/38004"},{"id":37999,"title":"Искупление","kp_id":"1035520","imdb_id":"tt5621712","world_art_id":null,"type":"movie","add":"2020-03-15 04:19:08","orig_title":"Redemption","year":"2020-02-14","translations":["Любительский (многоголосый закадровый) (Синема УС)","Original (English)"],"quality":"webdl","translation":"Любительский (многоголосый закадровый) (Синема УС)","update":"2020-03-20 10:54:24","iframe_src":"//8543.svetacdn.in/IAF0wWTdNYZm/movie/37999"},{"id":37998,"title":"Старгёрл","kp_id":"932484","imdb_id":"tt4858674","world_art_id":null,"type":"movie","add":"2020-03-15 04:17:25","orig_title":"Stargirl","year":"2020-03-13","translations":["Любительский (многоголосый закадровый) (Синема УС)","Original (English)"],"quality":"webdl","translation":"Любительский (многоголосый закадровый) (Синема УС)","update":"2020-03-20 10:50:06","iframe_src":"//8543.svetacdn.in/IAF0wWTdNYZm/movie/37998"},{"id":37982,"title":"Пропавшие девушки","kp_id":"788683","imdb_id":"tt3111426","world_art_id":null,"type":"movie","add":"2020-03-14 21:07:07","orig_title":"Lost Girls","year":"2020-03-13","translations":["Любительский (многоголосый закадровый) (Синема УС)","Original (English)"],"quality":"webdl","translation":"Любительский (многоголосый закадровый) (Синема УС)","update":"2020-03-20 10:56:49","iframe_src":"//8543.svetacdn.in/IAF0wWTdNYZm/movie/37982"},{"id":37927,"title":"Картинг","kp_id":"1131338","imdb_id":"tt8116640","world_art_id":null,"type":"movie","add":"2020-03-13 09:53:04","orig_title":"Go!","year":"2020-01-16","translations":["Полное дублирование (Пифагор)","Original (English)"],"quality":"webdl","translation":"Полное дублирование (Пифагор)","update":"2020-03-20 10:57:34","iframe_src":"//8543.svetacdn.in/IAF0wWTdNYZm/movie/37927"},{"id":37834,"title":"Перемещение: побег из тьмы","kp_id":"1065082","imdb_id":"tt7159566","world_art_id":null,"type":"movie","add":"2020-03-12 08:44:21","orig_title":"Transference: Escape the Dark","year":"2020-03-10","translations":["Любительский (многоголосый закадровый) (@MUZOBOZ@)","Original (English)"],"quality":"webdl","translation":"Любительский (многоголосый закадровый) (@MUZOBOZ@)","update":"2020-03-20 10:47:57","iframe_src":"//8543.svetacdn.in/IAF0wWTdNYZm/movie/37834"}],"current_page":672,"first_page_url":"https://videocdn.tv/api/short?limit=100&api_token=6Onb1W1alEUrBcKJZD3GoKBbWyAl2uG2&cache3672=3672&page=1","from":67101,"last_page":605,"last_page_url":"https://videocdn.tv/api/short?limit=100&api_token=6Onb1W1alEUrBcKJZD3GoKBbWyAl2uG2&cache3672=3672&page=605","next_page_url":null,"path":"https://videocdn.tv/api/short","per_page":100,"prev_page_url":"https://videocdn.tv/api/short?limit=100&api_token=6Onb1W1alEUrBcKJZD3GoKBbWyAl2uG2&cache3672=3672&page=671","to":67120,"total":60458}