{"result":true,"data":[{"id":382,"title":"Петля","kp_id":"841527","imdb_id":null,"world_art_id":null,"type":"movie","add":"2016-03-31 19:06:20","orig_title":"Petlya","year":"2012-01-01","translations":["Оригинальная дорожка"],"quality":"webdl","translation":"Оригинальная дорожка","update":"2016-04-01 07:18:17","iframe_src":"//7043.svetacdn.in/si4jsFRrtgrT/movie/382"},{"id":381,"title":"Город героев","kp_id":"693126","imdb_id":"tt2245084","world_art_id":null,"type":"movie","add":"2016-03-31 18:51:56","orig_title":"Big Hero 6","year":"2014-10-23","translations":["Полное дублирование"],"quality":"webdl","translation":"Полное дублирование","update":"2016-04-01 07:24:53","iframe_src":"//7043.svetacdn.in/si4jsFRrtgrT/movie/381"},{"id":367,"title":"Высшая лига 3","kp_id":"11142","imdb_id":"tt0120742","world_art_id":null,"type":"movie","add":"2016-03-30 21:12:10","orig_title":"Major League: Back to the Minors","year":"1998-04-17","translations":["Профессиональный (многоголосый закадровый)"],"quality":"hdtv","translation":"Профессиональный (многоголосый закадровый)","update":"2016-04-02 08:09:45","iframe_src":"//7043.svetacdn.in/si4jsFRrtgrT/movie/367"},{"id":362,"title":"Защитник","kp_id":"807640","imdb_id":"tt3322364","world_art_id":null,"type":"movie","add":"2016-03-29 21:39:23","orig_title":"Concussion","year":"2015-11-10","translations":["Полное дублирование"],"quality":"bd","translation":"Полное дублирование","update":"2016-03-30 13:24:41","iframe_src":"//7043.svetacdn.in/si4jsFRrtgrT/movie/362"},{"id":361,"title":"Иван сын Амира","kp_id":"759994","imdb_id":"tt3208950","world_art_id":null,"type":"movie","add":"2016-03-29 21:27:36","orig_title":"Ivan syn Amira","year":"2013-08-28","translations":["Оригинальная дорожка"],"quality":"webdl","translation":"Оригинальная дорожка","update":"2016-03-31 11:34:04","iframe_src":"//7043.svetacdn.in/si4jsFRrtgrT/movie/361"},{"id":360,"title":"Мёд в голове","kp_id":"824406","imdb_id":"tt3488462","world_art_id":null,"type":"movie","add":"2016-03-29 21:24:49","orig_title":"Honig im Kopf","year":"2014-12-25","translations":["Профессиональный (многоголосый закадровый) (FocusStudio)"],"quality":"bd","translation":"Профессиональный (многоголосый закадровый) (FocusStudio)","update":"2016-03-31 14:44:22","iframe_src":"//7043.svetacdn.in/si4jsFRrtgrT/movie/360"},{"id":358,"title":"Как выйти замуж за 3 дня","kp_id":"427884","imdb_id":"tt1216492","world_art_id":null,"type":"movie","add":"2016-03-29 21:18:31","orig_title":"Leap Year","year":"2010-01-08","translations":["Полное дублирование"],"quality":"bd","translation":"Полное дублирование","update":"2016-04-01 09:05:40","iframe_src":"//7043.svetacdn.in/si4jsFRrtgrT/movie/358"},{"id":357,"title":"Муж счастливой женщины","kp_id":"824969","imdb_id":null,"world_art_id":null,"type":"movie","add":"2016-03-29 14:49:00","orig_title":"Муж счастливой женщины","year":"2014-08-24","translations":["Оригинальная дорожка"],"quality":"hdtv","translation":"Оригинальная дорожка","update":"2016-03-29 21:08:22","iframe_src":"//7043.svetacdn.in/si4jsFRrtgrT/movie/357"},{"id":355,"title":"Хранитель Луны","kp_id":"842910","imdb_id":"tt3858372","world_art_id":null,"type":"movie","add":"2016-03-29 14:31:00","orig_title":"Mune, le gardien de la lune","year":"2014-12-06","translations":["Полное дублирование"],"quality":"bd","translation":"Полное дублирование","update":"2016-03-30 16:13:39","iframe_src":"//7043.svetacdn.in/si4jsFRrtgrT/movie/355"},{"id":352,"title":"Дом","kp_id":"688384","imdb_id":"tt2224026","world_art_id":null,"type":"movie","add":"2016-03-29 13:22:45","orig_title":"Home","year":"2015-03-07","translations":["Полное дублирование"],"quality":"bd","translation":"Полное дублирование","update":"2016-03-29 21:10:43","iframe_src":"//7043.svetacdn.in/si4jsFRrtgrT/movie/352"},{"id":350,"title":"Ларри Краун","kp_id":"496839","imdb_id":"tt1583420","world_art_id":null,"type":"movie","add":"2016-03-29 12:31:06","orig_title":"Larry Crowne","year":"2011-06-27","translations":["Полное дублирование"],"quality":"bd","translation":"Полное дублирование","update":"2016-03-29 21:06:40","iframe_src":"//7043.svetacdn.in/si4jsFRrtgrT/movie/350"},{"id":349,"title":"Заложница 3","kp_id":"712639","imdb_id":"tt2446042","world_art_id":null,"type":"movie","add":"2016-03-29 10:03:42","orig_title":"Taken 3","year":"2014-12-16","translations":["Полное дублирование"],"quality":"bd","translation":"Полное дублирование","update":"2016-03-30 16:16:26","iframe_src":"//7043.svetacdn.in/si4jsFRrtgrT/movie/349"},{"id":348,"title":"Соль Земли","kp_id":"839716","imdb_id":"tt3674140","world_art_id":null,"type":"movie","add":"2016-03-28 22:21:48","orig_title":"The Salt of the Earth","year":"2014-05-20","translations":["Профессиональный (многоголосый закадровый)"],"quality":"bd","translation":"Профессиональный (многоголосый закадровый)","update":"2016-03-31 11:44:10","iframe_src":"//7043.svetacdn.in/si4jsFRrtgrT/movie/348"},{"id":347,"title":"Тряпичный союз","kp_id":"742198","imdb_id":"tt4767340","world_art_id":null,"type":"movie","add":"2016-03-28 22:17:01","orig_title":"Тряпичный союз","year":"2016-03-03","translations":["Оригинальная дорожка"],"quality":"webdl","translation":"Оригинальная дорожка","update":"2016-03-29 12:23:40","iframe_src":"//7043.svetacdn.in/si4jsFRrtgrT/movie/347"},{"id":344,"title":"Ватиканские записи","kp_id":"478075","imdb_id":"tt1524575","world_art_id":null,"type":"movie","add":"2016-03-28 22:05:11","orig_title":"The Vatican Tapes","year":"2015-06-22","translations":["Полное дублирование"],"quality":"bd","translation":"Полное дублирование","update":"2016-03-29 12:37:17","iframe_src":"//7043.svetacdn.in/si4jsFRrtgrT/movie/344"},{"id":343,"title":"Заброшенный","kp_id":"669608","imdb_id":"tt2271563","world_art_id":null,"type":"movie","add":"2016-03-28 10:33:50","orig_title":"Forsaken","year":"2015-09-16","translations":["Профессиональный (многоголосый закадровый)"],"quality":"bd","translation":"Профессиональный (многоголосый закадровый)","update":"2016-03-28 13:27:49","iframe_src":"//7043.svetacdn.in/si4jsFRrtgrT/movie/343"},{"id":342,"title":"Клан","kp_id":"888717","imdb_id":"tt4411504","world_art_id":null,"type":"movie","add":"2016-03-28 08:51:30","orig_title":"El Clan","year":"2015-08-13","translations":["Полное дублирование"],"quality":"bd","translation":"Полное дублирование","update":"2016-03-28 13:27:12","iframe_src":"//7043.svetacdn.in/si4jsFRrtgrT/movie/342"},{"id":341,"title":"Контрабанда","kp_id":"477852","imdb_id":"tt1524137","world_art_id":null,"type":"movie","add":"2016-03-28 08:49:32","orig_title":"Contraband","year":"2012-01-12","translations":["Полное дублирование"],"quality":"bd","translation":"Полное дублирование","update":"2016-03-28 13:25:11","iframe_src":"//7043.svetacdn.in/si4jsFRrtgrT/movie/341"},{"id":340,"title":"Невыносимая жестокость","kp_id":"2886","imdb_id":"tt0138524","world_art_id":null,"type":"movie","add":"2016-03-28 08:46:59","orig_title":"Intolerable Cruelty","year":"2003-09-02","translations":["Полное дублирование"],"quality":"bd","translation":"Полное дублирование","update":"2016-03-28 13:26:10","iframe_src":"//7043.svetacdn.in/si4jsFRrtgrT/movie/340"},{"id":324,"title":"Я, Эрл и умирающая девушка","kp_id":"746001","imdb_id":"tt2582496","world_art_id":null,"type":"movie","add":"2016-03-24 10:28:29","orig_title":"Me and Earl and the Dying Girl","year":"2015-01-25","translations":["Профессиональный (многоголосый закадровый)"],"quality":"bd","translation":"Профессиональный (многоголосый закадровый)","update":"2016-03-27 16:54:30","iframe_src":"//7043.svetacdn.in/si4jsFRrtgrT/movie/324"}],"current_page":2435,"first_page_url":"https://videocdn.tv/api/short?limit=100&api_token=X6EwAUfE5M9xbo7y0Bp0aPf3uXxG2KLL&cache32435=32435&page=1","from":243401,"last_page":612,"last_page_url":"https://videocdn.tv/api/short?limit=100&api_token=X6EwAUfE5M9xbo7y0Bp0aPf3uXxG2KLL&cache32435=32435&page=612","next_page_url":null,"path":"https://videocdn.tv/api/short","per_page":100,"prev_page_url":"https://videocdn.tv/api/short?limit=100&api_token=X6EwAUfE5M9xbo7y0Bp0aPf3uXxG2KLL&cache32435=32435&page=2434","to":243420,"total":61166}