{"result":true,"data":[{"id":49264,"title":"Светлячок","kp_id":"8102","imdb_id":"tt0363768","world_art_id":null,"type":"movie","add":"2021-04-01 12:44:45","orig_title":"Lightning Bug","year":"2004-04-09","translations":["Original (English)"],"quality":"bd","translation":"Original (English)","update":"2021-05-07 09:23:01","iframe_src":"//7923.svetacdn.in/IAF0wWTdNYZm/movie/49264"},{"id":49263,"title":"Убийца, запугавший Нью-Йорк","kp_id":"91603","imdb_id":"tt0042643","world_art_id":null,"type":"movie","add":"2021-04-01 12:41:36","orig_title":"The Killer That Stalked New York","year":"1950-10-06","translations":["Авторский (одноголосый закадровый) (Немахов Юрий)","Original (English)"],"quality":"bd","translation":"Авторский (одноголосый закадровый) (Немахов Юрий)","update":"2021-05-07 09:11:51","iframe_src":"//7923.svetacdn.in/IAF0wWTdNYZm/movie/49263"},{"id":49193,"title":"Первая дочь","kp_id":"4783","imdb_id":"tt0361620","world_art_id":null,"type":"movie","add":"2021-03-30 05:39:25","orig_title":"First Daughter","year":"2004-09-24","translations":["Профессиональный (многоголосый закадровый)","Original (English)"],"quality":"webdl","translation":"Профессиональный (многоголосый закадровый)","update":"2021-05-07 08:59:47","iframe_src":"//7923.svetacdn.in/IAF0wWTdNYZm/movie/49193"},{"id":49150,"title":"Мой пистолет быстр","kp_id":"27742","imdb_id":"tt0050737","world_art_id":null,"type":"movie","add":"2021-03-28 07:23:40","orig_title":"My Gun Is Quick","year":"1958-01-10","translations":["Любительский (одноголосый закадровый) (Andy Green)","Original (English)"],"quality":"bd","translation":"Любительский (одноголосый закадровый) (Andy Green)","update":"2021-05-07 09:21:00","iframe_src":"//7923.svetacdn.in/IAF0wWTdNYZm/movie/49150"},{"id":49003,"title":"Отчаянный ковбой","kp_id":"11769","imdb_id":"tt0051496","world_art_id":null,"type":"movie","add":"2021-03-22 12:51:41","orig_title":"Cowboy","year":"1958-01-07","translations":["Авторский (одноголосый закадровый) (Алексеев Антон)","Original (English)"],"quality":"bd","translation":"Авторский (одноголосый закадровый) (Алексеев Антон)","update":"2021-05-07 09:26:25","iframe_src":"//7923.svetacdn.in/IAF0wWTdNYZm/movie/49003"},{"id":48998,"title":"Маленькие итальянские каникулы","kp_id":"1091630","imdb_id":"tt7177346","world_art_id":null,"type":"movie","add":"2021-03-22 10:12:06","orig_title":"A Little Italian Vacation","year":"2021-03-20","translations":["Любительский (многоголосый закадровый) (Синема УС)","Любительский (одноголосый закадровый) (porcellus)","Original (English)"],"quality":"webdl","translation":"Любительский (многоголосый закадровый) (Синема УС)","update":"2021-05-07 09:10:47","iframe_src":"//7923.svetacdn.in/IAF0wWTdNYZm/movie/48998"},{"id":48905,"title":"Плавучий театр","kp_id":"16815","imdb_id":"tt0028249","world_art_id":null,"type":"movie","add":"2021-03-19 07:47:38","orig_title":"Show Boat","year":"1936-05-14","translations":["Любительский (одноголосый закадровый) (binjak)","Original (English)"],"quality":"bd","translation":"Любительский (одноголосый закадровый) (binjak)","update":"2021-05-07 09:19:25","iframe_src":"//7923.svetacdn.in/IAF0wWTdNYZm/movie/48905"},{"id":48880,"title":"Дон мертв","kp_id":"4657","imdb_id":"tt0069989","world_art_id":null,"type":"movie","add":"2021-03-18 14:15:25","orig_title":"The Don Is Dead","year":"1973-11-14","translations":["Профессиональный (двухголосый закадровый) (НТВ)","Original (English)"],"quality":"bd","translation":"Профессиональный (двухголосый закадровый) (НТВ)","update":"2021-05-07 09:15:52","iframe_src":"//7923.svetacdn.in/IAF0wWTdNYZm/movie/48880"},{"id":48877,"title":"Время свинга","kp_id":"8328","imdb_id":"tt0028333","world_art_id":null,"type":"movie","add":"2021-03-18 14:02:08","orig_title":"Swing Time","year":"1936-08-27","translations":["Любительский (одноголосый закадровый)","Original (English)"],"quality":"bd","translation":"Любительский (одноголосый закадровый)","update":"2021-05-07 09:17:35","iframe_src":"//7923.svetacdn.in/IAF0wWTdNYZm/movie/48877"},{"id":48874,"title":"Восстание Кейна","kp_id":"8388","imdb_id":"tt0046816","world_art_id":null,"type":"movie","add":"2021-03-18 13:54:59","orig_title":"The Caine Mutiny","year":"1954-06-24","translations":["Профессиональный (многоголосый закадровый) (DVD Магия)","Original (English)"],"quality":"bd","translation":"Профессиональный (многоголосый закадровый) (DVD Магия)","update":"2021-05-07 09:16:45","iframe_src":"//7923.svetacdn.in/IAF0wWTdNYZm/movie/48874"},{"id":48872,"title":"Смертельные иллюзии","kp_id":"1276956","imdb_id":"tt7897330","world_art_id":null,"type":"movie","add":"2021-03-18 08:39:02","orig_title":"Deadly Illusions","year":"2021-03-18","translations":["Полное дублирование (Netflix)","Original (English)"],"quality":"webdl","translation":"Полное дублирование (Netflix)","update":"2021-05-07 09:01:32","iframe_src":"//7923.svetacdn.in/IAF0wWTdNYZm/movie/48872"},{"id":48575,"title":"Порождение севера","kp_id":"9998","imdb_id":"tt0030775","world_art_id":null,"type":"movie","add":"2021-03-09 05:49:07","orig_title":"Spawn of the North","year":"1938-08-26","translations":["Профессиональный (многоголосый закадровый) (Светла)","Original (English)"],"quality":"bd","translation":"Профессиональный (многоголосый закадровый) (Светла)","update":"2021-05-07 09:18:37","iframe_src":"//7923.svetacdn.in/IAF0wWTdNYZm/movie/48575"},{"id":48540,"title":"Великий Карузо","kp_id":"29639","imdb_id":"tt0043599","world_art_id":null,"type":"movie","add":"2021-03-08 07:53:01","orig_title":"The Great Caruso","year":"1951-05-10","translations":["Профессиональный (многоголосый закадровый) (Светла)","Профессиональный (одноголосый закадровый) (Деваль Видео)","Original (English)"],"quality":"bd","translation":"Профессиональный (многоголосый закадровый) (Светла)","update":"2021-05-07 09:14:48","iframe_src":"//7923.svetacdn.in/IAF0wWTdNYZm/movie/48540"},{"id":8850,"title":"Город собак","kp_id":"229787","imdb_id":"tt0120949","world_art_id":null,"type":"serial","add":"2020-09-26 09:03:53","orig_title":"Dog City","year":"1992-09-26","translations":["Полное дублирование (Первый канал | ОРТ)"],"seasons_count":3,"episodes_count":31,"episodes":8,"update":"2020-09-26 10:58:49","iframe_src":"//7923.svetacdn.in/IAF0wWTdNYZm/tv-series/8850"},{"id":8846,"title":"Маленькие Эйнштейны","kp_id":"420186","imdb_id":"tt0756522","world_art_id":null,"type":"serial","add":"2020-09-26 08:33:41","orig_title":"Little Einsteins","year":"2005-10-03","translations":["Полное дублирование","Полное дублирование (Disney Channel)"],"seasons_count":2,"episodes_count":66,"episodes":39,"update":"2020-09-26 10:12:21","iframe_src":"//7923.svetacdn.in/IAF0wWTdNYZm/tv-series/8846"},{"id":8843,"title":"Похождения нотариуса Неглинцева","kp_id":"420333","imdb_id":"tt4292746","world_art_id":null,"type":"serial","add":"2020-09-25 21:41:50","orig_title":"Pokhozhdeniya notariusa Neglintseva","year":"2009-02-07","translations":["Оригинальная дорожка"],"seasons_count":1,"episodes_count":12,"episodes":12,"update":"2020-09-26 09:15:48","iframe_src":"//7923.svetacdn.in/IAF0wWTdNYZm/tv-series/8843"},{"id":8842,"title":"Просто представь, что мы знаем","kp_id":"1355058","imdb_id":"tt11966878","world_art_id":null,"type":"serial","add":"2020-09-25 18:40:43","orig_title":"Just Imagine Things We Know","year":"2020-09-24","translations":["Оригинальная дорожка"],"seasons_count":1,"episodes_count":4,"episodes":4,"update":"2020-09-25 21:32:37","iframe_src":"//7923.svetacdn.in/IAF0wWTdNYZm/tv-series/8842"},{"id":8838,"title":"Апогей духовной зимы","kp_id":"931131","imdb_id":"tt4853930","world_art_id":null,"type":"serial","add":"2020-09-25 08:29:21","orig_title":"Midwinter of the Spirit","year":"2015-09-23","translations":["Профессиональный (двухголосый закадровый) (ViruseProject)"],"seasons_count":1,"episodes_count":3,"episodes":3,"update":"2020-09-25 12:27:53","iframe_src":"//7923.svetacdn.in/IAF0wWTdNYZm/tv-series/8838"},{"id":8835,"title":"Грязеземье","kp_id":"574267","imdb_id":"tt1623133","world_art_id":null,"type":"serial","add":"2020-09-24 10:01:51","orig_title":"Muddle Earth","year":"2010-03-15","translations":["Полное дублирование"],"seasons_count":2,"episodes_count":26,"episodes":13,"update":"2020-09-26 06:18:06","iframe_src":"//7923.svetacdn.in/IAF0wWTdNYZm/tv-series/8835"},{"id":8834,"title":"Директория смерти","kp_id":"400488","imdb_id":"tt4462814","world_art_id":null,"type":"serial","add":"2020-09-24 09:11:43","orig_title":"Direktoriya smerti","year":"1999-01-01","translations":["Оригинальная дорожка"],"seasons_count":1,"episodes_count":12,"episodes":12,"update":"2020-09-26 06:30:24","iframe_src":"//7923.svetacdn.in/IAF0wWTdNYZm/tv-series/8834"},{"id":8833,"title":"Новое сердце","kp_id":"818929","imdb_id":"tt3215910","world_art_id":null,"type":"serial","add":"2020-09-24 09:00:54","orig_title":"New heart","year":"2007-12-12","translations":["Любительский (двухголосый закадровый) (SoftBox)"],"seasons_count":1,"episodes_count":23,"episodes":23,"update":"2020-09-26 10:25:38","iframe_src":"//7923.svetacdn.in/IAF0wWTdNYZm/tv-series/8833"},{"id":8832,"title":"Стыд. Бельгия","kp_id":"1235533","imdb_id":"tt9599524","world_art_id":null,"type":"serial","add":"2020-09-24 07:57:17","orig_title":"Wtfock","year":"2018-10-05","translations":["Любительский (двухголосый закадровый) (GoldTeam)"],"seasons_count":2,"episodes_count":22,"episodes":10,"update":"2020-09-26 06:42:58","iframe_src":"//7923.svetacdn.in/IAF0wWTdNYZm/tv-series/8832"},{"id":8831,"title":"Ведьмин клинок","kp_id":"230362","imdb_id":"tt0274298","world_art_id":null,"type":"serial","add":"2020-09-24 07:20:38","orig_title":"Witchblade","year":"2001-06-12","translations":["Профессиональный (многоголосый закадровый)"],"seasons_count":2,"episodes_count":24,"episodes":12,"update":"2020-09-26 06:04:38","iframe_src":"//7923.svetacdn.in/IAF0wWTdNYZm/tv-series/8831"},{"id":8826,"title":"Да, дорогая!","kp_id":"421420","imdb_id":"tt0247144","world_art_id":null,"type":"serial","add":"2020-09-23 07:07:37","orig_title":"Yes, Dear","year":"2000-10-02","translations":["Полное дублирование (Paramount Comedy)"],"seasons_count":6,"episodes_count":122,"episodes":15,"update":"2020-09-26 10:31:34","iframe_src":"//7923.svetacdn.in/IAF0wWTdNYZm/tv-series/8826"},{"id":8777,"title":"Свин Сити","kp_id":"431171","imdb_id":"tt0326701","world_art_id":null,"type":"serial","add":"2020-09-18 11:36:56","orig_title":"Pig City","year":"2002-04-16","translations":["Полное дублирование (ТНТ)"],"seasons_count":2,"episodes_count":24,"episodes":11,"update":"2020-09-26 10:10:14","iframe_src":"//7923.svetacdn.in/IAF0wWTdNYZm/tv-series/8777"},{"id":8776,"title":"Юху и его друзья","kp_id":"628378","imdb_id":"tt2419116","world_art_id":null,"type":"serial","add":"2020-09-18 11:15:01","orig_title":"YooHoo and Friends","year":"2011-01-01","translations":["Полное дублирование"],"seasons_count":2,"episodes_count":104,"episodes":52,"update":"2020-09-26 09:48:04","iframe_src":"//7923.svetacdn.in/IAF0wWTdNYZm/tv-series/8776"},{"id":8756,"title":"Оливер Твист","kp_id":"418162","imdb_id":"tt0493191","world_art_id":null,"type":"serial","add":"2020-09-16 07:55:06","orig_title":"Les nouvelles aventures d'Oliver Twist","year":"1997-01-01","translations":["Полное дублирование"],"seasons_count":1,"episodes_count":52,"episodes":52,"update":"2020-09-26 09:07:59","iframe_src":"//7923.svetacdn.in/IAF0wWTdNYZm/tv-series/8756"},{"id":8755,"title":"Дуда и Дада","kp_id":"957852","imdb_id":null,"world_art_id":null,"type":"serial","add":"2020-09-16 07:27:34","orig_title":"Duda and Dada","year":"2013-12-18","translations":["Полное дублирование"],"seasons_count":2,"episodes_count":52,"episodes":26,"update":"2020-09-26 08:35:30","iframe_src":"//7923.svetacdn.in/IAF0wWTdNYZm/tv-series/8755"},{"id":8726,"title":"Покойо","kp_id":"667269","imdb_id":"tt0487849","world_art_id":null,"type":"serial","add":"2020-09-14 10:41:33","orig_title":"Pocoyo","year":"2005-01-01","translations":["Полное дублирование"],"seasons_count":2,"episodes_count":104,"episodes":52,"update":"2020-09-25 15:47:06","iframe_src":"//7923.svetacdn.in/IAF0wWTdNYZm/tv-series/8726"},{"id":8722,"title":"Фееринки","kp_id":"1338322","imdb_id":null,"world_art_id":null,"type":"serial","add":"2020-09-14 09:39:07","orig_title":"Фееринки","year":"2019-10-27","translations":["Оригинальная дорожка"],"seasons_count":1,"episodes_count":12,"episodes":12,"update":"2020-09-26 10:19:12","iframe_src":"//7923.svetacdn.in/IAF0wWTdNYZm/tv-series/8722"},{"id":8681,"title":"Манхэттенская любовная история","kp_id":"477598","imdb_id":"tt0420426","world_art_id":null,"type":"serial","add":"2020-09-10 07:42:32","orig_title":"Manhattan rabu stôrî","year":"2003-10-09","translations":["Любительский (одноголосый закадровый) (GREEN TEA)"],"seasons_count":1,"episodes_count":11,"episodes":11,"update":"2020-09-25 18:40:01","iframe_src":"//7923.svetacdn.in/IAF0wWTdNYZm/tv-series/8681"},{"id":41677,"title":"Сообразим на четверых","kp_id":"1163438","imdb_id":"tt8451712","world_art_id":null,"type":"movie","add":"2020-07-09 19:23:56","orig_title":"Babysplitters","year":"2019-02-02","translations":["Любительский (многоголосый закадровый) (AlphaProject)","Профессиональный (многоголосый закадровый) (iTunes)","Original (English)"],"quality":"webdl","translation":"Любительский (многоголосый закадровый) (AlphaProject)","update":"2021-05-07 09:03:38","iframe_src":"//7923.svetacdn.in/IAF0wWTdNYZm/movie/41677"},{"id":34970,"title":"Любовь и танцы","kp_id":"314114","imdb_id":"tt1028581","world_art_id":null,"type":"movie","add":"2020-01-11 11:24:13","orig_title":"Love N' Dancing","year":"2009-02-02","translations":["Профессиональный (многоголосый закадровый)","Профессиональный (многоголосый закадровый) (Инис)","Original (English)"],"quality":"hdtv","translation":"Профессиональный (многоголосый закадровый)","update":"2021-05-07 09:21:52","iframe_src":"//7923.svetacdn.in/IAF0wWTdNYZm/movie/34970"},{"id":33608,"title":"Монахиня","kp_id":"61547","imdb_id":"tt0371853","world_art_id":null,"type":"movie","add":"2019-12-02 06:23:56","orig_title":"La monja","year":"2005-05-12","translations":["Профессиональный (многоголосый закадровый)","Профессиональный (многоголосый закадровый) (CP Digital)","Original (English)"],"quality":"dvdrip","translation":"Профессиональный (многоголосый закадровый)","update":"2021-05-07 09:24:20","iframe_src":"//7923.svetacdn.in/IAF0wWTdNYZm/movie/33608"},{"id":4801,"title":"Её личная жизнь","kp_id":"1234916","imdb_id":"tt9899340","world_art_id":null,"type":"serial","add":"2019-07-05 15:38:25","orig_title":"Geunyeoui Sasaenghwal","year":"2019-04-10","translations":["Любительский (двухголосый закадровый) (Храм Дорам ТВ)","Профессиональный (многоголосый закадровый) (Мобильное телевидение)"],"seasons_count":1,"episodes_count":16,"episodes":16,"update":"2020-09-25 13:31:27","iframe_src":"//7923.svetacdn.in/IAF0wWTdNYZm/tv-series/4801"},{"id":17828,"title":"Отец года","kp_id":"1066733","imdb_id":"tt7256866","world_art_id":null,"type":"movie","add":"2018-07-22 15:50:41","orig_title":"Father of the Year","year":"2018-07-20","translations":["Профессиональный (многоголосый закадровый) (HDrezka Studio)","Профессиональный (многоголосый закадровый) (BaibaKo)","Original (English)"],"quality":"webdl","translation":"Профессиональный (многоголосый закадровый) (HDrezka Studio)","update":"2021-05-07 09:00:41","iframe_src":"//7923.svetacdn.in/IAF0wWTdNYZm/movie/17828"},{"id":14797,"title":"Братья по оружию","kp_id":"1012504","imdb_id":"tt6445236","world_art_id":null,"type":"movie","add":"2018-01-04 22:32:44","orig_title":"Brothers in Arms","year":"2017-10-05","translations":["Любительский (многоголосый закадровый) (Синема УС)","Профессиональный (многоголосый закадровый)","Профессиональный (многоголосый закадровый) (IVI)","Original (English)"],"quality":"webdl","translation":"Любительский (многоголосый закадровый) (Синема УС)","update":"2021-05-07 09:02:35","iframe_src":"//7923.svetacdn.in/IAF0wWTdNYZm/movie/14797"},{"id":1253,"title":"Доярка из Хацапетовки 3","kp_id":"600824","imdb_id":"tt2180923","world_art_id":null,"type":"serial","add":"2017-05-18 08:58:36","orig_title":"Doyarka iz Khatsapetovki III","year":"2011-07-25","translations":["Оригинальная дорожка"],"seasons_count":1,"episodes_count":16,"episodes":16,"update":"2020-09-25 15:55:26","iframe_src":"//7923.svetacdn.in/IAF0wWTdNYZm/tv-series/1253"},{"id":4354,"title":"Связи нет","kp_id":"465649","imdb_id":"tt1433811","world_art_id":null,"type":"movie","add":"2016-08-09 11:01:22","orig_title":"Disconnect","year":"2012-09-11","translations":["Любительский (двухголосый закадровый)","Профессиональный (многоголосый закадровый) (Jaskier)","Original (English)"],"quality":"bd","translation":"Любительский (двухголосый закадровый)","update":"2021-05-07 09:25:41","iframe_src":"//7923.svetacdn.in/IAF0wWTdNYZm/movie/4354"},{"id":4206,"title":"Проклятие 2","kp_id":"85077","imdb_id":"tt0433386","world_art_id":null,"type":"movie","add":"2016-07-28 05:45:05","orig_title":"The Grudge 2","year":"2006-10-12","translations":["Полное дублирование","Авторский (одноголосый закадровый) (Дольский Андрей)","Original (English)"],"quality":"bd","translation":"Полное дублирование","update":"2021-05-07 09:13:15","iframe_src":"//7923.svetacdn.in/IAF0wWTdNYZm/movie/4206"}],"current_page":162,"first_page_url":"https://videocdn.tv/api/short?limit=100&api_token=6Onb1W1alEUrBcKJZD3GoKBbWyAl2uG2&cache3162=3162&page=1","from":16101,"last_page":644,"last_page_url":"https://videocdn.tv/api/short?limit=100&api_token=6Onb1W1alEUrBcKJZD3GoKBbWyAl2uG2&cache3162=3162&page=644","next_page_url":"https://videocdn.tv/api/short?limit=100&api_token=6Onb1W1alEUrBcKJZD3GoKBbWyAl2uG2&cache3162=3162&page=163","path":"https://videocdn.tv/api/short","per_page":100,"prev_page_url":"https://videocdn.tv/api/short?limit=100&api_token=6Onb1W1alEUrBcKJZD3GoKBbWyAl2uG2&cache3162=3162&page=161","to":16140,"total":64373}