{"result":true,"data":[{"id":32281,"title":"Сектор 17","kp_id":"841834","imdb_id":"tt3709718","world_art_id":null,"type":"movie","add":"2019-10-23 20:05:12","orig_title":"Transit 17","year":"2019-10-01","translations":["Любительский (многоголосый закадровый) (Синема УС)"],"quality":"webdl","translation":"Любительский (многоголосый закадровый) (Синема УС)","update":"2019-10-23 21:26:31","iframe_src":"//8332.svetacdn.in/si4jsFRrtgrT/movie/32281"},{"id":32277,"title":"Светлое Рождество","kp_id":"9049","imdb_id":"tt0047673","world_art_id":null,"type":"movie","add":"2019-10-23 12:42:40","orig_title":"White Christmas","year":"1954-10-14","translations":["Профессиональный (двухголосый закадровый)"],"quality":"bd","translation":"Профессиональный (двухголосый закадровый)","update":"2019-10-23 19:39:06","iframe_src":"//8332.svetacdn.in/si4jsFRrtgrT/movie/32277"},{"id":32140,"title":"Фокусники","kp_id":"261525","imdb_id":"tt0841027","world_art_id":null,"type":"movie","add":"2019-10-20 15:12:02","orig_title":"Magicians","year":"2007-05-18","translations":["Полное дублирование"],"quality":"dvdrip","translation":"Полное дублирование","update":"2019-10-24 07:29:36","iframe_src":"//8332.svetacdn.in/si4jsFRrtgrT/movie/32140"},{"id":32139,"title":"Призрачный мир Эль Супербисто","kp_id":"254764","imdb_id":"tt0419724","world_art_id":null,"type":"movie","add":"2019-10-20 15:09:24","orig_title":"The Haunted World of El Superbeasto","year":"2009-09-12","translations":["Профессиональный (многоголосый закадровый)"],"quality":"bd","translation":"Профессиональный (многоголосый закадровый)","update":"2019-10-24 07:28:38","iframe_src":"//8332.svetacdn.in/si4jsFRrtgrT/movie/32139"},{"id":32136,"title":"Почему я похитила своего босса","kp_id":"878387","imdb_id":"tt4260948","world_art_id":null,"type":"movie","add":"2019-10-20 15:05:22","orig_title":"Warum ich meinen Boss entführte","year":"2014-10-14","translations":["Профессиональный (многоголосый закадровый) (FOX)"],"quality":"hdtv","translation":"Профессиональный (многоголосый закадровый) (FOX)","update":"2019-10-24 07:25:13","iframe_src":"//8332.svetacdn.in/si4jsFRrtgrT/movie/32136"},{"id":32131,"title":"Бионикл 3: В паутине теней","kp_id":"161176","imdb_id":"tt0471588","world_art_id":null,"type":"movie","add":"2019-10-20 14:48:06","orig_title":"Bionicle 3: Web of Shadows","year":"2005-10-11","translations":["Полное дублирование"],"quality":"dvdrip","translation":"Полное дублирование","update":"2019-10-23 13:46:11","iframe_src":"//8332.svetacdn.in/si4jsFRrtgrT/movie/32131"},{"id":32130,"title":"Бионикл 2: Легенда Метру Нуи","kp_id":"64062","imdb_id":"tt0387658","world_art_id":null,"type":"movie","add":"2019-10-20 14:46:53","orig_title":"Bionicle 2: Legends of Metru Nui","year":"2004-10-06","translations":["Полное дублирование"],"quality":"dvdrip","translation":"Полное дублирование","update":"2019-10-23 13:44:57","iframe_src":"//8332.svetacdn.in/si4jsFRrtgrT/movie/32130"},{"id":32128,"title":"Наступит завтра или нет?","kp_id":"50510","imdb_id":"tt0347304","world_art_id":null,"type":"movie","add":"2019-10-20 13:41:49","orig_title":"Kal Ho Naa Ho","year":"2003-11-27","translations":["Профессиональный (многоголосый закадровый) (Формат AB)"],"quality":"bd","translation":"Профессиональный (многоголосый закадровый) (Формат AB)","update":"2019-10-23 13:44:14","iframe_src":"//8332.svetacdn.in/si4jsFRrtgrT/movie/32128"},{"id":32127,"title":"Мистер Хоббс берет выходной","kp_id":"8975","imdb_id":"tt0056255","world_art_id":null,"type":"movie","add":"2019-10-20 13:40:22","orig_title":"Mr. Hobbs Takes a Vacation","year":"1962-06-15","translations":["Авторский (одноголосый закадровый) (Воронцов Владимир | Доцент)"],"quality":"bd","translation":"Авторский (одноголосый закадровый) (Воронцов Владимир | Доцент)","update":"2019-10-23 13:43:25","iframe_src":"//8332.svetacdn.in/si4jsFRrtgrT/movie/32127"},{"id":32126,"title":"Безмолвная ночь","kp_id":"676412","imdb_id":"tt2347497","world_art_id":null,"type":"movie","add":"2019-10-20 13:38:58","orig_title":"Silent Night","year":"2012-11-30","translations":["Любительский (одноголосый закадровый) (den904)"],"quality":"bd","translation":"Любительский (одноголосый закадровый) (den904)","update":"2019-10-23 13:42:25","iframe_src":"//8332.svetacdn.in/si4jsFRrtgrT/movie/32126"},{"id":32125,"title":"Воины вдвоём","kp_id":"37172","imdb_id":"tt0078517","world_art_id":null,"type":"movie","add":"2019-10-20 13:37:44","orig_title":"Zan xian sheng yu zhao qian Hua","year":"1978-12-28","translations":["Любительский (одноголосый закадровый)"],"quality":"bd","translation":"Любительский (одноголосый закадровый)","update":"2019-10-23 13:41:43","iframe_src":"//8332.svetacdn.in/si4jsFRrtgrT/movie/32125"},{"id":32124,"title":"Последняя ночь","kp_id":"20960","imdb_id":"tt0156729","world_art_id":null,"type":"movie","add":"2019-10-20 13:35:51","orig_title":"Last Night","year":"1998-09-11","translations":["Авторский (одноголосый закадровый) (Кошкин Василий)"],"quality":"dvdrip","translation":"Авторский (одноголосый закадровый) (Кошкин Василий)","update":"2019-10-23 13:40:49","iframe_src":"//8332.svetacdn.in/si4jsFRrtgrT/movie/32124"},{"id":32123,"title":"Сторож брату своему","kp_id":"296238","imdb_id":"tt0113894","world_art_id":null,"type":"movie","add":"2019-10-20 13:34:00","orig_title":"My Brother's Keeper","year":"1995-03-19","translations":["Полное дублирование (Netflix)"],"quality":"webdl","translation":"Полное дублирование (Netflix)","update":"2019-10-23 13:40:13","iframe_src":"//8332.svetacdn.in/si4jsFRrtgrT/movie/32123"},{"id":32122,"title":"Музыка сердца","kp_id":"1831","imdb_id":"tt0166943","world_art_id":null,"type":"movie","add":"2019-10-20 13:32:31","orig_title":"Music of the Heart","year":"1999-09-06","translations":["Профессиональный (многоголосый закадровый)"],"quality":"bd","translation":"Профессиональный (многоголосый закадровый)","update":"2019-10-23 13:39:24","iframe_src":"//8332.svetacdn.in/si4jsFRrtgrT/movie/32122"},{"id":32121,"title":"Метод","kp_id":"87796","imdb_id":"tt0427582","world_art_id":null,"type":"movie","add":"2019-10-20 13:31:09","orig_title":"El método","year":"2005-09-14","translations":["Профессиональный (двухголосый закадровый)"],"quality":"dvdrip","translation":"Профессиональный (двухголосый закадровый)","update":"2019-10-23 13:38:50","iframe_src":"//8332.svetacdn.in/si4jsFRrtgrT/movie/32121"},{"id":32117,"title":"Катцельмахер","kp_id":"94671","imdb_id":"tt0064536","world_art_id":null,"type":"movie","add":"2019-10-20 13:24:22","orig_title":"Katzelmacher","year":"1969-10-08","translations":["Профессиональный (двухголосый закадровый)"],"quality":"dvdrip","translation":"Профессиональный (двухголосый закадровый)","update":"2019-10-23 13:36:03","iframe_src":"//8332.svetacdn.in/si4jsFRrtgrT/movie/32117"},{"id":32115,"title":"Катакомбы","kp_id":"102261","imdb_id":"tt0449471","world_art_id":null,"type":"movie","add":"2019-10-20 13:13:10","orig_title":"Catacombs","year":"2007-07-06","translations":["Полное дублирование"],"quality":"dvdrip","translation":"Полное дублирование","update":"2019-10-23 13:34:57","iframe_src":"//8332.svetacdn.in/si4jsFRrtgrT/movie/32115"},{"id":32114,"title":"Динозавры Патагонии 3D","kp_id":"271717","imdb_id":"tt0899143","world_art_id":null,"type":"movie","add":"2019-10-20 13:09:47","orig_title":"Dinosaurs: Giants of Patagonia","year":"2007-04-05","translations":["Профессиональный (одноголосый закадровый)"],"quality":"unknown","translation":"Профессиональный (одноголосый закадровый)","update":"2019-10-23 13:33:47","iframe_src":"//8332.svetacdn.in/si4jsFRrtgrT/movie/32114"},{"id":32113,"title":"Я знаю, что я видела","kp_id":"311106","imdb_id":"tt1016315","world_art_id":null,"type":"movie","add":"2019-10-20 13:08:07","orig_title":"I Know What I Saw","year":"2007-07-23","translations":["Профессиональный (двухголосый закадровый) (НТВ)"],"quality":"webdl","translation":"Профессиональный (двухголосый закадровый) (НТВ)","update":"2019-10-23 13:32:13","iframe_src":"//8332.svetacdn.in/si4jsFRrtgrT/movie/32113"},{"id":16659,"title":"Ракета","kp_id":"685703","imdb_id":"tt2178256","world_art_id":null,"type":"movie","add":"2018-05-05 23:57:40","orig_title":"The Rocket","year":"2013-02-10","translations":["Любительский (одноголосый закадровый) (PashaUp | Морозов Павел)","Любительский (одноголосый закадровый) (PashaUp | Морозов Павел)"],"quality":"webdl","translation":"Любительский (одноголосый закадровый) (PashaUp | Морозов Павел)","update":"2019-10-23 13:38:09","iframe_src":"//8332.svetacdn.in/si4jsFRrtgrT/movie/16659"}],"current_page":1139,"first_page_url":"https://videocdn.tv/api/short?limit=100&api_token=X6EwAUfE5M9xbo7y0Bp0aPf3uXxG2KLL&cache31139=31139&page=1","from":113801,"last_page":635,"last_page_url":"https://videocdn.tv/api/short?limit=100&api_token=X6EwAUfE5M9xbo7y0Bp0aPf3uXxG2KLL&cache31139=31139&page=635","next_page_url":null,"path":"https://videocdn.tv/api/short","per_page":100,"prev_page_url":"https://videocdn.tv/api/short?limit=100&api_token=X6EwAUfE5M9xbo7y0Bp0aPf3uXxG2KLL&cache31139=31139&page=1138","to":113820,"total":63430}