{"result":true,"data":[{"id":47749,"title":"Стрелы Амура","kp_id":"760463","imdb_id":"tt2845796","world_art_id":null,"type":"movie","add":"2021-02-08 09:58:36","orig_title":"Attakathi","year":"2012-08-15","translations":["Профессиональный (многоголосый закадровый) (Индия ТВ)"],"quality":"webdl","translation":"Профессиональный (многоголосый закадровый) (Индия ТВ)","update":"2021-02-08 15:01:24","iframe_src":"//7043.svetacdn.in/71tsRs29n5tZ/movie/47749"},{"id":47748,"title":"Трилогия ужаса 2","kp_id":"298350","imdb_id":"tt0117966","world_art_id":null,"type":"movie","add":"2021-02-08 09:50:35","orig_title":"Trilogy of Terror II","year":"1996-10-30","translations":["Авторский (одноголосый закадровый) (Дольский Андрей)"],"quality":"hdrip","translation":"Авторский (одноголосый закадровый) (Дольский Андрей)","update":"2021-02-08 11:47:21","iframe_src":"//7043.svetacdn.in/71tsRs29n5tZ/movie/47748"},{"id":47747,"title":"Битва с демоном","kp_id":"208321","imdb_id":"tt0114236","world_art_id":null,"type":"movie","add":"2021-02-08 09:50:04","orig_title":"Ravan Raaj: A True Story","year":"1995-06-23","translations":["Профессиональный (одноголосый закадровый)"],"quality":"webdl","translation":"Профессиональный (одноголосый закадровый)","update":"2021-02-08 15:00:52","iframe_src":"//7043.svetacdn.in/71tsRs29n5tZ/movie/47747"},{"id":47746,"title":"С первого взгляда","kp_id":"216227","imdb_id":"tt0285958","world_art_id":null,"type":"movie","add":"2021-02-08 09:31:49","orig_title":"Pyaar Ishq Aur Mohabbat","year":"2001-09-26","translations":["Профессиональный (многоголосый закадровый)"],"quality":"dvdrip","translation":"Профессиональный (многоголосый закадровый)","update":"2021-02-08 15:01:59","iframe_src":"//7043.svetacdn.in/71tsRs29n5tZ/movie/47746"},{"id":47744,"title":"Чернорабочий","kp_id":"225728","imdb_id":"tt0158768","world_art_id":null,"type":"movie","add":"2021-02-08 08:37:45","orig_title":"Mazdoor","year":"1983-10-14","translations":["Полное дублирование (ZEE TV)"],"quality":"dvdrip","translation":"Полное дублирование (ZEE TV)","update":"2021-02-08 11:43:50","iframe_src":"//7043.svetacdn.in/71tsRs29n5tZ/movie/47744"},{"id":47743,"title":"Пиф-паф ой-ой-ой","kp_id":"31792","imdb_id":"tt0062803","world_art_id":null,"type":"movie","add":"2021-02-08 08:31:32","orig_title":"Chitty Chitty Bang Bang","year":"1968-12-12","translations":["Полное дублирование"],"quality":"bd","translation":"Полное дублирование","update":"2021-02-08 12:02:26","iframe_src":"//7043.svetacdn.in/71tsRs29n5tZ/movie/47743"},{"id":47742,"title":"Современная история любви","kp_id":"854983","imdb_id":"tt3838728","world_art_id":null,"type":"movie","add":"2021-02-08 08:20:01","orig_title":"Bang Gang (une histoire d'amour moderne)","year":"2015-08-26","translations":["Авторский (одноголосый закадровый) (Дасевич Александр)"],"quality":"dvdrip","translation":"Авторский (одноголосый закадровый) (Дасевич Александр)","update":"2021-02-08 10:33:44","iframe_src":"//7043.svetacdn.in/71tsRs29n5tZ/movie/47742"},{"id":47736,"title":"Маркиза","kp_id":"15074","imdb_id":"tt0119623","world_art_id":null,"type":"movie","add":"2021-02-08 06:31:01","orig_title":"Marquise","year":"1997-08-20","translations":["Профессиональный (многоголосый закадровый) (Лексикон)"],"quality":"bd","translation":"Профессиональный (многоголосый закадровый) (Лексикон)","update":"2021-02-08 14:46:11","iframe_src":"//7043.svetacdn.in/71tsRs29n5tZ/movie/47736"},{"id":47735,"title":"Звездный крейсер Галактика: Атака сайлонов","kp_id":"230642","imdb_id":"tt0077937","world_art_id":null,"type":"movie","add":"2021-02-08 05:08:23","orig_title":"Mission Galactica: The Cylon Attack","year":"1979-08-09","translations":["Авторский (одноголосый закадровый) (Горчаков Василий)"],"quality":"hdtv","translation":"Авторский (одноголосый закадровый) (Горчаков Василий)","update":"2021-02-08 10:43:00","iframe_src":"//7043.svetacdn.in/71tsRs29n5tZ/movie/47735"},{"id":47729,"title":"Атака","kp_id":"462081","imdb_id":"tt0787442","world_art_id":null,"type":"movie","add":"2021-02-07 20:55:57","orig_title":"The Attack","year":"2012-09-01","translations":["Любительский (одноголосый закадровый) (GalVid)"],"quality":"bd","translation":"Любительский (одноголосый закадровый) (GalVid)","update":"2021-02-08 10:38:13","iframe_src":"//7043.svetacdn.in/71tsRs29n5tZ/movie/47729"},{"id":47727,"title":"Существа, забытые миром","kp_id":"182554","imdb_id":"tt0066955","world_art_id":null,"type":"movie","add":"2021-02-07 16:13:42","orig_title":"Creatures the World Forgot","year":"1971-04-18","translations":["Original (English)"],"quality":"bd","translation":"Original (English)","update":"2021-02-08 09:16:29","iframe_src":"//7043.svetacdn.in/71tsRs29n5tZ/movie/47727"},{"id":47725,"title":"Пуля наёмника","kp_id":"36890","imdb_id":"tt0103333","world_art_id":null,"type":"movie","add":"2021-02-07 16:00:21","orig_title":"Zi dan chu zu","year":"1990-12-29","translations":["Авторский (одноголосый закадровый) (Алексеев Антон)"],"quality":"bd","translation":"Авторский (одноголосый закадровый) (Алексеев Антон)","update":"2021-02-08 09:15:10","iframe_src":"//7043.svetacdn.in/71tsRs29n5tZ/movie/47725"},{"id":47723,"title":"Хороший сосед Сэм","kp_id":"11765","imdb_id":"tt0058153","world_art_id":null,"type":"movie","add":"2021-02-07 15:39:08","orig_title":"Good Neighbor Sam","year":"1964-07-22","translations":["Профессиональный (многоголосый закадровый) (Первый канал | ОРТ)"],"quality":"bd","translation":"Профессиональный (многоголосый закадровый) (Первый канал | ОРТ)","update":"2021-02-08 09:19:33","iframe_src":"//7043.svetacdn.in/71tsRs29n5tZ/movie/47723"},{"id":45855,"title":"Раскопки","kp_id":"1300972","imdb_id":"tt3661210","world_art_id":null,"type":"movie","add":"2020-12-04 21:09:35","orig_title":"The Dig","year":"2021-01-29","translations":["Профессиональный (многоголосый закадровый) (HDrezka Studio)","Original (English)","Любительский (многоголосый закадровый) (AlphaProject)","Профессиональный (многоголосый закадровый) (HDrezka Studio)","Профессиональный (многоголосый закадровый) (HDrezka Studio)","Профессиональный (многоголосый закадровый) (AMS)"],"quality":"webdl","translation":"Профессиональный (многоголосый закадровый) (HDrezka Studio)","update":"2021-02-08 09:24:00","iframe_src":"//7043.svetacdn.in/71tsRs29n5tZ/movie/45855"},{"id":8170,"title":"Заложники любви","kp_id":"605322","imdb_id":null,"world_art_id":null,"type":"serial","add":"2020-07-16 16:50:27","orig_title":"Заложники любви","year":"2014-09-24","translations":["Оригинальная дорожка"],"seasons_count":1,"episodes_count":8,"episodes":8,"update":"2020-07-17 10:43:59","iframe_src":"//7043.svetacdn.in/71tsRs29n5tZ/tv-series/8170"},{"id":8167,"title":"Принцип Хабарова","kp_id":"734701","imdb_id":"tt4501770","world_art_id":null,"type":"serial","add":"2020-07-16 10:17:06","orig_title":"Printsip Khabarova","year":"2013-02-25","translations":["Оригинальная дорожка"],"seasons_count":1,"episodes_count":16,"episodes":16,"update":"2020-07-17 09:50:43","iframe_src":"//7043.svetacdn.in/71tsRs29n5tZ/tv-series/8167"},{"id":8166,"title":"Энигма","kp_id":"428836","imdb_id":"tt1873845","world_art_id":null,"type":"serial","add":"2020-07-16 10:04:42","orig_title":"Enigma","year":"2010-12-27","translations":["Оригинальная дорожка"],"seasons_count":1,"episodes_count":15,"episodes":15,"update":"2020-07-17 09:33:42","iframe_src":"//7043.svetacdn.in/71tsRs29n5tZ/tv-series/8166"},{"id":8165,"title":"Любит не любит","kp_id":"750995","imdb_id":"tt3329516","world_art_id":null,"type":"serial","add":"2020-07-16 09:32:25","orig_title":"Lyubit ne lyubit","year":"2013-04-01","translations":["Оригинальная дорожка"],"seasons_count":1,"episodes_count":26,"episodes":26,"update":"2020-07-17 08:00:47","iframe_src":"//7043.svetacdn.in/71tsRs29n5tZ/tv-series/8165"},{"id":8163,"title":"Счастье есть","kp_id":"633997","imdb_id":null,"world_art_id":null,"type":"serial","add":"2020-07-15 18:26:02","orig_title":"Счастье есть","year":"2011-10-22","translations":["Оригинальная дорожка"],"seasons_count":1,"episodes_count":4,"episodes":4,"update":"2020-07-16 17:31:51","iframe_src":"//7043.svetacdn.in/71tsRs29n5tZ/tv-series/8163"},{"id":8161,"title":"Голоса","kp_id":"566495","imdb_id":"tt3723392","world_art_id":null,"type":"serial","add":"2020-07-15 08:29:13","orig_title":"Golosa","year":"2010-09-22","translations":["Оригинальная дорожка"],"seasons_count":1,"episodes_count":17,"episodes":17,"update":"2020-07-17 12:21:49","iframe_src":"//7043.svetacdn.in/71tsRs29n5tZ/tv-series/8161"},{"id":8160,"title":"Захватчики","kp_id":"464126","imdb_id":"tt1437185","world_art_id":null,"type":"serial","add":"2020-07-15 08:18:43","orig_title":"Zakhvatchiki","year":"2009-05-12","translations":["Оригинальная дорожка"],"seasons_count":1,"episodes_count":16,"episodes":16,"update":"2020-07-17 13:41:13","iframe_src":"//7043.svetacdn.in/71tsRs29n5tZ/tv-series/8160"},{"id":8159,"title":"До смерти красива","kp_id":"717443","imdb_id":"tt4080182","world_art_id":null,"type":"serial","add":"2020-07-15 08:09:59","orig_title":"Do smerti krasiva","year":"2015-05-11","translations":["Оригинальная дорожка"],"seasons_count":1,"episodes_count":24,"episodes":24,"update":"2020-07-17 06:38:39","iframe_src":"//7043.svetacdn.in/71tsRs29n5tZ/tv-series/8159"},{"id":8158,"title":"Классная школа","kp_id":"785588","imdb_id":null,"world_art_id":null,"type":"serial","add":"2020-07-15 07:39:14","orig_title":"Классная школа","year":"2013-09-01","translations":["Оригинальная дорожка"],"seasons_count":1,"episodes_count":70,"episodes":70,"update":"2020-07-17 13:57:21","iframe_src":"//7043.svetacdn.in/71tsRs29n5tZ/tv-series/8158"},{"id":8156,"title":"Детектив Хайд","kp_id":null,"imdb_id":"tt5686194","world_art_id":null,"type":"serial","add":"2020-07-14 21:30:36","orig_title":"Hyde & Seek","year":"2016-10-03","translations":["Любительский (многоголосый закадровый) (ColdFilm)"],"seasons_count":1,"episodes_count":8,"episodes":8,"update":"2020-07-17 10:32:53","iframe_src":"//7043.svetacdn.in/71tsRs29n5tZ/tv-series/8156"},{"id":8146,"title":"Правила маскарада","kp_id":"596029","imdb_id":"tt4501756","world_art_id":null,"type":"serial","add":"2020-07-13 10:03:44","orig_title":"Pravila maskarada","year":"2011-07-01","translations":["Оригинальная дорожка"],"seasons_count":1,"episodes_count":16,"episodes":16,"update":"2020-07-17 15:44:12","iframe_src":"//7043.svetacdn.in/71tsRs29n5tZ/tv-series/8146"},{"id":8136,"title":"Планета обезьян","kp_id":"258470","imdb_id":"tt0071033","world_art_id":null,"type":"serial","add":"2020-07-10 11:00:34","orig_title":"Planet of the Apes","year":"1974-09-13","translations":["Любительский (одноголосый закадровый)"],"seasons_count":1,"episodes_count":14,"episodes":14,"update":"2020-07-15 18:44:23","iframe_src":"//7043.svetacdn.in/71tsRs29n5tZ/tv-series/8136"},{"id":8119,"title":"Аран и магистрат","kp_id":"707409","imdb_id":"tt2216600","world_art_id":null,"type":"serial","add":"2020-07-08 09:43:02","orig_title":"Arangsaddojeon","year":"2012-08-15","translations":["Любительский (двухголосый закадровый)"],"seasons_count":1,"episodes_count":20,"episodes":20,"update":"2020-07-17 14:36:31","iframe_src":"//7043.svetacdn.in/71tsRs29n5tZ/tv-series/8119"},{"id":8118,"title":"Австралийские золотоискатели","kp_id":"1228356","imdb_id":"tt6186672","world_art_id":null,"type":"serial","add":"2020-07-08 09:26:55","orig_title":"Aussie Gold Hunters","year":"2016-08-01","translations":["Профессиональный (одноголосый закадровый)"],"seasons_count":1,"episodes_count":6,"episodes":6,"update":"2020-07-17 10:22:54","iframe_src":"//7043.svetacdn.in/71tsRs29n5tZ/tv-series/8118"},{"id":7936,"title":"Клон","kp_id":"624632","imdb_id":"tt1726405","world_art_id":null,"type":"serial","add":"2020-06-17 20:20:20","orig_title":"Kurôn beibî","year":"2010-10-08","translations":["Любительский (одноголосый закадровый)"],"seasons_count":1,"episodes_count":11,"episodes":11,"update":"2020-07-15 21:04:09","iframe_src":"//7043.svetacdn.in/71tsRs29n5tZ/tv-series/7936"},{"id":7823,"title":"Окаянные дни","kp_id":"1387121","imdb_id":null,"world_art_id":null,"type":"serial","add":"2020-06-11 05:47:42","orig_title":"Окаянные дни","year":"2020-06-11","translations":["Оригинальная дорожка"],"seasons_count":1,"episodes_count":10,"episodes":10,"update":"2020-07-16 14:36:20","iframe_src":"//7043.svetacdn.in/71tsRs29n5tZ/tv-series/7823"},{"id":7730,"title":"Чики","kp_id":"1312007","imdb_id":"tt12516676","world_art_id":null,"type":"serial","add":"2020-06-04 08:14:17","orig_title":"Chiki","year":"2020-06-04","translations":["Оригинальная дорожка"],"seasons_count":1,"episodes_count":8,"episodes":8,"update":"2020-07-16 21:40:39","iframe_src":"//7043.svetacdn.in/71tsRs29n5tZ/tv-series/7730"},{"id":40433,"title":"Сын прокурора","kp_id":"63277","imdb_id":"tt0062918","world_art_id":null,"type":"movie","add":"2020-05-15 21:38:22","orig_title":"Duniya","year":"1968-12-28","translations":["Профессиональный (многоголосый закадровый)","Полное дублирование (Мосфильм)"],"quality":"dvdrip","translation":"Профессиональный (многоголосый закадровый)","update":"2021-02-08 10:39:18","iframe_src":"//7043.svetacdn.in/71tsRs29n5tZ/movie/40433"},{"id":39950,"title":"Фея","kp_id":"1254046","imdb_id":"tt12235234","world_art_id":null,"type":"movie","add":"2020-04-29 20:05:07","orig_title":"Feya","year":"2020-09-18","translations":["Оригинальная дорожка","Оригинальная дорожка"],"quality":"webdl","translation":"Оригинальная дорожка","update":"2021-02-08 14:48:46","iframe_src":"//7043.svetacdn.in/71tsRs29n5tZ/movie/39950"},{"id":39787,"title":"Пой, Радха, пой","kp_id":"182326","imdb_id":"tt0172188","world_art_id":null,"type":"movie","add":"2020-04-24 21:25:02","orig_title":"Bol Radha Bol","year":"1992-07-03","translations":["Профессиональный (многоголосый закадровый)","Профессиональный (многоголосый закадровый) (ZEE TV)"],"quality":"dvdrip","translation":"Профессиональный (многоголосый закадровый)","update":"2021-02-08 09:25:08","iframe_src":"//7043.svetacdn.in/71tsRs29n5tZ/movie/39787"},{"id":32756,"title":"Мать","kp_id":"410597","imdb_id":"tt1216496","world_art_id":null,"type":"movie","add":"2019-11-05 20:42:02","orig_title":"Madeo","year":"2009-05-16","translations":["Авторский (одноголосый закадровый) (Сербин Юрий)","Профессиональный (многоголосый закадровый)"],"quality":"bd","translation":"Авторский (одноголосый закадровый) (Сербин Юрий)","update":"2021-02-08 14:51:24","iframe_src":"//7043.svetacdn.in/71tsRs29n5tZ/movie/32756"},{"id":4517,"title":"Озноб","kp_id":"1264424","imdb_id":"tt12218096","world_art_id":null,"type":"serial","add":"2019-05-18 14:45:15","orig_title":"Oznob/Chills","year":"2019-05-18","translations":["Оригинальная дорожка"],"seasons_count":1,"episodes_count":4,"episodes":4,"update":"2020-07-16 11:21:21","iframe_src":"//7043.svetacdn.in/71tsRs29n5tZ/tv-series/4517"},{"id":24455,"title":"Кромовъ","kp_id":"417599","imdb_id":"tt3752316","world_art_id":null,"type":"movie","add":"2019-04-12 20:54:57","orig_title":"Kromov","year":"2009-01-01","translations":["Оригинальная дорожка","Оригинальная дорожка"],"quality":"dvdrip","translation":"Оригинальная дорожка","update":"2021-02-08 14:49:41","iframe_src":"//7043.svetacdn.in/71tsRs29n5tZ/movie/24455"},{"id":2106,"title":"Академия Гринхаус","kp_id":"1048694","imdb_id":"tt6076336","world_art_id":null,"type":"serial","add":"2018-02-17 12:33:16","orig_title":"Greenhouse Academy","year":"2017-09-08","translations":["Любительский (двухголосый закадровый) (Sunshine Studio)","Профессиональный (многоголосый закадровый) (HDrezka Studio)","Любительский (многоголосый закадровый) (Octopus)"],"seasons_count":4,"episodes_count":40,"episodes":8,"update":"2020-07-17 09:41:11","iframe_src":"//7043.svetacdn.in/71tsRs29n5tZ/tv-series/2106"},{"id":1798,"title":"Тьма","kp_id":"1032606","imdb_id":"tt5753856","world_art_id":null,"type":"serial","add":"2017-12-04 10:27:32","orig_title":"Dark","year":"2017-12-01","translations":["Профессиональный (многоголосый закадровый) (BaibaKo)","Профессиональный (многоголосый закадровый) (NewStudio)","Профессиональный (многоголосый закадровый) (HDrezka Studio)","Профессиональный (многоголосый закадровый) (TVShows)","Профессиональный (двухголосый закадровый) (Кубик в Кубе)","Профессиональный (многоголосый закадровый) (LostFilm)","Профессиональный (многоголосый закадровый) (Jaskier)","Профессиональный (многоголосый закадровый) (IdeaFilm)","Любительский (многоголосый закадровый) (ColdFilm)","Любительский (многоголосый закадровый) (Octopus)","Любительский (многоголосый закадровый) (Hamster Studio)","Любительский (многоголосый закадровый) (WestFilm)"],"seasons_count":3,"episodes_count":27,"episodes":9,"update":"2020-07-16 05:01:18","iframe_src":"//7043.svetacdn.in/71tsRs29n5tZ/tv-series/1798"},{"id":2568,"title":"Братья из Гримсби","kp_id":"817481","imdb_id":"tt3381008","world_art_id":null,"type":"movie","add":"2016-05-25 08:55:19","orig_title":"Grimsby","year":"2016-02-24","translations":["Полное дублирование","Авторский (одноголосый закадровый) (Гоблин | Пучков Дмитрий)"],"quality":"webdl","translation":"Полное дублирование","update":"2021-02-08 10:36:20","iframe_src":"//7043.svetacdn.in/71tsRs29n5tZ/movie/2568"}],"current_page":159,"first_page_url":"https://videocdn.tv/api/short?limit=100&api_token=EnbO9h8pv1VyjbCJhg0WM9nG259n7mtz&cache3159=3159&page=1","from":15801,"last_page":612,"last_page_url":"https://videocdn.tv/api/short?limit=100&api_token=EnbO9h8pv1VyjbCJhg0WM9nG259n7mtz&cache3159=3159&page=612","next_page_url":"https://videocdn.tv/api/short?limit=100&api_token=EnbO9h8pv1VyjbCJhg0WM9nG259n7mtz&cache3159=3159&page=160","path":"https://videocdn.tv/api/short","per_page":100,"prev_page_url":"https://videocdn.tv/api/short?limit=100&api_token=EnbO9h8pv1VyjbCJhg0WM9nG259n7mtz&cache3159=3159&page=158","to":15840,"total":61166}