{"result":true,"data":[{"id":27426,"title":"Золотые ножницы","kp_id":"661240","imdb_id":null,"world_art_id":null,"type":"movie","add":"2019-06-03 22:46:12","orig_title":"Золотые ножницы","year":"2013-12-28","translations":["Оригинальная дорожка"],"quality":"sat","translation":"Оригинальная дорожка","update":"2019-06-04 06:46:16","iframe_src":"//5091.svetacdn.in/IAF0wWTdNYZm/movie/27426"},{"id":27425,"title":"Ангел в тюбетейке","kp_id":"43494","imdb_id":"tt0169556","world_art_id":null,"type":"movie","add":"2019-06-03 22:32:24","orig_title":"Angel v tyubeteyke","year":"1969-08-21","translations":["Оригинальная дорожка"],"quality":"webdl","translation":"Оригинальная дорожка","update":"2019-06-04 06:44:24","iframe_src":"//5091.svetacdn.in/IAF0wWTdNYZm/movie/27425"},{"id":27424,"title":"Ты и я","kp_id":"954068","imdb_id":"tt5258194","world_art_id":null,"type":"movie","add":"2019-06-03 22:32:10","orig_title":"You & Me","year":"2018-03-02","translations":["Любительский (многоголосый закадровый) (Синема УС)"],"quality":"webdl","translation":"Любительский (многоголосый закадровый) (Синема УС)","update":"2019-06-04 06:43:19","iframe_src":"//5091.svetacdn.in/IAF0wWTdNYZm/movie/27424"},{"id":27423,"title":"Миколка-паровоз","kp_id":"427892","imdb_id":"tt3156632","world_art_id":null,"type":"movie","add":"2019-06-03 22:28:47","orig_title":"Mikolka-parovoz","year":"1957-12-08","translations":["Оригинальная дорожка"],"quality":"webdl","translation":"Оригинальная дорожка","update":"2019-06-04 06:32:36","iframe_src":"//5091.svetacdn.in/IAF0wWTdNYZm/movie/27423"},{"id":27421,"title":"Ни пуха, ни пера","kp_id":"1045044","imdb_id":null,"world_art_id":null,"type":"movie","add":"2019-06-03 22:23:44","orig_title":"Ни пуха, ни пера","year":"2015-01-01","translations":["Оригинальная дорожка"],"quality":"webdl","translation":"Оригинальная дорожка","update":"2019-06-04 06:23:32","iframe_src":"//5091.svetacdn.in/IAF0wWTdNYZm/movie/27421"},{"id":27420,"title":"Я хотела увидеть ангелов","kp_id":"40807","imdb_id":"tt0105865","world_art_id":null,"type":"movie","add":"2019-06-03 22:15:53","orig_title":"Ya khotela uvidet angelov","year":"1992-09-11","translations":["Оригинальная дорожка"],"quality":"tv","translation":"Оригинальная дорожка","update":"2019-06-04 06:10:37","iframe_src":"//5091.svetacdn.in/IAF0wWTdNYZm/movie/27420"},{"id":27419,"title":"Корпус генерала Шубникова","kp_id":"44936","imdb_id":"tt0230423","world_art_id":null,"type":"movie","add":"2019-06-03 21:38:45","orig_title":"Korpus generala Shubnikova","year":"1980-02-16","translations":["Оригинальная дорожка"],"quality":"dvdrip","translation":"Оригинальная дорожка","update":"2019-06-04 06:09:42","iframe_src":"//5091.svetacdn.in/IAF0wWTdNYZm/movie/27419"},{"id":27418,"title":"Переходный возраст","kp_id":"467994","imdb_id":"tt3149972","world_art_id":null,"type":"movie","add":"2019-06-03 21:33:47","orig_title":"Perekhodny vozrast","year":"1981-01-01","translations":["Оригинальная дорожка"],"quality":"sat","translation":"Оригинальная дорожка","update":"2019-06-04 06:08:26","iframe_src":"//5091.svetacdn.in/IAF0wWTdNYZm/movie/27418"},{"id":27417,"title":"Принц и нищий","kp_id":"43266","imdb_id":"tt0349998","world_art_id":null,"type":"movie","add":"2019-06-03 21:30:40","orig_title":"Prints i nishchiy","year":"1943-01-24","translations":["Оригинальная дорожка"],"quality":"dvdrip","translation":"Оригинальная дорожка","update":"2019-06-04 06:07:09","iframe_src":"//5091.svetacdn.in/IAF0wWTdNYZm/movie/27417"},{"id":27416,"title":"Забава","kp_id":"468231","imdb_id":"tt2986608","world_art_id":null,"type":"movie","add":"2019-06-03 21:26:34","orig_title":"Zabava","year":"2013-01-01","translations":["Оригинальная дорожка"],"quality":"dvdrip","translation":"Оригинальная дорожка","update":"2019-06-04 05:57:42","iframe_src":"//5091.svetacdn.in/IAF0wWTdNYZm/movie/27416"},{"id":27412,"title":"Мы любим жизнь","kp_id":"1040803","imdb_id":"tt6619822","world_art_id":null,"type":"movie","add":"2019-06-03 20:00:48","orig_title":"Wir lieben das Leben","year":"2018-04-26","translations":["Любительский (многоголосый закадровый) (Синема УС)"],"quality":"hdtv","translation":"Любительский (многоголосый закадровый) (Синема УС)","update":"2019-06-04 04:53:49","iframe_src":"//5091.svetacdn.in/IAF0wWTdNYZm/movie/27412"},{"id":27411,"title":"Техно Дива","kp_id":"624462","imdb_id":"tt1772399","world_art_id":null,"type":"movie","add":"2019-06-03 19:57:58","orig_title":"Techno Diva","year":"2018-02-17","translations":["Любительский (многоголосый закадровый) (Синема УС)"],"quality":"webdl","translation":"Любительский (многоголосый закадровый) (Синема УС)","update":"2019-06-04 04:48:08","iframe_src":"//5091.svetacdn.in/IAF0wWTdNYZm/movie/27411"},{"id":27410,"title":"Тише, малышка, не плачь","kp_id":"1078504","imdb_id":"tt7001042","world_art_id":null,"type":"movie","add":"2019-06-03 19:55:04","orig_title":"Hush Little Baby","year":"2017-06-15","translations":["Любительский (многоголосый закадровый) (Синема УС)"],"quality":"webdl","translation":"Любительский (многоголосый закадровый) (Синема УС)","update":"2019-06-04 04:44:49","iframe_src":"//5091.svetacdn.in/IAF0wWTdNYZm/movie/27410"},{"id":27409,"title":"Неграмотный","kp_id":"1074902","imdb_id":"tt7533388","world_art_id":null,"type":"movie","add":"2019-06-03 19:52:06","orig_title":"Illettré","year":"2018-09-18","translations":["Любительский (многоголосый закадровый) (Синема УС)"],"quality":"hdtv","translation":"Любительский (многоголосый закадровый) (Синема УС)","update":"2019-06-04 04:40:43","iframe_src":"//5091.svetacdn.in/IAF0wWTdNYZm/movie/27409"},{"id":27408,"title":"Птицы, которых она никогда не знала","kp_id":"1016532","imdb_id":"tt6493644","world_art_id":null,"type":"movie","add":"2019-06-03 19:46:57","orig_title":"Kanojo ga sono na wo shiranai toritachi","year":"2017-09-07","translations":["Любительский (многоголосый закадровый) (Синема УС)"],"quality":"bd","translation":"Любительский (многоголосый закадровый) (Синема УС)","update":"2019-06-04 04:36:52","iframe_src":"//5091.svetacdn.in/IAF0wWTdNYZm/movie/27408"},{"id":27401,"title":"Подводная лодка Т-9","kp_id":"461761","imdb_id":"tt1767363","world_art_id":null,"type":"movie","add":"2019-06-03 09:43:06","orig_title":"Podvodnaya lodka T-9","year":"1943-09-22","translations":["Оригинальная дорожка"],"quality":"dvdrip","translation":"Оригинальная дорожка","update":"2019-06-04 04:57:44","iframe_src":"//5091.svetacdn.in/IAF0wWTdNYZm/movie/27401"},{"id":27400,"title":"Целуй меня насмерть","kp_id":"1870","imdb_id":"tt0048261","world_art_id":null,"type":"movie","add":"2019-06-03 09:37:24","orig_title":"Kiss Me Deadly","year":"1955-05-08","translations":["Профессиональный (многоголосый закадровый)"],"quality":"bd","translation":"Профессиональный (многоголосый закадровый)","update":"2019-06-04 05:01:11","iframe_src":"//5091.svetacdn.in/IAF0wWTdNYZm/movie/27400"},{"id":27398,"title":"Эра драконов","kp_id":"497225","imdb_id":"tt1594917","world_art_id":null,"type":"movie","add":"2019-06-03 09:22:52","orig_title":"Age of the Dragons","year":"2011-03-21","translations":["Профессиональный (многоголосый закадровый)"],"quality":"bd","translation":"Профессиональный (многоголосый закадровый)","update":"2019-06-04 05:05:38","iframe_src":"//5091.svetacdn.in/IAF0wWTdNYZm/movie/27398"},{"id":24686,"title":"Хрусталев, машину!","kp_id":"7649","imdb_id":"tt0156701","world_art_id":null,"type":"movie","add":"2019-04-16 08:15:06","orig_title":"Khrustalyov, mashinu!","year":"1998-05-20","translations":["Оригинальная дорожка"],"quality":"bd","translation":"Оригинальная дорожка","update":"2019-06-04 06:45:44","iframe_src":"//5091.svetacdn.in/IAF0wWTdNYZm/movie/24686"},{"id":18257,"title":"Время-не-ждет","kp_id":"425027","imdb_id":"tt4842444","world_art_id":null,"type":"movie","add":"2018-08-12 10:46:37","orig_title":"Vremya-ne-zhdyot","year":"1976-01-15","translations":["Оригинальная дорожка"],"quality":"sat","translation":"Оригинальная дорожка","update":"2019-06-04 06:51:39","iframe_src":"//5091.svetacdn.in/IAF0wWTdNYZm/movie/18257"}],"current_page":1541,"first_page_url":"https://videocdn.tv/api/short?limit=100&api_token=6Onb1W1alEUrBcKJZD3GoKBbWyAl2uG2&cache31541=31541&page=1","from":154001,"last_page":666,"last_page_url":"https://videocdn.tv/api/short?limit=100&api_token=6Onb1W1alEUrBcKJZD3GoKBbWyAl2uG2&cache31541=31541&page=666","next_page_url":null,"path":"https://videocdn.tv/api/short","per_page":100,"prev_page_url":"https://videocdn.tv/api/short?limit=100&api_token=6Onb1W1alEUrBcKJZD3GoKBbWyAl2uG2&cache31541=31541&page=1540","to":154020,"total":66517}