{"result":true,"data":[{"id":25511,"title":"Личное дело майора Баранова","kp_id":"699681","imdb_id":"tt3289004","world_art_id":null,"type":"movie","add":"2019-04-28 10:59:43","orig_title":"Lichnoe delo mayora Baranova","year":"2012-09-09","translations":["Оригинальная дорожка"],"quality":"hdtv","translation":"Оригинальная дорожка","update":"2019-04-29 06:50:54","iframe_src":"//7043.svetacdn.in/si4jsFRrtgrT/movie/25511"},{"id":25509,"title":"Мой дом – моя крепость","kp_id":"585372","imdb_id":"tt9442926","world_art_id":null,"type":"movie","add":"2019-04-28 10:41:39","orig_title":"Moy dom - moya krepost'","year":"2012-02-10","translations":["Оригинальная дорожка"],"quality":"sat","translation":"Оригинальная дорожка","update":"2019-04-29 06:49:55","iframe_src":"//7043.svetacdn.in/si4jsFRrtgrT/movie/25509"},{"id":25507,"title":"Урок литературы","kp_id":"42531","imdb_id":"tt0063752","world_art_id":null,"type":"movie","add":"2019-04-28 10:39:31","orig_title":"Urok literatury","year":"1968-01-01","translations":["Оригинальная дорожка"],"quality":"dvdrip","translation":"Оригинальная дорожка","update":"2019-04-29 06:49:15","iframe_src":"//7043.svetacdn.in/si4jsFRrtgrT/movie/25507"},{"id":25505,"title":"Тот, кто прошел сквозь огонь","kp_id":"613332","imdb_id":"tt1927035","world_art_id":null,"type":"movie","add":"2019-04-28 10:35:56","orig_title":"ToyKhtoProyshovKrizVohon","year":"2012-01-19","translations":["Оригинальная дорожка"],"quality":"dvdrip","translation":"Оригинальная дорожка","update":"2019-04-29 06:48:38","iframe_src":"//7043.svetacdn.in/si4jsFRrtgrT/movie/25505"},{"id":25504,"title":"На помощь, братцы!","kp_id":"46279","imdb_id":"tt0307212","world_art_id":null,"type":"movie","add":"2019-04-28 10:33:33","orig_title":"Na pomoshch, brattsy!","year":"1988-01-01","translations":["Оригинальная дорожка"],"quality":"dvdrip","translation":"Оригинальная дорожка","update":"2019-04-29 06:47:25","iframe_src":"//7043.svetacdn.in/si4jsFRrtgrT/movie/25504"},{"id":25502,"title":"Сладкая женщина","kp_id":"43834","imdb_id":"tt0170592","world_art_id":null,"type":"movie","add":"2019-04-28 10:31:26","orig_title":"Sladkaya zhenshchina","year":"1977-05-23","translations":["Оригинальная дорожка"],"quality":"dvdrip","translation":"Оригинальная дорожка","update":"2019-04-29 06:46:02","iframe_src":"//7043.svetacdn.in/si4jsFRrtgrT/movie/25502"},{"id":25499,"title":"Отель для Золушки","kp_id":"682050","imdb_id":"tt2186830","world_art_id":null,"type":"movie","add":"2019-04-28 10:27:09","orig_title":"Otel dlya Zolushki","year":"2012-06-03","translations":["Оригинальная дорожка"],"quality":"sat","translation":"Оригинальная дорожка","update":"2019-04-29 06:44:37","iframe_src":"//7043.svetacdn.in/si4jsFRrtgrT/movie/25499"},{"id":25498,"title":"Отставник 3","kp_id":"656534","imdb_id":null,"world_art_id":null,"type":"movie","add":"2019-04-28 10:25:19","orig_title":"Отставник 3","year":"2011-12-23","translations":["Оригинальная дорожка"],"quality":"sat","translation":"Оригинальная дорожка","update":"2019-04-29 06:43:52","iframe_src":"//7043.svetacdn.in/si4jsFRrtgrT/movie/25498"},{"id":25496,"title":"Ох и Ах идут в поход","kp_id":"601740","imdb_id":"tt4875234","world_art_id":null,"type":"movie","add":"2019-04-28 10:21:35","orig_title":"Okh i Akh idut v pokhod","year":"1977-01-01","translations":["Оригинальная дорожка"],"quality":"dvdrip","translation":"Оригинальная дорожка","update":"2019-04-29 06:43:09","iframe_src":"//7043.svetacdn.in/si4jsFRrtgrT/movie/25496"},{"id":25495,"title":"Ох и Ах","kp_id":"439961","imdb_id":"tt4487416","world_art_id":null,"type":"movie","add":"2019-04-28 10:19:53","orig_title":"Okh i Akh","year":"1975-01-01","translations":["Оригинальная дорожка"],"quality":"dvdrip","translation":"Оригинальная дорожка","update":"2019-04-29 06:42:32","iframe_src":"//7043.svetacdn.in/si4jsFRrtgrT/movie/25495"},{"id":25491,"title":"Выше неба","kp_id":"652208","imdb_id":"tt2543010","world_art_id":null,"type":"movie","add":"2019-04-28 09:55:50","orig_title":"Vyshe neba","year":"2012-01-01","translations":["Оригинальная дорожка"],"quality":"hdtv","translation":"Оригинальная дорожка","update":"2019-04-29 06:40:32","iframe_src":"//7043.svetacdn.in/si4jsFRrtgrT/movie/25491"},{"id":25490,"title":"Нефть","kp_id":"715271","imdb_id":null,"world_art_id":null,"type":"movie","add":"2019-04-28 09:53:34","orig_title":"Нефть","year":"2012-01-01","translations":["Оригинальная дорожка"],"quality":"hdrip","translation":"Оригинальная дорожка","update":"2019-04-29 06:38:59","iframe_src":"//7043.svetacdn.in/si4jsFRrtgrT/movie/25490"},{"id":25387,"title":"Им было девятнадцать","kp_id":"42587","imdb_id":"tt0314195","world_art_id":null,"type":"movie","add":"2019-04-26 12:20:59","orig_title":"Im bylo devyatnadtsat","year":"1960-11-13","translations":["Оригинальная дорожка"],"quality":"sat","translation":"Оригинальная дорожка","update":"2019-04-29 06:50:33","iframe_src":"//7043.svetacdn.in/si4jsFRrtgrT/movie/25387"},{"id":25386,"title":"Исправленному верить","kp_id":"161159","imdb_id":"tt0471762","world_art_id":null,"type":"movie","add":"2019-04-26 12:17:47","orig_title":"Ispravlennomu verit","year":"1960-03-17","translations":["Оригинальная дорожка"],"quality":"dvdrip","translation":"Оригинальная дорожка","update":"2019-04-29 06:49:27","iframe_src":"//7043.svetacdn.in/si4jsFRrtgrT/movie/25386"},{"id":25385,"title":"Иван-дурак","kp_id":"394771","imdb_id":"tt1098210","world_art_id":null,"type":"movie","add":"2019-04-26 12:14:42","orig_title":"Ivan-Durak","year":"2002-01-01","translations":["Оригинальная дорожка"],"quality":"dvdrip","translation":"Оригинальная дорожка","update":"2019-04-29 06:48:20","iframe_src":"//7043.svetacdn.in/si4jsFRrtgrT/movie/25385"},{"id":25384,"title":"Капитан «Пилигрима»","kp_id":"44703","imdb_id":"tt0266686","world_art_id":null,"type":"movie","add":"2019-04-26 12:09:42","orig_title":"Kapitan 'Piligrima'","year":"1986-12-22","translations":["Оригинальная дорожка"],"quality":"dvdrip","translation":"Оригинальная дорожка","update":"2019-04-29 06:46:49","iframe_src":"//7043.svetacdn.in/si4jsFRrtgrT/movie/25384"},{"id":25383,"title":"Клятва Тимура","kp_id":"44827","imdb_id":"tt0034949","world_art_id":null,"type":"movie","add":"2019-04-26 12:04:12","orig_title":"Klyatva Timura","year":"1942-01-01","translations":["Оригинальная дорожка"],"quality":"dvdrip","translation":"Оригинальная дорожка","update":"2019-04-29 06:45:11","iframe_src":"//7043.svetacdn.in/si4jsFRrtgrT/movie/25383"},{"id":25382,"title":"Князь Удача Андреевич","kp_id":"44833","imdb_id":"tt0097675","world_art_id":null,"type":"movie","add":"2019-04-26 12:00:23","orig_title":"Knyaz Udacha Andreevich","year":"1989-01-01","translations":["Оригинальная дорожка"],"quality":"dvdrip","translation":"Оригинальная дорожка","update":"2019-04-29 06:41:43","iframe_src":"//7043.svetacdn.in/si4jsFRrtgrT/movie/25382"},{"id":25381,"title":"Крэйк","kp_id":"428831","imdb_id":"tt5437514","world_art_id":null,"type":"movie","add":"2019-04-26 11:56:45","orig_title":"Kreyk","year":"2007-01-27","translations":["Оригинальная дорожка"],"quality":"dvdrip","translation":"Оригинальная дорожка","update":"2019-04-29 06:40:35","iframe_src":"//7043.svetacdn.in/si4jsFRrtgrT/movie/25381"},{"id":25380,"title":"Ледяная внучка","kp_id":"45054","imdb_id":"tt0230453","world_art_id":null,"type":"movie","add":"2019-04-26 11:53:29","orig_title":"Ledyanaya vnuchka","year":"1980-12-30","translations":["Оригинальная дорожка"],"quality":"dvdrip","translation":"Оригинальная дорожка","update":"2019-04-29 06:39:22","iframe_src":"//7043.svetacdn.in/si4jsFRrtgrT/movie/25380"}],"current_page":1376,"first_page_url":"https://videocdn.tv/api/short?limit=100&api_token=X6EwAUfE5M9xbo7y0Bp0aPf3uXxG2KLL&cache31376=31376&page=1","from":137501,"last_page":611,"last_page_url":"https://videocdn.tv/api/short?limit=100&api_token=X6EwAUfE5M9xbo7y0Bp0aPf3uXxG2KLL&cache31376=31376&page=611","next_page_url":null,"path":"https://videocdn.tv/api/short","per_page":100,"prev_page_url":"https://videocdn.tv/api/short?limit=100&api_token=X6EwAUfE5M9xbo7y0Bp0aPf3uXxG2KLL&cache31376=31376&page=1375","to":137520,"total":61020}