{"result":true,"data":[{"id":21683,"title":"Страховой агент","kp_id":"94977","imdb_id":"tt0265810","world_art_id":null,"type":"movie","add":"2019-01-21 06:11:30","orig_title":"Strakhovoy agent","year":"1987-02-09","translations":["Оригинальная дорожка"],"quality":"dvdrip","translation":"Оригинальная дорожка","update":"2019-01-21 08:17:31","iframe_src":"//8332.svetacdn.in/si4jsFRrtgrT/movie/21683"},{"id":21682,"title":"Завет","kp_id":"195620","imdb_id":"tt0479519","world_art_id":null,"type":"movie","add":"2019-01-20 23:09:07","orig_title":"Zavet","year":"2007-05-26","translations":["Полное дублирование"],"quality":"dvdrip","translation":"Полное дублирование","update":"2019-01-21 11:09:01","iframe_src":"//8332.svetacdn.in/si4jsFRrtgrT/movie/21682"},{"id":21680,"title":"Контакт","kp_id":"1095268","imdb_id":"tt6613952","world_art_id":null,"type":"movie","add":"2019-01-20 22:38:28","orig_title":"Encounter","year":"2018-12-09","translations":["Любительский (многоголосый закадровый) (Синема УС)"],"quality":"dvdrip","translation":"Любительский (многоголосый закадровый) (Синема УС)","update":"2019-01-21 11:10:16","iframe_src":"//8332.svetacdn.in/si4jsFRrtgrT/movie/21680"},{"id":21679,"title":"DZIDZIO: Первый раз","kp_id":"1210654","imdb_id":"tt8706874","world_art_id":null,"type":"movie","add":"2019-01-20 22:35:02","orig_title":"DZIDZIO First Time","year":"2018-10-25","translations":["Любительский (многоголосый закадровый) (Синема УС)"],"quality":"webdl","translation":"Любительский (многоголосый закадровый) (Синема УС)","update":"2019-01-21 08:06:32","iframe_src":"//8332.svetacdn.in/si4jsFRrtgrT/movie/21679"},{"id":21676,"title":"Чокнутая жирная Этель","kp_id":"661545","imdb_id":"tt2186723","world_art_id":null,"type":"movie","add":"2019-01-20 22:29:36","orig_title":"Crazy Fat Ethel","year":"2016-01-01","translations":["Любительский (многоголосый закадровый) (Колобок)"],"quality":"bd","translation":"Любительский (многоголосый закадровый) (Колобок)","update":"2019-01-21 07:12:35","iframe_src":"//8332.svetacdn.in/si4jsFRrtgrT/movie/21676"},{"id":21670,"title":"Страна","kp_id":"1108605","imdb_id":"tt7618184","world_art_id":null,"type":"movie","add":"2019-01-20 22:17:40","orig_title":"Mulk","year":"2018-08-03","translations":["Профессиональный (многоголосый закадровый) (AlphaProject)"],"quality":"bd","translation":"Профессиональный (многоголосый закадровый) (AlphaProject)","update":"2019-01-21 07:18:12","iframe_src":"//8332.svetacdn.in/si4jsFRrtgrT/movie/21670"},{"id":21667,"title":"Зимнее предложение","kp_id":"1227989","imdb_id":"tt9534518","world_art_id":null,"type":"movie","add":"2019-01-20 22:14:17","orig_title":"One Winter Proposal","year":"2019-01-12","translations":["Любительский (многоголосый закадровый) (Синема УС)"],"quality":"hdtv","translation":"Любительский (многоголосый закадровый) (Синема УС)","update":"2019-01-21 07:13:45","iframe_src":"//8332.svetacdn.in/si4jsFRrtgrT/movie/21667"},{"id":21634,"title":"Явление","kp_id":"1066624","imdb_id":"tt6559390","world_art_id":null,"type":"movie","add":"2019-01-19 23:22:38","orig_title":"L'apparition","year":"2018-02-14","translations":["Профессиональный (многоголосый закадровый) (HDrezka Studio)"],"quality":"bd","translation":"Профессиональный (многоголосый закадровый) (HDrezka Studio)","update":"2019-01-21 08:14:52","iframe_src":"//8332.svetacdn.in/si4jsFRrtgrT/movie/21634"},{"id":21633,"title":"Что бы ни случилось","kp_id":null,"imdb_id":"tt8666494","world_art_id":null,"type":"movie","add":"2019-01-19 23:20:27","orig_title":"Egal was kommt","year":"2018-08-02","translations":["Любительский (многоголосый закадровый) (Синема УС)"],"quality":"bd","translation":"Любительский (многоголосый закадровый) (Синема УС)","update":"2019-01-21 08:17:26","iframe_src":"//8332.svetacdn.in/si4jsFRrtgrT/movie/21633"},{"id":21629,"title":"Проект \"Трое\"","kp_id":"1078689","imdb_id":"tt6805422","world_art_id":null,"type":"movie","add":"2019-01-19 14:03:57","orig_title":"Le trip à trois","year":"2017-12-20","translations":["Любительский (многоголосый закадровый) (Синема УС)"],"quality":"webdl","translation":"Любительский (многоголосый закадровый) (Синема УС)","update":"2019-01-21 07:46:33","iframe_src":"//8332.svetacdn.in/si4jsFRrtgrT/movie/21629"},{"id":21628,"title":"Как леди","kp_id":"917400","imdb_id":"tt4786132","world_art_id":null,"type":"movie","add":"2019-01-19 14:02:29","orig_title":"Lady-Like","year":"2018-01-01","translations":["Любительский (многоголосый закадровый) (Синема УС)"],"quality":"webdl","translation":"Любительский (многоголосый закадровый) (Синема УС)","update":"2019-01-21 07:23:14","iframe_src":"//8332.svetacdn.in/si4jsFRrtgrT/movie/21628"},{"id":21625,"title":"Клик, Клак, Му: Рождество на ферме","kp_id":"1103284","imdb_id":"tt7642718","world_art_id":null,"type":"movie","add":"2019-01-19 13:54:58","orig_title":"Click, Clack, Moo: Christmas at the Farm","year":"2017-11-28","translations":["Любительский (многоголосый закадровый) (Синема УС)"],"quality":"webdl","translation":"Любительский (многоголосый закадровый) (Синема УС)","update":"2019-01-21 11:11:20","iframe_src":"//8332.svetacdn.in/si4jsFRrtgrT/movie/21625"},{"id":21622,"title":"Бесконечная петля","kp_id":"1204213","imdb_id":"tt9479806","world_art_id":null,"type":"movie","add":"2019-01-19 13:42:39","orig_title":"Hei an mi gong","year":"2018-10-31","translations":["Любительский (многоголосый закадровый) (Колобок)"],"quality":"webdl","translation":"Любительский (многоголосый закадровый) (Колобок)","update":"2019-01-21 07:45:20","iframe_src":"//8332.svetacdn.in/si4jsFRrtgrT/movie/21622"},{"id":21619,"title":"Юкатан","kp_id":"1027693","imdb_id":"tt6502956","world_art_id":null,"type":"movie","add":"2019-01-19 13:14:45","orig_title":"Yucatán","year":"2018-08-29","translations":["Любительский (многоголосый закадровый) (Синема УС)"],"quality":"bd","translation":"Любительский (многоголосый закадровый) (Синема УС)","update":"2019-01-21 07:59:36","iframe_src":"//8332.svetacdn.in/si4jsFRrtgrT/movie/21619"},{"id":21616,"title":"Морские монстры 2","kp_id":"1103339","imdb_id":"tt7575642","world_art_id":null,"type":"movie","add":"2019-01-19 13:10:05","orig_title":"Sea Monsters 2","year":"2018-01-01","translations":["Любительский (многоголосый закадровый) (Синема УС)"],"quality":"webdl","translation":"Любительский (многоголосый закадровый) (Синема УС)","update":"2019-01-21 11:12:08","iframe_src":"//8332.svetacdn.in/si4jsFRrtgrT/movie/21616"},{"id":21615,"title":"Обещания","kp_id":"847010","imdb_id":"tt3848036","world_art_id":null,"type":"movie","add":"2019-01-19 13:04:50","orig_title":"Promises","year":"2017-03-15","translations":["Любительский (многоголосый закадровый) (Синема УС)"],"quality":"webdl","translation":"Любительский (многоголосый закадровый) (Синема УС)","update":"2019-01-21 07:54:37","iframe_src":"//8332.svetacdn.in/si4jsFRrtgrT/movie/21615"},{"id":21605,"title":"Барби: Сказочная страна Мермедия","kp_id":"252139","imdb_id":"tt0775425","world_art_id":null,"type":"movie","add":"2019-01-18 10:32:50","orig_title":"Barbie Fairytopia: Mermaidia","year":"2010-10-05","translations":["Полное дублирование"],"quality":"dvdrip","translation":"Полное дублирование","update":"2019-01-19 08:08:23","iframe_src":"//8332.svetacdn.in/si4jsFRrtgrT/movie/21605"},{"id":21492,"title":"Эволюция зла","kp_id":"1070316","imdb_id":"tt7385832","world_art_id":null,"type":"movie","add":"2019-01-15 05:25:28","orig_title":"Removed","year":"2018-09-14","translations":["Любительский (многоголосый закадровый) (Синема УС)","Любительский (двухголосый закадровый) (HiWayGrope)"],"quality":"webdl","translation":"Любительский (многоголосый закадровый) (Синема УС)","update":"2019-01-21 08:16:26","iframe_src":"//8332.svetacdn.in/si4jsFRrtgrT/movie/21492"},{"id":20928,"title":"Тень былых побед","kp_id":"924527","imdb_id":"tt4874350","world_art_id":null,"type":"movie","add":"2018-12-23 00:24:42","orig_title":"Shadow Fighter","year":"2018-12-21","translations":["Любительский (многоголосый закадровый) (Синема УС)","Любительский (двухголосый закадровый) (HiWayGrope)"],"quality":"webdl","translation":"Любительский (многоголосый закадровый) (Синема УС)","update":"2019-01-21 08:08:34","iframe_src":"//8332.svetacdn.in/si4jsFRrtgrT/movie/20928"},{"id":20485,"title":"Братья Систерс","kp_id":"968375","imdb_id":"tt4971344","world_art_id":null,"type":"movie","add":"2018-12-04 00:32:09","orig_title":"The Sisters Brothers","year":"2018-09-02","translations":["Любительский (многоголосый закадровый) (@MUZOBOZ@)","Любительский (двухголосый закадровый) (HiWayGrope)","Полное дублирование"],"quality":"webdl","translation":"Любительский (многоголосый закадровый) (@MUZOBOZ@)","update":"2019-01-21 08:10:19","iframe_src":"//8332.svetacdn.in/si4jsFRrtgrT/movie/20485"}],"current_page":1651,"first_page_url":"https://videocdn.tv/api/short?limit=100&api_token=X6EwAUfE5M9xbo7y0Bp0aPf3uXxG2KLL&cache31651=31651&page=1","from":165001,"last_page":632,"last_page_url":"https://videocdn.tv/api/short?limit=100&api_token=X6EwAUfE5M9xbo7y0Bp0aPf3uXxG2KLL&cache31651=31651&page=632","next_page_url":null,"path":"https://videocdn.tv/api/short","per_page":100,"prev_page_url":"https://videocdn.tv/api/short?limit=100&api_token=X6EwAUfE5M9xbo7y0Bp0aPf3uXxG2KLL&cache31651=31651&page=1650","to":165020,"total":63136}