{"result":true,"data":[{"id":46703,"title":"Такая длинная, длинная дорога","kp_id":"178815","imdb_id":"tt0461848","world_art_id":null,"type":"movie","add":"2021-01-05 16:20:21","orig_title":"Takaya dlinnaya, dlinnaya doroga","year":"1972-01-01","translations":["Оригинальная дорожка"],"quality":"sat","translation":"Оригинальная дорожка","update":"2021-01-06 10:56:44","iframe_src":"//83.svetacdn.in/PfJ50H0ZBPg3/movie/46703"},{"id":46701,"title":"Сергей Иванович уходит на пенсию","kp_id":"43696","imdb_id":"tt0230756","world_art_id":null,"type":"movie","add":"2021-01-05 16:15:43","orig_title":"Sergey Ivanovich ukhodit na pensiyu","year":"1981-04-20","translations":["Оригинальная дорожка"],"quality":"iptv","translation":"Оригинальная дорожка","update":"2021-01-06 10:55:10","iframe_src":"//83.svetacdn.in/PfJ50H0ZBPg3/movie/46701"},{"id":46700,"title":"От зари до зари","kp_id":"42833","imdb_id":"tt0147131","world_art_id":null,"type":"movie","add":"2021-01-05 16:13:09","orig_title":"Ot zari do zari","year":"1975-12-09","translations":["Оригинальная дорожка"],"quality":"sat","translation":"Оригинальная дорожка","update":"2021-01-06 10:54:11","iframe_src":"//83.svetacdn.in/PfJ50H0ZBPg3/movie/46700"},{"id":46697,"title":"Ха-би-ассы","kp_id":"44628","imdb_id":"tt0129131","world_art_id":null,"type":"movie","add":"2021-01-05 16:06:33","orig_title":"Kha-bi-assy","year":"1990-10-02","translations":["Оригинальная дорожка"],"quality":"dvdrip","translation":"Оригинальная дорожка","update":"2021-01-06 10:51:51","iframe_src":"//83.svetacdn.in/PfJ50H0ZBPg3/movie/46697"},{"id":46696,"title":"Если бы я был начальником...","kp_id":"42444","imdb_id":"tt0081786","world_art_id":null,"type":"movie","add":"2021-01-05 16:04:18","orig_title":"Yesli by ya byl nachalnikom","year":"1981-03-16","translations":["Оригинальная дорожка"],"quality":"sat","translation":"Оригинальная дорожка","update":"2021-01-06 10:51:01","iframe_src":"//83.svetacdn.in/PfJ50H0ZBPg3/movie/46696"},{"id":46695,"title":"Дым отечества","kp_id":"44377","imdb_id":"tt0176679","world_art_id":null,"type":"movie","add":"2021-01-05 16:01:47","orig_title":"Dym otechestva","year":"1980-01-01","translations":["Оригинальная дорожка"],"quality":"dvdrip","translation":"Оригинальная дорожка","update":"2021-01-06 10:50:01","iframe_src":"//83.svetacdn.in/PfJ50H0ZBPg3/movie/46695"},{"id":46694,"title":"Дневные звезды","kp_id":"44226","imdb_id":"tt0060316","world_art_id":null,"type":"movie","add":"2021-01-05 15:59:33","orig_title":"Dnevnye zvyozdy","year":"1968-02-08","translations":["Оригинальная дорожка"],"quality":"tv","translation":"Оригинальная дорожка","update":"2021-01-06 10:49:21","iframe_src":"//83.svetacdn.in/PfJ50H0ZBPg3/movie/46694"},{"id":46693,"title":"Большая руда","kp_id":"46174","imdb_id":"tt0149917","world_art_id":null,"type":"movie","add":"2021-01-05 15:56:53","orig_title":"Bolshaya ruda","year":"1964-12-14","translations":["Оригинальная дорожка"],"quality":"dvdrip","translation":"Оригинальная дорожка","update":"2021-01-06 10:43:26","iframe_src":"//83.svetacdn.in/PfJ50H0ZBPg3/movie/46693"},{"id":46686,"title":"Карусель","kp_id":"408925","imdb_id":"tt5595162","world_art_id":null,"type":"movie","add":"2021-01-04 17:12:06","orig_title":"Karusel","year":"1983-08-06","translations":["Оригинальная дорожка"],"quality":"tv","translation":"Оригинальная дорожка","update":"2021-01-06 10:42:30","iframe_src":"//83.svetacdn.in/PfJ50H0ZBPg3/movie/46686"},{"id":46685,"title":"Флаги на башнях","kp_id":"434838","imdb_id":"tt1538483","world_art_id":null,"type":"movie","add":"2021-01-04 17:08:14","orig_title":"Flagi na bashnyakh","year":"1958-07-28","translations":["Оригинальная дорожка"],"quality":"dvdrip","translation":"Оригинальная дорожка","update":"2021-01-06 10:41:36","iframe_src":"//83.svetacdn.in/PfJ50H0ZBPg3/movie/46685"},{"id":46684,"title":"Дорога к морю","kp_id":"223132","imdb_id":"tt0380321","world_art_id":null,"type":"movie","add":"2021-01-04 17:03:58","orig_title":"Doroga k moryu","year":"1965-03-17","translations":["Оригинальная дорожка"],"quality":"dvdrip","translation":"Оригинальная дорожка","update":"2021-01-06 10:40:57","iframe_src":"//83.svetacdn.in/PfJ50H0ZBPg3/movie/46684"},{"id":46683,"title":"Чудесный костюм","kp_id":"314259","imdb_id":null,"world_art_id":null,"type":"movie","add":"2021-01-04 17:01:09","orig_title":"Чудесный костюм","year":"1973-01-01","translations":["Оригинальная дорожка"],"quality":"sat","translation":"Оригинальная дорожка","update":"2021-01-06 10:39:58","iframe_src":"//83.svetacdn.in/PfJ50H0ZBPg3/movie/46683"},{"id":46682,"title":"Человек в штатском","kp_id":"45471","imdb_id":"tt0313878","world_art_id":null,"type":"movie","add":"2021-01-04 16:55:13","orig_title":"Chelovek v shtatskom","year":"1973-10-15","translations":["Оригинальная дорожка"],"quality":"sat","translation":"Оригинальная дорожка","update":"2021-01-06 10:39:07","iframe_src":"//83.svetacdn.in/PfJ50H0ZBPg3/movie/46682"},{"id":46662,"title":"На даче","kp_id":"468774","imdb_id":null,"world_art_id":null,"type":"movie","add":"2021-01-03 22:44:07","orig_title":"На даче","year":"1971-04-25","translations":["Оригинальная дорожка"],"quality":"sat","translation":"Оригинальная дорожка","update":"2021-01-06 10:38:22","iframe_src":"//83.svetacdn.in/PfJ50H0ZBPg3/movie/46662"},{"id":46661,"title":"Наша дача","kp_id":"46333","imdb_id":"tt0100227","world_art_id":null,"type":"movie","add":"2021-01-03 22:35:34","orig_title":"Nasha dacha","year":"1990-01-21","translations":["Оригинальная дорожка"],"quality":"dvdrip","translation":"Оригинальная дорожка","update":"2021-01-06 10:37:25","iframe_src":"//83.svetacdn.in/PfJ50H0ZBPg3/movie/46661"},{"id":46660,"title":"Портрет с дождем","kp_id":"43131","imdb_id":"tt0076562","world_art_id":null,"type":"movie","add":"2021-01-03 22:31:54","orig_title":"Portret s dozhdyom","year":"1978-03-06","translations":["Оригинальная дорожка"],"quality":"iptv","translation":"Оригинальная дорожка","update":"2021-01-06 10:36:18","iframe_src":"//83.svetacdn.in/PfJ50H0ZBPg3/movie/46660"},{"id":46659,"title":"Придут страсти-мордасти","kp_id":"43245","imdb_id":"tt0237607","world_art_id":null,"type":"movie","add":"2021-01-03 22:27:49","orig_title":"Pridut strasti-mordasti","year":"1981-05-31","translations":["Оригинальная дорожка"],"quality":"tv","translation":"Оригинальная дорожка","update":"2021-01-06 10:35:22","iframe_src":"//83.svetacdn.in/PfJ50H0ZBPg3/movie/46659"},{"id":46658,"title":"Путь корабля","kp_id":"397354","imdb_id":"tt0239852","world_art_id":null,"type":"movie","add":"2021-01-03 22:12:15","orig_title":"Put korablya","year":"1935-10-20","translations":["Оригинальная дорожка"],"quality":"dvdrip","translation":"Оригинальная дорожка","update":"2021-01-06 10:34:32","iframe_src":"//83.svetacdn.in/PfJ50H0ZBPg3/movie/46658"},{"id":46657,"title":"Пышка","kp_id":"43386","imdb_id":"tt0025691","world_art_id":null,"type":"movie","add":"2021-01-03 22:06:26","orig_title":"Pyshka","year":"1934-09-15","translations":["Оригинальная дорожка"],"quality":"dvdrip","translation":"Оригинальная дорожка","update":"2021-01-06 10:33:40","iframe_src":"//83.svetacdn.in/PfJ50H0ZBPg3/movie/46657"},{"id":46656,"title":"Развязка","kp_id":"42074","imdb_id":"tt0314563","world_art_id":null,"type":"movie","add":"2021-01-03 22:03:00","orig_title":"Razvyazka","year":"1969-01-26","translations":["Оригинальная дорожка"],"quality":"sat","translation":"Оригинальная дорожка","update":"2021-01-06 10:32:40","iframe_src":"//83.svetacdn.in/PfJ50H0ZBPg3/movie/46656"},{"id":7948,"title":"Схаувендам 12","kp_id":"1252336","imdb_id":"tt10081702","world_art_id":null,"type":"serial","add":"2020-06-18 20:49:31","orig_title":"De 12 van Schouwendam","year":"2019-11-12","translations":["Любительский (многоголосый закадровый) (Octopus)"],"seasons_count":1,"episodes_count":10,"episodes":10,"update":"2020-06-19 04:10:41","iframe_src":"//83.svetacdn.in/PfJ50H0ZBPg3/tv-series/7948"},{"id":7929,"title":"Граф Монте-Кристо","kp_id":"163763","imdb_id":"tt0054761","world_art_id":null,"type":"serial","add":"2020-06-17 11:23:35","orig_title":"Le comte de Monte Cristo","year":"1961-12-06","translations":["Профессиональный (двухголосый закадровый) (Союз Видео)"],"seasons_count":1,"episodes_count":2,"episodes":2,"update":"2020-06-19 11:32:33","iframe_src":"//83.svetacdn.in/PfJ50H0ZBPg3/tv-series/7929"},{"id":7910,"title":"Наблюдайте за Мэлхотрами","kp_id":"1219798","imdb_id":"tt9359492","world_art_id":null,"type":"serial","add":"2020-06-16 18:39:45","orig_title":"Mind The Malhotras","year":"2019-06-07","translations":["Любительский (многоголосый закадровый) (Octopus)"],"seasons_count":1,"episodes_count":9,"episodes":9,"update":"2020-06-19 08:29:22","iframe_src":"//83.svetacdn.in/PfJ50H0ZBPg3/tv-series/7910"},{"id":7906,"title":"Воины-скелеты","kp_id":"466443","imdb_id":"tt0108928","world_art_id":null,"type":"serial","add":"2020-06-16 06:44:02","orig_title":"Skeleton Warriors","year":"1994-09-12","translations":["Авторский (одноголосый закадровый) (Сербин Юрий)"],"seasons_count":1,"episodes_count":13,"episodes":13,"update":"2020-06-19 07:28:44","iframe_src":"//83.svetacdn.in/PfJ50H0ZBPg3/tv-series/7906"},{"id":7905,"title":"Подари мне воскресенье","kp_id":"669490","imdb_id":null,"world_art_id":null,"type":"serial","add":"2020-06-16 06:29:35","orig_title":"Подари мне воскресенье","year":"2012-03-09","translations":["Оригинальная дорожка"],"seasons_count":1,"episodes_count":8,"episodes":8,"update":"2020-06-19 07:18:56","iframe_src":"//83.svetacdn.in/PfJ50H0ZBPg3/tv-series/7905"},{"id":7904,"title":"Цыганское счастье","kp_id":"935910","imdb_id":null,"world_art_id":null,"type":"serial","add":"2020-06-16 06:25:03","orig_title":"Цыганское счастье","year":"2013-01-01","translations":["Оригинальная дорожка"],"seasons_count":1,"episodes_count":8,"episodes":8,"update":"2020-06-19 07:03:23","iframe_src":"//83.svetacdn.in/PfJ50H0ZBPg3/tv-series/7904"},{"id":7903,"title":"Застывшие депеши","kp_id":"477468","imdb_id":"tt4315660","world_art_id":null,"type":"serial","add":"2020-06-16 06:05:12","orig_title":"Zastyvshiye depeshi","year":"2010-05-01","translations":["Оригинальная дорожка"],"seasons_count":1,"episodes_count":16,"episodes":16,"update":"2020-06-19 07:00:48","iframe_src":"//83.svetacdn.in/PfJ50H0ZBPg3/tv-series/7903"},{"id":7890,"title":"Я все помню","kp_id":"952093","imdb_id":null,"world_art_id":null,"type":"serial","add":"2020-06-15 12:04:37","orig_title":"Ya vsyo pomnyu","year":"2015-11-27","translations":["Оригинальная дорожка"],"seasons_count":1,"episodes_count":4,"episodes":4,"update":"2020-06-18 17:36:49","iframe_src":"//83.svetacdn.in/PfJ50H0ZBPg3/tv-series/7890"},{"id":7889,"title":"Тропинка вдоль реки","kp_id":"665303","imdb_id":null,"world_art_id":null,"type":"serial","add":"2020-06-15 11:58:16","orig_title":"Tropinka vdol reki","year":"2012-02-11","translations":["Оригинальная дорожка"],"seasons_count":1,"episodes_count":4,"episodes":4,"update":"2020-06-18 17:32:12","iframe_src":"//83.svetacdn.in/PfJ50H0ZBPg3/tv-series/7889"},{"id":7888,"title":"Сын","kp_id":"839924","imdb_id":null,"world_art_id":null,"type":"serial","add":"2020-06-15 11:51:48","orig_title":"Syn","year":"2017-08-12","translations":["Оригинальная дорожка"],"seasons_count":1,"episodes_count":4,"episodes":4,"update":"2020-06-18 17:26:54","iframe_src":"//83.svetacdn.in/PfJ50H0ZBPg3/tv-series/7888"},{"id":7887,"title":"Потому что люблю","kp_id":"927136","imdb_id":null,"world_art_id":null,"type":"serial","add":"2020-06-15 11:48:08","orig_title":"Potomu chto lublu","year":"2015-08-22","translations":["Оригинальная дорожка"],"seasons_count":1,"episodes_count":2,"episodes":2,"update":"2020-06-18 17:22:51","iframe_src":"//83.svetacdn.in/PfJ50H0ZBPg3/tv-series/7887"},{"id":7886,"title":"Поговори со мною о любви","kp_id":"794478","imdb_id":null,"world_art_id":null,"type":"serial","add":"2020-06-15 11:40:15","orig_title":"Pogovory so mnoyu o lyubvi","year":"2013-08-30","translations":["Оригинальная дорожка"],"seasons_count":1,"episodes_count":2,"episodes":2,"update":"2020-06-18 17:22:26","iframe_src":"//83.svetacdn.in/PfJ50H0ZBPg3/tv-series/7886"},{"id":7885,"title":"Взгляд из прошлого","kp_id":"947039","imdb_id":null,"world_art_id":null,"type":"serial","add":"2020-06-15 11:35:36","orig_title":"Vzglyad iz proshlogo","year":"2015-11-28","translations":["Оригинальная дорожка"],"seasons_count":1,"episodes_count":4,"episodes":4,"update":"2020-06-18 17:08:19","iframe_src":"//83.svetacdn.in/PfJ50H0ZBPg3/tv-series/7885"},{"id":7884,"title":"Весеннее обострение","kp_id":"966761","imdb_id":null,"world_art_id":null,"type":"serial","add":"2020-06-15 11:18:42","orig_title":"Vesenneye obostreniye","year":"2016-03-08","translations":["Оригинальная дорожка"],"seasons_count":1,"episodes_count":4,"episodes":4,"update":"2020-06-18 17:21:51","iframe_src":"//83.svetacdn.in/PfJ50H0ZBPg3/tv-series/7884"},{"id":7800,"title":"Самое опасное животное","kp_id":"1293338","imdb_id":"tt4079926","world_art_id":null,"type":"serial","add":"2020-06-10 07:08:49","orig_title":"The Most Dangerous Animal of All","year":"2020-03-06","translations":["Профессиональный (многоголосый закадровый) (HDrezka Studio)"],"seasons_count":1,"episodes_count":4,"episodes":4,"update":"2020-06-19 08:29:05","iframe_src":"//83.svetacdn.in/PfJ50H0ZBPg3/tv-series/7800"},{"id":7786,"title":"Аэропорт 2","kp_id":"439947","imdb_id":null,"world_art_id":null,"type":"serial","add":"2020-06-09 11:19:26","orig_title":"Аэропорт 2","year":"2006-01-01","translations":["Оригинальная дорожка"],"seasons_count":1,"episodes_count":30,"episodes":30,"update":"2020-06-19 07:09:14","iframe_src":"//83.svetacdn.in/PfJ50H0ZBPg3/tv-series/7786"},{"id":7748,"title":"Президент","kp_id":"1254485","imdb_id":"tt10091306","world_art_id":null,"type":"serial","add":"2020-06-05 09:12:37","orig_title":"El Presidente","year":"2020-06-05","translations":["Любительский (многоголосый закадровый) (ColdFilm)","Любительский (многоголосый закадровый) (Octopus)","Профессиональный (двухголосый закадровый) (IdeaFilm)","Профессиональный (двухголосый закадровый) (Gears Media)","Профессиональный (многоголосый закадровый) (BaibaKo)"],"seasons_count":1,"episodes_count":8,"episodes":8,"update":"2020-06-18 19:10:41","iframe_src":"//83.svetacdn.in/PfJ50H0ZBPg3/tv-series/7748"},{"id":5017,"title":"Студия 30","kp_id":"277538","imdb_id":"tt0496424","world_art_id":null,"type":"serial","add":"2019-08-09 17:46:29","orig_title":"30 Rock","year":"2006-10-11","translations":["Профессиональный (многоголосый закадровый) (SET)","Любительский (одноголосый закадровый)"],"seasons_count":7,"episodes_count":135,"episodes":12,"update":"2020-06-19 08:39:47","iframe_src":"//83.svetacdn.in/PfJ50H0ZBPg3/tv-series/5017"},{"id":4330,"title":"Чем мы занимаемся в тени","kp_id":"1113116","imdb_id":"tt7908628","world_art_id":null,"type":"serial","add":"2019-03-28 05:40:41","orig_title":"What We Do in the Shadows","year":"2019-03-27","translations":["Профессиональный (многоголосый закадровый) (LostFilm)","Профессиональный (многоголосый закадровый) (NewStudio)","Профессиональный (многоголосый закадровый) (HDrezka Studio)","Профессиональный (многоголосый закадровый) (FOX)","Профессиональный (многоголосый закадровый) (Ozz.tv)","Профессиональный (двухголосый закадровый) (Кубик в Кубе)","Любительский (многоголосый закадровый) (ColdFilm)","Любительский (многоголосый закадровый) (Octopus)","Любительский (многоголосый закадровый) (KerobTV)","Любительский (двухголосый закадровый) (KerobTV)"],"seasons_count":2,"episodes_count":20,"episodes":10,"update":"2020-06-19 11:18:29","iframe_src":"//83.svetacdn.in/PfJ50H0ZBPg3/tv-series/4330"},{"id":3906,"title":"Розуэлл, Нью-Мексико","kp_id":"1113649","imdb_id":"tt7588054","world_art_id":null,"type":"serial","add":"2019-01-18 17:16:10","orig_title":"Roswell, New Mexico","year":"2019-01-15","translations":["Профессиональный (многоголосый закадровый) (LostFilm)","Профессиональный (многоголосый закадровый) (BaibaKo)","Профессиональный (многоголосый закадровый) (HDrezka Studio)","Профессиональный (многоголосый закадровый) (TVShows)","Любительский (многоголосый закадровый) (ColdFilm)","Любительский (многоголосый закадровый) (KerobTV)","Любительский (многоголосый закадровый) (Octopus)","Любительский (двухголосый закадровый) (KerobTV)"],"seasons_count":2,"episodes_count":26,"episodes":13,"update":"2020-06-18 17:09:48","iframe_src":"//83.svetacdn.in/PfJ50H0ZBPg3/tv-series/3906"}],"current_page":161,"first_page_url":"https://videocdn.tv/api/short?limit=100&api_token=RgFQdUIR2dRmwv8iYa5SnFNgnw3vpjKj&cache3161=3161&page=1","from":16001,"last_page":601,"last_page_url":"https://videocdn.tv/api/short?limit=100&api_token=RgFQdUIR2dRmwv8iYa5SnFNgnw3vpjKj&cache3161=3161&page=601","next_page_url":"https://videocdn.tv/api/short?limit=100&api_token=RgFQdUIR2dRmwv8iYa5SnFNgnw3vpjKj&cache3161=3161&page=162","path":"https://videocdn.tv/api/short","per_page":100,"prev_page_url":"https://videocdn.tv/api/short?limit=100&api_token=RgFQdUIR2dRmwv8iYa5SnFNgnw3vpjKj&cache3161=3161&page=160","to":16040,"total":60055}