{"result":true,"data":[{"id":46151,"title":"Авива","kp_id":"1274351","imdb_id":"tt10373830","world_art_id":null,"type":"movie","add":"2020-12-16 20:57:53","orig_title":"Aviva","year":"2020-06-12","translations":["Любительский (многоголосый закадровый) (Синема УС)"],"quality":"webdl","translation":"Любительский (многоголосый закадровый) (Синема УС)","update":"2020-12-17 08:10:33","iframe_src":"//7923.svetacdn.in/71tsRs29n5tZ/movie/46151"},{"id":46150,"title":"Однажды на главной улице","kp_id":"1411087","imdb_id":"tt13064420","world_art_id":null,"type":"movie","add":"2020-12-16 20:55:53","orig_title":"Once Upon a Main Street","year":"2020-11-29","translations":["Любительский (многоголосый закадровый) (AlphaProject)"],"quality":"webdl","translation":"Любительский (многоголосый закадровый) (AlphaProject)","update":"2020-12-17 08:10:53","iframe_src":"//7923.svetacdn.in/71tsRs29n5tZ/movie/46150"},{"id":46149,"title":"Дерек умер","kp_id":"1307030","imdb_id":"tt11002242","world_art_id":null,"type":"movie","add":"2020-12-16 20:51:52","orig_title":"Derek's Dead","year":"2020-12-15","translations":["Любительский (многоголосый закадровый) (AlphaProject)"],"quality":"webdl","translation":"Любительский (многоголосый закадровый) (AlphaProject)","update":"2020-12-17 08:11:07","iframe_src":"//7923.svetacdn.in/71tsRs29n5tZ/movie/46149"},{"id":46148,"title":"Проклятье поместья Гоббса","kp_id":"1223566","imdb_id":"tt9253926","world_art_id":null,"type":"movie","add":"2020-12-16 20:48:44","orig_title":"The Curse of Hobbes House","year":"2020-12-15","translations":["Любительский (многоголосый закадровый) (@MUZOBOZ@)"],"quality":"webdl","translation":"Любительский (многоголосый закадровый) (@MUZOBOZ@)","update":"2020-12-17 08:11:29","iframe_src":"//7923.svetacdn.in/71tsRs29n5tZ/movie/46148"},{"id":46146,"title":"Реверсия","kp_id":null,"imdb_id":"tt3896836","world_art_id":null,"type":"movie","add":"2020-12-16 18:34:05","orig_title":"Reversion","year":"2020-12-15","translations":["Любительский (многоголосый закадровый) (Синема УС)"],"quality":"webdl","translation":"Любительский (многоголосый закадровый) (Синема УС)","update":"2020-12-17 08:09:32","iframe_src":"//7923.svetacdn.in/71tsRs29n5tZ/movie/46146"},{"id":46119,"title":"Большая пустота","kp_id":"2508","imdb_id":"tt0321442","world_art_id":null,"type":"movie","add":"2020-12-16 13:04:40","orig_title":"The Big Empty","year":"2003-05-16","translations":["Профессиональный (двухголосый закадровый)"],"quality":"dvdrip","translation":"Профессиональный (двухголосый закадровый)","update":"2020-12-17 06:58:47","iframe_src":"//7923.svetacdn.in/71tsRs29n5tZ/movie/46119"},{"id":46117,"title":"Хищники","kp_id":"31698","imdb_id":"tt0058123","world_art_id":null,"type":"movie","add":"2020-12-16 09:48:03","orig_title":"Les félins","year":"1964-06-12","translations":["Профессиональный (многоголосый закадровый) (Фильм Престиж)"],"quality":"bd","translation":"Профессиональный (многоголосый закадровый) (Фильм Престиж)","update":"2020-12-17 06:54:16","iframe_src":"//7923.svetacdn.in/71tsRs29n5tZ/movie/46117"},{"id":46107,"title":"Цена возврата","kp_id":"471846","imdb_id":"tt5605724","world_art_id":null,"type":"movie","add":"2020-12-15 17:36:12","orig_title":"Tsena vozvrata","year":"1983-11-14","translations":["Оригинальная дорожка"],"quality":"tv","translation":"Оригинальная дорожка","update":"2020-12-17 09:25:29","iframe_src":"//7923.svetacdn.in/71tsRs29n5tZ/movie/46107"},{"id":46105,"title":"Проводы белых ночей","kp_id":"331763","imdb_id":"tt0155061","world_art_id":null,"type":"movie","add":"2020-12-15 17:28:48","orig_title":"Provody belykh nochey","year":"1969-05-01","translations":["Оригинальная дорожка"],"quality":"tv","translation":"Оригинальная дорожка","update":"2020-12-17 09:27:07","iframe_src":"//7923.svetacdn.in/71tsRs29n5tZ/movie/46105"},{"id":46104,"title":"Про полосатого слоненка","kp_id":"417640","imdb_id":"tt6369638","world_art_id":null,"type":"movie","add":"2020-12-15 17:26:06","orig_title":"Pro polosatogo slonyonka","year":"1971-01-01","translations":["Оригинальная дорожка"],"quality":"dvdrip","translation":"Оригинальная дорожка","update":"2020-12-17 09:28:23","iframe_src":"//7923.svetacdn.in/71tsRs29n5tZ/movie/46104"},{"id":46103,"title":"Повесть о первой любви","kp_id":"43190","imdb_id":"tt0314530","world_art_id":null,"type":"movie","add":"2020-12-15 17:24:01","orig_title":"Povest o pervoy lyubvi","year":"1957-07-28","translations":["Оригинальная дорожка"],"quality":"dvdrip","translation":"Оригинальная дорожка","update":"2020-12-17 09:29:00","iframe_src":"//7923.svetacdn.in/71tsRs29n5tZ/movie/46103"},{"id":46102,"title":"Последний бросок","kp_id":"679697","imdb_id":null,"world_art_id":null,"type":"movie","add":"2020-12-15 17:20:49","orig_title":"Последний бросок","year":"1966-01-01","translations":["Оригинальная дорожка"],"quality":"vhs","translation":"Оригинальная дорожка","update":"2020-12-17 09:29:54","iframe_src":"//7923.svetacdn.in/71tsRs29n5tZ/movie/46102"},{"id":46099,"title":"Пока стоят горы...","kp_id":"224139","imdb_id":"tt0385954","world_art_id":null,"type":"movie","add":"2020-12-15 17:15:08","orig_title":"Poka stoyat gory...","year":"1976-11-25","translations":["Оригинальная дорожка"],"quality":"sat","translation":"Оригинальная дорожка","update":"2020-12-17 09:30:47","iframe_src":"//7923.svetacdn.in/71tsRs29n5tZ/movie/46099"},{"id":46098,"title":"Погоня","kp_id":"502284","imdb_id":"tt1616514","world_art_id":null,"type":"movie","add":"2020-12-15 17:13:08","orig_title":"Pogonya","year":"1965-12-18","translations":["Оригинальная дорожка"],"quality":"sat","translation":"Оригинальная дорожка","update":"2020-12-17 09:31:48","iframe_src":"//7923.svetacdn.in/71tsRs29n5tZ/movie/46098"},{"id":46097,"title":"Победа","kp_id":"43024","imdb_id":"tt0030594","world_art_id":null,"type":"movie","add":"2020-12-15 17:10:55","orig_title":"Pobeda","year":"1938-07-15","translations":["Оригинальная дорожка"],"quality":"tv","translation":"Оригинальная дорожка","update":"2020-12-17 09:32:33","iframe_src":"//7923.svetacdn.in/71tsRs29n5tZ/movie/46097"},{"id":46096,"title":"Ниточка и котёнок","kp_id":"678799","imdb_id":null,"world_art_id":null,"type":"movie","add":"2020-12-15 17:09:10","orig_title":"Ниточка и котёнок","year":"1974-01-01","translations":["Оригинальная дорожка"],"quality":"dvdrip","translation":"Оригинальная дорожка","update":"2020-12-17 09:33:18","iframe_src":"//7923.svetacdn.in/71tsRs29n5tZ/movie/46096"},{"id":46095,"title":"Мелодии белой ночи","kp_id":"46602","imdb_id":"tt0174913","world_art_id":null,"type":"movie","add":"2020-12-15 17:05:39","orig_title":"Melodii beloy nochi","year":"1977-10-19","translations":["Оригинальная дорожка"],"quality":"dvdrip","translation":"Оригинальная дорожка","update":"2020-12-17 09:34:10","iframe_src":"//7923.svetacdn.in/71tsRs29n5tZ/movie/46095"},{"id":46093,"title":"Любовь и ненависть","kp_id":"45147","imdb_id":"tt0167270","world_art_id":null,"type":"movie","add":"2020-12-15 17:03:31","orig_title":"Lyubov i nenavist","year":"1935-03-03","translations":["Оригинальная дорожка"],"quality":"dvdrip","translation":"Оригинальная дорожка","update":"2020-12-17 09:34:48","iframe_src":"//7923.svetacdn.in/71tsRs29n5tZ/movie/46093"},{"id":46091,"title":"Контрольная по специальности","kp_id":"44905","imdb_id":"tt0237384","world_art_id":null,"type":"movie","add":"2020-12-15 17:01:35","orig_title":"Kontrolnaya po spetsialnosti","year":"1981-01-01","translations":["Оригинальная дорожка"],"quality":"iptv","translation":"Оригинальная дорожка","update":"2020-12-17 09:36:03","iframe_src":"//7923.svetacdn.in/71tsRs29n5tZ/movie/46091"},{"id":28016,"title":"Волчья стая","kp_id":"181542","imdb_id":"tt0140683","world_art_id":null,"type":"movie","add":"2019-06-19 19:51:09","orig_title":"Volchya staya","year":"1975-11-24","translations":["Оригинальная дорожка"],"quality":"hdtv","translation":"Оригинальная дорожка","update":"2020-12-17 09:24:38","iframe_src":"//7923.svetacdn.in/71tsRs29n5tZ/movie/28016"},{"id":3535,"title":"Спецназ 38","kp_id":"980825","imdb_id":"tt5536856","world_art_id":null,"type":"serial","add":"2018-11-19 11:31:45","orig_title":"38 Task Force","year":"2016-06-17","translations":["Любительский (двухголосый закадровый) (SoftBox)"],"seasons_count":1,"episodes_count":16,"episodes":16,"update":"2018-11-19 23:58:12","iframe_src":"//7923.svetacdn.in/71tsRs29n5tZ/tv-series/3535"},{"id":3523,"title":"Мисс Ма, богиня мести","kp_id":"1177526","imdb_id":"tt9064400","world_art_id":null,"type":"serial","add":"2018-11-18 20:19:03","orig_title":"Miseu Ma, boksuui yeosin","year":"2018-01-01","translations":["Любительский (двухголосый закадровый) (HighHopes)"],"seasons_count":1,"episodes_count":12,"episodes":12,"update":"2018-11-19 08:36:37","iframe_src":"//7923.svetacdn.in/71tsRs29n5tZ/tv-series/3523"},{"id":3522,"title":"Волны жизни","kp_id":"1199917","imdb_id":null,"world_art_id":null,"type":"serial","add":"2018-11-17 22:15:17","orig_title":"Kleun Cheewit","year":"2017-01-23","translations":["Любительский (одноголосый закадровый) (Julia Prosenuk)"],"seasons_count":1,"episodes_count":15,"episodes":15,"update":"2018-11-18 16:22:56","iframe_src":"//7923.svetacdn.in/71tsRs29n5tZ/tv-series/3522"},{"id":3512,"title":"Возвращайтесь, мистер","kp_id":"973052","imdb_id":"tt5497708","world_art_id":null,"type":"serial","add":"2018-11-16 09:10:44","orig_title":"Dolawayo Ajjeossi","year":"2016-02-24","translations":["Любительский (двухголосый закадровый) (SoftBox)"],"seasons_count":1,"episodes_count":16,"episodes":16,"update":"2018-11-19 08:30:42","iframe_src":"//7923.svetacdn.in/71tsRs29n5tZ/tv-series/3512"},{"id":3511,"title":"Ещё один счастливый конец","kp_id":"966753","imdb_id":"tt5445338","world_art_id":null,"type":"serial","add":"2018-11-16 09:09:16","orig_title":"Hanbeon deo haepiending","year":"2016-01-20","translations":["Любительский (двухголосый закадровый) (SoftBox)"],"seasons_count":1,"episodes_count":16,"episodes":16,"update":"2018-11-19 11:44:23","iframe_src":"//7923.svetacdn.in/71tsRs29n5tZ/tv-series/3511"},{"id":3507,"title":"Клуб бывших подружек","kp_id":"923502","imdb_id":"tt4686328","world_art_id":null,"type":"serial","add":"2018-11-16 08:07:04","orig_title":"Gooyeochinkeulreob","year":"2015-05-08","translations":["Любительский (двухголосый закадровый) (SoftBox)"],"seasons_count":1,"episodes_count":12,"episodes":12,"update":"2018-11-17 10:55:57","iframe_src":"//7923.svetacdn.in/71tsRs29n5tZ/tv-series/3507"},{"id":3506,"title":"Стража","kp_id":"1044399","imdb_id":"tt6824350","world_art_id":null,"type":"serial","add":"2018-11-15 20:45:27","orig_title":"Pasukkun","year":"2017-05-22","translations":["Любительский (двухголосый закадровый) (Храм Дорам ТВ)"],"seasons_count":1,"episodes_count":32,"episodes":32,"update":"2018-11-16 09:00:36","iframe_src":"//7923.svetacdn.in/71tsRs29n5tZ/tv-series/3506"},{"id":3505,"title":"Тысяча лет любви","kp_id":"1046884","imdb_id":null,"world_art_id":null,"type":"serial","add":"2018-11-14 23:12:17","orig_title":"Cheonnyeonjjae yeonaejoong","year":"2016-12-05","translations":["Любительский (одноголосый закадровый)"],"seasons_count":1,"episodes_count":10,"episodes":10,"update":"2018-11-15 08:45:49","iframe_src":"//7923.svetacdn.in/71tsRs29n5tZ/tv-series/3505"},{"id":3503,"title":"Давай, дерзай!","kp_id":"940683","imdb_id":"tt5094306","world_art_id":null,"type":"serial","add":"2018-11-14 09:02:16","orig_title":"Balchikhage gogo","year":"2015-10-05","translations":["Любительский (двухголосый закадровый) (SoftBox)"],"seasons_count":1,"episodes_count":12,"episodes":12,"update":"2018-11-16 11:30:58","iframe_src":"//7923.svetacdn.in/71tsRs29n5tZ/tv-series/3503"},{"id":3498,"title":"Королева сердец","kp_id":"839178","imdb_id":"tt3609456","world_art_id":null,"type":"serial","add":"2018-11-14 08:17:09","orig_title":"Reina de corazones","year":"2014-04-28","translations":["Профессиональный (многоголосый закадровый) (SET)"],"seasons_count":1,"episodes_count":138,"episodes":138,"update":"2018-11-15 22:03:03","iframe_src":"//7923.svetacdn.in/71tsRs29n5tZ/tv-series/3498"},{"id":3494,"title":"Трасса №1","kp_id":"577190","imdb_id":"tt2429772","world_art_id":null,"type":"serial","add":"2018-11-13 17:53:41","orig_title":"Rodeu neombeo won","year":"2010-06-23","translations":["Любительский (одноголосый закадровый)"],"seasons_count":1,"episodes_count":20,"episodes":20,"update":"2018-11-15 08:31:08","iframe_src":"//7923.svetacdn.in/71tsRs29n5tZ/tv-series/3494"},{"id":3489,"title":"Индийское лето","kp_id":"841145","imdb_id":"tt3706628","world_art_id":null,"type":"serial","add":"2018-11-13 14:10:01","orig_title":"Indian Summers","year":"2015-02-15","translations":["Профессиональный (многоголосый закадровый) (ShowJet)"],"seasons_count":1,"episodes_count":10,"episodes":10,"update":"2018-11-15 10:46:29","iframe_src":"//7923.svetacdn.in/71tsRs29n5tZ/tv-series/3489"},{"id":3487,"title":"Книга Гор и Морей","kp_id":null,"imdb_id":"tt6935870","world_art_id":null,"type":"serial","add":"2018-11-13 10:01:17","orig_title":"The Classic of Mountains and Seas","year":"2016-03-20","translations":["Любительский (двухголосый закадровый)"],"seasons_count":1,"episodes_count":42,"episodes":42,"update":"2018-11-16 09:00:16","iframe_src":"//7923.svetacdn.in/71tsRs29n5tZ/tv-series/3487"},{"id":3486,"title":"Ненастье","kp_id":"1111709","imdb_id":null,"world_art_id":null,"type":"serial","add":"2018-11-13 07:48:48","orig_title":"Ненастье","year":"2018-11-12","translations":["Оригинальная дорожка"],"seasons_count":1,"episodes_count":11,"episodes":11,"update":"2018-11-16 22:46:02","iframe_src":"//7923.svetacdn.in/71tsRs29n5tZ/tv-series/3486"},{"id":3419,"title":"Нелла, отважная принцесса","kp_id":"1044270","imdb_id":"tt6415656","world_art_id":null,"type":"serial","add":"2018-10-31 10:56:04","orig_title":"Nella the Princess Knight","year":"2017-02-08","translations":["Полное дублирование"],"seasons_count":1,"episodes_count":13,"episodes":13,"update":"2018-11-19 11:56:21","iframe_src":"//7923.svetacdn.in/71tsRs29n5tZ/tv-series/3419"},{"id":3410,"title":"Мажор 3","kp_id":"1040559","imdb_id":null,"world_art_id":null,"type":"serial","add":"2018-10-29 10:50:48","orig_title":"Мажор 3","year":"2018-10-29","translations":["Оригинальная дорожка"],"seasons_count":1,"episodes_count":16,"episodes":16,"update":"2018-11-16 05:15:04","iframe_src":"//7923.svetacdn.in/71tsRs29n5tZ/tv-series/3410"},{"id":3380,"title":"Грешники","kp_id":"732547","imdb_id":"tt2582590","world_art_id":null,"type":"serial","add":"2018-10-24 16:52:59","orig_title":"Vicious","year":"2013-04-29","translations":["Профессиональный (многоголосый закадровый) (GreenРай Studio)"],"seasons_count":2,"episodes_count":14,"episodes":7,"update":"2018-11-16 08:50:36","iframe_src":"//7923.svetacdn.in/71tsRs29n5tZ/tv-series/3380"},{"id":3134,"title":"Суперособняк","kp_id":"919281","imdb_id":"tt4843640","world_art_id":null,"type":"serial","add":"2018-09-06 08:57:37","orig_title":"SuperMansion","year":"2015-10-08","translations":["Профессиональный (многоголосый закадровый) (2x2)","Любительский (двухголосый закадровый) (KinoGolos)"],"seasons_count":3,"episodes_count":38,"episodes":13,"update":"2018-11-17 11:24:23","iframe_src":"//7923.svetacdn.in/71tsRs29n5tZ/tv-series/3134"},{"id":2722,"title":"Даллас и Робо","kp_id":"1113090","imdb_id":"tt7896392","world_art_id":null,"type":"serial","add":"2018-06-03 11:05:40","orig_title":"Dallas & Robo","year":"2018-05-30","translations":["Любительский (двухголосый закадровый) (NewStation)"],"seasons_count":1,"episodes_count":8,"episodes":8,"update":"2018-11-19 10:24:51","iframe_src":"//7923.svetacdn.in/71tsRs29n5tZ/tv-series/2722"},{"id":353,"title":"Последний корабль","kp_id":"681656","imdb_id":"tt2402207","world_art_id":null,"type":"serial","add":"2016-08-22 15:43:50","orig_title":"The Last Ship","year":"2014-06-22","translations":["Профессиональный (многоголосый закадровый) (LostFilm)"],"seasons_count":5,"episodes_count":56,"episodes":10,"update":"2018-11-15 13:05:06","iframe_src":"//7923.svetacdn.in/71tsRs29n5tZ/tv-series/353"}],"current_page":420,"first_page_url":"https://videocdn.tv/api/short?limit=100&api_token=EnbO9h8pv1VyjbCJhg0WM9nG259n7mtz&cache3420=3420&page=1","from":41901,"last_page":642,"last_page_url":"https://videocdn.tv/api/short?limit=100&api_token=EnbO9h8pv1VyjbCJhg0WM9nG259n7mtz&cache3420=3420&page=642","next_page_url":"https://videocdn.tv/api/short?limit=100&api_token=EnbO9h8pv1VyjbCJhg0WM9nG259n7mtz&cache3420=3420&page=421","path":"https://videocdn.tv/api/short","per_page":100,"prev_page_url":"https://videocdn.tv/api/short?limit=100&api_token=EnbO9h8pv1VyjbCJhg0WM9nG259n7mtz&cache3420=3420&page=419","to":41940,"total":64150}