{"result":true,"data":[{"id":33158,"title":"Залёт не туда","kp_id":"1214444","imdb_id":"tt9178986","world_art_id":null,"type":"movie","add":"2019-11-16 10:46:00","orig_title":"Wrong Night Stand","year":"2018-12-06","translations":["Любительский (многоголосый закадровый) (Синема УС)"],"quality":"webdl","translation":"Любительский (многоголосый закадровый) (Синема УС)","update":"2019-11-16 14:14:40","iframe_src":"//2413.svetacdn.in/71tsRs29n5tZ/movie/33158"},{"id":33154,"title":"Если что-то случится","kp_id":"1085979","imdb_id":"tt6890656","world_art_id":null,"type":"movie","add":"2019-11-16 10:40:51","orig_title":"If Something Happens","year":"2018-05-12","translations":["Любительский (многоголосый закадровый) (Синема УС)"],"quality":"webdl","translation":"Любительский (многоголосый закадровый) (Синема УС)","update":"2019-11-16 14:16:42","iframe_src":"//2413.svetacdn.in/71tsRs29n5tZ/movie/33154"},{"id":33153,"title":"Убежище","kp_id":"997000","imdb_id":"tt5754850","world_art_id":null,"type":"movie","add":"2019-11-16 10:39:39","orig_title":"Cubby","year":"2019-04-25","translations":["Любительский (многоголосый закадровый) (Синема УС)"],"quality":"webdl","translation":"Любительский (многоголосый закадровый) (Синема УС)","update":"2019-11-16 12:27:03","iframe_src":"//2413.svetacdn.in/71tsRs29n5tZ/movie/33153"},{"id":33146,"title":"Кредо убийцы: Угли","kp_id":"648558","imdb_id":"tt2112900","world_art_id":null,"type":"movie","add":"2019-11-16 06:42:38","orig_title":"Assassin's Creed: Embers","year":"2011-11-15","translations":["Полное дублирование"],"quality":"bd","translation":"Полное дублирование","update":"2019-11-16 07:13:45","iframe_src":"//2413.svetacdn.in/71tsRs29n5tZ/movie/33146"},{"id":33145,"title":"Кредо убийцы","kp_id":"496782","imdb_id":"tt1587390","world_art_id":null,"type":"movie","add":"2019-11-15 21:04:48","orig_title":"Assassin's Creed: Lineage","year":"2009-10-26","translations":["Профессиональный (многоголосый закадровый)"],"quality":"bd","translation":"Профессиональный (многоголосый закадровый)","update":"2019-11-16 06:53:11","iframe_src":"//2413.svetacdn.in/71tsRs29n5tZ/movie/33145"},{"id":33142,"title":"Рождественская охота за сокровищами","kp_id":"1291886","imdb_id":"tt10768278","world_art_id":null,"type":"movie","add":"2019-11-15 20:18:22","orig_title":"Christmas Scavenger Hunt","year":"2019-11-03","translations":["Любительский (многоголосый закадровый) (Синема УС)"],"quality":"hdtv","translation":"Любительский (многоголосый закадровый) (Синема УС)","update":"2019-11-16 06:55:19","iframe_src":"//2413.svetacdn.in/71tsRs29n5tZ/movie/33142"},{"id":33141,"title":"Эминенс Хил","kp_id":"1200819","imdb_id":"tt9135272","world_art_id":null,"type":"movie","add":"2019-11-15 20:15:53","orig_title":"Eminence Hill","year":"2019-11-05","translations":["Любительский (многоголосый закадровый) (AlphaProject)"],"quality":"webdl","translation":"Любительский (многоголосый закадровый) (AlphaProject)","update":"2019-11-16 06:55:49","iframe_src":"//2413.svetacdn.in/71tsRs29n5tZ/movie/33141"},{"id":33138,"title":"Альцест на велосипеде","kp_id":"687797","imdb_id":"tt2207050","world_art_id":null,"type":"movie","add":"2019-11-15 20:08:30","orig_title":"Alceste à bicyclette","year":"2013-01-16","translations":["Любительский (двухголосый закадровый) (Mallorn Studio)"],"quality":"webdl","translation":"Любительский (двухголосый закадровый) (Mallorn Studio)","update":"2019-11-16 06:57:18","iframe_src":"//2413.svetacdn.in/71tsRs29n5tZ/movie/33138"},{"id":33134,"title":"Рождество","kp_id":"276389","imdb_id":"tt0937375","world_art_id":null,"type":"movie","add":"2019-11-15 11:37:04","orig_title":"This Christmas","year":"2007-10-25","translations":["Профессиональный (многоголосый закадровый)"],"quality":"bd","translation":"Профессиональный (многоголосый закадровый)","update":"2019-11-16 06:50:39","iframe_src":"//2413.svetacdn.in/71tsRs29n5tZ/movie/33134"},{"id":33133,"title":"Кинотеатр Пени Ужасной","kp_id":"695311","imdb_id":"tt2317484","world_art_id":null,"type":"movie","add":"2019-11-15 11:34:34","orig_title":"The Penny Dreadful Picture Show","year":"2013-10-08","translations":["Любительский (двухголосый закадровый) (DeadSno & den904)"],"quality":"dvdrip","translation":"Любительский (двухголосый закадровый) (DeadSno & den904)","update":"2019-11-16 06:46:38","iframe_src":"//2413.svetacdn.in/71tsRs29n5tZ/movie/33133"},{"id":33114,"title":"Операция «Феникс»","kp_id":"84056","imdb_id":"tt0407708","world_art_id":null,"type":"movie","add":"2019-11-14 22:07:37","orig_title":"Dai lo oi mei lai","year":"2004-04-08","translations":["Профессиональный (многоголосый закадровый)"],"quality":"dvdrip","translation":"Профессиональный (многоголосый закадровый)","update":"2019-11-15 11:35:33","iframe_src":"//2413.svetacdn.in/71tsRs29n5tZ/movie/33114"},{"id":33113,"title":"Тайный агент","kp_id":"23594","imdb_id":"tt0113153","world_art_id":null,"type":"movie","add":"2019-11-14 22:02:55","orig_title":"Kap ba ba dik sung","year":"1995-02-08","translations":["Профессиональный (многоголосый закадровый)"],"quality":"bd","translation":"Профессиональный (многоголосый закадровый)","update":"2019-11-15 11:34:39","iframe_src":"//2413.svetacdn.in/71tsRs29n5tZ/movie/33113"},{"id":33112,"title":"Пучина","kp_id":"572462","imdb_id":"tt1764275","world_art_id":null,"type":"movie","add":"2019-11-14 21:59:45","orig_title":"Djúpið","year":"2012-09-07","translations":["Любительский (двухголосый закадровый) (DeadSno & den904)"],"quality":"bd","translation":"Любительский (двухголосый закадровый) (DeadSno & den904)","update":"2019-11-15 11:29:40","iframe_src":"//2413.svetacdn.in/71tsRs29n5tZ/movie/33112"},{"id":33111,"title":"Великолепные телохранители","kp_id":"24727","imdb_id":"tt0077541","world_art_id":null,"type":"movie","add":"2019-11-14 21:52:49","orig_title":"Fei du juan yun shan","year":"1978-04-27","translations":["Профессиональный (многоголосый закадровый)"],"quality":"bd","translation":"Профессиональный (многоголосый закадровый)","update":"2019-11-15 11:25:47","iframe_src":"//2413.svetacdn.in/71tsRs29n5tZ/movie/33111"},{"id":33110,"title":"Дьявольский остров","kp_id":"18010","imdb_id":"tt0329162","world_art_id":null,"type":"movie","add":"2019-11-14 19:48:07","orig_title":"Devil's Pond","year":"2003-05-16","translations":["Профессиональный (многоголосый закадровый)"],"quality":"dvdrip","translation":"Профессиональный (многоголосый закадровый)","update":"2019-11-15 11:43:51","iframe_src":"//2413.svetacdn.in/71tsRs29n5tZ/movie/33110"},{"id":33108,"title":"Побег из джунглей","kp_id":"1209891","imdb_id":"tt10250750","world_art_id":null,"type":"movie","add":"2019-11-14 19:23:46","orig_title":"Xiong chu mo: Yuan shi shi dai","year":"2019-02-05","translations":["Полное дублирование"],"quality":"webdl","translation":"Полное дублирование","update":"2019-11-15 11:46:33","iframe_src":"//2413.svetacdn.in/71tsRs29n5tZ/movie/33108"},{"id":33107,"title":"В бегах","kp_id":"680607","imdb_id":"tt2388637","world_art_id":null,"type":"movie","add":"2019-11-14 18:57:37","orig_title":"Ain't Them Bodies Saints","year":"2013-01-20","translations":["Профессиональный (многоголосый закадровый)"],"quality":"bd","translation":"Профессиональный (многоголосый закадровый)","update":"2019-11-15 11:49:46","iframe_src":"//2413.svetacdn.in/71tsRs29n5tZ/movie/33107"},{"id":33065,"title":"Детонатор","kp_id":"22023","imdb_id":"tt0345461","world_art_id":null,"type":"movie","add":"2019-11-13 11:36:59","orig_title":"The Detonator","year":"2006-04-25","translations":["Профессиональный (многоголосый закадровый)"],"quality":"hdtv","translation":"Профессиональный (многоголосый закадровый)","update":"2019-11-15 20:28:37","iframe_src":"//2413.svetacdn.in/71tsRs29n5tZ/movie/33065"},{"id":31700,"title":"Леонардо да Винчи. Неизведанные миры","kp_id":"1269599","imdb_id":"tt10270592","world_art_id":null,"type":"movie","add":"2019-10-10 20:08:53","orig_title":"Io, Leonardo","year":"2019-10-02","translations":["Профессиональный (многоголосый закадровый)"],"quality":"webdl","translation":"Профессиональный (многоголосый закадровый)","update":"2019-11-16 12:25:50","iframe_src":"//2413.svetacdn.in/71tsRs29n5tZ/movie/31700"},{"id":29509,"title":"Синяя птица в моём сердце","kp_id":"1053222","imdb_id":"tt6921496","world_art_id":null,"type":"movie","add":"2019-07-30 05:28:37","orig_title":"A Bluebird in My Heart","year":"2018-03-10","translations":["Любительский (одноголосый закадровый) (datynet | Агапов Антон)","Любительский (многоголосый закадровый) (@MUZOBOZ@)"],"quality":"webdl","translation":"Любительский (одноголосый закадровый) (datynet | Агапов Антон)","update":"2019-11-16 12:31:56","iframe_src":"//2413.svetacdn.in/71tsRs29n5tZ/movie/29509"}],"current_page":1571,"first_page_url":"https://videocdn.tv/api/short?limit=100&api_token=EnbO9h8pv1VyjbCJhg0WM9nG259n7mtz&cache31571=31571&page=1","from":157001,"last_page":721,"last_page_url":"https://videocdn.tv/api/short?limit=100&api_token=EnbO9h8pv1VyjbCJhg0WM9nG259n7mtz&cache31571=31571&page=721","next_page_url":null,"path":"https://videocdn.tv/api/short","per_page":100,"prev_page_url":"https://videocdn.tv/api/short?limit=100&api_token=EnbO9h8pv1VyjbCJhg0WM9nG259n7mtz&cache31571=31571&page=1570","to":157020,"total":72021}