{"result":true,"data":[{"id":41548,"title":"Джордж Лопес: мы сделаем это для половины","kp_id":null,"imdb_id":"tt12358794","world_art_id":null,"type":"movie","add":"2020-07-02 04:16:45","orig_title":"George Lopez: We'll Do It for Half","year":"2020-06-30","translations":["Любительский (многоголосый закадровый) (Синема УС)"],"quality":"webdl","translation":"Любительский (многоголосый закадровый) (Синема УС)","update":"2020-07-02 05:37:35","iframe_src":"//8209.svetacdn.in/71tsRs29n5tZ/movie/41548"},{"id":41545,"title":"Волчья стая","kp_id":"1303297","imdb_id":"tt10731610","world_art_id":null,"type":"movie","add":"2020-07-02 04:13:26","orig_title":"Lang qun xing dong","year":"2019-04-16","translations":["Любительский (двухголосый закадровый) (Колобок)"],"quality":"webdl","translation":"Любительский (двухголосый закадровый) (Колобок)","update":"2020-07-02 05:32:03","iframe_src":"//8209.svetacdn.in/71tsRs29n5tZ/movie/41545"},{"id":41537,"title":"Пилот","kp_id":"1264197","imdb_id":"tt10288320","world_art_id":null,"type":"movie","add":"2020-07-01 19:59:20","orig_title":"Modelar","year":"2020-01-10","translations":["Любительский (многоголосый закадровый) (AlphaProject)"],"quality":"webdl","translation":"Любительский (многоголосый закадровый) (AlphaProject)","update":"2020-07-02 03:19:10","iframe_src":"//8209.svetacdn.in/71tsRs29n5tZ/movie/41537"},{"id":41535,"title":"Ноль один","kp_id":"1334883","imdb_id":"tt11493232","world_art_id":null,"type":"movie","add":"2020-07-01 19:53:08","orig_title":"Sifir Bir","year":"2020-01-10","translations":["Любительский (многоголосый закадровый) (Синема УС)"],"quality":"webdl","translation":"Любительский (многоголосый закадровый) (Синема УС)","update":"2020-07-02 03:18:19","iframe_src":"//8209.svetacdn.in/71tsRs29n5tZ/movie/41535"},{"id":41533,"title":"Мост искусств","kp_id":"95049","imdb_id":"tt0410466","world_art_id":null,"type":"movie","add":"2020-07-01 13:11:28","orig_title":"Le pont des Arts","year":"2004-10-06","translations":["Авторский (одноголосый закадровый) (Дасевич Александр)"],"quality":"dvdrip","translation":"Авторский (одноголосый закадровый) (Дасевич Александр)","update":"2020-07-01 20:20:08","iframe_src":"//8209.svetacdn.in/71tsRs29n5tZ/movie/41533"},{"id":41532,"title":"Выборы","kp_id":"1321825","imdb_id":"tt11290698","world_art_id":null,"type":"movie","add":"2020-07-01 13:09:07","orig_title":"Lection","year":"2019-11-25","translations":["Любительский (многоголосый закадровый) (Синема УС)"],"quality":"webdl","translation":"Любительский (многоголосый закадровый) (Синема УС)","update":"2020-07-01 20:19:44","iframe_src":"//8209.svetacdn.in/71tsRs29n5tZ/movie/41532"},{"id":41530,"title":"Американка","kp_id":"1202030","imdb_id":"tt9109492","world_art_id":null,"type":"movie","add":"2020-07-01 13:02:17","orig_title":"American Woman","year":"2019-04-28","translations":["Любительский (многоголосый закадровый) (@MUZOBOZ@)"],"quality":"webdl","translation":"Любительский (многоголосый закадровый) (@MUZOBOZ@)","update":"2020-07-01 20:18:12","iframe_src":"//8209.svetacdn.in/71tsRs29n5tZ/movie/41530"},{"id":41529,"title":"Пути назад нет","kp_id":"1259663","imdb_id":"tt8354140","world_art_id":null,"type":"movie","add":"2020-07-01 13:00:12","orig_title":"No Turning Back","year":"2019-04-12","translations":["Любительский (многоголосый закадровый) (Синема УС)"],"quality":"webdl","translation":"Любительский (многоголосый закадровый) (Синема УС)","update":"2020-07-01 20:17:47","iframe_src":"//8209.svetacdn.in/71tsRs29n5tZ/movie/41529"},{"id":41528,"title":"Дом, милый дом","kp_id":null,"imdb_id":"tt10882850","world_art_id":null,"type":"movie","add":"2020-07-01 12:57:47","orig_title":"Bac Kim Thang","year":"2019-10-25","translations":["Любительский (многоголосый закадровый) (Синема УС)"],"quality":"webdl","translation":"Любительский (многоголосый закадровый) (Синема УС)","update":"2020-07-01 20:17:12","iframe_src":"//8209.svetacdn.in/71tsRs29n5tZ/movie/41528"},{"id":41523,"title":"Оперение","kp_id":"1338236","imdb_id":null,"world_art_id":null,"type":"movie","add":"2020-07-01 07:51:57","orig_title":"Opereniye","year":"2020-01-16","translations":["Оригинальная дорожка"],"quality":"webdl","translation":"Оригинальная дорожка","update":"2020-07-01 17:06:49","iframe_src":"//8209.svetacdn.in/71tsRs29n5tZ/movie/41523"},{"id":41522,"title":"Аду","kp_id":null,"imdb_id":"tt9616700","world_art_id":null,"type":"movie","add":"2020-07-01 07:38:29","orig_title":"Adú","year":"2020-01-31","translations":["Любительский (многоголосый закадровый) (@MUZOBOZ@)"],"quality":"webdl","translation":"Любительский (многоголосый закадровый) (@MUZOBOZ@)","update":"2020-07-01 13:47:38","iframe_src":"//8209.svetacdn.in/71tsRs29n5tZ/movie/41522"},{"id":41506,"title":"Безумная миссия 3: Наш человек с Бонд-стрит","kp_id":"31929","imdb_id":"tt0088457","world_art_id":null,"type":"movie","add":"2020-06-30 20:27:57","orig_title":"Zui jia pai dang 3: Nu huang mi ling","year":"1984-01-26","translations":["Любительский (одноголосый закадровый) (Никитин)"],"quality":"bd","translation":"Любительский (одноголосый закадровый) (Никитин)","update":"2020-07-02 05:57:38","iframe_src":"//8209.svetacdn.in/71tsRs29n5tZ/movie/41506"},{"id":41505,"title":"Зов джунглей","kp_id":"1371128","imdb_id":"tt12139700","world_art_id":null,"type":"movie","add":"2020-06-30 15:43:03","orig_title":"Jungle Beat: The Movie","year":"2020-06-15","translations":["Original (English)","Любительский (многоголосый закадровый) (@MUZOBOZ@)"],"quality":"webdl","translation":"Original (English)","update":"2020-07-01 20:15:59","iframe_src":"//8209.svetacdn.in/71tsRs29n5tZ/movie/41505"},{"id":41482,"title":"Убийство в тени","kp_id":"493138","imdb_id":"tt1483004","world_art_id":null,"type":"movie","add":"2020-06-29 21:27:12","orig_title":"Geu-rim-ja sal-in","year":"2009-04-02","translations":["Любительский (одноголосый закадровый) (den904)"],"quality":"webdl","translation":"Любительский (одноголосый закадровый) (den904)","update":"2020-07-02 05:54:08","iframe_src":"//8209.svetacdn.in/71tsRs29n5tZ/movie/41482"},{"id":41481,"title":"17 ниндзя. Часть 2","kp_id":"664102","imdb_id":"tt9466096","world_art_id":null,"type":"movie","add":"2020-06-29 21:24:40","orig_title":"Ju nana-ri no ninja dai kessen","year":"1966-02-02","translations":["Авторский (одноголосый закадровый) (Кузнецов Сергей)"],"quality":"hdtv","translation":"Авторский (одноголосый закадровый) (Кузнецов Сергей)","update":"2020-07-02 05:53:07","iframe_src":"//8209.svetacdn.in/71tsRs29n5tZ/movie/41481"},{"id":41480,"title":"Королевский бродяга 2","kp_id":"59968","imdb_id":"tt0104771","world_art_id":null,"type":"movie","add":"2020-06-29 21:18:58","orig_title":"Luk ting kei II: San lung gau","year":"1992-09-24","translations":["Авторский (одноголосый закадровый) (Кузнецов Сергей)"],"quality":"bd","translation":"Авторский (одноголосый закадровый) (Кузнецов Сергей)","update":"2020-07-02 05:50:25","iframe_src":"//8209.svetacdn.in/71tsRs29n5tZ/movie/41480"},{"id":41479,"title":"Королевский бродяга","kp_id":"59967","imdb_id":"tt0104770","world_art_id":null,"type":"movie","add":"2020-06-29 21:16:47","orig_title":"Luk ting kei","year":"1992-07-30","translations":["Авторский (одноголосый закадровый) (Кузнецов Сергей)"],"quality":"bd","translation":"Авторский (одноголосый закадровый) (Кузнецов Сергей)","update":"2020-07-02 05:49:31","iframe_src":"//8209.svetacdn.in/71tsRs29n5tZ/movie/41479"},{"id":36851,"title":"Каратистка","kp_id":"569905","imdb_id":"tt1726661","world_art_id":null,"type":"movie","add":"2020-02-24 17:55:38","orig_title":"K.G.","year":"2011-02-05","translations":["Любительский (одноголосый закадровый) (Береговых Виктор | Jet)","Любительский (одноголосый закадровый) (Береговых Виктор | Jet)"],"quality":"dvdrip","translation":"Любительский (одноголосый закадровый) (Береговых Виктор | Jet)","update":"2020-07-02 05:51:30","iframe_src":"//8209.svetacdn.in/71tsRs29n5tZ/movie/36851"},{"id":32948,"title":"Кулак легенды","kp_id":"731990","imdb_id":"tt2828840","world_art_id":null,"type":"movie","add":"2019-11-11 11:47:30","orig_title":"Jeonseolui joomeok","year":"2013-04-10","translations":["Любительский (одноголосый закадровый) (den904)","Любительский (одноголосый закадровый) (den904)"],"quality":"hdrip","translation":"Любительский (одноголосый закадровый) (den904)","update":"2020-07-02 05:48:22","iframe_src":"//8209.svetacdn.in/71tsRs29n5tZ/movie/32948"},{"id":32360,"title":"Тихая дуэль","kp_id":"161213","imdb_id":"tt0041870","world_art_id":null,"type":"movie","add":"2019-10-26 09:43:39","orig_title":"Shizukanaru kettô","year":"1949-03-13","translations":["Профессиональный (многоголосый закадровый)","Профессиональный (многоголосый закадровый) (СВ-Дубль)"],"quality":"dvdrip","translation":"Профессиональный (многоголосый закадровый)","update":"2020-07-02 05:55:46","iframe_src":"//8209.svetacdn.in/71tsRs29n5tZ/movie/32360"}],"current_page":778,"first_page_url":"https://videocdn.tv/api/short?limit=100&api_token=EnbO9h8pv1VyjbCJhg0WM9nG259n7mtz&cache3778=3778&page=1","from":77701,"last_page":663,"last_page_url":"https://videocdn.tv/api/short?limit=100&api_token=EnbO9h8pv1VyjbCJhg0WM9nG259n7mtz&cache3778=3778&page=663","next_page_url":null,"path":"https://videocdn.tv/api/short","per_page":100,"prev_page_url":"https://videocdn.tv/api/short?limit=100&api_token=EnbO9h8pv1VyjbCJhg0WM9nG259n7mtz&cache3778=3778&page=777","to":77720,"total":66262}