{"result":true,"data":[{"id":42962,"title":"Джимми","kp_id":"979738","imdb_id":"tt5698834","world_art_id":null,"type":"movie","add":"2020-08-31 03:52:30","orig_title":"Jimmie","year":"2018-01-24","translations":["Любительский (многоголосый закадровый) (Синема УС)"],"quality":"webdl","translation":"Любительский (многоголосый закадровый) (Синема УС)","update":"2020-08-31 05:20:41","iframe_src":"//7720.svetacdn.in/si4jsFRrtgrT/movie/42962"},{"id":42961,"title":"Случайные кадры","kp_id":"1097843","imdb_id":"tt7582778","world_art_id":null,"type":"movie","add":"2020-08-31 03:51:53","orig_title":"Les scènes fortuites","year":"2018-01-26","translations":["Любительский (многоголосый закадровый) (Синема УС)"],"quality":"webdl","translation":"Любительский (многоголосый закадровый) (Синема УС)","update":"2020-08-31 05:32:13","iframe_src":"//7720.svetacdn.in/si4jsFRrtgrT/movie/42961"},{"id":42957,"title":"Святоша","kp_id":null,"imdb_id":"tt9189572","world_art_id":null,"type":"movie","add":"2020-08-31 03:49:14","orig_title":"Santo Cachón","year":"2018-01-01","translations":["Любительский (многоголосый закадровый) (Синема УС)"],"quality":"webdl","translation":"Любительский (многоголосый закадровый) (Синема УС)","update":"2020-08-31 05:45:54","iframe_src":"//7720.svetacdn.in/si4jsFRrtgrT/movie/42957"},{"id":42956,"title":"Эвакуатор","kp_id":"1301700","imdb_id":null,"world_art_id":null,"type":"movie","add":"2020-08-31 03:48:03","orig_title":"Rekka","year":"2019-10-11","translations":["Любительский (двухголосый закадровый) (Колобок)"],"quality":"webdl","translation":"Любительский (двухголосый закадровый) (Колобок)","update":"2020-08-31 05:06:46","iframe_src":"//7720.svetacdn.in/si4jsFRrtgrT/movie/42956"},{"id":42917,"title":"Черри возвращается","kp_id":"1022656","imdb_id":"tt6464252","world_art_id":null,"type":"movie","add":"2020-08-30 03:45:43","orig_title":"Na nin ha tin nei qie liu na lei","year":"2016-12-09","translations":["Любительский (двухголосый закадровый) (Колобок)"],"quality":"webdl","translation":"Любительский (двухголосый закадровый) (Колобок)","update":"2020-08-30 16:02:48","iframe_src":"//7720.svetacdn.in/si4jsFRrtgrT/movie/42917"},{"id":42916,"title":"Приглашение","kp_id":null,"imdb_id":"tt11152286","world_art_id":null,"type":"movie","add":"2020-08-30 03:35:01","orig_title":"Nimtoh","year":"2019-10-20","translations":["Любительский (многоголосый закадровый) (Синема УС)"],"quality":"webdl","translation":"Любительский (многоголосый закадровый) (Синема УС)","update":"2020-08-30 09:00:25","iframe_src":"//7720.svetacdn.in/si4jsFRrtgrT/movie/42916"},{"id":42915,"title":"Стрейт-эдж вечеринка","kp_id":"1105354","imdb_id":"tt7608380","world_art_id":null,"type":"movie","add":"2020-08-29 17:07:02","orig_title":"Straight Edge Kegger","year":"2019-03-16","translations":["Любительский (многоголосый закадровый) (Синема УС)"],"quality":"webdl","translation":"Любительский (многоголосый закадровый) (Синема УС)","update":"2020-08-30 09:13:23","iframe_src":"//7720.svetacdn.in/si4jsFRrtgrT/movie/42915"},{"id":42914,"title":"Брок: на пределе","kp_id":"1347266","imdb_id":"tt12525356","world_art_id":null,"type":"movie","add":"2020-08-29 15:29:12","orig_title":"Brock: Over the Top","year":"2020-01-01","translations":["Любительский (многоголосый закадровый) (Синема УС)"],"quality":"webdl","translation":"Любительский (многоголосый закадровый) (Синема УС)","update":"2020-08-30 03:26:32","iframe_src":"//7720.svetacdn.in/si4jsFRrtgrT/movie/42914"},{"id":42913,"title":"Клео","kp_id":"993440","imdb_id":"tt5884142","world_art_id":null,"type":"movie","add":"2020-08-29 15:25:03","orig_title":"Cleo","year":"2019-02-08","translations":["Любительский (многоголосый закадровый) (Синема УС)"],"quality":"webdl","translation":"Любительский (многоголосый закадровый) (Синема УС)","update":"2020-08-30 03:28:25","iframe_src":"//7720.svetacdn.in/si4jsFRrtgrT/movie/42913"},{"id":42912,"title":"Коммандос-ниндзя","kp_id":"1223868","imdb_id":"tt8900082","world_art_id":null,"type":"movie","add":"2020-08-29 15:13:20","orig_title":"Commando Ninja","year":"2018-11-18","translations":["Любительский (многоголосый закадровый) (Синема УС)"],"quality":"webdl","translation":"Любительский (многоголосый закадровый) (Синема УС)","update":"2020-08-30 03:42:40","iframe_src":"//7720.svetacdn.in/si4jsFRrtgrT/movie/42912"},{"id":42911,"title":"Погибшие на побережье","kp_id":"1267060","imdb_id":"tt10355542","world_art_id":null,"type":"movie","add":"2020-08-29 15:10:20","orig_title":"Die Toten am Meer","year":"2020-04-25","translations":["Любительский (многоголосый закадровый) (Синема УС)"],"quality":"webdl","translation":"Любительский (многоголосый закадровый) (Синема УС)","update":"2020-08-30 03:41:50","iframe_src":"//7720.svetacdn.in/si4jsFRrtgrT/movie/42911"},{"id":42909,"title":"Счастливое лицо","kp_id":null,"imdb_id":"tt6470028","world_art_id":null,"type":"movie","add":"2020-08-29 14:53:45","orig_title":"Happy Face","year":"2018-10-06","translations":["Любительский (многоголосый закадровый) (Синема УС)"],"quality":"webdl","translation":"Любительский (многоголосый закадровый) (Синема УС)","update":"2020-08-30 03:25:22","iframe_src":"//7720.svetacdn.in/si4jsFRrtgrT/movie/42909"},{"id":42908,"title":"Смех","kp_id":"1133548","imdb_id":"tt5649086","world_art_id":null,"type":"movie","add":"2020-08-29 14:49:17","orig_title":"Le Rire","year":"2020-01-31","translations":["Любительский (многоголосый закадровый) (Синема УС)"],"quality":"webdl","translation":"Любительский (многоголосый закадровый) (Синема УС)","update":"2020-08-30 03:39:16","iframe_src":"//7720.svetacdn.in/si4jsFRrtgrT/movie/42908"},{"id":42907,"title":"Портреты Андреа Палмер","kp_id":"1183852","imdb_id":"tt8885194","world_art_id":null,"type":"movie","add":"2020-08-29 14:45:50","orig_title":"Portraits of Andrea Palmer","year":"2018-10-19","translations":["Любительский (многоголосый закадровый) (Синема УС)"],"quality":"webdl","translation":"Любительский (многоголосый закадровый) (Синема УС)","update":"2020-08-30 03:38:42","iframe_src":"//7720.svetacdn.in/si4jsFRrtgrT/movie/42907"},{"id":42906,"title":"Заразный дом","kp_id":"978259","imdb_id":"tt5695936","world_art_id":null,"type":"movie","add":"2020-08-29 14:40:13","orig_title":"Sickhouse","year":"2016-06-01","translations":["Любительский (многоголосый закадровый) (Синема УС)"],"quality":"webdl","translation":"Любительский (многоголосый закадровый) (Синема УС)","update":"2020-08-30 03:37:42","iframe_src":"//7720.svetacdn.in/si4jsFRrtgrT/movie/42906"},{"id":42905,"title":"Томас и его друзья: Большая гонка","kp_id":"973530","imdb_id":"tt5563932","world_art_id":null,"type":"movie","add":"2020-08-29 08:06:16","orig_title":"Thomas & Friends: The Great Race","year":"2016-05-21","translations":["Полное дублирование"],"quality":"dvb","translation":"Полное дублирование","update":"2020-08-30 11:59:01","iframe_src":"//7720.svetacdn.in/si4jsFRrtgrT/movie/42905"},{"id":42904,"title":"Перед тем, как мы взорвёмся","kp_id":"1240731","imdb_id":"tt9825006","world_art_id":null,"type":"movie","add":"2020-08-29 06:24:30","orig_title":"Avant qu'on explose","year":"2019-02-28","translations":["Любительский (многоголосый закадровый) (Синема УС)"],"quality":"webdl","translation":"Любительский (многоголосый закадровый) (Синема УС)","update":"2020-08-29 16:57:35","iframe_src":"//7720.svetacdn.in/si4jsFRrtgrT/movie/42904"},{"id":42902,"title":"Человек без лица","kp_id":"1136744","imdb_id":"tt8228290","world_art_id":null,"type":"movie","add":"2020-08-29 06:22:23","orig_title":"The Faceless Man","year":"2019-10-12","translations":["Любительский (многоголосый закадровый) (Синема УС)"],"quality":"webdl","translation":"Любительский (многоголосый закадровый) (Синема УС)","update":"2020-08-29 16:56:43","iframe_src":"//7720.svetacdn.in/si4jsFRrtgrT/movie/42902"},{"id":42901,"title":"Женская доля","kp_id":"1369149","imdb_id":"tt12135398","world_art_id":null,"type":"movie","add":"2020-08-29 06:21:11","orig_title":"Wie die Frauen so ticken","year":"2020-02-26","translations":["Любительский (многоголосый закадровый) (Синема УС)"],"quality":"webdl","translation":"Любительский (многоголосый закадровый) (Синема УС)","update":"2020-08-29 16:56:08","iframe_src":"//7720.svetacdn.in/si4jsFRrtgrT/movie/42901"},{"id":42712,"title":"Русалка в Париже","kp_id":"1215728","imdb_id":"tt9209312","world_art_id":null,"type":"movie","add":"2020-08-24 04:13:21","orig_title":"Une sirène à Paris","year":"2020-03-04","translations":["Любительский (многоголосый закадровый) (@MUZOBOZ@)","Полное дублирование (iTunes)"],"quality":"webdl","translation":"Любительский (многоголосый закадровый) (@MUZOBOZ@)","update":"2020-08-29 16:58:08","iframe_src":"//7720.svetacdn.in/si4jsFRrtgrT/movie/42712"}],"current_page":618,"first_page_url":"https://videocdn.tv/api/short?limit=100&api_token=X6EwAUfE5M9xbo7y0Bp0aPf3uXxG2KLL&cache3618=3618&page=1","from":61701,"last_page":647,"last_page_url":"https://videocdn.tv/api/short?limit=100&api_token=X6EwAUfE5M9xbo7y0Bp0aPf3uXxG2KLL&cache3618=3618&page=647","next_page_url":"https://videocdn.tv/api/short?limit=100&api_token=X6EwAUfE5M9xbo7y0Bp0aPf3uXxG2KLL&cache3618=3618&page=619","path":"https://videocdn.tv/api/short","per_page":100,"prev_page_url":"https://videocdn.tv/api/short?limit=100&api_token=X6EwAUfE5M9xbo7y0Bp0aPf3uXxG2KLL&cache3618=3618&page=617","to":61720,"total":64653}