{"result":true,"data":[{"id":24673,"title":"Молодые и невинные","kp_id":"1097695","imdb_id":"tt7259876","world_art_id":null,"type":"movie","add":"2019-04-15 22:11:58","orig_title":"Young and Innocent","year":"2017-08-26","translations":["Любительский (многоголосый закадровый) (Синема УС)"],"quality":"webdl","translation":"Любительский (многоголосый закадровый) (Синема УС)","update":"2019-04-16 05:52:17","iframe_src":"//8332.svetacdn.in/si4jsFRrtgrT/movie/24673"},{"id":24671,"title":"Усыновление","kp_id":"1092091","imdb_id":"tt7543930","world_art_id":null,"type":"movie","add":"2019-04-15 21:59:47","orig_title":"Pupille","year":"2018-08-26","translations":["Любительский (многоголосый закадровый) (Синема УС)"],"quality":"bd","translation":"Любительский (многоголосый закадровый) (Синема УС)","update":"2019-04-16 05:50:40","iframe_src":"//8332.svetacdn.in/si4jsFRrtgrT/movie/24671"},{"id":24670,"title":"Очень хорошие штучки","kp_id":"867335","imdb_id":"tt3834874","world_art_id":null,"type":"movie","add":"2019-04-15 21:58:02","orig_title":"Pretty Fine Things","year":"2016-01-01","translations":["Любительский (многоголосый закадровый) (Колобок)"],"quality":"webdl","translation":"Любительский (многоголосый закадровый) (Колобок)","update":"2019-04-16 05:49:26","iframe_src":"//8332.svetacdn.in/si4jsFRrtgrT/movie/24670"},{"id":24669,"title":"Сушняк","kp_id":"1114640","imdb_id":"tt7797926","world_art_id":null,"type":"movie","add":"2019-04-15 21:54:12","orig_title":"Parched","year":"2017-12-30","translations":["Любительский (многоголосый закадровый) (Синема УС)"],"quality":"webdl","translation":"Любительский (многоголосый закадровый) (Синема УС)","update":"2019-04-16 05:46:46","iframe_src":"//8332.svetacdn.in/si4jsFRrtgrT/movie/24669"},{"id":24663,"title":"Верные враги","kp_id":"1040700","imdb_id":"tt6527586","world_art_id":null,"type":"movie","add":"2019-04-15 21:36:19","orig_title":"Frères ennemis","year":"2018-09-01","translations":["Любительский (многоголосый закадровый) (Синема УС)"],"quality":"bd","translation":"Любительский (многоголосый закадровый) (Синема УС)","update":"2019-04-16 05:44:58","iframe_src":"//8332.svetacdn.in/si4jsFRrtgrT/movie/24663"},{"id":24662,"title":"Обрамленная: Приключения Сиона","kp_id":"930175","imdb_id":"tt4965104","world_art_id":null,"type":"movie","add":"2019-04-15 21:34:46","orig_title":"Framed: The Adventures of Zion Man","year":"2017-01-28","translations":["Любительский (многоголосый закадровый) (Синема УС)"],"quality":"webdl","translation":"Любительский (многоголосый закадровый) (Синема УС)","update":"2019-04-16 05:43:14","iframe_src":"//8332.svetacdn.in/si4jsFRrtgrT/movie/24662"},{"id":24660,"title":"Особенность","kp_id":"1199591","imdb_id":"tt9129808","world_art_id":null,"type":"movie","add":"2019-04-15 21:29:56","orig_title":"Fei tung faan hoeng","year":"2018-10-11","translations":["Любительский (многоголосый закадровый) (Синема УС)"],"quality":"bd","translation":"Любительский (многоголосый закадровый) (Синема УС)","update":"2019-04-16 05:53:20","iframe_src":"//8332.svetacdn.in/si4jsFRrtgrT/movie/24660"},{"id":24659,"title":"Волшебное перо","kp_id":"1060229","imdb_id":"tt7028140","world_art_id":null,"type":"movie","add":"2019-04-15 21:27:39","orig_title":"Certí brko","year":"2018-11-29","translations":["Любительский (многоголосый закадровый) (Синема УС)"],"quality":"bd","translation":"Любительский (многоголосый закадровый) (Синема УС)","update":"2019-04-16 05:41:54","iframe_src":"//8332.svetacdn.in/si4jsFRrtgrT/movie/24659"},{"id":24364,"title":"Человек-невидимка","kp_id":"45479","imdb_id":"tt0087043","world_art_id":null,"type":"movie","add":"2019-04-11 22:15:25","orig_title":"Chelovek-nevidimka","year":"1985-02-04","translations":["Оригинальная дорожка"],"quality":"dvdrip","translation":"Оригинальная дорожка","update":"2019-04-15 10:12:44","iframe_src":"//8332.svetacdn.in/si4jsFRrtgrT/movie/24364"},{"id":24363,"title":"Шаг навстречу","kp_id":"43713","imdb_id":"tt0255594","world_art_id":null,"type":"movie","add":"2019-04-11 21:59:17","orig_title":"Shag navstrechu","year":"1976-04-26","translations":["Оригинальная дорожка"],"quality":"dvdrip","translation":"Оригинальная дорожка","update":"2019-04-15 10:11:11","iframe_src":"//8332.svetacdn.in/si4jsFRrtgrT/movie/24363"},{"id":24362,"title":"Гром ярости","kp_id":"493916","imdb_id":null,"world_art_id":null,"type":"movie","add":"2019-04-11 21:50:01","orig_title":"Гром ярости","year":"2010-01-15","translations":["Оригинальная дорожка"],"quality":"sat","translation":"Оригинальная дорожка","update":"2019-04-15 10:09:58","iframe_src":"//8332.svetacdn.in/si4jsFRrtgrT/movie/24362"},{"id":24361,"title":"Государыня и разбойник","kp_id":"487451","imdb_id":"tt3562788","world_art_id":null,"type":"movie","add":"2019-04-11 21:48:22","orig_title":"Gosudarynya i razboynik","year":"2009-12-03","translations":["Оригинальная дорожка"],"quality":"dvdrip","translation":"Оригинальная дорожка","update":"2019-04-15 10:09:15","iframe_src":"//8332.svetacdn.in/si4jsFRrtgrT/movie/24361"},{"id":24360,"title":"Фонограмма страсти","kp_id":"447651","imdb_id":"tt1487906","world_art_id":null,"type":"movie","add":"2019-04-11 21:46:51","orig_title":"Fonogramma strasti","year":"2009-08-25","translations":["Оригинальная дорожка"],"quality":"dvdrip","translation":"Оригинальная дорожка","update":"2019-04-15 10:06:46","iframe_src":"//8332.svetacdn.in/si4jsFRrtgrT/movie/24360"},{"id":24359,"title":"Дневник Карлоты","kp_id":"470443","imdb_id":"tt1468840","world_art_id":null,"type":"movie","add":"2019-04-11 21:44:42","orig_title":"El diario de Carlota","year":"2010-07-23","translations":["Профессиональный (многоголосый закадровый)"],"quality":"dvdrip","translation":"Профессиональный (многоголосый закадровый)","update":"2019-04-15 10:05:50","iframe_src":"//8332.svetacdn.in/si4jsFRrtgrT/movie/24359"},{"id":24358,"title":"Фантазии Фарятьева","kp_id":"94828","imdb_id":"tt0169892","world_art_id":null,"type":"movie","add":"2019-04-11 21:43:17","orig_title":"Fantazii Faryateva","year":"1982-01-25","translations":["Оригинальная дорожка"],"quality":"dvdrip","translation":"Оригинальная дорожка","update":"2019-04-15 10:05:30","iframe_src":"//8332.svetacdn.in/si4jsFRrtgrT/movie/24358"},{"id":24355,"title":"Если враг не сдается...","kp_id":"42449","imdb_id":"tt0084932","world_art_id":null,"type":"movie","add":"2019-04-11 21:36:14","orig_title":"Esli vrag ne sdayotsya...","year":"1983-10-31","translations":["Оригинальная дорожка"],"quality":"dvdrip","translation":"Оригинальная дорожка","update":"2019-04-15 10:02:05","iframe_src":"//8332.svetacdn.in/si4jsFRrtgrT/movie/24355"},{"id":24354,"title":"Егорушка","kp_id":"496772","imdb_id":null,"world_art_id":null,"type":"movie","add":"2019-04-11 21:33:32","orig_title":"Егорушка","year":"2010-01-01","translations":["Оригинальная дорожка"],"quality":"dvdrip","translation":"Оригинальная дорожка","update":"2019-04-15 10:00:43","iframe_src":"//8332.svetacdn.in/si4jsFRrtgrT/movie/24354"},{"id":24353,"title":"Действуй по обстановке!..","kp_id":"44115","imdb_id":"tt0087131","world_art_id":null,"type":"movie","add":"2019-04-11 21:30:03","orig_title":"Deystvuy po obstanovke!","year":"1985-04-29","translations":["Оригинальная дорожка"],"quality":"dvdrip","translation":"Оригинальная дорожка","update":"2019-04-15 09:59:46","iframe_src":"//8332.svetacdn.in/si4jsFRrtgrT/movie/24353"},{"id":24352,"title":"Девочки","kp_id":"414693","imdb_id":"tt0899239","world_art_id":null,"type":"movie","add":"2019-04-11 21:28:33","orig_title":"Devochki","year":"2006-05-20","translations":["Оригинальная дорожка"],"quality":"dvdrip","translation":"Оригинальная дорожка","update":"2019-04-15 09:59:37","iframe_src":"//8332.svetacdn.in/si4jsFRrtgrT/movie/24352"},{"id":13840,"title":"Тим Талер, или Проданный смех","kp_id":"904247","imdb_id":"tt4578050","world_art_id":null,"type":"movie","add":"2017-10-12 22:03:51","orig_title":"Timm Thaler oder das verkaufte Lachen","year":"2017-02-02","translations":["Любительский (многоголосый закадровый) (Синема УС)","Полное дублирование","Полное дублирование"],"quality":"bd","translation":"Любительский (многоголосый закадровый) (Синема УС)","update":"2019-04-16 05:33:07","iframe_src":"//8332.svetacdn.in/si4jsFRrtgrT/movie/13840"}],"current_page":1562,"first_page_url":"https://videocdn.tv/api/short?limit=100&api_token=X6EwAUfE5M9xbo7y0Bp0aPf3uXxG2KLL&cache31562=31562&page=1","from":156101,"last_page":640,"last_page_url":"https://videocdn.tv/api/short?limit=100&api_token=X6EwAUfE5M9xbo7y0Bp0aPf3uXxG2KLL&cache31562=31562&page=640","next_page_url":null,"path":"https://videocdn.tv/api/short","per_page":100,"prev_page_url":"https://videocdn.tv/api/short?limit=100&api_token=X6EwAUfE5M9xbo7y0Bp0aPf3uXxG2KLL&cache31562=31562&page=1561","to":156120,"total":63975}