{"result":true,"data":[{"id":17067,"title":"Два шага от надежды","kp_id":"1017098","imdb_id":"tt5798330","world_art_id":null,"type":"movie","add":"2018-06-06 23:37:18","orig_title":"Two Steps from Hope","year":"2017-05-20","translations":["Любительский (многоголосый закадровый) (Синема УС)"],"quality":"webdl","translation":"Любительский (многоголосый закадровый) (Синема УС)","update":"2018-06-08 09:19:54","iframe_src":"//83.svetacdn.in/PfJ50H0ZBPg3/movie/17067"},{"id":17066,"title":"Открытая дверь","kp_id":"1080472","imdb_id":"tt6673964","world_art_id":null,"type":"movie","add":"2018-06-06 23:03:01","orig_title":"The Open Door","year":"2017-06-01","translations":["Любительский (многоголосый закадровый) (Синема УС)"],"quality":"webdl","translation":"Любительский (многоголосый закадровый) (Синема УС)","update":"2018-06-08 09:23:09","iframe_src":"//83.svetacdn.in/PfJ50H0ZBPg3/movie/17066"},{"id":17065,"title":"Дебютантки","kp_id":"1086561","imdb_id":"tt7467612","world_art_id":null,"type":"movie","add":"2018-06-06 23:00:49","orig_title":"The Debutantes","year":"2017-10-04","translations":["Любительский (многоголосый закадровый) (Колобок)"],"quality":"webdl","translation":"Любительский (многоголосый закадровый) (Колобок)","update":"2018-06-08 09:25:36","iframe_src":"//83.svetacdn.in/PfJ50H0ZBPg3/movie/17065"},{"id":17064,"title":"Пляж утопленников","kp_id":"846618","imdb_id":"tt3721072","world_art_id":null,"type":"movie","add":"2018-06-06 22:54:41","orig_title":"La playa de los ahogados","year":"2015-10-08","translations":["Профессиональный (многоголосый закадровый) (GreenРай Studio)"],"quality":"dvdrip","translation":"Профессиональный (многоголосый закадровый) (GreenРай Studio)","update":"2018-06-08 09:29:26","iframe_src":"//83.svetacdn.in/PfJ50H0ZBPg3/movie/17064"},{"id":17063,"title":"Гуров и Анна","kp_id":"845413","imdb_id":"tt3700852","world_art_id":null,"type":"movie","add":"2018-06-06 22:49:41","orig_title":"Gurov and Anna","year":"2014-10-04","translations":["Профессиональный (многоголосый закадровый) (GreenРай Studio)"],"quality":"dvdrip","translation":"Профессиональный (многоголосый закадровый) (GreenРай Studio)","update":"2018-06-08 09:32:48","iframe_src":"//83.svetacdn.in/PfJ50H0ZBPg3/movie/17063"},{"id":17062,"title":"Ведомые словом","kp_id":null,"imdb_id":"tt6519912","world_art_id":null,"type":"movie","add":"2018-06-06 22:46:37","orig_title":"Guided by the Word","year":"2017-05-01","translations":["Любительский (многоголосый закадровый) (Синема УС)"],"quality":"webdl","translation":"Любительский (многоголосый закадровый) (Синема УС)","update":"2018-06-08 09:34:08","iframe_src":"//83.svetacdn.in/PfJ50H0ZBPg3/movie/17062"},{"id":17060,"title":"Ты сам и твоё","kp_id":"994680","imdb_id":"tt5907916","world_art_id":null,"type":"movie","add":"2018-06-06 22:38:24","orig_title":"Dangsin jasingwa dangsinui geot","year":"2016-09-12","translations":["Любительский (многоголосый закадровый) (GreenРай Studio)"],"quality":"bd","translation":"Любительский (многоголосый закадровый) (GreenРай Studio)","update":"2018-06-08 09:38:13","iframe_src":"//83.svetacdn.in/PfJ50H0ZBPg3/movie/17060"},{"id":17059,"title":"Кровавая Призма","kp_id":"1010646","imdb_id":"tt6130118","world_art_id":null,"type":"movie","add":"2018-06-06 22:30:09","orig_title":"Blood Prism","year":"2017-12-12","translations":["Любительский (многоголосый закадровый) (Синема УС)"],"quality":"webdl","translation":"Любительский (многоголосый закадровый) (Синема УС)","update":"2018-06-08 09:39:36","iframe_src":"//83.svetacdn.in/PfJ50H0ZBPg3/movie/17059"},{"id":17058,"title":"Американский джедай","kp_id":"1089511","imdb_id":"tt7246408","world_art_id":null,"type":"movie","add":"2018-06-06 22:27:51","orig_title":"American Jedi","year":"2017-11-21","translations":["Любительский (многоголосый закадровый) (Синема УС)"],"quality":"webdl","translation":"Любительский (многоголосый закадровый) (Синема УС)","update":"2018-06-08 09:41:32","iframe_src":"//83.svetacdn.in/PfJ50H0ZBPg3/movie/17058"},{"id":17053,"title":"Покой нам только снится","kp_id":"893883","imdb_id":"tt4467282","world_art_id":null,"type":"movie","add":"2018-06-05 22:01:04","orig_title":"Peace to Us in Our Dreams","year":"2015-05-20","translations":["Профессиональный (многоголосый закадровый) (GreenРай Studio)"],"quality":"webdl","translation":"Профессиональный (многоголосый закадровый) (GreenРай Studio)","update":"2018-06-06 09:47:48","iframe_src":"//83.svetacdn.in/PfJ50H0ZBPg3/movie/17053"},{"id":17052,"title":"Кораблекрушение в заливе Унгава","kp_id":null,"imdb_id":"tt5533830","world_art_id":null,"type":"movie","add":"2018-06-05 21:58:51","orig_title":"Naufrage dans l'Ungava","year":"2016-04-24","translations":["Любительский (многоголосый закадровый) (Синема УС)"],"quality":"hdtv","translation":"Любительский (многоголосый закадровый) (Синема УС)","update":"2018-06-06 10:13:35","iframe_src":"//83.svetacdn.in/PfJ50H0ZBPg3/movie/17052"},{"id":17050,"title":"Гулам","kp_id":"903023","imdb_id":"tt3511928","world_art_id":null,"type":"movie","add":"2018-06-05 21:49:46","orig_title":"Gholam","year":"2017-05-25","translations":["Любительский (многоголосый закадровый) (Синема УС)"],"quality":"webdl","translation":"Любительский (многоголосый закадровый) (Синема УС)","update":"2018-06-06 10:17:41","iframe_src":"//83.svetacdn.in/PfJ50H0ZBPg3/movie/17050"},{"id":17049,"title":"Он любил их всех","kp_id":"1084853","imdb_id":"tt6984456","world_art_id":null,"type":"movie","add":"2018-06-05 21:45:19","orig_title":"He Loved Them All","year":"2018-05-20","translations":["Любительский (многоголосый закадровый) (Синема УС)"],"quality":"hdtv","translation":"Любительский (многоголосый закадровый) (Синема УС)","update":"2018-06-06 10:19:35","iframe_src":"//83.svetacdn.in/PfJ50H0ZBPg3/movie/17049"},{"id":17048,"title":"Да, шеф!","kp_id":"974204","imdb_id":null,"world_art_id":null,"type":"movie","add":"2018-06-05 21:43:03","orig_title":"Да, шеф!","year":"2017-09-14","translations":["Оригинальная дорожка"],"quality":"webdl","translation":"Оригинальная дорожка","update":"2018-06-06 10:21:08","iframe_src":"//83.svetacdn.in/PfJ50H0ZBPg3/movie/17048"},{"id":17043,"title":"Афёра","kp_id":"1074373","imdb_id":"tt6774212","world_art_id":null,"type":"movie","add":"2018-06-05 21:24:57","orig_title":"Aiyaary","year":"2018-02-16","translations":["Любительский (многоголосый закадровый) (Синема УС)"],"quality":"webdl","translation":"Любительский (многоголосый закадровый) (Синема УС)","update":"2018-06-07 03:31:46","iframe_src":"//83.svetacdn.in/PfJ50H0ZBPg3/movie/17043"},{"id":16418,"title":"Дрожь земли 6","kp_id":"1004968","imdb_id":"tt6086082","world_art_id":null,"type":"movie","add":"2018-04-22 09:36:36","orig_title":"Tremors: A Cold Day in Hell","year":"2018-05-01","translations":["Любительский (многоголосый закадровый) (Колобок)","Любительский (многоголосый закадровый) (@MUZOBOZ@)","Любительский (многоголосый закадровый) (RusFilm)","Профессиональный (многоголосый закадровый) (GreenРай Studio)"],"quality":"dvdrip","translation":"Любительский (многоголосый закадровый) (Колобок)","update":"2018-06-08 09:22:08","iframe_src":"//83.svetacdn.in/PfJ50H0ZBPg3/movie/16418"},{"id":15380,"title":"Исчезновение Сидни Холла","kp_id":"427139","imdb_id":"tt1291566","world_art_id":null,"type":"movie","add":"2018-03-05 14:56:34","orig_title":"The Vanishing of Sidney Hall","year":"2017-01-25","translations":["Любительский (многоголосый закадровый) (@MUZOBOZ@)","Полное дублирование","Любительский (двухголосый закадровый) (HiWayGrope)","Профессиональный (многоголосый закадровый) (iTunes)"],"quality":"webdl","translation":"Любительский (многоголосый закадровый) (@MUZOBOZ@)","update":"2018-06-06 10:33:44","iframe_src":"//83.svetacdn.in/PfJ50H0ZBPg3/movie/15380"},{"id":15246,"title":"Селфи из ада","kp_id":"980525","imdb_id":"tt5686622","world_art_id":null,"type":"movie","add":"2018-02-20 20:53:24","orig_title":"Selfie from Hell","year":"2018-02-16","translations":["Любительский (многоголосый закадровый) (Синема УС)","Любительский (двухголосый закадровый) (HiWayGrope)","Профессиональный (многоголосый закадровый) (GreenРай Studio)","Полное дублирование"],"quality":"webdl","translation":"Любительский (многоголосый закадровый) (Синема УС)","update":"2018-06-08 09:27:42","iframe_src":"//83.svetacdn.in/PfJ50H0ZBPg3/movie/15246"},{"id":15082,"title":"Эйфория","kp_id":"978886","imdb_id":"tt5698320","world_art_id":null,"type":"movie","add":"2018-02-05 22:30:51","orig_title":"Euphoria","year":"2017-09-08","translations":["Профессиональный (многоголосый закадровый)"],"quality":"webdl","translation":"Профессиональный (многоголосый закадровый)","update":"2018-06-06 10:29:15","iframe_src":"//83.svetacdn.in/PfJ50H0ZBPg3/movie/15082"},{"id":13355,"title":"План побега","kp_id":"963284","imdb_id":"tt5003186","world_art_id":null,"type":"movie","add":"2017-09-05 23:13:21","orig_title":"Plan de fuga","year":"2016-12-01","translations":["Любительский (многоголосый закадровый) (Синема УС)","Профессиональный (многоголосый закадровый) (GreenРай Studio)"],"quality":"bd","translation":"Любительский (многоголосый закадровый) (Синема УС)","update":"2018-06-08 09:29:04","iframe_src":"//83.svetacdn.in/PfJ50H0ZBPg3/movie/13355"}],"current_page":1915,"first_page_url":"https://videocdn.tv/api/short?limit=100&api_token=RgFQdUIR2dRmwv8iYa5SnFNgnw3vpjKj&cache31915=31915&page=1","from":191401,"last_page":642,"last_page_url":"https://videocdn.tv/api/short?limit=100&api_token=RgFQdUIR2dRmwv8iYa5SnFNgnw3vpjKj&cache31915=31915&page=642","next_page_url":null,"path":"https://videocdn.tv/api/short","per_page":100,"prev_page_url":"https://videocdn.tv/api/short?limit=100&api_token=RgFQdUIR2dRmwv8iYa5SnFNgnw3vpjKj&cache31915=31915&page=1914","to":191420,"total":64126}