{"result":true,"data":[{"id":35190,"title":"Хозяйка","kp_id":"1134808","imdb_id":"tt8316568","world_art_id":null,"type":"movie","add":"2020-01-18 17:42:47","orig_title":"The Host","year":"2020-01-17","translations":["Любительский (многоголосый закадровый) (AlphaProject)"],"quality":"webdl","translation":"Любительский (многоголосый закадровый) (AlphaProject)","update":"2020-01-19 04:07:43","iframe_src":"//8209.svetacdn.in/si4jsFRrtgrT/movie/35190"},{"id":35189,"title":"Собственник","kp_id":"1104651","imdb_id":"tt7541708","world_art_id":null,"type":"movie","add":"2020-01-18 16:55:29","orig_title":"Posesif","year":"2017-10-26","translations":["Любительский (многоголосый закадровый) (Синема УС)"],"quality":"webdl","translation":"Любительский (многоголосый закадровый) (Синема УС)","update":"2020-01-19 04:06:25","iframe_src":"//8209.svetacdn.in/si4jsFRrtgrT/movie/35189"},{"id":35188,"title":"Материнство","kp_id":"1135576","imdb_id":"tt6208138","world_art_id":null,"type":"movie","add":"2020-01-18 16:54:33","orig_title":"Motherhood","year":"2017-02-02","translations":["Любительский (многоголосый закадровый) (Синема УС)"],"quality":"webdl","translation":"Любительский (многоголосый закадровый) (Синема УС)","update":"2020-01-19 04:05:52","iframe_src":"//8209.svetacdn.in/si4jsFRrtgrT/movie/35188"},{"id":35187,"title":"Захочу и соскочу","kp_id":"1179705","imdb_id":"tt8806768","world_art_id":null,"type":"movie","add":"2020-01-18 16:53:02","orig_title":"Lo dejo cuando quier","year":"2019-04-12","translations":["Любительский (многоголосый закадровый) (Синема УС)"],"quality":"bd","translation":"Любительский (многоголосый закадровый) (Синема УС)","update":"2020-01-19 04:06:09","iframe_src":"//8209.svetacdn.in/si4jsFRrtgrT/movie/35187"},{"id":35186,"title":"Вкус жизни","kp_id":"1037007","imdb_id":"tt6144256","world_art_id":null,"type":"movie","add":"2020-01-18 16:51:58","orig_title":"Flavor of Life","year":"2019-01-01","translations":["Любительский (многоголосый закадровый) (Синема УС)"],"quality":"webdl","translation":"Любительский (многоголосый закадровый) (Синема УС)","update":"2020-01-19 04:05:09","iframe_src":"//8209.svetacdn.in/si4jsFRrtgrT/movie/35186"},{"id":35185,"title":"В одиночестве","kp_id":"1264487","imdb_id":"tt10332854","world_art_id":null,"type":"movie","add":"2020-01-18 16:51:04","orig_title":"Alone","year":"2020-01-17","translations":["Любительский (многоголосый закадровый) (Синема УС)"],"quality":"webdl","translation":"Любительский (многоголосый закадровый) (Синема УС)","update":"2020-01-18 18:26:06","iframe_src":"//8209.svetacdn.in/si4jsFRrtgrT/movie/35185"},{"id":35178,"title":"Беар Гриллс: Человек против Эвереста","kp_id":null,"imdb_id":"tt10542906","world_art_id":null,"type":"movie","add":"2020-01-18 13:09:32","orig_title":"Bear Grylls: Man vs Everest","year":"2014-04-01","translations":["Профессиональный (двухголосый закадровый)"],"quality":"hdtv","translation":"Профессиональный (двухголосый закадровый)","update":"2020-01-18 15:47:58","iframe_src":"//8209.svetacdn.in/si4jsFRrtgrT/movie/35178"},{"id":35177,"title":"Американская история девочки: Айви и Джули 1976 - счастливый баланс","kp_id":"1027733","imdb_id":"tt6509214","world_art_id":null,"type":"movie","add":"2020-01-18 12:19:49","orig_title":"An American Girl Story: Ivy & Julie 1976 - A Happy Balance","year":"2017-03-24","translations":["Любительский (многоголосый закадровый) (Синема УС)"],"quality":"webdl","translation":"Любительский (многоголосый закадровый) (Синема УС)","update":"2020-01-18 18:23:26","iframe_src":"//8209.svetacdn.in/si4jsFRrtgrT/movie/35177"},{"id":35174,"title":"Богоявление","kp_id":"336921","imdb_id":"tt6469344","world_art_id":null,"type":"movie","add":"2020-01-18 08:54:37","orig_title":"Epiphany","year":"2019-04-06","translations":["Любительский (многоголосый закадровый) (Синема УС)"],"quality":"webdl","translation":"Любительский (многоголосый закадровый) (Синема УС)","update":"2020-01-18 12:41:27","iframe_src":"//8209.svetacdn.in/si4jsFRrtgrT/movie/35174"},{"id":35173,"title":"Порхай как бабочка","kp_id":"1106525","imdb_id":"tt7636672","world_art_id":null,"type":"movie","add":"2020-01-18 07:55:26","orig_title":"Float Like a Butterfly","year":"2018-09-07","translations":["Любительский (многоголосый закадровый) (Синема УС)"],"quality":"webdl","translation":"Любительский (многоголосый закадровый) (Синема УС)","update":"2020-01-18 12:38:28","iframe_src":"//8209.svetacdn.in/si4jsFRrtgrT/movie/35173"},{"id":35171,"title":"Маняшино озеро","kp_id":"1047473","imdb_id":null,"world_art_id":null,"type":"movie","add":"2020-01-18 07:53:22","orig_title":"Маняшино озеро","year":"2017-01-01","translations":["Оригинальная дорожка"],"quality":"webdl","translation":"Оригинальная дорожка","update":"2020-01-18 12:37:05","iframe_src":"//8209.svetacdn.in/si4jsFRrtgrT/movie/35171"},{"id":35170,"title":"Доктор Бринкс & Доктор Бринкс","kp_id":"983744","imdb_id":"tt5761064","world_art_id":null,"type":"movie","add":"2020-01-18 07:51:33","orig_title":"Dr. Brinks & Dr. Brinks","year":"2017-05-04","translations":["Любительский (многоголосый закадровый) (Синема УС)"],"quality":"webdl","translation":"Любительский (многоголосый закадровый) (Синема УС)","update":"2020-01-18 12:39:52","iframe_src":"//8209.svetacdn.in/si4jsFRrtgrT/movie/35170"},{"id":35169,"title":"Святое ожидание","kp_id":"1330965","imdb_id":"tt10945950","world_art_id":null,"type":"movie","add":"2020-01-18 07:50:34","orig_title":"Embarazada por obra y gracia","year":"2019-09-05","translations":["Любительский (многоголосый закадровый) (Синема УС)"],"quality":"webdl","translation":"Любительский (многоголосый закадровый) (Синема УС)","update":"2020-01-18 12:38:34","iframe_src":"//8209.svetacdn.in/si4jsFRrtgrT/movie/35169"},{"id":35168,"title":"Мир Джоба","kp_id":"1053227","imdb_id":"tt6920074","world_art_id":null,"type":"movie","add":"2020-01-18 07:48:14","orig_title":"Jobe'z World","year":"2018-11-02","translations":["Любительский (многоголосый закадровый) (Синема УС)"],"quality":"webdl","translation":"Любительский (многоголосый закадровый) (Синема УС)","update":"2020-01-18 12:38:11","iframe_src":"//8209.svetacdn.in/si4jsFRrtgrT/movie/35168"},{"id":35167,"title":"Нулевой отряд","kp_id":"684170","imdb_id":"tt2404465","world_art_id":null,"type":"movie","add":"2020-01-18 07:44:33","orig_title":"Troop Zero","year":"2019-02-01","translations":["Любительский (многоголосый закадровый) (@MUZOBOZ@)","Любительский (двухголосый закадровый) (LakeFilms)"],"quality":"webdl","translation":"Любительский (многоголосый закадровый) (@MUZOBOZ@)","update":"2020-01-18 12:36:07","iframe_src":"//8209.svetacdn.in/si4jsFRrtgrT/movie/35167"},{"id":35166,"title":"Вагон терпения","kp_id":"1178675","imdb_id":"tt8778658","world_art_id":null,"type":"movie","add":"2020-01-18 07:43:07","orig_title":"A Patient Man","year":"2019-02-19","translations":["Любительский (многоголосый закадровый) (Синема УС)"],"quality":"webdl","translation":"Любительский (многоголосый закадровый) (Синема УС)","update":"2020-01-18 18:20:30","iframe_src":"//8209.svetacdn.in/si4jsFRrtgrT/movie/35166"},{"id":35150,"title":"Тайсон","kp_id":"251705","imdb_id":"tt0114759","world_art_id":null,"type":"movie","add":"2020-01-17 13:16:17","orig_title":"Tyson","year":"1995-04-29","translations":["Авторский (одноголосый закадровый) (Иванов Михаил)"],"quality":"webdl","translation":"Авторский (одноголосый закадровый) (Иванов Михаил)","update":"2020-01-18 07:41:05","iframe_src":"//8209.svetacdn.in/si4jsFRrtgrT/movie/35150"},{"id":35149,"title":"Любимчик","kp_id":"1040762","imdb_id":"tt6619188","world_art_id":null,"type":"movie","add":"2020-01-17 12:39:22","orig_title":"The Favorite","year":"2019-09-13","translations":["Любительский (многоголосый закадровый) (Синема УС)"],"quality":"webdl","translation":"Любительский (многоголосый закадровый) (Синема УС)","update":"2020-01-18 07:37:41","iframe_src":"//8209.svetacdn.in/si4jsFRrtgrT/movie/35149"},{"id":30653,"title":"Бесстрашные: Битва за Мидуэй","kp_id":"1172851","imdb_id":"tt8685520","world_art_id":null,"type":"movie","add":"2019-09-08 10:44:07","orig_title":"Dauntless: The Battle of Midway","year":"2019-09-06","translations":["Любительский (многоголосый закадровый) (Синема УС)","Авторский (одноголосый закадровый) (Багичев Алексей)"],"quality":"webdl","translation":"Любительский (многоголосый закадровый) (Синема УС)","update":"2020-01-19 04:07:25","iframe_src":"//8209.svetacdn.in/si4jsFRrtgrT/movie/30653"},{"id":19823,"title":"Проклятый дом","kp_id":"994868","imdb_id":"tt5936492","world_art_id":null,"type":"movie","add":"2018-10-28 15:22:11","orig_title":"The Witch in the Window","year":"2018-07-23","translations":["Полное дублирование (iTunes)","Original (English)"],"quality":"webdl","translation":"Полное дублирование (iTunes)","update":"2020-01-19 04:04:54","iframe_src":"//8209.svetacdn.in/si4jsFRrtgrT/movie/19823"}],"current_page":1099,"first_page_url":"https://videocdn.tv/api/short?limit=100&api_token=X6EwAUfE5M9xbo7y0Bp0aPf3uXxG2KLL&cache31099=31099&page=1","from":109801,"last_page":657,"last_page_url":"https://videocdn.tv/api/short?limit=100&api_token=X6EwAUfE5M9xbo7y0Bp0aPf3uXxG2KLL&cache31099=31099&page=657","next_page_url":null,"path":"https://videocdn.tv/api/short","per_page":100,"prev_page_url":"https://videocdn.tv/api/short?limit=100&api_token=X6EwAUfE5M9xbo7y0Bp0aPf3uXxG2KLL&cache31099=31099&page=1098","to":109820,"total":65650}