{"result":true,"data":[{"id":50106,"title":"Тень женщины-детектива","kp_id":"1149463","imdb_id":"tt8391226","world_art_id":null,"type":"movie","add":"2021-05-04 07:28:11","orig_title":"Lady Detective Shadow","year":"2018-05-09","translations":["Любительский (многоголосый закадровый) (Синема УС)"],"quality":"webdl","translation":"Любительский (многоголосый закадровый) (Синема УС)","update":"2021-05-04 19:43:04","iframe_src":"//7720.svetacdn.in/si4jsFRrtgrT/movie/50106"},{"id":50105,"title":"Убийство в Сен-Поль-де-Вансе","kp_id":"1116924","imdb_id":"tt7306830","world_art_id":null,"type":"movie","add":"2021-05-04 07:26:47","orig_title":"Le prix de la vérité","year":"2018-01-13","translations":["Любительский (многоголосый закадровый) (Синема УС)"],"quality":"webdl","translation":"Любительский (многоголосый закадровый) (Синема УС)","update":"2021-05-04 19:42:44","iframe_src":"//7720.svetacdn.in/si4jsFRrtgrT/movie/50105"},{"id":50104,"title":"Счастливчик","kp_id":"921736","imdb_id":"tt4828332","world_art_id":null,"type":"movie","add":"2021-05-04 07:25:18","orig_title":"Lucky","year":"2018-01-01","translations":["Профессиональный (многоголосый закадровый) (HDrezka Studio)"],"quality":"webdl","translation":"Профессиональный (многоголосый закадровый) (HDrezka Studio)","update":"2021-05-04 19:43:17","iframe_src":"//7720.svetacdn.in/si4jsFRrtgrT/movie/50104"},{"id":50102,"title":"Жизненная история","kp_id":"1311743","imdb_id":"tt11081744","world_art_id":null,"type":"movie","add":"2021-05-04 07:22:21","orig_title":"Realna prica","year":"2019-11-12","translations":["Любительский (многоголосый закадровый) (AlphaProject)"],"quality":"webdl","translation":"Любительский (многоголосый закадровый) (AlphaProject)","update":"2021-05-04 15:33:59","iframe_src":"//7720.svetacdn.in/si4jsFRrtgrT/movie/50102"},{"id":50101,"title":"Руанда","kp_id":"1160627","imdb_id":"tt7665608","world_art_id":null,"type":"movie","add":"2021-05-04 07:20:28","orig_title":"Rwanda","year":"2018-09-01","translations":["Любительский (многоголосый закадровый) (Синема УС)"],"quality":"webdl","translation":"Любительский (многоголосый закадровый) (Синема УС)","update":"2021-05-04 15:34:14","iframe_src":"//7720.svetacdn.in/si4jsFRrtgrT/movie/50101"},{"id":50100,"title":"Просто другой","kp_id":"1449574","imdb_id":"tt10500666","world_art_id":null,"type":"movie","add":"2021-05-04 07:03:05","orig_title":"Just Different","year":"2020-10-25","translations":["Любительский (многоголосый закадровый) (Синема УС)"],"quality":"webdl","translation":"Любительский (многоголосый закадровый) (Синема УС)","update":"2021-05-04 10:47:33","iframe_src":"//7720.svetacdn.in/si4jsFRrtgrT/movie/50100"},{"id":50099,"title":"Вальс бродяги","kp_id":"70495","imdb_id":"tt0033798","world_art_id":null,"type":"movie","add":"2021-05-04 05:34:43","orig_title":"Kulkurin valssi","year":"1941-01-19","translations":["Любительский (одноголосый закадровый) (Eugene Greene)"],"quality":"bd","translation":"Любительский (одноголосый закадровый) (Eugene Greene)","update":"2021-05-05 06:02:52","iframe_src":"//7720.svetacdn.in/si4jsFRrtgrT/movie/50099"},{"id":50097,"title":"Законы Серенгети","kp_id":"1087837","imdb_id":"tt6838670","world_art_id":null,"type":"movie","add":"2021-05-03 20:46:49","orig_title":"Serengeti Rules","year":"2018-04-21","translations":["Профессиональный (одноголосый закадровый) (SDI Media)"],"quality":"hdtv","translation":"Профессиональный (одноголосый закадровый) (SDI Media)","update":"2021-05-04 20:00:59","iframe_src":"//7720.svetacdn.in/si4jsFRrtgrT/movie/50097"},{"id":50096,"title":"Семеро сыновей моих","kp_id":"581659","imdb_id":"tt2158877","world_art_id":null,"type":"movie","add":"2021-05-03 20:32:50","orig_title":"Yeddi Ogul Istäräm","year":"1970-09-07","translations":["Полное дублирование"],"quality":"vhs","translation":"Полное дублирование","update":"2021-05-04 15:20:39","iframe_src":"//7720.svetacdn.in/si4jsFRrtgrT/movie/50096"},{"id":50095,"title":"Падение династии Романовых","kp_id":"42869","imdb_id":"tt0018246","world_art_id":null,"type":"movie","add":"2021-05-03 20:24:47","orig_title":"Padenie dinastii Romanovykh","year":"1927-03-11","translations":["Оригинальная дорожка"],"quality":"dvdrip","translation":"Оригинальная дорожка","update":"2021-05-04 15:18:57","iframe_src":"//7720.svetacdn.in/si4jsFRrtgrT/movie/50095"},{"id":50091,"title":"Неизвестный враг","kp_id":"865808","imdb_id":"tt3816908","world_art_id":null,"type":"movie","add":"2021-05-03 11:08:24","orig_title":"Inimigo Desconhecido: Enemy Unknown","year":"2020-07-24","translations":["Любительский (многоголосый закадровый) (Синема УС)"],"quality":"webdl","translation":"Любительский (многоголосый закадровый) (Синема УС)","update":"2021-05-04 20:31:22","iframe_src":"//7720.svetacdn.in/si4jsFRrtgrT/movie/50091"},{"id":50087,"title":"Малолетние преступники: Новый мировой порядок","kp_id":"1168384","imdb_id":"tt8526344","world_art_id":null,"type":"movie","add":"2021-05-03 11:00:26","orig_title":"Juvenile Delinquents: New World Order","year":"2020-03-06","translations":["Любительский (многоголосый закадровый) (Синема УС)"],"quality":"webdl","translation":"Любительский (многоголосый закадровый) (Синема УС)","update":"2021-05-04 20:30:16","iframe_src":"//7720.svetacdn.in/si4jsFRrtgrT/movie/50087"},{"id":49943,"title":"Весь день впереди","kp_id":"1356483","imdb_id":"tt11946272","world_art_id":null,"type":"movie","add":"2021-04-27 13:49:37","orig_title":"Tutto Il Giorno Davanti","year":"2020-03-10","translations":["Любительский (многоголосый закадровый) (Синема УС)"],"quality":"webdl","translation":"Любительский (многоголосый закадровый) (Синема УС)","update":"2021-05-04 15:33:26","iframe_src":"//7720.svetacdn.in/si4jsFRrtgrT/movie/49943"},{"id":46764,"title":"Кольт пропел о смерти","kp_id":"94204","imdb_id":"tt0061074","world_art_id":null,"type":"movie","add":"2021-01-07 07:24:00","orig_title":"Le colt cantarono la morte e fu... tempo di massacro","year":"1966-08-10","translations":["Original (English)","Профессиональный (многоголосый закадровый)"],"quality":"bd","translation":"Original (English)","update":"2021-05-04 19:58:28","iframe_src":"//7720.svetacdn.in/si4jsFRrtgrT/movie/46764"},{"id":8145,"title":"Легенда Яванской Земли. Мерапи","kp_id":"1384266","imdb_id":"tt12306536","world_art_id":null,"type":"serial","add":"2020-07-12 14:16:13","orig_title":"Kisah Tanah Jawa: Merapi","year":"2019-10-31","translations":["Любительский (двухголосый закадровый) (Колобок)"],"seasons_count":1,"episodes_count":1,"episodes":1,"update":"2020-07-12 15:44:42","iframe_src":"//7720.svetacdn.in/si4jsFRrtgrT/tv-series/8145"},{"id":8142,"title":"Виктор Лессар","kp_id":"1375445","imdb_id":"tt6848578","world_art_id":null,"type":"serial","add":"2020-07-12 02:22:18","orig_title":"Victor Lessard","year":"2017-03-14","translations":["Профессиональный (многоголосый закадровый)"],"seasons_count":1,"episodes_count":10,"episodes":10,"update":"2020-07-12 09:58:04","iframe_src":"//7720.svetacdn.in/si4jsFRrtgrT/tv-series/8142"},{"id":8134,"title":"Семья Аслан","kp_id":"1103864","imdb_id":"tt7541582","world_art_id":null,"type":"serial","add":"2020-07-10 08:41:31","orig_title":"Aslan ailem","year":"2017-10-22","translations":["Любительский (одноголосый закадровый)"],"seasons_count":1,"episodes_count":31,"episodes":31,"update":"2020-07-12 17:17:24","iframe_src":"//7720.svetacdn.in/si4jsFRrtgrT/tv-series/8134"},{"id":8133,"title":"Секреты жизни","kp_id":"1101234","imdb_id":"tt7621276","world_art_id":null,"type":"serial","add":"2020-07-10 08:38:12","orig_title":"Hayat Sirlari","year":"2017-11-01","translations":["Авторский (одноголосый закадровый) (Котова Ирина)"],"seasons_count":1,"episodes_count":11,"episodes":11,"update":"2020-07-12 17:05:56","iframe_src":"//7720.svetacdn.in/si4jsFRrtgrT/tv-series/8133"},{"id":8132,"title":"Усадьба госпожи","kp_id":"567179","imdb_id":"tt1592293","world_art_id":null,"type":"serial","add":"2020-07-10 07:21:40","orig_title":"Hanimin çiftligi","year":"2009-09-12","translations":["Профессиональный (многоголосый закадровый) (Astana TV)"],"seasons_count":2,"episodes_count":137,"episodes":70,"update":"2020-07-12 16:56:18","iframe_src":"//7720.svetacdn.in/si4jsFRrtgrT/tv-series/8132"},{"id":8129,"title":"Судьбы сестер","kp_id":"424019","imdb_id":"tt1282336","world_art_id":null,"type":"serial","add":"2020-07-09 12:42:22","orig_title":"Küçük Kadinlar","year":"2008-06-10","translations":["Профессиональный (многоголосый закадровый)"],"seasons_count":3,"episodes_count":143,"episodes":52,"update":"2020-07-12 15:18:27","iframe_src":"//7720.svetacdn.in/si4jsFRrtgrT/tv-series/8129"},{"id":8120,"title":"Жизнь и приключения Джунипер Ли","kp_id":"567137","imdb_id":"tt0419348","world_art_id":null,"type":"serial","add":"2020-07-08 10:40:00","orig_title":"The Life and Times of Juniper Lee","year":"2005-05-30","translations":["Полное дублирование"],"seasons_count":3,"episodes_count":38,"episodes":14,"update":"2020-07-12 13:22:19","iframe_src":"//7720.svetacdn.in/si4jsFRrtgrT/tv-series/8120"},{"id":8111,"title":"Улыбки хватит","kp_id":"1141344","imdb_id":"tt8019142","world_art_id":null,"type":"serial","add":"2020-07-07 12:19:23","orig_title":"Gülümse Yeter","year":"2016-07-12","translations":["Любительский (двухголосый закадровый) (Анастасия Гайдаржи + Андрей Юрченко)"],"seasons_count":1,"episodes_count":2,"episodes":2,"update":"2020-07-12 13:08:15","iframe_src":"//7720.svetacdn.in/si4jsFRrtgrT/tv-series/8111"},{"id":8110,"title":"Сумасшедший ветер","kp_id":"1172410","imdb_id":"tt8295372","world_art_id":null,"type":"serial","add":"2020-07-07 12:15:30","orig_title":"Bir Deli Rüzgar","year":"2018-09-15","translations":["Любительский (двухголосый закадровый) (SesDizi | DiziMania)"],"seasons_count":1,"episodes_count":6,"episodes":6,"update":"2020-07-12 13:07:27","iframe_src":"//7720.svetacdn.in/si4jsFRrtgrT/tv-series/8110"},{"id":8109,"title":"Враг в моем доме","kp_id":"1112361","imdb_id":"tt7947618","world_art_id":null,"type":"serial","add":"2020-07-07 12:06:13","orig_title":"Yuvamdaki Dusman","year":"2018-01-25","translations":["Любительский (двухголосый закадровый) (TurkStar)"],"seasons_count":1,"episodes_count":6,"episodes":6,"update":"2020-07-12 12:58:31","iframe_src":"//7720.svetacdn.in/si4jsFRrtgrT/tv-series/8109"},{"id":8106,"title":"Что ни сделает влюбленный","kp_id":"1049274","imdb_id":"tt7349562","world_art_id":null,"type":"serial","add":"2020-07-07 11:15:36","orig_title":"Seven Ne Yapmaz","year":"2017-06-09","translations":["Любительский (одноголосый закадровый) (Гайдаржи Анастасия)"],"seasons_count":1,"episodes_count":11,"episodes":11,"update":"2020-07-12 12:40:28","iframe_src":"//7720.svetacdn.in/si4jsFRrtgrT/tv-series/8106"},{"id":8096,"title":"Поиск","kp_id":"1389231","imdb_id":"tt12364156","world_art_id":null,"type":"serial","add":"2020-07-06 06:01:05","orig_title":"Historia de un Crimen: La Busqueda","year":"2020-06-12","translations":["Любительский (многоголосый закадровый) (Octopus)"],"seasons_count":1,"episodes_count":6,"episodes":6,"update":"2020-07-11 18:28:56","iframe_src":"//7720.svetacdn.in/si4jsFRrtgrT/tv-series/8096"},{"id":8094,"title":"Братья по крови","kp_id":"1306648","imdb_id":"tt11009944","world_art_id":null,"type":"serial","add":"2020-07-06 05:17:09","orig_title":"Grow","year":"2020-08-16","translations":["Любительский (многоголосый закадровый) (Octopus)","Любительский (многоголосый закадровый) (ColdFilm)"],"seasons_count":1,"episodes_count":8,"episodes":8,"update":"2020-07-13 10:34:07","iframe_src":"//7720.svetacdn.in/si4jsFRrtgrT/tv-series/8094"},{"id":41048,"title":"Удушье","kp_id":"1382837","imdb_id":"tt11651780","world_art_id":null,"type":"movie","add":"2020-06-08 20:14:41","orig_title":"Choked","year":"2020-06-05","translations":["Любительский (многоголосый закадровый) (Синема УС)","Любительский (двухголосый закадровый) (OnisFilms)"],"quality":"webdl","translation":"Любительский (многоголосый закадровый) (Синема УС)","update":"2021-05-04 10:42:53","iframe_src":"//7720.svetacdn.in/si4jsFRrtgrT/movie/41048"},{"id":39285,"title":"Принц моих грез","kp_id":"575150","imdb_id":"tt1781948","world_art_id":null,"type":"movie","add":"2020-04-14 08:14:13","orig_title":"Vastadu Naa Raju","year":"2011-02-11","translations":["Профессиональный (многоголосый закадровый) (Red Media)","Профессиональный (многоголосый закадровый) (Red Media)"],"quality":"hdrip","translation":"Профессиональный (многоголосый закадровый) (Red Media)","update":"2021-05-05 05:58:22","iframe_src":"//7720.svetacdn.in/si4jsFRrtgrT/movie/39285"},{"id":6122,"title":"Как ты смеешь","kp_id":"772824","imdb_id":"tt2983222","world_art_id":null,"type":"serial","add":"2019-12-24 07:11:15","orig_title":"Dare Me","year":"2019-12-29","translations":["Профессиональный (двухголосый закадровый) (IdeaFilm)","Профессиональный (двухголосый закадровый) (Gears Media)","Любительский (многоголосый закадровый) (ColdFilm)","Профессиональный (многоголосый закадровый) (TVShows)","Профессиональный (многоголосый закадровый) (BaibaKo)"],"seasons_count":1,"episodes_count":10,"episodes":10,"update":"2020-07-12 14:29:08","iframe_src":"//7720.svetacdn.in/si4jsFRrtgrT/tv-series/6122"},{"id":5875,"title":"Отдай мою мечту","kp_id":"1228579","imdb_id":null,"world_art_id":null,"type":"serial","add":"2019-11-28 06:19:47","orig_title":"Отдай мою мечту","year":"2018-10-22","translations":["Оригинальная дорожка"],"seasons_count":1,"episodes_count":16,"episodes":16,"update":"2020-07-11 10:57:44","iframe_src":"//7720.svetacdn.in/si4jsFRrtgrT/tv-series/5875"},{"id":5817,"title":"Поток","kp_id":"1117141","imdb_id":"tt8005176","world_art_id":null,"type":"serial","add":"2019-11-23 15:36:10","orig_title":"The Feed","year":"2019-11-22","translations":["Любительский (многоголосый закадровый) (ColdFilm)","Любительский (многоголосый закадровый) (Octopus)","Профессиональный (многоголосый закадровый) (Lucky Production)","Профессиональный (многоголосый закадровый) (TVShows)","Профессиональный (двухголосый закадровый) (IdeaFilm)","Профессиональный (многоголосый закадровый) (NewStudio)"],"seasons_count":1,"episodes_count":10,"episodes":10,"update":"2020-07-13 14:16:57","iframe_src":"//7720.svetacdn.in/si4jsFRrtgrT/tv-series/5817"},{"id":31764,"title":"Айла: Дочь войны","kp_id":"1032522","imdb_id":"tt6316138","world_art_id":null,"type":"movie","add":"2019-10-12 17:41:12","orig_title":"Ayla: The Daughter of War","year":"2017-09-08","translations":["Любительский (многоголосый закадровый) (Синема УС)","Профессиональный (многоголосый закадровый) (FocusX)"],"quality":"webdl","translation":"Любительский (многоголосый закадровый) (Синема УС)","update":"2021-05-05 06:17:27","iframe_src":"//7720.svetacdn.in/si4jsFRrtgrT/movie/31764"},{"id":5417,"title":"Почти семья","kp_id":"1254266","imdb_id":"tt9165444","world_art_id":null,"type":"serial","add":"2019-10-07 18:38:21","orig_title":"Almost Family","year":"2019-10-02","translations":["Профессиональный (многоголосый закадровый) (NewStudio)","Профессиональный (многоголосый закадровый) (TVShows)"],"seasons_count":1,"episodes_count":13,"episodes":13,"update":"2020-07-12 14:32:25","iframe_src":"//7720.svetacdn.in/si4jsFRrtgrT/tv-series/5417"},{"id":29798,"title":"Пятница","kp_id":"4809","imdb_id":"tt0113118","world_art_id":null,"type":"movie","add":"2019-08-06 19:15:01","orig_title":"Friday","year":"1995-04-26","translations":["Авторский (одноголосый закадровый) (Санаев Павел)","Профессиональный (многоголосый закадровый)","Авторский (одноголосый закадровый) (Санаев Павел)","Original (English)","Профессиональный (одноголосый закадровый) (диктор CDV)"],"quality":"dvdrip","translation":"Авторский (одноголосый закадровый) (Санаев Павел)","update":"2021-05-04 10:48:55","iframe_src":"//7720.svetacdn.in/si4jsFRrtgrT/movie/29798"},{"id":1930,"title":"Чёрный рыцарь","kp_id":"1049362","imdb_id":"tt7608190","world_art_id":null,"type":"serial","add":"2018-01-08 13:48:12","orig_title":"Heukgisa","year":"2017-12-06","translations":["Любительский (двухголосый закадровый) (GREEN TEA)","Любительский (двухголосый закадровый) (SoftBox)"],"seasons_count":1,"episodes_count":20,"episodes":20,"update":"2020-07-13 09:11:58","iframe_src":"//7720.svetacdn.in/si4jsFRrtgrT/tv-series/1930"},{"id":1642,"title":"Бабий бунт, или Война в Новоселково","kp_id":"759622","imdb_id":null,"world_art_id":null,"type":"serial","add":"2017-10-15 17:36:14","orig_title":"Бабий бунт, или Война в Новоселково","year":"2017-10-14","translations":["Оригинальная дорожка"],"seasons_count":1,"episodes_count":12,"episodes":12,"update":"2020-07-13 14:57:41","iframe_src":"//7720.svetacdn.in/si4jsFRrtgrT/tv-series/1642"},{"id":3549,"title":"Впритык","kp_id":"464282","imdb_id":"tt1231583","world_art_id":null,"type":"movie","add":"2016-06-30 19:13:48","orig_title":"Due Date","year":"2010-10-31","translations":["Полное дублирование","Original (English)","Полное дублирование (Мосфильм)","Авторский (одноголосый закадровый) (Сербин Юрий)","Original (English)","Любительский (одноголосый закадровый)","Любительский (одноголосый закадровый) (seqw0 | Ахметов, Сергей)"],"quality":"bd","translation":"Полное дублирование","update":"2021-05-04 10:11:47","iframe_src":"//7720.svetacdn.in/si4jsFRrtgrT/movie/3549"},{"id":7,"title":"Трудности ассимиляции","kp_id":"840002","imdb_id":"tt3551096","world_art_id":null,"type":"serial","add":"2016-03-04 18:03:55","orig_title":"Fresh Off the Boat","year":"2015-02-04","translations":["Любительский (двухголосый закадровый) (Причудики)","Профессиональный (многоголосый закадровый) (Paramount Comedy)","Полное дублирование (True Dubbing Studio)","Любительский (двухголосый закадровый) (Sunshine Studio)","Профессиональный (многоголосый закадровый) (TVShows)"],"seasons_count":6,"episodes_count":116,"episodes":15,"update":"2020-07-12 14:25:49","iframe_src":"//7720.svetacdn.in/si4jsFRrtgrT/tv-series/7"},{"id":167,"title":"Искатель воды","kp_id":"773074","imdb_id":"tt3007512","world_art_id":null,"type":"movie","add":"2016-02-23 11:37:28","orig_title":"The Water Diviner","year":"2014-12-11","translations":["Полное дублирование","Полное дублирование (iTunes)","Original (English)","Авторский (одноголосый закадровый) (Матвеев Алексей | Doctor Joker)"],"quality":"bd","translation":"Полное дублирование","update":"2021-05-05 06:01:34","iframe_src":"//7720.svetacdn.in/si4jsFRrtgrT/movie/167"}],"current_page":219,"first_page_url":"https://videocdn.tv/api/short?limit=100&api_token=X6EwAUfE5M9xbo7y0Bp0aPf3uXxG2KLL&cache3219=3219&page=1","from":21801,"last_page":653,"last_page_url":"https://videocdn.tv/api/short?limit=100&api_token=X6EwAUfE5M9xbo7y0Bp0aPf3uXxG2KLL&cache3219=3219&page=653","next_page_url":"https://videocdn.tv/api/short?limit=100&api_token=X6EwAUfE5M9xbo7y0Bp0aPf3uXxG2KLL&cache3219=3219&page=220","path":"https://videocdn.tv/api/short","per_page":100,"prev_page_url":"https://videocdn.tv/api/short?limit=100&api_token=X6EwAUfE5M9xbo7y0Bp0aPf3uXxG2KLL&cache3219=3219&page=218","to":21840,"total":65279}