{"result":true,"data":[{"id":39277,"title":"Патрик","kp_id":"1184662","imdb_id":"tt7618604","world_art_id":null,"type":"movie","add":"2020-04-14 07:45:19","orig_title":"De Patrick","year":"2019-07-01","translations":["Любительский (одноголосый закадровый)"],"quality":"webdl","translation":"Любительский (одноголосый закадровый)","update":"2020-04-14 09:12:58","iframe_src":"//8332.svetacdn.in/si4jsFRrtgrT/movie/39277"},{"id":39275,"title":"Проклятая гора","kp_id":"1162570","imdb_id":"tt8443724","world_art_id":null,"type":"movie","add":"2020-04-14 05:06:07","orig_title":"Mali i Harrum","year":"2018-11-29","translations":["Любительский (многоголосый закадровый) (Синема УС)"],"quality":"webdl","translation":"Любительский (многоголосый закадровый) (Синема УС)","update":"2020-04-14 07:06:20","iframe_src":"//8332.svetacdn.in/si4jsFRrtgrT/movie/39275"},{"id":39274,"title":"Поезд","kp_id":null,"imdb_id":"tt7613260","world_art_id":null,"type":"movie","add":"2020-04-14 05:05:27","orig_title":"Keteke","year":"2017-03-04","translations":["Любительский (многоголосый закадровый) (Синема УС)"],"quality":"webdl","translation":"Любительский (многоголосый закадровый) (Синема УС)","update":"2020-04-14 07:02:57","iframe_src":"//8332.svetacdn.in/si4jsFRrtgrT/movie/39274"},{"id":39273,"title":"Эвертон: Путь Говарда","kp_id":"1304314","imdb_id":"tt10890570","world_art_id":null,"type":"movie","add":"2020-04-14 05:04:30","orig_title":"Everton, Howard's Way","year":"2019-11-11","translations":["Любительский (многоголосый закадровый) (Синема УС)"],"quality":"webdl","translation":"Любительский (многоголосый закадровый) (Синема УС)","update":"2020-04-14 09:13:44","iframe_src":"//8332.svetacdn.in/si4jsFRrtgrT/movie/39273"},{"id":39272,"title":"Слон","kp_id":null,"imdb_id":"tt12036052","world_art_id":null,"type":"movie","add":"2020-04-14 05:03:49","orig_title":"Elephant","year":"2020-04-03","translations":["Любительский (многоголосый закадровый) (Синема УС)"],"quality":"webdl","translation":"Любительский (многоголосый закадровый) (Синема УС)","update":"2020-04-14 07:39:34","iframe_src":"//8332.svetacdn.in/si4jsFRrtgrT/movie/39272"},{"id":39271,"title":"Рай","kp_id":"1350039","imdb_id":"tt11732624","world_art_id":null,"type":"movie","add":"2020-04-14 05:01:50","orig_title":"Paradies","year":"2020-01-14","translations":["Любительский (многоголосый закадровый) (Синема УС)"],"quality":"webdl","translation":"Любительский (многоголосый закадровый) (Синема УС)","update":"2020-04-14 07:03:57","iframe_src":"//8332.svetacdn.in/si4jsFRrtgrT/movie/39271"},{"id":39270,"title":"Разрыв мозга","kp_id":"1164961","imdb_id":"tt8603122","world_art_id":null,"type":"movie","add":"2020-04-14 05:01:02","orig_title":"Kopfplatzen","year":"2019-10-18","translations":["Любительский (многоголосый закадровый) (Синема УС)"],"quality":"webdl","translation":"Любительский (многоголосый закадровый) (Синема УС)","update":"2020-04-14 07:19:28","iframe_src":"//8332.svetacdn.in/si4jsFRrtgrT/movie/39270"},{"id":39269,"title":"Время линьки","kp_id":null,"imdb_id":"tt11758900","world_art_id":null,"type":"movie","add":"2020-04-14 05:00:13","orig_title":"Fellwechselzeit","year":"2020-01-21","translations":["Любительский (многоголосый закадровый) (Синема УС)"],"quality":"webdl","translation":"Любительский (многоголосый закадровый) (Синема УС)","update":"2020-04-14 07:05:11","iframe_src":"//8332.svetacdn.in/si4jsFRrtgrT/movie/39269"},{"id":39268,"title":"Спарринг-партнер","kp_id":"999813","imdb_id":"tt5988246","world_art_id":null,"type":"movie","add":"2020-04-14 04:59:20","orig_title":"El Chata","year":"2018-04-05","translations":["Любительский (многоголосый закадровый) (Синема УС)"],"quality":"webdl","translation":"Любительский (многоголосый закадровый) (Синема УС)","update":"2020-04-14 07:18:29","iframe_src":"//8332.svetacdn.in/si4jsFRrtgrT/movie/39268"},{"id":39263,"title":"Капитал в XXI веке","kp_id":"981222","imdb_id":"tt5723056","world_art_id":null,"type":"movie","add":"2020-04-13 20:24:04","orig_title":"Capital in the Twenty-First Century","year":"2019-06-13","translations":["Профессиональный (двухголосый закадровый)"],"quality":"webdl","translation":"Профессиональный (двухголосый закадровый)","update":"2020-04-14 04:55:23","iframe_src":"//8332.svetacdn.in/si4jsFRrtgrT/movie/39263"},{"id":39262,"title":"Лесные чудики","kp_id":"884456","imdb_id":"tt4331488","world_art_id":null,"type":"movie","add":"2020-04-13 19:44:42","orig_title":"The Great Unwashed","year":"2017-10-26","translations":["Любительский (многоголосый закадровый) (Синема УС)"],"quality":"webdl","translation":"Любительский (многоголосый закадровый) (Синема УС)","update":"2020-04-14 07:08:54","iframe_src":"//8332.svetacdn.in/si4jsFRrtgrT/movie/39262"},{"id":39215,"title":"Ангел, ангел, вниз мы идем","kp_id":"20246","imdb_id":"tt0065602","world_art_id":null,"type":"movie","add":"2020-04-13 06:54:47","orig_title":"Angel, Angel, Down We Go","year":"1969-08-19","translations":["Профессиональный (двухголосый закадровый) (НТВ)"],"quality":"hdtv","translation":"Профессиональный (двухголосый закадровый) (НТВ)","update":"2020-04-13 17:36:09","iframe_src":"//8332.svetacdn.in/si4jsFRrtgrT/movie/39215"},{"id":39212,"title":"Сумеречная сеть","kp_id":"521376","imdb_id":"tt1436571","world_art_id":null,"type":"movie","add":"2020-04-13 06:36:56","orig_title":"Beacon77","year":"2009-11-07","translations":["Профессиональный (двухголосый закадровый) (R5)"],"quality":"bd","translation":"Профессиональный (двухголосый закадровый) (R5)","update":"2020-04-14 04:56:39","iframe_src":"//8332.svetacdn.in/si4jsFRrtgrT/movie/39212"},{"id":36541,"title":"Матч бедняка","kp_id":"256462","imdb_id":"tt0816616","world_art_id":null,"type":"movie","add":"2020-02-19 13:39:37","orig_title":"Poor Boy's Game","year":"2007-02-11","translations":["Любительский (двухголосый закадровый)","Original (English)"],"quality":"bd","translation":"Любительский (двухголосый закадровый)","update":"2020-04-14 11:36:53","iframe_src":"//8332.svetacdn.in/si4jsFRrtgrT/movie/36541"},{"id":36337,"title":"Дьявольские игры","kp_id":"481023","imdb_id":"tt1453245","world_art_id":null,"type":"movie","add":"2020-02-16 17:24:24","orig_title":"Devil's Playground","year":"2010-08-21","translations":["Любительский (двухголосый закадровый)","Любительский (одноголосый закадровый)  (zamez | Замез Вячеслав)","Original (English)"],"quality":"bd","translation":"Любительский (двухголосый закадровый)","update":"2020-04-14 11:34:03","iframe_src":"//8332.svetacdn.in/si4jsFRrtgrT/movie/36337"},{"id":36331,"title":"Высшая школа рок-н-ролла","kp_id":"21781","imdb_id":"tt0079813","world_art_id":null,"type":"movie","add":"2020-02-16 17:03:22","orig_title":"Rock 'n' Roll High School","year":"1979-04-20","translations":["Любительский (одноголосый закадровый) (Севастьянов Никита)","Original (English)"],"quality":"bd","translation":"Любительский (одноголосый закадровый) (Севастьянов Никита)","update":"2020-04-14 11:37:54","iframe_src":"//8332.svetacdn.in/si4jsFRrtgrT/movie/36331"},{"id":33903,"title":"Грустная история","kp_id":"1246777","imdb_id":"tt9285882","world_art_id":null,"type":"movie","add":"2019-12-10 06:02:21","orig_title":"Blue Story","year":"2019-11-22","translations":["Любительский (многоголосый закадровый) (@MUZOBOZ@)"],"quality":"webdl","translation":"Любительский (многоголосый закадровый) (@MUZOBOZ@)","update":"2020-04-14 09:49:34","iframe_src":"//8332.svetacdn.in/si4jsFRrtgrT/movie/33903"},{"id":7948,"title":"Идеальное создание","kp_id":"77719","imdb_id":"tt0403407","world_art_id":null,"type":"movie","add":"2016-12-08 13:27:56","orig_title":"Perfect Creature","year":"2006-04-24","translations":["Профессиональный (многоголосый закадровый)"],"quality":"bd","translation":"Профессиональный (многоголосый закадровый)","update":"2020-04-14 04:57:26","iframe_src":"//8332.svetacdn.in/si4jsFRrtgrT/movie/7948"},{"id":6088,"title":"Полицейский из Беверли-Хиллз 2","kp_id":"2316","imdb_id":"tt0092644","world_art_id":null,"type":"movie","add":"2016-10-11 05:54:08","orig_title":"Beverly Hills Cop II","year":"1987-05-19","translations":["Профессиональный (многоголосый закадровый) (Киномания)","Профессиональный (многоголосый закадровый)","Авторский (одноголосый закадровый) (Дохалов Вартан)","Авторский (одноголосый закадровый) (Горчаков Василий)","Авторский (одноголосый закадровый) (Михалёв Алексей)","Авторский (одноголосый закадровый) (Яроцкий Михаил | Kyberpunk)","Профессиональный (многоголосый закадровый) (СТС)","Original (English)"],"quality":"bd","translation":"Профессиональный (многоголосый закадровый) (Киномания)","update":"2020-04-14 11:32:17","iframe_src":"//8332.svetacdn.in/si4jsFRrtgrT/movie/6088"},{"id":1899,"title":"На расстоянии удара","kp_id":"2683","imdb_id":"tt0108238","world_art_id":null,"type":"movie","add":"2016-05-05 12:30:02","orig_title":"Striking Distance","year":"1993-09-17","translations":["Профессиональный (многоголосый закадровый)","Авторский (одноголосый закадровый) (Гаврилов Андрей)","Полное дублирование","Original (English)"],"quality":"bd","translation":"Профессиональный (многоголосый закадровый)","update":"2020-04-14 11:38:57","iframe_src":"//8332.svetacdn.in/si4jsFRrtgrT/movie/1899"}],"current_page":769,"first_page_url":"https://videocdn.tv/api/short?limit=100&api_token=X6EwAUfE5M9xbo7y0Bp0aPf3uXxG2KLL&cache3769=3769&page=1","from":76801,"last_page":634,"last_page_url":"https://videocdn.tv/api/short?limit=100&api_token=X6EwAUfE5M9xbo7y0Bp0aPf3uXxG2KLL&cache3769=3769&page=634","next_page_url":null,"path":"https://videocdn.tv/api/short","per_page":100,"prev_page_url":"https://videocdn.tv/api/short?limit=100&api_token=X6EwAUfE5M9xbo7y0Bp0aPf3uXxG2KLL&cache3769=3769&page=768","to":76820,"total":63356}