{"result":true,"data":[{"id":34636,"title":"Эдуард Суровый. Слезы Брайтона","kp_id":"1330039","imdb_id":null,"world_art_id":null,"type":"movie","add":"2019-12-31 11:32:28","orig_title":"Эдуард Суровый. Слезы Брайтона","year":"2019-12-30","translations":["Оригинальная дорожка"],"quality":"webdl","translation":"Оригинальная дорожка","update":"2019-12-31 12:56:47","iframe_src":"//8543.svetacdn.in/71tsRs29n5tZ/movie/34636"},{"id":34567,"title":"Драка за сокровище","kp_id":"77922","imdb_id":"tt0314060","world_art_id":null,"type":"movie","add":"2019-12-28 23:36:21","orig_title":"Fei che long hu dou","year":"1975-02-02","translations":["Любительский (одноголосый закадровый)"],"quality":"dvdrip","translation":"Любительский (одноголосый закадровый)","update":"2019-12-31 14:18:12","iframe_src":"//8543.svetacdn.in/71tsRs29n5tZ/movie/34567"},{"id":34566,"title":"Железная обезьяна 2","kp_id":"231956","imdb_id":"tt0165729","world_art_id":null,"type":"movie","add":"2019-12-28 23:32:51","orig_title":"Jue dou Lao Hu Zhuang","year":"1978-06-18","translations":["Авторский (одноголосый закадровый) (Визгунов Сергей)"],"quality":"dvdrip","translation":"Авторский (одноголосый закадровый) (Визгунов Сергей)","update":"2019-12-31 14:17:32","iframe_src":"//8543.svetacdn.in/71tsRs29n5tZ/movie/34566"},{"id":34565,"title":"Китайская камера пыток 2","kp_id":"154554","imdb_id":"tt0289115","world_art_id":null,"type":"movie","add":"2019-12-28 23:30:14","orig_title":"Man qing shi da ku xing zhi Chi luo ling chi","year":"1998-09-18","translations":["Любительский (одноголосый закадровый) (Береговых Виктор | Jet)"],"quality":"dvdrip","translation":"Любительский (одноголосый закадровый) (Береговых Виктор | Jet)","update":"2019-12-31 14:16:51","iframe_src":"//8543.svetacdn.in/71tsRs29n5tZ/movie/34565"},{"id":34564,"title":"Солнечная долина","kp_id":"199371","imdb_id":"tt0124852","world_art_id":null,"type":"movie","add":"2019-12-28 23:27:08","orig_title":"Ri guang xia gu","year":"1996-05-30","translations":["Любительский (одноголосый закадровый) (Береговых Виктор | Jet)"],"quality":"dvdrip","translation":"Любительский (одноголосый закадровый) (Береговых Виктор | Jet)","update":"2019-12-31 14:16:19","iframe_src":"//8543.svetacdn.in/71tsRs29n5tZ/movie/34564"},{"id":34562,"title":"Ниндзя 8: Огненное воинство","kp_id":"173487","imdb_id":"tt0202093","world_art_id":null,"type":"movie","add":"2019-12-28 23:20:24","orig_title":"Ninja and the Warriors of Fire","year":"1987-01-01","translations":["Авторский (одноголосый закадровый) (Гаврилов Андрей)","Авторский (одноголосый закадровый) (Кашкин Александр | Первомайский)"],"quality":"vhs","translation":"Авторский (одноголосый закадровый) (Гаврилов Андрей)","update":"2019-12-31 14:15:33","iframe_src":"//8543.svetacdn.in/71tsRs29n5tZ/movie/34562"},{"id":34560,"title":"Судья-лучник","kp_id":"720183","imdb_id":"tt2543698","world_art_id":null,"type":"movie","add":"2019-12-28 23:16:46","orig_title":"Jian shi liu bai yuan","year":"2012-11-22","translations":["Любительский (одноголосый закадровый) (Береговых Виктор | Jet)"],"quality":"dvdrip","translation":"Любительский (одноголосый закадровый) (Береговых Виктор | Jet)","update":"2019-12-31 14:10:23","iframe_src":"//8543.svetacdn.in/71tsRs29n5tZ/movie/34560"},{"id":34558,"title":"Красный меч","kp_id":"712735","imdb_id":"tt2435174","world_art_id":null,"type":"movie","add":"2019-12-28 23:14:14","orig_title":"Hontô wa eroi Gurimu dôwa: Reddo suwôdo","year":"2012-03-03","translations":["Любительский (одноголосый закадровый) (Береговых Виктор | Jet)"],"quality":"dvdrip","translation":"Любительский (одноголосый закадровый) (Береговых Виктор | Jet)","update":"2019-12-31 14:09:27","iframe_src":"//8543.svetacdn.in/71tsRs29n5tZ/movie/34558"},{"id":34557,"title":"Мент с крутой пушкой","kp_id":"518368","imdb_id":"tt1643240","world_art_id":null,"type":"movie","add":"2019-12-28 23:11:42","orig_title":"Mue prab puen hode","year":"1996-01-06","translations":["Любительский (одноголосый закадровый) (Береговых Виктор | Jet)"],"quality":"dvdrip","translation":"Любительский (одноголосый закадровый) (Береговых Виктор | Jet)","update":"2019-12-31 14:08:24","iframe_src":"//8543.svetacdn.in/71tsRs29n5tZ/movie/34557"},{"id":34556,"title":"Легенда о герое со сломанным мечом","kp_id":"1047112","imdb_id":"tt6538906","world_art_id":null,"type":"movie","add":"2019-12-28 23:09:14","orig_title":"Thong Dee Fun Khao","year":"2017-02-09","translations":["Любительский (одноголосый закадровый) (Береговых Виктор | Jet)"],"quality":"dvdrip","translation":"Любительский (одноголосый закадровый) (Береговых Виктор | Jet)","update":"2019-12-31 13:18:57","iframe_src":"//8543.svetacdn.in/71tsRs29n5tZ/movie/34556"},{"id":34555,"title":"Магия шахматного бокса","kp_id":"268404","imdb_id":"tt0199813","world_art_id":null,"type":"movie","add":"2019-12-28 23:05:45","orig_title":"Shuang ma lian huan","year":"1979-01-01","translations":["Любительский (одноголосый закадровый) (Береговых Виктор | Jet)"],"quality":"vhs","translation":"Любительский (одноголосый закадровый) (Береговых Виктор | Jet)","update":"2019-12-31 12:49:22","iframe_src":"//8543.svetacdn.in/71tsRs29n5tZ/movie/34555"},{"id":34554,"title":"Наложница","kp_id":"692519","imdb_id":"tt2544120","world_art_id":null,"type":"movie","add":"2019-12-28 23:00:37","orig_title":"Hoo-goong: Je-wang-eui cheob","year":"2012-06-06","translations":["Любительский (двухголосый закадровый)"],"quality":"bd","translation":"Любительский (двухголосый закадровый)","update":"2019-12-31 12:48:32","iframe_src":"//8543.svetacdn.in/71tsRs29n5tZ/movie/34554"},{"id":34553,"title":"Нефритовый стебель","kp_id":"197948","imdb_id":"tt2639586","world_art_id":null,"type":"movie","add":"2019-12-28 22:56:57","orig_title":"Yu pu tuan zhi yang wu xing jiao","year":"1999-11-06","translations":["Любительский (одноголосый закадровый) (Береговых Виктор | Jet)"],"quality":"dvdrip","translation":"Любительский (одноголосый закадровый) (Береговых Виктор | Jet)","update":"2019-12-31 12:47:43","iframe_src":"//8543.svetacdn.in/71tsRs29n5tZ/movie/34553"},{"id":34552,"title":"Обнаженная убийца","kp_id":"36880","imdb_id":"tt0109412","world_art_id":null,"type":"movie","add":"2019-12-28 22:53:45","orig_title":"Chik loh goh yeung","year":"1992-12-03","translations":["Любительский (одноголосый закадровый)"],"quality":"dvdrip","translation":"Любительский (одноголосый закадровый)","update":"2019-12-31 12:46:40","iframe_src":"//8543.svetacdn.in/71tsRs29n5tZ/movie/34552"},{"id":34551,"title":"Потомок солнца","kp_id":"56261","imdb_id":"tt0084594","world_art_id":null,"type":"movie","add":"2019-12-28 22:50:29","orig_title":"Ri jie","year":"1983-12-16","translations":["Любительский (одноголосый закадровый)"],"quality":"dvdrip","translation":"Любительский (одноголосый закадровый)","update":"2019-12-31 12:00:22","iframe_src":"//8543.svetacdn.in/71tsRs29n5tZ/movie/34551"},{"id":34504,"title":"Демон","kp_id":"315896","imdb_id":"tt0202434","world_art_id":null,"type":"movie","add":"2019-12-26 19:16:23","orig_title":"Kichiku","year":"1978-10-07","translations":["Авторский (одноголосый закадровый) (Воротилин Олег)"],"quality":"bd","translation":"Авторский (одноголосый закадровый) (Воротилин Олег)","update":"2019-12-31 14:29:28","iframe_src":"//8543.svetacdn.in/71tsRs29n5tZ/movie/34504"},{"id":34251,"title":"Любовь и смерть","kp_id":"265860","imdb_id":"tt0499518","world_art_id":null,"type":"movie","add":"2019-12-18 18:23:13","orig_title":"LoveDeath","year":"2006-02-24","translations":["Профессиональный (многоголосый закадровый)"],"quality":"bd","translation":"Профессиональный (многоголосый закадровый)","update":"2019-12-31 14:27:21","iframe_src":"//8543.svetacdn.in/71tsRs29n5tZ/movie/34251"},{"id":34250,"title":"Мама каждый день","kp_id":"542991","imdb_id":"tt1694115","world_art_id":null,"type":"movie","add":"2019-12-18 18:20:21","orig_title":"Mainichi kâsan","year":"2011-02-05","translations":["Любительский (одноголосый закадровый)"],"quality":"bd","translation":"Любительский (одноголосый закадровый)","update":"2019-12-31 14:30:51","iframe_src":"//8543.svetacdn.in/71tsRs29n5tZ/movie/34250"},{"id":34180,"title":"Месть","kp_id":"135420","imdb_id":"tt0065450","world_art_id":null,"type":"movie","add":"2019-12-16 18:56:28","orig_title":"Bao chou","year":"1970-05-14","translations":["Профессиональный (двухголосый закадровый)"],"quality":"bd","translation":"Профессиональный (двухголосый закадровый)","update":"2019-12-31 14:28:30","iframe_src":"//8543.svetacdn.in/71tsRs29n5tZ/movie/34180"},{"id":34117,"title":"Горы Хаккода","kp_id":"143858","imdb_id":"tt0203549","world_art_id":null,"type":"movie","add":"2019-12-15 16:59:06","orig_title":"Hakkodasan","year":"1977-06-04","translations":["Авторский (одноголосый закадровый) (Данилов Владислав | Kenum)"],"quality":"bd","translation":"Авторский (одноголосый закадровый) (Данилов Владислав | Kenum)","update":"2019-12-31 14:26:19","iframe_src":"//8543.svetacdn.in/71tsRs29n5tZ/movie/34117"}],"current_page":864,"first_page_url":"https://videocdn.tv/api/short?limit=100&api_token=EnbO9h8pv1VyjbCJhg0WM9nG259n7mtz&cache3864=3864&page=1","from":86301,"last_page":605,"last_page_url":"https://videocdn.tv/api/short?limit=100&api_token=EnbO9h8pv1VyjbCJhg0WM9nG259n7mtz&cache3864=3864&page=605","next_page_url":null,"path":"https://videocdn.tv/api/short","per_page":100,"prev_page_url":"https://videocdn.tv/api/short?limit=100&api_token=EnbO9h8pv1VyjbCJhg0WM9nG259n7mtz&cache3864=3864&page=863","to":86320,"total":60438}