{"result":true,"data":[{"id":39277,"title":"Патрик","kp_id":"1184662","imdb_id":"tt7618604","world_art_id":null,"type":"movie","add":"2020-04-14 07:45:19","orig_title":"De Patrick","year":"2019-07-01","translations":["Любительский (одноголосый закадровый)"],"quality":"webdl","translation":"Любительский (одноголосый закадровый)","update":"2020-04-14 09:12:58","iframe_src":"//8944266444.svetacdn.in/PfJ50H0ZBPg3/movie/39277"},{"id":39278,"title":"Линия паса","kp_id":"385385","imdb_id":"tt0803029","world_art_id":null,"type":"movie","add":"2020-04-14 07:41:45","orig_title":"Linha de Passe","year":"2008-05-17","translations":["Любительский (одноголосый закадровый)"],"quality":"dvdrip","translation":"Любительский (одноголосый закадровый)","update":"2020-04-14 11:56:40","iframe_src":"//8944266444.svetacdn.in/PfJ50H0ZBPg3/movie/39278"},{"id":39273,"title":"Эвертон: Путь Говарда","kp_id":"1304314","imdb_id":"tt10890570","world_art_id":null,"type":"movie","add":"2020-04-14 05:04:30","orig_title":"Everton, Howard's Way","year":"2019-11-11","translations":["Любительский (многоголосый закадровый) (Синема УС)"],"quality":"webdl","translation":"Любительский (многоголосый закадровый) (Синема УС)","update":"2020-04-14 09:13:44","iframe_src":"//8944266444.svetacdn.in/PfJ50H0ZBPg3/movie/39273"},{"id":39272,"title":"Слон","kp_id":null,"imdb_id":"tt12036052","world_art_id":null,"type":"movie","add":"2020-04-14 05:03:49","orig_title":"Elephant","year":"2020-04-03","translations":["Любительский (многоголосый закадровый) (Синема УС)"],"quality":"webdl","translation":"Любительский (многоголосый закадровый) (Синема УС)","update":"2020-04-14 07:39:34","iframe_src":"//8944266444.svetacdn.in/PfJ50H0ZBPg3/movie/39272"},{"id":39270,"title":"Разрыв мозга","kp_id":"1164961","imdb_id":"tt8603122","world_art_id":null,"type":"movie","add":"2020-04-14 05:01:02","orig_title":"Kopfplatzen","year":"2019-10-18","translations":["Любительский (многоголосый закадровый) (Синема УС)"],"quality":"webdl","translation":"Любительский (многоголосый закадровый) (Синема УС)","update":"2020-04-14 07:19:28","iframe_src":"//8944266444.svetacdn.in/PfJ50H0ZBPg3/movie/39270"},{"id":37434,"title":"Наказание","kp_id":"557759","imdb_id":"tt1701990","world_art_id":null,"type":"movie","add":"2020-03-05 09:47:15","orig_title":"Detention","year":"2011-03-13","translations":["Профессиональный (многоголосый закадровый)","[EN] Original (English)"],"quality":"bd","translation":"Профессиональный (многоголосый закадровый)","update":"2020-04-14 12:28:26","iframe_src":"//8944266444.svetacdn.in/PfJ50H0ZBPg3/movie/37434"},{"id":37162,"title":"Под перекрестным огнем","kp_id":"532975","imdb_id":"tt1449379","world_art_id":null,"type":"movie","add":"2020-03-01 07:16:39","orig_title":"Caught in the Crossfire","year":"2010-07-13","translations":["Профессиональный (многоголосый закадровый) (НТВ)","[EN] Original (English)"],"quality":"bd","translation":"Профессиональный (многоголосый закадровый) (НТВ)","update":"2020-04-14 12:27:23","iframe_src":"//8944266444.svetacdn.in/PfJ50H0ZBPg3/movie/37162"},{"id":37153,"title":"Всё путем!","kp_id":"484429","imdb_id":"tt1531663","world_art_id":null,"type":"movie","add":"2020-02-29 18:14:10","orig_title":"Everything Must Go","year":"2010-09-10","translations":["Профессиональный (многоголосый закадровый) (НТВ)","[EN] Original (English)"],"quality":"bd","translation":"Профессиональный (многоголосый закадровый) (НТВ)","update":"2020-04-14 12:29:43","iframe_src":"//8944266444.svetacdn.in/PfJ50H0ZBPg3/movie/37153"},{"id":36544,"title":"Одиннадцатый час","kp_id":"231154","imdb_id":"tt0492931","world_art_id":null,"type":"movie","add":"2020-02-19 13:43:28","orig_title":"The 11th Hour","year":"2007-05-19","translations":["Профессиональный (двухголосый закадровый)","[EN] Original (English)"],"quality":"webdl","translation":"Профессиональный (двухголосый закадровый)","update":"2020-04-14 12:18:26","iframe_src":"//8944266444.svetacdn.in/PfJ50H0ZBPg3/movie/36544"},{"id":36541,"title":"Матч бедняка","kp_id":"256462","imdb_id":"tt0816616","world_art_id":null,"type":"movie","add":"2020-02-19 13:39:37","orig_title":"Poor Boy's Game","year":"2007-02-11","translations":["Любительский (двухголосый закадровый)","[EN] Original (English)"],"quality":"bd","translation":"Любительский (двухголосый закадровый)","update":"2020-04-14 11:36:53","iframe_src":"//8944266444.svetacdn.in/PfJ50H0ZBPg3/movie/36541"},{"id":36342,"title":"Новая попытка Кейт МакКолл","kp_id":"528140","imdb_id":"tt1323973","world_art_id":null,"type":"movie","add":"2020-02-16 17:40:22","orig_title":"The Trials of Cate McCall","year":"2013-11-28","translations":["Профессиональный (многоголосый закадровый)","[EN] Original (English)"],"quality":"bd","translation":"Профессиональный (многоголосый закадровый)","update":"2020-04-14 11:45:17","iframe_src":"//8944266444.svetacdn.in/PfJ50H0ZBPg3/movie/36342"},{"id":36337,"title":"Дьявольские игры","kp_id":"481023","imdb_id":"tt1453245","world_art_id":null,"type":"movie","add":"2020-02-16 17:24:24","orig_title":"Devil's Playground","year":"2010-08-21","translations":["Любительский (двухголосый закадровый)","Любительский (одноголосый закадровый)  (zamez | Замез Вячеслав)","[EN] Original (English)"],"quality":"bd","translation":"Любительский (двухголосый закадровый)","update":"2020-04-14 11:34:03","iframe_src":"//8944266444.svetacdn.in/PfJ50H0ZBPg3/movie/36337"},{"id":36332,"title":"Мертвые","kp_id":"450924","imdb_id":"tt1386925","world_art_id":null,"type":"movie","add":"2020-02-16 17:05:57","orig_title":"The Dead","year":"2010-08-30","translations":["Любительский (одноголосый закадровый)  (zamez | Замез Вячеслав)","Авторский (одноголосый закадровый) (Алексеев Антон)","Профессиональный (многоголосый закадровый)","[EN] Original (English)"],"quality":"bd","translation":"Любительский (одноголосый закадровый)  (zamez | Замез Вячеслав)","update":"2020-04-14 11:41:12","iframe_src":"//8944266444.svetacdn.in/PfJ50H0ZBPg3/movie/36332"},{"id":36331,"title":"Высшая школа рок-н-ролла","kp_id":"21781","imdb_id":"tt0079813","world_art_id":null,"type":"movie","add":"2020-02-16 17:03:22","orig_title":"Rock 'n' Roll High School","year":"1979-04-20","translations":["Любительский (одноголосый закадровый) (Севастьянов Никита | seva1988)","[EN] Original (English)"],"quality":"bd","translation":"Любительский (одноголосый закадровый) (Севастьянов Никита | seva1988)","update":"2020-04-14 11:37:54","iframe_src":"//8944266444.svetacdn.in/PfJ50H0ZBPg3/movie/36331"},{"id":36133,"title":"Потоки любви","kp_id":"7758","imdb_id":"tt0087644","world_art_id":null,"type":"movie","add":"2020-02-12 13:28:22","orig_title":"Love Streams","year":"1984-02-28","translations":["Профессиональный (двухголосый закадровый) (НТВ)","Профессиональный (многоголосый закадровый) (ТВЦ)","[EN] Original (English)"],"quality":"bd","translation":"Профессиональный (двухголосый закадровый) (НТВ)","update":"2020-04-14 11:43:41","iframe_src":"//8944266444.svetacdn.in/PfJ50H0ZBPg3/movie/36133"},{"id":33903,"title":"Грустная история","kp_id":"1246777","imdb_id":"tt9285882","world_art_id":null,"type":"movie","add":"2019-12-10 06:02:21","orig_title":"Blue Story","year":"2019-11-22","translations":["Любительский (многоголосый закадровый) (@MUZOBOZ@)"],"quality":"webdl","translation":"Любительский (многоголосый закадровый) (@MUZOBOZ@)","update":"2020-04-14 09:49:34","iframe_src":"//8944266444.svetacdn.in/PfJ50H0ZBPg3/movie/33903"},{"id":31244,"title":"Беззаботная","kp_id":"325549","imdb_id":"tt1045670","world_art_id":null,"type":"movie","add":"2019-09-28 14:13:08","orig_title":"Happy-Go-Lucky","year":"2008-02-12","translations":["Профессиональный (многоголосый закадровый)","[EN] Original (English)"],"quality":"bd","translation":"Профессиональный (многоголосый закадровый)","update":"2020-04-14 12:30:51","iframe_src":"//8944266444.svetacdn.in/PfJ50H0ZBPg3/movie/31244"},{"id":10672,"title":"Незаконное вторжение","kp_id":"4055","imdb_id":"tt0105699","world_art_id":null,"type":"movie","add":"2017-04-02 18:53:55","orig_title":"Unlawful Entry","year":"1992-06-26","translations":["Профессиональный (многоголосый закадровый)","Авторский (одноголосый закадровый) (Дольский Андрей)","Авторский (одноголосый закадровый) (Гаврилов Андрей)","Авторский (одноголосый закадровый) (Горчаков Василий)","Профессиональный (двухголосый закадровый) (Премьер Видео Фильм)","[EN] Original (English)"],"quality":"bd","translation":"Профессиональный (многоголосый закадровый)","update":"2020-04-14 11:51:08","iframe_src":"//8944266444.svetacdn.in/PfJ50H0ZBPg3/movie/10672"},{"id":7238,"title":"Турбулентность","kp_id":"3456","imdb_id":"tt0120390","world_art_id":null,"type":"movie","add":"2016-11-09 05:20:19","orig_title":"Turbulence","year":"1997-01-10","translations":["Профессиональный (многоголосый закадровый)","Авторский (одноголосый закадровый) (Гаврилов Андрей)","Авторский (одноголосый закадровый) (Есарев Дмитрий)","[EN] Original (English)"],"quality":"webdl","translation":"Профессиональный (многоголосый закадровый)","update":"2020-04-14 12:20:04","iframe_src":"//8944266444.svetacdn.in/PfJ50H0ZBPg3/movie/7238"},{"id":6088,"title":"Полицейский из Беверли-Хиллз 2","kp_id":"2316","imdb_id":"tt0092644","world_art_id":null,"type":"movie","add":"2016-10-11 05:54:08","orig_title":"Beverly Hills Cop II","year":"1987-05-19","translations":["Профессиональный (многоголосый закадровый) (Киномания)","Авторский (одноголосый закадровый) (Дохалов Вартан)","Авторский (одноголосый закадровый) (Горчаков Василий)","Авторский (одноголосый закадровый) (Михалёв Алексей)","Авторский (одноголосый закадровый) (Яроцкий Михаил | Kyberpunk)","Профессиональный (многоголосый закадровый) (СТС)","[EN] Original (English)"],"quality":"bd","translation":"Профессиональный (многоголосый закадровый) (Киномания)","update":"2020-04-14 11:32:17","iframe_src":"//8944266444.svetacdn.in/PfJ50H0ZBPg3/movie/6088"}],"current_page":1299,"first_page_url":"https://videocdn.tv/api/short?limit=100&api_token=RgFQdUIR2dRmwv8iYa5SnFNgnw3vpjKj&cache31299=31299&page=1","from":129801,"last_page":725,"last_page_url":"https://videocdn.tv/api/short?limit=100&api_token=RgFQdUIR2dRmwv8iYa5SnFNgnw3vpjKj&cache31299=31299&page=725","next_page_url":null,"path":"https://videocdn.tv/api/short","per_page":100,"prev_page_url":"https://videocdn.tv/api/short?limit=100&api_token=RgFQdUIR2dRmwv8iYa5SnFNgnw3vpjKj&cache31299=31299&page=1298","to":129820,"total":72409}