{"result":true,"data":[{"id":8031,"title":"Моя фамилия Шилов","kp_id":"804571","imdb_id":"tt4077826","world_art_id":null,"type":"movie","add":"2016-12-13 15:04:32","orig_title":"Moya familiya Shilov","year":"2013-10-11","translations":["Оригинальная дорожка"],"quality":"webdl","translation":"Оригинальная дорожка","update":"2016-12-14 11:56:42","iframe_src":"//8332.svetacdn.in/71tsRs29n5tZ/movie/8031"},{"id":8028,"title":"Я буду рядом","kp_id":"595928","imdb_id":"tt2473746","world_art_id":null,"type":"movie","add":"2016-12-13 15:00:18","orig_title":"Ya budu ryadom","year":"2012-10-16","translations":["Оригинальная дорожка"],"quality":"webdl","translation":"Оригинальная дорожка","update":"2016-12-14 12:57:20","iframe_src":"//8332.svetacdn.in/71tsRs29n5tZ/movie/8028"},{"id":8026,"title":"Нинкина любовь","kp_id":"927137","imdb_id":null,"world_art_id":null,"type":"movie","add":"2016-12-13 14:57:06","orig_title":"Нинкина любовь","year":"2015-08-22","translations":["Оригинальная дорожка"],"quality":"hdtv","translation":"Оригинальная дорожка","update":"2016-12-14 11:54:24","iframe_src":"//8332.svetacdn.in/71tsRs29n5tZ/movie/8026"},{"id":8025,"title":"Невеста моего жениха","kp_id":"741192","imdb_id":null,"world_art_id":null,"type":"movie","add":"2016-12-13 14:54:14","orig_title":"Невеста моего жениха","year":"2013-04-06","translations":["Оригинальная дорожка"],"quality":"hdtv","translation":"Оригинальная дорожка","update":"2016-12-14 11:52:12","iframe_src":"//8332.svetacdn.in/71tsRs29n5tZ/movie/8025"},{"id":8023,"title":"Любовь из пробирки","kp_id":"758003","imdb_id":null,"world_art_id":null,"type":"movie","add":"2016-12-13 14:50:40","orig_title":"Любовь из пробирки","year":"2013-04-28","translations":["Оригинальная дорожка"],"quality":"hdtv","translation":"Оригинальная дорожка","update":"2016-12-14 11:50:32","iframe_src":"//8332.svetacdn.in/71tsRs29n5tZ/movie/8023"},{"id":8022,"title":"Ищу попутчика","kp_id":"843914","imdb_id":"tt4241032","world_art_id":null,"type":"movie","add":"2016-12-13 14:48:51","orig_title":"Ischu poputchika","year":"2014-11-16","translations":["Оригинальная дорожка"],"quality":"hdtv","translation":"Оригинальная дорожка","update":"2016-12-14 11:48:54","iframe_src":"//8332.svetacdn.in/71tsRs29n5tZ/movie/8022"},{"id":8020,"title":"Будущее совершенное","kp_id":"935902","imdb_id":null,"world_art_id":null,"type":"movie","add":"2016-12-13 14:45:55","orig_title":"Будущее совершенное","year":"2015-10-18","translations":["Оригинальная дорожка"],"quality":"hdtv","translation":"Оригинальная дорожка","update":"2016-12-14 11:45:27","iframe_src":"//8332.svetacdn.in/71tsRs29n5tZ/movie/8020"},{"id":8019,"title":"Возвращение Буратино","kp_id":"732770","imdb_id":"tt2794560","world_art_id":null,"type":"movie","add":"2016-12-13 14:43:30","orig_title":"Vozvrashchenie Buratino","year":"2013-10-15","translations":["Оригинальная дорожка"],"quality":"bd","translation":"Оригинальная дорожка","update":"2016-12-14 11:43:01","iframe_src":"//8332.svetacdn.in/71tsRs29n5tZ/movie/8019"},{"id":8018,"title":"Остров везения","kp_id":"745274","imdb_id":"tt3338310","world_art_id":null,"type":"movie","add":"2016-12-13 14:42:06","orig_title":"Ostrov vezeniya","year":"2013-12-06","translations":["Оригинальная дорожка"],"quality":"bd","translation":"Оригинальная дорожка","update":"2016-12-14 11:41:45","iframe_src":"//8332.svetacdn.in/71tsRs29n5tZ/movie/8018"},{"id":8017,"title":"Околофутбола","kp_id":"705162","imdb_id":"tt2643308","world_art_id":null,"type":"movie","add":"2016-12-13 14:34:41","orig_title":"Okolofutbola","year":"2013-10-11","translations":["Оригинальная дорожка"],"quality":"bd","translation":"Оригинальная дорожка","update":"2016-12-14 11:27:49","iframe_src":"//8332.svetacdn.in/71tsRs29n5tZ/movie/8017"},{"id":8016,"title":"Географ глобус пропил","kp_id":"653696","imdb_id":"tt3155604","world_art_id":null,"type":"movie","add":"2016-12-13 14:31:17","orig_title":"Geograf globus propil","year":"2013-09-29","translations":["Оригинальная дорожка"],"quality":"bd","translation":"Оригинальная дорожка","update":"2016-12-14 11:25:36","iframe_src":"//8332.svetacdn.in/71tsRs29n5tZ/movie/8016"},{"id":8012,"title":"Играем рок!!","kp_id":"413479","imdb_id":"tt1230165","world_art_id":null,"type":"movie","add":"2016-12-12 19:03:38","orig_title":"Rock On!!","year":"2008-08-29","translations":["Профессиональный (многоголосый)"],"quality":"bd","translation":"Профессиональный (многоголосый)","update":"2016-12-14 08:24:23","iframe_src":"//8332.svetacdn.in/71tsRs29n5tZ/movie/8012"},{"id":8001,"title":"Милосердие","kp_id":"714901","imdb_id":"tt2481496","world_art_id":null,"type":"movie","add":"2016-12-12 17:37:42","orig_title":"Mercy","year":"2014-10-07","translations":["Полное дублирование"],"quality":"webdl","translation":"Полное дублирование","update":"2016-12-13 10:47:46","iframe_src":"//8332.svetacdn.in/71tsRs29n5tZ/movie/8001"},{"id":8000,"title":"Тёмная лошадка","kp_id":"687627","imdb_id":"tt2192016","world_art_id":null,"type":"movie","add":"2016-12-12 17:34:37","orig_title":"The Dark Horse","year":"2014-07-17","translations":["Авторский (одноголосый закадровый) (Карповский Антон)"],"quality":"bd","translation":"Авторский (одноголосый закадровый) (Карповский Антон)","update":"2016-12-13 10:51:34","iframe_src":"//8332.svetacdn.in/71tsRs29n5tZ/movie/8000"},{"id":7947,"title":"Новый свет","kp_id":"108801","imdb_id":"tt0465188","world_art_id":null,"type":"movie","add":"2016-12-08 13:26:50","orig_title":"Nuovomondo","year":"2006-09-08","translations":["Профессиональный (многоголосый закадровый)"],"quality":"bd","translation":"Профессиональный (многоголосый закадровый)","update":"2016-12-14 11:21:41","iframe_src":"//8332.svetacdn.in/71tsRs29n5tZ/movie/7947"},{"id":7945,"title":"Реальные девчонки","kp_id":"87712","imdb_id":"tt0433412","world_art_id":null,"type":"movie","add":"2016-12-08 13:24:43","orig_title":"Material Girls","year":"2006-08-18","translations":["Профессиональный (многоголосый закадровый)"],"quality":"bd","translation":"Профессиональный (многоголосый закадровый)","update":"2016-12-14 11:18:50","iframe_src":"//8332.svetacdn.in/71tsRs29n5tZ/movie/7945"},{"id":7943,"title":"Они","kp_id":"208899","imdb_id":"tt0465203","world_art_id":null,"type":"movie","add":"2016-12-08 13:22:39","orig_title":"Ils","year":"2006-04-08","translations":["Профессиональный (многоголосый закадровый)"],"quality":"bd","translation":"Профессиональный (многоголосый закадровый)","update":"2016-12-14 11:15:11","iframe_src":"//8332.svetacdn.in/71tsRs29n5tZ/movie/7943"},{"id":7942,"title":"Призрак в законе","kp_id":"109033","imdb_id":"tt0428646","world_art_id":null,"type":"movie","add":"2016-12-08 13:21:34","orig_title":"Hui Buh","year":"2006-07-20","translations":["Профессиональный (многоголосый закадровый)"],"quality":"bd","translation":"Профессиональный (многоголосый закадровый)","update":"2016-12-14 11:13:21","iframe_src":"//8332.svetacdn.in/71tsRs29n5tZ/movie/7942"},{"id":7941,"title":"Топор","kp_id":"81773","imdb_id":"tt0422401","world_art_id":null,"type":"movie","add":"2016-12-08 13:20:43","orig_title":"Hatchet","year":"2006-04-27","translations":["Профессиональный (многоголосый закадровый)"],"quality":"bd","translation":"Профессиональный (многоголосый закадровый)","update":"2016-12-14 11:12:18","iframe_src":"//8332.svetacdn.in/71tsRs29n5tZ/movie/7941"},{"id":2818,"title":"Моя большая греческая свадьба 2","kp_id":"907295","imdb_id":"tt3760922","world_art_id":null,"type":"movie","add":"2016-06-01 09:43:01","orig_title":"My Big Fat Greek Wedding 2","year":"2016-03-15","translations":["Любительский (многоголосый закадровый)","Полное дублирование"],"quality":"webdl","translation":"Любительский (многоголосый закадровый)","update":"2016-12-13 10:49:33","iframe_src":"//8332.svetacdn.in/71tsRs29n5tZ/movie/2818"}],"current_page":2267,"first_page_url":"https://videocdn.tv/api/short?limit=100&api_token=EnbO9h8pv1VyjbCJhg0WM9nG259n7mtz&cache32267=32267&page=1","from":226601,"last_page":634,"last_page_url":"https://videocdn.tv/api/short?limit=100&api_token=EnbO9h8pv1VyjbCJhg0WM9nG259n7mtz&cache32267=32267&page=634","next_page_url":null,"path":"https://videocdn.tv/api/short","per_page":100,"prev_page_url":"https://videocdn.tv/api/short?limit=100&api_token=EnbO9h8pv1VyjbCJhg0WM9nG259n7mtz&cache32267=32267&page=2266","to":226620,"total":63367}