{"result":true,"data":[{"id":44246,"title":"Зай и Чик","kp_id":"540826","imdb_id":"tt2315302","world_art_id":null,"type":"movie","add":"2020-10-08 20:28:31","orig_title":"Zay i Chik","year":"1952-03-18","translations":["Оригинальная дорожка"],"quality":"dvdrip","translation":"Оригинальная дорожка","update":"2020-10-27 08:00:15","iframe_src":"//83.svetacdn.in/PfJ50H0ZBPg3/movie/44246"},{"id":44245,"title":"Золотые колосья","kp_id":"259982","imdb_id":"tt4857874","world_art_id":null,"type":"movie","add":"2020-10-08 20:26:03","orig_title":"Zolotye kolosya","year":"1958-01-01","translations":["Оригинальная дорожка"],"quality":"dvdrip","translation":"Оригинальная дорожка","update":"2020-10-27 07:59:22","iframe_src":"//83.svetacdn.in/PfJ50H0ZBPg3/movie/44245"},{"id":44222,"title":"Жирафа и очки","kp_id":"258000","imdb_id":"tt7756910","world_art_id":null,"type":"movie","add":"2020-10-07 18:24:45","orig_title":"Zhirafa i ochki","year":"1978-01-01","translations":["Оригинальная дорожка"],"quality":"dvdrip","translation":"Оригинальная дорожка","update":"2020-10-27 07:58:30","iframe_src":"//83.svetacdn.in/PfJ50H0ZBPg3/movie/44222"},{"id":44221,"title":"Золоторогий олень","kp_id":"493923","imdb_id":"tt6493354","world_art_id":null,"type":"movie","add":"2020-10-07 18:22:22","orig_title":"Zolotorogiy olen","year":"1979-01-01","translations":["Оригинальная дорожка"],"quality":"dvdrip","translation":"Оригинальная дорожка","update":"2020-10-27 07:57:30","iframe_src":"//83.svetacdn.in/PfJ50H0ZBPg3/movie/44221"},{"id":44220,"title":"Записки Пирата","kp_id":"432577","imdb_id":"tt6256532","world_art_id":null,"type":"movie","add":"2020-10-07 18:20:04","orig_title":"Zapiski Pirata","year":"1989-09-17","translations":["Оригинальная дорожка"],"quality":"dvdrip","translation":"Оригинальная дорожка","update":"2020-10-27 07:56:34","iframe_src":"//83.svetacdn.in/PfJ50H0ZBPg3/movie/44220"},{"id":44219,"title":"Зайка-зазнайка","kp_id":"256528","imdb_id":"tt4241466","world_art_id":null,"type":"movie","add":"2020-10-07 18:17:55","orig_title":"Zayka-zaznayka","year":"1976-08-11","translations":["Оригинальная дорожка"],"quality":"dvdrip","translation":"Оригинальная дорожка","update":"2020-10-27 07:54:00","iframe_src":"//83.svetacdn.in/PfJ50H0ZBPg3/movie/44219"},{"id":44217,"title":"Проделкин в школе","kp_id":"259468","imdb_id":"tt6361546","world_art_id":null,"type":"movie","add":"2020-10-07 18:12:58","orig_title":"Prodelkin v shkole","year":"1974-01-01","translations":["Оригинальная дорожка"],"quality":"dvdrip","translation":"Оригинальная дорожка","update":"2020-10-27 07:53:13","iframe_src":"//83.svetacdn.in/PfJ50H0ZBPg3/movie/44217"},{"id":44216,"title":"Прямое попадание","kp_id":"494810","imdb_id":"tt6103072","world_art_id":null,"type":"movie","add":"2020-10-07 18:10:00","orig_title":"Pryamoe popadanie","year":"1987-01-01","translations":["Оригинальная дорожка"],"quality":"dvdrip","translation":"Оригинальная дорожка","update":"2020-10-27 07:52:22","iframe_src":"//83.svetacdn.in/PfJ50H0ZBPg3/movie/44216"},{"id":44215,"title":"Поле","kp_id":"43095","imdb_id":"tt0263874","world_art_id":null,"type":"movie","add":"2020-10-07 18:07:53","orig_title":"Põld","year":"1978-01-01","translations":["Оригинальная дорожка"],"quality":"vhs","translation":"Оригинальная дорожка","update":"2020-10-27 07:51:33","iframe_src":"//83.svetacdn.in/PfJ50H0ZBPg3/movie/44215"},{"id":44214,"title":"Под одной крышей","kp_id":"648227","imdb_id":"tt6400734","world_art_id":null,"type":"movie","add":"2020-10-07 18:06:03","orig_title":"Pod odnoy kryshey","year":"1978-01-01","translations":["Оригинальная дорожка"],"quality":"dvdrip","translation":"Оригинальная дорожка","update":"2020-10-27 07:45:12","iframe_src":"//83.svetacdn.in/PfJ50H0ZBPg3/movie/44214"},{"id":44213,"title":"Пекарь и трубочист","kp_id":"118767","imdb_id":"tt0452367","world_art_id":null,"type":"movie","add":"2020-10-07 18:03:11","orig_title":"Pagar ja korstnapühkija","year":"1982-01-01","translations":["Оригинальная дорожка"],"quality":"sat","translation":"Оригинальная дорожка","update":"2020-10-27 07:44:34","iframe_src":"//83.svetacdn.in/PfJ50H0ZBPg3/movie/44213"},{"id":44212,"title":"Ослик-огородник","kp_id":"648062","imdb_id":null,"world_art_id":null,"type":"movie","add":"2020-10-07 18:01:09","orig_title":"Ослик-огородник","year":"1974-01-01","translations":["Оригинальная дорожка"],"quality":"dvdrip","translation":"Оригинальная дорожка","update":"2020-10-27 07:43:43","iframe_src":"//83.svetacdn.in/PfJ50H0ZBPg3/movie/44212"},{"id":44210,"title":"Мойдодыр","kp_id":"537163","imdb_id":"tt5982310","world_art_id":null,"type":"movie","add":"2020-10-07 17:53:55","orig_title":"Moydodyr","year":"1939-12-26","translations":["Оригинальная дорожка"],"quality":"dvdrip","translation":"Оригинальная дорожка","update":"2020-10-27 07:42:30","iframe_src":"//83.svetacdn.in/PfJ50H0ZBPg3/movie/44210"},{"id":44209,"title":"Легко ли быть храбрым","kp_id":"465640","imdb_id":"tt2246448","world_art_id":null,"type":"movie","add":"2020-10-07 17:51:23","orig_title":"Legko li byt khrabrym","year":"1975-06-04","translations":["Оригинальная дорожка"],"quality":"dvdrip","translation":"Оригинальная дорожка","update":"2020-10-27 07:41:26","iframe_src":"//83.svetacdn.in/PfJ50H0ZBPg3/movie/44209"},{"id":44208,"title":"Что такое хорошо и что такое плохо","kp_id":"257950","imdb_id":"tt6344828","world_art_id":null,"type":"movie","add":"2020-10-07 17:47:30","orig_title":"Chto takoe khorosho i chto takoe plokho","year":"1969-02-16","translations":["Оригинальная дорожка"],"quality":"dvdrip","translation":"Оригинальная дорожка","update":"2020-10-27 07:05:37","iframe_src":"//83.svetacdn.in/PfJ50H0ZBPg3/movie/44208"},{"id":44173,"title":"Музыкальный магазинчик","kp_id":"478621","imdb_id":null,"world_art_id":null,"type":"movie","add":"2020-10-06 18:05:25","orig_title":"Музыкальный магазинчик","year":"1989-01-01","translations":["Оригинальная дорожка"],"quality":"dvdrip","translation":"Оригинальная дорожка","update":"2020-10-27 07:04:30","iframe_src":"//83.svetacdn.in/PfJ50H0ZBPg3/movie/44173"},{"id":44172,"title":"Золотой волос","kp_id":"639354","imdb_id":"tt10651086","world_art_id":null,"type":"movie","add":"2020-10-06 17:43:04","orig_title":"Zolotoj volos","year":"1979-01-01","translations":["Оригинальная дорожка"],"quality":"dvdrip","translation":"Оригинальная дорожка","update":"2020-10-27 07:02:58","iframe_src":"//83.svetacdn.in/PfJ50H0ZBPg3/movie/44172"},{"id":44171,"title":"Замок лгунов","kp_id":"466917","imdb_id":"tt4203290","world_art_id":null,"type":"movie","add":"2020-10-06 17:35:48","orig_title":"Zamok lgunov","year":"1983-06-30","translations":["Оригинальная дорожка"],"quality":"dvdrip","translation":"Оригинальная дорожка","update":"2020-10-27 07:01:39","iframe_src":"//83.svetacdn.in/PfJ50H0ZBPg3/movie/44171"},{"id":44170,"title":"Петушишка","kp_id":"669464","imdb_id":null,"world_art_id":null,"type":"movie","add":"2020-10-06 17:31:09","orig_title":"Петушишка","year":"1985-01-01","translations":["Оригинальная дорожка"],"quality":"dvdrip","translation":"Оригинальная дорожка","update":"2020-10-27 06:57:51","iframe_src":"//83.svetacdn.in/PfJ50H0ZBPg3/movie/44170"},{"id":44168,"title":"Небылицы","kp_id":"391089","imdb_id":"tt1075369","world_art_id":null,"type":"movie","add":"2020-10-06 17:19:44","orig_title":"Nebylitsy","year":"1970-01-01","translations":["Оригинальная дорожка"],"quality":"dvdrip","translation":"Оригинальная дорожка","update":"2020-10-27 06:55:06","iframe_src":"//83.svetacdn.in/PfJ50H0ZBPg3/movie/44168"}],"current_page":606,"first_page_url":"https://videocdn.tv/api/short?limit=100&api_token=RgFQdUIR2dRmwv8iYa5SnFNgnw3vpjKj&cache3606=3606&page=1","from":60501,"last_page":662,"last_page_url":"https://videocdn.tv/api/short?limit=100&api_token=RgFQdUIR2dRmwv8iYa5SnFNgnw3vpjKj&cache3606=3606&page=662","next_page_url":"https://videocdn.tv/api/short?limit=100&api_token=RgFQdUIR2dRmwv8iYa5SnFNgnw3vpjKj&cache3606=3606&page=607","path":"https://videocdn.tv/api/short","per_page":100,"prev_page_url":"https://videocdn.tv/api/short?limit=100&api_token=RgFQdUIR2dRmwv8iYa5SnFNgnw3vpjKj&cache3606=3606&page=605","to":60520,"total":66160}