{"result":true,"data":[{"id":4153,"title":"Пуэрториканцы в Париже","kp_id":"862024","imdb_id":"tt3730510","world_art_id":null,"type":"movie","add":"2016-07-25 11:01:31","orig_title":"Puerto Ricans in Paris","year":"2015-06-12","translations":["Любительский (многоголосый закадровый) (Студия Пиратского Дубляжа)"],"quality":"bd","translation":"Любительский (многоголосый закадровый) (Студия Пиратского Дубляжа)","update":"2016-07-25 14:09:58","iframe_src":"//7923.svetacdn.in/71tsRs29n5tZ/movie/4153"},{"id":4131,"title":"Отчуждение","kp_id":"46974","imdb_id":"tt0346094","world_art_id":null,"type":"movie","add":"2016-07-22 21:03:23","orig_title":"Uzak","year":"2002-12-20","translations":["Профессиональный (многоголосый)"],"quality":"webdl","translation":"Профессиональный (многоголосый)","update":"2016-07-23 09:49:20","iframe_src":"//7923.svetacdn.in/71tsRs29n5tZ/movie/4131"},{"id":4129,"title":"Полный беспредел","kp_id":"568458","imdb_id":"tt1724962","world_art_id":null,"type":"movie","add":"2016-07-22 09:22:47","orig_title":"Autoreiji: Biyondo","year":"2012-09-03","translations":["Профессиональный (многоголосый закадровый)"],"quality":"bd","translation":"Профессиональный (многоголосый закадровый)","update":"2016-07-22 16:03:06","iframe_src":"//7923.svetacdn.in/71tsRs29n5tZ/movie/4129"},{"id":4127,"title":"Бродвей Дэнни Роуз","kp_id":"13458","imdb_id":"tt0087003","world_art_id":null,"type":"movie","add":"2016-07-22 09:20:50","orig_title":"Broadway Danny Rose","year":"1984-01-27","translations":["Любительский (двухголосый закадровый)"],"quality":"bd","translation":"Любительский (двухголосый закадровый)","update":"2016-07-22 16:01:37","iframe_src":"//7923.svetacdn.in/71tsRs29n5tZ/movie/4127"},{"id":4126,"title":"Не сдавайся","kp_id":"471577","imdb_id":"tt1498569","world_art_id":null,"type":"movie","add":"2016-07-22 09:20:06","orig_title":"Restless","year":"2011-04-06","translations":["Профессиональный (многоголосый закадровый)"],"quality":"bd","translation":"Профессиональный (многоголосый закадровый)","update":"2016-07-22 15:52:29","iframe_src":"//7923.svetacdn.in/71tsRs29n5tZ/movie/4126"},{"id":4122,"title":"Три цвета: Белый","kp_id":"18347","imdb_id":"tt0111507","world_art_id":null,"type":"movie","add":"2016-07-22 08:53:38","orig_title":"Trois couleurs: Blanc","year":"1994-01-26","translations":["Любительский (одноголосый закадровый)"],"quality":"bd","translation":"Любительский (одноголосый закадровый)","update":"2016-07-22 12:39:02","iframe_src":"//7923.svetacdn.in/71tsRs29n5tZ/movie/4122"},{"id":4120,"title":"Спящая красавица","kp_id":"497235","imdb_id":"tt1588398","world_art_id":null,"type":"movie","add":"2016-07-22 08:51:47","orig_title":"Sleeping Beauty","year":"2011-05-11","translations":["Профессиональный (многоголосый закадровый)"],"quality":"bd","translation":"Профессиональный (многоголосый закадровый)","update":"2016-07-22 12:57:44","iframe_src":"//7923.svetacdn.in/71tsRs29n5tZ/movie/4120"},{"id":4118,"title":"История Элли","kp_id":"447348","imdb_id":"tt1360860","world_art_id":null,"type":"movie","add":"2016-07-22 08:50:05","orig_title":"Darbareye Elly","year":"2009-02-07","translations":["Любительский (одноголосый закадровый)"],"quality":"bd","translation":"Любительский (одноголосый закадровый)","update":"2016-07-22 17:12:26","iframe_src":"//7923.svetacdn.in/71tsRs29n5tZ/movie/4118"},{"id":4117,"title":"Четыре ночи мечтателя","kp_id":"100607","imdb_id":"tt0067641","world_art_id":null,"type":"movie","add":"2016-07-22 08:34:29","orig_title":"Quatre nuits d'un rêveur","year":"1971-05-13","translations":["Любительский (двухголосый закадровый)"],"quality":"bd","translation":"Любительский (двухголосый закадровый)","update":"2016-07-22 17:05:46","iframe_src":"//7923.svetacdn.in/71tsRs29n5tZ/movie/4117"},{"id":4116,"title":"Копенгаген","kp_id":"713284","imdb_id":"tt2459156","world_art_id":null,"type":"movie","add":"2016-07-22 08:32:31","orig_title":"Copenhagen","year":"2014-01-17","translations":["Профессиональный (многоголосый закадровый)"],"quality":"bd","translation":"Профессиональный (многоголосый закадровый)","update":"2016-07-22 16:38:15","iframe_src":"//7923.svetacdn.in/71tsRs29n5tZ/movie/4116"},{"id":4114,"title":"Элегия","kp_id":"279729","imdb_id":"tt0974554","world_art_id":null,"type":"movie","add":"2016-07-22 08:31:09","orig_title":"Elegy","year":"2008-02-10","translations":["Полное дублирование"],"quality":"bd","translation":"Полное дублирование","update":"2016-07-23 09:54:36","iframe_src":"//7923.svetacdn.in/71tsRs29n5tZ/movie/4114"},{"id":4113,"title":"Бандитки","kp_id":"81102","imdb_id":"tt0416496","world_art_id":null,"type":"movie","add":"2016-07-22 08:27:01","orig_title":"Bandidas","year":"2006-01-18","translations":["Полное дублирование"],"quality":"bd","translation":"Полное дублирование","update":"2016-07-22 16:13:04","iframe_src":"//7923.svetacdn.in/71tsRs29n5tZ/movie/4113"},{"id":4112,"title":"Бьютифул","kp_id":"438268","imdb_id":"tt1164999","world_art_id":null,"type":"movie","add":"2016-07-22 08:24:41","orig_title":"Biutiful","year":"2010-03-10","translations":["Полное дублирование"],"quality":"bd","translation":"Полное дублирование","update":"2016-07-22 16:28:46","iframe_src":"//7923.svetacdn.in/71tsRs29n5tZ/movie/4112"},{"id":4110,"title":"Особняк с привидениями","kp_id":"5274","imdb_id":"tt0338094","world_art_id":null,"type":"movie","add":"2016-07-22 07:23:18","orig_title":"The Haunted Mansion","year":"2003-11-26","translations":["Полное дублирование"],"quality":"bd","translation":"Полное дублирование","update":"2016-07-22 20:48:14","iframe_src":"//7923.svetacdn.in/71tsRs29n5tZ/movie/4110"},{"id":4108,"title":"Императрица и воины","kp_id":"405458","imdb_id":"tt1186803","world_art_id":null,"type":"movie","add":"2016-07-22 07:21:26","orig_title":"Jiang shan mei ren","year":"2008-03-19","translations":["Профессиональный (многоголосый закадровый)"],"quality":"bd","translation":"Профессиональный (многоголосый закадровый)","update":"2016-07-22 20:43:37","iframe_src":"//7923.svetacdn.in/71tsRs29n5tZ/movie/4108"},{"id":4106,"title":"Давайте потанцуем","kp_id":"22361","imdb_id":"tt0358135","world_art_id":null,"type":"movie","add":"2016-07-22 07:19:14","orig_title":"Shall We Dance","year":"2004-10-15","translations":["Полное дублирование"],"quality":"bd","translation":"Полное дублирование","update":"2016-07-22 12:55:12","iframe_src":"//7923.svetacdn.in/71tsRs29n5tZ/movie/4106"},{"id":4102,"title":"Парень-каратист 4","kp_id":"22443","imdb_id":"tt0110657","world_art_id":null,"type":"movie","add":"2016-07-22 07:14:31","orig_title":"The Next Karate Kid","year":"1994-08-03","translations":["Профессиональный (многоголосый закадровый)"],"quality":"bd","translation":"Профессиональный (многоголосый закадровый)","update":"2016-07-22 20:26:14","iframe_src":"//7923.svetacdn.in/71tsRs29n5tZ/movie/4102"},{"id":4095,"title":"Грешники и праведники","kp_id":"825086","imdb_id":"tt3491962","world_art_id":null,"type":"movie","add":"2016-07-22 05:07:26","orig_title":"Outlaws and Angels","year":"2016-01-25","translations":["Любительский (многоголосый закадровый) (Parovoz Production)"],"quality":"webdl","translation":"Любительский (многоголосый закадровый) (Parovoz Production)","update":"2016-07-22 11:13:49","iframe_src":"//7923.svetacdn.in/71tsRs29n5tZ/movie/4095"},{"id":4075,"title":"Матадор","kp_id":"17000","imdb_id":"tt0091495","world_art_id":null,"type":"movie","add":"2016-07-20 21:32:56","orig_title":"Matador","year":"1986-03-07","translations":["Любительский (одноголосый закадровый)"],"quality":"bd","translation":"Любительский (одноголосый закадровый)","update":"2016-07-23 09:52:18","iframe_src":"//7923.svetacdn.in/71tsRs29n5tZ/movie/4075"},{"id":4073,"title":"За что мне это?","kp_id":"16975","imdb_id":"tt0088461","world_art_id":null,"type":"movie","add":"2016-07-20 21:31:12","orig_title":"Que he hecho yo para merecer esto!!","year":"1984-10-25","translations":["Профессиональный (многоголосый закадровый)"],"quality":"bd","translation":"Профессиональный (многоголосый закадровый)","update":"2016-07-23 09:33:45","iframe_src":"//7923.svetacdn.in/71tsRs29n5tZ/movie/4073"}],"current_page":2445,"first_page_url":"https://videocdn.tv/api/short?limit=100&api_token=EnbO9h8pv1VyjbCJhg0WM9nG259n7mtz&cache32445=32445&page=1","from":244401,"last_page":644,"last_page_url":"https://videocdn.tv/api/short?limit=100&api_token=EnbO9h8pv1VyjbCJhg0WM9nG259n7mtz&cache32445=32445&page=644","next_page_url":null,"path":"https://videocdn.tv/api/short","per_page":100,"prev_page_url":"https://videocdn.tv/api/short?limit=100&api_token=EnbO9h8pv1VyjbCJhg0WM9nG259n7mtz&cache32445=32445&page=2444","to":244420,"total":64350}