{"result":true,"data":[{"id":30256,"title":"Поезд ужасов","kp_id":"5682","imdb_id":"tt0068713","world_art_id":null,"type":"movie","add":"2019-08-24 13:31:53","orig_title":"Pánico en el Transiberiano","year":"1972-09-30","translations":["Профессиональный (одноголосый закадровый)"],"quality":"bd","translation":"Профессиональный (одноголосый закадровый)","update":"2019-08-26 07:57:26","iframe_src":"//8543.svetacdn.in/si4jsFRrtgrT/movie/30256"},{"id":30255,"title":"Любовь, измена и воровство","kp_id":"296448","imdb_id":"tt0107451","world_art_id":null,"type":"movie","add":"2019-08-24 12:51:26","orig_title":"Love, Cheat & Steal","year":"1993-12-05","translations":["Профессиональный (двухголосый закадровый) (НТВ)"],"quality":"hdtv","translation":"Профессиональный (двухголосый закадровый) (НТВ)","update":"2019-08-26 07:53:10","iframe_src":"//8543.svetacdn.in/si4jsFRrtgrT/movie/30255"},{"id":30248,"title":"Переполох в общаге: Выпускной","kp_id":"393055","imdb_id":"tt1087517","world_art_id":null,"type":"movie","add":"2019-08-24 12:40:16","orig_title":"American High School","year":"2009-04-07","translations":["Профессиональный (двухголосый закадровый)"],"quality":"bd","translation":"Профессиональный (двухголосый закадровый)","update":"2019-08-26 07:39:00","iframe_src":"//8543.svetacdn.in/si4jsFRrtgrT/movie/30248"},{"id":30244,"title":"Прогулка на небеса","kp_id":"81668","imdb_id":"tt0420740","world_art_id":null,"type":"movie","add":"2019-08-24 12:35:32","orig_title":"A Little Trip to Heaven","year":"2005-09-12","translations":["Профессиональный (двухголосый закадровый)"],"quality":"dvdrip","translation":"Профессиональный (двухголосый закадровый)","update":"2019-08-26 07:31:54","iframe_src":"//8543.svetacdn.in/si4jsFRrtgrT/movie/30244"},{"id":30243,"title":"Она учится в колледже","kp_id":"16079","imdb_id":"tt0045144","world_art_id":null,"type":"movie","add":"2019-08-24 12:35:27","orig_title":"She's Working Her Way Through College","year":"1952-07-09","translations":["Авторский (одноголосый закадровый) (Рутилов Виктор | fiendover)"],"quality":"dvdrip","translation":"Авторский (одноголосый закадровый) (Рутилов Виктор | fiendover)","update":"2019-08-26 07:32:50","iframe_src":"//8543.svetacdn.in/si4jsFRrtgrT/movie/30243"},{"id":30242,"title":"Супермен по-турецки","kp_id":"125086","imdb_id":"tt0392818","world_art_id":null,"type":"movie","add":"2019-08-24 12:27:27","orig_title":"Süpermen Dönüyor","year":"1979-01-27","translations":["Любительский (одноголосый закадровый)"],"quality":"vhs","translation":"Любительский (одноголосый закадровый)","update":"2019-08-26 07:30:48","iframe_src":"//8543.svetacdn.in/si4jsFRrtgrT/movie/30242"},{"id":30241,"title":"Багдадский вор","kp_id":"8273","imdb_id":"tt0033152","world_art_id":null,"type":"movie","add":"2019-08-24 12:23:47","orig_title":"The Thief of Bagdad","year":"1940-10-14","translations":["Профессиональный (многоголосый закадровый) (SomeWax)"],"quality":"bd","translation":"Профессиональный (многоголосый закадровый) (SomeWax)","update":"2019-08-26 07:29:54","iframe_src":"//8543.svetacdn.in/si4jsFRrtgrT/movie/30241"},{"id":30240,"title":"Курочки-байкеры в городе зомби","kp_id":"15768","imdb_id":"tt0103959","world_art_id":null,"type":"movie","add":"2019-08-24 12:17:45","orig_title":"Chrome Hearts","year":"1989-05-10","translations":["Авторский (одноголосый закадровый) (Кузнецов Сергей)"],"quality":"dvdrip","translation":"Авторский (одноголосый закадровый) (Кузнецов Сергей)","update":"2019-08-26 07:27:35","iframe_src":"//8543.svetacdn.in/si4jsFRrtgrT/movie/30240"},{"id":30229,"title":"6 причин почему","kp_id":"409861","imdb_id":"tt1202044","world_art_id":null,"type":"movie","add":"2019-08-23 19:06:57","orig_title":"Six Reasons Why","year":"2008-07-15","translations":["Любительский (одноголосый закадровый)"],"quality":"dvdrip","translation":"Любительский (одноголосый закадровый)","update":"2019-08-26 07:20:38","iframe_src":"//8543.svetacdn.in/si4jsFRrtgrT/movie/30229"},{"id":30226,"title":"Элфи","kp_id":"16553","imdb_id":"tt0060086","world_art_id":null,"type":"movie","add":"2019-08-23 19:03:08","orig_title":"Alfie","year":"1966-03-29","translations":["Профессиональный (многоголосый закадровый)"],"quality":"webdl","translation":"Профессиональный (многоголосый закадровый)","update":"2019-08-26 07:15:09","iframe_src":"//8543.svetacdn.in/si4jsFRrtgrT/movie/30226"},{"id":30222,"title":"Братство танца: Возвращение домой","kp_id":"481410","imdb_id":"tt1533817","world_art_id":null,"type":"movie","add":"2019-08-23 18:57:29","orig_title":"Stomp the Yard 2: Homecoming","year":"2010-06-25","translations":["Профессиональный (многоголосый закадровый)"],"quality":"bd","translation":"Профессиональный (многоголосый закадровый)","update":"2019-08-26 07:11:52","iframe_src":"//8543.svetacdn.in/si4jsFRrtgrT/movie/30222"},{"id":30218,"title":"Темный этаж","kp_id":"373088","imdb_id":"tt0985025","world_art_id":null,"type":"movie","add":"2019-08-23 18:51:14","orig_title":"Dark Floors","year":"2008-02-06","translations":["Полное дублирование"],"quality":"bd","translation":"Полное дублирование","update":"2019-08-26 07:08:26","iframe_src":"//8543.svetacdn.in/si4jsFRrtgrT/movie/30218"},{"id":22014,"title":"Паства","kp_id":"195716","imdb_id":"tt0473356","world_art_id":null,"type":"movie","add":"2019-02-02 15:22:48","orig_title":"The Flock","year":"2007-08-04","translations":["Полное дублирование"],"quality":"bd","translation":"Полное дублирование","update":"2019-08-26 07:22:37","iframe_src":"//8543.svetacdn.in/si4jsFRrtgrT/movie/22014"},{"id":17266,"title":"Спасительный рассвет","kp_id":"103726","imdb_id":"tt0462504","world_art_id":null,"type":"movie","add":"2018-06-20 11:56:27","orig_title":"Rescue Dawn","year":"2006-09-09","translations":["Профессиональный (многоголосый закадровый)","Любительский (одноголосый закадровый)"],"quality":"bd","translation":"Профессиональный (многоголосый закадровый)","update":"2019-08-26 07:43:42","iframe_src":"//8543.svetacdn.in/si4jsFRrtgrT/movie/17266"},{"id":8905,"title":"Ни жив, ни мертв","kp_id":"4576","imdb_id":"tt0297162","world_art_id":null,"type":"movie","add":"2017-01-15 14:18:15","orig_title":"Half Past Dead","year":"2002-11-15","translations":["Полное дублирование","Профессиональный (многоголосый закадровый)"],"quality":"bd","translation":"Полное дублирование","update":"2019-08-26 07:59:19","iframe_src":"//8543.svetacdn.in/si4jsFRrtgrT/movie/8905"},{"id":6609,"title":"Зубастики 4","kp_id":"178564","imdb_id":"tt0101628","world_art_id":null,"type":"movie","add":"2016-10-24 16:48:26","orig_title":"Critters 4","year":"1992-08-20","translations":["Профессиональный (двухголосый закадровый)","Профессиональный (двухголосый закадровый)"],"quality":"webdl","translation":"Профессиональный (двухголосый закадровый)","update":"2019-08-26 07:29:03","iframe_src":"//8543.svetacdn.in/si4jsFRrtgrT/movie/6609"},{"id":5902,"title":"Александр","kp_id":"4721","imdb_id":"tt0346491","world_art_id":null,"type":"movie","add":"2016-10-06 15:06:55","orig_title":"Alexander","year":"2004-11-16","translations":["Полное дублирование","Original (English)","Авторский (одноголосый закадровый) (Немахов Юрий)"],"quality":"bd","translation":"Полное дублирование","update":"2019-08-26 07:26:50","iframe_src":"//8543.svetacdn.in/si4jsFRrtgrT/movie/5902"},{"id":4517,"title":"Обыкновенный преступник","kp_id":"775","imdb_id":"tt0160611","world_art_id":null,"type":"movie","add":"2016-08-18 06:46:54","orig_title":"Ordinary Decent Criminal","year":"2000-01-07","translations":["Любительский (многоголосый закадровый)","Профессиональный (многоголосый закадровый)"],"quality":"bd","translation":"Любительский (многоголосый закадровый)","update":"2019-08-26 07:45:23","iframe_src":"//8543.svetacdn.in/si4jsFRrtgrT/movie/4517"},{"id":4087,"title":"Молодость без молодости","kp_id":"182078","imdb_id":"tt0481797","world_art_id":null,"type":"movie","add":"2016-07-20 21:47:06","orig_title":"Youth Without Youth","year":"2007-10-20","translations":["Любительский (двухголосый закадровый)","Профессиональный (двухголосый закадровый)"],"quality":"bd","translation":"Любительский (двухголосый закадровый)","update":"2019-08-26 07:52:18","iframe_src":"//8543.svetacdn.in/si4jsFRrtgrT/movie/4087"},{"id":4058,"title":"Битва у Красной скалы","kp_id":"88123","imdb_id":"tt0425637","world_art_id":null,"type":"movie","add":"2016-07-20 11:57:21","orig_title":"Chi bi","year":"2008-06-30","translations":["Полное дублирование"],"quality":"bd","translation":"Полное дублирование","update":"2019-08-26 07:13:45","iframe_src":"//8543.svetacdn.in/si4jsFRrtgrT/movie/4058"}],"current_page":1118,"first_page_url":"https://videocdn.tv/api/short?limit=100&api_token=X6EwAUfE5M9xbo7y0Bp0aPf3uXxG2KLL&cache31118=31118&page=1","from":111701,"last_page":609,"last_page_url":"https://videocdn.tv/api/short?limit=100&api_token=X6EwAUfE5M9xbo7y0Bp0aPf3uXxG2KLL&cache31118=31118&page=609","next_page_url":null,"path":"https://videocdn.tv/api/short","per_page":100,"prev_page_url":"https://videocdn.tv/api/short?limit=100&api_token=X6EwAUfE5M9xbo7y0Bp0aPf3uXxG2KLL&cache31118=31118&page=1117","to":111720,"total":60809}