{"result":true,"data":[{"id":49784,"title":"Улица удачи","kp_id":"18989","imdb_id":"tt0035388","world_art_id":null,"type":"movie","add":"2021-04-21 12:41:53","orig_title":"Street of Chance","year":"1942-10-03","translations":["Любительский (одноголосый закадровый) (Andy Green)"],"quality":"vhs","translation":"Любительский (одноголосый закадровый) (Andy Green)","update":"2021-04-21 16:33:24","iframe_src":"//5091.svetacdn.in/71tsRs29n5tZ/movie/49784"},{"id":49782,"title":"Однажды в Китае 5","kp_id":"37062","imdb_id":"tt0110073","world_art_id":null,"type":"movie","add":"2021-04-21 11:58:57","orig_title":"Wong Fei Hung chi neung: Lung shing chim pa","year":"1994-11-17","translations":["Авторский (одноголосый закадровый) (Горчаков Василий)"],"quality":"dvdrip","translation":"Авторский (одноголосый закадровый) (Горчаков Василий)","update":"2021-04-21 16:32:03","iframe_src":"//5091.svetacdn.in/71tsRs29n5tZ/movie/49782"},{"id":49781,"title":"Матарес","kp_id":"1358966","imdb_id":"tt10230290","world_art_id":null,"type":"movie","add":"2021-04-21 11:15:12","orig_title":"Matares","year":"2020-06-15","translations":["Любительский (многоголосый закадровый) (Синема УС)"],"quality":"webdl","translation":"Любительский (многоголосый закадровый) (Синема УС)","update":"2021-04-21 15:31:22","iframe_src":"//5091.svetacdn.in/71tsRs29n5tZ/movie/49781"},{"id":49780,"title":"Сестрёнка","kp_id":"1253443","imdb_id":"tt10117768","world_art_id":null,"type":"movie","add":"2021-04-21 11:12:23","orig_title":"Schwesterlein","year":"2020-10-29","translations":["Любительский (многоголосый закадровый) (AlphaProject)"],"quality":"webdl","translation":"Любительский (многоголосый закадровый) (AlphaProject)","update":"2021-04-21 17:03:03","iframe_src":"//5091.svetacdn.in/71tsRs29n5tZ/movie/49780"},{"id":49775,"title":"Триггер","kp_id":"1300241","imdb_id":"tt10872080","world_art_id":null,"type":"movie","add":"2021-04-21 09:48:01","orig_title":"86 Melrose Avenue","year":"2021-04-20","translations":["Любительский (многоголосый закадровый) (AlphaProject)"],"quality":"webdl","translation":"Любительский (многоголосый закадровый) (AlphaProject)","update":"2021-04-21 15:00:18","iframe_src":"//5091.svetacdn.in/71tsRs29n5tZ/movie/49775"},{"id":49774,"title":"Ледяной апокалипсис","kp_id":"1410998","imdb_id":"tt13036930","world_art_id":null,"type":"movie","add":"2021-04-21 09:46:45","orig_title":"Apocalypse of Ice","year":"2020-09-15","translations":["Любительский (многоголосый закадровый) (AlphaProject)"],"quality":"webdl","translation":"Любительский (многоголосый закадровый) (AlphaProject)","update":"2021-04-21 16:35:18","iframe_src":"//5091.svetacdn.in/71tsRs29n5tZ/movie/49774"},{"id":49773,"title":"Ранчо смерти","kp_id":"1274224","imdb_id":"tt10397188","world_art_id":null,"type":"movie","add":"2021-04-21 09:45:14","orig_title":"Death Ranch","year":"2020-04-10","translations":["Любительский (многоголосый закадровый) (@MUZOBOZ@)"],"quality":"webdl","translation":"Любительский (многоголосый закадровый) (@MUZOBOZ@)","update":"2021-04-21 16:35:03","iframe_src":"//5091.svetacdn.in/71tsRs29n5tZ/movie/49773"},{"id":49771,"title":"Убийца среди нас","kp_id":"1208435","imdb_id":"tt9213934","world_art_id":null,"type":"movie","add":"2021-04-21 09:41:26","orig_title":"Killer Among Us","year":"2021-04-16","translations":["Любительский (многоголосый закадровый) (@MUZOBOZ@)"],"quality":"webdl","translation":"Любительский (многоголосый закадровый) (@MUZOBOZ@)","update":"2021-04-21 15:01:51","iframe_src":"//5091.svetacdn.in/71tsRs29n5tZ/movie/49771"},{"id":49770,"title":"Заговор \"Марихуана\"","kp_id":"1237097","imdb_id":"tt8461042","world_art_id":null,"type":"movie","add":"2021-04-21 09:40:26","orig_title":"The Marijuana Conspiracy","year":"2020-01-18","translations":["Любительский (многоголосый закадровый) (Синема УС)"],"quality":"webdl","translation":"Любительский (многоголосый закадровый) (Синема УС)","update":"2021-04-21 13:29:54","iframe_src":"//5091.svetacdn.in/71tsRs29n5tZ/movie/49770"},{"id":49768,"title":"Эффект кармы","kp_id":"1449571","imdb_id":"tt13424390","world_art_id":null,"type":"movie","add":"2021-04-21 09:38:50","orig_title":"The Karma Effect","year":"2020-12-18","translations":["Любительский (многоголосый закадровый) (Синема УС)"],"quality":"webdl","translation":"Любительский (многоголосый закадровый) (Синема УС)","update":"2021-04-21 16:34:47","iframe_src":"//5091.svetacdn.in/71tsRs29n5tZ/movie/49768"},{"id":49767,"title":"Шаги","kp_id":"890824","imdb_id":"tt4340726","world_art_id":null,"type":"movie","add":"2021-04-21 09:37:24","orig_title":"Steps","year":"2017-11-23","translations":["Любительский (многоголосый закадровый) (Синема УС)"],"quality":"webdl","translation":"Любительский (многоголосый закадровый) (Синема УС)","update":"2021-04-21 16:34:23","iframe_src":"//5091.svetacdn.in/71tsRs29n5tZ/movie/49767"},{"id":49766,"title":"Отравленная кровь","kp_id":"1423465","imdb_id":"tt13013806","world_art_id":null,"type":"movie","add":"2021-04-21 09:05:53","orig_title":"Tainted Blood","year":"2020-01-01","translations":["Любительский (многоголосый закадровый) (Синема УС)"],"quality":"bd","translation":"Любительский (многоголосый закадровый) (Синема УС)","update":"2021-04-21 10:03:21","iframe_src":"//5091.svetacdn.in/71tsRs29n5tZ/movie/49766"},{"id":49764,"title":"Во имя зла","kp_id":"1312868","imdb_id":"tt11014390","world_art_id":null,"type":"movie","add":"2021-04-20 20:59:21","orig_title":"For the Sake of Vicious","year":"2021-04-20","translations":["Любительский (многоголосый закадровый) (@MUZOBOZ@)"],"quality":"webdl","translation":"Любительский (многоголосый закадровый) (@MUZOBOZ@)","update":"2021-04-21 09:43:11","iframe_src":"//5091.svetacdn.in/71tsRs29n5tZ/movie/49764"},{"id":49754,"title":"Попутчица","kp_id":"503352","imdb_id":"tt1613110","world_art_id":null,"type":"movie","add":"2021-04-20 19:15:26","orig_title":"Kanden Kadhalai","year":"2009-10-30","translations":["Любительский (одноголосый закадровый)"],"quality":"webdl","translation":"Любительский (одноголосый закадровый)","update":"2021-04-21 16:34:06","iframe_src":"//5091.svetacdn.in/71tsRs29n5tZ/movie/49754"},{"id":49689,"title":"Цена власти","kp_id":"1318905","imdb_id":"tt11152422","world_art_id":null,"type":"movie","add":"2021-04-18 18:35:10","orig_title":"Governance","year":"2021-04-12","translations":["Любительский (многоголосый закадровый) (AlphaProject)","Любительский (многоголосый закадровый) (AlphaProject)"],"quality":"webdl","translation":"Любительский (многоголосый закадровый) (AlphaProject)","update":"2021-04-21 09:49:08","iframe_src":"//5091.svetacdn.in/71tsRs29n5tZ/movie/49689"},{"id":49640,"title":"Аферист","kp_id":"2000712","imdb_id":"tt13393728","world_art_id":null,"type":"movie","add":"2021-04-15 20:47:38","orig_title":"The Con-Heartist","year":"2020-12-03","translations":["Любительский (многоголосый закадровый) (Синема УС)"],"quality":"webdl","translation":"Любительский (многоголосый закадровый) (Синема УС)","update":"2021-04-21 13:33:25","iframe_src":"//5091.svetacdn.in/71tsRs29n5tZ/movie/49640"},{"id":6724,"title":"Бык и Шпиндель","kp_id":"885330","imdb_id":"tt4868366","world_art_id":null,"type":"serial","add":"2020-02-25 15:18:24","orig_title":"Byk i Shpindel","year":"2015-01-30","translations":["Оригинальная дорожка"],"seasons_count":1,"episodes_count":4,"episodes":4,"update":"2020-02-26 10:20:51","iframe_src":"//5091.svetacdn.in/71tsRs29n5tZ/tv-series/6724"},{"id":6720,"title":"Фармацевт","kp_id":"1341575","imdb_id":"tt11600174","world_art_id":null,"type":"serial","add":"2020-02-25 07:25:48","orig_title":"The Pharmacist","year":"2020-02-05","translations":["Любительский (многоголосый закадровый) (WestFilm)"],"seasons_count":1,"episodes_count":4,"episodes":4,"update":"2020-02-25 11:54:01","iframe_src":"//5091.svetacdn.in/71tsRs29n5tZ/tv-series/6720"},{"id":6719,"title":"Возрождение фениксов","kp_id":"1184919","imdb_id":"tt7052634","world_art_id":null,"type":"serial","add":"2020-02-23 21:22:21","orig_title":"Tian sheng chang ge","year":"2018-08-14","translations":["Профессиональный (многоголосый закадровый) (HDrezka Studio)"],"seasons_count":1,"episodes_count":70,"episodes":70,"update":"2020-02-24 12:27:51","iframe_src":"//5091.svetacdn.in/71tsRs29n5tZ/tv-series/6719"},{"id":6712,"title":"Мужчины в деле","kp_id":"679843","imdb_id":"tt1942919","world_art_id":null,"type":"serial","add":"2020-02-22 20:40:42","orig_title":"Men at Work","year":"2012-05-24","translations":["Любительский (многоголосый закадровый) (Несмертельное оружие)"],"seasons_count":3,"episodes_count":30,"episodes":10,"update":"2020-02-25 20:30:41","iframe_src":"//5091.svetacdn.in/71tsRs29n5tZ/tv-series/6712"},{"id":6689,"title":"Хулиганы и ботаны","kp_id":"401639","imdb_id":"tt0193676","world_art_id":null,"type":"serial","add":"2020-02-20 09:30:29","orig_title":"Freaks and Geeks","year":"1999-09-25","translations":["Профессиональный (многоголосый закадровый)"],"seasons_count":1,"episodes_count":18,"episodes":18,"update":"2020-02-26 16:30:34","iframe_src":"//5091.svetacdn.in/71tsRs29n5tZ/tv-series/6689"},{"id":6678,"title":"Черный лес","kp_id":"1004802","imdb_id":"tt4093912","world_art_id":null,"type":"serial","add":"2020-02-18 17:25:19","orig_title":"Serramoura","year":"2014-10-05","translations":["Профессиональный (многоголосый закадровый) (Sony Sci-Fi)","Профессиональный (многоголосый закадровый) (Sony Channel)"],"seasons_count":2,"episodes_count":39,"episodes":15,"update":"2020-02-26 06:58:38","iframe_src":"//5091.svetacdn.in/71tsRs29n5tZ/tv-series/6678"},{"id":6658,"title":"Лётчики","kp_id":"1280500","imdb_id":"tt9468278","world_art_id":null,"type":"serial","add":"2020-02-17 09:54:36","orig_title":"Hoogvliegers","year":"2020-01-11","translations":["Любительский (многоголосый закадровый) (ColdFilm)"],"seasons_count":1,"episodes_count":8,"episodes":8,"update":"2020-02-25 05:03:30","iframe_src":"//5091.svetacdn.in/71tsRs29n5tZ/tv-series/6658"},{"id":6634,"title":"По тонкому льду","kp_id":"1346898","imdb_id":"tt11721492","world_art_id":null,"type":"serial","add":"2020-02-14 01:42:41","orig_title":"Thin Ice","year":"2020-02-03","translations":["Любительский (многоголосый закадровый) (Octopus)"],"seasons_count":1,"episodes_count":8,"episodes":8,"update":"2020-02-24 20:35:48","iframe_src":"//5091.svetacdn.in/71tsRs29n5tZ/tv-series/6634"},{"id":6631,"title":"Птичья песня","kp_id":"612266","imdb_id":"tt1127876","world_art_id":null,"type":"serial","add":"2020-02-13 17:35:16","orig_title":"Birdsong","year":"2012-01-22","translations":["Профессиональный (многоголосый закадровый) (BaibaKo)"],"seasons_count":1,"episodes_count":2,"episodes":2,"update":"2020-02-25 18:28:11","iframe_src":"//5091.svetacdn.in/71tsRs29n5tZ/tv-series/6631"},{"id":6621,"title":"Профиль убийцы","kp_id":"280904","imdb_id":"tt0115322","world_art_id":null,"type":"serial","add":"2020-02-11 17:38:27","orig_title":"Profiler","year":"2000-01-16","translations":["Профессиональный (многоголосый закадровый) (Fox Crime)"],"seasons_count":4,"episodes_count":82,"episodes":20,"update":"2020-02-24 17:56:40","iframe_src":"//5091.svetacdn.in/71tsRs29n5tZ/tv-series/6621"},{"id":6569,"title":"Хи-Мэн и Властелины Вселенной","kp_id":"229750","imdb_id":"tt0126158","world_art_id":null,"type":"serial","add":"2020-02-05 18:25:47","orig_title":"He-Man and the Masters of the Universe","year":"1983-09-26","translations":["Профессиональный (двухголосый закадровый)","Профессиональный (многоголосый закадровый)"],"seasons_count":2,"episodes_count":103,"episodes":65,"update":"2020-02-25 18:53:03","iframe_src":"//5091.svetacdn.in/71tsRs29n5tZ/tv-series/6569"},{"id":6546,"title":"Филатов","kp_id":"1162785","imdb_id":"tt10664510","world_art_id":null,"type":"serial","add":"2020-02-03 13:50:25","orig_title":"Filatov","year":"2020-02-03","translations":["Оригинальная дорожка"],"seasons_count":1,"episodes_count":21,"episodes":21,"update":"2020-02-24 19:05:14","iframe_src":"//5091.svetacdn.in/71tsRs29n5tZ/tv-series/6546"},{"id":6488,"title":"Джастин Бибер: Сезоны","kp_id":null,"imdb_id":"tt11534192","world_art_id":null,"type":"serial","add":"2020-01-28 10:27:26","orig_title":"Justin Bieber: Seasons","year":"2020-01-27","translations":["Любительский (многоголосый закадровый) (ColdFilm)"],"seasons_count":1,"episodes_count":10,"episodes":10,"update":"2020-02-26 22:51:02","iframe_src":"//5091.svetacdn.in/71tsRs29n5tZ/tv-series/6488"},{"id":6423,"title":"Стеклянная комната","kp_id":"1331263","imdb_id":null,"world_art_id":null,"type":"serial","add":"2020-01-20 20:18:27","orig_title":"Стеклянная комната","year":"2019-05-04","translations":["Оригинальная дорожка"],"seasons_count":1,"episodes_count":4,"episodes":4,"update":"2020-02-23 20:51:31","iframe_src":"//5091.svetacdn.in/71tsRs29n5tZ/tv-series/6423"},{"id":4639,"title":"Проводник","kp_id":"1118052","imdb_id":"tt7861612","world_art_id":null,"type":"serial","add":"2019-06-07 15:48:34","orig_title":"The InBetween","year":"2019-05-29","translations":["Профессиональный (многоголосый закадровый) (TVShows)","Профессиональный (многоголосый закадровый) (NewStudio)","Профессиональный (многоголосый закадровый) (HDrezka Studio)"],"seasons_count":1,"episodes_count":10,"episodes":10,"update":"2020-02-24 03:34:49","iframe_src":"//5091.svetacdn.in/71tsRs29n5tZ/tv-series/4639"},{"id":4271,"title":"А теперь – апокалипсис","kp_id":"1122832","imdb_id":"tt8201814","world_art_id":null,"type":"serial","add":"2019-03-17 15:02:43","orig_title":"Now Apocalypse","year":"2019-03-10","translations":["Профессиональный (многоголосый закадровый) (NewStudio)","Профессиональный (многоголосый закадровый) (TVShows)","Профессиональный (многоголосый закадровый) (HDrezka Studio)"],"seasons_count":1,"episodes_count":10,"episodes":10,"update":"2020-02-24 02:58:40","iframe_src":"//5091.svetacdn.in/71tsRs29n5tZ/tv-series/4271"},{"id":1086,"title":"Диета из Санта-Клариты","kp_id":"1008346","imdb_id":"tt5580540","world_art_id":null,"type":"serial","add":"2017-03-08 03:58:15","orig_title":"Santa Clarita Diet","year":"2017-02-03","translations":["Профессиональный (многоголосый закадровый) (NewStudio)","Профессиональный (многоголосый закадровый) (IdeaFilm)","Профессиональный (многоголосый закадровый) (Netflix)"],"seasons_count":3,"episodes_count":30,"episodes":10,"update":"2020-02-26 07:10:46","iframe_src":"//5091.svetacdn.in/71tsRs29n5tZ/tv-series/1086"},{"id":737,"title":"Мыслить как преступник","kp_id":"355828","imdb_id":"tt0452046","world_art_id":null,"type":"serial","add":"2016-12-26 09:46:43","orig_title":"Criminal Minds","year":"2005-09-22","translations":["Профессиональный (многоголосый закадровый) (FOX)","Профессиональный (многоголосый закадровый) (ДТВ)","Профессиональный (многоголосый закадровый) (IdeaFilm)","Профессиональный (многоголосый закадровый) (Jaskier)","Профессиональный (многоголосый закадровый) (TVShows)","Любительский (многоголосый закадровый) (ColdFilm)","Любительский (многоголосый закадровый) (Octopus)"],"seasons_count":15,"episodes_count":322,"episodes":10,"update":"2020-02-25 10:23:05","iframe_src":"//5091.svetacdn.in/71tsRs29n5tZ/tv-series/737"},{"id":680,"title":"Агата Рейзин","kp_id":"932339","imdb_id":"tt5015548","world_art_id":null,"type":"serial","add":"2016-12-12 13:54:53","orig_title":"Agatha Raisin","year":"2016-06-07","translations":["Профессиональный (многоголосый закадровый) (ViruseProject)","Любительский (многоголосый закадровый) (ColdFilm)","Любительский (многоголосый закадровый) (Octopus)","Профессиональный (многоголосый закадровый) (TVShows)"],"seasons_count":3,"episodes_count":18,"episodes":7,"update":"2020-02-25 15:06:48","iframe_src":"//5091.svetacdn.in/71tsRs29n5tZ/tv-series/680"},{"id":4842,"title":"Деревня проклятых","kp_id":"8666","imdb_id":"tt0114852","world_art_id":null,"type":"movie","add":"2016-08-29 09:59:41","orig_title":"Village of the Damned","year":"1995-04-28","translations":["Профессиональный (многоголосый закадровый)","Original (English)","Авторский (одноголосый закадровый) (Карцев Пётр)","Авторский (одноголосый закадровый) (Живов Юрий)","Профессиональный (двухголосый закадровый) (Премьер Видео Фильм)","Профессиональный (многоголосый закадровый)","Профессиональный (многоголосый закадровый) (СТС)"],"quality":"bd","translation":"Профессиональный (многоголосый закадровый)","update":"2021-04-21 09:47:15","iframe_src":"//5091.svetacdn.in/71tsRs29n5tZ/movie/4842"},{"id":4402,"title":"Он снова здесь","kp_id":"907661","imdb_id":"tt4176826","world_art_id":null,"type":"movie","add":"2016-08-12 09:15:55","orig_title":"Er ist wieder da","year":"2015-10-08","translations":["Авторский (одноголосый закадровый) (Карповский Антон)","Любительский (многоголосый закадровый) (Синема УС)","Профессиональный (многоголосый закадровый) (Pazl Voice)"],"quality":"bd","translation":"Авторский (одноголосый закадровый) (Карповский Антон)","update":"2021-04-21 09:53:41","iframe_src":"//5091.svetacdn.in/71tsRs29n5tZ/movie/4402"},{"id":4372,"title":"Центурион","kp_id":"437833","imdb_id":"tt1020558","world_art_id":null,"type":"movie","add":"2016-08-10 13:08:48","orig_title":"Centurion","year":"2010-02-15","translations":["Полное дублирование","Авторский (одноголосый закадровый) (Немахов Юрий)","Полное дублирование (Пифагор)","Original (English)","Любительский (одноголосый закадровый)  (zamez | Замез Вячеслав)","Профессиональный (двухголосый закадровый)","Профессиональный (многоголосый закадровый) (ВГТРК)"],"quality":"bd","translation":"Полное дублирование","update":"2021-04-21 13:43:01","iframe_src":"//5091.svetacdn.in/71tsRs29n5tZ/movie/4372"},{"id":170,"title":"Виндзоры","kp_id":"982724","imdb_id":"tt5692740","world_art_id":null,"type":"serial","add":"2016-06-09 13:33:50","orig_title":"The Windsors","year":"2016-05-06","translations":["Любительский (двухголосый закадровый) (Sunshine Studio)","Любительский (многоголосый закадровый) (Octopus)","Любительский (многоголосый закадровый) (ColdFilm)"],"seasons_count":2,"episodes_count":12,"episodes":6,"update":"2020-02-27 04:36:31","iframe_src":"//5091.svetacdn.in/71tsRs29n5tZ/tv-series/170"},{"id":1650,"title":"Леон","kp_id":"389","imdb_id":"tt0110413","world_art_id":null,"type":"movie","add":"2016-04-24 17:57:35","orig_title":"Léon","year":"1994-09-14","translations":["Профессиональный (многоголосый закадровый) (Amalgama)","Авторский (одноголосый закадровый) (Гоблин | Пучков Дмитрий)","Original (English)","Авторский (одноголосый закадровый) (Гаврилов Андрей)","Авторский (одноголосый закадровый) (Живов Юрий)","Профессиональный (двухголосый закадровый) (Кубик в Кубе)"],"quality":"bd","translation":"Профессиональный (многоголосый закадровый) (Amalgama)","update":"2021-04-21 10:26:31","iframe_src":"//5091.svetacdn.in/71tsRs29n5tZ/movie/1650"}],"current_page":309,"first_page_url":"https://videocdn.tv/api/short?limit=100&api_token=EnbO9h8pv1VyjbCJhg0WM9nG259n7mtz&cache3309=3309&page=1","from":30801,"last_page":665,"last_page_url":"https://videocdn.tv/api/short?limit=100&api_token=EnbO9h8pv1VyjbCJhg0WM9nG259n7mtz&cache3309=3309&page=665","next_page_url":"https://videocdn.tv/api/short?limit=100&api_token=EnbO9h8pv1VyjbCJhg0WM9nG259n7mtz&cache3309=3309&page=310","path":"https://videocdn.tv/api/short","per_page":100,"prev_page_url":"https://videocdn.tv/api/short?limit=100&api_token=EnbO9h8pv1VyjbCJhg0WM9nG259n7mtz&cache3309=3309&page=308","to":30840,"total":66477}