{"result":true,"data":[{"id":12298,"title":"Лето в поисках «Корвета»","kp_id":"2471","imdb_id":"tt0077372","world_art_id":null,"type":"movie","add":"2017-07-05 11:26:20","orig_title":"Corvette Summer","year":"1978-06-02","translations":["Авторский (одноголосый закадровый) (Алексеев Антон)"],"quality":"webdl","translation":"Авторский (одноголосый закадровый) (Алексеев Антон)","update":"2017-07-06 06:47:29","iframe_src":"//8543.svetacdn.in/71tsRs29n5tZ/movie/12298"},{"id":12297,"title":"Сумасброды 2: Не в своем уме","kp_id":"54958","imdb_id":"tt0089501","world_art_id":null,"type":"movie","add":"2017-07-05 11:23:05","orig_title":"Loose Screws","year":"1985-07-19","translations":["Авторский (одноголосый закадровый) (Иванов Михаил)"],"quality":"bd","translation":"Авторский (одноголосый закадровый) (Иванов Михаил)","update":"2017-07-06 06:45:57","iframe_src":"//8543.svetacdn.in/71tsRs29n5tZ/movie/12297"},{"id":12296,"title":"Сумасброды","kp_id":"60421","imdb_id":"tt0086264","world_art_id":null,"type":"movie","add":"2017-07-05 11:21:28","orig_title":"Screwballs","year":"1983-04-01","translations":["Авторский (одноголосый закадровый) (Володарский Леонид)"],"quality":"bd","translation":"Авторский (одноголосый закадровый) (Володарский Леонид)","update":"2017-07-06 06:44:47","iframe_src":"//8543.svetacdn.in/71tsRs29n5tZ/movie/12296"},{"id":12262,"title":"Салют, друзья!","kp_id":"19658","imdb_id":"tt0036326","world_art_id":null,"type":"movie","add":"2017-07-02 09:54:35","orig_title":"Saludos Amigos","year":"1942-08-24","translations":["Профессиональный (многоголосый закадровый)"],"quality":"webdl","translation":"Профессиональный (многоголосый закадровый)","update":"2017-07-06 06:38:45","iframe_src":"//8543.svetacdn.in/71tsRs29n5tZ/movie/12262"},{"id":12260,"title":"Путешествия Гулливера","kp_id":"81398","imdb_id":"tt0031397","world_art_id":null,"type":"movie","add":"2017-07-02 09:51:23","orig_title":"Gulliver's Travels","year":"1939-12-18","translations":["Профессиональный (многоголосый закадровый)"],"quality":"bd","translation":"Профессиональный (многоголосый закадровый)","update":"2017-07-06 06:36:24","iframe_src":"//8543.svetacdn.in/71tsRs29n5tZ/movie/12260"},{"id":12259,"title":"Звероферма","kp_id":"79901","imdb_id":"tt0047834","world_art_id":null,"type":"movie","add":"2017-07-02 09:50:00","orig_title":"Animal Farm","year":"1954-12-29","translations":["Профессиональный (многоголосый закадровый)"],"quality":"bd","translation":"Профессиональный (многоголосый закадровый)","update":"2017-07-06 06:34:39","iframe_src":"//8543.svetacdn.in/71tsRs29n5tZ/movie/12259"},{"id":12258,"title":"Три кабальеро","kp_id":"19629","imdb_id":"tt0038166","world_art_id":null,"type":"movie","add":"2017-07-02 09:48:35","orig_title":"The Three Caballeros","year":"1944-12-21","translations":["Профессиональный (одноголосый закадровый)"],"quality":"hdtv","translation":"Профессиональный (одноголосый закадровый)","update":"2017-07-06 06:32:44","iframe_src":"//8543.svetacdn.in/71tsRs29n5tZ/movie/12258"},{"id":12257,"title":"Фантазия","kp_id":"536","imdb_id":"tt0032455","world_art_id":null,"type":"movie","add":"2017-07-02 09:44:55","orig_title":"Fantasia","year":"1940-11-13","translations":["Профессиональный (одноголосый закадровый)"],"quality":"bd","translation":"Профессиональный (одноголосый закадровый)","update":"2017-07-06 06:31:39","iframe_src":"//8543.svetacdn.in/71tsRs29n5tZ/movie/12257"},{"id":12256,"title":"Кусачки","kp_id":"877807","imdb_id":"tt3750826","world_art_id":null,"type":"movie","add":"2017-07-02 09:35:42","orig_title":"Wire Cutters","year":"2014-07-26","translations":["Оригинальная дорожка"],"quality":"webdl","translation":"Оригинальная дорожка","update":"2017-07-06 06:29:23","iframe_src":"//8543.svetacdn.in/71tsRs29n5tZ/movie/12256"},{"id":12255,"title":"Неизвестная планета","kp_id":"1007458","imdb_id":"tt5850826","world_art_id":null,"type":"movie","add":"2017-07-02 09:34:43","orig_title":"Planet Unknown","year":"2016-06-10","translations":["Оригинальная дорожка"],"quality":"webdl","translation":"Оригинальная дорожка","update":"2017-07-05 05:34:21","iframe_src":"//8543.svetacdn.in/71tsRs29n5tZ/movie/12255"},{"id":12254,"title":"Путь к сердцу","kp_id":"989469","imdb_id":"tt5807512","world_art_id":null,"type":"movie","add":"2017-07-02 09:33:33","orig_title":"Workings","year":"2016-06-17","translations":["Оригинальная дорожка"],"quality":"bd","translation":"Оригинальная дорожка","update":"2017-07-05 05:33:06","iframe_src":"//8543.svetacdn.in/71tsRs29n5tZ/movie/12254"},{"id":12253,"title":"Шумер","kp_id":"926772","imdb_id":"tt4027918","world_art_id":null,"type":"movie","add":"2017-07-02 09:32:08","orig_title":"Sumer","year":"2015-03-27","translations":["Любительский (двухголосый закадровый) (DeeAFilm Studio)"],"quality":"webdl","translation":"Любительский (двухголосый закадровый) (DeeAFilm Studio)","update":"2017-07-05 05:31:50","iframe_src":"//8543.svetacdn.in/71tsRs29n5tZ/movie/12253"},{"id":12251,"title":"Чёрные дыры","kp_id":"1008855","imdb_id":"tt6346080","world_art_id":null,"type":"movie","add":"2017-07-02 09:29:22","orig_title":"Black Holes","year":"2017-01-19","translations":["Любительский (двухголосый закадровый) (DeeAFilm Studio)"],"quality":"webdl","translation":"Любительский (двухголосый закадровый) (DeeAFilm Studio)","update":"2017-07-05 05:28:10","iframe_src":"//8543.svetacdn.in/71tsRs29n5tZ/movie/12251"},{"id":12250,"title":"Лего Атлантида","kp_id":"512608","imdb_id":"tt1640145","world_art_id":null,"type":"movie","add":"2017-07-02 09:27:55","orig_title":"Lego Atlantis","year":"2010-01-15","translations":["Полное дублирование"],"quality":"webdl","translation":"Полное дублирование","update":"2017-07-05 05:26:31","iframe_src":"//8543.svetacdn.in/71tsRs29n5tZ/movie/12250"},{"id":12249,"title":"Приключения Икабода и мистера Тоада","kp_id":"9058","imdb_id":"tt0041094","world_art_id":null,"type":"movie","add":"2017-07-02 09:27:07","orig_title":"The Adventures of Ichabod and Mr. Toad","year":"1949-10-05","translations":["Полное дублирование"],"quality":"bd","translation":"Полное дублирование","update":"2017-07-05 05:25:44","iframe_src":"//8543.svetacdn.in/71tsRs29n5tZ/movie/12249"},{"id":12248,"title":"Спящая красавица","kp_id":"8232","imdb_id":"tt0053285","world_art_id":null,"type":"movie","add":"2017-07-02 09:26:02","orig_title":"Sleeping Beauty","year":"1959-01-29","translations":["Полное дублирование"],"quality":"bd","translation":"Полное дублирование","update":"2017-07-05 05:24:36","iframe_src":"//8543.svetacdn.in/71tsRs29n5tZ/movie/12248"},{"id":12226,"title":"Хоббит","kp_id":"5920","imdb_id":"tt0077687","world_art_id":null,"type":"movie","add":"2017-06-29 11:15:01","orig_title":"The Hobbit","year":"1977-11-27","translations":["Профессиональный (многоголосый закадровый)"],"quality":"webdl","translation":"Профессиональный (многоголосый закадровый)","update":"2017-07-05 05:19:23","iframe_src":"//8543.svetacdn.in/71tsRs29n5tZ/movie/12226"},{"id":12225,"title":"Безумный, безумный, безумный кролик Банни","kp_id":"53280","imdb_id":"tt0082679","world_art_id":null,"type":"movie","add":"2017-06-29 11:13:54","orig_title":"Looney, Looney, Looney Bugs Bunny Movie","year":"1981-11-20","translations":["Профессиональный (многоголосый закадровый) (ТНТ)"],"quality":"webdl","translation":"Профессиональный (многоголосый закадровый) (ТНТ)","update":"2017-07-05 05:18:07","iframe_src":"//8543.svetacdn.in/71tsRs29n5tZ/movie/12225"},{"id":12224,"title":"Веселый Париж","kp_id":"2396","imdb_id":"tt0057093","world_art_id":null,"type":"movie","add":"2017-06-29 11:13:00","orig_title":"Gay Purr-ee","year":"1962-10-24","translations":["Профессиональный (многоголосый закадровый)"],"quality":"webdl","translation":"Профессиональный (многоголосый закадровый)","update":"2017-07-05 05:16:46","iframe_src":"//8543.svetacdn.in/71tsRs29n5tZ/movie/12224"},{"id":12223,"title":"1001 сказка Багза Банни","kp_id":"34091","imdb_id":"tt0083701","world_art_id":null,"type":"movie","add":"2017-06-29 11:12:01","orig_title":"Bugs Bunny's 3rd Movie: 1001 Rabbit Tales","year":"1982-11-19","translations":["Профессиональный (многоголосый закадровый) (ТНТ)"],"quality":"webdl","translation":"Профессиональный (многоголосый закадровый) (ТНТ)","update":"2017-07-05 05:15:37","iframe_src":"//8543.svetacdn.in/71tsRs29n5tZ/movie/12223"}],"current_page":1989,"first_page_url":"https://videocdn.tv/api/short?limit=100&api_token=EnbO9h8pv1VyjbCJhg0WM9nG259n7mtz&cache31989=31989&page=1","from":198801,"last_page":610,"last_page_url":"https://videocdn.tv/api/short?limit=100&api_token=EnbO9h8pv1VyjbCJhg0WM9nG259n7mtz&cache31989=31989&page=610","next_page_url":null,"path":"https://videocdn.tv/api/short","per_page":100,"prev_page_url":"https://videocdn.tv/api/short?limit=100&api_token=EnbO9h8pv1VyjbCJhg0WM9nG259n7mtz&cache31989=31989&page=1988","to":198820,"total":60916}