{"result":true,"data":[{"id":17236,"title":"В поисках Жу","kp_id":"626826","imdb_id":"tt2073154","world_art_id":null,"type":"movie","add":"2018-06-19 00:42:53","orig_title":"Quest for Zhu","year":"2011-09-27","translations":["Полное дублирование"],"quality":"bd","translation":"Полное дублирование","update":"2018-06-19 05:32:18","iframe_src":"//24213.svetacdn.in/si4jsFRrtgrT/movie/17236"},{"id":17232,"title":"Спокойной ночи","kp_id":"195290","imdb_id":"tt0484111","world_art_id":null,"type":"movie","add":"2018-06-18 09:11:39","orig_title":"The Good Night","year":"2007-01-25","translations":["Профессиональный (многоголосый закадровый) (CP Digital)"],"quality":"webdl","translation":"Профессиональный (многоголосый закадровый) (CP Digital)","update":"2018-06-18 21:12:20","iframe_src":"//24213.svetacdn.in/si4jsFRrtgrT/movie/17232"},{"id":17229,"title":"Девять зимних дней","kp_id":"914265","imdb_id":"tt4722044","world_art_id":null,"type":"movie","add":"2018-06-17 22:49:26","orig_title":"Neuf jours en hiver","year":"2015-09-12","translations":["Профессиональный (многоголосый закадровый) (GreenРай Studio)"],"quality":"hdtv","translation":"Профессиональный (многоголосый закадровый) (GreenРай Studio)","update":"2018-06-18 10:15:46","iframe_src":"//24213.svetacdn.in/si4jsFRrtgrT/movie/17229"},{"id":17220,"title":"Свадьба Мистера Дарси","kp_id":"1160122","imdb_id":"tt8039362","world_art_id":null,"type":"movie","add":"2018-06-17 22:06:34","orig_title":"Marrying Mr. Darcy","year":"2018-06-02","translations":["Любительский (многоголосый закадровый) (Синема УС)"],"quality":"hdtv","translation":"Любительский (многоголосый закадровый) (Синема УС)","update":"2018-06-18 10:22:10","iframe_src":"//24213.svetacdn.in/si4jsFRrtgrT/movie/17220"},{"id":17218,"title":"Безмолвные преступления","kp_id":"1060717","imdb_id":"tt7442320","world_art_id":null,"type":"movie","add":"2018-06-17 22:00:34","orig_title":"Les crimes silencieux","year":"2017-04-20","translations":["Любительский (многоголосый закадровый) (Синема УС)"],"quality":"hdtv","translation":"Любительский (многоголосый закадровый) (Синема УС)","update":"2018-06-19 06:01:16","iframe_src":"//24213.svetacdn.in/si4jsFRrtgrT/movie/17218"},{"id":17216,"title":"Расследование Хейли Дин: Cмертельное наследство","kp_id":"1043737","imdb_id":"tt6697760","world_art_id":null,"type":"movie","add":"2018-06-17 21:51:40","orig_title":"Hailey Dean Mystery: Deadly Estate","year":"2017-04-09","translations":["Любительский (многоголосый закадровый) (Синема УС)"],"quality":"hdtv","translation":"Любительский (многоголосый закадровый) (Синема УС)","update":"2018-06-19 06:03:53","iframe_src":"//24213.svetacdn.in/si4jsFRrtgrT/movie/17216"},{"id":17214,"title":"Диана, 7 дней","kp_id":null,"imdb_id":"tt7294116","world_art_id":null,"type":"movie","add":"2018-06-17 21:47:37","orig_title":"Diana, 7 Days","year":"2017-08-27","translations":["Любительский (многоголосый закадровый) (Синема УС)"],"quality":"webdl","translation":"Любительский (многоголосый закадровый) (Синема УС)","update":"2018-06-19 06:04:58","iframe_src":"//24213.svetacdn.in/si4jsFRrtgrT/movie/17214"},{"id":17210,"title":"Быть","kp_id":"847364","imdb_id":"tt4119414","world_art_id":null,"type":"movie","add":"2018-06-17 21:32:26","orig_title":"Être","year":"2014-10-04","translations":["Профессиональный (многоголосый закадровый) (GreenРай Studio)"],"quality":"dvdrip","translation":"Профессиональный (многоголосый закадровый) (GreenРай Studio)","update":"2018-06-19 06:04:49","iframe_src":"//24213.svetacdn.in/si4jsFRrtgrT/movie/17210"},{"id":17209,"title":"Сопутствующий ущерб","kp_id":"848289","imdb_id":"tt3550066","world_art_id":null,"type":"movie","add":"2018-06-17 21:30:21","orig_title":"Dommages collatéraux","year":"2014-02-23","translations":["Профессиональный (многоголосый закадровый) (GreenРай Studio)"],"quality":"hdtv","translation":"Профессиональный (многоголосый закадровый) (GreenРай Studio)","update":"2018-06-19 06:05:34","iframe_src":"//24213.svetacdn.in/si4jsFRrtgrT/movie/17209"},{"id":17205,"title":"Зигмаринген. Последнее пристанище","kp_id":null,"imdb_id":"tt6534876","world_art_id":null,"type":"movie","add":"2018-06-16 00:04:59","orig_title":"Sigmaringen, le dernier refuge","year":"2017-08-29","translations":["Любительский (многоголосый закадровый) (Синема УС)"],"quality":"hdtv","translation":"Любительский (многоголосый закадровый) (Синема УС)","update":"2018-06-19 06:12:15","iframe_src":"//24213.svetacdn.in/si4jsFRrtgrT/movie/17205"},{"id":17179,"title":"Поход","kp_id":"970250","imdb_id":"tt5511970","world_art_id":null,"type":"movie","add":"2018-06-14 20:40:20","orig_title":"Le périple","year":"2015-01-01","translations":["Любительский (многоголосый закадровый) (Колобок)"],"quality":"webdl","translation":"Любительский (многоголосый закадровый) (Колобок)","update":"2018-06-18 07:49:53","iframe_src":"//24213.svetacdn.in/si4jsFRrtgrT/movie/17179"},{"id":17178,"title":"Озера Страха 2: Болото","kp_id":"1000142","imdb_id":"tt5515374","world_art_id":null,"type":"movie","add":"2018-06-14 20:37:56","orig_title":"The Everglades Killings","year":"2016-11-12","translations":["Любительский (многоголосый закадровый) (Синема УС)"],"quality":"webdl","translation":"Любительский (многоголосый закадровый) (Синема УС)","update":"2018-06-18 07:48:05","iframe_src":"//24213.svetacdn.in/si4jsFRrtgrT/movie/17178"},{"id":17175,"title":"Человек","kp_id":"1068657","imdb_id":"tt6959734","world_art_id":null,"type":"movie","add":"2018-06-14 20:24:59","orig_title":"Human","year":"2017-04-18","translations":["Любительский (многоголосый закадровый) (Синема УС)"],"quality":"webdl","translation":"Любительский (многоголосый закадровый) (Синема УС)","update":"2018-06-18 07:40:30","iframe_src":"//24213.svetacdn.in/si4jsFRrtgrT/movie/17175"},{"id":17173,"title":"Забудь про Ника","kp_id":"961504","imdb_id":"tt5373854","world_art_id":null,"type":"movie","add":"2018-06-14 20:15:01","orig_title":"Forget About Nick","year":"2017-09-29","translations":["Любительский (многоголосый закадровый) (Синема УС)"],"quality":"dvdrip","translation":"Любительский (многоголосый закадровый) (Синема УС)","update":"2018-06-18 07:33:51","iframe_src":"//24213.svetacdn.in/si4jsFRrtgrT/movie/17173"},{"id":17172,"title":"Лето на Кипре","kp_id":"1020700","imdb_id":"tt6464512","world_art_id":null,"type":"movie","add":"2018-06-14 20:13:24","orig_title":"Ein Sommer auf Zypern","year":"2017-05-21","translations":["Любительский (многоголосый закадровый) (Синема УС)"],"quality":"hdtv","translation":"Любительский (многоголосый закадровый) (Синема УС)","update":"2018-06-18 07:33:56","iframe_src":"//24213.svetacdn.in/si4jsFRrtgrT/movie/17172"},{"id":15584,"title":"Грабители","kp_id":"1048091","imdb_id":null,"world_art_id":null,"type":"movie","add":"2018-03-12 22:03:16","orig_title":"Грабители","year":"2017-03-12","translations":["Оригинальная дорожка"],"quality":"webdl","translation":"Оригинальная дорожка","update":"2018-06-19 05:39:26","iframe_src":"//24213.svetacdn.in/si4jsFRrtgrT/movie/15584"},{"id":14369,"title":"Согласен, но на время","kp_id":"804674","imdb_id":"tt3234084","world_art_id":null,"type":"movie","add":"2017-11-15 22:35:41","orig_title":"I Do... Until I Don't","year":"2017-09-01","translations":["Любительский (многоголосый закадровый) (Синема УС)","Полное дублирование"],"quality":"webdl","translation":"Любительский (многоголосый закадровый) (Синема УС)","update":"2018-06-18 07:42:36","iframe_src":"//24213.svetacdn.in/si4jsFRrtgrT/movie/14369"},{"id":12619,"title":"Забытый Феникс","kp_id":"1033665","imdb_id":"tt6574272","world_art_id":null,"type":"movie","add":"2017-07-24 16:54:45","orig_title":"Phoenix Forgotten","year":"2017-04-21","translations":["Любительский (многоголосый закадровый) (@MUZOBOZ@)","Профессиональный (многоголосый закадровый)"],"quality":"bd","translation":"Любительский (многоголосый закадровый) (@MUZOBOZ@)","update":"2018-06-19 06:14:21","iframe_src":"//24213.svetacdn.in/si4jsFRrtgrT/movie/12619"},{"id":10564,"title":"Никчёмные люди","kp_id":"850020","imdb_id":"tt4153324","world_art_id":null,"type":"movie","add":"2017-03-28 00:14:59","orig_title":"Tjuvheder","year":"2015-09-20","translations":["Любительский (одноголосый закадровый)","Профессиональный (многоголосый закадровый) (GreenРай Studio)"],"quality":"dvdrip","translation":"Любительский (одноголосый закадровый)","update":"2018-06-19 06:10:33","iframe_src":"//24213.svetacdn.in/si4jsFRrtgrT/movie/10564"},{"id":8466,"title":"Никому не нужна ночь","kp_id":"744488","imdb_id":"tt2735996","world_art_id":null,"type":"movie","add":"2016-12-30 12:17:26","orig_title":"Nadie quiere la noche","year":"2015-02-05","translations":["Любительский (двухголосый закадровый)","Любительский (многоголосый закадровый) (Синема УС)"],"quality":"bd","translation":"Любительский (двухголосый закадровый)","update":"2018-06-19 05:56:04","iframe_src":"//24213.svetacdn.in/si4jsFRrtgrT/movie/8466"}],"current_page":2341,"first_page_url":"https://videocdn.tv/api/short?limit=100&api_token=X6EwAUfE5M9xbo7y0Bp0aPf3uXxG2KLL&cache32341=32341&page=1","from":234001,"last_page":728,"last_page_url":"https://videocdn.tv/api/short?limit=100&api_token=X6EwAUfE5M9xbo7y0Bp0aPf3uXxG2KLL&cache32341=32341&page=728","next_page_url":null,"path":"https://videocdn.tv/api/short","per_page":100,"prev_page_url":"https://videocdn.tv/api/short?limit=100&api_token=X6EwAUfE5M9xbo7y0Bp0aPf3uXxG2KLL&cache32341=32341&page=2340","to":234020,"total":72780}