{"result":true,"data":[{"id":47297,"title":"Ищу козла","kp_id":"1426457","imdb_id":null,"world_art_id":null,"type":"movie","add":"2021-01-21 16:36:15","orig_title":"Ищу козла","year":"2020-01-01","translations":["Оригинальная дорожка"],"quality":"webdl","translation":"Оригинальная дорожка","update":"2021-01-21 17:37:42","iframe_src":"//8543.svetacdn.in/IAF0wWTdNYZm/movie/47297"},{"id":47289,"title":"Дерево растет в Бруклине","kp_id":"1153","imdb_id":"tt0038190","world_art_id":null,"type":"movie","add":"2021-01-21 09:25:07","orig_title":"A Tree Grows in Brooklyn","year":"1945-02-28","translations":["Любительский (одноголосый закадровый)"],"quality":"bd","translation":"Любительский (одноголосый закадровый)","update":"2021-01-21 14:02:52","iframe_src":"//8543.svetacdn.in/IAF0wWTdNYZm/movie/47289"},{"id":47287,"title":"Хлеб в траве","kp_id":"175548","imdb_id":"tt0046794","world_art_id":null,"type":"movie","add":"2021-01-21 05:47:53","orig_title":"Le blé en herbe","year":"1954-01-20","translations":["Любительский (одноголосый закадровый) (acolith)"],"quality":"bd","translation":"Любительский (одноголосый закадровый) (acolith)","update":"2021-01-21 10:49:16","iframe_src":"//8543.svetacdn.in/IAF0wWTdNYZm/movie/47287"},{"id":47286,"title":"Твое сердце танцует в ритм","kp_id":"1415458","imdb_id":"tt10662234","world_art_id":null,"type":"movie","add":"2021-01-20 21:55:19","orig_title":"Into the Beat - Dein Herz tanzt","year":"2020-07-16","translations":["Любительский (многоголосый закадровый) (Синема УС)"],"quality":"bd","translation":"Любительский (многоголосый закадровый) (Синема УС)","update":"2021-01-21 11:17:35","iframe_src":"//8543.svetacdn.in/IAF0wWTdNYZm/movie/47286"},{"id":47285,"title":"Фрау Штерн","kp_id":"1277631","imdb_id":"tt10286140","world_art_id":null,"type":"movie","add":"2021-01-20 21:53:47","orig_title":"Frau Stern","year":"2019-04-12","translations":["Любительский (многоголосый закадровый) (Синема УС)"],"quality":"webdl","translation":"Любительский (многоголосый закадровый) (Синема УС)","update":"2021-01-21 11:17:04","iframe_src":"//8543.svetacdn.in/IAF0wWTdNYZm/movie/47285"},{"id":47284,"title":"На связи","kp_id":"1394863","imdb_id":"tt12734582","world_art_id":null,"type":"movie","add":"2021-01-20 21:51:49","orig_title":"Connectés","year":"2020-11-12","translations":["Любительский (многоголосый закадровый) (Синема УС)"],"quality":"webdl","translation":"Любительский (многоголосый закадровый) (Синема УС)","update":"2021-01-21 11:16:12","iframe_src":"//8543.svetacdn.in/IAF0wWTdNYZm/movie/47284"},{"id":47283,"title":"Прелестные","kp_id":"1208860","imdb_id":"tt7438706","world_art_id":null,"type":"movie","add":"2021-01-20 21:50:23","orig_title":"Adorables","year":"2020-07-22","translations":["Любительский (многоголосый закадровый) (Синема УС)"],"quality":"webdl","translation":"Любительский (многоголосый закадровый) (Синема УС)","update":"2021-01-21 11:15:32","iframe_src":"//8543.svetacdn.in/IAF0wWTdNYZm/movie/47283"},{"id":47282,"title":"Папа на седьмом небе","kp_id":"1295453","imdb_id":"tt10816558","world_art_id":null,"type":"movie","add":"2021-01-20 21:47:17","orig_title":"Papa auf Wolke 7","year":"2020-10-30","translations":["Любительский (многоголосый закадровый) (AlphaProject)"],"quality":"hdtv","translation":"Любительский (многоголосый закадровый) (AlphaProject)","update":"2021-01-21 11:14:59","iframe_src":"//8543.svetacdn.in/IAF0wWTdNYZm/movie/47282"},{"id":47270,"title":"Слишком человеческое","kp_id":"996157","imdb_id":"tt5879028","world_art_id":null,"type":"movie","add":"2021-01-20 18:55:22","orig_title":"All Too Human","year":"2018-05-17","translations":["Любительский (многоголосый закадровый) (Синема УС)"],"quality":"webdl","translation":"Любительский (многоголосый закадровый) (Синема УС)","update":"2021-01-21 10:09:27","iframe_src":"//8543.svetacdn.in/IAF0wWTdNYZm/movie/47270"},{"id":47269,"title":"Пришли же мне сон","kp_id":"976202","imdb_id":"tt5672750","world_art_id":null,"type":"movie","add":"2021-01-20 18:53:31","orig_title":"Bring Me a Dream","year":"2020-03-14","translations":["Любительский (многоголосый закадровый) (Синема УС)"],"quality":"webdl","translation":"Любительский (многоголосый закадровый) (Синема УС)","update":"2021-01-21 10:10:33","iframe_src":"//8543.svetacdn.in/IAF0wWTdNYZm/movie/47269"},{"id":47268,"title":"10 минут до полуночи","kp_id":"1268339","imdb_id":"tt10369866","world_art_id":null,"type":"movie","add":"2021-01-20 18:49:55","orig_title":"Ten Minutes to Midnight","year":"2020-08-14","translations":["Любительский (многоголосый закадровый) (AlphaProject)"],"quality":"webdl","translation":"Любительский (многоголосый закадровый) (AlphaProject)","update":"2021-01-21 10:11:41","iframe_src":"//8543.svetacdn.in/IAF0wWTdNYZm/movie/47268"},{"id":47244,"title":"Кузен","kp_id":"18333","imdb_id":"tt0118895","world_art_id":null,"type":"movie","add":"2021-01-20 11:14:27","orig_title":"Le cousin","year":"1997-12-03","translations":["Профессиональный (двухголосый закадровый)"],"quality":"bd","translation":"Профессиональный (двухголосый закадровый)","update":"2021-01-21 10:51:14","iframe_src":"//8543.svetacdn.in/IAF0wWTdNYZm/movie/47244"},{"id":47243,"title":"Смертельные пальцы Брюса","kp_id":"196891","imdb_id":"tt0058994","world_art_id":null,"type":"movie","add":"2021-01-20 11:02:06","orig_title":"Lung men bei chi","year":"1978-06-09","translations":["Авторский (одноголосый закадровый) (Дольский Андрей)"],"quality":"bd","translation":"Авторский (одноголосый закадровый) (Дольский Андрей)","update":"2021-01-21 10:52:01","iframe_src":"//8543.svetacdn.in/IAF0wWTdNYZm/movie/47243"},{"id":47242,"title":"Толпа ревет","kp_id":"31149","imdb_id":"tt0022792","world_art_id":null,"type":"movie","add":"2021-01-20 11:00:20","orig_title":"The Crowd Roars","year":"1932-04-13","translations":["Профессиональный (одноголосый закадровый) (Светла)"],"quality":"webdl","translation":"Профессиональный (одноголосый закадровый) (Светла)","update":"2021-01-21 10:53:21","iframe_src":"//8543.svetacdn.in/IAF0wWTdNYZm/movie/47242"},{"id":47237,"title":"Падшие","kp_id":"699191","imdb_id":"tt2306783","world_art_id":null,"type":"movie","add":"2021-01-19 19:11:13","orig_title":"The Falls","year":"2013-04-26","translations":["Авторский (одноголосый закадровый) (Кошкин Василий)"],"quality":"dvdrip","translation":"Авторский (одноголосый закадровый) (Кошкин Василий)","update":"2021-01-21 19:49:57","iframe_src":"//8543.svetacdn.in/IAF0wWTdNYZm/movie/47237"},{"id":8271,"title":"Маргарет: Мятежная принцесса","kp_id":"1261870","imdb_id":"tt8985210","world_art_id":null,"type":"serial","add":"2020-07-28 10:53:55","orig_title":"Princess Margaret: The Rebel Royal","year":"2018-09-11","translations":["Профессиональный (многоголосый закадровый) (HDrezka Studio)"],"seasons_count":1,"episodes_count":2,"episodes":2,"update":"2020-07-29 06:23:13","iframe_src":"//8543.svetacdn.in/IAF0wWTdNYZm/tv-series/8271"},{"id":8265,"title":"Государство","kp_id":"1046886","imdb_id":"tt6068620","world_art_id":null,"type":"serial","add":"2020-07-27 16:05:14","orig_title":"The State","year":"2017-08-20","translations":["Профессиональный (многоголосый закадровый) (HDrezka Studio)"],"seasons_count":1,"episodes_count":4,"episodes":4,"update":"2020-07-28 05:10:23","iframe_src":"//8543.svetacdn.in/IAF0wWTdNYZm/tv-series/8265"},{"id":8264,"title":"Эй, да он экстрасенс!","kp_id":"893719","imdb_id":"tt2556306","world_art_id":null,"type":"serial","add":"2020-07-27 15:58:21","orig_title":"Minna! Esupâ dayo!","year":"2013-04-13","translations":["Профессиональный (многоголосый закадровый) (HDrezka Studio)"],"seasons_count":1,"episodes_count":12,"episodes":12,"update":"2020-07-28 05:08:35","iframe_src":"//8543.svetacdn.in/IAF0wWTdNYZm/tv-series/8264"},{"id":8248,"title":"Фурцева. Легенда о Екатерине","kp_id":"571267","imdb_id":"tt4192534","world_art_id":null,"type":"serial","add":"2020-07-25 05:39:19","orig_title":"Furtseva. Legenda o Ekaterine","year":"2011-01-01","translations":["Оригинальная дорожка"],"seasons_count":1,"episodes_count":12,"episodes":12,"update":"2020-07-28 18:04:52","iframe_src":"//8543.svetacdn.in/IAF0wWTdNYZm/tv-series/8248"},{"id":8246,"title":"Двойник","kp_id":"578944","imdb_id":"tt1819654","world_art_id":null,"type":"serial","add":"2020-07-24 20:39:51","orig_title":"Ringer","year":"2011-09-13","translations":["Профессиональный (многоголосый закадровый) (Кравец)"],"seasons_count":1,"episodes_count":22,"episodes":22,"update":"2020-07-28 21:43:49","iframe_src":"//8543.svetacdn.in/IAF0wWTdNYZm/tv-series/8246"},{"id":8244,"title":"А зори здесь тихие...","kp_id":"265088","imdb_id":"tt1156472","world_art_id":null,"type":"serial","add":"2020-07-24 20:26:21","orig_title":"A zori zdes tikhie","year":"2006-01-01","translations":["Оригинальная дорожка"],"seasons_count":1,"episodes_count":12,"episodes":12,"update":"2020-07-27 20:52:58","iframe_src":"//8543.svetacdn.in/IAF0wWTdNYZm/tv-series/8244"},{"id":8241,"title":"Паровозик Тишка","kp_id":"730782","imdb_id":"tt3259280","world_art_id":null,"type":"serial","add":"2020-07-23 18:05:36","orig_title":"Parovozik Tishka","year":"2012-10-22","translations":["Оригинальная дорожка"],"seasons_count":2,"episodes_count":93,"episodes":48,"update":"2020-07-28 17:41:08","iframe_src":"//8543.svetacdn.in/IAF0wWTdNYZm/tv-series/8241"},{"id":8236,"title":"Пип и Альба. Приключения в Соленой Бухте!","kp_id":"1115637","imdb_id":"tt3796970","world_art_id":null,"type":"serial","add":"2020-07-23 06:45:19","orig_title":"Pip Ahoy!","year":"2014-06-12","translations":["Полное дублирование (CLS Media)"],"seasons_count":1,"episodes_count":52,"episodes":52,"update":"2020-07-28 08:47:59","iframe_src":"//8543.svetacdn.in/IAF0wWTdNYZm/tv-series/8236"},{"id":8218,"title":"Паровозик Томас и его друзья","kp_id":"229496","imdb_id":"tt0086815","world_art_id":null,"type":"serial","add":"2020-07-20 16:36:48","orig_title":"Thomas the Tank Engine & Friends","year":"1992-06-12","translations":["Профессиональный (одноголосый закадровый)","Полное дублирование"],"seasons_count":13,"episodes_count":300,"episodes":14,"update":"2020-07-28 17:15:58","iframe_src":"//8543.svetacdn.in/IAF0wWTdNYZm/tv-series/8218"},{"id":8056,"title":"Дефектный","kp_id":"1256118","imdb_id":"tt10141612","world_art_id":null,"type":"serial","add":"2020-06-29 18:21:38","orig_title":"Tie tan","year":"2019-04-01","translations":["Любительский (многоголосый закадровый) (Octopus)","Любительский (многоголосый закадровый) (ColdFilm)"],"seasons_count":1,"episodes_count":30,"episodes":30,"update":"2020-07-29 02:56:34","iframe_src":"//8543.svetacdn.in/IAF0wWTdNYZm/tv-series/8056"},{"id":8048,"title":"Симпатичные братья","kp_id":"1339558","imdb_id":"tt11541444","world_art_id":null,"type":"serial","add":"2020-06-29 11:22:21","orig_title":"Jue dai shuang jiao","year":"2020-01-16","translations":["Любительский (многоголосый закадровый) (Octopus)"],"seasons_count":1,"episodes_count":44,"episodes":44,"update":"2020-07-28 17:26:19","iframe_src":"//8543.svetacdn.in/IAF0wWTdNYZm/tv-series/8048"},{"id":37738,"title":"Народный гараж","kp_id":"997352","imdb_id":"tt5946852","world_art_id":null,"type":"movie","add":"2020-03-10 22:15:51","orig_title":"Janatha Garage","year":"2016-09-01","translations":["Профессиональный (многоголосый закадровый) (SDI Media)"],"quality":"webdl","translation":"Профессиональный (многоголосый закадровый) (SDI Media)","update":"2021-01-21 10:54:49","iframe_src":"//8543.svetacdn.in/IAF0wWTdNYZm/movie/37738"},{"id":4576,"title":"Личность","kp_id":"1112358","imdb_id":"tt7920978","world_art_id":null,"type":"serial","add":"2019-05-29 21:07:39","orig_title":"Sahsiyet","year":"2018-03-17","translations":["Любительский (одноголосый закадровый)","Профессиональный (многоголосый закадровый) (HDrezka Studio)"],"seasons_count":1,"episodes_count":12,"episodes":12,"update":"2020-07-28 17:43:13","iframe_src":"//8543.svetacdn.in/IAF0wWTdNYZm/tv-series/4576"},{"id":4407,"title":"Убийства","kp_id":"1194731","imdb_id":"tt8311576","world_art_id":null,"type":"serial","add":"2019-04-23 11:14:26","orig_title":"The Murders","year":"2019-03-25","translations":["Профессиональный (многоголосый закадровый) (NewStudio)","Профессиональный (многоголосый закадровый) (HDrezka Studio)"],"seasons_count":1,"episodes_count":8,"episodes":8,"update":"2020-07-28 05:14:54","iframe_src":"//8543.svetacdn.in/IAF0wWTdNYZm/tv-series/4407"},{"id":4387,"title":"Тень","kp_id":"1251234","imdb_id":"tt9817236","world_art_id":null,"type":"serial","add":"2019-04-17 17:16:30","orig_title":"Shadow","year":"2019-03-07","translations":["Профессиональный (многоголосый закадровый) (HDrezka Studio)"],"seasons_count":1,"episodes_count":8,"episodes":8,"update":"2020-07-29 06:18:32","iframe_src":"//8543.svetacdn.in/IAF0wWTdNYZm/tv-series/4387"},{"id":3978,"title":"Ши-Ра и непобедимые принцессы","kp_id":"1115562","imdb_id":"tt7745956","world_art_id":null,"type":"serial","add":"2019-01-28 14:14:14","orig_title":"She-Ra and the Princesses of Power","year":"2018-11-13","translations":["Профессиональный (многоголосый закадровый) (IdeaFilm)","Профессиональный (многоголосый закадровый) (HDrezka Studio)","Любительский (многоголосый закадровый) (NewStation)","Профессиональный (многоголосый закадровый) (TVShows)","Любительский (многоголосый закадровый) (ColdFilm)"],"seasons_count":5,"episodes_count":52,"episodes":13,"update":"2020-07-28 05:58:16","iframe_src":"//8543.svetacdn.in/IAF0wWTdNYZm/tv-series/3978"},{"id":3741,"title":"Дрожащая правда","kp_id":"1057518","imdb_id":"tt6905458","world_art_id":null,"type":"serial","add":"2018-12-20 16:48:53","orig_title":"The Shivering Truth","year":"2018-12-09","translations":["Профессиональный (многоголосый закадровый) (Ozz.tv)","Профессиональный (многоголосый закадровый) (HDrezka Studio)","Любительский (многоголосый закадровый) (NewStation)","Любительский (многоголосый закадровый) (ColdFilm)"],"seasons_count":2,"episodes_count":14,"episodes":7,"update":"2020-07-28 05:53:25","iframe_src":"//8543.svetacdn.in/IAF0wWTdNYZm/tv-series/3741"},{"id":2926,"title":"Стас всё сдаст","kp_id":"1172525","imdb_id":"tt7524382","world_art_id":null,"type":"serial","add":"2018-07-15 07:14:22","orig_title":"Stath Lets Flats","year":"2018-06-27","translations":["Профессиональный (многоголосый закадровый) (Ozz.tv)","Профессиональный (многоголосый закадровый) (HDrezka Studio)","Профессиональный (многоголосый закадровый) (TVShows)"],"seasons_count":2,"episodes_count":12,"episodes":6,"update":"2020-07-28 16:51:32","iframe_src":"//8543.svetacdn.in/IAF0wWTdNYZm/tv-series/2926"},{"id":1187,"title":"По друзьям","kp_id":"996626","imdb_id":"tt5037914","world_art_id":null,"type":"serial","add":"2017-04-15 15:15:57","orig_title":"Crashing","year":"2017-02-19","translations":["Профессиональный (многоголосый закадровый) (NewStudio)","Профессиональный (многоголосый закадровый) (HDrezka Studio)"],"seasons_count":3,"episodes_count":24,"episodes":8,"update":"2020-07-28 17:30:25","iframe_src":"//8543.svetacdn.in/IAF0wWTdNYZm/tv-series/1187"},{"id":9066,"title":"Брат Баджранги","kp_id":"844021","imdb_id":"tt3863552","world_art_id":null,"type":"movie","add":"2017-01-21 14:12:02","orig_title":"Bajrangi Bhaijaan","year":"2015-07-15","translations":["Любительский (двухголосый закадровый)","Любительский (многоголосый закадровый) (ICG)","Профессиональный (многоголосый закадровый) (SDI Media)"],"quality":"bd","translation":"Любительский (двухголосый закадровый)","update":"2021-01-21 10:50:34","iframe_src":"//8543.svetacdn.in/IAF0wWTdNYZm/movie/9066"},{"id":582,"title":"Стэн против сил зла","kp_id":"1007563","imdb_id":"tt5722214","world_art_id":null,"type":"serial","add":"2016-11-15 04:31:10","orig_title":"Stan Against Evil","year":"2016-11-02","translations":["Профессиональный (многоголосый закадровый) (NewStudio)","Профессиональный (многоголосый закадровый) (HDrezka Studio)"],"seasons_count":3,"episodes_count":24,"episodes":8,"update":"2020-07-28 05:43:13","iframe_src":"//8543.svetacdn.in/IAF0wWTdNYZm/tv-series/582"},{"id":459,"title":"Грейс и Фрэнки","kp_id":"891629","imdb_id":"tt3609352","world_art_id":null,"type":"serial","add":"2016-09-19 12:53:31","orig_title":"Grace and Frankie","year":"2015-05-08","translations":["Профессиональный (многоголосый закадровый) (ViruseProject)","Любительский (двухголосый закадровый) (Sunshine Studio)","Любительский (многоголосый закадровый) (ColdFilm)","Любительский (многоголосый закадровый) (Octopus)","Профессиональный (многоголосый закадровый) (TVShows)"],"seasons_count":6,"episodes_count":78,"episodes":13,"update":"2020-07-28 16:57:54","iframe_src":"//8543.svetacdn.in/IAF0wWTdNYZm/tv-series/459"},{"id":4067,"title":"Свяжи меня","kp_id":"16997","imdb_id":"tt0101026","world_art_id":null,"type":"movie","add":"2016-07-20 21:26:08","orig_title":"Atame!","year":"1989-12-12","translations":["Профессиональный (многоголосый закадровый)","Авторский (одноголосый закадровый) (Гаврилов Андрей)","Профессиональный (двухголосый закадровый)","Профессиональный (многоголосый закадровый) (Кармен Видео)"],"quality":"bd","translation":"Профессиональный (многоголосый закадровый)","update":"2021-01-21 11:51:26","iframe_src":"//8543.svetacdn.in/IAF0wWTdNYZm/movie/4067"},{"id":3713,"title":"Дни грома","kp_id":"1730","imdb_id":"tt0099371","world_art_id":null,"type":"movie","add":"2016-07-06 10:27:48","orig_title":"Days of Thunder","year":"1990-06-27","translations":["Профессиональный (многоголосый закадровый)","Авторский (одноголосый закадровый) (Дохалов Вартан)","Авторский (одноголосый закадровый) (Гаврилов Андрей)","Авторский (одноголосый закадровый) (Хрусталев Егор)","Авторский (одноголосый закадровый) (Сербин Юрий)","Авторский (одноголосый закадровый) (Живов Юрий)","Original (English)","Профессиональный (двухголосый закадровый) (НТВ)","Профессиональный (двухголосый закадровый) (Премьер Видео Фильм)","Профессиональный (двухголосый закадровый) (Superbit)","Профессиональный (многоголосый закадровый) (СТС)","Профессиональный (многоголосый закадровый) (Премьер Видео Фильм)"],"quality":"bd","translation":"Профессиональный (многоголосый закадровый)","update":"2021-01-21 11:46:58","iframe_src":"//8543.svetacdn.in/IAF0wWTdNYZm/movie/3713"},{"id":2020,"title":"Плакса","kp_id":"7510","imdb_id":"tt0099329","world_art_id":null,"type":"movie","add":"2016-05-10 15:35:53","orig_title":"Cry-Baby","year":"1990-04-06","translations":["Профессиональный (многоголосый закадровый)","Original (English)","Профессиональный (двухголосый закадровый) (Премьер Видео Фильм)","Профессиональный (многоголосый закадровый)","Профессиональный (многоголосый закадровый) (AB-Video)"],"quality":"bd","translation":"Профессиональный (многоголосый закадровый)","update":"2021-01-21 12:22:48","iframe_src":"//8543.svetacdn.in/IAF0wWTdNYZm/movie/2020"}],"current_page":141,"first_page_url":"https://videocdn.tv/api/short?limit=100&api_token=6Onb1W1alEUrBcKJZD3GoKBbWyAl2uG2&cache3141=3141&page=1","from":14001,"last_page":604,"last_page_url":"https://videocdn.tv/api/short?limit=100&api_token=6Onb1W1alEUrBcKJZD3GoKBbWyAl2uG2&cache3141=3141&page=604","next_page_url":"https://videocdn.tv/api/short?limit=100&api_token=6Onb1W1alEUrBcKJZD3GoKBbWyAl2uG2&cache3141=3141&page=142","path":"https://videocdn.tv/api/short","per_page":100,"prev_page_url":"https://videocdn.tv/api/short?limit=100&api_token=6Onb1W1alEUrBcKJZD3GoKBbWyAl2uG2&cache3141=3141&page=140","to":14040,"total":60344}