{"result":true,"data":[{"id":52752,"title":"Позднее счастье","kp_id":"4535460","imdb_id":null,"world_art_id":null,"type":"movie","add":"2021-08-30 05:45:01","orig_title":"Позднее счастье","year":"2019-06-03","translations":["Оригинальная дорожка"],"quality":"webdl","translation":"Оригинальная дорожка","update":"2021-08-30 08:30:29","iframe_src":"//2421213.svetacdn.in/71tsRs29n5tZ/movie/52752"},{"id":52748,"title":"Иллюзорные пути","kp_id":"80413","imdb_id":"tt0365763","world_art_id":null,"type":"movie","add":"2021-08-29 20:47:54","orig_title":"Skenbart: En film om tåg","year":"2003-12-25","translations":["Авторский (одноголосый закадровый) (Кузнецов Сергей)"],"quality":"dvdrip","translation":"Авторский (одноголосый закадровый) (Кузнецов Сергей)","update":"2021-08-30 07:15:13","iframe_src":"//2421213.svetacdn.in/71tsRs29n5tZ/movie/52748"},{"id":52741,"title":"Суперстар","kp_id":"6125","imdb_id":"tt0247444","world_art_id":null,"type":"movie","add":"2021-08-29 09:17:23","orig_title":"Juwanna Mann","year":"2002-06-18","translations":["Профессиональный (многоголосый закадровый)","Профессиональный (двухголосый закадровый) (ТНТ)","[EN] Original (English)"],"quality":"webdl","translation":"Профессиональный (многоголосый закадровый)","update":"2021-08-30 07:57:11","iframe_src":"//2421213.svetacdn.in/71tsRs29n5tZ/movie/52741"},{"id":52735,"title":"В этом наша жизнь","kp_id":"12855","imdb_id":"tt0034890","world_art_id":null,"type":"movie","add":"2021-08-29 08:59:04","orig_title":"In This Our Life","year":"1942-05-08","translations":["[EN] Original (English)","Любительский (одноголосый закадровый) (minyaev)"],"quality":"webdl","translation":"[EN] Original (English)","update":"2021-08-30 07:44:04","iframe_src":"//2421213.svetacdn.in/71tsRs29n5tZ/movie/52735"},{"id":52733,"title":"Сад пыток","kp_id":"8724","imdb_id":"tt0062384","world_art_id":null,"type":"movie","add":"2021-08-29 08:56:28","orig_title":"Torture Garden","year":"1967-11-10","translations":["[EN] Original (English)","Авторский (одноголосый закадровый) (Назаров Вадим)"],"quality":"bd","translation":"[EN] Original (English)","update":"2021-08-30 07:38:32","iframe_src":"//2421213.svetacdn.in/71tsRs29n5tZ/movie/52733"},{"id":52726,"title":"В поисках Сеула","kp_id":"724644","imdb_id":"tt2566644","world_art_id":null,"type":"movie","add":"2021-08-29 08:03:20","orig_title":"Seoul Searching","year":"2015-01-30","translations":["Любительский (многоголосый закадровый) (АрхиAsia)"],"quality":"webdl","translation":"Любительский (многоголосый закадровый) (АрхиAsia)","update":"2021-08-30 08:12:40","iframe_src":"//2421213.svetacdn.in/71tsRs29n5tZ/movie/52726"},{"id":52723,"title":"Вся жизнь","kp_id":"88181","imdb_id":"tt0072307","world_art_id":null,"type":"movie","add":"2021-08-29 07:48:45","orig_title":"Toute une vie","year":"1974-05-15","translations":["Профессиональный (многоголосый закадровый)"],"quality":"bd","translation":"Профессиональный (многоголосый закадровый)","update":"2021-08-30 08:09:57","iframe_src":"//2421213.svetacdn.in/71tsRs29n5tZ/movie/52723"},{"id":52722,"title":"Короткое время","kp_id":"3918","imdb_id":"tt0100604","world_art_id":null,"type":"movie","add":"2021-08-29 06:47:29","orig_title":"Short Time","year":"1990-05-04","translations":["[EN] Original (English)","Авторский (одноголосый закадровый) (Горчаков Василий)","Профессиональный (многоголосый закадровый) (РТР | Россия)"],"quality":"webdl","translation":"[EN] Original (English)","update":"2021-08-30 08:26:22","iframe_src":"//2421213.svetacdn.in/71tsRs29n5tZ/movie/52722"},{"id":52721,"title":"Чуткий сон","kp_id":"11905","imdb_id":"tt0102307","world_art_id":null,"type":"movie","add":"2021-08-29 06:44:37","orig_title":"Light Sleeper","year":"1992-03-13","translations":["[EN] Original (English)","Профессиональный (многоголосый закадровый)"],"quality":"bd","translation":"[EN] Original (English)","update":"2021-08-30 08:29:32","iframe_src":"//2421213.svetacdn.in/71tsRs29n5tZ/movie/52721"},{"id":52719,"title":"Дальнобойщики: никому меня не остановить","kp_id":"274460","imdb_id":"tt0360088","world_art_id":null,"type":"movie","add":"2021-08-29 06:38:16","orig_title":"Torakku yarô: Goiken muyô","year":"1975-08-30","translations":["Любительский (одноголосый закадровый) (Береговых Виктор | Jet)"],"quality":"bd","translation":"Любительский (одноголосый закадровый) (Береговых Виктор | Jet)","update":"2021-08-30 08:11:29","iframe_src":"//2421213.svetacdn.in/71tsRs29n5tZ/movie/52719"},{"id":52718,"title":"Камбили и её 30 лет","kp_id":"1391908","imdb_id":"tt11831084","world_art_id":null,"type":"movie","add":"2021-08-28 20:31:19","orig_title":"Kambili: The Whole 30 Yards","year":"2020-10-16","translations":["Любительский (многоголосый закадровый) (Синема УС)"],"quality":"webdl","translation":"Любительский (многоголосый закадровый) (Синема УС)","update":"2021-08-29 18:46:28","iframe_src":"//2421213.svetacdn.in/71tsRs29n5tZ/movie/52718"},{"id":52683,"title":"Номер в отеле Плаза","kp_id":"17743","imdb_id":"tt0067589","world_art_id":null,"type":"movie","add":"2021-08-27 06:36:15","orig_title":"Plaza Suite","year":"1971-05-12","translations":["Профессиональный (двухголосый закадровый)","[EN] Original (English)"],"quality":"webdl","translation":"Профессиональный (двухголосый закадровый)","update":"2021-08-30 08:58:16","iframe_src":"//2421213.svetacdn.in/71tsRs29n5tZ/movie/52683"},{"id":52681,"title":"Оклахома!","kp_id":"3019","imdb_id":"tt0048445","world_art_id":null,"type":"movie","add":"2021-08-27 06:20:08","orig_title":"Oklahoma!","year":"1955-10-11","translations":["[EN] Original (English)","Профессиональный (многоголосый закадровый)"],"quality":"bd","translation":"[EN] Original (English)","update":"2021-08-30 08:44:29","iframe_src":"//2421213.svetacdn.in/71tsRs29n5tZ/movie/52681"},{"id":52520,"title":"Девушка, которая сбежала","kp_id":"1351697","imdb_id":"tt11859012","world_art_id":null,"type":"movie","add":"2021-08-20 17:50:07","orig_title":"The Girl Who Got Away","year":"2021-08-20","translations":["Любительский (многоголосый закадровый) (@MUZOBOZ@)","[EN] Original (English)","Профессиональный (двухголосый закадровый) (Pazl Voice)"],"quality":"webdl","translation":"Любительский (многоголосый закадровый) (@MUZOBOZ@)","update":"2021-08-30 08:50:11","iframe_src":"//2421213.svetacdn.in/71tsRs29n5tZ/movie/52520"},{"id":52463,"title":"Полный бред - Криминальнее некуда!","kp_id":"1355854","imdb_id":"tt11917938","world_art_id":null,"type":"movie","add":"2021-08-16 15:40:27","orig_title":"Faking Bullshit - Krimineller als die Polizei erlaubt","year":"2020-09-10","translations":["Любительский (многоголосый закадровый) (Синема УС)","Любительский (многоголосый закадровый) (Синема УС)"],"quality":"bd","translation":"Любительский (многоголосый закадровый) (Синема УС)","update":"2021-08-30 08:33:20","iframe_src":"//2421213.svetacdn.in/71tsRs29n5tZ/movie/52463"},{"id":48768,"title":"Держись подальше от грёбаного чердака","kp_id":"1342759","imdb_id":"tt11505692","world_art_id":null,"type":"movie","add":"2021-03-15 12:52:28","orig_title":"Stay Out of the F**king Attic","year":"2020-10-15","translations":["Любительский (многоголосый закадровый) (Синема УС)","Профессиональный (многоголосый закадровый) (Киноужас)","[EN] Original (English)"],"quality":"webdl","translation":"Любительский (многоголосый закадровый) (Синема УС)","update":"2021-08-30 08:17:22","iframe_src":"//2421213.svetacdn.in/71tsRs29n5tZ/movie/48768"},{"id":21381,"title":"Кот: Глаза, которые видят смерть","kp_id":"587539","imdb_id":"tt1935094","world_art_id":null,"type":"movie","add":"2019-01-10 20:28:38","orig_title":"Goyangyi: jukeumeul boneun du gaeui nun","year":"2011-07-07","translations":["Любительский (двухголосый закадровый) (GREEN TEA)","Любительский (двухголосый закадровый) (GREEN TEA)"],"quality":"dvdrip","translation":"Любительский (двухголосый закадровый) (GREEN TEA)","update":"2021-08-30 08:31:50","iframe_src":"//2421213.svetacdn.in/71tsRs29n5tZ/movie/21381"},{"id":16800,"title":"Грабитель банков","kp_id":"991646","imdb_id":"tt5871080","world_art_id":null,"type":"movie","add":"2018-05-16 06:38:28","orig_title":"A Viszkis","year":"2017-10-16","translations":["Любительский (многоголосый закадровый) (Синема УС)","Профессиональный (многоголосый закадровый) (GreenРай Studio)","Полное дублирование (iTunes)"],"quality":"bd","translation":"Любительский (многоголосый закадровый) (Синема УС)","update":"2021-08-30 08:55:43","iframe_src":"//2421213.svetacdn.in/71tsRs29n5tZ/movie/16800"},{"id":15274,"title":"Тигр жив","kp_id":"997495","imdb_id":"tt5956100","world_art_id":null,"type":"movie","add":"2018-02-23 23:57:27","orig_title":"Tiger Zinda Hai","year":"2017-12-21","translations":["Профессиональный (многоголосый закадровый)","Профессиональный (многоголосый закадровый) (GreenРай Studio)","Любительский (многоголосый закадровый)","Любительский (многоголосый закадровый) (Honey&Haseena)"],"quality":"bd","translation":"Профессиональный (многоголосый закадровый)","update":"2021-08-30 07:45:40","iframe_src":"//2421213.svetacdn.in/71tsRs29n5tZ/movie/15274"},{"id":1585,"title":"Всё ещё будет","kp_id":"1046207","imdb_id":null,"world_art_id":null,"type":"serial","add":"2017-10-02 07:21:15","orig_title":"Всё ещё будет","year":"2017-09-30","translations":["Оригинальная дорожка"],"seasons_count":1,"episodes_count":4,"episodes":4,"update":"2017-10-02 11:23:43","iframe_src":"//2421213.svetacdn.in/71tsRs29n5tZ/tv-series/1585"},{"id":1583,"title":"Любовь со всеми остановками","kp_id":"1042728","imdb_id":null,"world_art_id":null,"type":"serial","add":"2017-09-29 10:46:55","orig_title":"Любовь со всеми остановками","year":"2017-05-26","translations":["Оригинальная дорожка"],"seasons_count":1,"episodes_count":2,"episodes":2,"update":"2017-09-29 12:59:38","iframe_src":"//2421213.svetacdn.in/71tsRs29n5tZ/tv-series/1583"},{"id":1576,"title":"Гетеры майора Соколова","kp_id":"730033","imdb_id":"tt3792248","world_art_id":null,"type":"serial","add":"2017-09-28 13:40:01","orig_title":"Getery mayora Sokolova","year":"2014-03-10","translations":["Оригинальная дорожка"],"seasons_count":1,"episodes_count":8,"episodes":8,"update":"2017-09-29 12:36:11","iframe_src":"//2421213.svetacdn.in/71tsRs29n5tZ/tv-series/1576"},{"id":1574,"title":"Родина","kp_id":"838704","imdb_id":"tt4086100","world_art_id":null,"type":"serial","add":"2017-09-28 07:19:05","orig_title":"Rodina","year":"2015-03-16","translations":["Оригинальная дорожка"],"seasons_count":1,"episodes_count":12,"episodes":12,"update":"2017-09-29 13:39:37","iframe_src":"//2421213.svetacdn.in/71tsRs29n5tZ/tv-series/1574"},{"id":1573,"title":"Упадок и разрушение","kp_id":"1043752","imdb_id":"tt5789958","world_art_id":null,"type":"serial","add":"2017-09-28 07:12:03","orig_title":"Decline and Fall","year":"2017-03-31","translations":["Профессиональный (многоголосый закадровый)"],"seasons_count":1,"episodes_count":3,"episodes":3,"update":"2017-09-28 15:44:52","iframe_src":"//2421213.svetacdn.in/71tsRs29n5tZ/tv-series/1573"},{"id":1570,"title":"1864","kp_id":"572238","imdb_id":"tt1753353","world_art_id":null,"type":"serial","add":"2017-09-26 11:46:50","orig_title":"1864","year":"2014-10-12","translations":["Любительский (одноголосый закадровый)"],"seasons_count":1,"episodes_count":8,"episodes":8,"update":"2017-09-27 13:51:05","iframe_src":"//2421213.svetacdn.in/71tsRs29n5tZ/tv-series/1570"},{"id":1569,"title":"Отличница","kp_id":"992615","imdb_id":null,"world_art_id":null,"type":"serial","add":"2017-09-26 11:40:58","orig_title":"Отличница","year":"2017-09-25","translations":["Оригинальная дорожка"],"seasons_count":1,"episodes_count":8,"episodes":8,"update":"2017-10-01 17:28:17","iframe_src":"//2421213.svetacdn.in/71tsRs29n5tZ/tv-series/1569"},{"id":1567,"title":"Нелюбимый","kp_id":"581194","imdb_id":"tt1906434","world_art_id":null,"type":"serial","add":"2017-09-25 11:20:12","orig_title":"Nelyubimyy","year":"2011-04-09","translations":["Оригинальная дорожка"],"seasons_count":1,"episodes_count":4,"episodes":4,"update":"2017-09-27 12:07:15","iframe_src":"//2421213.svetacdn.in/71tsRs29n5tZ/tv-series/1567"},{"id":1565,"title":"Французская кулинария","kp_id":"1044494","imdb_id":null,"world_art_id":null,"type":"serial","add":"2017-09-25 11:13:16","orig_title":"Французская кулинария","year":"2017-05-01","translations":["Оригинальная дорожка"],"seasons_count":1,"episodes_count":4,"episodes":4,"update":"2017-09-26 10:03:24","iframe_src":"//2421213.svetacdn.in/71tsRs29n5tZ/tv-series/1565"},{"id":1564,"title":"Профиль убийцы 2","kp_id":"840239","imdb_id":"tt4883036","world_art_id":null,"type":"serial","add":"2017-09-25 11:04:24","orig_title":"Profil ubiytsi dva","year":"2016-10-17","translations":["Оригинальная дорожка"],"seasons_count":1,"episodes_count":24,"episodes":24,"update":"2017-09-27 11:33:22","iframe_src":"//2421213.svetacdn.in/71tsRs29n5tZ/tv-series/1564"},{"id":1562,"title":"Профиль убийцы","kp_id":"565124","imdb_id":"tt4744386","world_art_id":null,"type":"serial","add":"2017-09-25 10:58:17","orig_title":"Profil ubiytsy","year":"2012-10-11","translations":["Оригинальная дорожка"],"seasons_count":1,"episodes_count":16,"episodes":16,"update":"2017-09-26 12:51:44","iframe_src":"//2421213.svetacdn.in/71tsRs29n5tZ/tv-series/1562"},{"id":1561,"title":"Мышеловка на три персоны","kp_id":"1008302","imdb_id":null,"world_art_id":null,"type":"serial","add":"2017-09-25 10:50:57","orig_title":"Мышеловка на три персоны","year":"2017-05-19","translations":["Оригинальная дорожка"],"seasons_count":1,"episodes_count":2,"episodes":2,"update":"2017-09-25 15:13:36","iframe_src":"//2421213.svetacdn.in/71tsRs29n5tZ/tv-series/1561"},{"id":1560,"title":"Бывших не бывает","kp_id":"790943","imdb_id":"tt6235248","world_art_id":null,"type":"serial","add":"2017-09-25 10:48:03","orig_title":"Byvshikh ne byvaet","year":"2014-08-22","translations":["Оригинальная дорожка"],"seasons_count":1,"episodes_count":4,"episodes":4,"update":"2017-09-25 15:11:02","iframe_src":"//2421213.svetacdn.in/71tsRs29n5tZ/tv-series/1560"},{"id":1553,"title":"Благие намерения","kp_id":"1048659","imdb_id":null,"world_art_id":null,"type":"serial","add":"2017-09-20 10:25:22","orig_title":"Благие намерения","year":"2017-09-18","translations":["Оригинальная дорожка"],"seasons_count":1,"episodes_count":20,"episodes":20,"update":"2017-09-29 10:54:54","iframe_src":"//2421213.svetacdn.in/71tsRs29n5tZ/tv-series/1553"},{"id":1552,"title":"Фаранг","kp_id":"1039615","imdb_id":"tt5617060","world_art_id":null,"type":"serial","add":"2017-09-20 10:20:07","orig_title":"Farang","year":"2017-03-09","translations":["Любительский (двухголосый закадровый) (Sunshine Studio)"],"seasons_count":1,"episodes_count":8,"episodes":8,"update":"2017-09-25 16:26:17","iframe_src":"//2421213.svetacdn.in/71tsRs29n5tZ/tv-series/1552"},{"id":1535,"title":"Черный Плащ","kp_id":"395106","imdb_id":"tt0101076","world_art_id":null,"type":"serial","add":"2017-09-11 15:54:17","orig_title":"Darkwing Duck","year":"1991-09-06","translations":["Полное дублирование"],"seasons_count":3,"episodes_count":91,"episodes":13,"update":"2017-09-25 15:47:05","iframe_src":"//2421213.svetacdn.in/71tsRs29n5tZ/tv-series/1535"},{"id":1534,"title":"Сон","kp_id":"1047118","imdb_id":"tt7131032","world_art_id":null,"type":"serial","add":"2017-09-10 07:59:27","orig_title":"Rüya","year":"2017-07-18","translations":["Любительский (одноголосый закадровый)"],"seasons_count":1,"episodes_count":10,"episodes":10,"update":"2017-09-29 15:07:29","iframe_src":"//2421213.svetacdn.in/71tsRs29n5tZ/tv-series/1534"},{"id":1375,"title":"Полтергейст: Наследие","kp_id":"392542","imdb_id":"tt0115317","world_art_id":null,"type":"serial","add":"2017-07-07 05:41:04","orig_title":"Poltergeist: The Legacy","year":"1996-04-21","translations":["Профессиональный (многоголосый закадровый)","Профессиональный (многоголосый закадровый) (СВ-Дубль)","Профессиональный (двухголосый закадровый)"],"seasons_count":4,"episodes_count":87,"episodes":22,"update":"2017-09-29 13:13:42","iframe_src":"//2421213.svetacdn.in/71tsRs29n5tZ/tv-series/1375"},{"id":1202,"title":"Горничная","kp_id":"1007966","imdb_id":null,"world_art_id":null,"type":"serial","add":"2017-04-19 14:15:44","orig_title":"Горничная","year":"2017-04-19","translations":["Оригинальная дорожка"],"seasons_count":1,"episodes_count":8,"episodes":8,"update":"2017-09-29 15:12:33","iframe_src":"//2421213.svetacdn.in/71tsRs29n5tZ/tv-series/1202"},{"id":10986,"title":"Забавные игры","kp_id":"261021","imdb_id":"tt0808279","world_art_id":null,"type":"movie","add":"2017-04-14 14:16:30","orig_title":"Funny Games","year":"2007-10-20","translations":["Профессиональный (многоголосый)","[EN] Original (English)","Профессиональный (многоголосый закадровый)"],"quality":"bd","translation":"Профессиональный (многоголосый)","update":"2021-08-30 07:35:49","iframe_src":"//2421213.svetacdn.in/71tsRs29n5tZ/movie/10986"},{"id":1073,"title":"Осторожно, модерн!","kp_id":"404124","imdb_id":"tt4263844","world_art_id":null,"type":"serial","add":"2017-03-03 15:38:59","orig_title":"Ostorozno, Modern!","year":"1996-01-01","translations":["Оригинальная дорожка"],"seasons_count":1,"episodes_count":56,"episodes":56,"update":"2017-09-28 13:01:06","iframe_src":"//2421213.svetacdn.in/71tsRs29n5tZ/tv-series/1073"}],"current_page":588,"first_page_url":"https://videocdn.tv/api/short?limit=100&api_token=EnbO9h8pv1VyjbCJhg0WM9nG259n7mtz&cache3588=3588&page=1","from":58701,"last_page":734,"last_page_url":"https://videocdn.tv/api/short?limit=100&api_token=EnbO9h8pv1VyjbCJhg0WM9nG259n7mtz&cache3588=3588&page=734","next_page_url":"https://videocdn.tv/api/short?limit=100&api_token=EnbO9h8pv1VyjbCJhg0WM9nG259n7mtz&cache3588=3588&page=589","path":"https://videocdn.tv/api/short","per_page":100,"prev_page_url":"https://videocdn.tv/api/short?limit=100&api_token=EnbO9h8pv1VyjbCJhg0WM9nG259n7mtz&cache3588=3588&page=587","to":58740,"total":73325}