{"result":true,"data":[{"id":48677,"title":"Истории для просмотра в темноте","kp_id":"1297764","imdb_id":"tt10886042","world_art_id":null,"type":"movie","add":"2021-03-12 09:32:07","orig_title":"Shorts After Dark","year":"2019-07-11","translations":["Любительский (многоголосый закадровый) (Синема УС)"],"quality":"webdl","translation":"Любительский (многоголосый закадровый) (Синема УС)","update":"2021-03-12 12:38:39","iframe_src":"//8332.svetacdn.in/si4jsFRrtgrT/movie/48677"},{"id":48670,"title":"Четвёртая стена","kp_id":"1377934","imdb_id":"tt11686600","world_art_id":null,"type":"movie","add":"2021-03-12 07:44:01","orig_title":"Chetvertaya stena","year":"2019-01-01","translations":["Оригинальная дорожка"],"quality":"webdl","translation":"Оригинальная дорожка","update":"2021-03-12 13:17:29","iframe_src":"//8332.svetacdn.in/si4jsFRrtgrT/movie/48670"},{"id":48662,"title":"Враг за дверью","kp_id":"9751","imdb_id":"tt0067773","world_art_id":null,"type":"movie","add":"2021-03-12 05:18:53","orig_title":"Quelqu'un derrière la porte","year":"1971-07-28","translations":["Профессиональный (двухголосый закадровый) (Первый канал | ОРТ)"],"quality":"bd","translation":"Профессиональный (двухголосый закадровый) (Первый канал | ОРТ)","update":"2021-03-12 12:57:59","iframe_src":"//8332.svetacdn.in/si4jsFRrtgrT/movie/48662"},{"id":48658,"title":"Пишоте: Закон самого слабого","kp_id":"54228","imdb_id":"tt0082912","world_art_id":null,"type":"movie","add":"2021-03-11 19:14:37","orig_title":"Pixote: A Lei do Mais Fraco","year":"1981-05-05","translations":["Авторский (одноголосый закадровый) (Кузнецов Сергей)"],"quality":"bd","translation":"Авторский (одноголосый закадровый) (Кузнецов Сергей)","update":"2021-03-12 09:51:23","iframe_src":"//8332.svetacdn.in/si4jsFRrtgrT/movie/48658"},{"id":48639,"title":"Вызов","kp_id":"1130718","imdb_id":"tt7963804","world_art_id":null,"type":"movie","add":"2021-03-11 05:33:16","orig_title":"Pantham","year":"2018-07-05","translations":["Любительский (многоголосый закадровый) (Crazy Cat Studio)"],"quality":"webdl","translation":"Любительский (многоголосый закадровый) (Crazy Cat Studio)","update":"2021-03-12 10:52:59","iframe_src":"//8332.svetacdn.in/si4jsFRrtgrT/movie/48639"},{"id":48636,"title":"Затойчи и праздник фейерверков","kp_id":"199520","imdb_id":"tt0164982","world_art_id":null,"type":"movie","add":"2021-03-11 05:23:44","orig_title":"Zatôichi abare-himatsuri","year":"1970-08-12","translations":["Профессиональный (многоголосый закадровый) (DVD Магия)"],"quality":"bd","translation":"Профессиональный (многоголосый закадровый) (DVD Магия)","update":"2021-03-12 10:54:20","iframe_src":"//8332.svetacdn.in/si4jsFRrtgrT/movie/48636"},{"id":48602,"title":"Любовь и ярость","kp_id":"45150","imdb_id":"tt0316943","world_art_id":null,"type":"movie","add":"2021-03-09 18:59:36","orig_title":"Zestoke godine","year":"1978-07-17","translations":["Оригинальная дорожка"],"quality":"sat","translation":"Оригинальная дорожка","update":"2021-03-12 11:54:50","iframe_src":"//8332.svetacdn.in/si4jsFRrtgrT/movie/48602"},{"id":48601,"title":"Я люблю","kp_id":"42395","imdb_id":"tt0173470","world_art_id":null,"type":"movie","add":"2021-03-09 18:54:36","orig_title":"Ya lyublyu","year":"1936-05-09","translations":["Оригинальная дорожка"],"quality":"sat","translation":"Оригинальная дорожка","update":"2021-03-12 11:59:48","iframe_src":"//8332.svetacdn.in/si4jsFRrtgrT/movie/48601"},{"id":48600,"title":"Дрессировщики","kp_id":"1387140","imdb_id":null,"world_art_id":null,"type":"movie","add":"2021-03-09 18:51:39","orig_title":"Дрессировщики","year":"1987-01-01","translations":["Оригинальная дорожка"],"quality":"sat","translation":"Оригинальная дорожка","update":"2021-03-12 13:02:56","iframe_src":"//8332.svetacdn.in/si4jsFRrtgrT/movie/48600"},{"id":48599,"title":"26 бакинских комиссаров","kp_id":"224040","imdb_id":"tt0383329","world_art_id":null,"type":"movie","add":"2021-03-09 18:47:29","orig_title":"Iyirmialtilar","year":"1966-02-16","translations":["Оригинальная дорожка"],"quality":"vhs","translation":"Оригинальная дорожка","update":"2021-03-12 13:04:10","iframe_src":"//8332.svetacdn.in/si4jsFRrtgrT/movie/48599"},{"id":48598,"title":"Два бойца","kp_id":"44327","imdb_id":"tt0036782","world_art_id":null,"type":"movie","add":"2021-03-09 18:43:14","orig_title":"Dva boytsa","year":"1943-10-06","translations":["Оригинальная дорожка"],"quality":"dvdrip","translation":"Оригинальная дорожка","update":"2021-03-12 13:05:14","iframe_src":"//8332.svetacdn.in/si4jsFRrtgrT/movie/48598"},{"id":48597,"title":"Пингвиненок","kp_id":"627997","imdb_id":"tt9049172","world_art_id":null,"type":"movie","add":"2021-03-09 17:16:34","orig_title":"Pingvinenok","year":"1983-01-01","translations":["Оригинальная дорожка"],"quality":"dvdrip","translation":"Оригинальная дорожка","update":"2021-03-12 13:06:11","iframe_src":"//8332.svetacdn.in/si4jsFRrtgrT/movie/48597"},{"id":48544,"title":"Мое сердце разрывается","kp_id":"1320636","imdb_id":"tt11238932","world_art_id":null,"type":"movie","add":"2021-03-08 09:39:38","orig_title":"Explota Explota","year":"2020-10-02","translations":["Любительский (многоголосый закадровый) (Синема УС)"],"quality":"webdl","translation":"Любительский (многоголосый закадровый) (Синема УС)","update":"2021-03-12 10:49:08","iframe_src":"//8332.svetacdn.in/si4jsFRrtgrT/movie/48544"},{"id":47785,"title":"Кто-нибудь видел мою девчонку?","kp_id":"1234854","imdb_id":"tt13311126","world_art_id":null,"type":"movie","add":"2021-02-09 09:42:48","orig_title":"Kto-nibud videl moyu devchonku?","year":"2021-02-04","translations":["Оригинальная дорожка","Оригинальная дорожка"],"quality":"ts","translation":"Оригинальная дорожка","update":"2021-03-12 10:50:01","iframe_src":"//8332.svetacdn.in/si4jsFRrtgrT/movie/47785"},{"id":46702,"title":"Соло","kp_id":"43907","imdb_id":"tt0173226","world_art_id":null,"type":"movie","add":"2021-01-05 16:17:50","orig_title":"Solo","year":"1980-01-01","translations":["Оригинальная дорожка"],"quality":"webdl","translation":"Оригинальная дорожка","update":"2021-03-12 13:08:48","iframe_src":"//8332.svetacdn.in/si4jsFRrtgrT/movie/46702"},{"id":42866,"title":"Метель душ","kp_id":"1102997","imdb_id":"tt6084202","world_art_id":null,"type":"movie","add":"2020-08-28 04:27:26","orig_title":"Dveselu putenis","year":"2019-11-08","translations":["Любительский (многоголосый закадровый) (Синема УС)"],"quality":"webdl","translation":"Любительский (многоголосый закадровый) (Синема УС)","update":"2021-03-12 13:20:22","iframe_src":"//8332.svetacdn.in/si4jsFRrtgrT/movie/42866"},{"id":42820,"title":"Турецкий Геркулес","kp_id":"1227819","imdb_id":"tt9500372","world_art_id":null,"type":"movie","add":"2020-08-27 08:31:18","orig_title":"Cep Herkülü: Naim Süleymanoglu","year":"2019-11-22","translations":["Любительский (многоголосый закадровый) (Синема УС)"],"quality":"webdl","translation":"Любительский (многоголосый закадровый) (Синема УС)","update":"2021-03-12 09:58:37","iframe_src":"//8332.svetacdn.in/si4jsFRrtgrT/movie/42820"},{"id":40594,"title":"Селфи","kp_id":"1163592","imdb_id":"tt8572922","world_art_id":null,"type":"movie","add":"2020-05-21 13:18:44","orig_title":"Selfie","year":"2019-09-18","translations":["Любительский (многоголосый закадровый) (Синема УС)","Профессиональный (многоголосый закадровый) (iTunes)"],"quality":"webdl","translation":"Любительский (многоголосый закадровый) (Синема УС)","update":"2021-03-12 10:46:53","iframe_src":"//8332.svetacdn.in/si4jsFRrtgrT/movie/40594"},{"id":7380,"title":"Сила племени","kp_id":null,"imdb_id":"tt4512380","world_art_id":null,"type":"serial","add":"2020-05-03 16:32:30","orig_title":"Survive the Tribe","year":"2014-07-24","translations":["Профессиональный (одноголосый закадровый)"],"seasons_count":1,"episodes_count":6,"episodes":6,"update":"2020-05-04 07:53:42","iframe_src":"//8332.svetacdn.in/si4jsFRrtgrT/tv-series/7380"},{"id":7373,"title":"Викинг","kp_id":"391706","imdb_id":null,"world_art_id":null,"type":"serial","add":"2020-05-02 18:24:48","orig_title":"Викинг","year":"2007-04-16","translations":["Оригинальная дорожка"],"seasons_count":1,"episodes_count":4,"episodes":4,"update":"2020-05-02 18:57:09","iframe_src":"//8332.svetacdn.in/si4jsFRrtgrT/tv-series/7373"},{"id":7370,"title":"Временщик","kp_id":"840735","imdb_id":"tt3845016","world_art_id":null,"type":"serial","add":"2020-05-02 11:45:51","orig_title":"Vremenshchik","year":"2014-12-20","translations":["Оригинальная дорожка"],"seasons_count":1,"episodes_count":8,"episodes":8,"update":"2020-05-04 12:31:15","iframe_src":"//8332.svetacdn.in/si4jsFRrtgrT/tv-series/7370"},{"id":7369,"title":"Путешествие Саймона Рива в Россию","kp_id":"1278172","imdb_id":"tt7425366","world_art_id":null,"type":"serial","add":"2020-05-02 11:22:55","orig_title":"Russia with Simon Reeve","year":"2017-09-28","translations":["Профессиональный (многоголосый закадровый)"],"seasons_count":1,"episodes_count":3,"episodes":3,"update":"2020-05-03 13:35:42","iframe_src":"//8332.svetacdn.in/si4jsFRrtgrT/tv-series/7369"},{"id":7368,"title":"Шеф полиции","kp_id":"743980","imdb_id":"tt3667670","world_art_id":null,"type":"serial","add":"2020-05-02 11:20:10","orig_title":"Shef politsii","year":"2013-08-30","translations":["Оригинальная дорожка"],"seasons_count":1,"episodes_count":4,"episodes":4,"update":"2020-05-03 13:24:31","iframe_src":"//8332.svetacdn.in/si4jsFRrtgrT/tv-series/7368"},{"id":7367,"title":"По друзьям","kp_id":"954874","imdb_id":"tt5295524","world_art_id":null,"type":"serial","add":"2020-05-02 03:00:41","orig_title":"Crashing","year":"2016-01-11","translations":["Любительский (двухголосый закадровый) (Hamster Studio)"],"seasons_count":1,"episodes_count":6,"episodes":6,"update":"2020-05-02 18:28:40","iframe_src":"//8332.svetacdn.in/si4jsFRrtgrT/tv-series/7367"},{"id":7364,"title":"Синдбад","kp_id":"675179","imdb_id":"tt1979918","world_art_id":null,"type":"serial","add":"2020-05-01 17:22:29","orig_title":"Sinbad","year":"2012-07-08","translations":["Полное дублирование (ТВ3)"],"seasons_count":1,"episodes_count":12,"episodes":12,"update":"2020-05-04 12:13:55","iframe_src":"//8332.svetacdn.in/si4jsFRrtgrT/tv-series/7364"},{"id":7359,"title":"Невероятный Халк","kp_id":"231225","imdb_id":"tt0115215","world_art_id":null,"type":"serial","add":"2020-05-01 08:52:40","orig_title":"The Incredible Hulk","year":"1996-09-08","translations":["Полное дублирование"],"seasons_count":2,"episodes_count":21,"episodes":8,"update":"2020-05-01 20:30:38","iframe_src":"//8332.svetacdn.in/si4jsFRrtgrT/tv-series/7359"},{"id":7357,"title":"В сети","kp_id":"855922","imdb_id":"tt10103032","world_art_id":null,"type":"serial","add":"2020-05-01 05:30:48","orig_title":"V seti","year":"2014-04-04","translations":["Оригинальная дорожка"],"seasons_count":1,"episodes_count":25,"episodes":25,"update":"2020-05-02 13:24:59","iframe_src":"//8332.svetacdn.in/si4jsFRrtgrT/tv-series/7357"},{"id":7355,"title":"Скажи только слово","kp_id":"1302080","imdb_id":"tt10924546","world_art_id":null,"type":"serial","add":"2020-05-01 03:54:51","orig_title":"Skazhi tolko slovo","year":"2020-04-24","translations":["Оригинальная дорожка"],"seasons_count":1,"episodes_count":4,"episodes":4,"update":"2020-05-01 18:48:12","iframe_src":"//8332.svetacdn.in/si4jsFRrtgrT/tv-series/7355"},{"id":7353,"title":"В час беды","kp_id":"891352","imdb_id":"tt11078108","world_art_id":null,"type":"serial","add":"2020-04-30 20:12:10","orig_title":"V chas bedy","year":"2015-02-21","translations":["Оригинальная дорожка"],"seasons_count":1,"episodes_count":2,"episodes":2,"update":"2020-05-01 17:49:04","iframe_src":"//8332.svetacdn.in/si4jsFRrtgrT/tv-series/7353"},{"id":7352,"title":"Я ненавижу свою дочь","kp_id":"582398","imdb_id":"tt1819545","world_art_id":null,"type":"serial","add":"2020-04-30 20:08:30","orig_title":"I Hate My Teenage Daughter","year":"2011-11-30","translations":["Любительский (одноголосый закадровый)"],"seasons_count":1,"episodes_count":8,"episodes":8,"update":"2020-05-02 12:06:13","iframe_src":"//8332.svetacdn.in/si4jsFRrtgrT/tv-series/7352"},{"id":7287,"title":"Дар","kp_id":"618335","imdb_id":"tt3334224","world_art_id":null,"type":"serial","add":"2020-04-24 12:17:03","orig_title":"Dar","year":"2011-10-17","translations":["Оригинальная дорожка"],"seasons_count":1,"episodes_count":110,"episodes":110,"update":"2020-05-04 12:06:32","iframe_src":"//8332.svetacdn.in/si4jsFRrtgrT/tv-series/7287"},{"id":6501,"title":"Обед в пятницу вечером","kp_id":"581880","imdb_id":"tt1844923","world_art_id":null,"type":"serial","add":"2020-01-28 21:33:48","orig_title":"Friday Night Dinner","year":"2011-02-25","translations":["Профессиональный (многоголосый закадровый) (2x2)","Профессиональный (многоголосый закадровый) (Кравец)","Любительский (двухголосый закадровый) (NEON Studio)","Любительский (двухголосый закадровый) (Sunshine Studio)","Любительский (многоголосый закадровый) (Volume-6 Studio)","Любительский (многоголосый закадровый) (ColdFilm)","Любительский (многоголосый закадровый)"],"seasons_count":6,"episodes_count":37,"episodes":6,"update":"2020-05-02 14:37:13","iframe_src":"//8332.svetacdn.in/si4jsFRrtgrT/tv-series/6501"},{"id":5894,"title":"Скуби-Ду и угадай кто?","kp_id":"1159609","imdb_id":"tt8456094","world_art_id":null,"type":"serial","add":"2019-11-30 04:11:21","orig_title":"Scooby-Doo and Guess Who?","year":"2019-06-27","translations":["Полное дублирование (Пифагор)","Профессиональный (многоголосый закадровый) (Flarrow Films)"],"seasons_count":1,"episodes_count":25,"episodes":25,"update":"2020-05-04 12:25:31","iframe_src":"//8332.svetacdn.in/si4jsFRrtgrT/tv-series/5894"},{"id":5765,"title":"Девочки","kp_id":"568326","imdb_id":"tt1723816","world_art_id":null,"type":"serial","add":"2019-11-17 00:26:01","orig_title":"Girls","year":"2012-04-15","translations":["Профессиональный (многоголосый закадровый) (Amedia)"],"seasons_count":6,"episodes_count":62,"episodes":10,"update":"2020-05-01 20:23:21","iframe_src":"//8332.svetacdn.in/si4jsFRrtgrT/tv-series/5765"},{"id":5409,"title":"Разноцветная комедия","kp_id":"1261953","imdb_id":"tt10276062","world_art_id":null,"type":"serial","add":"2019-10-07 14:18:02","orig_title":"Mixed-ish","year":"2019-09-24","translations":["Профессиональный (одноголосый закадровый) (Sound Film)","Профессиональный (многоголосый закадровый) (TVShows)"],"seasons_count":1,"episodes_count":21,"episodes":21,"update":"2020-05-03 12:18:07","iframe_src":"//8332.svetacdn.in/si4jsFRrtgrT/tv-series/5409"},{"id":25295,"title":"Премия","kp_id":"43235","imdb_id":"tt0072027","world_art_id":null,"type":"movie","add":"2019-04-25 07:30:22","orig_title":"Premiya","year":"1975-09-22","translations":["Оригинальная дорожка"],"quality":"hdtv","translation":"Оригинальная дорожка","update":"2021-03-12 13:07:29","iframe_src":"//8332.svetacdn.in/si4jsFRrtgrT/movie/25295"},{"id":2749,"title":"Шекспир и Хэтэуэй: Частные детективы","kp_id":"1115322","imdb_id":"tt7526498","world_art_id":null,"type":"serial","add":"2018-06-06 09:30:51","orig_title":"Shakespeare & Hathaway: Private Investigators","year":"2018-02-26","translations":["Любительский (одноголосый закадровый)","Любительский (многоголосый закадровый)","Профессиональный (многоголосый закадровый) (ТВЦ)","Профессиональный (многоголосый закадровый) (TVShows)","Профессиональный (одноголосый закадровый)","Любительский (многоголосый закадровый) (Octopus)"],"seasons_count":3,"episodes_count":30,"episodes":10,"update":"2020-05-04 08:03:03","iframe_src":"//8332.svetacdn.in/si4jsFRrtgrT/tv-series/2749"},{"id":1454,"title":"Голдберги","kp_id":"738519","imdb_id":"tt2712740","world_art_id":null,"type":"serial","add":"2017-08-08 05:08:52","orig_title":"The Goldbergs","year":"2013-09-24","translations":["Любительский (двухголосый закадровый) (Kiitos)","Полное дублирование (Paramount Comedy)","Полное дублирование (True Dubbing Studio)","Профессиональный (многоголосый закадровый) (TVShows)"],"seasons_count":7,"episodes_count":160,"episodes":20,"update":"2020-05-04 04:20:46","iframe_src":"//8332.svetacdn.in/si4jsFRrtgrT/tv-series/1454"},{"id":1309,"title":"Дом на краю леса","kp_id":"1007819","imdb_id":null,"world_art_id":null,"type":"serial","add":"2017-06-14 10:29:07","orig_title":"Дом на краю леса","year":"2017-04-15","translations":["Оригинальная дорожка"],"seasons_count":1,"episodes_count":4,"episodes":4,"update":"2020-05-01 18:50:59","iframe_src":"//8332.svetacdn.in/si4jsFRrtgrT/tv-series/1309"},{"id":689,"title":"8 Миля","kp_id":"581","imdb_id":"tt0298203","world_art_id":null,"type":"movie","add":"2016-04-05 21:31:37","orig_title":"8 Mile","year":"2002-09-08","translations":["Полное дублирование","Original (English)","Авторский (одноголосый закадровый) (Королёв Владимир)","Полное дублирование (Пифагор)","Original (English)","Профессиональный (многоголосый закадровый) (СТС)","Профессиональный (многоголосый закадровый) (Первый канал | ОРТ)","Профессиональный (многоголосый закадровый) (Премьер Видео Фильм)"],"quality":"bd","translation":"Полное дублирование","update":"2021-03-12 13:30:12","iframe_src":"//8332.svetacdn.in/si4jsFRrtgrT/movie/689"}],"current_page":240,"first_page_url":"https://videocdn.tv/api/short?limit=100&api_token=X6EwAUfE5M9xbo7y0Bp0aPf3uXxG2KLL&cache3240=3240&page=1","from":23901,"last_page":638,"last_page_url":"https://videocdn.tv/api/short?limit=100&api_token=X6EwAUfE5M9xbo7y0Bp0aPf3uXxG2KLL&cache3240=3240&page=638","next_page_url":"https://videocdn.tv/api/short?limit=100&api_token=X6EwAUfE5M9xbo7y0Bp0aPf3uXxG2KLL&cache3240=3240&page=241","path":"https://videocdn.tv/api/short","per_page":100,"prev_page_url":"https://videocdn.tv/api/short?limit=100&api_token=X6EwAUfE5M9xbo7y0Bp0aPf3uXxG2KLL&cache3240=3240&page=239","to":23940,"total":63713}