{"result":true,"data":[{"id":50501,"title":"Лодочница","kp_id":"1376174","imdb_id":"tt11504976","world_art_id":null,"type":"movie","add":"2021-05-19 16:30:20","orig_title":"La botera","year":"2019-12-19","translations":["Любительский (многоголосый закадровый) (Синема УС)"],"quality":"webdl","translation":"Любительский (многоголосый закадровый) (Синема УС)","update":"2021-05-19 19:20:23","iframe_src":"//83.svetacdn.in/PfJ50H0ZBPg3/movie/50501"},{"id":50497,"title":"Пережить свою жизнь","kp_id":"445576","imdb_id":"tt1352765","world_art_id":null,"type":"movie","add":"2021-05-19 12:30:36","orig_title":"Prezít svuj zivot (teorie a praxe)","year":"2010-09-10","translations":["Любительский (одноголосый закадровый)"],"quality":"bd","translation":"Любительский (одноголосый закадровый)","update":"2021-05-20 06:15:43","iframe_src":"//83.svetacdn.in/PfJ50H0ZBPg3/movie/50497"},{"id":50496,"title":"Дом 616 на Уилфорд-Лейн","kp_id":"1261959","imdb_id":"tt10225926","world_art_id":null,"type":"movie","add":"2021-05-19 12:27:31","orig_title":"616 Wilford Lane","year":"2021-01-01","translations":["Любительский (многоголосый закадровый) (Синема УС)"],"quality":"webdl","translation":"Любительский (многоголосый закадровый) (Синема УС)","update":"2021-05-19 19:13:51","iframe_src":"//83.svetacdn.in/PfJ50H0ZBPg3/movie/50496"},{"id":50495,"title":"Девушка в желтой пижаме","kp_id":"26367","imdb_id":"tt0075834","world_art_id":null,"type":"movie","add":"2021-05-19 12:25:29","orig_title":"La ragazza dal pigiama giallo","year":"1978-01-12","translations":["Любительский (одноголосый закадровый) (Andi999)"],"quality":"bd","translation":"Любительский (одноголосый закадровый) (Andi999)","update":"2021-05-20 06:14:34","iframe_src":"//83.svetacdn.in/PfJ50H0ZBPg3/movie/50495"},{"id":50492,"title":"Такие разные судьбы","kp_id":"159130","imdb_id":"tt0047250","world_art_id":null,"type":"movie","add":"2021-05-19 09:26:33","orig_title":"Le mouton à cinq pattes","year":"1954-07-11","translations":["Профессиональный (двухголосый закадровый)"],"quality":"bd","translation":"Профессиональный (двухголосый закадровый)","update":"2021-05-19 12:41:27","iframe_src":"//83.svetacdn.in/PfJ50H0ZBPg3/movie/50492"},{"id":50491,"title":"Человек и его собака","kp_id":"404216","imdb_id":"tt1174049","world_art_id":null,"type":"movie","add":"2021-05-19 09:20:09","orig_title":"Un homme et son chien","year":"2008-11-13","translations":["Профессиональный (многоголосый закадровый)"],"quality":"dvdrip","translation":"Профессиональный (многоголосый закадровый)","update":"2021-05-19 11:05:48","iframe_src":"//83.svetacdn.in/PfJ50H0ZBPg3/movie/50491"},{"id":50490,"title":"Наследник","kp_id":"39798","imdb_id":"tt0068724","world_art_id":null,"type":"movie","add":"2021-05-19 09:14:27","orig_title":"L'héritier","year":"1973-03-22","translations":["Профессиональный (многоголосый закадровый)"],"quality":"bd","translation":"Профессиональный (многоголосый закадровый)","update":"2021-05-19 11:07:04","iframe_src":"//83.svetacdn.in/PfJ50H0ZBPg3/movie/50490"},{"id":50488,"title":"Радхе","kp_id":"1302324","imdb_id":"tt10888594","world_art_id":null,"type":"movie","add":"2021-05-19 08:01:15","orig_title":"Radhe","year":"2021-05-13","translations":["Любительский (многоголосый закадровый) (Honey&Haseena)"],"quality":"webdl","translation":"Любительский (многоголосый закадровый) (Honey&Haseena)","update":"2021-05-19 12:17:01","iframe_src":"//83.svetacdn.in/PfJ50H0ZBPg3/movie/50488"},{"id":50485,"title":"Новая любовь в Токио","kp_id":"185767","imdb_id":"tt0109059","world_art_id":null,"type":"movie","add":"2021-05-19 05:04:43","orig_title":"Ai no shinsekai","year":"1994-12-17","translations":["Любительский (одноголосый закадровый) (den904)"],"quality":"bd","translation":"Любительский (одноголосый закадровый) (den904)","update":"2021-05-19 11:28:40","iframe_src":"//83.svetacdn.in/PfJ50H0ZBPg3/movie/50485"},{"id":50414,"title":"Эмбрион","kp_id":"1116011","imdb_id":"tt8211476","world_art_id":null,"type":"movie","add":"2021-05-16 20:42:32","orig_title":"Embrión","year":"2020-10-24","translations":["Любительский (многоголосый закадровый) (Синема УС)","Любительский (двухголосый закадровый) (datynet & Yuka_chan)"],"quality":"webdl","translation":"Любительский (многоголосый закадровый) (Синема УС)","update":"2021-05-19 15:33:41","iframe_src":"//83.svetacdn.in/PfJ50H0ZBPg3/movie/50414"},{"id":49403,"title":"Серебряные медведи","kp_id":"11871","imdb_id":"tt0076715","world_art_id":null,"type":"movie","add":"2021-04-07 05:37:59","orig_title":"Silver Bears","year":"1977-06-03","translations":["Профессиональный (двухголосый закадровый)","Original (English)"],"quality":"bd","translation":"Профессиональный (двухголосый закадровый)","update":"2021-05-20 06:10:45","iframe_src":"//83.svetacdn.in/PfJ50H0ZBPg3/movie/49403"},{"id":48861,"title":"Плавучий театр","kp_id":"30717","imdb_id":"tt0044030","world_art_id":null,"type":"movie","add":"2021-03-18 06:17:25","orig_title":"Show Boat","year":"1951-07-17","translations":["Профессиональный (многоголосый закадровый) (Домашний)","Original (English)"],"quality":"bd","translation":"Профессиональный (многоголосый закадровый) (Домашний)","update":"2021-05-20 06:12:34","iframe_src":"//83.svetacdn.in/PfJ50H0ZBPg3/movie/48861"},{"id":48561,"title":"Бродвейская мелодия 1929-го года","kp_id":"7684","imdb_id":"tt0019729","world_art_id":null,"type":"movie","add":"2021-03-08 14:58:45","orig_title":"The Broadway Melody","year":"1929-02-01","translations":["Профессиональный (многоголосый закадровый) (Светла)","Original (English)"],"quality":"webdl","translation":"Профессиональный (многоголосый закадровый) (Светла)","update":"2021-05-20 06:03:10","iframe_src":"//83.svetacdn.in/PfJ50H0ZBPg3/movie/48561"},{"id":48558,"title":"Рожденная танцевать","kp_id":"8575","imdb_id":"tt0027387","world_art_id":null,"type":"movie","add":"2021-03-08 14:54:58","orig_title":"Born to Dance","year":"1936-11-27","translations":["Профессиональный (одноголосый закадровый) (Светла)","Original (English)"],"quality":"webdl","translation":"Профессиональный (одноголосый закадровый) (Светла)","update":"2021-05-20 06:05:59","iframe_src":"//83.svetacdn.in/PfJ50H0ZBPg3/movie/48558"},{"id":48373,"title":"Кентерберийская история","kp_id":"17833","imdb_id":"tt0036695","world_art_id":null,"type":"movie","add":"2021-03-03 05:40:39","orig_title":"A Canterbury Tale","year":"1944-05-11","translations":["Профессиональный (многоголосый закадровый) (100ТВ)","Original (English)"],"quality":"webdl","translation":"Профессиональный (многоголосый закадровый) (100ТВ)","update":"2021-05-20 06:07:22","iframe_src":"//83.svetacdn.in/PfJ50H0ZBPg3/movie/48373"},{"id":48305,"title":"Прикуси пулю","kp_id":"14597","imdb_id":"tt0072705","world_art_id":null,"type":"movie","add":"2021-03-01 06:08:29","orig_title":"Bite the Bullet","year":"1975-04-26","translations":["Профессиональный (многоголосый закадровый) (5-й канал СПб)","Original (English)"],"quality":"bd","translation":"Профессиональный (многоголосый закадровый) (5-й канал СПб)","update":"2021-05-20 06:13:33","iframe_src":"//83.svetacdn.in/PfJ50H0ZBPg3/movie/48305"},{"id":47437,"title":"Кармен","kp_id":"26528","imdb_id":"tt0040552","world_art_id":null,"type":"movie","add":"2021-01-27 05:44:14","orig_title":"The Loves of Carmen","year":"1948-08-23","translations":["Профессиональный (многоголосый закадровый)","Original (English)"],"quality":"bd","translation":"Профессиональный (многоголосый закадровый)","update":"2021-05-20 06:09:22","iframe_src":"//83.svetacdn.in/PfJ50H0ZBPg3/movie/47437"},{"id":8090,"title":"Текст. Реальность","kp_id":"1374289","imdb_id":null,"world_art_id":null,"type":"serial","add":"2020-07-04 17:21:19","orig_title":"Текст. Реальность","year":"2020-07-03","translations":[],"seasons_count":1,"episodes_count":5,"episodes":5,"update":"2020-07-04 22:37:15","iframe_src":"//83.svetacdn.in/PfJ50H0ZBPg3/tv-series/8090"},{"id":8081,"title":"Госпожа Дила","kp_id":"728555","imdb_id":"tt2544156","world_art_id":null,"type":"serial","add":"2020-07-03 10:33:44","orig_title":"Dila Hanim","year":"2012-01-01","translations":["Профессиональный (многоголосый закадровый)","Любительский (одноголосый закадровый) (turok1990)"],"seasons_count":2,"episodes_count":90,"episodes":27,"update":"2020-07-05 18:18:54","iframe_src":"//83.svetacdn.in/PfJ50H0ZBPg3/tv-series/8081"},{"id":8077,"title":"История Яз","kp_id":"1045390","imdb_id":"tt4850010","world_art_id":null,"type":"serial","add":"2020-07-02 22:00:18","orig_title":"Yaz'in Öyküsü","year":"2015-07-05","translations":["Любительский (одноголосый закадровый) (Мительман Галина)"],"seasons_count":1,"episodes_count":13,"episodes":13,"update":"2020-07-03 21:19:20","iframe_src":"//83.svetacdn.in/PfJ50H0ZBPg3/tv-series/8077"},{"id":8076,"title":"Роковое наследство","kp_id":"880673","imdb_id":null,"world_art_id":null,"type":"serial","add":"2020-07-02 21:42:22","orig_title":"Роковое наследство","year":"2015-01-17","translations":["Оригинальная дорожка"],"seasons_count":1,"episodes_count":2,"episodes":2,"update":"2020-07-03 14:33:22","iframe_src":"//83.svetacdn.in/PfJ50H0ZBPg3/tv-series/8076"},{"id":8074,"title":"Женщина-паук","kp_id":"586262","imdb_id":"tt0197911","world_art_id":null,"type":"serial","add":"2020-07-02 21:33:09","orig_title":"Spider-Woman","year":"1979-09-22","translations":["Профессиональный (двухголосый закадровый)"],"seasons_count":1,"episodes_count":16,"episodes":16,"update":"2020-07-03 21:13:50","iframe_src":"//83.svetacdn.in/PfJ50H0ZBPg3/tv-series/8074"},{"id":8073,"title":"Карнавал по-нашему","kp_id":"839558","imdb_id":null,"world_art_id":null,"type":"serial","add":"2020-07-02 19:33:57","orig_title":"Карнавал по-нашему","year":"2014-05-02","translations":["Любительский (одноголосый закадровый) (Мительман Галина)"],"seasons_count":1,"episodes_count":2,"episodes":2,"update":"2020-07-03 14:31:32","iframe_src":"//83.svetacdn.in/PfJ50H0ZBPg3/tv-series/8073"},{"id":8072,"title":"Если бы я стал облаком","kp_id":"596127","imdb_id":"tt1447832","world_art_id":null,"type":"serial","add":"2020-07-02 19:16:02","orig_title":"Bir bulut olsam","year":"2009-02-23","translations":["Любительский (одноголосый закадровый) (Максимова Лидия)"],"seasons_count":1,"episodes_count":29,"episodes":29,"update":"2020-07-03 14:29:34","iframe_src":"//83.svetacdn.in/PfJ50H0ZBPg3/tv-series/8072"},{"id":8071,"title":"Венера","kp_id":"1118119","imdb_id":"tt10240522","world_art_id":null,"type":"serial","add":"2020-07-02 19:10:12","orig_title":"Çoban Yildizi","year":"2017-01-01","translations":["Авторский (одноголосый закадровый) (Котова Ирина)"],"seasons_count":1,"episodes_count":17,"episodes":17,"update":"2020-07-03 14:15:57","iframe_src":"//83.svetacdn.in/PfJ50H0ZBPg3/tv-series/8071"},{"id":8060,"title":"Нападение на дворец Чыраган","kp_id":"841662","imdb_id":"tt3920576","world_art_id":null,"type":"serial","add":"2020-07-01 11:38:00","orig_title":"Çiragan Baskini","year":"2014-08-03","translations":["Любительский (одноголосый закадровый)"],"seasons_count":1,"episodes_count":4,"episodes":4,"update":"2020-07-04 10:35:32","iframe_src":"//83.svetacdn.in/PfJ50H0ZBPg3/tv-series/8060"},{"id":8025,"title":"Кволик","kp_id":"980498","imdb_id":"tt4558858","world_art_id":null,"type":"serial","add":"2020-06-25 20:32:24","orig_title":"Wabbit: A Looney Tunes Production","year":"2015-09-21","translations":["Полное дублирование"],"seasons_count":1,"episodes_count":52,"episodes":52,"update":"2020-07-03 21:31:09","iframe_src":"//83.svetacdn.in/PfJ50H0ZBPg3/tv-series/8025"},{"id":7955,"title":"Разбивающая сердца","kp_id":"584096","imdb_id":"tt1618952","world_art_id":null,"type":"serial","add":"2020-06-19 12:40:37","orig_title":"Gönülçelen","year":"2010-02-26","translations":["Профессиональный (многоголосый закадровый) (Astana TV)"],"seasons_count":2,"episodes_count":56,"episodes":28,"update":"2020-07-05 11:03:23","iframe_src":"//83.svetacdn.in/PfJ50H0ZBPg3/tv-series/7955"},{"id":7434,"title":"Совет отцов","kp_id":"1246398","imdb_id":"tt9165830","world_art_id":null,"type":"serial","add":"2020-05-07 20:22:47","orig_title":"Council of Dads","year":"2020-03-24","translations":["Любительский (многоголосый закадровый) (Octopus)"],"seasons_count":1,"episodes_count":10,"episodes":10,"update":"2020-07-04 11:12:31","iframe_src":"//83.svetacdn.in/PfJ50H0ZBPg3/tv-series/7434"},{"id":7291,"title":"Страшные сказки: Город ангелов","kp_id":"1254206","imdb_id":"tt10361016","world_art_id":null,"type":"serial","add":"2020-04-25 02:38:59","orig_title":"Penny Dreadful: City of Angels","year":"2020-04-26","translations":["Любительский (многоголосый закадровый) (Octopus)","Любительский (многоголосый закадровый) (ColdFilm)","Профессиональный (многоголосый закадровый) (HDrezka Studio)","Профессиональный (многоголосый закадровый) (Greb&Creative)","Профессиональный (многоголосый закадровый) (LostFilm)","Профессиональный (многоголосый закадровый) (NewStudio)","Профессиональный (многоголосый закадровый) (AlexFilm)","Профессиональный (двухголосый закадровый) (Gears Media)","Любительский (многоголосый закадровый) (KerobTV)","Профессиональный (двухголосый закадровый) (ViruseProject)"],"seasons_count":1,"episodes_count":10,"episodes":10,"update":"2020-07-05 06:42:37","iframe_src":"//83.svetacdn.in/PfJ50H0ZBPg3/tv-series/7291"},{"id":7172,"title":"#СвободуРэйшону","kp_id":"1263487","imdb_id":"tt10308554","world_art_id":null,"type":"serial","add":"2020-04-13 13:11:00","orig_title":"#Freerayshawn","year":"2020-04-13","translations":["Любительский (многоголосый закадровый) (ColdFilm)","Любительский (многоголосый закадровый) (Octopus)","Любительский (многоголосый закадровый) (KerobTV)","Профессиональный (многоголосый закадровый) (BaibaKo)","Любительский (двухголосый закадровый) (KerobTV)"],"seasons_count":1,"episodes_count":15,"episodes":15,"update":"2020-07-03 14:25:57","iframe_src":"//83.svetacdn.in/PfJ50H0ZBPg3/tv-series/7172"},{"id":39246,"title":"Приходи в сентябре","kp_id":"29679","imdb_id":"tt0054759","world_art_id":null,"type":"movie","add":"2020-04-13 09:57:53","orig_title":"Come September","year":"1961-08-09","translations":["Профессиональный (многоголосый закадровый)","Профессиональный (многоголосый закадровый)","Original (English)"],"quality":"dvdrip","translation":"Профессиональный (многоголосый закадровый)","update":"2021-05-20 06:05:30","iframe_src":"//83.svetacdn.in/PfJ50H0ZBPg3/movie/39246"},{"id":6173,"title":"Отдел 42","kp_id":"1275280","imdb_id":"tt6136644","world_art_id":null,"type":"serial","add":"2019-12-28 15:57:35","orig_title":"Unité 42","year":"2017-11-19","translations":["Профессиональный (двухголосый закадровый) (ViruseProject)","Любительский (многоголосый закадровый) (Octopus)","Любительский (многоголосый закадровый) (ColdFilm)"],"seasons_count":2,"episodes_count":20,"episodes":10,"update":"2020-07-02 22:18:50","iframe_src":"//83.svetacdn.in/PfJ50H0ZBPg3/tv-series/6173"},{"id":4872,"title":"Как долго я тебя ждала","kp_id":"1254419","imdb_id":"tt10137936","world_art_id":null,"type":"serial","add":"2019-07-17 11:06:31","orig_title":"Как долго я тебя ждала","year":"2019-04-01","translations":["Оригинальная дорожка"],"seasons_count":1,"episodes_count":20,"episodes":20,"update":"2020-07-04 08:03:50","iframe_src":"//83.svetacdn.in/PfJ50H0ZBPg3/tv-series/4872"},{"id":23271,"title":"Мост Ватерлоо","kp_id":"16759","imdb_id":"tt0033238","world_art_id":null,"type":"movie","add":"2019-03-20 07:52:38","orig_title":"Waterloo Bridge","year":"1940-05-17","translations":["Профессиональный (многоголосый закадровый) (Film Prestige)","Original (English)"],"quality":"bd","translation":"Профессиональный (многоголосый закадровый) (Film Prestige)","update":"2021-05-20 06:07:58","iframe_src":"//83.svetacdn.in/PfJ50H0ZBPg3/movie/23271"},{"id":3646,"title":"Пелена","kp_id":"1172866","imdb_id":null,"world_art_id":null,"type":"serial","add":"2018-12-09 14:32:56","orig_title":"Пелена","year":"2018-06-04","translations":["Оригинальная дорожка"],"seasons_count":1,"episodes_count":10,"episodes":10,"update":"2020-07-05 09:24:25","iframe_src":"//83.svetacdn.in/PfJ50H0ZBPg3/tv-series/3646"},{"id":2422,"title":"Схватка","kp_id":"712882","imdb_id":"tt4075246","world_art_id":null,"type":"serial","add":"2018-04-18 12:05:18","orig_title":"Shvatka","year":"2013-03-22","translations":["Оригинальная дорожка"],"seasons_count":1,"episodes_count":4,"episodes":4,"update":"2020-07-04 16:47:54","iframe_src":"//83.svetacdn.in/PfJ50H0ZBPg3/tv-series/2422"},{"id":2053,"title":"Вербное воскресенье","kp_id":"487573","imdb_id":"tt2913010","world_art_id":null,"type":"serial","add":"2018-02-09 10:25:29","orig_title":"Verbnoe voskresene","year":"2009-12-07","translations":["Оригинальная дорожка"],"seasons_count":1,"episodes_count":8,"episodes":8,"update":"2020-07-05 17:11:28","iframe_src":"//83.svetacdn.in/PfJ50H0ZBPg3/tv-series/2053"},{"id":11715,"title":"Странные супруги","kp_id":"29676","imdb_id":"tt0058621","world_art_id":null,"type":"movie","add":"2017-05-31 12:17:07","orig_title":"Strange Bedfellows","year":"1965-02-10","translations":["Авторский (одноголосый закадровый) (Яковлев Алексей)","Original (English)"],"quality":"webdl","translation":"Авторский (одноголосый закадровый) (Яковлев Алексей)","update":"2021-05-20 06:04:33","iframe_src":"//83.svetacdn.in/PfJ50H0ZBPg3/movie/11715"},{"id":911,"title":"Вольтрон: Легендарный защитник","kp_id":"984256","imdb_id":"tt5580664","world_art_id":null,"type":"serial","add":"2017-01-20 06:27:05","orig_title":"Voltron: Legendary Defender","year":"2016-06-10","translations":["Профессиональный (многоголосый закадровый) (NewStudio)","Любительский (одноголосый закадровый) (AniDUB)","Любительский (двухголосый закадровый) (AniDUB)","Любительский (многоголосый закадровый) (AniDUB)","Любительский (двухголосый закадровый) (KinoGolos)"],"seasons_count":8,"episodes_count":76,"episodes":13,"update":"2020-07-05 16:36:38","iframe_src":"//83.svetacdn.in/PfJ50H0ZBPg3/tv-series/911"}],"current_page":234,"first_page_url":"https://videocdn.tv/api/short?limit=100&api_token=RgFQdUIR2dRmwv8iYa5SnFNgnw3vpjKj&cache3234=3234&page=1","from":23301,"last_page":662,"last_page_url":"https://videocdn.tv/api/short?limit=100&api_token=RgFQdUIR2dRmwv8iYa5SnFNgnw3vpjKj&cache3234=3234&page=662","next_page_url":"https://videocdn.tv/api/short?limit=100&api_token=RgFQdUIR2dRmwv8iYa5SnFNgnw3vpjKj&cache3234=3234&page=235","path":"https://videocdn.tv/api/short","per_page":100,"prev_page_url":"https://videocdn.tv/api/short?limit=100&api_token=RgFQdUIR2dRmwv8iYa5SnFNgnw3vpjKj&cache3234=3234&page=233","to":23340,"total":66126}