{"result":true,"data":[{"id":50554,"title":"Кабарете","kp_id":null,"imdb_id":"tt6773538","world_art_id":null,"type":"movie","add":"2021-05-21 20:53:27","orig_title":"Cabarete","year":"2019-12-07","translations":["Любительский (многоголосый закадровый) (Синема УС)"],"quality":"webdl","translation":"Любительский (многоголосый закадровый) (Синема УС)","update":"2021-05-22 07:20:26","iframe_src":"//24213.svetacdn.in/IAF0wWTdNYZm/movie/50554"},{"id":50552,"title":"Спящий сквозь время","kp_id":"1313783","imdb_id":"tt9722688","world_art_id":null,"type":"movie","add":"2021-05-21 19:53:39","orig_title":"Time Sleeper","year":"2020-02-22","translations":["Любительский (многоголосый закадровый) (Синема УС)"],"quality":"webdl","translation":"Любительский (многоголосый закадровый) (Синема УС)","update":"2021-05-22 07:20:49","iframe_src":"//24213.svetacdn.in/IAF0wWTdNYZm/movie/50552"},{"id":50550,"title":"Отделение","kp_id":"1294790","imdb_id":"tt10197804","world_art_id":null,"type":"movie","add":"2021-05-21 19:50:53","orig_title":"La Sucursal","year":"2019-04-11","translations":["Любительский (многоголосый закадровый) (Синема УС)"],"quality":"bd","translation":"Любительский (многоголосый закадровый) (Синема УС)","update":"2021-05-22 07:21:09","iframe_src":"//24213.svetacdn.in/IAF0wWTdNYZm/movie/50550"},{"id":50549,"title":"Риам: Боевой Ангел","kp_id":"4291701","imdb_id":"tt13416450","world_art_id":null,"type":"movie","add":"2021-05-21 19:47:07","orig_title":"E Riam Sing","year":"2020-11-19","translations":["Любительский (многоголосый закадровый) (Синема УС)"],"quality":"webdl","translation":"Любительский (многоголосый закадровый) (Синема УС)","update":"2021-05-22 07:21:48","iframe_src":"//24213.svetacdn.in/IAF0wWTdNYZm/movie/50549"},{"id":50548,"title":"Взрывной удар","kp_id":"1331098","imdb_id":"tt10767066","world_art_id":null,"type":"movie","add":"2021-05-21 19:36:48","orig_title":"Blast Beat","year":"2020-01-26","translations":["Любительский (многоголосый закадровый) (Синема УС)"],"quality":"webdl","translation":"Любительский (многоголосый закадровый) (Синема УС)","update":"2021-05-21 21:49:39","iframe_src":"//24213.svetacdn.in/IAF0wWTdNYZm/movie/50548"},{"id":50547,"title":"Соловей: Мелодия жизни","kp_id":"1342693","imdb_id":"tt11368424","world_art_id":null,"type":"movie","add":"2021-05-21 19:35:11","orig_title":"Nightingale: A Melody of Life","year":"2021-01-01","translations":["Любительский (многоголосый закадровый) (Синема УС)"],"quality":"webdl","translation":"Любительский (многоголосый закадровый) (Синема УС)","update":"2021-05-21 21:50:15","iframe_src":"//24213.svetacdn.in/IAF0wWTdNYZm/movie/50547"},{"id":50546,"title":"Авеню снов","kp_id":"1197945","imdb_id":"tt9059850","world_art_id":null,"type":"movie","add":"2021-05-21 19:33:19","orig_title":"Dreaming Grand Avenue","year":"2020-09-25","translations":["Любительский (многоголосый закадровый) (Синема УС)"],"quality":"webdl","translation":"Любительский (многоголосый закадровый) (Синема УС)","update":"2021-05-22 07:22:21","iframe_src":"//24213.svetacdn.in/IAF0wWTdNYZm/movie/50546"},{"id":50545,"title":"Автомобиль на крыше","kp_id":"43565","imdb_id":"tt0231202","world_art_id":null,"type":"movie","add":"2021-05-21 19:24:34","orig_title":"Avtomeqenan taniqi vra","year":"1981-02-07","translations":["Оригинальная дорожка"],"quality":"sat","translation":"Оригинальная дорожка","update":"2021-05-21 22:23:59","iframe_src":"//24213.svetacdn.in/IAF0wWTdNYZm/movie/50545"},{"id":50544,"title":"Анна и король Сиама","kp_id":"10058","imdb_id":"tt0038303","world_art_id":null,"type":"movie","add":"2021-05-21 19:20:51","orig_title":"Anna and the King of Siam","year":"1946-06-20","translations":["Профессиональный (многоголосый закадровый)"],"quality":"dvdrip","translation":"Профессиональный (многоголосый закадровый)","update":"2021-05-22 07:22:44","iframe_src":"//24213.svetacdn.in/IAF0wWTdNYZm/movie/50544"},{"id":50543,"title":"Волшебные горы","kp_id":"1266288","imdb_id":"tt10295936","world_art_id":null,"type":"movie","add":"2021-05-21 19:18:55","orig_title":"Magic Mountains","year":"2020-02-12","translations":["Любительский (многоголосый закадровый) (Синема УС)"],"quality":"webdl","translation":"Любительский (многоголосый закадровый) (Синема УС)","update":"2021-05-22 07:23:20","iframe_src":"//24213.svetacdn.in/IAF0wWTdNYZm/movie/50543"},{"id":50542,"title":"Крещендо","kp_id":"1067698","imdb_id":"tt7426078","world_art_id":null,"type":"movie","add":"2021-05-21 16:10:17","orig_title":"Crescendo","year":"2019-07-03","translations":["Любительский (многоголосый закадровый) (AlphaProject)"],"quality":"bd","translation":"Любительский (многоголосый закадровый) (AlphaProject)","update":"2021-05-21 22:24:51","iframe_src":"//24213.svetacdn.in/IAF0wWTdNYZm/movie/50542"},{"id":50539,"title":"Семеро солдатиков","kp_id":"46922","imdb_id":"tt0251989","world_art_id":null,"type":"movie","add":"2021-05-21 15:27:20","orig_title":"Semero soldatikov","year":"1983-09-05","translations":["Оригинальная дорожка"],"quality":"tv","translation":"Оригинальная дорожка","update":"2021-05-22 07:07:15","iframe_src":"//24213.svetacdn.in/IAF0wWTdNYZm/movie/50539"},{"id":50538,"title":"Граф Монте-Кристо","kp_id":"56811","imdb_id":"tt0046415","world_art_id":null,"type":"movie","add":"2021-05-21 15:21:52","orig_title":"Le comte de Monte-Cristo","year":"1954-01-14","translations":["Полное дублирование (Мосфильм)"],"quality":"hdtv","translation":"Полное дублирование (Мосфильм)","update":"2021-05-22 07:08:58","iframe_src":"//24213.svetacdn.in/IAF0wWTdNYZm/movie/50538"},{"id":50533,"title":"Сахаров. Две жизни","kp_id":"4365697","imdb_id":"tt14691338","world_art_id":null,"type":"movie","add":"2021-05-21 13:35:08","orig_title":"Sakharov. Dve zhizni","year":"2021-05-21","translations":["Оригинальная дорожка"],"quality":"webdl","translation":"Оригинальная дорожка","update":"2021-05-21 18:23:21","iframe_src":"//24213.svetacdn.in/IAF0wWTdNYZm/movie/50533"},{"id":50525,"title":"Я не твоя мама","kp_id":"1229244","imdb_id":"tt9584730","world_art_id":null,"type":"movie","add":"2021-05-20 22:08:23","orig_title":"No soy tu mami","year":"2019-06-27","translations":["Любительский (многоголосый закадровый) (AlphaProject)"],"quality":"webdl","translation":"Любительский (многоголосый закадровый) (AlphaProject)","update":"2021-05-21 22:25:10","iframe_src":"//24213.svetacdn.in/IAF0wWTdNYZm/movie/50525"},{"id":50524,"title":"Телек","kp_id":"1294086","imdb_id":"tt10800882","world_art_id":null,"type":"movie","add":"2021-05-20 22:04:56","orig_title":"The Tube","year":"2019-05-30","translations":["Любительский (многоголосый закадровый) (Синема УС)"],"quality":"webdl","translation":"Любительский (многоголосый закадровый) (Синема УС)","update":"2021-05-21 22:25:38","iframe_src":"//24213.svetacdn.in/IAF0wWTdNYZm/movie/50524"},{"id":50019,"title":"Пока я не умер","kp_id":"1256321","imdb_id":"tt6541090","world_art_id":null,"type":"movie","add":"2021-04-30 14:18:01","orig_title":"Before I'm Dead","year":"2021-03-02","translations":["[EN] Original (English)","Любительский (многоголосый закадровый) (Синема УС)"],"quality":"webdl","translation":"[EN] Original (English)","update":"2021-05-21 21:49:07","iframe_src":"//24213.svetacdn.in/IAF0wWTdNYZm/movie/50019"},{"id":23113,"title":"Жертва","kp_id":"406554","imdb_id":"tt1185442","world_art_id":null,"type":"movie","add":"2019-03-15 11:26:51","orig_title":"Kurbaan","year":"2009-11-20","translations":["Профессиональный (многоголосый закадровый) (ZEE TV)"],"quality":"bd","translation":"Профессиональный (многоголосый закадровый) (ZEE TV)","update":"2021-05-22 07:19:42","iframe_src":"//24213.svetacdn.in/IAF0wWTdNYZm/movie/23113"},{"id":21741,"title":"Этой мой год","kp_id":"1025218","imdb_id":"tt6295112","world_art_id":null,"type":"movie","add":"2019-01-22 23:51:38","orig_title":"This Is My Year","year":"2018-10-09","translations":["Профессиональный (многоголосый закадровый) (AlphaProject)","Профессиональный (многоголосый закадровый) (HDrezka Studio)","Профессиональный (многоголосый закадровый) (HDrezka Studio)"],"quality":"webdl","translation":"Профессиональный (многоголосый закадровый) (AlphaProject)","update":"2021-05-22 17:08:57","iframe_src":"//24213.svetacdn.in/IAF0wWTdNYZm/movie/21741"},{"id":9471,"title":"Бал вампиров","kp_id":"11622","imdb_id":"tt0061655","world_art_id":null,"type":"movie","add":"2017-02-06 13:13:07","orig_title":"Dance of the Vampires","year":"1967-11-13","translations":["Профессиональный (многоголосый закадровый)","Профессиональный (многоголосый закадровый) (5-й канал СПб)","Профессиональный (многоголосый закадровый) (Film Prestige)","[EN] Original (English)","Любительский (одноголосый закадровый) (Герусов)","Авторский (одноголосый закадровый) (Алексеев Антон)"],"quality":"bd","translation":"Профессиональный (многоголосый закадровый)","update":"2021-05-22 07:20:33","iframe_src":"//24213.svetacdn.in/IAF0wWTdNYZm/movie/9471"}],"current_page":686,"first_page_url":"https://videocdn.tv/api/short?limit=100&api_token=6Onb1W1alEUrBcKJZD3GoKBbWyAl2uG2&cache3686=3686&page=1","from":68501,"last_page":727,"last_page_url":"https://videocdn.tv/api/short?limit=100&api_token=6Onb1W1alEUrBcKJZD3GoKBbWyAl2uG2&cache3686=3686&page=727","next_page_url":"https://videocdn.tv/api/short?limit=100&api_token=6Onb1W1alEUrBcKJZD3GoKBbWyAl2uG2&cache3686=3686&page=687","path":"https://videocdn.tv/api/short","per_page":100,"prev_page_url":"https://videocdn.tv/api/short?limit=100&api_token=6Onb1W1alEUrBcKJZD3GoKBbWyAl2uG2&cache3686=3686&page=685","to":68520,"total":72610}