{"result":true,"data":[{"id":50691,"title":"Почему не я?","kp_id":"34650","imdb_id":"tt0162556","world_art_id":null,"type":"movie","add":"2021-05-27 12:34:05","orig_title":"Pourquoi pas moi?","year":"1999-01-06","translations":["Профессиональный (многоголосый закадровый)"],"quality":"dvdrip","translation":"Профессиональный (многоголосый закадровый)","update":"2021-05-27 15:49:51","iframe_src":"//2413.svetacdn.in/71tsRs29n5tZ/movie/50691"},{"id":50680,"title":"Однажды в Филадельфии","kp_id":"1386217","imdb_id":"tt10905830","world_art_id":null,"type":"movie","add":"2021-05-26 12:37:22","orig_title":"Once Upon a Time in Philly","year":"2019-01-01","translations":["Любительский (многоголосый закадровый) (AlphaProject)"],"quality":"webdl","translation":"Любительский (многоголосый закадровый) (AlphaProject)","update":"2021-05-27 18:17:52","iframe_src":"//2413.svetacdn.in/71tsRs29n5tZ/movie/50680"},{"id":50668,"title":"Собака-Бомба","kp_id":"1198886","imdb_id":"tt9069548","world_art_id":null,"type":"movie","add":"2021-05-25 16:25:00","orig_title":"Perro Bomba","year":"2019-03-19","translations":["Любительский (многоголосый закадровый) (Синема УС)"],"quality":"webdl","translation":"Любительский (многоголосый закадровый) (Синема УС)","update":"2021-05-27 18:08:24","iframe_src":"//2413.svetacdn.in/71tsRs29n5tZ/movie/50668"},{"id":50667,"title":"Папа-ютубер","kp_id":"1264292","imdb_id":"tt10332428","world_art_id":null,"type":"movie","add":"2021-05-25 16:17:11","orig_title":"Papá Youtuber","year":"2019-04-11","translations":["Любительский (многоголосый закадровый) (Синема УС)"],"quality":"webdl","translation":"Любительский (многоголосый закадровый) (Синема УС)","update":"2021-05-27 18:59:20","iframe_src":"//2413.svetacdn.in/71tsRs29n5tZ/movie/50667"},{"id":50665,"title":"Играйте на флейте","kp_id":"1018932","imdb_id":"tt6356220","world_art_id":null,"type":"movie","add":"2021-05-25 15:47:07","orig_title":"Play the Flute","year":"2019-03-01","translations":["Любительский (многоголосый закадровый) (Синема УС)"],"quality":"webdl","translation":"Любительский (многоголосый закадровый) (Синема УС)","update":"2021-05-27 18:57:10","iframe_src":"//2413.svetacdn.in/71tsRs29n5tZ/movie/50665"},{"id":50664,"title":"Псы умирают в одиночку","kp_id":"1108758","imdb_id":"tt7640584","world_art_id":null,"type":"movie","add":"2021-05-25 15:41:00","orig_title":"Psi umiru sami","year":"2019-02-28","translations":["Любительский (многоголосый закадровый) (Синема УС)"],"quality":"webdl","translation":"Любительский (многоголосый закадровый) (Синема УС)","update":"2021-05-27 18:50:54","iframe_src":"//2413.svetacdn.in/71tsRs29n5tZ/movie/50664"},{"id":50663,"title":"Однажды в Сад Хилл","kp_id":"1267270","imdb_id":"tt10360492","world_art_id":null,"type":"movie","add":"2021-05-25 15:37:58","orig_title":"Once Upon a Time in Sad Hill","year":"2019-09-27","translations":["Любительский (многоголосый закадровый) (Синема УС)"],"quality":"webdl","translation":"Любительский (многоголосый закадровый) (Синема УС)","update":"2021-05-27 18:41:20","iframe_src":"//2413.svetacdn.in/71tsRs29n5tZ/movie/50663"},{"id":50662,"title":"Если б я была зимой","kp_id":"1284840","imdb_id":"tt10582354","world_art_id":null,"type":"movie","add":"2021-05-25 15:34:10","orig_title":"Si yo fuera el invierno mismo","year":"2019-11-14","translations":["Любительский (многоголосый закадровый) (Синема УС)"],"quality":"webdl","translation":"Любительский (многоголосый закадровый) (Синема УС)","update":"2021-05-27 18:42:43","iframe_src":"//2413.svetacdn.in/71tsRs29n5tZ/movie/50662"},{"id":50660,"title":"Вне времени","kp_id":null,"imdb_id":"tt7682204","world_art_id":null,"type":"movie","add":"2021-05-25 15:22:54","orig_title":"Out of Time","year":"2019-01-01","translations":["Любительский (многоголосый закадровый) (AlphaProject)"],"quality":"webdl","translation":"Любительский (многоголосый закадровый) (AlphaProject)","update":"2021-05-27 18:05:22","iframe_src":"//2413.svetacdn.in/71tsRs29n5tZ/movie/50660"},{"id":50654,"title":"Марьям","kp_id":"1293061","imdb_id":"tt10818938","world_art_id":null,"type":"movie","add":"2021-05-25 14:44:20","orig_title":"Mariam","year":"2019-08-16","translations":["Любительский (многоголосый закадровый) (Синема УС)"],"quality":"webdl","translation":"Любительский (многоголосый закадровый) (Синема УС)","update":"2021-05-27 18:38:07","iframe_src":"//2413.svetacdn.in/71tsRs29n5tZ/movie/50654"},{"id":50652,"title":"Планета 5000","kp_id":"1156922","imdb_id":"tt7897710","world_art_id":null,"type":"movie","add":"2021-05-25 14:37:07","orig_title":"Planeta 5000","year":"2019-11-28","translations":["Любительский (многоголосый закадровый) (Синема УС)"],"quality":"webdl","translation":"Любительский (многоголосый закадровый) (Синема УС)","update":"2021-05-27 18:39:29","iframe_src":"//2413.svetacdn.in/71tsRs29n5tZ/movie/50652"},{"id":50651,"title":"Облик грядущего","kp_id":"34394","imdb_id":"tt0028358","world_art_id":null,"type":"movie","add":"2021-05-25 14:23:58","orig_title":"Things to Come","year":"1936-09-14","translations":["Профессиональный (двухголосый закадровый) (СВ-Дубль)"],"quality":"bd","translation":"Профессиональный (двухголосый закадровый) (СВ-Дубль)","update":"2021-05-27 18:11:16","iframe_src":"//2413.svetacdn.in/71tsRs29n5tZ/movie/50651"},{"id":47980,"title":"Тямбара стриптиз","kp_id":"576440","imdb_id":null,"world_art_id":null,"type":"movie","add":"2021-02-16 12:15:29","orig_title":"Oppai Chanbara","year":"2009-02-20","translations":["Любительский (одноголосый закадровый)"],"quality":"dvdrip","translation":"Любительский (одноголосый закадровый)","update":"2021-05-27 19:03:27","iframe_src":"//2413.svetacdn.in/71tsRs29n5tZ/movie/47980"},{"id":38991,"title":"Изумление","kp_id":"1029301","imdb_id":"tt6485666","world_art_id":null,"type":"movie","add":"2020-04-07 09:25:30","orig_title":"Mersal","year":"2017-10-17","translations":["Профессиональный (многоголосый закадровый) (SDI Media | Iyuno-SDI Group Russia)","Любительский (двухголосый закадровый) (Колобок)"],"quality":"webdl","translation":"Профессиональный (многоголосый закадровый) (SDI Media | Iyuno-SDI Group Russia)","update":"2021-05-28 06:09:20","iframe_src":"//2413.svetacdn.in/71tsRs29n5tZ/movie/38991"},{"id":35523,"title":"Инкассатор","kp_id":"80321","imdb_id":"tt0347330","world_art_id":null,"type":"movie","add":"2020-01-27 11:34:50","orig_title":"Le convoyeur","year":"2004-04-14","translations":["Профессиональный (многоголосый закадровый)","Профессиональный (многоголосый закадровый)"],"quality":"dvdrip","translation":"Профессиональный (многоголосый закадровый)","update":"2021-05-28 06:04:32","iframe_src":"//2413.svetacdn.in/71tsRs29n5tZ/movie/35523"},{"id":35133,"title":"Карандиру","kp_id":"32036","imdb_id":"tt0293007","world_art_id":null,"type":"movie","add":"2020-01-16 19:52:54","orig_title":"Carandiru","year":"2003-03-21","translations":["Профессиональный (многоголосый закадровый) (СТС)","Профессиональный (многоголосый закадровый) (СТС)","Авторский (одноголосый закадровый) (Кузнецов Сергей)"],"quality":"dvdrip","translation":"Профессиональный (многоголосый закадровый) (СТС)","update":"2021-05-28 06:15:25","iframe_src":"//2413.svetacdn.in/71tsRs29n5tZ/movie/35133"},{"id":34786,"title":"Крики","kp_id":"261064","imdb_id":"tt0843302","world_art_id":null,"type":"movie","add":"2020-01-06 14:42:30","orig_title":"Sakebi","year":"2006-09-03","translations":["Профессиональный (многоголосый закадровый)","Любительский (одноголосый закадровый) (liosaa)"],"quality":"webdl","translation":"Профессиональный (многоголосый закадровый)","update":"2021-05-28 06:08:28","iframe_src":"//2413.svetacdn.in/71tsRs29n5tZ/movie/34786"},{"id":22597,"title":"Наркобарон","kp_id":"1039129","imdb_id":"tt6914542","world_art_id":null,"type":"movie","add":"2019-02-27 22:25:26","orig_title":"Mayakwang","year":"2018-12-19","translations":["Любительский (одноголосый закадровый) (Береговых Виктор | Jet)","Любительский (двухголосый закадровый) (Колобок)"],"quality":"webdl","translation":"Любительский (одноголосый закадровый) (Береговых Виктор | Jet)","update":"2021-05-28 05:31:57","iframe_src":"//2413.svetacdn.in/71tsRs29n5tZ/movie/22597"},{"id":978,"title":"Мёртвые души","kp_id":"81096","imdb_id":"tt0168084","world_art_id":null,"type":"serial","add":"2017-02-06 06:39:37","orig_title":"Myortvye dushi","year":"1984-11-19","translations":["Оригинальная дорожка"],"seasons_count":1,"episodes_count":5,"episodes":5,"update":"2017-02-06 09:12:05","iframe_src":"//2413.svetacdn.in/71tsRs29n5tZ/tv-series/978"},{"id":977,"title":"Желанная","kp_id":"427038","imdb_id":"tt4883042","world_art_id":null,"type":"serial","add":"2017-02-06 05:36:47","orig_title":"Zhelannaya","year":"2003-01-01","translations":["Оригинальная дорожка"],"seasons_count":1,"episodes_count":12,"episodes":12,"update":"2017-02-06 10:17:30","iframe_src":"//2413.svetacdn.in/71tsRs29n5tZ/tv-series/977"},{"id":976,"title":"Моё любимое чудовище","kp_id":"734501","imdb_id":"tt2941212","world_art_id":null,"type":"serial","add":"2017-02-06 05:13:02","orig_title":"Moe lyubimoe chudovishche","year":"2013-02-09","translations":["Оригинальная дорожка"],"seasons_count":1,"episodes_count":2,"episodes":2,"update":"2017-02-06 08:48:12","iframe_src":"//2413.svetacdn.in/71tsRs29n5tZ/tv-series/976"},{"id":974,"title":"Одна тень на двоих","kp_id":"423038","imdb_id":"tt1236788","world_art_id":null,"type":"serial","add":"2017-02-05 08:19:26","orig_title":"Odna ten na dvoikh","year":"2005-01-31","translations":["Оригинальная дорожка"],"seasons_count":1,"episodes_count":8,"episodes":8,"update":"2017-02-06 05:05:45","iframe_src":"//2413.svetacdn.in/71tsRs29n5tZ/tv-series/974"},{"id":971,"title":"Сваты 5","kp_id":"592293","imdb_id":"tt2860316","world_art_id":null,"type":"serial","add":"2017-02-03 15:15:53","orig_title":"Svaty 5","year":"2011-12-05","translations":["Оригинальная дорожка"],"seasons_count":1,"episodes_count":16,"episodes":16,"update":"2017-02-06 11:58:58","iframe_src":"//2413.svetacdn.in/71tsRs29n5tZ/tv-series/971"},{"id":970,"title":"Сваты 4","kp_id":"542353","imdb_id":"tt1870201","world_art_id":null,"type":"serial","add":"2017-02-02 13:14:06","orig_title":"Svaty 4","year":"2010-11-15","translations":["Оригинальная дорожка"],"seasons_count":1,"episodes_count":16,"episodes":16,"update":"2017-02-03 15:14:01","iframe_src":"//2413.svetacdn.in/71tsRs29n5tZ/tv-series/970"},{"id":968,"title":"Пушкин","kp_id":"971163","imdb_id":null,"world_art_id":null,"type":"serial","add":"2017-02-02 06:49:35","orig_title":"Пушкин","year":"2016-05-10","translations":["Оригинальная дорожка"],"seasons_count":1,"episodes_count":12,"episodes":12,"update":"2017-02-03 06:54:23","iframe_src":"//2413.svetacdn.in/71tsRs29n5tZ/tv-series/968"},{"id":966,"title":"Сваты 3","kp_id":"474751","imdb_id":"tt1867358","world_art_id":null,"type":"serial","add":"2017-02-01 16:12:00","orig_title":"Svaty 3","year":"2009-11-10","translations":["Оригинальная дорожка"],"seasons_count":1,"episodes_count":12,"episodes":12,"update":"2017-02-02 14:03:06","iframe_src":"//2413.svetacdn.in/71tsRs29n5tZ/tv-series/966"},{"id":965,"title":"Сваты 2","kp_id":"474749","imdb_id":"tt1860046","world_art_id":null,"type":"serial","add":"2017-02-01 16:09:19","orig_title":"Svaty 2","year":"2009-11-10","translations":["Оригинальная дорожка"],"seasons_count":1,"episodes_count":2,"episodes":2,"update":"2017-02-02 13:45:48","iframe_src":"//2413.svetacdn.in/71tsRs29n5tZ/tv-series/965"},{"id":964,"title":"Сваты","kp_id":"424970","imdb_id":"tt1820225","world_art_id":null,"type":"serial","add":"2017-02-01 16:07:00","orig_title":"Svaty","year":"2008-12-28","translations":["Оригинальная дорожка"],"seasons_count":1,"episodes_count":2,"episodes":2,"update":"2017-02-02 13:38:13","iframe_src":"//2413.svetacdn.in/71tsRs29n5tZ/tv-series/964"},{"id":963,"title":"Редкая группа крови","kp_id":"775197","imdb_id":null,"world_art_id":null,"type":"serial","add":"2017-02-01 13:49:18","orig_title":"Редкая группа крови","year":"2013-07-25","translations":["Оригинальная дорожка"],"seasons_count":1,"episodes_count":8,"episodes":8,"update":"2017-02-02 06:28:00","iframe_src":"//2413.svetacdn.in/71tsRs29n5tZ/tv-series/963"},{"id":962,"title":"Halo: Сумерки","kp_id":"841252","imdb_id":"tt3804114","world_art_id":null,"type":"serial","add":"2017-02-01 13:40:21","orig_title":"Halo: Nightfall","year":"2014-11-11","translations":["Профессиональный (многоголосый закадровый) (AlexFilm)"],"seasons_count":1,"episodes_count":5,"episodes":5,"update":"2017-02-02 06:38:38","iframe_src":"//2413.svetacdn.in/71tsRs29n5tZ/tv-series/962"},{"id":961,"title":"Я буду ждать тебя всегда","kp_id":"880653","imdb_id":null,"world_art_id":null,"type":"serial","add":"2017-02-01 05:40:10","orig_title":"Я буду ждать тебя всегда","year":"2014-01-25","translations":["Оригинальная дорожка"],"seasons_count":1,"episodes_count":2,"episodes":2,"update":"2017-02-01 07:58:23","iframe_src":"//2413.svetacdn.in/71tsRs29n5tZ/tv-series/961"},{"id":960,"title":"Любовь под грифом «Совершенно секретно»","kp_id":"447115","imdb_id":null,"world_art_id":null,"type":"serial","add":"2017-01-31 13:51:15","orig_title":"Любовь под грифом «Совершенно секретно»","year":"2008-10-17","translations":["Оригинальная дорожка"],"seasons_count":1,"episodes_count":2,"episodes":2,"update":"2017-02-01 06:53:41","iframe_src":"//2413.svetacdn.in/71tsRs29n5tZ/tv-series/960"},{"id":957,"title":"Нанастоящая любовь","kp_id":"533113","imdb_id":"tt1772607","world_art_id":null,"type":"serial","add":"2017-01-31 06:02:05","orig_title":"Nanolyubov","year":"2010-10-25","translations":["Оригинальная дорожка"],"seasons_count":1,"episodes_count":40,"episodes":40,"update":"2017-02-01 09:20:03","iframe_src":"//2413.svetacdn.in/71tsRs29n5tZ/tv-series/957"},{"id":956,"title":"Дядя Бак","kp_id":"889193","imdb_id":"tt4424758","world_art_id":null,"type":"serial","add":"2017-01-31 05:24:00","orig_title":"Uncle Buck","year":"2016-06-14","translations":["Профессиональный (многоголосый закадровый) (BaibaKo)"],"seasons_count":1,"episodes_count":8,"episodes":8,"update":"2017-02-01 06:49:38","iframe_src":"//2413.svetacdn.in/71tsRs29n5tZ/tv-series/956"},{"id":895,"title":"Майк и Молли","kp_id":"504439","imdb_id":"tt1608180","world_art_id":null,"type":"serial","add":"2017-01-18 04:39:12","orig_title":"Mike & Molly","year":"2010-09-20","translations":["Профессиональный (одноголосый закадровый) (Кураж-Бамбей)"],"seasons_count":6,"episodes_count":127,"episodes":13,"update":"2017-02-01 07:46:55","iframe_src":"//2413.svetacdn.in/71tsRs29n5tZ/tv-series/895"},{"id":725,"title":"Настоящий гений","kp_id":"968185","imdb_id":"tt5500906","world_art_id":null,"type":"serial","add":"2016-12-22 19:52:00","orig_title":"Pure Genius","year":"2016-10-27","translations":["Профессиональный (многоголосый закадровый) (IdeaFilm)"],"seasons_count":1,"episodes_count":13,"episodes":13,"update":"2017-02-01 05:48:24","iframe_src":"//2413.svetacdn.in/71tsRs29n5tZ/tv-series/725"},{"id":635,"title":"Ложное обвинение","kp_id":"979247","imdb_id":"tt5396572","world_art_id":null,"type":"serial","add":"2016-11-27 11:24:56","orig_title":"Conviction","year":"2016-10-03","translations":["Профессиональный (многоголосый закадровый) (NewStudio)"],"seasons_count":1,"episodes_count":13,"episodes":13,"update":"2017-02-03 07:27:00","iframe_src":"//2413.svetacdn.in/71tsRs29n5tZ/tv-series/635"},{"id":596,"title":"Корпорация","kp_id":"900004","imdb_id":"tt4118466","world_art_id":null,"type":"serial","add":"2016-11-17 16:09:38","orig_title":"Incorporated","year":"2016-11-30","translations":["Профессиональный (многоголосый закадровый) (ColdFilm)","Профессиональный (многоголосый закадровый) (LostFilm)"],"seasons_count":1,"episodes_count":10,"episodes":10,"update":"2017-02-01 12:06:20","iframe_src":"//2413.svetacdn.in/71tsRs29n5tZ/tv-series/596"},{"id":6215,"title":"Повесть о любви и тьме","kp_id":"790284","imdb_id":"tt1135989","world_art_id":null,"type":"movie","add":"2016-10-12 10:15:26","orig_title":"A Tale of Love and Darkness","year":"2015-05-16","translations":["Профессиональный (многоголосый закадровый)","Профессиональный (многоголосый закадровый) (Pazl Voice)","Любительский (одноголосый закадровый) (PiterVV)","Любительский (многоголосый закадровый) (GreenРай Studio)","Профессиональный (одноголосый закадровый) (Баритон)"],"quality":"bd","translation":"Профессиональный (многоголосый закадровый)","update":"2021-05-28 06:00:34","iframe_src":"//2413.svetacdn.in/71tsRs29n5tZ/movie/6215"},{"id":5064,"title":"Ямакаси: Свобода в движении","kp_id":"14346","imdb_id":"tt0267129","world_art_id":null,"type":"movie","add":"2016-09-06 09:01:24","orig_title":"Yamakasi - Les samouraïs des temps modernes","year":"2001-04-04","translations":["Полное дублирование","Профессиональный (двухголосый закадровый) (РенТВ)"],"quality":"webdl","translation":"Полное дублирование","update":"2021-05-28 06:03:05","iframe_src":"//2413.svetacdn.in/71tsRs29n5tZ/movie/5064"}],"current_page":591,"first_page_url":"https://videocdn.tv/api/short?limit=100&api_token=EnbO9h8pv1VyjbCJhg0WM9nG259n7mtz&cache3591=3591&page=1","from":59001,"last_page":717,"last_page_url":"https://videocdn.tv/api/short?limit=100&api_token=EnbO9h8pv1VyjbCJhg0WM9nG259n7mtz&cache3591=3591&page=717","next_page_url":"https://videocdn.tv/api/short?limit=100&api_token=EnbO9h8pv1VyjbCJhg0WM9nG259n7mtz&cache3591=3591&page=592","path":"https://videocdn.tv/api/short","per_page":100,"prev_page_url":"https://videocdn.tv/api/short?limit=100&api_token=EnbO9h8pv1VyjbCJhg0WM9nG259n7mtz&cache3591=3591&page=590","to":59040,"total":71614}