{"result":true,"data":[{"id":30347,"title":"Чёрная женщина","kp_id":"1008562","imdb_id":"tt5868058","world_art_id":null,"type":"movie","add":"2019-08-27 22:26:55","orig_title":"Svarta Madam","year":"2017-02-28","translations":["Любительский (многоголосый закадровый) (Синема УС)"],"quality":"webdl","translation":"Любительский (многоголосый закадровый) (Синема УС)","update":"2019-08-28 04:52:42","iframe_src":"//8543.svetacdn.in/si4jsFRrtgrT/movie/30347"},{"id":30346,"title":"Замки Любви","kp_id":"1008993","imdb_id":"tt6382412","world_art_id":null,"type":"movie","add":"2019-08-27 22:24:23","orig_title":"Love Locks","year":"2017-01-28","translations":["Любительский (многоголосый закадровый) (Синема УС)"],"quality":"webdl","translation":"Любительский (многоголосый закадровый) (Синема УС)","update":"2019-08-28 04:53:20","iframe_src":"//8543.svetacdn.in/si4jsFRrtgrT/movie/30346"},{"id":30345,"title":"Потерянный","kp_id":"1098163","imdb_id":"tt6874878","world_art_id":null,"type":"movie","add":"2019-08-27 22:22:15","orig_title":"Lost","year":"2018-01-01","translations":["Любительский (многоголосый закадровый) (Синема УС)"],"quality":"webdl","translation":"Любительский (многоголосый закадровый) (Синема УС)","update":"2019-08-28 04:54:12","iframe_src":"//8543.svetacdn.in/si4jsFRrtgrT/movie/30345"},{"id":30344,"title":"Юрген - жизнь продолжается","kp_id":"1048923","imdb_id":"tt6887148","world_art_id":null,"type":"movie","add":"2019-08-27 22:20:32","orig_title":"Jürgen - Heute wird gelebt","year":"2017-06-24","translations":["Любительский (многоголосый закадровый) (Синема УС)"],"quality":"bd","translation":"Любительский (многоголосый закадровый) (Синема УС)","update":"2019-08-28 04:55:00","iframe_src":"//8543.svetacdn.in/si4jsFRrtgrT/movie/30344"},{"id":30343,"title":"Ведьма Лилли спасает Рождество","kp_id":"1021779","imdb_id":"tt6299366","world_art_id":null,"type":"movie","add":"2019-08-27 22:18:37","orig_title":"Hexe Lillis eingesacktes Weihnachtsfest","year":"2017-11-09","translations":["Любительский (многоголосый закадровый) (Синема УС)"],"quality":"bd","translation":"Любительский (многоголосый закадровый) (Синема УС)","update":"2019-08-28 04:29:41","iframe_src":"//8543.svetacdn.in/si4jsFRrtgrT/movie/30343"},{"id":30342,"title":"Евгения","kp_id":null,"imdb_id":"tt7607502","world_art_id":null,"type":"movie","add":"2019-08-27 22:16:40","orig_title":"Eugenia","year":"2018-04-19","translations":["Любительский (многоголосый закадровый) (Синема УС)"],"quality":"webdl","translation":"Любительский (многоголосый закадровый) (Синема УС)","update":"2019-08-28 04:30:50","iframe_src":"//8543.svetacdn.in/si4jsFRrtgrT/movie/30342"},{"id":30341,"title":"Кладбище кукол","kp_id":"1134135","imdb_id":"tt7446692","world_art_id":null,"type":"movie","add":"2019-08-27 22:09:43","orig_title":"Doll Cemetery","year":"2019-08-23","translations":["Любительский (многоголосый закадровый) (Синема УС)"],"quality":"webdl","translation":"Любительский (многоголосый закадровый) (Синема УС)","update":"2019-08-28 04:27:36","iframe_src":"//8543.svetacdn.in/si4jsFRrtgrT/movie/30341"},{"id":30340,"title":"Замок Шрекенштайн 2: Поцелуи разрешены","kp_id":"1085829","imdb_id":"tt6887178","world_art_id":null,"type":"movie","add":"2019-08-27 22:08:12","orig_title":"Burg Schreckenstein II - Küssen (nicht) verboten","year":"2017-12-07","translations":["Любительский (многоголосый закадровый) (Синема УС)"],"quality":"bd","translation":"Любительский (многоголосый закадровый) (Синема УС)","update":"2019-08-28 04:57:05","iframe_src":"//8543.svetacdn.in/si4jsFRrtgrT/movie/30340"},{"id":30337,"title":"Летний роман","kp_id":"1262175","imdb_id":"tt10224134","world_art_id":null,"type":"movie","add":"2019-08-27 22:00:05","orig_title":"A Summer Romance","year":"2019-08-17","translations":["Профессиональный (многоголосый закадровый) (AlphaProject)"],"quality":"hdtv","translation":"Профессиональный (многоголосый закадровый) (AlphaProject)","update":"2019-08-28 04:47:43","iframe_src":"//8543.svetacdn.in/si4jsFRrtgrT/movie/30337"},{"id":30331,"title":"Кто спасет розы?","kp_id":"973086","imdb_id":"tt5599140","world_art_id":null,"type":"movie","add":"2019-08-27 19:06:16","orig_title":"Chi salverà le rose?","year":"2017-03-16","translations":["Любительский (многоголосый закадровый) (Синема УС)"],"quality":"webdl","translation":"Любительский (многоголосый закадровый) (Синема УС)","update":"2019-08-28 04:58:29","iframe_src":"//8543.svetacdn.in/si4jsFRrtgrT/movie/30331"},{"id":30329,"title":"Большая Медведица","kp_id":null,"imdb_id":"tt10227394","world_art_id":null,"type":"movie","add":"2019-08-27 19:01:47","orig_title":"The Big Dipper","year":"2019-01-01","translations":["Любительский (многоголосый закадровый) (Колобок)"],"quality":"webdl","translation":"Любительский (многоголосый закадровый) (Колобок)","update":"2019-08-28 04:49:49","iframe_src":"//8543.svetacdn.in/si4jsFRrtgrT/movie/30329"},{"id":30328,"title":"Принимающий новичков","kp_id":null,"imdb_id":"tt6156260","world_art_id":null,"type":"movie","add":"2019-08-27 18:59:14","orig_title":"The Rush Chairman","year":"2017-05-31","translations":["Любительский (многоголосый закадровый) (Синема УС)"],"quality":"webdl","translation":"Любительский (многоголосый закадровый) (Синема УС)","update":"2019-08-28 05:39:56","iframe_src":"//8543.svetacdn.in/si4jsFRrtgrT/movie/30328"},{"id":30327,"title":"Сладкие вдохновения","kp_id":"1180256","imdb_id":"tt8839352","world_art_id":null,"type":"movie","add":"2019-08-27 18:56:00","orig_title":"Sweet Inspirations","year":"2019-02-01","translations":["Любительский (многоголосый закадровый) (Синема УС)"],"quality":"webdl","translation":"Любительский (многоголосый закадровый) (Синема УС)","update":"2019-08-28 04:50:38","iframe_src":"//8543.svetacdn.in/si4jsFRrtgrT/movie/30327"},{"id":30320,"title":"Фунань: Новые люди","kp_id":"1118224","imdb_id":"tt6342440","world_art_id":null,"type":"movie","add":"2019-08-27 18:31:34","orig_title":"Funan","year":"2018-06-11","translations":["Любительский (многоголосый закадровый) (Синема УС)"],"quality":"webdl","translation":"Любительский (многоголосый закадровый) (Синема УС)","update":"2019-08-28 05:37:48","iframe_src":"//8543.svetacdn.in/si4jsFRrtgrT/movie/30320"},{"id":30311,"title":"Жениться любой ценой","kp_id":"1275517","imdb_id":"tt10409774","world_art_id":null,"type":"movie","add":"2019-08-27 09:34:01","orig_title":"Fastey Fasaatey","year":"2019-06-21","translations":["Любительский (многоголосый закадровый) (Синема УС)"],"quality":"webdl","translation":"Любительский (многоголосый закадровый) (Синема УС)","update":"2019-08-28 05:13:10","iframe_src":"//8543.svetacdn.in/si4jsFRrtgrT/movie/30311"},{"id":30310,"title":"Дилили в Париже","kp_id":"1067025","imdb_id":"tt7169514","world_art_id":null,"type":"movie","add":"2019-08-27 09:32:51","orig_title":"Dilili à Paris","year":"2018-06-11","translations":["Любительский (многоголосый закадровый) (Синема УС)"],"quality":"bd","translation":"Любительский (многоголосый закадровый) (Синема УС)","update":"2019-08-28 05:35:48","iframe_src":"//8543.svetacdn.in/si4jsFRrtgrT/movie/30310"},{"id":30307,"title":"Еще один день жизни","kp_id":"1043950","imdb_id":"tt2967856","world_art_id":null,"type":"movie","add":"2019-08-27 09:19:50","orig_title":"Another Day of Life","year":"2019-05-11","translations":["Любительский (многоголосый закадровый) (Синема УС)"],"quality":"webdl","translation":"Любительский (многоголосый закадровый) (Синема УС)","update":"2019-08-28 05:19:13","iframe_src":"//8543.svetacdn.in/si4jsFRrtgrT/movie/30307"},{"id":30295,"title":"Семейное положение: Все сложно","kp_id":"1020246","imdb_id":"tt6099462","world_art_id":null,"type":"movie","add":"2019-08-26 10:38:36","orig_title":"Status Pending","year":"2018-09-02","translations":["Любительский (многоголосый закадровый) (Синема УС)"],"quality":"webdl","translation":"Любительский (многоголосый закадровый) (Синема УС)","update":"2019-08-28 05:38:57","iframe_src":"//8543.svetacdn.in/si4jsFRrtgrT/movie/30295"},{"id":29481,"title":"Принцесса Эмми","kp_id":"1075473","imdb_id":"tt7105440","world_art_id":null,"type":"movie","add":"2019-07-29 05:08:05","orig_title":"Princess Emmy","year":"2019-01-24","translations":["Полное дублирование"],"quality":"webdl","translation":"Полное дублирование","update":"2019-08-28 04:59:59","iframe_src":"//8543.svetacdn.in/si4jsFRrtgrT/movie/29481"},{"id":19967,"title":"Морской пехотинец 6: Ближний бой","kp_id":"1108651","imdb_id":"tt7668724","world_art_id":null,"type":"movie","add":"2018-11-04 20:13:36","orig_title":"The Marine 6: Close Quarters","year":"2018-11-13","translations":["Профессиональный (многоголосый закадровый)","Профессиональный (многоголосый закадровый) (iTunes)"],"quality":"bd","translation":"Профессиональный (многоголосый закадровый)","update":"2019-08-28 05:36:49","iframe_src":"//8543.svetacdn.in/si4jsFRrtgrT/movie/19967"}],"current_page":1059,"first_page_url":"https://videocdn.tv/api/short?limit=100&api_token=X6EwAUfE5M9xbo7y0Bp0aPf3uXxG2KLL&cache31059=31059&page=1","from":105801,"last_page":598,"last_page_url":"https://videocdn.tv/api/short?limit=100&api_token=X6EwAUfE5M9xbo7y0Bp0aPf3uXxG2KLL&cache31059=31059&page=598","next_page_url":null,"path":"https://videocdn.tv/api/short","per_page":100,"prev_page_url":"https://videocdn.tv/api/short?limit=100&api_token=X6EwAUfE5M9xbo7y0Bp0aPf3uXxG2KLL&cache31059=31059&page=1058","to":105820,"total":59725}