{"result":true,"data":[{"id":32007,"title":"Город глазами кота","kp_id":"1224733","imdb_id":"tt8214666","world_art_id":null,"type":"movie","add":"2019-10-17 21:13:31","orig_title":"Wild Amsterdam","year":"2018-01-01","translations":["Полное дублирование"],"quality":"webdl","translation":"Полное дублирование","update":"2019-10-18 05:31:41","iframe_src":"//7720.svetacdn.in/si4jsFRrtgrT/movie/32007"},{"id":32006,"title":"Прошлое","kp_id":"1151768","imdb_id":"tt8011712","world_art_id":null,"type":"movie","add":"2019-10-17 21:11:55","orig_title":"The Past","year":"2018-05-11","translations":["Любительский (многоголосый закадровый) (Синема УС)"],"quality":"webdl","translation":"Любительский (многоголосый закадровый) (Синема УС)","update":"2019-10-18 05:32:49","iframe_src":"//7720.svetacdn.in/si4jsFRrtgrT/movie/32006"},{"id":32005,"title":"Гидра","kp_id":null,"imdb_id":"tt8503162","world_art_id":null,"type":"movie","add":"2019-10-17 21:10:12","orig_title":"The Hydra","year":"2019-05-07","translations":["Любительский (многоголосый закадровый) (Синема УС)"],"quality":"webdl","translation":"Любительский (многоголосый закадровый) (Синема УС)","update":"2019-10-18 05:23:13","iframe_src":"//7720.svetacdn.in/si4jsFRrtgrT/movie/32005"},{"id":32003,"title":"Обрывки","kp_id":null,"imdb_id":"tt6039606","world_art_id":null,"type":"movie","add":"2019-10-17 21:06:07","orig_title":"Scraps","year":"2019-02-13","translations":["Любительский (многоголосый закадровый) (Синема УС)"],"quality":"webdl","translation":"Любительский (многоголосый закадровый) (Синема УС)","update":"2019-10-18 05:25:23","iframe_src":"//7720.svetacdn.in/si4jsFRrtgrT/movie/32003"},{"id":32002,"title":"Беги","kp_id":null,"imdb_id":"tt4460430","world_art_id":null,"type":"movie","add":"2019-10-17 21:04:32","orig_title":"Run","year":"2017-03-19","translations":["Любительский (многоголосый закадровый) (Синема УС)"],"quality":"webdl","translation":"Любительский (многоголосый закадровый) (Синема УС)","update":"2019-10-18 05:34:25","iframe_src":"//7720.svetacdn.in/si4jsFRrtgrT/movie/32002"},{"id":32001,"title":"Не один","kp_id":"995473","imdb_id":"tt5781440","world_art_id":null,"type":"movie","add":"2019-10-17 21:02:28","orig_title":"Not Alone","year":"2019-02-21","translations":["Любительский (многоголосый закадровый) (Синема УС)"],"quality":"webdl","translation":"Любительский (многоголосый закадровый) (Синема УС)","update":"2019-10-18 05:26:39","iframe_src":"//7720.svetacdn.in/si4jsFRrtgrT/movie/32001"},{"id":32000,"title":"Базз","kp_id":"1309160","imdb_id":"tt10720210","world_art_id":null,"type":"movie","add":"2019-10-17 20:58:12","orig_title":"Buzz","year":"2019-09-20","translations":["Профессиональный (многоголосый закадровый)"],"quality":"webdl","translation":"Профессиональный (многоголосый закадровый)","update":"2019-10-18 05:29:26","iframe_src":"//7720.svetacdn.in/si4jsFRrtgrT/movie/32000"},{"id":31994,"title":"0,0 МГц","kp_id":"1171952","imdb_id":"tt10341248","world_art_id":null,"type":"movie","add":"2019-10-17 11:40:05","orig_title":"0.0MHz","year":"2019-05-29","translations":["Любительский (многоголосый закадровый) (Колобок)"],"quality":"webdl","translation":"Любительский (многоголосый закадровый) (Колобок)","update":"2019-10-18 05:36:53","iframe_src":"//7720.svetacdn.in/si4jsFRrtgrT/movie/31994"},{"id":31993,"title":"Охота по-американски","kp_id":"1187560","imdb_id":"tt8918392","world_art_id":null,"type":"movie","add":"2019-10-17 11:35:16","orig_title":"American Hunt","year":"2019-12-10","translations":["Любительский (многоголосый закадровый) (Синема УС)"],"quality":"webdl","translation":"Любительский (многоголосый закадровый) (Синема УС)","update":"2019-10-18 05:35:01","iframe_src":"//7720.svetacdn.in/si4jsFRrtgrT/movie/31993"},{"id":31992,"title":"Апокалипсис 2077","kp_id":"1167304","imdb_id":"tt8484370","world_art_id":null,"type":"movie","add":"2019-10-17 11:25:58","orig_title":"Apocalyptic 2077","year":"2019-04-28","translations":["Любительский (многоголосый закадровый) (Синема УС)"],"quality":"webdl","translation":"Любительский (многоголосый закадровый) (Синема УС)","update":"2019-10-18 05:34:26","iframe_src":"//7720.svetacdn.in/si4jsFRrtgrT/movie/31992"},{"id":31989,"title":"Лес любви","kp_id":"1303164","imdb_id":"tt10589914","world_art_id":null,"type":"movie","add":"2019-10-17 11:09:38","orig_title":"Ai-naki Mori de Sakebe","year":"2019-10-11","translations":["Любительский (многоголосый закадровый) (Синема УС)"],"quality":"webdl","translation":"Любительский (многоголосый закадровый) (Синема УС)","update":"2019-10-18 05:28:00","iframe_src":"//7720.svetacdn.in/si4jsFRrtgrT/movie/31989"},{"id":31987,"title":"Замкнутый круг","kp_id":"95451","imdb_id":"tt0116019","world_art_id":null,"type":"movie","add":"2019-10-17 06:22:08","orig_title":"Full Circle","year":"1996-09-09","translations":["Профессиональный (многоголосый закадровый)"],"quality":"dvdrip","translation":"Профессиональный (многоголосый закадровый)","update":"2019-10-18 05:37:54","iframe_src":"//7720.svetacdn.in/si4jsFRrtgrT/movie/31987"},{"id":31986,"title":"Сглазили","kp_id":"764601","imdb_id":"tt2934844","world_art_id":null,"type":"movie","add":"2019-10-17 06:14:36","orig_title":"Jinxed","year":"2013-11-29","translations":["Полное дублирование (SDI Media)"],"quality":"webdl","translation":"Полное дублирование (SDI Media)","update":"2019-10-18 05:36:46","iframe_src":"//7720.svetacdn.in/si4jsFRrtgrT/movie/31986"},{"id":31976,"title":"Готический урожай","kp_id":"1102061","imdb_id":"tt7657364","world_art_id":null,"type":"movie","add":"2019-10-16 20:01:47","orig_title":"Gothic Harvest","year":"2018-08-01","translations":["Любительский (многоголосый закадровый) (Синема УС)"],"quality":"webdl","translation":"Любительский (многоголосый закадровый) (Синема УС)","update":"2019-10-17 11:42:50","iframe_src":"//7720.svetacdn.in/si4jsFRrtgrT/movie/31976"},{"id":31965,"title":"Венеция зимой","kp_id":"367034","imdb_id":"tt0121850","world_art_id":null,"type":"movie","add":"2019-10-16 17:37:12","orig_title":"Venise en hiver","year":"1982-10-20","translations":["Профессиональный (многоголосый закадровый)"],"quality":"tv","translation":"Профессиональный (многоголосый закадровый)","update":"2019-10-18 05:52:51","iframe_src":"//7720.svetacdn.in/si4jsFRrtgrT/movie/31965"},{"id":31962,"title":"Лампедуза зимой","kp_id":"934173","imdb_id":"tt4952502","world_art_id":null,"type":"movie","add":"2019-10-16 17:25:25","orig_title":"Lampedusa im Winter","year":"2015-08-12","translations":["Профессиональный (многоголосый закадровый)"],"quality":"webdl","translation":"Профессиональный (многоголосый закадровый)","update":"2019-10-18 05:35:33","iframe_src":"//7720.svetacdn.in/si4jsFRrtgrT/movie/31962"},{"id":31961,"title":"Человек из Колорадо","kp_id":"11205","imdb_id":"tt0041625","world_art_id":null,"type":"movie","add":"2019-10-16 10:24:37","orig_title":"The Man from Colorado","year":"1948-08-07","translations":["Профессиональный (многоголосый закадровый)"],"quality":"webdl","translation":"Профессиональный (многоголосый закадровый)","update":"2019-10-17 12:47:29","iframe_src":"//7720.svetacdn.in/si4jsFRrtgrT/movie/31961"},{"id":31946,"title":"Сестра Сатаны","kp_id":"152141","imdb_id":"tt0061005","world_art_id":null,"type":"movie","add":"2019-10-15 20:49:58","orig_title":"The She Beast","year":"1966-05-02","translations":["Любительский (одноголосый закадровый)"],"quality":"bd","translation":"Любительский (одноголосый закадровый)","update":"2019-10-18 05:58:50","iframe_src":"//7720.svetacdn.in/si4jsFRrtgrT/movie/31946"},{"id":30704,"title":"Одесса","kp_id":"1176435","imdb_id":"tt10140922","world_art_id":null,"type":"movie","add":"2019-09-09 19:54:12","orig_title":"Odessa","year":"2019-09-06","translations":["Оригинальная дорожка"],"quality":"webdl","translation":"Оригинальная дорожка","update":"2019-10-18 05:35:47","iframe_src":"//7720.svetacdn.in/si4jsFRrtgrT/movie/30704"},{"id":6089,"title":"Мертвый омут","kp_id":"17640","imdb_id":"tt0097162","world_art_id":null,"type":"movie","add":"2016-10-11 05:55:11","orig_title":"Dead Calm","year":"1989-04-07","translations":["Полное дублирование","Профессиональный (многоголосый закадровый)"],"quality":"bd","translation":"Полное дублирование","update":"2019-10-18 05:39:47","iframe_src":"//7720.svetacdn.in/si4jsFRrtgrT/movie/6089"}],"current_page":1232,"first_page_url":"https://videocdn.tv/api/short?limit=100&api_token=X6EwAUfE5M9xbo7y0Bp0aPf3uXxG2KLL&cache31232=31232&page=1","from":123101,"last_page":651,"last_page_url":"https://videocdn.tv/api/short?limit=100&api_token=X6EwAUfE5M9xbo7y0Bp0aPf3uXxG2KLL&cache31232=31232&page=651","next_page_url":null,"path":"https://videocdn.tv/api/short","per_page":100,"prev_page_url":"https://videocdn.tv/api/short?limit=100&api_token=X6EwAUfE5M9xbo7y0Bp0aPf3uXxG2KLL&cache31232=31232&page=1231","to":123120,"total":65096}