{"result":true,"data":[{"id":30466,"title":"Обратно в Берлин","kp_id":null,"imdb_id":"tt5078220","world_art_id":null,"type":"movie","add":"2019-09-01 20:44:47","orig_title":"Back to Berlin","year":"2018-11-23","translations":["Любительский (многоголосый закадровый) (Синема УС)"],"quality":"webdl","translation":"Любительский (многоголосый закадровый) (Синема УС)","update":"2019-09-02 08:07:22","iframe_src":"//5322.svetacdn.in/71tsRs29n5tZ/movie/30466"},{"id":30463,"title":"Трэвис Скотт: Смотри, мама, я могу летать","kp_id":null,"imdb_id":"tt10856726","world_art_id":null,"type":"movie","add":"2019-09-01 20:33:59","orig_title":"Travis Scott: Look Mom I Can Fly","year":"2019-08-28","translations":["Любительский (многоголосый закадровый) (Синема УС)"],"quality":"webdl","translation":"Любительский (многоголосый закадровый) (Синема УС)","update":"2019-09-02 08:08:47","iframe_src":"//5322.svetacdn.in/71tsRs29n5tZ/movie/30463"},{"id":30462,"title":"Ангел из Освенцина","kp_id":"1180227","imdb_id":"tt8774388","world_art_id":null,"type":"movie","add":"2019-09-01 20:26:09","orig_title":"The Angel of Auschwitz","year":"2019-07-01","translations":["Любительский (многоголосый закадровый) (Синема УС)"],"quality":"dvdrip","translation":"Любительский (многоголосый закадровый) (Синема УС)","update":"2019-09-02 11:26:18","iframe_src":"//5322.svetacdn.in/71tsRs29n5tZ/movie/30462"},{"id":30461,"title":"Табернакль 101","kp_id":"953383","imdb_id":"tt5265980","world_art_id":null,"type":"movie","add":"2019-09-01 20:25:00","orig_title":"Tabernacle 101","year":"2019-08-30","translations":["Любительский (многоголосый закадровый) (Синема УС)"],"quality":"webdl","translation":"Любительский (многоголосый закадровый) (Синема УС)","update":"2019-09-02 08:09:58","iframe_src":"//5322.svetacdn.in/71tsRs29n5tZ/movie/30461"},{"id":30459,"title":"Классовая борьба","kp_id":"1139168","imdb_id":"tt8171974","world_art_id":null,"type":"movie","add":"2019-09-01 20:22:29","orig_title":"La lutte des classes","year":"2019-03-17","translations":["Любительский (многоголосый закадровый) (Синема УС)"],"quality":"webdl","translation":"Любительский (многоголосый закадровый) (Синема УС)","update":"2019-09-02 11:27:21","iframe_src":"//5322.svetacdn.in/71tsRs29n5tZ/movie/30459"},{"id":30458,"title":"Фанатка","kp_id":"1200403","imdb_id":"tt9088954","world_art_id":null,"type":"movie","add":"2019-09-01 20:20:54","orig_title":"Fanatic","year":"2019-02-19","translations":["Любительский (многоголосый закадровый) (Синема УС)"],"quality":"webdl","translation":"Любительский (многоголосый закадровый) (Синема УС)","update":"2019-09-02 11:32:50","iframe_src":"//5322.svetacdn.in/71tsRs29n5tZ/movie/30458"},{"id":30457,"title":"Мальчик должен быть на свежем воздухе","kp_id":"979427","imdb_id":"tt5581284","world_art_id":null,"type":"movie","add":"2019-09-01 20:19:30","orig_title":"Der Junge muss an die frische Luft","year":"2018-12-18","translations":["Профессиональный (многоголосый закадровый) (AlphaProject)"],"quality":"bd","translation":"Профессиональный (многоголосый закадровый) (AlphaProject)","update":"2019-09-02 07:55:51","iframe_src":"//5322.svetacdn.in/71tsRs29n5tZ/movie/30457"},{"id":30452,"title":"Автомобиль-беглец","kp_id":"94886","imdb_id":"tt0120041","world_art_id":null,"type":"movie","add":"2019-09-01 19:30:24","orig_title":"Runaway Car","year":"1997-01-21","translations":["Профессиональный (многоголосый закадровый) (Екатеринбург Арт)"],"quality":"dvdrip","translation":"Профессиональный (многоголосый закадровый) (Екатеринбург Арт)","update":"2019-09-02 11:33:55","iframe_src":"//5322.svetacdn.in/71tsRs29n5tZ/movie/30452"},{"id":30451,"title":"Голубые джинсы","kp_id":"243713","imdb_id":"tt0072714","world_art_id":null,"type":"movie","add":"2019-09-01 19:15:07","orig_title":"Blue Jeans","year":"1975-01-12","translations":["Авторский (одноголосый закадровый) (Штейн Владимир)"],"quality":"dvdrip","translation":"Авторский (одноголосый закадровый) (Штейн Владимир)","update":"2019-09-02 11:34:27","iframe_src":"//5322.svetacdn.in/71tsRs29n5tZ/movie/30451"},{"id":30444,"title":"Хроники тайн: Глубокий омут","kp_id":"1291962","imdb_id":"tt10790884","world_art_id":null,"type":"movie","add":"2019-08-31 23:55:38","orig_title":"Chronicle Mysteries: The Deep End","year":"2019-08-25","translations":["Профессиональный (многоголосый закадровый)"],"quality":"hdtv","translation":"Профессиональный (многоголосый закадровый)","update":"2019-09-02 11:28:14","iframe_src":"//5322.svetacdn.in/71tsRs29n5tZ/movie/30444"},{"id":30443,"title":"Снова в школу","kp_id":null,"imdb_id":"tt10715194","world_art_id":null,"type":"movie","add":"2019-08-31 23:54:14","orig_title":"La Grande Classe","year":"2019-08-30","translations":["Любительский (многоголосый закадровый) (Синема УС)"],"quality":"webdl","translation":"Любительский (многоголосый закадровый) (Синема УС)","update":"2019-09-02 11:29:16","iframe_src":"//5322.svetacdn.in/71tsRs29n5tZ/movie/30443"},{"id":30440,"title":"Ты – моё сомнение","kp_id":"1161055","imdb_id":"tt7374948","world_art_id":null,"type":"movie","add":"2019-08-31 23:49:40","orig_title":"Always Be My Maybe","year":"2019-05-29","translations":["Полное дублирование (Невафильм | Нева-1)"],"quality":"webdl","translation":"Полное дублирование (Невафильм | Нева-1)","update":"2019-09-02 11:30:19","iframe_src":"//5322.svetacdn.in/71tsRs29n5tZ/movie/30440"},{"id":30433,"title":"Особая зона","kp_id":null,"imdb_id":"tt10902226","world_art_id":null,"type":"movie","add":"2019-08-31 23:33:16","orig_title":"Special Zone","year":"2019-04-02","translations":["Любительский (многоголосый закадровый) (Колобок)"],"quality":"webdl","translation":"Любительский (многоголосый закадровый) (Колобок)","update":"2019-09-02 11:38:56","iframe_src":"//5322.svetacdn.in/71tsRs29n5tZ/movie/30433"},{"id":30401,"title":"Бомба, история любви","kp_id":"1150837","imdb_id":"tt7915554","world_art_id":null,"type":"movie","add":"2019-08-30 13:22:01","orig_title":"Bomb, yek asheghaneh","year":"2018-02-03","translations":["Любительский (многоголосый закадровый) (Синема УС)"],"quality":"webdl","translation":"Любительский (многоголосый закадровый) (Синема УС)","update":"2019-08-30 15:06:22","iframe_src":"//5322.svetacdn.in/71tsRs29n5tZ/movie/30401"},{"id":30398,"title":"Джесси","kp_id":"1246421","imdb_id":"tt9903716","world_art_id":null,"type":"movie","add":"2019-08-30 13:01:26","orig_title":"Jessie","year":"2019-03-15","translations":["Любительский (многоголосый закадровый) (Синема УС)"],"quality":"webdl","translation":"Любительский (многоголосый закадровый) (Синема УС)","update":"2019-08-30 15:51:41","iframe_src":"//5322.svetacdn.in/71tsRs29n5tZ/movie/30398"},{"id":30396,"title":"Привет, я тебя люблю","kp_id":"855162","imdb_id":"tt3714492","world_art_id":null,"type":"movie","add":"2019-08-30 12:53:32","orig_title":"Hello I Love You","year":"2018-03-03","translations":["Профессиональный (многоголосый закадровый) (AlphaProject)"],"quality":"webdl","translation":"Профессиональный (многоголосый закадровый) (AlphaProject)","update":"2019-08-30 15:15:39","iframe_src":"//5322.svetacdn.in/71tsRs29n5tZ/movie/30396"},{"id":30395,"title":"Рауль Табюрен","kp_id":"1146556","imdb_id":"tt7831674","world_art_id":null,"type":"movie","add":"2019-08-30 12:50:04","orig_title":"Raoul Taburin","year":"2018-10-03","translations":["Любительский (многоголосый закадровый) (Синема УС)"],"quality":"webdl","translation":"Любительский (многоголосый закадровый) (Синема УС)","update":"2019-08-30 15:04:56","iframe_src":"//5322.svetacdn.in/71tsRs29n5tZ/movie/30395"},{"id":22717,"title":"На берегу мечты","kp_id":"1184900","imdb_id":null,"world_art_id":null,"type":"movie","add":"2019-03-05 03:20:30","orig_title":"На берегу мечты","year":"2019-02-28","translations":["Оригинальная дорожка"],"quality":"webdl","translation":"Оригинальная дорожка","update":"2019-09-02 07:58:31","iframe_src":"//5322.svetacdn.in/71tsRs29n5tZ/movie/22717"},{"id":21920,"title":"Шоссе","kp_id":"4741","imdb_id":"tt0116361","world_art_id":null,"type":"movie","add":"2019-01-29 09:06:01","orig_title":"Freeway","year":"1996-08-23","translations":["Профессиональный (двухголосый закадровый)","Авторский (одноголосый закадровый) (Карцев Пётр)"],"quality":"dvdrip","translation":"Профессиональный (двухголосый закадровый)","update":"2019-09-02 11:35:49","iframe_src":"//5322.svetacdn.in/71tsRs29n5tZ/movie/21920"},{"id":20256,"title":"Землетрясение","kp_id":"1094106","imdb_id":"tt6523720","world_art_id":null,"type":"movie","add":"2018-11-22 22:57:42","orig_title":"Skjelvet","year":"2018-08-19","translations":["Полное дублирование (iTunes)","Любительский (многоголосый закадровый) (@MUZOBOZ@)","Любительский (многоголосый закадровый)","Профессиональный (многоголосый закадровый)"],"quality":"bd","translation":"Полное дублирование (iTunes)","update":"2019-09-02 08:11:12","iframe_src":"//5322.svetacdn.in/71tsRs29n5tZ/movie/20256"}],"current_page":1202,"first_page_url":"https://videocdn.tv/api/short?limit=100&api_token=EnbO9h8pv1VyjbCJhg0WM9nG259n7mtz&cache31202=31202&page=1","from":120101,"last_page":628,"last_page_url":"https://videocdn.tv/api/short?limit=100&api_token=EnbO9h8pv1VyjbCJhg0WM9nG259n7mtz&cache31202=31202&page=628","next_page_url":null,"path":"https://videocdn.tv/api/short","per_page":100,"prev_page_url":"https://videocdn.tv/api/short?limit=100&api_token=EnbO9h8pv1VyjbCJhg0WM9nG259n7mtz&cache31202=31202&page=1201","to":120120,"total":62716}