{"result":true,"data":[{"id":37861,"title":"Истории подземки","kp_id":"79579","imdb_id":"tt0176250","world_art_id":null,"type":"movie","add":"2020-03-12 10:58:46","orig_title":"Tube Tales","year":"1999-11-12","translations":["Профессиональный (двухголосый закадровый)"],"quality":"dvdrip","translation":"Профессиональный (двухголосый закадровый)","update":"2020-03-12 11:41:52","iframe_src":"//8543.svetacdn.in/71tsRs29n5tZ/movie/37861"},{"id":37858,"title":"Чужими глазами","kp_id":"647592","imdb_id":"tt2106321","world_art_id":null,"type":"movie","add":"2020-03-12 10:42:32","orig_title":"Aux yeux de tous","year":"2012-03-31","translations":["Профессиональный (многоголосый закадровый) (НТВ)"],"quality":"dvdrip","translation":"Профессиональный (многоголосый закадровый) (НТВ)","update":"2020-03-12 11:41:02","iframe_src":"//8543.svetacdn.in/71tsRs29n5tZ/movie/37858"},{"id":37857,"title":"Груффало","kp_id":"494297","imdb_id":"tt1461418","world_art_id":null,"type":"movie","add":"2020-03-12 10:37:54","orig_title":"Gruffalo","year":"2009-12-25","translations":["Любительский (двухголосый закадровый)"],"quality":"hdtv","translation":"Любительский (двухголосый закадровый)","update":"2020-03-12 11:39:13","iframe_src":"//8543.svetacdn.in/71tsRs29n5tZ/movie/37857"},{"id":37853,"title":"Чужая планета","kp_id":"565164","imdb_id":"tt0453446","world_art_id":null,"type":"movie","add":"2020-03-12 09:20:43","orig_title":"Alien Planet","year":"2005-05-14","translations":["Профессиональный (одноголосый закадровый)"],"quality":"hdtv","translation":"Профессиональный (одноголосый закадровый)","update":"2020-03-12 12:16:06","iframe_src":"//8543.svetacdn.in/71tsRs29n5tZ/movie/37853"},{"id":37842,"title":"Доблесть на реке","kp_id":"1315351","imdb_id":"tt11138294","world_art_id":null,"type":"movie","add":"2020-03-12 08:53:52","orig_title":"Da guo chang jiang qu: Towards the river of glorious","year":"2019-10-16","translations":["Любительский (двухголосый закадровый) (Колобок)"],"quality":"webdl","translation":"Любительский (двухголосый закадровый) (Колобок)","update":"2020-03-12 11:38:00","iframe_src":"//8543.svetacdn.in/71tsRs29n5tZ/movie/37842"},{"id":37840,"title":"Приколючения И.Р.И, моего друга робота","kp_id":"1256427","imdb_id":"tt9578746","world_art_id":null,"type":"movie","add":"2020-03-12 08:52:24","orig_title":"The Adventure of A.R.I.: My Robot Friend","year":"2020-03-10","translations":["Любительский (многоголосый закадровый) (@MUZOBOZ@)"],"quality":"webdl","translation":"Любительский (многоголосый закадровый) (@MUZOBOZ@)","update":"2020-03-12 12:10:30","iframe_src":"//8543.svetacdn.in/71tsRs29n5tZ/movie/37840"},{"id":37835,"title":"Прочь","kp_id":"1335586","imdb_id":"tt8288450","world_art_id":null,"type":"movie","add":"2020-03-12 08:48:22","orig_title":"Away","year":"2019-06-04","translations":["Любительский (многоголосый закадровый) (Синема УС)"],"quality":"webdl","translation":"Любительский (многоголосый закадровый) (Синема УС)","update":"2020-03-12 11:34:50","iframe_src":"//8543.svetacdn.in/71tsRs29n5tZ/movie/37835"},{"id":37833,"title":"Держи ритм! Снова в школу","kp_id":"1273285","imdb_id":"tt8854392","world_art_id":null,"type":"movie","add":"2020-03-12 08:43:48","orig_title":"To The Beat! Back 2 School","year":"2020-03-10","translations":["Любительский (многоголосый закадровый) (AlphaProject)"],"quality":"webdl","translation":"Любительский (многоголосый закадровый) (AlphaProject)","update":"2020-03-12 11:19:46","iframe_src":"//8543.svetacdn.in/71tsRs29n5tZ/movie/37833"},{"id":37832,"title":"Шепард","kp_id":"1167564","imdb_id":"tt8430676","world_art_id":null,"type":"movie","add":"2020-03-12 08:42:56","orig_title":"Shepard","year":"2020-03-10","translations":["Любительский (многоголосый закадровый) (Синема УС)"],"quality":"webdl","translation":"Любительский (многоголосый закадровый) (Синема УС)","update":"2020-03-12 11:21:03","iframe_src":"//8543.svetacdn.in/71tsRs29n5tZ/movie/37832"},{"id":37829,"title":"Монстр","kp_id":"13846","imdb_id":"tt0110570","world_art_id":null,"type":"movie","add":"2020-03-12 08:40:27","orig_title":"Il mostro","year":"1994-10-22","translations":["Профессиональный (многоголосый закадровый)"],"quality":"hdtv","translation":"Профессиональный (многоголосый закадровый)","update":"2020-03-12 12:10:02","iframe_src":"//8543.svetacdn.in/71tsRs29n5tZ/movie/37829"},{"id":37828,"title":"Сложность","kp_id":"1112169","imdb_id":"tt7239688","world_art_id":null,"type":"movie","add":"2020-03-12 08:39:40","orig_title":"Complicity","year":"2018-09-07","translations":["Любительский (многоголосый закадровый) (Синема УС)"],"quality":"webdl","translation":"Любительский (многоголосый закадровый) (Синема УС)","update":"2020-03-12 11:25:06","iframe_src":"//8543.svetacdn.in/71tsRs29n5tZ/movie/37828"},{"id":37827,"title":"7 душ","kp_id":"243787","imdb_id":"tt0495028","world_art_id":null,"type":"movie","add":"2020-03-12 08:38:48","orig_title":"Dood eind","year":"2006-08-03","translations":["Профессиональный (многоголосый закадровый)"],"quality":"dvdrip","translation":"Профессиональный (многоголосый закадровый)","update":"2020-03-12 12:11:52","iframe_src":"//8543.svetacdn.in/71tsRs29n5tZ/movie/37827"},{"id":37824,"title":"Месть полудурков 3: Следующее поколение","kp_id":"229221","imdb_id":"tt0105251","world_art_id":null,"type":"movie","add":"2020-03-12 08:33:39","orig_title":"Revenge of the Nerds III: The Next Generation","year":"1992-07-13","translations":["Полное дублирование"],"quality":"dvdrip","translation":"Полное дублирование","update":"2020-03-12 12:15:59","iframe_src":"//8543.svetacdn.in/71tsRs29n5tZ/movie/37824"},{"id":37787,"title":"Болезнь любви","kp_id":"29780","imdb_id":"tt0093481","world_art_id":null,"type":"movie","add":"2020-03-11 14:08:52","orig_title":"Maladie d'amour","year":"1987-09-30","translations":["Полное дублирование"],"quality":"dvdrip","translation":"Полное дублирование","update":"2020-03-12 11:11:18","iframe_src":"//8543.svetacdn.in/71tsRs29n5tZ/movie/37787"},{"id":37786,"title":"Продюсер","kp_id":"1172044","imdb_id":"tt8684786","world_art_id":null,"type":"movie","add":"2020-03-11 13:55:15","orig_title":"Prodyuser","year":"2019-02-14","translations":["Оригинальная дорожка"],"quality":"webdl","translation":"Оригинальная дорожка","update":"2020-03-12 08:59:41","iframe_src":"//8543.svetacdn.in/71tsRs29n5tZ/movie/37786"},{"id":37611,"title":"Зак и чудо-собаки","kp_id":"250208","imdb_id":"tt0494260","world_art_id":null,"type":"movie","add":"2020-03-09 14:27:54","orig_title":"Miracle Dogs Too","year":"2006-04-01","translations":["Профессиональный (двухголосый закадровый)"],"quality":"dvdrip","translation":"Профессиональный (двухголосый закадровый)","update":"2020-03-11 20:26:14","iframe_src":"//8543.svetacdn.in/71tsRs29n5tZ/movie/37611"},{"id":37610,"title":"Возвращение в убежище","kp_id":"557741","imdb_id":"tt1691153","world_art_id":null,"type":"movie","add":"2020-03-09 14:21:26","orig_title":"Return to the Hiding Place","year":"2014-05-23","translations":["Профессиональный (многоголосый закадровый)"],"quality":"dvdrip","translation":"Профессиональный (многоголосый закадровый)","update":"2020-03-11 20:25:18","iframe_src":"//8543.svetacdn.in/71tsRs29n5tZ/movie/37610"},{"id":37563,"title":"Неожиданная встреча","kp_id":"532217","imdb_id":"tt1663680","world_art_id":null,"type":"movie","add":"2020-03-08 14:00:23","orig_title":"The Encounter","year":"2011-05-03","translations":["Любительский (многоголосый закадровый)"],"quality":"dvdrip","translation":"Любительский (многоголосый закадровый)","update":"2020-03-12 09:56:27","iframe_src":"//8543.svetacdn.in/71tsRs29n5tZ/movie/37563"},{"id":37521,"title":"Нахалы","kp_id":"502123","imdb_id":"tt1604115","world_art_id":null,"type":"movie","add":"2020-03-07 22:45:25","orig_title":"Veijarit","year":"2010-12-25","translations":["Любительский (одноголосый закадровый) (den904)"],"quality":"hdrip","translation":"Любительский (одноголосый закадровый) (den904)","update":"2020-03-12 09:53:34","iframe_src":"//8543.svetacdn.in/71tsRs29n5tZ/movie/37521"},{"id":5520,"title":"Перекресток","kp_id":"18521","imdb_id":"tt0110146","world_art_id":null,"type":"movie","add":"2016-09-26 13:30:58","orig_title":"Intersection","year":"1994-01-21","translations":["Профессиональный (многоголосый закадровый)"],"quality":"webdl","translation":"Профессиональный (многоголосый закадровый)","update":"2020-03-12 12:12:00","iframe_src":"//8543.svetacdn.in/71tsRs29n5tZ/movie/5520"}],"current_page":679,"first_page_url":"https://videocdn.tv/api/short?limit=100&api_token=EnbO9h8pv1VyjbCJhg0WM9nG259n7mtz&cache3679=3679&page=1","from":67801,"last_page":602,"last_page_url":"https://videocdn.tv/api/short?limit=100&api_token=EnbO9h8pv1VyjbCJhg0WM9nG259n7mtz&cache3679=3679&page=602","next_page_url":null,"path":"https://videocdn.tv/api/short","per_page":100,"prev_page_url":"https://videocdn.tv/api/short?limit=100&api_token=EnbO9h8pv1VyjbCJhg0WM9nG259n7mtz&cache3679=3679&page=678","to":67820,"total":60177}