{"result":true,"data":[{"id":37507,"title":"Гангстер","kp_id":"262745","imdb_id":"tt0495032","world_art_id":null,"type":"movie","add":"2020-03-06 18:48:14","orig_title":"Gangster","year":"2006-04-28","translations":["Профессиональный (многоголосый закадровый) (Формат AB)"],"quality":"bd","translation":"Профессиональный (многоголосый закадровый) (Формат AB)","update":"2020-03-11 06:57:00","iframe_src":"//8543.svetacdn.in/71tsRs29n5tZ/movie/37507"},{"id":37506,"title":"Выпадение волос: серьезная комедия","kp_id":null,"imdb_id":"tt2033264","world_art_id":null,"type":"movie","add":"2020-03-06 18:45:48","orig_title":"Hair is Falling: A Serious Comedy Film","year":"2011-08-05","translations":["Профессиональный (многоголосый закадровый)"],"quality":"sat","translation":"Профессиональный (многоголосый закадровый)","update":"2020-03-11 06:56:01","iframe_src":"//8543.svetacdn.in/71tsRs29n5tZ/movie/37506"},{"id":37505,"title":"Носильщик №1","kp_id":"100094","imdb_id":"tt0101616","world_art_id":null,"type":"movie","add":"2020-03-06 18:40:33","orig_title":"Coolie No. 1","year":"1995-06-30","translations":["Любительский (одноголосый закадровый)"],"quality":"dvdrip","translation":"Любительский (одноголосый закадровый)","update":"2020-03-11 06:55:00","iframe_src":"//8543.svetacdn.in/71tsRs29n5tZ/movie/37505"},{"id":37489,"title":"Испепеляющая страсть","kp_id":"39762","imdb_id":"tt0040067","world_art_id":null,"type":"movie","add":"2020-03-06 10:10:13","orig_title":"Aag","year":"1948-08-06","translations":["Профессиональный (многоголосый закадровый)"],"quality":"dvdrip","translation":"Профессиональный (многоголосый закадровый)","update":"2020-03-11 06:52:52","iframe_src":"//8543.svetacdn.in/71tsRs29n5tZ/movie/37489"},{"id":37488,"title":"Ночь убийства","kp_id":"211957","imdb_id":"tt0370796","world_art_id":null,"type":"movie","add":"2020-03-06 10:07:22","orig_title":"Jab Andhera Hota Hai","year":"1974-06-03","translations":["Профессиональный (многоголосый закадровый)"],"quality":"dvdrip","translation":"Профессиональный (многоголосый закадровый)","update":"2020-03-11 06:52:03","iframe_src":"//8543.svetacdn.in/71tsRs29n5tZ/movie/37488"},{"id":37487,"title":"Джекпот","kp_id":"809338","imdb_id":"tt3309662","world_art_id":null,"type":"movie","add":"2020-03-06 10:04:30","orig_title":"Jackpot","year":"2013-12-13","translations":["Любительский (двухголосый закадровый)"],"quality":"webdl","translation":"Любительский (двухголосый закадровый)","update":"2020-03-11 06:51:21","iframe_src":"//8543.svetacdn.in/71tsRs29n5tZ/movie/37487"},{"id":37486,"title":"Кантасвами","kp_id":"486434","imdb_id":"tt1537032","world_art_id":null,"type":"movie","add":"2020-03-06 10:02:13","orig_title":"Kanthaswamy","year":"2009-08-21","translations":["Профессиональный (многоголосый закадровый) (Red Media)"],"quality":"bd","translation":"Профессиональный (многоголосый закадровый) (Red Media)","update":"2020-03-11 06:49:24","iframe_src":"//8543.svetacdn.in/71tsRs29n5tZ/movie/37486"},{"id":37485,"title":"Клятва на верность","kp_id":"95752","imdb_id":"tt0270091","world_art_id":null,"type":"movie","add":"2020-03-06 09:58:28","orig_title":"Yaadon Ki Kasam","year":"1985-05-17","translations":["Любительский (одноголосый закадровый)"],"quality":"dvdrip","translation":"Любительский (одноголосый закадровый)","update":"2020-03-11 06:47:44","iframe_src":"//8543.svetacdn.in/71tsRs29n5tZ/movie/37485"},{"id":37484,"title":"Любовный недуг","kp_id":"39771","imdb_id":"tt0084532","world_art_id":null,"type":"movie","add":"2020-03-06 09:56:07","orig_title":"Prem Rog","year":"1982-07-31","translations":["Профессиональный (двухголосый закадровый)"],"quality":"dvdrip","translation":"Профессиональный (двухголосый закадровый)","update":"2020-03-11 06:46:34","iframe_src":"//8543.svetacdn.in/71tsRs29n5tZ/movie/37484"},{"id":37483,"title":"Любовная тайна","kp_id":"182502","imdb_id":"tt0262703","world_art_id":null,"type":"movie","add":"2020-03-06 09:53:49","orig_title":"Prem Tapasya","year":"1983-04-15","translations":["Профессиональный (многоголосый закадровый)"],"quality":"dvdrip","translation":"Профессиональный (многоголосый закадровый)","update":"2020-03-11 06:45:57","iframe_src":"//8543.svetacdn.in/71tsRs29n5tZ/movie/37483"},{"id":37482,"title":"Маюри","kp_id":"97639","imdb_id":"tt0249797","world_art_id":null,"type":"movie","add":"2020-03-06 09:51:38","orig_title":"Mayuri","year":"1984-08-15","translations":["Полное дублирование"],"quality":"dvdrip","translation":"Полное дублирование","update":"2020-03-11 06:44:31","iframe_src":"//8543.svetacdn.in/71tsRs29n5tZ/movie/37482"},{"id":37481,"title":"Одержимый любовью","kp_id":"254213","imdb_id":"tt0402607","world_art_id":null,"type":"movie","add":"2020-03-06 09:47:25","orig_title":"Tum: A Dangerous Obsession","year":"2004-02-27","translations":["Профессиональный (двухголосый закадровый)"],"quality":"dvdrip","translation":"Профессиональный (двухголосый закадровый)","update":"2020-03-11 06:43:28","iframe_src":"//8543.svetacdn.in/71tsRs29n5tZ/movie/37481"},{"id":37479,"title":"С любимой под венец","kp_id":"41690","imdb_id":"tt0247992","world_art_id":null,"type":"movie","add":"2020-03-06 07:43:06","orig_title":"Dulhan Hum Le Jayenge","year":"2000-01-15","translations":["Профессиональный (многоголосый закадровый)"],"quality":"dvdrip","translation":"Профессиональный (многоголосый закадровый)","update":"2020-03-11 06:41:32","iframe_src":"//8543.svetacdn.in/71tsRs29n5tZ/movie/37479"},{"id":37477,"title":"Львиное сердце 3","kp_id":"957646","imdb_id":"tt5323640","world_art_id":null,"type":"movie","add":"2020-03-06 07:37:09","orig_title":"Singam 3","year":"2017-02-09","translations":["Профессиональный (многоголосый закадровый) (Индийское кино)"],"quality":"webdl","translation":"Профессиональный (многоголосый закадровый) (Индийское кино)","update":"2020-03-11 06:40:33","iframe_src":"//8543.svetacdn.in/71tsRs29n5tZ/movie/37477"},{"id":37476,"title":"Львиное сердце 2","kp_id":"694601","imdb_id":"tt2309600","world_art_id":null,"type":"movie","add":"2020-03-06 07:35:02","orig_title":"Singam 2","year":"2013-07-04","translations":["Любительский (двухголосый закадровый)"],"quality":"bd","translation":"Любительский (двухголосый закадровый)","update":"2020-03-11 06:39:13","iframe_src":"//8543.svetacdn.in/71tsRs29n5tZ/movie/37476"},{"id":37475,"title":"Так далеко, так близко","kp_id":"40417","imdb_id":"tt0313395","world_art_id":null,"type":"movie","add":"2020-03-06 07:32:40","orig_title":"Kitne Door... Kitne Paas","year":"2002-05-01","translations":["Профессиональный (многоголосый закадровый)"],"quality":"dvdrip","translation":"Профессиональный (многоголосый закадровый)","update":"2020-03-11 06:38:24","iframe_src":"//8543.svetacdn.in/71tsRs29n5tZ/movie/37475"},{"id":37474,"title":"Трое разгневанных мужчин","kp_id":"36631","imdb_id":"tt0100816","world_art_id":null,"type":"movie","add":"2020-03-06 07:28:30","orig_title":"Tridev","year":"1989-07-07","translations":["Полное дублирование"],"quality":"webdl","translation":"Полное дублирование","update":"2020-03-11 06:37:34","iframe_src":"//8543.svetacdn.in/71tsRs29n5tZ/movie/37474"},{"id":37473,"title":"Трое разгневанных мужчин 2","kp_id":"78634","imdb_id":"tt0130350","world_art_id":null,"type":"movie","add":"2020-03-06 07:26:05","orig_title":"Vishwatma","year":"1992-01-24","translations":["Профессиональный (многоголосый закадровый) (Формат AB)"],"quality":"dvdrip","translation":"Профессиональный (многоголосый закадровый) (Формат AB)","update":"2020-03-11 06:36:31","iframe_src":"//8543.svetacdn.in/71tsRs29n5tZ/movie/37473"},{"id":37471,"title":"Вечная любовь","kp_id":"416335","imdb_id":"tt1236441","world_art_id":null,"type":"movie","add":"2020-03-06 07:21:54","orig_title":"Phir Kabhi","year":"2008-01-01","translations":["Профессиональный (двухголосый закадровый)"],"quality":"hdtv","translation":"Профессиональный (двухголосый закадровый)","update":"2020-03-11 06:35:55","iframe_src":"//8543.svetacdn.in/71tsRs29n5tZ/movie/37471"},{"id":37470,"title":"Волшебная лампа Алладина","kp_id":"96963","imdb_id":"tt0139012","world_art_id":null,"type":"movie","add":"2020-03-06 07:19:49","orig_title":"Aladdin Aur Jadui Chirag","year":"1952-01-01","translations":["Профессиональный (многоголосый закадровый)"],"quality":"dvdrip","translation":"Профессиональный (многоголосый закадровый)","update":"2020-03-11 06:35:14","iframe_src":"//8543.svetacdn.in/71tsRs29n5tZ/movie/37470"}],"current_page":682,"first_page_url":"https://videocdn.tv/api/short?limit=100&api_token=EnbO9h8pv1VyjbCJhg0WM9nG259n7mtz&cache3682=3682&page=1","from":68101,"last_page":602,"last_page_url":"https://videocdn.tv/api/short?limit=100&api_token=EnbO9h8pv1VyjbCJhg0WM9nG259n7mtz&cache3682=3682&page=602","next_page_url":null,"path":"https://videocdn.tv/api/short","per_page":100,"prev_page_url":"https://videocdn.tv/api/short?limit=100&api_token=EnbO9h8pv1VyjbCJhg0WM9nG259n7mtz&cache3682=3682&page=681","to":68120,"total":60136}