{"result":true,"data":[{"id":47942,"title":"Каламити Джейн и Сэм Басс","kp_id":"3265","imdb_id":"tt0041220","world_art_id":null,"type":"movie","add":"2021-02-15 13:51:46","orig_title":"Calamity Jane and Sam Bass","year":"1949-07-04","translations":["Профессиональный (многоголосый закадровый) (СТС)"],"quality":"dvdrip","translation":"Профессиональный (многоголосый закадровый) (СТС)","update":"2021-02-15 14:39:48","iframe_src":"//5322.svetacdn.in/si4jsFRrtgrT/movie/47942"},{"id":47941,"title":"Книга жизни","kp_id":"183014","imdb_id":"tt0215907","world_art_id":null,"type":"movie","add":"2021-02-15 11:55:49","orig_title":"Kitaab","year":"1977-12-31","translations":["Профессиональный (двухголосый закадровый)"],"quality":"dvdrip","translation":"Профессиональный (двухголосый закадровый)","update":"2021-02-15 13:13:12","iframe_src":"//5322.svetacdn.in/si4jsFRrtgrT/movie/47941"},{"id":47940,"title":"Бессмертный Ленин","kp_id":null,"imdb_id":"tt0214469","world_art_id":null,"type":"movie","add":"2021-02-15 11:53:35","orig_title":"Amar Lenin","year":"1970-01-01","translations":["Любительский (одноголосый закадровый) (Nastia)"],"quality":"dvdrip","translation":"Любительский (одноголосый закадровый) (Nastia)","update":"2021-02-15 13:48:06","iframe_src":"//5322.svetacdn.in/si4jsFRrtgrT/movie/47940"},{"id":47939,"title":"Развращенные","kp_id":"222920","imdb_id":"tt0067076","world_art_id":null,"type":"movie","add":"2021-02-15 09:01:12","orig_title":"Exponerad","year":"1971-08-23","translations":["Любительский (одноголосый закадровый)","Авторский (одноголосый закадровый) (Алексеев Антон)"],"quality":"dvdrip","translation":"Любительский (одноголосый закадровый)","update":"2021-02-15 13:32:43","iframe_src":"//5322.svetacdn.in/si4jsFRrtgrT/movie/47939"},{"id":47935,"title":"Дом непобедимых","kp_id":"1122971","imdb_id":"tt7928156","world_art_id":null,"type":"movie","add":"2021-02-15 07:28:16","orig_title":"The House Invictus","year":"2018-10-04","translations":["Любительский (многоголосый закадровый) (Синема УС)"],"quality":"webdl","translation":"Любительский (многоголосый закадровый) (Синема УС)","update":"2021-02-15 11:10:07","iframe_src":"//5322.svetacdn.in/si4jsFRrtgrT/movie/47935"},{"id":47934,"title":"Перекрёсток бастарда","kp_id":"1281732","imdb_id":"tt10556674","world_art_id":null,"type":"movie","add":"2021-02-15 07:25:18","orig_title":"Bastard's Crossing","year":"2021-01-15","translations":["Любительский (многоголосый закадровый) (Синема УС)"],"quality":"webdl","translation":"Любительский (многоголосый закадровый) (Синема УС)","update":"2021-02-15 13:34:34","iframe_src":"//5322.svetacdn.in/si4jsFRrtgrT/movie/47934"},{"id":47932,"title":"Милая Чарити","kp_id":"2568","imdb_id":"tt0065054","world_art_id":null,"type":"movie","add":"2021-02-15 06:04:43","orig_title":"Sweet Charity","year":"1969-02-14","translations":["Профессиональный (многоголосый закадровый) (Фильмэкспорт)"],"quality":"bd","translation":"Профессиональный (многоголосый закадровый) (Фильмэкспорт)","update":"2021-02-15 11:31:58","iframe_src":"//5322.svetacdn.in/si4jsFRrtgrT/movie/47932"},{"id":47930,"title":"Старый двор","kp_id":"824254","imdb_id":null,"world_art_id":null,"type":"movie","add":"2021-02-14 19:38:59","orig_title":"Старый двор","year":"1941-01-01","translations":["Оригинальная дорожка"],"quality":"webdl","translation":"Оригинальная дорожка","update":"2021-02-15 07:56:43","iframe_src":"//5322.svetacdn.in/si4jsFRrtgrT/movie/47930"},{"id":47929,"title":"Знойный июль","kp_id":"45373","imdb_id":"tt0059948","world_art_id":null,"type":"movie","add":"2021-02-14 19:35:44","orig_title":"Znoynyy iyul","year":"1965-12-27","translations":["Оригинальная дорожка"],"quality":"tv","translation":"Оригинальная дорожка","update":"2021-02-15 07:55:25","iframe_src":"//5322.svetacdn.in/si4jsFRrtgrT/movie/47929"},{"id":47925,"title":"Целеустремленность: Борьба за наши жизни","kp_id":"986508","imdb_id":"tt5792164","world_art_id":null,"type":"movie","add":"2021-02-14 18:57:02","orig_title":"A Sense of Purpose: Fighting for Our Lives","year":"2019-04-26","translations":["Любительский (многоголосый закадровый) (Синема УС)"],"quality":"webdl","translation":"Любительский (многоголосый закадровый) (Синема УС)","update":"2021-02-15 21:03:17","iframe_src":"//5322.svetacdn.in/si4jsFRrtgrT/movie/47925"},{"id":47910,"title":"Большой калибр","kp_id":"16423","imdb_id":"tt0100053","world_art_id":null,"type":"movie","add":"2021-02-14 18:06:26","orig_title":"Loose Cannons","year":"1990-02-09","translations":["Авторский (одноголосый закадровый) (Михалёв Алексей)"],"quality":"dvdrip","translation":"Авторский (одноголосый закадровый) (Михалёв Алексей)","update":"2021-02-15 07:55:33","iframe_src":"//5322.svetacdn.in/si4jsFRrtgrT/movie/47910"},{"id":47909,"title":"Герои Энвелла: Выйти из игры","kp_id":"1219260","imdb_id":null,"world_art_id":null,"type":"movie","add":"2021-02-14 17:48:35","orig_title":"Герои Энвелла: Выйти из игры","year":"2019-11-29","translations":["Оригинальная дорожка"],"quality":"webdl","translation":"Оригинальная дорожка","update":"2021-02-15 07:58:33","iframe_src":"//5322.svetacdn.in/si4jsFRrtgrT/movie/47909"},{"id":47906,"title":"Хакер: Взломанная жизнь","kp_id":"1309680","imdb_id":"tt11027850","world_art_id":null,"type":"movie","add":"2021-02-14 16:38:11","orig_title":"Hacked","year":"2020-02-07","translations":["Любительский (многоголосый закадровый)"],"quality":"hdrip","translation":"Любительский (многоголосый закадровый)","update":"2021-02-15 14:57:02","iframe_src":"//5322.svetacdn.in/si4jsFRrtgrT/movie/47906"},{"id":7111,"title":"Дочки","kp_id":"1365992","imdb_id":null,"world_art_id":null,"type":"serial","add":"2020-04-07 06:41:56","orig_title":"Дочки","year":"2020-04-05","translations":["Оригинальная дорожка"],"seasons_count":1,"episodes_count":4,"episodes":4,"update":"2020-04-07 12:02:13","iframe_src":"//5322.svetacdn.in/si4jsFRrtgrT/tv-series/7111"},{"id":7109,"title":"Модель счастливой жизни","kp_id":"838286","imdb_id":null,"world_art_id":null,"type":"serial","add":"2020-04-06 20:43:51","orig_title":"Модель счастливой жизни","year":"2014-01-01","translations":["Оригинальная дорожка"],"seasons_count":1,"episodes_count":2,"episodes":2,"update":"2020-04-07 12:49:12","iframe_src":"//5322.svetacdn.in/si4jsFRrtgrT/tv-series/7109"},{"id":7102,"title":"Спецназ: Сан-Диего","kp_id":"574774","imdb_id":"tt1783495","world_art_id":null,"type":"serial","add":"2020-04-06 11:52:01","orig_title":"NTSF:SD:SUV","year":"2011-07-21","translations":["Профессиональный (многоголосый закадровый) (2x2)"],"seasons_count":1,"episodes_count":12,"episodes":12,"update":"2020-04-06 14:12:44","iframe_src":"//5322.svetacdn.in/si4jsFRrtgrT/tv-series/7102"},{"id":7100,"title":"Неисследованные глубины","kp_id":"710105","imdb_id":"tt2399098","world_art_id":null,"type":"serial","add":"2020-04-06 10:48:53","orig_title":"Alien Deep with Bob Ballard","year":"2012-09-11","translations":["Профессиональный (одноголосый закадровый)"],"seasons_count":1,"episodes_count":5,"episodes":5,"update":"2020-04-07 14:30:24","iframe_src":"//5322.svetacdn.in/si4jsFRrtgrT/tv-series/7100"},{"id":7099,"title":"Тайные связи","kp_id":"501861","imdb_id":"tt1495708","world_art_id":null,"type":"serial","add":"2020-04-06 09:25:45","orig_title":"Covert Affairs","year":"2010-07-13","translations":["Профессиональный (многоголосый закадровый) (Fox Life)"],"seasons_count":5,"episodes_count":75,"episodes":16,"update":"2020-04-07 14:07:17","iframe_src":"//5322.svetacdn.in/si4jsFRrtgrT/tv-series/7099"},{"id":7097,"title":"Панчаят","kp_id":"1359425","imdb_id":"tt12004706","world_art_id":null,"type":"serial","add":"2020-04-06 06:02:00","orig_title":"Panchayat","year":"2020-04-03","translations":["Любительский (многоголосый закадровый) (Octopus)"],"seasons_count":1,"episodes_count":8,"episodes":8,"update":"2020-04-06 18:55:59","iframe_src":"//5322.svetacdn.in/si4jsFRrtgrT/tv-series/7097"},{"id":7096,"title":"Игра лжецов","kp_id":"843783","imdb_id":"tt4073180","world_art_id":null,"type":"serial","add":"2020-04-05 14:34:12","orig_title":"Liar Game","year":"2014-10-20","translations":["Любительский (одноголосый закадровый) (GREEN TEA)"],"seasons_count":1,"episodes_count":12,"episodes":12,"update":"2020-04-06 09:33:45","iframe_src":"//5322.svetacdn.in/si4jsFRrtgrT/tv-series/7096"},{"id":7095,"title":"Англия в общем и в частности","kp_id":"842253","imdb_id":"tt4553876","world_art_id":null,"type":"serial","add":"2020-04-05 14:32:00","orig_title":"Angliya v obshchem i v chastnosti","year":"2014-01-01","translations":["Оригинальная дорожка"],"seasons_count":1,"episodes_count":10,"episodes":10,"update":"2020-04-06 08:38:34","iframe_src":"//5322.svetacdn.in/si4jsFRrtgrT/tv-series/7095"},{"id":7092,"title":"Счастье можно дарить","kp_id":"1162850","imdb_id":null,"world_art_id":null,"type":"serial","add":"2020-04-05 09:53:38","orig_title":"Счастье можно дарить","year":"2020-04-04","translations":["Оригинальная дорожка"],"seasons_count":1,"episodes_count":2,"episodes":2,"update":"2020-04-05 19:26:41","iframe_src":"//5322.svetacdn.in/si4jsFRrtgrT/tv-series/7092"},{"id":7089,"title":"1790 год","kp_id":"803788","imdb_id":"tt2078818","world_art_id":null,"type":"serial","add":"2020-04-04 14:56:49","orig_title":"Anno 1790","year":"2011-10-24","translations":["Профессиональный (многоголосый закадровый)"],"seasons_count":1,"episodes_count":10,"episodes":10,"update":"2020-04-06 14:42:06","iframe_src":"//5322.svetacdn.in/si4jsFRrtgrT/tv-series/7089"},{"id":7080,"title":"Час","kp_id":"574433","imdb_id":"tt1778108","world_art_id":null,"type":"serial","add":"2020-04-03 20:18:43","orig_title":"The Hour","year":"2011-07-19","translations":["Профессиональный (многоголосый закадровый) (Кинопоказ)"],"seasons_count":1,"episodes_count":6,"episodes":6,"update":"2020-04-05 16:57:57","iframe_src":"//5322.svetacdn.in/si4jsFRrtgrT/tv-series/7080"},{"id":7068,"title":"Известная Вселенная","kp_id":"646785","imdb_id":"tt1375408","world_art_id":null,"type":"serial","add":"2020-04-03 09:36:07","orig_title":"Known Universe","year":"2009-02-15","translations":["Профессиональный (одноголосый закадровый)"],"seasons_count":1,"episodes_count":3,"episodes":3,"update":"2020-04-05 12:55:34","iframe_src":"//5322.svetacdn.in/si4jsFRrtgrT/tv-series/7068"},{"id":7067,"title":"Атом","kp_id":"471988","imdb_id":null,"world_art_id":null,"type":"serial","add":"2020-04-03 09:30:24","orig_title":"Atom","year":"2007-07-26","translations":["Любительский (одноголосый закадровый)"],"seasons_count":1,"episodes_count":3,"episodes":3,"update":"2020-04-05 12:52:35","iframe_src":"//5322.svetacdn.in/si4jsFRrtgrT/tv-series/7067"},{"id":7058,"title":"Противостояние","kp_id":"153012","imdb_id":"tt0108941","world_art_id":null,"type":"serial","add":"2020-04-02 14:08:55","orig_title":"The Stand","year":"1994-05-08","translations":["Профессиональный (двухголосый закадровый) (ViruseProject)"],"seasons_count":1,"episodes_count":4,"episodes":4,"update":"2020-04-05 12:54:15","iframe_src":"//5322.svetacdn.in/si4jsFRrtgrT/tv-series/7058"},{"id":7057,"title":"Чyдаки","kp_id":"207010","imdb_id":"tt0264263","world_art_id":null,"type":"serial","add":"2020-04-02 13:50:41","orig_title":"Jackass","year":"2000-04-12","translations":["Профессиональный (одноголосый закадровый)"],"seasons_count":3,"episodes_count":25,"episodes":9,"update":"2020-04-06 13:39:12","iframe_src":"//5322.svetacdn.in/si4jsFRrtgrT/tv-series/7057"},{"id":6972,"title":"Моланг","kp_id":"1004207","imdb_id":"tt6046238","world_art_id":null,"type":"serial","add":"2020-03-23 22:02:09","orig_title":"Molang","year":"2015-12-31","translations":["Оригинальная дорожка"],"seasons_count":3,"episodes_count":156,"episodes":52,"update":"2020-04-06 17:03:36","iframe_src":"//5322.svetacdn.in/si4jsFRrtgrT/tv-series/6972"},{"id":36489,"title":"Легкомысленная девчонка","kp_id":"34422","imdb_id":"tt0250483","world_art_id":null,"type":"movie","add":"2020-02-18 16:04:27","orig_title":"Kya Kehna","year":"2000-05-19","translations":["Профессиональный (многоголосый закадровый)","Профессиональный (многоголосый закадровый) (SDI Media)"],"quality":"dvdrip","translation":"Профессиональный (многоголосый закадровый)","update":"2021-02-15 09:10:34","iframe_src":"//5322.svetacdn.in/si4jsFRrtgrT/movie/36489"},{"id":6443,"title":"Обмен","kp_id":"843046","imdb_id":null,"world_art_id":null,"type":"serial","add":"2020-01-22 13:58:32","orig_title":"Обмен","year":"2014-10-10","translations":["Оригинальная дорожка"],"seasons_count":1,"episodes_count":4,"episodes":4,"update":"2020-04-05 12:58:00","iframe_src":"//5322.svetacdn.in/si4jsFRrtgrT/tv-series/6443"},{"id":35100,"title":"Бамбуковый дом кукол","kp_id":"233382","imdb_id":"tt0071189","world_art_id":null,"type":"movie","add":"2020-01-15 21:48:56","orig_title":"Nu ji zhong ying","year":"1973-12-21","translations":["Любительский (одноголосый закадровый)","Любительский (одноголосый закадровый) (allecs2010)"],"quality":"dvdrip","translation":"Любительский (одноголосый закадровый)","update":"2021-02-15 10:48:26","iframe_src":"//5322.svetacdn.in/si4jsFRrtgrT/movie/35100"},{"id":32450,"title":"Ты не одинок","kp_id":"41876","imdb_id":"tt0254481","world_art_id":null,"type":"movie","add":"2019-10-28 21:03:19","orig_title":"Koi... Mil Gaya","year":"2003-08-08","translations":["Профессиональный (многоголосый закадровый)","Профессиональный (многоголосый закадровый)","Профессиональный (многоголосый закадровый) (ZEE TV)"],"quality":"dvb","translation":"Профессиональный (многоголосый закадровый)","update":"2021-02-15 11:37:15","iframe_src":"//5322.svetacdn.in/si4jsFRrtgrT/movie/32450"},{"id":4494,"title":"Семейный брак","kp_id":"1174219","imdb_id":"tt8708280","world_art_id":null,"type":"serial","add":"2019-05-13 07:01:17","orig_title":"State of the Union","year":"2019-05-06","translations":["Профессиональный (многоголосый закадровый) (IdeaFilm)","Любительский (многоголосый закадровый) (ColdFilm)","Профессиональный (многоголосый закадровый) (HDrezka Studio)","Полное дублирование (Кириллица)"],"seasons_count":1,"episodes_count":10,"episodes":10,"update":"2020-04-07 14:27:15","iframe_src":"//5322.svetacdn.in/si4jsFRrtgrT/tv-series/4494"},{"id":2460,"title":"Шале","kp_id":null,"imdb_id":"tt8168678","world_art_id":null,"type":"serial","add":"2018-04-26 09:06:15","orig_title":"Le chalet","year":"2018-03-26","translations":["Профессиональный (многоголосый закадровый) (BaibaKo)","Профессиональный (двухголосый закадровый) (ViruseProject)"],"seasons_count":1,"episodes_count":6,"episodes":6,"update":"2020-04-05 17:02:23","iframe_src":"//5322.svetacdn.in/si4jsFRrtgrT/tv-series/2460"},{"id":13197,"title":"Сид, проснись","kp_id":"433141","imdb_id":"tt1324059","world_art_id":null,"type":"movie","add":"2017-08-28 12:27:31","orig_title":"Wake Up Sid","year":"2009-10-02","translations":["Полное дублирование","Любительский (одноголосый закадровый)  (zamez | Замез Вячеслав)","Полное дублирование (ZEE TV)"],"quality":"bd","translation":"Полное дублирование","update":"2021-02-15 18:55:20","iframe_src":"//5322.svetacdn.in/si4jsFRrtgrT/movie/13197"},{"id":719,"title":"Гавайи 5.0","kp_id":"503148","imdb_id":"tt1600194","world_art_id":null,"type":"serial","add":"2016-12-22 08:47:26","orig_title":"Hawaii Five-0","year":"2010-09-20","translations":["Профессиональный (многоголосый закадровый) (LostFilm)"],"seasons_count":10,"episodes_count":240,"episodes":22,"update":"2020-04-07 06:11:17","iframe_src":"//5322.svetacdn.in/si4jsFRrtgrT/tv-series/719"},{"id":1946,"title":"Ронин","kp_id":"5221","imdb_id":"tt0122690","world_art_id":null,"type":"movie","add":"2016-05-07 09:10:59","orig_title":"Ronin","year":"1998-09-12","translations":["Профессиональный (многоголосый закадровый)","Полное дублирование","Профессиональный (многоголосый закадровый) (Союз Видео)","Профессиональный (многоголосый закадровый) (Первый канал | ОРТ)","Профессиональный (многоголосый закадровый) (Lazer Video)","Профессиональный (многоголосый закадровый) (Киномания)","Профессиональный (многоголосый закадровый) (НТВ)","Профессиональный (многоголосый закадровый) (Варус-Видео)","Профессиональный (многоголосый закадровый)","Профессиональный (одноголосый закадровый) (диктор CDV)","Original (English)","Полное дублирование (Невафильм | Нева-1)","Авторский (одноголосый закадровый) (Живов Юрий)","Авторский (одноголосый закадровый) (Латышев Максим | CDV)","Авторский (одноголосый закадровый) (Кашкин Александр | Первомайский)","Авторский (одноголосый закадровый) (Гаврилов Андрей)","Авторский (одноголосый закадровый) (Есарев Дмитрий)","Любительский (одноголосый закадровый) (Антонов Николай)"],"quality":"bd","translation":"Профессиональный (многоголосый закадровый)","update":"2021-02-15 13:25:05","iframe_src":"//5322.svetacdn.in/si4jsFRrtgrT/movie/1946"},{"id":1527,"title":"13-й район","kp_id":"81522","imdb_id":"tt0414852","world_art_id":null,"type":"movie","add":"2016-04-22 08:18:13","orig_title":"Banlieue 13","year":"2004-11-10","translations":["Полное дублирование","Авторский (одноголосый закадровый) (Немахов Юрий)","Авторский (одноголосый закадровый) (Живов Юрий)","Полное дублирование","Профессиональный (многоголосый закадровый) (Инис)"],"quality":"bd","translation":"Полное дублирование","update":"2021-02-15 09:30:29","iframe_src":"//5322.svetacdn.in/si4jsFRrtgrT/movie/1527"},{"id":1186,"title":"Крадущийся тигр, затаившийся дракон: Меч судьбы","kp_id":"732588","imdb_id":"tt2652118","world_art_id":null,"type":"movie","add":"2016-04-18 09:27:09","orig_title":"Crouching Tiger, Hidden Dragon: Sword of Destiny","year":"2016-02-18","translations":["Любительский (многоголосый закадровый) (Parovoz Production)","Original (English)","Авторский (одноголосый закадровый) (Дольский Андрей)","Original (English)","Любительский (многоголосый закадровый) (Parovoz Production)"],"quality":"webdl","translation":"Любительский (многоголосый закадровый) (Parovoz Production)","update":"2021-02-15 09:34:12","iframe_src":"//5322.svetacdn.in/si4jsFRrtgrT/movie/1186"}],"current_page":245,"first_page_url":"https://videocdn.tv/api/short?limit=100&api_token=X6EwAUfE5M9xbo7y0Bp0aPf3uXxG2KLL&cache3245=3245&page=1","from":24401,"last_page":630,"last_page_url":"https://videocdn.tv/api/short?limit=100&api_token=X6EwAUfE5M9xbo7y0Bp0aPf3uXxG2KLL&cache3245=3245&page=630","next_page_url":"https://videocdn.tv/api/short?limit=100&api_token=X6EwAUfE5M9xbo7y0Bp0aPf3uXxG2KLL&cache3245=3245&page=246","path":"https://videocdn.tv/api/short","per_page":100,"prev_page_url":"https://videocdn.tv/api/short?limit=100&api_token=X6EwAUfE5M9xbo7y0Bp0aPf3uXxG2KLL&cache3245=3245&page=244","to":24440,"total":62945}