{"result":true,"data":[{"id":45848,"title":"Лейтенант Джанглс","kp_id":"898178","imdb_id":"tt4408104","world_art_id":null,"type":"movie","add":"2020-12-04 20:52:06","orig_title":"Lieutenant Jangles","year":"2018-01-28","translations":["Любительский (многоголосый закадровый) (Синема УС)"],"quality":"bd","translation":"Любительский (многоголосый закадровый) (Синема УС)","update":"2020-12-05 07:17:34","iframe_src":"//8965.svetacdn.in/IAF0wWTdNYZm/movie/45848"},{"id":45847,"title":"Рождество в усадьбе","kp_id":"1347432","imdb_id":"tt11753704","world_art_id":null,"type":"movie","add":"2020-12-04 20:34:56","orig_title":"Christmas Inn Farmstead","year":"2020-11-21","translations":["Любительский (многоголосый закадровый) (AlphaProject)"],"quality":"webdl","translation":"Любительский (многоголосый закадровый) (AlphaProject)","update":"2020-12-05 07:16:27","iframe_src":"//8965.svetacdn.in/IAF0wWTdNYZm/movie/45847"},{"id":45844,"title":"Доброе утро, Рождество!","kp_id":"1420175","imdb_id":"tt13109730","world_art_id":null,"type":"movie","add":"2020-12-04 20:23:11","orig_title":"Good Morning Christmas!","year":"2020-11-25","translations":["Любительский (многоголосый закадровый) (AlphaProject)"],"quality":"hdtv","translation":"Любительский (многоголосый закадровый) (AlphaProject)","update":"2020-12-05 07:16:09","iframe_src":"//8965.svetacdn.in/IAF0wWTdNYZm/movie/45844"},{"id":45693,"title":"Волчья яма","kp_id":"45824","imdb_id":"tt0175307","world_art_id":null,"type":"movie","add":"2020-11-29 16:32:15","orig_title":"Volchya yama","year":"1984-05-21","translations":["Полное дублирование"],"quality":"vhs","translation":"Полное дублирование","update":"2020-12-04 13:53:44","iframe_src":"//8965.svetacdn.in/IAF0wWTdNYZm/movie/45693"},{"id":45692,"title":"Волшебник Ох","kp_id":"491812","imdb_id":"tt6409464","world_art_id":null,"type":"movie","add":"2020-11-29 16:29:50","orig_title":"Volshebnik Okh","year":"1971-01-01","translations":["Оригинальная дорожка"],"quality":"dvdrip","translation":"Оригинальная дорожка","update":"2020-12-04 13:52:56","iframe_src":"//8965.svetacdn.in/IAF0wWTdNYZm/movie/45692"},{"id":45691,"title":"Дело №","kp_id":"540988","imdb_id":null,"world_art_id":null,"type":"movie","add":"2020-11-29 16:27:52","orig_title":"Дело №","year":"1964-01-01","translations":["Оригинальная дорожка"],"quality":"sat","translation":"Оригинальная дорожка","update":"2020-12-04 13:52:03","iframe_src":"//8965.svetacdn.in/IAF0wWTdNYZm/movie/45691"},{"id":45690,"title":"Женщина и четверо ее мужчин","kp_id":"45305","imdb_id":"tt0088451","world_art_id":null,"type":"movie","add":"2020-11-29 16:21:11","orig_title":"Zhenshchina i chetvero yeyo muzhchin","year":"1984-12-24","translations":["Полное дублирование"],"quality":"webdl","translation":"Полное дублирование","update":"2020-12-04 13:51:07","iframe_src":"//8965.svetacdn.in/IAF0wWTdNYZm/movie/45690"},{"id":45689,"title":"Коррупция","kp_id":"447112","imdb_id":"tt5738652","world_art_id":null,"type":"movie","add":"2020-11-29 16:15:52","orig_title":"Korruptsiya","year":"1990-01-01","translations":["Оригинальная дорожка"],"quality":"sat","translation":"Оригинальная дорожка","update":"2020-12-04 13:49:32","iframe_src":"//8965.svetacdn.in/IAF0wWTdNYZm/movie/45689"},{"id":45688,"title":"Лермонтов","kp_id":"45072","imdb_id":"tt0037015","world_art_id":null,"type":"movie","add":"2020-11-29 16:13:59","orig_title":"Lermontov","year":"1943-07-07","translations":["Оригинальная дорожка"],"quality":"webdl","translation":"Оригинальная дорожка","update":"2020-12-04 13:48:27","iframe_src":"//8965.svetacdn.in/IAF0wWTdNYZm/movie/45688"},{"id":45687,"title":"Рассказы о любви","kp_id":"470897","imdb_id":"tt5516890","world_art_id":null,"type":"movie","add":"2020-11-29 16:11:45","orig_title":"Rasskazy o lyubvi","year":"1980-01-04","translations":["Оригинальная дорожка"],"quality":"vhs","translation":"Оригинальная дорожка","update":"2020-12-04 13:47:38","iframe_src":"//8965.svetacdn.in/IAF0wWTdNYZm/movie/45687"},{"id":45686,"title":"Тронка","kp_id":"584351","imdb_id":"tt5303484","world_art_id":null,"type":"movie","add":"2020-11-29 16:07:02","orig_title":"Tronka","year":"1972-04-24","translations":["Оригинальная дорожка"],"quality":"iptv","translation":"Оригинальная дорожка","update":"2020-12-04 13:46:54","iframe_src":"//8965.svetacdn.in/IAF0wWTdNYZm/movie/45686"},{"id":45656,"title":"Приключение на даче","kp_id":"695302","imdb_id":null,"world_art_id":null,"type":"movie","add":"2020-11-26 22:48:22","orig_title":"Приключение на даче","year":"1980-01-01","translations":["Оригинальная дорожка"],"quality":"dvdrip","translation":"Оригинальная дорожка","update":"2020-12-04 13:46:16","iframe_src":"//8965.svetacdn.in/IAF0wWTdNYZm/movie/45656"},{"id":45655,"title":"Приговоренный","kp_id":"43246","imdb_id":"tt0311673","world_art_id":null,"type":"movie","add":"2020-11-26 22:44:14","orig_title":"Prigovoryonnyy","year":"1989-01-01","translations":["Оригинальная дорожка"],"quality":"sat","translation":"Оригинальная дорожка","update":"2020-12-04 13:45:18","iframe_src":"//8965.svetacdn.in/IAF0wWTdNYZm/movie/45655"},{"id":45654,"title":"Последняя индульгенция","kp_id":"161055","imdb_id":"tt0265562","world_art_id":null,"type":"movie","add":"2020-11-26 22:42:20","orig_title":"Poslednyaya indulgentsiya","year":"1986-06-09","translations":["Оригинальная дорожка"],"quality":"sat","translation":"Оригинальная дорожка","update":"2020-12-04 13:42:52","iframe_src":"//8965.svetacdn.in/IAF0wWTdNYZm/movie/45654"},{"id":45653,"title":"Отклонение — ноль","kp_id":"42845","imdb_id":"tt0175015","world_art_id":null,"type":"movie","add":"2020-11-26 22:40:10","orig_title":"Otklonenie - nol","year":"1978-02-20","translations":["Оригинальная дорожка"],"quality":"sat","translation":"Оригинальная дорожка","update":"2020-12-04 13:42:00","iframe_src":"//8965.svetacdn.in/IAF0wWTdNYZm/movie/45653"},{"id":45537,"title":"Мой дедушка — инопланетянин","kp_id":"1101573","imdb_id":"tt7662644","world_art_id":null,"type":"movie","add":"2020-11-23 20:43:38","orig_title":"Moj dida je pao s Marsa","year":"2019-03-21","translations":["Полное дублирование (iTunes)"],"quality":"webdl","translation":"Полное дублирование (iTunes)","update":"2020-12-04 21:25:37","iframe_src":"//8965.svetacdn.in/IAF0wWTdNYZm/movie/45537"},{"id":44859,"title":"Любовь без размера","kp_id":"1398964","imdb_id":null,"world_art_id":null,"type":"movie","add":"2020-10-27 20:14:09","orig_title":"Любовь без размера","year":"2020-10-22","translations":["Оригинальная дорожка"],"quality":"webdl","translation":"Оригинальная дорожка","update":"2020-12-04 21:21:25","iframe_src":"//8965.svetacdn.in/IAF0wWTdNYZm/movie/44859"},{"id":44601,"title":"Лето'85","kp_id":"1275788","imdb_id":"tt10457128","world_art_id":null,"type":"movie","add":"2020-10-19 19:40:12","orig_title":"Été 85","year":"2020-07-14","translations":["Профессиональный (многоголосый закадровый)","Профессиональный (многоголосый закадровый) (Мельница)"],"quality":"webdl","translation":"Профессиональный (многоголосый закадровый)","update":"2020-12-04 17:03:12","iframe_src":"//8965.svetacdn.in/IAF0wWTdNYZm/movie/44601"},{"id":25347,"title":"Версия полковника Зорина","kp_id":"45731","imdb_id":"tt0314841","world_art_id":null,"type":"movie","add":"2019-04-26 07:58:49","orig_title":"Versiya polkovnika Zorina","year":"1979-06-30","translations":["Оригинальная дорожка"],"quality":"hdtv","translation":"Оригинальная дорожка","update":"2020-12-04 13:54:57","iframe_src":"//8965.svetacdn.in/IAF0wWTdNYZm/movie/25347"},{"id":24929,"title":"Журавушка","kp_id":"45350","imdb_id":"tt0063838","world_art_id":null,"type":"movie","add":"2019-04-20 20:00:37","orig_title":"Zhuravushka","year":"1969-04-07","translations":["Оригинальная дорожка"],"quality":"webdl","translation":"Оригинальная дорожка","update":"2020-12-04 13:50:22","iframe_src":"//8965.svetacdn.in/IAF0wWTdNYZm/movie/24929"}],"current_page":835,"first_page_url":"https://videocdn.tv/api/short?limit=100&api_token=6Onb1W1alEUrBcKJZD3GoKBbWyAl2uG2&cache3835=3835&page=1","from":83401,"last_page":709,"last_page_url":"https://videocdn.tv/api/short?limit=100&api_token=6Onb1W1alEUrBcKJZD3GoKBbWyAl2uG2&cache3835=3835&page=709","next_page_url":null,"path":"https://videocdn.tv/api/short","per_page":100,"prev_page_url":"https://videocdn.tv/api/short?limit=100&api_token=6Onb1W1alEUrBcKJZD3GoKBbWyAl2uG2&cache3835=3835&page=834","to":83420,"total":70818}