{"result":true,"data":[{"id":55085,"title":"Ринг дьявола","kp_id":"1430983","imdb_id":"tt13206286","world_art_id":null,"type":"movie","add":"2021-12-08 21:13:48","orig_title":"The Devil's Ring","year":"2021-12-03","translations":["Любительский (многоголосый закадровый) (Синема УС)"],"quality":"webdl","translation":"Любительский (многоголосый закадровый) (Синема УС)","update":"2021-12-09 07:05:59","iframe_src":"//83.svetacdn.in/PfJ50H0ZBPg3/movie/55085"},{"id":55084,"title":"Теперь ты счастлив?","kp_id":"1285307","imdb_id":"tt10369252","world_art_id":null,"type":"movie","add":"2021-12-08 21:12:33","orig_title":"Are You Happy Now","year":"2021-12-07","translations":["Любительский (многоголосый закадровый) (Синема УС)"],"quality":"webdl","translation":"Любительский (многоголосый закадровый) (Синема УС)","update":"2021-12-09 07:06:24","iframe_src":"//83.svetacdn.in/PfJ50H0ZBPg3/movie/55084"},{"id":55079,"title":"Обрубая концы 2: Маска Маскары","kp_id":"1230345","imdb_id":"tt9595360","world_art_id":null,"type":"movie","add":"2021-12-08 14:20:02","orig_title":"Matando Cabos 2, La Máscara del Máscara","year":"2021-09-30","translations":["Любительский (многоголосый закадровый) (@MUZOBOZ@)"],"quality":"webdl","translation":"Любительский (многоголосый закадровый) (@MUZOBOZ@)","update":"2021-12-08 19:43:51","iframe_src":"//83.svetacdn.in/PfJ50H0ZBPg3/movie/55079"},{"id":55078,"title":"Тренер","kp_id":"1394977","imdb_id":"tt12525600","world_art_id":null,"type":"movie","add":"2021-12-08 14:12:50","orig_title":"The Handler","year":"2021-10-04","translations":["Любительский (многоголосый закадровый) (@MUZOBOZ@)"],"quality":"webdl","translation":"Любительский (многоголосый закадровый) (@MUZOBOZ@)","update":"2021-12-08 22:12:40","iframe_src":"//83.svetacdn.in/PfJ50H0ZBPg3/movie/55078"},{"id":55076,"title":"Лето без мамы","kp_id":"1109953","imdb_id":"tt7654892","world_art_id":null,"type":"movie","add":"2021-12-08 14:06:08","orig_title":"Zomer Zonder Mama","year":"2019-02-23","translations":["Любительский (многоголосый закадровый) (Синема УС)"],"quality":"webdl","translation":"Любительский (многоголосый закадровый) (Синема УС)","update":"2021-12-08 22:11:11","iframe_src":"//83.svetacdn.in/PfJ50H0ZBPg3/movie/55076"},{"id":55071,"title":"Рождество - это ты","kp_id":"4749249","imdb_id":"tt16280514","world_art_id":null,"type":"movie","add":"2021-12-08 12:17:47","orig_title":"Christmas Is You","year":"2021-11-28","translations":["Любительский (многоголосый закадровый) (AlphaProject)"],"quality":"webdl","translation":"Любительский (многоголосый закадровый) (AlphaProject)","update":"2021-12-08 21:27:41","iframe_src":"//83.svetacdn.in/PfJ50H0ZBPg3/movie/55071"},{"id":55069,"title":"Чори","kp_id":"1451353","imdb_id":"tt12861212","world_art_id":null,"type":"movie","add":"2021-12-08 12:15:07","orig_title":"Chhorii","year":"2021-11-25","translations":["Любительский (многоголосый закадровый) (AlphaProject)"],"quality":"webdl","translation":"Любительский (многоголосый закадровый) (AlphaProject)","update":"2021-12-08 21:26:34","iframe_src":"//83.svetacdn.in/PfJ50H0ZBPg3/movie/55069"},{"id":55068,"title":"Добро пожаловать в ад","kp_id":"4404653","imdb_id":"tt14353898","world_art_id":null,"type":"movie","add":"2021-12-08 12:13:49","orig_title":"Bienvenidos al infierno","year":"2021-10-07","translations":["Любительский (многоголосый закадровый) (Синема УС)"],"quality":"webdl","translation":"Любительский (многоголосый закадровый) (Синема УС)","update":"2021-12-08 21:25:23","iframe_src":"//83.svetacdn.in/PfJ50H0ZBPg3/movie/55068"},{"id":55067,"title":"Рождество по-американски","kp_id":"1208594","imdb_id":"tt9104384","world_art_id":null,"type":"movie","add":"2021-12-08 12:10:30","orig_title":"American Christmas","year":"2019-01-01","translations":["Любительский (многоголосый закадровый) (AlphaProject)"],"quality":"webdl","translation":"Любительский (многоголосый закадровый) (AlphaProject)","update":"2021-12-08 21:24:11","iframe_src":"//83.svetacdn.in/PfJ50H0ZBPg3/movie/55067"},{"id":55063,"title":"Семейная тайна","kp_id":"272452","imdb_id":"tt0907843","world_art_id":null,"type":"movie","add":"2021-12-08 05:27:35","orig_title":"Comme des voleurs (à l'est)","year":"2006-10-07","translations":["Авторский (одноголосый закадровый) (Кузнецов Сергей)"],"quality":"dvdrip","translation":"Авторский (одноголосый закадровый) (Кузнецов Сергей)","update":"2021-12-08 17:22:23","iframe_src":"//83.svetacdn.in/PfJ50H0ZBPg3/movie/55063"},{"id":55062,"title":"Стихи для Гаэля","kp_id":null,"imdb_id":"tt9036970","world_art_id":null,"type":"movie","add":"2021-12-08 05:25:54","orig_title":"Poesias Para Gael","year":"2017-11-13","translations":["Любительский (одноголосый закадровый)"],"quality":"webdl","translation":"Любительский (одноголосый закадровый)","update":"2021-12-08 17:19:15","iframe_src":"//83.svetacdn.in/PfJ50H0ZBPg3/movie/55062"},{"id":55061,"title":"Страна каникул","kp_id":"251346","imdb_id":"tt0480048","world_art_id":null,"type":"movie","add":"2021-12-08 05:23:45","orig_title":"Vacationland","year":"2006-02-15","translations":["Любительский (одноголосый закадровый)"],"quality":"dvdrip","translation":"Любительский (одноголосый закадровый)","update":"2021-12-08 17:21:04","iframe_src":"//83.svetacdn.in/PfJ50H0ZBPg3/movie/55061"},{"id":55059,"title":"Пятый сет","kp_id":"1309669","imdb_id":"tt11032810","world_art_id":null,"type":"movie","add":"2021-12-07 21:01:04","orig_title":"Cinquième set","year":"2020-08-30","translations":["Любительский (многоголосый закадровый) (Синема УС)"],"quality":"webdl","translation":"Любительский (многоголосый закадровый) (Синема УС)","update":"2021-12-08 21:16:22","iframe_src":"//83.svetacdn.in/PfJ50H0ZBPg3/movie/55059"},{"id":55056,"title":"Про и контра","kp_id":"1282369","imdb_id":"tt10628092","world_art_id":null,"type":"movie","add":"2021-12-07 20:55:58","orig_title":"Contra","year":"2020-10-01","translations":["Любительский (многоголосый закадровый) (Синема УС)"],"quality":"ts","translation":"Любительский (многоголосый закадровый) (Синема УС)","update":"2021-12-08 21:16:49","iframe_src":"//83.svetacdn.in/PfJ50H0ZBPg3/movie/55056"},{"id":55054,"title":"Человек-буйвол","kp_id":"1303931","imdb_id":"tt10893272","world_art_id":null,"type":"movie","add":"2021-12-07 20:51:30","orig_title":"El Hombre Búfalo","year":"2020-08-28","translations":["Любительский (многоголосый закадровый) (Синема УС)"],"quality":"webdl","translation":"Любительский (многоголосый закадровый) (Синема УС)","update":"2021-12-08 21:17:08","iframe_src":"//83.svetacdn.in/PfJ50H0ZBPg3/movie/55054"},{"id":55053,"title":"Дочери огня","kp_id":"1178851","imdb_id":"tt8805374","world_art_id":null,"type":"movie","add":"2021-12-07 20:49:55","orig_title":"Las hijas del fuego","year":"2018-04-15","translations":["Любительский (многоголосый закадровый) (Синема УС)"],"quality":"webdl","translation":"Любительский (многоголосый закадровый) (Синема УС)","update":"2021-12-08 21:17:36","iframe_src":"//83.svetacdn.in/PfJ50H0ZBPg3/movie/55053"},{"id":55050,"title":"Убийцы монстров","kp_id":"1399481","imdb_id":"tt12894330","world_art_id":null,"type":"movie","add":"2021-12-07 20:44:47","orig_title":"Monster Killers","year":"2020-05-05","translations":["Любительский (многоголосый закадровый) (Синема УС)"],"quality":"webdl","translation":"Любительский (многоголосый закадровый) (Синема УС)","update":"2021-12-08 21:17:58","iframe_src":"//83.svetacdn.in/PfJ50H0ZBPg3/movie/55050"},{"id":54912,"title":"Индия сладкая и перчёная","kp_id":"1249106","imdb_id":"tt9896876","world_art_id":null,"type":"movie","add":"2021-11-29 19:58:09","orig_title":"India Sweets and Spices","year":"2021-10-30","translations":["Любительский (многоголосый закадровый) (Синема УС)"],"quality":"webdl","translation":"Любительский (многоголосый закадровый) (Синема УС)","update":"2021-12-09 07:07:11","iframe_src":"//83.svetacdn.in/PfJ50H0ZBPg3/movie/54912"},{"id":41709,"title":"Зависнуть в Палм-Спрингс","kp_id":"1245524","imdb_id":"tt9484998","world_art_id":null,"type":"movie","add":"2020-07-10 13:58:15","orig_title":"Palm Springs","year":"2020-01-26","translations":["Любительский (многоголосый закадровый) (@MUZOBOZ@)","[EN] Original (English)","Профессиональный (многоголосый закадровый) (HDrezka Studio)","Профессиональный (многоголосый закадровый) (NewStudio)","Профессиональный (многоголосый закадровый) (HDrezka Studio)","Полное дублирование (iTunes)","Профессиональный (многоголосый закадровый) (HDrezka Studio)","Авторский (одноголосый закадровый) (Гоблин | Пучков Дмитрий)","Профессиональный (одноголосый закадровый) (Кураж-Бамбей)","Профессиональный (двухголосый закадровый) (Кубик в Кубе | Kubik³)","Профессиональный (многоголосый закадровый) (HDrezka Studio 18+)","Профессиональный (многоголосый закадровый) (HDrezka Studio)"],"quality":"webdl","translation":"Любительский (многоголосый закадровый) (@MUZOBOZ@)","update":"2021-12-08 17:38:58","iframe_src":"//83.svetacdn.in/PfJ50H0ZBPg3/movie/41709"},{"id":7878,"title":"Смертельный улов","kp_id":"470681","imdb_id":"tt0446809","world_art_id":null,"type":"serial","add":"2020-06-15 10:36:26","orig_title":"Deadliest Catch","year":"2005-04-12","translations":["Профессиональный (двухголосый закадровый)"],"seasons_count":2,"episodes_count":27,"episodes":5,"update":"2020-06-15 17:58:15","iframe_src":"//83.svetacdn.in/PfJ50H0ZBPg3/tv-series/7878"},{"id":7876,"title":"Ключи от прошлого","kp_id":"817930","imdb_id":null,"world_art_id":null,"type":"serial","add":"2020-06-15 10:17:31","orig_title":"Ключи от прошлого","year":"2013-12-23","translations":["Оригинальная дорожка"],"seasons_count":1,"episodes_count":4,"episodes":4,"update":"2020-06-15 17:54:33","iframe_src":"//83.svetacdn.in/PfJ50H0ZBPg3/tv-series/7876"},{"id":7870,"title":"Часы моей жизни: Время, когда я был","kp_id":"818856","imdb_id":"tt3329352","world_art_id":null,"type":"serial","add":"2020-06-15 06:33:31","orig_title":"Boku no ita jikan","year":"2014-01-08","translations":["Любительский (одноголосый закадровый) (GREEN TEA)"],"seasons_count":1,"episodes_count":11,"episodes":11,"update":"2020-06-15 18:12:18","iframe_src":"//83.svetacdn.in/PfJ50H0ZBPg3/tv-series/7870"},{"id":7869,"title":"Очередь за нами","kp_id":"1151371","imdb_id":"tt8478070","world_art_id":null,"type":"serial","add":"2020-06-15 06:24:46","orig_title":"Darisi Basimiza","year":"2018-07-05","translations":["Любительский (двухголосый закадровый) (Sunshine Studio)"],"seasons_count":1,"episodes_count":5,"episodes":5,"update":"2020-06-15 18:07:43","iframe_src":"//83.svetacdn.in/PfJ50H0ZBPg3/tv-series/7869"},{"id":7868,"title":"Шоу про любовь","kp_id":"1387129","imdb_id":null,"world_art_id":null,"type":"serial","add":"2020-06-15 05:40:50","orig_title":"Шоу про любовь","year":"2020-06-13","translations":["Оригинальная дорожка"],"seasons_count":1,"episodes_count":2,"episodes":2,"update":"2020-06-15 17:46:03","iframe_src":"//83.svetacdn.in/PfJ50H0ZBPg3/tv-series/7868"},{"id":7867,"title":"Не жалею, не зову, не плачу","kp_id":"661074","imdb_id":"tt4287930","world_art_id":null,"type":"serial","add":"2020-06-15 03:08:52","orig_title":"Ne zhaleyu, ne zovu, ne plachu","year":"2012-01-28","translations":["Оригинальная дорожка"],"seasons_count":1,"episodes_count":4,"episodes":4,"update":"2020-06-15 05:35:20","iframe_src":"//83.svetacdn.in/PfJ50H0ZBPg3/tv-series/7867"},{"id":7866,"title":"Любовь не делится на два","kp_id":"701735","imdb_id":null,"world_art_id":null,"type":"serial","add":"2020-06-15 03:05:30","orig_title":"Любовь не делится на два","year":"2013-02-10","translations":["Оригинальная дорожка"],"seasons_count":1,"episodes_count":4,"episodes":4,"update":"2020-06-15 05:32:08","iframe_src":"//83.svetacdn.in/PfJ50H0ZBPg3/tv-series/7866"},{"id":7865,"title":"Мелодия на два голоса","kp_id":"929794","imdb_id":null,"world_art_id":null,"type":"serial","add":"2020-06-15 03:02:38","orig_title":"Мелодия на два голоса","year":"2015-09-12","translations":["Оригинальная дорожка"],"seasons_count":1,"episodes_count":2,"episodes":2,"update":"2020-06-15 05:29:32","iframe_src":"//83.svetacdn.in/PfJ50H0ZBPg3/tv-series/7865"},{"id":7864,"title":"Мирт обыкновенный","kp_id":"947025","imdb_id":null,"world_art_id":null,"type":"serial","add":"2020-06-15 02:43:06","orig_title":"Мирт обыкновенный","year":"2013-01-01","translations":["Оригинальная дорожка"],"seasons_count":1,"episodes_count":2,"episodes":2,"update":"2020-06-15 08:18:12","iframe_src":"//83.svetacdn.in/PfJ50H0ZBPg3/tv-series/7864"},{"id":7863,"title":"Проект С.Е.Р.А.","kp_id":"761049","imdb_id":"tt2806258","world_art_id":null,"type":"serial","add":"2020-06-15 02:40:50","orig_title":"Project: SERA","year":"2013-01-30","translations":["Любительский (одноголосый закадровый) (Хихикающий доктор)"],"seasons_count":1,"episodes_count":6,"episodes":6,"update":"2020-06-15 05:24:06","iframe_src":"//83.svetacdn.in/PfJ50H0ZBPg3/tv-series/7863"},{"id":7860,"title":"У вас будет ребёнок","kp_id":"894030","imdb_id":"tt4741506","world_art_id":null,"type":"serial","add":"2020-06-14 06:59:41","orig_title":"U vas budet rebyonok","year":"2014-03-03","translations":["Оригинальная дорожка"],"seasons_count":1,"episodes_count":8,"episodes":8,"update":"2020-06-14 09:17:20","iframe_src":"//83.svetacdn.in/PfJ50H0ZBPg3/tv-series/7860"},{"id":7859,"title":"С любимыми не расстаются","kp_id":"927646","imdb_id":null,"world_art_id":null,"type":"serial","add":"2020-06-14 06:57:08","orig_title":"С любимыми не расстаются","year":"2015-08-29","translations":["Оригинальная дорожка"],"seasons_count":1,"episodes_count":2,"episodes":2,"update":"2020-06-14 09:18:32","iframe_src":"//83.svetacdn.in/PfJ50H0ZBPg3/tv-series/7859"},{"id":7858,"title":"Кукловоды","kp_id":"807473","imdb_id":null,"world_art_id":null,"type":"serial","add":"2020-06-14 05:43:50","orig_title":"Кукловоды","year":"2013-11-09","translations":["Оригинальная дорожка"],"seasons_count":1,"episodes_count":4,"episodes":4,"update":"2020-06-14 09:22:57","iframe_src":"//83.svetacdn.in/PfJ50H0ZBPg3/tv-series/7858"},{"id":7857,"title":"Пансионат «Сказка», или Чудеса включены","kp_id":"957482","imdb_id":null,"world_art_id":null,"type":"serial","add":"2020-06-14 05:41:20","orig_title":"Пансионат «Сказка», или Чудеса включены","year":"2015-12-30","translations":["Оригинальная дорожка"],"seasons_count":1,"episodes_count":4,"episodes":4,"update":"2020-06-14 09:25:09","iframe_src":"//83.svetacdn.in/PfJ50H0ZBPg3/tv-series/7857"},{"id":7836,"title":"Турецкий для начинающих","kp_id":"404939","imdb_id":"tt0469009","world_art_id":null,"type":"serial","add":"2020-06-12 07:48:09","orig_title":"Türkisch für Anfänger","year":"2006-03-14","translations":["Профессиональный (многоголосый закадровый) (MTV)"],"seasons_count":3,"episodes_count":52,"episodes":16,"update":"2020-06-14 17:19:44","iframe_src":"//83.svetacdn.in/PfJ50H0ZBPg3/tv-series/7836"},{"id":7835,"title":"Первая волна","kp_id":"271679","imdb_id":"tt0160277","world_art_id":null,"type":"serial","add":"2020-06-12 06:04:42","orig_title":"First Wave","year":"1998-09-09","translations":["Профессиональный (многоголосый закадровый) (ТВ6)","Профессиональный (многоголосый закадровый)"],"seasons_count":3,"episodes_count":66,"episodes":22,"update":"2020-06-14 18:14:32","iframe_src":"//83.svetacdn.in/PfJ50H0ZBPg3/tv-series/7835"},{"id":7386,"title":"Самогонщики","kp_id":"686346","imdb_id":"tt1877005","world_art_id":null,"type":"serial","add":"2020-05-04 09:08:52","orig_title":"Moonshiners","year":"2011-12-06","translations":["Профессиональный (двухголосый закадровый)"],"seasons_count":1,"episodes_count":18,"episodes":18,"update":"2020-06-15 17:48:41","iframe_src":"//83.svetacdn.in/PfJ50H0ZBPg3/tv-series/7386"},{"id":29847,"title":"Затянувшаяся расплата","kp_id":"677424","imdb_id":"tt2357489","world_art_id":null,"type":"movie","add":"2019-08-08 13:13:46","orig_title":"Zanjeer","year":"2013-09-05","translations":["Профессиональный (многоголосый закадровый) (ZEE TV)","Любительский (многоголосый закадровый) (ICG)","Профессиональный (двухголосый закадровый) (Ульпаней Эльром)"],"quality":"webdl","translation":"Профессиональный (многоголосый закадровый) (ZEE TV)","update":"2021-12-08 21:29:11","iframe_src":"//83.svetacdn.in/PfJ50H0ZBPg3/movie/29847"},{"id":4430,"title":"Мунч","kp_id":"1252729","imdb_id":"tt6206160","world_art_id":null,"type":"serial","add":"2019-05-01 03:32:44","orig_title":"Munch","year":"2016-10-02","translations":["Профессиональный (многоголосый закадровый) (FOX)"],"seasons_count":3,"episodes_count":24,"episodes":6,"update":"2020-06-15 17:52:54","iframe_src":"//83.svetacdn.in/PfJ50H0ZBPg3/tv-series/4430"},{"id":760,"title":"Белая ворона","kp_id":"986645","imdb_id":"tt5024912","world_art_id":null,"type":"serial","add":"2016-12-29 19:13:14","orig_title":"Insecure","year":"2016-10-09","translations":["Профессиональный (многоголосый закадровый) (Amedia)","Любительский (двухголосый закадровый) (Sunshine Studio)","Любительский (многоголосый закадровый) (ColdFilm)"],"seasons_count":4,"episodes_count":34,"episodes":10,"update":"2020-06-15 17:18:30","iframe_src":"//83.svetacdn.in/PfJ50H0ZBPg3/tv-series/760"},{"id":98,"title":"Марчелла","kp_id":"971144","imdb_id":"tt5269594","world_art_id":null,"type":"serial","add":"2016-05-26 05:38:12","orig_title":"Marcella","year":"2016-04-04","translations":["Профессиональный (многоголосый закадровый) (Jaskier)","Любительский (многоголосый закадровый) (Octopus)","Любительский (многоголосый закадровый) (ColdFilm)","Профессиональный (двухголосый закадровый) (IdeaFilm)"],"seasons_count":3,"episodes_count":24,"episodes":8,"update":"2020-06-15 18:04:33","iframe_src":"//83.svetacdn.in/PfJ50H0ZBPg3/tv-series/98"}],"current_page":321,"first_page_url":"https://videocdn.tv/api/short?limit=100&api_token=RgFQdUIR2dRmwv8iYa5SnFNgnw3vpjKj&cache3321=3321&page=1","from":32001,"last_page":719,"last_page_url":"https://videocdn.tv/api/short?limit=100&api_token=RgFQdUIR2dRmwv8iYa5SnFNgnw3vpjKj&cache3321=3321&page=719","next_page_url":"https://videocdn.tv/api/short?limit=100&api_token=RgFQdUIR2dRmwv8iYa5SnFNgnw3vpjKj&cache3321=3321&page=322","path":"https://videocdn.tv/api/short","per_page":100,"prev_page_url":"https://videocdn.tv/api/short?limit=100&api_token=RgFQdUIR2dRmwv8iYa5SnFNgnw3vpjKj&cache3321=3321&page=320","to":32040,"total":71819}