{"result":true,"data":[{"id":49916,"title":"Невиновность","kp_id":null,"imdb_id":"tt7723022","world_art_id":null,"type":"movie","add":"2021-04-26 16:08:13","orig_title":"Nirdosh","year":"2018-01-19","translations":["Любительский (многоголосый закадровый) (FanStudio)"],"quality":"webdl","translation":"Любительский (многоголосый закадровый) (FanStudio)","update":"2021-04-26 19:05:57","iframe_src":"//8944266443434.svetacdn.in/PfJ50H0ZBPg3/movie/49916"},{"id":49901,"title":"Царь-птица","kp_id":"1117970","imdb_id":"tt9159838","world_art_id":null,"type":"movie","add":"2021-04-26 07:58:55","orig_title":"Toyon kyyl","year":"2018-04-23","translations":["Любительский (двухголосый закадровый) (Храм тысячи струн)"],"quality":"webdl","translation":"Любительский (двухголосый закадровый) (Храм тысячи струн)","update":"2021-04-26 10:52:35","iframe_src":"//8944266443434.svetacdn.in/PfJ50H0ZBPg3/movie/49901"},{"id":49900,"title":"Бойцовская птица 2","kp_id":"1122210","imdb_id":"tt7938444","world_art_id":null,"type":"movie","add":"2021-04-26 06:19:03","orig_title":"Sandakozhi 2","year":"2018-10-18","translations":["Любительский (многоголосый закадровый) (OnisFilms)"],"quality":"webdl","translation":"Любительский (многоголосый закадровый) (OnisFilms)","update":"2021-04-26 15:48:19","iframe_src":"//8944266443434.svetacdn.in/PfJ50H0ZBPg3/movie/49900"},{"id":49899,"title":"Как не просто любить","kp_id":"224851","imdb_id":"tt0277446","world_art_id":null,"type":"movie","add":"2021-04-26 06:15:05","orig_title":"Yeh Ishq Nahin Aasaan","year":"1984-12-21","translations":["Любительский (одноголосый закадровый)"],"quality":"dvdrip","translation":"Любительский (одноголосый закадровый)","update":"2021-04-26 15:47:53","iframe_src":"//8944266443434.svetacdn.in/PfJ50H0ZBPg3/movie/49899"},{"id":49897,"title":"Бриллиант моего сердца","kp_id":"224968","imdb_id":"tt0215717","world_art_id":null,"type":"movie","add":"2021-04-26 06:05:19","orig_title":"Dil Kaa Heera","year":"1979-03-30","translations":["Любительский (двухголосый закадровый)"],"quality":"webdl","translation":"Любительский (двухголосый закадровый)","update":"2021-04-26 15:47:34","iframe_src":"//8944266443434.svetacdn.in/PfJ50H0ZBPg3/movie/49897"},{"id":49896,"title":"Борьба с жизнью","kp_id":"97416","imdb_id":"tt0279709","world_art_id":null,"type":"movie","add":"2021-04-26 05:47:17","orig_title":"Budget Padmanabham","year":"2001-03-09","translations":["Профессиональный (двухголосый закадровый)"],"quality":"hdtv","translation":"Профессиональный (двухголосый закадровый)","update":"2021-04-26 15:46:03","iframe_src":"//8944266443434.svetacdn.in/PfJ50H0ZBPg3/movie/49896"},{"id":49889,"title":"Эта чёртова любовь","kp_id":"1295922","imdb_id":"tt10443846","world_art_id":null,"type":"movie","add":"2021-04-26 04:05:23","orig_title":"Yeh Saali Aashiqui","year":"2019-11-29","translations":["Любительский (многоголосый закадровый) (FanStudio)"],"quality":"hdrip","translation":"Любительский (многоголосый закадровый) (FanStudio)","update":"2021-04-26 10:52:46","iframe_src":"//8944266443434.svetacdn.in/PfJ50H0ZBPg3/movie/49889"},{"id":49887,"title":"Призрак Мэри","kp_id":"1233612","imdb_id":"tt8783154","world_art_id":null,"type":"movie","add":"2021-04-25 20:11:28","orig_title":"Phantom Mary","year":"2019-10-01","translations":["Любительский (многоголосый закадровый) (Синема УС)"],"quality":"webdl","translation":"Любительский (многоголосый закадровый) (Синема УС)","update":"2021-04-26 21:21:52","iframe_src":"//8944266443434.svetacdn.in/PfJ50H0ZBPg3/movie/49887"},{"id":49884,"title":"Долина слепых","kp_id":null,"imdb_id":"tt12943084","world_art_id":null,"type":"movie","add":"2021-04-25 20:05:21","orig_title":"Valley of the Blind","year":"2019-10-18","translations":["Любительский (многоголосый закадровый) (Синема УС)"],"quality":"webdl","translation":"Любительский (многоголосый закадровый) (Синема УС)","update":"2021-04-26 21:19:22","iframe_src":"//8944266443434.svetacdn.in/PfJ50H0ZBPg3/movie/49884"},{"id":49883,"title":"Урок для негра","kp_id":"1184426","imdb_id":"tt8831150","world_art_id":null,"type":"movie","add":"2021-04-25 20:02:12","orig_title":"The Education of a Negro","year":"2019-06-30","translations":["Любительский (многоголосый закадровый) (Синема УС)"],"quality":"webdl","translation":"Любительский (многоголосый закадровый) (Синема УС)","update":"2021-04-26 21:17:30","iframe_src":"//8944266443434.svetacdn.in/PfJ50H0ZBPg3/movie/49883"},{"id":49882,"title":"Сяо Мэй","kp_id":null,"imdb_id":"tt7996560","world_art_id":null,"type":"movie","add":"2021-04-25 19:59:26","orig_title":"Xiao Mei","year":"2018-12-01","translations":["Любительский (многоголосый закадровый) (Синема УС)"],"quality":"webdl","translation":"Любительский (многоголосый закадровый) (Синема УС)","update":"2021-04-26 21:12:39","iframe_src":"//8944266443434.svetacdn.in/PfJ50H0ZBPg3/movie/49882"},{"id":49881,"title":"Большая игра","kp_id":"1232227","imdb_id":"tt9573186","world_art_id":null,"type":"movie","add":"2021-04-25 19:57:31","orig_title":"The Great Charade","year":"2019-12-08","translations":["Любительский (многоголосый закадровый) (Синема УС)"],"quality":"webdl","translation":"Любительский (многоголосый закадровый) (Синема УС)","update":"2021-04-26 21:11:10","iframe_src":"//8944266443434.svetacdn.in/PfJ50H0ZBPg3/movie/49881"},{"id":49879,"title":"Я зависим","kp_id":"1184156","imdb_id":"tt8694668","world_art_id":null,"type":"movie","add":"2021-04-25 18:54:04","orig_title":"I Am an Addict","year":"2019-11-16","translations":["Любительский (многоголосый закадровый) (Синема УС)"],"quality":"webdl","translation":"Любительский (многоголосый закадровый) (Синема УС)","update":"2021-04-26 10:33:56","iframe_src":"//8944266443434.svetacdn.in/PfJ50H0ZBPg3/movie/49879"},{"id":49878,"title":"Губернатор Гэбби","kp_id":"1075127","imdb_id":"tt6970194","world_art_id":null,"type":"movie","add":"2021-04-25 18:50:11","orig_title":"Governor Gabbi","year":"2017-12-12","translations":["Любительский (многоголосый закадровый) (Синема УС)"],"quality":"webdl","translation":"Любительский (многоголосый закадровый) (Синема УС)","update":"2021-04-26 10:58:32","iframe_src":"//8944266443434.svetacdn.in/PfJ50H0ZBPg3/movie/49878"},{"id":49876,"title":"Тяжелая любовь","kp_id":"1181788","imdb_id":"tt8790694","world_art_id":null,"type":"movie","add":"2021-04-25 18:42:39","orig_title":"Amores de Chumbo","year":"2017-10-01","translations":["Любительский (многоголосый закадровый) (Синема УС)"],"quality":"webdl","translation":"Любительский (многоголосый закадровый) (Синема УС)","update":"2021-04-26 11:14:03","iframe_src":"//8944266443434.svetacdn.in/PfJ50H0ZBPg3/movie/49876"},{"id":49875,"title":"Угнать автобус","kp_id":null,"imdb_id":"tt10279092","world_art_id":null,"type":"movie","add":"2021-04-25 18:33:51","orig_title":"Away Bus","year":"2019-01-01","translations":["Любительский (многоголосый закадровый) (Синема УС)"],"quality":"webdl","translation":"Любительский (многоголосый закадровый) (Синема УС)","update":"2021-04-26 10:29:57","iframe_src":"//8944266443434.svetacdn.in/PfJ50H0ZBPg3/movie/49875"},{"id":49874,"title":"Жизнь Грейс","kp_id":"1167017","imdb_id":"tt8126072","world_art_id":null,"type":"movie","add":"2021-04-25 18:31:19","orig_title":"Being Grace","year":"2021-03-19","translations":["Любительский (многоголосый закадровый) (AlphaProject)"],"quality":"webdl","translation":"Любительский (многоголосый закадровый) (AlphaProject)","update":"2021-04-26 10:25:15","iframe_src":"//8944266443434.svetacdn.in/PfJ50H0ZBPg3/movie/49874"},{"id":49866,"title":"Рухи","kp_id":"1254924","imdb_id":"tt10098288","world_art_id":null,"type":"movie","add":"2021-04-25 06:32:56","orig_title":"Roohi","year":"2021-03-11","translations":["Любительский (многоголосый закадровый) (Honey&Haseena)","Любительский (многоголосый закадровый) (OnisFilms)"],"quality":"webdl","translation":"Любительский (многоголосый закадровый) (Honey&Haseena)","update":"2021-04-26 11:57:14","iframe_src":"//8944266443434.svetacdn.in/PfJ50H0ZBPg3/movie/49866"},{"id":49786,"title":"Столкновение","kp_id":"384163","imdb_id":"tt0497573","world_art_id":null,"type":"movie","add":"2021-04-21 15:12:41","orig_title":"Sandai Kozhi","year":"2005-12-16","translations":["Любительский (многоголосый закадровый) (OnisFilms)"],"quality":"webdl","translation":"Любительский (многоголосый закадровый) (OnisFilms)","update":"2021-04-26 16:11:25","iframe_src":"//8944266443434.svetacdn.in/PfJ50H0ZBPg3/movie/49786"},{"id":49308,"title":"Пей Убевай Люби","kp_id":"1002045","imdb_id":"tt5932156","world_art_id":null,"type":"movie","add":"2021-04-03 12:06:17","orig_title":"Drink Slay Love","year":"2017-09-16","translations":["Любительский (многоголосый закадровый) (Синема УС)"],"quality":"webdl","translation":"Любительский (многоголосый закадровый) (Синема УС)","update":"2021-04-26 10:53:18","iframe_src":"//8944266443434.svetacdn.in/PfJ50H0ZBPg3/movie/49308"}],"current_page":755,"first_page_url":"https://videocdn.tv/api/short?limit=100&api_token=RgFQdUIR2dRmwv8iYa5SnFNgnw3vpjKj&cache3755=3755&page=1","from":75401,"last_page":729,"last_page_url":"https://videocdn.tv/api/short?limit=100&api_token=RgFQdUIR2dRmwv8iYa5SnFNgnw3vpjKj&cache3755=3755&page=729","next_page_url":null,"path":"https://videocdn.tv/api/short","per_page":100,"prev_page_url":"https://videocdn.tv/api/short?limit=100&api_token=RgFQdUIR2dRmwv8iYa5SnFNgnw3vpjKj&cache3755=3755&page=754","to":75420,"total":72860}