{"result":true,"data":[{"id":44675,"title":"Убийца в лагере чирлидинга","kp_id":"1419535","imdb_id":"tt13122232","world_art_id":null,"type":"movie","add":"2020-10-22 09:22:37","orig_title":"Cheer Camp Killer","year":"2020-10-10","translations":["Любительский (многоголосый закадровый) (AlphaProject)"],"quality":"webdl","translation":"Любительский (многоголосый закадровый) (AlphaProject)","update":"2020-10-22 12:05:11","iframe_src":"//8543.svetacdn.in/si4jsFRrtgrT/movie/44675"},{"id":44635,"title":"Речная крыса","kp_id":"22944","imdb_id":"tt0088006","world_art_id":null,"type":"movie","add":"2020-10-20 17:45:06","orig_title":"The River Rat","year":"1984-09-28","translations":["Профессиональный (многоголосый закадровый)"],"quality":"sat","translation":"Профессиональный (многоголосый закадровый)","update":"2020-10-22 09:52:33","iframe_src":"//8543.svetacdn.in/si4jsFRrtgrT/movie/44635"},{"id":44634,"title":"История пионового фонаря — невеста из ада","kp_id":"362632","imdb_id":"tt0163985","world_art_id":null,"type":"movie","add":"2020-10-20 17:43:23","orig_title":"Botan-dorô","year":"1968-06-15","translations":["Любительский (одноголосый закадровый) (Воротилин Олег)"],"quality":"dvdrip","translation":"Любительский (одноголосый закадровый) (Воротилин Олег)","update":"2020-10-22 09:50:48","iframe_src":"//8543.svetacdn.in/si4jsFRrtgrT/movie/44634"},{"id":44633,"title":"Не вижу смерти","kp_id":"1275173","imdb_id":"tt10504904","world_art_id":null,"type":"movie","add":"2020-10-20 17:31:36","orig_title":"Blind","year":"2019-07-10","translations":["Полное дублирование (iTunes)"],"quality":"webdl","translation":"Полное дублирование (iTunes)","update":"2020-10-22 11:47:20","iframe_src":"//8543.svetacdn.in/si4jsFRrtgrT/movie/44633"},{"id":44630,"title":"Тайны дворцовых переворотов. Россия, век XVIII. Фильм 6. Смерть юного императора","kp_id":"450325","imdb_id":"tt3905802","world_art_id":null,"type":"movie","add":"2020-10-20 14:38:15","orig_title":"Smert yunogo imperatora","year":"2003-01-01","translations":["Оригинальная дорожка"],"quality":"webdl","translation":"Оригинальная дорожка","update":"2020-10-22 13:17:11","iframe_src":"//8543.svetacdn.in/si4jsFRrtgrT/movie/44630"},{"id":44629,"title":"Тайны дворцовых переворотов. Россия, век XVIII. Фильм 5. Вторая невеста императора","kp_id":"450168","imdb_id":"tt3240208","world_art_id":null,"type":"movie","add":"2020-10-20 14:37:27","orig_title":"Vtoraya nevesta imperatora","year":"2003-01-01","translations":["Оригинальная дорожка"],"quality":"webdl","translation":"Оригинальная дорожка","update":"2020-10-22 13:18:07","iframe_src":"//8543.svetacdn.in/si4jsFRrtgrT/movie/44629"},{"id":44628,"title":"Тайны дворцовых переворотов. Россия, век XVIII. Фильм 4. Падение Голиафа","kp_id":"449852","imdb_id":"tt4326660","world_art_id":null,"type":"movie","add":"2020-10-20 14:35:48","orig_title":"Padenie Goliatha","year":"2001-01-01","translations":["Оригинальная дорожка"],"quality":"webdl","translation":"Оригинальная дорожка","update":"2020-10-22 13:19:40","iframe_src":"//8543.svetacdn.in/si4jsFRrtgrT/movie/44628"},{"id":44624,"title":"Смерть в старом особняке","kp_id":"99777","imdb_id":"tt0170011","world_art_id":null,"type":"movie","add":"2020-10-20 12:46:18","orig_title":"Honjin satsujin jiken","year":"1976-06-01","translations":["Любительский (одноголосый закадровый) (Воротилин Олег)"],"quality":"dvdrip","translation":"Любительский (одноголосый закадровый) (Воротилин Олег)","update":"2020-10-22 09:48:16","iframe_src":"//8543.svetacdn.in/si4jsFRrtgrT/movie/44624"},{"id":44606,"title":"Мир Людовика","kp_id":"346091","imdb_id":"tt0134208","world_art_id":null,"type":"movie","add":"2020-10-19 19:57:10","orig_title":"De wereld van Ludovic","year":"1993-02-02","translations":["Любительский (одноголосый закадровый)"],"quality":"sat","translation":"Любительский (одноголосый закадровый)","update":"2020-10-22 09:41:40","iframe_src":"//8543.svetacdn.in/si4jsFRrtgrT/movie/44606"},{"id":44600,"title":"Откровенное признание","kp_id":"61313","imdb_id":"tt0363532","world_art_id":null,"type":"movie","add":"2020-10-19 18:00:30","orig_title":"Confidences trop intimes","year":"2004-02-06","translations":["Профессиональный (многоголосый закадровый)"],"quality":"webdl","translation":"Профессиональный (многоголосый закадровый)","update":"2020-10-22 09:29:55","iframe_src":"//8543.svetacdn.in/si4jsFRrtgrT/movie/44600"},{"id":44491,"title":"Отт Тянак","kp_id":"1361482","imdb_id":"tt9904844","world_art_id":null,"type":"movie","add":"2020-10-16 09:31:25","orig_title":"Ott Tänak: The Movie","year":"2019-04-11","translations":["Любительский (многоголосый закадровый) (Синема УС)"],"quality":"webdl","translation":"Любительский (многоголосый закадровый) (Синема УС)","update":"2020-10-22 09:45:24","iframe_src":"//8543.svetacdn.in/si4jsFRrtgrT/movie/44491"},{"id":44458,"title":"Чрезвычайное положение","kp_id":"1319374","imdb_id":"tt11214690","world_art_id":null,"type":"movie","add":"2020-10-15 09:34:31","orig_title":"États d'Urgence","year":"2019-10-30","translations":["Любительский (многоголосый закадровый) (Синема УС)"],"quality":"hdtv","translation":"Любительский (многоголосый закадровый) (Синема УС)","update":"2020-10-22 09:20:33","iframe_src":"//8543.svetacdn.in/si4jsFRrtgrT/movie/44458"},{"id":44451,"title":"Пылающие сердца","kp_id":"708180","imdb_id":"tt2402578","world_art_id":null,"type":"movie","add":"2020-10-15 07:50:22","orig_title":"Jimmy Jones","year":"2018-07-02","translations":["Любительский (многоголосый закадровый) (Синема УС)"],"quality":"webdl","translation":"Любительский (многоголосый закадровый) (Синема УС)","update":"2020-10-22 09:20:18","iframe_src":"//8543.svetacdn.in/si4jsFRrtgrT/movie/44451"},{"id":42165,"title":"Без любви","kp_id":"10777","imdb_id":"tt0038256","world_art_id":null,"type":"movie","add":"2020-07-31 16:28:17","orig_title":"Without Love","year":"1945-03-22","translations":["Авторский (одноголосый закадровый) (Яковлев Алексей)","Original (English)"],"quality":"webdl","translation":"Авторский (одноголосый закадровый) (Яковлев Алексей)","update":"2020-10-22 07:27:13","iframe_src":"//8543.svetacdn.in/si4jsFRrtgrT/movie/42165"},{"id":42164,"title":"Башмаки рыбака","kp_id":"10191","imdb_id":"tt0063599","world_art_id":null,"type":"movie","add":"2020-07-31 16:26:57","orig_title":"The Shoes of the Fisherman","year":"1968-11-14","translations":["Любительский (одноголосый закадровый)","Original (English)"],"quality":"webdl","translation":"Любительский (одноголосый закадровый)","update":"2020-10-22 07:26:02","iframe_src":"//8543.svetacdn.in/si4jsFRrtgrT/movie/42164"},{"id":42163,"title":"Рёв мыши","kp_id":"20186","imdb_id":"tt0053084","world_art_id":null,"type":"movie","add":"2020-07-31 16:24:52","orig_title":"The Mouse That Roared","year":"1959-07-17","translations":["Профессиональный (многоголосый закадровый)","Original (English)"],"quality":"webdl","translation":"Профессиональный (многоголосый закадровый)","update":"2020-10-22 07:24:55","iframe_src":"//8543.svetacdn.in/si4jsFRrtgrT/movie/42163"},{"id":42161,"title":"Данвичский ужас","kp_id":"412357","imdb_id":"tt1226752","world_art_id":null,"type":"movie","add":"2020-07-31 16:21:20","orig_title":"The Dunwich Horror","year":"2009-12-13","translations":["Авторский (одноголосый закадровый) (Дольский Андрей)","Original (English)"],"quality":"webdl","translation":"Авторский (одноголосый закадровый) (Дольский Андрей)","update":"2020-10-22 07:23:58","iframe_src":"//8543.svetacdn.in/si4jsFRrtgrT/movie/42161"},{"id":42160,"title":"Свадебный завтрак","kp_id":"13236","imdb_id":"tt0049061","world_art_id":null,"type":"movie","add":"2020-07-31 16:19:28","orig_title":"The Catered Affair","year":"1956-05-30","translations":["Профессиональный (многоголосый закадровый) (Акцент)","Original (English)"],"quality":"webdl","translation":"Профессиональный (многоголосый закадровый) (Акцент)","update":"2020-10-22 07:17:31","iframe_src":"//8543.svetacdn.in/si4jsFRrtgrT/movie/42160"},{"id":42159,"title":"Братство справедливости","kp_id":"94122","imdb_id":"tt0090775","world_art_id":null,"type":"movie","add":"2020-07-31 16:17:59","orig_title":"The Brotherhood of Justice","year":"1986-05-18","translations":["Профессиональный (многоголосый закадровый)","Original (English)"],"quality":"webdl","translation":"Профессиональный (многоголосый закадровый)","update":"2020-10-22 07:16:08","iframe_src":"//8543.svetacdn.in/si4jsFRrtgrT/movie/42159"},{"id":5584,"title":"Шангри-Ла","kp_id":"1274828","imdb_id":"tt9648804","world_art_id":null,"type":"serial","add":"2019-10-30 19:29:03","orig_title":"Shangri-La","year":"2019-07-12","translations":["Профессиональный (многоголосый закадровый) (HDrezka Studio)"],"seasons_count":1,"episodes_count":4,"episodes":4,"update":"2019-10-31 17:32:25","iframe_src":"//8543.svetacdn.in/si4jsFRrtgrT/tv-series/5584"},{"id":5577,"title":"Монсон","kp_id":"1247081","imdb_id":"tt9852660","world_art_id":null,"type":"serial","add":"2019-10-30 09:34:52","orig_title":"Monzón","year":"2019-06-17","translations":["Профессиональный (многоголосый закадровый) (BaibaKo)"],"seasons_count":1,"episodes_count":13,"episodes":13,"update":"2019-10-30 23:02:18","iframe_src":"//8543.svetacdn.in/si4jsFRrtgrT/tv-series/5577"},{"id":5575,"title":"Новая жизнь сыщика Гурова. Продолжение","kp_id":"577374","imdb_id":"tt4741480","world_art_id":null,"type":"serial","add":"2019-10-29 20:47:46","orig_title":"Novaya zhizn' syshchika Gurova. Prodolzheniye","year":"2011-01-01","translations":["Оригинальная дорожка"],"seasons_count":1,"episodes_count":32,"episodes":32,"update":"2019-10-30 18:48:39","iframe_src":"//8543.svetacdn.in/si4jsFRrtgrT/tv-series/5575"},{"id":5574,"title":"Галерея Вельвет","kp_id":"774331","imdb_id":"tt2955402","world_art_id":null,"type":"serial","add":"2019-10-29 20:01:30","orig_title":"Velvet","year":"2014-01-17","translations":["Профессиональный (многоголосый закадровый) (SET)"],"seasons_count":4,"episodes_count":55,"episodes":11,"update":"2019-10-30 20:40:54","iframe_src":"//8543.svetacdn.in/si4jsFRrtgrT/tv-series/5574"},{"id":5566,"title":"Одиссея сыщика Гурова","kp_id":"728175","imdb_id":"tt4763372","world_art_id":null,"type":"serial","add":"2019-10-29 07:40:16","orig_title":"Odisseya syshchika Gurova","year":"2012-01-01","translations":["Оригинальная дорожка"],"seasons_count":1,"episodes_count":24,"episodes":24,"update":"2019-10-30 23:14:49","iframe_src":"//8543.svetacdn.in/si4jsFRrtgrT/tv-series/5566"},{"id":5555,"title":"Свидания","kp_id":"772255","imdb_id":"tt2964118","world_art_id":null,"type":"serial","add":"2019-10-28 12:09:34","orig_title":"Dates","year":"2013-06-10","translations":["Любительский (двухголосый закадровый)"],"seasons_count":1,"episodes_count":9,"episodes":9,"update":"2019-10-30 20:54:44","iframe_src":"//8543.svetacdn.in/si4jsFRrtgrT/tv-series/5555"},{"id":5553,"title":"Визит к Минотавру","kp_id":"161175","imdb_id":"tt0092477","world_art_id":null,"type":"serial","add":"2019-10-28 10:47:50","orig_title":"Vizit k Minotavru","year":"1987-11-01","translations":["Оригинальная дорожка"],"seasons_count":1,"episodes_count":5,"episodes":5,"update":"2019-10-30 19:34:34","iframe_src":"//8543.svetacdn.in/si4jsFRrtgrT/tv-series/5553"},{"id":5552,"title":"Что останется после тебя?","kp_id":"778987","imdb_id":"tt2649588","world_art_id":null,"type":"serial","add":"2019-10-28 10:43:55","orig_title":"What Remains","year":"2013-08-25","translations":["Профессиональный (многоголосый закадровый)"],"seasons_count":1,"episodes_count":4,"episodes":4,"update":"2019-10-30 19:36:52","iframe_src":"//8543.svetacdn.in/si4jsFRrtgrT/tv-series/5552"},{"id":5551,"title":"Ирландцы в Лондоне","kp_id":"804169","imdb_id":"tt3183264","world_art_id":null,"type":"serial","add":"2019-10-28 10:39:32","orig_title":"London Irish","year":"2013-09-23","translations":["Любительский (многоголосый закадровый)"],"seasons_count":1,"episodes_count":6,"episodes":6,"update":"2019-10-30 23:32:46","iframe_src":"//8543.svetacdn.in/si4jsFRrtgrT/tv-series/5551"},{"id":5530,"title":"Миксология","kp_id":"739612","imdb_id":"tt2727600","world_art_id":null,"type":"serial","add":"2019-10-25 20:47:35","orig_title":"Mixology","year":"2014-02-26","translations":["Любительский (двухголосый закадровый) (Victory-Films)"],"seasons_count":1,"episodes_count":13,"episodes":13,"update":"2019-10-30 22:35:39","iframe_src":"//8543.svetacdn.in/si4jsFRrtgrT/tv-series/5530"},{"id":5529,"title":"Тайны острова Мако","kp_id":"724244","imdb_id":"tt2548214","world_art_id":null,"type":"serial","add":"2019-10-25 19:00:54","orig_title":"Mako Mermaids","year":"2013-07-26","translations":["Полное дублирование (Disney Channel)"],"seasons_count":2,"episodes_count":52,"episodes":26,"update":"2019-10-30 22:32:33","iframe_src":"//8543.svetacdn.in/si4jsFRrtgrT/tv-series/5529"},{"id":5501,"title":"Мосгаз. Новое дело майора Черкасова","kp_id":"1313211","imdb_id":"tt11128352","world_art_id":null,"type":"serial","add":"2019-10-22 08:05:03","orig_title":"Mosgaz. Novoye delo mayora Cherkasova","year":"2019-10-21","translations":["Оригинальная дорожка"],"seasons_count":1,"episodes_count":8,"episodes":8,"update":"2019-11-01 14:11:19","iframe_src":"//8543.svetacdn.in/si4jsFRrtgrT/tv-series/5501"},{"id":5466,"title":"Чёрная стерва","kp_id":"1217675","imdb_id":"tt9318588","world_art_id":null,"type":"serial","add":"2019-10-14 19:41:23","orig_title":"Total Control","year":"2019-10-13","translations":["Любительский (многоголосый закадровый) (Octopus)"],"seasons_count":1,"episodes_count":3,"episodes":3,"update":"2019-11-01 12:43:31","iframe_src":"//8543.svetacdn.in/si4jsFRrtgrT/tv-series/5466"},{"id":5397,"title":"Екатерина Великая","kp_id":"1115126","imdb_id":"tt7243884","world_art_id":null,"type":"serial","add":"2019-10-06 04:51:31","orig_title":"Catherine the Great","year":"2019-10-03","translations":["Профессиональный (двухголосый закадровый) (IdeaFilm)","Профессиональный (многоголосый закадровый) (Amedia)","Профессиональный (многоголосый закадровый) (HDrezka Studio)"],"seasons_count":1,"episodes_count":4,"episodes":4,"update":"2019-10-31 17:14:56","iframe_src":"//8543.svetacdn.in/si4jsFRrtgrT/tv-series/5397"},{"id":5194,"title":"Кавалеры Морской Звезды","kp_id":"85040","imdb_id":"tt0420417","world_art_id":null,"type":"serial","add":"2019-09-13 10:16:08","orig_title":"Kavalery Morskoy Zvezdy","year":"2004-07-15","translations":["Оригинальная дорожка"],"seasons_count":1,"episodes_count":8,"episodes":8,"update":"2019-10-31 13:02:07","iframe_src":"//8543.svetacdn.in/si4jsFRrtgrT/tv-series/5194"},{"id":5040,"title":"Почему женщины убивают","kp_id":"1197956","imdb_id":"tt9054904","world_art_id":null,"type":"serial","add":"2019-08-16 11:38:29","orig_title":"Why Women Kill","year":"2019-07-21","translations":["Любительский (многоголосый закадровый) (Octopus)","Профессиональный (многоголосый закадровый) (TVShows)","Профессиональный (многоголосый закадровый) (NewStudio)","Профессиональный (многоголосый закадровый) (LostFilm)","Профессиональный (многоголосый закадровый) (HDrezka Studio)"],"seasons_count":1,"episodes_count":10,"episodes":10,"update":"2019-10-31 17:12:33","iframe_src":"//8543.svetacdn.in/si4jsFRrtgrT/tv-series/5040"},{"id":4984,"title":"Маримар","kp_id":"260953","imdb_id":"tt0130410","world_art_id":null,"type":"serial","add":"2019-08-01 11:24:38","orig_title":"Marimar","year":"1994-01-31","translations":["Любительский (одноголосый закадровый) (Мадлен Дюваль)"],"seasons_count":1,"episodes_count":29,"episodes":29,"update":"2019-10-30 17:55:59","iframe_src":"//8543.svetacdn.in/si4jsFRrtgrT/tv-series/4984"},{"id":4945,"title":"Другая жизнь","kp_id":"1146373","imdb_id":"tt8369840","world_art_id":null,"type":"serial","add":"2019-07-25 13:22:37","orig_title":"Another Life","year":"2019-07-25","translations":["Профессиональный (многоголосый закадровый) (Пифагор)","Профессиональный (многоголосый закадровый) (LostFilm)","Профессиональный (многоголосый закадровый) (HDrezka Studio)"],"seasons_count":1,"episodes_count":10,"episodes":10,"update":"2019-10-31 16:24:04","iframe_src":"//8543.svetacdn.in/si4jsFRrtgrT/tv-series/4945"},{"id":4771,"title":"Самый громкий голос","kp_id":"1162901","imdb_id":"tt6821044","world_art_id":null,"type":"serial","add":"2019-07-01 11:58:49","orig_title":"The Loudest Voice","year":"2019-06-30","translations":["Любительский (многоголосый закадровый) (Octopus)","Профессиональный (многоголосый закадровый) (NewStudio)","Профессиональный (многоголосый закадровый) (Amedia)","Профессиональный (многоголосый закадровый) (HDrezka Studio)"],"seasons_count":1,"episodes_count":7,"episodes":7,"update":"2019-10-31 16:43:31","iframe_src":"//8543.svetacdn.in/si4jsFRrtgrT/tv-series/4771"},{"id":2072,"title":"Твое милое личико отправится в ад","kp_id":"993187","imdb_id":"tt2362694","world_art_id":null,"type":"serial","add":"2018-02-12 12:40:42","orig_title":"Your Pretty Face Is Going to Hell","year":"2013-04-18","translations":["Любительский (одноголосый закадровый) (Jimmy J.)"],"seasons_count":4,"episodes_count":42,"episodes":12,"update":"2019-10-30 21:20:32","iframe_src":"//8543.svetacdn.in/si4jsFRrtgrT/tv-series/2072"},{"id":6486,"title":"Лучшие времена","kp_id":"2799","imdb_id":"tt0090713","world_art_id":null,"type":"movie","add":"2016-10-19 16:41:07","orig_title":"The Best of Times","year":"1986-01-31","translations":["Профессиональный (двухголосый закадровый)","Профессиональный (многоголосый закадровый)","Original (English)"],"quality":"hdtv","translation":"Профессиональный (двухголосый закадровый)","update":"2020-10-22 07:15:14","iframe_src":"//8543.svetacdn.in/si4jsFRrtgrT/movie/6486"}],"current_page":292,"first_page_url":"https://videocdn.tv/api/short?limit=100&api_token=X6EwAUfE5M9xbo7y0Bp0aPf3uXxG2KLL&cache3292=3292&page=1","from":29101,"last_page":602,"last_page_url":"https://videocdn.tv/api/short?limit=100&api_token=X6EwAUfE5M9xbo7y0Bp0aPf3uXxG2KLL&cache3292=3292&page=602","next_page_url":"https://videocdn.tv/api/short?limit=100&api_token=X6EwAUfE5M9xbo7y0Bp0aPf3uXxG2KLL&cache3292=3292&page=293","path":"https://videocdn.tv/api/short","per_page":100,"prev_page_url":"https://videocdn.tv/api/short?limit=100&api_token=X6EwAUfE5M9xbo7y0Bp0aPf3uXxG2KLL&cache3292=3292&page=291","to":29140,"total":60177}