{"result":true,"data":[{"id":14357,"title":"Пугальщики","kp_id":"982088","imdb_id":"tt5578538","world_art_id":null,"type":"movie","add":"2017-11-13 23:05:59","orig_title":"Spookers","year":"2017-04-30","translations":["Любительский (многоголосый закадровый) (Синема УС)"],"quality":"webdl","translation":"Любительский (многоголосый закадровый) (Синема УС)","update":"2017-11-14 06:34:08","iframe_src":"//8332.svetacdn.in/IAF0wWTdNYZm/movie/14357"},{"id":14355,"title":"Невиновный","kp_id":"1057521","imdb_id":"tt6747242","world_art_id":null,"type":"movie","add":"2017-11-13 22:48:12","orig_title":"8 Thottakkal","year":"2017-04-07","translations":["Профессиональный (многоголосый закадровый) (Red Media)"],"quality":"sat","translation":"Профессиональный (многоголосый закадровый) (Red Media)","update":"2017-11-14 06:37:24","iframe_src":"//8332.svetacdn.in/IAF0wWTdNYZm/movie/14355"},{"id":14354,"title":"Мастер пьяного кулака: Нищий Со","kp_id":null,"imdb_id":"tt6502208","world_art_id":null,"type":"movie","add":"2017-11-13 22:46:06","orig_title":"Master of the Drunken Fist: Beggar So","year":"2016-11-13","translations":["Любительский (многоголосый закадровый) (Синема УС)"],"quality":"webdl","translation":"Любительский (многоголосый закадровый) (Синема УС)","update":"2017-11-14 06:40:45","iframe_src":"//8332.svetacdn.in/IAF0wWTdNYZm/movie/14354"},{"id":14353,"title":"Мари-Франсин","kp_id":"1006111","imdb_id":"tt6081632","world_art_id":null,"type":"movie","add":"2017-11-13 22:44:18","orig_title":"Marie-Francine","year":"2017-05-31","translations":["Любительский (многоголосый закадровый) (Синема УС)"],"quality":"bd","translation":"Любительский (многоголосый закадровый) (Синема УС)","update":"2017-11-14 06:41:40","iframe_src":"//8332.svetacdn.in/IAF0wWTdNYZm/movie/14353"},{"id":14352,"title":"Хэмпстед","kp_id":"975657","imdb_id":"tt5153236","world_art_id":null,"type":"movie","add":"2017-11-13 22:41:35","orig_title":"Hampstead","year":"2017-06-23","translations":["Любительский (многоголосый закадровый) (Синема УС)"],"quality":"webdl","translation":"Любительский (многоголосый закадровый) (Синема УС)","update":"2017-11-14 06:44:28","iframe_src":"//8332.svetacdn.in/IAF0wWTdNYZm/movie/14352"},{"id":14335,"title":"Стерва","kp_id":"1002736","imdb_id":"tt6069264","world_art_id":null,"type":"movie","add":"2017-11-12 21:16:50","orig_title":"Bitch","year":"2017-01-20","translations":["Любительский (многоголосый закадровый) (Синема УС)","Любительский (двухголосый закадровый) (RecentFilms)"],"quality":"webdl","translation":"Любительский (многоголосый закадровый) (Синема УС)","update":"2017-11-13 12:04:47","iframe_src":"//8332.svetacdn.in/IAF0wWTdNYZm/movie/14335"},{"id":14328,"title":"Зловещая засада","kp_id":null,"imdb_id":"tt5729066","world_art_id":null,"type":"movie","add":"2017-11-11 18:58:43","orig_title":"Spooky Stakeout","year":"2016-10-04","translations":["Любительский (многоголосый закадровый) (Синема УС)"],"quality":"dvdrip","translation":"Любительский (многоголосый закадровый) (Синема УС)","update":"2017-11-13 11:27:50","iframe_src":"//8332.svetacdn.in/IAF0wWTdNYZm/movie/14328"},{"id":14327,"title":"Слэм Джем","kp_id":"972808","imdb_id":"tt5319866","world_art_id":null,"type":"movie","add":"2017-11-11 18:53:33","orig_title":"Slamma Jamma","year":"2017-03-24","translations":["Любительский (многоголосый закадровый) (Синема УС)"],"quality":"dvdrip","translation":"Любительский (многоголосый закадровый) (Синема УС)","update":"2017-11-13 11:26:24","iframe_src":"//8332.svetacdn.in/IAF0wWTdNYZm/movie/14327"},{"id":14319,"title":"Посвящение","kp_id":"748827","imdb_id":"tt2781612","world_art_id":null,"type":"movie","add":"2017-11-11 18:28:51","orig_title":"Initiation","year":"2016-08-05","translations":["Любительский (многоголосый закадровый) (Синема УС)"],"quality":"dvdrip","translation":"Любительский (многоголосый закадровый) (Синема УС)","update":"2017-11-13 11:21:26","iframe_src":"//8332.svetacdn.in/IAF0wWTdNYZm/movie/14319"},{"id":14318,"title":"Хэллоуин: Смертельная ловушка. Киски будут наказаны!","kp_id":"1049554","imdb_id":"tt7493366","world_art_id":null,"type":"movie","add":"2017-11-11 18:26:56","orig_title":"Halloween Pussy Trap Kill Kill","year":"2017-10-27","translations":["Любительский (многоголосый закадровый) (Синема УС)"],"quality":"webdl","translation":"Любительский (многоголосый закадровый) (Синема УС)","update":"2017-11-13 11:20:40","iframe_src":"//8332.svetacdn.in/IAF0wWTdNYZm/movie/14318"},{"id":14317,"title":"Диксиленд","kp_id":"857723","imdb_id":"tt4188436","world_art_id":null,"type":"movie","add":"2017-11-11 18:21:40","orig_title":"Dixieland","year":"2015-04-19","translations":["Любительский (многоголосый закадровый) (Синема УС)"],"quality":"webdl","translation":"Любительский (многоголосый закадровый) (Синема УС)","update":"2017-11-13 11:19:39","iframe_src":"//8332.svetacdn.in/IAF0wWTdNYZm/movie/14317"},{"id":14315,"title":"Рождественский фестиваль льда","kp_id":"1051098","imdb_id":"tt7038632","world_art_id":null,"type":"movie","add":"2017-11-11 18:17:50","orig_title":"Christmas Festival of Ice","year":"2017-11-04","translations":["Любительский (многоголосый закадровый) (Синема УС)","Любительский (двухголосый закадровый) (RecentFilms)"],"quality":"hdtv","translation":"Любительский (многоголосый закадровый) (Синема УС)","update":"2017-11-13 11:57:28","iframe_src":"//8332.svetacdn.in/IAF0wWTdNYZm/movie/14315"},{"id":14314,"title":"Чемпион","kp_id":"937369","imdb_id":"tt5078656","world_art_id":null,"type":"movie","add":"2017-11-11 18:15:50","orig_title":"Champion","year":"2017-05-19","translations":["Любительский (многоголосый закадровый) (Синема УС)"],"quality":"dvdrip","translation":"Любительский (многоголосый закадровый) (Синема УС)","update":"2017-11-13 11:17:39","iframe_src":"//8332.svetacdn.in/IAF0wWTdNYZm/movie/14314"},{"id":14310,"title":"Барракуда","kp_id":"975924","imdb_id":"tt5663298","world_art_id":null,"type":"movie","add":"2017-11-11 18:08:50","orig_title":"La Barracuda","year":"2017-03-11","translations":["Профессиональный (многоголосый закадровый) (AlexFilm)","Любительский (многоголосый закадровый) (Синема УС)","Любительский (двухголосый закадровый) (RecentFilms)"],"quality":"webdl","translation":"Профессиональный (многоголосый закадровый) (AlexFilm)","update":"2017-11-13 12:01:10","iframe_src":"//8332.svetacdn.in/IAF0wWTdNYZm/movie/14310"},{"id":14256,"title":"Виски рекой","kp_id":"928105","imdb_id":"tt4769214","world_art_id":null,"type":"movie","add":"2017-11-06 22:58:49","orig_title":"Whisky Galore","year":"2016-06-26","translations":["Любительский (двухголосый закадровый) (RecentFilms)","Любительский (многоголосый закадровый) (Синема УС)"],"quality":"webdl","translation":"Любительский (двухголосый закадровый) (RecentFilms)","update":"2017-11-13 11:38:36","iframe_src":"//8332.svetacdn.in/IAF0wWTdNYZm/movie/14256"},{"id":14247,"title":"Мать-волчица","kp_id":"816064","imdb_id":"tt3225318","world_art_id":null,"type":"movie","add":"2017-11-05 23:09:27","orig_title":"Wolf Mother","year":"2016-06-02","translations":["Любительский (двухголосый закадровый) (RecentFilms)","Любительский (многоголосый закадровый) (Синема УС)"],"quality":"webdl","translation":"Любительский (двухголосый закадровый) (RecentFilms)","update":"2017-11-13 11:40:13","iframe_src":"//8332.svetacdn.in/IAF0wWTdNYZm/movie/14247"},{"id":14232,"title":"Сын другой матери","kp_id":"944167","imdb_id":"tt5193790","world_art_id":null,"type":"movie","add":"2017-11-05 21:37:40","orig_title":"Another Mother's Son","year":"2017-03-24","translations":["Любительский (двухголосый закадровый) (RecentFilms)","Любительский (многоголосый закадровый) (Синема УС)"],"quality":"dvdrip","translation":"Любительский (двухголосый закадровый) (RecentFilms)","update":"2017-11-13 11:59:40","iframe_src":"//8332.svetacdn.in/IAF0wWTdNYZm/movie/14232"},{"id":13943,"title":"Гангстердам","kp_id":"998078","imdb_id":"tt5976178","world_art_id":null,"type":"movie","add":"2017-10-22 19:16:55","orig_title":"Gangsterdam","year":"2017-03-07","translations":["Любительский (многоголосый закадровый) (@MUZOBOZ@)","Полное дублирование"],"quality":"bd","translation":"Любительский (многоголосый закадровый) (@MUZOBOZ@)","update":"2017-11-14 06:45:41","iframe_src":"//8332.svetacdn.in/IAF0wWTdNYZm/movie/13943"},{"id":13592,"title":"Заложники","kp_id":"1007058","imdb_id":"tt5207262","world_art_id":null,"type":"movie","add":"2017-09-23 09:42:05","orig_title":"Hostages","year":"2017-02-10","translations":["Оригинальная дорожка"],"quality":"bd","translation":"Оригинальная дорожка","update":"2017-11-14 06:43:08","iframe_src":"//8332.svetacdn.in/IAF0wWTdNYZm/movie/13592"},{"id":8468,"title":"Запретная комната","kp_id":"783569","imdb_id":"tt3066630","world_art_id":null,"type":"movie","add":"2016-12-30 12:19:41","orig_title":"The Forbidden Room","year":"2015-01-26","translations":["Любительский (двухголосый закадровый)","Любительский (многоголосый закадровый) (Синема УС)"],"quality":"bd","translation":"Любительский (двухголосый закадровый)","update":"2017-11-13 11:31:45","iframe_src":"//8332.svetacdn.in/IAF0wWTdNYZm/movie/8468"}],"current_page":1999,"first_page_url":"https://videocdn.tv/api/short?limit=100&api_token=6Onb1W1alEUrBcKJZD3GoKBbWyAl2uG2&cache31999=31999&page=1","from":199801,"last_page":632,"last_page_url":"https://videocdn.tv/api/short?limit=100&api_token=6Onb1W1alEUrBcKJZD3GoKBbWyAl2uG2&cache31999=31999&page=632","next_page_url":null,"path":"https://videocdn.tv/api/short","per_page":100,"prev_page_url":"https://videocdn.tv/api/short?limit=100&api_token=6Onb1W1alEUrBcKJZD3GoKBbWyAl2uG2&cache31999=31999&page=1998","to":199820,"total":63136}