{"result":true,"data":[{"id":37212,"title":"Отпуск","kp_id":"1156663","imdb_id":"tt8094980","world_art_id":null,"type":"movie","add":"2020-03-02 17:31:26","orig_title":"Yat ga dai sai","year":"2018-02-22","translations":["Любительский (многоголосый закадровый) (Синема УС)"],"quality":"bd","translation":"Любительский (многоголосый закадровый) (Синема УС)","update":"2020-03-03 18:31:39","iframe_src":"//8332.svetacdn.in/si4jsFRrtgrT/movie/37212"},{"id":37210,"title":"Ярды","kp_id":"1142591","imdb_id":"tt9421440","world_art_id":null,"type":"movie","add":"2020-03-02 17:25:28","orig_title":"Yardy","year":"2020-01-30","translations":["Оригинальная дорожка"],"quality":"webdl","translation":"Оригинальная дорожка","update":"2020-03-03 18:39:09","iframe_src":"//8332.svetacdn.in/si4jsFRrtgrT/movie/37210"},{"id":37111,"title":"Тишина","kp_id":"1150765","imdb_id":"tt8268972","world_art_id":null,"type":"movie","add":"2020-02-28 18:13:13","orig_title":"Khamoshi","year":"2019-06-14","translations":["Любительский (многоголосый закадровый) (Honey&Haseena)"],"quality":"webdl","translation":"Любительский (многоголосый закадровый) (Honey&Haseena)","update":"2020-03-03 15:10:26","iframe_src":"//8332.svetacdn.in/si4jsFRrtgrT/movie/37111"},{"id":37110,"title":"Убийца поневоле","kp_id":"86760","imdb_id":"tt0247944","world_art_id":null,"type":"movie","add":"2020-02-28 18:10:33","orig_title":"Badal","year":"2000-02-11","translations":["Профессиональный (двухголосый закадровый)"],"quality":"dvdrip","translation":"Профессиональный (двухголосый закадровый)","update":"2020-03-03 15:09:30","iframe_src":"//8332.svetacdn.in/si4jsFRrtgrT/movie/37110"},{"id":37109,"title":"В водовороте неприятностей","kp_id":"160913","imdb_id":"tt0451833","world_art_id":null,"type":"movie","add":"2020-02-28 18:06:52","orig_title":"No Entry","year":"2005-08-26","translations":["Профессиональный (двухголосый закадровый)"],"quality":"bd","translation":"Профессиональный (двухголосый закадровый)","update":"2020-03-03 15:08:20","iframe_src":"//8332.svetacdn.in/si4jsFRrtgrT/movie/37109"},{"id":37108,"title":"Всемогущий","kp_id":"39713","imdb_id":"tt0084866","world_art_id":null,"type":"movie","add":"2020-02-28 18:04:15","orig_title":"Vidhaata","year":"1982-12-03","translations":["Профессиональный (многоголосый закадровый)"],"quality":"dvdrip","translation":"Профессиональный (многоголосый закадровый)","update":"2020-03-03 15:07:10","iframe_src":"//8332.svetacdn.in/si4jsFRrtgrT/movie/37108"},{"id":37017,"title":"Милые бранятся...","kp_id":"887512","imdb_id":"tt3805054","world_art_id":null,"type":"movie","add":"2020-02-26 18:31:57","orig_title":"Angry Babies in Love","year":"2014-06-14","translations":["Профессиональный (многоголосый закадровый) (SDI Media)"],"quality":"hdrip","translation":"Профессиональный (многоголосый закадровый) (SDI Media)","update":"2020-03-03 14:38:46","iframe_src":"//8332.svetacdn.in/si4jsFRrtgrT/movie/37017"},{"id":37016,"title":"Мили","kp_id":"78556","imdb_id":"tt0073391","world_art_id":null,"type":"movie","add":"2020-02-26 18:27:49","orig_title":"Mili","year":"1975-06-20","translations":["Профессиональный (двухголосый закадровый)"],"quality":"bd","translation":"Профессиональный (двухголосый закадровый)","update":"2020-03-03 14:38:17","iframe_src":"//8332.svetacdn.in/si4jsFRrtgrT/movie/37016"},{"id":37015,"title":"Дорога к счастью","kp_id":"182886","imdb_id":"tt0155530","world_art_id":null,"type":"movie","add":"2020-02-26 17:54:02","orig_title":"Bandhan","year":"1969-01-01","translations":["Полное дублирование"],"quality":"dvdrip","translation":"Полное дублирование","update":"2020-03-03 14:37:08","iframe_src":"//8332.svetacdn.in/si4jsFRrtgrT/movie/37015"},{"id":37014,"title":"Четверо отчаянных","kp_id":"36595","imdb_id":"tt0116391","world_art_id":null,"type":"movie","add":"2020-02-26 17:50:10","orig_title":"Gang","year":"2000-04-14","translations":["Профессиональный (двухголосый закадровый)"],"quality":"dvdrip","translation":"Профессиональный (двухголосый закадровый)","update":"2020-03-03 14:36:23","iframe_src":"//8332.svetacdn.in/si4jsFRrtgrT/movie/37014"},{"id":37012,"title":"Злодей","kp_id":"433090","imdb_id":"tt1334470","world_art_id":null,"type":"movie","add":"2020-02-26 17:37:45","orig_title":"Raavan","year":"2010-06-18","translations":["Профессиональный (многоголосый закадровый)"],"quality":"dvdrip","translation":"Профессиональный (многоголосый закадровый)","update":"2020-03-03 14:33:13","iframe_src":"//8332.svetacdn.in/si4jsFRrtgrT/movie/37012"},{"id":37011,"title":"Луноликая","kp_id":"221869","imdb_id":"tt0109391","world_art_id":null,"type":"movie","add":"2020-02-26 17:34:10","orig_title":"Chaand Kaa Tukdaa","year":"1994-08-19","translations":["Профессиональный (многоголосый закадровый)"],"quality":"webdl","translation":"Профессиональный (многоголосый закадровый)","update":"2020-03-03 14:26:25","iframe_src":"//8332.svetacdn.in/si4jsFRrtgrT/movie/37011"},{"id":36960,"title":"Грязная картина","kp_id":"596057","imdb_id":"tt1954206","world_art_id":null,"type":"movie","add":"2020-02-26 06:52:28","orig_title":"The Dirty Picture","year":"2011-12-02","translations":["Любительский (многоголосый закадровый)"],"quality":"bd","translation":"Любительский (многоголосый закадровый)","update":"2020-03-03 14:25:44","iframe_src":"//8332.svetacdn.in/si4jsFRrtgrT/movie/36960"},{"id":36959,"title":"Схватка","kp_id":"103415","imdb_id":"tt0416712","world_art_id":null,"type":"movie","add":"2020-02-26 06:49:46","orig_title":"Elaan","year":"2005-01-14","translations":["Профессиональный (многоголосый закадровый)"],"quality":"dvdrip","translation":"Профессиональный (многоголосый закадровый)","update":"2020-03-03 14:24:18","iframe_src":"//8332.svetacdn.in/si4jsFRrtgrT/movie/36959"},{"id":36958,"title":"Три холостяка","kp_id":"689920","imdb_id":"tt2224254","world_art_id":null,"type":"movie","add":"2020-02-26 06:47:15","orig_title":"3 Bachelors","year":"2012-06-29","translations":["Профессиональный (многоголосый закадровый) (SDI Media)"],"quality":"hdrip","translation":"Профессиональный (многоголосый закадровый) (SDI Media)","update":"2020-03-03 14:23:44","iframe_src":"//8332.svetacdn.in/si4jsFRrtgrT/movie/36958"},{"id":36955,"title":"Два путника","kp_id":"222645","imdb_id":"tt0214635","world_art_id":null,"type":"movie","add":"2020-02-26 06:43:33","orig_title":"Do Musafir","year":"1978-06-25","translations":["Любительский (многоголосый закадровый)"],"quality":"dvdrip","translation":"Любительский (многоголосый закадровый)","update":"2020-03-03 14:23:08","iframe_src":"//8332.svetacdn.in/si4jsFRrtgrT/movie/36955"},{"id":36952,"title":"Черный камень","kp_id":"78533","imdb_id":"tt0079386","world_art_id":null,"type":"movie","add":"2020-02-26 06:37:47","orig_title":"Kaala Patthar","year":"1979-08-24","translations":["Профессиональный (многоголосый закадровый)"],"quality":"dvdrip","translation":"Профессиональный (многоголосый закадровый)","update":"2020-03-03 14:22:14","iframe_src":"//8332.svetacdn.in/si4jsFRrtgrT/movie/36952"},{"id":36884,"title":"Неверный возлюбленный","kp_id":"95914","imdb_id":"tt0102835","world_art_id":null,"type":"movie","add":"2020-02-24 20:02:40","orig_title":"Sanam Bewafa","year":"1991-01-11","translations":["Профессиональный (одноголосый закадровый)","Профессиональный (многоголосый закадровый) (SDI Media)"],"quality":"dvdrip","translation":"Профессиональный (одноголосый закадровый)","update":"2020-03-03 14:41:05","iframe_src":"//8332.svetacdn.in/si4jsFRrtgrT/movie/36884"},{"id":11901,"title":"Звуки тишины","kp_id":"868896","imdb_id":"tt3886444","world_art_id":null,"type":"movie","add":"2017-06-12 11:46:18","orig_title":"Khamoshiyan","year":"2015-01-30","translations":["Любительский (многоголосый закадровый) (ICG)","Профессиональный (многоголосый закадровый) (SDI Media)"],"quality":"webdl","translation":"Любительский (многоголосый закадровый) (ICG)","update":"2020-03-03 15:12:44","iframe_src":"//8332.svetacdn.in/si4jsFRrtgrT/movie/11901"},{"id":4581,"title":"Спектакль","kp_id":"794276","imdb_id":"tt3148502","world_art_id":null,"type":"movie","add":"2016-08-21 14:54:29","orig_title":"Tamasha","year":"2015-11-26","translations":["Любительский (многоголосый закадровый)","Профессиональный (двухголосый закадровый)"],"quality":"bd","translation":"Любительский (многоголосый закадровый)","update":"2020-03-03 15:06:02","iframe_src":"//8332.svetacdn.in/si4jsFRrtgrT/movie/4581"}],"current_page":874,"first_page_url":"https://videocdn.tv/api/short?limit=100&api_token=X6EwAUfE5M9xbo7y0Bp0aPf3uXxG2KLL&cache3874=3874&page=1","from":87301,"last_page":634,"last_page_url":"https://videocdn.tv/api/short?limit=100&api_token=X6EwAUfE5M9xbo7y0Bp0aPf3uXxG2KLL&cache3874=3874&page=634","next_page_url":null,"path":"https://videocdn.tv/api/short","per_page":100,"prev_page_url":"https://videocdn.tv/api/short?limit=100&api_token=X6EwAUfE5M9xbo7y0Bp0aPf3uXxG2KLL&cache3874=3874&page=873","to":87320,"total":63367}