{"result":true,"data":[{"id":50264,"title":"Носферату: Призрак ночи","kp_id":"22872","imdb_id":"tt0079641","world_art_id":null,"type":"movie","add":"2021-05-10 09:19:25","orig_title":"Nosferatu: Phantom der Nacht","year":"1979-01-17","translations":["Профессиональный (многоголосый закадровый) (5-й канал СПб)"],"quality":"bd","translation":"Профессиональный (многоголосый закадровый) (5-й канал СПб)","update":"2021-05-10 12:50:35","iframe_src":"//8209.svetacdn.in/71tsRs29n5tZ/movie/50264"},{"id":50262,"title":"К Элизе","kp_id":"682753","imdb_id":"tt2403419","world_art_id":null,"type":"movie","add":"2021-05-10 08:36:31","orig_title":"Para Elisa","year":"2012-10-04","translations":["Профессиональный (многоголосый закадровый)"],"quality":"webdl","translation":"Профессиональный (многоголосый закадровый)","update":"2021-05-10 10:18:34","iframe_src":"//8209.svetacdn.in/71tsRs29n5tZ/movie/50262"},{"id":50260,"title":"Лос Парчис против изобретателя - невидимки","kp_id":"108859","imdb_id":"tt0175022","world_art_id":null,"type":"movie","add":"2021-05-10 05:41:59","orig_title":"Los Parchís contra el inventor invisible","year":"1981-07-04","translations":["Любительский (одноголосый закадровый) (den904)"],"quality":"webdl","translation":"Любительский (одноголосый закадровый) (den904)","update":"2021-05-10 11:24:12","iframe_src":"//8209.svetacdn.in/71tsRs29n5tZ/movie/50260"},{"id":50259,"title":"Битва дракона","kp_id":"23607","imdb_id":"tt0095542","world_art_id":null,"type":"movie","add":"2021-05-10 05:24:47","orig_title":"Lung joi tin aai","year":"1989-09-01","translations":["Профессиональный (многоголосый закадровый)"],"quality":"webdl","translation":"Профессиональный (многоголосый закадровый)","update":"2021-05-10 11:31:04","iframe_src":"//8209.svetacdn.in/71tsRs29n5tZ/movie/50259"},{"id":50257,"title":"Операция «Святой Януарий»","kp_id":"26977","imdb_id":"tt0062080","world_art_id":null,"type":"movie","add":"2021-05-10 05:20:48","orig_title":"Operazione San Gennaro","year":"1966-11-25","translations":["Полное дублирование"],"quality":"webdl","translation":"Полное дублирование","update":"2021-05-10 11:37:35","iframe_src":"//8209.svetacdn.in/71tsRs29n5tZ/movie/50257"},{"id":50256,"title":"Доллар истинный и фальшивый","kp_id":"122927","imdb_id":"tt0060325","world_art_id":null,"type":"movie","add":"2021-05-10 05:19:38","orig_title":"Un dollaro tra i denti","year":"1967-01-13","translations":["Авторский (одноголосый закадровый) (Махонько Виктор)"],"quality":"webdl","translation":"Авторский (одноголосый закадровый) (Махонько Виктор)","update":"2021-05-10 11:29:36","iframe_src":"//8209.svetacdn.in/71tsRs29n5tZ/movie/50256"},{"id":50201,"title":"Стон горы","kp_id":"126508","imdb_id":"tt0047682","world_art_id":null,"type":"movie","add":"2021-05-07 07:50:41","orig_title":"Yama no oto","year":"1954-01-15","translations":["Любительский (многоголосый закадровый) (STEPonee)"],"quality":"bd","translation":"Любительский (многоголосый закадровый) (STEPonee)","update":"2021-05-10 07:37:03","iframe_src":"//8209.svetacdn.in/71tsRs29n5tZ/movie/50201"},{"id":50178,"title":"Я живу в страхе","kp_id":"70936","imdb_id":"tt0048198","world_art_id":null,"type":"movie","add":"2021-05-06 14:54:08","orig_title":"Ikimono no kiroku","year":"1955-11-22","translations":["Авторский (одноголосый закадровый) (Кузнецов Сергей)"],"quality":"bd","translation":"Авторский (одноголосый закадровый) (Кузнецов Сергей)","update":"2021-05-10 07:31:36","iframe_src":"//8209.svetacdn.in/71tsRs29n5tZ/movie/50178"},{"id":50172,"title":"Звезда Давида: Охота на красавиц","kp_id":"566759","imdb_id":"tt0225458","world_art_id":null,"type":"movie","add":"2021-05-06 05:59:19","orig_title":"Dabide no hoshi: Bishôjo-gari","year":"1979-10-27","translations":["Любительский (одноголосый закадровый) (den904)"],"quality":"bd","translation":"Любительский (одноголосый закадровый) (den904)","update":"2021-05-10 07:22:23","iframe_src":"//8209.svetacdn.in/71tsRs29n5tZ/movie/50172"},{"id":50171,"title":"Бунтари неонового бога","kp_id":"317316","imdb_id":"tt0103935","world_art_id":null,"type":"movie","add":"2021-05-06 05:57:17","orig_title":"Qing shao nian nuo zha","year":"1993-09-10","translations":["Профессиональный (двухголосый закадровый) (Акцент)"],"quality":"bd","translation":"Профессиональный (двухголосый закадровый) (Акцент)","update":"2021-05-10 07:20:14","iframe_src":"//8209.svetacdn.in/71tsRs29n5tZ/movie/50171"},{"id":50115,"title":"Девочка и клоун","kp_id":"958524","imdb_id":null,"world_art_id":null,"type":"movie","add":"2021-05-04 19:22:29","orig_title":"Девочка и клоун","year":"1989-01-01","translations":["Оригинальная дорожка"],"quality":"dvdrip","translation":"Оригинальная дорожка","update":"2021-05-10 13:28:21","iframe_src":"//8209.svetacdn.in/71tsRs29n5tZ/movie/50115"},{"id":44096,"title":"Ругантино","kp_id":"152476","imdb_id":"tt0070614","world_art_id":null,"type":"movie","add":"2020-10-03 16:55:50","orig_title":"Rugantino","year":"1973-10-25","translations":["Профессиональный (многоголосый закадровый)","Профессиональный (двухголосый закадровый) (РенТВ)","Профессиональный (многоголосый закадровый)"],"quality":"dvdrip","translation":"Профессиональный (многоголосый закадровый)","update":"2021-05-10 07:27:05","iframe_src":"//8209.svetacdn.in/71tsRs29n5tZ/movie/44096"},{"id":44087,"title":"История любви и ножей","kp_id":"201668","imdb_id":"tt0067056","world_art_id":null,"type":"movie","add":"2020-10-02 19:11:51","orig_title":"Er più: storia d'amore e di coltello","year":"1971-09-18","translations":["Профессиональный (многоголосый закадровый)","Профессиональный (многоголосый закадровый)"],"quality":"dvdrip","translation":"Профессиональный (многоголосый закадровый)","update":"2021-05-10 12:29:34","iframe_src":"//8209.svetacdn.in/71tsRs29n5tZ/movie/44087"},{"id":8105,"title":"Большое и Ричард Хаммонд","kp_id":"1377956","imdb_id":"tt10271544","world_art_id":null,"type":"serial","add":"2020-07-07 06:10:25","orig_title":"Richard Hammond's Big!","year":"2020-01-15","translations":["Профессиональный (многоголосый закадровый)"],"seasons_count":1,"episodes_count":9,"episodes":9,"update":"2020-07-07 09:20:25","iframe_src":"//8209.svetacdn.in/71tsRs29n5tZ/tv-series/8105"},{"id":8099,"title":"Адвокат. Продолжение","kp_id":"1006674","imdb_id":"tt6058130","world_art_id":null,"type":"serial","add":"2020-07-06 09:16:47","orig_title":"Advokat. Prodolzhenie","year":"2016-01-01","translations":["Оригинальная дорожка"],"seasons_count":1,"episodes_count":40,"episodes":40,"update":"2020-07-06 18:49:41","iframe_src":"//8209.svetacdn.in/71tsRs29n5tZ/tv-series/8099"},{"id":8095,"title":"ДНК","kp_id":"1245526","imdb_id":"tt9472282","world_art_id":null,"type":"serial","add":"2020-07-06 05:54:32","orig_title":"DNA","year":"2019-09-09","translations":["Профессиональный (двухголосый закадровый) (ViruseProject)"],"seasons_count":1,"episodes_count":8,"episodes":8,"update":"2020-07-07 06:07:15","iframe_src":"//8209.svetacdn.in/71tsRs29n5tZ/tv-series/8095"},{"id":8092,"title":"Домовой","kp_id":"1008043","imdb_id":null,"world_art_id":null,"type":"serial","add":"2020-07-05 07:30:12","orig_title":"Домовой","year":"2016-01-01","translations":["Оригинальная дорожка"],"seasons_count":1,"episodes_count":2,"episodes":2,"update":"2020-07-06 06:24:53","iframe_src":"//8209.svetacdn.in/71tsRs29n5tZ/tv-series/8092"},{"id":8086,"title":"Путешествия Жюля Верна","kp_id":"911231","imdb_id":"tt3232518","world_art_id":null,"type":"serial","add":"2020-07-04 08:10:29","orig_title":"JV: The Extraordinary Adventures of Jules Verne","year":"2007-05-06","translations":["Полное дублирование (Первый канал | ОРТ)"],"seasons_count":1,"episodes_count":26,"episodes":26,"update":"2020-07-07 06:00:10","iframe_src":"//8209.svetacdn.in/71tsRs29n5tZ/tv-series/8086"},{"id":8082,"title":"Новые приключения Бэтмена","kp_id":"230052","imdb_id":"tt0075543","world_art_id":null,"type":"serial","add":"2020-07-03 13:05:56","orig_title":"The New Adventures of Batman","year":"1977-02-12","translations":["Профессиональный (многоголосый закадровый) (2x2)"],"seasons_count":1,"episodes_count":16,"episodes":16,"update":"2020-07-06 13:53:03","iframe_src":"//8209.svetacdn.in/71tsRs29n5tZ/tv-series/8082"},{"id":8081,"title":"Госпожа Дила","kp_id":"728555","imdb_id":"tt2544156","world_art_id":null,"type":"serial","add":"2020-07-03 10:33:44","orig_title":"Dila Hanim","year":"2012-01-01","translations":["Профессиональный (многоголосый закадровый)","Любительский (одноголосый закадровый) (turok1990)"],"seasons_count":2,"episodes_count":90,"episodes":27,"update":"2020-07-05 18:18:54","iframe_src":"//8209.svetacdn.in/71tsRs29n5tZ/tv-series/8081"},{"id":8069,"title":"Королевство","kp_id":"94852","imdb_id":"tt0108906","world_art_id":null,"type":"serial","add":"2020-07-02 09:57:07","orig_title":"Riget","year":"1997-11-01","translations":["Авторский (одноголосый закадровый) (Алексеев Антон)"],"seasons_count":2,"episodes_count":8,"episodes":4,"update":"2020-07-06 07:05:32","iframe_src":"//8209.svetacdn.in/71tsRs29n5tZ/tv-series/8069"},{"id":8067,"title":"Граф Монте-Кристо: Великая месть","kp_id":"1123503","imdb_id":"tt8217122","world_art_id":null,"type":"serial","add":"2020-07-02 09:52:33","orig_title":"Monte Cristo Haku","year":"2018-04-19","translations":["Любительский (двухголосый закадровый) (AniDUB)"],"seasons_count":1,"episodes_count":9,"episodes":9,"update":"2020-07-05 18:26:22","iframe_src":"//8209.svetacdn.in/71tsRs29n5tZ/tv-series/8067"},{"id":8059,"title":"Я работаю в суде","kp_id":"1255109","imdb_id":null,"world_art_id":null,"type":"serial","add":"2020-07-01 09:02:31","orig_title":"Я работаю в суде","year":"2016-08-29","translations":["Оригинальная дорожка"],"seasons_count":1,"episodes_count":20,"episodes":20,"update":"2020-07-07 07:23:39","iframe_src":"//8209.svetacdn.in/71tsRs29n5tZ/tv-series/8059"},{"id":7955,"title":"Разбивающая сердца","kp_id":"584096","imdb_id":"tt1618952","world_art_id":null,"type":"serial","add":"2020-06-19 12:40:37","orig_title":"Gönülçelen","year":"2010-02-26","translations":["Профессиональный (многоголосый закадровый) (Astana TV)"],"seasons_count":2,"episodes_count":56,"episodes":28,"update":"2020-07-05 11:03:23","iframe_src":"//8209.svetacdn.in/71tsRs29n5tZ/tv-series/7955"},{"id":7617,"title":"Механизмы","kp_id":"1348396","imdb_id":"tt11806034","world_art_id":null,"type":"serial","add":"2020-05-24 15:06:42","orig_title":"Maskineriet","year":"2020-05-24","translations":["Любительский (многоголосый закадровый) (Octopus)","Профессиональный (многоголосый закадровый) (BaibaKo)","Профессиональный (двухголосый закадровый) (IdeaFilm)"],"seasons_count":1,"episodes_count":8,"episodes":8,"update":"2020-07-07 06:24:45","iframe_src":"//8209.svetacdn.in/71tsRs29n5tZ/tv-series/7617"},{"id":4716,"title":"Полицейский отряд!","kp_id":"260912","imdb_id":"tt0083466","world_art_id":null,"type":"serial","add":"2019-06-19 10:53:55","orig_title":"Police Squad!","year":"1982-03-04","translations":["Профессиональный (многоголосый закадровый)","Профессиональный (двухголосый закадровый) (Кубик в Кубе)","Авторский (одноголосый закадровый) (Михалёв Алексей)"],"seasons_count":1,"episodes_count":6,"episodes":6,"update":"2020-07-06 12:08:25","iframe_src":"//8209.svetacdn.in/71tsRs29n5tZ/tv-series/4716"},{"id":4371,"title":"Восприятие","kp_id":"566058","imdb_id":"tt1714204","world_art_id":null,"type":"serial","add":"2019-04-07 23:14:09","orig_title":"Perception","year":"2012-07-09","translations":["Полное дублирование (ТВ3)","Любительский (многоголосый закадровый) (To4ka)"],"seasons_count":3,"episodes_count":39,"episodes":15,"update":"2020-07-07 07:27:20","iframe_src":"//8209.svetacdn.in/71tsRs29n5tZ/tv-series/4371"},{"id":23632,"title":"Облако-рай","kp_id":"42694","imdb_id":"tt0102574","world_art_id":null,"type":"movie","add":"2019-03-29 16:27:47","orig_title":"Oblako-ray","year":"1991-12-04","translations":["Оригинальная дорожка"],"quality":"webdl","translation":"Оригинальная дорожка","update":"2021-05-10 12:35:54","iframe_src":"//8209.svetacdn.in/71tsRs29n5tZ/movie/23632"},{"id":22686,"title":"Эмигрант","kp_id":"57422","imdb_id":"tt0070028","world_art_id":null,"type":"movie","add":"2019-03-03 22:15:20","orig_title":"L'emigrante","year":"1973-04-19","translations":["Профессиональный (многоголосый закадровый)"],"quality":"webdl","translation":"Профессиональный (многоголосый закадровый)","update":"2021-05-10 07:23:29","iframe_src":"//8209.svetacdn.in/71tsRs29n5tZ/movie/22686"},{"id":22433,"title":"Аланис","kp_id":"1049618","imdb_id":"tt7297954","world_art_id":null,"type":"movie","add":"2019-02-21 21:48:42","orig_title":"Alanis","year":"2017-09-09","translations":["Любительский (многоголосый закадровый) (Синема УС)","Любительский (двухголосый закадровый) (HiWayGrope)","Любительский (двухголосый закадровый) (HiWayGrope)"],"quality":"webdl","translation":"Любительский (многоголосый закадровый) (Синема УС)","update":"2021-05-10 11:26:25","iframe_src":"//8209.svetacdn.in/71tsRs29n5tZ/movie/22433"},{"id":22126,"title":"Черная магия","kp_id":"1164559","imdb_id":"tt8617648","world_art_id":null,"type":"movie","add":"2019-02-07 22:45:48","orig_title":"Santet","year":"2018-10-01","translations":["Любительский (многоголосый закадровый) (Синема УС)","Профессиональный (многоголосый закадровый) (HDrezka Studio)","Профессиональный (многоголосый закадровый) (HDrezka Studio)"],"quality":"webdl","translation":"Любительский (многоголосый закадровый) (Синема УС)","update":"2021-05-10 12:49:39","iframe_src":"//8209.svetacdn.in/71tsRs29n5tZ/movie/22126"},{"id":3646,"title":"Пелена","kp_id":"1172866","imdb_id":null,"world_art_id":null,"type":"serial","add":"2018-12-09 14:32:56","orig_title":"Пелена","year":"2018-06-04","translations":["Оригинальная дорожка"],"seasons_count":1,"episodes_count":10,"episodes":10,"update":"2020-07-05 09:24:25","iframe_src":"//8209.svetacdn.in/71tsRs29n5tZ/tv-series/3646"},{"id":3590,"title":"Доверься мне","kp_id":"1047701","imdb_id":"tt6708260","world_art_id":null,"type":"serial","add":"2018-11-29 14:59:59","orig_title":"Trust Me","year":"2017-08-08","translations":["Профессиональный (многоголосый закадровый) (ShowJet)","Профессиональный (многоголосый закадровый) (КонтентикOFF)","Профессиональный (двухголосый закадровый) (ViruseProject)"],"seasons_count":2,"episodes_count":8,"episodes":4,"update":"2020-07-06 12:20:02","iframe_src":"//8209.svetacdn.in/71tsRs29n5tZ/tv-series/3590"},{"id":19562,"title":"Дьявольский кузнец","kp_id":"1010113","imdb_id":"tt5592878","world_art_id":null,"type":"movie","add":"2018-10-14 20:36:22","orig_title":"Errementari","year":"2017-10-12","translations":["Любительский (многоголосый закадровый) (@MUZOBOZ@)","Любительский (двухголосый закадровый) (LakeFilms)","Любительский (одноголосый закадровый) (Хихикающий доктор)","Профессиональный (многоголосый закадровый) (HDrezka Studio)"],"quality":"webdl","translation":"Любительский (многоголосый закадровый) (@MUZOBOZ@)","update":"2021-05-10 12:48:59","iframe_src":"//8209.svetacdn.in/71tsRs29n5tZ/movie/19562"},{"id":2599,"title":"Добрая ведьма","kp_id":"891743","imdb_id":"tt3906732","world_art_id":null,"type":"serial","add":"2018-05-19 09:09:56","orig_title":"Good Witch","year":"2015-02-28","translations":["Любительский (одноголосый закадровый)","Любительский (двухголосый закадровый) (KinoGolos)","Профессиональный (многоголосый закадровый) (ТВ3)","Любительский (двухголосый закадровый) (GoldTeam)","Профессиональный (многоголосый закадровый) (BaibaKo)","Любительский (многоголосый закадровый) (Octopus)","Любительский (двухголосый закадровый) (KerobTV)"],"seasons_count":6,"episodes_count":65,"episodes":10,"update":"2020-07-07 05:38:20","iframe_src":"//8209.svetacdn.in/71tsRs29n5tZ/tv-series/2599"},{"id":2053,"title":"Вербное воскресенье","kp_id":"487573","imdb_id":"tt2913010","world_art_id":null,"type":"serial","add":"2018-02-09 10:25:29","orig_title":"Verbnoe voskresene","year":"2009-12-07","translations":["Оригинальная дорожка"],"seasons_count":1,"episodes_count":8,"episodes":8,"update":"2020-07-05 17:11:28","iframe_src":"//8209.svetacdn.in/71tsRs29n5tZ/tv-series/2053"},{"id":12059,"title":"Банда аутсайдеров","kp_id":"38296","imdb_id":"tt0057869","world_art_id":null,"type":"movie","add":"2017-06-21 09:16:20","orig_title":"Bande à part","year":"1964-07-29","translations":["Авторский (одноголосый закадровый) (Сербин Юрий)","Любительский (одноголосый закадровый) (Машинский Леонид)"],"quality":"bd","translation":"Авторский (одноголосый закадровый) (Сербин Юрий)","update":"2021-05-10 07:30:08","iframe_src":"//8209.svetacdn.in/71tsRs29n5tZ/movie/12059"},{"id":911,"title":"Вольтрон: Легендарный защитник","kp_id":"984256","imdb_id":"tt5580664","world_art_id":null,"type":"serial","add":"2017-01-20 06:27:05","orig_title":"Voltron: Legendary Defender","year":"2016-06-10","translations":["Профессиональный (многоголосый закадровый) (NewStudio)","Любительский (одноголосый закадровый) (AniDUB)","Любительский (двухголосый закадровый) (AniDUB)","Любительский (многоголосый закадровый) (AniDUB)","Любительский (двухголосый закадровый) (KinoGolos)"],"seasons_count":8,"episodes_count":76,"episodes":13,"update":"2020-07-05 16:36:38","iframe_src":"//8209.svetacdn.in/71tsRs29n5tZ/tv-series/911"},{"id":4658,"title":"Вопль","kp_id":"944958","imdb_id":"tt5215952","world_art_id":null,"type":"movie","add":"2016-08-24 13:05:38","orig_title":"Goksung","year":"2016-05-11","translations":["Любительский (двухголосый закадровый)","Любительский (двухголосый закадровый) (Колобок)","Авторский (одноголосый закадровый) (Сербин Юрий)","Профессиональный (многоголосый закадровый) (Good People)"],"quality":"bd","translation":"Любительский (двухголосый закадровый)","update":"2021-05-10 07:34:05","iframe_src":"//8209.svetacdn.in/71tsRs29n5tZ/movie/4658"},{"id":218,"title":"Степные волки","kp_id":"943405","imdb_id":null,"world_art_id":null,"type":"serial","add":"2016-06-22 10:55:17","orig_title":"Степные волки","year":"2016-01-01","translations":["Оригинальная дорожка"],"seasons_count":1,"episodes_count":24,"episodes":24,"update":"2020-07-05 18:23:15","iframe_src":"//8209.svetacdn.in/71tsRs29n5tZ/tv-series/218"}],"current_page":224,"first_page_url":"https://videocdn.tv/api/short?limit=100&api_token=EnbO9h8pv1VyjbCJhg0WM9nG259n7mtz&cache3224=3224&page=1","from":22301,"last_page":656,"last_page_url":"https://videocdn.tv/api/short?limit=100&api_token=EnbO9h8pv1VyjbCJhg0WM9nG259n7mtz&cache3224=3224&page=656","next_page_url":"https://videocdn.tv/api/short?limit=100&api_token=EnbO9h8pv1VyjbCJhg0WM9nG259n7mtz&cache3224=3224&page=225","path":"https://videocdn.tv/api/short","per_page":100,"prev_page_url":"https://videocdn.tv/api/short?limit=100&api_token=EnbO9h8pv1VyjbCJhg0WM9nG259n7mtz&cache3224=3224&page=223","to":22340,"total":65554}