{"result":true,"data":[{"id":27180,"title":"Путь хиппи","kp_id":"1251448","imdb_id":"tt10027848","world_art_id":null,"type":"movie","add":"2019-05-27 23:13:59","orig_title":"The Road To Hippie","year":"2019-04-01","translations":["Любительский (многоголосый закадровый) (Колобок)"],"quality":"webdl","translation":"Любительский (многоголосый закадровый) (Колобок)","update":"2019-05-28 05:16:49","iframe_src":"//8332.svetacdn.in/si4jsFRrtgrT/movie/27180"},{"id":27178,"title":"Спасение души","kp_id":"1233079","imdb_id":"tt9611068","world_art_id":null,"type":"movie","add":"2019-05-27 23:09:37","orig_title":"Ling hun de jiu shu","year":"2019-01-11","translations":["Любительский (многоголосый закадровый) (Колобок)"],"quality":"webdl","translation":"Любительский (многоголосый закадровый) (Колобок)","update":"2019-05-28 05:37:25","iframe_src":"//8332.svetacdn.in/si4jsFRrtgrT/movie/27178"},{"id":27177,"title":"Обнажённая ночь","kp_id":"1072577","imdb_id":"tt7362354","world_art_id":null,"type":"movie","add":"2019-05-27 23:07:47","orig_title":"Notte nuda","year":"2018-02-15","translations":["Любительский (многоголосый закадровый) (Синема УС)"],"quality":"dvdrip","translation":"Любительский (многоголосый закадровый) (Синема УС)","update":"2019-05-28 05:38:52","iframe_src":"//8332.svetacdn.in/si4jsFRrtgrT/movie/27177"},{"id":27175,"title":"Мой шкет","kp_id":"1152326","imdb_id":"tt8398768","world_art_id":null,"type":"movie","add":"2019-05-27 23:04:59","orig_title":"Mon ket","year":"2018-05-30","translations":["Любительский (многоголосый закадровый) (Синема УС)"],"quality":"bd","translation":"Любительский (многоголосый закадровый) (Синема УС)","update":"2019-05-28 05:35:32","iframe_src":"//8332.svetacdn.in/si4jsFRrtgrT/movie/27175"},{"id":27174,"title":"Джулия","kp_id":"1046713","imdb_id":"tt6597612","world_art_id":null,"type":"movie","add":"2019-05-27 23:03:24","orig_title":"Júlia ist","year":"2017-03-21","translations":["Любительский (многоголосый закадровый) (Синема УС)"],"quality":"dvdrip","translation":"Любительский (многоголосый закадровый) (Синема УС)","update":"2019-05-28 05:39:51","iframe_src":"//8332.svetacdn.in/si4jsFRrtgrT/movie/27174"},{"id":27172,"title":"Охота на зло","kp_id":"1268889","imdb_id":"tt10274466","world_art_id":null,"type":"movie","add":"2019-05-27 23:00:52","orig_title":"Hunting Evil","year":"2019-04-01","translations":["Любительский (многоголосый закадровый) (Синема УС)"],"quality":"webdl","translation":"Любительский (многоголосый закадровый) (Синема УС)","update":"2019-05-28 05:13:43","iframe_src":"//8332.svetacdn.in/si4jsFRrtgrT/movie/27172"},{"id":27171,"title":"Расследование Хейли Дин: Приговор убийцы","kp_id":"1262078","imdb_id":"tt10244900","world_art_id":null,"type":"movie","add":"2019-05-27 22:59:09","orig_title":"Hailey Dean Mysteries: Killer Sentence","year":"2019-05-19","translations":["Любительский (многоголосый закадровый) (Синема УС)"],"quality":"hdtv","translation":"Любительский (многоголосый закадровый) (Синема УС)","update":"2019-05-28 05:33:44","iframe_src":"//8332.svetacdn.in/si4jsFRrtgrT/movie/27171"},{"id":27128,"title":"Юность наших отцов","kp_id":"42469","imdb_id":"tt0052418","world_art_id":null,"type":"movie","add":"2019-05-27 09:17:57","orig_title":"Yunost nashikh otsov","year":"1958-05-08","translations":["Оригинальная дорожка"],"quality":"sat","translation":"Оригинальная дорожка","update":"2019-05-28 05:59:50","iframe_src":"//8332.svetacdn.in/si4jsFRrtgrT/movie/27128"},{"id":27125,"title":"Смятение чувств","kp_id":"45366","imdb_id":"tt0372040","world_art_id":null,"type":"movie","add":"2019-05-27 08:42:21","orig_title":"Smyatenie chuvstv","year":"1978-07-31","translations":["Оригинальная дорожка"],"quality":"dvdrip","translation":"Оригинальная дорожка","update":"2019-05-28 05:57:39","iframe_src":"//8332.svetacdn.in/si4jsFRrtgrT/movie/27125"},{"id":27124,"title":"Возвращение «Святого Луки»","kp_id":"45878","imdb_id":"tt0314858","world_art_id":null,"type":"movie","add":"2019-05-27 08:24:45","orig_title":"Vozvrashchenie 'Svyatogo Luki'","year":"1971-06-15","translations":["Оригинальная дорожка"],"quality":"dvdrip","translation":"Оригинальная дорожка","update":"2019-05-28 05:53:19","iframe_src":"//8332.svetacdn.in/si4jsFRrtgrT/movie/27124"},{"id":27120,"title":"Криминальные обстоятельства","kp_id":"571271","imdb_id":"tt7661762","world_art_id":null,"type":"movie","add":"2019-05-27 07:55:45","orig_title":"Kriminalnyye obstoyatelstva","year":"2011-08-08","translations":["Оригинальная дорожка"],"quality":"sat","translation":"Оригинальная дорожка","update":"2019-05-28 05:50:03","iframe_src":"//8332.svetacdn.in/si4jsFRrtgrT/movie/27120"},{"id":27119,"title":"Поединок в тайге","kp_id":"43198","imdb_id":"tt0076552","world_art_id":null,"type":"movie","add":"2019-05-27 07:50:58","orig_title":"Poedinok v tayge","year":"1978-06-01","translations":["Оригинальная дорожка"],"quality":"sat","translation":"Оригинальная дорожка","update":"2019-05-28 05:49:03","iframe_src":"//8332.svetacdn.in/si4jsFRrtgrT/movie/27119"},{"id":27117,"title":"Савраска","kp_id":"581270","imdb_id":"tt3206138","world_art_id":null,"type":"movie","add":"2019-05-27 07:41:26","orig_title":"Savraska","year":"1989-01-01","translations":["Оригинальная дорожка"],"quality":"sat","translation":"Оригинальная дорожка","update":"2019-05-27 17:40:31","iframe_src":"//8332.svetacdn.in/si4jsFRrtgrT/movie/27117"},{"id":27116,"title":"Шугарлендский экспресс","kp_id":"7123","imdb_id":"tt0072226","world_art_id":null,"type":"movie","add":"2019-05-27 07:00:56","orig_title":"The Sugarland Express","year":"1974-05-29","translations":["Профессиональный (многоголосый закадровый)"],"quality":"bd","translation":"Профессиональный (многоголосый закадровый)","update":"2019-05-27 20:13:58","iframe_src":"//8332.svetacdn.in/si4jsFRrtgrT/movie/27116"},{"id":27115,"title":"Хэппи-энд","kp_id":"48105","imdb_id":"tt0061029","world_art_id":null,"type":"movie","add":"2019-05-27 06:50:47","orig_title":"Happy End","year":"1968-06-10","translations":["Профессиональный (многоголосый закадровый)"],"quality":"dvdrip","translation":"Профессиональный (многоголосый закадровый)","update":"2019-05-27 20:10:46","iframe_src":"//8332.svetacdn.in/si4jsFRrtgrT/movie/27115"},{"id":27114,"title":"Годзилла: Финальные войны","kp_id":"77138","imdb_id":"tt0399102","world_art_id":null,"type":"movie","add":"2019-05-27 06:43:03","orig_title":"Gojira: Fainaru uôzu","year":"2004-12-04","translations":["Профессиональный (двухголосый закадровый)"],"quality":"bd","translation":"Профессиональный (двухголосый закадровый)","update":"2019-05-27 20:09:11","iframe_src":"//8332.svetacdn.in/si4jsFRrtgrT/movie/27114"},{"id":27075,"title":"Жизнь после жизни","kp_id":"760483","imdb_id":"tt3653558","world_art_id":null,"type":"movie","add":"2019-05-26 18:06:26","orig_title":"Zhizn posle zhizni","year":"2013-06-02","translations":["Оригинальная дорожка"],"quality":"hdtv","translation":"Оригинальная дорожка","update":"2019-05-28 05:46:06","iframe_src":"//8332.svetacdn.in/si4jsFRrtgrT/movie/27075"},{"id":23684,"title":"Справочник зла","kp_id":"1045997","imdb_id":"tt6688354","world_art_id":null,"type":"movie","add":"2019-03-30 17:35:11","orig_title":"The Field Guide to Evil","year":"2018-03-11","translations":["Любительский (многоголосый закадровый) (Синема УС)","Любительский (одноголосый закадровый) (Хихикающий доктор)"],"quality":"webdl","translation":"Любительский (многоголосый закадровый) (Синема УС)","update":"2019-05-28 05:25:37","iframe_src":"//8332.svetacdn.in/si4jsFRrtgrT/movie/23684"},{"id":23547,"title":"Механик","kp_id":"700041","imdb_id":null,"world_art_id":null,"type":"movie","add":"2019-03-27 09:50:47","orig_title":"Механик","year":"2012-09-14","translations":["Оригинальная дорожка","Оригинальная дорожка"],"quality":"iptv","translation":"Оригинальная дорожка","update":"2019-05-28 05:45:13","iframe_src":"//8332.svetacdn.in/si4jsFRrtgrT/movie/23547"},{"id":20545,"title":"Позвоните Мышкину","kp_id":"935802","imdb_id":"tt9817104","world_art_id":null,"type":"movie","add":"2018-12-07 08:53:23","orig_title":"Pozvonite Myshkinu","year":"2018-12-03","translations":["Оригинальная дорожка","Оригинальная дорожка"],"quality":"webdl","translation":"Оригинальная дорожка","update":"2019-05-28 05:41:09","iframe_src":"//8332.svetacdn.in/si4jsFRrtgrT/movie/20545"}],"current_page":1403,"first_page_url":"https://videocdn.tv/api/short?limit=100&api_token=X6EwAUfE5M9xbo7y0Bp0aPf3uXxG2KLL&cache31403=31403&page=1","from":140201,"last_page":634,"last_page_url":"https://videocdn.tv/api/short?limit=100&api_token=X6EwAUfE5M9xbo7y0Bp0aPf3uXxG2KLL&cache31403=31403&page=634","next_page_url":null,"path":"https://videocdn.tv/api/short","per_page":100,"prev_page_url":"https://videocdn.tv/api/short?limit=100&api_token=X6EwAUfE5M9xbo7y0Bp0aPf3uXxG2KLL&cache31403=31403&page=1402","to":140220,"total":63326}