{"result":true,"data":[{"id":7568,"title":"Валькины несчастья","kp_id":"1007650","imdb_id":null,"world_art_id":null,"type":"movie","add":"2016-11-22 07:10:06","orig_title":"Валькины несчастья","year":"2016-11-19","translations":["Оригинальная дорожка"],"quality":"webdl","translation":"Оригинальная дорожка","update":"2016-11-22 11:35:28","iframe_src":"//7720.svetacdn.in/IAF0wWTdNYZm/movie/7568"},{"id":7565,"title":"Окно","kp_id":"888118","imdb_id":"tt5298138","world_art_id":null,"type":"movie","add":"2016-11-21 15:44:32","orig_title":"Okno","year":"2015-09-01","translations":["Оригинальная дорожка"],"quality":"webdl","translation":"Оригинальная дорожка","update":"2016-11-22 04:40:40","iframe_src":"//7720.svetacdn.in/IAF0wWTdNYZm/movie/7565"},{"id":7564,"title":"Клетка","kp_id":"838695","imdb_id":"tt3914624","world_art_id":null,"type":"movie","add":"2016-11-21 15:42:59","orig_title":"Kletka","year":"2015-11-07","translations":["Оригинальная дорожка"],"quality":"webdl","translation":"Оригинальная дорожка","update":"2016-11-22 04:43:25","iframe_src":"//7720.svetacdn.in/IAF0wWTdNYZm/movie/7564"},{"id":7563,"title":"Не забывай меня","kp_id":"972815","imdb_id":"tt5576174","world_art_id":null,"type":"movie","add":"2016-11-21 15:37:53","orig_title":"Nareul itji malayo","year":"2016-01-07","translations":["Любительский (двухголосый закадровый) (Колобок)"],"quality":"bd","translation":"Любительский (двухголосый закадровый) (Колобок)","update":"2016-11-22 04:46:28","iframe_src":"//7720.svetacdn.in/IAF0wWTdNYZm/movie/7563"},{"id":7561,"title":"Любовь без участия","kp_id":"957759","imdb_id":"tt5302658","world_art_id":null,"type":"movie","add":"2016-11-21 15:32:06","orig_title":"Love on the Sidelines","year":"2016-01-16","translations":["Любительский (многоголосый закадровый) (Синема УС)"],"quality":"hdtv","translation":"Любительский (многоголосый закадровый) (Синема УС)","update":"2016-11-22 04:50:04","iframe_src":"//7720.svetacdn.in/IAF0wWTdNYZm/movie/7561"},{"id":7559,"title":"Без ума от Tiffany","kp_id":"957820","imdb_id":"tt3464290","world_art_id":null,"type":"movie","add":"2016-11-21 15:25:35","orig_title":"Crazy About Tiffany's","year":"2016-02-19","translations":["Любительский (многоголосый закадровый) (Синема УС)"],"quality":"webdl","translation":"Любительский (многоголосый закадровый) (Синема УС)","update":"2016-11-22 04:54:12","iframe_src":"//7720.svetacdn.in/IAF0wWTdNYZm/movie/7559"},{"id":7558,"title":"Извратная маска 2","kp_id":"963446","imdb_id":"tt5492906","world_art_id":null,"type":"movie","add":"2016-11-21 15:24:14","orig_title":"HK: Hentai Kamen - Abnormal Crisis","year":"2016-05-14","translations":["Любительский (двухголосый закадровый)"],"quality":"bd","translation":"Любительский (двухголосый закадровый)","update":"2016-11-22 04:56:22","iframe_src":"//7720.svetacdn.in/IAF0wWTdNYZm/movie/7558"},{"id":7557,"title":"Кровавая ловушка","kp_id":"979070","imdb_id":"tt2932532","world_art_id":null,"type":"movie","add":"2016-11-21 15:22:22","orig_title":"Blood Trap","year":"2015-10-09","translations":["Любительский (одноголосый закадровый)"],"quality":"webdl","translation":"Любительский (одноголосый закадровый)","update":"2016-11-22 04:58:08","iframe_src":"//7720.svetacdn.in/IAF0wWTdNYZm/movie/7557"},{"id":7556,"title":"Мой маленький пони: Девочки из Эквестрии – Легенды вечнозеленого леса","kp_id":"962000","imdb_id":"tt5474644","world_art_id":null,"type":"movie","add":"2016-11-21 15:20:40","orig_title":"My Little Pony: Equestria Girls - Legend of Everfree","year":"2016-09-24","translations":["Полное дублирование"],"quality":"webdl","translation":"Полное дублирование","update":"2016-11-22 04:59:27","iframe_src":"//7720.svetacdn.in/IAF0wWTdNYZm/movie/7556"},{"id":7533,"title":"Ответный ход","kp_id":"42857","imdb_id":"tt0168111","world_art_id":null,"type":"movie","add":"2016-11-20 08:23:04","orig_title":"Otvetnyy khod","year":"1981-05-28","translations":["Оригинальная дорожка"],"quality":"hdtv","translation":"Оригинальная дорожка","update":"2016-11-23 04:24:24","iframe_src":"//7720.svetacdn.in/IAF0wWTdNYZm/movie/7533"},{"id":7532,"title":"Отряд особого назначения","kp_id":"42851","imdb_id":"tt0314475","world_art_id":null,"type":"movie","add":"2016-11-20 08:21:29","orig_title":"Otryad osobogo naznacheniya","year":"1979-02-13","translations":["Оригинальная дорожка"],"quality":"hdtv","translation":"Оригинальная дорожка","update":"2016-11-23 04:22:17","iframe_src":"//7720.svetacdn.in/IAF0wWTdNYZm/movie/7532"},{"id":7531,"title":"Несколько дней из жизни И.И. Обломова","kp_id":"46415","imdb_id":"tt0079619","world_art_id":null,"type":"movie","add":"2016-11-20 08:20:09","orig_title":"Neskolko dney iz zhizni I.I. Oblomova","year":"1980-06-14","translations":["Оригинальная дорожка"],"quality":"bd","translation":"Оригинальная дорожка","update":"2016-11-22 06:52:55","iframe_src":"//7720.svetacdn.in/IAF0wWTdNYZm/movie/7531"},{"id":7530,"title":"Неотправленное письмо","kp_id":"46400","imdb_id":"tt0053106","world_art_id":null,"type":"movie","add":"2016-11-20 08:18:45","orig_title":"Neotpravlennoe pismo","year":"1960-09-16","translations":["Оригинальная дорожка"],"quality":"bd","translation":"Оригинальная дорожка","update":"2016-11-22 06:51:04","iframe_src":"//7720.svetacdn.in/IAF0wWTdNYZm/movie/7530"},{"id":7529,"title":"Небесный тихоход","kp_id":"46376","imdb_id":"tt0129257","world_art_id":null,"type":"movie","add":"2016-11-20 08:17:28","orig_title":"Nebesnyy tikhokhod","year":"1946-04-01","translations":["Оригинальная дорожка"],"quality":"bd","translation":"Оригинальная дорожка","update":"2016-11-22 06:48:57","iframe_src":"//7720.svetacdn.in/IAF0wWTdNYZm/movie/7529"},{"id":7528,"title":"Москва слезам не верит","kp_id":"46708","imdb_id":"tt0079579","world_art_id":null,"type":"movie","add":"2016-11-20 08:15:09","orig_title":"Moskva slezam ne verit","year":"1980-09-26","translations":["Оригинальная дорожка"],"quality":"bd","translation":"Оригинальная дорожка","update":"2016-11-22 06:47:25","iframe_src":"//7720.svetacdn.in/IAF0wWTdNYZm/movie/7528"},{"id":7525,"title":"Королевство кривых зеркал","kp_id":"44929","imdb_id":"tt0145033","world_art_id":null,"type":"movie","add":"2016-11-20 08:10:22","orig_title":"Korolevstvo krivykh zerkal","year":"1963-08-28","translations":["Оригинальная дорожка"],"quality":"bd","translation":"Оригинальная дорожка","update":"2016-11-22 06:41:30","iframe_src":"//7720.svetacdn.in/IAF0wWTdNYZm/movie/7525"},{"id":7524,"title":"Кино про Алексеева","kp_id":"839744","imdb_id":"tt4102304","world_art_id":null,"type":"movie","add":"2016-11-20 08:09:09","orig_title":"Kino pro Alekseeva","year":"2014-11-24","translations":["Оригинальная дорожка"],"quality":"webdl","translation":"Оригинальная дорожка","update":"2016-11-22 06:36:49","iframe_src":"//7720.svetacdn.in/IAF0wWTdNYZm/movie/7524"},{"id":7522,"title":"Иваново детство","kp_id":"42667","imdb_id":"tt0056111","world_art_id":null,"type":"movie","add":"2016-11-20 08:06:35","orig_title":"Ivanovo detstvo","year":"1962-05-09","translations":["Оригинальная дорожка"],"quality":"bd","translation":"Оригинальная дорожка","update":"2016-11-22 06:39:22","iframe_src":"//7720.svetacdn.in/IAF0wWTdNYZm/movie/7522"},{"id":7521,"title":"Ирония судьбы. Продолжение","kp_id":"276261","imdb_id":"tt0987918","world_art_id":null,"type":"movie","add":"2016-11-20 08:05:23","orig_title":"Ironiya sudby. Prodolzhenie","year":"2007-12-21","translations":["Оригинальная дорожка"],"quality":"bd","translation":"Оригинальная дорожка","update":"2016-11-22 06:35:05","iframe_src":"//7720.svetacdn.in/IAF0wWTdNYZm/movie/7521"},{"id":7478,"title":"Побег из тюрьмы: Финальный побег","kp_id":"415249","imdb_id":"tt1131748","world_art_id":null,"type":"movie","add":"2016-11-18 08:33:01","orig_title":"Prison Break: The Final Break","year":"2009-05-24","translations":["Полное дублирование"],"quality":"bd","translation":"Полное дублирование","update":"2016-11-21 14:39:22","iframe_src":"//7720.svetacdn.in/IAF0wWTdNYZm/movie/7478"}],"current_page":2342,"first_page_url":"https://videocdn.tv/api/short?limit=100&api_token=6Onb1W1alEUrBcKJZD3GoKBbWyAl2uG2&cache32342=32342&page=1","from":234101,"last_page":648,"last_page_url":"https://videocdn.tv/api/short?limit=100&api_token=6Onb1W1alEUrBcKJZD3GoKBbWyAl2uG2&cache32342=32342&page=648","next_page_url":null,"path":"https://videocdn.tv/api/short","per_page":100,"prev_page_url":"https://videocdn.tv/api/short?limit=100&api_token=6Onb1W1alEUrBcKJZD3GoKBbWyAl2uG2&cache32342=32342&page=2341","to":234120,"total":64722}