{"result":true,"data":[{"id":41948,"title":"Мы рисуем Октябрь","kp_id":"1046115","imdb_id":null,"world_art_id":null,"type":"movie","add":"2020-07-23 18:00:12","orig_title":"Мы рисуем Октябрь","year":"1977-01-01","translations":["Оригинальная дорожка"],"quality":"webdl","translation":"Оригинальная дорожка","update":"2020-07-24 06:35:33","iframe_src":"//7043.svetacdn.in/si4jsFRrtgrT/movie/41948"},{"id":41947,"title":"Наваждение Родамуса Кверка","kp_id":"1111727","imdb_id":null,"world_art_id":null,"type":"movie","add":"2020-07-23 17:57:23","orig_title":"Наваждение Родамуса Кверка","year":"1983-01-01","translations":["Оригинальная дорожка"],"quality":"webdl","translation":"Оригинальная дорожка","update":"2020-07-24 06:34:39","iframe_src":"//7043.svetacdn.in/si4jsFRrtgrT/movie/41947"},{"id":41946,"title":"Небесная история","kp_id":"257968","imdb_id":null,"world_art_id":null,"type":"movie","add":"2020-07-23 17:53:20","orig_title":"Небесная история","year":"1962-01-01","translations":["Оригинальная дорожка"],"quality":"sat","translation":"Оригинальная дорожка","update":"2020-07-24 06:33:11","iframe_src":"//7043.svetacdn.in/si4jsFRrtgrT/movie/41946"},{"id":41945,"title":"Сказ о Чапаеве","kp_id":"818472","imdb_id":"tt12421692","world_art_id":null,"type":"movie","add":"2020-07-23 17:30:13","orig_title":"Skaz o Chapaeve","year":"1958-01-01","translations":["Оригинальная дорожка"],"quality":"webdl","translation":"Оригинальная дорожка","update":"2020-07-24 06:30:43","iframe_src":"//7043.svetacdn.in/si4jsFRrtgrT/movie/41945"},{"id":41944,"title":"Тебе — атакующий класс!","kp_id":"1271119","imdb_id":null,"world_art_id":null,"type":"movie","add":"2020-07-23 17:26:12","orig_title":"Тебе — атакующий класс!","year":"1977-01-01","translations":["Оригинальная дорожка"],"quality":"webdl","translation":"Оригинальная дорожка","update":"2020-07-24 06:29:36","iframe_src":"//7043.svetacdn.in/si4jsFRrtgrT/movie/41944"},{"id":41943,"title":"Ложь во спасение","kp_id":"1206229","imdb_id":"tt9169036","world_art_id":null,"type":"movie","add":"2020-07-23 12:47:33","orig_title":"White Lie","year":"2019-09-07","translations":["Любительский (многоголосый закадровый) (Синема УС)"],"quality":"webdl","translation":"Любительский (многоголосый закадровый) (Синема УС)","update":"2020-07-23 21:07:34","iframe_src":"//7043.svetacdn.in/si4jsFRrtgrT/movie/41943"},{"id":41941,"title":"Это главное","kp_id":"1231229","imdb_id":"tt9602058","world_art_id":null,"type":"movie","add":"2020-07-22 20:43:47","orig_title":"It's Major","year":"2019-04-04","translations":["Любительский (многоголосый закадровый) (Синема УС)"],"quality":"webdl","translation":"Любительский (многоголосый закадровый) (Синема УС)","update":"2020-07-23 11:44:17","iframe_src":"//7043.svetacdn.in/si4jsFRrtgrT/movie/41941"},{"id":41940,"title":"Собачий парк","kp_id":"1061335","imdb_id":"tt7070486","world_art_id":null,"type":"movie","add":"2020-07-22 20:42:18","orig_title":"Dog Park","year":"2017-10-06","translations":["Любительский (многоголосый закадровый) (Синема УС)"],"quality":"webdl","translation":"Любительский (многоголосый закадровый) (Синема УС)","update":"2020-07-23 11:44:44","iframe_src":"//7043.svetacdn.in/si4jsFRrtgrT/movie/41940"},{"id":41939,"title":"Приглашённый драматург","kp_id":"1171978","imdb_id":"tt8650976","world_art_id":null,"type":"movie","add":"2020-07-22 20:40:30","orig_title":"Guest Artist","year":"2019-02-15","translations":["Любительский (многоголосый закадровый) (Синема УС)"],"quality":"webdl","translation":"Любительский (многоголосый закадровый) (Синема УС)","update":"2020-07-23 11:45:11","iframe_src":"//7043.svetacdn.in/si4jsFRrtgrT/movie/41939"},{"id":41936,"title":"Самый обычный роман","kp_id":"1227763","imdb_id":"tt11041006","world_art_id":null,"type":"movie","add":"2020-07-21 23:03:28","orig_title":"Gajang Botongui Yeonae","year":"2019-10-02","translations":["Любительский (двухголосый закадровый)"],"quality":"webdl","translation":"Любительский (двухголосый закадровый)","update":"2020-07-24 06:25:24","iframe_src":"//7043.svetacdn.in/si4jsFRrtgrT/movie/41936"},{"id":41935,"title":"Огонь","kp_id":"663680","imdb_id":"tt2175823","world_art_id":null,"type":"movie","add":"2020-07-21 22:58:56","orig_title":"Nippu","year":"2012-02-16","translations":["Профессиональный (многоголосый закадровый)"],"quality":"webdl","translation":"Профессиональный (многоголосый закадровый)","update":"2020-07-24 06:14:42","iframe_src":"//7043.svetacdn.in/si4jsFRrtgrT/movie/41935"},{"id":41930,"title":"Соломенная шляпка","kp_id":"77336","imdb_id":"tt0174225","world_art_id":null,"type":"movie","add":"2020-07-21 20:13:42","orig_title":"Solomennaya shlyapka","year":"1975-01-04","translations":["Оригинальная дорожка"],"quality":"hdtv","translation":"Оригинальная дорожка","update":"2020-07-23 11:47:20","iframe_src":"//7043.svetacdn.in/si4jsFRrtgrT/movie/41930"},{"id":41841,"title":"Ископаемый","kp_id":"713467","imdb_id":"tt2580830","world_art_id":null,"type":"movie","add":"2020-07-18 10:15:15","orig_title":"Iskopaemyy","year":"2012-10-19","translations":["Оригинальная дорожка"],"quality":"webdl","translation":"Оригинальная дорожка","update":"2020-07-23 07:20:09","iframe_src":"//7043.svetacdn.in/si4jsFRrtgrT/movie/41841"},{"id":41699,"title":"Бессмертная гвардия","kp_id":"1178278","imdb_id":"tt7556122","world_art_id":null,"type":"movie","add":"2020-07-10 09:44:21","orig_title":"The Old Guard","year":"2020-07-10","translations":["Полное дублирование (Пифагор)","Original (English)","Профессиональный (многоголосый закадровый) (HDrezka Studio)","Профессиональный (многоголосый закадровый) (HDrezka Studio)"],"quality":"webdl","translation":"Полное дублирование (Пифагор)","update":"2020-07-23 16:44:58","iframe_src":"//7043.svetacdn.in/si4jsFRrtgrT/movie/41699"},{"id":40799,"title":"Бескрайняя ночь","kp_id":"1083297","imdb_id":"tt6803046","world_art_id":null,"type":"movie","add":"2020-05-30 11:52:31","orig_title":"The Vast of Night","year":"2019-01-26","translations":["Любительский (многоголосый закадровый) (Синема УС)","Профессиональный (многоголосый закадровый) (HDrezka Studio)","Профессиональный (многоголосый закадровый) (HDrezka Studio)"],"quality":"webdl","translation":"Любительский (многоголосый закадровый) (Синема УС)","update":"2020-07-23 16:43:03","iframe_src":"//7043.svetacdn.in/si4jsFRrtgrT/movie/40799"},{"id":34029,"title":"Татуировка","kp_id":"274358","imdb_id":"tt0200740","world_art_id":null,"type":"movie","add":"2019-12-12 20:45:51","orig_title":"Irezumi","year":"1966-01-15","translations":["Авторский (одноголосый закадровый) (Кузнецов Сергей)","Авторский (одноголосый закадровый) (Кузнецов Сергей)"],"quality":"dvdrip","translation":"Авторский (одноголосый закадровый) (Кузнецов Сергей)","update":"2020-07-24 06:26:21","iframe_src":"//7043.svetacdn.in/si4jsFRrtgrT/movie/34029"},{"id":31784,"title":"Битва при Фэнудун","kp_id":"1178296","imdb_id":"tt10510654","world_art_id":null,"type":"movie","add":"2019-10-12 18:37:45","orig_title":"Bongodong jeontu","year":"2019-08-07","translations":["Любительский (многоголосый закадровый) (Колобок)","Любительский (двухголосый закадровый) (DeadSno & den904)"],"quality":"webdl","translation":"Любительский (многоголосый закадровый) (Колобок)","update":"2020-07-24 06:12:20","iframe_src":"//7043.svetacdn.in/si4jsFRrtgrT/movie/31784"},{"id":31715,"title":"Тайна Сорбонны","kp_id":"1183096","imdb_id":"tt8653328","world_art_id":null,"type":"movie","add":"2019-10-10 20:45:41","orig_title":"Mystère à la Sorbonne","year":"2018-12-16","translations":["Профессиональный (многоголосый закадровый) (AlphaProject)","Профессиональный (многоголосый закадровый) (CLS Media)"],"quality":"hdtv","translation":"Профессиональный (многоголосый закадровый) (AlphaProject)","update":"2020-07-23 07:12:14","iframe_src":"//7043.svetacdn.in/si4jsFRrtgrT/movie/31715"},{"id":24174,"title":"Рикки-Тикки-Тави","kp_id":"42094","imdb_id":"tt0213197","world_art_id":null,"type":"movie","add":"2019-04-09 08:15:13","orig_title":"Rikki-Tikki-Tavi","year":"1965-06-03","translations":["Оригинальная дорожка","Оригинальная дорожка"],"quality":"dvdrip","translation":"Оригинальная дорожка","update":"2020-07-24 06:31:42","iframe_src":"//7043.svetacdn.in/si4jsFRrtgrT/movie/24174"},{"id":23134,"title":"Чумовая семейка: Зомби на продажу","kp_id":"1049076","imdb_id":"tt9765144","world_art_id":null,"type":"movie","add":"2019-03-15 16:26:18","orig_title":"Gimyohan gajok","year":"2019-02-13","translations":["Любительский (многоголосый закадровый) (Колобок)","Любительский (двухголосый закадровый) (STEPonee)","Любительский (двухголосый закадровый) (STEPonee)"],"quality":"webdl","translation":"Любительский (многоголосый закадровый) (Колобок)","update":"2020-07-24 06:10:05","iframe_src":"//7043.svetacdn.in/si4jsFRrtgrT/movie/23134"},{"id":851,"title":"Между любовью и ненавистью","kp_id":"1008511","imdb_id":null,"world_art_id":null,"type":"serial","add":"2017-01-09 18:40:06","orig_title":"Між любов'ю та ненавистю","year":"2016-12-26","translations":["Оригинальная дорожка"],"seasons_count":1,"episodes_count":8,"episodes":8,"update":"2017-01-10 05:52:39","iframe_src":"//7043.svetacdn.in/si4jsFRrtgrT/tv-series/851"},{"id":850,"title":"Три королевы","kp_id":"1008105","imdb_id":null,"world_art_id":null,"type":"serial","add":"2017-01-09 18:30:06","orig_title":"Три королевы","year":"2016-12-26","translations":["Оригинальная дорожка"],"seasons_count":1,"episodes_count":8,"episodes":8,"update":"2017-01-10 06:09:43","iframe_src":"//7043.svetacdn.in/si4jsFRrtgrT/tv-series/850"},{"id":848,"title":"Чужие и близкие","kp_id":"1008509","imdb_id":null,"world_art_id":null,"type":"serial","add":"2017-01-09 18:18:56","orig_title":"Чужие и близкие","year":"2016-12-26","translations":["Оригинальная дорожка"],"seasons_count":1,"episodes_count":4,"episodes":4,"update":"2017-01-10 06:17:07","iframe_src":"//7043.svetacdn.in/si4jsFRrtgrT/tv-series/848"},{"id":844,"title":"Тренер","kp_id":"992621","imdb_id":null,"world_art_id":null,"type":"serial","add":"2017-01-09 10:55:22","orig_title":"Тренер","year":"2016-12-31","translations":["Оригинальная дорожка"],"seasons_count":1,"episodes_count":2,"episodes":2,"update":"2017-01-10 06:03:21","iframe_src":"//7043.svetacdn.in/si4jsFRrtgrT/tv-series/844"},{"id":843,"title":"Первое правило королевы","kp_id":"419414","imdb_id":null,"world_art_id":null,"type":"serial","add":"2017-01-09 06:30:12","orig_title":"Первое правило королевы","year":"2006-08-03","translations":["Оригинальная дорожка"],"seasons_count":1,"episodes_count":4,"episodes":4,"update":"2017-01-10 05:58:23","iframe_src":"//7043.svetacdn.in/si4jsFRrtgrT/tv-series/843"},{"id":842,"title":"Кулинар","kp_id":"681251","imdb_id":"tt2819270","world_art_id":null,"type":"serial","add":"2017-01-09 06:25:38","orig_title":"Kulinar","year":"2012-05-14","translations":["Оригинальная дорожка"],"seasons_count":1,"episodes_count":20,"episodes":20,"update":"2017-01-10 06:41:54","iframe_src":"//7043.svetacdn.in/si4jsFRrtgrT/tv-series/842"},{"id":841,"title":"Рифмуется с любовью","kp_id":"464884","imdb_id":"tt3085478","world_art_id":null,"type":"serial","add":"2017-01-09 06:25:03","orig_title":"Rifmuetsya s lyubovyu","year":"2006-01-01","translations":["Оригинальная дорожка"],"seasons_count":1,"episodes_count":2,"episodes":2,"update":"2017-01-09 11:56:42","iframe_src":"//7043.svetacdn.in/si4jsFRrtgrT/tv-series/841"},{"id":840,"title":"Новые приключения Ниро Вульфа и Арчи Гудвина","kp_id":"596111","imdb_id":null,"world_art_id":null,"type":"serial","add":"2017-01-09 06:19:31","orig_title":"Новые приключения Ниро Вульфа и Арчи Гудвина","year":"2004-01-01","translations":["Оригинальная дорожка"],"seasons_count":1,"episodes_count":8,"episodes":8,"update":"2017-01-09 12:29:54","iframe_src":"//7043.svetacdn.in/si4jsFRrtgrT/tv-series/840"},{"id":838,"title":"Банды","kp_id":"565161","imdb_id":"tt4042116","world_art_id":null,"type":"serial","add":"2017-01-08 12:56:09","orig_title":"Bandy","year":"2010-09-23","translations":["Оригинальная дорожка"],"seasons_count":1,"episodes_count":12,"episodes":12,"update":"2017-01-08 18:44:09","iframe_src":"//7043.svetacdn.in/si4jsFRrtgrT/tv-series/838"},{"id":837,"title":"Бедные родственники","kp_id":"719866","imdb_id":"tt2842912","world_art_id":null,"type":"serial","add":"2017-01-08 12:51:37","orig_title":"Bednye rodstvenniki","year":"2012-12-11","translations":["Оригинальная дорожка"],"seasons_count":1,"episodes_count":16,"episodes":16,"update":"2017-01-09 10:19:33","iframe_src":"//7043.svetacdn.in/si4jsFRrtgrT/tv-series/837"},{"id":836,"title":"Поделись счастьем своим","kp_id":"838579","imdb_id":null,"world_art_id":null,"type":"serial","add":"2017-01-08 12:31:52","orig_title":"Поделись счастьем своим","year":"2015-05-23","translations":["Оригинальная дорожка"],"seasons_count":1,"episodes_count":4,"episodes":4,"update":"2017-01-09 10:47:13","iframe_src":"//7043.svetacdn.in/si4jsFRrtgrT/tv-series/836"},{"id":835,"title":"Стройка","kp_id":"841687","imdb_id":null,"world_art_id":null,"type":"serial","add":"2017-01-08 11:19:10","orig_title":"Стройка","year":"2017-01-02","translations":["Оригинальная дорожка"],"seasons_count":1,"episodes_count":20,"episodes":20,"update":"2017-01-09 10:32:06","iframe_src":"//7043.svetacdn.in/si4jsFRrtgrT/tv-series/835"},{"id":834,"title":"Слепой","kp_id":"400061","imdb_id":"tt4265764","world_art_id":null,"type":"serial","add":"2017-01-08 10:29:04","orig_title":"Slepoy","year":"2008-12-04","translations":["Оригинальная дорожка"],"seasons_count":1,"episodes_count":8,"episodes":8,"update":"2017-01-08 16:54:52","iframe_src":"//7043.svetacdn.in/si4jsFRrtgrT/tv-series/834"},{"id":832,"title":"Перевозчик","kp_id":"587984","imdb_id":"tt1885102","world_art_id":null,"type":"serial","add":"2017-01-08 10:13:06","orig_title":"Transporter: The Series","year":"2012-11-29","translations":["Профессиональный (многоголосый закадровый) (LostFilm)"],"seasons_count":2,"episodes_count":24,"episodes":12,"update":"2017-01-08 17:15:25","iframe_src":"//7043.svetacdn.in/si4jsFRrtgrT/tv-series/832"},{"id":828,"title":"Верни мою любовь","kp_id":"846894","imdb_id":"tt4307052","world_art_id":null,"type":"serial","add":"2017-01-07 14:00:48","orig_title":"Verni moyu lyubov","year":"2014-12-08","translations":["Оригинальная дорожка"],"seasons_count":1,"episodes_count":24,"episodes":24,"update":"2017-01-08 12:27:19","iframe_src":"//7043.svetacdn.in/si4jsFRrtgrT/tv-series/828"},{"id":827,"title":"Грешник","kp_id":"807496","imdb_id":"tt3660088","world_art_id":null,"type":"serial","add":"2017-01-07 13:15:23","orig_title":"Greshnik","year":"2015-05-29","translations":["Оригинальная дорожка"],"seasons_count":1,"episodes_count":2,"episodes":2,"update":"2017-01-07 17:21:06","iframe_src":"//7043.svetacdn.in/si4jsFRrtgrT/tv-series/827"},{"id":823,"title":"Доброе имя","kp_id":"840043","imdb_id":"tt3772494","world_art_id":null,"type":"serial","add":"2017-01-07 08:02:24","orig_title":"Dobroe imya","year":"2014-05-19","translations":["Оригинальная дорожка"],"seasons_count":1,"episodes_count":12,"episodes":12,"update":"2017-01-09 06:55:50","iframe_src":"//7043.svetacdn.in/si4jsFRrtgrT/tv-series/823"},{"id":802,"title":"Острог. Дело Федора Сеченова","kp_id":"405659","imdb_id":null,"world_art_id":null,"type":"serial","add":"2017-01-02 11:07:28","orig_title":"Острог. Дело Федора Сеченова","year":"2006-08-01","translations":["Оригинальная дорожка"],"seasons_count":1,"episodes_count":40,"episodes":40,"update":"2017-01-07 09:01:07","iframe_src":"//7043.svetacdn.in/si4jsFRrtgrT/tv-series/802"},{"id":756,"title":"Удаленные","kp_id":"1008004","imdb_id":"tt5684430","world_art_id":null,"type":"serial","add":"2016-12-28 16:22:29","orig_title":"The Deleted","year":"2016-12-04","translations":["Любительский (двухголосый закадровый) (Hamster Studio)"],"seasons_count":1,"episodes_count":8,"episodes":8,"update":"2017-01-09 08:19:59","iframe_src":"//7043.svetacdn.in/si4jsFRrtgrT/tv-series/756"},{"id":708,"title":"Улица потрошителя","kp_id":"677725","imdb_id":"tt2183641","world_art_id":null,"type":"serial","add":"2016-12-19 08:54:27","orig_title":"Ripper Street","year":"2012-12-30","translations":["Профессиональный (многоголосый закадровый) (NewStudio)"],"seasons_count":5,"episodes_count":36,"episodes":6,"update":"2017-01-09 07:06:41","iframe_src":"//7043.svetacdn.in/si4jsFRrtgrT/tv-series/708"}],"current_page":489,"first_page_url":"https://videocdn.tv/api/short?limit=100&api_token=X6EwAUfE5M9xbo7y0Bp0aPf3uXxG2KLL&cache3489=3489&page=1","from":48801,"last_page":613,"last_page_url":"https://videocdn.tv/api/short?limit=100&api_token=X6EwAUfE5M9xbo7y0Bp0aPf3uXxG2KLL&cache3489=3489&page=613","next_page_url":"https://videocdn.tv/api/short?limit=100&api_token=X6EwAUfE5M9xbo7y0Bp0aPf3uXxG2KLL&cache3489=3489&page=490","path":"https://videocdn.tv/api/short","per_page":100,"prev_page_url":"https://videocdn.tv/api/short?limit=100&api_token=X6EwAUfE5M9xbo7y0Bp0aPf3uXxG2KLL&cache3489=3489&page=488","to":48840,"total":61220}