{"result":true,"data":[{"id":24435,"title":"Петька в космосе","kp_id":"474724","imdb_id":"tt1538515","world_art_id":null,"type":"movie","add":"2019-04-12 18:42:03","orig_title":"Petka v kosmose","year":"1973-04-30","translations":["Оригинальная дорожка"],"quality":"sat","translation":"Оригинальная дорожка","update":"2019-04-16 11:06:52","iframe_src":"//8209.svetacdn.in/71tsRs29n5tZ/movie/24435"},{"id":24432,"title":"По следу Феникса","kp_id":"453026","imdb_id":"tt3816174","world_art_id":null,"type":"movie","add":"2019-04-12 18:27:03","orig_title":"Po sledu Feniksa","year":"2009-10-18","translations":["Оригинальная дорожка"],"quality":"dvdrip","translation":"Оригинальная дорожка","update":"2019-04-16 11:04:44","iframe_src":"//8209.svetacdn.in/71tsRs29n5tZ/movie/24432"},{"id":24427,"title":"Подснежники и эдельвейсы","kp_id":"43052","imdb_id":"tt0188150","world_art_id":null,"type":"movie","add":"2019-04-12 18:11:48","orig_title":"Dzentzaghikner yev Edelveysner","year":"1982-03-20","translations":["Оригинальная дорожка"],"quality":"sat","translation":"Оригинальная дорожка","update":"2019-04-16 11:03:06","iframe_src":"//8209.svetacdn.in/71tsRs29n5tZ/movie/24427"},{"id":24426,"title":"Поединок","kp_id":"43196","imdb_id":"tt0140466","world_art_id":null,"type":"movie","add":"2019-04-12 18:06:11","orig_title":"Poyedinok","year":"1957-12-02","translations":["Оригинальная дорожка"],"quality":"dvdrip","translation":"Оригинальная дорожка","update":"2019-04-16 10:57:54","iframe_src":"//8209.svetacdn.in/71tsRs29n5tZ/movie/24426"},{"id":24425,"title":"Последние залпы","kp_id":"43157","imdb_id":"tt0177988","world_art_id":null,"type":"movie","add":"2019-04-12 18:01:56","orig_title":"Poslednie zalpy","year":"1961-05-09","translations":["Оригинальная дорожка"],"quality":"sat","translation":"Оригинальная дорожка","update":"2019-04-16 10:57:03","iframe_src":"//8209.svetacdn.in/71tsRs29n5tZ/movie/24425"},{"id":24402,"title":"Путь к себе","kp_id":"493798","imdb_id":"tt1586262","world_art_id":null,"type":"movie","add":"2019-04-12 13:29:24","orig_title":"Put k sebe","year":"2010-04-10","translations":["Оригинальная дорожка"],"quality":"sat","translation":"Оригинальная дорожка","update":"2019-04-16 10:55:40","iframe_src":"//8209.svetacdn.in/71tsRs29n5tZ/movie/24402"},{"id":24401,"title":"Пятнадцатилетний капитан","kp_id":"43379","imdb_id":"tt0038841","world_art_id":null,"type":"movie","add":"2019-04-12 13:23:15","orig_title":"Pyatnadtsatiletniy kapitan","year":"1946-03-18","translations":["Оригинальная дорожка"],"quality":"dvdrip","translation":"Оригинальная дорожка","update":"2019-04-16 10:55:31","iframe_src":"//8209.svetacdn.in/71tsRs29n5tZ/movie/24401"},{"id":24400,"title":"Ревизор","kp_id":"467563","imdb_id":"tt8202476","world_art_id":null,"type":"movie","add":"2019-04-12 13:15:15","orig_title":"Revizor","year":"1982-01-01","translations":["Оригинальная дорожка"],"quality":"dvdrip","translation":"Оригинальная дорожка","update":"2019-04-16 10:54:48","iframe_src":"//8209.svetacdn.in/71tsRs29n5tZ/movie/24400"},{"id":24399,"title":"Счастливый конец","kp_id":"464941","imdb_id":"tt1569498","world_art_id":null,"type":"movie","add":"2019-04-12 13:05:52","orig_title":"Schastlivyy konets","year":"2010-01-07","translations":["Оригинальная дорожка"],"quality":"dvdrip","translation":"Оригинальная дорожка","update":"2019-04-16 10:53:39","iframe_src":"//8209.svetacdn.in/71tsRs29n5tZ/movie/24399"},{"id":24398,"title":"Секретная миссия","kp_id":"43656","imdb_id":"tt0175148","world_art_id":null,"type":"movie","add":"2019-04-12 12:32:17","orig_title":"Sekretnaya missiya","year":"1950-08-21","translations":["Оригинальная дорожка"],"quality":"sat","translation":"Оригинальная дорожка","update":"2019-04-16 10:52:24","iframe_src":"//8209.svetacdn.in/71tsRs29n5tZ/movie/24398"},{"id":24397,"title":"Следопыт","kp_id":"43840","imdb_id":"tt0093992","world_art_id":null,"type":"movie","add":"2019-04-12 12:22:20","orig_title":"Sledopyt","year":"1987-01-01","translations":["Оригинальная дорожка"],"quality":"dvdrip","translation":"Оригинальная дорожка","update":"2019-04-16 10:51:03","iframe_src":"//8209.svetacdn.in/71tsRs29n5tZ/movie/24397"},{"id":24396,"title":"Случайная запись","kp_id":"446115","imdb_id":"tt2922410","world_art_id":null,"type":"movie","add":"2019-04-12 12:16:42","orig_title":"Sluchaynaya zapis","year":"2009-04-19","translations":["Оригинальная дорожка"],"quality":"dvdrip","translation":"Оригинальная дорожка","update":"2019-04-16 10:50:02","iframe_src":"//8209.svetacdn.in/71tsRs29n5tZ/movie/24396"},{"id":24395,"title":"Смелые люди","kp_id":"43873","imdb_id":"tt0042977","world_art_id":null,"type":"movie","add":"2019-04-12 12:11:01","orig_title":"Smelye lyudi","year":"1950-09-07","translations":["Оригинальная дорожка"],"quality":"dvdrip","translation":"Оригинальная дорожка","update":"2019-04-16 10:49:51","iframe_src":"//8209.svetacdn.in/71tsRs29n5tZ/movie/24395"},{"id":24394,"title":"Свистать всех наверх!","kp_id":"533047","imdb_id":"tt1718910","world_art_id":null,"type":"movie","add":"2019-04-12 11:59:51","orig_title":"Svistat vsekh naverkh!","year":"1971-11-05","translations":["Оригинальная дорожка"],"quality":"dvdrip","translation":"Оригинальная дорожка","update":"2019-04-16 10:48:35","iframe_src":"//8209.svetacdn.in/71tsRs29n5tZ/movie/24394"},{"id":24393,"title":"Сын полка","kp_id":"44067","imdb_id":"tt0039005","world_art_id":null,"type":"movie","add":"2019-04-12 11:46:50","orig_title":"Syn polka","year":"1946-10-16","translations":["Оригинальная дорожка"],"quality":"dvdrip","translation":"Оригинальная дорожка","update":"2019-04-16 10:47:35","iframe_src":"//8209.svetacdn.in/71tsRs29n5tZ/movie/24393"},{"id":24392,"title":"Тень","kp_id":"42230","imdb_id":"tt0217841","world_art_id":null,"type":"movie","add":"2019-04-12 11:42:10","orig_title":"Ten","year":"1971-09-18","translations":["Оригинальная дорожка"],"quality":"dvdrip","translation":"Оригинальная дорожка","update":"2019-04-16 10:46:22","iframe_src":"//8209.svetacdn.in/71tsRs29n5tZ/movie/24392"},{"id":24391,"title":"Путь в «Сатурн»","kp_id":"43356","imdb_id":"tt0168139","world_art_id":null,"type":"movie","add":"2019-04-12 11:28:30","orig_title":"Put v 'Saturn'","year":"1967-12-25","translations":["Оригинальная дорожка"],"quality":"dvdrip","translation":"Оригинальная дорожка","update":"2019-04-16 10:45:22","iframe_src":"//8209.svetacdn.in/71tsRs29n5tZ/movie/24391"},{"id":24388,"title":"V Центурия. В поисках зачарованных сокровищ","kp_id":"457810","imdb_id":"tt1603447","world_art_id":null,"type":"movie","add":"2019-04-12 11:04:11","orig_title":"V Tsenturiya. V poiskakh zacharovannykh sokrovishch","year":"2012-01-06","translations":["Оригинальная дорожка"],"quality":"dvdrip","translation":"Оригинальная дорожка","update":"2019-04-16 10:43:17","iframe_src":"//8209.svetacdn.in/71tsRs29n5tZ/movie/24388"},{"id":24387,"title":"В мирные дни","kp_id":"45604","imdb_id":"tt0043095","world_art_id":null,"type":"movie","add":"2019-04-12 10:57:44","orig_title":"V mirnye dni","year":"1951-04-16","translations":["Оригинальная дорожка"],"quality":"dvdrip","translation":"Оригинальная дорожка","update":"2019-04-16 10:42:22","iframe_src":"//8209.svetacdn.in/71tsRs29n5tZ/movie/24387"},{"id":23595,"title":"Подкидыш","kp_id":"43044","imdb_id":"tt0184823","world_art_id":null,"type":"movie","add":"2019-03-28 09:13:05","orig_title":"Podkidysh","year":"1940-01-27","translations":["Оригинальная дорожка","Оригинальная дорожка"],"quality":"dvdrip","translation":"Оригинальная дорожка","update":"2019-04-16 11:04:24","iframe_src":"//8209.svetacdn.in/71tsRs29n5tZ/movie/23595"}],"current_page":1625,"first_page_url":"https://videocdn.tv/api/short?limit=100&api_token=EnbO9h8pv1VyjbCJhg0WM9nG259n7mtz&cache31625=31625&page=1","from":162401,"last_page":654,"last_page_url":"https://videocdn.tv/api/short?limit=100&api_token=EnbO9h8pv1VyjbCJhg0WM9nG259n7mtz&cache31625=31625&page=654","next_page_url":null,"path":"https://videocdn.tv/api/short","per_page":100,"prev_page_url":"https://videocdn.tv/api/short?limit=100&api_token=EnbO9h8pv1VyjbCJhg0WM9nG259n7mtz&cache31625=31625&page=1624","to":162420,"total":65343}