{"result":true,"data":[{"id":21074,"title":"Темная сторона","kp_id":"593148","imdb_id":"tt1972752","world_art_id":null,"type":"movie","add":"2018-12-28 10:40:35","orig_title":"Shockwave Darkside","year":"2014-08-22","translations":["Любительский (двухголосый закадровый)"],"quality":"webdl","translation":"Любительский (двухголосый закадровый)","update":"2018-12-28 12:56:09","iframe_src":"//8543.svetacdn.in/si4jsFRrtgrT/movie/21074"},{"id":21073,"title":"Добро пожаловать на Рождество","kp_id":"1196126","imdb_id":"tt9033308","world_art_id":null,"type":"movie","add":"2018-12-28 10:38:42","orig_title":"Welcome to Christmas","year":"2018-12-09","translations":["Любительский (многоголосый закадровый) (Синема УС)"],"quality":"hdtv","translation":"Любительский (многоголосый закадровый) (Синема УС)","update":"2018-12-28 12:53:49","iframe_src":"//8543.svetacdn.in/si4jsFRrtgrT/movie/21073"},{"id":21071,"title":"Секс, смерть и боулинг","kp_id":"804653","imdb_id":"tt3250032","world_art_id":null,"type":"movie","add":"2018-12-28 10:27:55","orig_title":"Sex, Death and Bowling","year":"2015-10-02","translations":["Любительский (многоголосый закадровый) (Синема УС)"],"quality":"webdl","translation":"Любительский (многоголосый закадровый) (Синема УС)","update":"2018-12-28 12:50:26","iframe_src":"//8543.svetacdn.in/si4jsFRrtgrT/movie/21071"},{"id":21070,"title":"Секс-игрушка","kp_id":"745582","imdb_id":"tt3144390","world_art_id":null,"type":"movie","add":"2018-12-28 10:26:00","orig_title":"Norigae","year":"2013-04-18","translations":["Любительский (двухголосый закадровый) (DeadSno & den904)"],"quality":"dvdrip","translation":"Любительский (двухголосый закадровый) (DeadSno & den904)","update":"2018-12-28 12:49:23","iframe_src":"//8543.svetacdn.in/si4jsFRrtgrT/movie/21070"},{"id":21068,"title":"Как воскресенье, так дождь","kp_id":"786126","imdb_id":"tt3104818","world_art_id":null,"type":"movie","add":"2018-12-28 10:22:36","orig_title":"Like Sunday, Like Rain","year":"2014-09-27","translations":["Любительский (многоголосый закадровый) (Синема УС)"],"quality":"webdl","translation":"Любительский (многоголосый закадровый) (Синема УС)","update":"2018-12-28 12:47:20","iframe_src":"//8543.svetacdn.in/si4jsFRrtgrT/movie/21068"},{"id":21067,"title":"Пришпиленный капрал","kp_id":"160777","imdb_id":"tt0055827","world_art_id":null,"type":"movie","add":"2018-12-28 10:20:45","orig_title":"Le caporal épinglé","year":"1962-05-23","translations":["Любительский (двухголосый закадровый)"],"quality":"dvdrip","translation":"Любительский (двухголосый закадровый)","update":"2018-12-28 12:46:17","iframe_src":"//8543.svetacdn.in/si4jsFRrtgrT/movie/21067"},{"id":21066,"title":"Прелюбодеи","kp_id":"874958","imdb_id":"tt4044464","world_art_id":null,"type":"movie","add":"2018-12-28 10:13:07","orig_title":"Avouterie","year":"2015-01-05","translations":["Любительский (двухголосый закадровый)"],"quality":"webdl","translation":"Любительский (двухголосый закадровый)","update":"2018-12-28 12:45:16","iframe_src":"//8543.svetacdn.in/si4jsFRrtgrT/movie/21066"},{"id":21064,"title":"Скрытые помыслы","kp_id":"1123173","imdb_id":"tt8164806","world_art_id":null,"type":"movie","add":"2018-12-27 17:20:32","orig_title":"Buried Secrets","year":"2018-08-23","translations":["Любительский (многоголосый закадровый) (Синема УС)"],"quality":"hdtv","translation":"Любительский (многоголосый закадровый) (Синема УС)","update":"2018-12-28 07:33:36","iframe_src":"//8543.svetacdn.in/si4jsFRrtgrT/movie/21064"},{"id":21063,"title":"Рождественский друг по переписке","kp_id":"1194618","imdb_id":"tt8942494","world_art_id":null,"type":"movie","add":"2018-12-27 17:10:50","orig_title":"Christmas Pen Pals","year":"2018-12-15","translations":["Любительский (многоголосый закадровый) (Синема УС)"],"quality":"hdtv","translation":"Любительский (многоголосый закадровый) (Синема УС)","update":"2018-12-28 07:34:58","iframe_src":"//8543.svetacdn.in/si4jsFRrtgrT/movie/21063"},{"id":21062,"title":"Лестница в небо","kp_id":"8417","imdb_id":"tt0038733","world_art_id":null,"type":"movie","add":"2018-12-27 11:57:27","orig_title":"A Matter of Life and Death","year":"1946-11-01","translations":["Профессиональный (многоголосый закадровый)"],"quality":"bd","translation":"Профессиональный (многоголосый закадровый)","update":"2018-12-28 07:43:20","iframe_src":"//8543.svetacdn.in/si4jsFRrtgrT/movie/21062"},{"id":21059,"title":"Второе лето, я тебя опять не увижу","kp_id":"1000640","imdb_id":"tt5959970","world_art_id":null,"type":"movie","add":"2018-12-27 11:52:12","orig_title":"Nidome no natsu, nidoto aenai kimi","year":"2017-09-01","translations":["Любительский (многоголосый закадровый) (Синема УС)"],"quality":"bd","translation":"Любительский (многоголосый закадровый) (Синема УС)","update":"2018-12-28 07:46:16","iframe_src":"//8543.svetacdn.in/si4jsFRrtgrT/movie/21059"},{"id":21058,"title":"Друзья по преступлению","kp_id":"1057183","imdb_id":"tt7210264","world_art_id":null,"type":"movie","add":"2018-12-27 11:50:49","orig_title":"Yuuzai","year":"2018-05-25","translations":["Любительский (многоголосый закадровый) (Синема УС)"],"quality":"bd","translation":"Любительский (многоголосый закадровый) (Синема УС)","update":"2018-12-28 07:47:39","iframe_src":"//8543.svetacdn.in/si4jsFRrtgrT/movie/21058"},{"id":21052,"title":"Откровение любви","kp_id":"408342","imdb_id":"tt1128075","world_art_id":null,"type":"movie","add":"2018-12-27 09:47:15","orig_title":"Ai no mukidashi","year":"2008-11-29","translations":["Любительский (одноголосый закадровый)"],"quality":"bd","translation":"Любительский (одноголосый закадровый)","update":"2018-12-27 18:23:05","iframe_src":"//8543.svetacdn.in/si4jsFRrtgrT/movie/21052"},{"id":20934,"title":"Миллион лет до нашей эры 2","kp_id":"261319","imdb_id":"tt0870921","world_art_id":null,"type":"movie","add":"2018-12-23 09:55:28","orig_title":"Sa majesté Minor","year":"2007-10-10","translations":["Полное дублирование"],"quality":"hdtv","translation":"Полное дублирование","update":"2018-12-28 09:58:50","iframe_src":"//8543.svetacdn.in/si4jsFRrtgrT/movie/20934"},{"id":20933,"title":"Парижские тайны","kp_id":"56796","imdb_id":"tt0056268","world_art_id":null,"type":"movie","add":"2018-12-23 09:54:17","orig_title":"Les mystères de Paris","year":"1962-10-04","translations":["Полное дублирование"],"quality":"bd","translation":"Полное дублирование","update":"2018-12-28 09:57:21","iframe_src":"//8543.svetacdn.in/si4jsFRrtgrT/movie/20933"},{"id":20897,"title":"Защитник","kp_id":"268858","imdb_id":"tt0843328","world_art_id":null,"type":"movie","add":"2018-12-21 13:59:34","orig_title":"Chatrapathi","year":"2005-09-25","translations":["Профессиональный (многоголосый закадровый) (Red Media)"],"quality":"webdl","translation":"Профессиональный (многоголосый закадровый) (Red Media)","update":"2018-12-28 09:47:43","iframe_src":"//8543.svetacdn.in/si4jsFRrtgrT/movie/20897"},{"id":20896,"title":"Неверная","kp_id":"82394","imdb_id":"tt0363472","world_art_id":null,"type":"movie","add":"2018-12-21 13:58:29","orig_title":"Bewafaa","year":"2005-02-24","translations":["Профессиональный (многоголосый закадровый)"],"quality":"webdl","translation":"Профессиональный (многоголосый закадровый)","update":"2018-12-28 07:55:21","iframe_src":"//8543.svetacdn.in/si4jsFRrtgrT/movie/20896"},{"id":443,"title":"Добро пожаловать в Zомбилэнд","kp_id":"427122","imdb_id":"tt1156398","world_art_id":null,"type":"movie","add":"2016-04-01 18:25:16","orig_title":"Zombieland","year":"2009-09-25","translations":["Полное дублирование","Original (English)"],"quality":"bd","translation":"Полное дублирование","update":"2018-12-27 14:36:55","iframe_src":"//8543.svetacdn.in/si4jsFRrtgrT/movie/443"},{"id":441,"title":"Престиж","kp_id":"195334","imdb_id":"tt0482571","world_art_id":null,"type":"movie","add":"2016-04-01 18:18:38","orig_title":"The Prestige","year":"2006-10-17","translations":["Полное дублирование","Original (English)"],"quality":"bd","translation":"Полное дублирование","update":"2018-12-27 14:33:57","iframe_src":"//8543.svetacdn.in/si4jsFRrtgrT/movie/441"},{"id":439,"title":"Жена путешественника во времени","kp_id":"102128","imdb_id":"tt0452694","world_art_id":null,"type":"movie","add":"2016-04-01 18:13:51","orig_title":"The Time Traveler's Wife","year":"2009-08-14","translations":["Полное дублирование","Original (English)"],"quality":"bd","translation":"Полное дублирование","update":"2018-12-27 14:35:34","iframe_src":"//8543.svetacdn.in/si4jsFRrtgrT/movie/439"}],"current_page":1514,"first_page_url":"https://videocdn.tv/api/short?limit=100&api_token=X6EwAUfE5M9xbo7y0Bp0aPf3uXxG2KLL&cache31514=31514&page=1","from":151301,"last_page":596,"last_page_url":"https://videocdn.tv/api/short?limit=100&api_token=X6EwAUfE5M9xbo7y0Bp0aPf3uXxG2KLL&cache31514=31514&page=596","next_page_url":null,"path":"https://videocdn.tv/api/short","per_page":100,"prev_page_url":"https://videocdn.tv/api/short?limit=100&api_token=X6EwAUfE5M9xbo7y0Bp0aPf3uXxG2KLL&cache31514=31514&page=1513","to":151320,"total":59587}