{"result":true,"data":[{"id":50090,"title":"В огонь и в воду","kp_id":"1443830","imdb_id":"tt14164234","world_art_id":null,"type":"movie","add":"2021-05-03 11:06:08","orig_title":"Ride or Die","year":"2021-04-15","translations":["Любительский (многоголосый закадровый) (AlphaProject)"],"quality":"webdl","translation":"Любительский (многоголосый закадровый) (AlphaProject)","update":"2021-05-03 20:49:12","iframe_src":"//5091.svetacdn.in/71tsRs29n5tZ/movie/50090"},{"id":50088,"title":"Она была женой помощника шерифа","kp_id":"1255539","imdb_id":"tt4813116","world_art_id":null,"type":"movie","add":"2021-05-03 11:01:46","orig_title":"She Was the Deputy's Wife","year":"2021-03-06","translations":["Любительский (многоголосый закадровый) (Синема УС)"],"quality":"webdl","translation":"Любительский (многоголосый закадровый) (Синема УС)","update":"2021-05-03 16:40:04","iframe_src":"//5091.svetacdn.in/71tsRs29n5tZ/movie/50088"},{"id":50086,"title":"Восхождение сэра Лонгботтома","kp_id":"1221348","imdb_id":"tt9439344","world_art_id":null,"type":"movie","add":"2021-05-03 10:57:57","orig_title":"The Rise of Sir Longbottom","year":"2021-01-15","translations":["Любительский (многоголосый закадровый) (Синема УС)"],"quality":"webdl","translation":"Любительский (многоголосый закадровый) (Синема УС)","update":"2021-05-03 20:48:46","iframe_src":"//5091.svetacdn.in/71tsRs29n5tZ/movie/50086"},{"id":50085,"title":"Мексиканская луна","kp_id":"1403384","imdb_id":"tt12974634","world_art_id":null,"type":"movie","add":"2021-05-03 10:56:32","orig_title":"Mexican Moon","year":"2021-04-30","translations":["Любительский (многоголосый закадровый) (Синема УС)"],"quality":"webdl","translation":"Любительский (многоголосый закадровый) (Синема УС)","update":"2021-05-03 20:49:56","iframe_src":"//5091.svetacdn.in/71tsRs29n5tZ/movie/50085"},{"id":50084,"title":"Долой оковы","kp_id":"1295519","imdb_id":"tt10820008","world_art_id":null,"type":"movie","add":"2021-05-03 10:54:41","orig_title":"Unchained","year":"2021-03-22","translations":["Любительский (многоголосый закадровый) (AlphaProject)"],"quality":"webdl","translation":"Любительский (многоголосый закадровый) (AlphaProject)","update":"2021-05-03 18:23:45","iframe_src":"//5091.svetacdn.in/71tsRs29n5tZ/movie/50084"},{"id":50083,"title":"Немножечко воды","kp_id":"993958","imdb_id":"tt5863216","world_art_id":null,"type":"movie","add":"2021-05-03 10:53:36","orig_title":"A Little Water","year":"2019-04-21","translations":["Любительский (многоголосый закадровый) (Синема УС)"],"quality":"webdl","translation":"Любительский (многоголосый закадровый) (Синема УС)","update":"2021-05-03 20:53:52","iframe_src":"//5091.svetacdn.in/71tsRs29n5tZ/movie/50083"},{"id":50082,"title":"Асимметрия","kp_id":"1060485","imdb_id":"tt7291408","world_art_id":null,"type":"movie","add":"2021-05-03 10:52:10","orig_title":"Asimetrija","year":"2019-10-22","translations":["Любительский (многоголосый закадровый) (Синема УС)"],"quality":"webdl","translation":"Любительский (многоголосый закадровый) (Синема УС)","update":"2021-05-03 20:54:40","iframe_src":"//5091.svetacdn.in/71tsRs29n5tZ/movie/50082"},{"id":50079,"title":"Смех в раю","kp_id":"17728","imdb_id":"tt0043727","world_art_id":null,"type":"movie","add":"2021-05-03 10:29:54","orig_title":"Laughter in Paradise","year":"1951-06-01","translations":["Полное дублирование (Киностудия им. Горького)"],"quality":"hdrip","translation":"Полное дублирование (Киностудия им. Горького)","update":"2021-05-03 20:37:34","iframe_src":"//5091.svetacdn.in/71tsRs29n5tZ/movie/50079"},{"id":50078,"title":"Августин: сын слёз её","kp_id":null,"imdb_id":"tt12971100","world_art_id":null,"type":"movie","add":"2021-05-03 10:28:41","orig_title":"Augustine: Son of Her Tears","year":"2019-04-02","translations":["Любительский (многоголосый закадровый) (Синема УС)"],"quality":"webdl","translation":"Любительский (многоголосый закадровый) (Синема УС)","update":"2021-05-03 20:55:16","iframe_src":"//5091.svetacdn.in/71tsRs29n5tZ/movie/50078"},{"id":50077,"title":"Фееричные","kp_id":"866466","imdb_id":"tt3583336","world_art_id":null,"type":"movie","add":"2021-05-03 10:27:10","orig_title":"Os Espetaculares","year":"2020-09-04","translations":["Любительский (многоголосый закадровый) (AlphaProject)"],"quality":"webdl","translation":"Любительский (многоголосый закадровый) (AlphaProject)","update":"2021-05-03 20:55:36","iframe_src":"//5091.svetacdn.in/71tsRs29n5tZ/movie/50077"},{"id":50076,"title":"Человек в капюшоне","kp_id":null,"imdb_id":"tt14403632","world_art_id":null,"type":"movie","add":"2021-05-03 10:24:59","orig_title":"Hoodman","year":"2021-05-01","translations":["Любительский (многоголосый закадровый) (Синема УС)"],"quality":"webdl","translation":"Любительский (многоголосый закадровый) (Синема УС)","update":"2021-05-03 18:22:12","iframe_src":"//5091.svetacdn.in/71tsRs29n5tZ/movie/50076"},{"id":50075,"title":"За дверью","kp_id":"1216833","imdb_id":"tt9350934","world_art_id":null,"type":"movie","add":"2021-05-03 10:18:25","orig_title":"The Outside Story","year":"2020-08-01","translations":["Любительский (многоголосый закадровый) (Синема УС)"],"quality":"webdl","translation":"Любительский (многоголосый закадровый) (Синема УС)","update":"2021-05-03 20:55:52","iframe_src":"//5091.svetacdn.in/71tsRs29n5tZ/movie/50075"},{"id":50073,"title":"Плаксы есть?","kp_id":"1405890","imdb_id":"tt13082008","world_art_id":null,"type":"movie","add":"2021-05-03 10:14:28","orig_title":"Naku Ko wa Ineega","year":"2020-09-21","translations":["Любительский (многоголосый закадровый) (Синема УС)"],"quality":"webdl","translation":"Любительский (многоголосый закадровый) (Синема УС)","update":"2021-05-03 16:40:27","iframe_src":"//5091.svetacdn.in/71tsRs29n5tZ/movie/50073"},{"id":50069,"title":"Голубая граница","kp_id":null,"imdb_id":"tt6004360","world_art_id":null,"type":"movie","add":"2021-05-03 09:44:30","orig_title":"Blue Frontier","year":"2018-08-05","translations":["Любительский (многоголосый закадровый) (Синема УС)"],"quality":"webdl","translation":"Любительский (многоголосый закадровый) (Синема УС)","update":"2021-05-03 20:56:19","iframe_src":"//5091.svetacdn.in/71tsRs29n5tZ/movie/50069"},{"id":49087,"title":"Призраки в женской общаге","kp_id":"395932","imdb_id":"tt1110048","world_art_id":null,"type":"movie","add":"2021-03-25 05:06:05","orig_title":"The Haunting of Sorority Row","year":"2007-10-06","translations":["Любительский (одноголосый закадровый) (den904)","Original (English)"],"quality":"webdl","translation":"Любительский (одноголосый закадровый) (den904)","update":"2021-05-04 06:25:12","iframe_src":"//5091.svetacdn.in/71tsRs29n5tZ/movie/49087"},{"id":49027,"title":"Без предела","kp_id":"6221","imdb_id":"tt0119934","world_art_id":null,"type":"movie","add":"2021-03-23 14:42:49","orig_title":"Without Limits","year":"1998-09-11","translations":["Профессиональный (двухголосый закадровый)","Original (English)"],"quality":"webdl","translation":"Профессиональный (двухголосый закадровый)","update":"2021-05-04 06:22:58","iframe_src":"//5091.svetacdn.in/71tsRs29n5tZ/movie/49027"},{"id":48970,"title":"Дом, где говорят Да","kp_id":"13149","imdb_id":"tt0119324","world_art_id":null,"type":"movie","add":"2021-03-21 08:18:45","orig_title":"The House of Yes","year":"1997-09-12","translations":["Профессиональный (двухголосый закадровый) (Elrom)","Original (English)"],"quality":"webdl","translation":"Профессиональный (двухголосый закадровый) (Elrom)","update":"2021-05-04 06:23:58","iframe_src":"//5091.svetacdn.in/71tsRs29n5tZ/movie/48970"},{"id":48903,"title":"В лесной чаще","kp_id":"326803","imdb_id":"tt0104497","world_art_id":null,"type":"movie","add":"2021-03-19 05:58:06","orig_title":"In the Deep Woods","year":"1992-10-26","translations":["Авторский (одноголосый закадровый) (Володарский Леонид)","Original (English)"],"quality":"webdl","translation":"Авторский (одноголосый закадровый) (Володарский Леонид)","update":"2021-05-04 06:26:14","iframe_src":"//5091.svetacdn.in/71tsRs29n5tZ/movie/48903"},{"id":45282,"title":"В ринге только девушки","kp_id":"1332347","imdb_id":"tt10944486","world_art_id":null,"type":"movie","add":"2020-11-13 20:07:26","orig_title":"Chick Fight","year":"2020-11-13","translations":["Original (English)","Любительский (многоголосый закадровый) (@MUZOBOZ@)","Полное дублирование (iTunes)"],"quality":"webdl","translation":"Original (English)","update":"2021-05-03 18:07:25","iframe_src":"//5091.svetacdn.in/71tsRs29n5tZ/movie/45282"},{"id":6902,"title":"Шериф 2","kp_id":"679591","imdb_id":null,"world_art_id":null,"type":"serial","add":"2020-03-16 16:43:56","orig_title":"Sherif 2","year":"2011-01-01","translations":["Оригинальная дорожка"],"seasons_count":1,"episodes_count":16,"episodes":16,"update":"2020-03-17 15:29:51","iframe_src":"//5091.svetacdn.in/71tsRs29n5tZ/tv-series/6902"},{"id":6901,"title":"Шериф","kp_id":"500577","imdb_id":"tt3818560","world_art_id":null,"type":"serial","add":"2020-03-16 16:35:01","orig_title":"Sherif","year":"2010-05-16","translations":["Оригинальная дорожка"],"seasons_count":1,"episodes_count":12,"episodes":12,"update":"2020-03-17 13:06:29","iframe_src":"//5091.svetacdn.in/71tsRs29n5tZ/tv-series/6901"},{"id":6892,"title":"Тайна личности Борна","kp_id":"93574","imdb_id":"tt0094791","world_art_id":null,"type":"serial","add":"2020-03-16 09:59:20","orig_title":"Тайна личности Борна","year":"1988-05-09","translations":["Полное дублирование"],"seasons_count":1,"episodes_count":2,"episodes":2,"update":"2020-03-16 10:34:40","iframe_src":"//5091.svetacdn.in/71tsRs29n5tZ/tv-series/6892"},{"id":6885,"title":"Наша доктор","kp_id":"1331262","imdb_id":null,"world_art_id":null,"type":"serial","add":"2020-03-15 15:41:45","orig_title":"Наша доктор","year":"2020-03-14","translations":["Оригинальная дорожка"],"seasons_count":1,"episodes_count":4,"episodes":4,"update":"2020-03-16 05:30:06","iframe_src":"//5091.svetacdn.in/71tsRs29n5tZ/tv-series/6885"},{"id":6877,"title":"С тобой хочу я быть всегда","kp_id":"1354832","imdb_id":null,"world_art_id":null,"type":"serial","add":"2020-03-15 08:43:54","orig_title":"С тобой хочу я быть всегда","year":"2020-03-14","translations":["Оригинальная дорожка"],"seasons_count":1,"episodes_count":2,"episodes":2,"update":"2020-03-16 07:15:52","iframe_src":"//5091.svetacdn.in/71tsRs29n5tZ/tv-series/6877"},{"id":6876,"title":"Египет с высоты птичьего полета","kp_id":"1346142","imdb_id":"tt11646670","world_art_id":null,"type":"serial","add":"2020-03-15 08:41:25","orig_title":"Egypt from Above","year":"2020-01-19","translations":["Профессиональный (одноголосый закадровый)"],"seasons_count":1,"episodes_count":2,"episodes":2,"update":"2020-03-16 09:11:55","iframe_src":"//5091.svetacdn.in/71tsRs29n5tZ/tv-series/6876"},{"id":6858,"title":"Рейвенсвуд","kp_id":"750272","imdb_id":"tt2799012","world_art_id":null,"type":"serial","add":"2020-03-12 17:55:22","orig_title":"Ravenswood","year":"2013-10-22","translations":["Любительский (многоголосый закадровый) (Flux-Team)"],"seasons_count":1,"episodes_count":10,"episodes":10,"update":"2020-03-17 09:59:57","iframe_src":"//5091.svetacdn.in/71tsRs29n5tZ/tv-series/6858"},{"id":6857,"title":"Новогодний пассажир","kp_id":"1111808","imdb_id":null,"world_art_id":null,"type":"serial","add":"2020-03-12 17:52:06","orig_title":"Novogodniy Passagyr","year":"2017-01-01","translations":["Оригинальная дорожка"],"seasons_count":1,"episodes_count":2,"episodes":2,"update":"2020-03-17 09:49:50","iframe_src":"//5091.svetacdn.in/71tsRs29n5tZ/tv-series/6857"},{"id":6854,"title":"Апокалипсис: Вторая мировая война","kp_id":"478013","imdb_id":"tt1508238","world_art_id":null,"type":"serial","add":"2020-03-12 13:05:13","orig_title":"Apocalypse: La 2ème guerre mondiale","year":"2009-09-08","translations":["Полное дублирование"],"seasons_count":1,"episodes_count":6,"episodes":6,"update":"2020-03-17 08:40:19","iframe_src":"//5091.svetacdn.in/71tsRs29n5tZ/tv-series/6854"},{"id":6853,"title":"Клиника страха","kp_id":"477389","imdb_id":"tt1461982","world_art_id":null,"type":"serial","add":"2020-03-12 12:59:22","orig_title":"Fear Clinic","year":"2009-10-26","translations":["Любительский (двухголосый закадровый) (Gravi-TV)"],"seasons_count":1,"episodes_count":5,"episodes":5,"update":"2020-03-17 08:34:28","iframe_src":"//5091.svetacdn.in/71tsRs29n5tZ/tv-series/6853"},{"id":6852,"title":"Каронтэ","kp_id":"1214322","imdb_id":"tt9204142","world_art_id":null,"type":"serial","add":"2020-03-12 06:57:55","orig_title":"Caronte","year":"2020-03-06","translations":["Любительский (многоголосый закадровый) (Octopus)","Любительский (многоголосый закадровый) (ColdFilm)"],"seasons_count":1,"episodes_count":13,"episodes":13,"update":"2020-03-17 11:54:47","iframe_src":"//5091.svetacdn.in/71tsRs29n5tZ/tv-series/6852"},{"id":6851,"title":"Миссия ясновидения","kp_id":"260925","imdb_id":"tt0373474","world_art_id":null,"type":"serial","add":"2020-03-11 21:54:12","orig_title":"1-800-Missing","year":"2003-08-02","translations":["Профессиональный (многоголосый закадровый) (Русский дубляж)"],"seasons_count":3,"episodes_count":55,"episodes":19,"update":"2020-03-16 08:00:27","iframe_src":"//5091.svetacdn.in/71tsRs29n5tZ/tv-series/6851"},{"id":6850,"title":"Сумеречная зона","kp_id":"229154","imdb_id":"tt0318252","world_art_id":null,"type":"serial","add":"2020-03-11 19:53:47","orig_title":"The Twilight Zone","year":"2002-09-18","translations":["Профессиональный (многоголосый закадровый) (ТВ3)"],"seasons_count":1,"episodes_count":43,"episodes":43,"update":"2020-03-17 08:32:25","iframe_src":"//5091.svetacdn.in/71tsRs29n5tZ/tv-series/6850"},{"id":6841,"title":"Удивительные истории","kp_id":"400729","imdb_id":"tt0088478","world_art_id":null,"type":"serial","add":"2020-03-10 22:18:54","orig_title":"Amazing Stories","year":"1985-09-29","translations":["Профессиональный (многоголосый закадровый) (ТВ3)"],"seasons_count":2,"episodes_count":45,"episodes":21,"update":"2020-03-16 08:49:40","iframe_src":"//5091.svetacdn.in/71tsRs29n5tZ/tv-series/6841"},{"id":6812,"title":"Дневник новой русской","kp_id":"986664","imdb_id":null,"world_art_id":null,"type":"serial","add":"2020-03-09 12:23:16","orig_title":"Дневник новой русской","year":"2020-01-01","translations":["Оригинальная дорожка"],"seasons_count":1,"episodes_count":10,"episodes":10,"update":"2020-03-17 15:35:52","iframe_src":"//5091.svetacdn.in/71tsRs29n5tZ/tv-series/6812"},{"id":6414,"title":"Маленькая Америка","kp_id":"1123604","imdb_id":"tt8000674","world_art_id":null,"type":"serial","add":"2020-01-20 13:44:58","orig_title":"Little America","year":"2020-01-17","translations":["Профессиональный (двухголосый закадровый) (IdeaFilm)","Профессиональный (многоголосый закадровый) (TVShows)","Любительский (многоголосый закадровый) (WestFilm)"],"seasons_count":1,"episodes_count":8,"episodes":8,"update":"2020-03-16 16:47:42","iframe_src":"//5091.svetacdn.in/71tsRs29n5tZ/tv-series/6414"},{"id":6167,"title":"Крапленый","kp_id":"715196","imdb_id":"tt4350740","world_art_id":null,"type":"serial","add":"2019-12-28 11:08:49","orig_title":"Крапленый","year":"2013-05-27","translations":["Оригинальная дорожка"],"seasons_count":1,"episodes_count":24,"episodes":24,"update":"2020-03-17 16:08:21","iframe_src":"//5091.svetacdn.in/71tsRs29n5tZ/tv-series/6167"},{"id":4807,"title":"Следственный комитет","kp_id":"666013","imdb_id":null,"world_art_id":null,"type":"serial","add":"2019-07-06 23:35:34","orig_title":"СК","year":"2012-12-18","translations":["Оригинальная дорожка"],"seasons_count":1,"episodes_count":12,"episodes":12,"update":"2020-03-16 08:34:20","iframe_src":"//5091.svetacdn.in/71tsRs29n5tZ/tv-series/4807"},{"id":4727,"title":"Компьютерщики","kp_id":"386715","imdb_id":"tt0487831","world_art_id":null,"type":"serial","add":"2019-06-20 11:18:38","orig_title":"The IT Crowd","year":"2006-02-03","translations":["Профессиональный (одноголосый закадровый) (LostFilm)","Профессиональный (многоголосый закадровый) (LostFilm)"],"seasons_count":5,"episodes_count":25,"episodes":1,"update":"2020-03-16 19:01:35","iframe_src":"//5091.svetacdn.in/71tsRs29n5tZ/tv-series/4727"},{"id":4713,"title":"Любовь напоказ","kp_id":"1263595","imdb_id":"tt10324306","world_art_id":null,"type":"serial","add":"2019-06-19 07:45:51","orig_title":"Afili Ask","year":"2019-06-12","translations":["Любительский (двухголосый закадровый)","Любительский (двухголосый закадровый) (OnisFilms)","Любительский (двухголосый закадровый) (SesDizi | DiziMania)"],"seasons_count":1,"episodes_count":37,"episodes":37,"update":"2020-03-16 23:32:17","iframe_src":"//5091.svetacdn.in/71tsRs29n5tZ/tv-series/4713"},{"id":6145,"title":"Школа выживания","kp_id":"261321","imdb_id":"tt0817538","world_art_id":null,"type":"movie","add":"2016-10-11 08:50:10","orig_title":"Drillbit Taylor","year":"2008-03-20","translations":["Полное дублирование","Полное дублирование (Пифагор)","Original (English)"],"quality":"bd","translation":"Полное дублирование","update":"2021-05-04 06:27:04","iframe_src":"//5091.svetacdn.in/71tsRs29n5tZ/movie/6145"}],"current_page":303,"first_page_url":"https://videocdn.tv/api/short?limit=100&api_token=EnbO9h8pv1VyjbCJhg0WM9nG259n7mtz&cache3303=3303&page=1","from":30201,"last_page":668,"last_page_url":"https://videocdn.tv/api/short?limit=100&api_token=EnbO9h8pv1VyjbCJhg0WM9nG259n7mtz&cache3303=3303&page=668","next_page_url":"https://videocdn.tv/api/short?limit=100&api_token=EnbO9h8pv1VyjbCJhg0WM9nG259n7mtz&cache3303=3303&page=304","path":"https://videocdn.tv/api/short","per_page":100,"prev_page_url":"https://videocdn.tv/api/short?limit=100&api_token=EnbO9h8pv1VyjbCJhg0WM9nG259n7mtz&cache3303=3303&page=302","to":30240,"total":66732}