{"result":true,"data":[{"id":15985,"title":"Дурацкий план","kp_id":"1093922","imdb_id":"tt6447952","world_art_id":null,"type":"movie","add":"2018-04-01 23:07:07","orig_title":"Foolish Plan","year":"2016-12-11","translations":["Любительский (многоголосый закадровый) (Синема УС)"],"quality":"bd","translation":"Любительский (многоголосый закадровый) (Синема УС)","update":"2018-04-02 09:12:15","iframe_src":"//83.svetacdn.in/PfJ50H0ZBPg3/movie/15985"},{"id":15981,"title":"Усадьба Кэндлшу","kp_id":"9848","imdb_id":"tt0075807","world_art_id":null,"type":"movie","add":"2018-04-01 22:42:21","orig_title":"Candleshoe","year":"1977-12-16","translations":["Полное дублирование"],"quality":"webdl","translation":"Полное дублирование","update":"2018-04-02 09:39:36","iframe_src":"//83.svetacdn.in/PfJ50H0ZBPg3/movie/15981"},{"id":15964,"title":"Затерянный ручей","kp_id":"856396","imdb_id":"tt5610746","world_art_id":null,"type":"movie","add":"2018-04-01 17:08:16","orig_title":"Lost Creek","year":"2017-01-15","translations":["Любительский (многоголосый закадровый) (Синема УС)"],"quality":"webdl","translation":"Любительский (многоголосый закадровый) (Синема УС)","update":"2018-04-02 09:15:28","iframe_src":"//83.svetacdn.in/PfJ50H0ZBPg3/movie/15964"},{"id":15944,"title":"До края мира","kp_id":"1047393","imdb_id":"tt7962598","world_art_id":null,"type":"movie","add":"2018-03-30 22:43:43","orig_title":"Nan ji jue lian","year":"2018-02-01","translations":["Любительский (многоголосый закадровый) (Колобок)"],"quality":"webdl","translation":"Любительский (многоголосый закадровый) (Колобок)","update":"2018-04-02 10:46:43","iframe_src":"//83.svetacdn.in/PfJ50H0ZBPg3/movie/15944"},{"id":15928,"title":"Моя любимая мумия 2","kp_id":"993863","imdb_id":"tt5830200","world_art_id":null,"type":"movie","add":"2018-03-30 21:11:41","orig_title":"Dummie de Mummie en de tombe van Achnetoet","year":"2017-09-23","translations":["Любительский (многоголосый закадровый) (Синема УС)"],"quality":"webdl","translation":"Любительский (многоголосый закадровый) (Синема УС)","update":"2018-04-02 09:07:57","iframe_src":"//83.svetacdn.in/PfJ50H0ZBPg3/movie/15928"},{"id":15927,"title":"Два лотерейных билета","kp_id":"980128","imdb_id":"tt5700224","world_art_id":null,"type":"movie","add":"2018-03-30 21:09:18","orig_title":"Doua lozuri","year":"2016-05-31","translations":["Профессиональный (многоголосый закадровый) (GreenРай Studio)"],"quality":"dvdrip","translation":"Профессиональный (многоголосый закадровый) (GreenРай Studio)","update":"2018-04-02 09:20:05","iframe_src":"//83.svetacdn.in/PfJ50H0ZBPg3/movie/15927"},{"id":15810,"title":"Палачи","kp_id":"1011720","imdb_id":"tt6185998","world_art_id":null,"type":"movie","add":"2018-03-25 00:05:23","orig_title":"The Executioners","year":"2017-12-02","translations":["Любительский (многоголосый закадровый) (Синема УС)","Любительский (двухголосый закадровый) (HiWayGrope)"],"quality":"dvdrip","translation":"Любительский (многоголосый закадровый) (Синема УС)","update":"2018-04-02 06:59:41","iframe_src":"//83.svetacdn.in/PfJ50H0ZBPg3/movie/15810"},{"id":14518,"title":"Пока смерть не разлучит нас","kp_id":"1047009","imdb_id":"tt6848602","world_art_id":null,"type":"movie","add":"2017-11-30 23:13:13","orig_title":"Til Death Do Us Part","year":"2017-09-29","translations":["Любительский (многоголосый закадровый) (Колобок)","Профессиональный (многоголосый закадровый) (GreenРай Studio)"],"quality":"hdtv","translation":"Любительский (многоголосый закадровый) (Колобок)","update":"2018-04-02 07:01:06","iframe_src":"//83.svetacdn.in/PfJ50H0ZBPg3/movie/14518"},{"id":14398,"title":"Смерть на Аляске","kp_id":"768163","imdb_id":"tt2582498","world_art_id":null,"type":"movie","add":"2017-11-19 21:41:39","orig_title":"Sweet Virginia","year":"2017-04-21","translations":["Профессиональный (многоголосый закадровый) (GreenРай Studio)","Любительский (многоголосый закадровый) (Синема УС)"],"quality":"webdl","translation":"Профессиональный (многоголосый закадровый) (GreenРай Studio)","update":"2018-04-02 08:59:51","iframe_src":"//83.svetacdn.in/PfJ50H0ZBPg3/movie/14398"},{"id":13836,"title":"Лунатик","kp_id":"844190","imdb_id":"tt4185370","world_art_id":null,"type":"movie","add":"2017-10-12 21:51:21","orig_title":"Sleepwalker","year":"2017-10-10","translations":["Профессиональный (двухголосый закадровый) (RecentFilms)","Любительский (многоголосый закадровый) (Синема УС)","Профессиональный (многоголосый закадровый) (AlexFilm)","Профессиональный (многоголосый закадровый) (GreenРай Studio)"],"quality":"webdl","translation":"Профессиональный (двухголосый закадровый) (RecentFilms)","update":"2018-04-02 09:43:35","iframe_src":"//83.svetacdn.in/PfJ50H0ZBPg3/movie/13836"},{"id":13752,"title":"Рыцари проклятья","kp_id":"996836","imdb_id":"tt5931670","world_art_id":null,"type":"movie","add":"2017-10-05 21:37:58","orig_title":"Knights of the Damned","year":"2017-09-25","translations":["Любительский (многоголосый закадровый) (Синема УС)"],"quality":"bd","translation":"Любительский (многоголосый закадровый) (Синема УС)","update":"2018-04-02 09:06:29","iframe_src":"//83.svetacdn.in/PfJ50H0ZBPg3/movie/13752"},{"id":13523,"title":"Хороший католик","kp_id":"917999","imdb_id":"tt4721404","world_art_id":null,"type":"movie","add":"2017-09-20 21:17:47","orig_title":"The Good Catholic","year":"2017-02-03","translations":["Любительский (многоголосый закадровый) (Синема УС)"],"quality":"bd","translation":"Любительский (многоголосый закадровый) (Синема УС)","update":"2018-04-02 08:55:36","iframe_src":"//83.svetacdn.in/PfJ50H0ZBPg3/movie/13523"},{"id":13516,"title":"Неожиданное путешествие","kp_id":"988127","imdb_id":"tt5822160","world_art_id":null,"type":"movie","add":"2017-09-19 09:53:44","orig_title":"Saattokeikka","year":"2017-03-10","translations":["Любительский (многоголосый закадровый) (Синема УС)","Профессиональный (многоголосый закадровый) (GreenРай Studio)"],"quality":"bd","translation":"Любительский (многоголосый закадровый) (Синема УС)","update":"2018-04-02 09:01:08","iframe_src":"//83.svetacdn.in/PfJ50H0ZBPg3/movie/13516"},{"id":12818,"title":"Компаньоны","kp_id":"81503","imdb_id":"tt0420087","world_art_id":null,"type":"movie","add":"2017-08-07 05:06:28","orig_title":"A Prairie Home Companion","year":"2006-02-12","translations":["Профессиональный (двухголосый закадровый)"],"quality":"webdl","translation":"Профессиональный (двухголосый закадровый)","update":"2018-04-02 13:11:34","iframe_src":"//83.svetacdn.in/PfJ50H0ZBPg3/movie/12818"},{"id":11931,"title":"Прекрасные дни в Аранхуэсе","kp_id":"913557","imdb_id":"tt4715652","world_art_id":null,"type":"movie","add":"2017-06-13 06:35:01","orig_title":"Les beaux jours d'Aranjuez","year":"2016-09-01","translations":["Профессиональный (многоголосый закадровый)","Профессиональный (многоголосый закадровый) (GreenРай Studio)"],"quality":"webdl","translation":"Профессиональный (многоголосый закадровый)","update":"2018-04-02 09:18:31","iframe_src":"//83.svetacdn.in/PfJ50H0ZBPg3/movie/11931"},{"id":11530,"title":"Бун: Охотник за головами","kp_id":"802798","imdb_id":"tt3229488","world_art_id":null,"type":"movie","add":"2017-05-14 21:28:10","orig_title":"Boone: The Bounty Hunter","year":"2017-05-09","translations":["Любительский (многоголосый закадровый) (@MUZOBOZ@)"],"quality":"bd","translation":"Любительский (многоголосый закадровый) (@MUZOBOZ@)","update":"2018-04-02 09:09:21","iframe_src":"//83.svetacdn.in/PfJ50H0ZBPg3/movie/11530"},{"id":9661,"title":"Плохие семена","kp_id":"962389","imdb_id":"tt5456706","world_art_id":null,"type":"movie","add":"2017-02-14 07:42:59","orig_title":"Les mauvaises herbes","year":"2016-08-24","translations":["Любительский (одноголосый закадровый)","Профессиональный (многоголосый закадровый) (GreenРай Studio)"],"quality":"webdl","translation":"Любительский (одноголосый закадровый)","update":"2018-04-02 09:17:23","iframe_src":"//83.svetacdn.in/PfJ50H0ZBPg3/movie/9661"},{"id":7080,"title":"Молот","kp_id":"765098","imdb_id":"tt5909128","world_art_id":null,"type":"movie","add":"2016-11-05 06:40:58","orig_title":"Molot","year":"2016-11-03","translations":["Оригинальная дорожка"],"quality":"bd","translation":"Оригинальная дорожка","update":"2018-04-02 09:22:35","iframe_src":"//83.svetacdn.in/PfJ50H0ZBPg3/movie/7080"},{"id":1477,"title":"СуперБобровы","kp_id":"893814","imdb_id":"tt5576334","world_art_id":null,"type":"movie","add":"2016-04-22 06:09:52","orig_title":"SuperBobrovy","year":"2016-04-01","translations":["Оригинальная дорожка"],"quality":"bd","translation":"Оригинальная дорожка","update":"2018-04-02 09:23:48","iframe_src":"//83.svetacdn.in/PfJ50H0ZBPg3/movie/1477"},{"id":580,"title":"Пятница","kp_id":"843821","imdb_id":"tt5311004","world_art_id":null,"type":"movie","add":"2016-04-05 07:59:03","orig_title":"Pyatnitsa","year":"2016-03-23","translations":["Оригинальная дорожка"],"quality":"bd","translation":"Оригинальная дорожка","update":"2018-04-02 09:21:21","iframe_src":"//83.svetacdn.in/PfJ50H0ZBPg3/movie/580"}],"current_page":1995,"first_page_url":"https://videocdn.tv/api/short?limit=100&api_token=RgFQdUIR2dRmwv8iYa5SnFNgnw3vpjKj&cache31995=31995&page=1","from":199401,"last_page":648,"last_page_url":"https://videocdn.tv/api/short?limit=100&api_token=RgFQdUIR2dRmwv8iYa5SnFNgnw3vpjKj&cache31995=31995&page=648","next_page_url":null,"path":"https://videocdn.tv/api/short","per_page":100,"prev_page_url":"https://videocdn.tv/api/short?limit=100&api_token=RgFQdUIR2dRmwv8iYa5SnFNgnw3vpjKj&cache31995=31995&page=1994","to":199420,"total":64704}