{"result":true,"data":[{"id":6844,"title":"Белый шум","kp_id":"61342","imdb_id":"tt0375210","world_art_id":null,"type":"movie","add":"2016-10-31 09:57:06","orig_title":"White Noise","year":"2005-01-07","translations":["Полное дублирование"],"quality":"bd","translation":"Полное дублирование","update":"2016-11-01 07:26:40","iframe_src":"//5322.svetacdn.in/71tsRs29n5tZ/movie/6844"},{"id":6843,"title":"Эскадрилья 633","kp_id":"24927","imdb_id":"tt0057811","world_art_id":null,"type":"movie","add":"2016-10-31 09:43:23","orig_title":"633 Squadron","year":"1964-06-04","translations":["Профессиональный (двухголосый закадровый)"],"quality":"webdl","translation":"Профессиональный (двухголосый закадровый)","update":"2016-11-01 08:49:13","iframe_src":"//5322.svetacdn.in/71tsRs29n5tZ/movie/6843"},{"id":6836,"title":"Поспешное бегство","kp_id":"32344","imdb_id":"tt0101857","world_art_id":null,"type":"movie","add":"2016-10-30 08:43:28","orig_title":"Fast Getaway","year":"1991-01-11","translations":["Профессиональный (многоголосый закадровый)"],"quality":"hdtv","translation":"Профессиональный (многоголосый закадровый)","update":"2016-11-02 05:01:06","iframe_src":"//5322.svetacdn.in/71tsRs29n5tZ/movie/6836"},{"id":6825,"title":"Мир Уэйна 2","kp_id":"1814","imdb_id":"tt0108525","world_art_id":null,"type":"movie","add":"2016-10-30 08:24:38","orig_title":"Wayne's World 2","year":"1993-12-10","translations":["Профессиональный (многоголосый закадровый)"],"quality":"bd","translation":"Профессиональный (многоголосый закадровый)","update":"2016-11-01 13:31:34","iframe_src":"//5322.svetacdn.in/71tsRs29n5tZ/movie/6825"},{"id":6824,"title":"Мир Уэйна","kp_id":"4176","imdb_id":"tt0105793","world_art_id":null,"type":"movie","add":"2016-10-30 08:23:50","orig_title":"Wayne's World","year":"1992-02-14","translations":["Профессиональный (многоголосый закадровый)"],"quality":"bd","translation":"Профессиональный (многоголосый закадровый)","update":"2016-11-01 13:29:12","iframe_src":"//5322.svetacdn.in/71tsRs29n5tZ/movie/6824"},{"id":6822,"title":"Сила личности","kp_id":"6063","imdb_id":"tt0105159","world_art_id":null,"type":"movie","add":"2016-10-30 08:21:41","orig_title":"The Power of One","year":"1992-03-27","translations":["Профессиональный (многоголосый закадровый)"],"quality":"webdl","translation":"Профессиональный (многоголосый закадровый)","update":"2016-11-02 04:51:30","iframe_src":"//5322.svetacdn.in/71tsRs29n5tZ/movie/6822"},{"id":6820,"title":"Пистолет в сумочке Бетти Лу","kp_id":"12119","imdb_id":"tt0104376","world_art_id":null,"type":"movie","add":"2016-10-30 08:17:52","orig_title":"The Gun in Betty Lou's Handbag","year":"1992-08-21","translations":["Профессиональный (многоголосый закадровый)"],"quality":"bd","translation":"Профессиональный (многоголосый закадровый)","update":"2016-11-01 13:23:51","iframe_src":"//5322.svetacdn.in/71tsRs29n5tZ/movie/6820"},{"id":6819,"title":"Друзья Питера","kp_id":"19017","imdb_id":"tt0105130","world_art_id":null,"type":"movie","add":"2016-10-30 08:16:36","orig_title":"Peter's Friends","year":"1992-09-18","translations":["Профессиональный (многоголосый закадровый)"],"quality":"hdtv","translation":"Профессиональный (многоголосый закадровый)","update":"2016-11-01 13:21:41","iframe_src":"//5322.svetacdn.in/71tsRs29n5tZ/movie/6819"},{"id":6818,"title":"В опасности","kp_id":"4467","imdb_id":"tt0105078","world_art_id":null,"type":"movie","add":"2016-10-30 08:15:36","orig_title":"Out on a Limb","year":"1992-09-04","translations":["Профессиональный (многоголосый закадровый)"],"quality":"webdl","translation":"Профессиональный (многоголосый закадровый)","update":"2016-11-01 13:19:43","iframe_src":"//5322.svetacdn.in/71tsRs29n5tZ/movie/6818"},{"id":6817,"title":"Один неверный ход","kp_id":"2227","imdb_id":"tt0102592","world_art_id":null,"type":"movie","add":"2016-10-30 08:14:29","orig_title":"One False Move","year":"1992-05-08","translations":["Профессиональный (многоголосый закадровый)"],"quality":"webdl","translation":"Профессиональный (многоголосый закадровый)","update":"2016-11-01 13:17:22","iframe_src":"//5322.svetacdn.in/71tsRs29n5tZ/movie/6817"},{"id":6816,"title":"О мышах и людях","kp_id":"9684","imdb_id":"tt0105046","world_art_id":null,"type":"movie","add":"2016-10-30 08:13:28","orig_title":"Of Mice and Men","year":"1992-09-16","translations":["Профессиональный (многоголосый закадровый)"],"quality":"bd","translation":"Профессиональный (многоголосый закадровый)","update":"2016-11-01 13:14:44","iframe_src":"//5322.svetacdn.in/71tsRs29n5tZ/movie/6816"},{"id":6814,"title":"Мама и папа, спасите мир!","kp_id":"13464","imdb_id":"tt0104905","world_art_id":null,"type":"movie","add":"2016-10-30 08:10:43","orig_title":"Mom and Dad Save the World","year":"1992-07-24","translations":["Профессиональный (многоголосый закадровый)"],"quality":"hdtv","translation":"Профессиональный (многоголосый закадровый)","update":"2016-11-01 09:15:29","iframe_src":"//5322.svetacdn.in/71tsRs29n5tZ/movie/6814"},{"id":6813,"title":"Помутнение разума","kp_id":"2911","imdb_id":"tt0100152","world_art_id":null,"type":"movie","add":"2016-10-30 08:09:45","orig_title":"Mindwarp","year":"1992-07-13","translations":["Профессиональный (многоголосый закадровый)"],"quality":"bd","translation":"Профессиональный (многоголосый закадровый)","update":"2016-11-01 09:13:14","iframe_src":"//5322.svetacdn.in/71tsRs29n5tZ/movie/6813"},{"id":6811,"title":"Провод под током","kp_id":"16416","imdb_id":"tt0104743","world_art_id":null,"type":"movie","add":"2016-10-30 08:04:50","orig_title":"Live Wire","year":"1992-09-03","translations":["Профессиональный (многоголосый закадровый)"],"quality":"webdl","translation":"Профессиональный (многоголосый закадровый)","update":"2016-11-01 09:08:58","iframe_src":"//5322.svetacdn.in/71tsRs29n5tZ/movie/6811"},{"id":6810,"title":"Парад идиотов","kp_id":"36791","imdb_id":"tt0103761","world_art_id":null,"type":"movie","add":"2016-10-30 08:03:44","orig_title":"Le bal des casse-pieds","year":"1992-02-12","translations":["Профессиональный (многоголосый закадровый)"],"quality":"bd","translation":"Профессиональный (многоголосый закадровый)","update":"2016-11-01 09:07:04","iframe_src":"//5322.svetacdn.in/71tsRs29n5tZ/movie/6810"},{"id":6808,"title":"Дженнифер 8","kp_id":"2285","imdb_id":"tt0104549","world_art_id":null,"type":"movie","add":"2016-10-30 08:01:32","orig_title":"Jennifer Eight","year":"1992-11-06","translations":["Профессиональный (многоголосый закадровый)"],"quality":"bd","translation":"Профессиональный (многоголосый закадровый)","update":"2016-11-01 06:15:43","iframe_src":"//5322.svetacdn.in/71tsRs29n5tZ/movie/6808"},{"id":6807,"title":"Хоффа","kp_id":"4202","imdb_id":"tt0104427","world_art_id":null,"type":"movie","add":"2016-10-30 08:00:31","orig_title":"Hoffa","year":"1992-12-25","translations":["Профессиональный (многоголосый закадровый)"],"quality":"bd","translation":"Профессиональный (многоголосый закадровый)","update":"2016-11-01 06:12:42","iframe_src":"//5322.svetacdn.in/71tsRs29n5tZ/movie/6807"},{"id":6806,"title":"Крепость","kp_id":"18255","imdb_id":"tt0106950","world_art_id":null,"type":"movie","add":"2016-10-30 07:59:27","orig_title":"Fortress","year":"1992-12-18","translations":["Профессиональный (многоголосый закадровый)"],"quality":"bd","translation":"Профессиональный (многоголосый закадровый)","update":"2016-11-01 06:10:14","iframe_src":"//5322.svetacdn.in/71tsRs29n5tZ/movie/6806"},{"id":6804,"title":"Под прикрытием","kp_id":"3739","imdb_id":"tt0104073","world_art_id":null,"type":"movie","add":"2016-10-30 07:56:59","orig_title":"Deep Cover","year":"1992-04-15","translations":["Профессиональный (многоголосый закадровый)"],"quality":"hdtv","translation":"Профессиональный (многоголосый закадровый)","update":"2016-11-01 06:05:28","iframe_src":"//5322.svetacdn.in/71tsRs29n5tZ/movie/6804"},{"id":6803,"title":"Преступление из-за любви","kp_id":"523230","imdb_id":"tt1459012","world_art_id":null,"type":"movie","add":"2016-10-30 07:55:29","orig_title":"Crime d'amour","year":"2010-08-18","translations":["Профессиональный (многоголосый закадровый)"],"quality":"bd","translation":"Профессиональный (многоголосый закадровый)","update":"2016-11-01 06:02:52","iframe_src":"//5322.svetacdn.in/71tsRs29n5tZ/movie/6803"}],"current_page":2256,"first_page_url":"https://videocdn.tv/api/short?limit=100&api_token=EnbO9h8pv1VyjbCJhg0WM9nG259n7mtz&cache32256=32256&page=1","from":225501,"last_page":621,"last_page_url":"https://videocdn.tv/api/short?limit=100&api_token=EnbO9h8pv1VyjbCJhg0WM9nG259n7mtz&cache32256=32256&page=621","next_page_url":null,"path":"https://videocdn.tv/api/short","per_page":100,"prev_page_url":"https://videocdn.tv/api/short?limit=100&api_token=EnbO9h8pv1VyjbCJhg0WM9nG259n7mtz&cache32256=32256&page=2255","to":225520,"total":62040}