{"result":true,"data":[{"id":29621,"title":"После прихода тьмы","kp_id":null,"imdb_id":"tt6263870","world_art_id":null,"type":"movie","add":"2019-08-01 21:35:24","orig_title":"Tras la Oscuridad","year":"2016-10-13","translations":["Любительский (многоголосый закадровый) (Колобок)"],"quality":"webdl","translation":"Любительский (многоголосый закадровый) (Колобок)","update":"2019-08-02 07:02:48","iframe_src":"//8543.svetacdn.in/71tsRs29n5tZ/movie/29621"},{"id":29613,"title":"Пленки Андерсона","kp_id":"6923","imdb_id":"tt0066767","world_art_id":null,"type":"movie","add":"2019-08-01 20:01:35","orig_title":"The Anderson Tapes","year":"1971-06-17","translations":["Профессиональный (многоголосый закадровый) (НТВ)"],"quality":"bd","translation":"Профессиональный (многоголосый закадровый) (НТВ)","update":"2019-08-02 07:22:02","iframe_src":"//8543.svetacdn.in/71tsRs29n5tZ/movie/29613"},{"id":29612,"title":"Убийство в Восточном экспрессе","kp_id":"927","imdb_id":"tt0071877","world_art_id":null,"type":"movie","add":"2019-08-01 19:56:41","orig_title":"Murder on the Orient Express","year":"1974-11-21","translations":["Полное дублирование"],"quality":"bd","translation":"Полное дублирование","update":"2019-08-02 07:22:42","iframe_src":"//8543.svetacdn.in/71tsRs29n5tZ/movie/29612"},{"id":29609,"title":"Мелюзга","kp_id":"429000","imdb_id":"tt1401610","world_art_id":null,"type":"movie","add":"2019-08-01 17:51:35","orig_title":"Melyuzga","year":"2004-03-23","translations":["Оригинальная дорожка"],"quality":"dvdrip","translation":"Оригинальная дорожка","update":"2019-08-02 07:43:21","iframe_src":"//8543.svetacdn.in/71tsRs29n5tZ/movie/29609"},{"id":29608,"title":"Монета","kp_id":"331899","imdb_id":"tt0170257","world_art_id":null,"type":"movie","add":"2019-08-01 17:48:13","orig_title":"Moneta","year":"1962-11-25","translations":["Оригинальная дорожка"],"quality":"dvdrip","translation":"Оригинальная дорожка","update":"2019-08-02 07:42:48","iframe_src":"//8543.svetacdn.in/71tsRs29n5tZ/movie/29608"},{"id":29607,"title":"Нахлебник","kp_id":"46309","imdb_id":"tt0046119","world_art_id":null,"type":"movie","add":"2019-08-01 17:44:51","orig_title":"Nakhlebnik","year":"1953-04-09","translations":["Оригинальная дорожка"],"quality":"dvdrip","translation":"Оригинальная дорожка","update":"2019-08-02 07:41:41","iframe_src":"//8543.svetacdn.in/71tsRs29n5tZ/movie/29607"},{"id":29606,"title":"Необыкновенный город","kp_id":"426322","imdb_id":"tt3592058","world_art_id":null,"type":"movie","add":"2019-08-01 17:42:05","orig_title":"Neobyknovennyy gorod","year":"1963-04-03","translations":["Оригинальная дорожка"],"quality":"sat","translation":"Оригинальная дорожка","update":"2019-08-02 07:41:09","iframe_src":"//8543.svetacdn.in/71tsRs29n5tZ/movie/29606"},{"id":29605,"title":"Никогда","kp_id":"46441","imdb_id":"tt0175965","world_art_id":null,"type":"movie","add":"2019-08-01 17:39:35","orig_title":"Nikogda","year":"1962-11-30","translations":["Оригинальная дорожка"],"quality":"dvdrip","translation":"Оригинальная дорожка","update":"2019-08-02 07:40:27","iframe_src":"//8543.svetacdn.in/71tsRs29n5tZ/movie/29605"},{"id":29604,"title":"Остров Ольховый","kp_id":"581141","imdb_id":null,"world_art_id":null,"type":"movie","add":"2019-08-01 17:36:14","orig_title":"Остров Ольховый","year":"1962-04-29","translations":["Оригинальная дорожка"],"quality":"sat","translation":"Оригинальная дорожка","update":"2019-08-02 07:39:56","iframe_src":"//8543.svetacdn.in/71tsRs29n5tZ/movie/29604"},{"id":29603,"title":"Павлуха","kp_id":"42909","imdb_id":"tt0188129","world_art_id":null,"type":"movie","add":"2019-08-01 17:32:41","orig_title":"Pavlukha","year":"1962-12-24","translations":["Оригинальная дорожка"],"quality":"sat","translation":"Оригинальная дорожка","update":"2019-08-02 07:36:18","iframe_src":"//8543.svetacdn.in/71tsRs29n5tZ/movie/29603"},{"id":29602,"title":"После бала","kp_id":"665308","imdb_id":"tt6525654","world_art_id":null,"type":"movie","add":"2019-08-01 17:29:50","orig_title":"Posle bala","year":"1962-01-01","translations":["Оригинальная дорожка"],"quality":"sat","translation":"Оригинальная дорожка","update":"2019-08-02 07:35:36","iframe_src":"//8543.svetacdn.in/71tsRs29n5tZ/movie/29602"},{"id":29601,"title":"Приключения Кроша","kp_id":"43255","imdb_id":"tt0055324","world_art_id":null,"type":"movie","add":"2019-08-01 17:27:02","orig_title":"Priklyucheniya Krosha","year":"1962-04-14","translations":["Оригинальная дорожка"],"quality":"dvdrip","translation":"Оригинальная дорожка","update":"2019-08-02 07:34:52","iframe_src":"//8543.svetacdn.in/71tsRs29n5tZ/movie/29601"},{"id":29600,"title":"Прогулка по эшафоту","kp_id":"103506","imdb_id":"tt0410478","world_art_id":null,"type":"movie","add":"2019-08-01 17:24:12","orig_title":"Progulka po eshafotu","year":"1992-01-01","translations":["Оригинальная дорожка"],"quality":"dvdrip","translation":"Оригинальная дорожка","update":"2019-08-02 07:34:07","iframe_src":"//8543.svetacdn.in/71tsRs29n5tZ/movie/29600"},{"id":29599,"title":"Прошлым летом","kp_id":"43317","imdb_id":"tt0176056","world_art_id":null,"type":"movie","add":"2019-08-01 17:05:10","orig_title":"Proshlym letom","year":"1962-11-30","translations":["Оригинальная дорожка"],"quality":"sat","translation":"Оригинальная дорожка","update":"2019-08-02 07:33:19","iframe_src":"//8543.svetacdn.in/71tsRs29n5tZ/movie/29599"},{"id":29598,"title":"Смотрите, небо!","kp_id":"43883","imdb_id":"tt0173220","world_art_id":null,"type":"movie","add":"2019-08-01 17:00:02","orig_title":"Smotrite, nebo!","year":"1962-01-01","translations":["Оригинальная дорожка"],"quality":"sat","translation":"Оригинальная дорожка","update":"2019-08-02 07:32:23","iframe_src":"//8543.svetacdn.in/71tsRs29n5tZ/movie/29598"},{"id":29597,"title":"Заводила","kp_id":"573615","imdb_id":"tt2129883","world_art_id":null,"type":"movie","add":"2019-08-01 16:56:15","orig_title":"Araqarisdiran","year":"1987-03-20","translations":["Оригинальная дорожка"],"quality":"webdl","translation":"Оригинальная дорожка","update":"2019-08-02 07:29:57","iframe_src":"//8543.svetacdn.in/71tsRs29n5tZ/movie/29597"},{"id":29596,"title":"Здравствуй, Гнат","kp_id":"472351","imdb_id":"tt5013702","world_art_id":null,"type":"movie","add":"2019-08-01 16:52:38","orig_title":"Zdravstvuy, Gnat","year":"1963-02-19","translations":["Оригинальная дорожка"],"quality":"vhs","translation":"Оригинальная дорожка","update":"2019-08-02 07:04:59","iframe_src":"//8543.svetacdn.in/71tsRs29n5tZ/movie/29596"},{"id":29595,"title":"Жулики","kp_id":"276108","imdb_id":"tt1831836","world_art_id":null,"type":"movie","add":"2019-08-01 16:49:20","orig_title":"Zhuliki","year":"2006-09-21","translations":["Оригинальная дорожка"],"quality":"dvdrip","translation":"Оригинальная дорожка","update":"2019-08-02 07:03:39","iframe_src":"//8543.svetacdn.in/71tsRs29n5tZ/movie/29595"},{"id":29594,"title":"Званый ужин","kp_id":"477994","imdb_id":"tt0055911","world_art_id":null,"type":"movie","add":"2019-08-01 16:44:16","orig_title":"Zvanyy uzhin","year":"1953-08-20","translations":["Оригинальная дорожка"],"quality":"dvdrip","translation":"Оригинальная дорожка","update":"2019-08-02 07:03:30","iframe_src":"//8543.svetacdn.in/71tsRs29n5tZ/movie/29594"},{"id":4061,"title":"Ганнибал: Восхождение","kp_id":"50948","imdb_id":"tt0367959","world_art_id":null,"type":"movie","add":"2016-07-20 12:06:45","orig_title":"Hannibal Rising","year":"2007-02-07","translations":["Полное дублирование"],"quality":"bd","translation":"Полное дублирование","update":"2019-08-02 07:46:29","iframe_src":"//8543.svetacdn.in/71tsRs29n5tZ/movie/4061"}],"current_page":1129,"first_page_url":"https://videocdn.tv/api/short?limit=100&api_token=EnbO9h8pv1VyjbCJhg0WM9nG259n7mtz&cache31129=31129&page=1","from":112801,"last_page":604,"last_page_url":"https://videocdn.tv/api/short?limit=100&api_token=EnbO9h8pv1VyjbCJhg0WM9nG259n7mtz&cache31129=31129&page=604","next_page_url":null,"path":"https://videocdn.tv/api/short","per_page":100,"prev_page_url":"https://videocdn.tv/api/short?limit=100&api_token=EnbO9h8pv1VyjbCJhg0WM9nG259n7mtz&cache31129=31129&page=1128","to":112820,"total":60344}