{"result":true,"data":[{"id":55358,"title":"Рождество в хип-хоп семье","kp_id":"4696618","imdb_id":"tt15800378","world_art_id":null,"type":"movie","add":"2021-12-20 11:17:35","orig_title":"Hip Hop Family Christmas","year":"2021-12-06","translations":["Любительский (многоголосый закадровый) (Синема УС)"],"quality":"hdtv","translation":"Любительский (многоголосый закадровый) (Синема УС)","update":"2021-12-20 14:04:21","iframe_src":"//7741.svetacdn.in/71tsRs29n5tZ/movie/55358"},{"id":55357,"title":"Энчантималс. Тайны заснеженной долины","kp_id":"1403670","imdb_id":"tt12999688","world_art_id":null,"type":"movie","add":"2021-12-20 08:08:24","orig_title":"Enchantimals: Secrets of Snowy Valley","year":"2020-09-26","translations":["Полное дублирование (КиноПоиск HD)"],"quality":"webdl","translation":"Полное дублирование (КиноПоиск HD)","update":"2021-12-20 14:00:29","iframe_src":"//7741.svetacdn.in/71tsRs29n5tZ/movie/55357"},{"id":55350,"title":"Фильм этого лета","kp_id":"4513224","imdb_id":"tt14625190","world_art_id":null,"type":"movie","add":"2021-12-19 22:24:57","orig_title":"Samafirumu ni notte","year":"2020-11-02","translations":["Любительский (многоголосый закадровый) (Синема УС)"],"quality":"webdl","translation":"Любительский (многоголосый закадровый) (Синема УС)","update":"2021-12-20 14:03:30","iframe_src":"//7741.svetacdn.in/71tsRs29n5tZ/movie/55350"},{"id":55324,"title":"Уличный бандит","kp_id":"55462","imdb_id":"tt0068629","world_art_id":null,"type":"movie","add":"2021-12-19 07:56:05","orig_title":"Gendai yakuza: Hito-kiri yota","year":"1972-05-06","translations":["Любительский (одноголосый закадровый) (Береговых Виктор | Jet)"],"quality":"bd","translation":"Любительский (одноголосый закадровый) (Береговых Виктор | Jet)","update":"2021-12-20 11:38:08","iframe_src":"//7741.svetacdn.in/71tsRs29n5tZ/movie/55324"},{"id":52854,"title":"Красивый, плохой, злой: Начало","kp_id":"4472589","imdb_id":"tt14538850","world_art_id":null,"type":"movie","add":"2021-09-04 06:54:41","orig_title":"Ted Bundy: American Boogeyman","year":"2021-08-16","translations":["Любительский (многоголосый закадровый) (@MUZOBOZ@)","Полное дублирование (iTunes)"],"quality":"webdl","translation":"Любительский (многоголосый закадровый) (@MUZOBOZ@)","update":"2021-12-20 11:31:54","iframe_src":"//7741.svetacdn.in/71tsRs29n5tZ/movie/52854"},{"id":9956,"title":"Молодая гвардия","kp_id":"46682","imdb_id":"tt0040601","world_art_id":null,"type":"serial","add":"2021-02-16 09:28:50","orig_title":"Molodaya gvardiya","year":"1948-10-18","translations":["Оригинальная дорожка"],"seasons_count":1,"episodes_count":2,"episodes":2,"update":"2021-02-16 16:51:20","iframe_src":"//7741.svetacdn.in/71tsRs29n5tZ/tv-series/9956"},{"id":9955,"title":"Полет над Россией","kp_id":"1256027","imdb_id":"tt12070940","world_art_id":null,"type":"serial","add":"2021-02-16 08:26:32","orig_title":"Russland von oben","year":"2018-11-19","translations":["Профессиональный (многоголосый закадровый) (HDrezka Studio)"],"seasons_count":1,"episodes_count":5,"episodes":5,"update":"2021-02-16 19:48:13","iframe_src":"//7741.svetacdn.in/71tsRs29n5tZ/tv-series/9955"},{"id":9952,"title":"Кровь","kp_id":"1200373","imdb_id":"tt8991526","world_art_id":null,"type":"serial","add":"2021-02-15 19:39:36","orig_title":"Blood","year":"2018-10-08","translations":["Профессиональный (многоголосый закадровый) (SDI Media | Iyuno-SDI Group Russia)"],"seasons_count":2,"episodes_count":12,"episodes":6,"update":"2021-02-16 20:14:07","iframe_src":"//7741.svetacdn.in/71tsRs29n5tZ/tv-series/9952"},{"id":9951,"title":"Внутри человеческого тела","kp_id":"591875","imdb_id":"tt1929678","world_art_id":null,"type":"serial","add":"2021-02-15 19:30:06","orig_title":"Inside the Human Body","year":"2011-05-05","translations":["Профессиональный (одноголосый закадровый)"],"seasons_count":1,"episodes_count":4,"episodes":4,"update":"2021-02-16 09:11:28","iframe_src":"//7741.svetacdn.in/71tsRs29n5tZ/tv-series/9951"},{"id":9946,"title":"Отстойный мир Дейва Спада","kp_id":"1302155","imdb_id":"tt9015192","world_art_id":null,"type":"serial","add":"2021-02-15 12:35:20","orig_title":"The Rubbish World of Dave Spud","year":"2019-09-02","translations":["Профессиональный (двухголосый закадровый) (Кубик в Кубе)"],"seasons_count":1,"episodes_count":26,"episodes":26,"update":"2021-02-17 10:47:58","iframe_src":"//7741.svetacdn.in/71tsRs29n5tZ/tv-series/9946"},{"id":9942,"title":"Digital Доктор","kp_id":"1263375","imdb_id":null,"world_art_id":null,"type":"serial","add":"2021-02-14 19:02:08","orig_title":"Digital Доктор","year":"2019-04-25","translations":["Оригинальная дорожка"],"seasons_count":1,"episodes_count":4,"episodes":4,"update":"2021-02-15 21:01:57","iframe_src":"//7741.svetacdn.in/71tsRs29n5tZ/tv-series/9942"},{"id":9933,"title":"Догоняя смерть","kp_id":"1318635","imdb_id":"tt8304676","world_art_id":null,"type":"serial","add":"2021-02-14 06:27:36","orig_title":"The Grave","year":"2019-10-23","translations":["Любительский (многоголосый закадровый) (Ultradox)","Профессиональный (многоголосый закадровый) (BaibaKo)"],"seasons_count":1,"episodes_count":8,"episodes":8,"update":"2021-02-16 08:25:46","iframe_src":"//7741.svetacdn.in/71tsRs29n5tZ/tv-series/9933"},{"id":9932,"title":"Тандава","kp_id":"1313311","imdb_id":"tt11117570","world_art_id":null,"type":"serial","add":"2021-02-14 06:13:15","orig_title":"Tandav","year":"2021-01-14","translations":["Любительский (многоголосый закадровый) (Ultradox)","Любительский (многоголосый закадровый) (ColdFilm)","Профессиональный (многоголосый закадровый) (BaibaKo)"],"seasons_count":1,"episodes_count":9,"episodes":9,"update":"2021-02-16 08:58:39","iframe_src":"//7741.svetacdn.in/71tsRs29n5tZ/tv-series/9932"},{"id":9928,"title":"Акбар Великий","kp_id":null,"imdb_id":"tt5269346","world_art_id":null,"type":"serial","add":"2021-02-12 14:35:11","orig_title":"Akbar the Great","year":"1998-01-01","translations":["Профессиональный (многоголосый закадровый)"],"seasons_count":1,"episodes_count":56,"episodes":56,"update":"2021-02-17 10:09:26","iframe_src":"//7741.svetacdn.in/71tsRs29n5tZ/tv-series/9928"},{"id":9927,"title":"Три сестры","kp_id":"630111","imdb_id":"tt10195368","world_art_id":null,"type":"serial","add":"2021-02-12 14:08:31","orig_title":"Tri sestry","year":"2011-01-03","translations":["Оригинальная дорожка"],"seasons_count":3,"episodes_count":56,"episodes":20,"update":"2021-02-17 09:46:30","iframe_src":"//7741.svetacdn.in/71tsRs29n5tZ/tv-series/9927"},{"id":9919,"title":"НЛО","kp_id":"585416","imdb_id":"tt0063962","world_art_id":null,"type":"serial","add":"2021-02-12 05:11:32","orig_title":"UFO","year":"1970-09-16","translations":["Любительский (одноголосый закадровый) (Бессонов Андрей)"],"seasons_count":1,"episodes_count":26,"episodes":26,"update":"2021-02-17 09:26:50","iframe_src":"//7741.svetacdn.in/71tsRs29n5tZ/tv-series/9919"},{"id":9907,"title":"Дона Флор и два ее мужа","kp_id":"425843","imdb_id":"tt0118304","world_art_id":null,"type":"serial","add":"2021-02-10 19:51:58","orig_title":"Dona Flor e Seus 2 Maridos","year":"1998-03-31","translations":["Профессиональный (многоголосый закадровый)"],"seasons_count":1,"episodes_count":18,"episodes":18,"update":"2021-02-17 09:16:04","iframe_src":"//7741.svetacdn.in/71tsRs29n5tZ/tv-series/9907"},{"id":9892,"title":"Страсть","kp_id":"521674","imdb_id":"tt1616014","world_art_id":null,"type":"serial","add":"2021-02-09 12:27:16","orig_title":"Passione","year":"2010-05-17","translations":["Любительский (двухголосый закадровый)"],"seasons_count":1,"episodes_count":160,"episodes":160,"update":"2021-02-16 21:28:56","iframe_src":"//7741.svetacdn.in/71tsRs29n5tZ/tv-series/9892"},{"id":9891,"title":"Страсти по Саломее","kp_id":"520607","imdb_id":"tt0297620","world_art_id":null,"type":"serial","add":"2021-02-09 12:24:40","orig_title":"Salomé","year":"2001-10-22","translations":["Профессиональный (многоголосый закадровый)"],"seasons_count":1,"episodes_count":150,"episodes":150,"update":"2021-02-15 21:24:31","iframe_src":"//7741.svetacdn.in/71tsRs29n5tZ/tv-series/9891"},{"id":9816,"title":"50М2","kp_id":"1343308","imdb_id":"tt11617848","world_art_id":null,"type":"serial","add":"2021-01-29 11:46:17","orig_title":"50M2","year":"2021-01-27","translations":["Любительский (двухголосый закадровый) (OnisFilms)","Авторский (одноголосый закадровый) (Котова Ирина)","Профессиональный (многоголосый закадровый) (TVShows)"],"seasons_count":1,"episodes_count":8,"episodes":8,"update":"2021-02-15 20:32:24","iframe_src":"//7741.svetacdn.in/71tsRs29n5tZ/tv-series/9816"},{"id":9691,"title":"Свобода, свобода","kp_id":"975291","imdb_id":null,"world_art_id":null,"type":"serial","add":"2021-01-10 17:28:28","orig_title":"Liberdade, Liberdade","year":"2016-04-11","translations":["Любительский (двухголосый закадровый) (AveBrasil)"],"seasons_count":1,"episodes_count":67,"episodes":67,"update":"2021-02-17 13:12:39","iframe_src":"//7741.svetacdn.in/71tsRs29n5tZ/tv-series/9691"},{"id":37167,"title":"Анастасия","kp_id":"1089321","imdb_id":"tt7014356","world_art_id":null,"type":"movie","add":"2020-03-01 13:38:22","orig_title":"Anastasia: Once Upon a Time","year":"2019-01-01","translations":["Любительский (многоголосый закадровый) (Синема УС)","Профессиональный (многоголосый закадровый) (SDI Media | Iyuno-SDI Group Russia)"],"quality":"webdl","translation":"Любительский (многоголосый закадровый) (Синема УС)","update":"2021-12-20 11:33:32","iframe_src":"//7741.svetacdn.in/71tsRs29n5tZ/movie/37167"},{"id":34700,"title":"Нет вестей от Бога","kp_id":"17839","imdb_id":"tt0284491","world_art_id":null,"type":"movie","add":"2020-01-03 20:22:43","orig_title":"Sin noticias de Dios","year":"2001-11-30","translations":["Профессиональный (многоголосый закадровый)","Профессиональный (многоголосый закадровый)"],"quality":"dvdrip","translation":"Профессиональный (многоголосый закадровый)","update":"2021-12-20 11:35:44","iframe_src":"//7741.svetacdn.in/71tsRs29n5tZ/movie/34700"},{"id":3873,"title":"Убийственный класс","kp_id":"1100424","imdb_id":"tt5924572","world_art_id":null,"type":"serial","add":"2019-01-14 09:21:42","orig_title":"Deadly Class","year":"2018-12-20","translations":["Профессиональный (многоголосый закадровый) (IdeaFilm)","Профессиональный (многоголосый закадровый) (LostFilm)","Профессиональный (многоголосый закадровый) (HDrezka Studio)","Профессиональный (многоголосый закадровый) (OMSKBIRD records)","Профессиональный (многоголосый закадровый) (Jaskier)","Профессиональный (многоголосый закадровый) (TVShows)","Профессиональный (многоголосый закадровый) (Profix Media)","Профессиональный (многоголосый закадровый) (BaibaKo)","Профессиональный (многоголосый закадровый) (NewStudio)","Профессиональный (двухголосый закадровый) (Кубик в Кубе)"],"seasons_count":1,"episodes_count":10,"episodes":10,"update":"2021-02-17 17:04:26","iframe_src":"//7741.svetacdn.in/71tsRs29n5tZ/tv-series/3873"},{"id":3105,"title":"Город героев: Новая история","kp_id":"997973","imdb_id":"tt5515212","world_art_id":null,"type":"serial","add":"2018-08-30 19:36:24","orig_title":"Big Hero 6: The Series","year":"2017-11-20","translations":["Профессиональный (многоголосый закадровый) (IdeaFilm)","Любительский (двухголосый закадровый) (KinoGolos)","Полное дублирование (Кипарис)","Любительский (двухголосый закадровый) (KosharaSerials)","Полное дублирование","Любительский (многоголосый закадровый) (Octopus)","Любительский (многоголосый закадровый) (Ultradox)"],"seasons_count":3,"episodes_count":66,"episodes":19,"update":"2021-02-16 06:23:44","iframe_src":"//7741.svetacdn.in/71tsRs29n5tZ/tv-series/3105"},{"id":1895,"title":"Джекил и Хайд","kp_id":"939795","imdb_id":"tt4224588","world_art_id":null,"type":"serial","add":"2017-12-23 11:36:34","orig_title":"Jekyll & Hyde","year":"2015-10-25","translations":["Профессиональный (многоголосый закадровый) (NewStudio)","Профессиональный (многоголосый закадровый) (SET)"],"seasons_count":1,"episodes_count":10,"episodes":10,"update":"2021-02-17 10:12:28","iframe_src":"//7741.svetacdn.in/71tsRs29n5tZ/tv-series/1895"},{"id":10648,"title":"Невеста Хампти Шармы","kp_id":"840083","imdb_id":"tt3678938","world_art_id":null,"type":"movie","add":"2017-03-31 05:52:01","orig_title":"Humpty Sharma Ki Dulhania","year":"2014-07-11","translations":["Любительский (многоголосый закадровый) (ICG)","Профессиональный (многоголосый закадровый) (SDI Media | Iyuno-SDI Group Russia)","Любительский (многоголосый закадровый) (ICG)"],"quality":"bd","translation":"Любительский (многоголосый закадровый) (ICG)","update":"2021-12-20 11:39:44","iframe_src":"//7741.svetacdn.in/71tsRs29n5tZ/movie/10648"},{"id":7960,"title":"Новогодний корпоратив","kp_id":"566090","imdb_id":"tt1711525","world_art_id":null,"type":"movie","add":"2016-12-09 06:29:21","orig_title":"Office Christmas Party","year":"2016-12-07","translations":["Полное дублирование","Полное дублирование"],"quality":"bd","translation":"Полное дублирование","update":"2021-12-20 14:18:50","iframe_src":"//7741.svetacdn.in/71tsRs29n5tZ/movie/7960"},{"id":7932,"title":"Последние дни планеты Земля: Новая особь","kp_id":"299552","imdb_id":"tt0478073","world_art_id":null,"type":"movie","add":"2016-12-08 13:09:00","orig_title":"Final Days of Planet Earth","year":"2006-03-15","translations":["Профессиональный (двухголосый закадровый)","Профессиональный (многоголосый закадровый)"],"quality":"bd","translation":"Профессиональный (двухголосый закадровый)","update":"2021-12-20 13:58:02","iframe_src":"//7741.svetacdn.in/71tsRs29n5tZ/movie/7932"},{"id":7477,"title":"Эммануэль","kp_id":"63774","imdb_id":"tt0071464","world_art_id":null,"type":"movie","add":"2016-11-18 08:29:32","orig_title":"Emmanuelle","year":"1974-06-26","translations":["Профессиональный (двухголосый закадровый)","Профессиональный (двухголосый закадровый) (Twister)"],"quality":"bd","translation":"Профессиональный (двухголосый закадровый)","update":"2021-12-20 14:09:46","iframe_src":"//7741.svetacdn.in/71tsRs29n5tZ/movie/7477"},{"id":7157,"title":"Одинокий волк МакКуэйд","kp_id":"22637","imdb_id":"tt0085862","world_art_id":null,"type":"movie","add":"2016-11-08 05:42:48","orig_title":"Lone Wolf McQuade","year":"1983-04-15","translations":["Профессиональный (многоголосый закадровый)","Профессиональный (многоголосый закадровый)"],"quality":"bd","translation":"Профессиональный (многоголосый закадровый)","update":"2021-12-20 11:53:29","iframe_src":"//7741.svetacdn.in/71tsRs29n5tZ/movie/7157"},{"id":6716,"title":"Стелла","kp_id":"16850","imdb_id":"tt0100691","world_art_id":null,"type":"movie","add":"2016-10-27 05:08:51","orig_title":"Stella","year":"1990-02-02","translations":["Профессиональный (двухголосый закадровый)","Профессиональный (двухголосый закадровый) (НТВ)"],"quality":"hdtv","translation":"Профессиональный (двухголосый закадровый)","update":"2021-12-20 14:05:48","iframe_src":"//7741.svetacdn.in/71tsRs29n5tZ/movie/6716"},{"id":5813,"title":"Стигматы","kp_id":"4140","imdb_id":"tt0145531","world_art_id":null,"type":"movie","add":"2016-10-04 06:17:58","orig_title":"Stigmata","year":"1999-09-10","translations":["Полное дублирование","Полное дублирование (Ист-Вест)"],"quality":"bd","translation":"Полное дублирование","update":"2021-12-20 11:44:33","iframe_src":"//7741.svetacdn.in/71tsRs29n5tZ/movie/5813"},{"id":5718,"title":"Пережить Рождество","kp_id":"20105","imdb_id":"tt0252028","world_art_id":null,"type":"movie","add":"2016-09-29 16:47:02","orig_title":"Surviving Christmas","year":"2004-10-22","translations":["Полное дублирование","Полное дублирование (Невафильм | Нева-1)"],"quality":"bd","translation":"Полное дублирование","update":"2021-12-20 14:14:28","iframe_src":"//7741.svetacdn.in/71tsRs29n5tZ/movie/5718"},{"id":4146,"title":"Горец 2: Оживление","kp_id":"13682","imdb_id":"tt0102034","world_art_id":null,"type":"movie","add":"2016-07-25 10:37:13","orig_title":"Highlander II: The Quickening","year":"1991-01-31","translations":["Полное дублирование","Профессиональный (многоголосый закадровый) (DVD Group)","[EN] Original (English)","Авторский (одноголосый закадровый) (Визгунов Сергей)","Профессиональный (двухголосый закадровый)","Профессиональный (многоголосый закадровый) (ТВЦ)","Полное дублирование"],"quality":"bd","translation":"Полное дублирование","update":"2021-12-20 14:24:15","iframe_src":"//7741.svetacdn.in/71tsRs29n5tZ/movie/4146"},{"id":2949,"title":"Доспехи Бога 3: Миссия Зодиак","kp_id":"654749","imdb_id":"tt1424310","world_art_id":null,"type":"movie","add":"2016-06-06 20:59:45","orig_title":"Sap ji sang ciu","year":"2012-12-12","translations":["Полное дублирование","Полное дублирование (Пифагор)"],"quality":"bd","translation":"Полное дублирование","update":"2021-12-20 11:57:32","iframe_src":"//7741.svetacdn.in/71tsRs29n5tZ/movie/2949"},{"id":2924,"title":"Доспехи Бога","kp_id":"24705","imdb_id":"tt0091431","world_art_id":null,"type":"movie","add":"2016-06-06 18:57:12","orig_title":"Long xiong hu di","year":"1986-08-16","translations":["Профессиональный (многоголосый закадровый)","Авторский (одноголосый закадровый) (Гаврилов Андрей)"],"quality":"bd","translation":"Профессиональный (многоголосый закадровый)","update":"2021-12-20 12:01:15","iframe_src":"//7741.svetacdn.in/71tsRs29n5tZ/movie/2924"},{"id":111,"title":"Последнее королевство","kp_id":"863829","imdb_id":"tt4179452","world_art_id":null,"type":"serial","add":"2016-05-31 05:51:52","orig_title":"The Last Kingdom","year":"2015-10-10","translations":["Профессиональный (многоголосый закадровый) (AlexFilm)","Профессиональный (многоголосый закадровый) (LostFilm)","Профессиональный (многоголосый закадровый) (NewStudio)","Профессиональный (многоголосый закадровый) (HDrezka Studio)","Полное дублирование","Профессиональный (многоголосый закадровый) (Jaskier)","Профессиональный (многоголосый закадровый) (TVShows)","Любительский (многоголосый закадровый) (Octopus)","Полное дублирование (SDI Media | Iyuno-SDI Group Russia)"],"seasons_count":4,"episodes_count":36,"episodes":10,"update":"2021-02-17 18:18:01","iframe_src":"//7741.svetacdn.in/71tsRs29n5tZ/tv-series/111"},{"id":1570,"title":"Подмена","kp_id":"279880","imdb_id":"tt0824747","world_art_id":null,"type":"movie","add":"2016-04-22 14:51:59","orig_title":"Changeling","year":"2008-05-20","translations":["Полное дублирование","Полное дублирование"],"quality":"bd","translation":"Полное дублирование","update":"2021-12-20 14:01:45","iframe_src":"//7741.svetacdn.in/71tsRs29n5tZ/movie/1570"},{"id":686,"title":"Автостопом по галактике","kp_id":"79834","imdb_id":"tt0371724","world_art_id":null,"type":"movie","add":"2016-04-05 21:27:12","orig_title":"The Hitchhiker's Guide to the Galaxy","year":"2005-04-20","translations":["Полное дублирование","[EN] Original (English)","Полное дублирование (Невафильм | Нева-1)"],"quality":"bd","translation":"Полное дублирование","update":"2021-12-20 11:48:25","iframe_src":"//7741.svetacdn.in/71tsRs29n5tZ/movie/686"}],"current_page":188,"first_page_url":"https://videocdn.tv/api/short?limit=100&api_token=EnbO9h8pv1VyjbCJhg0WM9nG259n7mtz&cache3188=3188&page=1","from":18701,"last_page":706,"last_page_url":"https://videocdn.tv/api/short?limit=100&api_token=EnbO9h8pv1VyjbCJhg0WM9nG259n7mtz&cache3188=3188&page=706","next_page_url":"https://videocdn.tv/api/short?limit=100&api_token=EnbO9h8pv1VyjbCJhg0WM9nG259n7mtz&cache3188=3188&page=189","path":"https://videocdn.tv/api/short","per_page":100,"prev_page_url":"https://videocdn.tv/api/short?limit=100&api_token=EnbO9h8pv1VyjbCJhg0WM9nG259n7mtz&cache3188=3188&page=187","to":18740,"total":70558}