{"result":true,"data":[{"id":50222,"title":"Зоя Космодемьянская","kp_id":"4365698","imdb_id":null,"world_art_id":null,"type":"movie","add":"2021-05-08 07:52:55","orig_title":"Зоя Космодемьянская","year":"2021-05-06","translations":["Оригинальная дорожка"],"quality":"webdl","translation":"Оригинальная дорожка","update":"2021-05-08 11:45:47","iframe_src":"//8944266443434.svetacdn.in/PfJ50H0ZBPg3/movie/50222"},{"id":50221,"title":"Узница","kp_id":"1168122","imdb_id":"tt8273104","world_art_id":null,"type":"movie","add":"2021-05-07 20:51:55","orig_title":"Captive","year":"2020-10-30","translations":["Любительский (многоголосый закадровый) (Синема УС)"],"quality":"webdl","translation":"Любительский (многоголосый закадровый) (Синема УС)","update":"2021-05-08 11:22:24","iframe_src":"//8944266443434.svetacdn.in/PfJ50H0ZBPg3/movie/50221"},{"id":50220,"title":"Джим Пуговка и чёртова дюжина","kp_id":"1243461","imdb_id":"tt9839038","world_art_id":null,"type":"movie","add":"2021-05-07 20:25:18","orig_title":"Jim Knopf und die Wilde 13","year":"2020-10-01","translations":["Любительский (многоголосый закадровый) (@MUZOBOZ@)"],"quality":"webdl","translation":"Любительский (многоголосый закадровый) (@MUZOBOZ@)","update":"2021-05-08 11:21:30","iframe_src":"//8944266443434.svetacdn.in/PfJ50H0ZBPg3/movie/50220"},{"id":50216,"title":"Запертые","kp_id":"1313238","imdb_id":"tt6439792","world_art_id":null,"type":"movie","add":"2021-05-07 19:54:02","orig_title":"Locked In","year":"2021-05-07","translations":["Любительский (многоголосый закадровый) (@MUZOBOZ@)"],"quality":"webdl","translation":"Любительский (многоголосый закадровый) (@MUZOBOZ@)","update":"2021-05-08 08:58:02","iframe_src":"//8944266443434.svetacdn.in/PfJ50H0ZBPg3/movie/50216"},{"id":50211,"title":"Под прицелом","kp_id":"1289895","imdb_id":"tt10704342","world_art_id":null,"type":"movie","add":"2021-05-07 16:44:19","orig_title":"Framed","year":"2021-04-21","translations":["Любительский (многоголосый закадровый) (Синема УС)"],"quality":"webdl","translation":"Любительский (многоголосый закадровый) (Синема УС)","update":"2021-05-07 22:18:39","iframe_src":"//8944266443434.svetacdn.in/PfJ50H0ZBPg3/movie/50211"},{"id":50209,"title":"Две полоски","kp_id":"1225170","imdb_id":"tt9486184","world_art_id":null,"type":"movie","add":"2021-05-07 08:47:03","orig_title":"Positive","year":"2020-01-01","translations":["Любительский (многоголосый закадровый) (Синема УС)"],"quality":"webdl","translation":"Любительский (многоголосый закадровый) (Синема УС)","update":"2021-05-07 14:43:11","iframe_src":"//8944266443434.svetacdn.in/PfJ50H0ZBPg3/movie/50209"},{"id":50202,"title":"118","kp_id":"1174020","imdb_id":"tt8660422","world_art_id":null,"type":"movie","add":"2021-05-07 07:51:49","orig_title":"118","year":"2019-02-28","translations":["Любительский (многоголосый закадровый) (LovelyVox)"],"quality":"webdl","translation":"Любительский (многоголосый закадровый) (LovelyVox)","update":"2021-05-08 10:41:49","iframe_src":"//8944266443434.svetacdn.in/PfJ50H0ZBPg3/movie/50202"},{"id":50163,"title":"Паршивый День матери","kp_id":"1224239","imdb_id":"tt9444800","world_art_id":null,"type":"movie","add":"2021-05-05 19:13:43","orig_title":"Crappy Mother's Day","year":"2019-05-05","translations":["Любительский (многоголосый закадровый) (Синема УС)"],"quality":"webdl","translation":"Любительский (многоголосый закадровый) (Синема УС)","update":"2021-05-07 16:38:01","iframe_src":"//8944266443434.svetacdn.in/PfJ50H0ZBPg3/movie/50163"},{"id":50159,"title":"Лагерь перезагрузки","kp_id":"1311378","imdb_id":"tt11111286","world_art_id":null,"type":"movie","add":"2021-05-05 17:36:49","orig_title":"Reboot Camp","year":"2020-10-23","translations":["Любительский (многоголосый закадровый) (AlphaProject)"],"quality":"webdl","translation":"Любительский (многоголосый закадровый) (AlphaProject)","update":"2021-05-07 16:39:19","iframe_src":"//8944266443434.svetacdn.in/PfJ50H0ZBPg3/movie/50159"},{"id":50158,"title":"Смертельные слова","kp_id":"1397025","imdb_id":"tt12812942","world_art_id":null,"type":"movie","add":"2021-05-05 17:34:46","orig_title":"Death Sentences","year":"2020-10-31","translations":["Любительский (многоголосый закадровый) (Синема УС)"],"quality":"webdl","translation":"Любительский (многоголосый закадровый) (Синема УС)","update":"2021-05-07 16:40:07","iframe_src":"//8944266443434.svetacdn.in/PfJ50H0ZBPg3/movie/50158"},{"id":50157,"title":"Украсть Чаплина","kp_id":"1316861","imdb_id":"tt10205046","world_art_id":null,"type":"movie","add":"2021-05-05 17:33:05","orig_title":"Stealing Chaplin","year":"2020-11-13","translations":["Любительский (многоголосый закадровый) (Синема УС)"],"quality":"webdl","translation":"Любительский (многоголосый закадровый) (Синема УС)","update":"2021-05-07 16:40:21","iframe_src":"//8944266443434.svetacdn.in/PfJ50H0ZBPg3/movie/50157"},{"id":44016,"title":"Упс! Приплыли...","kp_id":"1400929","imdb_id":"tt12615474","world_art_id":null,"type":"movie","add":"2020-09-30 22:18:38","orig_title":"Ooops! The Adventure Continues","year":"2020-09-24","translations":["Любительский (многоголосый закадровый) (Синема УС)","Полное дублирование"],"quality":"webdl","translation":"Любительский (многоголосый закадровый) (Синема УС)","update":"2021-05-07 16:37:32","iframe_src":"//8944266443434.svetacdn.in/PfJ50H0ZBPg3/movie/44016"},{"id":40705,"title":"Академия волшебства","kp_id":"1380563","imdb_id":"tt5768992","world_art_id":null,"type":"movie","add":"2020-05-26 06:17:59","orig_title":"The Academy of Magic","year":"2020-01-05","translations":["[EN] Original (English)","Любительский (многоголосый закадровый) (Синема УС)","Полное дублирование"],"quality":"webdl","translation":"[EN] Original (English)","update":"2021-05-07 16:41:04","iframe_src":"//8944266443434.svetacdn.in/PfJ50H0ZBPg3/movie/40705"},{"id":15827,"title":"Кузина Бетта","kp_id":"23663","imdb_id":"tt0118894","world_art_id":null,"type":"movie","add":"2018-03-25 13:08:08","orig_title":"Cousin Bette","year":"1998-06-12","translations":["Профессиональный (многоголосый закадровый)","Профессиональный (двухголосый закадровый) (Lazer Video | Лазер видео)","[EN] Original (English)","Любительский (одноголосый закадровый) (Антонов Николай)","Профессиональный (многоголосый закадровый) (Первый канал | ОРТ)"],"quality":"webdl","translation":"Профессиональный (многоголосый закадровый)","update":"2021-05-07 12:05:37","iframe_src":"//8944266443434.svetacdn.in/PfJ50H0ZBPg3/movie/15827"},{"id":5420,"title":"Дикая орхидея","kp_id":"20992","imdb_id":"tt0100934","world_art_id":null,"type":"movie","add":"2016-09-22 06:12:01","orig_title":"Wild Orchid","year":"1989-12-22","translations":["Полное дублирование","Профессиональный (двухголосый закадровый) (НТВ)","[EN] Original (English)","Авторский (одноголосый закадровый) (Гаврилов Андрей)","Авторский (одноголосый закадровый) (Горчаков Василий)","Авторский (одноголосый закадровый) (Иванов Михаил)","[EN] Original (English)","Профессиональный (многоголосый закадровый)","Профессиональный (многоголосый закадровый) (РенТВ)"],"quality":"bd","translation":"Полное дублирование","update":"2021-05-07 12:20:55","iframe_src":"//8944266443434.svetacdn.in/PfJ50H0ZBPg3/movie/5420"},{"id":3596,"title":"Дитя человеческое","kp_id":"6803","imdb_id":"tt0206634","world_art_id":null,"type":"movie","add":"2016-07-01 12:13:39","orig_title":"Children of Men","year":"2006-09-03","translations":["Полное дублирование","Авторский (одноголосый закадровый) (Есарев Дмитрий)","Авторский (одноголосый закадровый) (Королёв Владимир)","Полное дублирование (Netflix)","[EN] Original (English)","Профессиональный (двухголосый закадровый) (Гланц + Королёва)"],"quality":"bd","translation":"Полное дублирование","update":"2021-05-07 12:37:09","iframe_src":"//8944266443434.svetacdn.in/PfJ50H0ZBPg3/movie/3596"},{"id":3112,"title":"Заплати другому","kp_id":"782","imdb_id":"tt0223897","world_art_id":null,"type":"movie","add":"2016-06-13 18:23:58","orig_title":"Pay It Forward","year":"2000-10-12","translations":["Полное дублирование","[EN] Original (English)","Авторский (одноголосый закадровый) (Живов Юрий)","Полное дублирование (Мост-Видео)","[EN] Original (English)","Профессиональный (многоголосый закадровый) (ВГТРК)"],"quality":"webdl","translation":"Полное дублирование","update":"2021-05-07 12:31:32","iframe_src":"//8944266443434.svetacdn.in/PfJ50H0ZBPg3/movie/3112"},{"id":2939,"title":"Одним меньше","kp_id":"645066","imdb_id":"tt2101341","world_art_id":null,"type":"movie","add":"2016-06-06 20:41:18","orig_title":"Dead Man Down","year":"2013-03-08","translations":["Полное дублирование","Авторский (одноголосый закадровый) (Гаврилов Андрей)","Полное дублирование","[EN] Original (English)"],"quality":"bd","translation":"Полное дублирование","update":"2021-05-07 12:25:52","iframe_src":"//8944266443434.svetacdn.in/PfJ50H0ZBPg3/movie/2939"},{"id":2753,"title":"Сука-любовь","kp_id":"488","imdb_id":"tt0245712","world_art_id":null,"type":"movie","add":"2016-05-31 06:53:05","orig_title":"Amores perros","year":"2000-05-14","translations":["Профессиональный (многоголосый закадровый)","Профессиональный (многоголосый закадровый) (Первый канал | ОРТ)","Авторский (одноголосый закадровый) (Назаров Вадим)","Профессиональный (многоголосый закадровый) (СТС)","Профессиональный (многоголосый закадровый) (Премьер Видео Фильм)"],"quality":"bd","translation":"Профессиональный (многоголосый закадровый)","update":"2021-05-07 12:43:23","iframe_src":"//8944266443434.svetacdn.in/PfJ50H0ZBPg3/movie/2753"},{"id":2035,"title":"Жизнь Дэвида Гейла","kp_id":"738","imdb_id":"tt0289992","world_art_id":null,"type":"movie","add":"2016-05-10 16:26:26","orig_title":"The Life of David Gale","year":"2003-02-07","translations":["Профессиональный (многоголосый закадровый)","Авторский (одноголосый закадровый) (Визгунов Сергей)","Авторский (одноголосый закадровый) (Живов Юрий)","[EN] Original (English)","Профессиональный (многоголосый закадровый)","Профессиональный (многоголосый закадровый) (Пирамида | Pyramid)"],"quality":"bd","translation":"Профессиональный (многоголосый закадровый)","update":"2021-05-07 12:00:57","iframe_src":"//8944266443434.svetacdn.in/PfJ50H0ZBPg3/movie/2035"}],"current_page":747,"first_page_url":"https://videocdn.tv/api/short?limit=100&api_token=RgFQdUIR2dRmwv8iYa5SnFNgnw3vpjKj&cache3747=3747&page=1","from":74601,"last_page":731,"last_page_url":"https://videocdn.tv/api/short?limit=100&api_token=RgFQdUIR2dRmwv8iYa5SnFNgnw3vpjKj&cache3747=3747&page=731","next_page_url":null,"path":"https://videocdn.tv/api/short","per_page":100,"prev_page_url":"https://videocdn.tv/api/short?limit=100&api_token=RgFQdUIR2dRmwv8iYa5SnFNgnw3vpjKj&cache3747=3747&page=746","to":74620,"total":73011}