{"result":true,"data":[{"id":47750,"title":"Ишвар","kp_id":"322943","imdb_id":"tt0924219","world_art_id":null,"type":"movie","add":"2021-02-08 10:04:59","orig_title":"Eeshwar","year":"2002-11-11","translations":["Любительский (одноголосый закадровый)  (zamez | Замез Вячеслав)"],"quality":"webdl","translation":"Любительский (одноголосый закадровый)  (zamez | Замез Вячеслав)","update":"2021-02-08 15:02:47","iframe_src":"//8209.svetacdn.in/si4jsFRrtgrT/movie/47750"},{"id":47749,"title":"Стрелы Амура","kp_id":"760463","imdb_id":"tt2845796","world_art_id":null,"type":"movie","add":"2021-02-08 09:58:36","orig_title":"Attakathi","year":"2012-08-15","translations":["Профессиональный (многоголосый закадровый) (Индия ТВ)"],"quality":"webdl","translation":"Профессиональный (многоголосый закадровый) (Индия ТВ)","update":"2021-02-08 15:01:24","iframe_src":"//8209.svetacdn.in/si4jsFRrtgrT/movie/47749"},{"id":47746,"title":"С первого взгляда","kp_id":"216227","imdb_id":"tt0285958","world_art_id":null,"type":"movie","add":"2021-02-08 09:31:49","orig_title":"Pyaar Ishq Aur Mohabbat","year":"2001-09-26","translations":["Профессиональный (многоголосый закадровый)"],"quality":"dvdrip","translation":"Профессиональный (многоголосый закадровый)","update":"2021-02-08 15:01:59","iframe_src":"//8209.svetacdn.in/si4jsFRrtgrT/movie/47746"},{"id":47715,"title":"Музыка Верди","kp_id":"635975","imdb_id":"tt4202946","world_art_id":null,"type":"movie","add":"2021-02-07 14:40:14","orig_title":"Muzyka Verdi","year":"1961-10-01","translations":["Оригинальная дорожка"],"quality":"sat","translation":"Оригинальная дорожка","update":"2021-02-08 15:16:54","iframe_src":"//8209.svetacdn.in/si4jsFRrtgrT/movie/47715"},{"id":47714,"title":"Записки сумасшедшего","kp_id":"497578","imdb_id":"tt5892150","world_art_id":null,"type":"movie","add":"2021-02-07 13:35:14","orig_title":"Zapiski sumasshedshego","year":"1968-01-28","translations":["Оригинальная дорожка"],"quality":"dvdrip","translation":"Оригинальная дорожка","update":"2021-02-08 15:14:17","iframe_src":"//8209.svetacdn.in/si4jsFRrtgrT/movie/47714"},{"id":47713,"title":"Серебряные трубы","kp_id":"474665","imdb_id":"tt2942750","world_art_id":null,"type":"movie","add":"2021-02-07 13:31:27","orig_title":"Serebryanye truby","year":"1971-03-22","translations":["Оригинальная дорожка"],"quality":"tv","translation":"Оригинальная дорожка","update":"2021-02-08 15:12:08","iframe_src":"//8209.svetacdn.in/si4jsFRrtgrT/movie/47713"},{"id":47712,"title":"Так начиналась легенда","kp_id":"42186","imdb_id":"tt0075304","world_art_id":null,"type":"movie","add":"2021-02-07 13:28:53","orig_title":"Tak nachinalas legenda","year":"1976-04-11","translations":["Оригинальная дорожка"],"quality":"tv","translation":"Оригинальная дорожка","update":"2021-02-08 15:11:12","iframe_src":"//8209.svetacdn.in/si4jsFRrtgrT/movie/47712"},{"id":47711,"title":"Комэск","kp_id":"472200","imdb_id":"tt9357278","world_art_id":null,"type":"movie","add":"2021-02-07 13:25:03","orig_title":"Komesk","year":"1965-01-01","translations":["Оригинальная дорожка"],"quality":"vhs","translation":"Оригинальная дорожка","update":"2021-02-08 15:09:31","iframe_src":"//8209.svetacdn.in/si4jsFRrtgrT/movie/47711"},{"id":47710,"title":"Золотые слова","kp_id":"668175","imdb_id":"tt7972470","world_art_id":null,"type":"movie","add":"2021-02-07 13:21:42","orig_title":"Zolotye Slova","year":"1989-01-01","translations":["Оригинальная дорожка"],"quality":"dvdrip","translation":"Оригинальная дорожка","update":"2021-02-08 15:08:39","iframe_src":"//8209.svetacdn.in/si4jsFRrtgrT/movie/47710"},{"id":47665,"title":"Товарищ песня","kp_id":"477490","imdb_id":"tt8224806","world_art_id":null,"type":"movie","add":"2021-02-04 18:44:22","orig_title":"Tovarishch pesnya","year":"1966-08-01","translations":["Оригинальная дорожка"],"quality":"tv","translation":"Оригинальная дорожка","update":"2021-02-08 15:07:47","iframe_src":"//8209.svetacdn.in/si4jsFRrtgrT/movie/47665"},{"id":47664,"title":"Парень из тайги","kp_id":"43213","imdb_id":"tt0189945","world_art_id":null,"type":"movie","add":"2021-02-04 18:40:59","orig_title":"Paren iz taygi","year":"1941-05-12","translations":["Оригинальная дорожка"],"quality":"webdl","translation":"Оригинальная дорожка","update":"2021-02-08 15:06:46","iframe_src":"//8209.svetacdn.in/si4jsFRrtgrT/movie/47664"},{"id":47663,"title":"Охота на последнего журавля","kp_id":"1044438","imdb_id":"tt5674480","world_art_id":null,"type":"movie","add":"2021-02-04 18:37:51","orig_title":"Palyavanne na aposhnyaga zhuraulya","year":"1986-01-01","translations":["Оригинальная дорожка"],"quality":"iptv","translation":"Оригинальная дорожка","update":"2021-02-08 15:05:56","iframe_src":"//8209.svetacdn.in/si4jsFRrtgrT/movie/47663"},{"id":47662,"title":"Наш честный хлеб","kp_id":"46327","imdb_id":"tt0172859","world_art_id":null,"type":"movie","add":"2021-02-04 18:34:58","orig_title":"Nash chestnyy khleb","year":"1964-12-07","translations":["Оригинальная дорожка"],"quality":"vhs","translation":"Оригинальная дорожка","update":"2021-02-08 15:05:13","iframe_src":"//8209.svetacdn.in/si4jsFRrtgrT/movie/47662"},{"id":47660,"title":"Всего один поворот","kp_id":"491692","imdb_id":"tt2023810","world_art_id":null,"type":"movie","add":"2021-02-04 18:30:02","orig_title":"Vsego odin povorot","year":"1987-06-21","translations":["Оригинальная дорожка"],"quality":"tv","translation":"Оригинальная дорожка","update":"2021-02-08 15:04:43","iframe_src":"//8209.svetacdn.in/si4jsFRrtgrT/movie/47660"},{"id":47659,"title":"Узнай меня","kp_id":"475016","imdb_id":"tt4971550","world_art_id":null,"type":"movie","add":"2021-02-04 18:27:42","orig_title":"Uznay menya","year":"1979-07-01","translations":["Оригинальная дорожка"],"quality":"dvdrip","translation":"Оригинальная дорожка","update":"2021-02-08 15:04:06","iframe_src":"//8209.svetacdn.in/si4jsFRrtgrT/movie/47659"},{"id":47658,"title":"Утренняя музыка","kp_id":"627272","imdb_id":null,"world_art_id":null,"type":"movie","add":"2021-02-04 18:25:40","orig_title":"Утренняя музыка","year":"1974-01-01","translations":["Оригинальная дорожка"],"quality":"dvdrip","translation":"Оригинальная дорожка","update":"2021-02-08 15:03:23","iframe_src":"//8209.svetacdn.in/si4jsFRrtgrT/movie/47658"},{"id":47657,"title":"Три рубля","kp_id":"43603","imdb_id":"tt0283075","world_art_id":null,"type":"movie","add":"2021-02-04 18:21:03","orig_title":"Sami maneti","year":"1976-06-01","translations":["Оригинальная дорожка"],"quality":"sat","translation":"Оригинальная дорожка","update":"2021-02-08 15:02:42","iframe_src":"//8209.svetacdn.in/si4jsFRrtgrT/movie/47657"},{"id":24308,"title":"Белый рояль","kp_id":"46074","imdb_id":"tt0312454","world_art_id":null,"type":"movie","add":"2019-04-11 19:30:09","orig_title":"Belyy royal","year":"1969-06-30","translations":["Оригинальная дорожка","Оригинальная дорожка"],"quality":"tv","translation":"Оригинальная дорожка","update":"2021-02-08 15:13:09","iframe_src":"//8209.svetacdn.in/si4jsFRrtgrT/movie/24308"},{"id":4133,"title":"Долгие, долгие каникулы","kp_id":"1007756","imdb_id":"tt4641870","world_art_id":null,"type":"serial","add":"2019-02-22 14:29:54","orig_title":"Les Grandes Grandes Vacances","year":"2015-04-20","translations":["Любительский (двухголосый закадровый) (NewStation)"],"seasons_count":1,"episodes_count":10,"episodes":10,"update":"2019-02-22 17:45:52","iframe_src":"//8209.svetacdn.in/si4jsFRrtgrT/tv-series/4133"},{"id":4129,"title":"Проглоти солнце","kp_id":"493980","imdb_id":"tt1567718","world_art_id":null,"type":"serial","add":"2019-02-21 17:24:23","orig_title":"Taeyangeul ssamkyeora","year":"2009-07-09","translations":["Любительский (одноголосый закадровый) (Korean Craze)"],"seasons_count":1,"episodes_count":25,"episodes":25,"update":"2019-02-22 14:03:29","iframe_src":"//8209.svetacdn.in/si4jsFRrtgrT/tv-series/4129"},{"id":4121,"title":"Странная экономка","kp_id":"797078","imdb_id":"tt3362414","world_art_id":null,"type":"serial","add":"2019-02-20 05:42:00","orig_title":"Soosanghan Gajungboo","year":"2013-09-23","translations":["Любительский (одноголосый закадровый)"],"seasons_count":1,"episodes_count":20,"episodes":20,"update":"2019-02-21 09:24:19","iframe_src":"//8209.svetacdn.in/si4jsFRrtgrT/tv-series/4121"},{"id":4120,"title":"Осень в моем сердце","kp_id":"325785","imdb_id":"tt0294592","world_art_id":null,"type":"serial","add":"2019-02-20 05:18:22","orig_title":"Gaeul donghwa","year":"2000-09-18","translations":["Любительский (одноголосый закадровый) (GREEN TEA)"],"seasons_count":1,"episodes_count":16,"episodes":16,"update":"2019-02-21 07:50:16","iframe_src":"//8209.svetacdn.in/si4jsFRrtgrT/tv-series/4120"},{"id":4119,"title":"Ва-банк","kp_id":"325782","imdb_id":"tt0431504","world_art_id":null,"type":"serial","add":"2019-02-20 05:14:01","orig_title":"All In","year":"2003-01-15","translations":["Любительский (многоголосый закадровый)"],"seasons_count":1,"episodes_count":24,"episodes":24,"update":"2019-02-20 10:51:09","iframe_src":"//8209.svetacdn.in/si4jsFRrtgrT/tv-series/4119"},{"id":4118,"title":"Дворец","kp_id":"401477","imdb_id":"tt0843195","world_art_id":null,"type":"serial","add":"2019-02-19 22:50:48","orig_title":"Gung","year":"2006-01-11","translations":["Любительский (двухголосый закадровый) (GREEN TEA)"],"seasons_count":1,"episodes_count":24,"episodes":24,"update":"2019-02-21 08:46:43","iframe_src":"//8209.svetacdn.in/si4jsFRrtgrT/tv-series/4118"},{"id":4117,"title":"Мой призрак","kp_id":"924349","imdb_id":"tt4799574","world_art_id":null,"type":"serial","add":"2019-02-19 22:38:27","orig_title":"Oh naui gwishinnim","year":"2015-07-03","translations":["Любительский (двухголосый закадровый) (GREEN TEA)"],"seasons_count":1,"episodes_count":16,"episodes":16,"update":"2019-02-20 12:03:18","iframe_src":"//8209.svetacdn.in/si4jsFRrtgrT/tv-series/4117"},{"id":4113,"title":"Подмена","kp_id":"1009455","imdb_id":"tt6410708","world_art_id":null,"type":"serial","add":"2019-02-19 13:01:25","orig_title":"The Replacement","year":"2017-02-28","translations":["Профессиональный (двухголосый закадровый) (ViruseProject)"],"seasons_count":1,"episodes_count":3,"episodes":3,"update":"2019-02-20 07:55:54","iframe_src":"//8209.svetacdn.in/si4jsFRrtgrT/tv-series/4113"},{"id":4112,"title":"Единственная радость","kp_id":"1236005","imdb_id":null,"world_art_id":null,"type":"serial","add":"2019-02-19 12:58:40","orig_title":"Единственная радость","year":"2019-02-17","translations":["Оригинальная дорожка"],"seasons_count":1,"episodes_count":2,"episodes":2,"update":"2019-02-20 07:53:06","iframe_src":"//8209.svetacdn.in/si4jsFRrtgrT/tv-series/4112"},{"id":4108,"title":"Монарх","kp_id":"1007746","imdb_id":"tt6201920","world_art_id":null,"type":"serial","add":"2019-02-19 08:23:55","orig_title":"Goonjoo-Gamyunui Jooin","year":"2017-05-10","translations":["Любительский (двухголосый закадровый) (SoftBox)"],"seasons_count":1,"episodes_count":20,"episodes":20,"update":"2019-02-20 20:27:00","iframe_src":"//8209.svetacdn.in/si4jsFRrtgrT/tv-series/4108"},{"id":4103,"title":"Вест-Сайд","kp_id":null,"imdb_id":"tt8693758","world_art_id":null,"type":"serial","add":"2019-02-18 08:43:39","orig_title":"Westside","year":"2018-11-09","translations":["Любительский (двухголосый закадровый) (KosharaSerials)"],"seasons_count":1,"episodes_count":8,"episodes":8,"update":"2019-02-20 20:39:07","iframe_src":"//8209.svetacdn.in/si4jsFRrtgrT/tv-series/4103"},{"id":4102,"title":"Очаровательный прокурор","kp_id":"577282","imdb_id":"tt1819921","world_art_id":null,"type":"serial","add":"2019-02-18 08:39:44","orig_title":"Geomsa peurinseseu","year":"2010-03-31","translations":["Любительский (одноголосый закадровый) (STEPonee)"],"seasons_count":1,"episodes_count":16,"episodes":16,"update":"2019-02-20 20:29:26","iframe_src":"//8209.svetacdn.in/si4jsFRrtgrT/tv-series/4102"},{"id":4100,"title":"Мечта","kp_id":"494696","imdb_id":"tt3375828","world_art_id":null,"type":"serial","add":"2019-02-17 22:32:07","orig_title":"Deurim","year":"2009-07-27","translations":["Любительский (одноголосый закадровый) (GREEN TEA)"],"seasons_count":1,"episodes_count":20,"episodes":20,"update":"2019-02-21 08:05:32","iframe_src":"//8209.svetacdn.in/si4jsFRrtgrT/tv-series/4100"},{"id":4099,"title":"Кошмарочка","kp_id":"714103","imdb_id":"tt2341340","world_art_id":null,"type":"serial","add":"2019-02-17 22:12:59","orig_title":"Akumu chan","year":"2012-10-13","translations":["Любительский (одноголосый закадровый) (GREEN TEA)"],"seasons_count":1,"episodes_count":11,"episodes":11,"update":"2019-02-21 09:03:40","iframe_src":"//8209.svetacdn.in/si4jsFRrtgrT/tv-series/4099"},{"id":4096,"title":"1992","kp_id":"885655","imdb_id":"tt2983290","world_art_id":null,"type":"serial","add":"2019-02-17 08:50:05","orig_title":"1992","year":"2015-02-09","translations":["Профессиональный (многоголосый закадровый) (Эй Би Видео | AB-Video)"],"seasons_count":1,"episodes_count":10,"episodes":10,"update":"2019-02-19 12:37:34","iframe_src":"//8209.svetacdn.in/si4jsFRrtgrT/tv-series/4096"},{"id":4067,"title":"Захват","kp_id":"1235090","imdb_id":null,"world_art_id":null,"type":"serial","add":"2019-02-13 09:29:01","orig_title":"Захват","year":"2019-01-01","translations":["Оригинальная дорожка"],"seasons_count":1,"episodes_count":8,"episodes":8,"update":"2019-02-22 10:28:38","iframe_src":"//8209.svetacdn.in/si4jsFRrtgrT/tv-series/4067"},{"id":3818,"title":"Спрут 7","kp_id":"79867","imdb_id":"tt0182624","world_art_id":null,"type":"serial","add":"2019-01-05 11:23:04","orig_title":"La piovra 7 - Indagine sulla morte del commissario Cattani","year":"1995-03-06","translations":["Любительский (одноголосый закадровый)"],"seasons_count":1,"episodes_count":6,"episodes":6,"update":"2019-02-22 10:54:23","iframe_src":"//8209.svetacdn.in/si4jsFRrtgrT/tv-series/3818"},{"id":3340,"title":"Бабочка","kp_id":"1159893","imdb_id":"tt7703440","world_art_id":null,"type":"serial","add":"2018-10-20 10:02:39","orig_title":"Butterfly","year":"2018-01-01","translations":["Любительский (двухголосый закадровый) (KosharaSerials)","Любительский (многоголосый закадровый)"],"seasons_count":1,"episodes_count":3,"episodes":3,"update":"2019-02-23 08:55:51","iframe_src":"//8209.svetacdn.in/si4jsFRrtgrT/tv-series/3340"},{"id":18348,"title":"Ловушка для одинокого мужчины","kp_id":"45121","imdb_id":"tt0100069","world_art_id":null,"type":"movie","add":"2018-08-16 13:25:12","orig_title":"Lovushka dlya odinokogo muzhchiny","year":"1990-12-01","translations":["Оригинальная дорожка","Оригинальная дорожка"],"quality":"hdtv","translation":"Оригинальная дорожка","update":"2021-02-08 15:10:31","iframe_src":"//8209.svetacdn.in/si4jsFRrtgrT/movie/18348"},{"id":2849,"title":"Помнить","kp_id":"957931","imdb_id":"tt5260064","world_art_id":null,"type":"serial","add":"2018-06-19 11:51:20","orig_title":"Rimembeo","year":"2015-12-09","translations":["Любительский (многоголосый закадровый) (STEPonee)","Любительский (двухголосый закадровый) (SoftBox)"],"seasons_count":1,"episodes_count":20,"episodes":20,"update":"2019-02-22 14:25:20","iframe_src":"//8209.svetacdn.in/si4jsFRrtgrT/tv-series/2849"},{"id":2055,"title":"Лапси","kp_id":"1047269","imdb_id":null,"world_art_id":null,"type":"serial","add":"2018-02-10 14:16:57","orig_title":"Лапси","year":"2018-02-09","translations":[],"seasons_count":2,"episodes_count":16,"episodes":8,"update":"2019-02-23 00:51:23","iframe_src":"//8209.svetacdn.in/si4jsFRrtgrT/tv-series/2055"},{"id":7526,"title":"Летят журавли","kp_id":"7724","imdb_id":"tt0050634","world_art_id":null,"type":"movie","add":"2016-11-20 08:11:52","orig_title":"Letyat zhuravli","year":"1957-11-27","translations":["Оригинальная дорожка","Оригинальная дорожка"],"quality":"webdl","translation":"Оригинальная дорожка","update":"2021-02-08 15:16:00","iframe_src":"//8209.svetacdn.in/si4jsFRrtgrT/movie/7526"}],"current_page":415,"first_page_url":"https://videocdn.tv/api/short?limit=100&api_token=X6EwAUfE5M9xbo7y0Bp0aPf3uXxG2KLL&cache3415=3415&page=1","from":41401,"last_page":659,"last_page_url":"https://videocdn.tv/api/short?limit=100&api_token=X6EwAUfE5M9xbo7y0Bp0aPf3uXxG2KLL&cache3415=3415&page=659","next_page_url":"https://videocdn.tv/api/short?limit=100&api_token=X6EwAUfE5M9xbo7y0Bp0aPf3uXxG2KLL&cache3415=3415&page=416","path":"https://videocdn.tv/api/short","per_page":100,"prev_page_url":"https://videocdn.tv/api/short?limit=100&api_token=X6EwAUfE5M9xbo7y0Bp0aPf3uXxG2KLL&cache3415=3415&page=414","to":41440,"total":65883}