{"result":true,"data":[{"id":39106,"title":"Крысы из гетто","kp_id":"1216559","imdb_id":"tt9000466","world_art_id":null,"type":"movie","add":"2020-04-10 09:25:50","orig_title":"Inner City Rats","year":"2019-04-05","translations":["Любительский (многоголосый закадровый) (Синема УС)"],"quality":"webdl","translation":"Любительский (многоголосый закадровый) (Синема УС)","update":"2020-04-10 15:00:42","iframe_src":"//8332.svetacdn.in/71tsRs29n5tZ/movie/39106"},{"id":39105,"title":"Добро пожаловать, грешники","kp_id":"788157","imdb_id":"tt3110634","world_art_id":null,"type":"movie","add":"2020-04-10 08:52:21","orig_title":"From Zero to I Love You","year":"2019-03-26","translations":["Любительский (многоголосый закадровый) (Синема УС)"],"quality":"webdl","translation":"Любительский (многоголосый закадровый) (Синема УС)","update":"2020-04-10 14:59:35","iframe_src":"//8332.svetacdn.in/71tsRs29n5tZ/movie/39105"},{"id":39104,"title":"Снимок","kp_id":"1078646","imdb_id":null,"world_art_id":null,"type":"movie","add":"2020-04-10 08:50:00","orig_title":"Captured","year":"2019-01-01","translations":["Любительский (многоголосый закадровый) (Синема УС)"],"quality":"webdl","translation":"Любительский (многоголосый закадровый) (Синема УС)","update":"2020-04-10 12:03:18","iframe_src":"//8332.svetacdn.in/71tsRs29n5tZ/movie/39104"},{"id":39102,"title":"Depeche Mode: Spirits in the Forest","kp_id":"1306644","imdb_id":"tt11023922","world_art_id":null,"type":"movie","add":"2020-04-10 06:27:41","orig_title":"Depeche Mode: Spirits in the Forest","year":"2019-11-17","translations":["Профессиональный (многоголосый закадровый)"],"quality":"webdl","translation":"Профессиональный (многоголосый закадровый)","update":"2020-04-10 14:15:14","iframe_src":"//8332.svetacdn.in/71tsRs29n5tZ/movie/39102"},{"id":39099,"title":"Амар","kp_id":"240706","imdb_id":"tt0046703","world_art_id":null,"type":"movie","add":"2020-04-09 20:21:29","orig_title":"Amar","year":"1954-01-01","translations":["Любительский (одноголосый закадровый)"],"quality":"dvdrip","translation":"Любительский (одноголосый закадровый)","update":"2020-04-10 10:15:08","iframe_src":"//8332.svetacdn.in/71tsRs29n5tZ/movie/39099"},{"id":39098,"title":"Битва телеканалов","kp_id":"494811","imdb_id":"tt1451797","world_art_id":null,"type":"movie","add":"2020-04-09 20:18:43","orig_title":"Rann","year":"2010-01-29","translations":["Любительский (одноголосый закадровый)  (zamez | Замез Вячеслав)"],"quality":"bd","translation":"Любительский (одноголосый закадровый)  (zamez | Замез Вячеслав)","update":"2020-04-10 10:14:33","iframe_src":"//8332.svetacdn.in/71tsRs29n5tZ/movie/39098"},{"id":39097,"title":"Красные цвета любви","kp_id":"279051","imdb_id":"tt0896968","world_art_id":null,"type":"movie","add":"2020-04-09 20:16:11","orig_title":"Red: The Dark Side","year":"2007-03-09","translations":["Профессиональный (двухголосый закадровый)"],"quality":"dvdrip","translation":"Профессиональный (двухголосый закадровый)","update":"2020-04-10 10:13:37","iframe_src":"//8332.svetacdn.in/71tsRs29n5tZ/movie/39097"},{"id":39072,"title":"Господин майор","kp_id":"78485","imdb_id":"tt0172761","world_art_id":null,"type":"movie","add":"2020-04-09 12:36:58","orig_title":"Major Saab","year":"1998-06-26","translations":["Профессиональный (многоголосый закадровый)"],"quality":"vhs","translation":"Профессиональный (многоголосый закадровый)","update":"2020-04-10 09:53:00","iframe_src":"//8332.svetacdn.in/71tsRs29n5tZ/movie/39072"},{"id":39068,"title":"Братские узы","kp_id":"224666","imdb_id":"tt0206067","world_art_id":null,"type":"movie","add":"2020-04-09 12:10:45","orig_title":"Kachche Dhaage","year":"1999-02-19","translations":["Профессиональный (двухголосый закадровый)"],"quality":"dvdrip","translation":"Профессиональный (двухголосый закадровый)","update":"2020-04-10 09:05:35","iframe_src":"//8332.svetacdn.in/71tsRs29n5tZ/movie/39068"},{"id":39067,"title":"Дрона","kp_id":"391978","imdb_id":"tt1060249","world_art_id":null,"type":"movie","add":"2020-04-09 12:08:23","orig_title":"Drona","year":"2008-10-02","translations":["Профессиональный (многоголосый закадровый)"],"quality":"dvdrip","translation":"Профессиональный (многоголосый закадровый)","update":"2020-04-10 09:04:52","iframe_src":"//8332.svetacdn.in/71tsRs29n5tZ/movie/39067"},{"id":39066,"title":"Джонни предатель","kp_id":"391070","imdb_id":"tt1077248","world_art_id":null,"type":"movie","add":"2020-04-09 11:33:09","orig_title":"Johnny Gaddaar","year":"2007-09-28","translations":["Профессиональный (двухголосый закадровый)"],"quality":"dvdrip","translation":"Профессиональный (двухголосый закадровый)","update":"2020-04-10 09:04:10","iframe_src":"//8332.svetacdn.in/71tsRs29n5tZ/movie/39066"},{"id":39065,"title":"Неблагодарный","kp_id":"40480","imdb_id":"tt0070434","world_art_id":null,"type":"movie","add":"2020-04-09 11:29:23","orig_title":"Namak Haraam","year":"1973-11-23","translations":["Любительский (одноголосый закадровый)"],"quality":"dvdrip","translation":"Любительский (одноголосый закадровый)","update":"2020-04-10 09:03:39","iframe_src":"//8332.svetacdn.in/71tsRs29n5tZ/movie/39065"},{"id":39034,"title":"Душа","kp_id":"79224","imdb_id":"tt0369272","world_art_id":null,"type":"movie","add":"2020-04-08 20:37:10","orig_title":"Bewafa","year":"1952-01-01","translations":["Профессиональный (многоголосый закадровый) (Red Media)"],"quality":"dvdrip","translation":"Профессиональный (многоголосый закадровый) (Red Media)","update":"2020-04-10 09:01:49","iframe_src":"//8332.svetacdn.in/71tsRs29n5tZ/movie/39034"},{"id":39033,"title":"Светлый рыцарь","kp_id":null,"imdb_id":"tt11617442","world_art_id":null,"type":"movie","add":"2020-04-08 20:33:21","orig_title":"Day knight","year":"2020-02-14","translations":["Любительский (многоголосый закадровый) (Синема УС)"],"quality":"webdl","translation":"Любительский (многоголосый закадровый) (Синема УС)","update":"2020-04-10 09:01:02","iframe_src":"//8332.svetacdn.in/71tsRs29n5tZ/movie/39033"},{"id":39018,"title":"Витце","kp_id":"844275","imdb_id":"tt3558196","world_art_id":null,"type":"movie","add":"2020-04-08 20:04:46","orig_title":"W. - Witse de film","year":"2014-03-05","translations":["Любительский (одноголосый закадровый) (datynet | Агапов Антон)"],"quality":"dvdrip","translation":"Любительский (одноголосый закадровый) (datynet | Агапов Антон)","update":"2020-04-10 15:00:51","iframe_src":"//8332.svetacdn.in/71tsRs29n5tZ/movie/39018"},{"id":39017,"title":"Зимняя дочь","kp_id":"527698","imdb_id":"tt1266038","world_art_id":null,"type":"movie","add":"2020-04-08 20:03:01","orig_title":"Wintertochter","year":"2011-01-18","translations":["Любительский (одноголосый закадровый)"],"quality":"dvdrip","translation":"Любительский (одноголосый закадровый)","update":"2020-04-10 15:00:26","iframe_src":"//8332.svetacdn.in/71tsRs29n5tZ/movie/39017"},{"id":38870,"title":"Зануда","kp_id":"94494","imdb_id":"tt0072934","world_art_id":null,"type":"movie","add":"2020-04-03 20:54:43","orig_title":"L'emmerdeur","year":"1973-09-20","translations":["Полное дублирование"],"quality":"bd","translation":"Полное дублирование","update":"2020-04-10 14:58:29","iframe_src":"//8332.svetacdn.in/71tsRs29n5tZ/movie/38870"},{"id":22097,"title":"Возвращение высокого блондина","kp_id":"70935","imdb_id":"tt0072080","world_art_id":null,"type":"movie","add":"2019-02-06 08:13:45","orig_title":"Le retour du grand blond","year":"1974-12-18","translations":["Профессиональный (многоголосый закадровый)","Полное дублирование"],"quality":"bd","translation":"Профессиональный (многоголосый закадровый)","update":"2020-04-10 14:57:37","iframe_src":"//8332.svetacdn.in/71tsRs29n5tZ/movie/22097"},{"id":12850,"title":"Я один и ты одна","kp_id":"557939","imdb_id":"tt1703958","world_art_id":null,"type":"movie","add":"2017-08-08 10:20:58","orig_title":"Ek Main Aur Ekk Tu","year":"2012-02-09","translations":["Любительский (многоголосый закадровый) (ICG)","Профессиональный (многоголосый закадровый) (SDI Media)"],"quality":"bd","translation":"Любительский (многоголосый закадровый) (ICG)","update":"2020-04-10 09:52:24","iframe_src":"//8332.svetacdn.in/71tsRs29n5tZ/movie/12850"},{"id":10459,"title":"Право на любовь","kp_id":"794398","imdb_id":"tt3142232","world_art_id":null,"type":"movie","add":"2017-03-22 11:54:23","orig_title":"Heropanti","year":"2014-05-22","translations":["Любительский (двухголосый закадровый)","Любительский (многоголосый закадровый) (ICG)","Профессиональный (двухголосый закадровый)"],"quality":"bd","translation":"Любительский (двухголосый закадровый)","update":"2020-04-10 09:54:30","iframe_src":"//8332.svetacdn.in/71tsRs29n5tZ/movie/10459"}],"current_page":788,"first_page_url":"https://videocdn.tv/api/short?limit=100&api_token=EnbO9h8pv1VyjbCJhg0WM9nG259n7mtz&cache3788=3788&page=1","from":78701,"last_page":637,"last_page_url":"https://videocdn.tv/api/short?limit=100&api_token=EnbO9h8pv1VyjbCJhg0WM9nG259n7mtz&cache3788=3788&page=637","next_page_url":null,"path":"https://videocdn.tv/api/short","per_page":100,"prev_page_url":"https://videocdn.tv/api/short?limit=100&api_token=EnbO9h8pv1VyjbCJhg0WM9nG259n7mtz&cache3788=3788&page=787","to":78720,"total":63623}