{"result":true,"data":[{"id":47429,"title":"Улыбнись, ровесник!","kp_id":"167524","imdb_id":"tt0075246","world_art_id":null,"type":"movie","add":"2021-01-26 18:21:19","orig_title":"Soviel Lieder, soviel Worte","year":"1976-07-29","translations":["Оригинальная дорожка"],"quality":"sat","translation":"Оригинальная дорожка","update":"2021-01-27 07:07:30","iframe_src":"//5322.svetacdn.in/IAF0wWTdNYZm/movie/47429"},{"id":47426,"title":"Юнга Северного флота","kp_id":"42465","imdb_id":"tt0072433","world_art_id":null,"type":"movie","add":"2021-01-26 18:17:19","orig_title":"Yunga Severnogo flota","year":"1974-08-19","translations":["Оригинальная дорожка"],"quality":"dvdrip","translation":"Оригинальная дорожка","update":"2021-01-27 07:06:34","iframe_src":"//5322.svetacdn.in/IAF0wWTdNYZm/movie/47426"},{"id":47424,"title":"В черных песках","kp_id":"45585","imdb_id":"tt0329719","world_art_id":null,"type":"movie","add":"2021-01-26 18:14:47","orig_title":"V chyornykh peskakh","year":"1972-08-06","translations":["Оригинальная дорожка"],"quality":"sat","translation":"Оригинальная дорожка","update":"2021-01-27 07:05:35","iframe_src":"//5322.svetacdn.in/IAF0wWTdNYZm/movie/47424"},{"id":47422,"title":"Дети из отеля «Америка»","kp_id":"244651","imdb_id":"tt0337383","world_art_id":null,"type":"movie","add":"2021-01-26 18:11:13","orig_title":"Vaikai is Amerikos viesbucio","year":"1990-12-02","translations":["Профессиональный (одноголосый закадровый)"],"quality":"webdl","translation":"Профессиональный (одноголосый закадровый)","update":"2021-01-27 07:04:39","iframe_src":"//5322.svetacdn.in/IAF0wWTdNYZm/movie/47422"},{"id":47420,"title":"Веселые Расплюевские дни","kp_id":"45756","imdb_id":"tt0129527","world_art_id":null,"type":"movie","add":"2021-01-26 18:08:28","orig_title":"Vesyolye rasplyuyevskiye dni","year":"1966-01-01","translations":["Оригинальная дорожка"],"quality":"dvdrip","translation":"Оригинальная дорожка","update":"2021-01-27 07:03:23","iframe_src":"//5322.svetacdn.in/IAF0wWTdNYZm/movie/47420"},{"id":47419,"title":"Встретимся в метро","kp_id":"45941","imdb_id":"tt0203192","world_art_id":null,"type":"movie","add":"2021-01-26 18:06:14","orig_title":"Vstretimsya v metro","year":"1986-02-05","translations":["Оригинальная дорожка"],"quality":"tv","translation":"Оригинальная дорожка","update":"2021-01-27 07:02:00","iframe_src":"//5322.svetacdn.in/IAF0wWTdNYZm/movie/47419"},{"id":47418,"title":"Злой дух Ямбуя","kp_id":"45362","imdb_id":"tt0316624","world_art_id":null,"type":"movie","add":"2021-01-26 17:59:51","orig_title":"Zloy dukh Yambuya","year":"1979-04-16","translations":["Оригинальная дорожка"],"quality":"dvdrip","translation":"Оригинальная дорожка","update":"2021-01-27 06:59:16","iframe_src":"//5322.svetacdn.in/IAF0wWTdNYZm/movie/47418"},{"id":47417,"title":"Всем чертям назло","kp_id":"676837","imdb_id":"tt6409912","world_art_id":null,"type":"movie","add":"2021-01-26 17:57:05","orig_title":"Vsem chertyam nazlo","year":"1981-01-01","translations":["Оригинальная дорожка"],"quality":"dvdrip","translation":"Оригинальная дорожка","update":"2021-01-27 06:58:23","iframe_src":"//5322.svetacdn.in/IAF0wWTdNYZm/movie/47417"},{"id":47416,"title":"Улица тринадцати тополей","kp_id":"478760","imdb_id":"tt5088860","world_art_id":null,"type":"movie","add":"2021-01-26 17:52:57","orig_title":"Ulitsa trinadtsati topoley","year":"1970-03-09","translations":["Оригинальная дорожка"],"quality":"vhs","translation":"Оригинальная дорожка","update":"2021-01-27 06:57:25","iframe_src":"//5322.svetacdn.in/IAF0wWTdNYZm/movie/47416"},{"id":47394,"title":"Соколово","kp_id":"265217","imdb_id":"tt0176160","world_art_id":null,"type":"movie","add":"2021-01-25 17:51:42","orig_title":"Sokolovo","year":"1975-09-30","translations":["Полное дублирование"],"quality":"dvdrip","translation":"Полное дублирование","update":"2021-01-27 06:55:18","iframe_src":"//5322.svetacdn.in/IAF0wWTdNYZm/movie/47394"},{"id":47393,"title":"Сергеев ищет Сергеева","kp_id":"571327","imdb_id":"tt4837880","world_art_id":null,"type":"movie","add":"2021-01-25 17:49:23","orig_title":"Sergeyev ishchet Sergeyeva","year":"1974-01-01","translations":["Оригинальная дорожка"],"quality":"iptv","translation":"Оригинальная дорожка","update":"2021-01-27 06:54:22","iframe_src":"//5322.svetacdn.in/IAF0wWTdNYZm/movie/47393"},{"id":47392,"title":"Шутите?","kp_id":"43778","imdb_id":"tt0329601","world_art_id":null,"type":"movie","add":"2021-01-25 17:46:53","orig_title":"Shutite?","year":"1971-05-21","translations":["Оригинальная дорожка"],"quality":"tv","translation":"Оригинальная дорожка","update":"2021-01-27 06:53:12","iframe_src":"//5322.svetacdn.in/IAF0wWTdNYZm/movie/47392"},{"id":47391,"title":"Шут","kp_id":"43777","imdb_id":"tt0096104","world_art_id":null,"type":"movie","add":"2021-01-25 17:42:22","orig_title":"Shut","year":"1988-01-01","translations":["Оригинальная дорожка"],"quality":"dvdrip","translation":"Оригинальная дорожка","update":"2021-01-27 06:52:16","iframe_src":"//5322.svetacdn.in/IAF0wWTdNYZm/movie/47391"},{"id":47390,"title":"Штормовое предупреждение","kp_id":"43768","imdb_id":"tt0083071","world_art_id":null,"type":"movie","add":"2021-01-25 17:26:38","orig_title":"Shtormovoye preduprezhdeniye","year":"1981-07-15","translations":["Оригинальная дорожка"],"quality":"sat","translation":"Оригинальная дорожка","update":"2021-01-27 06:51:10","iframe_src":"//5322.svetacdn.in/IAF0wWTdNYZm/movie/47390"},{"id":47389,"title":"Помнить или забыть","kp_id":"43119","imdb_id":"tt0237586","world_art_id":null,"type":"movie","add":"2021-01-25 17:23:49","orig_title":"Atcereties vai aizmirst","year":"1982-07-26","translations":["Оригинальная дорожка"],"quality":"sat","translation":"Оригинальная дорожка","update":"2021-01-27 06:49:13","iframe_src":"//5322.svetacdn.in/IAF0wWTdNYZm/movie/47389"},{"id":45695,"title":"Замкнутый круг","kp_id":"44032","imdb_id":"tt0289504","world_art_id":null,"type":"movie","add":"2020-11-29 16:44:51","orig_title":"Suletud ring","year":"1983-01-01","translations":["Полное дублирование"],"quality":"sat","translation":"Полное дублирование","update":"2021-01-27 07:00:38","iframe_src":"//5322.svetacdn.in/IAF0wWTdNYZm/movie/45695"},{"id":6984,"title":"BBC: Европа: История континента","kp_id":"258121","imdb_id":"tt0449012","world_art_id":null,"type":"serial","add":"2020-03-25 07:34:13","orig_title":"Wild Europe","year":"2005-02-15","translations":["Профессиональный (одноголосый закадровый)"],"seasons_count":1,"episodes_count":4,"episodes":4,"update":"2020-03-25 10:22:45","iframe_src":"//5322.svetacdn.in/IAF0wWTdNYZm/tv-series/6984"},{"id":6983,"title":"Когда папа Дед Мороз","kp_id":"1045637","imdb_id":"tt9222072","world_art_id":null,"type":"serial","add":"2020-03-25 07:10:56","orig_title":"Когда папа Дед Мороз","year":"2017-01-01","translations":["Оригинальная дорожка"],"seasons_count":1,"episodes_count":4,"episodes":4,"update":"2020-03-25 10:55:14","iframe_src":"//5322.svetacdn.in/IAF0wWTdNYZm/tv-series/6983"},{"id":6981,"title":"Вампиры","kp_id":"79478","imdb_id":"tt0006206","world_art_id":null,"type":"serial","add":"2020-03-24 22:10:49","orig_title":"Les vampires","year":"1915-11-13","translations":["Original (English)"],"seasons_count":1,"episodes_count":2,"episodes":2,"update":"2020-03-25 15:17:28","iframe_src":"//5322.svetacdn.in/IAF0wWTdNYZm/tv-series/6981"},{"id":6980,"title":"Хантик: Искатели секретов","kp_id":"579536","imdb_id":"tt1696969","world_art_id":null,"type":"serial","add":"2020-03-24 22:03:57","orig_title":"Huntik: Secrets and Seekers","year":"2009-01-01","translations":["Любительский (многоголосый закадровый) (Flux-Team)"],"seasons_count":1,"episodes_count":26,"episodes":26,"update":"2020-03-25 15:12:25","iframe_src":"//5322.svetacdn.in/IAF0wWTdNYZm/tv-series/6980"},{"id":6978,"title":"Бумбараш","kp_id":"79674","imdb_id":"tt0131331","world_art_id":null,"type":"serial","add":"2020-03-24 16:17:03","orig_title":"Bumbarash","year":"1972-05-01","translations":["Оригинальная дорожка"],"seasons_count":1,"episodes_count":2,"episodes":2,"update":"2020-03-25 09:59:26","iframe_src":"//5322.svetacdn.in/IAF0wWTdNYZm/tv-series/6978"},{"id":6968,"title":"Защитник","kp_id":"178702","imdb_id":"tt0285370","world_art_id":null,"type":"serial","add":"2020-03-23 10:56:05","orig_title":"The Guardian","year":"2001-09-25","translations":["Профессиональный (многоголосый закадровый) (СТС)"],"seasons_count":3,"episodes_count":66,"episodes":21,"update":"2020-03-25 18:20:21","iframe_src":"//5322.svetacdn.in/IAF0wWTdNYZm/tv-series/6968"},{"id":6960,"title":"Западное крыло","kp_id":"94224","imdb_id":"tt0200276","world_art_id":null,"type":"serial","add":"2020-03-22 12:43:41","orig_title":"The West Wing","year":"2005-09-25","translations":["Любительский (одноголосый закадровый) (Hamster)","Профессиональный (многоголосый закадровый) (FocusStudio)","Профессиональный (двухголосый закадровый) (НТВ)"],"seasons_count":7,"episodes_count":154,"episodes":22,"update":"2020-03-25 15:52:56","iframe_src":"//5322.svetacdn.in/IAF0wWTdNYZm/tv-series/6960"},{"id":6959,"title":"Приключения Вуди и его друзей","kp_id":"309596","imdb_id":"tt0184175","world_art_id":null,"type":"serial","add":"2020-03-21 17:45:24","orig_title":"The Woody Woodpecker Show","year":"1957-10-01","translations":["Профессиональный (двухголосый закадровый)"],"seasons_count":2,"episodes_count":183,"episodes":53,"update":"2020-03-25 10:38:02","iframe_src":"//5322.svetacdn.in/IAF0wWTdNYZm/tv-series/6959"},{"id":6958,"title":"Экстремальные охотники за привидениями","kp_id":"229998","imdb_id":"tt0121932","world_art_id":null,"type":"serial","add":"2020-03-21 17:32:18","orig_title":"Extreme Ghostbusters","year":"1997-09-01","translations":["Полное дублирование (Первый канал | ОРТ)"],"seasons_count":1,"episodes_count":40,"episodes":40,"update":"2020-03-26 11:45:15","iframe_src":"//5322.svetacdn.in/IAF0wWTdNYZm/tv-series/6958"},{"id":6932,"title":"Между","kp_id":"891619","imdb_id":"tt4132692","world_art_id":null,"type":"serial","add":"2020-03-19 06:00:28","orig_title":"Between","year":"2015-05-21","translations":["Профессиональный (многоголосый закадровый) (NewStudio)"],"seasons_count":2,"episodes_count":12,"episodes":6,"update":"2020-03-25 18:55:20","iframe_src":"//5322.svetacdn.in/IAF0wWTdNYZm/tv-series/6932"},{"id":6705,"title":"Охотники","kp_id":"1170235","imdb_id":"tt7456722","world_art_id":null,"type":"serial","add":"2020-02-21 09:52:04","orig_title":"Hunters","year":"2020-02-21","translations":["Любительский (многоголосый закадровый) (Octopus)","Любительский (многоголосый закадровый) (ColdFilm)","Профессиональный (многоголосый закадровый) (HDrezka Studio)","Профессиональный (двухголосый закадровый) (Gears Media)","Профессиональный (многоголосый закадровый) (LostFilm)","Любительский (многоголосый закадровый) (WestFilm)","Профессиональный (многоголосый закадровый) (NewStudio)","Профессиональный (многоголосый закадровый) (Jaskier)","Любительский (двухголосый закадровый) (ColdFilm)"],"seasons_count":1,"episodes_count":10,"episodes":10,"update":"2020-03-25 04:52:02","iframe_src":"//5322.svetacdn.in/IAF0wWTdNYZm/tv-series/6705"},{"id":6633,"title":"НольНольНоль","kp_id":"1132285","imdb_id":"tt8332438","world_art_id":null,"type":"serial","add":"2020-02-14 01:37:04","orig_title":"ZeroZeroZero","year":"2019-09-05","translations":["Любительский (многоголосый закадровый) (Octopus)","Любительский (многоголосый закадровый) (ColdFilm)","Профессиональный (многоголосый закадровый) (Кравец)","Профессиональный (многоголосый закадровый) (HDrezka Studio)","Профессиональный (многоголосый закадровый) (LostFilm)","Любительский (многоголосый закадровый) (WestFilm)","Авторский (одноголосый закадровый) (Сербин Юрий)","Профессиональный (многоголосый закадровый) (TVShows)"],"seasons_count":1,"episodes_count":8,"episodes":8,"update":"2020-03-25 12:19:05","iframe_src":"//5322.svetacdn.in/IAF0wWTdNYZm/tv-series/6633"},{"id":6627,"title":"Цени каждый день","kp_id":"1251515","imdb_id":"tt10065678","world_art_id":null,"type":"serial","add":"2020-02-13 05:38:43","orig_title":"Cherish the Day","year":"2020-02-11","translations":["Любительский (многоголосый закадровый) (Octopus)"],"seasons_count":1,"episodes_count":8,"episodes":8,"update":"2020-03-25 15:24:27","iframe_src":"//5322.svetacdn.in/IAF0wWTdNYZm/tv-series/6627"},{"id":6132,"title":"Умерь свой энтузиазм","kp_id":"277559","imdb_id":"tt0264235","world_art_id":null,"type":"serial","add":"2019-12-24 18:40:41","orig_title":"Curb Your Enthusiasm","year":"2000-10-15","translations":["Любительский (одноголосый закадровый)","Любительский (одноголосый закадровый) (Hamster)","Профессиональный (многоголосый закадровый) (SDI Media)","Любительский (многоголосый закадровый) (Octopus)","Профессиональный (многоголосый закадровый) (TVShows)","Профессиональный (двухголосый закадровый) (Gears Media)","Профессиональный (многоголосый закадровый) (BaibaKo)"],"seasons_count":10,"episodes_count":98,"episodes":10,"update":"2020-03-25 08:24:32","iframe_src":"//5322.svetacdn.in/IAF0wWTdNYZm/tv-series/6132"},{"id":5860,"title":"Голубка","kp_id":"1316421","imdb_id":"tt11149738","world_art_id":null,"type":"serial","add":"2019-11-27 08:37:01","orig_title":"Guvercin","year":"2019-11-24","translations":["Любительский (одноголосый закадровый)"],"seasons_count":1,"episodes_count":13,"episodes":13,"update":"2020-03-25 04:40:07","iframe_src":"//5322.svetacdn.in/IAF0wWTdNYZm/tv-series/5860"},{"id":4958,"title":"Безрассудный","kp_id":"741264","imdb_id":"tt2734804","world_art_id":null,"type":"serial","add":"2019-07-27 20:29:04","orig_title":"Reckless","year":"2014-06-29","translations":["Профессиональный (двухголосый закадровый)","Профессиональный (многоголосый закадровый) (TVShows)"],"seasons_count":1,"episodes_count":13,"episodes":13,"update":"2020-03-25 08:59:51","iframe_src":"//5322.svetacdn.in/IAF0wWTdNYZm/tv-series/4958"},{"id":24379,"title":"Выйти замуж за капитана","kp_id":"45966","imdb_id":"tt0090282","world_art_id":null,"type":"movie","add":"2019-04-12 08:25:59","orig_title":"Vyyti zamuzh za kapitana","year":"1986-06-30","translations":["Оригинальная дорожка","Оригинальная дорожка"],"quality":"dvdrip","translation":"Оригинальная дорожка","update":"2021-01-27 06:56:29","iframe_src":"//5322.svetacdn.in/IAF0wWTdNYZm/movie/24379"},{"id":3504,"title":"Драконы: Гонка на грани","kp_id":"1046305","imdb_id":"tt4816058","world_art_id":null,"type":"serial","add":"2018-11-14 19:09:43","orig_title":"Dragons: Race to the Edge","year":"2015-06-26","translations":["Полное дублирование","Любительский (одноголосый закадровый)","Профессиональный (многоголосый закадровый) (HDrezka Studio)","Полное дублирование (СВ-Дубль)"],"seasons_count":6,"episodes_count":78,"episodes":13,"update":"2020-03-24 20:30:42","iframe_src":"//5322.svetacdn.in/IAF0wWTdNYZm/tv-series/3504"},{"id":3467,"title":"Юная Лига Справедливости","kp_id":"570073","imdb_id":"tt1641384","world_art_id":null,"type":"serial","add":"2018-11-08 16:55:35","orig_title":"Young Justice","year":"2010-11-26","translations":["Полное дублирование","Любительский (многоголосый закадровый) (ColdFilm)","Профессиональный (многоголосый закадровый) (HDrezka Studio)"],"seasons_count":3,"episodes_count":72,"episodes":26,"update":"2020-03-24 21:20:51","iframe_src":"//5322.svetacdn.in/IAF0wWTdNYZm/tv-series/3467"},{"id":888,"title":"Лемони Сникет: 33 несчастья","kp_id":"930544","imdb_id":"tt4834206","world_art_id":null,"type":"serial","add":"2017-01-17 05:48:51","orig_title":"A Series of Unfortunate Events","year":"2017-01-13","translations":["Профессиональный (многоголосый закадровый) (NewStudio)","Профессиональный (многоголосый закадровый) (LostFilm)","Профессиональный (многоголосый закадровый) (HDrezka Studio)","Любительский (двухголосый закадровый) (Sunshine Studio)"],"seasons_count":3,"episodes_count":25,"episodes":7,"update":"2020-03-25 19:24:20","iframe_src":"//5322.svetacdn.in/IAF0wWTdNYZm/tv-series/888"},{"id":7221,"title":"Сквозь горизонт","kp_id":"3728","imdb_id":"tt0119081","world_art_id":null,"type":"movie","add":"2016-11-09 04:57:25","orig_title":"Event Horizon","year":"1997-08-15","translations":["Профессиональный (многоголосый закадровый)","Авторский (одноголосый закадровый) (Чадов Михаил)","Авторский (одноголосый закадровый) (Гаврилов Андрей)","Авторский (одноголосый закадровый) (Горчаков Василий)","Авторский (одноголосый закадровый) (Визгунов Сергей)","Авторский (одноголосый закадровый) (Живов Юрий)","Original (English)","Профессиональный (двухголосый закадровый) (Гланц + Королёва)","Профессиональный (двухголосый закадровый) (Премьер Видео Фильм)","Профессиональный (двухголосый закадровый) (Tycoon)","Профессиональный (многоголосый закадровый) (Киномания)"],"quality":"bd","translation":"Профессиональный (многоголосый закадровый)","update":"2021-01-27 08:08:34","iframe_src":"//5322.svetacdn.in/IAF0wWTdNYZm/movie/7221"},{"id":368,"title":"Ганнибал","kp_id":"682468","imdb_id":"tt2243973","world_art_id":null,"type":"serial","add":"2016-08-25 13:49:10","orig_title":"Hannibal","year":"2013-04-04","translations":["Профессиональный (многоголосый закадровый) (AlexFilm)","Профессиональный (многоголосый закадровый) (Sony Sci-Fi)"],"seasons_count":3,"episodes_count":39,"episodes":13,"update":"2020-03-25 21:43:18","iframe_src":"//5322.svetacdn.in/IAF0wWTdNYZm/tv-series/368"},{"id":3815,"title":"Клиент","kp_id":"3000","imdb_id":"tt0109446","world_art_id":null,"type":"movie","add":"2016-07-08 15:27:06","orig_title":"The Client","year":"1994-07-20","translations":["Профессиональный (двухголосый закадровый)","Авторский (одноголосый закадровый) (Гаврилов Андрей)","Авторский (одноголосый закадровый) (Горчаков Василий)","Полное дублирование (Ленфильм)","Original (English)","Профессиональный (двухголосый закадровый) (НТВ)","Профессиональный (многоголосый закадровый)","Профессиональный (многоголосый закадровый) (ТВ6)","Профессиональный (многоголосый закадровый) (TV1000)","Профессиональный (многоголосый закадровый) (Lazer Video)"],"quality":"bd","translation":"Профессиональный (двухголосый закадровый)","update":"2021-01-27 07:45:31","iframe_src":"//5322.svetacdn.in/IAF0wWTdNYZm/movie/3815"},{"id":1771,"title":"Шальная карта","kp_id":"666928","imdb_id":"tt2231253","world_art_id":null,"type":"movie","add":"2016-05-01 07:43:27","orig_title":"Wild Card","year":"2015-01-14","translations":["Любительский (двухголосый закадровый)","Полное дублирование","Авторский (одноголосый закадровый) (Гаврилов Андрей)","Авторский (одноголосый закадровый) (Яроцкий Михаил | Kyberpunk)","Original (English)","Полное дублирование","Профессиональный (многоголосый закадровый) (Paradox & Omskbird records)"],"quality":"bd","translation":"Любительский (двухголосый закадровый)","update":"2021-01-27 07:56:22","iframe_src":"//5322.svetacdn.in/IAF0wWTdNYZm/movie/1771"}],"current_page":242,"first_page_url":"https://videocdn.tv/api/short?limit=100&api_token=6Onb1W1alEUrBcKJZD3GoKBbWyAl2uG2&cache3242=3242&page=1","from":24101,"last_page":623,"last_page_url":"https://videocdn.tv/api/short?limit=100&api_token=6Onb1W1alEUrBcKJZD3GoKBbWyAl2uG2&cache3242=3242&page=623","next_page_url":"https://videocdn.tv/api/short?limit=100&api_token=6Onb1W1alEUrBcKJZD3GoKBbWyAl2uG2&cache3242=3242&page=243","path":"https://videocdn.tv/api/short","per_page":100,"prev_page_url":"https://videocdn.tv/api/short?limit=100&api_token=6Onb1W1alEUrBcKJZD3GoKBbWyAl2uG2&cache3242=3242&page=241","to":24140,"total":62234}