{"result":true,"data":[{"id":24074,"title":"Планета Сингл 2","kp_id":"1133920","imdb_id":"tt8115282","world_art_id":null,"type":"movie","add":"2019-04-07 22:14:36","orig_title":"Planeta Singli 2","year":"2018-11-09","translations":["Любительский (многоголосый закадровый) (Синема УС)"],"quality":"bd","translation":"Любительский (многоголосый закадровый) (Синема УС)","update":"2019-04-08 05:50:21","iframe_src":"//8332.svetacdn.in/IAF0wWTdNYZm/movie/24074"},{"id":24060,"title":"Учитель-повелитель","kp_id":"1174106","imdb_id":"tt8668312","world_art_id":null,"type":"movie","add":"2019-04-07 21:45:28","orig_title":"Sensei Kunshu","year":"2018-08-01","translations":["Любительский (многоголосый закадровый) (Синема УС)"],"quality":"bd","translation":"Любительский (многоголосый закадровый) (Синема УС)","update":"2019-04-08 05:27:54","iframe_src":"//8332.svetacdn.in/IAF0wWTdNYZm/movie/24060"},{"id":24037,"title":"Берсерк","kp_id":"1030398","imdb_id":"tt6193470","world_art_id":null,"type":"movie","add":"2019-04-07 20:34:03","orig_title":"Berserk","year":"2019-04-05","translations":["Любительский (многоголосый закадровый) (Синема УС)"],"quality":"webdl","translation":"Любительский (многоголосый закадровый) (Синема УС)","update":"2019-04-08 05:26:02","iframe_src":"//8332.svetacdn.in/IAF0wWTdNYZm/movie/24037"},{"id":23968,"title":"Дом резни 2","kp_id":"914365","imdb_id":"tt4699434","world_art_id":null,"type":"movie","add":"2019-04-06 20:48:43","orig_title":"Slasher House 2","year":"2016-10-31","translations":["Любительский (многоголосый закадровый) (Колобок)"],"quality":"webdl","translation":"Любительский (многоголосый закадровый) (Колобок)","update":"2019-04-08 05:39:27","iframe_src":"//8332.svetacdn.in/IAF0wWTdNYZm/movie/23968"},{"id":23951,"title":"Жаркий поцелуй","kp_id":"815733","imdb_id":"tt3313324","world_art_id":null,"type":"movie","add":"2019-04-06 19:40:30","orig_title":"Burning Kiss","year":"2018-11-24","translations":["Любительский (многоголосый закадровый) (Синема УС)"],"quality":"webdl","translation":"Любительский (многоголосый закадровый) (Синема УС)","update":"2019-04-08 05:35:38","iframe_src":"//8332.svetacdn.in/IAF0wWTdNYZm/movie/23951"},{"id":23929,"title":"Песня","kp_id":"722543","imdb_id":"tt2517044","world_art_id":null,"type":"movie","add":"2019-04-05 10:02:29","orig_title":"The Song","year":"2014-09-26","translations":["Профессиональный (многоголосый закадровый)"],"quality":"webdl","translation":"Профессиональный (многоголосый закадровый)","update":"2019-04-06 07:50:18","iframe_src":"//8332.svetacdn.in/IAF0wWTdNYZm/movie/23929"},{"id":23927,"title":"Побег","kp_id":"463866","imdb_id":"tt1410051","world_art_id":null,"type":"movie","add":"2019-04-05 09:57:06","orig_title":"Retreat","year":"2011-07-18","translations":["Профессиональный (двухголосый закадровый)"],"quality":"bd","translation":"Профессиональный (двухголосый закадровый)","update":"2019-04-06 07:56:04","iframe_src":"//8332.svetacdn.in/IAF0wWTdNYZm/movie/23927"},{"id":23926,"title":"Потерпевшие претензий не имеют","kp_id":"43173","imdb_id":"tt0274732","world_art_id":null,"type":"movie","add":"2019-04-05 09:54:55","orig_title":"Postradavshie pretenziy ne imeyut","year":"1986-12-29","translations":["Оригинальная дорожка"],"quality":"dvdrip","translation":"Оригинальная дорожка","update":"2019-04-06 07:58:38","iframe_src":"//8332.svetacdn.in/IAF0wWTdNYZm/movie/23926"},{"id":23925,"title":"Бабник","kp_id":"45997","imdb_id":"tt0099083","world_art_id":null,"type":"movie","add":"2019-04-05 09:51:49","orig_title":"Babnik","year":"2001-09-28","translations":["Оригинальная дорожка"],"quality":"dvdrip","translation":"Оригинальная дорожка","update":"2019-04-06 08:00:42","iframe_src":"//8332.svetacdn.in/IAF0wWTdNYZm/movie/23925"},{"id":23924,"title":"Год Собаки","kp_id":"41186","imdb_id":"tt0107023","world_art_id":null,"type":"movie","add":"2019-04-05 09:48:47","orig_title":"God sobaki","year":"1994-10-01","translations":["Оригинальная дорожка"],"quality":"dvdrip","translation":"Оригинальная дорожка","update":"2019-04-06 08:02:32","iframe_src":"//8332.svetacdn.in/IAF0wWTdNYZm/movie/23924"},{"id":23923,"title":"Не будите спящую собаку","kp_id":"79598","imdb_id":"tt0166732","world_art_id":null,"type":"movie","add":"2019-04-05 09:15:51","orig_title":"Ne budite spyashchuyu sobaku","year":"1991-01-01","translations":["Оригинальная дорожка"],"quality":"dvdrip","translation":"Оригинальная дорожка","update":"2019-04-06 08:06:14","iframe_src":"//8332.svetacdn.in/IAF0wWTdNYZm/movie/23923"},{"id":23922,"title":"Радости и печали маленького лорда","kp_id":"40699","imdb_id":"tt0372484","world_art_id":null,"type":"movie","add":"2019-04-05 08:48:45","orig_title":"Radosti i pechali malenkogo lorda","year":"2003-01-01","translations":["Оригинальная дорожка"],"quality":"dvdrip","translation":"Оригинальная дорожка","update":"2019-04-06 08:07:40","iframe_src":"//8332.svetacdn.in/IAF0wWTdNYZm/movie/23922"},{"id":23921,"title":"Слушатель","kp_id":"208105","imdb_id":"tt0481386","world_art_id":null,"type":"movie","add":"2019-04-05 08:45:38","orig_title":"Slushatel","year":"2004-12-30","translations":["Оригинальная дорожка"],"quality":"dvdrip","translation":"Оригинальная дорожка","update":"2019-04-06 08:05:02","iframe_src":"//8332.svetacdn.in/IAF0wWTdNYZm/movie/23921"},{"id":23919,"title":"Про любоff","kp_id":"468184","imdb_id":"tt1718881","world_art_id":null,"type":"movie","add":"2019-04-05 08:35:26","orig_title":"Pro lyuboff","year":"2010-09-30","translations":["Оригинальная дорожка"],"quality":"dvdrip","translation":"Оригинальная дорожка","update":"2019-04-06 08:04:00","iframe_src":"//8332.svetacdn.in/IAF0wWTdNYZm/movie/23919"},{"id":23918,"title":"Монро","kp_id":"445047","imdb_id":"tt3220866","world_art_id":null,"type":"movie","add":"2019-04-05 08:32:51","orig_title":"Monro","year":"2010-01-01","translations":["Оригинальная дорожка"],"quality":"dvdrip","translation":"Оригинальная дорожка","update":"2019-04-06 08:01:24","iframe_src":"//8332.svetacdn.in/IAF0wWTdNYZm/movie/23918"},{"id":23886,"title":"Родина или смерть","kp_id":"397298","imdb_id":"tt4037634","world_art_id":null,"type":"movie","add":"2019-04-04 08:40:56","orig_title":"Rodina ili smert","year":"2007-01-01","translations":["Оригинальная дорожка"],"quality":"dvdrip","translation":"Оригинальная дорожка","update":"2019-04-06 08:00:08","iframe_src":"//8332.svetacdn.in/IAF0wWTdNYZm/movie/23886"},{"id":23880,"title":"Коммуналка","kp_id":"629253","imdb_id":null,"world_art_id":null,"type":"movie","add":"2019-04-04 08:16:18","orig_title":"Коммуналка","year":"2011-10-07","translations":["Оригинальная дорожка"],"quality":"dvdrip","translation":"Оригинальная дорожка","update":"2019-04-06 07:49:07","iframe_src":"//8332.svetacdn.in/IAF0wWTdNYZm/movie/23880"},{"id":23879,"title":"Конец «Сатурна»","kp_id":"44900","imdb_id":"tt0168029","world_art_id":null,"type":"movie","add":"2019-04-04 08:14:37","orig_title":"Konets Saturna","year":"1968-01-15","translations":["Оригинальная дорожка"],"quality":"dvdrip","translation":"Оригинальная дорожка","update":"2019-04-06 07:51:16","iframe_src":"//8332.svetacdn.in/IAF0wWTdNYZm/movie/23879"},{"id":23877,"title":"Настоятель","kp_id":"566830","imdb_id":"tt2141861","world_art_id":null,"type":"movie","add":"2019-04-04 08:10:16","orig_title":"Nastoyatel","year":"2011-01-30","translations":["Оригинальная дорожка"],"quality":"dvdrip","translation":"Оригинальная дорожка","update":"2019-04-06 07:55:26","iframe_src":"//8332.svetacdn.in/IAF0wWTdNYZm/movie/23877"},{"id":23022,"title":"Ван Гоги","kp_id":"1049526","imdb_id":"tt7529350","world_art_id":null,"type":"movie","add":"2019-03-13 19:45:41","orig_title":"Van Gogi","year":"2019-02-26","translations":["Оригинальная дорожка"],"quality":"webdl","translation":"Оригинальная дорожка","update":"2019-04-08 05:46:13","iframe_src":"//8332.svetacdn.in/IAF0wWTdNYZm/movie/23022"}],"current_page":1568,"first_page_url":"https://videocdn.tv/api/short?limit=100&api_token=6Onb1W1alEUrBcKJZD3GoKBbWyAl2uG2&cache31568=31568&page=1","from":156701,"last_page":636,"last_page_url":"https://videocdn.tv/api/short?limit=100&api_token=6Onb1W1alEUrBcKJZD3GoKBbWyAl2uG2&cache31568=31568&page=636","next_page_url":null,"path":"https://videocdn.tv/api/short","per_page":100,"prev_page_url":"https://videocdn.tv/api/short?limit=100&api_token=6Onb1W1alEUrBcKJZD3GoKBbWyAl2uG2&cache31568=31568&page=1567","to":156720,"total":63593}