{"result":true,"data":[{"id":50078,"title":"Августин: сын слёз её","kp_id":null,"imdb_id":"tt12971100","world_art_id":null,"type":"movie","add":"2021-05-03 10:28:41","orig_title":"Augustine: Son of Her Tears","year":"2019-04-02","translations":["Любительский (многоголосый закадровый) (Синема УС)"],"quality":"webdl","translation":"Любительский (многоголосый закадровый) (Синема УС)","update":"2021-05-03 20:55:16","iframe_src":"//83.svetacdn.in/PfJ50H0ZBPg3/movie/50078"},{"id":50077,"title":"Фееричные","kp_id":"866466","imdb_id":"tt3583336","world_art_id":null,"type":"movie","add":"2021-05-03 10:27:10","orig_title":"Os Espetaculares","year":"2020-09-04","translations":["Любительский (многоголосый закадровый) (AlphaProject)"],"quality":"webdl","translation":"Любительский (многоголосый закадровый) (AlphaProject)","update":"2021-05-03 20:55:36","iframe_src":"//83.svetacdn.in/PfJ50H0ZBPg3/movie/50077"},{"id":50075,"title":"За дверью","kp_id":"1216833","imdb_id":"tt9350934","world_art_id":null,"type":"movie","add":"2021-05-03 10:18:25","orig_title":"The Outside Story","year":"2020-08-01","translations":["Любительский (многоголосый закадровый) (Синема УС)"],"quality":"webdl","translation":"Любительский (многоголосый закадровый) (Синема УС)","update":"2021-05-03 20:55:52","iframe_src":"//83.svetacdn.in/PfJ50H0ZBPg3/movie/50075"},{"id":50069,"title":"Голубая граница","kp_id":null,"imdb_id":"tt6004360","world_art_id":null,"type":"movie","add":"2021-05-03 09:44:30","orig_title":"Blue Frontier","year":"2018-08-05","translations":["Любительский (многоголосый закадровый) (Синема УС)"],"quality":"webdl","translation":"Любительский (многоголосый закадровый) (Синема УС)","update":"2021-05-03 20:56:19","iframe_src":"//83.svetacdn.in/PfJ50H0ZBPg3/movie/50069"},{"id":49097,"title":"Крупный калибр","kp_id":"32574","imdb_id":"tt0208074","world_art_id":null,"type":"movie","add":"2021-03-25 11:39:13","orig_title":"Crash and Byrnes","year":"2001-06-19","translations":["Профессиональный (двухголосый закадровый) (Екатеринбург Арт)","[EN] Original (English)"],"quality":"webdl","translation":"Профессиональный (двухголосый закадровый) (Екатеринбург Арт)","update":"2021-05-04 06:29:19","iframe_src":"//83.svetacdn.in/PfJ50H0ZBPg3/movie/49097"},{"id":49096,"title":"Дьявол, которого ты знаешь","kp_id":"180812","imdb_id":"tt0463960","world_art_id":null,"type":"movie","add":"2021-03-25 11:31:46","orig_title":"The Devil You Know","year":"2013-07-09","translations":["Любительский (одноголосый закадровый)","[EN] Original (English)"],"quality":"bd","translation":"Любительский (одноголосый закадровый)","update":"2021-05-04 06:33:31","iframe_src":"//83.svetacdn.in/PfJ50H0ZBPg3/movie/49096"},{"id":49088,"title":"Сельский дом","kp_id":"309359","imdb_id":"tt0996934","world_art_id":null,"type":"movie","add":"2021-03-25 05:15:59","orig_title":"Farm House","year":"2008-10-25","translations":["Любительский (двухголосый закадровый) (Электричка)","[EN] Original (English)"],"quality":"bd","translation":"Любительский (двухголосый закадровый) (Электричка)","update":"2021-05-04 06:37:41","iframe_src":"//83.svetacdn.in/PfJ50H0ZBPg3/movie/49088"},{"id":49087,"title":"Призраки в женской общаге","kp_id":"395932","imdb_id":"tt1110048","world_art_id":null,"type":"movie","add":"2021-03-25 05:06:05","orig_title":"The Haunting of Sorority Row","year":"2007-10-06","translations":["Любительский (одноголосый закадровый) (den904)","[EN] Original (English)"],"quality":"webdl","translation":"Любительский (одноголосый закадровый) (den904)","update":"2021-05-04 06:25:12","iframe_src":"//83.svetacdn.in/PfJ50H0ZBPg3/movie/49087"},{"id":49027,"title":"Без предела","kp_id":"6221","imdb_id":"tt0119934","world_art_id":null,"type":"movie","add":"2021-03-23 14:42:49","orig_title":"Without Limits","year":"1998-09-11","translations":["Профессиональный (двухголосый закадровый)","[EN] Original (English)"],"quality":"webdl","translation":"Профессиональный (двухголосый закадровый)","update":"2021-05-04 06:22:58","iframe_src":"//83.svetacdn.in/PfJ50H0ZBPg3/movie/49027"},{"id":49002,"title":"Дилетанты","kp_id":"3987","imdb_id":"tt0109093","world_art_id":null,"type":"movie","add":"2021-03-22 12:36:36","orig_title":"Amateur","year":"1994-05-15","translations":["Профессиональный (двухголосый закадровый)","[EN] Original (English)"],"quality":"bd","translation":"Профессиональный (двухголосый закадровый)","update":"2021-05-04 06:38:46","iframe_src":"//83.svetacdn.in/PfJ50H0ZBPg3/movie/49002"},{"id":48970,"title":"Дом, где говорят Да","kp_id":"13149","imdb_id":"tt0119324","world_art_id":null,"type":"movie","add":"2021-03-21 08:18:45","orig_title":"The House of Yes","year":"1997-09-12","translations":["Профессиональный (двухголосый закадровый) (Elrom)","[EN] Original (English)"],"quality":"webdl","translation":"Профессиональный (двухголосый закадровый) (Elrom)","update":"2021-05-04 06:23:58","iframe_src":"//83.svetacdn.in/PfJ50H0ZBPg3/movie/48970"},{"id":48938,"title":"Голоса извне","kp_id":"98176","imdb_id":"tt0100881","world_art_id":null,"type":"movie","add":"2021-03-20 14:10:23","orig_title":"Voci dal profondo","year":"1994-03-01","translations":["Авторский (одноголосый закадровый) (Визгунов Сергей)","[EN] Original (English)"],"quality":"bd","translation":"Авторский (одноголосый закадровый) (Визгунов Сергей)","update":"2021-05-04 06:31:12","iframe_src":"//83.svetacdn.in/PfJ50H0ZBPg3/movie/48938"},{"id":48903,"title":"В лесной чаще","kp_id":"326803","imdb_id":"tt0104497","world_art_id":null,"type":"movie","add":"2021-03-19 05:58:06","orig_title":"In the Deep Woods","year":"1992-10-26","translations":["Авторский (одноголосый закадровый) (Володарский Леонид)","[EN] Original (English)"],"quality":"webdl","translation":"Авторский (одноголосый закадровый) (Володарский Леонид)","update":"2021-05-04 06:26:14","iframe_src":"//83.svetacdn.in/PfJ50H0ZBPg3/movie/48903"},{"id":48649,"title":"Человек с Планеты Икс","kp_id":"91920","imdb_id":"tt0043778","world_art_id":null,"type":"movie","add":"2021-03-11 06:59:53","orig_title":"The Man from Planet X","year":"1951-03-09","translations":["Любительский (одноголосый закадровый) (den904)","[EN] Original (English)"],"quality":"bd","translation":"Любительский (одноголосый закадровый) (den904)","update":"2021-05-04 06:32:01","iframe_src":"//83.svetacdn.in/PfJ50H0ZBPg3/movie/48649"},{"id":48647,"title":"Мозг, который не мог умереть","kp_id":"165270","imdb_id":"tt0052646","world_art_id":null,"type":"movie","add":"2021-03-11 06:55:59","orig_title":"The Brain That Wouldn't Die","year":"1962-02-25","translations":["Авторский (одноголосый закадровый) (Воротилин Олег)","[EN] Original (English)"],"quality":"bd","translation":"Авторский (одноголосый закадровый) (Воротилин Олег)","update":"2021-05-04 06:35:13","iframe_src":"//83.svetacdn.in/PfJ50H0ZBPg3/movie/48647"},{"id":46458,"title":"Клуб неудачниц","kp_id":"19093","imdb_id":"tt0245407","world_art_id":null,"type":"movie","add":"2020-12-28 12:10:35","orig_title":"Crush","year":"2001-08-19","translations":["Профессиональный (двухголосый закадровый)","Профессиональный (двухголосый закадровый)","[EN] Original (English)"],"quality":"dvdrip","translation":"Профессиональный (двухголосый закадровый)","update":"2021-05-04 06:28:13","iframe_src":"//83.svetacdn.in/PfJ50H0ZBPg3/movie/46458"},{"id":1302,"title":"Жених для дурочки","kp_id":"1044278","imdb_id":null,"world_art_id":null,"type":"serial","add":"2017-06-13 08:25:13","orig_title":"Жених для дурочки","year":"2017-04-30","translations":["Оригинальная дорожка"],"seasons_count":1,"episodes_count":2,"episodes":2,"update":"2017-06-14 07:10:23","iframe_src":"//83.svetacdn.in/PfJ50H0ZBPg3/tv-series/1302"},{"id":1301,"title":"Суфлер","kp_id":"1008621","imdb_id":null,"world_art_id":null,"type":"serial","add":"2017-06-13 08:23:49","orig_title":"Суфлер","year":"2017-04-29","translations":["Оригинальная дорожка"],"seasons_count":1,"episodes_count":4,"episodes":4,"update":"2017-06-14 07:12:52","iframe_src":"//83.svetacdn.in/PfJ50H0ZBPg3/tv-series/1301"},{"id":1300,"title":"Цвет спелой вишни","kp_id":"1044702","imdb_id":null,"world_art_id":null,"type":"serial","add":"2017-06-13 06:51:06","orig_title":"Цвет спелой вишни","year":"2017-05-13","translations":["Оригинальная дорожка"],"seasons_count":1,"episodes_count":2,"episodes":2,"update":"2017-06-14 08:09:14","iframe_src":"//83.svetacdn.in/PfJ50H0ZBPg3/tv-series/1300"},{"id":1299,"title":"Трое в лифте, не считая собаки","kp_id":"1008301","imdb_id":null,"world_art_id":null,"type":"serial","add":"2017-06-13 06:49:19","orig_title":"Трое в лифте, не считая собаки","year":"2017-05-12","translations":["Оригинальная дорожка"],"seasons_count":1,"episodes_count":2,"episodes":2,"update":"2017-06-13 10:29:12","iframe_src":"//83.svetacdn.in/PfJ50H0ZBPg3/tv-series/1299"},{"id":1298,"title":"Смягчающие обстоятельства","kp_id":"1044704","imdb_id":null,"world_art_id":null,"type":"serial","add":"2017-06-13 06:47:16","orig_title":"Смягчающие обстоятельства","year":"2017-05-14","translations":["Оригинальная дорожка"],"seasons_count":1,"episodes_count":2,"episodes":2,"update":"2017-06-14 08:11:34","iframe_src":"//83.svetacdn.in/PfJ50H0ZBPg3/tv-series/1298"},{"id":1297,"title":"Храни тебя любовь моя","kp_id":"1044991","imdb_id":null,"world_art_id":null,"type":"serial","add":"2017-06-13 06:45:26","orig_title":"Храни тебя любовь моя","year":"2017-05-20","translations":["Оригинальная дорожка"],"seasons_count":1,"episodes_count":2,"episodes":2,"update":"2017-06-13 10:42:00","iframe_src":"//83.svetacdn.in/PfJ50H0ZBPg3/tv-series/1297"},{"id":1296,"title":"Калейдоскоп судьбы","kp_id":"1039243","imdb_id":null,"world_art_id":null,"type":"serial","add":"2017-06-13 06:43:17","orig_title":"Калейдоскоп судьбы","year":"2017-04-29","translations":["Оригинальная дорожка"],"seasons_count":1,"episodes_count":2,"episodes":2,"update":"2017-06-13 10:37:36","iframe_src":"//83.svetacdn.in/PfJ50H0ZBPg3/tv-series/1296"},{"id":1295,"title":"Чистосердечное признание","kp_id":"1043266","imdb_id":null,"world_art_id":null,"type":"serial","add":"2017-06-13 06:41:03","orig_title":"Чистосердечное признание","year":"2017-05-06","translations":["Оригинальная дорожка"],"seasons_count":1,"episodes_count":2,"episodes":2,"update":"2017-06-13 10:33:52","iframe_src":"//83.svetacdn.in/PfJ50H0ZBPg3/tv-series/1295"},{"id":1293,"title":"Личность не установлена","kp_id":"984286","imdb_id":null,"world_art_id":null,"type":"serial","add":"2017-06-12 11:39:41","orig_title":"Личность не установлена","year":"2017-05-15","translations":["Оригинальная дорожка"],"seasons_count":1,"episodes_count":10,"episodes":10,"update":"2017-06-13 10:25:55","iframe_src":"//83.svetacdn.in/PfJ50H0ZBPg3/tv-series/1293"},{"id":1291,"title":"Пропавший без вести","kp_id":"799414","imdb_id":null,"world_art_id":null,"type":"serial","add":"2017-06-09 15:27:51","orig_title":"Пропавший без вести","year":"2013-01-01","translations":["Оригинальная дорожка"],"seasons_count":1,"episodes_count":4,"episodes":4,"update":"2017-06-12 17:58:03","iframe_src":"//83.svetacdn.in/PfJ50H0ZBPg3/tv-series/1291"},{"id":1290,"title":"Сжигая мосты","kp_id":"1044994","imdb_id":null,"world_art_id":null,"type":"serial","add":"2017-06-09 15:14:46","orig_title":"Сжигая мосты","year":"2017-05-21","translations":["Оригинальная дорожка"],"seasons_count":1,"episodes_count":2,"episodes":2,"update":"2017-06-10 06:04:57","iframe_src":"//83.svetacdn.in/PfJ50H0ZBPg3/tv-series/1290"},{"id":1289,"title":"Пропавший без вести. Второе дыхание","kp_id":"1045095","imdb_id":null,"world_art_id":null,"type":"serial","add":"2017-06-09 15:07:04","orig_title":"Пропавший без вести. Второе дыхание","year":"2017-05-22","translations":["Оригинальная дорожка"],"seasons_count":1,"episodes_count":12,"episodes":12,"update":"2017-06-12 17:53:02","iframe_src":"//83.svetacdn.in/PfJ50H0ZBPg3/tv-series/1289"},{"id":1288,"title":"Королева «Марго»","kp_id":"1045092","imdb_id":null,"world_art_id":null,"type":"serial","add":"2017-06-09 13:25:12","orig_title":"Королева «Марго»","year":"2017-05-27","translations":["Оригинальная дорожка"],"seasons_count":1,"episodes_count":2,"episodes":2,"update":"2017-06-09 17:15:39","iframe_src":"//83.svetacdn.in/PfJ50H0ZBPg3/tv-series/1288"},{"id":1287,"title":"Погоня за шедевром","kp_id":"1045311","imdb_id":null,"world_art_id":null,"type":"serial","add":"2017-06-09 12:50:04","orig_title":"Погоня за шедевром","year":"2017-05-28","translations":["Оригинальная дорожка"],"seasons_count":1,"episodes_count":2,"episodes":2,"update":"2017-06-09 17:13:37","iframe_src":"//83.svetacdn.in/PfJ50H0ZBPg3/tv-series/1287"},{"id":1286,"title":"В стиле Джейн","kp_id":"574719","imdb_id":"tt1743904","world_art_id":null,"type":"serial","add":"2017-06-07 11:49:40","orig_title":"Jane by Design","year":"2012-01-03","translations":["Профессиональный (многоголосый закадровый) (Fox Life)"],"seasons_count":1,"episodes_count":18,"episodes":18,"update":"2017-06-08 10:09:27","iframe_src":"//83.svetacdn.in/PfJ50H0ZBPg3/tv-series/1286"},{"id":1285,"title":"А у нас во дворе","kp_id":"923154","imdb_id":null,"world_art_id":null,"type":"serial","add":"2017-06-07 11:45:38","orig_title":"А у нас во дворе","year":"2017-05-29","translations":["Оригинальная дорожка"],"seasons_count":1,"episodes_count":12,"episodes":12,"update":"2017-06-09 07:48:35","iframe_src":"//83.svetacdn.in/PfJ50H0ZBPg3/tv-series/1285"},{"id":1266,"title":"Неизвестный","kp_id":"1008252","imdb_id":"tt9460406","world_art_id":null,"type":"serial","add":"2017-05-26 09:35:19","orig_title":"Neizvestnyy","year":"2017-05-15","translations":["Оригинальная дорожка"],"seasons_count":1,"episodes_count":32,"episodes":32,"update":"2017-06-10 05:51:06","iframe_src":"//83.svetacdn.in/PfJ50H0ZBPg3/tv-series/1266"},{"id":1211,"title":"Хороший парень","kp_id":"1009554","imdb_id":null,"world_art_id":null,"type":"serial","add":"2017-04-24 15:54:12","orig_title":"Хороший парень","year":"2017-03-27","translations":["Оригинальная дорожка"],"seasons_count":1,"episodes_count":20,"episodes":20,"update":"2017-06-14 11:00:53","iframe_src":"//83.svetacdn.in/PfJ50H0ZBPg3/tv-series/1211"},{"id":1191,"title":"Анна Каренина","kp_id":"1043987","imdb_id":"tt6806962","world_art_id":null,"type":"serial","add":"2017-04-17 16:24:00","orig_title":"Анна Каренина","year":"2017-04-17","translations":["Оригинальная дорожка"],"seasons_count":1,"episodes_count":8,"episodes":8,"update":"2017-06-14 10:55:11","iframe_src":"//83.svetacdn.in/PfJ50H0ZBPg3/tv-series/1191"},{"id":1116,"title":"Темный ангел","kp_id":"963358","imdb_id":"tt4742700","world_art_id":null,"type":"serial","add":"2017-03-15 07:39:38","orig_title":"Dark Angel","year":"2016-10-31","translations":["Профессиональный (многоголосый закадровый)"],"seasons_count":1,"episodes_count":1,"episodes":1,"update":"2017-06-09 12:57:08","iframe_src":"//83.svetacdn.in/PfJ50H0ZBPg3/tv-series/1116"},{"id":6453,"title":"Плоть + кровь","kp_id":"2704","imdb_id":"tt0089153","world_art_id":null,"type":"movie","add":"2016-10-18 14:50:44","orig_title":"Flesh+Blood","year":"1985-06-10","translations":["Профессиональный (многоголосый закадровый)","Авторский (одноголосый закадровый) (Дольский Андрей)","Авторский (одноголосый закадровый) (Гаврилов Андрей)","Любительский (одноголосый закадровый) (Попов Алексей)","Авторский (одноголосый закадровый) (Сербин Юрий)","Авторский (одноголосый закадровый) (Володарский Леонид)","[EN] Original (English)","Профессиональный (многоголосый закадровый) (НТВ)","Профессиональный (многоголосый закадровый) (Н-Кино)","Профессиональный (многоголосый закадровый)"],"quality":"bd","translation":"Профессиональный (многоголосый закадровый)","update":"2021-05-04 06:53:10","iframe_src":"//83.svetacdn.in/PfJ50H0ZBPg3/movie/6453"},{"id":6145,"title":"Школа выживания","kp_id":"261321","imdb_id":"tt0817538","world_art_id":null,"type":"movie","add":"2016-10-11 08:50:10","orig_title":"Drillbit Taylor","year":"2008-03-20","translations":["Полное дублирование","Полное дублирование (Пифагор)","[EN] Original (English)"],"quality":"bd","translation":"Полное дублирование","update":"2021-05-04 06:27:04","iframe_src":"//83.svetacdn.in/PfJ50H0ZBPg3/movie/6145"},{"id":1591,"title":"Экипаж","kp_id":"592203","imdb_id":"tt1907668","world_art_id":null,"type":"movie","add":"2016-04-24 07:55:58","orig_title":"Flight","year":"2012-10-14","translations":["Полное дублирование","Авторский (одноголосый закадровый) (Гаврилов Андрей)","Полное дублирование","[EN] Original (English)","Профессиональный (двухголосый закадровый) (Омикрон)"],"quality":"bd","translation":"Полное дублирование","update":"2021-05-04 07:32:28","iframe_src":"//83.svetacdn.in/PfJ50H0ZBPg3/movie/1591"},{"id":803,"title":"Три дня на побег","kp_id":"468958","imdb_id":"tt1458175","world_art_id":null,"type":"movie","add":"2016-04-08 16:05:56","orig_title":"The Next Three Days","year":"2010-11-09","translations":["Полное дублирование","Авторский (одноголосый закадровый) (Гаврилов Андрей)","Авторский (одноголосый закадровый) (Сербин Юрий)","Полное дублирование","[EN] Original (English)","Профессиональный (двухголосый закадровый) (Кубик в Кубе | Kubik³)"],"quality":"bd","translation":"Полное дублирование","update":"2021-05-04 06:59:03","iframe_src":"//83.svetacdn.in/PfJ50H0ZBPg3/movie/803"}],"current_page":571,"first_page_url":"https://videocdn.tv/api/short?limit=100&api_token=RgFQdUIR2dRmwv8iYa5SnFNgnw3vpjKj&cache3571=3571&page=1","from":57001,"last_page":708,"last_page_url":"https://videocdn.tv/api/short?limit=100&api_token=RgFQdUIR2dRmwv8iYa5SnFNgnw3vpjKj&cache3571=3571&page=708","next_page_url":"https://videocdn.tv/api/short?limit=100&api_token=RgFQdUIR2dRmwv8iYa5SnFNgnw3vpjKj&cache3571=3571&page=572","path":"https://videocdn.tv/api/short","per_page":100,"prev_page_url":"https://videocdn.tv/api/short?limit=100&api_token=RgFQdUIR2dRmwv8iYa5SnFNgnw3vpjKj&cache3571=3571&page=570","to":57040,"total":70752}