{"result":true,"data":[{"id":48216,"title":"Мечты разбогатеть","kp_id":"4360027","imdb_id":null,"world_art_id":null,"type":"movie","add":"2021-02-24 10:02:47","orig_title":"Fa cai ri ji","year":"2021-02-12","translations":["Любительский (двухголосый закадровый) (Колобок)"],"quality":"webdl","translation":"Любительский (двухголосый закадровый) (Колобок)","update":"2021-02-24 14:47:00","iframe_src":"//7043.svetacdn.in/IAF0wWTdNYZm/movie/48216"},{"id":48213,"title":"Мои сестры","kp_id":"1273692","imdb_id":"tt10477668","world_art_id":null,"type":"movie","add":"2021-02-24 09:46:52","orig_title":"My Sisters","year":"2020-09-22","translations":["Любительский (многоголосый закадровый) (AlphaProject)"],"quality":"webdl","translation":"Любительский (многоголосый закадровый) (AlphaProject)","update":"2021-02-24 14:43:11","iframe_src":"//7043.svetacdn.in/IAF0wWTdNYZm/movie/48213"},{"id":48211,"title":"С Божьей Помощью, Фильм Второй","kp_id":null,"imdb_id":"tt11204876","world_art_id":null,"type":"movie","add":"2021-02-24 09:37:56","orig_title":"Nothing Witout GOD 2","year":"2020-05-19","translations":["Любительский (многоголосый закадровый) (Синема УС)"],"quality":"webdl","translation":"Любительский (многоголосый закадровый) (Синема УС)","update":"2021-02-24 14:40:23","iframe_src":"//7043.svetacdn.in/IAF0wWTdNYZm/movie/48211"},{"id":48210,"title":"Психопаты и социопаты","kp_id":"1108774","imdb_id":"tt7701726","world_art_id":null,"type":"movie","add":"2021-02-24 09:34:14","orig_title":"Psychos & Socios","year":"2020-03-23","translations":["Любительский (многоголосый закадровый) (Синема УС)"],"quality":"webdl","translation":"Любительский (многоголосый закадровый) (Синема УС)","update":"2021-02-24 14:39:08","iframe_src":"//7043.svetacdn.in/IAF0wWTdNYZm/movie/48210"},{"id":48209,"title":"Субботняя школа","kp_id":"1274227","imdb_id":"tt10448820","world_art_id":null,"type":"movie","add":"2021-02-24 09:30:17","orig_title":"Saturday School","year":"2020-08-01","translations":["Любительский (многоголосый закадровый) (Синема УС)"],"quality":"webdl","translation":"Любительский (многоголосый закадровый) (Синема УС)","update":"2021-02-24 14:38:03","iframe_src":"//7043.svetacdn.in/IAF0wWTdNYZm/movie/48209"},{"id":48192,"title":"Незваный гость","kp_id":"1090997","imdb_id":"tt7358576","world_art_id":null,"type":"movie","add":"2021-02-23 15:55:52","orig_title":"Gatecrash","year":"2021-02-22","translations":["Любительский (многоголосый закадровый) (Синема УС)"],"quality":"webdl","translation":"Любительский (многоголосый закадровый) (Синема УС)","update":"2021-02-24 13:53:10","iframe_src":"//7043.svetacdn.in/IAF0wWTdNYZm/movie/48192"},{"id":8558,"title":"Волевой прием","kp_id":"1007989","imdb_id":null,"world_art_id":null,"type":"serial","add":"2020-08-28 13:45:24","orig_title":"Волевой прием","year":"2016-11-17","translations":["Оригинальная дорожка"],"seasons_count":1,"episodes_count":2,"episodes":2,"update":"2020-08-28 20:52:20","iframe_src":"//7043.svetacdn.in/IAF0wWTdNYZm/tv-series/8558"},{"id":8557,"title":"10.5 баллов","kp_id":"84983","imdb_id":"tt0364146","world_art_id":null,"type":"serial","add":"2020-08-28 13:37:42","orig_title":"10.5","year":"2004-05-02","translations":["Профессиональный (многоголосый закадровый)"],"seasons_count":1,"episodes_count":2,"episodes":2,"update":"2020-08-28 20:46:39","iframe_src":"//7043.svetacdn.in/IAF0wWTdNYZm/tv-series/8557"},{"id":8555,"title":"Любовь во время короновируса","kp_id":"1396632","imdb_id":"tt12624862","world_art_id":null,"type":"serial","add":"2020-08-28 03:57:07","orig_title":"Love in the Time of Corona","year":"2020-08-22","translations":["Профессиональный (многоголосый закадровый) (NewStudio)"],"seasons_count":1,"episodes_count":4,"episodes":4,"update":"2020-08-28 06:52:56","iframe_src":"//7043.svetacdn.in/IAF0wWTdNYZm/tv-series/8555"},{"id":8552,"title":"Боцман и попугай","kp_id":"460133","imdb_id":"tt2265779","world_art_id":null,"type":"serial","add":"2020-08-27 17:19:55","orig_title":"Botsman i popugay","year":"1982-01-01","translations":["Оригинальная дорожка"],"seasons_count":1,"episodes_count":5,"episodes":5,"update":"2020-08-28 14:02:39","iframe_src":"//7043.svetacdn.in/IAF0wWTdNYZm/tv-series/8552"},{"id":8546,"title":"Дело об убийстве в башне Горизонт","kp_id":"1274247","imdb_id":"tt11395850","world_art_id":null,"type":"serial","add":"2020-08-27 04:41:14","orig_title":"Mo tian da lou","year":"2020-08-19","translations":["Профессиональный (многоголосый закадровый) (BaibaKo)"],"seasons_count":1,"episodes_count":12,"episodes":12,"update":"2020-08-28 10:59:12","iframe_src":"//7043.svetacdn.in/IAF0wWTdNYZm/tv-series/8546"},{"id":8538,"title":"Тарзан","kp_id":"230679","imdb_id":"tt0367424","world_art_id":null,"type":"serial","add":"2020-08-26 10:02:35","orig_title":"Tarzan","year":"2003-10-05","translations":["Профессиональный (многоголосый закадровый) (HDrezka Studio)"],"seasons_count":1,"episodes_count":8,"episodes":8,"update":"2020-08-27 11:16:32","iframe_src":"//7043.svetacdn.in/IAF0wWTdNYZm/tv-series/8538"},{"id":8527,"title":"Атташе","kp_id":"1344093","imdb_id":"tt11694076","world_art_id":null,"type":"serial","add":"2020-08-25 03:06:46","orig_title":"The Attaché","year":"2019-12-19","translations":["Любительский (многоголосый закадровый) (Octopus)"],"seasons_count":1,"episodes_count":10,"episodes":10,"update":"2020-08-28 20:44:46","iframe_src":"//7043.svetacdn.in/IAF0wWTdNYZm/tv-series/8527"},{"id":8507,"title":"Волшебный фонарь","kp_id":"983092","imdb_id":null,"world_art_id":null,"type":"serial","add":"2020-08-22 13:05:59","orig_title":"Волшебный фонарь","year":"2015-01-01","translations":["Оригинальная дорожка"],"seasons_count":1,"episodes_count":104,"episodes":104,"update":"2020-08-28 19:20:53","iframe_src":"//7043.svetacdn.in/IAF0wWTdNYZm/tv-series/8507"},{"id":8498,"title":"Данк или сквозняк?","kp_id":"1202192","imdb_id":"tt9077562","world_art_id":null,"type":"serial","add":"2020-08-21 10:23:26","orig_title":"Hoops","year":"2020-08-21","translations":["Полное дублирование (Пифагор)","Любительский (многоголосый закадровый) (Octopus)","Профессиональный (двухголосый закадровый) (IdeaFilm)","Профессиональный (многоголосый закадровый) (BaibaKo)"],"seasons_count":1,"episodes_count":10,"episodes":10,"update":"2020-08-28 08:00:44","iframe_src":"//7043.svetacdn.in/IAF0wWTdNYZm/tv-series/8498"},{"id":8486,"title":"Приключения Папируса","kp_id":"95279","imdb_id":"tt0416401","world_art_id":null,"type":"serial","add":"2020-08-19 17:54:16","orig_title":"Приключения Папируса","year":"1998-01-01","translations":["Полное дублирование"],"seasons_count":2,"episodes_count":52,"episodes":26,"update":"2020-08-28 09:07:49","iframe_src":"//7043.svetacdn.in/IAF0wWTdNYZm/tv-series/8486"},{"id":8485,"title":"Уолтер Мелон","kp_id":"403387","imdb_id":"tt0283817","world_art_id":null,"type":"serial","add":"2020-08-19 17:38:30","orig_title":"Walter Melon","year":"1998-01-01","translations":["Полное дублирование (ТВ3)"],"seasons_count":2,"episodes_count":52,"episodes":26,"update":"2020-08-28 08:32:25","iframe_src":"//7043.svetacdn.in/IAF0wWTdNYZm/tv-series/8485"},{"id":8484,"title":"Аргай","kp_id":"295052","imdb_id":"tt0443301","world_art_id":null,"type":"serial","add":"2020-08-19 17:34:34","orig_title":"Argaï: La prophétie","year":"2000-09-02","translations":["Полное дублирование"],"seasons_count":1,"episodes_count":26,"episodes":26,"update":"2020-08-28 08:02:16","iframe_src":"//7043.svetacdn.in/IAF0wWTdNYZm/tv-series/8484"},{"id":8483,"title":"Сабрина - маленькая ведьма","kp_id":"300063","imdb_id":"tt0172052","world_art_id":null,"type":"serial","add":"2020-08-19 17:12:50","orig_title":"Sabrina, the Animated Series","year":"2000-07-26","translations":["Профессиональный (многоголосый закадровый)"],"seasons_count":1,"episodes_count":25,"episodes":25,"update":"2020-08-27 11:31:07","iframe_src":"//7043.svetacdn.in/IAF0wWTdNYZm/tv-series/8483"},{"id":8482,"title":"Дон Хуан и его красивая дама","kp_id":"502901","imdb_id":"tt1287390","world_art_id":null,"type":"serial","add":"2020-08-19 12:46:39","orig_title":"Don Juan y su bella dama","year":"2008-03-17","translations":["Профессиональный (многоголосый закадровый) (Intra Communications)"],"seasons_count":1,"episodes_count":238,"episodes":238,"update":"2020-08-27 13:24:33","iframe_src":"//7043.svetacdn.in/IAF0wWTdNYZm/tv-series/8482"},{"id":8448,"title":"Динамо: Невероятный иллюзионист","kp_id":"674020","imdb_id":"tt1999525","world_art_id":null,"type":"serial","add":"2020-08-16 16:40:29","orig_title":"Dynamo: Magician Impossible","year":"2011-07-07","translations":["Профессиональный (одноголосый закадровый)","Профессиональный (многоголосый закадровый) (Discovery)","Профессиональный (одноголосый закадровый) (Discovery)"],"seasons_count":4,"episodes_count":16,"episodes":4,"update":"2020-08-27 11:20:56","iframe_src":"//7043.svetacdn.in/IAF0wWTdNYZm/tv-series/8448"},{"id":8257,"title":"Подходящий жених","kp_id":"1339325","imdb_id":"tt10795574","world_art_id":null,"type":"serial","add":"2020-07-27 11:29:14","orig_title":"A Suitable Boy","year":"2020-07-26","translations":["Любительский (многоголосый закадровый) (Octopus)","Любительский (многоголосый закадровый) (ColdFilm)","Профессиональный (многоголосый закадровый) (BaibaKo)"],"seasons_count":1,"episodes_count":6,"episodes":6,"update":"2020-08-28 08:13:53","iframe_src":"//7043.svetacdn.in/IAF0wWTdNYZm/tv-series/8257"},{"id":37092,"title":"Без пощады","kp_id":"12275","imdb_id":"tt0091637","world_art_id":null,"type":"movie","add":"2020-02-28 09:24:31","orig_title":"No Mercy","year":"1986-12-19","translations":["Профессиональный (многоголосый закадровый)","Авторский (одноголосый закадровый) (Михалёв Алексей)","Original (English)","Профессиональный (двухголосый закадровый)","Профессиональный (многоголосый закадровый) (НТВ)","Профессиональный (многоголосый закадровый) (Первый канал | ОРТ)"],"quality":"bd","translation":"Профессиональный (многоголосый закадровый)","update":"2021-02-24 14:16:23","iframe_src":"//7043.svetacdn.in/IAF0wWTdNYZm/movie/37092"},{"id":4397,"title":"Особенный","kp_id":"1219356","imdb_id":"tt9381622","world_art_id":null,"type":"serial","add":"2019-04-22 22:38:36","orig_title":"Special","year":"2019-04-12","translations":["Любительский (многоголосый закадровый) (ColdFilm)","Профессиональный (многоголосый закадровый) (HDrezka Studio)","Профессиональный (многоголосый закадровый) (TVShows)"],"seasons_count":1,"episodes_count":8,"episodes":8,"update":"2020-08-27 19:52:14","iframe_src":"//7043.svetacdn.in/IAF0wWTdNYZm/tv-series/4397"},{"id":23151,"title":"Музыкальная шкатулка","kp_id":"1060428","imdb_id":"tt5553962","world_art_id":null,"type":"movie","add":"2019-03-16 09:10:50","orig_title":"The Music Box","year":"2018-07-04","translations":["Профессиональный (многоголосый закадровый) (HDrezka Studio)","Профессиональный (многоголосый закадровый)"],"quality":"webdl","translation":"Профессиональный (многоголосый закадровый) (HDrezka Studio)","update":"2021-02-24 09:43:23","iframe_src":"//7043.svetacdn.in/IAF0wWTdNYZm/movie/23151"},{"id":22656,"title":"Мальчик, который обуздал ветер","kp_id":"1053352","imdb_id":"tt7533152","world_art_id":null,"type":"movie","add":"2019-03-03 13:03:00","orig_title":"The Boy Who Harnessed the Wind","year":"2019-01-25","translations":["Любительский (одноголосый закадровый) (datynet)","Любительский (многоголосый закадровый) (@MUZOBOZ@)","Любительский (двухголосый закадровый) (LakeFilms)","Original (English)","Профессиональный (многоголосый закадровый) (HDrezka Studio)","Профессиональный (многоголосый закадровый) (HDrezka Studio)"],"quality":"webdl","translation":"Любительский (одноголосый закадровый) (datynet)","update":"2021-02-24 09:47:35","iframe_src":"//7043.svetacdn.in/IAF0wWTdNYZm/movie/22656"},{"id":4011,"title":"Жизни матрёшки","kp_id":"1216661","imdb_id":"tt7520794","world_art_id":null,"type":"serial","add":"2019-02-01 15:38:40","orig_title":"Russian Doll","year":"2019-02-01","translations":["Полное дублирование","Профессиональный (многоголосый закадровый) (LostFilm)","Профессиональный (многоголосый закадровый) (HDrezka Studio)","Профессиональный (многоголосый закадровый) (TVShows)","Профессиональный (многоголосый закадровый) (IdeaFilm)","Профессиональный (двухголосый закадровый) (Кубик в Кубе)"],"seasons_count":1,"episodes_count":8,"episodes":8,"update":"2020-08-28 14:19:18","iframe_src":"//7043.svetacdn.in/IAF0wWTdNYZm/tv-series/4011"},{"id":21520,"title":"Бунтарка","kp_id":"102339","imdb_id":"tt0430634","world_art_id":null,"type":"movie","add":"2019-01-15 10:02:21","orig_title":"Stick It","year":"2006-04-21","translations":["Полное дублирование","Авторский (одноголосый закадровый) (Гранкин Евгений)","Авторский (одноголосый закадровый) (Рудой Евгений)","Полное дублирование (Мосфильм)","Original (English)"],"quality":"webdl","translation":"Полное дублирование","update":"2021-02-24 14:23:36","iframe_src":"//7043.svetacdn.in/IAF0wWTdNYZm/movie/21520"},{"id":3816,"title":"Отверженные","kp_id":"1040434","imdb_id":"tt5900600","world_art_id":null,"type":"serial","add":"2019-01-05 00:00:28","orig_title":"Les Misérables","year":"2018-12-30","translations":["Профессиональный (многоголосый закадровый) (BaibaKo)","Профессиональный (двухголосый закадровый) (LostFilm)","Профессиональный (многоголосый закадровый) (HDrezka Studio)","Профессиональный (многоголосый закадровый) (LostFilm)"],"seasons_count":1,"episodes_count":6,"episodes":6,"update":"2020-08-27 19:51:58","iframe_src":"//7043.svetacdn.in/IAF0wWTdNYZm/tv-series/3816"},{"id":21131,"title":"Наркокурьер","kp_id":"1142526","imdb_id":"tt7959026","world_art_id":null,"type":"movie","add":"2019-01-01 17:39:46","orig_title":"The Mule","year":"2018-12-10","translations":["Полное дублирование","Original (English)","Профессиональный (многоголосый закадровый) (HDrezka Studio)"],"quality":"bd","translation":"Полное дублирование","update":"2021-02-24 09:42:21","iframe_src":"//7043.svetacdn.in/IAF0wWTdNYZm/movie/21131"},{"id":19963,"title":"Другая сторона ветра","kp_id":"8563","imdb_id":"tt0069049","world_art_id":null,"type":"movie","add":"2018-11-04 19:25:26","orig_title":"The Other Side of the Wind","year":"2018-08-31","translations":["Любительский (многоголосый закадровый) (Синема УС)","Профессиональный (многоголосый закадровый) (GreenРай Studio)","Профессиональный (многоголосый закадровый) (HDrezka Studio)","Профессиональный (многоголосый закадровый) (HDrezka Studio)"],"quality":"webdl","translation":"Любительский (многоголосый закадровый) (Синема УС)","update":"2021-02-24 09:44:01","iframe_src":"//7043.svetacdn.in/IAF0wWTdNYZm/movie/19963"},{"id":19184,"title":"Человек, который убил Дон Кихота","kp_id":"650699","imdb_id":"tt1318517","world_art_id":null,"type":"movie","add":"2018-09-26 07:12:08","orig_title":"The Man Who Killed Don Quixote","year":"2018-05-19","translations":["Полное дублирование","Любительский (многоголосый закадровый) (@MUZOBOZ@)","Полное дублирование (iTunes)","Профессиональный (многоголосый закадровый) (HDrezka Studio)"],"quality":"dvdrip","translation":"Полное дублирование","update":"2021-02-24 09:48:10","iframe_src":"//7043.svetacdn.in/IAF0wWTdNYZm/movie/19184"},{"id":3005,"title":"Неуправляемая","kp_id":"1038464","imdb_id":"tt6495756","world_art_id":null,"type":"serial","add":"2018-08-07 10:31:52","orig_title":"Ingobernable","year":"2017-03-24","translations":["Профессиональный (многоголосый закадровый) (ColdFilm)","Профессиональный (многоголосый закадровый) (HDrezka Studio)","Профессиональный (многоголосый закадровый) (BaibaKo)","Любительский (многоголосый закадровый) (ColdFilm)","Профессиональный (двухголосый закадровый) (Gears Media)"],"seasons_count":2,"episodes_count":27,"episodes":12,"update":"2020-08-27 19:40:38","iframe_src":"//7043.svetacdn.in/IAF0wWTdNYZm/tv-series/3005"},{"id":15995,"title":"Отдых акушерки","kp_id":"1115532","imdb_id":"tt7775430","world_art_id":null,"type":"movie","add":"2018-04-02 21:47:11","orig_title":"The Midwife's Deception","year":"2018-03-18","translations":["Любительский (многоголосый закадровый) (Синема УС)","Профессиональный (многоголосый закадровый) (HDrezka Studio)","Профессиональный (многоголосый закадровый) (HDrezka Studio)"],"quality":"hdtv","translation":"Любительский (многоголосый закадровый) (Синема УС)","update":"2021-02-24 09:29:14","iframe_src":"//7043.svetacdn.in/IAF0wWTdNYZm/movie/15995"},{"id":15862,"title":"Гонка века","kp_id":"808007","imdb_id":"tt3319730","world_art_id":null,"type":"movie","add":"2018-03-27 08:06:28","orig_title":"The Mercy","year":"2018-02-06","translations":["Любительский (многоголосый закадровый) (@MUZOBOZ@)","Полное дублирование","Профессиональный (многоголосый закадровый) (HDrezka Studio)"],"quality":"bd","translation":"Любительский (многоголосый закадровый) (@MUZOBOZ@)","update":"2021-02-24 09:28:53","iframe_src":"//7043.svetacdn.in/IAF0wWTdNYZm/movie/15862"},{"id":6465,"title":"Американский ниндзя 4: Полное уничтожение","kp_id":"35895","imdb_id":"tt0101326","world_art_id":null,"type":"movie","add":"2016-10-19 15:35:05","orig_title":"American Ninja 4: The Annihilation","year":"1990-08-31","translations":["Профессиональный (двухголосый закадровый)","Авторский (одноголосый закадровый) (Живов Юрий)","Original (English)","Профессиональный (двухголосый закадровый)","Профессиональный (двухголосый закадровый) (НТВ)"],"quality":"bd","translation":"Профессиональный (двухголосый закадровый)","update":"2021-02-24 14:40:19","iframe_src":"//7043.svetacdn.in/IAF0wWTdNYZm/movie/6465"},{"id":6464,"title":"Американский ниндзя 3: Кровавая охота","kp_id":"35896","imdb_id":"tt0096804","world_art_id":null,"type":"movie","add":"2016-10-19 15:33:22","orig_title":"American Ninja 3: Blood Hunt","year":"1989-02-24","translations":["Профессиональный (многоголосый закадровый)","Авторский (одноголосый закадровый) (Немахов Юрий)","Original (English)","Профессиональный (многоголосый закадровый) (СТС)","Профессиональный (многоголосый закадровый) (ДТВ)"],"quality":"bd","translation":"Профессиональный (многоголосый закадровый)","update":"2021-02-24 14:34:38","iframe_src":"//7043.svetacdn.in/IAF0wWTdNYZm/movie/6464"},{"id":6463,"title":"Американский ниндзя 2: Схватка","kp_id":"35898","imdb_id":"tt0092548","world_art_id":null,"type":"movie","add":"2016-10-19 15:32:00","orig_title":"American Ninja 2: The Confrontation","year":"1987-05-01","translations":["Профессиональный (двухголосый закадровый)","Авторский (одноголосый закадровый) (Гаврилов Андрей)","Original (English)","Профессиональный (двухголосый закадровый) (Союз Видео)","Профессиональный (многоголосый закадровый) (СТС)"],"quality":"bd","translation":"Профессиональный (двухголосый закадровый)","update":"2021-02-24 14:29:16","iframe_src":"//7043.svetacdn.in/IAF0wWTdNYZm/movie/6463"},{"id":2462,"title":"Доказательство жизни","kp_id":"791","imdb_id":"tt0228750","world_art_id":null,"type":"movie","add":"2016-05-23 12:03:16","orig_title":"Proof of Life","year":"2000-12-04","translations":["Полное дублирование","Авторский (одноголосый закадровый) (Визгунов Сергей)","Авторский (одноголосый закадровый) (Живов Юрий)","Полное дублирование","Original (English)","Профессиональный (многоголосый закадровый) (ТВ3)","Профессиональный (многоголосый закадровый) (ТНТ)"],"quality":"webdl","translation":"Полное дублирование","update":"2021-02-24 14:48:43","iframe_src":"//7043.svetacdn.in/IAF0wWTdNYZm/movie/2462"},{"id":31,"title":"Легенда","kp_id":"839954","imdb_id":"tt3569230","world_art_id":null,"type":"movie","add":"2016-02-06 22:32:09","orig_title":"Legend","year":"2015-09-03","translations":["Полное дублирование","Авторский (одноголосый закадровый) (Сербин Юрий)","Полное дублирование","Original (English)"],"quality":"bd","translation":"Полное дублирование","update":"2021-02-24 13:47:48","iframe_src":"//7043.svetacdn.in/IAF0wWTdNYZm/movie/31"}],"current_page":135,"first_page_url":"https://videocdn.tv/api/short?limit=100&api_token=6Onb1W1alEUrBcKJZD3GoKBbWyAl2uG2&cache3135=3135&page=1","from":13401,"last_page":614,"last_page_url":"https://videocdn.tv/api/short?limit=100&api_token=6Onb1W1alEUrBcKJZD3GoKBbWyAl2uG2&cache3135=3135&page=614","next_page_url":"https://videocdn.tv/api/short?limit=100&api_token=6Onb1W1alEUrBcKJZD3GoKBbWyAl2uG2&cache3135=3135&page=136","path":"https://videocdn.tv/api/short","per_page":100,"prev_page_url":"https://videocdn.tv/api/short?limit=100&api_token=6Onb1W1alEUrBcKJZD3GoKBbWyAl2uG2&cache3135=3135&page=134","to":13440,"total":61324}