{"result":true,"data":[{"id":17776,"title":"Вес воды","kp_id":"15093","imdb_id":"tt0210382","world_art_id":null,"type":"movie","add":"2018-07-18 01:11:58","orig_title":"The Weight of Water","year":"2000-09-09","translations":["Полное дублирование"],"quality":"bd","translation":"Полное дублирование","update":"2018-07-18 06:13:31","iframe_src":"//2413.svetacdn.in/71tsRs29n5tZ/movie/17776"},{"id":17772,"title":"Невыдуманная история","kp_id":"1112274","imdb_id":"tt8383656","world_art_id":null,"type":"movie","add":"2018-07-18 00:58:32","orig_title":"Sarinsoseol","year":"2018-02-27","translations":["Любительский (двухголосый закадровый) (Колобок)"],"quality":"webdl","translation":"Любительский (двухголосый закадровый) (Колобок)","update":"2018-07-18 06:22:31","iframe_src":"//2413.svetacdn.in/71tsRs29n5tZ/movie/17772"},{"id":17771,"title":"Странные имена и фамилии","kp_id":"983712","imdb_id":"tt5671902","world_art_id":null,"type":"movie","add":"2018-07-18 00:57:03","orig_title":"The Strange Name Movie","year":"2017-12-12","translations":["Любительский (многоголосый закадровый) (Синема УС)"],"quality":"webdl","translation":"Любительский (многоголосый закадровый) (Синема УС)","update":"2018-07-18 06:25:31","iframe_src":"//2413.svetacdn.in/71tsRs29n5tZ/movie/17771"},{"id":17770,"title":"Таинственный круиз","kp_id":"804737","imdb_id":"tt3242640","world_art_id":null,"type":"movie","add":"2018-07-18 00:55:11","orig_title":"The Mystery Cruise","year":"2013-10-06","translations":["Любительский (многоголосый закадровый) (Синема УС)"],"quality":"webdl","translation":"Любительский (многоголосый закадровый) (Синема УС)","update":"2018-07-18 06:26:33","iframe_src":"//2413.svetacdn.in/71tsRs29n5tZ/movie/17770"},{"id":17769,"title":"Прелестный убийца","kp_id":"453067","imdb_id":"tt1362141","world_art_id":null,"type":"movie","add":"2018-07-18 00:43:39","orig_title":"The Honey Killer","year":"2018-04-01","translations":["Любительский (многоголосый закадровый) (Синема УС)"],"quality":"webdl","translation":"Любительский (многоголосый закадровый) (Синема УС)","update":"2018-07-18 06:27:47","iframe_src":"//2413.svetacdn.in/71tsRs29n5tZ/movie/17769"},{"id":17768,"title":"Жемчужина Африки","kp_id":"1115350","imdb_id":"tt5128790","world_art_id":null,"type":"movie","add":"2018-07-18 00:37:51","orig_title":"The Pearl of Africa","year":"2016-04-30","translations":["Любительский (многоголосый закадровый) (Синема УС)"],"quality":"webdl","translation":"Любительский (многоголосый закадровый) (Синема УС)","update":"2018-07-18 06:32:31","iframe_src":"//2413.svetacdn.in/71tsRs29n5tZ/movie/17768"},{"id":17767,"title":"Укрощенный","kp_id":"1019824","imdb_id":"tt5831124","world_art_id":null,"type":"movie","add":"2018-07-18 00:36:13","orig_title":"Taming the Horse","year":"2017-04-27","translations":["Любительский (многоголосый закадровый) (Колобок)"],"quality":"webdl","translation":"Любительский (многоголосый закадровый) (Колобок)","update":"2018-07-18 06:33:48","iframe_src":"//2413.svetacdn.in/71tsRs29n5tZ/movie/17767"},{"id":17746,"title":"Грайндсплуатация 5: Шлаксплуатация","kp_id":"1012513","imdb_id":"tt6338444","world_art_id":null,"type":"movie","add":"2018-07-15 23:54:47","orig_title":"Grindsploitation 5: Schlocksploitation","year":"2018-06-01","translations":["Любительский (многоголосый закадровый) (Синема УС)"],"quality":"webdl","translation":"Любительский (многоголосый закадровый) (Синема УС)","update":"2018-07-16 10:50:07","iframe_src":"//2413.svetacdn.in/71tsRs29n5tZ/movie/17746"},{"id":17745,"title":"Страна маленьких людей","kp_id":"845341","imdb_id":"tt3444008","world_art_id":null,"type":"movie","add":"2018-07-15 23:53:04","orig_title":"Land of the Little People","year":"2016-06-06","translations":["Любительский (многоголосый закадровый) (Синема УС)"],"quality":"webdl","translation":"Любительский (многоголосый закадровый) (Синема УС)","update":"2018-07-16 10:51:35","iframe_src":"//2413.svetacdn.in/71tsRs29n5tZ/movie/17745"},{"id":17743,"title":"План","kp_id":"1078127","imdb_id":"tt6866652","world_art_id":null,"type":"movie","add":"2018-07-15 23:40:17","orig_title":"The Plan","year":"2017-01-01","translations":["Любительский (двухголосый закадровый) (HiWayGrope)","Любительский (многоголосый закадровый) (Колобок)"],"quality":"webdl","translation":"Любительский (двухголосый закадровый) (HiWayGrope)","update":"2018-07-18 06:31:19","iframe_src":"//2413.svetacdn.in/71tsRs29n5tZ/movie/17743"},{"id":17742,"title":"Оцепеневший: На краю конца","kp_id":"822718","imdb_id":"tt3312180","world_art_id":null,"type":"movie","add":"2018-07-15 23:38:32","orig_title":"The Last Man","year":"2018-08-09","translations":["Любительский (многоголосый закадровый) (Синема УС)"],"quality":"webdl","translation":"Любительский (многоголосый закадровый) (Синема УС)","update":"2018-07-16 11:05:09","iframe_src":"//2413.svetacdn.in/71tsRs29n5tZ/movie/17742"},{"id":17741,"title":"Турбулентность","kp_id":"972481","imdb_id":"tt5592256","world_art_id":null,"type":"movie","add":"2018-07-15 23:34:49","orig_title":"Flight 192","year":"2016-12-01","translations":["Любительский (многоголосый закадровый) (Синема УС)"],"quality":"webdl","translation":"Любительский (многоголосый закадровый) (Синема УС)","update":"2018-07-16 11:11:21","iframe_src":"//2413.svetacdn.in/71tsRs29n5tZ/movie/17741"},{"id":17740,"title":"Несвобода","kp_id":"626188","imdb_id":"tt2049630","world_art_id":null,"type":"movie","add":"2018-07-15 23:31:50","orig_title":"Unfreedom","year":"2014-09-12","translations":["Любительский (многоголосый закадровый) (Синема УС)"],"quality":"webdl","translation":"Любительский (многоголосый закадровый) (Синема УС)","update":"2018-07-16 11:12:53","iframe_src":"//2413.svetacdn.in/71tsRs29n5tZ/movie/17740"},{"id":17739,"title":"Неописуемая одержимость","kp_id":"1028883","imdb_id":"tt6217052","world_art_id":null,"type":"movie","add":"2018-07-15 23:29:02","orig_title":"Unwritten Obsession","year":"2017-08-27","translations":["Любительский (многоголосый закадровый) (Синема УС)"],"quality":"hdtv","translation":"Любительский (многоголосый закадровый) (Синема УС)","update":"2018-07-16 11:15:45","iframe_src":"//2413.svetacdn.in/71tsRs29n5tZ/movie/17739"},{"id":17738,"title":"Что воды оставили позади","kp_id":"1025168","imdb_id":"tt6332764","world_art_id":null,"type":"movie","add":"2018-07-15 23:27:25","orig_title":"Los Olvidados","year":"2017-10-11","translations":["Любительский (многоголосый закадровый) (Колобок)"],"quality":"webdl","translation":"Любительский (многоголосый закадровый) (Колобок)","update":"2018-07-16 11:16:51","iframe_src":"//2413.svetacdn.in/71tsRs29n5tZ/movie/17738"},{"id":17737,"title":"Дом страха","kp_id":"1012485","imdb_id":"tt6469498","world_art_id":null,"type":"movie","add":"2018-07-15 23:18:22","orig_title":"Tiny House of Terror","year":"2017-06-29","translations":["Любительский (многоголосый закадровый) (Синема УС)"],"quality":"webdl","translation":"Любительский (многоголосый закадровый) (Синема УС)","update":"2018-07-16 11:33:21","iframe_src":"//2413.svetacdn.in/71tsRs29n5tZ/movie/17737"},{"id":17736,"title":"Двойная жизнь Рейчел","kp_id":null,"imdb_id":"tt8106570","world_art_id":null,"type":"movie","add":"2018-07-15 23:12:55","orig_title":"The Rachel Divide","year":"2018-04-27","translations":["Любительский (многоголосый закадровый) (Синема УС)"],"quality":"webdl","translation":"Любительский (многоголосый закадровый) (Синема УС)","update":"2018-07-16 11:37:42","iframe_src":"//2413.svetacdn.in/71tsRs29n5tZ/movie/17736"},{"id":16973,"title":"Рейк","kp_id":"947323","imdb_id":"tt5226192","world_art_id":null,"type":"movie","add":"2018-05-30 11:05:24","orig_title":"The Rake","year":"2018-06-05","translations":["Любительский (многоголосый закадровый) (Синема УС)","Любительский (двухголосый закадровый) (HiWayGrope)","Любительский (одноголосый закадровый) (Хихикающий доктор)"],"quality":"dvdrip","translation":"Любительский (многоголосый закадровый) (Синема УС)","update":"2018-07-16 11:34:54","iframe_src":"//2413.svetacdn.in/71tsRs29n5tZ/movie/16973"},{"id":16541,"title":"В ожидании Хэлен","kp_id":"578838","imdb_id":"tt1821701","world_art_id":null,"type":"movie","add":"2018-04-29 23:11:13","orig_title":"Wait Till Helen Comes","year":"2016-09-07","translations":["Любительский (многоголосый закадровый) (Колобок)","Любительский (одноголосый закадровый) (Хихикающий доктор)"],"quality":"dvdrip","translation":"Любительский (многоголосый закадровый) (Колобок)","update":"2018-07-16 11:16:48","iframe_src":"//2413.svetacdn.in/71tsRs29n5tZ/movie/16541"},{"id":14742,"title":"Заблудившиеся","kp_id":"995033","imdb_id":"tt5940342","world_art_id":null,"type":"movie","add":"2017-12-24 23:36:58","orig_title":"Unhinged","year":"2017-09-25","translations":["Любительский (многоголосый закадровый) (Синема УС)","Любительский (одноголосый закадровый) (Хихикающий доктор)"],"quality":"webdl","translation":"Любительский (многоголосый закадровый) (Синема УС)","update":"2018-07-17 06:35:13","iframe_src":"//2413.svetacdn.in/71tsRs29n5tZ/movie/14742"}],"current_page":2257,"first_page_url":"https://videocdn.tv/api/short?limit=100&api_token=EnbO9h8pv1VyjbCJhg0WM9nG259n7mtz&cache32257=32257&page=1","from":225601,"last_page":719,"last_page_url":"https://videocdn.tv/api/short?limit=100&api_token=EnbO9h8pv1VyjbCJhg0WM9nG259n7mtz&cache32257=32257&page=719","next_page_url":null,"path":"https://videocdn.tv/api/short","per_page":100,"prev_page_url":"https://videocdn.tv/api/short?limit=100&api_token=EnbO9h8pv1VyjbCJhg0WM9nG259n7mtz&cache32257=32257&page=2256","to":225620,"total":71805}