{"result":true,"data":[{"id":26413,"title":"Дружок","kp_id":"95204","imdb_id":"tt0422143","world_art_id":null,"type":"movie","add":"2019-05-13 00:15:58","orig_title":"Druzhok","year":"1958-07-17","translations":["Оригинальная дорожка"],"quality":"dvdrip","translation":"Оригинальная дорожка","update":"2019-05-14 11:47:40","iframe_src":"//83.svetacdn.in/PfJ50H0ZBPg3/movie/26413"},{"id":26412,"title":"Трое вышли из леса","kp_id":"42320","imdb_id":"tt0179494","world_art_id":null,"type":"movie","add":"2019-05-13 00:12:33","orig_title":"Troe vyshli iz lesa","year":"1958-06-10","translations":["Оригинальная дорожка"],"quality":"sat","translation":"Оригинальная дорожка","update":"2019-05-14 11:47:00","iframe_src":"//83.svetacdn.in/PfJ50H0ZBPg3/movie/26412"},{"id":26411,"title":"Её сердце","kp_id":"491740","imdb_id":"tt7671256","world_art_id":null,"type":"movie","add":"2019-05-13 00:08:57","orig_title":"Eyo serdtse","year":"2010-01-01","translations":["Оригинальная дорожка"],"quality":"sat","translation":"Оригинальная дорожка","update":"2019-05-14 11:46:01","iframe_src":"//83.svetacdn.in/PfJ50H0ZBPg3/movie/26411"},{"id":26410,"title":"Фабрика счастья","kp_id":"471043","imdb_id":null,"world_art_id":null,"type":"movie","add":"2019-05-13 00:01:02","orig_title":"Фабрика счастья","year":"2007-11-10","translations":["Оригинальная дорожка"],"quality":"sat","translation":"Оригинальная дорожка","update":"2019-05-14 11:44:47","iframe_src":"//83.svetacdn.in/PfJ50H0ZBPg3/movie/26410"},{"id":26409,"title":"Я тебя люблю","kp_id":"580702","imdb_id":"tt1927184","world_art_id":null,"type":"movie","add":"2019-05-12 23:23:47","orig_title":"Ya tebya lyublyu","year":"2011-01-28","translations":["Оригинальная дорожка"],"quality":"dvdrip","translation":"Оригинальная дорожка","update":"2019-05-14 11:42:28","iframe_src":"//83.svetacdn.in/PfJ50H0ZBPg3/movie/26409"},{"id":26408,"title":"Как рождаются тосты","kp_id":"471877","imdb_id":"tt8157048","world_art_id":null,"type":"movie","add":"2019-05-12 23:17:45","orig_title":"Kak rozhdayutsya tosty","year":"1962-01-01","translations":["Оригинальная дорожка"],"quality":"sat","translation":"Оригинальная дорожка","update":"2019-05-14 11:43:09","iframe_src":"//83.svetacdn.in/PfJ50H0ZBPg3/movie/26408"},{"id":26407,"title":"Конец века","kp_id":"41258","imdb_id":"tt0319702","world_art_id":null,"type":"movie","add":"2019-05-12 23:14:00","orig_title":"Konets veka","year":"2001-09-01","translations":["Оригинальная дорожка"],"quality":"sat","translation":"Оригинальная дорожка","update":"2019-05-14 11:41:46","iframe_src":"//83.svetacdn.in/PfJ50H0ZBPg3/movie/26407"},{"id":26406,"title":"Великая магия","kp_id":"943973","imdb_id":null,"world_art_id":null,"type":"movie","add":"2019-05-12 23:10:20","orig_title":"Великая магия","year":"1980-07-05","translations":["Оригинальная дорожка"],"quality":"dvdrip","translation":"Оригинальная дорожка","update":"2019-05-14 11:41:08","iframe_src":"//83.svetacdn.in/PfJ50H0ZBPg3/movie/26406"},{"id":26405,"title":"Москва – не Москва","kp_id":"573992","imdb_id":null,"world_art_id":null,"type":"movie","add":"2019-05-12 23:06:19","orig_title":"Москва – не Москва","year":"2011-01-01","translations":["Оригинальная дорожка"],"quality":"dvdrip","translation":"Оригинальная дорожка","update":"2019-05-14 11:38:34","iframe_src":"//83.svetacdn.in/PfJ50H0ZBPg3/movie/26405"},{"id":26404,"title":"Невеста из Парижа","kp_id":"41560","imdb_id":"tt0297309","world_art_id":null,"type":"movie","add":"2019-05-12 23:02:00","orig_title":"Nevesta iz Parizha","year":"1992-01-01","translations":["Оригинальная дорожка"],"quality":"sat","translation":"Оригинальная дорожка","update":"2019-05-14 11:35:12","iframe_src":"//83.svetacdn.in/PfJ50H0ZBPg3/movie/26404"},{"id":26403,"title":"Ностальгия по будущему","kp_id":"420412","imdb_id":"tt1289619","world_art_id":null,"type":"movie","add":"2019-05-12 22:59:02","orig_title":"Nostalgiya po budushemu","year":"2008-02-14","translations":["Оригинальная дорожка"],"quality":"sat","translation":"Оригинальная дорожка","update":"2019-05-14 11:34:00","iframe_src":"//83.svetacdn.in/PfJ50H0ZBPg3/movie/26403"},{"id":26402,"title":"Олимпийская деревня","kp_id":"478949","imdb_id":"tt1873590","world_art_id":null,"type":"movie","add":"2019-05-12 22:56:16","orig_title":"Olimpiyskaya derevnya","year":"2011-11-24","translations":["Оригинальная дорожка"],"quality":"dvdrip","translation":"Оригинальная дорожка","update":"2019-05-14 11:29:25","iframe_src":"//83.svetacdn.in/PfJ50H0ZBPg3/movie/26402"},{"id":26401,"title":"На Муромской дорожке","kp_id":"41534","imdb_id":"tt0183555","world_art_id":null,"type":"movie","add":"2019-05-12 22:52:55","orig_title":"Na Muromskoy dorozhke","year":"1993-01-01","translations":["Оригинальная дорожка"],"quality":"dvdrip","translation":"Оригинальная дорожка","update":"2019-05-14 11:10:04","iframe_src":"//83.svetacdn.in/PfJ50H0ZBPg3/movie/26401"},{"id":26400,"title":"Павел Корчагин","kp_id":"42907","imdb_id":"tt0050826","world_art_id":null,"type":"movie","add":"2019-05-12 22:48:49","orig_title":"Pavel Korchagin","year":"1957-01-29","translations":["Оригинальная дорожка"],"quality":"dvdrip","translation":"Оригинальная дорожка","update":"2019-05-14 11:09:16","iframe_src":"//83.svetacdn.in/PfJ50H0ZBPg3/movie/26400"},{"id":26399,"title":"Первое свидание","kp_id":"42943","imdb_id":"tt0054175","world_art_id":null,"type":"movie","add":"2019-05-12 22:46:18","orig_title":"Pervoye svidaniye","year":"1960-06-13","translations":["Оригинальная дорожка"],"quality":"dvdrip","translation":"Оригинальная дорожка","update":"2019-05-14 11:07:43","iframe_src":"//83.svetacdn.in/PfJ50H0ZBPg3/movie/26399"},{"id":26398,"title":"Полицейские и воры","kp_id":"40926","imdb_id":"tt0159662","world_art_id":null,"type":"movie","add":"2019-05-12 22:43:19","orig_title":"Politseiskiye i vory","year":"1997-01-01","translations":["Оригинальная дорожка"],"quality":"dvdrip","translation":"Оригинальная дорожка","update":"2019-05-14 11:06:56","iframe_src":"//83.svetacdn.in/PfJ50H0ZBPg3/movie/26398"},{"id":26397,"title":"Путевка в жизнь","kp_id":"43365","imdb_id":"tt0022289","world_art_id":null,"type":"movie","add":"2019-05-12 22:35:05","orig_title":"Putyovka v zhizn","year":"1931-06-01","translations":["Оригинальная дорожка"],"quality":"dvdrip","translation":"Оригинальная дорожка","update":"2019-05-14 11:05:48","iframe_src":"//83.svetacdn.in/PfJ50H0ZBPg3/movie/26397"},{"id":26396,"title":"Рабочий поселок","kp_id":"42032","imdb_id":"tt0059628","world_art_id":null,"type":"movie","add":"2019-05-12 22:32:31","orig_title":"Rabochiy posyolok","year":"1966-04-25","translations":["Оригинальная дорожка"],"quality":"dvdrip","translation":"Оригинальная дорожка","update":"2019-05-14 11:01:59","iframe_src":"//83.svetacdn.in/PfJ50H0ZBPg3/movie/26396"},{"id":26395,"title":"Родная кровь","kp_id":"42110","imdb_id":"tt0130223","world_art_id":null,"type":"movie","add":"2019-05-12 22:29:27","orig_title":"Rodnaya krov","year":"1964-02-08","translations":["Оригинальная дорожка"],"quality":"dvdrip","translation":"Оригинальная дорожка","update":"2019-05-14 11:01:04","iframe_src":"//83.svetacdn.in/PfJ50H0ZBPg3/movie/26395"},{"id":26379,"title":"Срочный вызов","kp_id":"542182","imdb_id":"tt4799360","world_art_id":null,"type":"movie","add":"2019-05-12 21:31:28","orig_title":"Srochnyy vyzov","year":"1979-06-25","translations":["Оригинальная дорожка"],"quality":"sat","translation":"Оригинальная дорожка","update":"2019-05-14 10:37:35","iframe_src":"//83.svetacdn.in/PfJ50H0ZBPg3/movie/26379"}],"current_page":1374,"first_page_url":"https://videocdn.tv/api/short?limit=100&api_token=RgFQdUIR2dRmwv8iYa5SnFNgnw3vpjKj&cache31374=31374&page=1","from":137301,"last_page":620,"last_page_url":"https://videocdn.tv/api/short?limit=100&api_token=RgFQdUIR2dRmwv8iYa5SnFNgnw3vpjKj&cache31374=31374&page=620","next_page_url":null,"path":"https://videocdn.tv/api/short","per_page":100,"prev_page_url":"https://videocdn.tv/api/short?limit=100&api_token=RgFQdUIR2dRmwv8iYa5SnFNgnw3vpjKj&cache31374=31374&page=1373","to":137320,"total":61946}