{"result":true,"data":[{"id":41360,"title":"Роковой второй шанс","kp_id":null,"imdb_id":"tt12498142","world_art_id":null,"type":"movie","add":"2020-06-23 20:17:33","orig_title":"Deadly Second Chances","year":"2020-06-05","translations":["Любительский (многоголосый закадровый) (AlphaProject)"],"quality":"hdtv","translation":"Любительский (многоголосый закадровый) (AlphaProject)","update":"2020-06-24 04:27:26","iframe_src":"//8543.svetacdn.in/IAF0wWTdNYZm/movie/41360"},{"id":41342,"title":"Самая Долгая Война","kp_id":null,"imdb_id":"tt11611650","world_art_id":null,"type":"movie","add":"2020-06-23 19:51:37","orig_title":"The Longest War","year":"2020-04-19","translations":["Любительский (многоголосый закадровый) (Синема УС)"],"quality":"webdl","translation":"Любительский (многоголосый закадровый) (Синема УС)","update":"2020-06-24 04:19:59","iframe_src":"//8543.svetacdn.in/IAF0wWTdNYZm/movie/41342"},{"id":41340,"title":"Брат и сестра - одно сердце на двоих","kp_id":"1181580","imdb_id":"tt8782396","world_art_id":null,"type":"movie","add":"2020-06-23 18:34:00","orig_title":"Bruder Schwester Herz","year":"2019-10-10","translations":["Любительский (многоголосый закадровый) (@MUZOBOZ@)"],"quality":"webdl","translation":"Любительский (многоголосый закадровый) (@MUZOBOZ@)","update":"2020-06-23 20:26:39","iframe_src":"//8543.svetacdn.in/IAF0wWTdNYZm/movie/41340"},{"id":41339,"title":"Кафе без музыки в Париже редкость","kp_id":"918228","imdb_id":"tt4371428","world_art_id":null,"type":"movie","add":"2020-06-23 12:37:28","orig_title":"Un café sans musique c'est rare à Paris","year":"2019-07-18","translations":["Любительский (многоголосый закадровый) (Синема УС)"],"quality":"webdl","translation":"Любительский (многоголосый закадровый) (Синема УС)","update":"2020-06-23 19:04:03","iframe_src":"//8543.svetacdn.in/IAF0wWTdNYZm/movie/41339"},{"id":41337,"title":"Профессиональные покеристы","kp_id":"737388","imdb_id":"tt2040366","world_art_id":null,"type":"movie","add":"2020-06-23 11:49:56","orig_title":"Grinders","year":"2013-03-13","translations":["Любительский (одноголосый закадровый)"],"quality":"sat","translation":"Любительский (одноголосый закадровый)","update":"2020-06-23 18:58:11","iframe_src":"//8543.svetacdn.in/IAF0wWTdNYZm/movie/41337"},{"id":41336,"title":"Я или Ты - Фильм: Месть Синьора Эс","kp_id":"1354970","imdb_id":"tt11559652","world_art_id":null,"type":"movie","add":"2020-06-23 11:45:01","orig_title":"Me contro Te - Il film: La vendetta del Signor S","year":"2020-01-17","translations":["Любительский (многоголосый закадровый) (Синема УС)"],"quality":"webdl","translation":"Любительский (многоголосый закадровый) (Синема УС)","update":"2020-06-23 18:59:44","iframe_src":"//8543.svetacdn.in/IAF0wWTdNYZm/movie/41336"},{"id":41333,"title":"В мгновенье ока","kp_id":"1388687","imdb_id":"tt10132048","world_art_id":null,"type":"movie","add":"2020-06-23 04:40:55","orig_title":"Blink of an Eye","year":"2019-09-06","translations":["Любительский (многоголосый закадровый) (Синема УС)"],"quality":"webdl","translation":"Любительский (многоголосый закадровый) (Синема УС)","update":"2020-06-23 06:15:37","iframe_src":"//8543.svetacdn.in/IAF0wWTdNYZm/movie/41333"},{"id":41331,"title":"Последняя зима","kp_id":"105871","imdb_id":"tt0454864","world_art_id":null,"type":"movie","add":"2020-06-22 18:57:16","orig_title":"The Last Winter","year":"2006-09-11","translations":["Профессиональный (двухголосый закадровый)"],"quality":"bd","translation":"Профессиональный (двухголосый закадровый)","update":"2020-06-23 07:32:30","iframe_src":"//8543.svetacdn.in/IAF0wWTdNYZm/movie/41331"},{"id":41330,"title":"Шницель де-люкс","kp_id":"1229226","imdb_id":"tt9584958","world_art_id":null,"type":"movie","add":"2020-06-22 18:08:56","orig_title":"Schnitzel de Luxe","year":"2019-01-19","translations":["Любительский (многоголосый закадровый) (AlphaProject)"],"quality":"webdl","translation":"Любительский (многоголосый закадровый) (AlphaProject)","update":"2020-06-22 20:11:38","iframe_src":"//8543.svetacdn.in/IAF0wWTdNYZm/movie/41330"},{"id":41329,"title":"Прогноз на любовь","kp_id":"1355540","imdb_id":"tt11836852","world_art_id":null,"type":"movie","add":"2020-06-22 18:06:53","orig_title":"Love in the Forecast","year":"2020-06-13","translations":["Любительский (многоголосый закадровый) (AlphaProject)"],"quality":"webdl","translation":"Любительский (многоголосый закадровый) (AlphaProject)","update":"2020-06-22 19:31:06","iframe_src":"//8543.svetacdn.in/IAF0wWTdNYZm/movie/41329"},{"id":41273,"title":"Великолепные негодяи","kp_id":"36920","imdb_id":"tt0102737","world_art_id":null,"type":"movie","add":"2020-06-18 20:37:04","orig_title":"Ching sing","year":"1991-08-07","translations":["Любительский (одноголосый закадровый) (Акира)"],"quality":"bd","translation":"Любительский (одноголосый закадровый) (Акира)","update":"2020-06-24 07:18:10","iframe_src":"//8543.svetacdn.in/IAF0wWTdNYZm/movie/41273"},{"id":41272,"title":"Подлинная история заключённой: Сексуальный ад","kp_id":"325376","imdb_id":"tt0228461","world_art_id":null,"type":"movie","add":"2020-06-18 20:31:50","orig_title":"Jitsuroku onna kanbetsusho: Sei-jigoku","year":"1975-03-05","translations":["Авторский (одноголосый закадровый) (Воротилин Олег)"],"quality":"dvdrip","translation":"Авторский (одноголосый закадровый) (Воротилин Олег)","update":"2020-06-24 07:13:33","iframe_src":"//8543.svetacdn.in/IAF0wWTdNYZm/movie/41272"},{"id":41245,"title":"Продление рода","kp_id":"43293","imdb_id":"tt0095909","world_art_id":null,"type":"movie","add":"2020-06-17 08:50:45","orig_title":"Prodleniye roda","year":"1988-01-01","translations":["Оригинальная дорожка"],"quality":"tv","translation":"Оригинальная дорожка","update":"2020-06-23 08:51:22","iframe_src":"//8543.svetacdn.in/IAF0wWTdNYZm/movie/41245"},{"id":40538,"title":"Адам Стрэндж","kp_id":"1379461","imdb_id":"tt12272414","world_art_id":null,"type":"movie","add":"2020-05-19 20:19:36","orig_title":"Adam Strange","year":"2020-05-19","translations":["Любительский (многоголосый закадровый) (Синема УС)","Original (English)","Любительский (многоголосый закадровый) (NewStation)"],"quality":"bd","translation":"Любительский (многоголосый закадровый) (Синема УС)","update":"2020-06-22 19:29:36","iframe_src":"//8543.svetacdn.in/IAF0wWTdNYZm/movie/40538"},{"id":34563,"title":"Ип Ман 4","kp_id":"634254","imdb_id":"tt2076298","world_art_id":null,"type":"movie","add":"2019-12-28 23:20:39","orig_title":"Yip Man 4","year":"2019-12-20","translations":["Профессиональный (многоголосый закадровый) (HDrezka Studio)","Любительский (многоголосый закадровый) (AlphaProject)","Любительский (многоголосый закадровый) (WestFilm)","Авторский (одноголосый закадровый) (Есарев Дмитрий)"],"quality":"webdl","translation":"Профессиональный (многоголосый закадровый) (HDrezka Studio)","update":"2020-06-24 07:00:22","iframe_src":"//8543.svetacdn.in/IAF0wWTdNYZm/movie/34563"},{"id":34062,"title":"Призрачная шестёрка","kp_id":"1128272","imdb_id":"tt8106534","world_art_id":null,"type":"movie","add":"2019-12-13 11:03:01","orig_title":"6 Underground","year":"2019-12-13","translations":["Полное дублирование (Пифагор)","Original (English)","Профессиональный (многоголосый закадровый) (Jaskier)"],"quality":"webdl","translation":"Полное дублирование (Пифагор)","update":"2020-06-23 19:35:07","iframe_src":"//8543.svetacdn.in/IAF0wWTdNYZm/movie/34062"},{"id":32898,"title":"Кругосветное путешествие Элькано и Магеллана","kp_id":"1261546","imdb_id":"tt4991676","world_art_id":null,"type":"movie","add":"2019-11-11 08:02:36","orig_title":"Elcano y Magallanes. La primera vuelta al mundo","year":"2019-07-05","translations":["Полное дублирование","Полное дублирование"],"quality":"webdl","translation":"Полное дублирование","update":"2020-06-23 19:07:18","iframe_src":"//8543.svetacdn.in/IAF0wWTdNYZm/movie/32898"},{"id":27357,"title":"Мой особенный брат","kp_id":"1138900","imdb_id":"tt10237612","world_art_id":null,"type":"movie","add":"2019-06-02 20:53:07","orig_title":"Naui teukbyeolhan hyeongje","year":"2019-05-01","translations":["Любительский (многоголосый закадровый) (Колобок)","Любительский (многоголосый закадровый) (STEPonee)","Любительский (многоголосый закадровый) (STEPonee)"],"quality":"webdl","translation":"Любительский (многоголосый закадровый) (Колобок)","update":"2020-06-24 07:24:50","iframe_src":"//8543.svetacdn.in/IAF0wWTdNYZm/movie/27357"},{"id":1109,"title":"Я никогда не плачу","kp_id":"1009650","imdb_id":null,"world_art_id":null,"type":"serial","add":"2017-03-15 06:19:31","orig_title":"Я никогда не плачу","year":"2017-02-04","translations":["Оригинальная дорожка"],"seasons_count":1,"episodes_count":4,"episodes":4,"update":"2017-03-15 11:11:35","iframe_src":"//8543.svetacdn.in/IAF0wWTdNYZm/tv-series/1109"},{"id":1101,"title":"Товарищ Сталин","kp_id":"584031","imdb_id":"tt3769740","world_art_id":null,"type":"serial","add":"2017-03-14 07:46:37","orig_title":"Tovarishch Stalin","year":"2011-12-09","translations":["Оригинальная дорожка"],"seasons_count":1,"episodes_count":4,"episodes":4,"update":"2017-03-15 13:01:46","iframe_src":"//8543.svetacdn.in/IAF0wWTdNYZm/tv-series/1101"},{"id":1099,"title":"Дальнобойщики 3. Десять лет спустя","kp_id":"484371","imdb_id":"tt4586304","world_art_id":null,"type":"serial","add":"2017-03-13 12:15:28","orig_title":"Дальнобойщики. Десять лет спустя","year":"2012-01-28","translations":["Оригинальная дорожка"],"seasons_count":1,"episodes_count":12,"episodes":12,"update":"2017-03-15 12:48:10","iframe_src":"//8543.svetacdn.in/IAF0wWTdNYZm/tv-series/1099"},{"id":1098,"title":"Дальнобойщики 2","kp_id":"446052","imdb_id":"tt4178954","world_art_id":null,"type":"serial","add":"2017-03-13 12:10:05","orig_title":"Dalnoboyshiki dva","year":"2004-01-01","translations":["Оригинальная дорожка"],"seasons_count":1,"episodes_count":12,"episodes":12,"update":"2017-03-15 11:37:55","iframe_src":"//8543.svetacdn.in/IAF0wWTdNYZm/tv-series/1098"},{"id":1097,"title":"Дальнобойщики","kp_id":"94088","imdb_id":"tt0313055","world_art_id":null,"type":"serial","add":"2017-03-13 12:07:51","orig_title":"Dalnoboyshchiki","year":"2001-01-01","translations":["Оригинальная дорожка"],"seasons_count":1,"episodes_count":20,"episodes":20,"update":"2017-03-15 06:36:39","iframe_src":"//8543.svetacdn.in/IAF0wWTdNYZm/tv-series/1097"},{"id":1094,"title":"Охота на гауляйтера","kp_id":"648887","imdb_id":"tt2729386","world_art_id":null,"type":"serial","add":"2017-03-12 10:52:29","orig_title":"Okhota na gaulyaytera","year":"2012-11-05","translations":["Оригинальная дорожка"],"seasons_count":1,"episodes_count":10,"episodes":10,"update":"2017-03-13 05:27:36","iframe_src":"//8543.svetacdn.in/IAF0wWTdNYZm/tv-series/1094"},{"id":1093,"title":"Была тебе любимая…","kp_id":"581281","imdb_id":"tt3545092","world_art_id":null,"type":"serial","add":"2017-03-12 10:50:50","orig_title":"Byla tebe lyubimaya","year":"2011-10-25","translations":["Оригинальная дорожка"],"seasons_count":1,"episodes_count":4,"episodes":4,"update":"2017-03-13 04:48:49","iframe_src":"//8543.svetacdn.in/IAF0wWTdNYZm/tv-series/1093"},{"id":1092,"title":"Одинокие сердца","kp_id":"818297","imdb_id":null,"world_art_id":null,"type":"serial","add":"2017-03-12 10:48:41","orig_title":"Одинокие сердца","year":"2013-11-16","translations":["Оригинальная дорожка"],"seasons_count":1,"episodes_count":2,"episodes":2,"update":"2017-03-13 11:02:44","iframe_src":"//8543.svetacdn.in/IAF0wWTdNYZm/tv-series/1092"},{"id":1090,"title":"Тихая семейная жизнь","kp_id":"430458","imdb_id":"tt1411972","world_art_id":null,"type":"serial","add":"2017-03-10 05:32:43","orig_title":"Tikhaya semeynaya zhizn","year":"2008-12-25","translations":["Оригинальная дорожка"],"seasons_count":1,"episodes_count":2,"episodes":2,"update":"2017-03-10 06:20:35","iframe_src":"//8543.svetacdn.in/IAF0wWTdNYZm/tv-series/1090"},{"id":1089,"title":"Лесное трио","kp_id":"885604","imdb_id":"tt1892622","world_art_id":null,"type":"serial","add":"2017-03-10 05:28:36","orig_title":"Log Jam","year":"2008-01-01","translations":["Оригинальная дорожка"],"seasons_count":1,"episodes_count":5,"episodes":5,"update":"2017-03-10 06:27:01","iframe_src":"//8543.svetacdn.in/IAF0wWTdNYZm/tv-series/1089"},{"id":1088,"title":"Доктор Анна","kp_id":"992619","imdb_id":null,"world_art_id":null,"type":"serial","add":"2017-03-09 09:29:40","orig_title":"Доктор Анна","year":"2017-01-30","translations":["Оригинальная дорожка"],"seasons_count":1,"episodes_count":8,"episodes":8,"update":"2017-03-09 14:43:44","iframe_src":"//8543.svetacdn.in/IAF0wWTdNYZm/tv-series/1088"},{"id":1087,"title":"Чистый футбол","kp_id":"1009198","imdb_id":null,"world_art_id":null,"type":"serial","add":"2017-03-09 09:10:42","orig_title":"Чистый футбол","year":"2017-02-09","translations":["Оригинальная дорожка"],"seasons_count":1,"episodes_count":2,"episodes":2,"update":"2017-03-09 14:56:13","iframe_src":"//8543.svetacdn.in/IAF0wWTdNYZm/tv-series/1087"},{"id":1085,"title":"Интерны","kp_id":"501998","imdb_id":"tt1647423","world_art_id":null,"type":"serial","add":"2017-03-07 10:37:03","orig_title":"Interny","year":"2010-03-29","translations":["Оригинальная дорожка"],"seasons_count":4,"episodes_count":279,"episodes":98,"update":"2017-03-14 12:07:02","iframe_src":"//8543.svetacdn.in/IAF0wWTdNYZm/tv-series/1085"},{"id":1075,"title":"Плохие","kp_id":"485542","imdb_id":"tt1548850","world_art_id":null,"type":"serial","add":"2017-03-04 06:07:15","orig_title":"Misfits","year":"2009-11-12","translations":["Профессиональный (двухголосый закадровый) (Кубик в Кубе)"],"seasons_count":5,"episodes_count":38,"episodes":8,"update":"2017-03-13 09:51:34","iframe_src":"//8543.svetacdn.in/IAF0wWTdNYZm/tv-series/1075"},{"id":1064,"title":"Штрафник","kp_id":"958513","imdb_id":null,"world_art_id":null,"type":"serial","add":"2017-03-01 09:30:07","orig_title":"Штрафник","year":"2017-02-27","translations":["Оригинальная дорожка"],"seasons_count":1,"episodes_count":12,"episodes":12,"update":"2017-03-09 14:32:46","iframe_src":"//8543.svetacdn.in/IAF0wWTdNYZm/tv-series/1064"},{"id":1060,"title":"Екатерина","kp_id":"837646","imdb_id":"tt4231140","world_art_id":null,"type":"serial","add":"2017-02-28 13:55:39","orig_title":"Ekaterina","year":"2014-11-24","translations":["Оригинальная дорожка"],"seasons_count":1,"episodes_count":10,"episodes":10,"update":"2017-03-10 09:04:38","iframe_src":"//8543.svetacdn.in/IAF0wWTdNYZm/tv-series/1060"},{"id":1059,"title":"Екатерина. Взлет","kp_id":"992524","imdb_id":null,"world_art_id":null,"type":"serial","add":"2017-02-28 13:51:58","orig_title":"Екатерина. Взлет","year":"2017-02-27","translations":["Оригинальная дорожка"],"seasons_count":1,"episodes_count":12,"episodes":12,"update":"2017-03-09 14:36:25","iframe_src":"//8543.svetacdn.in/IAF0wWTdNYZm/tv-series/1059"},{"id":1058,"title":"Учитель в законе. Возвращение","kp_id":"712889","imdb_id":null,"world_art_id":null,"type":"serial","add":"2017-02-28 13:40:31","orig_title":"Учитель в законе. Возвращение","year":"2013-03-11","translations":["Оригинальная дорожка"],"seasons_count":1,"episodes_count":32,"episodes":32,"update":"2017-03-10 14:58:50","iframe_src":"//8543.svetacdn.in/IAF0wWTdNYZm/tv-series/1058"},{"id":1057,"title":"Учитель в законе. Схватка","kp_id":"841955","imdb_id":null,"world_art_id":null,"type":"serial","add":"2017-02-28 13:38:05","orig_title":"Учитель в законе. Схватка","year":"2017-02-27","translations":["Оригинальная дорожка"],"seasons_count":1,"episodes_count":16,"episodes":16,"update":"2017-03-13 12:04:06","iframe_src":"//8543.svetacdn.in/IAF0wWTdNYZm/tv-series/1057"},{"id":9619,"title":"Основатель","kp_id":"893245","imdb_id":"tt4276820","world_art_id":null,"type":"movie","add":"2017-02-12 08:57:01","orig_title":"The Founder","year":"2016-11-24","translations":["Любительский (многоголосый закадровый) (@MUZOBOZ@)","Профессиональный (многоголосый закадровый) (@MUZOBOZ@)","Профессиональный (многоголосый закадровый) (Jaskier)","Профессиональный (многоголосый закадровый) (AlexFilm)","Полное дублирование (iTunes)"],"quality":"dvdscr","translation":"Любительский (многоголосый закадровый) (@MUZOBOZ@)","update":"2020-06-24 06:35:05","iframe_src":"//8543.svetacdn.in/IAF0wWTdNYZm/movie/9619"},{"id":364,"title":"Бэтмен против Супермена: На заре справедливости","kp_id":"770631","imdb_id":"tt2975590","world_art_id":null,"type":"movie","add":"2016-03-30 13:49:09","orig_title":"Batman v Superman: Dawn of Justice","year":"2016-03-19","translations":["Полное дублирование","Полное дублирование"],"quality":"bd","translation":"Полное дублирование","update":"2020-06-23 18:52:40","iframe_src":"//8543.svetacdn.in/IAF0wWTdNYZm/movie/364"},{"id":16,"title":"Дневники вампира","kp_id":"453191","imdb_id":"tt1405406","world_art_id":null,"type":"serial","add":"2016-03-13 10:01:46","orig_title":"The Vampire Diaries","year":"2009-09-10","translations":["Профессиональный (многоголосый закадровый) (LostFilm)"],"seasons_count":8,"episodes_count":171,"episodes":16,"update":"2017-03-13 11:08:53","iframe_src":"//8543.svetacdn.in/IAF0wWTdNYZm/tv-series/16"}],"current_page":469,"first_page_url":"https://videocdn.tv/api/short?limit=100&api_token=6Onb1W1alEUrBcKJZD3GoKBbWyAl2uG2&cache3469=3469&page=1","from":46801,"last_page":602,"last_page_url":"https://videocdn.tv/api/short?limit=100&api_token=6Onb1W1alEUrBcKJZD3GoKBbWyAl2uG2&cache3469=3469&page=602","next_page_url":"https://videocdn.tv/api/short?limit=100&api_token=6Onb1W1alEUrBcKJZD3GoKBbWyAl2uG2&cache3469=3469&page=470","path":"https://videocdn.tv/api/short","per_page":100,"prev_page_url":"https://videocdn.tv/api/short?limit=100&api_token=6Onb1W1alEUrBcKJZD3GoKBbWyAl2uG2&cache3469=3469&page=468","to":46840,"total":60177}