{"result":true,"data":[{"id":32224,"title":"Любовь и наркотики","kp_id":"1119976","imdb_id":"tt7816974","world_art_id":null,"type":"movie","add":"2019-10-21 21:39:48","orig_title":"Love & Drugs","year":"2018-09-01","translations":["Любительский (многоголосый закадровый) (Синема УС)"],"quality":"webdl","translation":"Любительский (многоголосый закадровый) (Синема УС)","update":"2019-10-22 17:19:48","iframe_src":"//5322.svetacdn.in/71tsRs29n5tZ/movie/32224"},{"id":32221,"title":"Помогите! Мой частный детектив - идиот!","kp_id":"917982","imdb_id":"tt4789670","world_art_id":null,"type":"movie","add":"2019-10-21 21:26:28","orig_title":"Help! My Gumshoe's an Idiot!","year":"2016-02-01","translations":["Профессиональный (многоголосый закадровый) (AlphaProject)"],"quality":"webdl","translation":"Профессиональный (многоголосый закадровый) (AlphaProject)","update":"2019-10-23 05:09:01","iframe_src":"//5322.svetacdn.in/71tsRs29n5tZ/movie/32221"},{"id":32220,"title":"Поздний арест","kp_id":"1161564","imdb_id":"tt6034164","world_art_id":null,"type":"movie","add":"2019-10-21 21:04:43","orig_title":"Arrest Letter","year":"2017-06-25","translations":["Любительский (многоголосый закадровый) (Синема УС)"],"quality":"webdl","translation":"Любительский (многоголосый закадровый) (Синема УС)","update":"2019-10-23 05:08:06","iframe_src":"//5322.svetacdn.in/71tsRs29n5tZ/movie/32220"},{"id":32215,"title":"Верь","kp_id":null,"imdb_id":"tt7399140","world_art_id":null,"type":"movie","add":"2019-10-21 20:05:33","orig_title":"Believe","year":"2019-02-12","translations":["Профессиональный (многоголосый закадровый) (AlphaProject)"],"quality":"webdl","translation":"Профессиональный (многоголосый закадровый) (AlphaProject)","update":"2019-10-22 20:06:55","iframe_src":"//5322.svetacdn.in/71tsRs29n5tZ/movie/32215"},{"id":32212,"title":"Секс и убийцы","kp_id":"1149216","imdb_id":"tt7481192","world_art_id":null,"type":"movie","add":"2019-10-21 19:56:20","orig_title":"Sex and Assassins","year":"2017-10-01","translations":["Любительский (многоголосый закадровый) (Синема УС)"],"quality":"webdl","translation":"Любительский (многоголосый закадровый) (Синема УС)","update":"2019-10-22 20:04:54","iframe_src":"//5322.svetacdn.in/71tsRs29n5tZ/movie/32212"},{"id":32211,"title":"Робин Гуд: Возрождение легенды","kp_id":"1297083","imdb_id":"tt9218144","world_art_id":null,"type":"movie","add":"2019-10-21 19:54:24","orig_title":"Robin Hood: The Legend Begins","year":"2018-10-25","translations":["Любительский (многоголосый закадровый) (Синема УС)"],"quality":"webdl","translation":"Любительский (многоголосый закадровый) (Синема УС)","update":"2019-10-22 20:04:22","iframe_src":"//5322.svetacdn.in/71tsRs29n5tZ/movie/32211"},{"id":32209,"title":"Останься","kp_id":"1099723","imdb_id":null,"world_art_id":null,"type":"movie","add":"2019-10-21 19:50:41","orig_title":"Stay","year":"2017-12-01","translations":["Любительский (многоголосый закадровый) (Синема УС)"],"quality":"webdl","translation":"Любительский (многоголосый закадровый) (Синема УС)","update":"2019-10-22 20:02:59","iframe_src":"//5322.svetacdn.in/71tsRs29n5tZ/movie/32209"},{"id":32207,"title":"Чудо в Брайтоне","kp_id":"1300217","imdb_id":"tt10901588","world_art_id":null,"type":"movie","add":"2019-10-21 19:46:23","orig_title":"The Brighton Miracle","year":"2019-09-11","translations":["Любительский (многоголосый закадровый) (Синема УС)"],"quality":"webdl","translation":"Любительский (многоголосый закадровый) (Синема УС)","update":"2019-10-22 20:01:28","iframe_src":"//5322.svetacdn.in/71tsRs29n5tZ/movie/32207"},{"id":32206,"title":"Красная весна","kp_id":"844573","imdb_id":"tt3894094","world_art_id":null,"type":"movie","add":"2019-10-21 19:44:18","orig_title":"Red Spring","year":"2017-11-23","translations":["Любительский (многоголосый закадровый) (Синема УС)"],"quality":"webdl","translation":"Любительский (многоголосый закадровый) (Синема УС)","update":"2019-10-22 20:00:56","iframe_src":"//5322.svetacdn.in/71tsRs29n5tZ/movie/32206"},{"id":32205,"title":"Раз-два-три — вперёд!","kp_id":"969827","imdb_id":"tt5571230","world_art_id":null,"type":"movie","add":"2019-10-21 19:34:40","orig_title":"En-to-tre-nu!","year":"2016-05-04","translations":["Профессиональный (многоголосый закадровый) (Культура)"],"quality":"webdl","translation":"Профессиональный (многоголосый закадровый) (Культура)","update":"2019-10-23 05:10:06","iframe_src":"//5322.svetacdn.in/71tsRs29n5tZ/movie/32205"},{"id":32199,"title":"Линейная история","kp_id":"1004173","imdb_id":"tt5981110","world_art_id":null,"type":"movie","add":"2019-10-21 18:50:12","orig_title":"Once Upon a Line","year":"2016-11-10","translations":["Оригинальная дорожка"],"quality":"webdl","translation":"Оригинальная дорожка","update":"2019-10-23 05:11:23","iframe_src":"//5322.svetacdn.in/71tsRs29n5tZ/movie/32199"},{"id":32192,"title":"Жёлтый — хит сезона","kp_id":"1226597","imdb_id":"tt9227936","world_art_id":null,"type":"movie","add":"2019-10-21 17:50:20","orig_title":"Yellow is the New Black","year":"2018-11-22","translations":["Авторский (одноголосый закадровый) (Воронцов Владимир | Доцент)"],"quality":"bd","translation":"Авторский (одноголосый закадровый) (Воронцов Владимир | Доцент)","update":"2019-10-23 05:06:45","iframe_src":"//5322.svetacdn.in/71tsRs29n5tZ/movie/32192"},{"id":32155,"title":"Никаких детей, малыш!","kp_id":"984709","imdb_id":"tt5639176","world_art_id":null,"type":"movie","add":"2019-10-20 15:51:20","orig_title":"Ich will (k)ein Kind von Dir","year":"2016-11-03","translations":["Профессиональный (многоголосый закадровый) (FOX)"],"quality":"hdtv","translation":"Профессиональный (многоголосый закадровый) (FOX)","update":"2019-10-23 05:12:02","iframe_src":"//5322.svetacdn.in/71tsRs29n5tZ/movie/32155"},{"id":32105,"title":"Рожденные в Китае","kp_id":"894038","imdb_id":"tt4629266","world_art_id":null,"type":"movie","add":"2019-10-20 12:56:03","orig_title":"Born in China","year":"2016-08-05","translations":["Любительский (одноголосый закадровый)"],"quality":"bd","translation":"Любительский (одноголосый закадровый)","update":"2019-10-23 05:13:35","iframe_src":"//5322.svetacdn.in/71tsRs29n5tZ/movie/32105"},{"id":32019,"title":"Обезьяна зимой","kp_id":"54363","imdb_id":"tt0056636","world_art_id":null,"type":"movie","add":"2019-10-18 18:35:14","orig_title":"Un singe en hiver","year":"1962-05-11","translations":["Профессиональный (многоголосый закадровый) (5-й канал СПб)"],"quality":"bd","translation":"Профессиональный (многоголосый закадровый) (5-й канал СПб)","update":"2019-10-23 05:22:32","iframe_src":"//5322.svetacdn.in/71tsRs29n5tZ/movie/32019"},{"id":32015,"title":"Восхождение на Фудзияму","kp_id":"45848","imdb_id":"tt0175309","world_art_id":null,"type":"movie","add":"2019-10-18 18:31:25","orig_title":"Voskhozhdenie na Fudziyamu","year":"1989-01-12","translations":["Оригинальная дорожка"],"quality":"sat","translation":"Оригинальная дорожка","update":"2019-10-23 05:21:40","iframe_src":"//5322.svetacdn.in/71tsRs29n5tZ/movie/32015"},{"id":32014,"title":"Влюбленная Бао Бэй","kp_id":"82701","imdb_id":"tt0415116","world_art_id":null,"type":"movie","add":"2019-10-18 18:28:22","orig_title":"Lian ai zhong de Bao Bei","year":"2004-02-10","translations":["Любительский (одноголосый закадровый) (Береговых Виктор | Jet)"],"quality":"dvdrip","translation":"Любительский (одноголосый закадровый) (Береговых Виктор | Jet)","update":"2019-10-23 05:20:37","iframe_src":"//5322.svetacdn.in/71tsRs29n5tZ/movie/32014"},{"id":32013,"title":"Влюбленные женщины","kp_id":"17531","imdb_id":"tt0066579","world_art_id":null,"type":"movie","add":"2019-10-18 18:25:42","orig_title":"Women in Love","year":"1969-11-13","translations":["Профессиональный (многоголосый закадровый) (DVD Магия)"],"quality":"bd","translation":"Профессиональный (многоголосый закадровый) (DVD Магия)","update":"2019-10-23 05:19:53","iframe_src":"//5322.svetacdn.in/71tsRs29n5tZ/movie/32013"},{"id":32012,"title":"В раю с блондинкой","kp_id":"35997","imdb_id":"tt0112525","world_art_id":null,"type":"movie","add":"2019-10-18 18:23:18","orig_title":"Blonde Heaven","year":"1995-10-06","translations":["Авторский (одноголосый закадровый) (Володарский Леонид)"],"quality":"dvdrip","translation":"Авторский (одноголосый закадровый) (Володарский Леонид)","update":"2019-10-23 05:17:46","iframe_src":"//5322.svetacdn.in/71tsRs29n5tZ/movie/32012"},{"id":29742,"title":"Стена плоти: Винтажная комедия","kp_id":"962597","imdb_id":"tt5003178","world_art_id":null,"type":"movie","add":"2019-08-04 17:44:06","orig_title":"Wall of Flesh: A Vintage Comedy","year":"2019-04-20","translations":["Любительский (многоголосый закадровый) (@MUZOBOZ@)","Профессиональный (многоголосый закадровый) (AlphaProject)"],"quality":"webdl","translation":"Любительский (многоголосый закадровый) (@MUZOBOZ@)","update":"2019-10-22 17:16:58","iframe_src":"//5322.svetacdn.in/71tsRs29n5tZ/movie/29742"}],"current_page":1126,"first_page_url":"https://videocdn.tv/api/short?limit=100&api_token=EnbO9h8pv1VyjbCJhg0WM9nG259n7mtz&cache31126=31126&page=1","from":112501,"last_page":631,"last_page_url":"https://videocdn.tv/api/short?limit=100&api_token=EnbO9h8pv1VyjbCJhg0WM9nG259n7mtz&cache31126=31126&page=631","next_page_url":null,"path":"https://videocdn.tv/api/short","per_page":100,"prev_page_url":"https://videocdn.tv/api/short?limit=100&api_token=EnbO9h8pv1VyjbCJhg0WM9nG259n7mtz&cache31126=31126&page=1125","to":112520,"total":63081}