{"result":true,"data":[{"id":51191,"title":"Всё, что тебе нужно — это любовь","kp_id":"4395216","imdb_id":"tt14150116","world_art_id":null,"type":"movie","add":"2021-06-15 05:44:51","orig_title":"All U Need Is Love","year":"2021-04-22","translations":["Любительский (многоголосый закадровый) (Синема УС)"],"quality":"webdl","translation":"Любительский (многоголосый закадровый) (Синема УС)","update":"2021-06-15 10:43:22","iframe_src":"//5091.svetacdn.in/si4jsFRrtgrT/movie/51191"},{"id":51190,"title":"Тролль-людоед","kp_id":"1373909","imdb_id":"tt12176546","world_art_id":null,"type":"movie","add":"2021-06-15 05:43:25","orig_title":"Cannibal Troll","year":"2021-06-06","translations":["Любительский (многоголосый закадровый) (Синема УС)"],"quality":"webdl","translation":"Любительский (многоголосый закадровый) (Синема УС)","update":"2021-06-15 10:43:08","iframe_src":"//5091.svetacdn.in/si4jsFRrtgrT/movie/51190"},{"id":51188,"title":"Тише...тише, милая Шарлотта","kp_id":"13361","imdb_id":"tt0058213","world_art_id":null,"type":"movie","add":"2021-06-15 05:38:31","orig_title":"Hush...Hush, Sweet Charlotte","year":"1964-12-16","translations":["Профессиональный (многоголосый закадровый) (5-й канал СПб)"],"quality":"bd","translation":"Профессиональный (многоголосый закадровый) (5-й канал СПб)","update":"2021-06-15 11:08:06","iframe_src":"//5091.svetacdn.in/si4jsFRrtgrT/movie/51188"},{"id":51187,"title":"Пиявки","kp_id":"1085781","imdb_id":"tt6827140","world_art_id":null,"type":"movie","add":"2021-06-15 05:37:05","orig_title":"Pijavice","year":"2019-09-19","translations":["Любительский (многоголосый закадровый) (Синема УС)"],"quality":"webdl","translation":"Любительский (многоголосый закадровый) (Синема УС)","update":"2021-06-15 10:41:31","iframe_src":"//5091.svetacdn.in/si4jsFRrtgrT/movie/51187"},{"id":51186,"title":"Безимянный фильм ужасов","kp_id":"1399895","imdb_id":"tt12624584","world_art_id":null,"type":"movie","add":"2021-06-15 05:34:13","orig_title":"Untitled Horror Movie","year":"2021-06-15","translations":["Любительский (многоголосый закадровый) (Синема УС)"],"quality":"webdl","translation":"Любительский (многоголосый закадровый) (Синема УС)","update":"2021-06-15 10:40:47","iframe_src":"//5091.svetacdn.in/si4jsFRrtgrT/movie/51186"},{"id":50507,"title":"Однажды в Гонконге","kp_id":"4407497","imdb_id":null,"world_art_id":null,"type":"movie","add":"2021-05-20 08:43:23","orig_title":"Gam cin dai gwok: zeoi fu kam lung","year":"2021-04-28","translations":["Любительский (двухголосый закадровый) (Колобок)","Любительский (двухголосый закадровый) (Колобок)"],"quality":"ts","translation":"Любительский (двухголосый закадровый) (Колобок)","update":"2021-06-15 10:41:51","iframe_src":"//5091.svetacdn.in/si4jsFRrtgrT/movie/50507"},{"id":50110,"title":"Остров Солнца","kp_id":"15232","imdb_id":"tt0050549","world_art_id":null,"type":"movie","add":"2021-05-04 10:20:38","orig_title":"Island in the Sun","year":"1957-06-12","translations":["Любительский (одноголосый закадровый) (minyaev)","Original (English)"],"quality":"webdl","translation":"Любительский (одноголосый закадровый) (minyaev)","update":"2021-06-15 14:18:01","iframe_src":"//5091.svetacdn.in/si4jsFRrtgrT/movie/50110"},{"id":50092,"title":"Остров сокровищ","kp_id":"10460","imdb_id":"tt0025907","world_art_id":null,"type":"movie","add":"2021-05-03 14:37:55","orig_title":"Treasure Island","year":"1934-08-17","translations":["Профессиональный (многоголосый закадровый) (Светла)","Original (English)"],"quality":"webdl","translation":"Профессиональный (многоголосый закадровый) (Светла)","update":"2021-06-15 14:07:40","iframe_src":"//5091.svetacdn.in/si4jsFRrtgrT/movie/50092"},{"id":50053,"title":"Цвета любви","kp_id":"1436079","imdb_id":"tt13273728","world_art_id":null,"type":"movie","add":"2021-05-02 11:42:27","orig_title":"Colors of Love","year":"2021-02-05","translations":["Любительский (многоголосый закадровый) (Синема УС)","Полное дублирование (iTunes)","Original (English)"],"quality":"webdl","translation":"Любительский (многоголосый закадровый) (Синема УС)","update":"2021-06-15 14:23:29","iframe_src":"//5091.svetacdn.in/si4jsFRrtgrT/movie/50053"},{"id":50047,"title":"Царек Хан","kp_id":"28802","imdb_id":"tt0051219","world_art_id":null,"type":"movie","add":"2021-05-02 08:48:03","orig_title":"Zarak","year":"1956-12-12","translations":["Профессиональный (многоголосый закадровый)","Original (English)"],"quality":"webdl","translation":"Профессиональный (многоголосый закадровый)","update":"2021-06-15 13:35:32","iframe_src":"//5091.svetacdn.in/si4jsFRrtgrT/movie/50047"},{"id":50041,"title":"Грустная песня","kp_id":"27250","imdb_id":"tt0046446","world_art_id":null,"type":"movie","add":"2021-05-02 08:22:06","orig_title":"Torch Song","year":"1953-10-01","translations":["Профессиональный (многоголосый закадровый) (СТС)","Original (English)"],"quality":"webdl","translation":"Профессиональный (многоголосый закадровый) (СТС)","update":"2021-06-15 14:08:42","iframe_src":"//5091.svetacdn.in/si4jsFRrtgrT/movie/50041"},{"id":49988,"title":"Частная жизнь Дон Жуана","kp_id":"17889","imdb_id":"tt0025681","world_art_id":null,"type":"movie","add":"2021-04-29 05:54:14","orig_title":"The Private Life of Don Juan","year":"1934-08-20","translations":["Профессиональный (многоголосый закадровый) (Светла)","Original (English)"],"quality":"webdl","translation":"Профессиональный (многоголосый закадровый) (Светла)","update":"2021-06-15 14:15:38","iframe_src":"//5091.svetacdn.in/si4jsFRrtgrT/movie/49988"},{"id":49861,"title":"Хрустальный башмачок","kp_id":"17871","imdb_id":"tt0048124","world_art_id":null,"type":"movie","add":"2021-04-24 16:06:10","orig_title":"The Glass Slipper","year":"1955-03-24","translations":["Профессиональный (многоголосый закадровый) (Фильмэкспорт)","Original (English)"],"quality":"webdl","translation":"Профессиональный (многоголосый закадровый) (Фильмэкспорт)","update":"2021-06-15 14:16:45","iframe_src":"//5091.svetacdn.in/si4jsFRrtgrT/movie/49861"},{"id":49755,"title":"В Земле","kp_id":"1446828","imdb_id":"tt13429362","world_art_id":null,"type":"movie","add":"2021-04-20 19:17:29","orig_title":"In the Earth","year":"2021-01-29","translations":["Любительский (многоголосый закадровый) (Синема УС)","Профессиональный (двухголосый закадровый) (Pazl Voice)","Original (English)"],"quality":"webdl","translation":"Любительский (многоголосый закадровый) (Синема УС)","update":"2021-06-15 14:19:41","iframe_src":"//5091.svetacdn.in/si4jsFRrtgrT/movie/49755"},{"id":49667,"title":"Пункт назначения — Токио","kp_id":"1002","imdb_id":"tt0035799","world_art_id":null,"type":"movie","add":"2021-04-17 16:49:23","orig_title":"Destination Tokyo","year":"1943-12-15","translations":["Авторский (одноголосый закадровый) (Живов Юрий)","Original (English)"],"quality":"webdl","translation":"Авторский (одноголосый закадровый) (Живов Юрий)","update":"2021-06-15 14:22:23","iframe_src":"//5091.svetacdn.in/si4jsFRrtgrT/movie/49667"},{"id":49036,"title":"Культовые тусовщики","kp_id":"1254643","imdb_id":"tt5693182","world_art_id":null,"type":"movie","add":"2021-03-23 21:02:58","orig_title":"Creation Stories","year":"2021-02-24","translations":["Любительский (многоголосый закадровый) (@MUZOBOZ@)","Original (English)","Полное дублирование"],"quality":"webdl","translation":"Любительский (многоголосый закадровый) (@MUZOBOZ@)","update":"2021-06-15 10:42:55","iframe_src":"//5091.svetacdn.in/si4jsFRrtgrT/movie/49036"},{"id":48560,"title":"Ад раскрылся","kp_id":"30763","imdb_id":"tt0033704","world_art_id":null,"type":"movie","add":"2021-03-08 14:57:20","orig_title":"Hellzapoppin'","year":"1941-12-25","translations":["Профессиональный (многоголосый закадровый) (РенТВ)","Original (English)"],"quality":"webdl","translation":"Профессиональный (многоголосый закадровый) (РенТВ)","update":"2021-06-15 14:21:22","iframe_src":"//5091.svetacdn.in/si4jsFRrtgrT/movie/48560"},{"id":48237,"title":"100 дней на жизнь","kp_id":"1302140","imdb_id":"tt10949778","world_art_id":null,"type":"movie","add":"2021-02-25 05:39:40","orig_title":"100 Days to Live","year":"2019-10-17","translations":["Любительский (многоголосый закадровый) (@MUZOBOZ@)","Original (English)","Полное дублирование (iTunes)"],"quality":"webdl","translation":"Любительский (многоголосый закадровый) (@MUZOBOZ@)","update":"2021-06-15 11:05:38","iframe_src":"//5091.svetacdn.in/si4jsFRrtgrT/movie/48237"},{"id":8642,"title":"Конец света","kp_id":"933268","imdb_id":"tt2354851","world_art_id":null,"type":"serial","add":"2020-09-06 21:24:37","orig_title":"Heimsendir","year":"2011-10-02","translations":["Любительский (многоголосый закадровый) (WestFilm)"],"seasons_count":1,"episodes_count":9,"episodes":9,"update":"2020-09-07 07:31:35","iframe_src":"//5091.svetacdn.in/si4jsFRrtgrT/tv-series/8642"},{"id":8640,"title":"Киберотдел","kp_id":"1145664","imdb_id":"tt7781874","world_art_id":null,"type":"serial","add":"2020-09-06 14:32:00","orig_title":"eLegal","year":"2018-01-13","translations":["Любительский (многоголосый закадровый) (WestFilm)"],"seasons_count":1,"episodes_count":10,"episodes":10,"update":"2020-09-06 20:24:42","iframe_src":"//5091.svetacdn.in/si4jsFRrtgrT/tv-series/8640"},{"id":8635,"title":"Яркие краски осени","kp_id":"1330107","imdb_id":null,"world_art_id":null,"type":"serial","add":"2020-09-06 07:59:25","orig_title":"Яркие краски осени","year":"2020-09-05","translations":["Оригинальная дорожка"],"seasons_count":1,"episodes_count":2,"episodes":2,"update":"2020-09-06 12:58:26","iframe_src":"//5091.svetacdn.in/si4jsFRrtgrT/tv-series/8635"},{"id":8634,"title":"Отель Алмиранте","kp_id":null,"imdb_id":"tt4566672","world_art_id":null,"type":"serial","add":"2020-09-06 07:32:34","orig_title":"Hotel Almirante","year":"2015-01-01","translations":["Любительский (многоголосый закадровый) (WestFilm)"],"seasons_count":1,"episodes_count":4,"episodes":4,"update":"2020-09-07 08:17:15","iframe_src":"//5091.svetacdn.in/si4jsFRrtgrT/tv-series/8634"},{"id":8632,"title":"Враньё","kp_id":"840118","imdb_id":"tt3668326","world_art_id":null,"type":"serial","add":"2020-09-06 05:03:02","orig_title":"Mensonges","year":"2014-03-13","translations":["Любительский (многоголосый закадровый) (WestFilm)"],"seasons_count":1,"episodes_count":10,"episodes":10,"update":"2020-09-06 20:36:55","iframe_src":"//5091.svetacdn.in/si4jsFRrtgrT/tv-series/8632"},{"id":8626,"title":"Инопланетное ТВ","kp_id":null,"imdb_id":"tt12765530","world_art_id":null,"type":"serial","add":"2020-09-05 08:35:07","orig_title":"Alien TV","year":"2020-08-21","translations":["Профессиональный (одноголосый закадровый) (Netflix)"],"seasons_count":1,"episodes_count":13,"episodes":13,"update":"2020-09-05 15:36:22","iframe_src":"//5091.svetacdn.in/si4jsFRrtgrT/tv-series/8626"},{"id":8624,"title":"Приключения медвежонка Расмуса","kp_id":"1205435","imdb_id":"tt6609746","world_art_id":null,"type":"serial","add":"2020-09-05 07:26:40","orig_title":"Klump","year":"2018-09-15","translations":["Профессиональный (многоголосый закадровый)"],"seasons_count":1,"episodes_count":13,"episodes":13,"update":"2020-09-06 08:02:30","iframe_src":"//5091.svetacdn.in/si4jsFRrtgrT/tv-series/8624"},{"id":8598,"title":"Достаточно одной надежды","kp_id":"1197151","imdb_id":"tt9049036","world_art_id":null,"type":"serial","add":"2020-09-01 10:42:28","orig_title":"Bir Umut Yeter","year":"2018-09-27","translations":["Любительский (одноголосый закадровый) (Гайдаржи Анастасия)"],"seasons_count":1,"episodes_count":6,"episodes":6,"update":"2020-09-06 20:01:59","iframe_src":"//5091.svetacdn.in/si4jsFRrtgrT/tv-series/8598"},{"id":8597,"title":"Дениз в моём сердце","kp_id":"1047619","imdb_id":"tt6345486","world_art_id":null,"type":"serial","add":"2020-09-01 10:21:36","orig_title":"Kalbimdeki Deniz","year":"2016-10-22","translations":["Любительский (одноголосый закадровый)"],"seasons_count":2,"episodes_count":60,"episodes":26,"update":"2020-09-06 08:21:42","iframe_src":"//5091.svetacdn.in/si4jsFRrtgrT/tv-series/8597"},{"id":8553,"title":"Голодные призраки","kp_id":null,"imdb_id":"tt10438052","world_art_id":null,"type":"serial","add":"2020-08-27 19:45:43","orig_title":"Hungry Ghosts","year":"2020-08-24","translations":["Профессиональный (многоголосый закадровый) (NewStudio)"],"seasons_count":1,"episodes_count":4,"episodes":4,"update":"2020-09-06 09:10:21","iframe_src":"//5091.svetacdn.in/si4jsFRrtgrT/tv-series/8553"},{"id":8519,"title":"Лихач","kp_id":"1200027","imdb_id":"tt12061416","world_art_id":null,"type":"serial","add":"2020-08-24 13:08:41","orig_title":"Lihach","year":"2020-08-24","translations":["Оригинальная дорожка"],"seasons_count":1,"episodes_count":20,"episodes":20,"update":"2020-09-06 09:25:24","iframe_src":"//5091.svetacdn.in/si4jsFRrtgrT/tv-series/8519"},{"id":8172,"title":"Проклятая","kp_id":"1190066","imdb_id":"tt8210856","world_art_id":null,"type":"serial","add":"2020-07-17 08:35:34","orig_title":"Cursed","year":"2020-07-17","translations":["Полное дублирование (Пифагор)","Любительский (многоголосый закадровый) (ColdFilm)","Любительский (многоголосый закадровый) (Octopus)","Профессиональный (многоголосый закадровый) (HDrezka Studio)","Профессиональный (многоголосый закадровый) (LostFilm)","Профессиональный (многоголосый закадровый) (BaibaKo)","Профессиональный (многоголосый закадровый) (NewStudio)","Любительский (многоголосый закадровый) (WestFilm)"],"seasons_count":1,"episodes_count":10,"episodes":10,"update":"2020-09-05 18:48:29","iframe_src":"//5091.svetacdn.in/si4jsFRrtgrT/tv-series/8172"},{"id":8148,"title":"Жаркий лед","kp_id":"433802","imdb_id":"tt1712316","world_art_id":null,"type":"serial","add":"2020-07-13 11:55:32","orig_title":"Zharkiy led","year":"2009-01-03","translations":["Оригинальная дорожка"],"seasons_count":1,"episodes_count":100,"episodes":100,"update":"2020-09-07 08:43:28","iframe_src":"//5091.svetacdn.in/si4jsFRrtgrT/tv-series/8148"},{"id":5805,"title":"Искатели сокровищ","kp_id":"846937","imdb_id":"tt4082744","world_art_id":null,"type":"serial","add":"2019-11-22 12:15:18","orig_title":"Detectorists","year":"2014-02-10","translations":["Любительский (многоголосый закадровый)","Профессиональный (многоголосый закадровый) (Ozz.tv)","Любительский (одноголосый закадровый)"],"seasons_count":3,"episodes_count":19,"episodes":6,"update":"2020-09-05 14:07:41","iframe_src":"//5091.svetacdn.in/si4jsFRrtgrT/tv-series/5805"},{"id":4465,"title":"Наша планета","kp_id":"1235081","imdb_id":"tt9253866","world_art_id":null,"type":"serial","add":"2019-05-07 13:13:47","orig_title":"Our Planet","year":"2019-04-05","translations":["Профессиональный (многоголосый закадровый) (TVShows)","Профессиональный (многоголосый закадровый) (HDrezka Studio)","Профессиональный (одноголосый закадровый) (АРК-ТВ Studio)"],"seasons_count":1,"episodes_count":8,"episodes":8,"update":"2020-09-06 09:25:17","iframe_src":"//5091.svetacdn.in/si4jsFRrtgrT/tv-series/4465"},{"id":4123,"title":"Прорыв в Кремниевой долине","kp_id":"1128865","imdb_id":"tt7768092","world_art_id":null,"type":"serial","add":"2019-02-20 12:31:23","orig_title":"Valley of the Boom","year":"2019-01-13","translations":["Профессиональный (многоголосый закадровый) (NewStudio)","Профессиональный (многоголосый закадровый) (HDrezka Studio)","Профессиональный (многоголосый закадровый) (Jaskier)"],"seasons_count":1,"episodes_count":6,"episodes":6,"update":"2020-09-06 09:56:44","iframe_src":"//5091.svetacdn.in/si4jsFRrtgrT/tv-series/4123"},{"id":3711,"title":"Страна приливов","kp_id":"1118017","imdb_id":"tt6898970","world_art_id":null,"type":"serial","add":"2018-12-16 14:06:27","orig_title":"Tidelands","year":"2018-12-14","translations":["Профессиональный (многоголосый закадровый) (IdeaFilm)","Профессиональный (многоголосый закадровый) (LostFilm)","Профессиональный (многоголосый закадровый) (HDrezka Studio)","Профессиональный (двухголосый закадровый) (Gears Media)","Профессиональный (многоголосый закадровый) (OMSKBIRD records)","Профессиональный (многоголосый закадровый) (Profix Media)"],"seasons_count":1,"episodes_count":8,"episodes":8,"update":"2020-09-06 09:43:48","iframe_src":"//5091.svetacdn.in/si4jsFRrtgrT/tv-series/3711"},{"id":3530,"title":"Побег из тюрьмы Даннемора","kp_id":"1046051","imdb_id":"tt6866266","world_art_id":null,"type":"serial","add":"2018-11-19 08:45:55","orig_title":"Escape at Dannemora","year":"2018-10-15","translations":["Профессиональный (многоголосый закадровый) (IdeaFilm)","Профессиональный (многоголосый закадровый) (LostFilm)","Профессиональный (многоголосый закадровый) (HDrezka Studio)","Профессиональный (двухголосый закадровый) (Gears Media)","Профессиональный (многоголосый закадровый) (BaibaKo)","Профессиональный (многоголосый закадровый) (Jaskier)","Профессиональный (многоголосый закадровый) (NewStudio)","Профессиональный (многоголосый закадровый) (Kansai)","Профессиональный (многоголосый закадровый) (SDI Media)"],"seasons_count":1,"episodes_count":7,"episodes":7,"update":"2020-09-06 08:53:04","iframe_src":"//5091.svetacdn.in/si4jsFRrtgrT/tv-series/3530"},{"id":17562,"title":"Когда зовет сердце","kp_id":"677955","imdb_id":"tt2362991","world_art_id":null,"type":"movie","add":"2018-07-04 11:05:52","orig_title":"When Calls the Heart","year":"2013-10-19","translations":["Любительский (двухголосый закадровый)","Любительский (двухголосый закадровый) (RedDiamond Studio)","Original (English)"],"quality":"webdl","translation":"Любительский (двухголосый закадровый)","update":"2021-06-15 13:52:10","iframe_src":"//5091.svetacdn.in/si4jsFRrtgrT/movie/17562"},{"id":1956,"title":"Роузхейвен","kp_id":"1111907","imdb_id":"tt5226698","world_art_id":null,"type":"serial","add":"2018-01-15 20:21:30","orig_title":"Rosehaven","year":"2016-10-12","translations":["Любительский (двухголосый закадровый) (GoldTeam)","Любительский (многоголосый закадровый) (GreenРай Studio)","Любительский (двухголосый закадровый) (KosharaSerials)","Любительский (многоголосый закадровый) (WestFilm)"],"seasons_count":4,"episodes_count":26,"episodes":8,"update":"2020-09-06 09:19:13","iframe_src":"//5091.svetacdn.in/si4jsFRrtgrT/tv-series/1956"},{"id":1607,"title":"Она же Грэйс","kp_id":"463366","imdb_id":"tt1034007","world_art_id":null,"type":"serial","add":"2017-10-08 10:07:17","orig_title":"Alias Grace","year":"2017-09-25","translations":["Любительский (двухголосый закадровый) (Sunshine Studio)","Профессиональный (многоголосый закадровый) (LostFilm)"],"seasons_count":1,"episodes_count":6,"episodes":6,"update":"2020-09-07 07:05:41","iframe_src":"//5091.svetacdn.in/si4jsFRrtgrT/tv-series/1607"},{"id":7443,"title":"Ограбление по-английски","kp_id":"6357","imdb_id":"tt0253126","world_art_id":null,"type":"movie","add":"2016-11-15 05:04:57","orig_title":"High Heels and Low Lifes","year":"2001-07-16","translations":["Профессиональный (многоголосый закадровый)","Профессиональный (многоголосый закадровый)","Original (English)"],"quality":"hdtv","translation":"Профессиональный (многоголосый закадровый)","update":"2021-06-15 14:20:42","iframe_src":"//5091.svetacdn.in/si4jsFRrtgrT/movie/7443"}],"current_page":202,"first_page_url":"https://videocdn.tv/api/short?limit=100&api_token=X6EwAUfE5M9xbo7y0Bp0aPf3uXxG2KLL&cache3202=3202&page=1","from":20101,"last_page":665,"last_page_url":"https://videocdn.tv/api/short?limit=100&api_token=X6EwAUfE5M9xbo7y0Bp0aPf3uXxG2KLL&cache3202=3202&page=665","next_page_url":"https://videocdn.tv/api/short?limit=100&api_token=X6EwAUfE5M9xbo7y0Bp0aPf3uXxG2KLL&cache3202=3202&page=203","path":"https://videocdn.tv/api/short","per_page":100,"prev_page_url":"https://videocdn.tv/api/short?limit=100&api_token=X6EwAUfE5M9xbo7y0Bp0aPf3uXxG2KLL&cache3202=3202&page=201","to":20140,"total":66453}