{"result":true,"data":[{"id":2667,"title":"Двое во вселенной","kp_id":"837170","imdb_id":"tt3530978","world_art_id":null,"type":"movie","add":"2016-05-27 11:54:53","orig_title":"La corrispondenza","year":"2016-01-14","translations":["Полное дублирование"],"quality":"bd","translation":"Полное дублирование","update":"2016-05-27 14:49:49","iframe_src":"//7720.svetacdn.in/71tsRs29n5tZ/movie/2667"},{"id":2640,"title":"Барбекю","kp_id":"799187","imdb_id":"tt3202120","world_art_id":null,"type":"movie","add":"2016-05-27 10:57:00","orig_title":"Barbecue","year":"2014-04-01","translations":["Полное дублирование"],"quality":"bd","translation":"Полное дублирование","update":"2016-05-27 15:01:37","iframe_src":"//7720.svetacdn.in/71tsRs29n5tZ/movie/2640"},{"id":2638,"title":"Лавлэйс","kp_id":"578945","imdb_id":"tt1426329","world_art_id":null,"type":"movie","add":"2016-05-27 07:10:18","orig_title":"Lovelace","year":"2013-01-22","translations":["Полное дублирование"],"quality":"bd","translation":"Полное дублирование","update":"2016-05-27 11:35:12","iframe_src":"//7720.svetacdn.in/71tsRs29n5tZ/movie/2638"},{"id":2637,"title":"Страдающий бессонницей","kp_id":"632749","imdb_id":"tt2069948","world_art_id":null,"type":"movie","add":"2016-05-27 05:11:02","orig_title":"The Insomniac","year":"2013-06-06","translations":["Профессиональный (многоголосый закадровый)"],"quality":"webdl","translation":"Профессиональный (многоголосый закадровый)","update":"2016-05-27 12:02:29","iframe_src":"//7720.svetacdn.in/71tsRs29n5tZ/movie/2637"},{"id":2634,"title":"Тристан и Изольда","kp_id":"61243","imdb_id":"tt0375154","world_art_id":null,"type":"movie","add":"2016-05-26 17:50:08","orig_title":"Tristan + Isolde","year":"2006-01-13","translations":["Полное дублирование"],"quality":"bd","translation":"Полное дублирование","update":"2016-05-27 12:10:09","iframe_src":"//7720.svetacdn.in/71tsRs29n5tZ/movie/2634"},{"id":2633,"title":"Плетеный человек","kp_id":"102148","imdb_id":"tt0450345","world_art_id":null,"type":"movie","add":"2016-05-26 17:48:25","orig_title":"The Wicker Man","year":"2006-08-31","translations":["Полное дублирование"],"quality":"bd","translation":"Полное дублирование","update":"2016-05-27 12:13:18","iframe_src":"//7720.svetacdn.in/71tsRs29n5tZ/movie/2633"},{"id":2631,"title":"Великий рейд","kp_id":"8096","imdb_id":"tt0326905","world_art_id":null,"type":"movie","add":"2016-05-26 17:43:34","orig_title":"The Great Raid","year":"2005-08-10","translations":["Полное дублирование"],"quality":"bd","translation":"Полное дублирование","update":"2016-05-27 07:29:35","iframe_src":"//7720.svetacdn.in/71tsRs29n5tZ/movie/2631"},{"id":2630,"title":"Отвязные каникулы","kp_id":"645038","imdb_id":"tt2101441","world_art_id":null,"type":"movie","add":"2016-05-26 17:39:41","orig_title":"Spring Breakers","year":"2012-09-05","translations":["Полное дублирование"],"quality":"bd","translation":"Полное дублирование","update":"2016-05-27 11:29:06","iframe_src":"//7720.svetacdn.in/71tsRs29n5tZ/movie/2630"},{"id":2628,"title":"Ананасовый экспресс: Сижу, курю","kp_id":"279596","imdb_id":"tt0910936","world_art_id":null,"type":"movie","add":"2016-05-26 17:36:25","orig_title":"Pineapple Express","year":"2008-08-06","translations":["Полное дублирование"],"quality":"bd","translation":"Полное дублирование","update":"2016-05-27 07:23:43","iframe_src":"//7720.svetacdn.in/71tsRs29n5tZ/movie/2628"},{"id":2626,"title":"Оз: Великий и Ужасный","kp_id":"506005","imdb_id":"tt1623205","world_art_id":null,"type":"movie","add":"2016-05-26 17:30:19","orig_title":"Oz the Great and Powerful","year":"2013-02-14","translations":["Полное дублирование"],"quality":"bd","translation":"Полное дублирование","update":"2016-05-27 15:04:05","iframe_src":"//7720.svetacdn.in/71tsRs29n5tZ/movie/2626"},{"id":2610,"title":"Мистериум. Начало","kp_id":"712745","imdb_id":"tt2438644","world_art_id":null,"type":"movie","add":"2016-05-26 12:08:51","orig_title":"Kvinden i buret","year":"2013-01-31","translations":["Профессиональный (многоголосый)"],"quality":"bd","translation":"Профессиональный (многоголосый)","update":"2016-05-27 14:37:24","iframe_src":"//7720.svetacdn.in/71tsRs29n5tZ/movie/2610"},{"id":2599,"title":"Лига Справедливости: Трон Атлантиды","kp_id":"841282","imdb_id":"tt3878542","world_art_id":null,"type":"movie","add":"2016-05-26 11:38:11","orig_title":"Justice League: Throne of Atlantis","year":"2015-01-13","translations":["Любительский (многоголосый закадровый)"],"quality":"bd","translation":"Любительский (многоголосый закадровый)","update":"2016-05-27 07:18:41","iframe_src":"//7720.svetacdn.in/71tsRs29n5tZ/movie/2599"},{"id":2598,"title":"Лига Справедливости против Юных Титанов","kp_id":"957875","imdb_id":"tt5091548","world_art_id":null,"type":"movie","add":"2016-05-26 11:36:34","orig_title":"Justice League vs. Teen Titans","year":"2016-03-26","translations":["Профессиональный (многоголосый)"],"quality":"bd","translation":"Профессиональный (многоголосый)","update":"2016-05-27 07:19:25","iframe_src":"//7720.svetacdn.in/71tsRs29n5tZ/movie/2598"},{"id":2597,"title":"Лига справедливости: Боги и монстры","kp_id":"880647","imdb_id":"tt4324302","world_art_id":null,"type":"movie","add":"2016-05-26 11:35:37","orig_title":"Justice League: Gods and Monsters","year":"2015-07-22","translations":["Любительский (многоголосый закадровый)"],"quality":"webdl","translation":"Любительский (многоголосый закадровый)","update":"2016-05-27 07:33:50","iframe_src":"//7720.svetacdn.in/71tsRs29n5tZ/movie/2597"},{"id":2596,"title":"Гензель против Гретель","kp_id":"844171","imdb_id":"tt4145350","world_art_id":null,"type":"movie","add":"2016-05-26 10:57:20","orig_title":"Hansel Vs. Gretel","year":"2015-01-20","translations":["Любительский (одноголосый закадровый)"],"quality":"webdl","translation":"Любительский (одноголосый закадровый)","update":"2016-05-27 07:37:16","iframe_src":"//7720.svetacdn.in/71tsRs29n5tZ/movie/2596"},{"id":2595,"title":"От всего сердца","kp_id":"893662","imdb_id":"tt4460176","world_art_id":null,"type":"movie","add":"2016-05-26 10:56:20","orig_title":"All of My Heart","year":"2015-02-14","translations":["Любительский (одноголосый закадровый)"],"quality":"hdtv","translation":"Любительский (одноголосый закадровый)","update":"2016-05-27 07:53:02","iframe_src":"//7720.svetacdn.in/71tsRs29n5tZ/movie/2595"},{"id":2592,"title":"Последний дом слева","kp_id":"261005","imdb_id":"tt0844708","world_art_id":null,"type":"movie","add":"2016-05-26 10:53:11","orig_title":"The Last House on the Left","year":"2009-05-13","translations":["Полное дублирование"],"quality":"bd","translation":"Полное дублирование","update":"2016-05-27 08:04:13","iframe_src":"//7720.svetacdn.in/71tsRs29n5tZ/movie/2592"},{"id":2588,"title":"Женщины против мужчин","kp_id":"841956","imdb_id":"tt4464702","world_art_id":null,"type":"movie","add":"2016-05-26 10:48:45","orig_title":"Zhenshchiny protiv muzhchin","year":"2015-04-09","translations":["Оригинальная дорожка"],"quality":"webdl","translation":"Оригинальная дорожка","update":"2016-05-27 14:46:44","iframe_src":"//7720.svetacdn.in/71tsRs29n5tZ/movie/2588"},{"id":2543,"title":"Из Вегаса в Макао","kp_id":"807240","imdb_id":"tt3444184","world_art_id":null,"type":"movie","add":"2016-05-24 19:54:16","orig_title":"Du cheng feng yun","year":"2014-01-30","translations":["Любительский (одноголосый закадровый)"],"quality":"bd","translation":"Любительский (одноголосый закадровый)","update":"2016-05-27 14:41:34","iframe_src":"//7720.svetacdn.in/71tsRs29n5tZ/movie/2543"},{"id":1258,"title":"Шальное ранение","kp_id":"827938","imdb_id":"tt3520290","world_art_id":null,"type":"movie","add":"2016-04-19 11:59:18","orig_title":"Blunt Force Trauma","year":"2015-07-20","translations":["Любительский (одноголосый закадровый)","Полное дублирование"],"quality":"bd","translation":"Любительский (одноголосый закадровый)","update":"2016-05-27 11:59:53","iframe_src":"//7720.svetacdn.in/71tsRs29n5tZ/movie/1258"}],"current_page":2523,"first_page_url":"https://videocdn.tv/api/short?limit=100&api_token=EnbO9h8pv1VyjbCJhg0WM9nG259n7mtz&cache32523=32523&page=1","from":252201,"last_page":650,"last_page_url":"https://videocdn.tv/api/short?limit=100&api_token=EnbO9h8pv1VyjbCJhg0WM9nG259n7mtz&cache32523=32523&page=650","next_page_url":null,"path":"https://videocdn.tv/api/short","per_page":100,"prev_page_url":"https://videocdn.tv/api/short?limit=100&api_token=EnbO9h8pv1VyjbCJhg0WM9nG259n7mtz&cache32523=32523&page=2522","to":252220,"total":64989}