{"result":true,"data":[{"id":50529,"title":"Уинфред Микс","kp_id":"1356426","imdb_id":"tt11914450","world_art_id":null,"type":"movie","add":"2021-05-21 07:51:25","orig_title":"Winifred Meeks","year":"2021-04-27","translations":["Любительский (многоголосый закадровый) (Синема УС)"],"quality":"webdl","translation":"Любительский (многоголосый закадровый) (Синема УС)","update":"2021-05-21 15:42:46","iframe_src":"//2413.svetacdn.in/si4jsFRrtgrT/movie/50529"},{"id":50523,"title":"Папина идеальная малышка","kp_id":"1406419","imdb_id":"tt12703842","world_art_id":null,"type":"movie","add":"2021-05-20 22:04:00","orig_title":"Daddy's Perfect Little Girl","year":"2021-04-30","translations":["Любительский (многоголосый закадровый) (Синема УС)"],"quality":"webdl","translation":"Любительский (многоголосый закадровый) (Синема УС)","update":"2021-05-21 08:01:33","iframe_src":"//2413.svetacdn.in/si4jsFRrtgrT/movie/50523"},{"id":50522,"title":"Чёрт возьми, Пятница!","kp_id":"1316294","imdb_id":"tt10916458","world_art_id":null,"type":"movie","add":"2021-05-20 21:56:52","orig_title":"Good Grief It's Friday","year":"2021-05-07","translations":["Любительский (многоголосый закадровый) (Синема УС)"],"quality":"webdl","translation":"Любительский (многоголосый закадровый) (Синема УС)","update":"2021-05-21 08:03:07","iframe_src":"//2413.svetacdn.in/si4jsFRrtgrT/movie/50522"},{"id":50521,"title":"Песочник","kp_id":"1278860","imdb_id":"tt10530428","world_art_id":null,"type":"movie","add":"2021-05-20 21:41:07","orig_title":"Calidris","year":"2019-06-28","translations":["Любительский (многоголосый закадровый) (Синема УС)"],"quality":"webdl","translation":"Любительский (многоголосый закадровый) (Синема УС)","update":"2021-05-21 08:02:29","iframe_src":"//2413.svetacdn.in/si4jsFRrtgrT/movie/50521"},{"id":50520,"title":"Обжигающая ложь","kp_id":null,"imdb_id":"tt14454016","world_art_id":null,"type":"movie","add":"2021-05-20 21:39:18","orig_title":"Burning Little Lies","year":"2021-05-09","translations":["Любительский (многоголосый закадровый) (Синема УС)"],"quality":"webdl","translation":"Любительский (многоголосый закадровый) (Синема УС)","update":"2021-05-21 08:04:08","iframe_src":"//2413.svetacdn.in/si4jsFRrtgrT/movie/50520"},{"id":50519,"title":"Яркие","kp_id":"1154103","imdb_id":"tt7772498","world_art_id":null,"type":"movie","add":"2021-05-20 21:36:49","orig_title":"Bright Ones","year":"2019-03-25","translations":["Любительский (многоголосый закадровый) (Синема УС)"],"quality":"webdl","translation":"Любительский (многоголосый закадровый) (Синема УС)","update":"2021-05-21 08:00:11","iframe_src":"//2413.svetacdn.in/si4jsFRrtgrT/movie/50519"},{"id":50508,"title":"Мой нежный матадор","kp_id":"1302303","imdb_id":"tt10879920","world_art_id":null,"type":"movie","add":"2021-05-20 08:51:08","orig_title":"Tengo Miedo Torero","year":"2020-09-10","translations":["Любительский (многоголосый закадровый) (Синема УС)"],"quality":"webdl","translation":"Любительский (многоголосый закадровый) (Синема УС)","update":"2021-05-21 08:09:11","iframe_src":"//2413.svetacdn.in/si4jsFRrtgrT/movie/50508"},{"id":49235,"title":"Суд — это я","kp_id":"10951","imdb_id":"tt0084112","world_art_id":null,"type":"movie","add":"2021-03-31 11:47:15","orig_title":"I, the Jury","year":"1982-04-22","translations":["Профессиональный (многоголосый закадровый) (НТВ)","[EN] Original (English)","Авторский (одноголосый закадровый) (Володарский Леонид)","Авторский (одноголосый закадровый) (Михалёв Алексей)"],"quality":"bd","translation":"Профессиональный (многоголосый закадровый) (НТВ)","update":"2021-05-21 13:28:51","iframe_src":"//2413.svetacdn.in/si4jsFRrtgrT/movie/49235"},{"id":48539,"title":"Засада в Томагавк Гэп","kp_id":"61949","imdb_id":"tt0045502","world_art_id":null,"type":"movie","add":"2021-03-08 07:12:43","orig_title":"Ambush at Tomahawk Gap","year":"1953-05-01","translations":["Любительский (одноголосый закадровый) (funny77)","[EN] Original (English)"],"quality":"bd","translation":"Любительский (одноголосый закадровый) (funny77)","update":"2021-05-21 07:41:51","iframe_src":"//2413.svetacdn.in/si4jsFRrtgrT/movie/48539"},{"id":48500,"title":"За короля и отечество","kp_id":"36326","imdb_id":"tt0058263","world_art_id":null,"type":"movie","add":"2021-03-06 16:27:55","orig_title":"King & Country","year":"1964-09-05","translations":["Авторский (одноголосый закадровый) (Янкелевич Роман)","[EN] Original (English)"],"quality":"bd","translation":"Авторский (одноголосый закадровый) (Янкелевич Роман)","update":"2021-05-21 07:40:11","iframe_src":"//2413.svetacdn.in/si4jsFRrtgrT/movie/48500"},{"id":48297,"title":"Все, чего я желаю","kp_id":"12602","imdb_id":"tt0045492","world_art_id":null,"type":"movie","add":"2021-02-28 17:42:52","orig_title":"All I Desire","year":"1953-06-25","translations":["Любительский (одноголосый закадровый) (minyaev)","[EN] Original (English)"],"quality":"bd","translation":"Любительский (одноголосый закадровый) (minyaev)","update":"2021-05-21 07:42:34","iframe_src":"//2413.svetacdn.in/si4jsFRrtgrT/movie/48297"},{"id":36514,"title":"Девушка на мосту","kp_id":"47397","imdb_id":"tt0144201","world_art_id":null,"type":"movie","add":"2020-02-18 19:20:20","orig_title":"La fille sur le pont","year":"1999-03-31","translations":["Профессиональный (многоголосый закадровый) (CP Digital)","Авторский (одноголосый закадровый) (Сербин Юрий)","Профессиональный (многоголосый закадровый) (НТВ)"],"quality":"bd","translation":"Профессиональный (многоголосый закадровый) (CP Digital)","update":"2021-05-21 08:08:43","iframe_src":"//2413.svetacdn.in/si4jsFRrtgrT/movie/36514"},{"id":23026,"title":"Мастер Z: Наследие Ип Мана","kp_id":"1048339","imdb_id":"tt7262882","world_art_id":null,"type":"movie","add":"2019-03-13 20:06:23","orig_title":"Cheung Tin-Chi","year":"2018-10-13","translations":["Профессиональный (многоголосый закадровый) (HDrezka Studio)","Полное дублирование (iTunes)"],"quality":"webdl","translation":"Профессиональный (многоголосый закадровый) (HDrezka Studio)","update":"2021-05-21 13:11:22","iframe_src":"//2413.svetacdn.in/si4jsFRrtgrT/movie/23026"},{"id":19215,"title":"Шаги в тумане","kp_id":"51397","imdb_id":"tt0048087","world_art_id":null,"type":"movie","add":"2018-09-26 23:36:53","orig_title":"Footsteps in the Fog","year":"1955-08-01","translations":["Любительский (одноголосый закадровый)","Любительский (одноголосый закадровый) (Герусов)","[EN] Original (English)"],"quality":"bd","translation":"Любительский (одноголосый закадровый)","update":"2021-05-21 07:41:13","iframe_src":"//2413.svetacdn.in/si4jsFRrtgrT/movie/19215"},{"id":10086,"title":"Дива","kp_id":"94699","imdb_id":"tt0082269","world_art_id":null,"type":"movie","add":"2017-02-27 08:02:07","orig_title":"Diva","year":"1981-03-11","translations":["Полное дублирование (Мосфильм)","Любительский (одноголосый закадровый)","Профессиональный (многоголосый закадровый)","Профессиональный (многоголосый закадровый) (Первый канал | ОРТ)"],"quality":"bd","translation":"Полное дублирование (Мосфильм)","update":"2021-05-21 13:32:09","iframe_src":"//2413.svetacdn.in/si4jsFRrtgrT/movie/10086"},{"id":9405,"title":"Шербургские зонтики","kp_id":"7718","imdb_id":"tt0058450","world_art_id":null,"type":"movie","add":"2017-02-03 09:27:34","orig_title":"Les parapluies de Cherbourg","year":"1964-02-19","translations":["Профессиональный (многоголосый закадровый)","Профессиональный (многоголосый закадровый) (SomeWax)","Профессиональный (одноголосый закадровый)","Профессиональный (двухголосый закадровый) (Светла)"],"quality":"bd","translation":"Профессиональный (многоголосый закадровый)","update":"2021-05-21 08:00:14","iframe_src":"//2413.svetacdn.in/si4jsFRrtgrT/movie/9405"},{"id":6338,"title":"Могучие утята 2","kp_id":"22188","imdb_id":"tt0109520","world_art_id":null,"type":"movie","add":"2016-10-16 08:10:12","orig_title":"D2: The Mighty Ducks","year":"1994-03-25","translations":["Профессиональный (многоголосый закадровый)","Профессиональный (многоголосый закадровый) (ТНТ)","[EN] Original (English)","Профессиональный (двухголосый закадровый) (Видеосервис)","Профессиональный (многоголосый закадровый) (ТВ3)"],"quality":"hdtv","translation":"Профессиональный (многоголосый закадровый)","update":"2021-05-21 08:13:09","iframe_src":"//2413.svetacdn.in/si4jsFRrtgrT/movie/6338"},{"id":4234,"title":"Я - начало","kp_id":"761933","imdb_id":"tt2884206","world_art_id":null,"type":"movie","add":"2016-08-01 04:48:57","orig_title":"I Origins","year":"2014-01-18","translations":["Профессиональный (многоголосый закадровый)","[EN] Original (English)","Профессиональный (многоголосый закадровый) (BaibaKo)","Профессиональный (многоголосый закадровый) (iTunes)"],"quality":"bd","translation":"Профессиональный (многоголосый закадровый)","update":"2021-05-21 07:57:48","iframe_src":"//2413.svetacdn.in/si4jsFRrtgrT/movie/4234"},{"id":3170,"title":"Сатирикон","kp_id":"39328","imdb_id":"tt0064940","world_art_id":null,"type":"movie","add":"2016-06-15 10:29:59","orig_title":"Fellini - Satyricon","year":"1969-09-03","translations":["Профессиональный (многоголосый закадровый)","Авторский (одноголосый закадровый) (Сербин Юрий)","Профессиональный (двухголосый закадровый)","Профессиональный (двухголосый закадровый) (НТВ)","Профессиональный (многоголосый закадровый) (SomeWax)","Профессиональный (многоголосый закадровый) (Видеоимпульс)"],"quality":"bd","translation":"Профессиональный (многоголосый закадровый)","update":"2021-05-21 07:53:34","iframe_src":"//2413.svetacdn.in/si4jsFRrtgrT/movie/3170"},{"id":784,"title":"Гладиатор","kp_id":"474","imdb_id":"tt0172495","world_art_id":null,"type":"movie","add":"2016-04-08 14:24:08","orig_title":"Gladiator","year":"2000-05-01","translations":["Полное дублирование","[EN] Original (English)","Авторский (одноголосый закадровый) (Гаврилов Андрей)","Авторский (одноголосый закадровый) (Кузнецов Сергей)","Авторский (одноголосый закадровый) (Живов Юрий)","Полное дублирование","[EN] Original (English)","Профессиональный (двухголосый закадровый) (РенТВ)","Профессиональный (многоголосый закадровый)","Профессиональный (многоголосый закадровый) (Интер)","Профессиональный (многоголосый закадровый) (Премьер Видео Фильм)","Профессиональный (многоголосый закадровый) (РТР | Россия)"],"quality":"bd","translation":"Полное дублирование","update":"2021-05-21 13:23:41","iframe_src":"//2413.svetacdn.in/si4jsFRrtgrT/movie/784"}],"current_page":647,"first_page_url":"https://videocdn.tv/api/short?limit=100&api_token=X6EwAUfE5M9xbo7y0Bp0aPf3uXxG2KLL&cache3647=3647&page=1","from":64601,"last_page":721,"last_page_url":"https://videocdn.tv/api/short?limit=100&api_token=X6EwAUfE5M9xbo7y0Bp0aPf3uXxG2KLL&cache3647=3647&page=721","next_page_url":"https://videocdn.tv/api/short?limit=100&api_token=X6EwAUfE5M9xbo7y0Bp0aPf3uXxG2KLL&cache3647=3647&page=648","path":"https://videocdn.tv/api/short","per_page":100,"prev_page_url":"https://videocdn.tv/api/short?limit=100&api_token=X6EwAUfE5M9xbo7y0Bp0aPf3uXxG2KLL&cache3647=3647&page=646","to":64620,"total":72043}