{"result":true,"data":[{"id":24215,"title":"Василиса Прекрасная","kp_id":"45676","imdb_id":"tt0167474","world_art_id":null,"type":"movie","add":"2019-04-09 22:20:42","orig_title":"Vasilisa prekrasnaya","year":"1940-05-13","translations":["Оригинальная дорожка"],"quality":"dvdrip","translation":"Оригинальная дорожка","update":"2019-04-10 07:46:03","iframe_src":"//7720.svetacdn.in/si4jsFRrtgrT/movie/24215"},{"id":24214,"title":"Шпион, который упал на Землю","kp_id":"1134440","imdb_id":"tt7706168","world_art_id":null,"type":"movie","add":"2019-04-09 22:15:11","orig_title":"The Spy Who Fell to Earth","year":"2019-04-01","translations":["Любительский (многоголосый закадровый) (Синема УС)"],"quality":"webdl","translation":"Любительский (многоголосый закадровый) (Синема УС)","update":"2019-04-10 07:52:16","iframe_src":"//7720.svetacdn.in/si4jsFRrtgrT/movie/24214"},{"id":24163,"title":"Переполох в летнем лагере","kp_id":"507954","imdb_id":"tt1637976","world_art_id":null,"type":"movie","add":"2019-04-09 06:50:22","orig_title":"#1 Cheerleader Camp","year":"2010-07-27","translations":["Любительский (одноголосый закадровый)"],"quality":"dvdrip","translation":"Любительский (одноголосый закадровый)","update":"2019-04-09 08:57:55","iframe_src":"//7720.svetacdn.in/si4jsFRrtgrT/movie/24163"},{"id":24162,"title":"Рождественское печенье","kp_id":"851141","imdb_id":"tt4012254","world_art_id":null,"type":"movie","add":"2019-04-09 06:47:23","orig_title":"A Cookie Cutter Christmas","year":"2014-11-09","translations":["Профессиональный (многоголосый закадровый)"],"quality":"dvb","translation":"Профессиональный (многоголосый закадровый)","update":"2019-04-09 08:05:44","iframe_src":"//7720.svetacdn.in/si4jsFRrtgrT/movie/24162"},{"id":24160,"title":"Годичный отпуск Энни Клаус","kp_id":"590070","imdb_id":"tt1910501","world_art_id":null,"type":"movie","add":"2019-04-09 06:33:08","orig_title":"Annie Claus Is Coming to Town","year":"2011-12-10","translations":["Профессиональный (многоголосый закадровый)"],"quality":"hdtv","translation":"Профессиональный (многоголосый закадровый)","update":"2019-04-09 08:00:05","iframe_src":"//7720.svetacdn.in/si4jsFRrtgrT/movie/24160"},{"id":24062,"title":"Настройщик","kp_id":"81319","imdb_id":"tt0383020","world_art_id":null,"type":"movie","add":"2019-04-07 21:47:31","orig_title":"Nastroyshchik","year":"2004-09-06","translations":["Оригинальная дорожка"],"quality":"dvdrip","translation":"Оригинальная дорожка","update":"2019-04-09 07:43:21","iframe_src":"//7720.svetacdn.in/si4jsFRrtgrT/movie/24062"},{"id":24059,"title":"Мой принц","kp_id":"464882","imdb_id":null,"world_art_id":null,"type":"movie","add":"2019-04-07 21:43:23","orig_title":"Мой принц","year":"2006-01-01","translations":["Оригинальная дорожка"],"quality":"dvdrip","translation":"Оригинальная дорожка","update":"2019-04-09 07:41:55","iframe_src":"//7720.svetacdn.in/si4jsFRrtgrT/movie/24059"},{"id":24057,"title":"Минин и Пожарский","kp_id":"46641","imdb_id":"tt0031654","world_art_id":null,"type":"movie","add":"2019-04-07 21:38:47","orig_title":"Minin i Pozharskiy","year":"1939-11-03","translations":["Оригинальная дорожка"],"quality":"dvdrip","translation":"Оригинальная дорожка","update":"2019-04-09 07:38:51","iframe_src":"//7720.svetacdn.in/si4jsFRrtgrT/movie/24057"},{"id":24055,"title":"Мим Бим, или Чужая жизнь","kp_id":"431239","imdb_id":null,"world_art_id":null,"type":"movie","add":"2019-04-07 21:36:59","orig_title":"Мим Бим, или Чужая жизнь","year":"2008-01-01","translations":["Оригинальная дорожка"],"quality":"dvdrip","translation":"Оригинальная дорожка","update":"2019-04-09 07:38:11","iframe_src":"//7720.svetacdn.in/si4jsFRrtgrT/movie/24055"},{"id":24054,"title":"Между жизнью и смертью","kp_id":"453102","imdb_id":"tt5256424","world_art_id":null,"type":"movie","add":"2019-04-07 21:34:12","orig_title":"Mezhdu zhiznyu i smertyu","year":"2003-01-01","translations":["Оригинальная дорожка"],"quality":"dvdrip","translation":"Оригинальная дорожка","update":"2019-04-09 07:36:37","iframe_src":"//7720.svetacdn.in/si4jsFRrtgrT/movie/24054"},{"id":24053,"title":"Лошади в океане","kp_id":"45116","imdb_id":"tt0311456","world_art_id":null,"type":"movie","add":"2019-04-07 21:32:11","orig_title":"Loshadi v okeane","year":"1989-01-01","translations":["Оригинальная дорожка"],"quality":"dvdrip","translation":"Оригинальная дорожка","update":"2019-04-09 07:35:59","iframe_src":"//7720.svetacdn.in/si4jsFRrtgrT/movie/24053"},{"id":24052,"title":"Кутузов","kp_id":"45030","imdb_id":"tt0036572","world_art_id":null,"type":"movie","add":"2019-04-07 21:27:25","orig_title":"Kutuzov","year":"1944-03-13","translations":["Оригинальная дорожка"],"quality":"dvdrip","translation":"Оригинальная дорожка","update":"2019-04-09 07:34:59","iframe_src":"//7720.svetacdn.in/si4jsFRrtgrT/movie/24052"},{"id":24051,"title":"Краповый берет","kp_id":"431258","imdb_id":"tt5258836","world_art_id":null,"type":"movie","add":"2019-04-07 21:25:53","orig_title":"Krapovyy beret","year":"2008-01-01","translations":["Оригинальная дорожка"],"quality":"dvdrip","translation":"Оригинальная дорожка","update":"2019-04-09 07:34:08","iframe_src":"//7720.svetacdn.in/si4jsFRrtgrT/movie/24051"},{"id":24050,"title":"Королёв","kp_id":"279040","imdb_id":"tt1107828","world_art_id":null,"type":"movie","add":"2019-04-07 21:24:06","orig_title":"Korolyov","year":"2007-07-19","translations":["Оригинальная дорожка"],"quality":"dvdrip","translation":"Оригинальная дорожка","update":"2019-04-09 07:33:13","iframe_src":"//7720.svetacdn.in/si4jsFRrtgrT/movie/24050"},{"id":24049,"title":"Корабли штурмуют бастионы","kp_id":"44922","imdb_id":"tt0045973","world_art_id":null,"type":"movie","add":"2019-04-07 21:15:32","orig_title":"Korabli shturmuyut bastiony","year":"1953-10-05","translations":["Оригинальная дорожка"],"quality":"dvdrip","translation":"Оригинальная дорожка","update":"2019-04-09 07:31:45","iframe_src":"//7720.svetacdn.in/si4jsFRrtgrT/movie/24049"},{"id":24048,"title":"Команда 33","kp_id":"44867","imdb_id":"tt0093361","world_art_id":null,"type":"movie","add":"2019-04-07 21:14:01","orig_title":"Komanda 33","year":"1987-01-01","translations":["Оригинальная дорожка"],"quality":"dvdrip","translation":"Оригинальная дорожка","update":"2019-04-09 07:30:56","iframe_src":"//7720.svetacdn.in/si4jsFRrtgrT/movie/24048"},{"id":24047,"title":"Когда ты в последний раз видел своего отца?","kp_id":"260890","imdb_id":"tt0829098","world_art_id":null,"type":"movie","add":"2019-04-07 21:11:48","orig_title":"And When Did You Last See Your Father?","year":"2007-07-12","translations":["Профессиональный (многоголосый закадровый)"],"quality":"dvdrip","translation":"Профессиональный (многоголосый закадровый)","update":"2019-04-09 07:29:52","iframe_src":"//7720.svetacdn.in/si4jsFRrtgrT/movie/24047"},{"id":24046,"title":"Сказка о Мальчише-Кибальчише","kp_id":"280160","imdb_id":"tt1869672","world_art_id":null,"type":"movie","add":"2019-04-07 21:08:47","orig_title":"Skazka O Malchishe-Kibalchishe","year":"1965-08-25","translations":["Оригинальная дорожка"],"quality":"dvdrip","translation":"Оригинальная дорожка","update":"2019-04-09 07:29:09","iframe_src":"//7720.svetacdn.in/si4jsFRrtgrT/movie/24046"},{"id":24045,"title":"Хранить вечно","kp_id":"469687","imdb_id":"tt1502860","world_art_id":null,"type":"movie","add":"2019-04-07 21:03:17","orig_title":"Khranit vechno","year":"2008-12-11","translations":["Оригинальная дорожка"],"quality":"dvdrip","translation":"Оригинальная дорожка","update":"2019-04-09 07:28:02","iframe_src":"//7720.svetacdn.in/si4jsFRrtgrT/movie/24045"},{"id":22866,"title":"Лови момент","kp_id":"994634","imdb_id":null,"world_art_id":null,"type":"movie","add":"2019-03-10 15:54:09","orig_title":"Лови момент","year":"2019-03-07","translations":["Оригинальная дорожка"],"quality":"webdl","translation":"Оригинальная дорожка","update":"2019-04-10 07:48:58","iframe_src":"//7720.svetacdn.in/si4jsFRrtgrT/movie/22866"}],"current_page":1632,"first_page_url":"https://videocdn.tv/api/short?limit=100&api_token=X6EwAUfE5M9xbo7y0Bp0aPf3uXxG2KLL&cache31632=31632&page=1","from":163101,"last_page":651,"last_page_url":"https://videocdn.tv/api/short?limit=100&api_token=X6EwAUfE5M9xbo7y0Bp0aPf3uXxG2KLL&cache31632=31632&page=651","next_page_url":null,"path":"https://videocdn.tv/api/short","per_page":100,"prev_page_url":"https://videocdn.tv/api/short?limit=100&api_token=X6EwAUfE5M9xbo7y0Bp0aPf3uXxG2KLL&cache31632=31632&page=1631","to":163120,"total":65055}