{"result":true,"data":[{"id":37314,"title":"Подстава","kp_id":"80765","imdb_id":"tt0285112","world_art_id":null,"type":"movie","add":"2020-03-03 17:39:19","orig_title":"Framed","year":"2002-07-10","translations":["Профессиональный (многоголосый закадровый)"],"quality":"dvdrip","translation":"Профессиональный (многоголосый закадровый)","update":"2020-03-04 18:26:17","iframe_src":"//24213.svetacdn.in/71tsRs29n5tZ/movie/37314"},{"id":37311,"title":"Любовь моей жизни","kp_id":"668244","imdb_id":"tt2246831","world_art_id":null,"type":"movie","add":"2020-03-03 17:33:15","orig_title":"Love of My Life","year":"2013-11-10","translations":["Любительский (двухголосый закадровый) (Колобок)"],"quality":"dvdrip","translation":"Любительский (двухголосый закадровый) (Колобок)","update":"2020-03-04 18:28:32","iframe_src":"//24213.svetacdn.in/71tsRs29n5tZ/movie/37311"},{"id":37292,"title":"Гармонии Веркмейстера","kp_id":"50377","imdb_id":"tt0249241","world_art_id":null,"type":"movie","add":"2020-03-03 11:05:51","orig_title":"Werckmeister harmóniák","year":"2001-02-01","translations":["Профессиональный (многоголосый закадровый)"],"quality":"dvdrip","translation":"Профессиональный (многоголосый закадровый)","update":"2020-03-04 20:06:39","iframe_src":"//24213.svetacdn.in/71tsRs29n5tZ/movie/37292"},{"id":37291,"title":"Авива, любовь моя","kp_id":"269012","imdb_id":"tt0833422","world_art_id":null,"type":"movie","add":"2020-03-03 11:02:06","orig_title":"Aviva Ahuvati","year":"2006-07-11","translations":["Авторский (одноголосый закадровый) (Чадов Михаил)"],"quality":"dvdrip","translation":"Авторский (одноголосый закадровый) (Чадов Михаил)","update":"2020-03-04 20:12:40","iframe_src":"//24213.svetacdn.in/71tsRs29n5tZ/movie/37291"},{"id":37290,"title":"Большой кайф","kp_id":"16851","imdb_id":"tt0092654","world_art_id":null,"type":"movie","add":"2020-03-03 10:58:16","orig_title":"The Big Easy","year":"1986-11-27","translations":["Полное дублирование"],"quality":"bd","translation":"Полное дублирование","update":"2020-03-04 18:57:51","iframe_src":"//24213.svetacdn.in/71tsRs29n5tZ/movie/37290"},{"id":37289,"title":"300 километров в час","kp_id":"580848","imdb_id":"tt1823051","world_art_id":null,"type":"movie","add":"2020-03-03 10:54:49","orig_title":"200 M.P.H.","year":"2011-04-26","translations":["Профессиональный (многоголосый закадровый)"],"quality":"bd","translation":"Профессиональный (многоголосый закадровый)","update":"2020-03-04 20:10:42","iframe_src":"//24213.svetacdn.in/71tsRs29n5tZ/movie/37289"},{"id":37271,"title":"Бессмертные души","kp_id":"11115","imdb_id":"tt0218619","world_art_id":null,"type":"movie","add":"2020-03-03 08:13:24","orig_title":"Soul Survivors","year":"2001-09-06","translations":["Полное дублирование"],"quality":"dvdrip","translation":"Полное дублирование","update":"2020-03-04 20:13:03","iframe_src":"//24213.svetacdn.in/71tsRs29n5tZ/movie/37271"},{"id":37267,"title":"Клан вампиров","kp_id":"48251","imdb_id":"tt0310298","world_art_id":null,"type":"movie","add":"2020-03-03 08:09:17","orig_title":"Vampire Clan","year":"2002-07-13","translations":["Профессиональный (многоголосый закадровый)"],"quality":"dvdrip","translation":"Профессиональный (многоголосый закадровый)","update":"2020-03-04 20:12:32","iframe_src":"//24213.svetacdn.in/71tsRs29n5tZ/movie/37267"},{"id":37259,"title":"Шпион: Операция под прикрытием","kp_id":"779060","imdb_id":"tt3025712","world_art_id":null,"type":"movie","add":"2020-03-03 07:54:19","orig_title":"Seupai","year":"2013-09-05","translations":["Любительский (одноголосый закадровый) (den904)"],"quality":"hdrip","translation":"Любительский (одноголосый закадровый) (den904)","update":"2020-03-04 20:10:36","iframe_src":"//24213.svetacdn.in/71tsRs29n5tZ/movie/37259"},{"id":37258,"title":"Последний бой 300 спартанцев","kp_id":"308253","imdb_id":"tt0892737","world_art_id":null,"type":"movie","add":"2020-03-03 07:51:30","orig_title":"Last Stand of the 300","year":"2007-01-01","translations":["Профессиональный (одноголосый закадровый)"],"quality":"hdtv","translation":"Профессиональный (одноголосый закадровый)","update":"2020-03-04 20:10:00","iframe_src":"//24213.svetacdn.in/71tsRs29n5tZ/movie/37258"},{"id":37257,"title":"Персона нон грата","kp_id":"160937","imdb_id":"tt0472884","world_art_id":null,"type":"movie","add":"2020-03-03 07:49:39","orig_title":"Persona non grata","year":"2005-09-04","translations":["Полное дублирование"],"quality":"dvdrip","translation":"Полное дублирование","update":"2020-03-04 20:09:18","iframe_src":"//24213.svetacdn.in/71tsRs29n5tZ/movie/37257"},{"id":37256,"title":"Толстяк","kp_id":"452897","imdb_id":"tt1145446","world_art_id":null,"type":"movie","add":"2020-03-03 07:43:50","orig_title":"Fatso","year":"2008-10-24","translations":["Любительский (одноголосый закадровый) (RussianGuy27 | Сергеев Сергей)"],"quality":"hdrip","translation":"Любительский (одноголосый закадровый) (RussianGuy27 | Сергеев Сергей)","update":"2020-03-04 20:07:41","iframe_src":"//24213.svetacdn.in/71tsRs29n5tZ/movie/37256"},{"id":37222,"title":"Утренняя принцесса","kp_id":"1351547","imdb_id":"tt11450738","world_art_id":null,"type":"movie","add":"2020-03-02 19:09:27","orig_title":"Morning Princess","year":"2019-12-13","translations":["Любительский (двухголосый закадровый) (Колобок)"],"quality":"webdl","translation":"Любительский (двухголосый закадровый) (Колобок)","update":"2020-03-04 19:00:57","iframe_src":"//24213.svetacdn.in/71tsRs29n5tZ/movie/37222"},{"id":37221,"title":"Этот смутный объект желания","kp_id":"60018","imdb_id":"tt0075824","world_art_id":null,"type":"movie","add":"2020-03-02 19:00:52","orig_title":"Cet obscur objet du désir","year":"1977-08-17","translations":["Профессиональный (двухголосый закадровый)"],"quality":"bd","translation":"Профессиональный (двухголосый закадровый)","update":"2020-03-04 18:29:29","iframe_src":"//24213.svetacdn.in/71tsRs29n5tZ/movie/37221"},{"id":37220,"title":"Ушу","kp_id":"384538","imdb_id":"tt0790786","world_art_id":null,"type":"movie","add":"2020-03-02 18:57:23","orig_title":"Wushu","year":"2008-09-10","translations":["Профессиональный (многоголосый закадровый)"],"quality":"dvdrip","translation":"Профессиональный (многоголосый закадровый)","update":"2020-03-04 18:31:52","iframe_src":"//24213.svetacdn.in/71tsRs29n5tZ/movie/37220"},{"id":37219,"title":"Другая семья","kp_id":"555149","imdb_id":"tt1695136","world_art_id":null,"type":"movie","add":"2020-03-02 18:54:42","orig_title":"La otra familia","year":"2011-03-25","translations":["Любительский (многоголосый закадровый)"],"quality":"dvdrip","translation":"Любительский (многоголосый закадровый)","update":"2020-03-04 18:33:22","iframe_src":"//24213.svetacdn.in/71tsRs29n5tZ/movie/37219"},{"id":37218,"title":"Честь и ярость","kp_id":"5468","imdb_id":"tt0105212","world_art_id":null,"type":"movie","add":"2020-03-02 18:52:57","orig_title":"Rage and Honor","year":"1992-05-01","translations":["Профессиональный (многоголосый закадровый)"],"quality":"dvdrip","translation":"Профессиональный (многоголосый закадровый)","update":"2020-03-04 18:34:10","iframe_src":"//24213.svetacdn.in/71tsRs29n5tZ/movie/37218"},{"id":36260,"title":"Сделано в Китае","kp_id":"1192652","imdb_id":"tt8983180","world_art_id":null,"type":"movie","add":"2020-02-14 20:58:33","orig_title":"Made in China","year":"2019-10-25","translations":["Любительский (многоголосый закадровый) (Синема УС)"],"quality":"webdl","translation":"Любительский (многоголосый закадровый) (Синема УС)","update":"2020-03-04 18:27:57","iframe_src":"//24213.svetacdn.in/71tsRs29n5tZ/movie/36260"},{"id":35277,"title":"Песня имён","kp_id":"522900","imdb_id":"tt1657517","world_art_id":null,"type":"movie","add":"2020-01-21 08:38:47","orig_title":"The Song of Names","year":"2019-09-08","translations":["Полное дублирование (iTunes)"],"quality":"webdl","translation":"Полное дублирование (iTunes)","update":"2020-03-04 18:30:14","iframe_src":"//24213.svetacdn.in/71tsRs29n5tZ/movie/35277"},{"id":33930,"title":"Малыш Джо","kp_id":"1207523","imdb_id":"tt9204204","world_art_id":null,"type":"movie","add":"2019-12-10 15:00:03","orig_title":"Little Joe","year":"2019-05-17","translations":["Полное дублирование (iTunes)","[EN] Original (English)"],"quality":"webdl","translation":"Полное дублирование (iTunes)","update":"2020-03-04 18:32:39","iframe_src":"//24213.svetacdn.in/71tsRs29n5tZ/movie/33930"}],"current_page":1391,"first_page_url":"https://videocdn.tv/api/short?limit=100&api_token=EnbO9h8pv1VyjbCJhg0WM9nG259n7mtz&cache31391=31391&page=1","from":139001,"last_page":725,"last_page_url":"https://videocdn.tv/api/short?limit=100&api_token=EnbO9h8pv1VyjbCJhg0WM9nG259n7mtz&cache31391=31391&page=725","next_page_url":null,"path":"https://videocdn.tv/api/short","per_page":100,"prev_page_url":"https://videocdn.tv/api/short?limit=100&api_token=EnbO9h8pv1VyjbCJhg0WM9nG259n7mtz&cache31391=31391&page=1390","to":139020,"total":72409}