{"result":true,"data":[{"id":50100,"title":"Просто другой","kp_id":"1449574","imdb_id":"tt10500666","world_art_id":null,"type":"movie","add":"2021-05-04 07:03:05","orig_title":"Just Different","year":"2020-10-25","translations":["Любительский (многоголосый закадровый) (Синема УС)"],"quality":"webdl","translation":"Любительский (многоголосый закадровый) (Синема УС)","update":"2021-05-04 10:47:33","iframe_src":"//8209.svetacdn.in/IAF0wWTdNYZm/movie/50100"},{"id":50031,"title":"Ханзо-Клинок 3: Кто забрал золото?","kp_id":"143803","imdb_id":"tt0174708","world_art_id":null,"type":"movie","add":"2021-05-01 07:01:15","orig_title":"Goyôkiba: Oni no Hanzô yawahada koban","year":"1974-02-09","translations":["Авторский (одноголосый закадровый) (Кузнецов Сергей)"],"quality":"webdl","translation":"Авторский (одноголосый закадровый) (Кузнецов Сергей)","update":"2021-05-04 07:51:38","iframe_src":"//8209.svetacdn.in/IAF0wWTdNYZm/movie/50031"},{"id":49096,"title":"Дьявол, которого ты знаешь","kp_id":"180812","imdb_id":"tt0463960","world_art_id":null,"type":"movie","add":"2021-03-25 11:31:46","orig_title":"The Devil You Know","year":"2013-07-09","translations":["Любительский (одноголосый закадровый)","Original (English)"],"quality":"bd","translation":"Любительский (одноголосый закадровый)","update":"2021-05-04 06:33:31","iframe_src":"//8209.svetacdn.in/IAF0wWTdNYZm/movie/49096"},{"id":49088,"title":"Сельский дом","kp_id":"309359","imdb_id":"tt0996934","world_art_id":null,"type":"movie","add":"2021-03-25 05:15:59","orig_title":"Farm House","year":"2008-10-25","translations":["Любительский (двухголосый закадровый) (Электричка)","Original (English)"],"quality":"bd","translation":"Любительский (двухголосый закадровый) (Электричка)","update":"2021-05-04 06:37:41","iframe_src":"//8209.svetacdn.in/IAF0wWTdNYZm/movie/49088"},{"id":49002,"title":"Дилетанты","kp_id":"3987","imdb_id":"tt0109093","world_art_id":null,"type":"movie","add":"2021-03-22 12:36:36","orig_title":"Amateur","year":"1994-05-15","translations":["Профессиональный (двухголосый закадровый)","Original (English)"],"quality":"bd","translation":"Профессиональный (двухголосый закадровый)","update":"2021-05-04 06:38:46","iframe_src":"//8209.svetacdn.in/IAF0wWTdNYZm/movie/49002"},{"id":48938,"title":"Голоса извне","kp_id":"98176","imdb_id":"tt0100881","world_art_id":null,"type":"movie","add":"2021-03-20 14:10:23","orig_title":"Voci dal profondo","year":"1994-03-01","translations":["Авторский (одноголосый закадровый) (Визгунов Сергей)","Original (English)"],"quality":"bd","translation":"Авторский (одноголосый закадровый) (Визгунов Сергей)","update":"2021-05-04 06:31:12","iframe_src":"//8209.svetacdn.in/IAF0wWTdNYZm/movie/48938"},{"id":48649,"title":"Человек с Планеты Икс","kp_id":"91920","imdb_id":"tt0043778","world_art_id":null,"type":"movie","add":"2021-03-11 06:59:53","orig_title":"The Man from Planet X","year":"1951-03-09","translations":["Любительский (одноголосый закадровый) (den904)","Original (English)"],"quality":"bd","translation":"Любительский (одноголосый закадровый) (den904)","update":"2021-05-04 06:32:01","iframe_src":"//8209.svetacdn.in/IAF0wWTdNYZm/movie/48649"},{"id":48647,"title":"Мозг, который не мог умереть","kp_id":"165270","imdb_id":"tt0052646","world_art_id":null,"type":"movie","add":"2021-03-11 06:55:59","orig_title":"The Brain That Wouldn't Die","year":"1962-02-25","translations":["Авторский (одноголосый закадровый) (Воротилин Олег)","Original (English)"],"quality":"bd","translation":"Авторский (одноголосый закадровый) (Воротилин Олег)","update":"2021-05-04 06:35:13","iframe_src":"//8209.svetacdn.in/IAF0wWTdNYZm/movie/48647"},{"id":41048,"title":"Удушье","kp_id":"1382837","imdb_id":"tt11651780","world_art_id":null,"type":"movie","add":"2020-06-08 20:14:41","orig_title":"Choked","year":"2020-06-05","translations":["Любительский (многоголосый закадровый) (Синема УС)","Любительский (двухголосый закадровый) (OnisFilms)"],"quality":"webdl","translation":"Любительский (многоголосый закадровый) (Синема УС)","update":"2021-05-04 10:42:53","iframe_src":"//8209.svetacdn.in/IAF0wWTdNYZm/movie/41048"},{"id":7670,"title":"Дневники преступности: Кольменарес","kp_id":"1265021","imdb_id":"tt10242266","world_art_id":null,"type":"serial","add":"2020-05-29 19:06:54","orig_title":"Historia de un crimen: Colmenares","year":"2020-05-03","translations":["Любительский (многоголосый закадровый) (Octopus)"],"seasons_count":1,"episodes_count":7,"episodes":7,"update":"2020-05-29 22:00:37","iframe_src":"//8209.svetacdn.in/IAF0wWTdNYZm/tv-series/7670"},{"id":7665,"title":"Чужая","kp_id":"705738","imdb_id":"tt0426704","world_art_id":null,"type":"serial","add":"2020-05-29 10:11:32","orig_title":"Gurbet kadini","year":"2003-01-01","translations":["Профессиональный (многоголосый закадровый)"],"seasons_count":1,"episodes_count":67,"episodes":67,"update":"2020-05-30 11:18:56","iframe_src":"//8209.svetacdn.in/IAF0wWTdNYZm/tv-series/7665"},{"id":7664,"title":"Июньская ночь","kp_id":"503332","imdb_id":"tt0424649","world_art_id":null,"type":"serial","add":"2020-05-29 09:12:09","orig_title":"Iunskaya Nochi","year":"2004-01-01","translations":["Профессиональный (многоголосый закадровый)"],"seasons_count":2,"episodes_count":60,"episodes":28,"update":"2020-05-30 11:20:32","iframe_src":"//8209.svetacdn.in/IAF0wWTdNYZm/tv-series/7664"},{"id":7661,"title":"На моём месте","kp_id":"1367844","imdb_id":"tt8594528","world_art_id":null,"type":"serial","add":"2020-05-29 04:08:25","orig_title":"In My Skin","year":"2020-03-01","translations":["Профессиональный (многоголосый закадровый) (BaibaKo)"],"seasons_count":1,"episodes_count":5,"episodes":5,"update":"2020-05-29 17:06:49","iframe_src":"//8209.svetacdn.in/IAF0wWTdNYZm/tv-series/7661"},{"id":7660,"title":"Джеффри Эпштейн: грязный богач","kp_id":"1379795","imdb_id":"tt12312250","world_art_id":null,"type":"serial","add":"2020-05-29 04:06:11","orig_title":"Jeffrey Epstein: Filthy Rich","year":"2020-05-27","translations":["Профессиональный (двухголосый закадровый) (IdeaFilm)"],"seasons_count":1,"episodes_count":4,"episodes":4,"update":"2020-05-29 16:49:45","iframe_src":"//8209.svetacdn.in/IAF0wWTdNYZm/tv-series/7660"},{"id":7659,"title":"Саутклифф","kp_id":"780551","imdb_id":"tt2446726","world_art_id":null,"type":"serial","add":"2020-05-28 20:40:26","orig_title":"Southcliffe","year":"2013-08-04","translations":["Профессиональный (многоголосый закадровый) (Jaskier)"],"seasons_count":1,"episodes_count":4,"episodes":4,"update":"2020-05-29 18:56:52","iframe_src":"//8209.svetacdn.in/IAF0wWTdNYZm/tv-series/7659"},{"id":7657,"title":"Рыбология","kp_id":"573553","imdb_id":"tt1725902","world_art_id":null,"type":"serial","add":"2020-05-28 19:11:29","orig_title":"Fish Hooks","year":"2010-09-03","translations":["Полное дублирование"],"seasons_count":2,"episodes_count":35,"episodes":12,"update":"2020-05-30 15:02:45","iframe_src":"//8209.svetacdn.in/IAF0wWTdNYZm/tv-series/7657"},{"id":7648,"title":"Заключённый №1","kp_id":"1246475","imdb_id":"tt9893062","world_art_id":null,"type":"serial","add":"2020-05-27 08:34:51","orig_title":"Preso No. 1","year":"2019-07-31","translations":["Любительский (многоголосый закадровый) (Octopus)"],"seasons_count":1,"episodes_count":64,"episodes":64,"update":"2020-05-29 15:18:42","iframe_src":"//8209.svetacdn.in/IAF0wWTdNYZm/tv-series/7648"},{"id":7639,"title":"Грант","kp_id":"1188798","imdb_id":"tt8690814","world_art_id":null,"type":"serial","add":"2020-05-26 17:29:35","orig_title":"Grant","year":"2020-05-25","translations":["Любительский (многоголосый закадровый) (KerobTV)","Профессиональный (многоголосый закадровый) (IdeaFilm)","Любительский (многоголосый закадровый) (ColdFilm)"],"seasons_count":1,"episodes_count":3,"episodes":3,"update":"2020-05-29 16:46:59","iframe_src":"//8209.svetacdn.in/IAF0wWTdNYZm/tv-series/7639"},{"id":7638,"title":"Кот Ик","kp_id":"95236","imdb_id":"tt0103408","world_art_id":null,"type":"serial","add":"2020-05-26 17:13:23","orig_title":"Eek! the Cat","year":"1992-09-11","translations":["Полное дублирование (РенТВ)","Профессиональный (многоголосый закадровый) (2x2)"],"seasons_count":5,"episodes_count":60,"episodes":9,"update":"2020-05-30 14:43:37","iframe_src":"//8209.svetacdn.in/IAF0wWTdNYZm/tv-series/7638"},{"id":7613,"title":"Джонни Браво","kp_id":"229266","imdb_id":"tt0118360","world_art_id":null,"type":"serial","add":"2020-05-24 09:41:46","orig_title":"Johnny Bravo","year":"1997-12-22","translations":["Полное дублирование"],"seasons_count":4,"episodes_count":107,"episodes":10,"update":"2020-05-29 10:07:35","iframe_src":"//8209.svetacdn.in/IAF0wWTdNYZm/tv-series/7613"},{"id":7606,"title":"Мумия","kp_id":"229599","imdb_id":"tt0281471","world_art_id":null,"type":"serial","add":"2020-05-23 10:56:28","orig_title":"The Mummy","year":"2001-09-29","translations":["Полное дублирование"],"seasons_count":2,"episodes_count":26,"episodes":13,"update":"2020-05-29 10:17:46","iframe_src":"//8209.svetacdn.in/IAF0wWTdNYZm/tv-series/7606"},{"id":7563,"title":"Годзилла","kp_id":"229083","imdb_id":"tt0177443","world_art_id":null,"type":"serial","add":"2020-05-18 18:33:27","orig_title":"Godzilla: The Series","year":"1998-09-12","translations":["Полное дублирование (СТС)"],"seasons_count":2,"episodes_count":40,"episodes":19,"update":"2020-05-28 21:11:46","iframe_src":"//8209.svetacdn.in/IAF0wWTdNYZm/tv-series/7563"},{"id":7558,"title":"Адмиралы района","kp_id":"1313588","imdb_id":null,"world_art_id":null,"type":"serial","add":"2020-05-18 13:20:13","orig_title":"Адмиралы района","year":"2020-05-18","translations":["Оригинальная дорожка"],"seasons_count":1,"episodes_count":16,"episodes":16,"update":"2020-05-29 16:43:39","iframe_src":"//8209.svetacdn.in/IAF0wWTdNYZm/tv-series/7558"},{"id":7537,"title":"Секреты, которые она хранит","kp_id":"1366077","imdb_id":"tt11895154","world_art_id":null,"type":"serial","add":"2020-05-16 16:22:41","orig_title":"The Secrets She Keeps","year":"2020-04-04","translations":["Любительский (многоголосый закадровый) (WestFilm)"],"seasons_count":1,"episodes_count":6,"episodes":6,"update":"2020-05-30 15:45:44","iframe_src":"//8209.svetacdn.in/IAF0wWTdNYZm/tv-series/7537"},{"id":7524,"title":"Шпионка","kp_id":"1259495","imdb_id":"tt10204806","world_art_id":null,"type":"serial","add":"2020-05-15 14:21:40","orig_title":"A Espia","year":"2020-04-08","translations":["Любительский (многоголосый закадровый) (Octopus)","Любительский (многоголосый закадровый) (ColdFilm)"],"seasons_count":1,"episodes_count":8,"episodes":8,"update":"2020-05-28 21:29:57","iframe_src":"//8209.svetacdn.in/IAF0wWTdNYZm/tv-series/7524"},{"id":6741,"title":"Трансплантация","kp_id":"1304516","imdb_id":"tt10936342","world_art_id":null,"type":"serial","add":"2020-02-27 15:16:39","orig_title":"Transplant","year":"2020-02-27","translations":["Любительский (многоголосый закадровый) (ColdFilm)","Любительский (многоголосый закадровый) (Octopus)"],"seasons_count":1,"episodes_count":13,"episodes":13,"update":"2020-05-28 21:00:26","iframe_src":"//8209.svetacdn.in/IAF0wWTdNYZm/tv-series/6741"},{"id":36158,"title":"Блэкджек","kp_id":"4919","imdb_id":"tt0126816","world_art_id":null,"type":"movie","add":"2020-02-12 17:23:18","orig_title":"Blackjack","year":"1998-05-12","translations":["Профессиональный (многоголосый закадровый)","Профессиональный (многоголосый закадровый)","Авторский (одноголосый закадровый) (Горчаков Василий)","Авторский (одноголосый закадровый) (Живов Юрий)","Original (English)"],"quality":"dvdrip","translation":"Профессиональный (многоголосый закадровый)","update":"2021-05-04 10:06:30","iframe_src":"//8209.svetacdn.in/IAF0wWTdNYZm/movie/36158"},{"id":35914,"title":"Ханзо-Клинок 2: Западня","kp_id":"164771","imdb_id":"tt0174707","world_art_id":null,"type":"movie","add":"2020-02-07 21:30:22","orig_title":"Goyôkiba: Kamisori Hanzô jigoku zeme","year":"1973-08-11","translations":["Любительский (одноголосый закадровый)","Авторский (одноголосый закадровый) (Кузнецов Сергей)"],"quality":"dvdrip","translation":"Любительский (одноголосый закадровый)","update":"2021-05-04 07:49:31","iframe_src":"//8209.svetacdn.in/IAF0wWTdNYZm/movie/35914"},{"id":31553,"title":"Сохрани мою душу","kp_id":"902224","imdb_id":"tt4385944","world_art_id":null,"type":"movie","add":"2019-10-07 11:47:02","orig_title":"My Soul to Keep","year":"2019-04-12","translations":["Любительский (многоголосый закадровый) (Синема УС)","Профессиональный (многоголосый закадровый) (HDrezka Studio)"],"quality":"webdl","translation":"Любительский (многоголосый закадровый) (Синема УС)","update":"2021-05-04 08:42:31","iframe_src":"//8209.svetacdn.in/IAF0wWTdNYZm/movie/31553"},{"id":4957,"title":"Неизвестная планета Земля","kp_id":"1108508","imdb_id":"tt7651892","world_art_id":null,"type":"serial","add":"2019-07-27 19:32:27","orig_title":"One Strange Rock","year":"2018-03-26","translations":["Профессиональный (многоголосый закадровый) (AMS)","Профессиональный (многоголосый закадровый) (HDrezka Studio)"],"seasons_count":1,"episodes_count":10,"episodes":10,"update":"2020-05-29 11:16:45","iframe_src":"//8209.svetacdn.in/IAF0wWTdNYZm/tv-series/4957"},{"id":4094,"title":"Профессор Т.","kp_id":"1209807","imdb_id":"tt6127960","world_art_id":null,"type":"serial","add":"2019-02-17 08:29:30","orig_title":"Professor T.","year":"2017-02-04","translations":[],"seasons_count":4,"episodes_count":16,"episodes":4,"update":"2020-05-29 13:08:56","iframe_src":"//8209.svetacdn.in/IAF0wWTdNYZm/tv-series/4094"},{"id":22172,"title":"Двойное эхо","kp_id":"1067161","imdb_id":"tt7290688","world_art_id":null,"type":"movie","add":"2019-02-10 21:56:00","orig_title":"Double Echo","year":"2017-07-14","translations":["Любительский (многоголосый закадровый) (Синема УС)","Профессиональный (многоголосый закадровый) (HDrezka Studio)","Профессиональный (многоголосый закадровый) (HDrezka Studio)"],"quality":"webdl","translation":"Любительский (многоголосый закадровый) (Синема УС)","update":"2021-05-04 08:41:44","iframe_src":"//8209.svetacdn.in/IAF0wWTdNYZm/movie/22172"},{"id":19470,"title":"Сражаясь с небесами","kp_id":"920591","imdb_id":"tt4782322","world_art_id":null,"type":"movie","add":"2018-10-09 23:21:35","orig_title":"Fighting the Sky","year":"2019-08-11","translations":["Любительский (многоголосый закадровый) (Синема УС)","Любительский (двухголосый закадровый) (HiWayGrope)","Профессиональный (многоголосый закадровый) (HDrezka Studio)"],"quality":"webdl","translation":"Любительский (многоголосый закадровый) (Синема УС)","update":"2021-05-04 08:42:02","iframe_src":"//8209.svetacdn.in/IAF0wWTdNYZm/movie/19470"},{"id":8887,"title":"Почему он?","kp_id":"930000","imdb_id":"tt4501244","world_art_id":null,"type":"movie","add":"2017-01-13 06:40:48","orig_title":"Why Him?","year":"2016-12-17","translations":["Полное дублирование","Авторский (одноголосый закадровый) (Котов Вячеслав)","Original (English)","Полное дублирование"],"quality":"bd","translation":"Полное дублирование","update":"2021-05-04 07:37:20","iframe_src":"//8209.svetacdn.in/IAF0wWTdNYZm/movie/8887"},{"id":702,"title":"Леди Баг и Супер-кот","kp_id":"958607","imdb_id":"tt2580046","world_art_id":null,"type":"serial","add":"2016-12-17 09:09:34","orig_title":"Miraculous: Tales of Ladybug & Cat Noir","year":"2015-10-19","translations":["Полное дублирование","Любительский (многоголосый закадровый) (AniMaunt)"],"seasons_count":3,"episodes_count":78,"episodes":50,"update":"2020-05-29 13:05:05","iframe_src":"//8209.svetacdn.in/IAF0wWTdNYZm/tv-series/702"},{"id":7757,"title":"Уимблдон","kp_id":"19174","imdb_id":"tt0360201","world_art_id":null,"type":"movie","add":"2016-11-29 14:29:05","orig_title":"Wimbledon","year":"2004-09-13","translations":["Полное дублирование","Полное дублирование","Original (English)","Профессиональный (двухголосый закадровый) (Tycoon)","Профессиональный (многоголосый закадровый) (DDV)","Профессиональный (многоголосый закадровый) (SDI Media)"],"quality":"bd","translation":"Полное дублирование","update":"2021-05-04 09:56:42","iframe_src":"//8209.svetacdn.in/IAF0wWTdNYZm/movie/7757"},{"id":6453,"title":"Плоть + кровь","kp_id":"2704","imdb_id":"tt0089153","world_art_id":null,"type":"movie","add":"2016-10-18 14:50:44","orig_title":"Flesh+Blood","year":"1985-06-10","translations":["Профессиональный (многоголосый закадровый)","Авторский (одноголосый закадровый) (Дольский Андрей)","Авторский (одноголосый закадровый) (Гаврилов Андрей)","Любительский (одноголосый закадровый) (Попов Алексей)","Авторский (одноголосый закадровый) (Сербин Юрий)","Авторский (одноголосый закадровый) (Володарский Леонид)","Original (English)","Профессиональный (многоголосый закадровый) (НТВ)","Профессиональный (многоголосый закадровый) (Н-Кино)","Профессиональный (многоголосый закадровый)"],"quality":"bd","translation":"Профессиональный (многоголосый закадровый)","update":"2021-05-04 06:53:10","iframe_src":"//8209.svetacdn.in/IAF0wWTdNYZm/movie/6453"},{"id":3549,"title":"Впритык","kp_id":"464282","imdb_id":"tt1231583","world_art_id":null,"type":"movie","add":"2016-06-30 19:13:48","orig_title":"Due Date","year":"2010-10-31","translations":["Полное дублирование","Original (English)","Полное дублирование (Мосфильм)","Авторский (одноголосый закадровый) (Сербин Юрий)","Original (English)","Любительский (одноголосый закадровый)","Любительский (одноголосый закадровый) (seqw0 | Ахметов Сергей)"],"quality":"bd","translation":"Полное дублирование","update":"2021-05-04 10:11:47","iframe_src":"//8209.svetacdn.in/IAF0wWTdNYZm/movie/3549"},{"id":1591,"title":"Экипаж","kp_id":"592203","imdb_id":"tt1907668","world_art_id":null,"type":"movie","add":"2016-04-24 07:55:58","orig_title":"Flight","year":"2012-10-14","translations":["Полное дублирование","Авторский (одноголосый закадровый) (Гаврилов Андрей)","Полное дублирование","Original (English)","Профессиональный (двухголосый закадровый) (Омикрон)"],"quality":"bd","translation":"Полное дублирование","update":"2021-05-04 07:32:28","iframe_src":"//8209.svetacdn.in/IAF0wWTdNYZm/movie/1591"},{"id":803,"title":"Три дня на побег","kp_id":"468958","imdb_id":"tt1458175","world_art_id":null,"type":"movie","add":"2016-04-08 16:05:56","orig_title":"The Next Three Days","year":"2010-11-09","translations":["Полное дублирование","Авторский (одноголосый закадровый) (Гаврилов Андрей)","Авторский (одноголосый закадровый) (Сербин Юрий)","Полное дублирование","Original (English)","Профессиональный (двухголосый закадровый) (Кубик в Кубе)"],"quality":"bd","translation":"Полное дублирование","update":"2021-05-04 06:59:03","iframe_src":"//8209.svetacdn.in/IAF0wWTdNYZm/movie/803"}],"current_page":253,"first_page_url":"https://videocdn.tv/api/short?limit=100&api_token=6Onb1W1alEUrBcKJZD3GoKBbWyAl2uG2&cache3253=3253&page=1","from":25201,"last_page":659,"last_page_url":"https://videocdn.tv/api/short?limit=100&api_token=6Onb1W1alEUrBcKJZD3GoKBbWyAl2uG2&cache3253=3253&page=659","next_page_url":"https://videocdn.tv/api/short?limit=100&api_token=6Onb1W1alEUrBcKJZD3GoKBbWyAl2uG2&cache3253=3253&page=254","path":"https://videocdn.tv/api/short","per_page":100,"prev_page_url":"https://videocdn.tv/api/short?limit=100&api_token=6Onb1W1alEUrBcKJZD3GoKBbWyAl2uG2&cache3253=3253&page=252","to":25240,"total":65861}