{"result":true,"data":[{"id":25645,"title":"Летний дождь","kp_id":"79663","imdb_id":"tt0400599","world_art_id":null,"type":"movie","add":"2019-04-29 19:44:00","orig_title":"Letniy dozhd","year":"2003-01-16","translations":["Оригинальная дорожка"],"quality":"dvdrip","translation":"Оригинальная дорожка","update":"2019-05-01 07:09:46","iframe_src":"//7720.svetacdn.in/si4jsFRrtgrT/movie/25645"},{"id":25644,"title":"Линия смерти","kp_id":"45105","imdb_id":"tt0102314","world_art_id":null,"type":"movie","add":"2019-04-29 19:39:25","orig_title":"Liniya smerti","year":"1991-01-01","translations":["Оригинальная дорожка"],"quality":"sat","translation":"Оригинальная дорожка","update":"2019-05-01 07:08:48","iframe_src":"//7720.svetacdn.in/si4jsFRrtgrT/movie/25644"},{"id":25643,"title":"Лялька-Руслан и его друг Санька","kp_id":"271508","imdb_id":"tt0230477","world_art_id":null,"type":"movie","add":"2019-04-29 19:34:07","orig_title":"Lyalka-Ruslan i ego drug Sanka","year":"1980-01-01","translations":["Оригинальная дорожка"],"quality":"dvdrip","translation":"Оригинальная дорожка","update":"2019-05-01 07:07:22","iframe_src":"//7720.svetacdn.in/si4jsFRrtgrT/movie/25643"},{"id":25642,"title":"Любовь под грифом «Совершенно секретно» 3","kp_id":"499996","imdb_id":null,"world_art_id":null,"type":"movie","add":"2019-04-29 19:27:19","orig_title":"Любовь под грифом «Совершенно секретно» 3","year":"2010-02-23","translations":["Оригинальная дорожка"],"quality":"sat","translation":"Оригинальная дорожка","update":"2019-05-01 07:06:21","iframe_src":"//7720.svetacdn.in/si4jsFRrtgrT/movie/25642"},{"id":25641,"title":"Танго любви","kp_id":"400838","imdb_id":"tt1516579","world_art_id":null,"type":"movie","add":"2019-04-29 19:19:12","orig_title":"Tango lyubvi","year":"2006-03-08","translations":["Оригинальная дорожка"],"quality":"dvdrip","translation":"Оригинальная дорожка","update":"2019-05-01 07:04:45","iframe_src":"//7720.svetacdn.in/si4jsFRrtgrT/movie/25641"},{"id":25640,"title":"Ловкач и Хиппоза","kp_id":"45119","imdb_id":"tt0165864","world_art_id":null,"type":"movie","add":"2019-04-29 19:14:38","orig_title":"Lovkach i Khippoza","year":"1991-01-01","translations":["Оригинальная дорожка"],"quality":"dvdrip","translation":"Оригинальная дорожка","update":"2019-05-01 06:56:44","iframe_src":"//7720.svetacdn.in/si4jsFRrtgrT/movie/25640"},{"id":25638,"title":"С днем рождения, Лола!","kp_id":"41024","imdb_id":"tt0371150","world_art_id":null,"type":"movie","add":"2019-04-29 18:29:50","orig_title":"S dnem rozhdeniya, Lola!","year":"2001-10-03","translations":["Оригинальная дорожка"],"quality":"dvdrip","translation":"Оригинальная дорожка","update":"2019-05-01 06:54:55","iframe_src":"//7720.svetacdn.in/si4jsFRrtgrT/movie/25638"},{"id":25637,"title":"Лунный папа","kp_id":"41299","imdb_id":"tt0170259","world_art_id":null,"type":"movie","add":"2019-04-29 18:11:29","orig_title":"Luna Papa","year":"1999-09-08","translations":["Оригинальная дорожка"],"quality":"dvdrip","translation":"Оригинальная дорожка","update":"2019-05-01 06:53:57","iframe_src":"//7720.svetacdn.in/si4jsFRrtgrT/movie/25637"},{"id":25636,"title":"Нас не догонишь","kp_id":"280543","imdb_id":"tt1063686","world_art_id":null,"type":"movie","add":"2019-04-29 18:04:42","orig_title":"Nas ne dogonish","year":"2007-06-03","translations":["Оригинальная дорожка"],"quality":"dvdrip","translation":"Оригинальная дорожка","update":"2019-05-01 06:53:15","iframe_src":"//7720.svetacdn.in/si4jsFRrtgrT/movie/25636"},{"id":25635,"title":"Ненасытные","kp_id":"257380","imdb_id":"tt3726526","world_art_id":null,"type":"movie","add":"2019-04-29 18:01:05","orig_title":"Nenasytnye","year":"2006-08-31","translations":["Оригинальная дорожка"],"quality":"dvdrip","translation":"Оригинальная дорожка","update":"2019-05-01 06:52:27","iframe_src":"//7720.svetacdn.in/si4jsFRrtgrT/movie/25635"},{"id":25634,"title":"Никто, кроме нас…","kp_id":"423032","imdb_id":"tt1386962","world_art_id":null,"type":"movie","add":"2019-04-29 17:57:11","orig_title":"Nikto, krome nas...","year":"2008-08-10","translations":["Оригинальная дорожка"],"quality":"dvdrip","translation":"Оригинальная дорожка","update":"2019-05-01 06:51:31","iframe_src":"//7720.svetacdn.in/si4jsFRrtgrT/movie/25634"},{"id":25632,"title":"Один день","kp_id":"426351","imdb_id":null,"world_art_id":null,"type":"movie","add":"2019-04-29 17:39:08","orig_title":"Один день","year":"2008-05-08","translations":["Оригинальная дорожка"],"quality":"dvdrip","translation":"Оригинальная дорожка","update":"2019-05-01 06:49:51","iframe_src":"//7720.svetacdn.in/si4jsFRrtgrT/movie/25632"},{"id":25631,"title":"Я помню","kp_id":"373421","imdb_id":"tt1059312","world_art_id":null,"type":"movie","add":"2019-04-29 17:30:28","orig_title":"Ya pomnyu","year":"2006-11-01","translations":["Оригинальная дорожка"],"quality":"dvdrip","translation":"Оригинальная дорожка","update":"2019-05-01 06:49:00","iframe_src":"//7720.svetacdn.in/si4jsFRrtgrT/movie/25631"},{"id":25630,"title":"Парашютисты","kp_id":"160901","imdb_id":"tt0265499","world_art_id":null,"type":"movie","add":"2019-04-29 15:42:54","orig_title":"Parashyutisty","year":"1985-04-26","translations":["Оригинальная дорожка"],"quality":"dvdrip","translation":"Оригинальная дорожка","update":"2019-05-01 06:48:16","iframe_src":"//7720.svetacdn.in/si4jsFRrtgrT/movie/25630"},{"id":25629,"title":"Парижский антиквар","kp_id":"426289","imdb_id":"tt1282009","world_art_id":null,"type":"movie","add":"2019-04-29 15:38:29","orig_title":"Parizhskiy antikvar","year":"2001-01-01","translations":["Оригинальная дорожка"],"quality":"dvdrip","translation":"Оригинальная дорожка","update":"2019-05-01 06:47:32","iframe_src":"//7720.svetacdn.in/si4jsFRrtgrT/movie/25629"},{"id":25628,"title":"Попрыгунья","kp_id":"43121","imdb_id":"tt0048504","world_art_id":null,"type":"movie","add":"2019-04-29 15:35:08","orig_title":"Poprygunya","year":"1955-06-10","translations":["Оригинальная дорожка"],"quality":"dvdrip","translation":"Оригинальная дорожка","update":"2019-05-01 06:46:39","iframe_src":"//7720.svetacdn.in/si4jsFRrtgrT/movie/25628"},{"id":25627,"title":"Попса","kp_id":"104143","imdb_id":"tt0460532","world_art_id":null,"type":"movie","add":"2019-04-29 15:31:20","orig_title":"Popsa","year":"2005-08-25","translations":["Оригинальная дорожка"],"quality":"dvdrip","translation":"Оригинальная дорожка","update":"2019-05-01 06:45:49","iframe_src":"//7720.svetacdn.in/si4jsFRrtgrT/movie/25627"},{"id":25626,"title":"Последний переход","kp_id":"567001","imdb_id":"tt5563416","world_art_id":null,"type":"movie","add":"2019-04-29 15:27:45","orig_title":"Posledniy perekhod","year":"1981-01-01","translations":["Оригинальная дорожка"],"quality":"dvdrip","translation":"Оригинальная дорожка","update":"2019-05-01 06:41:08","iframe_src":"//7720.svetacdn.in/si4jsFRrtgrT/movie/25626"},{"id":25624,"title":"Противостояние","kp_id":"253243","imdb_id":"tt1573479","world_art_id":null,"type":"movie","add":"2019-04-29 15:19:19","orig_title":"Protivostoyanie","year":"2006-02-23","translations":["Оригинальная дорожка"],"quality":"dvdrip","translation":"Оригинальная дорожка","update":"2019-05-01 06:39:08","iframe_src":"//7720.svetacdn.in/si4jsFRrtgrT/movie/25624"},{"id":25623,"title":"Репетитор","kp_id":"428950","imdb_id":"tt3511838","world_art_id":null,"type":"movie","add":"2019-04-29 15:13:02","orig_title":"Repetitor","year":"2007-01-01","translations":["Оригинальная дорожка"],"quality":"dvdrip","translation":"Оригинальная дорожка","update":"2019-05-01 06:34:18","iframe_src":"//7720.svetacdn.in/si4jsFRrtgrT/movie/25623"}],"current_page":1539,"first_page_url":"https://videocdn.tv/api/short?limit=100&api_token=X6EwAUfE5M9xbo7y0Bp0aPf3uXxG2KLL&cache31539=31539&page=1","from":153801,"last_page":648,"last_page_url":"https://videocdn.tv/api/short?limit=100&api_token=X6EwAUfE5M9xbo7y0Bp0aPf3uXxG2KLL&cache31539=31539&page=648","next_page_url":null,"path":"https://videocdn.tv/api/short","per_page":100,"prev_page_url":"https://videocdn.tv/api/short?limit=100&api_token=X6EwAUfE5M9xbo7y0Bp0aPf3uXxG2KLL&cache31539=31539&page=1538","to":153820,"total":64704}