{"result":true,"data":[{"id":927,"title":"Элитный отряд","kp_id":"268491","imdb_id":"tt0861739","world_art_id":null,"type":"movie","add":"2016-04-09 19:15:53","orig_title":"Tropa de Elite","year":"2007-08-17","translations":["Профессиональный (многоголосый закадровый)"],"quality":"bd","translation":"Профессиональный (многоголосый закадровый)","update":"2016-04-11 16:12:51","iframe_src":"//8209.svetacdn.in/10IAF0wWTdNYZm/movie/927"},{"id":920,"title":"Не шутите с Zоханом!","kp_id":"280826","imdb_id":"tt0960144","world_art_id":null,"type":"movie","add":"2016-04-09 18:24:05","orig_title":"You Don't Mess with the Zohan","year":"2008-06-06","translations":["Полное дублирование"],"quality":"bd","translation":"Полное дублирование","update":"2016-04-11 16:03:03","iframe_src":"//8209.svetacdn.in/10IAF0wWTdNYZm/movie/920"},{"id":914,"title":"Ванильное небо","kp_id":"870","imdb_id":"tt0259711","world_art_id":null,"type":"movie","add":"2016-04-09 17:50:52","orig_title":"Vanilla Sky","year":"2001-12-10","translations":["Полное дублирование"],"quality":"bd","translation":"Полное дублирование","update":"2016-04-11 16:15:28","iframe_src":"//8209.svetacdn.in/10IAF0wWTdNYZm/movie/914"},{"id":910,"title":"Девушка, которая играла с огнём","kp_id":"409226","imdb_id":"tt1216487","world_art_id":null,"type":"movie","add":"2016-04-09 17:34:24","orig_title":"Flickan som lekte med elden","year":"2009-09-18","translations":["Профессиональный (многоголосый закадровый)"],"quality":"bd","translation":"Профессиональный (многоголосый закадровый)","update":"2016-04-11 16:07:21","iframe_src":"//8209.svetacdn.in/10IAF0wWTdNYZm/movie/910"},{"id":901,"title":"Контакт","kp_id":"1950","imdb_id":"tt0118884","world_art_id":null,"type":"movie","add":"2016-04-09 08:30:23","orig_title":"Contact","year":"1997-07-11","translations":["Полное дублирование"],"quality":"bd","translation":"Полное дублирование","update":"2016-04-11 15:18:40","iframe_src":"//8209.svetacdn.in/10IAF0wWTdNYZm/movie/901"},{"id":899,"title":"Покорители волн","kp_id":"546244","imdb_id":"tt1629757","world_art_id":null,"type":"movie","add":"2016-04-09 08:27:10","orig_title":"Chasing Mavericks","year":"2012-10-25","translations":["Полное дублирование"],"quality":"bd","translation":"Полное дублирование","update":"2016-04-11 15:37:38","iframe_src":"//8209.svetacdn.in/10IAF0wWTdNYZm/movie/899"},{"id":898,"title":"Хичкок","kp_id":"418783","imdb_id":"tt0975645","world_art_id":null,"type":"movie","add":"2016-04-09 08:25:15","orig_title":"Hitchcock","year":"2012-11-01","translations":["Полное дублирование"],"quality":"bd","translation":"Полное дублирование","update":"2016-04-11 15:20:04","iframe_src":"//8209.svetacdn.in/10IAF0wWTdNYZm/movie/898"},{"id":897,"title":"Палата","kp_id":"445148","imdb_id":"tt1369706","world_art_id":null,"type":"movie","add":"2016-04-09 08:22:17","orig_title":"The Ward","year":"2010-09-13","translations":["Полное дублирование"],"quality":"bd","translation":"Полное дублирование","update":"2016-04-11 15:53:17","iframe_src":"//8209.svetacdn.in/10IAF0wWTdNYZm/movie/897"},{"id":896,"title":"Орудия смерти: Город костей","kp_id":"484391","imdb_id":"tt1538403","world_art_id":null,"type":"movie","add":"2016-04-09 08:20:09","orig_title":"The Mortal Instruments: City of Bones","year":"2013-08-12","translations":["Полное дублирование"],"quality":"bd","translation":"Полное дублирование","update":"2016-04-11 15:57:08","iframe_src":"//8209.svetacdn.in/10IAF0wWTdNYZm/movie/896"},{"id":882,"title":"Номер 44","kp_id":"736204","imdb_id":"tt1014763","world_art_id":null,"type":"movie","add":"2016-04-08 21:06:39","orig_title":"Child 44","year":"2015-04-15","translations":["Полное дублирование (iTunes)"],"quality":"bd","translation":"Полное дублирование (iTunes)","update":"2016-04-11 15:24:11","iframe_src":"//8209.svetacdn.in/10IAF0wWTdNYZm/movie/882"},{"id":879,"title":"Сделай шаг","kp_id":"314848","imdb_id":"tt0822868","world_art_id":null,"type":"movie","add":"2016-04-08 20:44:49","orig_title":"Make It Happen","year":"2008-08-08","translations":["Полное дублирование"],"quality":"bd","translation":"Полное дублирование","update":"2016-04-11 15:42:46","iframe_src":"//8209.svetacdn.in/10IAF0wWTdNYZm/movie/879"},{"id":875,"title":"Саботаж","kp_id":"568378","imdb_id":"tt1742334","world_art_id":null,"type":"movie","add":"2016-04-08 20:30:29","orig_title":"Sabotage","year":"2014-03-19","translations":["Полное дублирование"],"quality":"bd","translation":"Полное дублирование","update":"2016-04-11 15:28:49","iframe_src":"//8209.svetacdn.in/10IAF0wWTdNYZm/movie/875"},{"id":863,"title":"Глаз","kp_id":"81965","imdb_id":"tt0406759","world_art_id":null,"type":"movie","add":"2016-04-08 18:40:14","orig_title":"The Eye","year":"2008-01-31","translations":["Полное дублирование"],"quality":"bd","translation":"Полное дублирование","update":"2016-04-11 15:25:24","iframe_src":"//8209.svetacdn.in/10IAF0wWTdNYZm/movie/863"},{"id":860,"title":"Астрал","kp_id":"495892","imdb_id":"tt1591095","world_art_id":null,"type":"movie","add":"2016-04-08 18:30:50","orig_title":"Insidious","year":"2010-09-14","translations":["Полное дублирование"],"quality":"bd","translation":"Полное дублирование","update":"2016-04-11 16:28:56","iframe_src":"//8209.svetacdn.in/10IAF0wWTdNYZm/movie/860"},{"id":852,"title":"Любовь зла","kp_id":"827","imdb_id":"tt0256380","world_art_id":null,"type":"movie","add":"2016-04-08 18:03:10","orig_title":"Shallow Hal","year":"2001-11-01","translations":["Полное дублирование"],"quality":"bd","translation":"Полное дублирование","update":"2016-04-11 15:46:32","iframe_src":"//8209.svetacdn.in/10IAF0wWTdNYZm/movie/852"},{"id":851,"title":"Безбрачная неделя","kp_id":"195384","imdb_id":"tt0480687","world_art_id":null,"type":"movie","add":"2016-04-08 18:01:39","orig_title":"Hall Pass","year":"2011-02-23","translations":["Полное дублирование"],"quality":"bd","translation":"Полное дублирование","update":"2016-04-11 15:50:08","iframe_src":"//8209.svetacdn.in/10IAF0wWTdNYZm/movie/851"},{"id":850,"title":"Бобби","kp_id":"31918","imdb_id":"tt0308055","world_art_id":null,"type":"movie","add":"2016-04-08 17:59:22","orig_title":"Bobby","year":"2006-09-05","translations":["Полное дублирование"],"quality":"bd","translation":"Полное дублирование","update":"2016-04-11 15:44:43","iframe_src":"//8209.svetacdn.in/10IAF0wWTdNYZm/movie/850"},{"id":836,"title":"Бессонница","kp_id":"712","imdb_id":"tt0278504","world_art_id":null,"type":"movie","add":"2016-04-08 17:17:43","orig_title":"Insomnia","year":"2002-05-03","translations":["Полное дублирование"],"quality":"bd","translation":"Полное дублирование","update":"2016-04-11 16:24:20","iframe_src":"//8209.svetacdn.in/10IAF0wWTdNYZm/movie/836"},{"id":832,"title":"Возвращение Супермена","kp_id":"38472","imdb_id":"tt0348150","world_art_id":null,"type":"movie","add":"2016-04-08 17:10:19","orig_title":"Superman Returns","year":"2006-06-21","translations":["Полное дублирование"],"quality":"bd","translation":"Полное дублирование","update":"2016-04-11 16:00:39","iframe_src":"//8209.svetacdn.in/10IAF0wWTdNYZm/movie/832"},{"id":825,"title":"Неудачники","kp_id":"400906","imdb_id":"tt1149361","world_art_id":null,"type":"movie","add":"2016-04-08 16:58:34","orig_title":"Micmacs à tire-larigot","year":"2009-09-15","translations":["Полное дублирование"],"quality":"bd","translation":"Полное дублирование","update":"2016-04-11 16:25:46","iframe_src":"//8209.svetacdn.in/10IAF0wWTdNYZm/movie/825"}],"current_page":2615,"first_page_url":"https://videocdn.tv/api/short?limit=100&api_token=6Onb1W1alEUrBcKJZD3GoKBbWyAl2uG2&cache32615=32615&page=1","from":261401,"last_page":661,"last_page_url":"https://videocdn.tv/api/short?limit=100&api_token=6Onb1W1alEUrBcKJZD3GoKBbWyAl2uG2&cache32615=32615&page=661","next_page_url":null,"path":"https://videocdn.tv/api/short","per_page":100,"prev_page_url":"https://videocdn.tv/api/short?limit=100&api_token=6Onb1W1alEUrBcKJZD3GoKBbWyAl2uG2&cache32615=32615&page=2614","to":261420,"total":66071}