{"result":true,"data":[{"id":20632,"title":"Пруденс Драйв","kp_id":null,"imdb_id":"tt8259148","world_art_id":null,"type":"movie","add":"2018-12-11 00:02:47","orig_title":"Prudence Drive","year":"2018-05-24","translations":["Любительский (многоголосый закадровый) (Синема УС)"],"quality":"hdrip","translation":"Любительский (многоголосый закадровый) (Синема УС)","update":"2018-12-11 08:07:02","iframe_src":"//8332.svetacdn.in/IAF0wWTdNYZm/movie/20632"},{"id":20630,"title":"Операция \"Рождественский Список\"","kp_id":"945088","imdb_id":"tt5178596","world_art_id":null,"type":"movie","add":"2018-12-10 23:58:59","orig_title":"Operation Christmas List","year":"2016-12-19","translations":["Любительский (многоголосый закадровый) (Синема УС)"],"quality":"webdl","translation":"Любительский (многоголосый закадровый) (Синема УС)","update":"2018-12-11 08:08:46","iframe_src":"//8332.svetacdn.in/IAF0wWTdNYZm/movie/20630"},{"id":20626,"title":"Поцелуй мой прах","kp_id":"1140906","imdb_id":"tt8190820","world_art_id":null,"type":"movie","add":"2018-12-10 23:52:54","orig_title":"Kiss My Ashes","year":"2018-12-03","translations":["Профессиональный (многоголосый закадровый) (AlphaProject)"],"quality":"webdl","translation":"Профессиональный (многоголосый закадровый) (AlphaProject)","update":"2018-12-11 08:21:26","iframe_src":"//8332.svetacdn.in/IAF0wWTdNYZm/movie/20626"},{"id":20625,"title":"Убойный отпуск","kp_id":"1217769","imdb_id":"tt9344200","world_art_id":null,"type":"movie","add":"2018-12-10 23:51:18","orig_title":"Killer Vacation","year":"2018-11-23","translations":["Любительский (многоголосый закадровый) (Синема УС)"],"quality":"hdtv","translation":"Любительский (многоголосый закадровый) (Синема УС)","update":"2018-12-11 08:20:35","iframe_src":"//8332.svetacdn.in/IAF0wWTdNYZm/movie/20625"},{"id":20624,"title":"Жан-Франсуа и смысл жизни","kp_id":"993309","imdb_id":"tt4211620","world_art_id":null,"type":"movie","add":"2018-12-10 23:49:55","orig_title":"Jean-François i el sentit de la vida","year":"2018-04-29","translations":["Любительский (многоголосый закадровый) (Синема УС)"],"quality":"webdl","translation":"Любительский (многоголосый закадровый) (Синема УС)","update":"2018-12-11 08:10:58","iframe_src":"//8332.svetacdn.in/IAF0wWTdNYZm/movie/20624"},{"id":20623,"title":"Шершень","kp_id":"1214782","imdb_id":"tt9301884","world_art_id":null,"type":"movie","add":"2018-12-10 23:48:16","orig_title":"Hornet","year":"2018-12-07","translations":["Любительский (многоголосый закадровый) (Синема УС)"],"quality":"webdl","translation":"Любительский (многоголосый закадровый) (Синема УС)","update":"2018-12-11 08:13:06","iframe_src":"//8332.svetacdn.in/IAF0wWTdNYZm/movie/20623"},{"id":20622,"title":"Киноработник","kp_id":"1045496","imdb_id":"tt6851066","world_art_id":null,"type":"movie","add":"2018-12-10 23:45:14","orig_title":"Filmworker","year":"2017-05-19","translations":["Любительский (многоголосый закадровый) (Синема УС)"],"quality":"webdl","translation":"Любительский (многоголосый закадровый) (Синема УС)","update":"2018-12-11 08:18:17","iframe_src":"//8332.svetacdn.in/IAF0wWTdNYZm/movie/20622"},{"id":20620,"title":"Сомнительные","kp_id":"1062827","imdb_id":"tt7087940","world_art_id":null,"type":"movie","add":"2018-12-10 23:41:55","orig_title":"Mutalim Besafek","year":"2017-07-19","translations":["Любительский (многоголосый закадровый) (Синема УС)"],"quality":"webdl","translation":"Любительский (многоголосый закадровый) (Синема УС)","update":"2018-12-11 08:16:10","iframe_src":"//8332.svetacdn.in/IAF0wWTdNYZm/movie/20620"},{"id":20596,"title":"50 первых поцелуев","kp_id":"1084295","imdb_id":null,"world_art_id":null,"type":"movie","add":"2018-12-09 19:26:41","orig_title":"50 Kaime no Fasuto Kisu","year":"2018-06-01","translations":["Любительский (многоголосый закадровый) (Синема УС)","Профессиональный (многоголосый закадровый)"],"quality":"bd","translation":"Любительский (многоголосый закадровый) (Синема УС)","update":"2018-12-10 23:06:15","iframe_src":"//8332.svetacdn.in/IAF0wWTdNYZm/movie/20596"},{"id":19842,"title":"Конрад и Мишель: Если бы слова могли убивать","kp_id":"1185486","imdb_id":"tt8883492","world_art_id":null,"type":"movie","add":"2018-10-28 22:05:38","orig_title":"Conrad & Michelle: If Words Could Kill","year":"2018-09-23","translations":["Любительский (многоголосый закадровый) (Синема УС)","Любительский (двухголосый закадровый) (LakeFilms)"],"quality":"hdtv","translation":"Любительский (многоголосый закадровый) (Синема УС)","update":"2018-12-11 08:15:09","iframe_src":"//8332.svetacdn.in/IAF0wWTdNYZm/movie/19842"},{"id":19654,"title":"Границы","kp_id":"976296","imdb_id":"tt5686062","world_art_id":null,"type":"movie","add":"2018-10-21 23:55:10","orig_title":"Boundaries","year":"2018-03-12","translations":["Любительский (многоголосый закадровый) (@MUZOBOZ@)","Любительский (двухголосый закадровый) (HiWayGrope)","Профессиональный (многоголосый закадровый)"],"quality":"webdl","translation":"Любительский (многоголосый закадровый) (@MUZOBOZ@)","update":"2018-12-11 07:58:22","iframe_src":"//8332.svetacdn.in/IAF0wWTdNYZm/movie/19654"},{"id":512,"title":"Робин Гуд","kp_id":"17579","imdb_id":"tt0070608","world_art_id":null,"type":"movie","add":"2016-04-04 11:32:42","orig_title":"Robin Hood","year":"1973-11-08","translations":["Полное дублирование","Original (English)"],"quality":"hdtv","translation":"Полное дублирование","update":"2018-12-10 13:46:43","iframe_src":"//8332.svetacdn.in/IAF0wWTdNYZm/movie/512"},{"id":509,"title":"Роботы","kp_id":"40666","imdb_id":"tt0358082","world_art_id":null,"type":"movie","add":"2016-04-04 11:27:26","orig_title":"Robots","year":"2005-03-10","translations":["Полное дублирование","Original (English)"],"quality":"bd","translation":"Полное дублирование","update":"2018-12-10 13:47:41","iframe_src":"//8332.svetacdn.in/IAF0wWTdNYZm/movie/509"},{"id":492,"title":"Рио 2","kp_id":"677437","imdb_id":"tt2357291","world_art_id":null,"type":"movie","add":"2016-04-03 20:04:22","orig_title":"Rio 2","year":"2014-03-20","translations":["Полное дублирование","Original (English)"],"quality":"bd","translation":"Полное дублирование","update":"2018-12-10 13:44:49","iframe_src":"//8332.svetacdn.in/IAF0wWTdNYZm/movie/492"},{"id":491,"title":"Рио","kp_id":"465674","imdb_id":"tt1436562","world_art_id":null,"type":"movie","add":"2016-04-03 20:03:01","orig_title":"Rio","year":"2011-03-22","translations":["Полное дублирование","Original (English)"],"quality":"bd","translation":"Полное дублирование","update":"2018-12-10 13:45:53","iframe_src":"//8332.svetacdn.in/IAF0wWTdNYZm/movie/491"},{"id":489,"title":"Тайна красной планеты","kp_id":"441432","imdb_id":"tt1305591","world_art_id":null,"type":"movie","add":"2016-04-03 09:40:34","orig_title":"Mars Needs Moms","year":"2011-03-09","translations":["Полное дублирование","Original (English)"],"quality":"bd","translation":"Полное дублирование","update":"2018-12-10 13:41:17","iframe_src":"//8332.svetacdn.in/IAF0wWTdNYZm/movie/489"},{"id":482,"title":"Самолеты: Огонь и вода","kp_id":"769220","imdb_id":"tt2980706","world_art_id":null,"type":"movie","add":"2016-04-03 09:13:36","orig_title":"Planes: Fire & Rescue","year":"2014-07-15","translations":["Полное дублирование","Original (English)"],"quality":"bd","translation":"Полное дублирование","update":"2018-12-10 13:43:02","iframe_src":"//8332.svetacdn.in/IAF0wWTdNYZm/movie/482"},{"id":464,"title":"Паранорман, или Как приручить зомби","kp_id":"535390","imdb_id":"tt1623288","world_art_id":null,"type":"movie","add":"2016-04-02 21:44:24","orig_title":"ParaNorman","year":"2012-08-03","translations":["Полное дублирование","Original (English)"],"quality":"bd","translation":"Полное дублирование","update":"2018-12-10 13:42:07","iframe_src":"//8332.svetacdn.in/IAF0wWTdNYZm/movie/464"},{"id":463,"title":"Шевели ластами 2","kp_id":"670327","imdb_id":"tt2288005","world_art_id":null,"type":"movie","add":"2016-04-02 21:38:02","orig_title":"Sammy's avonturen 2","year":"2012-08-02","translations":["Полное дублирование","Original (English)"],"quality":"bd","translation":"Полное дублирование","update":"2018-12-10 13:50:18","iframe_src":"//8332.svetacdn.in/IAF0wWTdNYZm/movie/463"},{"id":462,"title":"Шевели ластами!","kp_id":"412306","imdb_id":"tt1230204","world_art_id":null,"type":"movie","add":"2016-04-02 21:35:37","orig_title":"Sammy's avonturen: De geheime doorgang","year":"2010-08-04","translations":["Полное дублирование","Original (English)"],"quality":"bd","translation":"Полное дублирование","update":"2018-12-10 13:49:05","iframe_src":"//8332.svetacdn.in/IAF0wWTdNYZm/movie/462"}],"current_page":1743,"first_page_url":"https://videocdn.tv/api/short?limit=100&api_token=6Onb1W1alEUrBcKJZD3GoKBbWyAl2uG2&cache31743=31743&page=1","from":174201,"last_page":641,"last_page_url":"https://videocdn.tv/api/short?limit=100&api_token=6Onb1W1alEUrBcKJZD3GoKBbWyAl2uG2&cache31743=31743&page=641","next_page_url":null,"path":"https://videocdn.tv/api/short","per_page":100,"prev_page_url":"https://videocdn.tv/api/short?limit=100&api_token=6Onb1W1alEUrBcKJZD3GoKBbWyAl2uG2&cache31743=31743&page=1742","to":174220,"total":64035}