{"result":true,"data":[{"id":40017,"title":"Лола у моря","kp_id":"1141543","imdb_id":"tt8356178","world_art_id":null,"type":"movie","add":"2020-05-01 04:19:19","orig_title":"Lola vers la mer","year":"2019-08-21","translations":["Любительский (многоголосый закадровый) (AlphaProject)"],"quality":"webdl","translation":"Любительский (многоголосый закадровый) (AlphaProject)","update":"2020-05-01 07:37:36","iframe_src":"//2413.svetacdn.in/71tsRs29n5tZ/movie/40017"},{"id":40008,"title":"Призрак и зазывала","kp_id":"1349296","imdb_id":"tt11802938","world_art_id":null,"type":"movie","add":"2020-05-01 04:05:57","orig_title":"The Ghost and the Tout","year":"2018-05-11","translations":["Любительский (многоголосый закадровый) (Синема УС)"],"quality":"webdl","translation":"Любительский (многоголосый закадровый) (Синема УС)","update":"2020-05-01 07:36:47","iframe_src":"//2413.svetacdn.in/71tsRs29n5tZ/movie/40008"},{"id":39995,"title":"Позаботься о моём малыше","kp_id":null,"imdb_id":"tt7380318","world_art_id":null,"type":"movie","add":"2020-04-30 21:08:20","orig_title":"Take Good Care of My Baby","year":"2017-09-10","translations":["Любительский (многоголосый закадровый) (Синема УС)"],"quality":"bd","translation":"Любительский (многоголосый закадровый) (Синема УС)","update":"2020-05-01 08:10:36","iframe_src":"//2413.svetacdn.in/71tsRs29n5tZ/movie/39995"},{"id":39993,"title":"Ветер в твоём сердце","kp_id":"1041362","imdb_id":"tt6640384","world_art_id":null,"type":"movie","add":"2020-04-30 21:04:59","orig_title":"Kokoro ni fuku kaze","year":"2017-03-05","translations":["Любительский (многоголосый закадровый) (Синема УС)"],"quality":"bd","translation":"Любительский (многоголосый закадровый) (Синема УС)","update":"2020-05-01 08:11:51","iframe_src":"//2413.svetacdn.in/71tsRs29n5tZ/movie/39993"},{"id":39987,"title":"Время тьмы","kp_id":"195986","imdb_id":"tt0484273","world_art_id":null,"type":"movie","add":"2020-04-30 13:03:26","orig_title":"La hora fría","year":"2006-10-06","translations":["Профессиональный (многоголосый закадровый)"],"quality":"dvdrip","translation":"Профессиональный (многоголосый закадровый)","update":"2020-04-30 20:28:44","iframe_src":"//2413.svetacdn.in/71tsRs29n5tZ/movie/39987"},{"id":39966,"title":"Поэма в камне","kp_id":"99441","imdb_id":"tt0379299","world_art_id":null,"type":"movie","add":"2020-04-29 22:23:23","orig_title":"Geet Gaaya Pattharon Ne","year":"1964-01-01","translations":["Профессиональный (многоголосый закадровый) (ZEE TV)"],"quality":"dvdrip","translation":"Профессиональный (многоголосый закадровый) (ZEE TV)","update":"2020-05-01 09:52:28","iframe_src":"//2413.svetacdn.in/71tsRs29n5tZ/movie/39966"},{"id":39963,"title":"Сильнее дьявола","kp_id":"34964","imdb_id":"tt0362213","world_art_id":null,"type":"movie","add":"2020-04-29 22:09:06","orig_title":"Taaqatwar","year":"1989-01-01","translations":["Профессиональный (двухголосый закадровый)"],"quality":"dvdrip","translation":"Профессиональный (двухголосый закадровый)","update":"2020-05-01 09:03:10","iframe_src":"//2413.svetacdn.in/71tsRs29n5tZ/movie/39963"},{"id":39962,"title":"Синий зонтик","kp_id":"227215","imdb_id":"tt0457802","world_art_id":null,"type":"movie","add":"2020-04-29 22:06:32","orig_title":"The Blue Umbrella","year":"2005-10-12","translations":["Профессиональный (многоголосый закадровый) (Red Media)"],"quality":"hdrip","translation":"Профессиональный (многоголосый закадровый) (Red Media)","update":"2020-05-01 09:02:23","iframe_src":"//2413.svetacdn.in/71tsRs29n5tZ/movie/39962"},{"id":39961,"title":"Скромница","kp_id":"182782","imdb_id":"tt0067742","world_art_id":null,"type":"movie","add":"2020-04-29 22:01:08","orig_title":"Sharmeelee","year":"1971-04-25","translations":["Профессиональный (многоголосый закадровый) (Формат AB)"],"quality":"dvdrip","translation":"Профессиональный (многоголосый закадровый) (Формат AB)","update":"2020-05-01 09:01:35","iframe_src":"//2413.svetacdn.in/71tsRs29n5tZ/movie/39961"},{"id":39960,"title":"Захват","kp_id":"397959","imdb_id":"tt1132589","world_art_id":null,"type":"movie","add":"2020-04-29 21:53:12","orig_title":"Hijack","year":"2008-09-05","translations":["Профессиональный (двухголосый закадровый)"],"quality":"dvdrip","translation":"Профессиональный (двухголосый закадровый)","update":"2020-05-01 09:01:07","iframe_src":"//2413.svetacdn.in/71tsRs29n5tZ/movie/39960"},{"id":39923,"title":"Вверх тормашками","kp_id":"95295","imdb_id":"tt0245525","world_art_id":null,"type":"movie","add":"2020-04-28 21:50:06","orig_title":"Ulta Seedha","year":"1985-04-26","translations":["Полное дублирование"],"quality":"dvdrip","translation":"Полное дублирование","update":"2020-04-30 17:26:47","iframe_src":"//2413.svetacdn.in/71tsRs29n5tZ/movie/39923"},{"id":39922,"title":"Подставленный","kp_id":"86777","imdb_id":"tt0375791","world_art_id":null,"type":"movie","add":"2020-04-28 21:47:26","orig_title":"Gundaraj","year":"1995-09-07","translations":["Профессиональный (двухголосый закадровый)"],"quality":"dvdrip","translation":"Профессиональный (двухголосый закадровый)","update":"2020-04-30 17:25:17","iframe_src":"//2413.svetacdn.in/71tsRs29n5tZ/movie/39922"},{"id":39921,"title":"Ганга и Джамна","kp_id":"85174","imdb_id":"tt0054910","world_art_id":null,"type":"movie","add":"2020-04-28 21:42:57","orig_title":"Gunga Jumna","year":"1961-08-25","translations":["Профессиональный (многоголосый закадровый) (Red Media)"],"quality":"dvdrip","translation":"Профессиональный (многоголосый закадровый) (Red Media)","update":"2020-04-30 17:22:57","iframe_src":"//2413.svetacdn.in/71tsRs29n5tZ/movie/39921"},{"id":39920,"title":"Герои","kp_id":"395955","imdb_id":"tt1114725","world_art_id":null,"type":"movie","add":"2020-04-28 21:40:32","orig_title":"Heroes","year":"2008-10-24","translations":["Профессиональный (многоголосый закадровый)"],"quality":"dvdrip","translation":"Профессиональный (многоголосый закадровый)","update":"2020-04-30 17:22:30","iframe_src":"//2413.svetacdn.in/71tsRs29n5tZ/movie/39920"},{"id":39919,"title":"Из Бомбея в Гоа","kp_id":"78572","imdb_id":"tt0068305","world_art_id":null,"type":"movie","add":"2020-04-28 21:27:45","orig_title":"Bombay to Goa","year":"1972-03-03","translations":["Профессиональный (многоголосый закадровый) (ZEE TV)"],"quality":"dvdrip","translation":"Профессиональный (многоголосый закадровый) (ZEE TV)","update":"2020-04-30 17:19:36","iframe_src":"//2413.svetacdn.in/71tsRs29n5tZ/movie/39919"},{"id":39917,"title":"Незваный гость","kp_id":"493852","imdb_id":"tt1578116","world_art_id":null,"type":"movie","add":"2020-04-28 21:19:35","orig_title":"Atithi Tum Kab Jaoge?","year":"2010-03-05","translations":["Профессиональный (многоголосый закадровый) (Red Media)"],"quality":"dvdrip","translation":"Профессиональный (многоголосый закадровый) (Red Media)","update":"2020-04-30 17:09:45","iframe_src":"//2413.svetacdn.in/71tsRs29n5tZ/movie/39917"},{"id":39916,"title":"Отвергнутые","kp_id":"36578","imdb_id":"tt0250690","world_art_id":null,"type":"movie","add":"2020-04-28 21:17:29","orig_title":"Refugee","year":"2000-06-30","translations":["Профессиональный (многоголосый закадровый) (Формат AB)"],"quality":"dvdrip","translation":"Профессиональный (многоголосый закадровый) (Формат AB)","update":"2020-04-30 17:08:17","iframe_src":"//2413.svetacdn.in/71tsRs29n5tZ/movie/39916"},{"id":39915,"title":"Поломанные судьбы","kp_id":"230914","imdb_id":"tt0488381","world_art_id":null,"type":"movie","add":"2020-04-28 21:14:31","orig_title":"Corporate","year":"2006-07-07","translations":["Профессиональный (многоголосый закадровый)"],"quality":"dvdrip","translation":"Профессиональный (многоголосый закадровый)","update":"2020-04-30 17:07:34","iframe_src":"//2413.svetacdn.in/71tsRs29n5tZ/movie/39915"},{"id":39914,"title":"Сладостные воспоминания","kp_id":null,"imdb_id":"tt0154145","world_art_id":null,"type":"movie","add":"2020-04-28 21:12:28","orig_title":"Ninaithale Inikkum","year":"1979-04-14","translations":["Любительский (одноголосый закадровый)"],"quality":"dvdrip","translation":"Любительский (одноголосый закадровый)","update":"2020-04-30 17:07:35","iframe_src":"//2413.svetacdn.in/71tsRs29n5tZ/movie/39914"},{"id":39913,"title":"Судьба солдата","kp_id":"222040","imdb_id":"tt0102701","world_art_id":null,"type":"movie","add":"2020-04-28 21:09:26","orig_title":"Prahaar: The Final Attack","year":"1991-01-01","translations":["Профессиональный (двухголосый закадровый)"],"quality":"dvdrip","translation":"Профессиональный (двухголосый закадровый)","update":"2020-04-30 16:53:06","iframe_src":"//2413.svetacdn.in/71tsRs29n5tZ/movie/39913"}],"current_page":1210,"first_page_url":"https://videocdn.tv/api/short?limit=100&api_token=EnbO9h8pv1VyjbCJhg0WM9nG259n7mtz&cache31210=31210&page=1","from":120901,"last_page":718,"last_page_url":"https://videocdn.tv/api/short?limit=100&api_token=EnbO9h8pv1VyjbCJhg0WM9nG259n7mtz&cache31210=31210&page=718","next_page_url":null,"path":"https://videocdn.tv/api/short","per_page":100,"prev_page_url":"https://videocdn.tv/api/short?limit=100&api_token=EnbO9h8pv1VyjbCJhg0WM9nG259n7mtz&cache31210=31210&page=1209","to":120920,"total":71735}