{"result":true,"data":[{"id":14114,"title":"Одной крови","kp_id":"301622","imdb_id":null,"world_art_id":null,"type":"movie","add":"2017-10-28 23:47:21","orig_title":"Одной крови","year":"2007-07-23","translations":["Профессиональный (многоголосый закадровый)"],"quality":"dvdrip","translation":"Профессиональный (многоголосый закадровый)","update":"2017-10-29 07:35:44","iframe_src":"//7043.svetacdn.in/si4jsFRrtgrT/movie/14114"},{"id":14103,"title":"Два билета в Венецию","kp_id":"602908","imdb_id":null,"world_art_id":null,"type":"movie","add":"2017-10-27 08:26:47","orig_title":"Два билета в Венецию","year":"2011-08-21","translations":["Оригинальная дорожка"],"quality":"hdtv","translation":"Оригинальная дорожка","update":"2017-10-28 21:37:52","iframe_src":"//7043.svetacdn.in/si4jsFRrtgrT/movie/14103"},{"id":14101,"title":"Дельфин: История мечтателя","kp_id":"484331","imdb_id":"tt1206541","world_art_id":null,"type":"movie","add":"2017-10-27 08:14:52","orig_title":"El delfín: La historia de un soñador","year":"2009-10-06","translations":["Профессиональный (многоголосый закадровый)"],"quality":"bd","translation":"Профессиональный (многоголосый закадровый)","update":"2017-10-28 21:40:19","iframe_src":"//7043.svetacdn.in/si4jsFRrtgrT/movie/14101"},{"id":14096,"title":"Джимми Карр: Смеясь и шутя","kp_id":"818688","imdb_id":"tt3486648","world_art_id":null,"type":"movie","add":"2017-10-27 07:45:19","orig_title":"Jimmy Carr: Laughing and Joking","year":"2013-11-18","translations":["Оригинальная дорожка"],"quality":"dvdrip","translation":"Оригинальная дорожка","update":"2017-10-29 07:33:53","iframe_src":"//7043.svetacdn.in/si4jsFRrtgrT/movie/14096"},{"id":14092,"title":"Черная вода","kp_id":"421936","imdb_id":"tt1223980","world_art_id":null,"type":"movie","add":"2017-10-27 07:23:29","orig_title":"Zwart water","year":"2010-03-10","translations":["Любительский (одноголосый закадровый)"],"quality":"dvdrip","translation":"Любительский (одноголосый закадровый)","update":"2017-10-28 22:21:00","iframe_src":"//7043.svetacdn.in/si4jsFRrtgrT/movie/14092"},{"id":14091,"title":"Отдых на грани нервного срыва","kp_id":"572310","imdb_id":"tt1754946","world_art_id":null,"type":"movie","add":"2017-10-27 07:16:41","orig_title":"Ni à vendre ni à louer","year":"2011-06-15","translations":["Оригинальная дорожка"],"quality":"dvdrip","translation":"Оригинальная дорожка","update":"2017-10-28 21:46:16","iframe_src":"//7043.svetacdn.in/si4jsFRrtgrT/movie/14091"},{"id":14090,"title":"Почти как люди","kp_id":"409646","imdb_id":"tt1109478","world_art_id":null,"type":"movie","add":"2017-10-27 07:12:37","orig_title":"Humains","year":"2009-04-11","translations":["Профессиональный (многоголосый закадровый)"],"quality":"dvdrip","translation":"Профессиональный (многоголосый закадровый)","update":"2017-10-28 21:52:42","iframe_src":"//7043.svetacdn.in/si4jsFRrtgrT/movie/14090"},{"id":14089,"title":"Паника на Рок-Айленде","kp_id":"531801","imdb_id":"tt1659211","world_art_id":null,"type":"movie","add":"2017-10-27 07:08:08","orig_title":"Panic at Rock Island","year":"2011-02-01","translations":["Профессиональный (многоголосый закадровый)"],"quality":"dvdrip","translation":"Профессиональный (многоголосый закадровый)","update":"2017-10-28 22:17:44","iframe_src":"//7043.svetacdn.in/si4jsFRrtgrT/movie/14089"},{"id":14088,"title":"Виверн: Возрождение дракона","kp_id":"432875","imdb_id":"tt1331335","world_art_id":null,"type":"movie","add":"2017-10-27 07:01:16","orig_title":"Wyvern","year":"2009-01-31","translations":["Профессиональный (многоголосый закадровый)"],"quality":"bd","translation":"Профессиональный (многоголосый закадровый)","update":"2017-10-28 22:19:08","iframe_src":"//7043.svetacdn.in/si4jsFRrtgrT/movie/14088"},{"id":14087,"title":"Пристанище","kp_id":"424070","imdb_id":"tt0852963","world_art_id":null,"type":"movie","add":"2017-10-27 06:55:54","orig_title":"Il nascondiglio","year":"2007-11-16","translations":["Профессиональный (многоголосый закадровый)"],"quality":"dvdrip","translation":"Профессиональный (многоголосый закадровый)","update":"2017-10-28 21:48:16","iframe_src":"//7043.svetacdn.in/si4jsFRrtgrT/movie/14087"},{"id":14067,"title":"Немножко неудачи","kp_id":"709172","imdb_id":"tt2406306","world_art_id":null,"type":"movie","add":"2017-10-26 23:15:04","orig_title":"A Bit of Bad Luck","year":"2014-04-17","translations":["Любительский (многоголосый закадровый) (Синема УС)"],"quality":"webdl","translation":"Любительский (многоголосый закадровый) (Синема УС)","update":"2017-10-27 06:51:11","iframe_src":"//7043.svetacdn.in/si4jsFRrtgrT/movie/14067"},{"id":14065,"title":"Килла","kp_id":"814970","imdb_id":"tt3341582","world_art_id":null,"type":"movie","add":"2017-10-26 23:00:08","orig_title":"Killa","year":"2014-02-11","translations":["Любительский (многоголосый закадровый) (Синема УС)"],"quality":"dvdrip","translation":"Любительский (многоголосый закадровый) (Синема УС)","update":"2017-10-27 06:55:02","iframe_src":"//7043.svetacdn.in/si4jsFRrtgrT/movie/14065"},{"id":14064,"title":"Зойкина любовь","kp_id":"581803","imdb_id":null,"world_art_id":null,"type":"movie","add":"2017-10-26 21:41:34","orig_title":"Зойкина любовь","year":"2011-02-27","translations":["Оригинальная дорожка"],"quality":"sat","translation":"Оригинальная дорожка","update":"2017-10-27 08:29:34","iframe_src":"//7043.svetacdn.in/si4jsFRrtgrT/movie/14064"},{"id":14063,"title":"Клеопатра","kp_id":"80327","imdb_id":"tt0346765","world_art_id":null,"type":"movie","add":"2017-10-26 21:23:32","orig_title":"Cleopatra","year":"2003-08-14","translations":["Профессиональный (многоголосый закадровый)"],"quality":"dvdrip","translation":"Профессиональный (многоголосый закадровый)","update":"2017-10-27 08:32:32","iframe_src":"//7043.svetacdn.in/si4jsFRrtgrT/movie/14063"},{"id":14062,"title":"Октан","kp_id":"14868","imdb_id":"tt0323465","world_art_id":null,"type":"movie","add":"2017-10-26 19:14:27","orig_title":"Octane","year":"2003-05-16","translations":["Профессиональный (двухголосый закадровый)"],"quality":"dvdrip","translation":"Профессиональный (двухголосый закадровый)","update":"2017-10-27 08:36:20","iframe_src":"//7043.svetacdn.in/si4jsFRrtgrT/movie/14062"},{"id":14061,"title":"Пауки","kp_id":"538021","imdb_id":"tt1659216","world_art_id":null,"type":"movie","add":"2017-10-26 14:55:39","orig_title":"Spiders 3D","year":"2013-02-08","translations":["Любительский (одноголосый закадровый)"],"quality":"bd","translation":"Любительский (одноголосый закадровый)","update":"2017-10-27 08:41:55","iframe_src":"//7043.svetacdn.in/si4jsFRrtgrT/movie/14061"},{"id":14060,"title":"Ходорковский","kp_id":"579633","imdb_id":"tt1733525","world_art_id":null,"type":"movie","add":"2017-10-26 14:49:04","orig_title":"Khodorkovsky","year":"2011-02-14","translations":["Оригинальная дорожка"],"quality":"dvdrip","translation":"Оригинальная дорожка","update":"2017-10-27 08:44:56","iframe_src":"//7043.svetacdn.in/si4jsFRrtgrT/movie/14060"},{"id":14058,"title":"Ямада: Самурай Нагасама","kp_id":"586594","imdb_id":"tt1905010","world_art_id":null,"type":"movie","add":"2017-10-26 14:40:21","orig_title":"Samurai Ayothaya","year":"2010-12-02","translations":["Профессиональный (многоголосый закадровый)"],"quality":"bd","translation":"Профессиональный (многоголосый закадровый)","update":"2017-10-27 08:38:24","iframe_src":"//7043.svetacdn.in/si4jsFRrtgrT/movie/14058"},{"id":12600,"title":"Овердрайв","kp_id":"591780","imdb_id":"tt1935194","world_art_id":null,"type":"movie","add":"2017-07-24 13:54:19","orig_title":"Overdrive","year":"2017-06-15","translations":["Полное дублирование"],"quality":"webdl","translation":"Полное дублирование","update":"2017-10-29 07:29:50","iframe_src":"//7043.svetacdn.in/si4jsFRrtgrT/movie/12600"},{"id":10467,"title":"10 000 миль","kp_id":"932729","imdb_id":"tt4884914","world_art_id":null,"type":"movie","add":"2017-03-22 21:36:58","orig_title":"10,000 Miles","year":"2016-12-16","translations":["Любительский (двухголосый закадровый) (STEPonee)","Любительский (одноголосый закадровый)"],"quality":"unknown","translation":"Любительский (двухголосый закадровый) (STEPonee)","update":"2017-10-27 07:01:01","iframe_src":"//7043.svetacdn.in/si4jsFRrtgrT/movie/10467"}],"current_page":1920,"first_page_url":"https://videocdn.tv/api/short?limit=100&api_token=X6EwAUfE5M9xbo7y0Bp0aPf3uXxG2KLL&cache31920=31920&page=1","from":191901,"last_page":611,"last_page_url":"https://videocdn.tv/api/short?limit=100&api_token=X6EwAUfE5M9xbo7y0Bp0aPf3uXxG2KLL&cache31920=31920&page=611","next_page_url":null,"path":"https://videocdn.tv/api/short","per_page":100,"prev_page_url":"https://videocdn.tv/api/short?limit=100&api_token=X6EwAUfE5M9xbo7y0Bp0aPf3uXxG2KLL&cache31920=31920&page=1919","to":191920,"total":61080}