{"result":true,"data":[{"id":42989,"title":"Другая сторона Лондона","kp_id":"1002908","imdb_id":"tt6051312","world_art_id":null,"type":"movie","add":"2020-08-31 21:16:33","orig_title":"London Unplugged","year":"2018-04-28","translations":["Любительский (многоголосый закадровый) (Синема УС)"],"quality":"webdl","translation":"Любительский (многоголосый закадровый) (Синема УС)","update":"2020-09-01 12:04:38","iframe_src":"//8209.svetacdn.in/si4jsFRrtgrT/movie/42989"},{"id":42988,"title":"Районная медсестра","kp_id":"1156836","imdb_id":"tt7883528","world_art_id":null,"type":"movie","add":"2020-08-31 21:14:26","orig_title":"District Nurse","year":"2018-01-01","translations":["Любительский (многоголосый закадровый) (Синема УС)"],"quality":"webdl","translation":"Любительский (многоголосый закадровый) (Синема УС)","update":"2020-09-01 12:05:01","iframe_src":"//8209.svetacdn.in/si4jsFRrtgrT/movie/42988"},{"id":42986,"title":"Машина любви","kp_id":"1179552","imdb_id":"tt8747696","world_art_id":null,"type":"movie","add":"2020-08-31 20:34:28","orig_title":"Love Machine","year":"2019-02-01","translations":["Любительский (многоголосый закадровый) (AlphaProject)"],"quality":"webdl","translation":"Любительский (многоголосый закадровый) (AlphaProject)","update":"2020-09-01 12:05:26","iframe_src":"//8209.svetacdn.in/si4jsFRrtgrT/movie/42986"},{"id":42945,"title":"Где ты, мой конь?","kp_id":"581848","imdb_id":"tt6210206","world_art_id":null,"type":"movie","add":"2020-08-30 20:52:40","orig_title":"Gde ty, moy kon?","year":"1988-01-01","translations":["Оригинальная дорожка"],"quality":"dvdrip","translation":"Оригинальная дорожка","update":"2020-09-01 12:34:39","iframe_src":"//8209.svetacdn.in/si4jsFRrtgrT/movie/42945"},{"id":42944,"title":"История Власа, лентяя и лоботряса","kp_id":"704840","imdb_id":null,"world_art_id":null,"type":"movie","add":"2020-08-30 20:49:18","orig_title":"История Власа, лентяя и лоботряса","year":"1959-01-01","translations":["Оригинальная дорожка"],"quality":"dvdrip","translation":"Оригинальная дорожка","update":"2020-09-01 12:34:04","iframe_src":"//8209.svetacdn.in/si4jsFRrtgrT/movie/42944"},{"id":42943,"title":"Как Алдар-Косе перехитрил тигра","kp_id":"702006","imdb_id":null,"world_art_id":null,"type":"movie","add":"2020-08-30 20:45:33","orig_title":"Как Алдар-Косе перехитрил тигра","year":"1976-01-01","translations":["Оригинальная дорожка"],"quality":"tv","translation":"Оригинальная дорожка","update":"2020-09-01 12:33:00","iframe_src":"//8209.svetacdn.in/si4jsFRrtgrT/movie/42943"},{"id":42942,"title":"Как медвежата китов кормили","kp_id":"727427","imdb_id":null,"world_art_id":null,"type":"movie","add":"2020-08-30 20:42:00","orig_title":"Как медвежата китов кормили","year":"1975-01-01","translations":["Оригинальная дорожка"],"quality":"vhs","translation":"Оригинальная дорожка","update":"2020-09-01 12:32:00","iframe_src":"//8209.svetacdn.in/si4jsFRrtgrT/movie/42942"},{"id":42941,"title":"Как ослик грустью заболел","kp_id":"632950","imdb_id":"tt6088822","world_art_id":null,"type":"movie","add":"2020-08-30 20:30:56","orig_title":"Kak oslik grust'yu zabolel","year":"1987-01-01","translations":["Оригинальная дорожка"],"quality":"dvdrip","translation":"Оригинальная дорожка","update":"2020-09-01 12:30:45","iframe_src":"//8209.svetacdn.in/si4jsFRrtgrT/movie/42941"},{"id":42940,"title":"Как ослик счастье искал","kp_id":"489282","imdb_id":"tt5523672","world_art_id":null,"type":"movie","add":"2020-08-30 20:27:59","orig_title":"Kak oslik schastiya iskal","year":"1971-02-15","translations":["Оригинальная дорожка"],"quality":"dvdrip","translation":"Оригинальная дорожка","update":"2020-09-01 12:29:28","iframe_src":"//8209.svetacdn.in/si4jsFRrtgrT/movie/42940"},{"id":42939,"title":"Кот Леопольд. Интервью с котом Леопольдом","kp_id":"481433","imdb_id":null,"world_art_id":null,"type":"movie","add":"2020-08-30 20:24:28","orig_title":"Кот Леопольд. Интервью с котом Леопольдом","year":"1984-01-01","translations":["Оригинальная дорожка"],"quality":"sat","translation":"Оригинальная дорожка","update":"2020-09-01 12:28:42","iframe_src":"//8209.svetacdn.in/si4jsFRrtgrT/movie/42939"},{"id":42937,"title":"Козлик и ослик","kp_id":"683388","imdb_id":"tt6485398","world_art_id":null,"type":"movie","add":"2020-08-30 20:06:18","orig_title":"Kozlik i oslik","year":"1974-01-01","translations":["Оригинальная дорожка"],"quality":"sat","translation":"Оригинальная дорожка","update":"2020-09-01 12:27:20","iframe_src":"//8209.svetacdn.in/si4jsFRrtgrT/movie/42937"},{"id":42936,"title":"Лапочка","kp_id":"1271090","imdb_id":null,"world_art_id":null,"type":"movie","add":"2020-08-30 20:03:33","orig_title":"Лапочка","year":"1986-01-01","translations":["Оригинальная дорожка"],"quality":"dvdrip","translation":"Оригинальная дорожка","update":"2020-09-01 12:12:53","iframe_src":"//8209.svetacdn.in/si4jsFRrtgrT/movie/42936"},{"id":42935,"title":"Лис, который ничего не умел","kp_id":"692720","imdb_id":null,"world_art_id":null,"type":"movie","add":"2020-08-30 19:59:04","orig_title":"Лис, который ничего не умел","year":"1976-01-01","translations":["Оригинальная дорожка"],"quality":"dvdrip","translation":"Оригинальная дорожка","update":"2020-09-01 12:11:57","iframe_src":"//8209.svetacdn.in/si4jsFRrtgrT/movie/42935"},{"id":42934,"title":"Лиса-строитель","kp_id":"259911","imdb_id":"tt6114948","world_art_id":null,"type":"movie","add":"2020-08-30 19:54:20","orig_title":"Lisa-stroitel","year":"1950-01-01","translations":["Оригинальная дорожка"],"quality":"dvdrip","translation":"Оригинальная дорожка","update":"2020-09-01 12:11:04","iframe_src":"//8209.svetacdn.in/si4jsFRrtgrT/movie/42934"},{"id":42933,"title":"Мишка + Машка","kp_id":"818409","imdb_id":null,"world_art_id":null,"type":"movie","add":"2020-08-30 19:50:22","orig_title":"Мишка + Машка","year":"1964-01-01","translations":["Оригинальная дорожка"],"quality":"vhs","translation":"Оригинальная дорожка","update":"2020-09-01 12:09:46","iframe_src":"//8209.svetacdn.in/si4jsFRrtgrT/movie/42933"},{"id":42893,"title":"Необыкновенная охота","kp_id":"264956","imdb_id":"tt0830502","world_art_id":null,"type":"movie","add":"2020-08-28 19:52:52","orig_title":"Arachveulebrivi nadiroba","year":"1980-01-01","translations":["Оригинальная дорожка"],"quality":"dvdrip","translation":"Оригинальная дорожка","update":"2020-09-01 12:08:49","iframe_src":"//8209.svetacdn.in/si4jsFRrtgrT/movie/42893"},{"id":42892,"title":"О мода, мода","kp_id":"271148","imdb_id":"tt0794135","world_art_id":null,"type":"movie","add":"2020-08-28 19:46:43","orig_title":"O moda, moda!","year":"1968-01-01","translations":["Оригинальная дорожка"],"quality":"tv","translation":"Оригинальная дорожка","update":"2020-09-01 12:07:57","iframe_src":"//8209.svetacdn.in/si4jsFRrtgrT/movie/42892"},{"id":16253,"title":"Сага о чудовище. Сумерки","kp_id":"939579","imdb_id":"tt5085924","world_art_id":null,"type":"movie","add":"2018-04-14 22:20:50","orig_title":"Wildling","year":"2018-03-10","translations":["Любительский (многоголосый закадровый) (@MUZOBOZ@)","Любительский (одноголосый закадровый) (BadBajo)","Любительский (двухголосый закадровый) (HiWayGrope)","Профессиональный (многоголосый закадровый) (HDrezka Studio)","Профессиональный (многоголосый закадровый) (GreenРай Studio)","Полное дублирование","Профессиональный (многоголосый закадровый) (HDrezka Studio)"],"quality":"webdl","translation":"Любительский (многоголосый закадровый) (@MUZOBOZ@)","update":"2020-09-01 12:11:38","iframe_src":"//8209.svetacdn.in/si4jsFRrtgrT/movie/16253"},{"id":15864,"title":"Тебя никогда здесь не было","kp_id":"981957","imdb_id":"tt5742374","world_art_id":null,"type":"movie","add":"2018-03-27 08:27:48","orig_title":"You Were Never Really Here","year":"2017-05-27","translations":["Любительский (многоголосый закадровый) (@MUZOBOZ@)","Профессиональный (многоголосый закадровый) (HDrezka Studio)","Профессиональный (многоголосый закадровый)","Original (English)","Профессиональный (многоголосый закадровый) (HDrezka Studio)"],"quality":"bd","translation":"Любительский (многоголосый закадровый) (@MUZOBOZ@)","update":"2020-09-01 12:11:17","iframe_src":"//8209.svetacdn.in/si4jsFRrtgrT/movie/15864"},{"id":15146,"title":"Винчестер. Дом, который построили призраки","kp_id":"1044592","imdb_id":"tt1072748","world_art_id":null,"type":"movie","add":"2018-02-11 09:27:49","orig_title":"Winchester: The House that Ghosts Built","year":"2018-02-02","translations":["Любительский (многоголосый закадровый) (Колобок)","Любительский (многоголосый закадровый) (@MUZOBOZ@)","Профессиональный (многоголосый закадровый) (HDrezka Studio)","Полное дублирование","Original (English)","Профессиональный (многоголосый закадровый) (HDrezka Studio)"],"quality":"camrip","translation":"Любительский (многоголосый закадровый) (Колобок)","update":"2020-09-01 12:13:02","iframe_src":"//8209.svetacdn.in/si4jsFRrtgrT/movie/15146"}],"current_page":658,"first_page_url":"https://videocdn.tv/api/short?limit=100&api_token=X6EwAUfE5M9xbo7y0Bp0aPf3uXxG2KLL&cache3658=3658&page=1","from":65701,"last_page":655,"last_page_url":"https://videocdn.tv/api/short?limit=100&api_token=X6EwAUfE5M9xbo7y0Bp0aPf3uXxG2KLL&cache3658=3658&page=655","next_page_url":null,"path":"https://videocdn.tv/api/short","per_page":100,"prev_page_url":"https://videocdn.tv/api/short?limit=100&api_token=X6EwAUfE5M9xbo7y0Bp0aPf3uXxG2KLL&cache3658=3658&page=657","to":65720,"total":65456}