{"result":true,"data":[{"id":9012,"title":"Дуэль сердец","kp_id":"328231","imdb_id":"tt0104149","world_art_id":null,"type":"movie","add":"2017-01-18 05:45:38","orig_title":"Duel of Hearts","year":"1991-04-06","translations":["Профессиональный (многоголосый закадровый)"],"quality":"dvdrip","translation":"Профессиональный (многоголосый закадровый)","update":"2017-01-18 08:13:58","iframe_src":"//83.svetacdn.in/PfJ50H0ZBPg3/movie/9012"},{"id":9011,"title":"Бесшумный перезвон ветра","kp_id":"470376","imdb_id":"tt1360832","world_art_id":null,"type":"movie","add":"2017-01-18 05:44:27","orig_title":"Soundless Wind Chime","year":"2009-02-09","translations":["Любительский (одноголосый закадровый)"],"quality":"dvdrip","translation":"Любительский (одноголосый закадровый)","update":"2017-01-18 08:14:42","iframe_src":"//83.svetacdn.in/PfJ50H0ZBPg3/movie/9011"},{"id":9010,"title":"Чёрная кобра","kp_id":"680992","imdb_id":"tt1499948","world_art_id":null,"type":"movie","add":"2017-01-18 05:43:13","orig_title":"When the Cobra Strikes","year":"2012-05-22","translations":["Любительский (одноголосый закадровый) (Хихикающий доктор)"],"quality":"dvdrip","translation":"Любительский (одноголосый закадровый) (Хихикающий доктор)","update":"2017-01-18 09:30:04","iframe_src":"//83.svetacdn.in/PfJ50H0ZBPg3/movie/9010"},{"id":9007,"title":"Кинг Конг","kp_id":"534","imdb_id":"tt0024216","world_art_id":null,"type":"movie","add":"2017-01-18 05:39:32","orig_title":"King Kong","year":"1933-03-02","translations":["Профессиональный (многоголосый закадровый)"],"quality":"bd","translation":"Профессиональный (многоголосый закадровый)","update":"2017-01-18 09:31:47","iframe_src":"//83.svetacdn.in/PfJ50H0ZBPg3/movie/9007"},{"id":8980,"title":"Экстремальное кино","kp_id":"261370","imdb_id":"tt0806147","world_art_id":null,"type":"movie","add":"2017-01-17 11:10:31","orig_title":"Extreme Movie","year":"2008-12-05","translations":["Профессиональный (двухголосый закадровый)"],"quality":"bd","translation":"Профессиональный (двухголосый закадровый)","update":"2017-01-18 08:37:22","iframe_src":"//83.svetacdn.in/PfJ50H0ZBPg3/movie/8980"},{"id":8978,"title":"Возвращённые","kp_id":"665212","imdb_id":"tt2093270","world_art_id":null,"type":"movie","add":"2017-01-17 11:06:24","orig_title":"The Returned","year":"2013-10-18","translations":["Любительский (двухголосый закадровый)"],"quality":"bd","translation":"Любительский (двухголосый закадровый)","update":"2017-01-18 08:34:23","iframe_src":"//83.svetacdn.in/PfJ50H0ZBPg3/movie/8978"},{"id":8976,"title":"На работе","kp_id":"739108","imdb_id":"tt2717558","world_art_id":null,"type":"movie","add":"2017-01-17 11:02:57","orig_title":"On the Job","year":"2013-05-24","translations":["Авторский (одноголосый закадровый) (Дольский Андрей)"],"quality":"bd","translation":"Авторский (одноголосый закадровый) (Дольский Андрей)","update":"2017-01-18 08:31:23","iframe_src":"//83.svetacdn.in/PfJ50H0ZBPg3/movie/8976"},{"id":8975,"title":"Королева Катве","kp_id":"893620","imdb_id":"tt4341582","world_art_id":null,"type":"movie","add":"2017-01-17 10:59:19","orig_title":"Queen of Katwe","year":"2016-09-10","translations":["Профессиональный (многоголосый закадровый) (iTunes)"],"quality":"bd","translation":"Профессиональный (многоголосый закадровый) (iTunes)","update":"2017-01-18 08:29:46","iframe_src":"//83.svetacdn.in/PfJ50H0ZBPg3/movie/8975"},{"id":8875,"title":"Гелиос","kp_id":"817883","imdb_id":"tt3614922","world_art_id":null,"type":"movie","add":"2017-01-12 11:30:45","orig_title":"Chek dou","year":"2015-04-28","translations":["Любительский (двухголосый закадровый)"],"quality":"bd","translation":"Любительский (двухголосый закадровый)","update":"2017-01-18 11:33:12","iframe_src":"//83.svetacdn.in/PfJ50H0ZBPg3/movie/8875"},{"id":8874,"title":"Ты веришь?","kp_id":"851923","imdb_id":"tt4056738","world_art_id":null,"type":"movie","add":"2017-01-12 11:29:07","orig_title":"Do You Believe?","year":"2015-03-20","translations":["Любительский (двухголосый закадровый)"],"quality":"bd","translation":"Любительский (двухголосый закадровый)","update":"2017-01-18 11:30:58","iframe_src":"//83.svetacdn.in/PfJ50H0ZBPg3/movie/8874"},{"id":8873,"title":"Виндзор Драйв","kp_id":"695706","imdb_id":"tt2311428","world_art_id":null,"type":"movie","add":"2017-01-12 11:27:45","orig_title":"Windsor Drive","year":"2015-08-28","translations":["Любительский (одноголосый закадровый)"],"quality":"webdl","translation":"Любительский (одноголосый закадровый)","update":"2017-01-18 11:28:55","iframe_src":"//83.svetacdn.in/PfJ50H0ZBPg3/movie/8873"},{"id":8870,"title":"Зона вторжения","kp_id":"853905","imdb_id":"tt3501492","world_art_id":null,"type":"movie","add":"2017-01-12 11:12:55","orig_title":"RZ-9","year":"2015-04-16","translations":["Любительский (одноголосый закадровый)"],"quality":"bd","translation":"Любительский (одноголосый закадровый)","update":"2017-01-18 11:22:43","iframe_src":"//83.svetacdn.in/PfJ50H0ZBPg3/movie/8870"},{"id":8869,"title":"Банда Йонссона. Большой куш","kp_id":"801523","imdb_id":"tt3220192","world_art_id":null,"type":"movie","add":"2017-01-12 11:12:00","orig_title":"Jönssonligan - Den perfekta stöten","year":"2015-01-12","translations":["Любительский (одноголосый закадровый)"],"quality":"bd","translation":"Любительский (одноголосый закадровый)","update":"2017-01-18 11:21:17","iframe_src":"//83.svetacdn.in/PfJ50H0ZBPg3/movie/8869"},{"id":8868,"title":"Якудза-апокалипсис: Великая война в преступном мире","kp_id":"851835","imdb_id":"tt3675748","world_art_id":null,"type":"movie","add":"2017-01-12 11:10:28","orig_title":"Gokudou daisensou","year":"2015-05-21","translations":["Любительский (одноголосый закадровый)"],"quality":"bd","translation":"Любительский (одноголосый закадровый)","update":"2017-01-18 11:19:35","iframe_src":"//83.svetacdn.in/PfJ50H0ZBPg3/movie/8868"},{"id":8867,"title":"Нянька","kp_id":"872809","imdb_id":"tt4201004","world_art_id":null,"type":"movie","add":"2017-01-12 11:09:17","orig_title":"Der Nanny","year":"2015-03-26","translations":["Любительский (одноголосый закадровый)"],"quality":"bd","translation":"Любительский (одноголосый закадровый)","update":"2017-01-18 11:16:26","iframe_src":"//83.svetacdn.in/PfJ50H0ZBPg3/movie/8867"},{"id":8866,"title":"Один безумный круиз","kp_id":"847388","imdb_id":"tt4058572","world_art_id":null,"type":"movie","add":"2017-01-12 11:08:03","orig_title":"One Crazy Cruise","year":"2015-06-19","translations":["Полное дублирование"],"quality":"webdl","translation":"Полное дублирование","update":"2017-01-18 06:36:15","iframe_src":"//83.svetacdn.in/PfJ50H0ZBPg3/movie/8866"},{"id":8865,"title":"Школа Монстров: Призрачно","kp_id":"855625","imdb_id":"tt4137924","world_art_id":null,"type":"movie","add":"2017-01-12 11:06:49","orig_title":"Monster High: Haunted","year":"2015-03-24","translations":["Полное дублирование"],"quality":"bd","translation":"Полное дублирование","update":"2017-01-18 06:35:08","iframe_src":"//83.svetacdn.in/PfJ50H0ZBPg3/movie/8865"},{"id":8864,"title":"Школа монстров: Большой ужасный риф","kp_id":"966654","imdb_id":"tt5475710","world_art_id":null,"type":"movie","add":"2017-01-12 11:05:51","orig_title":"Monster High: Great Scarrier Reef","year":"2016-02-12","translations":["Полное дублирование"],"quality":"bd","translation":"Полное дублирование","update":"2017-01-18 06:33:01","iframe_src":"//83.svetacdn.in/PfJ50H0ZBPg3/movie/8864"},{"id":8863,"title":"Школа монстров: Монстры! Камера! Мотор!","kp_id":"814027","imdb_id":"tt3565904","world_art_id":null,"type":"movie","add":"2017-01-12 11:04:44","orig_title":"Monster High: Frights, Camera, Action!","year":"2014-03-25","translations":["Полное дублирование"],"quality":"bd","translation":"Полное дублирование","update":"2017-01-18 06:31:40","iframe_src":"//83.svetacdn.in/PfJ50H0ZBPg3/movie/8863"},{"id":5738,"title":"Дуэлянт","kp_id":"840234","imdb_id":"tt5282006","world_art_id":null,"type":"movie","add":"2016-10-02 18:08:21","orig_title":"Duelyant","year":"2016-09-09","translations":["Оригинальная дорожка"],"quality":"bd","translation":"Оригинальная дорожка","update":"2017-01-18 08:26:05","iframe_src":"//83.svetacdn.in/PfJ50H0ZBPg3/movie/5738"}],"current_page":2259,"first_page_url":"https://videocdn.tv/api/short?limit=100&api_token=RgFQdUIR2dRmwv8iYa5SnFNgnw3vpjKj&cache32259=32259&page=1","from":225801,"last_page":641,"last_page_url":"https://videocdn.tv/api/short?limit=100&api_token=RgFQdUIR2dRmwv8iYa5SnFNgnw3vpjKj&cache32259=32259&page=641","next_page_url":null,"path":"https://videocdn.tv/api/short","per_page":100,"prev_page_url":"https://videocdn.tv/api/short?limit=100&api_token=RgFQdUIR2dRmwv8iYa5SnFNgnw3vpjKj&cache32259=32259&page=2258","to":225820,"total":64076}