{"result":true,"data":[{"id":23567,"title":"Большое призрачное спасение","kp_id":"450778","imdb_id":"tt1185244","world_art_id":null,"type":"movie","add":"2019-03-27 21:32:24","orig_title":"The Great Ghost Rescue","year":"2011-10-04","translations":["Любительский (одноголосый закадровый) (Хихикающий доктор)"],"quality":"hdrip","translation":"Любительский (одноголосый закадровый) (Хихикающий доктор)","update":"2019-03-28 05:37:35","iframe_src":"//2413.svetacdn.in/IAF0wWTdNYZm/movie/23567"},{"id":23562,"title":"Дикий, дикий пляж. Жар нежных","kp_id":"317808","imdb_id":"tt0926352","world_art_id":null,"type":"movie","add":"2019-03-27 21:20:23","orig_title":"Zhar nezhnykh. Dikiy, dikiy plyazh","year":"2007-03-20","translations":["Оригинальная дорожка"],"quality":"dvdrip","translation":"Оригинальная дорожка","update":"2019-03-28 05:38:47","iframe_src":"//2413.svetacdn.in/IAF0wWTdNYZm/movie/23562"},{"id":23561,"title":"На войне","kp_id":"1099295","imdb_id":"tt7555774","world_art_id":null,"type":"movie","add":"2019-03-27 21:12:43","orig_title":"En guerre","year":"2018-05-15","translations":["Любительский (многоголосый закадровый) (@MUZOBOZ@)"],"quality":"bd","translation":"Любительский (многоголосый закадровый) (@MUZOBOZ@)","update":"2019-03-28 05:40:19","iframe_src":"//2413.svetacdn.in/IAF0wWTdNYZm/movie/23561"},{"id":23560,"title":"Бизнес по-казахски в Африке","kp_id":"1228390","imdb_id":null,"world_art_id":null,"type":"movie","add":"2019-03-27 21:05:21","orig_title":"Biznes po-kazahski v Afrike","year":"2018-12-27","translations":["Оригинальная дорожка"],"quality":"sat","translation":"Оригинальная дорожка","update":"2019-03-28 05:42:26","iframe_src":"//2413.svetacdn.in/IAF0wWTdNYZm/movie/23560"},{"id":23535,"title":"Тайский вояж Степаныча","kp_id":"276260","imdb_id":null,"world_art_id":null,"type":"movie","add":"2019-03-27 08:30:55","orig_title":"Тайский вояж Степаныча","year":"2005-01-01","translations":["Оригинальная дорожка"],"quality":"dvdrip","translation":"Оригинальная дорожка","update":"2019-03-28 06:24:48","iframe_src":"//2413.svetacdn.in/IAF0wWTdNYZm/movie/23535"},{"id":23533,"title":"Враги","kp_id":"423020","imdb_id":"tt1286863","world_art_id":null,"type":"movie","add":"2019-03-27 08:24:02","orig_title":"Vragi","year":"2007-06-01","translations":["Оригинальная дорожка"],"quality":"hdtv","translation":"Оригинальная дорожка","update":"2019-03-28 06:19:02","iframe_src":"//2413.svetacdn.in/IAF0wWTdNYZm/movie/23533"},{"id":23532,"title":"Кремень","kp_id":"274321","imdb_id":"tt0905618","world_art_id":null,"type":"movie","add":"2019-03-27 08:22:26","orig_title":"Kremen","year":"2007-06-21","translations":["Оригинальная дорожка"],"quality":"dvdrip","translation":"Оригинальная дорожка","update":"2019-03-28 06:22:37","iframe_src":"//2413.svetacdn.in/IAF0wWTdNYZm/movie/23532"},{"id":23531,"title":"Начало","kp_id":"46294","imdb_id":"tt0066124","world_art_id":null,"type":"movie","add":"2019-03-27 08:17:35","orig_title":"Nachalo","year":"1970-10-12","translations":["Оригинальная дорожка"],"quality":"dvdrip","translation":"Оригинальная дорожка","update":"2019-03-28 06:17:42","iframe_src":"//2413.svetacdn.in/IAF0wWTdNYZm/movie/23531"},{"id":23529,"title":"Убить дракона","kp_id":"42487","imdb_id":"tt0096329","world_art_id":null,"type":"movie","add":"2019-03-27 08:06:19","orig_title":"Ubit drakona","year":"2000-01-19","translations":["Оригинальная дорожка"],"quality":"dvdrip","translation":"Оригинальная дорожка","update":"2019-03-28 06:10:52","iframe_src":"//2413.svetacdn.in/IAF0wWTdNYZm/movie/23529"},{"id":23528,"title":"Арбитр","kp_id":"41015","imdb_id":"tt0103712","world_art_id":null,"type":"movie","add":"2019-03-27 08:03:14","orig_title":"Arbitr","year":"1992-01-01","translations":["Оригинальная дорожка"],"quality":"dvdrip","translation":"Оригинальная дорожка","update":"2019-03-28 06:12:39","iframe_src":"//2413.svetacdn.in/IAF0wWTdNYZm/movie/23528"},{"id":23527,"title":"Тариф на любовь","kp_id":"280193","imdb_id":null,"world_art_id":null,"type":"movie","add":"2019-03-27 08:00:11","orig_title":"Тариф на любовь","year":"2004-01-01","translations":["Оригинальная дорожка"],"quality":"dvdrip","translation":"Оригинальная дорожка","update":"2019-03-28 06:13:55","iframe_src":"//2413.svetacdn.in/IAF0wWTdNYZm/movie/23527"},{"id":23525,"title":"Мадам Сан-Жен","kp_id":"26825","imdb_id":"tt0056208","world_art_id":null,"type":"movie","add":"2019-03-27 07:46:39","orig_title":"Madame Sans Gêne","year":"1961-12-22","translations":["Профессиональный (многоголосый закадровый)"],"quality":"dvdrip","translation":"Профессиональный (многоголосый закадровый)","update":"2019-03-28 06:07:24","iframe_src":"//2413.svetacdn.in/IAF0wWTdNYZm/movie/23525"},{"id":23524,"title":"Агитбригада «Бей врага!»","kp_id":"397406","imdb_id":"tt1153032","world_art_id":null,"type":"movie","add":"2019-03-27 07:43:57","orig_title":"Agitbrigada 'Bey vraga!'","year":"2008-02-02","translations":["Оригинальная дорожка"],"quality":"dvdrip","translation":"Оригинальная дорожка","update":"2019-03-28 06:05:39","iframe_src":"//2413.svetacdn.in/IAF0wWTdNYZm/movie/23524"},{"id":23523,"title":"Рябины гроздья алые","kp_id":"487457","imdb_id":"tt3428334","world_art_id":null,"type":"movie","add":"2019-03-27 07:34:01","orig_title":"Ryabiny grozdya alye","year":"2009-11-28","translations":["Оригинальная дорожка"],"quality":"sat","translation":"Оригинальная дорожка","update":"2019-03-27 11:01:23","iframe_src":"//2413.svetacdn.in/IAF0wWTdNYZm/movie/23523"},{"id":23522,"title":"Мария до Каллас","kp_id":"1115405","imdb_id":"tt7364566","world_art_id":null,"type":"movie","add":"2019-03-27 07:32:09","orig_title":"Maria by Callas","year":"2017-11-09","translations":["Профессиональный (многоголосый закадровый)"],"quality":"webdl","translation":"Профессиональный (многоголосый закадровый)","update":"2019-03-27 11:00:37","iframe_src":"//2413.svetacdn.in/IAF0wWTdNYZm/movie/23522"},{"id":23521,"title":"Нежные встречи","kp_id":"472325","imdb_id":null,"world_art_id":null,"type":"movie","add":"2019-03-27 07:29:07","orig_title":"Нежные встречи","year":"2008-01-01","translations":["Оригинальная дорожка"],"quality":"dvdrip","translation":"Оригинальная дорожка","update":"2019-03-27 10:57:22","iframe_src":"//2413.svetacdn.in/IAF0wWTdNYZm/movie/23521"},{"id":23499,"title":"18-14","kp_id":"395107","imdb_id":"tt1183658","world_art_id":null,"type":"movie","add":"2019-03-26 07:23:30","orig_title":"18-14","year":"2007-12-27","translations":["Оригинальная дорожка"],"quality":"dvdrip","translation":"Оригинальная дорожка","update":"2019-03-28 06:02:35","iframe_src":"//2413.svetacdn.in/IAF0wWTdNYZm/movie/23499"},{"id":5706,"title":"Бриджит Джонс 3","kp_id":"470182","imdb_id":"tt1473832","world_art_id":null,"type":"movie","add":"2016-09-29 12:21:25","orig_title":"Bridget Jones's Baby","year":"2016-09-14","translations":["Полное дублирование","[EN] Original (English)"],"quality":"bd","translation":"Полное дублирование","update":"2019-03-27 10:21:49","iframe_src":"//2413.svetacdn.in/IAF0wWTdNYZm/movie/5706"},{"id":1657,"title":"Колония Дигнидад","kp_id":"842913","imdb_id":"tt4005402","world_art_id":null,"type":"movie","add":"2016-04-25 09:23:03","orig_title":"Colonia","year":"2015-09-13","translations":["Полное дублирование","[EN] Original (English)"],"quality":"bd","translation":"Полное дублирование","update":"2019-03-27 10:22:56","iframe_src":"//2413.svetacdn.in/IAF0wWTdNYZm/movie/1657"},{"id":1377,"title":"Голодные игры: И вспыхнет пламя","kp_id":"602373","imdb_id":"tt1951264","world_art_id":null,"type":"movie","add":"2016-04-21 09:06:39","orig_title":"The Hunger Games: Catching Fire","year":"2013-11-11","translations":["Полное дублирование","[EN] Original (English)"],"quality":"bd","translation":"Полное дублирование","update":"2019-03-28 06:00:31","iframe_src":"//2413.svetacdn.in/IAF0wWTdNYZm/movie/1377"}],"current_page":1997,"first_page_url":"https://videocdn.tv/api/short?limit=100&api_token=6Onb1W1alEUrBcKJZD3GoKBbWyAl2uG2&cache31997=31997&page=1","from":199601,"last_page":717,"last_page_url":"https://videocdn.tv/api/short?limit=100&api_token=6Onb1W1alEUrBcKJZD3GoKBbWyAl2uG2&cache31997=31997&page=717","next_page_url":null,"path":"https://videocdn.tv/api/short","per_page":100,"prev_page_url":"https://videocdn.tv/api/short?limit=100&api_token=6Onb1W1alEUrBcKJZD3GoKBbWyAl2uG2&cache31997=31997&page=1996","to":199620,"total":71641}