{"result":true,"data":[{"id":16844,"title":"Элвис покинул здание","kp_id":"80414","imdb_id":"tt0377057","world_art_id":null,"type":"movie","add":"2018-05-19 21:16:19","orig_title":"Elvis Has Left the Building","year":"2004-08-27","translations":["Профессиональный (многоголосый закадровый)"],"quality":"webdl","translation":"Профессиональный (многоголосый закадровый)","update":"2018-05-21 10:03:41","iframe_src":"//8332.svetacdn.in/71tsRs29n5tZ/movie/16844"},{"id":16840,"title":"В погоне за чувствами","kp_id":"989060","imdb_id":"tt5827360","world_art_id":null,"type":"movie","add":"2018-05-19 21:07:32","orig_title":"Catching Feelings","year":"2017-06-18","translations":["Любительский (многоголосый закадровый) (Синема УС)"],"quality":"webdl","translation":"Любительский (многоголосый закадровый) (Синема УС)","update":"2018-05-21 05:20:35","iframe_src":"//8332.svetacdn.in/71tsRs29n5tZ/movie/16840"},{"id":16839,"title":"Так держать Клео!","kp_id":"170233","imdb_id":"tt0057918","world_art_id":null,"type":"movie","add":"2018-05-19 21:05:10","orig_title":"Carry on Cleo","year":"1965-10-22","translations":["Любительский (одноголосый закадровый)"],"quality":"bd","translation":"Любительский (одноголосый закадровый)","update":"2018-05-21 10:05:05","iframe_src":"//8332.svetacdn.in/71tsRs29n5tZ/movie/16839"},{"id":16836,"title":"Между раем и адом","kp_id":"18419","imdb_id":"tt0049004","world_art_id":null,"type":"movie","add":"2018-05-19 20:44:41","orig_title":"Between Heaven and Hell","year":"1956-10-11","translations":["Авторский (одноголосый закадровый) (Визгунов Сергей)"],"quality":"bd","translation":"Авторский (одноголосый закадровый) (Визгунов Сергей)","update":"2018-05-21 10:10:49","iframe_src":"//8332.svetacdn.in/71tsRs29n5tZ/movie/16836"},{"id":16835,"title":"Милосердие Грэйс","kp_id":"1008991","imdb_id":"tt6173488","world_art_id":null,"type":"movie","add":"2018-05-19 20:43:05","orig_title":"An Uncommon Grace","year":"2017-02-12","translations":["Любительский (многоголосый закадровый) (Синема УС)"],"quality":"webdl","translation":"Любительский (многоголосый закадровый) (Синема УС)","update":"2018-05-21 05:21:35","iframe_src":"//8332.svetacdn.in/71tsRs29n5tZ/movie/16835"},{"id":16828,"title":"Больше, чем жизнь","kp_id":"13137","imdb_id":"tt0116823","world_art_id":null,"type":"movie","add":"2018-05-18 20:29:47","orig_title":"Larger Than Life","year":"1996-07-26","translations":["Профессиональный (многоголосый закадровый)"],"quality":"webdl","translation":"Профессиональный (многоголосый закадровый)","update":"2018-05-21 07:15:03","iframe_src":"//8332.svetacdn.in/71tsRs29n5tZ/movie/16828"},{"id":16827,"title":"Голые марионетки в подполье","kp_id":"78998","imdb_id":"tt0072904","world_art_id":null,"type":"movie","add":"2018-05-18 20:26:50","orig_title":"Downtown - Die nackten Puppen der Unterwelt","year":"1975-08-28","translations":["Авторский (одноголосый закадровый) (Алексеев Антон)"],"quality":"bd","translation":"Авторский (одноголосый закадровый) (Алексеев Антон)","update":"2018-05-21 07:11:24","iframe_src":"//8332.svetacdn.in/71tsRs29n5tZ/movie/16827"},{"id":16826,"title":"Крик совы","kp_id":"100552","imdb_id":"tt0453494","world_art_id":null,"type":"movie","add":"2018-05-18 20:08:57","orig_title":"Hoot","year":"2006-05-05","translations":["Профессиональный (многоголосый закадровый)"],"quality":"webdl","translation":"Профессиональный (многоголосый закадровый)","update":"2018-05-21 07:08:17","iframe_src":"//8332.svetacdn.in/71tsRs29n5tZ/movie/16826"},{"id":16825,"title":"Капрона-парк","kp_id":"93478","imdb_id":"tt0076535","world_art_id":null,"type":"movie","add":"2018-05-18 20:00:54","orig_title":"The People That Time Forgot","year":"1977-07-06","translations":["Профессиональный (двухголосый закадровый) (НТВ)"],"quality":"bd","translation":"Профессиональный (двухголосый закадровый) (НТВ)","update":"2018-05-21 07:06:56","iframe_src":"//8332.svetacdn.in/71tsRs29n5tZ/movie/16825"},{"id":16824,"title":"Рабыни","kp_id":"78994","imdb_id":"tt0193510","world_art_id":null,"type":"movie","add":"2018-05-18 19:58:22","orig_title":"Die Sklavinnen","year":"1977-04-15","translations":["Авторский (одноголосый закадровый) (Алексеев Антон)"],"quality":"bd","translation":"Авторский (одноголосый закадровый) (Алексеев Антон)","update":"2018-05-21 07:05:56","iframe_src":"//8332.svetacdn.in/71tsRs29n5tZ/movie/16824"},{"id":16823,"title":"Караульный пост 506","kp_id":"397188","imdb_id":"tt1064953","world_art_id":null,"type":"movie","add":"2018-05-18 19:54:38","orig_title":"GP506","year":"2008-04-03","translations":["Авторский (одноголосый закадровый) (Сербин Юрий)"],"quality":"bd","translation":"Авторский (одноголосый закадровый) (Сербин Юрий)","update":"2018-05-21 07:04:10","iframe_src":"//8332.svetacdn.in/71tsRs29n5tZ/movie/16823"},{"id":16822,"title":"Фердинанд и Каролина","kp_id":"63151","imdb_id":"tt0168780","world_art_id":null,"type":"movie","add":"2018-05-18 19:51:35","orig_title":"Ferdinando e Carolina","year":"1999-04-02","translations":["Профессиональный (двухголосый закадровый)"],"quality":"bd","translation":"Профессиональный (двухголосый закадровый)","update":"2018-05-21 07:02:46","iframe_src":"//8332.svetacdn.in/71tsRs29n5tZ/movie/16822"},{"id":16820,"title":"Лич","kp_id":"973395","imdb_id":"tt5634336","world_art_id":null,"type":"movie","add":"2018-05-18 06:51:05","orig_title":"The Litch","year":"2017-01-01","translations":["Любительский (многоголосый закадровый) (Синема УС)"],"quality":"webdl","translation":"Любительский (многоголосый закадровый) (Синема УС)","update":"2018-05-21 05:24:05","iframe_src":"//8332.svetacdn.in/71tsRs29n5tZ/movie/16820"},{"id":16813,"title":"Я - Вильям","kp_id":"1054336","imdb_id":"tt6183580","world_art_id":null,"type":"movie","add":"2018-05-18 06:28:23","orig_title":"Jeg er William","year":"2017-12-21","translations":["Любительский (многоголосый закадровый) (Синема УС)"],"quality":"webdl","translation":"Любительский (многоголосый закадровый) (Синема УС)","update":"2018-05-21 06:50:55","iframe_src":"//8332.svetacdn.in/71tsRs29n5tZ/movie/16813"},{"id":16810,"title":"Коготь","kp_id":null,"imdb_id":"tt6355580","world_art_id":null,"type":"movie","add":"2018-05-18 06:18:49","orig_title":"Claw","year":"2017-05-25","translations":["Любительский (многоголосый закадровый) (Колобок)"],"quality":"webdl","translation":"Любительский (многоголосый закадровый) (Колобок)","update":"2018-05-21 05:01:15","iframe_src":"//8332.svetacdn.in/71tsRs29n5tZ/movie/16810"},{"id":16809,"title":"На грани безумия","kp_id":"676427","imdb_id":"tt2345721","world_art_id":null,"type":"movie","add":"2018-05-18 06:16:47","orig_title":"Breaking at the Edge","year":"2013-01-01","translations":["Любительский (одноголосый закадровый) (Хихикающий доктор)"],"quality":"bd","translation":"Любительский (одноголосый закадровый) (Хихикающий доктор)","update":"2018-05-21 07:00:53","iframe_src":"//8332.svetacdn.in/71tsRs29n5tZ/movie/16809"},{"id":16499,"title":"Радуга","kp_id":"995882","imdb_id":"tt5952238","world_art_id":null,"type":"movie","add":"2018-04-26 23:13:01","orig_title":"Una questione privata","year":"2017-09-08","translations":["Любительский (многоголосый закадровый) (Синема УС)","Профессиональный (многоголосый закадровый) (GreenРай Studio)"],"quality":"webdl","translation":"Любительский (многоголосый закадровый) (Синема УС)","update":"2018-05-21 04:52:00","iframe_src":"//8332.svetacdn.in/71tsRs29n5tZ/movie/16499"},{"id":14918,"title":"120 ударов в минуту","kp_id":"1032278","imdb_id":"tt6135348","world_art_id":null,"type":"movie","add":"2018-01-18 22:39:11","orig_title":"120 battements par minute","year":"2017-05-20","translations":["Профессиональный (многоголосый закадровый)","Профессиональный (многоголосый закадровый) (GreenРай Studio)"],"quality":"bd","translation":"Профессиональный (многоголосый закадровый)","update":"2018-05-21 05:06:59","iframe_src":"//8332.svetacdn.in/71tsRs29n5tZ/movie/14918"},{"id":12575,"title":"Короли лета","kp_id":"684618","imdb_id":"tt2179116","world_art_id":null,"type":"movie","add":"2017-07-19 13:43:05","orig_title":"The Kings of Summer","year":"2013-01-19","translations":["Профессиональный (многоголосый закадровый)","Авторский (одноголосый закадровый) (Есарев Дмитрий)"],"quality":"bd","translation":"Профессиональный (многоголосый закадровый)","update":"2018-05-21 10:02:20","iframe_src":"//8332.svetacdn.in/71tsRs29n5tZ/movie/12575"},{"id":2388,"title":"Два дня в долине","kp_id":"6183","imdb_id":"tt0115438","world_art_id":null,"type":"movie","add":"2016-05-20 06:27:00","orig_title":"2 Days in the Valley","year":"1996-09-12","translations":["Профессиональный (многоголосый закадровый)"],"quality":"webdl","translation":"Профессиональный (многоголосый закадровый)","update":"2018-05-21 06:59:13","iframe_src":"//8332.svetacdn.in/71tsRs29n5tZ/movie/2388"}],"current_page":1900,"first_page_url":"https://videocdn.tv/api/short?limit=100&api_token=EnbO9h8pv1VyjbCJhg0WM9nG259n7mtz&cache31900=31900&page=1","from":189901,"last_page":636,"last_page_url":"https://videocdn.tv/api/short?limit=100&api_token=EnbO9h8pv1VyjbCJhg0WM9nG259n7mtz&cache31900=31900&page=636","next_page_url":null,"path":"https://videocdn.tv/api/short","per_page":100,"prev_page_url":"https://videocdn.tv/api/short?limit=100&api_token=EnbO9h8pv1VyjbCJhg0WM9nG259n7mtz&cache31900=31900&page=1899","to":189920,"total":63585}