{"result":true,"data":[{"id":8439,"title":"Несси и я","kp_id":"960690","imdb_id":"tt5442626","world_art_id":null,"type":"movie","add":"2016-12-29 08:29:48","orig_title":"Nessie & Me","year":"2016-10-18","translations":["Профессиональный (многоголосый)"],"quality":"webdl","translation":"Профессиональный (многоголосый)","update":"2016-12-29 09:04:10","iframe_src":"//5091.svetacdn.in/si4jsFRrtgrT/movie/8439"},{"id":8438,"title":"Сэлфи - перестрелка","kp_id":"893269","imdb_id":"tt4004608","world_art_id":null,"type":"movie","add":"2016-12-29 08:28:48","orig_title":"$elfie Shootout","year":"2016-01-17","translations":["Любительский (многоголосый закадровый) (Синема УС)"],"quality":"webdl","translation":"Любительский (многоголосый закадровый) (Синема УС)","update":"2016-12-29 09:01:32","iframe_src":"//5091.svetacdn.in/si4jsFRrtgrT/movie/8438"},{"id":8437,"title":"Водитель автобуса","kp_id":"820140","imdb_id":"tt3453648","world_art_id":null,"type":"movie","add":"2016-12-29 08:28:00","orig_title":"Bus Driver","year":"2016-10-04","translations":["Любительский (многоголосый закадровый) (Синема УС)"],"quality":"dvdrip","translation":"Любительский (многоголосый закадровый) (Синема УС)","update":"2016-12-29 09:15:19","iframe_src":"//5091.svetacdn.in/si4jsFRrtgrT/movie/8437"},{"id":8436,"title":"Шальной Джокер","kp_id":"848568","imdb_id":"tt3894558","world_art_id":null,"type":"movie","add":"2016-12-29 08:27:14","orig_title":"Joker's Wild","year":"2016-08-22","translations":["Любительский (многоголосый закадровый) (Синема УС)"],"quality":"dvdrip","translation":"Любительский (многоголосый закадровый) (Синема УС)","update":"2016-12-29 09:02:39","iframe_src":"//5091.svetacdn.in/si4jsFRrtgrT/movie/8436"},{"id":8433,"title":"Любовь.ru","kp_id":"447092","imdb_id":"tt1456875","world_art_id":null,"type":"movie","add":"2016-12-29 05:52:38","orig_title":"Lyubov.ru","year":"2008-12-11","translations":["Оригинальная дорожка"],"quality":"dvdrip","translation":"Оригинальная дорожка","update":"2016-12-29 08:11:36","iframe_src":"//5091.svetacdn.in/si4jsFRrtgrT/movie/8433"},{"id":8432,"title":"Экран в Камчанод","kp_id":"475715","imdb_id":"tt1468730","world_art_id":null,"type":"movie","add":"2016-12-29 05:51:36","orig_title":"Pee chang nang","year":"2007-12-05","translations":["Любительский (одноголосый закадровый)"],"quality":"dvdrip","translation":"Любительский (одноголосый закадровый)","update":"2016-12-29 08:18:00","iframe_src":"//5091.svetacdn.in/si4jsFRrtgrT/movie/8432"},{"id":8430,"title":"Последнее дыхание","kp_id":"5256","imdb_id":"tt0120211","world_art_id":null,"type":"movie","add":"2016-12-29 05:49:59","orig_title":"Still Breathing","year":"1997-09-01","translations":["Профессиональный (многоголосый закадровый)"],"quality":"hdtv","translation":"Профессиональный (многоголосый закадровый)","update":"2016-12-29 08:15:53","iframe_src":"//5091.svetacdn.in/si4jsFRrtgrT/movie/8430"},{"id":8429,"title":"Ночь перед Хэллоуином","kp_id":"1008901","imdb_id":"tt6166250","world_art_id":null,"type":"movie","add":"2016-12-28 16:14:05","orig_title":"The Night Before Halloween","year":"2016-10-29","translations":["Любительский (многоголосый закадровый) (GreenРай Studio)"],"quality":"hdtv","translation":"Любительский (многоголосый закадровый) (GreenРай Studio)","update":"2016-12-29 14:33:34","iframe_src":"//5091.svetacdn.in/si4jsFRrtgrT/movie/8429"},{"id":8427,"title":"Анимус: Сердце-обличитель","kp_id":"810533","imdb_id":"tt3353138","world_art_id":null,"type":"movie","add":"2016-12-28 16:03:42","orig_title":"Animus: The Tell-Tale Heart","year":"2015-10-31","translations":["Любительский (многоголосый закадровый)"],"quality":"bd","translation":"Любительский (многоголосый закадровый)","update":"2016-12-29 14:36:26","iframe_src":"//5091.svetacdn.in/si4jsFRrtgrT/movie/8427"},{"id":8408,"title":"Экскурсия в Прагу","kp_id":"881422","imdb_id":"tt4325418","world_art_id":null,"type":"movie","add":"2016-12-28 12:04:24","orig_title":"Abschussfahrt","year":"2015-05-21","translations":["Любительский (одноголосый закадровый)"],"quality":"bd","translation":"Любительский (одноголосый закадровый)","update":"2016-12-29 06:45:51","iframe_src":"//5091.svetacdn.in/si4jsFRrtgrT/movie/8408"},{"id":8407,"title":"Чернобыль: 30 лет спустя","kp_id":"973951","imdb_id":"tt5689446","world_art_id":null,"type":"movie","add":"2016-12-28 12:02:14","orig_title":"Chernobyl 30 Years On","year":"2016-04-26","translations":["Полное дублирование"],"quality":"webdl","translation":"Полное дублирование","update":"2016-12-29 06:43:15","iframe_src":"//5091.svetacdn.in/si4jsFRrtgrT/movie/8407"},{"id":8404,"title":"Салон Китти","kp_id":"22879","imdb_id":"tt0075163","world_art_id":null,"type":"movie","add":"2016-12-28 08:08:25","orig_title":"Salon Kitty","year":"1976-03-02","translations":["Профессиональный (двухголосый закадровый)"],"quality":"bd","translation":"Профессиональный (двухголосый закадровый)","update":"2016-12-28 14:08:59","iframe_src":"//5091.svetacdn.in/si4jsFRrtgrT/movie/8404"},{"id":8341,"title":"Ожидание","kp_id":"535244","imdb_id":"tt1675759","world_art_id":null,"type":"movie","add":"2016-12-25 13:05:46","orig_title":"The Wait","year":"2013-03-10","translations":["Профессиональный (многоголосый закадровый)"],"quality":"webdl","translation":"Профессиональный (многоголосый закадровый)","update":"2016-12-29 06:37:59","iframe_src":"//5091.svetacdn.in/si4jsFRrtgrT/movie/8341"},{"id":8339,"title":"Большой Вавилон","kp_id":"947033","imdb_id":"tt3505682","world_art_id":null,"type":"movie","add":"2016-12-25 13:02:28","orig_title":"Bolshoi Babylon","year":"2015-09-14","translations":["Профессиональный (многоголосый закадровый) (Первый канал | ОРТ)"],"quality":"hdtv","translation":"Профессиональный (многоголосый закадровый) (Первый канал | ОРТ)","update":"2016-12-29 06:33:38","iframe_src":"//5091.svetacdn.in/si4jsFRrtgrT/movie/8339"},{"id":8338,"title":"Выбор за нами","kp_id":"913520","imdb_id":"tt3621952","world_art_id":null,"type":"movie","add":"2016-12-25 13:00:56","orig_title":"The Choice Is Ours","year":"2015-03-02","translations":["Профессиональный (многоголосый закадровый)"],"quality":"bd","translation":"Профессиональный (многоголосый закадровый)","update":"2016-12-29 06:31:43","iframe_src":"//5091.svetacdn.in/si4jsFRrtgrT/movie/8338"},{"id":8337,"title":"Чарли","kp_id":"960639","imdb_id":"tt5082014","world_art_id":null,"type":"movie","add":"2016-12-25 12:59:39","orig_title":"Charlie","year":"2015-12-24","translations":["Профессиональный (многоголосый закадровый) (SDI Media)"],"quality":"bd","translation":"Профессиональный (многоголосый закадровый) (SDI Media)","update":"2016-12-29 06:29:54","iframe_src":"//5091.svetacdn.in/si4jsFRrtgrT/movie/8337"},{"id":8336,"title":"Мартышкины проделки","kp_id":"875192","imdb_id":"tt3630128","world_art_id":null,"type":"movie","add":"2016-12-25 12:58:14","orig_title":"Apenstreken","year":"2015-06-10","translations":["Профессиональный (многоголосый закадровый)"],"quality":"bd","translation":"Профессиональный (многоголосый закадровый)","update":"2016-12-29 06:28:42","iframe_src":"//5091.svetacdn.in/si4jsFRrtgrT/movie/8336"},{"id":8335,"title":"Зимняя песня","kp_id":"925789","imdb_id":"tt4880956","world_art_id":null,"type":"movie","add":"2016-12-25 12:56:49","orig_title":"Chant d'hiver","year":"2015-08-09","translations":["Профессиональный (одноголосый закадровый)"],"quality":"webdl","translation":"Профессиональный (одноголосый закадровый)","update":"2016-12-29 06:26:47","iframe_src":"//5091.svetacdn.in/si4jsFRrtgrT/movie/8335"},{"id":8334,"title":"Плутон: Первая встреча","kp_id":"927820","imdb_id":"tt4859370","world_art_id":null,"type":"movie","add":"2016-12-25 12:55:11","orig_title":"Direct from Pluto: First Encounter","year":"2015-07-15","translations":["Профессиональный (одноголосый закадровый)"],"quality":"hdtv","translation":"Профессиональный (одноголосый закадровый)","update":"2016-12-29 06:24:14","iframe_src":"//5091.svetacdn.in/si4jsFRrtgrT/movie/8334"},{"id":5775,"title":"Глубоководный горизонт","kp_id":"607737","imdb_id":"tt1860357","world_art_id":null,"type":"movie","add":"2016-10-03 13:57:16","orig_title":"Deepwater Horizon","year":"2016-09-13","translations":["Полное дублирование (iTunes)"],"quality":"bd","translation":"Полное дублирование (iTunes)","update":"2016-12-29 09:05:52","iframe_src":"//5091.svetacdn.in/si4jsFRrtgrT/movie/5775"}],"current_page":2395,"first_page_url":"https://videocdn.tv/api/short?limit=100&api_token=X6EwAUfE5M9xbo7y0Bp0aPf3uXxG2KLL&cache32395=32395&page=1","from":239401,"last_page":667,"last_page_url":"https://videocdn.tv/api/short?limit=100&api_token=X6EwAUfE5M9xbo7y0Bp0aPf3uXxG2KLL&cache32395=32395&page=667","next_page_url":null,"path":"https://videocdn.tv/api/short","per_page":100,"prev_page_url":"https://videocdn.tv/api/short?limit=100&api_token=X6EwAUfE5M9xbo7y0Bp0aPf3uXxG2KLL&cache32395=32395&page=2394","to":239420,"total":66648}