{"result":true,"data":[{"id":47922,"title":"Крошечный дом на Рождество","kp_id":"1450393","imdb_id":"tt13464336","world_art_id":null,"type":"movie","add":"2021-02-14 18:52:22","orig_title":"A Tiny House Christmas","year":"2021-02-12","translations":["Любительский (многоголосый закадровый) (Синема УС)"],"quality":"webdl","translation":"Любительский (многоголосый закадровый) (Синема УС)","update":"2021-02-14 21:09:12","iframe_src":"//8543.svetacdn.in/71tsRs29n5tZ/movie/47922"},{"id":47917,"title":"Барб и Звезда едут в Виста дель Мар","kp_id":"1256560","imdb_id":"tt3797512","world_art_id":null,"type":"movie","add":"2021-02-14 18:40:27","orig_title":"Barb and Star Go to Vista Del Mar","year":"2021-02-12","translations":["Любительский (многоголосый закадровый) (@MUZOBOZ@)"],"quality":"webdl","translation":"Любительский (многоголосый закадровый) (@MUZOBOZ@)","update":"2021-02-15 05:10:40","iframe_src":"//8543.svetacdn.in/71tsRs29n5tZ/movie/47917"},{"id":47908,"title":"Годовщина","kp_id":"1398881","imdb_id":null,"world_art_id":null,"type":"movie","add":"2021-02-14 17:32:54","orig_title":"Годовщина","year":"2020-01-01","translations":["Оригинальная дорожка"],"quality":"webdl","translation":"Оригинальная дорожка","update":"2021-02-15 06:43:59","iframe_src":"//8543.svetacdn.in/71tsRs29n5tZ/movie/47908"},{"id":47907,"title":"Крутой учитель Онидзука","kp_id":"143807","imdb_id":"tt0000315870","world_art_id":null,"type":"movie","add":"2021-02-14 17:00:11","orig_title":"GTO","year":"1999-12-18","translations":["Любительский (многоголосый закадровый) (Cowabunga Studio)"],"quality":"webdl","translation":"Любительский (многоголосый закадровый) (Cowabunga Studio)","update":"2021-02-15 06:42:18","iframe_src":"//8543.svetacdn.in/71tsRs29n5tZ/movie/47907"},{"id":47903,"title":"Дух Сент-Луиса","kp_id":"8981","imdb_id":"tt0051003","world_art_id":null,"type":"movie","add":"2021-02-14 13:50:59","orig_title":"The Spirit of St. Louis","year":"1957-04-20","translations":["Авторский (одноголосый закадровый) (Живов Юрий)"],"quality":"webdl","translation":"Авторский (одноголосый закадровый) (Живов Юрий)","update":"2021-02-14 21:55:35","iframe_src":"//8543.svetacdn.in/71tsRs29n5tZ/movie/47903"},{"id":47902,"title":"Что за идиот","kp_id":"723393","imdb_id":"tt2525802","world_art_id":null,"type":"movie","add":"2021-02-14 09:27:14","orig_title":"What an Idiot","year":"2014-12-05","translations":["Любительский (многоголосый закадровый)"],"quality":"webdl","translation":"Любительский (многоголосый закадровый)","update":"2021-02-14 17:46:22","iframe_src":"//8543.svetacdn.in/71tsRs29n5tZ/movie/47902"},{"id":47890,"title":"Ноги Святой Хильдегарды","kp_id":"1246629","imdb_id":"tt9911196","world_art_id":null,"type":"movie","add":"2021-02-12 19:38:45","orig_title":"De beentjes van Sint-Hildegard","year":"2020-02-13","translations":["Любительский (многоголосый закадровый) (AlphaProject)"],"quality":"bd","translation":"Любительский (многоголосый закадровый) (AlphaProject)","update":"2021-02-14 19:06:12","iframe_src":"//8543.svetacdn.in/71tsRs29n5tZ/movie/47890"},{"id":47889,"title":"Летучая рыба","kp_id":"1370818","imdb_id":"tt12182440","world_art_id":null,"type":"movie","add":"2021-02-12 19:36:40","orig_title":"Buladó","year":"2020-09-25","translations":["Любительский (многоголосый закадровый) (AlphaProject)"],"quality":"bd","translation":"Любительский (многоголосый закадровый) (AlphaProject)","update":"2021-02-14 19:08:11","iframe_src":"//8543.svetacdn.in/71tsRs29n5tZ/movie/47889"},{"id":47887,"title":"Кокон","kp_id":"1254550","imdb_id":"tt10107222","world_art_id":null,"type":"movie","add":"2021-02-12 19:33:30","orig_title":"Kokon","year":"2020-02-21","translations":["Любительский (многоголосый закадровый) (AlphaProject)"],"quality":"bd","translation":"Любительский (многоголосый закадровый) (AlphaProject)","update":"2021-02-14 19:08:44","iframe_src":"//8543.svetacdn.in/71tsRs29n5tZ/movie/47887"},{"id":47884,"title":"Начало","kp_id":"1387204","imdb_id":"tt12444572","world_art_id":null,"type":"movie","add":"2021-02-12 19:28:20","orig_title":"Beginning","year":"2020-09-11","translations":["Любительский (многоголосый закадровый) (Синема УС)"],"quality":"webdl","translation":"Любительский (многоголосый закадровый) (Синема УС)","update":"2021-02-14 19:09:12","iframe_src":"//8543.svetacdn.in/71tsRs29n5tZ/movie/47884"},{"id":47882,"title":"Девять дней без сна","kp_id":"1328279","imdb_id":"tt11330188","world_art_id":null,"type":"movie","add":"2021-02-12 18:57:49","orig_title":"9 Tage wach","year":"2020-03-08","translations":["Любительский (многоголосый закадровый) (Синема УС)"],"quality":"webdl","translation":"Любительский (многоголосый закадровый) (Синема УС)","update":"2021-02-14 19:09:42","iframe_src":"//8543.svetacdn.in/71tsRs29n5tZ/movie/47882"},{"id":47881,"title":"Тёплое объятие","kp_id":"2001185","imdb_id":"tt13529418","world_art_id":null,"type":"movie","add":"2021-02-12 16:16:51","orig_title":"Wen Nuan De Bao Bao","year":"2020-12-31","translations":["Любительский (двухголосый закадровый) (Колобок)"],"quality":"webdl","translation":"Любительский (двухголосый закадровый) (Колобок)","update":"2021-02-14 19:10:35","iframe_src":"//8543.svetacdn.in/71tsRs29n5tZ/movie/47881"},{"id":47199,"title":"Не лечи меня","kp_id":"1207408","imdb_id":"tt9376118","world_art_id":null,"type":"movie","add":"2021-01-18 08:54:15","orig_title":"Ryobra","year":"2021-01-14","translations":["Оригинальная дорожка","Оригинальная дорожка"],"quality":"ts","translation":"Оригинальная дорожка","update":"2021-02-15 06:45:32","iframe_src":"//8543.svetacdn.in/71tsRs29n5tZ/movie/47199"},{"id":45850,"title":"Бывшая с того света","kp_id":"1265932","imdb_id":"tt10334148","world_art_id":null,"type":"movie","add":"2020-12-04 20:57:43","orig_title":"Blithe Spirit","year":"2020-10-08","translations":["Original (English)","Любительский (многоголосый закадровый) (AlphaProject)","Полное дублирование","Полное дублирование (iTunes)"],"quality":"hdrip","translation":"Original (English)","update":"2021-02-15 06:54:10","iframe_src":"//8543.svetacdn.in/71tsRs29n5tZ/movie/45850"},{"id":44667,"title":"Ребекка","kp_id":"667045","imdb_id":"tt2235695","world_art_id":null,"type":"movie","add":"2020-10-21 18:24:59","orig_title":"Rebecca","year":"2020-10-16","translations":["Любительский (многоголосый закадровый) (@MUZOBOZ@)","Любительский (двухголосый закадровый) (OnisFilms)","Профессиональный (многоголосый закадровый) (HDrezka Studio)","Профессиональный (многоголосый закадровый) (Jaskier)","Original (English)","Полное дублирование (Netflix)"],"quality":"webdl","translation":"Любительский (многоголосый закадровый) (@MUZOBOZ@)","update":"2021-02-15 06:49:35","iframe_src":"//8543.svetacdn.in/71tsRs29n5tZ/movie/44667"},{"id":8654,"title":"Подозреваемый","kp_id":null,"imdb_id":"tt6017706","world_art_id":null,"type":"serial","add":"2020-09-08 07:03:04","orig_title":"Suspect","year":"2015-01-01","translations":["Любительский (многоголосый закадровый) (WestFilm)"],"seasons_count":1,"episodes_count":5,"episodes":5,"update":"2020-09-08 15:51:50","iframe_src":"//8543.svetacdn.in/71tsRs29n5tZ/tv-series/8654"},{"id":8652,"title":"Секреты","kp_id":"1219497","imdb_id":"tt9421436","world_art_id":null,"type":"serial","add":"2020-09-07 20:00:01","orig_title":"Les Secrets","year":"2018-05-01","translations":["Любительский (многоголосый закадровый) (WestFilm)"],"seasons_count":1,"episodes_count":3,"episodes":3,"update":"2020-09-08 04:17:34","iframe_src":"//8543.svetacdn.in/71tsRs29n5tZ/tv-series/8652"},{"id":8650,"title":"Метка","kp_id":null,"imdb_id":"tt1889169","world_art_id":null,"type":"serial","add":"2020-09-07 19:11:41","orig_title":"Signature","year":"2011-04-22","translations":["Любительский (многоголосый закадровый) (WestFilm)"],"seasons_count":1,"episodes_count":6,"episodes":6,"update":"2020-09-08 06:38:39","iframe_src":"//8543.svetacdn.in/71tsRs29n5tZ/tv-series/8650"},{"id":8649,"title":"Дьявол по соседству","kp_id":"1330058","imdb_id":"tt11165002","world_art_id":null,"type":"serial","add":"2020-09-07 19:08:25","orig_title":"The Devil Next Door","year":"2019-11-04","translations":["Профессиональный (одноголосый закадровый) (IdeaFilm)"],"seasons_count":1,"episodes_count":5,"episodes":5,"update":"2020-09-08 17:29:16","iframe_src":"//8543.svetacdn.in/71tsRs29n5tZ/tv-series/8649"},{"id":8647,"title":"Пятый угол","kp_id":"405645","imdb_id":"tt1166122","world_art_id":null,"type":"serial","add":"2020-09-07 17:38:15","orig_title":"Pyatiy Ugol","year":"2001-01-01","translations":["Оригинальная дорожка"],"seasons_count":1,"episodes_count":10,"episodes":10,"update":"2020-09-08 15:26:25","iframe_src":"//8543.svetacdn.in/71tsRs29n5tZ/tv-series/8647"},{"id":8644,"title":"Врачебная мудрость","kp_id":"1281965","imdb_id":"tt11769304","world_art_id":null,"type":"serial","add":"2020-09-07 10:11:25","orig_title":"Seulgiroun uisasaenghwal","year":"2020-03-12","translations":["Любительский (многоголосый закадровый) (WestFilm)"],"seasons_count":1,"episodes_count":12,"episodes":12,"update":"2020-09-07 19:47:49","iframe_src":"//8543.svetacdn.in/71tsRs29n5tZ/tv-series/8644"},{"id":8641,"title":"Дорога домой","kp_id":"1354894","imdb_id":null,"world_art_id":null,"type":"serial","add":"2020-09-06 21:04:21","orig_title":"Doroga domoy","year":"2020-09-06","translations":["Оригинальная дорожка"],"seasons_count":1,"episodes_count":2,"episodes":2,"update":"2020-09-07 18:47:13","iframe_src":"//8543.svetacdn.in/71tsRs29n5tZ/tv-series/8641"},{"id":8638,"title":"Посол","kp_id":"1280857","imdb_id":"tt10556222","world_art_id":null,"type":"serial","add":"2020-09-06 14:20:17","orig_title":"Ambassadøren","year":"2020-08-30","translations":["Любительский (многоголосый закадровый) (ColdFilm)"],"seasons_count":1,"episodes_count":10,"episodes":10,"update":"2020-09-07 19:34:16","iframe_src":"//8543.svetacdn.in/71tsRs29n5tZ/tv-series/8638"},{"id":8633,"title":"Приключения галактической команды","kp_id":"471876","imdb_id":"tt0480499","world_art_id":null,"type":"serial","add":"2020-09-06 07:18:37","orig_title":"Team Galaxy","year":"2006-08-26","translations":["Полное дублирование (Jetix)"],"seasons_count":2,"episodes_count":52,"episodes":26,"update":"2020-09-07 09:19:19","iframe_src":"//8543.svetacdn.in/71tsRs29n5tZ/tv-series/8633"},{"id":8602,"title":"Металионы","kp_id":"1338252","imdb_id":null,"world_art_id":null,"type":"serial","add":"2020-09-02 07:07:39","orig_title":"Metalions","year":"2017-01-01","translations":["Полное дублирование"],"seasons_count":1,"episodes_count":53,"episodes":53,"update":"2020-09-07 19:54:57","iframe_src":"//8543.svetacdn.in/71tsRs29n5tZ/tv-series/8602"},{"id":8444,"title":"Партизан","kp_id":"1291383","imdb_id":"tt10768238","world_art_id":null,"type":"serial","add":"2020-08-16 14:57:51","orig_title":"Partisan","year":"2020-08-16","translations":["Любительский (многоголосый закадровый) (Octopus)","Профессиональный (двухголосый закадровый) (Gears Media)","Любительский (многоголосый закадровый) (ColdFilm)"],"seasons_count":1,"episodes_count":5,"episodes":5,"update":"2020-09-07 17:46:27","iframe_src":"//8543.svetacdn.in/71tsRs29n5tZ/tv-series/8444"},{"id":8428,"title":"Манаек","kp_id":null,"imdb_id":"tt12819234","world_art_id":null,"type":"serial","add":"2020-08-14 09:35:29","orig_title":"Manayek","year":"2020-08-02","translations":["Любительский (многоголосый закадровый) (Octopus)"],"seasons_count":1,"episodes_count":10,"episodes":10,"update":"2020-09-08 14:17:36","iframe_src":"//8543.svetacdn.in/71tsRs29n5tZ/tv-series/8428"},{"id":8261,"title":"Меж двух миров","kp_id":"1257302","imdb_id":"tt10195772","world_art_id":null,"type":"serial","add":"2020-07-27 11:45:12","orig_title":"Between Two Worlds","year":"2019-10-01","translations":["Любительский (многоголосый закадровый) (Octopus)","Профессиональный (многоголосый закадровый) (BaibaKo)"],"seasons_count":1,"episodes_count":10,"episodes":10,"update":"2020-09-07 17:43:57","iframe_src":"//8543.svetacdn.in/71tsRs29n5tZ/tv-series/8261"},{"id":7861,"title":"Дивный новый мир","kp_id":"1263485","imdb_id":"tt9814116","world_art_id":null,"type":"serial","add":"2020-06-14 11:00:47","orig_title":"Brave New World","year":"2020-07-15","translations":["Любительский (многоголосый закадровый) (ColdFilm)","Любительский (многоголосый закадровый) (Octopus)","Профессиональный (многоголосый закадровый) (BaibaKo)","Профессиональный (двухголосый закадровый) (IdeaFilm)","Любительский (двухголосый закадровый) (LakeFilms)","Профессиональный (двухголосый закадровый) (Gears Media)","Профессиональный (многоголосый закадровый) (HDrezka Studio)","Профессиональный (многоголосый закадровый) (Кравец)","Профессиональный (многоголосый закадровый) (NewStudio)","Профессиональный (многоголосый закадровый) (LostFilm)","Любительский (многоголосый закадровый) (KerobTV)","Полное дублирование (Кравец)","Профессиональный (двухголосый закадровый) (Кубик в Кубе)"],"seasons_count":1,"episodes_count":9,"episodes":9,"update":"2020-09-08 13:41:28","iframe_src":"//8543.svetacdn.in/71tsRs29n5tZ/tv-series/7861"},{"id":41169,"title":"Король Стейтен-Айленда","kp_id":"1236644","imdb_id":"tt9686708","world_art_id":null,"type":"movie","add":"2020-06-13 20:07:02","orig_title":"The King of Staten Island","year":"2020-06-12","translations":["Любительский (многоголосый закадровый) (AlphaProject)","Профессиональный (многоголосый закадровый) (HDrezka Studio)","Original (English)","Полное дублирование","Полное дублирование","Профессиональный (двухголосый закадровый) (Кубик в Кубе)"],"quality":"webdl","translation":"Любительский (многоголосый закадровый) (AlphaProject)","update":"2021-02-15 06:46:50","iframe_src":"//8543.svetacdn.in/71tsRs29n5tZ/movie/41169"},{"id":7848,"title":"Голова","kp_id":"1304211","imdb_id":"tt8290362","world_art_id":null,"type":"serial","add":"2020-06-13 10:49:40","orig_title":"The Head","year":"2020-06-12","translations":["Профессиональный (двухголосый закадровый) (IdeaFilm)","Любительский (многоголосый закадровый) (Octopus)","Любительский (многоголосый закадровый) (ColdFilm)","Профессиональный (двухголосый закадровый) (Кубик в Кубе)","Профессиональный (многоголосый закадровый) (HDrezka Studio)","Профессиональный (двухголосый закадровый) (ViruseProject)","Профессиональный (многоголосый закадровый) (LostFilm)","Профессиональный (двухголосый закадровый) (Gears Media)","Любительский (многоголосый закадровый) (WestFilm)"],"seasons_count":1,"episodes_count":6,"episodes":6,"update":"2020-09-08 06:43:21","iframe_src":"//8543.svetacdn.in/71tsRs29n5tZ/tv-series/7848"},{"id":6865,"title":"Кровавая поездка","kp_id":"1352413","imdb_id":"tt9815502","world_art_id":null,"type":"serial","add":"2020-03-13 12:15:09","orig_title":"Bloodride","year":"2020-03-13","translations":["Любительский (многоголосый закадровый) (Octopus)","Любительский (многоголосый закадровый) (ColdFilm)","Профессиональный (двухголосый закадровый) (ViruseProject)"],"seasons_count":1,"episodes_count":6,"episodes":6,"update":"2020-09-07 14:17:32","iframe_src":"//8543.svetacdn.in/71tsRs29n5tZ/tv-series/6865"},{"id":3118,"title":"Ярмарка тщеславия","kp_id":"1162807","imdb_id":"tt7076630","world_art_id":null,"type":"serial","add":"2018-09-04 07:22:19","orig_title":"Vanity Fair","year":"2018-09-02","translations":["Любительский (двухголосый закадровый) (KinoGolos)","Профессиональный (многоголосый закадровый) (NewStudio)","Профессиональный (многоголосый закадровый) (HDrezka Studio)","Профессиональный (многоголосый закадровый) (Jaskier)","Профессиональный (многоголосый закадровый) (TVShows)"],"seasons_count":1,"episodes_count":7,"episodes":7,"update":"2020-09-08 17:03:20","iframe_src":"//8543.svetacdn.in/71tsRs29n5tZ/tv-series/3118"},{"id":2359,"title":"Тайная власть","kp_id":"1046918","imdb_id":"tt4785472","world_art_id":null,"type":"serial","add":"2018-04-09 08:21:43","orig_title":"Deep State","year":"2018-04-05","translations":["Любительский (двухголосый закадровый) (Sunshine Studio)","Профессиональный (многоголосый закадровый) (OMSKBIRD records)","Профессиональный (многоголосый закадровый) (HDrezka Studio)","Профессиональный (многоголосый закадровый) (Jaskier)","Профессиональный (многоголосый закадровый) (NewStudio)","Профессиональный (многоголосый закадровый) (FOX)","Профессиональный (многоголосый закадровый) (TVShows)"],"seasons_count":2,"episodes_count":16,"episodes":8,"update":"2020-09-08 17:25:10","iframe_src":"//8543.svetacdn.in/71tsRs29n5tZ/tv-series/2359"},{"id":1973,"title":"Чи","kp_id":"1035657","imdb_id":"tt6294706","world_art_id":null,"type":"serial","add":"2018-01-20 06:43:18","orig_title":"The Chi","year":"2018-01-07","translations":["Профессиональный (многоголосый закадровый) (NewStudio)","Профессиональный (многоголосый закадровый) (HDrezka Studio)","Профессиональный (многоголосый закадровый) (FOX)","Профессиональный (двухголосый закадровый) (Gears Media)","Профессиональный (двухголосый закадровый) (IdeaFilm)","Любительский (многоголосый закадровый) (ColdFilm)"],"seasons_count":3,"episodes_count":30,"episodes":10,"update":"2020-09-07 14:59:00","iframe_src":"//8543.svetacdn.in/71tsRs29n5tZ/tv-series/1973"},{"id":9000,"title":"Школа воров 2","kp_id":"103387","imdb_id":"tt0203092","world_art_id":null,"type":"movie","add":"2017-01-17 12:30:38","orig_title":"Scuola di ladri - Parte seconda","year":"1987-09-22","translations":["Профессиональный (многоголосый закадровый)","Любительский (одноголосый закадровый)"],"quality":"hdtv","translation":"Профессиональный (многоголосый закадровый)","update":"2021-02-15 07:04:36","iframe_src":"//8543.svetacdn.in/71tsRs29n5tZ/movie/9000"},{"id":8999,"title":"Школа воров","kp_id":"64876","imdb_id":"tt0091911","world_art_id":null,"type":"movie","add":"2017-01-17 12:26:17","orig_title":"Scuola di ladri","year":"1986-10-07","translations":["Профессиональный (многоголосый закадровый)","Любительский (одноголосый закадровый)","Профессиональный (многоголосый закадровый) (Позитив)"],"quality":"hdtv","translation":"Профессиональный (многоголосый закадровый)","update":"2021-02-15 07:02:32","iframe_src":"//8543.svetacdn.in/71tsRs29n5tZ/movie/8999"},{"id":4546,"title":"Жажда","kp_id":"871998","imdb_id":"tt3955808","world_art_id":null,"type":"movie","add":"2016-08-19 06:28:58","orig_title":"Thirst","year":"2016-08-02","translations":["Любительский (одноголосый закадровый)","Любительский (одноголосый закадровый) (Хихикающий доктор)"],"quality":"webdl","translation":"Любительский (одноголосый закадровый)","update":"2021-02-15 06:59:02","iframe_src":"//8543.svetacdn.in/71tsRs29n5tZ/movie/4546"},{"id":243,"title":"Зверинец","kp_id":"804670","imdb_id":"tt3250026","world_art_id":null,"type":"serial","add":"2016-07-03 06:28:28","orig_title":"Zoo","year":"2015-06-30","translations":["Профессиональный (многоголосый закадровый) (NewStudio)","Профессиональный (многоголосый закадровый) (BaibaKo)","Профессиональный (многоголосый закадровый) (Пифагор)"],"seasons_count":3,"episodes_count":39,"episodes":13,"update":"2020-09-08 06:49:05","iframe_src":"//8543.svetacdn.in/71tsRs29n5tZ/tv-series/243"},{"id":2029,"title":"Другие","kp_id":"494","imdb_id":"tt0230600","world_art_id":null,"type":"movie","add":"2016-05-10 16:11:44","orig_title":"The Others","year":"2001-08-02","translations":["Профессиональный (многоголосый закадровый)","Полное дублирование"],"quality":"bd","translation":"Профессиональный (многоголосый закадровый)","update":"2021-02-15 06:48:05","iframe_src":"//8543.svetacdn.in/71tsRs29n5tZ/movie/2029"}],"current_page":120,"first_page_url":"https://videocdn.tv/api/short?limit=100&api_token=EnbO9h8pv1VyjbCJhg0WM9nG259n7mtz&cache3120=3120&page=1","from":11901,"last_page":607,"last_page_url":"https://videocdn.tv/api/short?limit=100&api_token=EnbO9h8pv1VyjbCJhg0WM9nG259n7mtz&cache3120=3120&page=607","next_page_url":"https://videocdn.tv/api/short?limit=100&api_token=EnbO9h8pv1VyjbCJhg0WM9nG259n7mtz&cache3120=3120&page=121","path":"https://videocdn.tv/api/short","per_page":100,"prev_page_url":"https://videocdn.tv/api/short?limit=100&api_token=EnbO9h8pv1VyjbCJhg0WM9nG259n7mtz&cache3120=3120&page=119","to":11940,"total":60696}