{"result":true,"data":[{"id":38997,"title":"Два берега","kp_id":"224972","imdb_id":"tt0215902","world_art_id":null,"type":"movie","add":"2020-04-07 11:48:30","orig_title":"Kinara","year":"1977-01-01","translations":["Профессиональный (многоголосый закадровый) (SDI Media)"],"quality":"webdl","translation":"Профессиональный (многоголосый закадровый) (SDI Media)","update":"2020-04-10 07:52:40","iframe_src":"//8543.svetacdn.in/si4jsFRrtgrT/movie/38997"},{"id":38993,"title":"Амрапали","kp_id":"95640","imdb_id":"tt0060104","world_art_id":null,"type":"movie","add":"2020-04-07 09:35:03","orig_title":"Amrapali","year":"1966-09-11","translations":["Профессиональный (многоголосый закадровый)"],"quality":"dvdrip","translation":"Профессиональный (многоголосый закадровый)","update":"2020-04-10 07:52:01","iframe_src":"//8543.svetacdn.in/si4jsFRrtgrT/movie/38993"},{"id":38992,"title":"Эшли","kp_id":"1089290","imdb_id":"tt7274816","world_art_id":null,"type":"movie","add":"2020-04-07 09:31:09","orig_title":"Ashley","year":"2017-01-13","translations":["Профессиональный (многоголосый закадровый)"],"quality":"hdtv","translation":"Профессиональный (многоголосый закадровый)","update":"2020-04-10 07:51:27","iframe_src":"//8543.svetacdn.in/si4jsFRrtgrT/movie/38992"},{"id":38988,"title":"Фобия","kp_id":"984162","imdb_id":"tt5743656","world_art_id":null,"type":"movie","add":"2020-04-06 23:28:28","orig_title":"Phobia","year":"2016-05-27","translations":["Профессиональный (многоголосый закадровый) (Red Media)"],"quality":"sat","translation":"Профессиональный (многоголосый закадровый) (Red Media)","update":"2020-04-10 07:49:10","iframe_src":"//8543.svetacdn.in/si4jsFRrtgrT/movie/38988"},{"id":38987,"title":"Адам Джоан","kp_id":"1038784","imdb_id":"tt6581440","world_art_id":null,"type":"movie","add":"2020-04-06 23:19:00","orig_title":"Adam Joan","year":"2017-09-01","translations":["Любительский (многоголосый закадровый) (FanStudio)"],"quality":"dvdrip","translation":"Любительский (многоголосый закадровый) (FanStudio)","update":"2020-04-10 07:43:03","iframe_src":"//8543.svetacdn.in/si4jsFRrtgrT/movie/38987"},{"id":38985,"title":"Неудачное похищение","kp_id":"50242","imdb_id":"tt0104605","world_art_id":null,"type":"movie","add":"2020-04-06 23:11:46","orig_title":"Khiladi","year":"1992-06-05","translations":["Профессиональный (многоголосый закадровый)"],"quality":"dvdrip","translation":"Профессиональный (многоголосый закадровый)","update":"2020-04-10 07:42:13","iframe_src":"//8543.svetacdn.in/si4jsFRrtgrT/movie/38985"},{"id":38984,"title":"Любовный Коктейль","kp_id":"1338308","imdb_id":"tt10919132","world_art_id":null,"type":"movie","add":"2020-04-06 23:09:17","orig_title":"Love Mocktail","year":"2020-01-31","translations":["Любительский (многоголосый закадровый) (Синема УС)"],"quality":"webdl","translation":"Любительский (многоголосый закадровый) (Синема УС)","update":"2020-04-10 07:40:59","iframe_src":"//8543.svetacdn.in/si4jsFRrtgrT/movie/38984"},{"id":38983,"title":"Любовь не сломить","kp_id":"97047","imdb_id":"tt0087958","world_art_id":null,"type":"movie","add":"2020-04-06 23:05:15","orig_title":"Pyar Jhukta Nahin","year":"1985-01-11","translations":["Профессиональный (одноголосый закадровый)"],"quality":"dvdrip","translation":"Профессиональный (одноголосый закадровый)","update":"2020-04-10 07:51:49","iframe_src":"//8543.svetacdn.in/si4jsFRrtgrT/movie/38983"},{"id":38981,"title":"Очарован тобой","kp_id":"198075","imdb_id":"tt0225515","world_art_id":null,"type":"movie","add":"2020-04-06 23:00:24","orig_title":"Dillagi","year":"1999-11-19","translations":["Профессиональный (многоголосый закадровый)"],"quality":"hdtv","translation":"Профессиональный (многоголосый закадровый)","update":"2020-04-10 07:49:57","iframe_src":"//8543.svetacdn.in/si4jsFRrtgrT/movie/38981"},{"id":38980,"title":"Огонь-свидетель","kp_id":"36600","imdb_id":"tt0115484","world_art_id":null,"type":"movie","add":"2020-04-06 22:57:23","orig_title":"Agni Sakshi","year":"1996-03-15","translations":["Профессиональный (многоголосый закадровый)"],"quality":"dvdrip","translation":"Профессиональный (многоголосый закадровый)","update":"2020-04-10 07:49:03","iframe_src":"//8543.svetacdn.in/si4jsFRrtgrT/movie/38980"},{"id":38979,"title":"Окей Джану","kp_id":"983739","imdb_id":"tt5764024","world_art_id":null,"type":"movie","add":"2020-04-06 22:55:06","orig_title":"OK Jaanu","year":"2017-01-12","translations":["Любительский (многоголосый закадровый) (FanStudio)"],"quality":"hdrip","translation":"Любительский (многоголосый закадровый) (FanStudio)","update":"2020-04-10 07:48:38","iframe_src":"//8543.svetacdn.in/si4jsFRrtgrT/movie/38979"},{"id":38978,"title":"Отважный парень","kp_id":"78535","imdb_id":"tt0079584","world_art_id":null,"type":"movie","add":"2020-04-06 22:53:03","orig_title":"Mr. Natwarlal","year":"1979-06-08","translations":["Профессиональный (двухголосый закадровый)"],"quality":"dvdrip","translation":"Профессиональный (двухголосый закадровый)","update":"2020-04-10 07:47:33","iframe_src":"//8543.svetacdn.in/si4jsFRrtgrT/movie/38978"},{"id":38977,"title":"Спокойный отец","kp_id":"454084","imdb_id":"tt1404573","world_art_id":null,"type":"movie","add":"2020-04-06 22:49:10","orig_title":"Daddy Cool: Join the Fun","year":"2009-08-28","translations":["Профессиональный (многоголосый закадровый) (Red Media)"],"quality":"dvdrip","translation":"Профессиональный (многоголосый закадровый) (Red Media)","update":"2020-04-10 07:45:47","iframe_src":"//8543.svetacdn.in/si4jsFRrtgrT/movie/38977"},{"id":38976,"title":"Похищение","kp_id":"391919","imdb_id":"tt1034449","world_art_id":null,"type":"movie","add":"2020-04-06 22:47:01","orig_title":"Kidnap","year":"2008-10-02","translations":["Профессиональный (двухголосый закадровый)"],"quality":"dvdrip","translation":"Профессиональный (двухголосый закадровый)","update":"2020-04-10 07:45:15","iframe_src":"//8543.svetacdn.in/si4jsFRrtgrT/movie/38976"},{"id":38975,"title":"Похищение ребенка","kp_id":"95691","imdb_id":"tt0366616","world_art_id":null,"type":"movie","add":"2020-04-06 22:44:16","orig_title":"Inkaar","year":"1977-01-01","translations":["Профессиональный (многоголосый закадровый)"],"quality":"dvdrip","translation":"Профессиональный (многоголосый закадровый)","update":"2020-04-10 07:44:25","iframe_src":"//8543.svetacdn.in/si4jsFRrtgrT/movie/38975"},{"id":38958,"title":"Похищенная","kp_id":"51218","imdb_id":"tt0347779","world_art_id":null,"type":"movie","add":"2020-04-06 13:25:09","orig_title":"Pinjar: Beyond Boundaries...","year":"2003-10-24","translations":["Профессиональный (двухголосый закадровый)"],"quality":"dvdrip","translation":"Профессиональный (двухголосый закадровый)","update":"2020-04-10 07:41:56","iframe_src":"//8543.svetacdn.in/si4jsFRrtgrT/movie/38958"},{"id":38957,"title":"Хулиган","kp_id":"485883","imdb_id":"tt1451409","world_art_id":null,"type":"movie","add":"2020-04-06 13:18:12","orig_title":"Pokkiri","year":"2007-01-12","translations":["Профессиональный (многоголосый закадровый) (Red Media)"],"quality":"bd","translation":"Профессиональный (многоголосый закадровый) (Red Media)","update":"2020-04-10 07:41:22","iframe_src":"//8543.svetacdn.in/si4jsFRrtgrT/movie/38957"},{"id":38956,"title":"Повторный брак","kp_id":"272308","imdb_id":"tt0207320","world_art_id":null,"type":"movie","add":"2020-04-06 13:12:12","orig_title":"Bahu Beti","year":"1965-01-01","translations":["Любительский (одноголосый закадровый)"],"quality":"dvdrip","translation":"Любительский (одноголосый закадровый)","update":"2020-04-10 07:40:39","iframe_src":"//8543.svetacdn.in/si4jsFRrtgrT/movie/38956"},{"id":29981,"title":"Джилла","kp_id":"737915","imdb_id":"tt2678948","world_art_id":null,"type":"movie","add":"2019-08-14 05:43:47","orig_title":"Jilla","year":"2014-01-09","translations":["Профессиональный (многоголосый закадровый) (SDI Media)"],"quality":"bd","translation":"Профессиональный (многоголосый закадровый) (SDI Media)","update":"2020-04-10 07:48:35","iframe_src":"//8543.svetacdn.in/si4jsFRrtgrT/movie/29981"},{"id":18869,"title":"История","kp_id":"586486","imdb_id":"tt1821480","world_art_id":null,"type":"movie","add":"2018-09-09 12:00:02","orig_title":"Kahaani","year":"2012-03-08","translations":["Любительский (многоголосый закадровый)","Профессиональный (многоголосый закадровый) (Red Media)"],"quality":"bd","translation":"Любительский (многоголосый закадровый)","update":"2020-04-10 07:47:34","iframe_src":"//8543.svetacdn.in/si4jsFRrtgrT/movie/18869"}],"current_page":601,"first_page_url":"https://videocdn.tv/api/short?limit=100&api_token=X6EwAUfE5M9xbo7y0Bp0aPf3uXxG2KLL&cache3601=3601&page=1","from":60001,"last_page":601,"last_page_url":"https://videocdn.tv/api/short?limit=100&api_token=X6EwAUfE5M9xbo7y0Bp0aPf3uXxG2KLL&cache3601=3601&page=601","next_page_url":null,"path":"https://videocdn.tv/api/short","per_page":100,"prev_page_url":"https://videocdn.tv/api/short?limit=100&api_token=X6EwAUfE5M9xbo7y0Bp0aPf3uXxG2KLL&cache3601=3601&page=600","to":60020,"total":60013}