{"result":true,"data":[{"id":37984,"title":"Мечты джентльмена","kp_id":"77644","imdb_id":"tt0173102","world_art_id":null,"type":"movie","add":"2020-03-14 21:56:29","orig_title":"Raju Ban Gaya Gentleman","year":"1992-11-13","translations":["Профессиональный (многоголосый закадровый)"],"quality":"dvdrip","translation":"Профессиональный (многоголосый закадровый)","update":"2020-03-18 07:58:37","iframe_src":"//8209.svetacdn.in/71tsRs29n5tZ/movie/37984"},{"id":37968,"title":"Гостеприимство","kp_id":"497944","imdb_id":"tt1582546","world_art_id":null,"type":"movie","add":"2020-03-13 20:27:45","orig_title":"Maryada Ramanna","year":"2010-07-23","translations":["Профессиональный (многоголосый закадровый) (Red Media)"],"quality":"bd","translation":"Профессиональный (многоголосый закадровый) (Red Media)","update":"2020-03-18 07:57:40","iframe_src":"//8209.svetacdn.in/71tsRs29n5tZ/movie/37968"},{"id":37967,"title":"Неожиданный поворот","kp_id":"224721","imdb_id":"tt0339878","world_art_id":null,"type":"movie","add":"2020-03-13 20:25:17","orig_title":"Waah! Tera Kya Kehna","year":"2002-11-01","translations":["Профессиональный (многоголосый закадровый)"],"quality":"webdl","translation":"Профессиональный (многоголосый закадровый)","update":"2020-03-18 07:56:48","iframe_src":"//8209.svetacdn.in/71tsRs29n5tZ/movie/37967"},{"id":37966,"title":"Получеловек","kp_id":"963476","imdb_id":"tt5455344","world_art_id":null,"type":"movie","add":"2020-03-13 20:22:36","orig_title":"Miruthan","year":"2016-02-19","translations":["Любительский (одноголосый закадровый)"],"quality":"webdl","translation":"Любительский (одноголосый закадровый)","update":"2020-03-18 07:55:30","iframe_src":"//8209.svetacdn.in/71tsRs29n5tZ/movie/37966"},{"id":37946,"title":"Новичок","kp_id":"808","imdb_id":"tt0265662","world_art_id":null,"type":"movie","add":"2020-03-13 13:50:33","orig_title":"The Rookie","year":"2002-03-26","translations":["Профессиональный (многоголосый закадровый)","Original (English)"],"quality":"bd","translation":"Профессиональный (многоголосый закадровый)","update":"2020-03-18 07:28:16","iframe_src":"//8209.svetacdn.in/71tsRs29n5tZ/movie/37946"},{"id":37945,"title":"Пастырь: Битва за души","kp_id":"276428","imdb_id":"tt0932669","world_art_id":null,"type":"movie","add":"2020-03-13 13:49:25","orig_title":"Older Than America","year":"2008-03-08","translations":["Профессиональный (многоголосый закадровый) (CP Digital)","Original (English)"],"quality":"bd","translation":"Профессиональный (многоголосый закадровый) (CP Digital)","update":"2020-03-18 07:29:09","iframe_src":"//8209.svetacdn.in/71tsRs29n5tZ/movie/37945"},{"id":37943,"title":"Сектор – пляж «Джуно»","kp_id":"834447","imdb_id":"tt1776305","world_art_id":null,"type":"movie","add":"2020-03-13 13:46:50","orig_title":"Storming Juno","year":"2010-11-11","translations":["Профессиональный (одноголосый закадровый)","Original (English)"],"quality":"hdtv","translation":"Профессиональный (одноголосый закадровый)","update":"2020-03-18 07:27:34","iframe_src":"//8209.svetacdn.in/71tsRs29n5tZ/movie/37943"},{"id":37941,"title":"Наездник рассвета","kp_id":"602726","imdb_id":"tt2014202","world_art_id":null,"type":"movie","add":"2020-03-13 13:43:04","orig_title":"Dawn Rider","year":"2012-05-29","translations":["Любительский (двухголосый закадровый) (Студия Райдо)","Original (English)"],"quality":"bd","translation":"Любительский (двухголосый закадровый) (Студия Райдо)","update":"2020-03-18 07:29:52","iframe_src":"//8209.svetacdn.in/71tsRs29n5tZ/movie/37941"},{"id":37939,"title":"Бункер","kp_id":"231926","imdb_id":"tt0082114","world_art_id":null,"type":"movie","add":"2020-03-13 13:38:09","orig_title":"The Bunker","year":"1981-01-27","translations":["Авторский (одноголосый закадровый) (Дольский Андрей)","Original (English)"],"quality":"bd","translation":"Авторский (одноголосый закадровый) (Дольский Андрей)","update":"2020-03-18 07:30:56","iframe_src":"//8209.svetacdn.in/71tsRs29n5tZ/movie/37939"},{"id":33840,"title":"Городской ковбой","kp_id":"9520","imdb_id":"tt0081696","world_art_id":null,"type":"movie","add":"2019-12-08 11:09:10","orig_title":"Urban Cowboy","year":"1980-06-06","translations":["Профессиональный (многоголосый закадровый) (Paramount Channel)","Профессиональный (двухголосый закадровый) (Премьер Видео Фильм)","Original (English)"],"quality":"webdl","translation":"Профессиональный (многоголосый закадровый) (Paramount Channel)","update":"2020-03-18 07:25:25","iframe_src":"//8209.svetacdn.in/71tsRs29n5tZ/movie/33840"},{"id":33837,"title":"Детям до 16-ти","kp_id":"1799","imdb_id":"tt0209322","world_art_id":null,"type":"movie","add":"2019-12-08 11:02:21","orig_title":"Skipped Parts","year":"2000-06-06","translations":["Профессиональный (двухголосый закадровый)","Original (English)"],"quality":"webdl","translation":"Профессиональный (двухголосый закадровый)","update":"2020-03-18 07:14:39","iframe_src":"//8209.svetacdn.in/71tsRs29n5tZ/movie/33837"},{"id":33007,"title":"Новичок","kp_id":"61375","imdb_id":"tt0373416","world_art_id":null,"type":"movie","add":"2019-11-12 15:00:15","orig_title":"Underclassman","year":"2005-09-02","translations":["Полное дублирование","Original (English)"],"quality":"webdl","translation":"Полное дублирование","update":"2020-03-18 07:24:26","iframe_src":"//8209.svetacdn.in/71tsRs29n5tZ/movie/33007"},{"id":30324,"title":"Сахар и перец","kp_id":"2858","imdb_id":"tt0186589","world_art_id":null,"type":"movie","add":"2019-08-27 18:43:04","orig_title":"Sugar & Spice","year":"2001-01-24","translations":["Полное дублирование","Original (English)"],"quality":"webdl","translation":"Полное дублирование","update":"2020-03-18 07:16:14","iframe_src":"//8209.svetacdn.in/71tsRs29n5tZ/movie/30324"},{"id":29889,"title":"Они ползут за тобой","kp_id":"1083108","imdb_id":"tt7313348","world_art_id":null,"type":"movie","add":"2019-08-10 14:06:46","orig_title":"Them That Follow","year":"2019-01-27","translations":["Профессиональный (многоголосый закадровый) (iTunes)","Original (English)"],"quality":"webdl","translation":"Профессиональный (многоголосый закадровый) (iTunes)","update":"2020-03-18 07:22:37","iframe_src":"//8209.svetacdn.in/71tsRs29n5tZ/movie/29889"},{"id":23507,"title":"Тема для разговора","kp_id":"7189","imdb_id":"tt0114496","world_art_id":null,"type":"movie","add":"2019-03-26 21:54:36","orig_title":"Something to Talk About","year":"1995-07-20","translations":["Полное дублирование","Авторский (одноголосый закадровый) (Карцев Пётр)","Профессиональный (многоголосый закадровый) (Нота)","Original (English)"],"quality":"webdl","translation":"Полное дублирование","update":"2020-03-18 07:15:35","iframe_src":"//8209.svetacdn.in/71tsRs29n5tZ/movie/23507"},{"id":21341,"title":"Автомобиль: Дорога мести","kp_id":"1219744","imdb_id":"tt9382596","world_art_id":null,"type":"movie","add":"2019-01-08 23:57:39","orig_title":"The Car: Road to Revenge","year":"2019-01-08","translations":["Профессиональный (многоголосый закадровый) (ТВ3)","Original (English)"],"quality":"webdl","translation":"Профессиональный (многоголосый закадровый) (ТВ3)","update":"2020-03-18 07:17:01","iframe_src":"//8209.svetacdn.in/71tsRs29n5tZ/movie/21341"},{"id":18832,"title":"Против воли","kp_id":"917260","imdb_id":"tt4781446","world_art_id":null,"type":"movie","add":"2018-09-07 00:08:16","orig_title":"The Unwilling","year":"2016-11-18","translations":["Любительский (одноголосый закадровый) (datynet | Агапов Антон)","Original (English)"],"quality":"webdl","translation":"Любительский (одноголосый закадровый) (datynet | Агапов Антон)","update":"2020-03-18 07:21:38","iframe_src":"//8209.svetacdn.in/71tsRs29n5tZ/movie/18832"},{"id":18760,"title":"Носитель","kp_id":"798507","imdb_id":"tt3163224","world_art_id":null,"type":"movie","add":"2018-09-02 23:46:53","orig_title":"The Carrier","year":"2015-09-30","translations":["Любительский (двухголосый закадровый)","Original (English)"],"quality":"webdl","translation":"Любительский (двухголосый закадровый)","update":"2020-03-18 07:18:30","iframe_src":"//8209.svetacdn.in/71tsRs29n5tZ/movie/18760"},{"id":14246,"title":"Тотем","kp_id":"1050826","imdb_id":"tt6791238","world_art_id":null,"type":"movie","add":"2017-11-05 23:06:40","orig_title":"Totem","year":"2017-10-31","translations":["Профессиональный (многоголосый закадровый) (GreenРай Studio)","Профессиональный (двухголосый закадровый)","Original (English)"],"quality":"webdl","translation":"Профессиональный (многоголосый закадровый) (GreenРай Studio)","update":"2020-03-18 07:23:28","iframe_src":"//8209.svetacdn.in/71tsRs29n5tZ/movie/14246"},{"id":3659,"title":"Основные принципы добра","kp_id":"719608","imdb_id":"tt2452386","world_art_id":null,"type":"movie","add":"2016-07-04 11:17:13","orig_title":"The Fundamentals of Caring","year":"2016-01-29","translations":["Профессиональный (многоголосый закадровый) (FocusX)","Любительский (двухголосый закадровый)","Original (English)"],"quality":"webdl","translation":"Профессиональный (многоголосый закадровый) (FocusX)","update":"2020-03-18 07:19:27","iframe_src":"//8209.svetacdn.in/71tsRs29n5tZ/movie/3659"}],"current_page":929,"first_page_url":"https://videocdn.tv/api/short?limit=100&api_token=EnbO9h8pv1VyjbCJhg0WM9nG259n7mtz&cache3929=3929&page=1","from":92801,"last_page":654,"last_page_url":"https://videocdn.tv/api/short?limit=100&api_token=EnbO9h8pv1VyjbCJhg0WM9nG259n7mtz&cache3929=3929&page=654","next_page_url":null,"path":"https://videocdn.tv/api/short","per_page":100,"prev_page_url":"https://videocdn.tv/api/short?limit=100&api_token=EnbO9h8pv1VyjbCJhg0WM9nG259n7mtz&cache3929=3929&page=928","to":92820,"total":65343}