{"result":true,"data":[{"id":48172,"title":"Нет","kp_id":"1144176","imdb_id":null,"world_art_id":null,"type":"movie","add":"2021-02-23 06:42:57","orig_title":"Нет","year":"2013-06-03","translations":["Оригинальная дорожка"],"quality":"webdl","translation":"Оригинальная дорожка","update":"2021-02-23 08:36:00","iframe_src":"//7720.svetacdn.in/71tsRs29n5tZ/movie/48172"},{"id":48171,"title":"Эвтаназия","kp_id":"1272455","imdb_id":"tt11570660","world_art_id":null,"type":"movie","add":"2021-02-23 06:41:00","orig_title":"Evtanaziya","year":"2019-06-12","translations":["Оригинальная дорожка"],"quality":"webdl","translation":"Оригинальная дорожка","update":"2021-02-23 08:36:57","iframe_src":"//7720.svetacdn.in/71tsRs29n5tZ/movie/48171"},{"id":48169,"title":"Чудак","kp_id":"96921","imdb_id":"tt0390929","world_art_id":null,"type":"movie","add":"2021-02-22 17:26:14","orig_title":"Bin Badal Barsaat","year":"1963-11-17","translations":["Профессиональный (многоголосый закадровый)"],"quality":"webdl","translation":"Профессиональный (многоголосый закадровый)","update":"2021-02-23 08:11:06","iframe_src":"//7720.svetacdn.in/71tsRs29n5tZ/movie/48169"},{"id":48160,"title":"Тарантелла","kp_id":"1033331","imdb_id":"tt6195444","world_art_id":null,"type":"movie","add":"2021-02-22 14:39:12","orig_title":"Tarantella","year":"2021-01-21","translations":["Любительский (многоголосый закадровый) (AlphaProject)"],"quality":"webdl","translation":"Любительский (многоголосый закадровый) (AlphaProject)","update":"2021-02-22 17:59:35","iframe_src":"//7720.svetacdn.in/71tsRs29n5tZ/movie/48160"},{"id":48158,"title":"Кошмар перед Днем святого Валентина","kp_id":"1426132","imdb_id":"tt13135852","world_art_id":null,"type":"movie","add":"2021-02-22 14:37:04","orig_title":"Galentine's Day Nightmare","year":"2021-02-12","translations":["Любительский (многоголосый закадровый) (Синема УС)"],"quality":"webdl","translation":"Любительский (многоголосый закадровый) (Синема УС)","update":"2021-02-22 17:59:24","iframe_src":"//7720.svetacdn.in/71tsRs29n5tZ/movie/48158"},{"id":48157,"title":"Драка ярости","kp_id":"1375053","imdb_id":"tt12222074","world_art_id":null,"type":"movie","add":"2021-02-22 14:35:42","orig_title":"Fight of Fury","year":"2020-08-07","translations":["Любительский (многоголосый закадровый) (Синема УС)"],"quality":"webdl","translation":"Любительский (многоголосый закадровый) (Синема УС)","update":"2021-02-22 17:59:04","iframe_src":"//7720.svetacdn.in/71tsRs29n5tZ/movie/48157"},{"id":48156,"title":"Смерть спасла мне жизнь","kp_id":"4367702","imdb_id":"tt13646412","world_art_id":null,"type":"movie","add":"2021-02-22 14:34:26","orig_title":"Death Saved My Life","year":"2021-02-13","translations":["Любительский (многоголосый закадровый) (AlphaProject)"],"quality":"hdtv","translation":"Любительский (многоголосый закадровый) (AlphaProject)","update":"2021-02-22 17:58:45","iframe_src":"//7720.svetacdn.in/71tsRs29n5tZ/movie/48156"},{"id":48155,"title":"Кресты","kp_id":"1412524","imdb_id":null,"world_art_id":null,"type":"movie","add":"2021-02-22 12:53:18","orig_title":"Кресты","year":"2020-01-01","translations":["Оригинальная дорожка"],"quality":"webdl","translation":"Оригинальная дорожка","update":"2021-02-23 07:21:47","iframe_src":"//7720.svetacdn.in/71tsRs29n5tZ/movie/48155"},{"id":48154,"title":"Возвращение на дикий пляж","kp_id":"35289","imdb_id":"tt0127759","world_art_id":null,"type":"movie","add":"2021-02-22 12:34:15","orig_title":"L.E.T.H.A.L. Ladies: Return to Savage Beach","year":"2006-02-14","translations":["Профессиональный (двухголосый закадровый)"],"quality":"hdrip","translation":"Профессиональный (двухголосый закадровый)","update":"2021-02-23 07:23:06","iframe_src":"//7720.svetacdn.in/71tsRs29n5tZ/movie/48154"},{"id":48149,"title":"Город Бога","kp_id":"4292254","imdb_id":"tt13423384","world_art_id":null,"type":"movie","add":"2021-02-22 11:11:35","orig_title":"God City Da Movie","year":"2020-10-10","translations":["Любительский (многоголосый закадровый) (Синема УС)"],"quality":"webdl","translation":"Любительский (многоголосый закадровый) (Синема УС)","update":"2021-02-22 19:49:49","iframe_src":"//7720.svetacdn.in/71tsRs29n5tZ/movie/48149"},{"id":48137,"title":"Ва-банк: семья","kp_id":"4370171","imdb_id":"tt12025556","world_art_id":null,"type":"movie","add":"2021-02-22 09:35:34","orig_title":"All In: The Family","year":"2020-04-26","translations":["Любительский (многоголосый закадровый) (Синема УС)"],"quality":"webdl","translation":"Любительский (многоголосый закадровый) (Синема УС)","update":"2021-02-22 19:48:38","iframe_src":"//7720.svetacdn.in/71tsRs29n5tZ/movie/48137"},{"id":48136,"title":"Спрятаться негде: Режиссёрская версия","kp_id":"1255018","imdb_id":"tt10188162","world_art_id":null,"type":"movie","add":"2021-02-22 09:31:51","orig_title":"Bunnyman: Grindhouse Edition","year":"2019-04-19","translations":["Любительский (многоголосый закадровый) (Синема УС)"],"quality":"webdl","translation":"Любительский (многоголосый закадровый) (Синема УС)","update":"2021-02-22 19:48:05","iframe_src":"//7720.svetacdn.in/71tsRs29n5tZ/movie/48136"},{"id":48107,"title":"Дом и хозяин","kp_id":"44262","imdb_id":"tt0182995","world_art_id":null,"type":"movie","add":"2021-02-21 14:29:59","orig_title":"Dom i khozyain","year":"1968-11-25","translations":["Оригинальная дорожка"],"quality":"sat","translation":"Оригинальная дорожка","update":"2021-02-23 08:58:17","iframe_src":"//7720.svetacdn.in/71tsRs29n5tZ/movie/48107"},{"id":48106,"title":"Чудовище, или Кто-то другой","kp_id":"45532","imdb_id":"tt0306650","world_art_id":null,"type":"movie","add":"2021-02-21 14:09:19","orig_title":"Chudovishche ili kto-to drugoy","year":"1988-01-01","translations":["Оригинальная дорожка"],"quality":"tv","translation":"Оригинальная дорожка","update":"2021-02-23 08:52:08","iframe_src":"//7720.svetacdn.in/71tsRs29n5tZ/movie/48106"},{"id":48079,"title":"До свидания, Медео","kp_id":"42092","imdb_id":"tt0174164","world_art_id":null,"type":"movie","add":"2021-02-19 21:09:44","orig_title":"Revue na zakázku","year":"1982-12-01","translations":["Оригинальная дорожка"],"quality":"webdl","translation":"Оригинальная дорожка","update":"2021-02-23 08:48:50","iframe_src":"//7720.svetacdn.in/71tsRs29n5tZ/movie/48079"},{"id":48076,"title":"Крестьяне","kp_id":"399631","imdb_id":"tt0319639","world_art_id":null,"type":"movie","add":"2021-02-19 21:06:08","orig_title":"Kandlilar","year":"1940-03-21","translations":["Оригинальная дорожка"],"quality":"webdl","translation":"Оригинальная дорожка","update":"2021-02-23 08:47:46","iframe_src":"//7720.svetacdn.in/71tsRs29n5tZ/movie/48076"},{"id":48075,"title":"Медовый месяц в Америке","kp_id":"694478","imdb_id":"tt4970366","world_art_id":null,"type":"movie","add":"2021-02-19 21:03:28","orig_title":"Medaus menuo Amerikoje","year":"1981-01-01","translations":["Полное дублирование"],"quality":"tv","translation":"Полное дублирование","update":"2021-02-23 08:47:14","iframe_src":"//7720.svetacdn.in/71tsRs29n5tZ/movie/48075"},{"id":48073,"title":"Моабитская тетрадь","kp_id":"46662","imdb_id":"tt0347563","world_art_id":null,"type":"movie","add":"2021-02-19 21:00:10","orig_title":"Moabitskaya tetrad","year":"1968-10-14","translations":["Оригинальная дорожка"],"quality":"sat","translation":"Оригинальная дорожка","update":"2021-02-23 08:39:36","iframe_src":"//7720.svetacdn.in/71tsRs29n5tZ/movie/48073"},{"id":47928,"title":"Униженные и оскорбленные","kp_id":"29775","imdb_id":"tt0103170","world_art_id":null,"type":"movie","add":"2021-02-14 19:32:32","orig_title":"Unizhennye i oskorblennye","year":"1990-07-01","translations":["Оригинальная дорожка"],"quality":"dvdrip","translation":"Оригинальная дорожка","update":"2021-02-23 08:38:44","iframe_src":"//7720.svetacdn.in/71tsRs29n5tZ/movie/47928"},{"id":5654,"title":"Вторжение паразитов","kp_id":"592094","imdb_id":"tt1820966","world_art_id":null,"type":"serial","add":"2019-11-05 20:05:45","orig_title":"Infested!","year":"2011-01-09","translations":["Профессиональный (одноголосый закадровый)"],"seasons_count":1,"episodes_count":3,"episodes":3,"update":"2019-11-07 13:29:10","iframe_src":"//7720.svetacdn.in/71tsRs29n5tZ/tv-series/5654"},{"id":5651,"title":"Раш","kp_id":"819374","imdb_id":"tt3413236","world_art_id":null,"type":"serial","add":"2019-11-05 19:41:50","orig_title":"Rush","year":"2014-07-17","translations":["Профессиональный (многоголосый закадровый) (IdeaFilm)"],"seasons_count":1,"episodes_count":10,"episodes":10,"update":"2019-11-07 13:26:51","iframe_src":"//7720.svetacdn.in/71tsRs29n5tZ/tv-series/5651"},{"id":5650,"title":"Те, кто убивают","kp_id":"661763","imdb_id":"tt2188931","world_art_id":null,"type":"serial","add":"2019-11-05 19:37:52","orig_title":"Those Who Kill","year":"2014-03-03","translations":["Профессиональный (многоголосый закадровый) (ViruseProject)"],"seasons_count":1,"episodes_count":10,"episodes":10,"update":"2019-11-07 13:21:22","iframe_src":"//7720.svetacdn.in/71tsRs29n5tZ/tv-series/5650"},{"id":5649,"title":"Курт Сеит и Александра","kp_id":"821526","imdb_id":"tt3467380","world_art_id":null,"type":"serial","add":"2019-11-05 19:32:47","orig_title":"Kurt Seyit ve Sura","year":"2014-03-04","translations":["Полное дублирование (СВ-Дубль)"],"seasons_count":2,"episodes_count":21,"episodes":8,"update":"2019-11-07 13:15:41","iframe_src":"//7720.svetacdn.in/71tsRs29n5tZ/tv-series/5649"},{"id":5643,"title":"Три полуграции","kp_id":"256464","imdb_id":"tt3257142","world_art_id":null,"type":"serial","add":"2019-11-05 13:57:22","orig_title":"Tri polugratsii","year":"2006-01-01","translations":["Оригинальная дорожка"],"seasons_count":1,"episodes_count":4,"episodes":4,"update":"2019-11-07 12:52:44","iframe_src":"//7720.svetacdn.in/71tsRs29n5tZ/tv-series/5643"},{"id":5641,"title":"Верни меня","kp_id":"880706","imdb_id":null,"world_art_id":null,"type":"serial","add":"2019-11-05 13:54:58","orig_title":"Верни меня","year":"2015-05-30","translations":["Оригинальная дорожка"],"seasons_count":1,"episodes_count":2,"episodes":2,"update":"2019-11-07 12:50:11","iframe_src":"//7720.svetacdn.in/71tsRs29n5tZ/tv-series/5641"},{"id":5640,"title":"Телеведущие","kp_id":"733473","imdb_id":"tt2166772","world_art_id":null,"type":"serial","add":"2019-11-05 13:50:04","orig_title":"Newsreaders","year":"2013-01-17","translations":["Профессиональный (двухголосый закадровый) (Кубик в Кубе)"],"seasons_count":2,"episodes_count":16,"episodes":6,"update":"2019-11-07 12:48:46","iframe_src":"//7720.svetacdn.in/71tsRs29n5tZ/tv-series/5640"},{"id":5634,"title":"Солдаты. Новый год, твою дивизию!","kp_id":"470958","imdb_id":null,"world_art_id":null,"type":"serial","add":"2019-11-05 11:55:49","orig_title":"Солдаты. Новый год, твою дивизию!","year":"2007-12-31","translations":["Оригинальная дорожка"],"seasons_count":1,"episodes_count":2,"episodes":2,"update":"2019-11-07 12:34:59","iframe_src":"//7720.svetacdn.in/71tsRs29n5tZ/tv-series/5634"},{"id":5632,"title":"Одиссей","kp_id":"77183","imdb_id":"tt0118414","world_art_id":null,"type":"serial","add":"2019-11-05 11:48:08","orig_title":"The Odyssey","year":"1997-05-18","translations":["Профессиональный (многоголосый закадровый)"],"seasons_count":1,"episodes_count":2,"episodes":2,"update":"2019-11-07 12:33:48","iframe_src":"//7720.svetacdn.in/71tsRs29n5tZ/tv-series/5632"},{"id":5619,"title":"Моя любимая мишень","kp_id":"1263237","imdb_id":null,"world_art_id":null,"type":"serial","add":"2019-11-03 10:01:20","orig_title":"Моя любимая мишень","year":"2019-01-01","translations":["Оригинальная дорожка"],"seasons_count":1,"episodes_count":4,"episodes":4,"update":"2019-11-05 07:45:30","iframe_src":"//7720.svetacdn.in/71tsRs29n5tZ/tv-series/5619"},{"id":5610,"title":"Тихая пристань","kp_id":"277789","imdb_id":"tt0078638","world_art_id":null,"type":"serial","add":"2019-11-02 21:49:53","orig_title":"Knots Landing","year":"1979-12-27","translations":["Любительский (одноголосый закадровый)"],"seasons_count":1,"episodes_count":5,"episodes":5,"update":"2019-11-05 07:52:27","iframe_src":"//7720.svetacdn.in/71tsRs29n5tZ/tv-series/5610"},{"id":5607,"title":"Новые загадки для Скуби-Ду","kp_id":"229840","imdb_id":"tt0086767","world_art_id":null,"type":"serial","add":"2019-11-02 12:54:51","orig_title":"The New Scooby-Doo Mysteries","year":"1983-09-10","translations":["Полное дублирование"],"seasons_count":2,"episodes_count":26,"episodes":13,"update":"2019-11-07 13:02:20","iframe_src":"//7720.svetacdn.in/71tsRs29n5tZ/tv-series/5607"},{"id":5606,"title":"Новое шоу Скуби и Скрэппи Ду","kp_id":"229444","imdb_id":"tt0084970","world_art_id":null,"type":"serial","add":"2019-11-02 12:46:14","orig_title":"The New Scooby and Scrappy-Doo Show","year":"1983-09-10","translations":["Полное дублирование"],"seasons_count":1,"episodes_count":13,"episodes":13,"update":"2019-11-07 12:58:11","iframe_src":"//7720.svetacdn.in/71tsRs29n5tZ/tv-series/5606"},{"id":5605,"title":"Скуби Ду: Забавные состязания «Всех мультсупер звезд»","kp_id":"94695","imdb_id":"tt0181941","world_art_id":null,"type":"serial","add":"2019-11-02 12:32:18","orig_title":"Scooby's All Star Laff-A-Lympics","year":"1977-09-10","translations":["Полное дублирование"],"seasons_count":2,"episodes_count":24,"episodes":8,"update":"2019-11-07 12:51:22","iframe_src":"//7720.svetacdn.in/71tsRs29n5tZ/tv-series/5605"},{"id":5604,"title":"Аврора","kp_id":"578858","imdb_id":"tt1807106","world_art_id":null,"type":"serial","add":"2019-11-02 11:59:25","orig_title":"Aurora","year":"2010-11-01","translations":["Профессиональный (многоголосый закадровый)"],"seasons_count":1,"episodes_count":135,"episodes":135,"update":"2019-11-05 21:26:40","iframe_src":"//7720.svetacdn.in/71tsRs29n5tZ/tv-series/5604"},{"id":5597,"title":"Прапорщик Шматко, или Ё-моё","kp_id":"428696","imdb_id":"tt10823740","world_art_id":null,"type":"serial","add":"2019-11-01 16:58:14","orig_title":"Praporshchik Shmatko, ili O-moyo","year":"2007-01-01","translations":["Оригинальная дорожка"],"seasons_count":1,"episodes_count":16,"episodes":16,"update":"2019-11-05 07:57:42","iframe_src":"//7720.svetacdn.in/71tsRs29n5tZ/tv-series/5597"},{"id":5578,"title":"Не беспокойтесь за меня","kp_id":"1046124","imdb_id":"tt6407102","world_art_id":null,"type":"serial","add":"2019-10-30 10:27:54","orig_title":"Benim Için Üzülme","year":"2012-11-06","translations":["Любительский (одноголосый закадровый)"],"seasons_count":1,"episodes_count":32,"episodes":32,"update":"2019-11-05 10:12:42","iframe_src":"//7720.svetacdn.in/71tsRs29n5tZ/tv-series/5578"},{"id":5263,"title":"Хантер Стрит","kp_id":"1044269","imdb_id":"tt6622316","world_art_id":null,"type":"serial","add":"2019-09-23 07:04:31","orig_title":"Hunter Street","year":"2017-03-11","translations":["Полное дублирование (Nickelodeon)","Любительский (многоголосый закадровый) (ColdFilm)"],"seasons_count":3,"episodes_count":70,"episodes":30,"update":"2019-11-05 16:23:03","iframe_src":"//7720.svetacdn.in/71tsRs29n5tZ/tv-series/5263"},{"id":5116,"title":"Тёмный кристалл: Эпоха сопротивления","kp_id":"1045246","imdb_id":"tt6905542","world_art_id":null,"type":"serial","add":"2019-08-30 12:24:57","orig_title":"The Dark Crystal: Age of Resistance","year":"2019-08-30","translations":["Полное дублирование (Пифагор)","Профессиональный (многоголосый закадровый) (NewStudio)","Профессиональный (многоголосый закадровый) (AlexFilm)","Профессиональный (многоголосый закадровый) (HDrezka Studio)"],"seasons_count":1,"episodes_count":10,"episodes":10,"update":"2019-11-07 14:34:39","iframe_src":"//7720.svetacdn.in/71tsRs29n5tZ/tv-series/5116"},{"id":26572,"title":"Проект «Альфа»","kp_id":"441278","imdb_id":"tt2947226","world_art_id":null,"type":"movie","add":"2019-05-15 20:30:26","orig_title":"Proekt 'Alfa'","year":"1991-08-01","translations":["Оригинальная дорожка"],"quality":"hdtv","translation":"Оригинальная дорожка","update":"2021-02-23 08:51:08","iframe_src":"//7720.svetacdn.in/71tsRs29n5tZ/movie/26572"},{"id":664,"title":"Любовники","kp_id":"737705","imdb_id":"tt2699110","world_art_id":null,"type":"serial","add":"2016-12-06 06:47:01","orig_title":"The Affair","year":"2014-10-12","translations":["Профессиональный (многоголосый закадровый) (Greb&Creative)","Профессиональный (многоголосый закадровый) (IdeaFilm)","Профессиональный (многоголосый закадровый) (TVShows)"],"seasons_count":5,"episodes_count":53,"episodes":11,"update":"2019-11-07 10:49:05","iframe_src":"//7720.svetacdn.in/71tsRs29n5tZ/tv-series/664"}],"current_page":347,"first_page_url":"https://videocdn.tv/api/short?limit=100&api_token=EnbO9h8pv1VyjbCJhg0WM9nG259n7mtz&cache3347=3347&page=1","from":34601,"last_page":651,"last_page_url":"https://videocdn.tv/api/short?limit=100&api_token=EnbO9h8pv1VyjbCJhg0WM9nG259n7mtz&cache3347=3347&page=651","next_page_url":"https://videocdn.tv/api/short?limit=100&api_token=EnbO9h8pv1VyjbCJhg0WM9nG259n7mtz&cache3347=3347&page=348","path":"https://videocdn.tv/api/short","per_page":100,"prev_page_url":"https://videocdn.tv/api/short?limit=100&api_token=EnbO9h8pv1VyjbCJhg0WM9nG259n7mtz&cache3347=3347&page=346","to":34640,"total":65096}