{"result":true,"data":[{"id":49757,"title":"Обычный ребёнок","kp_id":null,"imdb_id":"tt9312704","world_art_id":null,"type":"movie","add":"2021-04-20 19:20:20","orig_title":"Just a Child","year":"2019-01-01","translations":["Любительский (многоголосый закадровый) (AlphaProject)"],"quality":"webdl","translation":"Любительский (многоголосый закадровый) (AlphaProject)","update":"2021-04-20 21:44:50","iframe_src":"//7741.svetacdn.in/IAF0wWTdNYZm/movie/49757"},{"id":49752,"title":"Доктор Куинн, женщина врач","kp_id":"231084","imdb_id":"tt0196512","world_art_id":null,"type":"movie","add":"2021-04-20 16:21:34","orig_title":"Dr. Quinn Medicine Woman: The Movie","year":"1999-05-22","translations":["Профессиональный (многоголосый закадровый)"],"quality":"tv","translation":"Профессиональный (многоголосый закадровый)","update":"2021-04-20 21:26:03","iframe_src":"//7741.svetacdn.in/IAF0wWTdNYZm/movie/49752"},{"id":49751,"title":"Охотники за тенями","kp_id":"267963","imdb_id":"tt0199664","world_art_id":null,"type":"movie","add":"2021-04-20 15:17:30","orig_title":"Kage gari","year":"1973-10-17","translations":["Авторский (одноголосый закадровый) (Кузнецов Сергей)"],"quality":"webdl","translation":"Авторский (одноголосый закадровый) (Кузнецов Сергей)","update":"2021-04-21 05:56:22","iframe_src":"//7741.svetacdn.in/IAF0wWTdNYZm/movie/49751"},{"id":49750,"title":"От винта 2","kp_id":"1239328","imdb_id":"tt14379040","world_art_id":null,"type":"movie","add":"2021-04-20 15:00:43","orig_title":"Ot vinta 2","year":"2021-04-15","translations":["Оригинальная дорожка"],"quality":"ts","translation":"Оригинальная дорожка","update":"2021-04-20 19:21:40","iframe_src":"//7741.svetacdn.in/IAF0wWTdNYZm/movie/49750"},{"id":49749,"title":"Кармен","kp_id":"35384","imdb_id":"tt0052675","world_art_id":null,"type":"movie","add":"2021-04-20 12:01:27","orig_title":"Carmen la de Ronda","year":"1959-09-21","translations":["Профессиональный (многоголосый закадровый) (Cinema Prestige)"],"quality":"bd","translation":"Профессиональный (многоголосый закадровый) (Cinema Prestige)","update":"2021-04-21 06:09:33","iframe_src":"//7741.svetacdn.in/IAF0wWTdNYZm/movie/49749"},{"id":49747,"title":"Непреодолимый порыв","kp_id":"102744","imdb_id":"tt0116652","world_art_id":null,"type":"movie","add":"2021-04-20 11:39:58","orig_title":"Irresistible Impulse","year":"1996-08-27","translations":["Профессиональный (двухголосый закадровый) (Екатеринбург Арт)","Профессиональный (многоголосый закадровый)"],"quality":"dvdrip","translation":"Профессиональный (двухголосый закадровый) (Екатеринбург Арт)","update":"2021-04-20 15:32:56","iframe_src":"//7741.svetacdn.in/IAF0wWTdNYZm/movie/49747"},{"id":49746,"title":"Thibaan и BNK48: от всего сердца","kp_id":"1403898","imdb_id":"tt12222324","world_art_id":null,"type":"movie","add":"2021-04-20 09:25:28","orig_title":"Thibaan × BNK48","year":"2020-01-23","translations":["Любительский (многоголосый закадровый) (Синема УС)"],"quality":"webdl","translation":"Любительский (многоголосый закадровый) (Синема УС)","update":"2021-04-20 14:52:36","iframe_src":"//7741.svetacdn.in/IAF0wWTdNYZm/movie/49746"},{"id":49745,"title":"Клеймо","kp_id":"1397866","imdb_id":"tt11752904","world_art_id":null,"type":"movie","add":"2021-04-20 09:23:54","orig_title":"O Estigma","year":"2019-03-13","translations":["Любительский (многоголосый закадровый) (Синема УС)"],"quality":"webdl","translation":"Любительский (многоголосый закадровый) (Синема УС)","update":"2021-04-20 14:52:17","iframe_src":"//7741.svetacdn.in/IAF0wWTdNYZm/movie/49745"},{"id":49744,"title":"Малек","kp_id":"1150510","imdb_id":"tt7734990","world_art_id":null,"type":"movie","add":"2021-04-20 09:22:46","orig_title":"Malek","year":"2019-01-09","translations":["Любительский (многоголосый закадровый) (Синема УС)"],"quality":"webdl","translation":"Любительский (многоголосый закадровый) (Синема УС)","update":"2021-04-20 14:51:59","iframe_src":"//7741.svetacdn.in/IAF0wWTdNYZm/movie/49744"},{"id":49743,"title":"Привет, Чарли","kp_id":"4397136","imdb_id":"tt14260080","world_art_id":null,"type":"movie","add":"2021-04-20 09:21:26","orig_title":"Hello Charlie","year":"2021-04-09","translations":["Любительский (многоголосый закадровый) (Синема УС)"],"quality":"webdl","translation":"Любительский (многоголосый закадровый) (Синема УС)","update":"2021-04-20 14:51:40","iframe_src":"//7741.svetacdn.in/IAF0wWTdNYZm/movie/49743"},{"id":49742,"title":"Адвокат","kp_id":"1255200","imdb_id":"tt10136364","world_art_id":null,"type":"movie","add":"2021-04-20 09:20:18","orig_title":"Adwokat","year":"2019-09-16","translations":["Любительский (многоголосый закадровый) (Синема УС)"],"quality":"webdl","translation":"Любительский (многоголосый закадровый) (Синема УС)","update":"2021-04-20 14:51:20","iframe_src":"//7741.svetacdn.in/IAF0wWTdNYZm/movie/49742"},{"id":49741,"title":"Пять лет порознь","kp_id":"1135645","imdb_id":"tt7736968","world_art_id":null,"type":"movie","add":"2021-04-20 09:19:03","orig_title":"5 Years Apart","year":"2019-09-14","translations":["Любительский (многоголосый закадровый) (Синема УС)"],"quality":"webdl","translation":"Любительский (многоголосый закадровый) (Синема УС)","update":"2021-04-20 14:51:03","iframe_src":"//7741.svetacdn.in/IAF0wWTdNYZm/movie/49741"},{"id":49739,"title":"Третий вид любви","kp_id":"932572","imdb_id":"tt5057982","world_art_id":null,"type":"movie","add":"2021-04-20 08:30:18","orig_title":"Di san zhong ai qing","year":"2015-09-25","translations":["Любительский (двухголосый закадровый)"],"quality":"webdl","translation":"Любительский (двухголосый закадровый)","update":"2021-04-20 10:33:27","iframe_src":"//7741.svetacdn.in/IAF0wWTdNYZm/movie/49739"},{"id":49736,"title":"Соседка","kp_id":"225754","imdb_id":"tt0063404","world_art_id":null,"type":"movie","add":"2021-04-20 06:56:08","orig_title":"Padosan","year":"1968-11-29","translations":["Профессиональный (многоголосый закадровый) (ZEE TV)"],"quality":"webdl","translation":"Профессиональный (многоголосый закадровый) (ZEE TV)","update":"2021-04-20 11:48:10","iframe_src":"//7741.svetacdn.in/IAF0wWTdNYZm/movie/49736"},{"id":49734,"title":"Испытание дружбы","kp_id":"225406","imdb_id":"tt0158449","world_art_id":null,"type":"movie","add":"2021-04-20 06:34:13","orig_title":"Aadmi Aur Insaan","year":"1969-08-08","translations":["Профессиональный (многоголосый закадровый) (Формат AB)"],"quality":"webdl","translation":"Профессиональный (многоголосый закадровый) (Формат AB)","update":"2021-04-20 14:49:42","iframe_src":"//7741.svetacdn.in/IAF0wWTdNYZm/movie/49734"},{"id":49733,"title":"Солдаты удачи","kp_id":"57600","imdb_id":"tt0073726","world_art_id":null,"type":"movie","add":"2021-04-20 06:02:19","orig_title":"Il soldato di ventura","year":"1976-02-19","translations":["Любительский (одноголосый закадровый) (Joe30)"],"quality":"webdl","translation":"Любительский (одноголосый закадровый) (Joe30)","update":"2021-04-20 11:49:32","iframe_src":"//7741.svetacdn.in/IAF0wWTdNYZm/movie/49733"},{"id":47366,"title":"Аммонит","kp_id":"1220208","imdb_id":"tt7983894","world_art_id":null,"type":"movie","add":"2021-01-24 17:57:21","orig_title":"Ammonite","year":"2020-09-11","translations":["Любительский (многоголосый закадровый) (Flux-Team)","[EN] Original (English)","Профессиональный (многоголосый закадровый) (iTunes)"],"quality":"webdl","translation":"Любительский (многоголосый закадровый) (Flux-Team)","update":"2021-04-20 10:05:33","iframe_src":"//7741.svetacdn.in/IAF0wWTdNYZm/movie/47366"},{"id":39421,"title":"Инфекция","kp_id":"1021334","imdb_id":"tt6022266","world_art_id":null,"type":"movie","add":"2020-04-17 04:55:07","orig_title":"Infección","year":"2019-03-09","translations":["Профессиональный (многоголосый закадровый) (Киноужас)"],"quality":"bd","translation":"Профессиональный (многоголосый закадровый) (Киноужас)","update":"2021-04-21 06:12:49","iframe_src":"//7741.svetacdn.in/IAF0wWTdNYZm/movie/39421"},{"id":32027,"title":"Вместе поневоле","kp_id":"1178748","imdb_id":"tt8785426","world_art_id":null,"type":"movie","add":"2019-10-18 18:44:12","orig_title":"Jabariya Jodi","year":"2019-08-09","translations":["Любительский (многоголосый закадровый) (Синема УС)","Профессиональный (многоголосый закадровый) (Лексикон)"],"quality":"webdl","translation":"Любительский (многоголосый закадровый) (Синема УС)","update":"2021-04-21 05:59:57","iframe_src":"//7741.svetacdn.in/IAF0wWTdNYZm/movie/32027"},{"id":1383,"title":"Дружба народов","kp_id":"762085","imdb_id":"tt3775694","world_art_id":null,"type":"serial","add":"2017-07-10 12:45:35","orig_title":"Druzhba narodov","year":"2014-03-03","translations":["Оригинальная дорожка"],"seasons_count":1,"episodes_count":20,"episodes":20,"update":"2017-07-11 11:58:00","iframe_src":"//7741.svetacdn.in/IAF0wWTdNYZm/tv-series/1383"},{"id":1381,"title":"Фарца","kp_id":"838053","imdb_id":"tt4567218","world_art_id":null,"type":"serial","add":"2017-07-10 05:20:16","orig_title":"Fartsa","year":"2015-03-30","translations":["Оригинальная дорожка"],"seasons_count":1,"episodes_count":8,"episodes":8,"update":"2017-07-11 08:08:32","iframe_src":"//7741.svetacdn.in/IAF0wWTdNYZm/tv-series/1381"},{"id":1380,"title":"Дед 005","kp_id":"803174","imdb_id":"tt4660728","world_art_id":null,"type":"serial","add":"2017-07-10 05:14:25","orig_title":"Ded 005","year":"2014-08-15","translations":["Оригинальная дорожка"],"seasons_count":1,"episodes_count":6,"episodes":6,"update":"2017-07-11 12:13:34","iframe_src":"//7741.svetacdn.in/IAF0wWTdNYZm/tv-series/1380"},{"id":1378,"title":"Байки Митяя","kp_id":"655912","imdb_id":"tt4104710","world_art_id":null,"type":"serial","add":"2017-07-09 07:08:51","orig_title":"Bayki Mityaya","year":"2012-02-06","translations":["Оригинальная дорожка"],"seasons_count":1,"episodes_count":20,"episodes":20,"update":"2017-07-10 07:14:32","iframe_src":"//7741.svetacdn.in/IAF0wWTdNYZm/tv-series/1378"},{"id":1374,"title":"Отец Матвей","kp_id":"838849","imdb_id":"tt4550906","world_art_id":null,"type":"serial","add":"2017-07-07 05:31:19","orig_title":"Отец Матвей","year":"2014-09-22","translations":["Оригинальная дорожка"],"seasons_count":1,"episodes_count":20,"episodes":20,"update":"2017-07-11 13:54:19","iframe_src":"//7741.svetacdn.in/IAF0wWTdNYZm/tv-series/1374"},{"id":1372,"title":"Женщина в беде 4","kp_id":"961722","imdb_id":null,"world_art_id":null,"type":"serial","add":"2017-07-06 05:51:54","orig_title":"Женщина в беде 4","year":"2017-05-27","translations":["Оригинальная дорожка"],"seasons_count":1,"episodes_count":4,"episodes":4,"update":"2017-07-07 10:21:34","iframe_src":"//7741.svetacdn.in/IAF0wWTdNYZm/tv-series/1372"},{"id":1371,"title":"Женщина в беде 3","kp_id":"961721","imdb_id":null,"world_art_id":null,"type":"serial","add":"2017-07-06 05:49:57","orig_title":"Женщина в беде 3","year":"2017-05-20","translations":["Оригинальная дорожка"],"seasons_count":1,"episodes_count":4,"episodes":4,"update":"2017-07-07 08:59:05","iframe_src":"//7741.svetacdn.in/IAF0wWTdNYZm/tv-series/1371"},{"id":1370,"title":"Тайны Лауры","kp_id":"838553","imdb_id":"tt3187578","world_art_id":null,"type":"serial","add":"2017-07-06 05:35:33","orig_title":"The Mysteries of Laura","year":"2014-09-17","translations":["Профессиональный (многоголосый закадровый) (Fox Life)"],"seasons_count":2,"episodes_count":38,"episodes":16,"update":"2017-07-11 07:39:12","iframe_src":"//7741.svetacdn.in/IAF0wWTdNYZm/tv-series/1370"},{"id":1369,"title":"Женщина в беде 2","kp_id":"842591","imdb_id":null,"world_art_id":null,"type":"serial","add":"2017-07-06 05:29:20","orig_title":"Женщина в беде 2","year":"2015-04-18","translations":["Оригинальная дорожка"],"seasons_count":1,"episodes_count":4,"episodes":4,"update":"2017-07-07 08:53:18","iframe_src":"//7741.svetacdn.in/IAF0wWTdNYZm/tv-series/1369"},{"id":1367,"title":"Бомбила","kp_id":"586571","imdb_id":"tt3494928","world_art_id":null,"type":"serial","add":"2017-07-06 04:59:29","orig_title":"Bombila","year":"2011-05-16","translations":["Оригинальная дорожка"],"seasons_count":1,"episodes_count":16,"episodes":16,"update":"2017-07-10 08:57:18","iframe_src":"//7741.svetacdn.in/IAF0wWTdNYZm/tv-series/1367"},{"id":1366,"title":"Я – Ангина","kp_id":"788462","imdb_id":null,"world_art_id":null,"type":"serial","add":"2017-07-06 04:49:59","orig_title":"Я – Ангина","year":"2013-08-23","translations":["Оригинальная дорожка"],"seasons_count":1,"episodes_count":4,"episodes":4,"update":"2017-07-07 10:29:57","iframe_src":"//7741.svetacdn.in/IAF0wWTdNYZm/tv-series/1366"},{"id":1365,"title":"Сила Веры","kp_id":"763547","imdb_id":null,"world_art_id":null,"type":"serial","add":"2017-07-06 04:46:50","orig_title":"Сила Веры","year":"2013-05-18","translations":["Оригинальная дорожка"],"seasons_count":1,"episodes_count":2,"episodes":2,"update":"2017-07-06 11:45:11","iframe_src":"//7741.svetacdn.in/IAF0wWTdNYZm/tv-series/1365"},{"id":1364,"title":"Предельная глубина","kp_id":"839266","imdb_id":null,"world_art_id":null,"type":"serial","add":"2017-07-06 04:34:33","orig_title":"Предельная глубина","year":"2014-04-16","translations":["Оригинальная дорожка"],"seasons_count":1,"episodes_count":4,"episodes":4,"update":"2017-07-06 12:29:32","iframe_src":"//7741.svetacdn.in/IAF0wWTdNYZm/tv-series/1364"},{"id":1363,"title":"Лектор","kp_id":"532874","imdb_id":"tt1687471","world_art_id":null,"type":"serial","add":"2017-07-06 04:30:05","orig_title":"Lektor","year":"2011-10-30","translations":["Оригинальная дорожка"],"seasons_count":1,"episodes_count":8,"episodes":8,"update":"2017-07-06 11:40:11","iframe_src":"//7741.svetacdn.in/IAF0wWTdNYZm/tv-series/1363"},{"id":1360,"title":"Дедушка","kp_id":"897046","imdb_id":"tt4465368","world_art_id":null,"type":"serial","add":"2017-07-05 11:00:37","orig_title":"Grandfathered","year":"2015-09-29","translations":["Любительский (многоголосый закадровый) (Alternative Production)"],"seasons_count":1,"episodes_count":22,"episodes":22,"update":"2017-07-07 14:25:37","iframe_src":"//7741.svetacdn.in/IAF0wWTdNYZm/tv-series/1360"},{"id":1359,"title":"За пределами","kp_id":"799433","imdb_id":"tt3155320","world_art_id":null,"type":"serial","add":"2017-07-05 10:43:25","orig_title":"Extant","year":"2014-07-09","translations":["Профессиональный (многоголосый закадровый) (LostFilm)"],"seasons_count":2,"episodes_count":26,"episodes":13,"update":"2017-07-07 09:37:43","iframe_src":"//7741.svetacdn.in/IAF0wWTdNYZm/tv-series/1359"},{"id":1357,"title":"Уилфред","kp_id":"558127","imdb_id":"tt1703925","world_art_id":null,"type":"serial","add":"2017-07-04 09:16:29","orig_title":"Wilfred","year":"2011-06-23","translations":["Профессиональный (двухголосый закадровый) (Кубик в Кубе)"],"seasons_count":4,"episodes_count":49,"episodes":10,"update":"2017-07-06 11:15:57","iframe_src":"//7741.svetacdn.in/IAF0wWTdNYZm/tv-series/1357"},{"id":1352,"title":"Саша + Даша + Глаша","kp_id":"843285","imdb_id":null,"world_art_id":null,"type":"serial","add":"2017-07-03 13:11:17","orig_title":"Саша + Даша + Глаша","year":"2017-06-21","translations":["Оригинальная дорожка"],"seasons_count":1,"episodes_count":4,"episodes":4,"update":"2017-07-07 10:38:27","iframe_src":"//7741.svetacdn.in/IAF0wWTdNYZm/tv-series/1352"},{"id":1351,"title":"Любовь говорит","kp_id":"933352","imdb_id":"tt5088016","world_art_id":null,"type":"serial","add":"2017-07-03 13:07:28","orig_title":"Lyubov govorit","year":"2015-09-30","translations":["Оригинальная дорожка"],"seasons_count":1,"episodes_count":4,"episodes":4,"update":"2017-07-06 12:24:19","iframe_src":"//7741.svetacdn.in/IAF0wWTdNYZm/tv-series/1351"},{"id":1322,"title":"Розыск 3","kp_id":"837657","imdb_id":"tt5038390","world_art_id":null,"type":"serial","add":"2017-06-15 18:11:15","orig_title":"Rozysk 3","year":"2015-01-01","translations":["Оригинальная дорожка"],"seasons_count":1,"episodes_count":16,"episodes":16,"update":"2017-07-05 11:18:01","iframe_src":"//7741.svetacdn.in/IAF0wWTdNYZm/tv-series/1322"},{"id":6324,"title":"О смерти, о любви","kp_id":"23465","imdb_id":"tt0109592","world_art_id":null,"type":"movie","add":"2016-10-16 07:54:04","orig_title":"Dellamorte Dellamore","year":"1994-03-25","translations":["Любительский (одноголосый закадровый)","Профессиональный (двухголосый закадровый) (ViruseProject)"],"quality":"bd","translation":"Любительский (одноголосый закадровый)","update":"2021-04-20 10:18:23","iframe_src":"//7741.svetacdn.in/IAF0wWTdNYZm/movie/6324"}],"current_page":565,"first_page_url":"https://videocdn.tv/api/short?limit=100&api_token=6Onb1W1alEUrBcKJZD3GoKBbWyAl2uG2&cache3565=3565&page=1","from":56401,"last_page":706,"last_page_url":"https://videocdn.tv/api/short?limit=100&api_token=6Onb1W1alEUrBcKJZD3GoKBbWyAl2uG2&cache3565=3565&page=706","next_page_url":"https://videocdn.tv/api/short?limit=100&api_token=6Onb1W1alEUrBcKJZD3GoKBbWyAl2uG2&cache3565=3565&page=566","path":"https://videocdn.tv/api/short","per_page":100,"prev_page_url":"https://videocdn.tv/api/short?limit=100&api_token=6Onb1W1alEUrBcKJZD3GoKBbWyAl2uG2&cache3565=3565&page=564","to":56440,"total":70502}