{"result":true,"data":[{"id":30942,"title":"Бой","kp_id":"1061874","imdb_id":"tt7511368","world_art_id":null,"type":"movie","add":"2019-09-17 23:00:56","orig_title":"The Fight","year":"2018-10-17","translations":["Любительский (многоголосый закадровый) (Синема УС)"],"quality":"webdl","translation":"Любительский (многоголосый закадровый) (Синема УС)","update":"2019-09-18 04:14:27","iframe_src":"//2413.svetacdn.in/si4jsFRrtgrT/movie/30942"},{"id":30941,"title":"Страж","kp_id":"1218067","imdb_id":"tt9378320","world_art_id":null,"type":"movie","add":"2019-09-17 22:58:38","orig_title":"Watchman","year":"2019-04-12","translations":["Любительский (многоголосый закадровый) (Синема УС)"],"quality":"webdl","translation":"Любительский (многоголосый закадровый) (Синема УС)","update":"2019-09-18 04:15:07","iframe_src":"//2413.svetacdn.in/si4jsFRrtgrT/movie/30941"},{"id":30939,"title":"Шесть горячих цыпочек в амбаре","kp_id":"798658","imdb_id":"tt3194388","world_art_id":null,"type":"movie","add":"2019-09-17 22:53:51","orig_title":"Six Hot Chicks in a Warehouse","year":"2017-11-02","translations":["Любительский (многоголосый закадровый) (Синема УС)"],"quality":"webdl","translation":"Любительский (многоголосый закадровый) (Синема УС)","update":"2019-09-18 04:19:32","iframe_src":"//2413.svetacdn.in/si4jsFRrtgrT/movie/30939"},{"id":30938,"title":"В поисках правды","kp_id":"1152675","imdb_id":"tt7798984","world_art_id":null,"type":"movie","add":"2019-09-17 22:50:54","orig_title":"Saavat: A Hunt for Closure","year":"2019-04-05","translations":["Любительский (многоголосый закадровый) (Синема УС)"],"quality":"webdl","translation":"Любительский (многоголосый закадровый) (Синема УС)","update":"2019-09-18 04:20:23","iframe_src":"//2413.svetacdn.in/si4jsFRrtgrT/movie/30938"},{"id":30933,"title":"Лагерь Смерти 3 в 2Д!","kp_id":"845071","imdb_id":"tt3370702","world_art_id":null,"type":"movie","add":"2019-09-17 22:38:46","orig_title":"Camp Death III in 2D!","year":"2018-09-21","translations":["Профессиональный (многоголосый закадровый) (AlphaProject)"],"quality":"webdl","translation":"Профессиональный (многоголосый закадровый) (AlphaProject)","update":"2019-09-18 04:24:56","iframe_src":"//2413.svetacdn.in/si4jsFRrtgrT/movie/30933"},{"id":30930,"title":"История девушки","kp_id":"1046114","imdb_id":"tt1699509","world_art_id":null,"type":"movie","add":"2019-09-17 11:13:18","orig_title":"Story of a Girl","year":"2017-06-22","translations":["Любительский (многоголосый закадровый) (Синема УС)"],"quality":"webdl","translation":"Любительский (многоголосый закадровый) (Синема УС)","update":"2019-09-17 17:44:49","iframe_src":"//2413.svetacdn.in/si4jsFRrtgrT/movie/30930"},{"id":30929,"title":"Любовь стоя","kp_id":"1118661","imdb_id":"tt8299896","world_art_id":null,"type":"movie","add":"2019-09-17 11:11:29","orig_title":"L'amour debout","year":"2018-05-17","translations":["Любительский (многоголосый закадровый) (Синема УС)"],"quality":"webdl","translation":"Любительский (многоголосый закадровый) (Синема УС)","update":"2019-09-17 17:45:32","iframe_src":"//2413.svetacdn.in/si4jsFRrtgrT/movie/30929"},{"id":30928,"title":"Украденная у чирлидерши личность","kp_id":"1255881","imdb_id":"tt10082950","world_art_id":null,"type":"movie","add":"2019-09-17 11:09:33","orig_title":"Identity Theft of a Cheerleader","year":"2019-09-07","translations":["Профессиональный (многоголосый закадровый) (AlphaProject)"],"quality":"webdl","translation":"Профессиональный (многоголосый закадровый) (AlphaProject)","update":"2019-09-17 17:45:56","iframe_src":"//2413.svetacdn.in/si4jsFRrtgrT/movie/30928"},{"id":30927,"title":"Сибэл","kp_id":"1172317","imdb_id":"tt8696440","world_art_id":null,"type":"movie","add":"2019-09-17 11:07:45","orig_title":"Sibel","year":"2018-08-03","translations":["Любительский (многоголосый закадровый) (Синема УС)"],"quality":"webdl","translation":"Любительский (многоголосый закадровый) (Синема УС)","update":"2019-09-17 17:42:45","iframe_src":"//2413.svetacdn.in/si4jsFRrtgrT/movie/30927"},{"id":30926,"title":"Истории мертвых: Ферма","kp_id":"1240576","imdb_id":"tt9817680","world_art_id":null,"type":"movie","add":"2019-09-17 11:05:38","orig_title":"Stories of the Dead - Die Farm","year":"2019-07-01","translations":["Любительский (многоголосый закадровый) (Синема УС)"],"quality":"bd","translation":"Любительский (многоголосый закадровый) (Синема УС)","update":"2019-09-17 17:43:30","iframe_src":"//2413.svetacdn.in/si4jsFRrtgrT/movie/30926"},{"id":30925,"title":"Последний крик","kp_id":"1070363","imdb_id":"tt7097358","world_art_id":null,"type":"movie","add":"2019-09-17 11:03:43","orig_title":"The Final Scream","year":"2019-08-05","translations":["Любительский (многоголосый закадровый) (Синема УС)"],"quality":"webdl","translation":"Любительский (многоголосый закадровый) (Синема УС)","update":"2019-09-17 17:44:01","iframe_src":"//2413.svetacdn.in/si4jsFRrtgrT/movie/30925"},{"id":30922,"title":"90 мл","kp_id":"1150038","imdb_id":"tt8268916","world_art_id":null,"type":"movie","add":"2019-09-17 07:00:12","orig_title":"90 ML","year":"2019-03-01","translations":["Любительский (многоголосый закадровый) (Синема УС)"],"quality":"webdl","translation":"Любительский (многоголосый закадровый) (Синема УС)","update":"2019-09-18 04:12:30","iframe_src":"//2413.svetacdn.in/si4jsFRrtgrT/movie/30922"},{"id":30903,"title":"Семь боевых машин смерти","kp_id":"249686","imdb_id":"tt0188797","world_art_id":null,"type":"movie","add":"2019-09-16 16:56:10","orig_title":"Qi bu mi zong","year":"1979-03-11","translations":["Любительский (одноголосый закадровый)"],"quality":"dvdrip","translation":"Любительский (одноголосый закадровый)","update":"2019-09-17 05:08:22","iframe_src":"//2413.svetacdn.in/si4jsFRrtgrT/movie/30903"},{"id":30862,"title":"Джекпот","kp_id":"678763","imdb_id":"tt1809231","world_art_id":null,"type":"movie","add":"2019-09-14 21:09:03","orig_title":"Arme Riddere","year":"2011-12-02","translations":["Профессиональный (многоголосый закадровый)"],"quality":"bd","translation":"Профессиональный (многоголосый закадровый)","update":"2019-09-17 05:09:33","iframe_src":"//2413.svetacdn.in/si4jsFRrtgrT/movie/30862"},{"id":30835,"title":"Ярость гризли","kp_id":"306100","imdb_id":"tt0896816","world_art_id":null,"type":"movie","add":"2019-09-13 17:38:23","orig_title":"Grizzly Rage","year":"2007-06-07","translations":["Профессиональный (двухголосый закадровый)"],"quality":"dvdrip","translation":"Профессиональный (двухголосый закадровый)","update":"2019-09-17 05:11:04","iframe_src":"//2413.svetacdn.in/si4jsFRrtgrT/movie/30835"},{"id":28238,"title":"Детские игры","kp_id":"1179256","imdb_id":"tt8663516","world_art_id":null,"type":"movie","add":"2019-06-24 21:48:03","orig_title":"Child's Play","year":"2019-06-18","translations":["Полное дублирование","[EN] Original (English)"],"quality":"bd","translation":"Полное дублирование","update":"2019-09-17 05:36:51","iframe_src":"//2413.svetacdn.in/si4jsFRrtgrT/movie/28238"},{"id":15125,"title":"Пятьдесят оттенков свободы","kp_id":"893488","imdb_id":"tt4477536","world_art_id":null,"type":"movie","add":"2018-02-09 21:43:13","orig_title":"Fifty Shades Freed","year":"2018-02-06","translations":["Полное дублирование","[EN] Original (English)"],"quality":"bd","translation":"Полное дублирование","update":"2019-09-17 05:25:48","iframe_src":"//2413.svetacdn.in/si4jsFRrtgrT/movie/15125"},{"id":12474,"title":"Малыш на драйве","kp_id":"902939","imdb_id":"tt3890160","world_art_id":null,"type":"movie","add":"2017-07-13 04:56:43","orig_title":"Baby Driver","year":"2017-03-11","translations":["Полное дублирование (iTunes)","[EN] Original (English)"],"quality":"bd","translation":"Полное дублирование (iTunes)","update":"2019-09-17 05:24:16","iframe_src":"//2413.svetacdn.in/si4jsFRrtgrT/movie/12474"},{"id":9635,"title":"На пятьдесят оттенков темнее","kp_id":"893487","imdb_id":"tt4465564","world_art_id":null,"type":"movie","add":"2017-02-13 10:22:24","orig_title":"Fifty Shades Darker","year":"2017-02-07","translations":["Полное дублирование","[EN] Original (English)"],"quality":"webdl","translation":"Полное дублирование","update":"2019-09-17 05:24:59","iframe_src":"//2413.svetacdn.in/si4jsFRrtgrT/movie/9635"},{"id":14,"title":"Пятьдесят оттенков серого","kp_id":"688832","imdb_id":"tt2322441","world_art_id":null,"type":"movie","add":"2016-02-05 21:48:54","orig_title":"Fifty Shades of Grey","year":"2015-02-09","translations":["Полное дублирование","[EN] Original (English)"],"quality":"bd","translation":"Полное дублирование","update":"2019-09-17 05:27:31","iframe_src":"//2413.svetacdn.in/si4jsFRrtgrT/movie/14"}],"current_page":1647,"first_page_url":"https://videocdn.tv/api/short?limit=100&api_token=X6EwAUfE5M9xbo7y0Bp0aPf3uXxG2KLL&cache31647=31647&page=1","from":164601,"last_page":717,"last_page_url":"https://videocdn.tv/api/short?limit=100&api_token=X6EwAUfE5M9xbo7y0Bp0aPf3uXxG2KLL&cache31647=31647&page=717","next_page_url":null,"path":"https://videocdn.tv/api/short","per_page":100,"prev_page_url":"https://videocdn.tv/api/short?limit=100&api_token=X6EwAUfE5M9xbo7y0Bp0aPf3uXxG2KLL&cache31647=31647&page=1646","to":164620,"total":71641}