{"result":true,"data":[{"id":19677,"title":"Уитни: Могу я быть собой?","kp_id":"1044766","imdb_id":"tt5563330","world_art_id":null,"type":"movie","add":"2018-10-22 01:00:36","orig_title":"Whitney: Can I Be Me","year":"2017-04-24","translations":["Любительский (многоголосый закадровый) (Синема УС)"],"quality":"bd","translation":"Любительский (многоголосый закадровый) (Синема УС)","update":"2018-10-22 06:28:29","iframe_src":"//2413.svetacdn.in/si4jsFRrtgrT/movie/19677"},{"id":19674,"title":"Любитель ужасов","kp_id":"798873","imdb_id":"tt3177320","world_art_id":null,"type":"movie","add":"2018-10-22 00:42:31","orig_title":"Must Love Horror","year":"2018-01-01","translations":["Любительский (многоголосый закадровый) (Синема УС)"],"quality":"webdl","translation":"Любительский (многоголосый закадровый) (Синема УС)","update":"2018-10-22 06:34:09","iframe_src":"//2413.svetacdn.in/si4jsFRrtgrT/movie/19674"},{"id":19673,"title":"Кюрсюя: укромный уголок","kp_id":"965804","imdb_id":"tt5104330","world_art_id":null,"type":"movie","add":"2018-10-22 00:33:05","orig_title":"Kyrsyä - Tuftland","year":"2017-12-09","translations":["Любительский (многоголосый закадровый) (Синема УС)"],"quality":"dvdrip","translation":"Любительский (многоголосый закадровый) (Синема УС)","update":"2018-10-22 06:38:38","iframe_src":"//2413.svetacdn.in/si4jsFRrtgrT/movie/19673"},{"id":19672,"title":"Кунтиланак","kp_id":"1161769","imdb_id":"tt8512746","world_art_id":null,"type":"movie","add":"2018-10-22 00:31:04","orig_title":"Kuntilanak","year":"2018-06-15","translations":["Любительский (многоголосый закадровый) (Синема УС)"],"quality":"webdl","translation":"Любительский (многоголосый закадровый) (Синема УС)","update":"2018-10-22 06:39:59","iframe_src":"//2413.svetacdn.in/si4jsFRrtgrT/movie/19672"},{"id":19671,"title":"Ужасный Джонни","kp_id":"998733","imdb_id":"tt5936582","world_art_id":null,"type":"movie","add":"2018-10-22 00:27:29","orig_title":"Johnny Gruesome","year":"2018-10-16","translations":["Любительский (многоголосый закадровый) (Синема УС)"],"quality":"webdl","translation":"Любительский (многоголосый закадровый) (Синема УС)","update":"2018-10-22 06:43:59","iframe_src":"//2413.svetacdn.in/si4jsFRrtgrT/movie/19671"},{"id":19670,"title":"В Крапивной долине","kp_id":"899611","imdb_id":"tt4472274","world_art_id":null,"type":"movie","add":"2018-10-22 00:25:47","orig_title":"Nesseltal","year":"2016-10-27","translations":["Любительский (многоголосый закадровый) (Колобок)"],"quality":"webdl","translation":"Любительский (многоголосый закадровый) (Колобок)","update":"2018-10-22 06:45:43","iframe_src":"//2413.svetacdn.in/si4jsFRrtgrT/movie/19670"},{"id":19669,"title":"Охота на теней","kp_id":"960495","imdb_id":"tt5269208","world_art_id":null,"type":"movie","add":"2018-10-22 00:24:09","orig_title":"Hunting for Shadows","year":"2016-09-24","translations":["Любительский (многоголосый закадровый) (Колобок)"],"quality":"webdl","translation":"Любительский (многоголосый закадровый) (Колобок)","update":"2018-10-22 06:47:41","iframe_src":"//2413.svetacdn.in/si4jsFRrtgrT/movie/19669"},{"id":19668,"title":"Паранормальные явления 3: Призраки","kp_id":"954824","imdb_id":"tt5220078","world_art_id":null,"type":"movie","add":"2018-10-22 00:22:22","orig_title":"Haunted 3: Spirits","year":"2018-10-07","translations":["Любительский (многоголосый закадровый) (Синема УС)"],"quality":"webdl","translation":"Любительский (многоголосый закадровый) (Синема УС)","update":"2018-10-22 06:49:03","iframe_src":"//2413.svetacdn.in/si4jsFRrtgrT/movie/19668"},{"id":19666,"title":"Феминистки: о чем они думали?","kp_id":null,"imdb_id":"tt5419676","world_art_id":null,"type":"movie","add":"2018-10-22 00:18:39","orig_title":"Feminists: What Were They Thinking?","year":"2018-10-12","translations":["Любительский (многоголосый закадровый) (AlphaProject)"],"quality":"webdl","translation":"Любительский (многоголосый закадровый) (AlphaProject)","update":"2018-10-22 07:46:45","iframe_src":"//2413.svetacdn.in/si4jsFRrtgrT/movie/19666"},{"id":19663,"title":"Убийственная мода","kp_id":"1124021","imdb_id":"tt7922834","world_art_id":null,"type":"movie","add":"2018-10-22 00:14:31","orig_title":"Deadly Runway","year":"2018-08-23","translations":["Любительский (многоголосый закадровый) (Синема УС)"],"quality":"webdl","translation":"Любительский (многоголосый закадровый) (Синема УС)","update":"2018-10-22 07:49:59","iframe_src":"//2413.svetacdn.in/si4jsFRrtgrT/movie/19663"},{"id":19646,"title":"Подвиг разведчика","kp_id":"43057","imdb_id":"tt0039716","world_art_id":null,"type":"movie","add":"2018-10-19 09:11:31","orig_title":"Podvig razvedchika","year":"1948-06-23","translations":["Оригинальная дорожка"],"quality":"dvdrip","translation":"Оригинальная дорожка","update":"2018-10-19 19:20:44","iframe_src":"//2413.svetacdn.in/si4jsFRrtgrT/movie/19646"},{"id":19645,"title":"Солдат Иван Бровкин","kp_id":"43899","imdb_id":"tt0048639","world_art_id":null,"type":"movie","add":"2018-10-19 09:09:28","orig_title":"Soldat Ivan Brovkin","year":"1956-02-17","translations":["Оригинальная дорожка"],"quality":"dvdrip","translation":"Оригинальная дорожка","update":"2018-10-19 19:20:00","iframe_src":"//2413.svetacdn.in/si4jsFRrtgrT/movie/19645"},{"id":19644,"title":"Очередной рейс","kp_id":"42715","imdb_id":"tt0052019","world_art_id":null,"type":"movie","add":"2018-10-19 09:07:37","orig_title":"Ocherednoy reys","year":"1959-12-17","translations":["Оригинальная дорожка"],"quality":"dvdrip","translation":"Оригинальная дорожка","update":"2018-10-19 19:19:08","iframe_src":"//2413.svetacdn.in/si4jsFRrtgrT/movie/19644"},{"id":19642,"title":"Свидание","kp_id":"565282","imdb_id":"tt2321541","world_art_id":null,"type":"movie","add":"2018-10-19 09:01:21","orig_title":"Svidanie","year":"2012-04-20","translations":["Оригинальная дорожка"],"quality":"bd","translation":"Оригинальная дорожка","update":"2018-10-19 19:18:15","iframe_src":"//2413.svetacdn.in/si4jsFRrtgrT/movie/19642"},{"id":19635,"title":"Розенштрассе","kp_id":"49216","imdb_id":"tt0298131","world_art_id":null,"type":"movie","add":"2018-10-19 05:36:22","orig_title":"Rosenstrasse","year":"2003-08-10","translations":["Профессиональный (двухголосый закадровый)"],"quality":"bd","translation":"Профессиональный (двухголосый закадровый)","update":"2018-10-19 09:18:54","iframe_src":"//2413.svetacdn.in/si4jsFRrtgrT/movie/19635"},{"id":19632,"title":"Красавица, ты любовь моя!","kp_id":"693744","imdb_id":"tt2275794","world_art_id":null,"type":"movie","add":"2018-10-18 12:56:05","orig_title":"Gori Tere Pyaar Mein!","year":"2013-11-21","translations":["Любительский (многоголосый закадровый) (ICG)"],"quality":"bd","translation":"Любительский (многоголосый закадровый) (ICG)","update":"2018-10-19 06:19:14","iframe_src":"//2413.svetacdn.in/si4jsFRrtgrT/movie/19632"},{"id":19625,"title":"Ночь охоты","kp_id":"58020","imdb_id":"tt0081250","world_art_id":null,"type":"movie","add":"2018-10-18 12:47:13","orig_title":"La nuit des traquées","year":"1980-08-20","translations":["Авторский (одноголосый закадровый) (Штейн Владимир)"],"quality":"bd","translation":"Авторский (одноголосый закадровый) (Штейн Владимир)","update":"2018-10-19 06:01:45","iframe_src":"//2413.svetacdn.in/si4jsFRrtgrT/movie/19625"},{"id":19524,"title":"Моя чистая земля","kp_id":"964140","imdb_id":"tt4489562","world_art_id":null,"type":"movie","add":"2018-10-12 23:13:11","orig_title":"My Pure Land","year":"2017-06-24","translations":["Любительский (двухголосый закадровый) (LakeFilms)","Профессиональный (многоголосый закадровый) (GreenРай Studio)"],"quality":"webdl","translation":"Любительский (двухголосый закадровый) (LakeFilms)","update":"2018-10-22 06:31:03","iframe_src":"//2413.svetacdn.in/si4jsFRrtgrT/movie/19524"},{"id":18307,"title":"Зло","kp_id":"1035580","imdb_id":"tt6197494","world_art_id":null,"type":"movie","add":"2018-08-14 23:56:05","orig_title":"Malicious","year":"2018-08-30","translations":["Полное дублирование"],"quality":"webdl","translation":"Полное дублирование","update":"2018-10-22 06:37:42","iframe_src":"//2413.svetacdn.in/si4jsFRrtgrT/movie/18307"},{"id":17832,"title":"Килиманджара","kp_id":"993589","imdb_id":null,"world_art_id":null,"type":"movie","add":"2018-07-22 16:04:49","orig_title":"Килиманджара","year":"2018-07-19","translations":["Оригинальная дорожка"],"quality":"webdl","translation":"Оригинальная дорожка","update":"2018-10-22 06:42:19","iframe_src":"//2413.svetacdn.in/si4jsFRrtgrT/movie/17832"}],"current_page":2164,"first_page_url":"https://videocdn.tv/api/short?limit=100&api_token=X6EwAUfE5M9xbo7y0Bp0aPf3uXxG2KLL&cache32164=32164&page=1","from":216301,"last_page":716,"last_page_url":"https://videocdn.tv/api/short?limit=100&api_token=X6EwAUfE5M9xbo7y0Bp0aPf3uXxG2KLL&cache32164=32164&page=716","next_page_url":null,"path":"https://videocdn.tv/api/short","per_page":100,"prev_page_url":"https://videocdn.tv/api/short?limit=100&api_token=X6EwAUfE5M9xbo7y0Bp0aPf3uXxG2KLL&cache32164=32164&page=2163","to":216320,"total":71587}