{"result":true,"data":[{"id":14492,"title":"Шумиха","kp_id":"1058992","imdb_id":"tt6253370","world_art_id":null,"type":"movie","add":"2017-11-27 23:21:27","orig_title":"Bad Buzz","year":"2017-06-21","translations":["Любительский (многоголосый закадровый) (Синема УС)"],"quality":"webdl","translation":"Любительский (многоголосый закадровый) (Синема УС)","update":"2017-11-28 05:58:49","iframe_src":"//5322.svetacdn.in/IAF0wWTdNYZm/movie/14492"},{"id":14488,"title":"Прорубь","kp_id":"957794","imdb_id":null,"world_art_id":null,"type":"movie","add":"2017-11-27 20:09:48","orig_title":"Прорубь","year":"2017-09-28","translations":["Оригинальная дорожка"],"quality":"webdl","translation":"Оригинальная дорожка","update":"2017-11-28 06:16:24","iframe_src":"//5322.svetacdn.in/IAF0wWTdNYZm/movie/14488"},{"id":14487,"title":"Рождественское перемирие","kp_id":"930285","imdb_id":"tt4921846","world_art_id":null,"type":"movie","add":"2017-11-27 20:05:53","orig_title":"Christmas Truce","year":"2015-12-01","translations":["Любительский (многоголосый закадровый) (Синема УС)"],"quality":"hdtv","translation":"Любительский (многоголосый закадровый) (Синема УС)","update":"2017-11-28 06:17:51","iframe_src":"//5322.svetacdn.in/IAF0wWTdNYZm/movie/14487"},{"id":14486,"title":"Леди Крампус","kp_id":"895265","imdb_id":"tt4572700","world_art_id":null,"type":"movie","add":"2017-11-27 20:02:59","orig_title":"Lady Krampus","year":"2016-11-27","translations":["Любительский (многоголосый закадровый) (Синема УС)"],"quality":"webdl","translation":"Любительский (многоголосый закадровый) (Синема УС)","update":"2017-11-28 06:24:42","iframe_src":"//5322.svetacdn.in/IAF0wWTdNYZm/movie/14486"},{"id":14485,"title":"Моя дорога","kp_id":"967911","imdb_id":"tt3830302","world_art_id":null,"type":"movie","add":"2017-11-27 19:06:11","orig_title":"Road","year":"2016-11-27","translations":["Любительский (многоголосый закадровый) (Синема УС)"],"quality":"webdl","translation":"Любительский (многоголосый закадровый) (Синема УС)","update":"2017-11-28 06:26:00","iframe_src":"//5322.svetacdn.in/IAF0wWTdNYZm/movie/14485"},{"id":14480,"title":"Мария Кюри","kp_id":"977382","imdb_id":"tt5705058","world_art_id":null,"type":"movie","add":"2017-11-27 18:25:33","orig_title":"Marie Curie","year":"2016-10-02","translations":["Любительский (многоголосый закадровый) (Синема УС)"],"quality":"bd","translation":"Любительский (многоголосый закадровый) (Синема УС)","update":"2017-11-28 06:37:14","iframe_src":"//5322.svetacdn.in/IAF0wWTdNYZm/movie/14480"},{"id":14444,"title":"Колыбель теней","kp_id":"744306","imdb_id":"tt2705542","world_art_id":null,"type":"movie","add":"2017-11-25 13:28:22","orig_title":"Le berceau des ombres","year":"2015-07-06","translations":["Любительский (двухголосый закадровый)"],"quality":"dvdrip","translation":"Любительский (двухголосый закадровый)","update":"2017-11-27 13:00:40","iframe_src":"//5322.svetacdn.in/IAF0wWTdNYZm/movie/14444"},{"id":14443,"title":"Михаэль Кольхаас","kp_id":"623778","imdb_id":"tt2054790","world_art_id":null,"type":"movie","add":"2017-11-25 13:27:06","orig_title":"Michael Kohlhaas","year":"2013-05-24","translations":["Любительский (двухголосый закадровый)"],"quality":"bd","translation":"Любительский (двухголосый закадровый)","update":"2017-11-27 13:00:00","iframe_src":"//5322.svetacdn.in/IAF0wWTdNYZm/movie/14443"},{"id":14442,"title":"Внизу","kp_id":"696331","imdb_id":"tt2325518","world_art_id":null,"type":"movie","add":"2017-11-25 13:25:19","orig_title":"Beneath","year":"2013-05-03","translations":["Любительский (одноголосый закадровый) (datynet | Агапов Антон)"],"quality":"webdl","translation":"Любительский (одноголосый закадровый) (datynet | Агапов Антон)","update":"2017-11-27 12:55:12","iframe_src":"//5322.svetacdn.in/IAF0wWTdNYZm/movie/14442"},{"id":14441,"title":"Стервятники","kp_id":"491090","imdb_id":"tt1564369","world_art_id":null,"type":"movie","add":"2017-11-25 13:23:49","orig_title":"Scavengers","year":"2013-03-21","translations":["Любительский (одноголосый закадровый)"],"quality":"bd","translation":"Любительский (одноголосый закадровый)","update":"2017-11-27 12:53:51","iframe_src":"//5322.svetacdn.in/IAF0wWTdNYZm/movie/14441"},{"id":14440,"title":"Адский небоскреб","kp_id":"38082","imdb_id":"tt0259060","world_art_id":null,"type":"movie","add":"2017-11-25 13:22:53","orig_title":"La tour Montparnasse infernale","year":"2001-03-28","translations":["Полное дублирование"],"quality":"dvdrip","translation":"Полное дублирование","update":"2017-11-27 12:52:46","iframe_src":"//5322.svetacdn.in/IAF0wWTdNYZm/movie/14440"},{"id":14439,"title":"Тайна Мунакра","kp_id":"215577","imdb_id":"tt0396707","world_art_id":null,"type":"movie","add":"2017-11-25 13:20:49","orig_title":"The Secret of Moonacre","year":"2008-09-06","translations":["Полное дублирование"],"quality":"bd","translation":"Полное дублирование","update":"2017-11-27 12:51:18","iframe_src":"//5322.svetacdn.in/IAF0wWTdNYZm/movie/14439"},{"id":14437,"title":"Восхождение пехотинца 2","kp_id":"794404","imdb_id":"tt3150966","world_art_id":null,"type":"movie","add":"2017-11-25 13:15:54","orig_title":"Rise of the Footsoldier Part II","year":"2015-12-11","translations":["Авторский (одноголосый закадровый) (Карповский Антон)"],"quality":"bd","translation":"Авторский (одноголосый закадровый) (Карповский Антон)","update":"2017-11-27 12:49:00","iframe_src":"//5322.svetacdn.in/IAF0wWTdNYZm/movie/14437"},{"id":14432,"title":"Компаньон","kp_id":"941090","imdb_id":"tt5095010","world_art_id":null,"type":"movie","add":"2017-11-23 22:56:29","orig_title":"El acompañante","year":"2015-10-03","translations":["Любительский (многоголосый закадровый) (Синема УС)"],"quality":"webdl","translation":"Любительский (многоголосый закадровый) (Синема УС)","update":"2017-11-24 05:36:53","iframe_src":"//5322.svetacdn.in/IAF0wWTdNYZm/movie/14432"},{"id":14431,"title":"Страсть и покорение","kp_id":"1047629","imdb_id":"tt7116248","world_art_id":null,"type":"movie","add":"2017-11-23 22:48:43","orig_title":"Afterburn/Aftershock","year":"2017-11-03","translations":["Любительский (многоголосый закадровый) (Синема УС)"],"quality":"webdl","translation":"Любительский (многоголосый закадровый) (Синема УС)","update":"2017-11-24 05:42:45","iframe_src":"//5322.svetacdn.in/IAF0wWTdNYZm/movie/14431"},{"id":13896,"title":"Сексология. Женский оргазм","kp_id":"1049678","imdb_id":"tt6574240","world_art_id":null,"type":"movie","add":"2017-10-19 21:44:01","orig_title":"Sexology","year":"2016-12-22","translations":["Любительский (многоголосый закадровый) (Синема УС)"],"quality":"webdl","translation":"Любительский (многоголосый закадровый) (Синема УС)","update":"2017-11-24 05:38:42","iframe_src":"//5322.svetacdn.in/IAF0wWTdNYZm/movie/13896"},{"id":13744,"title":"Ночлежка","kp_id":"937712","imdb_id":"tt4557956","world_art_id":null,"type":"movie","add":"2017-10-05 21:11:27","orig_title":"Crash Pad","year":"2017-09-25","translations":["Любительский (многоголосый закадровый) (@MUZOBOZ@)","Профессиональный (многоголосый закадровый) (iTunes)"],"quality":"webdl","translation":"Любительский (многоголосый закадровый) (@MUZOBOZ@)","update":"2017-11-28 06:05:24","iframe_src":"//5322.svetacdn.in/IAF0wWTdNYZm/movie/13744"},{"id":13107,"title":"Реальная белка 2","kp_id":"821738","imdb_id":"tt3486626","world_art_id":null,"type":"movie","add":"2017-08-23 04:19:09","orig_title":"The Nut Job 2: Nutty by Nature","year":"2017-08-10","translations":["Любительский (многоголосый закадровый) (Колобок)","Полное дублирование"],"quality":"camrip","translation":"Любительский (многоголосый закадровый) (Колобок)","update":"2017-11-28 06:10:32","iframe_src":"//5322.svetacdn.in/IAF0wWTdNYZm/movie/13107"},{"id":12699,"title":"Роковое искушение","kp_id":"970873","imdb_id":"tt5592248","world_art_id":null,"type":"movie","add":"2017-07-30 20:44:40","orig_title":"The Beguiled","year":"2017-05-24","translations":["Любительский (многоголосый закадровый) (@MUZOBOZ@)","Полное дублирование"],"quality":"webdl","translation":"Любительский (многоголосый закадровый) (@MUZOBOZ@)","update":"2017-11-27 12:43:18","iframe_src":"//5322.svetacdn.in/IAF0wWTdNYZm/movie/12699"},{"id":10117,"title":"Самый счастливый день в жизни Олли Мяки","kp_id":"926154","imdb_id":"tt4771932","world_art_id":null,"type":"movie","add":"2017-02-28 23:01:46","orig_title":"Hymyilevä mies","year":"2016-05-19","translations":["Любительский (одноголосый закадровый)","Любительский (многоголосый закадровый) (Синема УС)","Любительский (многоголосый закадровый) (GreenРай Studio)","Профессиональный (многоголосый закадровый)"],"quality":"hdrip","translation":"Любительский (одноголосый закадровый)","update":"2017-11-27 12:44:48","iframe_src":"//5322.svetacdn.in/IAF0wWTdNYZm/movie/10117"}],"current_page":1994,"first_page_url":"https://videocdn.tv/api/short?limit=100&api_token=6Onb1W1alEUrBcKJZD3GoKBbWyAl2uG2&cache31994=31994&page=1","from":199301,"last_page":632,"last_page_url":"https://videocdn.tv/api/short?limit=100&api_token=6Onb1W1alEUrBcKJZD3GoKBbWyAl2uG2&cache31994=31994&page=632","next_page_url":null,"path":"https://videocdn.tv/api/short","per_page":100,"prev_page_url":"https://videocdn.tv/api/short?limit=100&api_token=6Onb1W1alEUrBcKJZD3GoKBbWyAl2uG2&cache31994=31994&page=1993","to":199320,"total":63120}