{"result":true,"data":[{"id":17682,"title":"На вкус и цвет","kp_id":"1023337","imdb_id":"tt6290418","world_art_id":null,"type":"movie","add":"2018-07-10 00:33:28","orig_title":"Les goûts et les couleurs","year":"2018-06-24","translations":["Любительский (многоголосый закадровый) (Синема УС)"],"quality":"webdl","translation":"Любительский (многоголосый закадровый) (Синема УС)","update":"2018-07-10 05:52:43","iframe_src":"//8543.svetacdn.in/71tsRs29n5tZ/movie/17682"},{"id":17681,"title":"Лучница","kp_id":"986600","imdb_id":"tt5806646","world_art_id":null,"type":"movie","add":"2018-07-10 00:31:33","orig_title":"The Archer","year":"2017-03-11","translations":["Любительский (многоголосый закадровый) (Синема УС)"],"quality":"webdl","translation":"Любительский (многоголосый закадровый) (Синема УС)","update":"2018-07-10 05:52:57","iframe_src":"//8543.svetacdn.in/71tsRs29n5tZ/movie/17681"},{"id":17679,"title":"Интенсивный уход","kp_id":"959493","imdb_id":"tt5231992","world_art_id":null,"type":"movie","add":"2018-07-10 00:27:35","orig_title":"Intensive Care","year":"2018-05-23","translations":["Любительский (многоголосый закадровый) (Синема УС)"],"quality":"webdl","translation":"Любительский (многоголосый закадровый) (Синема УС)","update":"2018-07-10 05:56:38","iframe_src":"//8543.svetacdn.in/71tsRs29n5tZ/movie/17679"},{"id":17678,"title":"Иностранцы в Берлине","kp_id":"1028916","imdb_id":"tt6154710","world_art_id":null,"type":"movie","add":"2018-07-10 00:23:56","orig_title":"die Expats","year":"2018-03-30","translations":["Любительский (многоголосый закадровый) (Синема УС)"],"quality":"webdl","translation":"Любительский (многоголосый закадровый) (Синема УС)","update":"2018-07-10 05:57:36","iframe_src":"//8543.svetacdn.in/71tsRs29n5tZ/movie/17678"},{"id":17629,"title":"Кровь, пот и ложь","kp_id":"1095019","imdb_id":"tt6871186","world_art_id":null,"type":"movie","add":"2018-07-08 22:39:59","orig_title":"Blood, Sweat, and Lies","year":"2018-01-05","translations":["Любительский (многоголосый закадровый) (Синема УС)"],"quality":"hdtv","translation":"Любительский (многоголосый закадровый) (Синема УС)","update":"2018-07-09 07:47:22","iframe_src":"//8543.svetacdn.in/71tsRs29n5tZ/movie/17629"},{"id":17628,"title":"Верующий","kp_id":"1112688","imdb_id":"tt7689424","world_art_id":null,"type":"movie","add":"2018-07-08 22:38:02","orig_title":"Believer","year":"2018-01-20","translations":["Любительский (многоголосый закадровый) (Синема УС)"],"quality":"webdl","translation":"Любительский (многоголосый закадровый) (Синема УС)","update":"2018-07-09 07:48:32","iframe_src":"//8543.svetacdn.in/71tsRs29n5tZ/movie/17628"},{"id":17627,"title":"Абаджан","kp_id":"1045574","imdb_id":"tt6213822","world_art_id":null,"type":"movie","add":"2018-07-08 22:35:04","orig_title":"Aba jan","year":"2017-02-01","translations":["Любительский (многоголосый закадровый) (Колобок)"],"quality":"webdl","translation":"Любительский (многоголосый закадровый) (Колобок)","update":"2018-07-09 07:49:30","iframe_src":"//8543.svetacdn.in/71tsRs29n5tZ/movie/17627"},{"id":17626,"title":"Песня для Дженни","kp_id":"882314","imdb_id":"tt4277308","world_art_id":null,"type":"movie","add":"2018-07-08 22:32:51","orig_title":"A Song for Jenny","year":"2015-06-05","translations":["Любительский (многоголосый закадровый) (Синема УС)"],"quality":"webdl","translation":"Любительский (многоголосый закадровый) (Синема УС)","update":"2018-07-09 07:52:54","iframe_src":"//8543.svetacdn.in/71tsRs29n5tZ/movie/17626"},{"id":17625,"title":"Месть падчерицы","kp_id":"1097974","imdb_id":"tt7561776","world_art_id":null,"type":"movie","add":"2018-07-08 22:30:54","orig_title":"A Daughter's Revenge","year":"2018-05-12","translations":["Любительский (многоголосый закадровый) (Синема УС)"],"quality":"hdtv","translation":"Любительский (многоголосый закадровый) (Синема УС)","update":"2018-07-09 07:54:09","iframe_src":"//8543.svetacdn.in/71tsRs29n5tZ/movie/17625"},{"id":17584,"title":"Тени забытых предков","kp_id":"42256","imdb_id":"tt0058642","world_art_id":null,"type":"movie","add":"2018-07-05 07:56:52","orig_title":"Tini zabutykh predkiv","year":"1965-03-22","translations":["Профессиональный (двухголосый закадровый)"],"quality":"bd","translation":"Профессиональный (двухголосый закадровый)","update":"2018-07-09 11:59:35","iframe_src":"//8543.svetacdn.in/71tsRs29n5tZ/movie/17584"},{"id":17583,"title":"Преступление и наказание","kp_id":"158905","imdb_id":"tt0049106","world_art_id":null,"type":"movie","add":"2018-07-05 07:54:57","orig_title":"Crime et châtiment","year":"1956-11-27","translations":["Профессиональный (двухголосый закадровый)"],"quality":"bd","translation":"Профессиональный (двухголосый закадровый)","update":"2018-07-09 11:58:39","iframe_src":"//8543.svetacdn.in/71tsRs29n5tZ/movie/17583"},{"id":17582,"title":"Нас унесет ветер","kp_id":"76707","imdb_id":"tt0209463","world_art_id":null,"type":"movie","add":"2018-07-05 07:53:15","orig_title":"Bad ma ra khahad bord","year":"1999-06-10","translations":["Профессиональный (двухголосый закадровый)"],"quality":"bd","translation":"Профессиональный (двухголосый закадровый)","update":"2018-07-09 11:58:06","iframe_src":"//8543.svetacdn.in/71tsRs29n5tZ/movie/17582"},{"id":17581,"title":"Выстрел в темноте","kp_id":"20173","imdb_id":"tt0058586","world_art_id":null,"type":"movie","add":"2018-07-05 07:51:24","orig_title":"A Shot in the Dark","year":"1964-06-23","translations":["Профессиональный (двухголосый закадровый)"],"quality":"bd","translation":"Профессиональный (двухголосый закадровый)","update":"2018-07-09 11:55:53","iframe_src":"//8543.svetacdn.in/71tsRs29n5tZ/movie/17581"},{"id":17580,"title":"Мне не больно","kp_id":"178722","imdb_id":"tt0477323","world_art_id":null,"type":"movie","add":"2018-07-05 07:50:14","orig_title":"Mne ne bolno","year":"2007-03-19","translations":["Оригинальная дорожка"],"quality":"webdl","translation":"Оригинальная дорожка","update":"2018-07-09 11:54:50","iframe_src":"//8543.svetacdn.in/71tsRs29n5tZ/movie/17580"},{"id":17579,"title":"Сорокапятка","kp_id":"452783","imdb_id":null,"world_art_id":null,"type":"movie","add":"2018-07-05 07:48:58","orig_title":"Сорокапятка","year":"2009-03-22","translations":["Оригинальная дорожка"],"quality":"hdtv","translation":"Оригинальная дорожка","update":"2018-07-09 11:53:52","iframe_src":"//8543.svetacdn.in/71tsRs29n5tZ/movie/17579"},{"id":17578,"title":"Легенда о Сурамской крепости","kp_id":"43477","imdb_id":"tt0087606","world_art_id":null,"type":"movie","add":"2018-07-05 07:46:47","orig_title":"Ambavi Suramis tsikhitsa","year":"1986-06-22","translations":["Профессиональный (одноголосый закадровый)"],"quality":"bd","translation":"Профессиональный (одноголосый закадровый)","update":"2018-07-09 11:53:03","iframe_src":"//8543.svetacdn.in/71tsRs29n5tZ/movie/17578"},{"id":17577,"title":"Ашик-Кериб","kp_id":"7659","imdb_id":"tt0094681","world_art_id":null,"type":"movie","add":"2018-07-05 07:41:47","orig_title":"Ashug-Karibi","year":"1988-07-03","translations":["Профессиональный (одноголосый закадровый)"],"quality":"bd","translation":"Профессиональный (одноголосый закадровый)","update":"2018-07-09 11:45:21","iframe_src":"//8543.svetacdn.in/71tsRs29n5tZ/movie/17577"},{"id":17576,"title":"Горящий человек","kp_id":"494806","imdb_id":"tt1570559","world_art_id":null,"type":"movie","add":"2018-07-05 07:39:00","orig_title":"Burning Man","year":"2011-09-10","translations":["Любительский (многоголосый закадровый)"],"quality":"bd","translation":"Любительский (многоголосый закадровый)","update":"2018-07-09 11:43:42","iframe_src":"//8543.svetacdn.in/71tsRs29n5tZ/movie/17576"},{"id":16498,"title":"Правда или действие","kp_id":"1045590","imdb_id":"tt6772950","world_art_id":null,"type":"movie","add":"2018-04-26 23:11:10","orig_title":"Truth or Dare","year":"2018-04-12","translations":["Полное дублирование","Полное дублирование (iTunes)"],"quality":"webdl","translation":"Полное дублирование","update":"2018-07-09 11:42:37","iframe_src":"//8543.svetacdn.in/71tsRs29n5tZ/movie/16498"},{"id":8509,"title":"Пробуждённая","kp_id":"532220","imdb_id":"tt1669268","world_art_id":null,"type":"movie","add":"2016-12-31 07:33:02","orig_title":"Awakened","year":"2013-10-18","translations":["Любительский (одноголосый закадровый)","Профессиональный (многоголосый закадровый)"],"quality":"hdrip","translation":"Любительский (одноголосый закадровый)","update":"2018-07-09 07:49:25","iframe_src":"//8543.svetacdn.in/71tsRs29n5tZ/movie/8509"}],"current_page":1725,"first_page_url":"https://videocdn.tv/api/short?limit=100&api_token=EnbO9h8pv1VyjbCJhg0WM9nG259n7mtz&cache31725=31725&page=1","from":172401,"last_page":605,"last_page_url":"https://videocdn.tv/api/short?limit=100&api_token=EnbO9h8pv1VyjbCJhg0WM9nG259n7mtz&cache31725=31725&page=605","next_page_url":null,"path":"https://videocdn.tv/api/short","per_page":100,"prev_page_url":"https://videocdn.tv/api/short?limit=100&api_token=EnbO9h8pv1VyjbCJhg0WM9nG259n7mtz&cache31725=31725&page=1724","to":172420,"total":60438}