{"result":true,"data":[{"id":25109,"title":"Праздник Нептуна","kp_id":"43220","imdb_id":"tt0093772","world_art_id":null,"type":"movie","add":"2019-04-22 09:10:18","orig_title":"Prazdnik Neptuna","year":"1986-02-01","translations":["Оригинальная дорожка"],"quality":"dvdrip","translation":"Оригинальная дорожка","update":"2019-04-24 05:09:40","iframe_src":"//8209.svetacdn.in/10IAF0wWTdNYZm/movie/25109"},{"id":25104,"title":"Рассмешить Бога","kp_id":"426998","imdb_id":"tt4037594","world_art_id":null,"type":"movie","add":"2019-04-22 09:02:23","orig_title":"Rassmeshit Boga","year":"2006-01-01","translations":["Оригинальная дорожка"],"quality":"dvdrip","translation":"Оригинальная дорожка","update":"2019-04-24 05:08:18","iframe_src":"//8209.svetacdn.in/10IAF0wWTdNYZm/movie/25104"},{"id":25102,"title":"Снежная сказка","kp_id":"43891","imdb_id":"tt0175185","world_art_id":null,"type":"movie","add":"2019-04-22 08:54:10","orig_title":"Snezhnaya skazka","year":"1960-03-20","translations":["Оригинальная дорожка"],"quality":"dvdrip","translation":"Оригинальная дорожка","update":"2019-04-24 05:07:26","iframe_src":"//8209.svetacdn.in/10IAF0wWTdNYZm/movie/25102"},{"id":25101,"title":"Срочно требуется Дед Мороз","kp_id":"427414","imdb_id":"tt2836462","world_art_id":null,"type":"movie","add":"2019-04-22 08:51:06","orig_title":"Srochno trebuetsya Ded Moroz","year":"2007-12-28","translations":["Оригинальная дорожка"],"quality":"dvdrip","translation":"Оригинальная дорожка","update":"2019-04-24 05:04:19","iframe_src":"//8209.svetacdn.in/10IAF0wWTdNYZm/movie/25101"},{"id":25100,"title":"Тайна Аркаима","kp_id":"573881","imdb_id":"tt4371212","world_art_id":null,"type":"movie","add":"2019-04-22 08:44:52","orig_title":"Tayna Arkaima","year":"2007-01-01","translations":["Оригинальная дорожка"],"quality":"dvdrip","translation":"Оригинальная дорожка","update":"2019-04-24 05:03:04","iframe_src":"//8209.svetacdn.in/10IAF0wWTdNYZm/movie/25100"},{"id":25096,"title":"Тушите свет","kp_id":"432562","imdb_id":"tt1852158","world_art_id":null,"type":"movie","add":"2019-04-22 08:34:30","orig_title":"Tushite svet","year":"2009-01-14","translations":["Оригинальная дорожка"],"quality":"dvdrip","translation":"Оригинальная дорожка","update":"2019-04-24 05:02:04","iframe_src":"//8209.svetacdn.in/10IAF0wWTdNYZm/movie/25096"},{"id":25095,"title":"Урод","kp_id":"153028","imdb_id":"tt0270017","world_art_id":null,"type":"movie","add":"2019-04-22 08:29:05","orig_title":"Urod","year":"1993-12-02","translations":["Оригинальная дорожка"],"quality":"tv","translation":"Оригинальная дорожка","update":"2019-04-24 05:00:58","iframe_src":"//8209.svetacdn.in/10IAF0wWTdNYZm/movie/25095"},{"id":25092,"title":"В один прекрасный день","kp_id":"45615","imdb_id":"tt0193599","world_art_id":null,"type":"movie","add":"2019-04-22 08:24:20","orig_title":"V odin prekrasnyy den","year":"1956-02-17","translations":["Оригинальная дорожка"],"quality":"tv","translation":"Оригинальная дорожка","update":"2019-04-24 05:00:03","iframe_src":"//8209.svetacdn.in/10IAF0wWTdNYZm/movie/25092"},{"id":25090,"title":"Вратарь","kp_id":"45907","imdb_id":"tt0028473","world_art_id":null,"type":"movie","add":"2019-04-22 08:21:28","orig_title":"Vratar","year":"1936-12-25","translations":["Оригинальная дорожка"],"quality":"dvdrip","translation":"Оригинальная дорожка","update":"2019-04-24 04:58:50","iframe_src":"//8209.svetacdn.in/10IAF0wWTdNYZm/movie/25090"},{"id":25089,"title":"Завтра, третьего апреля ...","kp_id":"45246","imdb_id":"tt0065237","world_art_id":null,"type":"movie","add":"2019-04-22 08:17:26","orig_title":"Zavtra, tretyego aprelya...","year":"1970-06-07","translations":["Оригинальная дорожка"],"quality":"dvdrip","translation":"Оригинальная дорожка","update":"2019-04-24 04:57:44","iframe_src":"//8209.svetacdn.in/10IAF0wWTdNYZm/movie/25089"},{"id":25082,"title":"Золушка","kp_id":"308926","imdb_id":"tt0997111","world_art_id":null,"type":"movie","add":"2019-04-22 04:50:26","orig_title":"Zolushka","year":"2003-01-01","translations":["Оригинальная дорожка"],"quality":"dvdrip","translation":"Оригинальная дорожка","update":"2019-04-24 04:56:21","iframe_src":"//8209.svetacdn.in/10IAF0wWTdNYZm/movie/25082"},{"id":25081,"title":"Звездный мальчик","kp_id":"427099","imdb_id":"tt3002440","world_art_id":null,"type":"movie","add":"2019-04-22 04:39:09","orig_title":"Zvyozdnyy malchik","year":"1958-01-10","translations":["Оригинальная дорожка"],"quality":"sat","translation":"Оригинальная дорожка","update":"2019-04-24 04:55:00","iframe_src":"//8209.svetacdn.in/10IAF0wWTdNYZm/movie/25081"},{"id":25080,"title":"Абориген","kp_id":"43401","imdb_id":"tt0147816","world_art_id":null,"type":"movie","add":"2019-04-22 04:34:32","orig_title":"Aborigen","year":"1989-10-01","translations":["Оригинальная дорожка"],"quality":"dvdrip","translation":"Оригинальная дорожка","update":"2019-04-24 04:53:53","iframe_src":"//8209.svetacdn.in/10IAF0wWTdNYZm/movie/25080"},{"id":25079,"title":"Баксы","kp_id":"405759","imdb_id":"tt0940662","world_art_id":null,"type":"movie","add":"2019-04-22 04:22:58","orig_title":"Baksy","year":"2008-09-05","translations":["Оригинальная дорожка"],"quality":"dvdrip","translation":"Оригинальная дорожка","update":"2019-04-24 04:53:01","iframe_src":"//8209.svetacdn.in/10IAF0wWTdNYZm/movie/25079"},{"id":25078,"title":"Бедная Саша","kp_id":"41481","imdb_id":"tt0135155","world_art_id":null,"type":"movie","add":"2019-04-22 04:18:37","orig_title":"Bednaya Sasha","year":"1997-12-26","translations":["Оригинальная дорожка"],"quality":"dvdrip","translation":"Оригинальная дорожка","update":"2019-04-24 04:52:20","iframe_src":"//8209.svetacdn.in/10IAF0wWTdNYZm/movie/25078"},{"id":25077,"title":"Вероника не придет","kp_id":"451399","imdb_id":"tt2056772","world_art_id":null,"type":"movie","add":"2019-04-22 04:14:00","orig_title":"Veronika ne pridyot","year":"2008-06-25","translations":["Оригинальная дорожка"],"quality":"dvdrip","translation":"Оригинальная дорожка","update":"2019-04-24 04:51:30","iframe_src":"//8209.svetacdn.in/10IAF0wWTdNYZm/movie/25077"},{"id":25076,"title":"Дачница","kp_id":"450333","imdb_id":"tt3054068","world_art_id":null,"type":"movie","add":"2019-04-22 04:04:01","orig_title":"Dachnitsa","year":"2008-03-21","translations":["Оригинальная дорожка"],"quality":"dvdrip","translation":"Оригинальная дорожка","update":"2019-04-24 04:50:43","iframe_src":"//8209.svetacdn.in/10IAF0wWTdNYZm/movie/25076"},{"id":25075,"title":"Дубравка","kp_id":"44310","imdb_id":"tt0346910","world_art_id":null,"type":"movie","add":"2019-04-22 03:56:21","orig_title":"Dubravka","year":"1967-09-12","translations":["Оригинальная дорожка"],"quality":"dvdrip","translation":"Оригинальная дорожка","update":"2019-04-24 04:49:52","iframe_src":"//8209.svetacdn.in/10IAF0wWTdNYZm/movie/25075"},{"id":25074,"title":"Живая радуга","kp_id":"45325","imdb_id":"tt0252112","world_art_id":null,"type":"movie","add":"2019-04-21 21:31:28","orig_title":"Zhivaya raduga","year":"1983-05-15","translations":["Оригинальная дорожка"],"quality":"dvb","translation":"Оригинальная дорожка","update":"2019-04-24 04:48:46","iframe_src":"//8209.svetacdn.in/10IAF0wWTdNYZm/movie/25074"},{"id":25073,"title":"Завещание Сталина","kp_id":"41327","imdb_id":"tt0197113","world_art_id":null,"type":"movie","add":"2019-04-21 21:27:09","orig_title":"Zaveshchanie Stalina","year":"1993-01-01","translations":["Оригинальная дорожка"],"quality":"dvdrip","translation":"Оригинальная дорожка","update":"2019-04-24 04:47:45","iframe_src":"//8209.svetacdn.in/10IAF0wWTdNYZm/movie/25073"}],"current_page":1640,"first_page_url":"https://videocdn.tv/api/short?limit=100&api_token=6Onb1W1alEUrBcKJZD3GoKBbWyAl2uG2&cache31640=31640&page=1","from":163901,"last_page":663,"last_page_url":"https://videocdn.tv/api/short?limit=100&api_token=6Onb1W1alEUrBcKJZD3GoKBbWyAl2uG2&cache31640=31640&page=663","next_page_url":null,"path":"https://videocdn.tv/api/short","per_page":100,"prev_page_url":"https://videocdn.tv/api/short?limit=100&api_token=6Onb1W1alEUrBcKJZD3GoKBbWyAl2uG2&cache31640=31640&page=1639","to":163920,"total":66250}