{"result":true,"data":[{"id":57235,"title":"Привязанный","kp_id":"4472345","imdb_id":"tt14112080","world_art_id":null,"type":"movie","add":"2022-03-19 17:21:02","orig_title":"Tethered","year":"2022-03-18","translations":["Любительский (двухголосый закадровый) (datynet & Yuka_chan)","Любительский (многоголосый закадровый) (Синема УС)"],"quality":"webdl","translation":"Любительский (двухголосый закадровый) (datynet & Yuka_chan)","update":"2022-03-20 06:26:16","iframe_src":"//8944266443434.svetacdn.in/PfJ50H0ZBPg3/movie/57235"},{"id":57217,"title":"Влияние щелбана на разрыв отношений","kp_id":"4535944","imdb_id":null,"world_art_id":null,"type":"movie","add":"2022-03-19 13:58:16","orig_title":"Ttakbam han daega ibyeole michineun yeonghyang","year":"2021-11-19","translations":["Любительский (двухголосый закадровый) (Amazing Dubbing)"],"quality":"hdtv","translation":"Любительский (двухголосый закадровый) (Amazing Dubbing)","update":"2022-03-20 07:36:03","iframe_src":"//8944266443434.svetacdn.in/PfJ50H0ZBPg3/movie/57217"},{"id":57183,"title":"Ведьма","kp_id":"39955","imdb_id":"tt0098397","world_art_id":null,"type":"movie","add":"2022-03-17 17:10:59","orig_title":"Streghe","year":"1989-05-26","translations":["Любительский (одноголосый закадровый) (Хэм)"],"quality":"bd","translation":"Любительский (одноголосый закадровый) (Хэм)","update":"2022-03-18 14:20:54","iframe_src":"//8944266443434.svetacdn.in/PfJ50H0ZBPg3/movie/57183"},{"id":57176,"title":"Клоун","kp_id":"1249476","imdb_id":"tt9893158","world_art_id":null,"type":"movie","add":"2022-03-17 15:30:19","orig_title":"Clowning","year":"2022-01-01","translations":["Любительский (многоголосый закадровый) (Синема УС)"],"quality":"webdl","translation":"Любительский (многоголосый закадровый) (Синема УС)","update":"2022-03-20 15:40:01","iframe_src":"//8944266443434.svetacdn.in/PfJ50H0ZBPg3/movie/57176"},{"id":57132,"title":"А-ля я Швед","kp_id":"4293758","imdb_id":"tt13502736","world_art_id":null,"type":"movie","add":"2022-03-15 21:16:26","orig_title":"Suedi","year":"2021-09-24","translations":["Любительский (многоголосый закадровый) (Синема УС)"],"quality":"webdl","translation":"Любительский (многоголосый закадровый) (Синема УС)","update":"2022-03-19 15:55:30","iframe_src":"//8944266443434.svetacdn.in/PfJ50H0ZBPg3/movie/57132"},{"id":57126,"title":"Зиллафут","kp_id":"1282890","imdb_id":"tt10594738","world_art_id":null,"type":"movie","add":"2022-03-15 17:21:22","orig_title":"ZillaFoot","year":"2019-01-29","translations":["Любительский (многоголосый закадровый) (Синема УС)"],"quality":"webdl","translation":"Любительский (многоголосый закадровый) (Синема УС)","update":"2022-03-18 14:55:02","iframe_src":"//8944266443434.svetacdn.in/PfJ50H0ZBPg3/movie/57126"},{"id":57125,"title":"Одержимый","kp_id":"1108960","imdb_id":"tt7677542","world_art_id":null,"type":"movie","add":"2022-03-15 17:19:50","orig_title":"The Obsessed","year":"2019-10-31","translations":["Любительский (многоголосый закадровый) (Синема УС)"],"quality":"webdl","translation":"Любительский (многоголосый закадровый) (Синема УС)","update":"2022-03-18 15:52:23","iframe_src":"//8944266443434.svetacdn.in/PfJ50H0ZBPg3/movie/57125"},{"id":57124,"title":"Гражданская смерть","kp_id":"4783048","imdb_id":"tt16402818","world_art_id":null,"type":"movie","add":"2022-03-15 16:46:27","orig_title":"The Civil Dead","year":"2022-01-27","translations":["Любительский (многоголосый закадровый) (AlphaProject)"],"quality":"webdl","translation":"Любительский (многоголосый закадровый) (AlphaProject)","update":"2022-03-19 15:07:43","iframe_src":"//8944266443434.svetacdn.in/PfJ50H0ZBPg3/movie/57124"},{"id":56061,"title":"Любовники","kp_id":"1245561","imdb_id":"tt9800670","world_art_id":null,"type":"movie","add":"2022-01-19 15:27:32","orig_title":"Amants","year":"2020-09-03","translations":["Профессиональный (многоголосый закадровый) (Позитив)"],"quality":"webdl","translation":"Профессиональный (многоголосый закадровый) (Позитив)","update":"2022-03-20 07:34:37","iframe_src":"//8944266443434.svetacdn.in/PfJ50H0ZBPg3/movie/56061"},{"id":55861,"title":"Джигалоу","kp_id":"1354084","imdb_id":"tt16159670","world_art_id":null,"type":"movie","add":"2022-01-12 09:46:06","orig_title":"Dzhigalou","year":"2022-01-06","translations":["Оригинальная дорожка"],"quality":"webdl","translation":"Оригинальная дорожка","update":"2022-03-19 20:47:10","iframe_src":"//8944266443434.svetacdn.in/PfJ50H0ZBPg3/movie/55861"},{"id":10599,"title":"Игра в судьбу","kp_id":"2032349","imdb_id":null,"world_art_id":null,"type":"serial","add":"2021-05-09 11:20:43","orig_title":"Игра в судьбу","year":"2020-09-12","translations":["Оригинальная дорожка"],"seasons_count":1,"episodes_count":4,"episodes":4,"update":"2021-05-09 17:34:56","iframe_src":"//8944266443434.svetacdn.in/PfJ50H0ZBPg3/tv-series/10599"},{"id":10598,"title":"Королевская больница","kp_id":"474814","imdb_id":"tt1332150","world_art_id":null,"type":"serial","add":"2021-05-08 20:26:29","orig_title":"Casualty 1909","year":"2009-06-14","translations":["Профессиональный (двухголосый закадровый)"],"seasons_count":1,"episodes_count":6,"episodes":6,"update":"2021-05-09 21:51:26","iframe_src":"//8944266443434.svetacdn.in/PfJ50H0ZBPg3/tv-series/10598"},{"id":10597,"title":"Лондонский госпиталь","kp_id":"392931","imdb_id":"tt1078267","world_art_id":null,"type":"serial","add":"2021-05-08 20:15:35","orig_title":"Casualty 1907","year":"2008-03-30","translations":["Профессиональный (двухголосый закадровый)"],"seasons_count":1,"episodes_count":2,"episodes":2,"update":"2021-05-09 21:43:43","iframe_src":"//8944266443434.svetacdn.in/PfJ50H0ZBPg3/tv-series/10597"},{"id":10596,"title":"Врачебная ошибка","kp_id":"4430396","imdb_id":null,"world_art_id":null,"type":"serial","add":"2021-05-08 19:29:41","orig_title":"Врачебная ошибка","year":"2021-05-08","translations":["Оригинальная дорожка"],"seasons_count":1,"episodes_count":4,"episodes":4,"update":"2021-05-09 11:05:44","iframe_src":"//8944266443434.svetacdn.in/PfJ50H0ZBPg3/tv-series/10596"},{"id":10593,"title":"Мурсайд","kp_id":"1009367","imdb_id":"tt5327216","world_art_id":null,"type":"serial","add":"2021-05-08 08:53:57","orig_title":"The Moorside","year":"2017-02-07","translations":["Любительский (многоголосый закадровый) (WestFilm)"],"seasons_count":1,"episodes_count":2,"episodes":2,"update":"2021-05-08 15:09:30","iframe_src":"//8944266443434.svetacdn.in/PfJ50H0ZBPg3/tv-series/10593"},{"id":10591,"title":"Стокгольм","kp_id":"1180463","imdb_id":"tt8804952","world_art_id":null,"type":"serial","add":"2021-05-07 21:55:15","orig_title":"Stockholm","year":"2018-07-17","translations":["Любительский (многоголосый закадровый) (WestFilm)"],"seasons_count":1,"episodes_count":4,"episodes":4,"update":"2021-05-08 08:38:17","iframe_src":"//8944266443434.svetacdn.in/PfJ50H0ZBPg3/tv-series/10591"},{"id":10581,"title":"Иван Грозный","kp_id":"421893","imdb_id":"tt1445871","world_art_id":null,"type":"serial","add":"2021-05-06 11:28:48","orig_title":"Ivan Groznyy","year":"2019-05-01","translations":["Оригинальная дорожка"],"seasons_count":1,"episodes_count":16,"episodes":16,"update":"2021-05-09 16:59:55","iframe_src":"//8944266443434.svetacdn.in/PfJ50H0ZBPg3/tv-series/10581"},{"id":10580,"title":"Лекс и Плу: Космические таксисты","kp_id":"1395807","imdb_id":null,"world_art_id":null,"type":"serial","add":"2021-05-06 11:19:57","orig_title":"Лекс и Плу: Космические таксисты","year":"2019-12-14","translations":["Оригинальная дорожка"],"seasons_count":1,"episodes_count":17,"episodes":17,"update":"2021-05-09 17:25:35","iframe_src":"//8944266443434.svetacdn.in/PfJ50H0ZBPg3/tv-series/10580"},{"id":10575,"title":"Ларго Винч","kp_id":"273067","imdb_id":"tt0224902","world_art_id":null,"type":"serial","add":"2021-05-05 15:25:14","orig_title":"Largo Winch","year":"2001-01-26","translations":["Профессиональный (многоголосый закадровый)"],"seasons_count":2,"episodes_count":29,"episodes":5,"update":"2021-05-09 15:48:43","iframe_src":"//8944266443434.svetacdn.in/PfJ50H0ZBPg3/tv-series/10575"},{"id":10561,"title":"Пять минут тишины. Новые горизонты","kp_id":"1291164","imdb_id":null,"world_art_id":null,"type":"serial","add":"2021-05-03 10:44:13","orig_title":"Пять минут тишины. Новые горизонты","year":"2021-05-04","translations":["Оригинальная дорожка"],"seasons_count":1,"episodes_count":12,"episodes":12,"update":"2021-05-08 15:02:31","iframe_src":"//8944266443434.svetacdn.in/PfJ50H0ZBPg3/tv-series/10561"},{"id":10542,"title":"Добро пожаловать в Утмарк","kp_id":"1349589","imdb_id":"tt10592866","world_art_id":null,"type":"serial","add":"2021-04-30 13:27:20","orig_title":"Utmark","year":"2021-04-18","translations":["Профессиональный (многоголосый закадровый) (BaibaKo)","Любительский (многоголосый закадровый) (Ultradox)","Любительский (многоголосый закадровый) (ColdFilm)"],"seasons_count":1,"episodes_count":8,"episodes":8,"update":"2021-05-08 15:19:27","iframe_src":"//8944266443434.svetacdn.in/PfJ50H0ZBPg3/tv-series/10542"},{"id":10111,"title":"Крюк","kp_id":"1402928","imdb_id":null,"world_art_id":null,"type":"serial","add":"2021-03-05 11:31:37","orig_title":"Крюк","year":"2021-03-05","translations":["Оригинальная дорожка"],"seasons_count":1,"episodes_count":10,"episodes":10,"update":"2021-05-07 19:37:59","iframe_src":"//8944266443434.svetacdn.in/PfJ50H0ZBPg3/tv-series/10111"},{"id":48026,"title":"Денежная игла","kp_id":"1266030","imdb_id":"tt9585676","world_art_id":null,"type":"movie","add":"2021-02-18 05:28:39","orig_title":"Body Brokers","year":"2021-02-19","translations":["Полное дублирование (iTunes)","[EN] Original (English)"],"quality":"webdl","translation":"Полное дублирование (iTunes)","update":"2022-03-18 14:12:48","iframe_src":"//8944266443434.svetacdn.in/PfJ50H0ZBPg3/movie/48026"},{"id":47818,"title":"Лес призраков: Сатор","kp_id":"1378456","imdb_id":"tt10556320","world_art_id":null,"type":"movie","add":"2021-02-10 14:10:59","orig_title":"Sator","year":"2019-07-21","translations":["Любительский (многоголосый закадровый)","Любительский (многоголосый закадровый) (AlphaProject)","Профессиональный (многоголосый закадровый) (HDrezka Studio)","Полное дублирование","Полное дублирование (Марафон)"],"quality":"webdl","translation":"Любительский (многоголосый закадровый)","update":"2022-03-19 21:29:09","iframe_src":"//8944266443434.svetacdn.in/PfJ50H0ZBPg3/movie/47818"},{"id":9640,"title":"Кайрос","kp_id":"1378891","imdb_id":"tt12874950","world_art_id":null,"type":"serial","add":"2021-01-03 20:34:43","orig_title":"Kairoseu","year":"2020-10-26","translations":["Любительский (двухголосый закадровый) (NewDub)","Любительский (многоголосый закадровый) (STEPonee)"],"seasons_count":1,"episodes_count":16,"episodes":16,"update":"2021-05-08 14:26:32","iframe_src":"//8944266443434.svetacdn.in/PfJ50H0ZBPg3/tv-series/9640"},{"id":8914,"title":"НФ8","kp_id":"1357356","imdb_id":"tt12560244","world_art_id":null,"type":"serial","add":"2020-10-05 05:14:36","orig_title":"SF8","year":"2020-08-14","translations":["Любительский (двухголосый закадровый) (АрхиAsia)","Любительский (двухголосый закадровый) (SoftBox)","Любительский (многоголосый закадровый) (STEPonee)"],"seasons_count":1,"episodes_count":8,"episodes":8,"update":"2021-05-08 14:42:04","iframe_src":"//8944266443434.svetacdn.in/PfJ50H0ZBPg3/tv-series/8914"},{"id":41031,"title":"Думай как собака","kp_id":"1115863","imdb_id":"tt5929654","world_art_id":null,"type":"movie","add":"2020-06-08 07:19:45","orig_title":"Think Like a Dog","year":"2020-06-09","translations":["Полное дублирование (iTunes)","[EN] Original (English)"],"quality":"bd","translation":"Полное дублирование (iTunes)","update":"2022-03-18 14:16:38","iframe_src":"//8944266443434.svetacdn.in/PfJ50H0ZBPg3/movie/41031"},{"id":7414,"title":"Белка и Стрелка: Тайны космоса","kp_id":"1280649","imdb_id":null,"world_art_id":null,"type":"serial","add":"2020-05-06 10:16:55","orig_title":"Белка и Стрелка: Тайны космоса","year":"2018-01-01","translations":["Оригинальная дорожка"],"seasons_count":1,"episodes_count":20,"episodes":20,"update":"2021-05-09 16:03:07","iframe_src":"//8944266443434.svetacdn.in/PfJ50H0ZBPg3/tv-series/7414"},{"id":7168,"title":"Миша портит всё","kp_id":"1359033","imdb_id":null,"world_art_id":null,"type":"serial","add":"2020-04-13 12:31:40","orig_title":"Миша портит всё","year":"2020-04-13","translations":["Оригинальная дорожка"],"seasons_count":2,"episodes_count":30,"episodes":17,"update":"2021-05-09 06:16:01","iframe_src":"//8944266443434.svetacdn.in/PfJ50H0ZBPg3/tv-series/7168"},{"id":36965,"title":"Нарко. Война за власть","kp_id":"1282357","imdb_id":"tt10525174","world_art_id":null,"type":"movie","add":"2020-02-26 07:05:04","orig_title":"Narco Soldiers","year":"2019-01-01","translations":["Профессиональный (многоголосый закадровый) (iTunes)"],"quality":"bd","translation":"Профессиональный (многоголосый закадровый) (iTunes)","update":"2022-03-20 07:39:09","iframe_src":"//8944266443434.svetacdn.in/PfJ50H0ZBPg3/movie/36965"},{"id":5801,"title":"Сталкер","kp_id":"839599","imdb_id":"tt3560094","world_art_id":null,"type":"serial","add":"2019-11-22 11:10:40","orig_title":"Stalker","year":"2014-10-01","translations":["Профессиональный (многоголосый закадровый) (NewStudio)"],"seasons_count":1,"episodes_count":20,"episodes":20,"update":"2021-05-09 17:54:06","iframe_src":"//8944266443434.svetacdn.in/PfJ50H0ZBPg3/tv-series/5801"},{"id":5557,"title":"Ни шагу Назад!","kp_id":"1267342","imdb_id":null,"world_art_id":null,"type":"serial","add":"2019-10-28 15:15:50","orig_title":"Ни шагу Назад!","year":"2019-05-09","translations":["Оригинальная дорожка"],"seasons_count":2,"episodes_count":12,"episodes":6,"update":"2021-05-09 11:11:22","iframe_src":"//8944266443434.svetacdn.in/PfJ50H0ZBPg3/tv-series/5557"},{"id":3754,"title":"Девушка из ниоткуда","kp_id":"1187903","imdb_id":"tt8824648","world_art_id":null,"type":"serial","add":"2018-12-25 09:08:40","orig_title":"Girl From Nowhere","year":"2018-08-08","translations":["Любительский (двухголосый закадровый) (ColdFilm)","Любительский (двухголосый закадровый) (LakeFilms)"],"seasons_count":2,"episodes_count":21,"episodes":8,"update":"2021-05-08 09:06:24","iframe_src":"//8944266443434.svetacdn.in/PfJ50H0ZBPg3/tv-series/3754"},{"id":16555,"title":"Ловушка времени","kp_id":"920040","imdb_id":"tt4815122","world_art_id":null,"type":"movie","add":"2018-04-30 21:50:29","orig_title":"Time Trap","year":"2017-05-19","translations":["Полное дублирование (iTunes)","[EN] Original (English)","Профессиональный (многоголосый закадровый) (HDrezka Studio)"],"quality":"bd","translation":"Полное дублирование (iTunes)","update":"2022-03-18 14:17:57","iframe_src":"//8944266443434.svetacdn.in/PfJ50H0ZBPg3/movie/16555"},{"id":12060,"title":"Я Кристина","kp_id":"55830","imdb_id":"tt0082176","world_art_id":null,"type":"movie","add":"2017-06-21 09:17:38","orig_title":"Christiane F. - Wir Kinder vom Bahnhof Zoo","year":"1981-04-02","translations":["Авторский (одноголосый закадровый) (Сербин Юрий)"],"quality":"bd","translation":"Авторский (одноголосый закадровый) (Сербин Юрий)","update":"2022-03-18 14:11:44","iframe_src":"//8944266443434.svetacdn.in/PfJ50H0ZBPg3/movie/12060"},{"id":712,"title":"МакГайвер","kp_id":"463608","imdb_id":"tt1399045","world_art_id":null,"type":"serial","add":"2016-12-20 14:03:27","orig_title":"MacGyver","year":"2016-09-23","translations":["Профессиональный (многоголосый закадровый) (NewStudio)","Профессиональный (многоголосый закадровый) (TVShows)","Любительский (многоголосый закадровый) (Alternative Production)","Профессиональный (многоголосый закадровый) (BaibaKo)","Полное дублирование (ДТВ)","Профессиональный (многоголосый закадровый) (HDrezka Studio)","Профессиональный (многоголосый закадровый) (Jaskier)","Любительский (многоголосый закадровый) (Octopus)","Любительский (многоголосый закадровый) (ColdFilm)","Любительский (многоголосый закадровый) (Ultradox)"],"seasons_count":5,"episodes_count":94,"episodes":15,"update":"2021-05-08 08:39:59","iframe_src":"//8944266443434.svetacdn.in/PfJ50H0ZBPg3/tv-series/712"},{"id":7284,"title":"В отрыв!","kp_id":"51388","imdb_id":"tt0188674","world_art_id":null,"type":"movie","add":"2016-11-10 13:06:15","orig_title":"Human Traffic","year":"1999-06-04","translations":["Профессиональный (двухголосый закадровый)"],"quality":"bd","translation":"Профессиональный (двухголосый закадровый)","update":"2022-03-18 14:24:47","iframe_src":"//8944266443434.svetacdn.in/PfJ50H0ZBPg3/movie/7284"},{"id":3063,"title":"Водный мир","kp_id":"8165","imdb_id":"tt0114898","world_art_id":null,"type":"movie","add":"2016-06-09 17:47:15","orig_title":"Waterworld","year":"1995-07-28","translations":["Профессиональный (многоголосый закадровый) (Киномания)","Профессиональный (многоголосый закадровый) (СВ-Студия)","Авторский (одноголосый закадровый) (Гаврилов Андрей)","Авторский (одноголосый закадровый) (Немахов Юрий)","Авторский (одноголосый закадровый) (Живов Юрий)","[EN] Original (English)","Профессиональный (многоголосый закадровый) (Кравец)"],"quality":"bd","translation":"Профессиональный (многоголосый закадровый) (Киномания)","update":"2022-03-18 14:14:36","iframe_src":"//8944266443434.svetacdn.in/PfJ50H0ZBPg3/movie/3063"},{"id":472,"title":"Анастасия","kp_id":"2513","imdb_id":"tt0118617","world_art_id":null,"type":"movie","add":"2016-04-02 22:23:08","orig_title":"Anastasia","year":"1997-11-14","translations":["Полное дублирование"],"quality":"bd","translation":"Полное дублирование","update":"2022-03-19 16:25:57","iframe_src":"//8944266443434.svetacdn.in/PfJ50H0ZBPg3/movie/472"},{"id":70,"title":"Мы - Миллеры","kp_id":"582170","imdb_id":"tt1723121","world_art_id":null,"type":"movie","add":"2016-02-08 14:31:03","orig_title":"We're the Millers","year":"2013-08-03","translations":["Авторский (одноголосый закадровый) (Есарев Дмитрий)","Авторский (одноголосый закадровый) (Карповский Антон)","[EN] Original (English)","Профессиональный (многоголосый закадровый) (BaibaKo)"],"quality":"bd","translation":"Авторский (одноголосый закадровый) (Есарев Дмитрий)","update":"2022-03-18 14:15:38","iframe_src":"//8944266443434.svetacdn.in/PfJ50H0ZBPg3/movie/70"}],"current_page":183,"first_page_url":"https://videocdn.tv/api/short?limit=100&api_token=RgFQdUIR2dRmwv8iYa5SnFNgnw3vpjKj&cache3183=3183&page=1","from":18201,"last_page":728,"last_page_url":"https://videocdn.tv/api/short?limit=100&api_token=RgFQdUIR2dRmwv8iYa5SnFNgnw3vpjKj&cache3183=3183&page=728","next_page_url":"https://videocdn.tv/api/short?limit=100&api_token=RgFQdUIR2dRmwv8iYa5SnFNgnw3vpjKj&cache3183=3183&page=184","path":"https://videocdn.tv/api/short","per_page":100,"prev_page_url":"https://videocdn.tv/api/short?limit=100&api_token=RgFQdUIR2dRmwv8iYa5SnFNgnw3vpjKj&cache3183=3183&page=182","to":18240,"total":72780}