{"result":true,"data":[{"id":30571,"title":"Наш дом","kp_id":"1111724","imdb_id":"tt7797250","world_art_id":null,"type":"movie","add":"2019-09-04 21:15:15","orig_title":"Watashitachi no ie","year":"2017-09-16","translations":["Любительский (многоголосый закадровый) (Синема УС)"],"quality":"webdl","translation":"Любительский (многоголосый закадровый) (Синема УС)","update":"2019-09-05 05:25:26","iframe_src":"//8422.svetacdn.in/si4jsFRrtgrT/movie/30571"},{"id":30570,"title":"Истории из парилки: В кино","kp_id":"1165279","imdb_id":"tt8483220","world_art_id":null,"type":"movie","add":"2019-09-04 21:12:00","orig_title":"Steam Room Stories: The Movie!","year":"2019-03-29","translations":["Любительский (многоголосый закадровый) (Синема УС)"],"quality":"webdl","translation":"Любительский (многоголосый закадровый) (Синема УС)","update":"2019-09-05 05:26:49","iframe_src":"//8422.svetacdn.in/si4jsFRrtgrT/movie/30570"},{"id":30568,"title":"Память: Рождение Чужого","kp_id":"1191274","imdb_id":"tt8974964","world_art_id":null,"type":"movie","add":"2019-09-04 21:09:18","orig_title":"Memory: The Origins of Alien","year":"2019-01-24","translations":["Любительский (многоголосый закадровый) (Синема УС)"],"quality":"webdl","translation":"Любительский (многоголосый закадровый) (Синема УС)","update":"2019-09-05 05:32:59","iframe_src":"//8422.svetacdn.in/si4jsFRrtgrT/movie/30568"},{"id":30567,"title":"Чокнутый","kp_id":"81707","imdb_id":"tt0412637","world_art_id":null,"type":"movie","add":"2019-09-04 20:55:50","orig_title":"Delirious","year":"2006-09-26","translations":["Профессиональный (многоголосый закадровый)"],"quality":"webdl","translation":"Профессиональный (многоголосый закадровый)","update":"2019-09-05 05:35:57","iframe_src":"//8422.svetacdn.in/si4jsFRrtgrT/movie/30567"},{"id":30566,"title":"Темные времена","kp_id":"52762","imdb_id":"tt0092830","world_art_id":null,"type":"movie","add":"2019-09-04 20:54:21","orig_title":"Dark Age","year":"1987-05-21","translations":["Авторский (одноголосый закадровый) (Живов Юрий)"],"quality":"bd","translation":"Авторский (одноголосый закадровый) (Живов Юрий)","update":"2019-09-05 05:36:38","iframe_src":"//8422.svetacdn.in/si4jsFRrtgrT/movie/30566"},{"id":30565,"title":"Вера в себя 2. Возвращение домой","kp_id":"1182108","imdb_id":"tt6998390","world_art_id":null,"type":"movie","add":"2019-09-04 20:52:55","orig_title":"Catching Faith 2","year":"2019-01-01","translations":["Любительский (многоголосый закадровый) (Синема УС)"],"quality":"webdl","translation":"Любительский (многоголосый закадровый) (Синема УС)","update":"2019-09-05 05:38:17","iframe_src":"//8422.svetacdn.in/si4jsFRrtgrT/movie/30565"},{"id":30562,"title":"Скорпион: Песня ненависти №701","kp_id":"123108","imdb_id":"tt0226873","world_art_id":null,"type":"movie","add":"2019-09-04 20:46:54","orig_title":"Joshû sasori: 701-gô urami-bushi","year":"1973-12-29","translations":["Любительский (одноголосый закадровый) (Воротилин Олег)"],"quality":"bd","translation":"Любительский (одноголосый закадровый) (Воротилин Олег)","update":"2019-09-05 05:44:14","iframe_src":"//8422.svetacdn.in/si4jsFRrtgrT/movie/30562"},{"id":30554,"title":"Потомки Хон Гиль-дона","kp_id":"707627","imdb_id":"tt3243196","world_art_id":null,"type":"movie","add":"2019-09-04 18:01:50","orig_title":"The Righteous Thief","year":"2009-11-26","translations":["Любительский (одноголосый закадровый)"],"quality":"dvdrip","translation":"Любительский (одноголосый закадровый)","update":"2019-09-05 05:45:37","iframe_src":"//8422.svetacdn.in/si4jsFRrtgrT/movie/30554"},{"id":30544,"title":"Скорпион: Клетка для зверя","kp_id":"119353","imdb_id":"tt0226875","world_art_id":null,"type":"movie","add":"2019-09-03 21:28:30","orig_title":"Joshuu sasori: Kemono-beya","year":"1973-07-29","translations":["Любительский (одноголосый закадровый) (den904)"],"quality":"unknown","translation":"Любительский (одноголосый закадровый) (den904)","update":"2019-09-04 09:45:40","iframe_src":"//8422.svetacdn.in/si4jsFRrtgrT/movie/30544"},{"id":30531,"title":"Холостяк","kp_id":"1193071","imdb_id":"tt8983218","world_art_id":null,"type":"movie","add":"2019-09-03 20:36:33","orig_title":"Shadaa","year":"2019-06-21","translations":["Любительский (многоголосый закадровый) (Синема УС)"],"quality":"webdl","translation":"Любительский (многоголосый закадровый) (Синема УС)","update":"2019-09-04 09:57:08","iframe_src":"//8422.svetacdn.in/si4jsFRrtgrT/movie/30531"},{"id":30529,"title":"Развод по-итальянски","kp_id":"57000","imdb_id":"tt0055913","world_art_id":null,"type":"movie","add":"2019-09-03 18:33:43","orig_title":"Divorzio all'italiana","year":"1961-12-20","translations":["Полное дублирование"],"quality":"bd","translation":"Полное дублирование","update":"2019-09-04 11:39:55","iframe_src":"//8422.svetacdn.in/si4jsFRrtgrT/movie/30529"},{"id":30528,"title":"Второй трагический Фантоцци","kp_id":"103356","imdb_id":"tt0075178","world_art_id":null,"type":"movie","add":"2019-09-03 18:30:09","orig_title":"Il secondo tragico Fantozzi","year":"1976-04-10","translations":["Профессиональный (многоголосый закадровый)"],"quality":"dvdrip","translation":"Профессиональный (многоголосый закадровый)","update":"2019-09-04 11:39:54","iframe_src":"//8422.svetacdn.in/si4jsFRrtgrT/movie/30528"},{"id":30527,"title":"Замужем за мафией 2","kp_id":"225261","imdb_id":"tt0479669","world_art_id":null,"type":"movie","add":"2019-09-03 18:25:56","orig_title":"Gamunui wigi: Gamunui yeonggwang 2","year":"2005-09-08","translations":["Любительский (одноголосый закадровый) (den904)"],"quality":"dvdrip","translation":"Любительский (одноголосый закадровый) (den904)","update":"2019-09-04 11:39:59","iframe_src":"//8422.svetacdn.in/si4jsFRrtgrT/movie/30527"},{"id":30526,"title":"Рожденные в 68-м","kp_id":"402204","imdb_id":"tt1160015","world_art_id":null,"type":"movie","add":"2019-09-03 18:19:12","orig_title":"Nés en 68","year":"2008-05-21","translations":["Профессиональный (многоголосый закадровый)"],"quality":"dvdrip","translation":"Профессиональный (многоголосый закадровый)","update":"2019-09-04 11:40:02","iframe_src":"//8422.svetacdn.in/si4jsFRrtgrT/movie/30526"},{"id":30523,"title":"Любовь на льду","kp_id":"1008989","imdb_id":"tt6319714","world_art_id":null,"type":"movie","add":"2019-09-03 15:54:32","orig_title":"Love on Ice","year":"2017-01-07","translations":["Любительский (многоголосый закадровый) (Синема УС)"],"quality":"webdl","translation":"Любительский (многоголосый закадровый) (Синема УС)","update":"2019-09-04 12:53:14","iframe_src":"//8422.svetacdn.in/si4jsFRrtgrT/movie/30523"},{"id":30471,"title":"Кастинг","kp_id":"1114853","imdb_id":"tt8174446","world_art_id":null,"type":"movie","add":"2019-09-01 20:53:02","orig_title":"Kasting","year":"2018-04-12","translations":["Оригинальная дорожка"],"quality":"webdl","translation":"Оригинальная дорожка","update":"2019-09-04 10:01:18","iframe_src":"//8422.svetacdn.in/si4jsFRrtgrT/movie/30471"},{"id":30448,"title":"Гаджьо","kp_id":"841734","imdb_id":null,"world_art_id":null,"type":"movie","add":"2019-09-01 18:17:00","orig_title":"Гаджьо","year":"2014-08-23","translations":["Оригинальная дорожка"],"quality":"webdl","translation":"Оригинальная дорожка","update":"2019-09-04 10:00:12","iframe_src":"//8422.svetacdn.in/si4jsFRrtgrT/movie/30448"},{"id":21151,"title":"Бабба Хо-Теп","kp_id":"2900","imdb_id":"tt0281686","world_art_id":null,"type":"movie","add":"2019-01-01 18:41:19","orig_title":"Bubba Ho-Tep","year":"2002-06-09","translations":["Профессиональный (многоголосый закадровый) (Paradox & Omskbird records)","Авторский (одноголосый закадровый) (Яроцкий Михаил | Kyberpunk)","Авторский (одноголосый закадровый) (Сербин Юрий)"],"quality":"bd","translation":"Профессиональный (многоголосый закадровый) (Paradox & Omskbird records)","update":"2019-09-04 09:56:17","iframe_src":"//8422.svetacdn.in/si4jsFRrtgrT/movie/21151"},{"id":7869,"title":"Сорокалетний девственник","kp_id":"81976","imdb_id":"tt0405422","world_art_id":null,"type":"movie","add":"2016-12-05 14:04:35","orig_title":"The 40 Year Old Virgin","year":"2005-08-11","translations":["Полное дублирование"],"quality":"bd","translation":"Полное дублирование","update":"2019-09-05 05:47:26","iframe_src":"//8422.svetacdn.in/si4jsFRrtgrT/movie/7869"},{"id":1632,"title":"База «Клейтон»","kp_id":"4572","imdb_id":"tt0264395","world_art_id":null,"type":"movie","add":"2016-04-24 16:15:16","orig_title":"Basic","year":"2003-03-28","translations":["Полное дублирование","Авторский (одноголосый закадровый) (Гаевский Евгений)"],"quality":"bd","translation":"Полное дублирование","update":"2019-09-05 05:41:32","iframe_src":"//8422.svetacdn.in/si4jsFRrtgrT/movie/1632"}],"current_page":1445,"first_page_url":"https://videocdn.tv/api/short?limit=100&api_token=X6EwAUfE5M9xbo7y0Bp0aPf3uXxG2KLL&cache31445=31445&page=1","from":144401,"last_page":679,"last_page_url":"https://videocdn.tv/api/short?limit=100&api_token=X6EwAUfE5M9xbo7y0Bp0aPf3uXxG2KLL&cache31445=31445&page=679","next_page_url":null,"path":"https://videocdn.tv/api/short","per_page":100,"prev_page_url":"https://videocdn.tv/api/short?limit=100&api_token=X6EwAUfE5M9xbo7y0Bp0aPf3uXxG2KLL&cache31445=31445&page=1444","to":144420,"total":67847}