{"result":true,"data":[{"id":42914,"title":"Брок: на пределе","kp_id":"1347266","imdb_id":"tt12525356","world_art_id":null,"type":"movie","add":"2020-08-29 15:29:12","orig_title":"Brock: Over the Top","year":"2020-01-01","translations":["Любительский (многоголосый закадровый) (Синема УС)"],"quality":"webdl","translation":"Любительский (многоголосый закадровый) (Синема УС)","update":"2020-08-30 03:26:32","iframe_src":"//8543.svetacdn.in/si4jsFRrtgrT/movie/42914"},{"id":42909,"title":"Счастливое лицо","kp_id":null,"imdb_id":"tt6470028","world_art_id":null,"type":"movie","add":"2020-08-29 14:53:45","orig_title":"Happy Face","year":"2018-10-06","translations":["Любительский (многоголосый закадровый) (Синема УС)"],"quality":"webdl","translation":"Любительский (многоголосый закадровый) (Синема УС)","update":"2020-08-30 03:25:22","iframe_src":"//8543.svetacdn.in/si4jsFRrtgrT/movie/42909"},{"id":42904,"title":"Перед тем, как мы взорвёмся","kp_id":"1240731","imdb_id":"tt9825006","world_art_id":null,"type":"movie","add":"2020-08-29 06:24:30","orig_title":"Avant qu'on explose","year":"2019-02-28","translations":["Любительский (многоголосый закадровый) (Синема УС)"],"quality":"webdl","translation":"Любительский (многоголосый закадровый) (Синема УС)","update":"2020-08-29 16:57:35","iframe_src":"//8543.svetacdn.in/si4jsFRrtgrT/movie/42904"},{"id":42902,"title":"Человек без лица","kp_id":"1136744","imdb_id":"tt8228290","world_art_id":null,"type":"movie","add":"2020-08-29 06:22:23","orig_title":"The Faceless Man","year":"2019-10-12","translations":["Любительский (многоголосый закадровый) (Синема УС)"],"quality":"webdl","translation":"Любительский (многоголосый закадровый) (Синема УС)","update":"2020-08-29 16:56:43","iframe_src":"//8543.svetacdn.in/si4jsFRrtgrT/movie/42902"},{"id":42901,"title":"Женская доля","kp_id":"1369149","imdb_id":"tt12135398","world_art_id":null,"type":"movie","add":"2020-08-29 06:21:11","orig_title":"Wie die Frauen so ticken","year":"2020-02-26","translations":["Любительский (многоголосый закадровый) (Синема УС)"],"quality":"webdl","translation":"Любительский (многоголосый закадровый) (Синема УС)","update":"2020-08-29 16:56:08","iframe_src":"//8543.svetacdn.in/si4jsFRrtgrT/movie/42901"},{"id":42900,"title":"Я — женщина","kp_id":"1211319","imdb_id":"tt9185316","world_art_id":null,"type":"movie","add":"2020-08-28 20:28:31","orig_title":"I Am Woman","year":"2019-05-21","translations":["Любительский (многоголосый закадровый) (@MUZOBOZ@)"],"quality":"webdl","translation":"Любительский (многоголосый закадровый) (@MUZOBOZ@)","update":"2020-08-29 07:01:16","iframe_src":"//8543.svetacdn.in/si4jsFRrtgrT/movie/42900"},{"id":42851,"title":"Затерянное болото","kp_id":"1127341","imdb_id":"tt7974156","world_art_id":null,"type":"movie","add":"2020-08-27 20:56:38","orig_title":"Lost Bayou","year":"2019-04-25","translations":["Любительский (многоголосый закадровый) (Синема УС)"],"quality":"webdl","translation":"Любительский (многоголосый закадровый) (Синема УС)","update":"2020-08-28 14:03:45","iframe_src":"//8543.svetacdn.in/si4jsFRrtgrT/movie/42851"},{"id":42850,"title":"Беги, мальчик, беги","kp_id":"1378996","imdb_id":null,"world_art_id":null,"type":"movie","add":"2020-08-27 20:54:55","orig_title":"Reon boi reon","year":"2020-05-28","translations":["Любительский (двухголосый закадровый) (Колобок)"],"quality":"webdl","translation":"Любительский (двухголосый закадровый) (Колобок)","update":"2020-08-28 14:05:00","iframe_src":"//8543.svetacdn.in/si4jsFRrtgrT/movie/42850"},{"id":42848,"title":"Фатальный план","kp_id":"1163694","imdb_id":"tt8559390","world_art_id":null,"type":"movie","add":"2020-08-27 20:39:53","orig_title":"Tödliches Erwachen","year":"2019-06-28","translations":["Любительский (многоголосый закадровый) (Синема УС)"],"quality":"webdl","translation":"Любительский (многоголосый закадровый) (Синема УС)","update":"2020-08-28 14:05:51","iframe_src":"//8543.svetacdn.in/si4jsFRrtgrT/movie/42848"},{"id":42840,"title":"Роза Люксембург","kp_id":"25139","imdb_id":"tt0091869","world_art_id":null,"type":"movie","add":"2020-08-27 17:31:26","orig_title":"Rosa Luxemburg","year":"1986-04-10","translations":["Профессиональный (многоголосый закадровый)"],"quality":"bd","translation":"Профессиональный (многоголосый закадровый)","update":"2020-08-28 13:43:05","iframe_src":"//8543.svetacdn.in/si4jsFRrtgrT/movie/42840"},{"id":42837,"title":"Приключения пингвиненка Лоло. Фильм третий","kp_id":"581963","imdb_id":"tt8519056","world_art_id":null,"type":"movie","add":"2020-08-27 17:29:12","orig_title":"Priklyucheniya pingvinenka Lolo. Film tretiy","year":"1987-01-02","translations":["Оригинальная дорожка"],"quality":"webdl","translation":"Оригинальная дорожка","update":"2020-08-28 13:41:29","iframe_src":"//8543.svetacdn.in/si4jsFRrtgrT/movie/42837"},{"id":42712,"title":"Русалка в Париже","kp_id":"1215728","imdb_id":"tt9209312","world_art_id":null,"type":"movie","add":"2020-08-24 04:13:21","orig_title":"Une sirène à Paris","year":"2020-03-04","translations":["Любительский (многоголосый закадровый) (@MUZOBOZ@)","Полное дублирование (iTunes)"],"quality":"webdl","translation":"Любительский (многоголосый закадровый) (@MUZOBOZ@)","update":"2020-08-29 16:58:08","iframe_src":"//8543.svetacdn.in/si4jsFRrtgrT/movie/42712"},{"id":3465,"title":"Лишь ты","kp_id":"793569","imdb_id":"tt3076512","world_art_id":null,"type":"serial","add":"2018-11-07 23:29:41","orig_title":"Chiu shih yao ni ai shang wo","year":"2013-06-21","translations":["Любительский (многоголосый закадровый)"],"seasons_count":1,"episodes_count":21,"episodes":21,"update":"2018-11-08 07:28:01","iframe_src":"//8543.svetacdn.in/si4jsFRrtgrT/tv-series/3465"},{"id":3464,"title":"Набросок","kp_id":"1100381","imdb_id":"tt8269322","world_art_id":null,"type":"serial","add":"2018-11-07 09:17:26","orig_title":"Seukechi","year":"2018-05-25","translations":["Любительский (одноголосый закадровый)"],"seasons_count":1,"episodes_count":16,"episodes":16,"update":"2018-11-08 08:01:43","iframe_src":"//8543.svetacdn.in/si4jsFRrtgrT/tv-series/3464"},{"id":3463,"title":"Маруся","kp_id":"1204207","imdb_id":null,"world_art_id":null,"type":"serial","add":"2018-11-07 09:13:56","orig_title":"Маруся","year":"2018-11-03","translations":["Оригинальная дорожка"],"seasons_count":1,"episodes_count":2,"episodes":2,"update":"2018-11-08 08:16:02","iframe_src":"//8543.svetacdn.in/si4jsFRrtgrT/tv-series/3463"},{"id":3456,"title":"Информатор","kp_id":null,"imdb_id":"tt7161312","world_art_id":null,"type":"serial","add":"2018-11-07 06:09:57","orig_title":"Informer","year":"2018-10-16","translations":["Профессиональный (многоголосый закадровый) (NewStudio)"],"seasons_count":1,"episodes_count":6,"episodes":6,"update":"2018-11-07 10:51:59","iframe_src":"//8543.svetacdn.in/si4jsFRrtgrT/tv-series/3456"},{"id":3452,"title":"Операция «Любовь»","kp_id":"401448","imdb_id":"tt0978140","world_art_id":null,"type":"serial","add":"2018-11-06 08:24:16","orig_title":"Puropôzu dai sakusen","year":"2007-04-16","translations":["Любительский (одноголосый закадровый) (GREEN TEA)"],"seasons_count":1,"episodes_count":12,"episodes":12,"update":"2018-11-07 09:45:42","iframe_src":"//8543.svetacdn.in/si4jsFRrtgrT/tv-series/3452"},{"id":3451,"title":"Возвращение","kp_id":"401529","imdb_id":"tt0434672","world_art_id":null,"type":"serial","add":"2018-11-06 07:07:26","orig_title":"The Comeback","year":"2005-06-05","translations":["Любительский (двухголосый закадровый) (GoldTeam)"],"seasons_count":1,"episodes_count":7,"episodes":7,"update":"2018-11-07 09:58:37","iframe_src":"//8543.svetacdn.in/si4jsFRrtgrT/tv-series/3451"},{"id":3448,"title":"Мыслить как преступник","kp_id":"1033099","imdb_id":"tt6568694","world_art_id":null,"type":"serial","add":"2018-11-05 16:21:16","orig_title":"keu-li-mi-neol Ma-in-deu","year":"2017-07-26","translations":["Любительский (двухголосый закадровый) (SoftBox)"],"seasons_count":1,"episodes_count":20,"episodes":20,"update":"2018-11-07 15:17:36","iframe_src":"//8543.svetacdn.in/si4jsFRrtgrT/tv-series/3448"},{"id":3447,"title":"Поколение девчонок 1979","kp_id":"1047591","imdb_id":"tt7278498","world_art_id":null,"type":"serial","add":"2018-11-05 13:10:38","orig_title":"Lanjeri Sonyeosidae","year":"2017-09-11","translations":["Любительский (двухголосый закадровый) (SoftBox)"],"seasons_count":1,"episodes_count":8,"episodes":8,"update":"2018-11-06 09:07:30","iframe_src":"//8543.svetacdn.in/si4jsFRrtgrT/tv-series/3447"},{"id":3446,"title":"Нечаянно 18","kp_id":"1047858","imdb_id":"tt7278424","world_art_id":null,"type":"serial","add":"2018-11-05 13:06:34","orig_title":"Eojjeoda 18","year":"2017-08-28","translations":["Любительский (двухголосый закадровый) (SoftBox)"],"seasons_count":1,"episodes_count":10,"episodes":10,"update":"2018-11-06 09:17:00","iframe_src":"//8543.svetacdn.in/si4jsFRrtgrT/tv-series/3446"},{"id":3444,"title":"Люк","kp_id":"1045824","imdb_id":"tt7094904","world_art_id":null,"type":"serial","add":"2018-11-05 12:59:27","orig_title":"Maenhol","year":"2017-08-09","translations":["Любительский (двухголосый закадровый) (SoftBox)"],"seasons_count":1,"episodes_count":16,"episodes":16,"update":"2018-11-06 12:16:04","iframe_src":"//8543.svetacdn.in/si4jsFRrtgrT/tv-series/3444"},{"id":3443,"title":"Операция «Любовь»","kp_id":"686561","imdb_id":"tt3211128","world_art_id":null,"type":"serial","add":"2018-11-05 11:50:32","orig_title":"Operation Proposal","year":"2012-02-07","translations":["Любительский (двухголосый закадровый) (STEPonee)"],"seasons_count":1,"episodes_count":16,"episodes":16,"update":"2018-11-06 07:40:22","iframe_src":"//8543.svetacdn.in/si4jsFRrtgrT/tv-series/3443"},{"id":3440,"title":"Безумный художник","kp_id":"1048289","imdb_id":null,"world_art_id":null,"type":"serial","add":"2018-11-03 00:39:45","orig_title":"U-Prince: The Crazy Artist","year":"2017-04-09","translations":["Любительский (двухголосый закадровый) (HighHopes)"],"seasons_count":1,"episodes_count":4,"episodes":4,"update":"2018-11-05 12:52:48","iframe_src":"//8543.svetacdn.in/si4jsFRrtgrT/tv-series/3440"},{"id":3362,"title":"46 исчезнувших","kp_id":"975293","imdb_id":"tt5606154","world_art_id":null,"type":"serial","add":"2018-10-23 09:04:08","orig_title":"46 Yok Olan","year":"2016-03-27","translations":["Профессиональный (двухголосый закадровый) (ViruseProject)"],"seasons_count":1,"episodes_count":8,"episodes":8,"update":"2018-11-07 23:19:16","iframe_src":"//8543.svetacdn.in/si4jsFRrtgrT/tv-series/3362"},{"id":3279,"title":"Гаджет и Гаджетины","kp_id":"229816","imdb_id":"tt0387741","world_art_id":null,"type":"serial","add":"2018-10-10 18:58:28","orig_title":"Gadget and the Gadgetinis","year":"2003-08-18","translations":["Полное дублирование"],"seasons_count":2,"episodes_count":52,"episodes":26,"update":"2018-11-07 16:08:43","iframe_src":"//8543.svetacdn.in/si4jsFRrtgrT/tv-series/3279"},{"id":3166,"title":"Восход Черной Земли","kp_id":"1108994","imdb_id":"tt7660730","world_art_id":null,"type":"serial","add":"2018-09-14 09:51:51","orig_title":"Black Earth Rising","year":"2018-09-10","translations":["Любительский (двухголосый закадровый) (Sunshine Studio)","Профессиональный (многоголосый закадровый) (NewStudio)"],"seasons_count":1,"episodes_count":8,"episodes":8,"update":"2018-11-06 06:45:24","iframe_src":"//8543.svetacdn.in/si4jsFRrtgrT/tv-series/3166"},{"id":2973,"title":"Время","kp_id":"1118099","imdb_id":"tt8487682","world_art_id":null,"type":"serial","add":"2018-07-28 10:00:54","orig_title":"Shigan","year":"2018-07-25","translations":["Любительский (двухголосый закадровый) (SoftBox)","Любительский (двухголосый закадровый)"],"seasons_count":1,"episodes_count":16,"episodes":16,"update":"2018-11-08 08:21:11","iframe_src":"//8543.svetacdn.in/si4jsFRrtgrT/tv-series/2973"},{"id":17858,"title":"Судная ночь. Начало","kp_id":"1021671","imdb_id":"tt6133466","world_art_id":null,"type":"movie","add":"2018-07-23 22:57:48","orig_title":"The First Purge","year":"2018-07-04","translations":["Полное дублирование","Профессиональный (многоголосый закадровый) (HDrezka Studio)"],"quality":"bd","translation":"Полное дублирование","update":"2020-08-29 06:36:52","iframe_src":"//8543.svetacdn.in/si4jsFRrtgrT/movie/17858"},{"id":2902,"title":"Мистер Солнечный Свет","kp_id":"1045501","imdb_id":"tt7094780","world_art_id":null,"type":"serial","add":"2018-07-09 15:57:09","orig_title":"Miseuteo Shunshain","year":"2018-07-07","translations":["Любительский (двухголосый закадровый) (SoftBox)","Любительский (двухголосый закадровый) (Sunshine Studio)"],"seasons_count":1,"episodes_count":24,"episodes":24,"update":"2018-11-08 08:22:39","iframe_src":"//8543.svetacdn.in/si4jsFRrtgrT/tv-series/2902"},{"id":2834,"title":"Жизнь на Марсе","kp_id":"1112104","imdb_id":"tt8236544","world_art_id":null,"type":"serial","add":"2018-06-18 08:37:39","orig_title":"La-i-peu on Ma-seu","year":"2018-06-09","translations":["Любительский (двухголосый закадровый) (SoftBox)","Любительский (многоголосый закадровый) (XDUB Dorama + Колобок)"],"seasons_count":1,"episodes_count":16,"episodes":16,"update":"2018-11-07 12:25:58","iframe_src":"//8543.svetacdn.in/si4jsFRrtgrT/tv-series/2834"},{"id":15966,"title":"Титан","kp_id":"930555","imdb_id":"tt4986098","world_art_id":null,"type":"movie","add":"2018-04-01 21:09:05","orig_title":"The Titan","year":"2018-02-03","translations":["Профессиональный (многоголосый закадровый)","Профессиональный (многоголосый закадровый) (HDrezka Studio)","Любительский (двухголосый закадровый) (HiWayGrope)","Любительский (многоголосый закадровый) (GreenРай Studio)","Профессиональный (многоголосый закадровый) (NewStudio)","Полное дублирование","Профессиональный (многоголосый закадровый) (Jaskier)","Original (English)","Профессиональный (многоголосый закадровый) (HDrezka Studio)"],"quality":"webdl","translation":"Профессиональный (многоголосый закадровый)","update":"2020-08-29 06:36:16","iframe_src":"//8543.svetacdn.in/si4jsFRrtgrT/movie/15966"},{"id":15747,"title":"10 на 10","kp_id":"1008203","imdb_id":"tt6210996","world_art_id":null,"type":"movie","add":"2018-03-20 05:17:56","orig_title":"10x10","year":"2018-04-13","translations":["Любительский (многоголосый закадровый) (Синема УС)","Профессиональный (многоголосый закадровый) (HDrezka Studio)","Полное дублирование","Original (English)","Профессиональный (многоголосый закадровый) (HDrezka Studio)"],"quality":"webdl","translation":"Любительский (многоголосый закадровый) (Синема УС)","update":"2020-08-29 16:27:37","iframe_src":"//8543.svetacdn.in/si4jsFRrtgrT/movie/15747"},{"id":2175,"title":"Голос","kp_id":"1008085","imdb_id":"tt6212854","world_art_id":null,"type":"serial","add":"2018-03-04 21:09:04","orig_title":"Boiseu","year":"2017-01-07","translations":["Любительский (двухголосый закадровый) (XDUB Dorama)","Любительский (двухголосый закадровый) (Храм Дорам ТВ)","Любительский (двухголосый закадровый) (JoyStudio)"],"seasons_count":2,"episodes_count":28,"episodes":12,"update":"2018-11-05 12:47:57","iframe_src":"//8543.svetacdn.in/si4jsFRrtgrT/tv-series/2175"},{"id":15145,"title":"Когда мы познакомились","kp_id":"986486","imdb_id":"tt5783956","world_art_id":null,"type":"movie","add":"2018-02-11 09:25:50","orig_title":"When We First Met","year":"2018-02-09","translations":["Любительский (многоголосый закадровый) (Синема УС)","Профессиональный (многоголосый закадровый) (HDrezka Studio)","Профессиональный (многоголосый закадровый) (GreenРай Studio)","Профессиональный (многоголосый закадровый) (Jaskier)","Профессиональный (многоголосый закадровый) (HDrezka Studio)"],"quality":"webdl","translation":"Любительский (многоголосый закадровый) (Синема УС)","update":"2020-08-29 06:35:50","iframe_src":"//8543.svetacdn.in/si4jsFRrtgrT/movie/15145"},{"id":14904,"title":"Секретное досье","kp_id":"1040567","imdb_id":"tt6294822","world_art_id":null,"type":"movie","add":"2018-01-16 22:59:38","orig_title":"The Post","year":"2017-12-22","translations":["Полное дублирование","Профессиональный (многоголосый закадровый) (HDrezka Studio)","Original (English)","Профессиональный (многоголосый закадровый) (HDrezka Studio)"],"quality":"bd","translation":"Полное дублирование","update":"2020-08-29 06:35:05","iframe_src":"//8543.svetacdn.in/si4jsFRrtgrT/movie/14904"},{"id":14848,"title":"Спасибо за вашу службу","kp_id":"755941","imdb_id":"tt2776878","world_art_id":null,"type":"movie","add":"2018-01-10 22:02:55","orig_title":"Thank You for Your Service","year":"2017-10-15","translations":["Любительский (многоголосый закадровый) (@MUZOBOZ@)","Профессиональный (многоголосый закадровый) (GreenРай Studio)","Профессиональный (многоголосый закадровый) (HDrezka Studio)","Профессиональный (многоголосый закадровый)","Профессиональный (многоголосый закадровый) (HDrezka Studio)"],"quality":"bd","translation":"Любительский (многоголосый закадровый) (@MUZOBOZ@)","update":"2020-08-29 16:26:29","iframe_src":"//8543.svetacdn.in/si4jsFRrtgrT/movie/14848"},{"id":14818,"title":"Странные","kp_id":"1005248","imdb_id":"tt6014904","world_art_id":null,"type":"movie","add":"2018-01-08 06:58:42","orig_title":"The Strange Ones","year":"2017-03-11","translations":["Любительский (многоголосый закадровый) (Синема УС)","Профессиональный (многоголосый закадровый) (HDrezka Studio)"],"quality":"webdl","translation":"Любительский (многоголосый закадровый) (Синема УС)","update":"2020-08-29 11:31:19","iframe_src":"//8543.svetacdn.in/si4jsFRrtgrT/movie/14818"},{"id":13959,"title":"Единственный живой парень в Нью-Йорке","kp_id":"215682","imdb_id":"tt0460890","world_art_id":null,"type":"movie","add":"2017-10-22 20:08:43","orig_title":"The Only Living Boy in New York","year":"2017-07-27","translations":["Профессиональный (многоголосый закадровый) (GreenРай Studio)","Любительский (многоголосый закадровый) (@MUZOBOZ@)","Профессиональный (многоголосый закадровый) (HDrezka Studio)","Original (English)","Профессиональный (многоголосый закадровый) (HDrezka Studio)"],"quality":"webdl","translation":"Профессиональный (многоголосый закадровый) (GreenРай Studio)","update":"2020-08-29 06:35:32","iframe_src":"//8543.svetacdn.in/si4jsFRrtgrT/movie/13959"},{"id":1596,"title":"София Прекрасная","kp_id":"740886","imdb_id":"tt2136138","world_art_id":null,"type":"serial","add":"2017-10-04 06:34:46","orig_title":"Sofia the First","year":"2013-01-11","translations":["Полное дублирование"],"seasons_count":4,"episodes_count":106,"episodes":25,"update":"2018-11-07 08:24:37","iframe_src":"//8543.svetacdn.in/si4jsFRrtgrT/tv-series/1596"}],"current_page":379,"first_page_url":"https://videocdn.tv/api/short?limit=100&api_token=X6EwAUfE5M9xbo7y0Bp0aPf3uXxG2KLL&cache3379=3379&page=1","from":37801,"last_page":602,"last_page_url":"https://videocdn.tv/api/short?limit=100&api_token=X6EwAUfE5M9xbo7y0Bp0aPf3uXxG2KLL&cache3379=3379&page=602","next_page_url":"https://videocdn.tv/api/short?limit=100&api_token=X6EwAUfE5M9xbo7y0Bp0aPf3uXxG2KLL&cache3379=3379&page=380","path":"https://videocdn.tv/api/short","per_page":100,"prev_page_url":"https://videocdn.tv/api/short?limit=100&api_token=X6EwAUfE5M9xbo7y0Bp0aPf3uXxG2KLL&cache3379=3379&page=378","to":37840,"total":60177}