{"result":true,"data":[{"id":27098,"title":"Киндер-Вилейское привидение","kp_id":"668615","imdb_id":"tt2258421","world_art_id":null,"type":"movie","add":"2019-05-26 19:47:28","orig_title":"Kinder-Vileyskoe prividenie","year":"2014-03-24","translations":["Оригинальная дорожка"],"quality":"dvb","translation":"Оригинальная дорожка","update":"2019-05-27 17:18:05","iframe_src":"//7720.svetacdn.in/71tsRs29n5tZ/movie/27098"},{"id":27074,"title":"Три девушки","kp_id":"265610","imdb_id":"tt0824276","world_art_id":null,"type":"movie","add":"2019-05-26 18:02:59","orig_title":"3 Girls","year":"2007-04-08","translations":["Оригинальная дорожка"],"quality":"hdtv","translation":"Оригинальная дорожка","update":"2019-05-27 17:17:10","iframe_src":"//7720.svetacdn.in/71tsRs29n5tZ/movie/27074"},{"id":27072,"title":"Бросок","kp_id":"46229","imdb_id":"tt0231299","world_art_id":null,"type":"movie","add":"2019-05-26 16:56:03","orig_title":"Brosok","year":"1981-01-01","translations":["Оригинальная дорожка"],"quality":"sat","translation":"Оригинальная дорожка","update":"2019-05-27 17:14:47","iframe_src":"//7720.svetacdn.in/71tsRs29n5tZ/movie/27072"},{"id":27071,"title":"Будь счастлива, Юлия!","kp_id":"46232","imdb_id":"tt0266368","world_art_id":null,"type":"movie","add":"2019-05-26 16:47:07","orig_title":"Bud schastliva, Yuliya","year":"1983-01-01","translations":["Оригинальная дорожка"],"quality":"sat","translation":"Оригинальная дорожка","update":"2019-05-27 17:14:08","iframe_src":"//7720.svetacdn.in/71tsRs29n5tZ/movie/27071"},{"id":27070,"title":"Цирк зажигает огни","kp_id":"81477","imdb_id":"tt0274172","world_art_id":null,"type":"movie","add":"2019-05-26 16:42:08","orig_title":"Tsirk zazhigayet ogni","year":"1973-01-01","translations":["Оригинальная дорожка"],"quality":"dvdrip","translation":"Оригинальная дорожка","update":"2019-05-27 17:34:07","iframe_src":"//7720.svetacdn.in/71tsRs29n5tZ/movie/27070"},{"id":27069,"title":"Дочки-матери","kp_id":"44244","imdb_id":"tt0071428","world_art_id":null,"type":"movie","add":"2019-05-26 16:38:22","orig_title":"Dochki-materi","year":"1975-03-27","translations":["Оригинальная дорожка"],"quality":"hdtv","translation":"Оригинальная дорожка","update":"2019-05-27 17:11:38","iframe_src":"//7720.svetacdn.in/71tsRs29n5tZ/movie/27069"},{"id":27068,"title":"Дом на Английской набережной","kp_id":"470915","imdb_id":null,"world_art_id":null,"type":"movie","add":"2019-05-26 16:34:35","orig_title":"Дом на Английской набережной","year":"2007-08-15","translations":["Оригинальная дорожка"],"quality":"sat","translation":"Оригинальная дорожка","update":"2019-05-27 17:09:52","iframe_src":"//7720.svetacdn.in/71tsRs29n5tZ/movie/27068"},{"id":27067,"title":"Два долгих гудка в тумане","kp_id":"44331","imdb_id":"tt0182056","world_art_id":null,"type":"movie","add":"2019-05-26 16:29:51","orig_title":"Dva dolgikh gudka v tumane","year":"1981-07-20","translations":["Оригинальная дорожка"],"quality":"dvdrip","translation":"Оригинальная дорожка","update":"2019-05-27 17:08:26","iframe_src":"//7720.svetacdn.in/71tsRs29n5tZ/movie/27067"},{"id":27065,"title":"Двое в степи","kp_id":"44366","imdb_id":"tt0173783","world_art_id":null,"type":"movie","add":"2019-05-26 16:23:04","orig_title":"Dvoe v stepi","year":"1963-04-28","translations":["Оригинальная дорожка"],"quality":"sat","translation":"Оригинальная дорожка","update":"2019-05-27 17:34:07","iframe_src":"//7720.svetacdn.in/71tsRs29n5tZ/movie/27065"},{"id":27064,"title":"Фантазия на тему любви","kp_id":"44400","imdb_id":"tt0231565","world_art_id":null,"type":"movie","add":"2019-05-26 16:19:41","orig_title":"Fantaziya na temu lyubvi","year":"1981-04-24","translations":["Оригинальная дорожка"],"quality":"iptv","translation":"Оригинальная дорожка","update":"2019-05-27 17:05:08","iframe_src":"//7720.svetacdn.in/71tsRs29n5tZ/movie/27064"},{"id":27063,"title":"Гадюка","kp_id":"44448","imdb_id":"tt0174675","world_art_id":null,"type":"movie","add":"2019-05-26 16:16:09","orig_title":"Gadyuka","year":"1966-05-10","translations":["Оригинальная дорожка"],"quality":"dvdrip","translation":"Оригинальная дорожка","update":"2019-05-27 17:03:13","iframe_src":"//7720.svetacdn.in/71tsRs29n5tZ/movie/27063"},{"id":27062,"title":"Главный конструктор","kp_id":"461724","imdb_id":"tt5497990","world_art_id":null,"type":"movie","add":"2019-05-26 16:12:16","orig_title":"Glavnyy konstruktor","year":"1980-01-01","translations":["Оригинальная дорожка"],"quality":"dvdrip","translation":"Оригинальная дорожка","update":"2019-05-27 17:02:33","iframe_src":"//7720.svetacdn.in/71tsRs29n5tZ/movie/27062"},{"id":27061,"title":"Илга-Иволга","kp_id":"521688","imdb_id":"tt3002472","world_art_id":null,"type":"movie","add":"2019-05-26 14:04:10","orig_title":"Ilga-Ivolga","year":"1972-05-10","translations":["Оригинальная дорожка"],"quality":"tv","translation":"Оригинальная дорожка","update":"2019-05-27 17:01:52","iframe_src":"//7720.svetacdn.in/71tsRs29n5tZ/movie/27061"},{"id":27060,"title":"Любовь по расписанию","kp_id":"695452","imdb_id":"tt3816426","world_art_id":null,"type":"movie","add":"2019-05-26 13:57:36","orig_title":"Lyubov po raspisaniyu","year":"2012-08-19","translations":["Оригинальная дорожка"],"quality":"hdtv","translation":"Оригинальная дорожка","update":"2019-05-27 16:57:36","iframe_src":"//7720.svetacdn.in/71tsRs29n5tZ/movie/27060"},{"id":27027,"title":"Одноклассники","kp_id":"494549","imdb_id":"tt1601883","world_art_id":null,"type":"movie","add":"2019-05-25 23:46:29","orig_title":"Odnoklassniki","year":"2010-11-04","translations":["Оригинальная дорожка"],"quality":"iptv","translation":"Оригинальная дорожка","update":"2019-05-27 17:35:54","iframe_src":"//7720.svetacdn.in/71tsRs29n5tZ/movie/27027"},{"id":27025,"title":"Первая любовь","kp_id":"94314","imdb_id":"tt0063424","world_art_id":null,"type":"movie","add":"2019-05-25 23:38:40","orig_title":"Pervaya lyubov","year":"1969-02-09","translations":["Оригинальная дорожка"],"quality":"dvdrip","translation":"Оригинальная дорожка","update":"2019-05-27 17:13:03","iframe_src":"//7720.svetacdn.in/71tsRs29n5tZ/movie/27025"},{"id":27017,"title":"Вместо меня","kp_id":"41428","imdb_id":"tt0367208","world_art_id":null,"type":"movie","add":"2019-05-25 22:50:36","orig_title":"Vmesto menya","year":"2000-01-01","translations":["Оригинальная дорожка"],"quality":"sat","translation":"Оригинальная дорожка","update":"2019-05-27 17:34:05","iframe_src":"//7720.svetacdn.in/71tsRs29n5tZ/movie/27017"},{"id":27009,"title":"Длинное, длинное дело","kp_id":"161204","imdb_id":"tt0412653","world_art_id":null,"type":"movie","add":"2019-05-25 20:35:03","orig_title":"Dlinnoe, dlinnoe delo","year":"1977-05-09","translations":["Оригинальная дорожка"],"quality":"tv","translation":"Оригинальная дорожка","update":"2019-05-27 17:21:10","iframe_src":"//7720.svetacdn.in/71tsRs29n5tZ/movie/27009"},{"id":27007,"title":"Ждите писем","kp_id":"45289","imdb_id":"tt0173493","world_art_id":null,"type":"movie","add":"2019-05-25 20:28:53","orig_title":"Zhdite pisem","year":"1960-09-18","translations":["Оригинальная дорожка"],"quality":"dvdrip","translation":"Оригинальная дорожка","update":"2019-05-27 17:21:48","iframe_src":"//7720.svetacdn.in/71tsRs29n5tZ/movie/27007"},{"id":26998,"title":"Утренний обход","kp_id":"42544","imdb_id":"tt0080072","world_art_id":null,"type":"movie","add":"2019-05-25 19:45:10","orig_title":"Utrenniy obkhod","year":"1980-04-09","translations":["Оригинальная дорожка"],"quality":"sat","translation":"Оригинальная дорожка","update":"2019-05-27 17:23:37","iframe_src":"//7720.svetacdn.in/71tsRs29n5tZ/movie/26998"}],"current_page":1476,"first_page_url":"https://videocdn.tv/api/short?limit=100&api_token=EnbO9h8pv1VyjbCJhg0WM9nG259n7mtz&cache31476=31476&page=1","from":147501,"last_page":649,"last_page_url":"https://videocdn.tv/api/short?limit=100&api_token=EnbO9h8pv1VyjbCJhg0WM9nG259n7mtz&cache31476=31476&page=649","next_page_url":null,"path":"https://videocdn.tv/api/short","per_page":100,"prev_page_url":"https://videocdn.tv/api/short?limit=100&api_token=EnbO9h8pv1VyjbCJhg0WM9nG259n7mtz&cache31476=31476&page=1475","to":147520,"total":64837}