{"result":true,"data":[{"id":47902,"title":"Что за идиот","kp_id":"723393","imdb_id":"tt2525802","world_art_id":null,"type":"movie","add":"2021-02-14 09:27:14","orig_title":"What an Idiot","year":"2014-12-05","translations":["Любительский (многоголосый закадровый)"],"quality":"webdl","translation":"Любительский (многоголосый закадровый)","update":"2021-02-14 17:46:22","iframe_src":"//8543.svetacdn.in/71tsRs29n5tZ/movie/47902"},{"id":47901,"title":"Моник","kp_id":"48837","imdb_id":"tt0304417","world_art_id":null,"type":"movie","add":"2021-02-14 09:07:57","orig_title":"Monique","year":"2002-08-21","translations":["Профессиональный (многоголосый закадровый) (Екатеринбург Арт)"],"quality":"dvdrip","translation":"Профессиональный (многоголосый закадровый) (Екатеринбург Арт)","update":"2021-02-14 17:43:31","iframe_src":"//8543.svetacdn.in/71tsRs29n5tZ/movie/47901"},{"id":47899,"title":"Навес","kp_id":"689802","imdb_id":"tt2232578","world_art_id":null,"type":"movie","add":"2021-02-14 08:38:58","orig_title":"Canopy","year":"2013-09-08","translations":["Любительский (одноголосый закадровый) (den904)"],"quality":"hdrip","translation":"Любительский (одноголосый закадровый) (den904)","update":"2021-02-14 17:35:40","iframe_src":"//8543.svetacdn.in/71tsRs29n5tZ/movie/47899"},{"id":47897,"title":"Подруга детства","kp_id":"821109","imdb_id":"tt3476368","world_art_id":null,"type":"movie","add":"2021-02-13 09:42:54","orig_title":"Balyakalasakhi","year":"2014-02-06","translations":["Профессиональный (двухголосый закадровый)"],"quality":"sat","translation":"Профессиональный (двухголосый закадровый)","update":"2021-02-14 07:32:10","iframe_src":"//8543.svetacdn.in/71tsRs29n5tZ/movie/47897"},{"id":47896,"title":"Танго Чарли","kp_id":"90877","imdb_id":"tt0444913","world_art_id":null,"type":"movie","add":"2021-02-13 09:40:06","orig_title":"Tango Charlie","year":"2005-03-25","translations":["Профессиональный (многоголосый закадровый) (Red Media)"],"quality":"webdl","translation":"Профессиональный (многоголосый закадровый) (Red Media)","update":"2021-02-14 07:31:55","iframe_src":"//8543.svetacdn.in/71tsRs29n5tZ/movie/47896"},{"id":47895,"title":"Мьюзик","kp_id":"1088265","imdb_id":"tt7541720","world_art_id":null,"type":"movie","add":"2021-02-13 08:38:57","orig_title":"Music","year":"2021-01-14","translations":["Любительский (многоголосый закадровый) (@MUZOBOZ@)"],"quality":"webdl","translation":"Любительский (многоголосый закадровый) (@MUZOBOZ@)","update":"2021-02-13 17:09:57","iframe_src":"//8543.svetacdn.in/71tsRs29n5tZ/movie/47895"},{"id":47890,"title":"Ноги Святой Хильдегарды","kp_id":"1246629","imdb_id":"tt9911196","world_art_id":null,"type":"movie","add":"2021-02-12 19:38:45","orig_title":"De beentjes van Sint-Hildegard","year":"2020-02-13","translations":["Любительский (многоголосый закадровый) (AlphaProject)"],"quality":"bd","translation":"Любительский (многоголосый закадровый) (AlphaProject)","update":"2021-02-14 19:06:12","iframe_src":"//8543.svetacdn.in/71tsRs29n5tZ/movie/47890"},{"id":47889,"title":"Летучая рыба","kp_id":"1370818","imdb_id":"tt12182440","world_art_id":null,"type":"movie","add":"2021-02-12 19:36:40","orig_title":"Buladó","year":"2020-09-25","translations":["Любительский (многоголосый закадровый) (AlphaProject)"],"quality":"bd","translation":"Любительский (многоголосый закадровый) (AlphaProject)","update":"2021-02-14 19:08:11","iframe_src":"//8543.svetacdn.in/71tsRs29n5tZ/movie/47889"},{"id":47887,"title":"Кокон","kp_id":"1254550","imdb_id":"tt10107222","world_art_id":null,"type":"movie","add":"2021-02-12 19:33:30","orig_title":"Kokon","year":"2020-02-21","translations":["Любительский (многоголосый закадровый) (AlphaProject)"],"quality":"bd","translation":"Любительский (многоголосый закадровый) (AlphaProject)","update":"2021-02-14 19:08:44","iframe_src":"//8543.svetacdn.in/71tsRs29n5tZ/movie/47887"},{"id":47880,"title":"Тайна острова чудовищ","kp_id":"8696","imdb_id":"tt0082769","world_art_id":null,"type":"movie","add":"2021-02-12 16:13:36","orig_title":"Misterio en la isla de los monstruos","year":"1981-04-03","translations":["Полное дублирование (Студия им.Довженко)"],"quality":"dvdrip","translation":"Полное дублирование (Студия им.Довженко)","update":"2021-02-14 14:34:28","iframe_src":"//8543.svetacdn.in/71tsRs29n5tZ/movie/47880"},{"id":47879,"title":"Познакомьтесь с Дороти Дендридж","kp_id":"95404","imdb_id":"tt0172348","world_art_id":null,"type":"movie","add":"2021-02-12 15:56:21","orig_title":"Introducing Dorothy Dandridge","year":"1999-08-14","translations":["Профессиональный (двухголосый закадровый) (Союз Видео)"],"quality":"webdl","translation":"Профессиональный (двухголосый закадровый) (Союз Видео)","update":"2021-02-14 14:37:00","iframe_src":"//8543.svetacdn.in/71tsRs29n5tZ/movie/47879"},{"id":47871,"title":"Флот МакХейла присоединяется к Военно-воздушным силам","kp_id":"27506","imdb_id":"tt0059437","world_art_id":null,"type":"movie","add":"2021-02-12 07:39:13","orig_title":"McHale's Navy Joins the Air Force","year":"1965-07-09","translations":["Авторский (одноголосый закадровый) (Дольский Андрей)"],"quality":"bd","translation":"Авторский (одноголосый закадровый) (Дольский Андрей)","update":"2021-02-13 09:27:13","iframe_src":"//8543.svetacdn.in/71tsRs29n5tZ/movie/47871"},{"id":47870,"title":"Валентино","kp_id":"8849","imdb_id":"tt0076868","world_art_id":null,"type":"movie","add":"2021-02-12 07:36:08","orig_title":"Valentino","year":"1977-09-07","translations":["Профессиональный (многоголосый закадровый)"],"quality":"bd","translation":"Профессиональный (многоголосый закадровый)","update":"2021-02-14 14:36:03","iframe_src":"//8543.svetacdn.in/71tsRs29n5tZ/movie/47870"},{"id":47863,"title":"30 дней ночи: Темные времена","kp_id":"431275","imdb_id":"tt1320304","world_art_id":null,"type":"movie","add":"2021-02-11 22:03:55","orig_title":"30 Days of Night: Dark Days","year":"2010-09-01","translations":["Профессиональный (многоголосый закадровый)"],"quality":"bd","translation":"Профессиональный (многоголосый закадровый)","update":"2021-02-13 09:36:28","iframe_src":"//8543.svetacdn.in/71tsRs29n5tZ/movie/47863"},{"id":47843,"title":"Жила-была одна баба","kp_id":"460255","imdb_id":"tt2065015","world_art_id":null,"type":"movie","add":"2021-02-11 14:55:15","orig_title":"Zhila-byla odna baba","year":"2011-10-27","translations":["Оригинальная дорожка"],"quality":"bd","translation":"Оригинальная дорожка","update":"2021-02-14 14:03:55","iframe_src":"//8543.svetacdn.in/71tsRs29n5tZ/movie/47843"},{"id":47842,"title":"Кошачья жизнь","kp_id":"532836","imdb_id":"tt1673702","world_art_id":null,"type":"movie","add":"2021-02-11 14:22:30","orig_title":"Une vie de chat","year":"2010-12-15","translations":["Любительский (двухголосый закадровый) (Anifilm)","Профессиональный (двухголосый закадровый)"],"quality":"bd","translation":"Любительский (двухголосый закадровый) (Anifilm)","update":"2021-02-14 14:02:59","iframe_src":"//8543.svetacdn.in/71tsRs29n5tZ/movie/47842"},{"id":47693,"title":"Космические чистильщики","kp_id":"1171915","imdb_id":"tt12838766","world_art_id":null,"type":"movie","add":"2021-02-06 07:18:52","orig_title":"Seungriho","year":"2021-02-05","translations":["Любительский (двухголосый закадровый) (OnisFilms)","Любительский (многоголосый закадровый) (@MUZOBOZ@)","Профессиональный (многоголосый закадровый) (HDrezka Studio)"],"quality":"webdl","translation":"Любительский (двухголосый закадровый) (OnisFilms)","update":"2021-02-13 19:35:36","iframe_src":"//8543.svetacdn.in/71tsRs29n5tZ/movie/47693"},{"id":47031,"title":"Соло","kp_id":"779815","imdb_id":"tt3026824","world_art_id":null,"type":"movie","add":"2021-01-13 11:08:42","orig_title":"Solo","year":"2013-10-17","translations":["Любительский (многоголосый закадровый)"],"quality":"dvdrip","translation":"Любительский (многоголосый закадровый)","update":"2021-02-14 14:03:14","iframe_src":"//8543.svetacdn.in/71tsRs29n5tZ/movie/47031"},{"id":8496,"title":"Дни, когда распускаются цветы","kp_id":"1156538","imdb_id":"tt7915546","world_art_id":null,"type":"serial","add":"2020-08-20 13:42:54","orig_title":"De dagar som blommorna blommar","year":"2019-01-01","translations":["Любительский (двухголосый закадровый) (GoldTeam)"],"seasons_count":1,"episodes_count":3,"episodes":3,"update":"2020-08-20 21:15:22","iframe_src":"//8543.svetacdn.in/71tsRs29n5tZ/tv-series/8496"},{"id":8495,"title":"Юникитти","kp_id":"1045688","imdb_id":"tt6874502","world_art_id":null,"type":"serial","add":"2020-08-20 13:37:18","orig_title":"Unikitty!","year":"2017-10-27","translations":["Любительский (многоголосый закадровый)"],"seasons_count":1,"episodes_count":14,"episodes":14,"update":"2020-08-20 21:13:14","iframe_src":"//8543.svetacdn.in/71tsRs29n5tZ/tv-series/8495"},{"id":8490,"title":"ЛЕГО Звездные войны: Истории дроидов","kp_id":"946890","imdb_id":"tt4855868","world_art_id":null,"type":"serial","add":"2020-08-20 04:43:21","orig_title":"Lego Star Wars: Droid Tales","year":"2015-07-06","translations":["Полное дублирование"],"seasons_count":1,"episodes_count":5,"episodes":5,"update":"2020-08-21 15:41:33","iframe_src":"//8543.svetacdn.in/71tsRs29n5tZ/tv-series/8490"},{"id":8487,"title":"Пан или пропал","kp_id":"149389","imdb_id":"tt0155363","world_art_id":null,"type":"serial","add":"2020-08-20 04:24:35","orig_title":"Pan ili propal","year":"2004-01-01","translations":["Оригинальная дорожка"],"seasons_count":1,"episodes_count":16,"episodes":16,"update":"2020-08-20 06:39:42","iframe_src":"//8543.svetacdn.in/71tsRs29n5tZ/tv-series/8487"},{"id":8478,"title":"Иванов и Рабинович","kp_id":"447146","imdb_id":null,"world_art_id":null,"type":"serial","add":"2020-08-19 07:28:01","orig_title":"Иванов и Рабинович","year":"2003-01-01","translations":["Оригинальная дорожка"],"seasons_count":1,"episodes_count":8,"episodes":8,"update":"2020-08-19 09:20:50","iframe_src":"//8543.svetacdn.in/71tsRs29n5tZ/tv-series/8478"},{"id":8476,"title":"Мек-Х4","kp_id":"1264127","imdb_id":"tt5568740","world_art_id":null,"type":"serial","add":"2020-08-19 05:22:53","orig_title":"Mech-X4","year":"2016-11-11","translations":["Полное дублирование (Disney Channel)"],"seasons_count":1,"episodes_count":15,"episodes":15,"update":"2020-08-21 11:11:28","iframe_src":"//8543.svetacdn.in/71tsRs29n5tZ/tv-series/8476"},{"id":8462,"title":"Кармелита","kp_id":"418648","imdb_id":"tt1807140","world_art_id":null,"type":"serial","add":"2020-08-17 13:19:16","orig_title":"Karmelita","year":"2005-01-10","translations":["Оригинальная дорожка"],"seasons_count":1,"episodes_count":170,"episodes":170,"update":"2020-08-19 20:35:08","iframe_src":"//8543.svetacdn.in/71tsRs29n5tZ/tv-series/8462"},{"id":8435,"title":"Джетсоны","kp_id":"229166","imdb_id":"tt0055683","world_art_id":null,"type":"serial","add":"2020-08-15 08:22:21","orig_title":"The Jetsons","year":"1962-09-23","translations":["Полное дублирование (СВ-Дубль)","Профессиональный (многоголосый закадровый) (2x2)"],"seasons_count":3,"episodes_count":54,"episodes":10,"update":"2020-08-21 11:48:42","iframe_src":"//8543.svetacdn.in/71tsRs29n5tZ/tv-series/8435"},{"id":8431,"title":"Ограбление века","kp_id":null,"imdb_id":"tt12624844","world_art_id":null,"type":"serial","add":"2020-08-14 12:49:21","orig_title":"El robo del siglo","year":"2020-08-14","translations":["Любительский (многоголосый закадровый) (ColdFilm)","Любительский (многоголосый закадровый) (Octopus)","Любительский (многоголосый закадровый) (KerobTV)","Профессиональный (двухголосый закадровый) (IdeaFilm)","Профессиональный (многоголосый закадровый) (Jaskier)","Профессиональный (многоголосый закадровый) (NewStudio)"],"seasons_count":1,"episodes_count":6,"episodes":6,"update":"2020-08-21 15:35:51","iframe_src":"//8543.svetacdn.in/71tsRs29n5tZ/tv-series/8431"},{"id":8413,"title":"Повар императора","kp_id":"904907","imdb_id":"tt4258302","world_art_id":null,"type":"serial","add":"2020-08-12 05:34:20","orig_title":"Tenno no Ryoriban","year":"2015-04-26","translations":["Профессиональный (многоголосый закадровый) (Мобильное телевидение)"],"seasons_count":1,"episodes_count":12,"episodes":12,"update":"2020-08-21 15:05:17","iframe_src":"//8543.svetacdn.in/71tsRs29n5tZ/tv-series/8413"},{"id":8404,"title":"Маленький зоомагазин","kp_id":"740965","imdb_id":"tt2244077","world_art_id":null,"type":"serial","add":"2020-08-10 16:31:11","orig_title":"Littlest Pet Shop","year":"2012-11-10","translations":["Полное дублирование","Полное дублирование (СВ-Дубль)"],"seasons_count":3,"episodes_count":78,"episodes":26,"update":"2020-08-20 13:12:23","iframe_src":"//8543.svetacdn.in/71tsRs29n5tZ/tv-series/8404"},{"id":7578,"title":"Нагиев на карантине","kp_id":"1371997","imdb_id":"tt12489316","world_art_id":null,"type":"serial","add":"2020-05-21 05:01:27","orig_title":"Star vs Quarantine","year":"2020-04-30","translations":["Оригинальная дорожка"],"seasons_count":2,"episodes_count":20,"episodes":10,"update":"2020-08-21 07:18:51","iframe_src":"//8543.svetacdn.in/71tsRs29n5tZ/tv-series/7578"},{"id":40578,"title":"Сердцу не прикажешь","kp_id":"220208","imdb_id":"tt0101733","world_art_id":null,"type":"movie","add":"2020-05-20 16:56:59","orig_title":"Dil Hai Ki Manta Nahin","year":"1991-07-12","translations":["Профессиональный (многоголосый закадровый)","Профессиональный (многоголосый закадровый)"],"quality":"dvdrip","translation":"Профессиональный (многоголосый закадровый)","update":"2021-02-14 14:26:31","iframe_src":"//8543.svetacdn.in/71tsRs29n5tZ/movie/40578"},{"id":7457,"title":"Возвращение блудного попугая","kp_id":"45880","imdb_id":"tt0212593","world_art_id":null,"type":"serial","add":"2020-05-10 07:22:23","orig_title":"Vozvrashchenie bludnogo popugaya","year":"1984-01-01","translations":["Оригинальная дорожка"],"seasons_count":1,"episodes_count":3,"episodes":3,"update":"2020-08-21 10:57:09","iframe_src":"//8543.svetacdn.in/71tsRs29n5tZ/tv-series/7457"},{"id":7324,"title":"Свои 2","kp_id":"1236111","imdb_id":"tt12211434","world_art_id":null,"type":"serial","add":"2020-04-28 12:35:10","orig_title":"Svoi-2","year":"2020-04-20","translations":["Оригинальная дорожка","Полное дублирование"],"seasons_count":1,"episodes_count":45,"episodes":45,"update":"2020-08-21 15:11:51","iframe_src":"//8543.svetacdn.in/71tsRs29n5tZ/tv-series/7324"},{"id":37850,"title":"Боль души","kp_id":"95419","imdb_id":"tt0211126","world_art_id":null,"type":"movie","add":"2020-03-12 09:13:37","orig_title":"Zakhm","year":"1998-12-15","translations":["Любительский (двухголосый закадровый)","Профессиональный (двухголосый закадровый)"],"quality":"dvdrip","translation":"Любительский (двухголосый закадровый)","update":"2021-02-14 14:28:22","iframe_src":"//8543.svetacdn.in/71tsRs29n5tZ/movie/37850"},{"id":6688,"title":"Дунканвилль","kp_id":"1209362","imdb_id":"tt9073898","world_art_id":null,"type":"serial","add":"2020-02-20 08:58:42","orig_title":"Duncanville","year":"2020-02-16","translations":["Профессиональный (многоголосый закадровый) (Zone Vision Studio)","Любительский (многоголосый закадровый) (VGM Studio)"],"seasons_count":1,"episodes_count":11,"episodes":11,"update":"2020-08-20 15:27:26","iframe_src":"//8543.svetacdn.in/71tsRs29n5tZ/tv-series/6688"},{"id":3515,"title":"Наследники","kp_id":"756487","imdb_id":"tt3243098","world_art_id":null,"type":"serial","add":"2018-11-16 21:51:53","orig_title":"Sangsokjadeul","year":"2013-10-09","translations":["Любительский (двухголосый закадровый) (GREEN TEA)","Профессиональный (многоголосый закадровый) (Мобильное телевидение)","Любительский (многоголосый закадровый) (STEPonee)"],"seasons_count":1,"episodes_count":20,"episodes":20,"update":"2020-08-20 13:35:53","iframe_src":"//8543.svetacdn.in/71tsRs29n5tZ/tv-series/3515"},{"id":2512,"title":"Дождь","kp_id":"1112179","imdb_id":"tt6656238","world_art_id":null,"type":"serial","add":"2018-05-06 04:05:31","orig_title":"The Rain","year":"2018-05-04","translations":["Любительский (двухголосый закадровый) (Sunshine Studio)","Профессиональный (многоголосый закадровый) (AlexFilm)","Профессиональный (многоголосый закадровый) (HDrezka Studio)","Любительский (многоголосый закадровый) (ColdFilm)","Любительский (многоголосый закадровый) (Octopus)","Профессиональный (двухголосый закадровый) (IdeaFilm)","Профессиональный (многоголосый закадровый) (Jaskier)","Профессиональный (многоголосый закадровый) (NewStudio)","Профессиональный (многоголосый закадровый) (TVShows)"],"seasons_count":3,"episodes_count":20,"episodes":6,"update":"2020-08-19 11:06:00","iframe_src":"//8543.svetacdn.in/71tsRs29n5tZ/tv-series/2512"},{"id":2477,"title":"Невиновный","kp_id":"1007944","imdb_id":"tt5963958","world_art_id":null,"type":"serial","add":"2018-04-27 04:44:46","orig_title":"Innocent","year":"2018-01-13","translations":["Профессиональный (многоголосый закадровый) (BaibaKo)","Профессиональный (многоголосый закадровый) (HDrezka Studio)","Профессиональный (многоголосый закадровый) (ShowJet)"],"seasons_count":1,"episodes_count":4,"episodes":4,"update":"2020-08-21 14:53:07","iframe_src":"//8543.svetacdn.in/71tsRs29n5tZ/tv-series/2477"},{"id":2239,"title":"Мальчики краше цветов","kp_id":"453309","imdb_id":"tt1370334","world_art_id":null,"type":"serial","add":"2018-03-17 22:47:55","orig_title":"Kkotboda namja","year":"2009-01-05","translations":["Любительский (двухголосый закадровый) (GREEN TEA)","Профессиональный (многоголосый закадровый) (Мобильное телевидение)"],"seasons_count":1,"episodes_count":25,"episodes":25,"update":"2020-08-21 11:34:42","iframe_src":"//8543.svetacdn.in/71tsRs29n5tZ/tv-series/2239"},{"id":570,"title":"Доктор, доктор","kp_id":"1002656","imdb_id":"tt6015808","world_art_id":null,"type":"serial","add":"2016-11-07 07:15:41","orig_title":"Doctor Doctor","year":"2016-09-14","translations":["Профессиональный (многоголосый закадровый) (AlexFilm)","Любительский (многоголосый закадровый) (ColdFilm)","Любительский (многоголосый закадровый) (Octopus)"],"seasons_count":4,"episodes_count":40,"episodes":10,"update":"2020-08-20 16:14:04","iframe_src":"//8543.svetacdn.in/71tsRs29n5tZ/tv-series/570"}],"current_page":134,"first_page_url":"https://videocdn.tv/api/short?limit=100&api_token=EnbO9h8pv1VyjbCJhg0WM9nG259n7mtz&cache3134=3134&page=1","from":13301,"last_page":610,"last_page_url":"https://videocdn.tv/api/short?limit=100&api_token=EnbO9h8pv1VyjbCJhg0WM9nG259n7mtz&cache3134=3134&page=610","next_page_url":"https://videocdn.tv/api/short?limit=100&api_token=EnbO9h8pv1VyjbCJhg0WM9nG259n7mtz&cache3134=3134&page=135","path":"https://videocdn.tv/api/short","per_page":100,"prev_page_url":"https://videocdn.tv/api/short?limit=100&api_token=EnbO9h8pv1VyjbCJhg0WM9nG259n7mtz&cache3134=3134&page=133","to":13340,"total":60916}