{"result":true,"data":[{"id":13542,"title":"Без Права На Искупление","kp_id":"849213","imdb_id":"tt4059112","world_art_id":null,"type":"movie","add":"2017-09-20 22:53:16","orig_title":"Beyond Redemption","year":"2015-11-07","translations":["Любительский (многоголосый закадровый) (Синема УС)"],"quality":"bd","translation":"Любительский (многоголосый закадровый) (Синема УС)","update":"2017-09-21 07:11:33","iframe_src":"//8543.svetacdn.in/IAF0wWTdNYZm/movie/13542"},{"id":13528,"title":"Резня","kp_id":"877160","imdb_id":"tt3783422","world_art_id":null,"type":"movie","add":"2017-09-20 21:36:22","orig_title":"The Slashening","year":"2015-09-17","translations":["Любительский (многоголосый закадровый) (Синема УС)"],"quality":"webdl","translation":"Любительский (многоголосый закадровый) (Синема УС)","update":"2017-09-21 07:21:16","iframe_src":"//8543.svetacdn.in/IAF0wWTdNYZm/movie/13528"},{"id":13526,"title":"Предупреждение","kp_id":"861695","imdb_id":null,"world_art_id":null,"type":"movie","add":"2017-09-20 21:30:33","orig_title":"The Warning","year":"2015-09-20","translations":["Любительский (многоголосый закадровый) (Синема УС)"],"quality":"webdl","translation":"Любительский (многоголосый закадровый) (Синема УС)","update":"2017-09-21 10:38:22","iframe_src":"//8543.svetacdn.in/IAF0wWTdNYZm/movie/13526"},{"id":13524,"title":"Пацаны не плачут","kp_id":"49106","imdb_id":"tt0238119","world_art_id":null,"type":"movie","add":"2017-09-20 21:22:35","orig_title":"Chlopaki nie placza","year":"2000-02-25","translations":["Профессиональный (одноголосый закадровый)"],"quality":"bd","translation":"Профессиональный (одноголосый закадровый)","update":"2017-09-21 08:59:35","iframe_src":"//8543.svetacdn.in/IAF0wWTdNYZm/movie/13524"},{"id":13522,"title":"Адалин","kp_id":"806312","imdb_id":"tt3218094","world_art_id":null,"type":"movie","add":"2017-09-20 21:15:26","orig_title":"Adaline","year":"2015-12-01","translations":["Любительский (многоголосый закадровый) (Синема УС)"],"quality":"webdl","translation":"Любительский (многоголосый закадровый) (Синема УС)","update":"2017-09-21 08:56:06","iframe_src":"//8543.svetacdn.in/IAF0wWTdNYZm/movie/13522"},{"id":13520,"title":"Новобрачные и мёртвые","kp_id":"913720","imdb_id":"tt4709218","world_art_id":null,"type":"movie","add":"2017-09-19 10:09:34","orig_title":"Newlywed and Dead","year":"2016-07-02","translations":["Любительский (многоголосый закадровый) (Синема УС)"],"quality":"hdtv","translation":"Любительский (многоголосый закадровый) (Синема УС)","update":"2017-09-19 14:26:27","iframe_src":"//8543.svetacdn.in/IAF0wWTdNYZm/movie/13520"},{"id":13519,"title":"Волчье логово","kp_id":"961183","imdb_id":"tt5445444","world_art_id":null,"type":"movie","add":"2017-09-19 10:08:47","orig_title":"Ngok yan guk","year":"2016-01-21","translations":["Любительский (многоголосый закадровый) (Синема УС)"],"quality":"bd","translation":"Любительский (многоголосый закадровый) (Синема УС)","update":"2017-09-19 14:24:33","iframe_src":"//8543.svetacdn.in/IAF0wWTdNYZm/movie/13519"},{"id":13518,"title":"Вечеринка окончена","kp_id":"702102","imdb_id":"tt2368412","world_art_id":null,"type":"movie","add":"2017-09-19 10:07:59","orig_title":"The Party Is Over","year":"2015-05-01","translations":["Любительский (многоголосый закадровый) (Синема УС)"],"quality":"webdl","translation":"Любительский (многоголосый закадровый) (Синема УС)","update":"2017-09-19 14:23:54","iframe_src":"//8543.svetacdn.in/IAF0wWTdNYZm/movie/13518"},{"id":13517,"title":"Ядовитое насекомое","kp_id":"970499","imdb_id":"tt5272042","world_art_id":null,"type":"movie","add":"2017-09-19 10:06:20","orig_title":"Dokumushi","year":"2016-04-09","translations":["Любительский (многоголосый закадровый) (Синема УС)"],"quality":"bd","translation":"Любительский (многоголосый закадровый) (Синема УС)","update":"2017-09-19 14:29:23","iframe_src":"//8543.svetacdn.in/IAF0wWTdNYZm/movie/13517"},{"id":13515,"title":"Шахматист","kp_id":"983797","imdb_id":"tt5732530","world_art_id":null,"type":"movie","add":"2017-09-19 09:52:19","orig_title":"El jugador de ajedrez","year":"2017-03-24","translations":["Любительский (многоголосый закадровый) (Синема УС)"],"quality":"bd","translation":"Любительский (многоголосый закадровый) (Синема УС)","update":"2017-09-19 14:16:34","iframe_src":"//8543.svetacdn.in/IAF0wWTdNYZm/movie/13515"},{"id":13512,"title":"Отдых на дикой природе","kp_id":null,"imdb_id":"tt3803664","world_art_id":null,"type":"movie","add":"2017-09-17 07:26:19","orig_title":"Lost Wilderness","year":"2016-10-21","translations":["Любительский (многоголосый закадровый) (Синема УС)"],"quality":"bd","translation":"Любительский (многоголосый закадровый) (Синема УС)","update":"2017-09-19 09:21:15","iframe_src":"//8543.svetacdn.in/IAF0wWTdNYZm/movie/13512"},{"id":13511,"title":"С любовью к Обаме","kp_id":"572871","imdb_id":"tt1773015","world_art_id":null,"type":"movie","add":"2017-09-17 07:20:35","orig_title":"Phas Gaye Re Obama","year":"2010-11-01","translations":["Профессиональный (двухголосый закадровый)"],"quality":"hdtv","translation":"Профессиональный (двухголосый закадровый)","update":"2017-09-19 09:23:10","iframe_src":"//8543.svetacdn.in/IAF0wWTdNYZm/movie/13511"},{"id":13510,"title":"Страх сцены","kp_id":"1048666","imdb_id":"tt6690910","world_art_id":null,"type":"movie","add":"2017-09-17 07:19:46","orig_title":"Stage Fright","year":"2017-02-01","translations":["Любительский (многоголосый закадровый) (Синема УС)"],"quality":"hdtv","translation":"Любительский (многоголосый закадровый) (Синема УС)","update":"2017-09-19 09:21:50","iframe_src":"//8543.svetacdn.in/IAF0wWTdNYZm/movie/13510"},{"id":13502,"title":"Любовь нищеброда","kp_id":"916102","imdb_id":"tt4771704","world_art_id":null,"type":"movie","add":"2017-09-17 06:01:10","orig_title":"Gesu no ai","year":"2015-10-24","translations":["Любительский (многоголосый закадровый) (Синема УС)"],"quality":"bd","translation":"Любительский (многоголосый закадровый) (Синема УС)","update":"2017-09-19 09:14:17","iframe_src":"//8543.svetacdn.in/IAF0wWTdNYZm/movie/13502"},{"id":13181,"title":"Чё за..!","kp_id":"914650","imdb_id":"tt4678184","world_art_id":null,"type":"movie","add":"2017-08-27 22:28:40","orig_title":"Wtf!","year":"2017-08-01","translations":["Любительский (многоголосый закадровый) (Синема УС)","Профессиональный (многоголосый закадровый) (GreenРай Studio)"],"quality":"webdl","translation":"Любительский (многоголосый закадровый) (Синема УС)","update":"2017-09-21 08:58:30","iframe_src":"//8543.svetacdn.in/IAF0wWTdNYZm/movie/13181"},{"id":13064,"title":"Бабушка лёгкого поведения","kp_id":"981105","imdb_id":"tt6823698","world_art_id":null,"type":"movie","add":"2017-08-20 20:44:39","orig_title":"Babushka lyogkogo povedeniya","year":"2017-08-25","translations":["Оригинальная дорожка"],"quality":"webdl","translation":"Оригинальная дорожка","update":"2017-09-19 14:20:34","iframe_src":"//8543.svetacdn.in/IAF0wWTdNYZm/movie/13064"},{"id":12810,"title":"Теснота","kp_id":"1044101","imdb_id":"tt6777056","world_art_id":null,"type":"movie","add":"2017-08-07 04:31:04","orig_title":"Tesnota","year":"2017-05-24","translations":["Оригинальная дорожка"],"quality":"webdl","translation":"Оригинальная дорожка","update":"2017-09-19 14:19:58","iframe_src":"//8543.svetacdn.in/IAF0wWTdNYZm/movie/12810"},{"id":12412,"title":"Лабиринты любви","kp_id":"923490","imdb_id":null,"world_art_id":null,"type":"movie","add":"2017-07-10 09:44:06","orig_title":"Лабиринты любви","year":"2015-02-09","translations":["Оригинальная дорожка"],"quality":"webdl","translation":"Оригинальная дорожка","update":"2017-09-19 09:20:33","iframe_src":"//8543.svetacdn.in/IAF0wWTdNYZm/movie/12412"},{"id":10960,"title":"Развод по-французски","kp_id":"988420","imdb_id":"tt5833730","world_art_id":null,"type":"movie","add":"2017-04-13 21:54:11","orig_title":"Papa ou maman 2","year":"2016-11-20","translations":["Любительский (многоголосый закадровый) (Синема УС)","Полное дублирование","Полное дублирование (iTunes)"],"quality":"bd","translation":"Любительский (многоголосый закадровый) (Синема УС)","update":"2017-09-19 14:18:29","iframe_src":"//8543.svetacdn.in/IAF0wWTdNYZm/movie/10960"},{"id":2836,"title":"Сигнал","kp_id":"762854","imdb_id":"tt2910814","world_art_id":null,"type":"movie","add":"2016-06-02 09:42:35","orig_title":"The Signal","year":"2014-01-20","translations":["Любительский (двухголосый закадровый)","Профессиональный (многоголосый закадровый) (РенТВ)"],"quality":"webdl","translation":"Любительский (двухголосый закадровый)","update":"2017-09-19 09:19:22","iframe_src":"//8543.svetacdn.in/IAF0wWTdNYZm/movie/2836"}],"current_page":1919,"first_page_url":"https://videocdn.tv/api/short?limit=100&api_token=6Onb1W1alEUrBcKJZD3GoKBbWyAl2uG2&cache31919=31919&page=1","from":191801,"last_page":606,"last_page_url":"https://videocdn.tv/api/short?limit=100&api_token=6Onb1W1alEUrBcKJZD3GoKBbWyAl2uG2&cache31919=31919&page=606","next_page_url":null,"path":"https://videocdn.tv/api/short","per_page":100,"prev_page_url":"https://videocdn.tv/api/short?limit=100&api_token=6Onb1W1alEUrBcKJZD3GoKBbWyAl2uG2&cache31919=31919&page=1918","to":191820,"total":60501}