{"result":true,"data":[{"id":20262,"title":"Не чужие","kp_id":"933787","imdb_id":null,"world_art_id":null,"type":"movie","add":"2018-11-23 09:50:24","orig_title":"Не чужие","year":"2018-11-15","translations":["Оригинальная дорожка"],"quality":"webdl","translation":"Оригинальная дорожка","update":"2018-11-23 14:29:53","iframe_src":"//7720.svetacdn.in/IAF0wWTdNYZm/movie/20262"},{"id":20261,"title":"Правда или действие (ТОДД)","kp_id":"986066","imdb_id":"tt5634556","world_art_id":null,"type":"movie","add":"2018-11-23 09:19:42","orig_title":"Truth or Double Dare (TODD)","year":"2018-10-30","translations":["Любительский (многоголосый закадровый) (Синема УС)"],"quality":"webdl","translation":"Любительский (многоголосый закадровый) (Синема УС)","update":"2018-11-23 14:12:04","iframe_src":"//7720.svetacdn.in/IAF0wWTdNYZm/movie/20261"},{"id":19983,"title":"Священный","kp_id":"582930","imdb_id":"tt1852947","world_art_id":null,"type":"movie","add":"2018-11-06 09:53:45","orig_title":"The Sacred","year":"2013-05-01","translations":["Любительский (одноголосый закадровый)","Original (English)"],"quality":"webdl","translation":"Любительский (одноголосый закадровый)","update":"2018-11-23 13:47:33","iframe_src":"//7720.svetacdn.in/IAF0wWTdNYZm/movie/19983"},{"id":19914,"title":"Уилл Пэнни","kp_id":"13998","imdb_id":"tt0063811","world_art_id":null,"type":"movie","add":"2018-11-01 12:47:06","orig_title":"Will Penny","year":"1967-12-14","translations":["Профессиональный (многоголосый закадровый) (Paramount Channel)","Original (English)"],"quality":"webdl","translation":"Профессиональный (многоголосый закадровый) (Paramount Channel)","update":"2018-11-23 15:41:28","iframe_src":"//7720.svetacdn.in/IAF0wWTdNYZm/movie/19914"},{"id":19913,"title":"Три жестоких человека","kp_id":"13431","imdb_id":"tt0049849","world_art_id":null,"type":"movie","add":"2018-11-01 12:46:13","orig_title":"Three Violent People","year":"1957-02-09","translations":["Профессиональный (многоголосый закадровый) (Paramount Channel)","Original (English)"],"quality":"webdl","translation":"Профессиональный (многоголосый закадровый) (Paramount Channel)","update":"2018-11-23 15:40:25","iframe_src":"//7720.svetacdn.in/IAF0wWTdNYZm/movie/19913"},{"id":19912,"title":"Дантист на диком западе","kp_id":"25827","imdb_id":"tt0063591","world_art_id":null,"type":"movie","add":"2018-11-01 12:45:06","orig_title":"The Shakiest Gun in the West","year":"1968-07-10","translations":["Профессиональный (многоголосый закадровый) (СТС)","Original (English)"],"quality":"webdl","translation":"Профессиональный (многоголосый закадровый) (СТС)","update":"2018-11-23 15:39:22","iframe_src":"//7720.svetacdn.in/IAF0wWTdNYZm/movie/19912"},{"id":19911,"title":"Дешевый детектив","kp_id":"1629","imdb_id":"tt0077321","world_art_id":null,"type":"movie","add":"2018-11-01 12:43:58","orig_title":"The Cheap Detective","year":"1978-06-09","translations":["Профессиональный (многоголосый закадровый)","Original (English)"],"quality":"webdl","translation":"Профессиональный (многоголосый закадровый)","update":"2018-11-23 15:38:26","iframe_src":"//7720.svetacdn.in/IAF0wWTdNYZm/movie/19911"},{"id":19910,"title":"Призвание","kp_id":"782874","imdb_id":"tt1666335","world_art_id":null,"type":"movie","add":"2018-11-01 12:42:58","orig_title":"The Calling","year":"2014-08-05","translations":["Профессиональный (многоголосый закадровый) (iTunes)","Original (English)"],"quality":"webdl","translation":"Профессиональный (многоголосый закадровый) (iTunes)","update":"2018-11-23 15:37:34","iframe_src":"//7720.svetacdn.in/IAF0wWTdNYZm/movie/19910"},{"id":19909,"title":"Мосты у Токо-Ри","kp_id":"9025","imdb_id":"tt0046806","world_art_id":null,"type":"movie","add":"2018-11-01 12:41:42","orig_title":"The Bridges at Toko-Ri","year":"1955-01-20","translations":["Профессиональный (многоголосый закадровый) (Paramount Channel)","Original (English)"],"quality":"webdl","translation":"Профессиональный (многоголосый закадровый) (Paramount Channel)","update":"2018-11-23 15:36:35","iframe_src":"//7720.svetacdn.in/IAF0wWTdNYZm/movie/19909"},{"id":19907,"title":"Пересменка","kp_id":"5525","imdb_id":"tt0088213","world_art_id":null,"type":"movie","add":"2018-11-01 12:39:41","orig_title":"Swing Shift","year":"1984-04-13","translations":["Профессиональный (многоголосый закадровый)","Original (English)"],"quality":"webdl","translation":"Профессиональный (многоголосый закадровый)","update":"2018-11-23 15:34:23","iframe_src":"//7720.svetacdn.in/IAF0wWTdNYZm/movie/19907"},{"id":19906,"title":"Соло","kp_id":"7371","imdb_id":"tt0117688","world_art_id":null,"type":"movie","add":"2018-11-01 12:35:19","orig_title":"Solo","year":"1996-08-23","translations":["Профессиональный (многоголосый закадровый) (Видеосервис)","Original (English)"],"quality":"webdl","translation":"Профессиональный (многоголосый закадровый) (Видеосервис)","update":"2018-11-23 15:33:03","iframe_src":"//7720.svetacdn.in/IAF0wWTdNYZm/movie/19906"},{"id":19904,"title":"Призрак в машине","kp_id":"9258","imdb_id":"tt0107009","world_art_id":null,"type":"movie","add":"2018-11-01 12:30:15","orig_title":"Ghost in the Machine","year":"1993-12-29","translations":["Профессиональный (многоголосый закадровый) (Первый канал | ОРТ)","Original (English)"],"quality":"webdl","translation":"Профессиональный (многоголосый закадровый) (Первый канал | ОРТ)","update":"2018-11-23 13:57:40","iframe_src":"//7720.svetacdn.in/IAF0wWTdNYZm/movie/19904"},{"id":19902,"title":"Бесконечная любовь","kp_id":"17641","imdb_id":"tt0082329","world_art_id":null,"type":"movie","add":"2018-11-01 12:27:30","orig_title":"Endless Love","year":"1981-07-17","translations":["Профессиональный (многоголосый закадровый)","Original (English)"],"quality":"webdl","translation":"Профессиональный (многоголосый закадровый)","update":"2018-11-23 13:56:38","iframe_src":"//7720.svetacdn.in/IAF0wWTdNYZm/movie/19902"},{"id":19887,"title":"Доллары","kp_id":"18856","imdb_id":"tt0068152","world_art_id":null,"type":"movie","add":"2018-10-31 12:17:13","orig_title":"$ (Dollars)","year":"1971-12-15","translations":["Профессиональный (многоголосый закадровый) (5-й канал СПб)","Original (English)"],"quality":"webdl","translation":"Профессиональный (многоголосый закадровый) (5-й канал СПб)","update":"2018-11-23 13:55:18","iframe_src":"//7720.svetacdn.in/IAF0wWTdNYZm/movie/19887"},{"id":19886,"title":"Умереть заново","kp_id":"4499","imdb_id":"tt0101669","world_art_id":null,"type":"movie","add":"2018-10-31 12:15:52","orig_title":"Dead Again","year":"1991-08-30","translations":["Профессиональный (многоголосый закадровый) (Первый канал | ОРТ)","Original (English)"],"quality":"webdl","translation":"Профессиональный (многоголосый закадровый) (Первый канал | ОРТ)","update":"2018-11-23 13:53:27","iframe_src":"//7720.svetacdn.in/IAF0wWTdNYZm/movie/19886"},{"id":19885,"title":"Обвиняемая","kp_id":"518744","imdb_id":"tt1480649","world_art_id":null,"type":"movie","add":"2018-10-31 12:15:03","orig_title":"Accused at 17","year":"2009-12-05","translations":["Профессиональный (многоголосый закадровый)","Original (English)"],"quality":"webdl","translation":"Профессиональный (многоголосый закадровый)","update":"2018-11-23 13:52:18","iframe_src":"//7720.svetacdn.in/IAF0wWTdNYZm/movie/19885"},{"id":19882,"title":"Потерпевший","kp_id":"468325","imdb_id":"tt1316622","world_art_id":null,"type":"movie","add":"2018-10-31 12:12:14","orig_title":"Wrecked","year":"2010-10-15","translations":["Профессиональный (многоголосый закадровый)","Original (English)"],"quality":"bd","translation":"Профессиональный (многоголосый закадровый)","update":"2018-11-23 13:50:34","iframe_src":"//7720.svetacdn.in/IAF0wWTdNYZm/movie/19882"},{"id":19881,"title":"Коллекционер","kp_id":"31808","imdb_id":"tt0059043","world_art_id":null,"type":"movie","add":"2018-10-31 12:10:59","orig_title":"The Collector","year":"1965-05-20","translations":["Профессиональный (многоголосый закадровый)","Original (English)"],"quality":"bd","translation":"Профессиональный (многоголосый закадровый)","update":"2018-11-23 13:49:00","iframe_src":"//7720.svetacdn.in/IAF0wWTdNYZm/movie/19881"},{"id":19706,"title":"Слоны могут играть в футбол","kp_id":"1008554","imdb_id":"tt8193626","world_art_id":null,"type":"movie","add":"2018-10-22 23:05:06","orig_title":"Slony mogut igrat v futbol","year":"2018-10-18","translations":["Оригинальная дорожка"],"quality":"webdl","translation":"Оригинальная дорожка","update":"2018-11-23 14:13:55","iframe_src":"//7720.svetacdn.in/IAF0wWTdNYZm/movie/19706"},{"id":12596,"title":"Рептизавр","kp_id":"424125","imdb_id":"tt1277731","world_art_id":null,"type":"movie","add":"2017-07-24 05:39:13","orig_title":"Reptisaurus","year":"2009-06-10","translations":["Профессиональный (многоголосый закадровый) (ТВ3)","Original (English)"],"quality":"webdl","translation":"Профессиональный (многоголосый закадровый) (ТВ3)","update":"2018-11-23 15:31:57","iframe_src":"//7720.svetacdn.in/IAF0wWTdNYZm/movie/12596"}],"current_page":1804,"first_page_url":"https://videocdn.tv/api/short?limit=100&api_token=6Onb1W1alEUrBcKJZD3GoKBbWyAl2uG2&cache31804=31804&page=1","from":180301,"last_page":649,"last_page_url":"https://videocdn.tv/api/short?limit=100&api_token=6Onb1W1alEUrBcKJZD3GoKBbWyAl2uG2&cache31804=31804&page=649","next_page_url":null,"path":"https://videocdn.tv/api/short","per_page":100,"prev_page_url":"https://videocdn.tv/api/short?limit=100&api_token=6Onb1W1alEUrBcKJZD3GoKBbWyAl2uG2&cache31804=31804&page=1803","to":180320,"total":64878}