{"result":true,"data":[{"id":30515,"title":"Девушка из прошлого","kp_id":"1005928","imdb_id":"tt6077540","world_art_id":null,"type":"movie","add":"2019-09-02 22:02:09","orig_title":"Yesterday's Girl","year":"2019-08-01","translations":["Любительский (многоголосый закадровый) (Синема УС)"],"quality":"webdl","translation":"Любительский (многоголосый закадровый) (Синема УС)","update":"2019-09-03 04:48:45","iframe_src":"//7923.svetacdn.in/si4jsFRrtgrT/movie/30515"},{"id":30514,"title":"Паутина грёз","kp_id":"1236301","imdb_id":"tt9730648","world_art_id":null,"type":"movie","add":"2019-09-02 22:00:43","orig_title":"Web of Dreams","year":"2019-08-24","translations":["Профессиональный (многоголосый закадровый) (AlphaProject)"],"quality":"hdtv","translation":"Профессиональный (многоголосый закадровый) (AlphaProject)","update":"2019-09-03 04:54:18","iframe_src":"//7923.svetacdn.in/si4jsFRrtgrT/movie/30514"},{"id":30513,"title":"Свадьба на повтор","kp_id":"999390","imdb_id":"tt5971394","world_art_id":null,"type":"movie","add":"2019-09-02 21:57:53","orig_title":"The Wedding Do Over","year":"2018-02-03","translations":["Любительский (многоголосый закадровый) (Синема УС)"],"quality":"webdl","translation":"Любительский (многоголосый закадровый) (Синема УС)","update":"2019-09-03 04:54:58","iframe_src":"//7923.svetacdn.in/si4jsFRrtgrT/movie/30513"},{"id":30512,"title":"Портал","kp_id":"1015482","imdb_id":"tt6410534","world_art_id":null,"type":"movie","add":"2019-09-02 21:55:39","orig_title":"The Portal","year":"2017-04-25","translations":["Любительский (многоголосый закадровый) (Синема УС)"],"quality":"webdl","translation":"Любительский (многоголосый закадровый) (Синема УС)","update":"2019-09-03 05:14:02","iframe_src":"//7923.svetacdn.in/si4jsFRrtgrT/movie/30512"},{"id":30510,"title":"Общественное место","kp_id":"1082545","imdb_id":"tt6972372","world_art_id":null,"type":"movie","add":"2019-09-02 21:51:19","orig_title":"Place publique","year":"2018-04-18","translations":["Любительский (многоголосый закадровый) (Синема УС)"],"quality":"bd","translation":"Любительский (многоголосый закадровый) (Синема УС)","update":"2019-09-03 05:16:24","iframe_src":"//7923.svetacdn.in/si4jsFRrtgrT/movie/30510"},{"id":30509,"title":"Где бы ты ни был...","kp_id":"1183748","imdb_id":"tt8648744","world_art_id":null,"type":"movie","add":"2019-09-02 21:49:47","orig_title":"Ovunque proteggimi","year":"2018-11-25","translations":["Любительский (многоголосый закадровый) (Синема УС)"],"quality":"dvdrip","translation":"Любительский (многоголосый закадровый) (Синема УС)","update":"2019-09-03 05:17:20","iframe_src":"//7923.svetacdn.in/si4jsFRrtgrT/movie/30509"},{"id":30508,"title":"Снова","kp_id":"1253336","imdb_id":"tt10097832","world_art_id":null,"type":"movie","add":"2019-09-02 21:48:18","orig_title":"Hui dao guo qu yong bao ni","year":"2019-07-26","translations":["Любительский (многоголосый закадровый) (Колобок)"],"quality":"webdl","translation":"Любительский (многоголосый закадровый) (Колобок)","update":"2019-09-03 05:19:03","iframe_src":"//7923.svetacdn.in/si4jsFRrtgrT/movie/30508"},{"id":30507,"title":"Тайна моего отчима","kp_id":"1200175","imdb_id":"tt9109006","world_art_id":null,"type":"movie","add":"2019-09-02 21:46:52","orig_title":"My Stepfather's Secret","year":"2019-06-14","translations":["Любительский (многоголосый закадровый) (Синема УС)"],"quality":"hdtv","translation":"Любительский (многоголосый закадровый) (Синема УС)","update":"2019-09-03 05:20:42","iframe_src":"//7923.svetacdn.in/si4jsFRrtgrT/movie/30507"},{"id":30506,"title":"Хорошая игра","kp_id":"1172208","imdb_id":"tt8510324","world_art_id":null,"type":"movie","add":"2019-09-02 21:45:31","orig_title":"Iyi Oyun","year":"2018-11-02","translations":["Любительский (многоголосый закадровый) (Синема УС)"],"quality":"webdl","translation":"Любительский (многоголосый закадровый) (Синема УС)","update":"2019-09-03 05:21:37","iframe_src":"//7923.svetacdn.in/si4jsFRrtgrT/movie/30506"},{"id":30491,"title":"В компании волков","kp_id":"14105","imdb_id":"tt0087075","world_art_id":null,"type":"movie","add":"2019-09-02 19:42:21","orig_title":"The Company of Wolves","year":"1984-09-15","translations":["Профессиональный (двухголосый закадровый)"],"quality":"bd","translation":"Профессиональный (двухголосый закадровый)","update":"2019-09-03 05:07:41","iframe_src":"//7923.svetacdn.in/si4jsFRrtgrT/movie/30491"},{"id":30490,"title":"Женщины","kp_id":"272014","imdb_id":"tt0430770","world_art_id":null,"type":"movie","add":"2019-09-02 19:30:29","orig_title":"The Women","year":"2008-09-04","translations":["Полное дублирование"],"quality":"bd","translation":"Полное дублирование","update":"2019-09-03 05:05:14","iframe_src":"//7923.svetacdn.in/si4jsFRrtgrT/movie/30490"},{"id":30489,"title":"Авиценна","kp_id":"1008823","imdb_id":"tt2265783","world_art_id":null,"type":"movie","add":"2019-09-02 19:26:39","orig_title":"Bu-Ali Sina","year":"1987-01-01","translations":["Профессиональный (двухголосый закадровый)"],"quality":"sat","translation":"Профессиональный (двухголосый закадровый)","update":"2019-09-03 05:04:04","iframe_src":"//7923.svetacdn.in/si4jsFRrtgrT/movie/30489"},{"id":30467,"title":"Ману","kp_id":"1077970","imdb_id":"tt6615648","world_art_id":null,"type":"movie","add":"2019-09-01 20:46:05","orig_title":"Manu","year":"2018-09-06","translations":["Любительский (многоголосый закадровый) (Синема УС)"],"quality":"webdl","translation":"Любительский (многоголосый закадровый) (Синема УС)","update":"2019-09-03 05:03:27","iframe_src":"//7923.svetacdn.in/si4jsFRrtgrT/movie/30467"},{"id":30460,"title":"Кровь 13","kp_id":"1128648","imdb_id":"tt6264928","world_art_id":null,"type":"movie","add":"2019-09-01 20:23:38","orig_title":"Xue shi san","year":"2018-06-15","translations":["Любительский (многоголосый закадровый) (Синема УС)"],"quality":"webdl","translation":"Любительский (многоголосый закадровый) (Синема УС)","update":"2019-09-02 15:10:16","iframe_src":"//7923.svetacdn.in/si4jsFRrtgrT/movie/30460"},{"id":30441,"title":"Аниара","kp_id":"1107692","imdb_id":"tt7589524","world_art_id":null,"type":"movie","add":"2019-08-31 23:51:09","orig_title":"Aniara","year":"2018-09-07","translations":["Любительский (многоголосый закадровый) (Синема УС)"],"quality":"webdl","translation":"Любительский (многоголосый закадровый) (Синема УС)","update":"2019-09-02 15:11:33","iframe_src":"//7923.svetacdn.in/si4jsFRrtgrT/movie/30441"},{"id":30438,"title":"Животные без ошейника","kp_id":"1093563","imdb_id":"tt7474914","world_art_id":null,"type":"movie","add":"2019-08-31 23:45:04","orig_title":"Animales sin collar","year":"2018-10-08","translations":["Любительский (многоголосый закадровый) (Синема УС)"],"quality":"webdl","translation":"Любительский (многоголосый закадровый) (Синема УС)","update":"2019-09-02 15:13:43","iframe_src":"//7923.svetacdn.in/si4jsFRrtgrT/movie/30438"},{"id":30436,"title":"Как кошка с собакой","kp_id":"1047585","imdb_id":"tt7222290","world_art_id":null,"type":"movie","add":"2019-08-31 23:40:51","orig_title":"Kenen","year":"2018-02-10","translations":["Любительский (многоголосый закадровый) (Синема УС)"],"quality":"bd","translation":"Любительский (многоголосый закадровый) (Синема УС)","update":"2019-09-03 04:57:12","iframe_src":"//7923.svetacdn.in/si4jsFRrtgrT/movie/30436"},{"id":30429,"title":"Кардек","kp_id":"1207277","imdb_id":"tt9213932","world_art_id":null,"type":"movie","add":"2019-08-31 23:18:23","orig_title":"Kardec","year":"2019-05-16","translations":["Любительский (многоголосый закадровый) (Синема УС)"],"quality":"webdl","translation":"Любительский (многоголосый закадровый) (Синема УС)","update":"2019-09-02 15:16:29","iframe_src":"//7923.svetacdn.in/si4jsFRrtgrT/movie/30429"},{"id":29628,"title":"Буйный","kp_id":"1272313","imdb_id":"tt10660436","world_art_id":null,"type":"movie","add":"2019-08-01 22:01:07","orig_title":"Nanpokhan girok","year":"2019-07-11","translations":["Любительский (двухголосый закадровый)"],"quality":"webdl","translation":"Любительский (двухголосый закадровый)","update":"2019-09-02 15:19:45","iframe_src":"//7923.svetacdn.in/si4jsFRrtgrT/movie/29628"},{"id":2392,"title":"Хэнкок","kp_id":"102151","imdb_id":"tt0448157","world_art_id":null,"type":"movie","add":"2016-05-20 06:34:05","orig_title":"Hancock","year":"2008-06-16","translations":["Полное дублирование","Авторский (одноголосый закадровый) (Гаврилов Андрей)"],"quality":"bd","translation":"Полное дублирование","update":"2019-09-03 05:00:42","iframe_src":"//7923.svetacdn.in/si4jsFRrtgrT/movie/2392"}],"current_page":1283,"first_page_url":"https://videocdn.tv/api/short?limit=100&api_token=X6EwAUfE5M9xbo7y0Bp0aPf3uXxG2KLL&cache31283=31283&page=1","from":128201,"last_page":645,"last_page_url":"https://videocdn.tv/api/short?limit=100&api_token=X6EwAUfE5M9xbo7y0Bp0aPf3uXxG2KLL&cache31283=31283&page=645","next_page_url":null,"path":"https://videocdn.tv/api/short","per_page":100,"prev_page_url":"https://videocdn.tv/api/short?limit=100&api_token=X6EwAUfE5M9xbo7y0Bp0aPf3uXxG2KLL&cache31283=31283&page=1282","to":128220,"total":64442}