{"result":true,"data":[{"id":37607,"title":"Мою дочь похитили","kp_id":"1237615","imdb_id":"tt9736976","world_art_id":null,"type":"movie","add":"2020-03-09 14:09:40","orig_title":"Taking Your Daughter","year":"2020-02-09","translations":["Любительский (многоголосый закадровый) (AlphaProject)"],"quality":"webdl","translation":"Любительский (многоголосый закадровый) (AlphaProject)","update":"2020-03-09 22:53:52","iframe_src":"//8543.svetacdn.in/si4jsFRrtgrT/movie/37607"},{"id":37606,"title":"Братский легион","kp_id":"1024354","imdb_id":"tt6333088","world_art_id":null,"type":"movie","add":"2020-03-09 14:05:32","orig_title":"Legion of Brothers","year":"2017-01-21","translations":["Любительский (многоголосый закадровый) (Синема УС)"],"quality":"bd","translation":"Любительский (многоголосый закадровый) (Синема УС)","update":"2020-03-09 23:01:09","iframe_src":"//8543.svetacdn.in/si4jsFRrtgrT/movie/37606"},{"id":37604,"title":"Вечный окоп","kp_id":"1123077","imdb_id":"tt7937168","world_art_id":null,"type":"movie","add":"2020-03-09 13:58:03","orig_title":"La trinchera infinita","year":"2019-09-22","translations":["Любительский (многоголосый закадровый) (Синема УС)"],"quality":"webdl","translation":"Любительский (многоголосый закадровый) (Синема УС)","update":"2020-03-09 22:48:51","iframe_src":"//8543.svetacdn.in/si4jsFRrtgrT/movie/37604"},{"id":37596,"title":"Голоса безмолвия","kp_id":"293834","imdb_id":"tt0932557","world_art_id":null,"type":"movie","add":"2020-03-09 13:30:05","orig_title":"They Come Back","year":"2007-03-03","translations":["Профессиональный (многоголосый закадровый)"],"quality":"dvdrip","translation":"Профессиональный (многоголосый закадровый)","update":"2020-03-09 17:19:31","iframe_src":"//8543.svetacdn.in/si4jsFRrtgrT/movie/37596"},{"id":37595,"title":"Игра с огнем","kp_id":"87030","imdb_id":"tt0437232","world_art_id":null,"type":"movie","add":"2020-03-09 13:27:01","orig_title":"Catch a Fire","year":"2006-09-02","translations":["Профессиональный (многоголосый закадровый)"],"quality":"hdtv","translation":"Профессиональный (многоголосый закадровый)","update":"2020-03-09 17:18:42","iframe_src":"//8543.svetacdn.in/si4jsFRrtgrT/movie/37595"},{"id":37568,"title":"С любовью, Антоша","kp_id":"1234825","imdb_id":"tt9351746","world_art_id":null,"type":"movie","add":"2020-03-08 15:54:17","orig_title":"Love, Antosha","year":"2019-01-28","translations":["Профессиональный (многоголосый закадровый)"],"quality":"webdl","translation":"Профессиональный (многоголосый закадровый)","update":"2020-03-09 16:21:38","iframe_src":"//8543.svetacdn.in/si4jsFRrtgrT/movie/37568"},{"id":37558,"title":"Еще один поцелуй","kp_id":"1194831","imdb_id":"tt9035872","world_art_id":null,"type":"movie","add":"2020-03-08 08:34:22","orig_title":"Just One More Kiss","year":"2019-02-18","translations":["Любительский (многоголосый закадровый) (Синема УС)"],"quality":"webdl","translation":"Любительский (многоголосый закадровый) (Синема УС)","update":"2020-03-09 16:21:01","iframe_src":"//8543.svetacdn.in/si4jsFRrtgrT/movie/37558"},{"id":37554,"title":"В подвале","kp_id":"1114021","imdb_id":"tt7958132","world_art_id":null,"type":"movie","add":"2020-03-08 08:28:45","orig_title":"The Girl in the Crawlspace","year":"2018-09-14","translations":["Любительский (многоголосый закадровый) (Синема УС)"],"quality":"webdl","translation":"Любительский (многоголосый закадровый) (Синема УС)","update":"2020-03-09 16:20:40","iframe_src":"//8543.svetacdn.in/si4jsFRrtgrT/movie/37554"},{"id":37549,"title":"Возвращайся в Китай","kp_id":"1144013","imdb_id":"tt7957314","world_art_id":null,"type":"movie","add":"2020-03-08 08:10:32","orig_title":"Go Back to China","year":"2019-03-09","translations":["Любительский (многоголосый закадровый) (Синема УС)"],"quality":"webdl","translation":"Любительский (многоголосый закадровый) (Синема УС)","update":"2020-03-09 16:19:31","iframe_src":"//8543.svetacdn.in/si4jsFRrtgrT/movie/37549"},{"id":37467,"title":"Джунгли","kp_id":"1052754","imdb_id":"tt7463730","world_art_id":null,"type":"movie","add":"2020-03-05 19:58:48","orig_title":"Junglee","year":"2019-03-28","translations":["Любительский (многоголосый закадровый) (Honey&Hoseena)"],"quality":"webdl","translation":"Любительский (многоголосый закадровый) (Honey&Hoseena)","update":"2020-03-09 15:09:22","iframe_src":"//8543.svetacdn.in/si4jsFRrtgrT/movie/37467"},{"id":37465,"title":"Король джунглей","kp_id":"95426","imdb_id":"tt0276309","world_art_id":null,"type":"movie","add":"2020-03-05 19:54:18","orig_title":"Maa","year":"1976-01-01","translations":["Полное дублирование"],"quality":"dvdrip","translation":"Полное дублирование","update":"2020-03-09 15:05:45","iframe_src":"//8543.svetacdn.in/si4jsFRrtgrT/movie/37465"},{"id":37463,"title":"Лентяй","kp_id":"262778","imdb_id":"tt0248125","world_art_id":null,"type":"movie","add":"2020-03-05 19:51:52","orig_title":"Kaamchor","year":"1982-12-24","translations":["Полное дублирование"],"quality":"dvdrip","translation":"Полное дублирование","update":"2020-03-09 15:04:31","iframe_src":"//8543.svetacdn.in/si4jsFRrtgrT/movie/37463"},{"id":37460,"title":"Майна","kp_id":"611679","imdb_id":"tt1841762","world_art_id":null,"type":"movie","add":"2020-03-05 19:48:04","orig_title":"Mynaa","year":"2010-11-05","translations":["Профессиональный (многоголосый закадровый) (Red Media)"],"quality":"sat","translation":"Профессиональный (многоголосый закадровый) (Red Media)","update":"2020-03-09 15:01:01","iframe_src":"//8543.svetacdn.in/si4jsFRrtgrT/movie/37460"},{"id":37459,"title":"Отпетые мошенники","kp_id":"221072","imdb_id":"tt0476819","world_art_id":null,"type":"movie","add":"2020-03-05 19:46:00","orig_title":"Nehlle Pe Dehlla","year":"2007-03-02","translations":["Профессиональный (многоголосый закадровый)"],"quality":"dvdrip","translation":"Профессиональный (многоголосый закадровый)","update":"2020-03-09 15:00:00","iframe_src":"//8543.svetacdn.in/si4jsFRrtgrT/movie/37459"},{"id":37457,"title":"Преданность","kp_id":"78478","imdb_id":"tt0397882","world_art_id":null,"type":"movie","add":"2020-03-05 19:40:47","orig_title":"Ab Tumhare Hawale Watan Saathiyo","year":"2004-12-24","translations":["Профессиональный (многоголосый закадровый)"],"quality":"dvdrip","translation":"Профессиональный (многоголосый закадровый)","update":"2020-03-09 14:58:16","iframe_src":"//8543.svetacdn.in/si4jsFRrtgrT/movie/37457"},{"id":37456,"title":"Сезон дождей","kp_id":"39757","imdb_id":"tt0041161","world_art_id":null,"type":"movie","add":"2020-03-05 19:38:33","orig_title":"Barsaat","year":"1949-04-21","translations":["Профессиональный (многоголосый закадровый)"],"quality":"dvdrip","translation":"Профессиональный (многоголосый закадровый)","update":"2020-03-09 14:57:24","iframe_src":"//8543.svetacdn.in/si4jsFRrtgrT/movie/37456"},{"id":30051,"title":"Стальной клинок","kp_id":"841564","imdb_id":"tt3801314","world_art_id":null,"type":"movie","add":"2019-08-16 13:43:31","orig_title":"Kaththi","year":"2014-10-21","translations":["Профессиональный (многоголосый закадровый) (Индийское кино)","Любительский (многоголосый закадровый) (ICG)"],"quality":"webdl","translation":"Профессиональный (многоголосый закадровый) (Индийское кино)","update":"2020-03-09 15:08:10","iframe_src":"//8543.svetacdn.in/si4jsFRrtgrT/movie/30051"},{"id":8910,"title":"Мой кузен Винни","kp_id":"4255","imdb_id":"tt0104952","world_art_id":null,"type":"movie","add":"2017-01-15 14:25:48","orig_title":"My Cousin Vinny","year":"1992-03-13","translations":["Профессиональный (многоголосый закадровый)","Авторский (одноголосый закадровый) (Яроцкий Михаил | Kyberpunk)","Полное дублирование"],"quality":"bd","translation":"Профессиональный (многоголосый закадровый)","update":"2020-03-09 16:21:49","iframe_src":"//8543.svetacdn.in/si4jsFRrtgrT/movie/8910"},{"id":7976,"title":"Спектральный анализ","kp_id":"708955","imdb_id":"tt2106651","world_art_id":null,"type":"movie","add":"2016-12-11 05:38:17","orig_title":"Spectral","year":"2016-12-09","translations":["Любительский (многоголосый закадровый) (@MUZOBOZ@)"],"quality":"webdl","translation":"Любительский (многоголосый закадровый) (@MUZOBOZ@)","update":"2020-03-09 16:23:19","iframe_src":"//8543.svetacdn.in/si4jsFRrtgrT/movie/7976"},{"id":5385,"title":"Белые пески","kp_id":"1971","imdb_id":"tt0105813","world_art_id":null,"type":"movie","add":"2016-09-21 18:15:50","orig_title":"White Sands","year":"1992-04-24","translations":["Авторский (одноголосый закадровый) (Живов Юрий)","Профессиональный (многоголосый закадровый)"],"quality":"hdtv","translation":"Авторский (одноголосый закадровый) (Живов Юрий)","update":"2020-03-09 16:23:40","iframe_src":"//8543.svetacdn.in/si4jsFRrtgrT/movie/5385"}],"current_page":674,"first_page_url":"https://videocdn.tv/api/short?limit=100&api_token=X6EwAUfE5M9xbo7y0Bp0aPf3uXxG2KLL&cache3674=3674&page=1","from":67301,"last_page":599,"last_page_url":"https://videocdn.tv/api/short?limit=100&api_token=X6EwAUfE5M9xbo7y0Bp0aPf3uXxG2KLL&cache3674=3674&page=599","next_page_url":null,"path":"https://videocdn.tv/api/short","per_page":100,"prev_page_url":"https://videocdn.tv/api/short?limit=100&api_token=X6EwAUfE5M9xbo7y0Bp0aPf3uXxG2KLL&cache3674=3674&page=673","to":67320,"total":59870}