{"result":true,"data":[{"id":48295,"title":"Двухколесный друг","kp_id":null,"imdb_id":"tt13947978","world_art_id":null,"type":"movie","add":"2021-02-28 13:20:20","orig_title":"Accomplice","year":"2021-01-28","translations":["Любительский (одноголосый закадровый)"],"quality":"webdl","translation":"Любительский (одноголосый закадровый)","update":"2021-02-28 14:25:10","iframe_src":"//8332.svetacdn.in/IAF0wWTdNYZm/movie/48295"},{"id":48293,"title":"Клятва на крови","kp_id":"587311","imdb_id":"tt1920986","world_art_id":null,"type":"movie","add":"2021-02-27 16:30:55","orig_title":"Khuda Kasam","year":"2010-11-26","translations":["Профессиональный (многоголосый закадровый) (Red Media)"],"quality":"webdl","translation":"Профессиональный (многоголосый закадровый) (Red Media)","update":"2021-03-01 08:58:42","iframe_src":"//8332.svetacdn.in/IAF0wWTdNYZm/movie/48293"},{"id":48289,"title":"Карманные деньги","kp_id":"18494","imdb_id":"tt0074152","world_art_id":null,"type":"movie","add":"2021-02-27 07:46:42","orig_title":"L'argent de poche","year":"1976-03-17","translations":["Авторский (одноголосый закадровый) (Кузнецов Сергей)"],"quality":"bd","translation":"Авторский (одноголосый закадровый) (Кузнецов Сергей)","update":"2021-03-01 09:37:57","iframe_src":"//8332.svetacdn.in/IAF0wWTdNYZm/movie/48289"},{"id":48287,"title":"Обрыв","kp_id":"4326564","imdb_id":null,"world_art_id":null,"type":"movie","add":"2021-02-27 07:27:18","orig_title":"Обрыв","year":"2020-01-01","translations":["Оригинальная дорожка"],"quality":"webdl","translation":"Оригинальная дорожка","update":"2021-02-27 15:27:06","iframe_src":"//8332.svetacdn.in/IAF0wWTdNYZm/movie/48287"},{"id":48284,"title":"Под маской Марвел","kp_id":"4365701","imdb_id":"tt13885628","world_art_id":null,"type":"movie","add":"2021-02-26 16:46:50","orig_title":"Marvel's Behind the Mask","year":"2021-02-12","translations":["Любительский (многоголосый закадровый) (Синема УС)"],"quality":"webdl","translation":"Любительский (многоголосый закадровый) (Синема УС)","update":"2021-02-26 23:28:34","iframe_src":"//8332.svetacdn.in/IAF0wWTdNYZm/movie/48284"},{"id":48264,"title":"Монах с хлыстом","kp_id":"234447","imdb_id":"tt0062022","world_art_id":null,"type":"movie","add":"2021-02-26 06:51:28","orig_title":"Der Mönch mit der Peitsche","year":"1967-08-11","translations":["Профессиональный (многоголосый закадровый) (5-й канал СПб)"],"quality":"bd","translation":"Профессиональный (многоголосый закадровый) (5-й канал СПб)","update":"2021-02-27 15:30:43","iframe_src":"//8332.svetacdn.in/IAF0wWTdNYZm/movie/48264"},{"id":48255,"title":"Зной","kp_id":"45372","imdb_id":"tt0129658","world_art_id":null,"type":"movie","add":"2021-02-25 18:30:50","orig_title":"Znoy","year":"1963-06-04","translations":["Оригинальная дорожка"],"quality":"sat","translation":"Оригинальная дорожка","update":"2021-03-01 09:55:14","iframe_src":"//8332.svetacdn.in/IAF0wWTdNYZm/movie/48255"},{"id":48254,"title":"Забытые вещи","kp_id":"480576","imdb_id":"tt4575526","world_art_id":null,"type":"movie","add":"2021-02-25 18:27:36","orig_title":"Zabytyje veshtchi","year":"1982-01-01","translations":["Оригинальная дорожка"],"quality":"tv","translation":"Оригинальная дорожка","update":"2021-03-01 09:54:33","iframe_src":"//8332.svetacdn.in/IAF0wWTdNYZm/movie/48254"},{"id":48253,"title":"Вы мне писали...","kp_id":"45958","imdb_id":"tt0335541","world_art_id":null,"type":"movie","add":"2021-02-25 18:23:41","orig_title":"Vy mne pisali...","year":"1977-10-03","translations":["Оригинальная дорожка"],"quality":"iptv","translation":"Оригинальная дорожка","update":"2021-03-01 09:54:00","iframe_src":"//8332.svetacdn.in/IAF0wWTdNYZm/movie/48253"},{"id":48252,"title":"Провинциальный роман","kp_id":"470948","imdb_id":"tt2403937","world_art_id":null,"type":"movie","add":"2021-02-25 18:20:42","orig_title":"Provintsialnyy roman","year":"1981-04-01","translations":["Оригинальная дорожка"],"quality":"sat","translation":"Оригинальная дорожка","update":"2021-03-01 09:53:27","iframe_src":"//8332.svetacdn.in/IAF0wWTdNYZm/movie/48252"},{"id":48251,"title":"Призвание","kp_id":"331760","imdb_id":"tt0073577","world_art_id":null,"type":"movie","add":"2021-02-25 18:17:37","orig_title":"Prizvaniye","year":"1975-01-01","translations":["Оригинальная дорожка"],"quality":"tv","translation":"Оригинальная дорожка","update":"2021-03-01 09:52:50","iframe_src":"//8332.svetacdn.in/IAF0wWTdNYZm/movie/48251"},{"id":48250,"title":"Пора красных яблок","kp_id":"43124","imdb_id":"tt0082928","world_art_id":null,"type":"movie","add":"2021-02-25 18:14:24","orig_title":"Pora krasnykh yablok","year":"1981-01-01","translations":["Оригинальная дорожка"],"quality":"sat","translation":"Оригинальная дорожка","update":"2021-03-01 09:52:25","iframe_src":"//8332.svetacdn.in/IAF0wWTdNYZm/movie/48250"},{"id":48220,"title":"Чёрный, как я","kp_id":"1024978","imdb_id":"tt6183486","world_art_id":null,"type":"movie","add":"2021-02-24 12:17:44","orig_title":"Chyornyy, kak ya","year":"1969-12-07","translations":["Оригинальная дорожка"],"quality":"tv","translation":"Оригинальная дорожка","update":"2021-03-01 09:51:57","iframe_src":"//8332.svetacdn.in/IAF0wWTdNYZm/movie/48220"},{"id":48019,"title":"Школа отменяется навсегда","kp_id":"1290463","imdb_id":"tt10510280","world_art_id":null,"type":"movie","add":"2021-02-17 19:00:19","orig_title":"School's Out Forever","year":"2021-02-15","translations":["Профессиональный (многоголосый закадровый) (HDrezka Studio)"],"quality":"webdl","translation":"Профессиональный (многоголосый закадровый) (HDrezka Studio)","update":"2021-02-27 13:15:03","iframe_src":"//8332.svetacdn.in/IAF0wWTdNYZm/movie/48019"},{"id":46902,"title":"Не возненавидь","kp_id":"1211961","imdb_id":"tt8571674","world_art_id":null,"type":"movie","add":"2021-01-11 09:40:00","orig_title":"Non odiare","year":"2020-09-10","translations":["Любительский (многоголосый закадровый) (@MUZOBOZ@)"],"quality":"bd","translation":"Любительский (многоголосый закадровый) (@MUZOBOZ@)","update":"2021-03-01 09:42:23","iframe_src":"//8332.svetacdn.in/IAF0wWTdNYZm/movie/46902"},{"id":45996,"title":"Заклятье: Другая сторона","kp_id":"1330635","imdb_id":"tt11320192","world_art_id":null,"type":"movie","add":"2020-12-10 22:38:02","orig_title":"Andra sidan","year":"2020-10-23","translations":["Полное дублирование (iTunes)"],"quality":"webdl","translation":"Полное дублирование (iTunes)","update":"2021-03-01 08:30:43","iframe_src":"//8332.svetacdn.in/IAF0wWTdNYZm/movie/45996"},{"id":45858,"title":"Что скрывает вода","kp_id":"1214235","imdb_id":"tt9264728","world_art_id":null,"type":"movie","add":"2020-12-05 10:49:15","orig_title":"What Lies Below","year":"2020-12-04","translations":["Любительский (многоголосый закадровый) (@MUZOBOZ@)","Original (English)","Полное дублирование (iTunes)"],"quality":"webdl","translation":"Любительский (многоголосый закадровый) (@MUZOBOZ@)","update":"2021-02-27 15:36:07","iframe_src":"//8332.svetacdn.in/IAF0wWTdNYZm/movie/45858"},{"id":44703,"title":"Мальмкрог","kp_id":"1263727","imdb_id":"tt10213380","world_art_id":null,"type":"movie","add":"2020-10-22 19:16:13","orig_title":"Malmkrog","year":"2020-02-20","translations":["Любительский (многоголосый закадровый) (AlphaProject)","Любительский (многоголосый закадровый) (AlphaProject)"],"quality":"webdl","translation":"Любительский (многоголосый закадровый) (AlphaProject)","update":"2021-03-01 09:47:51","iframe_src":"//8332.svetacdn.in/IAF0wWTdNYZm/movie/44703"},{"id":44499,"title":"Фестиваль Рифкина","kp_id":"1169702","imdb_id":"tt8593904","world_art_id":null,"type":"movie","add":"2020-10-16 12:54:51","orig_title":"Rifkin's Festival","year":"2020-09-18","translations":["Полное дублирование (iTunes)"],"quality":"webdl","translation":"Полное дублирование (iTunes)","update":"2021-02-27 15:25:20","iframe_src":"//8332.svetacdn.in/IAF0wWTdNYZm/movie/44499"},{"id":7194,"title":"Мир на земле","kp_id":"1266752","imdb_id":"tt10237790","world_art_id":null,"type":"serial","add":"2020-04-14 20:09:16","orig_title":"Fred til lands","year":"2019-10-06","translations":["Любительский (многоголосый закадровый) (Octopus)"],"seasons_count":1,"episodes_count":8,"episodes":8,"update":"2020-04-15 06:19:28","iframe_src":"//8332.svetacdn.in/IAF0wWTdNYZm/tv-series/7194"},{"id":7191,"title":"Тени прошлого","kp_id":"897891","imdb_id":null,"world_art_id":null,"type":"serial","add":"2020-04-14 11:35:01","orig_title":"Тени прошлого","year":"2015-02-07","translations":["Оригинальная дорожка"],"seasons_count":1,"episodes_count":2,"episodes":2,"update":"2020-04-14 20:49:55","iframe_src":"//8332.svetacdn.in/IAF0wWTdNYZm/tv-series/7191"},{"id":7190,"title":"Секта","kp_id":"597535","imdb_id":"tt4545336","world_art_id":null,"type":"serial","add":"2020-04-14 10:52:02","orig_title":"Sekta","year":"2011-09-10","translations":["Оригинальная дорожка"],"seasons_count":1,"episodes_count":4,"episodes":4,"update":"2020-04-14 21:00:17","iframe_src":"//8332.svetacdn.in/IAF0wWTdNYZm/tv-series/7190"},{"id":7189,"title":"Великое ограбление поезда","kp_id":"780188","imdb_id":"tt2763296","world_art_id":null,"type":"serial","add":"2020-04-14 10:46:46","orig_title":"The Great Train Robbery","year":"2013-12-18","translations":["Профессиональный (многоголосый закадровый) (Первый канал | ОРТ)"],"seasons_count":1,"episodes_count":2,"episodes":2,"update":"2020-04-14 21:01:21","iframe_src":"//8332.svetacdn.in/IAF0wWTdNYZm/tv-series/7189"},{"id":7180,"title":"Зов севера","kp_id":"1264198","imdb_id":"tt6331762","world_art_id":null,"type":"serial","add":"2020-04-14 06:13:47","orig_title":"True North Calling","year":"2017-02-17","translations":["Профессиональный (одноголосый закадровый)"],"seasons_count":1,"episodes_count":6,"episodes":6,"update":"2020-04-14 07:50:06","iframe_src":"//8332.svetacdn.in/IAF0wWTdNYZm/tv-series/7180"},{"id":7176,"title":"Монти Пайтон: Летающий цирк","kp_id":"94730","imdb_id":"tt0063929","world_art_id":null,"type":"serial","add":"2020-04-13 20:18:54","orig_title":"Monty Python's Flying Circus","year":"1969-10-05","translations":["Профессиональный (одноголосый закадровый) (РенТВ)"],"seasons_count":4,"episodes_count":45,"episodes":6,"update":"2020-04-14 22:30:16","iframe_src":"//8332.svetacdn.in/IAF0wWTdNYZm/tv-series/7176"},{"id":7175,"title":"Совсем другая жизнь","kp_id":"491641","imdb_id":"tt3083886","world_art_id":null,"type":"serial","add":"2020-04-13 18:43:13","orig_title":"Sovsem drugaya zhizn","year":"2010-01-01","translations":["Оригинальная дорожка"],"seasons_count":1,"episodes_count":1,"episodes":1,"update":"2020-04-14 09:09:29","iframe_src":"//8332.svetacdn.in/IAF0wWTdNYZm/tv-series/7175"},{"id":7174,"title":"Практикант","kp_id":"1311180","imdb_id":null,"world_art_id":null,"type":"serial","add":"2020-04-13 18:38:36","orig_title":"Практикант","year":"2019-08-30","translations":["Оригинальная дорожка"],"seasons_count":1,"episodes_count":4,"episodes":4,"update":"2020-04-14 09:11:01","iframe_src":"//8332.svetacdn.in/IAF0wWTdNYZm/tv-series/7174"},{"id":7171,"title":"Лив и Мэдди","kp_id":"764111","imdb_id":"tt2794380","world_art_id":null,"type":"serial","add":"2020-04-13 12:46:02","orig_title":"Liv and Maddie","year":"2013-07-19","translations":["Полное дублирование (Disney Channel)"],"seasons_count":3,"episodes_count":57,"episodes":15,"update":"2020-04-14 13:27:38","iframe_src":"//8332.svetacdn.in/IAF0wWTdNYZm/tv-series/7171"},{"id":7170,"title":"Истина в вине 2","kp_id":"935911","imdb_id":"tt8428540","world_art_id":null,"type":"serial","add":"2020-04-13 12:43:00","orig_title":"Istina v vine 2","year":"2016-03-19","translations":["Оригинальная дорожка"],"seasons_count":1,"episodes_count":2,"episodes":2,"update":"2020-04-13 20:42:56","iframe_src":"//8332.svetacdn.in/IAF0wWTdNYZm/tv-series/7170"},{"id":7169,"title":"Эмма","kp_id":"464849","imdb_id":"tt1366312","world_art_id":null,"type":"serial","add":"2020-04-13 12:36:34","orig_title":"Emma","year":"2009-10-04","translations":["Профессиональный (многоголосый закадровый)"],"seasons_count":1,"episodes_count":4,"episodes":4,"update":"2020-04-13 20:45:29","iframe_src":"//8332.svetacdn.in/IAF0wWTdNYZm/tv-series/7169"},{"id":7160,"title":"Игрушка","kp_id":"1291174","imdb_id":null,"world_art_id":null,"type":"serial","add":"2020-04-12 10:50:22","orig_title":"Игрушка","year":"2020-04-10","translations":["Оригинальная дорожка"],"seasons_count":1,"episodes_count":2,"episodes":2,"update":"2020-04-14 17:29:16","iframe_src":"//8332.svetacdn.in/IAF0wWTdNYZm/tv-series/7160"},{"id":7153,"title":"Гонки с Оффсетом","kp_id":"1356114","imdb_id":"tt11238504","world_art_id":null,"type":"serial","add":"2020-04-10 13:49:27","orig_title":"Skrrt with Offset","year":"2020-04-06","translations":["Любительский (многоголосый закадровый) (ColdFilm)"],"seasons_count":1,"episodes_count":8,"episodes":8,"update":"2020-04-13 13:15:06","iframe_src":"//8332.svetacdn.in/IAF0wWTdNYZm/tv-series/7153"},{"id":7136,"title":"Смерть приходит в Пемберли","kp_id":"766973","imdb_id":"tt2951788","world_art_id":null,"type":"serial","add":"2020-04-08 13:14:20","orig_title":"Death Comes to Pemberley","year":"2013-12-26","translations":["Профессиональный (многоголосый закадровый) (Домашний)"],"seasons_count":1,"episodes_count":3,"episodes":3,"update":"2020-04-13 20:48:01","iframe_src":"//8332.svetacdn.in/IAF0wWTdNYZm/tv-series/7136"},{"id":7125,"title":"Одиссея 5","kp_id":"295653","imdb_id":"tt0318236","world_art_id":null,"type":"serial","add":"2020-04-07 19:56:29","orig_title":"Odyssey 5","year":"2002-06-21","translations":["Профессиональный (многоголосый закадровый)"],"seasons_count":1,"episodes_count":19,"episodes":19,"update":"2020-04-13 21:33:33","iframe_src":"//8332.svetacdn.in/IAF0wWTdNYZm/tv-series/7125"},{"id":7054,"title":"Любовь и прочие глупости","kp_id":"497708","imdb_id":"tt3205670","world_art_id":null,"type":"serial","add":"2020-04-02 06:35:49","orig_title":"Lyubov i prochie gluposti","year":"2010-02-15","translations":["Оригинальная дорожка"],"seasons_count":1,"episodes_count":70,"episodes":70,"update":"2020-04-14 12:28:26","iframe_src":"//8332.svetacdn.in/IAF0wWTdNYZm/tv-series/7054"},{"id":6946,"title":"Письмо королю","kp_id":"1220882","imdb_id":"tt8741648","world_art_id":null,"type":"serial","add":"2020-03-20 08:07:00","orig_title":"The Letter for the King","year":"2020-03-20","translations":["Полное дублирование (Невафильм | Нева-1)","Любительский (многоголосый закадровый) (Octopus)","Любительский (многоголосый закадровый) (ColdFilm)","Профессиональный (многоголосый закадровый) (TVShows)"],"seasons_count":1,"episodes_count":6,"episodes":6,"update":"2020-04-14 10:30:29","iframe_src":"//8332.svetacdn.in/IAF0wWTdNYZm/tv-series/6946"},{"id":3344,"title":"Исцеление любовью","kp_id":"455569","imdb_id":"tt3509748","world_art_id":null,"type":"serial","add":"2018-10-20 14:15:03","orig_title":"Istselenie lyubovyu","year":"2004-01-01","translations":["Оригинальная дорожка"],"seasons_count":1,"episodes_count":190,"episodes":190,"update":"2020-04-13 21:24:40","iframe_src":"//8332.svetacdn.in/IAF0wWTdNYZm/tv-series/3344"},{"id":17055,"title":"Убийцы","kp_id":"1048633","imdb_id":"tt6901252","world_art_id":null,"type":"movie","add":"2018-06-05 22:09:22","orig_title":"Tueurs","year":"2017-09-05","translations":["Любительский (многоголосый закадровый) (@MUZOBOZ@)","Профессиональный (многоголосый закадровый) (Первый канал | ОРТ)"],"quality":"bd","translation":"Любительский (многоголосый закадровый) (@MUZOBOZ@)","update":"2021-03-01 09:01:52","iframe_src":"//8332.svetacdn.in/IAF0wWTdNYZm/movie/17055"},{"id":1433,"title":"Грешница","kp_id":"1004780","imdb_id":"tt6048596","world_art_id":null,"type":"serial","add":"2017-07-30 17:20:12","orig_title":"The Sinner","year":"2017-08-02","translations":["Профессиональный (многоголосый закадровый) (LostFilm)","Любительский (многоголосый закадровый) (ColdFilm)","Любительский (многоголосый закадровый) (Octopus)","Профессиональный (многоголосый закадровый) (Jaskier)","Профессиональный (многоголосый закадровый) (TVShows)","Профессиональный (многоголосый закадровый) (NewStudio)"],"seasons_count":3,"episodes_count":24,"episodes":8,"update":"2020-04-14 10:44:47","iframe_src":"//8332.svetacdn.in/IAF0wWTdNYZm/tv-series/1433"},{"id":530,"title":"Мешок с костями","kp_id":"409267","imdb_id":"tt1212452","world_art_id":null,"type":"serial","add":"2016-10-17 17:39:52","orig_title":"Bag of Bones","year":"2011-12-11","translations":["Профессиональный (многоголосый закадровый) (AlexFilm)","Полное дублирование (ТВ3)"],"seasons_count":1,"episodes_count":2,"episodes":2,"update":"2020-04-14 10:48:38","iframe_src":"//8332.svetacdn.in/IAF0wWTdNYZm/tv-series/530"}],"current_page":249,"first_page_url":"https://videocdn.tv/api/short?limit=100&api_token=6Onb1W1alEUrBcKJZD3GoKBbWyAl2uG2&cache3249=3249&page=1","from":24801,"last_page":635,"last_page_url":"https://videocdn.tv/api/short?limit=100&api_token=6Onb1W1alEUrBcKJZD3GoKBbWyAl2uG2&cache3249=3249&page=635","next_page_url":"https://videocdn.tv/api/short?limit=100&api_token=6Onb1W1alEUrBcKJZD3GoKBbWyAl2uG2&cache3249=3249&page=250","path":"https://videocdn.tv/api/short","per_page":100,"prev_page_url":"https://videocdn.tv/api/short?limit=100&api_token=6Onb1W1alEUrBcKJZD3GoKBbWyAl2uG2&cache3249=3249&page=248","to":24840,"total":63490}