{"result":true,"data":[{"id":52967,"title":"Однажды в Брикстоне","kp_id":"1099648","imdb_id":"tt7556502","world_art_id":null,"type":"movie","add":"2021-09-08 13:48:28","orig_title":"A Brixton Tale","year":"2021-01-01","translations":["Любительский (многоголосый закадровый) (Синема УС)"],"quality":"webdl","translation":"Любительский (многоголосый закадровый) (Синема УС)","update":"2021-09-09 01:10:42","iframe_src":"//2413.svetacdn.in/si4jsFRrtgrT/movie/52967"},{"id":52966,"title":"Жертвы Корпорации","kp_id":"1103059","imdb_id":"tt7638994","world_art_id":null,"type":"movie","add":"2021-09-08 13:45:44","orig_title":"Corporate Prey","year":"2019-01-01","translations":["Любительский (многоголосый закадровый) (Синема УС)"],"quality":"webdl","translation":"Любительский (многоголосый закадровый) (Синема УС)","update":"2021-09-09 01:10:03","iframe_src":"//2413.svetacdn.in/si4jsFRrtgrT/movie/52966"},{"id":52964,"title":"Картель жаб","kp_id":"574080","imdb_id":"tt1774358","world_art_id":null,"type":"movie","add":"2021-09-08 13:42:11","orig_title":"El cartel de los sapos","year":"2011-11-11","translations":["Любительский (многоголосый закадровый) (Озвучено за бутылку)"],"quality":"webdl","translation":"Любительский (многоголосый закадровый) (Озвучено за бутылку)","update":"2021-09-09 06:44:08","iframe_src":"//2413.svetacdn.in/si4jsFRrtgrT/movie/52964"},{"id":52957,"title":"Весна","kp_id":"1287838","imdb_id":"tt10287908","world_art_id":null,"type":"movie","add":"2021-09-08 13:08:09","orig_title":"Spring","year":"2020-01-01","translations":["Любительский (многоголосый закадровый) (Синема УС)"],"quality":"webdl","translation":"Любительский (многоголосый закадровый) (Синема УС)","update":"2021-09-09 01:09:34","iframe_src":"//2413.svetacdn.in/si4jsFRrtgrT/movie/52957"},{"id":52955,"title":"Почти ничего","kp_id":"171317","imdb_id":"tt0242795","world_art_id":null,"type":"movie","add":"2021-09-08 08:18:17","orig_title":"Presque rien","year":"2000-06-07","translations":["Авторский (одноголосый закадровый) (Алексеев Антон)"],"quality":"dvdrip","translation":"Авторский (одноголосый закадровый) (Алексеев Антон)","update":"2021-09-08 10:15:59","iframe_src":"//2413.svetacdn.in/si4jsFRrtgrT/movie/52955"},{"id":52953,"title":"Бескомпромиссная любовь","kp_id":"636116","imdb_id":"tt1872188","world_art_id":null,"type":"movie","add":"2021-09-08 07:56:54","orig_title":"The First Time - Bedingungslose Liebe","year":"2011-07-15","translations":["Любительский (одноголосый закадровый) (Кошкин Василий)"],"quality":"dvdrip","translation":"Любительский (одноголосый закадровый) (Кошкин Василий)","update":"2021-09-08 09:34:20","iframe_src":"//2413.svetacdn.in/si4jsFRrtgrT/movie/52953"},{"id":52952,"title":"Слово из четырех букв","kp_id":"274899","imdb_id":"tt0835034","world_art_id":null,"type":"movie","add":"2021-09-08 07:54:41","orig_title":"A Four Letter Word","year":"2007-05-04","translations":["Любительский (одноголосый закадровый)"],"quality":"dvdrip","translation":"Любительский (одноголосый закадровый)","update":"2021-09-08 09:35:30","iframe_src":"//2413.svetacdn.in/si4jsFRrtgrT/movie/52952"},{"id":52951,"title":"Чумовой","kp_id":"883235","imdb_id":"tt3904272","world_art_id":null,"type":"movie","add":"2021-09-08 07:52:46","orig_title":"Bizarre","year":"2015-02-07","translations":["Любительский (одноголосый закадровый)"],"quality":"hdtv","translation":"Любительский (одноголосый закадровый)","update":"2021-09-08 10:17:09","iframe_src":"//2413.svetacdn.in/si4jsFRrtgrT/movie/52951"},{"id":52948,"title":"Смоленск","kp_id":"1001598","imdb_id":"tt6038600","world_art_id":null,"type":"movie","add":"2021-09-08 07:16:58","orig_title":"Smolensk","year":"2016-09-05","translations":["Любительский (многоголосый закадровый) (Колобок)"],"quality":"dvdrip","translation":"Любительский (многоголосый закадровый) (Колобок)","update":"2021-09-08 09:37:01","iframe_src":"//2413.svetacdn.in/si4jsFRrtgrT/movie/52948"},{"id":52947,"title":"Лихорадка летней ночи","kp_id":"98763","imdb_id":"tt0078340","world_art_id":null,"type":"movie","add":"2021-09-08 05:56:11","orig_title":"Summer Night Fever","year":"1978-08-31","translations":["Любительский (одноголосый закадровый) (den904)"],"quality":"hdtv","translation":"Любительский (одноголосый закадровый) (den904)","update":"2021-09-08 11:39:18","iframe_src":"//2413.svetacdn.in/si4jsFRrtgrT/movie/52947"},{"id":52945,"title":"Лисица с бархатным хвостом","kp_id":"58337","imdb_id":"tt0067520","world_art_id":null,"type":"movie","add":"2021-09-08 05:50:14","orig_title":"El ojo del huracán","year":"1971-04-23","translations":["Любительский (одноголосый закадровый) (Horror Maker | Хоррор Мэйкер)"],"quality":"bd","translation":"Любительский (одноголосый закадровый) (Horror Maker | Хоррор Мэйкер)","update":"2021-09-09 06:46:06","iframe_src":"//2413.svetacdn.in/si4jsFRrtgrT/movie/52945"},{"id":52944,"title":"Доктор Пополь","kp_id":"25381","imdb_id":"tt0068492","world_art_id":null,"type":"movie","add":"2021-09-08 05:29:30","orig_title":"Docteur Popaul","year":"1972-09-29","translations":["Профессиональный (многоголосый закадровый)"],"quality":"webdl","translation":"Профессиональный (многоголосый закадровый)","update":"2021-09-08 11:29:36","iframe_src":"//2413.svetacdn.in/si4jsFRrtgrT/movie/52944"},{"id":52943,"title":"Атака на большую тройку","kp_id":"233819","imdb_id":"tt0061693","world_art_id":null,"type":"movie","add":"2021-09-08 05:24:17","orig_title":"Attentato ai tre grandi","year":"1967-09-01","translations":["Любительский (одноголосый закадровый) (iDimo)"],"quality":"webdl","translation":"Любительский (одноголосый закадровый) (iDimo)","update":"2021-09-08 11:35:43","iframe_src":"//2413.svetacdn.in/si4jsFRrtgrT/movie/52943"},{"id":52942,"title":"Искажение","kp_id":"8723","imdb_id":"tt0061520","world_art_id":null,"type":"movie","add":"2021-09-08 05:11:11","orig_title":"Corruption","year":"1968-07-19","translations":["[EN] Original (English)","Любительский (одноголосый закадровый) (Drunk As Fuck)"],"quality":"bd","translation":"[EN] Original (English)","update":"2021-09-09 07:40:10","iframe_src":"//2413.svetacdn.in/si4jsFRrtgrT/movie/52942"},{"id":52941,"title":"У ангела ангина","kp_id":"1165733","imdb_id":"tt8668488","world_art_id":null,"type":"movie","add":"2021-09-08 05:08:28","orig_title":"U angela angina","year":"2018-11-08","translations":["Оригинальная дорожка"],"quality":"webdl","translation":"Оригинальная дорожка","update":"2021-09-08 11:32:26","iframe_src":"//2413.svetacdn.in/si4jsFRrtgrT/movie/52941"},{"id":52939,"title":"Бойня номер пять","kp_id":"25246","imdb_id":"tt0069280","world_art_id":null,"type":"movie","add":"2021-09-07 22:08:37","orig_title":"Slaughterhouse-Five","year":"1972-03-15","translations":["Профессиональный (двухголосый закадровый) (НТВ)"],"quality":"bd","translation":"Профессиональный (двухголосый закадровый) (НТВ)","update":"2021-09-08 10:18:35","iframe_src":"//2413.svetacdn.in/si4jsFRrtgrT/movie/52939"},{"id":52938,"title":"Бэбиколл","kp_id":"504225","imdb_id":"tt1595833","world_art_id":null,"type":"movie","add":"2021-09-07 22:06:11","orig_title":"Babycall","year":"2011-10-07","translations":["Любительский (двухголосый закадровый) (DeadSno & den904)"],"quality":"bd","translation":"Любительский (двухголосый закадровый) (DeadSno & den904)","update":"2021-09-08 10:34:30","iframe_src":"//2413.svetacdn.in/si4jsFRrtgrT/movie/52938"},{"id":52613,"title":"Эхо насилия","kp_id":"1341161","imdb_id":"tt11547828","world_art_id":null,"type":"movie","add":"2021-08-24 13:42:50","orig_title":"Echoes of Violence","year":"2021-08-24","translations":["Любительский (многоголосый закадровый) (@MUZOBOZ@)","[EN] Original (English)","Любительский (многоголосый закадровый) (@MUZOBOZ@)"],"quality":"webdl","translation":"Любительский (многоголосый закадровый) (@MUZOBOZ@)","update":"2021-09-09 06:39:53","iframe_src":"//2413.svetacdn.in/si4jsFRrtgrT/movie/52613"},{"id":6190,"title":"Фоллаут: Ядерный перекур","kp_id":"651583","imdb_id":"tt2056910","world_art_id":null,"type":"serial","add":"2019-12-31 11:47:05","orig_title":"Fallout: Nuka Break","year":"2011-08-29","translations":["Любительский (многоголосый закадровый)"],"seasons_count":2,"episodes_count":12,"episodes":6,"update":"2020-01-01 12:51:44","iframe_src":"//2413.svetacdn.in/si4jsFRrtgrT/tv-series/6190"},{"id":6189,"title":"Когда возвращается прошлое","kp_id":"1253124","imdb_id":"tt10090804","world_art_id":null,"type":"serial","add":"2019-12-31 05:31:39","orig_title":"Kogda vozvrashchaetsya proshloe","year":"2017-12-24","translations":["Оригинальная дорожка"],"seasons_count":1,"episodes_count":4,"episodes":4,"update":"2019-12-31 07:53:55","iframe_src":"//2413.svetacdn.in/si4jsFRrtgrT/tv-series/6189"},{"id":6188,"title":"Тайны следствия. Прошлый век","kp_id":"1331269","imdb_id":null,"world_art_id":null,"type":"serial","add":"2019-12-30 14:31:26","orig_title":"Тайны следствия. Прошлый век","year":"2019-12-30","translations":["Оригинальная дорожка"],"seasons_count":1,"episodes_count":4,"episodes":4,"update":"2019-12-31 07:10:28","iframe_src":"//2413.svetacdn.in/si4jsFRrtgrT/tv-series/6188"},{"id":6186,"title":"Хроники ломбарда","kp_id":"844155","imdb_id":"tt4788636","world_art_id":null,"type":"serial","add":"2019-12-30 09:42:02","orig_title":"Khroniki lombarda","year":"2014-11-24","translations":["Оригинальная дорожка"],"seasons_count":1,"episodes_count":21,"episodes":21,"update":"2019-12-30 15:52:32","iframe_src":"//2413.svetacdn.in/si4jsFRrtgrT/tv-series/6186"},{"id":6185,"title":"Бомбила. Продолжение","kp_id":"743541","imdb_id":"tt3218382","world_art_id":null,"type":"serial","add":"2019-12-30 08:38:23","orig_title":"Bombila. Prodolzhenie","year":"2013-08-26","translations":["Оригинальная дорожка"],"seasons_count":1,"episodes_count":24,"episodes":24,"update":"2019-12-30 11:28:08","iframe_src":"//2413.svetacdn.in/si4jsFRrtgrT/tv-series/6185"},{"id":6184,"title":"Дворняжка Ляля","kp_id":"841559","imdb_id":"tt3968644","world_art_id":null,"type":"serial","add":"2019-12-30 08:33:35","orig_title":"Dvornyazhka Lyalya","year":"2014-08-18","translations":["Оригинальная дорожка"],"seasons_count":3,"episodes_count":95,"episodes":35,"update":"2019-12-30 17:54:19","iframe_src":"//2413.svetacdn.in/si4jsFRrtgrT/tv-series/6184"},{"id":6183,"title":"Так поступает женщина","kp_id":"1045640","imdb_id":null,"world_art_id":null,"type":"serial","add":"2019-12-30 08:31:20","orig_title":"Так поступает женщина","year":"2017-06-17","translations":["Оригинальная дорожка"],"seasons_count":1,"episodes_count":4,"episodes":4,"update":"2019-12-30 11:35:04","iframe_src":"//2413.svetacdn.in/si4jsFRrtgrT/tv-series/6183"},{"id":6182,"title":"Сердце звезды","kp_id":"840468","imdb_id":"tt4047440","world_art_id":null,"type":"serial","add":"2019-12-30 08:01:28","orig_title":"Serdtse zvezdy","year":"2014-09-15","translations":["Оригинальная дорожка"],"seasons_count":1,"episodes_count":89,"episodes":89,"update":"2019-12-30 20:38:25","iframe_src":"//2413.svetacdn.in/si4jsFRrtgrT/tv-series/6182"},{"id":6180,"title":"BBC: Самые таинственные убийства","kp_id":"299292","imdb_id":"tt9141642","world_art_id":null,"type":"serial","add":"2019-12-30 06:44:36","orig_title":"Julian Fellowes Investigates: A Most Mysterious Murder - The Case of Charles Bravo","year":"2004-10-16","translations":["Профессиональный (многоголосый закадровый)"],"seasons_count":1,"episodes_count":5,"episodes":5,"update":"2019-12-30 10:07:51","iframe_src":"//2413.svetacdn.in/si4jsFRrtgrT/tv-series/6180"},{"id":6166,"title":"Лучшие враги","kp_id":"734905","imdb_id":"tt4133636","world_art_id":null,"type":"serial","add":"2019-12-28 11:06:47","orig_title":"Luchshie vragi","year":"2014-09-22","translations":["Оригинальная дорожка"],"seasons_count":1,"episodes_count":30,"episodes":30,"update":"2019-12-30 13:05:01","iframe_src":"//2413.svetacdn.in/si4jsFRrtgrT/tv-series/6166"},{"id":6164,"title":"Колыбель над бездной","kp_id":"820725","imdb_id":null,"world_art_id":null,"type":"serial","add":"2019-12-28 11:02:28","orig_title":"Колыбель над бездной","year":"2014-11-10","translations":["Оригинальная дорожка"],"seasons_count":1,"episodes_count":12,"episodes":12,"update":"2019-12-30 18:30:20","iframe_src":"//2413.svetacdn.in/si4jsFRrtgrT/tv-series/6164"},{"id":6161,"title":"Принцесса лягушка","kp_id":"1227867","imdb_id":null,"world_art_id":null,"type":"serial","add":"2019-12-27 18:05:39","orig_title":"Принцесса лягушка","year":"2018-12-24","translations":["Оригинальная дорожка"],"seasons_count":1,"episodes_count":4,"episodes":4,"update":"2019-12-30 13:07:04","iframe_src":"//2413.svetacdn.in/si4jsFRrtgrT/tv-series/6161"},{"id":6157,"title":"Капитан Пауэр и Солдаты будущего","kp_id":"160956","imdb_id":"tt0092329","world_art_id":null,"type":"serial","add":"2019-12-27 11:35:59","orig_title":"Captain Power and the Soldiers of the Future","year":"1987-09-20","translations":["Авторский (одноголосый закадровый) (Карцев Пётр)"],"seasons_count":1,"episodes_count":22,"episodes":22,"update":"2019-12-30 18:30:37","iframe_src":"//2413.svetacdn.in/si4jsFRrtgrT/tv-series/6157"},{"id":6153,"title":"Кости","kp_id":"838264","imdb_id":"tt3801890","world_art_id":null,"type":"serial","add":"2019-12-26 21:57:21","orig_title":"Kosti","year":"2016-01-11","translations":["Оригинальная дорожка"],"seasons_count":1,"episodes_count":24,"episodes":24,"update":"2019-12-30 18:17:32","iframe_src":"//2413.svetacdn.in/si4jsFRrtgrT/tv-series/6153"},{"id":6152,"title":"Похищенный","kp_id":"79430","imdb_id":"tt0289830","world_art_id":null,"type":"serial","add":"2019-12-26 21:54:34","orig_title":"Taken","year":"2002-12-02","translations":["Профессиональный (многоголосый закадровый)"],"seasons_count":1,"episodes_count":10,"episodes":10,"update":"2019-12-30 17:55:51","iframe_src":"//2413.svetacdn.in/si4jsFRrtgrT/tv-series/6152"},{"id":6120,"title":"Бар «На грудь» — 2","kp_id":"1330098","imdb_id":null,"world_art_id":null,"type":"serial","add":"2019-12-24 06:01:44","orig_title":"Бар «На грудь» — 2","year":"2019-12-10","translations":["Оригинальная дорожка"],"seasons_count":1,"episodes_count":8,"episodes":8,"update":"2020-01-01 07:42:28","iframe_src":"//2413.svetacdn.in/si4jsFRrtgrT/tv-series/6120"},{"id":30697,"title":"Божественная ярость","kp_id":"1112788","imdb_id":"tt10550884","world_art_id":null,"type":"movie","add":"2019-09-09 07:35:21","orig_title":"Saja","year":"2019-07-31","translations":["Любительский (многоголосый закадровый) (Колобок)","Любительский (двухголосый закадровый) (SoftBox)","Любительский (двухголосый закадровый) (Храм Дорам ТВ)","Любительский (двухголосый закадровый) (SoftBox)"],"quality":"webdl","translation":"Любительский (многоголосый закадровый) (Колобок)","update":"2021-09-09 06:48:23","iframe_src":"//2413.svetacdn.in/si4jsFRrtgrT/movie/30697"},{"id":22191,"title":"Вечеринка в честь развода","kp_id":"861561","imdb_id":"tt3699702","world_art_id":null,"type":"movie","add":"2019-02-10 22:51:14","orig_title":"The Divorce Party","year":"2019-02-14","translations":["Профессиональный (многоголосый закадровый) (HDrezka Studio)","Любительский (многоголосый закадровый) (Синема УС)","Любительский (двухголосый закадровый) (HiWayGrope)","[EN] Original (English)","[EN] Original (English)","Полное дублирование (iTunes)"],"quality":"webdl","translation":"Профессиональный (многоголосый закадровый) (HDrezka Studio)","update":"2021-09-08 11:27:09","iframe_src":"//2413.svetacdn.in/si4jsFRrtgrT/movie/22191"},{"id":3589,"title":"Преступления прошлого","kp_id":"574442","imdb_id":"tt1748888","world_art_id":null,"type":"serial","add":"2018-11-28 23:56:39","orig_title":"Case Histories","year":"2011-06-05","translations":["Профессиональный (многоголосый закадровый) (FocusStudio)","Любительский (двухголосый закадровый) (Jetvis Studio)"],"seasons_count":2,"episodes_count":9,"episodes":3,"update":"2019-12-30 08:31:03","iframe_src":"//2413.svetacdn.in/si4jsFRrtgrT/tv-series/3589"},{"id":2076,"title":"Чума","kp_id":"1112543","imdb_id":"tt5868826","world_art_id":null,"type":"serial","add":"2018-02-13 06:13:39","orig_title":"La peste","year":"2018-01-12","translations":["Профессиональный (двухголосый закадровый) (ViruseProject)","Профессиональный (многоголосый закадровый) (TVShows)","Любительский (многоголосый закадровый) (ColdFilm)"],"seasons_count":2,"episodes_count":12,"episodes":6,"update":"2019-12-30 11:46:23","iframe_src":"//2413.svetacdn.in/si4jsFRrtgrT/tv-series/2076"},{"id":1899,"title":"Марлон","kp_id":"982783","imdb_id":"tt5720168","world_art_id":null,"type":"serial","add":"2017-12-25 07:11:14","orig_title":"Marlon","year":"2017-08-16","translations":["Полное дублирование"],"seasons_count":2,"episodes_count":20,"episodes":10,"update":"2019-12-31 08:28:26","iframe_src":"//2413.svetacdn.in/si4jsFRrtgrT/tv-series/1899"},{"id":287,"title":"Силиконовая долина","kp_id":"723959","imdb_id":"tt2575988","world_art_id":null,"type":"serial","add":"2016-07-16 15:49:32","orig_title":"Silicon Valley","year":"2014-04-06","translations":["Профессиональный (многоголосый закадровый) (Amedia)","Профессиональный (двухголосый закадровый) (Кубик в Кубе | Kubik³)","Профессиональный (двухголосый закадровый) (Gears Media)","Профессиональный (многоголосый закадровый) (Jaskier)","Профессиональный (одноголосый закадровый) (Кубик в Кубе | Kubik³)","Профессиональный (двухголосый закадровый) (Jaskier)","Профессиональный (многоголосый закадровый) (TVShows)"],"seasons_count":6,"episodes_count":53,"episodes":7,"update":"2019-12-30 08:10:29","iframe_src":"//2413.svetacdn.in/si4jsFRrtgrT/tv-series/287"}],"current_page":394,"first_page_url":"https://videocdn.tv/api/short?limit=100&api_token=X6EwAUfE5M9xbo7y0Bp0aPf3uXxG2KLL&cache3394=3394&page=1","from":39301,"last_page":711,"last_page_url":"https://videocdn.tv/api/short?limit=100&api_token=X6EwAUfE5M9xbo7y0Bp0aPf3uXxG2KLL&cache3394=3394&page=711","next_page_url":"https://videocdn.tv/api/short?limit=100&api_token=X6EwAUfE5M9xbo7y0Bp0aPf3uXxG2KLL&cache3394=3394&page=395","path":"https://videocdn.tv/api/short","per_page":100,"prev_page_url":"https://videocdn.tv/api/short?limit=100&api_token=X6EwAUfE5M9xbo7y0Bp0aPf3uXxG2KLL&cache3394=3394&page=393","to":39340,"total":71091}