{"result":true,"data":[{"id":50501,"title":"Лодочница","kp_id":"1376174","imdb_id":"tt11504976","world_art_id":null,"type":"movie","add":"2021-05-19 16:30:20","orig_title":"La botera","year":"2019-12-19","translations":["Любительский (многоголосый закадровый) (Синема УС)"],"quality":"webdl","translation":"Любительский (многоголосый закадровый) (Синема УС)","update":"2021-05-19 19:20:23","iframe_src":"//8209.svetacdn.in/10IAF0wWTdNYZm/movie/50501"},{"id":50496,"title":"Дом 616 на Уилфорд-Лейн","kp_id":"1261959","imdb_id":"tt10225926","world_art_id":null,"type":"movie","add":"2021-05-19 12:27:31","orig_title":"616 Wilford Lane","year":"2021-01-01","translations":["Любительский (многоголосый закадровый) (Синема УС)"],"quality":"webdl","translation":"Любительский (многоголосый закадровый) (Синема УС)","update":"2021-05-19 19:13:51","iframe_src":"//8209.svetacdn.in/10IAF0wWTdNYZm/movie/50496"},{"id":50492,"title":"Такие разные судьбы","kp_id":"159130","imdb_id":"tt0047250","world_art_id":null,"type":"movie","add":"2021-05-19 09:26:33","orig_title":"Le mouton à cinq pattes","year":"1954-07-11","translations":["Профессиональный (двухголосый закадровый)"],"quality":"bd","translation":"Профессиональный (двухголосый закадровый)","update":"2021-05-19 12:41:27","iframe_src":"//8209.svetacdn.in/10IAF0wWTdNYZm/movie/50492"},{"id":50491,"title":"Человек и его собака","kp_id":"404216","imdb_id":"tt1174049","world_art_id":null,"type":"movie","add":"2021-05-19 09:20:09","orig_title":"Un homme et son chien","year":"2008-11-13","translations":["Профессиональный (многоголосый закадровый)"],"quality":"dvdrip","translation":"Профессиональный (многоголосый закадровый)","update":"2021-05-19 11:05:48","iframe_src":"//8209.svetacdn.in/10IAF0wWTdNYZm/movie/50491"},{"id":50490,"title":"Наследник","kp_id":"39798","imdb_id":"tt0068724","world_art_id":null,"type":"movie","add":"2021-05-19 09:14:27","orig_title":"L'héritier","year":"1973-03-22","translations":["Профессиональный (многоголосый закадровый)"],"quality":"bd","translation":"Профессиональный (многоголосый закадровый)","update":"2021-05-19 11:07:04","iframe_src":"//8209.svetacdn.in/10IAF0wWTdNYZm/movie/50490"},{"id":50489,"title":"Сказочник","kp_id":"846","imdb_id":"tt0250081","world_art_id":null,"type":"movie","add":"2021-05-19 08:29:13","orig_title":"Storytelling","year":"2001-05-12","translations":["Профессиональный (многоголосый закадровый)"],"quality":"dvdrip","translation":"Профессиональный (многоголосый закадровый)","update":"2021-05-19 11:04:23","iframe_src":"//8209.svetacdn.in/10IAF0wWTdNYZm/movie/50489"},{"id":50488,"title":"Радхе","kp_id":"1302324","imdb_id":"tt10888594","world_art_id":null,"type":"movie","add":"2021-05-19 08:01:15","orig_title":"Radhe","year":"2021-05-13","translations":["Любительский (многоголосый закадровый) (Honey&Haseena)"],"quality":"webdl","translation":"Любительский (многоголосый закадровый) (Honey&Haseena)","update":"2021-05-19 12:17:01","iframe_src":"//8209.svetacdn.in/10IAF0wWTdNYZm/movie/50488"},{"id":50487,"title":"Путь страсти","kp_id":"331310","imdb_id":"tt0352705","world_art_id":null,"type":"movie","add":"2021-05-19 07:47:22","orig_title":"Passion Lane","year":"2001-06-25","translations":["Профессиональный (двухголосый закадровый)"],"quality":"dvdrip","translation":"Профессиональный (двухголосый закадровый)","update":"2021-05-19 11:00:22","iframe_src":"//8209.svetacdn.in/10IAF0wWTdNYZm/movie/50487"},{"id":50485,"title":"Новая любовь в Токио","kp_id":"185767","imdb_id":"tt0109059","world_art_id":null,"type":"movie","add":"2021-05-19 05:04:43","orig_title":"Ai no shinsekai","year":"1994-12-17","translations":["Любительский (одноголосый закадровый) (den904)"],"quality":"bd","translation":"Любительский (одноголосый закадровый) (den904)","update":"2021-05-19 11:28:40","iframe_src":"//8209.svetacdn.in/10IAF0wWTdNYZm/movie/50485"},{"id":50414,"title":"Эмбрион","kp_id":"1116011","imdb_id":"tt8211476","world_art_id":null,"type":"movie","add":"2021-05-16 20:42:32","orig_title":"Embrión","year":"2020-10-24","translations":["Любительский (многоголосый закадровый) (Синема УС)","Любительский (двухголосый закадровый) (datynet & Yuka_chan)"],"quality":"webdl","translation":"Любительский (многоголосый закадровый) (Синема УС)","update":"2021-05-19 15:33:41","iframe_src":"//8209.svetacdn.in/10IAF0wWTdNYZm/movie/50414"},{"id":49403,"title":"Серебряные медведи","kp_id":"11871","imdb_id":"tt0076715","world_art_id":null,"type":"movie","add":"2021-04-07 05:37:59","orig_title":"Silver Bears","year":"1977-06-03","translations":["Профессиональный (двухголосый закадровый)","Original (English)"],"quality":"bd","translation":"Профессиональный (двухголосый закадровый)","update":"2021-05-20 06:10:45","iframe_src":"//8209.svetacdn.in/10IAF0wWTdNYZm/movie/49403"},{"id":48861,"title":"Плавучий театр","kp_id":"30717","imdb_id":"tt0044030","world_art_id":null,"type":"movie","add":"2021-03-18 06:17:25","orig_title":"Show Boat","year":"1951-07-17","translations":["Профессиональный (многоголосый закадровый) (Домашний)","Original (English)"],"quality":"bd","translation":"Профессиональный (многоголосый закадровый) (Домашний)","update":"2021-05-20 06:12:34","iframe_src":"//8209.svetacdn.in/10IAF0wWTdNYZm/movie/48861"},{"id":48561,"title":"Бродвейская мелодия 1929-го года","kp_id":"7684","imdb_id":"tt0019729","world_art_id":null,"type":"movie","add":"2021-03-08 14:58:45","orig_title":"The Broadway Melody","year":"1929-02-01","translations":["Профессиональный (многоголосый закадровый) (Светла)","Original (English)"],"quality":"webdl","translation":"Профессиональный (многоголосый закадровый) (Светла)","update":"2021-05-20 06:03:10","iframe_src":"//8209.svetacdn.in/10IAF0wWTdNYZm/movie/48561"},{"id":48558,"title":"Рожденная танцевать","kp_id":"8575","imdb_id":"tt0027387","world_art_id":null,"type":"movie","add":"2021-03-08 14:54:58","orig_title":"Born to Dance","year":"1936-11-27","translations":["Профессиональный (одноголосый закадровый) (Светла)","Original (English)"],"quality":"webdl","translation":"Профессиональный (одноголосый закадровый) (Светла)","update":"2021-05-20 06:05:59","iframe_src":"//8209.svetacdn.in/10IAF0wWTdNYZm/movie/48558"},{"id":48373,"title":"Кентерберийская история","kp_id":"17833","imdb_id":"tt0036695","world_art_id":null,"type":"movie","add":"2021-03-03 05:40:39","orig_title":"A Canterbury Tale","year":"1944-05-11","translations":["Профессиональный (многоголосый закадровый) (100ТВ)","Original (English)"],"quality":"webdl","translation":"Профессиональный (многоголосый закадровый) (100ТВ)","update":"2021-05-20 06:07:22","iframe_src":"//8209.svetacdn.in/10IAF0wWTdNYZm/movie/48373"},{"id":48305,"title":"Прикуси пулю","kp_id":"14597","imdb_id":"tt0072705","world_art_id":null,"type":"movie","add":"2021-03-01 06:08:29","orig_title":"Bite the Bullet","year":"1975-04-26","translations":["Профессиональный (многоголосый закадровый) (5-й канал СПб)","Original (English)"],"quality":"bd","translation":"Профессиональный (многоголосый закадровый) (5-й канал СПб)","update":"2021-05-20 06:13:33","iframe_src":"//8209.svetacdn.in/10IAF0wWTdNYZm/movie/48305"},{"id":47437,"title":"Кармен","kp_id":"26528","imdb_id":"tt0040552","world_art_id":null,"type":"movie","add":"2021-01-27 05:44:14","orig_title":"The Loves of Carmen","year":"1948-08-23","translations":["Профессиональный (многоголосый закадровый)","Original (English)"],"quality":"bd","translation":"Профессиональный (многоголосый закадровый)","update":"2021-05-20 06:09:22","iframe_src":"//8209.svetacdn.in/10IAF0wWTdNYZm/movie/47437"},{"id":8058,"title":"Человек из ниоткуда","kp_id":"1306521","imdb_id":null,"world_art_id":null,"type":"serial","add":"2020-06-30 12:40:32","orig_title":"Zui meng zhe","year":"2019-10-31","translations":["Любительский (многоголосый закадровый) (ColdFilm)"],"seasons_count":1,"episodes_count":8,"episodes":8,"update":"2020-06-30 16:25:39","iframe_src":"//8209.svetacdn.in/10IAF0wWTdNYZm/tv-series/8058"},{"id":8055,"title":"Курортная полиция","kp_id":"793872","imdb_id":"tt4763354","world_art_id":null,"type":"serial","add":"2020-06-29 18:15:35","orig_title":"Kurortnaya politsiya","year":"2014-07-14","translations":["Оригинальная дорожка"],"seasons_count":1,"episodes_count":20,"episodes":20,"update":"2020-06-30 14:42:06","iframe_src":"//8209.svetacdn.in/10IAF0wWTdNYZm/tv-series/8055"},{"id":8054,"title":"Проект Минди","kp_id":"665224","imdb_id":"tt2211129","world_art_id":null,"type":"serial","add":"2020-06-29 16:38:23","orig_title":"The Mindy Project","year":"2013-04-23","translations":["Профессиональный (многоголосый закадровый) (Fox Life)","Любительский (многоголосый закадровый) (RG.Paravozik)"],"seasons_count":3,"episodes_count":67,"episodes":21,"update":"2020-06-30 14:00:49","iframe_src":"//8209.svetacdn.in/10IAF0wWTdNYZm/tv-series/8054"},{"id":8053,"title":"Кровь","kp_id":"888207","imdb_id":"tt4343108","world_art_id":null,"type":"serial","add":"2020-06-29 16:08:43","orig_title":"Beulreodeu","year":"2015-02-16","translations":["Любительский (двухголосый закадровый) (GREEN TEA)"],"seasons_count":1,"episodes_count":20,"episodes":20,"update":"2020-06-30 07:33:16","iframe_src":"//8209.svetacdn.in/10IAF0wWTdNYZm/tv-series/8053"},{"id":8051,"title":"Однажды в моём сердце","kp_id":"1046099","imdb_id":null,"world_art_id":null,"type":"serial","add":"2020-06-29 15:49:32","orig_title":"Kal khrang hhnuung..Nı hhawcı","year":"2016-07-28","translations":["Любительский (двухголосый закадровый) (STEPonee)"],"seasons_count":1,"episodes_count":12,"episodes":12,"update":"2020-06-30 07:03:50","iframe_src":"//8209.svetacdn.in/10IAF0wWTdNYZm/tv-series/8051"},{"id":8050,"title":"Найти мужа в большом городе","kp_id":"838630","imdb_id":"tt4094448","world_art_id":null,"type":"serial","add":"2020-06-29 12:38:13","orig_title":"Nayti muzha v bolshom gorode","year":"2013-06-28","translations":["Оригинальная дорожка"],"seasons_count":1,"episodes_count":4,"episodes":4,"update":"2020-06-30 13:20:15","iframe_src":"//8209.svetacdn.in/10IAF0wWTdNYZm/tv-series/8050"},{"id":8038,"title":"Самая любимая","kp_id":"1365995","imdb_id":null,"world_art_id":null,"type":"serial","add":"2020-06-28 20:34:34","orig_title":"Самая любимая","year":"2020-04-18","translations":["Оригинальная дорожка"],"seasons_count":1,"episodes_count":2,"episodes":2,"update":"2020-06-30 17:17:17","iframe_src":"//8209.svetacdn.in/10IAF0wWTdNYZm/tv-series/8038"},{"id":8037,"title":"Попытка Веры","kp_id":"491890","imdb_id":null,"world_art_id":null,"type":"serial","add":"2020-06-28 20:29:31","orig_title":"Попытка Веры","year":"2010-03-01","translations":["Оригинальная дорожка"],"seasons_count":1,"episodes_count":4,"episodes":4,"update":"2020-06-30 17:16:27","iframe_src":"//8209.svetacdn.in/10IAF0wWTdNYZm/tv-series/8037"},{"id":8032,"title":"Анютино счастье","kp_id":"805785","imdb_id":"tt5031870","world_art_id":null,"type":"serial","add":"2020-06-26 13:08:49","orig_title":"Anyutino schaste","year":"2013-12-22","translations":["Оригинальная дорожка"],"seasons_count":1,"episodes_count":1,"episodes":1,"update":"2020-06-29 13:22:04","iframe_src":"//8209.svetacdn.in/10IAF0wWTdNYZm/tv-series/8032"},{"id":8031,"title":"На рубеже. Ответный удар","kp_id":"827251","imdb_id":"tt3806964","world_art_id":null,"type":"serial","add":"2020-06-26 13:01:18","orig_title":"Na rubezhe. Otvetnyy udar","year":"2014-05-25","translations":["Оригинальная дорожка"],"seasons_count":1,"episodes_count":4,"episodes":4,"update":"2020-06-29 13:20:57","iframe_src":"//8209.svetacdn.in/10IAF0wWTdNYZm/tv-series/8031"},{"id":8030,"title":"Акула","kp_id":"500568","imdb_id":null,"world_art_id":null,"type":"serial","add":"2020-06-26 12:57:09","orig_title":"Акула","year":"2010-01-01","translations":["Оригинальная дорожка"],"seasons_count":1,"episodes_count":8,"episodes":8,"update":"2020-06-29 13:18:16","iframe_src":"//8209.svetacdn.in/10IAF0wWTdNYZm/tv-series/8030"},{"id":7844,"title":"Скрестив мечи","kp_id":"1198083","imdb_id":"tt8777690","world_art_id":null,"type":"serial","add":"2020-06-12 19:54:35","orig_title":"Crossing Swords","year":"2020-06-13","translations":["Любительский (многоголосый закадровый) (Octopus)","Профессиональный (многоголосый закадровый) (HDrezka Studio)","Профессиональный (двухголосый закадровый) (DoubleRec)","Профессиональный (многоголосый закадровый) (NewComers)"],"seasons_count":1,"episodes_count":10,"episodes":10,"update":"2020-06-30 13:14:34","iframe_src":"//8209.svetacdn.in/10IAF0wWTdNYZm/tv-series/7844"},{"id":7579,"title":"Зомболодка!","kp_id":"1295920","imdb_id":"tt10404664","world_art_id":null,"type":"serial","add":"2020-05-21 05:35:20","orig_title":"Zomboat!","year":"2019-10-08","translations":["Профессиональный (двухголосый закадровый) (ViruseProject)","Профессиональный (двухголосый закадровый) (Кубик в Кубе)"],"seasons_count":1,"episodes_count":6,"episodes":6,"update":"2020-06-30 07:55:33","iframe_src":"//8209.svetacdn.in/10IAF0wWTdNYZm/tv-series/7579"},{"id":39246,"title":"Приходи в сентябре","kp_id":"29679","imdb_id":"tt0054759","world_art_id":null,"type":"movie","add":"2020-04-13 09:57:53","orig_title":"Come September","year":"1961-08-09","translations":["Профессиональный (многоголосый закадровый)","Профессиональный (многоголосый закадровый)","Original (English)"],"quality":"dvdrip","translation":"Профессиональный (многоголосый закадровый)","update":"2021-05-20 06:05:30","iframe_src":"//8209.svetacdn.in/10IAF0wWTdNYZm/movie/39246"},{"id":6791,"title":"Разрабы","kp_id":"1137249","imdb_id":"tt8134186","world_art_id":null,"type":"serial","add":"2020-03-05 13:55:23","orig_title":"Devs","year":"2020-03-05","translations":["Любительский (многоголосый закадровый) (Octopus)","Любительский (многоголосый закадровый) (ColdFilm)","Профессиональный (многоголосый закадровый) (HDrezka Studio)","Любительский (двухголосый закадровый) (KerobTV)","Любительский (многоголосый закадровый) (WestFilm)","Профессиональный (двухголосый закадровый) (Кубик в Кубе)","Профессиональный (многоголосый закадровый) (TVShows)","Любительский (многоголосый закадровый) (KerobTV)"],"seasons_count":1,"episodes_count":8,"episodes":8,"update":"2020-06-30 15:33:07","iframe_src":"//8209.svetacdn.in/10IAF0wWTdNYZm/tv-series/6791"},{"id":6309,"title":"Сабрина - маленькая ведьма","kp_id":"790339","imdb_id":"tt2440832","world_art_id":null,"type":"serial","add":"2020-01-11 06:09:40","orig_title":"Sabrina: Secrets of a Teenage Witch","year":"2013-10-12","translations":["Полное дублирование (Кириллица)"],"seasons_count":1,"episodes_count":26,"episodes":26,"update":"2020-06-30 16:49:50","iframe_src":"//8209.svetacdn.in/10IAF0wWTdNYZm/tv-series/6309"},{"id":5123,"title":"Без следа","kp_id":"277577","imdb_id":"tt0321021","world_art_id":null,"type":"serial","add":"2019-09-02 06:31:28","orig_title":"Without a Trace","year":"2002-09-26","translations":["Профессиональный (многоголосый закадровый) (НТВ)","Профессиональный (многоголосый закадровый)"],"seasons_count":7,"episodes_count":160,"episodes":24,"update":"2020-06-30 17:53:49","iframe_src":"//8209.svetacdn.in/10IAF0wWTdNYZm/tv-series/5123"},{"id":4966,"title":"Вселенная Стивена","kp_id":"790336","imdb_id":"tt3061046","world_art_id":null,"type":"serial","add":"2019-07-29 11:57:14","orig_title":"Steven Universe","year":"2013-11-04","translations":["Полное дублирование (Пифагор)","Полное дублирование (SDI Media)","Любительский (многоголосый закадровый) (ColdFilm)"],"seasons_count":5,"episodes_count":87,"episodes":15,"update":"2020-06-30 13:24:43","iframe_src":"//8209.svetacdn.in/10IAF0wWTdNYZm/tv-series/4966"},{"id":4676,"title":"Мне не жить без тебя","kp_id":"521807","imdb_id":"tt0211873","world_art_id":null,"type":"serial","add":"2019-06-16 17:42:31","orig_title":"Te sigo amando","year":"1996-11-18","translations":["Любительский (одноголосый закадровый) (Мадлен Дюваль)"],"seasons_count":1,"episodes_count":16,"episodes":16,"update":"2020-06-30 13:26:02","iframe_src":"//8209.svetacdn.in/10IAF0wWTdNYZm/tv-series/4676"},{"id":23271,"title":"Мост Ватерлоо","kp_id":"16759","imdb_id":"tt0033238","world_art_id":null,"type":"movie","add":"2019-03-20 07:52:38","orig_title":"Waterloo Bridge","year":"1940-05-17","translations":["Профессиональный (многоголосый закадровый) (Film Prestige)","Original (English)"],"quality":"bd","translation":"Профессиональный (многоголосый закадровый) (Film Prestige)","update":"2021-05-20 06:07:58","iframe_src":"//8209.svetacdn.in/10IAF0wWTdNYZm/movie/23271"},{"id":4139,"title":"Ложь во спасение","kp_id":"481479","imdb_id":"tt0211779","world_art_id":null,"type":"serial","add":"2019-02-24 15:06:35","orig_title":"Bendita Mentira","year":"1996-08-05","translations":["Любительский (одноголосый закадровый)","Любительский (одноголосый закадровый) (Мадлен Дюваль)"],"seasons_count":1,"episodes_count":25,"episodes":25,"update":"2020-06-30 13:26:43","iframe_src":"//8209.svetacdn.in/10IAF0wWTdNYZm/tv-series/4139"},{"id":11715,"title":"Странные супруги","kp_id":"29676","imdb_id":"tt0058621","world_art_id":null,"type":"movie","add":"2017-05-31 12:17:07","orig_title":"Strange Bedfellows","year":"1965-02-10","translations":["Авторский (одноголосый закадровый) (Яковлев Алексей)","Original (English)"],"quality":"webdl","translation":"Авторский (одноголосый закадровый) (Яковлев Алексей)","update":"2021-05-20 06:04:33","iframe_src":"//8209.svetacdn.in/10IAF0wWTdNYZm/movie/11715"},{"id":1160,"title":"13 причин почему","kp_id":"582358","imdb_id":"tt1837492","world_art_id":null,"type":"serial","add":"2017-04-03 15:21:56","orig_title":"13 Reasons Why","year":"2017-03-31","translations":["Профессиональный (многоголосый закадровый) (NewStudio)","Профессиональный (многоголосый закадровый) (LostFilm)","Профессиональный (многоголосый закадровый) (HDrezka Studio)","Полное дублирование (Пифагор)","Профессиональный (двухголосый закадровый) (Gears Media)","Любительский (многоголосый закадровый) (Alternative Production)","Профессиональный (двухголосый закадровый) (LostFilm)","Профессиональный (многоголосый закадровый) (Jaskier)","Профессиональный (многоголосый закадровый) (AMS)","Профессиональный (многоголосый закадровый) (TVShows)","Любительский (многоголосый закадровый) (Octopus)","Любительский (многоголосый закадровый) (ColdFilm)","Профессиональный (двухголосый закадровый) (IdeaFilm)","Профессиональный (многоголосый закадровый) (BaibaKo)"],"seasons_count":4,"episodes_count":49,"episodes":10,"update":"2020-06-30 15:23:56","iframe_src":"//8209.svetacdn.in/10IAF0wWTdNYZm/tv-series/1160"}],"current_page":236,"first_page_url":"https://videocdn.tv/api/short?limit=100&api_token=6Onb1W1alEUrBcKJZD3GoKBbWyAl2uG2&cache3236=3236&page=1","from":23501,"last_page":662,"last_page_url":"https://videocdn.tv/api/short?limit=100&api_token=6Onb1W1alEUrBcKJZD3GoKBbWyAl2uG2&cache3236=3236&page=662","next_page_url":"https://videocdn.tv/api/short?limit=100&api_token=6Onb1W1alEUrBcKJZD3GoKBbWyAl2uG2&cache3236=3236&page=237","path":"https://videocdn.tv/api/short","per_page":100,"prev_page_url":"https://videocdn.tv/api/short?limit=100&api_token=6Onb1W1alEUrBcKJZD3GoKBbWyAl2uG2&cache3236=3236&page=235","to":23540,"total":66160}