{"result":true,"data":[{"id":49549,"title":"Мацист против охотников за головами","kp_id":"81484","imdb_id":"tt0056207","world_art_id":null,"type":"movie","add":"2021-04-12 06:08:13","orig_title":"Maciste contro i cacciatori di teste","year":"1963-01-10","translations":["Любительский (одноголосый закадровый) (den904)"],"quality":"dvdrip","translation":"Любительский (одноголосый закадровый) (den904)","update":"2021-04-12 07:26:19","iframe_src":"//5322.svetacdn.in/IAF0wWTdNYZm/movie/49549"},{"id":49526,"title":"Nat Geo Wild: Сесил: Наследие короля","kp_id":null,"imdb_id":"tt13516500","world_art_id":null,"type":"movie","add":"2021-04-11 18:12:08","orig_title":"Cecil: The Legacy of a King","year":"2020-10-23","translations":["Профессиональный (одноголосый закадровый) (Велес)"],"quality":"hdtv","translation":"Профессиональный (одноголосый закадровый) (Велес)","update":"2021-04-12 06:55:59","iframe_src":"//5322.svetacdn.in/IAF0wWTdNYZm/movie/49526"},{"id":49522,"title":"Инопланетный апокалипсис","kp_id":"89508","imdb_id":"tt0404756","world_art_id":null,"type":"movie","add":"2021-04-11 17:36:24","orig_title":"Alien Apocalypse","year":"2005-03-26","translations":["Профессиональный (двухголосый закадровый) (РенТВ)"],"quality":"dvdrip","translation":"Профессиональный (двухголосый закадровый) (РенТВ)","update":"2021-04-12 06:50:58","iframe_src":"//5322.svetacdn.in/IAF0wWTdNYZm/movie/49522"},{"id":49517,"title":"Рой","kp_id":"1777","imdb_id":"tt0078350","world_art_id":null,"type":"movie","add":"2021-04-11 17:28:33","orig_title":"The Swarm","year":"1978-07-14","translations":["Профессиональный (двухголосый закадровый) (НТВ)"],"quality":"dvdrip","translation":"Профессиональный (двухголосый закадровый) (НТВ)","update":"2021-04-11 21:03:45","iframe_src":"//5322.svetacdn.in/IAF0wWTdNYZm/movie/49517"},{"id":49516,"title":"Землетрясение","kp_id":"13668","imdb_id":"tt0071455","world_art_id":null,"type":"movie","add":"2021-04-11 17:16:20","orig_title":"Earthquake","year":"1974-11-15","translations":["Профессиональный (двухголосый закадровый)"],"quality":"bd","translation":"Профессиональный (двухголосый закадровый)","update":"2021-04-11 20:56:47","iframe_src":"//5322.svetacdn.in/IAF0wWTdNYZm/movie/49516"},{"id":49513,"title":"Чокнутые","kp_id":"1266883","imdb_id":"tt10262632","world_art_id":null,"type":"movie","add":"2021-04-11 16:59:28","orig_title":"Cranks","year":"2019-09-30","translations":["Любительский (многоголосый закадровый) (Синема УС)"],"quality":"webdl","translation":"Любительский (многоголосый закадровый) (Синема УС)","update":"2021-04-12 07:03:20","iframe_src":"//5322.svetacdn.in/IAF0wWTdNYZm/movie/49513"},{"id":49512,"title":"Энтропия","kp_id":"1183104","imdb_id":"tt8873168","world_art_id":null,"type":"movie","add":"2021-04-11 16:30:59","orig_title":"Entropic","year":"2019-01-01","translations":["Любительский (многоголосый закадровый) (Синема УС)"],"quality":"webdl","translation":"Любительский (многоголосый закадровый) (Синема УС)","update":"2021-04-12 07:02:41","iframe_src":"//5322.svetacdn.in/IAF0wWTdNYZm/movie/49512"},{"id":49511,"title":"Дракон желаний","kp_id":"1024706","imdb_id":"tt5562070","world_art_id":null,"type":"movie","add":"2021-04-11 16:28:51","orig_title":"Wish Dragon","year":"2021-01-15","translations":["Любительский (двухголосый закадровый) (Колобок)"],"quality":"webdl","translation":"Любительский (двухголосый закадровый) (Колобок)","update":"2021-04-12 07:01:58","iframe_src":"//5322.svetacdn.in/IAF0wWTdNYZm/movie/49511"},{"id":49508,"title":"Коряжка и морской змей","kp_id":"1416740","imdb_id":"tt12636658","world_art_id":null,"type":"movie","add":"2021-04-11 16:21:53","orig_title":"Knerten og sjøormen","year":"2020-07-03","translations":["Любительский (многоголосый закадровый) (Синема УС)"],"quality":"webdl","translation":"Любительский (многоголосый закадровый) (Синема УС)","update":"2021-04-12 06:58:54","iframe_src":"//5322.svetacdn.in/IAF0wWTdNYZm/movie/49508"},{"id":49507,"title":"Пришельцы","kp_id":"1335745","imdb_id":"tt11477602","world_art_id":null,"type":"movie","add":"2021-04-11 16:20:04","orig_title":"Cosmic","year":"2019-12-21","translations":["Любительский (многоголосый закадровый) (Синема УС)"],"quality":"webdl","translation":"Любительский (многоголосый закадровый) (Синема УС)","update":"2021-04-12 06:57:54","iframe_src":"//5322.svetacdn.in/IAF0wWTdNYZm/movie/49507"},{"id":49502,"title":"Сангатамил","kp_id":"1264173","imdb_id":"tt10300380","world_art_id":null,"type":"movie","add":"2021-04-11 11:57:28","orig_title":"Sanga Thamizhan","year":"2019-11-15","translations":["Любительский (одноголосый закадровый)"],"quality":"webdl","translation":"Любительский (одноголосый закадровый)","update":"2021-04-11 18:19:42","iframe_src":"//5322.svetacdn.in/IAF0wWTdNYZm/movie/49502"},{"id":49498,"title":"Мать-земля","kp_id":"1194890","imdb_id":"tt8991296","world_art_id":null,"type":"movie","add":"2021-04-11 11:31:54","orig_title":"Earth Mother","year":"2020-10-02","translations":["Любительский (многоголосый закадровый) (Синема УС)"],"quality":"webdl","translation":"Любительский (многоголосый закадровый) (Синема УС)","update":"2021-04-11 14:20:21","iframe_src":"//5322.svetacdn.in/IAF0wWTdNYZm/movie/49498"},{"id":49496,"title":"Навигатор","kp_id":null,"imdb_id":"tt13733824","world_art_id":null,"type":"movie","add":"2021-04-11 11:30:05","orig_title":"Navigate","year":"2021-01-01","translations":["Любительский (многоголосый закадровый) (Синема УС)"],"quality":"webdl","translation":"Любительский (многоголосый закадровый) (Синема УС)","update":"2021-04-11 14:20:07","iframe_src":"//5322.svetacdn.in/IAF0wWTdNYZm/movie/49496"},{"id":49495,"title":"Угодья","kp_id":"796270","imdb_id":"tt3110892","world_art_id":null,"type":"movie","add":"2021-04-11 11:27:09","orig_title":"The Grounds","year":"2018-04-05","translations":["Любительский (многоголосый закадровый) (Синема УС)"],"quality":"webdl","translation":"Любительский (многоголосый закадровый) (Синема УС)","update":"2021-04-11 14:19:55","iframe_src":"//5322.svetacdn.in/IAF0wWTdNYZm/movie/49495"},{"id":49489,"title":"Подонок","kp_id":"1346786","imdb_id":"tt9108892","world_art_id":null,"type":"movie","add":"2021-04-10 18:11:01","orig_title":"Harami","year":"2021-01-01","translations":["Любительский (многоголосый закадровый) (FanStudio)","Любительский (многоголосый закадровый) (FanStudio)"],"quality":"webdl","translation":"Любительский (многоголосый закадровый) (FanStudio)","update":"2021-04-11 18:09:30","iframe_src":"//5322.svetacdn.in/IAF0wWTdNYZm/movie/49489"},{"id":49480,"title":"Внезапный","kp_id":"12506","imdb_id":"tt0047542","world_art_id":null,"type":"movie","add":"2021-04-09 17:52:13","orig_title":"Suddenly","year":"1954-09-17","translations":["Профессиональный (многоголосый закадровый)"],"quality":"dvdrip","translation":"Профессиональный (многоголосый закадровый)","update":"2021-04-11 16:46:55","iframe_src":"//5322.svetacdn.in/IAF0wWTdNYZm/movie/49480"},{"id":46051,"title":"Подвиг","kp_id":"1417378","imdb_id":"tt13000980","world_art_id":null,"type":"movie","add":"2020-12-14 08:08:36","orig_title":"Jin Gang Chuan","year":"2020-10-23","translations":["Любительский (двухголосый закадровый) (Колобок)","Любительский (двухголосый закадровый) (DeadSno & den904)"],"quality":"webdl","translation":"Любительский (двухголосый закадровый) (Колобок)","update":"2021-04-11 15:06:18","iframe_src":"//5322.svetacdn.in/IAF0wWTdNYZm/movie/46051"},{"id":45453,"title":"Охота на Санту","kp_id":"1331675","imdb_id":"tt10310140","world_art_id":null,"type":"movie","add":"2020-11-19 22:04:50","orig_title":"Fatman","year":"2020-10-08","translations":["Original (English)","Любительский (многоголосый закадровый) (@MUZOBOZ@)","Любительский (одноголосый закадровый) (BadBajo)","Профессиональный (многоголосый закадровый) (AMS)","Полное дублирование (IVI)"],"quality":"webdl","translation":"Original (English)","update":"2021-04-11 15:08:36","iframe_src":"//5322.svetacdn.in/IAF0wWTdNYZm/movie/45453"},{"id":9133,"title":"Лучший город Земли","kp_id":"103074","imdb_id":"tt0435975","world_art_id":null,"type":"serial","add":"2020-10-27 06:30:22","orig_title":"Luchshiy gorod Zemli","year":"2003-08-25","translations":["Оригинальная дорожка"],"seasons_count":1,"episodes_count":24,"episodes":24,"update":"2020-10-27 14:31:37","iframe_src":"//5322.svetacdn.in/IAF0wWTdNYZm/tv-series/9133"},{"id":9132,"title":"Московские окна","kp_id":"103073","imdb_id":"tt0429402","world_art_id":null,"type":"serial","add":"2020-10-27 06:25:44","orig_title":"Moskovskye okna","year":"2001-10-29","translations":["Оригинальная дорожка"],"seasons_count":1,"episodes_count":26,"episodes":26,"update":"2020-10-27 14:24:31","iframe_src":"//5322.svetacdn.in/IAF0wWTdNYZm/tv-series/9132"},{"id":9128,"title":"Русские страшилки","kp_id":"426317","imdb_id":"tt1979722","world_art_id":null,"type":"serial","add":"2020-10-26 16:49:04","orig_title":"Russkie strashilki","year":"2002-01-01","translations":["Оригинальная дорожка"],"seasons_count":1,"episodes_count":18,"episodes":18,"update":"2020-10-27 14:16:49","iframe_src":"//5322.svetacdn.in/IAF0wWTdNYZm/tv-series/9128"},{"id":9127,"title":"На ножах","kp_id":"401511","imdb_id":"tt0484247","world_art_id":null,"type":"serial","add":"2020-10-26 16:42:20","orig_title":"Na nozhakh","year":"1998-01-01","translations":["Оригинальная дорожка"],"seasons_count":1,"episodes_count":11,"episodes":11,"update":"2020-10-27 13:56:53","iframe_src":"//5322.svetacdn.in/IAF0wWTdNYZm/tv-series/9127"},{"id":9126,"title":"Из жизни капитана Черняева","kp_id":"480522","imdb_id":"tt4996574","world_art_id":null,"type":"serial","add":"2020-10-26 16:31:26","orig_title":"Iz zhizni kapitana Chernyaeva","year":"2009-12-13","translations":["Оригинальная дорожка"],"seasons_count":1,"episodes_count":12,"episodes":12,"update":"2020-10-27 13:37:01","iframe_src":"//5322.svetacdn.in/IAF0wWTdNYZm/tv-series/9126"},{"id":9125,"title":"Азбука любви","kp_id":"397169","imdb_id":"tt0103355","world_art_id":null,"type":"serial","add":"2020-10-26 16:28:07","orig_title":"Azbuka lyubvi","year":"1992-01-01","translations":["Оригинальная дорожка"],"seasons_count":1,"episodes_count":12,"episodes":12,"update":"2020-10-27 13:33:42","iframe_src":"//5322.svetacdn.in/IAF0wWTdNYZm/tv-series/9125"},{"id":9099,"title":"Держи меня крепче","kp_id":"453190","imdb_id":null,"world_art_id":null,"type":"serial","add":"2020-10-24 09:15:31","orig_title":"Держи меня крепче","year":"2007-01-01","translations":["Оригинальная дорожка"],"seasons_count":1,"episodes_count":70,"episodes":70,"update":"2020-10-27 13:15:16","iframe_src":"//5322.svetacdn.in/IAF0wWTdNYZm/tv-series/9099"},{"id":9091,"title":"Охотники за иконами","kp_id":"427891","imdb_id":null,"world_art_id":null,"type":"serial","add":"2020-10-23 12:31:01","orig_title":"Ohotniki za ikonami","year":"2005-01-01","translations":["Оригинальная дорожка"],"seasons_count":1,"episodes_count":8,"episodes":8,"update":"2020-10-27 13:12:54","iframe_src":"//5322.svetacdn.in/IAF0wWTdNYZm/tv-series/9091"},{"id":9090,"title":"Звезда эпохи","kp_id":"231068","imdb_id":"tt0459728","world_art_id":null,"type":"serial","add":"2020-10-23 12:27:10","orig_title":"Zvezda epokhi","year":"2005-04-25","translations":["Оригинальная дорожка"],"seasons_count":1,"episodes_count":8,"episodes":8,"update":"2020-10-27 13:09:50","iframe_src":"//5322.svetacdn.in/IAF0wWTdNYZm/tv-series/9090"},{"id":9089,"title":"Подземный переход","kp_id":"644749","imdb_id":"tt4136608","world_art_id":null,"type":"serial","add":"2020-10-23 12:23:10","orig_title":"Podzemnyy perekhod","year":"2012-01-01","translations":["Оригинальная дорожка"],"seasons_count":1,"episodes_count":8,"episodes":8,"update":"2020-10-27 13:07:56","iframe_src":"//5322.svetacdn.in/IAF0wWTdNYZm/tv-series/9089"},{"id":9088,"title":"ГИБДД и т.д.","kp_id":"412337","imdb_id":"tt3304308","world_art_id":null,"type":"serial","add":"2020-10-23 12:17:21","orig_title":"GIBDD i t.d.","year":"2008-01-01","translations":["Оригинальная дорожка"],"seasons_count":1,"episodes_count":32,"episodes":32,"update":"2020-10-27 13:05:57","iframe_src":"//5322.svetacdn.in/IAF0wWTdNYZm/tv-series/9088"},{"id":9087,"title":"Крем","kp_id":"421413","imdb_id":"tt3556462","world_art_id":null,"type":"serial","add":"2020-10-23 12:02:12","orig_title":"Krem","year":"2010-01-03","translations":["Оригинальная дорожка"],"seasons_count":1,"episodes_count":84,"episodes":84,"update":"2020-10-27 12:47:12","iframe_src":"//5322.svetacdn.in/IAF0wWTdNYZm/tv-series/9087"},{"id":9069,"title":"Милые беды","kp_id":null,"imdb_id":"tt3557112","world_art_id":null,"type":"serial","add":"2020-10-20 19:44:35","orig_title":"Les beaux malaises","year":"2014-01-22","translations":["Любительский (многоголосый закадровый) (WestFilm)"],"seasons_count":3,"episodes_count":33,"episodes":11,"update":"2020-10-27 19:36:16","iframe_src":"//5322.svetacdn.in/IAF0wWTdNYZm/tv-series/9069"},{"id":8921,"title":"#трудовыебудни","kp_id":"1236341","imdb_id":"tt8905884","world_art_id":null,"type":"serial","add":"2020-10-06 09:01:01","orig_title":"Adult Material","year":"2020-10-05","translations":["Любительский (многоголосый закадровый) (ColdFilm)","Любительский (многоголосый закадровый) (Ultradox)","Профессиональный (многоголосый закадровый) (Ozz.tv)","Профессиональный (многоголосый закадровый) (BaibaKo)","Профессиональный (двухголосый закадровый) (Кубик в Кубе)","Любительский (многоголосый закадровый) (Octopus)","Любительский (двухголосый закадровый) (ColdFilm)"],"seasons_count":1,"episodes_count":4,"episodes":4,"update":"2020-10-27 19:16:07","iframe_src":"//5322.svetacdn.in/IAF0wWTdNYZm/tv-series/8921"},{"id":8467,"title":"Звонарь 2","kp_id":"1345708","imdb_id":null,"world_art_id":null,"type":"serial","add":"2020-08-18 07:48:42","orig_title":"Звонарь 2","year":"2020-08-18","translations":["Оригинальная дорожка"],"seasons_count":1,"episodes_count":16,"episodes":16,"update":"2020-10-27 13:52:40","iframe_src":"//5322.svetacdn.in/IAF0wWTdNYZm/tv-series/8467"},{"id":33215,"title":"Тайный брат","kp_id":"868","imdb_id":"tt0279493","world_art_id":null,"type":"movie","add":"2019-11-18 14:03:23","orig_title":"Undercover Brother","year":"2002-05-31","translations":["Профессиональный (многоголосый закадровый)","Original (English)"],"quality":"webdl","translation":"Профессиональный (многоголосый закадровый)","update":"2021-04-12 06:53:15","iframe_src":"//5322.svetacdn.in/IAF0wWTdNYZm/movie/33215"},{"id":29888,"title":"Двадцать один час в Мюнхене","kp_id":"326947","imdb_id":"tt0074085","world_art_id":null,"type":"movie","add":"2019-08-09 21:02:13","orig_title":"21 Hours at Munich","year":"1976-11-07","translations":["Профессиональный (двухголосый закадровый)","Авторский (одноголосый закадровый) (Яковлев Алексей)","Профессиональный (двухголосый закадровый) (НТВ)"],"quality":"dvdrip","translation":"Профессиональный (двухголосый закадровый)","update":"2021-04-11 16:48:27","iframe_src":"//5322.svetacdn.in/IAF0wWTdNYZm/movie/29888"},{"id":2856,"title":"Каменская 6","kp_id":"570059","imdb_id":"tt4192512","world_art_id":null,"type":"serial","add":"2018-06-21 13:01:14","orig_title":"Kamenskaya shest","year":"2011-08-22","translations":["Оригинальная дорожка"],"seasons_count":1,"episodes_count":12,"episodes":12,"update":"2020-10-27 12:49:34","iframe_src":"//5322.svetacdn.in/IAF0wWTdNYZm/tv-series/2856"},{"id":2815,"title":"Каменская 4","kp_id":"467504","imdb_id":"tt4377508","world_art_id":null,"type":"serial","add":"2018-06-14 10:49:04","orig_title":"Kamenskaya chetyre","year":"2005-08-05","translations":["Оригинальная дорожка"],"seasons_count":1,"episodes_count":12,"episodes":12,"update":"2020-10-27 12:53:28","iframe_src":"//5322.svetacdn.in/IAF0wWTdNYZm/tv-series/2815"},{"id":1671,"title":"Человек-паук","kp_id":"1008482","imdb_id":"tt6135682","world_art_id":null,"type":"serial","add":"2017-10-25 13:51:28","orig_title":"Spider-Man","year":"2017-08-19","translations":["Любительский (многоголосый закадровый) (Hamster Studio)","Любительский (двухголосый закадровый) (Hamster Studio)","Любительский (многоголосый закадровый) (Octopus)","Любительский (многоголосый закадровый) (ColdFilm)"],"seasons_count":3,"episodes_count":64,"episodes":12,"update":"2020-10-27 21:47:04","iframe_src":"//5322.svetacdn.in/IAF0wWTdNYZm/tv-series/1671"},{"id":1131,"title":"Оттепель","kp_id":"713333","imdb_id":"tt3398314","world_art_id":null,"type":"serial","add":"2017-03-21 09:16:20","orig_title":"Ottepel","year":"2013-12-02","translations":["Оригинальная дорожка"],"seasons_count":1,"episodes_count":12,"episodes":12,"update":"2020-10-27 14:00:34","iframe_src":"//5322.svetacdn.in/IAF0wWTdNYZm/tv-series/1131"},{"id":589,"title":"Мастер и Маргарита","kp_id":"79429","imdb_id":"tt0403783","world_art_id":null,"type":"serial","add":"2016-11-15 15:41:52","orig_title":"Master i Margarita","year":"2005-12-19","translations":["Оригинальная дорожка"],"seasons_count":1,"episodes_count":10,"episodes":10,"update":"2020-10-27 13:44:20","iframe_src":"//5322.svetacdn.in/IAF0wWTdNYZm/tv-series/589"}],"current_page":122,"first_page_url":"https://videocdn.tv/api/short?limit=100&api_token=6Onb1W1alEUrBcKJZD3GoKBbWyAl2uG2&cache3122=3122&page=1","from":12101,"last_page":628,"last_page_url":"https://videocdn.tv/api/short?limit=100&api_token=6Onb1W1alEUrBcKJZD3GoKBbWyAl2uG2&cache3122=3122&page=628","next_page_url":"https://videocdn.tv/api/short?limit=100&api_token=6Onb1W1alEUrBcKJZD3GoKBbWyAl2uG2&cache3122=3122&page=123","path":"https://videocdn.tv/api/short","per_page":100,"prev_page_url":"https://videocdn.tv/api/short?limit=100&api_token=6Onb1W1alEUrBcKJZD3GoKBbWyAl2uG2&cache3122=3122&page=121","to":12140,"total":62765}