{"result":true,"data":[{"id":45199,"title":"Мой принц Эдвард","kp_id":"1312082","imdb_id":"tt11070230","world_art_id":null,"type":"movie","add":"2020-11-11 10:21:43","orig_title":"My Prince Edward","year":"2020-05-08","translations":["Любительский (многоголосый закадровый) (Синема УС)"],"quality":"bd","translation":"Любительский (многоголосый закадровый) (Синема УС)","update":"2020-11-11 12:57:14","iframe_src":"//7043.svetacdn.in/si4jsFRrtgrT/movie/45199"},{"id":45197,"title":"Ви-Эйч-Эс","kp_id":"1265055","imdb_id":"tt10287376","world_art_id":null,"type":"movie","add":"2020-11-11 10:07:45","orig_title":"VHYes","year":"2019-09-21","translations":["Любительский (многоголосый закадровый) (Синема УС)"],"quality":"webdl","translation":"Любительский (многоголосый закадровый) (Синема УС)","update":"2020-11-11 12:56:25","iframe_src":"//7043.svetacdn.in/si4jsFRrtgrT/movie/45197"},{"id":45196,"title":"Перенос: История Любви","kp_id":"1221647","imdb_id":"tt9460386","world_art_id":null,"type":"movie","add":"2020-11-11 10:02:43","orig_title":"Transference: A Love Story","year":"2020-06-26","translations":["Любительский (многоголосый закадровый) (Синема УС)"],"quality":"webdl","translation":"Любительский (многоголосый закадровый) (Синема УС)","update":"2020-11-11 12:56:10","iframe_src":"//7043.svetacdn.in/si4jsFRrtgrT/movie/45196"},{"id":45195,"title":"Пропавшая сестра","kp_id":"1215070","imdb_id":"tt9241780","world_art_id":null,"type":"movie","add":"2020-11-11 09:54:59","orig_title":"The Missing Sister","year":"2019-11-16","translations":["Любительский (многоголосый закадровый) (Синема УС)"],"quality":"webdl","translation":"Любительский (многоголосый закадровый) (Синема УС)","update":"2020-11-11 12:55:57","iframe_src":"//7043.svetacdn.in/si4jsFRrtgrT/movie/45195"},{"id":45194,"title":"Ключ к Рождеству","kp_id":"1437900","imdb_id":"tt12717050","world_art_id":null,"type":"movie","add":"2020-11-11 09:52:56","orig_title":"The Key to Christmas","year":"2020-11-10","translations":["Любительский (многоголосый закадровый) (Синема УС)"],"quality":"webdl","translation":"Любительский (многоголосый закадровый) (Синема УС)","update":"2020-11-11 12:55:46","iframe_src":"//7043.svetacdn.in/si4jsFRrtgrT/movie/45194"},{"id":45193,"title":"Сквоттер","kp_id":"1119632","imdb_id":"tt8245904","world_art_id":null,"type":"movie","add":"2020-11-11 09:48:54","orig_title":"Squatter","year":"2020-11-09","translations":["Любительский (многоголосый закадровый) (Синема УС)"],"quality":"webdl","translation":"Любительский (многоголосый закадровый) (Синема УС)","update":"2020-11-11 12:55:17","iframe_src":"//7043.svetacdn.in/si4jsFRrtgrT/movie/45193"},{"id":45192,"title":"Самозащита","kp_id":"1245344","imdb_id":"tt9916190","world_art_id":null,"type":"movie","add":"2020-11-11 09:44:25","orig_title":"Safeguard","year":"2020-10-15","translations":["Любительский (многоголосый закадровый) (@MUZOBOZ@)"],"quality":"webdl","translation":"Любительский (многоголосый закадровый) (@MUZOBOZ@)","update":"2020-11-11 12:59:36","iframe_src":"//7043.svetacdn.in/si4jsFRrtgrT/movie/45192"},{"id":45191,"title":"Настоящие","kp_id":"1181393","imdb_id":"tt8794186","world_art_id":null,"type":"movie","add":"2020-11-11 09:41:17","orig_title":"Real","year":"2019-10-06","translations":["Любительский (многоголосый закадровый) (@MUZOBOZ@)"],"quality":"webdl","translation":"Любительский (многоголосый закадровый) (@MUZOBOZ@)","update":"2020-11-11 12:54:40","iframe_src":"//7043.svetacdn.in/si4jsFRrtgrT/movie/45191"},{"id":45088,"title":"Бурёнушка","kp_id":"614757","imdb_id":"tt9257876","world_art_id":null,"type":"movie","add":"2020-11-07 16:41:47","orig_title":"Burenushka","year":"1974-01-01","translations":["Оригинальная дорожка"],"quality":"dvdrip","translation":"Оригинальная дорожка","update":"2020-11-11 13:21:53","iframe_src":"//7043.svetacdn.in/si4jsFRrtgrT/movie/45088"},{"id":45087,"title":"Бедная Лиза","kp_id":"537151","imdb_id":"tt2371462","world_art_id":null,"type":"movie","add":"2020-11-07 16:37:41","orig_title":"Bednaya Liza","year":"1978-01-01","translations":["Оригинальная дорожка"],"quality":"dvdrip","translation":"Оригинальная дорожка","update":"2020-11-11 13:19:10","iframe_src":"//7043.svetacdn.in/si4jsFRrtgrT/movie/45087"},{"id":45086,"title":"Гришкины книжки","kp_id":"668673","imdb_id":"tt9007536","world_art_id":null,"type":"movie","add":"2020-11-07 16:34:24","orig_title":"Grishkiny knizhki","year":"1979-01-01","translations":["Оригинальная дорожка"],"quality":"dvdrip","translation":"Оригинальная дорожка","update":"2020-11-11 13:12:03","iframe_src":"//7043.svetacdn.in/si4jsFRrtgrT/movie/45086"},{"id":45060,"title":"Сказка про храброго зайца...","kp_id":"565176","imdb_id":"tt6945344","world_art_id":null,"type":"movie","add":"2020-11-05 18:53:22","orig_title":"Skazka pro khrabrogo zaytsa...","year":"1978-01-01","translations":["Оригинальная дорожка"],"quality":"dvdrip","translation":"Оригинальная дорожка","update":"2020-11-11 13:08:58","iframe_src":"//7043.svetacdn.in/si4jsFRrtgrT/movie/45060"},{"id":45059,"title":"В поисках Олуэн","kp_id":"455483","imdb_id":"tt9057904","world_art_id":null,"type":"movie","add":"2020-11-05 18:50:17","orig_title":"V poiskakh Oluen","year":"1990-01-01","translations":["Оригинальная дорожка"],"quality":"dvdrip","translation":"Оригинальная дорожка","update":"2020-11-11 13:08:11","iframe_src":"//7043.svetacdn.in/si4jsFRrtgrT/movie/45059"},{"id":45058,"title":"В лесу родилась елочка","kp_id":"430493","imdb_id":"tt6358630","world_art_id":null,"type":"movie","add":"2020-11-05 18:47:36","orig_title":"V lesu rodilas yolochka","year":"1972-11-27","translations":["Оригинальная дорожка"],"quality":"dvdrip","translation":"Оригинальная дорожка","update":"2020-11-11 12:58:13","iframe_src":"//7043.svetacdn.in/si4jsFRrtgrT/movie/45058"},{"id":45057,"title":"Валидуб","kp_id":"461842","imdb_id":"tt4076306","world_art_id":null,"type":"movie","add":"2020-11-05 18:43:09","orig_title":"Validub","year":"1952-01-01","translations":["Оригинальная дорожка"],"quality":"dvdrip","translation":"Оригинальная дорожка","update":"2020-11-11 12:25:57","iframe_src":"//7043.svetacdn.in/si4jsFRrtgrT/movie/45057"},{"id":45056,"title":"Василек","kp_id":"258115","imdb_id":"tt1945226","world_art_id":null,"type":"movie","add":"2020-11-05 18:40:58","orig_title":"Vasilyok","year":"1973-01-01","translations":["Оригинальная дорожка"],"quality":"dvdrip","translation":"Оригинальная дорожка","update":"2020-11-11 12:24:45","iframe_src":"//7043.svetacdn.in/si4jsFRrtgrT/movie/45056"},{"id":45054,"title":"Вересковый мед","kp_id":"489276","imdb_id":"tt6493386","world_art_id":null,"type":"movie","add":"2020-11-05 18:37:45","orig_title":"Vereskovyy myod","year":"1974-01-01","translations":["Оригинальная дорожка"],"quality":"dvdrip","translation":"Оригинальная дорожка","update":"2020-11-11 12:23:10","iframe_src":"//7043.svetacdn.in/si4jsFRrtgrT/movie/45054"},{"id":45053,"title":"Верлиока","kp_id":"453162","imdb_id":"tt4109038","world_art_id":null,"type":"movie","add":"2020-11-05 18:32:34","orig_title":"Verlioka","year":"1957-10-08","translations":["Оригинальная дорожка"],"quality":"dvdrip","translation":"Оригинальная дорожка","update":"2020-11-11 12:21:55","iframe_src":"//7043.svetacdn.in/si4jsFRrtgrT/movie/45053"},{"id":45052,"title":"Верное средство","kp_id":"539693","imdb_id":"tt5517530","world_art_id":null,"type":"movie","add":"2020-11-05 18:29:58","orig_title":"Vernoe sredstvo","year":"1982-01-01","translations":["Оригинальная дорожка"],"quality":"dvdrip","translation":"Оригинальная дорожка","update":"2020-11-11 12:20:44","iframe_src":"//7043.svetacdn.in/si4jsFRrtgrT/movie/45052"},{"id":44841,"title":"Заговор в Дарк Фоллз","kp_id":"855229","imdb_id":"tt4027628","world_art_id":null,"type":"movie","add":"2020-10-27 14:03:46","orig_title":"Conspiracy of Dark Falls","year":"2020-01-01","translations":["Original (English)","Любительский (многоголосый закадровый) (Синема УС)"],"quality":"webdl","translation":"Original (English)","update":"2020-11-11 12:55:28","iframe_src":"//7043.svetacdn.in/si4jsFRrtgrT/movie/44841"},{"id":4759,"title":"И была война","kp_id":"468818","imdb_id":null,"world_art_id":null,"type":"serial","add":"2019-06-28 11:10:47","orig_title":"И была война","year":"2010-02-21","translations":["Оригинальная дорожка"],"seasons_count":1,"episodes_count":3,"episodes":3,"update":"2019-06-28 19:28:22","iframe_src":"//7043.svetacdn.in/si4jsFRrtgrT/tv-series/4759"},{"id":4755,"title":"Дэнни-призрак","kp_id":"324656","imdb_id":"tt0366005","world_art_id":null,"type":"serial","add":"2019-06-26 10:55:26","orig_title":"Danny Phantom","year":"2004-04-03","translations":["Полное дублирование (Nickelodeon)"],"seasons_count":3,"episodes_count":47,"episodes":10,"update":"2019-06-26 20:14:40","iframe_src":"//7043.svetacdn.in/si4jsFRrtgrT/tv-series/4755"},{"id":4754,"title":"В отражении тебя","kp_id":"1261550","imdb_id":null,"world_art_id":null,"type":"serial","add":"2019-06-26 09:23:20","orig_title":"В отражении тебя","year":"2019-04-19","translations":["Оригинальная дорожка"],"seasons_count":1,"episodes_count":4,"episodes":4,"update":"2019-06-26 13:46:01","iframe_src":"//7043.svetacdn.in/si4jsFRrtgrT/tv-series/4754"},{"id":4750,"title":"Королёк – птичка певчая","kp_id":"279133","imdb_id":"tt0952637","world_art_id":null,"type":"serial","add":"2019-06-26 00:43:57","orig_title":"Çalikusu","year":"1986-01-01","translations":["Профессиональный (многоголосый закадровый)"],"seasons_count":1,"episodes_count":7,"episodes":7,"update":"2019-06-26 12:06:17","iframe_src":"//7043.svetacdn.in/si4jsFRrtgrT/tv-series/4750"},{"id":4749,"title":"Добро пожаловать в психушку","kp_id":"431133","imdb_id":"tt0209813","world_art_id":null,"type":"serial","add":"2019-06-25 23:46:51","orig_title":"Takin' Over the Asylum","year":"1994-09-27","translations":["Любительский (одноголосый закадровый) (Hamster)"],"seasons_count":1,"episodes_count":6,"episodes":6,"update":"2019-06-26 06:18:31","iframe_src":"//7043.svetacdn.in/si4jsFRrtgrT/tv-series/4749"},{"id":4748,"title":"Христофор Колумб","kp_id":"230742","imdb_id":"tt0088916","world_art_id":null,"type":"serial","add":"2019-06-25 19:37:39","orig_title":"Christopher Columbus","year":"1985-03-07","translations":["Профессиональный (двухголосый закадровый)"],"seasons_count":1,"episodes_count":4,"episodes":4,"update":"2019-06-25 20:34:02","iframe_src":"//7043.svetacdn.in/si4jsFRrtgrT/tv-series/4748"},{"id":4745,"title":"Том и Джерри: Сказки","kp_id":"281804","imdb_id":"tt0780438","world_art_id":null,"type":"serial","add":"2019-06-25 11:21:53","orig_title":"Tom and Jerry Tales","year":"2006-02-27","translations":["Профессиональный (многоголосый закадровый)"],"seasons_count":6,"episodes_count":78,"episodes":15,"update":"2019-06-25 20:26:22","iframe_src":"//7043.svetacdn.in/si4jsFRrtgrT/tv-series/4745"},{"id":4744,"title":"Бездна","kp_id":"1179239","imdb_id":"tt10055734","world_art_id":null,"type":"serial","add":"2019-06-25 03:40:17","orig_title":"Eobiseu","year":"2019-05-06","translations":["Любительский (двухголосый закадровый) (SoftBox)"],"seasons_count":1,"episodes_count":16,"episodes":16,"update":"2019-06-27 16:56:47","iframe_src":"//7043.svetacdn.in/si4jsFRrtgrT/tv-series/4744"},{"id":4741,"title":"Шахматист","kp_id":"450322","imdb_id":"tt2860652","world_art_id":null,"type":"serial","add":"2019-06-24 20:55:20","orig_title":"Shakhmatist","year":"2004-01-01","translations":["Оригинальная дорожка"],"seasons_count":1,"episodes_count":12,"episodes":12,"update":"2019-06-25 19:19:34","iframe_src":"//7043.svetacdn.in/si4jsFRrtgrT/tv-series/4741"},{"id":4737,"title":"Новый Техас","kp_id":"1236061","imdb_id":"tt4695252","world_art_id":null,"type":"serial","add":"2019-06-24 08:28:52","orig_title":"Nieuw Texas","year":"2015-03-18","translations":["Профессиональный (многоголосый закадровый) (BaibaKo)"],"seasons_count":1,"episodes_count":13,"episodes":13,"update":"2019-06-27 16:41:55","iframe_src":"//7043.svetacdn.in/si4jsFRrtgrT/tv-series/4737"},{"id":4736,"title":"Шелли","kp_id":"1164810","imdb_id":null,"world_art_id":null,"type":"serial","add":"2019-06-24 08:13:27","orig_title":"Shelley","year":"2018-06-01","translations":["Любительский (одноголосый закадровый)"],"seasons_count":1,"episodes_count":3,"episodes":3,"update":"2019-06-25 16:57:21","iframe_src":"//7043.svetacdn.in/si4jsFRrtgrT/tv-series/4736"},{"id":4730,"title":"Демпси и Мейкпис","kp_id":"260064","imdb_id":"tt0088503","world_art_id":null,"type":"serial","add":"2019-06-21 10:20:02","orig_title":"Dempsey and Makepeace","year":"1985-01-11","translations":["Профессиональный (многоголосый закадровый)"],"seasons_count":2,"episodes_count":20,"episodes":10,"update":"2019-06-25 17:03:30","iframe_src":"//7043.svetacdn.in/si4jsFRrtgrT/tv-series/4730"},{"id":4724,"title":"Марш Турецкого","kp_id":"94417","imdb_id":"tt0435977","world_art_id":null,"type":"serial","add":"2019-06-20 09:46:05","orig_title":"Marsh Turetskogo","year":"2000-10-01","translations":["Оригинальная дорожка"],"seasons_count":4,"episodes_count":94,"episodes":24,"update":"2019-06-27 04:14:36","iframe_src":"//7043.svetacdn.in/si4jsFRrtgrT/tv-series/4724"},{"id":4689,"title":"Ангел-хранитель","kp_id":"1007681","imdb_id":null,"world_art_id":null,"type":"serial","add":"2019-06-17 19:19:50","orig_title":"Ангел-хранитель","year":"2019-06-17","translations":["Оригинальная дорожка"],"seasons_count":1,"episodes_count":16,"episodes":16,"update":"2019-06-28 13:55:15","iframe_src":"//7043.svetacdn.in/si4jsFRrtgrT/tv-series/4689"},{"id":4572,"title":"Нашествие","kp_id":"395979","imdb_id":"tt0460651","world_art_id":null,"type":"serial","add":"2019-05-29 08:40:41","orig_title":"Invasion","year":"2005-09-21","translations":["Профессиональный (многоголосый закадровый) (НТВ)"],"seasons_count":1,"episodes_count":22,"episodes":22,"update":"2019-06-28 16:57:57","iframe_src":"//7043.svetacdn.in/si4jsFRrtgrT/tv-series/4572"},{"id":4571,"title":"Дьявольские деньги","kp_id":"820610","imdb_id":"tt3528388","world_art_id":null,"type":"serial","add":"2019-05-29 08:16:55","orig_title":"Incarnation of Money","year":"2013-02-02","translations":["Любительский (одноголосый закадровый) (GREEN TEA)"],"seasons_count":1,"episodes_count":24,"episodes":24,"update":"2019-06-28 12:00:54","iframe_src":"//7043.svetacdn.in/si4jsFRrtgrT/tv-series/4571"},{"id":4449,"title":"Пятно","kp_id":"1255051","imdb_id":"tt10147676","world_art_id":null,"type":"serial","add":"2019-05-05 22:45:30","orig_title":"Leke","year":"2019-04-16","translations":["Любительский (двухголосый закадровый)"],"seasons_count":1,"episodes_count":9,"episodes":9,"update":"2019-06-28 10:49:23","iframe_src":"//7043.svetacdn.in/si4jsFRrtgrT/tv-series/4449"},{"id":4303,"title":"Ловушка","kp_id":"1189968","imdb_id":"tt9537396","world_art_id":null,"type":"serial","add":"2019-03-23 06:32:15","orig_title":"Trap","year":"2019-02-09","translations":["Любительский (двухголосый закадровый) (Храм Дорам ТВ)","Любительский (двухголосый закадровый) (SoftBox)"],"seasons_count":1,"episodes_count":7,"episodes":7,"update":"2019-06-25 15:09:05","iframe_src":"//7043.svetacdn.in/si4jsFRrtgrT/tv-series/4303"},{"id":3306,"title":"Домики","kp_id":"1112670","imdb_id":null,"world_art_id":null,"type":"serial","add":"2018-10-14 15:08:38","orig_title":"Домики","year":"2018-01-01","translations":["Оригинальная дорожка"],"seasons_count":1,"episodes_count":44,"episodes":44,"update":"2019-06-27 16:34:08","iframe_src":"//7043.svetacdn.in/si4jsFRrtgrT/tv-series/3306"},{"id":1232,"title":"Подлый Пит","kp_id":"848297","imdb_id":"tt5011816","world_art_id":null,"type":"serial","add":"2017-05-03 06:20:55","orig_title":"Sneaky Pete","year":"2015-08-07","translations":["Профессиональный (многоголосый закадровый) (Jaskier)","Профессиональный (многоголосый закадровый) (LostFilm)"],"seasons_count":3,"episodes_count":30,"episodes":10,"update":"2019-06-27 16:40:03","iframe_src":"//7043.svetacdn.in/si4jsFRrtgrT/tv-series/1232"}],"current_page":343,"first_page_url":"https://videocdn.tv/api/short?limit=100&api_token=X6EwAUfE5M9xbo7y0Bp0aPf3uXxG2KLL&cache3343=3343&page=1","from":34201,"last_page":617,"last_page_url":"https://videocdn.tv/api/short?limit=100&api_token=X6EwAUfE5M9xbo7y0Bp0aPf3uXxG2KLL&cache3343=3343&page=617","next_page_url":"https://videocdn.tv/api/short?limit=100&api_token=X6EwAUfE5M9xbo7y0Bp0aPf3uXxG2KLL&cache3343=3343&page=344","path":"https://videocdn.tv/api/short","per_page":100,"prev_page_url":"https://videocdn.tv/api/short?limit=100&api_token=X6EwAUfE5M9xbo7y0Bp0aPf3uXxG2KLL&cache3343=3343&page=342","to":34240,"total":61696}