{"result":true,"data":[{"id":29345,"title":"Хон Гиль-дон","kp_id":"63998","imdb_id":"tt0254387","world_art_id":null,"type":"movie","add":"2019-07-23 21:36:43","orig_title":"Hong Gil-dong","year":"1986-08-01","translations":["Полное дублирование"],"quality":"dvdrip","translation":"Полное дублирование","update":"2019-07-24 06:27:06","iframe_src":"//2413.svetacdn.in/si4jsFRrtgrT/movie/29345"},{"id":29344,"title":"Конец старой Березовки","kp_id":"451305","imdb_id":"tt2921084","world_art_id":null,"type":"movie","add":"2019-07-23 21:35:58","orig_title":"Konets staroy Beryozovki","year":"1961-09-04","translations":["Оригинальная дорожка"],"quality":"hdtv","translation":"Оригинальная дорожка","update":"2019-07-24 06:26:02","iframe_src":"//2413.svetacdn.in/si4jsFRrtgrT/movie/29344"},{"id":29342,"title":"Леон Гаррос ищет друга","kp_id":"45071","imdb_id":"tt0144666","world_art_id":null,"type":"movie","add":"2019-07-23 21:32:56","orig_title":"Leon Garros ishchet druga","year":"1961-01-13","translations":["Оригинальная дорожка"],"quality":"sat","translation":"Оригинальная дорожка","update":"2019-07-24 06:21:29","iframe_src":"//2413.svetacdn.in/si4jsFRrtgrT/movie/29342"},{"id":29341,"title":"Полковник в отставке","kp_id":"43100","imdb_id":"tt0155030","world_art_id":null,"type":"movie","add":"2019-07-23 21:29:40","orig_title":"Polkovnik v otstavke","year":"1977-02-07","translations":["Оригинальная дорожка"],"quality":"tv","translation":"Оригинальная дорожка","update":"2019-07-24 06:19:57","iframe_src":"//2413.svetacdn.in/si4jsFRrtgrT/movie/29341"},{"id":29339,"title":"Спасите наши души","kp_id":"481050","imdb_id":"tt4976580","world_art_id":null,"type":"movie","add":"2019-07-23 21:26:32","orig_title":"Spasite nashi dushi","year":"1960-07-25","translations":["Оригинальная дорожка"],"quality":"sat","translation":"Оригинальная дорожка","update":"2019-07-24 06:18:25","iframe_src":"//2413.svetacdn.in/si4jsFRrtgrT/movie/29339"},{"id":29336,"title":"Короткие встречи","kp_id":"44934","imdb_id":"tt0061883","world_art_id":null,"type":"movie","add":"2019-07-23 21:21:10","orig_title":"Korotkie vstrechi","year":"1968-07-13","translations":["Оригинальная дорожка"],"quality":"dvdrip","translation":"Оригинальная дорожка","update":"2019-07-24 06:16:56","iframe_src":"//2413.svetacdn.in/si4jsFRrtgrT/movie/29336"},{"id":29335,"title":"Кровь за кровь","kp_id":"44989","imdb_id":"tt0102238","world_art_id":null,"type":"movie","add":"2019-07-23 21:18:07","orig_title":"Krov za krov","year":"1991-02-01","translations":["Оригинальная дорожка"],"quality":"sat","translation":"Оригинальная дорожка","update":"2019-07-24 06:16:12","iframe_src":"//2413.svetacdn.in/si4jsFRrtgrT/movie/29335"},{"id":29332,"title":"Мы сделали это!","kp_id":"278379","imdb_id":"tt0959490","world_art_id":null,"type":"movie","add":"2019-07-23 21:14:13","orig_title":"My sdelali eto!","year":"2001-01-01","translations":["Оригинальная дорожка"],"quality":"webdl","translation":"Оригинальная дорожка","update":"2019-07-24 06:15:19","iframe_src":"//2413.svetacdn.in/si4jsFRrtgrT/movie/29332"},{"id":29329,"title":"Сероманец","kp_id":"664615","imdb_id":"tt2942760","world_art_id":null,"type":"movie","add":"2019-07-23 21:10:35","orig_title":"Seromanets","year":"1989-01-01","translations":["Оригинальная дорожка"],"quality":"dvdrip","translation":"Оригинальная дорожка","update":"2019-07-24 06:14:31","iframe_src":"//2413.svetacdn.in/si4jsFRrtgrT/movie/29329"},{"id":29318,"title":"Кровь людская – не водица","kp_id":"474737","imdb_id":"tt4974288","world_art_id":null,"type":"movie","add":"2019-07-23 07:37:20","orig_title":"Krov lyudskaya: ne voditsa","year":"1960-09-01","translations":["Оригинальная дорожка"],"quality":"vhs","translation":"Оригинальная дорожка","update":"2019-07-24 06:13:44","iframe_src":"//2413.svetacdn.in/si4jsFRrtgrT/movie/29318"},{"id":29317,"title":"Люблю тебя, жизнь","kp_id":"484721","imdb_id":"tt1543027","world_art_id":null,"type":"movie","add":"2019-07-23 07:32:50","orig_title":"Lyublyu tebya, zhizn","year":"1961-06-10","translations":["Оригинальная дорожка"],"quality":"sat","translation":"Оригинальная дорожка","update":"2019-07-24 06:12:36","iframe_src":"//2413.svetacdn.in/si4jsFRrtgrT/movie/29317"},{"id":29315,"title":"Мегрэ у министра","kp_id":"478629","imdb_id":"tt9670766","world_art_id":null,"type":"movie","add":"2019-07-23 07:27:34","orig_title":"Maigret at the Minister","year":"1987-01-01","translations":["Оригинальная дорожка"],"quality":"tv","translation":"Оригинальная дорожка","update":"2019-07-24 06:10:46","iframe_src":"//2413.svetacdn.in/si4jsFRrtgrT/movie/29315"},{"id":29314,"title":"Ровесник века","kp_id":"42131","imdb_id":"tt0175131","world_art_id":null,"type":"movie","add":"2019-07-23 07:18:43","orig_title":"Rovesnik veka","year":"1960-11-03","translations":["Оригинальная дорожка"],"quality":"vhs","translation":"Оригинальная дорожка","update":"2019-07-24 06:10:01","iframe_src":"//2413.svetacdn.in/si4jsFRrtgrT/movie/29314"},{"id":29313,"title":"Счастье Андруса","kp_id":"156052","imdb_id":"tt0446904","world_art_id":null,"type":"movie","add":"2019-07-23 06:49:18","orig_title":"Andruse õnn","year":"1955-07-18","translations":["Оригинальная дорожка"],"quality":"sat","translation":"Оригинальная дорожка","update":"2019-07-24 06:08:27","iframe_src":"//2413.svetacdn.in/si4jsFRrtgrT/movie/29313"},{"id":29312,"title":"Слепой музыкант","kp_id":"43848","imdb_id":"tt0054316","world_art_id":null,"type":"movie","add":"2019-07-23 06:46:14","orig_title":"Slepoy muzykant","year":"1961-03-20","translations":["Оригинальная дорожка"],"quality":"dvdrip","translation":"Оригинальная дорожка","update":"2019-07-24 06:07:10","iframe_src":"//2413.svetacdn.in/si4jsFRrtgrT/movie/29312"},{"id":29311,"title":"Сорока-воровка","kp_id":"43923","imdb_id":"tt0142865","world_art_id":null,"type":"movie","add":"2019-07-23 06:43:37","orig_title":"Soroka-vorovka","year":"1959-03-18","translations":["Оригинальная дорожка"],"quality":"sat","translation":"Оригинальная дорожка","update":"2019-07-24 05:50:19","iframe_src":"//2413.svetacdn.in/si4jsFRrtgrT/movie/29311"},{"id":29310,"title":"Все начинается с дороги","kp_id":"45945","imdb_id":"tt0054450","world_art_id":null,"type":"movie","add":"2019-07-23 06:38:12","orig_title":"Vsyo nachinayetsya s dorogi","year":"1960-03-15","translations":["Оригинальная дорожка"],"quality":"sat","translation":"Оригинальная дорожка","update":"2019-07-24 05:44:35","iframe_src":"//2413.svetacdn.in/si4jsFRrtgrT/movie/29310"},{"id":29308,"title":"Переворот по инструкции 107","kp_id":"42931","imdb_id":"tt0353872","world_art_id":null,"type":"movie","add":"2019-07-23 06:29:39","orig_title":"Perevorot po instruktyi 107","year":"1983-07-02","translations":["Оригинальная дорожка"],"quality":"vhs","translation":"Оригинальная дорожка","update":"2019-07-24 05:41:23","iframe_src":"//2413.svetacdn.in/si4jsFRrtgrT/movie/29308"},{"id":29307,"title":"Пётр495","kp_id":"927502","imdb_id":"tt4884602","world_art_id":null,"type":"movie","add":"2019-07-23 06:25:27","orig_title":"Pyotr495","year":"2016-07-18","translations":["Оригинальная дорожка"],"quality":"webdl","translation":"Оригинальная дорожка","update":"2019-07-24 05:39:53","iframe_src":"//2413.svetacdn.in/si4jsFRrtgrT/movie/29307"},{"id":15770,"title":"Атака советских зомби","kp_id":"972751","imdb_id":"tt6092826","world_art_id":null,"type":"movie","add":"2018-03-22 22:01:37","orig_title":"Ataka sovetskikh zombi","year":"2016-10-28","translations":["Оригинальная дорожка","Оригинальная дорожка"],"quality":"webdl","translation":"Оригинальная дорожка","update":"2019-07-24 05:44:23","iframe_src":"//2413.svetacdn.in/si4jsFRrtgrT/movie/15770"}],"current_page":1744,"first_page_url":"https://videocdn.tv/api/short?limit=100&api_token=X6EwAUfE5M9xbo7y0Bp0aPf3uXxG2KLL&cache31744=31744&page=1","from":174301,"last_page":719,"last_page_url":"https://videocdn.tv/api/short?limit=100&api_token=X6EwAUfE5M9xbo7y0Bp0aPf3uXxG2KLL&cache31744=31744&page=719","next_page_url":null,"path":"https://videocdn.tv/api/short","per_page":100,"prev_page_url":"https://videocdn.tv/api/short?limit=100&api_token=X6EwAUfE5M9xbo7y0Bp0aPf3uXxG2KLL&cache31744=31744&page=1743","to":174320,"total":71893}