{"result":true,"data":[{"id":26676,"title":"Идея зрелости","kp_id":"1030221","imdb_id":"tt6164254","world_art_id":null,"type":"movie","add":"2019-05-17 22:31:17","orig_title":"The Idea of Manhood","year":"2018-04-06","translations":["Любительский (многоголосый закадровый) (Синема УС)"],"quality":"webdl","translation":"Любительский (многоголосый закадровый) (Синема УС)","update":"2019-05-18 07:06:59","iframe_src":"//8965.svetacdn.in/si4jsFRrtgrT/movie/26676"},{"id":26675,"title":"Убойные соседи","kp_id":null,"imdb_id":"tt5376752","world_art_id":null,"type":"movie","add":"2019-05-17 22:28:53","orig_title":"Slaughter Drive","year":"2017-10-12","translations":["Любительский (многоголосый закадровый) (Синема УС)"],"quality":"webdl","translation":"Любительский (многоголосый закадровый) (Синема УС)","update":"2019-05-18 07:10:34","iframe_src":"//8965.svetacdn.in/si4jsFRrtgrT/movie/26675"},{"id":26674,"title":"Шахерезада","kp_id":"1147197","imdb_id":"tt8459250","world_art_id":null,"type":"movie","add":"2019-05-17 22:27:05","orig_title":"Shéhérazade","year":"2018-05-11","translations":["Любительский (многоголосый закадровый) (Синема УС)"],"quality":"webdl","translation":"Любительский (многоголосый закадровый) (Синема УС)","update":"2019-05-18 07:11:50","iframe_src":"//8965.svetacdn.in/si4jsFRrtgrT/movie/26674"},{"id":26673,"title":"Стриптизёр психопат","kp_id":"1201268","imdb_id":"tt9069138","world_art_id":null,"type":"movie","add":"2019-05-17 22:25:37","orig_title":"Stripped","year":"2019-05-04","translations":["Любительский (многоголосый закадровый) (Синема УС)"],"quality":"hdtv","translation":"Любительский (многоголосый закадровый) (Синема УС)","update":"2019-05-18 07:12:58","iframe_src":"//8965.svetacdn.in/si4jsFRrtgrT/movie/26673"},{"id":26671,"title":"В поисках доброго самаритянина","kp_id":"1207620","imdb_id":"tt9032888","world_art_id":null,"type":"movie","add":"2019-05-17 22:19:35","orig_title":"Good Sam","year":"2019-05-16","translations":["Полное дублирование"],"quality":"webdl","translation":"Полное дублирование","update":"2019-05-18 07:19:30","iframe_src":"//8965.svetacdn.in/si4jsFRrtgrT/movie/26671"},{"id":26670,"title":"Люди приходят и уходят","kp_id":"1099360","imdb_id":"tt6869362","world_art_id":null,"type":"movie","add":"2019-05-17 22:18:12","orig_title":"Gente que viene y bah","year":"2019-01-16","translations":["Любительский (многоголосый закадровый) (Синема УС)"],"quality":"webdl","translation":"Любительский (многоголосый закадровый) (Синема УС)","update":"2019-05-18 07:21:30","iframe_src":"//8965.svetacdn.in/si4jsFRrtgrT/movie/26670"},{"id":26653,"title":"Комедия давно минувших дней","kp_id":"29562","imdb_id":"tt0230421","world_art_id":null,"type":"movie","add":"2019-05-16 21:59:15","orig_title":"Komediya davno minuvshikh dney","year":"1980-12-29","translations":["Оригинальная дорожка"],"quality":"dvdrip","translation":"Оригинальная дорожка","update":"2019-05-17 08:15:25","iframe_src":"//8965.svetacdn.in/si4jsFRrtgrT/movie/26653"},{"id":26651,"title":"Конец света","kp_id":"723283","imdb_id":"tt2819228","world_art_id":null,"type":"movie","add":"2019-05-16 21:55:19","orig_title":"Konets sveta","year":"2012-12-21","translations":["Оригинальная дорожка"],"quality":"dvdrip","translation":"Оригинальная дорожка","update":"2019-05-17 08:14:06","iframe_src":"//8965.svetacdn.in/si4jsFRrtgrT/movie/26651"},{"id":26646,"title":"Меняю собаку на паровоз","kp_id":"46607","imdb_id":"tt0073377","world_art_id":null,"type":"movie","add":"2019-05-16 21:43:29","orig_title":"Menyayu sobaku na parovoz","year":"1976-03-24","translations":["Оригинальная дорожка"],"quality":"dvdrip","translation":"Оригинальная дорожка","update":"2019-05-17 08:06:38","iframe_src":"//8965.svetacdn.in/si4jsFRrtgrT/movie/26646"},{"id":26644,"title":"Мишель и Мишутка","kp_id":"594806","imdb_id":null,"world_art_id":null,"type":"movie","add":"2019-05-16 21:40:03","orig_title":"Мишель и Мишутка","year":"1961-10-29","translations":["Оригинальная дорожка"],"quality":"dvdrip","translation":"Оригинальная дорожка","update":"2019-05-17 08:05:32","iframe_src":"//8965.svetacdn.in/si4jsFRrtgrT/movie/26644"},{"id":26642,"title":"Муж собаки Баскервилей","kp_id":"428829","imdb_id":"tt5769178","world_art_id":null,"type":"movie","add":"2019-05-16 21:34:48","orig_title":"Muzh sobaki Baskerviley","year":"1990-01-01","translations":["Оригинальная дорожка"],"quality":"dvdrip","translation":"Оригинальная дорожка","update":"2019-05-17 08:02:37","iframe_src":"//8965.svetacdn.in/si4jsFRrtgrT/movie/26642"},{"id":26641,"title":"Необыкновенное путешествие Мишки Стрекачева","kp_id":"46396","imdb_id":"tt0170299","world_art_id":null,"type":"movie","add":"2019-05-16 21:30:46","orig_title":"Neobyknovennoye puteshestviye Mishki Strekachyova","year":"1959-08-27","translations":["Оригинальная дорожка"],"quality":"dvdrip","translation":"Оригинальная дорожка","update":"2019-05-17 08:01:37","iframe_src":"//8965.svetacdn.in/si4jsFRrtgrT/movie/26641"},{"id":26639,"title":"Ох, этот ужасный, ужасный телевизор","kp_id":"303655","imdb_id":"tt0826590","world_art_id":null,"type":"movie","add":"2019-05-16 21:22:19","orig_title":"Oh, es sashineli televizori","year":"1990-01-01","translations":["Оригинальная дорожка"],"quality":"webdl","translation":"Оригинальная дорожка","update":"2019-05-17 08:16:33","iframe_src":"//8965.svetacdn.in/si4jsFRrtgrT/movie/26639"},{"id":26638,"title":"Осторожно – Василек!","kp_id":"42820","imdb_id":"tt0089747","world_art_id":null,"type":"movie","add":"2019-05-16 21:16:39","orig_title":"Ostorozhno, Vasilyok","year":"1986-09-10","translations":["Оригинальная дорожка"],"quality":"dvdrip","translation":"Оригинальная дорожка","update":"2019-05-17 08:17:50","iframe_src":"//8965.svetacdn.in/si4jsFRrtgrT/movie/26638"},{"id":26636,"title":"Письма к Эльзе","kp_id":"94838","imdb_id":"tt0382229","world_art_id":null,"type":"movie","add":"2019-05-16 21:09:00","orig_title":"Pisma k Elze","year":"2002-10-12","translations":["Оригинальная дорожка"],"quality":"dvdrip","translation":"Оригинальная дорожка","update":"2019-05-17 07:59:12","iframe_src":"//8965.svetacdn.in/si4jsFRrtgrT/movie/26636"},{"id":26633,"title":"При исполнении служебных обязанностей","kp_id":"474756","imdb_id":"tt2678326","world_art_id":null,"type":"movie","add":"2019-05-16 20:59:03","orig_title":"Pri ispolnenii sluzhebnykh obyazannostey","year":"1964-01-31","translations":["Оригинальная дорожка"],"quality":"dvdrip","translation":"Оригинальная дорожка","update":"2019-05-17 07:48:01","iframe_src":"//8965.svetacdn.in/si4jsFRrtgrT/movie/26633"},{"id":26632,"title":"Приговор","kp_id":"40954","imdb_id":"tt0107872","world_art_id":null,"type":"movie","add":"2019-05-16 20:55:44","orig_title":"Prigovor","year":"1994-01-01","translations":["Оригинальная дорожка"],"quality":"dvdrip","translation":"Оригинальная дорожка","update":"2019-05-17 07:46:45","iframe_src":"//8965.svetacdn.in/si4jsFRrtgrT/movie/26632"},{"id":26631,"title":"Призрак","kp_id":"417803","imdb_id":"tt2677896","world_art_id":null,"type":"movie","add":"2019-05-16 20:52:05","orig_title":"Prizrak","year":"1991-10-01","translations":["Оригинальная дорожка"],"quality":"dvdrip","translation":"Оригинальная дорожка","update":"2019-05-17 07:45:09","iframe_src":"//8965.svetacdn.in/si4jsFRrtgrT/movie/26631"},{"id":26630,"title":"Красное небо. Черный снег","kp_id":"411777","imdb_id":"tt4132078","world_art_id":null,"type":"movie","add":"2019-05-16 20:28:23","orig_title":"Krasnoe nebo. Chyornyy sneg","year":"2003-05-05","translations":["Оригинальная дорожка"],"quality":"dvdrip","translation":"Оригинальная дорожка","update":"2019-05-17 07:05:43","iframe_src":"//8965.svetacdn.in/si4jsFRrtgrT/movie/26630"},{"id":11091,"title":"Путешествие на Запад: Демоны","kp_id":"955630","imdb_id":"tt5273624","world_art_id":null,"type":"movie","add":"2017-04-18 22:38:39","orig_title":"Xi you fu yao pian","year":"2017-01-28","translations":["Профессиональный (многоголосый закадровый) (Колобок)","Любительский (многоголосый закадровый) (Синема УС)"],"quality":"webdl","translation":"Профессиональный (многоголосый закадровый) (Колобок)","update":"2019-05-18 07:17:32","iframe_src":"//8965.svetacdn.in/si4jsFRrtgrT/movie/11091"}],"current_page":1806,"first_page_url":"https://videocdn.tv/api/short?limit=100&api_token=X6EwAUfE5M9xbo7y0Bp0aPf3uXxG2KLL&cache31806=31806&page=1","from":180501,"last_page":709,"last_page_url":"https://videocdn.tv/api/short?limit=100&api_token=X6EwAUfE5M9xbo7y0Bp0aPf3uXxG2KLL&cache31806=31806&page=709","next_page_url":null,"path":"https://videocdn.tv/api/short","per_page":100,"prev_page_url":"https://videocdn.tv/api/short?limit=100&api_token=X6EwAUfE5M9xbo7y0Bp0aPf3uXxG2KLL&cache31806=31806&page=1805","to":180520,"total":70840}