{"result":true,"data":[{"id":21679,"title":"DZIDZIO: Первый раз","kp_id":"1210654","imdb_id":"tt8706874","world_art_id":null,"type":"movie","add":"2019-01-20 22:35:02","orig_title":"DZIDZIO First Time","year":"2018-10-25","translations":["Любительский (многоголосый закадровый) (Синема УС)"],"quality":"webdl","translation":"Любительский (многоголосый закадровый) (Синема УС)","update":"2019-01-21 08:06:32","iframe_src":"//83.svetacdn.in/PfJ50H0ZBPg3/movie/21679"},{"id":21676,"title":"Чокнутая жирная Этель","kp_id":"661545","imdb_id":"tt2186723","world_art_id":null,"type":"movie","add":"2019-01-20 22:29:36","orig_title":"Crazy Fat Ethel","year":"2016-01-01","translations":["Любительский (многоголосый закадровый) (Колобок)"],"quality":"bd","translation":"Любительский (многоголосый закадровый) (Колобок)","update":"2019-01-21 07:12:35","iframe_src":"//83.svetacdn.in/PfJ50H0ZBPg3/movie/21676"},{"id":21670,"title":"Страна","kp_id":"1108605","imdb_id":"tt7618184","world_art_id":null,"type":"movie","add":"2019-01-20 22:17:40","orig_title":"Mulk","year":"2018-08-03","translations":["Профессиональный (многоголосый закадровый) (AlphaProject)"],"quality":"bd","translation":"Профессиональный (многоголосый закадровый) (AlphaProject)","update":"2019-01-21 07:18:12","iframe_src":"//83.svetacdn.in/PfJ50H0ZBPg3/movie/21670"},{"id":21667,"title":"Зимнее предложение","kp_id":"1227989","imdb_id":"tt9534518","world_art_id":null,"type":"movie","add":"2019-01-20 22:14:17","orig_title":"One Winter Proposal","year":"2019-01-12","translations":["Любительский (многоголосый закадровый) (Синема УС)"],"quality":"hdtv","translation":"Любительский (многоголосый закадровый) (Синема УС)","update":"2019-01-21 07:13:45","iframe_src":"//83.svetacdn.in/PfJ50H0ZBPg3/movie/21667"},{"id":21634,"title":"Явление","kp_id":"1066624","imdb_id":"tt6559390","world_art_id":null,"type":"movie","add":"2019-01-19 23:22:38","orig_title":"L'apparition","year":"2018-02-14","translations":["Профессиональный (многоголосый закадровый) (HDrezka Studio)"],"quality":"bd","translation":"Профессиональный (многоголосый закадровый) (HDrezka Studio)","update":"2019-01-21 08:14:52","iframe_src":"//83.svetacdn.in/PfJ50H0ZBPg3/movie/21634"},{"id":21629,"title":"Проект \"Трое\"","kp_id":"1078689","imdb_id":"tt6805422","world_art_id":null,"type":"movie","add":"2019-01-19 14:03:57","orig_title":"Le trip à trois","year":"2017-12-20","translations":["Любительский (многоголосый закадровый) (Синема УС)"],"quality":"webdl","translation":"Любительский (многоголосый закадровый) (Синема УС)","update":"2019-01-21 07:46:33","iframe_src":"//83.svetacdn.in/PfJ50H0ZBPg3/movie/21629"},{"id":21628,"title":"Как леди","kp_id":"917400","imdb_id":"tt4786132","world_art_id":null,"type":"movie","add":"2019-01-19 14:02:29","orig_title":"Lady-Like","year":"2018-01-01","translations":["Любительский (многоголосый закадровый) (Синема УС)"],"quality":"webdl","translation":"Любительский (многоголосый закадровый) (Синема УС)","update":"2019-01-21 07:23:14","iframe_src":"//83.svetacdn.in/PfJ50H0ZBPg3/movie/21628"},{"id":21622,"title":"Бесконечная петля","kp_id":"1204213","imdb_id":"tt9479806","world_art_id":null,"type":"movie","add":"2019-01-19 13:42:39","orig_title":"Hei an mi gong","year":"2018-10-31","translations":["Любительский (многоголосый закадровый) (Колобок)"],"quality":"webdl","translation":"Любительский (многоголосый закадровый) (Колобок)","update":"2019-01-21 07:45:20","iframe_src":"//83.svetacdn.in/PfJ50H0ZBPg3/movie/21622"},{"id":21619,"title":"Юкатан","kp_id":"1027693","imdb_id":"tt6502956","world_art_id":null,"type":"movie","add":"2019-01-19 13:14:45","orig_title":"Yucatán","year":"2018-08-29","translations":["Любительский (многоголосый закадровый) (Синема УС)"],"quality":"bd","translation":"Любительский (многоголосый закадровый) (Синема УС)","update":"2019-01-21 07:59:36","iframe_src":"//83.svetacdn.in/PfJ50H0ZBPg3/movie/21619"},{"id":21615,"title":"Обещания","kp_id":"847010","imdb_id":"tt3848036","world_art_id":null,"type":"movie","add":"2019-01-19 13:04:50","orig_title":"Promises","year":"2017-03-15","translations":["Любительский (многоголосый закадровый) (Синема УС)"],"quality":"webdl","translation":"Любительский (многоголосый закадровый) (Синема УС)","update":"2019-01-21 07:54:37","iframe_src":"//83.svetacdn.in/PfJ50H0ZBPg3/movie/21615"},{"id":21607,"title":"Джо Кокер: Бешеный пес с душой","kp_id":"1047505","imdb_id":"tt6679242","world_art_id":null,"type":"movie","add":"2019-01-18 10:40:59","orig_title":"Joe Cocker: Mad Dog with Soul","year":"2017-03-17","translations":["Профессиональный (многоголосый закадровый)"],"quality":"bd","translation":"Профессиональный (многоголосый закадровый)","update":"2019-01-19 07:42:17","iframe_src":"//83.svetacdn.in/PfJ50H0ZBPg3/movie/21607"},{"id":21606,"title":"Энергетическая революция сегодня","kp_id":"1102754","imdb_id":"tt7212266","world_art_id":null,"type":"movie","add":"2019-01-18 10:36:08","orig_title":"Happening: A Clean Energy Revolution","year":"2017-10-07","translations":["Профессиональный (многоголосый закадровый) (SDI Media)"],"quality":"webdl","translation":"Профессиональный (многоголосый закадровый) (SDI Media)","update":"2019-01-19 07:58:28","iframe_src":"//83.svetacdn.in/PfJ50H0ZBPg3/movie/21606"},{"id":21605,"title":"Барби: Сказочная страна Мермедия","kp_id":"252139","imdb_id":"tt0775425","world_art_id":null,"type":"movie","add":"2019-01-18 10:32:50","orig_title":"Barbie Fairytopia: Mermaidia","year":"2010-10-05","translations":["Полное дублирование"],"quality":"dvdrip","translation":"Полное дублирование","update":"2019-01-19 08:08:23","iframe_src":"//83.svetacdn.in/PfJ50H0ZBPg3/movie/21605"},{"id":21604,"title":"Аньелли. Жизнь президента","kp_id":"1062142","imdb_id":"tt6798422","world_art_id":null,"type":"movie","add":"2019-01-18 10:29:16","orig_title":"Agnelli","year":"2017-09-03","translations":["Профессиональный (двухголосый закадровый) (SDI Media)"],"quality":"webdl","translation":"Профессиональный (двухголосый закадровый) (SDI Media)","update":"2019-01-19 08:04:21","iframe_src":"//83.svetacdn.in/PfJ50H0ZBPg3/movie/21604"},{"id":21603,"title":"12 Рождественских желаний","kp_id":"630073","imdb_id":"tt2072025","world_art_id":null,"type":"movie","add":"2019-01-18 10:25:06","orig_title":"12 Wishes of Christmas","year":"2011-11-27","translations":["Профессиональный (многоголосый закадровый)"],"quality":"dvdrip","translation":"Профессиональный (многоголосый закадровый)","update":"2019-01-19 08:01:10","iframe_src":"//83.svetacdn.in/PfJ50H0ZBPg3/movie/21603"},{"id":21602,"title":"Полтора рыцаря: В поисках похищенной принцессы Херцелинды","kp_id":"406316","imdb_id":"tt1187047","world_art_id":null,"type":"movie","add":"2019-01-18 10:17:13","orig_title":"1 1/2 Ritter - Auf der Suche nach der hinreißenden Herzelinde","year":"2008-12-18","translations":["Полное дублирование"],"quality":"bd","translation":"Полное дублирование","update":"2019-01-19 07:59:58","iframe_src":"//83.svetacdn.in/PfJ50H0ZBPg3/movie/21602"},{"id":21492,"title":"Эволюция зла","kp_id":"1070316","imdb_id":"tt7385832","world_art_id":null,"type":"movie","add":"2019-01-15 05:25:28","orig_title":"Removed","year":"2018-09-14","translations":["Любительский (многоголосый закадровый) (Синема УС)","Любительский (двухголосый закадровый) (HiWayGrope)"],"quality":"webdl","translation":"Любительский (многоголосый закадровый) (Синема УС)","update":"2019-01-21 08:16:26","iframe_src":"//83.svetacdn.in/PfJ50H0ZBPg3/movie/21492"},{"id":21444,"title":"1920: Зло возвращается","kp_id":"688477","imdb_id":"tt2222550","world_art_id":null,"type":"movie","add":"2019-01-12 08:13:33","orig_title":"1920: Evil Returns","year":"2012-11-02","translations":["Любительский (двухголосый закадровый) (DeadSno & den904)"],"quality":"bd","translation":"Любительский (двухголосый закадровый) (DeadSno & den904)","update":"2019-01-18 08:08:13","iframe_src":"//83.svetacdn.in/PfJ50H0ZBPg3/movie/21444"},{"id":20928,"title":"Тень былых побед","kp_id":"924527","imdb_id":"tt4874350","world_art_id":null,"type":"movie","add":"2018-12-23 00:24:42","orig_title":"Shadow Fighter","year":"2018-12-21","translations":["Любительский (многоголосый закадровый) (Синема УС)","Любительский (двухголосый закадровый) (HiWayGrope)"],"quality":"webdl","translation":"Любительский (многоголосый закадровый) (Синема УС)","update":"2019-01-21 08:08:34","iframe_src":"//83.svetacdn.in/PfJ50H0ZBPg3/movie/20928"},{"id":20485,"title":"Братья Систерс","kp_id":"968375","imdb_id":"tt4971344","world_art_id":null,"type":"movie","add":"2018-12-04 00:32:09","orig_title":"The Sisters Brothers","year":"2018-09-02","translations":["Любительский (многоголосый закадровый) (@MUZOBOZ@)","Любительский (двухголосый закадровый) (HiWayGrope)","Полное дублирование"],"quality":"webdl","translation":"Любительский (многоголосый закадровый) (@MUZOBOZ@)","update":"2019-01-21 08:10:19","iframe_src":"//83.svetacdn.in/PfJ50H0ZBPg3/movie/20485"}],"current_page":1570,"first_page_url":"https://videocdn.tv/api/short?limit=100&api_token=RgFQdUIR2dRmwv8iYa5SnFNgnw3vpjKj&cache31570=31570&page=1","from":156901,"last_page":614,"last_page_url":"https://videocdn.tv/api/short?limit=100&api_token=RgFQdUIR2dRmwv8iYa5SnFNgnw3vpjKj&cache31570=31570&page=614","next_page_url":null,"path":"https://videocdn.tv/api/short","per_page":100,"prev_page_url":"https://videocdn.tv/api/short?limit=100&api_token=RgFQdUIR2dRmwv8iYa5SnFNgnw3vpjKj&cache31570=31570&page=1569","to":156920,"total":61356}