{"result":true,"data":[{"id":53988,"title":"Принадлежность","kp_id":"1239968","imdb_id":"tt9668594","world_art_id":null,"type":"movie","add":"2021-10-19 18:49:46","orig_title":"Aidiyet","year":"2019-02-09","translations":["Любительский (многоголосый закадровый) (AlphaProject)"],"quality":"ts","translation":"Любительский (многоголосый закадровый) (AlphaProject)","update":"2021-10-20 05:36:57","iframe_src":"//83.svetacdn.in/PfJ50H0ZBPg3/movie/53988"},{"id":53987,"title":"Восемь","kp_id":"1176278","imdb_id":"tt8653902","world_art_id":null,"type":"movie","add":"2021-10-19 18:47:21","orig_title":"8 (Sekiz)","year":"2021-09-03","translations":["Любительский (двухголосый закадровый) (Колобок)"],"quality":"ts","translation":"Любительский (двухголосый закадровый) (Колобок)","update":"2021-10-20 05:36:25","iframe_src":"//83.svetacdn.in/PfJ50H0ZBPg3/movie/53987"},{"id":53985,"title":"Собаки","kp_id":"20916","imdb_id":"tt0077324","world_art_id":null,"type":"movie","add":"2021-10-19 14:43:06","orig_title":"Les chiens","year":"1979-03-07","translations":["Профессиональный (многоголосый закадровый)"],"quality":"bd","translation":"Профессиональный (многоголосый закадровый)","update":"2021-10-20 06:55:01","iframe_src":"//83.svetacdn.in/PfJ50H0ZBPg3/movie/53985"},{"id":53983,"title":"Человек с запада","kp_id":"3334","imdb_id":"tt0051899","world_art_id":null,"type":"movie","add":"2021-10-19 14:37:01","orig_title":"Man of the West","year":"1958-09-17","translations":["[EN] Original (English)","Профессиональный (двухголосый закадровый) (НТВ)"],"quality":"bd","translation":"[EN] Original (English)","update":"2021-10-20 06:47:30","iframe_src":"//83.svetacdn.in/PfJ50H0ZBPg3/movie/53983"},{"id":53982,"title":"Поддержите своего шерифа!","kp_id":"8466","imdb_id":"tt0065051","world_art_id":null,"type":"movie","add":"2021-10-19 14:35:32","orig_title":"Support Your Local Sheriff!","year":"1969-03-26","translations":["Профессиональный (многоголосый закадровый) (5-й канал СПб)","Профессиональный (двухголосый закадровый) (НТВ)","[EN] Original (English)"],"quality":"bd","translation":"Профессиональный (многоголосый закадровый) (5-й канал СПб)","update":"2021-10-20 06:44:23","iframe_src":"//83.svetacdn.in/PfJ50H0ZBPg3/movie/53982"},{"id":53981,"title":"Истина в вине","kp_id":"47229","imdb_id":"tt0205725","world_art_id":null,"type":"movie","add":"2021-10-19 13:12:15","orig_title":"Adieu, plancher des vaches!","year":"1999-05-20","translations":["Любительский (одноголосый закадровый) (Иоселиани Отар)"],"quality":"dvdrip","translation":"Любительский (одноголосый закадровый) (Иоселиани Отар)","update":"2021-10-19 15:31:00","iframe_src":"//83.svetacdn.in/PfJ50H0ZBPg3/movie/53981"},{"id":53980,"title":"Рогопаг","kp_id":"8523","imdb_id":"tt0056171","world_art_id":null,"type":"movie","add":"2021-10-19 10:20:05","orig_title":"Ro.Go.Pa.G.","year":"1963-02-19","translations":["Любительский (одноголосый закадровый) (Огородников Владислав)"],"quality":"bd","translation":"Любительский (одноголосый закадровый) (Огородников Владислав)","update":"2021-10-20 06:57:04","iframe_src":"//83.svetacdn.in/PfJ50H0ZBPg3/movie/53980"},{"id":53979,"title":"Живой концерт","kp_id":"1186253","imdb_id":"tt8554982","world_art_id":null,"type":"movie","add":"2021-10-19 09:50:41","orig_title":"Live","year":"2020-01-22","translations":["Любительский (многоголосый закадровый) (Синема УС)"],"quality":"webdl","translation":"Любительский (многоголосый закадровый) (Синема УС)","update":"2021-10-19 23:43:40","iframe_src":"//83.svetacdn.in/PfJ50H0ZBPg3/movie/53979"},{"id":53977,"title":"Разлучённые сёстры","kp_id":"974589","imdb_id":"tt5571814","world_art_id":null,"type":"movie","add":"2021-10-19 09:42:33","orig_title":"Im Feuer","year":"2020-01-01","translations":["Любительский (многоголосый закадровый) (Синема УС)"],"quality":"webdl","translation":"Любительский (многоголосый закадровый) (Синема УС)","update":"2021-10-19 23:45:31","iframe_src":"//83.svetacdn.in/PfJ50H0ZBPg3/movie/53977"},{"id":53976,"title":"Пропавший","kp_id":null,"imdb_id":"tt15140954","world_art_id":null,"type":"movie","add":"2021-10-19 09:38:39","orig_title":"Gone","year":"2021-01-01","translations":["Любительский (многоголосый закадровый) (Синема УС)"],"quality":"webdl","translation":"Любительский (многоголосый закадровый) (Синема УС)","update":"2021-10-19 23:44:36","iframe_src":"//83.svetacdn.in/PfJ50H0ZBPg3/movie/53976"},{"id":53975,"title":"Свободный дух","kp_id":"1000514","imdb_id":"tt5973882","world_art_id":null,"type":"movie","add":"2021-10-19 09:35:27","orig_title":"Free Spirit","year":"2019-01-01","translations":["Любительский (многоголосый закадровый) (Синема УС)"],"quality":"webdl","translation":"Любительский (многоголосый закадровый) (Синема УС)","update":"2021-10-19 23:41:18","iframe_src":"//83.svetacdn.in/PfJ50H0ZBPg3/movie/53975"},{"id":53974,"title":"Депозит","kp_id":"1359450","imdb_id":"tt11908874","world_art_id":null,"type":"movie","add":"2021-10-19 09:32:22","orig_title":"Deposit","year":"2020-01-01","translations":["Любительский (многоголосый закадровый) (Синема УС)"],"quality":"webdl","translation":"Любительский (многоголосый закадровый) (Синема УС)","update":"2021-10-19 17:05:39","iframe_src":"//83.svetacdn.in/PfJ50H0ZBPg3/movie/53974"},{"id":53970,"title":"Кровавые раны закона","kp_id":"1015140","imdb_id":"tt6383606","world_art_id":null,"type":"movie","add":"2021-10-19 05:29:02","orig_title":"Kizu darake no okite","year":"1960-01-09","translations":["Любительский (одноголосый закадровый) (iDimo)"],"quality":"hdtv","translation":"Любительский (одноголосый закадровый) (iDimo)","update":"2021-10-19 14:27:35","iframe_src":"//83.svetacdn.in/PfJ50H0ZBPg3/movie/53970"},{"id":53968,"title":"Амнистия","kp_id":"1218350","imdb_id":"tt9351112","world_art_id":null,"type":"movie","add":"2021-10-19 00:27:19","orig_title":"Amnestie","year":"2019-10-31","translations":["Любительский (многоголосый закадровый) (Синема УС)"],"quality":"webdl","translation":"Любительский (многоголосый закадровый) (Синема УС)","update":"2021-10-19 11:16:23","iframe_src":"//83.svetacdn.in/PfJ50H0ZBPg3/movie/53968"},{"id":53964,"title":"Хороший плохой человек","kp_id":"29437","imdb_id":"tt0006736","world_art_id":null,"type":"movie","add":"2021-10-18 19:56:00","orig_title":"The Good Bad-Man","year":"1916-04-13","translations":["[EN] Original (English)"],"quality":"bd","translation":"[EN] Original (English)","update":"2021-10-19 10:18:08","iframe_src":"//83.svetacdn.in/PfJ50H0ZBPg3/movie/53964"},{"id":53963,"title":"Увидеть начало времён","kp_id":"4426362","imdb_id":"tt10553756","world_art_id":null,"type":"movie","add":"2021-10-18 19:34:13","orig_title":"Seeing the Beginning of Time","year":"2017-06-14","translations":["Профессиональный (двухголосый закадровый) (СВ-Дубль)"],"quality":"dvb","translation":"Профессиональный (двухголосый закадровый) (СВ-Дубль)","update":"2021-10-19 10:19:26","iframe_src":"//83.svetacdn.in/PfJ50H0ZBPg3/movie/53963"},{"id":53961,"title":"Пять чувств","kp_id":"24164","imdb_id":"tt0168794","world_art_id":null,"type":"movie","add":"2021-10-18 19:00:13","orig_title":"The Five Senses","year":"1999-05-18","translations":["Профессиональный (многоголосый закадровый)"],"quality":"dvdrip","translation":"Профессиональный (многоголосый закадровый)","update":"2021-10-19 10:16:26","iframe_src":"//83.svetacdn.in/PfJ50H0ZBPg3/movie/53961"},{"id":53954,"title":"Внезапно двадцать","kp_id":"1008196","imdb_id":"tt6141374","world_art_id":null,"type":"movie","add":"2021-10-18 09:36:14","orig_title":"Suddenly Twenty","year":"2016-11-24","translations":["Любительский (двухголосый закадровый) (Pus'ki Production)"],"quality":"webdl","translation":"Любительский (двухголосый закадровый) (Pus'ki Production)","update":"2021-10-19 10:16:15","iframe_src":"//83.svetacdn.in/PfJ50H0ZBPg3/movie/53954"},{"id":5772,"title":"Плантагенеты – самая кровавая династия Британии","kp_id":"929661","imdb_id":"tt4195344","world_art_id":null,"type":"serial","add":"2019-11-18 14:21:46","orig_title":"Britain's Bloodiest Dynasty","year":"2014-11-27","translations":["Полное дублирование"],"seasons_count":1,"episodes_count":4,"episodes":4,"update":"2019-11-19 11:54:35","iframe_src":"//83.svetacdn.in/PfJ50H0ZBPg3/tv-series/5772"},{"id":5768,"title":"Перелётные птицы","kp_id":"1316552","imdb_id":null,"world_art_id":null,"type":"serial","add":"2019-11-17 22:27:49","orig_title":"Перелётные птицы","year":"2019-01-01","translations":["Оригинальная дорожка"],"seasons_count":1,"episodes_count":4,"episodes":4,"update":"2019-11-18 21:34:39","iframe_src":"//83.svetacdn.in/PfJ50H0ZBPg3/tv-series/5768"},{"id":5766,"title":"Железный лес","kp_id":"1280672","imdb_id":null,"world_art_id":null,"type":"serial","add":"2019-11-17 21:58:11","orig_title":"Железный лес","year":"2019-11-17","translations":["Оригинальная дорожка"],"seasons_count":1,"episodes_count":4,"episodes":4,"update":"2019-11-18 09:29:43","iframe_src":"//83.svetacdn.in/PfJ50H0ZBPg3/tv-series/5766"},{"id":5764,"title":"Лучшая курица","kp_id":"1183481","imdb_id":"tt9426382","world_art_id":null,"type":"serial","add":"2019-11-17 00:00:17","orig_title":"Choigoui Chikin","year":"2019-01-02","translations":["Любительский (двухголосый закадровый) (SoftBox)"],"seasons_count":1,"episodes_count":12,"episodes":12,"update":"2019-11-17 09:58:58","iframe_src":"//83.svetacdn.in/PfJ50H0ZBPg3/tv-series/5764"},{"id":5763,"title":"Клетка для сверчка","kp_id":"1280671","imdb_id":null,"world_art_id":null,"type":"serial","add":"2019-11-16 10:27:24","orig_title":"Клетка для сверчка","year":"2019-11-16","translations":["Оригинальная дорожка"],"seasons_count":1,"episodes_count":4,"episodes":4,"update":"2019-11-19 07:08:06","iframe_src":"//83.svetacdn.in/PfJ50H0ZBPg3/tv-series/5763"},{"id":5760,"title":"Сашка","kp_id":"818558","imdb_id":"tt3862118","world_art_id":null,"type":"serial","add":"2019-11-15 11:30:25","orig_title":"Sashka","year":"2014-01-06","translations":["Оригинальная дорожка"],"seasons_count":1,"episodes_count":100,"episodes":100,"update":"2019-11-19 19:01:40","iframe_src":"//83.svetacdn.in/PfJ50H0ZBPg3/tv-series/5760"},{"id":5758,"title":"Паутина 11","kp_id":"1071408","imdb_id":null,"world_art_id":null,"type":"serial","add":"2019-11-15 11:19:52","orig_title":"Паутина 11","year":"2017-11-07","translations":["Оригинальная дорожка"],"seasons_count":1,"episodes_count":16,"episodes":16,"update":"2019-11-18 20:56:02","iframe_src":"//83.svetacdn.in/PfJ50H0ZBPg3/tv-series/5758"},{"id":5756,"title":"Умельцы","kp_id":"712894","imdb_id":null,"world_art_id":null,"type":"serial","add":"2019-11-15 11:13:15","orig_title":"Умельцы","year":"2014-12-23","translations":["Оригинальная дорожка"],"seasons_count":1,"episodes_count":16,"episodes":16,"update":"2019-11-18 12:04:25","iframe_src":"//83.svetacdn.in/PfJ50H0ZBPg3/tv-series/5756"},{"id":5754,"title":"Кураж – трусливый пёс","kp_id":"281887","imdb_id":"tt0220880","world_art_id":null,"type":"serial","add":"2019-11-15 10:58:37","orig_title":"Courage the Cowardly Dog","year":"1999-11-12","translations":["Полное дублирование"],"seasons_count":4,"episodes_count":52,"episodes":13,"update":"2019-11-17 10:20:18","iframe_src":"//83.svetacdn.in/PfJ50H0ZBPg3/tv-series/5754"},{"id":5753,"title":"Охотник за головами","kp_id":"951953","imdb_id":"tt5501420","world_art_id":null,"type":"serial","add":"2019-11-15 10:48:23","orig_title":"Okhotnik za golovami","year":"2015-12-19","translations":["Оригинальная дорожка"],"seasons_count":1,"episodes_count":12,"episodes":12,"update":"2019-11-20 11:47:14","iframe_src":"//83.svetacdn.in/PfJ50H0ZBPg3/tv-series/5753"},{"id":5738,"title":"Автономка","kp_id":"271674","imdb_id":"tt4983964","world_art_id":null,"type":"serial","add":"2019-11-13 10:13:08","orig_title":"Avtonomka","year":"2006-01-01","translations":["Оригинальная дорожка"],"seasons_count":1,"episodes_count":32,"episodes":32,"update":"2019-11-20 09:42:36","iframe_src":"//83.svetacdn.in/PfJ50H0ZBPg3/tv-series/5738"},{"id":5733,"title":"Металлопокалипсис","kp_id":"390371","imdb_id":"tt0839188","world_art_id":null,"type":"serial","add":"2019-11-12 11:12:31","orig_title":"Metalocalypse","year":"2006-08-06","translations":["Профессиональный (многоголосый закадровый) (2x2)","Любительский (одноголосый закадровый)"],"seasons_count":4,"episodes_count":60,"episodes":12,"update":"2019-11-20 10:31:40","iframe_src":"//83.svetacdn.in/PfJ50H0ZBPg3/tv-series/5733"},{"id":5725,"title":"Без вины виноватая","kp_id":"579606","imdb_id":"tt1783916","world_art_id":null,"type":"serial","add":"2019-11-11 16:49:47","orig_title":"Fatmagül'ün Suçu Ne?","year":"2010-09-16","translations":["Профессиональный (многоголосый закадровый)"],"seasons_count":2,"episodes_count":80,"episodes":41,"update":"2019-11-20 07:19:20","iframe_src":"//83.svetacdn.in/PfJ50H0ZBPg3/tv-series/5725"},{"id":5724,"title":"Секретный агент Макгайвер","kp_id":"273075","imdb_id":"tt0088559","world_art_id":null,"type":"serial","add":"2019-11-11 15:51:05","orig_title":"MacGyver","year":"1985-09-29","translations":["Профессиональный (многоголосый закадровый) (ДТВ)"],"seasons_count":7,"episodes_count":139,"episodes":14,"update":"2019-11-19 12:39:35","iframe_src":"//83.svetacdn.in/PfJ50H0ZBPg3/tv-series/5724"},{"id":32913,"title":"Опасная близость: Сражение при Лонгтане","kp_id":"262003","imdb_id":"tt0441881","world_art_id":null,"type":"movie","add":"2019-11-11 09:12:52","orig_title":"Danger Close: The Battle of Long Tan","year":"2019-06-15","translations":["Профессиональный (многоголосый закадровый) (HDrezka Studio)","Любительский (многоголосый закадровый) (@MUZOBOZ@)","[EN] Original (English)","Авторский (одноголосый закадровый) (Чадов Михаил)","Полное дублирование (Велес)"],"quality":"webdl","translation":"Профессиональный (многоголосый закадровый) (HDrezka Studio)","update":"2021-10-19 10:12:53","iframe_src":"//83.svetacdn.in/PfJ50H0ZBPg3/movie/32913"},{"id":5716,"title":"Исчезновение","kp_id":"971160","imdb_id":"tt3687802","world_art_id":null,"type":"serial","add":"2019-11-11 07:29:52","orig_title":"Disparue","year":"2015-04-22","translations":["Профессиональный (многоголосый закадровый) (Эй Би Видео | AB-Video)","Профессиональный (многоголосый закадровый) (Первый канал | ОРТ)"],"seasons_count":1,"episodes_count":8,"episodes":8,"update":"2019-11-19 12:44:45","iframe_src":"//83.svetacdn.in/PfJ50H0ZBPg3/tv-series/5716"},{"id":5639,"title":"Военная разведка: Западный фронт","kp_id":"470911","imdb_id":"tt2836788","world_art_id":null,"type":"serial","add":"2019-11-05 13:44:54","orig_title":"Voennaya razvedka. Zapadnyy front","year":"2010-09-25","translations":["Оригинальная дорожка"],"seasons_count":1,"episodes_count":8,"episodes":8,"update":"2019-11-20 08:21:38","iframe_src":"//83.svetacdn.in/PfJ50H0ZBPg3/tv-series/5639"},{"id":5562,"title":"Истории Райли","kp_id":"723030","imdb_id":"tt2543796","world_art_id":null,"type":"serial","add":"2019-10-28 19:46:07","orig_title":"Girl Meets World","year":"2014-06-27","translations":["Полное дублирование"],"seasons_count":1,"episodes_count":21,"episodes":21,"update":"2019-11-18 13:27:13","iframe_src":"//83.svetacdn.in/PfJ50H0ZBPg3/tv-series/5562"},{"id":5531,"title":"Приключения муми-троллей","kp_id":"397360","imdb_id":"tt0247117","world_art_id":null,"type":"serial","add":"2019-10-25 20:53:41","orig_title":"Tanoshî Mûmin ikka","year":"1990-04-12","translations":["Профессиональный (многоголосый закадровый)","Любительский (двухголосый закадровый)"],"seasons_count":2,"episodes_count":104,"episodes":26,"update":"2019-11-20 11:27:04","iframe_src":"//83.svetacdn.in/PfJ50H0ZBPg3/tv-series/5531"},{"id":3911,"title":"Несговорчивый хозяин","kp_id":"1201763","imdb_id":"tt8063866","world_art_id":null,"type":"serial","add":"2019-01-20 08:14:24","orig_title":"The Reluctant Landlord","year":"2018-10-30","translations":["Профессиональный (многоголосый закадровый) (BaibaKo)","Профессиональный (многоголосый закадровый) (HDrezka Studio)"],"seasons_count":2,"episodes_count":12,"episodes":6,"update":"2019-11-18 06:58:37","iframe_src":"//83.svetacdn.in/PfJ50H0ZBPg3/tv-series/3911"},{"id":403,"title":"Коллекция","kp_id":"991571","imdb_id":"tt5239494","world_art_id":null,"type":"serial","add":"2016-09-04 11:54:14","orig_title":"The Collection","year":"2016-09-02","translations":["Профессиональный (многоголосый закадровый) (BaibaKo)","Профессиональный (многоголосый закадровый) (Первый канал | ОРТ)"],"seasons_count":1,"episodes_count":9,"episodes":9,"update":"2019-11-20 09:23:36","iframe_src":"//83.svetacdn.in/PfJ50H0ZBPg3/tv-series/403"},{"id":4227,"title":"Хребет дьявола","kp_id":"662","imdb_id":"tt0256009","world_art_id":null,"type":"movie","add":"2016-08-01 04:37:31","orig_title":"El espinazo del diablo","year":"2001-04-20","translations":["Полное дублирование","Профессиональный (многоголосый закадровый)","Полное дублирование (Сонотек)","Авторский (одноголосый закадровый) (Визгунов Сергей)"],"quality":"bd","translation":"Полное дублирование","update":"2021-10-20 06:52:38","iframe_src":"//83.svetacdn.in/PfJ50H0ZBPg3/movie/4227"}],"current_page":427,"first_page_url":"https://videocdn.tv/api/short?limit=100&api_token=RgFQdUIR2dRmwv8iYa5SnFNgnw3vpjKj&cache3427=3427&page=1","from":42601,"last_page":723,"last_page_url":"https://videocdn.tv/api/short?limit=100&api_token=RgFQdUIR2dRmwv8iYa5SnFNgnw3vpjKj&cache3427=3427&page=723","next_page_url":"https://videocdn.tv/api/short?limit=100&api_token=RgFQdUIR2dRmwv8iYa5SnFNgnw3vpjKj&cache3427=3427&page=428","path":"https://videocdn.tv/api/short","per_page":100,"prev_page_url":"https://videocdn.tv/api/short?limit=100&api_token=RgFQdUIR2dRmwv8iYa5SnFNgnw3vpjKj&cache3427=3427&page=426","to":42640,"total":72228}