{"result":true,"data":[{"id":49682,"title":"Всегда любима","kp_id":"1344419","imdb_id":"tt11668994","world_art_id":null,"type":"movie","add":"2021-04-18 08:14:44","orig_title":"Tersanjung: The Movie","year":"2021-04-01","translations":["Любительский (многоголосый закадровый) (Синема УС)"],"quality":"webdl","translation":"Любительский (многоголосый закадровый) (Синема УС)","update":"2021-04-18 12:03:00","iframe_src":"//5322.svetacdn.in/IAF0wWTdNYZm/movie/49682"},{"id":49679,"title":"Мальчишник: Этот прекрасный Лайфстайл. Восхождение Шоустоппера","kp_id":"1311958","imdb_id":"tt11017812","world_art_id":null,"type":"movie","add":"2021-04-18 08:07:51","orig_title":"The Bachelor Party: It's a Wonderful Lifestyle","year":"2019-11-23","translations":["Любительский (многоголосый закадровый) (Синема УС)"],"quality":"webdl","translation":"Любительский (многоголосый закадровый) (Синема УС)","update":"2021-04-18 12:07:15","iframe_src":"//5322.svetacdn.in/IAF0wWTdNYZm/movie/49679"},{"id":49678,"title":"Смертельная кровь 4: Месть кровавого вируса-убийцы","kp_id":"1256398","imdb_id":"tt9787468","world_art_id":null,"type":"movie","add":"2021-04-18 08:02:57","orig_title":"Death Blood 4: Revenge of the Killer Nano-Robotic Blood Virus","year":"2019-09-24","translations":["Любительский (многоголосый закадровый) (AlphaProject)"],"quality":"webdl","translation":"Любительский (многоголосый закадровый) (AlphaProject)","update":"2021-04-18 12:01:49","iframe_src":"//5322.svetacdn.in/IAF0wWTdNYZm/movie/49678"},{"id":49675,"title":"Мо","kp_id":"1286844","imdb_id":"tt10598260","world_art_id":null,"type":"movie","add":"2021-04-18 07:15:48","orig_title":"Mo","year":"2019-06-07","translations":["Любительский (многоголосый закадровый) (Синема УС)"],"quality":"webdl","translation":"Любительский (многоголосый закадровый) (Синема УС)","update":"2021-04-18 11:59:16","iframe_src":"//5322.svetacdn.in/IAF0wWTdNYZm/movie/49675"},{"id":49671,"title":"Снова жизнь","kp_id":"2000646","imdb_id":"tt13491620","world_art_id":null,"type":"movie","add":"2021-04-18 07:00:31","orig_title":"Unpaused","year":"2020-12-18","translations":["Любительский (многоголосый закадровый) (Синема УС)"],"quality":"webdl","translation":"Любительский (многоголосый закадровый) (Синема УС)","update":"2021-04-18 11:56:56","iframe_src":"//5322.svetacdn.in/IAF0wWTdNYZm/movie/49671"},{"id":49669,"title":"Спайдер","kp_id":"1021848","imdb_id":"tt6522546","world_art_id":null,"type":"movie","add":"2021-04-17 17:03:38","orig_title":"Spyder","year":"2017-09-26","translations":["Профессиональный (многоголосый закадровый) (SDI Media)"],"quality":"webdl","translation":"Профессиональный (многоголосый закадровый) (SDI Media)","update":"2021-04-18 06:47:32","iframe_src":"//5322.svetacdn.in/IAF0wWTdNYZm/movie/49669"},{"id":49668,"title":"Тишина","kp_id":"1230752","imdb_id":"tt9605894","world_art_id":null,"type":"movie","add":"2021-04-17 16:54:37","orig_title":"Nishabdham","year":"2020-10-01","translations":["Любительский (двухголосый закадровый) (OnisFilms)"],"quality":"webdl","translation":"Любительский (двухголосый закадровый) (OnisFilms)","update":"2021-04-17 21:00:33","iframe_src":"//5322.svetacdn.in/IAF0wWTdNYZm/movie/49668"},{"id":49667,"title":"Пункт назначения — Токио","kp_id":"1002","imdb_id":"tt0035799","world_art_id":null,"type":"movie","add":"2021-04-17 16:49:23","orig_title":"Destination Tokyo","year":"1943-12-15","translations":["Авторский (одноголосый закадровый) (Живов Юрий)"],"quality":"webdl","translation":"Авторский (одноголосый закадровый) (Живов Юрий)","update":"2021-04-17 18:48:56","iframe_src":"//5322.svetacdn.in/IAF0wWTdNYZm/movie/49667"},{"id":49666,"title":"Опасный свет на краю земли","kp_id":"11927","imdb_id":"tt0067345","world_art_id":null,"type":"movie","add":"2021-04-17 14:37:44","orig_title":"The Light at the Edge of the World","year":"1971-07-16","translations":["Профессиональный (двухголосый закадровый)"],"quality":"bd","translation":"Профессиональный (двухголосый закадровый)","update":"2021-04-17 20:58:25","iframe_src":"//5322.svetacdn.in/IAF0wWTdNYZm/movie/49666"},{"id":49665,"title":"Смертельный яд","kp_id":"1245767","imdb_id":"tt9875128","world_art_id":null,"type":"movie","add":"2021-04-17 14:17:57","orig_title":"Halahal","year":"2020-09-21","translations":["Любительский (двухголосый закадровый) (OnisFilms)"],"quality":"webdl","translation":"Любительский (двухголосый закадровый) (OnisFilms)","update":"2021-04-17 15:30:08","iframe_src":"//5322.svetacdn.in/IAF0wWTdNYZm/movie/49665"},{"id":49664,"title":"Разоблачение","kp_id":"929105","imdb_id":"tt4898036","world_art_id":null,"type":"movie","add":"2021-04-17 14:12:05","orig_title":"Joru","year":"2014-11-07","translations":["Любительский (двухголосый закадровый) (OnisFilms)"],"quality":"webdl","translation":"Любительский (двухголосый закадровый) (OnisFilms)","update":"2021-04-17 17:00:24","iframe_src":"//5322.svetacdn.in/IAF0wWTdNYZm/movie/49664"},{"id":49660,"title":"Всё зависит от выбора","kp_id":"1386747","imdb_id":"tt10919858","world_art_id":null,"type":"movie","add":"2021-04-17 11:31:16","orig_title":"It's About Choices","year":"2020-02-01","translations":["Любительский (многоголосый закадровый) (Синема УС)"],"quality":"webdl","translation":"Любительский (многоголосый закадровый) (Синема УС)","update":"2021-04-18 09:00:05","iframe_src":"//5322.svetacdn.in/IAF0wWTdNYZm/movie/49660"},{"id":49659,"title":"Большой вес имеет значение","kp_id":"1194367","imdb_id":"tt8932868","world_art_id":null,"type":"movie","add":"2021-04-16 20:44:56","orig_title":"Weightier Matters","year":"2019-12-31","translations":["Любительский (многоголосый закадровый) (Синема УС)"],"quality":"webdl","translation":"Любительский (многоголосый закадровый) (Синема УС)","update":"2021-04-17 14:54:45","iframe_src":"//5322.svetacdn.in/IAF0wWTdNYZm/movie/49659"},{"id":49658,"title":"Среди камней","kp_id":"1019770","imdb_id":"tt6126550","world_art_id":null,"type":"movie","add":"2021-04-16 20:42:48","orig_title":"Us Among the Stones","year":"2019-10-12","translations":["Любительский (многоголосый закадровый) (Синема УС)"],"quality":"webdl","translation":"Любительский (многоголосый закадровый) (Синема УС)","update":"2021-04-17 09:19:58","iframe_src":"//5322.svetacdn.in/IAF0wWTdNYZm/movie/49658"},{"id":49657,"title":"Сара Штейн: Шалом Берлин, Шалом Тель-Авив","kp_id":"1230502","imdb_id":"tt9601616","world_art_id":null,"type":"movie","add":"2021-04-16 20:40:47","orig_title":"Sara Stein: Shalom Berlin, Shalom Tel Aviv","year":"2019-06-01","translations":["Любительский (многоголосый закадровый) (AlphaProject)"],"quality":"webdl","translation":"Любительский (многоголосый закадровый) (AlphaProject)","update":"2021-04-17 09:19:29","iframe_src":"//5322.svetacdn.in/IAF0wWTdNYZm/movie/49657"},{"id":49656,"title":"Корень проблемы","kp_id":"1192891","imdb_id":"tt8206880","world_art_id":null,"type":"movie","add":"2021-04-16 20:39:07","orig_title":"Root of the Problem","year":"2019-09-21","translations":["Любительский (многоголосый закадровый) (Синема УС)"],"quality":"webdl","translation":"Любительский (многоголосый закадровый) (Синема УС)","update":"2021-04-17 09:14:57","iframe_src":"//5322.svetacdn.in/IAF0wWTdNYZm/movie/49656"},{"id":49655,"title":"Пинк Хилл","kp_id":null,"imdb_id":"tt9359866","world_art_id":null,"type":"movie","add":"2021-04-16 20:37:06","orig_title":"Pink Hill","year":"2019-04-13","translations":["Любительский (многоголосый закадровый) (Синема УС)"],"quality":"webdl","translation":"Любительский (многоголосый закадровый) (Синема УС)","update":"2021-04-17 14:53:44","iframe_src":"//5322.svetacdn.in/IAF0wWTdNYZm/movie/49655"},{"id":49654,"title":"Счастье быть чернокожим","kp_id":"1293497","imdb_id":"tt11473680","world_art_id":null,"type":"movie","add":"2021-04-16 20:33:25","orig_title":"Black Boy Joy","year":"2020-08-16","translations":["Любительский (многоголосый закадровый) (Синема УС)"],"quality":"webdl","translation":"Любительский (многоголосый закадровый) (Синема УС)","update":"2021-04-17 14:56:39","iframe_src":"//5322.svetacdn.in/IAF0wWTdNYZm/movie/49654"},{"id":45925,"title":"ЗОЖ","kp_id":"1387201","imdb_id":"tt12443946","world_art_id":null,"type":"movie","add":"2020-12-08 19:38:09","orig_title":"Sweat","year":"2020-06-23","translations":["Любительский (многоголосый закадровый) (@MUZOBOZ@)","Полное дублирование"],"quality":"webdl","translation":"Любительский (многоголосый закадровый) (@MUZOBOZ@)","update":"2021-04-16 22:14:19","iframe_src":"//5322.svetacdn.in/IAF0wWTdNYZm/movie/45925"},{"id":9229,"title":"Холодный звонок","kp_id":"1230187","imdb_id":"tt9134228","world_art_id":null,"type":"serial","add":"2020-11-08 06:58:00","orig_title":"Cold Call","year":"2019-11-18","translations":["Полное дублирование"],"seasons_count":1,"episodes_count":4,"episodes":4,"update":"2020-11-08 17:46:29","iframe_src":"//5322.svetacdn.in/IAF0wWTdNYZm/tv-series/9229"},{"id":9227,"title":"Не отпускай","kp_id":"1390588","imdb_id":null,"world_art_id":null,"type":"serial","add":"2020-11-07 16:36:31","orig_title":"Не отпускай","year":"2019-01-01","translations":["Оригинальная дорожка"],"seasons_count":1,"episodes_count":8,"episodes":8,"update":"2020-11-08 06:40:45","iframe_src":"//5322.svetacdn.in/IAF0wWTdNYZm/tv-series/9227"},{"id":9225,"title":"Чужая сестра","kp_id":"1355553","imdb_id":null,"world_art_id":null,"type":"serial","add":"2020-11-07 13:31:58","orig_title":"Чужая сестра","year":"2020-01-01","translations":["Оригинальная дорожка"],"seasons_count":1,"episodes_count":2,"episodes":2,"update":"2020-11-08 07:06:16","iframe_src":"//5322.svetacdn.in/IAF0wWTdNYZm/tv-series/9225"},{"id":9214,"title":"Воровка","kp_id":"584957","imdb_id":"tt1763664","world_art_id":null,"type":"serial","add":"2020-11-06 11:08:57","orig_title":"La ladra","year":"2010-09-19","translations":["Профессиональный (двухголосый закадровый) (ViruseProject)"],"seasons_count":1,"episodes_count":6,"episodes":6,"update":"2020-11-07 10:50:26","iframe_src":"//5322.svetacdn.in/IAF0wWTdNYZm/tv-series/9214"},{"id":9212,"title":"Дрожь","kp_id":"397475","imdb_id":"tt0327375","world_art_id":null,"type":"serial","add":"2020-11-06 05:51:09","orig_title":"Tremors","year":"2003-03-28","translations":["Профессиональный (многоголосый закадровый) (ТВ3)"],"seasons_count":1,"episodes_count":13,"episodes":13,"update":"2020-11-08 08:43:50","iframe_src":"//5322.svetacdn.in/IAF0wWTdNYZm/tv-series/9212"},{"id":9211,"title":"Лабиринт мира","kp_id":"1285145","imdb_id":"tt10639680","world_art_id":null,"type":"serial","add":"2020-11-06 05:26:33","orig_title":"Frieden","year":"2020-01-01","translations":["Любительский (многоголосый закадровый) (KerobTV)"],"seasons_count":1,"episodes_count":6,"episodes":6,"update":"2020-11-08 08:44:34","iframe_src":"//5322.svetacdn.in/IAF0wWTdNYZm/tv-series/9211"},{"id":9209,"title":"Два парня и девушка","kp_id":"401675","imdb_id":"tt0137330","world_art_id":null,"type":"serial","add":"2020-11-05 17:16:15","orig_title":"Two Guys, a Girl and a Pizza Place","year":"1998-03-10","translations":["Полное дублирование (Paramount Comedy)"],"seasons_count":4,"episodes_count":81,"episodes":22,"update":"2020-11-08 09:50:53","iframe_src":"//5322.svetacdn.in/IAF0wWTdNYZm/tv-series/9209"},{"id":9179,"title":"Земля лицемерия","kp_id":"1226951","imdb_id":"tt9516224","world_art_id":null,"type":"serial","add":"2020-11-02 15:56:23","orig_title":"Ard Al Nefaq","year":"2018-05-17","translations":["Любительский (многоголосый закадровый) (WestFilm)"],"seasons_count":1,"episodes_count":30,"episodes":30,"update":"2020-11-07 20:59:44","iframe_src":"//5322.svetacdn.in/IAF0wWTdNYZm/tv-series/9179"},{"id":9171,"title":"Братья Фрейтас","kp_id":"1168036","imdb_id":"tt8652722","world_art_id":null,"type":"serial","add":"2020-11-02 06:21:10","orig_title":"Irmãos Freitas","year":"2019-10-20","translations":["Любительский (многоголосый закадровый) (Ultradox)"],"seasons_count":1,"episodes_count":8,"episodes":8,"update":"2020-11-08 17:23:09","iframe_src":"//5322.svetacdn.in/IAF0wWTdNYZm/tv-series/9171"},{"id":9166,"title":"Я буду тебя искать","kp_id":"1411076","imdb_id":"tt13064552","world_art_id":null,"type":"serial","add":"2020-11-01 13:55:18","orig_title":"Io ti cercherò","year":"2020-10-05","translations":["Любительский (многоголосый закадровый) (Ultradox)"],"seasons_count":1,"episodes_count":8,"episodes":8,"update":"2020-11-08 14:14:44","iframe_src":"//5322.svetacdn.in/IAF0wWTdNYZm/tv-series/9166"},{"id":9083,"title":"Рождение богача","kp_id":"784833","imdb_id":"tt5476264","world_art_id":null,"type":"serial","add":"2020-10-23 10:46:08","orig_title":"Bujaui Tansaeng","year":"2010-03-01","translations":["Любительский (одноголосый закадровый) (GREEN TEA)"],"seasons_count":1,"episodes_count":20,"episodes":20,"update":"2020-11-09 08:13:17","iframe_src":"//5322.svetacdn.in/IAF0wWTdNYZm/tv-series/9083"},{"id":9033,"title":"Слово чести","kp_id":"1411302","imdb_id":"tt12872866","world_art_id":null,"type":"serial","add":"2020-10-17 05:02:44","orig_title":"Seref Sözü","year":"2020-10-14","translations":["Любительский (двухголосый закадровый) (SesDizi | DiziMania)","Любительский (двухголосый закадровый) (Анастасия Гайдаржи + Андрей Юрченко)"],"seasons_count":1,"episodes_count":4,"episodes":4,"update":"2020-11-08 19:03:05","iframe_src":"//5322.svetacdn.in/IAF0wWTdNYZm/tv-series/9033"},{"id":8569,"title":"Синие тени","kp_id":"966671","imdb_id":"tt5507426","world_art_id":null,"type":"serial","add":"2020-08-29 19:04:56","orig_title":"Modré stíny","year":"2016-02-28","translations":["Любительский (многоголосый закадровый) (WestFilm)","Профессиональный (двухголосый закадровый) (ViruseProject)"],"seasons_count":1,"episodes_count":4,"episodes":4,"update":"2020-11-07 12:51:40","iframe_src":"//5322.svetacdn.in/IAF0wWTdNYZm/tv-series/8569"},{"id":7560,"title":"Живые мишени","kp_id":"1219789","imdb_id":"tt9429690","world_art_id":null,"type":"serial","add":"2020-05-18 17:35:08","orig_title":"Zivé terce","year":"2019-04-28","translations":["Любительский (многоголосый закадровый) (WestFilm)","Профессиональный (двухголосый закадровый) (ViruseProject)"],"seasons_count":1,"episodes_count":3,"episodes":3,"update":"2020-11-07 07:29:19","iframe_src":"//5322.svetacdn.in/IAF0wWTdNYZm/tv-series/7560"},{"id":6936,"title":"Лесные разбойники","kp_id":"1345614","imdb_id":"tt5766086","world_art_id":null,"type":"serial","add":"2020-03-19 20:18:11","orig_title":"The Flemish Bandits","year":"2020-01-02","translations":["Любительский (многоголосый закадровый) (ColdFilm)","Любительский (многоголосый закадровый) (WestFilm)","Профессиональный (двухголосый закадровый) (ViruseProject)"],"seasons_count":1,"episodes_count":10,"episodes":10,"update":"2020-11-08 08:14:41","iframe_src":"//5322.svetacdn.in/IAF0wWTdNYZm/tv-series/6936"},{"id":6824,"title":"Король Квинса","kp_id":"276111","imdb_id":"tt0165581","world_art_id":null,"type":"serial","add":"2020-03-09 20:23:26","orig_title":"The King of Queens","year":"1998-09-21","translations":["Профессиональный (многоголосый закадровый) (SET)","Любительский (одноголосый закадровый)"],"seasons_count":9,"episodes_count":207,"episodes":13,"update":"2020-11-08 08:46:13","iframe_src":"//5322.svetacdn.in/IAF0wWTdNYZm/tv-series/6824"},{"id":34394,"title":"Церемония","kp_id":"160343","imdb_id":"tt0066639","world_art_id":null,"type":"movie","add":"2019-12-23 17:33:00","orig_title":"Gishiki","year":"1971-06-05","translations":["Профессиональный (одноголосый закадровый)"],"quality":"bd","translation":"Профессиональный (одноголосый закадровый)","update":"2021-04-17 15:18:36","iframe_src":"//5322.svetacdn.in/IAF0wWTdNYZm/movie/34394"},{"id":5599,"title":"Первобытный","kp_id":"1263399","imdb_id":"tt10332508","world_art_id":null,"type":"serial","add":"2019-11-01 18:07:47","orig_title":"Primal","year":"2019-10-07","translations":["Оригинальная дорожка"],"seasons_count":1,"episodes_count":10,"episodes":10,"update":"2020-11-07 11:36:22","iframe_src":"//5322.svetacdn.in/IAF0wWTdNYZm/tv-series/5599"},{"id":4557,"title":"Вистинг","kp_id":"1137936","imdb_id":"tt7875794","world_art_id":null,"type":"serial","add":"2019-05-27 03:00:35","orig_title":"Wisting","year":"2019-04-11","translations":["Профессиональный (многоголосый закадровый) (HDrezka Studio)","Профессиональный (многоголосый закадровый) (TVShows)","Профессиональный (многоголосый закадровый) (Zone Vision Studio)"],"seasons_count":1,"episodes_count":10,"episodes":10,"update":"2020-11-08 08:56:20","iframe_src":"//5322.svetacdn.in/IAF0wWTdNYZm/tv-series/4557"},{"id":2131,"title":"Богомол","kp_id":"1111975","imdb_id":"tt6467482","world_art_id":null,"type":"serial","add":"2018-02-22 04:30:43","orig_title":"La Mante","year":"2017-08-28","translations":["Любительский (двухголосый закадровый) (Sunshine Studio)","Профессиональный (двухголосый закадровый) (ViruseProject)"],"seasons_count":1,"episodes_count":6,"episodes":6,"update":"2020-11-07 10:55:48","iframe_src":"//5322.svetacdn.in/IAF0wWTdNYZm/tv-series/2131"},{"id":1914,"title":"Арчер","kp_id":"491547","imdb_id":"tt1486217","world_art_id":null,"type":"serial","add":"2018-01-03 18:30:05","orig_title":"Archer","year":"2009-09-17","translations":["Профессиональный (многоголосый закадровый) (NovaFilm)","Профессиональный (многоголосый закадровый) (NewStudio)","Профессиональный (многоголосый закадровый)","Любительский (многоголосый закадровый) (Octopus)","Любительский (многоголосый закадровый) (ColdFilm)","Профессиональный (двухголосый закадровый) (IdeaFilm)","Профессиональный (многоголосый закадровый) (BaibaKo)"],"seasons_count":11,"episodes_count":118,"episodes":8,"update":"2020-11-07 14:24:17","iframe_src":"//5322.svetacdn.in/IAF0wWTdNYZm/tv-series/1914"}],"current_page":118,"first_page_url":"https://videocdn.tv/api/short?limit=100&api_token=6Onb1W1alEUrBcKJZD3GoKBbWyAl2uG2&cache3118=3118&page=1","from":11701,"last_page":629,"last_page_url":"https://videocdn.tv/api/short?limit=100&api_token=6Onb1W1alEUrBcKJZD3GoKBbWyAl2uG2&cache3118=3118&page=629","next_page_url":"https://videocdn.tv/api/short?limit=100&api_token=6Onb1W1alEUrBcKJZD3GoKBbWyAl2uG2&cache3118=3118&page=119","path":"https://videocdn.tv/api/short","per_page":100,"prev_page_url":"https://videocdn.tv/api/short?limit=100&api_token=6Onb1W1alEUrBcKJZD3GoKBbWyAl2uG2&cache3118=3118&page=117","to":11740,"total":62895}