{"result":true,"data":[{"id":25088,"title":"Рождественское желание","kp_id":"939953","imdb_id":"tt4700190","world_art_id":null,"type":"movie","add":"2019-04-22 08:17:16","orig_title":"Wish for Christmas","year":"2016-11-01","translations":["Профессиональный (многоголосый закадровый) (GreenРай Studio)"],"quality":"bd","translation":"Профессиональный (многоголосый закадровый) (GreenРай Studio)","update":"2019-04-22 09:33:12","iframe_src":"//83.svetacdn.in/PfJ50H0ZBPg3/movie/25088"},{"id":25087,"title":"Любовь - это всё","kp_id":"1132239","imdb_id":"tt7877276","world_art_id":null,"type":"movie","add":"2019-04-22 07:13:24","orig_title":"Milosc jest wszystkim","year":"2018-11-23","translations":["Любительский (многоголосый закадровый) (Синема УС)"],"quality":"bd","translation":"Любительский (многоголосый закадровый) (Синема УС)","update":"2019-04-22 09:32:27","iframe_src":"//83.svetacdn.in/PfJ50H0ZBPg3/movie/25087"},{"id":25086,"title":"Горбун","kp_id":"983439","imdb_id":null,"world_art_id":null,"type":"movie","add":"2019-04-22 07:10:09","orig_title":"The Hunchback","year":"2016-04-27","translations":["Любительский (многоголосый закадровый) (Колобок)"],"quality":"webdl","translation":"Любительский (многоголосый закадровый) (Колобок)","update":"2019-04-22 09:31:23","iframe_src":"//83.svetacdn.in/PfJ50H0ZBPg3/movie/25086"},{"id":25084,"title":"Великая притворщица","kp_id":"1158112","imdb_id":"tt7912678","world_art_id":null,"type":"movie","add":"2019-04-22 07:00:09","orig_title":"The Great Pretender","year":"2018-12-06","translations":["Любительский (многоголосый закадровый) (Синема УС)"],"quality":"webdl","translation":"Любительский (многоголосый закадровый) (Синема УС)","update":"2019-04-22 09:28:06","iframe_src":"//83.svetacdn.in/PfJ50H0ZBPg3/movie/25084"},{"id":25083,"title":"Разлито с любовью","kp_id":"1247004","imdb_id":"tt9876408","world_art_id":null,"type":"movie","add":"2019-04-22 06:40:54","orig_title":"Bottled with Love","year":"2019-04-13","translations":["Профессиональный (многоголосый закадровый) (AlphaProject)"],"quality":"hdtv","translation":"Профессиональный (многоголосый закадровый) (AlphaProject)","update":"2019-04-22 08:48:24","iframe_src":"//83.svetacdn.in/PfJ50H0ZBPg3/movie/25083"},{"id":24977,"title":"Чайка","kp_id":"45434","imdb_id":"tt0065533","world_art_id":null,"type":"movie","add":"2019-04-21 09:21:25","orig_title":"Chayka","year":"1972-01-07","translations":["Оригинальная дорожка"],"quality":"dvdrip","translation":"Оригинальная дорожка","update":"2019-04-22 11:45:46","iframe_src":"//83.svetacdn.in/PfJ50H0ZBPg3/movie/24977"},{"id":24976,"title":"Чартер","kp_id":"400071","imdb_id":null,"world_art_id":null,"type":"movie","add":"2019-04-21 09:19:17","orig_title":"Чартер","year":"2007-01-01","translations":["Оригинальная дорожка"],"quality":"dvdrip","translation":"Оригинальная дорожка","update":"2019-04-22 11:44:50","iframe_src":"//83.svetacdn.in/PfJ50H0ZBPg3/movie/24976"},{"id":24975,"title":"Буря над Азией","kp_id":"46248","imdb_id":"tt0305344","world_art_id":null,"type":"movie","add":"2019-04-21 09:17:19","orig_title":"Burya nad Aziey","year":"1965-11-22","translations":["Оригинальная дорожка"],"quality":"vhs","translation":"Оригинальная дорожка","update":"2019-04-22 11:43:14","iframe_src":"//83.svetacdn.in/PfJ50H0ZBPg3/movie/24975"},{"id":24974,"title":"Бубен, барабан","kp_id":"409113","imdb_id":"tt1435475","world_art_id":null,"type":"movie","add":"2019-04-21 01:14:05","orig_title":"Buben, baraban","year":"2009-08-07","translations":["Оригинальная дорожка"],"quality":"dvdrip","translation":"Оригинальная дорожка","update":"2019-04-22 11:42:33","iframe_src":"//83.svetacdn.in/PfJ50H0ZBPg3/movie/24974"},{"id":24973,"title":"Бравые парни","kp_id":"113185","imdb_id":"tt0321525","world_art_id":null,"type":"movie","add":"2019-04-21 01:11:33","orig_title":"Bravye parni","year":"1983-01-01","translations":["Оригинальная дорожка"],"quality":"dvdrip","translation":"Оригинальная дорожка","update":"2019-04-22 11:41:57","iframe_src":"//83.svetacdn.in/PfJ50H0ZBPg3/movie/24973"},{"id":24972,"title":"Воры и проститутки. Приз – полет в космос","kp_id":"279542","imdb_id":"tt6336860","world_art_id":null,"type":"movie","add":"2019-04-21 01:09:32","orig_title":"Vory i prostitutki. Priz - polyot v kosmos","year":"2004-01-01","translations":["Оригинальная дорожка"],"quality":"dvdrip","translation":"Оригинальная дорожка","update":"2019-04-22 11:41:05","iframe_src":"//83.svetacdn.in/PfJ50H0ZBPg3/movie/24972"},{"id":24971,"title":"Большая-малая война","kp_id":"25081","imdb_id":"tt0080459","world_art_id":null,"type":"movie","add":"2019-04-21 01:08:11","orig_title":"Bolshaya-malaya voyna","year":"1980-01-01","translations":["Оригинальная дорожка"],"quality":"dvdrip","translation":"Оригинальная дорожка","update":"2019-04-22 11:39:33","iframe_src":"//83.svetacdn.in/PfJ50H0ZBPg3/movie/24971"},{"id":24970,"title":"Без страха и упрека","kp_id":"46115","imdb_id":"tt0149854","world_art_id":null,"type":"movie","add":"2019-04-21 01:06:08","orig_title":"Bez strakha i upryoka","year":"1963-04-26","translations":["Оригинальная дорожка"],"quality":"dvdrip","translation":"Оригинальная дорожка","update":"2019-04-22 11:39:00","iframe_src":"//83.svetacdn.in/PfJ50H0ZBPg3/movie/24970"},{"id":24969,"title":"Белый клык","kp_id":"46070","imdb_id":"tt0166520","world_art_id":null,"type":"movie","add":"2019-04-21 01:03:39","orig_title":"Belyy klyk","year":"1946-09-11","translations":["Оригинальная дорожка"],"quality":"dvdrip","translation":"Оригинальная дорожка","update":"2019-04-22 11:38:17","iframe_src":"//83.svetacdn.in/PfJ50H0ZBPg3/movie/24969"},{"id":24968,"title":"Белая медведица","kp_id":"484370","imdb_id":null,"world_art_id":null,"type":"movie","add":"2019-04-21 01:01:36","orig_title":"Белая медведица","year":"2008-01-01","translations":["Оригинальная дорожка"],"quality":"dvdrip","translation":"Оригинальная дорожка","update":"2019-04-22 11:37:22","iframe_src":"//83.svetacdn.in/PfJ50H0ZBPg3/movie/24968"},{"id":24967,"title":"Автомобиль, скрипка и собака Клякса","kp_id":"43566","imdb_id":"tt0071179","world_art_id":null,"type":"movie","add":"2019-04-21 01:00:03","orig_title":"Avtomobil, skripka i sobaka Klyaksa","year":"1975-01-01","translations":["Оригинальная дорожка"],"quality":"dvdrip","translation":"Оригинальная дорожка","update":"2019-04-22 11:36:35","iframe_src":"//83.svetacdn.in/PfJ50H0ZBPg3/movie/24967"},{"id":24966,"title":"Аршин Мал Алан","kp_id":"43540","imdb_id":"tt0037520","world_art_id":null,"type":"movie","add":"2019-04-21 00:58:15","orig_title":"Arshin Mal Alan","year":"1945-10-13","translations":["Оригинальная дорожка"],"quality":"dvdrip","translation":"Оригинальная дорожка","update":"2019-04-22 11:35:34","iframe_src":"//83.svetacdn.in/PfJ50H0ZBPg3/movie/24966"},{"id":24965,"title":"Андрей и злой чародей","kp_id":"94621","imdb_id":"tt0231141","world_art_id":null,"type":"movie","add":"2019-04-21 00:56:28","orig_title":"Andrey i zloy charodey","year":"1981-01-01","translations":["Оригинальная дорожка"],"quality":"dvdrip","translation":"Оригинальная дорожка","update":"2019-04-22 11:34:56","iframe_src":"//83.svetacdn.in/PfJ50H0ZBPg3/movie/24965"},{"id":24964,"title":"Деревенский детектив","kp_id":"44148","imdb_id":"tt0064224","world_art_id":null,"type":"movie","add":"2019-04-21 00:54:00","orig_title":"Derevenskiy detektiv","year":"1969-03-15","translations":["Оригинальная дорожка"],"quality":"hdtv","translation":"Оригинальная дорожка","update":"2019-04-22 08:37:39","iframe_src":"//83.svetacdn.in/PfJ50H0ZBPg3/movie/24964"},{"id":24963,"title":"Сто дней до приказа","kp_id":"43997","imdb_id":"tt0100694","world_art_id":null,"type":"movie","add":"2019-04-21 00:52:22","orig_title":"Sto dney do prikaza","year":"1991-02-01","translations":["Оригинальная дорожка"],"quality":"dvdrip","translation":"Оригинальная дорожка","update":"2019-04-22 08:36:57","iframe_src":"//83.svetacdn.in/PfJ50H0ZBPg3/movie/24963"}],"current_page":1356,"first_page_url":"https://videocdn.tv/api/short?limit=100&api_token=RgFQdUIR2dRmwv8iYa5SnFNgnw3vpjKj&cache31356=31356&page=1","from":135501,"last_page":602,"last_page_url":"https://videocdn.tv/api/short?limit=100&api_token=RgFQdUIR2dRmwv8iYa5SnFNgnw3vpjKj&cache31356=31356&page=602","next_page_url":null,"path":"https://videocdn.tv/api/short","per_page":100,"prev_page_url":"https://videocdn.tv/api/short?limit=100&api_token=RgFQdUIR2dRmwv8iYa5SnFNgnw3vpjKj&cache31356=31356&page=1355","to":135520,"total":60177}