{"result":true,"data":[{"id":48055,"title":"Мусоровозик. Рождественские приключения","kp_id":"4292278","imdb_id":"tt13458584","world_art_id":null,"type":"movie","add":"2021-02-19 08:47:05","orig_title":"A Trash Truck Christmas","year":"2020-12-11","translations":["Любительский (двухголосый закадровый) (FilmPlay)"],"quality":"webdl","translation":"Любительский (двухголосый закадровый) (FilmPlay)","update":"2021-02-19 11:18:33","iframe_src":"//8332.svetacdn.in/71tsRs29n5tZ/movie/48055"},{"id":48052,"title":"Чоэле","kp_id":"857006","imdb_id":"tt3783706","world_art_id":null,"type":"movie","add":"2021-02-19 05:09:33","orig_title":"Choele","year":"2013-11-17","translations":["Любительский (одноголосый закадровый) (den904)"],"quality":"webdl","translation":"Любительский (одноголосый закадровый) (den904)","update":"2021-02-19 11:31:57","iframe_src":"//8332.svetacdn.in/71tsRs29n5tZ/movie/48052"},{"id":48051,"title":"Леви и Голиаф","kp_id":"57977","imdb_id":"tt0093411","world_art_id":null,"type":"movie","add":"2021-02-19 05:07:08","orig_title":"Lévy et Goliath","year":"1987-01-28","translations":["Профессиональный (многоголосый закадровый)"],"quality":"bd","translation":"Профессиональный (многоголосый закадровый)","update":"2021-02-19 13:19:26","iframe_src":"//8332.svetacdn.in/71tsRs29n5tZ/movie/48051"},{"id":48050,"title":"Закопанный","kp_id":null,"imdb_id":"tt7752100","world_art_id":null,"type":"movie","add":"2021-02-19 05:02:33","orig_title":"Digging to Death","year":"2021-01-14","translations":["Любительский (двухголосый закадровый) (datynet & Yuka_chan)"],"quality":"webdl","translation":"Любительский (двухголосый закадровый) (datynet & Yuka_chan)","update":"2021-02-19 13:21:59","iframe_src":"//8332.svetacdn.in/71tsRs29n5tZ/movie/48050"},{"id":48035,"title":"Моя жизнь с Джеймсом Дином","kp_id":"959826","imdb_id":"tt5356260","world_art_id":null,"type":"movie","add":"2021-02-18 18:59:19","orig_title":"Ma vie avec James Dean","year":"2017-11-15","translations":["Любительский (одноголосый закадровый) (Ашмарин Анатолий)"],"quality":"hdrip","translation":"Любительский (одноголосый закадровый) (Ашмарин Анатолий)","update":"2021-02-19 05:19:12","iframe_src":"//8332.svetacdn.in/71tsRs29n5tZ/movie/48035"},{"id":48034,"title":"Смерть на винограднике","kp_id":"1311354","imdb_id":"tt11096446","world_art_id":null,"type":"movie","add":"2021-02-18 18:48:52","orig_title":"Murder in the Vineyard","year":"2020-07-18","translations":["Original (English)"],"quality":"webdl","translation":"Original (English)","update":"2021-02-19 05:17:20","iframe_src":"//8332.svetacdn.in/71tsRs29n5tZ/movie/48034"},{"id":48032,"title":"Только для взрослых. Выпуск третий","kp_id":"633686","imdb_id":null,"world_art_id":null,"type":"movie","add":"2021-02-18 06:36:04","orig_title":"Только для взрослых. Выпуск третий","year":"1974-01-01","translations":["Оригинальная дорожка"],"quality":"webdl","translation":"Оригинальная дорожка","update":"2021-02-18 12:24:45","iframe_src":"//8332.svetacdn.in/71tsRs29n5tZ/movie/48032"},{"id":48029,"title":"Августина","kp_id":"645108","imdb_id":"tt2098628","world_art_id":null,"type":"movie","add":"2021-02-18 06:00:24","orig_title":"Augustine","year":"2012-05-19","translations":["Профессиональный (двухголосый закадровый) (Elrom)"],"quality":"bd","translation":"Профессиональный (двухголосый закадровый) (Elrom)","update":"2021-02-18 12:27:06","iframe_src":"//8332.svetacdn.in/71tsRs29n5tZ/movie/48029"},{"id":48001,"title":"Белые вороны","kp_id":"819257","imdb_id":"tt3409270","world_art_id":null,"type":"movie","add":"2021-02-16 22:42:38","orig_title":"Baby Doll","year":"2020-01-01","translations":["Любительский (многоголосый закадровый) (AlphaProject)"],"quality":"webdl","translation":"Любительский (многоголосый закадровый) (AlphaProject)","update":"2021-02-18 14:46:20","iframe_src":"//8332.svetacdn.in/71tsRs29n5tZ/movie/48001"},{"id":47986,"title":"Осторожно, дети!","kp_id":"1445206","imdb_id":null,"world_art_id":null,"type":"movie","add":"2021-02-16 18:28:50","orig_title":"Осторожно, дети!","year":"2021-02-18","translations":["Оригинальная дорожка"],"quality":"webdl","translation":"Оригинальная дорожка","update":"2021-02-19 13:31:37","iframe_src":"//8332.svetacdn.in/71tsRs29n5tZ/movie/47986"},{"id":42768,"title":"Скорей бы воскресенье","kp_id":"18487","imdb_id":"tt0086551","world_art_id":null,"type":"movie","add":"2020-08-25 16:53:16","orig_title":"Vivement dimanche!","year":"1983-08-05","translations":["Профессиональный (многоголосый закадровый) (Кармен Видео)","Профессиональный (многоголосый закадровый) (Домашний)","Полное дублирование"],"quality":"bd","translation":"Профессиональный (многоголосый закадровый) (Кармен Видео)","update":"2021-02-19 11:33:39","iframe_src":"//8332.svetacdn.in/71tsRs29n5tZ/movie/42768"},{"id":41956,"title":"Воплощенная мечта","kp_id":"818473","imdb_id":"tt12067142","world_art_id":null,"type":"movie","add":"2020-07-23 18:58:46","orig_title":"Voploschyonnaya mechta","year":"1957-01-01","translations":["Оригинальная дорожка"],"quality":"webdl","translation":"Оригинальная дорожка","update":"2021-02-18 12:25:46","iframe_src":"//8332.svetacdn.in/71tsRs29n5tZ/movie/41956"},{"id":7111,"title":"Дочки","kp_id":"1365992","imdb_id":null,"world_art_id":null,"type":"serial","add":"2020-04-07 06:41:56","orig_title":"Дочки","year":"2020-04-05","translations":["Оригинальная дорожка"],"seasons_count":1,"episodes_count":4,"episodes":4,"update":"2020-04-07 12:02:13","iframe_src":"//8332.svetacdn.in/71tsRs29n5tZ/tv-series/7111"},{"id":7109,"title":"Модель счастливой жизни","kp_id":"838286","imdb_id":null,"world_art_id":null,"type":"serial","add":"2020-04-06 20:43:51","orig_title":"Модель счастливой жизни","year":"2014-01-01","translations":["Оригинальная дорожка"],"seasons_count":1,"episodes_count":2,"episodes":2,"update":"2020-04-07 12:49:12","iframe_src":"//8332.svetacdn.in/71tsRs29n5tZ/tv-series/7109"},{"id":7107,"title":"Новая школа императора","kp_id":"425974","imdb_id":"tt0465327","world_art_id":null,"type":"serial","add":"2020-04-06 12:38:05","orig_title":"The Emperor's New School","year":"2006-01-27","translations":["Полное дублирование"],"seasons_count":2,"episodes_count":51,"episodes":30,"update":"2020-04-08 11:08:19","iframe_src":"//8332.svetacdn.in/71tsRs29n5tZ/tv-series/7107"},{"id":7106,"title":"Миллеры в разводе","kp_id":"741597","imdb_id":"tt2737290","world_art_id":null,"type":"serial","add":"2020-04-06 12:37:20","orig_title":"The Millers","year":"2013-09-26","translations":["Профессиональный (многоголосый закадровый) (Amedia)"],"seasons_count":2,"episodes_count":34,"episodes":11,"update":"2020-04-07 21:28:34","iframe_src":"//8332.svetacdn.in/71tsRs29n5tZ/tv-series/7106"},{"id":7102,"title":"Спецназ: Сан-Диего","kp_id":"574774","imdb_id":"tt1783495","world_art_id":null,"type":"serial","add":"2020-04-06 11:52:01","orig_title":"NTSF:SD:SUV","year":"2011-07-21","translations":["Профессиональный (многоголосый закадровый) (2x2)"],"seasons_count":1,"episodes_count":12,"episodes":12,"update":"2020-04-06 14:12:44","iframe_src":"//8332.svetacdn.in/71tsRs29n5tZ/tv-series/7102"},{"id":7101,"title":"Переростки","kp_id":"414999","imdb_id":"tt1220617","world_art_id":null,"type":"serial","add":"2020-04-06 11:33:53","orig_title":"The Inbetweeners","year":"2008-05-01","translations":["Профессиональный (многоголосый закадровый) (2x2)","Любительский (двухголосый закадровый) (Gravi-TV)"],"seasons_count":3,"episodes_count":18,"episodes":6,"update":"2020-04-07 15:04:08","iframe_src":"//8332.svetacdn.in/71tsRs29n5tZ/tv-series/7101"},{"id":7100,"title":"Неисследованные глубины","kp_id":"710105","imdb_id":"tt2399098","world_art_id":null,"type":"serial","add":"2020-04-06 10:48:53","orig_title":"Alien Deep with Bob Ballard","year":"2012-09-11","translations":["Профессиональный (одноголосый закадровый)"],"seasons_count":1,"episodes_count":5,"episodes":5,"update":"2020-04-07 14:30:24","iframe_src":"//8332.svetacdn.in/71tsRs29n5tZ/tv-series/7100"},{"id":7099,"title":"Тайные связи","kp_id":"501861","imdb_id":"tt1495708","world_art_id":null,"type":"serial","add":"2020-04-06 09:25:45","orig_title":"Covert Affairs","year":"2010-07-13","translations":["Профессиональный (многоголосый закадровый) (Fox Life)"],"seasons_count":5,"episodes_count":75,"episodes":16,"update":"2020-04-07 14:07:17","iframe_src":"//8332.svetacdn.in/71tsRs29n5tZ/tv-series/7099"},{"id":7097,"title":"Панчаят","kp_id":"1359425","imdb_id":"tt12004706","world_art_id":null,"type":"serial","add":"2020-04-06 06:02:00","orig_title":"Panchayat","year":"2020-04-03","translations":["Любительский (многоголосый закадровый) (Octopus)"],"seasons_count":1,"episodes_count":8,"episodes":8,"update":"2020-04-06 18:55:59","iframe_src":"//8332.svetacdn.in/71tsRs29n5tZ/tv-series/7097"},{"id":7096,"title":"Игра лжецов","kp_id":"843783","imdb_id":"tt4073180","world_art_id":null,"type":"serial","add":"2020-04-05 14:34:12","orig_title":"Liar Game","year":"2014-10-20","translations":["Любительский (одноголосый закадровый) (GREEN TEA)"],"seasons_count":1,"episodes_count":12,"episodes":12,"update":"2020-04-06 09:33:45","iframe_src":"//8332.svetacdn.in/71tsRs29n5tZ/tv-series/7096"},{"id":7090,"title":"Титаник: Кровь и сталь","kp_id":"574451","imdb_id":"tt1695366","world_art_id":null,"type":"serial","add":"2020-04-05 09:47:11","orig_title":"Titanic: Blood and Steel","year":"2012-04-22","translations":["Профессиональный (многоголосый закадровый) (BaibaKo)"],"seasons_count":1,"episodes_count":12,"episodes":12,"update":"2020-04-08 11:52:56","iframe_src":"//8332.svetacdn.in/71tsRs29n5tZ/tv-series/7090"},{"id":7089,"title":"1790 год","kp_id":"803788","imdb_id":"tt2078818","world_art_id":null,"type":"serial","add":"2020-04-04 14:56:49","orig_title":"Anno 1790","year":"2011-10-24","translations":["Профессиональный (многоголосый закадровый)"],"seasons_count":1,"episodes_count":10,"episodes":10,"update":"2020-04-06 14:42:06","iframe_src":"//8332.svetacdn.in/71tsRs29n5tZ/tv-series/7089"},{"id":7057,"title":"Чyдаки","kp_id":"207010","imdb_id":"tt0264263","world_art_id":null,"type":"serial","add":"2020-04-02 13:50:41","orig_title":"Jackass","year":"2000-04-12","translations":["Профессиональный (одноголосый закадровый)"],"seasons_count":3,"episodes_count":25,"episodes":9,"update":"2020-04-06 13:39:12","iframe_src":"//8332.svetacdn.in/71tsRs29n5tZ/tv-series/7057"},{"id":7048,"title":"Марго: Огненный крест","kp_id":"446128","imdb_id":null,"world_art_id":null,"type":"serial","add":"2020-04-01 13:40:07","orig_title":"Марго: Огненный крест","year":"2020-03-31","translations":["Оригинальная дорожка"],"seasons_count":1,"episodes_count":12,"episodes":12,"update":"2020-04-07 16:44:35","iframe_src":"//8332.svetacdn.in/71tsRs29n5tZ/tv-series/7048"},{"id":7012,"title":"Киллерши","kp_id":"1200818","imdb_id":"tt9041792","world_art_id":null,"type":"serial","add":"2020-03-27 15:48:12","orig_title":"Hitmen","year":"2020-03-25","translations":["Любительский (многоголосый закадровый) (ColdFilm)","Профессиональный (многоголосый закадровый) (Lucky Production)"],"seasons_count":1,"episodes_count":6,"episodes":6,"update":"2020-04-08 11:30:36","iframe_src":"//8332.svetacdn.in/71tsRs29n5tZ/tv-series/7012"},{"id":6972,"title":"Моланг","kp_id":"1004207","imdb_id":"tt6046238","world_art_id":null,"type":"serial","add":"2020-03-23 22:02:09","orig_title":"Molang","year":"2015-12-31","translations":["Оригинальная дорожка"],"seasons_count":3,"episodes_count":156,"episodes":52,"update":"2020-04-06 17:03:36","iframe_src":"//8332.svetacdn.in/71tsRs29n5tZ/tv-series/6972"},{"id":6927,"title":"Проспект обороны","kp_id":"1042518","imdb_id":null,"world_art_id":null,"type":"serial","add":"2020-03-18 15:11:15","orig_title":"Проспект обороны","year":"2020-03-18","translations":["Оригинальная дорожка"],"seasons_count":1,"episodes_count":16,"episodes":16,"update":"2020-04-08 02:26:43","iframe_src":"//8332.svetacdn.in/71tsRs29n5tZ/tv-series/6927"},{"id":4931,"title":"Железный человек: Приключения в броне","kp_id":"481521","imdb_id":"tt0837143","world_art_id":null,"type":"serial","add":"2019-07-24 07:48:44","orig_title":"Iron Man: Armored Adventures","year":"2008-11-22","translations":["Любительский (многоголосый закадровый)","Любительский (одноголосый закадровый)"],"seasons_count":2,"episodes_count":52,"episodes":26,"update":"2020-04-07 14:35:00","iframe_src":"//8332.svetacdn.in/71tsRs29n5tZ/tv-series/4931"},{"id":4494,"title":"Семейный брак","kp_id":"1174219","imdb_id":"tt8708280","world_art_id":null,"type":"serial","add":"2019-05-13 07:01:17","orig_title":"State of the Union","year":"2019-05-06","translations":["Профессиональный (многоголосый закадровый) (IdeaFilm)","Любительский (многоголосый закадровый) (ColdFilm)","Профессиональный (многоголосый закадровый) (HDrezka Studio)","Полное дублирование (Кириллица)"],"seasons_count":1,"episodes_count":10,"episodes":10,"update":"2020-04-07 14:27:15","iframe_src":"//8332.svetacdn.in/71tsRs29n5tZ/tv-series/4494"},{"id":20237,"title":"Эффект спускового курка","kp_id":"2381","imdb_id":"tt0117965","world_art_id":null,"type":"movie","add":"2018-11-21 09:00:02","orig_title":"The Trigger Effect","year":"1996-08-30","translations":["Профессиональный (многоголосый закадровый)","Original (English)","Авторский (одноголосый закадровый) (Живов Юрий)","Original (English)","Профессиональный (двухголосый закадровый) (РТР | Россия)","Профессиональный (многоголосый закадровый)"],"quality":"webdl","translation":"Профессиональный (многоголосый закадровый)","update":"2021-02-18 12:19:19","iframe_src":"//8332.svetacdn.in/71tsRs29n5tZ/movie/20237"},{"id":8773,"title":"Миранда","kp_id":"58027","imdb_id":"tt0089598","world_art_id":null,"type":"movie","add":"2017-01-10 07:17:51","orig_title":"Miranda","year":"1985-10-15","translations":["Профессиональный (многоголосый закадровый)","Профессиональный (двухголосый закадровый) (НТВ)"],"quality":"dvdrip","translation":"Профессиональный (многоголосый закадровый)","update":"2021-02-18 12:51:22","iframe_src":"//8332.svetacdn.in/71tsRs29n5tZ/movie/8773"},{"id":719,"title":"Гавайи 5.0","kp_id":"503148","imdb_id":"tt1600194","world_art_id":null,"type":"serial","add":"2016-12-22 08:47:26","orig_title":"Hawaii Five-0","year":"2010-09-20","translations":["Профессиональный (многоголосый закадровый) (LostFilm)"],"seasons_count":10,"episodes_count":240,"episodes":22,"update":"2020-04-07 06:11:17","iframe_src":"//8332.svetacdn.in/71tsRs29n5tZ/tv-series/719"},{"id":6838,"title":"Беглый огонь","kp_id":"13705","imdb_id":"tt0105219","world_art_id":null,"type":"movie","add":"2016-10-30 08:45:35","orig_title":"Rapid Fire","year":"1992-08-21","translations":["Профессиональный (многоголосый закадровый)","Полное дублирование","Авторский (одноголосый закадровый) (Гаевский Евгений)","Авторский (одноголосый закадровый) (Гаврилов Андрей)","Полное дублирование (Киностудия им. Горького)","Original (English)","Любительский (одноголосый закадровый)","Профессиональный (многоголосый закадровый)","Профессиональный (многоголосый закадровый) (Первый канал | ОРТ)"],"quality":"hdtv","translation":"Профессиональный (многоголосый закадровый)","update":"2021-02-19 08:40:57","iframe_src":"//8332.svetacdn.in/71tsRs29n5tZ/movie/6838"},{"id":4156,"title":"Короткое замыкание 2","kp_id":"16471","imdb_id":"tt0096101","world_art_id":null,"type":"movie","add":"2016-07-25 15:30:41","orig_title":"Short Circuit 2","year":"1988-07-06","translations":["Полное дублирование","Авторский (одноголосый закадровый) (Дольский Андрей)","Авторский (одноголосый закадровый) (Карповский Антон)","Авторский (одноголосый закадровый) (Кузнецов Сергей)","Авторский (одноголосый закадровый) (Прямостанов Павел)","Полное дублирование","Original (English)"],"quality":"bd","translation":"Полное дублирование","update":"2021-02-19 10:51:11","iframe_src":"//8332.svetacdn.in/71tsRs29n5tZ/movie/4156"},{"id":4155,"title":"Короткое замыкание","kp_id":"18282","imdb_id":"tt0091949","world_art_id":null,"type":"movie","add":"2016-07-25 15:29:13","orig_title":"Short Circuit","year":"1986-05-09","translations":["Полное дублирование","Профессиональный (многоголосый закадровый)","Авторский (одноголосый закадровый) (Дольский Андрей)","Авторский (одноголосый закадровый) (Кузнецов Сергей)","Авторский (одноголосый закадровый) (Живов Юрий)","Профессиональный (многоголосый закадровый) (СТС)","Полное дублирование","Original (English)"],"quality":"bd","translation":"Полное дублирование","update":"2021-02-19 10:34:44","iframe_src":"//8332.svetacdn.in/71tsRs29n5tZ/movie/4155"},{"id":3776,"title":"Щепка","kp_id":"17287","imdb_id":"tt0108162","world_art_id":null,"type":"movie","add":"2016-07-08 12:32:05","orig_title":"Sliver","year":"1993-05-21","translations":["Профессиональный (многоголосый закадровый)","Авторский (одноголосый закадровый) (Михалёв Алексей)","Авторский (одноголосый закадровый) (Пронин Антон)","Original (English)","Профессиональный (многоголосый закадровый) (НТВ)","Профессиональный (многоголосый закадровый) (Премьер Видео Фильм)"],"quality":"hdtv","translation":"Профессиональный (многоголосый закадровый)","update":"2021-02-19 11:05:28","iframe_src":"//8332.svetacdn.in/71tsRs29n5tZ/movie/3776"},{"id":3734,"title":"Зимняя кость","kp_id":"455627","imdb_id":"tt1399683","world_art_id":null,"type":"movie","add":"2016-07-06 14:17:59","orig_title":"Winter's Bone","year":"2010-01-21","translations":["Профессиональный (двухголосый закадровый)","Original (English)","Профессиональный (двухголосый закадровый) (Elrom)","Профессиональный (многоголосый закадровый) (Культура)"],"quality":"bd","translation":"Профессиональный (двухголосый закадровый)","update":"2021-02-18 12:22:58","iframe_src":"//8332.svetacdn.in/71tsRs29n5tZ/movie/3734"},{"id":1757,"title":"Бешеные псы","kp_id":"394","imdb_id":"tt0105236","world_art_id":null,"type":"movie","add":"2016-04-30 17:20:23","orig_title":"Reservoir Dogs","year":"1992-01-21","translations":["Профессиональный (многоголосый)","Авторский (одноголосый закадровый) (Гоблин | Пучков Дмитрий)","Авторский (одноголосый закадровый) (Гаврилов Андрей)","Авторский (одноголосый закадровый) (Гоблин | Пучков Дмитрий)","Авторский (одноголосый закадровый) (Горчаков Василий)","Авторский (одноголосый закадровый) (Сербин Юрий)","Авторский (одноголосый закадровый) (Живов Юрий)","Original (English)","Профессиональный (многоголосый закадровый)","Профессиональный (многоголосый закадровый) (CP Digital)","Профессиональный (многоголосый закадровый) (Екатеринбург Арт)","Профессиональный (многоголосый закадровый) (НТВ)","Профессиональный (многоголосый закадровый) (РТР | Россия)","Профессиональный (многоголосый закадровый) (Twister)"],"quality":"bd","translation":"Профессиональный (многоголосый)","update":"2021-02-19 07:15:50","iframe_src":"//8332.svetacdn.in/71tsRs29n5tZ/movie/1757"}],"current_page":247,"first_page_url":"https://videocdn.tv/api/short?limit=100&api_token=EnbO9h8pv1VyjbCJhg0WM9nG259n7mtz&cache3247=3247&page=1","from":24601,"last_page":632,"last_page_url":"https://videocdn.tv/api/short?limit=100&api_token=EnbO9h8pv1VyjbCJhg0WM9nG259n7mtz&cache3247=3247&page=632","next_page_url":"https://videocdn.tv/api/short?limit=100&api_token=EnbO9h8pv1VyjbCJhg0WM9nG259n7mtz&cache3247=3247&page=248","path":"https://videocdn.tv/api/short","per_page":100,"prev_page_url":"https://videocdn.tv/api/short?limit=100&api_token=EnbO9h8pv1VyjbCJhg0WM9nG259n7mtz&cache3247=3247&page=246","to":24640,"total":63136}