{"result":true,"data":[{"id":49570,"title":"Афина","kp_id":"13238","imdb_id":"tt0046728","world_art_id":null,"type":"movie","add":"2021-04-13 05:24:31","orig_title":"Athena","year":"1954-11-04","translations":["Авторский (одноголосый закадровый) (Воронцов Владимир | Доцент)","Original (English)"],"quality":"webdl","translation":"Авторский (одноголосый закадровый) (Воронцов Владимир | Доцент)","update":"2021-05-21 07:23:19","iframe_src":"//83.svetacdn.in/PfJ50H0ZBPg3/movie/49570"},{"id":49497,"title":"Встречай меня в Лас-Вегасе","kp_id":"12503","imdb_id":"tt0049490","world_art_id":null,"type":"movie","add":"2021-04-11 11:31:32","orig_title":"Meet Me in Las Vegas","year":"1956-02-21","translations":["Авторский (одноголосый закадровый) (Воронцов Владимир | Доцент)","Original (English)"],"quality":"bd","translation":"Авторский (одноголосый закадровый) (Воронцов Владимир | Доцент)","update":"2021-05-21 07:37:23","iframe_src":"//83.svetacdn.in/PfJ50H0ZBPg3/movie/49497"},{"id":49476,"title":"Сирокко","kp_id":"10049","imdb_id":"tt0044040","world_art_id":null,"type":"movie","add":"2021-04-09 16:15:49","orig_title":"Sirocco","year":"1951-06-01","translations":["Профессиональный (многоголосый закадровый)","Original (English)"],"quality":"webdl","translation":"Профессиональный (многоголосый закадровый)","update":"2021-05-21 06:43:20","iframe_src":"//83.svetacdn.in/PfJ50H0ZBPg3/movie/49476"},{"id":49426,"title":"Ночь демона","kp_id":"8439","imdb_id":"tt0050766","world_art_id":null,"type":"movie","add":"2021-04-08 05:25:09","orig_title":"Night of the Demon","year":"1957-11-09","translations":["Любительский (одноголосый закадровый) (liosaa)","Original (English)"],"quality":"bd","translation":"Любительский (одноголосый закадровый) (liosaa)","update":"2021-05-21 07:34:34","iframe_src":"//83.svetacdn.in/PfJ50H0ZBPg3/movie/49426"},{"id":49318,"title":"Андрокл и лев","kp_id":"17376","imdb_id":"tt0044355","world_art_id":null,"type":"movie","add":"2021-04-04 06:12:09","orig_title":"Androcles and the Lion","year":"1953-01-09","translations":["Профессиональный (многоголосый закадровый) (5-й канал СПб)","Original (English)"],"quality":"webdl","translation":"Профессиональный (многоголосый закадровый) (5-й канал СПб)","update":"2021-05-21 07:24:59","iframe_src":"//83.svetacdn.in/PfJ50H0ZBPg3/movie/49318"},{"id":48969,"title":"Леди Годива снова в седле","kp_id":"35661","imdb_id":"tt0043719","world_art_id":null,"type":"movie","add":"2021-03-21 07:55:28","orig_title":"Lady Godiva Rides Again","year":"1951-10-25","translations":["Любительский (одноголосый закадровый) (Клушин Игорь | хромолка)","Original (English)"],"quality":"bd","translation":"Любительский (одноголосый закадровый) (Клушин Игорь | хромолка)","update":"2021-05-21 07:38:59","iframe_src":"//83.svetacdn.in/PfJ50H0ZBPg3/movie/48969"},{"id":48685,"title":"Ещё","kp_id":"23888","imdb_id":"tt0064694","world_art_id":null,"type":"movie","add":"2021-03-12 10:59:21","orig_title":"More","year":"1969-05-13","translations":["Авторский (одноголосый закадровый) (Алексеев Антон)","Original (English)"],"quality":"bd","translation":"Авторский (одноголосый закадровый) (Алексеев Антон)","update":"2021-05-21 07:36:15","iframe_src":"//83.svetacdn.in/PfJ50H0ZBPg3/movie/48685"},{"id":48539,"title":"Засада в Томагавк Гэп","kp_id":"61949","imdb_id":"tt0045502","world_art_id":null,"type":"movie","add":"2021-03-08 07:12:43","orig_title":"Ambush at Tomahawk Gap","year":"1953-05-01","translations":["Любительский (одноголосый закадровый) (funny77)","Original (English)"],"quality":"bd","translation":"Любительский (одноголосый закадровый) (funny77)","update":"2021-05-21 07:41:51","iframe_src":"//83.svetacdn.in/PfJ50H0ZBPg3/movie/48539"},{"id":48500,"title":"За короля и отечество","kp_id":"36326","imdb_id":"tt0058263","world_art_id":null,"type":"movie","add":"2021-03-06 16:27:55","orig_title":"King & Country","year":"1964-09-05","translations":["Авторский (одноголосый закадровый) (Янкелевич Роман)","Original (English)"],"quality":"bd","translation":"Авторский (одноголосый закадровый) (Янкелевич Роман)","update":"2021-05-21 07:40:11","iframe_src":"//83.svetacdn.in/PfJ50H0ZBPg3/movie/48500"},{"id":48441,"title":"Марти","kp_id":"7669","imdb_id":"tt0048356","world_art_id":null,"type":"movie","add":"2021-03-04 15:12:27","orig_title":"Marty","year":"1955-04-11","translations":["Профессиональный (многоголосый закадровый) (5-й канал СПб)","Original (English)"],"quality":"bd","translation":"Профессиональный (многоголосый закадровый) (5-й канал СПб)","update":"2021-05-21 07:38:15","iframe_src":"//83.svetacdn.in/PfJ50H0ZBPg3/movie/48441"},{"id":48375,"title":"Рожденная быть плохой","kp_id":"15242","imdb_id":"tt0042275","world_art_id":null,"type":"movie","add":"2021-03-03 05:55:33","orig_title":"Born to Be Bad","year":"1950-08-31","translations":["Авторский (одноголосый закадровый) (Есарев Дмитрий)","Original (English)"],"quality":"webdl","translation":"Авторский (одноголосый закадровый) (Есарев Дмитрий)","update":"2021-05-21 07:22:12","iframe_src":"//83.svetacdn.in/PfJ50H0ZBPg3/movie/48375"},{"id":48326,"title":"Операция «Пасифик»","kp_id":"1370","imdb_id":"tt0043887","world_art_id":null,"type":"movie","add":"2021-03-02 06:19:25","orig_title":"Operation Pacific","year":"1951-01-27","translations":["Профессиональный (многоголосый закадровый)","Original (English)"],"quality":"webdl","translation":"Профессиональный (многоголосый закадровый)","update":"2021-05-21 06:45:34","iframe_src":"//83.svetacdn.in/PfJ50H0ZBPg3/movie/48326"},{"id":48297,"title":"Все, чего я желаю","kp_id":"12602","imdb_id":"tt0045492","world_art_id":null,"type":"movie","add":"2021-02-28 17:42:52","orig_title":"All I Desire","year":"1953-06-25","translations":["Любительский (одноголосый закадровый) (minyaev)","Original (English)"],"quality":"bd","translation":"Любительский (одноголосый закадровый) (minyaev)","update":"2021-05-21 07:42:34","iframe_src":"//83.svetacdn.in/PfJ50H0ZBPg3/movie/48297"},{"id":48262,"title":"Садист","kp_id":"138519","imdb_id":"tt0057465","world_art_id":null,"type":"movie","add":"2021-02-26 06:36:55","orig_title":"The Sadist","year":"1963-08-07","translations":["Любительский (одноголосый закадровый) (liosaa)","Original (English)"],"quality":"bd","translation":"Любительский (одноголосый закадровый) (liosaa)","update":"2021-05-21 07:33:39","iframe_src":"//83.svetacdn.in/PfJ50H0ZBPg3/movie/48262"},{"id":48260,"title":"День, когда Земле пришел конец","kp_id":"30336","imdb_id":"tt0049128","world_art_id":null,"type":"movie","add":"2021-02-26 06:11:22","orig_title":"Day the World Ended","year":"1956-01-04","translations":["Любительский (одноголосый закадровый) (den904)","Original (English)"],"quality":"webdl","translation":"Любительский (одноголосый закадровый) (den904)","update":"2021-05-21 07:20:41","iframe_src":"//83.svetacdn.in/PfJ50H0ZBPg3/movie/48260"},{"id":8335,"title":"Соль, Жир, Кислота, Тепло","kp_id":"1228010","imdb_id":"tt8772088","world_art_id":null,"type":"serial","add":"2020-08-03 10:26:48","orig_title":"Salt Fat Acid Heat","year":"2018-11-10","translations":["Профессиональный (многоголосый закадровый) (HDrezka Studio)"],"seasons_count":1,"episodes_count":4,"episodes":4,"update":"2020-08-03 14:30:23","iframe_src":"//83.svetacdn.in/PfJ50H0ZBPg3/tv-series/8335"},{"id":8325,"title":"Любовь без правил","kp_id":"478517","imdb_id":null,"world_art_id":null,"type":"serial","add":"2020-08-03 06:15:11","orig_title":"Lyubov bez pravil","year":"2011-03-09","translations":["Оригинальная дорожка"],"seasons_count":1,"episodes_count":2,"episodes":2,"update":"2020-08-03 14:23:40","iframe_src":"//83.svetacdn.in/PfJ50H0ZBPg3/tv-series/8325"},{"id":8324,"title":"Картина мелом","kp_id":"615478","imdb_id":"tt3362696","world_art_id":null,"type":"serial","add":"2020-08-03 06:11:52","orig_title":"Kartina melom","year":"2011-12-16","translations":["Оригинальная дорожка"],"seasons_count":1,"episodes_count":4,"episodes":4,"update":"2020-08-03 14:22:53","iframe_src":"//83.svetacdn.in/PfJ50H0ZBPg3/tv-series/8324"},{"id":8323,"title":"Часы любви","kp_id":"581558","imdb_id":"tt1892134","world_art_id":null,"type":"serial","add":"2020-08-03 05:57:38","orig_title":"Chasy lubvi","year":"2011-03-14","translations":["Оригинальная дорожка"],"seasons_count":1,"episodes_count":16,"episodes":16,"update":"2020-08-03 14:21:44","iframe_src":"//83.svetacdn.in/PfJ50H0ZBPg3/tv-series/8323"},{"id":8322,"title":"Именно так","kp_id":"1302210","imdb_id":"tt10841904","world_art_id":null,"type":"serial","add":"2020-08-03 05:47:44","orig_title":"Aynen Aynen","year":"2019-08-01","translations":["Любительский (двухголосый закадровый) (Анастасия Гайдаржи + Андрей Юрченко)"],"seasons_count":3,"episodes_count":22,"episodes":7,"update":"2020-08-03 13:42:40","iframe_src":"//83.svetacdn.in/PfJ50H0ZBPg3/tv-series/8322"},{"id":8318,"title":"Запретная любовь","kp_id":"913023","imdb_id":null,"world_art_id":null,"type":"serial","add":"2020-08-02 05:45:02","orig_title":"Запретная любовь","year":"2015-10-19","translations":["Оригинальная дорожка"],"seasons_count":1,"episodes_count":21,"episodes":21,"update":"2020-08-03 16:42:09","iframe_src":"//83.svetacdn.in/PfJ50H0ZBPg3/tv-series/8318"},{"id":8317,"title":"Взаперти","kp_id":"1390617","imdb_id":null,"world_art_id":null,"type":"serial","add":"2020-08-01 22:49:10","orig_title":"Взаперти","year":"2020-07-28","translations":["Оригинальная дорожка"],"seasons_count":1,"episodes_count":10,"episodes":10,"update":"2020-08-02 09:59:45","iframe_src":"//83.svetacdn.in/PfJ50H0ZBPg3/tv-series/8317"},{"id":8312,"title":"Как обмануть смерть","kp_id":null,"imdb_id":"tt7532396","world_art_id":null,"type":"serial","add":"2020-08-01 11:29:52","orig_title":"A User's Guide to Cheating Death","year":"2017-09-18","translations":["Профессиональный (двухголосый закадровый)"],"seasons_count":2,"episodes_count":12,"episodes":6,"update":"2020-08-02 16:44:57","iframe_src":"//83.svetacdn.in/PfJ50H0ZBPg3/tv-series/8312"},{"id":8308,"title":"Подозрения","kp_id":"774485","imdb_id":"tt0388644","world_art_id":null,"type":"serial","add":"2020-08-01 10:47:48","orig_title":"Soupçons","year":"2004-10-07","translations":["Профессиональный (многоголосый закадровый) (HDrezka Studio)"],"seasons_count":1,"episodes_count":13,"episodes":13,"update":"2020-08-01 20:20:31","iframe_src":"//83.svetacdn.in/PfJ50H0ZBPg3/tv-series/8308"},{"id":8262,"title":"Твоя часть сделки","kp_id":"1321354","imdb_id":"tt10616310","world_art_id":null,"type":"serial","add":"2020-07-27 14:05:47","orig_title":"Tu Parte del Trato","year":"2019-10-30","translations":["Любительский (многоголосый закадровый) (Octopus)"],"seasons_count":1,"episodes_count":8,"episodes":8,"update":"2020-08-02 18:04:20","iframe_src":"//83.svetacdn.in/PfJ50H0ZBPg3/tv-series/8262"},{"id":8251,"title":"Научные глупости","kp_id":"841632","imdb_id":"tt3824414","world_art_id":null,"type":"serial","add":"2020-07-25 16:54:55","orig_title":"Science of Stupid","year":"2014-06-13","translations":["Профессиональный (многоголосый закадровый) (Велес)","Профессиональный (одноголосый закадровый)"],"seasons_count":8,"episodes_count":133,"episodes":16,"update":"2020-08-02 15:26:14","iframe_src":"//83.svetacdn.in/PfJ50H0ZBPg3/tv-series/8251"},{"id":8238,"title":"Город страха: Нью-Йорк против мафии","kp_id":"1392599","imdb_id":"tt12588372","world_art_id":null,"type":"serial","add":"2020-07-23 09:18:56","orig_title":"Fear City: New York vs the Mafia","year":"2020-07-22","translations":["Профессиональный (двухголосый закадровый) (IdeaFilm)","Профессиональный (многоголосый закадровый) (HDrezka Studio)"],"seasons_count":1,"episodes_count":3,"episodes":3,"update":"2020-08-03 04:39:05","iframe_src":"//83.svetacdn.in/PfJ50H0ZBPg3/tv-series/8238"},{"id":7521,"title":"Великая","kp_id":"666955","imdb_id":"tt2235759","world_art_id":null,"type":"serial","add":"2020-05-15 11:53:21","orig_title":"The Great","year":"2020-05-15","translations":["Любительский (многоголосый закадровый) (ColdFilm)","Любительский (многоголосый закадровый) (KerobTV)","Любительский (многоголосый закадровый) (Octopus)","Профессиональный (многоголосый закадровый) (HDrezka Studio)","Профессиональный (многоголосый закадровый) (Greb&Creative)","Профессиональный (многоголосый закадровый) (NewStudio)","Профессиональный (многоголосый закадровый) (LostFilm)"],"seasons_count":1,"episodes_count":10,"episodes":10,"update":"2020-08-01 17:37:41","iframe_src":"//83.svetacdn.in/PfJ50H0ZBPg3/tv-series/7521"},{"id":7387,"title":"Джинн в доме","kp_id":"396490","imdb_id":"tt0795111","world_art_id":null,"type":"serial","add":"2020-05-04 10:13:45","orig_title":"Genie in the House","year":"2006-05-29","translations":["Профессиональный (многоголосый закадровый)"],"seasons_count":3,"episodes_count":76,"episodes":26,"update":"2020-08-02 14:17:12","iframe_src":"//83.svetacdn.in/PfJ50H0ZBPg3/tv-series/7387"},{"id":29614,"title":"Прекрасное безумие","kp_id":"17466","imdb_id":"tt0060414","world_art_id":null,"type":"movie","add":"2019-08-01 20:05:34","orig_title":"A Fine Madness","year":"1966-06-29","translations":["Профессиональный (многоголосый закадровый) (СВ-Дубль)","Профессиональный (многоголосый закадровый) (Культура)","Original (English)"],"quality":"dvdrip","translation":"Профессиональный (многоголосый закадровый) (СВ-Дубль)","update":"2021-05-21 07:26:18","iframe_src":"//83.svetacdn.in/PfJ50H0ZBPg3/movie/29614"},{"id":4542,"title":"Кровь и сокровища","kp_id":"1127589","imdb_id":"tt7712598","world_art_id":null,"type":"serial","add":"2019-05-23 12:16:31","orig_title":"Blood & Treasure","year":"2019-05-21","translations":["Любительский (двухголосый закадровый)","Любительский (двухголосый закадровый) (KerobTV)","Профессиональный (многоголосый закадровый) (NewStudio)","Профессиональный (многоголосый закадровый) (TVShows)","Профессиональный (многоголосый закадровый) (HDrezka Studio)","Профессиональный (многоголосый закадровый) (Jaskier)","Профессиональный (двухголосый закадровый) (TUMBLER Studio)"],"seasons_count":1,"episodes_count":14,"episodes":15,"update":"2020-08-02 05:21:52","iframe_src":"//83.svetacdn.in/PfJ50H0ZBPg3/tv-series/4542"},{"id":4390,"title":"Ник вам покажет","kp_id":"1198679","imdb_id":"tt9039142","world_art_id":null,"type":"serial","add":"2019-04-17 17:32:14","orig_title":"No Good Nick","year":"2019-04-15","translations":["Любительский (многоголосый закадровый) (ColdFilm)","Полное дублирование (Netflix)","Профессиональный (многоголосый закадровый) (HDrezka Studio)"],"seasons_count":2,"episodes_count":20,"episodes":10,"update":"2020-08-01 20:12:40","iframe_src":"//83.svetacdn.in/PfJ50H0ZBPg3/tv-series/4390"},{"id":4227,"title":"Тайный орден","kp_id":"1130837","imdb_id":"tt8295472","world_art_id":null,"type":"serial","add":"2019-03-10 06:32:42","orig_title":"The Order","year":"2019-03-07","translations":["Полное дублирование (Невафильм | Нева-1)","Профессиональный (многоголосый закадровый) (LostFilm)","Любительский (многоголосый закадровый) (ColdFilm)","Любительский (многоголосый закадровый) (Octopus)","Профессиональный (двухголосый закадровый) (IdeaFilm)","Профессиональный (многоголосый закадровый) (Jaskier)","Профессиональный (многоголосый закадровый) (BaibaKo)"],"seasons_count":2,"episodes_count":20,"episodes":10,"update":"2020-08-01 17:35:27","iframe_src":"//83.svetacdn.in/PfJ50H0ZBPg3/tv-series/4227"},{"id":3762,"title":"Берлинские легавые","kp_id":"1183607","imdb_id":"tt6839788","world_art_id":null,"type":"serial","add":"2018-12-26 10:17:46","orig_title":"Dogs of Berlin","year":"2018-12-07","translations":["Любительский (двухголосый закадровый) (GoldTeam)","Профессиональный (многоголосый закадровый) (NewStudio)","Профессиональный (многоголосый закадровый) (HDrezka Studio)","Профессиональный (двухголосый закадровый) (Gears Media)"],"seasons_count":1,"episodes_count":10,"episodes":10,"update":"2020-08-02 05:29:45","iframe_src":"//83.svetacdn.in/PfJ50H0ZBPg3/tv-series/3762"},{"id":19215,"title":"Шаги в тумане","kp_id":"51397","imdb_id":"tt0048087","world_art_id":null,"type":"movie","add":"2018-09-26 23:36:53","orig_title":"Footsteps in the Fog","year":"1955-08-01","translations":["Любительский (одноголосый закадровый)","Любительский (одноголосый закадровый) (Герусов)","Original (English)"],"quality":"bd","translation":"Любительский (одноголосый закадровый)","update":"2021-05-21 07:41:13","iframe_src":"//83.svetacdn.in/PfJ50H0ZBPg3/movie/19215"},{"id":18080,"title":"Эй, убийство!","kp_id":"189799","imdb_id":"tt0058382","world_art_id":null,"type":"movie","add":"2018-08-05 15:54:31","orig_title":"Murder Ahoy","year":"1964-09-22","translations":["Любительский (одноголосый закадровый)","Авторский (одноголосый закадровый) (Янкелевич Роман)","Original (English)"],"quality":"webdl","translation":"Любительский (одноголосый закадровый)","update":"2021-05-21 07:15:49","iframe_src":"//83.svetacdn.in/PfJ50H0ZBPg3/movie/18080"},{"id":1920,"title":"Пол-литровая мышь","kp_id":"281882","imdb_id":"tt0465774","world_art_id":null,"type":"serial","add":"2018-01-05 11:43:38","orig_title":"12 oz. Mouse","year":"2005-10-17","translations":["Авторский (одноголосый закадровый) (Гоблин | Пучков Дмитрий)","Любительский (многоголосый закадровый) (ColdFilm)"],"seasons_count":3,"episodes_count":31,"episodes":11,"update":"2020-08-03 14:46:17","iframe_src":"//83.svetacdn.in/PfJ50H0ZBPg3/tv-series/1920"},{"id":1754,"title":"Беглецы","kp_id":"463689","imdb_id":"tt1236246","world_art_id":null,"type":"serial","add":"2017-11-21 06:05:26","orig_title":"Runaways","year":"2017-10-06","translations":[],"seasons_count":3,"episodes_count":33,"episodes":10,"update":"2020-08-03 14:38:07","iframe_src":"//83.svetacdn.in/PfJ50H0ZBPg3/tv-series/1754"},{"id":4234,"title":"Я - начало","kp_id":"761933","imdb_id":"tt2884206","world_art_id":null,"type":"movie","add":"2016-08-01 04:48:57","orig_title":"I Origins","year":"2014-01-18","translations":["Профессиональный (многоголосый закадровый)","Original (English)","Профессиональный (многоголосый закадровый) (BaibaKo)","Профессиональный (многоголосый закадровый) (iTunes)"],"quality":"bd","translation":"Профессиональный (многоголосый закадровый)","update":"2021-05-21 07:57:48","iframe_src":"//83.svetacdn.in/PfJ50H0ZBPg3/movie/4234"},{"id":3170,"title":"Сатирикон","kp_id":"39328","imdb_id":"tt0064940","world_art_id":null,"type":"movie","add":"2016-06-15 10:29:59","orig_title":"Fellini - Satyricon","year":"1969-09-03","translations":["Профессиональный (многоголосый закадровый)","Авторский (одноголосый закадровый) (Сербин Юрий)","Профессиональный (двухголосый закадровый)","Профессиональный (двухголосый закадровый) (НТВ)","Профессиональный (многоголосый закадровый) (SomeWax)","Профессиональный (многоголосый закадровый) (Видеоимпульс)"],"quality":"bd","translation":"Профессиональный (многоголосый закадровый)","update":"2021-05-21 07:53:34","iframe_src":"//83.svetacdn.in/PfJ50H0ZBPg3/movie/3170"}],"current_page":211,"first_page_url":"https://videocdn.tv/api/short?limit=100&api_token=RgFQdUIR2dRmwv8iYa5SnFNgnw3vpjKj&cache3211=3211&page=1","from":21001,"last_page":658,"last_page_url":"https://videocdn.tv/api/short?limit=100&api_token=RgFQdUIR2dRmwv8iYa5SnFNgnw3vpjKj&cache3211=3211&page=658","next_page_url":"https://videocdn.tv/api/short?limit=100&api_token=RgFQdUIR2dRmwv8iYa5SnFNgnw3vpjKj&cache3211=3211&page=212","path":"https://videocdn.tv/api/short","per_page":100,"prev_page_url":"https://videocdn.tv/api/short?limit=100&api_token=RgFQdUIR2dRmwv8iYa5SnFNgnw3vpjKj&cache3211=3211&page=210","to":21040,"total":65702}