{"result":true,"data":[{"id":31833,"title":"Приключения Спиру и Фантазио","kp_id":"1040705","imdb_id":"tt6465308","world_art_id":null,"type":"movie","add":"2019-10-13 18:57:05","orig_title":"Les aventures de Spirou et Fantasio","year":"2018-01-25","translations":["Любительский (многоголосый закадровый) (Синема УС)"],"quality":"bd","translation":"Любительский (многоголосый закадровый) (Синема УС)","update":"2019-10-14 04:58:11","iframe_src":"//8543.svetacdn.in/si4jsFRrtgrT/movie/31833"},{"id":31831,"title":"Ограбление","kp_id":null,"imdb_id":"tt8059382","world_art_id":null,"type":"movie","add":"2019-10-13 18:46:00","orig_title":"Robbery","year":"2018-10-15","translations":["Любительский (многоголосый закадровый) (Синема УС)"],"quality":"webdl","translation":"Любительский (многоголосый закадровый) (Синема УС)","update":"2019-10-14 04:59:09","iframe_src":"//8543.svetacdn.in/si4jsFRrtgrT/movie/31831"},{"id":31829,"title":"Клуб каннибалов","kp_id":"1112105","imdb_id":"tt7890408","world_art_id":null,"type":"movie","add":"2019-10-13 18:42:35","orig_title":"O Clube dos Canibais","year":"2018-01-27","translations":["Любительский (многоголосый закадровый) (Синема УС)"],"quality":"bd","translation":"Любительский (многоголосый закадровый) (Синема УС)","update":"2019-10-14 05:14:32","iframe_src":"//8543.svetacdn.in/si4jsFRrtgrT/movie/31829"},{"id":31828,"title":"Тук тук","kp_id":"1058698","imdb_id":"tt6096414","world_art_id":null,"type":"movie","add":"2019-10-13 18:39:55","orig_title":"Knock Knock","year":"2017-10-06","translations":["Любительский (многоголосый закадровый) (Синема УС)"],"quality":"webdl","translation":"Любительский (многоголосый закадровый) (Синема УС)","update":"2019-10-14 05:24:26","iframe_src":"//8543.svetacdn.in/si4jsFRrtgrT/movie/31828"},{"id":31798,"title":"В огне","kp_id":"1265001","imdb_id":"tt10241378","world_art_id":null,"type":"movie","add":"2019-10-13 06:31:32","orig_title":"Ablaze","year":"2019-09-29","translations":["Профессиональный (многоголосый закадровый) (AlphaProject)"],"quality":"webdl","translation":"Профессиональный (многоголосый закадровый) (AlphaProject)","update":"2019-10-14 04:51:34","iframe_src":"//8543.svetacdn.in/si4jsFRrtgrT/movie/31798"},{"id":31796,"title":"Синдикат сенбернаров","kp_id":"1102542","imdb_id":"tt7655142","world_art_id":null,"type":"movie","add":"2019-10-13 06:27:15","orig_title":"St. Bernard Syndicate","year":"2018-04-20","translations":["Профессиональный (многоголосый закадровый) (AlphaProject)"],"quality":"webdl","translation":"Профессиональный (многоголосый закадровый) (AlphaProject)","update":"2019-10-14 04:42:56","iframe_src":"//8543.svetacdn.in/si4jsFRrtgrT/movie/31796"},{"id":31795,"title":"Виселица 2","kp_id":"1073231","imdb_id":"tt7473716","world_art_id":null,"type":"movie","add":"2019-10-13 06:26:30","orig_title":"The Gallows Act II","year":"2019-05-31","translations":["Любительский (многоголосый закадровый) (Синема УС)"],"quality":"webdl","translation":"Любительский (многоголосый закадровый) (Синема УС)","update":"2019-10-14 04:48:09","iframe_src":"//8543.svetacdn.in/si4jsFRrtgrT/movie/31795"},{"id":31794,"title":"Мёртвая точка","kp_id":"1178852","imdb_id":"tt8806104","world_art_id":null,"type":"movie","add":"2019-10-13 06:25:52","orig_title":"The Dead Center","year":"2018-09-21","translations":["Любительский (многоголосый закадровый) (Синема УС)"],"quality":"webdl","translation":"Любительский (многоголосый закадровый) (Синема УС)","update":"2019-10-14 04:56:08","iframe_src":"//8543.svetacdn.in/si4jsFRrtgrT/movie/31794"},{"id":31793,"title":"Лебедь","kp_id":"986945","imdb_id":"tt5764816","world_art_id":null,"type":"movie","add":"2019-10-13 06:25:06","orig_title":"Svanurinn","year":"2017-09-09","translations":["Любительский (многоголосый закадровый) (Синема УС)"],"quality":"webdl","translation":"Любительский (многоголосый закадровый) (Синема УС)","update":"2019-10-14 04:50:28","iframe_src":"//8543.svetacdn.in/si4jsFRrtgrT/movie/31793"},{"id":31792,"title":"Молчаливое свидание","kp_id":"1168880","imdb_id":"tt8503170","world_art_id":null,"type":"movie","add":"2019-10-13 06:24:22","orig_title":"Mute Date","year":"2019-01-28","translations":["Любительский (многоголосый закадровый) (Синема УС)"],"quality":"webdl","translation":"Любительский (многоголосый закадровый) (Синема УС)","update":"2019-10-14 04:43:59","iframe_src":"//8543.svetacdn.in/si4jsFRrtgrT/movie/31792"},{"id":31791,"title":"Штиль","kp_id":"663423","imdb_id":"tt2171815","world_art_id":null,"type":"movie","add":"2019-10-12 22:43:32","orig_title":"La mer à l'aube","year":"2011-10-14","translations":["Профессиональный (многоголосый закадровый)"],"quality":"hdtv","translation":"Профессиональный (многоголосый закадровый)","update":"2019-10-13 07:43:36","iframe_src":"//8543.svetacdn.in/si4jsFRrtgrT/movie/31791"},{"id":31785,"title":"Влияние","kp_id":"1108615","imdb_id":"tt4008566","world_art_id":null,"type":"movie","add":"2019-10-12 18:39:23","orig_title":"La influencia","year":"2019-06-21","translations":["Любительский (многоголосый закадровый) (@MUZOBOZ@)","Любительский (одноголосый закадровый) (datynet)"],"quality":"webdl","translation":"Любительский (многоголосый закадровый) (@MUZOBOZ@)","update":"2019-10-14 04:45:20","iframe_src":"//8543.svetacdn.in/si4jsFRrtgrT/movie/31785"},{"id":31783,"title":"Ужас Хэллоуина","kp_id":"948209","imdb_id":"tt5183500","world_art_id":null,"type":"movie","add":"2019-10-12 18:35:53","orig_title":"The Terror of Hallow's Eve","year":"2017-08-28","translations":["Любительский (многоголосый закадровый) (Синема УС)"],"quality":"bd","translation":"Любительский (многоголосый закадровый) (Синема УС)","update":"2019-10-13 06:13:58","iframe_src":"//8543.svetacdn.in/si4jsFRrtgrT/movie/31783"},{"id":31781,"title":"Танцующий дух","kp_id":"1077631","imdb_id":"tt4838328","world_art_id":null,"type":"movie","add":"2019-10-12 18:30:18","orig_title":"Moko Jumbie","year":"2017-06-20","translations":["Любительский (многоголосый закадровый) (Синема УС)"],"quality":"webdl","translation":"Любительский (многоголосый закадровый) (Синема УС)","update":"2019-10-13 06:14:55","iframe_src":"//8543.svetacdn.in/si4jsFRrtgrT/movie/31781"},{"id":31772,"title":"Исчезновение 2","kp_id":"1049664","imdb_id":null,"world_art_id":null,"type":"movie","add":"2019-10-12 18:12:49","orig_title":"Shiljong 2","year":"2017-11-30","translations":["Любительский (многоголосый закадровый) (Колобок)"],"quality":"webdl","translation":"Любительский (многоголосый закадровый) (Колобок)","update":"2019-10-13 06:15:40","iframe_src":"//8543.svetacdn.in/si4jsFRrtgrT/movie/31772"},{"id":31771,"title":"Мэнсон говорит: Проникая в мысли безумца: Часть 1","kp_id":null,"imdb_id":"tt7735930","world_art_id":null,"type":"movie","add":"2019-10-12 18:05:34","orig_title":"Manson Speaks: Inside the Mind of a Madman","year":"2017-12-03","translations":["Любительский (многоголосый закадровый) (Синема УС)"],"quality":"webdl","translation":"Любительский (многоголосый закадровый) (Синема УС)","update":"2019-10-13 06:16:35","iframe_src":"//8543.svetacdn.in/si4jsFRrtgrT/movie/31771"},{"id":31764,"title":"Айла: Дочь войны","kp_id":"1032522","imdb_id":"tt6316138","world_art_id":null,"type":"movie","add":"2019-10-12 17:41:12","orig_title":"Ayla: The Daughter of War","year":"2017-09-08","translations":["Любительский (многоголосый закадровый) (Синема УС)"],"quality":"webdl","translation":"Любительский (многоголосый закадровый) (Синема УС)","update":"2019-10-13 06:17:17","iframe_src":"//8543.svetacdn.in/si4jsFRrtgrT/movie/31764"},{"id":31735,"title":"Секс и ярость","kp_id":"144063","imdb_id":"tt0070085","world_art_id":null,"type":"movie","add":"2019-10-11 17:25:09","orig_title":"Furyô anego den: Inoshika Ochô","year":"1973-02-17","translations":["Авторский (одноголосый закадровый) (Алексеев Антон)"],"quality":"dvdrip","translation":"Авторский (одноголосый закадровый) (Алексеев Антон)","update":"2019-10-14 05:29:24","iframe_src":"//8543.svetacdn.in/si4jsFRrtgrT/movie/31735"},{"id":21314,"title":"Дышите нормально","kp_id":"1055323","imdb_id":"tt6776106","world_art_id":null,"type":"movie","add":"2019-01-08 08:32:22","orig_title":"Andið eðlilega","year":"2018-01-23","translations":["Профессиональный (многоголосый закадровый) (HDrezka Studio)"],"quality":"webdl","translation":"Профессиональный (многоголосый закадровый) (HDrezka Studio)","update":"2019-10-14 04:40:49","iframe_src":"//8543.svetacdn.in/si4jsFRrtgrT/movie/21314"},{"id":10121,"title":"Существо из бездны","kp_id":"914582","imdb_id":"tt4368098","world_art_id":null,"type":"movie","add":"2017-02-28 23:13:40","orig_title":"The Creature Below","year":"2016-08-27","translations":["Любительский (одноголосый закадровый) (Хихикающий доктор)","Любительский (многоголосый закадровый) (Синема УС)","Авторский (одноголосый закадровый) (Карповский Антон)"],"quality":"webdl","translation":"Любительский (одноголосый закадровый) (Хихикающий доктор)","update":"2019-10-14 05:25:21","iframe_src":"//8543.svetacdn.in/si4jsFRrtgrT/movie/10121"}],"current_page":1010,"first_page_url":"https://videocdn.tv/api/short?limit=100&api_token=X6EwAUfE5M9xbo7y0Bp0aPf3uXxG2KLL&cache31010=31010&page=1","from":100901,"last_page":604,"last_page_url":"https://videocdn.tv/api/short?limit=100&api_token=X6EwAUfE5M9xbo7y0Bp0aPf3uXxG2KLL&cache31010=31010&page=604","next_page_url":null,"path":"https://videocdn.tv/api/short","per_page":100,"prev_page_url":"https://videocdn.tv/api/short?limit=100&api_token=X6EwAUfE5M9xbo7y0Bp0aPf3uXxG2KLL&cache31010=31010&page=1009","to":100920,"total":60382}