{"result":true,"data":[{"id":52468,"title":"Скандал","kp_id":"1409429","imdb_id":"tt13068388","world_art_id":null,"type":"movie","add":"2021-08-16 15:57:44","orig_title":"Vacarme","year":"2020-11-10","translations":["Любительский (многоголосый закадровый) (Синема УС)"],"quality":"webdl","translation":"Любительский (многоголосый закадровый) (Синема УС)","update":"2021-08-16 20:17:43","iframe_src":"//7741.svetacdn.in/IAF0wWTdNYZm/movie/52468"},{"id":52467,"title":"Кот, мечтающий о севере","kp_id":null,"imdb_id":"tt13988482","world_art_id":null,"type":"movie","add":"2021-08-16 15:51:52","orig_title":"Un Chat Rêve Du Nord","year":"2020-01-01","translations":["Любительский (многоголосый закадровый) (Синема УС)"],"quality":"webdl","translation":"Любительский (многоголосый закадровый) (Синема УС)","update":"2021-08-16 20:17:06","iframe_src":"//7741.svetacdn.in/IAF0wWTdNYZm/movie/52467"},{"id":52466,"title":"Обручальное Кольцо","kp_id":"4368703","imdb_id":"tt13888054","world_art_id":null,"type":"movie","add":"2021-08-16 15:46:15","orig_title":"A Wedding Ring","year":"2021-03-11","translations":["Любительский (многоголосый закадровый) (AlphaProject)"],"quality":"webdl","translation":"Любительский (многоголосый закадровый) (AlphaProject)","update":"2021-08-16 20:16:40","iframe_src":"//7741.svetacdn.in/IAF0wWTdNYZm/movie/52466"},{"id":52465,"title":"Естественный свет","kp_id":"1345290","imdb_id":"tt11681056","world_art_id":null,"type":"movie","add":"2021-08-16 15:44:31","orig_title":"Természetes fény","year":"2021-05-31","translations":["Любительский (многоголосый закадровый) (AlphaProject)"],"quality":"webdl","translation":"Любительский (многоголосый закадровый) (AlphaProject)","update":"2021-08-16 20:16:13","iframe_src":"//7741.svetacdn.in/IAF0wWTdNYZm/movie/52465"},{"id":52457,"title":"Убийство","kp_id":"1407503","imdb_id":"tt12592664","world_art_id":null,"type":"movie","add":"2021-08-16 14:55:41","orig_title":"Murder","year":"2020-12-24","translations":["Любительский (многоголосый закадровый) (Синема УС)"],"quality":"webdl","translation":"Любительский (многоголосый закадровый) (Синема УС)","update":"2021-08-17 02:03:21","iframe_src":"//7741.svetacdn.in/IAF0wWTdNYZm/movie/52457"},{"id":52455,"title":"Лондон убивает меня","kp_id":"5880","imdb_id":"tt0102328","world_art_id":null,"type":"movie","add":"2021-08-16 13:40:44","orig_title":"London Kills Me","year":"1991-11-20","translations":["[EN] Original (English)","Авторский (одноголосый закадровый) (Живов Юрий)"],"quality":"bd","translation":"[EN] Original (English)","update":"2021-08-17 06:31:41","iframe_src":"//7741.svetacdn.in/IAF0wWTdNYZm/movie/52455"},{"id":52454,"title":"Лак для волос","kp_id":"18385","imdb_id":"tt0095270","world_art_id":null,"type":"movie","add":"2021-08-16 13:38:10","orig_title":"Hairspray","year":"1988-02-16","translations":["[EN] Original (English)","Авторский (одноголосый закадровый) (Алексеев Антон)"],"quality":"webdl","translation":"[EN] Original (English)","update":"2021-08-17 07:16:44","iframe_src":"//7741.svetacdn.in/IAF0wWTdNYZm/movie/52454"},{"id":52308,"title":"Статика","kp_id":"678785","imdb_id":"tt1881060","world_art_id":null,"type":"movie","add":"2021-08-09 11:39:18","orig_title":"Static","year":"2012-11-01","translations":["[EN] Original (English)","Любительский (одноголосый закадровый) (den904)","Любительский (одноголосый закадровый) (Хихикающий доктор)"],"quality":"bd","translation":"[EN] Original (English)","update":"2021-08-17 09:39:51","iframe_src":"//7741.svetacdn.in/IAF0wWTdNYZm/movie/52308"},{"id":41019,"title":"Роботрикс","kp_id":"56100","imdb_id":"tt0102562","world_art_id":null,"type":"movie","add":"2020-06-07 19:36:13","orig_title":"Nu ji xie ren","year":"1991-05-31","translations":["Любительский (одноголосый закадровый) (Акира | Хохлов Борис)","Любительский (одноголосый закадровый) (allecs2010)"],"quality":"bd","translation":"Любительский (одноголосый закадровый) (Акира | Хохлов Борис)","update":"2021-08-17 06:25:41","iframe_src":"//7741.svetacdn.in/IAF0wWTdNYZm/movie/41019"},{"id":6143,"title":"Полет аистов","kp_id":"592098","imdb_id":"tt1928328","world_art_id":null,"type":"serial","add":"2019-12-26 06:03:28","orig_title":"Flight of the Storks","year":"2013-01-21","translations":["Профессиональный (многоголосый закадровый)"],"seasons_count":1,"episodes_count":2,"episodes":2,"update":"2019-12-26 06:29:10","iframe_src":"//7741.svetacdn.in/IAF0wWTdNYZm/tv-series/6143"},{"id":6142,"title":"Горчаков","kp_id":"842161","imdb_id":"tt4996226","world_art_id":null,"type":"serial","add":"2019-12-26 06:00:04","orig_title":"Gorchakov","year":"2014-09-12","translations":["Оригинальная дорожка"],"seasons_count":1,"episodes_count":4,"episodes":4,"update":"2019-12-26 06:27:59","iframe_src":"//7741.svetacdn.in/IAF0wWTdNYZm/tv-series/6142"},{"id":6141,"title":"Полосатое счастье","kp_id":"687691","imdb_id":"tt4139622","world_art_id":null,"type":"serial","add":"2019-12-26 05:49:57","orig_title":"Polosatoe schaste","year":"2012-06-11","translations":["Оригинальная дорожка"],"seasons_count":1,"episodes_count":12,"episodes":12,"update":"2019-12-26 06:25:10","iframe_src":"//7741.svetacdn.in/IAF0wWTdNYZm/tv-series/6141"},{"id":6140,"title":"Тридцатилетние","kp_id":"394048","imdb_id":null,"world_art_id":null,"type":"serial","add":"2019-12-25 21:17:55","orig_title":"Тридцатилетние","year":"2007-09-03","translations":["Оригинальная дорожка"],"seasons_count":1,"episodes_count":32,"episodes":32,"update":"2019-12-26 21:07:05","iframe_src":"//7741.svetacdn.in/IAF0wWTdNYZm/tv-series/6140"},{"id":6139,"title":"Звездный крейсер «Галактика»","kp_id":"229162","imdb_id":"tt0314979","world_art_id":null,"type":"serial","add":"2019-12-25 11:52:41","orig_title":"Battlestar Galactica","year":"2003-12-08","translations":["Профессиональный (многоголосый закадровый) (Кравец)"],"seasons_count":1,"episodes_count":2,"episodes":2,"update":"2019-12-26 06:08:55","iframe_src":"//7741.svetacdn.in/IAF0wWTdNYZm/tv-series/6139"},{"id":6138,"title":"Нулевой цикл","kp_id":"1209188","imdb_id":null,"world_art_id":null,"type":"serial","add":"2019-12-25 11:12:25","orig_title":"Нулевой цикл","year":"2018-01-01","translations":["Оригинальная дорожка"],"seasons_count":1,"episodes_count":2,"episodes":2,"update":"2019-12-25 15:01:47","iframe_src":"//7741.svetacdn.in/IAF0wWTdNYZm/tv-series/6138"},{"id":6137,"title":"Девушка средних лет","kp_id":"842184","imdb_id":"tt4251340","world_art_id":null,"type":"serial","add":"2019-12-25 10:33:09","orig_title":"Devushka srednikh let","year":"2014-12-21","translations":["Оригинальная дорожка"],"seasons_count":1,"episodes_count":4,"episodes":4,"update":"2019-12-26 05:06:58","iframe_src":"//7741.svetacdn.in/IAF0wWTdNYZm/tv-series/6137"},{"id":6136,"title":"Арабские приключения","kp_id":"77207","imdb_id":"tt0181199","world_art_id":null,"type":"serial","add":"2019-12-25 10:27:10","orig_title":"Arabian Nights","year":"2000-04-30","translations":["Профессиональный (многоголосый закадровый)"],"seasons_count":1,"episodes_count":2,"episodes":2,"update":"2019-12-26 05:04:42","iframe_src":"//7741.svetacdn.in/IAF0wWTdNYZm/tv-series/6136"},{"id":6135,"title":"Ритуалы","kp_id":"1260293","imdb_id":"tt8877446","world_art_id":null,"type":"serial","add":"2019-12-25 10:21:32","orig_title":"Extraordinary Rituals","year":"2018-08-17","translations":["Профессиональный (одноголосый закадровый)"],"seasons_count":1,"episodes_count":4,"episodes":4,"update":"2019-12-26 05:03:34","iframe_src":"//7741.svetacdn.in/IAF0wWTdNYZm/tv-series/6135"},{"id":6134,"title":"Праздник мая","kp_id":"741628","imdb_id":"tt2401919","world_art_id":null,"type":"serial","add":"2019-12-25 10:16:53","orig_title":"Mayday","year":"2013-03-03","translations":["Профессиональный (многоголосый закадровый) (ViruseProject)"],"seasons_count":1,"episodes_count":5,"episodes":5,"update":"2019-12-26 04:43:37","iframe_src":"//7741.svetacdn.in/IAF0wWTdNYZm/tv-series/6134"},{"id":6131,"title":"Динозавры","kp_id":"258077","imdb_id":"tt0101081","world_art_id":null,"type":"serial","add":"2019-12-24 18:14:43","orig_title":"Dinosaurs","year":"1991-04-26","translations":["Полное дублирование (СВ-Дубль)"],"seasons_count":4,"episodes_count":62,"episodes":11,"update":"2019-12-25 21:53:34","iframe_src":"//7741.svetacdn.in/IAF0wWTdNYZm/tv-series/6131"},{"id":6127,"title":"Смешарики. Азбука здоровья","kp_id":"897892","imdb_id":"tt4643410","world_art_id":null,"type":"serial","add":"2019-12-24 13:25:35","orig_title":"Smeshariki: Azbuka zdorovya","year":"2008-01-01","translations":["Оригинальная дорожка"],"seasons_count":1,"episodes_count":8,"episodes":8,"update":"2019-12-25 12:22:40","iframe_src":"//7741.svetacdn.in/IAF0wWTdNYZm/tv-series/6127"},{"id":6126,"title":"Смешарики. Азбука прав ребенка","kp_id":"1162495","imdb_id":null,"world_art_id":null,"type":"serial","add":"2019-12-24 13:21:59","orig_title":"Смешарики. Азбука прав ребенка","year":"2009-01-01","translations":["Оригинальная дорожка"],"seasons_count":1,"episodes_count":5,"episodes":5,"update":"2019-12-25 12:18:52","iframe_src":"//7741.svetacdn.in/IAF0wWTdNYZm/tv-series/6126"},{"id":6119,"title":"Смертельная битва: Завоевание","kp_id":"80264","imdb_id":"tt0170982","world_art_id":null,"type":"serial","add":"2019-12-23 19:53:35","orig_title":"Mortal Kombat: Conquest","year":"1998-10-03","translations":["Профессиональный (двухголосый закадровый) (НТВ)"],"seasons_count":1,"episodes_count":22,"episodes":22,"update":"2019-12-25 12:37:44","iframe_src":"//7741.svetacdn.in/IAF0wWTdNYZm/tv-series/6119"},{"id":6105,"title":"Напряги извилины","kp_id":"161045","imdb_id":"tt0058805","world_art_id":null,"type":"serial","add":"2019-12-22 19:03:03","orig_title":"Get Smart","year":"1965-09-18","translations":["Профессиональный (многоголосый закадровый)","Профессиональный (двухголосый закадровый)"],"seasons_count":5,"episodes_count":138,"episodes":26,"update":"2019-12-26 06:40:06","iframe_src":"//7741.svetacdn.in/IAF0wWTdNYZm/tv-series/6105"},{"id":6093,"title":"Эра стрельца 3","kp_id":"447257","imdb_id":"tt5026508","world_art_id":null,"type":"serial","add":"2019-12-20 22:06:14","orig_title":"Era Streltsa 3","year":"2009-01-01","translations":["Оригинальная дорожка"],"seasons_count":1,"episodes_count":12,"episodes":12,"update":"2019-12-26 08:05:19","iframe_src":"//7741.svetacdn.in/IAF0wWTdNYZm/tv-series/6093"},{"id":6092,"title":"Эра стрельца 2","kp_id":"427270","imdb_id":null,"world_art_id":null,"type":"serial","add":"2019-12-20 22:02:51","orig_title":"Эра стрельца 2","year":"2008-01-01","translations":["Оригинальная дорожка"],"seasons_count":1,"episodes_count":12,"episodes":12,"update":"2019-12-26 08:18:49","iframe_src":"//7741.svetacdn.in/IAF0wWTdNYZm/tv-series/6092"},{"id":6091,"title":"Эра стрельца","kp_id":"325777","imdb_id":"tt0990419","world_art_id":null,"type":"serial","add":"2019-12-20 21:54:51","orig_title":"Era Strel'tsa","year":"2007-01-01","translations":["Оригинальная дорожка"],"seasons_count":1,"episodes_count":12,"episodes":12,"update":"2019-12-26 08:18:27","iframe_src":"//7741.svetacdn.in/IAF0wWTdNYZm/tv-series/6091"},{"id":34289,"title":"Экспресс миллионеров","kp_id":"28590","imdb_id":"tt0091091","world_art_id":null,"type":"movie","add":"2019-12-19 22:40:46","orig_title":"Foo gwai lit che","year":"1986-01-30","translations":["Любительский (одноголосый закадровый)","Авторский (одноголосый закадровый) (Горчаков Василий)"],"quality":"bd","translation":"Любительский (одноголосый закадровый)","update":"2021-08-17 07:02:34","iframe_src":"//7741.svetacdn.in/IAF0wWTdNYZm/movie/34289"},{"id":25765,"title":"Масакра","kp_id":"471946","imdb_id":"tt2165975","world_art_id":null,"type":"movie","add":"2019-04-30 19:24:54","orig_title":"Masakra","year":"2010-11-11","translations":["Оригинальная дорожка","Оригинальная дорожка"],"quality":"dvdrip","translation":"Оригинальная дорожка","update":"2021-08-17 07:24:02","iframe_src":"//7741.svetacdn.in/IAF0wWTdNYZm/movie/25765"},{"id":19065,"title":"Школа зомби","kp_id":"28206","imdb_id":"tt0094383","world_art_id":null,"type":"movie","add":"2018-09-18 22:12:32","orig_title":"Zombie High","year":"1987-10-02","translations":["Любительский (одноголосый закадровый)","Любительский (одноголосый закадровый) (Sanchez)","[EN] Original (English)"],"quality":"bd","translation":"Любительский (одноголосый закадровый)","update":"2021-08-17 06:37:18","iframe_src":"//7741.svetacdn.in/IAF0wWTdNYZm/movie/19065"},{"id":18223,"title":"За отдельными столиками","kp_id":"12440","imdb_id":"tt0052182","world_art_id":null,"type":"movie","add":"2018-08-11 00:50:43","orig_title":"Separate Tables","year":"1958-12-18","translations":["Профессиональный (многоголосый закадровый)","[EN] Original (English)","Профессиональный (двухголосый закадровый) (НТВ)","Профессиональный (многоголосый закадровый) (Домашний)"],"quality":"bd","translation":"Профессиональный (многоголосый закадровый)","update":"2021-08-17 07:55:59","iframe_src":"//7741.svetacdn.in/IAF0wWTdNYZm/movie/18223"},{"id":2775,"title":"Скрытое","kp_id":"1111992","imdb_id":"tt7217374","world_art_id":null,"type":"serial","add":"2018-06-10 06:45:12","orig_title":"Hidden/Craith","year":"2018-01-07","translations":["Любительский (двухголосый закадровый) (Sunshine Studio)","Профессиональный (двухголосый закадровый) (IdeaFilm)"],"seasons_count":2,"episodes_count":14,"episodes":6,"update":"2019-12-25 13:16:21","iframe_src":"//7741.svetacdn.in/IAF0wWTdNYZm/tv-series/2775"},{"id":1635,"title":"Гуфи и его команда","kp_id":"94678","imdb_id":"tt0103428","world_art_id":null,"type":"serial","add":"2017-10-12 10:21:30","orig_title":"Goof Troop","year":"1992-09-05","translations":["Полное дублирование"],"seasons_count":2,"episodes_count":78,"episodes":13,"update":"2019-12-26 12:57:06","iframe_src":"//7741.svetacdn.in/IAF0wWTdNYZm/tv-series/1635"},{"id":12304,"title":"Морское приключение","kp_id":"5174","imdb_id":"tt0285462","world_art_id":null,"type":"movie","add":"2017-07-05 11:32:52","orig_title":"Boat Trip","year":"2002-10-04","translations":["Полное дублирование","Авторский (одноголосый закадровый) (Рудой Евгений)","Полное дублирование","[EN] Original (English)","Профессиональный (многоголосый закадровый)"],"quality":"webdl","translation":"Полное дублирование","update":"2021-08-17 07:41:15","iframe_src":"//7741.svetacdn.in/IAF0wWTdNYZm/movie/12304"},{"id":8704,"title":"Кочевники","kp_id":"17472","imdb_id":"tt0091647","world_art_id":null,"type":"movie","add":"2017-01-08 10:14:27","orig_title":"Nomads","year":"1986-03-07","translations":["Профессиональный (двухголосый закадровый)","Профессиональный (двухголосый закадровый) (Cinema Prestige)","[EN] Original (English)"],"quality":"dvdrip","translation":"Профессиональный (двухголосый закадровый)","update":"2021-08-17 06:56:31","iframe_src":"//7741.svetacdn.in/IAF0wWTdNYZm/movie/8704"},{"id":6403,"title":"Салон красоты","kp_id":"64329","imdb_id":"tt0388500","world_art_id":null,"type":"movie","add":"2016-10-17 18:26:53","orig_title":"Beauty Shop","year":"2005-03-24","translations":["Профессиональный (многоголосый закадровый)","Авторский (одноголосый закадровый) (Рудой Евгений)","[EN] Original (English)","Профессиональный (многоголосый закадровый)"],"quality":"webdl","translation":"Профессиональный (многоголосый закадровый)","update":"2021-08-17 09:44:31","iframe_src":"//7741.svetacdn.in/IAF0wWTdNYZm/movie/6403"},{"id":4926,"title":"Любовь и прочие неприятности","kp_id":"86646","imdb_id":"tt0427229","world_art_id":null,"type":"movie","add":"2016-08-31 08:30:24","orig_title":"Failure to Launch","year":"2006-03-10","translations":["Полное дублирование","Авторский (одноголосый закадровый) (Немахов Юрий)","Полное дублирование","[EN] Original (English)","Профессиональный (двухголосый закадровый) (СТС)","Профессиональный (многоголосый закадровый)"],"quality":"bd","translation":"Полное дублирование","update":"2021-08-17 09:37:00","iframe_src":"//7741.svetacdn.in/IAF0wWTdNYZm/movie/4926"},{"id":4771,"title":"Тёмный город","kp_id":"4739","imdb_id":"tt0118929","world_art_id":null,"type":"movie","add":"2016-08-29 07:58:39","orig_title":"Dark City","year":"1998-02-27","translations":["Профессиональный (многоголосый закадровый)","Авторский (одноголосый закадровый) (Сербин Юрий)","Авторский (одноголосый закадровый) (Живов Юрий)","[EN] Original (English)","Профессиональный (двухголосый закадровый) (Garsu Pasaulis)","Профессиональный (двухголосый закадровый) (НТВ)","Профессиональный (многоголосый закадровый) (Киномания)","Профессиональный (многоголосый закадровый) (РТР | Россия)"],"quality":"bd","translation":"Профессиональный (многоголосый закадровый)","update":"2021-08-17 07:50:21","iframe_src":"//7741.svetacdn.in/IAF0wWTdNYZm/movie/4771"},{"id":4075,"title":"Матадор","kp_id":"17000","imdb_id":"tt0091495","world_art_id":null,"type":"movie","add":"2016-07-20 21:32:56","orig_title":"Matador","year":"1986-03-07","translations":["Любительский (одноголосый закадровый)","Авторский (одноголосый закадровый) (Алексеев Антон)"],"quality":"bd","translation":"Любительский (одноголосый закадровый)","update":"2021-08-17 07:04:44","iframe_src":"//7741.svetacdn.in/IAF0wWTdNYZm/movie/4075"},{"id":3806,"title":"В постели с врагом","kp_id":"8157","imdb_id":"tt0102945","world_art_id":null,"type":"movie","add":"2016-07-08 14:46:59","orig_title":"Sleeping with the Enemy","year":"1991-02-04","translations":["Полное дублирование","Любительский (одноголосый закадровый) (Попов Алексей)","Авторский (одноголосый закадровый) (Прямостанов Павел)","Авторский (одноголосый закадровый) (Живов Юрий)","Полное дублирование","[EN] Original (English)","Профессиональный (двухголосый закадровый) (НТВ)","Профессиональный (двухголосый закадровый) (Премьер Видео Фильм)","Профессиональный (многоголосый закадровый) (Lazer Video | Лазер видео)","Профессиональный (многоголосый закадровый) (Первый канал | ОРТ)"],"quality":"bd","translation":"Полное дублирование","update":"2021-08-17 07:34:24","iframe_src":"//7741.svetacdn.in/IAF0wWTdNYZm/movie/3806"}],"current_page":391,"first_page_url":"https://videocdn.tv/api/short?limit=100&api_token=6Onb1W1alEUrBcKJZD3GoKBbWyAl2uG2&cache3391=3391&page=1","from":39001,"last_page":708,"last_page_url":"https://videocdn.tv/api/short?limit=100&api_token=6Onb1W1alEUrBcKJZD3GoKBbWyAl2uG2&cache3391=3391&page=708","next_page_url":"https://videocdn.tv/api/short?limit=100&api_token=6Onb1W1alEUrBcKJZD3GoKBbWyAl2uG2&cache3391=3391&page=392","path":"https://videocdn.tv/api/short","per_page":100,"prev_page_url":"https://videocdn.tv/api/short?limit=100&api_token=6Onb1W1alEUrBcKJZD3GoKBbWyAl2uG2&cache3391=3391&page=390","to":39040,"total":70707}