{"result":true,"data":[{"id":36832,"title":"Тревожные небеса","kp_id":"477703","imdb_id":"tt1518861","world_art_id":null,"type":"movie","add":"2020-02-24 09:16:39","orig_title":"Turbulent Skies","year":"2010-02-28","translations":["Профессиональный (многоголосый закадровый) (РенТВ)"],"quality":"dvdrip","translation":"Профессиональный (многоголосый закадровый) (РенТВ)","update":"2020-02-25 09:24:41","iframe_src":"//83.svetacdn.in/PfJ50H0ZBPg3/movie/36832"},{"id":36831,"title":"Выстрел в самое сердце","kp_id":"1172211","imdb_id":"tt8672350","world_art_id":null,"type":"movie","add":"2020-02-24 08:55:06","orig_title":"Shot to the Heart","year":"2018-09-02","translations":["Любительский (многоголосый закадровый) (Синема УС)"],"quality":"webdl","translation":"Любительский (многоголосый закадровый) (Синема УС)","update":"2020-02-25 09:17:05","iframe_src":"//83.svetacdn.in/PfJ50H0ZBPg3/movie/36831"},{"id":36829,"title":"Король страданий","kp_id":"1104962","imdb_id":"tt6138706","world_art_id":null,"type":"movie","add":"2020-02-24 08:48:41","orig_title":"Mr. Hurt","year":"2017-02-02","translations":["Любительский (многоголосый закадровый) (Синема УС)"],"quality":"webdl","translation":"Любительский (многоголосый закадровый) (Синема УС)","update":"2020-02-25 09:14:02","iframe_src":"//83.svetacdn.in/PfJ50H0ZBPg3/movie/36829"},{"id":36821,"title":"Адаван","kp_id":"493988","imdb_id":"tt1483820","world_art_id":null,"type":"movie","add":"2020-02-23 19:05:54","orig_title":"Aadhavan","year":"2009-10-17","translations":["Профессиональный (многоголосый закадровый) (Red Media)"],"quality":"bd","translation":"Профессиональный (многоголосый закадровый) (Red Media)","update":"2020-02-25 12:10:37","iframe_src":"//83.svetacdn.in/PfJ50H0ZBPg3/movie/36821"},{"id":36820,"title":"Грустная история","kp_id":"34985","imdb_id":"tt0086230","world_art_id":null,"type":"movie","add":"2020-02-23 19:01:29","orig_title":"Sadma","year":"1983-07-08","translations":["Профессиональный (многоголосый закадровый)"],"quality":"dvdrip","translation":"Профессиональный (многоголосый закадровый)","update":"2020-02-25 12:09:53","iframe_src":"//83.svetacdn.in/PfJ50H0ZBPg3/movie/36820"},{"id":36818,"title":"Честный хлеб","kp_id":"368586","imdb_id":"tt0172617","world_art_id":null,"type":"movie","add":"2020-02-23 18:53:10","orig_title":"Izzat Ki Roti","year":"1993-08-13","translations":["Любительский (одноголосый закадровый)"],"quality":"webdl","translation":"Любительский (одноголосый закадровый)","update":"2020-02-25 12:08:26","iframe_src":"//83.svetacdn.in/PfJ50H0ZBPg3/movie/36818"},{"id":36816,"title":"Любовь 2050","kp_id":"268516","imdb_id":"tt0490170","world_art_id":null,"type":"movie","add":"2020-02-23 18:45:05","orig_title":"Love Story 2050","year":"2008-07-04","translations":["Профессиональный (многоголосый закадровый)"],"quality":"dvdrip","translation":"Профессиональный (многоголосый закадровый)","update":"2020-02-25 12:05:51","iframe_src":"//83.svetacdn.in/PfJ50H0ZBPg3/movie/36816"},{"id":36815,"title":"Лудо","kp_id":"903747","imdb_id":"tt3724898","world_art_id":null,"type":"movie","add":"2020-02-23 18:42:05","orig_title":"Ludo","year":"2015-07-17","translations":["Любительский (одноголосый закадровый) (datynet | Агапов Антон)"],"quality":"webdl","translation":"Любительский (одноголосый закадровый) (datynet | Агапов Антон)","update":"2020-02-25 12:05:15","iframe_src":"//83.svetacdn.in/PfJ50H0ZBPg3/movie/36815"},{"id":36814,"title":"Мистер и миссис Кханна","kp_id":"404301","imdb_id":"tt1174041","world_art_id":null,"type":"movie","add":"2020-02-23 17:44:55","orig_title":"Main Aurr Mrs Khanna","year":"2009-10-16","translations":["Профессиональный (многоголосый закадровый) (ZEE TV)"],"quality":"webdl","translation":"Профессиональный (многоголосый закадровый) (ZEE TV)","update":"2020-02-25 12:04:17","iframe_src":"//83.svetacdn.in/PfJ50H0ZBPg3/movie/36814"},{"id":36813,"title":"Мужество","kp_id":"396687","imdb_id":"tt1101665","world_art_id":null,"type":"movie","add":"2020-02-23 17:42:41","orig_title":"Shaurya: It Takes Courage to Make Right... Right","year":"2008-04-04","translations":["Профессиональный (многоголосый закадровый)"],"quality":"dvdrip","translation":"Профессиональный (многоголосый закадровый)","update":"2020-02-25 12:03:14","iframe_src":"//83.svetacdn.in/PfJ50H0ZBPg3/movie/36813"},{"id":36797,"title":"Саами 2","kp_id":"1046542","imdb_id":"tt6863784","world_art_id":null,"type":"movie","add":"2020-02-23 17:07:29","orig_title":"Saamy²","year":"2018-09-20","translations":["Любительский (двухголосый закадровый)"],"quality":"webdl","translation":"Любительский (двухголосый закадровый)","update":"2020-02-25 08:07:41","iframe_src":"//83.svetacdn.in/PfJ50H0ZBPg3/movie/36797"},{"id":36630,"title":"Затойчи: Последний","kp_id":"461953","imdb_id":"tt1400558","world_art_id":null,"type":"movie","add":"2020-02-20 09:49:46","orig_title":"Zatôichi: The Last","year":"2010-05-29","translations":["Любительский (двухголосый закадровый)"],"quality":"dvdrip","translation":"Любительский (двухголосый закадровый)","update":"2020-02-25 09:32:03","iframe_src":"//83.svetacdn.in/PfJ50H0ZBPg3/movie/36630"},{"id":36627,"title":"Пари","kp_id":"106196","imdb_id":"tt0452003","world_art_id":null,"type":"movie","add":"2020-02-20 09:32:07","orig_title":"The Bet","year":"2006-03-04","translations":["Профессиональный (многоголосый закадровый)"],"quality":"hdrip","translation":"Профессиональный (многоголосый закадровый)","update":"2020-02-25 09:28:35","iframe_src":"//83.svetacdn.in/PfJ50H0ZBPg3/movie/36627"},{"id":36626,"title":"Частный детектив","kp_id":"39794","imdb_id":"tt0074123","world_art_id":null,"type":"movie","add":"2020-02-20 09:04:08","orig_title":"L'alpagueur","year":"1986-03-07","translations":["Полное дублирование"],"quality":"bd","translation":"Полное дублирование","update":"2020-02-25 09:27:36","iframe_src":"//83.svetacdn.in/PfJ50H0ZBPg3/movie/36626"},{"id":36625,"title":"Преследование","kp_id":"427255","imdb_id":"tt1303230","world_art_id":null,"type":"movie","add":"2020-02-20 09:01:28","orig_title":"427255","year":"2009-12-09","translations":["Профессиональный (многоголосый закадровый) (Первый канал | ОРТ)"],"quality":"bd","translation":"Профессиональный (многоголосый закадровый) (Первый канал | ОРТ)","update":"2020-02-25 09:26:00","iframe_src":"//83.svetacdn.in/PfJ50H0ZBPg3/movie/36625"},{"id":32312,"title":"Саахо","kp_id":"1044632","imdb_id":"tt6836936","world_art_id":null,"type":"movie","add":"2019-10-25 05:03:13","orig_title":"Saaho","year":"2019-08-30","translations":["Любительский (многоголосый закадровый) (OnisFilms)","Любительский (многоголосый закадровый) (Синема УС)","Любительский (многоголосый закадровый) (Honey&Haseena)"],"quality":"webdl","translation":"Любительский (многоголосый закадровый) (OnisFilms)","update":"2020-02-25 08:09:49","iframe_src":"//83.svetacdn.in/PfJ50H0ZBPg3/movie/32312"},{"id":17036,"title":"Жизнь – театр","kp_id":"1090962","imdb_id":"tt7392212","world_art_id":null,"type":"movie","add":"2018-06-04 22:43:31","orig_title":"Rangasthalam","year":"2018-03-29","translations":["Профессиональный (многоголосый закадровый) (SDI Media | Iyuno-SDI Group Russia)"],"quality":"webdl","translation":"Профессиональный (многоголосый закадровый) (SDI Media | Iyuno-SDI Group Russia)","update":"2020-02-25 08:11:09","iframe_src":"//83.svetacdn.in/PfJ50H0ZBPg3/movie/17036"},{"id":15517,"title":"Чудо-ребёнок","kp_id":"940351","imdb_id":"tt5017936","world_art_id":null,"type":"movie","add":"2018-03-09 18:00:29","orig_title":"Prodigy","year":"2017-03-04","translations":["Любительский (многоголосый закадровый) (Синема УС)","Профессиональный (многоголосый закадровый) (HDrezka Studio)","Профессиональный (многоголосый закадровый) (HDrezka Studio)"],"quality":"bd","translation":"Любительский (многоголосый закадровый) (Синема УС)","update":"2020-02-25 10:33:42","iframe_src":"//83.svetacdn.in/PfJ50H0ZBPg3/movie/15517"},{"id":8658,"title":"Неуловимый Прем","kp_id":"839147","imdb_id":"tt3595298","world_art_id":null,"type":"movie","add":"2017-01-07 09:03:08","orig_title":"Prem Ratan Dhan Payo","year":"2015-11-11","translations":["Любительский (многоголосый закадровый)","Профессиональный (двухголосый закадровый)"],"quality":"bd","translation":"Любительский (многоголосый закадровый)","update":"2020-02-25 08:13:33","iframe_src":"//83.svetacdn.in/PfJ50H0ZBPg3/movie/8658"},{"id":1849,"title":"ПиКей","kp_id":"675597","imdb_id":"tt2338151","world_art_id":null,"type":"movie","add":"2016-05-04 05:00:42","orig_title":"PK","year":"2014-12-18","translations":["Любительский (двухголосый закадровый)","Профессиональный (многоголосый закадровый) (SDI Media | Iyuno-SDI Group Russia)","Любительский (многоголосый закадровый) (ICG)"],"quality":"bd","translation":"Любительский (двухголосый закадровый)","update":"2020-02-25 08:14:14","iframe_src":"//83.svetacdn.in/PfJ50H0ZBPg3/movie/1849"}],"current_page":1387,"first_page_url":"https://videocdn.tv/api/short?limit=100&api_token=RgFQdUIR2dRmwv8iYa5SnFNgnw3vpjKj&cache31387=31387&page=1","from":138601,"last_page":720,"last_page_url":"https://videocdn.tv/api/short?limit=100&api_token=RgFQdUIR2dRmwv8iYa5SnFNgnw3vpjKj&cache31387=31387&page=720","next_page_url":null,"path":"https://videocdn.tv/api/short","per_page":100,"prev_page_url":"https://videocdn.tv/api/short?limit=100&api_token=RgFQdUIR2dRmwv8iYa5SnFNgnw3vpjKj&cache31387=31387&page=1386","to":138620,"total":71992}