{"result":true,"data":[{"id":44107,"title":"M","kp_id":"940039","imdb_id":"tt5137242","world_art_id":null,"type":"movie","add":"2020-10-04 11:16:01","orig_title":"M","year":"2017-09-04","translations":["Любительский (многоголосый закадровый) (Синема УС)"],"quality":"webdl","translation":"Любительский (многоголосый закадровый) (Синема УС)","update":"2020-10-05 13:50:37","iframe_src":"//8944266444.svetacdn.in/PfJ50H0ZBPg3/movie/44107"},{"id":44106,"title":"Материнский инстинкт","kp_id":"1292109","imdb_id":"tt10658248","world_art_id":null,"type":"movie","add":"2020-10-04 11:00:12","orig_title":"Maternal","year":"2019-08-09","translations":["Любительский (многоголосый закадровый) (Синема УС)"],"quality":"webdl","translation":"Любительский (многоголосый закадровый) (Синема УС)","update":"2020-10-05 13:52:04","iframe_src":"//8944266444.svetacdn.in/PfJ50H0ZBPg3/movie/44106"},{"id":44105,"title":"Хара и его трещина","kp_id":"1031834","imdb_id":"tt6445278","world_art_id":null,"type":"movie","add":"2020-10-04 10:57:49","orig_title":"Las grietas de Jara","year":"2018-01-18","translations":["Любительский (многоголосый закадровый) (AlphaProject)"],"quality":"webdl","translation":"Любительский (многоголосый закадровый) (AlphaProject)","update":"2020-10-05 13:54:49","iframe_src":"//8944266444.svetacdn.in/PfJ50H0ZBPg3/movie/44105"},{"id":44104,"title":"Пантера","kp_id":null,"imdb_id":"tt8187588","world_art_id":null,"type":"movie","add":"2020-10-04 10:55:41","orig_title":"El Pantera","year":"2018-04-07","translations":["Любительский (многоголосый закадровый) (Синема УС)"],"quality":"webdl","translation":"Любительский (многоголосый закадровый) (Синема УС)","update":"2020-10-05 13:53:36","iframe_src":"//8944266444.svetacdn.in/PfJ50H0ZBPg3/movie/44104"},{"id":44103,"title":"Смерть в Берруэкосе","kp_id":"1020863","imdb_id":"tt3592846","world_art_id":null,"type":"movie","add":"2020-10-04 10:53:15","orig_title":"Death in Berruecos","year":"2018-04-11","translations":["Любительский (многоголосый закадровый) (Синема УС)"],"quality":"webdl","translation":"Любительский (многоголосый закадровый) (Синема УС)","update":"2020-10-05 13:55:54","iframe_src":"//8944266444.svetacdn.in/PfJ50H0ZBPg3/movie/44103"},{"id":44102,"title":"Брелиндзе","kp_id":null,"imdb_id":"tt8189052","world_art_id":null,"type":"movie","add":"2020-10-04 10:51:19","orig_title":"Brelindzè","year":"2018-01-01","translations":["Любительский (многоголосый закадровый) (Синема УС)"],"quality":"webdl","translation":"Любительский (многоголосый закадровый) (Синема УС)","update":"2020-10-05 13:57:49","iframe_src":"//8944266444.svetacdn.in/PfJ50H0ZBPg3/movie/44102"},{"id":44100,"title":"Восстание андроидов","kp_id":"1410936","imdb_id":"tt13033662","world_art_id":null,"type":"movie","add":"2020-10-03 18:48:20","orig_title":"Android Uprising","year":"2020-10-01","translations":["Любительский (многоголосый закадровый) (Синема УС)"],"quality":"webdl","translation":"Любительский (многоголосый закадровый) (Синема УС)","update":"2020-10-04 07:14:42","iframe_src":"//8944266444.svetacdn.in/PfJ50H0ZBPg3/movie/44100"},{"id":44097,"title":"Вызов","kp_id":"1292616","imdb_id":"tt10758146","world_art_id":null,"type":"movie","add":"2020-10-03 18:14:53","orig_title":"Wyzwanie","year":"2020-07-01","translations":["Любительский (многоголосый закадровый) (AlphaProject)"],"quality":"webdl","translation":"Любительский (многоголосый закадровый) (AlphaProject)","update":"2020-10-04 07:19:40","iframe_src":"//8944266444.svetacdn.in/PfJ50H0ZBPg3/movie/44097"},{"id":44089,"title":"Пять дней","kp_id":"54700","imdb_id":"tt0069884","world_art_id":null,"type":"movie","add":"2020-10-02 19:17:08","orig_title":"Le cinque giornate","year":"1973-12-20","translations":["Профессиональный (двухголосый закадровый)"],"quality":"dvdrip","translation":"Профессиональный (двухголосый закадровый)","update":"2020-10-04 21:12:03","iframe_src":"//8944266444.svetacdn.in/PfJ50H0ZBPg3/movie/44089"},{"id":44088,"title":"Белый, красный и...","kp_id":"26815","imdb_id":"tt0066829","world_art_id":null,"type":"movie","add":"2020-10-02 19:13:54","orig_title":"Bianco rosso e...","year":"1972-03-23","translations":["Профессиональный (многоголосый закадровый)"],"quality":"dvdrip","translation":"Профессиональный (многоголосый закадровый)","update":"2020-10-04 20:18:19","iframe_src":"//8944266444.svetacdn.in/PfJ50H0ZBPg3/movie/44088"},{"id":44086,"title":"Серафино","kp_id":"148415","imdb_id":"tt0063583","world_art_id":null,"type":"movie","add":"2020-10-02 18:55:56","orig_title":"Serafino","year":"1968-12-17","translations":["Полное дублирование"],"quality":"dvdrip","translation":"Полное дублирование","update":"2020-10-04 17:33:49","iframe_src":"//8944266444.svetacdn.in/PfJ50H0ZBPg3/movie/44086"},{"id":44085,"title":"Богатыри Online","kp_id":"445838","imdb_id":null,"world_art_id":null,"type":"movie","add":"2020-10-02 18:42:40","orig_title":"Богатыри Online","year":"2004-01-01","translations":["Оригинальная дорожка"],"quality":"dvdrip","translation":"Оригинальная дорожка","update":"2020-10-04 17:31:13","iframe_src":"//8944266444.svetacdn.in/PfJ50H0ZBPg3/movie/44085"},{"id":44084,"title":"Размазня","kp_id":"630155","imdb_id":"tt2005173","world_art_id":null,"type":"movie","add":"2020-10-02 18:39:24","orig_title":"Cassos","year":"2012-03-21","translations":["Профессиональный (двухголосый закадровый) (НТВ)"],"quality":"dvb","translation":"Профессиональный (двухголосый закадровый) (НТВ)","update":"2020-10-04 17:36:15","iframe_src":"//8944266444.svetacdn.in/PfJ50H0ZBPg3/movie/44084"},{"id":44082,"title":"Эрик Клэптон: Жизнь в 12 тактах","kp_id":"1112746","imdb_id":"tt6498644","world_art_id":null,"type":"movie","add":"2020-10-02 17:48:54","orig_title":"Eric Clapton: Life in 12 Bars","year":"2017-09-08","translations":["Профессиональный (многоголосый закадровый)"],"quality":"bd","translation":"Профессиональный (многоголосый закадровый)","update":"2020-10-04 15:18:41","iframe_src":"//8944266444.svetacdn.in/PfJ50H0ZBPg3/movie/44082"},{"id":44076,"title":"Вечеринка на Хэллоуин","kp_id":"1016057","imdb_id":"tt6250650","world_art_id":null,"type":"movie","add":"2020-10-02 14:31:42","orig_title":"Halloween Party","year":"2019-08-24","translations":["Любительский (многоголосый закадровый) (@MUZOBOZ@)"],"quality":"webdl","translation":"Любительский (многоголосый закадровый) (@MUZOBOZ@)","update":"2020-10-04 15:33:33","iframe_src":"//8944266444.svetacdn.in/PfJ50H0ZBPg3/movie/44076"},{"id":44069,"title":"Локис","kp_id":"225782","imdb_id":"tt0065994","world_art_id":null,"type":"movie","add":"2020-10-02 11:06:50","orig_title":"Lokis. Rekopis profesora Wittembacha","year":"1970-09-25","translations":["Полное дублирование (Мосфильм)"],"quality":"dvb","translation":"Полное дублирование (Мосфильм)","update":"2020-10-04 07:16:15","iframe_src":"//8944266444.svetacdn.in/PfJ50H0ZBPg3/movie/44069"},{"id":44066,"title":"Заслуженное возмездие","kp_id":"1178927","imdb_id":"tt8506028","world_art_id":null,"type":"movie","add":"2020-10-02 09:19:52","orig_title":"We Had It Coming","year":"2019-12-06","translations":["Любительский (многоголосый закадровый) (Синема УС)"],"quality":"webdl","translation":"Любительский (многоголосый закадровый) (Синема УС)","update":"2020-10-03 16:25:24","iframe_src":"//8944266444.svetacdn.in/PfJ50H0ZBPg3/movie/44066"},{"id":44065,"title":"Маари 2","kp_id":"1076237","imdb_id":"tt7510798","world_art_id":null,"type":"movie","add":"2020-10-02 09:17:41","orig_title":"Maari 2","year":"2018-12-20","translations":["Любительский (многоголосый закадровый) (Синема УС)"],"quality":"webdl","translation":"Любительский (многоголосый закадровый) (Синема УС)","update":"2020-10-03 16:24:21","iframe_src":"//8944266444.svetacdn.in/PfJ50H0ZBPg3/movie/44065"},{"id":44064,"title":"Идентификация","kp_id":"1015210","imdb_id":"tt6319346","world_art_id":null,"type":"movie","add":"2020-10-02 08:50:15","orig_title":"Identity","year":"2018-04-26","translations":["Любительский (многоголосый закадровый) (AlphaProject)"],"quality":"webdl","translation":"Любительский (многоголосый закадровый) (AlphaProject)","update":"2020-10-03 16:27:06","iframe_src":"//8944266444.svetacdn.in/PfJ50H0ZBPg3/movie/44064"},{"id":44062,"title":"Когда Икар упал","kp_id":null,"imdb_id":"tt7160762","world_art_id":null,"type":"movie","add":"2020-10-02 08:45:08","orig_title":"Icarus","year":"2018-09-05","translations":["Любительский (многоголосый закадровый) (Синема УС)"],"quality":"webdl","translation":"Любительский (многоголосый закадровый) (Синема УС)","update":"2020-10-03 11:47:54","iframe_src":"//8944266444.svetacdn.in/PfJ50H0ZBPg3/movie/44062"}],"current_page":1047,"first_page_url":"https://videocdn.tv/api/short?limit=100&api_token=RgFQdUIR2dRmwv8iYa5SnFNgnw3vpjKj&cache31047=31047&page=1","from":104601,"last_page":725,"last_page_url":"https://videocdn.tv/api/short?limit=100&api_token=RgFQdUIR2dRmwv8iYa5SnFNgnw3vpjKj&cache31047=31047&page=725","next_page_url":null,"path":"https://videocdn.tv/api/short","per_page":100,"prev_page_url":"https://videocdn.tv/api/short?limit=100&api_token=RgFQdUIR2dRmwv8iYa5SnFNgnw3vpjKj&cache31047=31047&page=1046","to":104620,"total":72409}