{"result":true,"data":[{"id":26116,"title":"Голова","kp_id":"452599","imdb_id":"tt3554298","world_art_id":null,"type":"movie","add":"2019-05-06 23:56:55","orig_title":"Golova","year":"2004-01-01","translations":["Оригинальная дорожка"],"quality":"dvdrip","translation":"Оригинальная дорожка","update":"2019-05-07 07:07:59","iframe_src":"//8332.svetacdn.in/IAF0wWTdNYZm/movie/26116"},{"id":26114,"title":"Контракт","kp_id":"671671","imdb_id":"tt3065650","world_art_id":null,"type":"movie","add":"2019-05-06 23:49:28","orig_title":"Kontrakt","year":"2009-01-01","translations":["Оригинальная дорожка"],"quality":"sat","translation":"Оригинальная дорожка","update":"2019-05-07 07:05:33","iframe_src":"//8332.svetacdn.in/IAF0wWTdNYZm/movie/26114"},{"id":26113,"title":"Красиво жить не запретишь","kp_id":"44952","imdb_id":"tt0251781","world_art_id":null,"type":"movie","add":"2019-05-06 23:45:51","orig_title":"Krasivo zhit ne zapretish","year":"1982-01-01","translations":["Оригинальная дорожка"],"quality":"dvdrip","translation":"Оригинальная дорожка","update":"2019-05-07 07:04:40","iframe_src":"//8332.svetacdn.in/IAF0wWTdNYZm/movie/26113"},{"id":26112,"title":"Кто ты, всадник?","kp_id":"45012","imdb_id":"tt0298979","world_art_id":null,"type":"movie","add":"2019-05-06 23:42:42","orig_title":"Kto ty, vsadnik?","year":"1988-01-04","translations":["Оригинальная дорожка"],"quality":"dvdrip","translation":"Оригинальная дорожка","update":"2019-05-07 07:03:03","iframe_src":"//8332.svetacdn.in/IAF0wWTdNYZm/movie/26112"},{"id":26111,"title":"Маленькие человечки Большевистского переулка, или Хочу пива","kp_id":"41593","imdb_id":"tt0107494","world_art_id":null,"type":"movie","add":"2019-05-06 23:39:31","orig_title":"Malenkie chelovechki Bolshevistskogo pereulka, ili Khochu piva","year":"1993-01-01","translations":["Оригинальная дорожка"],"quality":"dvdrip","translation":"Оригинальная дорожка","update":"2019-05-07 07:02:16","iframe_src":"//8332.svetacdn.in/IAF0wWTdNYZm/movie/26111"},{"id":26110,"title":"Мышеловка","kp_id":"94355","imdb_id":"tt0174953","world_art_id":null,"type":"movie","add":"2019-05-06 23:36:13","orig_title":"Myshelovka","year":"1990-11-01","translations":["Оригинальная дорожка"],"quality":"dvdrip","translation":"Оригинальная дорожка","update":"2019-05-07 07:00:45","iframe_src":"//8332.svetacdn.in/IAF0wWTdNYZm/movie/26110"},{"id":26109,"title":"Невеста моего друга","kp_id":"671053","imdb_id":"tt3639130","world_art_id":null,"type":"movie","add":"2019-05-06 23:32:34","orig_title":"Nevesta moego druga","year":"2012-03-08","translations":["Оригинальная дорожка"],"quality":"webdl","translation":"Оригинальная дорожка","update":"2019-05-07 07:00:06","iframe_src":"//8332.svetacdn.in/IAF0wWTdNYZm/movie/26109"},{"id":26108,"title":"Незнакомое оружие, или Крестоносец-2","kp_id":"222453","imdb_id":"tt0132271","world_art_id":null,"type":"movie","add":"2019-05-06 23:17:52","orig_title":"Krestonosets-2","year":"1998-01-01","translations":["Оригинальная дорожка"],"quality":"sat","translation":"Оригинальная дорожка","update":"2019-05-07 06:59:31","iframe_src":"//8332.svetacdn.in/IAF0wWTdNYZm/movie/26108"},{"id":26107,"title":"Пчелка","kp_id":"40883","imdb_id":"tt0204546","world_art_id":null,"type":"movie","add":"2019-05-06 23:12:07","orig_title":"Pchyolka","year":"1993-01-01","translations":["Оригинальная дорожка"],"quality":"dvdrip","translation":"Оригинальная дорожка","update":"2019-05-07 06:58:28","iframe_src":"//8332.svetacdn.in/IAF0wWTdNYZm/movie/26107"},{"id":26106,"title":"Похождения зубного врача","kp_id":"43089","imdb_id":"tt0155028","world_art_id":null,"type":"movie","add":"2019-05-06 23:08:35","orig_title":"Pokhozhdeniya zubnogo vracha","year":"1965-02-27","translations":["Оригинальная дорожка"],"quality":"dvdrip","translation":"Оригинальная дорожка","update":"2019-05-07 06:57:27","iframe_src":"//8332.svetacdn.in/IAF0wWTdNYZm/movie/26106"},{"id":26105,"title":"Рикки-Тикки-Тави","kp_id":"34074","imdb_id":"tt0073627","world_art_id":null,"type":"movie","add":"2019-05-06 23:04:56","orig_title":"Rikki-Tikki-Tavi","year":"1979-11-10","translations":["Оригинальная дорожка"],"quality":"dvdrip","translation":"Оригинальная дорожка","update":"2019-05-07 06:53:08","iframe_src":"//8332.svetacdn.in/IAF0wWTdNYZm/movie/26105"},{"id":26104,"title":"Сэнит Зон","kp_id":"43676","imdb_id":"tt0100576","world_art_id":null,"type":"movie","add":"2019-05-06 22:54:59","orig_title":"Senit zon","year":"1990-01-01","translations":["Оригинальная дорожка"],"quality":"dvdrip","translation":"Оригинальная дорожка","update":"2019-05-07 06:48:32","iframe_src":"//8332.svetacdn.in/IAF0wWTdNYZm/movie/26104"},{"id":26103,"title":"Стоянка поезда – две минуты","kp_id":"255043","imdb_id":"tt0069317","world_art_id":null,"type":"movie","add":"2019-05-06 22:51:22","orig_title":"Stoyanka poyezda - 2 minuty","year":"1972-12-31","translations":["Оригинальная дорожка"],"quality":"dvdrip","translation":"Оригинальная дорожка","update":"2019-05-07 06:47:26","iframe_src":"//8332.svetacdn.in/IAF0wWTdNYZm/movie/26103"},{"id":26102,"title":"Туннель","kp_id":"42368","imdb_id":"tt0062399","world_art_id":null,"type":"movie","add":"2019-05-06 22:46:13","orig_title":"Tunelul","year":"1966-11-08","translations":["Оригинальная дорожка"],"quality":"dvdrip","translation":"Оригинальная дорожка","update":"2019-05-07 06:46:46","iframe_src":"//8332.svetacdn.in/IAF0wWTdNYZm/movie/26102"},{"id":26101,"title":"Убить Шакала","kp_id":"470616","imdb_id":"tt5844554","world_art_id":null,"type":"movie","add":"2019-05-06 22:42:47","orig_title":"Ubit 'Shakala'","year":"1991-06-01","translations":["Оригинальная дорожка"],"quality":"dvdrip","translation":"Оригинальная дорожка","update":"2019-05-07 06:45:46","iframe_src":"//8332.svetacdn.in/IAF0wWTdNYZm/movie/26101"},{"id":26099,"title":"Феофания, рисующая смерть","kp_id":"64007","imdb_id":"tt0210043","world_art_id":null,"type":"movie","add":"2019-05-06 22:10:43","orig_title":"Fiofaniya, risuyushchaya smert","year":"1991-10-01","translations":["Профессиональный (многоголосый закадровый)"],"quality":"dvdrip","translation":"Профессиональный (многоголосый закадровый)","update":"2019-05-07 06:42:36","iframe_src":"//8332.svetacdn.in/IAF0wWTdNYZm/movie/26099"},{"id":26098,"title":"Ирина Палм сделает ЭТО лучше","kp_id":"263746","imdb_id":"tt0762110","world_art_id":null,"type":"movie","add":"2019-05-06 22:08:21","orig_title":"Irina Palm","year":"2007-02-13","translations":["Профессиональный (многоголосый закадровый)"],"quality":"dvdrip","translation":"Профессиональный (многоголосый закадровый)","update":"2019-05-07 06:41:03","iframe_src":"//8332.svetacdn.in/IAF0wWTdNYZm/movie/26098"},{"id":26057,"title":"Мужчины","kp_id":"42238","imdb_id":"tt0068982","world_art_id":null,"type":"movie","add":"2019-05-06 07:16:15","orig_title":"Tghamardik","year":"1973-09-17","translations":["Оригинальная дорожка"],"quality":"dvdrip","translation":"Оригинальная дорожка","update":"2019-05-07 09:02:47","iframe_src":"//8332.svetacdn.in/IAF0wWTdNYZm/movie/26057"},{"id":26056,"title":"Самый сильный","kp_id":"43615","imdb_id":"tt0070627","world_art_id":null,"type":"movie","add":"2019-05-06 07:10:10","orig_title":"Samyy silnyy","year":"1974-01-21","translations":["Оригинальная дорожка"],"quality":"dvdrip","translation":"Оригинальная дорожка","update":"2019-05-07 09:03:36","iframe_src":"//8332.svetacdn.in/IAF0wWTdNYZm/movie/26056"},{"id":18272,"title":"Живите в радости","kp_id":"45327","imdb_id":"tt0078524","world_art_id":null,"type":"movie","add":"2018-08-12 15:21:25","orig_title":"Zhivite v radosti","year":"1979-03-05","translations":["Оригинальная дорожка","Оригинальная дорожка"],"quality":"hdtv","translation":"Оригинальная дорожка","update":"2019-05-07 06:43:40","iframe_src":"//8332.svetacdn.in/IAF0wWTdNYZm/movie/18272"}],"current_page":1471,"first_page_url":"https://videocdn.tv/api/short?limit=100&api_token=6Onb1W1alEUrBcKJZD3GoKBbWyAl2uG2&cache31471=31471&page=1","from":147001,"last_page":638,"last_page_url":"https://videocdn.tv/api/short?limit=100&api_token=6Onb1W1alEUrBcKJZD3GoKBbWyAl2uG2&cache31471=31471&page=638","next_page_url":null,"path":"https://videocdn.tv/api/short","per_page":100,"prev_page_url":"https://videocdn.tv/api/short?limit=100&api_token=6Onb1W1alEUrBcKJZD3GoKBbWyAl2uG2&cache31471=31471&page=1470","to":147020,"total":63713}