{"result":true,"data":[{"id":51869,"title":"Берсеркер","kp_id":"48083","imdb_id":"tt0164393","world_art_id":null,"type":"movie","add":"2021-07-19 06:16:30","orig_title":"Berserker","year":"1987-05-10","translations":["Любительский (одноголосый закадровый) (allecs2010)","[EN] Original (English)"],"quality":"bd","translation":"Любительский (одноголосый закадровый) (allecs2010)","update":"2021-07-19 11:54:50","iframe_src":"//2413.svetacdn.in/si4jsFRrtgrT/movie/51869"},{"id":51868,"title":"Дьяволы войны","kp_id":"38235","imdb_id":"tt0064235","world_art_id":null,"type":"movie","add":"2021-07-19 06:01:40","orig_title":"I diavoli della guerra","year":"1969-12-19","translations":["[EN] Original (English)","Авторский (одноголосый закадровый) (Дольский Андрей)"],"quality":"webdl","translation":"[EN] Original (English)","update":"2021-07-19 10:41:39","iframe_src":"//2413.svetacdn.in/si4jsFRrtgrT/movie/51868"},{"id":51840,"title":"Тайна реки Сучжоу","kp_id":"84332","imdb_id":"tt0234837","world_art_id":null,"type":"movie","add":"2021-07-18 15:56:24","orig_title":"Su Zhou he","year":"2000-01-29","translations":["Профессиональный (многоголосый закадровый) (Камер-Тон)"],"quality":"bd","translation":"Профессиональный (многоголосый закадровый) (Камер-Тон)","update":"2021-07-19 07:46:21","iframe_src":"//2413.svetacdn.in/si4jsFRrtgrT/movie/51840"},{"id":51836,"title":"Искусство любви","kp_id":"14480","imdb_id":"tt0058920","world_art_id":null,"type":"movie","add":"2021-07-17 14:56:21","orig_title":"The Art of Love","year":"1965-06-25","translations":["Профессиональный (многоголосый закадровый) (СТС)","[EN] Original (English)"],"quality":"bd","translation":"Профессиональный (многоголосый закадровый) (СТС)","update":"2021-07-19 07:45:34","iframe_src":"//2413.svetacdn.in/si4jsFRrtgrT/movie/51836"},{"id":51835,"title":"Гризли","kp_id":"84535","imdb_id":"tt0074593","world_art_id":null,"type":"movie","add":"2021-07-17 14:51:04","orig_title":"Grizzly","year":"1976-05-12","translations":["Авторский (одноголосый закадровый) (Котов Вячеслав)","[EN] Original (English)"],"quality":"bd","translation":"Авторский (одноголосый закадровый) (Котов Вячеслав)","update":"2021-07-19 07:48:04","iframe_src":"//2413.svetacdn.in/si4jsFRrtgrT/movie/51835"},{"id":51834,"title":"Пятеро друзей 4","kp_id":"877240","imdb_id":"tt4151250","world_art_id":null,"type":"movie","add":"2021-07-17 14:30:08","orig_title":"Fünf Freunde 4","year":"2015-01-29","translations":["Профессиональный (многоголосый закадровый) (Первый ТВЧ)"],"quality":"bd","translation":"Профессиональный (многоголосый закадровый) (Первый ТВЧ)","update":"2021-07-19 07:58:02","iframe_src":"//2413.svetacdn.in/si4jsFRrtgrT/movie/51834"},{"id":51832,"title":"Буги Бой","kp_id":"11482","imdb_id":"tt0118748","world_art_id":null,"type":"movie","add":"2021-07-17 07:20:47","orig_title":"Boogie Boy","year":"1998-02-12","translations":["Профессиональный (двухголосый закадровый) (Парадиз)","[EN] Original (English)","Авторский (одноголосый закадровый) (Горчаков Василий)"],"quality":"bd","translation":"Профессиональный (двухголосый закадровый) (Парадиз)","update":"2021-07-19 08:06:20","iframe_src":"//2413.svetacdn.in/si4jsFRrtgrT/movie/51832"},{"id":51831,"title":"Однажды в военно-морской академии: Ах, Этадзима!","kp_id":"1111084","imdb_id":"tt7693096","world_art_id":null,"type":"movie","add":"2021-07-17 07:19:22","orig_title":"Kaigunheigakkô monogatari: Aa! Etajima","year":"1959-09-06","translations":["Любительский (одноголосый закадровый) (iDimo)"],"quality":"webdl","translation":"Любительский (одноголосый закадровый) (iDimo)","update":"2021-07-19 07:53:39","iframe_src":"//2413.svetacdn.in/si4jsFRrtgrT/movie/51831"},{"id":51830,"title":"Радуга над островом Цзиньмынь","kp_id":"1239997","imdb_id":"tt9815160","world_art_id":null,"type":"movie","add":"2021-07-17 07:18:05","orig_title":"Kinmonto ni kakeru hashi","year":"1962-11-03","translations":["Авторский (одноголосый закадровый) (Воротилин Олег)"],"quality":"webdl","translation":"Авторский (одноголосый закадровый) (Воротилин Олег)","update":"2021-07-19 07:59:02","iframe_src":"//2413.svetacdn.in/si4jsFRrtgrT/movie/51830"},{"id":51712,"title":"Дуэль под солнцем","kp_id":"8552","imdb_id":"tt0038499","world_art_id":null,"type":"movie","add":"2021-07-12 17:42:49","orig_title":"Duel in the Sun","year":"1946-12-29","translations":["[EN] Original (English)","Любительский (одноголосый закадровый)","Профессиональный (многоголосый закадровый) (Первый канал | ОРТ)","Профессиональный (многоголосый закадровый) (SomeWax)"],"quality":"bd","translation":"[EN] Original (English)","update":"2021-07-19 12:09:45","iframe_src":"//2413.svetacdn.in/si4jsFRrtgrT/movie/51712"},{"id":49119,"title":"Без видимых причин","kp_id":"198230","imdb_id":"tt0069219","world_art_id":null,"type":"movie","add":"2021-03-26 05:02:57","orig_title":"Sans mobile apparent","year":"1971-09-15","translations":["Профессиональный (одноголосый закадровый)","Любительский (одноголосый закадровый) (ССК+ | Квардаков Сергей)"],"quality":"bd","translation":"Профессиональный (одноголосый закадровый)","update":"2021-07-19 11:51:00","iframe_src":"//2413.svetacdn.in/si4jsFRrtgrT/movie/49119"},{"id":41620,"title":"Женщина-терминатор","kp_id":"1266191","imdb_id":"tt10319676","world_art_id":null,"type":"movie","add":"2020-07-06 05:06:26","orig_title":"Termination","year":"2019-08-11","translations":["Любительский (многоголосый закадровый) (@MUZOBOZ@)","[EN] Original (English)","Профессиональный (многоголосый закадровый) (IVI)"],"quality":"webdl","translation":"Любительский (многоголосый закадровый) (@MUZOBOZ@)","update":"2021-07-19 09:17:05","iframe_src":"//2413.svetacdn.in/si4jsFRrtgrT/movie/41620"},{"id":35895,"title":"Рождение Японии","kp_id":"100018","imdb_id":"tt0053117","world_art_id":null,"type":"movie","add":"2020-02-06 20:41:46","orig_title":"Nippon tanjô","year":"1959-11-01","translations":["Авторский (одноголосый закадровый) (Алексеев Антон)"],"quality":"webdl","translation":"Авторский (одноголосый закадровый) (Алексеев Антон)","update":"2021-07-19 07:45:02","iframe_src":"//2413.svetacdn.in/si4jsFRrtgrT/movie/35895"},{"id":29727,"title":"Бхарат","kp_id":"1111582","imdb_id":"tt7721800","world_art_id":null,"type":"movie","add":"2019-08-04 16:58:42","orig_title":"Bharat","year":"2019-06-05","translations":["Профессиональный (многоголосый закадровый) (ZEE TV)","Любительский (многоголосый закадровый) (Honey&Haseena)","Любительский (двухголосый закадровый) (OnisFilms)"],"quality":"webdl","translation":"Профессиональный (многоголосый закадровый) (ZEE TV)","update":"2021-07-19 07:52:00","iframe_src":"//2413.svetacdn.in/si4jsFRrtgrT/movie/29727"},{"id":27527,"title":"Драгоценный подарок","kp_id":"309610","imdb_id":"tt1274267","world_art_id":null,"type":"movie","add":"2019-06-06 22:11:13","orig_title":"Dragotsennyy podarok","year":"1956-02-18","translations":["Оригинальная дорожка"],"quality":"webdl","translation":"Оригинальная дорожка","update":"2021-07-19 09:18:10","iframe_src":"//2413.svetacdn.in/si4jsFRrtgrT/movie/27527"},{"id":22461,"title":"Бок о бок","kp_id":"1048539","imdb_id":"tt7052494","world_art_id":null,"type":"movie","add":"2019-02-23 08:28:06","orig_title":"Trading Paint","year":"2019-02-22","translations":["Любительский (многоголосый закадровый) (@MUZOBOZ@)","Любительский (двухголосый закадровый) (HiWayGrope)","Профессиональный (многоголосый закадровый) (HDrezka Studio)","Профессиональный (многоголосый закадровый) (HDrezka Studio)","[EN] Original (English)","Профессиональный (многоголосый закадровый) (iTunes)"],"quality":"webdl","translation":"Любительский (многоголосый закадровый) (@MUZOBOZ@)","update":"2021-07-19 09:47:44","iframe_src":"//2413.svetacdn.in/si4jsFRrtgrT/movie/22461"},{"id":3335,"title":"Джек Восьмеркин — «американец»","kp_id":"44385","imdb_id":"tt0167910","world_art_id":null,"type":"serial","add":"2018-10-18 12:04:31","orig_title":"Dzhek Vosmyorkin, amerikanets","year":"1988-05-14","translations":["Оригинальная дорожка"],"seasons_count":1,"episodes_count":3,"episodes":3,"update":"2018-10-19 12:48:01","iframe_src":"//2413.svetacdn.in/si4jsFRrtgrT/tv-series/3335"},{"id":3334,"title":"Беглянка","kp_id":"1162603","imdb_id":"tt7158972","world_art_id":null,"type":"serial","add":"2018-10-18 11:00:06","orig_title":"Fugitiva","year":"2018-04-05","translations":["Профессиональный (двухголосый закадровый) (ViruseProject)"],"seasons_count":1,"episodes_count":9,"episodes":9,"update":"2018-10-18 22:26:33","iframe_src":"//2413.svetacdn.in/si4jsFRrtgrT/tv-series/3334"},{"id":3333,"title":"Третий должен уйти","kp_id":"1112778","imdb_id":null,"world_art_id":null,"type":"serial","add":"2018-10-18 10:04:35","orig_title":"Третий должен уйти","year":"2018-10-13","translations":["Оригинальная дорожка"],"seasons_count":1,"episodes_count":2,"episodes":2,"update":"2018-10-19 06:53:38","iframe_src":"//2413.svetacdn.in/si4jsFRrtgrT/tv-series/3333"},{"id":3328,"title":"Пограничная земля","kp_id":"1101266","imdb_id":"tt7468900","world_art_id":null,"type":"serial","add":"2018-10-17 14:32:15","orig_title":"Grenseland","year":"2017-11-02","translations":["Профессиональный (двухголосый закадровый) (ViruseProject)"],"seasons_count":1,"episodes_count":8,"episodes":8,"update":"2018-10-18 09:38:37","iframe_src":"//2413.svetacdn.in/si4jsFRrtgrT/tv-series/3328"},{"id":3324,"title":"Казанова","kp_id":"153022","imdb_id":"tt0427042","world_art_id":null,"type":"serial","add":"2018-10-17 00:03:35","orig_title":"Casanova","year":"2005-03-13","translations":["Профессиональный (многоголосый закадровый)"],"seasons_count":1,"episodes_count":4,"episodes":4,"update":"2018-10-17 07:40:58","iframe_src":"//2413.svetacdn.in/si4jsFRrtgrT/tv-series/3324"},{"id":3322,"title":"Всегда говори «всегда»","kp_id":"406137","imdb_id":"tt4234518","world_art_id":null,"type":"serial","add":"2018-10-16 08:17:34","orig_title":"Vsegda govori «vsegda»","year":"2003-01-01","translations":["Оригинальная дорожка"],"seasons_count":1,"episodes_count":8,"episodes":8,"update":"2018-10-17 07:18:04","iframe_src":"//2413.svetacdn.in/si4jsFRrtgrT/tv-series/3322"},{"id":3321,"title":"Идеальная жена","kp_id":"1009422","imdb_id":"tt6487756","world_art_id":null,"type":"serial","add":"2018-10-16 08:11:41","orig_title":"Wanbyeokhan Anae","year":"2017-02-27","translations":["Любительский (одноголосый закадровый)"],"seasons_count":1,"episodes_count":20,"episodes":20,"update":"2018-10-17 07:40:34","iframe_src":"//2413.svetacdn.in/si4jsFRrtgrT/tv-series/3321"},{"id":3304,"title":"Плохая политика","kp_id":"1048288","imdb_id":null,"world_art_id":null,"type":"serial","add":"2018-10-14 11:34:10","orig_title":"U-Prince: The Badly Politics","year":"2017-05-07","translations":["Любительский (одноголосый закадровый)"],"seasons_count":1,"episodes_count":4,"episodes":4,"update":"2018-10-16 08:08:35","iframe_src":"//2413.svetacdn.in/si4jsFRrtgrT/tv-series/3304"},{"id":3303,"title":"Чудаковатый геолог","kp_id":"1042197","imdb_id":"tt6491184","world_art_id":null,"type":"serial","add":"2018-10-14 11:08:22","orig_title":"U-Prince: The Lovely Geologist","year":"2016-08-14","translations":["Любительский (одноголосый закадровый) (Julia Prosenuk)"],"seasons_count":1,"episodes_count":4,"episodes":4,"update":"2018-10-16 08:04:57","iframe_src":"//2413.svetacdn.in/si4jsFRrtgrT/tv-series/3303"},{"id":3302,"title":"Ласковый ветеринар","kp_id":"1047681","imdb_id":"tt6491138","world_art_id":null,"type":"serial","add":"2018-10-14 11:03:35","orig_title":"U-Prince: The Gentle Vet","year":"2016-07-17","translations":["Любительский (одноголосый закадровый) (Julia Prosenuk)"],"seasons_count":1,"episodes_count":4,"episodes":4,"update":"2018-10-16 08:01:32","iframe_src":"//2413.svetacdn.in/si4jsFRrtgrT/tv-series/3302"},{"id":3299,"title":"Лама Лама","kp_id":"1226384","imdb_id":"tt4781350","world_art_id":null,"type":"serial","add":"2018-10-14 09:39:51","orig_title":"Llama Llama","year":"2018-01-26","translations":["Полное дублирование"],"seasons_count":1,"episodes_count":15,"episodes":15,"update":"2018-10-17 09:50:46","iframe_src":"//2413.svetacdn.in/si4jsFRrtgrT/tv-series/3299"},{"id":3295,"title":"Детективы из домика на дереве","kp_id":"1169161","imdb_id":"tt8591984","world_art_id":null,"type":"serial","add":"2018-10-14 09:24:07","orig_title":"Treehouse Detectives","year":"2018-06-08","translations":["Полное дублирование"],"seasons_count":1,"episodes_count":10,"episodes":10,"update":"2018-10-18 11:59:32","iframe_src":"//2413.svetacdn.in/si4jsFRrtgrT/tv-series/3295"},{"id":3291,"title":"Евлампия Романова. Следствие ведет дилетант","kp_id":"469519","imdb_id":"tt3092810","world_art_id":null,"type":"serial","add":"2018-10-14 07:35:49","orig_title":"Evlampiya Romanova. Sledstvie vedet diletant","year":"2003-09-21","translations":["Оригинальная дорожка"],"seasons_count":3,"episodes_count":36,"episodes":12,"update":"2018-10-18 09:20:32","iframe_src":"//2413.svetacdn.in/si4jsFRrtgrT/tv-series/3291"},{"id":3290,"title":"Московские тайны. Семь сестер","kp_id":"1178000","imdb_id":null,"world_art_id":null,"type":"serial","add":"2018-10-14 05:56:39","orig_title":"Московские тайны. Семь сестер","year":"2018-10-12","translations":["Оригинальная дорожка"],"seasons_count":1,"episodes_count":2,"episodes":2,"update":"2018-10-16 09:36:05","iframe_src":"//2413.svetacdn.in/si4jsFRrtgrT/tv-series/3290"},{"id":3289,"title":"Этим пыльным летом","kp_id":"1138858","imdb_id":null,"world_art_id":null,"type":"serial","add":"2018-10-14 05:49:11","orig_title":"Этим пыльным летом","year":"2018-10-13","translations":["Оригинальная дорожка"],"seasons_count":1,"episodes_count":4,"episodes":4,"update":"2018-10-15 12:12:42","iframe_src":"//2413.svetacdn.in/si4jsFRrtgrT/tv-series/3289"},{"id":3288,"title":"Смышленый пилот","kp_id":"1047621","imdb_id":"tt6491306","world_art_id":null,"type":"serial","add":"2018-10-13 22:09:32","orig_title":"U-Prince: The Foxy Pilot","year":"2016-11-06","translations":["Любительский (одноголосый закадровый) (Julia Prosenuk)"],"seasons_count":1,"episodes_count":4,"episodes":4,"update":"2018-10-16 07:57:29","iframe_src":"//2413.svetacdn.in/si4jsFRrtgrT/tv-series/3288"},{"id":3287,"title":"Абсолютный экономист","kp_id":"1047604","imdb_id":"tt6491246","world_art_id":null,"type":"serial","add":"2018-10-13 22:01:13","orig_title":"U-Prince: The Absolute Economist","year":"2016-10-09","translations":["Любительский (одноголосый закадровый) (Julia Prosenuk)"],"seasons_count":1,"episodes_count":4,"episodes":4,"update":"2018-10-15 11:54:09","iframe_src":"//2413.svetacdn.in/si4jsFRrtgrT/tv-series/3287"},{"id":3286,"title":"Красавчик ковбой","kp_id":"1047410","imdb_id":"tt6483794","world_art_id":null,"type":"serial","add":"2018-10-13 21:53:12","orig_title":"U-Prince: The Handsome Cowboy","year":"2016-05-22","translations":["Любительский (одноголосый закадровый) (Julia Prosenuk)"],"seasons_count":1,"episodes_count":8,"episodes":8,"update":"2018-10-15 11:12:09","iframe_src":"//2413.svetacdn.in/si4jsFRrtgrT/tv-series/3286"},{"id":3247,"title":"Конная полиция","kp_id":"1192379","imdb_id":null,"world_art_id":null,"type":"serial","add":"2018-10-01 10:13:26","orig_title":"Конная полиция","year":"2018-10-08","translations":["Оригинальная дорожка"],"seasons_count":1,"episodes_count":16,"episodes":16,"update":"2018-10-18 08:20:19","iframe_src":"//2413.svetacdn.in/si4jsFRrtgrT/tv-series/3247"},{"id":3239,"title":"Район Эль Принсипе","kp_id":"774329","imdb_id":"tt2651246","world_art_id":null,"type":"serial","add":"2018-09-29 13:31:25","orig_title":"El Príncipe","year":"2014-02-04","translations":["Любительский (двухголосый закадровый)"],"seasons_count":1,"episodes_count":13,"episodes":13,"update":"2018-10-15 20:17:40","iframe_src":"//2413.svetacdn.in/si4jsFRrtgrT/tv-series/3239"},{"id":13544,"title":"Кровать мертвецов","kp_id":"920498","imdb_id":"tt4730706","world_art_id":null,"type":"movie","add":"2017-09-20 22:59:05","orig_title":"Bed of the Dead","year":"2016-07-16","translations":["Любительский (многоголосый закадровый) (Синема УС)","Любительский (одноголосый закадровый) (Хихикающий доктор)","Профессиональный (многоголосый закадровый) (СВ-Дубль)","[EN] Original (English)"],"quality":"webdl","translation":"Любительский (многоголосый закадровый) (Синема УС)","update":"2021-07-19 08:01:44","iframe_src":"//2413.svetacdn.in/si4jsFRrtgrT/movie/13544"},{"id":13521,"title":"Кунхам: Пограничный остров","kp_id":"996621","imdb_id":"tt5969696","world_art_id":null,"type":"movie","add":"2017-09-19 10:10:34","orig_title":"Gunhamdo","year":"2017-07-26","translations":["Любительский (многоголосый закадровый) (Синема УС)","Любительский (многоголосый закадровый) (@MUZOBOZ@)","Профессиональный (многоголосый закадровый) (GreenРай Studio)","Любительский (двухголосый закадровый)","Любительский (многоголосый закадровый) (Колобок)","Любительский (двухголосый закадровый) (Храм Дорам ТВ)","Полное дублирование (iTunes)"],"quality":"bd","translation":"Любительский (многоголосый закадровый) (Синема УС)","update":"2021-07-19 07:56:25","iframe_src":"//2413.svetacdn.in/si4jsFRrtgrT/movie/13521"},{"id":7225,"title":"Вход и выход","kp_id":"2522","imdb_id":"tt0119360","world_art_id":null,"type":"movie","add":"2016-11-09 05:02:01","orig_title":"In & Out","year":"1997-09-10","translations":["Профессиональный (многоголосый закадровый)","Полное дублирование (РТР | Россия)","[EN] Original (English)","Профессиональный (двухголосый закадровый) (DVD Group)"],"quality":"hdtv","translation":"Профессиональный (многоголосый закадровый)","update":"2021-07-19 07:41:36","iframe_src":"//2413.svetacdn.in/si4jsFRrtgrT/movie/7225"},{"id":684,"title":"Последний король Шотландии","kp_id":"156002","imdb_id":"tt0455590","world_art_id":null,"type":"movie","add":"2016-04-05 21:23:48","orig_title":"The Last King of Scotland","year":"2006-09-01","translations":["Полное дублирование","[EN] Original (English)","Полное дублирование","[EN] Original (English)","Профессиональный (двухголосый закадровый) (Гланц + Королёва)","Профессиональный (многоголосый закадровый) (Первый канал | ОРТ)"],"quality":"bd","translation":"Полное дублирование","update":"2021-07-19 12:03:59","iframe_src":"//2413.svetacdn.in/si4jsFRrtgrT/movie/684"}],"current_page":510,"first_page_url":"https://videocdn.tv/api/short?limit=100&api_token=X6EwAUfE5M9xbo7y0Bp0aPf3uXxG2KLL&cache3510=3510&page=1","from":50901,"last_page":717,"last_page_url":"https://videocdn.tv/api/short?limit=100&api_token=X6EwAUfE5M9xbo7y0Bp0aPf3uXxG2KLL&cache3510=3510&page=717","next_page_url":"https://videocdn.tv/api/short?limit=100&api_token=X6EwAUfE5M9xbo7y0Bp0aPf3uXxG2KLL&cache3510=3510&page=511","path":"https://videocdn.tv/api/short","per_page":100,"prev_page_url":"https://videocdn.tv/api/short?limit=100&api_token=X6EwAUfE5M9xbo7y0Bp0aPf3uXxG2KLL&cache3510=3510&page=509","to":50940,"total":71641}