{"result":true,"data":[{"id":50960,"title":"Белые полосы","kp_id":"869689","imdb_id":"tt4203666","world_art_id":null,"type":"movie","add":"2021-06-05 23:29:42","orig_title":"White Lines","year":"2020-01-01","translations":["Любительский (многоголосый закадровый) (@MUZOBOZ@)"],"quality":"webdl","translation":"Любительский (многоголосый закадровый) (@MUZOBOZ@)","update":"2021-06-06 09:16:46","iframe_src":"//2413.svetacdn.in/si4jsFRrtgrT/movie/50960"},{"id":50959,"title":"Все считают себя особенными","kp_id":"1300877","imdb_id":"tt10849722","world_art_id":null,"type":"movie","add":"2021-06-05 23:27:44","orig_title":"We All Think We're Special","year":"2021-05-28","translations":["Любительский (многоголосый закадровый) (@MUZOBOZ@)"],"quality":"webdl","translation":"Любительский (многоголосый закадровый) (@MUZOBOZ@)","update":"2021-06-06 09:16:04","iframe_src":"//2413.svetacdn.in/si4jsFRrtgrT/movie/50959"},{"id":50958,"title":"Папа","kp_id":"1445218","imdb_id":null,"world_art_id":null,"type":"movie","add":"2021-06-05 23:26:21","orig_title":"Папа","year":"2021-06-03","translations":["Оригинальная дорожка"],"quality":"ts","translation":"Оригинальная дорожка","update":"2021-06-06 09:14:16","iframe_src":"//2413.svetacdn.in/si4jsFRrtgrT/movie/50958"},{"id":50957,"title":"Мисс Мама","kp_id":"4407911","imdb_id":"tt13556254","world_art_id":null,"type":"movie","add":"2021-06-05 23:24:47","orig_title":"Xun han ji","year":"2021-05-01","translations":["Любительский (двухголосый закадровый) (Колобок)"],"quality":"webdl","translation":"Любительский (двухголосый закадровый) (Колобок)","update":"2021-06-06 08:55:54","iframe_src":"//2413.svetacdn.in/si4jsFRrtgrT/movie/50957"},{"id":50955,"title":"Смерть в Техасе","kp_id":"969317","imdb_id":"tt4472508","world_art_id":null,"type":"movie","add":"2021-06-05 23:06:47","orig_title":"Death in Texas","year":"2021-06-04","translations":["Любительский (многоголосый закадровый) (AlphaProject)"],"quality":"webdl","translation":"Любительский (многоголосый закадровый) (AlphaProject)","update":"2021-06-06 08:47:30","iframe_src":"//2413.svetacdn.in/si4jsFRrtgrT/movie/50955"},{"id":50954,"title":"Плотоядные","kp_id":"1071930","imdb_id":"tt6649930","world_art_id":null,"type":"movie","add":"2021-06-05 23:04:59","orig_title":"The Carnivores","year":"2020-03-14","translations":["Любительский (многоголосый закадровый) (Синема УС)"],"quality":"webdl","translation":"Любительский (многоголосый закадровый) (Синема УС)","update":"2021-06-06 08:54:03","iframe_src":"//2413.svetacdn.in/si4jsFRrtgrT/movie/50954"},{"id":50953,"title":"Ночь живых мертвецов: Перерождение","kp_id":"875759","imdb_id":"tt3976044","world_art_id":null,"type":"movie","add":"2021-06-05 23:03:13","orig_title":"Rebirth","year":"2020-10-25","translations":["Любительский (многоголосый закадровый) (Синема УС)"],"quality":"webdl","translation":"Любительский (многоголосый закадровый) (Синема УС)","update":"2021-06-06 08:43:37","iframe_src":"//2413.svetacdn.in/si4jsFRrtgrT/movie/50953"},{"id":50952,"title":"Благодать и стойкость","kp_id":"1100554","imdb_id":"tt3910630","world_art_id":null,"type":"movie","add":"2021-06-05 22:59:02","orig_title":"Grace and Grit","year":"2021-06-04","translations":["Любительский (многоголосый закадровый) (AlphaProject)"],"quality":"webdl","translation":"Любительский (многоголосый закадровый) (AlphaProject)","update":"2021-06-06 08:52:22","iframe_src":"//2413.svetacdn.in/si4jsFRrtgrT/movie/50952"},{"id":50950,"title":"В поисках чуда","kp_id":"859127","imdb_id":"tt3552186","world_art_id":null,"type":"movie","add":"2021-06-05 22:54:15","orig_title":"Chasing Wonders","year":"2020-10-23","translations":["Любительский (многоголосый закадровый) (AlphaProject)"],"quality":"webdl","translation":"Любительский (многоголосый закадровый) (AlphaProject)","update":"2021-06-06 08:46:39","iframe_src":"//2413.svetacdn.in/si4jsFRrtgrT/movie/50950"},{"id":50944,"title":"Автострада","kp_id":"79561","imdb_id":"tt0119975","world_art_id":null,"type":"movie","add":"2021-06-05 11:04:07","orig_title":"Quicksilver Highway","year":"1997-01-01","translations":["Профессиональный (двухголосый закадровый)"],"quality":"dvdrip","translation":"Профессиональный (двухголосый закадровый)","update":"2021-06-05 13:54:52","iframe_src":"//2413.svetacdn.in/si4jsFRrtgrT/movie/50944"},{"id":50942,"title":"Бей, барабан!","kp_id":"46055","imdb_id":"tt0174497","world_art_id":null,"type":"movie","add":"2021-06-05 10:28:05","orig_title":"Bey, baraban!","year":"1962-05-20","translations":["Оригинальная дорожка"],"quality":"vhs","translation":"Оригинальная дорожка","update":"2021-06-05 10:51:56","iframe_src":"//2413.svetacdn.in/si4jsFRrtgrT/movie/50942"},{"id":50941,"title":"Алешкина охота","kp_id":"43472","imdb_id":"tt0302256","world_art_id":null,"type":"movie","add":"2021-06-05 10:12:12","orig_title":"Alyoshkina okhota","year":"1966-08-22","translations":["Оригинальная дорожка"],"quality":"tv","translation":"Оригинальная дорожка","update":"2021-06-05 10:53:31","iframe_src":"//2413.svetacdn.in/si4jsFRrtgrT/movie/50941"},{"id":50939,"title":"Инфицированные: самый темный день","kp_id":null,"imdb_id":"tt14412524","world_art_id":null,"type":"movie","add":"2021-06-04 20:39:02","orig_title":"Infected: The Darkest Day","year":"2021-04-23","translations":["Любительский (многоголосый закадровый) (@MUZOBOZ@)"],"quality":"webdl","translation":"Любительский (многоголосый закадровый) (@MUZOBOZ@)","update":"2021-06-05 08:40:08","iframe_src":"//2413.svetacdn.in/si4jsFRrtgrT/movie/50939"},{"id":50938,"title":"Путешествие Химеры","kp_id":"1296931","imdb_id":"tt14251154","world_art_id":null,"type":"movie","add":"2021-06-04 20:37:31","orig_title":"Voyage of the Chimera","year":"2021-04-10","translations":["Любительский (многоголосый закадровый) (Синема УС)"],"quality":"webdl","translation":"Любительский (многоголосый закадровый) (Синема УС)","update":"2021-06-05 08:34:38","iframe_src":"//2413.svetacdn.in/si4jsFRrtgrT/movie/50938"},{"id":50937,"title":"Путешествие к морю","kp_id":"1348818","imdb_id":"tt11015340","world_art_id":null,"type":"movie","add":"2021-06-04 20:35:25","orig_title":"Qin mi lu xing","year":"2019-10-03","translations":["Любительский (двухголосый закадровый) (Колобок)"],"quality":"webdl","translation":"Любительский (двухголосый закадровый) (Колобок)","update":"2021-06-05 08:33:17","iframe_src":"//2413.svetacdn.in/si4jsFRrtgrT/movie/50937"},{"id":50912,"title":"Раненый человек","kp_id":"20953","imdb_id":"tt0084085","world_art_id":null,"type":"movie","add":"2021-06-03 22:02:34","orig_title":"L'homme blessé","year":"1983-05-18","translations":["Любительский (одноголосый закадровый)"],"quality":"dvdrip","translation":"Любительский (одноголосый закадровый)","update":"2021-06-05 09:47:40","iframe_src":"//2413.svetacdn.in/si4jsFRrtgrT/movie/50912"},{"id":50911,"title":"3 мальчика, 1 девочка, 2 свадьбы","kp_id":"340163","imdb_id":"tt0413635","world_art_id":null,"type":"movie","add":"2021-06-03 19:46:34","orig_title":"3 garçons, 1 fille, 2 mariages","year":"2004-02-01","translations":["Любительский (одноголосый закадровый)"],"quality":"dvdrip","translation":"Любительский (одноголосый закадровый)","update":"2021-06-05 09:46:15","iframe_src":"//2413.svetacdn.in/si4jsFRrtgrT/movie/50911"},{"id":46237,"title":"Ты иногда вспоминай","kp_id":"648888","imdb_id":"tt4890758","world_art_id":null,"type":"movie","add":"2020-12-19 17:04:43","orig_title":"Ty inogda vspominay","year":"1978-03-27","translations":["Оригинальная дорожка"],"quality":"sat","translation":"Оригинальная дорожка","update":"2021-06-05 09:43:32","iframe_src":"//2413.svetacdn.in/si4jsFRrtgrT/movie/46237"},{"id":46135,"title":"Скорей бы Рождество","kp_id":"1417855","imdb_id":"tt12766346","world_art_id":null,"type":"movie","add":"2020-12-16 17:37:14","orig_title":"If I Only Had Christmas","year":"2020-11-29","translations":["Профессиональный (многоголосый закадровый) (IVI)","Любительский (многоголосый закадровый) (AlphaProject)"],"quality":"webdl","translation":"Профессиональный (многоголосый закадровый) (IVI)","update":"2021-06-06 09:19:08","iframe_src":"//2413.svetacdn.in/si4jsFRrtgrT/movie/46135"},{"id":18889,"title":"Следующее поколение","kp_id":"1072038","imdb_id":"tt7133686","world_art_id":null,"type":"movie","add":"2018-09-09 23:22:14","orig_title":"Next Gen","year":"2018-09-07","translations":["Полное дублирование","Профессиональный (многоголосый закадровый) (HDrezka Studio)"],"quality":"webdl","translation":"Полное дублирование","update":"2021-06-05 12:01:38","iframe_src":"//2413.svetacdn.in/si4jsFRrtgrT/movie/18889"},{"id":479,"title":"Моя любимая свекровь","kp_id":"994665","imdb_id":null,"world_art_id":null,"type":"serial","add":"2016-09-24 15:05:34","orig_title":"Моя любимая свекровь","year":"2016-09-24","translations":["Оригинальная дорожка"],"seasons_count":1,"episodes_count":4,"episodes":4,"update":"2016-09-26 06:05:58","iframe_src":"//2413.svetacdn.in/si4jsFRrtgrT/tv-series/479"},{"id":475,"title":"Новая жена","kp_id":"843028","imdb_id":null,"world_art_id":null,"type":"serial","add":"2016-09-23 04:54:34","orig_title":"Новая жена","year":"2016-09-21","translations":["Оригинальная дорожка"],"seasons_count":1,"episodes_count":2,"episodes":2,"update":"2016-09-23 11:02:11","iframe_src":"//2413.svetacdn.in/si4jsFRrtgrT/tv-series/475"},{"id":474,"title":"Любить нельзя ненавидеть","kp_id":"943409","imdb_id":null,"world_art_id":null,"type":"serial","add":"2016-09-23 04:49:31","orig_title":"Любить нельзя ненавидеть","year":"2015-12-09","translations":["Оригинальная дорожка"],"seasons_count":1,"episodes_count":8,"episodes":8,"update":"2016-09-23 06:52:39","iframe_src":"//2413.svetacdn.in/si4jsFRrtgrT/tv-series/474"},{"id":473,"title":"Коммуналка","kp_id":"954144","imdb_id":null,"world_art_id":null,"type":"serial","add":"2016-09-23 04:46:48","orig_title":"Коммуналка","year":"2015-12-27","translations":["Оригинальная дорожка"],"seasons_count":1,"episodes_count":4,"episodes":4,"update":"2016-09-23 07:43:49","iframe_src":"//2413.svetacdn.in/si4jsFRrtgrT/tv-series/473"},{"id":468,"title":"Что знает Оливия?","kp_id":"784529","imdb_id":"tt3012698","world_art_id":null,"type":"serial","add":"2016-09-22 06:26:35","orig_title":"Olive Kitteridge","year":"2014-11-02","translations":["Профессиональный (многоголосый закадровый) (SDI Media | Iyuno-SDI Group Russia)"],"seasons_count":1,"episodes_count":4,"episodes":4,"update":"2016-09-22 11:55:43","iframe_src":"//2413.svetacdn.in/si4jsFRrtgrT/tv-series/468"},{"id":467,"title":"Игра","kp_id":"818776","imdb_id":"tt3159736","world_art_id":null,"type":"serial","add":"2016-09-21 13:06:19","orig_title":"The Game","year":"2014-11-05","translations":["Профессиональный (многоголосый закадровый) (ViruseProject)"],"seasons_count":1,"episodes_count":6,"episodes":6,"update":"2016-09-22 10:55:43","iframe_src":"//2413.svetacdn.in/si4jsFRrtgrT/tv-series/467"},{"id":466,"title":"Изгнанники","kp_id":"843210","imdb_id":"tt3508050","world_art_id":null,"type":"serial","add":"2016-09-21 13:01:53","orig_title":"Banished","year":"2015-03-05","translations":["Профессиональный (многоголосый закадровый) (ViruseProject)"],"seasons_count":1,"episodes_count":7,"episodes":7,"update":"2016-09-22 08:39:36","iframe_src":"//2413.svetacdn.in/si4jsFRrtgrT/tv-series/466"},{"id":464,"title":"Ведьма","kp_id":"981320","imdb_id":null,"world_art_id":null,"type":"serial","add":"2016-09-20 05:27:45","orig_title":"Відьма","year":"2016-05-16","translations":["Оригинальная дорожка"],"seasons_count":1,"episodes_count":20,"episodes":20,"update":"2016-09-20 10:46:19","iframe_src":"//2413.svetacdn.in/si4jsFRrtgrT/tv-series/464"},{"id":461,"title":"Случайных встреч не бывает","kp_id":"1006658","imdb_id":null,"world_art_id":null,"type":"serial","add":"2016-09-19 13:41:58","orig_title":"Случайных встреч не бывает","year":"2016-01-01","translations":["Оригинальная дорожка"],"seasons_count":1,"episodes_count":4,"episodes":4,"update":"2016-09-20 06:07:13","iframe_src":"//2413.svetacdn.in/si4jsFRrtgrT/tv-series/461"},{"id":458,"title":"Жертва","kp_id":"819763","imdb_id":"tt3315020","world_art_id":null,"type":"serial","add":"2016-09-19 12:47:13","orig_title":"Prey","year":"2014-04-28","translations":["Профессиональный (многоголосый закадровый) (ViruseProject)"],"seasons_count":2,"episodes_count":6,"episodes":3,"update":"2016-09-20 07:33:59","iframe_src":"//2413.svetacdn.in/si4jsFRrtgrT/tv-series/458"},{"id":457,"title":"Вайнберг","kp_id":"938692","imdb_id":"tt4380968","world_art_id":null,"type":"serial","add":"2016-09-19 09:21:29","orig_title":"Weinberg","year":"2015-10-06","translations":["Профессиональный (многоголосый закадровый) (ViruseProject)"],"seasons_count":1,"episodes_count":6,"episodes":6,"update":"2016-09-21 05:50:07","iframe_src":"//2413.svetacdn.in/si4jsFRrtgrT/tv-series/457"},{"id":456,"title":"Парень с работы","kp_id":"883805","imdb_id":"tt4334446","world_art_id":null,"type":"serial","add":"2016-09-19 09:15:40","orig_title":"Kevin from Work","year":"2015-08-12","translations":["Профессиональный (многоголосый закадровый) (ViruseProject)"],"seasons_count":1,"episodes_count":10,"episodes":10,"update":"2016-09-21 06:45:10","iframe_src":"//2413.svetacdn.in/si4jsFRrtgrT/tv-series/456"},{"id":454,"title":"Бэкстром","kp_id":"838073","imdb_id":"tt2099034","world_art_id":null,"type":"serial","add":"2016-09-19 08:49:20","orig_title":"Backstrom","year":"2015-01-22","translations":["Профессиональный (многоголосый закадровый) (ViruseProject)","Любительский (многоголосый закадровый) (Ultradox)"],"seasons_count":1,"episodes_count":14,"episodes":14,"update":"2016-09-22 08:07:18","iframe_src":"//2413.svetacdn.in/si4jsFRrtgrT/tv-series/454"},{"id":452,"title":"Отцовский инстинкт","kp_id":"702035","imdb_id":null,"world_art_id":null,"type":"serial","add":"2016-09-19 04:09:23","orig_title":"Отцовский инстинкт","year":"2012-09-09","translations":["Оригинальная дорожка"],"seasons_count":1,"episodes_count":4,"episodes":4,"update":"2016-09-19 11:49:57","iframe_src":"//2413.svetacdn.in/si4jsFRrtgrT/tv-series/452"},{"id":451,"title":"Багряное поле","kp_id":"838421","imdb_id":"tt3494220","world_art_id":null,"type":"serial","add":"2016-09-18 16:04:30","orig_title":"The Crimson Field","year":"2014-04-06","translations":["Профессиональный (многоголосый закадровый) (ViruseProject)"],"seasons_count":1,"episodes_count":6,"episodes":6,"update":"2016-09-19 09:42:39","iframe_src":"//2413.svetacdn.in/si4jsFRrtgrT/tv-series/451"},{"id":450,"title":"После многих бед","kp_id":"990841","imdb_id":null,"world_art_id":null,"type":"serial","add":"2016-09-18 15:53:35","orig_title":"После многих бед","year":"2016-09-17","translations":["Оригинальная дорожка"],"seasons_count":1,"episodes_count":2,"episodes":2,"update":"2016-09-19 11:48:17","iframe_src":"//2413.svetacdn.in/si4jsFRrtgrT/tv-series/450"},{"id":436,"title":"Медсестра","kp_id":"999459","imdb_id":null,"world_art_id":null,"type":"serial","add":"2016-09-12 06:14:50","orig_title":"Медсестра","year":"2016-09-12","translations":["Оригинальная дорожка"],"seasons_count":1,"episodes_count":12,"episodes":12,"update":"2016-09-21 05:59:42","iframe_src":"//2413.svetacdn.in/si4jsFRrtgrT/tv-series/436"},{"id":406,"title":"Карина красная","kp_id":"938873","imdb_id":null,"world_art_id":null,"type":"serial","add":"2016-09-04 13:38:12","orig_title":"Карина красная","year":"2016-09-03","translations":["Оригинальная дорожка"],"seasons_count":1,"episodes_count":8,"episodes":8,"update":"2016-09-23 11:54:18","iframe_src":"//2413.svetacdn.in/si4jsFRrtgrT/tv-series/406"},{"id":400,"title":"Один из нас","kp_id":"994458","imdb_id":"tt5149528","world_art_id":null,"type":"serial","add":"2016-09-04 11:40:30","orig_title":"One of Us","year":"2016-08-23","translations":["Профессиональный (многоголосый закадровый) (BaibaKo)"],"seasons_count":1,"episodes_count":4,"episodes":4,"update":"2016-09-21 13:29:42","iframe_src":"//2413.svetacdn.in/si4jsFRrtgrT/tv-series/400"},{"id":305,"title":"Гастролёры","kp_id":"868526","imdb_id":"tt4270458","world_art_id":null,"type":"serial","add":"2016-07-21 15:04:42","orig_title":"Roadies","year":"2016-06-13","translations":["Профессиональный (многоголосый закадровый) (AlexFilm)"],"seasons_count":1,"episodes_count":10,"episodes":10,"update":"2016-09-23 12:05:19","iframe_src":"//2413.svetacdn.in/si4jsFRrtgrT/tv-series/305"}],"current_page":609,"first_page_url":"https://videocdn.tv/api/short?limit=100&api_token=X6EwAUfE5M9xbo7y0Bp0aPf3uXxG2KLL&cache3609=3609&page=1","from":60801,"last_page":720,"last_page_url":"https://videocdn.tv/api/short?limit=100&api_token=X6EwAUfE5M9xbo7y0Bp0aPf3uXxG2KLL&cache3609=3609&page=720","next_page_url":"https://videocdn.tv/api/short?limit=100&api_token=X6EwAUfE5M9xbo7y0Bp0aPf3uXxG2KLL&cache3609=3609&page=610","path":"https://videocdn.tv/api/short","per_page":100,"prev_page_url":"https://videocdn.tv/api/short?limit=100&api_token=X6EwAUfE5M9xbo7y0Bp0aPf3uXxG2KLL&cache3609=3609&page=608","to":60840,"total":71934}