{"result":true,"data":[{"id":53474,"title":"Заражение","kp_id":"89877","imdb_id":"tt0082000","world_art_id":null,"type":"movie","add":"2021-09-28 10:25:18","orig_title":"Contamination","year":"1980-08-02","translations":["Авторский (одноголосый закадровый) (Котов Вячеслав)"],"quality":"bd","translation":"Авторский (одноголосый закадровый) (Котов Вячеслав)","update":"2021-09-28 19:24:35","iframe_src":"//2413.svetacdn.in/si4jsFRrtgrT/movie/53474"},{"id":53471,"title":"Все делов в возрасте","kp_id":"1101885","imdb_id":"tt5722280","world_art_id":null,"type":"movie","add":"2021-09-28 08:26:19","orig_title":"About an Age","year":"2018-01-01","translations":["Любительский (многоголосый закадровый) (Синема УС)"],"quality":"webdl","translation":"Любительский (многоголосый закадровый) (Синема УС)","update":"2021-09-28 11:52:45","iframe_src":"//2413.svetacdn.in/si4jsFRrtgrT/movie/53471"},{"id":53470,"title":"Объятия","kp_id":null,"imdb_id":"tt14177550","world_art_id":null,"type":"movie","add":"2021-09-28 08:25:01","orig_title":"Abraço A Única Saída: Unir-se","year":"2020-10-15","translations":["Любительский (многоголосый закадровый) (Синема УС)"],"quality":"webdl","translation":"Любительский (многоголосый закадровый) (Синема УС)","update":"2021-09-28 11:52:27","iframe_src":"//2413.svetacdn.in/si4jsFRrtgrT/movie/53470"},{"id":53469,"title":"Аншельский город","kp_id":"1278126","imdb_id":"tt10426054","world_art_id":null,"type":"movie","add":"2021-09-28 08:23:43","orig_title":"Angel City","year":"2019-10-18","translations":["Любительский (многоголосый закадровый) (Синема УС)"],"quality":"webdl","translation":"Любительский (многоголосый закадровый) (Синема УС)","update":"2021-09-28 11:52:12","iframe_src":"//2413.svetacdn.in/si4jsFRrtgrT/movie/53469"},{"id":53467,"title":"Хищник","kp_id":"2003033","imdb_id":"tt12393216","world_art_id":null,"type":"movie","add":"2021-09-28 08:20:10","orig_title":"Il predatore","year":"2020-01-01","translations":["Любительский (многоголосый закадровый) (Синема УС)"],"quality":"webdl","translation":"Любительский (многоголосый закадровый) (Синема УС)","update":"2021-09-28 11:51:57","iframe_src":"//2413.svetacdn.in/si4jsFRrtgrT/movie/53467"},{"id":53466,"title":"В другой жизни","kp_id":"1073052","imdb_id":"tt6809036","world_art_id":null,"type":"movie","add":"2021-09-28 08:16:04","orig_title":"In Another Life","year":"2017-09-26","translations":["Любительский (многоголосый закадровый) (Синема УС)"],"quality":"webdl","translation":"Любительский (многоголосый закадровый) (Синема УС)","update":"2021-09-28 11:51:44","iframe_src":"//2413.svetacdn.in/si4jsFRrtgrT/movie/53466"},{"id":53465,"title":"Красная земля","kp_id":"1083686","imdb_id":"tt7548328","world_art_id":null,"type":"movie","add":"2021-09-28 08:08:00","orig_title":"Red Land (Rosso Istria)","year":"2018-09-07","translations":["Любительский (многоголосый закадровый) (Синема УС)"],"quality":"webdl","translation":"Любительский (многоголосый закадровый) (Синема УС)","update":"2021-09-28 11:51:25","iframe_src":"//2413.svetacdn.in/si4jsFRrtgrT/movie/53465"},{"id":53464,"title":"Обнаженная шпора","kp_id":"8465","imdb_id":"tt0044953","world_art_id":null,"type":"movie","add":"2021-09-28 06:34:20","orig_title":"The Naked Spur","year":"1953-01-30","translations":["Профессиональный (многоголосый закадровый) (Светла)","[EN] Original (English)"],"quality":"bd","translation":"Профессиональный (многоголосый закадровый) (Светла)","update":"2021-09-28 11:32:00","iframe_src":"//2413.svetacdn.in/si4jsFRrtgrT/movie/53464"},{"id":53463,"title":"Дзокки","kp_id":"4477983","imdb_id":"tt14444620","world_art_id":null,"type":"movie","add":"2021-09-28 05:36:45","orig_title":"Zokki","year":"2020-11-04","translations":["Любительский (двухголосый закадровый) (АрхиAsia)"],"quality":"webdl","translation":"Любительский (двухголосый закадровый) (АрхиAsia)","update":"2021-09-28 09:26:04","iframe_src":"//2413.svetacdn.in/si4jsFRrtgrT/movie/53463"},{"id":53461,"title":"Девушки старого города","kp_id":"1271089","imdb_id":"tt10393440","world_art_id":null,"type":"movie","add":"2021-09-27 18:46:35","orig_title":"Bao Li Tu Zi","year":"2020-11-01","translations":["Любительский (многоголосый закадровый) (Синема УС)"],"quality":"webdl","translation":"Любительский (многоголосый закадровый) (Синема УС)","update":"2021-09-28 15:33:52","iframe_src":"//2413.svetacdn.in/si4jsFRrtgrT/movie/53461"},{"id":53457,"title":"Паника. Часть первая","kp_id":"1431593","imdb_id":"tt12833810","world_art_id":null,"type":"movie","add":"2021-09-27 18:30:47","orig_title":"Pánico Volumen 1","year":"2020-10-12","translations":["Любительский (многоголосый закадровый) (AlphaProject)"],"quality":"webdl","translation":"Любительский (многоголосый закадровый) (AlphaProject)","update":"2021-09-28 08:44:18","iframe_src":"//2413.svetacdn.in/si4jsFRrtgrT/movie/53457"},{"id":53456,"title":"Меня зовут Багдад","kp_id":"1350848","imdb_id":"tt11783108","world_art_id":null,"type":"movie","add":"2021-09-27 18:29:02","orig_title":"Meu Nome é Bagdá","year":"2020-02-25","translations":["Любительский (многоголосый закадровый) (Синема УС)"],"quality":"webdl","translation":"Любительский (многоголосый закадровый) (Синема УС)","update":"2021-09-28 12:20:24","iframe_src":"//2413.svetacdn.in/si4jsFRrtgrT/movie/53456"},{"id":53439,"title":"Американское совершенство","kp_id":"4629","imdb_id":"tt0118603","world_art_id":null,"type":"movie","add":"2021-09-27 12:22:26","orig_title":"American Perfekt","year":"1997-09-06","translations":["Авторский (одноголосый закадровый) (Гаврилов Андрей)","[EN] Original (English)"],"quality":"webdl","translation":"Авторский (одноголосый закадровый) (Гаврилов Андрей)","update":"2021-09-28 11:39:39","iframe_src":"//2413.svetacdn.in/si4jsFRrtgrT/movie/53439"},{"id":53077,"title":"Блокадный дневник","kp_id":"1346362","imdb_id":"tt13723712","world_art_id":null,"type":"movie","add":"2021-09-12 16:19:01","orig_title":"Blokadnyy dnevnik","year":"2021-09-08","translations":["Оригинальная дорожка","Оригинальная дорожка"],"quality":"ts","translation":"Оригинальная дорожка","update":"2021-09-28 09:23:58","iframe_src":"//2413.svetacdn.in/si4jsFRrtgrT/movie/53077"},{"id":48099,"title":"Носильщик №1","kp_id":"1263549","imdb_id":"tt10280276","world_art_id":null,"type":"movie","add":"2021-02-21 09:56:53","orig_title":"Coolie No. 1","year":"2020-12-25","translations":["Любительский (многоголосый закадровый) (OnisFilms)","Любительский (многоголосый закадровый) (Honey&Haseena)","Любительский (многоголосый закадровый) (FanStudio)","Профессиональный (многоголосый закадровый) (ZEE TV)"],"quality":"webdl","translation":"Любительский (многоголосый закадровый) (OnisFilms)","update":"2021-09-28 11:33:16","iframe_src":"//2413.svetacdn.in/si4jsFRrtgrT/movie/48099"},{"id":5655,"title":"Грейспойнт","kp_id":"818890","imdb_id":"tt3435532","world_art_id":null,"type":"serial","add":"2019-11-05 20:11:09","orig_title":"Gracepoint","year":"2014-10-02","translations":["Профессиональный (многоголосый закадровый) (NewStudio)"],"seasons_count":1,"episodes_count":10,"episodes":10,"update":"2019-11-07 20:22:58","iframe_src":"//2413.svetacdn.in/si4jsFRrtgrT/tv-series/5655"},{"id":5654,"title":"Вторжение паразитов","kp_id":"592094","imdb_id":"tt1820966","world_art_id":null,"type":"serial","add":"2019-11-05 20:05:45","orig_title":"Infested!","year":"2011-01-09","translations":["Профессиональный (одноголосый закадровый)"],"seasons_count":1,"episodes_count":3,"episodes":3,"update":"2019-11-07 13:29:10","iframe_src":"//2413.svetacdn.in/si4jsFRrtgrT/tv-series/5654"},{"id":5652,"title":"Красные браслеты","kp_id":"838540","imdb_id":"tt3576794","world_art_id":null,"type":"serial","add":"2019-11-05 19:44:51","orig_title":"Red Band Society","year":"2014-09-17","translations":["Полное дублирование (Невафильм | Нева-1)"],"seasons_count":1,"episodes_count":13,"episodes":13,"update":"2019-11-07 20:08:44","iframe_src":"//2413.svetacdn.in/si4jsFRrtgrT/tv-series/5652"},{"id":5651,"title":"Раш","kp_id":"819374","imdb_id":"tt3413236","world_art_id":null,"type":"serial","add":"2019-11-05 19:41:50","orig_title":"Rush","year":"2014-07-17","translations":["Профессиональный (многоголосый закадровый) (IdeaFilm)"],"seasons_count":1,"episodes_count":10,"episodes":10,"update":"2019-11-07 13:26:51","iframe_src":"//2413.svetacdn.in/si4jsFRrtgrT/tv-series/5651"},{"id":5650,"title":"Те, кто убивают","kp_id":"661763","imdb_id":"tt2188931","world_art_id":null,"type":"serial","add":"2019-11-05 19:37:52","orig_title":"Those Who Kill","year":"2014-03-03","translations":["Профессиональный (многоголосый закадровый) (ViruseProject)"],"seasons_count":1,"episodes_count":10,"episodes":10,"update":"2019-11-07 13:21:22","iframe_src":"//2413.svetacdn.in/si4jsFRrtgrT/tv-series/5650"},{"id":5649,"title":"Курт Сеит и Александра","kp_id":"821526","imdb_id":"tt3467380","world_art_id":null,"type":"serial","add":"2019-11-05 19:32:47","orig_title":"Kurt Seyit ve Sura","year":"2014-03-04","translations":["Полное дублирование (СВ-Дубль)"],"seasons_count":2,"episodes_count":21,"episodes":8,"update":"2019-11-07 13:15:41","iframe_src":"//2413.svetacdn.in/si4jsFRrtgrT/tv-series/5649"},{"id":5643,"title":"Три полуграции","kp_id":"256464","imdb_id":"tt3257142","world_art_id":null,"type":"serial","add":"2019-11-05 13:57:22","orig_title":"Tri polugratsii","year":"2006-01-01","translations":["Оригинальная дорожка"],"seasons_count":1,"episodes_count":4,"episodes":4,"update":"2019-11-07 12:52:44","iframe_src":"//2413.svetacdn.in/si4jsFRrtgrT/tv-series/5643"},{"id":5641,"title":"Верни меня","kp_id":"880706","imdb_id":null,"world_art_id":null,"type":"serial","add":"2019-11-05 13:54:58","orig_title":"Верни меня","year":"2015-05-30","translations":["Оригинальная дорожка"],"seasons_count":1,"episodes_count":2,"episodes":2,"update":"2019-11-07 12:50:11","iframe_src":"//2413.svetacdn.in/si4jsFRrtgrT/tv-series/5641"},{"id":5640,"title":"Телеведущие","kp_id":"733473","imdb_id":"tt2166772","world_art_id":null,"type":"serial","add":"2019-11-05 13:50:04","orig_title":"Newsreaders","year":"2013-01-17","translations":["Профессиональный (двухголосый закадровый) (Кубик в Кубе | Kubik³)"],"seasons_count":2,"episodes_count":16,"episodes":6,"update":"2019-11-07 12:48:46","iframe_src":"//2413.svetacdn.in/si4jsFRrtgrT/tv-series/5640"},{"id":5634,"title":"Солдаты. Новый год, твою дивизию!","kp_id":"470958","imdb_id":null,"world_art_id":null,"type":"serial","add":"2019-11-05 11:55:49","orig_title":"Солдаты. Новый год, твою дивизию!","year":"2007-12-31","translations":["Оригинальная дорожка"],"seasons_count":1,"episodes_count":2,"episodes":2,"update":"2019-11-07 12:34:59","iframe_src":"//2413.svetacdn.in/si4jsFRrtgrT/tv-series/5634"},{"id":5632,"title":"Одиссей","kp_id":"77183","imdb_id":"tt0118414","world_art_id":null,"type":"serial","add":"2019-11-05 11:48:08","orig_title":"The Odyssey","year":"1997-05-18","translations":["Профессиональный (многоголосый закадровый)"],"seasons_count":1,"episodes_count":2,"episodes":2,"update":"2019-11-07 12:33:48","iframe_src":"//2413.svetacdn.in/si4jsFRrtgrT/tv-series/5632"},{"id":5609,"title":"Щенок по кличке Скуби Ду","kp_id":"229241","imdb_id":"tt0094531","world_art_id":null,"type":"serial","add":"2019-11-02 13:30:42","orig_title":"A Pup Named Scooby-Doo","year":"1988-09-10","translations":["Полное дублирование (Пифагор)"],"seasons_count":4,"episodes_count":27,"episodes":3,"update":"2019-11-08 06:16:55","iframe_src":"//2413.svetacdn.in/si4jsFRrtgrT/tv-series/5609"},{"id":5608,"title":"13 привидений Скуби-Ду","kp_id":"229449","imdb_id":"tt0088628","world_art_id":null,"type":"serial","add":"2019-11-02 13:21:22","orig_title":"The 13 Ghosts of Scooby-Doo","year":"1985-09-07","translations":["Полное дублирование"],"seasons_count":1,"episodes_count":13,"episodes":13,"update":"2019-11-08 05:30:53","iframe_src":"//2413.svetacdn.in/si4jsFRrtgrT/tv-series/5608"},{"id":5607,"title":"Новые загадки для Скуби-Ду","kp_id":"229840","imdb_id":"tt0086767","world_art_id":null,"type":"serial","add":"2019-11-02 12:54:51","orig_title":"The New Scooby-Doo Mysteries","year":"1983-09-10","translations":["Полное дублирование"],"seasons_count":2,"episodes_count":26,"episodes":13,"update":"2019-11-07 13:02:20","iframe_src":"//2413.svetacdn.in/si4jsFRrtgrT/tv-series/5607"},{"id":5606,"title":"Новое шоу Скуби и Скрэппи Ду","kp_id":"229444","imdb_id":"tt0084970","world_art_id":null,"type":"serial","add":"2019-11-02 12:46:14","orig_title":"The New Scooby and Scrappy-Doo Show","year":"1983-09-10","translations":["Полное дублирование"],"seasons_count":1,"episodes_count":13,"episodes":13,"update":"2019-11-07 12:58:11","iframe_src":"//2413.svetacdn.in/si4jsFRrtgrT/tv-series/5606"},{"id":5605,"title":"Скуби Ду: Забавные состязания «Всех мультсупер звезд»","kp_id":"94695","imdb_id":"tt0181941","world_art_id":null,"type":"serial","add":"2019-11-02 12:32:18","orig_title":"Scooby's All Star Laff-A-Lympics","year":"1977-09-10","translations":["Полное дублирование"],"seasons_count":2,"episodes_count":24,"episodes":8,"update":"2019-11-07 12:51:22","iframe_src":"//2413.svetacdn.in/si4jsFRrtgrT/tv-series/5605"},{"id":5604,"title":"Аврора","kp_id":"578858","imdb_id":"tt1807106","world_art_id":null,"type":"serial","add":"2019-11-02 11:59:25","orig_title":"Aurora","year":"2010-11-01","translations":["Профессиональный (многоголосый закадровый)"],"seasons_count":1,"episodes_count":135,"episodes":135,"update":"2019-11-05 21:26:40","iframe_src":"//2413.svetacdn.in/si4jsFRrtgrT/tv-series/5604"},{"id":5597,"title":"Прапорщик Шматко, или Ё-моё","kp_id":"428696","imdb_id":"tt10823740","world_art_id":null,"type":"serial","add":"2019-11-01 16:58:14","orig_title":"Praporshchik Shmatko, ili O-moyo","year":"2007-01-01","translations":["Оригинальная дорожка"],"seasons_count":1,"episodes_count":16,"episodes":16,"update":"2019-11-05 07:57:42","iframe_src":"//2413.svetacdn.in/si4jsFRrtgrT/tv-series/5597"},{"id":5578,"title":"Не беспокойтесь за меня","kp_id":"1046124","imdb_id":"tt6407102","world_art_id":null,"type":"serial","add":"2019-10-30 10:27:54","orig_title":"Benim Için Üzülme","year":"2012-11-06","translations":["Любительский (одноголосый закадровый)"],"seasons_count":1,"episodes_count":32,"episodes":32,"update":"2019-11-05 10:12:42","iframe_src":"//2413.svetacdn.in/si4jsFRrtgrT/tv-series/5578"},{"id":32232,"title":"Уильям. Последний неандерталец","kp_id":"1026795","imdb_id":"tt6316816","world_art_id":null,"type":"movie","add":"2019-10-22 07:59:40","orig_title":"William","year":"2019-04-05","translations":["Любительский (многоголосый закадровый) (Синема УС)","Профессиональный (многоголосый закадровый) (IVI)","[EN] Original (English)"],"quality":"webdl","translation":"Любительский (многоголосый закадровый) (Синема УС)","update":"2021-09-28 11:37:04","iframe_src":"//2413.svetacdn.in/si4jsFRrtgrT/movie/32232"},{"id":5116,"title":"Тёмный кристалл: Эпоха сопротивления","kp_id":"1045246","imdb_id":"tt6905542","world_art_id":null,"type":"serial","add":"2019-08-30 12:24:57","orig_title":"The Dark Crystal: Age of Resistance","year":"2019-08-30","translations":["Полное дублирование (Пифагор)","Профессиональный (многоголосый закадровый) (NewStudio)","Профессиональный (многоголосый закадровый) (AlexFilm)","Профессиональный (многоголосый закадровый) (HDrezka Studio)"],"seasons_count":1,"episodes_count":10,"episodes":10,"update":"2019-11-07 14:34:39","iframe_src":"//2413.svetacdn.in/si4jsFRrtgrT/tv-series/5116"},{"id":10432,"title":"Последние дни Земли","kp_id":"948901","imdb_id":"tt4290974","world_art_id":null,"type":"movie","add":"2017-03-20 22:22:28","orig_title":"Taking Earth","year":"2017-03-17","translations":["Любительский (многоголосый закадровый) (Синема УС)","Профессиональный (многоголосый закадровый) (IVI)","[EN] Original (English)"],"quality":"webdl","translation":"Любительский (многоголосый закадровый) (Синема УС)","update":"2021-09-28 11:38:15","iframe_src":"//2413.svetacdn.in/si4jsFRrtgrT/movie/10432"},{"id":9501,"title":"Белая масаи","kp_id":"110917","imdb_id":"tt0436889","world_art_id":null,"type":"movie","add":"2017-02-07 13:31:32","orig_title":"Die Weisse Massai","year":"2005-09-14","translations":["Профессиональный (двухголосый закадровый) (Elrom)","Профессиональный (двухголосый закадровый) (Elrom)"],"quality":"dvdrip","translation":"Профессиональный (двухголосый закадровый) (Elrom)","update":"2021-09-28 11:35:04","iframe_src":"//2413.svetacdn.in/si4jsFRrtgrT/movie/9501"},{"id":5850,"title":"Переполох в общаге","kp_id":"21502","imdb_id":"tt0362511","world_art_id":null,"type":"movie","add":"2016-10-04 18:30:12","orig_title":"Dorm Daze","year":"2003-09-26","translations":["Полное дублирование","Полное дублирование","Авторский (одноголосый закадровый) (Визгунов Сергей)","[EN] Original (English)"],"quality":"bd","translation":"Полное дублирование","update":"2021-09-28 14:36:10","iframe_src":"//2413.svetacdn.in/si4jsFRrtgrT/movie/5850"},{"id":5445,"title":"Сестричка, действуй","kp_id":"6558","imdb_id":"tt0105417","world_art_id":null,"type":"movie","add":"2016-09-23 09:02:38","orig_title":"Sister Act","year":"1992-05-29","translations":["Профессиональный (многоголосый закадровый)","Авторский (одноголосый закадровый) (Гаврилов Андрей)","[EN] Original (English)","Профессиональный (двухголосый закадровый) (НТВ)","Профессиональный (двухголосый закадровый) (Первый канал | ОРТ)","Профессиональный (многоголосый закадровый)","Авторский (одноголосый закадровый) (Горчаков Василий)"],"quality":"bd","translation":"Профессиональный (многоголосый закадровый)","update":"2021-09-28 11:28:57","iframe_src":"//2413.svetacdn.in/si4jsFRrtgrT/movie/5445"}],"current_page":428,"first_page_url":"https://videocdn.tv/api/short?limit=100&api_token=X6EwAUfE5M9xbo7y0Bp0aPf3uXxG2KLL&cache3428=3428&page=1","from":42701,"last_page":719,"last_page_url":"https://videocdn.tv/api/short?limit=100&api_token=X6EwAUfE5M9xbo7y0Bp0aPf3uXxG2KLL&cache3428=3428&page=719","next_page_url":"https://videocdn.tv/api/short?limit=100&api_token=X6EwAUfE5M9xbo7y0Bp0aPf3uXxG2KLL&cache3428=3428&page=429","path":"https://videocdn.tv/api/short","per_page":100,"prev_page_url":"https://videocdn.tv/api/short?limit=100&api_token=X6EwAUfE5M9xbo7y0Bp0aPf3uXxG2KLL&cache3428=3428&page=427","to":42740,"total":71893}