{"result":true,"data":[{"id":44060,"title":"Для тех, кто не читает меня","kp_id":"1220305","imdb_id":"tt9327584","world_art_id":null,"type":"movie","add":"2020-10-02 07:55:46","orig_title":"À tous ceux qui ne me lisent pas","year":"2018-11-23","translations":["Любительский (многоголосый закадровый) (Синема УС)"],"quality":"webdl","translation":"Любительский (многоголосый закадровый) (Синема УС)","update":"2020-10-02 11:11:54","iframe_src":"//2413.svetacdn.in/71tsRs29n5tZ/movie/44060"},{"id":44058,"title":"Лондон Конфеденциально","kp_id":"1402962","imdb_id":"tt12929738","world_art_id":null,"type":"movie","add":"2020-10-01 22:14:28","orig_title":"London Confidental","year":"2020-09-18","translations":["Любительский (двухголосый закадровый) (OnisFilms)"],"quality":"webdl","translation":"Любительский (двухголосый закадровый) (OnisFilms)","update":"2020-10-02 07:22:35","iframe_src":"//2413.svetacdn.in/71tsRs29n5tZ/movie/44058"},{"id":44054,"title":"Черкассы","kp_id":"1115313","imdb_id":null,"world_art_id":null,"type":"movie","add":"2020-10-01 20:18:55","orig_title":"Cherkassy","year":"2020-01-01","translations":["Оригинальная дорожка"],"quality":"webdl","translation":"Оригинальная дорожка","update":"2020-10-02 05:53:58","iframe_src":"//2413.svetacdn.in/71tsRs29n5tZ/movie/44054"},{"id":44031,"title":"Все обо мне","kp_id":"6823","imdb_id":"tt0118586","world_art_id":null,"type":"movie","add":"2020-10-01 11:34:55","orig_title":"All Over Me","year":"1997-02-01","translations":["Авторский (одноголосый закадровый) (Карцев Пётр)"],"quality":"dvdrip","translation":"Авторский (одноголосый закадровый) (Карцев Пётр)","update":"2020-10-02 07:26:25","iframe_src":"//2413.svetacdn.in/71tsRs29n5tZ/movie/44031"},{"id":44030,"title":"Восстание","kp_id":"144070","imdb_id":"tt0312647","world_art_id":null,"type":"movie","add":"2020-10-01 11:29:39","orig_title":"Dôran","year":"1980-01-15","translations":["Любительский (двухголосый закадровый)"],"quality":"bd","translation":"Любительский (двухголосый закадровый)","update":"2020-10-02 07:25:00","iframe_src":"//2413.svetacdn.in/71tsRs29n5tZ/movie/44030"},{"id":44029,"title":"Агент президента","kp_id":"3189","imdb_id":"tt0029662","world_art_id":null,"type":"movie","add":"2020-10-01 11:27:41","orig_title":"This Is My Affair","year":"1937-05-27","translations":["Профессиональный (одноголосый закадровый)"],"quality":"dvdrip","translation":"Профессиональный (одноголосый закадровый)","update":"2020-10-01 16:05:13","iframe_src":"//2413.svetacdn.in/71tsRs29n5tZ/movie/44029"},{"id":44028,"title":"Запрещённые игры","kp_id":"159019","imdb_id":"tt0043686","world_art_id":null,"type":"movie","add":"2020-10-01 08:33:05","orig_title":"Jeux interdits","year":"1952-05-09","translations":["Авторский (одноголосый закадровый) (Сербин Юрий)"],"quality":"bd","translation":"Авторский (одноголосый закадровый) (Сербин Юрий)","update":"2020-10-01 12:03:34","iframe_src":"//2413.svetacdn.in/71tsRs29n5tZ/movie/44028"},{"id":44027,"title":"Ответ","kp_id":"1239307","imdb_id":"tt9654830","world_art_id":null,"type":"movie","add":"2020-10-01 07:11:47","orig_title":"The Answer","year":"2018-11-11","translations":["Любительский (многоголосый закадровый) (Синема УС)"],"quality":"webdl","translation":"Любительский (многоголосый закадровый) (Синема УС)","update":"2020-10-01 17:20:56","iframe_src":"//2413.svetacdn.in/71tsRs29n5tZ/movie/44027"},{"id":44026,"title":"Спираль","kp_id":"1213815","imdb_id":"tt9247314","world_art_id":null,"type":"movie","add":"2020-10-01 07:10:45","orig_title":"Spiral","year":"2019-08-25","translations":["Любительский (многоголосый закадровый) (Синема УС)"],"quality":"webdl","translation":"Любительский (многоголосый закадровый) (Синема УС)","update":"2020-10-01 12:06:55","iframe_src":"//2413.svetacdn.in/71tsRs29n5tZ/movie/44026"},{"id":44025,"title":"Кошмарный отпуск","kp_id":"1189212","imdb_id":"tt8917930","world_art_id":null,"type":"movie","add":"2020-10-01 07:07:40","orig_title":"This Teacher","year":"2018-09-22","translations":["Любительский (многоголосый закадровый) (Синема УС)"],"quality":"webdl","translation":"Любительский (многоголосый закадровый) (Синема УС)","update":"2020-10-01 12:05:27","iframe_src":"//2413.svetacdn.in/71tsRs29n5tZ/movie/44025"},{"id":44024,"title":"Прогулка с собакой","kp_id":"1008992","imdb_id":"tt6439776","world_art_id":null,"type":"movie","add":"2020-10-01 07:05:52","orig_title":"Walking the Dog","year":"2017-02-04","translations":["Любительский (многоголосый закадровый) (Синема УС)"],"quality":"hdtv","translation":"Любительский (многоголосый закадровый) (Синема УС)","update":"2020-10-01 12:02:34","iframe_src":"//2413.svetacdn.in/71tsRs29n5tZ/movie/44024"},{"id":44022,"title":"Мастер и Маргарита","kp_id":"62719","imdb_id":"tt0068894","world_art_id":null,"type":"movie","add":"2020-10-01 06:46:51","orig_title":"Majstor i Margarita","year":"1972-07-15","translations":["Любительский (одноголосый закадровый)"],"quality":"bd","translation":"Любительский (одноголосый закадровый)","update":"2020-10-01 15:05:03","iframe_src":"//2413.svetacdn.in/71tsRs29n5tZ/movie/44022"},{"id":44021,"title":"Котел","kp_id":"1019273","imdb_id":"tt6088258","world_art_id":null,"type":"movie","add":"2020-10-01 06:37:07","orig_title":"Kotyol","year":"2019-11-24","translations":["Оригинальная дорожка"],"quality":"webdl","translation":"Оригинальная дорожка","update":"2020-10-01 10:13:39","iframe_src":"//2413.svetacdn.in/71tsRs29n5tZ/movie/44021"},{"id":44020,"title":"Напоказ","kp_id":"1266380","imdb_id":"tt9675786","world_art_id":null,"type":"movie","add":"2020-09-30 22:27:08","orig_title":"Les apparences","year":"2020-09-01","translations":["Любительский (многоголосый закадровый) (Синема УС)"],"quality":"ts","translation":"Любительский (многоголосый закадровый) (Синема УС)","update":"2020-10-01 04:30:38","iframe_src":"//2413.svetacdn.in/71tsRs29n5tZ/movie/44020"},{"id":44018,"title":"Рабы любви","kp_id":"1346631","imdb_id":"tt11754464","world_art_id":null,"type":"movie","add":"2020-09-30 22:22:23","orig_title":"Bucin","year":"2020-09-18","translations":["Любительский (многоголосый закадровый) (Синема УС)"],"quality":"webdl","translation":"Любительский (многоголосый закадровый) (Синема УС)","update":"2020-10-01 04:29:05","iframe_src":"//2413.svetacdn.in/71tsRs29n5tZ/movie/44018"},{"id":44005,"title":"Образцовая гражданка: цена модельной внешности","kp_id":"1255072","imdb_id":"tt5446820","world_art_id":null,"type":"movie","add":"2020-09-30 20:04:07","orig_title":"Model Citizen","year":"2020-01-03","translations":["Любительский (многоголосый закадровый) (Синема УС)"],"quality":"hdtv","translation":"Любительский (многоголосый закадровый) (Синема УС)","update":"2020-10-01 07:40:06","iframe_src":"//2413.svetacdn.in/71tsRs29n5tZ/movie/44005"},{"id":43378,"title":"Шугалей 2","kp_id":"1392589","imdb_id":null,"world_art_id":null,"type":"movie","add":"2020-09-10 10:11:47","orig_title":"Shugaley 2","year":"2020-08-10","translations":["Оригинальная дорожка","Оригинальная дорожка"],"quality":"hdtv","translation":"Оригинальная дорожка","update":"2020-10-01 10:37:20","iframe_src":"//2413.svetacdn.in/71tsRs29n5tZ/movie/43378"},{"id":42877,"title":"Красотка в ударе","kp_id":"1291182","imdb_id":"tt10943214","world_art_id":null,"type":"movie","add":"2020-08-28 13:35:17","orig_title":"Krasotka!","year":"2020-08-13","translations":["Оригинальная дорожка","Оригинальная дорожка"],"quality":"ts","translation":"Оригинальная дорожка","update":"2020-10-01 09:43:16","iframe_src":"//2413.svetacdn.in/71tsRs29n5tZ/movie/42877"},{"id":18470,"title":"На скамейке запасных","kp_id":"920231","imdb_id":"tt4779344","world_art_id":null,"type":"movie","add":"2018-08-22 00:10:06","orig_title":"Rounding Third","year":"2018-08-17","translations":["Любительский (многоголосый закадровый) (Синема УС)","Профессиональный (многоголосый закадровый) (HDrezka Studio)"],"quality":"webdl","translation":"Любительский (многоголосый закадровый) (Синема УС)","update":"2020-10-01 09:08:45","iframe_src":"//2413.svetacdn.in/71tsRs29n5tZ/movie/18470"},{"id":5919,"title":"Ночь страха","kp_id":"12345","imdb_id":"tt0089175","world_art_id":null,"type":"movie","add":"2016-10-06 15:29:09","orig_title":"Fright Night","year":"1985-08-02","translations":["Профессиональный (многоголосый закадровый)","Авторский (одноголосый закадровый) (Кузнецов Сергей)","Авторский (одноголосый закадровый) (Володарский Леонид)","[EN] Original (English)","Любительский (одноголосый закадровый) (RussianGuy27 | Сергеев Сергей)","Профессиональный (многоголосый закадровый) (СТС)"],"quality":"bd","translation":"Профессиональный (многоголосый закадровый)","update":"2020-10-02 12:10:37","iframe_src":"//2413.svetacdn.in/71tsRs29n5tZ/movie/5919"}],"current_page":992,"first_page_url":"https://videocdn.tv/api/short?limit=100&api_token=EnbO9h8pv1VyjbCJhg0WM9nG259n7mtz&cache3992=3992&page=1","from":99101,"last_page":718,"last_page_url":"https://videocdn.tv/api/short?limit=100&api_token=EnbO9h8pv1VyjbCJhg0WM9nG259n7mtz&cache3992=3992&page=718","next_page_url":null,"path":"https://videocdn.tv/api/short","per_page":100,"prev_page_url":"https://videocdn.tv/api/short?limit=100&api_token=EnbO9h8pv1VyjbCJhg0WM9nG259n7mtz&cache3992=3992&page=991","to":99120,"total":71735}