{"result":true,"data":[{"id":43831,"title":"От дождя до дождя","kp_id":"584610","imdb_id":null,"world_art_id":null,"type":"movie","add":"2020-09-24 18:44:36","orig_title":"От дождя до дождя","year":"1990-01-01","translations":["Оригинальная дорожка"],"quality":"tv","translation":"Оригинальная дорожка","update":"2020-09-25 11:45:20","iframe_src":"//83.svetacdn.in/PfJ50H0ZBPg3/movie/43831"},{"id":43830,"title":"Парк","kp_id":"137906","imdb_id":"tt0452370","world_art_id":null,"type":"movie","add":"2020-09-24 18:39:11","orig_title":"Park","year":"1966-01-01","translations":["Оригинальная дорожка"],"quality":"dvdrip","translation":"Оригинальная дорожка","update":"2020-09-25 11:38:34","iframe_src":"//83.svetacdn.in/PfJ50H0ZBPg3/movie/43830"},{"id":43829,"title":"Парк культуры","kp_id":"627278","imdb_id":null,"world_art_id":null,"type":"movie","add":"2020-09-24 18:32:38","orig_title":"Парк культуры","year":"1988-01-01","translations":["Оригинальная дорожка"],"quality":"sat","translation":"Оригинальная дорожка","update":"2020-09-25 11:37:35","iframe_src":"//83.svetacdn.in/PfJ50H0ZBPg3/movie/43829"},{"id":43828,"title":"Песенка для всех","kp_id":"647475","imdb_id":null,"world_art_id":null,"type":"movie","add":"2020-09-24 18:27:33","orig_title":"Песенка для всех","year":"1985-01-01","translations":["Оригинальная дорожка"],"quality":"dvdrip","translation":"Оригинальная дорожка","update":"2020-09-25 11:36:25","iframe_src":"//83.svetacdn.in/PfJ50H0ZBPg3/movie/43828"},{"id":43827,"title":"Петушок и курочка","kp_id":"912286","imdb_id":"tt4626940","world_art_id":null,"type":"movie","add":"2020-09-24 17:27:53","orig_title":"Petushok i kurochka","year":"1990-01-01","translations":["Оригинальная дорожка"],"quality":"dvdrip","translation":"Оригинальная дорожка","update":"2020-09-25 11:34:12","iframe_src":"//83.svetacdn.in/PfJ50H0ZBPg3/movie/43827"},{"id":43826,"title":"Петух и краски","kp_id":"257993","imdb_id":"tt2262094","world_art_id":null,"type":"movie","add":"2020-09-24 17:21:17","orig_title":"Petukh i kraski","year":"1964-01-01","translations":["Оригинальная дорожка"],"quality":"dvdrip","translation":"Оригинальная дорожка","update":"2020-09-25 11:29:54","iframe_src":"//83.svetacdn.in/PfJ50H0ZBPg3/movie/43826"},{"id":43825,"title":"Планета 888","kp_id":"422780","imdb_id":"tt3127836","world_art_id":null,"type":"movie","add":"2020-09-24 17:17:36","orig_title":"Planeta 888","year":"1985-01-01","translations":["Оригинальная дорожка"],"quality":"vhs","translation":"Оригинальная дорожка","update":"2020-09-25 11:28:55","iframe_src":"//83.svetacdn.in/PfJ50H0ZBPg3/movie/43825"},{"id":43824,"title":"Почему заяц прячется","kp_id":"567028","imdb_id":"tt6416662","world_art_id":null,"type":"movie","add":"2020-09-24 17:13:30","orig_title":"Pochemu zayats pryachetsya","year":"1982-01-01","translations":["Оригинальная дорожка"],"quality":"dvdrip","translation":"Оригинальная дорожка","update":"2020-09-25 11:27:55","iframe_src":"//83.svetacdn.in/PfJ50H0ZBPg3/movie/43824"},{"id":43804,"title":"Почему ослик заупрямился?","kp_id":"478807","imdb_id":null,"world_art_id":null,"type":"movie","add":"2020-09-23 21:46:14","orig_title":"Почему ослик заупрямился?","year":"1979-01-01","translations":["Оригинальная дорожка"],"quality":"dvdrip","translation":"Оригинальная дорожка","update":"2020-09-25 11:27:27","iframe_src":"//83.svetacdn.in/PfJ50H0ZBPg3/movie/43804"},{"id":43803,"title":"Почему у петуха короткие штаны","kp_id":"585428","imdb_id":"tt6424464","world_art_id":null,"type":"movie","add":"2020-09-23 21:30:39","orig_title":"Pochemu u petukha korotkie shtany","year":"1966-01-01","translations":["Оригинальная дорожка"],"quality":"dvdrip","translation":"Оригинальная дорожка","update":"2020-09-25 11:26:22","iframe_src":"//83.svetacdn.in/PfJ50H0ZBPg3/movie/43803"},{"id":43802,"title":"Почти невыдуманная история","kp_id":"579598","imdb_id":null,"world_art_id":null,"type":"movie","add":"2020-09-23 18:12:50","orig_title":"Почти невыдуманная история","year":"1979-01-01","translations":["Оригинальная дорожка"],"quality":"dvdrip","translation":"Оригинальная дорожка","update":"2020-09-25 11:25:24","iframe_src":"//83.svetacdn.in/PfJ50H0ZBPg3/movie/43802"},{"id":43801,"title":"Подружка","kp_id":"667905","imdb_id":"tt1934365","world_art_id":null,"type":"movie","add":"2020-09-23 18:08:50","orig_title":"Podruzhka","year":"1989-01-01","translations":["Оригинальная дорожка"],"quality":"dvdrip","translation":"Оригинальная дорожка","update":"2020-09-25 11:24:00","iframe_src":"//83.svetacdn.in/PfJ50H0ZBPg3/movie/43801"},{"id":43800,"title":"Подводные береты","kp_id":"581648","imdb_id":null,"world_art_id":null,"type":"movie","add":"2020-09-23 18:05:15","orig_title":"Подводные береты","year":"1991-01-01","translations":["Оригинальная дорожка"],"quality":"sat","translation":"Оригинальная дорожка","update":"2020-09-25 11:23:11","iframe_src":"//83.svetacdn.in/PfJ50H0ZBPg3/movie/43800"},{"id":43799,"title":"Подводные друзья","kp_id":"137809","imdb_id":"tt0452513","world_art_id":null,"type":"movie","add":"2020-09-23 17:57:36","orig_title":"Veealused","year":"1973-01-01","translations":["Любительский (двухголосый закадровый)"],"quality":"vhs","translation":"Любительский (двухголосый закадровый)","update":"2020-09-25 11:22:15","iframe_src":"//83.svetacdn.in/PfJ50H0ZBPg3/movie/43799"},{"id":43798,"title":"Пони бегает по кругу","kp_id":"257018","imdb_id":"tt6071080","world_art_id":null,"type":"movie","add":"2020-09-23 17:53:05","orig_title":"Pony begaet po krugu","year":"1974-01-01","translations":["Оригинальная дорожка"],"quality":"dvdrip","translation":"Оригинальная дорожка","update":"2020-09-25 11:20:01","iframe_src":"//83.svetacdn.in/PfJ50H0ZBPg3/movie/43798"},{"id":43797,"title":"Приключения медвежонка Садко","kp_id":"972194","imdb_id":null,"world_art_id":null,"type":"movie","add":"2020-09-23 17:49:39","orig_title":"Приключения медвежонка Садко","year":"1990-01-01","translations":["Оригинальная дорожка"],"quality":"sat","translation":"Оригинальная дорожка","update":"2020-09-25 11:19:07","iframe_src":"//83.svetacdn.in/PfJ50H0ZBPg3/movie/43797"},{"id":43796,"title":"Притча о Гассане","kp_id":"1007994","imdb_id":null,"world_art_id":null,"type":"movie","add":"2020-09-23 17:43:39","orig_title":"Притча о Гассане","year":"1987-01-01","translations":["Оригинальная дорожка"],"quality":"tv","translation":"Оригинальная дорожка","update":"2020-09-25 11:18:08","iframe_src":"//83.svetacdn.in/PfJ50H0ZBPg3/movie/43796"},{"id":43795,"title":"Притча о ромашках","kp_id":"542315","imdb_id":"tt9198402","world_art_id":null,"type":"movie","add":"2020-09-23 17:34:30","orig_title":"Pritcha o romashkakh","year":"1975-01-01","translations":["Оригинальная дорожка"],"quality":"dvdrip","translation":"Оригинальная дорожка","update":"2020-09-25 11:17:15","iframe_src":"//83.svetacdn.in/PfJ50H0ZBPg3/movie/43795"},{"id":43794,"title":"Притча о мыши","kp_id":"565776","imdb_id":null,"world_art_id":null,"type":"movie","add":"2020-09-23 17:29:43","orig_title":"Притча о мыши","year":"1991-01-01","translations":["Оригинальная дорожка"],"quality":"dvdrip","translation":"Оригинальная дорожка","update":"2020-09-25 11:15:26","iframe_src":"//83.svetacdn.in/PfJ50H0ZBPg3/movie/43794"},{"id":43793,"title":"Про бегемота по имени Ну-и-пусть","kp_id":"627440","imdb_id":null,"world_art_id":null,"type":"movie","add":"2020-09-23 17:01:28","orig_title":"Про бегемота по имени Ну-и-пусть","year":"1986-01-01","translations":["Оригинальная дорожка"],"quality":"dvdrip","translation":"Оригинальная дорожка","update":"2020-09-25 11:14:20","iframe_src":"//83.svetacdn.in/PfJ50H0ZBPg3/movie/43793"}],"current_page":946,"first_page_url":"https://videocdn.tv/api/short?limit=100&api_token=RgFQdUIR2dRmwv8iYa5SnFNgnw3vpjKj&cache3946=3946&page=1","from":94501,"last_page":710,"last_page_url":"https://videocdn.tv/api/short?limit=100&api_token=RgFQdUIR2dRmwv8iYa5SnFNgnw3vpjKj&cache3946=3946&page=710","next_page_url":null,"path":"https://videocdn.tv/api/short","per_page":100,"prev_page_url":"https://videocdn.tv/api/short?limit=100&api_token=RgFQdUIR2dRmwv8iYa5SnFNgnw3vpjKj&cache3946=3946&page=945","to":94520,"total":70952}