{"result":true,"data":[{"id":49107,"title":"Дарите цветы","kp_id":"270688","imdb_id":"tt0830582","world_art_id":null,"type":"movie","add":"2021-03-25 12:39:12","orig_title":"Kvavilebis chuqeba","year":"1982-01-01","translations":["Оригинальная дорожка"],"quality":"tc","translation":"Оригинальная дорожка","update":"2021-03-25 13:35:31","iframe_src":"//83.svetacdn.in/PfJ50H0ZBPg3/movie/49107"},{"id":49106,"title":"Фантик","kp_id":"44403","imdb_id":"tt0208138","world_art_id":null,"type":"movie","add":"2021-03-25 12:34:27","orig_title":"Fantik","year":"1975-01-01","translations":["Оригинальная дорожка"],"quality":"webdl","translation":"Оригинальная дорожка","update":"2021-03-25 13:36:58","iframe_src":"//83.svetacdn.in/PfJ50H0ZBPg3/movie/49106"},{"id":49105,"title":"Соломенный бычок","kp_id":"257822","imdb_id":"tt4857740","world_art_id":null,"type":"movie","add":"2021-03-25 12:28:51","orig_title":"Solomennyy bychok","year":"1954-01-01","translations":["Оригинальная дорожка"],"quality":"webdl","translation":"Оригинальная дорожка","update":"2021-03-25 13:42:32","iframe_src":"//83.svetacdn.in/PfJ50H0ZBPg3/movie/49105"},{"id":49104,"title":"Карпуша","kp_id":"532838","imdb_id":"tt6101066","world_art_id":null,"type":"movie","add":"2021-03-25 12:25:48","orig_title":"Karpusha","year":"1988-01-01","translations":["Оригинальная дорожка"],"quality":"webdl","translation":"Оригинальная дорожка","update":"2021-03-25 13:41:04","iframe_src":"//83.svetacdn.in/PfJ50H0ZBPg3/movie/49104"},{"id":49102,"title":"Старая игрушка","kp_id":"258018","imdb_id":"tt4486584","world_art_id":null,"type":"movie","add":"2021-03-25 12:20:27","orig_title":"Staraya igrushka","year":"1971-01-01","translations":["Оригинальная дорожка"],"quality":"webdl","translation":"Оригинальная дорожка","update":"2021-03-25 12:46:22","iframe_src":"//83.svetacdn.in/PfJ50H0ZBPg3/movie/49102"},{"id":49101,"title":"Сладкий родник","kp_id":"601741","imdb_id":"tt8152626","world_art_id":null,"type":"movie","add":"2021-03-25 12:16:10","orig_title":"Sladkiy rodnik","year":"1982-01-01","translations":["Оригинальная дорожка"],"quality":"webdl","translation":"Оригинальная дорожка","update":"2021-03-25 12:48:50","iframe_src":"//83.svetacdn.in/PfJ50H0ZBPg3/movie/49101"},{"id":49100,"title":"Муравьиный ёжик","kp_id":"666608","imdb_id":"tt4862990","world_art_id":null,"type":"movie","add":"2021-03-25 12:13:09","orig_title":"Muravinyy yozhik","year":"1993-01-01","translations":["Оригинальная дорожка"],"quality":"webdl","translation":"Оригинальная дорожка","update":"2021-03-25 12:56:07","iframe_src":"//83.svetacdn.in/PfJ50H0ZBPg3/movie/49100"},{"id":49099,"title":"Дирижер","kp_id":"137895","imdb_id":"tt0452309","world_art_id":null,"type":"movie","add":"2021-03-25 12:05:13","orig_title":"Linnupüüdja","year":"1988-01-01","translations":["Оригинальная дорожка"],"quality":"tc","translation":"Оригинальная дорожка","update":"2021-03-25 12:49:58","iframe_src":"//83.svetacdn.in/PfJ50H0ZBPg3/movie/49099"},{"id":49094,"title":"Блюз с кнедликами","kp_id":"770145","imdb_id":"tt2969050","world_art_id":null,"type":"movie","add":"2021-03-25 09:19:15","orig_title":"Dampfnudelblues","year":"2013-06-29","translations":["Любительский (одноголосый закадровый) (porcellus)"],"quality":"webdl","translation":"Любительский (одноголосый закадровый) (porcellus)","update":"2021-03-25 10:46:32","iframe_src":"//83.svetacdn.in/PfJ50H0ZBPg3/movie/49094"},{"id":49092,"title":"Школа рок-н-ролла навечно","kp_id":"18167","imdb_id":"tt0100504","world_art_id":null,"type":"movie","add":"2021-03-25 08:06:30","orig_title":"Rock 'n' Roll High School Forever","year":"1991-05-23","translations":["Любительский (двухголосый закадровый) (RusFilm)"],"quality":"webdl","translation":"Любительский (двухголосый закадровый) (RusFilm)","update":"2021-03-25 10:44:52","iframe_src":"//83.svetacdn.in/PfJ50H0ZBPg3/movie/49092"},{"id":49076,"title":"Сиротки","kp_id":"1265004","imdb_id":"tt10234084","world_art_id":null,"type":"movie","add":"2021-03-24 21:15:20","orig_title":"Little Orphans","year":"2020-09-18","translations":["Любительский (многоголосый закадровый) (Синема УС)"],"quality":"webdl","translation":"Любительский (многоголосый закадровый) (Синема УС)","update":"2021-03-25 10:44:33","iframe_src":"//83.svetacdn.in/PfJ50H0ZBPg3/movie/49076"},{"id":44555,"title":"Сладкая сказка","kp_id":"257007","imdb_id":"tt2267618","world_art_id":null,"type":"movie","add":"2020-10-18 20:02:42","orig_title":"Sladkaya skazka","year":"1970-03-03","translations":["Оригинальная дорожка"],"quality":"webdl","translation":"Оригинальная дорожка","update":"2021-03-25 12:55:26","iframe_src":"//83.svetacdn.in/PfJ50H0ZBPg3/movie/44555"},{"id":44517,"title":"Дочь Солнца","kp_id":"455504","imdb_id":"tt2584190","world_art_id":null,"type":"movie","add":"2020-10-16 17:38:42","orig_title":"Doch solntsa","year":"1963-11-17","translations":["Оригинальная дорожка","Оригинальная дорожка"],"quality":"dvdrip","translation":"Оригинальная дорожка","update":"2021-03-25 13:38:22","iframe_src":"//83.svetacdn.in/PfJ50H0ZBPg3/movie/44517"},{"id":44506,"title":"Ай-ай-ай!","kp_id":"585197","imdb_id":"tt5894362","world_art_id":null,"type":"movie","add":"2020-10-16 17:07:36","orig_title":"Ay-ay-ay!","year":"1989-01-01","translations":["Оригинальная дорожка","Оригинальная дорожка"],"quality":"dvdrip","translation":"Оригинальная дорожка","update":"2021-03-25 12:45:31","iframe_src":"//83.svetacdn.in/PfJ50H0ZBPg3/movie/44506"},{"id":43934,"title":"Сказка о Снегурочке","kp_id":"461767","imdb_id":"tt6295292","world_art_id":null,"type":"movie","add":"2020-09-28 19:07:50","orig_title":"Skazka o Snegurochke","year":"1957-01-01","translations":["Оригинальная дорожка","Оригинальная дорожка"],"quality":"dvdrip","translation":"Оригинальная дорожка","update":"2021-03-25 12:47:46","iframe_src":"//83.svetacdn.in/PfJ50H0ZBPg3/movie/43934"},{"id":8691,"title":"Matchday: Изнутри ФК Барселона","kp_id":"1320880","imdb_id":"tt11122508","world_art_id":null,"type":"serial","add":"2020-09-10 18:59:21","orig_title":"Matchday: Inside FC Barcelona","year":"2019-11-29","translations":["Любительский (многоголосый закадровый) (ColdFilm)"],"seasons_count":1,"episodes_count":8,"episodes":8,"update":"2020-09-11 05:39:01","iframe_src":"//83.svetacdn.in/PfJ50H0ZBPg3/tv-series/8691"},{"id":8690,"title":"Бойкот","kp_id":"1380178","imdb_id":"tt11268644","world_art_id":null,"type":"serial","add":"2020-09-10 18:28:43","orig_title":"Blackballed","year":"2020-05-18","translations":["Любительский (многоголосый закадровый) (ColdFilm)"],"seasons_count":1,"episodes_count":12,"episodes":12,"update":"2020-09-10 20:54:28","iframe_src":"//83.svetacdn.in/PfJ50H0ZBPg3/tv-series/8690"},{"id":8689,"title":"Уличная еда: Латинская Америка","kp_id":"1395640","imdb_id":"tt12742136","world_art_id":null,"type":"serial","add":"2020-09-10 18:26:29","orig_title":"Street Food: Latin Americatt12742136","year":"2020-07-21","translations":["Любительский (многоголосый закадровый) (ColdFilm)"],"seasons_count":1,"episodes_count":6,"episodes":6,"update":"2020-09-10 20:48:43","iframe_src":"//83.svetacdn.in/PfJ50H0ZBPg3/tv-series/8689"},{"id":8687,"title":"Задверье","kp_id":"402991","imdb_id":"tt0115288","world_art_id":null,"type":"serial","add":"2020-09-10 15:52:13","orig_title":"Neverwhere","year":"1996-09-12","translations":["Любительский (одноголосый закадровый) (Саня Белый)"],"seasons_count":1,"episodes_count":6,"episodes":6,"update":"2020-09-11 10:34:28","iframe_src":"//83.svetacdn.in/PfJ50H0ZBPg3/tv-series/8687"},{"id":8686,"title":"Цветы жизни","kp_id":"1311408","imdb_id":"tt9894434","world_art_id":null,"type":"serial","add":"2020-09-10 15:19:38","orig_title":"Faites des gosses","year":"2019-09-14","translations":["Любительский (многоголосый закадровый) (WestFilm)"],"seasons_count":1,"episodes_count":6,"episodes":6,"update":"2020-09-11 10:44:43","iframe_src":"//83.svetacdn.in/PfJ50H0ZBPg3/tv-series/8686"},{"id":8678,"title":"Детективы","kp_id":"789766","imdb_id":"tt2980074","world_art_id":null,"type":"serial","add":"2020-09-10 06:51:30","orig_title":"Détectives","year":"2013-05-22","translations":["Любительский (многоголосый закадровый) (WestFilm)"],"seasons_count":1,"episodes_count":8,"episodes":8,"update":"2020-09-11 05:44:59","iframe_src":"//83.svetacdn.in/PfJ50H0ZBPg3/tv-series/8678"},{"id":8673,"title":"За Сару","kp_id":null,"imdb_id":"tt4884714","world_art_id":null,"type":"serial","add":"2020-09-09 10:11:35","orig_title":"Pour Sarah","year":"2015-09-21","translations":["Любительский (многоголосый закадровый) (WestFilm)"],"seasons_count":1,"episodes_count":10,"episodes":10,"update":"2020-09-11 10:27:33","iframe_src":"//83.svetacdn.in/PfJ50H0ZBPg3/tv-series/8673"},{"id":8667,"title":"Валентина","kp_id":"520579","imdb_id":"tt0211879","world_art_id":null,"type":"serial","add":"2020-09-09 06:02:56","orig_title":"Valentina","year":"1993-01-01","translations":["Любительский (одноголосый закадровый) (Мадлен Дюваль)"],"seasons_count":1,"episodes_count":80,"episodes":80,"update":"2020-09-10 20:43:57","iframe_src":"//83.svetacdn.in/PfJ50H0ZBPg3/tv-series/8667"},{"id":8666,"title":"Каприз","kp_id":"523273","imdb_id":"tt0212651","world_art_id":null,"type":"serial","add":"2020-09-08 20:08:49","orig_title":"Capricho","year":"1993-01-11","translations":["Любительский (одноголосый закадровый) (Мадлен Дюваль)"],"seasons_count":1,"episodes_count":80,"episodes":80,"update":"2020-09-10 07:52:59","iframe_src":"//83.svetacdn.in/PfJ50H0ZBPg3/tv-series/8666"},{"id":8665,"title":"Сила желания","kp_id":"1040566","imdb_id":"tt6491190","world_art_id":null,"type":"serial","add":"2020-09-08 19:04:33","orig_title":"A Força do Querer","year":"2017-04-03","translations":["Любительский (двухголосый закадровый) (AveBrasil)"],"seasons_count":1,"episodes_count":91,"episodes":91,"update":"2020-09-09 19:43:19","iframe_src":"//83.svetacdn.in/PfJ50H0ZBPg3/tv-series/8665"},{"id":8661,"title":"Кафедра","kp_id":"331812","imdb_id":"tt0280809","world_art_id":null,"type":"serial","add":"2020-09-08 17:27:33","orig_title":"Kafedra","year":"1982-07-06","translations":["Оригинальная дорожка"],"seasons_count":1,"episodes_count":2,"episodes":2,"update":"2020-09-09 14:58:41","iframe_src":"//83.svetacdn.in/PfJ50H0ZBPg3/tv-series/8661"},{"id":8660,"title":"Последняя инспекция","kp_id":"478951","imdb_id":"tt3419928","world_art_id":null,"type":"serial","add":"2020-09-08 17:22:31","orig_title":"Poslednyaya inspektsiya","year":"1985-01-01","translations":["Оригинальная дорожка"],"seasons_count":1,"episodes_count":2,"episodes":2,"update":"2020-09-09 14:56:48","iframe_src":"//83.svetacdn.in/PfJ50H0ZBPg3/tv-series/8660"},{"id":8655,"title":"Двойная жизнь","kp_id":"1217307","imdb_id":"tt9348970","world_art_id":null,"type":"serial","add":"2020-09-08 11:24:54","orig_title":"Double vie","year":"2019-01-10","translations":["Любительский (многоголосый закадровый) (WestFilm)"],"seasons_count":1,"episodes_count":6,"episodes":6,"update":"2020-09-11 10:32:30","iframe_src":"//83.svetacdn.in/PfJ50H0ZBPg3/tv-series/8655"},{"id":8646,"title":"Тонкие материи","kp_id":"1272470","imdb_id":"tt12037240","world_art_id":null,"type":"serial","add":"2020-09-07 13:51:55","orig_title":"Tonkie Materii","year":"2020-09-07","translations":["Оригинальная дорожка"],"seasons_count":1,"episodes_count":8,"episodes":8,"update":"2020-09-11 09:14:01","iframe_src":"//83.svetacdn.in/PfJ50H0ZBPg3/tv-series/8646"},{"id":42698,"title":"Хочу быть отважным","kp_id":"260124","imdb_id":"tt6741144","world_art_id":null,"type":"movie","add":"2020-08-23 21:01:15","orig_title":"Khochu byt otvazhnym","year":"1963-01-01","translations":["Оригинальная дорожка","Оригинальная дорожка"],"quality":"dvdrip","translation":"Оригинальная дорожка","update":"2021-03-25 13:46:35","iframe_src":"//83.svetacdn.in/PfJ50H0ZBPg3/movie/42698"},{"id":42336,"title":"Пойга и Лиса","kp_id":"260063","imdb_id":"tt6114990","world_art_id":null,"type":"movie","add":"2020-08-06 21:43:27","orig_title":"Poyga i Lisa","year":"1978-01-01","translations":["Оригинальная дорожка","Оригинальная дорожка"],"quality":"dvdrip","translation":"Оригинальная дорожка","update":"2021-03-25 13:40:08","iframe_src":"//83.svetacdn.in/PfJ50H0ZBPg3/movie/42336"},{"id":8384,"title":"Плохой гений","kp_id":"1340380","imdb_id":"tt11542210","world_art_id":null,"type":"serial","add":"2020-08-06 05:37:17","orig_title":"Bad Genius","year":"2020-08-03","translations":["Любительский (многоголосый закадровый) (Octopus)"],"seasons_count":1,"episodes_count":12,"episodes":12,"update":"2020-09-09 15:24:42","iframe_src":"//83.svetacdn.in/PfJ50H0ZBPg3/tv-series/8384"},{"id":8144,"title":"Долина соблазна","kp_id":"1220026","imdb_id":"tt9340526","world_art_id":null,"type":"serial","add":"2020-07-12 13:56:48","orig_title":"P-Valley","year":"2020-07-12","translations":["Любительский (многоголосый закадровый) (Octopus)","Любительский (многоголосый закадровый) (ColdFilm)","Профессиональный (многоголосый закадровый) (Novamedia)"],"seasons_count":1,"episodes_count":8,"episodes":8,"update":"2020-09-10 11:54:38","iframe_src":"//83.svetacdn.in/PfJ50H0ZBPg3/tv-series/8144"},{"id":7022,"title":"Ругаль","kp_id":"1297201","imdb_id":"tt11769798","world_art_id":null,"type":"serial","add":"2020-03-29 04:37:30","orig_title":"Rugal","year":"2020-03-28","translations":["Любительский (многоголосый закадровый) (ColdFilm)","Любительский (двухголосый закадровый) (SoftBox)","Любительский (двухголосый закадровый) (GREEN TEA)"],"seasons_count":1,"episodes_count":16,"episodes":16,"update":"2020-09-11 07:28:37","iframe_src":"//83.svetacdn.in/PfJ50H0ZBPg3/tv-series/7022"},{"id":6171,"title":"Страшилки","kp_id":"1199474","imdb_id":"tt7573024","world_art_id":null,"type":"serial","add":"2019-12-28 15:41:16","orig_title":"Creeped Out","year":"2017-10-31","translations":["Любительский (двухголосый закадровый) (GoldTeam)","Профессиональный (многоголосый закадровый) (HDrezka Studio)","Любительский (многоголосый закадровый) (WestFilm)","Профессиональный (многоголосый закадровый) (Первый ТВЧ)"],"seasons_count":2,"episodes_count":23,"episodes":10,"update":"2020-09-11 06:47:50","iframe_src":"//83.svetacdn.in/PfJ50H0ZBPg3/tv-series/6171"},{"id":5822,"title":"Смерть на языке цветов","kp_id":"1322672","imdb_id":null,"world_art_id":null,"type":"serial","add":"2019-11-24 23:05:42","orig_title":"Смерть на языке цветов","year":"2019-11-24","translations":["Оригинальная дорожка"],"seasons_count":1,"episodes_count":4,"episodes":4,"update":"2020-09-10 07:13:54","iframe_src":"//83.svetacdn.in/PfJ50H0ZBPg3/tv-series/5822"},{"id":5183,"title":"Рино 911","kp_id":"258553","imdb_id":"tt0370194","world_art_id":null,"type":"serial","add":"2019-09-11 06:23:13","orig_title":"Reno 911!","year":"2003-07-23","translations":["Профессиональный (одноголосый закадровый)","Любительский (многоголосый закадровый) (Octopus)","Любительский (многоголосый закадровый) (ColdFilm)"],"seasons_count":7,"episodes_count":113,"episodes":25,"update":"2020-09-10 20:09:26","iframe_src":"//83.svetacdn.in/PfJ50H0ZBPg3/tv-series/5183"},{"id":24407,"title":"Хвосты","kp_id":"44806","imdb_id":"tt0165826","world_art_id":null,"type":"movie","add":"2019-04-12 16:43:53","orig_title":"Khvosty","year":"1966-01-01","translations":["Оригинальная дорожка","Оригинальная дорожка"],"quality":"dvdrip","translation":"Оригинальная дорожка","update":"2021-03-25 13:44:43","iframe_src":"//83.svetacdn.in/PfJ50H0ZBPg3/movie/24407"},{"id":23263,"title":"Мусорщик","kp_id":"41633","imdb_id":"tt0312983","world_art_id":null,"type":"movie","add":"2019-03-20 06:50:57","orig_title":"Musorshchik","year":"2001-11-15","translations":["Оригинальная дорожка","Оригинальная дорожка"],"quality":"dvdrip","translation":"Оригинальная дорожка","update":"2021-03-25 12:50:54","iframe_src":"//83.svetacdn.in/PfJ50H0ZBPg3/movie/23263"},{"id":91,"title":"Великий Гэтсби","kp_id":"463724","imdb_id":"tt1343092","world_art_id":null,"type":"movie","add":"2016-02-11 10:54:08","orig_title":"The Great Gatsby","year":"2013-05-01","translations":["Original (English)","Полное дублирование","Авторский (одноголосый закадровый) (Сербин Юрий)"],"quality":"bd","translation":"Original (English)","update":"2021-03-25 11:11:29","iframe_src":"//83.svetacdn.in/PfJ50H0ZBPg3/movie/91"}],"current_page":144,"first_page_url":"https://videocdn.tv/api/short?limit=100&api_token=RgFQdUIR2dRmwv8iYa5SnFNgnw3vpjKj&cache3144=3144&page=1","from":14301,"last_page":626,"last_page_url":"https://videocdn.tv/api/short?limit=100&api_token=RgFQdUIR2dRmwv8iYa5SnFNgnw3vpjKj&cache3144=3144&page=626","next_page_url":"https://videocdn.tv/api/short?limit=100&api_token=RgFQdUIR2dRmwv8iYa5SnFNgnw3vpjKj&cache3144=3144&page=145","path":"https://videocdn.tv/api/short","per_page":100,"prev_page_url":"https://videocdn.tv/api/short?limit=100&api_token=RgFQdUIR2dRmwv8iYa5SnFNgnw3vpjKj&cache3144=3144&page=143","to":14340,"total":62523}