{"result":true,"data":[{"id":46276,"title":"Плохой импульс","kp_id":"1103456","imdb_id":"tt7267530","world_art_id":null,"type":"movie","add":"2020-12-20 21:38:29","orig_title":"Bad Impulse","year":"2019-12-07","translations":["Любительский (многоголосый закадровый) (@MUZOBOZ@)"],"quality":"webdl","translation":"Любительский (многоголосый закадровый) (@MUZOBOZ@)","update":"2020-12-21 09:45:37","iframe_src":"//8543.svetacdn.in/71tsRs29n5tZ/movie/46276"},{"id":46275,"title":"Агент Али","kp_id":"1339065","imdb_id":"tt9020536","world_art_id":null,"type":"movie","add":"2020-12-20 21:36:37","orig_title":"Ejen Ali the Movie","year":"2019-11-28","translations":["Любительский (многоголосый закадровый) (@MUZOBOZ@)"],"quality":"webdl","translation":"Любительский (многоголосый закадровый) (@MUZOBOZ@)","update":"2020-12-21 09:46:55","iframe_src":"//8543.svetacdn.in/71tsRs29n5tZ/movie/46275"},{"id":46274,"title":"Энджи: Похищенные девочки","kp_id":"1210480","imdb_id":"tt9242768","world_art_id":null,"type":"movie","add":"2020-12-20 21:09:25","orig_title":"Angie: Lost Girls","year":"2020-11-27","translations":["Любительский (многоголосый закадровый) (Синема УС)"],"quality":"webdl","translation":"Любительский (многоголосый закадровый) (Синема УС)","update":"2020-12-21 09:58:23","iframe_src":"//8543.svetacdn.in/71tsRs29n5tZ/movie/46274"},{"id":46273,"title":"Современные нравы","kp_id":"684046","imdb_id":"tt2165922","world_art_id":null,"type":"movie","add":"2020-12-20 21:07:34","orig_title":"Modern Persuasion","year":"2020-12-11","translations":["Любительский (многоголосый закадровый) (Синема УС)"],"quality":"webdl","translation":"Любительский (многоголосый закадровый) (Синема УС)","update":"2020-12-21 10:17:06","iframe_src":"//8543.svetacdn.in/71tsRs29n5tZ/movie/46273"},{"id":46272,"title":"Сестра жениха","kp_id":"1208417","imdb_id":"tt9222438","world_art_id":null,"type":"movie","add":"2020-12-20 21:04:26","orig_title":"Sister of the Groom","year":"2020-12-18","translations":["Любительский (многоголосый закадровый) (@MUZOBOZ@)"],"quality":"webdl","translation":"Любительский (многоголосый закадровый) (@MUZOBOZ@)","update":"2020-12-21 10:13:20","iframe_src":"//8543.svetacdn.in/71tsRs29n5tZ/movie/46272"},{"id":46271,"title":"Убойная пижамная вечеринка","kp_id":"1292667","imdb_id":"tt10771232","world_art_id":null,"type":"movie","add":"2020-12-20 21:02:14","orig_title":"Slaughterhouse Slumber Party","year":"2019-08-06","translations":["Любительский (многоголосый закадровый) (Синема УС)"],"quality":"webdl","translation":"Любительский (многоголосый закадровый) (Синема УС)","update":"2020-12-21 10:21:21","iframe_src":"//8543.svetacdn.in/71tsRs29n5tZ/movie/46271"},{"id":46265,"title":"Клуб уродливых детей","kp_id":"1236659","imdb_id":"tt9695404","world_art_id":null,"type":"movie","add":"2020-12-19 22:48:59","orig_title":"De Club van Lelijke Kinderen","year":"2019-10-09","translations":["Любительский (многоголосый закадровый) (Синема УС)"],"quality":"webdl","translation":"Любительский (многоголосый закадровый) (Синема УС)","update":"2020-12-21 09:05:26","iframe_src":"//8543.svetacdn.in/71tsRs29n5tZ/movie/46265"},{"id":46263,"title":"В Бенидорме идет снег","kp_id":"1266589","imdb_id":"tt9806468","world_art_id":null,"type":"movie","add":"2020-12-19 22:44:22","orig_title":"It Snows in Benidorm","year":"2020-10-24","translations":["Любительский (двухголосый закадровый) (Колобок)"],"quality":"ts","translation":"Любительский (двухголосый закадровый) (Колобок)","update":"2020-12-21 09:02:42","iframe_src":"//8543.svetacdn.in/71tsRs29n5tZ/movie/46263"},{"id":46261,"title":"Дневник Берта","kp_id":"1379277","imdb_id":"tt12182416","world_art_id":null,"type":"movie","add":"2020-12-19 22:38:08","orig_title":"Berts dagbok","year":"2020-08-05","translations":["Любительский (многоголосый закадровый) (Синема УС)"],"quality":"webdl","translation":"Любительский (многоголосый закадровый) (Синема УС)","update":"2020-12-21 09:01:48","iframe_src":"//8543.svetacdn.in/71tsRs29n5tZ/movie/46261"},{"id":46128,"title":"Мементо мори","kp_id":"46603","imdb_id":"tt0175906","world_art_id":null,"type":"movie","add":"2020-12-16 16:55:25","orig_title":"Memento mori","year":"1991-01-01","translations":["Оригинальная дорожка"],"quality":"sat","translation":"Оригинальная дорожка","update":"2020-12-21 11:31:01","iframe_src":"//8543.svetacdn.in/71tsRs29n5tZ/movie/46128"},{"id":46127,"title":"Кто войдет в последний вагон","kp_id":"45014","imdb_id":"tt0266707","world_art_id":null,"type":"movie","add":"2020-12-16 16:53:35","orig_title":"Kto voydyot v posledniy vagon","year":"1986-02-16","translations":["Оригинальная дорожка"],"quality":"sat","translation":"Оригинальная дорожка","update":"2020-12-21 11:09:01","iframe_src":"//8543.svetacdn.in/71tsRs29n5tZ/movie/46127"},{"id":46126,"title":"Ключ","kp_id":"331821","imdb_id":"tt0230420","world_art_id":null,"type":"movie","add":"2020-12-16 16:49:30","orig_title":"Klyuch","year":"1980-06-28","translations":["Оригинальная дорожка"],"quality":"sat","translation":"Оригинальная дорожка","update":"2020-12-21 11:08:21","iframe_src":"//8543.svetacdn.in/71tsRs29n5tZ/movie/46126"},{"id":45416,"title":"Правда в игре 2","kp_id":"1321053","imdb_id":"tt11237714","world_art_id":null,"type":"movie","add":"2020-11-18 19:51:33","orig_title":"True to the Game 2","year":"2020-11-06","translations":["Любительский (двухголосый закадровый) (Колобок)","Любительский (многоголосый закадровый) (@MUZOBOZ@)"],"quality":"ts","translation":"Любительский (двухголосый закадровый) (Колобок)","update":"2020-12-21 10:15:45","iframe_src":"//8543.svetacdn.in/71tsRs29n5tZ/movie/45416"},{"id":45217,"title":"Талант","kp_id":"1316735","imdb_id":"tt11181568","world_art_id":null,"type":"movie","add":"2020-11-11 17:09:06","orig_title":"Polot","year":"2020-10-23","translations":["Любительский (многоголосый закадровый) (Синема УС)","Любительский (многоголосый закадровый) (@MUZOBOZ@)"],"quality":"ts","translation":"Любительский (многоголосый закадровый) (Синема УС)","update":"2020-12-21 09:49:47","iframe_src":"//8543.svetacdn.in/71tsRs29n5tZ/movie/45217"},{"id":44829,"title":"Сезон акул","kp_id":"1400589","imdb_id":"tt12906784","world_art_id":null,"type":"movie","add":"2020-10-27 13:29:25","orig_title":"Shark Season","year":"2020-07-28","translations":["Original (English)","Авторский (одноголосый закадровый) (Дольский Андрей)"],"quality":"bd","translation":"Original (English)","update":"2020-12-21 10:18:46","iframe_src":"//8543.svetacdn.in/71tsRs29n5tZ/movie/44829"},{"id":42985,"title":"Суперагент Маккей","kp_id":"1271012","imdb_id":"tt10419566","world_art_id":null,"type":"movie","add":"2020-08-31 20:20:43","orig_title":"Superagente Makey","year":"2020-07-17","translations":["Любительский (многоголосый закадровый) (Синема УС)","Любительский (многоголосый закадровый) (Синема УС)"],"quality":"ts","translation":"Любительский (многоголосый закадровый) (Синема УС)","update":"2020-12-21 10:14:41","iframe_src":"//8543.svetacdn.in/71tsRs29n5tZ/movie/42985"},{"id":41709,"title":"Зависнуть в Палм-Спрингс","kp_id":"1245524","imdb_id":"tt9484998","world_art_id":null,"type":"movie","add":"2020-07-10 13:58:15","orig_title":"Palm Springs","year":"2020-01-26","translations":["Любительский (многоголосый закадровый) (@MUZOBOZ@)","Original (English)","Профессиональный (многоголосый закадровый) (HDrezka Studio)","Профессиональный (многоголосый закадровый) (NewStudio)","Профессиональный (многоголосый закадровый) (HDrezka Studio)","Полное дублирование (iTunes)","Профессиональный (многоголосый закадровый) (HDrezka Studio)","Авторский (одноголосый закадровый) (Гоблин | Пучков Дмитрий)"],"quality":"webdl","translation":"Любительский (многоголосый закадровый) (@MUZOBOZ@)","update":"2020-12-21 09:47:53","iframe_src":"//8543.svetacdn.in/71tsRs29n5tZ/movie/41709"},{"id":7154,"title":"Неродная","kp_id":"1311034","imdb_id":null,"world_art_id":null,"type":"serial","add":"2020-04-10 14:19:24","orig_title":"Неродная","year":"2018-01-01","translations":["Оригинальная дорожка"],"seasons_count":1,"episodes_count":2,"episodes":2,"update":"2020-04-10 14:45:02","iframe_src":"//8543.svetacdn.in/71tsRs29n5tZ/tv-series/7154"},{"id":7144,"title":"Боцман Чайка","kp_id":"844023","imdb_id":null,"world_art_id":null,"type":"serial","add":"2020-04-09 08:52:53","orig_title":"Боцман Чайка","year":"2014-11-23","translations":["Оригинальная дорожка"],"seasons_count":1,"episodes_count":4,"episodes":4,"update":"2020-04-09 17:33:58","iframe_src":"//8543.svetacdn.in/71tsRs29n5tZ/tv-series/7144"},{"id":7141,"title":"Красная площадь","kp_id":"95448","imdb_id":"tt0429388","world_art_id":null,"type":"serial","add":"2020-04-09 06:28:00","orig_title":"Krasnaya ploshchad","year":"2004-09-20","translations":["Оригинальная дорожка","Полное дублирование"],"seasons_count":1,"episodes_count":8,"episodes":8,"update":"2020-04-10 12:28:36","iframe_src":"//8543.svetacdn.in/71tsRs29n5tZ/tv-series/7141"},{"id":7137,"title":"Инспектор Гаджет","kp_id":"229620","imdb_id":"tt0085033","world_art_id":null,"type":"serial","add":"2020-04-08 17:04:03","orig_title":"Inspector Gadget","year":"1983-09-12","translations":["Профессиональный (многоголосый закадровый)"],"seasons_count":2,"episodes_count":86,"episodes":21,"update":"2020-04-09 12:48:56","iframe_src":"//8543.svetacdn.in/71tsRs29n5tZ/tv-series/7137"},{"id":7132,"title":"Твой мир","kp_id":"673039","imdb_id":"tt4280990","world_art_id":null,"type":"serial","add":"2020-04-08 07:37:27","orig_title":"Tvoy mir","year":"2012-05-14","translations":["Оригинальная дорожка"],"seasons_count":1,"episodes_count":16,"episodes":16,"update":"2020-04-09 08:42:45","iframe_src":"//8543.svetacdn.in/71tsRs29n5tZ/tv-series/7132"},{"id":7124,"title":"Старая школа","kp_id":"818797","imdb_id":"tt3164100","world_art_id":null,"type":"serial","add":"2020-04-07 19:53:06","orig_title":"Old School","year":"2014-05-23","translations":["Профессиональный (многоголосый закадровый) (BaibaKo)"],"seasons_count":1,"episodes_count":8,"episodes":8,"update":"2020-04-08 20:39:29","iframe_src":"//8543.svetacdn.in/71tsRs29n5tZ/tv-series/7124"},{"id":7117,"title":"Тайны Тихого океана","kp_id":"490455","imdb_id":"tt1458521","world_art_id":null,"type":"serial","add":"2020-04-07 11:25:15","orig_title":"South Pacific","year":"2009-05-10","translations":["Профессиональный (одноголосый закадровый)"],"seasons_count":1,"episodes_count":5,"episodes":5,"update":"2020-04-09 18:18:55","iframe_src":"//8543.svetacdn.in/71tsRs29n5tZ/tv-series/7117"},{"id":7110,"title":"Страсть","kp_id":"1047899","imdb_id":"tt7361352","world_art_id":null,"type":"serial","add":"2020-04-07 06:32:11","orig_title":"Strast","year":"2020-04-06","translations":["Оригинальная дорожка"],"seasons_count":1,"episodes_count":8,"episodes":8,"update":"2020-04-10 14:15:45","iframe_src":"//8543.svetacdn.in/71tsRs29n5tZ/tv-series/7110"},{"id":7108,"title":"Красные браслеты","kp_id":"929638","imdb_id":"tt4942462","world_art_id":null,"type":"serial","add":"2020-04-06 13:39:43","orig_title":"Club der roten Bänder","year":"2015-11-09","translations":["Профессиональный (двухголосый закадровый) (ViruseProject)","Профессиональный (многоголосый закадровый) (ViruseProject)"],"seasons_count":3,"episodes_count":30,"episodes":10,"update":"2020-04-09 05:52:14","iframe_src":"//8543.svetacdn.in/71tsRs29n5tZ/tv-series/7108"},{"id":7091,"title":"BBC: Клетка","kp_id":"659961","imdb_id":null,"world_art_id":null,"type":"serial","add":"2020-04-05 09:52:17","orig_title":"The Cell","year":"2009-08-12","translations":["Профессиональный (одноголосый закадровый)"],"seasons_count":1,"episodes_count":3,"episodes":3,"update":"2020-04-09 18:37:16","iframe_src":"//8543.svetacdn.in/71tsRs29n5tZ/tv-series/7091"},{"id":7088,"title":"Пилигрим","kp_id":"802014","imdb_id":"tt2943304","world_art_id":null,"type":"serial","add":"2020-04-04 14:36:07","orig_title":"Die Pilgerin","year":"2014-01-05","translations":["Любительский (двухголосый закадровый) (Dream Records)"],"seasons_count":1,"episodes_count":2,"episodes":2,"update":"2020-04-09 18:35:20","iframe_src":"//8543.svetacdn.in/71tsRs29n5tZ/tv-series/7088"},{"id":7086,"title":"С точки зрения науки","kp_id":"286505","imdb_id":"tt0462125","world_art_id":null,"type":"serial","add":"2020-04-04 09:36:58","orig_title":"Naked Science","year":"2004-09-15","translations":["Профессиональный (одноголосый закадровый)"],"seasons_count":4,"episodes_count":27,"episodes":1,"update":"2020-04-09 18:52:13","iframe_src":"//8543.svetacdn.in/71tsRs29n5tZ/tv-series/7086"},{"id":7085,"title":"Береговая охрана 2","kp_id":"837754","imdb_id":"tt5034904","world_art_id":null,"type":"serial","add":"2020-04-04 09:28:17","orig_title":"Beregovaya okhrana 2","year":"2014-01-01","translations":["Оригинальная дорожка"],"seasons_count":1,"episodes_count":31,"episodes":31,"update":"2020-04-09 13:23:29","iframe_src":"//8543.svetacdn.in/71tsRs29n5tZ/tv-series/7085"},{"id":7081,"title":"Архетип. Невроз. Либидо","kp_id":"1047315","imdb_id":null,"world_art_id":null,"type":"serial","add":"2020-04-04 08:46:25","orig_title":"Архетип. Невроз. Либидо","year":"2011-01-01","translations":["Оригинальная дорожка"],"seasons_count":3,"episodes_count":19,"episodes":8,"update":"2020-04-09 18:34:06","iframe_src":"//8543.svetacdn.in/71tsRs29n5tZ/tv-series/7081"},{"id":7039,"title":"Час Волкова","kp_id":"417852","imdb_id":"tt4055172","world_art_id":null,"type":"serial","add":"2020-04-01 10:32:33","orig_title":"Chas Volkova","year":"2007-10-03","translations":["Оригинальная дорожка"],"seasons_count":5,"episodes_count":138,"episodes":32,"update":"2020-04-09 11:48:51","iframe_src":"//8543.svetacdn.in/71tsRs29n5tZ/tv-series/7039"},{"id":7029,"title":"Паромщица","kp_id":"1272222","imdb_id":null,"world_art_id":null,"type":"serial","add":"2020-03-30 13:14:43","orig_title":"Паромщица","year":"2020-03-30","translations":["Оригинальная дорожка"],"seasons_count":1,"episodes_count":16,"episodes":16,"update":"2020-04-10 14:14:34","iframe_src":"//8543.svetacdn.in/71tsRs29n5tZ/tv-series/7029"},{"id":6895,"title":"Кордон","kp_id":"905072","imdb_id":"tt3560430","world_art_id":null,"type":"serial","add":"2020-03-16 12:55:35","orig_title":"Cordon","year":"2014-03-10","translations":["Профессиональный (многоголосый закадровый) (FOX)"],"seasons_count":2,"episodes_count":20,"episodes":10,"update":"2020-04-10 12:00:31","iframe_src":"//8543.svetacdn.in/71tsRs29n5tZ/tv-series/6895"},{"id":6192,"title":"Благотворительный базар","kp_id":"1197908","imdb_id":"tt9050352","world_art_id":null,"type":"serial","add":"2019-12-31 12:02:16","orig_title":"Le Bazar de la Charité","year":"2019-11-11","translations":["Профессиональный (многоголосый закадровый) (BaibaKo)","Любительский (многоголосый закадровый) (WestFilm)","Профессиональный (двухголосый закадровый) (ViruseProject)"],"seasons_count":1,"episodes_count":8,"episodes":8,"update":"2020-04-09 08:51:55","iframe_src":"//8543.svetacdn.in/71tsRs29n5tZ/tv-series/6192"},{"id":27824,"title":"Тучи над Борском","kp_id":"42364","imdb_id":"tt0054411","world_art_id":null,"type":"movie","add":"2019-06-16 11:28:04","orig_title":"Tuchi nad Borskom","year":"1961-02-25","translations":["Оригинальная дорожка","Оригинальная дорожка"],"quality":"sat","translation":"Оригинальная дорожка","update":"2020-12-20 18:35:53","iframe_src":"//8543.svetacdn.in/71tsRs29n5tZ/movie/27824"},{"id":4672,"title":"Свидетель обвинения","kp_id":"1000595","imdb_id":"tt5834256","world_art_id":null,"type":"serial","add":"2019-06-16 11:03:13","orig_title":"The Witness for the Prosecution","year":"2016-12-26","translations":["Профессиональный (многоголосый закадровый) (ViruseProject)","Профессиональный (многоголосый закадровый) (LostFilm)"],"seasons_count":1,"episodes_count":2,"episodes":2,"update":"2020-04-10 06:33:13","iframe_src":"//8543.svetacdn.in/71tsRs29n5tZ/tv-series/4672"},{"id":2715,"title":"Фауда","kp_id":"893155","imdb_id":"tt4565380","world_art_id":null,"type":"serial","add":"2018-06-03 09:08:04","orig_title":"Fauda","year":"2015-02-15","translations":["Любительский (многоголосый закадровый) (ColdFilm)","Любительский (многоголосый закадровый) (GreenРай Studio)","Профессиональный (многоголосый закадровый) (BaibaKo)","Любительский (многоголосый закадровый) (Octopus)","Любительский (многоголосый закадровый) (WestFilm)"],"seasons_count":3,"episodes_count":36,"episodes":12,"update":"2020-04-09 12:59:00","iframe_src":"//8543.svetacdn.in/71tsRs29n5tZ/tv-series/2715"},{"id":15242,"title":"Для Начала Захватим Бруклин","kp_id":"995112","imdb_id":"tt5673714","world_art_id":null,"type":"movie","add":"2018-02-20 20:30:27","orig_title":"First We Take Brooklyn","year":"2018-02-19","translations":["Любительский (многоголосый закадровый) (Синема УС)","Профессиональный (многоголосый закадровый) (GreenРай Studio)","Original (English)"],"quality":"webdl","translation":"Любительский (многоголосый закадровый) (Синема УС)","update":"2020-12-21 10:25:06","iframe_src":"//8543.svetacdn.in/71tsRs29n5tZ/movie/15242"},{"id":6589,"title":"Карающая сила","kp_id":"22633","imdb_id":"tt0090678","world_art_id":null,"type":"movie","add":"2016-10-24 05:09:46","orig_title":"Avenging Force","year":"1986-09-12","translations":["Профессиональный (многоголосый закадровый)","Original (English)"],"quality":"bd","translation":"Профессиональный (многоголосый закадровый)","update":"2020-12-21 10:26:38","iframe_src":"//8543.svetacdn.in/71tsRs29n5tZ/movie/6589"}],"current_page":210,"first_page_url":"https://videocdn.tv/api/short?limit=100&api_token=EnbO9h8pv1VyjbCJhg0WM9nG259n7mtz&cache3210=3210&page=1","from":20901,"last_page":604,"last_page_url":"https://videocdn.tv/api/short?limit=100&api_token=EnbO9h8pv1VyjbCJhg0WM9nG259n7mtz&cache3210=3210&page=604","next_page_url":"https://videocdn.tv/api/short?limit=100&api_token=EnbO9h8pv1VyjbCJhg0WM9nG259n7mtz&cache3210=3210&page=211","path":"https://videocdn.tv/api/short","per_page":100,"prev_page_url":"https://videocdn.tv/api/short?limit=100&api_token=EnbO9h8pv1VyjbCJhg0WM9nG259n7mtz&cache3210=3210&page=209","to":20940,"total":60382}