{"result":true,"data":[{"id":41261,"title":"Отель у озера","kp_id":"1189853","imdb_id":"tt12542508","world_art_id":null,"type":"movie","add":"2020-06-18 19:01:44","orig_title":"Hotel reikeu","year":"2020-04-29","translations":["Любительский (двухголосый закадровый) (Колобок)"],"quality":"webdl","translation":"Любительский (двухголосый закадровый) (Колобок)","update":"2020-06-19 03:50:23","iframe_src":"//24213.svetacdn.in/71tsRs29n5tZ/movie/41261"},{"id":41259,"title":"В глубинах: Ужас Пещер","kp_id":"1375289","imdb_id":"tt12172388","world_art_id":null,"type":"movie","add":"2020-06-18 14:54:45","orig_title":"A Cave Horror","year":"2018-12-18","translations":["Любительский (многоголосый закадровый) (Синема УС)"],"quality":"webdl","translation":"Любительский (многоголосый закадровый) (Синема УС)","update":"2020-06-18 19:30:41","iframe_src":"//24213.svetacdn.in/71tsRs29n5tZ/movie/41259"},{"id":41258,"title":"Бруно Мансер - Голос тропического леса","kp_id":"1244707","imdb_id":"tt9850264","world_art_id":null,"type":"movie","add":"2020-06-18 14:48:03","orig_title":"Bruno Manser - Die Stimme des Regenwaldes","year":"2019-09-26","translations":["Любительский (многоголосый закадровый) (Синема УС)"],"quality":"webdl","translation":"Любительский (многоголосый закадровый) (Синема УС)","update":"2020-06-18 19:29:47","iframe_src":"//24213.svetacdn.in/71tsRs29n5tZ/movie/41258"},{"id":41257,"title":"Как нужно жить","kp_id":"1355716","imdb_id":"tt11934924","world_art_id":null,"type":"movie","add":"2020-06-18 14:45:36","orig_title":"Une manière de vivre","year":"2019-10-31","translations":["Любительский (многоголосый закадровый) (AlphaProject)"],"quality":"webdl","translation":"Любительский (многоголосый закадровый) (AlphaProject)","update":"2020-06-18 19:28:28","iframe_src":"//24213.svetacdn.in/71tsRs29n5tZ/movie/41257"},{"id":41256,"title":"Всё возможно. История Сержа Ибаки","kp_id":"1385217","imdb_id":"tt12274406","world_art_id":null,"type":"movie","add":"2020-06-18 05:12:41","orig_title":"Anything is Possible: A Serge Ibaka Story","year":"2019-12-12","translations":["Любительский (многоголосый закадровый) (Синема УС)"],"quality":"webdl","translation":"Любительский (многоголосый закадровый) (Синема УС)","update":"2020-06-18 19:22:08","iframe_src":"//24213.svetacdn.in/71tsRs29n5tZ/movie/41256"},{"id":41254,"title":"Модификация","kp_id":"1062510","imdb_id":"tt7236054","world_art_id":null,"type":"movie","add":"2020-06-17 11:52:47","orig_title":"Variant","year":"2020-06-01","translations":["Любительский (многоголосый закадровый) (AlphaProject)"],"quality":"webdl","translation":"Любительский (многоголосый закадровый) (AlphaProject)","update":"2020-06-18 19:04:51","iframe_src":"//24213.svetacdn.in/71tsRs29n5tZ/movie/41254"},{"id":41253,"title":"Ва-банк","kp_id":"1335582","imdb_id":null,"world_art_id":null,"type":"movie","add":"2020-06-17 11:51:23","orig_title":"Ва-банк","year":"2019-12-26","translations":["Оригинальная дорожка"],"quality":"webdl","translation":"Оригинальная дорожка","update":"2020-06-18 19:05:36","iframe_src":"//24213.svetacdn.in/71tsRs29n5tZ/movie/41253"},{"id":41251,"title":"Холм и впадина","kp_id":"1216967","imdb_id":"tt8357336","world_art_id":null,"type":"movie","add":"2020-06-17 11:46:42","orig_title":"The Hill and The Hole","year":"2020-04-17","translations":["Любительский (многоголосый закадровый) (@MUZOBOZ@)"],"quality":"webdl","translation":"Любительский (многоголосый закадровый) (@MUZOBOZ@)","update":"2020-06-18 19:06:52","iframe_src":"//24213.svetacdn.in/71tsRs29n5tZ/movie/41251"},{"id":41250,"title":"Воздушная гимнастка","kp_id":"1203057","imdb_id":"tt9158416","world_art_id":null,"type":"movie","add":"2020-06-17 11:45:27","orig_title":"The Aerialist","year":"2020-01-01","translations":["Любительский (многоголосый закадровый) (Синема УС)"],"quality":"webdl","translation":"Любительский (многоголосый закадровый) (Синема УС)","update":"2020-06-18 19:07:25","iframe_src":"//24213.svetacdn.in/71tsRs29n5tZ/movie/41250"},{"id":41249,"title":"Полный улёт","kp_id":"1295867","imdb_id":"tt10692994","world_art_id":null,"type":"movie","add":"2020-06-17 11:38:05","orig_title":"Dhamaka","year":"2020-01-02","translations":["Любительский (многоголосый закадровый) (Синема УС)"],"quality":"webdl","translation":"Любительский (многоголосый закадровый) (Синема УС)","update":"2020-06-18 19:08:05","iframe_src":"//24213.svetacdn.in/71tsRs29n5tZ/movie/41249"},{"id":41248,"title":"Век дисфории","kp_id":"1274067","imdb_id":null,"world_art_id":null,"type":"movie","add":"2020-06-17 11:27:19","orig_title":"Age of Dysphoria","year":"2020-02-14","translations":["Любительский (многоголосый закадровый) (Синема УС)"],"quality":"hdtv","translation":"Любительский (многоголосый закадровый) (Синема УС)","update":"2020-06-18 19:41:26","iframe_src":"//24213.svetacdn.in/71tsRs29n5tZ/movie/41248"},{"id":41196,"title":"Я в полном порядке","kp_id":"42403","imdb_id":"tt0098683","world_art_id":null,"type":"movie","add":"2020-06-15 15:03:19","orig_title":"Ya v polnom poryadke","year":"1989-12-01","translations":["Оригинальная дорожка"],"quality":"dvb","translation":"Оригинальная дорожка","update":"2020-06-18 19:42:05","iframe_src":"//24213.svetacdn.in/71tsRs29n5tZ/movie/41196"},{"id":41195,"title":"Тайна старого леса","kp_id":"172003","imdb_id":"tt0108077","world_art_id":null,"type":"movie","add":"2020-06-15 15:01:24","orig_title":"Il segreto del bosco vecchio","year":"1993-09-06","translations":["Авторский (одноголосый закадровый) (Мудров Андрей)"],"quality":"dvdrip","translation":"Авторский (одноголосый закадровый) (Мудров Андрей)","update":"2020-06-18 19:42:44","iframe_src":"//24213.svetacdn.in/71tsRs29n5tZ/movie/41195"},{"id":41193,"title":"Голливуд/Болливуд","kp_id":"23738","imdb_id":"tt0303785","world_art_id":null,"type":"movie","add":"2020-06-15 14:54:39","orig_title":"Bollywood/Hollywood","year":"2002-09-06","translations":["Профессиональный (многоголосый закадровый)"],"quality":"dvb","translation":"Профессиональный (многоголосый закадровый)","update":"2020-06-18 19:44:18","iframe_src":"//24213.svetacdn.in/71tsRs29n5tZ/movie/41193"},{"id":41192,"title":"Боксер","kp_id":"408021","imdb_id":"tt1198189","world_art_id":null,"type":"movie","add":"2020-06-15 14:51:43","orig_title":"The Boxer","year":"2009-02-22","translations":["Профессиональный (двухголосый закадровый)"],"quality":"dvdrip","translation":"Профессиональный (двухголосый закадровый)","update":"2020-06-18 19:45:30","iframe_src":"//24213.svetacdn.in/71tsRs29n5tZ/movie/41192"},{"id":41191,"title":"Геркулес & Зена: Битва за Олимп","kp_id":"296828","imdb_id":"tt0119283","world_art_id":null,"type":"movie","add":"2020-06-15 14:50:13","orig_title":"Hercules and Xena - The Animated Movie: The Battle for Mount Olympus","year":"1998-01-06","translations":["Профессиональный (многоголосый закадровый) (ДТВ)"],"quality":"dvdrip","translation":"Профессиональный (многоголосый закадровый) (ДТВ)","update":"2020-06-18 19:45:57","iframe_src":"//24213.svetacdn.in/71tsRs29n5tZ/movie/41191"},{"id":41185,"title":"Ла Вьячча","kp_id":"13537","imdb_id":"tt0056657","world_art_id":null,"type":"movie","add":"2020-06-15 07:17:37","orig_title":"La viaccia","year":"1961-05-15","translations":["Авторский (одноголосый закадровый) (Визгунов Сергей)"],"quality":"sat","translation":"Авторский (одноголосый закадровый) (Визгунов Сергей)","update":"2020-06-19 06:49:55","iframe_src":"//24213.svetacdn.in/71tsRs29n5tZ/movie/41185"},{"id":40999,"title":"Невидимая","kp_id":"566369","imdb_id":"tt1717152","world_art_id":null,"type":"movie","add":"2020-06-07 15:46:04","orig_title":"Die Unsichtbare","year":"2011-07-03","translations":["Профессиональный (многоголосый закадровый)"],"quality":"bd","translation":"Профессиональный (многоголосый закадровый)","update":"2020-06-18 19:44:53","iframe_src":"//24213.svetacdn.in/71tsRs29n5tZ/movie/40999"},{"id":32689,"title":"Черное и синее","kp_id":"1189592","imdb_id":"tt7390646","world_art_id":null,"type":"movie","add":"2019-11-04 13:20:04","orig_title":"Black and Blue","year":"2019-09-21","translations":["[EN] Original (English)","Профессиональный (многоголосый закадровый) (iTunes)","Профессиональный (многоголосый закадровый)"],"quality":"bd","translation":"[EN] Original (English)","update":"2020-06-18 19:10:17","iframe_src":"//24213.svetacdn.in/71tsRs29n5tZ/movie/32689"},{"id":14712,"title":"Кровавый цирк","kp_id":"956200","imdb_id":"tt4247828","world_art_id":null,"type":"movie","add":"2017-12-21 23:11:11","orig_title":"Blood Circus","year":"2017-12-19","translations":["Профессиональный (многоголосый закадровый)","Профессиональный (многоголосый закадровый)"],"quality":"webdl","translation":"Профессиональный (многоголосый закадровый)","update":"2020-06-18 19:09:53","iframe_src":"//24213.svetacdn.in/71tsRs29n5tZ/movie/14712"}],"current_page":1206,"first_page_url":"https://videocdn.tv/api/short?limit=100&api_token=EnbO9h8pv1VyjbCJhg0WM9nG259n7mtz&cache31206=31206&page=1","from":120501,"last_page":727,"last_page_url":"https://videocdn.tv/api/short?limit=100&api_token=EnbO9h8pv1VyjbCJhg0WM9nG259n7mtz&cache31206=31206&page=727","next_page_url":null,"path":"https://videocdn.tv/api/short","per_page":100,"prev_page_url":"https://videocdn.tv/api/short?limit=100&api_token=EnbO9h8pv1VyjbCJhg0WM9nG259n7mtz&cache31206=31206&page=1205","to":120520,"total":72691}