{"result":true,"data":[{"id":53519,"title":"Мы были песнями","kp_id":"1437391","imdb_id":"tt11698662","world_art_id":null,"type":"movie","add":"2021-09-29 11:29:11","orig_title":"Fuimos canciones","year":"2021-09-29","translations":["Полное дублирование (Пифагор)"],"quality":"webdl","translation":"Полное дублирование (Пифагор)","update":"2021-09-29 17:27:13","iframe_src":"//7741.svetacdn.in/IAF0wWTdNYZm/movie/53519"},{"id":53518,"title":"Собачья смерть","kp_id":"1333392","imdb_id":"tt10644688","world_art_id":null,"type":"movie","add":"2021-09-29 11:27:26","orig_title":"La muerte de un perro","year":"2019-11-23","translations":["Любительский (двухголосый закадровый) (datynet & Yuka_chan)"],"quality":"webdl","translation":"Любительский (двухголосый закадровый) (datynet & Yuka_chan)","update":"2021-09-29 17:26:18","iframe_src":"//7741.svetacdn.in/IAF0wWTdNYZm/movie/53518"},{"id":53516,"title":"Факира","kp_id":"41822","imdb_id":"tt0298327","world_art_id":null,"type":"movie","add":"2021-09-29 09:50:31","orig_title":"Fakira","year":"1976-09-06","translations":["Любительский (одноголосый закадровый)"],"quality":"dvdrip","translation":"Любительский (одноголосый закадровый)","update":"2021-09-29 11:35:54","iframe_src":"//7741.svetacdn.in/IAF0wWTdNYZm/movie/53516"},{"id":53503,"title":"Интервенция","kp_id":"1437058","imdb_id":"tt13236726","world_art_id":null,"type":"movie","add":"2021-09-28 23:21:17","orig_title":"An Intervention","year":"2021-01-01","translations":["Любительский (многоголосый закадровый) (Синема УС)"],"quality":"webdl","translation":"Любительский (многоголосый закадровый) (Синема УС)","update":"2021-09-29 11:42:59","iframe_src":"//7741.svetacdn.in/IAF0wWTdNYZm/movie/53503"},{"id":53499,"title":"Кейси Масгрейвс: Star-Crossed","kp_id":"4542375","imdb_id":"tt15285682","world_art_id":null,"type":"movie","add":"2021-09-28 22:40:40","orig_title":"Star-Crossed: The Film","year":"2021-09-10","translations":["Любительский (многоголосый закадровый) (Синема УС)"],"quality":"webdl","translation":"Любительский (многоголосый закадровый) (Синема УС)","update":"2021-09-29 09:25:24","iframe_src":"//7741.svetacdn.in/IAF0wWTdNYZm/movie/53499"},{"id":53498,"title":"Не смотри туда","kp_id":"741203","imdb_id":"tt2709446","world_art_id":null,"type":"movie","add":"2021-09-28 22:36:06","orig_title":"Don't Look There","year":"2021-09-12","translations":["Любительский (многоголосый закадровый) (AlphaProject)"],"quality":"webdl","translation":"Любительский (многоголосый закадровый) (AlphaProject)","update":"2021-09-29 09:26:18","iframe_src":"//7741.svetacdn.in/IAF0wWTdNYZm/movie/53498"},{"id":53497,"title":"Парализованная","kp_id":"4414867","imdb_id":"tt14336200","world_art_id":null,"type":"movie","add":"2021-09-28 22:34:18","orig_title":"Paralyzed","year":"2021-07-23","translations":["Любительский (многоголосый закадровый) (Синема УС)"],"quality":"webdl","translation":"Любительский (многоголосый закадровый) (Синема УС)","update":"2021-09-29 09:28:36","iframe_src":"//7741.svetacdn.in/IAF0wWTdNYZm/movie/53497"},{"id":53496,"title":"Тайный брат моего мужа","kp_id":"4422302","imdb_id":"tt13943040","world_art_id":null,"type":"movie","add":"2021-09-28 22:32:26","orig_title":"A Deadly Deed","year":"2021-09-17","translations":["Любительский (многоголосый закадровый) (AlphaProject)"],"quality":"webdl","translation":"Любительский (многоголосый закадровый) (AlphaProject)","update":"2021-09-29 09:34:10","iframe_src":"//7741.svetacdn.in/IAF0wWTdNYZm/movie/53496"},{"id":53495,"title":"Женщина океана","kp_id":"1409399","imdb_id":"tt12551416","world_art_id":null,"type":"movie","add":"2021-09-28 22:31:11","orig_title":"Mulher Oceano","year":"2020-10-22","translations":["Любительский (многоголосый закадровый) (Синема УС)"],"quality":"webdl","translation":"Любительский (многоголосый закадровый) (Синема УС)","update":"2021-09-29 09:35:57","iframe_src":"//7741.svetacdn.in/IAF0wWTdNYZm/movie/53495"},{"id":53494,"title":"Про любовь","kp_id":"1079895","imdb_id":"tt6810146","world_art_id":null,"type":"movie","add":"2021-09-28 22:26:18","orig_title":"Liebesfilm","year":"2018-06-30","translations":["Любительский (многоголосый закадровый) (Синема УС)"],"quality":"webdl","translation":"Любительский (многоголосый закадровый) (Синема УС)","update":"2021-09-29 09:36:54","iframe_src":"//7741.svetacdn.in/IAF0wWTdNYZm/movie/53494"},{"id":53493,"title":"Третья война","kp_id":"1395425","imdb_id":"tt12792532","world_art_id":null,"type":"movie","add":"2021-09-28 22:22:14","orig_title":"La troisième guerre","year":"2020-09-06","translations":["Любительский (многоголосый закадровый) (Синема УС)"],"quality":"ts","translation":"Любительский (многоголосый закадровый) (Синема УС)","update":"2021-09-29 09:37:31","iframe_src":"//7741.svetacdn.in/IAF0wWTdNYZm/movie/53493"},{"id":53491,"title":"Да святится Имя Твоё","kp_id":"1122639","imdb_id":"tt8059196","world_art_id":null,"type":"movie","add":"2021-09-28 22:18:29","orig_title":"Hallowed Be Thy Name","year":"2020-06-30","translations":["Любительский (многоголосый закадровый) (Синема УС)"],"quality":"webdl","translation":"Любительский (многоголосый закадровый) (Синема УС)","update":"2021-09-29 09:31:54","iframe_src":"//7741.svetacdn.in/IAF0wWTdNYZm/movie/53491"},{"id":53486,"title":"Инфекция","kp_id":"1106264","imdb_id":"tt7297818","world_art_id":null,"type":"movie","add":"2021-09-28 22:06:05","orig_title":"Crisp Lips","year":"2020-01-01","translations":["Любительский (многоголосый закадровый) (Синема УС)"],"quality":"webdl","translation":"Любительский (многоголосый закадровый) (Синема УС)","update":"2021-09-29 09:27:14","iframe_src":"//7741.svetacdn.in/IAF0wWTdNYZm/movie/53486"},{"id":52893,"title":"Нефутбол","kp_id":"1198735","imdb_id":"tt9047564","world_art_id":null,"type":"movie","add":"2021-09-06 08:28:18","orig_title":"Nefutbol","year":"2021-09-01","translations":["Оригинальная дорожка","Оригинальная дорожка"],"quality":"ts","translation":"Оригинальная дорожка","update":"2021-09-29 11:54:44","iframe_src":"//7741.svetacdn.in/IAF0wWTdNYZm/movie/52893"},{"id":7987,"title":"Операция «Кобра»","kp_id":"1066296","imdb_id":"tt6795580","world_art_id":null,"type":"serial","add":"2020-06-24 11:49:31","orig_title":"Operation Cobra","year":"2019-02-15","translations":["Любительский (многоголосый закадровый) (Octopus)"],"seasons_count":1,"episodes_count":6,"episodes":6,"update":"2020-06-24 12:55:23","iframe_src":"//7741.svetacdn.in/IAF0wWTdNYZm/tv-series/7987"},{"id":7981,"title":"Взрослая Вэнсдэй Аддамс","kp_id":"934108","imdb_id":"tt3488236","world_art_id":null,"type":"serial","add":"2020-06-23 20:31:16","orig_title":"Adult Wednesday","year":"2013-09-25","translations":["Любительский (многоголосый закадровый) (Black Street Records)"],"seasons_count":2,"episodes_count":13,"episodes":7,"update":"2020-06-24 14:07:18","iframe_src":"//7741.svetacdn.in/IAF0wWTdNYZm/tv-series/7981"},{"id":7979,"title":"Русская наследница","kp_id":"661078","imdb_id":"tt4102308","world_art_id":null,"type":"serial","add":"2020-06-23 17:16:11","orig_title":"Russkaya naslednitsa","year":"2012-08-16","translations":["Оригинальная дорожка"],"seasons_count":1,"episodes_count":8,"episodes":8,"update":"2020-06-23 20:11:30","iframe_src":"//7741.svetacdn.in/IAF0wWTdNYZm/tv-series/7979"},{"id":7978,"title":"Роковая музыка","kp_id":"295729","imdb_id":"tt0159914","world_art_id":null,"type":"serial","add":"2020-06-23 10:03:55","orig_title":"Soul Music","year":"1997-05-01","translations":["Профессиональный (многоголосый закадровый) (2x2)"],"seasons_count":1,"episodes_count":7,"episodes":7,"update":"2020-06-24 16:01:40","iframe_src":"//7741.svetacdn.in/IAF0wWTdNYZm/tv-series/7978"},{"id":7977,"title":"Расписание судеб","kp_id":"356652","imdb_id":"tt0984637","world_art_id":null,"type":"serial","add":"2020-06-23 09:59:09","orig_title":"Raspisanie sudeb","year":"2009-11-19","translations":["Оригинальная дорожка"],"seasons_count":1,"episodes_count":12,"episodes":12,"update":"2020-06-24 15:50:16","iframe_src":"//7741.svetacdn.in/IAF0wWTdNYZm/tv-series/7977"},{"id":7976,"title":"Пропавшие без вести","kp_id":"1207880","imdb_id":"tt9204160","world_art_id":null,"type":"serial","add":"2020-06-22 19:27:24","orig_title":"Desaparecidos","year":"2020-06-19","translations":["Профессиональный (двухголосый закадровый) (IdeaFilm)"],"seasons_count":1,"episodes_count":13,"episodes":13,"update":"2020-06-24 13:19:11","iframe_src":"//7741.svetacdn.in/IAF0wWTdNYZm/tv-series/7976"},{"id":7970,"title":"Незнакомка из Уайлдфелл-Холла","kp_id":"94269","imdb_id":"tt0115387","world_art_id":null,"type":"serial","add":"2020-06-22 06:56:51","orig_title":"The Tenant of Wildfell Hall","year":"1996-11-17","translations":["Профессиональный (многоголосый закадровый) (Кармен Видео)"],"seasons_count":1,"episodes_count":3,"episodes":3,"update":"2020-06-23 19:13:53","iframe_src":"//7741.svetacdn.in/IAF0wWTdNYZm/tv-series/7970"},{"id":7949,"title":"Вероника. Беглянка","kp_id":"728119","imdb_id":"tt4083506","world_art_id":null,"type":"serial","add":"2020-06-19 02:47:59","orig_title":"Veronika. Beglyanka","year":"2013-03-11","translations":["Оригинальная дорожка"],"seasons_count":1,"episodes_count":16,"episodes":16,"update":"2020-06-24 11:01:11","iframe_src":"//7741.svetacdn.in/IAF0wWTdNYZm/tv-series/7949"},{"id":7947,"title":"Гиппократ","kp_id":"1217006","imdb_id":"tt9350920","world_art_id":null,"type":"serial","add":"2020-06-18 20:46:17","orig_title":"Hippocrate","year":"2018-11-26","translations":["Любительский (многоголосый закадровый) (Octopus)"],"seasons_count":1,"episodes_count":8,"episodes":8,"update":"2020-06-23 15:08:44","iframe_src":"//7741.svetacdn.in/IAF0wWTdNYZm/tv-series/7947"},{"id":7945,"title":"УГРО 5","kp_id":"790963","imdb_id":null,"world_art_id":null,"type":"serial","add":"2020-06-18 16:22:13","orig_title":"УГРО 5","year":"2014-06-22","translations":["Оригинальная дорожка"],"seasons_count":1,"episodes_count":24,"episodes":24,"update":"2020-06-23 19:42:00","iframe_src":"//7741.svetacdn.in/IAF0wWTdNYZm/tv-series/7945"},{"id":7944,"title":"УГРО 4","kp_id":"628889","imdb_id":null,"world_art_id":null,"type":"serial","add":"2020-06-18 16:10:10","orig_title":"УГРО 4","year":"2012-11-19","translations":["Оригинальная дорожка"],"seasons_count":1,"episodes_count":24,"episodes":24,"update":"2020-06-23 20:07:33","iframe_src":"//7741.svetacdn.in/IAF0wWTdNYZm/tv-series/7944"},{"id":7943,"title":"УГРО. Простые парни 3","kp_id":null,"imdb_id":"tt2351630","world_art_id":null,"type":"serial","add":"2020-06-18 15:41:25","orig_title":"UGRO. Prostye parni 3","year":"2011-07-09","translations":["Оригинальная дорожка"],"seasons_count":1,"episodes_count":16,"episodes":16,"update":"2020-06-23 11:32:43","iframe_src":"//7741.svetacdn.in/IAF0wWTdNYZm/tv-series/7943"},{"id":7862,"title":"Люби меня таким","kp_id":"793904","imdb_id":"tt2735500","world_art_id":null,"type":"serial","add":"2020-06-14 12:48:38","orig_title":"Beni Böyle Sev","year":"2013-02-11","translations":["Профессиональный (многоголосый закадровый) (Мобильное телевидение)"],"seasons_count":3,"episodes_count":89,"episodes":26,"update":"2020-06-24 16:49:21","iframe_src":"//7741.svetacdn.in/IAF0wWTdNYZm/tv-series/7862"},{"id":7840,"title":"В густом лесу","kp_id":"590631","imdb_id":"tt1910645","world_art_id":null,"type":"serial","add":"2020-06-12 12:10:01","orig_title":"The Woods","year":"2020-06-12","translations":["Любительский (многоголосый закадровый) (ColdFilm)","Любительский (многоголосый закадровый) (Octopus)","Профессиональный (двухголосый закадровый) (IdeaFilm)","Профессиональный (многоголосый закадровый) (NewStudio)","Профессиональный (двухголосый закадровый) (ViruseProject)"],"seasons_count":1,"episodes_count":6,"episodes":6,"update":"2020-06-24 15:29:30","iframe_src":"//7741.svetacdn.in/IAF0wWTdNYZm/tv-series/7840"},{"id":7519,"title":"Белые линии","kp_id":"1280210","imdb_id":"tt9073958","world_art_id":null,"type":"serial","add":"2020-05-15 10:04:52","orig_title":"White Lines","year":"2020-05-15","translations":["Любительский (многоголосый закадровый) (ColdFilm)","Полное дублирование (SDI Media | Iyuno-SDI Group Russia)","Любительский (многоголосый закадровый) (Octopus)","Профессиональный (многоголосый закадровый) (NewStudio)","Любительский (многоголосый закадровый) (Синема УС)"],"seasons_count":1,"episodes_count":10,"episodes":10,"update":"2020-06-24 15:24:36","iframe_src":"//7741.svetacdn.in/IAF0wWTdNYZm/tv-series/7519"},{"id":7436,"title":"Безжалостный","kp_id":"1326877","imdb_id":"tt11306366","world_art_id":null,"type":"serial","add":"2020-05-07 20:50:01","orig_title":"Ruthless","year":"2020-03-19","translations":["Любительский (многоголосый закадровый) (Octopus)"],"seasons_count":1,"episodes_count":12,"episodes":12,"update":"2020-06-24 14:24:28","iframe_src":"//7741.svetacdn.in/IAF0wWTdNYZm/tv-series/7436"},{"id":7348,"title":"Кодекс чести","kp_id":"414562","imdb_id":"tt3803976","world_art_id":null,"type":"serial","add":"2020-04-30 07:46:32","orig_title":"Kodeks chesti","year":"2002-02-01","translations":["Оригинальная дорожка"],"seasons_count":7,"episodes_count":133,"episodes":32,"update":"2020-06-24 17:04:03","iframe_src":"//7741.svetacdn.in/IAF0wWTdNYZm/tv-series/7348"},{"id":39833,"title":"Фантоцци уходит на пенсию","kp_id":"103359","imdb_id":"tt0095134","world_art_id":null,"type":"movie","add":"2020-04-26 05:35:43","orig_title":"Fantozzi va in pensione","year":"1988-12-22","translations":["Профессиональный (многоголосый закадровый)","Профессиональный (многоголосый закадровый) (Позитив)","Авторский (одноголосый закадровый) (Золотухин Николай)","Профессиональный (многоголосый закадровый) (НТВ)"],"quality":"dvdrip","translation":"Профессиональный (многоголосый закадровый)","update":"2021-09-29 11:56:08","iframe_src":"//7741.svetacdn.in/IAF0wWTdNYZm/movie/39833"},{"id":6603,"title":"Центральный Багдад","kp_id":"1198734","imdb_id":"tt7411098","world_art_id":null,"type":"serial","add":"2020-02-10 05:32:48","orig_title":"Baghdad Central","year":"2020-02-03","translations":["Любительский (многоголосый закадровый) (ColdFilm)","Профессиональный (многоголосый закадровый) (TVShows)","Профессиональный (многоголосый закадровый) (Кириллица)"],"seasons_count":1,"episodes_count":6,"episodes":6,"update":"2020-06-24 14:14:16","iframe_src":"//7741.svetacdn.in/IAF0wWTdNYZm/tv-series/6603"},{"id":22928,"title":"Игра в четыре руки","kp_id":"37694","imdb_id":"tt0079252","world_art_id":null,"type":"movie","add":"2019-03-11 20:59:08","orig_title":"Le guignolo","year":"1980-03-26","translations":["Полное дублирование","Авторский (одноголосый закадровый) (Гаврилов Андрей)","Полное дублирование (Союзмультфильм)","Профессиональный (многоголосый закадровый) (RUSCICO)","Профессиональный (многоголосый закадровый) (НТВ)"],"quality":"bd","translation":"Полное дублирование","update":"2021-09-29 17:16:34","iframe_src":"//7741.svetacdn.in/IAF0wWTdNYZm/movie/22928"},{"id":19018,"title":"Невезучие","kp_id":"20908","imdb_id":"tt0082183","world_art_id":null,"type":"movie","add":"2018-09-16 21:07:51","orig_title":"La chèvre","year":"1981-12-09","translations":["Полное дублирование","Полное дублирование","Профессиональный (двухголосый закадровый) (ТВЦ)","Профессиональный (многоголосый закадровый) (Позитив)"],"quality":"bd","translation":"Полное дублирование","update":"2021-09-29 12:01:59","iframe_src":"//7741.svetacdn.in/IAF0wWTdNYZm/movie/19018"},{"id":17549,"title":"Принц города","kp_id":"2300","imdb_id":"tt0082945","world_art_id":null,"type":"movie","add":"2018-07-04 10:46:06","orig_title":"Prince of the City","year":"1981-08-19","translations":["Профессиональный (двухголосый закадровый)","[EN] Original (English)","Авторский (одноголосый закадровый) (Михалёв Алексей)","Профессиональный (двухголосый закадровый)"],"quality":"webdl","translation":"Профессиональный (двухголосый закадровый)","update":"2021-09-29 11:57:38","iframe_src":"//7741.svetacdn.in/IAF0wWTdNYZm/movie/17549"},{"id":872,"title":"Живем сегодняшним днем","kp_id":"1008345","imdb_id":"tt5339440","world_art_id":null,"type":"serial","add":"2017-01-13 07:04:45","orig_title":"One Day at a Time","year":"2017-01-06","translations":["Профессиональный (многоголосый закадровый) (ColdFilm)","Профессиональный (многоголосый закадровый) (TVShows)","Профессиональный (многоголосый закадровый) (Jaskier)","Профессиональный (многоголосый закадровый) (HDrezka Studio)","Любительский (многоголосый закадровый) (Octopus)"],"seasons_count":4,"episodes_count":46,"episodes":7,"update":"2020-06-23 13:42:33","iframe_src":"//7741.svetacdn.in/IAF0wWTdNYZm/tv-series/872"},{"id":6871,"title":"Невезучие","kp_id":"18461","imdb_id":"tt0102729","world_art_id":null,"type":"movie","add":"2016-10-31 12:30:40","orig_title":"Pure Luck","year":"1991-08-09","translations":["Профессиональный (многоголосый закадровый)","Авторский (одноголосый закадровый) (Михалёв Алексей)","Профессиональный (многоголосый закадровый)","[EN] Original (English)"],"quality":"webdl","translation":"Профессиональный (многоголосый закадровый)","update":"2021-09-29 17:16:35","iframe_src":"//7741.svetacdn.in/IAF0wWTdNYZm/movie/6871"},{"id":441,"title":"Вечность","kp_id":"823594","imdb_id":"tt3487382","world_art_id":null,"type":"serial","add":"2016-09-15 04:20:43","orig_title":"Forever","year":"2014-09-22","translations":["Профессиональный (многоголосый закадровый) (LostFilm)","Профессиональный (многоголосый закадровый) (AlexFilm)","Профессиональный (многоголосый закадровый) (TVShows)","Полное дублирование (ТВ3)","Профессиональный (многоголосый закадровый) (NewStudio)"],"seasons_count":1,"episodes_count":22,"episodes":22,"update":"2020-06-24 16:53:32","iframe_src":"//7741.svetacdn.in/IAF0wWTdNYZm/tv-series/441"},{"id":3365,"title":"Тюрьма","kp_id":"5520","imdb_id":"tt0095904","world_art_id":null,"type":"movie","add":"2016-06-27 04:48:46","orig_title":"Prison","year":"1987-12-08","translations":["Профессиональный (многоголосый закадровый)","Авторский (одноголосый закадровый) (Михалёв Алексей)","[EN] Original (English)","Профессиональный (многоголосый закадровый)"],"quality":"bd","translation":"Профессиональный (многоголосый закадровый)","update":"2021-09-29 17:16:25","iframe_src":"//7741.svetacdn.in/IAF0wWTdNYZm/movie/3365"}],"current_page":299,"first_page_url":"https://videocdn.tv/api/short?limit=100&api_token=6Onb1W1alEUrBcKJZD3GoKBbWyAl2uG2&cache3299=3299&page=1","from":29801,"last_page":706,"last_page_url":"https://videocdn.tv/api/short?limit=100&api_token=6Onb1W1alEUrBcKJZD3GoKBbWyAl2uG2&cache3299=3299&page=706","next_page_url":"https://videocdn.tv/api/short?limit=100&api_token=6Onb1W1alEUrBcKJZD3GoKBbWyAl2uG2&cache3299=3299&page=300","path":"https://videocdn.tv/api/short","per_page":100,"prev_page_url":"https://videocdn.tv/api/short?limit=100&api_token=6Onb1W1alEUrBcKJZD3GoKBbWyAl2uG2&cache3299=3299&page=298","to":29840,"total":70502}