{"result":true,"data":[{"id":44772,"title":"Падшая","kp_id":"1248514","imdb_id":null,"world_art_id":null,"type":"movie","add":"2020-10-25 20:31:59","orig_title":"Do laai faa","year":"2019-10-30","translations":["Любительский (двухголосый закадровый) (Колобок)"],"quality":"bd","translation":"Любительский (двухголосый закадровый) (Колобок)","update":"2020-10-26 09:37:24","iframe_src":"//83.svetacdn.in/PfJ50H0ZBPg3/movie/44772"},{"id":44771,"title":"Осознание","kp_id":"1266729","imdb_id":"tt10313564","world_art_id":null,"type":"movie","add":"2020-10-25 20:30:18","orig_title":"The Understanding","year":"2019-07-01","translations":["Любительский (многоголосый закадровый) (Синема УС)"],"quality":"webdl","translation":"Любительский (многоголосый закадровый) (Синема УС)","update":"2020-10-25 23:46:09","iframe_src":"//83.svetacdn.in/PfJ50H0ZBPg3/movie/44771"},{"id":44751,"title":"Спасители","kp_id":"1062586","imdb_id":"tt7132672","world_art_id":null,"type":"movie","add":"2020-10-25 15:19:17","orig_title":"Saviors","year":"2018-03-03","translations":["Любительский (многоголосый закадровый) (@MUZOBOZ@)"],"quality":"webdl","translation":"Любительский (многоголосый закадровый) (@MUZOBOZ@)","update":"2020-10-26 07:26:32","iframe_src":"//83.svetacdn.in/PfJ50H0ZBPg3/movie/44751"},{"id":44750,"title":"Подводное течение","kp_id":"568237","imdb_id":"tt1727554","world_art_id":null,"type":"movie","add":"2020-10-25 14:45:07","orig_title":"Undertow","year":"2012-06-16","translations":["Профессиональный (двухголосый закадровый)"],"quality":"sat","translation":"Профессиональный (двухголосый закадровый)","update":"2020-10-26 07:32:58","iframe_src":"//83.svetacdn.in/PfJ50H0ZBPg3/movie/44750"},{"id":44749,"title":"На западном фронте без перемен","kp_id":"229301","imdb_id":"tt0078753","world_art_id":null,"type":"movie","add":"2020-10-25 14:25:28","orig_title":"All Quiet on the Western Front","year":"1979-11-14","translations":["Профессиональный (многоголосый закадровый)"],"quality":"dvdrip","translation":"Профессиональный (многоголосый закадровый)","update":"2020-10-26 07:20:02","iframe_src":"//83.svetacdn.in/PfJ50H0ZBPg3/movie/44749"},{"id":44712,"title":"Место, где не нужно слов","kp_id":"1133965","imdb_id":"tt8110988","world_art_id":null,"type":"movie","add":"2020-10-23 16:38:01","orig_title":"The Place of No Words","year":"2019-04-27","translations":["Любительский (многоголосый закадровый) (@MUZOBOZ@)"],"quality":"webdl","translation":"Любительский (многоголосый закадровый) (@MUZOBOZ@)","update":"2020-10-25 08:42:49","iframe_src":"//83.svetacdn.in/PfJ50H0ZBPg3/movie/44712"},{"id":44697,"title":"Variações — Ангел-хранитель","kp_id":"774793","imdb_id":"tt2155399","world_art_id":null,"type":"movie","add":"2020-10-22 19:01:27","orig_title":"Variações","year":"2019-08-19","translations":["Любительский (многоголосый закадровый) (@MUZOBOZ@)"],"quality":"bd","translation":"Любительский (многоголосый закадровый) (@MUZOBOZ@)","update":"2020-10-25 08:43:51","iframe_src":"//83.svetacdn.in/PfJ50H0ZBPg3/movie/44697"},{"id":44693,"title":"Турки идут. Меч справедливости","kp_id":"1320661","imdb_id":"tt11167818","world_art_id":null,"type":"movie","add":"2020-10-22 18:41:25","orig_title":"Türkler Geliyor: Adaletin Kilici","year":"2019-12-27","translations":["Любительский (многоголосый закадровый)"],"quality":"sat","translation":"Любительский (многоголосый закадровый)","update":"2020-10-25 18:57:06","iframe_src":"//83.svetacdn.in/PfJ50H0ZBPg3/movie/44693"},{"id":44188,"title":"Хэллоуин Хьюби","kp_id":"1290806","imdb_id":"tt10682266","world_art_id":null,"type":"movie","add":"2020-10-07 09:36:45","orig_title":"Hubie Halloween","year":"2020-10-07","translations":["Original (English)","Полное дублирование (iTunes)","Полное дублирование (Пифагор)"],"quality":"webdl","translation":"Original (English)","update":"2020-10-25 18:55:52","iframe_src":"//83.svetacdn.in/PfJ50H0ZBPg3/movie/44188"},{"id":44044,"title":"Заячий хвостик","kp_id":"630570","imdb_id":null,"world_art_id":null,"type":"movie","add":"2020-10-01 16:38:06","orig_title":"Заячий хвостик","year":"1984-01-01","translations":["Оригинальная дорожка"],"quality":"dvdrip","translation":"Оригинальная дорожка","update":"2020-10-26 11:45:49","iframe_src":"//83.svetacdn.in/PfJ50H0ZBPg3/movie/44044"},{"id":44043,"title":"Илья Муромец и Соловей Разбойник","kp_id":"420061","imdb_id":"tt2390078","world_art_id":null,"type":"movie","add":"2020-10-01 16:28:07","orig_title":"Ilya Muromets i Solovey-Razboynik","year":"1978-01-01","translations":["Оригинальная дорожка"],"quality":"dvdrip","translation":"Оригинальная дорожка","update":"2020-10-26 11:44:55","iframe_src":"//83.svetacdn.in/PfJ50H0ZBPg3/movie/44043"},{"id":44042,"title":"История с единицей","kp_id":"630535","imdb_id":null,"world_art_id":null,"type":"movie","add":"2020-10-01 16:20:26","orig_title":"История с единицей","year":"1975-01-01","translations":["Оригинальная дорожка"],"quality":"dvdrip","translation":"Оригинальная дорожка","update":"2020-10-26 11:43:19","iframe_src":"//83.svetacdn.in/PfJ50H0ZBPg3/movie/44042"},{"id":44041,"title":"Шах и слуга","kp_id":"748146","imdb_id":"tt2997054","world_art_id":null,"type":"movie","add":"2020-10-01 16:10:00","orig_title":"Sah va xidmatçi","year":"1976-01-01","translations":["Оригинальная дорожка"],"quality":"webdl","translation":"Оригинальная дорожка","update":"2020-10-26 11:41:04","iframe_src":"//83.svetacdn.in/PfJ50H0ZBPg3/movie/44041"},{"id":44040,"title":"Мама на дереве","kp_id":"842742","imdb_id":null,"world_art_id":null,"type":"movie","add":"2020-10-01 16:04:37","orig_title":"Мама на дереве","year":"1986-01-01","translations":["Оригинальная дорожка"],"quality":"webdl","translation":"Оригинальная дорожка","update":"2020-10-26 11:39:47","iframe_src":"//83.svetacdn.in/PfJ50H0ZBPg3/movie/44040"},{"id":42492,"title":"Вечность между нами","kp_id":"995075","imdb_id":"tt5723282","world_art_id":null,"type":"movie","add":"2020-08-16 14:00:10","orig_title":"Endless","year":"2020-05-08","translations":["Любительский (многоголосый закадровый) (@MUZOBOZ@)","Original (English)","Полное дублирование","Полное дублирование (iTunes)"],"quality":"webdl","translation":"Любительский (многоголосый закадровый) (@MUZOBOZ@)","update":"2020-10-25 18:54:34","iframe_src":"//83.svetacdn.in/PfJ50H0ZBPg3/movie/42492"},{"id":41705,"title":"Мой создатель","kp_id":"1055319","imdb_id":"tt6882604","world_art_id":null,"type":"movie","add":"2020-07-10 13:37:55","orig_title":"Archive","year":"2020-07-10","translations":["Полное дублирование","Любительский (многоголосый закадровый) (@MUZOBOZ@)","Original (English)","Профессиональный (многоголосый закадровый) (HDrezka Studio)","Профессиональный (многоголосый закадровый) (HDrezka Studio)","Полное дублирование (iTunes)"],"quality":"webdl","translation":"Полное дублирование","update":"2020-10-25 18:58:33","iframe_src":"//83.svetacdn.in/PfJ50H0ZBPg3/movie/41705"},{"id":38535,"title":"Номер один","kp_id":"1314719","imdb_id":null,"world_art_id":null,"type":"movie","add":"2020-03-25 20:04:10","orig_title":"Номер один","year":"2020-03-19","translations":["Оригинальная дорожка"],"quality":"webdl","translation":"Оригинальная дорожка","update":"2020-10-25 18:53:35","iframe_src":"//83.svetacdn.in/PfJ50H0ZBPg3/movie/38535"},{"id":37948,"title":"Любовь между строк","kp_id":"1150547","imdb_id":"tt8435892","world_art_id":null,"type":"movie","add":"2020-03-13 14:54:03","orig_title":"Gut gegen Nordwind","year":"2019-09-03","translations":["Любительский (многоголосый закадровый) (Синема УС)","Полное дублирование","Полное дублирование (iTunes)"],"quality":"webdl","translation":"Любительский (многоголосый закадровый) (Синема УС)","update":"2020-10-25 18:57:51","iframe_src":"//83.svetacdn.in/PfJ50H0ZBPg3/movie/37948"},{"id":31060,"title":"Опасная авантюра","kp_id":"1289120","imdb_id":"tt6769326","world_art_id":null,"type":"movie","add":"2019-09-22 14:22:35","orig_title":"American Dreamer","year":"2018-09-22","translations":["Полное дублирование (iTunes)"],"quality":"webdl","translation":"Полное дублирование (iTunes)","update":"2020-10-25 08:47:06","iframe_src":"//83.svetacdn.in/PfJ50H0ZBPg3/movie/31060"},{"id":3243,"title":"Опасная пятёрка","kp_id":"721904","imdb_id":"tt1807165","world_art_id":null,"type":"serial","add":"2018-09-30 16:35:15","orig_title":"Danger 5","year":"2011-11-20","translations":["Любительский (двухголосый закадровый) (LakeFilms)"],"seasons_count":1,"episodes_count":7,"episodes":7,"update":"2018-10-01 12:14:17","iframe_src":"//83.svetacdn.in/PfJ50H0ZBPg3/tv-series/3243"},{"id":3242,"title":"Женщина в зеркале","kp_id":"1162764","imdb_id":null,"world_art_id":null,"type":"serial","add":"2018-09-30 09:31:15","orig_title":"Женщина в зеркале","year":"2018-09-29","translations":["Оригинальная дорожка"],"seasons_count":1,"episodes_count":4,"episodes":4,"update":"2018-10-01 12:18:09","iframe_src":"//83.svetacdn.in/PfJ50H0ZBPg3/tv-series/3242"},{"id":3241,"title":"Шестой пост","kp_id":"1112943","imdb_id":"tt8184066","world_art_id":null,"type":"serial","add":"2018-09-30 08:07:18","orig_title":"Shestoy post","year":"2018-03-15","translations":["Оригинальная дорожка"],"seasons_count":1,"episodes_count":5,"episodes":5,"update":"2018-10-01 11:58:10","iframe_src":"//83.svetacdn.in/PfJ50H0ZBPg3/tv-series/3241"},{"id":3240,"title":"Училка","kp_id":"1192364","imdb_id":null,"world_art_id":null,"type":"serial","add":"2018-09-30 08:03:38","orig_title":"Училка","year":"2018-09-29","translations":["Оригинальная дорожка"],"seasons_count":1,"episodes_count":2,"episodes":2,"update":"2018-10-01 11:51:53","iframe_src":"//83.svetacdn.in/PfJ50H0ZBPg3/tv-series/3240"},{"id":3237,"title":"Любовь ангелов","kp_id":"1163132","imdb_id":"tt8586316","world_art_id":null,"type":"serial","add":"2018-09-28 19:16:14","orig_title":"Meleklerin Aski","year":"2018-07-04","translations":["Любительский (одноголосый закадровый)"],"seasons_count":1,"episodes_count":11,"episodes":11,"update":"2018-10-01 11:49:01","iframe_src":"//83.svetacdn.in/PfJ50H0ZBPg3/tv-series/3237"},{"id":3229,"title":"Саутленд","kp_id":"427129","imdb_id":"tt1299368","world_art_id":null,"type":"serial","add":"2018-09-27 09:38:56","orig_title":"Southland","year":"2011-02-23","translations":["Профессиональный (многоголосый закадровый) (NovaFilm)","Профессиональный (многоголосый закадровый)"],"seasons_count":5,"episodes_count":43,"episodes":10,"update":"2018-09-29 09:37:39","iframe_src":"//83.svetacdn.in/PfJ50H0ZBPg3/tv-series/3229"},{"id":3228,"title":"Служба новостей","kp_id":"584777","imdb_id":"tt1870479","world_art_id":null,"type":"serial","add":"2018-09-27 09:23:31","orig_title":"The Newsroom","year":"2013-03-26","translations":["Профессиональный (многоголосый закадровый) (NewStudio)","Профессиональный (многоголосый закадровый) (Amedia)"],"seasons_count":3,"episodes_count":25,"episodes":6,"update":"2018-09-28 09:24:15","iframe_src":"//83.svetacdn.in/PfJ50H0ZBPg3/tv-series/3228"},{"id":3227,"title":"Майти Буш","kp_id":"438466","imdb_id":"tt0416394","world_art_id":null,"type":"serial","add":"2018-09-27 08:52:55","orig_title":"The Mighty Boosh","year":"2003-05-20","translations":["Профессиональный (многоголосый закадровый)"],"seasons_count":3,"episodes_count":20,"episodes":6,"update":"2018-09-28 09:57:16","iframe_src":"//83.svetacdn.in/PfJ50H0ZBPg3/tv-series/3227"},{"id":3218,"title":"Близкие друзья","kp_id":"262973","imdb_id":"tt0262985","world_art_id":null,"type":"serial","add":"2018-09-25 08:34:30","orig_title":"Queer as Folk","year":"2000-12-03","translations":["Любительский (двухголосый закадровый) (GoldTeam)"],"seasons_count":5,"episodes_count":82,"episodes":13,"update":"2018-09-26 23:52:05","iframe_src":"//83.svetacdn.in/PfJ50H0ZBPg3/tv-series/3218"},{"id":3213,"title":"Красавчик","kp_id":"774514","imdb_id":"tt3350766","world_art_id":null,"type":"serial","add":"2018-09-24 11:49:14","orig_title":"Yebbeun namja","year":"2013-11-20","translations":["Любительский (двухголосый закадровый) (GREEN TEA)"],"seasons_count":1,"episodes_count":16,"episodes":16,"update":"2018-09-27 07:39:02","iframe_src":"//83.svetacdn.in/PfJ50H0ZBPg3/tv-series/3213"},{"id":3196,"title":"Шпионка","kp_id":"86234","imdb_id":"tt0285333","world_art_id":null,"type":"serial","add":"2018-09-20 12:22:58","orig_title":"Alias","year":"2001-09-30","translations":["Профессиональный (многоголосый закадровый) (Первый канал | ОРТ)","Профессиональный (многоголосый закадровый) (SET)"],"seasons_count":5,"episodes_count":105,"episodes":17,"update":"2018-09-28 07:35:12","iframe_src":"//83.svetacdn.in/PfJ50H0ZBPg3/tv-series/3196"},{"id":3186,"title":"История Бобби Брауна","kp_id":"1155815","imdb_id":"tt8101768","world_art_id":null,"type":"serial","add":"2018-09-19 10:18:27","orig_title":"The Bobby Brown Story","year":"2018-09-04","translations":["Любительский (двухголосый закадровый) (Sunshine Studio)"],"seasons_count":1,"episodes_count":2,"episodes":2,"update":"2018-10-01 14:17:44","iframe_src":"//83.svetacdn.in/PfJ50H0ZBPg3/tv-series/3186"},{"id":3184,"title":"Акварели","kp_id":"1189791","imdb_id":null,"world_art_id":null,"type":"serial","add":"2018-09-18 15:39:49","orig_title":"Акварели","year":"2018-09-17","translations":["Оригинальная дорожка"],"seasons_count":1,"episodes_count":16,"episodes":16,"update":"2018-09-30 20:01:40","iframe_src":"//83.svetacdn.in/PfJ50H0ZBPg3/tv-series/3184"},{"id":3123,"title":"Ищейка 3","kp_id":"1188068","imdb_id":null,"world_art_id":null,"type":"serial","add":"2018-09-04 18:41:22","orig_title":"Ищейка 3","year":"2018-09-03","translations":["Оригинальная дорожка"],"seasons_count":1,"episodes_count":16,"episodes":16,"update":"2018-09-28 10:21:23","iframe_src":"//83.svetacdn.in/PfJ50H0ZBPg3/tv-series/3123"},{"id":2859,"title":"Дубль два","kp_id":"1142523","imdb_id":"tt5612866","world_art_id":null,"type":"serial","add":"2018-06-23 06:32:17","orig_title":"Take Two","year":"2018-06-21","translations":["Любительский (многоголосый закадровый) (ColdFilm)","Профессиональный (многоголосый закадровый) (NewStudio)"],"seasons_count":1,"episodes_count":13,"episodes":13,"update":"2018-09-28 09:09:51","iframe_src":"//83.svetacdn.in/PfJ50H0ZBPg3/tv-series/2859"},{"id":2817,"title":"Дети маленького бога","kp_id":"1097448","imdb_id":null,"world_art_id":null,"type":"serial","add":"2018-06-14 19:29:13","orig_title":"Jakeun sinui aideul","year":"2018-02-24","translations":["Любительский (многоголосый закадровый) (XDUB Dorama)"],"seasons_count":1,"episodes_count":16,"episodes":16,"update":"2018-09-29 09:19:33","iframe_src":"//83.svetacdn.in/PfJ50H0ZBPg3/tv-series/2817"},{"id":15423,"title":"Полночная закусочная","kp_id":"850362","imdb_id":"tt3958276","world_art_id":null,"type":"movie","add":"2018-03-05 22:22:38","orig_title":"Shinya shokudo","year":"2014-11-10","translations":["Любительский (одноголосый закадровый)","Любительский (одноголосый закадровый) (3df voice)"],"quality":"bd","translation":"Любительский (одноголосый закадровый)","update":"2020-10-26 07:48:24","iframe_src":"//83.svetacdn.in/PfJ50H0ZBPg3/movie/15423"},{"id":1791,"title":"Студия 17","kp_id":"569824","imdb_id":"tt3507712","world_art_id":null,"type":"serial","add":"2017-11-30 13:13:12","orig_title":"Studiya 17","year":"2013-09-30","translations":["Оригинальная дорожка"],"seasons_count":1,"episodes_count":16,"episodes":16,"update":"2018-09-28 09:30:17","iframe_src":"//83.svetacdn.in/PfJ50H0ZBPg3/tv-series/1791"},{"id":1728,"title":"По болезни","kp_id":"982447","imdb_id":"tt5770788","world_art_id":null,"type":"serial","add":"2017-11-13 06:28:18","orig_title":"Sick Note","year":"2017-11-07","translations":["Профессиональный (многоголосый закадровый) (Ozz.tv)"],"seasons_count":2,"episodes_count":14,"episodes":8,"update":"2018-09-29 09:20:18","iframe_src":"//83.svetacdn.in/PfJ50H0ZBPg3/tv-series/1728"},{"id":1096,"title":"Британские СС","kp_id":"989091","imdb_id":"tt4939950","world_art_id":null,"type":"serial","add":"2017-03-13 11:48:06","orig_title":"SS-GB","year":"2017-02-19","translations":["Профессиональный (многоголосый закадровый) (Jaskier)","Профессиональный (многоголосый закадровый) (FilmsClub)"],"seasons_count":1,"episodes_count":5,"episodes":5,"update":"2018-10-01 07:34:36","iframe_src":"//83.svetacdn.in/PfJ50H0ZBPg3/tv-series/1096"},{"id":128,"title":"Счастливчик","kp_id":"940634","imdb_id":"tt4800878","world_art_id":null,"type":"serial","add":"2016-06-02 12:04:46","orig_title":"Stan Lee's Lucky Man","year":"2016-01-22","translations":["Профессиональный (многоголосый закадровый) (Jaskier)","Профессиональный (многоголосый закадровый) (BaibaKo)"],"seasons_count":3,"episodes_count":28,"episodes":8,"update":"2018-10-01 12:06:46","iframe_src":"//83.svetacdn.in/PfJ50H0ZBPg3/tv-series/128"}],"current_page":409,"first_page_url":"https://videocdn.tv/api/short?limit=100&api_token=RgFQdUIR2dRmwv8iYa5SnFNgnw3vpjKj&cache3409=3409&page=1","from":40801,"last_page":624,"last_page_url":"https://videocdn.tv/api/short?limit=100&api_token=RgFQdUIR2dRmwv8iYa5SnFNgnw3vpjKj&cache3409=3409&page=624","next_page_url":"https://videocdn.tv/api/short?limit=100&api_token=RgFQdUIR2dRmwv8iYa5SnFNgnw3vpjKj&cache3409=3409&page=410","path":"https://videocdn.tv/api/short","per_page":100,"prev_page_url":"https://videocdn.tv/api/short?limit=100&api_token=RgFQdUIR2dRmwv8iYa5SnFNgnw3vpjKj&cache3409=3409&page=408","to":40840,"total":62339}