{"result":true,"data":[{"id":32297,"title":"Сторож","kp_id":"1046033","imdb_id":"tt10310222","world_art_id":null,"type":"movie","add":"2019-10-24 09:41:07","orig_title":"Storozh","year":"2019-10-24","translations":["Оригинальная дорожка"],"quality":"webdl","translation":"Оригинальная дорожка","update":"2019-10-24 11:55:36","iframe_src":"//7043.svetacdn.in/71tsRs29n5tZ/movie/32297"},{"id":32290,"title":"6 лет в любви","kp_id":"415644","imdb_id":"tt1233458","world_art_id":null,"type":"movie","add":"2019-10-23 21:15:49","orig_title":"6 nyeon-jjae yeonae-jung","year":"2008-02-05","translations":["Любительский (двухголосый закадровый) (STEPonee)"],"quality":"hdtv","translation":"Любительский (двухголосый закадровый) (STEPonee)","update":"2019-10-24 12:09:27","iframe_src":"//7043.svetacdn.in/71tsRs29n5tZ/movie/32290"},{"id":32288,"title":"Счастливый конец с ночёвкой","kp_id":"1310371","imdb_id":"tt10628006","world_art_id":null,"type":"movie","add":"2019-10-23 20:19:19","orig_title":"Happy Endings Sleepover","year":"2019-12-13","translations":["Любительский (многоголосый закадровый) (Синема УС)"],"quality":"webdl","translation":"Любительский (многоголосый закадровый) (Синема УС)","update":"2019-10-24 12:22:19","iframe_src":"//7043.svetacdn.in/71tsRs29n5tZ/movie/32288"},{"id":32287,"title":"Меланхолия","kp_id":"1066716","imdb_id":"tt6645236","world_art_id":null,"type":"movie","add":"2019-10-23 20:17:09","orig_title":"Blue","year":"2018-08-24","translations":["Профессиональный (многоголосый закадровый) (AlphaProject)"],"quality":"webdl","translation":"Профессиональный (многоголосый закадровый) (AlphaProject)","update":"2019-10-24 12:22:46","iframe_src":"//7043.svetacdn.in/71tsRs29n5tZ/movie/32287"},{"id":32286,"title":"Наверху","kp_id":"1311144","imdb_id":"tt11066130","world_art_id":null,"type":"movie","add":"2019-10-23 20:13:22","orig_title":"Upstarts","year":"2019-10-18","translations":["Любительский (многоголосый закадровый) (Синема УС)"],"quality":"webdl","translation":"Любительский (многоголосый закадровый) (Синема УС)","update":"2019-10-24 12:23:15","iframe_src":"//7043.svetacdn.in/71tsRs29n5tZ/movie/32286"},{"id":32285,"title":"Нигде, Мичиган","kp_id":"976205","imdb_id":"tt5633450","world_art_id":null,"type":"movie","add":"2019-10-23 20:11:17","orig_title":"Nowhere, Michigan","year":"2017-05-04","translations":["Любительский (многоголосый закадровый) (Синема УС)"],"quality":"webdl","translation":"Любительский (многоголосый закадровый) (Синема УС)","update":"2019-10-24 12:23:49","iframe_src":"//7043.svetacdn.in/71tsRs29n5tZ/movie/32285"},{"id":32284,"title":"Спринтер","kp_id":"1078794","imdb_id":"tt5903926","world_art_id":null,"type":"movie","add":"2019-10-23 20:09:04","orig_title":"Sprinter","year":"2019-09-06","translations":["Любительский (многоголосый закадровый) (Синема УС)"],"quality":"webdl","translation":"Любительский (многоголосый закадровый) (Синема УС)","update":"2019-10-24 12:24:26","iframe_src":"//7043.svetacdn.in/71tsRs29n5tZ/movie/32284"},{"id":32283,"title":"Два огонька","kp_id":"1105399","imdb_id":"tt8360186","world_art_id":null,"type":"movie","add":"2019-10-23 20:08:00","orig_title":"Two lights: relumino","year":"2017-12-21","translations":["Любительский (двухголосый закадровый) (STEPonee)"],"quality":"webdl","translation":"Любительский (двухголосый закадровый) (STEPonee)","update":"2019-10-24 12:03:44","iframe_src":"//7043.svetacdn.in/71tsRs29n5tZ/movie/32283"},{"id":32245,"title":"Новая машина Майка","kp_id":"229092","imdb_id":"tt0323250","world_art_id":null,"type":"movie","add":"2019-10-22 16:03:34","orig_title":"Mike's New Car","year":"2002-05-24","translations":["Полное дублирование"],"quality":"bd","translation":"Полное дублирование","update":"2019-10-24 11:30:53","iframe_src":"//7043.svetacdn.in/71tsRs29n5tZ/movie/32245"},{"id":32243,"title":"Флинтстоуны: Ябба-Дабба-Ду!","kp_id":"230051","imdb_id":"tt0107180","world_art_id":null,"type":"movie","add":"2019-10-22 15:47:55","orig_title":"I Yabba-Dabba Do!","year":"1993-02-07","translations":["Полное дублирование"],"quality":"dvdrip","translation":"Полное дублирование","update":"2019-10-24 11:29:32","iframe_src":"//7043.svetacdn.in/71tsRs29n5tZ/movie/32243"},{"id":32242,"title":"Пингвины из Мадагаскара в рождественских приключениях","kp_id":"178460","imdb_id":"tt0484439","world_art_id":null,"type":"movie","add":"2019-10-22 15:43:54","orig_title":"The Madagascar Penguins in a Christmas Caper","year":"2005-10-07","translations":["Полное дублирование"],"quality":"bd","translation":"Полное дублирование","update":"2019-10-24 11:28:31","iframe_src":"//7043.svetacdn.in/71tsRs29n5tZ/movie/32242"},{"id":32241,"title":"Южный Парк: Воображляндия","kp_id":"429012","imdb_id":"tt1308667","world_art_id":null,"type":"movie","add":"2019-10-22 15:39:22","orig_title":"South Park: Imaginationland","year":"2008-03-11","translations":["Профессиональный (многоголосый закадровый) (MTV)"],"quality":"dvdrip","translation":"Профессиональный (многоголосый закадровый) (MTV)","update":"2019-10-24 11:27:12","iframe_src":"//7043.svetacdn.in/71tsRs29n5tZ/movie/32241"},{"id":32239,"title":"Карапузы в Париже","kp_id":"2353","imdb_id":"tt0213203","world_art_id":null,"type":"movie","add":"2019-10-22 10:53:42","orig_title":"Rugrats in Paris: The Movie - Rugrats II","year":"2000-11-05","translations":["Полное дублирование"],"quality":"webdl","translation":"Полное дублирование","update":"2019-10-24 11:24:54","iframe_src":"//7043.svetacdn.in/71tsRs29n5tZ/movie/32239"},{"id":32238,"title":"Проклятие","kp_id":"57252","imdb_id":"tt0364385","world_art_id":null,"type":"movie","add":"2019-10-22 10:48:45","orig_title":"Ju-on","year":"2002-10-18","translations":["Профессиональный (многоголосый закадровый)"],"quality":"bd","translation":"Профессиональный (многоголосый закадровый)","update":"2019-10-24 11:23:43","iframe_src":"//7043.svetacdn.in/71tsRs29n5tZ/movie/32238"},{"id":32237,"title":"Принцесса Солнца","kp_id":"246292","imdb_id":"tt0459959","world_art_id":null,"type":"movie","add":"2019-10-22 10:44:37","orig_title":"La reine soleil","year":"2007-03-13","translations":["Полное дублирование"],"quality":"dvdrip","translation":"Полное дублирование","update":"2019-10-24 11:21:46","iframe_src":"//7043.svetacdn.in/71tsRs29n5tZ/movie/32237"},{"id":32236,"title":"Орден Дракона","kp_id":"603329","imdb_id":"tt1999141","world_art_id":null,"type":"movie","add":"2019-10-22 10:40:31","orig_title":"Dragon Crusaders","year":"2011-09-27","translations":["Профессиональный (многоголосый закадровый)"],"quality":"bd","translation":"Профессиональный (многоголосый закадровый)","update":"2019-10-24 11:20:49","iframe_src":"//7043.svetacdn.in/71tsRs29n5tZ/movie/32236"},{"id":20664,"title":"Шёпот","kp_id":"596432","imdb_id":"tt1986202","world_art_id":null,"type":"movie","add":"2018-12-11 22:01:56","orig_title":"Whispers","year":"2015-10-30","translations":["Любительский (одноголосый закадровый) (datynet)","Любительский (многоголосый закадровый) (Синема УС)"],"quality":"webdl","translation":"Любительский (одноголосый закадровый) (datynet)","update":"2019-10-24 12:21:29","iframe_src":"//7043.svetacdn.in/71tsRs29n5tZ/movie/20664"},{"id":15261,"title":"Всё о наших секретах","kp_id":null,"imdb_id":"tt7726702","world_art_id":null,"type":"movie","add":"2018-02-22 05:43:18","orig_title":"Secret Fruit","year":"2017-07-07","translations":["Любительский (двухголосый закадровый) (XDUB Dorama)","Любительский (двухголосый закадровый) (STEPonee)"],"quality":"webdl","translation":"Любительский (двухголосый закадровый) (XDUB Dorama)","update":"2019-10-24 12:07:00","iframe_src":"//7043.svetacdn.in/71tsRs29n5tZ/movie/15261"},{"id":13913,"title":"Завтра я встречаюсь со вчерашней тобой","kp_id":"992038","imdb_id":"tt5338222","world_art_id":null,"type":"movie","add":"2017-10-19 22:33:43","orig_title":"Boku wa ashita, kinou no kimi to date suru","year":"2016-12-17","translations":["Любительский (двухголосый закадровый) (XDUB Dorama)","Любительский (двухголосый закадровый) (STEPonee)"],"quality":"webdl","translation":"Любительский (двухголосый закадровый) (XDUB Dorama)","update":"2019-10-24 12:08:54","iframe_src":"//7043.svetacdn.in/71tsRs29n5tZ/movie/13913"},{"id":8879,"title":"Хроники зла","kp_id":"897918","imdb_id":"tt4619940","world_art_id":null,"type":"movie","add":"2017-01-12 11:38:52","orig_title":"Akui yeondaegi","year":"2015-05-14","translations":["Любительский (двухголосый закадровый)","Любительский (многоголосый закадровый) (STEPonee)"],"quality":"webdl","translation":"Любительский (двухголосый закадровый)","update":"2019-10-24 12:04:24","iframe_src":"//7043.svetacdn.in/71tsRs29n5tZ/movie/8879"}],"current_page":1032,"first_page_url":"https://videocdn.tv/api/short?limit=100&api_token=EnbO9h8pv1VyjbCJhg0WM9nG259n7mtz&cache31032=31032&page=1","from":103101,"last_page":614,"last_page_url":"https://videocdn.tv/api/short?limit=100&api_token=EnbO9h8pv1VyjbCJhg0WM9nG259n7mtz&cache31032=31032&page=614","next_page_url":null,"path":"https://videocdn.tv/api/short","per_page":100,"prev_page_url":"https://videocdn.tv/api/short?limit=100&api_token=EnbO9h8pv1VyjbCJhg0WM9nG259n7mtz&cache31032=31032&page=1031","to":103120,"total":61324}