{"result":true,"data":[{"id":50272,"title":"Рождественский обмен","kp_id":"1409139","imdb_id":"tt12932550","world_art_id":null,"type":"movie","add":"2021-05-10 11:18:44","orig_title":"A Christmas Exchange","year":"2020-12-12","translations":["Любительский (многоголосый закадровый) (AlphaProject)"],"quality":"webdl","translation":"Любительский (многоголосый закадровый) (AlphaProject)","update":"2021-05-10 14:32:15","iframe_src":"//8965.svetacdn.in/si4jsFRrtgrT/movie/50272"},{"id":50271,"title":"Рецепт обольщения","kp_id":"4297137","imdb_id":"tt13612162","world_art_id":null,"type":"movie","add":"2021-05-10 11:10:45","orig_title":"A Recipe for Seduction","year":"2020-12-13","translations":["Любительский (многоголосый закадровый) (Синема УС)"],"quality":"webdl","translation":"Любительский (многоголосый закадровый) (Синема УС)","update":"2021-05-10 15:04:16","iframe_src":"//8965.svetacdn.in/si4jsFRrtgrT/movie/50271"},{"id":50267,"title":"Почтальон","kp_id":"1323046","imdb_id":"tt11246270","world_art_id":null,"type":"movie","add":"2021-05-10 10:46:12","orig_title":"Cartero","year":"2019-11-07","translations":["Любительский (многоголосый закадровый) (AlphaProject)"],"quality":"webdl","translation":"Любительский (многоголосый закадровый) (AlphaProject)","update":"2021-05-10 15:03:38","iframe_src":"//8965.svetacdn.in/si4jsFRrtgrT/movie/50267"},{"id":50266,"title":"Любовница-убийца моего мужа","kp_id":null,"imdb_id":"tt14501740","world_art_id":null,"type":"movie","add":"2021-05-10 10:42:42","orig_title":"My Husband's Killer Girlfriend","year":"2021-04-24","translations":["Любительский (многоголосый закадровый) (AlphaProject)"],"quality":"webdl","translation":"Любительский (многоголосый закадровый) (AlphaProject)","update":"2021-05-10 20:31:38","iframe_src":"//8965.svetacdn.in/si4jsFRrtgrT/movie/50266"},{"id":50265,"title":"Молчаливая Роза","kp_id":"1342147","imdb_id":"tt11674126","world_art_id":null,"type":"movie","add":"2021-05-10 10:39:21","orig_title":"Silent Rose","year":"2020-02-27","translations":["Любительский (многоголосый закадровый) (AlphaProject)"],"quality":"webdl","translation":"Любительский (многоголосый закадровый) (AlphaProject)","update":"2021-05-10 14:22:34","iframe_src":"//8965.svetacdn.in/si4jsFRrtgrT/movie/50265"},{"id":50263,"title":"Танец реальности","kp_id":"694692","imdb_id":"tt2301592","world_art_id":null,"type":"movie","add":"2021-05-10 09:14:45","orig_title":"La Danza de la Realidad","year":"2013-05-18","translations":["Профессиональный (многоголосый закадровый)"],"quality":"bd","translation":"Профессиональный (многоголосый закадровый)","update":"2021-05-10 14:22:54","iframe_src":"//8965.svetacdn.in/si4jsFRrtgrT/movie/50263"},{"id":50255,"title":"В то далекое лето","kp_id":"45640","imdb_id":null,"world_art_id":null,"type":"movie","add":"2021-05-09 22:59:38","orig_title":"В то далекое лето","year":"1975-03-25","translations":["Оригинальная дорожка"],"quality":"sat","translation":"Оригинальная дорожка","update":"2021-05-10 14:16:07","iframe_src":"//8965.svetacdn.in/si4jsFRrtgrT/movie/50255"},{"id":50254,"title":"Происшествие, которого никто не заметил","kp_id":"43298","imdb_id":"tt0299100","world_art_id":null,"type":"movie","add":"2021-05-09 22:55:30","orig_title":"Proisshestviye, kotorogo nikto ne zametil","year":"1967-04-15","translations":["Оригинальная дорожка"],"quality":"tv","translation":"Оригинальная дорожка","update":"2021-05-10 14:14:37","iframe_src":"//8965.svetacdn.in/si4jsFRrtgrT/movie/50254"},{"id":50252,"title":"Лимонный торт","kp_id":"45102","imdb_id":"tt0282692","world_art_id":null,"type":"movie","add":"2021-05-09 22:46:17","orig_title":"Limonis torti","year":"1977-08-01","translations":["Оригинальная дорожка"],"quality":"iptv","translation":"Оригинальная дорожка","update":"2021-05-10 13:57:46","iframe_src":"//8965.svetacdn.in/si4jsFRrtgrT/movie/50252"},{"id":50251,"title":"Не хочу быть несчастливым","kp_id":"445429","imdb_id":"tt3211396","world_art_id":null,"type":"movie","add":"2021-05-09 22:36:20","orig_title":"Grafoman","year":"1983-12-01","translations":["Оригинальная дорожка"],"quality":"dvdrip","translation":"Оригинальная дорожка","update":"2021-05-10 13:55:35","iframe_src":"//8965.svetacdn.in/si4jsFRrtgrT/movie/50251"},{"id":50215,"title":"День везения","kp_id":"695264","imdb_id":null,"world_art_id":null,"type":"movie","add":"2021-05-07 18:40:23","orig_title":"День везения","year":"1983-01-01","translations":["Оригинальная дорожка"],"quality":"dvdrip","translation":"Оригинальная дорожка","update":"2021-05-10 13:54:42","iframe_src":"//8965.svetacdn.in/si4jsFRrtgrT/movie/50215"},{"id":50152,"title":"Искушение Дон Жуана","kp_id":"42630","imdb_id":"tt0264715","world_art_id":null,"type":"movie","add":"2021-05-05 12:48:27","orig_title":"Iskushenie Don Zhuana","year":"1985-06-02","translations":["Оригинальная дорожка"],"quality":"sat","translation":"Оригинальная дорожка","update":"2021-05-10 13:47:50","iframe_src":"//8965.svetacdn.in/si4jsFRrtgrT/movie/50152"},{"id":50151,"title":"Кафе «Изотоп»","kp_id":"565276","imdb_id":"tt4873150","world_art_id":null,"type":"movie","add":"2021-05-05 12:44:36","orig_title":"Kafe «Izotop»","year":"1977-11-04","translations":["Оригинальная дорожка"],"quality":"sat","translation":"Оригинальная дорожка","update":"2021-05-10 13:46:38","iframe_src":"//8965.svetacdn.in/si4jsFRrtgrT/movie/50151"},{"id":50150,"title":"Кармелюк","kp_id":"574550","imdb_id":"tt6689322","world_art_id":null,"type":"movie","add":"2021-05-05 12:12:27","orig_title":"Karmeliuk","year":"1938-04-19","translations":["Оригинальная дорожка"],"quality":"tv","translation":"Оригинальная дорожка","update":"2021-05-10 13:45:41","iframe_src":"//8965.svetacdn.in/si4jsFRrtgrT/movie/50150"},{"id":50149,"title":"Покаяние","kp_id":"7661","imdb_id":"tt0093754","world_art_id":null,"type":"movie","add":"2021-05-05 12:08:08","orig_title":"Monanieba","year":"1984-06-30","translations":["Профессиональный (одноголосый закадровый)"],"quality":"dvdrip","translation":"Профессиональный (одноголосый закадровый)","update":"2021-05-10 13:43:53","iframe_src":"//8965.svetacdn.in/si4jsFRrtgrT/movie/50149"},{"id":50148,"title":"Жил отважный капитан","kp_id":"222553","imdb_id":"tt0266096","world_art_id":null,"type":"movie","add":"2021-05-05 12:05:21","orig_title":"Zhil otvazhnyy kapitan","year":"1985-11-04","translations":["Оригинальная дорожка"],"quality":"sat","translation":"Оригинальная дорожка","update":"2021-05-11 05:56:12","iframe_src":"//8965.svetacdn.in/si4jsFRrtgrT/movie/50148"},{"id":48821,"title":"Апач","kp_id":"13609","imdb_id":"tt0046719","world_art_id":null,"type":"movie","add":"2021-03-17 07:28:08","orig_title":"Apache","year":"1954-06-30","translations":["Профессиональный (многоголосый закадровый) (SomeWax)","[EN] Original (English)","Профессиональный (двухголосый закадровый) (DVD Магия)","Профессиональный (двухголосый закадровый) (НТВ)"],"quality":"bd","translation":"Профессиональный (многоголосый закадровый) (SomeWax)","update":"2021-05-11 06:20:19","iframe_src":"//8965.svetacdn.in/si4jsFRrtgrT/movie/48821"},{"id":27138,"title":"Люди в солдатских шинелях","kp_id":"118660","imdb_id":"tt0445467","world_art_id":null,"type":"movie","add":"2019-05-27 17:48:27","orig_title":"Inimesed sõdurisinelis","year":"1968-07-15","translations":["Оригинальная дорожка","Любительский (одноголосый закадровый)"],"quality":"webdl","translation":"Оригинальная дорожка","update":"2021-05-10 13:53:34","iframe_src":"//8965.svetacdn.in/si4jsFRrtgrT/movie/27138"},{"id":20595,"title":"Американский мем","kp_id":"1118147","imdb_id":"tt8106160","world_art_id":null,"type":"movie","add":"2018-12-09 18:46:44","orig_title":"The American Meme","year":"2018-04-27","translations":["Любительский (многоголосый закадровый) (Синема УС)","Профессиональный (многоголосый закадровый) (HDrezka Studio)"],"quality":"webdl","translation":"Любительский (многоголосый закадровый) (Синема УС)","update":"2021-05-10 17:24:40","iframe_src":"//8965.svetacdn.in/si4jsFRrtgrT/movie/20595"},{"id":1550,"title":"Шрам","kp_id":"1045402","imdb_id":null,"world_art_id":null,"type":"serial","add":"2017-09-18 08:45:33","orig_title":"Шрам","year":"2017-09-16","translations":["Оригинальная дорожка"],"seasons_count":1,"episodes_count":4,"episodes":4,"update":"2017-09-19 11:35:13","iframe_src":"//8965.svetacdn.in/si4jsFRrtgrT/tv-series/1550"},{"id":1548,"title":"Четыре сезона в Гаване","kp_id":"1039441","imdb_id":"tt6164872","world_art_id":null,"type":"serial","add":"2017-09-18 08:03:22","orig_title":"Cuatro estaciones en La Habana","year":"2016-12-09","translations":["Профессиональный (многоголосый закадровый) (Первый канал | ОРТ)"],"seasons_count":1,"episodes_count":4,"episodes":4,"update":"2017-09-19 09:27:50","iframe_src":"//8965.svetacdn.in/si4jsFRrtgrT/tv-series/1548"},{"id":1547,"title":"Врач","kp_id":"569973","imdb_id":null,"world_art_id":null,"type":"serial","add":"2017-09-15 07:04:01","orig_title":"Врач","year":"2011-08-16","translations":["Оригинальная дорожка"],"seasons_count":1,"episodes_count":12,"episodes":12,"update":"2017-09-22 14:26:23","iframe_src":"//8965.svetacdn.in/si4jsFRrtgrT/tv-series/1547"},{"id":1544,"title":"Дробилка","kp_id":"898637","imdb_id":"tt4481322","world_art_id":null,"type":"serial","add":"2017-09-14 16:16:43","orig_title":"The Grinder","year":"2015-09-29","translations":["Профессиональный (многоголосый закадровый) (NewStudio)"],"seasons_count":1,"episodes_count":22,"episodes":22,"update":"2017-09-22 14:19:11","iframe_src":"//8965.svetacdn.in/si4jsFRrtgrT/tv-series/1544"},{"id":1543,"title":"Красная дорога","kp_id":"716890","imdb_id":"tt2505072","world_art_id":null,"type":"serial","add":"2017-09-14 16:12:05","orig_title":"The Red Road","year":"2014-02-27","translations":["Любительский (двухголосый закадровый) (Hamster Studio)"],"seasons_count":2,"episodes_count":12,"episodes":6,"update":"2017-09-18 10:44:49","iframe_src":"//8965.svetacdn.in/si4jsFRrtgrT/tv-series/1543"},{"id":1542,"title":"Братва","kp_id":"421041","imdb_id":"tt4741538","world_art_id":null,"type":"serial","add":"2017-09-14 06:57:43","orig_title":"Bratva","year":"2005-01-01","translations":["Оригинальная дорожка"],"seasons_count":1,"episodes_count":12,"episodes":12,"update":"2017-09-22 13:54:39","iframe_src":"//8965.svetacdn.in/si4jsFRrtgrT/tv-series/1542"},{"id":1541,"title":"Отчий берег","kp_id":"961719","imdb_id":null,"world_art_id":null,"type":"serial","add":"2017-09-14 06:33:41","orig_title":"Отчий берег","year":"2017-09-11","translations":["Оригинальная дорожка"],"seasons_count":1,"episodes_count":16,"episodes":16,"update":"2017-09-22 15:43:50","iframe_src":"//8965.svetacdn.in/si4jsFRrtgrT/tv-series/1541"},{"id":1539,"title":"Садовник","kp_id":"542015","imdb_id":"tt3206088","world_art_id":null,"type":"serial","add":"2017-09-13 17:36:01","orig_title":"Sadovnik","year":"2010-07-05","translations":["Оригинальная дорожка"],"seasons_count":1,"episodes_count":4,"episodes":4,"update":"2017-09-14 07:25:14","iframe_src":"//8965.svetacdn.in/si4jsFRrtgrT/tv-series/1539"},{"id":1538,"title":"Манна небесная","kp_id":"583732","imdb_id":"tt4195042","world_art_id":null,"type":"serial","add":"2017-09-13 17:34:08","orig_title":"Manna nebesnaya","year":"2011-08-04","translations":["Оригинальная дорожка"],"seasons_count":1,"episodes_count":8,"episodes":8,"update":"2017-09-15 15:19:48","iframe_src":"//8965.svetacdn.in/si4jsFRrtgrT/tv-series/1538"},{"id":1532,"title":"Немного не в себе","kp_id":"565763","imdb_id":"tt2057069","world_art_id":null,"type":"serial","add":"2017-09-10 06:10:40","orig_title":"Nemnogo ne v sebe","year":"2011-11-29","translations":["Оригинальная дорожка"],"seasons_count":1,"episodes_count":12,"episodes":12,"update":"2017-09-21 08:14:32","iframe_src":"//8965.svetacdn.in/si4jsFRrtgrT/tv-series/1532"},{"id":1531,"title":"Тайны и ложь","kp_id":"990839","imdb_id":null,"world_art_id":null,"type":"serial","add":"2017-09-08 06:33:34","orig_title":"Тайны и ложь","year":"2017-08-28","translations":["Оригинальная дорожка"],"seasons_count":1,"episodes_count":8,"episodes":8,"update":"2017-09-14 16:02:55","iframe_src":"//8965.svetacdn.in/si4jsFRrtgrT/tv-series/1531"},{"id":1523,"title":"Ярость","kp_id":"592331","imdb_id":"tt3256182","world_art_id":null,"type":"serial","add":"2017-09-06 07:35:22","orig_title":"Yarost","year":"2011-06-01","translations":["Оригинальная дорожка"],"seasons_count":1,"episodes_count":16,"episodes":16,"update":"2017-09-07 10:44:53","iframe_src":"//8965.svetacdn.in/si4jsFRrtgrT/tv-series/1523"},{"id":1522,"title":"Вызываем огонь на себя","kp_id":"85184","imdb_id":"tt0056793","world_art_id":null,"type":"serial","add":"2017-09-06 07:31:21","orig_title":"Vyzyvaem ogon na sebya","year":"1965-02-18","translations":["Оригинальная дорожка"],"seasons_count":1,"episodes_count":4,"episodes":4,"update":"2017-09-21 07:40:18","iframe_src":"//8965.svetacdn.in/si4jsFRrtgrT/tv-series/1522"},{"id":1521,"title":"Только ты","kp_id":"592329","imdb_id":"tt4195038","world_art_id":null,"type":"serial","add":"2017-09-06 07:27:55","orig_title":"Tolko ty","year":"2011-06-14","translations":["Оригинальная дорожка"],"seasons_count":1,"episodes_count":8,"episodes":8,"update":"2017-09-07 07:23:56","iframe_src":"//8965.svetacdn.in/si4jsFRrtgrT/tv-series/1521"},{"id":1520,"title":"Новогодний переполох","kp_id":"687563","imdb_id":"tt4097648","world_art_id":null,"type":"serial","add":"2017-09-06 07:24:50","orig_title":"Novogodniy perepolokh","year":"2012-12-07","translations":["Оригинальная дорожка"],"seasons_count":1,"episodes_count":4,"episodes":4,"update":"2017-09-07 07:14:16","iframe_src":"//8965.svetacdn.in/si4jsFRrtgrT/tv-series/1520"},{"id":1517,"title":"Морские дьяволы. Северные рубежи","kp_id":"992569","imdb_id":null,"world_art_id":null,"type":"serial","add":"2017-09-06 05:23:45","orig_title":"Морские дьяволы. Северные рубежи","year":"2017-09-04","translations":["Оригинальная дорожка"],"seasons_count":1,"episodes_count":20,"episodes":20,"update":"2017-09-18 08:57:34","iframe_src":"//8965.svetacdn.in/si4jsFRrtgrT/tv-series/1517"},{"id":1516,"title":"Жена полицейского","kp_id":"1007495","imdb_id":null,"world_art_id":null,"type":"serial","add":"2017-09-05 07:38:39","orig_title":"Жена полицейского","year":"2017-09-04","translations":["Оригинальная дорожка"],"seasons_count":1,"episodes_count":16,"episodes":16,"update":"2017-09-18 08:51:17","iframe_src":"//8965.svetacdn.in/si4jsFRrtgrT/tv-series/1516"},{"id":1515,"title":"Комиссарша","kp_id":"980831","imdb_id":null,"world_art_id":null,"type":"serial","add":"2017-09-05 07:32:41","orig_title":"Комиссарша","year":"2017-09-04","translations":["Оригинальная дорожка"],"seasons_count":1,"episodes_count":8,"episodes":8,"update":"2017-09-08 08:42:12","iframe_src":"//8965.svetacdn.in/si4jsFRrtgrT/tv-series/1515"},{"id":1510,"title":"Закрытая школа","kp_id":"566575","imdb_id":"tt2394140","world_art_id":null,"type":"serial","add":"2017-09-04 06:45:43","orig_title":"Zakrytaya shkola","year":"2011-05-15","translations":["Оригинальная дорожка"],"seasons_count":4,"episodes_count":134,"episodes":30,"update":"2017-09-08 11:47:50","iframe_src":"//8965.svetacdn.in/si4jsFRrtgrT/tv-series/1510"},{"id":1506,"title":"Папа Дэн","kp_id":"1007897","imdb_id":"tt6687536","world_art_id":null,"type":"serial","add":"2017-09-02 08:18:04","orig_title":"Papa Den","year":"2017-08-28","translations":["Оригинальная дорожка"],"seasons_count":1,"episodes_count":16,"episodes":16,"update":"2017-09-18 08:54:48","iframe_src":"//8965.svetacdn.in/si4jsFRrtgrT/tv-series/1506"},{"id":7906,"title":"Письма с Иводзимы","kp_id":"252260","imdb_id":"tt0498380","world_art_id":null,"type":"movie","add":"2016-12-07 15:08:00","orig_title":"Letters from Iwo Jima","year":"2006-11-15","translations":["Профессиональный (многоголосый закадровый)","Авторский (одноголосый закадровый) (Сербин Юрий)","Профессиональный (двухголосый закадровый) (Гланц + Королёва)","Профессиональный (многоголосый закадровый)"],"quality":"bd","translation":"Профессиональный (многоголосый закадровый)","update":"2021-05-11 06:16:59","iframe_src":"//8965.svetacdn.in/si4jsFRrtgrT/movie/7906"}],"current_page":564,"first_page_url":"https://videocdn.tv/api/short?limit=100&api_token=X6EwAUfE5M9xbo7y0Bp0aPf3uXxG2KLL&cache3564=3564&page=1","from":56301,"last_page":708,"last_page_url":"https://videocdn.tv/api/short?limit=100&api_token=X6EwAUfE5M9xbo7y0Bp0aPf3uXxG2KLL&cache3564=3564&page=708","next_page_url":"https://videocdn.tv/api/short?limit=100&api_token=X6EwAUfE5M9xbo7y0Bp0aPf3uXxG2KLL&cache3564=3564&page=565","path":"https://videocdn.tv/api/short","per_page":100,"prev_page_url":"https://videocdn.tv/api/short?limit=100&api_token=X6EwAUfE5M9xbo7y0Bp0aPf3uXxG2KLL&cache3564=3564&page=563","to":56340,"total":70792}