{"result":true,"data":[{"id":37217,"title":"Проект: Щенки на Рождество","kp_id":"958833","imdb_id":"tt5314484","world_art_id":null,"type":"movie","add":"2020-03-02 17:41:22","orig_title":"Project: Puppies for Christmas","year":"2019-05-14","translations":["Любительский (многоголосый закадровый) (AlphaProject)"],"quality":"webdl","translation":"Любительский (многоголосый закадровый) (AlphaProject)","update":"2020-03-02 19:53:13","iframe_src":"//5322.svetacdn.in/IAF0wWTdNYZm/movie/37217"},{"id":37216,"title":"Необходимость","kp_id":"913087","imdb_id":"tt6493330","world_art_id":null,"type":"movie","add":"2020-03-02 17:40:17","orig_title":"Exigence","year":"2017-01-15","translations":["Любительский (многоголосый закадровый) (Синема УС)"],"quality":"webdl","translation":"Любительский (многоголосый закадровый) (Синема УС)","update":"2020-03-02 19:43:44","iframe_src":"//5322.svetacdn.in/IAF0wWTdNYZm/movie/37216"},{"id":37215,"title":"Колодец","kp_id":null,"imdb_id":"tt8947632","world_art_id":null,"type":"movie","add":"2020-03-02 17:37:23","orig_title":"Linglong Wells","year":"2018-03-16","translations":["Любительский (многоголосый закадровый)"],"quality":"webdl","translation":"Любительский (многоголосый закадровый)","update":"2020-03-02 19:44:12","iframe_src":"//5322.svetacdn.in/IAF0wWTdNYZm/movie/37215"},{"id":37206,"title":"Расследования на Мартас-Винъярде: Пронизанный обманом","kp_id":"1342259","imdb_id":"tt11617476","world_art_id":null,"type":"movie","add":"2020-03-02 12:57:12","orig_title":"Riddled with Deceit: A Martha's Vineyard Mystery","year":"2020-02-23","translations":["Любительский (многоголосый закадровый) (AlphaProject)"],"quality":"hdtv","translation":"Любительский (многоголосый закадровый) (AlphaProject)","update":"2020-03-02 20:18:54","iframe_src":"//5322.svetacdn.in/IAF0wWTdNYZm/movie/37206"},{"id":37197,"title":"Смертельное лето","kp_id":"772544","imdb_id":"tt2994628","world_art_id":null,"type":"movie","add":"2020-03-01 17:41:50","orig_title":"Mortel été","year":"2013-06-19","translations":["Профессиональный (многоголосый закадровый) (Кинопоказ)"],"quality":"hdtv","translation":"Профессиональный (многоголосый закадровый) (Кинопоказ)","update":"2020-03-02 10:18:10","iframe_src":"//5322.svetacdn.in/IAF0wWTdNYZm/movie/37197"},{"id":37196,"title":"Попкорн","kp_id":"180552","imdb_id":"tt0483776","world_art_id":null,"type":"movie","add":"2020-03-01 17:39:46","orig_title":"Popcorn","year":"2007-03-02","translations":["Профессиональный (многоголосый закадровый)"],"quality":"dvdrip","translation":"Профессиональный (многоголосый закадровый)","update":"2020-03-02 10:19:20","iframe_src":"//5322.svetacdn.in/IAF0wWTdNYZm/movie/37196"},{"id":37195,"title":"Дом страха","kp_id":"23796","imdb_id":"tt0255909","world_art_id":null,"type":"movie","add":"2020-03-01 17:38:50","orig_title":"Cubbyhouse","year":"2001-12-10","translations":["Профессиональный (многоголосый закадровый)"],"quality":"dvdrip","translation":"Профессиональный (многоголосый закадровый)","update":"2020-03-02 10:20:25","iframe_src":"//5322.svetacdn.in/IAF0wWTdNYZm/movie/37195"},{"id":37194,"title":"Мы – лучшие!","kp_id":"679372","imdb_id":"tt2364975","world_art_id":null,"type":"movie","add":"2020-03-01 17:36:54","orig_title":"Vi är bäst!","year":"2013-08-31","translations":["Профессиональный (многоголосый закадровый)"],"quality":"bd","translation":"Профессиональный (многоголосый закадровый)","update":"2020-03-02 10:21:23","iframe_src":"//5322.svetacdn.in/IAF0wWTdNYZm/movie/37194"},{"id":37191,"title":"Волчьи дети","kp_id":"726770","imdb_id":"tt2582320","world_art_id":null,"type":"movie","add":"2020-03-01 17:27:50","orig_title":"Wolfskinder","year":"2013-08-29","translations":["Любительский (одноголосый закадровый) (viktor_2838)"],"quality":"hdtv","translation":"Любительский (одноголосый закадровый) (viktor_2838)","update":"2020-03-02 10:59:26","iframe_src":"//5322.svetacdn.in/IAF0wWTdNYZm/movie/37191"},{"id":37190,"title":"Саванна","kp_id":"577693","imdb_id":"tt1797487","world_art_id":null,"type":"movie","add":"2020-03-01 17:19:26","orig_title":"Savannah","year":"2013-02-27","translations":["Любительский (одноголосый закадровый) (PashaUp | Морозов Павел)"],"quality":"bd","translation":"Любительский (одноголосый закадровый) (PashaUp | Морозов Павел)","update":"2020-03-02 11:00:35","iframe_src":"//5322.svetacdn.in/IAF0wWTdNYZm/movie/37190"},{"id":37189,"title":"Смертельный разряд","kp_id":"444975","imdb_id":"tt1359555","world_art_id":null,"type":"movie","add":"2020-03-01 17:15:54","orig_title":"Lightning Strikes","year":"2009-09-12","translations":["Профессиональный (многоголосый закадровый) (ТВ3)","Профессиональный (многоголосый закадровый)","Original (English)"],"quality":"bd","translation":"Профессиональный (многоголосый закадровый) (ТВ3)","update":"2020-03-02 11:04:41","iframe_src":"//5322.svetacdn.in/IAF0wWTdNYZm/movie/37189"},{"id":37157,"title":"Дорфман","kp_id":"523093","imdb_id":"tt1665418","world_art_id":null,"type":"movie","add":"2020-02-29 18:21:11","orig_title":"Dorfman","year":"2011-10-21","translations":["Профессиональный (многоголосый закадровый) (НТВ)","Original (English)"],"quality":"webdl","translation":"Профессиональный (многоголосый закадровый) (НТВ)","update":"2020-03-02 06:35:59","iframe_src":"//5322.svetacdn.in/IAF0wWTdNYZm/movie/37157"},{"id":37151,"title":"Белая футболка","kp_id":"582179","imdb_id":"tt1833835","world_art_id":null,"type":"movie","add":"2020-02-29 18:12:59","orig_title":"White T","year":"2013-05-14","translations":["Профессиональный (двухголосый закадровый)"],"quality":"sat","translation":"Профессиональный (двухголосый закадровый)","update":"2020-03-02 06:26:49","iframe_src":"//5322.svetacdn.in/IAF0wWTdNYZm/movie/37151"},{"id":37150,"title":"Буль и Билл","kp_id":"722991","imdb_id":"tt2538654","world_art_id":null,"type":"movie","add":"2020-02-29 18:11:27","orig_title":"Boule & Bill","year":"2013-02-27","translations":["Профессиональный (двухголосый закадровый)"],"quality":"hdrip","translation":"Профессиональный (двухголосый закадровый)","update":"2020-03-02 06:24:59","iframe_src":"//5322.svetacdn.in/IAF0wWTdNYZm/movie/37150"},{"id":37148,"title":"Убийца из глубины","kp_id":"331952","imdb_id":"tt0376753","world_art_id":null,"type":"movie","add":"2020-02-29 18:09:59","orig_title":"Hai-Alarm auf Mallorca","year":"2004-10-17","translations":["Профессиональный (двухголосый закадровый)"],"quality":"dvdrip","translation":"Профессиональный (двухголосый закадровый)","update":"2020-03-02 06:24:14","iframe_src":"//5322.svetacdn.in/IAF0wWTdNYZm/movie/37148"},{"id":37021,"title":"Автоответчик: Удаленные сообщения","kp_id":"485373","imdb_id":"tt1072754","world_art_id":null,"type":"movie","add":"2020-02-26 20:32:38","orig_title":"Messages Deleted","year":"2012-05-02","translations":["Original (English)","Профессиональный (многоголосый закадровый)"],"quality":"bd","translation":"Original (English)","update":"2020-03-02 06:31:05","iframe_src":"//5322.svetacdn.in/IAF0wWTdNYZm/movie/37021"},{"id":33285,"title":"Бессонная ночь","kp_id":"535442","imdb_id":"tt1683921","world_art_id":null,"type":"movie","add":"2019-11-19 13:37:45","orig_title":"Nuit blanche","year":"2011-09-13","translations":["Профессиональный (многоголосый закадровый)"],"quality":"bd","translation":"Профессиональный (многоголосый закадровый)","update":"2020-03-02 06:32:37","iframe_src":"//5322.svetacdn.in/IAF0wWTdNYZm/movie/33285"},{"id":33164,"title":"Хэллоуин 6: Проклятие Майкла Майерса","kp_id":"14493","imdb_id":"tt0113253","world_art_id":null,"type":"movie","add":"2019-11-16 15:49:38","orig_title":"Halloween: The Curse of Michael Myers","year":"1995-09-29","translations":["Профессиональный (двухголосый закадровый) (НТВ)","Original (English)","Профессиональный (многоголосый закадровый) (Премьер Видео Фильм)","Авторский (одноголосый закадровый) (Визгунов Сергей)"],"quality":"bd","translation":"Профессиональный (двухголосый закадровый) (НТВ)","update":"2020-03-02 07:54:17","iframe_src":"//5322.svetacdn.in/IAF0wWTdNYZm/movie/33164"},{"id":14393,"title":"Ферма «Мадбаунд»","kp_id":"681118","imdb_id":"tt2396589","world_art_id":null,"type":"movie","add":"2017-11-19 21:23:18","orig_title":"Mudbound","year":"2017-01-21","translations":["Любительский (многоголосый закадровый) (Синема УС)","Профессиональный (многоголосый закадровый) (GreenРай Studio)","Профессиональный (многоголосый закадровый) (Jaskier)","Профессиональный (многоголосый закадровый) (HDrezka Studio)"],"quality":"webdl","translation":"Любительский (многоголосый закадровый) (Синема УС)","update":"2020-03-02 19:00:45","iframe_src":"//5322.svetacdn.in/IAF0wWTdNYZm/movie/14393"},{"id":3271,"title":"Трудная мишень","kp_id":"2281","imdb_id":"tt0107076","world_art_id":null,"type":"movie","add":"2016-06-20 08:33:23","orig_title":"Hard Target","year":"1993-08-20","translations":["Полное дублирование","Профессиональный (многоголосый закадровый)","Авторский (одноголосый закадровый) (Гаврилов Андрей)","Original (English)","Профессиональный (многоголосый закадровый) (Lizard Cinema)","Профессиональный (многоголосый закадровый) (Карусель)","Профессиональный (двухголосый закадровый) (Премьер Видео Фильм)","Профессиональный (двухголосый закадровый) (Первый канал | ОРТ)","Авторский (одноголосый закадровый) (Живов Юрий)","Авторский (одноголосый закадровый) (Володарский Леонид)","Авторский (одноголосый закадровый) (Сербин Юрий)","Авторский (одноголосый закадровый) (Горчаков Василий)"],"quality":"bd","translation":"Полное дублирование","update":"2020-03-02 07:52:57","iframe_src":"//5322.svetacdn.in/IAF0wWTdNYZm/movie/3271"}],"current_page":845,"first_page_url":"https://videocdn.tv/api/short?limit=100&api_token=6Onb1W1alEUrBcKJZD3GoKBbWyAl2uG2&cache3845=3845&page=1","from":84401,"last_page":628,"last_page_url":"https://videocdn.tv/api/short?limit=100&api_token=6Onb1W1alEUrBcKJZD3GoKBbWyAl2uG2&cache3845=3845&page=628","next_page_url":null,"path":"https://videocdn.tv/api/short","per_page":100,"prev_page_url":"https://videocdn.tv/api/short?limit=100&api_token=6Onb1W1alEUrBcKJZD3GoKBbWyAl2uG2&cache3845=3845&page=844","to":84420,"total":62765}