{"result":true,"data":[{"id":33073,"title":"Выстрел","kp_id":"825852","imdb_id":"tt3539966","world_art_id":null,"type":"movie","add":"2019-11-13 11:54:52","orig_title":"Dishkiyaoon","year":"2014-03-27","translations":["Любительский (многоголосый закадровый) (ICG)"],"quality":"hdrip","translation":"Любительский (многоголосый закадровый) (ICG)","update":"2019-11-13 20:56:34","iframe_src":"//vc.doramasia.ru/si4jsFRrtgrT/movie/33073"},{"id":33071,"title":"Опасная игра","kp_id":"618760","imdb_id":"tt2043971","world_art_id":null,"type":"movie","add":"2019-11-13 11:50:29","orig_title":"Real Playing Game","year":"2013-08-29","translations":["Любительский (одноголосый закадровый) (RAIM)"],"quality":"dvdrip","translation":"Любительский (одноголосый закадровый) (RAIM)","update":"2019-11-13 20:57:11","iframe_src":"//vc.doramasia.ru/si4jsFRrtgrT/movie/33071"},{"id":33070,"title":"Великий Сингх Сахаб","kp_id":"712742","imdb_id":"tt2437954","world_art_id":null,"type":"movie","add":"2019-11-13 11:48:19","orig_title":"Singh Saab the Great","year":"2013-11-21","translations":["Профессиональный (многоголосый закадровый) (SDI Media)"],"quality":"dvdrip","translation":"Профессиональный (многоголосый закадровый) (SDI Media)","update":"2019-11-13 20:57:41","iframe_src":"//vc.doramasia.ru/si4jsFRrtgrT/movie/33070"},{"id":33069,"title":"Антрум: Самый опасный фильм из когда-либо снятых","kp_id":"1213104","imdb_id":"tt9213244","world_art_id":null,"type":"movie","add":"2019-11-13 11:42:34","orig_title":"Antrum: The Deadliest Film Ever Made","year":"2018-10-14","translations":["Любительский (многоголосый закадровый) (Синема УС)"],"quality":"webdl","translation":"Любительский (многоголосый закадровый) (Синема УС)","update":"2019-11-13 15:01:10","iframe_src":"//vc.doramasia.ru/si4jsFRrtgrT/movie/33069"},{"id":33067,"title":"Филофобия: Страх влюблённости","kp_id":"1074823","imdb_id":"tt7003976","world_art_id":null,"type":"movie","add":"2019-11-13 11:40:12","orig_title":"Philophobia: or the Fear of Falling in Love","year":"2019-11-12","translations":["Любительский (многоголосый закадровый) (Синема УС)"],"quality":"webdl","translation":"Любительский (многоголосый закадровый) (Синема УС)","update":"2019-11-13 16:29:08","iframe_src":"//vc.doramasia.ru/si4jsFRrtgrT/movie/33067"},{"id":33038,"title":"Домашняя работа","kp_id":"512267","imdb_id":"tt1645080","world_art_id":null,"type":"movie","add":"2019-11-12 20:50:30","orig_title":"The Art of Getting By","year":"2011-01-23","translations":["Полное дублирование"],"quality":"bd","translation":"Полное дублирование","update":"2019-11-13 21:01:21","iframe_src":"//vc.doramasia.ru/si4jsFRrtgrT/movie/33038"},{"id":33022,"title":"Остров надежды","kp_id":"77348","imdb_id":"tt0286989","world_art_id":null,"type":"movie","add":"2019-11-12 20:28:45","orig_title":"Stranded","year":"2002-01-12","translations":["Профессиональный (многоголосый закадровый)"],"quality":"dvdrip","translation":"Профессиональный (многоголосый закадровый)","update":"2019-11-13 23:12:21","iframe_src":"//vc.doramasia.ru/si4jsFRrtgrT/movie/33022"},{"id":33018,"title":"Приходит женщина к врачу","kp_id":"445379","imdb_id":"tt1365474","world_art_id":null,"type":"movie","add":"2019-11-12 20:24:49","orig_title":"Komt een vrouw bij de dokter","year":"2009-11-26","translations":["Любительский (одноголосый закадровый)"],"quality":"bd","translation":"Любительский (одноголосый закадровый)","update":"2019-11-13 23:11:26","iframe_src":"//vc.doramasia.ru/si4jsFRrtgrT/movie/33018"},{"id":33014,"title":"Три метра над небом","kp_id":"64994","imdb_id":"tt0388483","world_art_id":null,"type":"movie","add":"2019-11-12 20:17:37","orig_title":"Tre metri sopra il cielo","year":"2004-03-12","translations":["Любительский (двухголосый закадровый)"],"quality":"dvdrip","translation":"Любительский (двухголосый закадровый)","update":"2019-11-13 23:08:23","iframe_src":"//vc.doramasia.ru/si4jsFRrtgrT/movie/33014"},{"id":33011,"title":"Светло и ярко","kp_id":"1273466","imdb_id":"tt10345022","world_art_id":null,"type":"movie","add":"2019-11-12 17:16:44","orig_title":"Merry & Bright","year":"2019-11-02","translations":["Любительский (многоголосый закадровый) (AlphaProject)"],"quality":"hdtv","translation":"Любительский (многоголосый закадровый) (AlphaProject)","update":"2019-11-13 20:09:39","iframe_src":"//vc.doramasia.ru/si4jsFRrtgrT/movie/33011"},{"id":33010,"title":"Нарциссы","kp_id":"1153070","imdb_id":"tt8069578","world_art_id":null,"type":"movie","add":"2019-11-12 15:28:33","orig_title":"Daffodils","year":"2019-03-21","translations":["Любительский (многоголосый закадровый) (Синема УС)"],"quality":"webdl","translation":"Любительский (многоголосый закадровый) (Синема УС)","update":"2019-11-13 20:07:09","iframe_src":"//vc.doramasia.ru/si4jsFRrtgrT/movie/33010"},{"id":33009,"title":"Рождественская неделя","kp_id":"1286942","imdb_id":"tt10642154","world_art_id":null,"type":"movie","add":"2019-11-12 15:27:25","orig_title":"Christmas Reservations","year":"2019-11-02","translations":["Любительский (многоголосый закадровый) (AlphaProject)"],"quality":"webdl","translation":"Любительский (многоголосый закадровый) (AlphaProject)","update":"2019-11-13 20:07:56","iframe_src":"//vc.doramasia.ru/si4jsFRrtgrT/movie/33009"},{"id":33008,"title":"Смуглые парни","kp_id":"1262567","imdb_id":"tt10262492","world_art_id":null,"type":"movie","add":"2019-11-12 15:26:12","orig_title":"Brown Boys","year":"2019-05-02","translations":["Любительский (многоголосый закадровый) (Синема УС)"],"quality":"webdl","translation":"Любительский (многоголосый закадровый) (Синема УС)","update":"2019-11-13 20:08:52","iframe_src":"//vc.doramasia.ru/si4jsFRrtgrT/movie/33008"},{"id":32997,"title":"Чужая свадьба","kp_id":"161255","imdb_id":"tt0420683","world_art_id":null,"type":"movie","add":"2019-11-12 08:15:41","orig_title":"I Do (But I Don't)","year":"2004-09-13","translations":["Профессиональный (многоголосый закадровый) (Red Media)"],"quality":"hdtv","translation":"Профессиональный (многоголосый закадровый) (Red Media)","update":"2019-11-13 12:46:18","iframe_src":"//vc.doramasia.ru/si4jsFRrtgrT/movie/32997"},{"id":32995,"title":"Влечение","kp_id":"430572","imdb_id":"tt1315962","world_art_id":null,"type":"movie","add":"2019-11-12 08:13:36","orig_title":"Partir","year":"2009-08-12","translations":["Профессиональный (многоголосый закадровый)"],"quality":"bd","translation":"Профессиональный (многоголосый закадровый)","update":"2019-11-13 12:42:02","iframe_src":"//vc.doramasia.ru/si4jsFRrtgrT/movie/32995"},{"id":32994,"title":"Кличко","kp_id":"584982","imdb_id":"tt1885281","world_art_id":null,"type":"movie","add":"2019-11-12 08:12:28","orig_title":"Klitschko","year":"2011-06-16","translations":["Профессиональный (многоголосый закадровый)"],"quality":"bd","translation":"Профессиональный (многоголосый закадровый)","update":"2019-11-13 12:40:38","iframe_src":"//vc.doramasia.ru/si4jsFRrtgrT/movie/32994"},{"id":32992,"title":"Грубая игра","kp_id":"734258","imdb_id":"tt2653262","world_art_id":null,"type":"movie","add":"2019-11-12 08:07:02","orig_title":"Baeuneun baeuda","year":"2013-10-04","translations":["Любительский (двухголосый закадровый) (GREEN TEA)","Любительский (двухголосый закадровый) (DeadSno & den904)"],"quality":"hdtv","translation":"Любительский (двухголосый закадровый) (GREEN TEA)","update":"2019-11-13 12:38:17","iframe_src":"//vc.doramasia.ru/si4jsFRrtgrT/movie/32992"},{"id":32991,"title":"Особая личность","kp_id":"652409","imdb_id":"tt2118775","world_art_id":null,"type":"movie","add":"2019-11-12 08:03:53","orig_title":"Te shu shen fen","year":"2013-10-18","translations":["Любительский (двухголосый закадровый) (GREEN TEA)"],"quality":"bd","translation":"Любительский (двухголосый закадровый) (GREEN TEA)","update":"2019-11-13 12:35:31","iframe_src":"//vc.doramasia.ru/si4jsFRrtgrT/movie/32991"},{"id":32990,"title":"Жизнь как чудо","kp_id":"48555","imdb_id":"tt0322420","world_art_id":null,"type":"movie","add":"2019-11-12 08:01:23","orig_title":"Život je čudo","year":"2004-05-14","translations":["Полное дублирование"],"quality":"dvdrip","translation":"Полное дублирование","update":"2019-11-13 12:33:12","iframe_src":"//vc.doramasia.ru/si4jsFRrtgrT/movie/32990"},{"id":32944,"title":"Таинственная субмарина","kp_id":"231986","imdb_id":"tt0430677","world_art_id":null,"type":"movie","add":"2019-11-11 11:40:52","orig_title":"Tides of War","year":"2005-04-01","translations":["Профессиональный (одноголосый закадровый)"],"quality":"dvdrip","translation":"Профессиональный (одноголосый закадровый)","update":"2019-11-13 23:04:33","iframe_src":"//vc.doramasia.ru/si4jsFRrtgrT/movie/32944"}],"current_page":966,"first_page_url":"https://videocdn.tv/api/short?limit=100&api_token=X6EwAUfE5M9xbo7y0Bp0aPf3uXxG2KLL&cache3966=3966&page=1","from":96501,"last_page":608,"last_page_url":"https://videocdn.tv/api/short?limit=100&api_token=X6EwAUfE5M9xbo7y0Bp0aPf3uXxG2KLL&cache3966=3966&page=608","next_page_url":null,"path":"https://videocdn.tv/api/short","per_page":100,"prev_page_url":"https://videocdn.tv/api/short?limit=100&api_token=X6EwAUfE5M9xbo7y0Bp0aPf3uXxG2KLL&cache3966=3966&page=965","to":96520,"total":60756}