{"result":true,"data":[{"id":24421,"title":"Экскурсантка","kp_id":"478757","imdb_id":"tt3274484","world_art_id":null,"type":"movie","add":"2019-04-12 17:30:50","orig_title":"Ekskursante","year":"2013-09-27","translations":["Оригинальная дорожка"],"quality":"dvdrip","translation":"Оригинальная дорожка","update":"2019-04-13 08:57:42","iframe_src":"//8543.svetacdn.in/71tsRs29n5tZ/movie/24421"},{"id":24419,"title":"Глухарь. «Опять Новый!»","kp_id":"655937","imdb_id":null,"world_art_id":null,"type":"movie","add":"2019-04-12 17:24:21","orig_title":"Глухарь. «Опять Новый!»","year":"2011-12-31","translations":["Оригинальная дорожка"],"quality":"dvdrip","translation":"Оригинальная дорожка","update":"2019-04-13 08:50:01","iframe_src":"//8543.svetacdn.in/71tsRs29n5tZ/movie/24419"},{"id":24418,"title":"Страна глухих","kp_id":"41087","imdb_id":"tt0143907","world_art_id":null,"type":"movie","add":"2019-04-12 17:20:00","orig_title":"Strana glukhikh","year":"1999-04-06","translations":["Оригинальная дорожка"],"quality":"dvdrip","translation":"Оригинальная дорожка","update":"2019-04-13 08:48:40","iframe_src":"//8543.svetacdn.in/71tsRs29n5tZ/movie/24418"},{"id":24417,"title":"Ветер","kp_id":"413538","imdb_id":"tt6079286","world_art_id":null,"type":"movie","add":"2019-04-12 17:17:40","orig_title":"Veter","year":"1988-01-01","translations":["Оригинальная дорожка"],"quality":"dvdrip","translation":"Оригинальная дорожка","update":"2019-04-13 08:47:11","iframe_src":"//8543.svetacdn.in/71tsRs29n5tZ/movie/24417"},{"id":24416,"title":"Кадриль","kp_id":"252025","imdb_id":"tt2614022","world_art_id":null,"type":"movie","add":"2019-04-12 17:12:50","orig_title":"Kadril","year":"1999-01-01","translations":["Оригинальная дорожка"],"quality":"hdtv","translation":"Оригинальная дорожка","update":"2019-04-13 08:44:19","iframe_src":"//8543.svetacdn.in/71tsRs29n5tZ/movie/24416"},{"id":24415,"title":"Излечить страх","kp_id":"807852","imdb_id":"tt7327350","world_art_id":null,"type":"movie","add":"2019-04-12 17:10:54","orig_title":"Luka","year":"2013-10-11","translations":["Оригинальная дорожка"],"quality":"dvdrip","translation":"Оригинальная дорожка","update":"2019-04-13 08:42:31","iframe_src":"//8543.svetacdn.in/71tsRs29n5tZ/movie/24415"},{"id":24414,"title":"Самолет летит в Россию","kp_id":"325790","imdb_id":"tt2082416","world_art_id":null,"type":"movie","add":"2019-04-12 17:06:49","orig_title":"Samolyot letit v Rossiyu","year":"1994-01-01","translations":["Оригинальная дорожка"],"quality":"dvdrip","translation":"Оригинальная дорожка","update":"2019-04-13 08:39:40","iframe_src":"//8543.svetacdn.in/71tsRs29n5tZ/movie/24414"},{"id":24413,"title":"Три дровосека","kp_id":"256075","imdb_id":"tt1795034","world_art_id":null,"type":"movie","add":"2019-04-12 17:01:24","orig_title":"Tri drovoseka","year":"1959-01-01","translations":["Оригинальная дорожка"],"quality":"dvdrip","translation":"Оригинальная дорожка","update":"2019-04-13 08:38:21","iframe_src":"//8543.svetacdn.in/71tsRs29n5tZ/movie/24413"},{"id":24412,"title":"Сказка про Колобок","kp_id":"257990","imdb_id":"tt3422006","world_art_id":null,"type":"movie","add":"2019-04-12 16:58:37","orig_title":"Skazka pro kolobok","year":"1969-01-01","translations":["Оригинальная дорожка"],"quality":"dvdrip","translation":"Оригинальная дорожка","update":"2019-04-13 08:37:31","iframe_src":"//8543.svetacdn.in/71tsRs29n5tZ/movie/24412"},{"id":24411,"title":"Пирожок","kp_id":"256074","imdb_id":"tt5121460","world_art_id":null,"type":"movie","add":"2019-04-12 16:56:33","orig_title":"Pasty","year":"1956-01-01","translations":["Оригинальная дорожка"],"quality":"dvdrip","translation":"Оригинальная дорожка","update":"2019-04-13 08:36:53","iframe_src":"//8543.svetacdn.in/71tsRs29n5tZ/movie/24411"},{"id":24410,"title":"Палка-выручалка","kp_id":"256073","imdb_id":"tt6052934","world_art_id":null,"type":"movie","add":"2019-04-12 16:54:52","orig_title":"Palka-vyruchalka","year":"1956-01-01","translations":["Оригинальная дорожка"],"quality":"dvdrip","translation":"Оригинальная дорожка","update":"2019-04-13 08:35:34","iframe_src":"//8543.svetacdn.in/71tsRs29n5tZ/movie/24410"},{"id":24409,"title":"Крылатый, мохнатый да масленый","kp_id":"256072","imdb_id":"tt2239666","world_art_id":null,"type":"movie","add":"2019-04-12 16:53:04","orig_title":"Krylatyy, Mokhnatyy da Maslenyy","year":"1990-01-01","translations":["Оригинальная дорожка"],"quality":"dvdrip","translation":"Оригинальная дорожка","update":"2019-04-13 08:34:47","iframe_src":"//8543.svetacdn.in/71tsRs29n5tZ/movie/24409"},{"id":24408,"title":"Колобок","kp_id":"256070","imdb_id":"tt2221036","world_art_id":null,"type":"movie","add":"2019-04-12 16:51:05","orig_title":"Kolobok","year":"1956-01-01","translations":["Оригинальная дорожка"],"quality":"dvdrip","translation":"Оригинальная дорожка","update":"2019-04-13 08:33:07","iframe_src":"//8543.svetacdn.in/71tsRs29n5tZ/movie/24408"},{"id":24407,"title":"Хвосты","kp_id":"44806","imdb_id":"tt0165826","world_art_id":null,"type":"movie","add":"2019-04-12 16:43:53","orig_title":"Khvosty","year":"1966-01-01","translations":["Оригинальная дорожка"],"quality":"dvdrip","translation":"Оригинальная дорожка","update":"2019-04-13 08:31:35","iframe_src":"//8543.svetacdn.in/71tsRs29n5tZ/movie/24407"},{"id":24405,"title":"Дети понедельника","kp_id":"41125","imdb_id":"tt0184392","world_art_id":null,"type":"movie","add":"2019-04-12 16:18:39","orig_title":"Deti ponedelnika","year":"1997-01-01","translations":["Оригинальная дорожка"],"quality":"dvdrip","translation":"Оригинальная дорожка","update":"2019-04-13 08:45:31","iframe_src":"//8543.svetacdn.in/71tsRs29n5tZ/movie/24405"},{"id":24404,"title":"Любовь под прикрытием","kp_id":"478756","imdb_id":"tt1816571","world_art_id":null,"type":"movie","add":"2019-04-12 16:07:21","orig_title":"Lyubov pod prikrytiem","year":"2010-02-20","translations":["Оригинальная дорожка"],"quality":"dvdrip","translation":"Оригинальная дорожка","update":"2019-04-13 08:28:13","iframe_src":"//8543.svetacdn.in/71tsRs29n5tZ/movie/24404"},{"id":24403,"title":"Разрешите тебя поцеловать... снова","kp_id":"581283","imdb_id":"tt3547858","world_art_id":null,"type":"movie","add":"2019-04-12 16:03:32","orig_title":"Razreshite tebya potselovat... snova","year":"2012-01-01","translations":["Оригинальная дорожка"],"quality":"dvdrip","translation":"Оригинальная дорожка","update":"2019-04-13 08:27:33","iframe_src":"//8543.svetacdn.in/71tsRs29n5tZ/movie/24403"},{"id":24300,"title":"Кто, если не мы","kp_id":"41276","imdb_id":"tt0261009","world_art_id":null,"type":"movie","add":"2019-04-11 10:24:19","orig_title":"Kto, esli ne my","year":"1999-02-05","translations":["Оригинальная дорожка"],"quality":"dvdrip","translation":"Оригинальная дорожка","update":"2019-04-12 12:19:34","iframe_src":"//8543.svetacdn.in/71tsRs29n5tZ/movie/24300"},{"id":11329,"title":"Затерянный город Z","kp_id":"432794","imdb_id":"tt1212428","world_art_id":null,"type":"movie","add":"2017-05-02 04:48:13","orig_title":"The Lost City of Z","year":"2016-10-15","translations":["Полное дублирование (iTunes)","Original (English)"],"quality":"bd","translation":"Полное дублирование (iTunes)","update":"2019-04-12 12:24:01","iframe_src":"//8543.svetacdn.in/71tsRs29n5tZ/movie/11329"},{"id":9589,"title":"Сплит","kp_id":"930534","imdb_id":"tt4972582","world_art_id":null,"type":"movie","add":"2017-02-10 05:59:47","orig_title":"Split","year":"2016-09-26","translations":["Полное дублирование","Original (English)"],"quality":"bd","translation":"Полное дублирование","update":"2019-04-12 12:22:09","iframe_src":"//8543.svetacdn.in/71tsRs29n5tZ/movie/9589"}],"current_page":1375,"first_page_url":"https://videocdn.tv/api/short?limit=100&api_token=EnbO9h8pv1VyjbCJhg0WM9nG259n7mtz&cache31375=31375&page=1","from":137401,"last_page":599,"last_page_url":"https://videocdn.tv/api/short?limit=100&api_token=EnbO9h8pv1VyjbCJhg0WM9nG259n7mtz&cache31375=31375&page=599","next_page_url":null,"path":"https://videocdn.tv/api/short","per_page":100,"prev_page_url":"https://videocdn.tv/api/short?limit=100&api_token=EnbO9h8pv1VyjbCJhg0WM9nG259n7mtz&cache31375=31375&page=1374","to":137420,"total":59868}