{"result":true,"data":[{"id":51003,"title":"После смерти: Загадочная наука разложения","kp_id":"762398","imdb_id":"tt2796658","world_art_id":null,"type":"movie","add":"2021-06-07 16:35:23","orig_title":"After Life: The Strange Science of Decay","year":"2011-12-06","translations":["Полное дублирование"],"quality":"hdtv","translation":"Полное дублирование","update":"2021-06-08 06:10:42","iframe_src":"//8332.svetacdn.in/IAF0wWTdNYZm/movie/51003"},{"id":51002,"title":"Забытые царицы Египта","kp_id":null,"imdb_id":"tt4161356","world_art_id":null,"type":"movie","add":"2021-06-07 15:59:46","orig_title":"Egypt's Lost Queens","year":"2014-09-04","translations":["Полное дублирование (SDI Media)"],"quality":"webdl","translation":"Полное дублирование (SDI Media)","update":"2021-06-08 06:08:47","iframe_src":"//8332.svetacdn.in/IAF0wWTdNYZm/movie/51002"},{"id":50998,"title":"Кровавый дух","kp_id":"1235233","imdb_id":"tt9680126","world_art_id":null,"type":"movie","add":"2021-06-07 15:05:04","orig_title":"Blood Spirit","year":"2020-06-18","translations":["Любительский (многоголосый закадровый) (Синема УС)"],"quality":"webdl","translation":"Любительский (многоголосый закадровый) (Синема УС)","update":"2021-06-08 08:35:50","iframe_src":"//8332.svetacdn.in/IAF0wWTdNYZm/movie/50998"},{"id":50997,"title":"Плохой Бен: Пандемия","kp_id":"1412951","imdb_id":"tt12975140","world_art_id":null,"type":"movie","add":"2021-06-07 15:03:11","orig_title":"Bad Ben: Pandemic","year":"2020-08-21","translations":["Любительский (многоголосый закадровый) (AlphaProject)"],"quality":"webdl","translation":"Любительский (многоголосый закадровый) (AlphaProject)","update":"2021-06-08 08:34:36","iframe_src":"//8332.svetacdn.in/IAF0wWTdNYZm/movie/50997"},{"id":50996,"title":"Лондон — современный Вавилон","kp_id":"713632","imdb_id":"tt1937419","world_art_id":null,"type":"movie","add":"2021-06-07 12:22:06","orig_title":"London: The Modern Babylon","year":"2012-08-03","translations":["Профессиональный (двухголосый закадровый)"],"quality":"hdtv","translation":"Профессиональный (двухголосый закадровый)","update":"2021-06-08 06:06:07","iframe_src":"//8332.svetacdn.in/IAF0wWTdNYZm/movie/50996"},{"id":10477,"title":"Невидимка Зеро","kp_id":"1450147","imdb_id":"tt10619486","world_art_id":null,"type":"serial","add":"2021-04-22 18:05:41","orig_title":"Zero","year":"2021-04-21","translations":["Любительский (двухголосый закадровый) (OnisFilms)","Любительский (многоголосый закадровый) (Hamster Studio)","Профессиональный (многоголосый закадровый) (HDrezka Studio)"],"seasons_count":1,"episodes_count":8,"episodes":8,"update":"2021-04-23 03:33:57","iframe_src":"//8332.svetacdn.in/IAF0wWTdNYZm/tv-series/10477"},{"id":10475,"title":"Это не так просто","kp_id":null,"imdb_id":"tt6132872","world_art_id":null,"type":"serial","add":"2021-04-22 13:58:34","orig_title":"It's Not That Simple","year":"2016-10-06","translations":["Любительский (многоголосый закадровый) (Crazy Cat Studio)"],"seasons_count":1,"episodes_count":6,"episodes":6,"update":"2021-04-22 19:08:10","iframe_src":"//8332.svetacdn.in/IAF0wWTdNYZm/tv-series/10475"},{"id":10469,"title":"За все заплачено","kp_id":"4395226","imdb_id":null,"world_art_id":null,"type":"serial","add":"2021-04-21 11:52:47","orig_title":"За все заплачено","year":"2021-04-20","translations":["Оригинальная дорожка"],"seasons_count":1,"episodes_count":4,"episodes":4,"update":"2021-04-21 21:46:14","iframe_src":"//8332.svetacdn.in/IAF0wWTdNYZm/tv-series/10469"},{"id":10459,"title":"Секреты семейной жизни","kp_id":"4418532","imdb_id":null,"world_art_id":null,"type":"serial","add":"2021-04-20 17:16:18","orig_title":"Секреты семейной жизни","year":"2021-04-18","translations":["Оригинальная дорожка"],"seasons_count":1,"episodes_count":8,"episodes":8,"update":"2021-04-21 07:59:22","iframe_src":"//8332.svetacdn.in/IAF0wWTdNYZm/tv-series/10459"},{"id":10454,"title":"Высшее общество","kp_id":"915245","imdb_id":"tt4768948","world_art_id":null,"type":"serial","add":"2021-04-19 17:29:55","orig_title":"Sangryusahoe","year":"2015-06-08","translations":["Любительский (многоголосый закадровый) (STEPonee)"],"seasons_count":1,"episodes_count":16,"episodes":16,"update":"2021-04-21 08:45:06","iframe_src":"//8332.svetacdn.in/IAF0wWTdNYZm/tv-series/10454"},{"id":10359,"title":"Игрушка для взрослых","kp_id":"1319043","imdb_id":"tt7808566","world_art_id":null,"type":"serial","add":"2021-04-03 11:26:40","orig_title":"Made for Love","year":"2021-03-17","translations":["Профессиональный (многоголосый закадровый) (NewStudio)","Профессиональный (многоголосый закадровый) (HDrezka Studio)","Профессиональный (многоголосый закадровый) (HDrezka Studio 18+)"],"seasons_count":1,"episodes_count":8,"episodes":8,"update":"2021-04-22 18:41:29","iframe_src":"//8332.svetacdn.in/IAF0wWTdNYZm/tv-series/10359"},{"id":49277,"title":"Левая рука Бога","kp_id":"10041","imdb_id":"tt0048291","world_art_id":null,"type":"movie","add":"2021-04-02 09:42:57","orig_title":"The Left Hand of God","year":"1955-09-02","translations":["Профессиональный (многоголосый закадровый) (Первый канал | ОРТ)","Original (English)"],"quality":"bd","translation":"Профессиональный (многоголосый закадровый) (Первый канал | ОРТ)","update":"2021-06-08 07:16:44","iframe_src":"//8332.svetacdn.in/IAF0wWTdNYZm/movie/49277"},{"id":10304,"title":"Нерегулярные части","kp_id":"1303839","imdb_id":"tt10893694","world_art_id":null,"type":"serial","add":"2021-03-26 09:35:01","orig_title":"The Irregulars","year":"2021-03-26","translations":["Полное дублирование (SDI Media)","Любительский (многоголосый закадровый) (Ultradox)","Любительский (многоголосый закадровый) (ColdFilm)","Профессиональный (многоголосый закадровый) (BaibaKo)","Профессиональный (двухголосый закадровый) (IdeaFilm)","Профессиональный (многоголосый закадровый) (LostFilm)","Профессиональный (многоголосый закадровый) (HDrezka Studio)","Профессиональный (многоголосый закадровый) (Jaskier)"],"seasons_count":1,"episodes_count":8,"episodes":8,"update":"2021-04-21 08:14:52","iframe_src":"//8332.svetacdn.in/IAF0wWTdNYZm/tv-series/10304"},{"id":48910,"title":"Сладости жизни","kp_id":"6776","imdb_id":"tt0100024","world_art_id":null,"type":"movie","add":"2021-03-19 11:36:34","orig_title":"Life Is Sweet","year":"1990-11-15","translations":["Профессиональный (двухголосый закадровый)","Original (English)"],"quality":"bd","translation":"Профессиональный (двухголосый закадровый)","update":"2021-06-08 07:27:08","iframe_src":"//8332.svetacdn.in/IAF0wWTdNYZm/movie/48910"},{"id":48620,"title":"Нюрнберг","kp_id":"93564","imdb_id":"tt0208629","world_art_id":null,"type":"movie","add":"2021-03-10 15:22:04","orig_title":"Nuremberg","year":"2000-07-16","translations":["Профессиональный (многоголосый закадровый)","Original (English)"],"quality":"bd","translation":"Профессиональный (многоголосый закадровый)","update":"2021-06-08 07:24:43","iframe_src":"//8332.svetacdn.in/IAF0wWTdNYZm/movie/48620"},{"id":10158,"title":"Один солнечный день","kp_id":"958604","imdb_id":"tt10777760","world_art_id":null,"type":"serial","add":"2021-03-10 14:38:27","orig_title":"Joheun Nal","year":"2014-12-19","translations":["Любительский (двухголосый закадровый) (STEPonee)","Любительский (одноголосый закадровый) (Seoul Bay)"],"seasons_count":1,"episodes_count":10,"episodes":10,"update":"2021-04-21 08:05:09","iframe_src":"//8332.svetacdn.in/IAF0wWTdNYZm/tv-series/10158"},{"id":48334,"title":"Под водой!","kp_id":"12475","imdb_id":"tt0048764","world_art_id":null,"type":"movie","add":"2021-03-02 14:51:35","orig_title":"Underwater!","year":"1955-02-09","translations":["Любительский (одноголосый закадровый) (Andi999)","Original (English)"],"quality":"bd","translation":"Любительский (одноголосый закадровый) (Andi999)","update":"2021-06-08 07:13:58","iframe_src":"//8332.svetacdn.in/IAF0wWTdNYZm/movie/48334"},{"id":48243,"title":"Моя дорогая Клементина","kp_id":"1150","imdb_id":"tt0038762","world_art_id":null,"type":"movie","add":"2021-02-25 08:15:07","orig_title":"My Darling Clementine","year":"1946-10-16","translations":["Профессиональный (многоголосый закадровый) (Светла)","Original (English)"],"quality":"bd","translation":"Профессиональный (многоголосый закадровый) (Светла)","update":"2021-06-08 07:25:45","iframe_src":"//8332.svetacdn.in/IAF0wWTdNYZm/movie/48243"},{"id":9985,"title":"Фрик","kp_id":"1398914","imdb_id":"tt13634872","world_art_id":null,"type":"serial","add":"2021-02-20 19:52:14","orig_title":"Goemul","year":"2021-02-19","translations":["Любительский (многоголосый закадровый) (Ultradox)","Любительский (многоголосый закадровый) (ColdFilm)","Профессиональный (многоголосый закадровый) (HDrezka Studio)","Любительский (двухголосый закадровый) (SoftBox)","Профессиональный (многоголосый закадровый) (BaibaKo)"],"seasons_count":1,"episodes_count":16,"episodes":16,"update":"2021-04-21 07:12:32","iframe_src":"//8332.svetacdn.in/IAF0wWTdNYZm/tv-series/9985"},{"id":9883,"title":"В поисках Фриды","kp_id":null,"imdb_id":"tt13923128","world_art_id":null,"type":"serial","add":"2021-02-08 18:23:26","orig_title":"Buscando a Frida","year":"2021-01-26","translations":["Любительский (многоголосый закадровый) (Ultradox)"],"seasons_count":1,"episodes_count":56,"episodes":56,"update":"2021-04-21 09:20:32","iframe_src":"//8332.svetacdn.in/IAF0wWTdNYZm/tv-series/9883"},{"id":47692,"title":"Странная парочка","kp_id":"11763","imdb_id":"tt0063374","world_art_id":null,"type":"movie","add":"2021-02-06 05:56:12","orig_title":"The Odd Couple","year":"1968-05-02","translations":["Профессиональный (многоголосый закадровый) (DVD Магия)","Профессиональный (многоголосый закадровый) (DVD Магия)","Original (English)"],"quality":"bd","translation":"Профессиональный (многоголосый закадровый) (DVD Магия)","update":"2021-06-08 07:15:59","iframe_src":"//8332.svetacdn.in/IAF0wWTdNYZm/movie/47692"},{"id":47553,"title":"Верный шанс","kp_id":"15569","imdb_id":"tt0071194","world_art_id":null,"type":"movie","add":"2021-01-31 20:18:43","orig_title":"The Bank Shot","year":"1974-07-31","translations":["Профессиональный (двухголосый закадровый) (НТВ)","Original (English)"],"quality":"bd","translation":"Профессиональный (двухголосый закадровый) (НТВ)","update":"2021-06-08 07:19:03","iframe_src":"//8332.svetacdn.in/IAF0wWTdNYZm/movie/47553"},{"id":47002,"title":"Хуарес","kp_id":"10345","imdb_id":"tt0031516","world_art_id":null,"type":"movie","add":"2021-01-12 20:20:01","orig_title":"Juarez","year":"1939-04-24","translations":["Профессиональный (одноголосый закадровый)","Original (English)"],"quality":"webdl","translation":"Профессиональный (одноголосый закадровый)","update":"2021-06-08 07:12:46","iframe_src":"//8332.svetacdn.in/IAF0wWTdNYZm/movie/47002"},{"id":47000,"title":"Это случилось на Пятой авеню","kp_id":"93233","imdb_id":"tt0039502","world_art_id":null,"type":"movie","add":"2021-01-12 20:14:58","orig_title":"It Happened on Fifth Avenue","year":"1947-04-05","translations":["Авторский (одноголосый закадровый) (Рутилов Виктор | fiendover | overfiend)","Original (English)"],"quality":"bd","translation":"Авторский (одноголосый закадровый) (Рутилов Виктор | fiendover | overfiend)","update":"2021-06-08 07:28:24","iframe_src":"//8332.svetacdn.in/IAF0wWTdNYZm/movie/47000"},{"id":6467,"title":"В меньшинстве","kp_id":"1266445","imdb_id":"tt10327294","world_art_id":null,"type":"serial","add":"2020-01-25 15:22:30","orig_title":"Outmatched","year":"2020-01-23","translations":["Профессиональный (двухголосый закадровый) (IdeaFilm)","Профессиональный (многоголосый закадровый) (TVShows)","Профессиональный (многоголосый закадровый) (IdeaFilm)"],"seasons_count":1,"episodes_count":10,"episodes":10,"update":"2021-04-21 16:33:51","iframe_src":"//8332.svetacdn.in/IAF0wWTdNYZm/tv-series/6467"},{"id":26478,"title":"Охота на лис","kp_id":"42755","imdb_id":"tt0081271","world_art_id":null,"type":"movie","add":"2019-05-13 21:28:30","orig_title":"Okhota na lis","year":"1980-12-22","translations":["Оригинальная дорожка","Оригинальная дорожка"],"quality":"dvdrip","translation":"Оригинальная дорожка","update":"2021-06-08 07:30:39","iframe_src":"//8332.svetacdn.in/IAF0wWTdNYZm/movie/26478"},{"id":4116,"title":"Маска","kp_id":"915243","imdb_id":"tt4714786","world_art_id":null,"type":"serial","add":"2019-02-19 22:25:55","orig_title":"Gamyeon","year":"2015-05-27","translations":["Любительский (двухголосый закадровый) (GREEN TEA)","Любительский (одноголосый закадровый) (Seoul Bay)"],"seasons_count":1,"episodes_count":20,"episodes":20,"update":"2021-04-21 08:28:54","iframe_src":"//8332.svetacdn.in/IAF0wWTdNYZm/tv-series/4116"},{"id":3649,"title":"Осколки","kp_id":"1044460","imdb_id":"tt8401406","world_art_id":null,"type":"serial","add":"2018-12-09 15:41:39","orig_title":"Oskolki","year":"2018-03-12","translations":["Оригинальная дорожка"],"seasons_count":2,"episodes_count":32,"episodes":16,"update":"2021-04-23 03:46:10","iframe_src":"//8332.svetacdn.in/IAF0wWTdNYZm/tv-series/3649"},{"id":19343,"title":"Детектив Ди: Четыре Небесных царя","kp_id":"1045291","imdb_id":"tt8647426","world_art_id":null,"type":"movie","add":"2018-10-04 00:26:05","orig_title":"Di Renjie: zhi si da tian wang","year":"2018-07-26","translations":["Любительский (многоголосый закадровый) (Колобок)","Профессиональный (многоголосый закадровый) (HDrezka Studio)","Профессиональный (многоголосый закадровый) (HDrezka Studio)"],"quality":"webdl","translation":"Любительский (многоголосый закадровый) (Колобок)","update":"2021-06-08 04:06:42","iframe_src":"//8332.svetacdn.in/IAF0wWTdNYZm/movie/19343"},{"id":2906,"title":"Полиция Майами: Отдел нравов","kp_id":"84462","imdb_id":"tt0086759","world_art_id":null,"type":"serial","add":"2018-07-10 18:48:43","orig_title":"Miami Vice","year":"1984-09-16","translations":["Профессиональный (многоголосый закадровый) (СТС)"],"seasons_count":5,"episodes_count":111,"episodes":21,"update":"2021-04-21 09:18:57","iframe_src":"//8332.svetacdn.in/IAF0wWTdNYZm/tv-series/2906"},{"id":2880,"title":"Без права на второй шанс","kp_id":"957936","imdb_id":"tt4322334","world_art_id":null,"type":"serial","add":"2018-07-01 10:18:03","orig_title":"Une chance de trop","year":"2015-10-15","translations":["Профессиональный (многоголосый закадровый)","Профессиональный (двухголосый закадровый) (ViruseProject)"],"seasons_count":1,"episodes_count":6,"episodes":6,"update":"2021-04-22 08:24:09","iframe_src":"//8332.svetacdn.in/IAF0wWTdNYZm/tv-series/2880"},{"id":84,"title":"Большой завтрак","kp_id":null,"imdb_id":null,"world_art_id":null,"type":"serial","add":"2018-03-27 14:11:55","orig_title":"Большой завтрак","year":"2018-03-12","translations":["Оригинальная дорожка"],"seasons_count":1,"episodes_count":6,"episodes":6,"update":"2018-03-28 13:52:09","iframe_src":"//8332.svetacdn.in/IAF0wWTdNYZm/show-tv-series/84"},{"id":69,"title":"Мирами за сокровищами","kp_id":null,"imdb_id":null,"world_art_id":null,"type":"serial","add":"2018-03-19 17:55:12","orig_title":"Світами за скарбами","year":"2018-03-04","translations":["Оригинальная дорожка"],"seasons_count":1,"episodes_count":4,"episodes":4,"update":"2018-03-28 13:38:06","iframe_src":"//8332.svetacdn.in/IAF0wWTdNYZm/show-tv-series/69"},{"id":57,"title":"Мятежники ледяного озера","kp_id":"880619","imdb_id":"tt3946492","world_art_id":null,"type":"serial","add":"2018-03-11 10:08:44","orig_title":"Ice Lake Rebels","year":"2014-07-27","translations":["Профессиональный (многоголосый закадровый) (Discovery)"],"seasons_count":1,"episodes_count":10,"episodes":10,"update":"2018-03-12 19:10:53","iframe_src":"//8332.svetacdn.in/IAF0wWTdNYZm/show-tv-series/57"},{"id":53,"title":"Долины смерти","kp_id":"965831","imdb_id":"tt5350248","world_art_id":null,"type":"serial","add":"2018-02-25 11:44:10","orig_title":"Killing Fields","year":"2016-01-05","translations":["Профессиональный (многоголосый закадровый) (Discovery)"],"seasons_count":2,"episodes_count":15,"episodes":8,"update":"2018-03-16 10:46:09","iframe_src":"//8332.svetacdn.in/IAF0wWTdNYZm/show-tv-series/53"},{"id":50,"title":"Легенда о золоте крокодилов","kp_id":null,"imdb_id":"tt6317528","world_art_id":null,"type":"serial","add":"2018-02-25 10:47:12","orig_title":"Legend of Croc Gold","year":"2016-11-23","translations":["Профессиональный (многоголосый закадровый) (Discovery)"],"seasons_count":1,"episodes_count":8,"episodes":8,"update":"2018-03-02 10:28:53","iframe_src":"//8332.svetacdn.in/IAF0wWTdNYZm/show-tv-series/50"},{"id":49,"title":"Капитан Кук: Одержимость и открытия","kp_id":"843399","imdb_id":"tt0961114","world_art_id":null,"type":"serial","add":"2018-02-25 10:07:13","orig_title":"Captain Cook: Obsession and Discovery","year":"2007-10-28","translations":["Профессиональный (двухголосый закадровый) (Discovery)"],"seasons_count":1,"episodes_count":4,"episodes":4,"update":"2018-03-02 14:31:58","iframe_src":"//8332.svetacdn.in/IAF0wWTdNYZm/show-tv-series/49"},{"id":47,"title":"Защитники океана","kp_id":null,"imdb_id":"tt6317542","world_art_id":null,"type":"serial","add":"2018-02-25 09:49:07","orig_title":"Ocean Warriors","year":"2016-12-04","translations":["Профессиональный (одноголосый закадровый) (Discovery)"],"seasons_count":1,"episodes_count":6,"episodes":6,"update":"2018-02-25 17:38:01","iframe_src":"//8332.svetacdn.in/IAF0wWTdNYZm/show-tv-series/47"},{"id":46,"title":"Больше чем фокусы с Ди Эм Си","kp_id":"843751","imdb_id":"tt4138532","world_art_id":null,"type":"serial","add":"2018-02-25 09:15:09","orig_title":"Beyond Magic with DMC","year":"2014-11-06","translations":["Профессиональный (одноголосый закадровый)"],"seasons_count":1,"episodes_count":7,"episodes":7,"update":"2018-03-12 19:55:04","iframe_src":"//8332.svetacdn.in/IAF0wWTdNYZm/show-tv-series/46"},{"id":41,"title":"Дьявольский каньон","kp_id":null,"imdb_id":"tt6938394","world_art_id":null,"type":"serial","add":"2018-02-18 23:37:34","orig_title":"Devil's Canyon","year":"2017-06-06","translations":["Профессиональный (одноголосый закадровый) (Discovery)"],"seasons_count":1,"episodes_count":6,"episodes":6,"update":"2018-02-25 17:47:17","iframe_src":"//8332.svetacdn.in/IAF0wWTdNYZm/show-tv-series/41"},{"id":40,"title":"Бушкрафт: лесная лига","kp_id":null,"imdb_id":"tt7799008","world_art_id":null,"type":"serial","add":"2018-02-18 23:27:27","orig_title":"Bushcraft Build-Off","year":"2017-11-14","translations":["Профессиональный (двухголосый закадровый) (Discovery)"],"seasons_count":1,"episodes_count":6,"episodes":6,"update":"2018-03-02 14:51:17","iframe_src":"//8332.svetacdn.in/IAF0wWTdNYZm/show-tv-series/40"},{"id":36,"title":"Конвой: Битва за Атлантику","kp_id":null,"imdb_id":"tt1868356","world_art_id":null,"type":"serial","add":"2018-02-18 22:13:38","orig_title":"Convoy: War for the Atlantic","year":"2009-01-01","translations":["Профессиональный (одноголосый закадровый)"],"seasons_count":1,"episodes_count":4,"episodes":4,"update":"2018-03-12 20:01:51","iframe_src":"//8332.svetacdn.in/IAF0wWTdNYZm/show-tv-series/36"},{"id":33,"title":"Сокровище Купера","kp_id":null,"imdb_id":"tt6459410","world_art_id":null,"type":"serial","add":"2018-02-17 20:56:55","orig_title":"Cooper's Treasure","year":"2017-04-18","translations":["Профессиональный (двухголосый закадровый) (Discovery)"],"seasons_count":1,"episodes_count":8,"episodes":8,"update":"2018-03-02 14:44:47","iframe_src":"//8332.svetacdn.in/IAF0wWTdNYZm/show-tv-series/33"},{"id":31,"title":"Боевые корабли","kp_id":null,"imdb_id":"tt7174736","world_art_id":null,"type":"serial","add":"2018-02-17 14:38:33","orig_title":"Combat Ships","year":"2017-06-20","translations":["Профессиональный (одноголосый закадровый)"],"seasons_count":1,"episodes_count":10,"episodes":10,"update":"2018-03-12 20:12:59","iframe_src":"//8332.svetacdn.in/IAF0wWTdNYZm/show-tv-series/31"},{"id":29,"title":"Мозг с Дэвидом Иглменом","kp_id":"892251","imdb_id":"tt3923774","world_art_id":null,"type":"serial","add":"2018-02-17 13:02:39","orig_title":"The Brain with Dr. David Eagleman","year":"2015-10-01","translations":["Любительский (одноголосый закадровый) (Jimmy J.)"],"seasons_count":1,"episodes_count":6,"episodes":6,"update":"2018-03-16 14:04:55","iframe_src":"//8332.svetacdn.in/IAF0wWTdNYZm/show-tv-series/29"},{"id":28,"title":"Спасатели-тяжеловесы","kp_id":null,"imdb_id":"tt6385418","world_art_id":null,"type":"serial","add":"2018-02-17 12:46:18","orig_title":"Heavy Rescue","year":"2017-01-03","translations":["Профессиональный (одноголосый закадровый) (Discovery)"],"seasons_count":1,"episodes_count":8,"episodes":8,"update":"2018-03-02 11:07:44","iframe_src":"//8332.svetacdn.in/IAF0wWTdNYZm/show-tv-series/28"},{"id":27,"title":"Удивительные яхты","kp_id":null,"imdb_id":"tt2576804","world_art_id":null,"type":"serial","add":"2018-02-16 21:29:34","orig_title":"Extreme Yachts","year":"2012-11-18","translations":["Профессиональный (двухголосый закадровый)"],"seasons_count":2,"episodes_count":6,"episodes":3,"update":"2018-02-25 17:31:02","iframe_src":"//8332.svetacdn.in/IAF0wWTdNYZm/show-tv-series/27"},{"id":26,"title":"Сражение с океаном","kp_id":null,"imdb_id":"tt5119992","world_art_id":null,"type":"serial","add":"2018-02-16 20:35:46","orig_title":"Pacific Warriors","year":"2015-10-23","translations":["Профессиональный (двухголосый закадровый) (Discovery)"],"seasons_count":1,"episodes_count":6,"episodes":6,"update":"2018-03-04 20:10:03","iframe_src":"//8332.svetacdn.in/IAF0wWTdNYZm/show-tv-series/26"},{"id":25,"title":"Голубая планета 2","kp_id":"1073233","imdb_id":"tt6769208","world_art_id":null,"type":"serial","add":"2018-02-16 20:24:12","orig_title":"Blue Planet II","year":"2017-10-29","translations":["Любительский (многоголосый закадровый) (ColdFilm)"],"seasons_count":1,"episodes_count":7,"episodes":7,"update":"2018-03-02 10:04:48","iframe_src":"//8332.svetacdn.in/IAF0wWTdNYZm/show-tv-series/25"},{"id":21,"title":"Широкий взгляд с Кэлом Пенном","kp_id":null,"imdb_id":"tt4622750","world_art_id":null,"type":"serial","add":"2018-02-16 10:31:35","orig_title":"The Big Picture with Kal Penn","year":"2015-03-30","translations":["Профессиональный (одноголосый закадровый)"],"seasons_count":1,"episodes_count":12,"episodes":12,"update":"2018-03-16 13:48:25","iframe_src":"//8332.svetacdn.in/IAF0wWTdNYZm/show-tv-series/21"},{"id":15,"title":"Подделка или удача","kp_id":"1049829","imdb_id":"tt2033616","world_art_id":null,"type":"serial","add":"2018-01-24 07:03:54","orig_title":"Fake or Fortune?","year":"2011-06-19","translations":["Профессиональный (двухголосый закадровый) (BBC Saint-Petersburg)"],"seasons_count":1,"episodes_count":3,"episodes":3,"update":"2018-03-16 13:11:49","iframe_src":"//8332.svetacdn.in/IAF0wWTdNYZm/show-tv-series/15"},{"id":1883,"title":"Неизвестные лица","kp_id":"471775","imdb_id":"tt1333050","world_art_id":null,"type":"serial","add":"2017-12-21 06:43:08","orig_title":"Persons Unknown","year":"2010-06-07","translations":["Полное дублирование (РенТВ)","Профессиональный (двухголосый закадровый) (Кубик в Кубе)","Профессиональный (многоголосый закадровый) (LostFilm)"],"seasons_count":1,"episodes_count":13,"episodes":13,"update":"2021-04-22 11:15:46","iframe_src":"//8332.svetacdn.in/IAF0wWTdNYZm/tv-series/1883"},{"id":595,"title":"Королева сахара","kp_id":"891644","imdb_id":"tt4419214","world_art_id":null,"type":"serial","add":"2016-11-17 12:38:53","orig_title":"Queen Sugar","year":"2016-09-06","translations":["Профессиональный (двухголосый закадровый) (Sunshine Studio)","Любительский (многоголосый закадровый) (ColdFilm)","Профессиональный (многоголосый закадровый) (Jaskier)","Любительский (многоголосый закадровый) (Ultradox)","Профессиональный (многоголосый закадровый) (BaibaKo)"],"seasons_count":5,"episodes_count":61,"episodes":10,"update":"2021-04-21 09:04:18","iframe_src":"//8332.svetacdn.in/IAF0wWTdNYZm/tv-series/595"},{"id":6862,"title":"Городские пижоны 2: Легенда о золоте Кёрли","kp_id":"1600","imdb_id":"tt0109439","world_art_id":null,"type":"movie","add":"2016-10-31 12:19:43","orig_title":"City Slickers II: The Legend of Curly's Gold","year":"1994-06-10","translations":["Профессиональный (многоголосый закадровый)","Original (English)","Профессиональный (многоголосый закадровый) (Первый канал | ОРТ)","Авторский (одноголосый закадровый) (Михалёв Алексей)"],"quality":"hdtv","translation":"Профессиональный (многоголосый закадровый)","update":"2021-06-08 06:07:28","iframe_src":"//8332.svetacdn.in/IAF0wWTdNYZm/movie/6862"},{"id":527,"title":"Бесстыжие","kp_id":"571335","imdb_id":"tt1586680","world_art_id":null,"type":"serial","add":"2016-10-14 12:54:16","orig_title":"Shameless","year":"2011-01-09","translations":["Профессиональный (многоголосый)","Профессиональный (многоголосый закадровый) (AlexFilm)","Профессиональный (многоголосый закадровый) (IdeaFilm)","Любительский (многоголосый закадровый) (ColdFilm)","Любительский (многоголосый закадровый) (Ultradox)","Любительский (многоголосый закадровый) (KerobTV)","Original (English)","Любительский (двухголосый закадровый) (LakeFilms)","Любительский (многоголосый закадровый) (WestFilm)","Профессиональный (многоголосый закадровый) (BaibaKo)","Любительский (двухголосый закадровый) (KerobTV)"],"seasons_count":11,"episodes_count":134,"episodes":12,"update":"2021-04-22 17:57:47","iframe_src":"//8332.svetacdn.in/IAF0wWTdNYZm/tv-series/527"},{"id":4052,"title":"Капитан Крюк","kp_id":"4057","imdb_id":"tt0102057","world_art_id":null,"type":"movie","add":"2016-07-20 10:43:25","orig_title":"Hook","year":"1991-12-08","translations":["Полное дублирование","Авторский (одноголосый закадровый) (Дохалов Вартан)","Авторский (одноголосый закадровый) (Сонькин Владимир)","Авторский (одноголосый закадровый) (Живов Юрий)","Полное дублирование","Original (English)","Профессиональный (многоголосый закадровый)","Профессиональный (многоголосый закадровый) (Superbit)"],"quality":"bd","translation":"Полное дублирование","update":"2021-06-08 08:03:31","iframe_src":"//8332.svetacdn.in/IAF0wWTdNYZm/movie/4052"},{"id":180,"title":"Это – Англия. Год 1986","kp_id":"565746","imdb_id":"tt1685471","world_art_id":null,"type":"serial","add":"2016-06-13 07:45:05","orig_title":"This Is England '86","year":"2010-09-07","translations":["Профессиональный (многоголосый закадровый)","Профессиональный (двухголосый закадровый) (Кубик в Кубе)"],"seasons_count":1,"episodes_count":4,"episodes":4,"update":"2021-04-22 21:17:37","iframe_src":"//8332.svetacdn.in/IAF0wWTdNYZm/tv-series/180"},{"id":1994,"title":"Настоящая любовь","kp_id":"4149","imdb_id":"tt0108399","world_art_id":null,"type":"movie","add":"2016-05-09 05:22:42","orig_title":"True Romance","year":"1993-09-10","translations":["Профессиональный (многоголосый закадровый)","Авторский (одноголосый закадровый) (Чадов Михаил)","Авторский (одноголосый закадровый) (Гаврилов Андрей)","Авторский (одноголосый закадровый) (Живов Юрий)","Original (English)","Любительский (одноголосый закадровый)","Профессиональный (двухголосый закадровый) (Тивионика)","Профессиональный (двухголосый закадровый) (Гланц + Королёва)","Профессиональный (многоголосый закадровый) (5-й канал СПб)","Профессиональный (многоголосый закадровый) (ДТВ)","Профессиональный (многоголосый закадровый) (Киномания)","Профессиональный (многоголосый закадровый) (ТВЦ)","Профессиональный (многоголосый закадровый) (Twister)"],"quality":"bd","translation":"Профессиональный (многоголосый закадровый)","update":"2021-06-08 08:22:08","iframe_src":"//8332.svetacdn.in/IAF0wWTdNYZm/movie/1994"},{"id":1119,"title":"Не оставляющий следа","kp_id":"264021","imdb_id":"tt0880578","world_art_id":null,"type":"movie","add":"2016-04-14 18:12:52","orig_title":"Untraceable","year":"2008-01-22","translations":["Полное дублирование","Авторский (одноголосый закадровый) (Немахов Юрий)","Полное дублирование","Original (English)"],"quality":"bd","translation":"Полное дублирование","update":"2021-06-08 07:36:41","iframe_src":"//8332.svetacdn.in/IAF0wWTdNYZm/movie/1119"},{"id":8,"title":"Ходячие мертвецы","kp_id":"508161","imdb_id":"tt1520211","world_art_id":null,"type":"serial","add":"2016-03-07 08:38:27","orig_title":"The Walking Dead","year":"2010-10-31","translations":["Профессиональный (многоголосый закадровый) (LostFilm)","Профессиональный (многоголосый закадровый)","Любительский (двухголосый закадровый) (Sunshine Studio)","Профессиональный (многоголосый закадровый) (Jaskier)","Профессиональный (многоголосый закадровый) (FOX)","Профессиональный (одноголосый закадровый) (LostFilm)","Профессиональный (двухголосый закадровый) (TUMBLER Studio)","Профессиональный (двухголосый закадровый) (Gears Media)","Любительский (многоголосый закадровый) (WestFilm)","Любительский (многоголосый закадровый) (Octopus)","Любительский (двухголосый закадровый) (KerobTV)","Любительский (многоголосый закадровый) (Hamster Studio)","Профессиональный (многоголосый закадровый) (BaibaKo)","Любительский (многоголосый закадровый) (ColdFilm)","Любительский (многоголосый закадровый) (Ultradox)","Любительский (двухголосый закадровый) (Hamster Studio)"],"seasons_count":10,"episodes_count":153,"episodes":22,"update":"2021-04-22 15:33:01","iframe_src":"//8332.svetacdn.in/IAF0wWTdNYZm/tv-series/8"}],"current_page":49,"first_page_url":"https://videocdn.tv/api/short?limit=100&api_token=6Onb1W1alEUrBcKJZD3GoKBbWyAl2uG2&cache349=349&page=1","from":4801,"last_page":636,"last_page_url":"https://videocdn.tv/api/short?limit=100&api_token=6Onb1W1alEUrBcKJZD3GoKBbWyAl2uG2&cache349=349&page=636","next_page_url":"https://videocdn.tv/api/short?limit=100&api_token=6Onb1W1alEUrBcKJZD3GoKBbWyAl2uG2&cache349=349&page=50","path":"https://videocdn.tv/api/short","per_page":100,"prev_page_url":"https://videocdn.tv/api/short?limit=100&api_token=6Onb1W1alEUrBcKJZD3GoKBbWyAl2uG2&cache349=349&page=48","to":4860,"total":63545}