{"result":true,"data":[{"id":2399,"title":"Проклятие нефритового скорпиона","kp_id":"645","imdb_id":"tt0256524","world_art_id":null,"type":"movie","add":"2016-05-20 06:46:46","orig_title":"The Curse of the Jade Scorpion","year":"2001-08-05","translations":["Профессиональный (многоголосый закадровый)"],"quality":"bd","translation":"Профессиональный (многоголосый закадровый)","update":"2016-05-20 13:36:24","iframe_src":"//5322.svetacdn.in/si4jsFRrtgrT/movie/2399"},{"id":2396,"title":"Северная страна","kp_id":"77425","imdb_id":"tt0395972","world_art_id":null,"type":"movie","add":"2016-05-20 06:42:00","orig_title":"North Country","year":"2005-09-12","translations":["Профессиональный (многоголосый закадровый)"],"quality":"hdtv","translation":"Профессиональный (многоголосый закадровый)","update":"2016-05-20 13:21:58","iframe_src":"//5322.svetacdn.in/si4jsFRrtgrT/movie/2396"},{"id":2395,"title":"Монстр","kp_id":"6177","imdb_id":"tt0340855","world_art_id":null,"type":"movie","add":"2016-05-20 06:38:06","orig_title":"Monster","year":"2003-11-16","translations":["Полное дублирование"],"quality":"bd","translation":"Полное дублирование","update":"2016-05-20 13:19:13","iframe_src":"//5322.svetacdn.in/si4jsFRrtgrT/movie/2395"},{"id":2394,"title":"В долине Эла","kp_id":"178303","imdb_id":"tt0478134","world_art_id":null,"type":"movie","add":"2016-05-20 06:36:46","orig_title":"In the Valley of Elah","year":"2007-09-01","translations":["Полное дублирование"],"quality":"bd","translation":"Полное дублирование","update":"2016-05-20 13:16:27","iframe_src":"//5322.svetacdn.in/si4jsFRrtgrT/movie/2394"},{"id":2393,"title":"Голова в облаках","kp_id":"6176","imdb_id":"tt0338097","world_art_id":null,"type":"movie","add":"2016-05-20 06:35:22","orig_title":"Head in the Clouds","year":"2004-09-12","translations":["Полное дублирование"],"quality":"bd","translation":"Полное дублирование","update":"2016-05-20 13:13:21","iframe_src":"//5322.svetacdn.in/si4jsFRrtgrT/movie/2393"},{"id":2379,"title":"Последнее воскресение","kp_id":"276379","imdb_id":"tt0824758","world_art_id":null,"type":"movie","add":"2016-05-19 15:29:50","orig_title":"The Last Station","year":"2009-09-04","translations":["Полное дублирование"],"quality":"bd","translation":"Полное дублирование","update":"2016-05-20 19:38:42","iframe_src":"//5322.svetacdn.in/si4jsFRrtgrT/movie/2379"},{"id":2375,"title":"Хорошо быть тихоней","kp_id":"523248","imdb_id":"tt1659337","world_art_id":null,"type":"movie","add":"2016-05-19 14:50:32","orig_title":"The Perks of Being a Wallflower","year":"2012-09-08","translations":["Полное дублирование"],"quality":"bd","translation":"Полное дублирование","update":"2016-05-20 19:47:54","iframe_src":"//5322.svetacdn.in/si4jsFRrtgrT/movie/2375"},{"id":2373,"title":"P.S. Я люблю тебя","kp_id":"198028","imdb_id":"tt0431308","world_art_id":null,"type":"movie","add":"2016-05-19 14:37:50","orig_title":"P.S. I Love You","year":"2007-12-20","translations":["Полное дублирование"],"quality":"bd","translation":"Полное дублирование","update":"2016-05-20 19:53:58","iframe_src":"//5322.svetacdn.in/si4jsFRrtgrT/movie/2373"},{"id":2372,"title":"Спеши любить","kp_id":"875","imdb_id":"tt0281358","world_art_id":null,"type":"movie","add":"2016-05-19 14:36:09","orig_title":"A Walk to Remember","year":"2002-01-23","translations":["Полное дублирование"],"quality":"bd","translation":"Полное дублирование","update":"2016-05-20 19:56:59","iframe_src":"//5322.svetacdn.in/si4jsFRrtgrT/movie/2372"},{"id":2371,"title":"Имя","kp_id":"662895","imdb_id":"tt2179121","world_art_id":null,"type":"movie","add":"2016-05-19 14:32:23","orig_title":"Le prénom","year":"2012-04-25","translations":["Профессиональный (многоголосый)"],"quality":"bd","translation":"Профессиональный (многоголосый)","update":"2016-05-20 19:59:40","iframe_src":"//5322.svetacdn.in/si4jsFRrtgrT/movie/2371"},{"id":2370,"title":"Семейство Белье","kp_id":"861576","imdb_id":"tt3547740","world_art_id":null,"type":"movie","add":"2016-05-19 14:28:15","orig_title":"La famille Bélier","year":"2014-11-07","translations":["Любительский (одноголосый закадровый)"],"quality":"bd","translation":"Любительский (одноголосый закадровый)","update":"2016-05-20 20:01:20","iframe_src":"//5322.svetacdn.in/si4jsFRrtgrT/movie/2370"},{"id":2369,"title":"Шпион по соседству","kp_id":"431539","imdb_id":"tt1273678","world_art_id":null,"type":"movie","add":"2016-05-19 14:20:52","orig_title":"The Spy Next Door","year":"2010-01-15","translations":["Полное дублирование"],"quality":"bd","translation":"Полное дублирование","update":"2016-05-20 20:07:56","iframe_src":"//5322.svetacdn.in/si4jsFRrtgrT/movie/2369"},{"id":2341,"title":"Молодая кровь","kp_id":"847130","imdb_id":"tt3791302","world_art_id":null,"type":"movie","add":"2016-05-19 10:44:54","orig_title":"La tête haute","year":"2015-05-13","translations":["Профессиональный (многоголосый закадровый)"],"quality":"bd","translation":"Профессиональный (многоголосый закадровый)","update":"2016-05-20 14:01:22","iframe_src":"//5322.svetacdn.in/si4jsFRrtgrT/movie/2341"},{"id":2339,"title":"Агент Хамилтон: Похищенная","kp_id":"607085","imdb_id":"tt1856047","world_art_id":null,"type":"movie","add":"2016-05-19 10:38:41","orig_title":"Hamilton: Men inte om det gäller din dotter","year":"2012-09-07","translations":["Профессиональный (многоголосый закадровый)"],"quality":"bd","translation":"Профессиональный (многоголосый закадровый)","update":"2016-05-20 13:44:28","iframe_src":"//5322.svetacdn.in/si4jsFRrtgrT/movie/2339"},{"id":2327,"title":"Красная волчица","kp_id":"684563","imdb_id":"tt2188010","world_art_id":null,"type":"movie","add":"2016-05-19 05:23:25","orig_title":"Den röda vargen","year":"2012-06-24","translations":["Профессиональный (многоголосый закадровый)"],"quality":"bd","translation":"Профессиональный (многоголосый закадровый)","update":"2016-05-20 16:11:59","iframe_src":"//5322.svetacdn.in/si4jsFRrtgrT/movie/2327"},{"id":994,"title":"Быстрее пули","kp_id":"463802","imdb_id":"tt1433108","world_art_id":null,"type":"movie","add":"2016-04-12 13:17:54","orig_title":"Faster","year":"2010-11-24","translations":["Полное дублирование"],"quality":"bd","translation":"Полное дублирование","update":"2016-05-20 15:27:03","iframe_src":"//5322.svetacdn.in/si4jsFRrtgrT/movie/994"},{"id":980,"title":"Призрак","kp_id":"418790","imdb_id":"tt1139328","world_art_id":null,"type":"movie","add":"2016-04-12 12:42:39","orig_title":"The Ghost Writer","year":"2010-02-12","translations":["Полное дублирование"],"quality":"bd","translation":"Полное дублирование","update":"2016-05-20 15:29:47","iframe_src":"//5322.svetacdn.in/si4jsFRrtgrT/movie/980"},{"id":759,"title":"Сириана","kp_id":"18295","imdb_id":"tt0365737","world_art_id":null,"type":"movie","add":"2016-04-07 17:49:39","orig_title":"Syriana","year":"2005-11-23","translations":["Полное дублирование"],"quality":"bd","translation":"Полное дублирование","update":"2016-05-20 17:10:05","iframe_src":"//5322.svetacdn.in/si4jsFRrtgrT/movie/759"},{"id":756,"title":"Боец","kp_id":"279580","imdb_id":"tt0964517","world_art_id":null,"type":"movie","add":"2016-04-07 17:43:55","orig_title":"The Fighter","year":"2010-12-10","translations":["Полное дублирование"],"quality":"bd","translation":"Полное дублирование","update":"2016-05-20 17:16:16","iframe_src":"//5322.svetacdn.in/si4jsFRrtgrT/movie/756"},{"id":544,"title":"Царь Скорпионов 2: Восхождение воинов","kp_id":"395705","imdb_id":"tt1104123","world_art_id":null,"type":"movie","add":"2016-04-04 20:19:00","orig_title":"The Scorpion King: Rise of a Warrior","year":"2008-08-17","translations":["Полное дублирование"],"quality":"bd","translation":"Полное дублирование","update":"2016-05-20 17:06:22","iframe_src":"//5322.svetacdn.in/si4jsFRrtgrT/movie/544"}],"current_page":2433,"first_page_url":"https://videocdn.tv/api/short?limit=100&api_token=X6EwAUfE5M9xbo7y0Bp0aPf3uXxG2KLL&cache32433=32433&page=1","from":243201,"last_page":625,"last_page_url":"https://videocdn.tv/api/short?limit=100&api_token=X6EwAUfE5M9xbo7y0Bp0aPf3uXxG2KLL&cache32433=32433&page=625","next_page_url":null,"path":"https://videocdn.tv/api/short","per_page":100,"prev_page_url":"https://videocdn.tv/api/short?limit=100&api_token=X6EwAUfE5M9xbo7y0Bp0aPf3uXxG2KLL&cache32433=32433&page=2432","to":243220,"total":62484}