{"result":true,"data":[{"id":51331,"title":"Иван Макарович","kp_id":"42661","imdb_id":"tt0319585","world_art_id":null,"type":"movie","add":"2021-06-21 13:44:23","orig_title":"Ivan Makarovich","year":"1970-02-12","translations":["Оригинальная дорожка"],"quality":"hdtv","translation":"Оригинальная дорожка","update":"2021-06-22 08:52:03","iframe_src":"//8965.svetacdn.in/si4jsFRrtgrT/movie/51331"},{"id":51330,"title":"Паркет","kp_id":"1234852","imdb_id":"tt9699628","world_art_id":null,"type":"movie","add":"2021-06-21 13:43:07","orig_title":"Parquet","year":"2020-11-22","translations":["Оригинальная дорожка"],"quality":"webdl","translation":"Оригинальная дорожка","update":"2021-06-22 07:10:35","iframe_src":"//8965.svetacdn.in/si4jsFRrtgrT/movie/51330"},{"id":51327,"title":"Чако","kp_id":"1415358","imdb_id":"tt10201328","world_art_id":null,"type":"movie","add":"2021-06-21 12:45:36","orig_title":"Chaco","year":"2019-03-06","translations":["Любительский (многоголосый закадровый) (Синема УС)"],"quality":"webdl","translation":"Любительский (многоголосый закадровый) (Синема УС)","update":"2021-06-22 09:36:16","iframe_src":"//8965.svetacdn.in/si4jsFRrtgrT/movie/51327"},{"id":51325,"title":"Унитаз смерти 3: Замес по-большому","kp_id":"1419809","imdb_id":"tt12403702","world_art_id":null,"type":"movie","add":"2021-06-21 11:44:57","orig_title":"Death Toilet 3: Call of Doody","year":"2020-05-05","translations":["Любительский (многоголосый закадровый) (Синема УС)"],"quality":"webdl","translation":"Любительский (многоголосый закадровый) (Синема УС)","update":"2021-06-22 09:10:54","iframe_src":"//8965.svetacdn.in/si4jsFRrtgrT/movie/51325"},{"id":51321,"title":"Мясник","kp_id":"1316898","imdb_id":"tt11187940","world_art_id":null,"type":"movie","add":"2021-06-21 11:31:27","orig_title":"The Butcher","year":"2019-09-27","translations":["Любительский (многоголосый закадровый) (Синема УС)"],"quality":"webdl","translation":"Любительский (многоголосый закадровый) (Синема УС)","update":"2021-06-22 09:08:32","iframe_src":"//8965.svetacdn.in/si4jsFRrtgrT/movie/51321"},{"id":51319,"title":"Нули","kp_id":"946884","imdb_id":"tt5218740","world_art_id":null,"type":"movie","add":"2021-06-21 10:01:28","orig_title":"Zeroes","year":"2018-01-01","translations":["Любительский (многоголосый закадровый) (Синема УС)"],"quality":"webdl","translation":"Любительский (многоголосый закадровый) (Синема УС)","update":"2021-06-22 09:06:28","iframe_src":"//8965.svetacdn.in/si4jsFRrtgrT/movie/51319"},{"id":51311,"title":"Голем, как он пришел в мир","kp_id":"74791","imdb_id":"tt0011237","world_art_id":null,"type":"movie","add":"2021-06-21 05:49:19","orig_title":"Der Golem, wie er in die Welt kam","year":"1920-10-29","translations":["Профессиональный (одноголосый закадровый) (Светла)"],"quality":"bd","translation":"Профессиональный (одноголосый закадровый) (Светла)","update":"2021-06-22 07:16:55","iframe_src":"//8965.svetacdn.in/si4jsFRrtgrT/movie/51311"},{"id":50439,"title":"Понедельник","kp_id":"1183611","imdb_id":"tt8884906","world_art_id":null,"type":"movie","add":"2021-05-17 06:58:47","orig_title":"Monday","year":"2020-09-11","translations":["Любительский (многоголосый закадровый) (AlphaProject)","[EN] Original (English)"],"quality":"webdl","translation":"Любительский (многоголосый закадровый) (AlphaProject)","update":"2021-06-22 09:13:17","iframe_src":"//8965.svetacdn.in/si4jsFRrtgrT/movie/50439"},{"id":50304,"title":"Уйти не прощаясь","kp_id":"1281194","imdb_id":"tt10279362","world_art_id":null,"type":"movie","add":"2021-05-11 19:29:25","orig_title":"French Exit","year":"2020-10-10","translations":["Любительский (многоголосый закадровый) (AlphaProject)","Профессиональный (многоголосый закадровый) (iTunes)","[EN] Original (English)"],"quality":"webdl","translation":"Любительский (многоголосый закадровый) (AlphaProject)","update":"2021-06-22 09:19:15","iframe_src":"//8965.svetacdn.in/si4jsFRrtgrT/movie/50304"},{"id":50293,"title":"По воле случая","kp_id":"4382938","imdb_id":"tt13775584","world_art_id":null,"type":"movie","add":"2021-05-11 08:12:19","orig_title":"As Luck Would Have It","year":"2021-04-10","translations":["Любительский (многоголосый закадровый) (Синема УС)","[EN] Original (English)"],"quality":"webdl","translation":"Любительский (многоголосый закадровый) (Синема УС)","update":"2021-06-22 10:36:11","iframe_src":"//8965.svetacdn.in/si4jsFRrtgrT/movie/50293"},{"id":50282,"title":"Бэнкси. Расцвет нелегального искусства","kp_id":"1387015","imdb_id":"tt11393026","world_art_id":null,"type":"movie","add":"2021-05-10 21:31:08","orig_title":"Banksy and the Rise of Outlaw Art","year":"2020-02-18","translations":["Профессиональный (многоголосый закадровый) (AB-Video)","[EN] Original (English)"],"quality":"webdl","translation":"Профессиональный (многоголосый закадровый) (AB-Video)","update":"2021-06-22 10:27:19","iframe_src":"//8965.svetacdn.in/si4jsFRrtgrT/movie/50282"},{"id":50218,"title":"Бумажные тигры","kp_id":"1291231","imdb_id":"tt6060444","world_art_id":null,"type":"movie","add":"2021-05-07 20:10:13","orig_title":"The Paper Tigers","year":"2020-08-30","translations":["Любительский (многоголосый закадровый) (Синема УС)","Профессиональный (двухголосый закадровый) (Pazl Voice)","[EN] Original (English)"],"quality":"webdl","translation":"Любительский (многоголосый закадровый) (Синема УС)","update":"2021-06-22 08:58:46","iframe_src":"//8965.svetacdn.in/si4jsFRrtgrT/movie/50218"},{"id":47527,"title":"Отдых в раю","kp_id":"1320660","imdb_id":"tt11192714","world_art_id":null,"type":"movie","add":"2021-01-31 09:16:16","orig_title":"Retreat to Paradise","year":"2020-12-02","translations":["Любительский (многоголосый закадровый) (AlphaProject)","[EN] Original (English)"],"quality":"webdl","translation":"Любительский (многоголосый закадровый) (AlphaProject)","update":"2021-06-22 09:04:17","iframe_src":"//8965.svetacdn.in/si4jsFRrtgrT/movie/47527"},{"id":33768,"title":"Робакоп 2077","kp_id":"1156572","imdb_id":"tt7850334","world_art_id":null,"type":"movie","add":"2019-12-05 19:23:06","orig_title":"Automation","year":"2019-08-10","translations":["Любительский (многоголосый закадровый) (Синема УС)","Любительский (одноголосый закадровый)","[EN] Original (English)"],"quality":"webdl","translation":"Любительский (многоголосый закадровый) (Синема УС)","update":"2021-06-22 10:28:41","iframe_src":"//8965.svetacdn.in/si4jsFRrtgrT/movie/33768"},{"id":24357,"title":"Евдокия","kp_id":"42454","imdb_id":"tt0175341","world_art_id":null,"type":"movie","add":"2019-04-11 21:41:52","orig_title":"Evdokiya","year":"1961-04-17","translations":["Оригинальная дорожка","Оригинальная дорожка"],"quality":"dvdrip","translation":"Оригинальная дорожка","update":"2021-06-22 07:13:41","iframe_src":"//8965.svetacdn.in/si4jsFRrtgrT/movie/24357"},{"id":22336,"title":"Сломленный призрак","kp_id":"1029758","imdb_id":"tt6300886","world_art_id":null,"type":"movie","add":"2019-02-16 23:47:52","orig_title":"Broken Ghost","year":"2017-09-01","translations":["Любительский (многоголосый закадровый) (Синема УС)","Любительский (двухголосый закадровый) (HiWayGrope)","Любительский (двухголосый закадровый) (HiWayGrope)","[EN] Original (English)"],"quality":"webdl","translation":"Любительский (многоголосый закадровый) (Синема УС)","update":"2021-06-22 10:26:05","iframe_src":"//8965.svetacdn.in/si4jsFRrtgrT/movie/22336"},{"id":3634,"title":"Качели","kp_id":"1049310","imdb_id":null,"world_art_id":null,"type":"serial","add":"2018-12-06 18:10:36","orig_title":"Качели","year":"2016-01-01","translations":["Оригинальная дорожка"],"seasons_count":1,"episodes_count":8,"episodes":8,"update":"2018-12-07 06:41:18","iframe_src":"//8965.svetacdn.in/si4jsFRrtgrT/tv-series/3634"},{"id":3631,"title":"Гимн смерти","kp_id":"1113026","imdb_id":"tt8160064","world_art_id":null,"type":"serial","add":"2018-12-06 08:45:32","orig_title":"Saui chanmi","year":"2018-11-27","translations":["Любительский (двухголосый закадровый) (SoftBox)"],"seasons_count":1,"episodes_count":1,"episodes":1,"update":"2018-12-07 10:40:35","iframe_src":"//8965.svetacdn.in/si4jsFRrtgrT/tv-series/3631"},{"id":3629,"title":"Ангелы и бриллианты","kp_id":"703071","imdb_id":"tt1809436","world_art_id":null,"type":"serial","add":"2018-12-06 08:23:50","orig_title":"Angeli & diamanti","year":"2011-07-07","translations":["Профессиональный (многоголосый закадровый)"],"seasons_count":1,"episodes_count":3,"episodes":3,"update":"2018-12-07 10:37:36","iframe_src":"//8965.svetacdn.in/si4jsFRrtgrT/tv-series/3629"},{"id":3628,"title":"Железная леди. Когда кончается шоу","kp_id":"1001689","imdb_id":"tt5882020","world_art_id":null,"type":"serial","add":"2018-12-06 08:15:08","orig_title":"Yeongeuki Kkeutnago Nan Dwi","year":"2016-07-02","translations":["Любительский (двухголосый закадровый) (SoftBox)"],"seasons_count":1,"episodes_count":8,"episodes":8,"update":"2018-12-07 10:29:44","iframe_src":"//8965.svetacdn.in/si4jsFRrtgrT/tv-series/3628"},{"id":3627,"title":"Воин Пэк Тон-су","kp_id":"714192","imdb_id":"tt3052852","world_art_id":null,"type":"serial","add":"2018-12-06 01:31:42","orig_title":"Moosa Baek Dong-soo","year":"2011-07-04","translations":["Любительский (двухголосый закадровый) (GREEN TEA)"],"seasons_count":1,"episodes_count":29,"episodes":29,"update":"2018-12-06 09:32:37","iframe_src":"//8965.svetacdn.in/si4jsFRrtgrT/tv-series/3627"},{"id":3626,"title":"Только бок о бок с тобой","kp_id":"1117583","imdb_id":"tt8234128","world_art_id":null,"type":"serial","add":"2018-12-06 01:06:56","orig_title":"Nan fang you qiao mu","year":"2018-03-25","translations":["Любительский (двухголосый закадровый) (Victory-Films)"],"seasons_count":1,"episodes_count":40,"episodes":40,"update":"2018-12-06 13:20:18","iframe_src":"//8965.svetacdn.in/si4jsFRrtgrT/tv-series/3626"},{"id":3625,"title":"Клирики","kp_id":"837722","imdb_id":"tt2303170","world_art_id":null,"type":"serial","add":"2018-12-05 15:52:21","orig_title":"Ainsi soient-ils","year":"2012-10-11","translations":["Профессиональный (двухголосый закадровый) (ViruseProject)"],"seasons_count":1,"episodes_count":8,"episodes":8,"update":"2018-12-06 11:55:55","iframe_src":"//8965.svetacdn.in/si4jsFRrtgrT/tv-series/3625"},{"id":3623,"title":"Среда 15:30","kp_id":"1047352","imdb_id":"tt7208348","world_art_id":null,"type":"serial","add":"2018-12-04 23:39:35","orig_title":"Su-yo-il O-hu 3si 30bun","year":"2017-06-07","translations":["Любительский (двухголосый закадровый) (SoftBox)"],"seasons_count":1,"episodes_count":16,"episodes":16,"update":"2018-12-06 05:42:06","iframe_src":"//8965.svetacdn.in/si4jsFRrtgrT/tv-series/3623"},{"id":3621,"title":"Повстанец Хон Гиль-дон","kp_id":"1008596","imdb_id":"tt6256694","world_art_id":null,"type":"serial","add":"2018-12-04 23:21:52","orig_title":"Yeok-jeok: baek-seong-eul hom-chin do-jeok","year":"2017-01-30","translations":["Любительский (двухголосый закадровый) (SoftBox)"],"seasons_count":1,"episodes_count":30,"episodes":30,"update":"2018-12-05 09:38:22","iframe_src":"//8965.svetacdn.in/si4jsFRrtgrT/tv-series/3621"},{"id":3620,"title":"Стук сердца","kp_id":"972320","imdb_id":"tt4613520","world_art_id":null,"type":"serial","add":"2018-12-04 23:14:28","orig_title":"Maeumui sori","year":"2016-11-07","translations":["Любительский (двухголосый закадровый) (SoftBox)"],"seasons_count":1,"episodes_count":20,"episodes":20,"update":"2018-12-05 08:35:50","iframe_src":"//8965.svetacdn.in/si4jsFRrtgrT/tv-series/3620"},{"id":3617,"title":"Гадкие американцы","kp_id":"565062","imdb_id":"tt1621748","world_art_id":null,"type":"serial","add":"2018-12-04 19:50:37","orig_title":"Ugly Americans","year":"2010-03-17","translations":["Полное дублирование (Paramount Comedy)"],"seasons_count":2,"episodes_count":31,"episodes":17,"update":"2018-12-04 21:13:49","iframe_src":"//8965.svetacdn.in/si4jsFRrtgrT/tv-series/3617"},{"id":3612,"title":"Королевские гонки РуПола","kp_id":"579509","imdb_id":"tt1353056","world_art_id":null,"type":"serial","add":"2018-12-04 09:39:09","orig_title":"RuPaul's Drag Race","year":"2009-02-02","translations":["Любительский (двухголосый закадровый) (GoldTeam)"],"seasons_count":1,"episodes_count":9,"episodes":9,"update":"2018-12-05 10:27:43","iframe_src":"//8965.svetacdn.in/si4jsFRrtgrT/tv-series/3612"},{"id":3602,"title":"Карибский цветок","kp_id":"745551","imdb_id":"tt2771130","world_art_id":null,"type":"serial","add":"2018-12-03 08:24:15","orig_title":"Flor do Caribe","year":"2013-03-11","translations":["Профессиональный (многоголосый закадровый)"],"seasons_count":1,"episodes_count":119,"episodes":119,"update":"2018-12-05 11:21:28","iframe_src":"//8965.svetacdn.in/si4jsFRrtgrT/tv-series/3602"},{"id":3599,"title":"Да здравствует король Джулиан: Изгнанный","kp_id":"1047747","imdb_id":"tt6865906","world_art_id":null,"type":"serial","add":"2018-12-02 10:34:02","orig_title":"All Hail King Julien: Exiled","year":"2017-05-12","translations":["Полное дублирование (SDI Media | Iyuno-SDI Group Russia)"],"seasons_count":1,"episodes_count":13,"episodes":13,"update":"2018-12-05 15:06:26","iframe_src":"//8965.svetacdn.in/si4jsFRrtgrT/tv-series/3599"},{"id":3588,"title":"Топ-менеджмент","kp_id":"1206871","imdb_id":"tt9284162","world_art_id":null,"type":"serial","add":"2018-11-28 23:26:46","orig_title":"Top Management","year":"2018-10-31","translations":["Любительский (двухголосый закадровый) (SoftBox)"],"seasons_count":1,"episodes_count":16,"episodes":16,"update":"2018-12-05 09:52:33","iframe_src":"//8965.svetacdn.in/si4jsFRrtgrT/tv-series/3588"},{"id":3585,"title":"Жена с того света","kp_id":"1115757","imdb_id":null,"world_art_id":null,"type":"serial","add":"2018-11-28 11:29:38","orig_title":"Жена с того света","year":"2018-04-15","translations":["Оригинальная дорожка"],"seasons_count":1,"episodes_count":4,"episodes":4,"update":"2018-12-05 10:13:05","iframe_src":"//8965.svetacdn.in/si4jsFRrtgrT/tv-series/3585"},{"id":3539,"title":"Жёлтый глаз тигра","kp_id":"1045972","imdb_id":null,"world_art_id":null,"type":"serial","add":"2018-11-19 23:09:45","orig_title":"Жёлтый глаз тигра","year":"2018-11-19","translations":["Оригинальная дорожка"],"seasons_count":1,"episodes_count":16,"episodes":16,"update":"2018-12-07 00:54:44","iframe_src":"//8965.svetacdn.in/si4jsFRrtgrT/tv-series/3539"},{"id":18833,"title":"Траншея 11","kp_id":"1006045","imdb_id":"tt5033290","world_art_id":null,"type":"movie","add":"2018-09-07 00:10:19","orig_title":"Trench 11","year":"2017-10-15","translations":["Профессиональный (многоголосый закадровый) (HDrezka Studio)","Профессиональный (многоголосый закадровый) (HDrezka Studio)","Профессиональный (многоголосый закадровый) (Киноужас)","[EN] Original (English)"],"quality":"bd","translation":"Профессиональный (многоголосый закадровый) (HDrezka Studio)","update":"2021-06-22 10:37:39","iframe_src":"//8965.svetacdn.in/si4jsFRrtgrT/movie/18833"},{"id":2668,"title":"Всё включено","kp_id":"632589","imdb_id":"tt0959601","world_art_id":null,"type":"serial","add":"2018-05-27 14:48:38","orig_title":"Benidorm","year":"2007-02-02","translations":["Любительский (двухголосый закадровый) (Hamster Studio)"],"seasons_count":1,"episodes_count":9,"episodes":9,"update":"2018-12-05 13:34:19","iframe_src":"//8965.svetacdn.in/si4jsFRrtgrT/tv-series/2668"},{"id":16164,"title":"Призраки прошлого","kp_id":"1068132","imdb_id":"tt6240470","world_art_id":null,"type":"movie","add":"2018-04-10 21:28:30","orig_title":"August Creek","year":"2017-07-05","translations":["Любительский (многоголосый закадровый) (Синема УС)","Любительский (двухголосый закадровый) (HiWayGrope)","Любительский (двухголосый закадровый) (HiWayGrope)","[EN] Original (English)"],"quality":"webdl","translation":"Любительский (многоголосый закадровый) (Синема УС)","update":"2021-06-22 10:29:36","iframe_src":"//8965.svetacdn.in/si4jsFRrtgrT/movie/16164"},{"id":2057,"title":"Пэйнсы","kp_id":"1112440","imdb_id":"tt6482686","world_art_id":null,"type":"serial","add":"2018-02-11 13:55:58","orig_title":"The Paynes","year":"2018-01-16","translations":["Любительский (двухголосый закадровый) (ColdFilm)","Любительский (двухголосый закадровый) (KinoGolos)","Любительский (многоголосый закадровый) (ColdFilm)","Любительский (двухголосый закадровый) (GoldTeam)"],"seasons_count":1,"episodes_count":38,"episodes":38,"update":"2018-12-06 23:21:48","iframe_src":"//8965.svetacdn.in/si4jsFRrtgrT/tv-series/2057"},{"id":14206,"title":"Шанхайский перевозчик","kp_id":"986858","imdb_id":"tt5648036","world_art_id":null,"type":"movie","add":"2017-11-01 23:03:40","orig_title":"S.M.A.R.T. Chase","year":"2017-09-30","translations":["Полное дублирование","Полное дублирование (iTunes)","[EN] Original (English)"],"quality":"bd","translation":"Полное дублирование","update":"2021-06-22 10:41:05","iframe_src":"//8965.svetacdn.in/si4jsFRrtgrT/movie/14206"},{"id":561,"title":"Попадец","kp_id":"1006725","imdb_id":"tt6038226","world_art_id":null,"type":"serial","add":"2016-11-01 12:51:25","orig_title":"Zapped","year":"2016-10-13","translations":["Любительский (двухголосый закадровый) (Jimmy J.)"],"seasons_count":3,"episodes_count":15,"episodes":6,"update":"2018-12-06 11:42:20","iframe_src":"//8965.svetacdn.in/si4jsFRrtgrT/tv-series/561"},{"id":5146,"title":"71","kp_id":"728548","imdb_id":"tt2614684","world_art_id":null,"type":"movie","add":"2016-09-08 14:49:07","orig_title":"'71","year":"2014-02-07","translations":["Любительский (одноголосый закадровый)","Любительский (двухголосый закадровый)","[EN] Original (English)"],"quality":"bd","translation":"Любительский (одноголосый закадровый)","update":"2021-06-22 08:57:52","iframe_src":"//8965.svetacdn.in/si4jsFRrtgrT/movie/5146"}],"current_page":491,"first_page_url":"https://videocdn.tv/api/short?limit=100&api_token=X6EwAUfE5M9xbo7y0Bp0aPf3uXxG2KLL&cache3491=3491&page=1","from":49001,"last_page":709,"last_page_url":"https://videocdn.tv/api/short?limit=100&api_token=X6EwAUfE5M9xbo7y0Bp0aPf3uXxG2KLL&cache3491=3491&page=709","next_page_url":"https://videocdn.tv/api/short?limit=100&api_token=X6EwAUfE5M9xbo7y0Bp0aPf3uXxG2KLL&cache3491=3491&page=492","path":"https://videocdn.tv/api/short","per_page":100,"prev_page_url":"https://videocdn.tv/api/short?limit=100&api_token=X6EwAUfE5M9xbo7y0Bp0aPf3uXxG2KLL&cache3491=3491&page=490","to":49040,"total":70840}