{"result":true,"data":[{"id":47210,"title":"Две версии одного столкновения","kp_id":"44350","imdb_id":"tt0262387","world_art_id":null,"type":"movie","add":"2021-01-18 18:01:48","orig_title":"Dve versii odnogo stolknoveniya","year":"1985-07-22","translations":["Оригинальная дорожка"],"quality":"tv","translation":"Оригинальная дорожка","update":"2021-01-20 12:22:39","iframe_src":"//8543.svetacdn.in/71tsRs29n5tZ/movie/47210"},{"id":47209,"title":"Миражи любви","kp_id":"46646","imdb_id":"tt0174026","world_art_id":null,"type":"movie","add":"2021-01-18 17:59:05","orig_title":"Mirazhi lyubvi","year":"1987-07-18","translations":["Оригинальная дорожка"],"quality":"webdl","translation":"Оригинальная дорожка","update":"2021-01-20 12:21:32","iframe_src":"//8543.svetacdn.in/71tsRs29n5tZ/movie/47209"},{"id":47208,"title":"Степные раскаты","kp_id":"1115408","imdb_id":null,"world_art_id":null,"type":"movie","add":"2021-01-18 17:56:02","orig_title":"Степные раскаты","year":"1975-01-01","translations":["Оригинальная дорожка"],"quality":"webdl","translation":"Оригинальная дорожка","update":"2021-01-20 12:20:16","iframe_src":"//8543.svetacdn.in/71tsRs29n5tZ/movie/47208"},{"id":47207,"title":"Нежданный гость","kp_id":"25086","imdb_id":"tt0068998","world_art_id":null,"type":"movie","add":"2021-01-18 16:26:34","orig_title":"Nezhdannyy gost","year":"1972-07-14","translations":["Оригинальная дорожка"],"quality":"sat","translation":"Оригинальная дорожка","update":"2021-01-20 12:19:08","iframe_src":"//8543.svetacdn.in/71tsRs29n5tZ/movie/47207"},{"id":47205,"title":"Любовью за любовь","kp_id":"45162","imdb_id":"tt0253223","world_art_id":null,"type":"movie","add":"2021-01-18 16:18:57","orig_title":"Lyubovyu za lyubov","year":"1983-07-11","translations":["Оригинальная дорожка"],"quality":"tv","translation":"Оригинальная дорожка","update":"2021-01-20 12:17:51","iframe_src":"//8543.svetacdn.in/71tsRs29n5tZ/movie/47205"},{"id":47204,"title":"Лишний билет","kp_id":"45107","imdb_id":"tt0253218","world_art_id":null,"type":"movie","add":"2021-01-18 16:15:24","orig_title":"Lishniy bilet","year":"1983-01-01","translations":["Оригинальная дорожка"],"quality":"tv","translation":"Оригинальная дорожка","update":"2021-01-20 12:16:54","iframe_src":"//8543.svetacdn.in/71tsRs29n5tZ/movie/47204"},{"id":47203,"title":"И с вами снова я...","kp_id":"331730","imdb_id":"tt0082542","world_art_id":null,"type":"movie","add":"2021-01-18 16:11:09","orig_title":"I s vami snova ya...","year":"1981-01-01","translations":["Оригинальная дорожка"],"quality":"sat","translation":"Оригинальная дорожка","update":"2021-01-20 12:15:46","iframe_src":"//8543.svetacdn.in/71tsRs29n5tZ/movie/47203"},{"id":47168,"title":"Вера, надежда, любовь","kp_id":"45718","imdb_id":"tt0171884","world_art_id":null,"type":"movie","add":"2021-01-16 22:50:27","orig_title":"Vera, nadezhda, lyubov","year":"1984-09-01","translations":["Оригинальная дорожка"],"quality":"dvdrip","translation":"Оригинальная дорожка","update":"2021-01-20 12:15:00","iframe_src":"//8543.svetacdn.in/71tsRs29n5tZ/movie/47168"},{"id":47167,"title":"Исход","kp_id":"42626","imdb_id":"tt0347261","world_art_id":null,"type":"movie","add":"2021-01-16 22:47:47","orig_title":"Iskhod","year":"1968-02-19","translations":["Оригинальная дорожка"],"quality":"sat","translation":"Оригинальная дорожка","update":"2021-01-20 12:13:45","iframe_src":"//8543.svetacdn.in/71tsRs29n5tZ/movie/47167"},{"id":47164,"title":"Кочующий фронт","kp_id":"224168","imdb_id":"tt0378212","world_art_id":null,"type":"movie","add":"2021-01-16 22:40:56","orig_title":"Kochuyushchiy front","year":"1971-03-13","translations":["Оригинальная дорожка"],"quality":"sat","translation":"Оригинальная дорожка","update":"2021-01-20 12:12:58","iframe_src":"//8543.svetacdn.in/71tsRs29n5tZ/movie/47164"},{"id":47163,"title":"Однажды в декабре","kp_id":"331743","imdb_id":"tt0307260","world_art_id":null,"type":"movie","add":"2021-01-16 22:39:02","orig_title":"Odnazhdy v dekabre","year":"1988-01-01","translations":["Оригинальная дорожка"],"quality":"sat","translation":"Оригинальная дорожка","update":"2021-01-20 12:12:18","iframe_src":"//8543.svetacdn.in/71tsRs29n5tZ/movie/47163"},{"id":47162,"title":"Орэра, полный вперед!","kp_id":"369864","imdb_id":"tt0277936","world_art_id":null,"type":"movie","add":"2021-01-16 22:37:05","orig_title":"Orera, sruli svlit","year":"1970-01-01","translations":["Оригинальная дорожка"],"quality":"webdl","translation":"Оригинальная дорожка","update":"2021-01-20 12:11:05","iframe_src":"//8543.svetacdn.in/71tsRs29n5tZ/movie/47162"},{"id":47160,"title":"Цепная реакция","kp_id":"42345","imdb_id":"tt0192698","world_art_id":null,"type":"movie","add":"2021-01-16 22:31:49","orig_title":"Tsepnaya reaktsiya","year":"1963-06-28","translations":["Оригинальная дорожка"],"quality":"sat","translation":"Оригинальная дорожка","update":"2021-01-20 12:09:42","iframe_src":"//8543.svetacdn.in/71tsRs29n5tZ/movie/47160"},{"id":47159,"title":"Я — граница","kp_id":"962119","imdb_id":"tt5353342","world_art_id":null,"type":"movie","add":"2021-01-16 22:28:47","orig_title":"Ya: granitsa","year":"1973-01-01","translations":["Оригинальная дорожка"],"quality":"sat","translation":"Оригинальная дорожка","update":"2021-01-20 12:08:47","iframe_src":"//8543.svetacdn.in/71tsRs29n5tZ/movie/47159"},{"id":45884,"title":"Дрожь","kp_id":"37691","imdb_id":"tt0084777","world_art_id":null,"type":"movie","add":"2020-12-07 10:55:39","orig_title":"Tenebre","year":"1982-10-27","translations":["Профессиональный (многоголосый закадровый)","Авторский (одноголосый закадровый) (Гаврилов Андрей)","Авторский (одноголосый закадровый) (Визгунов Сергей)","Original (English)"],"quality":"bd","translation":"Профессиональный (многоголосый закадровый)","update":"2021-01-20 12:07:06","iframe_src":"//8543.svetacdn.in/71tsRs29n5tZ/movie/45884"},{"id":45561,"title":"Отражающая кожа","kp_id":"5518","imdb_id":"tt0100469","world_art_id":null,"type":"movie","add":"2020-11-24 15:50:55","orig_title":"The Reflecting Skin","year":"1990-08-01","translations":["Авторский (одноголосый закадровый) (Алексеев Антон)","Авторский (одноголосый закадровый) (Гаврилов Андрей)","Авторский (одноголосый закадровый) (Сербин Юрий)","Original (English)"],"quality":"bd","translation":"Авторский (одноголосый закадровый) (Алексеев Антон)","update":"2021-01-20 08:38:43","iframe_src":"//8543.svetacdn.in/71tsRs29n5tZ/movie/45561"},{"id":43105,"title":"Притворись моим женихом","kp_id":"1096422","imdb_id":"tt7201558","world_art_id":null,"type":"movie","add":"2020-09-06 10:27:08","orig_title":"Narzeczony na niby","year":"2018-01-12","translations":["Любительский (многоголосый закадровый) (Синема УС)","Полное дублирование (IVI)"],"quality":"webdl","translation":"Любительский (многоголосый закадровый) (Синема УС)","update":"2021-01-20 11:32:24","iframe_src":"//8543.svetacdn.in/71tsRs29n5tZ/movie/43105"},{"id":8142,"title":"Виктор Лессар","kp_id":"1375445","imdb_id":"tt6848578","world_art_id":null,"type":"serial","add":"2020-07-12 02:22:18","orig_title":"Victor Lessard","year":"2017-03-14","translations":["Профессиональный (многоголосый закадровый)"],"seasons_count":1,"episodes_count":10,"episodes":10,"update":"2020-07-12 09:58:04","iframe_src":"//8543.svetacdn.in/71tsRs29n5tZ/tv-series/8142"},{"id":8141,"title":"Код величия","kp_id":null,"imdb_id":"tt12615492","world_art_id":null,"type":"serial","add":"2020-07-11 03:57:48","orig_title":"Greatness Code","year":"2020-07-10","translations":["Любительский (многоголосый закадровый) (Octopus)"],"seasons_count":1,"episodes_count":7,"episodes":7,"update":"2020-07-11 10:45:27","iframe_src":"//8543.svetacdn.in/71tsRs29n5tZ/tv-series/8141"},{"id":8131,"title":"Дыши: В тени","kp_id":"1388679","imdb_id":"tt12405230","world_art_id":null,"type":"serial","add":"2020-07-10 04:21:57","orig_title":"Breathe: Into the Shadows","year":"2020-07-10","translations":["Любительский (многоголосый закадровый) (Octopus)","Любительский (многоголосый закадровый) (ColdFilm)","Профессиональный (многоголосый закадровый) (BaibaKo)"],"seasons_count":1,"episodes_count":12,"episodes":12,"update":"2020-07-11 08:07:22","iframe_src":"//8543.svetacdn.in/71tsRs29n5tZ/tv-series/8131"},{"id":8130,"title":"Новогоднее дежурство","kp_id":"838191","imdb_id":null,"world_art_id":null,"type":"serial","add":"2020-07-09 20:42:27","orig_title":"Новогоднее дежурство","year":"2014-01-01","translations":["Оригинальная дорожка"],"seasons_count":1,"episodes_count":2,"episodes":2,"update":"2020-07-10 13:44:57","iframe_src":"//8543.svetacdn.in/71tsRs29n5tZ/tv-series/8130"},{"id":8123,"title":"Король Артур и рыцари без страха и упрека","kp_id":"471872","imdb_id":"tt0292411","world_art_id":null,"type":"serial","add":"2020-07-08 13:25:09","orig_title":"King Arthur and the Knights of Justice","year":"1992-09-13","translations":["Полное дублирование"],"seasons_count":2,"episodes_count":26,"episodes":13,"update":"2020-07-10 20:54:14","iframe_src":"//8543.svetacdn.in/71tsRs29n5tZ/tv-series/8123"},{"id":8122,"title":"Маруся","kp_id":"565767","imdb_id":"tt3307804","world_art_id":null,"type":"serial","add":"2020-07-08 13:06:34","orig_title":"Marusya","year":"2010-09-06","translations":["Оригинальная дорожка"],"seasons_count":1,"episodes_count":80,"episodes":80,"update":"2020-07-10 13:25:05","iframe_src":"//8543.svetacdn.in/71tsRs29n5tZ/tv-series/8122"},{"id":8121,"title":"Нимфы","kp_id":"843691","imdb_id":"tt2449262","world_art_id":null,"type":"serial","add":"2020-07-08 13:03:22","orig_title":"Nymfit","year":"2013-11-03","translations":["Полное дублирование (Русский дубляж)"],"seasons_count":1,"episodes_count":12,"episodes":12,"update":"2020-07-09 21:18:29","iframe_src":"//8543.svetacdn.in/71tsRs29n5tZ/tv-series/8121"},{"id":8115,"title":"Он и она","kp_id":"471269","imdb_id":"tt1493923","world_art_id":null,"type":"serial","add":"2020-07-07 21:26:56","orig_title":"Him & Her","year":"2010-09-06","translations":["Любительский (многоголосый закадровый) (Creative Sound)"],"seasons_count":3,"episodes_count":20,"episodes":7,"update":"2020-07-10 13:34:39","iframe_src":"//8543.svetacdn.in/71tsRs29n5tZ/tv-series/8115"},{"id":8114,"title":"Попавшая в западню","kp_id":"1215671","imdb_id":"tt9289504","world_art_id":null,"type":"serial","add":"2020-07-07 20:40:46","orig_title":"Prise au piège","year":"2019-12-04","translations":["Любительский (многоголосый закадровый) (Octopus)"],"seasons_count":1,"episodes_count":5,"episodes":5,"update":"2020-07-11 06:41:41","iframe_src":"//8543.svetacdn.in/71tsRs29n5tZ/tv-series/8114"},{"id":8112,"title":"Дочь садовника","kp_id":"414716","imdb_id":"tt0396325","world_art_id":null,"type":"serial","add":"2020-07-07 12:23:30","orig_title":"La hija del jardinero","year":"2003-08-18","translations":["Профессиональный (многоголосый закадровый)"],"seasons_count":1,"episodes_count":161,"episodes":161,"update":"2020-07-09 21:13:54","iframe_src":"//8543.svetacdn.in/71tsRs29n5tZ/tv-series/8112"},{"id":8108,"title":"Жестокий бизнес","kp_id":"447147","imdb_id":"tt12560148","world_art_id":null,"type":"serial","add":"2020-07-07 11:52:42","orig_title":"Zhestokiy biznes","year":"2010-03-29","translations":["Оригинальная дорожка"],"seasons_count":1,"episodes_count":12,"episodes":12,"update":"2020-07-09 12:19:27","iframe_src":"//8543.svetacdn.in/71tsRs29n5tZ/tv-series/8108"},{"id":8103,"title":"Дорожное шутошествие","kp_id":null,"imdb_id":"tt10350924","world_art_id":null,"type":"serial","add":"2020-07-06 21:13:39","orig_title":"Jestination Unknown","year":"2019-10-17","translations":["Любительский (многоголосый закадровый) (Octopus)"],"seasons_count":1,"episodes_count":6,"episodes":6,"update":"2020-07-11 06:43:58","iframe_src":"//8543.svetacdn.in/71tsRs29n5tZ/tv-series/8103"},{"id":8096,"title":"Поиск","kp_id":"1389231","imdb_id":"tt12364156","world_art_id":null,"type":"serial","add":"2020-07-06 06:01:05","orig_title":"Historia de un Crimen: La Busqueda","year":"2020-06-12","translations":["Любительский (многоголосый закадровый) (Octopus)"],"seasons_count":1,"episodes_count":6,"episodes":6,"update":"2020-07-11 18:28:56","iframe_src":"//8543.svetacdn.in/71tsRs29n5tZ/tv-series/8096"},{"id":8084,"title":"Клуб нянь","kp_id":"1245488","imdb_id":"tt8690518","world_art_id":null,"type":"serial","add":"2020-07-04 04:02:21","orig_title":"The Baby-Sitters Club","year":"2020-07-03","translations":["Профессиональный (многоголосый закадровый) (HDrezka Studio)"],"seasons_count":1,"episodes_count":10,"episodes":10,"update":"2020-07-11 08:31:58","iframe_src":"//8543.svetacdn.in/71tsRs29n5tZ/tv-series/8084"},{"id":7898,"title":"Осьминоги","kp_id":"386653","imdb_id":"tt0457146","world_art_id":null,"type":"serial","add":"2020-06-15 18:04:32","orig_title":"Squidbillies","year":"2005-10-16","translations":["Профессиональный (многоголосый закадровый)"],"seasons_count":3,"episodes_count":24,"episodes":4,"update":"2020-07-09 19:08:49","iframe_src":"//8543.svetacdn.in/71tsRs29n5tZ/tv-series/7898"},{"id":7682,"title":"Операция «Буффало»","kp_id":"1354700","imdb_id":"tt11853364","world_art_id":null,"type":"serial","add":"2020-05-31 20:11:23","orig_title":"Operation Buffalo","year":"2020-05-31","translations":["Любительский (многоголосый закадровый) (Octopus)","Любительский (многоголосый закадровый) (ColdFilm)","Профессиональный (многоголосый закадровый) (IdeaFilm)","Профессиональный (многоголосый закадровый) (HDrezka Studio)","Профессиональный (многоголосый закадровый) (NewStudio)","Профессиональный (двухголосый закадровый) (ViruseProject)","Любительский (многоголосый закадровый) (KerobTV)","Профессиональный (многоголосый закадровый) (BaibaKo)","Любительский (двухголосый закадровый) (KerobTV)"],"seasons_count":1,"episodes_count":6,"episodes":6,"update":"2020-07-11 08:23:50","iframe_src":"//8543.svetacdn.in/71tsRs29n5tZ/tv-series/7682"},{"id":7123,"title":"Под уличными фонарями","kp_id":"677996","imdb_id":"tt2140663","world_art_id":null,"type":"serial","add":"2020-04-07 15:29:52","orig_title":"When the Street Lights Go On","year":"2020-04-06","translations":["Любительский (многоголосый закадровый) (Octopus)","Профессиональный (многоголосый закадровый) (BaibaKo)"],"seasons_count":1,"episodes_count":10,"episodes":10,"update":"2020-07-10 06:21:29","iframe_src":"//8543.svetacdn.in/71tsRs29n5tZ/tv-series/7123"},{"id":7098,"title":"Король тигров: Убийство, хаос и безумие","kp_id":"1363058","imdb_id":"tt11823076","world_art_id":null,"type":"serial","add":"2020-04-06 06:05:28","orig_title":"Tiger King: Murder, Mayhem and Madness","year":"2020-03-20","translations":["Любительский (многоголосый закадровый) (Octopus)","Профессиональный (многоголосый закадровый) (HDrezka Studio)","Профессиональный (многоголосый закадровый) (VSI Moscow)"],"seasons_count":1,"episodes_count":8,"episodes":8,"update":"2020-07-10 08:55:40","iframe_src":"//8543.svetacdn.in/71tsRs29n5tZ/tv-series/7098"},{"id":5875,"title":"Отдай мою мечту","kp_id":"1228579","imdb_id":null,"world_art_id":null,"type":"serial","add":"2019-11-28 06:19:47","orig_title":"Отдай мою мечту","year":"2018-10-22","translations":["Оригинальная дорожка"],"seasons_count":1,"episodes_count":16,"episodes":16,"update":"2020-07-11 10:57:44","iframe_src":"//8543.svetacdn.in/71tsRs29n5tZ/tv-series/5875"},{"id":21168,"title":"Старый добрый День Благодарения","kp_id":"409396","imdb_id":"tt1217590","world_art_id":null,"type":"movie","add":"2019-01-02 20:14:54","orig_title":"An Old Fashioned Thanksgiving","year":"2008-10-01","translations":["Original (English)","Любительский (одноголосый закадровый) (renege79)"],"quality":"webdl","translation":"Original (English)","update":"2021-01-20 11:33:22","iframe_src":"//8543.svetacdn.in/71tsRs29n5tZ/movie/21168"},{"id":1395,"title":"Спасение","kp_id":"1041731","imdb_id":"tt6170874","world_art_id":null,"type":"serial","add":"2017-07-13 17:17:14","orig_title":"Salvation","year":"2017-06-12","translations":["Профессиональный (многоголосый закадровый) (IdeaFilm)","Профессиональный (многоголосый закадровый) (Пифагор)"],"seasons_count":2,"episodes_count":26,"episodes":13,"update":"2020-07-10 12:33:51","iframe_src":"//8543.svetacdn.in/71tsRs29n5tZ/tv-series/1395"},{"id":8945,"title":"Легенда о сэре Гавейне и зеленом рыцаре","kp_id":"5615","imdb_id":"tt0084750","world_art_id":null,"type":"movie","add":"2017-01-16 07:07:11","orig_title":"Sword of the Valiant: The Legend of Sir Gawain and the Green Knight","year":"1984-06-09","translations":["Профессиональный (многоголосый закадровый)","Профессиональный (многоголосый закадровый) (Paramount Channel)","Original (English)","Профессиональный (многоголосый закадровый) (ТВ3)"],"quality":"dvdrip","translation":"Профессиональный (многоголосый закадровый)","update":"2021-01-20 08:43:24","iframe_src":"//8543.svetacdn.in/71tsRs29n5tZ/movie/8945"},{"id":5792,"title":"Дух мщения","kp_id":"16939","imdb_id":"tt0092240","world_art_id":null,"type":"movie","add":"2016-10-04 05:43:44","orig_title":"The Wraith","year":"1986-11-21","translations":["Профессиональный (двухголосый закадровый)","Профессиональный (многоголосый закадровый) (CP Digital)","Авторский (одноголосый закадровый) (Немахов Юрий)","Original (English)","Профессиональный (двухголосый закадровый) (ТВ3)"],"quality":"bd","translation":"Профессиональный (двухголосый закадровый)","update":"2021-01-20 08:41:33","iframe_src":"//8543.svetacdn.in/71tsRs29n5tZ/movie/5792"}],"current_page":154,"first_page_url":"https://videocdn.tv/api/short?limit=100&api_token=EnbO9h8pv1VyjbCJhg0WM9nG259n7mtz&cache3154=3154&page=1","from":15301,"last_page":606,"last_page_url":"https://videocdn.tv/api/short?limit=100&api_token=EnbO9h8pv1VyjbCJhg0WM9nG259n7mtz&cache3154=3154&page=606","next_page_url":"https://videocdn.tv/api/short?limit=100&api_token=EnbO9h8pv1VyjbCJhg0WM9nG259n7mtz&cache3154=3154&page=155","path":"https://videocdn.tv/api/short","per_page":100,"prev_page_url":"https://videocdn.tv/api/short?limit=100&api_token=EnbO9h8pv1VyjbCJhg0WM9nG259n7mtz&cache3154=3154&page=153","to":15340,"total":60501}