{"result":true,"data":[{"id":11668,"title":"Субботний воин","kp_id":"916836","imdb_id":"tt4699130","world_art_id":null,"type":"movie","add":"2017-05-25 23:20:11","orig_title":"Saturday's Warrior","year":"2017-04-01","translations":["Любительский (многоголосый закадровый) (Синема УС)"],"quality":"bd","translation":"Любительский (многоголосый закадровый) (Синема УС)","update":"2017-05-29 04:51:03","iframe_src":"//7720.svetacdn.in/IAF0wWTdNYZm/movie/11668"},{"id":11665,"title":"Мото 8: Фильм","kp_id":null,"imdb_id":"tt6231792","world_art_id":null,"type":"movie","add":"2017-05-25 23:14:40","orig_title":"Moto 8: The Movie","year":"2016-11-08","translations":["Любительский (многоголосый закадровый) (@MUZOBOZ@)"],"quality":"bd","translation":"Любительский (многоголосый закадровый) (@MUZOBOZ@)","update":"2017-05-29 05:00:07","iframe_src":"//7720.svetacdn.in/IAF0wWTdNYZm/movie/11665"},{"id":11664,"title":"Дочь Бреста","kp_id":"952500","imdb_id":"tt5247544","world_art_id":null,"type":"movie","add":"2017-05-25 23:12:49","orig_title":"La fille de Brest","year":"2016-09-12","translations":["Любительский (многоголосый закадровый) (Синема УС)"],"quality":"bd","translation":"Любительский (многоголосый закадровый) (Синема УС)","update":"2017-05-29 05:12:06","iframe_src":"//7720.svetacdn.in/IAF0wWTdNYZm/movie/11664"},{"id":11635,"title":"Клиника любви","kp_id":"897917","imdb_id":"tt4946602","world_art_id":null,"type":"movie","add":"2017-05-22 04:58:43","orig_title":"Yeonaeui mat","year":"2015-05-07","translations":["Любительский (двухголосый закадровый) (GREEN TEA)"],"quality":"dvdrip","translation":"Любительский (двухголосый закадровый) (GREEN TEA)","update":"2017-05-22 10:41:36","iframe_src":"//7720.svetacdn.in/IAF0wWTdNYZm/movie/11635"},{"id":11634,"title":"Диван Сталина","kp_id":"954997","imdb_id":"tt5287852","world_art_id":null,"type":"movie","add":"2017-05-22 04:56:41","orig_title":"Le divan de Staline","year":"2016-11-13","translations":["Любительский (многоголосый закадровый) (@MUZOBOZ@)"],"quality":"webdl","translation":"Любительский (многоголосый закадровый) (@MUZOBOZ@)","update":"2017-05-22 10:40:16","iframe_src":"//7720.svetacdn.in/IAF0wWTdNYZm/movie/11634"},{"id":11633,"title":"Пропавшая девушка","kp_id":"809306","imdb_id":"tt3355064","world_art_id":null,"type":"movie","add":"2017-05-22 04:52:35","orig_title":"La disparue du Pyla","year":"2014-01-04","translations":["Профессиональный (многоголосый закадровый)"],"quality":"hdtv","translation":"Профессиональный (многоголосый закадровый)","update":"2017-05-22 10:38:40","iframe_src":"//7720.svetacdn.in/IAF0wWTdNYZm/movie/11633"},{"id":11632,"title":"Король Артур и рыцари круглого стола","kp_id":null,"imdb_id":"tt6735670","world_art_id":null,"type":"movie","add":"2017-05-22 04:50:31","orig_title":"King Arthur and the Knights of the Round Table","year":"2017-04-24","translations":["Любительский (многоголосый закадровый) (Синема УС)"],"quality":"bd","translation":"Любительский (многоголосый закадровый) (Синема УС)","update":"2017-05-22 10:37:14","iframe_src":"//7720.svetacdn.in/IAF0wWTdNYZm/movie/11632"},{"id":11629,"title":"Столица похищений","kp_id":"854272","imdb_id":"tt3876382","world_art_id":null,"type":"movie","add":"2017-05-22 04:41:10","orig_title":"Kidnap Capital","year":"2015-06-17","translations":["Любительский (одноголосый закадровый) (Хихикающий доктор)","Любительский (многоголосый закадровый) (Синема УС)"],"quality":"webdl","translation":"Любительский (одноголосый закадровый) (Хихикающий доктор)","update":"2017-05-22 10:33:10","iframe_src":"//7720.svetacdn.in/IAF0wWTdNYZm/movie/11629"},{"id":11626,"title":"Рубаха-парень и весельчак","kp_id":"800707","imdb_id":"tt3212910","world_art_id":null,"type":"movie","add":"2017-05-22 04:26:29","orig_title":"Folk Hero & Funny Guy","year":"2016-04-16","translations":["Любительский (многоголосый закадровый) (Синема УС)"],"quality":"webdl","translation":"Любительский (многоголосый закадровый) (Синема УС)","update":"2017-05-22 06:24:11","iframe_src":"//7720.svetacdn.in/IAF0wWTdNYZm/movie/11626"},{"id":11625,"title":"Ледяная зона","kp_id":"1041126","imdb_id":"tt6516590","world_art_id":null,"type":"movie","add":"2017-05-21 20:31:44","orig_title":"Cold Zone","year":"2017-05-16","translations":["Любительский (многоголосый закадровый) (Синема УС)"],"quality":"webdl","translation":"Любительский (многоголосый закадровый) (Синема УС)","update":"2017-05-22 05:43:52","iframe_src":"//7720.svetacdn.in/IAF0wWTdNYZm/movie/11625"},{"id":11623,"title":"Барселона: нерасказанная любовь","kp_id":"982849","imdb_id":"tt5755912","world_art_id":null,"type":"movie","add":"2017-05-21 20:24:32","orig_title":"Barcelona: A Love Untold","year":"2016-09-14","translations":["Любительский (одноголосый закадровый)"],"quality":"webdl","translation":"Любительский (одноголосый закадровый)","update":"2017-05-22 06:14:29","iframe_src":"//7720.svetacdn.in/IAF0wWTdNYZm/movie/11623"},{"id":11621,"title":"Другая ты","kp_id":"764673","imdb_id":"tt2926924","world_art_id":null,"type":"movie","add":"2017-05-21 20:19:27","orig_title":"Another You","year":"2017-05-15","translations":["Любительский (многоголосый закадровый) (Синема УС)"],"quality":"webdl","translation":"Любительский (многоголосый закадровый) (Синема УС)","update":"2017-05-22 06:23:05","iframe_src":"//7720.svetacdn.in/IAF0wWTdNYZm/movie/11621"},{"id":11620,"title":"Американский рестлер: Волшебник","kp_id":"868246","imdb_id":"tt4303202","world_art_id":null,"type":"movie","add":"2017-05-21 20:17:30","orig_title":"American Wrestler: The Wizard","year":"2016-04-23","translations":["Любительский (многоголосый закадровый) (Синема УС)"],"quality":"webdl","translation":"Любительский (многоголосый закадровый) (Синема УС)","update":"2017-05-22 06:26:05","iframe_src":"//7720.svetacdn.in/IAF0wWTdNYZm/movie/11620"},{"id":11619,"title":"Двенадцатифунтовые шары","kp_id":"971090","imdb_id":"tt5544754","world_art_id":null,"type":"movie","add":"2017-05-21 20:11:18","orig_title":"12 Pound Balls","year":"2017-05-16","translations":["Любительский (многоголосый закадровый) (Синема УС)"],"quality":"webdl","translation":"Любительский (многоголосый закадровый) (Синема УС)","update":"2017-05-22 06:30:57","iframe_src":"//7720.svetacdn.in/IAF0wWTdNYZm/movie/11619"},{"id":11584,"title":"Смертельное пробуждение","kp_id":"922019","imdb_id":"tt3778010","world_art_id":null,"type":"movie","add":"2017-05-16 22:42:24","orig_title":"Dead Awake","year":"2016-10-08","translations":["Любительский (одноголосый закадровый) (Хихикающий доктор)","Любительский (многоголосый закадровый) (@MUZOBOZ@)"],"quality":"webdl","translation":"Любительский (одноголосый закадровый) (Хихикающий доктор)","update":"2017-05-22 05:41:13","iframe_src":"//7720.svetacdn.in/IAF0wWTdNYZm/movie/11584"},{"id":11393,"title":"Комик","kp_id":"596212","imdb_id":"tt1967614","world_art_id":null,"type":"movie","add":"2017-05-04 23:05:39","orig_title":"The Comedian","year":"2016-11-11","translations":["Любительский (многоголосый закадровый) (@MUZOBOZ@)","Профессиональный (многоголосый закадровый) (GreenРай Studio)"],"quality":"webdl","translation":"Любительский (многоголосый закадровый) (@MUZOBOZ@)","update":"2017-05-22 05:42:45","iframe_src":"//7720.svetacdn.in/IAF0wWTdNYZm/movie/11393"},{"id":11315,"title":"Идеаль","kp_id":"921969","imdb_id":"tt4840554","world_art_id":null,"type":"movie","add":"2017-05-01 22:07:22","orig_title":"L'idéal","year":"2016-06-15","translations":["Полное дублирование"],"quality":"webdl","translation":"Полное дублирование","update":"2017-05-22 06:16:55","iframe_src":"//7720.svetacdn.in/IAF0wWTdNYZm/movie/11315"},{"id":11235,"title":"Если б я была мужчиной","kp_id":"976041","imdb_id":"tt5598172","world_art_id":null,"type":"movie","add":"2017-04-26 13:11:24","orig_title":"Si j'étais un homme","year":"2017-01-20","translations":["Профессиональный (многоголосый закадровый)"],"quality":"webdl","translation":"Профессиональный (многоголосый закадровый)","update":"2017-05-22 05:39:33","iframe_src":"//7720.svetacdn.in/IAF0wWTdNYZm/movie/11235"},{"id":10244,"title":"Убийство в Бургундии","kp_id":"921180","imdb_id":"tt4833040","world_art_id":null,"type":"movie","add":"2017-03-06 22:24:14","orig_title":"Meurtres en Bourgogne","year":"2015-12-18","translations":["Профессиональный (многоголосый закадровый)"],"quality":"hdtv","translation":"Профессиональный (многоголосый закадровый)","update":"2017-05-29 04:44:24","iframe_src":"//7720.svetacdn.in/IAF0wWTdNYZm/movie/10244"},{"id":7641,"title":"Олива","kp_id":"910617","imdb_id":"tt3655972","world_art_id":null,"type":"movie","add":"2016-11-27 08:48:32","orig_title":"El olivo","year":"2016-03-06","translations":["Любительский (одноголосый закадровый)","Любительский (многоголосый закадровый) (@MUZOBOZ@)"],"quality":"dvdrip","translation":"Любительский (одноголосый закадровый)","update":"2017-05-29 05:17:04","iframe_src":"//7720.svetacdn.in/IAF0wWTdNYZm/movie/7641"}],"current_page":2186,"first_page_url":"https://videocdn.tv/api/short?limit=100&api_token=6Onb1W1alEUrBcKJZD3GoKBbWyAl2uG2&cache32186=32186&page=1","from":218501,"last_page":649,"last_page_url":"https://videocdn.tv/api/short?limit=100&api_token=6Onb1W1alEUrBcKJZD3GoKBbWyAl2uG2&cache32186=32186&page=649","next_page_url":null,"path":"https://videocdn.tv/api/short","per_page":100,"prev_page_url":"https://videocdn.tv/api/short?limit=100&api_token=6Onb1W1alEUrBcKJZD3GoKBbWyAl2uG2&cache32186=32186&page=2185","to":218520,"total":64878}