{"result":true,"data":[{"id":42272,"title":"Тихуана Джексон: цель выше тюрьмы","kp_id":null,"imdb_id":"tt6788904","world_art_id":null,"type":"movie","add":"2020-08-03 20:51:13","orig_title":"Tijuana Jackson: Purpose Over Prison","year":"2020-07-24","translations":["Любительский (многоголосый закадровый) (Синема УС)"],"quality":"webdl","translation":"Любительский (многоголосый закадровый) (Синема УС)","update":"2020-08-04 10:32:03","iframe_src":"//8965.svetacdn.in/71tsRs29n5tZ/movie/42272"},{"id":42263,"title":"Дурдаршан","kp_id":"1319210","imdb_id":"tt11231440","world_art_id":null,"type":"movie","add":"2020-08-03 20:39:33","orig_title":"Doordarshan","year":"2020-02-28","translations":["Любительский (многоголосый закадровый) (Синема УС)"],"quality":"webdl","translation":"Любительский (многоголосый закадровый) (Синема УС)","update":"2020-08-04 10:33:42","iframe_src":"//8965.svetacdn.in/71tsRs29n5tZ/movie/42263"},{"id":42225,"title":"Убийца полицейских","kp_id":"9728","imdb_id":null,"world_art_id":null,"type":"movie","add":"2020-08-03 16:43:40","orig_title":"l'assassino dei poliziotti","year":"1983-03-15","translations":["Профессиональный (двухголосый закадровый)"],"quality":"hdrip","translation":"Профессиональный (двухголосый закадровый)","update":"2020-08-04 10:25:58","iframe_src":"//8965.svetacdn.in/71tsRs29n5tZ/movie/42225"},{"id":42224,"title":"Супермен из Гонконга","kp_id":"223393","imdb_id":"tt0164465","world_art_id":null,"type":"movie","add":"2020-08-03 16:41:41","orig_title":"Xiang Gang chao ren","year":"1975-06-26","translations":["Авторский (одноголосый закадровый) (Кашкин Александр | Первомайский)"],"quality":"vhs","translation":"Авторский (одноголосый закадровый) (Кашкин Александр | Первомайский)","update":"2020-08-04 10:26:17","iframe_src":"//8965.svetacdn.in/71tsRs29n5tZ/movie/42224"},{"id":42223,"title":"Степфордские жены","kp_id":"1780","imdb_id":"tt0073747","world_art_id":null,"type":"movie","add":"2020-08-03 16:39:59","orig_title":"The Stepford Wives","year":"1975-02-12","translations":["Профессиональный (двухголосый закадровый) (НТВ)"],"quality":"dvdrip","translation":"Профессиональный (двухголосый закадровый) (НТВ)","update":"2020-08-04 10:27:11","iframe_src":"//8965.svetacdn.in/71tsRs29n5tZ/movie/42223"},{"id":42222,"title":"Возвращение титанов","kp_id":"535411","imdb_id":"tt1680138","world_art_id":null,"type":"movie","add":"2020-08-03 16:38:24","orig_title":"Mega Python vs. Gatoroid","year":"2011-01-29","translations":["Профессиональный (двухголосый закадровый) (SDI Media | Iyuno-SDI Group Russia)"],"quality":"hdrip","translation":"Профессиональный (двухголосый закадровый) (SDI Media | Iyuno-SDI Group Russia)","update":"2020-08-04 10:27:50","iframe_src":"//8965.svetacdn.in/71tsRs29n5tZ/movie/42222"},{"id":42221,"title":"Ледяная планета","kp_id":"49984","imdb_id":"tt0269356","world_art_id":null,"type":"movie","add":"2020-08-03 16:35:48","orig_title":"Ice Planet","year":"2001-01-01","translations":["Любительский (одноголосый закадровый)"],"quality":"dvdrip","translation":"Любительский (одноголосый закадровый)","update":"2020-08-04 10:28:17","iframe_src":"//8965.svetacdn.in/71tsRs29n5tZ/movie/42221"},{"id":42220,"title":"Влюбленный Тома","kp_id":"64089","imdb_id":"tt0262826","world_art_id":null,"type":"movie","add":"2020-08-03 16:31:09","orig_title":"Thomas est amoureux","year":"2000-09-03","translations":["Профессиональный (многоголосый закадровый)"],"quality":"dvdrip","translation":"Профессиональный (многоголосый закадровый)","update":"2020-08-04 11:27:53","iframe_src":"//8965.svetacdn.in/71tsRs29n5tZ/movie/42220"},{"id":42128,"title":"Жили-были дед и баба","kp_id":"260125","imdb_id":"tt4510208","world_art_id":null,"type":"movie","add":"2020-07-29 21:23:31","orig_title":"Zhili-byli ded i baba","year":"1988-01-01","translations":["Оригинальная дорожка"],"quality":"webdl","translation":"Оригинальная дорожка","update":"2020-08-04 11:31:09","iframe_src":"//8965.svetacdn.in/71tsRs29n5tZ/movie/42128"},{"id":42127,"title":"Жил у бабушки Козел","kp_id":"45353","imdb_id":"tt0189231","world_art_id":null,"type":"movie","add":"2020-07-29 21:17:44","orig_title":"Zhil u babushki Kozyol","year":"1983-01-01","translations":["Оригинальная дорожка"],"quality":"dvdrip","translation":"Оригинальная дорожка","update":"2020-08-04 11:29:11","iframe_src":"//8965.svetacdn.in/71tsRs29n5tZ/movie/42127"},{"id":42126,"title":"Дети, солнышко и снег","kp_id":"1245317","imdb_id":null,"world_art_id":null,"type":"movie","add":"2020-07-29 21:13:27","orig_title":"Дети, солнышко и снег","year":"1981-01-01","translations":["Оригинальная дорожка"],"quality":"dvdrip","translation":"Оригинальная дорожка","update":"2020-08-04 11:27:25","iframe_src":"//8965.svetacdn.in/71tsRs29n5tZ/movie/42126"},{"id":42125,"title":"Вперед, время!","kp_id":"628576","imdb_id":"tt2109252","world_art_id":null,"type":"movie","add":"2020-07-29 21:05:27","orig_title":"Vpered, vremya!","year":"1977-01-01","translations":["Оригинальная дорожка"],"quality":"webdl","translation":"Оригинальная дорожка","update":"2020-08-04 11:24:40","iframe_src":"//8965.svetacdn.in/71tsRs29n5tZ/movie/42125"},{"id":42124,"title":"Будильник","kp_id":"461728","imdb_id":"tt5871756","world_art_id":null,"type":"movie","add":"2020-07-29 20:38:30","orig_title":"Budilnik","year":"1984-01-01","translations":["Оригинальная дорожка"],"quality":"dvdrip","translation":"Оригинальная дорожка","update":"2020-08-04 11:20:40","iframe_src":"//8965.svetacdn.in/71tsRs29n5tZ/movie/42124"},{"id":42121,"title":"Три банана","kp_id":"422951","imdb_id":"tt4883540","world_art_id":null,"type":"movie","add":"2020-07-29 20:29:20","orig_title":"Tri banana","year":"1971-01-01","translations":["Оригинальная дорожка"],"quality":"dvdrip","translation":"Оригинальная дорожка","update":"2020-08-04 07:39:21","iframe_src":"//8965.svetacdn.in/71tsRs29n5tZ/movie/42121"},{"id":42118,"title":"Толик и Тобик","kp_id":"628502","imdb_id":"tt12337694","world_art_id":null,"type":"movie","add":"2020-07-29 20:26:07","orig_title":"Tolik i Tobik","year":"1974-01-01","translations":["Оригинальная дорожка"],"quality":"dvdrip","translation":"Оригинальная дорожка","update":"2020-08-04 07:38:16","iframe_src":"//8965.svetacdn.in/71tsRs29n5tZ/movie/42118"},{"id":42115,"title":"Камни Хиросимы","kp_id":"123083","imdb_id":"tt0241535","world_art_id":null,"type":"movie","add":"2020-07-29 20:04:17","orig_title":"Sono yo wa wasurenai","year":"1962-09-30","translations":["Полное дублирование"],"quality":"dvdscr","translation":"Полное дублирование","update":"2020-08-04 07:37:17","iframe_src":"//8965.svetacdn.in/71tsRs29n5tZ/movie/42115"},{"id":32181,"title":"В гостях у лета","kp_id":"470390","imdb_id":"tt6371990","world_art_id":null,"type":"movie","add":"2019-10-20 19:47:49","orig_title":"V gostyakh u leta","year":"1972-01-01","translations":["Оригинальная дорожка","Оригинальная дорожка"],"quality":"dvdrip","translation":"Оригинальная дорожка","update":"2020-08-04 11:21:58","iframe_src":"//8965.svetacdn.in/71tsRs29n5tZ/movie/32181"},{"id":23830,"title":"Волшебное кольцо","kp_id":"45834","imdb_id":"tt0189195","world_art_id":null,"type":"movie","add":"2019-04-03 13:14:22","orig_title":"Volshebnoe koltso","year":"1979-01-01","translations":["Оригинальная дорожка","Оригинальная дорожка"],"quality":"dvdrip","translation":"Оригинальная дорожка","update":"2020-08-04 11:24:11","iframe_src":"//8965.svetacdn.in/71tsRs29n5tZ/movie/23830"},{"id":23325,"title":"Дед Мороз и лето","kp_id":"44110","imdb_id":"tt0218931","world_art_id":null,"type":"movie","add":"2019-03-21 08:47:14","orig_title":"Ded Moroz i leto","year":"1969-01-01","translations":["Оригинальная дорожка","Оригинальная дорожка"],"quality":"dvdrip","translation":"Оригинальная дорожка","update":"2020-08-04 11:25:32","iframe_src":"//8965.svetacdn.in/71tsRs29n5tZ/movie/23325"},{"id":14157,"title":"В некотором царстве…","kp_id":"260077","imdb_id":"tt1070879","world_art_id":null,"type":"movie","add":"2017-10-29 12:29:32","orig_title":"V nekotorom tsarstve","year":"1958-02-22","translations":["Оригинальная дорожка","Оригинальная дорожка"],"quality":"dvdrip","translation":"Оригинальная дорожка","update":"2020-08-04 11:22:55","iframe_src":"//8965.svetacdn.in/71tsRs29n5tZ/movie/14157"}],"current_page":1021,"first_page_url":"https://videocdn.tv/api/short?limit=100&api_token=EnbO9h8pv1VyjbCJhg0WM9nG259n7mtz&cache31021=31021&page=1","from":102001,"last_page":709,"last_page_url":"https://videocdn.tv/api/short?limit=100&api_token=EnbO9h8pv1VyjbCJhg0WM9nG259n7mtz&cache31021=31021&page=709","next_page_url":null,"path":"https://videocdn.tv/api/short","per_page":100,"prev_page_url":"https://videocdn.tv/api/short?limit=100&api_token=EnbO9h8pv1VyjbCJhg0WM9nG259n7mtz&cache31021=31021&page=1020","to":102020,"total":70840}