{"result":true,"data":[{"id":6446,"title":"Арена","kp_id":"512677","imdb_id":"tt1117581","world_art_id":null,"type":"movie","add":"2016-10-18 14:44:05","orig_title":"Arena","year":"2011-10-11","translations":["Профессиональный (многоголосый закадровый)"],"quality":"bd","translation":"Профессиональный (многоголосый закадровый)","update":"2016-10-19 15:10:09","iframe_src":"//8332.svetacdn.in/si4jsFRrtgrT/movie/6446"},{"id":6445,"title":"Волшебное Рождество","kp_id":"4400","imdb_id":"tt0089731","world_art_id":null,"type":"movie","add":"2016-10-18 14:42:09","orig_title":"One Magic Christmas","year":"1985-11-22","translations":["Любительский (одноголосый закадровый)"],"quality":"webdl","translation":"Любительский (одноголосый закадровый)","update":"2016-10-19 15:12:07","iframe_src":"//8332.svetacdn.in/si4jsFRrtgrT/movie/6445"},{"id":6442,"title":"Сумасшедшие герои","kp_id":"4318","imdb_id":"tt0114798","world_art_id":null,"type":"movie","add":"2016-10-18 14:24:07","orig_title":"Unstrung Heroes","year":"1995-09-09","translations":["Профессиональный (двухголосый закадровый)"],"quality":"bd","translation":"Профессиональный (двухголосый закадровый)","update":"2016-10-19 15:13:52","iframe_src":"//8332.svetacdn.in/si4jsFRrtgrT/movie/6442"},{"id":6441,"title":"Сорванец","kp_id":"582725","imdb_id":"tt1847731","world_art_id":null,"type":"movie","add":"2016-10-18 14:22:56","orig_title":"Tomboy","year":"2011-02-11","translations":["Профессиональный (двухголосый закадровый)"],"quality":"bd","translation":"Профессиональный (двухголосый закадровый)","update":"2016-10-19 15:16:26","iframe_src":"//8332.svetacdn.in/si4jsFRrtgrT/movie/6441"},{"id":6440,"title":"Тихая Земля","kp_id":"22679","imdb_id":"tt0089869","world_art_id":null,"type":"movie","add":"2016-10-18 14:21:54","orig_title":"The Quiet Earth","year":"1985-09-08","translations":["Профессиональный (двухголосый закадровый)"],"quality":"bd","translation":"Профессиональный (двухголосый закадровый)","update":"2016-10-19 15:18:12","iframe_src":"//8332.svetacdn.in/si4jsFRrtgrT/movie/6440"},{"id":6438,"title":"Моли о смерти","kp_id":"16871","imdb_id":"tt0089835","world_art_id":null,"type":"movie","add":"2016-10-18 14:13:15","orig_title":"Pray for Death","year":"1985-08-05","translations":["Профессиональный (двухголосый закадровый)"],"quality":"bd","translation":"Профессиональный (двухголосый закадровый)","update":"2016-10-19 15:21:35","iframe_src":"//8332.svetacdn.in/si4jsFRrtgrT/movie/6438"},{"id":6437,"title":"Феномен","kp_id":"13082","imdb_id":"tt0087909","world_art_id":null,"type":"movie","add":"2016-10-18 14:12:06","orig_title":"Phenomena","year":"1985-01-31","translations":["Профессиональный (двухголосый закадровый)"],"quality":"bd","translation":"Профессиональный (двухголосый закадровый)","update":"2016-10-19 15:23:41","iframe_src":"//8332.svetacdn.in/si4jsFRrtgrT/movie/6437"},{"id":6435,"title":"Отчаянно ищу Сьюзэн","kp_id":"4336","imdb_id":"tt0089017","world_art_id":null,"type":"movie","add":"2016-10-18 14:09:44","orig_title":"Desperately Seeking Susan","year":"1985-03-29","translations":["Профессиональный (двухголосый закадровый)"],"quality":"bd","translation":"Профессиональный (двухголосый закадровый)","update":"2016-10-19 15:27:38","iframe_src":"//8332.svetacdn.in/si4jsFRrtgrT/movie/6435"},{"id":6434,"title":"Создатель","kp_id":"1927","imdb_id":"tt0088960","world_art_id":null,"type":"movie","add":"2016-10-18 14:08:23","orig_title":"Creator","year":"1985-09-20","translations":["Профессиональный (двухголосый закадровый)"],"quality":"hdtv","translation":"Профессиональный (двухголосый закадровый)","update":"2016-10-19 15:28:55","iframe_src":"//8332.svetacdn.in/si4jsFRrtgrT/movie/6434"},{"id":6433,"title":"Сироп","kp_id":"586585","imdb_id":"tt0762138","world_art_id":null,"type":"movie","add":"2016-10-18 14:07:21","orig_title":"Syrup","year":"2013-05-01","translations":["Полное дублирование"],"quality":"bd","translation":"Полное дублирование","update":"2016-10-20 07:06:50","iframe_src":"//8332.svetacdn.in/si4jsFRrtgrT/movie/6433"},{"id":6432,"title":"Поезд-беглец","kp_id":"3965","imdb_id":"tt0089941","world_art_id":null,"type":"movie","add":"2016-10-18 14:05:42","orig_title":"Runaway Train","year":"1985-11-15","translations":["Полное дублирование"],"quality":"bd","translation":"Полное дублирование","update":"2016-10-20 07:04:33","iframe_src":"//8332.svetacdn.in/si4jsFRrtgrT/movie/6432"},{"id":6431,"title":"Флетч","kp_id":"2800","imdb_id":"tt0089155","world_art_id":null,"type":"movie","add":"2016-10-18 14:04:33","orig_title":"Fletch","year":"1985-05-31","translations":["Полное дублирование"],"quality":"bd","translation":"Полное дублирование","update":"2016-10-20 07:01:27","iframe_src":"//8332.svetacdn.in/si4jsFRrtgrT/movie/6431"},{"id":6430,"title":"После работы","kp_id":"9580","imdb_id":"tt0088680","world_art_id":null,"type":"movie","add":"2016-10-18 14:03:34","orig_title":"After Hours","year":"1985-09-11","translations":["Полное дублирование"],"quality":"webdl","translation":"Полное дублирование","update":"2016-10-20 06:59:44","iframe_src":"//8332.svetacdn.in/si4jsFRrtgrT/movie/6430"},{"id":6429,"title":"Кордебалет","kp_id":"18178","imdb_id":"tt0088915","world_art_id":null,"type":"movie","add":"2016-10-18 14:02:28","orig_title":"A Chorus Line","year":"1985-12-09","translations":["Полное дублирование"],"quality":"bd","translation":"Полное дублирование","update":"2016-10-20 06:56:46","iframe_src":"//8332.svetacdn.in/si4jsFRrtgrT/movie/6429"},{"id":6428,"title":"Предостережение","kp_id":"21113","imdb_id":"tt0090293","world_art_id":null,"type":"movie","add":"2016-10-18 14:01:13","orig_title":"Warning Sign","year":"1985-08-23","translations":["Авторский (одноголосый закадровый) (Гаврилов Андрей)"],"quality":"webdl","translation":"Авторский (одноголосый закадровый) (Гаврилов Андрей)","update":"2016-10-20 06:54:02","iframe_src":"//8332.svetacdn.in/si4jsFRrtgrT/movie/6428"},{"id":6427,"title":"Это мой парк","kp_id":"297385","imdb_id":"tt0091724","world_art_id":null,"type":"movie","add":"2016-10-18 13:58:42","orig_title":"The Park Is Mine","year":"1985-10-06","translations":["Авторский (одноголосый закадровый) (Либергал Григорий)"],"quality":"webdl","translation":"Авторский (одноголосый закадровый) (Либергал Григорий)","update":"2016-10-20 06:52:50","iframe_src":"//8332.svetacdn.in/si4jsFRrtgrT/movie/6427"},{"id":6426,"title":"Ночь демонов 2","kp_id":"24769","imdb_id":"tt0110667","world_art_id":null,"type":"movie","add":"2016-10-18 13:56:26","orig_title":"Night of the Demons 2","year":"1994-05-13","translations":["Авторский (одноголосый закадровый) (Визгунов Сергей)"],"quality":"bd","translation":"Авторский (одноголосый закадровый) (Визгунов Сергей)","update":"2016-10-20 06:49:36","iframe_src":"//8332.svetacdn.in/si4jsFRrtgrT/movie/6426"},{"id":5827,"title":"Мэри и Марта","kp_id":"693966","imdb_id":"tt2284766","world_art_id":null,"type":"movie","add":"2016-10-04 06:28:36","orig_title":"Mary and Martha","year":"2013-03-01","translations":["Профессиональный (двухголосый закадровый)"],"quality":"bd","translation":"Профессиональный (двухголосый закадровый)","update":"2016-10-20 07:17:48","iframe_src":"//8332.svetacdn.in/si4jsFRrtgrT/movie/5827"},{"id":5826,"title":"Гнездо дракона","kp_id":"784155","imdb_id":"tt2911342","world_art_id":null,"type":"movie","add":"2016-10-04 06:27:48","orig_title":"Dragon Nest: Warriors' Dawn","year":"2014-05-14","translations":["Полное дублирование"],"quality":"bd","translation":"Полное дублирование","update":"2016-10-20 07:16:09","iframe_src":"//8332.svetacdn.in/si4jsFRrtgrT/movie/5826"},{"id":5822,"title":"Танкистка","kp_id":"13703","imdb_id":"tt0114614","world_art_id":null,"type":"movie","add":"2016-10-04 06:25:21","orig_title":"Tank Girl","year":"1995-03-31","translations":["Профессиональный (многоголосый)"],"quality":"bd","translation":"Профессиональный (многоголосый)","update":"2016-10-20 07:11:30","iframe_src":"//8332.svetacdn.in/si4jsFRrtgrT/movie/5822"}],"current_page":2348,"first_page_url":"https://videocdn.tv/api/short?limit=100&api_token=X6EwAUfE5M9xbo7y0Bp0aPf3uXxG2KLL&cache32348=32348&page=1","from":234701,"last_page":640,"last_page_url":"https://videocdn.tv/api/short?limit=100&api_token=X6EwAUfE5M9xbo7y0Bp0aPf3uXxG2KLL&cache32348=32348&page=640","next_page_url":null,"path":"https://videocdn.tv/api/short","per_page":100,"prev_page_url":"https://videocdn.tv/api/short?limit=100&api_token=X6EwAUfE5M9xbo7y0Bp0aPf3uXxG2KLL&cache32348=32348&page=2347","to":234720,"total":63934}