{"result":true,"data":[{"id":45085,"title":"Жилет","kp_id":null,"imdb_id":"tt9419976","world_art_id":null,"type":"movie","add":"2020-11-07 14:26:27","orig_title":"Triggered","year":"2020-08-28","translations":["Любительский (многоголосый закадровый) (@MUZOBOZ@)","Original (English)"],"quality":"webdl","translation":"Любительский (многоголосый закадровый) (@MUZOBOZ@)","update":"2020-11-15 17:17:08","iframe_src":"//5322.svetacdn.in/IAF0wWTdNYZm/movie/45085"},{"id":44034,"title":"Мёртвый","kp_id":"1369824","imdb_id":"tt12145322","world_art_id":null,"type":"movie","add":"2020-10-01 15:05:10","orig_title":"Dead","year":"2020-08-07","translations":["Original (English)","Любительский (многоголосый закадровый) (@MUZOBOZ@)"],"quality":"webdl","translation":"Original (English)","update":"2020-11-16 14:38:55","iframe_src":"//5322.svetacdn.in/IAF0wWTdNYZm/movie/44034"},{"id":44001,"title":"Большие карие глаза","kp_id":"1022","imdb_id":"tt0027357","world_art_id":null,"type":"movie","add":"2020-09-30 15:32:07","orig_title":"Big Brown Eyes","year":"1936-04-03","translations":["Профессиональный (одноголосый закадровый)","Original (English)"],"quality":"bd","translation":"Профессиональный (одноголосый закадровый)","update":"2020-11-16 13:23:49","iframe_src":"//5322.svetacdn.in/IAF0wWTdNYZm/movie/44001"},{"id":43962,"title":"Сладкая судьба","kp_id":"568065","imdb_id":"tt1467088","world_art_id":null,"type":"movie","add":"2020-09-29 15:36:00","orig_title":"Sweet Karma","year":"2009-07-11","translations":["Любительский (одноголосый закадровый) (den904)","Original (English)"],"quality":"bd","translation":"Любительский (одноголосый закадровый) (den904)","update":"2020-11-16 13:27:09","iframe_src":"//5322.svetacdn.in/IAF0wWTdNYZm/movie/43962"},{"id":43953,"title":"Внутренний страх","kp_id":"22469","imdb_id":"tt0096246","world_art_id":null,"type":"movie","add":"2020-09-29 07:33:43","orig_title":"The Terror Within","year":"1989-01-20","translations":["Профессиональный (многоголосый закадровый) (Selena International)","Original (English)"],"quality":"bd","translation":"Профессиональный (многоголосый закадровый) (Selena International)","update":"2020-11-16 13:40:29","iframe_src":"//5322.svetacdn.in/IAF0wWTdNYZm/movie/43953"},{"id":43899,"title":"Дорога надежды","kp_id":"629607","imdb_id":"tt2069708","world_art_id":null,"type":"movie","add":"2020-09-27 20:27:49","orig_title":"Abel's Field","year":"2012-09-15","translations":["Профессиональный (многоголосый закадровый)","Original (English)"],"quality":"webdl","translation":"Профессиональный (многоголосый закадровый)","update":"2020-11-16 13:55:28","iframe_src":"//5322.svetacdn.in/IAF0wWTdNYZm/movie/43899"},{"id":43883,"title":"Красный каньон","kp_id":"3267","imdb_id":"tt0041787","world_art_id":null,"type":"movie","add":"2020-09-27 06:37:41","orig_title":"Red Canyon","year":"1949-04-01","translations":["Любительский (одноголосый закадровый) (Медведев Юрий)","Original (English)"],"quality":"bd","translation":"Любительский (одноголосый закадровый) (Медведев Юрий)","update":"2020-11-16 13:25:45","iframe_src":"//5322.svetacdn.in/IAF0wWTdNYZm/movie/43883"},{"id":43865,"title":"Женщина","kp_id":"565813","imdb_id":"tt1714208","world_art_id":null,"type":"movie","add":"2020-09-26 09:30:31","orig_title":"The Woman","year":"2011-01-23","translations":["Авторский (одноголосый закадровый) (Дольский Андрей)","Original (English)"],"quality":"bd","translation":"Авторский (одноголосый закадровый) (Дольский Андрей)","update":"2020-11-16 13:42:59","iframe_src":"//5322.svetacdn.in/IAF0wWTdNYZm/movie/43865"},{"id":43861,"title":"Дальнобойщица","kp_id":"394440","imdb_id":"tt1087527","world_art_id":null,"type":"movie","add":"2020-09-25 20:11:16","orig_title":"Trucker","year":"2008-04-24","translations":["Профессиональный (многоголосый закадровый)","Профессиональный (двухголосый закадровый) (Elrom)","Original (English)"],"quality":"bd","translation":"Профессиональный (многоголосый закадровый)","update":"2020-11-16 13:47:40","iframe_src":"//5322.svetacdn.in/IAF0wWTdNYZm/movie/43861"},{"id":43813,"title":"Бостонский душитель","kp_id":"7007","imdb_id":"tt0062755","world_art_id":null,"type":"movie","add":"2020-09-24 05:11:57","orig_title":"The Boston Strangler","year":"1968-10-01","translations":["Профессиональный (многоголосый закадровый) (20th Century Fox)","Профессиональный (многоголосый закадровый) (НТВ)","Original (English)"],"quality":"bd","translation":"Профессиональный (многоголосый закадровый) (20th Century Fox)","update":"2020-11-16 13:28:00","iframe_src":"//5322.svetacdn.in/IAF0wWTdNYZm/movie/43813"},{"id":43810,"title":"Легенда о Пяти","kp_id":"1200087","imdb_id":"tt9010360","world_art_id":null,"type":"movie","add":"2020-09-23 22:23:16","orig_title":"The Legend of the Five","year":"2020-06-25","translations":["Любительский (многоголосый закадровый) (@MUZOBOZ@)","Original (English)"],"quality":"webdl","translation":"Любительский (многоголосый закадровый) (@MUZOBOZ@)","update":"2020-11-16 10:00:13","iframe_src":"//5322.svetacdn.in/IAF0wWTdNYZm/movie/43810"},{"id":43762,"title":"Рост населения: Ноль","kp_id":"17525","imdb_id":"tt0069530","world_art_id":null,"type":"movie","add":"2020-09-22 14:28:01","orig_title":"Z.P.G.","year":"1972-05-25","translations":["Авторский (одноголосый закадровый) (Котов Вячеслав)","Original (English)"],"quality":"bd","translation":"Авторский (одноголосый закадровый) (Котов Вячеслав)","update":"2020-11-16 13:49:40","iframe_src":"//5322.svetacdn.in/IAF0wWTdNYZm/movie/43762"},{"id":43732,"title":"Восходящая Луна","kp_id":"4663","imdb_id":"tt0065032","world_art_id":null,"type":"movie","add":"2020-09-21 20:35:31","orig_title":"The Stalking Moon","year":"1968-12-21","translations":["Авторский (одноголосый закадровый) (Дьяконов Константин)","Original (English)"],"quality":"bd","translation":"Авторский (одноголосый закадровый) (Дьяконов Константин)","update":"2020-11-16 13:32:08","iframe_src":"//5322.svetacdn.in/IAF0wWTdNYZm/movie/43732"},{"id":43709,"title":"Дневник Анны Франк","kp_id":"16557","imdb_id":"tt0052738","world_art_id":null,"type":"movie","add":"2020-09-21 14:57:09","orig_title":"The Diary of Anne Frank","year":"1959-03-18","translations":["Профессиональный (многоголосый закадровый)","Original (English)"],"quality":"bd","translation":"Профессиональный (многоголосый закадровый)","update":"2020-11-16 13:30:54","iframe_src":"//5322.svetacdn.in/IAF0wWTdNYZm/movie/43709"},{"id":43696,"title":"Скуби-Ду! Нападение Меха-Пса","kp_id":"808289","imdb_id":"tt3328486","world_art_id":null,"type":"movie","add":"2020-09-20 19:29:10","orig_title":"Scooby-Doo! Mecha Mutt Menace","year":"2013-09-24","translations":["Полное дублирование","Original (English)"],"quality":"hdtv","translation":"Полное дублирование","update":"2020-11-16 13:53:23","iframe_src":"//5322.svetacdn.in/IAF0wWTdNYZm/movie/43696"},{"id":23299,"title":"Экстремальная работа","kp_id":"1108600","imdb_id":"tt9541602","world_art_id":null,"type":"movie","add":"2019-03-20 11:19:05","orig_title":"Geukhanjikeop","year":"2019-01-23","translations":["Любительский (многоголосый закадровый) (Колобок)","Любительский (многоголосый закадровый) (Синема УС)","Любительский (многоголосый закадровый) (Mallorn Studio)","Профессиональный (многоголосый закадровый)","Профессиональный (многоголосый закадровый) (iTunes)"],"quality":"webdl","translation":"Любительский (многоголосый закадровый) (Колобок)","update":"2020-11-16 10:41:39","iframe_src":"//5322.svetacdn.in/IAF0wWTdNYZm/movie/23299"},{"id":4008,"title":"Десять заповедей","kp_id":"8271","imdb_id":"tt0049833","world_art_id":null,"type":"serial","add":"2019-01-31 12:51:07","orig_title":"The Ten Commandments","year":"1956-10-05","translations":["Профессиональный (многоголосый закадровый) (DVD Магия)"],"seasons_count":1,"episodes_count":2,"episodes":2,"update":"2019-02-01 12:53:18","iframe_src":"//5322.svetacdn.in/IAF0wWTdNYZm/tv-series/4008"},{"id":4007,"title":"Мафия убивает только летом","kp_id":"1216656","imdb_id":"tt6246232","world_art_id":null,"type":"serial","add":"2019-01-31 12:48:13","orig_title":"La mafia uccide solo d'estate","year":"2016-11-21","translations":["Профессиональный (многоголосый закадровый) (SDI Media)"],"seasons_count":1,"episodes_count":12,"episodes":12,"update":"2019-02-01 10:18:45","iframe_src":"//5322.svetacdn.in/IAF0wWTdNYZm/tv-series/4007"},{"id":4003,"title":"Влюбленная ведьма","kp_id":"574241","imdb_id":"tt5476060","world_art_id":null,"type":"serial","add":"2019-01-30 19:31:25","orig_title":"Manyeo yuhee","year":"2007-03-21","translations":["Любительский (двухголосый закадровый) (XDUB Dorama)"],"seasons_count":1,"episodes_count":16,"episodes":16,"update":"2019-02-01 08:55:50","iframe_src":"//5322.svetacdn.in/IAF0wWTdNYZm/tv-series/4003"},{"id":3998,"title":"Клеопатра","kp_id":"17914","imdb_id":"tt0056937","world_art_id":null,"type":"serial","add":"2019-01-30 13:00:01","orig_title":"Cleopatra","year":"1963-06-12","translations":["Профессиональный (многоголосый закадровый)"],"seasons_count":1,"episodes_count":2,"episodes":2,"update":"2019-02-01 12:51:12","iframe_src":"//5322.svetacdn.in/IAF0wWTdNYZm/tv-series/3998"},{"id":3988,"title":"Специалист","kp_id":"1233172","imdb_id":null,"world_art_id":null,"type":"serial","add":"2019-01-29 07:10:29","orig_title":"Специалист","year":"2019-01-28","translations":["Оригинальная дорожка"],"seasons_count":1,"episodes_count":8,"episodes":8,"update":"2019-02-01 12:53:22","iframe_src":"//5322.svetacdn.in/IAF0wWTdNYZm/tv-series/3988"},{"id":3985,"title":"Дежурная аптека","kp_id":"281878","imdb_id":"tt0098794","world_art_id":null,"type":"serial","add":"2019-01-28 19:14:08","orig_title":"Farmacia de guardia","year":"1991-09-19","translations":["Профессиональный (многоголосый закадровый)"],"seasons_count":5,"episodes_count":169,"episodes":13,"update":"2019-01-31 16:07:17","iframe_src":"//5322.svetacdn.in/IAF0wWTdNYZm/tv-series/3985"},{"id":3983,"title":"Паутина 4","kp_id":"565126","imdb_id":null,"world_art_id":null,"type":"serial","add":"2019-01-28 17:32:25","orig_title":"Паутина 4","year":"2011-01-11","translations":["Оригинальная дорожка"],"seasons_count":1,"episodes_count":16,"episodes":16,"update":"2019-01-31 19:29:51","iframe_src":"//5322.svetacdn.in/IAF0wWTdNYZm/tv-series/3983"},{"id":3982,"title":"Паутина 3","kp_id":"464841","imdb_id":null,"world_art_id":null,"type":"serial","add":"2019-01-28 17:26:23","orig_title":"Паутина 3","year":"2010-01-20","translations":["Оригинальная дорожка"],"seasons_count":1,"episodes_count":12,"episodes":12,"update":"2019-01-31 19:39:29","iframe_src":"//5322.svetacdn.in/IAF0wWTdNYZm/tv-series/3982"},{"id":3981,"title":"Паутина 2","kp_id":"428973","imdb_id":null,"world_art_id":null,"type":"serial","add":"2019-01-28 17:17:29","orig_title":"Паутина 2","year":"2008-01-01","translations":["Оригинальная дорожка"],"seasons_count":1,"episodes_count":12,"episodes":12,"update":"2019-01-31 19:45:39","iframe_src":"//5322.svetacdn.in/IAF0wWTdNYZm/tv-series/3981"},{"id":3980,"title":"Паутина","kp_id":"428979","imdb_id":"tt5013810","world_art_id":null,"type":"serial","add":"2019-01-28 14:57:30","orig_title":"Pautina","year":"2008-01-09","translations":["Оригинальная дорожка"],"seasons_count":1,"episodes_count":16,"episodes":16,"update":"2019-01-31 19:50:25","iframe_src":"//5322.svetacdn.in/IAF0wWTdNYZm/tv-series/3980"},{"id":3965,"title":"Золотая радуга","kp_id":"807881","imdb_id":"tt3362466","world_art_id":null,"type":"serial","add":"2019-01-27 14:52:51","orig_title":"Gold Rainbow","year":"2013-11-02","translations":["Любительский (одноголосый закадровый)"],"seasons_count":1,"episodes_count":41,"episodes":41,"update":"2019-01-31 19:53:28","iframe_src":"//5322.svetacdn.in/IAF0wWTdNYZm/tv-series/3965"},{"id":3964,"title":"Чужой район 3","kp_id":"797028","imdb_id":null,"world_art_id":null,"type":"serial","add":"2019-01-27 12:20:19","orig_title":"Чужой район 3","year":"2014-04-14","translations":["Оригинальная дорожка"],"seasons_count":1,"episodes_count":32,"episodes":32,"update":"2019-01-31 19:30:32","iframe_src":"//5322.svetacdn.in/IAF0wWTdNYZm/tv-series/3964"},{"id":3963,"title":"Чужой район 2","kp_id":"756251","imdb_id":null,"world_art_id":null,"type":"serial","add":"2019-01-27 12:05:53","orig_title":"Чужой район 2","year":"2013-04-08","translations":["Оригинальная дорожка"],"seasons_count":1,"episodes_count":32,"episodes":32,"update":"2019-01-31 19:40:34","iframe_src":"//5322.svetacdn.in/IAF0wWTdNYZm/tv-series/3963"},{"id":3962,"title":"Чужой район","kp_id":"627273","imdb_id":null,"world_art_id":null,"type":"serial","add":"2019-01-27 11:43:26","orig_title":"Чужой район","year":"2012-02-15","translations":["Оригинальная дорожка"],"seasons_count":1,"episodes_count":24,"episodes":24,"update":"2019-01-31 19:11:47","iframe_src":"//5322.svetacdn.in/IAF0wWTdNYZm/tv-series/3962"},{"id":3926,"title":"Воздушный волк","kp_id":"258363","imdb_id":"tt0086662","world_art_id":null,"type":"serial","add":"2019-01-22 10:28:06","orig_title":"Airwolf","year":"1984-01-22","translations":["Профессиональный (многоголосый закадровый)"],"seasons_count":2,"episodes_count":33,"episodes":22,"update":"2019-02-01 12:46:25","iframe_src":"//5322.svetacdn.in/IAF0wWTdNYZm/tv-series/3926"},{"id":3924,"title":"О.С. - Одинокие сердца","kp_id":"181153","imdb_id":"tt0362359","world_art_id":null,"type":"serial","add":"2019-01-21 22:44:10","orig_title":"The O.C.","year":"2003-08-05","translations":["Профессиональный (многоголосый закадровый)"],"seasons_count":4,"episodes_count":92,"episodes":16,"update":"2019-01-31 20:13:16","iframe_src":"//5322.svetacdn.in/IAF0wWTdNYZm/tv-series/3924"},{"id":3851,"title":"До смерти красива","kp_id":"424056","imdb_id":"tt1280822","world_art_id":null,"type":"serial","add":"2019-01-08 18:06:42","orig_title":"Drop Dead Diva","year":"2009-07-12","translations":["Профессиональный (многоголосый закадровый) (SET)"],"seasons_count":6,"episodes_count":78,"episodes":13,"update":"2019-01-31 21:07:42","iframe_src":"//5322.svetacdn.in/IAF0wWTdNYZm/tv-series/3851"},{"id":14985,"title":"Глупый и бессмысленный жест","kp_id":"971283","imdb_id":"tt5566790","world_art_id":null,"type":"movie","add":"2018-01-29 05:20:14","orig_title":"A Futile and Stupid Gesture","year":"2018-01-24","translations":["Любительский (многоголосый закадровый) (Синема УС)","Профессиональный (многоголосый закадровый) (NewStudio)","Профессиональный (многоголосый закадровый) (Good People)","Original (English)"],"quality":"webdl","translation":"Любительский (многоголосый закадровый) (Синема УС)","update":"2020-11-16 13:54:30","iframe_src":"//5322.svetacdn.in/IAF0wWTdNYZm/movie/14985"},{"id":1629,"title":"Призрачные войны","kp_id":"1048239","imdb_id":"tt6856484","world_art_id":null,"type":"serial","add":"2017-10-11 09:52:23","orig_title":"Ghost Wars","year":"2017-10-05","translations":["Профессиональный (многоголосый закадровый) (BaibaKo)"],"seasons_count":1,"episodes_count":13,"episodes":13,"update":"2019-02-01 04:22:24","iframe_src":"//5322.svetacdn.in/IAF0wWTdNYZm/tv-series/1629"},{"id":903,"title":"Их перепутали в роддоме","kp_id":"571914","imdb_id":"tt1758772","world_art_id":null,"type":"serial","add":"2017-01-19 10:25:17","orig_title":"Switched at Birth","year":"2011-06-06","translations":["Профессиональный (двухголосый закадровый) (Sunshine Studio)","Профессиональный (многоголосый закадровый) (Кириллица)"],"seasons_count":5,"episodes_count":103,"episodes":10,"update":"2019-01-31 20:41:15","iframe_src":"//5322.svetacdn.in/IAF0wWTdNYZm/tv-series/903"},{"id":7199,"title":"Мышиная охота","kp_id":"6898","imdb_id":"tt0119715","world_art_id":null,"type":"movie","add":"2016-11-08 15:13:17","orig_title":"Mousehunt","year":"1997-12-19","translations":["Полное дублирование","Профессиональный (многоголосый закадровый) (Премьер Видео Фильм)","Original (English)","Полное дублирование (Ист-Вест)","Авторский (одноголосый закадровый) (Котов Вячеслав)","Авторский (одноголосый закадровый) (Кашкин Александр | Первомайский)","Авторский (одноголосый закадровый) (Гаврилов Андрей)"],"quality":"webdl","translation":"Полное дублирование","update":"2020-11-16 08:07:01","iframe_src":"//5322.svetacdn.in/IAF0wWTdNYZm/movie/7199"},{"id":3482,"title":"Пианино","kp_id":"3663","imdb_id":"tt0107822","world_art_id":null,"type":"movie","add":"2016-06-29 07:57:47","orig_title":"The Piano","year":"1993-05-15","translations":["Любительский (двухголосый закадровый)","Профессиональный (многоголосый закадровый)","Original (English)"],"quality":"bd","translation":"Любительский (двухголосый закадровый)","update":"2020-11-16 13:24:46","iframe_src":"//5322.svetacdn.in/IAF0wWTdNYZm/movie/3482"},{"id":53,"title":"Свинка Пеппа","kp_id":"699617","imdb_id":"tt0426769","world_art_id":null,"type":"serial","add":"2016-04-07 07:42:39","orig_title":"Peppa Pig","year":"2004-05-31","translations":["Полное дублирование"],"seasons_count":4,"episodes_count":199,"episodes":52,"update":"2019-01-31 20:01:45","iframe_src":"//5322.svetacdn.in/IAF0wWTdNYZm/tv-series/53"},{"id":73,"title":"Грань будущего","kp_id":"505851","imdb_id":"tt1631867","world_art_id":null,"type":"movie","add":"2016-02-08 14:49:29","orig_title":"Edge of Tomorrow","year":"2014-05-28","translations":["Полное дублирование","Original (English)"],"quality":"bd","translation":"Полное дублирование","update":"2020-11-16 11:44:30","iframe_src":"//5322.svetacdn.in/IAF0wWTdNYZm/movie/73"}],"current_page":384,"first_page_url":"https://videocdn.tv/api/short?limit=100&api_token=6Onb1W1alEUrBcKJZD3GoKBbWyAl2uG2&cache3384=3384&page=1","from":38301,"last_page":628,"last_page_url":"https://videocdn.tv/api/short?limit=100&api_token=6Onb1W1alEUrBcKJZD3GoKBbWyAl2uG2&cache3384=3384&page=628","next_page_url":"https://videocdn.tv/api/short?limit=100&api_token=6Onb1W1alEUrBcKJZD3GoKBbWyAl2uG2&cache3384=3384&page=385","path":"https://videocdn.tv/api/short","per_page":100,"prev_page_url":"https://videocdn.tv/api/short?limit=100&api_token=6Onb1W1alEUrBcKJZD3GoKBbWyAl2uG2&cache3384=3384&page=383","to":38340,"total":62702}