{"result":true,"data":[{"id":26081,"title":"Американский выход","kp_id":"999968","imdb_id":"tt6021482","world_art_id":null,"type":"movie","add":"2019-05-06 21:10:16","orig_title":"American Exit","year":"2019-05-14","translations":["Любительский (многоголосый закадровый) (Синема УС)"],"quality":"dvdrip","translation":"Любительский (многоголосый закадровый) (Синема УС)","update":"2019-05-07 04:35:29","iframe_src":"//7741.svetacdn.in/71tsRs29n5tZ/movie/26081"},{"id":26070,"title":"Спустя некоторое время","kp_id":"1059095","imdb_id":"tt7321356","world_art_id":null,"type":"movie","add":"2019-05-06 16:16:11","orig_title":"Tiempo después","year":"2018-09-25","translations":["Любительский (многоголосый закадровый) (Синема УС)"],"quality":"bd","translation":"Любительский (многоголосый закадровый) (Синема УС)","update":"2019-05-06 20:12:01","iframe_src":"//7741.svetacdn.in/71tsRs29n5tZ/movie/26070"},{"id":26069,"title":"Паласиос","kp_id":"1033402","imdb_id":"tt6235850","world_art_id":null,"type":"movie","add":"2019-05-06 16:12:28","orig_title":"Palacios","year":"2017-06-11","translations":["Любительский (многоголосый закадровый) (Синема УС)"],"quality":"webdl","translation":"Любительский (многоголосый закадровый) (Синема УС)","update":"2019-05-06 20:12:51","iframe_src":"//7741.svetacdn.in/71tsRs29n5tZ/movie/26069"},{"id":26066,"title":"Зерно","kp_id":"843000","imdb_id":"tt4073682","world_art_id":null,"type":"movie","add":"2019-05-06 16:01:28","orig_title":"Bugday","year":"2017-11-24","translations":["Любительский (многоголосый закадровый) (Синема УС)"],"quality":"webdl","translation":"Любительский (многоголосый закадровый) (Синема УС)","update":"2019-05-06 20:15:46","iframe_src":"//7741.svetacdn.in/71tsRs29n5tZ/movie/26066"},{"id":26062,"title":"Залив Ханалей","kp_id":"1124865","imdb_id":"tt8332772","world_art_id":null,"type":"movie","add":"2019-05-06 15:49:49","orig_title":"Hanalei Bay","year":"2018-10-18","translations":["Любительский (многоголосый закадровый) (Синема УС)"],"quality":"bd","translation":"Любительский (многоголосый закадровый) (Синема УС)","update":"2019-05-06 20:17:16","iframe_src":"//7741.svetacdn.in/71tsRs29n5tZ/movie/26062"},{"id":26000,"title":"Инспектор ГАИ","kp_id":"42608","imdb_id":"tt0084141","world_art_id":null,"type":"movie","add":"2019-05-05 20:42:15","orig_title":"Inspektor GAI","year":"1983-05-30","translations":["Оригинальная дорожка"],"quality":"hddvd","translation":"Оригинальная дорожка","update":"2019-05-06 12:39:56","iframe_src":"//7741.svetacdn.in/71tsRs29n5tZ/movie/26000"},{"id":25999,"title":"Пощечина","kp_id":"45016","imdb_id":"tt0189940","world_art_id":null,"type":"movie","add":"2019-05-05 20:37:15","orig_title":"Ktor me yerkinq","year":"1980-10-03","translations":["Оригинальная дорожка"],"quality":"dvdrip","translation":"Оригинальная дорожка","update":"2019-05-06 12:39:07","iframe_src":"//7741.svetacdn.in/71tsRs29n5tZ/movie/25999"},{"id":25998,"title":"Волшебное зерно","kp_id":"45835","imdb_id":"tt0334652","world_art_id":null,"type":"movie","add":"2019-05-05 20:28:07","orig_title":"Volshebnoye zerno","year":"1941-05-14","translations":["Оригинальная дорожка"],"quality":"dvdrip","translation":"Оригинальная дорожка","update":"2019-05-06 12:38:07","iframe_src":"//7741.svetacdn.in/71tsRs29n5tZ/movie/25998"},{"id":25997,"title":"Возвращение блудного папы","kp_id":"425022","imdb_id":"tt1879097","world_art_id":null,"type":"movie","add":"2019-05-05 20:23:19","orig_title":"Vozvrashchenie bludnogo papy","year":"2006-10-05","translations":["Оригинальная дорожка"],"quality":"dvdrip","translation":"Оригинальная дорожка","update":"2019-05-06 12:37:13","iframe_src":"//7741.svetacdn.in/71tsRs29n5tZ/movie/25997"},{"id":25991,"title":"Повесть непогашенной луны","kp_id":"223034","imdb_id":"tt0102698","world_art_id":null,"type":"movie","add":"2019-05-04 21:18:09","orig_title":"Povest nepogashennoy luny","year":"1990-01-01","translations":["Оригинальная дорожка"],"quality":"dvdrip","translation":"Оригинальная дорожка","update":"2019-05-06 12:36:41","iframe_src":"//7741.svetacdn.in/71tsRs29n5tZ/movie/25991"},{"id":25988,"title":"Человек в футляре","kp_id":"45470","imdb_id":"tt0252315","world_art_id":null,"type":"movie","add":"2019-05-04 21:14:34","orig_title":"Chelovek v futlyare","year":"1939-05-25","translations":["Оригинальная дорожка"],"quality":"dvdrip","translation":"Оригинальная дорожка","update":"2019-05-06 12:35:57","iframe_src":"//7741.svetacdn.in/71tsRs29n5tZ/movie/25988"},{"id":25986,"title":"13 раунд","kp_id":"630295","imdb_id":"tt4412300","world_art_id":null,"type":"movie","add":"2019-05-04 21:08:49","orig_title":"13 raund","year":"2011-01-01","translations":["Оригинальная дорожка"],"quality":"dvdrip","translation":"Оригинальная дорожка","update":"2019-05-06 12:34:55","iframe_src":"//7741.svetacdn.in/71tsRs29n5tZ/movie/25986"},{"id":25985,"title":"Кольца Альманзора","kp_id":"44861","imdb_id":"tt0177889","world_art_id":null,"type":"movie","add":"2019-05-04 21:03:28","orig_title":"Koltsa Almanzora","year":"1978-03-24","translations":["Оригинальная дорожка"],"quality":"dvdrip","translation":"Оригинальная дорожка","update":"2019-05-06 12:34:12","iframe_src":"//7741.svetacdn.in/71tsRs29n5tZ/movie/25985"},{"id":25981,"title":"Девять признаков измены","kp_id":"420334","imdb_id":null,"world_art_id":null,"type":"movie","add":"2019-05-04 20:38:09","orig_title":"Девять признаков измены","year":"2008-01-01","translations":["Оригинальная дорожка"],"quality":"dvdrip","translation":"Оригинальная дорожка","update":"2019-05-06 12:32:50","iframe_src":"//7741.svetacdn.in/71tsRs29n5tZ/movie/25981"},{"id":25976,"title":"Алый камень","kp_id":"43467","imdb_id":"tt0090620","world_art_id":null,"type":"movie","add":"2019-05-04 20:31:29","orig_title":"Alyy kamen","year":"1987-08-31","translations":["Оригинальная дорожка"],"quality":"dvdrip","translation":"Оригинальная дорожка","update":"2019-05-06 12:32:16","iframe_src":"//7741.svetacdn.in/71tsRs29n5tZ/movie/25976"},{"id":25975,"title":"Анна","kp_id":"412071","imdb_id":"tt1332482","world_art_id":null,"type":"movie","add":"2019-05-04 20:28:07","orig_title":"Anna","year":"2005-11-15","translations":["Оригинальная дорожка"],"quality":"dvdrip","translation":"Оригинальная дорожка","update":"2019-05-06 12:31:08","iframe_src":"//7741.svetacdn.in/71tsRs29n5tZ/movie/25975"},{"id":25974,"title":"Анна: От 6 до 18","kp_id":"41007","imdb_id":"tt0106290","world_art_id":null,"type":"movie","add":"2019-05-04 20:24:22","orig_title":"Anna ot 6 do 18","year":"1994-02-16","translations":["Оригинальная дорожка"],"quality":"dvdrip","translation":"Оригинальная дорожка","update":"2019-05-06 12:30:22","iframe_src":"//7741.svetacdn.in/71tsRs29n5tZ/movie/25974"},{"id":25973,"title":"Ася","kp_id":"43547","imdb_id":"tt0122969","world_art_id":null,"type":"movie","add":"2019-05-04 20:20:11","orig_title":"Asya","year":"1978-03-13","translations":["Оригинальная дорожка"],"quality":"dvdrip","translation":"Оригинальная дорожка","update":"2019-05-06 12:29:34","iframe_src":"//7741.svetacdn.in/71tsRs29n5tZ/movie/25973"},{"id":25972,"title":"Бабушки надвое сказали...","kp_id":"331864","imdb_id":"tt0078817","world_art_id":null,"type":"movie","add":"2019-05-04 20:16:19","orig_title":"Babushki nadvoe skazali...","year":"1979-12-31","translations":["Оригинальная дорожка"],"quality":"dvdrip","translation":"Оригинальная дорожка","update":"2019-05-06 12:28:42","iframe_src":"//7741.svetacdn.in/71tsRs29n5tZ/movie/25972"},{"id":25971,"title":"Баллада о Беринге и его друзьях","kp_id":"46016","imdb_id":"tt0065447","world_art_id":null,"type":"movie","add":"2019-05-04 20:13:15","orig_title":"Ballada o Beringe i ego druzyakh","year":"1971-01-13","translations":["Оригинальная дорожка"],"quality":"dvdrip","translation":"Оригинальная дорожка","update":"2019-05-06 12:27:59","iframe_src":"//7741.svetacdn.in/71tsRs29n5tZ/movie/25971"}],"current_page":1758,"first_page_url":"https://videocdn.tv/api/short?limit=100&api_token=EnbO9h8pv1VyjbCJhg0WM9nG259n7mtz&cache31758=31758&page=1","from":175701,"last_page":696,"last_page_url":"https://videocdn.tv/api/short?limit=100&api_token=EnbO9h8pv1VyjbCJhg0WM9nG259n7mtz&cache31758=31758&page=696","next_page_url":null,"path":"https://videocdn.tv/api/short","per_page":100,"prev_page_url":"https://videocdn.tv/api/short?limit=100&api_token=EnbO9h8pv1VyjbCJhg0WM9nG259n7mtz&cache31758=31758&page=1757","to":175720,"total":69578}