{"result":true,"data":[{"id":27095,"title":"Чистые сердца","kp_id":"1044791","imdb_id":"tt5929226","world_art_id":null,"type":"movie","add":"2019-05-26 19:38:33","orig_title":"Cuori puri","year":"2017-05-23","translations":["Любительский (многоголосый закадровый) (Синема УС)"],"quality":"dvdrip","translation":"Любительский (многоголосый закадровый) (Синема УС)","update":"2019-05-27 07:18:38","iframe_src":"//8543.svetacdn.in/IAF0wWTdNYZm/movie/27095"},{"id":27088,"title":"3100: Беги и становись","kp_id":"1069927","imdb_id":"tt4936398","world_art_id":null,"type":"movie","add":"2019-05-26 19:26:36","orig_title":"3100: Run and Become","year":"2018-06-01","translations":["Любительский (многоголосый закадровый) (Синема УС)"],"quality":"webdl","translation":"Любительский (многоголосый закадровый) (Синема УС)","update":"2019-05-27 07:14:47","iframe_src":"//8543.svetacdn.in/IAF0wWTdNYZm/movie/27088"},{"id":27086,"title":"Молитва","kp_id":"1112686","imdb_id":"tt7839456","world_art_id":null,"type":"movie","add":"2019-05-26 19:21:23","orig_title":"La prière","year":"2018-02-18","translations":["Любительский (многоголосый закадровый) (Синема УС)"],"quality":"bd","translation":"Любительский (многоголосый закадровый) (Синема УС)","update":"2019-05-27 07:16:01","iframe_src":"//8543.svetacdn.in/IAF0wWTdNYZm/movie/27086"},{"id":27016,"title":"Во власти золота","kp_id":"417621","imdb_id":"tt2094180","world_art_id":null,"type":"movie","add":"2019-05-25 22:47:27","orig_title":"Vo vlasti zolota","year":"1957-12-27","translations":["Оригинальная дорожка"],"quality":"dvdrip","translation":"Оригинальная дорожка","update":"2019-05-27 07:40:38","iframe_src":"//8543.svetacdn.in/IAF0wWTdNYZm/movie/27016"},{"id":27015,"title":"Впереди – крутой поворот","kp_id":"45898","imdb_id":"tt0141970","world_art_id":null,"type":"movie","add":"2019-05-25 22:44:26","orig_title":"Vperedi - krutoy povorot","year":"1960-12-06","translations":["Оригинальная дорожка"],"quality":"sat","translation":"Оригинальная дорожка","update":"2019-05-27 07:39:59","iframe_src":"//8543.svetacdn.in/IAF0wWTdNYZm/movie/27015"},{"id":27014,"title":"Время летних отпусков","kp_id":"45911","imdb_id":"tt0235870","world_art_id":null,"type":"movie","add":"2019-05-25 22:41:00","orig_title":"Vremya letnikh otpuskov","year":"1960-01-01","translations":["Оригинальная дорожка"],"quality":"sat","translation":"Оригинальная дорожка","update":"2019-05-27 07:39:19","iframe_src":"//8543.svetacdn.in/IAF0wWTdNYZm/movie/27014"},{"id":27013,"title":"Вторая любовь","kp_id":"571326","imdb_id":"tt2928516","world_art_id":null,"type":"movie","add":"2019-05-25 21:23:04","orig_title":"Vtoraya lyubov","year":"2011-01-01","translations":["Оригинальная дорожка"],"quality":"sat","translation":"Оригинальная дорожка","update":"2019-05-27 07:38:21","iframe_src":"//8543.svetacdn.in/IAF0wWTdNYZm/movie/27013"},{"id":27012,"title":"Белая птица с черной отметиной","kp_id":"46134","imdb_id":"tt0165636","world_art_id":null,"type":"movie","add":"2019-05-25 21:14:38","orig_title":"Bilyy ptakh z chornoyu vidznakoyu","year":"1971-01-17","translations":["Оригинальная дорожка"],"quality":"dvdrip","translation":"Оригинальная дорожка","update":"2019-05-27 07:37:28","iframe_src":"//8543.svetacdn.in/IAF0wWTdNYZm/movie/27012"},{"id":27011,"title":"Двое и одна","kp_id":"44361","imdb_id":"tt0305503","world_art_id":null,"type":"movie","add":"2019-05-25 21:03:43","orig_title":"Dvoe i odna","year":"1988-01-01","translations":["Оригинальная дорожка"],"quality":"hdtv","translation":"Оригинальная дорожка","update":"2019-05-27 07:36:16","iframe_src":"//8543.svetacdn.in/IAF0wWTdNYZm/movie/27011"},{"id":27010,"title":"Девочка ищет отца","kp_id":"44174","imdb_id":"tt0140954","world_art_id":null,"type":"movie","add":"2019-05-25 20:39:36","orig_title":"Devochka ishchet otsa","year":"1959-05-19","translations":["Оригинальная дорожка"],"quality":"webdl","translation":"Оригинальная дорожка","update":"2019-05-27 07:34:49","iframe_src":"//8543.svetacdn.in/IAF0wWTdNYZm/movie/27010"},{"id":27008,"title":"Дневник директора школы","kp_id":"44224","imdb_id":"tt0072885","world_art_id":null,"type":"movie","add":"2019-05-25 20:31:59","orig_title":"Dnevnik direktora shkoly","year":"1975-10-20","translations":["Оригинальная дорожка"],"quality":"sat","translation":"Оригинальная дорожка","update":"2019-05-27 07:34:13","iframe_src":"//8543.svetacdn.in/IAF0wWTdNYZm/movie/27008"},{"id":27005,"title":"Мама, я жив!","kp_id":"46526","imdb_id":"tt0232043","world_art_id":null,"type":"movie","add":"2019-05-25 20:16:18","orig_title":"Mama, ya zhiv!","year":"1985-12-02","translations":["Оригинальная дорожка"],"quality":"sat","translation":"Оригинальная дорожка","update":"2019-05-27 07:30:51","iframe_src":"//8543.svetacdn.in/IAF0wWTdNYZm/movie/27005"},{"id":27004,"title":"Не было печали","kp_id":"46364","imdb_id":"tt0084396","world_art_id":null,"type":"movie","add":"2019-05-25 20:07:54","orig_title":"Ne bylo pechali","year":"1983-03-21","translations":["Оригинальная дорожка"],"quality":"sat","translation":"Оригинальная дорожка","update":"2019-05-27 07:29:36","iframe_src":"//8543.svetacdn.in/IAF0wWTdNYZm/movie/27004"},{"id":27003,"title":"Опасные тропы","kp_id":"42777","imdb_id":"tt0212403","world_art_id":null,"type":"movie","add":"2019-05-25 20:04:46","orig_title":"Opasnye tropy","year":"1955-02-03","translations":["Оригинальная дорожка"],"quality":"sat","translation":"Оригинальная дорожка","update":"2019-05-27 07:24:56","iframe_src":"//8543.svetacdn.in/IAF0wWTdNYZm/movie/27003"},{"id":27002,"title":"Привет с фронта","kp_id":"88735","imdb_id":"tt0261206","world_art_id":null,"type":"movie","add":"2019-05-25 20:01:39","orig_title":"Privet s fronta","year":"1983-06-20","translations":["Оригинальная дорожка"],"quality":"sat","translation":"Оригинальная дорожка","update":"2019-05-27 07:23:56","iframe_src":"//8543.svetacdn.in/IAF0wWTdNYZm/movie/27002"},{"id":27001,"title":"С вечера до полудня","kp_id":"95302","imdb_id":"tt0131570","world_art_id":null,"type":"movie","add":"2019-05-25 19:58:23","orig_title":"S vechera do poludnya","year":"1982-02-02","translations":["Оригинальная дорожка"],"quality":"dvdrip","translation":"Оригинальная дорожка","update":"2019-05-27 07:23:08","iframe_src":"//8543.svetacdn.in/IAF0wWTdNYZm/movie/27001"},{"id":26999,"title":"Сибирский спас","kp_id":"41050","imdb_id":"tt0374220","world_art_id":null,"type":"movie","add":"2019-05-25 19:49:14","orig_title":"Sibirskiy spas","year":"1998-01-01","translations":["Оригинальная дорожка"],"quality":"dvdrip","translation":"Оригинальная дорожка","update":"2019-05-27 07:20:13","iframe_src":"//8543.svetacdn.in/IAF0wWTdNYZm/movie/26999"},{"id":26987,"title":"Человеческая доля","kp_id":"525418","imdb_id":"tt1525916","world_art_id":null,"type":"movie","add":"2019-05-24 21:33:35","orig_title":"Ihmisen osa","year":"2018-11-10","translations":["Любительский (многоголосый закадровый) (Синема УС)"],"quality":"webdl","translation":"Любительский (многоголосый закадровый) (Синема УС)","update":"2019-05-27 07:16:53","iframe_src":"//8543.svetacdn.in/IAF0wWTdNYZm/movie/26987"},{"id":26983,"title":"Дикие розы","kp_id":"1093524","imdb_id":"tt5774796","world_art_id":null,"type":"movie","add":"2019-05-24 21:25:56","orig_title":"Dzikie róze","year":"2017-08-05","translations":["Любительский (многоголосый закадровый) (Синема УС)"],"quality":"dvdrip","translation":"Любительский (многоголосый закадровый) (Синема УС)","update":"2019-05-27 07:17:49","iframe_src":"//8543.svetacdn.in/IAF0wWTdNYZm/movie/26983"},{"id":14216,"title":"Когда цветет сирень","kp_id":"532840","imdb_id":null,"world_art_id":null,"type":"movie","add":"2017-11-02 21:16:43","orig_title":"Когда цветет сирень","year":"2010-10-31","translations":["Оригинальная дорожка"],"quality":"webdl","translation":"Оригинальная дорожка","update":"2019-05-27 07:32:23","iframe_src":"//8543.svetacdn.in/IAF0wWTdNYZm/movie/14216"}],"current_page":1292,"first_page_url":"https://videocdn.tv/api/short?limit=100&api_token=6Onb1W1alEUrBcKJZD3GoKBbWyAl2uG2&cache31292=31292&page=1","from":129101,"last_page":610,"last_page_url":"https://videocdn.tv/api/short?limit=100&api_token=6Onb1W1alEUrBcKJZD3GoKBbWyAl2uG2&cache31292=31292&page=610","next_page_url":null,"path":"https://videocdn.tv/api/short","per_page":100,"prev_page_url":"https://videocdn.tv/api/short?limit=100&api_token=6Onb1W1alEUrBcKJZD3GoKBbWyAl2uG2&cache31292=31292&page=1291","to":129120,"total":60916}