{"result":true,"data":[{"id":45150,"title":"Бравый инспектор Мамочкин","kp_id":"258043","imdb_id":"tt6053118","world_art_id":null,"type":"movie","add":"2020-11-09 17:29:46","orig_title":"Bravyy inspektor Mamochkin","year":"1977-01-01","translations":["Оригинальная дорожка"],"quality":"dvdrip","translation":"Оригинальная дорожка","update":"2020-11-12 14:21:03","iframe_src":"//83.svetacdn.in/PfJ50H0ZBPg3/movie/45150"},{"id":45149,"title":"Брак","kp_id":"260237","imdb_id":"tt1284448","world_art_id":null,"type":"movie","add":"2020-11-09 17:26:48","orig_title":"Brak","year":"1987-02-28","translations":["Оригинальная дорожка"],"quality":"dvdrip","translation":"Оригинальная дорожка","update":"2020-11-12 14:19:43","iframe_src":"//83.svetacdn.in/PfJ50H0ZBPg3/movie/45149"},{"id":45148,"title":"Братец Кролик и братец Лис","kp_id":"520537","imdb_id":"tt6194502","world_art_id":null,"type":"movie","add":"2020-11-09 17:24:08","orig_title":"Bratets Krolik i bratets Lis","year":"1972-09-16","translations":["Оригинальная дорожка"],"quality":"dvdrip","translation":"Оригинальная дорожка","update":"2020-11-12 12:36:40","iframe_src":"//83.svetacdn.in/PfJ50H0ZBPg3/movie/45148"},{"id":45147,"title":"В зоопарке — ремонт","kp_id":"259330","imdb_id":"tt4053858","world_art_id":null,"type":"movie","add":"2020-11-09 17:21:15","orig_title":"V zooparke - remont!","year":"1987-03-18","translations":["Оригинальная дорожка"],"quality":"dvdrip","translation":"Оригинальная дорожка","update":"2020-11-12 12:33:54","iframe_src":"//83.svetacdn.in/PfJ50H0ZBPg3/movie/45147"},{"id":45146,"title":"Почта","kp_id":"723433","imdb_id":"tt0250660","world_art_id":null,"type":"movie","add":"2020-11-09 16:18:50","orig_title":"Pochta","year":"1964-01-01","translations":["Оригинальная дорожка"],"quality":"dvdrip","translation":"Оригинальная дорожка","update":"2020-11-12 12:31:21","iframe_src":"//83.svetacdn.in/PfJ50H0ZBPg3/movie/45146"},{"id":45114,"title":"Василиса прекрасная","kp_id":"464832","imdb_id":"tt2954570","world_art_id":null,"type":"movie","add":"2020-11-08 16:16:42","orig_title":"Vasilisa Prekrasnaya","year":"1977-05-04","translations":["Оригинальная дорожка"],"quality":"hdtv","translation":"Оригинальная дорожка","update":"2020-11-12 12:24:23","iframe_src":"//83.svetacdn.in/PfJ50H0ZBPg3/movie/45114"},{"id":45113,"title":"Ваня и крокодил","kp_id":"532856","imdb_id":"tt3615764","world_art_id":null,"type":"movie","add":"2020-11-08 16:13:45","orig_title":"Vanya i krokodil","year":"1984-01-01","translations":["Оригинальная дорожка"],"quality":"dvdrip","translation":"Оригинальная дорожка","update":"2020-11-12 12:23:11","iframe_src":"//83.svetacdn.in/PfJ50H0ZBPg3/movie/45113"},{"id":45112,"title":"Пудя","kp_id":"689613","imdb_id":null,"world_art_id":null,"type":"movie","add":"2020-11-08 16:09:34","orig_title":"Пудя","year":"1990-01-01","translations":["Оригинальная дорожка"],"quality":"sat","translation":"Оригинальная дорожка","update":"2020-11-12 12:21:27","iframe_src":"//83.svetacdn.in/PfJ50H0ZBPg3/movie/45112"},{"id":45111,"title":"Приключения запятой и точки","kp_id":"259467","imdb_id":"tt5520976","world_art_id":null,"type":"movie","add":"2020-11-08 16:03:42","orig_title":"Priklucheniya zapyatoy i tochki","year":"1965-01-01","translations":["Оригинальная дорожка"],"quality":"dvdrip","translation":"Оригинальная дорожка","update":"2020-11-12 12:19:14","iframe_src":"//83.svetacdn.in/PfJ50H0ZBPg3/movie/45111"},{"id":45110,"title":"Почему слоны?","kp_id":"677849","imdb_id":"tt6024600","world_art_id":null,"type":"movie","add":"2020-11-08 15:57:42","orig_title":"Pochemu slony?","year":"1980-04-19","translations":["Оригинальная дорожка"],"quality":"dvdrip","translation":"Оригинальная дорожка","update":"2020-11-12 12:17:18","iframe_src":"//83.svetacdn.in/PfJ50H0ZBPg3/movie/45110"},{"id":45109,"title":"На заре во дворе","kp_id":"259899","imdb_id":"tt5998178","world_art_id":null,"type":"movie","add":"2020-11-08 15:49:09","orig_title":"Na zare vo dvore","year":"1985-03-10","translations":["Оригинальная дорожка"],"quality":"dvdrip","translation":"Оригинальная дорожка","update":"2020-11-12 12:16:45","iframe_src":"//83.svetacdn.in/PfJ50H0ZBPg3/movie/45109"},{"id":45108,"title":"Машинка времени","kp_id":"597600","imdb_id":"tt2210807","world_art_id":null,"type":"movie","add":"2020-11-08 15:46:16","orig_title":"Mashinka vremeni","year":"1967-01-01","translations":["Оригинальная дорожка"],"quality":"dvdrip","translation":"Оригинальная дорожка","update":"2020-11-12 12:14:59","iframe_src":"//83.svetacdn.in/PfJ50H0ZBPg3/movie/45108"},{"id":45107,"title":"Коля, Оля и Архимед","kp_id":"260117","imdb_id":"tt2342173","world_art_id":null,"type":"movie","add":"2020-11-08 15:42:32","orig_title":"Kolya, Olya i Arkhimed","year":"1972-01-01","translations":["Оригинальная дорожка"],"quality":"dvdrip","translation":"Оригинальная дорожка","update":"2020-11-12 12:08:35","iframe_src":"//83.svetacdn.in/PfJ50H0ZBPg3/movie/45107"},{"id":45106,"title":"Грибок-теремок","kp_id":"256526","imdb_id":"tt2193792","world_art_id":null,"type":"movie","add":"2020-11-08 15:39:39","orig_title":"Gribok-teremok","year":"1958-01-01","translations":["Оригинальная дорожка"],"quality":"dvdrip","translation":"Оригинальная дорожка","update":"2020-11-12 11:54:19","iframe_src":"//83.svetacdn.in/PfJ50H0ZBPg3/movie/45106"},{"id":45105,"title":"Большой секрет для маленькой компании","kp_id":"259897","imdb_id":"tt1389744","world_art_id":null,"type":"movie","add":"2020-11-08 15:36:21","orig_title":"Bolshoy sekret dlya malenkoy kompanii","year":"1979-01-01","translations":["Оригинальная дорожка"],"quality":"dvdrip","translation":"Оригинальная дорожка","update":"2020-11-12 11:52:53","iframe_src":"//83.svetacdn.in/PfJ50H0ZBPg3/movie/45105"},{"id":45104,"title":"Большая полицейская сказка","kp_id":"635114","imdb_id":"tt5894378","world_art_id":null,"type":"movie","add":"2020-11-08 15:32:59","orig_title":"Bolshaya politseyskaya skazka","year":"1991-01-01","translations":["Оригинальная дорожка"],"quality":"dvdrip","translation":"Оригинальная дорожка","update":"2020-11-12 11:51:28","iframe_src":"//83.svetacdn.in/PfJ50H0ZBPg3/movie/45104"},{"id":45103,"title":"Белая шкурка","kp_id":"653735","imdb_id":"tt6114994","world_art_id":null,"type":"movie","add":"2020-11-08 15:29:06","orig_title":"Belaya shkurka","year":"1968-12-20","translations":["Оригинальная дорожка"],"quality":"dvdrip","translation":"Оригинальная дорожка","update":"2020-11-12 11:50:14","iframe_src":"//83.svetacdn.in/PfJ50H0ZBPg3/movie/45103"},{"id":44308,"title":"Знаменитый утенок Тим","kp_id":"632945","imdb_id":null,"world_art_id":null,"type":"movie","add":"2020-10-11 18:53:20","orig_title":"Знаменитый утенок Тим","year":"1973-01-01","translations":["Оригинальная дорожка"],"quality":"dvdrip","translation":"Оригинальная дорожка","update":"2020-11-12 12:33:10","iframe_src":"//83.svetacdn.in/PfJ50H0ZBPg3/movie/44308"},{"id":43373,"title":"Весь город говорит","kp_id":"12683","imdb_id":"tt0027214","world_art_id":null,"type":"movie","add":"2020-09-10 09:49:33","orig_title":"The Whole Town's Talking","year":"1935-02-21","translations":["Авторский (одноголосый закадровый) (Данилов Владислав | Kenum)","Original (English)"],"quality":"bd","translation":"Авторский (одноголосый закадровый) (Данилов Владислав | Kenum)","update":"2020-11-12 11:19:23","iframe_src":"//83.svetacdn.in/PfJ50H0ZBPg3/movie/43373"},{"id":43334,"title":"Суд присяжных","kp_id":"9316","imdb_id":"tt0111488","world_art_id":null,"type":"movie","add":"2020-09-09 09:13:37","orig_title":"Trial by Jury","year":"1994-09-09","translations":["Профессиональный (многоголосый закадровый) (Екатеринбург Арт)","Авторский (одноголосый закадровый) (Пронин Антон)","Original (English)"],"quality":"bd","translation":"Профессиональный (многоголосый закадровый) (Екатеринбург Арт)","update":"2020-11-12 11:21:07","iframe_src":"//83.svetacdn.in/PfJ50H0ZBPg3/movie/43334"},{"id":1977,"title":"Доказательство","kp_id":"840049","imdb_id":"tt3595806","world_art_id":null,"type":"serial","add":"2018-01-22 05:51:04","orig_title":"Proof","year":"2015-06-16","translations":["Любительский (многоголосый закадровый)"],"seasons_count":1,"episodes_count":10,"episodes":10,"update":"2018-01-22 09:17:09","iframe_src":"//83.svetacdn.in/PfJ50H0ZBPg3/tv-series/1977"},{"id":1975,"title":"Свидание: Какая она, любовь?","kp_id":"893581","imdb_id":"tt4237920","world_art_id":null,"type":"serial","add":"2018-01-20 09:09:57","orig_title":"Date: Koi to Wa Donna Mono Kashira","year":"2015-01-19","translations":["Любительский (многоголосый закадровый)"],"seasons_count":1,"episodes_count":10,"episodes":10,"update":"2018-01-22 10:33:52","iframe_src":"//83.svetacdn.in/PfJ50H0ZBPg3/tv-series/1975"},{"id":1974,"title":"Старшая школа: Пора любить","kp_id":"861630","imdb_id":"tt4119504","world_art_id":null,"type":"serial","add":"2018-01-20 08:51:57","orig_title":"Hi! School: Love On","year":"2014-07-11","translations":["Любительский (двухголосый закадровый) (GREEN TEA)"],"seasons_count":1,"episodes_count":20,"episodes":20,"update":"2018-01-20 22:57:04","iframe_src":"//83.svetacdn.in/PfJ50H0ZBPg3/tv-series/1974"},{"id":1970,"title":"Озорной поцелуй: Любовь в Токио","kp_id":"748786","imdb_id":"tt2772104","world_art_id":null,"type":"serial","add":"2018-01-18 22:06:06","orig_title":"Itazura na Kiss: Love in Tokyo","year":"2013-03-29","translations":["Любительский (одноголосый закадровый)"],"seasons_count":2,"episodes_count":32,"episodes":16,"update":"2018-01-20 22:42:31","iframe_src":"//83.svetacdn.in/PfJ50H0ZBPg3/tv-series/1970"},{"id":1968,"title":"Один литр слёз","kp_id":"453318","imdb_id":"tt1370332","world_art_id":null,"type":"serial","add":"2018-01-18 11:55:26","orig_title":"Ichi rittoru no namida","year":"2005-10-11","translations":["Любительский (двухголосый закадровый) (GREEN TEA)"],"seasons_count":1,"episodes_count":11,"episodes":11,"update":"2018-01-18 22:25:23","iframe_src":"//83.svetacdn.in/PfJ50H0ZBPg3/tv-series/1968"},{"id":1966,"title":"Оперетта капитана Крутова","kp_id":"1046621","imdb_id":null,"world_art_id":null,"type":"serial","add":"2018-01-17 08:25:53","orig_title":"Оперетта капитана Крутова","year":"2018-01-15","translations":["Оригинальная дорожка"],"seasons_count":1,"episodes_count":8,"episodes":8,"update":"2018-01-19 06:26:07","iframe_src":"//83.svetacdn.in/PfJ50H0ZBPg3/tv-series/1966"},{"id":1965,"title":"Далеко во Вселенной","kp_id":"229633","imdb_id":"tt0187636","world_art_id":null,"type":"serial","add":"2018-01-17 05:55:39","orig_title":"Farscape","year":"1999-03-19","translations":["Профессиональный (многоголосый закадровый) (ТНТ)"],"seasons_count":4,"episodes_count":88,"episodes":22,"update":"2018-01-24 07:35:12","iframe_src":"//83.svetacdn.in/PfJ50H0ZBPg3/tv-series/1965"},{"id":1963,"title":"Вспомни, что будет","kp_id":"466504","imdb_id":"tt1441135","world_art_id":null,"type":"serial","add":"2018-01-17 05:45:05","orig_title":"Flashforward","year":"2009-10-02","translations":["Профессиональный (многоголосый закадровый) (Первый канал | ОРТ)"],"seasons_count":1,"episodes_count":22,"episodes":22,"update":"2018-01-18 12:00:46","iframe_src":"//83.svetacdn.in/PfJ50H0ZBPg3/tv-series/1963"},{"id":1962,"title":"Добро пожаловать в Швецию","kp_id":"821535","imdb_id":"tt3463606","world_art_id":null,"type":"serial","add":"2018-01-16 21:07:26","orig_title":"Welcome to Sweden","year":"2014-03-21","translations":["Любительский (двухголосый закадровый)"],"seasons_count":1,"episodes_count":8,"episodes":8,"update":"2018-01-19 21:51:10","iframe_src":"//83.svetacdn.in/PfJ50H0ZBPg3/tv-series/1962"},{"id":1960,"title":"Легенды","kp_id":"681729","imdb_id":"tt2402137","world_art_id":null,"type":"serial","add":"2018-01-16 14:39:13","orig_title":"Legends","year":"2014-08-13","translations":["Профессиональный (многоголосый закадровый) (LostFilm)"],"seasons_count":2,"episodes_count":20,"episodes":10,"update":"2018-01-19 07:05:32","iframe_src":"//83.svetacdn.in/PfJ50H0ZBPg3/tv-series/1960"},{"id":1958,"title":"Двойная жизнь","kp_id":"1111857","imdb_id":null,"world_art_id":null,"type":"serial","add":"2018-01-16 06:04:47","orig_title":"Двойная жизнь","year":"2018-01-15","translations":["Оригинальная дорожка"],"seasons_count":1,"episodes_count":8,"episodes":8,"update":"2018-01-19 12:59:10","iframe_src":"//83.svetacdn.in/PfJ50H0ZBPg3/tv-series/1958"},{"id":1946,"title":"Люди и манекены","kp_id":"252128","imdb_id":"tt0446098","world_art_id":null,"type":"serial","add":"2018-01-14 07:38:46","orig_title":"Lyudi i manekeny","year":"1974-11-08","translations":["Оригинальная дорожка"],"seasons_count":1,"episodes_count":4,"episodes":4,"update":"2018-01-20 08:03:44","iframe_src":"//83.svetacdn.in/PfJ50H0ZBPg3/tv-series/1946"},{"id":1941,"title":"Красавцы","kp_id":"277548","imdb_id":"tt0387199","world_art_id":null,"type":"serial","add":"2018-01-10 13:40:31","orig_title":"Entourage","year":"2004-07-18","translations":["Профессиональный (многоголосый закадровый) (MTV)","Профессиональный (многоголосый закадровый) (Amedia)"],"seasons_count":8,"episodes_count":96,"episodes":8,"update":"2018-01-23 11:03:31","iframe_src":"//83.svetacdn.in/PfJ50H0ZBPg3/tv-series/1941"},{"id":1870,"title":"Барашек Шон","kp_id":"405614","imdb_id":"tt0983983","world_art_id":null,"type":"serial","add":"2017-12-18 17:04:45","orig_title":"Shaun the Sheep","year":"2007-03-05","translations":["Оригинальная дорожка"],"seasons_count":5,"episodes_count":150,"episodes":20,"update":"2018-01-23 13:06:35","iframe_src":"//83.svetacdn.in/PfJ50H0ZBPg3/tv-series/1870"},{"id":1820,"title":"Финес и Ферб","kp_id":"449993","imdb_id":"tt0852863","world_art_id":null,"type":"serial","add":"2017-12-07 12:40:06","orig_title":"Phineas and Ferb","year":"2007-08-17","translations":["Полное дублирование"],"seasons_count":4,"episodes_count":130,"episodes":31,"update":"2018-01-18 22:31:13","iframe_src":"//83.svetacdn.in/PfJ50H0ZBPg3/tv-series/1820"},{"id":1723,"title":"Проклятая нация","kp_id":"1007813","imdb_id":"tt6106704","world_art_id":null,"type":"serial","add":"2017-11-10 13:13:21","orig_title":"Damnation","year":"2017-11-07","translations":["Профессиональный (многоголосый закадровый) (LostFilm)"],"seasons_count":1,"episodes_count":10,"episodes":10,"update":"2018-01-21 08:58:13","iframe_src":"//83.svetacdn.in/PfJ50H0ZBPg3/tv-series/1723"},{"id":1676,"title":"Особо тяжкие преступления","kp_id":"676333","imdb_id":"tt1936532","world_art_id":null,"type":"serial","add":"2017-10-26 12:35:13","orig_title":"Major Crimes","year":"2012-08-13","translations":["Любительский (двухголосый закадровый) (Dream Records)","Любительский (одноголосый закадровый) (DexterTV)","Профессиональный (многоголосый закадровый) (IdeaFilm)"],"seasons_count":6,"episodes_count":105,"episodes":13,"update":"2018-01-18 22:53:35","iframe_src":"//83.svetacdn.in/PfJ50H0ZBPg3/tv-series/1676"},{"id":1667,"title":"Суеверие","kp_id":"1049676","imdb_id":"tt7379872","world_art_id":null,"type":"serial","add":"2017-10-25 07:59:36","orig_title":"Superstition","year":"2017-10-20","translations":["Профессиональный (многоголосый закадровый) (BaibaKo)","Любительский (двухголосый закадровый) (Hamster Studio)","Любительский (многоголосый закадровый) (Hamster Studio)"],"seasons_count":1,"episodes_count":12,"episodes":12,"update":"2018-01-22 09:07:28","iframe_src":"//83.svetacdn.in/PfJ50H0ZBPg3/tv-series/1667"},{"id":1551,"title":"Электрические сны Филипа К. Дика","kp_id":"1044254","imdb_id":"tt5711280","world_art_id":null,"type":"serial","add":"2017-09-19 14:38:56","orig_title":"Philip K. Dick's Electric Dreams","year":"2017-09-17","translations":["Профессиональный (многоголосый закадровый) (NewStudio)","Профессиональный (многоголосый закадровый) (LostFilm)"],"seasons_count":1,"episodes_count":10,"episodes":10,"update":"2018-01-23 06:59:12","iframe_src":"//83.svetacdn.in/PfJ50H0ZBPg3/tv-series/1551"},{"id":1444,"title":"Четыре тысячи четыреста","kp_id":"77135","imdb_id":"tt0389564","world_art_id":null,"type":"serial","add":"2017-08-02 13:12:42","orig_title":"The 4400","year":"2004-07-11","translations":["Профессиональный (многоголосый закадровый) (РенТВ)","Профессиональный (одноголосый закадровый) (LostFilm)","Полное дублирование (РенТВ)"],"seasons_count":4,"episodes_count":43,"episodes":13,"update":"2018-01-23 09:19:22","iframe_src":"//83.svetacdn.in/PfJ50H0ZBPg3/tv-series/1444"}],"current_page":481,"first_page_url":"https://videocdn.tv/api/short?limit=100&api_token=RgFQdUIR2dRmwv8iYa5SnFNgnw3vpjKj&cache3481=3481&page=1","from":48001,"last_page":645,"last_page_url":"https://videocdn.tv/api/short?limit=100&api_token=RgFQdUIR2dRmwv8iYa5SnFNgnw3vpjKj&cache3481=3481&page=645","next_page_url":"https://videocdn.tv/api/short?limit=100&api_token=RgFQdUIR2dRmwv8iYa5SnFNgnw3vpjKj&cache3481=3481&page=482","path":"https://videocdn.tv/api/short","per_page":100,"prev_page_url":"https://videocdn.tv/api/short?limit=100&api_token=RgFQdUIR2dRmwv8iYa5SnFNgnw3vpjKj&cache3481=3481&page=480","to":48040,"total":64442}