{"result":true,"data":[{"id":35403,"title":"Из мальчишек в мужики","kp_id":"718740","imdb_id":"tt2525596","world_art_id":null,"type":"movie","add":"2020-01-23 18:02:05","orig_title":"Ah Boys to Men","year":"2012-11-08","translations":["Любительский (одноголосый закадровый) (den904)"],"quality":"dvdrip","translation":"Любительский (одноголосый закадровый) (den904)","update":"2020-01-24 12:29:34","iframe_src":"//7741.svetacdn.in/si4jsFRrtgrT/movie/35403"},{"id":35402,"title":"Ночь поминовения","kp_id":"265858","imdb_id":"tt0794319","world_art_id":null,"type":"movie","add":"2020-01-23 17:59:02","orig_title":"Nezu no ban","year":"2005-10-22","translations":["Любительский (одноголосый закадровый) (Воротилин Олег)"],"quality":"dvdrip","translation":"Любительский (одноголосый закадровый) (Воротилин Олег)","update":"2020-01-24 12:28:43","iframe_src":"//7741.svetacdn.in/si4jsFRrtgrT/movie/35402"},{"id":35401,"title":"Маленький монах","kp_id":"208742","imdb_id":"tt0346887","world_art_id":null,"type":"movie","add":"2020-01-23 17:54:55","orig_title":"Dong seung","year":"2002-10-02","translations":["Любительский (одноголосый закадровый) (Воротилин Олег)"],"quality":"dvdrip","translation":"Любительский (одноголосый закадровый) (Воротилин Олег)","update":"2020-01-24 12:27:31","iframe_src":"//7741.svetacdn.in/si4jsFRrtgrT/movie/35401"},{"id":35400,"title":"Маска","kp_id":"414515","imdb_id":"tt1233473","world_art_id":null,"type":"movie","add":"2020-01-23 17:49:29","orig_title":"Ga-myeon","year":"2007-12-27","translations":["Любительский (двухголосый закадровый) (DeadSno & den904)"],"quality":"dvdrip","translation":"Любительский (двухголосый закадровый) (DeadSno & den904)","update":"2020-01-24 12:13:18","iframe_src":"//7741.svetacdn.in/si4jsFRrtgrT/movie/35400"},{"id":35399,"title":"Пхеньян нальпхарам","kp_id":"818181","imdb_id":"tt1708434","world_art_id":null,"type":"movie","add":"2020-01-23 17:47:10","orig_title":"Pyongyang nalpharam","year":"2006-01-01","translations":["Любительский (одноголосый закадровый) (den904)"],"quality":"dvdrip","translation":"Любительский (одноголосый закадровый) (den904)","update":"2020-01-24 12:12:38","iframe_src":"//7741.svetacdn.in/si4jsFRrtgrT/movie/35399"},{"id":35397,"title":"Идеальное несовершенство","kp_id":"1118290","imdb_id":"tt6447464","world_art_id":null,"type":"movie","add":"2020-01-23 17:39:49","orig_title":"Perfect Imperfection","year":"2016-11-25","translations":["Любительский (двухголосый закадровый) (SoftBox)"],"quality":"hdtv","translation":"Любительский (двухголосый закадровый) (SoftBox)","update":"2020-01-24 12:11:53","iframe_src":"//7741.svetacdn.in/si4jsFRrtgrT/movie/35397"},{"id":35392,"title":"Бешеный","kp_id":"226056","imdb_id":"tt0485552","world_art_id":null,"type":"movie","add":"2020-01-23 15:34:08","orig_title":"Ya-soo","year":"2006-01-13","translations":["Авторский (одноголосый закадровый) (Кузнецов Сергей)"],"quality":"dvdrip","translation":"Авторский (одноголосый закадровый) (Кузнецов Сергей)","update":"2020-01-24 12:10:52","iframe_src":"//7741.svetacdn.in/si4jsFRrtgrT/movie/35392"},{"id":35390,"title":"Да, мадам‘ 92: Серьезный шок","kp_id":"104213","imdb_id":"tt0104071","world_art_id":null,"type":"movie","add":"2020-01-23 15:21:00","orig_title":"Mo lu kuang hua","year":"1993-09-23","translations":["Любительский (одноголосый закадровый)"],"quality":"vhs","translation":"Любительский (одноголосый закадровый)","update":"2020-01-24 12:05:53","iframe_src":"//7741.svetacdn.in/si4jsFRrtgrT/movie/35390"},{"id":35389,"title":"Смертельная дуэль","kp_id":"53132","imdb_id":"tt0076660","world_art_id":null,"type":"movie","add":"2020-01-23 15:16:06","orig_title":"San shao ye de jian","year":"1977-07-07","translations":["Любительский (одноголосый закадровый) (Береговых Виктор | Jet)"],"quality":"bd","translation":"Любительский (одноголосый закадровый) (Береговых Виктор | Jet)","update":"2020-01-24 12:04:48","iframe_src":"//7741.svetacdn.in/si4jsFRrtgrT/movie/35389"},{"id":35388,"title":"Машина убийства","kp_id":"77498","imdb_id":"tt0182260","world_art_id":null,"type":"movie","add":"2020-01-23 15:13:45","orig_title":"Shôrinji kenpô","year":"1976-01-01","translations":["Авторский (одноголосый закадровый) (Кузнецов Сергей)"],"quality":"bd","translation":"Авторский (одноголосый закадровый) (Кузнецов Сергей)","update":"2020-01-24 11:45:28","iframe_src":"//7741.svetacdn.in/si4jsFRrtgrT/movie/35388"},{"id":35387,"title":"Боец в стиле обезьяны","kp_id":"135440","imdb_id":"tt0079147","world_art_id":null,"type":"movie","add":"2020-01-23 15:11:19","orig_title":"Feng hou","year":"1979-10-05","translations":["Любительский (одноголосый закадровый)"],"quality":"dvdrip","translation":"Любительский (одноголосый закадровый)","update":"2020-01-24 11:30:03","iframe_src":"//7741.svetacdn.in/si4jsFRrtgrT/movie/35387"},{"id":35386,"title":"Меч к мечу","kp_id":"116295","imdb_id":"tt0063596","world_art_id":null,"type":"movie","add":"2020-01-23 15:08:38","orig_title":"Shen dao","year":"1968-08-23","translations":["Любительский (одноголосый закадровый)"],"quality":"hdrip","translation":"Любительский (одноголосый закадровый)","update":"2020-01-24 11:29:16","iframe_src":"//7741.svetacdn.in/si4jsFRrtgrT/movie/35386"},{"id":35385,"title":"Повелитель летающей гильотины","kp_id":"65163","imdb_id":"tt0072913","world_art_id":null,"type":"movie","add":"2020-01-23 14:16:54","orig_title":"Du bi quan wang da po xue di zi","year":"1976-04-24","translations":["Авторский (одноголосый закадровый) (Кузнецов Сергей)"],"quality":"dvdrip","translation":"Авторский (одноголосый закадровый) (Кузнецов Сергей)","update":"2020-01-24 11:28:18","iframe_src":"//7741.svetacdn.in/si4jsFRrtgrT/movie/35385"},{"id":35384,"title":"Однорукий боксер","kp_id":"116519","imdb_id":"tt0082298","world_art_id":null,"type":"movie","add":"2020-01-23 14:13:32","orig_title":"One Armed Swordsman Against Nine Killers","year":"1976-01-01","translations":["Авторский (одноголосый закадровый) (Дольский Андрей)"],"quality":"dvdrip","translation":"Авторский (одноголосый закадровый) (Дольский Андрей)","update":"2020-01-24 11:27:27","iframe_src":"//7741.svetacdn.in/si4jsFRrtgrT/movie/35384"},{"id":35383,"title":"Она и она","kp_id":null,"imdb_id":"tt3495926","world_art_id":null,"type":"movie","add":"2020-01-23 14:09:51","orig_title":"She and She","year":"2014-01-01","translations":["Любительский (многоголосый закадровый) (XDUB Dorama + Колобок)"],"quality":"webdl","translation":"Любительский (многоголосый закадровый) (XDUB Dorama + Колобок)","update":"2020-01-24 11:26:55","iframe_src":"//7741.svetacdn.in/si4jsFRrtgrT/movie/35383"},{"id":35382,"title":"Загадка","kp_id":"198645","imdb_id":"tt0180840","world_art_id":null,"type":"movie","add":"2020-01-23 14:00:58","orig_title":"Misty","year":"1996-12-24","translations":["Любительский (одноголосый закадровый) (Воротилин Олег)"],"quality":"dvdrip","translation":"Любительский (одноголосый закадровый) (Воротилин Олег)","update":"2020-01-24 11:14:44","iframe_src":"//7741.svetacdn.in/si4jsFRrtgrT/movie/35382"},{"id":35381,"title":"Битва монаха Шаолинь","kp_id":"390746","imdb_id":"tt0188784","world_art_id":null,"type":"movie","add":"2020-01-23 13:58:08","orig_title":"Shao Lin zu shi","year":"1977-11-19","translations":["Авторский (одноголосый закадровый) (Кузнецов Сергей)"],"quality":"dvdrip","translation":"Авторский (одноголосый закадровый) (Кузнецов Сергей)","update":"2020-01-24 11:12:02","iframe_src":"//7741.svetacdn.in/si4jsFRrtgrT/movie/35381"},{"id":35380,"title":"Треугольная дуэль","kp_id":"487846","imdb_id":"tt0202015","world_art_id":null,"type":"movie","add":"2020-01-23 13:52:43","orig_title":"Tie san jiao","year":"1972-11-18","translations":["Любительский (одноголосый закадровый) (Береговых Виктор | Jet)"],"quality":"dvdrip","translation":"Любительский (одноголосый закадровый) (Береговых Виктор | Jet)","update":"2020-01-24 11:08:17","iframe_src":"//7741.svetacdn.in/si4jsFRrtgrT/movie/35380"},{"id":35366,"title":"Мастер Шаолиня и ребёнок","kp_id":"228966","imdb_id":"tt0187040","world_art_id":null,"type":"movie","add":"2020-01-23 06:14:50","orig_title":"Tie bu jin ying","year":"1978-03-10","translations":["Любительский (одноголосый закадровый)"],"quality":"dvdrip","translation":"Любительский (одноголосый закадровый)","update":"2020-01-24 11:07:42","iframe_src":"//7741.svetacdn.in/si4jsFRrtgrT/movie/35366"},{"id":35364,"title":"История пьяного мастера","kp_id":"391347","imdb_id":"tt0201366","world_art_id":null,"type":"movie","add":"2020-01-23 06:08:59","orig_title":"Zui xia Su Qi Er","year":"1979-07-06","translations":["Любительский (одноголосый закадровый)"],"quality":"dvdrip","translation":"Любительский (одноголосый закадровый)","update":"2020-01-24 11:04:47","iframe_src":"//7741.svetacdn.in/si4jsFRrtgrT/movie/35364"}],"current_page":1368,"first_page_url":"https://videocdn.tv/api/short?limit=100&api_token=X6EwAUfE5M9xbo7y0Bp0aPf3uXxG2KLL&cache31368=31368&page=1","from":136701,"last_page":708,"last_page_url":"https://videocdn.tv/api/short?limit=100&api_token=X6EwAUfE5M9xbo7y0Bp0aPf3uXxG2KLL&cache31368=31368&page=708","next_page_url":null,"path":"https://videocdn.tv/api/short","per_page":100,"prev_page_url":"https://videocdn.tv/api/short?limit=100&api_token=X6EwAUfE5M9xbo7y0Bp0aPf3uXxG2KLL&cache31368=31368&page=1367","to":136720,"total":70707}