{"result":true,"data":[{"id":41381,"title":"2081","kp_id":"424392","imdb_id":"tt1282015","world_art_id":null,"type":"movie","add":"2020-06-25 06:28:33","orig_title":"2081","year":"2009-05-29","translations":["Любительский (одноголосый закадровый)"],"quality":"dvdrip","translation":"Любительский (одноголосый закадровый)","update":"2020-06-25 07:09:30","iframe_src":"//8543.svetacdn.in/71tsRs29n5tZ/movie/41381"},{"id":41375,"title":"Акхуни","kp_id":"1176405","imdb_id":"tt8747548","world_art_id":null,"type":"movie","add":"2020-06-25 05:05:15","orig_title":"Axone","year":"2019-10-02","translations":["Любительский (многоголосый закадровый) (Синема УС)"],"quality":"webdl","translation":"Любительский (многоголосый закадровый) (Синема УС)","update":"2020-06-25 08:00:02","iframe_src":"//8543.svetacdn.in/71tsRs29n5tZ/movie/41375"},{"id":41374,"title":"Беспокойство","kp_id":"965273","imdb_id":"tt5334076","world_art_id":null,"type":"movie","add":"2020-06-25 05:04:31","orig_title":"Kaygi","year":"2017-02-12","translations":["Любительский (многоголосый закадровый) (Синема УС)"],"quality":"bd","translation":"Любительский (многоголосый закадровый) (Синема УС)","update":"2020-06-25 07:59:26","iframe_src":"//8543.svetacdn.in/71tsRs29n5tZ/movie/41374"},{"id":41373,"title":"Проект \"Папа\"","kp_id":"1079438","imdb_id":"tt7243756","world_art_id":null,"type":"movie","add":"2020-06-25 05:03:35","orig_title":"Project Papa","year":"2018-04-20","translations":["Любительский (многоголосый закадровый) (Синема УС)"],"quality":"webdl","translation":"Любительский (многоголосый закадровый) (Синема УС)","update":"2020-06-25 08:01:08","iframe_src":"//8543.svetacdn.in/71tsRs29n5tZ/movie/41373"},{"id":41368,"title":"Инстинкт","kp_id":"1142474","imdb_id":"tt8386898","world_art_id":null,"type":"movie","add":"2020-06-24 12:54:30","orig_title":"Instinct","year":"2019-08-12","translations":["Любительский (многоголосый закадровый) (AlphaProject)"],"quality":"webdl","translation":"Любительский (многоголосый закадровый) (AlphaProject)","update":"2020-06-24 20:23:50","iframe_src":"//8543.svetacdn.in/71tsRs29n5tZ/movie/41368"},{"id":41367,"title":"Найти Время","kp_id":"1173825","imdb_id":"tt8636690","world_art_id":null,"type":"movie","add":"2020-06-24 12:53:05","orig_title":"Найти Время","year":"2020-05-13","translations":["Любительский (многоголосый закадровый) (Синема УС)"],"quality":"webdl","translation":"Любительский (многоголосый закадровый) (Синема УС)","update":"2020-06-24 20:24:26","iframe_src":"//8543.svetacdn.in/71tsRs29n5tZ/movie/41367"},{"id":41365,"title":"Как приручить зомби","kp_id":"667968","imdb_id":"tt2243469","world_art_id":null,"type":"movie","add":"2020-06-24 07:54:56","orig_title":"Papá, soy una zombi","year":"2011-11-25","translations":["Профессиональный (многоголосый закадровый)"],"quality":"dvdrip","translation":"Профессиональный (многоголосый закадровый)","update":"2020-06-25 06:11:49","iframe_src":"//8543.svetacdn.in/71tsRs29n5tZ/movie/41365"},{"id":41364,"title":"Элиз","kp_id":"1238495","imdb_id":"tt9765480","world_art_id":null,"type":"movie","add":"2020-06-23 21:40:26","orig_title":"Elise","year":"2019-02-06","translations":["Любительский (многоголосый закадровый) (Синема УС)"],"quality":"webdl","translation":"Любительский (многоголосый закадровый) (Синема УС)","update":"2020-06-25 06:15:04","iframe_src":"//8543.svetacdn.in/71tsRs29n5tZ/movie/41364"},{"id":41363,"title":"Голодарь","kp_id":"954115","imdb_id":"tt5274424","world_art_id":null,"type":"movie","add":"2020-06-23 21:35:30","orig_title":"Danjiki geinin","year":"2016-02-27","translations":["Любительский (двухголосый закадровый) (Колобок)"],"quality":"webdl","translation":"Любительский (двухголосый закадровый) (Колобок)","update":"2020-06-25 06:20:28","iframe_src":"//8543.svetacdn.in/71tsRs29n5tZ/movie/41363"},{"id":41362,"title":"Женщина моего мужа","kp_id":"1104142","imdb_id":"tt7524558","world_art_id":null,"type":"movie","add":"2020-06-23 20:19:49","orig_title":"A Mulher do Meu Marido","year":"2019-08-29","translations":["Любительский (многоголосый закадровый) (Синема УС)"],"quality":"webdl","translation":"Любительский (многоголосый закадровый) (Синема УС)","update":"2020-06-24 13:59:36","iframe_src":"//8543.svetacdn.in/71tsRs29n5tZ/movie/41362"},{"id":41361,"title":"Антигона","kp_id":"1265391","imdb_id":"tt10260042","world_art_id":null,"type":"movie","add":"2020-06-23 20:18:29","orig_title":"Antigone","year":"2019-09-09","translations":["Любительский (многоголосый закадровый) (Синема УС)"],"quality":"webdl","translation":"Любительский (многоголосый закадровый) (Синема УС)","update":"2020-06-24 13:58:24","iframe_src":"//8543.svetacdn.in/71tsRs29n5tZ/movie/41361"},{"id":41355,"title":"Папочкины проблемы","kp_id":"1027312","imdb_id":"tt6462482","world_art_id":null,"type":"movie","add":"2020-06-23 20:11:30","orig_title":"Daddy Issues","year":"2020-06-23","translations":["Любительский (многоголосый закадровый) (@MUZOBOZ@)"],"quality":"webdl","translation":"Любительский (многоголосый закадровый) (@MUZOBOZ@)","update":"2020-06-24 20:19:23","iframe_src":"//8543.svetacdn.in/71tsRs29n5tZ/movie/41355"},{"id":41326,"title":"Парень и зелёная ива","kp_id":"1261596","imdb_id":"tt10402898","world_art_id":null,"type":"movie","add":"2020-06-21 21:20:09","orig_title":"A Boy and Sungreen","year":"2019-05-29","translations":["Любительский (многоголосый закадровый) (Синема УС)"],"quality":"webdl","translation":"Любительский (многоголосый закадровый) (Синема УС)","update":"2020-06-25 06:13:42","iframe_src":"//8543.svetacdn.in/71tsRs29n5tZ/movie/41326"},{"id":41325,"title":"Маленькая принцесса","kp_id":"1111990","imdb_id":"tt11414492","world_art_id":null,"type":"movie","add":"2020-06-21 20:15:12","orig_title":"A Little Princess","year":"2019-12-04","translations":["Любительский (двухголосый закадровый) (Колобок)"],"quality":"webdl","translation":"Любительский (двухголосый закадровый) (Колобок)","update":"2020-06-25 06:24:42","iframe_src":"//8543.svetacdn.in/71tsRs29n5tZ/movie/41325"},{"id":41274,"title":"Гроб из города пяти драконов","kp_id":null,"imdb_id":"tt12532444","world_art_id":null,"type":"movie","add":"2020-06-18 20:42:26","orig_title":"Wu long zhen guan chuan","year":"2020-05-15","translations":["Любительский (двухголосый закадровый) (Колобок)"],"quality":"webdl","translation":"Любительский (двухголосый закадровый) (Колобок)","update":"2020-06-25 06:10:24","iframe_src":"//8543.svetacdn.in/71tsRs29n5tZ/movie/41274"},{"id":36295,"title":"Снова в школу","kp_id":"1299161","imdb_id":"tt10805432","world_art_id":null,"type":"movie","add":"2020-02-15 10:03:18","orig_title":"Fan xiao","year":"2019-09-20","translations":["Любительский (многоголосый закадровый) (Синема УС)","Любительский (двухголосый закадровый) (Колобок)"],"quality":"webdl","translation":"Любительский (многоголосый закадровый) (Синема УС)","update":"2020-06-25 06:17:38","iframe_src":"//8543.svetacdn.in/71tsRs29n5tZ/movie/36295"},{"id":35936,"title":"37 секунд","kp_id":"1010539","imdb_id":"tt6156138","world_art_id":null,"type":"movie","add":"2020-02-08 23:09:22","orig_title":"37 sekanzu","year":"2020-02-07","translations":["Любительский (многоголосый закадровый) (Синема УС)","Любительский (одноголосый закадровый) (Береговых Виктор | Jet)","Любительский (многоголосый закадровый) (Bonsai Studio)"],"quality":"webdl","translation":"Любительский (многоголосый закадровый) (Синема УС)","update":"2020-06-25 06:16:20","iframe_src":"//8543.svetacdn.in/71tsRs29n5tZ/movie/35936"},{"id":15398,"title":"Жандарм на отдыхе","kp_id":"94584","imdb_id":"tt0065769","world_art_id":null,"type":"movie","add":"2018-03-05 21:01:48","orig_title":"Le gendarme en balade","year":"1970-10-28","translations":["Профессиональный (многоголосый закадровый) (РенТВ)","Профессиональный (многоголосый закадровый) (НТВ)","Авторский (одноголосый закадровый) (Володарский Леонид)","Профессиональный (многоголосый закадровый) (НТВ)","Профессиональный (многоголосый закадровый) (Первый канал | ОРТ)","Профессиональный (многоголосый закадровый) (Останкино)","Профессиональный (многоголосый закадровый) (РенТВ)"],"quality":"bd","translation":"Профессиональный (многоголосый закадровый) (РенТВ)","update":"2020-06-25 06:32:19","iframe_src":"//8543.svetacdn.in/71tsRs29n5tZ/movie/15398"},{"id":15397,"title":"Жандарм из Сен-Тропе","kp_id":"57308","imdb_id":"tt0058135","world_art_id":null,"type":"movie","add":"2018-03-05 20:59:56","orig_title":"Le gendarme de Saint-Tropez","year":"1964-09-09","translations":["Профессиональный (многоголосый закадровый) (РенТВ)","Авторский (одноголосый закадровый) (Визгунов Сергей)","Авторский (одноголосый закадровый) (Володарский Леонид)","Профессиональный (многоголосый закадровый) (НТВ)","Профессиональный (многоголосый закадровый) (Первый канал | ОРТ)","Профессиональный (многоголосый закадровый) (Останкино)","Профессиональный (многоголосый закадровый) (РенТВ)"],"quality":"bd","translation":"Профессиональный (многоголосый закадровый) (РенТВ)","update":"2020-06-25 06:42:21","iframe_src":"//8543.svetacdn.in/71tsRs29n5tZ/movie/15397"},{"id":15396,"title":"Жандарм в Нью-Йорке","kp_id":"61803","imdb_id":"tt0060450","world_art_id":null,"type":"movie","add":"2018-03-05 20:57:43","orig_title":"Le gendarme à New York","year":"1965-10-29","translations":["Профессиональный (многоголосый закадровый) (РенТВ)","Авторский (одноголосый закадровый) (Визгунов Сергей)","Авторский (одноголосый закадровый) (Володарский Леонид)","Полное дублирование (Мосфильм)","Профессиональный (многоголосый закадровый) (НТВ)","Профессиональный (многоголосый закадровый) (Останкино)","Профессиональный (многоголосый закадровый) (РенТВ)","Профессиональный (многоголосый закадровый) (ТНТ)"],"quality":"bd","translation":"Профессиональный (многоголосый закадровый) (РенТВ)","update":"2020-06-25 06:56:22","iframe_src":"//8543.svetacdn.in/71tsRs29n5tZ/movie/15396"},{"id":1151,"title":"Волчье солнце","kp_id":"806717","imdb_id":"tt3607806","world_art_id":null,"type":"serial","add":"2017-03-30 05:51:17","orig_title":"Volche solntse","year":"2014-11-10","translations":["Оригинальная дорожка"],"seasons_count":1,"episodes_count":12,"episodes":12,"update":"2017-03-30 12:05:58","iframe_src":"//8543.svetacdn.in/71tsRs29n5tZ/tv-series/1151"},{"id":1147,"title":"Скуби-Ду! Динамит","kp_id":"229713","imdb_id":"tt0074053","world_art_id":null,"type":"serial","add":"2017-03-28 14:04:24","orig_title":"The Scooby-Doo/Dynomutt Hour","year":"1976-09-11","translations":["Полное дублирование"],"seasons_count":3,"episodes_count":40,"episodes":16,"update":"2017-03-29 12:31:19","iframe_src":"//8543.svetacdn.in/71tsRs29n5tZ/tv-series/1147"},{"id":1145,"title":"Молодой","kp_id":"1040619","imdb_id":null,"world_art_id":null,"type":"serial","add":"2017-03-28 08:07:18","orig_title":"Молодой","year":"2017-03-26","translations":["Оригинальная дорожка"],"seasons_count":1,"episodes_count":2,"episodes":2,"update":"2017-03-28 09:20:37","iframe_src":"//8543.svetacdn.in/71tsRs29n5tZ/tv-series/1145"},{"id":1143,"title":"Парфюмерша 3","kp_id":"1008636","imdb_id":null,"world_art_id":null,"type":"serial","add":"2017-03-26 15:47:53","orig_title":"Парфюмерша 3","year":"2017-03-25","translations":["Оригинальная дорожка"],"seasons_count":1,"episodes_count":4,"episodes":4,"update":"2017-03-27 09:21:56","iframe_src":"//8543.svetacdn.in/71tsRs29n5tZ/tv-series/1143"},{"id":1142,"title":"Мата Хари","kp_id":"843049","imdb_id":"tt4110246","world_art_id":null,"type":"serial","add":"2017-03-24 05:21:37","orig_title":"Mata Hari","year":"2017-01-21","translations":["Оригинальная дорожка"],"seasons_count":1,"episodes_count":12,"episodes":12,"update":"2017-04-03 10:13:38","iframe_src":"//8543.svetacdn.in/71tsRs29n5tZ/tv-series/1142"},{"id":1141,"title":"Гаро: Сияющий во тьме","kp_id":"796768","imdb_id":"tt4000116","world_art_id":null,"type":"serial","add":"2017-03-23 11:47:11","orig_title":"Garo: Yami o Terasu Mono","year":"2013-04-05","translations":["Любительский (двухголосый закадровый) (DeadSno & den904)"],"seasons_count":1,"episodes_count":24,"episodes":24,"update":"2017-03-28 12:05:37","iframe_src":"//8543.svetacdn.in/71tsRs29n5tZ/tv-series/1141"},{"id":1139,"title":"Сердце пирата","kp_id":"271782","imdb_id":"tt0489564","world_art_id":null,"type":"serial","add":"2017-03-23 09:38:12","orig_title":"Störtebeker","year":"2006-04-15","translations":["Профессиональный (многоголосый закадровый)"],"seasons_count":1,"episodes_count":2,"episodes":2,"update":"2017-03-24 15:09:25","iframe_src":"//8543.svetacdn.in/71tsRs29n5tZ/tv-series/1139"},{"id":1138,"title":"Bсе началось в Харбине","kp_id":"731699","imdb_id":"tt2878764","world_art_id":null,"type":"serial","add":"2017-03-23 08:31:58","orig_title":"Vse nachalos v Kharbine","year":"2013-05-06","translations":["Оригинальная дорожка"],"seasons_count":1,"episodes_count":8,"episodes":8,"update":"2017-03-23 17:24:13","iframe_src":"//8543.svetacdn.in/71tsRs29n5tZ/tv-series/1138"},{"id":1137,"title":"Подстава","kp_id":"684923","imdb_id":null,"world_art_id":null,"type":"serial","add":"2017-03-23 08:29:47","orig_title":"Подстава","year":"2012-06-16","translations":["Оригинальная дорожка"],"seasons_count":1,"episodes_count":2,"episodes":2,"update":"2017-03-24 15:11:59","iframe_src":"//8543.svetacdn.in/71tsRs29n5tZ/tv-series/1137"},{"id":1136,"title":"Печали – радости Надежды","kp_id":"592365","imdb_id":null,"world_art_id":null,"type":"serial","add":"2017-03-23 08:27:51","orig_title":"Печали – радости Надежды","year":"2011-01-01","translations":["Оригинальная дорожка"],"seasons_count":1,"episodes_count":4,"episodes":4,"update":"2017-03-24 15:07:31","iframe_src":"//8543.svetacdn.in/71tsRs29n5tZ/tv-series/1136"},{"id":1134,"title":"Атлантика: Самый необузданный океан на Земле","kp_id":"977727","imdb_id":"tt4903642","world_art_id":null,"type":"serial","add":"2017-03-22 12:13:51","orig_title":"Atlantic: The Wildest Ocean on Earth","year":"2015-08-31","translations":["Профессиональный (многоголосый закадровый) (AlexFilm)"],"seasons_count":1,"episodes_count":3,"episodes":3,"update":"2017-03-27 09:15:22","iframe_src":"//8543.svetacdn.in/71tsRs29n5tZ/tv-series/1134"},{"id":1132,"title":"Дом без выхода","kp_id":"494437","imdb_id":null,"world_art_id":null,"type":"serial","add":"2017-03-21 09:32:43","orig_title":"Дом без выхода","year":"2010-01-20","translations":["Оригинальная дорожка"],"seasons_count":1,"episodes_count":1,"episodes":1,"update":"2017-03-22 16:16:12","iframe_src":"//8543.svetacdn.in/71tsRs29n5tZ/tv-series/1132"},{"id":1129,"title":"Охота на Берию","kp_id":"425958","imdb_id":"tt2839532","world_art_id":null,"type":"serial","add":"2017-03-21 08:49:59","orig_title":"Aleksandrovskiy sad 3. Okhota na Beriyu","year":"2008-03-05","translations":["Оригинальная дорожка"],"seasons_count":1,"episodes_count":9,"episodes":9,"update":"2017-03-22 06:07:09","iframe_src":"//8543.svetacdn.in/71tsRs29n5tZ/tv-series/1129"},{"id":1128,"title":"Хиллтоп. Больница на Холме","kp_id":"601838","imdb_id":"tt0215418","world_art_id":null,"type":"serial","add":"2017-03-21 08:44:46","orig_title":"Hilltop Hospital","year":"1999-09-27","translations":["Полное дублирование"],"seasons_count":1,"episodes_count":52,"episodes":52,"update":"2017-03-23 13:15:59","iframe_src":"//8543.svetacdn.in/71tsRs29n5tZ/tv-series/1128"},{"id":1115,"title":"Не вместе","kp_id":"1039249","imdb_id":null,"world_art_id":null,"type":"serial","add":"2017-03-15 07:17:54","orig_title":"Не вместе","year":"2017-03-13","translations":["Оригинальная дорожка"],"seasons_count":1,"episodes_count":20,"episodes":20,"update":"2017-03-27 11:23:39","iframe_src":"//8543.svetacdn.in/71tsRs29n5tZ/tv-series/1115"},{"id":1113,"title":"Королева красоты","kp_id":"922200","imdb_id":null,"world_art_id":null,"type":"serial","add":"2017-03-15 07:05:33","orig_title":"Королева красоты","year":"2015-10-26","translations":["Оригинальная дорожка"],"seasons_count":1,"episodes_count":12,"episodes":12,"update":"2017-03-22 16:17:03","iframe_src":"//8543.svetacdn.in/71tsRs29n5tZ/tv-series/1113"},{"id":958,"title":"Майор и магия","kp_id":"958617","imdb_id":null,"world_art_id":null,"type":"serial","add":"2017-01-31 08:22:07","orig_title":"Майор и магия","year":"2017-01-30","translations":["Оригинальная дорожка"],"seasons_count":1,"episodes_count":32,"episodes":32,"update":"2017-03-30 14:35:57","iframe_src":"//8543.svetacdn.in/71tsRs29n5tZ/tv-series/958"},{"id":863,"title":"Сонная Лощина","kp_id":"733888","imdb_id":"tt2647544","world_art_id":null,"type":"serial","add":"2017-01-10 10:15:22","orig_title":"Sleepy Hollow","year":"2013-09-16","translations":["Профессиональный (многоголосый закадровый) (LostFilm)"],"seasons_count":4,"episodes_count":62,"episodes":13,"update":"2017-04-03 07:31:03","iframe_src":"//8543.svetacdn.in/71tsRs29n5tZ/tv-series/863"},{"id":62,"title":"Закон каменных джунглей","kp_id":"694406","imdb_id":"tt4482996","world_art_id":null,"type":"serial","add":"2016-04-25 17:59:46","orig_title":"Zakon kamennykh dzhungley","year":"2015-03-16","translations":["Оригинальная дорожка"],"seasons_count":2,"episodes_count":16,"episodes":8,"update":"2017-03-31 11:43:02","iframe_src":"//8543.svetacdn.in/71tsRs29n5tZ/tv-series/62"},{"id":36,"title":"Крыша мира","kp_id":"923146","imdb_id":null,"world_art_id":null,"type":"serial","add":"2016-03-29 21:30:55","orig_title":"Крыша мира","year":"2015-03-28","translations":["Оригинальная дорожка"],"seasons_count":2,"episodes_count":38,"episodes":20,"update":"2017-03-31 09:00:17","iframe_src":"//8543.svetacdn.in/71tsRs29n5tZ/tv-series/36"}],"current_page":467,"first_page_url":"https://videocdn.tv/api/short?limit=100&api_token=EnbO9h8pv1VyjbCJhg0WM9nG259n7mtz&cache3467=3467&page=1","from":46601,"last_page":602,"last_page_url":"https://videocdn.tv/api/short?limit=100&api_token=EnbO9h8pv1VyjbCJhg0WM9nG259n7mtz&cache3467=3467&page=602","next_page_url":"https://videocdn.tv/api/short?limit=100&api_token=EnbO9h8pv1VyjbCJhg0WM9nG259n7mtz&cache3467=3467&page=468","path":"https://videocdn.tv/api/short","per_page":100,"prev_page_url":"https://videocdn.tv/api/short?limit=100&api_token=EnbO9h8pv1VyjbCJhg0WM9nG259n7mtz&cache3467=3467&page=466","to":46640,"total":60177}