{"result":true,"data":[{"id":47611,"title":"Среди коршунов","kp_id":"167689","imdb_id":"tt0058709","world_art_id":null,"type":"movie","add":"2021-02-02 15:25:01","orig_title":"Unter Geiern","year":"1964-12-08","translations":["Профессиональный (двухголосый закадровый)"],"quality":"bd","translation":"Профессиональный (двухголосый закадровый)","update":"2021-02-03 05:04:39","iframe_src":"//5091.svetacdn.in/71tsRs29n5tZ/movie/47611"},{"id":47610,"title":"Кто стрелял в шерифа? История Боба Марли","kp_id":"4299203","imdb_id":"tt9046548","world_art_id":null,"type":"movie","add":"2021-02-02 15:02:56","orig_title":"ReMastered: Who Shot the Sheriff?","year":"2018-10-12","translations":["Original (English)"],"quality":"webdl","translation":"Original (English)","update":"2021-02-03 05:00:10","iframe_src":"//5091.svetacdn.in/71tsRs29n5tZ/movie/47610"},{"id":47540,"title":"Где ты, любовь?","kp_id":"44479","imdb_id":"tt0173875","world_art_id":null,"type":"movie","add":"2021-01-31 12:57:40","orig_title":"Gde ty, lyubov?","year":"1981-07-06","translations":["Оригинальная дорожка"],"quality":"tv","translation":"Оригинальная дорожка","update":"2021-02-03 07:16:38","iframe_src":"//5091.svetacdn.in/71tsRs29n5tZ/movie/47540"},{"id":47539,"title":"Баллада о комиссаре","kp_id":"46018","imdb_id":"tt0306508","world_art_id":null,"type":"movie","add":"2021-01-31 12:55:33","orig_title":"Ballada o kommisare","year":"1967-11-10","translations":["Оригинальная дорожка"],"quality":"sat","translation":"Оригинальная дорожка","update":"2021-02-03 07:15:05","iframe_src":"//5091.svetacdn.in/71tsRs29n5tZ/movie/47539"},{"id":47538,"title":"А теперь суди...","kp_id":"43391","imdb_id":"tt0290390","world_art_id":null,"type":"movie","add":"2021-01-31 12:51:43","orig_title":"A teper sudi...","year":"1967-09-11","translations":["Оригинальная дорожка"],"quality":"sat","translation":"Оригинальная дорожка","update":"2021-02-03 06:50:14","iframe_src":"//5091.svetacdn.in/71tsRs29n5tZ/movie/47538"},{"id":47509,"title":"Палмер","kp_id":"1202296","imdb_id":"tt6857376","world_art_id":null,"type":"movie","add":"2021-01-29 08:16:00","orig_title":"Palmer","year":"2021-01-29","translations":["Original (English)","Любительский (двухголосый закадровый) (OnisFilms)","Полное дублирование","Профессиональный (многоголосый закадровый) (HDrezka Studio)","Профессиональный (многоголосый закадровый) (HDrezka Studio 18+)"],"quality":"webdl","translation":"Original (English)","update":"2021-02-03 06:34:06","iframe_src":"//5091.svetacdn.in/71tsRs29n5tZ/movie/47509"},{"id":47502,"title":"Северная рапсодия","kp_id":"43708","imdb_id":"tt0072141","world_art_id":null,"type":"movie","add":"2021-01-28 18:39:53","orig_title":"Severnaya rapsodiya","year":"1974-11-04","translations":["Оригинальная дорожка"],"quality":"dvdscr","translation":"Оригинальная дорожка","update":"2021-02-03 06:49:19","iframe_src":"//5091.svetacdn.in/71tsRs29n5tZ/movie/47502"},{"id":47501,"title":"Защита диплома","kp_id":"1246011","imdb_id":"tt9844814","world_art_id":null,"type":"movie","add":"2021-01-28 18:34:42","orig_title":"Diplom isi","year":"1979-01-01","translations":["Полное дублирование"],"quality":"vhs","translation":"Полное дублирование","update":"2021-02-03 06:48:27","iframe_src":"//5091.svetacdn.in/71tsRs29n5tZ/movie/47501"},{"id":47500,"title":"Гром не грянет","kp_id":"629733","imdb_id":null,"world_art_id":null,"type":"movie","add":"2021-01-28 18:17:35","orig_title":"Гром не грянет","year":"1988-01-01","translations":["Оригинальная дорожка"],"quality":"dvdrip","translation":"Оригинальная дорожка","update":"2021-02-03 06:47:09","iframe_src":"//5091.svetacdn.in/71tsRs29n5tZ/movie/47500"},{"id":47499,"title":"Бесстрашный атаман","kp_id":"223286","imdb_id":"tt0268183","world_art_id":null,"type":"movie","add":"2021-01-28 18:07:59","orig_title":"Besstrashnyy ataman","year":"1973-12-30","translations":["Оригинальная дорожка"],"quality":"sat","translation":"Оригинальная дорожка","update":"2021-02-03 06:45:24","iframe_src":"//5091.svetacdn.in/71tsRs29n5tZ/movie/47499"},{"id":47498,"title":"Хроника одного дня","kp_id":"224227","imdb_id":"tt0471965","world_art_id":null,"type":"movie","add":"2021-01-28 17:51:56","orig_title":"Vienos dienos kronika","year":"1963-09-07","translations":["Полное дублирование"],"quality":"sat","translation":"Полное дублирование","update":"2021-02-03 06:44:04","iframe_src":"//5091.svetacdn.in/71tsRs29n5tZ/movie/47498"},{"id":47496,"title":"Шах королеве бриллиантов","kp_id":"43716","imdb_id":"tt0314655","world_art_id":null,"type":"movie","add":"2021-01-28 17:44:59","orig_title":"Shakh koroleve brilliantov","year":"1973-10-29","translations":["Оригинальная дорожка"],"quality":"dvdrip","translation":"Оригинальная дорожка","update":"2021-02-03 06:41:25","iframe_src":"//5091.svetacdn.in/71tsRs29n5tZ/movie/47496"},{"id":47495,"title":"Ноктюрн","kp_id":"453163","imdb_id":"tt1957985","world_art_id":null,"type":"movie","add":"2021-01-28 17:40:10","orig_title":"Noktirne","year":"1966-11-21","translations":["Оригинальная дорожка"],"quality":"sat","translation":"Оригинальная дорожка","update":"2021-02-03 06:40:30","iframe_src":"//5091.svetacdn.in/71tsRs29n5tZ/movie/47495"},{"id":47461,"title":"Бревно","kp_id":"613600","imdb_id":null,"world_art_id":null,"type":"movie","add":"2021-01-27 17:59:26","orig_title":"Бревно","year":"1988-01-01","translations":["Оригинальная дорожка"],"quality":"sat","translation":"Оригинальная дорожка","update":"2021-02-03 06:39:32","iframe_src":"//5091.svetacdn.in/71tsRs29n5tZ/movie/47461"},{"id":47457,"title":"Соучастие в убийстве","kp_id":"43929","imdb_id":"tt0090051","world_art_id":null,"type":"movie","add":"2021-01-27 17:50:54","orig_title":"Souchastie v ubiystve","year":"1986-05-12","translations":["Оригинальная дорожка"],"quality":"iptv","translation":"Оригинальная дорожка","update":"2021-02-03 06:38:46","iframe_src":"//5091.svetacdn.in/71tsRs29n5tZ/movie/47457"},{"id":47456,"title":"Жираф-шериф","kp_id":"418657","imdb_id":null,"world_art_id":null,"type":"movie","add":"2021-01-27 17:47:44","orig_title":"Жираф-шериф","year":"1991-01-01","translations":["Оригинальная дорожка"],"quality":"webdl","translation":"Оригинальная дорожка","update":"2021-02-03 06:37:57","iframe_src":"//5091.svetacdn.in/71tsRs29n5tZ/movie/47456"},{"id":47455,"title":"Берегите электроэнергию","kp_id":"818660","imdb_id":null,"world_art_id":null,"type":"movie","add":"2021-01-27 17:41:09","orig_title":"Берегите электроэнергию","year":"1986-01-01","translations":["Оригинальная дорожка"],"quality":"sat","translation":"Оригинальная дорожка","update":"2021-02-03 06:37:04","iframe_src":"//5091.svetacdn.in/71tsRs29n5tZ/movie/47455"},{"id":47354,"title":"Кровные братья","kp_id":"1141078","imdb_id":"tt8368294","world_art_id":null,"type":"movie","add":"2021-01-24 17:09:32","orig_title":"Brothers by Blood","year":"2020-09-08","translations":["Любительский (многоголосый закадровый) (@MUZOBOZ@)","Original (English)"],"quality":"webdl","translation":"Любительский (многоголосый закадровый) (@MUZOBOZ@)","update":"2021-02-03 04:58:39","iframe_src":"//5091.svetacdn.in/71tsRs29n5tZ/movie/47354"},{"id":25807,"title":"Сувенир для прокурора","kp_id":"471528","imdb_id":"tt5752450","world_art_id":null,"type":"movie","add":"2019-05-01 20:21:29","orig_title":"Suvenir dlya prokurora","year":"1989-01-01","translations":["Оригинальная дорожка"],"quality":"hdtv","translation":"Оригинальная дорожка","update":"2021-02-03 06:42:50","iframe_src":"//5091.svetacdn.in/71tsRs29n5tZ/movie/25807"},{"id":17886,"title":"Восхождение","kp_id":"7765","imdb_id":"tt0075404","world_art_id":null,"type":"movie","add":"2018-07-25 07:38:28","orig_title":"Voskhozhdenie","year":"1977-09-15","translations":["Оригинальная дорожка"],"quality":"bd","translation":"Оригинальная дорожка","update":"2021-02-03 06:44:43","iframe_src":"//5091.svetacdn.in/71tsRs29n5tZ/movie/17886"},{"id":2812,"title":"Знакомство","kp_id":"1008317","imdb_id":null,"world_art_id":null,"type":"serial","add":"2018-06-14 04:57:21","orig_title":"Знакомство","year":"2018-06-12","translations":["Оригинальная дорожка"],"seasons_count":1,"episodes_count":2,"episodes":2,"update":"2018-06-14 07:14:14","iframe_src":"//5091.svetacdn.in/71tsRs29n5tZ/tv-series/2812"},{"id":2807,"title":"Женщины","kp_id":"1114907","imdb_id":null,"world_art_id":null,"type":"serial","add":"2018-06-13 06:56:27","orig_title":"Женщины","year":"2018-03-25","translations":["Оригинальная дорожка"],"seasons_count":1,"episodes_count":2,"episodes":2,"update":"2018-06-14 04:57:53","iframe_src":"//5091.svetacdn.in/71tsRs29n5tZ/tv-series/2807"},{"id":2803,"title":"Ты сводишь меня с ума!","kp_id":"1118106","imdb_id":"tt8333254","world_art_id":null,"type":"serial","add":"2018-06-13 06:01:05","orig_title":"Michigetda, Neottaeme!","year":"2018-05-07","translations":["Любительский (двухголосый закадровый) (АрхиТеатр)"],"seasons_count":1,"episodes_count":4,"episodes":4,"update":"2018-06-14 05:21:07","iframe_src":"//5091.svetacdn.in/71tsRs29n5tZ/tv-series/2803"},{"id":2801,"title":"Ещё 15 минут славы","kp_id":null,"imdb_id":"tt5512360","world_art_id":null,"type":"serial","add":"2018-06-12 19:24:31","orig_title":"The Next 15","year":"2016-02-10","translations":["Любительский (двухголосый закадровый) (GoldTeam)"],"seasons_count":1,"episodes_count":10,"episodes":10,"update":"2018-06-14 11:38:44","iframe_src":"//5091.svetacdn.in/71tsRs29n5tZ/tv-series/2801"},{"id":2799,"title":"Дом игр","kp_id":"744541","imdb_id":"tt2750182","world_art_id":null,"type":"serial","add":"2018-06-12 19:05:57","orig_title":"Playing House","year":"2014-04-29","translations":["Профессиональный (многоголосый закадровый) (ViruseProject)","Профессиональный (многоголосый закадровый) (ShowJet)"],"seasons_count":3,"episodes_count":26,"episodes":8,"update":"2018-06-14 12:01:13","iframe_src":"//5091.svetacdn.in/71tsRs29n5tZ/tv-series/2799"},{"id":2796,"title":"Не твоё тело","kp_id":"838618","imdb_id":"tt2208200","world_art_id":null,"type":"serial","add":"2018-06-11 16:36:45","orig_title":"Es kommt noch dicker","year":"2012-09-03","translations":["Профессиональный (многоголосый закадровый)"],"seasons_count":1,"episodes_count":7,"episodes":7,"update":"2018-06-14 11:02:25","iframe_src":"//5091.svetacdn.in/71tsRs29n5tZ/tv-series/2796"},{"id":2795,"title":"CSI: Киберпространство","kp_id":"840541","imdb_id":"tt3560060","world_art_id":null,"type":"serial","add":"2018-06-11 16:23:24","orig_title":"CSI: Cyber","year":"2015-03-04","translations":["Любительский (двухголосый закадровый) (Hamster Studio)"],"seasons_count":2,"episodes_count":31,"episodes":18,"update":"2018-06-14 12:00:24","iframe_src":"//5091.svetacdn.in/71tsRs29n5tZ/tv-series/2795"},{"id":2794,"title":"Фальсификация","kp_id":"789972","imdb_id":"tt3127020","world_art_id":null,"type":"serial","add":"2018-06-11 15:12:19","orig_title":"Faking It","year":"2014-09-07","translations":["Любительский (многоголосый закадровый) (Flux-Team)"],"seasons_count":3,"episodes_count":38,"episodes":10,"update":"2018-06-14 11:49:55","iframe_src":"//5091.svetacdn.in/71tsRs29n5tZ/tv-series/2794"},{"id":2787,"title":"Каменская","kp_id":"94331","imdb_id":"tt0317803","world_art_id":null,"type":"serial","add":"2018-06-10 07:28:17","orig_title":"Kamenskaya: Stechenie obstoyatelstv","year":"2000-01-21","translations":["Оригинальная дорожка"],"seasons_count":1,"episodes_count":16,"episodes":16,"update":"2018-06-14 10:21:07","iframe_src":"//5091.svetacdn.in/71tsRs29n5tZ/tv-series/2787"},{"id":2786,"title":"Бегущая от любви","kp_id":"1046966","imdb_id":null,"world_art_id":null,"type":"serial","add":"2018-06-10 07:19:09","orig_title":"Бегущая от любви","year":"2017-10-09","translations":["Оригинальная дорожка"],"seasons_count":1,"episodes_count":30,"episodes":30,"update":"2018-06-15 07:47:31","iframe_src":"//5091.svetacdn.in/71tsRs29n5tZ/tv-series/2786"},{"id":2779,"title":"Новый муж","kp_id":"1112627","imdb_id":null,"world_art_id":null,"type":"serial","add":"2018-06-10 06:57:15","orig_title":"Новый муж","year":"2018-03-10","translations":["Оригинальная дорожка"],"seasons_count":1,"episodes_count":2,"episodes":2,"update":"2018-06-15 11:49:24","iframe_src":"//5091.svetacdn.in/71tsRs29n5tZ/tv-series/2779"},{"id":2778,"title":"Мои дорогие","kp_id":"1111706","imdb_id":null,"world_art_id":null,"type":"serial","add":"2018-06-10 06:54:30","orig_title":"Мои дорогие","year":"2018-03-04","translations":["Оригинальная дорожка"],"seasons_count":1,"episodes_count":2,"episodes":2,"update":"2018-06-15 11:47:26","iframe_src":"//5091.svetacdn.in/71tsRs29n5tZ/tv-series/2778"},{"id":2777,"title":"Держи меня за руку","kp_id":"1047843","imdb_id":null,"world_art_id":null,"type":"serial","add":"2018-06-10 06:51:53","orig_title":"Держи меня за руку","year":"2018-02-11","translations":["Оригинальная дорожка"],"seasons_count":1,"episodes_count":2,"episodes":2,"update":"2018-06-14 07:32:05","iframe_src":"//5091.svetacdn.in/71tsRs29n5tZ/tv-series/2777"},{"id":2765,"title":"Черный цветок","kp_id":"972212","imdb_id":null,"world_art_id":null,"type":"serial","add":"2018-06-07 13:13:13","orig_title":"Чорна квитка","year":"2017-06-11","translations":["Оригинальная дорожка"],"seasons_count":1,"episodes_count":4,"episodes":4,"update":"2018-06-14 07:27:26","iframe_src":"//5091.svetacdn.in/71tsRs29n5tZ/tv-series/2765"},{"id":2764,"title":"Беглец","kp_id":"1038538","imdb_id":null,"world_art_id":null,"type":"serial","add":"2018-06-07 13:09:33","orig_title":"Беглец","year":"2017-03-12","translations":["Оригинальная дорожка"],"seasons_count":1,"episodes_count":2,"episodes":2,"update":"2018-06-14 07:19:17","iframe_src":"//5091.svetacdn.in/71tsRs29n5tZ/tv-series/2764"},{"id":2763,"title":"Идеальный враг","kp_id":"1044376","imdb_id":null,"world_art_id":null,"type":"serial","add":"2018-06-07 13:03:45","orig_title":"Идеальный враг","year":"2017-11-27","translations":["Оригинальная дорожка"],"seasons_count":1,"episodes_count":16,"episodes":16,"update":"2018-06-14 06:37:44","iframe_src":"//5091.svetacdn.in/71tsRs29n5tZ/tv-series/2763"},{"id":2762,"title":"Гастролеры","kp_id":"861563","imdb_id":null,"world_art_id":null,"type":"serial","add":"2018-06-07 12:59:56","orig_title":"Гастролеры","year":"2016-04-25","translations":["Оригинальная дорожка"],"seasons_count":1,"episodes_count":16,"episodes":16,"update":"2018-06-13 15:19:47","iframe_src":"//5091.svetacdn.in/71tsRs29n5tZ/tv-series/2762"},{"id":2753,"title":"Средство от разлуки","kp_id":"957251","imdb_id":null,"world_art_id":null,"type":"serial","add":"2018-06-06 11:22:39","orig_title":"Средство от разлуки","year":"2016-01-23","translations":["Оригинальная дорожка"],"seasons_count":1,"episodes_count":2,"episodes":2,"update":"2018-06-13 14:40:43","iframe_src":"//5091.svetacdn.in/71tsRs29n5tZ/tv-series/2753"},{"id":2452,"title":"Академия","kp_id":"839900","imdb_id":"tt4014086","world_art_id":null,"type":"serial","add":"2018-04-24 13:50:40","orig_title":"Akademiya","year":"2016-02-08","translations":["Оригинальная дорожка"],"seasons_count":1,"episodes_count":60,"episodes":60,"update":"2018-06-15 09:30:03","iframe_src":"//5091.svetacdn.in/71tsRs29n5tZ/tv-series/2452"},{"id":2260,"title":"Переправа","kp_id":"1010737","imdb_id":"tt6461824","world_art_id":null,"type":"serial","add":"2018-03-22 11:11:21","orig_title":"The Crossing","year":"2018-04-02","translations":["Профессиональный (многоголосый закадровый) (BaibaKo)","Профессиональный (многоголосый закадровый) (LostFilm)"],"seasons_count":1,"episodes_count":11,"episodes":11,"update":"2018-06-14 11:27:27","iframe_src":"//5091.svetacdn.in/71tsRs29n5tZ/tv-series/2260"}],"current_page":472,"first_page_url":"https://videocdn.tv/api/short?limit=100&api_token=EnbO9h8pv1VyjbCJhg0WM9nG259n7mtz&cache3472=3472&page=1","from":47101,"last_page":668,"last_page_url":"https://videocdn.tv/api/short?limit=100&api_token=EnbO9h8pv1VyjbCJhg0WM9nG259n7mtz&cache3472=3472&page=668","next_page_url":"https://videocdn.tv/api/short?limit=100&api_token=EnbO9h8pv1VyjbCJhg0WM9nG259n7mtz&cache3472=3472&page=473","path":"https://videocdn.tv/api/short","per_page":100,"prev_page_url":"https://videocdn.tv/api/short?limit=100&api_token=EnbO9h8pv1VyjbCJhg0WM9nG259n7mtz&cache3472=3472&page=471","to":47140,"total":66732}