{"result":true,"data":[{"id":25341,"title":"Взбесившийся автобус","kp_id":"45983","imdb_id":"tt0227759","world_art_id":null,"type":"movie","add":"2019-04-25 22:28:35","orig_title":"Vzbesivshiysya avtobus","year":"1990-09-01","translations":["Оригинальная дорожка"],"quality":"dvdrip","translation":"Оригинальная дорожка","update":"2019-04-26 06:25:38","iframe_src":"//8543.svetacdn.in/si4jsFRrtgrT/movie/25341"},{"id":25339,"title":"Бабушкин дом","kp_id":"34273","imdb_id":"tt0097455","world_art_id":null,"type":"movie","add":"2019-04-25 22:26:00","orig_title":"Grandmother's House","year":"1988-12-16","translations":["Авторский (одноголосый закадровый) (Живов Юрий)"],"quality":"bd","translation":"Авторский (одноголосый закадровый) (Живов Юрий)","update":"2019-04-26 06:24:02","iframe_src":"//8543.svetacdn.in/si4jsFRrtgrT/movie/25339"},{"id":25338,"title":"Всё возможно","kp_id":"507176","imdb_id":null,"world_art_id":null,"type":"movie","add":"2019-04-25 22:16:13","orig_title":"Всё возможно","year":"2009-01-01","translations":["Оригинальная дорожка"],"quality":"sat","translation":"Оригинальная дорожка","update":"2019-04-26 06:22:11","iframe_src":"//8543.svetacdn.in/si4jsFRrtgrT/movie/25338"},{"id":25337,"title":"Убить карпа","kp_id":"276271","imdb_id":null,"world_art_id":null,"type":"movie","add":"2019-04-25 22:10:14","orig_title":"Убить карпа","year":"2005-01-01","translations":["Оригинальная дорожка"],"quality":"dvdrip","translation":"Оригинальная дорожка","update":"2019-04-26 06:20:13","iframe_src":"//8543.svetacdn.in/si4jsFRrtgrT/movie/25337"},{"id":25336,"title":"Заложники","kp_id":"565741","imdb_id":null,"world_art_id":null,"type":"movie","add":"2019-04-25 22:05:00","orig_title":"Заложники","year":"2010-09-12","translations":["Оригинальная дорожка"],"quality":"sat","translation":"Оригинальная дорожка","update":"2019-04-26 06:19:02","iframe_src":"//8543.svetacdn.in/si4jsFRrtgrT/movie/25336"},{"id":25335,"title":"Зелёный патруль","kp_id":"586334","imdb_id":"tt3069768","world_art_id":null,"type":"movie","add":"2019-04-25 21:57:20","orig_title":"Zelyonyy patrul","year":"1961-08-04","translations":["Оригинальная дорожка"],"quality":"tv","translation":"Оригинальная дорожка","update":"2019-04-26 06:11:19","iframe_src":"//8543.svetacdn.in/si4jsFRrtgrT/movie/25335"},{"id":25334,"title":"Женская дружба","kp_id":"400085","imdb_id":"tt3514640","world_art_id":null,"type":"movie","add":"2019-04-25 21:50:36","orig_title":"Zhenskaya druzhba","year":"2007-05-13","translations":["Оригинальная дорожка"],"quality":"dvdrip","translation":"Оригинальная дорожка","update":"2019-04-26 06:09:56","iframe_src":"//8543.svetacdn.in/si4jsFRrtgrT/movie/25334"},{"id":25333,"title":"Женщины: Искусство обольщения","kp_id":"586436","imdb_id":null,"world_art_id":null,"type":"movie","add":"2019-04-25 21:46:22","orig_title":"Женщины: Искусство обольщения","year":"2011-01-01","translations":["Оригинальная дорожка"],"quality":"dvdrip","translation":"Оригинальная дорожка","update":"2019-04-26 06:08:56","iframe_src":"//8543.svetacdn.in/si4jsFRrtgrT/movie/25333"},{"id":25332,"title":"В июне 41-го","kp_id":"41078","imdb_id":"tt0352859","world_art_id":null,"type":"movie","add":"2019-04-25 21:40:06","orig_title":"The Burning Land","year":"2003-05-09","translations":["Оригинальная дорожка"],"quality":"dvdrip","translation":"Оригинальная дорожка","update":"2019-04-26 06:07:31","iframe_src":"//8543.svetacdn.in/si4jsFRrtgrT/movie/25332"},{"id":25322,"title":"Вельд","kp_id":"45700","imdb_id":"tt0201300","world_art_id":null,"type":"movie","add":"2019-04-25 21:06:09","orig_title":"Veld","year":"1987-06-10","translations":["Оригинальная дорожка"],"quality":"vhs","translation":"Оригинальная дорожка","update":"2019-04-26 06:05:29","iframe_src":"//8543.svetacdn.in/si4jsFRrtgrT/movie/25322"},{"id":25319,"title":"Врача вызывали?","kp_id":"595910","imdb_id":"tt2835458","world_art_id":null,"type":"movie","add":"2019-04-25 10:27:58","orig_title":"Vracha vyzyvali?","year":"2011-06-26","translations":["Оригинальная дорожка"],"quality":"dvdrip","translation":"Оригинальная дорожка","update":"2019-04-26 06:04:29","iframe_src":"//8543.svetacdn.in/si4jsFRrtgrT/movie/25319"},{"id":25318,"title":"Двойной капкан","kp_id":"44356","imdb_id":"tt0089063","world_art_id":null,"type":"movie","add":"2019-04-25 10:22:43","orig_title":"Dvoynoy kapkan","year":"1986-01-06","translations":["Оригинальная дорожка"],"quality":"dvdrip","translation":"Оригинальная дорожка","update":"2019-04-26 06:03:49","iframe_src":"//8543.svetacdn.in/si4jsFRrtgrT/movie/25318"},{"id":25316,"title":"Дом под звездным небом","kp_id":"44266","imdb_id":"tt0101752","world_art_id":null,"type":"movie","add":"2019-04-25 10:14:49","orig_title":"Dom pod zvyozdnym nebom","year":"1991-01-01","translations":["Оригинальная дорожка"],"quality":"dvdrip","translation":"Оригинальная дорожка","update":"2019-04-26 06:02:02","iframe_src":"//8543.svetacdn.in/si4jsFRrtgrT/movie/25316"},{"id":25315,"title":"Дюба-дюба","kp_id":"41164","imdb_id":"tt0106786","world_art_id":null,"type":"movie","add":"2019-04-25 10:11:08","orig_title":"Dyuba-Dyuba","year":"1993-12-02","translations":["Оригинальная дорожка"],"quality":"vhs","translation":"Оригинальная дорожка","update":"2019-04-26 06:00:55","iframe_src":"//8543.svetacdn.in/si4jsFRrtgrT/movie/25315"},{"id":25314,"title":"Кодекс бесчестия","kp_id":"41248","imdb_id":"tt0107335","world_art_id":null,"type":"movie","add":"2019-04-25 10:07:34","orig_title":"Kodeks beshchestiya","year":"1993-09-01","translations":["Оригинальная дорожка"],"quality":"dvdrip","translation":"Оригинальная дорожка","update":"2019-04-26 05:55:16","iframe_src":"//8543.svetacdn.in/si4jsFRrtgrT/movie/25314"},{"id":25313,"title":"Лимита","kp_id":"41292","imdb_id":"tt0110355","world_art_id":null,"type":"movie","add":"2019-04-25 10:03:43","orig_title":"Limita","year":"1995-08-30","translations":["Оригинальная дорожка"],"quality":"tv","translation":"Оригинальная дорожка","update":"2019-04-26 05:52:21","iframe_src":"//8543.svetacdn.in/si4jsFRrtgrT/movie/25313"},{"id":25312,"title":"Лох – победитель воды","kp_id":"41296","imdb_id":"tt0104747","world_art_id":null,"type":"movie","add":"2019-04-25 10:00:06","orig_title":"Lokh pobeditel vody","year":"1991-01-01","translations":["Оригинальная дорожка"],"quality":"dvdrip","translation":"Оригинальная дорожка","update":"2019-04-26 05:51:07","iframe_src":"//8543.svetacdn.in/si4jsFRrtgrT/movie/25312"},{"id":25311,"title":"Мечтать не вредно","kp_id":"84225","imdb_id":"tt0415981","world_art_id":null,"type":"movie","add":"2019-04-25 09:56:20","orig_title":"Mechtat ne vredno","year":"2005-08-18","translations":["Оригинальная дорожка"],"quality":"dvdrip","translation":"Оригинальная дорожка","update":"2019-04-26 05:40:02","iframe_src":"//8543.svetacdn.in/si4jsFRrtgrT/movie/25311"},{"id":25310,"title":"Морской характер","kp_id":"461769","imdb_id":"tt4668050","world_art_id":null,"type":"movie","add":"2019-04-25 09:52:29","orig_title":"Morskoy kharakter","year":"1970-10-13","translations":["Оригинальная дорожка"],"quality":"dvdrip","translation":"Оригинальная дорожка","update":"2019-04-26 05:38:39","iframe_src":"//8543.svetacdn.in/si4jsFRrtgrT/movie/25310"},{"id":25309,"title":"Научная секция пилотов","kp_id":"63893","imdb_id":"tt0127699","world_art_id":null,"type":"movie","add":"2019-04-25 09:45:21","orig_title":"Nauchnaya sektsiya pilotov","year":"1996-01-01","translations":["Оригинальная дорожка"],"quality":"dvdrip","translation":"Оригинальная дорожка","update":"2019-04-26 05:37:42","iframe_src":"//8543.svetacdn.in/si4jsFRrtgrT/movie/25309"}],"current_page":1313,"first_page_url":"https://videocdn.tv/api/short?limit=100&api_token=X6EwAUfE5M9xbo7y0Bp0aPf3uXxG2KLL&cache31313=31313&page=1","from":131201,"last_page":596,"last_page_url":"https://videocdn.tv/api/short?limit=100&api_token=X6EwAUfE5M9xbo7y0Bp0aPf3uXxG2KLL&cache31313=31313&page=596","next_page_url":null,"path":"https://videocdn.tv/api/short","per_page":100,"prev_page_url":"https://videocdn.tv/api/short?limit=100&api_token=X6EwAUfE5M9xbo7y0Bp0aPf3uXxG2KLL&cache31313=31313&page=1312","to":131220,"total":59587}