{"result":true,"data":[{"id":55567,"title":"Ледяная история","kp_id":"4550516","imdb_id":"tt16153108","world_art_id":null,"type":"movie","add":"2021-12-30 05:37:46","orig_title":"Ledyanaya istoriya","year":"2021-12-02","translations":["Оригинальная дорожка"],"quality":"webdl","translation":"Оригинальная дорожка","update":"2021-12-30 08:54:15","iframe_src":"//7741.svetacdn.in/si4jsFRrtgrT/movie/55567"},{"id":55566,"title":"Нация пришельцев: Наследие удара","kp_id":"229447","imdb_id":"tt0118582","world_art_id":null,"type":"movie","add":"2021-12-29 23:07:35","orig_title":"Alien Nation: The Udara Legacy","year":"1997-07-29","translations":["Профессиональный (многоголосый закадровый)"],"quality":"dvdrip","translation":"Профессиональный (многоголосый закадровый)","update":"2021-12-30 12:17:31","iframe_src":"//7741.svetacdn.in/si4jsFRrtgrT/movie/55566"},{"id":55565,"title":"Внутренняя угроза","kp_id":"94500","imdb_id":"tt0115505","world_art_id":null,"type":"movie","add":"2021-12-29 23:05:34","orig_title":"Alien Nation: The Enemy Within","year":"1996-11-12","translations":["Профессиональный (многоголосый закадровый)"],"quality":"dvdrip","translation":"Профессиональный (многоголосый закадровый)","update":"2021-12-30 12:20:59","iframe_src":"//7741.svetacdn.in/si4jsFRrtgrT/movie/55565"},{"id":55564,"title":"Нация пришельцев: Миллениум","kp_id":"229531","imdb_id":"tt0115504","world_art_id":null,"type":"movie","add":"2021-12-29 23:01:12","orig_title":"Alien Nation: Millennium","year":"1996-01-02","translations":["Профессиональный (многоголосый закадровый)"],"quality":"dvdrip","translation":"Профессиональный (многоголосый закадровый)","update":"2021-12-30 12:22:22","iframe_src":"//7741.svetacdn.in/si4jsFRrtgrT/movie/55564"},{"id":55563,"title":"Нация пришельцев: Душа и тело","kp_id":"229259","imdb_id":"tt0112319","world_art_id":null,"type":"movie","add":"2021-12-29 22:55:37","orig_title":"Alien Nation: Body and Soul","year":"1995-10-10","translations":["Профессиональный (многоголосый закадровый)"],"quality":"dvdrip","translation":"Профессиональный (многоголосый закадровый)","update":"2021-12-30 12:23:31","iframe_src":"//7741.svetacdn.in/si4jsFRrtgrT/movie/55563"},{"id":11000,"title":"Кошатники","kp_id":null,"imdb_id":"tt14818454","world_art_id":null,"type":"serial","add":"2021-07-08 20:47:14","orig_title":"Cat People","year":"2021-07-07","translations":["Профессиональный (многоголосый закадровый) (BaibaKo)"],"seasons_count":1,"episodes_count":6,"episodes":6,"update":"2021-07-09 04:55:42","iframe_src":"//7741.svetacdn.in/si4jsFRrtgrT/tv-series/11000"},{"id":10999,"title":"Молись, повинуйся, убивай","kp_id":null,"imdb_id":"tt13848098","world_art_id":null,"type":"serial","add":"2021-07-08 14:31:43","orig_title":"Pray, Obey, Kill","year":"2021-04-04","translations":["Профессиональный (многоголосый закадровый) (OMSKBIRD records)"],"seasons_count":1,"episodes_count":6,"episodes":6,"update":"2021-07-08 18:30:13","iframe_src":"//7741.svetacdn.in/si4jsFRrtgrT/tv-series/10999"},{"id":10997,"title":"Обитель зла: Бесконечная тьма","kp_id":"1421539","imdb_id":"tt13173456","world_art_id":null,"type":"serial","add":"2021-07-08 09:46:21","orig_title":"Resident Evil: Infinite Darkness","year":"2021-07-08","translations":["Любительский (многоголосый закадровый) (ColdFilm)","Любительский (многоголосый закадровый) (Ultradox)","Профессиональный (многоголосый закадровый) (BaibaKo)"],"seasons_count":1,"episodes_count":4,"episodes":4,"update":"2021-07-09 04:49:28","iframe_src":"//7741.svetacdn.in/si4jsFRrtgrT/tv-series/10997"},{"id":10993,"title":"Добро, Барт и Локи","kp_id":null,"imdb_id":"tt14957270","world_art_id":null,"type":"serial","add":"2021-07-07 10:38:34","orig_title":"The Good, the Bart, and the Loki","year":"2021-07-07","translations":["Любительский (многоголосый закадровый) (ColdFilm)","Любительский (многоголосый закадровый) (Ultradox)"],"seasons_count":1,"episodes_count":1,"episodes":1,"update":"2021-07-07 11:19:08","iframe_src":"//7741.svetacdn.in/si4jsFRrtgrT/tv-series/10993"},{"id":10991,"title":"Можешь мне верить","kp_id":"4492435","imdb_id":null,"world_art_id":null,"type":"serial","add":"2021-07-06 16:04:45","orig_title":"Mogesh mne ne verit","year":"2021-01-01","translations":["Оригинальная дорожка"],"seasons_count":1,"episodes_count":4,"episodes":4,"update":"2021-07-07 05:52:38","iframe_src":"//7741.svetacdn.in/si4jsFRrtgrT/tv-series/10991"},{"id":10985,"title":"Подарок","kp_id":"1395808","imdb_id":"tt13629908","world_art_id":null,"type":"serial","add":"2021-07-05 12:02:43","orig_title":"Podarok","year":"2021-07-05","translations":["Оригинальная дорожка"],"seasons_count":1,"episodes_count":10,"episodes":10,"update":"2021-07-09 15:34:18","iframe_src":"//7741.svetacdn.in/si4jsFRrtgrT/tv-series/10985"},{"id":10972,"title":"Маленькие совпадения","kp_id":"1165156","imdb_id":"tt8597326","world_art_id":null,"type":"serial","add":"2021-06-30 11:24:43","orig_title":"Pequeñas coincidencias","year":"2018-12-07","translations":["Профессиональный (многоголосый закадровый) (Amedia)"],"seasons_count":2,"episodes_count":20,"episodes":12,"update":"2021-07-07 12:03:27","iframe_src":"//7741.svetacdn.in/si4jsFRrtgrT/tv-series/10972"},{"id":10955,"title":"Любовь в жаркие недели","kp_id":"4417844","imdb_id":null,"world_art_id":null,"type":"serial","add":"2021-06-28 04:03:34","orig_title":"Lubov v garkie nedely","year":"2021-01-01","translations":["Оригинальная дорожка"],"seasons_count":1,"episodes_count":10,"episodes":10,"update":"2021-07-07 05:48:41","iframe_src":"//7741.svetacdn.in/si4jsFRrtgrT/tv-series/10955"},{"id":10925,"title":"Приключения солдата Ивана Чонкина","kp_id":"401503","imdb_id":"tt1467288","world_art_id":null,"type":"serial","add":"2021-06-20 02:36:19","orig_title":"Priklyucheniya soldata Ivana Chonkina","year":"2007-12-23","translations":["Оригинальная дорожка"],"seasons_count":1,"episodes_count":8,"episodes":8,"update":"2021-07-07 19:26:04","iframe_src":"//7741.svetacdn.in/si4jsFRrtgrT/tv-series/10925"},{"id":10707,"title":"Слишком близко","kp_id":"1379075","imdb_id":"tt10939214","world_art_id":null,"type":"serial","add":"2021-05-23 07:04:39","orig_title":"Too Close","year":"2021-04-12","translations":["Профессиональный (многоголосый закадровый) (Кравец)","Профессиональный (многоголосый закадровый) (HDrezka Studio)","Профессиональный (многоголосый закадровый) (HDrezka Studio 18+)"],"seasons_count":1,"episodes_count":3,"episodes":3,"update":"2021-07-07 20:59:06","iframe_src":"//7741.svetacdn.in/si4jsFRrtgrT/tv-series/10707"},{"id":10477,"title":"Невидимка Зеро","kp_id":"1450147","imdb_id":"tt10619486","world_art_id":null,"type":"serial","add":"2021-04-22 18:05:41","orig_title":"Zero","year":"2021-04-21","translations":["Любительский (двухголосый закадровый) (OnisFilms)","Любительский (многоголосый закадровый) (Hamster Studio)","Профессиональный (многоголосый закадровый) (TVShows)","Профессиональный (многоголосый закадровый) (HDrezka Studio)"],"seasons_count":1,"episodes_count":8,"episodes":8,"update":"2021-07-08 11:04:42","iframe_src":"//7741.svetacdn.in/si4jsFRrtgrT/tv-series/10477"},{"id":9978,"title":"Расскажи мне свои секреты","kp_id":"4361620","imdb_id":"tt7177890","world_art_id":null,"type":"serial","add":"2021-02-19 12:42:42","orig_title":"Tell Me Your Secrets","year":"2021-02-19","translations":["Любительский (многоголосый закадровый) (Ultradox)","Любительский (многоголосый закадровый) (ColdFilm)","Профессиональный (многоголосый закадровый) (HDrezka Studio)","Профессиональный (многоголосый закадровый) (BaibaKo)","Профессиональный (многоголосый закадровый) (TVShows)"],"seasons_count":1,"episodes_count":10,"episodes":10,"update":"2021-07-09 12:41:03","iframe_src":"//7741.svetacdn.in/si4jsFRrtgrT/tv-series/9978"},{"id":8896,"title":"Мафия не может править миром","kp_id":"947471","imdb_id":"tt5175270","world_art_id":null,"type":"serial","add":"2020-10-01 12:31:35","orig_title":"Eskiya Dünyaya Hükümdar Olmaz","year":"2015-09-08","translations":["Любительский (одноголосый закадровый)","Любительский (одноголосый закадровый) (Нурмухаметов Данис)","Любительский (одноголосый закадровый) (AlisaDirilis)"],"seasons_count":3,"episodes_count":105,"episodes":34,"update":"2021-07-07 19:20:39","iframe_src":"//7741.svetacdn.in/si4jsFRrtgrT/tv-series/8896"},{"id":7254,"title":"Визави: Оазис","kp_id":"1272838","imdb_id":"tt10375568","world_art_id":null,"type":"serial","add":"2020-04-21 08:14:34","orig_title":"Vis a vis: El oasis","year":"2020-04-20","translations":["Любительский (многоголосый закадровый) (Octopus)","Любительский (многоголосый закадровый) (ColdFilm)","Любительский (многоголосый закадровый) (KerobTV)","Профессиональный (двухголосый закадровый) (ViruseProject)","Любительский (двухголосый закадровый) (KerobTV)"],"seasons_count":1,"episodes_count":8,"episodes":8,"update":"2021-07-09 19:13:11","iframe_src":"//7741.svetacdn.in/si4jsFRrtgrT/tv-series/7254"},{"id":32277,"title":"Светлое Рождество","kp_id":"9049","imdb_id":"tt0047673","world_art_id":null,"type":"movie","add":"2019-10-23 12:42:40","orig_title":"White Christmas","year":"1954-10-14","translations":["Профессиональный (двухголосый закадровый)","Профессиональный (двухголосый закадровый) (Гланц + Королёва)"],"quality":"bd","translation":"Профессиональный (двухголосый закадровый)","update":"2021-12-30 09:08:15","iframe_src":"//7741.svetacdn.in/si4jsFRrtgrT/movie/32277"},{"id":5468,"title":"Трясина","kp_id":"1180370","imdb_id":"tt8855592","world_art_id":null,"type":"serial","add":"2019-10-15 07:28:31","orig_title":"Rojst","year":"2019-08-18","translations":["Профессиональный (двухголосый закадровый) (ViruseProject)","Полное дублирование (VSI Moscow)","Любительский (многоголосый закадровый) (ColdFilm)","Любительский (многоголосый закадровый) (Ultradox)","Профессиональный (многоголосый закадровый) (BaibaKo)"],"seasons_count":2,"episodes_count":11,"episodes":6,"update":"2021-07-09 03:42:57","iframe_src":"//7741.svetacdn.in/si4jsFRrtgrT/tv-series/5468"},{"id":4757,"title":"Мертвая зона","kp_id":"1117978","imdb_id":"tt6519410","world_art_id":null,"type":"serial","add":"2019-06-26 11:51:38","orig_title":"Zone Blanche","year":"2017-02-03","translations":["Профессиональный (двухголосый закадровый) (ViruseProject)","Профессиональный (многоголосый закадровый) (TVShows)"],"seasons_count":2,"episodes_count":16,"episodes":8,"update":"2021-07-09 15:23:57","iframe_src":"//7741.svetacdn.in/si4jsFRrtgrT/tv-series/4757"},{"id":24874,"title":"Дед Мороз всегда звонит… трижды!","kp_id":"655786","imdb_id":"tt3458910","world_art_id":null,"type":"movie","add":"2019-04-19 08:28:30","orig_title":"Ded Moroz vsegda zvonit… trizhdy!","year":"2012-01-02","translations":["Оригинальная дорожка","Оригинальная дорожка"],"quality":"dvdrip","translation":"Оригинальная дорожка","update":"2021-12-30 08:56:09","iframe_src":"//7741.svetacdn.in/si4jsFRrtgrT/movie/24874"},{"id":22562,"title":"Кожа","kp_id":"1072734","imdb_id":"tt7332306","world_art_id":null,"type":"movie","add":"2019-02-26 17:29:53","orig_title":"Skin","year":"2018-08-01","translations":["Любительский (многоголосый закадровый) (Синема УС)","Профессиональный (многоголосый закадровый) (DoubleRec)"],"quality":"webdl","translation":"Любительский (многоголосый закадровый) (Синема УС)","update":"2021-12-30 13:49:32","iframe_src":"//7741.svetacdn.in/si4jsFRrtgrT/movie/22562"},{"id":3668,"title":"Чужая кровь","kp_id":"1008199","imdb_id":null,"world_art_id":null,"type":"serial","add":"2018-12-10 23:53:37","orig_title":"Чужая кровь","year":"2018-12-10","translations":["Оригинальная дорожка"],"seasons_count":1,"episodes_count":20,"episodes":20,"update":"2021-07-07 19:40:47","iframe_src":"//7741.svetacdn.in/si4jsFRrtgrT/tv-series/3668"},{"id":3176,"title":"Предания","kp_id":"1014779","imdb_id":"tt6130902","world_art_id":null,"type":"serial","add":"2018-09-17 09:12:31","orig_title":"Lore","year":"2017-10-13","translations":["Профессиональный (многоголосый закадровый) (BaibaKo)","Любительский (двухголосый закадровый) (GoldTeam)","Профессиональный (многоголосый закадровый) (HDrezka Studio)","Профессиональный (многоголосый закадровый) (TVShows)","Профессиональный (многоголосый закадровый) (Good People)","Профессиональный (многоголосый закадровый) (Jaskier)"],"seasons_count":2,"episodes_count":12,"episodes":6,"update":"2021-07-06 20:37:04","iframe_src":"//7741.svetacdn.in/si4jsFRrtgrT/tv-series/3176"},{"id":15952,"title":"Варвары","kp_id":"38492","imdb_id":"tt0092615","world_art_id":null,"type":"movie","add":"2018-03-30 23:10:37","orig_title":"The Barbarians","year":"1987-03-20","translations":["Любительский (одноголосый закадровый)","Авторский (одноголосый закадровый) (Живов Юрий)"],"quality":"bd","translation":"Любительский (одноголосый закадровый)","update":"2021-12-30 12:17:10","iframe_src":"//7741.svetacdn.in/si4jsFRrtgrT/movie/15952"},{"id":1475,"title":"Великолепный век","kp_id":"610422","imdb_id":"tt1848220","world_art_id":null,"type":"serial","add":"2017-08-17 07:13:09","orig_title":"Muhtesem Yüzyil","year":"2011-01-05","translations":["Полное дублирование","Полное дублирование (Русский дубляж)","Любительский (одноголосый закадровый) (turok1990)"],"seasons_count":4,"episodes_count":139,"episodes":36,"update":"2021-07-08 09:43:30","iframe_src":"//7741.svetacdn.in/si4jsFRrtgrT/tv-series/1475"},{"id":7980,"title":"Плохой Санта 2","kp_id":"577229","imdb_id":"tt1798603","world_art_id":null,"type":"movie","add":"2016-12-11 17:25:13","orig_title":"Bad Santa 2","year":"2016-11-23","translations":["Полное дублирование (iTunes)","Авторский (одноголосый закадровый) (Гоблин | Пучков Дмитрий)","Полное дублирование (Мосфильм)"],"quality":"webdl","translation":"Полное дублирование (iTunes)","update":"2021-12-30 09:06:17","iframe_src":"//7741.svetacdn.in/si4jsFRrtgrT/movie/7980"},{"id":7878,"title":"Рождество Мэйерсов","kp_id":"944276","imdb_id":"tt4649416","world_art_id":null,"type":"movie","add":"2016-12-06 12:43:34","orig_title":"Almost Christmas","year":"2016-11-11","translations":["Любительский (двухголосый закадровый) (RecentFilms)","Полное дублирование","Полное дублирование (Кириллица)"],"quality":"webdl","translation":"Любительский (двухголосый закадровый) (RecentFilms)","update":"2021-12-30 09:01:30","iframe_src":"//7741.svetacdn.in/si4jsFRrtgrT/movie/7878"},{"id":7122,"title":"Не будите спящую собаку","kp_id":"4147","imdb_id":"tt0116324","world_art_id":null,"type":"movie","add":"2016-11-07 05:15:52","orig_title":"Flirting with Disaster","year":"1996-03-22","translations":["Профессиональный (многоголосый закадровый)","Профессиональный (многоголосый закадровый) (Премьер Видео Фильм)"],"quality":"hdtv","translation":"Профессиональный (многоголосый закадровый)","update":"2021-12-30 14:04:33","iframe_src":"//7741.svetacdn.in/si4jsFRrtgrT/movie/7122"},{"id":6805,"title":"Двойные неприятности","kp_id":"7504","imdb_id":"tt0104135","world_art_id":null,"type":"movie","add":"2016-10-30 07:58:15","orig_title":"Double Trouble","year":"1992-02-14","translations":["Профессиональный (многоголосый закадровый)","Профессиональный (двухголосый закадровый) (НТВ)"],"quality":"webdl","translation":"Профессиональный (многоголосый закадровый)","update":"2021-12-30 13:17:08","iframe_src":"//7741.svetacdn.in/si4jsFRrtgrT/movie/6805"},{"id":6331,"title":"Я буду дома к Рождеству","kp_id":"23068","imdb_id":"tt0155753","world_art_id":null,"type":"movie","add":"2016-10-16 08:02:02","orig_title":"I'll Be Home for Christmas","year":"1998-11-13","translations":["Профессиональный (многоголосый закадровый)","Профессиональный (многоголосый закадровый) (Русский дубляж)"],"quality":"webdl","translation":"Профессиональный (многоголосый закадровый)","update":"2021-12-30 13:52:50","iframe_src":"//7741.svetacdn.in/si4jsFRrtgrT/movie/6331"},{"id":6140,"title":"Клетка","kp_id":"630","imdb_id":"tt0209958","world_art_id":null,"type":"movie","add":"2016-10-11 08:39:51","orig_title":"The Cell","year":"2000-08-17","translations":["Полное дублирование","Полное дублирование (Невафильм | Нева-1)"],"quality":"bd","translation":"Полное дублирование","update":"2021-12-30 12:44:26","iframe_src":"//7741.svetacdn.in/si4jsFRrtgrT/movie/6140"},{"id":375,"title":"Киллджойс","kp_id":"891589","imdb_id":"tt3952222","world_art_id":null,"type":"serial","add":"2016-08-26 11:46:00","orig_title":"Killjoys","year":"2015-06-19","translations":["Профессиональный (многоголосый закадровый)","Профессиональный (многоголосый закадровый) (HDrezka Studio)","Профессиональный (многоголосый закадровый) (LostFilm)","Профессиональный (многоголосый закадровый) (BaibaKo)","Профессиональный (двухголосый закадровый) (Gears Media)","Профессиональный (многоголосый закадровый) (Gears Media)","Профессиональный (многоголосый закадровый) (Jaskier)","Профессиональный (многоголосый закадровый) (AMS)","Профессиональный (многоголосый закадровый) (TVShows)"],"seasons_count":5,"episodes_count":50,"episodes":10,"update":"2021-07-09 16:17:01","iframe_src":"//7741.svetacdn.in/si4jsFRrtgrT/tv-series/375"},{"id":4552,"title":"Холодильник","kp_id":"817879","imdb_id":"tt6052534","world_art_id":null,"type":"movie","add":"2016-08-19 06:49:13","orig_title":"Kholodilnik","year":"2013-10-14","translations":["Оригинальная дорожка","Оригинальная дорожка"],"quality":"webdl","translation":"Оригинальная дорожка","update":"2021-12-30 08:52:02","iframe_src":"//7741.svetacdn.in/si4jsFRrtgrT/movie/4552"},{"id":3997,"title":"Гарольд и Мод","kp_id":"20049","imdb_id":"tt0067185","world_art_id":null,"type":"movie","add":"2016-07-16 03:06:52","orig_title":"Harold and Maude","year":"1971-12-20","translations":["Любительский (одноголосый закадровый)","Авторский (одноголосый закадровый) (Королёв Владимир)"],"quality":"bd","translation":"Любительский (одноголосый закадровый)","update":"2021-12-30 14:02:52","iframe_src":"//7741.svetacdn.in/si4jsFRrtgrT/movie/3997"},{"id":3940,"title":"Дед мороз - отморозок","kp_id":"21668","imdb_id":"tt0084555","world_art_id":null,"type":"movie","add":"2016-07-15 10:11:02","orig_title":"Le père Noël est une ordure","year":"1982-08-25","translations":["Профессиональный (двухголосый закадровый)","Профессиональный (двухголосый закадровый)"],"quality":"bd","translation":"Профессиональный (двухголосый закадровый)","update":"2021-12-30 08:58:57","iframe_src":"//7741.svetacdn.in/si4jsFRrtgrT/movie/3940"},{"id":3220,"title":"Плохой Санта","kp_id":"1828","imdb_id":"tt0307987","world_art_id":null,"type":"movie","add":"2016-06-17 06:49:25","orig_title":"Bad Santa","year":"2003-11-26","translations":["Авторский (одноголосый закадровый) (Гоблин | Пучков Дмитрий)","Полное дублирование","Original (English)","Полное дублирование (CPIG | Central Production International Group)"],"quality":"bd","translation":"Авторский (одноголосый закадровый) (Гоблин | Пучков Дмитрий)","update":"2021-12-30 09:03:44","iframe_src":"//7741.svetacdn.in/si4jsFRrtgrT/movie/3220"},{"id":257,"title":"Здравствуй, папа, Новый год","kp_id":"484428","imdb_id":"tt1528854","world_art_id":null,"type":"movie","add":"2016-03-14 00:26:46","orig_title":"Daddy's Home","year":"2015-12-09","translations":["Звук с CAMRip","Полное дублирование","Original (English)","Полное дублирование"],"quality":"bd","translation":"Звук с CAMRip","update":"2021-12-30 09:11:27","iframe_src":"//7741.svetacdn.in/si4jsFRrtgrT/movie/257"}],"current_page":114,"first_page_url":"https://videocdn.tv/api/short?limit=100&api_token=X6EwAUfE5M9xbo7y0Bp0aPf3uXxG2KLL&cache3114=3114&page=1","from":11301,"last_page":701,"last_page_url":"https://videocdn.tv/api/short?limit=100&api_token=X6EwAUfE5M9xbo7y0Bp0aPf3uXxG2KLL&cache3114=3114&page=701","next_page_url":"https://videocdn.tv/api/short?limit=100&api_token=X6EwAUfE5M9xbo7y0Bp0aPf3uXxG2KLL&cache3114=3114&page=115","path":"https://videocdn.tv/api/short","per_page":100,"prev_page_url":"https://videocdn.tv/api/short?limit=100&api_token=X6EwAUfE5M9xbo7y0Bp0aPf3uXxG2KLL&cache3114=3114&page=113","to":11340,"total":70041}