{"result":true,"data":[{"id":44986,"title":"Царство зверей","kp_id":"15414","imdb_id":"tt0022628","world_art_id":null,"type":"movie","add":"2020-11-03 07:58:46","orig_title":"The Animal Kingdom","year":"1932-12-23","translations":["Профессиональный (двухголосый закадровый)"],"quality":"dvdrip","translation":"Профессиональный (двухголосый закадровый)","update":"2020-11-03 08:42:01","iframe_src":"//5322.svetacdn.in/IAF0wWTdNYZm/movie/44986"},{"id":44985,"title":"Город мальчиков","kp_id":"26280","imdb_id":"tt0029942","world_art_id":null,"type":"movie","add":"2020-11-03 07:41:29","orig_title":"Boys Town","year":"1938-09-08","translations":["Профессиональный (одноголосый закадровый)"],"quality":"dvdrip","translation":"Профессиональный (одноголосый закадровый)","update":"2020-11-03 08:38:11","iframe_src":"//5322.svetacdn.in/IAF0wWTdNYZm/movie/44985"},{"id":44982,"title":"Фермер и Белль: Спасая Санталэнд","kp_id":"1255044","imdb_id":"tt7756084","world_art_id":null,"type":"movie","add":"2020-11-03 06:03:19","orig_title":"The Farmer and the Belle: Saving Santaland","year":"2020-11-17","translations":["Любительский (многоголосый закадровый) (@MUZOBOZ@)"],"quality":"webdl","translation":"Любительский (многоголосый закадровый) (@MUZOBOZ@)","update":"2020-11-03 12:28:44","iframe_src":"//5322.svetacdn.in/IAF0wWTdNYZm/movie/44982"},{"id":44981,"title":"К югу от реки","kp_id":"822290","imdb_id":"tt3406172","world_art_id":null,"type":"movie","add":"2020-11-03 05:59:57","orig_title":"South of the River","year":"2020-11-02","translations":["Любительский (многоголосый закадровый) (AlphaProject)"],"quality":"webdl","translation":"Любительский (многоголосый закадровый) (AlphaProject)","update":"2020-11-03 12:28:18","iframe_src":"//5322.svetacdn.in/IAF0wWTdNYZm/movie/44981"},{"id":44980,"title":"Великоландия","kp_id":"1115857","imdb_id":"tt8215480","world_art_id":null,"type":"movie","add":"2020-11-03 05:56:32","orig_title":"Greatland","year":"2020-10-08","translations":["Любительский (многоголосый закадровый) (@MUZOBOZ@)"],"quality":"webdl","translation":"Любительский (многоголосый закадровый) (@MUZOBOZ@)","update":"2020-11-03 12:28:06","iframe_src":"//5322.svetacdn.in/IAF0wWTdNYZm/movie/44980"},{"id":44979,"title":"Ночи перед рождеством","kp_id":"1103725","imdb_id":"tt7620598","world_art_id":null,"type":"movie","add":"2020-11-03 05:54:41","orig_title":"The Nights Before Christmas","year":"2020-12-06","translations":["Любительский (многоголосый закадровый) (@MUZOBOZ@)"],"quality":"webdl","translation":"Любительский (многоголосый закадровый) (@MUZOBOZ@)","update":"2020-11-03 12:27:45","iframe_src":"//5322.svetacdn.in/IAF0wWTdNYZm/movie/44979"},{"id":44737,"title":"Верные друзья","kp_id":"584365","imdb_id":null,"world_art_id":null,"type":"movie","add":"2020-10-24 22:19:57","orig_title":"Верные друзья","year":"1971-01-01","translations":["Оригинальная дорожка"],"quality":"dvdrip","translation":"Оригинальная дорожка","update":"2020-11-03 12:28:07","iframe_src":"//5322.svetacdn.in/IAF0wWTdNYZm/movie/44737"},{"id":44736,"title":"Забытый день рождения","kp_id":"596147","imdb_id":"tt5879880","world_art_id":null,"type":"movie","add":"2020-10-24 22:16:35","orig_title":"Zabitiy den rozhdeniya","year":"1984-01-01","translations":["Оригинальная дорожка"],"quality":"dvdrip","translation":"Оригинальная дорожка","update":"2020-11-03 12:27:21","iframe_src":"//5322.svetacdn.in/IAF0wWTdNYZm/movie/44736"},{"id":44735,"title":"Легенда о девичьей башне","kp_id":"1280592","imdb_id":"tt3963374","world_art_id":null,"type":"movie","add":"2020-10-24 22:12:19","orig_title":"Qiz qalasi efsanesi","year":"1978-04-10","translations":["Оригинальная дорожка"],"quality":"webdl","translation":"Оригинальная дорожка","update":"2020-11-03 11:58:56","iframe_src":"//5322.svetacdn.in/IAF0wWTdNYZm/movie/44735"},{"id":44723,"title":"Легенда о злом великане","kp_id":"453227","imdb_id":"tt7723146","world_art_id":null,"type":"movie","add":"2020-10-23 20:42:30","orig_title":"Legenda o zlom velikane","year":"1967-01-01","translations":["Оригинальная дорожка"],"quality":"dvdrip","translation":"Оригинальная дорожка","update":"2020-11-03 11:30:11","iframe_src":"//5322.svetacdn.in/IAF0wWTdNYZm/movie/44723"},{"id":44720,"title":"Мудрость и богатство","kp_id":"1435355","imdb_id":null,"world_art_id":null,"type":"movie","add":"2020-10-23 20:19:52","orig_title":"Мудрость и богатство","year":"1977-01-01","translations":["Оригинальная дорожка"],"quality":"dvdrip","translation":"Оригинальная дорожка","update":"2020-11-03 11:27:53","iframe_src":"//5322.svetacdn.in/IAF0wWTdNYZm/movie/44720"},{"id":44717,"title":"Весенние мелодии","kp_id":"258096","imdb_id":"tt9239328","world_art_id":null,"type":"movie","add":"2020-10-23 20:02:39","orig_title":"Vesennie melodii","year":"1946-01-01","translations":["Оригинальная дорожка"],"quality":"dvdrip","translation":"Оригинальная дорожка","update":"2020-11-03 11:25:35","iframe_src":"//5322.svetacdn.in/IAF0wWTdNYZm/movie/44717"},{"id":44716,"title":"Гори, гори ясно","kp_id":"603219","imdb_id":"tt6368530","world_art_id":null,"type":"movie","add":"2020-10-23 20:00:16","orig_title":"Gori, gori yasno","year":"1983-04-22","translations":["Оригинальная дорожка"],"quality":"dvdrip","translation":"Оригинальная дорожка","update":"2020-11-03 11:14:02","iframe_src":"//5322.svetacdn.in/IAF0wWTdNYZm/movie/44716"},{"id":43681,"title":"Оскорбление","kp_id":"10110","imdb_id":"tt0070468","world_art_id":null,"type":"movie","add":"2020-09-19 21:29:22","orig_title":"The Offence","year":"1973-01-01","translations":["Профессиональный (многоголосый закадровый)","Профессиональный (двухголосый закадровый) (НТВ)"],"quality":"bd","translation":"Профессиональный (многоголосый закадровый)","update":"2020-11-03 09:12:38","iframe_src":"//5322.svetacdn.in/IAF0wWTdNYZm/movie/43681"},{"id":31720,"title":"База","kp_id":"77315","imdb_id":"tt0185908","world_art_id":null,"type":"movie","add":"2019-10-10 21:56:29","orig_title":"The Base","year":"1999-03-25","translations":["Профессиональный (двухголосый закадровый) (РенТВ)","Авторский (одноголосый закадровый) (Сербин Юрий)"],"quality":"dvdrip","translation":"Профессиональный (двухголосый закадровый) (РенТВ)","update":"2020-11-03 09:05:52","iframe_src":"//5322.svetacdn.in/IAF0wWTdNYZm/movie/31720"},{"id":3218,"title":"Близкие друзья","kp_id":"262973","imdb_id":"tt0262985","world_art_id":null,"type":"serial","add":"2018-09-25 08:34:30","orig_title":"Queer as Folk","year":"2000-12-03","translations":["Любительский (двухголосый закадровый) (GoldTeam)"],"seasons_count":5,"episodes_count":82,"episodes":13,"update":"2018-09-26 23:52:05","iframe_src":"//5322.svetacdn.in/IAF0wWTdNYZm/tv-series/3218"},{"id":3217,"title":"Сватьи","kp_id":"838927","imdb_id":null,"world_art_id":null,"type":"serial","add":"2018-09-25 05:47:09","orig_title":"Сватьи","year":"2014-04-14","translations":["Оригинальная дорожка"],"seasons_count":1,"episodes_count":12,"episodes":12,"update":"2018-09-25 19:41:38","iframe_src":"//5322.svetacdn.in/IAF0wWTdNYZm/tv-series/3217"},{"id":3213,"title":"Красавчик","kp_id":"774514","imdb_id":"tt3350766","world_art_id":null,"type":"serial","add":"2018-09-24 11:49:14","orig_title":"Yebbeun namja","year":"2013-11-20","translations":["Любительский (двухголосый закадровый) (GREEN TEA)"],"seasons_count":1,"episodes_count":16,"episodes":16,"update":"2018-09-27 07:39:02","iframe_src":"//5322.svetacdn.in/IAF0wWTdNYZm/tv-series/3213"},{"id":3212,"title":"Наследство","kp_id":"1162500","imdb_id":null,"world_art_id":null,"type":"serial","add":"2018-09-24 11:25:46","orig_title":"Наследство","year":"2018-09-01","translations":["Оригинальная дорожка"],"seasons_count":1,"episodes_count":2,"episodes":2,"update":"2018-09-25 10:00:39","iframe_src":"//5322.svetacdn.in/IAF0wWTdNYZm/tv-series/3212"},{"id":3211,"title":"Хорошая игра","kp_id":"1083754","imdb_id":"tt6533132","world_art_id":null,"type":"serial","add":"2018-09-24 11:02:58","orig_title":"Good Game","year":"2017-08-30","translations":["Любительский (двухголосый закадровый) (GoldTeam)"],"seasons_count":1,"episodes_count":6,"episodes":6,"update":"2018-09-25 10:02:35","iframe_src":"//5322.svetacdn.in/IAF0wWTdNYZm/tv-series/3211"},{"id":3210,"title":"Обитатели больницы","kp_id":"1108392","imdb_id":"tt6819788","world_art_id":null,"type":"serial","add":"2018-09-24 10:54:25","orig_title":"Hospital People","year":"2017-04-21","translations":["Любительский (двухголосый закадровый) (SNK-TV)"],"seasons_count":1,"episodes_count":6,"episodes":6,"update":"2018-09-25 10:07:02","iframe_src":"//5322.svetacdn.in/IAF0wWTdNYZm/tv-series/3210"},{"id":3209,"title":"Мое сердце с тобой","kp_id":"1189793","imdb_id":null,"world_art_id":null,"type":"serial","add":"2018-09-24 10:29:13","orig_title":"Мое сердце с тобой","year":"2018-09-22","translations":["Оригинальная дорожка"],"seasons_count":1,"episodes_count":2,"episodes":2,"update":"2018-09-25 10:11:22","iframe_src":"//5322.svetacdn.in/IAF0wWTdNYZm/tv-series/3209"},{"id":3208,"title":"Вегас","kp_id":"669598","imdb_id":"tt2262383","world_art_id":null,"type":"serial","add":"2018-09-24 10:18:03","orig_title":"Vegas","year":"2012-09-25","translations":["Профессиональный (многоголосый закадровый)"],"seasons_count":1,"episodes_count":21,"episodes":21,"update":"2018-09-25 10:17:38","iframe_src":"//5322.svetacdn.in/IAF0wWTdNYZm/tv-series/3208"},{"id":3206,"title":"Биобаба","kp_id":"278076","imdb_id":"tt0880557","world_art_id":null,"type":"serial","add":"2018-09-23 10:42:06","orig_title":"Bionic Woman","year":"2007-09-26","translations":["Любительский (двухголосый закадровый)"],"seasons_count":1,"episodes_count":8,"episodes":8,"update":"2018-09-25 11:01:09","iframe_src":"//5322.svetacdn.in/IAF0wWTdNYZm/tv-series/3206"},{"id":3205,"title":"Дети Дюны","kp_id":"77218","imdb_id":"tt0287839","world_art_id":null,"type":"serial","add":"2018-09-23 10:31:23","orig_title":"Children of Dune","year":"2003-03-16","translations":["Профессиональный (многоголосый закадровый)"],"seasons_count":1,"episodes_count":3,"episodes":3,"update":"2018-09-26 13:54:49","iframe_src":"//5322.svetacdn.in/IAF0wWTdNYZm/tv-series/3205"},{"id":3204,"title":"Дюна","kp_id":"229087","imdb_id":"tt0142032","world_art_id":null,"type":"serial","add":"2018-09-23 10:29:08","orig_title":"Dune","year":"2000-12-03","translations":["Профессиональный (многоголосый закадровый)"],"seasons_count":1,"episodes_count":3,"episodes":3,"update":"2018-09-26 13:51:23","iframe_src":"//5322.svetacdn.in/IAF0wWTdNYZm/tv-series/3204"},{"id":3197,"title":"Дживс и Вустер","kp_id":"79818","imdb_id":"tt0098833","world_art_id":null,"type":"serial","add":"2018-09-21 10:30:06","orig_title":"Jeeves and Wooster","year":"1990-04-22","translations":["Профессиональный (многоголосый закадровый)"],"seasons_count":4,"episodes_count":23,"episodes":6,"update":"2018-09-22 06:59:15","iframe_src":"//5322.svetacdn.in/IAF0wWTdNYZm/tv-series/3197"},{"id":19097,"title":"Белый парень Рик","kp_id":"1030157","imdb_id":"tt4537896","world_art_id":null,"type":"movie","add":"2018-09-20 22:40:31","orig_title":"White Boy Rick","year":"2018-08-31","translations":["Полное дублирование","Профессиональный (многоголосый закадровый) (HDrezka Studio)","Original (English)","Профессиональный (многоголосый закадровый) (HDrezka Studio)"],"quality":"bd","translation":"Полное дублирование","update":"2020-11-03 12:27:30","iframe_src":"//5322.svetacdn.in/IAF0wWTdNYZm/movie/19097"},{"id":3196,"title":"Шпионка","kp_id":"86234","imdb_id":"tt0285333","world_art_id":null,"type":"serial","add":"2018-09-20 12:22:58","orig_title":"Alias","year":"2001-09-30","translations":["Профессиональный (многоголосый закадровый) (Первый канал | ОРТ)","Профессиональный (многоголосый закадровый) (SET)"],"seasons_count":5,"episodes_count":105,"episodes":17,"update":"2018-09-28 07:35:12","iframe_src":"//5322.svetacdn.in/IAF0wWTdNYZm/tv-series/3196"},{"id":3194,"title":"Лучший выстрел","kp_id":null,"imdb_id":"tt7661234","world_art_id":null,"type":"serial","add":"2018-09-20 08:28:53","orig_title":"Best Shot","year":"2018-07-18","translations":["Любительский (двухголосый закадровый) (GoldTeam)"],"seasons_count":1,"episodes_count":1,"episodes":1,"update":"2018-09-21 09:38:44","iframe_src":"//5322.svetacdn.in/IAF0wWTdNYZm/tv-series/3194"},{"id":3095,"title":"Банкротство","kp_id":"972891","imdb_id":"tt4117294","world_art_id":null,"type":"serial","add":"2018-08-28 16:18:37","orig_title":"Bankerot","year":"2014-10-16","translations":["Любительский (двухголосый закадровый) (GoldTeam)"],"seasons_count":2,"episodes_count":16,"episodes":8,"update":"2018-09-20 20:25:39","iframe_src":"//5322.svetacdn.in/IAF0wWTdNYZm/tv-series/3095"},{"id":2962,"title":"30, но 17","kp_id":"1115103","imdb_id":"tt8648696","world_art_id":null,"type":"serial","add":"2018-07-25 07:19:28","orig_title":"Seoreunijiman Yeolilgobibmida","year":"2018-07-23","translations":["Любительский (двухголосый закадровый) (HighHopes)","Любительский (двухголосый закадровый) (SoftBox)"],"seasons_count":1,"episodes_count":48,"episodes":48,"update":"2018-09-22 06:46:42","iframe_src":"//5322.svetacdn.in/IAF0wWTdNYZm/tv-series/2962"},{"id":2669,"title":"Беззаконный адвокат","kp_id":"1112576","imdb_id":"tt8160178","world_art_id":null,"type":"serial","add":"2018-05-28 05:09:55","orig_title":"Mubeop Byeonhosa","year":"2018-05-13","translations":["Любительский (двухголосый закадровый)","Любительский (двухголосый закадровый) (SoftBox)"],"seasons_count":1,"episodes_count":16,"episodes":16,"update":"2018-09-24 14:48:14","iframe_src":"//5322.svetacdn.in/IAF0wWTdNYZm/tv-series/2669"},{"id":2415,"title":"Приключения Электроника","kp_id":"77284","imdb_id":"tt0078673","world_art_id":null,"type":"serial","add":"2018-04-16 23:10:23","orig_title":"Priklyucheniya Elektronika","year":"1980-05-02","translations":["Оригинальная дорожка"],"seasons_count":1,"episodes_count":3,"episodes":3,"update":"2018-09-24 10:09:49","iframe_src":"//5322.svetacdn.in/IAF0wWTdNYZm/tv-series/2415"},{"id":1784,"title":"Ментовские войны 11","kp_id":"1101300","imdb_id":null,"world_art_id":null,"type":"serial","add":"2017-11-30 06:32:31","orig_title":"Ментовские войны 11","year":"2017-11-27","translations":["Оригинальная дорожка"],"seasons_count":1,"episodes_count":16,"episodes":16,"update":"2018-09-21 07:16:07","iframe_src":"//5322.svetacdn.in/IAF0wWTdNYZm/tv-series/1784"},{"id":14139,"title":"Гуси-лебеди","kp_id":"258001","imdb_id":"tt1070792","world_art_id":null,"type":"movie","add":"2017-10-29 11:28:39","orig_title":"Gusi-lebedi","year":"1949-01-01","translations":["Оригинальная дорожка"],"quality":"bd","translation":"Оригинальная дорожка","update":"2020-11-03 12:23:34","iframe_src":"//5322.svetacdn.in/IAF0wWTdNYZm/movie/14139"},{"id":9657,"title":"Кокон: Bозвращение","kp_id":"18468","imdb_id":"tt0094890","world_art_id":null,"type":"movie","add":"2017-02-13 11:02:45","orig_title":"Cocoon: The Return","year":"1988-11-23","translations":["Профессиональный (многоголосый закадровый)","Авторский (одноголосый закадровый) (Живов Юрий)","Original (English)","Профессиональный (двухголосый закадровый)","Профессиональный (двухголосый закадровый) (Первый канал | ОРТ)","Профессиональный (двухголосый закадровый) (Премьер Видео Фильм)"],"quality":"webdl","translation":"Профессиональный (многоголосый закадровый)","update":"2020-11-03 08:55:20","iframe_src":"//5322.svetacdn.in/IAF0wWTdNYZm/movie/9657"},{"id":7152,"title":"Черный орел","kp_id":"28132","imdb_id":"tt0094750","world_art_id":null,"type":"movie","add":"2016-11-08 05:33:32","orig_title":"Black Eagle","year":"1988-09-09","translations":["Профессиональный (многоголосый закадровый)","Авторский (одноголосый закадровый) (Гаврилов Андрей)","Авторский (одноголосый закадровый) (Махонько Виктор)","Авторский (одноголосый закадровый) (Сербин Юрий)","Original (English)","Профессиональный (двухголосый закадровый) (РТР | Россия)","Профессиональный (многоголосый закадровый) (СТС)"],"quality":"bd","translation":"Профессиональный (многоголосый закадровый)","update":"2020-11-03 09:03:39","iframe_src":"//5322.svetacdn.in/IAF0wWTdNYZm/movie/7152"},{"id":536,"title":"Универ. Новая общага","kp_id":"630165","imdb_id":"tt3752220","world_art_id":null,"type":"serial","add":"2016-10-18 18:34:35","orig_title":"Univer. Novaya obschaga","year":"2016-10-10","translations":["Оригинальная дорожка"],"seasons_count":15,"episodes_count":294,"episodes":19,"update":"2018-09-25 20:05:48","iframe_src":"//5322.svetacdn.in/IAF0wWTdNYZm/tv-series/536"},{"id":5162,"title":"Сердцеедки","kp_id":"692","imdb_id":"tt0125022","world_art_id":null,"type":"movie","add":"2016-09-08 15:07:50","orig_title":"Heartbreakers","year":"2001-03-23","translations":["Полное дублирование","Авторский (одноголосый закадровый) (Сербин Юрий)","Авторский (одноголосый закадровый) (Живов Юрий)","Полное дублирование","Original (English)","Любительский (одноголосый закадровый)","Профессиональный (многоголосый закадровый)","Профессиональный (многоголосый закадровый) (СТС)","Профессиональный (многоголосый закадровый) (РТР | Россия)"],"quality":"bd","translation":"Полное дублирование","update":"2020-11-03 08:31:44","iframe_src":"//5322.svetacdn.in/IAF0wWTdNYZm/movie/5162"}],"current_page":416,"first_page_url":"https://videocdn.tv/api/short?limit=100&api_token=6Onb1W1alEUrBcKJZD3GoKBbWyAl2uG2&cache3416=3416&page=1","from":41501,"last_page":629,"last_page_url":"https://videocdn.tv/api/short?limit=100&api_token=6Onb1W1alEUrBcKJZD3GoKBbWyAl2uG2&cache3416=3416&page=629","next_page_url":"https://videocdn.tv/api/short?limit=100&api_token=6Onb1W1alEUrBcKJZD3GoKBbWyAl2uG2&cache3416=3416&page=417","path":"https://videocdn.tv/api/short","per_page":100,"prev_page_url":"https://videocdn.tv/api/short?limit=100&api_token=6Onb1W1alEUrBcKJZD3GoKBbWyAl2uG2&cache3416=3416&page=415","to":41540,"total":62833}