{"result":true,"data":[{"id":31040,"title":"Эдикт","kp_id":"967093","imdb_id":"tt5482752","world_art_id":null,"type":"movie","add":"2019-09-20 20:54:19","orig_title":"The Edict","year":"2017-09-01","translations":["Любительский (многоголосый закадровый) (Синема УС)"],"quality":"webdl","translation":"Любительский (многоголосый закадровый) (Синема УС)","update":"2019-09-21 14:39:17","iframe_src":"//5091.svetacdn.in/IAF0wWTdNYZm/movie/31040"},{"id":31039,"title":"10 лет в Японии","kp_id":"1118228","imdb_id":"tt7521860","world_art_id":null,"type":"movie","add":"2019-09-20 20:52:56","orig_title":"Ten Years Japan","year":"2018-10-07","translations":["Любительский (многоголосый закадровый) (Синема УС)"],"quality":"bd","translation":"Любительский (многоголосый закадровый) (Синема УС)","update":"2019-09-21 14:54:17","iframe_src":"//5091.svetacdn.in/IAF0wWTdNYZm/movie/31039"},{"id":31037,"title":"Резня в летнем лагере","kp_id":null,"imdb_id":"tt8103474","world_art_id":null,"type":"movie","add":"2019-09-20 20:49:21","orig_title":"Summer Lake Massacre","year":"2018-02-02","translations":["Любительский (многоголосый закадровый) (Синема УС)"],"quality":"webdl","translation":"Любительский (многоголосый закадровый) (Синема УС)","update":"2019-09-21 14:23:13","iframe_src":"//5091.svetacdn.in/IAF0wWTdNYZm/movie/31037"},{"id":31035,"title":"Выход","kp_id":"998727","imdb_id":"tt5976166","world_art_id":null,"type":"movie","add":"2019-09-20 20:45:03","orig_title":"Die Hütte","year":"2019-01-17","translations":["Любительский (многоголосый закадровый) (Синема УС)"],"quality":"webdl","translation":"Любительский (многоголосый закадровый) (Синема УС)","update":"2019-09-21 14:51:16","iframe_src":"//5091.svetacdn.in/IAF0wWTdNYZm/movie/31035"},{"id":31034,"title":"История о летнем любовнике","kp_id":"1182140","imdb_id":"tt8299032","world_art_id":null,"type":"movie","add":"2019-09-20 20:43:10","orig_title":"Povestea unui pierde-vara","year":"2018-09-21","translations":["Любительский (многоголосый закадровый) (Синема УС)"],"quality":"webdl","translation":"Любительский (многоголосый закадровый) (Синема УС)","update":"2019-09-21 14:50:00","iframe_src":"//5091.svetacdn.in/IAF0wWTdNYZm/movie/31034"},{"id":31033,"title":"Кровавые истории для рассказа на вечеринках","kp_id":null,"imdb_id":"tt10746674","world_art_id":null,"type":"movie","add":"2019-09-20 20:41:52","orig_title":"Party Day Massacre Stories","year":"2018-04-10","translations":["Любительский (многоголосый закадровый) (Синема УС)"],"quality":"webdl","translation":"Любительский (многоголосый закадровый) (Синема УС)","update":"2019-09-21 14:38:01","iframe_src":"//5091.svetacdn.in/IAF0wWTdNYZm/movie/31033"},{"id":31031,"title":"Миа","kp_id":"1064088","imdb_id":"tt6378804","world_art_id":null,"type":"movie","add":"2019-09-20 20:38:21","orig_title":"Mia","year":"2017-05-05","translations":["Любительский (многоголосый закадровый) (Синема УС)"],"quality":"webdl","translation":"Любительский (многоголосый закадровый) (Синема УС)","update":"2019-09-21 14:36:08","iframe_src":"//5091.svetacdn.in/IAF0wWTdNYZm/movie/31031"},{"id":31029,"title":"Трусливая любовь","kp_id":"1078578","imdb_id":"tt5887630","world_art_id":null,"type":"movie","add":"2019-09-20 20:35:03","orig_title":"Los amores cobardes","year":"2018-04-20","translations":["Любительский (многоголосый закадровый) (Синема УС)"],"quality":"bd","translation":"Любительский (многоголосый закадровый) (Синема УС)","update":"2019-09-21 14:47:01","iframe_src":"//5091.svetacdn.in/IAF0wWTdNYZm/movie/31029"},{"id":31023,"title":"Дэрроу и Дэрроу: Тело как уликавание","kp_id":"1178322","imdb_id":"tt8710040","world_art_id":null,"type":"movie","add":"2019-09-20 20:18:25","orig_title":"Darrow & Darrow: Body of Evidence","year":"2018-10-14","translations":["Профессиональный (многоголосый закадровый) (AlphaProject)"],"quality":"webdl","translation":"Профессиональный (многоголосый закадровый) (AlphaProject)","update":"2019-09-21 14:46:07","iframe_src":"//5091.svetacdn.in/IAF0wWTdNYZm/movie/31023"},{"id":31022,"title":"Даниэль","kp_id":"1174107","imdb_id":"tt8667266","world_art_id":null,"type":"movie","add":"2019-09-20 20:11:45","orig_title":"Daniel fait face","year":"2018-11-19","translations":["Любительский (многоголосый закадровый) (Синема УС)"],"quality":"webdl","translation":"Любительский (многоголосый закадровый) (Синема УС)","update":"2019-09-21 14:45:16","iframe_src":"//5091.svetacdn.in/IAF0wWTdNYZm/movie/31022"},{"id":31020,"title":"Использованные","kp_id":"1271394","imdb_id":"tt8887736","world_art_id":null,"type":"movie","add":"2019-09-20 20:04:20","orig_title":"Bikya","year":"2018-01-01","translations":["Любительский (многоголосый закадровый) (Синема УС)"],"quality":"webdl","translation":"Любительский (многоголосый закадровый) (Синема УС)","update":"2019-09-21 14:44:17","iframe_src":"//5091.svetacdn.in/IAF0wWTdNYZm/movie/31020"},{"id":31018,"title":"Благословенное безумие","kp_id":"1090250","imdb_id":"tt7022404","world_art_id":null,"type":"movie","add":"2019-09-20 20:00:57","orig_title":"Benedetta follia","year":"2018-01-11","translations":["Профессиональный (многоголосый закадровый) (AlphaProject)"],"quality":"bd","translation":"Профессиональный (многоголосый закадровый) (AlphaProject)","update":"2019-09-21 14:43:01","iframe_src":"//5091.svetacdn.in/IAF0wWTdNYZm/movie/31018"},{"id":31017,"title":"Свидетель убийства: загадка Дэрроу","kp_id":"1301991","imdb_id":"tt10929864","world_art_id":null,"type":"movie","add":"2019-09-20 19:56:24","orig_title":"Witness to Murder: A Darrow Mystery","year":"2019-09-08","translations":["Любительский (многоголосый закадровый) (Синема УС)"],"quality":"hdtv","translation":"Любительский (многоголосый закадровый) (Синема УС)","update":"2019-09-21 14:32:36","iframe_src":"//5091.svetacdn.in/IAF0wWTdNYZm/movie/31017"},{"id":31005,"title":"Сакурада рисет, часть 2","kp_id":"1006737","imdb_id":"tt6090764","world_art_id":null,"type":"movie","add":"2019-09-19 20:12:51","orig_title":"Sakurada risetto kouhen","year":"2017-05-13","translations":["Любительский (многоголосый закадровый) (Синема УС)"],"quality":"bd","translation":"Любительский (многоголосый закадровый) (Синема УС)","update":"2019-09-20 18:16:09","iframe_src":"//5091.svetacdn.in/IAF0wWTdNYZm/movie/31005"},{"id":31004,"title":"Проклятое лето","kp_id":"1019168","imdb_id":"tt6097278","world_art_id":null,"type":"movie","add":"2019-09-19 20:10:06","orig_title":"Verão Danado","year":"2017-08-04","translations":["Любительский (многоголосый закадровый) (Синема УС)"],"quality":"webdl","translation":"Любительский (многоголосый закадровый) (Синема УС)","update":"2019-09-20 18:17:10","iframe_src":"//5091.svetacdn.in/IAF0wWTdNYZm/movie/31004"},{"id":30991,"title":"Бес в ребро","kp_id":"844024","imdb_id":"tt3848888","world_art_id":null,"type":"movie","add":"2019-09-19 07:02:52","orig_title":"The Shaukeens","year":"2014-11-06","translations":["Любительский (двухголосый закадровый) (DeadSno & den904)"],"quality":"webdl","translation":"Любительский (двухголосый закадровый) (DeadSno & den904)","update":"2019-09-21 14:20:18","iframe_src":"//5091.svetacdn.in/IAF0wWTdNYZm/movie/30991"},{"id":30975,"title":"Добро пожаловать","kp_id":"261463","imdb_id":"tt0488798","world_art_id":null,"type":"movie","add":"2019-09-18 19:44:51","orig_title":"Welcome","year":"2007-12-20","translations":["Профессиональный (многоголосый закадровый)"],"quality":"webdl","translation":"Профессиональный (многоголосый закадровый)","update":"2019-09-21 14:19:01","iframe_src":"//5091.svetacdn.in/IAF0wWTdNYZm/movie/30975"},{"id":30972,"title":"Предчувствие любви","kp_id":"278163","imdb_id":"tt0959285","world_art_id":null,"type":"movie","add":"2019-09-18 19:41:20","orig_title":"Azhagiya Tamizh Magan","year":"2007-11-08","translations":["Профессиональный (многоголосый закадровый) (Red Media)"],"quality":"webdl","translation":"Профессиональный (многоголосый закадровый) (Red Media)","update":"2019-09-21 14:15:42","iframe_src":"//5091.svetacdn.in/IAF0wWTdNYZm/movie/30972"},{"id":30970,"title":"Летающий Джатт","kp_id":"950937","imdb_id":"tt5235880","world_art_id":null,"type":"movie","add":"2019-09-18 19:39:01","orig_title":"A Flying Jatt","year":"2016-08-25","translations":["Профессиональный (многоголосый закадровый) (ZEE TV)"],"quality":"webdl","translation":"Профессиональный (многоголосый закадровый) (ZEE TV)","update":"2019-09-21 14:13:34","iframe_src":"//5091.svetacdn.in/IAF0wWTdNYZm/movie/30970"},{"id":30968,"title":"Предчувствие любви","kp_id":"208075","imdb_id":"tt0444840","world_art_id":null,"type":"movie","add":"2019-09-18 19:35:31","orig_title":"Humko Deewana Kar Gaye","year":"2006-04-13","translations":["Профессиональный (двухголосый закадровый) (Selena International)"],"quality":"bd","translation":"Профессиональный (двухголосый закадровый) (Selena International)","update":"2019-09-21 14:11:41","iframe_src":"//5091.svetacdn.in/IAF0wWTdNYZm/movie/30968"}],"current_page":1367,"first_page_url":"https://videocdn.tv/api/short?limit=100&api_token=6Onb1W1alEUrBcKJZD3GoKBbWyAl2uG2&cache31367=31367&page=1","from":136601,"last_page":668,"last_page_url":"https://videocdn.tv/api/short?limit=100&api_token=6Onb1W1alEUrBcKJZD3GoKBbWyAl2uG2&cache31367=31367&page=668","next_page_url":null,"path":"https://videocdn.tv/api/short","per_page":100,"prev_page_url":"https://videocdn.tv/api/short?limit=100&api_token=6Onb1W1alEUrBcKJZD3GoKBbWyAl2uG2&cache31367=31367&page=1366","to":136620,"total":66714}