{"result":true,"data":[{"id":30106,"title":"Шестерняшки","kp_id":"1190647","imdb_id":"tt8976710","world_art_id":null,"type":"movie","add":"2019-08-19 07:26:16","orig_title":"Sextuplets","year":"2019-08-16","translations":["Любительский (многоголосый закадровый) (Синема УС)"],"quality":"webdl","translation":"Любительский (многоголосый закадровый) (Синема УС)","update":"2019-08-19 09:07:15","iframe_src":"//8209.svetacdn.in/71tsRs29n5tZ/movie/30106"},{"id":30102,"title":"Маленькая Швейцария","kp_id":"1201358","imdb_id":"tt9100028","world_art_id":null,"type":"movie","add":"2019-08-19 07:20:51","orig_title":"La pequeña Suiza","year":"2019-04-26","translations":["Любительский (многоголосый закадровый) (Синема УС)"],"quality":"webdl","translation":"Любительский (многоголосый закадровый) (Синема УС)","update":"2019-08-19 09:06:48","iframe_src":"//8209.svetacdn.in/71tsRs29n5tZ/movie/30102"},{"id":30059,"title":"Голубая волна 2","kp_id":"512415","imdb_id":"tt1630626","world_art_id":null,"type":"movie","add":"2019-08-16 17:40:13","orig_title":"Blue Crush 2","year":"2011-06-07","translations":["Полное дублирование"],"quality":"bd","translation":"Полное дублирование","update":"2019-08-19 11:06:49","iframe_src":"//8209.svetacdn.in/71tsRs29n5tZ/movie/30059"},{"id":30058,"title":"Гонщица","kp_id":"276326","imdb_id":"tt0915458","world_art_id":null,"type":"movie","add":"2019-08-16 17:31:03","orig_title":"Fast Girl","year":"2008-01-24","translations":["Профессиональный (двухголосый закадровый)"],"quality":"dvdrip","translation":"Профессиональный (двухголосый закадровый)","update":"2019-08-19 11:03:59","iframe_src":"//8209.svetacdn.in/71tsRs29n5tZ/movie/30058"},{"id":30057,"title":"Грибы 3D","kp_id":"572717","imdb_id":"tt1754314","world_art_id":null,"type":"movie","add":"2019-08-16 17:26:31","orig_title":"One Way Trip","year":"2011-09-06","translations":["Полное дублирование"],"quality":"bd","translation":"Полное дублирование","update":"2019-08-19 11:02:20","iframe_src":"//8209.svetacdn.in/71tsRs29n5tZ/movie/30057"},{"id":30056,"title":"Месть бедняка","kp_id":"102307","imdb_id":"tt0418758","world_art_id":null,"type":"movie","add":"2019-08-16 17:14:23","orig_title":"Jacquou le croquant","year":"2007-01-17","translations":["Полное дублирование"],"quality":"dvdrip","translation":"Полное дублирование","update":"2019-08-19 11:01:18","iframe_src":"//8209.svetacdn.in/71tsRs29n5tZ/movie/30056"},{"id":30054,"title":"Авиатор","kp_id":"9581","imdb_id":"tt0088758","world_art_id":null,"type":"movie","add":"2019-08-16 16:43:23","orig_title":"The Aviator","year":"1985-03-15","translations":["Профессиональный (двухголосый закадровый) (НТВ)"],"quality":"bd","translation":"Профессиональный (двухголосый закадровый) (НТВ)","update":"2019-08-19 10:54:57","iframe_src":"//8209.svetacdn.in/71tsRs29n5tZ/movie/30054"},{"id":30052,"title":"Юкка","kp_id":"425036","imdb_id":"tt5162248","world_art_id":null,"type":"movie","add":"2019-08-16 16:31:26","orig_title":"Yukka","year":"1998-01-01","translations":["Оригинальная дорожка"],"quality":"dvdrip","translation":"Оригинальная дорожка","update":"2019-08-19 10:53:21","iframe_src":"//8209.svetacdn.in/71tsRs29n5tZ/movie/30052"},{"id":30032,"title":"Одержимость любовью","kp_id":null,"imdb_id":"tt9876944","world_art_id":null,"type":"movie","add":"2019-08-16 06:50:53","orig_title":"The Passion of Love","year":"2018-01-01","translations":["Профессиональный (многоголосый закадровый) (AlphaProject)"],"quality":"webdl","translation":"Профессиональный (многоголосый закадровый) (AlphaProject)","update":"2019-08-16 12:20:49","iframe_src":"//8209.svetacdn.in/71tsRs29n5tZ/movie/30032"},{"id":30031,"title":"Любовь демона","kp_id":null,"imdb_id":"tt9451848","world_art_id":null,"type":"movie","add":"2019-08-16 06:45:54","orig_title":"A Fiend's Love","year":"2019-03-01","translations":["Любительский (многоголосый закадровый) (Синема УС)"],"quality":"webdl","translation":"Любительский (многоголосый закадровый) (Синема УС)","update":"2019-08-16 12:14:13","iframe_src":"//8209.svetacdn.in/71tsRs29n5tZ/movie/30031"},{"id":30030,"title":"Танцующий слон","kp_id":"1275748","imdb_id":"tt10504110","world_art_id":null,"type":"movie","add":"2019-08-16 06:44:24","orig_title":"Tiao wu ba! Da xiang","year":"2019-07-22","translations":["Любительский (многоголосый закадровый) (Колобок)"],"quality":"webdl","translation":"Любительский (многоголосый закадровый) (Колобок)","update":"2019-08-16 12:20:10","iframe_src":"//8209.svetacdn.in/71tsRs29n5tZ/movie/30030"},{"id":30029,"title":"Диамантино","kp_id":"1023986","imdb_id":"tt6522668","world_art_id":null,"type":"movie","add":"2019-08-16 06:42:41","orig_title":"Diamantino","year":"2018-05-11","translations":["Любительский (многоголосый закадровый) (Синема УС)"],"quality":"bd","translation":"Любительский (многоголосый закадровый) (Синема УС)","update":"2019-08-16 12:15:31","iframe_src":"//8209.svetacdn.in/71tsRs29n5tZ/movie/30029"},{"id":30028,"title":"Эдда Тюдор","kp_id":"1151764","imdb_id":"tt8456718","world_art_id":null,"type":"movie","add":"2019-08-16 06:39:42","orig_title":"Edda Tudor","year":"2019-02-08","translations":["Любительский (многоголосый закадровый) (Синема УС)"],"quality":"webdl","translation":"Любительский (многоголосый закадровый) (Синема УС)","update":"2019-08-16 12:14:50","iframe_src":"//8209.svetacdn.in/71tsRs29n5tZ/movie/30028"},{"id":30027,"title":"Дети-убийцы","kp_id":"1075642","imdb_id":"tt7438912","world_art_id":null,"type":"movie","add":"2019-08-16 06:38:30","orig_title":"Niños Asesinos","year":"2018-03-22","translations":["Любительский (многоголосый закадровый) (Синема УС)"],"quality":"webdl","translation":"Любительский (многоголосый закадровый) (Синема УС)","update":"2019-08-16 12:13:39","iframe_src":"//8209.svetacdn.in/71tsRs29n5tZ/movie/30027"},{"id":29997,"title":"Сыщик из Лос-Анджелеса","kp_id":"15324","imdb_id":"tt0097698","world_art_id":null,"type":"movie","add":"2019-08-14 20:06:45","orig_title":"L.A. Bounty","year":"1989-08-10","translations":["Профессиональный (двухголосый закадровый) (НТВ)"],"quality":"hdtv","translation":"Профессиональный (двухголосый закадровый) (НТВ)","update":"2019-08-16 12:23:16","iframe_src":"//8209.svetacdn.in/71tsRs29n5tZ/movie/29997"},{"id":29993,"title":"Иисус из Назарета","kp_id":"256486","imdb_id":"tt0075520","world_art_id":null,"type":"movie","add":"2019-08-14 19:41:22","orig_title":"Jesus of Nazareth","year":"1977-04-03","translations":["Профессиональный (многоголосый закадровый)"],"quality":"bd","translation":"Профессиональный (многоголосый закадровый)","update":"2019-08-16 12:18:35","iframe_src":"//8209.svetacdn.in/71tsRs29n5tZ/movie/29993"},{"id":21440,"title":"Взлеты и падения: История Дьюи Кокса","kp_id":"272969","imdb_id":"tt0841046","world_art_id":null,"type":"movie","add":"2019-01-11 22:23:46","orig_title":"Walk Hard: The Dewey Cox Story","year":"2007-12-21","translations":["Профессиональный (многоголосый закадровый)"],"quality":"bd","translation":"Профессиональный (многоголосый закадровый)","update":"2019-08-19 10:56:16","iframe_src":"//8209.svetacdn.in/71tsRs29n5tZ/movie/21440"},{"id":15655,"title":"Пульс 2","kp_id":"321778","imdb_id":"tt1038072","world_art_id":null,"type":"movie","add":"2018-03-15 15:32:52","orig_title":"Pulse 2: Afterlife","year":"2008-09-22","translations":["Профессиональный (двухголосый закадровый)"],"quality":"dvdrip","translation":"Профессиональный (двухголосый закадровый)","update":"2019-08-19 10:59:52","iframe_src":"//8209.svetacdn.in/71tsRs29n5tZ/movie/15655"},{"id":13942,"title":"Гэбриэл","kp_id":"680024","imdb_id":"tt2393805","world_art_id":null,"type":"movie","add":"2017-10-22 19:15:03","orig_title":"Gabriel","year":"2014-04-17","translations":["Любительский (одноголосый закадровый)"],"quality":"webdl","translation":"Любительский (одноголосый закадровый)","update":"2019-08-19 11:04:56","iframe_src":"//8209.svetacdn.in/71tsRs29n5tZ/movie/13942"},{"id":291,"title":"Призрачный гонщик","kp_id":"3948","imdb_id":"tt0259324","world_art_id":null,"type":"movie","add":"2016-03-18 16:02:20","orig_title":"Ghost Rider","year":"2007-01-15","translations":["Полное дублирование","Original (English)"],"quality":"bd","translation":"Полное дублирование","update":"2019-08-17 10:15:40","iframe_src":"//8209.svetacdn.in/71tsRs29n5tZ/movie/291"}],"current_page":1355,"first_page_url":"https://videocdn.tv/api/short?limit=100&api_token=EnbO9h8pv1VyjbCJhg0WM9nG259n7mtz&cache31355=31355&page=1","from":135401,"last_page":655,"last_page_url":"https://videocdn.tv/api/short?limit=100&api_token=EnbO9h8pv1VyjbCJhg0WM9nG259n7mtz&cache31355=31355&page=655","next_page_url":null,"path":"https://videocdn.tv/api/short","per_page":100,"prev_page_url":"https://videocdn.tv/api/short?limit=100&api_token=EnbO9h8pv1VyjbCJhg0WM9nG259n7mtz&cache31355=31355&page=1354","to":135420,"total":65456}