{"result":true,"data":[{"id":40416,"title":"Практикантка: Лето похоти","kp_id":null,"imdb_id":"tt11497326","world_art_id":null,"type":"movie","add":"2020-05-15 08:44:41","orig_title":"The Intern - A Summer of Lust","year":"2019-01-01","translations":["Любительский (многоголосый закадровый) (Синема УС)"],"quality":"bd","translation":"Любительский (многоголосый закадровый) (Синема УС)","update":"2020-05-15 10:11:31","iframe_src":"//8332.svetacdn.in/IAF0wWTdNYZm/movie/40416"},{"id":40415,"title":"Берлин, Берлин","kp_id":"1281755","imdb_id":"tt10556130","world_art_id":null,"type":"movie","add":"2020-05-15 06:24:47","orig_title":"Berlin, Berlin","year":"2020-05-08","translations":["Любительский (многоголосый закадровый) (Синема УС)"],"quality":"webdl","translation":"Любительский (многоголосый закадровый) (Синема УС)","update":"2020-05-15 11:00:27","iframe_src":"//8332.svetacdn.in/IAF0wWTdNYZm/movie/40415"},{"id":40413,"title":"Опасный Эскорт","kp_id":"1307509","imdb_id":"tt10994102","world_art_id":null,"type":"movie","add":"2020-05-15 06:18:13","orig_title":"Lies For Rent","year":"2020-02-18","translations":["Любительский (многоголосый закадровый) (AlphaProject)"],"quality":"hdtv","translation":"Любительский (многоголосый закадровый) (AlphaProject)","update":"2020-05-15 10:57:22","iframe_src":"//8332.svetacdn.in/IAF0wWTdNYZm/movie/40413"},{"id":40411,"title":"Дом на холме","kp_id":"1219435","imdb_id":"tt9343158","world_art_id":null,"type":"movie","add":"2020-05-15 06:09:00","orig_title":"The House On The Hill","year":"2019-12-07","translations":["Любительский (многоголосый закадровый) (Синема УС)"],"quality":"webdl","translation":"Любительский (многоголосый закадровый) (Синема УС)","update":"2020-05-15 10:56:15","iframe_src":"//8332.svetacdn.in/IAF0wWTdNYZm/movie/40411"},{"id":40410,"title":"Сразить можно любого","kp_id":"1098263","imdb_id":"tt7549776","world_art_id":null,"type":"movie","add":"2020-05-15 06:01:57","orig_title":"Tod@s Caen","year":"2019-09-20","translations":["Любительский (многоголосый закадровый) (Синема УС)"],"quality":"webdl","translation":"Любительский (многоголосый закадровый) (Синема УС)","update":"2020-05-15 11:03:04","iframe_src":"//8332.svetacdn.in/IAF0wWTdNYZm/movie/40410"},{"id":40406,"title":"Другой я","kp_id":"230628","imdb_id":"tt0246834","world_art_id":null,"type":"movie","add":"2020-05-14 19:14:59","orig_title":"The Other Me","year":"2000-09-08","translations":["Профессиональный (многоголосый закадровый) (СТС)"],"quality":"webdl","translation":"Профессиональный (многоголосый закадровый) (СТС)","update":"2020-05-15 10:54:11","iframe_src":"//8332.svetacdn.in/IAF0wWTdNYZm/movie/40406"},{"id":40403,"title":"Вот и пришла любовь","kp_id":"36580","imdb_id":"tt0206020","world_art_id":null,"type":"movie","add":"2020-05-14 18:44:03","orig_title":"Hote Hote Pyar Hogaya","year":"1999-06-10","translations":["Профессиональный (многоголосый закадровый)"],"quality":"dvdrip","translation":"Профессиональный (многоголосый закадровый)","update":"2020-05-15 07:12:29","iframe_src":"//8332.svetacdn.in/IAF0wWTdNYZm/movie/40403"},{"id":40401,"title":"С. Свенсон","kp_id":"1058590","imdb_id":"tt7438370","world_art_id":null,"type":"movie","add":"2020-05-14 18:34:15","orig_title":"The S. S. Swenson","year":"2019-01-28","translations":["Любительский (многоголосый закадровый) (Синема УС)"],"quality":"webdl","translation":"Любительский (многоголосый закадровый) (Синема УС)","update":"2020-05-15 10:47:40","iframe_src":"//8332.svetacdn.in/IAF0wWTdNYZm/movie/40401"},{"id":40399,"title":"Хуже некуда","kp_id":"1125899","imdb_id":"tt8290068","world_art_id":null,"type":"movie","add":"2020-05-14 18:22:19","orig_title":"To Hell and Gone","year":"2019-04-13","translations":["Любительский (многоголосый закадровый) (@MUZOBOZ@)"],"quality":"webdl","translation":"Любительский (многоголосый закадровый) (@MUZOBOZ@)","update":"2020-05-15 10:46:01","iframe_src":"//8332.svetacdn.in/IAF0wWTdNYZm/movie/40399"},{"id":40383,"title":"Бог любви","kp_id":"102872","imdb_id":"tt0100441","world_art_id":null,"type":"movie","add":"2020-05-13 20:22:37","orig_title":"Pyar Ka Devta","year":"1990-01-01","translations":["Профессиональный (многоголосый закадровый) (Формат AB)"],"quality":"dvdrip","translation":"Профессиональный (многоголосый закадровый) (Формат AB)","update":"2020-05-15 07:10:14","iframe_src":"//8332.svetacdn.in/IAF0wWTdNYZm/movie/40383"},{"id":40369,"title":"Ярость","kp_id":"564978","imdb_id":"tt1708453","world_art_id":null,"type":"movie","add":"2020-05-13 19:19:19","orig_title":"Aakrosh","year":"2010-10-15","translations":["Любительский (одноголосый закадровый)","Профессиональный (многоголосый закадровый) (Red Media)"],"quality":"dvdrip","translation":"Любительский (одноголосый закадровый)","update":"2020-05-15 07:06:35","iframe_src":"//8332.svetacdn.in/IAF0wWTdNYZm/movie/40369"},{"id":39606,"title":"Жестокий мир","kp_id":"86833","imdb_id":"tt0301231","world_art_id":null,"type":"movie","add":"2020-04-20 21:24:46","orig_title":"Duniya","year":"1984-09-18","translations":["Профессиональный (двухголосый закадровый)"],"quality":"webdl","translation":"Профессиональный (двухголосый закадровый)","update":"2020-05-15 07:09:16","iframe_src":"//8332.svetacdn.in/IAF0wWTdNYZm/movie/39606"},{"id":38930,"title":"Великолепная семерка","kp_id":"78518","imdb_id":"tt0084630","world_art_id":null,"type":"movie","add":"2020-04-06 08:18:59","orig_title":"Satte Pe Satta","year":"1982-01-22","translations":["Профессиональный (многоголосый закадровый)"],"quality":"webdl","translation":"Профессиональный (многоголосый закадровый)","update":"2020-05-15 07:04:40","iframe_src":"//8332.svetacdn.in/IAF0wWTdNYZm/movie/38930"},{"id":25320,"title":"Обратная тяга 2","kp_id":"1151301","imdb_id":"tt8172466","world_art_id":null,"type":"movie","add":"2019-04-25 21:03:07","orig_title":"Backdraft 2","year":"2019-05-14","translations":["Профессиональный (многоголосый закадровый) (HDrezka Studio)","Original (English)"],"quality":"bd","translation":"Профессиональный (многоголосый закадровый) (HDrezka Studio)","update":"2020-05-15 12:05:21","iframe_src":"//8332.svetacdn.in/IAF0wWTdNYZm/movie/25320"},{"id":24309,"title":"Бэк Форк","kp_id":"1056152","imdb_id":"tt7155576","world_art_id":null,"type":"movie","add":"2019-04-11 19:31:46","orig_title":"Back Fork","year":"2019-04-09","translations":["Профессиональный (многоголосый закадровый) (HDrezka Studio)","Original (English)"],"quality":"webdl","translation":"Профессиональный (многоголосый закадровый) (HDrezka Studio)","update":"2020-05-15 12:03:58","iframe_src":"//8332.svetacdn.in/IAF0wWTdNYZm/movie/24309"},{"id":16361,"title":"Предательство для начинающих","kp_id":"941518","imdb_id":"tt5153288","world_art_id":null,"type":"movie","add":"2018-04-19 22:05:03","orig_title":"Backstabbing for Beginners","year":"2018-01-18","translations":["Профессиональный (многоголосый закадровый)","Профессиональный (многоголосый закадровый) (HDrezka Studio)"],"quality":"bd","translation":"Профессиональный (многоголосый закадровый)","update":"2020-05-15 12:05:46","iframe_src":"//8332.svetacdn.in/IAF0wWTdNYZm/movie/16361"},{"id":16222,"title":"Кровавый мёд","kp_id":"463483","imdb_id":"tt1380151","world_art_id":null,"type":"movie","add":"2018-04-12 22:06:58","orig_title":"Blood Honey","year":"2017-09-01","translations":["Профессиональный (многоголосый закадровый) (HDrezka Studio)"],"quality":"webdl","translation":"Профессиональный (многоголосый закадровый) (HDrezka Studio)","update":"2020-05-15 12:45:04","iframe_src":"//8332.svetacdn.in/IAF0wWTdNYZm/movie/16222"},{"id":15678,"title":"Чёрные воды","kp_id":"982808","imdb_id":"tt5622412","world_art_id":null,"type":"movie","add":"2018-03-15 21:37:29","orig_title":"Black Water","year":"2018-02-22","translations":["Профессиональный (многоголосый закадровый) (SDI Media)","Полное дублирование","Профессиональный (многоголосый закадровый) (HDrezka Studio)"],"quality":"bd","translation":"Профессиональный (многоголосый закадровый) (SDI Media)","update":"2020-05-15 12:57:24","iframe_src":"//8332.svetacdn.in/IAF0wWTdNYZm/movie/15678"},{"id":15286,"title":"Опасное задание","kp_id":"1009137","imdb_id":"tt6170506","world_art_id":null,"type":"movie","add":"2018-02-24 22:04:43","orig_title":"Beast of Burden","year":"2018-02-23","translations":["Любительский (многоголосый закадровый) (Синема УС)","Профессиональный (многоголосый закадровый) (HDrezka Studio)","Профессиональный (многоголосый закадровый) (GreenРай Studio)","Полное дублирование","Профессиональный (многоголосый закадровый) (HDrezka Studio)"],"quality":"webdl","translation":"Любительский (многоголосый закадровый) (Синема УС)","update":"2020-05-15 12:02:50","iframe_src":"//8332.svetacdn.in/IAF0wWTdNYZm/movie/15286"},{"id":7375,"title":"Победители шоу","kp_id":"608","imdb_id":"tt0218839","world_art_id":null,"type":"movie","add":"2016-11-13 11:55:46","orig_title":"Best in Show","year":"2000-09-08","translations":["Авторский (одноголосый закадровый) (Визгунов Сергей)","Профессиональный (многоголосый закадровый) (HDrezka Studio)"],"quality":"hdtv","translation":"Авторский (одноголосый закадровый) (Визгунов Сергей)","update":"2020-05-15 12:03:22","iframe_src":"//8332.svetacdn.in/IAF0wWTdNYZm/movie/7375"}],"current_page":706,"first_page_url":"https://videocdn.tv/api/short?limit=100&api_token=6Onb1W1alEUrBcKJZD3GoKBbWyAl2uG2&cache3706=3706&page=1","from":70501,"last_page":636,"last_page_url":"https://videocdn.tv/api/short?limit=100&api_token=6Onb1W1alEUrBcKJZD3GoKBbWyAl2uG2&cache3706=3706&page=636","next_page_url":null,"path":"https://videocdn.tv/api/short","per_page":100,"prev_page_url":"https://videocdn.tv/api/short?limit=100&api_token=6Onb1W1alEUrBcKJZD3GoKBbWyAl2uG2&cache3706=3706&page=705","to":70520,"total":63593}