{"result":true,"data":[{"id":40652,"title":"Смех без причины","kp_id":"1314445","imdb_id":"tt11138290","world_art_id":null,"type":"movie","add":"2020-05-23 20:07:52","orig_title":"Naan Sirithaa","year":"2020-02-14","translations":["Любительский (многоголосый закадровый) (Синема УС)"],"quality":"webdl","translation":"Любительский (многоголосый закадровый) (Синема УС)","update":"2020-05-24 05:17:23","iframe_src":"//8332.svetacdn.in/71tsRs29n5tZ/movie/40652"},{"id":40651,"title":"Неаполитанские мошенники","kp_id":"1342330","imdb_id":"tt11576938","world_art_id":null,"type":"movie","add":"2020-05-23 20:05:32","orig_title":"Il Ladro di Cardellini","year":"2019-01-01","translations":["Профессиональный (многоголосый закадровый)"],"quality":"webdl","translation":"Профессиональный (многоголосый закадровый)","update":"2020-05-24 05:16:39","iframe_src":"//8332.svetacdn.in/71tsRs29n5tZ/movie/40651"},{"id":40650,"title":"Невод","kp_id":"1008867","imdb_id":"tt6864720","world_art_id":null,"type":"movie","add":"2020-05-23 20:02:11","orig_title":"Nevod","year":"2017-10-13","translations":["Оригинальная дорожка"],"quality":"webdl","translation":"Оригинальная дорожка","update":"2020-05-24 05:15:18","iframe_src":"//8332.svetacdn.in/71tsRs29n5tZ/movie/40650"},{"id":40648,"title":"Ромком","kp_id":"1260304","imdb_id":"tt9583526","world_art_id":null,"type":"movie","add":"2020-05-23 15:05:34","orig_title":"Romantic Comedy","year":"2019-01-25","translations":["Любительский (многоголосый закадровый) (Синема УС)"],"quality":"webdl","translation":"Любительский (многоголосый закадровый) (Синема УС)","update":"2020-05-23 17:16:14","iframe_src":"//8332.svetacdn.in/71tsRs29n5tZ/movie/40648"},{"id":40647,"title":"Последний кусок","kp_id":"1183391","imdb_id":"tt8425648","world_art_id":null,"type":"movie","add":"2020-05-23 15:02:19","orig_title":"The Last Bite","year":"2020-01-01","translations":["Любительский (многоголосый закадровый) (Синема УС)"],"quality":"webdl","translation":"Любительский (многоголосый закадровый) (Синема УС)","update":"2020-05-23 17:07:36","iframe_src":"//8332.svetacdn.in/71tsRs29n5tZ/movie/40647"},{"id":40646,"title":"Фестиваль скота","kp_id":"1225738","imdb_id":"tt9378826","world_art_id":null,"type":"movie","add":"2020-05-23 14:56:33","orig_title":"The Droving","year":"2020-04-21","translations":["Любительский (многоголосый закадровый) (Синема УС)"],"quality":"webdl","translation":"Любительский (многоголосый закадровый) (Синема УС)","update":"2020-05-23 17:06:31","iframe_src":"//8332.svetacdn.in/71tsRs29n5tZ/movie/40646"},{"id":40645,"title":"Мотель «Акация»","kp_id":"1230585","imdb_id":"tt9461104","world_art_id":null,"type":"movie","add":"2020-05-23 14:54:35","orig_title":"Motel Acacia","year":"2019-11-01","translations":["Любительский (многоголосый закадровый) (Синема УС)"],"quality":"webdl","translation":"Любительский (многоголосый закадровый) (Синема УС)","update":"2020-05-23 17:03:57","iframe_src":"//8332.svetacdn.in/71tsRs29n5tZ/movie/40645"},{"id":40637,"title":"Чувствительная и влюбленная","kp_id":"1193091","imdb_id":"tt9003386","world_art_id":null,"type":"movie","add":"2020-05-22 13:23:34","orig_title":"Sensitive and in Love","year":"2020-01-29","translations":["Любительский (многоголосый закадровый) (@MUZOBOZ@)"],"quality":"webdl","translation":"Любительский (многоголосый закадровый) (@MUZOBOZ@)","update":"2020-05-22 22:24:27","iframe_src":"//8332.svetacdn.in/71tsRs29n5tZ/movie/40637"},{"id":40636,"title":"Живой лес","kp_id":"61099","imdb_id":"tt0310790","world_art_id":null,"type":"movie","add":"2020-05-22 13:16:46","orig_title":"El bosque animado","year":"2001-08-03","translations":["Полное дублирование"],"quality":"dvdrip","translation":"Полное дублирование","update":"2020-05-23 08:34:58","iframe_src":"//8332.svetacdn.in/71tsRs29n5tZ/movie/40636"},{"id":40634,"title":"Гроза","kp_id":"1261582","imdb_id":"tt10535046","world_art_id":null,"type":"movie","add":"2020-05-22 12:56:07","orig_title":"Groza","year":"2019-06-15","translations":["Оригинальная дорожка"],"quality":"webdl","translation":"Оригинальная дорожка","update":"2020-05-23 08:30:19","iframe_src":"//8332.svetacdn.in/71tsRs29n5tZ/movie/40634"},{"id":40632,"title":"Лес испытаний","kp_id":"793468","imdb_id":"tt5007434","world_art_id":null,"type":"movie","add":"2020-05-22 12:52:05","orig_title":"Breakdown Forest - Reise in den Abgrund","year":"2019-06-20","translations":["Любительский (многоголосый закадровый) (@MUZOBOZ@)"],"quality":"webdl","translation":"Любительский (многоголосый закадровый) (@MUZOBOZ@)","update":"2020-05-23 08:33:45","iframe_src":"//8332.svetacdn.in/71tsRs29n5tZ/movie/40632"},{"id":40561,"title":"Вирус Х","kp_id":"573242","imdb_id":"tt1509125","world_art_id":null,"type":"movie","add":"2020-05-20 13:24:37","orig_title":"Virus X","year":"2010-10-01","translations":["Профессиональный (двухголосый закадровый)"],"quality":"hdtv","translation":"Профессиональный (двухголосый закадровый)","update":"2020-05-23 14:55:44","iframe_src":"//8332.svetacdn.in/71tsRs29n5tZ/movie/40561"},{"id":40560,"title":"Медленное видео","kp_id":"807578","imdb_id":"tt3305060","world_art_id":null,"type":"movie","add":"2020-05-20 13:11:19","orig_title":"Seullou bidio","year":"2014-10-02","translations":["Любительский (многоголосый закадровый)"],"quality":"webdl","translation":"Любительский (многоголосый закадровый)","update":"2020-05-23 14:49:01","iframe_src":"//8332.svetacdn.in/71tsRs29n5tZ/movie/40560"},{"id":40559,"title":"Флика 3","kp_id":"615691","imdb_id":"tt2039339","world_art_id":null,"type":"movie","add":"2020-05-20 13:06:18","orig_title":"Flicka: Country Pride","year":"2012-05-01","translations":["Профессиональный (многоголосый закадровый)"],"quality":"dvdrip","translation":"Профессиональный (многоголосый закадровый)","update":"2020-05-23 14:46:53","iframe_src":"//8332.svetacdn.in/71tsRs29n5tZ/movie/40559"},{"id":40558,"title":"Признания голливудской старлетки","kp_id":"397468","imdb_id":"tt1124401","world_art_id":null,"type":"movie","add":"2020-05-20 13:01:47","orig_title":"True Confessions of a Hollywood Starlet","year":"2008-08-09","translations":["Профессиональный (многоголосый закадровый)"],"quality":"dvdrip","translation":"Профессиональный (многоголосый закадровый)","update":"2020-05-23 14:44:17","iframe_src":"//8332.svetacdn.in/71tsRs29n5tZ/movie/40558"},{"id":40557,"title":"Баламут","kp_id":"46014","imdb_id":"tt0166499","world_art_id":null,"type":"movie","add":"2020-05-20 12:49:25","orig_title":"Balamut","year":"1979-09-17","translations":["Оригинальная дорожка"],"quality":"dvdrip","translation":"Оригинальная дорожка","update":"2020-05-23 14:43:03","iframe_src":"//8332.svetacdn.in/71tsRs29n5tZ/movie/40557"},{"id":40441,"title":"Замок в земле","kp_id":"1237607","imdb_id":"tt3689484","world_art_id":null,"type":"movie","add":"2020-05-15 22:37:11","orig_title":"Castle in the Ground","year":"2019-09-05","translations":["Любительский (многоголосый закадровый) (@MUZOBOZ@)","Любительский (двухголосый закадровый) (LakeFilms)"],"quality":"webdl","translation":"Любительский (многоголосый закадровый) (@MUZOBOZ@)","update":"2020-05-23 14:52:19","iframe_src":"//8332.svetacdn.in/71tsRs29n5tZ/movie/40441"},{"id":40179,"title":"Становление","kp_id":null,"imdb_id":"tt12221748","world_art_id":null,"type":"movie","add":"2020-05-07 05:50:01","orig_title":"Becoming","year":"2020-05-06","translations":["Любительский (многоголосый закадровый) (Синема УС)","Любительский (многоголосый закадровый) (WestFilm)"],"quality":"webdl","translation":"Любительский (многоголосый закадровый) (Синема УС)","update":"2020-05-22 22:36:10","iframe_src":"//8332.svetacdn.in/71tsRs29n5tZ/movie/40179"},{"id":40009,"title":"Богат любовью","kp_id":"1267988","imdb_id":"tt10329566","world_art_id":null,"type":"movie","add":"2020-05-01 04:07:25","orig_title":"Ricos de Amor","year":"2020-04-30","translations":["Любительский (многоголосый закадровый) (Синема УС)","Любительский (многоголосый закадровый) (WestFilm)"],"quality":"webdl","translation":"Любительский (многоголосый закадровый) (Синема УС)","update":"2020-05-22 22:23:18","iframe_src":"//8332.svetacdn.in/71tsRs29n5tZ/movie/40009"},{"id":10844,"title":"Кровавый спорт 2","kp_id":"40265","imdb_id":"tt0112536","world_art_id":null,"type":"movie","add":"2017-04-10 07:06:54","orig_title":"Bloodsport 2","year":"1996-03-01","translations":["Профессиональный (двухголосый закадровый)","Профессиональный (многоголосый закадровый) (Варус-Видео)","Авторский (одноголосый закадровый) (Санаев Павел)","Original (English)"],"quality":"dvdrip","translation":"Профессиональный (двухголосый закадровый)","update":"2020-05-23 10:47:48","iframe_src":"//8332.svetacdn.in/71tsRs29n5tZ/movie/10844"}],"current_page":681,"first_page_url":"https://videocdn.tv/api/short?limit=100&api_token=EnbO9h8pv1VyjbCJhg0WM9nG259n7mtz&cache3681=3681&page=1","from":68001,"last_page":634,"last_page_url":"https://videocdn.tv/api/short?limit=100&api_token=EnbO9h8pv1VyjbCJhg0WM9nG259n7mtz&cache3681=3681&page=634","next_page_url":null,"path":"https://videocdn.tv/api/short","per_page":100,"prev_page_url":"https://videocdn.tv/api/short?limit=100&api_token=EnbO9h8pv1VyjbCJhg0WM9nG259n7mtz&cache3681=3681&page=680","to":68020,"total":63356}