{"result":true,"data":[{"id":48790,"title":"Кот с человеческими руками","kp_id":"109015","imdb_id":"tt0371596","world_art_id":null,"type":"movie","add":"2021-03-16 06:21:35","orig_title":"The Cat with Hands","year":"2007-05-22","translations":["[EN] Original (English)"],"quality":"dvdrip","translation":"[EN] Original (English)","update":"2021-03-16 09:02:48","iframe_src":"//7741.svetacdn.in/si4jsFRrtgrT/movie/48790"},{"id":48774,"title":"Во имя Иисуса","kp_id":null,"imdb_id":"tt10954196","world_art_id":null,"type":"movie","add":"2021-03-15 13:24:12","orig_title":"In Jesus Name","year":"2019-04-02","translations":["Любительский (многоголосый закадровый) (Синема УС)"],"quality":"webdl","translation":"Любительский (многоголосый закадровый) (Синема УС)","update":"2021-03-16 07:36:02","iframe_src":"//7741.svetacdn.in/si4jsFRrtgrT/movie/48774"},{"id":48770,"title":"Еда, напитки, свадьба","kp_id":"1266295","imdb_id":"tt10346362","world_art_id":null,"type":"movie","add":"2021-03-15 12:56:59","orig_title":"Eat, Drink & Be Married","year":"2019-06-22","translations":["Любительский (многоголосый закадровый) (AlphaProject)"],"quality":"webdl","translation":"Любительский (многоголосый закадровый) (AlphaProject)","update":"2021-03-15 20:19:56","iframe_src":"//7741.svetacdn.in/si4jsFRrtgrT/movie/48770"},{"id":48769,"title":"Разборки 2","kp_id":"1449120","imdb_id":"tt13438740","world_art_id":null,"type":"movie","add":"2021-03-15 12:55:34","orig_title":"I Got This 2","year":"2020-11-06","translations":["Любительский (многоголосый закадровый) (Синема УС)"],"quality":"webdl","translation":"Любительский (многоголосый закадровый) (Синема УС)","update":"2021-03-15 20:20:22","iframe_src":"//7741.svetacdn.in/si4jsFRrtgrT/movie/48769"},{"id":48764,"title":"Малазия: Поколение 90-х","kp_id":"1353902","imdb_id":"tt11835236","world_art_id":null,"type":"movie","add":"2021-03-15 12:40:57","orig_title":"Generasi 90an: Melankolia","year":"2020-12-24","translations":["Любительский (многоголосый закадровый) (Синема УС)"],"quality":"webdl","translation":"Любительский (многоголосый закадровый) (Синема УС)","update":"2021-03-15 20:22:34","iframe_src":"//7741.svetacdn.in/si4jsFRrtgrT/movie/48764"},{"id":48763,"title":"Видение","kp_id":"854124","imdb_id":"tt3963674","world_art_id":null,"type":"movie","add":"2021-03-15 12:37:54","orig_title":"Insight","year":"2021-03-12","translations":["Любительский (многоголосый закадровый) (@MUZOBOZ@)"],"quality":"webdl","translation":"Любительский (многоголосый закадровый) (@MUZOBOZ@)","update":"2021-03-15 20:23:04","iframe_src":"//7741.svetacdn.in/si4jsFRrtgrT/movie/48763"},{"id":48761,"title":"Запах ночи","kp_id":"57901","imdb_id":"tt0140428","world_art_id":null,"type":"movie","add":"2021-03-15 11:03:22","orig_title":"L'odore della notte","year":"1998-09-08","translations":["Профессиональный (многоголосый закадровый) (Монолит)"],"quality":"bd","translation":"Профессиональный (многоголосый закадровый) (Монолит)","update":"2021-03-16 08:06:42","iframe_src":"//7741.svetacdn.in/si4jsFRrtgrT/movie/48761"},{"id":48760,"title":"У истоков жизни","kp_id":"15191","imdb_id":"tt0052017","world_art_id":null,"type":"movie","add":"2021-03-15 10:10:11","orig_title":"Nära livet","year":"1958-03-31","translations":["Профессиональный (одноголосый закадровый)"],"quality":"bd","translation":"Профессиональный (одноголосый закадровый)","update":"2021-03-16 08:27:45","iframe_src":"//7741.svetacdn.in/si4jsFRrtgrT/movie/48760"},{"id":48754,"title":"К радости","kp_id":"220954","imdb_id":"tt0043048","world_art_id":null,"type":"movie","add":"2021-03-15 07:30:03","orig_title":"Till glädje","year":"1950-02-20","translations":["Профессиональный (двухголосый закадровый) (iTunes)"],"quality":"bd","translation":"Профессиональный (двухголосый закадровый) (iTunes)","update":"2021-03-16 08:25:35","iframe_src":"//7741.svetacdn.in/si4jsFRrtgrT/movie/48754"},{"id":48753,"title":"Молчание","kp_id":"94231","imdb_id":"tt0057611","world_art_id":null,"type":"movie","add":"2021-03-15 07:28:22","orig_title":"Tystnaden","year":"1963-09-23","translations":["Профессиональный (многоголосый закадровый)"],"quality":"bd","translation":"Профессиональный (многоголосый закадровый)","update":"2021-03-16 08:23:50","iframe_src":"//7741.svetacdn.in/si4jsFRrtgrT/movie/48753"},{"id":48752,"title":"Корабль идет в Индию","kp_id":"74161","imdb_id":"tt0039834","world_art_id":null,"type":"movie","add":"2021-03-15 07:25:41","orig_title":"Skepp till India land","year":"1947-09-22","translations":["Профессиональный (одноголосый закадровый)"],"quality":"bd","translation":"Профессиональный (одноголосый закадровый)","update":"2021-03-16 08:07:48","iframe_src":"//7741.svetacdn.in/si4jsFRrtgrT/movie/48752"},{"id":48751,"title":"Синсэнгуми","kp_id":"222877","imdb_id":"tt0066372","world_art_id":null,"type":"movie","add":"2021-03-15 07:24:00","orig_title":"Shinsengumi","year":"1969-12-05","translations":["Авторский (одноголосый закадровый) (Кузнецов Сергей)"],"quality":"webdl","translation":"Авторский (одноголосый закадровый) (Кузнецов Сергей)","update":"2021-03-16 08:19:06","iframe_src":"//7741.svetacdn.in/si4jsFRrtgrT/movie/48751"},{"id":48722,"title":"Роуз притворяется Джули","kp_id":"1190185","imdb_id":"tt8917170","world_art_id":null,"type":"movie","add":"2021-03-13 22:51:13","orig_title":"Rose Plays Julie","year":"2021-03-20","translations":["Любительский (многоголосый закадровый) (Синема УС)"],"quality":"webdl","translation":"Любительский (многоголосый закадровый) (Синема УС)","update":"2021-03-16 09:08:07","iframe_src":"//7741.svetacdn.in/si4jsFRrtgrT/movie/48722"},{"id":48721,"title":"Четыре Стены","kp_id":"1172185","imdb_id":"tt8262042","world_art_id":null,"type":"movie","add":"2021-03-13 22:47:25","orig_title":"Four Walls","year":"2020-01-01","translations":["Любительский (многоголосый закадровый) (Синема УС)"],"quality":"webdl","translation":"Любительский (многоголосый закадровый) (Синема УС)","update":"2021-03-16 09:07:15","iframe_src":"//7741.svetacdn.in/si4jsFRrtgrT/movie/48721"},{"id":48714,"title":"Дом Ани","kp_id":null,"imdb_id":"tt8574416","world_art_id":null,"type":"movie","add":"2021-03-13 13:01:26","orig_title":"House of Ani","year":"2019-01-27","translations":["Любительский (многоголосый закадровый) (Синема УС)"],"quality":"webdl","translation":"Любительский (многоголосый закадровый) (Синема УС)","update":"2021-03-16 09:53:07","iframe_src":"//7741.svetacdn.in/si4jsFRrtgrT/movie/48714"},{"id":48710,"title":"Ночь бессмертных","kp_id":"1256378","imdb_id":"tt13236180","world_art_id":null,"type":"movie","add":"2021-03-13 12:39:51","orig_title":"Jukji anneun Ingan-deul-e Bam","year":"2020-09-29","translations":["Любительский (двухголосый закадровый) (Колобок)"],"quality":"webdl","translation":"Любительский (двухголосый закадровый) (Колобок)","update":"2021-03-16 09:54:06","iframe_src":"//7741.svetacdn.in/si4jsFRrtgrT/movie/48710"},{"id":48680,"title":"Акеларре","kp_id":"1254396","imdb_id":"tt9916362","world_art_id":null,"type":"movie","add":"2021-03-12 09:38:01","orig_title":"Akelarre","year":"2020-10-02","translations":["Любительский (многоголосый закадровый) (@MUZOBOZ@)","Любительский (многоголосый закадровый) (@MUZOBOZ@)"],"quality":"webdl","translation":"Любительский (многоголосый закадровый) (@MUZOBOZ@)","update":"2021-03-16 08:14:27","iframe_src":"//7741.svetacdn.in/si4jsFRrtgrT/movie/48680"},{"id":44915,"title":"Мисс","kp_id":"1253449","imdb_id":"tt10123698","world_art_id":null,"type":"movie","add":"2020-10-30 19:16:29","orig_title":"Miss","year":"2020-01-18","translations":["Любительский (многоголосый закадровый) (@MUZOBOZ@)","Любительский (многоголосый закадровый) (@MUZOBOZ@)"],"quality":"ts","translation":"Любительский (многоголосый закадровый) (@MUZOBOZ@)","update":"2021-03-16 07:36:50","iframe_src":"//7741.svetacdn.in/si4jsFRrtgrT/movie/44915"},{"id":29431,"title":"Осенние сны","kp_id":"42802","imdb_id":"tt0300307","world_art_id":null,"type":"movie","add":"2019-07-26 21:35:22","orig_title":"Osenniye sny","year":"1987-10-05","translations":["Оригинальная дорожка","Оригинальная дорожка"],"quality":"dvdrip","translation":"Оригинальная дорожка","update":"2021-03-16 08:11:10","iframe_src":"//7741.svetacdn.in/si4jsFRrtgrT/movie/29431"},{"id":10340,"title":"Вечер шутов","kp_id":"95294","imdb_id":"tt0045848","world_art_id":null,"type":"movie","add":"2017-03-14 23:05:41","orig_title":"Gycklarnas afton","year":"1953-09-14","translations":["Профессиональный (многоголосый закадровый)","Профессиональный (двухголосый закадровый) (Фортуна-Фильм)"],"quality":"bd","translation":"Профессиональный (многоголосый закадровый)","update":"2021-03-16 08:08:43","iframe_src":"//7741.svetacdn.in/si4jsFRrtgrT/movie/10340"}],"current_page":639,"first_page_url":"https://videocdn.tv/api/short?limit=100&api_token=X6EwAUfE5M9xbo7y0Bp0aPf3uXxG2KLL&cache3639=3639&page=1","from":63801,"last_page":706,"last_page_url":"https://videocdn.tv/api/short?limit=100&api_token=X6EwAUfE5M9xbo7y0Bp0aPf3uXxG2KLL&cache3639=3639&page=706","next_page_url":"https://videocdn.tv/api/short?limit=100&api_token=X6EwAUfE5M9xbo7y0Bp0aPf3uXxG2KLL&cache3639=3639&page=640","path":"https://videocdn.tv/api/short","per_page":100,"prev_page_url":"https://videocdn.tv/api/short?limit=100&api_token=X6EwAUfE5M9xbo7y0Bp0aPf3uXxG2KLL&cache3639=3639&page=638","to":63820,"total":70558}