{"result":true,"data":[{"id":20375,"title":"Нежная кожа","kp_id":"1048941","imdb_id":"tt7133648","world_art_id":null,"type":"movie","add":"2018-11-29 23:18:41","orig_title":"Ta peau si lisse","year":"2017-08-04","translations":["Любительский (многоголосый закадровый) (Синема УС)"],"quality":"webdl","translation":"Любительский (многоголосый закадровый) (Синема УС)","update":"2018-11-30 07:42:41","iframe_src":"//83.svetacdn.in/PfJ50H0ZBPg3/movie/20375"},{"id":20347,"title":"Заставь нас мечтать","kp_id":null,"imdb_id":"tt9206562","world_art_id":null,"type":"movie","add":"2018-11-28 10:22:02","orig_title":"Make Us Dream","year":"2018-11-15","translations":["Любительский (многоголосый закадровый) (Синема УС)"],"quality":"webdl","translation":"Любительский (многоголосый закадровый) (Синема УС)","update":"2018-11-29 08:03:56","iframe_src":"//83.svetacdn.in/PfJ50H0ZBPg3/movie/20347"},{"id":20340,"title":"Любовь с первого взгляда","kp_id":"49538","imdb_id":"tt0164538","world_art_id":null,"type":"movie","add":"2018-11-28 08:04:48","orig_title":"Dil Se..","year":"1998-08-21","translations":["Профессиональный (многоголосый закадровый)"],"quality":"webdl","translation":"Профессиональный (многоголосый закадровый)","update":"2018-11-29 08:22:36","iframe_src":"//83.svetacdn.in/PfJ50H0ZBPg3/movie/20340"},{"id":20333,"title":"Наследие Вальдемара 2: Там, где обитают тени","kp_id":"567203","imdb_id":"tt1727800","world_art_id":null,"type":"movie","add":"2018-11-28 07:56:05","orig_title":"La herencia Valdemar II: La sombra prohibida","year":"2010-10-07","translations":["Любительский (одноголосый закадровый)"],"quality":"bd","translation":"Любительский (одноголосый закадровый)","update":"2018-11-29 08:09:56","iframe_src":"//83.svetacdn.in/PfJ50H0ZBPg3/movie/20333"},{"id":20332,"title":"Наследие Вальдемара","kp_id":"416480","imdb_id":"tt1242744","world_art_id":null,"type":"movie","add":"2018-11-28 07:54:31","orig_title":"La herencia Valdemar","year":"2010-01-22","translations":["Любительский (двухголосый закадровый)"],"quality":"bd","translation":"Любительский (двухголосый закадровый)","update":"2018-11-29 08:08:18","iframe_src":"//83.svetacdn.in/PfJ50H0ZBPg3/movie/20332"},{"id":8645,"title":"Рождественская звезда","kp_id":"906061","imdb_id":"tt4591840","world_art_id":null,"type":"movie","add":"2017-01-07 08:44:55","orig_title":"A Christmas Star","year":"2015-11-13","translations":["Любительский (одноголосый закадровый)","Любительский (многоголосый закадровый) (Синема УС)"],"quality":"bd","translation":"Любительский (одноголосый закадровый)","update":"2018-11-30 07:43:57","iframe_src":"//83.svetacdn.in/PfJ50H0ZBPg3/movie/8645"},{"id":2340,"title":"Доза реальности","kp_id":"661308","imdb_id":"tt1961279","world_art_id":null,"type":"movie","add":"2016-05-19 10:41:12","orig_title":"Dose of Reality","year":"2013-02-28","translations":["Профессиональный (многоголосый закадровый)","Original (English)"],"quality":"webdl","translation":"Профессиональный (многоголосый закадровый)","update":"2018-11-29 14:26:57","iframe_src":"//83.svetacdn.in/PfJ50H0ZBPg3/movie/2340"},{"id":2331,"title":"Контроль","kp_id":"61289","imdb_id":"tt0374584","world_art_id":null,"type":"movie","add":"2016-05-19 05:30:53","orig_title":"Control","year":"2004-12-07","translations":["Профессиональный (многоголосый закадровый)","Original (English)"],"quality":"bd","translation":"Профессиональный (многоголосый закадровый)","update":"2018-11-29 14:20:10","iframe_src":"//83.svetacdn.in/PfJ50H0ZBPg3/movie/2331"},{"id":2330,"title":"Электра","kp_id":"7030","imdb_id":"tt0357277","world_art_id":null,"type":"movie","add":"2016-05-19 05:29:33","orig_title":"Elektra","year":"2005-01-08","translations":["Полное дублирование","Original (English)"],"quality":"bd","translation":"Полное дублирование","update":"2018-11-29 14:32:38","iframe_src":"//83.svetacdn.in/PfJ50H0ZBPg3/movie/2330"},{"id":2307,"title":"Аферисты Дик и Джейн","kp_id":"61438","imdb_id":"tt0369441","world_art_id":null,"type":"movie","add":"2016-05-17 19:32:38","orig_title":"Fun with Dick and Jane","year":"2005-12-21","translations":["Полное дублирование","Original (English)"],"quality":"webdl","translation":"Полное дублирование","update":"2018-11-29 14:36:07","iframe_src":"//83.svetacdn.in/PfJ50H0ZBPg3/movie/2307"},{"id":2305,"title":"Земные девушки легко доступны","kp_id":"6042","imdb_id":"tt0097257","world_art_id":null,"type":"movie","add":"2016-05-17 19:27:51","orig_title":"Earth Girls Are Easy","year":"1988-09-09","translations":["Профессиональный (двухголосый закадровый)","Профессиональный (многоголосый закадровый)","Original (English)"],"quality":"webdl","translation":"Профессиональный (двухголосый закадровый)","update":"2018-11-29 14:30:20","iframe_src":"//83.svetacdn.in/PfJ50H0ZBPg3/movie/2305"},{"id":2304,"title":"Тупой и еще тупее 2","kp_id":"645087","imdb_id":"tt2096672","world_art_id":null,"type":"movie","add":"2016-05-17 19:26:33","orig_title":"Dumb and Dumber To","year":"2014-11-07","translations":["Полное дублирование","Original (English)"],"quality":"bd","translation":"Полное дублирование","update":"2018-11-29 14:28:16","iframe_src":"//83.svetacdn.in/PfJ50H0ZBPg3/movie/2304"},{"id":2302,"title":"Птицы Америки","kp_id":"314835","imdb_id":"tt1029134","world_art_id":null,"type":"movie","add":"2016-05-17 19:18:45","orig_title":"Birds of America","year":"2008-01-24","translations":["Профессиональный (многоголосый закадровый)","Original (English)"],"quality":"bd","translation":"Профессиональный (многоголосый закадровый)","update":"2018-11-29 14:14:21","iframe_src":"//83.svetacdn.in/PfJ50H0ZBPg3/movie/2302"},{"id":2301,"title":"Почти герои","kp_id":"1690","imdb_id":"tt0119053","world_art_id":null,"type":"movie","add":"2016-05-17 19:12:53","orig_title":"Almost Heroes","year":"1998-05-29","translations":["Полное дублирование","Original (English)"],"quality":"webdl","translation":"Полное дублирование","update":"2018-11-29 14:12:03","iframe_src":"//83.svetacdn.in/PfJ50H0ZBPg3/movie/2301"},{"id":2299,"title":"Эйс Вентура: Розыск домашних животных","kp_id":"2868","imdb_id":"tt0109040","world_art_id":null,"type":"movie","add":"2016-05-17 19:09:48","orig_title":"Ace Ventura: Pet Detective","year":"1994-02-04","translations":["Полное дублирование","Original (English)"],"quality":"bd","translation":"Полное дублирование","update":"2018-11-29 14:09:19","iframe_src":"//83.svetacdn.in/PfJ50H0ZBPg3/movie/2299"},{"id":2298,"title":"Рождественская история","kp_id":"391755","imdb_id":"tt1067106","world_art_id":null,"type":"movie","add":"2016-05-17 19:08:00","orig_title":"A Christmas Carol","year":"2009-11-03","translations":["Полное дублирование","Original (English)"],"quality":"bd","translation":"Полное дублирование","update":"2018-11-29 14:08:15","iframe_src":"//83.svetacdn.in/PfJ50H0ZBPg3/movie/2298"},{"id":2296,"title":"Дьявол","kp_id":"854611","imdb_id":"tt4076760","world_art_id":null,"type":"movie","add":"2016-05-17 10:44:37","orig_title":"Diablo","year":"2015-10-02","translations":["Любительский (многоголосый закадровый) (Parovoz Production)","Original (English)"],"quality":"webdl","translation":"Любительский (многоголосый закадровый) (Parovoz Production)","update":"2018-11-29 14:25:24","iframe_src":"//83.svetacdn.in/PfJ50H0ZBPg3/movie/2296"},{"id":2287,"title":"Кориолан","kp_id":"462250","imdb_id":"tt1372686","world_art_id":null,"type":"movie","add":"2016-05-17 07:43:42","orig_title":"Coriolanus","year":"2011-02-14","translations":["Полное дублирование","Original (English)"],"quality":"bd","translation":"Полное дублирование","update":"2018-11-29 14:21:02","iframe_src":"//83.svetacdn.in/PfJ50H0ZBPg3/movie/2287"},{"id":2243,"title":"Четыре свадьбы и одни похороны","kp_id":"6151","imdb_id":"tt0109831","world_art_id":null,"type":"movie","add":"2016-05-17 04:39:43","orig_title":"Four Weddings and a Funeral","year":"1994-01-20","translations":["Профессиональный (многоголосый закадровый)","Original (English)"],"quality":"bd","translation":"Профессиональный (многоголосый закадровый)","update":"2018-11-29 14:34:34","iframe_src":"//83.svetacdn.in/PfJ50H0ZBPg3/movie/2243"},{"id":2242,"title":"Клерки 2","kp_id":"83793","imdb_id":"tt0424345","world_art_id":null,"type":"movie","add":"2016-05-17 04:38:12","orig_title":"Clerks II","year":"2006-05-26","translations":["Полное дублирование","Original (English)"],"quality":"hddvd","translation":"Полное дублирование","update":"2018-11-29 14:18:46","iframe_src":"//83.svetacdn.in/PfJ50H0ZBPg3/movie/2242"}],"current_page":1650,"first_page_url":"https://videocdn.tv/api/short?limit=100&api_token=RgFQdUIR2dRmwv8iYa5SnFNgnw3vpjKj&cache31650=31650&page=1","from":164901,"last_page":616,"last_page_url":"https://videocdn.tv/api/short?limit=100&api_token=RgFQdUIR2dRmwv8iYa5SnFNgnw3vpjKj&cache31650=31650&page=616","next_page_url":null,"path":"https://videocdn.tv/api/short","per_page":100,"prev_page_url":"https://videocdn.tv/api/short?limit=100&api_token=RgFQdUIR2dRmwv8iYa5SnFNgnw3vpjKj&cache31650=31650&page=1649","to":164920,"total":61599}