{"result":true,"data":[{"id":37100,"title":"Роковая Лара","kp_id":"463720","imdb_id":"tt1421040","world_art_id":null,"type":"movie","add":"2020-02-28 10:04:53","orig_title":"Io, loro e Lara","year":"2009-12-03","translations":["Профессиональный (многоголосый закадровый)"],"quality":"dvdrip","translation":"Профессиональный (многоголосый закадровый)","update":"2020-02-28 11:22:21","iframe_src":"//8209.svetacdn.in/IAF0wWTdNYZm/movie/37100"},{"id":37099,"title":"Мадам Де....","kp_id":"333109","imdb_id":"tt0297269","world_art_id":null,"type":"movie","add":"2020-02-28 09:57:46","orig_title":"Madame De...","year":"2001-10-01","translations":["Профессиональный (многоголосый закадровый)"],"quality":"sat","translation":"Профессиональный (многоголосый закадровый)","update":"2020-02-28 11:11:10","iframe_src":"//8209.svetacdn.in/IAF0wWTdNYZm/movie/37099"},{"id":37097,"title":"Апостол","kp_id":"7186","imdb_id":"tt0118632","world_art_id":null,"type":"movie","add":"2020-02-28 09:46:59","orig_title":"The Apostle","year":"1997-09-06","translations":["Профессиональный (многоголосый закадровый) (НТВ)"],"quality":"dvdrip","translation":"Профессиональный (многоголосый закадровый) (НТВ)","update":"2020-02-28 11:09:59","iframe_src":"//8209.svetacdn.in/IAF0wWTdNYZm/movie/37097"},{"id":37096,"title":"Ботинки - стальные стаканы","kp_id":"252352","imdb_id":"tt0758017","world_art_id":null,"type":"movie","add":"2020-02-28 09:45:22","orig_title":"Steel Toes","year":"2007-05-07","translations":["Авторский (одноголосый закадровый) (Кошкин Василий)"],"quality":"dvdrip","translation":"Авторский (одноголосый закадровый) (Кошкин Василий)","update":"2020-02-28 11:19:40","iframe_src":"//8209.svetacdn.in/IAF0wWTdNYZm/movie/37096"},{"id":37095,"title":"Зарубежный роман","kp_id":"3981","imdb_id":"tt0305583","world_art_id":null,"type":"movie","add":"2020-02-28 09:43:53","orig_title":"A Foreign Affair","year":"2003-01-21","translations":["Профессиональный (двухголосый закадровый)"],"quality":"dvdrip","translation":"Профессиональный (двухголосый закадровый)","update":"2020-02-28 11:08:32","iframe_src":"//8209.svetacdn.in/IAF0wWTdNYZm/movie/37095"},{"id":37088,"title":"Сборище любителей","kp_id":"404170","imdb_id":"tt1171226","world_art_id":null,"type":"movie","add":"2020-02-28 08:58:05","orig_title":"A Bunch of Amateurs","year":"2008-11-17","translations":["Профессиональный (многоголосый закадровый)"],"quality":"hdtv","translation":"Профессиональный (многоголосый закадровый)","update":"2020-02-28 11:02:04","iframe_src":"//8209.svetacdn.in/IAF0wWTdNYZm/movie/37088"},{"id":37086,"title":"Банда неудачников","kp_id":"3723","imdb_id":"tt0110536","world_art_id":null,"type":"movie","add":"2020-02-28 08:35:50","orig_title":"I mitici - Colpo gobbo a Milano","year":"1994-02-18","translations":["Профессиональный (многоголосый закадровый)"],"quality":"dvdrip","translation":"Профессиональный (многоголосый закадровый)","update":"2020-02-28 10:57:11","iframe_src":"//8209.svetacdn.in/IAF0wWTdNYZm/movie/37086"},{"id":37082,"title":"Неуверенная в себе","kp_id":"1350638","imdb_id":"tt11488780","world_art_id":null,"type":"movie","add":"2020-02-28 05:33:10","orig_title":"Insecure","year":"2019-01-09","translations":["Любительский (многоголосый закадровый) (Синема УС)"],"quality":"webdl","translation":"Любительский (многоголосый закадровый) (Синема УС)","update":"2020-02-28 10:14:20","iframe_src":"//8209.svetacdn.in/IAF0wWTdNYZm/movie/37082"},{"id":37081,"title":"Кэтрин вверх тормашками","kp_id":"768559","imdb_id":"tt2953304","world_art_id":null,"type":"movie","add":"2020-02-28 05:32:22","orig_title":"Kathryn Upside Down","year":"2019-03-12","translations":["Любительский (многоголосый закадровый) (Синема УС)"],"quality":"webdl","translation":"Любительский (многоголосый закадровый) (Синема УС)","update":"2020-02-28 10:12:55","iframe_src":"//8209.svetacdn.in/IAF0wWTdNYZm/movie/37081"},{"id":33413,"title":"Шепот дороги ужасов","kp_id":"394575","imdb_id":"tt1093369","world_art_id":null,"type":"movie","add":"2019-11-25 05:52:41","orig_title":"Hush","year":"2008-08-15","translations":["Любительский (двухголосый закадровый)","Original (English)"],"quality":"bd","translation":"Любительский (двухголосый закадровый)","update":"2020-02-28 11:19:16","iframe_src":"//8209.svetacdn.in/IAF0wWTdNYZm/movie/33413"},{"id":33352,"title":"Конец пути","kp_id":"243268","imdb_id":"tt0494224","world_art_id":null,"type":"movie","add":"2019-11-21 19:46:12","orig_title":"End of the Line","year":"2007-04-28","translations":["Профессиональный (двухголосый закадровый)","Original (English)"],"quality":"bd","translation":"Профессиональный (двухголосый закадровый)","update":"2020-02-28 11:15:46","iframe_src":"//8209.svetacdn.in/IAF0wWTdNYZm/movie/33352"},{"id":33344,"title":"Белль","kp_id":"682934","imdb_id":"tt2404181","world_art_id":null,"type":"movie","add":"2019-11-21 13:49:22","orig_title":"Belle","year":"2013-09-08","translations":["Профессиональный (многоголосый закадровый)","Original (English)"],"quality":"bd","translation":"Профессиональный (многоголосый закадровый)","update":"2020-02-28 10:33:42","iframe_src":"//8209.svetacdn.in/IAF0wWTdNYZm/movie/33344"},{"id":33343,"title":"Бандиты","kp_id":"484718","imdb_id":"tt1538503","world_art_id":null,"type":"movie","add":"2019-11-21 12:33:12","orig_title":"Los Bandoleros","year":"2009-07-28","translations":["Любительский (многоголосый закадровый)","Любительский (одноголосый закадровый)","Любительский (одноголосый закадровый) (Levelin)","Original (English)"],"quality":"bd","translation":"Любительский (многоголосый закадровый)","update":"2020-02-28 11:22:22","iframe_src":"//8209.svetacdn.in/IAF0wWTdNYZm/movie/33343"},{"id":33342,"title":"Когда поют ангелы","kp_id":"581079","imdb_id":"tt1833888","world_art_id":null,"type":"movie","add":"2019-11-21 12:31:39","orig_title":"Angels Sing","year":"2013-03-10","translations":["Любительский (многоголосый закадровый)","Original (English)"],"quality":"bd","translation":"Любительский (многоголосый закадровый)","update":"2020-02-28 10:32:31","iframe_src":"//8209.svetacdn.in/IAF0wWTdNYZm/movie/33342"},{"id":33218,"title":"Угнанный","kp_id":"596249","imdb_id":"tt1986857","world_art_id":null,"type":"movie","add":"2019-11-18 14:09:18","orig_title":"Hijacked","year":"2012-07-31","translations":["Профессиональный (многоголосый закадровый)","Original (English)"],"quality":"bd","translation":"Профессиональный (многоголосый закадровый)","update":"2020-02-28 11:16:35","iframe_src":"//8209.svetacdn.in/IAF0wWTdNYZm/movie/33218"},{"id":33210,"title":"Discovery: Внутри планеты Земля","kp_id":"484473","imdb_id":"tt1454110","world_art_id":null,"type":"movie","add":"2019-11-18 13:49:07","orig_title":"Inside Planet Earth","year":"2009-06-07","translations":["Полное дублирование","Original (English)"],"quality":"bd","translation":"Полное дублирование","update":"2020-02-28 11:20:55","iframe_src":"//8209.svetacdn.in/IAF0wWTdNYZm/movie/33210"},{"id":33062,"title":"Тост","kp_id":"523026","imdb_id":"tt1658851","world_art_id":null,"type":"movie","add":"2019-11-13 08:13:05","orig_title":"Toast","year":"2010-12-30","translations":["Профессиональный (многоголосый закадровый)","Любительский (одноголосый закадровый) (Прошин Вячеслав | Slay73)","Original (English)"],"quality":"bd","translation":"Профессиональный (многоголосый закадровый)","update":"2020-02-28 11:17:40","iframe_src":"//8209.svetacdn.in/IAF0wWTdNYZm/movie/33062"},{"id":5371,"title":"Дракон: История Брюса Ли","kp_id":"13332","imdb_id":"tt0106770","world_art_id":null,"type":"movie","add":"2016-09-20 08:56:09","orig_title":"Dragon: The Bruce Lee Story","year":"1993-05-07","translations":["Полное дублирование","Профессиональный (многоголосый закадровый)","Профессиональный (многоголосый закадровый) (СТС)","Авторский (одноголосый закадровый) (Володарский Леонид)","Авторский (одноголосый закадровый) (Дохалов Вартан)","Original (English)"],"quality":"bd","translation":"Полное дублирование","update":"2020-02-28 10:34:52","iframe_src":"//8209.svetacdn.in/IAF0wWTdNYZm/movie/5371"},{"id":3989,"title":"Мэнсфилд Парк","kp_id":"7641","imdb_id":"tt0178737","world_art_id":null,"type":"movie","add":"2016-07-16 02:58:58","orig_title":"Mansfield Park","year":"1999-08-27","translations":["Профессиональный (двухголосый закадровый)","Профессиональный (многоголосый закадровый) (ТВЦ)","Original (English)"],"quality":"bd","translation":"Профессиональный (двухголосый закадровый)","update":"2020-02-28 11:24:22","iframe_src":"//8209.svetacdn.in/IAF0wWTdNYZm/movie/3989"},{"id":1835,"title":"Безумный Макс 3: Под куполом грома","kp_id":"15062","imdb_id":"tt0089530","world_art_id":null,"type":"movie","add":"2016-05-03 16:33:52","orig_title":"Mad Max Beyond Thunderdome","year":"1985-06-29","translations":["Полное дублирование","Профессиональный (многоголосый закадровый) (Киномания)","Авторский (одноголосый закадровый) (Есарев Дмитрий)","Авторский (одноголосый закадровый) (Гаврилов Андрей)","Авторский (одноголосый закадровый) (Живов Юрий)","Original (English)"],"quality":"bd","translation":"Полное дублирование","update":"2020-02-28 11:23:06","iframe_src":"//8209.svetacdn.in/IAF0wWTdNYZm/movie/1835"}],"current_page":1030,"first_page_url":"https://videocdn.tv/api/short?limit=100&api_token=6Onb1W1alEUrBcKJZD3GoKBbWyAl2uG2&cache31030=31030&page=1","from":102901,"last_page":663,"last_page_url":"https://videocdn.tv/api/short?limit=100&api_token=6Onb1W1alEUrBcKJZD3GoKBbWyAl2uG2&cache31030=31030&page=663","next_page_url":null,"path":"https://videocdn.tv/api/short","per_page":100,"prev_page_url":"https://videocdn.tv/api/short?limit=100&api_token=6Onb1W1alEUrBcKJZD3GoKBbWyAl2uG2&cache31030=31030&page=1029","to":102920,"total":66293}