{"result":true,"data":[{"id":52073,"title":"Дыхание: Да здравствует Отечество","kp_id":"431930","imdb_id":"tt1171701","world_art_id":null,"type":"movie","add":"2021-07-27 20:40:22","orig_title":"Nefes: Vatan Sagolsun","year":"2009-10-16","translations":["Любительский (одноголосый закадровый)"],"quality":"hdrip","translation":"Любительский (одноголосый закадровый)","update":"2021-07-28 06:56:42","iframe_src":"//83.svetacdn.in/PfJ50H0ZBPg3/movie/52073"},{"id":52072,"title":"Что я делаю за деньги","kp_id":"1188679","imdb_id":"tt8932756","world_art_id":null,"type":"movie","add":"2021-07-27 18:51:38","orig_title":"Things I Do for Money","year":"2019-12-06","translations":["Любительский (многоголосый закадровый) (Синема УС)"],"quality":"webdl","translation":"Любительский (многоголосый закадровый) (Синема УС)","update":"2021-07-28 04:47:14","iframe_src":"//83.svetacdn.in/PfJ50H0ZBPg3/movie/52072"},{"id":52071,"title":"Сын - Мать","kp_id":"1299981","imdb_id":"tt10888684","world_art_id":null,"type":"movie","add":"2021-07-27 18:51:11","orig_title":"Son-Mother","year":"2019-09-07","translations":["Любительский (многоголосый закадровый) (Синема УС)"],"quality":"webdl","translation":"Любительский (многоголосый закадровый) (Синема УС)","update":"2021-07-28 04:46:14","iframe_src":"//83.svetacdn.in/PfJ50H0ZBPg3/movie/52071"},{"id":52067,"title":"Крыса","kp_id":"2001602","imdb_id":"tt13569296","world_art_id":null,"type":"movie","add":"2021-07-27 18:48:35","orig_title":"Grimy","year":"2021-07-01","translations":["Любительский (многоголосый закадровый) (Синема УС)"],"quality":"webdl","translation":"Любительский (многоголосый закадровый) (Синема УС)","update":"2021-07-28 04:03:56","iframe_src":"//83.svetacdn.in/PfJ50H0ZBPg3/movie/52067"},{"id":52066,"title":"Чёрный бриллиант","kp_id":"1242329","imdb_id":"tt9815280","world_art_id":null,"type":"movie","add":"2021-07-27 18:48:00","orig_title":"Black Diamond","year":"2019-06-19","translations":["Любительский (многоголосый закадровый) (Синема УС)"],"quality":"webdl","translation":"Любительский (многоголосый закадровый) (Синема УС)","update":"2021-07-28 04:44:54","iframe_src":"//83.svetacdn.in/PfJ50H0ZBPg3/movie/52066"},{"id":52065,"title":"13 убийств перед Рождеством","kp_id":"4292980","imdb_id":"tt13665354","world_art_id":null,"type":"movie","add":"2021-07-27 18:42:31","orig_title":"13 Slays Till X-Mas","year":"2020-11-13","translations":["Любительский (многоголосый закадровый) (AlphaProject)"],"quality":"webdl","translation":"Любительский (многоголосый закадровый) (AlphaProject)","update":"2021-07-28 04:43:05","iframe_src":"//83.svetacdn.in/PfJ50H0ZBPg3/movie/52065"},{"id":52060,"title":"Мальчик, которого звали папой","kp_id":"465238","imdb_id":"tt1433514","world_art_id":null,"type":"movie","add":"2021-07-27 17:53:44","orig_title":"A Boy Called Dad","year":"2009-06-18","translations":["[EN] Original (English)","Авторский (одноголосый закадровый) (Кузнецов Сергей)"],"quality":"webdl","translation":"[EN] Original (English)","update":"2021-07-28 06:26:44","iframe_src":"//83.svetacdn.in/PfJ50H0ZBPg3/movie/52060"},{"id":52059,"title":"Помощники","kp_id":"687297","imdb_id":"tt1854582","world_art_id":null,"type":"movie","add":"2021-07-27 17:51:58","orig_title":"The Helpers","year":"2012-01-01","translations":["[EN] Original (English)","Полное дублирование (Back Board Cinema | Студийная Банда)"],"quality":"webdl","translation":"[EN] Original (English)","update":"2021-07-28 06:29:24","iframe_src":"//83.svetacdn.in/PfJ50H0ZBPg3/movie/52059"},{"id":52054,"title":"Птицы в неволе","kp_id":"1296992","imdb_id":"tt10793984","world_art_id":null,"type":"movie","add":"2021-07-27 09:14:41","orig_title":"Caged Birds","year":"2021-11-01","translations":["Любительский (многоголосый закадровый) (AlphaProject)"],"quality":"webdl","translation":"Любительский (многоголосый закадровый) (AlphaProject)","update":"2021-07-27 13:48:05","iframe_src":"//83.svetacdn.in/PfJ50H0ZBPg3/movie/52054"},{"id":52045,"title":"Жилец","kp_id":"4510786","imdb_id":"tt14182228","world_art_id":null,"type":"movie","add":"2021-07-27 08:23:54","orig_title":"Tenant","year":"2021-01-15","translations":["Любительский (многоголосый закадровый) (Синема УС)"],"quality":"webdl","translation":"Любительский (многоголосый закадровый) (Синема УС)","update":"2021-07-27 11:49:10","iframe_src":"//83.svetacdn.in/PfJ50H0ZBPg3/movie/52045"},{"id":52042,"title":"Размытая граница","kp_id":"1083367","imdb_id":"tt6848226","world_art_id":null,"type":"movie","add":"2021-07-27 08:12:19","orig_title":"Un confine incerto","year":"2019-11-28","translations":["Любительский (многоголосый закадровый) (Синема УС)"],"quality":"webdl","translation":"Любительский (многоголосый закадровый) (Синема УС)","update":"2021-07-27 13:46:28","iframe_src":"//83.svetacdn.in/PfJ50H0ZBPg3/movie/52042"},{"id":52040,"title":"Заря","kp_id":"1428841","imdb_id":"tt13153956","world_art_id":null,"type":"movie","add":"2021-07-27 08:03:11","orig_title":"Zora","year":"2020-11-28","translations":["Любительский (многоголосый закадровый) (Синема УС)"],"quality":"webdl","translation":"Любительский (многоголосый закадровый) (Синема УС)","update":"2021-07-27 13:45:03","iframe_src":"//83.svetacdn.in/PfJ50H0ZBPg3/movie/52040"},{"id":52037,"title":"Ужас из недр","kp_id":"565893","imdb_id":"tt1706680","world_art_id":null,"type":"movie","add":"2021-07-27 05:51:49","orig_title":"The Terror Beneath","year":"2011-10-08","translations":["Профессиональный (многоголосый закадровый) (ТВ3)","Профессиональный (двухголосый закадровый) (SyFy)","[EN] Original (English)"],"quality":"bd","translation":"Профессиональный (многоголосый закадровый) (ТВ3)","update":"2021-07-27 12:11:41","iframe_src":"//83.svetacdn.in/PfJ50H0ZBPg3/movie/52037"},{"id":52036,"title":"Не все собаки кусачие","kp_id":"479385","imdb_id":"tt1518191","world_art_id":null,"type":"movie","add":"2021-07-27 05:48:51","orig_title":"Some Dogs Bite","year":"2010-10-01","translations":["Профессиональный (многоголосый закадровый) (Кинопоказ)","[EN] Original (English)"],"quality":"bd","translation":"Профессиональный (многоголосый закадровый) (Кинопоказ)","update":"2021-07-27 12:53:23","iframe_src":"//83.svetacdn.in/PfJ50H0ZBPg3/movie/52036"},{"id":52005,"title":"Семья","kp_id":"1305208","imdb_id":"tt8974562","world_art_id":null,"type":"movie","add":"2021-07-26 17:14:31","orig_title":"A Family","year":"2019-01-01","translations":["Любительский (многоголосый закадровый) (Синема УС)"],"quality":"webdl","translation":"Любительский (многоголосый закадровый) (Синема УС)","update":"2021-07-27 18:36:58","iframe_src":"//83.svetacdn.in/PfJ50H0ZBPg3/movie/52005"},{"id":50446,"title":"Даффи Дак: Фантастический остров","kp_id":"33820","imdb_id":"tt0085390","world_art_id":null,"type":"movie","add":"2021-05-17 17:07:16","orig_title":"Daffy Duck's Movie: Fantastic Island","year":"1983-08-05","translations":["Полное дублирование (СТС)","[EN] Original (English)","Авторский (одноголосый закадровый) (Дохалов Вартан)"],"quality":"webdl","translation":"Полное дублирование (СТС)","update":"2021-07-28 06:38:25","iframe_src":"//83.svetacdn.in/PfJ50H0ZBPg3/movie/50446"},{"id":48904,"title":"Опасный Джонни","kp_id":"11887","imdb_id":"tt0087507","world_art_id":null,"type":"movie","add":"2021-03-19 06:04:26","orig_title":"Johnny Dangerously","year":"1984-12-21","translations":["Профессиональный (многоголосый закадровый)","[EN] Original (English)","Авторский (одноголосый закадровый) (Михалёв Алексей)"],"quality":"webdl","translation":"Профессиональный (многоголосый закадровый)","update":"2021-07-28 06:36:11","iframe_src":"//83.svetacdn.in/PfJ50H0ZBPg3/movie/48904"},{"id":47914,"title":"Космические воины","kp_id":"675806","imdb_id":"tt2328745","world_art_id":null,"type":"movie","add":"2021-02-14 18:36:24","orig_title":"Space Warriors","year":"2013-04-26","translations":["Профессиональный (многоголосый закадровый)","Профессиональный (многоголосый закадровый) (СТС)","[EN] Original (English)"],"quality":"hdrip","translation":"Профессиональный (многоголосый закадровый)","update":"2021-07-27 12:04:05","iframe_src":"//83.svetacdn.in/PfJ50H0ZBPg3/movie/47914"},{"id":45512,"title":"Так далеко","kp_id":"1218751","imdb_id":"tt9382140","world_art_id":null,"type":"movie","add":"2020-11-22 20:58:57","orig_title":"Zu weit weg","year":"2019-05-30","translations":["Любительский (многоголосый закадровый) (Синема УС)","Любительский (одноголосый закадровый) (Ващенко Семён)"],"quality":"webdl","translation":"Любительский (многоголосый закадровый) (Синема УС)","update":"2021-07-27 12:06:42","iframe_src":"//83.svetacdn.in/PfJ50H0ZBPg3/movie/45512"},{"id":30801,"title":"Побег","kp_id":"64055","imdb_id":"tt0077295","world_art_id":null,"type":"movie","add":"2019-09-12 05:35:31","orig_title":"La carapate","year":"1978-10-11","translations":["Профессиональный (многоголосый закадровый) (Союз Видео)","Профессиональный (многоголосый закадровый) (Союз Видео)","Полное дублирование (Киностудия им. Горького)"],"quality":"webdl","translation":"Профессиональный (многоголосый закадровый) (Союз Видео)","update":"2021-07-28 06:19:47","iframe_src":"//83.svetacdn.in/PfJ50H0ZBPg3/movie/30801"},{"id":3278,"title":"Все возрасты любви","kp_id":"992625","imdb_id":null,"world_art_id":null,"type":"serial","add":"2018-10-10 05:30:34","orig_title":"Все возрасты любви","year":"2018-10-09","translations":["Оригинальная дорожка"],"seasons_count":1,"episodes_count":8,"episodes":8,"update":"2018-10-10 12:53:48","iframe_src":"//83.svetacdn.in/PfJ50H0ZBPg3/tv-series/3278"},{"id":3277,"title":"Струны души","kp_id":"601621","imdb_id":"tt2623064","world_art_id":null,"type":"serial","add":"2018-10-09 23:25:25","orig_title":"Neon naege banehsseo","year":"2011-06-29","translations":["Любительский (двухголосый закадровый) (GREEN TEA)"],"seasons_count":1,"episodes_count":15,"episodes":15,"update":"2018-10-10 08:00:37","iframe_src":"//83.svetacdn.in/PfJ50H0ZBPg3/tv-series/3277"},{"id":3271,"title":"Жатва","kp_id":null,"imdb_id":"tt5674704","world_art_id":null,"type":"serial","add":"2018-10-09 07:19:56","orig_title":"The Reaping","year":"2017-02-21","translations":["Профессиональный (двухголосый закадровый) (ViruseProject)"],"seasons_count":1,"episodes_count":7,"episodes":7,"update":"2018-10-10 19:05:08","iframe_src":"//83.svetacdn.in/PfJ50H0ZBPg3/tv-series/3271"},{"id":3268,"title":"Катькино поле","kp_id":"1173338","imdb_id":null,"world_art_id":null,"type":"serial","add":"2018-10-08 13:43:36","orig_title":"Катькино поле","year":"2018-10-06","translations":["Оригинальная дорожка"],"seasons_count":1,"episodes_count":2,"episodes":2,"update":"2018-10-09 07:00:07","iframe_src":"//83.svetacdn.in/PfJ50H0ZBPg3/tv-series/3268"},{"id":3267,"title":"Московские тайны. Гостья из прошлого","kp_id":"1177999","imdb_id":null,"world_art_id":null,"type":"serial","add":"2018-10-08 13:40:08","orig_title":"Московские тайны. Гостья из прошлого","year":"2018-10-05","translations":["Оригинальная дорожка"],"seasons_count":1,"episodes_count":2,"episodes":2,"update":"2018-10-09 06:57:28","iframe_src":"//83.svetacdn.in/PfJ50H0ZBPg3/tv-series/3267"},{"id":3249,"title":"Шпион, выйди вон!","kp_id":"229204","imdb_id":"tt0080297","world_art_id":null,"type":"serial","add":"2018-10-01 19:01:52","orig_title":"Tinker Tailor Soldier Spy","year":"1979-09-10","translations":["Авторский (одноголосый закадровый) (Карцев Пётр)"],"seasons_count":1,"episodes_count":6,"episodes":6,"update":"2018-10-02 08:01:23","iframe_src":"//83.svetacdn.in/PfJ50H0ZBPg3/tv-series/3249"},{"id":3244,"title":"Рискованный роман","kp_id":"1118157","imdb_id":"tt8523020","world_art_id":null,"type":"serial","add":"2018-10-01 09:14:31","orig_title":"Sasaenggyeoldan Romaenseu","year":"2018-07-23","translations":["Любительский (двухголосый закадровый) (HighHopes)"],"seasons_count":1,"episodes_count":16,"episodes":16,"update":"2018-10-01 14:22:41","iframe_src":"//83.svetacdn.in/PfJ50H0ZBPg3/tv-series/3244"},{"id":3243,"title":"Опасная пятёрка","kp_id":"721904","imdb_id":"tt1807165","world_art_id":null,"type":"serial","add":"2018-09-30 16:35:15","orig_title":"Danger 5","year":"2011-11-20","translations":["Любительский (двухголосый закадровый) (LakeFilms)"],"seasons_count":1,"episodes_count":7,"episodes":7,"update":"2018-10-01 12:14:17","iframe_src":"//83.svetacdn.in/PfJ50H0ZBPg3/tv-series/3243"},{"id":3242,"title":"Женщина в зеркале","kp_id":"1162764","imdb_id":null,"world_art_id":null,"type":"serial","add":"2018-09-30 09:31:15","orig_title":"Женщина в зеркале","year":"2018-09-29","translations":["Оригинальная дорожка"],"seasons_count":1,"episodes_count":4,"episodes":4,"update":"2018-10-01 12:18:09","iframe_src":"//83.svetacdn.in/PfJ50H0ZBPg3/tv-series/3242"},{"id":3241,"title":"Шестой пост","kp_id":"1112943","imdb_id":"tt8184066","world_art_id":null,"type":"serial","add":"2018-09-30 08:07:18","orig_title":"Shestoy post","year":"2018-03-15","translations":["Оригинальная дорожка"],"seasons_count":1,"episodes_count":5,"episodes":5,"update":"2018-10-01 11:58:10","iframe_src":"//83.svetacdn.in/PfJ50H0ZBPg3/tv-series/3241"},{"id":3232,"title":"Страшно прекрасно","kp_id":"1159410","imdb_id":"tt8628658","world_art_id":null,"type":"serial","add":"2018-09-28 10:41:51","orig_title":"Leobeulli Horeobeulli","year":"2018-08-13","translations":["Любительский (двухголосый закадровый) (Храм Дорам ТВ)"],"seasons_count":1,"episodes_count":16,"episodes":16,"update":"2018-10-06 22:38:01","iframe_src":"//83.svetacdn.in/PfJ50H0ZBPg3/tv-series/3232"},{"id":3200,"title":"История одного клана","kp_id":"939810","imdb_id":"tt5056538","world_art_id":null,"type":"serial","add":"2018-09-21 16:43:28","orig_title":"Historia de un clan","year":"2015-09-09","translations":["Профессиональный (двухголосый закадровый) (ViruseProject)"],"seasons_count":1,"episodes_count":11,"episodes":11,"update":"2018-10-03 19:11:17","iframe_src":"//83.svetacdn.in/PfJ50H0ZBPg3/tv-series/3200"},{"id":3193,"title":"Шоу 70−х","kp_id":"344207","imdb_id":"tt0165598","world_art_id":null,"type":"serial","add":"2018-09-20 06:58:04","orig_title":"That '70s Show","year":"1998-08-23","translations":["Любительский (многоголосый закадровый) (Несмертельное оружие)"],"seasons_count":8,"episodes_count":200,"episodes":22,"update":"2018-10-10 12:23:34","iframe_src":"//83.svetacdn.in/PfJ50H0ZBPg3/tv-series/3193"},{"id":3186,"title":"История Бобби Брауна","kp_id":"1155815","imdb_id":"tt8101768","world_art_id":null,"type":"serial","add":"2018-09-19 10:18:27","orig_title":"The Bobby Brown Story","year":"2018-09-04","translations":["Любительский (двухголосый закадровый) (Sunshine Studio)"],"seasons_count":1,"episodes_count":2,"episodes":2,"update":"2018-10-01 14:17:44","iframe_src":"//83.svetacdn.in/PfJ50H0ZBPg3/tv-series/3186"},{"id":3169,"title":"Деграсси: Новый класс","kp_id":"963354","imdb_id":"tt5320160","world_art_id":null,"type":"serial","add":"2018-09-14 10:55:41","orig_title":"Degrassi: Next Class","year":"2016-01-04","translations":["Любительский (двухголосый закадровый) (GoldTeam)"],"seasons_count":4,"episodes_count":40,"episodes":10,"update":"2018-10-02 07:31:36","iframe_src":"//83.svetacdn.in/PfJ50H0ZBPg3/tv-series/3169"},{"id":3022,"title":"Крутой Уокер","kp_id":"161227","imdb_id":"tt0106168","world_art_id":null,"type":"serial","add":"2018-08-13 05:13:37","orig_title":"Walker, Texas Ranger","year":"1993-04-24","translations":["Профессиональный (двухголосый закадровый)","Любительский (двухголосый закадровый)"],"seasons_count":9,"episodes_count":193,"episodes":24,"update":"2018-10-08 15:17:33","iframe_src":"//83.svetacdn.in/PfJ50H0ZBPg3/tv-series/3022"},{"id":3013,"title":"Сад падающих звёзд","kp_id":"1183069","imdb_id":"tt8690890","world_art_id":null,"type":"serial","add":"2018-08-09 07:00:42","orig_title":"Meteor Garden","year":"2018-07-13","translations":["Любительский (двухголосый закадровый) (SoftBox)"],"seasons_count":1,"episodes_count":49,"episodes":49,"update":"2018-10-05 07:25:23","iframe_src":"//83.svetacdn.in/PfJ50H0ZBPg3/tv-series/3013"},{"id":1480,"title":"Лига справедливости","kp_id":"957938","imdb_id":"tt5419200","world_art_id":null,"type":"serial","add":"2017-08-20 06:29:28","orig_title":"Justice League Action","year":"2016-11-26","translations":["Полное дублирование"],"seasons_count":1,"episodes_count":49,"episodes":49,"update":"2018-10-02 13:58:52","iframe_src":"//83.svetacdn.in/PfJ50H0ZBPg3/tv-series/1480"},{"id":239,"title":"Крушение","kp_id":"888489","imdb_id":"tt4168956","world_art_id":null,"type":"serial","add":"2016-06-29 06:13:23","orig_title":"Wrecked","year":"2016-06-14","translations":["Профессиональный (многоголосый закадровый) (IdeaFilm)","Профессиональный (многоголосый закадровый) (BaibaKo)"],"seasons_count":3,"episodes_count":30,"episodes":10,"update":"2018-10-05 16:38:11","iframe_src":"//83.svetacdn.in/PfJ50H0ZBPg3/tv-series/239"},{"id":160,"title":"Звери.","kp_id":"946974","imdb_id":"tt4953128","world_art_id":null,"type":"serial","add":"2016-06-09 04:09:29","orig_title":"Animals.","year":"2016-02-05","translations":["Профессиональный (многоголосый закадровый) (NewStudio)","Профессиональный (многоголосый закадровый) (Novamedia)","Профессиональный (многоголосый закадровый) (Amedia)","Любительский (двухголосый закадровый) (Sunshine Studio)"],"seasons_count":3,"episodes_count":30,"episodes":10,"update":"2018-10-09 20:16:47","iframe_src":"//83.svetacdn.in/PfJ50H0ZBPg3/tv-series/160"}],"current_page":513,"first_page_url":"https://videocdn.tv/api/short?limit=100&api_token=RgFQdUIR2dRmwv8iYa5SnFNgnw3vpjKj&cache3513=3513&page=1","from":51201,"last_page":719,"last_page_url":"https://videocdn.tv/api/short?limit=100&api_token=RgFQdUIR2dRmwv8iYa5SnFNgnw3vpjKj&cache3513=3513&page=719","next_page_url":"https://videocdn.tv/api/short?limit=100&api_token=RgFQdUIR2dRmwv8iYa5SnFNgnw3vpjKj&cache3513=3513&page=514","path":"https://videocdn.tv/api/short","per_page":100,"prev_page_url":"https://videocdn.tv/api/short?limit=100&api_token=RgFQdUIR2dRmwv8iYa5SnFNgnw3vpjKj&cache3513=3513&page=512","to":51240,"total":71805}