{"result":true,"data":[{"id":20798,"title":"Обратная сторона","kp_id":"1056033","imdb_id":"tt7175942","world_art_id":null,"type":"movie","add":"2018-12-16 22:28:48","orig_title":"The Flip Side","year":"2018-08-27","translations":["Любительский (многоголосый закадровый) (Синема УС)"],"quality":"dvdrip","translation":"Любительский (многоголосый закадровый) (Синема УС)","update":"2018-12-17 08:25:44","iframe_src":"//5322.svetacdn.in/si4jsFRrtgrT/movie/20798"},{"id":20797,"title":"Возьми меня с собой","kp_id":"1001312","imdb_id":"tt5575364","world_art_id":null,"type":"movie","add":"2018-12-16 22:25:49","orig_title":"Take Me Out","year":"2018-04-10","translations":["Любительский (многоголосый закадровый) (Синема УС)"],"quality":"webdl","translation":"Любительский (многоголосый закадровый) (Синема УС)","update":"2018-12-17 08:26:44","iframe_src":"//5322.svetacdn.in/si4jsFRrtgrT/movie/20797"},{"id":20793,"title":"Сара Барас, Все Её Голоса","kp_id":null,"imdb_id":"tt6890836","world_art_id":null,"type":"movie","add":"2018-12-16 22:15:43","orig_title":"Sara Baras. Todas las voces","year":"2017-08-19","translations":["Любительский (многоголосый закадровый) (Синема УС)"],"quality":"bd","translation":"Любительский (многоголосый закадровый) (Синема УС)","update":"2018-12-17 08:28:55","iframe_src":"//5322.svetacdn.in/si4jsFRrtgrT/movie/20793"},{"id":20791,"title":"Удалённое зрение","kp_id":"1056908","imdb_id":"tt7335732","world_art_id":null,"type":"movie","add":"2018-12-16 22:05:02","orig_title":"Remote Viewing","year":"2018-12-04","translations":["Любительский (многоголосый закадровый) (Синема УС)"],"quality":"webdl","translation":"Любительский (многоголосый закадровый) (Синема УС)","update":"2018-12-17 08:31:11","iframe_src":"//5322.svetacdn.in/si4jsFRrtgrT/movie/20791"},{"id":20790,"title":"Реальное время с Биллом Маром: Юбилейный выпуск","kp_id":"1213899","imdb_id":null,"world_art_id":null,"type":"movie","add":"2018-12-16 21:57:43","orig_title":"Real Time with Bill Maher: Anniversary Special","year":"2018-10-19","translations":["Любительский (многоголосый закадровый) (Синема УС)"],"quality":"webdl","translation":"Любительский (многоголосый закадровый) (Синема УС)","update":"2018-12-17 08:32:09","iframe_src":"//5322.svetacdn.in/si4jsFRrtgrT/movie/20790"},{"id":20788,"title":"День Благодарения по-новому","kp_id":"1065525","imdb_id":"tt7535288","world_art_id":null,"type":"movie","add":"2018-12-16 21:51:30","orig_title":"Nothing Like Thanksgiving","year":"2018-11-22","translations":["Любительский (многоголосый закадровый) (Синема УС)"],"quality":"webdl","translation":"Любительский (многоголосый закадровый) (Синема УС)","update":"2018-12-17 08:33:26","iframe_src":"//5322.svetacdn.in/si4jsFRrtgrT/movie/20788"},{"id":20786,"title":"Личные счёты","kp_id":"1122147","imdb_id":null,"world_art_id":null,"type":"movie","add":"2018-12-16 21:46:32","orig_title":"Личные счёты","year":"2018-12-15","translations":["Оригинальная дорожка"],"quality":"webdl","translation":"Оригинальная дорожка","update":"2018-12-17 08:35:18","iframe_src":"//5322.svetacdn.in/si4jsFRrtgrT/movie/20786"},{"id":20785,"title":"Подпишись на меня","kp_id":null,"imdb_id":"tt7631792","world_art_id":null,"type":"movie","add":"2018-12-16 21:29:15","orig_title":"Follow Me","year":"2018-11-18","translations":["Любительский (многоголосый закадровый) (Синема УС)"],"quality":"webdl","translation":"Любительский (многоголосый закадровый) (Синема УС)","update":"2018-12-17 08:38:28","iframe_src":"//5322.svetacdn.in/si4jsFRrtgrT/movie/20785"},{"id":20784,"title":"Первая леди","kp_id":"1117851","imdb_id":"tt7919372","world_art_id":null,"type":"movie","add":"2018-12-16 21:27:31","orig_title":"First Lady","year":"2018-09-10","translations":["Любительский (многоголосый закадровый) (Синема УС)"],"quality":"webdl","translation":"Любительский (многоголосый закадровый) (Синема УС)","update":"2018-12-17 08:39:40","iframe_src":"//5322.svetacdn.in/si4jsFRrtgrT/movie/20784"},{"id":20783,"title":"Разбивающий мечты","kp_id":"1013495","imdb_id":"tt6223976","world_art_id":null,"type":"movie","add":"2018-12-16 21:22:57","orig_title":"Po meng you xi","year":"2018-11-09","translations":["Любительский (многоголосый закадровый) (Колобок)"],"quality":"webdl","translation":"Любительский (многоголосый закадровый) (Колобок)","update":"2018-12-17 08:42:10","iframe_src":"//5322.svetacdn.in/si4jsFRrtgrT/movie/20783"},{"id":20779,"title":"За облаками","kp_id":"804946","imdb_id":"tt3224288","world_art_id":null,"type":"movie","add":"2018-12-16 21:10:38","orig_title":"Beyond the Clouds","year":"2017-10-13","translations":["Любительский (многоголосый закадровый) (Синема УС)"],"quality":"bd","translation":"Любительский (многоголосый закадровый) (Синема УС)","update":"2018-12-17 08:46:57","iframe_src":"//5322.svetacdn.in/si4jsFRrtgrT/movie/20779"},{"id":20775,"title":"Почти знаменит","kp_id":"1093293","imdb_id":"tt7059806","world_art_id":null,"type":"movie","add":"2018-12-16 20:58:45","orig_title":"Kimaat Mefursemet","year":"2017-06-22","translations":["Любительский (многоголосый закадровый) (Синема УС)"],"quality":"webdl","translation":"Любительский (многоголосый закадровый) (Синема УС)","update":"2018-12-17 08:51:04","iframe_src":"//5322.svetacdn.in/si4jsFRrtgrT/movie/20775"},{"id":20774,"title":"Убийство в Мансфилде","kp_id":null,"imdb_id":"tt7561086","world_art_id":null,"type":"movie","add":"2018-12-16 20:55:07","orig_title":"A Murder in Mansfield","year":"2017-11-12","translations":["Любительский (многоголосый закадровый) (Синема УС)"],"quality":"webdl","translation":"Любительский (многоголосый закадровый) (Синема УС)","update":"2018-12-17 08:51:57","iframe_src":"//5322.svetacdn.in/si4jsFRrtgrT/movie/20774"},{"id":20772,"title":"Обещай, что дождёшься","kp_id":"1016876","imdb_id":"tt6196754","world_art_id":null,"type":"movie","add":"2018-12-15 12:30:31","orig_title":"Say You Will","year":"2017-06-08","translations":["Любительский (многоголосый закадровый) (Синема УС)"],"quality":"webdl","translation":"Любительский (многоголосый закадровый) (Синема УС)","update":"2018-12-17 08:59:44","iframe_src":"//5322.svetacdn.in/si4jsFRrtgrT/movie/20772"},{"id":20770,"title":"Дом с привидениями","kp_id":"1068721","imdb_id":"tt6361154","world_art_id":null,"type":"movie","add":"2018-12-15 12:23:21","orig_title":"Ghost House: A Haunting","year":"2018-09-19","translations":["Любительский (многоголосый закадровый) (Синема УС)"],"quality":"webdl","translation":"Любительский (многоголосый закадровый) (Синема УС)","update":"2018-12-17 09:06:48","iframe_src":"//5322.svetacdn.in/si4jsFRrtgrT/movie/20770"},{"id":20704,"title":"Система","kp_id":"1085235","imdb_id":"tt7233828","world_art_id":null,"type":"movie","add":"2018-12-12 22:57:22","orig_title":"The System","year":"2018-09-28","translations":["Любительский (многоголосый закадровый) (Синема УС)","Любительский (двухголосый закадровый) (HiWayGrope)"],"quality":"webdl","translation":"Любительский (многоголосый закадровый) (Синема УС)","update":"2018-12-17 08:24:43","iframe_src":"//5322.svetacdn.in/si4jsFRrtgrT/movie/20704"},{"id":20700,"title":"Крайности","kp_id":"900874","imdb_id":"tt4081012","world_art_id":null,"type":"movie","add":"2018-12-12 22:50:57","orig_title":"In Extremis","year":"2017-10-12","translations":["Любительский (многоголосый закадровый) (Синема УС)","Любительский (двухголосый закадровый) (HiWayGrope)"],"quality":"webdl","translation":"Любительский (многоголосый закадровый) (Синема УС)","update":"2018-12-17 08:36:09","iframe_src":"//5322.svetacdn.in/si4jsFRrtgrT/movie/20700"},{"id":19974,"title":"Подвал","kp_id":"1045094","imdb_id":"tt8507530","world_art_id":null,"type":"movie","add":"2018-11-06 01:29:25","orig_title":"Cellar","year":"2018-11-01","translations":["Оригинальная дорожка"],"quality":"webdl","translation":"Оригинальная дорожка","update":"2018-12-17 09:00:51","iframe_src":"//5322.svetacdn.in/si4jsFRrtgrT/movie/19974"},{"id":19724,"title":"Транзит","kp_id":"1054008","imdb_id":"tt6675244","world_art_id":null,"type":"movie","add":"2018-10-22 23:59:16","orig_title":"Transit","year":"2018-02-17","translations":["Любительский (многоголосый закадровый) (Синема УС)","Любительский (двухголосый закадровый) (LakeFilms)"],"quality":"bd","translation":"Любительский (многоголосый закадровый) (Синема УС)","update":"2018-12-17 08:57:14","iframe_src":"//5322.svetacdn.in/si4jsFRrtgrT/movie/19724"},{"id":18767,"title":"Из Неаполя с любовью","kp_id":"984204","imdb_id":"tt5654282","world_art_id":null,"type":"movie","add":"2018-09-03 23:23:39","orig_title":"Troppo napoletano","year":"2016-04-07","translations":["Профессиональный (многоголосый закадровый)"],"quality":"webdl","translation":"Профессиональный (многоголосый закадровый)","update":"2018-12-17 08:55:58","iframe_src":"//5322.svetacdn.in/si4jsFRrtgrT/movie/18767"}],"current_page":1642,"first_page_url":"https://videocdn.tv/api/short?limit=100&api_token=X6EwAUfE5M9xbo7y0Bp0aPf3uXxG2KLL&cache31642=31642&page=1","from":164101,"last_page":620,"last_page_url":"https://videocdn.tv/api/short?limit=100&api_token=X6EwAUfE5M9xbo7y0Bp0aPf3uXxG2KLL&cache31642=31642&page=620","next_page_url":null,"path":"https://videocdn.tv/api/short","per_page":100,"prev_page_url":"https://videocdn.tv/api/short?limit=100&api_token=X6EwAUfE5M9xbo7y0Bp0aPf3uXxG2KLL&cache31642=31642&page=1641","to":164120,"total":61975}