{"result":true,"data":[{"id":1368,"title":"Война полов","kp_id":"840230","imdb_id":"tt5253372","world_art_id":null,"type":"movie","add":"2016-04-21 05:34:16","orig_title":"Voyna polov","year":"2015-10-22","translations":["Оригинальная дорожка"],"quality":"webdl","translation":"Оригинальная дорожка","update":"2016-04-21 08:20:28","iframe_src":"//8543.svetacdn.in/IAF0wWTdNYZm/movie/1368"},{"id":1364,"title":"Гороскоп на удачу","kp_id":"840231","imdb_id":"tt4871022","world_art_id":null,"type":"movie","add":"2016-04-21 05:26:02","orig_title":"Goroskop na udachu","year":"2015-07-17","translations":["Оригинальная дорожка"],"quality":"webdl","translation":"Оригинальная дорожка","update":"2016-04-21 06:40:08","iframe_src":"//8543.svetacdn.in/IAF0wWTdNYZm/movie/1364"},{"id":1363,"title":"А зори здесь тихие...","kp_id":"840754","imdb_id":"tt4629032","world_art_id":null,"type":"movie","add":"2016-04-21 05:23:26","orig_title":"A zori zdes tikhie...","year":"2015-04-30","translations":["Оригинальная дорожка"],"quality":"webdl","translation":"Оригинальная дорожка","update":"2016-04-21 08:17:24","iframe_src":"//8543.svetacdn.in/IAF0wWTdNYZm/movie/1363"},{"id":1336,"title":"Месть","kp_id":"463932","imdb_id":"tt1340107","world_art_id":null,"type":"movie","add":"2016-04-20 15:22:16","orig_title":"Hævnen","year":"2010-08-26","translations":["Профессиональный (многоголосый закадровый)"],"quality":"bd","translation":"Профессиональный (многоголосый закадровый)","update":"2016-04-21 06:04:44","iframe_src":"//8543.svetacdn.in/IAF0wWTdNYZm/movie/1336"},{"id":1335,"title":"Дракула","kp_id":"395057","imdb_id":"tt0829150","world_art_id":null,"type":"movie","add":"2016-04-20 15:20:21","orig_title":"Dracula Untold","year":"2014-10-01","translations":["Полное дублирование"],"quality":"bd","translation":"Полное дублирование","update":"2016-04-21 05:49:21","iframe_src":"//8543.svetacdn.in/IAF0wWTdNYZm/movie/1335"},{"id":1334,"title":"Столетний старик, который вылез в окно и исчез","kp_id":"648731","imdb_id":"tt2113681","world_art_id":null,"type":"movie","add":"2016-04-20 15:18:48","orig_title":"Hundraåringen som klev ut genom fönstret och försvann","year":"2013-12-25","translations":["Профессиональный (многоголосый закадровый)"],"quality":"bd","translation":"Профессиональный (многоголосый закадровый)","update":"2016-04-21 06:10:07","iframe_src":"//8543.svetacdn.in/IAF0wWTdNYZm/movie/1334"},{"id":1333,"title":"Игра на выживание","kp_id":"762833","imdb_id":"tt2911668","world_art_id":null,"type":"movie","add":"2016-04-20 15:17:32","orig_title":"Beyond the Reach","year":"2014-09-06","translations":["Полное дублирование"],"quality":"bd","translation":"Полное дублирование","update":"2016-04-21 06:00:36","iframe_src":"//8543.svetacdn.in/IAF0wWTdNYZm/movie/1333"},{"id":1331,"title":"Виктор","kp_id":"771113","imdb_id":"tt2940280","world_art_id":null,"type":"movie","add":"2016-04-20 15:14:26","orig_title":"Viktor","year":"2014-10-24","translations":["Полное дублирование"],"quality":"bd","translation":"Полное дублирование","update":"2016-04-21 06:16:56","iframe_src":"//8543.svetacdn.in/IAF0wWTdNYZm/movie/1331"},{"id":1328,"title":"Монстервилль","kp_id":"888900","imdb_id":"tt4386242","world_art_id":null,"type":"movie","add":"2016-04-20 15:08:23","orig_title":"R.L. Stine's Monsterville: The Cabinet of Souls","year":"2015-09-29","translations":["Полное дублирование"],"quality":"bd","translation":"Полное дублирование","update":"2016-04-21 06:29:58","iframe_src":"//8543.svetacdn.in/IAF0wWTdNYZm/movie/1328"},{"id":1327,"title":"Побег с планеты Земля","kp_id":"601797","imdb_id":"tt0765446","world_art_id":null,"type":"movie","add":"2016-04-20 15:04:40","orig_title":"Escape from Planet Earth","year":"2013-02-14","translations":["Полное дублирование"],"quality":"bd","translation":"Полное дублирование","update":"2016-04-21 06:36:38","iframe_src":"//8543.svetacdn.in/IAF0wWTdNYZm/movie/1327"},{"id":1323,"title":"Призрачный патруль","kp_id":"462454","imdb_id":"tt0790736","world_art_id":null,"type":"movie","add":"2016-04-20 14:49:26","orig_title":"R.I.P.D.","year":"2013-07-17","translations":["Полное дублирование"],"quality":"bd","translation":"Полное дублирование","update":"2016-04-21 08:20:56","iframe_src":"//8543.svetacdn.in/IAF0wWTdNYZm/movie/1323"},{"id":1318,"title":"Рождественская ночь в Барселоне","kp_id":"842209","imdb_id":"tt3917316","world_art_id":null,"type":"movie","add":"2016-04-20 14:42:43","orig_title":"Barcelona, nit d'hivern","year":"2015-11-05","translations":["Полное дублирование (iTunes)"],"quality":"webdl","translation":"Полное дублирование (iTunes)","update":"2016-04-21 08:11:08","iframe_src":"//8543.svetacdn.in/IAF0wWTdNYZm/movie/1318"},{"id":1314,"title":"Химик","kp_id":"841784","imdb_id":"tt3616894","world_art_id":null,"type":"movie","add":"2016-04-20 14:36:46","orig_title":"The Chemist","year":"2016-02-25","translations":["Профессиональный (многоголосый)"],"quality":"webdl","translation":"Профессиональный (многоголосый)","update":"2016-04-21 07:51:49","iframe_src":"//8543.svetacdn.in/IAF0wWTdNYZm/movie/1314"},{"id":1313,"title":"Безумные преподы: Миссия в Лондон","kp_id":"867346","imdb_id":"tt3713944","world_art_id":null,"type":"movie","add":"2016-04-20 14:30:54","orig_title":"Les profs 2","year":"2015-07-01","translations":["Любительский (многоголосый закадровый) (Parovoz Production)"],"quality":"bd","translation":"Любительский (многоголосый закадровый) (Parovoz Production)","update":"2016-04-21 07:47:12","iframe_src":"//8543.svetacdn.in/IAF0wWTdNYZm/movie/1313"},{"id":1310,"title":"Банда грабителей","kp_id":"844950","imdb_id":"tt4048668","world_art_id":null,"type":"movie","add":"2016-04-20 14:25:17","orig_title":"Band of Robbers","year":"2015-06-13","translations":["Любительский (многоголосый закадровый) (Parovoz Production)"],"quality":"webdl","translation":"Любительский (многоголосый закадровый) (Parovoz Production)","update":"2016-04-21 05:44:50","iframe_src":"//8543.svetacdn.in/IAF0wWTdNYZm/movie/1310"},{"id":1309,"title":"Третий лишний 2","kp_id":"731691","imdb_id":"tt2637276","world_art_id":null,"type":"movie","add":"2016-04-20 14:23:52","orig_title":"Ted 2","year":"2015-06-25","translations":["Полное дублирование (iTunes)"],"quality":"webdl","translation":"Полное дублирование (iTunes)","update":"2016-04-21 05:05:33","iframe_src":"//8543.svetacdn.in/IAF0wWTdNYZm/movie/1309"},{"id":1307,"title":"Идеальный день","kp_id":"838222","imdb_id":"tt3577624","world_art_id":null,"type":"movie","add":"2016-04-20 14:18:42","orig_title":"A Perfect Day","year":"2015-05-16","translations":["Профессиональный (многоголосый закадровый) (Paradox & Omskbird records)"],"quality":"webdl","translation":"Профессиональный (многоголосый закадровый) (Paradox & Omskbird records)","update":"2016-04-21 05:41:29","iframe_src":"//8543.svetacdn.in/IAF0wWTdNYZm/movie/1307"},{"id":1305,"title":"Астерикс на Олимпийских играх","kp_id":"195319","imdb_id":"tt0463872","world_art_id":null,"type":"movie","add":"2016-04-20 14:09:33","orig_title":"Astérix aux jeux olympiques","year":"2008-01-13","translations":["Полное дублирование"],"quality":"bd","translation":"Полное дублирование","update":"2016-04-20 17:26:34","iframe_src":"//8543.svetacdn.in/IAF0wWTdNYZm/movie/1305"},{"id":1304,"title":"Астерикс и Обеликс: Миссия Клеопатра","kp_id":"595","imdb_id":"tt0250223","world_art_id":null,"type":"movie","add":"2016-04-20 14:07:46","orig_title":"Astérix & Obélix: Mission Cléopâtre","year":"2002-01-30","translations":["Полное дублирование"],"quality":"bd","translation":"Полное дублирование","update":"2016-04-20 17:22:25","iframe_src":"//8543.svetacdn.in/IAF0wWTdNYZm/movie/1304"},{"id":585,"title":"Такси 3","kp_id":"14339","imdb_id":"tt0295721","world_art_id":null,"type":"movie","add":"2016-04-05 08:06:53","orig_title":"Taxi 3","year":"2003-01-29","translations":["Полное дублирование"],"quality":"bd","translation":"Полное дублирование","update":"2016-04-21 04:55:24","iframe_src":"//8543.svetacdn.in/IAF0wWTdNYZm/movie/585"}],"current_page":2361,"first_page_url":"https://videocdn.tv/api/short?limit=100&api_token=6Onb1W1alEUrBcKJZD3GoKBbWyAl2uG2&cache32361=32361&page=1","from":236001,"last_page":598,"last_page_url":"https://videocdn.tv/api/short?limit=100&api_token=6Onb1W1alEUrBcKJZD3GoKBbWyAl2uG2&cache32361=32361&page=598","next_page_url":null,"path":"https://videocdn.tv/api/short","per_page":100,"prev_page_url":"https://videocdn.tv/api/short?limit=100&api_token=6Onb1W1alEUrBcKJZD3GoKBbWyAl2uG2&cache32361=32361&page=2360","to":236020,"total":59776}