{"result":true,"data":[{"id":37439,"title":"Чужой: Сдерживание","kp_id":"1252913","imdb_id":"tt10110646","world_art_id":null,"type":"movie","add":"2020-03-05 09:51:57","orig_title":"Alien: Containment","year":"2019-03-15","translations":["Профессиональный (многоголосый закадровый) (LostFilm)"],"quality":"webdl","translation":"Профессиональный (многоголосый закадровый) (LostFilm)","update":"2020-03-06 06:32:00","iframe_src":"//8422.svetacdn.in/si4jsFRrtgrT/movie/37439"},{"id":37438,"title":"Поворотный пункт","kp_id":"2564","imdb_id":"tt0076843","world_art_id":null,"type":"movie","add":"2020-03-05 09:51:00","orig_title":"The Turning Point","year":"1977-11-14","translations":["Профессиональный (многоголосый закадровый)"],"quality":"dvdrip","translation":"Профессиональный (многоголосый закадровый)","update":"2020-03-06 06:30:26","iframe_src":"//8422.svetacdn.in/si4jsFRrtgrT/movie/37438"},{"id":37433,"title":"Невинные убийцы","kp_id":"798862","imdb_id":"tt3144582","world_art_id":null,"type":"movie","add":"2020-03-05 09:46:23","orig_title":"Asesinos inocentes","year":"2015-03-10","translations":["Любительский (многоголосый закадровый)"],"quality":"bd","translation":"Любительский (многоголосый закадровый)","update":"2020-03-06 06:24:53","iframe_src":"//8422.svetacdn.in/si4jsFRrtgrT/movie/37433"},{"id":37200,"title":"Инспектор Виджай","kp_id":"1209501","imdb_id":"tt9253188","world_art_id":null,"type":"movie","add":"2020-03-01 21:13:29","orig_title":"Kavacham","year":"2018-12-06","translations":["Любительский (двухголосый закадровый) (OnisFilms)"],"quality":"webdl","translation":"Любительский (двухголосый закадровый) (OnisFilms)","update":"2020-03-06 11:19:59","iframe_src":"//8422.svetacdn.in/si4jsFRrtgrT/movie/37200"},{"id":37199,"title":"Путешествие","kp_id":"97954","imdb_id":"tt0148692","world_art_id":null,"type":"movie","add":"2020-03-01 21:11:20","orig_title":"Safar","year":"1970-01-01","translations":["Профессиональный (многоголосый закадровый)"],"quality":"dvdrip","translation":"Профессиональный (многоголосый закадровый)","update":"2020-03-06 11:19:05","iframe_src":"//8422.svetacdn.in/si4jsFRrtgrT/movie/37199"},{"id":37198,"title":"Любовь преступника","kp_id":"86773","imdb_id":"tt0116690","world_art_id":null,"type":"movie","add":"2020-03-01 17:43:26","orig_title":"Jeet","year":"1996-08-23","translations":["Любительский (одноголосый закадровый)"],"quality":"webdl","translation":"Любительский (одноголосый закадровый)","update":"2020-03-06 11:17:03","iframe_src":"//8422.svetacdn.in/si4jsFRrtgrT/movie/37198"},{"id":37187,"title":"Ночь любви","kp_id":"1142625","imdb_id":"tt7820846","world_art_id":null,"type":"movie","add":"2020-03-01 17:06:12","orig_title":"Loveyatri","year":"2018-10-04","translations":["Любительский (многоголосый закадровый)"],"quality":"webdl","translation":"Любительский (многоголосый закадровый)","update":"2020-03-06 11:15:38","iframe_src":"//8422.svetacdn.in/si4jsFRrtgrT/movie/37187"},{"id":37185,"title":"Мистер Совершенство","kp_id":"591234","imdb_id":"tt1852036","world_art_id":null,"type":"movie","add":"2020-03-01 16:59:01","orig_title":"Mr Perfect","year":"2011-04-21","translations":["Профессиональный (многоголосый закадровый) (Red Media)"],"quality":"bd","translation":"Профессиональный (многоголосый закадровый) (Red Media)","update":"2020-03-06 11:13:37","iframe_src":"//8422.svetacdn.in/si4jsFRrtgrT/movie/37185"},{"id":37184,"title":"Невероятное путешествие из Бомбея в Гоа","kp_id":"394560","imdb_id":"tt1083988","world_art_id":null,"type":"movie","add":"2020-03-01 16:54:25","orig_title":"Journey Bombay to Goa: Laughter Unlimited","year":"2007-07-06","translations":["Профессиональный (многоголосый закадровый) (ZEE TV)"],"quality":"dvdrip","translation":"Профессиональный (многоголосый закадровый) (ZEE TV)","update":"2020-03-06 11:11:03","iframe_src":"//8422.svetacdn.in/si4jsFRrtgrT/movie/37184"},{"id":37183,"title":"Преступник","kp_id":"194190","imdb_id":"tt0374065","world_art_id":null,"type":"movie","add":"2020-03-01 16:51:37","orig_title":"Mujrim","year":"1958-01-01","translations":["Любительский (одноголосый закадровый)"],"quality":"dvdrip","translation":"Любительский (одноголосый закадровый)","update":"2020-03-06 11:10:23","iframe_src":"//8422.svetacdn.in/si4jsFRrtgrT/movie/37183"},{"id":37182,"title":"Тадж Махал: Любовь не умрет никогда","kp_id":"96091","imdb_id":"tt0057555","world_art_id":null,"type":"movie","add":"2020-03-01 16:47:07","orig_title":"Taj Mahal","year":"1963-01-01","translations":["Профессиональный (одноголосый закадровый)"],"quality":"dvdrip","translation":"Профессиональный (одноголосый закадровый)","update":"2020-03-06 11:07:58","iframe_src":"//8422.svetacdn.in/si4jsFRrtgrT/movie/37182"},{"id":37180,"title":"Упорство в истине","kp_id":"693263","imdb_id":"tt2275802","world_art_id":null,"type":"movie","add":"2020-03-01 16:36:54","orig_title":"Satyagraha","year":"2013-08-30","translations":["Любительский (многоголосый закадровый) (ICG)"],"quality":"bd","translation":"Любительский (многоголосый закадровый) (ICG)","update":"2020-03-06 11:03:48","iframe_src":"//8422.svetacdn.in/si4jsFRrtgrT/movie/37180"},{"id":37179,"title":"Преступник","kp_id":"106114","imdb_id":"tt0359965","world_art_id":null,"type":"movie","add":"2020-03-01 16:34:02","orig_title":"Shehzaade","year":"1989-10-20","translations":["Профессиональный (многоголосый закадровый)"],"quality":"dvdrip","translation":"Профессиональный (многоголосый закадровый)","update":"2020-03-06 11:02:43","iframe_src":"//8422.svetacdn.in/si4jsFRrtgrT/movie/37179"},{"id":20994,"title":"Жертва во имя любви","kp_id":"34959","imdb_id":"tt0363915","world_art_id":null,"type":"movie","add":"2018-12-24 10:14:36","orig_title":"Pyar Ke Naam Qurbaan","year":"1990-01-05","translations":["Полное дублирование"],"quality":"webdl","translation":"Полное дублирование","update":"2020-03-06 11:18:25","iframe_src":"//8422.svetacdn.in/si4jsFRrtgrT/movie/20994"},{"id":9955,"title":"Один","kp_id":"679875","imdb_id":"tt2375559","world_art_id":null,"type":"movie","add":"2017-02-23 06:55:49","orig_title":"1 - Nenokkadine","year":"2014-01-10","translations":["Любительский (многоголосый закадровый) (ICG)","Профессиональный (многоголосый закадровый) (SDI Media | Iyuno-SDI Group Russia)"],"quality":"bd","translation":"Любительский (многоголосый закадровый) (ICG)","update":"2020-03-06 11:12:57","iframe_src":"//8422.svetacdn.in/si4jsFRrtgrT/movie/9955"},{"id":9068,"title":"Пусть сердце бьётся","kp_id":"847042","imdb_id":"tt4110568","world_art_id":null,"type":"movie","add":"2017-01-21 14:14:46","orig_title":"Dil Dhadakne Do","year":"2015-06-04","translations":["Любительский (двухголосый закадровый)","Профессиональный (многоголосый закадровый) (ZEE TV)"],"quality":"bd","translation":"Любительский (двухголосый закадровый)","update":"2020-03-06 11:09:03","iframe_src":"//8422.svetacdn.in/si4jsFRrtgrT/movie/9068"},{"id":7128,"title":"Дилер 2","kp_id":"81692","imdb_id":"tt0396184","world_art_id":null,"type":"movie","add":"2016-11-07 13:54:11","orig_title":"Pusher II","year":"2004-12-25","translations":["Полное дублирование (iTunes)","Профессиональный (многоголосый закадровый)","Авторский (одноголосый закадровый) (Матвеев Алексей | Doctor Joker)","Авторский (одноголосый закадровый) (Немахов Юрий)","Профессиональный (многоголосый закадровый)"],"quality":"bd","translation":"Полное дублирование (iTunes)","update":"2020-03-06 06:44:08","iframe_src":"//8422.svetacdn.in/si4jsFRrtgrT/movie/7128"},{"id":7086,"title":"Рустом","kp_id":"968212","imdb_id":"tt5165344","world_art_id":null,"type":"movie","add":"2016-11-05 19:04:46","orig_title":"Rustom","year":"2016-08-11","translations":["Профессиональный (многоголосый закадровый) (ZEE TV)"],"quality":"bd","translation":"Профессиональный (многоголосый закадровый) (ZEE TV)","update":"2020-03-06 11:06:46","iframe_src":"//8422.svetacdn.in/si4jsFRrtgrT/movie/7086"},{"id":5237,"title":"Тайна Рагнарока","kp_id":"677961","imdb_id":"tt2363213","world_art_id":null,"type":"movie","add":"2016-09-13 09:13:59","orig_title":"Gåten Ragnarok","year":"2013-08-30","translations":["Любительский (двухголосый закадровый)","Профессиональный (многоголосый закадровый) (СТС)"],"quality":"bd","translation":"Любительский (двухголосый закадровый)","update":"2020-03-06 06:27:42","iframe_src":"//8422.svetacdn.in/si4jsFRrtgrT/movie/5237"},{"id":3215,"title":"Дилер","kp_id":"17115","imdb_id":"tt0117407","world_art_id":null,"type":"movie","add":"2016-06-17 06:34:55","orig_title":"Pusher","year":"1996-08-30","translations":["Полное дублирование (iTunes)","Любительский (одноголосый закадровый)","Авторский (одноголосый закадровый) (Матвеев Алексей | Doctor Joker)","Профессиональный (многоголосый закадровый)","Авторский (одноголосый закадровый) (Немахов Юрий)"],"quality":"bd","translation":"Полное дублирование (iTunes)","update":"2020-03-06 07:21:44","iframe_src":"//8422.svetacdn.in/si4jsFRrtgrT/movie/3215"}],"current_page":1091,"first_page_url":"https://videocdn.tv/api/short?limit=100&api_token=X6EwAUfE5M9xbo7y0Bp0aPf3uXxG2KLL&cache31091=31091&page=1","from":109001,"last_page":679,"last_page_url":"https://videocdn.tv/api/short?limit=100&api_token=X6EwAUfE5M9xbo7y0Bp0aPf3uXxG2KLL&cache31091=31091&page=679","next_page_url":null,"path":"https://videocdn.tv/api/short","per_page":100,"prev_page_url":"https://videocdn.tv/api/short?limit=100&api_token=X6EwAUfE5M9xbo7y0Bp0aPf3uXxG2KLL&cache31091=31091&page=1090","to":109020,"total":67847}