{"result":true,"data":[{"id":10220,"title":"Бык из Бронкса","kp_id":"420466","imdb_id":"tt1148205","world_art_id":null,"type":"movie","add":"2017-03-05 20:59:14","orig_title":"The Bronx Bull","year":"2016-06-13","translations":["Любительский (многоголосый закадровый) (Синема УС)"],"quality":"dvdrip","translation":"Любительский (многоголосый закадровый) (Синема УС)","update":"2017-03-06 05:37:20","iframe_src":"//8543.svetacdn.in/71tsRs29n5tZ/movie/10220"},{"id":10198,"title":"Напарник","kp_id":"1007531","imdb_id":"tt6190118","world_art_id":null,"type":"movie","add":"2017-03-05 06:20:47","orig_title":"Sidekick","year":"2016-10-28","translations":["Любительский (одноголосый закадровый)"],"quality":"webdl","translation":"Любительский (одноголосый закадровый)","update":"2017-03-06 05:36:27","iframe_src":"//8543.svetacdn.in/71tsRs29n5tZ/movie/10198"},{"id":10193,"title":"Оккупация. Мистерии","kp_id":"80665","imdb_id":"tt0397554","world_art_id":null,"type":"movie","add":"2017-03-03 07:23:28","orig_title":"Okkupatsiya. Misterii","year":"2004-01-25","translations":["Оригинальная дорожка"],"quality":"dvdrip","translation":"Оригинальная дорожка","update":"2017-03-03 12:33:45","iframe_src":"//8543.svetacdn.in/71tsRs29n5tZ/movie/10193"},{"id":10192,"title":"Разгневанные ангелы","kp_id":"16533","imdb_id":"tt0114226","world_art_id":null,"type":"movie","add":"2017-03-03 07:20:58","orig_title":"Raging Angels","year":"1995-09-19","translations":["Авторский (одноголосый закадровый) (Гаврилов Андрей)"],"quality":"dvdrip","translation":"Авторский (одноголосый закадровый) (Гаврилов Андрей)","update":"2017-03-03 12:39:39","iframe_src":"//8543.svetacdn.in/71tsRs29n5tZ/movie/10192"},{"id":10191,"title":"Сутенер","kp_id":"511059","imdb_id":"tt1460643","world_art_id":null,"type":"movie","add":"2017-03-03 07:20:14","orig_title":"Pimp","year":"2010-05-21","translations":["Профессиональный (многоголосый закадровый)"],"quality":"dvdrip","translation":"Профессиональный (многоголосый закадровый)","update":"2017-03-03 17:21:52","iframe_src":"//8543.svetacdn.in/71tsRs29n5tZ/movie/10191"},{"id":10190,"title":"Ультиматум","kp_id":"400060","imdb_id":"tt5178168","world_art_id":null,"type":"movie","add":"2017-03-03 07:19:25","orig_title":"Ultimatum","year":"1999-01-01","translations":["Оригинальная дорожка"],"quality":"dvdrip","translation":"Оригинальная дорожка","update":"2017-03-03 12:29:54","iframe_src":"//8543.svetacdn.in/71tsRs29n5tZ/movie/10190"},{"id":10189,"title":"Самозванка","kp_id":"51212","imdb_id":"tt0326805","world_art_id":null,"type":"movie","add":"2017-03-03 07:18:20","orig_title":"Chori Chori","year":"2003-08-01","translations":["Профессиональный (двухголосый закадровый)"],"quality":"dvdrip","translation":"Профессиональный (двухголосый закадровый)","update":"2017-03-03 12:31:12","iframe_src":"//8543.svetacdn.in/71tsRs29n5tZ/movie/10189"},{"id":10188,"title":"Благословение","kp_id":"296939","imdb_id":"tt0113832","world_art_id":null,"type":"movie","add":"2017-03-03 07:17:35","orig_title":"Mixed Blessings","year":"1995-12-11","translations":["Профессиональный (многоголосый закадровый)"],"quality":"dvdrip","translation":"Профессиональный (многоголосый закадровый)","update":"2017-03-03 12:41:02","iframe_src":"//8543.svetacdn.in/71tsRs29n5tZ/movie/10188"},{"id":10187,"title":"Тайна","kp_id":"307012","imdb_id":"tt0846789","world_art_id":null,"type":"movie","add":"2017-03-03 07:16:35","orig_title":"The Secret","year":"2006-03-26","translations":["Полное дублирование"],"quality":"dvdrip","translation":"Полное дублирование","update":"2017-03-03 12:29:56","iframe_src":"//8543.svetacdn.in/71tsRs29n5tZ/movie/10187"},{"id":10186,"title":"Здесь и сейчас","kp_id":"253494","imdb_id":"tt0490701","world_art_id":null,"type":"movie","add":"2017-03-03 07:15:35","orig_title":"You Are Here","year":"2007-01-26","translations":["Профессиональный (многоголосый закадровый)"],"quality":"dvdrip","translation":"Профессиональный (многоголосый закадровый)","update":"2017-03-03 12:39:25","iframe_src":"//8543.svetacdn.in/71tsRs29n5tZ/movie/10186"},{"id":10176,"title":"10 правил","kp_id":"779071","imdb_id":"tt3021744","world_art_id":null,"type":"movie","add":"2017-03-02 10:22:06","orig_title":"10 pravidel jak sbalit holku","year":"2014-03-20","translations":["Любительский (одноголосый закадровый) (PashaUp | Морозов Павел)"],"quality":"bd","translation":"Любительский (одноголосый закадровый) (PashaUp | Морозов Павел)","update":"2017-03-03 10:40:31","iframe_src":"//8543.svetacdn.in/71tsRs29n5tZ/movie/10176"},{"id":10171,"title":"Сын Божий","kp_id":"799715","imdb_id":"tt3210686","world_art_id":null,"type":"movie","add":"2017-03-02 08:07:34","orig_title":"Son of God","year":"2014-02-28","translations":["Профессиональный (многоголосый закадровый)"],"quality":"bd","translation":"Профессиональный (многоголосый закадровый)","update":"2017-03-03 10:43:40","iframe_src":"//8543.svetacdn.in/71tsRs29n5tZ/movie/10171"},{"id":10170,"title":"Ледяной лес","kp_id":"723900","imdb_id":"tt2559786","world_art_id":null,"type":"movie","add":"2017-03-02 08:05:54","orig_title":"La foresta di ghiaccio","year":"2014-10-23","translations":["Профессиональный (многоголосый закадровый)"],"quality":"dvdrip","translation":"Профессиональный (многоголосый закадровый)","update":"2017-03-03 10:41:50","iframe_src":"//8543.svetacdn.in/71tsRs29n5tZ/movie/10170"},{"id":10158,"title":"Спаси меня","kp_id":"20321","imdb_id":"tt0107949","world_art_id":null,"type":"movie","add":"2017-03-02 06:59:34","orig_title":"Rescue Me","year":"1992-09-11","translations":["Профессиональный (многоголосый закадровый)"],"quality":"sat","translation":"Профессиональный (многоголосый закадровый)","update":"2017-03-03 12:27:51","iframe_src":"//8543.svetacdn.in/71tsRs29n5tZ/movie/10158"},{"id":10156,"title":"Второй шанс","kp_id":"6623","imdb_id":"tt0272125","world_art_id":null,"type":"movie","add":"2017-03-02 06:53:46","orig_title":"Snapshots","year":"2002-02-21","translations":["Профессиональный (двухголосый закадровый) (Elrom)"],"quality":"dvdrip","translation":"Профессиональный (двухголосый закадровый) (Elrom)","update":"2017-03-03 12:29:11","iframe_src":"//8543.svetacdn.in/71tsRs29n5tZ/movie/10156"},{"id":10155,"title":"Трезубец бога Шивы","kp_id":"78542","imdb_id":"tt0078418","world_art_id":null,"type":"movie","add":"2017-03-02 06:53:09","orig_title":"Trishul","year":"1978-05-05","translations":["Полное дублирование"],"quality":"dvdrip","translation":"Полное дублирование","update":"2017-03-03 12:27:23","iframe_src":"//8543.svetacdn.in/71tsRs29n5tZ/movie/10155"},{"id":10154,"title":"Мои друзья","kp_id":"163239","imdb_id":"tt0072637","world_art_id":null,"type":"movie","add":"2017-03-02 06:52:16","orig_title":"Amici miei","year":"1975-07-26","translations":["Авторский (одноголосый закадровый) (Штейн Владимир)"],"quality":"bd","translation":"Авторский (одноголосый закадровый) (Штейн Владимир)","update":"2017-03-03 12:38:58","iframe_src":"//8543.svetacdn.in/71tsRs29n5tZ/movie/10154"},{"id":10142,"title":"Крах","kp_id":"817232","imdb_id":"tt3381610","world_art_id":null,"type":"movie","add":"2017-03-01 22:17:53","orig_title":"Breakdown","year":"2016-01-15","translations":["Любительский (многоголосый закадровый) (Синема УС)"],"quality":"webdl","translation":"Любительский (многоголосый закадровый) (Синема УС)","update":"2017-03-04 11:51:21","iframe_src":"//8543.svetacdn.in/71tsRs29n5tZ/movie/10142"},{"id":7567,"title":"Сотни улиц","kp_id":"775392","imdb_id":"tt2990126","world_art_id":null,"type":"movie","add":"2016-11-22 06:56:51","orig_title":"100 Streets","year":"2016-06-08","translations":["Любительский (двухголосый закадровый) (RecentFilms)","Любительский (многоголосый закадровый) (Синема УС)","Профессиональный (многоголосый закадровый) (iTunes)"],"quality":"hdrip","translation":"Любительский (двухголосый закадровый) (RecentFilms)","update":"2017-03-06 05:32:26","iframe_src":"//8543.svetacdn.in/71tsRs29n5tZ/movie/7567"},{"id":7511,"title":"Офицер Доун","kp_id":"889509","imdb_id":"tt4439102","world_art_id":null,"type":"movie","add":"2016-11-20 07:45:03","orig_title":"Officer Downe","year":"2016-11-18","translations":["Любительский (одноголосый закадровый)","Профессиональный (многоголосый закадровый) (Колобок)"],"quality":"webdl","translation":"Любительский (одноголосый закадровый)","update":"2017-03-06 05:43:49","iframe_src":"//8543.svetacdn.in/71tsRs29n5tZ/movie/7511"}],"current_page":2072,"first_page_url":"https://videocdn.tv/api/short?limit=100&api_token=EnbO9h8pv1VyjbCJhg0WM9nG259n7mtz&cache32072=32072&page=1","from":207101,"last_page":609,"last_page_url":"https://videocdn.tv/api/short?limit=100&api_token=EnbO9h8pv1VyjbCJhg0WM9nG259n7mtz&cache32072=32072&page=609","next_page_url":null,"path":"https://videocdn.tv/api/short","per_page":100,"prev_page_url":"https://videocdn.tv/api/short?limit=100&api_token=EnbO9h8pv1VyjbCJhg0WM9nG259n7mtz&cache32072=32072&page=2071","to":207120,"total":60845}