{"result":true,"data":[{"id":6953,"title":"Пустырь 2","kp_id":"81755","imdb_id":"tt0418131","world_art_id":null,"type":"movie","add":"2016-11-01 12:39:52","orig_title":"The Sandlot 2","year":"2005-05-03","translations":["Профессиональный (многоголосый закадровый)"],"quality":"webdl","translation":"Профессиональный (многоголосый закадровый)","update":"2016-11-03 09:27:34","iframe_src":"//83.svetacdn.in/PfJ50H0ZBPg3/movie/6953"},{"id":6952,"title":"На исходе дня","kp_id":"6154","imdb_id":"tt0107943","world_art_id":null,"type":"movie","add":"2016-11-01 12:38:23","orig_title":"The Remains of the Day","year":"1993-10-25","translations":["Профессиональный (многоголосый закадровый)"],"quality":"bd","translation":"Профессиональный (многоголосый закадровый)","update":"2016-11-03 09:26:01","iframe_src":"//83.svetacdn.in/PfJ50H0ZBPg3/movie/6952"},{"id":6951,"title":"Увлечение","kp_id":"1726","imdb_id":"tt0106627","world_art_id":null,"type":"movie","add":"2016-11-01 12:36:12","orig_title":"The Crush","year":"1993-04-02","translations":["Профессиональный (многоголосый закадровый)"],"quality":"hdtv","translation":"Профессиональный (многоголосый закадровый)","update":"2016-11-03 09:24:31","iframe_src":"//83.svetacdn.in/PfJ50H0ZBPg3/movie/6951"},{"id":6950,"title":"Деревенщина из Беверли-Хиллз","kp_id":"1837","imdb_id":"tt0106400","world_art_id":null,"type":"movie","add":"2016-11-01 12:34:56","orig_title":"The Beverly Hillbillies","year":"1993-10-15","translations":["Профессиональный (многоголосый закадровый)"],"quality":"webdl","translation":"Профессиональный (многоголосый закадровый)","update":"2016-11-03 06:42:12","iframe_src":"//83.svetacdn.in/PfJ50H0ZBPg3/movie/6950"},{"id":6948,"title":"Супербратья Марио","kp_id":"2282","imdb_id":"tt0108255","world_art_id":null,"type":"movie","add":"2016-11-01 12:32:41","orig_title":"Super Mario Bros.","year":"1993-05-28","translations":["Профессиональный (многоголосый закадровый)"],"quality":"bd","translation":"Профессиональный (многоголосый закадровый)","update":"2016-11-03 06:39:17","iframe_src":"//83.svetacdn.in/PfJ50H0ZBPg3/movie/6948"},{"id":6947,"title":"Я женился на убийце с топором","kp_id":"9500","imdb_id":"tt0108174","world_art_id":null,"type":"movie","add":"2016-11-01 12:31:36","orig_title":"So I Married an Axe Murderer","year":"1993-07-30","translations":["Профессиональный (многоголосый закадровый)"],"quality":"bd","translation":"Профессиональный (многоголосый закадровый)","update":"2016-11-03 06:37:32","iframe_src":"//83.svetacdn.in/PfJ50H0ZBPg3/movie/6947"},{"id":6946,"title":"Снайпер","kp_id":"17288","imdb_id":"tt0108171","world_art_id":null,"type":"movie","add":"2016-11-01 12:30:23","orig_title":"Sniper","year":"1993-01-29","translations":["Профессиональный (многоголосый закадровый)"],"quality":"hdtv","translation":"Профессиональный (многоголосый закадровый)","update":"2016-11-03 06:35:57","iframe_src":"//83.svetacdn.in/PfJ50H0ZBPg3/movie/6946"},{"id":6945,"title":"Сестричка, действуй 2","kp_id":"6555","imdb_id":"tt0108147","world_art_id":null,"type":"movie","add":"2016-11-01 12:29:19","orig_title":"Sister Act 2: Back in the Habit","year":"1993-12-10","translations":["Профессиональный (многоголосый закадровый)"],"quality":"bd","translation":"Профессиональный (многоголосый закадровый)","update":"2016-11-03 06:33:10","iframe_src":"//83.svetacdn.in/PfJ50H0ZBPg3/movie/6945"},{"id":6944,"title":"Сирены","kp_id":"6152","imdb_id":"tt0111201","world_art_id":null,"type":"movie","add":"2016-11-01 12:28:14","orig_title":"Sirens","year":"1994-03-04","translations":["Профессиональный (многоголосый закадровый)"],"quality":"bd","translation":"Профессиональный (многоголосый закадровый)","update":"2016-11-03 06:32:15","iframe_src":"//83.svetacdn.in/PfJ50H0ZBPg3/movie/6944"},{"id":6943,"title":"Тыквоголовый","kp_id":"2294","imdb_id":"tt0095925","world_art_id":null,"type":"movie","add":"2016-11-01 12:27:05","orig_title":"Pumpkinhead","year":"1988-09-01","translations":["Профессиональный (многоголосый закадровый)"],"quality":"bd","translation":"Профессиональный (многоголосый закадровый)","update":"2016-11-03 06:30:17","iframe_src":"//83.svetacdn.in/PfJ50H0ZBPg3/movie/6943"},{"id":6942,"title":"Моя жизнь","kp_id":"13704","imdb_id":"tt0107630","world_art_id":null,"type":"movie","add":"2016-11-01 12:26:00","orig_title":"My Life","year":"1993-11-12","translations":["Профессиональный (многоголосый закадровый)"],"quality":"webdl","translation":"Профессиональный (многоголосый закадровый)","update":"2016-11-03 06:27:35","iframe_src":"//83.svetacdn.in/PfJ50H0ZBPg3/movie/6942"},{"id":6941,"title":"Много шума из ничего","kp_id":"3803","imdb_id":"tt0107616","world_art_id":null,"type":"movie","add":"2016-11-01 12:24:49","orig_title":"Much Ado About Nothing","year":"1993-05-26","translations":["Профессиональный (многоголосый закадровый)"],"quality":"bd","translation":"Профессиональный (многоголосый закадровый)","update":"2016-11-03 06:25:57","iframe_src":"//83.svetacdn.in/PfJ50H0ZBPg3/movie/6941"},{"id":6939,"title":"Во имя отца","kp_id":"4885","imdb_id":"tt0107207","world_art_id":null,"type":"movie","add":"2016-11-01 12:22:14","orig_title":"In the Name of the Father","year":"1993-12-12","translations":["Профессиональный (многоголосый закадровый)"],"quality":"bd","translation":"Профессиональный (многоголосый закадровый)","update":"2016-11-03 06:21:27","iframe_src":"//83.svetacdn.in/PfJ50H0ZBPg3/movie/6939"},{"id":6938,"title":"Дорога домой 2: Затерянные в Сан-Франциско","kp_id":"8944","imdb_id":"tt0116552","world_art_id":null,"type":"movie","add":"2016-11-01 12:20:03","orig_title":"Homeward Bound II: Lost in San Francisco","year":"1996-03-08","translations":["Профессиональный (многоголосый закадровый)"],"quality":"webdl","translation":"Профессиональный (многоголосый закадровый)","update":"2016-11-03 06:19:53","iframe_src":"//83.svetacdn.in/PfJ50H0ZBPg3/movie/6938"},{"id":6937,"title":"Дорога домой: Невероятное путешествие","kp_id":"15933","imdb_id":"tt0107131","world_art_id":null,"type":"movie","add":"2016-11-01 12:18:53","orig_title":"Homeward Bound: The Incredible Journey","year":"1993-02-03","translations":["Профессиональный (многоголосый закадровый)"],"quality":"webdl","translation":"Профессиональный (многоголосый закадровый)","update":"2016-11-03 06:18:02","iframe_src":"//83.svetacdn.in/PfJ50H0ZBPg3/movie/6937"},{"id":6936,"title":"Фокус-покус","kp_id":"11112","imdb_id":"tt0107120","world_art_id":null,"type":"movie","add":"2016-11-01 12:17:13","orig_title":"Hocus Pocus","year":"1993-07-16","translations":["Профессиональный (многоголосый закадровый)"],"quality":"bd","translation":"Профессиональный (многоголосый закадровый)","update":"2016-11-03 06:16:39","iframe_src":"//83.svetacdn.in/PfJ50H0ZBPg3/movie/6936"},{"id":6935,"title":"Геттисбург","kp_id":"4570","imdb_id":"tt0107007","world_art_id":null,"type":"movie","add":"2016-11-01 12:16:09","orig_title":"Gettysburg","year":"1993-10-08","translations":["Профессиональный (многоголосый закадровый)"],"quality":"bd","translation":"Профессиональный (многоголосый закадровый)","update":"2016-11-03 06:14:02","iframe_src":"//83.svetacdn.in/PfJ50H0ZBPg3/movie/6935"},{"id":6933,"title":"Хронос","kp_id":"6499","imdb_id":"tt0104029","world_art_id":null,"type":"movie","add":"2016-11-01 12:11:43","orig_title":"Cronos","year":"1993-05-17","translations":["Профессиональный (многоголосый закадровый)"],"quality":"bd","translation":"Профессиональный (многоголосый закадровый)","update":"2016-11-03 05:36:18","iframe_src":"//83.svetacdn.in/PfJ50H0ZBPg3/movie/6933"},{"id":6930,"title":"Широкое Саргассово море","kp_id":"17124","imdb_id":"tt0108565","world_art_id":null,"type":"movie","add":"2016-11-01 11:58:07","orig_title":"Wide Sargasso Sea","year":"1993-04-16","translations":["Профессиональный (двухголосый закадровый)"],"quality":"webdl","translation":"Профессиональный (двухголосый закадровый)","update":"2016-11-03 05:29:45","iframe_src":"//83.svetacdn.in/PfJ50H0ZBPg3/movie/6930"},{"id":6929,"title":"Дети свинга","kp_id":"1939","imdb_id":"tt0108265","world_art_id":null,"type":"movie","add":"2016-11-01 11:57:00","orig_title":"Swing Kids","year":"1993-03-05","translations":["Профессиональный (двухголосый закадровый)"],"quality":"webdl","translation":"Профессиональный (двухголосый закадровый)","update":"2016-11-03 05:27:41","iframe_src":"//83.svetacdn.in/PfJ50H0ZBPg3/movie/6929"}],"current_page":2253,"first_page_url":"https://videocdn.tv/api/short?limit=100&api_token=RgFQdUIR2dRmwv8iYa5SnFNgnw3vpjKj&cache32253=32253&page=1","from":225201,"last_page":621,"last_page_url":"https://videocdn.tv/api/short?limit=100&api_token=RgFQdUIR2dRmwv8iYa5SnFNgnw3vpjKj&cache32253=32253&page=621","next_page_url":null,"path":"https://videocdn.tv/api/short","per_page":100,"prev_page_url":"https://videocdn.tv/api/short?limit=100&api_token=RgFQdUIR2dRmwv8iYa5SnFNgnw3vpjKj&cache32253=32253&page=2252","to":225220,"total":62046}