{"result":true,"data":[{"id":28303,"title":"Всё против неё","kp_id":"1255376","imdb_id":"tt10161552","world_art_id":null,"type":"movie","add":"2019-06-26 21:56:15","orig_title":"Tout Contre Elle","year":"2019-02-08","translations":["Любительский (многоголосый закадровый) (Синема УС)"],"quality":"webdl","translation":"Любительский (многоголосый закадровый) (Синема УС)","update":"2019-06-27 04:22:14","iframe_src":"//83.svetacdn.in/PfJ50H0ZBPg3/movie/28303"},{"id":28300,"title":"Дикий Рагда","kp_id":"1243356","imdb_id":"tt8898498","world_art_id":null,"type":"movie","add":"2019-06-26 21:49:19","orig_title":"Raghda Motawahesha","year":"2018-01-06","translations":["Любительский (многоголосый закадровый) (Синема УС)"],"quality":"webdl","translation":"Любительский (многоголосый закадровый) (Синема УС)","update":"2019-06-27 04:31:30","iframe_src":"//83.svetacdn.in/PfJ50H0ZBPg3/movie/28300"},{"id":28299,"title":"Свадьба лучшего друга","kp_id":"1122909","imdb_id":"tt8220332","world_art_id":null,"type":"movie","add":"2019-06-26 21:46:37","orig_title":"La boda de mi mejor amigo","year":"2019-02-14","translations":["Любительский (многоголосый закадровый) (Синема УС)"],"quality":"webdl","translation":"Любительский (многоголосый закадровый) (Синема УС)","update":"2019-06-27 04:33:26","iframe_src":"//83.svetacdn.in/PfJ50H0ZBPg3/movie/28299"},{"id":28298,"title":"Ледяная команда","kp_id":null,"imdb_id":"tt6098416","world_art_id":null,"type":"movie","add":"2019-06-26 21:45:00","orig_title":"Hamlat Feraizar","year":"2016-09-10","translations":["Любительский (многоголосый закадровый) (Синема УС)"],"quality":"webdl","translation":"Любительский (многоголосый закадровый) (Синема УС)","update":"2019-06-27 04:22:03","iframe_src":"//83.svetacdn.in/PfJ50H0ZBPg3/movie/28298"},{"id":28297,"title":"CTRL","kp_id":"984186","imdb_id":"tt4738626","world_art_id":null,"type":"movie","add":"2019-06-26 21:41:02","orig_title":"CTRL","year":"2018-08-25","translations":["Любительский (многоголосый закадровый) (Синема УС)"],"quality":"webdl","translation":"Любительский (многоголосый закадровый) (Синема УС)","update":"2019-06-27 04:36:55","iframe_src":"//83.svetacdn.in/PfJ50H0ZBPg3/movie/28297"},{"id":28279,"title":"Коловрат. Восхождение","kp_id":"839861","imdb_id":null,"world_art_id":null,"type":"movie","add":"2019-06-26 14:45:05","orig_title":"Коловрат. Восхождение","year":"2016-01-01","translations":["Оригинальная дорожка"],"quality":"webdl","translation":"Оригинальная дорожка","update":"2019-06-27 05:13:25","iframe_src":"//83.svetacdn.in/PfJ50H0ZBPg3/movie/28279"},{"id":28278,"title":"Приключения Калле-сыщика","kp_id":"423015","imdb_id":"tt1480293","world_art_id":null,"type":"movie","add":"2019-06-26 14:10:10","orig_title":"Priklyucheniya Kalle-syschika","year":"1976-12-12","translations":["Оригинальная дорожка"],"quality":"dvdrip","translation":"Оригинальная дорожка","update":"2019-06-27 05:10:50","iframe_src":"//83.svetacdn.in/PfJ50H0ZBPg3/movie/28278"},{"id":28276,"title":"Чужая игра","kp_id":"582731","imdb_id":"tt2082428","world_art_id":null,"type":"movie","add":"2019-06-26 14:01:26","orig_title":"Chuzhaya igra","year":"1991-12-01","translations":["Оригинальная дорожка"],"quality":"dvb","translation":"Оригинальная дорожка","update":"2019-06-27 05:03:50","iframe_src":"//83.svetacdn.in/PfJ50H0ZBPg3/movie/28276"},{"id":28275,"title":"Шакалы","kp_id":"412507","imdb_id":"tt1925501","world_art_id":null,"type":"movie","add":"2019-06-26 13:53:58","orig_title":"Shakaly","year":"1990-07-01","translations":["Оригинальная дорожка"],"quality":"dvdrip","translation":"Оригинальная дорожка","update":"2019-06-27 04:39:07","iframe_src":"//83.svetacdn.in/PfJ50H0ZBPg3/movie/28275"},{"id":28274,"title":"Злодей","kp_id":"1041666","imdb_id":"tt6616800","world_art_id":null,"type":"movie","add":"2019-06-25 23:28:19","orig_title":"Villain","year":"2017-10-27","translations":["Любительский (многоголосый закадровый) (Синема УС)"],"quality":"webdl","translation":"Любительский (многоголосый закадровый) (Синема УС)","update":"2019-06-26 04:42:11","iframe_src":"//83.svetacdn.in/PfJ50H0ZBPg3/movie/28274"},{"id":28273,"title":"ТрансВоенные","kp_id":"1139575","imdb_id":"tt7297156","world_art_id":null,"type":"movie","add":"2019-06-25 23:26:34","orig_title":"TransMilitary","year":"2018-03-10","translations":["Любительский (многоголосый закадровый) (Синема УС)"],"quality":"webdl","translation":"Любительский (многоголосый закадровый) (Синема УС)","update":"2019-06-26 04:45:44","iframe_src":"//83.svetacdn.in/PfJ50H0ZBPg3/movie/28273"},{"id":28270,"title":"Ласковое безразличие мира","kp_id":"1117306","imdb_id":"tt8269378","world_art_id":null,"type":"movie","add":"2019-06-25 23:17:03","orig_title":"Laskovoe bezrazlichie mira","year":"2018-05-17","translations":["Оригинальная дорожка"],"quality":"webdl","translation":"Оригинальная дорожка","update":"2019-06-26 04:50:39","iframe_src":"//83.svetacdn.in/PfJ50H0ZBPg3/movie/28270"},{"id":28269,"title":"Округ Хейл утром и вечером","kp_id":"1112203","imdb_id":"tt6634646","world_art_id":null,"type":"movie","add":"2019-06-25 23:15:35","orig_title":"Hale County This Morning, This Evening","year":"2018-01-19","translations":["Любительский (многоголосый закадровый) (Синема УС)"],"quality":"bd","translation":"Любительский (многоголосый закадровый) (Синема УС)","update":"2019-06-26 04:52:10","iframe_src":"//83.svetacdn.in/PfJ50H0ZBPg3/movie/28269"},{"id":28268,"title":"Мечты Диди","kp_id":"1045430","imdb_id":"tt6912580","world_art_id":null,"type":"movie","add":"2019-06-25 23:13:59","orig_title":"«Chi chi» de ai","year":"2017-05-27","translations":["Любительский (многоголосый закадровый) (Синема УС)"],"quality":"webdl","translation":"Любительский (многоголосый закадровый) (Синема УС)","update":"2019-06-26 04:27:14","iframe_src":"//83.svetacdn.in/PfJ50H0ZBPg3/movie/28268"},{"id":28267,"title":"Обвиняемая","kp_id":"1115752","imdb_id":"tt7952000","world_art_id":null,"type":"movie","add":"2019-06-25 23:12:08","orig_title":"Acusada","year":"2018-09-04","translations":["Любительский (многоголосый закадровый) (Синема УС)"],"quality":"webdl","translation":"Любительский (многоголосый закадровый) (Синема УС)","update":"2019-06-26 04:25:16","iframe_src":"//83.svetacdn.in/PfJ50H0ZBPg3/movie/28267"},{"id":28266,"title":"Допустимый ущерб","kp_id":"961037","imdb_id":"tt5172404","world_art_id":null,"type":"movie","add":"2019-06-25 23:10:07","orig_title":"Acceptable Damage","year":"2019-03-25","translations":["Любительский (многоголосый закадровый) (Синема УС)"],"quality":"webdl","translation":"Любительский (многоголосый закадровый) (Синема УС)","update":"2019-06-26 04:24:21","iframe_src":"//83.svetacdn.in/PfJ50H0ZBPg3/movie/28266"},{"id":28262,"title":"Жаркая пятница","kp_id":"1147709","imdb_id":"tt7526836","world_art_id":null,"type":"movie","add":"2019-06-25 16:17:24","orig_title":"FryDay","year":"2018-10-12","translations":["Любительский (многоголосый закадровый) (Синема УС)"],"quality":"webdl","translation":"Любительский (многоголосый закадровый) (Синема УС)","update":"2019-06-25 18:56:03","iframe_src":"//83.svetacdn.in/PfJ50H0ZBPg3/movie/28262"},{"id":25779,"title":"Большое путешествие","kp_id":"1114973","imdb_id":"tt7403614","world_art_id":null,"type":"movie","add":"2019-05-01 00:14:45","orig_title":"The Big Trip","year":"2019-04-12","translations":["Оригинальная дорожка"],"quality":"webdl","translation":"Оригинальная дорожка","update":"2019-06-27 04:04:49","iframe_src":"//83.svetacdn.in/PfJ50H0ZBPg3/movie/25779"},{"id":24622,"title":"Мой друг Зигмунд Фрейд","kp_id":"1092238","imdb_id":"tt7477068","world_art_id":null,"type":"movie","add":"2019-04-14 21:50:47","orig_title":"Der Trafikant","year":"2018-09-30","translations":["Профессиональный (многоголосый закадровый)"],"quality":"bd","translation":"Профессиональный (многоголосый закадровый)","update":"2019-06-27 04:11:01","iframe_src":"//83.svetacdn.in/PfJ50H0ZBPg3/movie/24622"},{"id":16756,"title":"Сделано в Италии","kp_id":"1090879","imdb_id":"tt6917242","world_art_id":null,"type":"movie","add":"2018-05-12 19:12:22","orig_title":"Made in Italy","year":"2018-01-25","translations":["Профессиональный (многоголосый закадровый)"],"quality":"bd","translation":"Профессиональный (многоголосый закадровый)","update":"2019-06-26 04:22:35","iframe_src":"//83.svetacdn.in/PfJ50H0ZBPg3/movie/16756"}],"current_page":1223,"first_page_url":"https://videocdn.tv/api/short?limit=100&api_token=RgFQdUIR2dRmwv8iYa5SnFNgnw3vpjKj&cache31223=31223&page=1","from":122201,"last_page":608,"last_page_url":"https://videocdn.tv/api/short?limit=100&api_token=RgFQdUIR2dRmwv8iYa5SnFNgnw3vpjKj&cache31223=31223&page=608","next_page_url":null,"path":"https://videocdn.tv/api/short","per_page":100,"prev_page_url":"https://videocdn.tv/api/short?limit=100&api_token=RgFQdUIR2dRmwv8iYa5SnFNgnw3vpjKj&cache31223=31223&page=1222","to":122220,"total":60756}