{"result":true,"data":[{"id":10695,"title":"Запорошенные пеплом","kp_id":"868527","imdb_id":"tt4261942","world_art_id":null,"type":"movie","add":"2017-04-02 22:41:34","orig_title":"Exiled","year":"2016-01-21","translations":["Любительский (одноголосый закадровый) (datynet | Агапов Антон)"],"quality":"hdtv","translation":"Любительский (одноголосый закадровый) (datynet | Агапов Антон)","update":"2017-04-03 05:33:54","iframe_src":"//2413.svetacdn.in/si4jsFRrtgrT/movie/10695"},{"id":10694,"title":"Песчаная буря","kp_id":"843581","imdb_id":"tt3854372","world_art_id":null,"type":"movie","add":"2017-04-02 22:39:12","orig_title":"The Dust Storm","year":"2016-04-14","translations":["Профессиональный (многоголосый)"],"quality":"webdl","translation":"Профессиональный (многоголосый)","update":"2017-04-03 05:48:50","iframe_src":"//2413.svetacdn.in/si4jsFRrtgrT/movie/10694"},{"id":10693,"title":"Поиск сети","kp_id":"900974","imdb_id":"tt4494094","world_art_id":null,"type":"movie","add":"2017-04-02 22:36:57","orig_title":"Search Engines","year":"2016-03-05","translations":["Любительский (многоголосый закадровый) (Синема УС)"],"quality":"webdl","translation":"Любительский (многоголосый закадровый) (Синема УС)","update":"2017-04-03 05:51:32","iframe_src":"//2413.svetacdn.in/si4jsFRrtgrT/movie/10693"},{"id":10690,"title":"Открытие","kp_id":"941914","imdb_id":"tt5155780","world_art_id":null,"type":"movie","add":"2017-04-02 20:39:46","orig_title":"The Discovery","year":"2017-01-20","translations":["Профессиональный (многоголосый закадровый) (NewStudio)"],"quality":"webdl","translation":"Профессиональный (многоголосый закадровый) (NewStudio)","update":"2017-04-03 05:50:45","iframe_src":"//2413.svetacdn.in/si4jsFRrtgrT/movie/10690"},{"id":10638,"title":"Занесло","kp_id":"693168","imdb_id":"tt2275946","world_art_id":null,"type":"movie","add":"2017-03-30 15:15:56","orig_title":"Redirected","year":"2014-01-10","translations":["Профессиональный (многоголосый закадровый)"],"quality":"bd","translation":"Профессиональный (многоголосый закадровый)","update":"2017-03-31 08:55:36","iframe_src":"//2413.svetacdn.in/si4jsFRrtgrT/movie/10638"},{"id":10635,"title":"Быстрая прогулка","kp_id":"810767","imdb_id":"tt3360038","world_art_id":null,"type":"movie","add":"2017-03-30 15:10:42","orig_title":"Kapgang","year":"2014-08-28","translations":["Любительский (одноголосый закадровый)"],"quality":"bd","translation":"Любительский (одноголосый закадровый)","update":"2017-03-31 08:53:48","iframe_src":"//2413.svetacdn.in/si4jsFRrtgrT/movie/10635"},{"id":10634,"title":"Общага","kp_id":"808655","imdb_id":"tt3307774","world_art_id":null,"type":"movie","add":"2017-03-30 15:09:02","orig_title":"Alpha House","year":"2014-03-11","translations":["Любительский (одноголосый закадровый)"],"quality":"bd","translation":"Любительский (одноголосый закадровый)","update":"2017-03-31 08:51:57","iframe_src":"//2413.svetacdn.in/si4jsFRrtgrT/movie/10634"},{"id":10633,"title":"Клуб Винкс: Тайна морской бездны","kp_id":"836877","imdb_id":"tt3885932","world_art_id":null,"type":"movie","add":"2017-03-30 15:07:59","orig_title":"Winx Club: Il mistero degli abissi","year":"2014-09-02","translations":["Полное дублирование"],"quality":"webdl","translation":"Полное дублирование","update":"2017-03-31 08:50:00","iframe_src":"//2413.svetacdn.in/si4jsFRrtgrT/movie/10633"},{"id":10632,"title":"Олли и сокровища пиратов","kp_id":"822681","imdb_id":"tt4228840","world_art_id":null,"type":"movie","add":"2017-03-30 15:03:00","orig_title":"Dive Olly Dive and the Pirate Treasure","year":"2014-05-01","translations":["Полное дублирование"],"quality":"webdl","translation":"Полное дублирование","update":"2017-03-31 08:48:39","iframe_src":"//2413.svetacdn.in/si4jsFRrtgrT/movie/10632"},{"id":10622,"title":"Голубой пирог","kp_id":"105378","imdb_id":"tt0443431","world_art_id":null,"type":"movie","add":"2017-03-30 05:20:54","orig_title":"Another Gay Movie","year":"2006-04-28","translations":["Профессиональный (многоголосый закадровый)"],"quality":"bd","translation":"Профессиональный (многоголосый закадровый)","update":"2017-03-31 08:22:15","iframe_src":"//2413.svetacdn.in/si4jsFRrtgrT/movie/10622"},{"id":10608,"title":"Искусство негативного мышления","kp_id":"402313","imdb_id":"tt0945356","world_art_id":null,"type":"movie","add":"2017-03-29 16:56:15","orig_title":"Kunsten å tenke negativt","year":"2006-11-03","translations":["Любительский (одноголосый закадровый)"],"quality":"dvdrip","translation":"Любительский (одноголосый закадровый)","update":"2017-03-31 08:37:33","iframe_src":"//2413.svetacdn.in/si4jsFRrtgrT/movie/10608"},{"id":10607,"title":"Говори со мной о любви","kp_id":"321252","imdb_id":"tt1038142","world_art_id":null,"type":"movie","add":"2017-03-29 16:55:03","orig_title":"Parlami d'amore","year":"2008-02-14","translations":["Любительский (одноголосый закадровый)"],"quality":"dvdrip","translation":"Любительский (одноголосый закадровый)","update":"2017-03-31 08:35:33","iframe_src":"//2413.svetacdn.in/si4jsFRrtgrT/movie/10607"},{"id":10606,"title":"На дне Страны грез","kp_id":"501222","imdb_id":"tt1599296","world_art_id":null,"type":"movie","add":"2017-03-29 16:53:42","orig_title":"Going Down in LA-LA Land","year":"2011-05-01","translations":["Любительский (одноголосый закадровый)"],"quality":"dvdrip","translation":"Любительский (одноголосый закадровый)","update":"2017-03-31 08:33:48","iframe_src":"//2413.svetacdn.in/si4jsFRrtgrT/movie/10606"},{"id":10605,"title":"Арнольд!","kp_id":"10934","imdb_id":"tt0314166","world_art_id":null,"type":"movie","add":"2017-03-29 16:52:30","orig_title":"Hey Arnold! The Movie","year":"2002-06-28","translations":["Полное дублирование"],"quality":"webdl","translation":"Полное дублирование","update":"2017-03-31 08:32:33","iframe_src":"//2413.svetacdn.in/si4jsFRrtgrT/movie/10605"},{"id":10603,"title":"Классный мюзикл","kp_id":"184432","imdb_id":"tt0475293","world_art_id":null,"type":"movie","add":"2017-03-29 16:48:12","orig_title":"High School Musical","year":"2006-01-20","translations":["Полное дублирование"],"quality":"bd","translation":"Полное дублирование","update":"2017-03-31 08:28:56","iframe_src":"//2413.svetacdn.in/si4jsFRrtgrT/movie/10603"},{"id":10601,"title":"А спорим?","kp_id":"164861","imdb_id":"tt0079765","world_art_id":null,"type":"movie","add":"2017-03-29 16:38:42","orig_title":"Qua la mano","year":"1980-03-28","translations":["Авторский (одноголосый закадровый) (Мудров Андрей)"],"quality":"dvdrip","translation":"Авторский (одноголосый закадровый) (Мудров Андрей)","update":"2017-03-31 08:26:24","iframe_src":"//2413.svetacdn.in/si4jsFRrtgrT/movie/10601"},{"id":10600,"title":"Король пердунов","kp_id":"77337","imdb_id":"tt0079406","world_art_id":null,"type":"movie","add":"2017-03-29 16:36:04","orig_title":"King Frat","year":"1980-10-03","translations":["Авторский (одноголосый закадровый) (Кашкин Александр | Первомайский)"],"quality":"dvdrip","translation":"Авторский (одноголосый закадровый) (Кашкин Александр | Первомайский)","update":"2017-03-31 08:24:37","iframe_src":"//2413.svetacdn.in/si4jsFRrtgrT/movie/10600"},{"id":10599,"title":"Назад за решетку","kp_id":"6287","imdb_id":"tt0313245","world_art_id":null,"type":"movie","add":"2017-03-29 16:31:03","orig_title":"Back by Midnight","year":"2004-09-16","translations":["Авторский (одноголосый закадровый) (Визгунов Сергей)"],"quality":"dvdrip","translation":"Авторский (одноголосый закадровый) (Визгунов Сергей)","update":"2017-03-31 08:23:25","iframe_src":"//2413.svetacdn.in/si4jsFRrtgrT/movie/10599"},{"id":10598,"title":"Голубой пирог 2: Парни идут вразнос!","kp_id":"390402","imdb_id":"tt1051981","world_art_id":null,"type":"movie","add":"2017-03-29 16:29:31","orig_title":"Another Gay Sequel: Gays Gone Wild!","year":"2008-06-28","translations":["Авторский (одноголосый закадровый) (Кузнецов Сергей)"],"quality":"bd","translation":"Авторский (одноголосый закадровый) (Кузнецов Сергей)","update":"2017-03-31 08:14:19","iframe_src":"//2413.svetacdn.in/si4jsFRrtgrT/movie/10598"},{"id":9534,"title":"Огни большой деревни","kp_id":"929650","imdb_id":"tt6237128","world_art_id":null,"type":"movie","add":"2017-02-09 06:00:38","orig_title":"Ogni bolshoy derevni","year":"2016-11-06","translations":["Оригинальная дорожка"],"quality":"webdl","translation":"Оригинальная дорожка","update":"2017-04-03 05:53:38","iframe_src":"//2413.svetacdn.in/si4jsFRrtgrT/movie/9534"}],"current_page":2538,"first_page_url":"https://videocdn.tv/api/short?limit=100&api_token=X6EwAUfE5M9xbo7y0Bp0aPf3uXxG2KLL&cache32538=32538&page=1","from":253701,"last_page":717,"last_page_url":"https://videocdn.tv/api/short?limit=100&api_token=X6EwAUfE5M9xbo7y0Bp0aPf3uXxG2KLL&cache32538=32538&page=717","next_page_url":null,"path":"https://videocdn.tv/api/short","per_page":100,"prev_page_url":"https://videocdn.tv/api/short?limit=100&api_token=X6EwAUfE5M9xbo7y0Bp0aPf3uXxG2KLL&cache32538=32538&page=2537","to":253720,"total":71614}