{"result":true,"data":[{"id":46753,"title":"Лена и белый тигр","kp_id":"1236682","imdb_id":"tt9765840","world_art_id":null,"type":"movie","add":"2021-01-06 20:41:34","orig_title":"Lena and Snowball","year":"2021-02-25","translations":["Любительский (многоголосый закадровый) (Синема УС)"],"quality":"dvdrip","translation":"Любительский (многоголосый закадровый) (Синема УС)","update":"2021-01-07 07:12:25","iframe_src":"//7043.svetacdn.in/71tsRs29n5tZ/movie/46753"},{"id":46731,"title":"Спермула","kp_id":"22582","imdb_id":"tt0075251","world_art_id":null,"type":"movie","add":"2021-01-06 06:28:44","orig_title":"Spermula","year":"1976-07-07","translations":["Любительский (одноголосый закадровый)"],"quality":"bd","translation":"Любительский (одноголосый закадровый)","update":"2021-01-07 07:17:46","iframe_src":"//7043.svetacdn.in/71tsRs29n5tZ/movie/46731"},{"id":45547,"title":"Крупный куш","kp_id":"898491","imdb_id":"tt4532280","world_art_id":null,"type":"movie","add":"2020-11-24 08:01:06","orig_title":"Fat Chance","year":"2016-10-22","translations":["Профессиональный (многоголосый закадровый)","Original (English)"],"quality":"webdl","translation":"Профессиональный (многоголосый закадровый)","update":"2021-01-07 07:29:58","iframe_src":"//7043.svetacdn.in/71tsRs29n5tZ/movie/45547"},{"id":45329,"title":"Выпускники","kp_id":"413471","imdb_id":"tt1224366","world_art_id":null,"type":"movie","add":"2020-11-16 06:42:49","orig_title":"Afterschool","year":"2008-05-18","translations":["Любительский (одноголосый закадровый)","Original (English)"],"quality":"webdl","translation":"Любительский (одноголосый закадровый)","update":"2021-01-07 07:31:27","iframe_src":"//7043.svetacdn.in/71tsRs29n5tZ/movie/45329"},{"id":45181,"title":"Человек-леопард","kp_id":"180519","imdb_id":"tt0036104","world_art_id":null,"type":"movie","add":"2020-11-11 05:31:27","orig_title":"The Leopard Man","year":"1943-05-19","translations":["Любительский (одноголосый закадровый) (liosaa)","Original (English)"],"quality":"bd","translation":"Любительский (одноголосый закадровый) (liosaa)","update":"2021-01-07 07:37:36","iframe_src":"//7043.svetacdn.in/71tsRs29n5tZ/movie/45181"},{"id":45131,"title":"Таинственные незнакомцы","kp_id":"171576","imdb_id":"tt0057623","world_art_id":null,"type":"movie","add":"2020-11-09 09:52:07","orig_title":"Unearthly Stranger","year":"1963-09-12","translations":["Любительский (одноголосый закадровый) (den904)","Original (English)"],"quality":"bd","translation":"Любительский (одноголосый закадровый) (den904)","update":"2021-01-07 07:34:45","iframe_src":"//7043.svetacdn.in/71tsRs29n5tZ/movie/45131"},{"id":45074,"title":"Продавец льда грядет","kp_id":"14138","imdb_id":"tt0070212","world_art_id":null,"type":"movie","add":"2020-11-06 14:02:19","orig_title":"The Iceman Cometh","year":"1973-10-29","translations":["Любительский (одноголосый закадровый)","Original (English)"],"quality":"bd","translation":"Любительский (одноголосый закадровый)","update":"2021-01-07 07:38:25","iframe_src":"//7043.svetacdn.in/71tsRs29n5tZ/movie/45074"},{"id":45031,"title":"Остров на Птичьей улице","kp_id":"60165","imdb_id":"tt0119389","world_art_id":null,"type":"movie","add":"2020-11-04 22:41:34","orig_title":"The Island on Bird Street","year":"1997-04-11","translations":["Авторский (одноголосый закадровый) (Кузнецов Сергей)","Original (English)"],"quality":"webdl","translation":"Авторский (одноголосый закадровый) (Кузнецов Сергей)","update":"2021-01-07 07:28:30","iframe_src":"//7043.svetacdn.in/71tsRs29n5tZ/movie/45031"},{"id":45018,"title":"Проклятие 3: Кровавое жертвоприношение","kp_id":"5631","imdb_id":"tt0101636","world_art_id":null,"type":"movie","add":"2020-11-04 10:06:26","orig_title":"Curse III: Blood Sacrifice","year":"1991-05-10","translations":["Профессиональный (двухголосый закадровый) (НТВ)","Original (English)"],"quality":"hdtv","translation":"Профессиональный (двухголосый закадровый) (НТВ)","update":"2021-01-07 07:32:17","iframe_src":"//7043.svetacdn.in/71tsRs29n5tZ/movie/45018"},{"id":38169,"title":"Белый дворец","kp_id":"21419","imdb_id":"tt0103251","world_art_id":null,"type":"movie","add":"2020-03-18 15:55:16","orig_title":"White Palace","year":"1990-10-19","translations":["Профессиональный (двухголосый закадровый)","Профессиональный (двухголосый закадровый) (Ульпаней Эльром)","Original (English)"],"quality":"dvdrip","translation":"Профессиональный (двухголосый закадровый)","update":"2021-01-07 07:33:48","iframe_src":"//7043.svetacdn.in/71tsRs29n5tZ/movie/38169"},{"id":6709,"title":"Барон Мюнхгаузен","kp_id":"723906","imdb_id":"tt2575380","world_art_id":null,"type":"serial","add":"2020-02-21 21:12:32","orig_title":"Baron Münchhausen","year":"2012-12-25","translations":["Полное дублирование (НТВ)"],"seasons_count":1,"episodes_count":2,"episodes":2,"update":"2020-02-21 21:49:16","iframe_src":"//7043.svetacdn.in/71tsRs29n5tZ/tv-series/6709"},{"id":6700,"title":"Мама Люба","kp_id":"905022","imdb_id":null,"world_art_id":null,"type":"serial","add":"2020-02-21 06:13:35","orig_title":"Mama lyuba","year":"2014-01-01","translations":["Оригинальная дорожка"],"seasons_count":1,"episodes_count":4,"episodes":4,"update":"2020-02-21 17:52:04","iframe_src":"//7043.svetacdn.in/71tsRs29n5tZ/tv-series/6700"},{"id":6699,"title":"Пираты семи морей: Черная борода","kp_id":"256136","imdb_id":"tt0472242","world_art_id":null,"type":"serial","add":"2020-02-21 06:08:48","orig_title":"Blackbeard","year":"2006-06-17","translations":["Профессиональный (многоголосый закадровый)"],"seasons_count":1,"episodes_count":2,"episodes":2,"update":"2020-02-21 17:49:46","iframe_src":"//7043.svetacdn.in/71tsRs29n5tZ/tv-series/6699"},{"id":6697,"title":"Измена","kp_id":"742597","imdb_id":"tt2751074","world_art_id":null,"type":"serial","add":"2020-02-20 21:21:02","orig_title":"Betrayal","year":"2013-09-29","translations":["Профессиональный (двухголосый закадровый) (Fox Life)"],"seasons_count":1,"episodes_count":13,"episodes":13,"update":"2020-02-21 13:05:49","iframe_src":"//7043.svetacdn.in/71tsRs29n5tZ/tv-series/6697"},{"id":6696,"title":"Спектрос","kp_id":"1256580","imdb_id":"tt10145110","world_art_id":null,"type":"serial","add":"2020-02-20 15:10:29","orig_title":"Spectros","year":"2020-02-20","translations":["Любительский (многоголосый закадровый) (Octopus)","Любительский (многоголосый закадровый) (ColdFilm)"],"seasons_count":1,"episodes_count":7,"episodes":7,"update":"2020-02-21 11:10:24","iframe_src":"//7043.svetacdn.in/71tsRs29n5tZ/tv-series/6696"},{"id":6695,"title":"Весенний вальс","kp_id":"408927","imdb_id":"tt0810507","world_art_id":null,"type":"serial","add":"2020-02-20 12:52:24","orig_title":"Bomui walcheu","year":"2006-03-06","translations":["Любительский (одноголосый закадровый)"],"seasons_count":1,"episodes_count":20,"episodes":20,"update":"2020-02-20 19:54:58","iframe_src":"//7043.svetacdn.in/71tsRs29n5tZ/tv-series/6695"},{"id":6694,"title":"Если наступит завтра","kp_id":"231037","imdb_id":"tt0090455","world_art_id":null,"type":"serial","add":"2020-02-20 12:23:33","orig_title":"If Tomorrow Comes","year":"1986-03-16","translations":["Профессиональный (многоголосый закадровый) (Кравец)"],"seasons_count":1,"episodes_count":3,"episodes":3,"update":"2020-02-20 19:19:14","iframe_src":"//7043.svetacdn.in/71tsRs29n5tZ/tv-series/6694"},{"id":6693,"title":"Большая возня","kp_id":"473869","imdb_id":"tt0178126","world_art_id":null,"type":"serial","add":"2020-02-20 12:19:37","orig_title":"Big Train","year":"1998-11-09","translations":["Профессиональный (многоголосый закадровый) (Ozz.tv)"],"seasons_count":1,"episodes_count":6,"episodes":6,"update":"2020-02-20 19:16:04","iframe_src":"//7043.svetacdn.in/71tsRs29n5tZ/tv-series/6693"},{"id":6692,"title":"Дом, который построил Свифт","kp_id":"77273","imdb_id":"tt0085452","world_art_id":null,"type":"serial","add":"2020-02-20 12:13:35","orig_title":"Dom, kotoryy postroil Svift","year":"1985-11-03","translations":["Оригинальная дорожка"],"seasons_count":1,"episodes_count":2,"episodes":2,"update":"2020-02-20 19:10:49","iframe_src":"//7043.svetacdn.in/71tsRs29n5tZ/tv-series/6692"},{"id":6691,"title":"Жить сначала","kp_id":"468347","imdb_id":null,"world_art_id":null,"type":"serial","add":"2020-02-20 09:43:56","orig_title":"Git' snachala","year":"2010-02-08","translations":["Оригинальная дорожка"],"seasons_count":1,"episodes_count":16,"episodes":16,"update":"2020-02-20 19:08:18","iframe_src":"//7043.svetacdn.in/71tsRs29n5tZ/tv-series/6691"},{"id":6668,"title":"Город невест","kp_id":"1346404","imdb_id":null,"world_art_id":null,"type":"serial","add":"2020-02-17 19:00:21","orig_title":"Город невест","year":"2020-02-17","translations":["Оригинальная дорожка"],"seasons_count":1,"episodes_count":8,"episodes":8,"update":"2020-02-21 08:00:24","iframe_src":"//7043.svetacdn.in/71tsRs29n5tZ/tv-series/6668"},{"id":6651,"title":"Мисс Марпл Агаты Кристи","kp_id":"586662","imdb_id":"tt1734537","world_art_id":null,"type":"serial","add":"2020-02-16 16:12:14","orig_title":"Agatha Christie's Marple","year":"2004-12-12","translations":["Профессиональный (многоголосый закадровый) (Лексикон)","Профессиональный (многоголосый закадровый) (ТВЦ)"],"seasons_count":6,"episodes_count":23,"episodes":3,"update":"2020-02-20 20:05:08","iframe_src":"//7043.svetacdn.in/71tsRs29n5tZ/tv-series/6651"},{"id":6538,"title":"Олли: Веселый грузовичок","kp_id":"707937","imdb_id":"tt7610672","world_art_id":null,"type":"serial","add":"2020-02-03 06:29:59","orig_title":"Olly The Little White Van","year":"2011-02-11","translations":["Полное дублирование"],"seasons_count":1,"episodes_count":65,"episodes":65,"update":"2020-02-21 08:41:10","iframe_src":"//7043.svetacdn.in/71tsRs29n5tZ/tv-series/6538"},{"id":6421,"title":"Певица","kp_id":"1006567","imdb_id":"tt9521236","world_art_id":null,"type":"serial","add":"2020-01-20 19:44:11","orig_title":"Pevitsa","year":"2016-08-22","translations":["Оригинальная дорожка"],"seasons_count":1,"episodes_count":95,"episodes":95,"update":"2020-02-21 12:12:56","iframe_src":"//7043.svetacdn.in/71tsRs29n5tZ/tv-series/6421"},{"id":5109,"title":"Записки юного врача","kp_id":"687812","imdb_id":"tt2164430","world_art_id":null,"type":"serial","add":"2019-08-28 09:53:29","orig_title":"A Young Doctor's Notebook & Other Stories","year":"2012-12-06","translations":["Профессиональный (многоголосый закадровый) (NewStudio)","Профессиональный (многоголосый закадровый) (LostFilm)","Полное дублирование (РенТВ)"],"seasons_count":2,"episodes_count":8,"episodes":4,"update":"2020-02-21 14:15:43","iframe_src":"//7043.svetacdn.in/71tsRs29n5tZ/tv-series/5109"},{"id":4434,"title":"Воссоединение","kp_id":"1227836","imdb_id":"tt9520396","world_art_id":null,"type":"serial","add":"2019-05-02 03:33:17","orig_title":"Vuslat","year":"2019-01-07","translations":["Авторский (одноголосый закадровый) (Котова Ирина)","Любительский (одноголосый закадровый)"],"seasons_count":2,"episodes_count":41,"episodes":21,"update":"2020-02-20 19:09:24","iframe_src":"//7043.svetacdn.in/71tsRs29n5tZ/tv-series/4434"},{"id":25548,"title":"От тюрьмы и от сумы","kp_id":"460148","imdb_id":null,"world_art_id":null,"type":"movie","add":"2019-04-28 14:28:01","orig_title":"От тюрьмы и от сумы","year":"2008-01-01","translations":["Оригинальная дорожка","Оригинальная дорожка"],"quality":"dvdrip","translation":"Оригинальная дорожка","update":"2021-01-07 07:10:35","iframe_src":"//7043.svetacdn.in/71tsRs29n5tZ/movie/25548"},{"id":23913,"title":"Мы странно встретились","kp_id":"441421","imdb_id":null,"world_art_id":null,"type":"movie","add":"2019-04-04 21:57:34","orig_title":"Мы странно встретились","year":"2008-03-16","translations":["Оригинальная дорожка","Оригинальная дорожка"],"quality":"dvdrip","translation":"Оригинальная дорожка","update":"2021-01-07 07:11:24","iframe_src":"//7043.svetacdn.in/71tsRs29n5tZ/movie/23913"},{"id":3601,"title":"Никто, кроме нас","kp_id":"1209724","imdb_id":null,"world_art_id":null,"type":"serial","add":"2018-12-02 10:54:05","orig_title":"Никто, кроме нас","year":"2018-12-01","translations":["Оригинальная дорожка"],"seasons_count":1,"episodes_count":2,"episodes":2,"update":"2020-02-21 07:43:59","iframe_src":"//7043.svetacdn.in/71tsRs29n5tZ/tv-series/3601"},{"id":3551,"title":"Ультрафиолет","kp_id":"1226454","imdb_id":"tt7514746","world_art_id":null,"type":"serial","add":"2018-11-21 08:08:48","orig_title":"Ultraviolet","year":"2017-10-25","translations":["Любительский (двухголосый закадровый) (GoldTeam)","Любительский (многоголосый закадровый) (WestFilm)"],"seasons_count":2,"episodes_count":22,"episodes":12,"update":"2020-02-20 21:38:28","iframe_src":"//7043.svetacdn.in/71tsRs29n5tZ/tv-series/3551"},{"id":3434,"title":"Расскажи мне сказку","kp_id":"1177920","imdb_id":"tt7695916","world_art_id":null,"type":"serial","add":"2018-11-02 07:08:21","orig_title":"Tell Me a Story","year":"2018-10-31","translations":["Профессиональный (многоголосый закадровый) (LostFilm)","Профессиональный (многоголосый закадровый) (HDrezka Studio)","Профессиональный (многоголосый закадровый) (TVShows)","Профессиональный (многоголосый закадровый) (BaibaKo)","Профессиональный (многоголосый закадровый) (Jaskier)","Профессиональный (двухголосый закадровый) (LostFilm)","Профессиональный (многоголосый закадровый) (NewStudio)","Любительский (многоголосый закадровый) (Octopus)"],"seasons_count":2,"episodes_count":20,"episodes":10,"update":"2020-02-21 07:07:54","iframe_src":"//7043.svetacdn.in/71tsRs29n5tZ/tv-series/3434"},{"id":19166,"title":"У зеркала два лица","kp_id":"5152","imdb_id":"tt0117057","world_art_id":null,"type":"movie","add":"2018-09-24 11:40:36","orig_title":"The Mirror Has Two Faces","year":"1996-11-01","translations":["Полное дублирование","Профессиональный (многоголосый закадровый) (НТВ)","Полное дублирование","Профессиональный (многоголосый закадровый) (Видеосервис)","Original (English)"],"quality":"webdl","translation":"Полное дублирование","update":"2021-01-07 07:35:34","iframe_src":"//7043.svetacdn.in/71tsRs29n5tZ/movie/19166"},{"id":15228,"title":"Как быть мужиком","kp_id":"810897","imdb_id":"tt2479384","world_art_id":null,"type":"movie","add":"2018-02-19 08:13:53","orig_title":"How to Be a Man","year":"2013-08-10","translations":["Любительский (многоголосый закадровый)","Любительский (многоголосый закадровый)"],"quality":"webdl","translation":"Любительский (многоголосый закадровый)","update":"2021-01-07 07:14:04","iframe_src":"//7043.svetacdn.in/71tsRs29n5tZ/movie/15228"},{"id":1358,"title":"666 Парк Авеню","kp_id":"663171","imdb_id":"tt2197797","world_art_id":null,"type":"serial","add":"2017-07-05 05:43:09","orig_title":"666 Park Avenue","year":"2012-09-30","translations":["Профессиональный (многоголосый закадровый) (NewStudio)","Профессиональный (многоголосый закадровый) (LostFilm)"],"seasons_count":1,"episodes_count":13,"episodes":13,"update":"2020-02-20 19:59:34","iframe_src":"//7043.svetacdn.in/71tsRs29n5tZ/tv-series/1358"},{"id":12101,"title":"Маша и море","kp_id":"423026","imdb_id":"tt3639094","world_art_id":null,"type":"movie","add":"2017-06-22 22:48:48","orig_title":"Masha i more","year":"2008-12-04","translations":["Оригинальная дорожка","Оригинальная дорожка"],"quality":"dvdrip","translation":"Оригинальная дорожка","update":"2021-01-07 07:12:27","iframe_src":"//7043.svetacdn.in/71tsRs29n5tZ/movie/12101"},{"id":7109,"title":"Силач Санта-Клаус","kp_id":"8184","imdb_id":"tt0117550","world_art_id":null,"type":"movie","add":"2016-11-06 15:42:39","orig_title":"Santa with Muscles","year":"1996-11-08","translations":["Профессиональный (двухголосый закадровый)","Авторский (одноголосый закадровый) (Сербин Юрий)","Профессиональный (многоголосый закадровый)","Профессиональный (многоголосый закадровый) (ТВЦ)","Original (English)"],"quality":"hdtv","translation":"Профессиональный (двухголосый закадровый)","update":"2021-01-07 07:40:38","iframe_src":"//7043.svetacdn.in/71tsRs29n5tZ/movie/7109"},{"id":6534,"title":"Обезумевший мир","kp_id":"29910","imdb_id":"tt0096465","world_art_id":null,"type":"movie","add":"2016-10-20 15:18:37","orig_title":"World Gone Wild","year":"1988-04-22","translations":["Профессиональный (двухголосый закадровый)","Профессиональный (двухголосый закадровый)","Original (English)"],"quality":"hdtv","translation":"Профессиональный (двухголосый закадровый)","update":"2021-01-07 07:32:59","iframe_src":"//7043.svetacdn.in/71tsRs29n5tZ/movie/6534"},{"id":4494,"title":"Продавец","kp_id":"395739","imdb_id":"tt1092633","world_art_id":null,"type":"movie","add":"2016-08-17 09:03:46","orig_title":"The Goods: Live Hard, Sell Hard","year":"2009-08-14","translations":["Профессиональный (двухголосый закадровый)","Авторский (одноголосый закадровый) (Гоблин | Пучков Дмитрий)","Original (English)"],"quality":"webdl","translation":"Профессиональный (двухголосый закадровый)","update":"2021-01-07 07:29:03","iframe_src":"//7043.svetacdn.in/71tsRs29n5tZ/movie/4494"},{"id":279,"title":"Невозможное","kp_id":"518037","imdb_id":"tt1649419","world_art_id":null,"type":"movie","add":"2016-03-16 11:14:58","orig_title":"Lo imposible","year":"2012-09-09","translations":["Полное дублирование","Профессиональный (двухголосый закадровый) (Омикрон)","Original (English)"],"quality":"bd","translation":"Полное дублирование","update":"2021-01-07 07:41:54","iframe_src":"//7043.svetacdn.in/71tsRs29n5tZ/movie/279"},{"id":192,"title":"Голос улиц","kp_id":"462867","imdb_id":"tt1398426","world_art_id":null,"type":"movie","add":"2016-03-06 22:53:05","orig_title":"Straight Outta Compton","year":"2015-08-11","translations":["Полное дублирование (iTunes)","Авторский (одноголосый закадровый) (Котов Вячеслав)","Original (English)"],"quality":"bd","translation":"Полное дублирование (iTunes)","update":"2021-01-07 07:39:17","iframe_src":"//7043.svetacdn.in/71tsRs29n5tZ/movie/192"}],"current_page":248,"first_page_url":"https://videocdn.tv/api/short?limit=100&api_token=EnbO9h8pv1VyjbCJhg0WM9nG259n7mtz&cache3248=3248&page=1","from":24701,"last_page":616,"last_page_url":"https://videocdn.tv/api/short?limit=100&api_token=EnbO9h8pv1VyjbCJhg0WM9nG259n7mtz&cache3248=3248&page=616","next_page_url":"https://videocdn.tv/api/short?limit=100&api_token=EnbO9h8pv1VyjbCJhg0WM9nG259n7mtz&cache3248=3248&page=249","path":"https://videocdn.tv/api/short","per_page":100,"prev_page_url":"https://videocdn.tv/api/short?limit=100&api_token=EnbO9h8pv1VyjbCJhg0WM9nG259n7mtz&cache3248=3248&page=247","to":24740,"total":61562}