{"result":true,"data":[{"id":15900,"title":"Добро пожаловать, или Посторонним вход воспрещен","kp_id":"44238","imdb_id":"tt0058022","world_art_id":null,"type":"movie","add":"2018-03-29 20:51:12","orig_title":"Dobro pozhalovat, ili Postoronnim vkhod vospreshchen","year":"1964-10-09","translations":["Оригинальная дорожка"],"quality":"bd","translation":"Оригинальная дорожка","update":"2018-03-30 05:37:25","iframe_src":"//83.svetacdn.in/PfJ50H0ZBPg3/movie/15900"},{"id":15899,"title":"Коммунист","kp_id":"1036262","imdb_id":"tt6168002","world_art_id":null,"type":"movie","add":"2018-03-29 20:46:42","orig_title":"Sakhavu","year":"2017-04-15","translations":["Любительский (многоголосый закадровый) (Синема УС)"],"quality":"webdl","translation":"Любительский (многоголосый закадровый) (Синема УС)","update":"2018-03-30 04:57:27","iframe_src":"//83.svetacdn.in/PfJ50H0ZBPg3/movie/15899"},{"id":15897,"title":"Путешествие на дно моря","kp_id":"12965","imdb_id":"tt0055608","world_art_id":null,"type":"movie","add":"2018-03-29 20:38:02","orig_title":"Voyage to the Bottom of the Sea","year":"1961-07-12","translations":["Профессиональный (многоголосый закадровый)"],"quality":"bd","translation":"Профессиональный (многоголосый закадровый)","update":"2018-03-30 05:00:32","iframe_src":"//83.svetacdn.in/PfJ50H0ZBPg3/movie/15897"},{"id":15883,"title":"Нищий","kp_id":"972153","imdb_id":"tt5523174","world_art_id":null,"type":"movie","add":"2018-03-28 22:49:51","orig_title":"Pichaikkaran","year":"2016-03-04","translations":["Любительский (многоголосый закадровый) (Колобок)"],"quality":"webdl","translation":"Любительский (многоголосый закадровый) (Колобок)","update":"2018-03-29 11:31:41","iframe_src":"//83.svetacdn.in/PfJ50H0ZBPg3/movie/15883"},{"id":15881,"title":"Кекконен","kp_id":"675448","imdb_id":"tt2330933","world_art_id":null,"type":"movie","add":"2018-03-28 22:43:10","orig_title":"Kekkonen tulee!","year":"2013-08-06","translations":["Любительский (многоголосый закадровый) (GreenРай Studio)"],"quality":"bd","translation":"Любительский (многоголосый закадровый) (GreenРай Studio)","update":"2018-03-29 11:35:49","iframe_src":"//83.svetacdn.in/PfJ50H0ZBPg3/movie/15881"},{"id":15880,"title":"Антихрист 2","kp_id":"1044539","imdb_id":"tt6793180","world_art_id":null,"type":"movie","add":"2018-03-28 22:38:59","orig_title":"Deccal 2","year":"2017-06-16","translations":["Любительский (многоголосый закадровый) (Синема УС)"],"quality":"hdtv","translation":"Любительский (многоголосый закадровый) (Синема УС)","update":"2018-03-29 11:39:24","iframe_src":"//83.svetacdn.in/PfJ50H0ZBPg3/movie/15880"},{"id":15879,"title":"Кровь юности","kp_id":"1056888","imdb_id":"tt6419442","world_art_id":null,"type":"movie","add":"2018-03-28 22:35:50","orig_title":"Shao Nian","year":"2016-12-16","translations":["Любительский (многоголосый закадровый) (Колобок)"],"quality":"webdl","translation":"Любительский (многоголосый закадровый) (Колобок)","update":"2018-03-29 11:42:32","iframe_src":"//83.svetacdn.in/PfJ50H0ZBPg3/movie/15879"},{"id":15878,"title":"Птицы поют в Кигали","kp_id":"1046802","imdb_id":"tt7106928","world_art_id":null,"type":"movie","add":"2018-03-28 22:32:22","orig_title":"Ptaki spiewaja w Kigali","year":"2017-07-04","translations":["Любительский (многоголосый закадровый) (Синема УС)"],"quality":"bd","translation":"Любительский (многоголосый закадровый) (Синема УС)","update":"2018-03-29 11:44:07","iframe_src":"//83.svetacdn.in/PfJ50H0ZBPg3/movie/15878"},{"id":15877,"title":"Над уровнем земли","kp_id":null,"imdb_id":"tt6068746","world_art_id":null,"type":"movie","add":"2018-03-28 22:29:50","orig_title":"Above Ground Level: Dubfire","year":"2017-11-21","translations":["Любительский (многоголосый закадровый) (Синема УС)"],"quality":"webdl","translation":"Любительский (многоголосый закадровый) (Синема УС)","update":"2018-03-29 04:42:13","iframe_src":"//83.svetacdn.in/PfJ50H0ZBPg3/movie/15877"},{"id":15873,"title":"Прямо сейчас","kp_id":"900604","imdb_id":"tt4494706","world_art_id":null,"type":"movie","add":"2018-03-27 21:33:04","orig_title":"Tout de suite maintenant","year":"2016-06-08","translations":["Профессиональный (многоголосый закадровый) (GreenРай Studio)","Любительский (многоголосый закадровый) (Колобок)"],"quality":"dvdrip","translation":"Профессиональный (многоголосый закадровый) (GreenРай Studio)","update":"2018-03-29 04:40:20","iframe_src":"//83.svetacdn.in/PfJ50H0ZBPg3/movie/15873"},{"id":15785,"title":"Трое","kp_id":"890934","imdb_id":"tt4379728","world_art_id":null,"type":"movie","add":"2018-03-22 23:02:02","orig_title":"Saam yan hang","year":"2016-06-16","translations":["Любительский (многоголосый закадровый) (Колобок)","Любительский (многоголосый закадровый) (Синема УС)"],"quality":"bd","translation":"Любительский (многоголосый закадровый) (Колобок)","update":"2018-03-29 04:53:23","iframe_src":"//83.svetacdn.in/PfJ50H0ZBPg3/movie/15785"},{"id":15777,"title":"Я местный","kp_id":"1039995","imdb_id":"tt6494052","world_art_id":null,"type":"movie","add":"2018-03-22 22:30:13","orig_title":"Nenu Local","year":"2017-02-02","translations":["Любительский (многоголосый закадровый) (Синема УС)","Любительский (многоголосый закадровый) (Колобок)"],"quality":"webdl","translation":"Любительский (многоголосый закадровый) (Синема УС)","update":"2018-03-29 04:46:35","iframe_src":"//83.svetacdn.in/PfJ50H0ZBPg3/movie/15777"},{"id":15187,"title":"Лёд","kp_id":"900052","imdb_id":"tt5844488","world_art_id":null,"type":"movie","add":"2018-02-15 22:51:21","orig_title":"Lyod","year":"2018-02-16","translations":["Оригинальная дорожка"],"quality":"webdl","translation":"Оригинальная дорожка","update":"2018-03-28 10:11:03","iframe_src":"//83.svetacdn.in/PfJ50H0ZBPg3/movie/15187"},{"id":14831,"title":"Слава","kp_id":"999055","imdb_id":"tt5937296","world_art_id":null,"type":"movie","add":"2018-01-08 20:22:17","orig_title":"Slava","year":"2016-08-04","translations":["Любительский (многоголосый закадровый) (Синема УС)","Любительский (многоголосый закадровый) (GreenРай Studio)"],"quality":"dvdrip","translation":"Любительский (многоголосый закадровый) (Синема УС)","update":"2018-03-29 11:26:42","iframe_src":"//83.svetacdn.in/PfJ50H0ZBPg3/movie/14831"},{"id":14683,"title":"Поттерсвилль","kp_id":"957615","imdb_id":"tt3672120","world_art_id":null,"type":"movie","add":"2017-12-17 22:57:34","orig_title":"Pottersville","year":"2017-11-10","translations":["Любительский (многоголосый закадровый) (Синема УС)","Профессиональный (многоголосый закадровый) (Jaskier)"],"quality":"webdl","translation":"Любительский (многоголосый закадровый) (Синема УС)","update":"2018-03-28 05:30:58","iframe_src":"//83.svetacdn.in/PfJ50H0ZBPg3/movie/14683"},{"id":13437,"title":"Чёртов мобильник","kp_id":"263078","imdb_id":"tt0775480","world_art_id":null,"type":"movie","add":"2017-09-12 08:29:16","orig_title":"Hellphone","year":"2007-03-28","translations":["Полное дублирование"],"quality":"hdtv","translation":"Полное дублирование","update":"2018-03-29 10:55:28","iframe_src":"//83.svetacdn.in/PfJ50H0ZBPg3/movie/13437"},{"id":7965,"title":"Чёртов Берлин","kp_id":"867760","imdb_id":"tt4024814","world_art_id":null,"type":"movie","add":"2016-12-09 17:10:30","orig_title":"Fucking Berlin","year":"2016-10-11","translations":["Любительский (одноголосый закадровый)","Профессиональный (многоголосый закадровый) (GreenРай Studio)"],"quality":"bd","translation":"Любительский (одноголосый закадровый)","update":"2018-03-30 05:28:29","iframe_src":"//83.svetacdn.in/PfJ50H0ZBPg3/movie/7965"},{"id":7566,"title":"28 панфиловцев","kp_id":"764465","imdb_id":"tt5207204","world_art_id":null,"type":"movie","add":"2016-11-21 18:47:23","orig_title":"Dvadtsat vosem panfilovtsev","year":"2016-11-24","translations":["Оригинальная дорожка"],"quality":"bd","translation":"Оригинальная дорожка","update":"2018-03-30 05:05:05","iframe_src":"//83.svetacdn.in/PfJ50H0ZBPg3/movie/7566"},{"id":5997,"title":"Коллектор","kp_id":"932512","imdb_id":"tt5031998","world_art_id":null,"type":"movie","add":"2016-10-09 11:01:17","orig_title":"Kollektor","year":"2016-07-02","translations":["Полное дублирование (iTunes)","Оригинальная дорожка"],"quality":"webdl","translation":"Полное дублирование (iTunes)","update":"2018-03-30 05:03:24","iframe_src":"//83.svetacdn.in/PfJ50H0ZBPg3/movie/5997"},{"id":3443,"title":"Нелл","kp_id":"7598","imdb_id":"tt0110638","world_art_id":null,"type":"movie","add":"2016-06-28 15:12:45","orig_title":"Nell","year":"1994-12-14","translations":["Профессиональный (многоголосый закадровый)"],"quality":"webdl","translation":"Профессиональный (многоголосый закадровый)","update":"2018-03-29 05:01:30","iframe_src":"//83.svetacdn.in/PfJ50H0ZBPg3/movie/3443"}],"current_page":2352,"first_page_url":"https://videocdn.tv/api/short?limit=100&api_token=RgFQdUIR2dRmwv8iYa5SnFNgnw3vpjKj&cache32352=32352&page=1","from":235101,"last_page":720,"last_page_url":"https://videocdn.tv/api/short?limit=100&api_token=RgFQdUIR2dRmwv8iYa5SnFNgnw3vpjKj&cache32352=32352&page=720","next_page_url":null,"path":"https://videocdn.tv/api/short","per_page":100,"prev_page_url":"https://videocdn.tv/api/short?limit=100&api_token=RgFQdUIR2dRmwv8iYa5SnFNgnw3vpjKj&cache32352=32352&page=2351","to":235120,"total":71934}