{"result":true,"data":[{"id":19349,"title":"В ад и обратно. История Кейна Ходдера","kp_id":null,"imdb_id":"tt5654710","world_art_id":null,"type":"movie","add":"2018-10-04 00:36:00","orig_title":"To Hell and Back: The Kane Hodder Story","year":"2017-08-26","translations":["Любительский (многоголосый закадровый) (Синема УС)"],"quality":"bd","translation":"Любительский (многоголосый закадровый) (Синема УС)","update":"2018-10-04 06:21:54","iframe_src":"//83.svetacdn.in/PfJ50H0ZBPg3/movie/19349"},{"id":19348,"title":"Великий Будда +","kp_id":"1047952","imdb_id":"tt7010412","world_art_id":null,"type":"movie","add":"2018-10-04 00:33:26","orig_title":"The Great Buddha +","year":"2017-06-29","translations":["Любительский (многоголосый закадровый) (Синема УС)"],"quality":"bd","translation":"Любительский (многоголосый закадровый) (Синема УС)","update":"2018-10-04 06:23:05","iframe_src":"//83.svetacdn.in/PfJ50H0ZBPg3/movie/19348"},{"id":19347,"title":"Теннессийский виски: история Дина Диллона","kp_id":null,"imdb_id":"tt6582782","world_art_id":null,"type":"movie","add":"2018-10-04 00:32:00","orig_title":"Tennessee Whiskey: The Dean Dillon Story","year":"2017-08-30","translations":["Любительский (многоголосый закадровый) (Синема УС)"],"quality":"webdl","translation":"Любительский (многоголосый закадровый) (Синема УС)","update":"2018-10-04 06:25:42","iframe_src":"//83.svetacdn.in/PfJ50H0ZBPg3/movie/19347"},{"id":19321,"title":"Кейн Хилл","kp_id":"992596","imdb_id":"tt5891704","world_art_id":null,"type":"movie","add":"2018-10-02 22:52:06","orig_title":"Cain Hill","year":"2017-04-21","translations":["Любительский (многоголосый закадровый) (Синема УС)"],"quality":"webdl","translation":"Любительский (многоголосый закадровый) (Синема УС)","update":"2018-10-03 06:55:47","iframe_src":"//83.svetacdn.in/PfJ50H0ZBPg3/movie/19321"},{"id":19320,"title":"В тени Кольта","kp_id":"152151","imdb_id":"tt0060091","world_art_id":null,"type":"movie","add":"2018-10-02 22:50:39","orig_title":"All'ombra di una colt","year":"1965-12-10","translations":["Авторский (одноголосый закадровый) (Кузнецов Сергей)"],"quality":"dvdrip","translation":"Авторский (одноголосый закадровый) (Кузнецов Сергей)","update":"2018-10-03 06:57:00","iframe_src":"//83.svetacdn.in/PfJ50H0ZBPg3/movie/19320"},{"id":19252,"title":"Ночные небеса","kp_id":"189707","imdb_id":"tt0460883","world_art_id":null,"type":"movie","add":"2018-09-28 11:30:55","orig_title":"Night Skies","year":"2007-01-23","translations":["Профессиональный (двухголосый закадровый)"],"quality":"webdl","translation":"Профессиональный (двухголосый закадровый)","update":"2018-10-03 14:27:18","iframe_src":"//83.svetacdn.in/PfJ50H0ZBPg3/movie/19252"},{"id":19251,"title":"Подделка","kp_id":"18192","imdb_id":"tt0113037","world_art_id":null,"type":"movie","add":"2018-09-28 11:30:05","orig_title":"Kounterfeit","year":"1996-11-15","translations":["Профессиональный (двухголосый закадровый)"],"quality":"webdl","translation":"Профессиональный (двухголосый закадровый)","update":"2018-10-03 14:26:11","iframe_src":"//83.svetacdn.in/PfJ50H0ZBPg3/movie/19251"},{"id":19250,"title":"Сновидения","kp_id":"6290","imdb_id":"tt0120710","world_art_id":null,"type":"movie","add":"2018-09-28 11:28:32","orig_title":"In Dreams","year":"1999-01-06","translations":["Профессиональный (двухголосый закадровый)"],"quality":"webdl","translation":"Профессиональный (двухголосый закадровый)","update":"2018-10-03 14:24:52","iframe_src":"//83.svetacdn.in/PfJ50H0ZBPg3/movie/19250"},{"id":19200,"title":"Тени незабытых предков","kp_id":"679549","imdb_id":"tt2245906","world_art_id":null,"type":"movie","add":"2018-09-26 14:58:57","orig_title":"Tini nezabutykh predkiv. Tayemnytsi molfara","year":"2013-11-14","translations":["Полное дублирование"],"quality":"webdl","translation":"Полное дублирование","update":"2018-10-03 14:23:52","iframe_src":"//83.svetacdn.in/PfJ50H0ZBPg3/movie/19200"},{"id":19199,"title":"Обезьянья лапа","kp_id":"721952","imdb_id":"tt2513092","world_art_id":null,"type":"movie","add":"2018-09-26 14:57:32","orig_title":"The Monkey's Paw","year":"2013-10-08","translations":["Любительский (двухголосый закадровый) (DeadSno & den904)"],"quality":"webdl","translation":"Любительский (двухголосый закадровый) (DeadSno & den904)","update":"2018-10-03 14:23:02","iframe_src":"//83.svetacdn.in/PfJ50H0ZBPg3/movie/19199"},{"id":19198,"title":"Орден 3D","kp_id":"644060","imdb_id":"tt2088923","world_art_id":null,"type":"movie","add":"2018-09-26 14:56:09","orig_title":"The Cloth","year":"2013-07-02","translations":["Любительский (двухголосый закадровый)"],"quality":"webdl","translation":"Любительский (двухголосый закадровый)","update":"2018-10-03 07:26:30","iframe_src":"//83.svetacdn.in/PfJ50H0ZBPg3/movie/19198"},{"id":19197,"title":"Дрожь","kp_id":"577430","imdb_id":"tt1800734","world_art_id":null,"type":"movie","add":"2018-09-26 14:54:41","orig_title":"Shiver","year":"2012-04-21","translations":["Любительский (двухголосый закадровый) (DeadSno & den904)"],"quality":"webdl","translation":"Любительский (двухголосый закадровый) (DeadSno & den904)","update":"2018-10-03 07:25:07","iframe_src":"//83.svetacdn.in/PfJ50H0ZBPg3/movie/19197"},{"id":19196,"title":"След от когтей","kp_id":"1108702","imdb_id":"tt2369275","world_art_id":null,"type":"movie","add":"2018-09-26 14:53:44","orig_title":"Scrape","year":"2013-03-05","translations":["Любительский (двухголосый закадровый) (DeadSno & den904)"],"quality":"webdl","translation":"Любительский (двухголосый закадровый) (DeadSno & den904)","update":"2018-10-03 07:23:06","iframe_src":"//83.svetacdn.in/PfJ50H0ZBPg3/movie/19196"},{"id":19195,"title":"Поцеловать бездну","kp_id":"661109","imdb_id":"tt1430620","world_art_id":null,"type":"movie","add":"2018-09-26 14:52:30","orig_title":"Kiss the Abyss","year":"2012-01-05","translations":["Любительский (двухголосый закадровый) (DeadSno & den904)"],"quality":"webdl","translation":"Любительский (двухголосый закадровый) (DeadSno & den904)","update":"2018-10-03 07:09:52","iframe_src":"//83.svetacdn.in/PfJ50H0ZBPg3/movie/19195"},{"id":19194,"title":"Праздник для убийцы","kp_id":"596383","imdb_id":"tt1982735","world_art_id":null,"type":"movie","add":"2018-09-26 14:51:37","orig_title":"Killer Holiday","year":"2013-11-05","translations":["Любительский (двухголосый закадровый) (DeadSno & den904)"],"quality":"webdl","translation":"Любительский (двухголосый закадровый) (DeadSno & den904)","update":"2018-10-03 07:08:48","iframe_src":"//83.svetacdn.in/PfJ50H0ZBPg3/movie/19194"},{"id":19193,"title":"Гипотермия","kp_id":"430545","imdb_id":"tt1313244","world_art_id":null,"type":"movie","add":"2018-09-26 14:50:30","orig_title":"Hypothermia","year":"2012-10-02","translations":["Любительский (двухголосый закадровый) (DeadSno & den904)"],"quality":"webdl","translation":"Любительский (двухголосый закадровый) (DeadSno & den904)","update":"2018-10-03 07:06:59","iframe_src":"//83.svetacdn.in/PfJ50H0ZBPg3/movie/19193"},{"id":19192,"title":"Не двигайся","kp_id":"760340","imdb_id":"tt2846600","world_art_id":null,"type":"movie","add":"2018-09-26 14:49:37","orig_title":"Don't Move","year":"2013-03-23","translations":["Любительский (двухголосый закадровый) (Shadow Dub Project)"],"quality":"webdl","translation":"Любительский (двухголосый закадровый) (Shadow Dub Project)","update":"2018-10-03 07:05:42","iframe_src":"//83.svetacdn.in/PfJ50H0ZBPg3/movie/19192"},{"id":19191,"title":"Черные воды Эха","kp_id":"385582","imdb_id":"tt0960066","world_art_id":null,"type":"movie","add":"2018-09-26 14:48:03","orig_title":"The Black Waters of Echo's Pond","year":"2009-10-11","translations":["Любительский (двухголосый закадровый) (DeadSno & den904)"],"quality":"bd","translation":"Любительский (двухголосый закадровый) (DeadSno & den904)","update":"2018-10-03 07:03:27","iframe_src":"//83.svetacdn.in/PfJ50H0ZBPg3/movie/19191"},{"id":19189,"title":"Жабья тропа","kp_id":"632180","imdb_id":"tt2076372","world_art_id":null,"type":"movie","add":"2018-09-26 14:45:20","orig_title":"Toad Road","year":"2012-07-26","translations":["Любительский (одноголосый закадровый) (PashaUp | Морозов Павел)"],"quality":"webdl","translation":"Любительский (одноголосый закадровый) (PashaUp | Морозов Павел)","update":"2018-10-03 07:00:28","iframe_src":"//83.svetacdn.in/PfJ50H0ZBPg3/movie/19189"},{"id":19188,"title":"Игра для убийц","kp_id":"391134","imdb_id":"tt1067773","world_art_id":null,"type":"movie","add":"2018-09-26 14:44:00","orig_title":"The Gauntlet","year":"2013-10-10","translations":["Любительский (одноголосый закадровый) (PashaUp | Морозов Павел)"],"quality":"webdl","translation":"Любительский (одноголосый закадровый) (PashaUp | Морозов Павел)","update":"2018-10-03 06:59:17","iframe_src":"//83.svetacdn.in/PfJ50H0ZBPg3/movie/19188"}],"current_page":1649,"first_page_url":"https://videocdn.tv/api/short?limit=100&api_token=RgFQdUIR2dRmwv8iYa5SnFNgnw3vpjKj&cache31649=31649&page=1","from":164801,"last_page":605,"last_page_url":"https://videocdn.tv/api/short?limit=100&api_token=RgFQdUIR2dRmwv8iYa5SnFNgnw3vpjKj&cache31649=31649&page=605","next_page_url":null,"path":"https://videocdn.tv/api/short","per_page":100,"prev_page_url":"https://videocdn.tv/api/short?limit=100&api_token=RgFQdUIR2dRmwv8iYa5SnFNgnw3vpjKj&cache31649=31649&page=1648","to":164820,"total":60483}