{"result":true,"data":[{"id":41094,"title":"Чарльстон","kp_id":"1070125","imdb_id":"tt7128066","world_art_id":null,"type":"movie","add":"2020-06-10 06:52:44","orig_title":"Charleston","year":"2017-08-07","translations":["Любительский (многоголосый закадровый) (Синема УС)"],"quality":"hdtv","translation":"Любительский (многоголосый закадровый) (Синема УС)","update":"2020-06-10 11:23:49","iframe_src":"//24213.svetacdn.in/si4jsFRrtgrT/movie/41094"},{"id":41093,"title":"Чартер","kp_id":"1245637","imdb_id":"tt9850050","world_art_id":null,"type":"movie","add":"2020-06-10 06:49:40","orig_title":"Charter","year":"2020-01-26","translations":["Любительский (многоголосый закадровый) (AlphaProject)"],"quality":"webdl","translation":"Любительский (многоголосый закадровый) (AlphaProject)","update":"2020-06-10 15:35:38","iframe_src":"//24213.svetacdn.in/si4jsFRrtgrT/movie/41093"},{"id":41091,"title":"Лживые страсти","kp_id":"1218334","imdb_id":"tt9280666","world_art_id":null,"type":"movie","add":"2020-06-10 06:44:37","orig_title":"Deceitful Passions","year":"2019-06-08","translations":["Любительский (многоголосый закадровый) (Синема УС)"],"quality":"webdl","translation":"Любительский (многоголосый закадровый) (Синема УС)","update":"2020-06-10 11:22:47","iframe_src":"//24213.svetacdn.in/si4jsFRrtgrT/movie/41091"},{"id":41089,"title":"Я тут ненадолго","kp_id":"1164195","imdb_id":"tt8526038","world_art_id":null,"type":"movie","add":"2020-06-10 06:36:04","orig_title":"Here Awhile","year":"2019-10-19","translations":["Любительский (многоголосый закадровый) (Синема УС)"],"quality":"webdl","translation":"Любительский (многоголосый закадровый) (Синема УС)","update":"2020-06-10 15:38:32","iframe_src":"//24213.svetacdn.in/si4jsFRrtgrT/movie/41089"},{"id":41086,"title":"Тёрнер Риск","kp_id":"739145","imdb_id":"tt2717682","world_art_id":null,"type":"movie","add":"2020-06-10 06:26:09","orig_title":"Turner Risk","year":"2019-10-23","translations":["Любительский (многоголосый закадровый) (Синема УС)"],"quality":"webdl","translation":"Любительский (многоголосый закадровый) (Синема УС)","update":"2020-06-10 15:37:09","iframe_src":"//24213.svetacdn.in/si4jsFRrtgrT/movie/41086"},{"id":41052,"title":"Тхакур","kp_id":"1024297","imdb_id":"tt6522398","world_art_id":null,"type":"movie","add":"2020-06-08 21:01:12","orig_title":"Katamarayudu","year":"2017-03-23","translations":["Любительский (одноголосый закадровый)"],"quality":"webdl","translation":"Любительский (одноголосый закадровый)","update":"2020-06-10 13:51:24","iframe_src":"//24213.svetacdn.in/si4jsFRrtgrT/movie/41052"},{"id":41050,"title":"Эротическая история призраков 3","kp_id":"178025","imdb_id":"tt0104719","world_art_id":null,"type":"movie","add":"2020-06-08 20:52:27","orig_title":"Liu chai III: Dang cho wo seung","year":"1992-03-05","translations":["Любительский (одноголосый закадровый) (Береговых Виктор | Jet)"],"quality":"bd","translation":"Любительский (одноголосый закадровый) (Береговых Виктор | Jet)","update":"2020-06-10 13:49:58","iframe_src":"//24213.svetacdn.in/si4jsFRrtgrT/movie/41050"},{"id":41049,"title":"Бадри","kp_id":null,"imdb_id":"tt2778674","world_art_id":null,"type":"movie","add":"2020-06-08 20:46:53","orig_title":"Badri","year":"2001-04-12","translations":["Любительский (одноголосый закадровый)"],"quality":"webdl","translation":"Любительский (одноголосый закадровый)","update":"2020-06-10 13:48:28","iframe_src":"//24213.svetacdn.in/si4jsFRrtgrT/movie/41049"},{"id":41018,"title":"Вор и полицейский","kp_id":"843061","imdb_id":"tt3895152","world_art_id":null,"type":"movie","add":"2020-06-07 18:22:30","orig_title":"Vikramadithyan","year":"2014-07-25","translations":["Профессиональный (многоголосый закадровый) (SDI Media | Iyuno-SDI Group Russia)"],"quality":"bd","translation":"Профессиональный (многоголосый закадровый) (SDI Media | Iyuno-SDI Group Russia)","update":"2020-06-10 12:58:34","iframe_src":"//24213.svetacdn.in/si4jsFRrtgrT/movie/41018"},{"id":41012,"title":"Под флагом восходящего солнца","kp_id":"55460","imdb_id":"tt0289782","world_art_id":null,"type":"movie","add":"2020-06-07 17:38:55","orig_title":"Gunki hatameku motoni","year":"1972-03-12","translations":["Авторский (одноголосый закадровый) (Кузнецов Сергей)"],"quality":"webdl","translation":"Авторский (одноголосый закадровый) (Кузнецов Сергей)","update":"2020-06-10 12:57:47","iframe_src":"//24213.svetacdn.in/si4jsFRrtgrT/movie/41012"},{"id":41009,"title":"Тайны гостевого дома","kp_id":"1125431","imdb_id":"tt8587122","world_art_id":null,"type":"movie","add":"2020-06-07 17:32:26","orig_title":"Secrets in the Hot Spring","year":"2018-07-06","translations":["Любительский (двухголосый закадровый) (Asian Miracle Group)"],"quality":"bd","translation":"Любительский (двухголосый закадровый) (Asian Miracle Group)","update":"2020-06-10 12:53:51","iframe_src":"//24213.svetacdn.in/si4jsFRrtgrT/movie/41009"},{"id":40990,"title":"Страшный лес","kp_id":"182726","imdb_id":"tt0260494","world_art_id":null,"type":"movie","add":"2020-06-06 21:43:00","orig_title":"Veerana","year":"1988-05-06","translations":["Авторский (одноголосый закадровый) (Багичев Алексей)"],"quality":"dvdrip","translation":"Авторский (одноголосый закадровый) (Багичев Алексей)","update":"2020-06-10 08:00:21","iframe_src":"//24213.svetacdn.in/si4jsFRrtgrT/movie/40990"},{"id":40989,"title":"Поединок","kp_id":"63221","imdb_id":"tt0121989","world_art_id":null,"type":"movie","add":"2020-06-06 21:36:57","orig_title":"Baazi","year":"1995-04-05","translations":["Профессиональный (многоголосый закадровый) (Формат AB)"],"quality":"dvdrip","translation":"Профессиональный (многоголосый закадровый) (Формат AB)","update":"2020-06-10 07:55:59","iframe_src":"//24213.svetacdn.in/si4jsFRrtgrT/movie/40989"},{"id":40988,"title":"Крекер","kp_id":"891101","imdb_id":"tt4384242","world_art_id":null,"type":"movie","add":"2020-06-06 21:33:26","orig_title":"Pataas","year":"2015-01-23","translations":["Любительский (одноголосый закадровый)"],"quality":"hddvd","translation":"Любительский (одноголосый закадровый)","update":"2020-06-10 07:55:13","iframe_src":"//24213.svetacdn.in/si4jsFRrtgrT/movie/40988"},{"id":38527,"title":"Жених","kp_id":"494801","imdb_id":"tt1582637","world_art_id":null,"type":"movie","add":"2020-03-25 18:19:26","orig_title":"Varudu","year":"2010-03-31","translations":["Любительский (одноголосый закадровый)","Профессиональный (многоголосый закадровый) (SDI Media | Iyuno-SDI Group Russia)"],"quality":"dvdrip","translation":"Любительский (одноголосый закадровый)","update":"2020-06-10 12:59:54","iframe_src":"//24213.svetacdn.in/si4jsFRrtgrT/movie/38527"},{"id":37107,"title":"Свадьба Тану и Ману. Возвращение","kp_id":"655698","imdb_id":"tt2140465","world_art_id":null,"type":"movie","add":"2020-02-28 18:01:36","orig_title":"Tanu Weds Manu Returns","year":"2015-05-21","translations":["Любительский (двухголосый закадровый) (DeadSno & den904)","Профессиональный (многоголосый закадровый) (ZEE TV)"],"quality":"bd","translation":"Любительский (двухголосый закадровый) (DeadSno & den904)","update":"2020-06-10 12:52:52","iframe_src":"//24213.svetacdn.in/si4jsFRrtgrT/movie/37107"},{"id":21135,"title":"Бешеный бык","kp_id":"1112152","imdb_id":"tt9225192","world_art_id":null,"type":"movie","add":"2019-01-01 17:50:00","orig_title":"Seongnan hwangso","year":"2018-11-22","translations":["Любительский (многоголосый закадровый) (Колобок)","Любительский (многоголосый закадровый) (Синема УС)","Любительский (многоголосый закадровый) (AniDUB)"],"quality":"webdl","translation":"Любительский (многоголосый закадровый) (Колобок)","update":"2020-06-10 13:01:37","iframe_src":"//24213.svetacdn.in/si4jsFRrtgrT/movie/21135"},{"id":17471,"title":"Пылающий","kp_id":"1048563","imdb_id":"tt7282468","world_art_id":null,"type":"movie","add":"2018-07-01 23:16:01","orig_title":"Burning","year":"2018-05-16","translations":["Полное дублирование (iTunes)","Любительский (многоголосый закадровый) (Колобок)","Полное дублирование","Любительский (многоголосый закадровый) (STEPonee)","Любительский (многоголосый закадровый) (STEPonee)"],"quality":"webdl","translation":"Полное дублирование (iTunes)","update":"2020-06-10 12:56:57","iframe_src":"//24213.svetacdn.in/si4jsFRrtgrT/movie/17471"},{"id":13341,"title":"Синяя борода","kp_id":"1008629","imdb_id":"tt6599340","world_art_id":null,"type":"movie","add":"2017-09-04 22:29:30","orig_title":"Haebing","year":"2017-03-01","translations":["Любительский (многоголосый закадровый) (Синема УС)","Любительский (двухголосый закадровый) (DeadSno & den904)"],"quality":"bd","translation":"Любительский (многоголосый закадровый) (Синема УС)","update":"2020-06-10 13:54:36","iframe_src":"//24213.svetacdn.in/si4jsFRrtgrT/movie/13341"},{"id":10304,"title":"Я твой герой","kp_id":"744509","imdb_id":"tt2762334","world_art_id":null,"type":"movie","add":"2017-03-14 13:21:02","orig_title":"Main Tera Hero","year":"2014-04-03","translations":["Профессиональный (двухголосый закадровый)","Любительский (многоголосый закадровый) (ICG)","Профессиональный (многоголосый закадровый) (ZEE TV)"],"quality":"bd","translation":"Профессиональный (двухголосый закадровый)","update":"2020-06-10 13:47:05","iframe_src":"//24213.svetacdn.in/si4jsFRrtgrT/movie/10304"}],"current_page":1215,"first_page_url":"https://videocdn.tv/api/short?limit=100&api_token=X6EwAUfE5M9xbo7y0Bp0aPf3uXxG2KLL&cache31215=31215&page=1","from":121401,"last_page":727,"last_page_url":"https://videocdn.tv/api/short?limit=100&api_token=X6EwAUfE5M9xbo7y0Bp0aPf3uXxG2KLL&cache31215=31215&page=727","next_page_url":null,"path":"https://videocdn.tv/api/short","per_page":100,"prev_page_url":"https://videocdn.tv/api/short?limit=100&api_token=X6EwAUfE5M9xbo7y0Bp0aPf3uXxG2KLL&cache31215=31215&page=1214","to":121420,"total":72634}