{"result":true,"data":[{"id":15784,"title":"Тим Тиммерман - Надежда Америки","kp_id":"902375","imdb_id":"tt4514646","world_art_id":null,"type":"movie","add":"2018-03-22 22:58:04","orig_title":"Tim Timmerman, Hope of America","year":"2017-03-03","translations":["Любительский (многоголосый закадровый) (Синема УС)"],"quality":"webdl","translation":"Любительский (многоголосый закадровый) (Синема УС)","update":"2018-03-23 05:59:10","iframe_src":"//8543.svetacdn.in/IAF0wWTdNYZm/movie/15784"},{"id":15783,"title":"Ощущения","kp_id":"992307","imdb_id":"tt5831402","world_art_id":null,"type":"movie","add":"2018-03-22 22:50:34","orig_title":"The Feels","year":"2017-06-09","translations":["Любительский (многоголосый закадровый) (Синема УС)"],"quality":"bd","translation":"Любительский (многоголосый закадровый) (Синема УС)","update":"2018-03-23 06:01:34","iframe_src":"//8543.svetacdn.in/IAF0wWTdNYZm/movie/15783"},{"id":15782,"title":"Невеста призрака","kp_id":"1099694","imdb_id":"tt7582830","world_art_id":null,"type":"movie","add":"2018-03-22 22:48:23","orig_title":"The Ghost Bride","year":"2017-11-01","translations":["Любительский (многоголосый закадровый) (Колобок)"],"quality":"webdl","translation":"Любительский (многоголосый закадровый) (Колобок)","update":"2018-03-23 06:02:49","iframe_src":"//8543.svetacdn.in/IAF0wWTdNYZm/movie/15782"},{"id":15778,"title":"Оскар Америка","kp_id":"983410","imdb_id":"tt5723028","world_art_id":null,"type":"movie","add":"2018-03-22 22:34:08","orig_title":"Oskars Amerika","year":"2017-02-15","translations":["Любительский (многоголосый закадровый) (Синема УС)"],"quality":"webdl","translation":"Любительский (многоголосый закадровый) (Синема УС)","update":"2018-03-23 06:10:16","iframe_src":"//8543.svetacdn.in/IAF0wWTdNYZm/movie/15778"},{"id":15763,"title":"Хрупкие судьбы","kp_id":"939474","imdb_id":"tt5101878","world_art_id":null,"type":"movie","add":"2018-03-20 22:29:41","orig_title":"Breakable You","year":"2017-01-07","translations":["Любительский (многоголосый закадровый) (Синема УС)"],"quality":"webdl","translation":"Любительский (многоголосый закадровый) (Синема УС)","update":"2018-03-22 11:42:19","iframe_src":"//8543.svetacdn.in/IAF0wWTdNYZm/movie/15763"},{"id":15762,"title":"Вилли I","kp_id":"978975","imdb_id":"tt5698748","world_art_id":null,"type":"movie","add":"2018-03-20 22:25:02","orig_title":"Willy 1er","year":"2016-05-16","translations":["Любительский (многоголосый закадровый) (GreenРай Studio)"],"quality":"webdl","translation":"Любительский (многоголосый закадровый) (GreenРай Studio)","update":"2018-03-22 11:43:24","iframe_src":"//8543.svetacdn.in/IAF0wWTdNYZm/movie/15762"},{"id":15759,"title":"Чур меня","kp_id":null,"imdb_id":"tt6582784","world_art_id":null,"type":"movie","add":"2018-03-20 22:11:39","orig_title":"Pwera usog","year":"2017-03-08","translations":["Любительский (многоголосый закадровый) (Колобок)"],"quality":"webdl","translation":"Любительский (многоголосый закадровый) (Колобок)","update":"2018-03-22 05:01:24","iframe_src":"//8543.svetacdn.in/IAF0wWTdNYZm/movie/15759"},{"id":15758,"title":"Боевая песня","kp_id":"1008431","imdb_id":"tt6103812","world_art_id":null,"type":"movie","add":"2018-03-20 22:08:14","orig_title":"Mukoku","year":"2017-06-03","translations":["Любительский (двухголосый закадровый) (RealFake)"],"quality":"webdl","translation":"Любительский (двухголосый закадровый) (RealFake)","update":"2018-03-22 11:47:50","iframe_src":"//8543.svetacdn.in/IAF0wWTdNYZm/movie/15758"},{"id":15755,"title":"Мегеры","kp_id":"978220","imdb_id":"tt5673828","world_art_id":null,"type":"movie","add":"2018-03-20 21:51:48","orig_title":"Hellcat's Revenge","year":"2017-03-01","translations":["Любительский (многоголосый закадровый) (Синема УС)"],"quality":"webdl","translation":"Любительский (многоголосый закадровый) (Синема УС)","update":"2018-03-22 05:28:08","iframe_src":"//8543.svetacdn.in/IAF0wWTdNYZm/movie/15755"},{"id":15754,"title":"Гарри Поттер: История магии","kp_id":"1112887","imdb_id":"tt7783322","world_art_id":null,"type":"movie","add":"2018-03-20 21:50:23","orig_title":"Harry Potter: A History of Magic","year":"2017-12-25","translations":["Любительский (многоголосый закадровый) (Синема УС)"],"quality":"dvdrip","translation":"Любительский (многоголосый закадровый) (Синема УС)","update":"2018-03-22 05:31:31","iframe_src":"//8543.svetacdn.in/IAF0wWTdNYZm/movie/15754"},{"id":15752,"title":"Демонический дом","kp_id":"1112049","imdb_id":"tt4130484","world_art_id":null,"type":"movie","add":"2018-03-20 21:41:40","orig_title":"Demon House","year":"2018-03-16","translations":["Любительский (многоголосый закадровый) (Синема УС)"],"quality":"webdl","translation":"Любительский (многоголосый закадровый) (Синема УС)","update":"2018-03-22 05:45:41","iframe_src":"//8543.svetacdn.in/IAF0wWTdNYZm/movie/15752"},{"id":15751,"title":"Пока не кончилось лето","kp_id":"1046806","imdb_id":"tt7028250","world_art_id":null,"type":"movie","add":"2018-03-20 21:38:41","orig_title":"Avant la fin de l'été","year":"2017-05-18","translations":["Профессиональный (многоголосый закадровый) (GreenРай Studio)"],"quality":"webdl","translation":"Профессиональный (многоголосый закадровый) (GreenРай Studio)","update":"2018-03-22 05:47:49","iframe_src":"//8543.svetacdn.in/IAF0wWTdNYZm/movie/15751"},{"id":15750,"title":"Высота","kp_id":"1042870","imdb_id":"tt6621022","world_art_id":null,"type":"movie","add":"2018-03-20 21:35:01","orig_title":"Altitudes","year":"2017-02-04","translations":["Профессиональный (многоголосый закадровый) (GreenРай Studio)"],"quality":"sat","translation":"Профессиональный (многоголосый закадровый) (GreenРай Studio)","update":"2018-03-22 05:52:07","iframe_src":"//8543.svetacdn.in/IAF0wWTdNYZm/movie/15750"},{"id":15612,"title":"Жить или умереть в Ла-Хонда","kp_id":"918586","imdb_id":"tt4768592","world_art_id":null,"type":"movie","add":"2018-03-14 22:20:45","orig_title":"Live or Die in La Honda","year":"2017-06-11","translations":["Профессиональный (многоголосый закадровый)","Любительский (двухголосый закадровый) (RealFake)"],"quality":"webdl","translation":"Профессиональный (многоголосый закадровый)","update":"2018-03-22 05:05:19","iframe_src":"//8543.svetacdn.in/IAF0wWTdNYZm/movie/15612"},{"id":15268,"title":"Тур де Франс","kp_id":"944222","imdb_id":"tt5189440","world_art_id":null,"type":"movie","add":"2018-02-23 08:06:13","orig_title":"Tour de France","year":"2016-05-15","translations":["Любительский (многоголосый закадровый) (Синема УС)","Профессиональный (многоголосый закадровый) (GreenРай Studio)"],"quality":"webdl","translation":"Любительский (многоголосый закадровый) (Синема УС)","update":"2018-03-23 05:51:11","iframe_src":"//8543.svetacdn.in/IAF0wWTdNYZm/movie/15268"},{"id":15190,"title":"Лети, майский жук!","kp_id":"949003","imdb_id":"tt5046070","world_art_id":null,"type":"movie","add":"2018-02-15 23:02:41","orig_title":"Maikäfer flieg","year":"2016-03-08","translations":["Любительский (многоголосый закадровый) (Синема УС)","Профессиональный (многоголосый закадровый) (GreenРай Studio)"],"quality":"webdl","translation":"Любительский (многоголосый закадровый) (Синема УС)","update":"2018-03-22 05:51:12","iframe_src":"//8543.svetacdn.in/IAF0wWTdNYZm/movie/15190"},{"id":15080,"title":"Ава","kp_id":"1033496","imdb_id":"tt6194530","world_art_id":null,"type":"movie","add":"2018-02-05 22:23:27","orig_title":"Ava","year":"2017-05-19","translations":["Профессиональный (многоголосый закадровый)","Профессиональный (многоголосый закадровый) (GreenРай Studio)"],"quality":"webdl","translation":"Профессиональный (многоголосый закадровый)","update":"2018-03-22 05:48:55","iframe_src":"//8543.svetacdn.in/IAF0wWTdNYZm/movie/15080"},{"id":14853,"title":"Астрал 4: Последний ключ","kp_id":"982198","imdb_id":"tt5726086","world_art_id":null,"type":"movie","add":"2018-01-10 22:20:18","orig_title":"Insidious: The Last Key","year":"2018-01-03","translations":["Любительский (многоголосый закадровый) (Колобок)","Полное дублирование"],"quality":"camrip","translation":"Любительский (многоголосый закадровый) (Колобок)","update":"2018-03-22 05:26:25","iframe_src":"//8543.svetacdn.in/IAF0wWTdNYZm/movie/14853"},{"id":12933,"title":"Весёлый ужин мамочек","kp_id":"988617","imdb_id":"tt5829040","world_art_id":null,"type":"movie","add":"2017-08-13 22:57:43","orig_title":"Fun Mom Dinner","year":"2017-01-27","translations":["Любительский (многоголосый закадровый) (Синема УС)","Профессиональный (многоголосый закадровый) (GreenРай Studio)"],"quality":"bd","translation":"Любительский (многоголосый закадровый) (Синема УС)","update":"2018-03-22 11:50:09","iframe_src":"//8543.svetacdn.in/IAF0wWTdNYZm/movie/12933"},{"id":11870,"title":"Король бельгийцев","kp_id":"933073","imdb_id":"tt4818804","world_art_id":null,"type":"movie","add":"2017-06-09 12:48:25","orig_title":"King of the Belgians","year":"2016-09-03","translations":["Любительский (многоголосый закадровый) (Синема УС)","Профессиональный (многоголосый закадровый)"],"quality":"webdl","translation":"Любительский (многоголосый закадровый) (Синема УС)","update":"2018-03-23 06:13:40","iframe_src":"//8543.svetacdn.in/IAF0wWTdNYZm/movie/11870"}],"current_page":1825,"first_page_url":"https://videocdn.tv/api/short?limit=100&api_token=6Onb1W1alEUrBcKJZD3GoKBbWyAl2uG2&cache31825=31825&page=1","from":182401,"last_page":606,"last_page_url":"https://videocdn.tv/api/short?limit=100&api_token=6Onb1W1alEUrBcKJZD3GoKBbWyAl2uG2&cache31825=31825&page=606","next_page_url":null,"path":"https://videocdn.tv/api/short","per_page":100,"prev_page_url":"https://videocdn.tv/api/short?limit=100&api_token=6Onb1W1alEUrBcKJZD3GoKBbWyAl2uG2&cache31825=31825&page=1824","to":182420,"total":60594}