{"result":true,"data":[{"id":50188,"title":"В кругу старших","kp_id":"1008934","imdb_id":"tt6326182","world_art_id":null,"type":"movie","add":"2021-05-06 18:55:28","orig_title":"Senior Entourage","year":"2021-05-04","translations":["Любительский (многоголосый закадровый) (Синема УС)"],"quality":"webdl","translation":"Любительский (многоголосый закадровый) (Синема УС)","update":"2021-05-06 20:39:40","iframe_src":"//2413.svetacdn.in/si4jsFRrtgrT/movie/50188"},{"id":50187,"title":"Только они","kp_id":"1144461","imdb_id":"tt7520594","world_art_id":null,"type":"movie","add":"2021-05-06 18:53:30","orig_title":"Only People","year":"2021-05-04","translations":["Любительский (многоголосый закадровый) (AlphaProject)"],"quality":"webdl","translation":"Любительский (многоголосый закадровый) (AlphaProject)","update":"2021-05-06 20:40:14","iframe_src":"//2413.svetacdn.in/si4jsFRrtgrT/movie/50187"},{"id":50169,"title":"Печень, или История одного стартапа","kp_id":"1301680","imdb_id":null,"world_art_id":null,"type":"movie","add":"2021-05-06 05:27:04","orig_title":"Печень, или История одного стартапа","year":"2021-03-31","translations":["Оригинальная дорожка"],"quality":"webdl","translation":"Оригинальная дорожка","update":"2021-05-06 09:38:49","iframe_src":"//2413.svetacdn.in/si4jsFRrtgrT/movie/50169"},{"id":50168,"title":"Ройал Страттон: Спасательная операция Второй мировой","kp_id":null,"imdb_id":"tt3195192","world_art_id":null,"type":"movie","add":"2021-05-05 21:02:47","orig_title":"Journey to Royal: A WWII Rescue Mission","year":"2021-02-02","translations":["Любительский (многоголосый закадровый) (Синема УС)"],"quality":"webdl","translation":"Любительский (многоголосый закадровый) (Синема УС)","update":"2021-05-06 11:33:09","iframe_src":"//2413.svetacdn.in/si4jsFRrtgrT/movie/50168"},{"id":50167,"title":"Потуси со мной","kp_id":"1165783","imdb_id":"tt7821712","world_art_id":null,"type":"movie","add":"2021-05-05 21:00:54","orig_title":"Party with Me","year":"2020-05-30","translations":["Любительский (многоголосый закадровый) (Синема УС)"],"quality":"webdl","translation":"Любительский (многоголосый закадровый) (Синема УС)","update":"2021-05-06 08:40:50","iframe_src":"//2413.svetacdn.in/si4jsFRrtgrT/movie/50167"},{"id":50166,"title":"Молодёжное служение","kp_id":"1005275","imdb_id":"tt6096296","world_art_id":null,"type":"movie","add":"2021-05-05 20:58:09","orig_title":"YouthMin","year":"2021-04-28","translations":["Любительский (многоголосый закадровый) (Синема УС)"],"quality":"webdl","translation":"Любительский (многоголосый закадровый) (Синема УС)","update":"2021-05-06 08:39:21","iframe_src":"//2413.svetacdn.in/si4jsFRrtgrT/movie/50166"},{"id":50164,"title":"Экстренный вызов","kp_id":"1079875","imdb_id":"tt7019516","world_art_id":null,"type":"movie","add":"2021-05-05 19:15:08","orig_title":"Blue Call","year":"2021-05-04","translations":["Любительский (многоголосый закадровый) (Синема УС)"],"quality":"webdl","translation":"Любительский (многоголосый закадровый) (Синема УС)","update":"2021-05-06 06:52:00","iframe_src":"//2413.svetacdn.in/si4jsFRrtgrT/movie/50164"},{"id":50131,"title":"Подводное течение","kp_id":"453586","imdb_id":"tt1368491","world_art_id":null,"type":"movie","add":"2021-05-05 05:36:57","orig_title":"Contracorriente","year":"2009-09-23","translations":["Любительский (двухголосый закадровый)"],"quality":"dvdrip","translation":"Любительский (двухголосый закадровый)","update":"2021-05-06 14:18:44","iframe_src":"//2413.svetacdn.in/si4jsFRrtgrT/movie/50131"},{"id":50129,"title":"Мацист, самый сильный гладиатор в мире","kp_id":"164877","imdb_id":"tt0154805","world_art_id":null,"type":"movie","add":"2021-05-05 05:29:35","orig_title":"Maciste, il gladiatore più forte del mondo","year":"1962-09-13","translations":["Любительский (одноголосый закадровый)"],"quality":"dvdrip","translation":"Любительский (одноголосый закадровый)","update":"2021-05-06 13:02:41","iframe_src":"//2413.svetacdn.in/si4jsFRrtgrT/movie/50129"},{"id":50120,"title":"У моря","kp_id":"2157","imdb_id":"tt0005044","world_art_id":null,"type":"movie","add":"2021-05-04 20:59:35","orig_title":"By the Sea","year":"1915-04-29","translations":["[EN] Original (English)"],"quality":"bd","translation":"[EN] Original (English)","update":"2021-05-06 14:38:17","iframe_src":"//2413.svetacdn.in/si4jsFRrtgrT/movie/50120"},{"id":50119,"title":"Призрак с шофером","kp_id":"53214","imdb_id":"tt0116280","world_art_id":null,"type":"movie","add":"2021-05-04 20:54:21","orig_title":"Fantôme avec chauffeur","year":"1996-03-20","translations":["Профессиональный (многоголосый закадровый)"],"quality":"dvdrip","translation":"Профессиональный (многоголосый закадровый)","update":"2021-05-06 13:04:59","iframe_src":"//2413.svetacdn.in/si4jsFRrtgrT/movie/50119"},{"id":49128,"title":"Хромофобия","kp_id":"81701","imdb_id":"tt0419641","world_art_id":null,"type":"movie","add":"2021-03-27 05:44:01","orig_title":"Chromophobia","year":"2005-05-21","translations":["Профессиональный (двухголосый закадровый) (Ульпаней Эльром)","[EN] Original (English)"],"quality":"webdl","translation":"Профессиональный (двухголосый закадровый) (Ульпаней Эльром)","update":"2021-05-06 07:26:40","iframe_src":"//2413.svetacdn.in/si4jsFRrtgrT/movie/49128"},{"id":47223,"title":"Порочная связь","kp_id":"1390954","imdb_id":"tt12585254","world_art_id":null,"type":"movie","add":"2021-01-19 06:35:53","orig_title":"Lacci","year":"2020-09-02","translations":["Профессиональный (многоголосый закадровый)"],"quality":"bd","translation":"Профессиональный (многоголосый закадровый)","update":"2021-05-06 10:25:41","iframe_src":"//2413.svetacdn.in/si4jsFRrtgrT/movie/47223"},{"id":21887,"title":"К западу от солнечного света","kp_id":"1039319","imdb_id":"tt6567012","world_art_id":null,"type":"movie","add":"2019-01-27 17:53:55","orig_title":"West of Sunshine","year":"2017-09-01","translations":["Любительский (многоголосый закадровый) (Синема УС)","Профессиональный (многоголосый закадровый) (HDrezka Studio)","Профессиональный (многоголосый закадровый) (HDrezka Studio)"],"quality":"webdl","translation":"Любительский (многоголосый закадровый) (Синема УС)","update":"2021-05-06 17:41:06","iframe_src":"//2413.svetacdn.in/si4jsFRrtgrT/movie/21887"},{"id":20167,"title":"Братаны. Последний скотч","kp_id":"1136077","imdb_id":"tt8018008","world_art_id":null,"type":"movie","add":"2018-11-18 18:53:24","orig_title":"BROS. Last Call","year":"2018-10-19","translations":["Любительский (многоголосый закадровый) (Синема УС)","Профессиональный (многоголосый закадровый) (HDrezka Studio)"],"quality":"webdl","translation":"Любительский (многоголосый закадровый) (Синема УС)","update":"2021-05-06 17:40:51","iframe_src":"//2413.svetacdn.in/si4jsFRrtgrT/movie/20167"},{"id":17777,"title":"Танцующая в темноте","kp_id":"646","imdb_id":"tt0168629","world_art_id":null,"type":"movie","add":"2018-07-18 12:53:19","orig_title":"Dancer in the Dark","year":"2000-05-17","translations":["Полное дублирование","Полное дублирование","[EN] Original (English)","Профессиональный (двухголосый закадровый) (TV1000)"],"quality":"bd","translation":"Полное дублирование","update":"2021-05-06 11:27:59","iframe_src":"//2413.svetacdn.in/si4jsFRrtgrT/movie/17777"},{"id":17082,"title":"Космические дальнобойщики","kp_id":"5476","imdb_id":"tt0120199","world_art_id":null,"type":"movie","add":"2018-06-09 09:15:26","orig_title":"Space Truckers","year":"1997-01-14","translations":["Профессиональный (многоголосый закадровый)","Авторский (одноголосый закадровый) (Сербин Юрий)","[EN] Original (English)","Профессиональный (двухголосый закадровый) (НТВ)","Профессиональный (многоголосый закадровый) (ТВЦ)"],"quality":"bd","translation":"Профессиональный (многоголосый закадровый)","update":"2021-05-06 11:55:41","iframe_src":"//2413.svetacdn.in/si4jsFRrtgrT/movie/17082"},{"id":13795,"title":"Бегущий по лезвию 2049","kp_id":"589290","imdb_id":"tt1856101","world_art_id":null,"type":"movie","add":"2017-10-09 22:52:24","orig_title":"Blade Runner 2049","year":"2017-10-04","translations":["Полное дублирование","[EN] Original (English)","Профессиональный (многоголосый закадровый) (HDrezka Studio)","Авторский (одноголосый закадровый) (Есарев Дмитрий)","Авторский (одноголосый закадровый) (Гаврилов Андрей)","Авторский (одноголосый закадровый) (Сербин Юрий)","Авторский (одноголосый закадровый) (Володарский Леонид)","Авторский (одноголосый закадровый) (Живов Юрий)","[EN] Original (English)"],"quality":"bd","translation":"Полное дублирование","update":"2021-05-06 11:48:54","iframe_src":"//2413.svetacdn.in/si4jsFRrtgrT/movie/13795"},{"id":841,"title":"Рифмуется с любовью","kp_id":"464884","imdb_id":"tt3085478","world_art_id":null,"type":"serial","add":"2017-01-09 06:25:03","orig_title":"Rifmuetsya s lyubovyu","year":"2006-01-01","translations":["Оригинальная дорожка"],"seasons_count":1,"episodes_count":2,"episodes":2,"update":"2017-01-09 11:56:42","iframe_src":"//2413.svetacdn.in/si4jsFRrtgrT/tv-series/841"},{"id":838,"title":"Банды","kp_id":"565161","imdb_id":"tt4042116","world_art_id":null,"type":"serial","add":"2017-01-08 12:56:09","orig_title":"Bandy","year":"2010-09-23","translations":["Оригинальная дорожка"],"seasons_count":1,"episodes_count":12,"episodes":12,"update":"2017-01-08 18:44:09","iframe_src":"//2413.svetacdn.in/si4jsFRrtgrT/tv-series/838"},{"id":837,"title":"Бедные родственники","kp_id":"719866","imdb_id":"tt2842912","world_art_id":null,"type":"serial","add":"2017-01-08 12:51:37","orig_title":"Bednye rodstvenniki","year":"2012-12-11","translations":["Оригинальная дорожка"],"seasons_count":1,"episodes_count":16,"episodes":16,"update":"2017-01-09 10:19:33","iframe_src":"//2413.svetacdn.in/si4jsFRrtgrT/tv-series/837"},{"id":836,"title":"Поделись счастьем своим","kp_id":"838579","imdb_id":null,"world_art_id":null,"type":"serial","add":"2017-01-08 12:31:52","orig_title":"Поделись счастьем своим","year":"2015-05-23","translations":["Оригинальная дорожка"],"seasons_count":1,"episodes_count":4,"episodes":4,"update":"2017-01-09 10:47:13","iframe_src":"//2413.svetacdn.in/si4jsFRrtgrT/tv-series/836"},{"id":835,"title":"Стройка","kp_id":"841687","imdb_id":null,"world_art_id":null,"type":"serial","add":"2017-01-08 11:19:10","orig_title":"Стройка","year":"2017-01-02","translations":["Оригинальная дорожка"],"seasons_count":1,"episodes_count":20,"episodes":20,"update":"2017-01-09 10:32:06","iframe_src":"//2413.svetacdn.in/si4jsFRrtgrT/tv-series/835"},{"id":834,"title":"Слепой","kp_id":"400061","imdb_id":"tt4265764","world_art_id":null,"type":"serial","add":"2017-01-08 10:29:04","orig_title":"Slepoy","year":"2008-12-04","translations":["Оригинальная дорожка"],"seasons_count":1,"episodes_count":8,"episodes":8,"update":"2017-01-08 16:54:52","iframe_src":"//2413.svetacdn.in/si4jsFRrtgrT/tv-series/834"},{"id":832,"title":"Перевозчик","kp_id":"587984","imdb_id":"tt1885102","world_art_id":null,"type":"serial","add":"2017-01-08 10:13:06","orig_title":"Transporter: The Series","year":"2012-11-29","translations":["Профессиональный (многоголосый закадровый) (LostFilm)"],"seasons_count":2,"episodes_count":24,"episodes":12,"update":"2017-01-08 17:15:25","iframe_src":"//2413.svetacdn.in/si4jsFRrtgrT/tv-series/832"},{"id":828,"title":"Верни мою любовь","kp_id":"846894","imdb_id":"tt4307052","world_art_id":null,"type":"serial","add":"2017-01-07 14:00:48","orig_title":"Verni moyu lyubov","year":"2014-12-08","translations":["Оригинальная дорожка"],"seasons_count":1,"episodes_count":24,"episodes":24,"update":"2017-01-08 12:27:19","iframe_src":"//2413.svetacdn.in/si4jsFRrtgrT/tv-series/828"},{"id":827,"title":"Грешник","kp_id":"807496","imdb_id":"tt3660088","world_art_id":null,"type":"serial","add":"2017-01-07 13:15:23","orig_title":"Greshnik","year":"2015-05-29","translations":["Оригинальная дорожка"],"seasons_count":1,"episodes_count":2,"episodes":2,"update":"2017-01-07 17:21:06","iframe_src":"//2413.svetacdn.in/si4jsFRrtgrT/tv-series/827"},{"id":823,"title":"Доброе имя","kp_id":"840043","imdb_id":"tt3772494","world_art_id":null,"type":"serial","add":"2017-01-07 08:02:24","orig_title":"Dobroe imya","year":"2014-05-19","translations":["Оригинальная дорожка"],"seasons_count":1,"episodes_count":12,"episodes":12,"update":"2017-01-09 06:55:50","iframe_src":"//2413.svetacdn.in/si4jsFRrtgrT/tv-series/823"},{"id":815,"title":"Домработница","kp_id":"913424","imdb_id":null,"world_art_id":null,"type":"serial","add":"2017-01-06 10:16:03","orig_title":"Домработница","year":"2015-06-13","translations":["Оригинальная дорожка"],"seasons_count":1,"episodes_count":2,"episodes":2,"update":"2017-01-06 12:41:48","iframe_src":"//2413.svetacdn.in/si4jsFRrtgrT/tv-series/815"},{"id":813,"title":"Шоу ужасов Рокки Хоррора","kp_id":"463048","imdb_id":"tt1267299","world_art_id":null,"type":"serial","add":"2017-01-05 04:55:09","orig_title":"The Rocky Horror Picture Show: Let's Do the Time Warp Again","year":"2016-10-18","translations":["Профессиональный (многоголосый закадровый) (BaibaKo)"],"seasons_count":1,"episodes_count":1,"episodes":1,"update":"2017-01-05 09:14:02","iframe_src":"//2413.svetacdn.in/si4jsFRrtgrT/tv-series/813"},{"id":812,"title":"Бомж","kp_id":"481550","imdb_id":null,"world_art_id":null,"type":"serial","add":"2017-01-04 11:57:32","orig_title":"Бомж","year":"2010-06-06","translations":["Оригинальная дорожка"],"seasons_count":1,"episodes_count":12,"episodes":12,"update":"2017-01-06 08:07:19","iframe_src":"//2413.svetacdn.in/si4jsFRrtgrT/tv-series/812"},{"id":811,"title":"Ниро Вульф и Арчи Гудвин","kp_id":"80261","imdb_id":null,"world_art_id":null,"type":"serial","add":"2017-01-04 11:54:57","orig_title":"Ниро Вульф и Арчи Гудвин","year":"2002-01-03","translations":["Оригинальная дорожка"],"seasons_count":1,"episodes_count":10,"episodes":10,"update":"2017-01-06 06:33:27","iframe_src":"//2413.svetacdn.in/si4jsFRrtgrT/tv-series/811"},{"id":810,"title":"Сатисфакция","kp_id":"256060","imdb_id":"tt0768685","world_art_id":null,"type":"serial","add":"2017-01-04 11:39:34","orig_title":"Satisfaktsiya","year":"2006-01-02","translations":["Оригинальная дорожка"],"seasons_count":1,"episodes_count":8,"episodes":8,"update":"2017-01-05 13:26:19","iframe_src":"//2413.svetacdn.in/si4jsFRrtgrT/tv-series/810"},{"id":802,"title":"Острог. Дело Федора Сеченова","kp_id":"405659","imdb_id":null,"world_art_id":null,"type":"serial","add":"2017-01-02 11:07:28","orig_title":"Острог. Дело Федора Сеченова","year":"2006-08-01","translations":["Оригинальная дорожка"],"seasons_count":1,"episodes_count":40,"episodes":40,"update":"2017-01-07 09:01:07","iframe_src":"//2413.svetacdn.in/si4jsFRrtgrT/tv-series/802"},{"id":800,"title":"Пенсильвания","kp_id":"922155","imdb_id":"tt4976378","world_art_id":null,"type":"serial","add":"2017-01-02 11:01:56","orig_title":"Pensilvaniya","year":"2015-01-01","translations":["Оригинальная дорожка"],"seasons_count":1,"episodes_count":16,"episodes":16,"update":"2017-01-05 08:39:56","iframe_src":"//2413.svetacdn.in/si4jsFRrtgrT/tv-series/800"},{"id":756,"title":"Удаленные","kp_id":"1008004","imdb_id":"tt5684430","world_art_id":null,"type":"serial","add":"2016-12-28 16:22:29","orig_title":"The Deleted","year":"2016-12-04","translations":["Любительский (двухголосый закадровый) (Hamster Studio)"],"seasons_count":1,"episodes_count":8,"episodes":8,"update":"2017-01-09 08:19:59","iframe_src":"//2413.svetacdn.in/si4jsFRrtgrT/tv-series/756"},{"id":708,"title":"Улица потрошителя","kp_id":"677725","imdb_id":"tt2183641","world_art_id":null,"type":"serial","add":"2016-12-19 08:54:27","orig_title":"Ripper Street","year":"2012-12-30","translations":["Профессиональный (многоголосый закадровый) (NewStudio)"],"seasons_count":5,"episodes_count":36,"episodes":6,"update":"2017-01-09 07:06:41","iframe_src":"//2413.svetacdn.in/si4jsFRrtgrT/tv-series/708"},{"id":573,"title":"Образцовые бунтарки","kp_id":"923787","imdb_id":"tt4687892","world_art_id":null,"type":"serial","add":"2016-11-13 06:31:42","orig_title":"Good Girls Revolt","year":"2015-11-04","translations":["Профессиональный (многоголосый закадровый) (NewStudio)"],"seasons_count":1,"episodes_count":10,"episodes":10,"update":"2017-01-06 06:28:19","iframe_src":"//2413.svetacdn.in/si4jsFRrtgrT/tv-series/573"},{"id":3661,"title":"Кровавый четверг","kp_id":"15641","imdb_id":"tt0124901","world_art_id":null,"type":"movie","add":"2016-07-05 05:30:19","orig_title":"Thursday","year":"1998-09-10","translations":["Профессиональный (многоголосый закадровый)","Авторский (одноголосый закадровый) (Гоблин | Пучков Дмитрий)","[EN] Original (English)","Авторский (одноголосый закадровый) (Сербин Юрий)","Авторский (одноголосый закадровый) (Визгунов Сергей)","Авторский (одноголосый закадровый) (Яроцкий Михаил | Kyberpunk)","Авторский (одноголосый закадровый) (Живов Юрий)","Профессиональный (двухголосый закадровый) (НТВ)"],"quality":"bd","translation":"Профессиональный (многоголосый закадровый)","update":"2021-05-06 07:17:29","iframe_src":"//2413.svetacdn.in/si4jsFRrtgrT/movie/3661"},{"id":2771,"title":"Малхолланд Драйв","kp_id":"466","imdb_id":"tt0166924","world_art_id":null,"type":"movie","add":"2016-05-31 14:44:54","orig_title":"Mulholland Dr.","year":"2001-05-16","translations":["Полное дублирование","Профессиональный (многоголосый закадровый) (Видеосервис)","Авторский (одноголосый закадровый) (Горчаков Василий)","Авторский (одноголосый закадровый) (Сербин Юрий)","Авторский (одноголосый закадровый) (Визгунов Сергей)","Авторский (одноголосый закадровый) (Живов Юрий)","Полное дублирование","[EN] Original (English)","Профессиональный (двухголосый закадровый) (CP Digital)","Профессиональный (двухголосый закадровый) (Гланц + Королёва)","Профессиональный (двухголосый закадровый) (Карусель)","Профессиональный (двухголосый закадровый) (Видеосервис)"],"quality":"bd","translation":"Полное дублирование","update":"2021-05-06 07:41:21","iframe_src":"//2413.svetacdn.in/si4jsFRrtgrT/movie/2771"}],"current_page":592,"first_page_url":"https://videocdn.tv/api/short?limit=100&api_token=X6EwAUfE5M9xbo7y0Bp0aPf3uXxG2KLL&cache3592=3592&page=1","from":59101,"last_page":711,"last_page_url":"https://videocdn.tv/api/short?limit=100&api_token=X6EwAUfE5M9xbo7y0Bp0aPf3uXxG2KLL&cache3592=3592&page=711","next_page_url":"https://videocdn.tv/api/short?limit=100&api_token=X6EwAUfE5M9xbo7y0Bp0aPf3uXxG2KLL&cache3592=3592&page=593","path":"https://videocdn.tv/api/short","per_page":100,"prev_page_url":"https://videocdn.tv/api/short?limit=100&api_token=X6EwAUfE5M9xbo7y0Bp0aPf3uXxG2KLL&cache3592=3592&page=591","to":59140,"total":71035}