{"result":true,"data":[{"id":49575,"title":"Зверь зверь","kp_id":"1180662","imdb_id":"tt8785030","world_art_id":null,"type":"movie","add":"2021-04-13 10:55:50","orig_title":"Beast Beast","year":"2020-01-25","translations":["Любительский (многоголосый закадровый) (Синема УС)"],"quality":"webdl","translation":"Любительский (многоголосый закадровый) (Синема УС)","update":"2021-04-13 17:13:38","iframe_src":"//83.svetacdn.in/PfJ50H0ZBPg3/movie/49575"},{"id":49573,"title":"Карамельное Рождество","kp_id":"1344177","imdb_id":"tt11615500","world_art_id":null,"type":"movie","add":"2021-04-13 10:23:44","orig_title":"Candy Cane Christmas","year":"2020-07-18","translations":["Любительский (многоголосый закадровый) (Синема УС)"],"quality":"webdl","translation":"Любительский (многоголосый закадровый) (Синема УС)","update":"2021-04-13 17:12:28","iframe_src":"//83.svetacdn.in/PfJ50H0ZBPg3/movie/49573"},{"id":49572,"title":"Частная жизнь","kp_id":"26479","imdb_id":"tt0055599","world_art_id":null,"type":"movie","add":"2021-04-13 10:11:10","orig_title":"Vie privée","year":"1962-09-28","translations":["Любительский (одноголосый закадровый)"],"quality":"dvdrip","translation":"Любительский (одноголосый закадровый)","update":"2021-04-13 13:00:28","iframe_src":"//83.svetacdn.in/PfJ50H0ZBPg3/movie/49572"},{"id":49567,"title":"В погоне за миллионами","kp_id":"1293553","imdb_id":"tt10679838","world_art_id":null,"type":"movie","add":"2021-04-13 04:49:10","orig_title":"Bazdmeg","year":"2019-07-17","translations":["Любительский (многоголосый закадровый) (AlphaProject)"],"quality":"webdl","translation":"Любительский (многоголосый закадровый) (AlphaProject)","update":"2021-04-13 15:16:34","iframe_src":"//83.svetacdn.in/PfJ50H0ZBPg3/movie/49567"},{"id":49566,"title":"Запасная книжка Томи","kp_id":"1450105","imdb_id":"tt13353486","world_art_id":null,"type":"movie","add":"2021-04-13 04:47:42","orig_title":"El Cuaderno de Tomy","year":"2020-11-24","translations":["Любительский (многоголосый закадровый) (Синема УС)"],"quality":"webdl","translation":"Любительский (многоголосый закадровый) (Синема УС)","update":"2021-04-13 15:16:17","iframe_src":"//83.svetacdn.in/PfJ50H0ZBPg3/movie/49566"},{"id":49565,"title":"Почти на своем месте","kp_id":"1317937","imdb_id":"tt11096698","world_art_id":null,"type":"movie","add":"2021-04-13 04:46:22","orig_title":"Almost There (A punto de llegar)","year":"2019-10-07","translations":["Любительский (многоголосый закадровый) (Синема УС)"],"quality":"webdl","translation":"Любительский (многоголосый закадровый) (Синема УС)","update":"2021-04-13 15:16:06","iframe_src":"//83.svetacdn.in/PfJ50H0ZBPg3/movie/49565"},{"id":49564,"title":"666 Одержимость Джинами","kp_id":"1138524","imdb_id":"tt7962844","world_art_id":null,"type":"movie","add":"2021-04-13 04:40:41","orig_title":"666 Cin Musallati","year":"2017-05-02","translations":["Любительский (двухголосый закадровый) (Колобок)"],"quality":"webdl","translation":"Любительский (двухголосый закадровый) (Колобок)","update":"2021-04-13 15:15:00","iframe_src":"//83.svetacdn.in/PfJ50H0ZBPg3/movie/49564"},{"id":49562,"title":"Nat Geo Wild: Самый смертоносный кит","kp_id":null,"imdb_id":"tt13975656","world_art_id":null,"type":"movie","add":"2021-04-12 20:45:59","orig_title":"World's Deadliest Whale","year":"2020-05-01","translations":["Профессиональный (одноголосый закадровый) (Велес)"],"quality":"hdtv","translation":"Профессиональный (одноголосый закадровый) (Велес)","update":"2021-04-13 12:55:26","iframe_src":"//83.svetacdn.in/PfJ50H0ZBPg3/movie/49562"},{"id":49554,"title":"То, что ты обо мне не знаешь","kp_id":"1152688","imdb_id":"tt7805896","world_art_id":null,"type":"movie","add":"2021-04-12 09:41:42","orig_title":"Quello che non sai di me: WT","year":"2019-11-01","translations":["Любительский (многоголосый закадровый) (Синема УС)"],"quality":"webdl","translation":"Любительский (многоголосый закадровый) (Синема УС)","update":"2021-04-13 16:25:55","iframe_src":"//83.svetacdn.in/PfJ50H0ZBPg3/movie/49554"},{"id":49553,"title":"Хижина","kp_id":"1284994","imdb_id":"tt10280172","world_art_id":null,"type":"movie","add":"2021-04-12 09:36:47","orig_title":"Shed","year":"2019-04-26","translations":["Любительский (многоголосый закадровый) (Синема УС)"],"quality":"webdl","translation":"Любительский (многоголосый закадровый) (Синема УС)","update":"2021-04-13 16:22:12","iframe_src":"//83.svetacdn.in/PfJ50H0ZBPg3/movie/49553"},{"id":49552,"title":"Случается","kp_id":"1116944","imdb_id":"tt8161396","world_art_id":null,"type":"movie","add":"2021-04-12 09:33:47","orig_title":"Succede","year":"2018-04-05","translations":["Любительский (многоголосый закадровый) (Синема УС)"],"quality":"webdl","translation":"Любительский (многоголосый закадровый) (Синема УС)","update":"2021-04-13 16:18:00","iframe_src":"//83.svetacdn.in/PfJ50H0ZBPg3/movie/49552"},{"id":49551,"title":"Вина","kp_id":"1393125","imdb_id":"tt11307492","world_art_id":null,"type":"movie","add":"2021-04-12 09:22:38","orig_title":"Denzura","year":"2019-11-01","translations":["Любительский (многоголосый закадровый) (Синема УС)"],"quality":"webdl","translation":"Любительский (многоголосый закадровый) (Синема УС)","update":"2021-04-13 12:00:37","iframe_src":"//83.svetacdn.in/PfJ50H0ZBPg3/movie/49551"},{"id":48186,"title":"Дважды мертвый","kp_id":"34489","imdb_id":"tt0096319","world_art_id":null,"type":"movie","add":"2021-02-23 11:57:24","orig_title":"Twice Dead","year":"1988-11-18","translations":["Авторский (одноголосый закадровый) (Живов Юрий)","Авторский (одноголосый закадровый) (Володарский Леонид)"],"quality":"bd","translation":"Авторский (одноголосый закадровый) (Живов Юрий)","update":"2021-04-13 12:39:22","iframe_src":"//83.svetacdn.in/PfJ50H0ZBPg3/movie/48186"},{"id":47643,"title":"Короткий фильм о любви","kp_id":"66341","imdb_id":"tt0095467","world_art_id":null,"type":"movie","add":"2021-02-03 15:40:52","orig_title":"Krótki film o milosci","year":"1988-09-22","translations":["Полное дублирование (Мосфильм)","Профессиональный (многоголосый закадровый) (Кармен Видео)"],"quality":"bd","translation":"Полное дублирование (Мосфильм)","update":"2021-04-13 12:41:19","iframe_src":"//83.svetacdn.in/PfJ50H0ZBPg3/movie/47643"},{"id":47521,"title":"Войны роботов","kp_id":"38936","imdb_id":"tt0107979","world_art_id":null,"type":"movie","add":"2021-01-30 15:02:33","orig_title":"Robot Wars","year":"1993-04-28","translations":["Авторский (одноголосый закадровый) (Гаврилов Андрей)","Авторский (одноголосый закадровый) (Сербин Юрий)","Original (English)"],"quality":"bd","translation":"Авторский (одноголосый закадровый) (Гаврилов Андрей)","update":"2021-04-13 12:14:59","iframe_src":"//83.svetacdn.in/PfJ50H0ZBPg3/movie/47521"},{"id":46634,"title":"Связь через пиццерию","kp_id":"54694","imdb_id":"tt0089813","world_art_id":null,"type":"movie","add":"2021-01-03 10:37:35","orig_title":"Pizza Connection","year":"1985-01-25","translations":["Полное дублирование (Киностудия им. Горького)","Авторский (одноголосый закадровый) (Мудров Андрей)"],"quality":"webdl","translation":"Полное дублирование (Киностудия им. Горького)","update":"2021-04-13 15:13:01","iframe_src":"//83.svetacdn.in/PfJ50H0ZBPg3/movie/46634"},{"id":8691,"title":"Matchday: Изнутри ФК Барселона","kp_id":"1320880","imdb_id":"tt11122508","world_art_id":null,"type":"serial","add":"2020-09-10 18:59:21","orig_title":"Matchday: Inside FC Barcelona","year":"2019-11-29","translations":["Любительский (многоголосый закадровый) (ColdFilm)"],"seasons_count":1,"episodes_count":8,"episodes":8,"update":"2020-09-11 05:39:01","iframe_src":"//83.svetacdn.in/PfJ50H0ZBPg3/tv-series/8691"},{"id":8690,"title":"Бойкот","kp_id":"1380178","imdb_id":"tt11268644","world_art_id":null,"type":"serial","add":"2020-09-10 18:28:43","orig_title":"Blackballed","year":"2020-05-18","translations":["Любительский (многоголосый закадровый) (ColdFilm)"],"seasons_count":1,"episodes_count":12,"episodes":12,"update":"2020-09-10 20:54:28","iframe_src":"//83.svetacdn.in/PfJ50H0ZBPg3/tv-series/8690"},{"id":8689,"title":"Уличная еда: Латинская Америка","kp_id":"1395640","imdb_id":"tt12742136","world_art_id":null,"type":"serial","add":"2020-09-10 18:26:29","orig_title":"Street Food: Latin Americatt12742136","year":"2020-07-21","translations":["Любительский (многоголосый закадровый) (ColdFilm)"],"seasons_count":1,"episodes_count":6,"episodes":6,"update":"2020-09-10 20:48:43","iframe_src":"//83.svetacdn.in/PfJ50H0ZBPg3/tv-series/8689"},{"id":8688,"title":"По острию ножа","kp_id":"519095","imdb_id":"tt1107290","world_art_id":null,"type":"serial","add":"2020-09-10 17:15:15","orig_title":"Sur le fil","year":"2007-09-28","translations":["Любительский (многоголосый закадровый) (WestFilm)"],"seasons_count":3,"episodes_count":17,"episodes":6,"update":"2020-09-11 11:40:11","iframe_src":"//83.svetacdn.in/PfJ50H0ZBPg3/tv-series/8688"},{"id":8687,"title":"Задверье","kp_id":"402991","imdb_id":"tt0115288","world_art_id":null,"type":"serial","add":"2020-09-10 15:52:13","orig_title":"Neverwhere","year":"1996-09-12","translations":["Любительский (одноголосый закадровый) (Саня Белый)"],"seasons_count":1,"episodes_count":6,"episodes":6,"update":"2020-09-11 10:34:28","iframe_src":"//83.svetacdn.in/PfJ50H0ZBPg3/tv-series/8687"},{"id":8686,"title":"Цветы жизни","kp_id":"1311408","imdb_id":"tt9894434","world_art_id":null,"type":"serial","add":"2020-09-10 15:19:38","orig_title":"Faites des gosses","year":"2019-09-14","translations":["Любительский (многоголосый закадровый) (WestFilm)"],"seasons_count":1,"episodes_count":6,"episodes":6,"update":"2020-09-11 10:44:43","iframe_src":"//83.svetacdn.in/PfJ50H0ZBPg3/tv-series/8686"},{"id":8678,"title":"Детективы","kp_id":"789766","imdb_id":"tt2980074","world_art_id":null,"type":"serial","add":"2020-09-10 06:51:30","orig_title":"Détectives","year":"2013-05-22","translations":["Любительский (многоголосый закадровый) (WestFilm)"],"seasons_count":1,"episodes_count":8,"episodes":8,"update":"2020-09-11 05:44:59","iframe_src":"//83.svetacdn.in/PfJ50H0ZBPg3/tv-series/8678"},{"id":8673,"title":"За Сару","kp_id":null,"imdb_id":"tt4884714","world_art_id":null,"type":"serial","add":"2020-09-09 10:11:35","orig_title":"Pour Sarah","year":"2015-09-21","translations":["Любительский (многоголосый закадровый) (WestFilm)"],"seasons_count":1,"episodes_count":10,"episodes":10,"update":"2020-09-11 10:27:33","iframe_src":"//83.svetacdn.in/PfJ50H0ZBPg3/tv-series/8673"},{"id":8667,"title":"Валентина","kp_id":"520579","imdb_id":"tt0211879","world_art_id":null,"type":"serial","add":"2020-09-09 06:02:56","orig_title":"Valentina","year":"1993-01-01","translations":["Любительский (одноголосый закадровый) (Мадлен Дюваль)"],"seasons_count":1,"episodes_count":80,"episodes":80,"update":"2020-09-10 20:43:57","iframe_src":"//83.svetacdn.in/PfJ50H0ZBPg3/tv-series/8667"},{"id":8666,"title":"Каприз","kp_id":"523273","imdb_id":"tt0212651","world_art_id":null,"type":"serial","add":"2020-09-08 20:08:49","orig_title":"Capricho","year":"1993-01-11","translations":["Любительский (одноголосый закадровый) (Мадлен Дюваль)"],"seasons_count":1,"episodes_count":80,"episodes":80,"update":"2020-09-10 07:52:59","iframe_src":"//83.svetacdn.in/PfJ50H0ZBPg3/tv-series/8666"},{"id":8665,"title":"Сила желания","kp_id":"1040566","imdb_id":"tt6491190","world_art_id":null,"type":"serial","add":"2020-09-08 19:04:33","orig_title":"A Força do Querer","year":"2017-04-03","translations":["Любительский (двухголосый закадровый) (AveBrasil)"],"seasons_count":1,"episodes_count":91,"episodes":91,"update":"2020-09-09 19:43:19","iframe_src":"//83.svetacdn.in/PfJ50H0ZBPg3/tv-series/8665"},{"id":8661,"title":"Кафедра","kp_id":"331812","imdb_id":"tt0280809","world_art_id":null,"type":"serial","add":"2020-09-08 17:27:33","orig_title":"Kafedra","year":"1982-07-06","translations":["Оригинальная дорожка"],"seasons_count":1,"episodes_count":2,"episodes":2,"update":"2020-09-09 14:58:41","iframe_src":"//83.svetacdn.in/PfJ50H0ZBPg3/tv-series/8661"},{"id":8655,"title":"Двойная жизнь","kp_id":"1217307","imdb_id":"tt9348970","world_art_id":null,"type":"serial","add":"2020-09-08 11:24:54","orig_title":"Double vie","year":"2019-01-10","translations":["Любительский (многоголосый закадровый) (WestFilm)"],"seasons_count":1,"episodes_count":6,"episodes":6,"update":"2020-09-11 10:32:30","iframe_src":"//83.svetacdn.in/PfJ50H0ZBPg3/tv-series/8655"},{"id":8646,"title":"Тонкие материи","kp_id":"1272470","imdb_id":"tt12037240","world_art_id":null,"type":"serial","add":"2020-09-07 13:51:55","orig_title":"Tonkie Materii","year":"2020-09-07","translations":["Оригинальная дорожка"],"seasons_count":1,"episodes_count":8,"episodes":8,"update":"2020-09-11 09:14:01","iframe_src":"//83.svetacdn.in/PfJ50H0ZBPg3/tv-series/8646"},{"id":8384,"title":"Плохой гений","kp_id":"1340380","imdb_id":"tt11542210","world_art_id":null,"type":"serial","add":"2020-08-06 05:37:17","orig_title":"Bad Genius","year":"2020-08-03","translations":["Любительский (многоголосый закадровый) (Octopus)"],"seasons_count":1,"episodes_count":12,"episodes":12,"update":"2020-09-09 15:24:42","iframe_src":"//83.svetacdn.in/PfJ50H0ZBPg3/tv-series/8384"},{"id":8144,"title":"Долина соблазна","kp_id":"1220026","imdb_id":"tt9340526","world_art_id":null,"type":"serial","add":"2020-07-12 13:56:48","orig_title":"P-Valley","year":"2020-07-12","translations":["Любительский (многоголосый закадровый) (Octopus)","Любительский (многоголосый закадровый) (ColdFilm)","Профессиональный (многоголосый закадровый) (Novamedia)"],"seasons_count":1,"episodes_count":8,"episodes":8,"update":"2020-09-10 11:54:38","iframe_src":"//83.svetacdn.in/PfJ50H0ZBPg3/tv-series/8144"},{"id":7022,"title":"Ругаль","kp_id":"1297201","imdb_id":"tt11769798","world_art_id":null,"type":"serial","add":"2020-03-29 04:37:30","orig_title":"Rugal","year":"2020-03-28","translations":["Любительский (многоголосый закадровый) (ColdFilm)","Любительский (двухголосый закадровый) (SoftBox)","Любительский (двухголосый закадровый) (GREEN TEA)"],"seasons_count":1,"episodes_count":16,"episodes":16,"update":"2020-09-11 07:28:37","iframe_src":"//83.svetacdn.in/PfJ50H0ZBPg3/tv-series/7022"},{"id":6171,"title":"Страшилки","kp_id":"1199474","imdb_id":"tt7573024","world_art_id":null,"type":"serial","add":"2019-12-28 15:41:16","orig_title":"Creeped Out","year":"2017-10-31","translations":["Любительский (двухголосый закадровый) (GoldTeam)","Профессиональный (многоголосый закадровый) (HDrezka Studio)","Любительский (многоголосый закадровый) (WestFilm)","Профессиональный (многоголосый закадровый) (Первый ТВЧ)"],"seasons_count":2,"episodes_count":23,"episodes":10,"update":"2020-09-11 06:47:50","iframe_src":"//83.svetacdn.in/PfJ50H0ZBPg3/tv-series/6171"},{"id":5822,"title":"Смерть на языке цветов","kp_id":"1322672","imdb_id":null,"world_art_id":null,"type":"serial","add":"2019-11-24 23:05:42","orig_title":"Смерть на языке цветов","year":"2019-11-24","translations":["Оригинальная дорожка"],"seasons_count":1,"episodes_count":4,"episodes":4,"update":"2020-09-10 07:13:54","iframe_src":"//83.svetacdn.in/PfJ50H0ZBPg3/tv-series/5822"},{"id":5183,"title":"Рино 911","kp_id":"258553","imdb_id":"tt0370194","world_art_id":null,"type":"serial","add":"2019-09-11 06:23:13","orig_title":"Reno 911!","year":"2003-07-23","translations":["Профессиональный (одноголосый закадровый)","Любительский (многоголосый закадровый) (Octopus)","Любительский (многоголосый закадровый) (ColdFilm)"],"seasons_count":7,"episodes_count":113,"episodes":25,"update":"2020-09-10 20:09:26","iframe_src":"//83.svetacdn.in/PfJ50H0ZBPg3/tv-series/5183"},{"id":18092,"title":"Та ночь","kp_id":"8964","imdb_id":"tt0105572","world_art_id":null,"type":"movie","add":"2018-08-05 16:21:54","orig_title":"That Night","year":"1992-12-17","translations":["Профессиональный (двухголосый закадровый) (НТВ)","Авторский (одноголосый закадровый) (Дохалов Вартан)","Авторский (одноголосый закадровый) (Горчаков Василий)","Original (English)","Профессиональный (двухголосый закадровый) (НТВ)"],"quality":"webdl","translation":"Профессиональный (двухголосый закадровый) (НТВ)","update":"2021-04-13 11:35:54","iframe_src":"//83.svetacdn.in/PfJ50H0ZBPg3/movie/18092"},{"id":9000,"title":"Школа воров 2","kp_id":"103387","imdb_id":"tt0203092","world_art_id":null,"type":"movie","add":"2017-01-17 12:30:38","orig_title":"Scuola di ladri - Parte seconda","year":"1987-09-22","translations":["Профессиональный (многоголосый закадровый)","Любительский (одноголосый закадровый)","Профессиональный (многоголосый закадровый) (СТС)"],"quality":"hdtv","translation":"Профессиональный (многоголосый закадровый)","update":"2021-04-13 15:11:48","iframe_src":"//83.svetacdn.in/PfJ50H0ZBPg3/movie/9000"},{"id":8535,"title":"Великая стена","kp_id":"611822","imdb_id":"tt2034800","world_art_id":null,"type":"movie","add":"2017-01-03 04:53:49","orig_title":"The Great Wall","year":"2016-12-16","translations":["Полное дублирование","Авторский (одноголосый закадровый) (Гаврилов Андрей)","Original (English)","Авторский (одноголосый закадровый) (Гаврилов Андрей)","Original (English)","Любительский (одноголосый закадровый) (Солодухин Евгений | Solod)"],"quality":"bd","translation":"Полное дублирование","update":"2021-04-13 11:27:16","iframe_src":"//83.svetacdn.in/PfJ50H0ZBPg3/movie/8535"},{"id":1206,"title":"Мой парень – киллер","kp_id":"642609","imdb_id":"tt2091935","world_art_id":null,"type":"movie","add":"2016-04-18 11:14:24","orig_title":"Mr. Right","year":"2015-09-19","translations":["Любительский (многоголосый закадровый)","Полное дублирование (iTunes)","Original (English)","Авторский (одноголосый закадровый) (Чадов Михаил)","Original (English)","Любительский (многоголосый закадровый) (RecentFilms)"],"quality":"webdl","translation":"Любительский (многоголосый закадровый)","update":"2021-04-13 12:11:25","iframe_src":"//83.svetacdn.in/PfJ50H0ZBPg3/movie/1206"}],"current_page":158,"first_page_url":"https://videocdn.tv/api/short?limit=100&api_token=RgFQdUIR2dRmwv8iYa5SnFNgnw3vpjKj&cache3158=3158&page=1","from":15701,"last_page":635,"last_page_url":"https://videocdn.tv/api/short?limit=100&api_token=RgFQdUIR2dRmwv8iYa5SnFNgnw3vpjKj&cache3158=3158&page=635","next_page_url":"https://videocdn.tv/api/short?limit=100&api_token=RgFQdUIR2dRmwv8iYa5SnFNgnw3vpjKj&cache3158=3158&page=159","path":"https://videocdn.tv/api/short","per_page":100,"prev_page_url":"https://videocdn.tv/api/short?limit=100&api_token=RgFQdUIR2dRmwv8iYa5SnFNgnw3vpjKj&cache3158=3158&page=157","to":15740,"total":63457}