{"result":true,"data":[{"id":35690,"title":"Эта жизнь для тебя","kp_id":"311128","imdb_id":"tt0876572","world_art_id":null,"type":"movie","add":"2020-01-31 08:23:07","orig_title":"Die Zeit, die man Leben nennt","year":"2008-01-04","translations":["Профессиональный (многоголосый закадровый)"],"quality":"dvdrip","translation":"Профессиональный (многоголосый закадровый)","update":"2020-01-31 10:40:28","iframe_src":"//7043.svetacdn.in/71tsRs29n5tZ/movie/35690"},{"id":35681,"title":"ВелоциПастор","kp_id":"585682","imdb_id":"tt1843303","world_art_id":null,"type":"movie","add":"2020-01-30 23:56:05","orig_title":"The VelociPastor","year":"2018-08-31","translations":["Любительский (многоголосый закадровый) (Синема УС)"],"quality":"webdl","translation":"Любительский (многоголосый закадровый) (Синема УС)","update":"2020-01-31 10:47:07","iframe_src":"//7043.svetacdn.in/71tsRs29n5tZ/movie/35681"},{"id":35680,"title":"Близнецы Сильвер","kp_id":"926172","imdb_id":"tt4620298","world_art_id":null,"type":"movie","add":"2020-01-30 23:53:50","orig_title":"Silver Twins","year":"2017-07-28","translations":["Любительский (многоголосый закадровый) (Синема УС)"],"quality":"webdl","translation":"Любительский (многоголосый закадровый) (Синема УС)","update":"2020-01-31 10:44:00","iframe_src":"//7043.svetacdn.in/71tsRs29n5tZ/movie/35680"},{"id":35609,"title":"Опасные цветы","kp_id":"317802","imdb_id":"tt0756204","world_art_id":null,"type":"movie","add":"2020-01-29 08:28:52","orig_title":"Chai lai","year":"2006-01-26","translations":["Любительский (одноголосый закадровый)"],"quality":"bd","translation":"Любительский (одноголосый закадровый)","update":"2020-01-31 11:49:48","iframe_src":"//7043.svetacdn.in/71tsRs29n5tZ/movie/35609"},{"id":35608,"title":"Никогда не прощайся","kp_id":"999470","imdb_id":"tt6234666","world_art_id":null,"type":"movie","add":"2020-01-29 08:15:37","orig_title":"Huang yan xi xi li","year":"2016-08-09","translations":["Любительский (двухголосый закадровый)"],"quality":"hdtv","translation":"Любительский (двухголосый закадровый)","update":"2020-01-31 11:46:50","iframe_src":"//7043.svetacdn.in/71tsRs29n5tZ/movie/35608"},{"id":35607,"title":"Неприкаянная серебряная бабочка","kp_id":"276603","imdb_id":"tt0934442","world_art_id":null,"type":"movie","add":"2020-01-29 08:11:07","orig_title":"Ginchô wataridori","year":"1972-04-01","translations":["Любительский (одноголосый закадровый) (neko64)"],"quality":"dvdrip","translation":"Любительский (одноголосый закадровый) (neko64)","update":"2020-01-31 11:37:53","iframe_src":"//7043.svetacdn.in/71tsRs29n5tZ/movie/35607"},{"id":35606,"title":"Небесный ястреб","kp_id":"37180","imdb_id":"tt0071632","world_art_id":null,"type":"movie","add":"2020-01-29 08:05:11","orig_title":"Huang Fei Hong xiao lin quan","year":"1974-01-22","translations":["Авторский (одноголосый закадровый) (Кузнецов Сергей)"],"quality":"dvdrip","translation":"Авторский (одноголосый закадровый) (Кузнецов Сергей)","update":"2020-01-31 11:35:22","iframe_src":"//7043.svetacdn.in/71tsRs29n5tZ/movie/35606"},{"id":35605,"title":"Человеческая натура","kp_id":"893996","imdb_id":null,"world_art_id":null,"type":"movie","add":"2020-01-29 08:01:15","orig_title":"Naked Human Nature","year":"2012-01-01","translations":["Профессиональный (двухголосый закадровый)"],"quality":"dvdrip","translation":"Профессиональный (двухголосый закадровый)","update":"2020-01-31 11:34:11","iframe_src":"//7043.svetacdn.in/71tsRs29n5tZ/movie/35605"},{"id":35602,"title":"Красная тень","kp_id":"433127","imdb_id":"tt0199308","world_art_id":null,"type":"movie","add":"2020-01-29 07:27:07","orig_title":"Akai kage-bôshi","year":"1962-12-24","translations":["Авторский (одноголосый закадровый) (Кузнецов Сергей)"],"quality":"dvdrip","translation":"Авторский (одноголосый закадровый) (Кузнецов Сергей)","update":"2020-01-31 11:36:34","iframe_src":"//7043.svetacdn.in/71tsRs29n5tZ/movie/35602"},{"id":35601,"title":"Красная тень","kp_id":"55491","imdb_id":"tt0294280","world_art_id":null,"type":"movie","add":"2020-01-29 07:22:38","orig_title":"Red Shadow: Akakage","year":"2001-08-11","translations":["Профессиональный (двухголосый закадровый)"],"quality":"dvdrip","translation":"Профессиональный (двухголосый закадровый)","update":"2020-01-31 11:34:59","iframe_src":"//7043.svetacdn.in/71tsRs29n5tZ/movie/35601"},{"id":35559,"title":"Одиннадцатое сентября 1683 года","kp_id":"588065","imdb_id":"tt1899285","world_art_id":null,"type":"movie","add":"2020-01-28 09:36:01","orig_title":"11 settembre 1683","year":"2012-10-12","translations":["Профессиональный (многоголосый закадровый)"],"quality":"bd","translation":"Профессиональный (многоголосый закадровый)","update":"2020-01-31 10:28:11","iframe_src":"//7043.svetacdn.in/71tsRs29n5tZ/movie/35559"},{"id":35557,"title":"Бойфренд на Рождество","kp_id":"401489","imdb_id":"tt0385567","world_art_id":null,"type":"movie","add":"2020-01-28 09:25:00","orig_title":"A Boyfriend for Christmas","year":"2004-11-27","translations":["Профессиональный (двухголосый закадровый)"],"quality":"dvdrip","translation":"Профессиональный (двухголосый закадровый)","update":"2020-01-31 10:32:19","iframe_src":"//7043.svetacdn.in/71tsRs29n5tZ/movie/35557"},{"id":31324,"title":"Туннели смерти","kp_id":"279727","imdb_id":"tt0970462","world_art_id":null,"type":"movie","add":"2019-09-30 18:53:11","orig_title":"Tunnel Rats","year":"2008-05-31","translations":["Профессиональный (многоголосый закадровый) (CP Digital)","Original (English)"],"quality":"bd","translation":"Профессиональный (многоголосый закадровый) (CP Digital)","update":"2020-01-31 08:46:28","iframe_src":"//7043.svetacdn.in/71tsRs29n5tZ/movie/31324"},{"id":31249,"title":"Властелины стихий 2","kp_id":"409123","imdb_id":"tt1186371","world_art_id":null,"type":"movie","add":"2019-09-29 14:16:51","orig_title":"Fung wan II","year":"2009-12-10","translations":["Любительский (одноголосый закадровый)"],"quality":"bd","translation":"Любительский (одноголосый закадровый)","update":"2020-01-31 11:33:55","iframe_src":"//7043.svetacdn.in/71tsRs29n5tZ/movie/31249"},{"id":31247,"title":"Душа","kp_id":"312877","imdb_id":"tt1029241","world_art_id":null,"type":"movie","add":"2019-09-29 14:08:09","orig_title":"Vinyan","year":"2008-08-30","translations":["Профессиональный (двухголосый закадровый)","Original (English)"],"quality":"bd","translation":"Профессиональный (двухголосый закадровый)","update":"2020-01-31 08:48:02","iframe_src":"//7043.svetacdn.in/71tsRs29n5tZ/movie/31247"},{"id":31236,"title":"Шоу ужасов Рокки Хоррора","kp_id":"8138","imdb_id":"tt0073629","world_art_id":null,"type":"movie","add":"2019-09-27 13:06:05","orig_title":"The Rocky Horror Picture Show","year":"1975-08-14","translations":["Профессиональный (многоголосый закадровый)","Original (English)"],"quality":"bd","translation":"Профессиональный (многоголосый закадровый)","update":"2020-01-31 08:45:30","iframe_src":"//7043.svetacdn.in/71tsRs29n5tZ/movie/31236"},{"id":31227,"title":"Улицы в огне","kp_id":"2241","imdb_id":"tt0088194","world_art_id":null,"type":"movie","add":"2019-09-27 12:54:12","orig_title":"Streets of Fire","year":"1984-06-01","translations":["Профессиональный (двухголосый закадровый)","Original (English)"],"quality":"bd","translation":"Профессиональный (двухголосый закадровый)","update":"2020-01-31 08:41:43","iframe_src":"//7043.svetacdn.in/71tsRs29n5tZ/movie/31227"},{"id":30969,"title":"Миссионер","kp_id":"6746","imdb_id":"tt0083449","world_art_id":null,"type":"movie","add":"2019-09-18 19:36:44","orig_title":"The Missionary","year":"1982-11-05","translations":["Профессиональный (многоголосый закадровый) (Культура)","Original (English)"],"quality":"bd","translation":"Профессиональный (многоголосый закадровый) (Культура)","update":"2020-01-31 08:43:16","iframe_src":"//7043.svetacdn.in/71tsRs29n5tZ/movie/30969"},{"id":30798,"title":"Ужас Амитивилля","kp_id":"4101","imdb_id":"tt0078767","world_art_id":null,"type":"movie","add":"2019-09-12 05:29:03","orig_title":"The Amityville Horror","year":"1979-07-27","translations":["Профессиональный (многоголосый закадровый)","Original (English)"],"quality":"bd","translation":"Профессиональный (многоголосый закадровый)","update":"2020-01-31 08:42:34","iframe_src":"//7043.svetacdn.in/71tsRs29n5tZ/movie/30798"},{"id":19486,"title":"Выпускник","kp_id":"714493","imdb_id":"tt3144098","world_art_id":null,"type":"movie","add":"2018-10-10 22:53:45","orig_title":"Dongchangsaeng","year":"2013-11-06","translations":["Любительский (двухголосый закадровый) (GREEN TEA)","Любительский (многоголосый закадровый) (STEPonee)"],"quality":"bd","translation":"Любительский (двухголосый закадровый) (GREEN TEA)","update":"2020-01-31 11:51:01","iframe_src":"//7043.svetacdn.in/71tsRs29n5tZ/movie/19486"}],"current_page":855,"first_page_url":"https://videocdn.tv/api/short?limit=100&api_token=EnbO9h8pv1VyjbCJhg0WM9nG259n7mtz&cache3855=3855&page=1","from":85401,"last_page":614,"last_page_url":"https://videocdn.tv/api/short?limit=100&api_token=EnbO9h8pv1VyjbCJhg0WM9nG259n7mtz&cache3855=3855&page=614","next_page_url":null,"path":"https://videocdn.tv/api/short","per_page":100,"prev_page_url":"https://videocdn.tv/api/short?limit=100&api_token=EnbO9h8pv1VyjbCJhg0WM9nG259n7mtz&cache3855=3855&page=854","to":85420,"total":61324}