{"result":true,"data":[{"id":41077,"title":"Конфетная ведьма","kp_id":"1296168","imdb_id":"tt10843814","world_art_id":null,"type":"movie","add":"2020-06-09 20:13:57","orig_title":"The Candy Witch","year":"2020-06-08","translations":["Любительский (многоголосый закадровый) (@MUZOBOZ@)"],"quality":"webdl","translation":"Любительский (многоголосый закадровый) (@MUZOBOZ@)","update":"2020-06-10 04:48:27","iframe_src":"//83.svetacdn.in/PfJ50H0ZBPg3/movie/41077"},{"id":41068,"title":"Тысяча миль позади","kp_id":"1116555","imdb_id":"tt8123646","world_art_id":null,"type":"movie","add":"2020-06-09 13:00:51","orig_title":"A Thousand Miles Behind","year":"2019-02-18","translations":["Любительский (многоголосый закадровый) (Синема УС)"],"quality":"webdl","translation":"Любительский (многоголосый закадровый) (Синема УС)","update":"2020-06-10 06:26:49","iframe_src":"//83.svetacdn.in/PfJ50H0ZBPg3/movie/41068"},{"id":41064,"title":"Секер","kp_id":"566390","imdb_id":"tt1706480","world_art_id":null,"type":"movie","add":"2020-06-09 08:01:20","orig_title":"Seker","year":"2009-10-22","translations":["Профессиональный (многоголосый закадровый)"],"quality":"dvdrip","translation":"Профессиональный (многоголосый закадровый)","update":"2020-06-09 19:15:55","iframe_src":"//83.svetacdn.in/PfJ50H0ZBPg3/movie/41064"},{"id":41061,"title":"Евгений Гришковец: Планета","kp_id":"425998","imdb_id":null,"world_art_id":null,"type":"movie","add":"2020-06-09 07:39:37","orig_title":"Evgeniy Grishkovets: Planeta","year":"2005-01-01","translations":["Оригинальная дорожка"],"quality":"dvdrip","translation":"Оригинальная дорожка","update":"2020-06-09 19:21:12","iframe_src":"//83.svetacdn.in/PfJ50H0ZBPg3/movie/41061"},{"id":41059,"title":"Обитель дьявола","kp_id":"34799","imdb_id":"tt0312450","world_art_id":null,"type":"movie","add":"2020-06-09 07:34:09","orig_title":"Bells of Innocence","year":"2003-04-06","translations":["Профессиональный (многоголосый закадровый)"],"quality":"dvdrip","translation":"Профессиональный (многоголосый закадровый)","update":"2020-06-09 19:15:08","iframe_src":"//83.svetacdn.in/PfJ50H0ZBPg3/movie/41059"},{"id":41047,"title":"Народный проспект","kp_id":"1202506","imdb_id":"tt7697060","world_art_id":null,"type":"movie","add":"2020-06-08 20:13:48","orig_title":"Národní trída","year":"2019-09-26","translations":["Любительский (многоголосый закадровый) (Синема УС)"],"quality":"webdl","translation":"Любительский (многоголосый закадровый) (Синема УС)","update":"2020-06-09 13:31:38","iframe_src":"//83.svetacdn.in/PfJ50H0ZBPg3/movie/41047"},{"id":41042,"title":"Джинн","kp_id":"1263297","imdb_id":"tt10270114","world_art_id":null,"type":"movie","add":"2020-06-08 20:08:11","orig_title":"Cinnet","year":"2019-06-14","translations":["Любительский (многоголосый закадровый) (Синема УС)"],"quality":"webdl","translation":"Любительский (многоголосый закадровый) (Синема УС)","update":"2020-06-09 13:32:25","iframe_src":"//83.svetacdn.in/PfJ50H0ZBPg3/movie/41042"},{"id":41041,"title":"Неизвестный святой","kp_id":"1259302","imdb_id":"tt10077998","world_art_id":null,"type":"movie","add":"2020-06-08 20:07:07","orig_title":"Le Miracle du Saint Inconnu","year":"2019-05-15","translations":["Любительский (многоголосый закадровый) (Синема УС)"],"quality":"webdl","translation":"Любительский (многоголосый закадровый) (Синема УС)","update":"2020-06-09 13:33:03","iframe_src":"//83.svetacdn.in/PfJ50H0ZBPg3/movie/41041"},{"id":41040,"title":"Если только","kp_id":"1268465","imdb_id":"tt8134358","world_art_id":null,"type":"movie","add":"2020-06-08 19:46:38","orig_title":"Magari","year":"2019-08-07","translations":["Любительский (многоголосый закадровый) (Синема УС)"],"quality":"webdl","translation":"Любительский (многоголосый закадровый) (Синема УС)","update":"2020-06-09 13:34:09","iframe_src":"//83.svetacdn.in/PfJ50H0ZBPg3/movie/41040"},{"id":41039,"title":"Фаустина: Любовь и Милосердие","kp_id":"1249184","imdb_id":"tt10052290","world_art_id":null,"type":"movie","add":"2020-06-08 19:45:40","orig_title":"Milosc i milosierdzie","year":"2019-03-29","translations":["Любительский (многоголосый закадровый) (Синема УС)"],"quality":"webdl","translation":"Любительский (многоголосый закадровый) (Синема УС)","update":"2020-06-09 13:33:36","iframe_src":"//83.svetacdn.in/PfJ50H0ZBPg3/movie/41039"},{"id":41038,"title":"Нарушитель","kp_id":"1222105","imdb_id":"tt9384038","world_art_id":null,"type":"movie","add":"2020-06-08 19:44:17","orig_title":"Narusitel","year":"2019-01-24","translations":["Любительский (многоголосый закадровый) (Синема УС)"],"quality":"dvdrip","translation":"Любительский (многоголосый закадровый) (Синема УС)","update":"2020-06-09 13:35:19","iframe_src":"//83.svetacdn.in/PfJ50H0ZBPg3/movie/41038"},{"id":41037,"title":"Террористка","kp_id":"1180425","imdb_id":"tt8852702","world_art_id":null,"type":"movie","add":"2020-06-08 19:43:23","orig_title":"Teroristka","year":"2019-04-04","translations":["Любительский (многоголосый закадровый) (Синема УС)"],"quality":"webdl","translation":"Любительский (многоголосый закадровый) (Синема УС)","update":"2020-06-09 13:34:53","iframe_src":"//83.svetacdn.in/PfJ50H0ZBPg3/movie/41037"},{"id":41036,"title":"Всё будет","kp_id":"1164902","imdb_id":"tt8523292","world_art_id":null,"type":"movie","add":"2020-06-08 19:42:36","orig_title":"Vsechno bude","year":"2018-07-01","translations":["Любительский (многоголосый закадровый) (Синема УС)"],"quality":"webdl","translation":"Любительский (многоголосый закадровый) (Синема УС)","update":"2020-06-09 14:49:59","iframe_src":"//83.svetacdn.in/PfJ50H0ZBPg3/movie/41036"},{"id":40924,"title":"Обжора","kp_id":"51244","imdb_id":"tt0339482","world_art_id":null,"type":"movie","add":"2020-06-04 08:39:14","orig_title":"L'outremangeur","year":"2003-07-16","translations":["Профессиональный (многоголосый закадровый)"],"quality":"dvdrip","translation":"Профессиональный (многоголосый закадровый)","update":"2020-06-09 08:44:24","iframe_src":"//83.svetacdn.in/PfJ50H0ZBPg3/movie/40924"},{"id":40923,"title":"Комната 6","kp_id":"163215","imdb_id":"tt0451187","world_art_id":null,"type":"movie","add":"2020-06-04 08:35:16","orig_title":"Room 6","year":"2006-06-13","translations":["Профессиональный (двухголосый закадровый)"],"quality":"dvdrip","translation":"Профессиональный (двухголосый закадровый)","update":"2020-06-09 08:42:12","iframe_src":"//83.svetacdn.in/PfJ50H0ZBPg3/movie/40923"},{"id":40922,"title":"Ниже нуля","kp_id":"161093","imdb_id":"tt0386060","world_art_id":null,"type":"movie","add":"2020-06-04 08:29:57","orig_title":"Sub Zero","year":"2005-07-20","translations":["Профессиональный (многоголосый закадровый)"],"quality":"dvdrip","translation":"Профессиональный (многоголосый закадровый)","update":"2020-06-09 08:40:16","iframe_src":"//83.svetacdn.in/PfJ50H0ZBPg3/movie/40922"},{"id":40921,"title":"Доставка","kp_id":"36750","imdb_id":"tt0159603","world_art_id":null,"type":"movie","add":"2020-06-04 08:24:31","orig_title":"The Delivery","year":"1999-09-16","translations":["Авторский (одноголосый закадровый) (Карцев Пётр)"],"quality":"dvdrip","translation":"Авторский (одноголосый закадровый) (Карцев Пётр)","update":"2020-06-09 08:39:10","iframe_src":"//83.svetacdn.in/PfJ50H0ZBPg3/movie/40921"},{"id":40920,"title":"Сладкий обман","kp_id":"94470","imdb_id":"tt0160941","world_art_id":null,"type":"movie","add":"2020-06-04 07:53:56","orig_title":"Sweet Deception","year":"1998-08-02","translations":["Профессиональный (двухголосый закадровый)"],"quality":"webdl","translation":"Профессиональный (двухголосый закадровый)","update":"2020-06-09 08:37:45","iframe_src":"//83.svetacdn.in/PfJ50H0ZBPg3/movie/40920"},{"id":40917,"title":"Разборка в Гонконге","kp_id":"24738","imdb_id":"tt0124836","world_art_id":null,"type":"movie","add":"2020-06-04 07:40:07","orig_title":"Nu jing cha","year":"1973-04-26","translations":["Авторский (одноголосый закадровый) (Кашкин Александр | Первомайский)"],"quality":"dvdrip","translation":"Авторский (одноголосый закадровый) (Кашкин Александр | Первомайский)","update":"2020-06-09 08:34:03","iframe_src":"//83.svetacdn.in/PfJ50H0ZBPg3/movie/40917"},{"id":14299,"title":"Змея","kp_id":"992514","imdb_id":"tt5876412","world_art_id":null,"type":"movie","add":"2017-11-09 20:57:28","orig_title":"Serpent","year":"2017-06-17","translations":["Любительский (одноголосый закадровый) (Хихикающий доктор)","Любительский (многоголосый закадровый) (Синема УС)","Профессиональный (многоголосый закадровый) (iTunes)"],"quality":"webdl","translation":"Любительский (одноголосый закадровый) (Хихикающий доктор)","update":"2020-06-09 13:39:21","iframe_src":"//83.svetacdn.in/PfJ50H0ZBPg3/movie/14299"}],"current_page":759,"first_page_url":"https://videocdn.tv/api/short?limit=100&api_token=RgFQdUIR2dRmwv8iYa5SnFNgnw3vpjKj&cache3759=3759&page=1","from":75801,"last_page":653,"last_page_url":"https://videocdn.tv/api/short?limit=100&api_token=RgFQdUIR2dRmwv8iYa5SnFNgnw3vpjKj&cache3759=3759&page=653","next_page_url":null,"path":"https://videocdn.tv/api/short","per_page":100,"prev_page_url":"https://videocdn.tv/api/short?limit=100&api_token=RgFQdUIR2dRmwv8iYa5SnFNgnw3vpjKj&cache3759=3759&page=758","to":75820,"total":65279}