{"result":true,"data":[{"id":47060,"title":"Пианист от бога","kp_id":"1240767","imdb_id":"tt9647298","world_art_id":null,"type":"movie","add":"2021-01-13 21:13:12","orig_title":"God of the Piano","year":"2019-01-25","translations":["Любительский (многоголосый закадровый) (Синема УС)"],"quality":"webdl","translation":"Любительский (многоголосый закадровый) (Синема УС)","update":"2021-01-14 07:06:01","iframe_src":"//8543.svetacdn.in/71tsRs29n5tZ/movie/47060"},{"id":47041,"title":"Папье-Маше","kp_id":"1399018","imdb_id":null,"world_art_id":null,"type":"movie","add":"2021-01-13 12:36:29","orig_title":"Папье-Маше","year":"2020-12-18","translations":["Оригинальная дорожка"],"quality":"webdl","translation":"Оригинальная дорожка","update":"2021-01-13 18:12:58","iframe_src":"//8543.svetacdn.in/71tsRs29n5tZ/movie/47041"},{"id":47019,"title":"Угрызения 4: Театральный кружок","kp_id":"582756","imdb_id":"tt1833845","world_art_id":null,"type":"movie","add":"2021-01-12 22:05:36","orig_title":"Eating Out: Drama Camp","year":"2011-07-01","translations":["Авторский (одноголосый закадровый) (Кошкин Василий)"],"quality":"dvdrip","translation":"Авторский (одноголосый закадровый) (Кошкин Василий)","update":"2021-01-13 20:46:53","iframe_src":"//8543.svetacdn.in/71tsRs29n5tZ/movie/47019"},{"id":47017,"title":"Дикий тростник","kp_id":"35031","imdb_id":"tt0111019","world_art_id":null,"type":"movie","add":"2021-01-12 22:00:47","orig_title":"Les roseaux sauvages","year":"1994-06-01","translations":["Авторский (одноголосый закадровый) (Иванов Михаил)"],"quality":"dvdrip","translation":"Авторский (одноголосый закадровый) (Иванов Михаил)","update":"2021-01-13 20:47:59","iframe_src":"//8543.svetacdn.in/71tsRs29n5tZ/movie/47017"},{"id":47016,"title":"Угрызения","kp_id":"41933","imdb_id":"tt0372884","world_art_id":null,"type":"movie","add":"2021-01-12 21:56:19","orig_title":"Eating Out","year":"2004-02-14","translations":["Любительский (одноголосый закадровый)"],"quality":"dvdrip","translation":"Любительский (одноголосый закадровый)","update":"2021-01-13 20:48:42","iframe_src":"//8543.svetacdn.in/71tsRs29n5tZ/movie/47016"},{"id":47014,"title":"Угрызения 5: Отвязный уик-энд","kp_id":"582755","imdb_id":"tt1833846","world_art_id":null,"type":"movie","add":"2021-01-12 21:50:46","orig_title":"Eating Out: The Open Weekend","year":"2011-10-08","translations":["Авторский (одноголосый закадровый) (Кошкин Василий)"],"quality":"dvdrip","translation":"Авторский (одноголосый закадровый) (Кошкин Василий)","update":"2021-01-13 20:53:46","iframe_src":"//8543.svetacdn.in/71tsRs29n5tZ/movie/47014"},{"id":47013,"title":"Кузены","kp_id":"1287847","imdb_id":"tt10622790","world_art_id":null,"type":"movie","add":"2021-01-12 21:47:48","orig_title":"Primos","year":"2019-05-29","translations":["Любительский (одноголосый закадровый) (Ашмарин Анатолий)"],"quality":"hdrip","translation":"Любительский (одноголосый закадровый) (Ашмарин Анатолий)","update":"2021-01-13 20:54:06","iframe_src":"//8543.svetacdn.in/71tsRs29n5tZ/movie/47013"},{"id":47012,"title":"Сияние моря","kp_id":"922225","imdb_id":"tt4810828","world_art_id":null,"type":"movie","add":"2021-01-12 21:43:36","orig_title":"Lichtes Meer","year":"2015-04-24","translations":["Любительский (одноголосый закадровый)"],"quality":"hdrip","translation":"Любительский (одноголосый закадровый)","update":"2021-01-13 20:54:36","iframe_src":"//8543.svetacdn.in/71tsRs29n5tZ/movie/47012"},{"id":47011,"title":"Улица плохих парней","kp_id":"690808","imdb_id":"tt2240764","world_art_id":null,"type":"movie","add":"2021-01-12 21:40:13","orig_title":"Bad Boy Street","year":"2012-07-19","translations":["Любительский (одноголосый закадровый)"],"quality":"dvdrip","translation":"Любительский (одноголосый закадровый)","update":"2021-01-13 20:55:02","iframe_src":"//8543.svetacdn.in/71tsRs29n5tZ/movie/47011"},{"id":47009,"title":"Голыми, как пришли","kp_id":"807068","imdb_id":"tt1754257","world_art_id":null,"type":"movie","add":"2021-01-12 21:32:50","orig_title":"Naked As We Came","year":"2012-06-24","translations":["Любительский (одноголосый закадровый) (datynet)"],"quality":"dvdrip","translation":"Любительский (одноголосый закадровый) (datynet)","update":"2021-01-13 21:01:27","iframe_src":"//8543.svetacdn.in/71tsRs29n5tZ/movie/47009"},{"id":47008,"title":"Я, счастье этого мира","kp_id":"761195","imdb_id":"tt2871256","world_art_id":null,"type":"movie","add":"2021-01-12 21:29:16","orig_title":"Yo soy la felicidad de este mundo","year":"2014-05-04","translations":["Авторский (одноголосый закадровый) (Иванов Михаил)"],"quality":"webdl","translation":"Авторский (одноголосый закадровый) (Иванов Михаил)","update":"2021-01-13 21:01:53","iframe_src":"//8543.svetacdn.in/71tsRs29n5tZ/movie/47008"},{"id":46940,"title":"Живая вода","kp_id":"710856","imdb_id":"tt4680670","world_art_id":null,"type":"movie","add":"2021-01-12 09:27:08","orig_title":"Zhivaya voda","year":"1972-03-06","translations":["Оригинальная дорожка"],"quality":"vhs","translation":"Оригинальная дорожка","update":"2021-01-14 08:14:41","iframe_src":"//8543.svetacdn.in/71tsRs29n5tZ/movie/46940"},{"id":46939,"title":"Следствие продолжается","kp_id":"43841","imdb_id":"tt0314679","world_art_id":null,"type":"movie","add":"2021-01-12 09:21:07","orig_title":"Istintaq davam edir","year":"1967-12-14","translations":["Полное дублирование"],"quality":"tv","translation":"Полное дублирование","update":"2021-01-14 08:10:16","iframe_src":"//8543.svetacdn.in/71tsRs29n5tZ/movie/46939"},{"id":46936,"title":"Три дня праздника","kp_id":"776790","imdb_id":"tt12180966","world_art_id":null,"type":"movie","add":"2021-01-12 09:13:27","orig_title":"Tri dnya prazdnika","year":"1981-08-01","translations":["Оригинальная дорожка"],"quality":"vhs","translation":"Оригинальная дорожка","update":"2021-01-14 08:09:27","iframe_src":"//8543.svetacdn.in/71tsRs29n5tZ/movie/46936"},{"id":46914,"title":"Кристофер и ему подобные","kp_id":"518330","imdb_id":"tt1651062","world_art_id":null,"type":"movie","add":"2021-01-11 19:41:22","orig_title":"Christopher and His Kind","year":"2011-02-20","translations":["Original (English)","Любительский (одноголосый закадровый)"],"quality":"hdtv","translation":"Original (English)","update":"2021-01-13 20:48:20","iframe_src":"//8543.svetacdn.in/71tsRs29n5tZ/movie/46914"},{"id":46871,"title":"Девушки Харви","kp_id":"13270","imdb_id":"tt0038589","world_art_id":null,"type":"movie","add":"2021-01-10 15:30:23","orig_title":"The Harvey Girls","year":"1946-01-18","translations":["Профессиональный (многоголосый закадровый)"],"quality":"bd","translation":"Профессиональный (многоголосый закадровый)","update":"2021-01-13 14:49:40","iframe_src":"//8543.svetacdn.in/71tsRs29n5tZ/movie/46871"},{"id":46113,"title":"В омут с головой","kp_id":"1381270","imdb_id":"tt12312466","world_art_id":null,"type":"movie","add":"2020-12-16 08:40:52","orig_title":"Into the Flames","year":"2020-12-10","translations":["Любительский (многоголосый закадровый) (Синема УС)","Original (English)"],"quality":"webdl","translation":"Любительский (многоголосый закадровый) (Синема УС)","update":"2021-01-13 14:48:33","iframe_src":"//8543.svetacdn.in/71tsRs29n5tZ/movie/46113"},{"id":8301,"title":"Варенька: И в горе, и в радости","kp_id":"521525","imdb_id":"tt3748650","world_art_id":null,"type":"serial","add":"2020-07-31 09:15:41","orig_title":"Varen'ka: I v gore, i v radosti","year":"2011-04-30","translations":["Оригинальная дорожка"],"seasons_count":1,"episodes_count":12,"episodes":12,"update":"2020-07-31 14:41:32","iframe_src":"//8543.svetacdn.in/71tsRs29n5tZ/tv-series/8301"},{"id":8300,"title":"Такая обычная жизнь","kp_id":"523241","imdb_id":"tt3306796","world_art_id":null,"type":"serial","add":"2020-07-31 09:05:33","orig_title":"Takaya obychnaya zhizn'","year":"2010-01-01","translations":["Оригинальная дорожка"],"seasons_count":1,"episodes_count":45,"episodes":45,"update":"2020-07-31 14:31:22","iframe_src":"//8543.svetacdn.in/71tsRs29n5tZ/tv-series/8300"},{"id":8299,"title":"Варенька. Продолжение","kp_id":"460409","imdb_id":null,"world_art_id":null,"type":"serial","add":"2020-07-31 08:53:14","orig_title":"Варенька. Продолжение","year":"2009-10-24","translations":["Оригинальная дорожка"],"seasons_count":1,"episodes_count":8,"episodes":8,"update":"2020-07-31 14:25:55","iframe_src":"//8543.svetacdn.in/71tsRs29n5tZ/tv-series/8299"},{"id":8298,"title":"Миллионы в сети","kp_id":"893927","imdb_id":null,"world_art_id":null,"type":"serial","add":"2020-07-31 08:39:52","orig_title":"Миллионы в сети","year":"2015-04-20","translations":["Оригинальная дорожка"],"seasons_count":1,"episodes_count":12,"episodes":12,"update":"2020-07-31 14:17:49","iframe_src":"//8543.svetacdn.in/71tsRs29n5tZ/tv-series/8298"},{"id":8297,"title":"Мушкетёры Екатерины","kp_id":"419537","imdb_id":"tt7214422","world_art_id":null,"type":"serial","add":"2020-07-31 07:59:51","orig_title":"Mushketory Yekateriny","year":"2009-03-24","translations":["Оригинальная дорожка"],"seasons_count":1,"episodes_count":12,"episodes":12,"update":"2020-07-31 13:06:05","iframe_src":"//8543.svetacdn.in/71tsRs29n5tZ/tv-series/8297"},{"id":8296,"title":"Катя: Военная история","kp_id":"460140","imdb_id":null,"world_art_id":null,"type":"serial","add":"2020-07-31 07:53:41","orig_title":"Katya: Voyennaya istoriya","year":"2009-05-04","translations":["Оригинальная дорожка"],"seasons_count":1,"episodes_count":12,"episodes":12,"update":"2020-07-31 13:23:09","iframe_src":"//8543.svetacdn.in/71tsRs29n5tZ/tv-series/8296"},{"id":8295,"title":"Основная версия","kp_id":"481450","imdb_id":"tt4000498","world_art_id":null,"type":"serial","add":"2020-07-31 07:04:01","orig_title":"Osnovnaya versiya","year":"2010-01-01","translations":["Оригинальная дорожка"],"seasons_count":1,"episodes_count":12,"episodes":12,"update":"2020-07-31 13:43:01","iframe_src":"//8543.svetacdn.in/71tsRs29n5tZ/tv-series/8295"},{"id":8294,"title":"Контраптус — гений!","kp_id":"661153","imdb_id":null,"world_art_id":null,"type":"serial","add":"2020-07-31 06:03:37","orig_title":"Contraptus","year":"2009-01-01","translations":["Полное дублирование"],"seasons_count":1,"episodes_count":78,"episodes":78,"update":"2020-07-31 13:36:51","iframe_src":"//8543.svetacdn.in/71tsRs29n5tZ/tv-series/8294"},{"id":8285,"title":"Преступление будет раскрыто","kp_id":"447095","imdb_id":"tt1333503","world_art_id":null,"type":"serial","add":"2020-07-29 13:01:09","orig_title":"Prestupleniye budet raskryto","year":"2009-01-01","translations":["Оригинальная дорожка"],"seasons_count":2,"episodes_count":40,"episodes":24,"update":"2020-07-31 13:50:39","iframe_src":"//8543.svetacdn.in/71tsRs29n5tZ/tv-series/8285"},{"id":8279,"title":"Невероятная история","kp_id":"523318","imdb_id":"tt1494829","world_art_id":null,"type":"serial","add":"2020-07-28 21:14:14","orig_title":"Unnatural History","year":"2010-06-13","translations":["Любительский (одноголосый закадровый)"],"seasons_count":1,"episodes_count":13,"episodes":13,"update":"2020-07-30 20:30:24","iframe_src":"//8543.svetacdn.in/71tsRs29n5tZ/tv-series/8279"},{"id":8277,"title":"Доктор Тырса","kp_id":"468098","imdb_id":"tt2063208","world_art_id":null,"type":"serial","add":"2020-07-28 13:05:48","orig_title":"Doktor Tyrsa","year":"2010-09-05","translations":["Оригинальная дорожка"],"seasons_count":1,"episodes_count":24,"episodes":24,"update":"2020-07-30 20:51:24","iframe_src":"//8543.svetacdn.in/71tsRs29n5tZ/tv-series/8277"},{"id":8276,"title":"Крыса","kp_id":"503227","imdb_id":"tt1617643","world_art_id":null,"type":"serial","add":"2020-07-28 13:03:45","orig_title":"Krysa","year":"2010-09-25","translations":["Оригинальная дорожка"],"seasons_count":1,"episodes_count":4,"episodes":4,"update":"2020-07-30 20:36:46","iframe_src":"//8543.svetacdn.in/71tsRs29n5tZ/tv-series/8276"},{"id":8274,"title":"Подкидной","kp_id":"468357","imdb_id":"tt4399232","world_art_id":null,"type":"serial","add":"2020-07-28 12:55:38","orig_title":"Podkidnoy","year":"2005-01-01","translations":["Оригинальная дорожка"],"seasons_count":1,"episodes_count":1,"episodes":1,"update":"2020-07-30 20:31:42","iframe_src":"//8543.svetacdn.in/71tsRs29n5tZ/tv-series/8274"},{"id":8268,"title":"Ударная сила","kp_id":"431166","imdb_id":"tt4573374","world_art_id":null,"type":"serial","add":"2020-07-27 21:26:23","orig_title":"Udarnaya sila","year":"2002-07-01","translations":["Оригинальная дорожка","Любительский (многоголосый закадровый) (Синема УС)"],"seasons_count":1,"episodes_count":176,"episodes":176,"update":"2020-07-31 10:44:58","iframe_src":"//8543.svetacdn.in/71tsRs29n5tZ/tv-series/8268"},{"id":8240,"title":"ДжиФайтерс. Город супергероев","kp_id":"1280358","imdb_id":null,"world_art_id":null,"type":"serial","add":"2020-07-23 17:19:16","orig_title":"G FIGHTERS","year":"2016-01-01","translations":["Полное дублирование (CLS Media)"],"seasons_count":1,"episodes_count":26,"episodes":26,"update":"2020-07-31 07:04:42","iframe_src":"//8543.svetacdn.in/71tsRs29n5tZ/tv-series/8240"},{"id":8212,"title":"Нюрнберг","kp_id":"93564","imdb_id":"tt0208629","world_art_id":null,"type":"serial","add":"2020-07-20 12:13:46","orig_title":"Nuremberg","year":"2000-07-16","translations":["Профессиональный (многоголосый закадровый) (СТС)"],"seasons_count":1,"episodes_count":2,"episodes":2,"update":"2020-07-30 20:34:34","iframe_src":"//8543.svetacdn.in/71tsRs29n5tZ/tv-series/8212"},{"id":8100,"title":"Погнали!","kp_id":"1194861","imdb_id":null,"world_art_id":null,"type":"serial","add":"2020-07-06 10:31:55","orig_title":"Погнали!","year":"2020-07-06","translations":["Оригинальная дорожка"],"seasons_count":1,"episodes_count":21,"episodes":21,"update":"2020-07-31 05:39:53","iframe_src":"//8543.svetacdn.in/71tsRs29n5tZ/tv-series/8100"},{"id":26637,"title":"Парад планет","kp_id":"42887","imdb_id":"tt0087878","world_art_id":null,"type":"movie","add":"2019-05-16 21:12:31","orig_title":"Parad planet","year":"1984-11-23","translations":["Оригинальная дорожка","Оригинальная дорожка"],"quality":"dvdrip","translation":"Оригинальная дорожка","update":"2021-01-14 08:12:04","iframe_src":"//8543.svetacdn.in/71tsRs29n5tZ/movie/26637"},{"id":26483,"title":"Ночь над Чили","kp_id":"46451","imdb_id":"tt0076465","world_art_id":null,"type":"movie","add":"2019-05-14 07:46:37","orig_title":"Noch nad Chili","year":"1977-05-17","translations":["Оригинальная дорожка","Оригинальная дорожка"],"quality":"dvdrip","translation":"Оригинальная дорожка","update":"2021-01-14 08:13:11","iframe_src":"//8543.svetacdn.in/71tsRs29n5tZ/movie/26483"},{"id":4151,"title":"Маленькие убийства","kp_id":"1097438","imdb_id":"tt7535994","world_art_id":null,"type":"serial","add":"2019-02-25 12:06:02","orig_title":"Ufak Tefek Cinayetler","year":"2017-10-24","translations":["Профессиональный (многоголосый закадровый) (GreenРай Studio)","Профессиональный (многоголосый закадровый) (Gold Cinema)"],"seasons_count":1,"episodes_count":32,"episodes":32,"update":"2020-07-31 11:29:49","iframe_src":"//8543.svetacdn.in/71tsRs29n5tZ/tv-series/4151"},{"id":2866,"title":"Щит","kp_id":"229080","imdb_id":"tt0286486","world_art_id":null,"type":"serial","add":"2018-06-25 10:09:14","orig_title":"The Shield","year":"2002-03-12","translations":["Профессиональный (многоголосый закадровый) (СТС)","Профессиональный (многоголосый закадровый) (Selena International)"],"seasons_count":7,"episodes_count":88,"episodes":13,"update":"2020-07-31 08:05:08","iframe_src":"//8543.svetacdn.in/71tsRs29n5tZ/tv-series/2866"},{"id":7012,"title":"Побег невозможен","kp_id":"2277","imdb_id":"tt0110678","world_art_id":null,"type":"movie","add":"2016-11-03 12:51:30","orig_title":"No Escape","year":"1994-04-29","translations":["Профессиональный (многоголосый закадровый) (Видеосервис)","Original (English)","Авторский (одноголосый закадровый) (Чадов Михаил)","Авторский (одноголосый закадровый) (Михалёв Алексей)"],"quality":"bd","translation":"Профессиональный (многоголосый закадровый) (Видеосервис)","update":"2021-01-13 14:49:40","iframe_src":"//8543.svetacdn.in/71tsRs29n5tZ/movie/7012"},{"id":265,"title":"Ты, я, она","kp_id":"982768","imdb_id":"tt5179408","world_art_id":null,"type":"serial","add":"2016-07-06 13:40:05","orig_title":"You Me Her","year":"2016-03-22","translations":["Любительский (двухголосый закадровый) (Kiitos)","Профессиональный (многоголосый закадровый) (HDrezka Studio)","Профессиональный (многоголосый закадровый) (BaibaKo)","Любительский (двухголосый закадровый) (GoldTeam)","Любительский (многоголосый закадровый) (Octopus)"],"seasons_count":5,"episodes_count":50,"episodes":10,"update":"2020-07-31 10:31:48","iframe_src":"//8543.svetacdn.in/71tsRs29n5tZ/tv-series/265"}],"current_page":132,"first_page_url":"https://videocdn.tv/api/short?limit=100&api_token=EnbO9h8pv1VyjbCJhg0WM9nG259n7mtz&cache3132=3132&page=1","from":13101,"last_page":599,"last_page_url":"https://videocdn.tv/api/short?limit=100&api_token=EnbO9h8pv1VyjbCJhg0WM9nG259n7mtz&cache3132=3132&page=599","next_page_url":"https://videocdn.tv/api/short?limit=100&api_token=EnbO9h8pv1VyjbCJhg0WM9nG259n7mtz&cache3132=3132&page=133","path":"https://videocdn.tv/api/short","per_page":100,"prev_page_url":"https://videocdn.tv/api/short?limit=100&api_token=EnbO9h8pv1VyjbCJhg0WM9nG259n7mtz&cache3132=3132&page=131","to":13140,"total":59870}