{"result":true,"data":[{"id":43716,"title":"Бедокуры","kp_id":"632475","imdb_id":"tt5871742","world_art_id":null,"type":"movie","add":"2020-09-21 17:14:14","orig_title":"Bedokury","year":"1982-01-01","translations":["Оригинальная дорожка"],"quality":"dvb","translation":"Оригинальная дорожка","update":"2020-09-23 07:00:08","iframe_src":"//5091.svetacdn.in/si4jsFRrtgrT/movie/43716"},{"id":43715,"title":"Великан-эгоист","kp_id":"801314","imdb_id":"tt5871766","world_art_id":null,"type":"movie","add":"2020-09-21 17:11:35","orig_title":"Velikan-egoist","year":"1982-01-01","translations":["Оригинальная дорожка"],"quality":"dvdrip","translation":"Оригинальная дорожка","update":"2020-09-23 06:59:26","iframe_src":"//5091.svetacdn.in/si4jsFRrtgrT/movie/43715"},{"id":43714,"title":"Волшебный клад","kp_id":"257885","imdb_id":"tt4162812","world_art_id":null,"type":"movie","add":"2020-09-21 17:09:42","orig_title":"Volshebnyy klad","year":"1950-01-19","translations":["Оригинальная дорожка"],"quality":"dvdrip","translation":"Оригинальная дорожка","update":"2020-09-23 06:58:47","iframe_src":"//5091.svetacdn.in/si4jsFRrtgrT/movie/43714"},{"id":43713,"title":"Завтрак на траве","kp_id":"373393","imdb_id":"tt0383335","world_art_id":null,"type":"movie","add":"2020-09-21 17:07:08","orig_title":"Eine murul","year":"1987-12-13","translations":["Оригинальная дорожка"],"quality":"sat","translation":"Оригинальная дорожка","update":"2020-09-23 06:58:04","iframe_src":"//5091.svetacdn.in/si4jsFRrtgrT/movie/43713"},{"id":43711,"title":"Находчивый крестьянин","kp_id":"1008042","imdb_id":null,"world_art_id":null,"type":"movie","add":"2020-09-21 16:56:52","orig_title":"Находчивый крестьянин","year":"1984-01-01","translations":["Оригинальная дорожка"],"quality":"dvdrip","translation":"Оригинальная дорожка","update":"2020-09-23 06:55:32","iframe_src":"//5091.svetacdn.in/si4jsFRrtgrT/movie/43711"},{"id":43710,"title":"Солнечный зайчик","kp_id":"565237","imdb_id":"tt6416674","world_art_id":null,"type":"movie","add":"2020-09-21 16:45:57","orig_title":"Solnechniy zaychik","year":"1978-01-01","translations":["Оригинальная дорожка"],"quality":"dvdrip","translation":"Оригинальная дорожка","update":"2020-09-23 06:52:51","iframe_src":"//5091.svetacdn.in/si4jsFRrtgrT/movie/43710"},{"id":43695,"title":"Кикос","kp_id":"169951","imdb_id":"tt0441644","world_art_id":null,"type":"movie","add":"2020-09-20 16:23:40","orig_title":"Kikos","year":"1979-01-01","translations":["Оригинальная дорожка"],"quality":"dvdrip","translation":"Оригинальная дорожка","update":"2020-09-23 06:52:17","iframe_src":"//5091.svetacdn.in/si4jsFRrtgrT/movie/43695"},{"id":43694,"title":"Золотая шпага","kp_id":"263473","imdb_id":"tt0818924","world_art_id":null,"type":"movie","add":"2020-09-20 16:21:39","orig_title":"Zolotaya shpaga","year":"1990-09-06","translations":["Оригинальная дорожка"],"quality":"webdl","translation":"Оригинальная дорожка","update":"2020-09-23 06:51:29","iframe_src":"//5091.svetacdn.in/si4jsFRrtgrT/movie/43694"},{"id":43693,"title":"Лисичка со скалочкой","kp_id":"591829","imdb_id":"tt6405722","world_art_id":null,"type":"movie","add":"2020-09-20 16:19:05","orig_title":"Lisichka so skalochkoy","year":"1977-01-01","translations":["Оригинальная дорожка"],"quality":"dvdrip","translation":"Оригинальная дорожка","update":"2020-09-23 06:50:46","iframe_src":"//5091.svetacdn.in/si4jsFRrtgrT/movie/43693"},{"id":43692,"title":"Медной горы хозяйка","kp_id":"308188","imdb_id":"tt0949887","world_art_id":null,"type":"movie","add":"2020-09-20 16:16:59","orig_title":"Mednoy gory khozyayka","year":"1975-01-01","translations":["Оригинальная дорожка"],"quality":"dvdrip","translation":"Оригинальная дорожка","update":"2020-09-23 06:45:17","iframe_src":"//5091.svetacdn.in/si4jsFRrtgrT/movie/43692"},{"id":43691,"title":"Отшельник и роза","kp_id":"259925","imdb_id":"tt6405654","world_art_id":null,"type":"movie","add":"2020-09-20 16:14:40","orig_title":"Otshelnik i roza","year":"1980-01-01","translations":["Оригинальная дорожка"],"quality":"dvdrip","translation":"Оригинальная дорожка","update":"2020-09-23 06:44:46","iframe_src":"//5091.svetacdn.in/si4jsFRrtgrT/movie/43691"},{"id":43690,"title":"Пересолил","kp_id":"632530","imdb_id":"tt4611560","world_art_id":null,"type":"movie","add":"2020-09-20 16:08:24","orig_title":"Peresolil","year":"1959-01-01","translations":["Оригинальная дорожка"],"quality":"sat","translation":"Оригинальная дорожка","update":"2020-09-23 06:41:52","iframe_src":"//5091.svetacdn.in/si4jsFRrtgrT/movie/43690"},{"id":43689,"title":"В мире пернатых","kp_id":"818389","imdb_id":"tt6484788","world_art_id":null,"type":"movie","add":"2020-09-20 16:03:13","orig_title":"V mire pernatykh","year":"1974-01-01","translations":["Оригинальная дорожка"],"quality":"dvdrip","translation":"Оригинальная дорожка","update":"2020-09-23 06:41:09","iframe_src":"//5091.svetacdn.in/si4jsFRrtgrT/movie/43689"},{"id":43641,"title":"Полет на Луну","kp_id":"257887","imdb_id":"tt3788712","world_art_id":null,"type":"movie","add":"2020-09-17 21:14:47","orig_title":"Polyot na Lunu","year":"1953-01-01","translations":["Оригинальная дорожка"],"quality":"dvdrip","translation":"Оригинальная дорожка","update":"2020-09-23 06:39:50","iframe_src":"//5091.svetacdn.in/si4jsFRrtgrT/movie/43641"},{"id":43640,"title":"Правитель Турропуто","kp_id":"1108399","imdb_id":"tt9716820","world_art_id":null,"type":"movie","add":"2020-09-17 21:12:36","orig_title":"Pravitel Turroputo","year":"1988-01-01","translations":["Оригинальная дорожка"],"quality":"dvdrip","translation":"Оригинальная дорожка","update":"2020-09-23 06:39:16","iframe_src":"//5091.svetacdn.in/si4jsFRrtgrT/movie/43640"},{"id":43638,"title":"Шкатулка с секретом","kp_id":"455364","imdb_id":"tt3359646","world_art_id":null,"type":"movie","add":"2020-09-17 21:06:52","orig_title":"Shkatulka s sekretom","year":"1976-01-01","translations":["Оригинальная дорожка"],"quality":"dvdrip","translation":"Оригинальная дорожка","update":"2020-09-23 06:36:44","iframe_src":"//5091.svetacdn.in/si4jsFRrtgrT/movie/43638"},{"id":43637,"title":"Волчья шкура","kp_id":"1008336","imdb_id":null,"world_art_id":null,"type":"movie","add":"2020-09-17 21:04:48","orig_title":"Волчья шкура","year":"1982-01-01","translations":["Оригинальная дорожка"],"quality":"sat","translation":"Оригинальная дорожка","update":"2020-09-23 06:35:34","iframe_src":"//5091.svetacdn.in/si4jsFRrtgrT/movie/43637"},{"id":43636,"title":"Песни весне","kp_id":"137805","imdb_id":"tt0452300","world_art_id":null,"type":"movie","add":"2020-09-17 21:00:52","orig_title":"Laulud kevadele","year":"1975-01-01","translations":["Оригинальная дорожка"],"quality":"vhs","translation":"Оригинальная дорожка","update":"2020-09-23 06:34:27","iframe_src":"//5091.svetacdn.in/si4jsFRrtgrT/movie/43636"},{"id":43635,"title":"Малахитовая шкатулка","kp_id":"321413","imdb_id":"tt0949886","world_art_id":null,"type":"movie","add":"2020-09-17 20:43:45","orig_title":"Malakhitovaya shkatulka","year":"1976-08-06","translations":["Оригинальная дорожка"],"quality":"dvdrip","translation":"Оригинальная дорожка","update":"2020-09-23 06:32:47","iframe_src":"//5091.svetacdn.in/si4jsFRrtgrT/movie/43635"},{"id":43634,"title":"Нищий","kp_id":"451151","imdb_id":"tt1075338","world_art_id":null,"type":"movie","add":"2020-09-17 20:41:18","orig_title":"Kerjus","year":"1985-01-01","translations":["Оригинальная дорожка"],"quality":"vhs","translation":"Оригинальная дорожка","update":"2020-09-23 06:32:05","iframe_src":"//5091.svetacdn.in/si4jsFRrtgrT/movie/43634"}],"current_page":671,"first_page_url":"https://videocdn.tv/api/short?limit=100&api_token=X6EwAUfE5M9xbo7y0Bp0aPf3uXxG2KLL&cache3671=3671&page=1","from":67001,"last_page":665,"last_page_url":"https://videocdn.tv/api/short?limit=100&api_token=X6EwAUfE5M9xbo7y0Bp0aPf3uXxG2KLL&cache3671=3671&page=665","next_page_url":null,"path":"https://videocdn.tv/api/short","per_page":100,"prev_page_url":"https://videocdn.tv/api/short?limit=100&api_token=X6EwAUfE5M9xbo7y0Bp0aPf3uXxG2KLL&cache3671=3671&page=670","to":67020,"total":66477}