{"result":true,"data":[{"id":41168,"title":"Полнозарядные угри","kp_id":"1172746","imdb_id":"tt8696026","world_art_id":null,"type":"movie","add":"2020-06-13 20:04:58","orig_title":"Úhori mají nabito","year":"2019-02-21","translations":["Любительский (многоголосый закадровый) (AlphaProject)"],"quality":"webdl","translation":"Любительский (многоголосый закадровый) (AlphaProject)","update":"2020-06-14 06:08:59","iframe_src":"//5322.svetacdn.in/IAF0wWTdNYZm/movie/41168"},{"id":41167,"title":"Золотой бросок","kp_id":"1155633","imdb_id":"tt7822050","world_art_id":null,"type":"movie","add":"2020-06-13 19:54:39","orig_title":"Zlatý podraz","year":"2018-10-25","translations":["Любительский (многоголосый закадровый) (Синема УС)"],"quality":"webdl","translation":"Любительский (многоголосый закадровый) (Синема УС)","update":"2020-06-14 06:59:01","iframe_src":"//5322.svetacdn.in/IAF0wWTdNYZm/movie/41167"},{"id":41166,"title":"Уговор","kp_id":"1128239","imdb_id":"tt8286090","world_art_id":null,"type":"movie","add":"2020-06-13 19:52:21","orig_title":"Promised","year":"2019-10-24","translations":["Любительский (многоголосый закадровый) (Синема УС)"],"quality":"webdl","translation":"Любительский (многоголосый закадровый) (Синема УС)","update":"2020-06-14 06:59:55","iframe_src":"//5322.svetacdn.in/IAF0wWTdNYZm/movie/41166"},{"id":41165,"title":"Любовь старичка: Любовь или смерть","kp_id":"1282859","imdb_id":null,"world_art_id":null,"type":"movie","add":"2020-06-13 19:49:47","orig_title":"Gekijoban Ossan zu Rabu Love or Dead","year":"2019-08-23","translations":["Любительский (многоголосый закадровый) (Синема УС)"],"quality":"bd","translation":"Любительский (многоголосый закадровый) (Синема УС)","update":"2020-06-14 08:05:54","iframe_src":"//5322.svetacdn.in/IAF0wWTdNYZm/movie/41165"},{"id":41163,"title":"Пересечь границу","kp_id":"1223025","imdb_id":"tt9348848","world_art_id":null,"type":"movie","add":"2020-06-13 19:33:11","orig_title":"Flukten over grensen","year":"2020-02-14","translations":["Любительский (многоголосый закадровый) (@MUZOBOZ@)"],"quality":"webdl","translation":"Любительский (многоголосый закадровый) (@MUZOBOZ@)","update":"2020-06-14 08:11:18","iframe_src":"//5322.svetacdn.in/IAF0wWTdNYZm/movie/41163"},{"id":41162,"title":"Камий","kp_id":"1239575","imdb_id":"tt9678892","world_art_id":null,"type":"movie","add":"2020-06-13 19:30:06","orig_title":"Camille","year":"2019-08-13","translations":["Любительский (многоголосый закадровый) (Синема УС)"],"quality":"webdl","translation":"Любительский (многоголосый закадровый) (Синема УС)","update":"2020-06-14 08:08:55","iframe_src":"//5322.svetacdn.in/IAF0wWTdNYZm/movie/41162"},{"id":41161,"title":"Пороки Амстердама","kp_id":"1179872","imdb_id":"tt8747308","world_art_id":null,"type":"movie","add":"2020-06-13 19:27:33","orig_title":"Baantjer het Begin","year":"2019-04-17","translations":["Любительский (многоголосый закадровый) (@MUZOBOZ@)"],"quality":"webdl","translation":"Любительский (многоголосый закадровый) (@MUZOBOZ@)","update":"2020-06-14 08:07:47","iframe_src":"//5322.svetacdn.in/IAF0wWTdNYZm/movie/41161"},{"id":41147,"title":"Кубрик о Кубрике","kp_id":"1357708","imdb_id":"tt11905514","world_art_id":null,"type":"movie","add":"2020-06-12 12:15:50","orig_title":"Kubrick by Kubrick","year":"2020-04-12","translations":["Любительский (многоголосый закадровый) (Синема УС)"],"quality":"hdtv","translation":"Любительский (многоголосый закадровый) (Синема УС)","update":"2020-06-12 21:34:18","iframe_src":"//5322.svetacdn.in/IAF0wWTdNYZm/movie/41147"},{"id":41067,"title":"Письма издалека","kp_id":"471535","imdb_id":null,"world_art_id":null,"type":"movie","add":"2020-06-09 09:24:41","orig_title":"Letters from a far","year":"2009-06-26","translations":["Оригинальная дорожка"],"quality":"dvdrip","translation":"Оригинальная дорожка","update":"2020-06-13 12:27:06","iframe_src":"//5322.svetacdn.in/IAF0wWTdNYZm/movie/41067"},{"id":41066,"title":"Чума","kp_id":"7191","imdb_id":"tt0105127","world_art_id":null,"type":"movie","add":"2020-06-09 09:21:11","orig_title":"La peste","year":"1992-08-26","translations":["Профессиональный (одноголосый закадровый)"],"quality":"dvdrip","translation":"Профессиональный (одноголосый закадровый)","update":"2020-06-13 12:26:36","iframe_src":"//5322.svetacdn.in/IAF0wWTdNYZm/movie/41066"},{"id":41065,"title":"Годзилла против Хедоры","kp_id":"93466","imdb_id":"tt0067148","world_art_id":null,"type":"movie","add":"2020-06-09 08:39:16","orig_title":"Gojira tai Hedora","year":"1971-07-24","translations":["Любительский (одноголосый закадровый)"],"quality":"bd","translation":"Любительский (одноголосый закадровый)","update":"2020-06-13 05:26:15","iframe_src":"//5322.svetacdn.in/IAF0wWTdNYZm/movie/41065"},{"id":41063,"title":"Победительница","kp_id":"81539","imdb_id":"tt0406158","world_art_id":null,"type":"movie","add":"2020-06-09 07:59:27","orig_title":"The Prize Winner of Defiance, Ohio","year":"2005-09-28","translations":["Авторский (одноголосый закадровый) (Карповский Антон)"],"quality":"dvdrip","translation":"Авторский (одноголосый закадровый) (Карповский Антон)","update":"2020-06-13 12:26:03","iframe_src":"//5322.svetacdn.in/IAF0wWTdNYZm/movie/41063"},{"id":41062,"title":"Развод по-фински, или Дом, где растет любовь","kp_id":"485796","imdb_id":"tt1188992","world_art_id":null,"type":"movie","add":"2020-06-09 07:54:41","orig_title":"Haarautuvan rakkauden talo","year":"2009-08-21","translations":["Профессиональный (многоголосый закадровый)"],"quality":"dvdrip","translation":"Профессиональный (многоголосый закадровый)","update":"2020-06-13 19:28:36","iframe_src":"//5322.svetacdn.in/IAF0wWTdNYZm/movie/41062"},{"id":41060,"title":"Банда Ольсена вступает в войну","kp_id":"58154","imdb_id":"tt0078026","world_art_id":null,"type":"movie","add":"2020-06-09 07:36:44","orig_title":"Olsen-banden går i krig","year":"1978-10-06","translations":["Любительский (одноголосый закадровый)"],"quality":"bd","translation":"Любительский (одноголосый закадровый)","update":"2020-06-13 12:22:48","iframe_src":"//5322.svetacdn.in/IAF0wWTdNYZm/movie/41060"},{"id":41058,"title":"Мужья и любовники","kp_id":"21130","imdb_id":"tt0105755","world_art_id":null,"type":"movie","add":"2020-06-09 07:31:39","orig_title":"La villa del venerdì","year":"1991-09-19","translations":["Профессиональный (многоголосый закадровый)"],"quality":"dvdrip","translation":"Профессиональный (многоголосый закадровый)","update":"2020-06-13 05:12:35","iframe_src":"//5322.svetacdn.in/IAF0wWTdNYZm/movie/41058"},{"id":40995,"title":"13 часов","kp_id":"455282","imdb_id":null,"world_art_id":null,"type":"movie","add":"2020-06-07 15:39:18","orig_title":"13 Hrs","year":"2010-08-28","translations":["Любительский (одноголосый закадровый)  (zamez | Замез Вячеслав)"],"quality":"bd","translation":"Любительский (одноголосый закадровый)  (zamez | Замез Вячеслав)","update":"2020-06-12 17:05:32","iframe_src":"//5322.svetacdn.in/IAF0wWTdNYZm/movie/40995"},{"id":40994,"title":"Молоко и кровь","kp_id":"799714","imdb_id":"tt3170982","world_art_id":null,"type":"movie","add":"2020-06-07 15:35:13","orig_title":"Milk and Blood","year":"2014-01-18","translations":["Оригинальная дорожка"],"quality":"dvb","translation":"Оригинальная дорожка","update":"2020-06-12 17:08:40","iframe_src":"//5322.svetacdn.in/IAF0wWTdNYZm/movie/40994"},{"id":40993,"title":"Длинноногий дядюшка","kp_id":"178772","imdb_id":"tt0453125","world_art_id":null,"type":"movie","add":"2020-06-07 15:33:18","orig_title":"Kidari ajeossi","year":"2005-01-13","translations":["Профессиональный (двухголосый закадровый)"],"quality":"dvdrip","translation":"Профессиональный (двухголосый закадровый)","update":"2020-06-12 17:09:52","iframe_src":"//5322.svetacdn.in/IAF0wWTdNYZm/movie/40993"},{"id":40992,"title":"Мой американский дядюшка","kp_id":"20913","imdb_id":"tt0081176","world_art_id":null,"type":"movie","add":"2020-06-07 15:30:14","orig_title":"Mon oncle d'Amérique","year":"1980-05-20","translations":["Профессиональный (многоголосый закадровый) (СВ-Дубль)"],"quality":"dvdrip","translation":"Профессиональный (многоголосый закадровый) (СВ-Дубль)","update":"2020-06-12 17:10:33","iframe_src":"//5322.svetacdn.in/IAF0wWTdNYZm/movie/40992"},{"id":40991,"title":"Придурки на экзаменах","kp_id":"57325","imdb_id":"tt0081541","world_art_id":null,"type":"movie","add":"2020-06-07 15:27:49","orig_title":"Les sous-doués","year":"1980-04-30","translations":["Профессиональный (многоголосый закадровый)"],"quality":"bd","translation":"Профессиональный (многоголосый закадровый)","update":"2020-06-12 17:11:22","iframe_src":"//5322.svetacdn.in/IAF0wWTdNYZm/movie/40991"}],"current_page":608,"first_page_url":"https://videocdn.tv/api/short?limit=100&api_token=6Onb1W1alEUrBcKJZD3GoKBbWyAl2uG2&cache3608=3608&page=1","from":60701,"last_page":625,"last_page_url":"https://videocdn.tv/api/short?limit=100&api_token=6Onb1W1alEUrBcKJZD3GoKBbWyAl2uG2&cache3608=3608&page=625","next_page_url":"https://videocdn.tv/api/short?limit=100&api_token=6Onb1W1alEUrBcKJZD3GoKBbWyAl2uG2&cache3608=3608&page=609","path":"https://videocdn.tv/api/short","per_page":100,"prev_page_url":"https://videocdn.tv/api/short?limit=100&api_token=6Onb1W1alEUrBcKJZD3GoKBbWyAl2uG2&cache3608=3608&page=607","to":60720,"total":62500}