{"result":true,"data":[{"id":43427,"title":"Если я забуду","kp_id":"1095750","imdb_id":"tt6869368","world_art_id":null,"type":"movie","add":"2020-09-11 16:28:48","orig_title":"If I Forget","year":"2017-01-01","translations":["Любительский (многоголосый закадровый) (Синема УС)"],"quality":"webdl","translation":"Любительский (многоголосый закадровый) (Синема УС)","update":"2020-09-12 07:14:41","iframe_src":"//83.svetacdn.in/PfJ50H0ZBPg3/movie/43427"},{"id":43418,"title":"Долина чудес","kp_id":"860678","imdb_id":"tt4123414","world_art_id":null,"type":"movie","add":"2020-09-11 07:21:29","orig_title":"Wonder Valley","year":"2017-03-25","translations":["Любительский (многоголосый закадровый) (Синема УС)"],"quality":"webdl","translation":"Любительский (многоголосый закадровый) (Синема УС)","update":"2020-09-11 20:15:41","iframe_src":"//83.svetacdn.in/PfJ50H0ZBPg3/movie/43418"},{"id":43417,"title":"Тёмные болота","kp_id":"1331523","imdb_id":"tt11426704","world_art_id":null,"type":"movie","add":"2020-09-11 06:48:41","orig_title":"Schattenmoor","year":"2019-12-11","translations":["Любительский (многоголосый закадровый) (Синема УС)"],"quality":"webdl","translation":"Любительский (многоголосый закадровый) (Синема УС)","update":"2020-09-11 13:10:22","iframe_src":"//83.svetacdn.in/PfJ50H0ZBPg3/movie/43417"},{"id":43416,"title":"Кожа других","kp_id":"944704","imdb_id":"tt5196158","world_art_id":null,"type":"movie","add":"2020-09-11 06:28:31","orig_title":"Die Haut der Anderen","year":"2016-10-25","translations":["Любительский (многоголосый закадровый) (AlphaProject)"],"quality":"webdl","translation":"Любительский (многоголосый закадровый) (AlphaProject)","update":"2020-09-11 13:24:09","iframe_src":"//83.svetacdn.in/PfJ50H0ZBPg3/movie/43416"},{"id":43415,"title":"Пустые дни","kp_id":"1186059","imdb_id":"tt8301540","world_art_id":null,"type":"movie","add":"2020-09-11 06:26:37","orig_title":"Dias Vazios","year":"2018-01-25","translations":["Любительский (многоголосый закадровый) (Синема УС)"],"quality":"webdl","translation":"Любительский (многоголосый закадровый) (Синема УС)","update":"2020-09-11 13:24:33","iframe_src":"//83.svetacdn.in/PfJ50H0ZBPg3/movie/43415"},{"id":43414,"title":"Счастливой пенсии!","kp_id":"1221427","imdb_id":"tt9454778","world_art_id":null,"type":"movie","add":"2020-09-11 06:25:12","orig_title":"Joyeuse retraite!","year":"2019-11-20","translations":["Любительский (многоголосый закадровый) (Синема УС)"],"quality":"webdl","translation":"Любительский (многоголосый закадровый) (Синема УС)","update":"2020-09-11 13:25:03","iframe_src":"//83.svetacdn.in/PfJ50H0ZBPg3/movie/43414"},{"id":43413,"title":"Супер пожарные","kp_id":"1236369","imdb_id":"tt9661960","world_art_id":null,"type":"movie","add":"2020-09-11 06:24:27","orig_title":"Super Bomberos","year":"2019-10-24","translations":["Любительский (многоголосый закадровый) (Синема УС)"],"quality":"webdl","translation":"Любительский (многоголосый закадровый) (Синема УС)","update":"2020-09-11 13:08:58","iframe_src":"//83.svetacdn.in/PfJ50H0ZBPg3/movie/43413"},{"id":43412,"title":"Преступления на улице Мар дель Норте","kp_id":"1051380","imdb_id":"tt6777394","world_art_id":null,"type":"movie","add":"2020-09-11 06:23:43","orig_title":"Los crímenes de Mar del Norte","year":"2017-03-10","translations":["Любительский (многоголосый закадровый) (Синема УС)"],"quality":"webdl","translation":"Любительский (многоголосый закадровый) (Синема УС)","update":"2020-09-11 13:26:07","iframe_src":"//83.svetacdn.in/PfJ50H0ZBPg3/movie/43412"},{"id":43411,"title":"Барбара","kp_id":"1322197","imdb_id":"tt11203346","world_art_id":null,"type":"movie","add":"2020-09-11 06:21:49","orig_title":"Barbara Reimagined","year":"2019-11-08","translations":["Любительский (многоголосый закадровый) (Синема УС)"],"quality":"webdl","translation":"Любительский (многоголосый закадровый) (Синема УС)","update":"2020-09-11 13:26:57","iframe_src":"//83.svetacdn.in/PfJ50H0ZBPg3/movie/43411"},{"id":43408,"title":"Храбрость Лэсси","kp_id":"17923","imdb_id":"tt0038427","world_art_id":null,"type":"movie","add":"2020-09-10 20:15:05","orig_title":"Courage of Lassie","year":"1946-07-24","translations":["Профессиональный (многоголосый закадровый)"],"quality":"dvdrip","translation":"Профессиональный (многоголосый закадровый)","update":"2020-09-11 11:34:58","iframe_src":"//83.svetacdn.in/PfJ50H0ZBPg3/movie/43408"},{"id":43407,"title":"Сын Лесси","kp_id":"38694","imdb_id":"tt0038097","world_art_id":null,"type":"movie","add":"2020-09-10 19:44:29","orig_title":"Son of Lassie","year":"1945-04-20","translations":["Профессиональный (одноголосый закадровый)"],"quality":"dvdrip","translation":"Профессиональный (одноголосый закадровый)","update":"2020-09-11 11:04:37","iframe_src":"//83.svetacdn.in/PfJ50H0ZBPg3/movie/43407"},{"id":43406,"title":"Лесси в разрисованных холмах","kp_id":"26125","imdb_id":"tt0043895","world_art_id":null,"type":"movie","add":"2020-09-10 19:40:34","orig_title":"The Painted Hills","year":"1951-04-21","translations":["Профессиональный (многоголосый закадровый)"],"quality":"dvdrip","translation":"Профессиональный (многоголосый закадровый)","update":"2020-09-11 10:50:09","iframe_src":"//83.svetacdn.in/PfJ50H0ZBPg3/movie/43406"},{"id":43401,"title":"Магия Лэсси","kp_id":"8968","imdb_id":"tt0077890","world_art_id":null,"type":"movie","add":"2020-09-10 19:06:12","orig_title":"The Magic of Lassie","year":"1978-07-27","translations":["Полное дублирование (Netflix)"],"quality":"webdl","translation":"Полное дублирование (Netflix)","update":"2020-09-11 10:29:13","iframe_src":"//83.svetacdn.in/PfJ50H0ZBPg3/movie/43401"},{"id":43384,"title":"Цена сахара","kp_id":"736618","imdb_id":"tt2691498","world_art_id":null,"type":"movie","add":"2020-09-10 15:14:52","orig_title":"Hoe duur was de suiker","year":"2013-09-25","translations":["Авторский (одноголосый закадровый) (Матвеев Алексей | Doctor Joker)"],"quality":"bd","translation":"Авторский (одноголосый закадровый) (Матвеев Алексей | Doctor Joker)","update":"2020-09-11 10:42:22","iframe_src":"//83.svetacdn.in/PfJ50H0ZBPg3/movie/43384"},{"id":43370,"title":"Зло у меня под кожей","kp_id":"1063718","imdb_id":"tt6696280","world_art_id":null,"type":"movie","add":"2020-09-10 05:59:54","orig_title":"Evil Under the Skin","year":"2019-06-01","translations":["Любительский (многоголосый закадровый) (Синема УС)"],"quality":"webdl","translation":"Любительский (многоголосый закадровый) (Синема УС)","update":"2020-09-11 09:05:25","iframe_src":"//83.svetacdn.in/PfJ50H0ZBPg3/movie/43370"},{"id":43333,"title":"Шафрановое сердце","kp_id":"1187971","imdb_id":null,"world_art_id":null,"type":"movie","add":"2020-09-09 08:40:16","orig_title":"Шафрановое сердце","year":"2018-01-01","translations":["Профессиональный (многоголосый закадровый)"],"quality":"webdl","translation":"Профессиональный (многоголосый закадровый)","update":"2020-09-11 13:16:20","iframe_src":"//83.svetacdn.in/PfJ50H0ZBPg3/movie/43333"},{"id":19150,"title":"Зимний хребет","kp_id":"1025030","imdb_id":"tt5973658","world_art_id":null,"type":"movie","add":"2018-09-23 22:39:38","orig_title":"Winter Ridge","year":"2018-02-09","translations":["Любительский (многоголосый закадровый) (Синема УС)","Любительский (двухголосый закадровый) (HiWayGrope)","Профессиональный (многоголосый закадровый) (HDrezka Studio)","Профессиональный (многоголосый закадровый) (HDrezka Studio)"],"quality":"webdl","translation":"Любительский (многоголосый закадровый) (Синема УС)","update":"2020-09-11 11:02:44","iframe_src":"//83.svetacdn.in/PfJ50H0ZBPg3/movie/19150"},{"id":18947,"title":"Убрать из друзей: Даркнет","kp_id":"916120","imdb_id":"tt4761916","world_art_id":null,"type":"movie","add":"2018-09-12 23:01:57","orig_title":"Unfriended: Dark Web","year":"2018-03-09","translations":["Любительский (многоголосый закадровый) (@MUZOBOZ@)","Любительский (двухголосый закадровый) (HiWayGrope)","Профессиональный (многоголосый закадровый) (HDrezka Studio)","Профессиональный (многоголосый закадровый) (HDrezka Studio)"],"quality":"webdl","translation":"Любительский (многоголосый закадровый) (@MUZOBOZ@)","update":"2020-09-11 11:03:10","iframe_src":"//83.svetacdn.in/PfJ50H0ZBPg3/movie/18947"},{"id":18717,"title":"Расправа","kp_id":"1047839","imdb_id":"tt6547170","world_art_id":null,"type":"movie","add":"2018-09-02 00:13:19","orig_title":"Reprisal","year":"2018-08-30","translations":["[EN] Original (English)","Полное дублирование (iTunes)","Профессиональный (многоголосый закадровый) (HDrezka Studio)"],"quality":"webdl","translation":"[EN] Original (English)","update":"2020-09-11 11:01:50","iframe_src":"//83.svetacdn.in/PfJ50H0ZBPg3/movie/18717"},{"id":18261,"title":"Отель «Артемида»","kp_id":"1023331","imdb_id":"tt5834262","world_art_id":null,"type":"movie","add":"2018-08-12 14:59:50","orig_title":"Hotel Artemis","year":"2018-06-07","translations":["Полное дублирование","[EN] Original (English)","Профессиональный (многоголосый закадровый) (HDrezka Studio)"],"quality":"bd","translation":"Полное дублирование","update":"2020-09-11 11:01:10","iframe_src":"//83.svetacdn.in/PfJ50H0ZBPg3/movie/18261"}],"current_page":941,"first_page_url":"https://videocdn.tv/api/short?limit=100&api_token=RgFQdUIR2dRmwv8iYa5SnFNgnw3vpjKj&cache3941=3941&page=1","from":94001,"last_page":707,"last_page_url":"https://videocdn.tv/api/short?limit=100&api_token=RgFQdUIR2dRmwv8iYa5SnFNgnw3vpjKj&cache3941=3941&page=707","next_page_url":null,"path":"https://videocdn.tv/api/short","per_page":100,"prev_page_url":"https://videocdn.tv/api/short?limit=100&api_token=RgFQdUIR2dRmwv8iYa5SnFNgnw3vpjKj&cache3941=3941&page=940","to":94020,"total":70620}