{"result":true,"data":[{"id":46912,"title":"Масса воды","kp_id":"1148932","imdb_id":"tt8416316","world_art_id":null,"type":"movie","add":"2021-01-11 18:51:35","orig_title":"Body of Water","year":"2020-02-27","translations":["Любительский (многоголосый закадровый) (@MUZOBOZ@)"],"quality":"webdl","translation":"Любительский (многоголосый закадровый) (@MUZOBOZ@)","update":"2021-01-11 21:01:43","iframe_src":"//8332.svetacdn.in/71tsRs29n5tZ/movie/46912"},{"id":46909,"title":"Смех сквозь слезы","kp_id":"1287747","imdb_id":"tt5945958","world_art_id":null,"type":"movie","add":"2021-01-11 18:45:31","orig_title":"Hard Laughter","year":"2019-10-05","translations":["Любительский (многоголосый закадровый) (Синема УС)"],"quality":"webdl","translation":"Любительский (многоголосый закадровый) (Синема УС)","update":"2021-01-11 20:49:13","iframe_src":"//8332.svetacdn.in/71tsRs29n5tZ/movie/46909"},{"id":46908,"title":"Исповедь юного сатаниста","kp_id":"1232009","imdb_id":"tt9500358","world_art_id":null,"type":"movie","add":"2021-01-11 18:43:40","orig_title":"Confessions of a Teenage Satanist","year":"2019-12-16","translations":["Любительский (многоголосый закадровый) (Синема УС)"],"quality":"webdl","translation":"Любительский (многоголосый закадровый) (Синема УС)","update":"2021-01-11 20:49:47","iframe_src":"//8332.svetacdn.in/71tsRs29n5tZ/movie/46908"},{"id":46905,"title":"Авраам Линкольн против зомби","kp_id":"668597","imdb_id":"tt2246549","world_art_id":null,"type":"movie","add":"2021-01-11 13:15:11","orig_title":"Abraham Lincoln vs. Zombies","year":"2012-05-29","translations":["Любительский (одноголосый закадровый) (Хихикающий доктор)"],"quality":"dvdrip","translation":"Любительский (одноголосый закадровый) (Хихикающий доктор)","update":"2021-01-11 14:12:08","iframe_src":"//8332.svetacdn.in/71tsRs29n5tZ/movie/46905"},{"id":46845,"title":"Расследование","kp_id":"42053","imdb_id":"tt0230687","world_art_id":null,"type":"movie","add":"2021-01-09 21:22:58","orig_title":"Rassledovaniye","year":"1980-04-01","translations":["Оригинальная дорожка"],"quality":"iptv","translation":"Оригинальная дорожка","update":"2021-01-11 14:24:28","iframe_src":"//8332.svetacdn.in/71tsRs29n5tZ/movie/46845"},{"id":46844,"title":"Осенние свадьбы","kp_id":"42803","imdb_id":"tt0175009","world_art_id":null,"type":"movie","add":"2021-01-09 21:10:34","orig_title":"Osenniye svadby","year":"1968-08-19","translations":["Оригинальная дорожка"],"quality":"tv","translation":"Оригинальная дорожка","update":"2021-01-11 14:23:23","iframe_src":"//8332.svetacdn.in/71tsRs29n5tZ/movie/46844"},{"id":46843,"title":"Новый дом","kp_id":"46477","imdb_id":"tt0039670","world_art_id":null,"type":"movie","add":"2021-01-09 21:05:22","orig_title":"Novyy dom","year":"1947-09-10","translations":["Оригинальная дорожка"],"quality":"dvdrip","translation":"Оригинальная дорожка","update":"2021-01-11 14:22:07","iframe_src":"//8332.svetacdn.in/71tsRs29n5tZ/movie/46843"},{"id":46842,"title":"Гроза над Белой","kp_id":"44609","imdb_id":"tt0347130","world_art_id":null,"type":"movie","add":"2021-01-09 20:58:00","orig_title":"Groza nad beloy","year":"1968-11-04","translations":["Оригинальная дорожка"],"quality":"dvdrip","translation":"Оригинальная дорожка","update":"2021-01-11 14:21:36","iframe_src":"//8332.svetacdn.in/71tsRs29n5tZ/movie/46842"},{"id":46841,"title":"Домино","kp_id":"234524","imdb_id":"tt0413964","world_art_id":null,"type":"movie","add":"2021-01-09 20:50:07","orig_title":"Domino","year":"1973-01-01","translations":["Оригинальная дорожка"],"quality":"vhs","translation":"Оригинальная дорожка","update":"2021-01-11 14:20:46","iframe_src":"//8332.svetacdn.in/71tsRs29n5tZ/movie/46841"},{"id":46840,"title":"13 поручений","kp_id":"574634","imdb_id":"tt2807606","world_art_id":null,"type":"movie","add":"2021-01-09 20:44:03","orig_title":"13 porucheniy","year":"1969-07-30","translations":["Оригинальная дорожка"],"quality":"iptv","translation":"Оригинальная дорожка","update":"2021-01-11 14:19:42","iframe_src":"//8332.svetacdn.in/71tsRs29n5tZ/movie/46840"},{"id":46837,"title":"Разделенная любовь","kp_id":"66621","imdb_id":"tt0355976","world_art_id":null,"type":"movie","add":"2021-01-09 14:49:36","orig_title":"Spodelena lyubov","year":"1980-02-15","translations":["Оригинальная дорожка"],"quality":"sat","translation":"Оригинальная дорожка","update":"2021-01-11 14:19:02","iframe_src":"//8332.svetacdn.in/71tsRs29n5tZ/movie/46837"},{"id":46632,"title":"Сокровища рыцарей: Тайна Милюзины","kp_id":"597598","imdb_id":"tt1935221","world_art_id":null,"type":"movie","add":"2021-01-03 10:33:37","orig_title":"Schatzritter","year":"2012-07-04","translations":["Полное дублирование"],"quality":"bd","translation":"Полное дублирование","update":"2021-01-11 14:39:20","iframe_src":"//8332.svetacdn.in/71tsRs29n5tZ/movie/46632"},{"id":46631,"title":"Эхо","kp_id":"263867","imdb_id":"tt0838224","world_art_id":null,"type":"movie","add":"2021-01-03 10:31:33","orig_title":"Ekko","year":"2007-09-27","translations":["Любительский (одноголосый закадровый) (Агент Смит)"],"quality":"webdl","translation":"Любительский (одноголосый закадровый) (Агент Смит)","update":"2021-01-12 06:36:22","iframe_src":"//8332.svetacdn.in/71tsRs29n5tZ/movie/46631"},{"id":46629,"title":"Долгая разлука","kp_id":"116002","imdb_id":"tt0215066","world_art_id":null,"type":"movie","add":"2021-01-03 09:49:09","orig_title":"Poove Poochudava","year":"1985-01-01","translations":["Полное дублирование"],"quality":"webdl","translation":"Полное дублирование","update":"2021-01-12 06:35:07","iframe_src":"//8332.svetacdn.in/71tsRs29n5tZ/movie/46629"},{"id":46628,"title":"Меня зовут Мистер Тиббс!","kp_id":"18536","imdb_id":"tt0066450","world_art_id":null,"type":"movie","add":"2021-01-03 09:48:22","orig_title":"They Call Me Mister Tibbs!","year":"1970-07-08","translations":["Original (English)","Профессиональный (двухголосый закадровый) (НТВ)"],"quality":"bd","translation":"Original (English)","update":"2021-01-12 06:29:13","iframe_src":"//8332.svetacdn.in/71tsRs29n5tZ/movie/46628"},{"id":38821,"title":"Влипли!","kp_id":"31424","imdb_id":"tt0084945","world_art_id":null,"type":"movie","add":"2020-04-02 14:55:02","orig_title":"Zapped!","year":"1982-09-03","translations":["Авторский (одноголосый закадровый) (Михалёв Алексей)","Авторский (одноголосый закадровый) (Дохалов Вартан)","Original (English)"],"quality":"bd","translation":"Авторский (одноголосый закадровый) (Михалёв Алексей)","update":"2021-01-11 14:30:23","iframe_src":"//8332.svetacdn.in/71tsRs29n5tZ/movie/38821"},{"id":31960,"title":"Магазинчик за углом","kp_id":"9003","imdb_id":"tt0033045","world_art_id":null,"type":"movie","add":"2019-10-16 05:41:35","orig_title":"The Shop Around the Corner","year":"1940-01-12","translations":["Профессиональный (многоголосый закадровый)","Original (English)","Профессиональный (многоголосый закадровый)"],"quality":"dvdrip","translation":"Профессиональный (многоголосый закадровый)","update":"2021-01-12 06:30:53","iframe_src":"//8332.svetacdn.in/71tsRs29n5tZ/movie/31960"},{"id":31725,"title":"Садисты Сатаны","kp_id":"34875","imdb_id":"tt0064939","world_art_id":null,"type":"movie","add":"2019-10-11 16:48:35","orig_title":"Satan's Sadists","year":"1969-06-01","translations":["Авторский (одноголосый закадровый) (Карповский Антон)","Авторский (одноголосый закадровый) (Карповский Антон)"],"quality":"dvdrip","translation":"Авторский (одноголосый закадровый) (Карповский Антон)","update":"2021-01-12 06:32:02","iframe_src":"//8332.svetacdn.in/71tsRs29n5tZ/movie/31725"},{"id":5331,"title":"Горизонты","kp_id":"1268559","imdb_id":"tt9184970","world_art_id":null,"type":"serial","add":"2019-09-27 20:17:12","orig_title":"Skylines","year":"2019-09-27","translations":["Любительский (многоголосый закадровый) (Octopus)"],"seasons_count":1,"episodes_count":6,"episodes":6,"update":"2019-09-28 07:09:45","iframe_src":"//8332.svetacdn.in/71tsRs29n5tZ/tv-series/5331"},{"id":5316,"title":"Бездна","kp_id":"597626","imdb_id":"tt5804852","world_art_id":null,"type":"serial","add":"2019-09-27 10:30:55","orig_title":"Bezdna","year":"2013-05-20","translations":["Оригинальная дорожка"],"seasons_count":1,"episodes_count":16,"episodes":16,"update":"2019-09-28 13:53:07","iframe_src":"//8332.svetacdn.in/71tsRs29n5tZ/tv-series/5316"},{"id":5315,"title":"Каушики","kp_id":"1121079","imdb_id":"tt8324806","world_art_id":null,"type":"serial","add":"2019-09-27 10:21:49","orig_title":"Kaushiki","year":"2018-04-27","translations":["Любительский (двухголосый закадровый) (Crazy Cat Studio)"],"seasons_count":1,"episodes_count":13,"episodes":13,"update":"2019-09-28 14:27:24","iframe_src":"//8332.svetacdn.in/71tsRs29n5tZ/tv-series/5315"},{"id":5314,"title":"Скорая помощь","kp_id":"807778","imdb_id":"tt4626240","world_art_id":null,"type":"serial","add":"2019-09-27 10:13:22","orig_title":"Skoraya pomoshch'","year":"2014-03-13","translations":["Оригинальная дорожка"],"seasons_count":1,"episodes_count":16,"episodes":16,"update":"2019-09-28 14:42:42","iframe_src":"//8332.svetacdn.in/71tsRs29n5tZ/tv-series/5314"},{"id":5312,"title":"Трансформеры: Армада","kp_id":"229207","imdb_id":"tt0329938","world_art_id":null,"type":"serial","add":"2019-09-27 06:56:00","orig_title":"Transufômâ: Maikuron densetsu","year":"2002-08-23","translations":["Профессиональный (многоголосый закадровый)"],"seasons_count":1,"episodes_count":52,"episodes":52,"update":"2019-09-27 13:03:24","iframe_src":"//8332.svetacdn.in/71tsRs29n5tZ/tv-series/5312"},{"id":5311,"title":"Расколотая битвой синева небес","kp_id":"1211155","imdb_id":"tt9248626","world_art_id":null,"type":"serial","add":"2019-09-26 20:45:14","orig_title":"Dou Po Cang Qiong","year":"2018-09-03","translations":["Любительский (двухголосый закадровый) (SoftBox)"],"seasons_count":1,"episodes_count":45,"episodes":45,"update":"2019-09-28 06:57:33","iframe_src":"//8332.svetacdn.in/71tsRs29n5tZ/tv-series/5311"},{"id":5306,"title":"Золотце","kp_id":"1111735","imdb_id":null,"world_art_id":null,"type":"serial","add":"2019-09-26 14:02:34","orig_title":"Золотце","year":"2018-01-07","translations":["Оригинальная дорожка"],"seasons_count":1,"episodes_count":2,"episodes":2,"update":"2019-09-27 06:10:02","iframe_src":"//8332.svetacdn.in/71tsRs29n5tZ/tv-series/5306"},{"id":5305,"title":"Роковые красотки","kp_id":"591823","imdb_id":"tt1841108","world_art_id":null,"type":"serial","add":"2019-09-26 12:14:39","orig_title":"Femme Fatales","year":"2011-05-13","translations":["Профессиональный (многоголосый закадровый) (NovaFilm)","Профессиональный (многоголосый закадровый) (Sony Turbo)"],"seasons_count":2,"episodes_count":27,"episodes":14,"update":"2019-09-27 09:50:58","iframe_src":"//8332.svetacdn.in/71tsRs29n5tZ/tv-series/5305"},{"id":5303,"title":"Новые приключения Бэтмена","kp_id":"229268","imdb_id":"tt0118266","world_art_id":null,"type":"serial","add":"2019-09-26 09:08:08","orig_title":"The New Batman Adventures","year":"1997-09-13","translations":["Полное дублирование"],"seasons_count":2,"episodes_count":24,"episodes":11,"update":"2019-09-27 08:25:59","iframe_src":"//8332.svetacdn.in/71tsRs29n5tZ/tv-series/5303"},{"id":5302,"title":"Паутина 8","kp_id":"880657","imdb_id":null,"world_art_id":null,"type":"serial","add":"2019-09-26 09:04:33","orig_title":"Паутина 8","year":"2015-01-01","translations":["Оригинальная дорожка"],"seasons_count":1,"episodes_count":24,"episodes":24,"update":"2019-09-28 14:27:50","iframe_src":"//8332.svetacdn.in/71tsRs29n5tZ/tv-series/5302"},{"id":5262,"title":"Ментовские войны. Киев","kp_id":"1072968","imdb_id":"tt10139552","world_art_id":null,"type":"serial","add":"2019-09-22 06:55:53","orig_title":"Mentovskie voyny. Kiev","year":"2017-09-26","translations":["Оригинальная дорожка"],"seasons_count":1,"episodes_count":36,"episodes":36,"update":"2019-09-27 05:54:44","iframe_src":"//8332.svetacdn.in/71tsRs29n5tZ/tv-series/5262"},{"id":5254,"title":"Верю, люблю, надеюсь","kp_id":"1046512","imdb_id":null,"world_art_id":null,"type":"serial","add":"2019-09-19 12:47:07","orig_title":"Верю, люблю, надеюсь","year":"2018-04-01","translations":["Оригинальная дорожка"],"seasons_count":1,"episodes_count":4,"episodes":4,"update":"2019-09-27 11:21:34","iframe_src":"//8332.svetacdn.in/71tsRs29n5tZ/tv-series/5254"},{"id":5253,"title":"Мой лучший враг","kp_id":"1049105","imdb_id":"tt9442936","world_art_id":null,"type":"serial","add":"2019-09-19 12:42:43","orig_title":"Moy luchshiy vrag","year":"2017-09-23","translations":["Оригинальная дорожка"],"seasons_count":1,"episodes_count":4,"episodes":4,"update":"2019-09-27 06:06:57","iframe_src":"//8332.svetacdn.in/71tsRs29n5tZ/tv-series/5253"},{"id":5248,"title":"Тот, кто не спит","kp_id":"1100364","imdb_id":"tt10195388","world_art_id":null,"type":"serial","add":"2019-09-19 12:07:58","orig_title":"Tot, kto ne spit","year":"2017-12-04","translations":["Оригинальная дорожка"],"seasons_count":2,"episodes_count":32,"episodes":16,"update":"2019-09-27 11:01:37","iframe_src":"//8332.svetacdn.in/71tsRs29n5tZ/tv-series/5248"},{"id":5247,"title":"Рецепт любви","kp_id":"1049691","imdb_id":null,"world_art_id":null,"type":"serial","add":"2019-09-19 12:01:18","orig_title":"Рецепт любви","year":"2017-09-29","translations":["Оригинальная дорожка"],"seasons_count":1,"episodes_count":4,"episodes":4,"update":"2019-09-27 06:01:41","iframe_src":"//8332.svetacdn.in/71tsRs29n5tZ/tv-series/5247"},{"id":5235,"title":"Псевдоним «Албанец»","kp_id":"256570","imdb_id":"tt4402004","world_art_id":null,"type":"serial","add":"2019-09-18 08:55:53","orig_title":"Psevdonim «Albanets»","year":"2006-04-01","translations":["Оригинальная дорожка"],"seasons_count":4,"episodes_count":60,"episodes":16,"update":"2019-09-28 14:11:25","iframe_src":"//8332.svetacdn.in/71tsRs29n5tZ/tv-series/5235"},{"id":5056,"title":"В тихом омуте","kp_id":"1200106","imdb_id":"tt8201434","world_art_id":null,"type":"serial","add":"2019-08-20 05:10:17","orig_title":"Deep Water","year":"2019-08-14","translations":["Профессиональный (многоголосый закадровый) (SDI Media)","Профессиональный (многоголосый закадровый) (BaibaKo)"],"seasons_count":1,"episodes_count":6,"episodes":6,"update":"2019-09-27 10:53:37","iframe_src":"//8332.svetacdn.in/71tsRs29n5tZ/tv-series/5056"},{"id":4773,"title":"Ловушка для королевы","kp_id":"1278017","imdb_id":null,"world_art_id":null,"type":"serial","add":"2019-07-02 04:21:05","orig_title":"Ловушка для королевы","year":"2019-07-01","translations":["Оригинальная дорожка"],"seasons_count":1,"episodes_count":8,"episodes":8,"update":"2019-09-27 17:18:03","iframe_src":"//8332.svetacdn.in/71tsRs29n5tZ/tv-series/4773"},{"id":9924,"title":"Таймер","kp_id":"404273","imdb_id":"tt1179794","world_art_id":null,"type":"movie","add":"2017-02-22 10:49:47","orig_title":"TiMER","year":"2009-04-26","translations":["Профессиональный (многоголосый)","Original (English)","Профессиональный (многоголосый закадровый)"],"quality":"bd","translation":"Профессиональный (многоголосый)","update":"2021-01-11 14:34:02","iframe_src":"//8332.svetacdn.in/71tsRs29n5tZ/movie/9924"},{"id":1032,"title":"Куба","kp_id":"923509","imdb_id":null,"world_art_id":null,"type":"serial","add":"2017-02-20 13:10:11","orig_title":"Куба","year":"2017-02-06","translations":["Оригинальная дорожка"],"seasons_count":2,"episodes_count":44,"episodes":20,"update":"2019-09-29 16:28:10","iframe_src":"//8332.svetacdn.in/71tsRs29n5tZ/tv-series/1032"},{"id":752,"title":"Личные обстоятельства","kp_id":"670156","imdb_id":null,"world_art_id":null,"type":"serial","add":"2016-12-27 12:17:01","orig_title":"Личные обстоятельства","year":"2012-03-11","translations":["Оригинальная дорожка"],"seasons_count":1,"episodes_count":8,"episodes":8,"update":"2019-09-28 14:42:19","iframe_src":"//8332.svetacdn.in/71tsRs29n5tZ/tv-series/752"},{"id":70,"title":"Мы - Миллеры","kp_id":"582170","imdb_id":"tt1723121","world_art_id":null,"type":"movie","add":"2016-02-08 14:31:03","orig_title":"We're the Millers","year":"2013-08-03","translations":["Полное дублирование","Авторский (одноголосый закадровый) (Есарев Дмитрий)","Авторский (одноголосый закадровый) (Карповский Антон)","Original (English)","Профессиональный (многоголосый закадровый) (BaibaKo)"],"quality":"bd","translation":"Полное дублирование","update":"2021-01-11 14:28:34","iframe_src":"//8332.svetacdn.in/71tsRs29n5tZ/movie/70"}],"current_page":342,"first_page_url":"https://videocdn.tv/api/short?limit=100&api_token=EnbO9h8pv1VyjbCJhg0WM9nG259n7mtz&cache3342=3342&page=1","from":34101,"last_page":636,"last_page_url":"https://videocdn.tv/api/short?limit=100&api_token=EnbO9h8pv1VyjbCJhg0WM9nG259n7mtz&cache3342=3342&page=636","next_page_url":"https://videocdn.tv/api/short?limit=100&api_token=EnbO9h8pv1VyjbCJhg0WM9nG259n7mtz&cache3342=3342&page=343","path":"https://videocdn.tv/api/short","per_page":100,"prev_page_url":"https://videocdn.tv/api/short?limit=100&api_token=EnbO9h8pv1VyjbCJhg0WM9nG259n7mtz&cache3342=3342&page=341","to":34140,"total":63545}