{"result":true,"data":[{"id":27250,"title":"Варвары у ворот","kp_id":"277677","imdb_id":"tt0106356","world_art_id":null,"type":"movie","add":"2019-05-30 13:31:48","orig_title":"Barbarians at the Gate","year":"1993-03-20","translations":["Профессиональный (одноголосый закадровый)"],"quality":"dvdrip","translation":"Профессиональный (одноголосый закадровый)","update":"2019-05-30 18:16:22","iframe_src":"//7043.svetacdn.in/71tsRs29n5tZ/movie/27250"},{"id":27249,"title":"Мальчики с Востока","kp_id":"771948","imdb_id":"tt2991092","world_art_id":null,"type":"movie","add":"2019-05-30 04:51:35","orig_title":"Eastern Boys","year":"2013-09-08","translations":["Любительский (одноголосый закадровый)"],"quality":"webdl","translation":"Любительский (одноголосый закадровый)","update":"2019-05-30 07:03:19","iframe_src":"//7043.svetacdn.in/71tsRs29n5tZ/movie/27249"},{"id":27247,"title":"И снова Бэтмен!","kp_id":"251796","imdb_id":"tt0321359","world_art_id":null,"type":"movie","add":"2019-05-30 04:25:17","orig_title":"Return to the Batcave: The Misadventures of Adam and Burt","year":"2003-03-09","translations":["Профессиональный (двухголосый закадровый)"],"quality":"dvdrip","translation":"Профессиональный (двухголосый закадровый)","update":"2019-05-30 10:57:30","iframe_src":"//7043.svetacdn.in/71tsRs29n5tZ/movie/27247"},{"id":27246,"title":"Свидетель обвинения","kp_id":"489","imdb_id":"tt0051201","world_art_id":null,"type":"movie","add":"2019-05-30 04:21:48","orig_title":"Witness for the Prosecution","year":"1957-12-17","translations":["Профессиональный (многоголосый закадровый)"],"quality":"bd","translation":"Профессиональный (многоголосый закадровый)","update":"2019-05-30 10:59:55","iframe_src":"//7043.svetacdn.in/71tsRs29n5tZ/movie/27246"},{"id":27245,"title":"Огненная дрожь","kp_id":"846893","imdb_id":"tt3969972","world_art_id":null,"type":"movie","add":"2019-05-30 04:19:22","orig_title":"Firequake","year":"2014-12-22","translations":["Профессиональный (многоголосый закадровый)"],"quality":"hdrip","translation":"Профессиональный (многоголосый закадровый)","update":"2019-05-30 10:59:14","iframe_src":"//7043.svetacdn.in/71tsRs29n5tZ/movie/27245"},{"id":27243,"title":"2022 год: Цунами","kp_id":"577826","imdb_id":"tt1807867","world_art_id":null,"type":"movie","add":"2019-05-30 04:15:53","orig_title":"2022 Tsunami","year":"2009-05-28","translations":["Любительский (двухголосый закадровый)"],"quality":"dvdrip","translation":"Любительский (двухголосый закадровый)","update":"2019-05-30 10:54:48","iframe_src":"//7043.svetacdn.in/71tsRs29n5tZ/movie/27243"},{"id":27242,"title":"Нострадамус: 2012","kp_id":"497572","imdb_id":"tt1358232","world_art_id":null,"type":"movie","add":"2019-05-30 04:14:09","orig_title":"Nostradamus: 2012","year":"2009-01-04","translations":["Профессиональный (многоголосый закадровый)"],"quality":"hdrip","translation":"Профессиональный (многоголосый закадровый)","update":"2019-05-30 10:55:30","iframe_src":"//7043.svetacdn.in/71tsRs29n5tZ/movie/27242"},{"id":27241,"title":"Тот, которого заказали: А кто такой Клетис Тот?","kp_id":"2543","imdb_id":"tt0246500","world_art_id":null,"type":"movie","add":"2019-05-30 04:12:23","orig_title":"Who Is Cletis Tout?","year":"2001-09-12","translations":["Профессиональный (многоголосый закадровый)"],"quality":"dvdrip","translation":"Профессиональный (многоголосый закадровый)","update":"2019-05-30 11:00:42","iframe_src":"//7043.svetacdn.in/71tsRs29n5tZ/movie/27241"},{"id":27240,"title":"Мозговой штурм","kp_id":"1277","imdb_id":"tt0085271","world_art_id":null,"type":"movie","add":"2019-05-30 04:10:46","orig_title":"Brainstorm","year":"1983-09-30","translations":["Профессиональный (двухголосый закадровый)"],"quality":"bd","translation":"Профессиональный (двухголосый закадровый)","update":"2019-05-30 10:58:35","iframe_src":"//7043.svetacdn.in/71tsRs29n5tZ/movie/27240"},{"id":27239,"title":"Остров МакКинси","kp_id":"33755","imdb_id":"tt0119639","world_art_id":null,"type":"movie","add":"2019-05-30 04:07:19","orig_title":"McCinsey's Island","year":"1998-02-23","translations":["Профессиональный (двухголосый закадровый)"],"quality":"dvdrip","translation":"Профессиональный (двухголосый закадровый)","update":"2019-05-30 10:53:44","iframe_src":"//7043.svetacdn.in/71tsRs29n5tZ/movie/27239"},{"id":27238,"title":"Вдова Кудер","kp_id":"26760","imdb_id":"tt0067943","world_art_id":null,"type":"movie","add":"2019-05-30 04:02:54","orig_title":"La veuve Couderc","year":"1971-10-13","translations":["Профессиональный (многоголосый закадровый) (Неоклассика)"],"quality":"dvdrip","translation":"Профессиональный (многоголосый закадровый) (Неоклассика)","update":"2019-05-30 10:52:37","iframe_src":"//7043.svetacdn.in/71tsRs29n5tZ/movie/27238"},{"id":27237,"title":"Бэтмэн: Маска фантазма","kp_id":"8669","imdb_id":"tt0106364","world_art_id":null,"type":"movie","add":"2019-05-30 03:57:44","orig_title":"Batman: Mask of the Phantasm","year":"1993-12-25","translations":["Профессиональный (двухголосый закадровый)"],"quality":"bd","translation":"Профессиональный (двухголосый закадровый)","update":"2019-05-30 14:27:29","iframe_src":"//7043.svetacdn.in/71tsRs29n5tZ/movie/27237"},{"id":27236,"title":"Возвращение в Затерянный Мир","kp_id":"5603","imdb_id":"tt0105249","world_art_id":null,"type":"movie","add":"2019-05-30 03:52:51","orig_title":"Return to the Lost World","year":"1992-03-09","translations":["Профессиональный (многоголосый закадровый)"],"quality":"dvdrip","translation":"Профессиональный (многоголосый закадровый)","update":"2019-05-30 10:53:12","iframe_src":"//7043.svetacdn.in/71tsRs29n5tZ/movie/27236"},{"id":27234,"title":"Плюшевый мишка","kp_id":"83294","imdb_id":"tt0110744","world_art_id":null,"type":"movie","add":"2019-05-30 03:49:59","orig_title":"L'ours en peluche","year":"1994-08-10","translations":["Профессиональный (многоголосый закадровый)"],"quality":"dvdrip","translation":"Профессиональный (многоголосый закадровый)","update":"2019-05-30 10:50:45","iframe_src":"//7043.svetacdn.in/71tsRs29n5tZ/movie/27234"},{"id":27224,"title":"Вендетта в полночь","kp_id":"31659","imdb_id":"tt0234890","world_art_id":null,"type":"movie","add":"2019-05-29 06:45:57","orig_title":"Thy Neighbor's Wife","year":"2001-09-18","translations":["Авторский (одноголосый закадровый) (Живов Юрий)"],"quality":"dvdrip","translation":"Авторский (одноголосый закадровый) (Живов Юрий)","update":"2019-05-30 09:35:27","iframe_src":"//7043.svetacdn.in/71tsRs29n5tZ/movie/27224"},{"id":27223,"title":"Любовь незнакомца","kp_id":"94478","imdb_id":"tt0110809","world_art_id":null,"type":"movie","add":"2019-05-29 06:40:37","orig_title":"A Perfect Stranger","year":"1994-09-12","translations":["Профессиональный (многоголосый закадровый)"],"quality":"dvdrip","translation":"Профессиональный (многоголосый закадровый)","update":"2019-05-30 09:34:07","iframe_src":"//7043.svetacdn.in/71tsRs29n5tZ/movie/27223"},{"id":27222,"title":"Тонкий человек","kp_id":"553","imdb_id":"tt0025878","world_art_id":null,"type":"movie","add":"2019-05-29 06:33:04","orig_title":"The Thin Man","year":"1934-05-25","translations":["Профессиональный (одноголосый закадровый)"],"quality":"webdl","translation":"Профессиональный (одноголосый закадровый)","update":"2019-05-30 09:32:44","iframe_src":"//7043.svetacdn.in/71tsRs29n5tZ/movie/27222"},{"id":27221,"title":"После свадьбы","kp_id":"88734","imdb_id":"tt0430589","world_art_id":null,"type":"movie","add":"2019-05-29 06:30:24","orig_title":"Shaadi Karke Phas Gaya Yaar","year":"2006-08-01","translations":["Профессиональный (многоголосый закадровый)"],"quality":"dvdrip","translation":"Профессиональный (многоголосый закадровый)","update":"2019-05-30 09:25:40","iframe_src":"//7043.svetacdn.in/71tsRs29n5tZ/movie/27221"},{"id":27220,"title":"Белая собака","kp_id":"12520","imdb_id":"tt0084899","world_art_id":null,"type":"movie","add":"2019-05-29 06:25:51","orig_title":"White Dog","year":"1982-07-07","translations":["Профессиональный (одноголосый закадровый)"],"quality":"bd","translation":"Профессиональный (одноголосый закадровый)","update":"2019-05-30 09:21:11","iframe_src":"//7043.svetacdn.in/71tsRs29n5tZ/movie/27220"},{"id":27152,"title":"Меня зовут Пракашан","kp_id":"1152626","imdb_id":"tt8286926","world_art_id":null,"type":"movie","add":"2019-05-27 19:48:39","orig_title":"Njan Prakashan","year":"2018-12-21","translations":["Любительский (многоголосый закадровый) (Синема УС)"],"quality":"webdl","translation":"Любительский (многоголосый закадровый) (Синема УС)","update":"2019-05-30 09:38:40","iframe_src":"//7043.svetacdn.in/71tsRs29n5tZ/movie/27152"}],"current_page":1311,"first_page_url":"https://videocdn.tv/api/short?limit=100&api_token=EnbO9h8pv1VyjbCJhg0WM9nG259n7mtz&cache31311=31311&page=1","from":131001,"last_page":616,"last_page_url":"https://videocdn.tv/api/short?limit=100&api_token=EnbO9h8pv1VyjbCJhg0WM9nG259n7mtz&cache31311=31311&page=616","next_page_url":null,"path":"https://videocdn.tv/api/short","per_page":100,"prev_page_url":"https://videocdn.tv/api/short?limit=100&api_token=EnbO9h8pv1VyjbCJhg0WM9nG259n7mtz&cache31311=31311&page=1310","to":131020,"total":61558}