{"result":true,"data":[{"id":55834,"title":"Неудавшийся праздник","kp_id":"4646292","imdb_id":"tt14256666","world_art_id":null,"type":"movie","add":"2022-01-10 21:37:17","orig_title":"Girls Getaway Gone Wrong","year":"2021-01-01","translations":["Любительский (многоголосый закадровый) (AlphaProject)"],"quality":"webdl","translation":"Любительский (многоголосый закадровый) (AlphaProject)","update":"2022-01-11 06:02:41","iframe_src":"//24213.svetacdn.in/si4jsFRrtgrT/movie/55834"},{"id":55833,"title":"Выиграй поездку в Браунтаун!","kp_id":"1326731","imdb_id":"tt11246284","world_art_id":null,"type":"movie","add":"2022-01-10 21:35:42","orig_title":"Win a Trip to Browntown!","year":"2021-01-01","translations":["Любительский (многоголосый закадровый) (Синема УС)"],"quality":"webdl","translation":"Любительский (многоголосый закадровый) (Синема УС)","update":"2022-01-11 06:08:19","iframe_src":"//24213.svetacdn.in/si4jsFRrtgrT/movie/55833"},{"id":55831,"title":"Королева сцены","kp_id":"1341915","imdb_id":"tt11651262","world_art_id":null,"type":"movie","add":"2022-01-10 21:30:12","orig_title":"Sac Dep Doi Tra","year":"2020-02-14","translations":["Любительский (многоголосый закадровый) (Синема УС)"],"quality":"webdl","translation":"Любительский (многоголосый закадровый) (Синема УС)","update":"2022-01-11 06:09:02","iframe_src":"//24213.svetacdn.in/si4jsFRrtgrT/movie/55831"},{"id":55830,"title":"Консервная банка","kp_id":"1245481","imdb_id":"tt8413040","world_art_id":null,"type":"movie","add":"2022-01-10 21:25:35","orig_title":"Tin Can","year":"2020-10-08","translations":["Любительский (многоголосый закадровый) (Синема УС)"],"quality":"webdl","translation":"Любительский (многоголосый закадровый) (Синема УС)","update":"2022-01-11 06:10:07","iframe_src":"//24213.svetacdn.in/si4jsFRrtgrT/movie/55830"},{"id":55829,"title":"Мы - отголоски","kp_id":"1414358","imdb_id":"tt11963622","world_art_id":null,"type":"movie","add":"2022-01-10 21:24:16","orig_title":"Somos Ecos","year":"2021-01-01","translations":["Любительский (многоголосый закадровый) (Синема УС)"],"quality":"webdl","translation":"Любительский (многоголосый закадровый) (Синема УС)","update":"2022-01-11 06:11:15","iframe_src":"//24213.svetacdn.in/si4jsFRrtgrT/movie/55829"},{"id":55828,"title":"Кинопленка 2","kp_id":"1260114","imdb_id":"tt10196578","world_art_id":null,"type":"movie","add":"2022-01-10 21:21:35","orig_title":"Reel 2","year":"2020-03-04","translations":["Любительский (многоголосый закадровый) (Синема УС)"],"quality":"webdl","translation":"Любительский (многоголосый закадровый) (Синема УС)","update":"2022-01-11 06:12:00","iframe_src":"//24213.svetacdn.in/si4jsFRrtgrT/movie/55828"},{"id":55827,"title":"Каникулы в Диккенсе","kp_id":"4699742","imdb_id":"tt15235708","world_art_id":null,"type":"movie","add":"2022-01-10 21:19:43","orig_title":"A Dickens of a Holiday!","year":"2021-12-10","translations":["Любительский (многоголосый закадровый) (AlphaProject)"],"quality":"webdl","translation":"Любительский (многоголосый закадровый) (AlphaProject)","update":"2022-01-11 06:00:55","iframe_src":"//24213.svetacdn.in/si4jsFRrtgrT/movie/55827"},{"id":55826,"title":"Мама или папа","kp_id":"1398133","imdb_id":"tt12443220","world_art_id":null,"type":"movie","add":"2022-01-10 21:17:52","orig_title":"Mamá o papá","year":"2021-12-11","translations":["Любительский (многоголосый закадровый) (Синема УС)"],"quality":"webdl","translation":"Любительский (многоголосый закадровый) (Синема УС)","update":"2022-01-11 06:01:41","iframe_src":"//24213.svetacdn.in/si4jsFRrtgrT/movie/55826"},{"id":55824,"title":"Доктор Гама","kp_id":"1245576","imdb_id":"tt9815156","world_art_id":null,"type":"movie","add":"2022-01-10 21:13:07","orig_title":"Doutor Gama","year":"2021-08-05","translations":["Любительский (многоголосый закадровый) (AlphaProject)"],"quality":"webdl","translation":"Любительский (многоголосый закадровый) (AlphaProject)","update":"2022-01-11 06:02:01","iframe_src":"//24213.svetacdn.in/si4jsFRrtgrT/movie/55824"},{"id":55813,"title":"Старушки в снегах","kp_id":"4378220","imdb_id":null,"world_art_id":null,"type":"movie","add":"2022-01-10 12:28:55","orig_title":"Старушки в снегах","year":"2021-01-01","translations":["Оригинальная дорожка"],"quality":"hdtv","translation":"Оригинальная дорожка","update":"2022-01-10 15:20:54","iframe_src":"//24213.svetacdn.in/si4jsFRrtgrT/movie/55813"},{"id":55810,"title":"Господин, его жена и... наш Гангстер возвращается","kp_id":"702715","imdb_id":"tt2362778","world_art_id":null,"type":"movie","add":"2022-01-10 12:21:49","orig_title":"Saheb Biwi Aur Gangster Returns","year":"2013-03-07","translations":["Профессиональный (многоголосый закадровый) (Bollywood HD)"],"quality":"hdtv","translation":"Профессиональный (многоголосый закадровый) (Bollywood HD)","update":"2022-01-10 14:17:49","iframe_src":"//24213.svetacdn.in/si4jsFRrtgrT/movie/55810"},{"id":55809,"title":"Завещание","kp_id":"41773","imdb_id":"tt0364551","world_art_id":null,"type":"movie","add":"2022-01-10 12:16:02","orig_title":"Nasihat","year":"1986-07-25","translations":["Любительский (одноголосый закадровый) (Гумрал)"],"quality":"webdl","translation":"Любительский (одноголосый закадровый) (Гумрал)","update":"2022-01-10 14:17:45","iframe_src":"//24213.svetacdn.in/si4jsFRrtgrT/movie/55809"},{"id":55804,"title":"Чандигарх Каре Аашики","kp_id":"1401360","imdb_id":"tt12861850","world_art_id":null,"type":"movie","add":"2022-01-10 11:32:38","orig_title":"Chandigarh Kare Aashiqui","year":"2021-12-09","translations":["Любительский (многоголосый закадровый) (Синема УС)"],"quality":"webdl","translation":"Любительский (многоголосый закадровый) (Синема УС)","update":"2022-01-10 14:17:05","iframe_src":"//24213.svetacdn.in/si4jsFRrtgrT/movie/55804"},{"id":55803,"title":"Инфракрасные сны","kp_id":"1183532","imdb_id":"tt8706138","world_art_id":null,"type":"movie","add":"2022-01-10 11:26:21","orig_title":"Ava","year":"2020-03-13","translations":["Любительский (многоголосый закадровый) (Синема УС)"],"quality":"webdl","translation":"Любительский (многоголосый закадровый) (Синема УС)","update":"2022-01-10 14:16:59","iframe_src":"//24213.svetacdn.in/si4jsFRrtgrT/movie/55803"},{"id":55802,"title":"Военный пирог","kp_id":"1357749","imdb_id":"tt11991446","world_art_id":null,"type":"movie","add":"2022-01-10 11:20:26","orig_title":"War Cake","year":"2020-03-01","translations":["Любительский (многоголосый закадровый) (Синема УС)"],"quality":"webdl","translation":"Любительский (многоголосый закадровый) (Синема УС)","update":"2022-01-10 14:16:22","iframe_src":"//24213.svetacdn.in/si4jsFRrtgrT/movie/55802"},{"id":55801,"title":"Агада","kp_id":"1005856","imdb_id":"tt6074358","world_art_id":null,"type":"movie","add":"2022-01-10 11:09:22","orig_title":"Agadah","year":"2017-11-16","translations":["Любительский (многоголосый закадровый) (Синема УС)"],"quality":"webdl","translation":"Любительский (многоголосый закадровый) (Синема УС)","update":"2022-01-10 21:47:56","iframe_src":"//24213.svetacdn.in/si4jsFRrtgrT/movie/55801"},{"id":55800,"title":"Любовные советы","kp_id":"4666513","imdb_id":"tt15215420","world_art_id":null,"type":"movie","add":"2022-01-10 11:06:23","orig_title":"Advice to Love By","year":"2021-10-16","translations":["Любительский (многоголосый закадровый) (Синема УС)"],"quality":"hdtv","translation":"Любительский (многоголосый закадровый) (Синема УС)","update":"2022-01-10 21:46:34","iframe_src":"//24213.svetacdn.in/si4jsFRrtgrT/movie/55800"},{"id":55557,"title":"Национальные чемпионы","kp_id":"4470886","imdb_id":"tt14547524","world_art_id":null,"type":"movie","add":"2021-12-29 17:49:15","orig_title":"National Champions","year":"2021-12-10","translations":["Любительский (многоголосый закадровый) (AlphaProject)","[EN] Original (English)","Профессиональный (двухголосый закадровый) (Pazl Voice)"],"quality":"webdl","translation":"Любительский (многоголосый закадровый) (AlphaProject)","update":"2022-01-10 19:04:55","iframe_src":"//24213.svetacdn.in/si4jsFRrtgrT/movie/55557"},{"id":55345,"title":"Суперзвезда","kp_id":"1237845","imdb_id":"tt9714030","world_art_id":null,"type":"movie","add":"2021-12-19 21:58:33","orig_title":"France","year":"2021-07-15","translations":["Полное дублирование (Lucky Production)"],"quality":"webdl","translation":"Полное дублирование (Lucky Production)","update":"2022-01-10 19:07:41","iframe_src":"//24213.svetacdn.in/si4jsFRrtgrT/movie/55345"},{"id":55097,"title":"Путешествие на Запад: Реинкарнация Царя демонов","kp_id":"1435391","imdb_id":"tt14391088","world_art_id":null,"type":"movie","add":"2021-12-09 20:16:02","orig_title":"Monkey King Reborn","year":"2021-04-02","translations":["Любительский (многоголосый закадровый) (Синема УС)","Любительский (двухголосый закадровый) (Синема УС)"],"quality":"bd","translation":"Любительский (многоголосый закадровый) (Синема УС)","update":"2022-01-10 19:33:00","iframe_src":"//24213.svetacdn.in/si4jsFRrtgrT/movie/55097"},{"id":7191,"title":"Тени прошлого","kp_id":"897891","imdb_id":null,"world_art_id":null,"type":"serial","add":"2020-04-14 11:35:01","orig_title":"Тени прошлого","year":"2015-02-07","translations":["Оригинальная дорожка"],"seasons_count":1,"episodes_count":2,"episodes":2,"update":"2020-04-14 20:49:55","iframe_src":"//24213.svetacdn.in/si4jsFRrtgrT/tv-series/7191"},{"id":7190,"title":"Секта","kp_id":"597535","imdb_id":"tt4545336","world_art_id":null,"type":"serial","add":"2020-04-14 10:52:02","orig_title":"Sekta","year":"2011-09-10","translations":["Оригинальная дорожка"],"seasons_count":1,"episodes_count":4,"episodes":4,"update":"2020-04-14 21:00:17","iframe_src":"//24213.svetacdn.in/si4jsFRrtgrT/tv-series/7190"},{"id":7189,"title":"Великое ограбление поезда","kp_id":"780188","imdb_id":"tt2763296","world_art_id":null,"type":"serial","add":"2020-04-14 10:46:46","orig_title":"The Great Train Robbery","year":"2013-12-18","translations":["Профессиональный (многоголосый закадровый) (Первый канал | ОРТ)"],"seasons_count":1,"episodes_count":2,"episodes":2,"update":"2020-04-14 21:01:21","iframe_src":"//24213.svetacdn.in/si4jsFRrtgrT/tv-series/7189"},{"id":7180,"title":"Зов севера","kp_id":"1264198","imdb_id":"tt6331762","world_art_id":null,"type":"serial","add":"2020-04-14 06:13:47","orig_title":"True North Calling","year":"2017-02-17","translations":["Профессиональный (одноголосый закадровый)"],"seasons_count":1,"episodes_count":6,"episodes":6,"update":"2020-04-14 07:50:06","iframe_src":"//24213.svetacdn.in/si4jsFRrtgrT/tv-series/7180"},{"id":7176,"title":"Монти Пайтон: Летающий цирк","kp_id":"94730","imdb_id":"tt0063929","world_art_id":null,"type":"serial","add":"2020-04-13 20:18:54","orig_title":"Monty Python's Flying Circus","year":"1969-10-05","translations":["Профессиональный (одноголосый закадровый) (РенТВ)"],"seasons_count":4,"episodes_count":45,"episodes":6,"update":"2020-04-14 22:30:16","iframe_src":"//24213.svetacdn.in/si4jsFRrtgrT/tv-series/7176"},{"id":7175,"title":"Совсем другая жизнь","kp_id":"491641","imdb_id":"tt3083886","world_art_id":null,"type":"serial","add":"2020-04-13 18:43:13","orig_title":"Sovsem drugaya zhizn","year":"2010-01-01","translations":["Оригинальная дорожка"],"seasons_count":1,"episodes_count":1,"episodes":1,"update":"2020-04-14 09:09:29","iframe_src":"//24213.svetacdn.in/si4jsFRrtgrT/tv-series/7175"},{"id":7171,"title":"Лив и Мэдди","kp_id":"764111","imdb_id":"tt2794380","world_art_id":null,"type":"serial","add":"2020-04-13 12:46:02","orig_title":"Liv and Maddie","year":"2013-07-19","translations":["Полное дублирование (Disney Channel)"],"seasons_count":3,"episodes_count":57,"episodes":15,"update":"2020-04-14 13:27:38","iframe_src":"//24213.svetacdn.in/si4jsFRrtgrT/tv-series/7171"},{"id":7170,"title":"Истина в вине 2","kp_id":"935911","imdb_id":"tt8428540","world_art_id":null,"type":"serial","add":"2020-04-13 12:43:00","orig_title":"Istina v vine 2","year":"2016-03-19","translations":["Оригинальная дорожка"],"seasons_count":1,"episodes_count":2,"episodes":2,"update":"2020-04-13 20:42:56","iframe_src":"//24213.svetacdn.in/si4jsFRrtgrT/tv-series/7170"},{"id":7169,"title":"Эмма","kp_id":"464849","imdb_id":"tt1366312","world_art_id":null,"type":"serial","add":"2020-04-13 12:36:34","orig_title":"Emma","year":"2009-10-04","translations":["Профессиональный (многоголосый закадровый)"],"seasons_count":1,"episodes_count":4,"episodes":4,"update":"2020-04-13 20:45:29","iframe_src":"//24213.svetacdn.in/si4jsFRrtgrT/tv-series/7169"},{"id":7160,"title":"Игрушка","kp_id":"1291174","imdb_id":null,"world_art_id":null,"type":"serial","add":"2020-04-12 10:50:22","orig_title":"Игрушка","year":"2020-04-10","translations":["Оригинальная дорожка"],"seasons_count":1,"episodes_count":2,"episodes":2,"update":"2020-04-14 17:29:16","iframe_src":"//24213.svetacdn.in/si4jsFRrtgrT/tv-series/7160"},{"id":7153,"title":"Гонки с Оффсетом","kp_id":"1356114","imdb_id":"tt11238504","world_art_id":null,"type":"serial","add":"2020-04-10 13:49:27","orig_title":"Skrrt with Offset","year":"2020-04-06","translations":["Любительский (многоголосый закадровый) (ColdFilm)"],"seasons_count":1,"episodes_count":8,"episodes":8,"update":"2020-04-13 13:15:06","iframe_src":"//24213.svetacdn.in/si4jsFRrtgrT/tv-series/7153"},{"id":7136,"title":"Смерть приходит в Пемберли","kp_id":"766973","imdb_id":"tt2951788","world_art_id":null,"type":"serial","add":"2020-04-08 13:14:20","orig_title":"Death Comes to Pemberley","year":"2013-12-26","translations":["Профессиональный (многоголосый закадровый) (Домашний)"],"seasons_count":1,"episodes_count":3,"episodes":3,"update":"2020-04-13 20:48:01","iframe_src":"//24213.svetacdn.in/si4jsFRrtgrT/tv-series/7136"},{"id":7125,"title":"Одиссея 5","kp_id":"295653","imdb_id":"tt0318236","world_art_id":null,"type":"serial","add":"2020-04-07 19:56:29","orig_title":"Odyssey 5","year":"2002-06-21","translations":["Профессиональный (многоголосый закадровый)"],"seasons_count":1,"episodes_count":19,"episodes":19,"update":"2020-04-13 21:33:33","iframe_src":"//24213.svetacdn.in/si4jsFRrtgrT/tv-series/7125"},{"id":7082,"title":"Кровинушка","kp_id":"664643","imdb_id":null,"world_art_id":null,"type":"serial","add":"2020-04-04 09:06:15","orig_title":"Кровинушка","year":"2011-01-01","translations":["Оригинальная дорожка"],"seasons_count":1,"episodes_count":230,"episodes":230,"update":"2020-04-13 09:15:27","iframe_src":"//24213.svetacdn.in/si4jsFRrtgrT/tv-series/7082"},{"id":7054,"title":"Любовь и прочие глупости","kp_id":"497708","imdb_id":"tt3205670","world_art_id":null,"type":"serial","add":"2020-04-02 06:35:49","orig_title":"Lyubov i prochie gluposti","year":"2010-02-15","translations":["Оригинальная дорожка"],"seasons_count":1,"episodes_count":70,"episodes":70,"update":"2020-04-14 12:28:26","iframe_src":"//24213.svetacdn.in/si4jsFRrtgrT/tv-series/7054"},{"id":6946,"title":"Письмо королю","kp_id":"1220882","imdb_id":"tt8741648","world_art_id":null,"type":"serial","add":"2020-03-20 08:07:00","orig_title":"The Letter for the King","year":"2020-03-20","translations":["Полное дублирование (Невафильм | Нева-1)","Любительский (многоголосый закадровый) (Octopus)","Любительский (многоголосый закадровый) (ColdFilm)","Профессиональный (многоголосый закадровый) (TVShows)"],"seasons_count":1,"episodes_count":6,"episodes":6,"update":"2020-04-14 10:30:29","iframe_src":"//24213.svetacdn.in/si4jsFRrtgrT/tv-series/6946"},{"id":3344,"title":"Исцеление любовью","kp_id":"455569","imdb_id":"tt3509748","world_art_id":null,"type":"serial","add":"2018-10-20 14:15:03","orig_title":"Istselenie lyubovyu","year":"2004-01-01","translations":["Оригинальная дорожка"],"seasons_count":1,"episodes_count":190,"episodes":190,"update":"2020-04-13 21:24:40","iframe_src":"//24213.svetacdn.in/si4jsFRrtgrT/tv-series/3344"},{"id":923,"title":"В поле зрения","kp_id":"582359","imdb_id":"tt1839578","world_art_id":null,"type":"serial","add":"2017-01-23 06:22:38","orig_title":"Person of Interest","year":"2011-09-22","translations":["Профессиональный (многоголосый закадровый) (NewStudio)","Профессиональный (многоголосый закадровый) (LostFilm)","Профессиональный (многоголосый закадровый) (ТВ3)","Любительский (многоголосый закадровый)","Профессиональный (многоголосый закадровый) (FOX)","Профессиональный (многоголосый закадровый) (ТНТ)"],"seasons_count":5,"episodes_count":103,"episodes":13,"update":"2020-04-12 16:53:40","iframe_src":"//24213.svetacdn.in/si4jsFRrtgrT/tv-series/923"},{"id":667,"title":"Американская семейка","kp_id":"472329","imdb_id":"tt1442437","world_art_id":null,"type":"serial","add":"2016-12-06 14:24:47","orig_title":"Modern Family","year":"2009-09-23","translations":["Профессиональный (многоголосый закадровый) (LostFilm)","Полное дублирование (Paramount Comedy)","Профессиональный (двухголосый закадровый) (Кубик в Кубе | Kubik³)","Профессиональный (многоголосый закадровый) (TVShows)","Профессиональный (двухголосый закадровый) (LostFilm)"],"seasons_count":11,"episodes_count":250,"episodes":18,"update":"2020-04-13 05:05:52","iframe_src":"//24213.svetacdn.in/si4jsFRrtgrT/tv-series/667"},{"id":530,"title":"Мешок с костями","kp_id":"409267","imdb_id":"tt1212452","world_art_id":null,"type":"serial","add":"2016-10-17 17:39:52","orig_title":"Bag of Bones","year":"2011-12-11","translations":["Профессиональный (многоголосый закадровый) (AlexFilm)","Полное дублирование (ТВ3)"],"seasons_count":1,"episodes_count":2,"episodes":2,"update":"2020-04-14 10:48:38","iframe_src":"//24213.svetacdn.in/si4jsFRrtgrT/tv-series/530"}],"current_page":371,"first_page_url":"https://videocdn.tv/api/short?limit=100&api_token=X6EwAUfE5M9xbo7y0Bp0aPf3uXxG2KLL&cache3371=3371&page=1","from":37001,"last_page":731,"last_page_url":"https://videocdn.tv/api/short?limit=100&api_token=X6EwAUfE5M9xbo7y0Bp0aPf3uXxG2KLL&cache3371=3371&page=731","next_page_url":"https://videocdn.tv/api/short?limit=100&api_token=X6EwAUfE5M9xbo7y0Bp0aPf3uXxG2KLL&cache3371=3371&page=372","path":"https://videocdn.tv/api/short","per_page":100,"prev_page_url":"https://videocdn.tv/api/short?limit=100&api_token=X6EwAUfE5M9xbo7y0Bp0aPf3uXxG2KLL&cache3371=3371&page=370","to":37040,"total":73011}