{"result":true,"data":[{"id":7083,"title":"Bcадники апокалипсиса","kp_id":"271835","imdb_id":"tt0892767","world_art_id":null,"type":"movie","add":"2016-11-05 14:11:51","orig_title":"Horsemen","year":"2009-02-06","translations":["Профессиональный (многоголосый закадровый)"],"quality":"bd","translation":"Профессиональный (многоголосый закадровый)","update":"2016-11-07 06:08:44","iframe_src":"//7741.svetacdn.in/IAF0wWTdNYZm/movie/7083"},{"id":7081,"title":"Каменные кулаки","kp_id":"574689","imdb_id":"tt1781827","world_art_id":null,"type":"movie","add":"2016-11-05 06:42:03","orig_title":"Hands of Stone","year":"2016-05-16","translations":["Любительский (многоголосый закадровый) (Синема УС)"],"quality":"bd","translation":"Любительский (многоголосый закадровый) (Синема УС)","update":"2016-11-05 12:45:09","iframe_src":"//7741.svetacdn.in/IAF0wWTdNYZm/movie/7081"},{"id":7062,"title":"Присяжный","kp_id":"3680","imdb_id":"tt0113500","world_art_id":null,"type":"movie","add":"2016-11-04 13:58:33","orig_title":"Jury Duty","year":"1995-04-12","translations":["Авторский (одноголосый закадровый) (Визгунов Сергей)"],"quality":"webdl","translation":"Авторский (одноголосый закадровый) (Визгунов Сергей)","update":"2016-11-07 06:08:48","iframe_src":"//7741.svetacdn.in/IAF0wWTdNYZm/movie/7062"},{"id":7061,"title":"Мой кровавый Валентин 3D","kp_id":"409071","imdb_id":"tt1179891","world_art_id":null,"type":"movie","add":"2016-11-04 13:33:05","orig_title":"My Bloody Valentine","year":"2009-01-08","translations":["Полное дублирование"],"quality":"bd","translation":"Полное дублирование","update":"2016-11-07 06:05:43","iframe_src":"//7741.svetacdn.in/IAF0wWTdNYZm/movie/7061"},{"id":7060,"title":"Прости, хочу на тебе жениться","kp_id":"475261","imdb_id":"tt1513892","world_art_id":null,"type":"movie","add":"2016-11-04 07:25:54","orig_title":"Scusa ma ti voglio sposare","year":"2010-02-12","translations":["Полное дублирование"],"quality":"bd","translation":"Полное дублирование","update":"2016-11-04 14:49:46","iframe_src":"//7741.svetacdn.in/IAF0wWTdNYZm/movie/7060"},{"id":7058,"title":"Особенности национальной подледной ловли, или Отрыв по полной","kp_id":"398468","imdb_id":"tt1139804","world_art_id":null,"type":"movie","add":"2016-11-04 07:20:24","orig_title":"Otriv po polnoy","year":"2007-12-01","translations":["Оригинальная дорожка"],"quality":"dvdrip","translation":"Оригинальная дорожка","update":"2016-11-04 15:53:49","iframe_src":"//7741.svetacdn.in/IAF0wWTdNYZm/movie/7058"},{"id":7053,"title":"S.W.A.T.: Огненная буря","kp_id":"504367","imdb_id":"tt1621429","world_art_id":null,"type":"movie","add":"2016-11-04 07:09:53","orig_title":"S.W.A.T.: Firefight","year":"2011-03-01","translations":["Профессиональный (многоголосый закадровый)"],"quality":"bd","translation":"Профессиональный (многоголосый закадровый)","update":"2016-11-07 06:16:17","iframe_src":"//7741.svetacdn.in/IAF0wWTdNYZm/movie/7053"},{"id":7048,"title":"Гитлер капут!","kp_id":"396473","imdb_id":"tt1124396","world_art_id":null,"type":"movie","add":"2016-11-04 07:00:06","orig_title":"Gitler kaput!","year":"2008-09-18","translations":["Оригинальная дорожка"],"quality":"bd","translation":"Оригинальная дорожка","update":"2016-11-04 13:39:10","iframe_src":"//7741.svetacdn.in/IAF0wWTdNYZm/movie/7048"},{"id":7045,"title":"Шрэк Третий","kp_id":"84020","imdb_id":"tt0413267","world_art_id":null,"type":"movie","add":"2016-11-04 06:56:15","orig_title":"Shrek the Third","year":"2007-05-06","translations":["Полное дублирование"],"quality":"bd","translation":"Полное дублирование","update":"2016-11-04 13:42:57","iframe_src":"//7741.svetacdn.in/IAF0wWTdNYZm/movie/7045"},{"id":7042,"title":"Бой без правил","kp_id":"394455","imdb_id":"tt1082601","world_art_id":null,"type":"movie","add":"2016-11-04 06:52:05","orig_title":"Fighting","year":"2009-04-24","translations":["Полное дублирование"],"quality":"bd","translation":"Полное дублирование","update":"2016-11-04 13:48:57","iframe_src":"//7741.svetacdn.in/IAF0wWTdNYZm/movie/7042"},{"id":7041,"title":"12 раундов: Перезагрузка","kp_id":"696242","imdb_id":"tt2317524","world_art_id":null,"type":"movie","add":"2016-11-04 06:46:58","orig_title":"12 Rounds 2: Reloaded","year":"2013-06-04","translations":["Профессиональный (многоголосый закадровый)"],"quality":"bd","translation":"Профессиональный (многоголосый закадровый)","update":"2016-11-04 13:41:17","iframe_src":"//7741.svetacdn.in/IAF0wWTdNYZm/movie/7041"},{"id":7032,"title":"Первый рыцарь при дворце короля Артура","kp_id":"20609","imdb_id":"tt0113538","world_art_id":null,"type":"movie","add":"2016-11-03 14:04:44","orig_title":"A Kid in King Arthur's Court","year":"1995-08-11","translations":["Профессиональный (двухголосый закадровый)"],"quality":"webdl","translation":"Профессиональный (двухголосый закадровый)","update":"2016-11-07 06:21:28","iframe_src":"//7741.svetacdn.in/IAF0wWTdNYZm/movie/7032"},{"id":7027,"title":"Бэйб: Поросенок в городе","kp_id":"1767","imdb_id":"tt0120595","world_art_id":null,"type":"movie","add":"2016-11-03 13:58:45","orig_title":"Babe: Pig in the City","year":"1998-11-25","translations":["Полное дублирование"],"quality":"bd","translation":"Полное дублирование","update":"2016-11-07 06:21:24","iframe_src":"//7741.svetacdn.in/IAF0wWTdNYZm/movie/7027"},{"id":7025,"title":"Магазин «Империя»","kp_id":"4594","imdb_id":"tt0112950","world_art_id":null,"type":"movie","add":"2016-11-03 13:53:49","orig_title":"Empire Records","year":"1995-09-22","translations":["Авторский (одноголосый закадровый) (Горчаков Василий)"],"quality":"bd","translation":"Авторский (одноголосый закадровый) (Горчаков Василий)","update":"2016-11-07 05:56:50","iframe_src":"//7741.svetacdn.in/IAF0wWTdNYZm/movie/7025"},{"id":7017,"title":"Площадка","kp_id":"1067","imdb_id":"tt0108037","world_art_id":null,"type":"movie","add":"2016-11-03 13:01:13","orig_title":"The Sandlot","year":"1993-04-07","translations":["Профессиональный (многоголосый закадровый)"],"quality":"bd","translation":"Профессиональный (многоголосый закадровый)","update":"2016-11-04 14:04:59","iframe_src":"//7741.svetacdn.in/IAF0wWTdNYZm/movie/7017"},{"id":7016,"title":"Газета","kp_id":"4253","imdb_id":"tt0110771","world_art_id":null,"type":"movie","add":"2016-11-03 12:59:54","orig_title":"The Paper","year":"1994-03-25","translations":["Профессиональный (многоголосый закадровый)"],"quality":"hdtv","translation":"Профессиональный (многоголосый закадровый)","update":"2016-11-04 14:03:16","iframe_src":"//7741.svetacdn.in/IAF0wWTdNYZm/movie/7016"},{"id":7014,"title":"Высокая мода","kp_id":"4770","imdb_id":"tt0110907","world_art_id":null,"type":"movie","add":"2016-11-03 12:56:54","orig_title":"Prêt-à-Porter","year":"1994-12-23","translations":["Профессиональный (многоголосый закадровый)"],"quality":"bd","translation":"Профессиональный (многоголосый закадровый)","update":"2016-11-04 13:59:32","iframe_src":"//7741.svetacdn.in/IAF0wWTdNYZm/movie/7014"},{"id":7013,"title":"Чемпион","kp_id":"24946","imdb_id":"tt0110805","world_art_id":null,"type":"movie","add":"2016-11-03 12:55:03","orig_title":"Pentathlon","year":"1994-06-04","translations":["Профессиональный (многоголосый закадровый)"],"quality":"bd","translation":"Профессиональный (многоголосый закадровый)","update":"2016-11-04 13:57:35","iframe_src":"//7741.svetacdn.in/IAF0wWTdNYZm/movie/7013"},{"id":6998,"title":"Фаринелли-кастрат","kp_id":"8824","imdb_id":"tt0109771","world_art_id":null,"type":"movie","add":"2016-11-03 05:46:47","orig_title":"Farinelli","year":"1994-12-07","translations":["Профессиональный (многоголосый закадровый)"],"quality":"bd","translation":"Профессиональный (многоголосый закадровый)","update":"2016-11-07 05:36:28","iframe_src":"//7741.svetacdn.in/IAF0wWTdNYZm/movie/6998"},{"id":6980,"title":"История моего лета","kp_id":"21504","imdb_id":"tt0110168","world_art_id":null,"type":"movie","add":"2016-11-02 15:34:48","orig_title":"It Runs in the Family","year":"1994-09-23","translations":["Профессиональный (двухголосый закадровый)"],"quality":"hdtv","translation":"Профессиональный (двухголосый закадровый)","update":"2016-11-04 14:04:59","iframe_src":"//7741.svetacdn.in/IAF0wWTdNYZm/movie/6980"}],"current_page":2617,"first_page_url":"https://videocdn.tv/api/short?limit=100&api_token=6Onb1W1alEUrBcKJZD3GoKBbWyAl2uG2&cache32617=32617&page=1","from":261601,"last_page":706,"last_page_url":"https://videocdn.tv/api/short?limit=100&api_token=6Onb1W1alEUrBcKJZD3GoKBbWyAl2uG2&cache32617=32617&page=706","next_page_url":null,"path":"https://videocdn.tv/api/short","per_page":100,"prev_page_url":"https://videocdn.tv/api/short?limit=100&api_token=6Onb1W1alEUrBcKJZD3GoKBbWyAl2uG2&cache32617=32617&page=2616","to":261620,"total":70558}