{"result":true,"data":[{"id":26195,"title":"Онрё","kp_id":"849646","imdb_id":"tt3547502","world_art_id":null,"type":"movie","add":"2019-05-09 06:52:03","orig_title":"Onryo","year":"2019-04-26","translations":["Любительский (многоголосый закадровый) (Синема УС)"],"quality":"webdl","translation":"Любительский (многоголосый закадровый) (Синема УС)","update":"2019-05-09 08:22:21","iframe_src":"//8332.svetacdn.in/71tsRs29n5tZ/movie/26195"},{"id":26192,"title":"Тише, малышка, добро пожаловать в семью","kp_id":"1177559","imdb_id":"tt8722030","world_art_id":null,"type":"movie","add":"2019-05-09 06:41:03","orig_title":"Hush Little Baby Welcome To The Family","year":"2018-10-08","translations":["Любительский (многоголосый закадровый) (Синема УС)"],"quality":"webdl","translation":"Любительский (многоголосый закадровый) (Синема УС)","update":"2019-05-09 08:21:35","iframe_src":"//8332.svetacdn.in/71tsRs29n5tZ/movie/26192"},{"id":26191,"title":"Ревнивая","kp_id":"1055018","imdb_id":"tt7156144","world_art_id":null,"type":"movie","add":"2019-05-09 06:35:27","orig_title":"Jalouse","year":"2017-08-26","translations":["Любительский (многоголосый закадровый) (Синема УС)"],"quality":"bd","translation":"Любительский (многоголосый закадровый) (Синема УС)","update":"2019-05-09 08:18:52","iframe_src":"//8332.svetacdn.in/71tsRs29n5tZ/movie/26191"},{"id":26188,"title":"Сдаётся комната","kp_id":"1071510","imdb_id":"tt6747818","world_art_id":null,"type":"movie","add":"2019-05-09 06:04:10","orig_title":"Room for Rent","year":"2019-02-23","translations":["Любительский (многоголосый закадровый) (Синема УС)"],"quality":"webdl","translation":"Любительский (многоголосый закадровый) (Синема УС)","update":"2019-05-09 07:19:58","iframe_src":"//8332.svetacdn.in/71tsRs29n5tZ/movie/26188"},{"id":26187,"title":"Нарцисс","kp_id":"1237107","imdb_id":"tt9667876","world_art_id":null,"type":"movie","add":"2019-05-09 05:57:08","orig_title":"The Narcissist","year":"2019-04-26","translations":["Любительский (многоголосый закадровый) (Синема УС)"],"quality":"hdtv","translation":"Любительский (многоголосый закадровый) (Синема УС)","update":"2019-05-09 07:23:33","iframe_src":"//8332.svetacdn.in/71tsRs29n5tZ/movie/26187"},{"id":26186,"title":"Отчаянная жизнь","kp_id":"1078726","imdb_id":"tt6917272","world_art_id":null,"type":"movie","add":"2019-05-09 05:54:52","orig_title":"Una vita spericolata","year":"2018-06-21","translations":["Любительский (многоголосый закадровый) (Синема УС)"],"quality":"bd","translation":"Любительский (многоголосый закадровый) (Синема УС)","update":"2019-05-09 08:21:54","iframe_src":"//8332.svetacdn.in/71tsRs29n5tZ/movie/26186"},{"id":26176,"title":"Поздний цветок","kp_id":"495459","imdb_id":"tt1588878","world_art_id":null,"type":"movie","add":"2019-05-07 21:53:20","orig_title":"The Late Bloomer","year":"2016-09-30","translations":["Полное дублирование"],"quality":"webdl","translation":"Полное дублирование","update":"2019-05-09 08:18:54","iframe_src":"//8332.svetacdn.in/71tsRs29n5tZ/movie/26176"},{"id":20935,"title":"Мальчик на троих","kp_id":"105012","imdb_id":"tt0456554","world_art_id":null,"type":"movie","add":"2018-12-23 09:56:29","orig_title":"Grandma's Boy","year":"2006-01-06","translations":["Полное дублирование","Original (English)"],"quality":"webdl","translation":"Полное дублирование","update":"2019-05-09 06:33:21","iframe_src":"//8332.svetacdn.in/71tsRs29n5tZ/movie/20935"},{"id":20902,"title":"Белая графиня","kp_id":"77528","imdb_id":"tt0384686","world_art_id":null,"type":"movie","add":"2018-12-21 14:04:40","orig_title":"The White Countess","year":"2005-10-30","translations":["Профессиональный (многоголосый закадровый)","Original (English)"],"quality":"webdl","translation":"Профессиональный (многоголосый закадровый)","update":"2019-05-09 07:18:43","iframe_src":"//8332.svetacdn.in/71tsRs29n5tZ/movie/20902"},{"id":20901,"title":"Всё о моей родне","kp_id":"85576","imdb_id":"tt0429177","world_art_id":null,"type":"movie","add":"2018-12-21 14:03:43","orig_title":"The Thing About My Folks","year":"2005-06-02","translations":["Профессиональный (многоголосый закадровый)","Original (English)"],"quality":"webdl","translation":"Профессиональный (многоголосый закадровый)","update":"2019-05-09 07:17:57","iframe_src":"//8332.svetacdn.in/71tsRs29n5tZ/movie/20901"},{"id":20900,"title":"В ясный день увидишь вечность","kp_id":"4219","imdb_id":"tt0066181","world_art_id":null,"type":"movie","add":"2018-12-21 14:02:36","orig_title":"On a Clear Day You Can See Forever","year":"1970-06-17","translations":["Профессиональный (многоголосый закадровый)","Original (English)"],"quality":"webdl","translation":"Профессиональный (многоголосый закадровый)","update":"2019-05-09 07:06:14","iframe_src":"//8332.svetacdn.in/71tsRs29n5tZ/movie/20900"},{"id":20899,"title":"В ясный день","kp_id":"81486","imdb_id":"tt0410400","world_art_id":null,"type":"movie","add":"2018-12-21 14:01:45","orig_title":"On a Clear Day","year":"2005-08-05","translations":["Профессиональный (многоголосый закадровый)","Original (English)"],"quality":"webdl","translation":"Профессиональный (многоголосый закадровый)","update":"2019-05-09 07:05:27","iframe_src":"//8332.svetacdn.in/71tsRs29n5tZ/movie/20899"},{"id":20898,"title":"Чумовые боты","kp_id":"86881","imdb_id":"tt0434124","world_art_id":null,"type":"movie","add":"2018-12-21 14:00:31","orig_title":"Kinky Boots","year":"2005-10-07","translations":["Профессиональный (многоголосый закадровый)","Original (English)"],"quality":"webdl","translation":"Профессиональный (многоголосый закадровый)","update":"2019-05-09 06:34:56","iframe_src":"//8332.svetacdn.in/71tsRs29n5tZ/movie/20898"},{"id":20895,"title":"Крутой и цыпочки","kp_id":"24674","imdb_id":"tt0331933","world_art_id":null,"type":"movie","add":"2018-12-21 13:55:48","orig_title":"Man of the House","year":"2005-02-25","translations":["Профессиональный (двухголосый закадровый)","Original (English)"],"quality":"webdl","translation":"Профессиональный (двухголосый закадровый)","update":"2019-05-09 06:36:20","iframe_src":"//8332.svetacdn.in/71tsRs29n5tZ/movie/20895"},{"id":20894,"title":"Кто первый к заднице прильнет","kp_id":"95150","imdb_id":"tt0452671","world_art_id":null,"type":"movie","add":"2018-12-21 13:53:03","orig_title":"Race You to the Bottom","year":"2005-04-06","translations":["Авторский (одноголосый закадровый) (Алексеев Антон)","Original (English)"],"quality":"webdl","translation":"Авторский (одноголосый закадровый) (Алексеев Антон)","update":"2019-05-09 07:07:43","iframe_src":"//8332.svetacdn.in/71tsRs29n5tZ/movie/20894"},{"id":20834,"title":"Помощник сатаны","kp_id":"50646","imdb_id":"tt0380687","world_art_id":null,"type":"movie","add":"2018-12-18 14:36:27","orig_title":"Satan's Little Helper","year":"2004-05-06","translations":["Профессиональный (многоголосый закадровый)","Original (English)"],"quality":"webdl","translation":"Профессиональный (многоголосый закадровый)","update":"2019-05-09 07:09:06","iframe_src":"//8332.svetacdn.in/71tsRs29n5tZ/movie/20834"},{"id":20830,"title":"Охотник на убийц","kp_id":"3757","imdb_id":"tt0324127","world_art_id":null,"type":"movie","add":"2018-12-18 14:30:33","orig_title":"Suspect Zero","year":"2004-08-27","translations":["Профессиональный (двухголосый закадровый)","Original (English)"],"quality":"webdl","translation":"Профессиональный (двухголосый закадровый)","update":"2019-05-09 07:11:09","iframe_src":"//8332.svetacdn.in/71tsRs29n5tZ/movie/20830"},{"id":20720,"title":"Поющий детектив","kp_id":"1654","imdb_id":"tt0314676","world_art_id":null,"type":"movie","add":"2018-12-13 14:11:28","orig_title":"The Singing Detective","year":"2003-01-17","translations":["Профессиональный (многоголосый закадровый)","Original (English)"],"quality":"webdl","translation":"Профессиональный (многоголосый закадровый)","update":"2019-05-09 07:14:06","iframe_src":"//8332.svetacdn.in/71tsRs29n5tZ/movie/20720"},{"id":20719,"title":"Бурый кролик","kp_id":"11056","imdb_id":"tt0330099","world_art_id":null,"type":"movie","add":"2018-12-13 14:10:26","orig_title":"The Brown Bunny","year":"2003-05-21","translations":["Профессиональный (многоголосый закадровый)","Original (English)"],"quality":"webdl","translation":"Профессиональный (многоголосый закадровый)","update":"2019-05-09 07:12:31","iframe_src":"//8332.svetacdn.in/71tsRs29n5tZ/movie/20719"},{"id":20714,"title":"Игрок","kp_id":"10987","imdb_id":"tt0338467","world_art_id":null,"type":"movie","add":"2018-12-13 14:03:33","orig_title":"Stuey","year":"2003-05-01","translations":["Профессиональный (двухголосый закадровый)","Original (English)"],"quality":"webdl","translation":"Профессиональный (двухголосый закадровый)","update":"2019-05-09 07:10:05","iframe_src":"//8332.svetacdn.in/71tsRs29n5tZ/movie/20714"}],"current_page":1478,"first_page_url":"https://videocdn.tv/api/short?limit=100&api_token=EnbO9h8pv1VyjbCJhg0WM9nG259n7mtz&cache31478=31478&page=1","from":147701,"last_page":640,"last_page_url":"https://videocdn.tv/api/short?limit=100&api_token=EnbO9h8pv1VyjbCJhg0WM9nG259n7mtz&cache31478=31478&page=640","next_page_url":null,"path":"https://videocdn.tv/api/short","per_page":100,"prev_page_url":"https://videocdn.tv/api/short?limit=100&api_token=EnbO9h8pv1VyjbCJhg0WM9nG259n7mtz&cache31478=31478&page=1477","to":147720,"total":63975}