{"result":true,"data":[{"id":14357,"title":"Пугальщики","kp_id":"982088","imdb_id":"tt5578538","world_art_id":null,"type":"movie","add":"2017-11-13 23:05:59","orig_title":"Spookers","year":"2017-04-30","translations":["Любительский (многоголосый закадровый) (Синема УС)"],"quality":"webdl","translation":"Любительский (многоголосый закадровый) (Синема УС)","update":"2017-11-14 06:34:08","iframe_src":"//83.svetacdn.in/PfJ50H0ZBPg3/movie/14357"},{"id":14355,"title":"Невиновный","kp_id":"1057521","imdb_id":"tt6747242","world_art_id":null,"type":"movie","add":"2017-11-13 22:48:12","orig_title":"8 Thottakkal","year":"2017-04-07","translations":["Профессиональный (многоголосый закадровый) (Red Media)"],"quality":"sat","translation":"Профессиональный (многоголосый закадровый) (Red Media)","update":"2017-11-14 06:37:24","iframe_src":"//83.svetacdn.in/PfJ50H0ZBPg3/movie/14355"},{"id":14354,"title":"Мастер пьяного кулака: Нищий Со","kp_id":null,"imdb_id":"tt6502208","world_art_id":null,"type":"movie","add":"2017-11-13 22:46:06","orig_title":"Master of the Drunken Fist: Beggar So","year":"2016-11-13","translations":["Любительский (многоголосый закадровый) (Синема УС)"],"quality":"webdl","translation":"Любительский (многоголосый закадровый) (Синема УС)","update":"2017-11-14 06:40:45","iframe_src":"//83.svetacdn.in/PfJ50H0ZBPg3/movie/14354"},{"id":14353,"title":"Мари-Франсин","kp_id":"1006111","imdb_id":"tt6081632","world_art_id":null,"type":"movie","add":"2017-11-13 22:44:18","orig_title":"Marie-Francine","year":"2017-05-31","translations":["Любительский (многоголосый закадровый) (Синема УС)"],"quality":"bd","translation":"Любительский (многоголосый закадровый) (Синема УС)","update":"2017-11-14 06:41:40","iframe_src":"//83.svetacdn.in/PfJ50H0ZBPg3/movie/14353"},{"id":14352,"title":"Хэмпстед","kp_id":"975657","imdb_id":"tt5153236","world_art_id":null,"type":"movie","add":"2017-11-13 22:41:35","orig_title":"Hampstead","year":"2017-06-23","translations":["Любительский (многоголосый закадровый) (Синема УС)"],"quality":"webdl","translation":"Любительский (многоголосый закадровый) (Синема УС)","update":"2017-11-14 06:44:28","iframe_src":"//83.svetacdn.in/PfJ50H0ZBPg3/movie/14352"},{"id":14351,"title":"Ешь, Играй, Люби","kp_id":"1048236","imdb_id":"tt7034316","world_art_id":null,"type":"movie","add":"2017-11-13 22:38:33","orig_title":"Eat, Play, Love","year":"2017-08-19","translations":["Любительский (многоголосый закадровый) (Синема УС)"],"quality":"hdtv","translation":"Любительский (многоголосый закадровый) (Синема УС)","update":"2017-11-14 06:46:48","iframe_src":"//83.svetacdn.in/PfJ50H0ZBPg3/movie/14351"},{"id":14350,"title":"Разлучённые","kp_id":"849563","imdb_id":"tt4117538","world_art_id":null,"type":"movie","add":"2017-11-13 22:36:28","orig_title":"Disconnected","year":"2017-03-01","translations":["Любительский (многоголосый закадровый) (Синема УС)"],"quality":"webdl","translation":"Любительский (многоголосый закадровый) (Синема УС)","update":"2017-11-14 06:47:51","iframe_src":"//83.svetacdn.in/PfJ50H0ZBPg3/movie/14350"},{"id":14349,"title":"Четыре луны","kp_id":"696345","imdb_id":"tt2260850","world_art_id":null,"type":"movie","add":"2017-11-13 22:33:43","orig_title":"Cuatro lunas","year":"2014-03-25","translations":["Любительский (одноголосый закадровый)"],"quality":"dvdrip","translation":"Любительский (одноголосый закадровый)","update":"2017-11-14 06:48:51","iframe_src":"//83.svetacdn.in/PfJ50H0ZBPg3/movie/14349"},{"id":14347,"title":"Бой за любовь","kp_id":"982454","imdb_id":"tt5698088","world_art_id":null,"type":"movie","add":"2017-11-13 22:26:47","orig_title":"Paambhu Sattai","year":"2017-03-24","translations":["Профессиональный (многоголосый закадровый) (Red Media)"],"quality":"sat","translation":"Профессиональный (многоголосый закадровый) (Red Media)","update":"2017-11-14 06:51:19","iframe_src":"//83.svetacdn.in/PfJ50H0ZBPg3/movie/14347"},{"id":14346,"title":"Не упусти свой шанс","kp_id":"852726","imdb_id":"tt3911850","world_art_id":null,"type":"movie","add":"2017-11-13 22:17:34","orig_title":"Almosting It","year":"2016-05-13","translations":["Любительский (многоголосый закадровый) (Синема УС)"],"quality":"webdl","translation":"Любительский (многоголосый закадровый) (Синема УС)","update":"2017-11-14 06:54:27","iframe_src":"//83.svetacdn.in/PfJ50H0ZBPg3/movie/14346"},{"id":14345,"title":"Инопланетный контакт","kp_id":"1071742","imdb_id":"tt6874406","world_art_id":null,"type":"movie","add":"2017-11-13 22:15:36","orig_title":"Alien Convergence","year":"2017-06-27","translations":["Любительский (многоголосый закадровый) (Синема УС)"],"quality":"bd","translation":"Любительский (многоголосый закадровый) (Синема УС)","update":"2017-11-14 06:55:58","iframe_src":"//83.svetacdn.in/PfJ50H0ZBPg3/movie/14345"},{"id":14335,"title":"Стерва","kp_id":"1002736","imdb_id":"tt6069264","world_art_id":null,"type":"movie","add":"2017-11-12 21:16:50","orig_title":"Bitch","year":"2017-01-20","translations":["Любительский (многоголосый закадровый) (Синема УС)","Любительский (двухголосый закадровый) (RecentFilms)"],"quality":"webdl","translation":"Любительский (многоголосый закадровый) (Синема УС)","update":"2017-11-13 12:04:47","iframe_src":"//83.svetacdn.in/PfJ50H0ZBPg3/movie/14335"},{"id":14328,"title":"Зловещая засада","kp_id":null,"imdb_id":"tt5729066","world_art_id":null,"type":"movie","add":"2017-11-11 18:58:43","orig_title":"Spooky Stakeout","year":"2016-10-04","translations":["Любительский (многоголосый закадровый) (Синема УС)"],"quality":"dvdrip","translation":"Любительский (многоголосый закадровый) (Синема УС)","update":"2017-11-13 11:27:50","iframe_src":"//83.svetacdn.in/PfJ50H0ZBPg3/movie/14328"},{"id":14315,"title":"Рождественский фестиваль льда","kp_id":"1051098","imdb_id":"tt7038632","world_art_id":null,"type":"movie","add":"2017-11-11 18:17:50","orig_title":"Christmas Festival of Ice","year":"2017-11-04","translations":["Любительский (многоголосый закадровый) (Синема УС)","Любительский (двухголосый закадровый) (RecentFilms)"],"quality":"hdtv","translation":"Любительский (многоголосый закадровый) (Синема УС)","update":"2017-11-13 11:57:28","iframe_src":"//83.svetacdn.in/PfJ50H0ZBPg3/movie/14315"},{"id":14310,"title":"Барракуда","kp_id":"975924","imdb_id":"tt5663298","world_art_id":null,"type":"movie","add":"2017-11-11 18:08:50","orig_title":"La Barracuda","year":"2017-03-11","translations":["Профессиональный (многоголосый закадровый) (AlexFilm)","Любительский (многоголосый закадровый) (Синема УС)","Любительский (двухголосый закадровый) (RecentFilms)"],"quality":"webdl","translation":"Профессиональный (многоголосый закадровый) (AlexFilm)","update":"2017-11-13 12:01:10","iframe_src":"//83.svetacdn.in/PfJ50H0ZBPg3/movie/14310"},{"id":14256,"title":"Виски рекой","kp_id":"928105","imdb_id":"tt4769214","world_art_id":null,"type":"movie","add":"2017-11-06 22:58:49","orig_title":"Whisky Galore","year":"2016-06-26","translations":["Любительский (двухголосый закадровый) (RecentFilms)","Любительский (многоголосый закадровый) (Синема УС)"],"quality":"webdl","translation":"Любительский (двухголосый закадровый) (RecentFilms)","update":"2017-11-13 11:38:36","iframe_src":"//83.svetacdn.in/PfJ50H0ZBPg3/movie/14256"},{"id":14247,"title":"Мать-волчица","kp_id":"816064","imdb_id":"tt3225318","world_art_id":null,"type":"movie","add":"2017-11-05 23:09:27","orig_title":"Wolf Mother","year":"2016-06-02","translations":["Любительский (двухголосый закадровый) (RecentFilms)","Любительский (многоголосый закадровый) (Синема УС)"],"quality":"webdl","translation":"Любительский (двухголосый закадровый) (RecentFilms)","update":"2017-11-13 11:40:13","iframe_src":"//83.svetacdn.in/PfJ50H0ZBPg3/movie/14247"},{"id":14232,"title":"Сын другой матери","kp_id":"944167","imdb_id":"tt5193790","world_art_id":null,"type":"movie","add":"2017-11-05 21:37:40","orig_title":"Another Mother's Son","year":"2017-03-24","translations":["Любительский (двухголосый закадровый) (RecentFilms)","Любительский (многоголосый закадровый) (Синема УС)"],"quality":"dvdrip","translation":"Любительский (двухголосый закадровый) (RecentFilms)","update":"2017-11-13 11:59:40","iframe_src":"//83.svetacdn.in/PfJ50H0ZBPg3/movie/14232"},{"id":13592,"title":"Заложники","kp_id":"1007058","imdb_id":"tt5207262","world_art_id":null,"type":"movie","add":"2017-09-23 09:42:05","orig_title":"Hostages","year":"2017-02-10","translations":["Оригинальная дорожка"],"quality":"bd","translation":"Оригинальная дорожка","update":"2017-11-14 06:43:08","iframe_src":"//83.svetacdn.in/PfJ50H0ZBPg3/movie/13592"},{"id":8468,"title":"Запретная комната","kp_id":"783569","imdb_id":"tt3066630","world_art_id":null,"type":"movie","add":"2016-12-30 12:19:41","orig_title":"The Forbidden Room","year":"2015-01-26","translations":["Любительский (двухголосый закадровый)","Любительский (многоголосый закадровый) (Синема УС)"],"quality":"bd","translation":"Любительский (двухголосый закадровый)","update":"2017-11-13 11:31:45","iframe_src":"//83.svetacdn.in/PfJ50H0ZBPg3/movie/8468"}],"current_page":2434,"first_page_url":"https://videocdn.tv/api/short?limit=100&api_token=RgFQdUIR2dRmwv8iYa5SnFNgnw3vpjKj&cache32434=32434&page=1","from":243301,"last_page":724,"last_page_url":"https://videocdn.tv/api/short?limit=100&api_token=RgFQdUIR2dRmwv8iYa5SnFNgnw3vpjKj&cache32434=32434&page=724","next_page_url":null,"path":"https://videocdn.tv/api/short","per_page":100,"prev_page_url":"https://videocdn.tv/api/short?limit=100&api_token=RgFQdUIR2dRmwv8iYa5SnFNgnw3vpjKj&cache32434=32434&page=2433","to":243320,"total":72342}