{"result":true,"data":[{"id":44669,"title":"Про шмелей и королей","kp_id":"578907","imdb_id":"tt3467458","world_art_id":null,"type":"movie","add":"2020-10-21 18:34:52","orig_title":"Pro Shmeley I Koroley","year":"1984-01-01","translations":["Оригинальная дорожка"],"quality":"sat","translation":"Оригинальная дорожка","update":"2020-10-29 08:06:50","iframe_src":"//24213.svetacdn.in/si4jsFRrtgrT/movie/44669"},{"id":44668,"title":"Охотник, мальчик и собака","kp_id":"270712","imdb_id":"tt0794123","world_art_id":null,"type":"movie","add":"2020-10-21 18:30:30","orig_title":"Monadire, bichi da dzagli","year":"1970-01-01","translations":["Любительский (одноголосый закадровый)"],"quality":"sat","translation":"Любительский (одноголосый закадровый)","update":"2020-10-29 08:05:58","iframe_src":"//24213.svetacdn.in/si4jsFRrtgrT/movie/44668"},{"id":44666,"title":"Шмель","kp_id":"1199673","imdb_id":null,"world_art_id":null,"type":"movie","add":"2020-10-21 18:13:29","orig_title":"Шмель","year":"1981-01-01","translations":["Оригинальная дорожка"],"quality":"dvdrip","translation":"Оригинальная дорожка","update":"2020-10-29 08:03:43","iframe_src":"//24213.svetacdn.in/si4jsFRrtgrT/movie/44666"},{"id":44665,"title":"Золотой гвоздь","kp_id":"649225","imdb_id":"tt4434058","world_art_id":null,"type":"movie","add":"2020-10-21 16:59:11","orig_title":"Zolotoy gvozd","year":"1986-01-01","translations":["Оригинальная дорожка"],"quality":"dvdrip","translation":"Оригинальная дорожка","update":"2020-10-29 08:02:39","iframe_src":"//24213.svetacdn.in/si4jsFRrtgrT/movie/44665"},{"id":44664,"title":"Заколдованное слово","kp_id":"687918","imdb_id":"tt5879892","world_art_id":null,"type":"movie","add":"2020-10-21 16:36:12","orig_title":"Zakoldovannoe slovo","year":"1976-01-01","translations":["Оригинальная дорожка"],"quality":"dvdrip","translation":"Оригинальная дорожка","update":"2020-10-29 08:01:58","iframe_src":"//24213.svetacdn.in/si4jsFRrtgrT/movie/44664"},{"id":44663,"title":"Жила-была пчёлка...","kp_id":"674629","imdb_id":null,"world_art_id":null,"type":"movie","add":"2020-10-21 16:33:48","orig_title":"Жила-была пчёлка...","year":"1978-01-01","translations":["Оригинальная дорожка"],"quality":"dvdrip","translation":"Оригинальная дорожка","update":"2020-10-29 08:01:02","iframe_src":"//24213.svetacdn.in/si4jsFRrtgrT/movie/44663"},{"id":44662,"title":"Домовой и хозяйка","kp_id":"632392","imdb_id":"tt2585116","world_art_id":null,"type":"movie","add":"2020-10-21 16:27:17","orig_title":"Domovoy i khozyayka","year":"1988-01-01","translations":["Оригинальная дорожка"],"quality":"dvdrip","translation":"Оригинальная дорожка","update":"2020-10-29 08:00:26","iframe_src":"//24213.svetacdn.in/si4jsFRrtgrT/movie/44662"},{"id":44661,"title":"Далеко-далеко на юге","kp_id":"417798","imdb_id":"tt2392353","world_art_id":null,"type":"movie","add":"2020-10-21 16:24:48","orig_title":"Daleko-daleko na yuge","year":"1982-01-01","translations":["Оригинальная дорожка"],"quality":"dvdrip","translation":"Оригинальная дорожка","update":"2020-10-29 07:59:54","iframe_src":"//24213.svetacdn.in/si4jsFRrtgrT/movie/44661"},{"id":44660,"title":"Грибной дождик","kp_id":"532865","imdb_id":"tt6323740","world_art_id":null,"type":"movie","add":"2020-10-21 16:21:39","orig_title":"Gribnoy dozhdik","year":"1985-01-01","translations":["Оригинальная дорожка"],"quality":"dvdrip","translation":"Оригинальная дорожка","update":"2020-10-29 07:59:01","iframe_src":"//24213.svetacdn.in/si4jsFRrtgrT/movie/44660"},{"id":44659,"title":"Про Петрушку","kp_id":"469601","imdb_id":null,"world_art_id":null,"type":"movie","add":"2020-10-21 16:18:11","orig_title":"Про Петрушку","year":"1973-01-01","translations":["Оригинальная дорожка"],"quality":"dvdrip","translation":"Оригинальная дорожка","update":"2020-10-29 07:57:54","iframe_src":"//24213.svetacdn.in/si4jsFRrtgrT/movie/44659"},{"id":44658,"title":"Про котёнка Женю и правила движения","kp_id":"647287","imdb_id":"tt11754638","world_art_id":null,"type":"movie","add":"2020-10-21 16:09:25","orig_title":"Pro kotonka Zhenyu i pravila dvizheniya","year":"1976-01-01","translations":["Оригинальная дорожка"],"quality":"dvdrip","translation":"Оригинальная дорожка","update":"2020-10-29 07:57:01","iframe_src":"//24213.svetacdn.in/si4jsFRrtgrT/movie/44658"},{"id":44652,"title":"Портрет","kp_id":"645480","imdb_id":"tt6024444","world_art_id":null,"type":"movie","add":"2020-10-20 19:22:55","orig_title":"Portret","year":"1965-01-01","translations":["Оригинальная дорожка"],"quality":"dvdrip","translation":"Оригинальная дорожка","update":"2020-10-29 07:56:06","iframe_src":"//24213.svetacdn.in/si4jsFRrtgrT/movie/44652"},{"id":44651,"title":"Подземный переход","kp_id":"601742","imdb_id":"tt3570234","world_art_id":null,"type":"movie","add":"2020-10-20 19:18:01","orig_title":"Podzemnyy perekhod","year":"1984-01-01","translations":["Оригинальная дорожка"],"quality":"dvdrip","translation":"Оригинальная дорожка","update":"2020-10-29 07:55:18","iframe_src":"//24213.svetacdn.in/si4jsFRrtgrT/movie/44651"},{"id":44650,"title":"Пики-желторотик","kp_id":"669493","imdb_id":null,"world_art_id":null,"type":"movie","add":"2020-10-20 19:15:25","orig_title":"Пики-желторотик","year":"1974-01-01","translations":["Оригинальная дорожка"],"quality":"sat","translation":"Оригинальная дорожка","update":"2020-10-29 07:54:12","iframe_src":"//24213.svetacdn.in/si4jsFRrtgrT/movie/44650"},{"id":44649,"title":"Песня волшебного камня","kp_id":"1270760","imdb_id":null,"world_art_id":null,"type":"movie","add":"2020-10-20 19:11:44","orig_title":"Песня волшебного камня","year":"1974-01-01","translations":["Оригинальная дорожка"],"quality":"vhs","translation":"Оригинальная дорожка","update":"2020-10-29 07:53:22","iframe_src":"//24213.svetacdn.in/si4jsFRrtgrT/movie/44649"},{"id":44648,"title":"Пекка","kp_id":"897230","imdb_id":"tt4611498","world_art_id":null,"type":"movie","add":"2020-10-20 19:05:20","orig_title":"Pekka","year":"1985-01-01","translations":["Оригинальная дорожка"],"quality":"vhs","translation":"Оригинальная дорожка","update":"2020-10-29 07:52:43","iframe_src":"//24213.svetacdn.in/si4jsFRrtgrT/movie/44648"},{"id":44647,"title":"Он прилетал лишь однажды","kp_id":"1045401","imdb_id":null,"world_art_id":null,"type":"movie","add":"2020-10-20 18:48:18","orig_title":"Он прилетал лишь однажды","year":"1978-01-01","translations":["Оригинальная дорожка"],"quality":"tv","translation":"Оригинальная дорожка","update":"2020-10-29 07:51:57","iframe_src":"//24213.svetacdn.in/si4jsFRrtgrT/movie/44647"},{"id":44646,"title":"Охотничье ружье","kp_id":"260067","imdb_id":"tt6071046","world_art_id":null,"type":"movie","add":"2020-10-20 18:41:43","orig_title":"Okhotniche ruzhyo","year":"1948-11-09","translations":["Оригинальная дорожка"],"quality":"dvdrip","translation":"Оригинальная дорожка","update":"2020-10-29 07:50:58","iframe_src":"//24213.svetacdn.in/si4jsFRrtgrT/movie/44646"},{"id":44645,"title":"Ночь весны","kp_id":"632470","imdb_id":null,"world_art_id":null,"type":"movie","add":"2020-10-20 18:31:48","orig_title":"Ночь весны","year":"1976-01-01","translations":["Оригинальная дорожка"],"quality":"sat","translation":"Оригинальная дорожка","update":"2020-10-29 07:49:47","iframe_src":"//24213.svetacdn.in/si4jsFRrtgrT/movie/44645"},{"id":44644,"title":"Нико и Никора","kp_id":"441260","imdb_id":"tt0781057","world_art_id":null,"type":"movie","add":"2020-10-20 18:08:44","orig_title":"Niko da Nikora","year":"1954-01-01","translations":["Оригинальная дорожка"],"quality":"sat","translation":"Оригинальная дорожка","update":"2020-10-29 07:48:53","iframe_src":"//24213.svetacdn.in/si4jsFRrtgrT/movie/44644"}],"current_page":1029,"first_page_url":"https://videocdn.tv/api/short?limit=100&api_token=X6EwAUfE5M9xbo7y0Bp0aPf3uXxG2KLL&cache31029=31029&page=1","from":102801,"last_page":728,"last_page_url":"https://videocdn.tv/api/short?limit=100&api_token=X6EwAUfE5M9xbo7y0Bp0aPf3uXxG2KLL&cache31029=31029&page=728","next_page_url":null,"path":"https://videocdn.tv/api/short","per_page":100,"prev_page_url":"https://videocdn.tv/api/short?limit=100&api_token=X6EwAUfE5M9xbo7y0Bp0aPf3uXxG2KLL&cache31029=31029&page=1028","to":102820,"total":72724}