{"result":true,"data":[{"id":46755,"title":"Ножовка","kp_id":"1147238","imdb_id":"tt7736042","world_art_id":null,"type":"movie","add":"2021-01-06 21:42:35","orig_title":"Hacksaw","year":"2021-01-05","translations":["Любительский (многоголосый закадровый) (Синема УС)"],"quality":"webdl","translation":"Любительский (многоголосый закадровый) (Синема УС)","update":"2021-01-07 07:09:24","iframe_src":"//5322.svetacdn.in/71tsRs29n5tZ/movie/46755"},{"id":46753,"title":"Лена и белый тигр","kp_id":"1236682","imdb_id":"tt9765840","world_art_id":null,"type":"movie","add":"2021-01-06 20:41:34","orig_title":"Lena and Snowball","year":"2021-02-25","translations":["Любительский (многоголосый закадровый) (Синема УС)"],"quality":"dvdrip","translation":"Любительский (многоголосый закадровый) (Синема УС)","update":"2021-01-07 07:12:25","iframe_src":"//5322.svetacdn.in/71tsRs29n5tZ/movie/46753"},{"id":46731,"title":"Спермула","kp_id":"22582","imdb_id":"tt0075251","world_art_id":null,"type":"movie","add":"2021-01-06 06:28:44","orig_title":"Spermula","year":"1976-07-07","translations":["Любительский (одноголосый закадровый)"],"quality":"bd","translation":"Любительский (одноголосый закадровый)","update":"2021-01-07 07:17:46","iframe_src":"//5322.svetacdn.in/71tsRs29n5tZ/movie/46731"},{"id":45547,"title":"Крупный куш","kp_id":"898491","imdb_id":"tt4532280","world_art_id":null,"type":"movie","add":"2020-11-24 08:01:06","orig_title":"Fat Chance","year":"2016-10-22","translations":["Профессиональный (многоголосый закадровый)","Original (English)"],"quality":"webdl","translation":"Профессиональный (многоголосый закадровый)","update":"2021-01-07 07:29:58","iframe_src":"//5322.svetacdn.in/71tsRs29n5tZ/movie/45547"},{"id":45329,"title":"Выпускники","kp_id":"413471","imdb_id":"tt1224366","world_art_id":null,"type":"movie","add":"2020-11-16 06:42:49","orig_title":"Afterschool","year":"2008-05-18","translations":["Любительский (одноголосый закадровый)","Original (English)"],"quality":"webdl","translation":"Любительский (одноголосый закадровый)","update":"2021-01-07 07:31:27","iframe_src":"//5322.svetacdn.in/71tsRs29n5tZ/movie/45329"},{"id":45181,"title":"Человек-леопард","kp_id":"180519","imdb_id":"tt0036104","world_art_id":null,"type":"movie","add":"2020-11-11 05:31:27","orig_title":"The Leopard Man","year":"1943-05-19","translations":["Любительский (одноголосый закадровый) (liosaa)","Original (English)"],"quality":"bd","translation":"Любительский (одноголосый закадровый) (liosaa)","update":"2021-01-07 07:37:36","iframe_src":"//5322.svetacdn.in/71tsRs29n5tZ/movie/45181"},{"id":45131,"title":"Таинственные незнакомцы","kp_id":"171576","imdb_id":"tt0057623","world_art_id":null,"type":"movie","add":"2020-11-09 09:52:07","orig_title":"Unearthly Stranger","year":"1963-09-12","translations":["Любительский (одноголосый закадровый) (den904)","Original (English)"],"quality":"bd","translation":"Любительский (одноголосый закадровый) (den904)","update":"2021-01-07 07:34:45","iframe_src":"//5322.svetacdn.in/71tsRs29n5tZ/movie/45131"},{"id":45074,"title":"Продавец льда грядет","kp_id":"14138","imdb_id":"tt0070212","world_art_id":null,"type":"movie","add":"2020-11-06 14:02:19","orig_title":"The Iceman Cometh","year":"1973-10-29","translations":["Любительский (одноголосый закадровый)","Original (English)"],"quality":"bd","translation":"Любительский (одноголосый закадровый)","update":"2021-01-07 07:38:25","iframe_src":"//5322.svetacdn.in/71tsRs29n5tZ/movie/45074"},{"id":45031,"title":"Остров на Птичьей улице","kp_id":"60165","imdb_id":"tt0119389","world_art_id":null,"type":"movie","add":"2020-11-04 22:41:34","orig_title":"The Island on Bird Street","year":"1997-04-11","translations":["Авторский (одноголосый закадровый) (Кузнецов Сергей)","Original (English)"],"quality":"webdl","translation":"Авторский (одноголосый закадровый) (Кузнецов Сергей)","update":"2021-01-07 07:28:30","iframe_src":"//5322.svetacdn.in/71tsRs29n5tZ/movie/45031"},{"id":45018,"title":"Проклятие 3: Кровавое жертвоприношение","kp_id":"5631","imdb_id":"tt0101636","world_art_id":null,"type":"movie","add":"2020-11-04 10:06:26","orig_title":"Curse III: Blood Sacrifice","year":"1991-05-10","translations":["Профессиональный (двухголосый закадровый) (НТВ)","Original (English)"],"quality":"hdtv","translation":"Профессиональный (двухголосый закадровый) (НТВ)","update":"2021-01-07 07:32:17","iframe_src":"//5322.svetacdn.in/71tsRs29n5tZ/movie/45018"},{"id":38169,"title":"Белый дворец","kp_id":"21419","imdb_id":"tt0103251","world_art_id":null,"type":"movie","add":"2020-03-18 15:55:16","orig_title":"White Palace","year":"1990-10-19","translations":["Профессиональный (двухголосый закадровый)","Профессиональный (двухголосый закадровый) (Ульпаней Эльром)","Original (English)"],"quality":"dvdrip","translation":"Профессиональный (двухголосый закадровый)","update":"2021-01-07 07:33:48","iframe_src":"//5322.svetacdn.in/71tsRs29n5tZ/movie/38169"},{"id":5547,"title":"Досье детектива Дубровского","kp_id":"94422","imdb_id":"tt0216466","world_art_id":null,"type":"serial","add":"2019-10-28 08:21:37","orig_title":"Dose detektiva Dubrovskogo","year":"1999-06-16","translations":["Оригинальная дорожка"],"seasons_count":1,"episodes_count":18,"episodes":18,"update":"2019-10-28 10:31:24","iframe_src":"//5322.svetacdn.in/71tsRs29n5tZ/tv-series/5547"},{"id":5544,"title":"Шпионы на всю голову","kp_id":"1130828","imdb_id":"tt8096690","world_art_id":null,"type":"serial","add":"2019-10-28 07:25:17","orig_title":"Action Team","year":"2018-03-05","translations":["Профессиональный (многоголосый закадровый) (ShowJet)"],"seasons_count":1,"episodes_count":6,"episodes":6,"update":"2019-10-28 13:49:26","iframe_src":"//5322.svetacdn.in/71tsRs29n5tZ/tv-series/5544"},{"id":5541,"title":"Шетланд","kp_id":"743445","imdb_id":"tt2396135","world_art_id":null,"type":"serial","add":"2019-10-28 05:19:21","orig_title":"Shetland","year":"2013-03-10","translations":["Любительский (многоголосый закадровый)"],"seasons_count":5,"episodes_count":26,"episodes":6,"update":"2019-10-28 09:57:58","iframe_src":"//5322.svetacdn.in/71tsRs29n5tZ/tv-series/5541"},{"id":5540,"title":"Чужие крылья","kp_id":"592128","imdb_id":"tt3334172","world_art_id":null,"type":"serial","add":"2019-10-27 16:38:32","orig_title":"Chuzhie krylya","year":"2012-05-08","translations":["Оригинальная дорожка"],"seasons_count":1,"episodes_count":6,"episodes":6,"update":"2019-10-28 13:31:50","iframe_src":"//5322.svetacdn.in/71tsRs29n5tZ/tv-series/5540"},{"id":5534,"title":"Совсем чужие","kp_id":"1313573","imdb_id":null,"world_art_id":null,"type":"serial","add":"2019-10-27 14:47:08","orig_title":"Совсем чужие","year":"2019-10-26","translations":["Оригинальная дорожка"],"seasons_count":1,"episodes_count":2,"episodes":2,"update":"2019-10-28 17:26:02","iframe_src":"//5322.svetacdn.in/71tsRs29n5tZ/tv-series/5534"},{"id":5533,"title":"След лисицы на камнях","kp_id":"1235981","imdb_id":null,"world_art_id":null,"type":"serial","add":"2019-10-26 08:05:54","orig_title":"След лисицы на камнях","year":"2019-01-01","translations":["Оригинальная дорожка"],"seasons_count":1,"episodes_count":4,"episodes":4,"update":"2019-10-28 17:24:31","iframe_src":"//5322.svetacdn.in/71tsRs29n5tZ/tv-series/5533"},{"id":5523,"title":"Тварь Питера Бенчли","kp_id":"77310","imdb_id":"tt0156205","world_art_id":null,"type":"serial","add":"2019-10-25 06:54:41","orig_title":"Creature","year":"1998-05-17","translations":["Профессиональный (многоголосый закадровый)"],"seasons_count":1,"episodes_count":2,"episodes":2,"update":"2019-10-25 09:42:12","iframe_src":"//5322.svetacdn.in/71tsRs29n5tZ/tv-series/5523"},{"id":5521,"title":"Голод","kp_id":"398925","imdb_id":"tt0118346","world_art_id":null,"type":"serial","add":"2019-10-24 19:53:04","orig_title":"The Hunger","year":"1997-07-20","translations":["Профессиональный (многоголосый закадровый)"],"seasons_count":2,"episodes_count":44,"episodes":22,"update":"2019-10-25 21:01:26","iframe_src":"//5322.svetacdn.in/71tsRs29n5tZ/tv-series/5521"},{"id":5520,"title":"Долина смерти","kp_id":"591870","imdb_id":"tt1835129","world_art_id":null,"type":"serial","add":"2019-10-24 19:49:37","orig_title":"Death Valley","year":"2011-08-29","translations":["Профессиональный (многоголосый закадровый) (AlexFilm)"],"seasons_count":1,"episodes_count":12,"episodes":12,"update":"2019-10-25 12:07:47","iframe_src":"//5322.svetacdn.in/71tsRs29n5tZ/tv-series/5520"},{"id":5518,"title":"Самые быстрые тачки грязного Юга","kp_id":"1288747","imdb_id":"tt10594194","world_art_id":null,"type":"serial","add":"2019-10-24 04:37:43","orig_title":"Fastest Cars in the Dirty South","year":"2019-07-12","translations":["Любительский (многоголосый закадровый) (Octopus)"],"seasons_count":1,"episodes_count":8,"episodes":8,"update":"2019-10-25 12:28:16","iframe_src":"//5322.svetacdn.in/71tsRs29n5tZ/tv-series/5518"},{"id":5517,"title":"Степь","kp_id":"1209828","imdb_id":"tt9278408","world_art_id":null,"type":"serial","add":"2019-10-24 04:33:26","orig_title":"Bozkir","year":"2018-11-30","translations":["Профессиональный (двухголосый закадровый) (ViruseProject)"],"seasons_count":1,"episodes_count":10,"episodes":10,"update":"2019-10-25 07:48:03","iframe_src":"//5322.svetacdn.in/71tsRs29n5tZ/tv-series/5517"},{"id":5516,"title":"Наблюдатель","kp_id":"1235127","imdb_id":"tt10405674","world_art_id":null,"type":"serial","add":"2019-10-24 04:26:39","orig_title":"Watchyeo","year":"2019-07-06","translations":["Любительский (двухголосый закадровый) (Колобок)"],"seasons_count":1,"episodes_count":16,"episodes":16,"update":"2019-10-25 07:45:33","iframe_src":"//5322.svetacdn.in/71tsRs29n5tZ/tv-series/5516"},{"id":5514,"title":"Бумажки","kp_id":"923516","imdb_id":"tt7983914","world_art_id":null,"type":"serial","add":"2019-10-23 20:22:31","orig_title":"Bumazhki","year":"2015-03-21","translations":["Оригинальная дорожка"],"seasons_count":1,"episodes_count":78,"episodes":78,"update":"2019-10-24 20:50:31","iframe_src":"//5322.svetacdn.in/71tsRs29n5tZ/tv-series/5514"},{"id":5511,"title":"Сейчас или никогда","kp_id":"390330","imdb_id":"tt0212395","world_art_id":null,"type":"serial","add":"2019-10-23 10:23:34","orig_title":"Now and Again","year":"1999-09-24","translations":["Любительский (двухголосый закадровый)"],"seasons_count":1,"episodes_count":22,"episodes":22,"update":"2019-10-24 21:24:31","iframe_src":"//5322.svetacdn.in/71tsRs29n5tZ/tv-series/5511"},{"id":5483,"title":"Белиссима","kp_id":"325758","imdb_id":"tt0488259","world_art_id":null,"type":"serial","add":"2019-10-16 21:08:48","orig_title":"Belíssima","year":"2005-11-07","translations":["Профессиональный (многоголосый закадровый)"],"seasons_count":1,"episodes_count":180,"episodes":180,"update":"2019-10-25 07:16:03","iframe_src":"//5322.svetacdn.in/71tsRs29n5tZ/tv-series/5483"},{"id":5145,"title":"Элегантная семья","kp_id":"1256142","imdb_id":"tt10815362","world_art_id":null,"type":"serial","add":"2019-09-05 09:31:42","orig_title":"Wooahan Ga","year":"2019-08-21","translations":["Любительский (двухголосый закадровый) (Voice Project Studio)"],"seasons_count":1,"episodes_count":16,"episodes":16,"update":"2019-10-25 04:14:02","iframe_src":"//5322.svetacdn.in/71tsRs29n5tZ/tv-series/5145"},{"id":5003,"title":"Госпожа","kp_id":"726626","imdb_id":"tt2585808","world_art_id":null,"type":"serial","add":"2019-08-07 11:05:59","orig_title":"La Patrona","year":"2013-01-08","translations":["Любительский (одноголосый закадровый) (Stevie)"],"seasons_count":1,"episodes_count":5,"episodes":5,"update":"2019-10-25 12:00:49","iframe_src":"//5322.svetacdn.in/71tsRs29n5tZ/tv-series/5003"},{"id":25548,"title":"От тюрьмы и от сумы","kp_id":"460148","imdb_id":null,"world_art_id":null,"type":"movie","add":"2019-04-28 14:28:01","orig_title":"От тюрьмы и от сумы","year":"2008-01-01","translations":["Оригинальная дорожка","Оригинальная дорожка"],"quality":"dvdrip","translation":"Оригинальная дорожка","update":"2021-01-07 07:10:35","iframe_src":"//5322.svetacdn.in/71tsRs29n5tZ/movie/25548"},{"id":25220,"title":"Сюрприз","kp_id":"455587","imdb_id":"tt2120146","world_art_id":null,"type":"movie","add":"2019-04-23 21:04:14","orig_title":"Syurpriz","year":"2008-01-01","translations":["Оригинальная дорожка","Оригинальная дорожка"],"quality":"dvdrip","translation":"Оригинальная дорожка","update":"2021-01-07 07:09:36","iframe_src":"//5322.svetacdn.in/71tsRs29n5tZ/movie/25220"},{"id":23913,"title":"Мы странно встретились","kp_id":"441421","imdb_id":null,"world_art_id":null,"type":"movie","add":"2019-04-04 21:57:34","orig_title":"Мы странно встретились","year":"2008-03-16","translations":["Оригинальная дорожка","Оригинальная дорожка"],"quality":"dvdrip","translation":"Оригинальная дорожка","update":"2021-01-07 07:11:24","iframe_src":"//5322.svetacdn.in/71tsRs29n5tZ/movie/23913"},{"id":3219,"title":"Канцелярская крыса","kp_id":"1103793","imdb_id":null,"world_art_id":null,"type":"serial","add":"2018-09-25 09:11:06","orig_title":"Канцелярская крыса","year":"2018-09-24","translations":["Оригинальная дорожка"],"seasons_count":2,"episodes_count":36,"episodes":20,"update":"2019-10-26 07:58:23","iframe_src":"//5322.svetacdn.in/71tsRs29n5tZ/tv-series/3219"},{"id":19166,"title":"У зеркала два лица","kp_id":"5152","imdb_id":"tt0117057","world_art_id":null,"type":"movie","add":"2018-09-24 11:40:36","orig_title":"The Mirror Has Two Faces","year":"1996-11-01","translations":["Полное дублирование","Профессиональный (многоголосый закадровый) (НТВ)","Полное дублирование","Профессиональный (многоголосый закадровый) (Видеосервис)","Original (English)"],"quality":"webdl","translation":"Полное дублирование","update":"2021-01-07 07:35:34","iframe_src":"//5322.svetacdn.in/71tsRs29n5tZ/movie/19166"},{"id":15228,"title":"Как быть мужиком","kp_id":"810897","imdb_id":"tt2479384","world_art_id":null,"type":"movie","add":"2018-02-19 08:13:53","orig_title":"How to Be a Man","year":"2013-08-10","translations":["Любительский (многоголосый закадровый)","Любительский (многоголосый закадровый)"],"quality":"webdl","translation":"Любительский (многоголосый закадровый)","update":"2021-01-07 07:14:04","iframe_src":"//5322.svetacdn.in/71tsRs29n5tZ/movie/15228"},{"id":1429,"title":"Проект «Орфей»","kp_id":"1008546","imdb_id":"tt5518944","world_art_id":null,"type":"serial","add":"2017-07-27 05:56:08","orig_title":"Project Orpheus","year":"2016-03-13","translations":["Профессиональный (многоголосый закадровый) (Кинопоказ)","Профессиональный (многоголосый закадровый) (ShowJet)"],"seasons_count":1,"episodes_count":12,"episodes":12,"update":"2019-10-25 13:10:17","iframe_src":"//5322.svetacdn.in/71tsRs29n5tZ/tv-series/1429"},{"id":12101,"title":"Маша и море","kp_id":"423026","imdb_id":"tt3639094","world_art_id":null,"type":"movie","add":"2017-06-22 22:48:48","orig_title":"Masha i more","year":"2008-12-04","translations":["Оригинальная дорожка","Оригинальная дорожка"],"quality":"dvdrip","translation":"Оригинальная дорожка","update":"2021-01-07 07:12:27","iframe_src":"//5322.svetacdn.in/71tsRs29n5tZ/movie/12101"},{"id":6534,"title":"Обезумевший мир","kp_id":"29910","imdb_id":"tt0096465","world_art_id":null,"type":"movie","add":"2016-10-20 15:18:37","orig_title":"World Gone Wild","year":"1988-04-22","translations":["Профессиональный (двухголосый закадровый)","Профессиональный (двухголосый закадровый)","Original (English)"],"quality":"hdtv","translation":"Профессиональный (двухголосый закадровый)","update":"2021-01-07 07:32:59","iframe_src":"//5322.svetacdn.in/71tsRs29n5tZ/movie/6534"},{"id":4494,"title":"Продавец","kp_id":"395739","imdb_id":"tt1092633","world_art_id":null,"type":"movie","add":"2016-08-17 09:03:46","orig_title":"The Goods: Live Hard, Sell Hard","year":"2009-08-14","translations":["Профессиональный (двухголосый закадровый)","Авторский (одноголосый закадровый) (Гоблин | Пучков Дмитрий)","Original (English)"],"quality":"webdl","translation":"Профессиональный (двухголосый закадровый)","update":"2021-01-07 07:29:03","iframe_src":"//5322.svetacdn.in/71tsRs29n5tZ/movie/4494"},{"id":324,"title":"Спартак: Кровь и песок","kp_id":"469619","imdb_id":"tt1442449","world_art_id":null,"type":"serial","add":"2016-08-03 06:27:31","orig_title":"Spartacus: Blood and Sand","year":"2010-01-22","translations":["Профессиональный (многоголосый закадровый) (LostFilm)","Полное дублирование (РенТВ)"],"seasons_count":3,"episodes_count":33,"episodes":10,"update":"2019-10-25 13:21:23","iframe_src":"//5322.svetacdn.in/71tsRs29n5tZ/tv-series/324"},{"id":192,"title":"Голос улиц","kp_id":"462867","imdb_id":"tt1398426","world_art_id":null,"type":"movie","add":"2016-03-06 22:53:05","orig_title":"Straight Outta Compton","year":"2015-08-11","translations":["Полное дублирование (iTunes)","Авторский (одноголосый закадровый) (Котов Вячеслав)","Original (English)"],"quality":"bd","translation":"Полное дублирование (iTunes)","update":"2021-01-07 07:39:17","iframe_src":"//5322.svetacdn.in/71tsRs29n5tZ/movie/192"}],"current_page":327,"first_page_url":"https://videocdn.tv/api/short?limit=100&api_token=EnbO9h8pv1VyjbCJhg0WM9nG259n7mtz&cache3327=3327&page=1","from":32601,"last_page":631,"last_page_url":"https://videocdn.tv/api/short?limit=100&api_token=EnbO9h8pv1VyjbCJhg0WM9nG259n7mtz&cache3327=3327&page=631","next_page_url":"https://videocdn.tv/api/short?limit=100&api_token=EnbO9h8pv1VyjbCJhg0WM9nG259n7mtz&cache3327=3327&page=328","path":"https://videocdn.tv/api/short","per_page":100,"prev_page_url":"https://videocdn.tv/api/short?limit=100&api_token=EnbO9h8pv1VyjbCJhg0WM9nG259n7mtz&cache3327=3327&page=326","to":32640,"total":63081}