{"result":true,"data":[{"id":44679,"title":"Не про тебя ли этот фильм?","kp_id":"460616","imdb_id":"tt1075829","world_art_id":null,"type":"movie","add":"2020-10-22 13:51:17","orig_title":"Ne pro tebya li etot film?","year":"1973-01-01","translations":["Оригинальная дорожка"],"quality":"dvdrip","translation":"Оригинальная дорожка","update":"2020-10-29 08:08:39","iframe_src":"//5322.svetacdn.in/71tsRs29n5tZ/movie/44679"},{"id":44670,"title":"Нехочуха","kp_id":"435346","imdb_id":"tt4544302","world_art_id":null,"type":"movie","add":"2020-10-21 18:38:48","orig_title":"Nekhochukha","year":"1986-01-01","translations":["Оригинальная дорожка"],"quality":"dvdrip","translation":"Оригинальная дорожка","update":"2020-10-29 08:07:44","iframe_src":"//5322.svetacdn.in/71tsRs29n5tZ/movie/44670"},{"id":44669,"title":"Про шмелей и королей","kp_id":"578907","imdb_id":"tt3467458","world_art_id":null,"type":"movie","add":"2020-10-21 18:34:52","orig_title":"Pro Shmeley I Koroley","year":"1984-01-01","translations":["Оригинальная дорожка"],"quality":"sat","translation":"Оригинальная дорожка","update":"2020-10-29 08:06:50","iframe_src":"//5322.svetacdn.in/71tsRs29n5tZ/movie/44669"},{"id":44668,"title":"Охотник, мальчик и собака","kp_id":"270712","imdb_id":"tt0794123","world_art_id":null,"type":"movie","add":"2020-10-21 18:30:30","orig_title":"Monadire, bichi da dzagli","year":"1970-01-01","translations":["Любительский (одноголосый закадровый)"],"quality":"sat","translation":"Любительский (одноголосый закадровый)","update":"2020-10-29 08:05:58","iframe_src":"//5322.svetacdn.in/71tsRs29n5tZ/movie/44668"},{"id":44666,"title":"Шмель","kp_id":"1199673","imdb_id":null,"world_art_id":null,"type":"movie","add":"2020-10-21 18:13:29","orig_title":"Шмель","year":"1981-01-01","translations":["Оригинальная дорожка"],"quality":"dvdrip","translation":"Оригинальная дорожка","update":"2020-10-29 08:03:43","iframe_src":"//5322.svetacdn.in/71tsRs29n5tZ/movie/44666"},{"id":44665,"title":"Золотой гвоздь","kp_id":"649225","imdb_id":"tt4434058","world_art_id":null,"type":"movie","add":"2020-10-21 16:59:11","orig_title":"Zolotoy gvozd","year":"1986-01-01","translations":["Оригинальная дорожка"],"quality":"dvdrip","translation":"Оригинальная дорожка","update":"2020-10-29 08:02:39","iframe_src":"//5322.svetacdn.in/71tsRs29n5tZ/movie/44665"},{"id":44664,"title":"Заколдованное слово","kp_id":"687918","imdb_id":"tt5879892","world_art_id":null,"type":"movie","add":"2020-10-21 16:36:12","orig_title":"Zakoldovannoe slovo","year":"1976-01-01","translations":["Оригинальная дорожка"],"quality":"dvdrip","translation":"Оригинальная дорожка","update":"2020-10-29 08:01:58","iframe_src":"//5322.svetacdn.in/71tsRs29n5tZ/movie/44664"},{"id":44663,"title":"Жила-была пчёлка...","kp_id":"674629","imdb_id":null,"world_art_id":null,"type":"movie","add":"2020-10-21 16:33:48","orig_title":"Жила-была пчёлка...","year":"1978-01-01","translations":["Оригинальная дорожка"],"quality":"dvdrip","translation":"Оригинальная дорожка","update":"2020-10-29 08:01:02","iframe_src":"//5322.svetacdn.in/71tsRs29n5tZ/movie/44663"},{"id":44662,"title":"Домовой и хозяйка","kp_id":"632392","imdb_id":"tt2585116","world_art_id":null,"type":"movie","add":"2020-10-21 16:27:17","orig_title":"Domovoy i khozyayka","year":"1988-01-01","translations":["Оригинальная дорожка"],"quality":"dvdrip","translation":"Оригинальная дорожка","update":"2020-10-29 08:00:26","iframe_src":"//5322.svetacdn.in/71tsRs29n5tZ/movie/44662"},{"id":44661,"title":"Далеко-далеко на юге","kp_id":"417798","imdb_id":"tt2392353","world_art_id":null,"type":"movie","add":"2020-10-21 16:24:48","orig_title":"Daleko-daleko na yuge","year":"1982-01-01","translations":["Оригинальная дорожка"],"quality":"dvdrip","translation":"Оригинальная дорожка","update":"2020-10-29 07:59:54","iframe_src":"//5322.svetacdn.in/71tsRs29n5tZ/movie/44661"},{"id":44660,"title":"Грибной дождик","kp_id":"532865","imdb_id":"tt6323740","world_art_id":null,"type":"movie","add":"2020-10-21 16:21:39","orig_title":"Gribnoy dozhdik","year":"1985-01-01","translations":["Оригинальная дорожка"],"quality":"dvdrip","translation":"Оригинальная дорожка","update":"2020-10-29 07:59:01","iframe_src":"//5322.svetacdn.in/71tsRs29n5tZ/movie/44660"},{"id":44659,"title":"Про Петрушку","kp_id":"469601","imdb_id":null,"world_art_id":null,"type":"movie","add":"2020-10-21 16:18:11","orig_title":"Про Петрушку","year":"1973-01-01","translations":["Оригинальная дорожка"],"quality":"dvdrip","translation":"Оригинальная дорожка","update":"2020-10-29 07:57:54","iframe_src":"//5322.svetacdn.in/71tsRs29n5tZ/movie/44659"},{"id":44658,"title":"Про котёнка Женю и правила движения","kp_id":"647287","imdb_id":"tt11754638","world_art_id":null,"type":"movie","add":"2020-10-21 16:09:25","orig_title":"Pro kotonka Zhenyu i pravila dvizheniya","year":"1976-01-01","translations":["Оригинальная дорожка"],"quality":"dvdrip","translation":"Оригинальная дорожка","update":"2020-10-29 07:57:01","iframe_src":"//5322.svetacdn.in/71tsRs29n5tZ/movie/44658"},{"id":44652,"title":"Портрет","kp_id":"645480","imdb_id":"tt6024444","world_art_id":null,"type":"movie","add":"2020-10-20 19:22:55","orig_title":"Portret","year":"1965-01-01","translations":["Оригинальная дорожка"],"quality":"dvdrip","translation":"Оригинальная дорожка","update":"2020-10-29 07:56:06","iframe_src":"//5322.svetacdn.in/71tsRs29n5tZ/movie/44652"},{"id":44651,"title":"Подземный переход","kp_id":"601742","imdb_id":"tt3570234","world_art_id":null,"type":"movie","add":"2020-10-20 19:18:01","orig_title":"Podzemnyy perekhod","year":"1984-01-01","translations":["Оригинальная дорожка"],"quality":"dvdrip","translation":"Оригинальная дорожка","update":"2020-10-29 07:55:18","iframe_src":"//5322.svetacdn.in/71tsRs29n5tZ/movie/44651"},{"id":44650,"title":"Пики-желторотик","kp_id":"669493","imdb_id":null,"world_art_id":null,"type":"movie","add":"2020-10-20 19:15:25","orig_title":"Пики-желторотик","year":"1974-01-01","translations":["Оригинальная дорожка"],"quality":"sat","translation":"Оригинальная дорожка","update":"2020-10-29 07:54:12","iframe_src":"//5322.svetacdn.in/71tsRs29n5tZ/movie/44650"},{"id":44649,"title":"Песня волшебного камня","kp_id":"1270760","imdb_id":null,"world_art_id":null,"type":"movie","add":"2020-10-20 19:11:44","orig_title":"Песня волшебного камня","year":"1974-01-01","translations":["Оригинальная дорожка"],"quality":"vhs","translation":"Оригинальная дорожка","update":"2020-10-29 07:53:22","iframe_src":"//5322.svetacdn.in/71tsRs29n5tZ/movie/44649"},{"id":44648,"title":"Пекка","kp_id":"897230","imdb_id":"tt4611498","world_art_id":null,"type":"movie","add":"2020-10-20 19:05:20","orig_title":"Pekka","year":"1985-01-01","translations":["Оригинальная дорожка"],"quality":"vhs","translation":"Оригинальная дорожка","update":"2020-10-29 07:52:43","iframe_src":"//5322.svetacdn.in/71tsRs29n5tZ/movie/44648"},{"id":44647,"title":"Он прилетал лишь однажды","kp_id":"1045401","imdb_id":null,"world_art_id":null,"type":"movie","add":"2020-10-20 18:48:18","orig_title":"Он прилетал лишь однажды","year":"1978-01-01","translations":["Оригинальная дорожка"],"quality":"tv","translation":"Оригинальная дорожка","update":"2020-10-29 07:51:57","iframe_src":"//5322.svetacdn.in/71tsRs29n5tZ/movie/44647"},{"id":44646,"title":"Охотничье ружье","kp_id":"260067","imdb_id":"tt6071046","world_art_id":null,"type":"movie","add":"2020-10-20 18:41:43","orig_title":"Okhotniche ruzhyo","year":"1948-11-09","translations":["Оригинальная дорожка"],"quality":"dvdrip","translation":"Оригинальная дорожка","update":"2020-10-29 07:50:58","iframe_src":"//5322.svetacdn.in/71tsRs29n5tZ/movie/44646"},{"id":3085,"title":"Какой она была","kp_id":"1144174","imdb_id":null,"world_art_id":null,"type":"serial","add":"2018-08-26 12:18:35","orig_title":"Какой она была","year":"2018-01-01","translations":["Оригинальная дорожка"],"seasons_count":1,"episodes_count":4,"episodes":4,"update":"2018-08-27 07:44:23","iframe_src":"//5322.svetacdn.in/71tsRs29n5tZ/tv-series/3085"},{"id":3084,"title":"Мисс Хаммурапи","kp_id":"1071413","imdb_id":"tt8090388","world_art_id":null,"type":"serial","add":"2018-08-26 11:51:13","orig_title":"Miseu Hammurabi","year":"2018-05-21","translations":["Любительский (двухголосый закадровый) (Храм Дорам ТВ)"],"seasons_count":1,"episodes_count":16,"episodes":16,"update":"2018-08-27 07:38:32","iframe_src":"//5322.svetacdn.in/71tsRs29n5tZ/tv-series/3084"},{"id":3083,"title":"Я и моя Бубуля","kp_id":"1042717","imdb_id":"tt6076162","world_art_id":null,"type":"serial","add":"2018-08-26 11:46:32","orig_title":"Me and My Grandma","year":"2017-03-22","translations":["Любительский (двухголосый закадровый) (GoldTeam)"],"seasons_count":1,"episodes_count":6,"episodes":6,"update":"2018-08-27 07:06:02","iframe_src":"//5322.svetacdn.in/71tsRs29n5tZ/tv-series/3083"},{"id":3082,"title":"Родная кровь","kp_id":"1174305","imdb_id":null,"world_art_id":null,"type":"serial","add":"2018-08-25 19:01:33","orig_title":"Родная кровь","year":"2018-08-24","translations":["Оригинальная дорожка"],"seasons_count":1,"episodes_count":4,"episodes":4,"update":"2018-08-27 11:26:36","iframe_src":"//5322.svetacdn.in/71tsRs29n5tZ/tv-series/3082"},{"id":3073,"title":"Счастливая семерка","kp_id":"664647","imdb_id":"tt2108808","world_art_id":null,"type":"serial","add":"2018-08-24 11:59:46","orig_title":"Rakkî sebun","year":"2012-01-16","translations":["Любительский (одноголосый закадровый) (GREEN TEA)"],"seasons_count":1,"episodes_count":10,"episodes":10,"update":"2018-08-26 16:15:42","iframe_src":"//5322.svetacdn.in/71tsRs29n5tZ/tv-series/3073"},{"id":3072,"title":"Токийские девчонки","kp_id":"1044297","imdb_id":"tt6131678","world_art_id":null,"type":"serial","add":"2018-08-24 09:05:04","orig_title":"Tokyo tarareba musume","year":"2017-01-18","translations":["Любительский (одноголосый закадровый) (GREEN TEA)"],"seasons_count":1,"episodes_count":10,"episodes":10,"update":"2018-08-26 16:22:49","iframe_src":"//5322.svetacdn.in/71tsRs29n5tZ/tv-series/3072"},{"id":3071,"title":"За стенами","kp_id":"992644","imdb_id":"tt4999820","world_art_id":null,"type":"serial","add":"2018-08-23 19:22:30","orig_title":"Au-delà des murs","year":"2016-09-22","translations":["Профессиональный (двухголосый закадровый) (ViruseProject)"],"seasons_count":1,"episodes_count":3,"episodes":3,"update":"2018-08-24 08:35:14","iframe_src":"//5322.svetacdn.in/71tsRs29n5tZ/tv-series/3071"},{"id":3062,"title":"Волшебство для людей с Джастином Уиллманом","kp_id":"1141821","imdb_id":"tt8425308","world_art_id":null,"type":"serial","add":"2018-08-22 19:33:02","orig_title":"Magic for Humans","year":"2018-08-17","translations":["Профессиональный (многоголосый закадровый) (BaibaKo)"],"seasons_count":1,"episodes_count":6,"episodes":6,"update":"2018-08-23 09:23:50","iframe_src":"//5322.svetacdn.in/71tsRs29n5tZ/tv-series/3062"},{"id":3060,"title":"Россия молодая","kp_id":"81433","imdb_id":"tt0081924","world_art_id":null,"type":"serial","add":"2018-08-22 16:15:49","orig_title":"Rossiya molodaya","year":"1984-01-04","translations":["Оригинальная дорожка"],"seasons_count":1,"episodes_count":9,"episodes":9,"update":"2018-08-27 11:11:19","iframe_src":"//5322.svetacdn.in/71tsRs29n5tZ/tv-series/3060"},{"id":3059,"title":"Альянс советников","kp_id":"1118140","imdb_id":"tt7070302","world_art_id":null,"type":"serial","add":"2018-08-22 10:38:05","orig_title":"Da jun shi si ma yi zhi jun shi lian meng","year":"2017-06-22","translations":["Любительский (двухголосый закадровый)"],"seasons_count":1,"episodes_count":1,"episodes":1,"update":"2018-08-23 01:20:19","iframe_src":"//5322.svetacdn.in/71tsRs29n5tZ/tv-series/3059"},{"id":3058,"title":"Древняя песнь любви","kp_id":"1045474","imdb_id":"tt6035380","world_art_id":null,"type":"serial","add":"2018-08-22 10:23:05","orig_title":"Ancient Love Song","year":"2017-01-01","translations":["Профессиональный (двухголосый закадровый)","Любительский (двухголосый закадровый)"],"seasons_count":1,"episodes_count":8,"episodes":8,"update":"2018-08-23 08:59:28","iframe_src":"//5322.svetacdn.in/71tsRs29n5tZ/tv-series/3058"},{"id":3055,"title":"13 ноября: Атака на Париж","kp_id":"1144186","imdb_id":"tt8194716","world_art_id":null,"type":"serial","add":"2018-08-21 14:18:11","orig_title":"November 13: Attack on Paris","year":"2018-06-01","translations":["Любительский (двухголосый закадровый) (Sunshine Studio)"],"seasons_count":1,"episodes_count":3,"episodes":3,"update":"2018-08-24 06:38:35","iframe_src":"//5322.svetacdn.in/71tsRs29n5tZ/tv-series/3055"},{"id":3045,"title":"Финальная жизнь","kp_id":"1049715","imdb_id":"tt7336254","world_art_id":null,"type":"serial","add":"2018-08-18 07:48:34","orig_title":"Fainaru raifu: Ashita, kimi ga kietemo","year":"2017-09-08","translations":["Любительский (двухголосый закадровый)"],"seasons_count":1,"episodes_count":12,"episodes":12,"update":"2018-08-23 01:02:18","iframe_src":"//5322.svetacdn.in/71tsRs29n5tZ/tv-series/3045"},{"id":3040,"title":"Голубая планета","kp_id":"252059","imdb_id":"tt0296310","world_art_id":null,"type":"serial","add":"2018-08-17 11:46:14","orig_title":"The Blue Planet","year":"2001-09-12","translations":["Профессиональный (одноголосый закадровый)"],"seasons_count":1,"episodes_count":8,"episodes":8,"update":"2018-08-28 07:58:10","iframe_src":"//5322.svetacdn.in/71tsRs29n5tZ/tv-series/3040"},{"id":3038,"title":"За садовой оградой","kp_id":"841914","imdb_id":"tt3718778","world_art_id":null,"type":"serial","add":"2018-08-17 11:38:30","orig_title":"Over the Garden Wall","year":"2014-11-03","translations":["Полное дублирование (Cartoon Network)"],"seasons_count":1,"episodes_count":10,"episodes":10,"update":"2018-08-23 06:48:11","iframe_src":"//5322.svetacdn.in/71tsRs29n5tZ/tv-series/3038"},{"id":3025,"title":"Исчезновение","kp_id":"1112953","imdb_id":"tt6643540","world_art_id":null,"type":"serial","add":"2018-08-14 07:14:02","orig_title":"The Disappearance","year":"2017-10-01","translations":["Любительский (двухголосый закадровый) (GoldTeam)"],"seasons_count":1,"episodes_count":6,"episodes":6,"update":"2018-08-23 01:36:37","iframe_src":"//5322.svetacdn.in/71tsRs29n5tZ/tv-series/3025"},{"id":2994,"title":"Легенда о Корре","kp_id":"565035","imdb_id":"tt1695360","world_art_id":null,"type":"serial","add":"2018-08-03 16:00:03","orig_title":"The Legend of Korra","year":"2012-04-14","translations":["Полное дублирование"],"seasons_count":4,"episodes_count":52,"episodes":13,"update":"2018-08-24 05:15:24","iframe_src":"//5322.svetacdn.in/71tsRs29n5tZ/tv-series/2994"},{"id":2951,"title":"Методом проб и ошибок","kp_id":"968930","imdb_id":"tt5511512","world_art_id":null,"type":"serial","add":"2018-07-21 17:49:19","orig_title":"Trial & Error","year":"2017-03-14","translations":["Любительский (двухголосый закадровый) (Sunshine Studio)"],"seasons_count":2,"episodes_count":23,"episodes":10,"update":"2018-08-28 07:01:49","iframe_src":"//5322.svetacdn.in/71tsRs29n5tZ/tv-series/2951"},{"id":1771,"title":"Тупик","kp_id":"993177","imdb_id":"tt5660604","world_art_id":null,"type":"serial","add":"2017-11-26 11:39:44","orig_title":"The Cul De Sac","year":"2016-04-03","translations":["Любительский (двухголосый закадровый) (Sunshine Studio)"],"seasons_count":3,"episodes_count":18,"episodes":6,"update":"2018-08-27 08:23:01","iframe_src":"//5322.svetacdn.in/71tsRs29n5tZ/tv-series/1771"},{"id":1559,"title":"Мерьем","kp_id":"1048085","imdb_id":"tt7224504","world_art_id":null,"type":"serial","add":"2017-09-25 10:19:58","orig_title":"Meryem","year":"2017-08-02","translations":["Любительский (двухголосый закадровый)","Любительский (одноголосый закадровый)"],"seasons_count":1,"episodes_count":30,"episodes":30,"update":"2018-08-27 18:45:30","iframe_src":"//5322.svetacdn.in/71tsRs29n5tZ/tv-series/1559"}],"current_page":421,"first_page_url":"https://videocdn.tv/api/short?limit=100&api_token=EnbO9h8pv1VyjbCJhg0WM9nG259n7mtz&cache3421=3421&page=1","from":42001,"last_page":629,"last_page_url":"https://videocdn.tv/api/short?limit=100&api_token=EnbO9h8pv1VyjbCJhg0WM9nG259n7mtz&cache3421=3421&page=629","next_page_url":"https://videocdn.tv/api/short?limit=100&api_token=EnbO9h8pv1VyjbCJhg0WM9nG259n7mtz&cache3421=3421&page=422","path":"https://videocdn.tv/api/short","per_page":100,"prev_page_url":"https://videocdn.tv/api/short?limit=100&api_token=EnbO9h8pv1VyjbCJhg0WM9nG259n7mtz&cache3421=3421&page=420","to":42040,"total":62833}