{"result":true,"data":[{"id":34389,"title":"Исповедь проститутки-убийцы: Демонатрикс","kp_id":"1193709","imdb_id":"tt9004736","world_art_id":null,"type":"movie","add":"2019-12-23 07:35:51","orig_title":"Confessions Of A Homicidal Prostitute: Demonatrix","year":"2018-12-29","translations":["Любительский (многоголосый закадровый) (Синема УС)"],"quality":"webdl","translation":"Любительский (многоголосый закадровый) (Синема УС)","update":"2019-12-23 10:44:59","iframe_src":"//83.svetacdn.in/PfJ50H0ZBPg3/movie/34389"},{"id":34386,"title":"Сваха на Рождество","kp_id":"1254848","imdb_id":"tt10149756","world_art_id":null,"type":"movie","add":"2019-12-23 07:04:50","orig_title":"Matchmaker Christmas","year":"2019-12-14","translations":["Любительский (многоголосый закадровый) (AlphaProject)"],"quality":"webdl","translation":"Любительский (многоголосый закадровый) (AlphaProject)","update":"2019-12-23 10:23:18","iframe_src":"//83.svetacdn.in/PfJ50H0ZBPg3/movie/34386"},{"id":34385,"title":"Адская гора","kp_id":"954328","imdb_id":"tt5276332","world_art_id":null,"type":"movie","add":"2019-12-23 06:19:29","orig_title":"Hell Mountain","year":"2017-04-18","translations":["Любительский (многоголосый закадровый) (Синема УС)"],"quality":"webdl","translation":"Любительский (многоголосый закадровый) (Синема УС)","update":"2019-12-23 07:48:10","iframe_src":"//83.svetacdn.in/PfJ50H0ZBPg3/movie/34385"},{"id":34358,"title":"Рождественский наставник","kp_id":"1321456","imdb_id":"tt11241514","world_art_id":null,"type":"movie","add":"2019-12-22 15:12:48","orig_title":"Christmas Coach","year":"2019-12-15","translations":["Любительский (многоголосый закадровый) (AlphaProject)"],"quality":"hdtv","translation":"Любительский (многоголосый закадровый) (AlphaProject)","update":"2019-12-22 18:29:10","iframe_src":"//83.svetacdn.in/PfJ50H0ZBPg3/movie/34358"},{"id":34357,"title":"Коко-ди Коко-да","kp_id":"1221268","imdb_id":"tt9355200","world_art_id":null,"type":"movie","add":"2019-12-22 15:09:14","orig_title":"Koko-di Koko-da","year":"2019-01-25","translations":["Полное дублирование (iTunes)"],"quality":"webdl","translation":"Полное дублирование (iTunes)","update":"2019-12-22 18:19:52","iframe_src":"//83.svetacdn.in/PfJ50H0ZBPg3/movie/34357"},{"id":34347,"title":"Боже мой!","kp_id":"1188621","imdb_id":"tt8359840","world_art_id":null,"type":"movie","add":"2019-12-21 12:59:42","orig_title":"Roubaix, une lumière","year":"2019-05-22","translations":["Профессиональный (многоголосый закадровый) (iTunes)"],"quality":"webdl","translation":"Профессиональный (многоголосый закадровый) (iTunes)","update":"2019-12-22 14:13:43","iframe_src":"//83.svetacdn.in/PfJ50H0ZBPg3/movie/34347"},{"id":34310,"title":"Плейбой и банда Черри","kp_id":"1230641","imdb_id":"tt9559888","world_art_id":null,"type":"movie","add":"2019-12-20 16:17:39","orig_title":"PlayBoy (and the Gang of Cherry)","year":"2017-08-31","translations":["Любительский (двухголосый закадровый) (Храм Дорам ТВ)"],"quality":"webdl","translation":"Любительский (двухголосый закадровый) (Храм Дорам ТВ)","update":"2019-12-23 08:51:21","iframe_src":"//83.svetacdn.in/PfJ50H0ZBPg3/movie/34310"},{"id":34309,"title":"Убийцы","kp_id":"407608","imdb_id":"tt1202514","world_art_id":null,"type":"movie","add":"2019-12-20 16:04:56","orig_title":"Yi ngoi","year":"2009-09-05","translations":["Авторский (одноголосый закадровый) (Сербин Юрий)"],"quality":"bd","translation":"Авторский (одноголосый закадровый) (Сербин Юрий)","update":"2019-12-23 08:49:03","iframe_src":"//83.svetacdn.in/PfJ50H0ZBPg3/movie/34309"},{"id":34308,"title":"Дрожь","kp_id":"65855","imdb_id":"tt0294929","world_art_id":null,"type":"movie","add":"2019-12-20 16:00:13","orig_title":"Sorum","year":"2001-07-20","translations":["Профессиональный (многоголосый закадровый)"],"quality":"bd","translation":"Профессиональный (многоголосый закадровый)","update":"2019-12-23 08:46:36","iframe_src":"//83.svetacdn.in/PfJ50H0ZBPg3/movie/34308"},{"id":34307,"title":"Правосудие моей пятки","kp_id":"82465","imdb_id":"tt0105385","world_art_id":null,"type":"movie","add":"2019-12-20 15:54:01","orig_title":"Sam sei goon","year":"1992-07-02","translations":["Любительский (одноголосый закадровый)"],"quality":"bd","translation":"Любительский (одноголосый закадровый)","update":"2019-12-23 08:35:31","iframe_src":"//83.svetacdn.in/PfJ50H0ZBPg3/movie/34307"},{"id":34275,"title":"При исполнении 4: Свидетель","kp_id":"22074","imdb_id":"tt0097539","world_art_id":null,"type":"movie","add":"2019-12-19 21:06:31","orig_title":"Wong Ka Si Sei IV: Sik Gik Sing Yan","year":"1989-07-21","translations":["Профессиональный (одноголосый закадровый)"],"quality":"bd","translation":"Профессиональный (одноголосый закадровый)","update":"2019-12-22 14:16:47","iframe_src":"//83.svetacdn.in/PfJ50H0ZBPg3/movie/34275"},{"id":34048,"title":"Побег перед Рождеством","kp_id":"1330627","imdb_id":"tt11404430","world_art_id":null,"type":"movie","add":"2019-12-13 06:15:08","orig_title":"Christmas Unleashed","year":"2019-12-07","translations":["Original (English)","Любительский (многоголосый закадровый) (AlphaProject)"],"quality":"webdl","translation":"Original (English)","update":"2019-12-23 10:24:05","iframe_src":"//83.svetacdn.in/PfJ50H0ZBPg3/movie/34048"},{"id":34045,"title":"Сказочное рождество","kp_id":"1254628","imdb_id":"tt10176734","world_art_id":null,"type":"movie","add":"2019-12-13 06:06:52","orig_title":"A Storybook Christmas","year":"2019-07-13","translations":["Original (English)","Любительский (многоголосый закадровый) (Синема УС)"],"quality":"webdl","translation":"Original (English)","update":"2019-12-22 14:09:20","iframe_src":"//83.svetacdn.in/PfJ50H0ZBPg3/movie/34045"},{"id":29875,"title":"Зверь","kp_id":"1197742","imdb_id":"tt10530286","world_art_id":null,"type":"movie","add":"2019-08-08 22:29:32","orig_title":"Biseuteu","year":"2019-06-26","translations":["Полное дублирование (iTunes)"],"quality":"webdl","translation":"Полное дублирование (iTunes)","update":"2019-12-22 17:01:45","iframe_src":"//83.svetacdn.in/PfJ50H0ZBPg3/movie/29875"},{"id":22939,"title":"Китайская история призраков","kp_id":"36996","imdb_id":"tt0093978","world_art_id":null,"type":"movie","add":"2019-03-11 21:25:51","orig_title":"Sinnui yauwan","year":"1987-07-18","translations":["Профессиональный (двухголосый закадровый)"],"quality":"bd","translation":"Профессиональный (двухголосый закадровый)","update":"2019-12-23 08:54:26","iframe_src":"//83.svetacdn.in/PfJ50H0ZBPg3/movie/22939"},{"id":21499,"title":"А теперь я иду встретиться с тобой","kp_id":"1048223","imdb_id":"tt8092252","world_art_id":null,"type":"movie","add":"2019-01-15 05:40:14","orig_title":"Jigeum Mannareo Gabmida","year":"2018-03-14","translations":["Любительский (многоголосый закадровый) (Синема УС)","Любительский (многоголосый закадровый) (STEPonee)","Любительский (двухголосый закадровый) (SoftBox)"],"quality":"bd","translation":"Любительский (многоголосый закадровый) (Синема УС)","update":"2019-12-23 07:35:38","iframe_src":"//83.svetacdn.in/PfJ50H0ZBPg3/movie/21499"},{"id":21498,"title":"Дежавю","kp_id":"1047816","imdb_id":"tt7246052","world_art_id":null,"type":"movie","add":"2019-01-15 05:38:12","orig_title":"Deja Vu","year":"2018-05-30","translations":["Любительский (многоголосый закадровый) (Колобок)","Любительский (двухголосый закадровый) (Храм Дорам ТВ)"],"quality":"webdl","translation":"Любительский (многоголосый закадровый) (Колобок)","update":"2019-12-23 08:48:09","iframe_src":"//83.svetacdn.in/PfJ50H0ZBPg3/movie/21498"},{"id":19456,"title":"Любовник моей жены","kp_id":"1101696","imdb_id":"tt7654872","world_art_id":null,"type":"movie","add":"2018-10-09 00:54:47","orig_title":"Amoureux de ma femme","year":"2018-04-25","translations":["Полное дублирование"],"quality":"bd","translation":"Полное дублирование","update":"2019-12-22 14:12:14","iframe_src":"//83.svetacdn.in/PfJ50H0ZBPg3/movie/19456"},{"id":14851,"title":"Ночь воспоминаний","kp_id":"1040827","imdb_id":"tt7057496","world_art_id":null,"type":"movie","add":"2018-01-10 22:13:23","orig_title":"Gieokeui bam","year":"2017-11-29","translations":["Любительский (многоголосый закадровый)","Любительский (многоголосый закадровый) (Синема УС)","Профессиональный (многоголосый закадровый) (GreenРай Studio)","Любительский (многоголосый закадровый) (Колобок)"],"quality":"webdl","translation":"Любительский (многоголосый закадровый)","update":"2019-12-23 08:44:52","iframe_src":"//83.svetacdn.in/PfJ50H0ZBPg3/movie/14851"},{"id":10537,"title":"Рассказы Русалочки","kp_id":"963388","imdb_id":"tt5493944","world_art_id":null,"type":"movie","add":"2017-03-26 22:55:12","orig_title":"The Little Mermaid","year":"2017-03-26","translations":["Профессиональный (многоголосый закадровый) (HDrezka Studio)","Полное дублирование"],"quality":"webdl","translation":"Профессиональный (многоголосый закадровый) (HDrezka Studio)","update":"2019-12-22 14:10:39","iframe_src":"//83.svetacdn.in/PfJ50H0ZBPg3/movie/10537"}],"current_page":1052,"first_page_url":"https://videocdn.tv/api/short?limit=100&api_token=RgFQdUIR2dRmwv8iYa5SnFNgnw3vpjKj&cache31052=31052&page=1","from":105101,"last_page":639,"last_page_url":"https://videocdn.tv/api/short?limit=100&api_token=RgFQdUIR2dRmwv8iYa5SnFNgnw3vpjKj&cache31052=31052&page=639","next_page_url":null,"path":"https://videocdn.tv/api/short","per_page":100,"prev_page_url":"https://videocdn.tv/api/short?limit=100&api_token=RgFQdUIR2dRmwv8iYa5SnFNgnw3vpjKj&cache31052=31052&page=1051","to":105120,"total":63897}