{"result":true,"data":[{"id":22735,"title":"Стиснув зубы","kp_id":"17566","imdb_id":"tt0120210","world_art_id":null,"type":"movie","add":"2019-03-05 04:04:56","orig_title":"Stiff Upper Lips","year":"1998-06-12","translations":["Авторский (одноголосый закадровый) (Карцев Пётр)"],"quality":"dvdrip","translation":"Авторский (одноголосый закадровый) (Карцев Пётр)","update":"2019-03-05 08:07:01","iframe_src":"//5322.svetacdn.in/71tsRs29n5tZ/movie/22735"},{"id":22734,"title":"Нейлон 100%","kp_id":"46428","imdb_id":"tt0070442","world_art_id":null,"type":"movie","add":"2019-03-05 04:03:03","orig_title":"Neylon 100%","year":"1973-12-17","translations":["Оригинальная дорожка"],"quality":"dvdrip","translation":"Оригинальная дорожка","update":"2019-03-05 07:37:12","iframe_src":"//5322.svetacdn.in/71tsRs29n5tZ/movie/22734"},{"id":22731,"title":"Затравленная","kp_id":"81762","imdb_id":"tt0415856","world_art_id":null,"type":"movie","add":"2019-03-05 03:55:23","orig_title":"Hounddog","year":"2007-01-22","translations":["Любительский (одноголосый закадровый)"],"quality":"bd","translation":"Любительский (одноголосый закадровый)","update":"2019-03-05 12:46:48","iframe_src":"//5322.svetacdn.in/71tsRs29n5tZ/movie/22731"},{"id":22729,"title":"Твой сын","kp_id":"1112881","imdb_id":"tt7807026","world_art_id":null,"type":"movie","add":"2019-03-05 03:48:37","orig_title":"Tu hijo","year":"2018-10-20","translations":["Любительский (многоголосый закадровый) (Синема УС)"],"quality":"webdl","translation":"Любительский (многоголосый закадровый) (Синема УС)","update":"2019-03-05 08:49:39","iframe_src":"//5322.svetacdn.in/71tsRs29n5tZ/movie/22729"},{"id":22723,"title":"Пощёчина","kp_id":"994377","imdb_id":"tt5879216","world_art_id":null,"type":"movie","add":"2019-03-05 03:33:30","orig_title":"Slapped! The Movie","year":"2018-10-09","translations":["Любительский (многоголосый закадровый) (Синема УС)"],"quality":"webdl","translation":"Любительский (многоголосый закадровый) (Синема УС)","update":"2019-03-05 07:40:06","iframe_src":"//5322.svetacdn.in/71tsRs29n5tZ/movie/22723"},{"id":22722,"title":"Без промедления","kp_id":"1000180","imdb_id":"tt5983362","world_art_id":null,"type":"movie","add":"2019-03-05 03:32:02","orig_title":"Sense of Urgency","year":"2017-05-05","translations":["Любительский (многоголосый закадровый) (Синема УС)"],"quality":"hdtv","translation":"Любительский (многоголосый закадровый) (Синема УС)","update":"2019-03-05 07:34:20","iframe_src":"//5322.svetacdn.in/71tsRs29n5tZ/movie/22722"},{"id":22721,"title":"Безбилетная пассажирка","kp_id":"46122","imdb_id":"tt0211947","world_art_id":null,"type":"movie","add":"2019-03-05 03:30:31","orig_title":"Bezbiletnaya passazhirka","year":"1978-01-01","translations":["Оригинальная дорожка"],"quality":"dvdrip","translation":"Оригинальная дорожка","update":"2019-03-05 07:41:02","iframe_src":"//5322.svetacdn.in/71tsRs29n5tZ/movie/22721"},{"id":22720,"title":"После дождичка в четверг","kp_id":"43139","imdb_id":"tt0089831","world_art_id":null,"type":"movie","add":"2019-03-05 03:25:28","orig_title":"Posle dozhdichka, v chetverg","year":"1986-05-12","translations":["Оригинальная дорожка"],"quality":"dvdrip","translation":"Оригинальная дорожка","update":"2019-03-05 07:42:28","iframe_src":"//5322.svetacdn.in/71tsRs29n5tZ/movie/22720"},{"id":22716,"title":"Моя война","kp_id":"998771","imdb_id":"tt6177592","world_art_id":null,"type":"movie","add":"2019-03-05 03:19:17","orig_title":"Wo de zhan zheng","year":"2016-09-15","translations":["Любительский (многоголосый закадровый) (GREEN TEA)"],"quality":"webdl","translation":"Любительский (многоголосый закадровый) (GREEN TEA)","update":"2019-03-05 08:08:59","iframe_src":"//5322.svetacdn.in/71tsRs29n5tZ/movie/22716"},{"id":22711,"title":"Двенадцатая ночь","kp_id":"195661","imdb_id":"tt0049166","world_art_id":null,"type":"movie","add":"2019-03-05 03:06:50","orig_title":"Dvenadtsataya noch","year":"1955-11-21","translations":["Оригинальная дорожка"],"quality":"hdtv","translation":"Оригинальная дорожка","update":"2019-03-05 08:11:09","iframe_src":"//5322.svetacdn.in/71tsRs29n5tZ/movie/22711"},{"id":22710,"title":"Чужая жена и муж под кроватью","kp_id":"79878","imdb_id":"tt0087058","world_art_id":null,"type":"movie","add":"2019-03-05 03:04:28","orig_title":"Chuzhaya zhena i muzh pod krovatyu","year":"1984-01-01","translations":["Оригинальная дорожка"],"quality":"dvdrip","translation":"Оригинальная дорожка","update":"2019-03-05 08:14:55","iframe_src":"//5322.svetacdn.in/71tsRs29n5tZ/movie/22710"},{"id":22709,"title":"Вакханалия","kp_id":"799085","imdb_id":"tt3167458","world_art_id":null,"type":"movie","add":"2019-03-05 03:01:35","orig_title":"Bacchanalia","year":"2017-10-10","translations":["Любительский (многоголосый закадровый) (Синема УС)"],"quality":"webdl","translation":"Любительский (многоголосый закадровый) (Синема УС)","update":"2019-03-05 08:17:34","iframe_src":"//5322.svetacdn.in/71tsRs29n5tZ/movie/22709"},{"id":22707,"title":"Кактус Джек","kp_id":"6305","imdb_id":"tt0080097","world_art_id":null,"type":"movie","add":"2019-03-05 02:54:21","orig_title":"The Villain","year":"1979-07-20","translations":["Профессиональный (многоголосый закадровый) (5-й канал СПб)"],"quality":"hdtv","translation":"Профессиональный (многоголосый закадровый) (5-й канал СПб)","update":"2019-03-06 06:44:17","iframe_src":"//5322.svetacdn.in/71tsRs29n5tZ/movie/22707"},{"id":22649,"title":"Срок","kp_id":"689032","imdb_id":"tt2230422","world_art_id":null,"type":"movie","add":"2019-03-03 11:33:28","orig_title":"Livstid","year":"2012-06-26","translations":["Профессиональный (многоголосый закадровый)"],"quality":"bd","translation":"Профессиональный (многоголосый закадровый)","update":"2019-03-05 08:55:27","iframe_src":"//5322.svetacdn.in/71tsRs29n5tZ/movie/22649"},{"id":22647,"title":"Злодей","kp_id":"481363","imdb_id":"tt1194242","world_art_id":null,"type":"movie","add":"2019-03-03 11:29:06","orig_title":"Le vilain","year":"2009-10-04","translations":["Профессиональный (многоголосый закадровый)"],"quality":"webdl","translation":"Профессиональный (многоголосый закадровый)","update":"2019-03-05 08:54:13","iframe_src":"//5322.svetacdn.in/71tsRs29n5tZ/movie/22647"},{"id":22571,"title":"Особенности банной политики, или Баня 2","kp_id":"406409","imdb_id":"tt1189002","world_art_id":null,"type":"movie","add":"2019-02-26 21:30:26","orig_title":"Osobennosti bannoy politiki, ili banya 2","year":"2000-01-01","translations":["Оригинальная дорожка"],"quality":"dvdrip","translation":"Оригинальная дорожка","update":"2019-03-05 08:25:14","iframe_src":"//5322.svetacdn.in/71tsRs29n5tZ/movie/22571"},{"id":22422,"title":"Красный гаолян","kp_id":"7754","imdb_id":"tt0093206","world_art_id":null,"type":"movie","add":"2019-02-21 11:46:04","orig_title":"Hong gao liang","year":"1988-09-11","translations":["Полное дублирование"],"quality":"bd","translation":"Полное дублирование","update":"2019-03-06 06:47:07","iframe_src":"//5322.svetacdn.in/71tsRs29n5tZ/movie/22422"},{"id":22421,"title":"Юха","kp_id":"105026","imdb_id":"tt0158692","world_art_id":null,"type":"movie","add":"2019-02-21 11:44:51","orig_title":"Juha","year":"1999-02-13","translations":["Авторский (одноголосый закадровый) (Алексеев Антон)"],"quality":"bd","translation":"Авторский (одноголосый закадровый) (Алексеев Антон)","update":"2019-03-06 06:46:03","iframe_src":"//5322.svetacdn.in/71tsRs29n5tZ/movie/22421"},{"id":21979,"title":"Под покровом ночи","kp_id":"997344","imdb_id":"tt5909334","world_art_id":null,"type":"movie","add":"2019-01-31 23:04:30","orig_title":"Beyond the Night","year":"2018-10-25","translations":["Любительский (многоголосый закадровый) (Синема УС)","Любительский (двухголосый закадровый) (HiWayGrope)","Любительский (двухголосый закадровый) (LakeFilms)","Профессиональный (многоголосый закадровый) (HDrezka Studio)"],"quality":"webdl","translation":"Любительский (многоголосый закадровый) (Синема УС)","update":"2019-03-05 08:15:59","iframe_src":"//5322.svetacdn.in/71tsRs29n5tZ/movie/21979"},{"id":20993,"title":"Восход тьмы","kp_id":"222206","imdb_id":"tt0484562","world_art_id":null,"type":"movie","add":"2018-12-24 10:09:19","orig_title":"The Seeker: The Dark Is Rising","year":"2007-10-04","translations":["Полное дублирование"],"quality":"hdtv","translation":"Полное дублирование","update":"2019-03-05 07:38:12","iframe_src":"//5322.svetacdn.in/71tsRs29n5tZ/movie/20993"}],"current_page":1547,"first_page_url":"https://videocdn.tv/api/short?limit=100&api_token=EnbO9h8pv1VyjbCJhg0WM9nG259n7mtz&cache31547=31547&page=1","from":154601,"last_page":619,"last_page_url":"https://videocdn.tv/api/short?limit=100&api_token=EnbO9h8pv1VyjbCJhg0WM9nG259n7mtz&cache31547=31547&page=619","next_page_url":null,"path":"https://videocdn.tv/api/short","per_page":100,"prev_page_url":"https://videocdn.tv/api/short?limit=100&api_token=EnbO9h8pv1VyjbCJhg0WM9nG259n7mtz&cache31547=31547&page=1546","to":154620,"total":61882}