{"result":true,"data":[{"id":46706,"title":"Встреча в ущелье смерти","kp_id":"45935","imdb_id":null,"world_art_id":null,"type":"movie","add":"2021-01-05 16:31:02","orig_title":"Встреча в ущелье смерти","year":"1980-12-04","translations":["Оригинальная дорожка"],"quality":"vhs","translation":"Оригинальная дорожка","update":"2021-01-06 10:59:38","iframe_src":"//7720.svetacdn.in/71tsRs29n5tZ/movie/46706"},{"id":46705,"title":"Генерал Рахимов","kp_id":"44485","imdb_id":"tt0347053","world_art_id":null,"type":"movie","add":"2021-01-05 16:27:36","orig_title":"General Rakhimov","year":"1968-02-19","translations":["Оригинальная дорожка"],"quality":"webdl","translation":"Оригинальная дорожка","update":"2021-01-06 10:58:55","iframe_src":"//7720.svetacdn.in/71tsRs29n5tZ/movie/46705"},{"id":46704,"title":"Там, где нас нет","kp_id":"42197","imdb_id":"tt0275718","world_art_id":null,"type":"movie","add":"2021-01-05 16:22:38","orig_title":"Tam, gde nas net","year":"1986-12-01","translations":["Оригинальная дорожка"],"quality":"vhs","translation":"Оригинальная дорожка","update":"2021-01-06 10:57:36","iframe_src":"//7720.svetacdn.in/71tsRs29n5tZ/movie/46704"},{"id":46703,"title":"Такая длинная, длинная дорога","kp_id":"178815","imdb_id":"tt0461848","world_art_id":null,"type":"movie","add":"2021-01-05 16:20:21","orig_title":"Takaya dlinnaya, dlinnaya doroga","year":"1972-01-01","translations":["Оригинальная дорожка"],"quality":"sat","translation":"Оригинальная дорожка","update":"2021-01-06 10:56:44","iframe_src":"//7720.svetacdn.in/71tsRs29n5tZ/movie/46703"},{"id":46701,"title":"Сергей Иванович уходит на пенсию","kp_id":"43696","imdb_id":"tt0230756","world_art_id":null,"type":"movie","add":"2021-01-05 16:15:43","orig_title":"Sergey Ivanovich ukhodit na pensiyu","year":"1981-04-20","translations":["Оригинальная дорожка"],"quality":"iptv","translation":"Оригинальная дорожка","update":"2021-01-06 10:55:10","iframe_src":"//7720.svetacdn.in/71tsRs29n5tZ/movie/46701"},{"id":46700,"title":"От зари до зари","kp_id":"42833","imdb_id":"tt0147131","world_art_id":null,"type":"movie","add":"2021-01-05 16:13:09","orig_title":"Ot zari do zari","year":"1975-12-09","translations":["Оригинальная дорожка"],"quality":"sat","translation":"Оригинальная дорожка","update":"2021-01-06 10:54:11","iframe_src":"//7720.svetacdn.in/71tsRs29n5tZ/movie/46700"},{"id":46697,"title":"Ха-би-ассы","kp_id":"44628","imdb_id":"tt0129131","world_art_id":null,"type":"movie","add":"2021-01-05 16:06:33","orig_title":"Kha-bi-assy","year":"1990-10-02","translations":["Оригинальная дорожка"],"quality":"dvdrip","translation":"Оригинальная дорожка","update":"2021-01-06 10:51:51","iframe_src":"//7720.svetacdn.in/71tsRs29n5tZ/movie/46697"},{"id":46696,"title":"Если бы я был начальником...","kp_id":"42444","imdb_id":"tt0081786","world_art_id":null,"type":"movie","add":"2021-01-05 16:04:18","orig_title":"Yesli by ya byl nachalnikom","year":"1981-03-16","translations":["Оригинальная дорожка"],"quality":"sat","translation":"Оригинальная дорожка","update":"2021-01-06 10:51:01","iframe_src":"//7720.svetacdn.in/71tsRs29n5tZ/movie/46696"},{"id":46695,"title":"Дым отечества","kp_id":"44377","imdb_id":"tt0176679","world_art_id":null,"type":"movie","add":"2021-01-05 16:01:47","orig_title":"Dym otechestva","year":"1980-01-01","translations":["Оригинальная дорожка"],"quality":"dvdrip","translation":"Оригинальная дорожка","update":"2021-01-06 10:50:01","iframe_src":"//7720.svetacdn.in/71tsRs29n5tZ/movie/46695"},{"id":46694,"title":"Дневные звезды","kp_id":"44226","imdb_id":"tt0060316","world_art_id":null,"type":"movie","add":"2021-01-05 15:59:33","orig_title":"Dnevnye zvyozdy","year":"1968-02-08","translations":["Оригинальная дорожка"],"quality":"tv","translation":"Оригинальная дорожка","update":"2021-01-06 10:49:21","iframe_src":"//7720.svetacdn.in/71tsRs29n5tZ/movie/46694"},{"id":46693,"title":"Большая руда","kp_id":"46174","imdb_id":"tt0149917","world_art_id":null,"type":"movie","add":"2021-01-05 15:56:53","orig_title":"Bolshaya ruda","year":"1964-12-14","translations":["Оригинальная дорожка"],"quality":"dvdrip","translation":"Оригинальная дорожка","update":"2021-01-06 10:43:26","iframe_src":"//7720.svetacdn.in/71tsRs29n5tZ/movie/46693"},{"id":46686,"title":"Карусель","kp_id":"408925","imdb_id":"tt5595162","world_art_id":null,"type":"movie","add":"2021-01-04 17:12:06","orig_title":"Karusel","year":"1983-08-06","translations":["Оригинальная дорожка"],"quality":"tv","translation":"Оригинальная дорожка","update":"2021-01-06 10:42:30","iframe_src":"//7720.svetacdn.in/71tsRs29n5tZ/movie/46686"},{"id":46685,"title":"Флаги на башнях","kp_id":"434838","imdb_id":"tt1538483","world_art_id":null,"type":"movie","add":"2021-01-04 17:08:14","orig_title":"Flagi na bashnyakh","year":"1958-07-28","translations":["Оригинальная дорожка"],"quality":"dvdrip","translation":"Оригинальная дорожка","update":"2021-01-06 10:41:36","iframe_src":"//7720.svetacdn.in/71tsRs29n5tZ/movie/46685"},{"id":46684,"title":"Дорога к морю","kp_id":"223132","imdb_id":"tt0380321","world_art_id":null,"type":"movie","add":"2021-01-04 17:03:58","orig_title":"Doroga k moryu","year":"1965-03-17","translations":["Оригинальная дорожка"],"quality":"dvdrip","translation":"Оригинальная дорожка","update":"2021-01-06 10:40:57","iframe_src":"//7720.svetacdn.in/71tsRs29n5tZ/movie/46684"},{"id":46683,"title":"Чудесный костюм","kp_id":"314259","imdb_id":null,"world_art_id":null,"type":"movie","add":"2021-01-04 17:01:09","orig_title":"Чудесный костюм","year":"1973-01-01","translations":["Оригинальная дорожка"],"quality":"sat","translation":"Оригинальная дорожка","update":"2021-01-06 10:39:58","iframe_src":"//7720.svetacdn.in/71tsRs29n5tZ/movie/46683"},{"id":46682,"title":"Человек в штатском","kp_id":"45471","imdb_id":"tt0313878","world_art_id":null,"type":"movie","add":"2021-01-04 16:55:13","orig_title":"Chelovek v shtatskom","year":"1973-10-15","translations":["Оригинальная дорожка"],"quality":"sat","translation":"Оригинальная дорожка","update":"2021-01-06 10:39:07","iframe_src":"//7720.svetacdn.in/71tsRs29n5tZ/movie/46682"},{"id":46662,"title":"На даче","kp_id":"468774","imdb_id":null,"world_art_id":null,"type":"movie","add":"2021-01-03 22:44:07","orig_title":"На даче","year":"1971-04-25","translations":["Оригинальная дорожка"],"quality":"sat","translation":"Оригинальная дорожка","update":"2021-01-06 10:38:22","iframe_src":"//7720.svetacdn.in/71tsRs29n5tZ/movie/46662"},{"id":46661,"title":"Наша дача","kp_id":"46333","imdb_id":"tt0100227","world_art_id":null,"type":"movie","add":"2021-01-03 22:35:34","orig_title":"Nasha dacha","year":"1990-01-21","translations":["Оригинальная дорожка"],"quality":"dvdrip","translation":"Оригинальная дорожка","update":"2021-01-06 10:37:25","iframe_src":"//7720.svetacdn.in/71tsRs29n5tZ/movie/46661"},{"id":46660,"title":"Портрет с дождем","kp_id":"43131","imdb_id":"tt0076562","world_art_id":null,"type":"movie","add":"2021-01-03 22:31:54","orig_title":"Portret s dozhdyom","year":"1978-03-06","translations":["Оригинальная дорожка"],"quality":"iptv","translation":"Оригинальная дорожка","update":"2021-01-06 10:36:18","iframe_src":"//7720.svetacdn.in/71tsRs29n5tZ/movie/46660"},{"id":26241,"title":"В 26-го не стрелять","kp_id":"45582","imdb_id":"tt0170744","world_art_id":null,"type":"movie","add":"2019-05-09 21:21:15","orig_title":"V 26-go ne strelyat","year":"1967-06-02","translations":["Оригинальная дорожка","Оригинальная дорожка"],"quality":"sat","translation":"Оригинальная дорожка","update":"2021-01-06 10:58:22","iframe_src":"//7720.svetacdn.in/71tsRs29n5tZ/movie/26241"},{"id":4005,"title":"Чистая любовь","kp_id":"433797","imdb_id":"tt0940629","world_art_id":null,"type":"serial","add":"2019-01-30 22:26:48","orig_title":"Destilando amor","year":"2007-01-22","translations":["Любительский (одноголосый закадровый)"],"seasons_count":1,"episodes_count":170,"episodes":170,"update":"2019-01-31 14:00:51","iframe_src":"//7720.svetacdn.in/71tsRs29n5tZ/tv-series/4005"},{"id":4002,"title":"Мисс Шерлок","kp_id":"1112719","imdb_id":"tt7755494","world_art_id":null,"type":"serial","add":"2019-01-30 18:13:12","orig_title":"Miss Sherlock","year":"2018-04-27","translations":["Профессиональный (многоголосый закадровый) (IdeaFilm)"],"seasons_count":1,"episodes_count":8,"episodes":8,"update":"2019-01-31 11:01:57","iframe_src":"//7720.svetacdn.in/71tsRs29n5tZ/tv-series/4002"},{"id":3993,"title":"Шеф Ким","kp_id":"1008543","imdb_id":"tt6352982","world_art_id":null,"type":"serial","add":"2019-01-29 12:34:54","orig_title":"Kim Gwajang","year":"2017-01-25","translations":["Любительский (двухголосый закадровый) (HighHopes)"],"seasons_count":1,"episodes_count":20,"episodes":20,"update":"2019-01-31 10:15:17","iframe_src":"//7720.svetacdn.in/71tsRs29n5tZ/tv-series/3993"},{"id":3985,"title":"Дежурная аптека","kp_id":"281878","imdb_id":"tt0098794","world_art_id":null,"type":"serial","add":"2019-01-28 19:14:08","orig_title":"Farmacia de guardia","year":"1991-09-19","translations":["Профессиональный (многоголосый закадровый)"],"seasons_count":5,"episodes_count":169,"episodes":13,"update":"2019-01-31 16:07:17","iframe_src":"//7720.svetacdn.in/71tsRs29n5tZ/tv-series/3985"},{"id":3983,"title":"Паутина 4","kp_id":"565126","imdb_id":null,"world_art_id":null,"type":"serial","add":"2019-01-28 17:32:25","orig_title":"Паутина 4","year":"2011-01-11","translations":["Оригинальная дорожка"],"seasons_count":1,"episodes_count":16,"episodes":16,"update":"2019-01-31 19:29:51","iframe_src":"//7720.svetacdn.in/71tsRs29n5tZ/tv-series/3983"},{"id":3982,"title":"Паутина 3","kp_id":"464841","imdb_id":null,"world_art_id":null,"type":"serial","add":"2019-01-28 17:26:23","orig_title":"Паутина 3","year":"2010-01-20","translations":["Оригинальная дорожка"],"seasons_count":1,"episodes_count":12,"episodes":12,"update":"2019-01-31 19:39:29","iframe_src":"//7720.svetacdn.in/71tsRs29n5tZ/tv-series/3982"},{"id":3981,"title":"Паутина 2","kp_id":"428973","imdb_id":null,"world_art_id":null,"type":"serial","add":"2019-01-28 17:17:29","orig_title":"Паутина 2","year":"2008-01-01","translations":["Оригинальная дорожка"],"seasons_count":1,"episodes_count":12,"episodes":12,"update":"2019-01-31 19:45:39","iframe_src":"//7720.svetacdn.in/71tsRs29n5tZ/tv-series/3981"},{"id":3980,"title":"Паутина","kp_id":"428979","imdb_id":"tt5013810","world_art_id":null,"type":"serial","add":"2019-01-28 14:57:30","orig_title":"Pautina","year":"2008-01-09","translations":["Оригинальная дорожка"],"seasons_count":1,"episodes_count":16,"episodes":16,"update":"2019-01-31 19:50:25","iframe_src":"//7720.svetacdn.in/71tsRs29n5tZ/tv-series/3980"},{"id":3979,"title":"День Д","kp_id":"934138","imdb_id":"tt5145142","world_art_id":null,"type":"serial","add":"2019-01-28 14:19:47","orig_title":"Di Dei","year":"2015-09-18","translations":["Любительский (двухголосый закадровый) (GREEN TEA)"],"seasons_count":1,"episodes_count":20,"episodes":20,"update":"2019-01-31 08:56:04","iframe_src":"//7720.svetacdn.in/71tsRs29n5tZ/tv-series/3979"},{"id":3974,"title":"Верни мою жизнь","kp_id":"1231451","imdb_id":null,"world_art_id":null,"type":"serial","add":"2019-01-28 13:47:21","orig_title":"Верни мою жизнь","year":"2019-01-08","translations":["Оригинальная дорожка"],"seasons_count":1,"episodes_count":4,"episodes":4,"update":"2019-01-30 11:42:27","iframe_src":"//7720.svetacdn.in/71tsRs29n5tZ/tv-series/3974"},{"id":3969,"title":"Магия Мотауна","kp_id":"1191071","imdb_id":"tt8959860","world_art_id":null,"type":"serial","add":"2019-01-28 08:48:20","orig_title":"Motown Magic","year":"2018-11-20","translations":["Полное дублирование"],"seasons_count":1,"episodes_count":25,"episodes":25,"update":"2019-01-31 09:53:58","iframe_src":"//7720.svetacdn.in/71tsRs29n5tZ/tv-series/3969"},{"id":3965,"title":"Золотая радуга","kp_id":"807881","imdb_id":"tt3362466","world_art_id":null,"type":"serial","add":"2019-01-27 14:52:51","orig_title":"Gold Rainbow","year":"2013-11-02","translations":["Любительский (одноголосый закадровый)"],"seasons_count":1,"episodes_count":41,"episodes":41,"update":"2019-01-31 19:53:28","iframe_src":"//7720.svetacdn.in/71tsRs29n5tZ/tv-series/3965"},{"id":3964,"title":"Чужой район 3","kp_id":"797028","imdb_id":null,"world_art_id":null,"type":"serial","add":"2019-01-27 12:20:19","orig_title":"Чужой район 3","year":"2014-04-14","translations":["Оригинальная дорожка"],"seasons_count":1,"episodes_count":32,"episodes":32,"update":"2019-01-31 19:30:32","iframe_src":"//7720.svetacdn.in/71tsRs29n5tZ/tv-series/3964"},{"id":3963,"title":"Чужой район 2","kp_id":"756251","imdb_id":null,"world_art_id":null,"type":"serial","add":"2019-01-27 12:05:53","orig_title":"Чужой район 2","year":"2013-04-08","translations":["Оригинальная дорожка"],"seasons_count":1,"episodes_count":32,"episodes":32,"update":"2019-01-31 19:40:34","iframe_src":"//7720.svetacdn.in/71tsRs29n5tZ/tv-series/3963"},{"id":3962,"title":"Чужой район","kp_id":"627273","imdb_id":null,"world_art_id":null,"type":"serial","add":"2019-01-27 11:43:26","orig_title":"Чужой район","year":"2012-02-15","translations":["Оригинальная дорожка"],"seasons_count":1,"episodes_count":24,"episodes":24,"update":"2019-01-31 19:11:47","iframe_src":"//7720.svetacdn.in/71tsRs29n5tZ/tv-series/3962"},{"id":3813,"title":"Ранетки","kp_id":"408327","imdb_id":"tt1402943","world_art_id":null,"type":"serial","add":"2019-01-03 09:30:12","orig_title":"Ranetki","year":"2008-03-17","translations":["Оригинальная дорожка"],"seasons_count":5,"episodes_count":260,"episodes":40,"update":"2019-01-31 10:20:22","iframe_src":"//7720.svetacdn.in/71tsRs29n5tZ/tv-series/3813"},{"id":2789,"title":"Джинглики","kp_id":"779038","imdb_id":null,"world_art_id":null,"type":"serial","add":"2018-06-11 05:28:25","orig_title":"Джинглики","year":"2015-12-08","translations":["Оригинальная дорожка"],"seasons_count":1,"episodes_count":14,"episodes":14,"update":"2019-01-31 11:48:46","iframe_src":"//7720.svetacdn.in/71tsRs29n5tZ/tv-series/2789"},{"id":495,"title":"Фиксики","kp_id":"581653","imdb_id":"tt3886188","world_art_id":null,"type":"serial","add":"2016-10-01 06:24:30","orig_title":"Fiksiki","year":"2010-12-13","translations":["Оригинальная дорожка"],"seasons_count":3,"episodes_count":143,"episodes":39,"update":"2019-01-31 12:20:17","iframe_src":"//7720.svetacdn.in/71tsRs29n5tZ/tv-series/495"},{"id":174,"title":"Адам портит всё","kp_id":"934101","imdb_id":"tt5034326","world_art_id":null,"type":"serial","add":"2016-06-13 04:27:47","orig_title":"Adam Ruins Everything","year":"2015-09-29","translations":["Профессиональный (двухголосый закадровый) (Ozz.tv)","Профессиональный (многоголосый закадровый) (Ozz.tv)","Профессиональный (многоголосый закадровый) (ColdFilm)","Любительский (двухголосый закадровый) (KinoGolos)"],"seasons_count":3,"episodes_count":60,"episodes":8,"update":"2019-01-31 11:48:08","iframe_src":"//7720.svetacdn.in/71tsRs29n5tZ/tv-series/174"},{"id":53,"title":"Свинка Пеппа","kp_id":"699617","imdb_id":"tt0426769","world_art_id":null,"type":"serial","add":"2016-04-07 07:42:39","orig_title":"Peppa Pig","year":"2004-05-31","translations":["Полное дублирование"],"seasons_count":4,"episodes_count":199,"episodes":52,"update":"2019-01-31 20:01:45","iframe_src":"//7720.svetacdn.in/71tsRs29n5tZ/tv-series/53"}],"current_page":405,"first_page_url":"https://videocdn.tv/api/short?limit=100&api_token=EnbO9h8pv1VyjbCJhg0WM9nG259n7mtz&cache3405=3405&page=1","from":40401,"last_page":646,"last_page_url":"https://videocdn.tv/api/short?limit=100&api_token=EnbO9h8pv1VyjbCJhg0WM9nG259n7mtz&cache3405=3405&page=646","next_page_url":"https://videocdn.tv/api/short?limit=100&api_token=EnbO9h8pv1VyjbCJhg0WM9nG259n7mtz&cache3405=3405&page=406","path":"https://videocdn.tv/api/short","per_page":100,"prev_page_url":"https://videocdn.tv/api/short?limit=100&api_token=EnbO9h8pv1VyjbCJhg0WM9nG259n7mtz&cache3405=3405&page=404","to":40440,"total":64539}