{"result":true,"data":[{"id":49740,"title":"Москва — Генуя","kp_id":"542281","imdb_id":"tt5032172","world_art_id":null,"type":"movie","add":"2021-04-20 08:32:30","orig_title":"Moskva - Genuya","year":"1964-11-02","translations":["Оригинальная дорожка"],"quality":"sat","translation":"Оригинальная дорожка","update":"2021-04-20 09:19:02","iframe_src":"//83.svetacdn.in/PfJ50H0ZBPg3/movie/49740"},{"id":49738,"title":"Хохмачи","kp_id":"5641","imdb_id":"tt0093315","world_art_id":null,"type":"movie","add":"2021-04-20 08:23:27","orig_title":"Jocks","year":"1986-11-14","translations":["Профессиональный (многоголосый закадровый) (Варус-Видео)"],"quality":"dvdrip","translation":"Профессиональный (многоголосый закадровый) (Варус-Видео)","update":"2021-04-20 09:20:34","iframe_src":"//83.svetacdn.in/PfJ50H0ZBPg3/movie/49738"},{"id":49732,"title":"Вторники и пятницы","kp_id":"1212671","imdb_id":"tt9176102","world_art_id":null,"type":"movie","add":"2021-04-19 20:17:14","orig_title":"Tuesdays and Fridays","year":"2021-02-19","translations":["Любительский (многоголосый закадровый) (Синема УС)"],"quality":"webdl","translation":"Любительский (многоголосый закадровый) (Синема УС)","update":"2021-04-20 08:24:07","iframe_src":"//83.svetacdn.in/PfJ50H0ZBPg3/movie/49732"},{"id":49714,"title":"Сувенир","kp_id":"1085867","imdb_id":"tt6473982","world_art_id":null,"type":"movie","add":"2021-04-19 13:08:19","orig_title":"Souvenir","year":"2019-01-27","translations":["Любительский (многоголосый закадровый) (Синема УС)"],"quality":"webdl","translation":"Любительский (многоголосый закадровый) (Синема УС)","update":"2021-04-19 21:31:26","iframe_src":"//83.svetacdn.in/PfJ50H0ZBPg3/movie/49714"},{"id":49712,"title":"С глаз долой и разум вон","kp_id":"1001913","imdb_id":"tt5929354","world_art_id":null,"type":"movie","add":"2021-04-19 09:00:01","orig_title":"Out of Sight, Out of Mind","year":"2019-01-25","translations":["Любительский (многоголосый закадровый) (Синема УС)"],"quality":"webdl","translation":"Любительский (многоголосый закадровый) (Синема УС)","update":"2021-04-20 04:36:15","iframe_src":"//83.svetacdn.in/PfJ50H0ZBPg3/movie/49712"},{"id":48574,"title":"Кровавая река","kp_id":"398126","imdb_id":"tt1137999","world_art_id":null,"type":"movie","add":"2021-03-09 05:37:06","orig_title":"Blood River","year":"2009-04-17","translations":["Любительский (одноголосый закадровый) (Voiz)","[EN] Original (English)"],"quality":"bd","translation":"Любительский (одноголосый закадровый) (Voiz)","update":"2021-04-20 07:33:10","iframe_src":"//83.svetacdn.in/PfJ50H0ZBPg3/movie/48574"},{"id":48537,"title":"Немного безобидного секса","kp_id":"23766","imdb_id":"tt0175777","world_art_id":null,"type":"movie","add":"2021-03-08 06:32:32","orig_title":"Just a Little Harmless Sex","year":"1999-06-11","translations":["Профессиональный (двухголосый закадровый) (НТВ)","[EN] Original (English)"],"quality":"hdtv","translation":"Профессиональный (двухголосый закадровый) (НТВ)","update":"2021-04-20 07:19:00","iframe_src":"//83.svetacdn.in/PfJ50H0ZBPg3/movie/48537"},{"id":48502,"title":"Божья коровка, улети на небо","kp_id":"33643","imdb_id":"tt0110296","world_art_id":null,"type":"movie","add":"2021-03-06 16:50:16","orig_title":"Ladybird Ladybird","year":"1994-02-19","translations":["Профессиональный (двухголосый закадровый) (Ульпаней Эльром)","[EN] Original (English)"],"quality":"bd","translation":"Профессиональный (двухголосый закадровый) (Ульпаней Эльром)","update":"2021-04-20 07:30:59","iframe_src":"//83.svetacdn.in/PfJ50H0ZBPg3/movie/48502"},{"id":48228,"title":"Батарейка","kp_id":"714915","imdb_id":"tt2272350","world_art_id":null,"type":"movie","add":"2021-02-24 17:04:45","orig_title":"The Battery","year":"2012-10-13","translations":["Любительский (двухголосый закадровый) (DeadSno & den904)","[EN] Original (English)"],"quality":"bd","translation":"Любительский (двухголосый закадровый) (DeadSno & den904)","update":"2021-04-20 07:23:13","iframe_src":"//83.svetacdn.in/PfJ50H0ZBPg3/movie/48228"},{"id":47837,"title":"Мумии: Секреты фараонов 3D","kp_id":"276323","imdb_id":"tt0922522","world_art_id":null,"type":"movie","add":"2021-02-11 07:38:57","orig_title":"Mummies: Secrets of the Pharaohs","year":"2007-05-25","translations":["Профессиональный (одноголосый закадровый)","[EN] Original (English)"],"quality":"bd","translation":"Профессиональный (одноголосый закадровый)","update":"2021-04-20 07:25:39","iframe_src":"//83.svetacdn.in/PfJ50H0ZBPg3/movie/47837"},{"id":47098,"title":"Анаконда: Тихий убийца","kp_id":"1009673","imdb_id":"tt5985572","world_art_id":null,"type":"movie","add":"2021-01-14 19:51:05","orig_title":"Anaconda: Silent Killer","year":"2014-05-11","translations":["Полное дублирование","[EN] Original (English)"],"quality":"hdtv","translation":"Полное дублирование","update":"2021-04-20 07:20:21","iframe_src":"//83.svetacdn.in/PfJ50H0ZBPg3/movie/47098"},{"id":46954,"title":"Миссис Паркер и порочный круг","kp_id":"4452","imdb_id":"tt0110588","world_art_id":null,"type":"movie","add":"2021-01-12 11:14:25","orig_title":"Mrs. Parker and the Vicious Circle","year":"1994-05-01","translations":["Профессиональный (многоголосый закадровый)","[EN] Original (English)"],"quality":"bd","translation":"Профессиональный (многоголосый закадровый)","update":"2021-04-20 07:27:35","iframe_src":"//83.svetacdn.in/PfJ50H0ZBPg3/movie/46954"},{"id":46364,"title":"Звонок из прошлого","kp_id":"1197741","imdb_id":"tt10530176","world_art_id":null,"type":"movie","add":"2020-12-25 10:22:25","orig_title":"Kol","year":"2020-03-31","translations":["Любительский (многоголосый закадровый)","Любительский (многоголосый закадровый) (STEPonee)","Профессиональный (двухголосый закадровый) (ViruseProject)"],"quality":"webdl","translation":"Любительский (многоголосый закадровый)","update":"2021-04-20 07:12:34","iframe_src":"//83.svetacdn.in/PfJ50H0ZBPg3/movie/46364"},{"id":40115,"title":"Ты мой","kp_id":"98055","imdb_id":"tt0173369","world_art_id":null,"type":"movie","add":"2020-05-05 15:29:50","orig_title":"Tum Mere Ho","year":"1990-05-25","translations":["Любительский (одноголосый закадровый) (Nastia)"],"quality":"dvdrip","translation":"Любительский (одноголосый закадровый) (Nastia)","update":"2021-04-19 23:20:30","iframe_src":"//83.svetacdn.in/PfJ50H0ZBPg3/movie/40115"},{"id":18936,"title":"Зависимость","kp_id":"6904","imdb_id":"tt0112288","world_art_id":null,"type":"movie","add":"2018-09-12 00:16:31","orig_title":"The Addiction","year":"1995-02-18","translations":["Профессиональный (многоголосый закадровый)","Профессиональный (двухголосый закадровый)","[EN] Original (English)"],"quality":"bd","translation":"Профессиональный (многоголосый закадровый)","update":"2021-04-20 07:24:52","iframe_src":"//83.svetacdn.in/PfJ50H0ZBPg3/movie/18936"},{"id":11165,"title":"Изгоняющий дьявола III","kp_id":"5888","imdb_id":"tt0099528","world_art_id":null,"type":"movie","add":"2017-04-21 14:22:40","orig_title":"The Exorcist III","year":"1990-08-17","translations":["Профессиональный (одноголосый закадровый) (Tycoon)","[EN] Original (English)"],"quality":"bd","translation":"Профессиональный (одноголосый закадровый) (Tycoon)","update":"2021-04-20 07:21:29","iframe_src":"//83.svetacdn.in/PfJ50H0ZBPg3/movie/11165"},{"id":1051,"title":"Барышня и Хулиган","kp_id":"984281","imdb_id":null,"world_art_id":null,"type":"serial","add":"2017-02-27 08:01:51","orig_title":"Барышня и Хулиган","year":"2017-02-25","translations":["Оригинальная дорожка"],"seasons_count":1,"episodes_count":4,"episodes":4,"update":"2017-02-27 10:26:57","iframe_src":"//83.svetacdn.in/PfJ50H0ZBPg3/tv-series/1051"},{"id":1036,"title":"Осиное гнездо","kp_id":"989819","imdb_id":null,"world_art_id":null,"type":"serial","add":"2017-02-21 13:28:31","orig_title":"Осиное гнездо","year":"2017-02-06","translations":["Оригинальная дорожка"],"seasons_count":1,"episodes_count":16,"episodes":16,"update":"2017-02-22 11:32:19","iframe_src":"//83.svetacdn.in/PfJ50H0ZBPg3/tv-series/1036"},{"id":1035,"title":"Берега","kp_id":"817907","imdb_id":"tt3866560","world_art_id":null,"type":"serial","add":"2017-02-21 13:25:54","orig_title":"Berega","year":"2013-12-21","translations":["Оригинальная дорожка"],"seasons_count":1,"episodes_count":2,"episodes":2,"update":"2017-02-22 10:23:02","iframe_src":"//83.svetacdn.in/PfJ50H0ZBPg3/tv-series/1035"},{"id":1034,"title":"Пуаро","kp_id":"85208","imdb_id":"tt0094525","world_art_id":null,"type":"serial","add":"2017-02-21 13:09:31","orig_title":"Poirot","year":"1989-01-08","translations":["Профессиональный (многоголосый закадровый)"],"seasons_count":13,"episodes_count":70,"episodes":5,"update":"2017-02-24 12:08:45","iframe_src":"//83.svetacdn.in/PfJ50H0ZBPg3/tv-series/1034"},{"id":1033,"title":"Пять минут тишины","kp_id":"961720","imdb_id":null,"world_art_id":null,"type":"serial","add":"2017-02-21 06:41:00","orig_title":"Пять минут тишины","year":"2017-02-20","translations":["Оригинальная дорожка"],"seasons_count":1,"episodes_count":10,"episodes":10,"update":"2017-02-26 11:02:33","iframe_src":"//83.svetacdn.in/PfJ50H0ZBPg3/tv-series/1033"},{"id":1031,"title":"Тёмные воды","kp_id":"581122","imdb_id":null,"world_art_id":null,"type":"serial","add":"2017-02-20 11:54:54","orig_title":"Тёмные воды","year":"2011-02-19","translations":["Оригинальная дорожка"],"seasons_count":1,"episodes_count":4,"episodes":4,"update":"2017-02-20 15:41:31","iframe_src":"//83.svetacdn.in/PfJ50H0ZBPg3/tv-series/1031"},{"id":1029,"title":"Правила угона","kp_id":"461762","imdb_id":"tt3622372","world_art_id":null,"type":"serial","add":"2017-02-17 09:40:22","orig_title":"Pravila ugona","year":"2009-09-20","translations":["Оригинальная дорожка"],"seasons_count":1,"episodes_count":8,"episodes":8,"update":"2017-02-17 13:18:34","iframe_src":"//83.svetacdn.in/PfJ50H0ZBPg3/tv-series/1029"},{"id":1027,"title":"Всё по закону","kp_id":"840960","imdb_id":null,"world_art_id":null,"type":"serial","add":"2017-02-17 09:09:12","orig_title":"Всё по закону","year":"2016-04-25","translations":["Оригинальная дорожка"],"seasons_count":1,"episodes_count":14,"episodes":14,"update":"2017-02-17 12:38:51","iframe_src":"//83.svetacdn.in/PfJ50H0ZBPg3/tv-series/1027"},{"id":1026,"title":"Партизаны","kp_id":"464959","imdb_id":null,"world_art_id":null,"type":"serial","add":"2017-02-17 09:06:55","orig_title":"Партизаны","year":"2011-02-03","translations":["Оригинальная дорожка"],"seasons_count":1,"episodes_count":16,"episodes":16,"update":"2017-02-17 13:02:10","iframe_src":"//83.svetacdn.in/PfJ50H0ZBPg3/tv-series/1026"},{"id":1025,"title":"Сердце Бонивура","kp_id":"427079","imdb_id":"tt5085470","world_art_id":null,"type":"serial","add":"2017-02-17 09:04:28","orig_title":"Serdtse Bonivura","year":"1969-10-21","translations":["Оригинальная дорожка"],"seasons_count":1,"episodes_count":4,"episodes":4,"update":"2017-02-17 12:42:48","iframe_src":"//83.svetacdn.in/PfJ50H0ZBPg3/tv-series/1025"},{"id":1024,"title":"Бен Гур","kp_id":"468033","imdb_id":"tt2009776","world_art_id":null,"type":"serial","add":"2017-02-17 05:52:00","orig_title":"Ben Hur","year":"2010-04-04","translations":["Профессиональный (многоголосый закадровый)","Профессиональный (многоголосый закадровый) (TVShows)"],"seasons_count":1,"episodes_count":2,"episodes":2,"update":"2017-02-17 09:13:13","iframe_src":"//83.svetacdn.in/PfJ50H0ZBPg3/tv-series/1024"},{"id":1023,"title":"Он","kp_id":"965838","imdb_id":"tt5214372","world_art_id":null,"type":"serial","add":"2017-02-16 14:32:11","orig_title":"Him","year":"2016-10-19","translations":["Профессиональный (многоголосый закадровый) (BaibaKo)"],"seasons_count":1,"episodes_count":3,"episodes":3,"update":"2017-02-17 11:21:47","iframe_src":"//83.svetacdn.in/PfJ50H0ZBPg3/tv-series/1023"},{"id":1021,"title":"Уравнение любви","kp_id":"692464","imdb_id":"tt4083498","world_art_id":null,"type":"serial","add":"2017-02-16 14:23:35","orig_title":"Uravnenie lyubvi","year":"2013-04-11","translations":["Оригинальная дорожка"],"seasons_count":1,"episodes_count":8,"episodes":8,"update":"2017-02-17 11:38:37","iframe_src":"//83.svetacdn.in/PfJ50H0ZBPg3/tv-series/1021"},{"id":1020,"title":"Цветы зла","kp_id":"762293","imdb_id":"tt4083546","world_art_id":null,"type":"serial","add":"2017-02-16 14:20:52","orig_title":"Tsvety zla","year":"2013-05-07","translations":["Оригинальная дорожка"],"seasons_count":1,"episodes_count":4,"episodes":4,"update":"2017-02-17 12:11:10","iframe_src":"//83.svetacdn.in/PfJ50H0ZBPg3/tv-series/1020"},{"id":1019,"title":"Танцы марионеток","kp_id":"771393","imdb_id":"tt4744382","world_art_id":null,"type":"serial","add":"2017-02-16 14:17:58","orig_title":"Tantsy marionetok","year":"2013-11-22","translations":["Оригинальная дорожка"],"seasons_count":1,"episodes_count":4,"episodes":4,"update":"2017-02-17 12:29:27","iframe_src":"//83.svetacdn.in/PfJ50H0ZBPg3/tv-series/1019"},{"id":1018,"title":"Случайный свидетель","kp_id":"573859","imdb_id":null,"world_art_id":null,"type":"serial","add":"2017-02-16 14:14:17","orig_title":"Случайный свидетель","year":"2011-11-06","translations":["Оригинальная дорожка"],"seasons_count":1,"episodes_count":8,"episodes":8,"update":"2017-02-17 12:38:12","iframe_src":"//83.svetacdn.in/PfJ50H0ZBPg3/tv-series/1018"},{"id":1017,"title":"Отражение","kp_id":"485414","imdb_id":null,"world_art_id":null,"type":"serial","add":"2017-02-16 07:53:06","orig_title":"Отражение","year":"2011-01-01","translations":["Оригинальная дорожка"],"seasons_count":1,"episodes_count":12,"episodes":12,"update":"2017-02-17 12:24:54","iframe_src":"//83.svetacdn.in/PfJ50H0ZBPg3/tv-series/1017"},{"id":1016,"title":"Моя граница","kp_id":"257797","imdb_id":"tt0370178","world_art_id":null,"type":"serial","add":"2017-02-16 07:12:52","orig_title":"Moya granitsa","year":"2002-01-01","translations":["Оригинальная дорожка"],"seasons_count":1,"episodes_count":4,"episodes":4,"update":"2017-02-16 12:25:19","iframe_src":"//83.svetacdn.in/PfJ50H0ZBPg3/tv-series/1016"},{"id":1014,"title":"Бандитский Петербург 10: Расплата","kp_id":"426310","imdb_id":"tt4786988","world_art_id":null,"type":"serial","add":"2017-02-15 15:32:28","orig_title":"Banditskiy Peterburg: Rasplata","year":"2007-06-05","translations":["Оригинальная дорожка"],"seasons_count":1,"episodes_count":12,"episodes":12,"update":"2017-02-17 12:56:19","iframe_src":"//83.svetacdn.in/PfJ50H0ZBPg3/tv-series/1014"},{"id":873,"title":"Василиса","kp_id":"929579","imdb_id":null,"world_art_id":null,"type":"serial","add":"2017-01-13 07:17:32","orig_title":"Василиса","year":"2017-01-09","translations":["Оригинальная дорожка"],"seasons_count":1,"episodes_count":59,"episodes":59,"update":"2017-02-20 11:14:27","iframe_src":"//83.svetacdn.in/PfJ50H0ZBPg3/tv-series/873"},{"id":6799,"title":"Американизируй меня","kp_id":"2442","imdb_id":"tt0103671","world_art_id":null,"type":"movie","add":"2016-10-30 07:50:58","orig_title":"American Me","year":"1992-03-13","translations":["Профессиональный (многоголосый закадровый)","[EN] Original (English)"],"quality":"bd","translation":"Профессиональный (многоголосый закадровый)","update":"2021-04-20 07:34:29","iframe_src":"//83.svetacdn.in/PfJ50H0ZBPg3/movie/6799"},{"id":6382,"title":"Непрощённый","kp_id":"451","imdb_id":"tt0105695","world_art_id":null,"type":"movie","add":"2016-10-17 10:57:16","orig_title":"Unforgiven","year":"1992-08-03","translations":["Профессиональный (многоголосый закадровый)","Полное дублирование","Авторский (одноголосый закадровый) (Гаврилов Андрей)","Авторский (одноголосый закадровый) (Горчаков Василий)","Авторский (одноголосый закадровый) (Володарский Леонид)","Авторский (одноголосый закадровый) (Яроцкий Михаил | Kyberpunk)","Авторский (одноголосый закадровый) (Живов Юрий)","Полное дублирование (Варус-Видео)","[EN] Original (English)","Профессиональный (двухголосый закадровый) (НТВ)","Профессиональный (многоголосый закадровый) (CP Digital)","Профессиональный (многоголосый закадровый) (Позитив)"],"quality":"bd","translation":"Профессиональный (многоголосый закадровый)","update":"2021-04-20 09:05:37","iframe_src":"//83.svetacdn.in/PfJ50H0ZBPg3/movie/6382"},{"id":5167,"title":"Восточный ветер","kp_id":"703187","imdb_id":"tt2356464","world_art_id":null,"type":"movie","add":"2016-09-08 15:14:29","orig_title":"Ostwind","year":"2013-03-21","translations":["Полное дублирование","Профессиональный (многоголосый закадровый) (ViruseProject)"],"quality":"webdl","translation":"Полное дублирование","update":"2021-04-20 07:09:43","iframe_src":"//83.svetacdn.in/PfJ50H0ZBPg3/movie/5167"},{"id":2578,"title":"Сержант Билко","kp_id":"18253","imdb_id":"tt0117608","world_art_id":null,"type":"movie","add":"2016-05-25 13:52:58","orig_title":"Sgt. Bilko","year":"1996-03-29","translations":["Профессиональный (многоголосый закадровый)","Авторский (одноголосый закадровый) (Леша-прапорщик)","Авторский (одноголосый закадровый) (Санаев Павел)","Авторский (одноголосый закадровый) (Визгунов Сергей)","Авторский (одноголосый закадровый) (Живов Юрий)","[EN] Original (English)","Профессиональный (многоголосый закадровый) (СТС)","Профессиональный (многоголосый закадровый)"],"quality":"bd","translation":"Профессиональный (многоголосый закадровый)","update":"2021-04-20 09:16:53","iframe_src":"//83.svetacdn.in/PfJ50H0ZBPg3/movie/2578"}],"current_page":578,"first_page_url":"https://videocdn.tv/api/short?limit=100&api_token=RgFQdUIR2dRmwv8iYa5SnFNgnw3vpjKj&cache3578=3578&page=1","from":57701,"last_page":707,"last_page_url":"https://videocdn.tv/api/short?limit=100&api_token=RgFQdUIR2dRmwv8iYa5SnFNgnw3vpjKj&cache3578=3578&page=707","next_page_url":"https://videocdn.tv/api/short?limit=100&api_token=RgFQdUIR2dRmwv8iYa5SnFNgnw3vpjKj&cache3578=3578&page=579","path":"https://videocdn.tv/api/short","per_page":100,"prev_page_url":"https://videocdn.tv/api/short?limit=100&api_token=RgFQdUIR2dRmwv8iYa5SnFNgnw3vpjKj&cache3578=3578&page=577","to":57740,"total":70620}