{"result":true,"data":[{"id":30872,"title":"Стерва","kp_id":"9702","imdb_id":"tt0235866","world_art_id":null,"type":"movie","add":"2019-09-15 18:32:32","orig_title":"Vipera","year":"2001-05-11","translations":["Профессиональный (многоголосый закадровый)"],"quality":"dvdrip","translation":"Профессиональный (многоголосый закадровый)","update":"2019-09-16 06:18:57","iframe_src":"//8332.svetacdn.in/IAF0wWTdNYZm/movie/30872"},{"id":30871,"title":"Вся королевская рать","kp_id":"7672","imdb_id":"tt0041113","world_art_id":null,"type":"movie","add":"2019-09-15 18:29:11","orig_title":"All the King's Men","year":"1949-11-08","translations":["Профессиональный (двухголосый закадровый) (New Dream Media)"],"quality":"bd","translation":"Профессиональный (двухголосый закадровый) (New Dream Media)","update":"2019-09-16 06:20:02","iframe_src":"//8332.svetacdn.in/IAF0wWTdNYZm/movie/30871"},{"id":30870,"title":"Злость","kp_id":"252504","imdb_id":"tt0762145","world_art_id":null,"type":"movie","add":"2019-09-14 21:48:02","orig_title":"Vice","year":"2008-05-07","translations":["Профессиональный (многоголосый закадровый)"],"quality":"dvdrip","translation":"Профессиональный (многоголосый закадровый)","update":"2019-09-16 06:43:08","iframe_src":"//8332.svetacdn.in/IAF0wWTdNYZm/movie/30870"},{"id":30869,"title":"Властелины шторма","kp_id":"243786","imdb_id":"tt0403483","world_art_id":null,"type":"movie","add":"2019-09-14 21:42:26","orig_title":"De scheepsjongens van Bontekoe","year":"2007-11-22","translations":["Профессиональный (многоголосый закадровый)"],"quality":"dvdrip","translation":"Профессиональный (многоголосый закадровый)","update":"2019-09-16 06:49:35","iframe_src":"//8332.svetacdn.in/IAF0wWTdNYZm/movie/30869"},{"id":30868,"title":"Семеро и стерва","kp_id":"56788","imdb_id":"tt0141817","world_art_id":null,"type":"movie","add":"2019-09-14 21:34:33","orig_title":"Sept hommes et une garce","year":"1967-03-01","translations":["Любительский (одноголосый закадровый)"],"quality":"hdtv","translation":"Любительский (одноголосый закадровый)","update":"2019-09-16 07:20:39","iframe_src":"//8332.svetacdn.in/IAF0wWTdNYZm/movie/30868"},{"id":30867,"title":"Пир 3: Счастливая кончина","kp_id":"395973","imdb_id":"tt1104836","world_art_id":null,"type":"movie","add":"2019-09-14 21:31:06","orig_title":"Feast III: The Happy Finish","year":"2009-02-17","translations":["Любительский (двухголосый закадровый)"],"quality":"dvdrip","translation":"Любительский (двухголосый закадровый)","update":"2019-09-16 07:23:58","iframe_src":"//8332.svetacdn.in/IAF0wWTdNYZm/movie/30867"},{"id":30865,"title":"Безбашенные официантки","kp_id":"28638","imdb_id":"tt0083312","world_art_id":null,"type":"movie","add":"2019-09-14 21:26:03","orig_title":"Waitress!","year":"1981-05-13","translations":["Любительский (двухголосый закадровый)"],"quality":"dvdrip","translation":"Любительский (двухголосый закадровый)","update":"2019-09-16 07:26:30","iframe_src":"//8332.svetacdn.in/IAF0wWTdNYZm/movie/30865"},{"id":30863,"title":"Прямой контакт","kp_id":"406987","imdb_id":"tt1182609","world_art_id":null,"type":"movie","add":"2019-09-14 21:19:13","orig_title":"Direct Contact","year":"2009-03-19","translations":["Профессиональный (многоголосый закадровый)"],"quality":"bd","translation":"Профессиональный (многоголосый закадровый)","update":"2019-09-16 07:27:35","iframe_src":"//8332.svetacdn.in/IAF0wWTdNYZm/movie/30863"},{"id":30861,"title":"Любовные неудачи Джейн Остин","kp_id":"392087","imdb_id":"tt1076240","world_art_id":null,"type":"movie","add":"2019-09-14 14:07:47","orig_title":"Miss Austen Regrets","year":"2008-02-03","translations":["Профессиональный (многоголосый закадровый)"],"quality":"dvdrip","translation":"Профессиональный (многоголосый закадровый)","update":"2019-09-16 07:24:45","iframe_src":"//8332.svetacdn.in/IAF0wWTdNYZm/movie/30861"},{"id":30860,"title":"История «О»","kp_id":"22585","imdb_id":"tt0073115","world_art_id":null,"type":"movie","add":"2019-09-14 14:01:54","orig_title":"Histoire d'O","year":"1975-08-28","translations":["Профессиональный (многоголосый закадровый)"],"quality":"bd","translation":"Профессиональный (многоголосый закадровый)","update":"2019-09-16 07:30:42","iframe_src":"//8332.svetacdn.in/IAF0wWTdNYZm/movie/30860"},{"id":30859,"title":"Из ада в вечность","kp_id":"31165","imdb_id":"tt0053901","world_art_id":null,"type":"movie","add":"2019-09-14 13:57:49","orig_title":"Hell to Eternity","year":"1960-08-01","translations":["Авторский (одноголосый закадровый) (Рутилов Виктор | fiendover | overfiend)"],"quality":"webdl","translation":"Авторский (одноголосый закадровый) (Рутилов Виктор | fiendover | overfiend)","update":"2019-09-16 07:31:25","iframe_src":"//8332.svetacdn.in/IAF0wWTdNYZm/movie/30859"},{"id":30858,"title":"Гоморра","kp_id":"398405","imdb_id":"tt0929425","world_art_id":null,"type":"movie","add":"2019-09-14 13:45:51","orig_title":"Gomorra","year":"2008-05-16","translations":["Профессиональный (многоголосый закадровый)","Авторский (одноголосый закадровый) (Сербин Юрий)"],"quality":"bd","translation":"Профессиональный (многоголосый закадровый)","update":"2019-09-16 07:33:01","iframe_src":"//8332.svetacdn.in/IAF0wWTdNYZm/movie/30858"},{"id":30857,"title":"Лицом к лицу","kp_id":"298051","imdb_id":"tt0099535","world_art_id":null,"type":"movie","add":"2019-09-14 13:42:25","orig_title":"Face to Face","year":"1990-01-24","translations":["Профессиональный (двухголосый закадровый) (НТВ)"],"quality":"hdrip","translation":"Профессиональный (двухголосый закадровый) (НТВ)","update":"2019-09-16 07:37:49","iframe_src":"//8332.svetacdn.in/IAF0wWTdNYZm/movie/30857"},{"id":30840,"title":"Самый главный босс","kp_id":"195305","imdb_id":"tt0469754","world_art_id":null,"type":"movie","add":"2019-09-13 18:04:31","orig_title":"Direktøren for det hele","year":"2006-09-21","translations":["Профессиональный (многоголосый закадровый)"],"quality":"dvdrip","translation":"Профессиональный (многоголосый закадровый)","update":"2019-09-16 07:21:50","iframe_src":"//8332.svetacdn.in/IAF0wWTdNYZm/movie/30840"},{"id":30787,"title":"Постель для брата и сестры 1782","kp_id":"196186","imdb_id":"tt0061055","world_art_id":null,"type":"movie","add":"2019-09-11 19:07:00","orig_title":"Syskonbädd 1782","year":"1966-02-28","translations":["Любительский (одноголосый закадровый)"],"quality":"dvdrip","translation":"Любительский (одноголосый закадровый)","update":"2019-09-16 06:52:48","iframe_src":"//8332.svetacdn.in/IAF0wWTdNYZm/movie/30787"},{"id":6227,"title":"Анаконда 2: Охота за проклятой орхидеей","kp_id":"40676","imdb_id":"tt0366174","world_art_id":null,"type":"movie","add":"2016-10-12 15:27:52","orig_title":"Anacondas: The Hunt for the Blood Orchid","year":"2004-08-25","translations":["Полное дублирование"],"quality":"webdl","translation":"Полное дублирование","update":"2019-09-16 06:45:35","iframe_src":"//8332.svetacdn.in/IAF0wWTdNYZm/movie/6227"},{"id":2420,"title":"Молодые стрелки 2","kp_id":"4747","imdb_id":"tt0100994","world_art_id":null,"type":"movie","add":"2016-05-20 15:22:12","orig_title":"Young Guns II","year":"1990-07-30","translations":["Профессиональный (многоголосый закадровый)","Профессиональный (двухголосый закадровый) (Екатеринбург Арт)"],"quality":"hdtv","translation":"Профессиональный (многоголосый закадровый)","update":"2019-09-16 06:48:28","iframe_src":"//8332.svetacdn.in/IAF0wWTdNYZm/movie/2420"},{"id":2136,"title":"Космические яйца","kp_id":"8954","imdb_id":"tt0094012","world_art_id":null,"type":"movie","add":"2016-05-12 18:11:00","orig_title":"Spaceballs","year":"1987-06-24","translations":["Профессиональный (многоголосый закадровый)","Original (English)","Авторский (одноголосый закадровый) (Михалёв Алексей)"],"quality":"bd","translation":"Профессиональный (многоголосый закадровый)","update":"2019-09-16 06:41:48","iframe_src":"//8332.svetacdn.in/IAF0wWTdNYZm/movie/2136"},{"id":1691,"title":"К-911","kp_id":"80269","imdb_id":"tt0177876","world_art_id":null,"type":"movie","add":"2016-04-28 04:57:35","orig_title":"K-911","year":"1999-12-12","translations":["Профессиональный (многоголосый закадровый)"],"quality":"bd","translation":"Профессиональный (многоголосый закадровый)","update":"2019-09-16 07:29:22","iframe_src":"//8332.svetacdn.in/IAF0wWTdNYZm/movie/1691"},{"id":1594,"title":"Человек, которого не было","kp_id":"554","imdb_id":"tt0243133","world_art_id":null,"type":"movie","add":"2016-04-24 10:22:41","orig_title":"The Man Who Wasn't There","year":"2001-05-13","translations":["Профессиональный (двухголосый закадровый)"],"quality":"bd","translation":"Профессиональный (двухголосый закадровый)","update":"2019-09-16 06:17:50","iframe_src":"//8332.svetacdn.in/IAF0wWTdNYZm/movie/1594"}],"current_page":1235,"first_page_url":"https://videocdn.tv/api/short?limit=100&api_token=6Onb1W1alEUrBcKJZD3GoKBbWyAl2uG2&cache31235=31235&page=1","from":123401,"last_page":639,"last_page_url":"https://videocdn.tv/api/short?limit=100&api_token=6Onb1W1alEUrBcKJZD3GoKBbWyAl2uG2&cache31235=31235&page=639","next_page_url":null,"path":"https://videocdn.tv/api/short","per_page":100,"prev_page_url":"https://videocdn.tv/api/short?limit=100&api_token=6Onb1W1alEUrBcKJZD3GoKBbWyAl2uG2&cache31235=31235&page=1234","to":123420,"total":63897}