{"result":true,"data":[{"id":26781,"title":"Пчеловод","kp_id":"56983","imdb_id":"tt0091506","world_art_id":null,"type":"movie","add":"2019-05-20 08:32:27","orig_title":"O melissokomos","year":"1987-04-29","translations":["Профессиональный (двухголосый закадровый)"],"quality":"dvdrip","translation":"Профессиональный (двухголосый закадровый)","update":"2019-05-20 09:52:24","iframe_src":"//83.svetacdn.in/PfJ50H0ZBPg3/movie/26781"},{"id":26777,"title":"Хохлатый ибис","kp_id":"1046019","imdb_id":"tt7084980","world_art_id":null,"type":"movie","add":"2019-05-20 07:23:48","orig_title":"Yuan Shang","year":"2017-06-28","translations":["Профессиональный (многоголосый закадровый)"],"quality":"sat","translation":"Профессиональный (многоголосый закадровый)","update":"2019-05-20 09:49:49","iframe_src":"//83.svetacdn.in/PfJ50H0ZBPg3/movie/26777"},{"id":26774,"title":"Зоозомби 2","kp_id":"1237187","imdb_id":"tt9670282","world_art_id":null,"type":"movie","add":"2019-05-19 22:36:14","orig_title":"Zoombies 2","year":"2019-03-26","translations":["Любительский (многоголосый закадровый) (Синема УС)"],"quality":"webdl","translation":"Любительский (многоголосый закадровый) (Синема УС)","update":"2019-05-20 13:02:23","iframe_src":"//83.svetacdn.in/PfJ50H0ZBPg3/movie/26774"},{"id":26773,"title":"Бассейн","kp_id":"1205810","imdb_id":"tt9128686","world_art_id":null,"type":"movie","add":"2019-05-19 22:33:22","orig_title":"The Pool","year":"2018-09-27","translations":["Любительский (многоголосый закадровый) (Колобок)"],"quality":"webdl","translation":"Любительский (многоголосый закадровый) (Колобок)","update":"2019-05-20 13:06:26","iframe_src":"//83.svetacdn.in/PfJ50H0ZBPg3/movie/26773"},{"id":26772,"title":"Генерал тортов","kp_id":"1094617","imdb_id":"tt6889032","world_art_id":null,"type":"movie","add":"2019-05-19 22:31:36","orig_title":"Tårtgeneralen","year":"2018-03-07","translations":["Любительский (многоголосый закадровый) (Синема УС)"],"quality":"bd","translation":"Любительский (многоголосый закадровый) (Синема УС)","update":"2019-05-20 13:07:16","iframe_src":"//83.svetacdn.in/PfJ50H0ZBPg3/movie/26772"},{"id":26769,"title":"Мюслюм","kp_id":"1112021","imdb_id":"tt7832124","world_art_id":null,"type":"movie","add":"2019-05-19 22:18:38","orig_title":"Müslüm","year":"2018-10-28","translations":["Любительский (многоголосый закадровый) (Синема УС)"],"quality":"webdl","translation":"Любительский (многоголосый закадровый) (Синема УС)","update":"2019-05-20 13:00:08","iframe_src":"//83.svetacdn.in/PfJ50H0ZBPg3/movie/26769"},{"id":26766,"title":"История одной семьи","kp_id":"1036255","imdb_id":"tt6495388","world_art_id":null,"type":"movie","add":"2019-05-19 22:11:46","orig_title":"Like Arrows: The Art of Parenting","year":"2018-05-01","translations":["Любительский (многоголосый закадровый) (Синема УС)"],"quality":"webdl","translation":"Любительский (многоголосый закадровый) (Синема УС)","update":"2019-05-20 12:58:46","iframe_src":"//83.svetacdn.in/PfJ50H0ZBPg3/movie/26766"},{"id":26765,"title":"Взлом","kp_id":"906492","imdb_id":"tt4337500","world_art_id":null,"type":"movie","add":"2019-05-19 22:09:40","orig_title":"Life Hack","year":"2017-06-03","translations":["Любительский (многоголосый закадровый) (Синема УС)"],"quality":"webdl","translation":"Любительский (многоголосый закадровый) (Синема УС)","update":"2019-05-20 13:09:58","iframe_src":"//83.svetacdn.in/PfJ50H0ZBPg3/movie/26765"},{"id":26764,"title":"Оборотни","kp_id":"959502","imdb_id":"tt5351576","world_art_id":null,"type":"movie","add":"2019-05-19 22:07:54","orig_title":"Howlers","year":"2018-10-31","translations":["Любительский (многоголосый закадровый) (Синема УС)"],"quality":"webdl","translation":"Любительский (многоголосый закадровый) (Синема УС)","update":"2019-05-20 13:09:07","iframe_src":"//83.svetacdn.in/PfJ50H0ZBPg3/movie/26764"},{"id":26763,"title":"Убийца на выпускном","kp_id":"1190936","imdb_id":"tt8985014","world_art_id":null,"type":"movie","add":"2019-05-19 22:06:09","orig_title":"Homekilling Queen","year":"2019-05-11","translations":["Любительский (многоголосый закадровый) (Синема УС)"],"quality":"hdtv","translation":"Любительский (многоголосый закадровый) (Синема УС)","update":"2019-05-20 13:03:13","iframe_src":"//83.svetacdn.in/PfJ50H0ZBPg3/movie/26763"},{"id":26762,"title":"Семейство","kp_id":"940115","imdb_id":"tt5145414","world_art_id":null,"type":"movie","add":"2019-05-19 22:04:32","orig_title":"Familiye","year":"2017-09-13","translations":["Любительский (многоголосый закадровый) (Синема УС)"],"quality":"bd","translation":"Любительский (многоголосый закадровый) (Синема УС)","update":"2019-05-20 13:11:03","iframe_src":"//83.svetacdn.in/PfJ50H0ZBPg3/movie/26762"},{"id":26761,"title":"Не глотай моё сердце, девочка-аллигатор!","kp_id":"1009213","imdb_id":"tt6103318","world_art_id":null,"type":"movie","add":"2019-05-19 22:02:46","orig_title":"Não Devore Meu Coração","year":"2017-01-22","translations":["Любительский (многоголосый закадровый) (Синема УС)"],"quality":"webdl","translation":"Любительский (многоголосый закадровый) (Синема УС)","update":"2019-05-20 13:12:28","iframe_src":"//83.svetacdn.in/PfJ50H0ZBPg3/movie/26761"},{"id":26760,"title":"Гостиница капитана Хагена","kp_id":"1107126","imdb_id":"tt7407296","world_art_id":null,"type":"movie","add":"2019-05-19 21:59:57","orig_title":"Captain Hagen's Bed & Breakfast","year":"2019-02-08","translations":["Любительский (многоголосый закадровый) (Синема УС)"],"quality":"webdl","translation":"Любительский (многоголосый закадровый) (Синема УС)","update":"2019-05-20 13:04:30","iframe_src":"//83.svetacdn.in/PfJ50H0ZBPg3/movie/26760"},{"id":26726,"title":"Капитан Крокус","kp_id":"94625","imdb_id":"tt0151186","world_art_id":null,"type":"movie","add":"2019-05-19 09:41:27","orig_title":"Kapitan Krokus","year":"1991-01-01","translations":["Оригинальная дорожка"],"quality":"dvdrip","translation":"Оригинальная дорожка","update":"2019-05-19 13:11:18","iframe_src":"//83.svetacdn.in/PfJ50H0ZBPg3/movie/26726"},{"id":26724,"title":"И была война","kp_id":"468818","imdb_id":null,"world_art_id":null,"type":"movie","add":"2019-05-19 09:39:56","orig_title":"И была война","year":"2010-02-21","translations":["Оригинальная дорожка"],"quality":"dvdrip","translation":"Оригинальная дорожка","update":"2019-05-19 13:09:42","iframe_src":"//83.svetacdn.in/PfJ50H0ZBPg3/movie/26724"},{"id":26723,"title":"Каникулы у моря","kp_id":"491667","imdb_id":"tt3800890","world_art_id":null,"type":"movie","add":"2019-05-19 09:32:44","orig_title":"Kanikuly u morya","year":"1987-03-14","translations":["Оригинальная дорожка"],"quality":"dvdrip","translation":"Оригинальная дорожка","update":"2019-05-19 13:05:28","iframe_src":"//83.svetacdn.in/PfJ50H0ZBPg3/movie/26723"},{"id":26720,"title":"Честное волшебное","kp_id":"45497","imdb_id":"tt0185987","world_art_id":null,"type":"movie","add":"2019-05-19 09:28:31","orig_title":"Chestnoe volshebnoe","year":"1976-02-23","translations":["Оригинальная дорожка"],"quality":"dvdrip","translation":"Оригинальная дорожка","update":"2019-05-19 13:07:59","iframe_src":"//83.svetacdn.in/PfJ50H0ZBPg3/movie/26720"},{"id":26607,"title":"Мама выходит замуж","kp_id":"723694","imdb_id":null,"world_art_id":null,"type":"movie","add":"2019-05-16 17:07:19","orig_title":"Мама выходит замуж","year":"2012-12-14","translations":["Оригинальная дорожка","Оригинальная дорожка"],"quality":"hdtv","translation":"Оригинальная дорожка","update":"2019-05-20 11:36:53","iframe_src":"//83.svetacdn.in/PfJ50H0ZBPg3/movie/26607"},{"id":24428,"title":"Частный детектив, или Операция «Кооперация»","kp_id":"45442","imdb_id":"tt0097049","world_art_id":null,"type":"movie","add":"2019-04-12 18:17:42","orig_title":"Chastnyy detektiv, ili operatsiya 'Kooperatsiya'","year":"1989-11-01","translations":["Оригинальная дорожка"],"quality":"webdl","translation":"Оригинальная дорожка","update":"2019-05-19 13:06:53","iframe_src":"//83.svetacdn.in/PfJ50H0ZBPg3/movie/24428"},{"id":22086,"title":"Детектив из школы Бикслер Вэлли","kp_id":"1208049","imdb_id":"tt9173364","world_art_id":null,"type":"movie","add":"2019-02-06 07:14:29","orig_title":"Bixler High Private Eye","year":"2019-01-21","translations":["Любительский (многоголосый закадровый) (Синема УС)","Полное дублирование"],"quality":"hdtv","translation":"Любительский (многоголосый закадровый) (Синема УС)","update":"2019-05-20 13:05:20","iframe_src":"//83.svetacdn.in/PfJ50H0ZBPg3/movie/22086"}],"current_page":1533,"first_page_url":"https://videocdn.tv/api/short?limit=100&api_token=RgFQdUIR2dRmwv8iYa5SnFNgnw3vpjKj&cache31533=31533&page=1","from":153201,"last_page":657,"last_page_url":"https://videocdn.tv/api/short?limit=100&api_token=RgFQdUIR2dRmwv8iYa5SnFNgnw3vpjKj&cache31533=31533&page=657","next_page_url":null,"path":"https://videocdn.tv/api/short","per_page":100,"prev_page_url":"https://videocdn.tv/api/short?limit=100&api_token=RgFQdUIR2dRmwv8iYa5SnFNgnw3vpjKj&cache31533=31533&page=1532","to":153220,"total":65650}