{"result":true,"data":[{"id":42975,"title":"Воронье гнездо","kp_id":"1392183","imdb_id":"tt11373084","world_art_id":null,"type":"movie","add":"2020-08-31 07:55:37","orig_title":"Ravenstein","year":"2020-01-01","translations":["Любительский (многоголосый закадровый) (Синема УС)"],"quality":"webdl","translation":"Любительский (многоголосый закадровый) (Синема УС)","update":"2020-08-31 09:43:04","iframe_src":"//5322.svetacdn.in/IAF0wWTdNYZm/movie/42975"},{"id":42972,"title":"Денежные отношения","kp_id":"1156689","imdb_id":"tt7807388","world_art_id":null,"type":"movie","add":"2020-08-31 07:24:09","orig_title":"Cash Nexus","year":"2019-03-21","translations":["Любительский (многоголосый закадровый) (Синема УС)"],"quality":"webdl","translation":"Любительский (многоголосый закадровый) (Синема УС)","update":"2020-08-31 10:50:19","iframe_src":"//5322.svetacdn.in/IAF0wWTdNYZm/movie/42972"},{"id":42967,"title":"Город беглых рабов","kp_id":"1198238","imdb_id":"tt8897072","world_art_id":null,"type":"movie","add":"2020-08-31 05:49:40","orig_title":"City of Lost Slaves","year":"2018-02-19","translations":["Профессиональный (двухголосый закадровый)"],"quality":"sat","translation":"Профессиональный (двухголосый закадровый)","update":"2020-08-31 08:35:30","iframe_src":"//5322.svetacdn.in/IAF0wWTdNYZm/movie/42967"},{"id":42966,"title":"Тайное происхождение","kp_id":"1066440","imdb_id":"tt5827790","world_art_id":null,"type":"movie","add":"2020-08-31 05:25:29","orig_title":"Orígenes secretos","year":"2020-08-28","translations":["Любительский (двухголосый закадровый) (OnisFilms)"],"quality":"webdl","translation":"Любительский (двухголосый закадровый) (OnisFilms)","update":"2020-08-31 09:13:53","iframe_src":"//5322.svetacdn.in/IAF0wWTdNYZm/movie/42966"},{"id":42965,"title":"Титаник: Тайна раскрыта","kp_id":null,"imdb_id":"tt2302931","world_art_id":null,"type":"movie","add":"2020-08-31 04:58:10","orig_title":"Titanic at 100: Mystery Solved","year":"2012-04-15","translations":["Полное дублирование"],"quality":"hdtv","translation":"Полное дублирование","update":"2020-08-31 10:50:55","iframe_src":"//5322.svetacdn.in/IAF0wWTdNYZm/movie/42965"},{"id":42964,"title":"Здравствуйте Вам!","kp_id":"429022","imdb_id":null,"world_art_id":null,"type":"movie","add":"2020-08-31 04:42:52","orig_title":"Здравствуйте Вам!","year":"2008-11-27","translations":["Оригинальная дорожка"],"quality":"pdtv","translation":"Оригинальная дорожка","update":"2020-08-31 08:37:53","iframe_src":"//5322.svetacdn.in/IAF0wWTdNYZm/movie/42964"},{"id":42963,"title":"Сначала танец","kp_id":"1175892","imdb_id":"tt8737938","world_art_id":null,"type":"movie","add":"2020-08-31 03:53:11","orig_title":"Dansa först","year":"2018-07-26","translations":["Любительский (многоголосый закадровый) (Синема УС)"],"quality":"webdl","translation":"Любительский (многоголосый закадровый) (Синема УС)","update":"2020-08-31 05:46:35","iframe_src":"//5322.svetacdn.in/IAF0wWTdNYZm/movie/42963"},{"id":42961,"title":"Случайные кадры","kp_id":"1097843","imdb_id":"tt7582778","world_art_id":null,"type":"movie","add":"2020-08-31 03:51:53","orig_title":"Les scènes fortuites","year":"2018-01-26","translations":["Любительский (многоголосый закадровый) (Синема УС)"],"quality":"webdl","translation":"Любительский (многоголосый закадровый) (Синема УС)","update":"2020-08-31 05:32:13","iframe_src":"//5322.svetacdn.in/IAF0wWTdNYZm/movie/42961"},{"id":42960,"title":"До скорой встречи","kp_id":"1206881","imdb_id":"tt7475882","world_art_id":null,"type":"movie","add":"2020-08-31 03:51:11","orig_title":"Long Time No Sea","year":"2018-06-15","translations":["Любительский (многоголосый закадровый) (Синема УС)"],"quality":"webdl","translation":"Любительский (многоголосый закадровый) (Синема УС)","update":"2020-08-31 05:47:11","iframe_src":"//5322.svetacdn.in/IAF0wWTdNYZm/movie/42960"},{"id":42959,"title":"Мой солнечный принц","kp_id":"988812","imdb_id":"tt5828874","world_art_id":null,"type":"movie","add":"2020-08-31 03:50:31","orig_title":"My Summer Prince","year":"2016-08-06","translations":["Любительский (многоголосый закадровый) (Синема УС)"],"quality":"webdl","translation":"Любительский (многоголосый закадровый) (Синема УС)","update":"2020-08-31 06:02:28","iframe_src":"//5322.svetacdn.in/IAF0wWTdNYZm/movie/42959"},{"id":42958,"title":"Восставший Феникс","kp_id":"1398975","imdb_id":"tt10851618","world_art_id":null,"type":"movie","add":"2020-08-31 03:49:50","orig_title":"Rising Phoenix","year":"2020-08-26","translations":["Любительский (многоголосый закадровый) (Синема УС)"],"quality":"webdl","translation":"Любительский (многоголосый закадровый) (Синема УС)","update":"2020-08-31 06:01:27","iframe_src":"//5322.svetacdn.in/IAF0wWTdNYZm/movie/42958"},{"id":42957,"title":"Святоша","kp_id":null,"imdb_id":"tt9189572","world_art_id":null,"type":"movie","add":"2020-08-31 03:49:14","orig_title":"Santo Cachón","year":"2018-01-01","translations":["Любительский (многоголосый закадровый) (Синема УС)"],"quality":"webdl","translation":"Любительский (многоголосый закадровый) (Синема УС)","update":"2020-08-31 05:45:54","iframe_src":"//5322.svetacdn.in/IAF0wWTdNYZm/movie/42957"},{"id":41508,"title":"Пока свадьба не разлучит нас","kp_id":"1230949","imdb_id":"tt9519642","world_art_id":null,"type":"movie","add":"2020-06-30 22:06:13","orig_title":"Hasta que la boda nos separe","year":"2020-02-10","translations":["Любительский (многоголосый закадровый) (Синема УС)","Профессиональный (многоголосый закадровый) (iTunes)"],"quality":"bd","translation":"Любительский (многоголосый закадровый) (Синема УС)","update":"2020-08-31 11:28:25","iframe_src":"//5322.svetacdn.in/IAF0wWTdNYZm/movie/41508"},{"id":29051,"title":"Пока всё хорошо","kp_id":"1126053","imdb_id":"tt7882250","world_art_id":null,"type":"movie","add":"2019-07-16 19:12:33","orig_title":"Jusqu'ici tout va bien","year":"2019-01-15","translations":["Профессиональный (многоголосый закадровый) (AlphaProject)","Профессиональный (многоголосый закадровый) (iTunes)"],"quality":"bd","translation":"Профессиональный (многоголосый закадровый) (AlphaProject)","update":"2020-08-31 11:29:17","iframe_src":"//5322.svetacdn.in/IAF0wWTdNYZm/movie/29051"},{"id":25290,"title":"Любовь под надзором","kp_id":"397402","imdb_id":null,"world_art_id":null,"type":"movie","add":"2019-04-24 22:23:20","orig_title":"Любовь под надзором","year":"2007-01-01","translations":["Оригинальная дорожка"],"quality":"iptv","translation":"Оригинальная дорожка","update":"2020-08-31 08:30:53","iframe_src":"//5322.svetacdn.in/IAF0wWTdNYZm/movie/25290"},{"id":23963,"title":"Сестренка","kp_id":"465167","imdb_id":null,"world_art_id":null,"type":"movie","add":"2019-04-06 20:21:53","orig_title":"Сестренка","year":"2007-01-01","translations":["Оригинальная дорожка"],"quality":"iptv","translation":"Оригинальная дорожка","update":"2020-08-31 08:29:46","iframe_src":"//5322.svetacdn.in/IAF0wWTdNYZm/movie/23963"},{"id":21477,"title":"Золушка и заколдованный принц","kp_id":"1102458","imdb_id":"tt6241270","world_art_id":null,"type":"movie","add":"2019-01-13 20:33:50","orig_title":"Cinderella and the Secret Prince","year":"2018-08-23","translations":["Любительский (многоголосый закадровый) (Синема УС)","Профессиональный (многоголосый закадровый) (HDrezka Studio)","Профессиональный (многоголосый закадровый) (HDrezka Studio)"],"quality":"dvdrip","translation":"Любительский (многоголосый закадровый) (Синема УС)","update":"2020-08-31 08:40:08","iframe_src":"//5322.svetacdn.in/IAF0wWTdNYZm/movie/21477"},{"id":14223,"title":"Пуговица","kp_id":"417769","imdb_id":"tt2308955","world_art_id":null,"type":"movie","add":"2017-11-05 18:39:13","orig_title":"Pugovitsa","year":"2008-06-08","translations":["Оригинальная дорожка","Оригинальная дорожка"],"quality":"dvdrip","translation":"Оригинальная дорожка","update":"2020-08-31 08:55:08","iframe_src":"//5322.svetacdn.in/IAF0wWTdNYZm/movie/14223"},{"id":12981,"title":"Исполнитель","kp_id":"1016170","imdb_id":"tt6236198","world_art_id":null,"type":"movie","add":"2017-08-16 04:56:30","orig_title":"Executor","year":"2017-11-30","translations":["Любительский (многоголосый закадровый) (GreenРай Studio)","Профессиональный (многоголосый закадровый)"],"quality":"webdl","translation":"Любительский (многоголосый закадровый) (GreenРай Studio)","update":"2020-08-31 07:59:37","iframe_src":"//5322.svetacdn.in/IAF0wWTdNYZm/movie/12981"},{"id":988,"title":"Все вернется","kp_id":"841047","imdb_id":"tt5074338","world_art_id":null,"type":"serial","add":"2017-02-08 13:58:21","orig_title":"Vse vernetsya","year":"2014-12-20","translations":["Оригинальная дорожка"],"seasons_count":1,"episodes_count":4,"episodes":4,"update":"2017-02-09 05:09:09","iframe_src":"//5322.svetacdn.in/IAF0wWTdNYZm/tv-series/988"},{"id":987,"title":"Братья","kp_id":"592359","imdb_id":"tt2054912","world_art_id":null,"type":"serial","add":"2017-02-08 07:44:46","orig_title":"Bratya","year":"2012-05-21","translations":["Оригинальная дорожка"],"seasons_count":1,"episodes_count":8,"episodes":8,"update":"2017-02-08 13:42:53","iframe_src":"//5322.svetacdn.in/IAF0wWTdNYZm/tv-series/987"},{"id":986,"title":"Стилет 2","kp_id":"256375","imdb_id":"tt3784302","world_art_id":null,"type":"serial","add":"2017-02-08 07:41:27","orig_title":"Stilet 2","year":"2004-01-01","translations":["Оригинальная дорожка"],"seasons_count":1,"episodes_count":12,"episodes":12,"update":"2017-02-08 13:50:37","iframe_src":"//5322.svetacdn.in/IAF0wWTdNYZm/tv-series/986"},{"id":985,"title":"Стилет","kp_id":"256374","imdb_id":"tt4390416","world_art_id":null,"type":"serial","add":"2017-02-08 07:39:12","orig_title":"Stilet","year":"2003-01-01","translations":["Оригинальная дорожка"],"seasons_count":1,"episodes_count":10,"episodes":10,"update":"2017-02-08 13:53:55","iframe_src":"//5322.svetacdn.in/IAF0wWTdNYZm/tv-series/985"},{"id":984,"title":"Охота","kp_id":"838271","imdb_id":null,"world_art_id":null,"type":"serial","add":"2017-02-07 13:36:21","orig_title":"Охота","year":"2014-03-16","translations":["Оригинальная дорожка"],"seasons_count":1,"episodes_count":4,"episodes":4,"update":"2017-02-08 07:25:56","iframe_src":"//5322.svetacdn.in/IAF0wWTdNYZm/tv-series/984"},{"id":983,"title":"Чужая женщина","kp_id":"797896","imdb_id":null,"world_art_id":null,"type":"serial","add":"2017-02-07 13:26:18","orig_title":"Чужая женщина","year":"2013-09-21","translations":["Оригинальная дорожка"],"seasons_count":1,"episodes_count":2,"episodes":2,"update":"2017-02-08 06:53:06","iframe_src":"//5322.svetacdn.in/IAF0wWTdNYZm/tv-series/983"},{"id":982,"title":"Злая шутка","kp_id":"1009014","imdb_id":null,"world_art_id":null,"type":"serial","add":"2017-02-07 07:56:51","orig_title":"Злая шутка","year":"2017-02-05","translations":["Оригинальная дорожка"],"seasons_count":1,"episodes_count":1,"episodes":1,"update":"2017-02-08 05:40:43","iframe_src":"//5322.svetacdn.in/IAF0wWTdNYZm/tv-series/982"},{"id":981,"title":"Поздние цветы","kp_id":"844211","imdb_id":"tt6394906","world_art_id":null,"type":"serial","add":"2017-02-06 13:16:14","orig_title":"Pozdnie cvety","year":"2014-11-29","translations":["Оригинальная дорожка"],"seasons_count":1,"episodes_count":2,"episodes":2,"update":"2017-02-07 09:05:53","iframe_src":"//5322.svetacdn.in/IAF0wWTdNYZm/tv-series/981"},{"id":979,"title":"Следствие по телу","kp_id":"502178","imdb_id":"tt1587669","world_art_id":null,"type":"serial","add":"2017-02-06 07:04:32","orig_title":"Body of Proof","year":"2011-01-25","translations":["Полное дублирование"],"seasons_count":3,"episodes_count":42,"episodes":13,"update":"2017-02-08 11:15:34","iframe_src":"//5322.svetacdn.in/IAF0wWTdNYZm/tv-series/979"},{"id":978,"title":"Мёртвые души","kp_id":"81096","imdb_id":"tt0168084","world_art_id":null,"type":"serial","add":"2017-02-06 06:39:37","orig_title":"Myortvye dushi","year":"1984-11-19","translations":["Оригинальная дорожка"],"seasons_count":1,"episodes_count":5,"episodes":5,"update":"2017-02-06 09:12:05","iframe_src":"//5322.svetacdn.in/IAF0wWTdNYZm/tv-series/978"},{"id":977,"title":"Желанная","kp_id":"427038","imdb_id":"tt4883042","world_art_id":null,"type":"serial","add":"2017-02-06 05:36:47","orig_title":"Zhelannaya","year":"2003-01-01","translations":["Оригинальная дорожка"],"seasons_count":1,"episodes_count":12,"episodes":12,"update":"2017-02-06 10:17:30","iframe_src":"//5322.svetacdn.in/IAF0wWTdNYZm/tv-series/977"},{"id":976,"title":"Моё любимое чудовище","kp_id":"734501","imdb_id":"tt2941212","world_art_id":null,"type":"serial","add":"2017-02-06 05:13:02","orig_title":"Moe lyubimoe chudovishche","year":"2013-02-09","translations":["Оригинальная дорожка"],"seasons_count":1,"episodes_count":2,"episodes":2,"update":"2017-02-06 08:48:12","iframe_src":"//5322.svetacdn.in/IAF0wWTdNYZm/tv-series/976"},{"id":974,"title":"Одна тень на двоих","kp_id":"423038","imdb_id":"tt1236788","world_art_id":null,"type":"serial","add":"2017-02-05 08:19:26","orig_title":"Odna ten na dvoikh","year":"2005-01-31","translations":["Оригинальная дорожка"],"seasons_count":1,"episodes_count":8,"episodes":8,"update":"2017-02-06 05:05:45","iframe_src":"//5322.svetacdn.in/IAF0wWTdNYZm/tv-series/974"},{"id":972,"title":"Сваты 6","kp_id":"688270","imdb_id":"tt2926386","world_art_id":null,"type":"serial","add":"2017-02-03 15:20:24","orig_title":"Svaty 6","year":"2013-03-11","translations":["Оригинальная дорожка"],"seasons_count":1,"episodes_count":16,"episodes":16,"update":"2017-02-07 10:09:22","iframe_src":"//5322.svetacdn.in/IAF0wWTdNYZm/tv-series/972"},{"id":971,"title":"Сваты 5","kp_id":"592293","imdb_id":"tt2860316","world_art_id":null,"type":"serial","add":"2017-02-03 15:15:53","orig_title":"Svaty 5","year":"2011-12-05","translations":["Оригинальная дорожка"],"seasons_count":1,"episodes_count":16,"episodes":16,"update":"2017-02-06 11:58:58","iframe_src":"//5322.svetacdn.in/IAF0wWTdNYZm/tv-series/971"},{"id":970,"title":"Сваты 4","kp_id":"542353","imdb_id":"tt1870201","world_art_id":null,"type":"serial","add":"2017-02-02 13:14:06","orig_title":"Svaty 4","year":"2010-11-15","translations":["Оригинальная дорожка"],"seasons_count":1,"episodes_count":16,"episodes":16,"update":"2017-02-03 15:14:01","iframe_src":"//5322.svetacdn.in/IAF0wWTdNYZm/tv-series/970"},{"id":968,"title":"Пушкин","kp_id":"971163","imdb_id":null,"world_art_id":null,"type":"serial","add":"2017-02-02 06:49:35","orig_title":"Пушкин","year":"2016-05-10","translations":["Оригинальная дорожка"],"seasons_count":1,"episodes_count":12,"episodes":12,"update":"2017-02-03 06:54:23","iframe_src":"//5322.svetacdn.in/IAF0wWTdNYZm/tv-series/968"},{"id":955,"title":"Один против всех","kp_id":"963369","imdb_id":null,"world_art_id":null,"type":"serial","add":"2017-01-27 07:17:16","orig_title":"Один против всех","year":"2017-01-23","translations":["Оригинальная дорожка"],"seasons_count":1,"episodes_count":16,"episodes":16,"update":"2017-02-07 18:06:59","iframe_src":"//5322.svetacdn.in/IAF0wWTdNYZm/tv-series/955"},{"id":934,"title":"Не зарекайся","kp_id":"927816","imdb_id":"tt6131658","world_art_id":null,"type":"serial","add":"2017-01-24 06:28:21","orig_title":"Ne zarekaysya","year":"2016-01-11","translations":["Оригинальная дорожка"],"seasons_count":1,"episodes_count":50,"episodes":50,"update":"2017-02-07 17:02:04","iframe_src":"//5322.svetacdn.in/IAF0wWTdNYZm/tv-series/934"},{"id":635,"title":"Ложное обвинение","kp_id":"979247","imdb_id":"tt5396572","world_art_id":null,"type":"serial","add":"2016-11-27 11:24:56","orig_title":"Conviction","year":"2016-10-03","translations":["Профессиональный (многоголосый закадровый) (NewStudio)"],"seasons_count":1,"episodes_count":13,"episodes":13,"update":"2017-02-03 07:27:00","iframe_src":"//5322.svetacdn.in/IAF0wWTdNYZm/tv-series/635"},{"id":4766,"title":"Форс-мажор","kp_id":"3781","imdb_id":"tt0124595","world_art_id":null,"type":"movie","add":"2016-08-29 07:54:34","orig_title":"Return to Paradise","year":"1998-08-10","translations":["Профессиональный (многоголосый закадровый)","Профессиональный (многоголосый закадровый)"],"quality":"webdl","translation":"Профессиональный (многоголосый закадровый)","update":"2020-08-31 09:02:41","iframe_src":"//5322.svetacdn.in/IAF0wWTdNYZm/movie/4766"}],"current_page":494,"first_page_url":"https://videocdn.tv/api/short?limit=100&api_token=6Onb1W1alEUrBcKJZD3GoKBbWyAl2uG2&cache3494=3494&page=1","from":49301,"last_page":623,"last_page_url":"https://videocdn.tv/api/short?limit=100&api_token=6Onb1W1alEUrBcKJZD3GoKBbWyAl2uG2&cache3494=3494&page=623","next_page_url":"https://videocdn.tv/api/short?limit=100&api_token=6Onb1W1alEUrBcKJZD3GoKBbWyAl2uG2&cache3494=3494&page=495","path":"https://videocdn.tv/api/short","per_page":100,"prev_page_url":"https://videocdn.tv/api/short?limit=100&api_token=6Onb1W1alEUrBcKJZD3GoKBbWyAl2uG2&cache3494=3494&page=493","to":49340,"total":62274}