{"result":true,"data":[{"id":21989,"title":"Дракончики","kp_id":"1192058","imdb_id":"tt8560754","world_art_id":null,"type":"movie","add":"2019-01-31 23:36:05","orig_title":"Wee Dragons","year":"2018-01-08","translations":["Любительский (многоголосый закадровый) (Синема УС)"],"quality":"webdl","translation":"Любительский (многоголосый закадровый) (Синема УС)","update":"2019-02-01 06:54:06","iframe_src":"//83.svetacdn.in/PfJ50H0ZBPg3/movie/21989"},{"id":21988,"title":"Расследования Руби Херринг: безмолвный свидетель","kp_id":"1223417","imdb_id":"tt9466236","world_art_id":null,"type":"movie","add":"2019-01-31 23:31:18","orig_title":"Ruby Herring Mysteries: Silent Witness","year":"2019-01-20","translations":["Любительский (многоголосый закадровый) (Синема УС)"],"quality":"hdtv","translation":"Любительский (многоголосый закадровый) (Синема УС)","update":"2019-02-01 07:15:03","iframe_src":"//83.svetacdn.in/PfJ50H0ZBPg3/movie/21988"},{"id":21986,"title":"Люблю тебя до смерти","kp_id":"1220288","imdb_id":"tt9165664","world_art_id":null,"type":"movie","add":"2019-01-31 23:27:39","orig_title":"Love You To Death","year":"2019-01-26","translations":["Любительский (многоголосый закадровый) (Синема УС)"],"quality":"hdtv","translation":"Любительский (многоголосый закадровый) (Синема УС)","update":"2019-02-01 06:45:42","iframe_src":"//83.svetacdn.in/PfJ50H0ZBPg3/movie/21986"},{"id":21984,"title":"Империя совершенства","kp_id":"1112860","imdb_id":"tt7966920","world_art_id":null,"type":"movie","add":"2019-01-31 23:23:23","orig_title":"L'empire de la perfection","year":"2018-02-18","translations":["Любительский (многоголосый закадровый) (Синема УС)"],"quality":"webdl","translation":"Любительский (многоголосый закадровый) (Синема УС)","update":"2019-02-01 07:18:40","iframe_src":"//83.svetacdn.in/PfJ50H0ZBPg3/movie/21984"},{"id":21983,"title":"Ледяной дракон: Легенда о голубых ромашках","kp_id":"1114913","imdb_id":"tt8111636","world_art_id":null,"type":"movie","add":"2019-01-31 23:17:53","orig_title":"Ice Dragon: Legend of the Blue Daisies","year":"2018-03-24","translations":["Любительский (многоголосый закадровый) (Синема УС)"],"quality":"webdl","translation":"Любительский (многоголосый закадровый) (Синема УС)","update":"2019-02-01 07:19:28","iframe_src":"//83.svetacdn.in/PfJ50H0ZBPg3/movie/21983"},{"id":21982,"title":"Габриэль Иглесиас: Одно шоу на всех","kp_id":"1221596","imdb_id":"tt9426212","world_art_id":null,"type":"movie","add":"2019-01-31 23:15:16","orig_title":"Gabriel «Fluffy» Iglesias: One Show Fits All","year":"2019-01-28","translations":["Любительский (многоголосый закадровый) (Синема УС)"],"quality":"webdl","translation":"Любительский (многоголосый закадровый) (Синема УС)","update":"2019-02-01 06:39:15","iframe_src":"//83.svetacdn.in/PfJ50H0ZBPg3/movie/21982"},{"id":21981,"title":"Фармтастическое веселье","kp_id":null,"imdb_id":"tt9590420","world_art_id":null,"type":"movie","add":"2019-01-31 23:13:47","orig_title":"Farmtastic Fun","year":"2019-01-08","translations":["Любительский (многоголосый закадровый) (Синема УС)"],"quality":"webdl","translation":"Любительский (многоголосый закадровый) (Синема УС)","update":"2019-02-01 06:56:02","iframe_src":"//83.svetacdn.in/PfJ50H0ZBPg3/movie/21981"},{"id":21980,"title":"Слава Богу!","kp_id":"936534","imdb_id":"tt5077886","world_art_id":null,"type":"movie","add":"2019-01-31 23:10:59","orig_title":"Dieumerci!","year":"2016-01-14","translations":["Любительский (двухголосый закадровый) (LakeFilms)"],"quality":"hdtv","translation":"Любительский (двухголосый закадровый) (LakeFilms)","update":"2019-02-01 07:19:59","iframe_src":"//83.svetacdn.in/PfJ50H0ZBPg3/movie/21980"},{"id":21978,"title":"Пчелиная команда","kp_id":"1103084","imdb_id":"tt7575550","world_art_id":null,"type":"movie","add":"2019-01-31 23:01:34","orig_title":"Bee Team","year":"2018-09-04","translations":["Любительский (многоголосый закадровый) (Синема УС)"],"quality":"dvdrip","translation":"Любительский (многоголосый закадровый) (Синема УС)","update":"2019-02-01 07:22:46","iframe_src":"//83.svetacdn.in/PfJ50H0ZBPg3/movie/21978"},{"id":21975,"title":"Этот восхитительный пирог!","kp_id":"1166600","imdb_id":"tt7925798","world_art_id":null,"type":"movie","add":"2019-01-31 22:56:52","orig_title":"Ce magnifique gâteau!","year":"2018-05-14","translations":["Профессиональный (многоголосый закадровый) (GreenРай Studio)"],"quality":"hdtv","translation":"Профессиональный (многоголосый закадровый) (GreenРай Studio)","update":"2019-02-01 07:00:09","iframe_src":"//83.svetacdn.in/PfJ50H0ZBPg3/movie/21975"},{"id":21974,"title":"Испытание","kp_id":"605604","imdb_id":"tt1756384","world_art_id":null,"type":"movie","add":"2019-01-31 22:55:04","orig_title":"A vizsga","year":"2011-10-13","translations":["Профессиональный (многоголосый закадровый) (GreenРай Studio)"],"quality":"dvdrip","translation":"Профессиональный (многоголосый закадровый) (GreenРай Studio)","update":"2019-02-01 07:23:25","iframe_src":"//83.svetacdn.in/PfJ50H0ZBPg3/movie/21974"},{"id":21973,"title":"Даже не думай","kp_id":null,"imdb_id":"tt2697556","world_art_id":null,"type":"movie","add":"2019-01-31 22:45:51","orig_title":"Don't Call It A Comeback","year":"2013-02-01","translations":["Профессиональный (многоголосый закадровый) (GreenРай Studio)"],"quality":"hdtv","translation":"Профессиональный (многоголосый закадровый) (GreenРай Studio)","update":"2019-02-01 07:24:40","iframe_src":"//83.svetacdn.in/PfJ50H0ZBPg3/movie/21973"},{"id":21940,"title":"Мост","kp_id":"49848","imdb_id":"tt0345672","world_art_id":null,"type":"movie","add":"2019-01-30 18:04:50","orig_title":"Most","year":"2003-01-25","translations":["Любительский (одноголосый закадровый)"],"quality":"dvdrip","translation":"Любительский (одноголосый закадровый)","update":"2019-01-31 08:05:07","iframe_src":"//83.svetacdn.in/PfJ50H0ZBPg3/movie/21940"},{"id":21896,"title":"Свободный обмен","kp_id":"493263","imdb_id":"tt1576421","world_art_id":null,"type":"movie","add":"2019-01-28 07:58:27","orig_title":"Libre échange","year":"2010-12-22","translations":["Профессиональный (многоголосый закадровый)"],"quality":"hdtv","translation":"Профессиональный (многоголосый закадровый)","update":"2019-01-31 08:07:59","iframe_src":"//83.svetacdn.in/PfJ50H0ZBPg3/movie/21896"},{"id":21806,"title":"Черный тюльпан","kp_id":"81285","imdb_id":"tt0058692","world_art_id":null,"type":"movie","add":"2019-01-25 12:42:00","orig_title":"La tulipe noire","year":"1964-02-28","translations":["Полное дублирование"],"quality":"bd","translation":"Полное дублирование","update":"2019-01-31 07:57:05","iframe_src":"//83.svetacdn.in/PfJ50H0ZBPg3/movie/21806"},{"id":21804,"title":"Порно Холокост","kp_id":"119386","imdb_id":"tt0235686","world_art_id":null,"type":"movie","add":"2019-01-25 12:39:29","orig_title":"Porno Holocaust","year":"1981-02-09","translations":["Авторский (одноголосый закадровый) (Штейн Владимир)"],"quality":"bd","translation":"Авторский (одноголосый закадровый) (Штейн Владимир)","update":"2019-01-31 07:51:38","iframe_src":"//83.svetacdn.in/PfJ50H0ZBPg3/movie/21804"},{"id":21617,"title":"Стекло","kp_id":"942674","imdb_id":"tt5144236","world_art_id":null,"type":"movie","add":"2019-01-19 13:11:20","orig_title":"Glass","year":"2015-07-01","translations":["Любительский (многоголосый закадровый) (Синема УС)"],"quality":"webdl","translation":"Любительский (многоголосый закадровый) (Синема УС)","update":"2019-02-01 06:53:09","iframe_src":"//83.svetacdn.in/PfJ50H0ZBPg3/movie/21617"},{"id":20988,"title":"Жена – не стена","kp_id":"1114972","imdb_id":null,"world_art_id":null,"type":"movie","add":"2018-12-23 23:30:44","orig_title":"Жена – не стена","year":"2018-04-05","translations":["Оригинальная дорожка"],"quality":"hdtv","translation":"Оригинальная дорожка","update":"2019-02-01 07:12:11","iframe_src":"//83.svetacdn.in/PfJ50H0ZBPg3/movie/20988"},{"id":20500,"title":"Эллиот","kp_id":"1009959","imdb_id":"tt4177856","world_art_id":null,"type":"movie","add":"2018-12-05 00:39:40","orig_title":"Elliot the Littlest Reindeer","year":"2018-10-19","translations":["Полное дублирование"],"quality":"webdl","translation":"Полное дублирование","update":"2019-02-01 06:16:52","iframe_src":"//83.svetacdn.in/PfJ50H0ZBPg3/movie/20500"},{"id":16662,"title":"Мертвячка","kp_id":"313806","imdb_id":"tt0896534","world_art_id":null,"type":"movie","add":"2018-05-06 00:18:50","orig_title":"Deadgirl","year":"2008-09-06","translations":["Любительский (одноголосый закадровый)  (zamez | Замез Вячеслав)","Профессиональный (многоголосый закадровый) (GreenРай Studio)"],"quality":"bd","translation":"Любительский (одноголосый закадровый)  (zamez | Замез Вячеслав)","update":"2019-02-01 06:18:50","iframe_src":"//83.svetacdn.in/PfJ50H0ZBPg3/movie/16662"}],"current_page":1627,"first_page_url":"https://videocdn.tv/api/short?limit=100&api_token=RgFQdUIR2dRmwv8iYa5SnFNgnw3vpjKj&cache31627=31627&page=1","from":162601,"last_page":629,"last_page_url":"https://videocdn.tv/api/short?limit=100&api_token=RgFQdUIR2dRmwv8iYa5SnFNgnw3vpjKj&cache31627=31627&page=629","next_page_url":null,"path":"https://videocdn.tv/api/short","per_page":100,"prev_page_url":"https://videocdn.tv/api/short?limit=100&api_token=RgFQdUIR2dRmwv8iYa5SnFNgnw3vpjKj&cache31627=31627&page=1626","to":162620,"total":62895}