{"result":true,"data":[{"id":31423,"title":"Белая девушка","kp_id":null,"imdb_id":"tt7313350","world_art_id":null,"type":"movie","add":"2019-10-03 08:14:46","orig_title":"White Girl","year":"2017-12-14","translations":["Любительский (многоголосый закадровый) (Синема УС)"],"quality":"bd","translation":"Любительский (многоголосый закадровый) (Синема УС)","update":"2019-10-03 09:36:49","iframe_src":"//83.svetacdn.in/PfJ50H0ZBPg3/movie/31423"},{"id":31420,"title":"Куски","kp_id":"25743","imdb_id":"tt0082748","world_art_id":null,"type":"movie","add":"2019-10-02 22:29:03","orig_title":"Mil gritos tiene la noche","year":"1982-08-23","translations":["Любительский (одноголосый закадровый)"],"quality":"bd","translation":"Любительский (одноголосый закадровый)","update":"2019-10-03 07:01:51","iframe_src":"//83.svetacdn.in/PfJ50H0ZBPg3/movie/31420"},{"id":31419,"title":"Без тормозов","kp_id":"9608","imdb_id":"tt0088402","world_art_id":null,"type":"movie","add":"2019-10-02 22:27:11","orig_title":"The Wild Life","year":"1984-09-28","translations":["Авторский (одноголосый закадровый) (Живов Юрий)"],"quality":"hdrip","translation":"Авторский (одноголосый закадровый) (Живов Юрий)","update":"2019-10-03 07:00:31","iframe_src":"//83.svetacdn.in/PfJ50H0ZBPg3/movie/31419"},{"id":31414,"title":"Как избавиться от тела (и остаться друзьями)","kp_id":"992513","imdb_id":"tt5886420","world_art_id":null,"type":"movie","add":"2019-10-02 22:13:18","orig_title":"How To Get Rid Of A Body (and still be friends)","year":"2016-09-15","translations":["Любительский (многоголосый закадровый) (Синема УС)"],"quality":"webdl","translation":"Любительский (многоголосый закадровый) (Синема УС)","update":"2019-10-03 06:56:31","iframe_src":"//83.svetacdn.in/PfJ50H0ZBPg3/movie/31414"},{"id":31413,"title":"Сокровище: реальность и фантазия","kp_id":"1021183","imdb_id":"tt6182954","world_art_id":null,"type":"movie","add":"2019-10-02 22:09:47","orig_title":"El-Kanz: El-Haqiqah wa el-Khayal 1","year":"2017-08-31","translations":["Любительский (многоголосый закадровый) (Синема УС)"],"quality":"webdl","translation":"Любительский (многоголосый закадровый) (Синема УС)","update":"2019-10-03 06:55:26","iframe_src":"//83.svetacdn.in/PfJ50H0ZBPg3/movie/31413"},{"id":31235,"title":"Предводитель","kp_id":"731024","imdb_id":"tt2617676","world_art_id":null,"type":"movie","add":"2019-09-27 13:04:56","orig_title":"Thalaivaa","year":"2013-08-08","translations":["Профессиональный (многоголосый закадровый) (Red Media)"],"quality":"bd","translation":"Профессиональный (многоголосый закадровый) (Red Media)","update":"2019-10-03 07:25:59","iframe_src":"//83.svetacdn.in/PfJ50H0ZBPg3/movie/31235"},{"id":31234,"title":"Не надо бояться любить","kp_id":"94805","imdb_id":"tt0173080","world_art_id":null,"type":"movie","add":"2019-09-27 13:03:56","orig_title":"Pyaar Kiya To Darna Kya","year":"1998-03-27","translations":["Профессиональный (многоголосый закадровый) (Формат AB)"],"quality":"bd","translation":"Профессиональный (многоголосый закадровый) (Формат AB)","update":"2019-10-03 07:24:54","iframe_src":"//83.svetacdn.in/PfJ50H0ZBPg3/movie/31234"},{"id":31233,"title":"Белые рыцари","kp_id":"854874","imdb_id":"tt3597510","world_art_id":null,"type":"movie","add":"2019-09-27 13:02:56","orig_title":"Les chevaliers blancs","year":"2015-09-12","translations":["Профессиональный (многоголосый закадровый) (Первый канал | ОРТ)"],"quality":"bd","translation":"Профессиональный (многоголосый закадровый) (Первый канал | ОРТ)","update":"2019-10-03 07:24:03","iframe_src":"//83.svetacdn.in/PfJ50H0ZBPg3/movie/31233"},{"id":31228,"title":"Разомкнутый круг","kp_id":"613482","imdb_id":"tt2024519","world_art_id":null,"type":"movie","add":"2019-09-27 12:56:25","orig_title":"The Broken Circle Breakdown","year":"2012-10-10","translations":["Профессиональный (двухголосый закадровый)"],"quality":"bd","translation":"Профессиональный (двухголосый закадровый)","update":"2019-10-03 07:19:04","iframe_src":"//83.svetacdn.in/PfJ50H0ZBPg3/movie/31228"},{"id":31226,"title":"Кабир Сингх","kp_id":"1205506","imdb_id":"tt8983202","world_art_id":null,"type":"movie","add":"2019-09-27 12:53:01","orig_title":"Kabir Singh","year":"2019-06-20","translations":["Любительский (многоголосый закадровый) (Honey&Haseena)"],"quality":"webdl","translation":"Любительский (многоголосый закадровый) (Honey&Haseena)","update":"2019-10-03 07:16:50","iframe_src":"//83.svetacdn.in/PfJ50H0ZBPg3/movie/31226"},{"id":31225,"title":"Закат в моём родном городе","kp_id":"1047731","imdb_id":"tt7095852","world_art_id":null,"type":"movie","add":"2019-09-27 12:51:53","orig_title":"Byeonsan","year":"2018-07-04","translations":["Любительский (многоголосый закадровый) (STEPonee)"],"quality":"webdl","translation":"Любительский (многоголосый закадровый) (STEPonee)","update":"2019-10-03 07:15:35","iframe_src":"//83.svetacdn.in/PfJ50H0ZBPg3/movie/31225"},{"id":31223,"title":"Сестра Урсулы","kp_id":"39815","imdb_id":"tt0078300","world_art_id":null,"type":"movie","add":"2019-09-27 12:49:53","orig_title":"La sorella di Ursula","year":"1978-10-18","translations":["Любительский (одноголосый закадровый)"],"quality":"bd","translation":"Любительский (одноголосый закадровый)","update":"2019-10-03 07:13:29","iframe_src":"//83.svetacdn.in/PfJ50H0ZBPg3/movie/31223"},{"id":31221,"title":"Лицемеры","kp_id":"203531","imdb_id":"tt0004134","world_art_id":null,"type":"movie","add":"2019-09-27 12:46:43","orig_title":"Hypocrites","year":"1915-01-20","translations":["Original (English)"],"quality":"bd","translation":"Original (English)","update":"2019-10-03 07:10:03","iframe_src":"//83.svetacdn.in/PfJ50H0ZBPg3/movie/31221"},{"id":30558,"title":"Последнее испытание","kp_id":"957914","imdb_id":"tt8244298","world_art_id":null,"type":"movie","add":"2019-09-04 20:29:00","orig_title":"Poslednee ispytanie","year":"2018-11-29","translations":["Оригинальная дорожка"],"quality":"webdl","translation":"Оригинальная дорожка","update":"2019-10-03 11:14:26","iframe_src":"//83.svetacdn.in/PfJ50H0ZBPg3/movie/30558"},{"id":27503,"title":"Ма","kp_id":"1112909","imdb_id":"tt7958736","world_art_id":null,"type":"movie","add":"2019-06-06 13:28:35","orig_title":"Ma","year":"2019-05-30","translations":["Полное дублирование"],"quality":"bd","translation":"Полное дублирование","update":"2019-10-03 11:51:18","iframe_src":"//83.svetacdn.in/PfJ50H0ZBPg3/movie/27503"},{"id":18268,"title":"Коллайдер","kp_id":"930709","imdb_id":"tt4538294","world_art_id":null,"type":"movie","add":"2018-08-12 15:12:55","orig_title":"Collider","year":"2018-08-01","translations":["Профессиональный (многоголосый закадровый)"],"quality":"webdl","translation":"Профессиональный (многоголосый закадровый)","update":"2019-10-03 06:54:40","iframe_src":"//83.svetacdn.in/PfJ50H0ZBPg3/movie/18268"},{"id":12047,"title":"Между нами музыка","kp_id":"627255","imdb_id":"tt2062700","world_art_id":null,"type":"movie","add":"2017-06-19 22:53:12","orig_title":"Song to Song","year":"2017-03-10","translations":["Профессиональный (многоголосый закадровый)","Original (English)"],"quality":"bd","translation":"Профессиональный (многоголосый закадровый)","update":"2019-10-03 07:11:03","iframe_src":"//83.svetacdn.in/PfJ50H0ZBPg3/movie/12047"},{"id":9591,"title":"Сезон любви","kp_id":"77641","imdb_id":"tt0110222","world_art_id":null,"type":"movie","add":"2017-02-10 06:01:51","orig_title":"Kabhi Haan Kabhi Naa","year":"1994-02-25","translations":["Профессиональный (многоголосый закадровый)"],"quality":"webdl","translation":"Профессиональный (многоголосый закадровый)","update":"2019-10-03 07:29:35","iframe_src":"//83.svetacdn.in/PfJ50H0ZBPg3/movie/9591"},{"id":1734,"title":"Ночные ястребы","kp_id":"9190","imdb_id":"tt0082817","world_art_id":null,"type":"movie","add":"2016-04-29 12:36:13","orig_title":"Nighthawks","year":"1981-04-04","translations":["Профессиональный (многоголосый закадровый)","Авторский (одноголосый закадровый) (Чадов Михаил)"],"quality":"hdtv","translation":"Профессиональный (многоголосый закадровый)","update":"2019-10-03 07:03:05","iframe_src":"//83.svetacdn.in/PfJ50H0ZBPg3/movie/1734"},{"id":1656,"title":"Ключ от преисподней","kp_id":"927792","imdb_id":"tt4935418","world_art_id":null,"type":"movie","add":"2016-04-25 09:21:50","orig_title":"Baskin","year":"2015-09-11","translations":["Полное дублирование (iTunes)","Любительский (одноголосый закадровый) (Хихикающий доктор)"],"quality":"bd","translation":"Полное дублирование (iTunes)","update":"2019-10-03 07:04:05","iframe_src":"//83.svetacdn.in/PfJ50H0ZBPg3/movie/1656"}],"current_page":1271,"first_page_url":"https://videocdn.tv/api/short?limit=100&api_token=RgFQdUIR2dRmwv8iYa5SnFNgnw3vpjKj&cache31271=31271&page=1","from":127001,"last_page":653,"last_page_url":"https://videocdn.tv/api/short?limit=100&api_token=RgFQdUIR2dRmwv8iYa5SnFNgnw3vpjKj&cache31271=31271&page=653","next_page_url":null,"path":"https://videocdn.tv/api/short","per_page":100,"prev_page_url":"https://videocdn.tv/api/short?limit=100&api_token=RgFQdUIR2dRmwv8iYa5SnFNgnw3vpjKj&cache31271=31271&page=1270","to":127020,"total":65298}