{"result":true,"data":[{"id":50390,"title":"Когда закончится сегодня","kp_id":"1010732","imdb_id":"tt5246704","world_art_id":null,"type":"movie","add":"2021-05-14 17:38:18","orig_title":"When Today Ends","year":"2021-04-16","translations":["Любительский (многоголосый закадровый) (@MUZOBOZ@)"],"quality":"webdl","translation":"Любительский (многоголосый закадровый) (@MUZOBOZ@)","update":"2021-05-15 07:11:58","iframe_src":"//8965.svetacdn.in/IAF0wWTdNYZm/movie/50390"},{"id":50387,"title":"Тусовка","kp_id":"1304472","imdb_id":"tt10942302","world_art_id":null,"type":"movie","add":"2021-05-14 17:14:32","orig_title":"The Get Together","year":"2020-10-25","translations":["Любительский (многоголосый закадровый) (@MUZOBOZ@)"],"quality":"webdl","translation":"Любительский (многоголосый закадровый) (@MUZOBOZ@)","update":"2021-05-15 07:15:26","iframe_src":"//8965.svetacdn.in/IAF0wWTdNYZm/movie/50387"},{"id":50355,"title":"Шурья","kp_id":"968468","imdb_id":"tt5523544","world_art_id":null,"type":"movie","add":"2021-05-13 05:20:32","orig_title":"Shourya","year":"2016-03-04","translations":["Любительский (одноголосый закадровый)"],"quality":"webdl","translation":"Любительский (одноголосый закадровый)","update":"2021-05-14 10:15:22","iframe_src":"//8965.svetacdn.in/IAF0wWTdNYZm/movie/50355"},{"id":50324,"title":"Незаконная женщина","kp_id":"1255767","imdb_id":"tt10101806","world_art_id":null,"type":"movie","add":"2021-05-12 06:47:25","orig_title":"La dona il·legal","year":"2021-05-10","translations":["Любительский (многоголосый закадровый) (Синема УС)","Любительский (многоголосый закадровый) (Синема УС)"],"quality":"webdl","translation":"Любительский (многоголосый закадровый) (Синема УС)","update":"2021-05-14 19:23:31","iframe_src":"//8965.svetacdn.in/IAF0wWTdNYZm/movie/50324"},{"id":49411,"title":"Последний вздох","kp_id":"15840","imdb_id":"tt0113609","world_art_id":null,"type":"movie","add":"2021-04-07 11:10:01","orig_title":"Last Gasp","year":"1995-07-25","translations":["Авторский (одноголосый закадровый) (Визгунов Сергей)","[EN] Original (English)"],"quality":"bd","translation":"Авторский (одноголосый закадровый) (Визгунов Сергей)","update":"2021-05-14 11:12:19","iframe_src":"//8965.svetacdn.in/IAF0wWTdNYZm/movie/49411"},{"id":49377,"title":"Обнажение","kp_id":"589028","imdb_id":"tt1878932","world_art_id":null,"type":"movie","add":"2021-04-06 05:10:26","orig_title":"Exposed","year":"2011-03-18","translations":["Профессиональный (многоголосый закадровый)","[EN] Original (English)"],"quality":"webdl","translation":"Профессиональный (многоголосый закадровый)","update":"2021-05-14 11:03:46","iframe_src":"//8965.svetacdn.in/IAF0wWTdNYZm/movie/49377"},{"id":49285,"title":"Горячая неделя","kp_id":"89813","imdb_id":"tt0098235","world_art_id":null,"type":"movie","add":"2021-04-02 15:09:58","orig_title":"Rush Week","year":"1989-12-01","translations":["Любительский (одноголосый закадровый) (Sephiroth)","[EN] Original (English)"],"quality":"bd","translation":"Любительский (одноголосый закадровый) (Sephiroth)","update":"2021-05-14 11:10:22","iframe_src":"//8965.svetacdn.in/IAF0wWTdNYZm/movie/49285"},{"id":49271,"title":"Гражданская обязанность","kp_id":"146931","imdb_id":"tt0446298","world_art_id":null,"type":"movie","add":"2021-04-02 06:17:22","orig_title":"Civic Duty","year":"2006-04-26","translations":["Авторский (одноголосый закадровый) (Дольский Андрей)","[EN] Original (English)"],"quality":"bd","translation":"Авторский (одноголосый закадровый) (Дольский Андрей)","update":"2021-05-14 11:59:15","iframe_src":"//8965.svetacdn.in/IAF0wWTdNYZm/movie/49271"},{"id":49169,"title":"Крик","kp_id":"4008","imdb_id":"tt0102913","world_art_id":null,"type":"movie","add":"2021-03-29 05:24:00","orig_title":"Shout","year":"1991-09-27","translations":["Профессиональный (многоголосый закадровый) (Фильмэкспорт)","[EN] Original (English)"],"quality":"bd","translation":"Профессиональный (многоголосый закадровый) (Фильмэкспорт)","update":"2021-05-14 11:08:07","iframe_src":"//8965.svetacdn.in/IAF0wWTdNYZm/movie/49169"},{"id":48875,"title":"Годзилла, король монстров!","kp_id":"54784","imdb_id":"tt0197521","world_art_id":null,"type":"movie","add":"2021-03-18 13:57:14","orig_title":"Godzilla, King of the Monsters!","year":"1956-04-27","translations":["Авторский (одноголосый закадровый) (Живов Юрий)","[EN] Original (English)"],"quality":"bd","translation":"Авторский (одноголосый закадровый) (Живов Юрий)","update":"2021-05-14 11:54:54","iframe_src":"//8965.svetacdn.in/IAF0wWTdNYZm/movie/48875"},{"id":48842,"title":"Вечер в мюзик-холле","kp_id":"2151","imdb_id":"tt0005812","world_art_id":null,"type":"movie","add":"2021-03-17 16:15:18","orig_title":"A Night in the Show","year":"1915-11-20","translations":["Профессиональный (одноголосый закадровый)","[EN] Original (English)"],"quality":"bd","translation":"Профессиональный (одноголосый закадровый)","update":"2021-05-14 12:02:53","iframe_src":"//8965.svetacdn.in/IAF0wWTdNYZm/movie/48842"},{"id":35691,"title":"Скрытая красота: История любви, которая питает Землю","kp_id":"516595","imdb_id":"tt1222816","world_art_id":null,"type":"movie","add":"2020-01-31 08:25:55","orig_title":"Pollen","year":"2011-03-16","translations":["Оригинальная дорожка","Полное дублирование"],"quality":"bd","translation":"Оригинальная дорожка","update":"2021-05-14 17:36:05","iframe_src":"//8965.svetacdn.in/IAF0wWTdNYZm/movie/35691"},{"id":22673,"title":"Жилое пространство","kp_id":"1005342","imdb_id":"tt5887650","world_art_id":null,"type":"movie","add":"2019-03-03 20:48:16","orig_title":"Living Space","year":"2018-03-10","translations":["Любительский (многоголосый закадровый) (Синема УС)","Профессиональный (многоголосый закадровый) (Киноужас)","[EN] Original (English)"],"quality":"webdl","translation":"Любительский (многоголосый закадровый) (Синема УС)","update":"2021-05-14 11:56:58","iframe_src":"//8965.svetacdn.in/IAF0wWTdNYZm/movie/22673"},{"id":19203,"title":"Не открывай глаза","kp_id":"773395","imdb_id":"tt2987806","world_art_id":null,"type":"movie","add":"2018-09-26 22:52:42","orig_title":"Don't Open Your Eyes","year":"2018-10-31","translations":["Любительский (многоголосый закадровый) (Синема УС)","Любительский (двухголосый закадровый) (HiWayGrope)","Профессиональный (многоголосый закадровый) (Киноужас)","[EN] Original (English)"],"quality":"webdl","translation":"Любительский (многоголосый закадровый) (Синема УС)","update":"2021-05-14 11:05:18","iframe_src":"//8965.svetacdn.in/IAF0wWTdNYZm/movie/19203"},{"id":1751,"title":"Беги, не оглядывайся!","kp_id":"1046945","imdb_id":null,"world_art_id":null,"type":"serial","add":"2017-11-20 05:43:21","orig_title":"Беги, не оглядывайся!","year":"2017-11-18","translations":["Оригинальная дорожка"],"seasons_count":1,"episodes_count":4,"episodes":4,"update":"2017-11-20 11:04:42","iframe_src":"//8965.svetacdn.in/IAF0wWTdNYZm/tv-series/1751"},{"id":1750,"title":"Ноты любви","kp_id":"1049802","imdb_id":null,"world_art_id":null,"type":"serial","add":"2017-11-20 05:40:30","orig_title":"Ноты любви","year":"2017-10-14","translations":["Оригинальная дорожка"],"seasons_count":1,"episodes_count":4,"episodes":4,"update":"2017-11-20 13:50:45","iframe_src":"//8965.svetacdn.in/IAF0wWTdNYZm/tv-series/1750"},{"id":1749,"title":"Чудотворец","kp_id":"837647","imdb_id":"tt4195046","world_art_id":null,"type":"serial","add":"2017-11-20 05:26:35","orig_title":"Chudotvorets","year":"2014-10-09","translations":["Оригинальная дорожка"],"seasons_count":1,"episodes_count":8,"episodes":8,"update":"2017-11-21 09:33:15","iframe_src":"//8965.svetacdn.in/IAF0wWTdNYZm/tv-series/1749"},{"id":1747,"title":"Мистер Робинсон","kp_id":"749367","imdb_id":"tt2800234","world_art_id":null,"type":"serial","add":"2017-11-17 18:15:39","orig_title":"Mr. Robinson","year":"2015-08-05","translations":["Профессиональный (одноголосый закадровый) (Кураж-Бамбей)"],"seasons_count":1,"episodes_count":6,"episodes":6,"update":"2017-11-21 09:22:27","iframe_src":"//8965.svetacdn.in/IAF0wWTdNYZm/tv-series/1747"},{"id":1744,"title":"Страсть","kp_id":"1100407","imdb_id":null,"world_art_id":null,"type":"serial","add":"2017-11-16 11:05:17","orig_title":"Страсть","year":"2017-11-13","translations":["Оригинальная дорожка"],"seasons_count":1,"episodes_count":8,"episodes":8,"update":"2017-11-17 05:56:08","iframe_src":"//8965.svetacdn.in/IAF0wWTdNYZm/tv-series/1744"},{"id":1734,"title":"Ночь после выпуска","kp_id":"1071406","imdb_id":null,"world_art_id":null,"type":"serial","add":"2017-11-13 08:16:05","orig_title":"Ночь после выпуска","year":"2017-11-11","translations":["Оригинальная дорожка"],"seasons_count":1,"episodes_count":2,"episodes":2,"update":"2017-11-13 13:09:07","iframe_src":"//8965.svetacdn.in/IAF0wWTdNYZm/tv-series/1734"},{"id":1731,"title":"Ложь во спасение","kp_id":"961718","imdb_id":"tt5564518","world_art_id":null,"type":"serial","add":"2017-11-13 07:37:35","orig_title":"Lozh vo spaseniye","year":"2016-04-09","translations":["Оригинальная дорожка"],"seasons_count":1,"episodes_count":4,"episodes":4,"update":"2017-11-13 11:49:00","iframe_src":"//8965.svetacdn.in/IAF0wWTdNYZm/tv-series/1731"},{"id":1730,"title":"Уроки счастья","kp_id":"1097480","imdb_id":null,"world_art_id":null,"type":"serial","add":"2017-11-13 07:33:29","orig_title":"Уроки счастья","year":"2017-11-12","translations":["Оригинальная дорожка"],"seasons_count":1,"episodes_count":4,"episodes":4,"update":"2017-11-13 11:44:59","iframe_src":"//8965.svetacdn.in/IAF0wWTdNYZm/tv-series/1730"},{"id":1729,"title":"Последняя электричка","kp_id":"780309","imdb_id":"tt4550744","world_art_id":null,"type":"serial","add":"2017-11-13 06:33:53","orig_title":"Poslednyaya elektrichka","year":"2015-03-01","translations":["Оригинальная дорожка"],"seasons_count":1,"episodes_count":8,"episodes":8,"update":"2017-11-14 07:33:45","iframe_src":"//8965.svetacdn.in/IAF0wWTdNYZm/tv-series/1729"},{"id":1726,"title":"Миллионерша","kp_id":"1049790","imdb_id":null,"world_art_id":null,"type":"serial","add":"2017-11-13 06:20:47","orig_title":"Миллионерша","year":"2017-11-11","translations":["Оригинальная дорожка"],"seasons_count":1,"episodes_count":4,"episodes":4,"update":"2017-11-14 07:39:12","iframe_src":"//8965.svetacdn.in/IAF0wWTdNYZm/tv-series/1726"},{"id":1724,"title":"Подлинная история Русской революции","kp_id":"1071414","imdb_id":null,"world_art_id":null,"type":"serial","add":"2017-11-12 09:37:46","orig_title":"Подлинная история Русской революции","year":"2017-11-06","translations":["Оригинальная дорожка"],"seasons_count":1,"episodes_count":8,"episodes":8,"update":"2017-11-14 08:04:25","iframe_src":"//8965.svetacdn.in/IAF0wWTdNYZm/tv-series/1724"},{"id":1722,"title":"Неzлоб","kp_id":"715215","imdb_id":"tt4741988","world_art_id":null,"type":"serial","add":"2017-11-10 08:26:20","orig_title":"Nezlob","year":"2013-11-05","translations":["Оригинальная дорожка"],"seasons_count":1,"episodes_count":16,"episodes":16,"update":"2017-11-12 12:52:56","iframe_src":"//8965.svetacdn.in/IAF0wWTdNYZm/tv-series/1722"},{"id":1721,"title":"Кротик и Панда","kp_id":"1046564","imdb_id":null,"world_art_id":null,"type":"serial","add":"2017-11-09 05:08:13","orig_title":"Krtek a panda","year":"2016-03-28","translations":["Полное дублирование"],"seasons_count":1,"episodes_count":52,"episodes":52,"update":"2017-11-10 12:52:57","iframe_src":"//8965.svetacdn.in/IAF0wWTdNYZm/tv-series/1721"},{"id":1719,"title":"Троцкий","kp_id":"1008339","imdb_id":null,"world_art_id":null,"type":"serial","add":"2017-11-07 12:52:05","orig_title":"Троцкий","year":"2017-11-06","translations":["Оригинальная дорожка"],"seasons_count":1,"episodes_count":8,"episodes":8,"update":"2017-11-10 07:53:03","iframe_src":"//8965.svetacdn.in/IAF0wWTdNYZm/tv-series/1719"},{"id":1709,"title":"Пустошь","kp_id":"1007350","imdb_id":"tt5459168","world_art_id":null,"type":"serial","add":"2017-11-06 04:36:22","orig_title":"Pustina","year":"2016-10-30","translations":["Профессиональный (двухголосый закадровый) (ViruseProject)"],"seasons_count":1,"episodes_count":8,"episodes":8,"update":"2017-11-20 11:20:05","iframe_src":"//8965.svetacdn.in/IAF0wWTdNYZm/tv-series/1709"},{"id":1690,"title":"Закон и порядок: Настоящее преступление","kp_id":"1040430","imdb_id":"tt6110318","world_art_id":null,"type":"serial","add":"2017-10-30 09:47:02","orig_title":"Law & Order True Crime","year":"2017-09-26","translations":["Профессиональный (многоголосый закадровый) (IdeaFilm)"],"seasons_count":1,"episodes_count":8,"episodes":8,"update":"2017-11-20 14:52:50","iframe_src":"//8965.svetacdn.in/IAF0wWTdNYZm/tv-series/1690"},{"id":1615,"title":"Вымирание","kp_id":"1000181","imdb_id":"tt5926494","world_art_id":null,"type":"serial","add":"2017-10-09 07:35:10","orig_title":"Extinct","year":"2017-10-01","translations":["Профессиональный (многоголосый закадровый) (BaibaKo)"],"seasons_count":1,"episodes_count":10,"episodes":10,"update":"2017-11-22 12:59:05","iframe_src":"//8965.svetacdn.in/IAF0wWTdNYZm/tv-series/1615"},{"id":12140,"title":"Рыжий пес: Самый верный","kp_id":"855384","imdb_id":"tt3567194","world_art_id":null,"type":"movie","add":"2017-06-25 21:27:46","orig_title":"Red Dog: True Blue","year":"2016-12-26","translations":["Любительский (многоголосый закадровый) (Синема УС)","[EN] Original (English)"],"quality":"bd","translation":"Любительский (многоголосый закадровый) (Синема УС)","update":"2021-05-14 11:11:10","iframe_src":"//8965.svetacdn.in/IAF0wWTdNYZm/movie/12140"},{"id":11321,"title":"Кольцо для принцессы","kp_id":"800182","imdb_id":"tt3175798","world_art_id":null,"type":"movie","add":"2017-05-02 03:59:24","orig_title":"Princess Cut","year":"2015-08-04","translations":["Любительский (многоголосый закадровый) (Синема УС)","Профессиональный (многоголосый закадровый) (OMSKBIRD records)","[EN] Original (English)"],"quality":"dvdrip","translation":"Любительский (многоголосый закадровый) (Синема УС)","update":"2021-05-14 11:01:55","iframe_src":"//8965.svetacdn.in/IAF0wWTdNYZm/movie/11321"},{"id":999,"title":"Захват","kp_id":"814699","imdb_id":"tt4482990","world_art_id":null,"type":"serial","add":"2017-02-13 05:37:19","orig_title":"Zakhvat","year":"2015-01-01","translations":["Оригинальная дорожка"],"seasons_count":1,"episodes_count":8,"episodes":8,"update":"2017-11-14 10:25:41","iframe_src":"//8965.svetacdn.in/IAF0wWTdNYZm/tv-series/999"},{"id":9477,"title":"Древесный демон","kp_id":"882331","imdb_id":"tt4375268","world_art_id":null,"type":"movie","add":"2017-02-07 07:51:24","orig_title":"Arbor Demon","year":"2016-08-26","translations":["Любительский (многоголосый закадровый) (@MUZOBOZ@)","Профессиональный (многоголосый закадровый) (GreenРай Studio)","Профессиональный (многоголосый закадровый) (Киноужас)","[EN] Original (English)"],"quality":"webdl","translation":"Любительский (многоголосый закадровый) (@MUZOBOZ@)","update":"2021-05-14 12:01:21","iframe_src":"//8965.svetacdn.in/IAF0wWTdNYZm/movie/9477"},{"id":769,"title":"Запретная любовь","kp_id":"1007797","imdb_id":null,"world_art_id":null,"type":"serial","add":"2016-12-31 06:30:22","orig_title":"Запретная любовь","year":"2016-11-14","translations":["Оригинальная дорожка"],"seasons_count":1,"episodes_count":12,"episodes":12,"update":"2017-11-20 15:07:46","iframe_src":"//8965.svetacdn.in/IAF0wWTdNYZm/tv-series/769"},{"id":523,"title":"Светофор","kp_id":"581693","imdb_id":"tt2341427","world_art_id":null,"type":"serial","add":"2016-10-13 11:14:26","orig_title":"Svetofor","year":"2011-03-28","translations":["Оригинальная дорожка"],"seasons_count":10,"episodes_count":200,"episodes":20,"update":"2017-11-09 14:12:12","iframe_src":"//8965.svetacdn.in/IAF0wWTdNYZm/tv-series/523"},{"id":5799,"title":"Спросите Синди","kp_id":"9562","imdb_id":"tt0243931","world_art_id":null,"type":"movie","add":"2016-10-04 05:53:03","orig_title":"Good Advice","year":"2001-09-06","translations":["Профессиональный (многоголосый закадровый)","[EN] Original (English)"],"quality":"webdl","translation":"Профессиональный (многоголосый закадровый)","update":"2021-05-14 11:02:32","iframe_src":"//8965.svetacdn.in/IAF0wWTdNYZm/movie/5799"},{"id":2659,"title":"Любовь с первого взгляда","kp_id":"687266","imdb_id":"tt2140619","world_art_id":null,"type":"movie","add":"2016-05-27 11:23:32","orig_title":"Two Night Stand","year":"2014-09-25","translations":["Профессиональный (многоголосый закадровый)","[EN] Original (English)"],"quality":"bd","translation":"Профессиональный (многоголосый закадровый)","update":"2021-05-14 11:06:43","iframe_src":"//8965.svetacdn.in/IAF0wWTdNYZm/movie/2659"},{"id":306,"title":"Крид: Наследие Рокки","kp_id":"782932","imdb_id":"tt3076658","world_art_id":null,"type":"movie","add":"2016-03-22 15:37:58","orig_title":"Creed","year":"2015-11-25","translations":["Профессиональный (многоголосый закадровый)","Полное дублирование","Профессиональный (многоголосый закадровый) (IdeaFilm)","[EN] Original (English)"],"quality":"bd","translation":"Профессиональный (многоголосый закадровый)","update":"2021-05-14 11:58:10","iframe_src":"//8965.svetacdn.in/IAF0wWTdNYZm/movie/306"}],"current_page":558,"first_page_url":"https://videocdn.tv/api/short?limit=100&api_token=6Onb1W1alEUrBcKJZD3GoKBbWyAl2uG2&cache3558=3558&page=1","from":55701,"last_page":709,"last_page_url":"https://videocdn.tv/api/short?limit=100&api_token=6Onb1W1alEUrBcKJZD3GoKBbWyAl2uG2&cache3558=3558&page=709","next_page_url":"https://videocdn.tv/api/short?limit=100&api_token=6Onb1W1alEUrBcKJZD3GoKBbWyAl2uG2&cache3558=3558&page=559","path":"https://videocdn.tv/api/short","per_page":100,"prev_page_url":"https://videocdn.tv/api/short?limit=100&api_token=6Onb1W1alEUrBcKJZD3GoKBbWyAl2uG2&cache3558=3558&page=557","to":55740,"total":70818}