{"result":true,"data":[{"id":19551,"title":"Космические Крошки из открытого космоса","kp_id":"1042659","imdb_id":"tt6644286","world_art_id":null,"type":"movie","add":"2018-10-13 21:02:44","orig_title":"Space Babes from Outer Space","year":"2017-05-20","translations":["Любительский (многоголосый закадровый) (Синема УС)"],"quality":"webdl","translation":"Любительский (многоголосый закадровый) (Синема УС)","update":"2018-10-15 07:28:27","iframe_src":"//83.svetacdn.in/PfJ50H0ZBPg3/movie/19551"},{"id":19550,"title":"В погоне за жизнью: история Лоуренса Филлипса","kp_id":null,"imdb_id":"tt6348244","world_art_id":null,"type":"movie","add":"2018-10-13 20:56:45","orig_title":"Running for His Life: The Lawrence Phillips Story","year":"2016-12-16","translations":["Любительский (многоголосый закадровый) (Синема УС)"],"quality":"webdl","translation":"Любительский (многоголосый закадровый) (Синема УС)","update":"2018-10-15 07:32:26","iframe_src":"//83.svetacdn.in/PfJ50H0ZBPg3/movie/19550"},{"id":19549,"title":"Реванш","kp_id":"866993","imdb_id":"tt3982768","world_art_id":null,"type":"movie","add":"2018-10-13 20:55:13","orig_title":"Revanche","year":"2016-01-14","translations":["Любительский (многоголосый закадровый) (Колобок)"],"quality":"webdl","translation":"Любительский (многоголосый закадровый) (Колобок)","update":"2018-10-15 07:33:53","iframe_src":"//83.svetacdn.in/PfJ50H0ZBPg3/movie/19549"},{"id":19548,"title":"Переход","kp_id":"967653","imdb_id":"tt5445074","world_art_id":null,"type":"movie","add":"2018-10-13 20:53:47","orig_title":"Pass Thru","year":"2016-04-19","translations":["Любительский (многоголосый закадровый) (Колобок)"],"quality":"webdl","translation":"Любительский (многоголосый закадровый) (Колобок)","update":"2018-10-15 07:34:59","iframe_src":"//83.svetacdn.in/PfJ50H0ZBPg3/movie/19548"},{"id":19547,"title":"Секрет мамы","kp_id":"1015913","imdb_id":"tt6343988","world_art_id":null,"type":"movie","add":"2018-10-13 20:52:13","orig_title":"Mommy's Secret","year":"2016-10-08","translations":["Любительский (многоголосый закадровый) (Колобок)"],"quality":"hdtv","translation":"Любительский (многоголосый закадровый) (Колобок)","update":"2018-10-15 07:35:52","iframe_src":"//83.svetacdn.in/PfJ50H0ZBPg3/movie/19547"},{"id":19543,"title":"Дрис ван Нотен","kp_id":"1112046","imdb_id":"tt6802360","world_art_id":null,"type":"movie","add":"2018-10-13 20:45:55","orig_title":"Dries","year":"2017-03-18","translations":["Любительский (многоголосый закадровый) (Синема УС)"],"quality":"webdl","translation":"Любительский (многоголосый закадровый) (Синема УС)","update":"2018-10-15 07:41:43","iframe_src":"//83.svetacdn.in/PfJ50H0ZBPg3/movie/19543"},{"id":19541,"title":"На грани","kp_id":"821886","imdb_id":"tt3430694","world_art_id":null,"type":"movie","add":"2018-10-13 20:42:39","orig_title":"Black Woods","year":"2017-03-10","translations":["Любительский (многоголосый закадровый) (Колобок)"],"quality":"webdl","translation":"Любительский (многоголосый закадровый) (Колобок)","update":"2018-10-15 07:44:28","iframe_src":"//83.svetacdn.in/PfJ50H0ZBPg3/movie/19541"},{"id":19540,"title":"Сияние крови","kp_id":"708728","imdb_id":"tt2267578","world_art_id":null,"type":"movie","add":"2018-10-13 20:41:00","orig_title":"Blaze of Gory","year":"2016-10-31","translations":["Любительский (многоголосый закадровый) (Колобок)"],"quality":"dvdrip","translation":"Любительский (многоголосый закадровый) (Колобок)","update":"2018-10-15 07:45:50","iframe_src":"//83.svetacdn.in/PfJ50H0ZBPg3/movie/19540"},{"id":19537,"title":"911 кошмар","kp_id":"903170","imdb_id":"tt4573136","world_art_id":null,"type":"movie","add":"2018-10-13 20:35:49","orig_title":"Dispatch","year":"2016-01-10","translations":["Любительский (многоголосый закадровый) (Колобок)"],"quality":"webdl","translation":"Любительский (многоголосый закадровый) (Колобок)","update":"2018-10-15 07:50:28","iframe_src":"//83.svetacdn.in/PfJ50H0ZBPg3/movie/19537"},{"id":19534,"title":"Два Каталонца","kp_id":null,"imdb_id":"tt8893608","world_art_id":null,"type":"movie","add":"2018-10-12 23:36:39","orig_title":"Two Catalonias","year":"2018-09-28","translations":["Любительский (многоголосый закадровый) (Синема УС)"],"quality":"webdl","translation":"Любительский (многоголосый закадровый) (Синема УС)","update":"2018-10-15 07:55:02","iframe_src":"//83.svetacdn.in/PfJ50H0ZBPg3/movie/19534"},{"id":19533,"title":"Досье ведьмы","kp_id":"939739","imdb_id":"tt4580550","world_art_id":null,"type":"movie","add":"2018-10-12 23:33:26","orig_title":"The Witch Files","year":"2018-05-27","translations":["Любительский (многоголосый закадровый) (Синема УС)"],"quality":"webdl","translation":"Любительский (многоголосый закадровый) (Синема УС)","update":"2018-10-15 07:56:05","iframe_src":"//83.svetacdn.in/PfJ50H0ZBPg3/movie/19533"},{"id":19532,"title":"Дом жестоких страстей","kp_id":"1040360","imdb_id":"tt6623390","world_art_id":null,"type":"movie","add":"2018-10-12 23:31:51","orig_title":"The House of Violent Desire","year":"2018-01-01","translations":["Любительский (многоголосый закадровый) (Колобок)"],"quality":"webdl","translation":"Любительский (многоголосый закадровый) (Колобок)","update":"2018-10-15 08:01:26","iframe_src":"//83.svetacdn.in/PfJ50H0ZBPg3/movie/19532"},{"id":19531,"title":"Класс 92","kp_id":"807758","imdb_id":"tt3311384","world_art_id":null,"type":"movie","add":"2018-10-12 23:30:08","orig_title":"The Class of 92","year":"2013-11-29","translations":["Профессиональный (многоголосый закадровый)"],"quality":"bd","translation":"Профессиональный (многоголосый закадровый)","update":"2018-10-15 08:01:57","iframe_src":"//83.svetacdn.in/PfJ50H0ZBPg3/movie/19531"},{"id":19529,"title":"Доставка гарантирована","kp_id":"1000445","imdb_id":"tt5988216","world_art_id":null,"type":"movie","add":"2018-10-12 23:21:07","orig_title":"No Postage Necessary","year":"2017-10-14","translations":["Любительский (многоголосый закадровый) (Синема УС)"],"quality":"webdl","translation":"Любительский (многоголосый закадровый) (Синема УС)","update":"2018-10-15 08:10:26","iframe_src":"//83.svetacdn.in/PfJ50H0ZBPg3/movie/19529"},{"id":19528,"title":"Сладкий кнут","kp_id":"720149","imdb_id":"tt2474906","world_art_id":null,"type":"movie","add":"2018-10-12 23:19:38","orig_title":"Amai muchi","year":"2013-09-21","translations":["Любительский (многоголосый закадровый) (Колобок)"],"quality":"hdrip","translation":"Любительский (многоголосый закадровый) (Колобок)","update":"2018-10-15 10:35:18","iframe_src":"//83.svetacdn.in/PfJ50H0ZBPg3/movie/19528"},{"id":19525,"title":"Лобстер-коп","kp_id":"1125433","imdb_id":"tt8489090","world_art_id":null,"type":"movie","add":"2018-10-12 23:14:42","orig_title":"Long xia jing cha","year":"2018-06-21","translations":["Любительский (многоголосый закадровый) (Колобок)"],"quality":"webdl","translation":"Любительский (многоголосый закадровый) (Колобок)","update":"2018-10-15 10:38:55","iframe_src":"//83.svetacdn.in/PfJ50H0ZBPg3/movie/19525"},{"id":19523,"title":"Джейн","kp_id":"1049687","imdb_id":"tt7207238","world_art_id":null,"type":"movie","add":"2018-10-12 23:08:11","orig_title":"Jane","year":"2017-09-10","translations":["Любительский (многоголосый закадровый) (Синема УС)"],"quality":"webdl","translation":"Любительский (многоголосый закадровый) (Синема УС)","update":"2018-10-15 10:44:12","iframe_src":"//83.svetacdn.in/PfJ50H0ZBPg3/movie/19523"},{"id":19515,"title":"3 дня с Роми Шнайдер","kp_id":"1015929","imdb_id":"tt6463494","world_art_id":null,"type":"movie","add":"2018-10-12 22:43:22","orig_title":"3 Tage in Quiberon","year":"2018-02-19","translations":["Профессиональный (многоголосый закадровый)"],"quality":"webdl","translation":"Профессиональный (многоголосый закадровый)","update":"2018-10-15 08:12:58","iframe_src":"//83.svetacdn.in/PfJ50H0ZBPg3/movie/19515"},{"id":19478,"title":"Тайное воссоединение","kp_id":"486381","imdb_id":"tt1535491","world_art_id":null,"type":"movie","add":"2018-10-10 08:15:59","orig_title":"Uihyeongjae","year":"2010-02-04","translations":["Любительский (одноголосый закадровый)","Профессиональный (многоголосый закадровый)"],"quality":"bd","translation":"Любительский (одноголосый закадровый)","update":"2018-10-15 08:07:45","iframe_src":"//83.svetacdn.in/PfJ50H0ZBPg3/movie/19478"},{"id":19024,"title":"Счастья! Здоровья!","kp_id":"1045781","imdb_id":null,"world_art_id":null,"type":"movie","add":"2018-09-16 21:31:23","orig_title":"Счастья! Здоровья!","year":"2018-09-13","translations":["Оригинальная дорожка"],"quality":"webdl","translation":"Оригинальная дорожка","update":"2018-10-15 07:31:20","iframe_src":"//83.svetacdn.in/PfJ50H0ZBPg3/movie/19024"}],"current_page":1729,"first_page_url":"https://videocdn.tv/api/short?limit=100&api_token=RgFQdUIR2dRmwv8iYa5SnFNgnw3vpjKj&cache31729=31729&page=1","from":172801,"last_page":625,"last_page_url":"https://videocdn.tv/api/short?limit=100&api_token=RgFQdUIR2dRmwv8iYa5SnFNgnw3vpjKj&cache31729=31729&page=625","next_page_url":null,"path":"https://videocdn.tv/api/short","per_page":100,"prev_page_url":"https://videocdn.tv/api/short?limit=100&api_token=RgFQdUIR2dRmwv8iYa5SnFNgnw3vpjKj&cache31729=31729&page=1728","to":172820,"total":62500}