{"result":true,"data":[{"id":52419,"title":"Хайлайнер","kp_id":"4491026","imdb_id":null,"world_art_id":null,"type":"movie","add":"2021-08-13 20:19:11","orig_title":"Хайлайнер","year":"2020-11-01","translations":["Оригинальная дорожка"],"quality":"webdl","translation":"Оригинальная дорожка","update":"2021-08-14 07:19:44","iframe_src":"//8422.svetacdn.in/71tsRs29n5tZ/movie/52419"},{"id":52409,"title":"Зови меня Санта-Клаус","kp_id":"95197","imdb_id":"tt0272018","world_art_id":null,"type":"movie","add":"2021-08-13 16:05:25","orig_title":"Call Me Claus","year":"2001-12-02","translations":["Профессиональный (многоголосый закадровый) (Первый канал | ОРТ)"],"quality":"dvdrip","translation":"Профессиональный (многоголосый закадровый) (Первый канал | ОРТ)","update":"2021-08-13 20:08:18","iframe_src":"//8422.svetacdn.in/71tsRs29n5tZ/movie/52409"},{"id":52404,"title":"Беккет","kp_id":"1260412","imdb_id":"tt10230994","world_art_id":null,"type":"movie","add":"2021-08-13 09:24:20","orig_title":"Beckett","year":"2021-08-04","translations":["Полное дублирование (Невафильм | Нева-1)","Original (English)"],"quality":"webdl","translation":"Полное дублирование (Невафильм | Нева-1)","update":"2021-08-13 13:59:45","iframe_src":"//8422.svetacdn.in/71tsRs29n5tZ/movie/52404"},{"id":52402,"title":"Репликатор","kp_id":"4939","imdb_id":"tt0110972","world_art_id":null,"type":"movie","add":"2021-08-13 05:53:40","orig_title":"Replikator","year":"1994-11-09","translations":["Original (English)","Авторский (одноголосый закадровый) (Визгунов Сергей)"],"quality":"webdl","translation":"Original (English)","update":"2021-08-13 09:22:32","iframe_src":"//8422.svetacdn.in/71tsRs29n5tZ/movie/52402"},{"id":52395,"title":"Старая дама, входящая в море","kp_id":"37701","imdb_id":"tt0103207","world_art_id":null,"type":"movie","add":"2021-08-12 10:59:55","orig_title":"La vieille qui marchait dans la mer","year":"1991-09-09","translations":["Авторский (одноголосый закадровый) (Володарский Леонид)"],"quality":"webdl","translation":"Авторский (одноголосый закадровый) (Володарский Леонид)","update":"2021-08-13 06:28:37","iframe_src":"//8422.svetacdn.in/71tsRs29n5tZ/movie/52395"},{"id":52387,"title":"Бандиты","kp_id":"37842","imdb_id":"tt0062706","world_art_id":null,"type":"movie","add":"2021-08-12 06:00:32","orig_title":"Bandidos","year":"1967-10-15","translations":["Любительский (одноголосый закадровый) (erogg)"],"quality":"bd","translation":"Любительский (одноголосый закадровый) (erogg)","update":"2021-08-13 06:44:00","iframe_src":"//8422.svetacdn.in/71tsRs29n5tZ/movie/52387"},{"id":52386,"title":"Дуэль на Миссисипи","kp_id":"202086","imdb_id":"tt0048023","world_art_id":null,"type":"movie","add":"2021-08-12 05:33:01","orig_title":"Duel on the Mississippi","year":"1955-09-16","translations":["Любительский (одноголосый закадровый) (Andi999)","Original (English)"],"quality":"bd","translation":"Любительский (одноголосый закадровый) (Andi999)","update":"2021-08-13 06:46:59","iframe_src":"//8422.svetacdn.in/71tsRs29n5tZ/movie/52386"},{"id":52384,"title":"Проклятие золотой шахты","kp_id":"25489","imdb_id":"tt0325214","world_art_id":null,"type":"movie","add":"2021-08-12 05:24:08","orig_title":"Curse of the Forty-Niner","year":"2003-09-23","translations":["Original (English)","Профессиональный (двухголосый закадровый)"],"quality":"webdl","translation":"Original (English)","update":"2021-08-13 06:50:32","iframe_src":"//8422.svetacdn.in/71tsRs29n5tZ/movie/52384"},{"id":52383,"title":"Кровавая церемония","kp_id":"101147","imdb_id":"tt0068352","world_art_id":null,"type":"movie","add":"2021-08-12 05:18:27","orig_title":"Ceremonia sangrienta","year":"1973-09-10","translations":["Авторский (одноголосый закадровый) (Белов Вадим)"],"quality":"bd","translation":"Авторский (одноголосый закадровый) (Белов Вадим)","update":"2021-08-13 06:52:06","iframe_src":"//8422.svetacdn.in/71tsRs29n5tZ/movie/52383"},{"id":52382,"title":"Любовь на бегу","kp_id":"16704","imdb_id":"tt0251696","world_art_id":null,"type":"movie","add":"2021-08-12 05:12:10","orig_title":"Fast Sofa","year":"2001-06-15","translations":["Original (English)","Профессиональный (многоголосый закадровый)"],"quality":"webdl","translation":"Original (English)","update":"2021-08-13 06:58:10","iframe_src":"//8422.svetacdn.in/71tsRs29n5tZ/movie/52382"},{"id":51846,"title":"Бендер: Золото империи","kp_id":"4450231","imdb_id":"tt15062980","world_art_id":null,"type":"movie","add":"2021-07-18 17:23:56","orig_title":"Bender: Zoloto imprerii","year":"2021-07-15","translations":["Оригинальная дорожка"],"quality":"webdl","translation":"Оригинальная дорожка","update":"2021-08-13 08:39:22","iframe_src":"//8422.svetacdn.in/71tsRs29n5tZ/movie/51846"},{"id":51829,"title":"Космический джем: Новое поколение","kp_id":"841747","imdb_id":"tt3554046","world_art_id":null,"type":"movie","add":"2021-07-16 15:45:33","orig_title":"Space Jam: A New Legacy","year":"2021-07-14","translations":["Original (English)","Полное дублирование","Полное дублирование","Полное дублирование"],"quality":"webdl","translation":"Original (English)","update":"2021-08-13 10:38:49","iframe_src":"//8422.svetacdn.in/71tsRs29n5tZ/movie/51829"},{"id":51613,"title":"Оседлать орла","kp_id":"4477112","imdb_id":"tt14673560","world_art_id":null,"type":"movie","add":"2021-07-07 12:50:15","orig_title":"Ride the Eagle","year":"2021-07-30","translations":["Любительский (многоголосый закадровый) (Синема УС)","Original (English)"],"quality":"webdl","translation":"Любительский (многоголосый закадровый) (Синема УС)","update":"2021-08-13 06:25:51","iframe_src":"//8422.svetacdn.in/71tsRs29n5tZ/movie/51613"},{"id":9309,"title":"Злоключения за границей","kp_id":"499924","imdb_id":"tt1020109","world_art_id":null,"type":"serial","add":"2020-11-18 08:17:35","orig_title":"Banged Up Abroad","year":"2007-07-24","translations":["Профессиональный (одноголосый закадровый)"],"seasons_count":5,"episodes_count":49,"episodes":10,"update":"2020-11-18 10:17:13","iframe_src":"//8422.svetacdn.in/71tsRs29n5tZ/tv-series/9309"},{"id":9307,"title":"Преступление","kp_id":"1059519","imdb_id":"tt4173216","world_art_id":null,"type":"serial","add":"2020-11-18 05:32:06","orig_title":"Zbrodnia","year":"2014-10-16","translations":["Любительский (многоголосый закадровый) (WestFilm)"],"seasons_count":2,"episodes_count":6,"episodes":3,"update":"2020-11-18 07:57:42","iframe_src":"//8422.svetacdn.in/71tsRs29n5tZ/tv-series/9307"},{"id":9282,"title":"Во власти денег","kp_id":"583650","imdb_id":"tt0429375","world_art_id":null,"type":"serial","add":"2020-11-14 11:30:26","orig_title":"Idolos","year":"2004-01-01","translations":["Профессиональный (многоголосый закадровый)"],"seasons_count":1,"episodes_count":83,"episodes":83,"update":"2020-11-18 08:34:35","iframe_src":"//8422.svetacdn.in/71tsRs29n5tZ/tv-series/9282"},{"id":9247,"title":"Семейство Сатурдей","kp_id":"501804","imdb_id":"tt1291662","world_art_id":null,"type":"serial","add":"2020-11-10 09:37:07","orig_title":"The Secret Saturdays","year":"2008-10-03","translations":["Полное дублирование"],"seasons_count":2,"episodes_count":36,"episodes":10,"update":"2020-11-18 16:48:44","iframe_src":"//8422.svetacdn.in/71tsRs29n5tZ/tv-series/9247"},{"id":9246,"title":"Мой друг Марсупилами","kp_id":"461744","imdb_id":"tt0313099","world_art_id":null,"type":"serial","add":"2020-11-10 09:31:34","orig_title":"Mon ami Marsupilami","year":"2003-01-01","translations":["Профессиональный (многоголосый закадровый)"],"seasons_count":1,"episodes_count":26,"episodes":26,"update":"2020-11-18 15:37:32","iframe_src":"//8422.svetacdn.in/71tsRs29n5tZ/tv-series/9246"},{"id":9224,"title":"Марин и его друзья. Подводные истории","kp_id":"935876","imdb_id":"tt7050224","world_art_id":null,"type":"serial","add":"2020-11-07 11:26:45","orig_title":"Bubble Bubble Marin","year":"2015-11-15","translations":["Полное дублирование"],"seasons_count":1,"episodes_count":52,"episodes":52,"update":"2020-11-18 16:14:08","iframe_src":"//8422.svetacdn.in/71tsRs29n5tZ/tv-series/9224"},{"id":9223,"title":"Лето мыльных пузырей","kp_id":"675281","imdb_id":"tt4374254","world_art_id":null,"type":"serial","add":"2020-11-07 11:12:49","orig_title":"Pao mo zhi xia","year":"2010-05-30","translations":["Любительский (одноголосый закадровый)"],"seasons_count":1,"episodes_count":28,"episodes":28,"update":"2020-11-18 11:49:02","iframe_src":"//8422.svetacdn.in/71tsRs29n5tZ/tv-series/9223"},{"id":9222,"title":"Ракета и Грут","kp_id":"1042099","imdb_id":"tt6603254","world_art_id":null,"type":"serial","add":"2020-11-07 11:09:11","orig_title":"Rocket & Groot","year":"2017-03-10","translations":["Полное дублирование (Невафильм | Нева-1)"],"seasons_count":1,"episodes_count":12,"episodes":12,"update":"2020-11-18 15:13:22","iframe_src":"//8422.svetacdn.in/71tsRs29n5tZ/tv-series/9222"},{"id":9221,"title":"Где-то там...","kp_id":"756154","imdb_id":"tt2377271","world_art_id":null,"type":"serial","add":"2020-11-07 11:05:18","orig_title":"Out There","year":"2013-02-22","translations":["Профессиональный (двухголосый закадровый) (Кубик в Кубе)"],"seasons_count":1,"episodes_count":10,"episodes":10,"update":"2020-11-18 16:22:18","iframe_src":"//8422.svetacdn.in/71tsRs29n5tZ/tv-series/9221"},{"id":9219,"title":"Шоу мистера Пибоди и Шермана","kp_id":"940902","imdb_id":"tt5021206","world_art_id":null,"type":"serial","add":"2020-11-07 10:41:33","orig_title":"The Mr. Peabody & Sherman Show","year":"2015-10-09","translations":["Полное дублирование (SDI Media | Iyuno-SDI Group Russia)"],"seasons_count":4,"episodes_count":52,"episodes":13,"update":"2020-11-18 11:27:21","iframe_src":"//8422.svetacdn.in/71tsRs29n5tZ/tv-series/9219"},{"id":9195,"title":"Ферма чудища","kp_id":"418161","imdb_id":"tt0381784","world_art_id":null,"type":"serial","add":"2020-11-04 10:15:32","orig_title":"Monster Farm","year":"1998-01-01","translations":["Полное дублирование"],"seasons_count":1,"episodes_count":13,"episodes":13,"update":"2020-11-18 15:01:47","iframe_src":"//8422.svetacdn.in/71tsRs29n5tZ/tv-series/9195"},{"id":9194,"title":"Боб и Маргарет","kp_id":"397389","imdb_id":"tt0122813","world_art_id":null,"type":"serial","add":"2020-11-04 10:06:34","orig_title":"Bob and Margaret","year":"1998-06-22","translations":["Профессиональный (многоголосый закадровый)"],"seasons_count":2,"episodes_count":26,"episodes":13,"update":"2020-11-18 14:11:31","iframe_src":"//8422.svetacdn.in/71tsRs29n5tZ/tv-series/9194"},{"id":9150,"title":"Роботы Болт и Блип","kp_id":"494449","imdb_id":"tt1583929","world_art_id":null,"type":"serial","add":"2020-10-29 16:29:52","orig_title":"Bolts & Blip","year":"2010-06-28","translations":["Профессиональный (многоголосый закадровый)"],"seasons_count":1,"episodes_count":26,"episodes":26,"update":"2020-11-18 12:03:27","iframe_src":"//8422.svetacdn.in/71tsRs29n5tZ/tv-series/9150"},{"id":9113,"title":"Ундина 2: На гребне волны","kp_id":"161028","imdb_id":"tt0425722","world_art_id":null,"type":"serial","add":"2020-10-25 14:56:03","orig_title":"Undina 2. Na grebne volny","year":"2004-08-30","translations":["Оригинальная дорожка"],"seasons_count":1,"episodes_count":92,"episodes":92,"update":"2020-11-18 10:34:38","iframe_src":"//8422.svetacdn.in/71tsRs29n5tZ/tv-series/9113"},{"id":8998,"title":"Искатели правды","kp_id":"1293369","imdb_id":"tt7907922","world_art_id":null,"type":"serial","add":"2020-10-12 20:34:00","orig_title":"Truth Seekers","year":"2020-10-30","translations":["Любительский (многоголосый закадровый) (Ultradox)","Профессиональный (многоголосый закадровый) (IdeaFilm)","Профессиональный (многоголосый закадровый) (HDrezka Studio)","Любительский (многоголосый закадровый) (ColdFilm)","Любительский (многоголосый закадровый) (KerobTV)","Профессиональный (многоголосый закадровый) (BaibaKo)","Профессиональный (многоголосый закадровый) (LostFilm)","Профессиональный (многоголосый закадровый) (NewStudio)","Профессиональный (многоголосый закадровый) (Jaskier)","Профессиональный (многоголосый закадровый) (Ozz.tv)"],"seasons_count":1,"episodes_count":8,"episodes":8,"update":"2020-11-18 16:29:53","iframe_src":"//8422.svetacdn.in/71tsRs29n5tZ/tv-series/8998"},{"id":8803,"title":"Южный ветер. Возвращение","kp_id":"1302593","imdb_id":"tt10952900","world_art_id":null,"type":"serial","add":"2020-09-21 06:47:30","orig_title":"Juzni vetar","year":"2020-01-19","translations":[],"seasons_count":1,"episodes_count":14,"episodes":14,"update":"2020-11-18 10:13:45","iframe_src":"//8422.svetacdn.in/71tsRs29n5tZ/tv-series/8803"},{"id":8601,"title":"Разъярённая мать","kp_id":"893606","imdb_id":"tt4535826","world_art_id":null,"type":"serial","add":"2020-09-02 05:41:44","orig_title":"Aenggeurimam","year":"2015-03-18","translations":["Любительский (одноголосый закадровый) (GREEN TEA)","Любительский (одноголосый закадровый) (Seoul Bay)"],"seasons_count":1,"episodes_count":16,"episodes":16,"update":"2020-11-18 10:12:52","iframe_src":"//8422.svetacdn.in/71tsRs29n5tZ/tv-series/8601"},{"id":8089,"title":"Мистер ошибка","kp_id":"1392666","imdb_id":"tt12453442","world_art_id":null,"type":"serial","add":"2020-07-04 14:50:31","orig_title":"Bay Yanlis","year":"2020-06-26","translations":["Любительский (двухголосый закадровый) (Анастасия Гайдаржи + Андрей Юрченко)","Любительский (многоголосый закадровый) (AimaksaLTV)"],"seasons_count":1,"episodes_count":14,"episodes":14,"update":"2020-11-18 08:20:46","iframe_src":"//8422.svetacdn.in/71tsRs29n5tZ/tv-series/8089"},{"id":6503,"title":"Всеведущий","kp_id":"1339669","imdb_id":"tt11542920","world_art_id":null,"type":"serial","add":"2020-01-29 12:02:07","orig_title":"Onisciente","year":"2020-01-29","translations":["Любительский (многоголосый закадровый) (Octopus)","Любительский (многоголосый закадровый) (ColdFilm)","Профессиональный (двухголосый закадровый) (ViruseProject)"],"seasons_count":1,"episodes_count":6,"episodes":6,"update":"2020-11-18 07:51:03","iframe_src":"//8422.svetacdn.in/71tsRs29n5tZ/tv-series/6503"},{"id":33053,"title":"Тихая семья","kp_id":"65851","imdb_id":"tt0188503","world_art_id":null,"type":"movie","add":"2019-11-12 22:17:31","orig_title":"Choyonghan kajok","year":"1998-04-25","translations":["Любительский (одноголосый закадровый) (den904)","Любительский (одноголосый закадровый) (den904)","Любительский (одноголосый закадровый) (Бирюков Михаил)"],"quality":"dvdrip","translation":"Любительский (одноголосый закадровый) (den904)","update":"2021-08-13 06:36:48","iframe_src":"//8422.svetacdn.in/71tsRs29n5tZ/movie/33053"},{"id":23509,"title":"Божественное рождение","kp_id":"257879","imdb_id":"tt0762121","world_art_id":null,"type":"movie","add":"2019-03-26 21:59:00","orig_title":"The Nativity Story","year":"2006-11-24","translations":["Original (English)","Профессиональный (многоголосый закадровый) (Пифагор)"],"quality":"bd","translation":"Original (English)","update":"2021-08-13 06:32:51","iframe_src":"//8422.svetacdn.in/71tsRs29n5tZ/movie/23509"},{"id":2259,"title":"Ребекка Мартинссон","kp_id":"1047714","imdb_id":"tt6623682","world_art_id":null,"type":"serial","add":"2018-03-22 08:35:34","orig_title":"Rebecka Martinsson","year":"2017-03-08","translations":["Профессиональный (двухголосый закадровый) (ViruseProject)","Профессиональный (многоголосый закадровый) (SDI Media | Iyuno-SDI Group Russia)","Любительский (многоголосый закадровый) (Octopus)","Любительский (многоголосый закадровый) (ColdFilm)"],"seasons_count":2,"episodes_count":16,"episodes":8,"update":"2020-11-18 14:53:18","iframe_src":"//8422.svetacdn.in/71tsRs29n5tZ/tv-series/2259"},{"id":11688,"title":"Бордель","kp_id":"31923","imdb_id":"tt0319115","world_art_id":null,"type":"movie","add":"2017-05-30 06:53:13","orig_title":"Brothel","year":"2008-02-27","translations":["Профессиональный (двухголосый закадровый)","Профессиональный (двухголосый закадровый) (Elrom)","Original (English)"],"quality":"dvdrip","translation":"Профессиональный (двухголосый закадровый)","update":"2021-08-13 06:42:06","iframe_src":"//8422.svetacdn.in/71tsRs29n5tZ/movie/11688"},{"id":10072,"title":"Замена 2: Последний урок","kp_id":"85055","imdb_id":"tt0120847","world_art_id":null,"type":"movie","add":"2017-02-26 08:05:00","orig_title":"The Substitute 2: School's Out","year":"1998-04-03","translations":["Профессиональный (многоголосый закадровый)","Авторский (одноголосый закадровый) (Сербин Юрий)","Авторский (одноголосый закадровый) (Живов Юрий)","Original (English)","Профессиональный (многоголосый закадровый)"],"quality":"dvdrip","translation":"Профессиональный (многоголосый закадровый)","update":"2021-08-13 07:27:17","iframe_src":"//8422.svetacdn.in/71tsRs29n5tZ/movie/10072"},{"id":5439,"title":"Любой ценой","kp_id":"726794","imdb_id":"tt2582782","world_art_id":null,"type":"movie","add":"2016-09-22 07:20:40","orig_title":"Hell or High Water","year":"2016-05-16","translations":["Полное дублирование (iTunes)","Полное дублирование","Авторский (одноголосый закадровый) (Гоблин | Пучков Дмитрий)","Авторский (одноголосый закадровый) (Гаврилов Андрей)","Авторский (одноголосый закадровый) (Гоблин | Пучков Дмитрий)","Авторский (одноголосый закадровый) (Матвеев Алексей | Doctor Joker)","Авторский (одноголосый закадровый) (Назаров Вадим)","Авторский (одноголосый закадровый) (Немахов Юрий)","Полное дублирование","Original (English)"],"quality":"webdl","translation":"Полное дублирование (iTunes)","update":"2021-08-13 08:04:16","iframe_src":"//8422.svetacdn.in/71tsRs29n5tZ/movie/5439"},{"id":1720,"title":"Наемные убийцы","kp_id":"4047","imdb_id":"tt0112401","world_art_id":null,"type":"movie","add":"2016-04-29 10:43:27","orig_title":"Assassins","year":"1995-10-06","translations":["Полное дублирование","Original (English)","Профессиональный (многоголосый закадровый) (НТВ)","Авторский (одноголосый закадровый) (Гаврилов Андрей)","Авторский (одноголосый закадровый) (Визгунов Сергей)","Авторский (одноголосый закадровый) (Живов Юрий)","Полное дублирование (Варус-Видео)","Original (English)","Профессиональный (одноголосый закадровый) (диктор CDV)"],"quality":"bd","translation":"Полное дублирование","update":"2021-08-13 07:21:46","iframe_src":"//8422.svetacdn.in/71tsRs29n5tZ/movie/1720"},{"id":660,"title":"Время","kp_id":"517988","imdb_id":"tt1637688","world_art_id":null,"type":"movie","add":"2016-04-05 19:48:36","orig_title":"In Time","year":"2011-09-30","translations":["Авторский (одноголосый закадровый) (Гаврилов Андрей)","Авторский (одноголосый закадровый) (Сербин Юрий)","Полное дублирование","Original (English)"],"quality":"bd","translation":"Авторский (одноголосый закадровый) (Гаврилов Андрей)","update":"2021-08-13 07:32:46","iframe_src":"//8422.svetacdn.in/71tsRs29n5tZ/movie/660"}],"current_page":187,"first_page_url":"https://videocdn.tv/api/short?limit=100&api_token=EnbO9h8pv1VyjbCJhg0WM9nG259n7mtz&cache3187=3187&page=1","from":18601,"last_page":680,"last_page_url":"https://videocdn.tv/api/short?limit=100&api_token=EnbO9h8pv1VyjbCJhg0WM9nG259n7mtz&cache3187=3187&page=680","next_page_url":"https://videocdn.tv/api/short?limit=100&api_token=EnbO9h8pv1VyjbCJhg0WM9nG259n7mtz&cache3187=3187&page=188","path":"https://videocdn.tv/api/short","per_page":100,"prev_page_url":"https://videocdn.tv/api/short?limit=100&api_token=EnbO9h8pv1VyjbCJhg0WM9nG259n7mtz&cache3187=3187&page=186","to":18640,"total":67969}