{"result":true,"data":[{"id":44598,"title":"Великий иллюзионист","kp_id":"1416874","imdb_id":"tt12839498","world_art_id":null,"type":"movie","add":"2020-10-19 17:25:38","orig_title":"The Great Illusionist","year":"2020-08-07","translations":["Любительский (двухголосый закадровый) (Колобок)"],"quality":"webdl","translation":"Любительский (двухголосый закадровый) (Колобок)","update":"2020-10-20 06:12:09","iframe_src":"//7923.svetacdn.in/si4jsFRrtgrT/movie/44598"},{"id":44570,"title":"Искупление Клэя","kp_id":"1185201","imdb_id":"tt8894442","world_art_id":null,"type":"movie","add":"2020-10-19 12:52:26","orig_title":"Clay's Redemption","year":"2020-09-17","translations":["Любительский (многоголосый закадровый) (@MUZOBOZ@)"],"quality":"webdl","translation":"Любительский (многоголосый закадровый) (@MUZOBOZ@)","update":"2020-10-19 21:20:25","iframe_src":"//7923.svetacdn.in/si4jsFRrtgrT/movie/44570"},{"id":44545,"title":"Руководство по выживанию","kp_id":"1341147","imdb_id":"tt11594696","world_art_id":null,"type":"movie","add":"2020-10-18 09:14:16","orig_title":"Survival Guide","year":"2020-10-01","translations":["Любительский (многоголосый закадровый) (Синема УС)"],"quality":"webdl","translation":"Любительский (многоголосый закадровый) (Синема УС)","update":"2020-10-18 18:47:30","iframe_src":"//7923.svetacdn.in/si4jsFRrtgrT/movie/44545"},{"id":44460,"title":"Рози","kp_id":"734205","imdb_id":"tt2661578","world_art_id":null,"type":"movie","add":"2020-10-15 16:08:02","orig_title":"Rosie","year":"2013-01-24","translations":["Любительский (одноголосый закадровый)"],"quality":"dvdrip","translation":"Любительский (одноголосый закадровый)","update":"2020-10-19 11:49:39","iframe_src":"//7923.svetacdn.in/si4jsFRrtgrT/movie/44460"},{"id":44459,"title":"Сердце мамы","kp_id":"156880","imdb_id":"tt0195621","world_art_id":null,"type":"movie","add":"2020-10-15 15:26:55","orig_title":"Cuore di mamma","year":"1969-02-08","translations":["Авторский (одноголосый закадровый) (Штейн Владимир)"],"quality":"dvdrip","translation":"Авторский (одноголосый закадровый) (Штейн Владимир)","update":"2020-10-18 21:49:10","iframe_src":"//7923.svetacdn.in/si4jsFRrtgrT/movie/44459"},{"id":44457,"title":"Наш ребенок","kp_id":"1074678","imdb_id":"tt7477236","world_art_id":null,"type":"movie","add":"2020-10-15 08:54:43","orig_title":"Unser Kind","year":"2018-10-08","translations":["Любительский (многоголосый закадровый) (Синема УС)"],"quality":"webdl","translation":"Любительский (многоголосый закадровый) (Синема УС)","update":"2020-10-19 13:54:07","iframe_src":"//7923.svetacdn.in/si4jsFRrtgrT/movie/44457"},{"id":44454,"title":"Юлиуш","kp_id":"1172219","imdb_id":"tt8657824","world_art_id":null,"type":"movie","add":"2020-10-15 07:56:50","orig_title":"Juliusz","year":"2018-09-14","translations":["Любительский (многоголосый закадровый) (AlphaProject)"],"quality":"webdl","translation":"Любительский (многоголосый закадровый) (AlphaProject)","update":"2020-10-19 13:54:36","iframe_src":"//7923.svetacdn.in/si4jsFRrtgrT/movie/44454"},{"id":44453,"title":"Я тебя найду","kp_id":"1165993","imdb_id":"tt8612792","world_art_id":null,"type":"movie","add":"2020-10-15 07:53:41","orig_title":"Odnajde cie","year":"2018-06-22","translations":["Любительский (многоголосый закадровый) (Синема УС)"],"quality":"webdl","translation":"Любительский (многоголосый закадровый) (Синема УС)","update":"2020-10-19 13:55:15","iframe_src":"//7923.svetacdn.in/si4jsFRrtgrT/movie/44453"},{"id":44452,"title":"Карьеристка","kp_id":"1098205","imdb_id":"tt7555552","world_art_id":null,"type":"movie","add":"2020-10-15 07:50:56","orig_title":"Kobieta sukcesu","year":"2018-03-15","translations":["Любительский (многоголосый закадровый) (AlphaProject)"],"quality":"webdl","translation":"Любительский (многоголосый закадровый) (AlphaProject)","update":"2020-10-19 13:53:23","iframe_src":"//7923.svetacdn.in/si4jsFRrtgrT/movie/44452"},{"id":44435,"title":"Нэмури Кёсиро 12: Дворцовый зверинец","kp_id":"164781","imdb_id":"tt0148931","world_art_id":null,"type":"movie","add":"2020-10-14 17:40:50","orig_title":"Nemuri Kyôshirô: Akujo-gari","year":"1969-01-11","translations":["Авторский (одноголосый закадровый) (Кузнецов Сергей)"],"quality":"dvdrip","translation":"Авторский (одноголосый закадровый) (Кузнецов Сергей)","update":"2020-10-18 21:51:49","iframe_src":"//7923.svetacdn.in/si4jsFRrtgrT/movie/44435"},{"id":44434,"title":"Нэмури Кёсиро 11: Человек-тарантул","kp_id":"164783","imdb_id":"tt0148934","world_art_id":null,"type":"movie","add":"2020-10-14 17:37:39","orig_title":"Nemuri Kyôshirô: Hitohada gumo","year":"1968-05-01","translations":["Авторский (одноголосый закадровый) (Кузнецов Сергей)"],"quality":"dvdrip","translation":"Авторский (одноголосый закадровый) (Кузнецов Сергей)","update":"2020-10-18 21:52:41","iframe_src":"//7923.svetacdn.in/si4jsFRrtgrT/movie/44434"},{"id":44433,"title":"Нэмури Кёсиро 10: Самурай по имени Нэмури","kp_id":"164784","imdb_id":"tt0148933","world_art_id":null,"type":"movie","add":"2020-10-14 17:33:02","orig_title":"Nemuri Kyôshirô: Onna jigoku","year":"1968-01-13","translations":["Авторский (одноголосый закадровый) (Кузнецов Сергей)"],"quality":"dvdrip","translation":"Авторский (одноголосый закадровый) (Кузнецов Сергей)","update":"2020-10-18 21:55:38","iframe_src":"//7923.svetacdn.in/si4jsFRrtgrT/movie/44433"},{"id":44432,"title":"Нэмури Кёсиро 9: Тропа, полная ловушек","kp_id":"164685","imdb_id":"tt0148930","world_art_id":null,"type":"movie","add":"2020-10-14 16:51:39","orig_title":"Nemuri Kyôshirô burai-hikae: Mashô no hada","year":"1967-07-15","translations":["Авторский (одноголосый закадровый) (Кузнецов Сергей)"],"quality":"dvdrip","translation":"Авторский (одноголосый закадровый) (Кузнецов Сергей)","update":"2020-10-18 21:54:39","iframe_src":"//7923.svetacdn.in/si4jsFRrtgrT/movie/44432"},{"id":44431,"title":"Нэмури Кёсиро 8: Меч, спасший Эдо","kp_id":"164785","imdb_id":"tt0123187","world_art_id":null,"type":"movie","add":"2020-10-14 16:46:53","orig_title":"Nemuri Kyôshirô: Buraiken","year":"1966-11-09","translations":["Авторский (одноголосый закадровый) (Кузнецов Сергей)"],"quality":"dvdrip","translation":"Авторский (одноголосый закадровый) (Кузнецов Сергей)","update":"2020-10-18 21:53:43","iframe_src":"//7923.svetacdn.in/si4jsFRrtgrT/movie/44431"},{"id":44332,"title":"Прощай, полицейский","kp_id":"94434","imdb_id":"tt0072603","world_art_id":null,"type":"movie","add":"2020-10-12 08:54:33","orig_title":"Adieu poulet","year":"1975-12-10","translations":["Профессиональный (многоголосый закадровый) (5-й канал СПб)","Полное дублирование (Киностудия им. Горького)"],"quality":"bd","translation":"Профессиональный (многоголосый закадровый) (5-й канал СПб)","update":"2020-10-19 11:46:27","iframe_src":"//7923.svetacdn.in/si4jsFRrtgrT/movie/44332"},{"id":44325,"title":"Queen: Дни наших жизней","kp_id":"624506","imdb_id":"tt1977894","world_art_id":null,"type":"movie","add":"2020-10-11 23:34:37","orig_title":"Queen: Days of Our Lives","year":"2011-05-29","translations":["Профессиональный (многоголосый закадровый)"],"quality":"bd","translation":"Профессиональный (многоголосый закадровый)","update":"2020-10-19 11:54:16","iframe_src":"//7923.svetacdn.in/si4jsFRrtgrT/movie/44325"},{"id":42653,"title":"За призрачной дверью","kp_id":"1242644","imdb_id":"tt9178402","world_art_id":null,"type":"movie","add":"2020-08-21 20:14:26","orig_title":"The Pale Door","year":"2020-08-21","translations":["Любительский (многоголосый закадровый) (@MUZOBOZ@)","Original (English)","Полное дублирование (iTunes)"],"quality":"webdl","translation":"Любительский (многоголосый закадровый) (@MUZOBOZ@)","update":"2020-10-20 06:10:06","iframe_src":"//7923.svetacdn.in/si4jsFRrtgrT/movie/42653"},{"id":41703,"title":"Грейхаунд","kp_id":"1055194","imdb_id":"tt6048922","world_art_id":null,"type":"movie","add":"2020-07-10 11:31:40","orig_title":"Greyhound","year":"2020-07-10","translations":["Любительский (многоголосый закадровый) (AlphaProject)","Original (English)","Профессиональный (многоголосый закадровый) (HDrezka Studio)","Профессиональный (многоголосый закадровый) (HDrezka Studio)","Полное дублирование"],"quality":"webdl","translation":"Любительский (многоголосый закадровый) (AlphaProject)","update":"2020-10-18 20:22:06","iframe_src":"//7923.svetacdn.in/si4jsFRrtgrT/movie/41703"},{"id":41583,"title":"Форпост","kp_id":"1163442","imdb_id":"tt3833480","world_art_id":null,"type":"movie","add":"2020-07-03 20:54:42","orig_title":"The Outpost","year":"2020-07-03","translations":["Любительский (многоголосый закадровый) (@MUZOBOZ@)","Профессиональный (многоголосый закадровый) (HDrezka Studio)","Original (English)","Профессиональный (многоголосый закадровый) (HDrezka Studio)","Профессиональный (многоголосый закадровый) (HDrezka Studio)","Полное дублирование (iTunes)"],"quality":"webdl","translation":"Любительский (многоголосый закадровый) (@MUZOBOZ@)","update":"2020-10-19 06:08:38","iframe_src":"//7923.svetacdn.in/si4jsFRrtgrT/movie/41583"},{"id":39806,"title":"Время охоты","kp_id":"1108664","imdb_id":"tt11777040","world_art_id":null,"type":"movie","add":"2020-04-25 03:32:50","orig_title":"Sanyangeui sigan","year":"2020-02-22","translations":["Любительский (многоголосый закадровый) (@MUZOBOZ@)","Любительский (двухголосый закадровый) (RealFake)","Любительский (двухголосый закадровый)"],"quality":"webdl","translation":"Любительский (многоголосый закадровый) (@MUZOBOZ@)","update":"2020-10-20 06:08:17","iframe_src":"//7923.svetacdn.in/si4jsFRrtgrT/movie/39806"},{"id":948,"title":"Время дочерей","kp_id":"957351","imdb_id":null,"world_art_id":null,"type":"serial","add":"2017-01-26 05:37:26","orig_title":"Время дочерей","year":"2016-01-11","translations":["Оригинальная дорожка"],"seasons_count":1,"episodes_count":8,"episodes":8,"update":"2017-01-26 09:57:35","iframe_src":"//7923.svetacdn.in/si4jsFRrtgrT/tv-series/948"},{"id":947,"title":"Скалолазка","kp_id":"957463","imdb_id":null,"world_art_id":null,"type":"serial","add":"2017-01-26 05:33:19","orig_title":"Скалолазка","year":"2015-12-18","translations":["Оригинальная дорожка"],"seasons_count":1,"episodes_count":8,"episodes":8,"update":"2017-01-26 09:41:54","iframe_src":"//7923.svetacdn.in/si4jsFRrtgrT/tv-series/947"},{"id":942,"title":"Спросите у осени","kp_id":"957889","imdb_id":null,"world_art_id":null,"type":"serial","add":"2017-01-25 06:39:40","orig_title":"Спросите у осени","year":"2015-02-16","translations":["Оригинальная дорожка"],"seasons_count":1,"episodes_count":60,"episodes":60,"update":"2017-01-26 06:03:30","iframe_src":"//7923.svetacdn.in/si4jsFRrtgrT/tv-series/942"},{"id":941,"title":"Морские дьяволы. Смерч 3","kp_id":"924359","imdb_id":null,"world_art_id":null,"type":"serial","add":"2017-01-25 05:56:59","orig_title":"Морские дьяволы. Смерч 3","year":"2016-03-14","translations":["Оригинальная дорожка"],"seasons_count":1,"episodes_count":32,"episodes":32,"update":"2017-01-25 14:36:33","iframe_src":"//7923.svetacdn.in/si4jsFRrtgrT/tv-series/941"},{"id":940,"title":"Сережка Казановы","kp_id":"968482","imdb_id":null,"world_art_id":null,"type":"serial","add":"2017-01-25 05:51:27","orig_title":"Сережка Казановы","year":"2016-03-26","translations":["Оригинальная дорожка"],"seasons_count":1,"episodes_count":4,"episodes":4,"update":"2017-01-25 20:01:32","iframe_src":"//7923.svetacdn.in/si4jsFRrtgrT/tv-series/940"},{"id":939,"title":"Ненавижу","kp_id":"971164","imdb_id":null,"world_art_id":null,"type":"serial","add":"2017-01-25 04:50:29","orig_title":"Ненавижу","year":"2016-04-16","translations":["Оригинальная дорожка"],"seasons_count":1,"episodes_count":2,"episodes":2,"update":"2017-01-25 10:00:07","iframe_src":"//7923.svetacdn.in/si4jsFRrtgrT/tv-series/939"},{"id":936,"title":"Бедные люди","kp_id":"945388","imdb_id":"tt6258782","world_art_id":null,"type":"serial","add":"2017-01-24 14:02:18","orig_title":"Bednye Ludi","year":"2016-04-11","translations":["Оригинальная дорожка"],"seasons_count":1,"episodes_count":17,"episodes":17,"update":"2017-01-26 09:26:22","iframe_src":"//7923.svetacdn.in/si4jsFRrtgrT/tv-series/936"},{"id":935,"title":"По секрету всему свету","kp_id":"910095","imdb_id":null,"world_art_id":null,"type":"serial","add":"2017-01-24 13:16:41","orig_title":"По секрету всему свету","year":"2015-05-30","translations":["Оригинальная дорожка"],"seasons_count":1,"episodes_count":1,"episodes":1,"update":"2017-01-26 08:21:43","iframe_src":"//7923.svetacdn.in/si4jsFRrtgrT/tv-series/935"},{"id":931,"title":"Всем всего хорошего","kp_id":"973705","imdb_id":null,"world_art_id":null,"type":"serial","add":"2017-01-24 04:44:00","orig_title":"Всем всего хорошего","year":"2016-05-17","translations":["Оригинальная дорожка"],"seasons_count":1,"episodes_count":2,"episodes":2,"update":"2017-01-24 05:11:29","iframe_src":"//7923.svetacdn.in/si4jsFRrtgrT/tv-series/931"},{"id":930,"title":"Секс, наркотики и рок-н-ролл","kp_id":"839102","imdb_id":"tt3594982","world_art_id":null,"type":"serial","add":"2017-01-23 12:06:28","orig_title":"Sex&Drugs&Rock&Roll","year":"2015-07-16","translations":["Профессиональный (многоголосый закадровый) (NewStudio)"],"seasons_count":2,"episodes_count":20,"episodes":10,"update":"2017-01-24 09:06:05","iframe_src":"//7923.svetacdn.in/si4jsFRrtgrT/tv-series/930"},{"id":929,"title":"Неподкупный","kp_id":"929797","imdb_id":"tt5084526","world_art_id":null,"type":"serial","add":"2017-01-23 11:19:49","orig_title":"Nepodkupniy","year":"2015-09-07","translations":["Оригинальная дорожка"],"seasons_count":1,"episodes_count":16,"episodes":16,"update":"2017-01-24 06:07:16","iframe_src":"//7923.svetacdn.in/si4jsFRrtgrT/tv-series/929"},{"id":928,"title":"Алмазы Сталина","kp_id":"962364","imdb_id":null,"world_art_id":null,"type":"serial","add":"2017-01-23 08:21:01","orig_title":"Алмазы Сталина","year":"2016-01-01","translations":["Оригинальная дорожка"],"seasons_count":1,"episodes_count":4,"episodes":4,"update":"2017-01-24 05:08:09","iframe_src":"//7923.svetacdn.in/si4jsFRrtgrT/tv-series/928"},{"id":927,"title":"Солнце в подарок","kp_id":"944835","imdb_id":null,"world_art_id":null,"type":"serial","add":"2017-01-23 06:42:25","orig_title":"Солнце в подарок","year":"2016-02-01","translations":["Оригинальная дорожка"],"seasons_count":1,"episodes_count":20,"episodes":20,"update":"2017-01-24 10:10:24","iframe_src":"//7923.svetacdn.in/si4jsFRrtgrT/tv-series/927"},{"id":926,"title":"Следователь Тихонов","kp_id":"841288","imdb_id":"tt6318446","world_art_id":null,"type":"serial","add":"2017-01-23 06:34:17","orig_title":"Sledovatel Tikhonov","year":"2016-04-11","translations":["Оригинальная дорожка"],"seasons_count":1,"episodes_count":20,"episodes":20,"update":"2017-01-23 11:20:37","iframe_src":"//7923.svetacdn.in/si4jsFRrtgrT/tv-series/926"},{"id":925,"title":"Запах лаванды","kp_id":"976655","imdb_id":null,"world_art_id":null,"type":"serial","add":"2017-01-23 06:30:29","orig_title":"Запах лаванды","year":"2016-05-21","translations":["Оригинальная дорожка"],"seasons_count":1,"episodes_count":2,"episodes":2,"update":"2017-01-23 10:43:20","iframe_src":"//7923.svetacdn.in/si4jsFRrtgrT/tv-series/925"},{"id":919,"title":"Любовницы","kp_id":"674032","imdb_id":"tt2295809","world_art_id":null,"type":"serial","add":"2017-01-22 17:04:42","orig_title":"Mistresses","year":"2013-03-05","translations":[],"seasons_count":4,"episodes_count":52,"episodes":13,"update":"2017-01-23 11:15:57","iframe_src":"//7923.svetacdn.in/si4jsFRrtgrT/tv-series/919"},{"id":918,"title":"Тутанхамон","kp_id":"947821","imdb_id":"tt5193662","world_art_id":null,"type":"serial","add":"2017-01-21 13:50:35","orig_title":"Tutankhamun","year":"2016-10-16","translations":["Любительский (двухголосый закадровый) (Levelin)"],"seasons_count":1,"episodes_count":4,"episodes":4,"update":"2017-01-23 15:45:04","iframe_src":"//7923.svetacdn.in/si4jsFRrtgrT/tv-series/918"},{"id":901,"title":"Клуб самоубийц, или Приключения титулованной особы","kp_id":"81474","imdb_id":"tt0079750","world_art_id":null,"type":"serial","add":"2017-01-19 07:17:54","orig_title":"Priklyucheniya printsa Florizelya","year":"1981-01-12","translations":["Оригинальная дорожка"],"seasons_count":1,"episodes_count":3,"episodes":3,"update":"2017-01-23 11:38:37","iframe_src":"//7923.svetacdn.in/si4jsFRrtgrT/tv-series/901"},{"id":867,"title":"Саша добрый, Саша злой","kp_id":"963351","imdb_id":null,"world_art_id":null,"type":"serial","add":"2017-01-12 07:09:10","orig_title":"Саша добрый, Саша злой","year":"2017-01-09","translations":["Оригинальная дорожка"],"seasons_count":1,"episodes_count":20,"episodes":20,"update":"2017-01-23 17:09:35","iframe_src":"//7923.svetacdn.in/si4jsFRrtgrT/tv-series/867"},{"id":25,"title":"Полицейский с Рублёвки","kp_id":"913033","imdb_id":null,"world_art_id":null,"type":"serial","add":"2016-03-23 13:17:39","orig_title":"Полицейский с Рублёвки","year":"2016-03-21","translations":["Оригинальная дорожка"],"seasons_count":1,"episodes_count":8,"episodes":8,"update":"2017-01-25 10:19:31","iframe_src":"//7923.svetacdn.in/si4jsFRrtgrT/tv-series/25"}],"current_page":517,"first_page_url":"https://videocdn.tv/api/short?limit=100&api_token=X6EwAUfE5M9xbo7y0Bp0aPf3uXxG2KLL&cache3517=3517&page=1","from":51601,"last_page":642,"last_page_url":"https://videocdn.tv/api/short?limit=100&api_token=X6EwAUfE5M9xbo7y0Bp0aPf3uXxG2KLL&cache3517=3517&page=642","next_page_url":"https://videocdn.tv/api/short?limit=100&api_token=X6EwAUfE5M9xbo7y0Bp0aPf3uXxG2KLL&cache3517=3517&page=518","path":"https://videocdn.tv/api/short","per_page":100,"prev_page_url":"https://videocdn.tv/api/short?limit=100&api_token=X6EwAUfE5M9xbo7y0Bp0aPf3uXxG2KLL&cache3517=3517&page=516","to":51640,"total":64195}