{"result":true,"data":[{"id":40868,"title":"Слава героям","kp_id":null,"imdb_id":"tt11599272","world_art_id":null,"type":"movie","add":"2020-06-01 22:39:50","orig_title":"Tribute to Heroes","year":"2020-01-10","translations":["Любительский (двухголосый закадровый) (Колобок)"],"quality":"webdl","translation":"Любительский (двухголосый закадровый) (Колобок)","update":"2020-06-02 07:22:00","iframe_src":"//83.svetacdn.in/PfJ50H0ZBPg3/movie/40868"},{"id":40866,"title":"Пан Т","kp_id":"1245658","imdb_id":"tt9856606","world_art_id":null,"type":"movie","add":"2020-06-01 19:17:56","orig_title":"Pan T.","year":"2019-09-17","translations":["Любительский (многоголосый закадровый) (AlphaProject)"],"quality":"bd","translation":"Любительский (многоголосый закадровый) (AlphaProject)","update":"2020-06-02 07:44:02","iframe_src":"//83.svetacdn.in/PfJ50H0ZBPg3/movie/40866"},{"id":40860,"title":"Амин","kp_id":"1060822","imdb_id":"tt7434928","world_art_id":null,"type":"movie","add":"2020-06-01 18:21:19","orig_title":"Amin","year":"2018-05-15","translations":["Любительский (многоголосый закадровый) (Синема УС)"],"quality":"webdl","translation":"Любительский (многоголосый закадровый) (Синема УС)","update":"2020-06-02 07:43:27","iframe_src":"//83.svetacdn.in/PfJ50H0ZBPg3/movie/40860"},{"id":40856,"title":"Дядя Венки","kp_id":"1229085","imdb_id":"tt9564774","world_art_id":null,"type":"movie","add":"2020-06-01 18:15:47","orig_title":"Venky Mama","year":"2019-12-12","translations":["Любительский (многоголосый закадровый) (Синема УС)"],"quality":"webdl","translation":"Любительский (многоголосый закадровый) (Синема УС)","update":"2020-06-02 07:43:03","iframe_src":"//83.svetacdn.in/PfJ50H0ZBPg3/movie/40856"},{"id":40855,"title":"Парни в Майами","kp_id":"1273764","imdb_id":"tt10375272","world_art_id":null,"type":"movie","add":"2020-06-01 18:14:26","orig_title":"Onze Jongens in Miami","year":"2020-01-30","translations":["Любительский (многоголосый закадровый) (Синема УС)"],"quality":"bd","translation":"Любительский (многоголосый закадровый) (Синема УС)","update":"2020-06-02 07:42:08","iframe_src":"//83.svetacdn.in/PfJ50H0ZBPg3/movie/40855"},{"id":40854,"title":"Молитва во имя Бога","kp_id":"1229239","imdb_id":"tt9584814","world_art_id":null,"type":"movie","add":"2020-06-01 18:13:38","orig_title":"Gloria Mundi","year":"2019-09-05","translations":["Любительский (многоголосый закадровый) (Синема УС)"],"quality":"webdl","translation":"Любительский (многоголосый закадровый) (Синема УС)","update":"2020-06-02 07:41:25","iframe_src":"//83.svetacdn.in/PfJ50H0ZBPg3/movie/40854"},{"id":40853,"title":"Сезон любви","kp_id":"1255678","imdb_id":"tt9887520","world_art_id":null,"type":"movie","add":"2020-06-01 18:12:28","orig_title":"Season of Love","year":"2019-11-30","translations":["Любительский (многоголосый закадровый) (AlphaProject)"],"quality":"webdl","translation":"Любительский (многоголосый закадровый) (AlphaProject)","update":"2020-06-02 07:42:37","iframe_src":"//83.svetacdn.in/PfJ50H0ZBPg3/movie/40853"},{"id":40837,"title":"Чемпион судьбы","kp_id":"433273","imdb_id":"tt0084436","world_art_id":null,"type":"movie","add":"2020-05-31 19:52:54","orig_title":"Quan ji xiao ji","year":"1982-01-01","translations":["Любительский (одноголосый закадровый) (Береговых Виктор | Jet)"],"quality":"webdl","translation":"Любительский (одноголосый закадровый) (Береговых Виктор | Jet)","update":"2020-06-02 07:18:46","iframe_src":"//83.svetacdn.in/PfJ50H0ZBPg3/movie/40837"},{"id":40836,"title":"5 супербойцов","kp_id":"57381","imdb_id":"tt0077558","world_art_id":null,"type":"movie","add":"2020-05-31 19:39:35","orig_title":"Tang shan wu hu","year":"1979-09-01","translations":["Авторский (одноголосый закадровый) (Кузнецов Сергей)"],"quality":"webdl","translation":"Авторский (одноголосый закадровый) (Кузнецов Сергей)","update":"2020-06-02 07:16:50","iframe_src":"//83.svetacdn.in/PfJ50H0ZBPg3/movie/40836"},{"id":40835,"title":"Мэгги","kp_id":"1216636","imdb_id":"tt9000062","world_art_id":null,"type":"movie","add":"2020-05-31 19:15:01","orig_title":"Maggie","year":"2018-10-07","translations":["Любительский (двухголосый закадровый) (RealFake)"],"quality":"webdl","translation":"Любительский (двухголосый закадровый) (RealFake)","update":"2020-06-02 07:11:51","iframe_src":"//83.svetacdn.in/PfJ50H0ZBPg3/movie/40835"},{"id":40834,"title":"Ах! Подруга...","kp_id":"224795","imdb_id":"tt0354922","world_art_id":null,"type":"movie","add":"2020-05-31 18:15:19","orig_title":"Snegithiye","year":"2000-04-14","translations":["Любительский (двухголосый закадровый) (DeadSno & den904)"],"quality":"dvdrip","translation":"Любительский (двухголосый закадровый) (DeadSno & den904)","update":"2020-06-02 07:00:54","iframe_src":"//83.svetacdn.in/PfJ50H0ZBPg3/movie/40834"},{"id":35078,"title":"Обезьянье кунг-фу","kp_id":"231954","imdb_id":"tt0078969","world_art_id":null,"type":"movie","add":"2020-01-15 19:15:11","orig_title":"Chu long ma liu","year":"1979-05-05","translations":["Профессиональный (многоголосый закадровый)","Авторский (одноголосый закадровый) (Кузнецов Сергей)"],"quality":"dvdrip","translation":"Профессиональный (многоголосый закадровый)","update":"2020-06-02 07:04:58","iframe_src":"//83.svetacdn.in/PfJ50H0ZBPg3/movie/35078"},{"id":30055,"title":"Нападение людей-грибов","kp_id":"93489","imdb_id":"tt0057295","world_art_id":null,"type":"movie","add":"2019-08-16 16:58:46","orig_title":"Matango","year":"1963-08-11","translations":["Любительский (одноголосый закадровый)","Любительский (одноголосый закадровый)"],"quality":"dvdrip","translation":"Любительский (одноголосый закадровый)","update":"2020-06-02 07:07:06","iframe_src":"//83.svetacdn.in/PfJ50H0ZBPg3/movie/30055"},{"id":25398,"title":"Память осени","kp_id":"893960","imdb_id":"tt5206268","world_art_id":null,"type":"movie","add":"2019-04-26 16:06:39","orig_title":"Pamyat oseni","year":"2016-03-08","translations":["Оригинальная дорожка"],"quality":"webdl","translation":"Оригинальная дорожка","update":"2020-06-02 07:38:36","iframe_src":"//83.svetacdn.in/PfJ50H0ZBPg3/movie/25398"},{"id":23080,"title":"Воздушная кукуруза и малиновое мороженое","kp_id":"56657","imdb_id":"tt0078102","world_art_id":null,"type":"movie","add":"2019-03-14 23:08:22","orig_title":"Popcorn und Himbeereis","year":"1978-10-06","translations":["Профессиональный (одноголосый закадровый)","Любительский (одноголосый закадровый) (Никитин)"],"quality":"dvdrip","translation":"Профессиональный (одноголосый закадровый)","update":"2020-06-02 07:30:34","iframe_src":"//83.svetacdn.in/PfJ50H0ZBPg3/movie/23080"},{"id":22550,"title":"Служанка","kp_id":"149296","imdb_id":"tt0150980","world_art_id":null,"type":"movie","add":"2019-02-26 16:20:34","orig_title":"Hanyo","year":"1960-11-03","translations":["Любительский (одноголосый закадровый) (liosaa)","Любительский (одноголосый закадровый) (liosaa)"],"quality":"dvdrip","translation":"Любительский (одноголосый закадровый) (liosaa)","update":"2020-06-02 07:15:41","iframe_src":"//83.svetacdn.in/PfJ50H0ZBPg3/movie/22550"},{"id":13940,"title":"Нож в воде","kp_id":"969577","imdb_id":"tt5108912","world_art_id":null,"type":"movie","add":"2017-10-22 19:11:47","orig_title":"Oboreru naifu","year":"2016-11-05","translations":["Любительский (многоголосый закадровый) (XDUB Dorama)","Любительский (двухголосый закадровый) (STEPonee)","Любительский (многоголосый закадровый) (XDUB Dorama)"],"quality":"webdl","translation":"Любительский (многоголосый закадровый) (XDUB Dorama)","update":"2020-06-02 07:17:50","iframe_src":"//83.svetacdn.in/PfJ50H0ZBPg3/movie/13940"},{"id":12568,"title":"Путешествие на Запад","kp_id":"606731","imdb_id":"tt2017561","world_art_id":null,"type":"movie","add":"2017-07-19 13:31:31","orig_title":"Xi you: Xiang mo pian","year":"2013-02-02","translations":["Любительский (двухголосый закадровый) (GREEN TEA)","Любительский (двухголосый закадровый) (GREEN TEA)"],"quality":"bd","translation":"Любительский (двухголосый закадровый) (GREEN TEA)","update":"2020-06-02 07:14:50","iframe_src":"//83.svetacdn.in/PfJ50H0ZBPg3/movie/12568"},{"id":11208,"title":"Победители и грешники","kp_id":"24717","imdb_id":"tt0086605","world_art_id":null,"type":"movie","add":"2017-04-25 12:47:36","orig_title":"Qi mou miao ji: Wu fu xing","year":"1983-07-07","translations":["Профессиональный (двухголосый закадровый)","Профессиональный (многоголосый закадровый) (ДТВ)"],"quality":"bd","translation":"Профессиональный (двухголосый закадровый)","update":"2020-06-02 07:02:17","iframe_src":"//83.svetacdn.in/PfJ50H0ZBPg3/movie/11208"},{"id":10501,"title":"Трон в крови","kp_id":"8386","imdb_id":"tt0050613","world_art_id":null,"type":"movie","add":"2017-03-23 21:21:51","orig_title":"Kumonosu-jô","year":"1957-09-08","translations":["Профессиональный (многоголосый закадровый)","Авторский (одноголосый закадровый) (Сербин Юрий)"],"quality":"bd","translation":"Профессиональный (многоголосый закадровый)","update":"2020-06-02 07:20:32","iframe_src":"//83.svetacdn.in/PfJ50H0ZBPg3/movie/10501"}],"current_page":708,"first_page_url":"https://videocdn.tv/api/short?limit=100&api_token=RgFQdUIR2dRmwv8iYa5SnFNgnw3vpjKj&cache3708=3708&page=1","from":70701,"last_page":642,"last_page_url":"https://videocdn.tv/api/short?limit=100&api_token=RgFQdUIR2dRmwv8iYa5SnFNgnw3vpjKj&cache3708=3708&page=642","next_page_url":null,"path":"https://videocdn.tv/api/short","per_page":100,"prev_page_url":"https://videocdn.tv/api/short?limit=100&api_token=RgFQdUIR2dRmwv8iYa5SnFNgnw3vpjKj&cache3708=3708&page=707","to":70720,"total":64126}