{"result":true,"data":[{"id":48583,"title":"Четверть часа по-американски","kp_id":"55086","imdb_id":"tt0087964","world_art_id":null,"type":"movie","add":"2021-03-09 15:10:01","orig_title":"Le quart d'heure américain","year":"1982-11-03","translations":["Профессиональный (многоголосый закадровый)"],"quality":"bd","translation":"Профессиональный (многоголосый закадровый)","update":"2021-03-10 06:21:59","iframe_src":"//5322.svetacdn.in/si4jsFRrtgrT/movie/48583"},{"id":48580,"title":"Дорога домой","kp_id":"1437862","imdb_id":null,"world_art_id":null,"type":"movie","add":"2021-03-09 10:39:21","orig_title":"Дорога домой","year":"2020-01-01","translations":["Оригинальная дорожка"],"quality":"webdl","translation":"Оригинальная дорожка","update":"2021-03-09 16:29:19","iframe_src":"//5322.svetacdn.in/si4jsFRrtgrT/movie/48580"},{"id":48548,"title":"Встреча","kp_id":"1358659","imdb_id":"tt10465232","world_art_id":null,"type":"movie","add":"2021-03-08 09:46:16","orig_title":"Rendez-vous","year":"2019-11-03","translations":["Любительский (многоголосый закадровый) (Синема УС)"],"quality":"webdl","translation":"Любительский (многоголосый закадровый) (Синема УС)","update":"2021-03-10 10:58:41","iframe_src":"//5322.svetacdn.in/si4jsFRrtgrT/movie/48548"},{"id":48510,"title":"Переход","kp_id":"634206","imdb_id":"tt11980074","world_art_id":null,"type":"movie","add":"2021-03-06 21:14:30","orig_title":"Perekhod","year":"1940-07-15","translations":["Оригинальная дорожка"],"quality":"webdl","translation":"Оригинальная дорожка","update":"2021-03-09 15:47:23","iframe_src":"//5322.svetacdn.in/si4jsFRrtgrT/movie/48510"},{"id":48508,"title":"Фронт в отчем доме","kp_id":"654828","imdb_id":"tt2396497","world_art_id":null,"type":"movie","add":"2021-03-06 20:54:13","orig_title":"Fronte teva pagalma","year":"1984-01-01","translations":["Полное дублирование"],"quality":"sat","translation":"Полное дублирование","update":"2021-03-09 15:47:22","iframe_src":"//5322.svetacdn.in/si4jsFRrtgrT/movie/48508"},{"id":48507,"title":"Цыган","kp_id":"42360","imdb_id":"tt0173366","world_art_id":null,"type":"movie","add":"2021-03-06 20:51:34","orig_title":"Tsygan","year":"1967-07-13","translations":["Оригинальная дорожка"],"quality":"dvdrip","translation":"Оригинальная дорожка","update":"2021-03-09 15:47:21","iframe_src":"//5322.svetacdn.in/si4jsFRrtgrT/movie/48507"},{"id":48506,"title":"1000 долларов в одну сторону","kp_id":"46786","imdb_id":"tt0101245","world_art_id":null,"type":"movie","add":"2021-03-06 20:43:28","orig_title":"1000 dollarov v odnu storonu","year":"1992-03-07","translations":["Оригинальная дорожка"],"quality":"webdl","translation":"Оригинальная дорожка","update":"2021-03-09 15:47:22","iframe_src":"//5322.svetacdn.in/si4jsFRrtgrT/movie/48506"},{"id":48485,"title":"Девушка с Камчатки","kp_id":"44182","imdb_id":"tt0352286","world_art_id":null,"type":"movie","add":"2021-03-05 19:11:01","orig_title":"Devushka s Kamchatki","year":"1937-04-29","translations":["Оригинальная дорожка"],"quality":"webdl","translation":"Оригинальная дорожка","update":"2021-03-09 15:47:23","iframe_src":"//5322.svetacdn.in/si4jsFRrtgrT/movie/48485"},{"id":48484,"title":"Глинка","kp_id":"44514","imdb_id":"tt0038566","world_art_id":null,"type":"movie","add":"2021-03-05 19:08:31","orig_title":"Glinka","year":"1947-02-12","translations":["Оригинальная дорожка"],"quality":"dvdrip","translation":"Оригинальная дорожка","update":"2021-03-09 15:47:22","iframe_src":"//5322.svetacdn.in/si4jsFRrtgrT/movie/48484"},{"id":48063,"title":"Скуби-Ду при дворе короля Артура","kp_id":"4295003","imdb_id":"tt13676256","world_art_id":null,"type":"movie","add":"2021-02-19 18:30:16","orig_title":"Scooby-Doo! The Sword and the Scoob","year":"2021-02-23","translations":["Любительский (многоголосый закадровый) (Flarrow Films)"],"quality":"webdl","translation":"Любительский (многоголосый закадровый) (Flarrow Films)","update":"2021-03-10 05:10:49","iframe_src":"//5322.svetacdn.in/si4jsFRrtgrT/movie/48063"},{"id":44515,"title":"Любовь и монстры","kp_id":"689489","imdb_id":"tt2222042","world_art_id":null,"type":"movie","add":"2020-10-16 17:35:01","orig_title":"Love and Monsters","year":"2020-10-16","translations":["Любительский (многоголосый закадровый) (@MUZOBOZ@)","Профессиональный (многоголосый закадровый) (HDrezka Studio)","Любительский (многоголосый закадровый) (Flarrow Films)","Original (English)","Авторский (одноголосый закадровый) (Немахов Юрий)","Авторский (одноголосый закадровый) (Котов Вячеслав)"],"quality":"webdl","translation":"Любительский (многоголосый закадровый) (@MUZOBOZ@)","update":"2021-03-10 06:09:47","iframe_src":"//5322.svetacdn.in/si4jsFRrtgrT/movie/44515"},{"id":8475,"title":"Зимнее танго","kp_id":"580678","imdb_id":null,"world_art_id":null,"type":"serial","add":"2020-08-18 20:42:41","orig_title":"Зимнее танго","year":"2011-01-01","translations":["Оригинальная дорожка"],"seasons_count":1,"episodes_count":2,"episodes":2,"update":"2020-08-18 21:12:02","iframe_src":"//5322.svetacdn.in/si4jsFRrtgrT/tv-series/8475"},{"id":8471,"title":"Останьтесь навсегда","kp_id":"880704","imdb_id":null,"world_art_id":null,"type":"serial","add":"2020-08-18 08:52:21","orig_title":"Останьтесь навсегда","year":"2015-05-23","translations":["Оригинальная дорожка"],"seasons_count":1,"episodes_count":2,"episodes":2,"update":"2020-08-18 09:54:43","iframe_src":"//5322.svetacdn.in/si4jsFRrtgrT/tv-series/8471"},{"id":8470,"title":"Сын","kp_id":"709732","imdb_id":"tt2404029","world_art_id":null,"type":"serial","add":"2020-08-18 08:49:04","orig_title":"A Mother's Son","year":"2012-09-03","translations":["Профессиональный (многоголосый закадровый)"],"seasons_count":1,"episodes_count":2,"episodes":2,"update":"2020-08-18 09:53:37","iframe_src":"//5322.svetacdn.in/si4jsFRrtgrT/tv-series/8470"},{"id":8469,"title":"Тайны материи: Поиски элементов","kp_id":"957481","imdb_id":"tt4977374","world_art_id":null,"type":"serial","add":"2020-08-18 08:42:51","orig_title":"The Mystery of Matter: Search for the Elements","year":"2015-08-19","translations":["Профессиональный (двухголосый закадровый)"],"seasons_count":1,"episodes_count":3,"episodes":3,"update":"2020-08-18 11:10:36","iframe_src":"//5322.svetacdn.in/si4jsFRrtgrT/tv-series/8469"},{"id":8468,"title":"Любовь на крыше","kp_id":"1392760","imdb_id":"tt12498170","world_art_id":null,"type":"serial","add":"2020-08-18 08:33:47","orig_title":"Çati Kati Ask","year":"2020-07-09","translations":["Любительский (двухголосый закадровый)"],"seasons_count":1,"episodes_count":6,"episodes":6,"update":"2020-08-18 09:52:53","iframe_src":"//5322.svetacdn.in/si4jsFRrtgrT/tv-series/8468"},{"id":8466,"title":"Тень завоевателя","kp_id":"44501","imdb_id":"tt0104224","world_art_id":null,"type":"serial","add":"2020-08-18 06:40:10","orig_title":"Gibel Otrara","year":"1991-01-01","translations":["Профессиональный (одноголосый закадровый)"],"seasons_count":1,"episodes_count":2,"episodes":2,"update":"2020-08-18 12:32:05","iframe_src":"//5322.svetacdn.in/si4jsFRrtgrT/tv-series/8466"},{"id":8465,"title":"О тебе...","kp_id":"464836","imdb_id":null,"world_art_id":null,"type":"serial","add":"2020-08-17 21:06:19","orig_title":"О тебе...","year":"2007-01-01","translations":["Оригинальная дорожка"],"seasons_count":1,"episodes_count":4,"episodes":4,"update":"2020-08-18 12:40:45","iframe_src":"//5322.svetacdn.in/si4jsFRrtgrT/tv-series/8465"},{"id":8459,"title":"Прииск 2: Золотая лихорадка","kp_id":"453205","imdb_id":null,"world_art_id":null,"type":"serial","add":"2020-08-17 12:48:20","orig_title":"Прииск 2: Золотая лихорадка","year":"2006-01-01","translations":["Оригинальная дорожка"],"seasons_count":1,"episodes_count":8,"episodes":8,"update":"2020-08-17 21:59:16","iframe_src":"//5322.svetacdn.in/si4jsFRrtgrT/tv-series/8459"},{"id":8458,"title":"Ворожея","kp_id":"419614","imdb_id":"tt4393610","world_art_id":null,"type":"serial","add":"2020-08-17 12:30:42","orig_title":"Vorozheya","year":"2008-01-01","translations":["Оригинальная дорожка"],"seasons_count":1,"episodes_count":4,"episodes":4,"update":"2020-08-18 12:41:46","iframe_src":"//5322.svetacdn.in/si4jsFRrtgrT/tv-series/8458"},{"id":8457,"title":"Сцена","kp_id":"688729","imdb_id":"tt2201890","world_art_id":null,"type":"serial","add":"2020-08-17 12:26:04","orig_title":"The Scene","year":"2004-12-02","translations":["Любительский (многоголосый закадровый)"],"seasons_count":1,"episodes_count":20,"episodes":20,"update":"2020-08-18 21:10:06","iframe_src":"//5322.svetacdn.in/si4jsFRrtgrT/tv-series/8457"},{"id":8456,"title":"Влюбленные женщины","kp_id":"574434","imdb_id":"tt1738340","world_art_id":null,"type":"serial","add":"2020-08-17 12:13:36","orig_title":"Women in Love","year":"2011-03-24","translations":["Профессиональный (двухголосый закадровый)"],"seasons_count":1,"episodes_count":1,"episodes":1,"update":"2020-08-17 21:54:54","iframe_src":"//5322.svetacdn.in/si4jsFRrtgrT/tv-series/8456"},{"id":8441,"title":"Я тоже цветочек!","kp_id":"676198","imdb_id":"tt3147984","world_art_id":null,"type":"serial","add":"2020-08-15 12:10:38","orig_title":"Me Too, Flower!","year":"2011-11-09","translations":["Любительский (многоголосый закадровый) (GREEN TEA)"],"seasons_count":1,"episodes_count":15,"episodes":15,"update":"2020-08-18 07:46:51","iframe_src":"//5322.svetacdn.in/si4jsFRrtgrT/tv-series/8441"},{"id":8440,"title":"Гуппи и пузырики","kp_id":"398685","imdb_id":"tt0965404","world_art_id":null,"type":"serial","add":"2020-08-15 10:14:08","orig_title":"Bubble Guppies","year":"2011-01-24","translations":["Полное дублирование"],"seasons_count":4,"episodes_count":73,"episodes":12,"update":"2020-08-18 07:55:38","iframe_src":"//5322.svetacdn.in/si4jsFRrtgrT/tv-series/8440"},{"id":8432,"title":"Юные охотницы за головами","kp_id":"1282762","imdb_id":"tt10584608","world_art_id":null,"type":"serial","add":"2020-08-14 17:35:57","orig_title":"Teenage Bounty Hunters","year":"2020-08-14","translations":["Любительский (многоголосый закадровый) (ColdFilm)","Любительский (многоголосый закадровый) (Octopus)","Профессиональный (многоголосый закадровый) (BaibaKo)","Полное дублирование (VSI Moscow)"],"seasons_count":1,"episodes_count":10,"episodes":10,"update":"2020-08-18 21:18:14","iframe_src":"//5322.svetacdn.in/si4jsFRrtgrT/tv-series/8432"},{"id":8412,"title":"Ваша честь","kp_id":"1385405","imdb_id":"tt12392470","world_art_id":null,"type":"serial","add":"2020-08-11 17:35:42","orig_title":"Your Honor","year":"2020-06-18","translations":["Любительский (многоголосый закадровый) (ColdFilm)","Любительский (многоголосый закадровый) (Octopus)"],"seasons_count":1,"episodes_count":12,"episodes":12,"update":"2020-08-19 04:32:59","iframe_src":"//5322.svetacdn.in/si4jsFRrtgrT/tv-series/8412"},{"id":8395,"title":"Брак по завещанию 2. Возвращение Сандры","kp_id":"647717","imdb_id":"tt4152422","world_art_id":null,"type":"serial","add":"2020-08-06 17:34:55","orig_title":"Brak po zaveshchaniyu. Vozvrashchenie Sandry","year":"2011-11-14","translations":["Оригинальная дорожка"],"seasons_count":1,"episodes_count":8,"episodes":8,"update":"2020-08-18 13:41:40","iframe_src":"//5322.svetacdn.in/si4jsFRrtgrT/tv-series/8395"},{"id":8394,"title":"Брак по завещанию","kp_id":"461787","imdb_id":"tt3323002","world_art_id":null,"type":"serial","add":"2020-08-06 17:31:43","orig_title":"Brak po zaveshchaniyu","year":"2010-04-12","translations":["Оригинальная дорожка"],"seasons_count":1,"episodes_count":12,"episodes":12,"update":"2020-08-18 13:35:44","iframe_src":"//5322.svetacdn.in/si4jsFRrtgrT/tv-series/8394"},{"id":8247,"title":"Шоколад с перцем","kp_id":"325762","imdb_id":"tt0380096","world_art_id":null,"type":"serial","add":"2020-07-24 21:37:54","orig_title":"Chocolate com Pimenta","year":"2003-09-08","translations":["Профессиональный (многоголосый закадровый)"],"seasons_count":1,"episodes_count":165,"episodes":165,"update":"2020-08-18 21:40:05","iframe_src":"//5322.svetacdn.in/si4jsFRrtgrT/tv-series/8247"},{"id":36691,"title":"Великий Могол","kp_id":"94523","imdb_id":"tt0054098","world_art_id":null,"type":"movie","add":"2020-02-20 22:12:11","orig_title":"Mughal-E-Azam","year":"1960-08-05","translations":["Любительский (одноголосый закадровый)","Любительский (двухголосый закадровый)"],"quality":"bd","translation":"Любительский (одноголосый закадровый)","update":"2021-03-09 16:38:40","iframe_src":"//5322.svetacdn.in/si4jsFRrtgrT/movie/36691"},{"id":24261,"title":"Малыш и Карлсон, который живет на крыше","kp_id":"470346","imdb_id":"tt1718829","world_art_id":null,"type":"movie","add":"2019-04-10 10:40:22","orig_title":"Malysh i Karlson, kotoryy zhivyot na kryshe","year":"1971-01-01","translations":["Оригинальная дорожка"],"quality":"webdl","translation":"Оригинальная дорожка","update":"2021-03-10 06:28:50","iframe_src":"//5322.svetacdn.in/si4jsFRrtgrT/movie/24261"},{"id":24100,"title":"По улицам комод водили...","kp_id":"43018","imdb_id":"tt0078094","world_art_id":null,"type":"movie","add":"2019-04-08 01:41:04","orig_title":"Po ulitsam komod vodili...","year":"1978-01-01","translations":["Оригинальная дорожка","Оригинальная дорожка"],"quality":"dvdrip","translation":"Оригинальная дорожка","update":"2021-03-09 15:47:21","iframe_src":"//5322.svetacdn.in/si4jsFRrtgrT/movie/24100"},{"id":22443,"title":"Игрушечный пистолет","kp_id":"959638","imdb_id":"tt5420870","world_art_id":null,"type":"movie","add":"2019-02-21 22:08:17","orig_title":"Toy Gun","year":"2018-01-01","translations":["Профессиональный (многоголосый закадровый) (HDrezka Studio)"],"quality":"webdl","translation":"Профессиональный (многоголосый закадровый) (HDrezka Studio)","update":"2021-03-10 10:58:42","iframe_src":"//5322.svetacdn.in/si4jsFRrtgrT/movie/22443"},{"id":19905,"title":"Армейские приключения","kp_id":"12338","imdb_id":"tt0110123","world_art_id":null,"type":"movie","add":"2018-11-01 12:34:16","orig_title":"In the Army Now","year":"1994-08-12","translations":["Профессиональный (многоголосый закадровый) (СТС)","Original (English)","Авторский (одноголосый закадровый) (Дохалов Вартан)","Авторский (одноголосый закадровый) (Горчаков Василий)","Original (English)","Профессиональный (двухголосый закадровый) (Видеосервис)","Профессиональный (многоголосый закадровый) (СТС)"],"quality":"webdl","translation":"Профессиональный (многоголосый закадровый) (СТС)","update":"2021-03-09 16:28:12","iframe_src":"//5322.svetacdn.in/si4jsFRrtgrT/movie/19905"},{"id":3382,"title":"Мама","kp_id":"1101321","imdb_id":"tt7795226","world_art_id":null,"type":"serial","add":"2018-10-24 18:10:03","orig_title":"Madeo","year":"2018-01-24","translations":["Любительский (многоголосый закадровый) (AniDUB)","Профессиональный (многоголосый закадровый)"],"seasons_count":1,"episodes_count":16,"episodes":16,"update":"2020-08-18 15:03:22","iframe_src":"//5322.svetacdn.in/si4jsFRrtgrT/tv-series/3382"},{"id":17224,"title":"Жёлтые птицы","kp_id":"841617","imdb_id":"tt3739110","world_art_id":null,"type":"movie","add":"2018-06-17 22:32:24","orig_title":"The Yellow Birds","year":"2017-01-21","translations":["Любительский (многоголосый закадровый) (Синема УС)","Любительский (двухголосый закадровый) (HiWayGrope)","Профессиональный (многоголосый закадровый) (HDrezka Studio)","Профессиональный (многоголосый закадровый) (HDrezka Studio)"],"quality":"webdl","translation":"Любительский (многоголосый закадровый) (Синема УС)","update":"2021-03-10 10:58:52","iframe_src":"//5322.svetacdn.in/si4jsFRrtgrT/movie/17224"},{"id":917,"title":"Параллельные миры","kp_id":"986594","imdb_id":"tt5797194","world_art_id":null,"type":"serial","add":"2017-01-20 07:56:24","orig_title":"W - du gaeui segye","year":"2016-07-20","translations":["Профессиональный (многоголосый закадровый) (STEPonee)","Любительский (двухголосый закадровый) (SoftBox)","Любительский (одноголосый закадровый) (GREEN TEA)","Профессиональный (многоголосый закадровый) (Мобильное телевидение)"],"seasons_count":1,"episodes_count":16,"episodes":16,"update":"2020-08-18 14:49:24","iframe_src":"//5322.svetacdn.in/si4jsFRrtgrT/tv-series/917"},{"id":7764,"title":"Изгоняющий дьявола II: Еретик","kp_id":"8816","imdb_id":"tt0076009","world_art_id":null,"type":"movie","add":"2016-11-29 14:37:53","orig_title":"Exorcist II: The Heretic","year":"1977-06-17","translations":["Профессиональный (двухголосый закадровый)","Профессиональный (двухголосый закадровый) (НТВ)","Профессиональный (двухголосый закадровый) (Мост-Видео)"],"quality":"bd","translation":"Профессиональный (двухголосый закадровый)","update":"2021-03-09 16:14:14","iframe_src":"//5322.svetacdn.in/si4jsFRrtgrT/movie/7764"},{"id":6781,"title":"Доктор Стрэндж","kp_id":"409600","imdb_id":"tt1211837","world_art_id":null,"type":"movie","add":"2016-10-29 11:50:07","orig_title":"Doctor Strange","year":"2016-10-20","translations":["Авторский (одноголосый закадровый) (Гаврилов Андрей)","Авторский (одноголосый закадровый) (Сербин Юрий)","Авторский (одноголосый закадровый) (Живов Юрий)","Полное дублирование"],"quality":"webdl","translation":"Авторский (одноголосый закадровый) (Гаврилов Андрей)","update":"2021-03-10 06:24:07","iframe_src":"//5322.svetacdn.in/si4jsFRrtgrT/movie/6781"},{"id":2762,"title":"Достучаться до небес","kp_id":"32898","imdb_id":"tt0119472","world_art_id":null,"type":"movie","add":"2016-05-31 07:20:10","orig_title":"Knockin' on Heaven's Door","year":"1997-02-20","translations":["Профессиональный (многоголосый закадровый)","Полное дублирование","Original (English)","Авторский (одноголосый закадровый) (Гаевский Евгений)","Любительский (одноголосый закадровый) (Огородников Валерий | Лектор)","Авторский (одноголосый закадровый) (Сербин Юрий)","Полное дублирование","Профессиональный (двухголосый закадровый)","Профессиональный (многоголосый закадровый) (CP Digital)","Профессиональный (многоголосый закадровый) (Нота)"],"quality":"bd","translation":"Профессиональный (многоголосый закадровый)","update":"2021-03-09 16:39:15","iframe_src":"//5322.svetacdn.in/si4jsFRrtgrT/movie/2762"}],"current_page":149,"first_page_url":"https://videocdn.tv/api/short?limit=100&api_token=X6EwAUfE5M9xbo7y0Bp0aPf3uXxG2KLL&cache3149=3149&page=1","from":14801,"last_page":620,"last_page_url":"https://videocdn.tv/api/short?limit=100&api_token=X6EwAUfE5M9xbo7y0Bp0aPf3uXxG2KLL&cache3149=3149&page=620","next_page_url":"https://videocdn.tv/api/short?limit=100&api_token=X6EwAUfE5M9xbo7y0Bp0aPf3uXxG2KLL&cache3149=3149&page=150","path":"https://videocdn.tv/api/short","per_page":100,"prev_page_url":"https://videocdn.tv/api/short?limit=100&api_token=X6EwAUfE5M9xbo7y0Bp0aPf3uXxG2KLL&cache3149=3149&page=148","to":14840,"total":61975}