{"result":true,"data":[{"id":42041,"title":"Виктор и Селия","kp_id":"1200701","imdb_id":"tt9112776","world_art_id":null,"type":"movie","add":"2020-07-27 16:36:37","orig_title":"Victor et Célia","year":"2019-04-18","translations":["Любительский (многоголосый закадровый) (AlphaProject)"],"quality":"webdl","translation":"Любительский (многоголосый закадровый) (AlphaProject)","update":"2020-07-28 05:07:59","iframe_src":"//7043.svetacdn.in/si4jsFRrtgrT/movie/42041"},{"id":42024,"title":"Ангел","kp_id":"1174280","imdb_id":"tt8691696","world_art_id":null,"type":"movie","add":"2020-07-26 17:40:43","orig_title":"Angel","year":"2019-12-12","translations":["Любительский (многоголосый закадровый) (Синема УС)"],"quality":"webdl","translation":"Любительский (многоголосый закадровый) (Синема УС)","update":"2020-07-27 17:31:30","iframe_src":"//7043.svetacdn.in/si4jsFRrtgrT/movie/42024"},{"id":42023,"title":"Птицы без перьев","kp_id":"1098384","imdb_id":"tt7491196","world_art_id":null,"type":"movie","add":"2020-07-26 17:03:57","orig_title":"Birds without Feathers","year":"2018-01-19","translations":["Любительский (многоголосый закадровый) (Синема УС)"],"quality":"webdl","translation":"Любительский (многоголосый закадровый) (Синема УС)","update":"2020-07-27 17:30:49","iframe_src":"//7043.svetacdn.in/si4jsFRrtgrT/movie/42023"},{"id":42022,"title":"Их собственный класс","kp_id":"1322778","imdb_id":"tt11278394","world_art_id":null,"type":"movie","add":"2020-07-26 17:00:44","orig_title":"Eine Klasse für sich","year":"2019-11-13","translations":["Любительский (многоголосый закадровый) (AlphaProject)"],"quality":"webdl","translation":"Любительский (многоголосый закадровый) (AlphaProject)","update":"2020-07-27 17:30:32","iframe_src":"//7043.svetacdn.in/si4jsFRrtgrT/movie/42022"},{"id":42021,"title":"Война невесток","kp_id":"1343425","imdb_id":"tt11542214","world_art_id":null,"type":"movie","add":"2020-07-26 16:55:09","orig_title":"Eltilerin Savasi","year":"2020-01-30","translations":["Любительский (многоголосый закадровый) (AlphaProject)"],"quality":"webdl","translation":"Любительский (многоголосый закадровый) (AlphaProject)","update":"2020-07-27 17:29:59","iframe_src":"//7043.svetacdn.in/si4jsFRrtgrT/movie/42021"},{"id":42020,"title":"Пчёлка","kp_id":"1228671","imdb_id":"tt9523112","world_art_id":null,"type":"movie","add":"2020-07-26 16:52:15","orig_title":"Honey Bee","year":"2019-10-15","translations":["Любительский (многоголосый закадровый) (Синема УС)"],"quality":"webdl","translation":"Любительский (многоголосый закадровый) (Синема УС)","update":"2020-07-27 17:28:48","iframe_src":"//7043.svetacdn.in/si4jsFRrtgrT/movie/42020"},{"id":42018,"title":"От головы до хвоста","kp_id":"1122596","imdb_id":"tt8272332","world_art_id":null,"type":"movie","add":"2020-07-26 16:45:35","orig_title":"Nose to Tail","year":"2018-11-30","translations":["Любительский (многоголосый закадровый) (Синема УС)"],"quality":"webdl","translation":"Любительский (многоголосый закадровый) (Синема УС)","update":"2020-07-27 17:28:12","iframe_src":"//7043.svetacdn.in/si4jsFRrtgrT/movie/42018"},{"id":42017,"title":"Принцесса и слепой кузнец","kp_id":"1230100","imdb_id":"tt9504876","world_art_id":null,"type":"movie","add":"2020-07-26 16:41:50","orig_title":"O zakletém králi a odvázném Martinovi","year":"2018-12-24","translations":["Любительский (многоголосый закадровый) (Синема УС)"],"quality":"webdl","translation":"Любительский (многоголосый закадровый) (Синема УС)","update":"2020-07-28 05:06:49","iframe_src":"//7043.svetacdn.in/si4jsFRrtgrT/movie/42017"},{"id":42015,"title":"Конец света","kp_id":"869204","imdb_id":"tt4039842","world_art_id":null,"type":"movie","add":"2020-07-26 04:38:11","orig_title":"Apocalypsis","year":"2018-03-17","translations":["Любительский (многоголосый закадровый) (Синема УС)"],"quality":"webdl","translation":"Любительский (многоголосый закадровый) (Синема УС)","update":"2020-07-26 18:38:18","iframe_src":"//7043.svetacdn.in/si4jsFRrtgrT/movie/42015"},{"id":42014,"title":"Джек Уайтхолл: я только шучу","kp_id":"1390993","imdb_id":"tt12588432","world_art_id":null,"type":"movie","add":"2020-07-26 04:36:45","orig_title":"Jack Whitehall: I'm Only Joking","year":"2020-07-21","translations":["Любительский (многоголосый закадровый) (Синема УС)"],"quality":"webdl","translation":"Любительский (многоголосый закадровый) (Синема УС)","update":"2020-07-26 11:19:43","iframe_src":"//7043.svetacdn.in/si4jsFRrtgrT/movie/42014"},{"id":42013,"title":"Рапунцель: принцесса, застывшая во времени","kp_id":"1264808","imdb_id":"tt10349550","world_art_id":null,"type":"movie","add":"2020-07-26 04:35:12","orig_title":"Rapunzel: A Princess Frozen in Time","year":"2019-05-15","translations":["Любительский (многоголосый закадровый) (Синема УС)"],"quality":"webdl","translation":"Любительский (многоголосый закадровый) (Синема УС)","update":"2020-07-26 18:37:04","iframe_src":"//7043.svetacdn.in/si4jsFRrtgrT/movie/42013"},{"id":42012,"title":"Театр","kp_id":"1282686","imdb_id":"tt10650424","world_art_id":null,"type":"movie","add":"2020-07-25 06:10:31","orig_title":"Gekijo","year":"2020-07-17","translations":["Любительский (многоголосый закадровый) (Синема УС)"],"quality":"webdl","translation":"Любительский (многоголосый закадровый) (Синема УС)","update":"2020-07-25 17:55:22","iframe_src":"//7043.svetacdn.in/si4jsFRrtgrT/movie/42012"},{"id":42011,"title":"Ничего не знающие","kp_id":"1018788","imdb_id":"tt6503938","world_art_id":null,"type":"movie","add":"2020-07-25 06:09:01","orig_title":"Know Nothins","year":"2018-11-20","translations":["Любительский (многоголосый закадровый) (Синема УС)"],"quality":"webdl","translation":"Любительский (многоголосый закадровый) (Синема УС)","update":"2020-07-26 11:13:23","iframe_src":"//7043.svetacdn.in/si4jsFRrtgrT/movie/42011"},{"id":42010,"title":"Канадский сорт","kp_id":"1180358","imdb_id":"tt8854384","world_art_id":null,"type":"movie","add":"2020-07-25 06:07:57","orig_title":"Canadian Strain","year":"2019-12-07","translations":["Любительский (многоголосый закадровый) (Синема УС)"],"quality":"webdl","translation":"Любительский (многоголосый закадровый) (Синема УС)","update":"2020-07-25 17:54:50","iframe_src":"//7043.svetacdn.in/si4jsFRrtgrT/movie/42010"},{"id":40828,"title":"Цветы зла","kp_id":"1229341","imdb_id":"tt9554316","world_art_id":null,"type":"movie","add":"2020-05-30 23:02:25","orig_title":"The Flowers of Evil","year":"2019-09-27","translations":["Любительский (двухголосый закадровый) (RealFake)","Любительский (многоголосый закадровый)"],"quality":"bd","translation":"Любительский (двухголосый закадровый) (RealFake)","update":"2020-07-26 18:39:05","iframe_src":"//7043.svetacdn.in/si4jsFRrtgrT/movie/40828"},{"id":22456,"title":"Все пути ведут в Доннибрук","kp_id":"1093604","imdb_id":"tt7087210","world_art_id":null,"type":"movie","add":"2019-02-23 08:05:34","orig_title":"Donnybrook","year":"2018-09-07","translations":["Полное дублирование","Профессиональный (многоголосый закадровый) (HDrezka Studio)","Профессиональный (многоголосый закадровый) (HDrezka Studio)"],"quality":"bd","translation":"Полное дублирование","update":"2020-07-28 04:37:07","iframe_src":"//7043.svetacdn.in/si4jsFRrtgrT/movie/22456"},{"id":21749,"title":"Извержение: Лос-Анджелес","kp_id":"1025105","imdb_id":"tt6422938","world_art_id":null,"type":"movie","add":"2019-01-24 09:20:31","orig_title":"Destruction Los Angeles","year":"2017-09-21","translations":["Любительский (многоголосый закадровый) (Синема УС)","Любительский (двухголосый закадровый) (HiWayGrope)","Профессиональный (многоголосый закадровый) (HDrezka Studio)","Профессиональный (многоголосый закадровый) (HDrezka Studio)"],"quality":"webdl","translation":"Любительский (многоголосый закадровый) (Синема УС)","update":"2020-07-27 14:32:00","iframe_src":"//7043.svetacdn.in/si4jsFRrtgrT/movie/21749"},{"id":20438,"title":"Смерть нации","kp_id":"1163914","imdb_id":"tt8564902","world_art_id":null,"type":"movie","add":"2018-12-02 23:03:02","orig_title":"Death of a Nation","year":"2018-08-03","translations":["Любительский (многоголосый закадровый) (Синема УС)","Профессиональный (многоголосый закадровый) (HDrezka Studio)"],"quality":"bd","translation":"Любительский (многоголосый закадровый) (Синема УС)","update":"2020-07-27 14:32:23","iframe_src":"//7043.svetacdn.in/si4jsFRrtgrT/movie/20438"},{"id":19235,"title":"Восьмой класс","kp_id":"1072547","imdb_id":"tt7014006","world_art_id":null,"type":"movie","add":"2018-09-28 01:23:32","orig_title":"Eighth Grade","year":"2018-01-19","translations":["Любительский (многоголосый закадровый) (Синема УС)","Любительский (двухголосый закадровый) (LakeFilms)","Профессиональный (многоголосый закадровый) (Jaskier)","Original (English)","Профессиональный (многоголосый закадровый)","Профессиональный (многоголосый закадровый) (HDrezka Studio)"],"quality":"webdl","translation":"Любительский (многоголосый закадровый) (Синема УС)","update":"2020-07-28 04:37:32","iframe_src":"//7043.svetacdn.in/si4jsFRrtgrT/movie/19235"},{"id":15016,"title":"Смертельная гонка 4: Вне анархии","kp_id":"1009470","imdb_id":"tt3807900","world_art_id":null,"type":"movie","add":"2018-01-31 23:10:26","orig_title":"Death Race 4: Beyond Anarchy","year":"2018-01-30","translations":["Любительский (многоголосый закадровый) (@MUZOBOZ@)","Профессиональный (многоголосый закадровый) (GreenРай Studio)","Полное дублирование","Профессиональный (многоголосый закадровый) (HDrezka Studio)"],"quality":"webdl","translation":"Любительский (многоголосый закадровый) (@MUZOBOZ@)","update":"2020-07-27 14:32:41","iframe_src":"//7043.svetacdn.in/si4jsFRrtgrT/movie/15016"},{"id":378,"title":"Журов 2","kp_id":"464960","imdb_id":null,"world_art_id":null,"type":"serial","add":"2016-08-26 16:27:36","orig_title":"Журов 2","year":"2012-03-01","translations":["Оригинальная дорожка"],"seasons_count":1,"episodes_count":16,"episodes":16,"update":"2016-08-28 19:40:49","iframe_src":"//7043.svetacdn.in/si4jsFRrtgrT/tv-series/378"},{"id":377,"title":"Журов","kp_id":"426297","imdb_id":"tt3322556","world_art_id":null,"type":"serial","add":"2016-08-26 16:11:54","orig_title":"Zhurov","year":"2009-11-09","translations":["Оригинальная дорожка"],"seasons_count":1,"episodes_count":16,"episodes":16,"update":"2016-08-28 16:21:08","iframe_src":"//7043.svetacdn.in/si4jsFRrtgrT/tv-series/377"},{"id":370,"title":"Последний ход королевы","kp_id":"916132","imdb_id":"tt5156964","world_art_id":null,"type":"serial","add":"2016-08-26 05:45:39","orig_title":"Posledniy khod korolevy","year":"2015-08-14","translations":["Оригинальная дорожка"],"seasons_count":1,"episodes_count":4,"episodes":4,"update":"2016-08-26 09:01:21","iframe_src":"//7043.svetacdn.in/si4jsFRrtgrT/tv-series/370"},{"id":361,"title":"Приговор идеальной пары","kp_id":"957880","imdb_id":null,"world_art_id":null,"type":"serial","add":"2016-08-24 05:19:49","orig_title":"Приговор идеальной пары","year":"2015-02-13","translations":["Оригинальная дорожка"],"seasons_count":1,"episodes_count":4,"episodes":4,"update":"2016-08-24 11:26:54","iframe_src":"//7043.svetacdn.in/si4jsFRrtgrT/tv-series/361"},{"id":360,"title":"Весной расцветает любовь","kp_id":"843065","imdb_id":"tt4516764","world_art_id":null,"type":"serial","add":"2016-08-24 05:02:45","orig_title":"Vesnoy rastsvetaet lyubov","year":"2015-02-23","translations":["Оригинальная дорожка"],"seasons_count":1,"episodes_count":20,"episodes":20,"update":"2016-08-24 12:15:00","iframe_src":"//7043.svetacdn.in/si4jsFRrtgrT/tv-series/360"},{"id":354,"title":"Москва. Центральный округ 4","kp_id":"743218","imdb_id":"tt5006482","world_art_id":null,"type":"serial","add":"2016-08-23 04:44:11","orig_title":"Moskva. Tsentralniy okrug 4","year":"2015-01-01","translations":["Оригинальная дорожка"],"seasons_count":1,"episodes_count":18,"episodes":18,"update":"2016-08-29 05:07:04","iframe_src":"//7043.svetacdn.in/si4jsFRrtgrT/tv-series/354"},{"id":351,"title":"Дикий 4","kp_id":"728039","imdb_id":"tt4192508","world_art_id":null,"type":"serial","add":"2016-08-21 09:20:38","orig_title":"Dikiy 4","year":"2014-03-17","translations":["Оригинальная дорожка"],"seasons_count":1,"episodes_count":32,"episodes":32,"update":"2016-08-22 08:18:07","iframe_src":"//7043.svetacdn.in/si4jsFRrtgrT/tv-series/351"},{"id":350,"title":"Когда плачут цикады","kp_id":"1039398","imdb_id":"tt5757082","world_art_id":null,"type":"serial","add":"2016-08-19 05:50:20","orig_title":"Higurashi no Naku Koro ni: When They Cry","year":"2016-05-20","translations":["Любительский (двухголосый закадровый) (Колобок)"],"seasons_count":1,"episodes_count":6,"episodes":6,"update":"2016-08-19 08:37:50","iframe_src":"//7043.svetacdn.in/si4jsFRrtgrT/tv-series/350"},{"id":349,"title":"Письма на стекле. Судьба","kp_id":"941545","imdb_id":null,"world_art_id":null,"type":"serial","add":"2016-08-19 04:42:15","orig_title":"Письма на стекле. Судьба","year":"2015-11-02","translations":["Оригинальная дорожка"],"seasons_count":1,"episodes_count":16,"episodes":16,"update":"2016-08-19 13:47:32","iframe_src":"//7043.svetacdn.in/si4jsFRrtgrT/tv-series/349"},{"id":348,"title":"Письма на стекле","kp_id":"837749","imdb_id":"tt4020974","world_art_id":null,"type":"serial","add":"2016-08-19 04:40:49","orig_title":"Pisma na stekle","year":"2014-08-25","translations":["Оригинальная дорожка"],"seasons_count":1,"episodes_count":16,"episodes":16,"update":"2016-08-19 12:11:21","iframe_src":"//7043.svetacdn.in/si4jsFRrtgrT/tv-series/348"},{"id":345,"title":"Тут","kp_id":"842682","imdb_id":"tt3214310","world_art_id":null,"type":"serial","add":"2016-08-18 11:50:06","orig_title":"Tut","year":"2015-07-19","translations":["Профессиональный (многоголосый закадровый) (Jaskier)"],"seasons_count":1,"episodes_count":3,"episodes":3,"update":"2016-08-19 06:38:30","iframe_src":"//7043.svetacdn.in/si4jsFRrtgrT/tv-series/345"},{"id":340,"title":"Игрок","kp_id":"904411","imdb_id":"tt4474310","world_art_id":null,"type":"serial","add":"2016-08-16 14:34:16","orig_title":"The Player","year":"2015-09-24","translations":["Профессиональный (многоголосый закадровый) (AlexFilm)"],"seasons_count":1,"episodes_count":9,"episodes":9,"update":"2016-08-17 15:21:07","iframe_src":"//7043.svetacdn.in/si4jsFRrtgrT/tv-series/340"},{"id":339,"title":"Обратная сторона Луны 2","kp_id":"838052","imdb_id":null,"world_art_id":null,"type":"serial","add":"2016-08-16 14:27:39","orig_title":"Обратная сторона Луны 2","year":"2016-07-04","translations":["Оригинальная дорожка"],"seasons_count":1,"episodes_count":16,"episodes":16,"update":"2016-08-17 07:06:12","iframe_src":"//7043.svetacdn.in/si4jsFRrtgrT/tv-series/339"},{"id":335,"title":"Перехватчик","kp_id":"843423","imdb_id":"tt3654614","world_art_id":null,"type":"serial","add":"2016-08-15 12:36:17","orig_title":"The Interceptor","year":"2015-06-10","translations":["Профессиональный (многоголосый закадровый) (ViruseProject)"],"seasons_count":1,"episodes_count":8,"episodes":8,"update":"2016-08-22 08:39:01","iframe_src":"//7043.svetacdn.in/si4jsFRrtgrT/tv-series/335"},{"id":327,"title":"Кризис нежного возраста","kp_id":"893844","imdb_id":null,"world_art_id":null,"type":"serial","add":"2016-08-08 19:14:07","orig_title":"Кризис нежного возраста","year":"2016-08-08","translations":["Оригинальная дорожка"],"seasons_count":1,"episodes_count":8,"episodes":8,"update":"2016-08-19 05:35:15","iframe_src":"//7043.svetacdn.in/si4jsFRrtgrT/tv-series/327"},{"id":303,"title":"Секретный агент","kp_id":"988800","imdb_id":"tt4902046","world_art_id":null,"type":"serial","add":"2016-07-21 14:48:03","orig_title":"The Secret Agent","year":"2016-07-17","translations":["Профессиональный (многоголосый закадровый) (BaibaKo)"],"seasons_count":1,"episodes_count":3,"episodes":3,"update":"2016-08-17 10:08:41","iframe_src":"//7043.svetacdn.in/si4jsFRrtgrT/tv-series/303"},{"id":279,"title":"Центральная больница","kp_id":"981350","imdb_id":null,"world_art_id":null,"type":"serial","add":"2016-07-12 04:17:29","orig_title":"Центральная больница","year":"2016-01-01","translations":["Оригинальная дорожка"],"seasons_count":1,"episodes_count":60,"episodes":60,"update":"2016-08-24 08:35:35","iframe_src":"//7043.svetacdn.in/si4jsFRrtgrT/tv-series/279"},{"id":264,"title":"Лагерь Х","kp_id":"891399","imdb_id":"tt4338336","world_art_id":null,"type":"serial","add":"2016-07-06 13:34:40","orig_title":"X Company","year":"2015-02-18","translations":["Любительский (двухголосый закадровый) (Kiitos)"],"seasons_count":2,"episodes_count":18,"episodes":10,"update":"2016-08-19 05:56:39","iframe_src":"//7043.svetacdn.in/si4jsFRrtgrT/tv-series/264"},{"id":202,"title":"Обвиняемая","kp_id":"978822","imdb_id":"tt5376862","world_art_id":null,"type":"serial","add":"2016-06-19 12:53:15","orig_title":"Guilt","year":"2016-06-13","translations":["Профессиональный (многоголосый закадровый) (NewStudio)"],"seasons_count":1,"episodes_count":10,"episodes":10,"update":"2016-08-25 07:28:37","iframe_src":"//7043.svetacdn.in/si4jsFRrtgrT/tv-series/202"},{"id":139,"title":"Лопес","kp_id":"971140","imdb_id":"tt5457178","world_art_id":null,"type":"serial","add":"2016-06-06 04:48:10","orig_title":"Lopez","year":"2016-03-30","translations":["Профессиональный (многоголосый закадровый) (KinoView)"],"seasons_count":1,"episodes_count":12,"episodes":12,"update":"2016-08-22 08:45:29","iframe_src":"//7043.svetacdn.in/si4jsFRrtgrT/tv-series/139"}],"current_page":506,"first_page_url":"https://videocdn.tv/api/short?limit=100&api_token=X6EwAUfE5M9xbo7y0Bp0aPf3uXxG2KLL&cache3506=3506&page=1","from":50501,"last_page":616,"last_page_url":"https://videocdn.tv/api/short?limit=100&api_token=X6EwAUfE5M9xbo7y0Bp0aPf3uXxG2KLL&cache3506=3506&page=616","next_page_url":"https://videocdn.tv/api/short?limit=100&api_token=X6EwAUfE5M9xbo7y0Bp0aPf3uXxG2KLL&cache3506=3506&page=507","path":"https://videocdn.tv/api/short","per_page":100,"prev_page_url":"https://videocdn.tv/api/short?limit=100&api_token=X6EwAUfE5M9xbo7y0Bp0aPf3uXxG2KLL&cache3506=3506&page=505","to":50540,"total":61562}