{"result":true,"data":[{"id":50734,"title":"Розовое облако","kp_id":"937395","imdb_id":"tt3548874","world_art_id":null,"type":"movie","add":"2021-05-29 15:28:27","orig_title":"A Nuvem Rosa","year":"2021-01-29","translations":["Полное дублирование (iTunes)"],"quality":"webdl","translation":"Полное дублирование (iTunes)","update":"2021-05-29 18:17:30","iframe_src":"//8422.svetacdn.in/IAF0wWTdNYZm/movie/50734"},{"id":50721,"title":"Плавильная печь разума","kp_id":"1283329","imdb_id":"tt10592852","world_art_id":null,"type":"movie","add":"2021-05-29 08:32:04","orig_title":"Mind Melters","year":"2019-08-19","translations":["Любительский (многоголосый закадровый) (Синема УС)"],"quality":"webdl","translation":"Любительский (многоголосый закадровый) (Синема УС)","update":"2021-05-30 07:45:11","iframe_src":"//8422.svetacdn.in/IAF0wWTdNYZm/movie/50721"},{"id":50720,"title":"Зависть: история о семи смертных грехах.","kp_id":null,"imdb_id":"tt9145532","world_art_id":null,"type":"movie","add":"2021-05-29 08:26:41","orig_title":"Envy: Seven Deadly Sins","year":"2021-04-17","translations":["Любительский (многоголосый закадровый) (Синема УС)"],"quality":"webdl","translation":"Любительский (многоголосый закадровый) (Синема УС)","update":"2021-05-30 07:31:33","iframe_src":"//8422.svetacdn.in/IAF0wWTdNYZm/movie/50720"},{"id":50714,"title":"Поприветствуйте Мэтта","kp_id":"1149307","imdb_id":"tt8367846","world_art_id":null,"type":"movie","add":"2021-05-28 19:55:16","orig_title":"Welcome Matt","year":"2021-05-28","translations":["Любительский (многоголосый закадровый) (Синема УС)"],"quality":"webdl","translation":"Любительский (многоголосый закадровый) (Синема УС)","update":"2021-05-28 21:14:36","iframe_src":"//8422.svetacdn.in/IAF0wWTdNYZm/movie/50714"},{"id":50711,"title":"Открой глаза","kp_id":"1413725","imdb_id":"tt12492264","world_art_id":null,"type":"movie","add":"2021-05-28 18:57:16","orig_title":"Open Your Eyes","year":"2021-05-19","translations":["Любительский (многоголосый закадровый) (AlphaProject)"],"quality":"webdl","translation":"Любительский (многоголосый закадровый) (AlphaProject)","update":"2021-05-29 09:00:09","iframe_src":"//8422.svetacdn.in/IAF0wWTdNYZm/movie/50711"},{"id":50709,"title":"Зомби-насильники: Похоть мертвецов","kp_id":"673513","imdb_id":"tt2271565","world_art_id":null,"type":"movie","add":"2021-05-28 18:40:39","orig_title":"Reipu zonbi: Lust of the dead","year":"2012-02-26","translations":["Любительский (многоголосый закадровый)"],"quality":"dvdrip","translation":"Любительский (многоголосый закадровый)","update":"2021-05-29 17:11:18","iframe_src":"//8422.svetacdn.in/IAF0wWTdNYZm/movie/50709"},{"id":50706,"title":"Он, она и дети","kp_id":"256509","imdb_id":"tt0273917","world_art_id":null,"type":"movie","add":"2021-05-28 11:02:24","orig_title":"On, ona i deti","year":"1987-02-19","translations":["Оригинальная дорожка"],"quality":"sat","translation":"Оригинальная дорожка","update":"2021-05-28 16:41:27","iframe_src":"//8422.svetacdn.in/IAF0wWTdNYZm/movie/50706"},{"id":50641,"title":"Американский Барсук","kp_id":"1394261","imdb_id":"tt12712572","world_art_id":null,"type":"movie","add":"2021-05-25 05:53:59","orig_title":"American Badger","year":"2021-03-06","translations":["Original (English)","Любительский (многоголосый закадровый) (Синема УС)"],"quality":"webdl","translation":"Original (English)","update":"2021-05-28 19:31:41","iframe_src":"//8422.svetacdn.in/IAF0wWTdNYZm/movie/50641"},{"id":49176,"title":"Замок","kp_id":"105069","imdb_id":"tt0120075","world_art_id":null,"type":"movie","add":"2021-03-29 15:06:51","orig_title":"Das Schloß","year":"1997-02-15","translations":["Профессиональный (двухголосый закадровый) (Кино без границ)","Авторский (одноголосый закадровый) (Кузнецов Сергей)"],"quality":"bd","translation":"Профессиональный (двухголосый закадровый) (Кино без границ)","update":"2021-05-28 13:37:28","iframe_src":"//8422.svetacdn.in/IAF0wWTdNYZm/movie/49176"},{"id":48792,"title":"Спасение","kp_id":"1967","imdb_id":"tt0114323","world_art_id":null,"type":"movie","add":"2021-03-16 06:41:43","orig_title":"Safe","year":"1995-01-25","translations":["Профессиональный (многоголосый закадровый)","Original (English)","Авторский (одноголосый закадровый) (Алексеев Антон)"],"quality":"bd","translation":"Профессиональный (многоголосый закадровый)","update":"2021-05-28 17:01:00","iframe_src":"//8422.svetacdn.in/IAF0wWTdNYZm/movie/48792"},{"id":40976,"title":"Ширли","kp_id":"1146759","imdb_id":"tt8430598","world_art_id":null,"type":"movie","add":"2020-06-06 06:48:05","orig_title":"Shirley","year":"2020-01-25","translations":["Original (English)","Полное дублирование (iTunes)","Авторский (одноголосый закадровый) (Данилов Владислав | Kenum)"],"quality":"webdl","translation":"Original (English)","update":"2021-05-28 10:48:18","iframe_src":"//8422.svetacdn.in/IAF0wWTdNYZm/movie/40976"},{"id":6116,"title":"Наставник","kp_id":"840668","imdb_id":"tt5006496","world_art_id":null,"type":"serial","add":"2019-12-23 18:12:39","orig_title":"Nastavnik","year":"2015-02-27","translations":["Оригинальная дорожка"],"seasons_count":1,"episodes_count":4,"episodes":4,"update":"2019-12-24 06:46:58","iframe_src":"//8422.svetacdn.in/IAF0wWTdNYZm/tv-series/6116"},{"id":6115,"title":"Жители океанов","kp_id":"667809","imdb_id":"tt1920024","world_art_id":null,"type":"serial","add":"2019-12-23 14:56:43","orig_title":"Kingdom of the Oceans","year":"2011-09-04","translations":["Авторский (одноголосый закадровый) (Дасевич Александр)"],"seasons_count":1,"episodes_count":4,"episodes":4,"update":"2019-12-24 07:24:21","iframe_src":"//8422.svetacdn.in/IAF0wWTdNYZm/tv-series/6115"},{"id":6113,"title":"Хозяйка детского дома","kp_id":"420188","imdb_id":"tt2033286","world_art_id":null,"type":"serial","add":"2019-12-23 12:00:19","orig_title":"Khozyayka detskogo doma","year":"1984-01-30","translations":["Оригинальная дорожка"],"seasons_count":1,"episodes_count":2,"episodes":2,"update":"2019-12-23 19:25:58","iframe_src":"//8422.svetacdn.in/IAF0wWTdNYZm/tv-series/6113"},{"id":6111,"title":"Американская трагедия","kp_id":"417850","imdb_id":null,"world_art_id":null,"type":"serial","add":"2019-12-23 10:33:15","orig_title":"Американская трагедия","year":"1981-10-26","translations":["Оригинальная дорожка"],"seasons_count":1,"episodes_count":4,"episodes":4,"update":"2019-12-23 12:12:13","iframe_src":"//8422.svetacdn.in/IAF0wWTdNYZm/tv-series/6111"},{"id":6110,"title":"Дни Турбиных","kp_id":"81435","imdb_id":"tt0167123","world_art_id":null,"type":"serial","add":"2019-12-23 10:27:04","orig_title":"Dni Turbinykh","year":"1976-11-01","translations":["Оригинальная дорожка"],"seasons_count":1,"episodes_count":3,"episodes":3,"update":"2019-12-23 11:48:00","iframe_src":"//8422.svetacdn.in/IAF0wWTdNYZm/tv-series/6110"},{"id":6109,"title":"Университет","kp_id":"392534","imdb_id":"tt0976014","world_art_id":null,"type":"serial","add":"2019-12-23 10:12:51","orig_title":"Greek","year":"2007-07-09","translations":["Профессиональный (многоголосый закадровый) (MTV)","Профессиональный (многоголосый закадровый) (BaibaKo)","Профессиональный (двухголосый закадровый) (NewStudio)"],"seasons_count":4,"episodes_count":74,"episodes":10,"update":"2019-12-24 05:39:46","iframe_src":"//8422.svetacdn.in/IAF0wWTdNYZm/tv-series/6109"},{"id":6107,"title":"Филантроп","kp_id":"412384","imdb_id":"tt1217208","world_art_id":null,"type":"serial","add":"2019-12-23 07:22:52","orig_title":"The Philanthropist","year":"2009-01-27","translations":["Любительский (одноголосый закадровый)"],"seasons_count":1,"episodes_count":8,"episodes":8,"update":"2019-12-23 11:06:31","iframe_src":"//8422.svetacdn.in/IAF0wWTdNYZm/tv-series/6107"},{"id":6106,"title":"Последний бронепоезд","kp_id":"194034","imdb_id":"tt0479620","world_art_id":null,"type":"serial","add":"2019-12-23 06:36:14","orig_title":"Posledniy bronepoezd","year":"2006-11-26","translations":["Оригинальная дорожка"],"seasons_count":1,"episodes_count":4,"episodes":4,"update":"2019-12-23 09:39:47","iframe_src":"//8422.svetacdn.in/IAF0wWTdNYZm/tv-series/6106"},{"id":6104,"title":"Нежные листья, ядовитые корни","kp_id":"1283443","imdb_id":null,"world_art_id":null,"type":"serial","add":"2019-12-22 18:23:04","orig_title":"Нежные листья, ядовитые корни","year":"2019-12-22","translations":["Оригинальная дорожка"],"seasons_count":1,"episodes_count":4,"episodes":4,"update":"2019-12-23 10:54:29","iframe_src":"//8422.svetacdn.in/IAF0wWTdNYZm/tv-series/6104"},{"id":6099,"title":"Кривое зеркало любви","kp_id":"1330099","imdb_id":null,"world_art_id":null,"type":"serial","add":"2019-12-22 12:29:02","orig_title":"Кривое зеркало любви","year":"2019-12-21","translations":["Оригинальная дорожка"],"seasons_count":1,"episodes_count":2,"episodes":2,"update":"2019-12-22 17:00:54","iframe_src":"//8422.svetacdn.in/IAF0wWTdNYZm/tv-series/6099"},{"id":6095,"title":"Комната старинных ключей","kp_id":"1283381","imdb_id":null,"world_art_id":null,"type":"serial","add":"2019-12-21 17:07:10","orig_title":"Комната старинных ключей","year":"2019-01-01","translations":["Оригинальная дорожка"],"seasons_count":1,"episodes_count":4,"episodes":4,"update":"2019-12-22 15:16:24","iframe_src":"//8422.svetacdn.in/IAF0wWTdNYZm/tv-series/6095"},{"id":6094,"title":"Чудесное путешествие Нильса с дикими гусями","kp_id":"888178","imdb_id":"tt2125222","world_art_id":null,"type":"serial","add":"2019-12-21 07:00:24","orig_title":"Nils Holgerssons wunderbare Reise","year":"2011-12-25","translations":["Профессиональный (двухголосый закадровый) (Игмар)","Профессиональный (многоголосый закадровый) (Игмар)"],"seasons_count":1,"episodes_count":4,"episodes":4,"update":"2019-12-21 17:33:33","iframe_src":"//8422.svetacdn.in/IAF0wWTdNYZm/tv-series/6094"},{"id":6090,"title":"Галактическая война","kp_id":"103653","imdb_id":"tt0387736","world_art_id":null,"type":"serial","add":"2019-12-20 12:42:00","orig_title":"Farscape: The Peacekeeper Wars","year":"2004-10-17","translations":["Профессиональный (двухголосый закадровый)"],"seasons_count":1,"episodes_count":2,"episodes":2,"update":"2019-12-20 17:10:10","iframe_src":"//8422.svetacdn.in/IAF0wWTdNYZm/tv-series/6090"},{"id":6049,"title":"Украденное счастье","kp_id":"968844","imdb_id":null,"world_art_id":null,"type":"serial","add":"2019-12-14 13:29:52","orig_title":"Украденное счастье","year":"2016-04-02","translations":["Оригинальная дорожка"],"seasons_count":1,"episodes_count":2,"episodes":2,"update":"2019-12-23 11:10:23","iframe_src":"//8422.svetacdn.in/IAF0wWTdNYZm/tv-series/6049"},{"id":5957,"title":"Гурманы","kp_id":"1245847","imdb_id":"tt9894488","world_art_id":null,"type":"serial","add":"2019-12-05 20:31:28","orig_title":"Foodie Love","year":"2019-12-04","translations":["Любительский (многоголосый закадровый) (Octopus)"],"seasons_count":1,"episodes_count":8,"episodes":8,"update":"2019-12-22 11:07:29","iframe_src":"//8422.svetacdn.in/IAF0wWTdNYZm/tv-series/5957"},{"id":5703,"title":"Вторая жизнь","kp_id":"929793","imdb_id":"tt5156894","world_art_id":null,"type":"serial","add":"2019-11-09 17:39:15","orig_title":"Vtoraya zhizn","year":"2015-09-13","translations":["Оригинальная дорожка"],"seasons_count":1,"episodes_count":4,"episodes":4,"update":"2019-12-21 17:29:45","iframe_src":"//8422.svetacdn.in/IAF0wWTdNYZm/tv-series/5703"},{"id":5282,"title":"Клуб первых жён","kp_id":null,"imdb_id":"tt7546362","world_art_id":null,"type":"serial","add":"2019-09-25 05:07:17","orig_title":"The First Wives Club","year":"2019-09-19","translations":["Любительский (многоголосый закадровый) (Octopus)","Профессиональный (многоголосый закадровый) (TVShows)"],"seasons_count":1,"episodes_count":9,"episodes":9,"update":"2019-12-22 20:59:16","iframe_src":"//8422.svetacdn.in/IAF0wWTdNYZm/tv-series/5282"},{"id":25151,"title":"Загнанных лошадей пристреливают, не правда ли?","kp_id":"15559","imdb_id":"tt0065088","world_art_id":null,"type":"movie","add":"2019-04-22 21:41:35","orig_title":"They Shoot Horses, Don't They?","year":"1969-12-10","translations":["Полное дублирование","Полное дублирование (Союзмультфильм)","Original (English)","Профессиональный (двухголосый закадровый)","Профессиональный (многоголосый закадровый) (Культура)","Профессиональный (многоголосый закадровый) (5-й канал СПб)"],"quality":"bd","translation":"Полное дублирование","update":"2021-05-28 11:14:48","iframe_src":"//8422.svetacdn.in/IAF0wWTdNYZm/movie/25151"},{"id":20767,"title":"Человек-паук: Через вселенные","kp_id":"920265","imdb_id":"tt4633694","world_art_id":null,"type":"movie","add":"2018-12-15 12:19:20","orig_title":"Spider-Man: Into the Spider-Verse","year":"2018-12-06","translations":["Полное дублирование","Original (English)","Профессиональный (многоголосый закадровый) (HDrezka Studio)"],"quality":"bd","translation":"Полное дублирование","update":"2021-05-28 11:16:58","iframe_src":"//8422.svetacdn.in/IAF0wWTdNYZm/movie/20767"},{"id":20294,"title":"Астрал: Новое измерение","kp_id":"926782","imdb_id":"tt4765240","world_art_id":null,"type":"movie","add":"2018-11-25 22:06:16","orig_title":"Astral","year":"2018-10-13","translations":["Любительский (многоголосый закадровый) (@MUZOBOZ@)","Полное дублирование","Полное дублирование (iTunes)","Профессиональный (многоголосый закадровый) (HDrezka Studio)"],"quality":"webdl","translation":"Любительский (многоголосый закадровый) (@MUZOBOZ@)","update":"2021-05-29 06:24:59","iframe_src":"//8422.svetacdn.in/IAF0wWTdNYZm/movie/20294"},{"id":20227,"title":"Скромное обаяние буржуазии","kp_id":"47130","imdb_id":"tt0068361","world_art_id":null,"type":"movie","add":"2018-11-21 08:48:31","orig_title":"Le charme discret de la bourgeoisie","year":"1972-09-15","translations":["Профессиональный (многоголосый закадровый)","Авторский (одноголосый закадровый) (Кузнецов Сергей)","Профессиональный (двухголосый закадровый) (RUSCICO)","Профессиональный (многоголосый закадровый) (DVD Магия)","Профессиональный (многоголосый закадровый) (НТВ)","Профессиональный (многоголосый закадровый) (SomeWax)"],"quality":"bd","translation":"Профессиональный (многоголосый закадровый)","update":"2021-05-28 11:06:53","iframe_src":"//8422.svetacdn.in/IAF0wWTdNYZm/movie/20227"},{"id":20128,"title":"Остров","kp_id":"1114961","imdb_id":"tt8755316","world_art_id":null,"type":"movie","add":"2018-11-14 23:03:22","orig_title":"Yi chu hao xi","year":"2018-08-09","translations":["Любительский (многоголосый закадровый) (Колобок)","Профессиональный (многоголосый закадровый) (HDrezka Studio)","Профессиональный (многоголосый закадровый) (HDrezka Studio)"],"quality":"webdl","translation":"Любительский (многоголосый закадровый) (Колобок)","update":"2021-05-29 08:53:49","iframe_src":"//8422.svetacdn.in/IAF0wWTdNYZm/movie/20128"},{"id":2614,"title":"Картер","kp_id":"1114920","imdb_id":"tt7083006","world_art_id":null,"type":"serial","add":"2018-05-22 09:07:42","orig_title":"Carter","year":"2018-04-16","translations":["Любительский (многоголосый закадровый) (ColdFilm)","Любительский (многоголосый закадровый) (Octopus)"],"seasons_count":2,"episodes_count":20,"episodes":10,"update":"2019-12-22 13:18:27","iframe_src":"//8422.svetacdn.in/IAF0wWTdNYZm/tv-series/2614"},{"id":2459,"title":"Вне игры","kp_id":"1115041","imdb_id":"tt8390062","world_art_id":null,"type":"serial","add":"2018-04-26 09:02:22","orig_title":"Vne igry","year":"2018-04-25","translations":[],"seasons_count":2,"episodes_count":32,"episodes":20,"update":"2019-12-23 15:32:02","iframe_src":"//8422.svetacdn.in/IAF0wWTdNYZm/tv-series/2459"},{"id":2248,"title":"Ты расскажи, Карадениз","kp_id":"1112363","imdb_id":"tt7932896","world_art_id":null,"type":"serial","add":"2018-03-19 22:17:27","orig_title":"Sen Anlat Karadeniz","year":"2018-01-24","translations":["Любительский (двухголосый закадровый)","Любительский (одноголосый закадровый) (Роджерс Юлия)","Любительский (двухголосый закадровый) (AveTurk)"],"seasons_count":3,"episodes_count":64,"episodes":11,"update":"2019-12-20 17:08:29","iframe_src":"//8422.svetacdn.in/IAF0wWTdNYZm/tv-series/2248"},{"id":15376,"title":"Джабервоки","kp_id":"13470","imdb_id":"tt0076221","world_art_id":null,"type":"movie","add":"2018-03-05 07:59:37","orig_title":"Jabberwocky","year":"1977-03-28","translations":["Профессиональный (двухголосый закадровый)","Авторский (одноголосый закадровый) (Михалёв Алексей)","Original (English)","Профессиональный (двухголосый закадровый) (Видеосервис)","Профессиональный (многоголосый закадровый) (Видеосервис)"],"quality":"bd","translation":"Профессиональный (двухголосый закадровый)","update":"2021-05-28 10:59:49","iframe_src":"//8422.svetacdn.in/IAF0wWTdNYZm/movie/15376"},{"id":4427,"title":"Лихорадка джунглей","kp_id":"3539","imdb_id":"tt0102175","world_art_id":null,"type":"movie","add":"2016-08-15 08:26:25","orig_title":"Jungle Fever","year":"1991-06-05","translations":["Профессиональный (многоголосый закадровый)","Профессиональный (двухголосый закадровый) (Премьер Видео Фильм)","Original (English)","Авторский (одноголосый закадровый) (Михалёв Алексей)"],"quality":"hdtv","translation":"Профессиональный (многоголосый закадровый)","update":"2021-05-28 17:04:08","iframe_src":"//8422.svetacdn.in/IAF0wWTdNYZm/movie/4427"},{"id":3125,"title":"Барри Линдон","kp_id":"5032","imdb_id":"tt0072684","world_art_id":null,"type":"movie","add":"2016-06-13 18:34:29","orig_title":"Barry Lyndon","year":"1975-12-18","translations":["Профессиональный (многоголосый закадровый)","Авторский (одноголосый закадровый) (Кузнецов Сергей)","Original (English)","Профессиональный (многоголосый закадровый) (НТВ)"],"quality":"bd","translation":"Профессиональный (многоголосый закадровый)","update":"2021-05-28 11:18:31","iframe_src":"//8422.svetacdn.in/IAF0wWTdNYZm/movie/3125"},{"id":1959,"title":"Медвежатник","kp_id":"819","imdb_id":"tt0227445","world_art_id":null,"type":"movie","add":"2016-05-07 09:53:42","orig_title":"The Score","year":"2001-07-09","translations":["Профессиональный (многоголосый закадровый)","Авторский (одноголосый закадровый) (Гаврилов Андрей)","Полное дублирование (Ист-Вест)","Профессиональный (двухголосый закадровый) (Премьер Видео Фильм)","Профессиональный (многоголосый закадровый) (Позитив)"],"quality":"bd","translation":"Профессиональный (многоголосый закадровый)","update":"2021-05-28 10:55:42","iframe_src":"//8422.svetacdn.in/IAF0wWTdNYZm/movie/1959"}],"current_page":368,"first_page_url":"https://videocdn.tv/api/short?limit=100&api_token=6Onb1W1alEUrBcKJZD3GoKBbWyAl2uG2&cache3368=3368&page=1","from":36701,"last_page":689,"last_page_url":"https://videocdn.tv/api/short?limit=100&api_token=6Onb1W1alEUrBcKJZD3GoKBbWyAl2uG2&cache3368=3368&page=689","next_page_url":"https://videocdn.tv/api/short?limit=100&api_token=6Onb1W1alEUrBcKJZD3GoKBbWyAl2uG2&cache3368=3368&page=369","path":"https://videocdn.tv/api/short","per_page":100,"prev_page_url":"https://videocdn.tv/api/short?limit=100&api_token=6Onb1W1alEUrBcKJZD3GoKBbWyAl2uG2&cache3368=3368&page=367","to":36740,"total":68803}