{"result":true,"data":[{"id":43442,"title":"Чудеса в Монфермее","kp_id":"1160941","imdb_id":"tt8506714","world_art_id":null,"type":"movie","add":"2020-09-12 07:28:43","orig_title":"Merveilles à Montfermeil","year":"2019-08-11","translations":["Любительский (многоголосый закадровый) (AlphaProject)"],"quality":"webdl","translation":"Любительский (многоголосый закадровый) (AlphaProject)","update":"2020-09-12 12:19:02","iframe_src":"//5322.svetacdn.in/si4jsFRrtgrT/movie/43442"},{"id":43441,"title":"Аутло","kp_id":"1199677","imdb_id":"tt9101178","world_art_id":null,"type":"movie","add":"2020-09-12 07:25:06","orig_title":"Autlo","year":"2019-11-25","translations":["Оригинальная дорожка"],"quality":"webdl","translation":"Оригинальная дорожка","update":"2020-09-12 12:17:00","iframe_src":"//5322.svetacdn.in/si4jsFRrtgrT/movie/43441"},{"id":43440,"title":"Так себе зима","kp_id":"1090452","imdb_id":"tt7390072","world_art_id":null,"type":"movie","add":"2020-09-12 07:03:07","orig_title":"Tak sebe zima","year":"2018-05-09","translations":["Оригинальная дорожка"],"quality":"webdl","translation":"Оригинальная дорожка","update":"2020-09-12 12:15:34","iframe_src":"//5322.svetacdn.in/si4jsFRrtgrT/movie/43440"},{"id":43428,"title":"Вам не убить Дэвида Аркетта","kp_id":"1332684","imdb_id":"tt11454066","world_art_id":null,"type":"movie","add":"2020-09-11 19:31:47","orig_title":"You Cannot Kill David Arquette","year":"2020-08-21","translations":["Любительский (многоголосый закадровый) (Синема УС)"],"quality":"webdl","translation":"Любительский (многоголосый закадровый) (Синема УС)","update":"2020-09-12 07:35:01","iframe_src":"//5322.svetacdn.in/si4jsFRrtgrT/movie/43428"},{"id":43427,"title":"Если я забуду","kp_id":"1095750","imdb_id":"tt6869368","world_art_id":null,"type":"movie","add":"2020-09-11 16:28:48","orig_title":"If I Forget","year":"2017-01-01","translations":["Любительский (многоголосый закадровый) (Синема УС)"],"quality":"webdl","translation":"Любительский (многоголосый закадровый) (Синема УС)","update":"2020-09-12 07:14:41","iframe_src":"//5322.svetacdn.in/si4jsFRrtgrT/movie/43427"},{"id":43426,"title":"Плохие стихи","kp_id":"1079784","imdb_id":"tt6755366","world_art_id":null,"type":"movie","add":"2020-09-11 16:25:42","orig_title":"Rossz versek","year":"2018-11-23","translations":["Любительский (многоголосый закадровый) (Синема УС)"],"quality":"webdl","translation":"Любительский (многоголосый закадровый) (Синема УС)","update":"2020-09-12 07:16:02","iframe_src":"//5322.svetacdn.in/si4jsFRrtgrT/movie/43426"},{"id":43425,"title":"Элли и Оби","kp_id":"879461","imdb_id":"tt4170168","world_art_id":null,"type":"movie","add":"2020-09-11 16:14:40","orig_title":"Allie & Obie","year":"2018-05-02","translations":["Любительский (многоголосый закадровый) (Синема УС)"],"quality":"webdl","translation":"Любительский (многоголосый закадровый) (Синема УС)","update":"2020-09-12 07:20:17","iframe_src":"//5322.svetacdn.in/si4jsFRrtgrT/movie/43425"},{"id":43424,"title":"Маленькое чудовище","kp_id":"1055192","imdb_id":"tt7462322","world_art_id":null,"type":"movie","add":"2020-09-11 16:12:37","orig_title":"Little Monster","year":"2018-11-11","translations":["Любительский (многоголосый закадровый) (Синема УС)"],"quality":"webdl","translation":"Любительский (многоголосый закадровый) (Синема УС)","update":"2020-09-12 07:18:43","iframe_src":"//5322.svetacdn.in/si4jsFRrtgrT/movie/43424"},{"id":43423,"title":"Июльский всход","kp_id":"1146682","imdb_id":"tt7306968","world_art_id":null,"type":"movie","add":"2020-09-11 16:10:38","orig_title":"July Rising","year":"2019-03-29","translations":["Любительский (многоголосый закадровый) (Синема УС)"],"quality":"webdl","translation":"Любительский (многоголосый закадровый) (Синема УС)","update":"2020-09-12 07:17:04","iframe_src":"//5322.svetacdn.in/si4jsFRrtgrT/movie/43423"},{"id":43422,"title":"Семь морей до Кале","kp_id":"198604","imdb_id":"tt0056396","world_art_id":null,"type":"movie","add":"2020-09-11 12:15:21","orig_title":"Il dominatore dei 7 mari","year":"1962-08-01","translations":["Профессиональный (многоголосый закадровый)"],"quality":"dvdrip","translation":"Профессиональный (многоголосый закадровый)","update":"2020-09-12 15:59:49","iframe_src":"//5322.svetacdn.in/si4jsFRrtgrT/movie/43422"},{"id":43420,"title":"Пуффы","kp_id":"1264031","imdb_id":"tt9856680","world_art_id":null,"type":"movie","add":"2020-09-11 11:51:30","orig_title":"Puffs: Filmed Live Off Broadway","year":"2018-05-09","translations":["Любительский (многоголосый закадровый) (Синема УС)"],"quality":"webdl","translation":"Любительский (многоголосый закадровый) (Синема УС)","update":"2020-09-12 07:21:46","iframe_src":"//5322.svetacdn.in/si4jsFRrtgrT/movie/43420"},{"id":43418,"title":"Долина чудес","kp_id":"860678","imdb_id":"tt4123414","world_art_id":null,"type":"movie","add":"2020-09-11 07:21:29","orig_title":"Wonder Valley","year":"2017-03-25","translations":["Любительский (многоголосый закадровый) (Синема УС)"],"quality":"webdl","translation":"Любительский (многоголосый закадровый) (Синема УС)","update":"2020-09-11 20:15:41","iframe_src":"//5322.svetacdn.in/si4jsFRrtgrT/movie/43418"},{"id":43416,"title":"Кожа других","kp_id":"944704","imdb_id":"tt5196158","world_art_id":null,"type":"movie","add":"2020-09-11 06:28:31","orig_title":"Die Haut der Anderen","year":"2016-10-25","translations":["Любительский (многоголосый закадровый) (AlphaProject)"],"quality":"webdl","translation":"Любительский (многоголосый закадровый) (AlphaProject)","update":"2020-09-11 13:24:09","iframe_src":"//5322.svetacdn.in/si4jsFRrtgrT/movie/43416"},{"id":43415,"title":"Пустые дни","kp_id":"1186059","imdb_id":"tt8301540","world_art_id":null,"type":"movie","add":"2020-09-11 06:26:37","orig_title":"Dias Vazios","year":"2018-01-25","translations":["Любительский (многоголосый закадровый) (Синема УС)"],"quality":"webdl","translation":"Любительский (многоголосый закадровый) (Синема УС)","update":"2020-09-11 13:24:33","iframe_src":"//5322.svetacdn.in/si4jsFRrtgrT/movie/43415"},{"id":43414,"title":"Счастливой пенсии!","kp_id":"1221427","imdb_id":"tt9454778","world_art_id":null,"type":"movie","add":"2020-09-11 06:25:12","orig_title":"Joyeuse retraite!","year":"2019-11-20","translations":["Любительский (многоголосый закадровый) (Синема УС)"],"quality":"webdl","translation":"Любительский (многоголосый закадровый) (Синема УС)","update":"2020-09-11 13:25:03","iframe_src":"//5322.svetacdn.in/si4jsFRrtgrT/movie/43414"},{"id":43412,"title":"Преступления на улице Мар дель Норте","kp_id":"1051380","imdb_id":"tt6777394","world_art_id":null,"type":"movie","add":"2020-09-11 06:23:43","orig_title":"Los crímenes de Mar del Norte","year":"2017-03-10","translations":["Любительский (многоголосый закадровый) (Синема УС)"],"quality":"webdl","translation":"Любительский (многоголосый закадровый) (Синема УС)","update":"2020-09-11 13:26:07","iframe_src":"//5322.svetacdn.in/si4jsFRrtgrT/movie/43412"},{"id":43411,"title":"Барбара","kp_id":"1322197","imdb_id":"tt11203346","world_art_id":null,"type":"movie","add":"2020-09-11 06:21:49","orig_title":"Barbara Reimagined","year":"2019-11-08","translations":["Любительский (многоголосый закадровый) (Синема УС)"],"quality":"webdl","translation":"Любительский (многоголосый закадровый) (Синема УС)","update":"2020-09-11 13:26:57","iframe_src":"//5322.svetacdn.in/si4jsFRrtgrT/movie/43411"},{"id":42872,"title":"Куриный забег","kp_id":"1230200","imdb_id":"tt9537888","world_art_id":null,"type":"movie","add":"2020-08-28 08:09:16","orig_title":"Elleville Elfrid","year":"2020-01-24","translations":["Полное дублирование (Звук с TS)","Полное дублирование"],"quality":"ts","translation":"Полное дублирование (Звук с TS)","update":"2020-09-12 12:18:19","iframe_src":"//5322.svetacdn.in/si4jsFRrtgrT/movie/42872"},{"id":19141,"title":"Куинси","kp_id":"1183610","imdb_id":"tt7440432","world_art_id":null,"type":"movie","add":"2018-09-23 22:16:09","orig_title":"Quincy","year":"2018-09-21","translations":["Любительский (многоголосый закадровый) (Синема УС)","Профессиональный (многоголосый закадровый) (HDrezka Studio)"],"quality":"webdl","translation":"Любительский (многоголосый закадровый) (Синема УС)","update":"2020-09-12 16:06:45","iframe_src":"//5322.svetacdn.in/si4jsFRrtgrT/movie/19141"},{"id":18946,"title":"Слайс","kp_id":"1023029","imdb_id":"tt4411234","world_art_id":null,"type":"movie","add":"2018-09-12 23:00:19","orig_title":"Slice","year":"2018-09-11","translations":["Любительский (многоголосый закадровый) (Синема УС)","Любительский (двухголосый закадровый) (HiWayGrope)","Профессиональный (многоголосый закадровый) (HDrezka Studio)","Профессиональный (многоголосый закадровый) (HDrezka Studio)"],"quality":"webdl","translation":"Любительский (многоголосый закадровый) (Синема УС)","update":"2020-09-12 16:08:18","iframe_src":"//5322.svetacdn.in/si4jsFRrtgrT/movie/18946"},{"id":1287,"title":"Погоня за шедевром","kp_id":"1045311","imdb_id":null,"world_art_id":null,"type":"serial","add":"2017-06-09 12:50:04","orig_title":"Погоня за шедевром","year":"2017-05-28","translations":["Оригинальная дорожка"],"seasons_count":1,"episodes_count":2,"episodes":2,"update":"2017-06-09 17:13:37","iframe_src":"//5322.svetacdn.in/si4jsFRrtgrT/tv-series/1287"},{"id":1286,"title":"В стиле Джейн","kp_id":"574719","imdb_id":"tt1743904","world_art_id":null,"type":"serial","add":"2017-06-07 11:49:40","orig_title":"Jane by Design","year":"2012-01-03","translations":["Профессиональный (многоголосый закадровый) (Fox Life)"],"seasons_count":1,"episodes_count":18,"episodes":18,"update":"2017-06-08 10:09:27","iframe_src":"//5322.svetacdn.in/si4jsFRrtgrT/tv-series/1286"},{"id":1285,"title":"А у нас во дворе","kp_id":"923154","imdb_id":null,"world_art_id":null,"type":"serial","add":"2017-06-07 11:45:38","orig_title":"А у нас во дворе","year":"2017-05-29","translations":["Оригинальная дорожка"],"seasons_count":1,"episodes_count":12,"episodes":12,"update":"2017-06-09 07:48:35","iframe_src":"//5322.svetacdn.in/si4jsFRrtgrT/tv-series/1285"},{"id":1283,"title":"Деньги","kp_id":"1045530","imdb_id":null,"world_art_id":null,"type":"serial","add":"2017-06-06 11:54:00","orig_title":"Деньги","year":"2017-06-04","translations":["Оригинальная дорожка"],"seasons_count":1,"episodes_count":2,"episodes":2,"update":"2017-06-07 04:21:36","iframe_src":"//5322.svetacdn.in/si4jsFRrtgrT/tv-series/1283"},{"id":1281,"title":"Джек в стране чудес","kp_id":"77219","imdb_id":"tt0264262","world_art_id":null,"type":"serial","add":"2017-06-05 04:54:14","orig_title":"Jack and the Beanstalk: The Real Story","year":"2001-10-01","translations":["Профессиональный (многоголосый закадровый)"],"seasons_count":1,"episodes_count":2,"episodes":2,"update":"2017-06-05 12:22:38","iframe_src":"//5322.svetacdn.in/si4jsFRrtgrT/tv-series/1281"},{"id":1280,"title":"Никому не говори","kp_id":"1045304","imdb_id":null,"world_art_id":null,"type":"serial","add":"2017-06-05 04:51:55","orig_title":"Никому не говори","year":"2017-06-03","translations":["Оригинальная дорожка"],"seasons_count":1,"episodes_count":2,"episodes":2,"update":"2017-06-05 12:23:41","iframe_src":"//5322.svetacdn.in/si4jsFRrtgrT/tv-series/1280"},{"id":1279,"title":"Мои соседи EXO","kp_id":"908346","imdb_id":"tt4775200","world_art_id":null,"type":"serial","add":"2017-06-02 10:54:49","orig_title":"Woo-Ri Yup-Jip-Ae Exo-Ga San-Da","year":"2015-04-09","translations":["Любительский (двухголосый закадровый) (STEPonee)"],"seasons_count":1,"episodes_count":16,"episodes":16,"update":"2017-06-06 09:43:28","iframe_src":"//5322.svetacdn.in/si4jsFRrtgrT/tv-series/1279"},{"id":1277,"title":"Адские кошки","kp_id":"506450","imdb_id":"tt1596356","world_art_id":null,"type":"serial","add":"2017-06-02 04:44:17","orig_title":"Hellcats","year":"2010-09-08","translations":["Профессиональный (многоголосый закадровый) (MTV)"],"seasons_count":1,"episodes_count":22,"episodes":22,"update":"2017-06-05 10:43:48","iframe_src":"//5322.svetacdn.in/si4jsFRrtgrT/tv-series/1277"},{"id":1275,"title":"Чудаки-одиночки","kp_id":"842715","imdb_id":"tt3549436","world_art_id":null,"type":"serial","add":"2017-05-31 11:47:36","orig_title":"Weird Loners","year":"2015-03-31","translations":["Любительский (многоголосый закадровый) (GladiolusTV)"],"seasons_count":1,"episodes_count":6,"episodes":6,"update":"2017-06-02 08:09:43","iframe_src":"//5322.svetacdn.in/si4jsFRrtgrT/tv-series/1275"},{"id":1274,"title":"Красные браслеты","kp_id":"574644","imdb_id":"tt1698292","world_art_id":null,"type":"serial","add":"2017-05-31 11:28:29","orig_title":"Polseres vermelles","year":"2011-01-24","translations":["Любительский (многоголосый закадровый) (Dream Records)"],"seasons_count":2,"episodes_count":28,"episodes":15,"update":"2017-06-02 07:50:34","iframe_src":"//5322.svetacdn.in/si4jsFRrtgrT/tv-series/1274"},{"id":1273,"title":"Босс и я","kp_id":"906890","imdb_id":"tt6186406","world_art_id":null,"type":"serial","add":"2017-05-30 12:04:40","orig_title":"Shan Shan Lai Le","year":"2014-01-01","translations":["Любительский (одноголосый закадровый)"],"seasons_count":1,"episodes_count":33,"episodes":33,"update":"2017-05-31 06:33:15","iframe_src":"//5322.svetacdn.in/si4jsFRrtgrT/tv-series/1273"},{"id":1270,"title":"Что ты затеяла, лиса?","kp_id":"716629","imdb_id":"tt3541132","world_art_id":null,"type":"serial","add":"2017-05-29 18:39:31","orig_title":"Yeowooya Mwohani","year":"2006-09-20","translations":["Любительский (одноголосый закадровый)"],"seasons_count":1,"episodes_count":16,"episodes":16,"update":"2017-06-02 08:29:22","iframe_src":"//5322.svetacdn.in/si4jsFRrtgrT/tv-series/1270"},{"id":1269,"title":"Детективное агентство «Лунный свет»","kp_id":"77291","imdb_id":"tt0088571","world_art_id":null,"type":"serial","add":"2017-05-29 07:07:04","orig_title":"Moonlighting","year":"1985-03-03","translations":["Профессиональный (многоголосый закадровый) (Первый канал | ОРТ)","Полное дублирование"],"seasons_count":5,"episodes_count":66,"episodes":13,"update":"2017-06-01 12:05:33","iframe_src":"//5322.svetacdn.in/si4jsFRrtgrT/tv-series/1269"},{"id":1265,"title":"Капитанша","kp_id":"1044988","imdb_id":null,"world_art_id":null,"type":"serial","add":"2017-05-26 09:30:42","orig_title":"Капитанша","year":"2017-05-17","translations":["Оригинальная дорожка"],"seasons_count":1,"episodes_count":16,"episodes":16,"update":"2017-05-30 13:05:46","iframe_src":"//5322.svetacdn.in/si4jsFRrtgrT/tv-series/1265"},{"id":1264,"title":"Полицейский с Рублевки в Бескудниково","kp_id":"1044770","imdb_id":null,"world_art_id":null,"type":"serial","add":"2017-05-26 09:08:48","orig_title":"Полицейский с Рублевки в Бескудниково","year":"2017-05-22","translations":["Оригинальная дорожка"],"seasons_count":1,"episodes_count":8,"episodes":8,"update":"2017-06-05 05:17:28","iframe_src":"//5322.svetacdn.in/si4jsFRrtgrT/tv-series/1264"},{"id":1261,"title":"Восьмидесятые","kp_id":"592383","imdb_id":"tt3765628","world_art_id":null,"type":"serial","add":"2017-05-23 10:52:44","orig_title":"Vosmidesyatye","year":"2012-01-30","translations":["Оригинальная дорожка"],"seasons_count":6,"episodes_count":105,"episodes":13,"update":"2017-05-31 13:09:58","iframe_src":"//5322.svetacdn.in/si4jsFRrtgrT/tv-series/1261"},{"id":1243,"title":"Громолёты, вперёд!","kp_id":"818761","imdb_id":"tt3138604","world_art_id":null,"type":"serial","add":"2017-05-12 09:40:15","orig_title":"Thunderbirds Are Go","year":"2015-04-04","translations":["Полное дублирование"],"seasons_count":1,"episodes_count":26,"episodes":26,"update":"2017-05-31 10:55:43","iframe_src":"//5322.svetacdn.in/si4jsFRrtgrT/tv-series/1243"},{"id":1165,"title":"Побег: Продолжение","kp_id":"968758","imdb_id":"tt4928092","world_art_id":null,"type":"serial","add":"2017-04-05 06:25:44","orig_title":"Prison Break: Sequel","year":"2017-04-04","translations":["Профессиональный (многоголосый закадровый) (LostFilm)"],"seasons_count":1,"episodes_count":9,"episodes":9,"update":"2017-06-05 05:17:52","iframe_src":"//5322.svetacdn.in/si4jsFRrtgrT/tv-series/1165"},{"id":1116,"title":"Темный ангел","kp_id":"963358","imdb_id":"tt4742700","world_art_id":null,"type":"serial","add":"2017-03-15 07:39:38","orig_title":"Dark Angel","year":"2016-10-31","translations":["Профессиональный (многоголосый закадровый)"],"seasons_count":1,"episodes_count":1,"episodes":1,"update":"2017-06-09 12:57:08","iframe_src":"//5322.svetacdn.in/si4jsFRrtgrT/tv-series/1116"},{"id":105,"title":"Родословная","kp_id":"843688","imdb_id":"tt3520702","world_art_id":null,"type":"serial","add":"2016-05-30 05:32:56","orig_title":"Bloodline","year":"2015-03-20","translations":["Профессиональный (многоголосый закадровый) (BaibaKo)","Профессиональный (многоголосый закадровый) (AlexFilm)"],"seasons_count":3,"episodes_count":33,"episodes":10,"update":"2017-06-06 11:46:35","iframe_src":"//5322.svetacdn.in/si4jsFRrtgrT/tv-series/105"}],"current_page":488,"first_page_url":"https://videocdn.tv/api/short?limit=100&api_token=X6EwAUfE5M9xbo7y0Bp0aPf3uXxG2KLL&cache3488=3488&page=1","from":48701,"last_page":627,"last_page_url":"https://videocdn.tv/api/short?limit=100&api_token=X6EwAUfE5M9xbo7y0Bp0aPf3uXxG2KLL&cache3488=3488&page=627","next_page_url":"https://videocdn.tv/api/short?limit=100&api_token=X6EwAUfE5M9xbo7y0Bp0aPf3uXxG2KLL&cache3488=3488&page=489","path":"https://videocdn.tv/api/short","per_page":100,"prev_page_url":"https://videocdn.tv/api/short?limit=100&api_token=X6EwAUfE5M9xbo7y0Bp0aPf3uXxG2KLL&cache3488=3488&page=487","to":48740,"total":62648}