{"result":true,"data":[{"id":26512,"title":"Пираты кровавой реки","kp_id":"5729","imdb_id":"tt0056350","world_art_id":null,"type":"movie","add":"2019-05-14 20:44:33","orig_title":"The Pirates of Blood River","year":"1962-05-09","translations":["Профессиональный (многоголосый закадровый) (5-й канал СПб)"],"quality":"bd","translation":"Профессиональный (многоголосый закадровый) (5-й канал СПб)","update":"2019-05-15 12:26:27","iframe_src":"//8209.svetacdn.in/IAF0wWTdNYZm/movie/26512"},{"id":26511,"title":"2019: Новые варвары","kp_id":"156842","imdb_id":"tt0084424","world_art_id":null,"type":"movie","add":"2019-05-14 20:42:49","orig_title":"I nuovi barbari","year":"1983-06-10","translations":["Профессиональный (многоголосый закадровый)"],"quality":"bd","translation":"Профессиональный (многоголосый закадровый)","update":"2019-05-15 12:18:34","iframe_src":"//8209.svetacdn.in/IAF0wWTdNYZm/movie/26511"},{"id":26509,"title":"Моя блестящая карьера","kp_id":"22702","imdb_id":"tt0079596","world_art_id":null,"type":"movie","add":"2019-05-14 20:32:45","orig_title":"My Brilliant Career","year":"1979-08-17","translations":["Профессиональный (одноголосый закадровый)"],"quality":"bd","translation":"Профессиональный (одноголосый закадровый)","update":"2019-05-15 12:12:59","iframe_src":"//8209.svetacdn.in/IAF0wWTdNYZm/movie/26509"},{"id":26508,"title":"Людмила","kp_id":"45170","imdb_id":"tt0251810","world_art_id":null,"type":"movie","add":"2019-05-14 20:32:09","orig_title":"Lyudmila","year":"1982-11-01","translations":["Оригинальная дорожка"],"quality":"sat","translation":"Оригинальная дорожка","update":"2019-05-15 12:11:58","iframe_src":"//8209.svetacdn.in/IAF0wWTdNYZm/movie/26508"},{"id":26507,"title":"Зеркальные войны: Отражение первое","kp_id":"49345","imdb_id":"tt0337678","world_art_id":null,"type":"movie","add":"2019-05-14 20:26:07","orig_title":"Zerkalnye voyny. Otrazhenie pervoe","year":"2005-09-01","translations":["Оригинальная дорожка"],"quality":"dvdrip","translation":"Оригинальная дорожка","update":"2019-05-15 12:07:10","iframe_src":"//8209.svetacdn.in/IAF0wWTdNYZm/movie/26507"},{"id":26505,"title":"Переселенец","kp_id":"591970","imdb_id":null,"world_art_id":null,"type":"movie","add":"2019-05-14 20:17:38","orig_title":"Переселенец","year":"2009-01-01","translations":["Оригинальная дорожка"],"quality":"sat","translation":"Оригинальная дорожка","update":"2019-05-15 12:01:15","iframe_src":"//8209.svetacdn.in/IAF0wWTdNYZm/movie/26505"},{"id":26504,"title":"Золотая голова на плахе","kp_id":"436247","imdb_id":"tt1386504","world_art_id":null,"type":"movie","add":"2019-05-14 20:09:07","orig_title":"Zolotaya golova na plakhe","year":"2005-09-29","translations":["Оригинальная дорожка"],"quality":"dvdrip","translation":"Оригинальная дорожка","update":"2019-05-15 11:59:38","iframe_src":"//8209.svetacdn.in/IAF0wWTdNYZm/movie/26504"},{"id":26503,"title":"Балалайкин и К","kp_id":"636136","imdb_id":"tt6100218","world_art_id":null,"type":"movie","add":"2019-05-14 20:05:50","orig_title":"Balalaykin i Ko","year":"1973-01-01","translations":["Оригинальная дорожка"],"quality":"dvdrip","translation":"Оригинальная дорожка","update":"2019-05-15 11:58:46","iframe_src":"//8209.svetacdn.in/IAF0wWTdNYZm/movie/26503"},{"id":26492,"title":"Маша","kp_id":"694593","imdb_id":"tt3547890","world_art_id":null,"type":"movie","add":"2019-05-14 08:59:06","orig_title":"Masha","year":"2012-01-01","translations":["Оригинальная дорожка"],"quality":"dvdrip","translation":"Оригинальная дорожка","update":"2019-05-15 11:57:01","iframe_src":"//8209.svetacdn.in/IAF0wWTdNYZm/movie/26492"},{"id":26489,"title":"Лунный свет","kp_id":"734192","imdb_id":null,"world_art_id":null,"type":"movie","add":"2019-05-14 08:26:52","orig_title":"Лунный свет","year":"2012-01-01","translations":["Оригинальная дорожка"],"quality":"dvdrip","translation":"Оригинальная дорожка","update":"2019-05-15 11:56:15","iframe_src":"//8209.svetacdn.in/IAF0wWTdNYZm/movie/26489"},{"id":26487,"title":"Московский жиголо","kp_id":"394409","imdb_id":"tt1095405","world_art_id":null,"type":"movie","add":"2019-05-14 08:16:01","orig_title":"Moskovskiy zhigolo","year":"2008-02-14","translations":["Оригинальная дорожка"],"quality":"dvdrip","translation":"Оригинальная дорожка","update":"2019-05-15 11:55:15","iframe_src":"//8209.svetacdn.in/IAF0wWTdNYZm/movie/26487"},{"id":26485,"title":"Неделя до свадьбы","kp_id":"581951","imdb_id":null,"world_art_id":null,"type":"movie","add":"2019-05-14 07:58:23","orig_title":"Неделя до свадьбы","year":"2011-01-01","translations":["Оригинальная дорожка"],"quality":"dvdrip","translation":"Оригинальная дорожка","update":"2019-05-15 11:44:35","iframe_src":"//8209.svetacdn.in/IAF0wWTdNYZm/movie/26485"},{"id":26484,"title":"Никто не знает про секс","kp_id":"161100","imdb_id":"tt0479728","world_art_id":null,"type":"movie","add":"2019-05-14 07:49:50","orig_title":"Nikto ne znaet pro seks","year":"2006-07-27","translations":["Оригинальная дорожка"],"quality":"dvdrip","translation":"Оригинальная дорожка","update":"2019-05-15 11:43:13","iframe_src":"//8209.svetacdn.in/IAF0wWTdNYZm/movie/26484"},{"id":26482,"title":"Новое платье Королевой","kp_id":"660798","imdb_id":"tt3519278","world_art_id":null,"type":"movie","add":"2019-05-14 07:43:17","orig_title":"Novoe plate Korolevoy","year":"2012-01-14","translations":["Оригинальная дорожка"],"quality":"sat","translation":"Оригинальная дорожка","update":"2019-05-15 11:41:33","iframe_src":"//8209.svetacdn.in/IAF0wWTdNYZm/movie/26482"},{"id":26481,"title":"Пойти и не вернуться","kp_id":"461906","imdb_id":"tt4504954","world_art_id":null,"type":"movie","add":"2019-05-14 07:34:37","orig_title":"Poyti i ne vernutsya","year":"1992-01-01","translations":["Оригинальная дорожка"],"quality":"sat","translation":"Оригинальная дорожка","update":"2019-05-15 11:40:43","iframe_src":"//8209.svetacdn.in/IAF0wWTdNYZm/movie/26481"},{"id":25501,"title":"Мама поневоле","kp_id":"709432","imdb_id":null,"world_art_id":null,"type":"movie","add":"2019-04-28 10:29:20","orig_title":"Мама поневоле","year":"2012-10-07","translations":["Оригинальная дорожка"],"quality":"webdl","translation":"Оригинальная дорожка","update":"2019-05-15 12:06:13","iframe_src":"//8209.svetacdn.in/IAF0wWTdNYZm/movie/25501"},{"id":24446,"title":"Дни любви","kp_id":"57014","imdb_id":"tt0047024","world_art_id":null,"type":"movie","add":"2019-04-12 20:37:39","orig_title":"Giorni d'amore","year":"1954-11-19","translations":["Профессиональный (двухголосый закадровый)"],"quality":"dvdrip","translation":"Профессиональный (двухголосый закадровый)","update":"2019-05-15 12:10:55","iframe_src":"//8209.svetacdn.in/IAF0wWTdNYZm/movie/24446"},{"id":17301,"title":"Царь зла","kp_id":"35516","imdb_id":"tt0091829","world_art_id":null,"type":"movie","add":"2018-06-22 00:33:07","orig_title":"Rawhead Rex","year":"1986-03-14","translations":["Авторский (одноголосый закадровый) (Живов Юрий)","Профессиональный (двухголосый закадровый)"],"quality":"bd","translation":"Авторский (одноголосый закадровый) (Живов Юрий)","update":"2019-05-15 12:15:17","iframe_src":"//8209.svetacdn.in/IAF0wWTdNYZm/movie/17301"},{"id":5105,"title":"Близкие враги","kp_id":"681065","imdb_id":"tt2395199","world_art_id":null,"type":"movie","add":"2016-09-08 06:38:41","orig_title":"Enemies Closer","year":"2013-12-04","translations":["Профессиональный (многоголосый закадровый)","Любительский (одноголосый закадровый)"],"quality":"bd","translation":"Профессиональный (многоголосый закадровый)","update":"2019-05-15 12:08:53","iframe_src":"//8209.svetacdn.in/IAF0wWTdNYZm/movie/5105"},{"id":2621,"title":"Мертвая девочка","kp_id":"252205","imdb_id":"tt0783238","world_art_id":null,"type":"movie","add":"2016-05-26 17:22:30","orig_title":"The Dead Girl","year":"2006-11-07","translations":["Профессиональный (многоголосый закадровый)","Профессиональный (многоголосый закадровый)"],"quality":"hdtv","translation":"Профессиональный (многоголосый закадровый)","update":"2019-05-15 12:17:25","iframe_src":"//8209.svetacdn.in/IAF0wWTdNYZm/movie/2621"}],"current_page":1534,"first_page_url":"https://videocdn.tv/api/short?limit=100&api_token=6Onb1W1alEUrBcKJZD3GoKBbWyAl2uG2&cache31534=31534&page=1","from":153301,"last_page":655,"last_page_url":"https://videocdn.tv/api/short?limit=100&api_token=6Onb1W1alEUrBcKJZD3GoKBbWyAl2uG2&cache31534=31534&page=655","next_page_url":null,"path":"https://videocdn.tv/api/short","per_page":100,"prev_page_url":"https://videocdn.tv/api/short?limit=100&api_token=6Onb1W1alEUrBcKJZD3GoKBbWyAl2uG2&cache31534=31534&page=1533","to":153320,"total":65456}