{"result":true,"data":[{"id":18583,"title":"Кто такой Артур Чу?","kp_id":"1072141","imdb_id":"tt4030014","world_art_id":null,"type":"movie","add":"2018-08-26 23:34:14","orig_title":"Who Is Arthur Chu?","year":"2017-01-20","translations":["Любительский (многоголосый закадровый) (Синема УС)"],"quality":"webdl","translation":"Любительский (многоголосый закадровый) (Синема УС)","update":"2018-08-27 07:23:58","iframe_src":"//7741.svetacdn.in/IAF0wWTdNYZm/movie/18583"},{"id":18581,"title":"Витаминия. Правда и вымысел о витаминах","kp_id":null,"imdb_id":"tt8232232","world_art_id":null,"type":"movie","add":"2018-08-26 23:31:04","orig_title":"Vitamania: The Sense and Nonsense of Vitamins","year":"2018-08-03","translations":["Любительский (многоголосый закадровый) (Синема УС)"],"quality":"webdl","translation":"Любительский (многоголосый закадровый) (Синема УС)","update":"2018-08-27 07:21:16","iframe_src":"//7741.svetacdn.in/IAF0wWTdNYZm/movie/18581"},{"id":18580,"title":"Мертвое время","kp_id":null,"imdb_id":"tt5916712","world_art_id":null,"type":"movie","add":"2018-08-26 23:29:39","orig_title":"Tiempo muerto","year":"2016-05-12","translations":["Любительский (многоголосый закадровый) (Колобок)"],"quality":"webdl","translation":"Любительский (многоголосый закадровый) (Колобок)","update":"2018-08-27 07:20:11","iframe_src":"//7741.svetacdn.in/IAF0wWTdNYZm/movie/18580"},{"id":18578,"title":"Домициль","kp_id":"970897","imdb_id":"tt5585662","world_art_id":null,"type":"movie","add":"2018-08-26 23:19:55","orig_title":"The Domicile","year":"2017-08-08","translations":["Любительский (одноголосый закадровый) (datynet | Агапов Антон)"],"quality":"dvdrip","translation":"Любительский (одноголосый закадровый) (datynet | Агапов Антон)","update":"2018-08-27 07:13:50","iframe_src":"//7741.svetacdn.in/IAF0wWTdNYZm/movie/18578"},{"id":18576,"title":"Стокгольм","kp_id":"790607","imdb_id":"tt3118920","world_art_id":null,"type":"movie","add":"2018-08-26 23:16:32","orig_title":"Stockholm","year":"2017-03-28","translations":["Любительский (одноголосый закадровый) (datynet | Агапов Антон)"],"quality":"webdl","translation":"Любительский (одноголосый закадровый) (datynet | Агапов Антон)","update":"2018-08-27 07:11:19","iframe_src":"//7741.svetacdn.in/IAF0wWTdNYZm/movie/18576"},{"id":18573,"title":"Осквернённая","kp_id":"1021850","imdb_id":"tt6417014","world_art_id":null,"type":"movie","add":"2018-08-26 23:11:00","orig_title":"Spina","year":"2017-01-28","translations":["Любительский (одноголосый закадровый) (datynet | Агапов Антон)"],"quality":"hdtv","translation":"Любительский (одноголосый закадровый) (datynet | Агапов Антон)","update":"2018-08-27 07:00:00","iframe_src":"//7741.svetacdn.in/IAF0wWTdNYZm/movie/18573"},{"id":18572,"title":"Секс-ковбои","kp_id":"1052534","imdb_id":"tt6184120","world_art_id":null,"type":"movie","add":"2018-08-26 23:08:45","orig_title":"Sex Cowboys","year":"2016-11-26","translations":["Любительский (одноголосый закадровый) (datynet | Агапов Антон)"],"quality":"dvdrip","translation":"Любительский (одноголосый закадровый) (datynet | Агапов Антон)","update":"2018-08-27 06:50:13","iframe_src":"//7741.svetacdn.in/IAF0wWTdNYZm/movie/18572"},{"id":18568,"title":"Моя младшая сестра","kp_id":"947475","imdb_id":"tt5178348","world_art_id":null,"type":"movie","add":"2018-08-26 22:56:45","orig_title":"My Little Sister","year":"2016-04-30","translations":["Любительский (одноголосый закадровый) (datynet | Агапов Антон)","Любительский (многоголосый закадровый) (Синема УС)"],"quality":"webdl","translation":"Любительский (одноголосый закадровый) (datynet | Агапов Антон)","update":"2018-08-27 06:37:20","iframe_src":"//7741.svetacdn.in/IAF0wWTdNYZm/movie/18568"},{"id":18567,"title":"Муза","kp_id":"864365","imdb_id":"tt3951206","world_art_id":null,"type":"movie","add":"2018-08-26 22:54:35","orig_title":"Muse","year":"2017-09-09","translations":["Любительский (многоголосый закадровый) (Синема УС)"],"quality":"webdl","translation":"Любительский (многоголосый закадровый) (Синема УС)","update":"2018-08-27 06:33:45","iframe_src":"//7741.svetacdn.in/IAF0wWTdNYZm/movie/18567"},{"id":18566,"title":"Мюрхаус","kp_id":"683389","imdb_id":"tt2146834","world_art_id":null,"type":"movie","add":"2018-08-26 22:50:37","orig_title":"Muirhouse","year":"2012-01-01","translations":["Любительский (одноголосый закадровый) (datynet | Агапов Антон)"],"quality":"webdl","translation":"Любительский (одноголосый закадровый) (datynet | Агапов Антон)","update":"2018-08-27 06:22:21","iframe_src":"//7741.svetacdn.in/IAF0wWTdNYZm/movie/18566"},{"id":18564,"title":"Любовь без подготовки","kp_id":"1000427","imdb_id":"tt5956006","world_art_id":null,"type":"movie","add":"2018-08-26 22:44:31","orig_title":"Chun giu gau chi ming","year":"2017-04-22","translations":["Любительский (многоголосый закадровый) (Синема УС)"],"quality":"bd","translation":"Любительский (многоголосый закадровый) (Синема УС)","update":"2018-08-27 06:12:55","iframe_src":"//7741.svetacdn.in/IAF0wWTdNYZm/movie/18564"},{"id":18563,"title":"Убийца-психопатка","kp_id":"877051","imdb_id":"tt3723788","world_art_id":null,"type":"movie","add":"2018-08-26 22:40:16","orig_title":"Lady Psycho Killer","year":"2015-08-02","translations":["Любительский (одноголосый закадровый) (datynet | Агапов Антон)"],"quality":"webdl","translation":"Любительский (одноголосый закадровый) (datynet | Агапов Антон)","update":"2018-08-27 06:05:49","iframe_src":"//7741.svetacdn.in/IAF0wWTdNYZm/movie/18563"},{"id":18562,"title":"Призрак ведьмы","kp_id":"679468","imdb_id":"tt2369411","world_art_id":null,"type":"movie","add":"2018-08-26 22:22:08","orig_title":"The Legend of Seven Toe Maggie","year":"2015-03-13","translations":["Любительский (одноголосый закадровый) (datynet | Агапов Антон)"],"quality":"dvdrip","translation":"Любительский (одноголосый закадровый) (datynet | Агапов Антон)","update":"2018-08-27 05:53:46","iframe_src":"//7741.svetacdn.in/IAF0wWTdNYZm/movie/18562"},{"id":18560,"title":"Эвелин","kp_id":"610856","imdb_id":"tt1957898","world_art_id":null,"type":"movie","add":"2018-08-26 22:16:07","orig_title":"Evelyn","year":"2012-06-08","translations":["Любительский (двухголосый закадровый) (datynet & Galina Vasyukova)"],"quality":"dvdrip","translation":"Любительский (двухголосый закадровый) (datynet & Galina Vasyukova)","update":"2018-08-27 05:49:33","iframe_src":"//7741.svetacdn.in/IAF0wWTdNYZm/movie/18560"},{"id":18559,"title":"В бегах","kp_id":"1081079","imdb_id":"tt6698648","world_art_id":null,"type":"movie","add":"2018-08-26 22:10:34","orig_title":"Escaping Dad","year":"2017-05-21","translations":["Любительский (многоголосый закадровый) (Синема УС)"],"quality":"webdl","translation":"Любительский (многоголосый закадровый) (Синема УС)","update":"2018-08-27 05:47:15","iframe_src":"//7741.svetacdn.in/IAF0wWTdNYZm/movie/18559"},{"id":18411,"title":"Эта старая машина","kp_id":"1101225","imdb_id":"tt7650198","world_art_id":null,"type":"movie","add":"2018-08-19 21:41:47","orig_title":"This Old Machine","year":"2017-11-14","translations":["Любительский (многоголосый закадровый) (Синема УС)","Любительский (двухголосый закадровый) (HiWayGrope)"],"quality":"dvdrip","translation":"Любительский (многоголосый закадровый) (Синема УС)","update":"2018-08-27 07:18:40","iframe_src":"//7741.svetacdn.in/IAF0wWTdNYZm/movie/18411"},{"id":17122,"title":"Эвтанайзер","kp_id":"1033134","imdb_id":"tt6505968","world_art_id":null,"type":"movie","add":"2018-06-10 19:47:48","orig_title":"Armomurhaaja","year":"2017-09-07","translations":["Любительский (двухголосый закадровый) (datynet & Galina Vasyukova)","Любительский (многоголосый закадровый) (Синема УС)"],"quality":"hdtv","translation":"Любительский (двухголосый закадровый) (datynet & Galina Vasyukova)","update":"2018-08-27 05:48:29","iframe_src":"//7741.svetacdn.in/IAF0wWTdNYZm/movie/17122"},{"id":16865,"title":"Майами","kp_id":"988655","imdb_id":"tt5822148","world_art_id":null,"type":"movie","add":"2018-05-22 06:52:39","orig_title":"Miami","year":"2017-08-04","translations":["Любительский (многоголосый закадровый) (Синема УС)","Профессиональный (многоголосый закадровый) (GreenРай Studio)"],"quality":"bd","translation":"Любительский (многоголосый закадровый) (Синема УС)","update":"2018-08-27 06:15:38","iframe_src":"//7741.svetacdn.in/IAF0wWTdNYZm/movie/16865"},{"id":12709,"title":"Изоляция","kp_id":"860825","imdb_id":"tt4287348","world_art_id":null,"type":"movie","add":"2017-07-30 21:41:44","orig_title":"Isolation","year":"2015-10-31","translations":["Любительский (многоголосый закадровый) (Синема УС)","Любительский (одноголосый закадровый) (datynet | Агапов Антон)"],"quality":"bd","translation":"Любительский (многоголосый закадровый) (Синема УС)","update":"2018-08-27 06:01:20","iframe_src":"//7741.svetacdn.in/IAF0wWTdNYZm/movie/12709"},{"id":9870,"title":"Спокойной ночи, мамочка","kp_id":"784335","imdb_id":"tt3086442","world_art_id":null,"type":"movie","add":"2017-02-21 11:56:45","orig_title":"Ich seh ich seh","year":"2014-08-30","translations":["Любительский (одноголосый закадровый) (Хихикающий доктор)","Профессиональный (многоголосый закадровый) (СВ-Студия)"],"quality":"dvdrip","translation":"Любительский (одноголосый закадровый) (Хихикающий доктор)","update":"2018-08-27 05:59:57","iframe_src":"//7741.svetacdn.in/IAF0wWTdNYZm/movie/9870"}],"current_page":2162,"first_page_url":"https://videocdn.tv/api/short?limit=100&api_token=6Onb1W1alEUrBcKJZD3GoKBbWyAl2uG2&cache32162=32162&page=1","from":216101,"last_page":708,"last_page_url":"https://videocdn.tv/api/short?limit=100&api_token=6Onb1W1alEUrBcKJZD3GoKBbWyAl2uG2&cache32162=32162&page=708","next_page_url":null,"path":"https://videocdn.tv/api/short","per_page":100,"prev_page_url":"https://videocdn.tv/api/short?limit=100&api_token=6Onb1W1alEUrBcKJZD3GoKBbWyAl2uG2&cache32162=32162&page=2161","to":216120,"total":70737}