{"result":true,"data":[{"id":46085,"title":"Эшли Гарсиа: гениальная и влюбленная","kp_id":"1411324","imdb_id":"tt12593558","world_art_id":null,"type":"movie","add":"2020-12-15 06:54:47","orig_title":"Ashley Garcia: Genius in Love","year":"2020-07-20","translations":["Любительский (многоголосый закадровый) (Синема УС)"],"quality":"webdl","translation":"Любительский (многоголосый закадровый) (Синема УС)","update":"2020-12-15 09:46:33","iframe_src":"//83.svetacdn.in/PfJ50H0ZBPg3/movie/46085"},{"id":46082,"title":"Легенда о воюющих царствах 2: Хладнокровный пир","kp_id":"1118760","imdb_id":"tt10701926","world_art_id":null,"type":"movie","add":"2020-12-15 06:49:44","orig_title":"L.O.R.D: Legend of Ravaging Dynasties 2","year":"2020-12-04","translations":["Любительский (двухголосый закадровый) (Колобок)"],"quality":"webdl","translation":"Любительский (двухголосый закадровый) (Колобок)","update":"2020-12-15 14:37:36","iframe_src":"//83.svetacdn.in/PfJ50H0ZBPg3/movie/46082"},{"id":46081,"title":"Цена любви","kp_id":null,"imdb_id":"tt13586568","world_art_id":null,"type":"movie","add":"2020-12-15 06:48:07","orig_title":"Price of Love","year":"2020-11-06","translations":["Любительский (многоголосый закадровый) (Синема УС)"],"quality":"webdl","translation":"Любительский (многоголосый закадровый) (Синема УС)","update":"2020-12-15 09:46:16","iframe_src":"//83.svetacdn.in/PfJ50H0ZBPg3/movie/46081"},{"id":46080,"title":"Психопомп","kp_id":"1254189","imdb_id":"tt10172986","world_art_id":null,"type":"movie","add":"2020-12-15 06:46:53","orig_title":"Psychopomp","year":"2020-12-08","translations":["Любительский (многоголосый закадровый) (Синема УС)"],"quality":"webdl","translation":"Любительский (многоголосый закадровый) (Синема УС)","update":"2020-12-15 14:30:52","iframe_src":"//83.svetacdn.in/PfJ50H0ZBPg3/movie/46080"},{"id":46075,"title":"Неотступная","kp_id":"1145881","imdb_id":"tt8365306","world_art_id":null,"type":"movie","add":"2020-12-15 06:38:33","orig_title":"Relentless","year":"2020-01-24","translations":["Любительский (многоголосый закадровый) (Синема УС)"],"quality":"webdl","translation":"Любительский (многоголосый закадровый) (Синема УС)","update":"2020-12-15 14:26:49","iframe_src":"//83.svetacdn.in/PfJ50H0ZBPg3/movie/46075"},{"id":46063,"title":"Красная стрела","kp_id":"44954","imdb_id":"tt0266706","world_art_id":null,"type":"movie","add":"2020-12-14 14:28:15","orig_title":"Krasnaya strela","year":"1987-03-25","translations":["Оригинальная дорожка"],"quality":"sat","translation":"Оригинальная дорожка","update":"2020-12-15 15:04:47","iframe_src":"//83.svetacdn.in/PfJ50H0ZBPg3/movie/46063"},{"id":46062,"title":"Любовь моя вечная","kp_id":"45151","imdb_id":"tt0129214","world_art_id":null,"type":"movie","add":"2020-12-14 14:25:52","orig_title":"Lyubov moya vechnaya","year":"1981-03-18","translations":["Оригинальная дорожка"],"quality":"sat","translation":"Оригинальная дорожка","update":"2020-12-15 15:02:43","iframe_src":"//83.svetacdn.in/PfJ50H0ZBPg3/movie/46062"},{"id":46061,"title":"Салют, Мария!","kp_id":"43599","imdb_id":"tt0171714","world_art_id":null,"type":"movie","add":"2020-12-14 14:22:12","orig_title":"Salyut, Mariya!","year":"1971-04-12","translations":["Оригинальная дорожка"],"quality":"sat","translation":"Оригинальная дорожка","update":"2020-12-15 14:59:17","iframe_src":"//83.svetacdn.in/PfJ50H0ZBPg3/movie/46061"},{"id":46050,"title":"Ненаглядный мой","kp_id":"471146","imdb_id":"tt5595572","world_art_id":null,"type":"movie","add":"2020-12-13 15:28:51","orig_title":"Nenaglyadnyy moy","year":"1983-05-05","translations":["Оригинальная дорожка"],"quality":"dvdrip","translation":"Оригинальная дорожка","update":"2020-12-15 11:06:42","iframe_src":"//83.svetacdn.in/PfJ50H0ZBPg3/movie/46050"},{"id":46049,"title":"Пиковая дама","kp_id":"84222","imdb_id":"tt0084498","world_art_id":null,"type":"movie","add":"2020-12-13 15:25:02","orig_title":"Pikovaya dama","year":"1982-02-20","translations":["Оригинальная дорожка"],"quality":"dvdrip","translation":"Оригинальная дорожка","update":"2020-12-15 11:04:52","iframe_src":"//83.svetacdn.in/PfJ50H0ZBPg3/movie/46049"},{"id":46048,"title":"Пляжный разбойник","kp_id":"306758","imdb_id":"tt0826604","world_art_id":null,"type":"movie","add":"2020-12-13 15:22:38","orig_title":"Pliajis kachagi","year":"1987-01-05","translations":["Оригинальная дорожка"],"quality":"dvb","translation":"Оригинальная дорожка","update":"2020-12-15 11:03:18","iframe_src":"//83.svetacdn.in/PfJ50H0ZBPg3/movie/46048"},{"id":46047,"title":"Разрешите взлет!","kp_id":"42072","imdb_id":"tt0128432","world_art_id":null,"type":"movie","add":"2020-12-13 15:19:11","orig_title":"Razreshite vzlyot!","year":"1972-06-19","translations":["Оригинальная дорожка"],"quality":"sat","translation":"Оригинальная дорожка","update":"2020-12-15 11:00:52","iframe_src":"//83.svetacdn.in/PfJ50H0ZBPg3/movie/46047"},{"id":46046,"title":"Тайна крепости","kp_id":"440010","imdb_id":"tt2081190","world_art_id":null,"type":"movie","add":"2020-12-13 15:15:33","orig_title":"Bir qalanin sirri","year":"1959-12-27","translations":["Оригинальная дорожка"],"quality":"webdl","translation":"Оригинальная дорожка","update":"2020-12-15 10:58:45","iframe_src":"//83.svetacdn.in/PfJ50H0ZBPg3/movie/46046"},{"id":46045,"title":"Улыбнись соседу","kp_id":"42521","imdb_id":"tt0063734","world_art_id":null,"type":"movie","add":"2020-12-13 15:12:17","orig_title":"Ulybnis sosedu","year":"1969-01-17","translations":["Оригинальная дорожка"],"quality":"sat","translation":"Оригинальная дорожка","update":"2020-12-15 10:58:04","iframe_src":"//83.svetacdn.in/PfJ50H0ZBPg3/movie/46045"},{"id":46044,"title":"Концерт на экране","kp_id":"44912","imdb_id":"tt0031541","world_art_id":null,"type":"movie","add":"2020-12-13 15:09:32","orig_title":"Kontsert na ekrane","year":"1940-01-01","translations":["Оригинальная дорожка"],"quality":"sat","translation":"Оригинальная дорожка","update":"2020-12-15 10:57:08","iframe_src":"//83.svetacdn.in/PfJ50H0ZBPg3/movie/46044"},{"id":46041,"title":"Только вдвоем","kp_id":"455345","imdb_id":"tt2194701","world_art_id":null,"type":"movie","add":"2020-12-13 14:58:39","orig_title":"Tolko vdvoyom","year":"1976-01-01","translations":["Оригинальная дорожка"],"quality":"dvdrip","translation":"Оригинальная дорожка","update":"2020-12-15 11:10:11","iframe_src":"//83.svetacdn.in/PfJ50H0ZBPg3/movie/46041"},{"id":44303,"title":"Честный вор","kp_id":"609931","imdb_id":"tt1838556","world_art_id":null,"type":"movie","add":"2020-10-11 17:38:28","orig_title":"Honest Thief","year":"2020-09-03","translations":["Original (English)","Полное дублирование","Полное дублирование (Звук с TS)","Полное дублирование (iTunes)"],"quality":"bd","translation":"Original (English)","update":"2020-12-15 11:03:41","iframe_src":"//83.svetacdn.in/PfJ50H0ZBPg3/movie/44303"},{"id":5564,"title":"Шпионы Варшавы","kp_id":"676430","imdb_id":"tt2343137","world_art_id":null,"type":"serial","add":"2019-10-29 06:12:39","orig_title":"Spies of Warsaw","year":"2013-01-09","translations":["Профессиональный (многоголосый закадровый) (BaibaKo)"],"seasons_count":1,"episodes_count":2,"episodes":2,"update":"2019-10-29 08:08:17","iframe_src":"//83.svetacdn.in/PfJ50H0ZBPg3/tv-series/5564"},{"id":5560,"title":"Роковое sms","kp_id":"1221593","imdb_id":null,"world_art_id":null,"type":"serial","add":"2019-10-28 19:04:12","orig_title":"Роковое sms","year":"2018-11-23","translations":["Оригинальная дорожка"],"seasons_count":1,"episodes_count":2,"episodes":2,"update":"2019-10-29 03:54:49","iframe_src":"//83.svetacdn.in/PfJ50H0ZBPg3/tv-series/5560"},{"id":5547,"title":"Досье детектива Дубровского","kp_id":"94422","imdb_id":"tt0216466","world_art_id":null,"type":"serial","add":"2019-10-28 08:21:37","orig_title":"Dose detektiva Dubrovskogo","year":"1999-06-16","translations":["Оригинальная дорожка"],"seasons_count":1,"episodes_count":18,"episodes":18,"update":"2019-10-28 10:31:24","iframe_src":"//83.svetacdn.in/PfJ50H0ZBPg3/tv-series/5547"},{"id":5546,"title":"Тайные дела подружек невесты","kp_id":"1263458","imdb_id":"tt9893174","world_art_id":null,"type":"serial","add":"2019-10-28 07:57:23","orig_title":"Secret Bridesmaids' Business","year":"2019-09-29","translations":["Профессиональный (многоголосый закадровый) (Sound Film)"],"seasons_count":1,"episodes_count":6,"episodes":6,"update":"2019-10-29 06:10:55","iframe_src":"//83.svetacdn.in/PfJ50H0ZBPg3/tv-series/5546"},{"id":5544,"title":"Шпионы на всю голову","kp_id":"1130828","imdb_id":"tt8096690","world_art_id":null,"type":"serial","add":"2019-10-28 07:25:17","orig_title":"Action Team","year":"2018-03-05","translations":["Профессиональный (многоголосый закадровый) (ShowJet)"],"seasons_count":1,"episodes_count":6,"episodes":6,"update":"2019-10-28 13:49:26","iframe_src":"//83.svetacdn.in/PfJ50H0ZBPg3/tv-series/5544"},{"id":5543,"title":"Компаньонка","kp_id":"1302075","imdb_id":"tt10927864","world_art_id":null,"type":"serial","add":"2019-10-28 07:20:06","orig_title":"A Companion","year":"2019-10-27","translations":["Оригинальная дорожка"],"seasons_count":1,"episodes_count":4,"episodes":4,"update":"2019-10-29 07:41:24","iframe_src":"//83.svetacdn.in/PfJ50H0ZBPg3/tv-series/5543"},{"id":5542,"title":"Не те парни","kp_id":"802960","imdb_id":"tt2603596","world_art_id":null,"type":"serial","add":"2019-10-28 05:43:32","orig_title":"The Wrong Mans","year":"2013-09-24","translations":["Любительский (многоголосый закадровый)","Любительский (двухголосый закадровый) (SNK-TV)"],"seasons_count":2,"episodes_count":8,"episodes":2,"update":"2019-10-29 06:50:24","iframe_src":"//83.svetacdn.in/PfJ50H0ZBPg3/tv-series/5542"},{"id":5541,"title":"Шетланд","kp_id":"743445","imdb_id":"tt2396135","world_art_id":null,"type":"serial","add":"2019-10-28 05:19:21","orig_title":"Shetland","year":"2013-03-10","translations":["Любительский (многоголосый закадровый)"],"seasons_count":5,"episodes_count":26,"episodes":6,"update":"2019-10-28 09:57:58","iframe_src":"//83.svetacdn.in/PfJ50H0ZBPg3/tv-series/5541"},{"id":5540,"title":"Чужие крылья","kp_id":"592128","imdb_id":"tt3334172","world_art_id":null,"type":"serial","add":"2019-10-27 16:38:32","orig_title":"Chuzhie krylya","year":"2012-05-08","translations":["Оригинальная дорожка"],"seasons_count":1,"episodes_count":6,"episodes":6,"update":"2019-10-28 13:31:50","iframe_src":"//83.svetacdn.in/PfJ50H0ZBPg3/tv-series/5540"},{"id":5534,"title":"Совсем чужие","kp_id":"1313573","imdb_id":null,"world_art_id":null,"type":"serial","add":"2019-10-27 14:47:08","orig_title":"Совсем чужие","year":"2019-10-26","translations":["Оригинальная дорожка"],"seasons_count":1,"episodes_count":2,"episodes":2,"update":"2019-10-28 17:26:02","iframe_src":"//83.svetacdn.in/PfJ50H0ZBPg3/tv-series/5534"},{"id":5533,"title":"След лисицы на камнях","kp_id":"1235981","imdb_id":null,"world_art_id":null,"type":"serial","add":"2019-10-26 08:05:54","orig_title":"След лисицы на камнях","year":"2019-01-01","translations":["Оригинальная дорожка"],"seasons_count":1,"episodes_count":4,"episodes":4,"update":"2019-10-28 17:24:31","iframe_src":"//83.svetacdn.in/PfJ50H0ZBPg3/tv-series/5533"},{"id":5523,"title":"Тварь Питера Бенчли","kp_id":"77310","imdb_id":"tt0156205","world_art_id":null,"type":"serial","add":"2019-10-25 06:54:41","orig_title":"Creature","year":"1998-05-17","translations":["Профессиональный (многоголосый закадровый)"],"seasons_count":1,"episodes_count":2,"episodes":2,"update":"2019-10-25 09:42:12","iframe_src":"//83.svetacdn.in/PfJ50H0ZBPg3/tv-series/5523"},{"id":5521,"title":"Голод","kp_id":"398925","imdb_id":"tt0118346","world_art_id":null,"type":"serial","add":"2019-10-24 19:53:04","orig_title":"The Hunger","year":"1997-07-20","translations":["Профессиональный (многоголосый закадровый)"],"seasons_count":2,"episodes_count":44,"episodes":22,"update":"2019-10-25 21:01:26","iframe_src":"//83.svetacdn.in/PfJ50H0ZBPg3/tv-series/5521"},{"id":5520,"title":"Долина смерти","kp_id":"591870","imdb_id":"tt1835129","world_art_id":null,"type":"serial","add":"2019-10-24 19:49:37","orig_title":"Death Valley","year":"2011-08-29","translations":["Профессиональный (многоголосый закадровый) (AlexFilm)"],"seasons_count":1,"episodes_count":12,"episodes":12,"update":"2019-10-25 12:07:47","iframe_src":"//83.svetacdn.in/PfJ50H0ZBPg3/tv-series/5520"},{"id":5518,"title":"Самые быстрые тачки грязного Юга","kp_id":"1288747","imdb_id":"tt10594194","world_art_id":null,"type":"serial","add":"2019-10-24 04:37:43","orig_title":"Fastest Cars in the Dirty South","year":"2019-07-12","translations":["Любительский (многоголосый закадровый) (Octopus)"],"seasons_count":1,"episodes_count":8,"episodes":8,"update":"2019-10-25 12:28:16","iframe_src":"//83.svetacdn.in/PfJ50H0ZBPg3/tv-series/5518"},{"id":5491,"title":"Московские тайны. Либерея","kp_id":"1283336","imdb_id":null,"world_art_id":null,"type":"serial","add":"2019-10-18 14:38:30","orig_title":"Московские тайны. Либерея","year":"2019-10-18","translations":["Оригинальная дорожка"],"seasons_count":1,"episodes_count":2,"episodes":2,"update":"2019-10-29 03:53:02","iframe_src":"//83.svetacdn.in/PfJ50H0ZBPg3/tv-series/5491"},{"id":5003,"title":"Госпожа","kp_id":"726626","imdb_id":"tt2585808","world_art_id":null,"type":"serial","add":"2019-08-07 11:05:59","orig_title":"La Patrona","year":"2013-01-08","translations":["Любительский (одноголосый закадровый) (Stevie)"],"seasons_count":1,"episodes_count":5,"episodes":5,"update":"2019-10-25 12:00:49","iframe_src":"//83.svetacdn.in/PfJ50H0ZBPg3/tv-series/5003"},{"id":28373,"title":"Математик и черт","kp_id":"471407","imdb_id":"tt3154916","world_art_id":null,"type":"movie","add":"2019-06-29 09:27:54","orig_title":"Matematik i chyort","year":"1972-01-01","translations":["Оригинальная дорожка","Оригинальная дорожка"],"quality":"tv","translation":"Оригинальная дорожка","update":"2020-12-15 15:01:35","iframe_src":"//83.svetacdn.in/PfJ50H0ZBPg3/movie/28373"},{"id":28277,"title":"Соловей-соловушко","kp_id":"44614","imdb_id":"tt0027703","world_art_id":null,"type":"movie","add":"2019-06-26 14:05:58","orig_title":"Grunya Kornakova","year":"1936-06-11","translations":["Оригинальная дорожка","Оригинальная дорожка"],"quality":"sat","translation":"Оригинальная дорожка","update":"2020-12-15 11:00:03","iframe_src":"//83.svetacdn.in/PfJ50H0ZBPg3/movie/28277"},{"id":26635,"title":"Полонез Огинского","kp_id":"43101","imdb_id":"tt0314520","world_art_id":null,"type":"movie","add":"2019-05-16 21:05:55","orig_title":"Polonez Oginskogo","year":"1971-05-26","translations":["Оригинальная дорожка","Оригинальная дорожка","Оригинальная дорожка"],"quality":"dvdrip","translation":"Оригинальная дорожка","update":"2020-12-15 11:02:15","iframe_src":"//83.svetacdn.in/PfJ50H0ZBPg3/movie/26635"},{"id":3219,"title":"Канцелярская крыса","kp_id":"1103793","imdb_id":null,"world_art_id":null,"type":"serial","add":"2018-09-25 09:11:06","orig_title":"Канцелярская крыса","year":"2018-09-24","translations":["Оригинальная дорожка"],"seasons_count":2,"episodes_count":36,"episodes":20,"update":"2019-10-26 07:58:23","iframe_src":"//83.svetacdn.in/PfJ50H0ZBPg3/tv-series/3219"},{"id":1429,"title":"Проект «Орфей»","kp_id":"1008546","imdb_id":"tt5518944","world_art_id":null,"type":"serial","add":"2017-07-27 05:56:08","orig_title":"Project Orpheus","year":"2016-03-13","translations":["Профессиональный (многоголосый закадровый) (Кинопоказ)","Профессиональный (многоголосый закадровый) (ShowJet)"],"seasons_count":1,"episodes_count":12,"episodes":12,"update":"2019-10-25 13:10:17","iframe_src":"//83.svetacdn.in/PfJ50H0ZBPg3/tv-series/1429"},{"id":324,"title":"Спартак: Кровь и песок","kp_id":"469619","imdb_id":"tt1442449","world_art_id":null,"type":"serial","add":"2016-08-03 06:27:31","orig_title":"Spartacus: Blood and Sand","year":"2010-01-22","translations":["Профессиональный (многоголосый закадровый) (LostFilm)","Полное дублирование (РенТВ)"],"seasons_count":3,"episodes_count":33,"episodes":10,"update":"2019-10-25 13:21:23","iframe_src":"//83.svetacdn.in/PfJ50H0ZBPg3/tv-series/324"}],"current_page":314,"first_page_url":"https://videocdn.tv/api/short?limit=100&api_token=RgFQdUIR2dRmwv8iYa5SnFNgnw3vpjKj&cache3314=3314&page=1","from":31301,"last_page":621,"last_page_url":"https://videocdn.tv/api/short?limit=100&api_token=RgFQdUIR2dRmwv8iYa5SnFNgnw3vpjKj&cache3314=3314&page=621","next_page_url":"https://videocdn.tv/api/short?limit=100&api_token=RgFQdUIR2dRmwv8iYa5SnFNgnw3vpjKj&cache3314=3314&page=315","path":"https://videocdn.tv/api/short","per_page":100,"prev_page_url":"https://videocdn.tv/api/short?limit=100&api_token=RgFQdUIR2dRmwv8iYa5SnFNgnw3vpjKj&cache3314=3314&page=313","to":31340,"total":62046}