{"result":true,"data":[{"id":49303,"title":"Кокольный террор","kp_id":"1120206","imdb_id":"tt8115014","world_art_id":null,"type":"movie","add":"2021-04-03 11:57:23","orig_title":"Tiny Terrors","year":"2018-05-18","translations":["Любительский (многоголосый закадровый) (Синема УС)"],"quality":"webdl","translation":"Любительский (многоголосый закадровый) (Синема УС)","update":"2021-04-03 14:38:14","iframe_src":"//8332.svetacdn.in/IAF0wWTdNYZm/movie/49303"},{"id":49297,"title":"Хакер","kp_id":"1035790","imdb_id":"tt6393306","world_art_id":null,"type":"movie","add":"2021-04-02 18:42:46","orig_title":"Hacker","year":"2018-01-29","translations":["Любительский (многоголосый закадровый) (Синема УС)"],"quality":"webdl","translation":"Любительский (многоголосый закадровый) (Синема УС)","update":"2021-04-03 09:01:25","iframe_src":"//8332.svetacdn.in/IAF0wWTdNYZm/movie/49297"},{"id":49296,"title":"Обман по-голливудски","kp_id":"1160146","imdb_id":"tt8489384","world_art_id":null,"type":"movie","add":"2021-04-02 18:40:51","orig_title":"Hollywood.Con","year":"2021-01-01","translations":["Любительский (многоголосый закадровый) (Синема УС)"],"quality":"webdl","translation":"Любительский (многоголосый закадровый) (Синема УС)","update":"2021-04-02 21:31:08","iframe_src":"//8332.svetacdn.in/IAF0wWTdNYZm/movie/49296"},{"id":49295,"title":"Путешествие в ночь","kp_id":null,"imdb_id":"tt13288682","world_art_id":null,"type":"movie","add":"2021-04-02 18:38:36","orig_title":"Voyage Into the Night","year":"2021-04-01","translations":["Любительский (многоголосый закадровый) (Синема УС)"],"quality":"webdl","translation":"Любительский (многоголосый закадровый) (Синема УС)","update":"2021-04-02 20:13:45","iframe_src":"//8332.svetacdn.in/IAF0wWTdNYZm/movie/49295"},{"id":49294,"title":"Тайное общество","kp_id":"1412254","imdb_id":"tt13050400","world_art_id":null,"type":"movie","add":"2021-04-02 18:18:27","orig_title":"Secret Society","year":"2021-03-31","translations":["Любительский (многоголосый закадровый) (Синема УС)"],"quality":"webdl","translation":"Любительский (многоголосый закадровый) (Синема УС)","update":"2021-04-03 08:37:11","iframe_src":"//8332.svetacdn.in/IAF0wWTdNYZm/movie/49294"},{"id":49293,"title":"Вольная пташка","kp_id":"720489","imdb_id":"tt2388667","world_art_id":null,"type":"movie","add":"2021-04-02 18:15:59","orig_title":"Free Byrd","year":"2021-04-01","translations":["Любительский (многоголосый закадровый) (AlphaProject)"],"quality":"webdl","translation":"Любительский (многоголосый закадровый) (AlphaProject)","update":"2021-04-02 20:14:27","iframe_src":"//8332.svetacdn.in/IAF0wWTdNYZm/movie/49293"},{"id":49292,"title":"Ченс","kp_id":"1117007","imdb_id":"tt7915464","world_art_id":null,"type":"movie","add":"2021-04-02 18:14:09","orig_title":"Chance","year":"2020-04-09","translations":["Любительский (многоголосый закадровый) (Синема УС)"],"quality":"webdl","translation":"Любительский (многоголосый закадровый) (Синема УС)","update":"2021-04-03 09:01:46","iframe_src":"//8332.svetacdn.in/IAF0wWTdNYZm/movie/49292"},{"id":49290,"title":"Чудачка","kp_id":"1313247","imdb_id":"tt11142762","world_art_id":null,"type":"movie","add":"2021-04-02 18:10:21","orig_title":"Pagglait","year":"2021-03-26","translations":["Любительский (многоголосый закадровый) (Синема УС)"],"quality":"webdl","translation":"Любительский (многоголосый закадровый) (Синема УС)","update":"2021-04-02 21:31:35","iframe_src":"//8332.svetacdn.in/IAF0wWTdNYZm/movie/49290"},{"id":49288,"title":"Я не он","kp_id":"1393484","imdb_id":"tt12487320","world_art_id":null,"type":"movie","add":"2021-04-02 17:17:40","orig_title":"I'm Not Him","year":"2021-03-30","translations":["Любительский (многоголосый закадровый) (AlphaProject)"],"quality":"webdl","translation":"Любительский (многоголосый закадровый) (AlphaProject)","update":"2021-04-03 08:58:35","iframe_src":"//8332.svetacdn.in/IAF0wWTdNYZm/movie/49288"},{"id":49282,"title":"Замочная скважина","kp_id":"535327","imdb_id":"tt1674775","world_art_id":null,"type":"movie","add":"2021-04-02 13:17:24","orig_title":"Keyhole","year":"2011-09-09","translations":["Любительский (одноголосый закадровый) (Лыдин Алексей)"],"quality":"bd","translation":"Любительский (одноголосый закадровый) (Лыдин Алексей)","update":"2021-04-03 11:07:50","iframe_src":"//8332.svetacdn.in/IAF0wWTdNYZm/movie/49282"},{"id":49281,"title":"Воссоединение","kp_id":"36604","imdb_id":"tt0113822","world_art_id":null,"type":"movie","add":"2021-04-02 12:20:01","orig_title":"Milan","year":"1995-01-01","translations":["Полное дублирование (ZEE TV)"],"quality":"webdl","translation":"Полное дублирование (ZEE TV)","update":"2021-04-03 12:28:21","iframe_src":"//8332.svetacdn.in/IAF0wWTdNYZm/movie/49281"},{"id":49280,"title":"Гордость и мужество","kp_id":"224752","imdb_id":"tt0154589","world_art_id":null,"type":"movie","add":"2021-04-02 12:00:36","orig_title":"Himmat Aur Mehanat","year":"1987-11-27","translations":["Любительский (одноголосый закадровый) (Гумрал)"],"quality":"webdl","translation":"Любительский (одноголосый закадровый) (Гумрал)","update":"2021-04-03 12:27:58","iframe_src":"//8332.svetacdn.in/IAF0wWTdNYZm/movie/49280"},{"id":49279,"title":"Первый поцелуй","kp_id":"263822","imdb_id":"tt0318758","world_art_id":null,"type":"movie","add":"2021-04-02 11:58:13","orig_title":"Tholi Muddhu","year":"1993-01-01","translations":["Любительский (одноголосый закадровый)"],"quality":"webdl","translation":"Любительский (одноголосый закадровый)","update":"2021-04-03 12:27:46","iframe_src":"//8332.svetacdn.in/IAF0wWTdNYZm/movie/49279"},{"id":49236,"title":"Фольксваген-жук","kp_id":"31621","imdb_id":"tt0064603","world_art_id":null,"type":"movie","add":"2021-03-31 15:36:05","orig_title":"The Love Bug","year":"1968-12-24","translations":["Полное дублирование (РТР | Россия)"],"quality":"bd","translation":"Полное дублирование (РТР | Россия)","update":"2021-04-02 10:38:51","iframe_src":"//8332.svetacdn.in/IAF0wWTdNYZm/movie/49236"},{"id":46362,"title":"Душа","kp_id":"775273","imdb_id":"tt2948372","world_art_id":null,"type":"movie","add":"2020-12-25 09:27:21","orig_title":"Soul","year":"2020-10-11","translations":["Original (English)","Любительский (многоголосый закадровый) (@MUZOBOZ@)","Любительский (многоголосый закадровый) (Voice Project Studio)","Профессиональный (многоголосый закадровый) (HDrezka Studio)","Полное дублирование","Полное дублирование (iTunes)"],"quality":"webdl","translation":"Original (English)","update":"2021-04-02 18:52:18","iframe_src":"//8332.svetacdn.in/IAF0wWTdNYZm/movie/46362"},{"id":44916,"title":"Город мошенников","kp_id":"1254615","imdb_id":"tt10127684","world_art_id":null,"type":"movie","add":"2020-10-30 19:17:52","orig_title":"Bronx","year":"2020-10-30","translations":["Любительский (многоголосый закадровый) (@MUZOBOZ@)","Профессиональный (многоголосый закадровый) (Jaskier)"],"quality":"webdl","translation":"Любительский (многоголосый закадровый) (@MUZOBOZ@)","update":"2021-04-02 14:35:57","iframe_src":"//8332.svetacdn.in/IAF0wWTdNYZm/movie/44916"},{"id":8581,"title":"Готхард","kp_id":"1007386","imdb_id":"tt5008688","world_art_id":null,"type":"serial","add":"2020-08-30 17:03:35","orig_title":"Gotthard","year":"2016-12-11","translations":["Любительский (многоголосый закадровый) (WestFilm)"],"seasons_count":1,"episodes_count":4,"episodes":4,"update":"2020-08-31 02:25:38","iframe_src":"//8332.svetacdn.in/IAF0wWTdNYZm/tv-series/8581"},{"id":8580,"title":"Окончательный разрыв","kp_id":"1044931","imdb_id":"tt4183980","world_art_id":null,"type":"serial","add":"2020-08-30 14:54:10","orig_title":"Clean Break","year":"2015-09-27","translations":["Любительский (многоголосый закадровый) (WestFilm)"],"seasons_count":1,"episodes_count":4,"episodes":4,"update":"2020-08-30 18:14:33","iframe_src":"//8332.svetacdn.in/IAF0wWTdNYZm/tv-series/8580"},{"id":8578,"title":"Гельветика","kp_id":"1184979","imdb_id":"tt8765292","world_art_id":null,"type":"serial","add":"2020-08-30 14:43:57","orig_title":"Helvetica","year":"2019-11-06","translations":["Любительский (многоголосый закадровый) (WestFilm)"],"seasons_count":1,"episodes_count":6,"episodes":6,"update":"2020-08-30 20:06:16","iframe_src":"//8332.svetacdn.in/IAF0wWTdNYZm/tv-series/8578"},{"id":8573,"title":"Геймброс","kp_id":null,"imdb_id":"tt6819260","world_art_id":null,"type":"serial","add":"2020-08-30 08:27:46","orig_title":"Gamebros","year":"2018-05-20","translations":["Любительский (многоголосый закадровый) (WestFilm)"],"seasons_count":1,"episodes_count":6,"episodes":6,"update":"2020-08-30 16:00:42","iframe_src":"//8332.svetacdn.in/IAF0wWTdNYZm/tv-series/8573"},{"id":8570,"title":"Время убийственно","kp_id":"1274013","imdb_id":"tt10462338","world_art_id":null,"type":"serial","add":"2020-08-30 03:18:48","orig_title":"Le temps est assassin","year":"2019-08-21","translations":["Любительский (многоголосый закадровый) (WestFilm)"],"seasons_count":1,"episodes_count":8,"episodes":8,"update":"2020-08-30 08:52:03","iframe_src":"//8332.svetacdn.in/IAF0wWTdNYZm/tv-series/8570"},{"id":8568,"title":"Сториз","kp_id":"1402672","imdb_id":null,"world_art_id":null,"type":"serial","add":"2020-08-29 17:17:20","orig_title":"Сториз","year":"2020-08-10","translations":["Оригинальная дорожка"],"seasons_count":1,"episodes_count":13,"episodes":13,"update":"2020-08-30 09:11:25","iframe_src":"//8332.svetacdn.in/IAF0wWTdNYZm/tv-series/8568"},{"id":8563,"title":"Преступники Британии: разбойники, пираты и бандиты","kp_id":"991678","imdb_id":"tt5259324","world_art_id":null,"type":"serial","add":"2020-08-29 08:23:01","orig_title":"Britain's Outlaws: Highwaymen, Pirates and Rogues","year":"2015-10-01","translations":["Профессиональный (многоголосый закадровый)"],"seasons_count":1,"episodes_count":3,"episodes":3,"update":"2020-08-30 14:38:39","iframe_src":"//8332.svetacdn.in/IAF0wWTdNYZm/tv-series/8563"},{"id":8562,"title":"Патрик Демпси в гонке Ле-Мана","kp_id":"806720","imdb_id":"tt2998168","world_art_id":null,"type":"serial","add":"2020-08-29 08:11:24","orig_title":"Patrick Dempsey: Racing Le Mans","year":"2013-08-28","translations":["Профессиональный (многоголосый закадровый)"],"seasons_count":1,"episodes_count":4,"episodes":4,"update":"2020-08-30 14:40:01","iframe_src":"//8332.svetacdn.in/IAF0wWTdNYZm/tv-series/8562"},{"id":8561,"title":"Бойцовский срыв","kp_id":"991672","imdb_id":null,"world_art_id":null,"type":"serial","add":"2020-08-29 08:08:36","orig_title":"Бойцовский срыв","year":"2016-12-08","translations":["Оригинальная дорожка"],"seasons_count":1,"episodes_count":2,"episodes":2,"update":"2020-08-30 14:42:48","iframe_src":"//8332.svetacdn.in/IAF0wWTdNYZm/tv-series/8561"},{"id":8536,"title":"Ник-изобретатель","kp_id":"1338303","imdb_id":null,"world_art_id":null,"type":"serial","add":"2020-08-25 17:55:00","orig_title":"Ник-изобретатель","year":"2019-10-22","translations":["Оригинальная дорожка"],"seasons_count":2,"episodes_count":30,"episodes":4,"update":"2020-08-30 14:38:09","iframe_src":"//8332.svetacdn.in/IAF0wWTdNYZm/tv-series/8536"},{"id":8535,"title":"Фантом 2040","kp_id":"95176","imdb_id":"tt0110825","world_art_id":null,"type":"serial","add":"2020-08-25 17:46:54","orig_title":"Phantom 2040","year":"1994-09-18","translations":["Полное дублирование (Первый канал | ОРТ)"],"seasons_count":2,"episodes_count":32,"episodes":14,"update":"2020-08-30 13:52:39","iframe_src":"//8332.svetacdn.in/IAF0wWTdNYZm/tv-series/8535"},{"id":8534,"title":"Байки хранителя склепа","kp_id":"422850","imdb_id":"tt0122837","world_art_id":null,"type":"serial","add":"2020-08-25 17:35:33","orig_title":"Tales from the Cryptkeepe","year":"1993-09-18","translations":["Полное дублирование"],"seasons_count":2,"episodes_count":26,"episodes":13,"update":"2020-08-30 11:50:43","iframe_src":"//8332.svetacdn.in/IAF0wWTdNYZm/tv-series/8534"},{"id":8526,"title":"Невероятные приключения Джонни Квеста","kp_id":"251818","imdb_id":"tt0115226","world_art_id":null,"type":"serial","add":"2020-08-24 17:12:09","orig_title":"The Real Adventures of Jonny Quest","year":"1996-08-26","translations":["Полное дублирование (Первый канал | ОРТ)"],"seasons_count":2,"episodes_count":52,"episodes":26,"update":"2020-08-30 11:39:24","iframe_src":"//8332.svetacdn.in/IAF0wWTdNYZm/tv-series/8526"},{"id":8525,"title":"Еноты","kp_id":"392091","imdb_id":"tt0131183","world_art_id":null,"type":"serial","add":"2020-08-24 16:56:37","orig_title":"The Raccoons","year":"1985-07-04","translations":["Полное дублирование"],"seasons_count":5,"episodes_count":60,"episodes":13,"update":"2020-08-30 11:14:45","iframe_src":"//8332.svetacdn.in/IAF0wWTdNYZm/tv-series/8525"},{"id":8524,"title":"Майор Лазер","kp_id":"922141","imdb_id":"tt4612950","world_art_id":null,"type":"serial","add":"2020-08-24 16:52:27","orig_title":"Major Lazer","year":"2015-04-16","translations":["Любительский (многоголосый закадровый) (Black Street Records)"],"seasons_count":1,"episodes_count":11,"episodes":11,"update":"2020-08-30 13:40:47","iframe_src":"//8332.svetacdn.in/IAF0wWTdNYZm/tv-series/8524"},{"id":8523,"title":"Лагерь Лазло","kp_id":"425973","imdb_id":"tt0419315","world_art_id":null,"type":"serial","add":"2020-08-24 16:46:53","orig_title":"Camp Lazlo!","year":"2005-07-08","translations":["Полное дублирование"],"seasons_count":2,"episodes_count":26,"episodes":13,"update":"2020-08-30 10:44:05","iframe_src":"//8332.svetacdn.in/IAF0wWTdNYZm/tv-series/8523"},{"id":8522,"title":"Специальный агент Осо","kp_id":"491694","imdb_id":"tt1124354","world_art_id":null,"type":"serial","add":"2020-08-24 16:40:12","orig_title":"Special Agent Oso","year":"2009-04-04","translations":["Полное дублирование"],"seasons_count":1,"episodes_count":24,"episodes":24,"update":"2020-08-30 10:04:21","iframe_src":"//8332.svetacdn.in/IAF0wWTdNYZm/tv-series/8522"},{"id":8521,"title":"Гора Фрэгглов","kp_id":"258542","imdb_id":"tt0085017","world_art_id":null,"type":"serial","add":"2020-08-24 16:24:47","orig_title":"Fraggle Rock","year":"1983-01-10","translations":["Профессиональный (многоголосый закадровый) (2x2)"],"seasons_count":5,"episodes_count":96,"episodes":13,"update":"2020-08-30 09:46:00","iframe_src":"//8332.svetacdn.in/IAF0wWTdNYZm/tv-series/8521"},{"id":8436,"title":"Белый медведь: Шпион во льдах","kp_id":"596279","imdb_id":"tt1866221","world_art_id":null,"type":"serial","add":"2020-08-15 08:55:48","orig_title":"Polar Bears: Spy on the Ice","year":"2011-03-10","translations":["Профессиональный (одноголосый закадровый) (Омикрон)"],"seasons_count":1,"episodes_count":2,"episodes":2,"update":"2020-08-30 11:54:20","iframe_src":"//8332.svetacdn.in/IAF0wWTdNYZm/tv-series/8436"},{"id":41982,"title":"Ожидания шторма","kp_id":"1146258","imdb_id":"tt7304824","world_art_id":null,"type":"movie","add":"2020-07-24 19:04:40","orig_title":"Ofrenda a la tormenta","year":"2020-06-12","translations":["Любительский (многоголосый закадровый) (@MUZOBOZ@)","Любительский (многоголосый закадровый) (@MUZOBOZ@)","Профессиональный (двухголосый закадровый) (ViruseProject)"],"quality":"webdl","translation":"Любительский (многоголосый закадровый) (@MUZOBOZ@)","update":"2021-04-02 15:56:18","iframe_src":"//8332.svetacdn.in/IAF0wWTdNYZm/movie/41982"},{"id":6951,"title":"Вампиры","kp_id":"1356088","imdb_id":"tt11829316","world_art_id":null,"type":"serial","add":"2020-03-20 14:13:27","orig_title":"Vampires","year":"2020-03-20","translations":["Любительский (многоголосый закадровый) (ColdFilm)","Профессиональный (многоголосый закадровый) (TVShows)"],"seasons_count":1,"episodes_count":6,"episodes":6,"update":"2020-08-30 16:13:45","iframe_src":"//8332.svetacdn.in/IAF0wWTdNYZm/tv-series/6951"},{"id":20806,"title":"Виновный","kp_id":"1070927","imdb_id":"tt6742252","world_art_id":null,"type":"movie","add":"2018-12-16 22:47:30","orig_title":"Den skyldige","year":"2018-01-21","translations":["Профессиональный (многоголосый закадровый) (HDrezka Studio)","Полное дублирование","Профессиональный (многоголосый закадровый) (HDrezka Studio)"],"quality":"bd","translation":"Профессиональный (многоголосый закадровый) (HDrezka Studio)","update":"2021-04-02 11:39:49","iframe_src":"//8332.svetacdn.in/IAF0wWTdNYZm/movie/20806"},{"id":19595,"title":"Ужастики 2: Беспокойный Хэллоуин","kp_id":"975287","imdb_id":"tt5664636","world_art_id":null,"type":"movie","add":"2018-10-16 23:23:39","orig_title":"Goosebumps 2: Haunted Halloween","year":"2018-10-11","translations":["Полное дублирование","Original (English)","Профессиональный (многоголосый закадровый) (HDrezka Studio)"],"quality":"bd","translation":"Полное дублирование","update":"2021-04-02 11:40:03","iframe_src":"//8332.svetacdn.in/IAF0wWTdNYZm/movie/19595"},{"id":12807,"title":"Невидимый страж","kp_id":"958062","imdb_id":"tt4924942","world_art_id":null,"type":"movie","add":"2017-08-07 04:28:09","orig_title":"El guardián invisible","year":"2017-03-03","translations":["Любительский (многоголосый закадровый) (Синема УС)","Профессиональный (двухголосый закадровый) (ViruseProject)"],"quality":"bd","translation":"Любительский (многоголосый закадровый) (Синема УС)","update":"2021-04-02 14:38:09","iframe_src":"//8332.svetacdn.in/IAF0wWTdNYZm/movie/12807"}],"current_page":160,"first_page_url":"https://videocdn.tv/api/short?limit=100&api_token=6Onb1W1alEUrBcKJZD3GoKBbWyAl2uG2&cache3160=3160&page=1","from":15901,"last_page":632,"last_page_url":"https://videocdn.tv/api/short?limit=100&api_token=6Onb1W1alEUrBcKJZD3GoKBbWyAl2uG2&cache3160=3160&page=632","next_page_url":"https://videocdn.tv/api/short?limit=100&api_token=6Onb1W1alEUrBcKJZD3GoKBbWyAl2uG2&cache3160=3160&page=161","path":"https://videocdn.tv/api/short","per_page":100,"prev_page_url":"https://videocdn.tv/api/short?limit=100&api_token=6Onb1W1alEUrBcKJZD3GoKBbWyAl2uG2&cache3160=3160&page=159","to":15940,"total":63136}