{"result":true,"data":[{"id":42751,"title":"Подвиды 3: Жажда крови","kp_id":"36004","imdb_id":"tt0109302","world_art_id":null,"type":"movie","add":"2020-08-25 13:01:09","orig_title":"Bloodlust: Subspecies III","year":"1994-02-16","translations":["Авторский (одноголосый закадровый) (Гаврилов Андрей)"],"quality":"bd","translation":"Авторский (одноголосый закадровый) (Гаврилов Андрей)","update":"2020-08-25 19:12:33","iframe_src":"//8543.svetacdn.in/71tsRs29n5tZ/movie/42751"},{"id":42750,"title":"Проделки сорванца","kp_id":"367308","imdb_id":"tt0265577","world_art_id":null,"type":"movie","add":"2020-08-25 12:58:34","orig_title":"Emila nedarbi","year":"1985-01-01","translations":["Полное дублирование"],"quality":"iptv","translation":"Полное дублирование","update":"2020-08-25 19:12:49","iframe_src":"//8543.svetacdn.in/71tsRs29n5tZ/movie/42750"},{"id":42749,"title":"Лиса и волк","kp_id":"818493","imdb_id":"tt7295404","world_art_id":null,"type":"movie","add":"2020-08-24 21:35:17","orig_title":"Lisa i volk","year":"1937-01-01","translations":["Оригинальная дорожка"],"quality":"dvdscr","translation":"Оригинальная дорожка","update":"2020-08-26 06:22:00","iframe_src":"//8543.svetacdn.in/71tsRs29n5tZ/movie/42749"},{"id":42748,"title":"Лиса-строитель","kp_id":"675485","imdb_id":"tt8372518","world_art_id":null,"type":"movie","add":"2020-08-24 21:28:43","orig_title":"Lisa-stroitel","year":"1936-01-01","translations":["Оригинальная дорожка"],"quality":"dvdrip","translation":"Оригинальная дорожка","update":"2020-08-26 06:23:00","iframe_src":"//8543.svetacdn.in/71tsRs29n5tZ/movie/42748"},{"id":42747,"title":"Мальчик с пальчик","kp_id":"477316","imdb_id":"tt4852398","world_art_id":null,"type":"movie","add":"2020-08-24 21:25:25","orig_title":"Malchik s palchik","year":"1938-01-01","translations":["Оригинальная дорожка"],"quality":"dvdrip","translation":"Оригинальная дорожка","update":"2020-08-26 06:23:56","iframe_src":"//8543.svetacdn.in/71tsRs29n5tZ/movie/42747"},{"id":42746,"title":"Мальчик с пальчик","kp_id":"259984","imdb_id":"tt2252112","world_art_id":null,"type":"movie","add":"2020-08-24 21:21:37","orig_title":"Malchik s palchik","year":"1977-01-01","translations":["Оригинальная дорожка"],"quality":"dvdrip","translation":"Оригинальная дорожка","update":"2020-08-26 06:24:40","iframe_src":"//8543.svetacdn.in/71tsRs29n5tZ/movie/42746"},{"id":42737,"title":"Инцидент","kp_id":"312859","imdb_id":"tt1027820","world_art_id":null,"type":"movie","add":"2020-08-24 20:08:16","orig_title":"The Incident","year":"2011-09-12","translations":["Любительский (одноголосый закадровый) (den904)"],"quality":"bd","translation":"Любительский (одноголосый закадровый) (den904)","update":"2020-08-25 06:50:15","iframe_src":"//8543.svetacdn.in/71tsRs29n5tZ/movie/42737"},{"id":42732,"title":"Час истины","kp_id":"1238802","imdb_id":"tt9794630","world_art_id":null,"type":"movie","add":"2020-08-24 19:54:54","orig_title":"Hour of Lead","year":"2020-02-28","translations":["Полное дублирование (iTunes)"],"quality":"webdl","translation":"Полное дублирование (iTunes)","update":"2020-08-25 06:45:39","iframe_src":"//8543.svetacdn.in/71tsRs29n5tZ/movie/42732"},{"id":42617,"title":"Ангелочек-мстительница","kp_id":"28462","imdb_id":"tt0088757","world_art_id":null,"type":"movie","add":"2020-08-20 18:05:16","orig_title":"Avenging Angel","year":"1985-01-11","translations":["Авторский (одноголосый закадровый) (Иванов Михаил)","Original (English)","Профессиональный (многоголосый закадровый) (Инис)","Профессиональный (многоголосый закадровый) (РТР | Россия)"],"quality":"bd","translation":"Авторский (одноголосый закадровый) (Иванов Михаил)","update":"2020-08-25 07:19:10","iframe_src":"//8543.svetacdn.in/71tsRs29n5tZ/movie/42617"},{"id":41570,"title":"Ход вещей","kp_id":"1050648","imdb_id":"tt6833470","world_art_id":null,"type":"movie","add":"2020-07-02 21:27:57","orig_title":"The Swing of Things","year":"2020-07-14","translations":["Любительский (многоголосый закадровый) (@MUZOBOZ@)","Original (English)","Профессиональный (многоголосый закадровый) (iTunes)"],"quality":"bd","translation":"Любительский (многоголосый закадровый) (@MUZOBOZ@)","update":"2020-08-25 06:45:47","iframe_src":"//8543.svetacdn.in/71tsRs29n5tZ/movie/41570"},{"id":40547,"title":"Скуби-ду","kp_id":"797697","imdb_id":"tt3152592","world_art_id":null,"type":"movie","add":"2020-05-20 04:50:21","orig_title":"Scoob!","year":"2020-05-15","translations":["Профессиональный (многоголосый закадровый) (HDrezka Studio)","Любительский (многоголосый закадровый) (@MUZOBOZ@)","Original (English)","Профессиональный (многоголосый закадровый) (HDrezka Studio)","Профессиональный (многоголосый закадровый) (HDrezka Studio)","Любительский (многоголосый закадровый) (Flarrow Films)","Полное дублирование (iTunes)"],"quality":"webdl","translation":"Профессиональный (многоголосый закадровый) (HDrezka Studio)","update":"2020-08-25 06:46:12","iframe_src":"//8543.svetacdn.in/71tsRs29n5tZ/movie/40547"},{"id":19406,"title":"Импульс","kp_id":"12366","imdb_id":"tt0099832","world_art_id":null,"type":"movie","add":"2018-10-07 13:00:41","orig_title":"Impulse","year":"1990-04-06","translations":["Полное дублирование","Авторский (одноголосый закадровый) (Гаврилов Андрей)","Полное дублирование (Варус-Видео)","Original (English)","Профессиональный (двухголосый закадровый) (НТВ)"],"quality":"webdl","translation":"Полное дублирование","update":"2020-08-25 07:33:53","iframe_src":"//8543.svetacdn.in/71tsRs29n5tZ/movie/19406"},{"id":17165,"title":"Инопланетный код","kp_id":"962558","imdb_id":"tt5453522","world_art_id":null,"type":"movie","add":"2018-06-14 19:49:21","orig_title":"The Men","year":"2017-04-23","translations":["Любительский (многоголосый закадровый) (Синема УС)","Профессиональный (многоголосый закадровый) (GreenРай Studio)","Полное дублирование (iTunes)"],"quality":"webdl","translation":"Любительский (многоголосый закадровый) (Синема УС)","update":"2020-08-25 06:49:56","iframe_src":"//8543.svetacdn.in/71tsRs29n5tZ/movie/17165"},{"id":2691,"title":"Точка холода","kp_id":"1133188","imdb_id":"tt8066216","world_art_id":null,"type":"serial","add":"2018-05-29 13:59:26","orig_title":"El punto frío","year":"2018-04-17","translations":["Профессиональный (многоголосый закадровый) (GreenРай Studio)"],"seasons_count":1,"episodes_count":6,"episodes":6,"update":"2018-05-30 10:35:06","iframe_src":"//8543.svetacdn.in/71tsRs29n5tZ/tv-series/2691"},{"id":2688,"title":"Орлова и Александров","kp_id":"837966","imdb_id":"tt4538944","world_art_id":null,"type":"serial","add":"2018-05-29 10:38:04","orig_title":"Orlova i Aleksandrov","year":"2015-03-16","translations":["Оригинальная дорожка"],"seasons_count":1,"episodes_count":16,"episodes":16,"update":"2018-05-30 06:08:10","iframe_src":"//8543.svetacdn.in/71tsRs29n5tZ/tv-series/2688"},{"id":2677,"title":"Вопреки всему","kp_id":"838900","imdb_id":null,"world_art_id":null,"type":"serial","add":"2018-05-28 10:33:57","orig_title":"Вопреки всему","year":"2014-02-01","translations":["Оригинальная дорожка"],"seasons_count":1,"episodes_count":2,"episodes":2,"update":"2018-05-31 11:05:14","iframe_src":"//8543.svetacdn.in/71tsRs29n5tZ/tv-series/2677"},{"id":2676,"title":"Тили-тили-тесто","kp_id":"843670","imdb_id":"tt4712068","world_art_id":null,"type":"serial","add":"2018-05-28 10:31:38","orig_title":"Tili-tili testo","year":"2014-11-08","translations":["Оригинальная дорожка"],"seasons_count":1,"episodes_count":2,"episodes":2,"update":"2018-05-31 10:55:10","iframe_src":"//8543.svetacdn.in/71tsRs29n5tZ/tv-series/2676"},{"id":2664,"title":"Сон как жизнь","kp_id":"843835","imdb_id":null,"world_art_id":null,"type":"serial","add":"2018-05-27 05:09:50","orig_title":"Сон как жизнь","year":"2014-11-08","translations":["Оригинальная дорожка"],"seasons_count":1,"episodes_count":2,"episodes":2,"update":"2018-05-31 11:02:58","iframe_src":"//8543.svetacdn.in/71tsRs29n5tZ/tv-series/2664"},{"id":2663,"title":"Слепой расчет","kp_id":"839589","imdb_id":null,"world_art_id":null,"type":"serial","add":"2018-05-27 05:07:51","orig_title":"Слепой расчет","year":"2014-06-08","translations":["Оригинальная дорожка"],"seasons_count":1,"episodes_count":2,"episodes":2,"update":"2018-05-31 11:00:36","iframe_src":"//8543.svetacdn.in/71tsRs29n5tZ/tv-series/2663"},{"id":2662,"title":"След Пираньи","kp_id":"840739","imdb_id":"tt4014132","world_art_id":null,"type":"serial","add":"2018-05-27 05:05:24","orig_title":"Sled Pirani","year":"2014-11-30","translations":["Оригинальная дорожка"],"seasons_count":1,"episodes_count":4,"episodes":4,"update":"2018-05-31 10:52:48","iframe_src":"//8543.svetacdn.in/71tsRs29n5tZ/tv-series/2662"},{"id":2661,"title":"Слава","kp_id":"838576","imdb_id":"tt4170804","world_art_id":null,"type":"serial","add":"2018-05-27 05:03:16","orig_title":"Slava","year":"2015-02-18","translations":["Оригинальная дорожка"],"seasons_count":1,"episodes_count":4,"episodes":4,"update":"2018-05-31 10:48:13","iframe_src":"//8543.svetacdn.in/71tsRs29n5tZ/tv-series/2661"},{"id":2659,"title":"Сила любви","kp_id":"842671","imdb_id":null,"world_art_id":null,"type":"serial","add":"2018-05-27 04:56:18","orig_title":"Сила любви","year":"2014-09-27","translations":["Оригинальная дорожка"],"seasons_count":1,"episodes_count":2,"episodes":2,"update":"2018-05-31 10:44:04","iframe_src":"//8543.svetacdn.in/71tsRs29n5tZ/tv-series/2659"},{"id":2658,"title":"Счастливый шанс","kp_id":"841649","imdb_id":null,"world_art_id":null,"type":"serial","add":"2018-05-27 04:53:16","orig_title":"Счастливый шанс","year":"2014-06-28","translations":["Оригинальная дорожка"],"seasons_count":1,"episodes_count":2,"episodes":2,"update":"2018-05-31 10:41:49","iframe_src":"//8543.svetacdn.in/71tsRs29n5tZ/tv-series/2658"},{"id":2657,"title":"Разорванные нити","kp_id":"839627","imdb_id":null,"world_art_id":null,"type":"serial","add":"2018-05-27 04:51:13","orig_title":"Разорванные нити","year":"2014-04-04","translations":["Оригинальная дорожка"],"seasons_count":1,"episodes_count":2,"episodes":2,"update":"2018-05-31 10:40:05","iframe_src":"//8543.svetacdn.in/71tsRs29n5tZ/tv-series/2657"},{"id":2654,"title":"Врачи неотложной помощи","kp_id":"818897","imdb_id":"tt3530644","world_art_id":null,"type":"serial","add":"2018-05-25 10:45:11","orig_title":"Eunggeubnamnyeo","year":"2014-01-24","translations":["Любительский (одноголосый закадровый)"],"seasons_count":1,"episodes_count":21,"episodes":21,"update":"2018-05-30 15:23:21","iframe_src":"//8543.svetacdn.in/71tsRs29n5tZ/tv-series/2654"},{"id":2647,"title":"Позови и я приду","kp_id":"843168","imdb_id":null,"world_art_id":null,"type":"serial","add":"2018-05-24 10:34:16","orig_title":"Позови и я приду","year":"2014-10-18","translations":["Оригинальная дорожка"],"seasons_count":1,"episodes_count":2,"episodes":2,"update":"2018-05-31 10:38:22","iframe_src":"//8543.svetacdn.in/71tsRs29n5tZ/tv-series/2647"},{"id":2646,"title":"Память сердца","kp_id":"838675","imdb_id":"tt3764798","world_art_id":null,"type":"serial","add":"2018-05-24 10:31:46","orig_title":"Pamyat serdtsa","year":"2014-03-29","translations":["Оригинальная дорожка"],"seasons_count":1,"episodes_count":2,"episodes":2,"update":"2018-05-29 09:48:44","iframe_src":"//8543.svetacdn.in/71tsRs29n5tZ/tv-series/2646"},{"id":2643,"title":"Баффи - истребительница вампиров","kp_id":"81344","imdb_id":"tt0118276","world_art_id":null,"type":"serial","add":"2018-05-24 03:48:13","orig_title":"Buffy the Vampire Slayer","year":"1997-03-10","translations":["Профессиональный (многоголосый закадровый) (Первый канал | ОРТ)","Профессиональный (многоголосый закадровый) (ТВ3)"],"seasons_count":7,"episodes_count":144,"episodes":22,"update":"2018-05-29 09:29:13","iframe_src":"//8543.svetacdn.in/71tsRs29n5tZ/tv-series/2643"},{"id":2635,"title":"Она со мной","kp_id":null,"imdb_id":"tt3377134","world_art_id":null,"type":"serial","add":"2018-05-23 11:27:56","orig_title":"Lehiyot Ita","year":"2013-11-25","translations":["Профессиональный (многоголосый закадровый) (SunshineStudio)"],"seasons_count":2,"episodes_count":20,"episodes":10,"update":"2018-05-30 15:02:10","iframe_src":"//8543.svetacdn.in/71tsRs29n5tZ/tv-series/2635"},{"id":2634,"title":"Врачиха","kp_id":"839498","imdb_id":null,"world_art_id":null,"type":"serial","add":"2018-05-23 05:11:59","orig_title":"Врачиха","year":"2014-05-01","translations":["Оригинальная дорожка"],"seasons_count":1,"episodes_count":4,"episodes":4,"update":"2018-05-29 09:46:13","iframe_src":"//8543.svetacdn.in/71tsRs29n5tZ/tv-series/2634"},{"id":2631,"title":"Турецкий транзит","kp_id":"837986","imdb_id":"tt4522064","world_art_id":null,"type":"serial","add":"2018-05-23 04:59:22","orig_title":"Turetskiy tranzit","year":"2014-03-11","translations":["Оригинальная дорожка"],"seasons_count":1,"episodes_count":8,"episodes":8,"update":"2018-05-29 09:41:17","iframe_src":"//8543.svetacdn.in/71tsRs29n5tZ/tv-series/2631"},{"id":2597,"title":"Путешествие к центру души","kp_id":"1138772","imdb_id":null,"world_art_id":null,"type":"serial","add":"2018-05-19 08:38:47","orig_title":"Путешествие к центру души","year":"2018-05-15","translations":["Оригинальная дорожка"],"seasons_count":1,"episodes_count":16,"episodes":16,"update":"2018-05-29 19:49:40","iframe_src":"//8543.svetacdn.in/71tsRs29n5tZ/tv-series/2597"},{"id":12902,"title":"Проделки в колледже","kp_id":"195566","imdb_id":"tt0423977","world_art_id":null,"type":"movie","add":"2017-08-10 13:24:24","orig_title":"Charlie Bartlett","year":"2007-05-01","translations":["Полное дублирование","Полное дублирование","Original (English)","Профессиональный (двухголосый закадровый) (НТВ)"],"quality":"webdl","translation":"Полное дублирование","update":"2020-08-25 07:22:41","iframe_src":"//8543.svetacdn.in/71tsRs29n5tZ/movie/12902"},{"id":11139,"title":"Дом","kp_id":"5477","imdb_id":"tt0091223","world_art_id":null,"type":"movie","add":"2017-04-19 23:02:23","orig_title":"House","year":"1985-12-06","translations":["Профессиональный (многоголосый закадровый) (CP Digital)","Профессиональный (многоголосый закадровый) (ТВЦ)","Профессиональный (многоголосый закадровый) (CP Digital)","Профессиональный (двухголосый закадровый) (РенТВ)","Original (English)","Авторский (одноголосый закадровый) (Володарский Леонид)","Авторский (одноголосый закадровый) (Визгунов Сергей)","Авторский (одноголосый закадровый) (Дохалов Вартан)","Авторский (одноголосый закадровый) (Белов Вадим)"],"quality":"bd","translation":"Профессиональный (многоголосый закадровый) (CP Digital)","update":"2020-08-25 15:15:32","iframe_src":"//8543.svetacdn.in/71tsRs29n5tZ/movie/11139"},{"id":8950,"title":"Редкая порода","kp_id":"2706","imdb_id":"tt0087001","world_art_id":null,"type":"movie","add":"2017-01-16 07:34:50","orig_title":"A Breed Apart","year":"1984-06-01","translations":["Профессиональный (многоголосый закадровый)","Авторский (одноголосый закадровый) (Гаврилов Андрей)","Авторский (одноголосый закадровый) (Михалёв Алексей)","Original (English)","Профессиональный (многоголосый закадровый) (НТВ)"],"quality":"bd","translation":"Профессиональный (многоголосый закадровый)","update":"2020-08-25 11:32:39","iframe_src":"//8543.svetacdn.in/71tsRs29n5tZ/movie/8950"},{"id":6921,"title":"Секс, ложь, безумие","kp_id":"21990","imdb_id":"tt0109665","world_art_id":null,"type":"movie","add":"2016-11-01 11:47:47","orig_title":"Dream Lover","year":"1994-05-06","translations":["Профессиональный (двухголосый закадровый)","Авторский (одноголосый закадровый) (Дольский Андрей)","Авторский (одноголосый закадровый) (Гаврилов Андрей)","Original (English)","Профессиональный (двухголосый закадровый)","Профессиональный (многоголосый закадровый) (Союз Видео)"],"quality":"hdtv","translation":"Профессиональный (двухголосый закадровый)","update":"2020-08-25 07:29:12","iframe_src":"//8543.svetacdn.in/71tsRs29n5tZ/movie/6921"},{"id":6462,"title":"Американский ниндзя","kp_id":"28592","imdb_id":"tt0088708","world_art_id":null,"type":"movie","add":"2016-10-19 15:30:35","orig_title":"American Ninja","year":"1985-08-30","translations":["Профессиональный (двухголосый закадровый)","Авторский (одноголосый закадровый) (Гаврилов Андрей)","Авторский (одноголосый закадровый) (Горчаков Василий)","Авторский (одноголосый закадровый) (Готлиб Александр)","Авторский (одноголосый закадровый) (Карповский Антон)","Original (English)","Профессиональный (многоголосый закадровый) (СТС)","Профессиональный (двухголосый закадровый) (Paramount Channel)","Профессиональный (двухголосый закадровый) (Союз Видео)"],"quality":"bd","translation":"Профессиональный (двухголосый закадровый)","update":"2020-08-25 11:20:03","iframe_src":"//8543.svetacdn.in/71tsRs29n5tZ/movie/6462"},{"id":533,"title":"Однажды в сказке","kp_id":"585595","imdb_id":"tt1843230","world_art_id":null,"type":"serial","add":"2016-10-18 06:24:16","orig_title":"Once Upon a Time","year":"2011-10-23","translations":["Полное дублирование","Профессиональный (многоголосый закадровый) (LostFilm)","Полное дублирование (Невафильм)"],"seasons_count":7,"episodes_count":159,"episodes":22,"update":"2018-05-30 14:45:34","iframe_src":"//8543.svetacdn.in/71tsRs29n5tZ/tv-series/533"},{"id":6326,"title":"Реаниматор","kp_id":"55945","imdb_id":"tt0089885","world_art_id":null,"type":"movie","add":"2016-10-16 07:56:18","orig_title":"Re-Animator","year":"1985-05-24","translations":["Профессиональный (двухголосый закадровый)","Любительский (многоголосый закадровый)","Авторский (одноголосый закадровый) (Гаврилов Андрей)","Авторский (одноголосый закадровый) (Карцев Пётр)","Авторский (одноголосый закадровый) (Живов Юрий)","Original (English)","Профессиональный (двухголосый закадровый) (Гланц + Королёва)","Профессиональный (многоголосый закадровый)"],"quality":"bd","translation":"Профессиональный (двухголосый закадровый)","update":"2020-08-25 11:07:15","iframe_src":"//8543.svetacdn.in/71tsRs29n5tZ/movie/6326"},{"id":1347,"title":"Терминатор","kp_id":"507","imdb_id":"tt0088247","world_art_id":null,"type":"movie","add":"2016-04-20 22:05:27","orig_title":"The Terminator","year":"1984-10-26","translations":["Полное дублирование","Original (English)","Авторский (одноголосый закадровый) (Гаврилов Андрей)","Авторский (одноголосый закадровый) (Гоблин | Пучков Дмитрий)","Original (English)","Профессиональный (многоголосый закадровый) (DDV)","Профессиональный (многоголосый закадровый)","Профессиональный (многоголосый закадровый) (НТВ)","Профессиональный (многоголосый закадровый) (Карусель)","Профессиональный (многоголосый закадровый) (Киномания)","Профессиональный (многоголосый закадровый) (Первый канал | ОРТ)","Профессиональный (многоголосый закадровый) (Останкино)","Профессиональный (многоголосый закадровый) (Позитив)"],"quality":"bd","translation":"Полное дублирование","update":"2020-08-25 07:11:45","iframe_src":"//8543.svetacdn.in/71tsRs29n5tZ/movie/1347"}],"current_page":413,"first_page_url":"https://videocdn.tv/api/short?limit=100&api_token=EnbO9h8pv1VyjbCJhg0WM9nG259n7mtz&cache3413=3413&page=1","from":41201,"last_page":606,"last_page_url":"https://videocdn.tv/api/short?limit=100&api_token=EnbO9h8pv1VyjbCJhg0WM9nG259n7mtz&cache3413=3413&page=606","next_page_url":"https://videocdn.tv/api/short?limit=100&api_token=EnbO9h8pv1VyjbCJhg0WM9nG259n7mtz&cache3413=3413&page=414","path":"https://videocdn.tv/api/short","per_page":100,"prev_page_url":"https://videocdn.tv/api/short?limit=100&api_token=EnbO9h8pv1VyjbCJhg0WM9nG259n7mtz&cache3413=3413&page=412","to":41240,"total":60594}