{"result":true,"data":[{"id":38589,"title":"Будет ещё круче","kp_id":"774397","imdb_id":"tt3005850","world_art_id":null,"type":"movie","add":"2020-03-26 23:53:18","orig_title":"Sooper Se Ooper","year":"2013-10-25","translations":["Профессиональный (многоголосый закадровый) (ZEE TV)"],"quality":"hdrip","translation":"Профессиональный (многоголосый закадровый) (ZEE TV)","update":"2020-03-31 07:47:50","iframe_src":"//83.svetacdn.in/PfJ50H0ZBPg3/movie/38589"},{"id":38588,"title":"Список желаний","kp_id":"1119344","imdb_id":"tt7886846","world_art_id":null,"type":"movie","add":"2020-03-26 23:50:06","orig_title":"Bucket List","year":"2018-05-25","translations":["Любительский (многоголосый закадровый)"],"quality":"webdl","translation":"Любительский (многоголосый закадровый)","update":"2020-03-31 07:47:06","iframe_src":"//83.svetacdn.in/PfJ50H0ZBPg3/movie/38588"},{"id":38587,"title":"Авантюрист","kp_id":"18746","imdb_id":"tt0337625","world_art_id":null,"type":"movie","add":"2020-03-26 23:47:32","orig_title":"Gambler","year":"1995-12-08","translations":["Профессиональный (двухголосый закадровый)"],"quality":"dvdrip","translation":"Профессиональный (двухголосый закадровый)","update":"2020-03-31 07:46:22","iframe_src":"//83.svetacdn.in/PfJ50H0ZBPg3/movie/38587"},{"id":38586,"title":"Авантюристы","kp_id":"172594","imdb_id":"tt0157917","world_art_id":null,"type":"movie","add":"2020-03-26 23:12:41","orig_title":"Lakhon Ki Baat","year":"1984-07-06","translations":["Профессиональный (многоголосый закадровый)"],"quality":"dvdrip","translation":"Профессиональный (многоголосый закадровый)","update":"2020-03-31 07:44:56","iframe_src":"//83.svetacdn.in/PfJ50H0ZBPg3/movie/38586"},{"id":38534,"title":"Безумно влюблённый","kp_id":"702731","imdb_id":"tt2359810","world_art_id":null,"type":"movie","add":"2020-03-25 19:20:29","orig_title":"Raanjhanaa","year":"2013-06-20","translations":["Профессиональный (многоголосый закадровый) (Red Media)"],"quality":"bd","translation":"Профессиональный (многоголосый закадровый) (Red Media)","update":"2020-03-31 07:43:58","iframe_src":"//83.svetacdn.in/PfJ50H0ZBPg3/movie/38534"},{"id":38533,"title":"Клянусь вами","kp_id":"85035","imdb_id":"tt0175423","world_art_id":null,"type":"movie","add":"2020-03-25 19:16:41","orig_title":"Aap Ki Kasam","year":"1974-04-17","translations":["Профессиональный (многоголосый закадровый)"],"quality":"dvdrip","translation":"Профессиональный (многоголосый закадровый)","update":"2020-03-31 07:43:16","iframe_src":"//83.svetacdn.in/PfJ50H0ZBPg3/movie/38533"},{"id":38532,"title":"Обвиняемый","kp_id":"262749","imdb_id":"tt0495893","world_art_id":null,"type":"movie","add":"2020-03-25 19:12:43","orig_title":"Shikaar","year":"2000-01-01","translations":["Профессиональный (многоголосый закадровый) (ZEE TV)"],"quality":"sat","translation":"Профессиональный (многоголосый закадровый) (ZEE TV)","update":"2020-03-31 07:42:45","iframe_src":"//83.svetacdn.in/PfJ50H0ZBPg3/movie/38532"},{"id":38531,"title":"Когти","kp_id":"639053","imdb_id":"tt2091384","world_art_id":null,"type":"movie","add":"2020-03-25 19:01:48","orig_title":"Panjaa","year":"2011-12-08","translations":["Профессиональный (многоголосый закадровый) (Red Media)"],"quality":"bd","translation":"Профессиональный (многоголосый закадровый) (Red Media)","update":"2020-03-31 07:41:41","iframe_src":"//83.svetacdn.in/PfJ50H0ZBPg3/movie/38531"},{"id":38530,"title":"Цыгане","kp_id":"82256","imdb_id":"tt0186857","world_art_id":null,"type":"movie","add":"2020-03-25 18:40:48","orig_title":"Banjaran","year":"1991-11-08","translations":["Любительский (одноголосый закадровый)"],"quality":"webdl","translation":"Любительский (одноголосый закадровый)","update":"2020-03-31 07:22:36","iframe_src":"//83.svetacdn.in/PfJ50H0ZBPg3/movie/38530"},{"id":38529,"title":"В пылающем огне","kp_id":"208335","imdb_id":"tt0247915","world_art_id":null,"type":"movie","add":"2020-03-25 18:38:20","orig_title":"Agnee","year":"1988-11-18","translations":["Профессиональный (многоголосый закадровый) (Формат AB)"],"quality":"dvdrip","translation":"Профессиональный (многоголосый закадровый) (Формат AB)","update":"2020-03-31 07:21:56","iframe_src":"//83.svetacdn.in/PfJ50H0ZBPg3/movie/38529"},{"id":38528,"title":"Защита","kp_id":"85053","imdb_id":"tt0246261","world_art_id":null,"type":"movie","add":"2020-03-25 18:26:34","orig_title":"Surakksha","year":"1979-06-22","translations":["Профессиональный (многоголосый закадровый) (Формат AB)"],"quality":"dvdrip","translation":"Профессиональный (многоголосый закадровый) (Формат AB)","update":"2020-03-31 07:19:55","iframe_src":"//83.svetacdn.in/PfJ50H0ZBPg3/movie/38528"},{"id":38526,"title":"Жил-был воин","kp_id":"504534","imdb_id":"tt1621994","world_art_id":null,"type":"movie","add":"2020-03-25 18:15:56","orig_title":"Anaganaga O Dheerudu","year":"2011-01-14","translations":["Профессиональный (многоголосый закадровый)"],"quality":"hdtv","translation":"Профессиональный (многоголосый закадровый)","update":"2020-03-31 07:18:31","iframe_src":"//83.svetacdn.in/PfJ50H0ZBPg3/movie/38526"},{"id":38491,"title":"Жара","kp_id":"595063","imdb_id":"tt1946389","world_art_id":null,"type":"movie","add":"2020-03-24 20:52:50","orig_title":"Seema Tapakai","year":"2011-05-13","translations":["Профессиональный (многоголосый закадровый) (Red Media)"],"quality":"bd","translation":"Профессиональный (многоголосый закадровый) (Red Media)","update":"2020-03-31 07:16:38","iframe_src":"//83.svetacdn.in/PfJ50H0ZBPg3/movie/38491"},{"id":38490,"title":"Поющая раковина","kp_id":"217662","imdb_id":"tt0155789","world_art_id":null,"type":"movie","add":"2020-03-24 20:49:53","orig_title":"Kadolara Kavithaigal","year":"1986-07-05","translations":["Полное дублирование"],"quality":"dvdrip","translation":"Полное дублирование","update":"2020-03-31 07:15:58","iframe_src":"//83.svetacdn.in/PfJ50H0ZBPg3/movie/38490"},{"id":38489,"title":"Огонь","kp_id":"41757","imdb_id":"tt0116308","world_art_id":null,"type":"movie","add":"2020-03-24 20:45:23","orig_title":"Fire","year":"1996-09-06","translations":["Авторский (одноголосый закадровый) (Карповский Антон)"],"quality":"dvdrip","translation":"Авторский (одноголосый закадровый) (Карповский Антон)","update":"2020-03-31 07:15:13","iframe_src":"//83.svetacdn.in/PfJ50H0ZBPg3/movie/38489"},{"id":36581,"title":"Тень","kp_id":"680351","imdb_id":"tt2386295","world_art_id":null,"type":"movie","add":"2020-02-19 18:02:28","orig_title":"Shadow","year":"2013-04-25","translations":["Профессиональный (многоголосый закадровый) (Red Media)"],"quality":"bd","translation":"Профессиональный (многоголосый закадровый) (Red Media)","update":"2020-03-31 07:17:36","iframe_src":"//83.svetacdn.in/PfJ50H0ZBPg3/movie/36581"},{"id":33378,"title":"Коммандо","kp_id":"733802","imdb_id":"tt2658126","world_art_id":null,"type":"movie","add":"2019-11-23 09:01:23","orig_title":"Commando","year":"2013-04-11","translations":["Любительский (многоголосый закадровый)","Любительский (многоголосый закадровый) (ICG)","Профессиональный (многоголосый закадровый) (ZEE TV)"],"quality":"hdrip","translation":"Любительский (многоголосый закадровый)","update":"2020-03-31 07:49:13","iframe_src":"//83.svetacdn.in/PfJ50H0ZBPg3/movie/33378"},{"id":32409,"title":"Скажи, что любишь!","kp_id":"85199","imdb_id":"tt0234000","world_art_id":null,"type":"movie","add":"2019-10-27 21:32:15","orig_title":"Kaho Naa... Pyaar Hai","year":"2000-01-14","translations":["Профессиональный (многоголосый закадровый)","Профессиональный (двухголосый закадровый)"],"quality":"webdl","translation":"Профессиональный (многоголосый закадровый)","update":"2020-03-31 07:40:47","iframe_src":"//83.svetacdn.in/PfJ50H0ZBPg3/movie/32409"},{"id":22063,"title":"Пэдмен","kp_id":"1055274","imdb_id":"tt7218518","world_art_id":null,"type":"movie","add":"2019-02-05 04:54:27","orig_title":"Padman","year":"2018-02-09","translations":["Профессиональный (многоголосый закадровый) (ZEE TV)","Любительский (многоголосый закадровый)"],"quality":"bd","translation":"Профессиональный (многоголосый закадровый) (ZEE TV)","update":"2020-03-31 07:14:41","iframe_src":"//83.svetacdn.in/PfJ50H0ZBPg3/movie/22063"},{"id":14422,"title":"Детектив","kp_id":"1052019","imdb_id":"tt7190460","world_art_id":null,"type":"movie","add":"2017-11-22 06:49:37","orig_title":"Thupparivaalan","year":"2017-09-13","translations":["Любительский (двухголосый закадровый) (RecentFilms)","Профессиональный (многоголосый закадровый) (GreenРай Studio)","Профессиональный (многоголосый закадровый) (SDI Media)"],"quality":"webdl","translation":"Любительский (двухголосый закадровый) (RecentFilms)","update":"2020-03-31 07:37:45","iframe_src":"//83.svetacdn.in/PfJ50H0ZBPg3/movie/14422"}],"current_page":785,"first_page_url":"https://videocdn.tv/api/short?limit=100&api_token=RgFQdUIR2dRmwv8iYa5SnFNgnw3vpjKj&cache3785=3785&page=1","from":78401,"last_page":632,"last_page_url":"https://videocdn.tv/api/short?limit=100&api_token=RgFQdUIR2dRmwv8iYa5SnFNgnw3vpjKj&cache3785=3785&page=632","next_page_url":null,"path":"https://videocdn.tv/api/short","per_page":100,"prev_page_url":"https://videocdn.tv/api/short?limit=100&api_token=RgFQdUIR2dRmwv8iYa5SnFNgnw3vpjKj&cache3785=3785&page=784","to":78420,"total":63120}