{"result":true,"data":[{"id":28471,"title":"Мы","kp_id":"1083320","imdb_id":"tt6671244","world_art_id":null,"type":"movie","add":"2019-07-01 21:29:05","orig_title":"Wij","year":"2018-07-12","translations":["Любительский (многоголосый закадровый) (Синема УС)"],"quality":"dvdrip","translation":"Любительский (многоголосый закадровый) (Синема УС)","update":"2019-07-02 05:02:55","iframe_src":"//83.svetacdn.in/PfJ50H0ZBPg3/movie/28471"},{"id":28470,"title":"На краю демократии","kp_id":"1235111","imdb_id":"tt6016744","world_art_id":null,"type":"movie","add":"2019-07-01 21:24:56","orig_title":"Impeachment","year":"2019-01-24","translations":["Любительский (многоголосый закадровый) (Синема УС)"],"quality":"webdl","translation":"Любительский (многоголосый закадровый) (Синема УС)","update":"2019-07-02 04:47:43","iframe_src":"//83.svetacdn.in/PfJ50H0ZBPg3/movie/28470"},{"id":28469,"title":"Взгляд изнутри: приключение с профессиональными игроками в блэкджек","kp_id":"1277427","imdb_id":"tt3575954","world_art_id":null,"type":"movie","add":"2019-07-01 21:17:53","orig_title":"Inside the Edge: A Professional Blackjack Adventure","year":"2019-05-21","translations":["Любительский (многоголосый закадровый) (Синема УС)"],"quality":"webdl","translation":"Любительский (многоголосый закадровый) (Синема УС)","update":"2019-07-02 04:49:04","iframe_src":"//83.svetacdn.in/PfJ50H0ZBPg3/movie/28469"},{"id":28468,"title":"Сделка с Вселенной","kp_id":"1154288","imdb_id":"tt8014038","world_art_id":null,"type":"movie","add":"2019-07-01 21:14:42","orig_title":"A Deal with the Universe","year":"2018-03-26","translations":["Любительский (многоголосый закадровый) (Синема УС)"],"quality":"dvdrip","translation":"Любительский (многоголосый закадровый) (Синема УС)","update":"2019-07-02 05:13:07","iframe_src":"//83.svetacdn.in/PfJ50H0ZBPg3/movie/28468"},{"id":28442,"title":"Случайная встреча","kp_id":"411704","imdb_id":"tt2221807","world_art_id":null,"type":"movie","add":"2019-07-01 18:44:06","orig_title":"Sluchainaya vstrecha","year":"1936-10-21","translations":["Оригинальная дорожка"],"quality":"dvdrip","translation":"Оригинальная дорожка","update":"2019-07-02 05:42:45","iframe_src":"//83.svetacdn.in/PfJ50H0ZBPg3/movie/28442"},{"id":28441,"title":"Солистка балета","kp_id":"43902","imdb_id":"tt0039789","world_art_id":null,"type":"movie","add":"2019-07-01 18:41:28","orig_title":"Solistka baleta","year":"1947-04-28","translations":["Оригинальная дорожка"],"quality":"dvdrip","translation":"Оригинальная дорожка","update":"2019-07-02 05:41:40","iframe_src":"//83.svetacdn.in/PfJ50H0ZBPg3/movie/28441"},{"id":28440,"title":"Свет над Россией","kp_id":"461819","imdb_id":"tt4729670","world_art_id":null,"type":"movie","add":"2019-07-01 18:38:42","orig_title":"Svet nad Rossiyei","year":"1947-01-01","translations":["Оригинальная дорожка"],"quality":"dvdrip","translation":"Оригинальная дорожка","update":"2019-07-02 05:38:48","iframe_src":"//83.svetacdn.in/PfJ50H0ZBPg3/movie/28440"},{"id":28439,"title":"У них есть Родина","kp_id":"42476","imdb_id":"tt0166742","world_art_id":null,"type":"movie","add":"2019-07-01 18:36:06","orig_title":"U nikh est Rodina","year":"1950-03-20","translations":["Оригинальная дорожка"],"quality":"dvdrip","translation":"Оригинальная дорожка","update":"2019-07-02 05:36:19","iframe_src":"//83.svetacdn.in/PfJ50H0ZBPg3/movie/28439"},{"id":28438,"title":"В людях","kp_id":"45603","imdb_id":"tt0032086","world_art_id":null,"type":"movie","add":"2019-07-01 18:33:26","orig_title":"V lyudyakh","year":"1939-03-03","translations":["Оригинальная дорожка"],"quality":"dvdrip","translation":"Оригинальная дорожка","update":"2019-07-02 05:35:07","iframe_src":"//83.svetacdn.in/PfJ50H0ZBPg3/movie/28438"},{"id":28437,"title":"Трудное счастье","kp_id":"42330","imdb_id":"tt0052321","world_art_id":null,"type":"movie","add":"2019-07-01 18:27:24","orig_title":"Trudnoe schaste","year":"1958-10-27","translations":["Оригинальная дорожка"],"quality":"dvdrip","translation":"Оригинальная дорожка","update":"2019-07-02 05:14:46","iframe_src":"//83.svetacdn.in/PfJ50H0ZBPg3/movie/28437"},{"id":28433,"title":"Сквозь пепел","kp_id":"1260540","imdb_id":"tt10204316","world_art_id":null,"type":"movie","add":"2019-07-01 12:44:54","orig_title":"Through the Ashes","year":"2019-05-14","translations":["Любительский (многоголосый закадровый) (Синема УС)"],"quality":"webdl","translation":"Любительский (многоголосый закадровый) (Синема УС)","update":"2019-07-01 20:22:19","iframe_src":"//83.svetacdn.in/PfJ50H0ZBPg3/movie/28433"},{"id":28432,"title":"Встреча на Эльбе","kp_id":"45930","imdb_id":"tt0042029","world_art_id":null,"type":"movie","add":"2019-06-30 23:18:12","orig_title":"Vstrecha na Elbe","year":"1949-03-16","translations":["Оригинальная дорожка"],"quality":"dvdrip","translation":"Оригинальная дорожка","update":"2019-07-01 08:16:04","iframe_src":"//83.svetacdn.in/PfJ50H0ZBPg3/movie/28432"},{"id":28431,"title":"Бессонная ночь","kp_id":"46104","imdb_id":"tt0315820","world_art_id":null,"type":"movie","add":"2019-06-30 23:13:10","orig_title":"Bessonnaya noch","year":"1960-05-23","translations":["Оригинальная дорожка"],"quality":"sat","translation":"Оригинальная дорожка","update":"2019-07-01 08:11:40","iframe_src":"//83.svetacdn.in/PfJ50H0ZBPg3/movie/28431"},{"id":28430,"title":"Восьмое чудо света","kp_id":"45854","imdb_id":"tt0083304","world_art_id":null,"type":"movie","add":"2019-06-30 23:09:16","orig_title":"Vosmoe chudo sveta","year":"1982-02-01","translations":["Оригинальная дорожка"],"quality":"sat","translation":"Оригинальная дорожка","update":"2019-07-01 08:09:40","iframe_src":"//83.svetacdn.in/PfJ50H0ZBPg3/movie/28430"},{"id":28247,"title":"Пусть будет Лиза","kp_id":"1127133","imdb_id":"tt8307876","world_art_id":null,"type":"movie","add":"2019-06-24 22:29:36","orig_title":"Pust budet Liza","year":"2018-11-08","translations":["Оригинальная дорожка"],"quality":"webdl","translation":"Оригинальная дорожка","update":"2019-07-02 04:35:33","iframe_src":"//83.svetacdn.in/PfJ50H0ZBPg3/movie/28247"},{"id":25996,"title":"В прах","kp_id":"1046867","imdb_id":"tt7117594","world_art_id":null,"type":"movie","add":"2019-05-04 21:33:13","orig_title":"To Dust","year":"2018-04-22","translations":["Профессиональный (многоголосый закадровый) (iTunes)"],"quality":"webdl","translation":"Профессиональный (многоголосый закадровый) (iTunes)","update":"2019-07-02 05:11:52","iframe_src":"//83.svetacdn.in/PfJ50H0ZBPg3/movie/25996"},{"id":24954,"title":"Миллиард","kp_id":"1097478","imdb_id":"tt10214842","world_art_id":null,"type":"movie","add":"2019-04-21 00:30:57","orig_title":"Milliard","year":"2019-04-18","translations":["Оригинальная дорожка"],"quality":"webdl","translation":"Оригинальная дорожка","update":"2019-07-02 04:43:56","iframe_src":"//83.svetacdn.in/PfJ50H0ZBPg3/movie/24954"},{"id":19853,"title":"Два билета домой","kp_id":"1118074","imdb_id":"tt8499198","world_art_id":null,"type":"movie","add":"2018-10-30 00:04:07","orig_title":"Dva bileta domoy","year":"2018-10-12","translations":["Оригинальная дорожка"],"quality":"webdl","translation":"Оригинальная дорожка","update":"2019-07-02 04:41:45","iframe_src":"//83.svetacdn.in/PfJ50H0ZBPg3/movie/19853"},{"id":9230,"title":"Осколки хрустальной туфельки","kp_id":"893242","imdb_id":null,"world_art_id":null,"type":"movie","add":"2017-01-26 12:45:58","orig_title":"Осколки хрустальной туфельки","year":"2015-03-22","translations":["Оригинальная дорожка"],"quality":"webdl","translation":"Оригинальная дорожка","update":"2019-07-02 05:34:50","iframe_src":"//83.svetacdn.in/PfJ50H0ZBPg3/movie/9230"},{"id":8983,"title":"Александр Невский","kp_id":"8387","imdb_id":"tt0029850","world_art_id":null,"type":"movie","add":"2017-01-17 11:15:46","orig_title":"Aleksandr Nevskiy","year":"1939-03-22","translations":["Оригинальная дорожка"],"quality":"bd","translation":"Оригинальная дорожка","update":"2019-07-01 08:14:31","iframe_src":"//83.svetacdn.in/PfJ50H0ZBPg3/movie/8983"}],"current_page":1441,"first_page_url":"https://videocdn.tv/api/short?limit=100&api_token=RgFQdUIR2dRmwv8iYa5SnFNgnw3vpjKj&cache31441=31441&page=1","from":144001,"last_page":655,"last_page_url":"https://videocdn.tv/api/short?limit=100&api_token=RgFQdUIR2dRmwv8iYa5SnFNgnw3vpjKj&cache31441=31441&page=655","next_page_url":null,"path":"https://videocdn.tv/api/short","per_page":100,"prev_page_url":"https://videocdn.tv/api/short?limit=100&api_token=RgFQdUIR2dRmwv8iYa5SnFNgnw3vpjKj&cache31441=31441&page=1440","to":144020,"total":65456}