{"result":true,"data":[{"id":4122,"title":"Три цвета: Белый","kp_id":"18347","imdb_id":"tt0111507","world_art_id":null,"type":"movie","add":"2016-07-22 08:53:38","orig_title":"Trois couleurs: Blanc","year":"1994-01-26","translations":["Любительский (одноголосый закадровый)"],"quality":"bd","translation":"Любительский (одноголосый закадровый)","update":"2016-07-22 12:39:02","iframe_src":"//7741.svetacdn.in/71tsRs29n5tZ/movie/4122"},{"id":4095,"title":"Грешники и праведники","kp_id":"825086","imdb_id":"tt3491962","world_art_id":null,"type":"movie","add":"2016-07-22 05:07:26","orig_title":"Outlaws and Angels","year":"2016-01-25","translations":["Любительский (многоголосый закадровый) (Parovoz Production)"],"quality":"webdl","translation":"Любительский (многоголосый закадровый) (Parovoz Production)","update":"2016-07-22 11:13:49","iframe_src":"//7741.svetacdn.in/71tsRs29n5tZ/movie/4095"},{"id":4094,"title":"Трейдеры","kp_id":"837188","imdb_id":"tt3531578","world_art_id":null,"type":"movie","add":"2016-07-21 14:41:17","orig_title":"Traders","year":"2015-07-11","translations":["Любительский (многоголосый закадровый) (Студия Пиратского Дубляжа)"],"quality":"bd","translation":"Любительский (многоголосый закадровый) (Студия Пиратского Дубляжа)","update":"2016-07-22 06:54:37","iframe_src":"//7741.svetacdn.in/71tsRs29n5tZ/movie/4094"},{"id":4093,"title":"Приходит дракон","kp_id":"957899","imdb_id":"tt5463378","world_art_id":null,"type":"movie","add":"2016-07-21 11:33:07","orig_title":"A Dragon Arrives!","year":"2016-02-19","translations":["Профессиональный (многоголосый закадровый) (iTunes)"],"quality":"webdl","translation":"Профессиональный (многоголосый закадровый) (iTunes)","update":"2016-07-22 06:51:33","iframe_src":"//7741.svetacdn.in/71tsRs29n5tZ/movie/4093"},{"id":4092,"title":"Репортерша","kp_id":"841790","imdb_id":"tt3553442","world_art_id":null,"type":"movie","add":"2016-07-21 11:29:23","orig_title":"Whiskey Tango Foxtrot","year":"2016-03-04","translations":["Полное дублирование (iTunes)"],"quality":"bd","translation":"Полное дублирование (iTunes)","update":"2016-07-22 06:49:28","iframe_src":"//7741.svetacdn.in/71tsRs29n5tZ/movie/4092"},{"id":4091,"title":"Завтрак у папы","kp_id":"913506","imdb_id":"tt5505334","world_art_id":null,"type":"movie","add":"2016-07-21 11:15:35","orig_title":"Zavtrak u papy","year":"2016-07-22","translations":["Оригинальная дорожка"],"quality":"webdl","translation":"Оригинальная дорожка","update":"2016-07-21 14:46:52","iframe_src":"//7741.svetacdn.in/71tsRs29n5tZ/movie/4091"},{"id":4090,"title":"Разомкнутые объятия","kp_id":"402567","imdb_id":"tt0913425","world_art_id":null,"type":"movie","add":"2016-07-20 21:49:58","orig_title":"Los abrazos rotos","year":"2009-03-17","translations":["Полное дублирование"],"quality":"bd","translation":"Полное дублирование","update":"2016-07-21 11:59:03","iframe_src":"//7741.svetacdn.in/71tsRs29n5tZ/movie/4090"},{"id":4088,"title":"Молодым без толку","kp_id":"527304","imdb_id":"tt1647483","world_art_id":null,"type":"movie","add":"2016-07-20 21:48:04","orig_title":"Wasted on the Young","year":"2010-06-13","translations":["Профессиональный (многоголосый закадровый)"],"quality":"bd","translation":"Профессиональный (многоголосый закадровый)","update":"2016-07-21 11:47:12","iframe_src":"//7741.svetacdn.in/71tsRs29n5tZ/movie/4088"},{"id":4084,"title":"Легенды Дикого Запада","kp_id":"381153","imdb_id":"tt0111359","world_art_id":null,"type":"movie","add":"2016-07-20 21:44:29","orig_title":"Tall Tale","year":"1995-03-24","translations":["Профессиональный (многоголосый закадровый)"],"quality":"webdl","translation":"Профессиональный (многоголосый закадровый)","update":"2016-07-21 11:37:57","iframe_src":"//7741.svetacdn.in/71tsRs29n5tZ/movie/4084"},{"id":4081,"title":"Лето. Пляж. Кино","kp_id":"674793","imdb_id":"tt2325989","world_art_id":null,"type":"movie","add":"2016-07-20 21:39:48","orig_title":"Teen Beach Movie","year":"2013-07-19","translations":["Полное дублирование"],"quality":"webdl","translation":"Полное дублирование","update":"2016-07-21 11:31:09","iframe_src":"//7741.svetacdn.in/71tsRs29n5tZ/movie/4081"},{"id":4080,"title":"Полина на пляже","kp_id":"55017","imdb_id":"tt0086087","world_art_id":null,"type":"movie","add":"2016-07-20 21:38:45","orig_title":"Pauline à la plage","year":"1983-03-23","translations":["Любительский (одноголосый закадровый)"],"quality":"bd","translation":"Любительский (одноголосый закадровый)","update":"2016-07-21 11:21:05","iframe_src":"//7741.svetacdn.in/71tsRs29n5tZ/movie/4080"},{"id":4079,"title":"Остин Пауэрс: Шпион, который меня соблазнил","kp_id":"3571","imdb_id":"tt0145660","world_art_id":null,"type":"movie","add":"2016-07-20 21:37:43","orig_title":"Austin Powers: The spy who shagged me","year":"1999-06-08","translations":["Полное дублирование"],"quality":"bd","translation":"Полное дублирование","update":"2016-07-21 11:07:54","iframe_src":"//7741.svetacdn.in/71tsRs29n5tZ/movie/4079"},{"id":4078,"title":"Дурное воспитание","kp_id":"16992","imdb_id":"tt0275491","world_art_id":null,"type":"movie","add":"2016-07-20 21:36:00","orig_title":"La mala educacion","year":"2004-03-19","translations":["Полное дублирование"],"quality":"bd","translation":"Полное дублирование","update":"2016-07-21 10:52:33","iframe_src":"//7741.svetacdn.in/71tsRs29n5tZ/movie/4078"},{"id":4077,"title":"Живая плоть","kp_id":"16993","imdb_id":"tt0118819","world_art_id":null,"type":"movie","add":"2016-07-20 21:35:08","orig_title":"Carne tremula","year":"1997-10-10","translations":["Любительский (двухголосый закадровый)"],"quality":"bd","translation":"Любительский (двухголосый закадровый)","update":"2016-07-21 11:22:12","iframe_src":"//7741.svetacdn.in/71tsRs29n5tZ/movie/4077"},{"id":4071,"title":"Землетрясение","kp_id":"463694","imdb_id":"tt1393746","world_art_id":null,"type":"movie","add":"2016-07-20 21:29:42","orig_title":"Tangshan dadizhen","year":"2010-07-22","translations":["Полное дублирование"],"quality":"bd","translation":"Полное дублирование","update":"2016-07-21 11:33:01","iframe_src":"//7741.svetacdn.in/71tsRs29n5tZ/movie/4071"},{"id":4068,"title":"Высокие каблуки","kp_id":"16996","imdb_id":"tt0103030","world_art_id":null,"type":"movie","add":"2016-07-20 21:26:48","orig_title":"Tacones lejanos","year":"1991-10-23","translations":["Профессиональный (многоголосый закадровый)"],"quality":"bd","translation":"Профессиональный (многоголосый закадровый)","update":"2016-07-21 09:33:23","iframe_src":"//7741.svetacdn.in/71tsRs29n5tZ/movie/4068"},{"id":4066,"title":"Кика","kp_id":"16995","imdb_id":"tt0107315","world_art_id":null,"type":"movie","add":"2016-07-20 21:25:13","orig_title":"Kika","year":"1993-10-29","translations":["Профессиональный (многоголосый закадровый)"],"quality":"bd","translation":"Профессиональный (многоголосый закадровый)","update":"2016-07-21 10:06:16","iframe_src":"//7741.svetacdn.in/71tsRs29n5tZ/movie/4066"},{"id":4063,"title":"Раскрашенная кожа","kp_id":"380816","imdb_id":"tt1055300","world_art_id":null,"type":"movie","add":"2016-07-20 12:35:52","orig_title":"Hua pi","year":"2008-09-25","translations":["Любительский (одноголосый закадровый)"],"quality":"bd","translation":"Любительский (одноголосый закадровый)","update":"2016-07-21 12:07:27","iframe_src":"//7741.svetacdn.in/71tsRs29n5tZ/movie/4063"},{"id":4059,"title":"Битва у Красной скалы 2","kp_id":"432796","imdb_id":"tt1326972","world_art_id":null,"type":"movie","add":"2016-07-20 11:58:18","orig_title":"Chi bi xia: Jue zhan tian xia","year":"2009-01-08","translations":["Профессиональный (многоголосый закадровый)"],"quality":"bd","translation":"Профессиональный (многоголосый закадровый)","update":"2016-07-21 12:15:19","iframe_src":"//7741.svetacdn.in/71tsRs29n5tZ/movie/4059"},{"id":4050,"title":"Ганнибал","kp_id":"686","imdb_id":"tt0212985","world_art_id":null,"type":"movie","add":"2016-07-20 10:34:59","orig_title":"Hannibal","year":"2001-02-09","translations":["Полное дублирование"],"quality":"bd","translation":"Полное дублирование","update":"2016-07-21 12:00:40","iframe_src":"//7741.svetacdn.in/71tsRs29n5tZ/movie/4050"}],"current_page":2710,"first_page_url":"https://videocdn.tv/api/short?limit=100&api_token=EnbO9h8pv1VyjbCJhg0WM9nG259n7mtz&cache32710=32710&page=1","from":270901,"last_page":707,"last_page_url":"https://videocdn.tv/api/short?limit=100&api_token=EnbO9h8pv1VyjbCJhg0WM9nG259n7mtz&cache32710=32710&page=707","next_page_url":null,"path":"https://videocdn.tv/api/short","per_page":100,"prev_page_url":"https://videocdn.tv/api/short?limit=100&api_token=EnbO9h8pv1VyjbCJhg0WM9nG259n7mtz&cache32710=32710&page=2709","to":270920,"total":70654}