{"result":true,"data":[{"id":25247,"title":"Звезда","kp_id":"45409","imdb_id":"tt0195307","world_art_id":null,"type":"movie","add":"2019-04-24 09:02:41","orig_title":"Zvezda","year":"1953-09-21","translations":["Оригинальная дорожка"],"quality":"dvdrip","translation":"Оригинальная дорожка","update":"2019-04-25 08:40:03","iframe_src":"//83.svetacdn.in/PfJ50H0ZBPg3/movie/25247"},{"id":25245,"title":"Как львенок и черепаха пели песню","kp_id":"257964","imdb_id":"tt1074974","world_art_id":null,"type":"movie","add":"2019-04-24 08:58:09","orig_title":"Kak lvyonok i cherepakha peli pesnyu","year":"1974-01-01","translations":["Оригинальная дорожка"],"quality":"bd","translation":"Оригинальная дорожка","update":"2019-04-25 08:38:47","iframe_src":"//83.svetacdn.in/PfJ50H0ZBPg3/movie/25245"},{"id":25242,"title":"Заколдованный мальчик","kp_id":"45214","imdb_id":"tt0211762","world_art_id":null,"type":"movie","add":"2019-04-24 08:51:07","orig_title":"Zakoldovannyy malchik","year":"1956-01-13","translations":["Оригинальная дорожка"],"quality":"dvdrip","translation":"Оригинальная дорожка","update":"2019-04-25 08:35:20","iframe_src":"//83.svetacdn.in/PfJ50H0ZBPg3/movie/25242"},{"id":25240,"title":"Семь стариков и одна девушка","kp_id":"81095","imdb_id":"tt0063579","world_art_id":null,"type":"movie","add":"2019-04-24 08:47:58","orig_title":"Sem starikov i odna devushka","year":"1969-03-16","translations":["Оригинальная дорожка"],"quality":"sat","translation":"Оригинальная дорожка","update":"2019-04-25 08:33:06","iframe_src":"//83.svetacdn.in/PfJ50H0ZBPg3/movie/25240"},{"id":25163,"title":"Душка","kp_id":"281192","imdb_id":"tt0986225","world_art_id":null,"type":"movie","add":"2019-04-23 06:57:37","orig_title":"Duska","year":"2007-10-04","translations":["Оригинальная дорожка"],"quality":"dvdrip","translation":"Оригинальная дорожка","update":"2019-04-25 08:31:52","iframe_src":"//83.svetacdn.in/PfJ50H0ZBPg3/movie/25163"},{"id":25162,"title":"Он попался!","kp_id":"257974","imdb_id":"tt1364439","world_art_id":null,"type":"movie","add":"2019-04-23 06:54:28","orig_title":"On popalsya!","year":"1981-01-01","translations":["Оригинальная дорожка"],"quality":"dvdrip","translation":"Оригинальная дорожка","update":"2019-04-25 08:30:42","iframe_src":"//83.svetacdn.in/PfJ50H0ZBPg3/movie/25162"},{"id":25161,"title":"Женщина, которая поет","kp_id":"45307","imdb_id":"tt0169403","world_art_id":null,"type":"movie","add":"2019-04-23 06:52:31","orig_title":"Zhenshchina, kotoraya poyot","year":"1979-03-02","translations":["Оригинальная дорожка"],"quality":"dvdrip","translation":"Оригинальная дорожка","update":"2019-04-25 08:29:36","iframe_src":"//83.svetacdn.in/PfJ50H0ZBPg3/movie/25161"},{"id":25160,"title":"А что ты умеешь?","kp_id":"455484","imdb_id":"tt7871404","world_art_id":null,"type":"movie","add":"2019-04-23 06:50:46","orig_title":"A chto ty umeesh'?","year":"1984-01-01","translations":["Оригинальная дорожка"],"quality":"dvdrip","translation":"Оригинальная дорожка","update":"2019-04-25 08:28:36","iframe_src":"//83.svetacdn.in/PfJ50H0ZBPg3/movie/25160"},{"id":25159,"title":"Можешь не стучать","kp_id":"11665","imdb_id":"tt0044557","world_art_id":null,"type":"movie","add":"2019-04-23 06:48:18","orig_title":"Don't Bother to Knock","year":"1952-08-01","translations":["Профессиональный (многоголосый закадровый)"],"quality":"dvdrip","translation":"Профессиональный (многоголосый закадровый)","update":"2019-04-25 08:27:32","iframe_src":"//83.svetacdn.in/PfJ50H0ZBPg3/movie/25159"},{"id":25157,"title":"Дневник дурнушки","kp_id":"843347","imdb_id":"tt3640822","world_art_id":null,"type":"movie","add":"2019-04-23 06:27:17","orig_title":"Diary ng panget","year":"2014-04-02","translations":["Любительский (одноголосый закадровый)"],"quality":"dvdrip","translation":"Любительский (одноголосый закадровый)","update":"2019-04-25 08:26:16","iframe_src":"//83.svetacdn.in/PfJ50H0ZBPg3/movie/25157"},{"id":25112,"title":"Аленький цветочек","kp_id":"43455","imdb_id":"tt0283242","world_art_id":null,"type":"movie","add":"2019-04-22 09:25:20","orig_title":"Alenkiy tsvetochek","year":"1978-08-25","translations":["Оригинальная дорожка"],"quality":"dvdrip","translation":"Оригинальная дорожка","update":"2019-04-25 08:24:49","iframe_src":"//83.svetacdn.in/PfJ50H0ZBPg3/movie/25112"},{"id":25110,"title":"Сказка о старом эхо","kp_id":"478585","imdb_id":"tt6052438","world_art_id":null,"type":"movie","add":"2019-04-22 09:11:51","orig_title":"Skazka o starom ekho","year":"1989-01-01","translations":["Оригинальная дорожка"],"quality":"dvdrip","translation":"Оригинальная дорожка","update":"2019-04-25 08:23:20","iframe_src":"//83.svetacdn.in/PfJ50H0ZBPg3/movie/25110"},{"id":25108,"title":"Сказка о потерянном времени","kp_id":"469232","imdb_id":"tt2595916","world_art_id":null,"type":"movie","add":"2019-04-22 09:09:07","orig_title":"Skazka o poteryannom vremeni","year":"1978-01-01","translations":["Оригинальная дорожка"],"quality":"dvdrip","translation":"Оригинальная дорожка","update":"2019-04-25 08:22:30","iframe_src":"//83.svetacdn.in/PfJ50H0ZBPg3/movie/25108"},{"id":25107,"title":"Как тоску одолели","kp_id":"595993","imdb_id":"tt6101056","world_art_id":null,"type":"movie","add":"2019-04-22 09:07:26","orig_title":"Kak tosku odolel","year":"1978-01-01","translations":["Оригинальная дорожка"],"quality":"dvdrip","translation":"Оригинальная дорожка","update":"2019-04-25 08:21:33","iframe_src":"//83.svetacdn.in/PfJ50H0ZBPg3/movie/25107"},{"id":25106,"title":"Как старик корову продавал","kp_id":"257821","imdb_id":"tt2943554","world_art_id":null,"type":"movie","add":"2019-04-22 09:05:47","orig_title":"Kak starik korovu prodaval","year":"1980-01-01","translations":["Оригинальная дорожка"],"quality":"dvdrip","translation":"Оригинальная дорожка","update":"2019-04-25 08:20:47","iframe_src":"//83.svetacdn.in/PfJ50H0ZBPg3/movie/25106"},{"id":25105,"title":"Царевна лягушка","kp_id":"658896","imdb_id":"tt5944986","world_art_id":null,"type":"movie","add":"2019-04-22 09:03:01","orig_title":"Tsarevna lyagushka","year":"1971-01-01","translations":["Оригинальная дорожка"],"quality":"dvdrip","translation":"Оригинальная дорожка","update":"2019-04-25 08:19:25","iframe_src":"//83.svetacdn.in/PfJ50H0ZBPg3/movie/25105"},{"id":25103,"title":"А в этой сказке было так","kp_id":"455378","imdb_id":"tt7974142","world_art_id":null,"type":"movie","add":"2019-04-22 09:00:50","orig_title":"A v etoy skazke bylo tak","year":"1984-01-01","translations":["Оригинальная дорожка"],"quality":"dvdrip","translation":"Оригинальная дорожка","update":"2019-04-25 08:18:28","iframe_src":"//83.svetacdn.in/PfJ50H0ZBPg3/movie/25103"},{"id":25099,"title":"Дора-дора-помидора","kp_id":"566603","imdb_id":"tt2187058","world_art_id":null,"type":"movie","add":"2019-04-22 08:42:12","orig_title":"Dora-Dora Pomidora","year":"2001-01-01","translations":["Оригинальная дорожка"],"quality":"webdl","translation":"Оригинальная дорожка","update":"2019-04-25 08:17:13","iframe_src":"//83.svetacdn.in/PfJ50H0ZBPg3/movie/25099"},{"id":25098,"title":"Мальтийский крест","kp_id":"271699","imdb_id":"tt1487957","world_art_id":null,"type":"movie","add":"2019-04-22 08:39:35","orig_title":"Maltiyskiy krest","year":"2008-12-04","translations":["Оригинальная дорожка"],"quality":"dvdrip","translation":"Оригинальная дорожка","update":"2019-04-25 08:15:58","iframe_src":"//83.svetacdn.in/PfJ50H0ZBPg3/movie/25098"},{"id":23706,"title":"Амбивалентность","kp_id":"1171869","imdb_id":"tt8896336","world_art_id":null,"type":"movie","add":"2019-03-31 21:56:45","orig_title":"Ambivalentnost","year":"2018-11-11","translations":["Оригинальная дорожка"],"quality":"webdl","translation":"Оригинальная дорожка","update":"2019-04-25 13:33:56","iframe_src":"//83.svetacdn.in/PfJ50H0ZBPg3/movie/23706"}],"current_page":1477,"first_page_url":"https://videocdn.tv/api/short?limit=100&api_token=RgFQdUIR2dRmwv8iYa5SnFNgnw3vpjKj&cache31477=31477&page=1","from":147601,"last_page":630,"last_page_url":"https://videocdn.tv/api/short?limit=100&api_token=RgFQdUIR2dRmwv8iYa5SnFNgnw3vpjKj&cache31477=31477&page=630","next_page_url":null,"path":"https://videocdn.tv/api/short","per_page":100,"prev_page_url":"https://videocdn.tv/api/short?limit=100&api_token=RgFQdUIR2dRmwv8iYa5SnFNgnw3vpjKj&cache31477=31477&page=1476","to":147620,"total":62984}