{"result":true,"data":[{"id":45970,"title":"Рождественские зомби","kp_id":null,"imdb_id":"tt12906940","world_art_id":null,"type":"movie","add":"2020-12-10 05:46:11","orig_title":"Christmas Zombies","year":"2020-10-15","translations":["Любительский (многоголосый закадровый) (Синема УС)"],"quality":"webdl","translation":"Любительский (многоголосый закадровый) (Синема УС)","update":"2020-12-10 10:04:17","iframe_src":"//8543.svetacdn.in/si4jsFRrtgrT/movie/45970"},{"id":45963,"title":"Невероятная история Острова роз","kp_id":"1264438","imdb_id":"tt10287954","world_art_id":null,"type":"movie","add":"2020-12-09 22:16:21","orig_title":"L'incredibile storia dell'isola delle rose","year":"2020-12-09","translations":["Полное дублирование (Netflix)"],"quality":"webdl","translation":"Полное дублирование (Netflix)","update":"2020-12-10 04:57:23","iframe_src":"//8543.svetacdn.in/si4jsFRrtgrT/movie/45963"},{"id":45931,"title":"Сказ о матери","kp_id":"471802","imdb_id":null,"world_art_id":null,"type":"movie","add":"2020-12-08 19:46:37","orig_title":"Сказ о матери","year":"1964-03-09","translations":["Оригинальная дорожка"],"quality":"webdl","translation":"Оригинальная дорожка","update":"2020-12-10 11:14:26","iframe_src":"//8543.svetacdn.in/si4jsFRrtgrT/movie/45931"},{"id":45928,"title":"Сорочинская ярмарка","kp_id":"43919","imdb_id":"tt0195292","world_art_id":null,"type":"movie","add":"2020-12-08 19:42:17","orig_title":"Sorochinskaya yarmarka","year":"1939-06-19","translations":["Оригинальная дорожка"],"quality":"dvdrip","translation":"Оригинальная дорожка","update":"2020-12-10 11:13:41","iframe_src":"//8543.svetacdn.in/si4jsFRrtgrT/movie/45928"},{"id":45926,"title":"Умри на коне","kp_id":"654809","imdb_id":null,"world_art_id":null,"type":"movie","add":"2020-12-08 19:39:25","orig_title":"Умри на коне","year":"1980-05-10","translations":["Оригинальная дорожка"],"quality":"iptv","translation":"Оригинальная дорожка","update":"2020-12-10 10:59:30","iframe_src":"//8543.svetacdn.in/si4jsFRrtgrT/movie/45926"},{"id":45924,"title":"Шквал","kp_id":"471854","imdb_id":null,"world_art_id":null,"type":"movie","add":"2020-12-08 19:34:17","orig_title":"Шквал","year":"1958-12-20","translations":["Оригинальная дорожка"],"quality":"webdl","translation":"Оригинальная дорожка","update":"2020-12-10 10:58:20","iframe_src":"//8543.svetacdn.in/si4jsFRrtgrT/movie/45924"},{"id":45909,"title":"Соль и хлеб","kp_id":"745409","imdb_id":null,"world_art_id":null,"type":"movie","add":"2020-12-07 21:42:11","orig_title":"Соль и хлеб","year":"1977-01-01","translations":["Оригинальная дорожка"],"quality":"webdl","translation":"Оригинальная дорожка","update":"2020-12-10 10:57:52","iframe_src":"//8543.svetacdn.in/si4jsFRrtgrT/movie/45909"},{"id":45908,"title":"Ты, песня моя","kp_id":"474538","imdb_id":"tt5372656","world_art_id":null,"type":"movie","add":"2020-12-07 21:35:10","orig_title":"Ty, pesnya moya","year":"1975-03-01","translations":["Оригинальная дорожка"],"quality":"tv","translation":"Оригинальная дорожка","update":"2020-12-10 10:56:46","iframe_src":"//8543.svetacdn.in/si4jsFRrtgrT/movie/45908"},{"id":45907,"title":"Улан","kp_id":"42518","imdb_id":"tt0174305","world_art_id":null,"type":"movie","add":"2020-12-07 21:32:44","orig_title":"Ulan","year":"1977-01-29","translations":["Оригинальная дорожка"],"quality":"webdl","translation":"Оригинальная дорожка","update":"2020-12-10 10:53:49","iframe_src":"//8543.svetacdn.in/si4jsFRrtgrT/movie/45907"},{"id":45906,"title":"Умей сказать «нет!»","kp_id":"959888","imdb_id":"tt5396534","world_art_id":null,"type":"movie","add":"2020-12-07 21:28:18","orig_title":"Umey skazat «net»!","year":"1976-01-01","translations":["Полное дублирование"],"quality":"webdl","translation":"Полное дублирование","update":"2020-12-10 10:52:56","iframe_src":"//8543.svetacdn.in/si4jsFRrtgrT/movie/45906"},{"id":45903,"title":"Человек и цепи","kp_id":"532934","imdb_id":null,"world_art_id":null,"type":"movie","add":"2020-12-07 21:12:29","orig_title":"Человек и цепи","year":"1964-01-01","translations":["Полное дублирование"],"quality":"vhs","translation":"Полное дублирование","update":"2020-12-10 10:28:50","iframe_src":"//8543.svetacdn.in/si4jsFRrtgrT/movie/45903"},{"id":45902,"title":"Я — Водолаз-2","kp_id":"472370","imdb_id":null,"world_art_id":null,"type":"movie","add":"2020-12-07 21:06:30","orig_title":"Я — Водолаз-2","year":"1976-07-26","translations":["Оригинальная дорожка"],"quality":"tv","translation":"Оригинальная дорожка","update":"2020-12-10 10:26:44","iframe_src":"//8543.svetacdn.in/si4jsFRrtgrT/movie/45902"},{"id":45791,"title":"Виктория","kp_id":"1438350","imdb_id":"tt12765534","world_art_id":null,"type":"movie","add":"2020-12-02 20:44:25","orig_title":"Victoria","year":"2020-11-26","translations":["Оригинальная дорожка","Оригинальная дорожка"],"quality":"ts","translation":"Оригинальная дорожка","update":"2020-12-10 05:03:22","iframe_src":"//8543.svetacdn.in/si4jsFRrtgrT/movie/45791"},{"id":38858,"title":"Напугай меня","kp_id":"1256089","imdb_id":"tt10126434","world_art_id":null,"type":"movie","add":"2020-04-03 19:40:37","orig_title":"Scare Me","year":"2020-01-24","translations":["Любительский (многоголосый закадровый) (Синема УС)","Original (English)","Любительский (многоголосый закадровый) (@MUZOBOZ@)","Полное дублирование (iTunes)"],"quality":"webdl","translation":"Любительский (многоголосый закадровый) (Синема УС)","update":"2020-12-10 10:01:29","iframe_src":"//8543.svetacdn.in/si4jsFRrtgrT/movie/38858"},{"id":6683,"title":"Без комплексов","kp_id":"933207","imdb_id":"tt2256592","world_art_id":null,"type":"serial","add":"2020-02-19 14:08:35","orig_title":"Skin to the Max","year":"2011-08-19","translations":["Профессиональный (многоголосый закадровый) (Amedia)"],"seasons_count":2,"episodes_count":10,"episodes":4,"update":"2020-02-19 21:26:28","iframe_src":"//8543.svetacdn.in/si4jsFRrtgrT/tv-series/6683"},{"id":6680,"title":"Книга семьи Гу","kp_id":"745220","imdb_id":"tt2816734","world_art_id":null,"type":"serial","add":"2020-02-19 10:34:30","orig_title":"Gugaui seo","year":"2013-04-08","translations":["Любительский (двухголосый закадровый) (GREEN TEA)"],"seasons_count":1,"episodes_count":24,"episodes":24,"update":"2020-02-19 20:32:32","iframe_src":"//8543.svetacdn.in/si4jsFRrtgrT/tv-series/6680"},{"id":6676,"title":"Золотые годы","kp_id":"257951","imdb_id":"tt0101206","world_art_id":null,"type":"serial","add":"2020-02-18 13:54:53","orig_title":"Golden Years","year":"1991-07-16","translations":["Авторский (одноголосый закадровый) (Марченко Александр)"],"seasons_count":1,"episodes_count":2,"episodes":2,"update":"2020-02-18 21:00:00","iframe_src":"//8543.svetacdn.in/si4jsFRrtgrT/tv-series/6676"},{"id":6675,"title":"По имени Барон","kp_id":"94491","imdb_id":"tt0409604","world_art_id":null,"type":"serial","add":"2020-02-18 12:13:23","orig_title":"Po imeni Baron","year":"2002-08-06","translations":["Оригинальная дорожка"],"seasons_count":1,"episodes_count":12,"episodes":12,"update":"2020-02-19 06:08:36","iframe_src":"//8543.svetacdn.in/si4jsFRrtgrT/tv-series/6675"},{"id":6673,"title":"Смертельная битва","kp_id":"80262","imdb_id":"tt0122355","world_art_id":null,"type":"serial","add":"2020-02-18 10:55:47","orig_title":"Mortal Kombat: Defenders of the Realm","year":"1996-09-21","translations":["Полное дублирование"],"seasons_count":1,"episodes_count":13,"episodes":13,"update":"2020-02-19 06:03:08","iframe_src":"//8543.svetacdn.in/si4jsFRrtgrT/tv-series/6673"},{"id":6672,"title":"Бархатные ножки","kp_id":"79839","imdb_id":"tt0324264","world_art_id":null,"type":"serial","add":"2020-02-18 09:47:49","orig_title":"Tipping the Velvet","year":"2002-10-09","translations":["Профессиональный (многоголосый закадровый)"],"seasons_count":1,"episodes_count":3,"episodes":3,"update":"2020-02-18 11:06:53","iframe_src":"//8543.svetacdn.in/si4jsFRrtgrT/tv-series/6672"},{"id":6667,"title":"Вверх и вниз по лестнице","kp_id":"574240","imdb_id":"tt1782352","world_art_id":null,"type":"serial","add":"2020-02-17 18:56:40","orig_title":"Upstairs Downstairs","year":"2010-12-26","translations":["Профессиональный (многоголосый закадровый) (BaibaKo)"],"seasons_count":1,"episodes_count":3,"episodes":3,"update":"2020-02-18 21:07:16","iframe_src":"//8543.svetacdn.in/si4jsFRrtgrT/tv-series/6667"},{"id":6666,"title":"Городские шпионы","kp_id":"772832","imdb_id":"tt3508584","world_art_id":null,"type":"serial","add":"2020-02-17 17:28:24","orig_title":"Gorodskie shpiony","year":"2013-10-11","translations":["Оригинальная дорожка"],"seasons_count":1,"episodes_count":12,"episodes":12,"update":"2020-02-18 18:22:57","iframe_src":"//8543.svetacdn.in/si4jsFRrtgrT/tv-series/6666"},{"id":6665,"title":"BBC: Индия с Майклом Вудом","kp_id":"678551","imdb_id":"tt1333053","world_art_id":null,"type":"serial","add":"2020-02-17 15:08:17","orig_title":"The Story of India","year":"2007-08-24","translations":["Профессиональный (двухголосый закадровый)"],"seasons_count":1,"episodes_count":6,"episodes":6,"update":"2020-02-18 18:24:43","iframe_src":"//8543.svetacdn.in/si4jsFRrtgrT/tv-series/6665"},{"id":6664,"title":"Полнолуние","kp_id":"678176","imdb_id":"tt2124494","world_art_id":null,"type":"serial","add":"2020-02-17 12:39:02","orig_title":"Luna, el misterio de Calenda","year":"2012-04-10","translations":["Профессиональный (многоголосый закадровый) (NewStudio)"],"seasons_count":2,"episodes_count":20,"episodes":8,"update":"2020-02-19 12:33:31","iframe_src":"//8543.svetacdn.in/si4jsFRrtgrT/tv-series/6664"},{"id":6652,"title":"Каникулы Петрова и Васечкина, обыкновенные и невероятные","kp_id":"81480","imdb_id":"tt0082941","world_art_id":null,"type":"serial","add":"2020-02-16 16:24:00","orig_title":"Kanikuly Petrova i Vasechkina, obyknovennye i neveroyatnye","year":"1984-06-03","translations":["Оригинальная дорожка"],"seasons_count":1,"episodes_count":2,"episodes":2,"update":"2020-02-18 17:53:50","iframe_src":"//8543.svetacdn.in/si4jsFRrtgrT/tv-series/6652"},{"id":6650,"title":"Чёрная роза - эмблема печали, красная роза - эмблема любви","kp_id":"45553","imdb_id":"tt0097062","world_art_id":null,"type":"serial","add":"2020-02-16 16:09:00","orig_title":"Chyornaya roza - emblema pechali, krasnaya roza - emblema lyubvi","year":"1990-01-01","translations":["Оригинальная дорожка"],"seasons_count":1,"episodes_count":2,"episodes":2,"update":"2020-02-18 17:52:49","iframe_src":"//8543.svetacdn.in/si4jsFRrtgrT/tv-series/6650"},{"id":6632,"title":"Большие надежды","kp_id":"1346400","imdb_id":null,"world_art_id":null,"type":"serial","add":"2020-02-13 19:30:06","orig_title":"Большие надежды","year":"2020-02-10","translations":["Оригинальная дорожка"],"seasons_count":1,"episodes_count":8,"episodes":8,"update":"2020-02-18 21:12:33","iframe_src":"//8543.svetacdn.in/si4jsFRrtgrT/tv-series/6632"},{"id":6628,"title":"Васса","kp_id":"45679","imdb_id":"tt0086527","world_art_id":null,"type":"serial","add":"2020-02-13 10:07:59","orig_title":"Vassa","year":"1983-09-12","translations":["Оригинальная дорожка"],"seasons_count":1,"episodes_count":2,"episodes":2,"update":"2020-02-19 07:08:05","iframe_src":"//8543.svetacdn.in/si4jsFRrtgrT/tv-series/6628"},{"id":6626,"title":"Отражение радуги","kp_id":"1226473","imdb_id":null,"world_art_id":null,"type":"serial","add":"2020-02-12 20:36:27","orig_title":"Отражение радуги","year":"2020-02-10","translations":["Оригинальная дорожка"],"seasons_count":1,"episodes_count":12,"episodes":12,"update":"2020-02-19 21:50:13","iframe_src":"//8543.svetacdn.in/si4jsFRrtgrT/tv-series/6626"},{"id":6578,"title":"Старые деньги","kp_id":"1142925","imdb_id":"tt3701442","world_art_id":null,"type":"serial","add":"2020-02-06 23:15:34","orig_title":"Altes Geld","year":"2015-03-27","translations":["Профессиональный (двухголосый закадровый) (ViruseProject)"],"seasons_count":1,"episodes_count":8,"episodes":8,"update":"2020-02-19 11:10:22","iframe_src":"//8543.svetacdn.in/si4jsFRrtgrT/tv-series/6578"},{"id":6575,"title":"Спасите Грейс","kp_id":"402946","imdb_id":"tt0830900","world_art_id":null,"type":"serial","add":"2020-02-06 07:24:53","orig_title":"Saving Grace","year":"2007-07-23","translations":["Профессиональный (многоголосый закадровый) (Первый канал | ОРТ)"],"seasons_count":3,"episodes_count":46,"episodes":19,"update":"2020-02-19 11:14:52","iframe_src":"//8543.svetacdn.in/si4jsFRrtgrT/tv-series/6575"},{"id":6476,"title":"Забытая армия","kp_id":"1266618","imdb_id":"tt10289938","world_art_id":null,"type":"serial","add":"2020-01-26 05:46:14","orig_title":"The Forgotten Army - Azaadi ke liye","year":"2020-01-24","translations":["Любительский (многоголосый закадровый) (Octopus)","Любительский (многоголосый закадровый) (ColdFilm)"],"seasons_count":1,"episodes_count":5,"episodes":5,"update":"2020-02-18 12:36:20","iframe_src":"//8543.svetacdn.in/si4jsFRrtgrT/tv-series/6476"},{"id":4782,"title":"Анна. Жена егеря","kp_id":"963393","imdb_id":null,"world_art_id":null,"type":"serial","add":"2019-07-03 20:35:26","orig_title":"Анна. Жена егеря","year":"2016-03-01","translations":["Оригинальная дорожка"],"seasons_count":1,"episodes_count":4,"episodes":4,"update":"2020-02-18 20:00:49","iframe_src":"//8543.svetacdn.in/si4jsFRrtgrT/tv-series/4782"},{"id":1185,"title":"Типа моя жена","kp_id":"949670","imdb_id":"tt5212822","world_art_id":null,"type":"serial","add":"2017-04-12 16:13:35","orig_title":"Imposters","year":"2017-02-07","translations":["Любительский (двухголосый закадровый) (Sunshine Studio)","Профессиональный (многоголосый закадровый) (Sony Channel)"],"seasons_count":2,"episodes_count":20,"episodes":10,"update":"2020-02-19 07:06:08","iframe_src":"//8543.svetacdn.in/si4jsFRrtgrT/tv-series/1185"},{"id":7071,"title":"Между ангелом и бесом","kp_id":"20881","imdb_id":"tt0112366","world_art_id":null,"type":"movie","add":"2016-11-04 14:22:32","orig_title":"Les anges gardiens","year":"1995-10-11","translations":["Профессиональный (многоголосый закадровый)","Профессиональный (двухголосый закадровый)","Профессиональный (двухголосый закадровый) (Первый канал | ОРТ)","Профессиональный (многоголосый закадровый) (5-й канал СПб)","Профессиональный (многоголосый закадровый) (РТР | Россия)","Профессиональный (многоголосый закадровый) (Союз Видео)","Профессиональный (многоголосый закадровый) (Twister)"],"quality":"hdtv","translation":"Профессиональный (многоголосый закадровый)","update":"2020-12-10 08:01:47","iframe_src":"//8543.svetacdn.in/si4jsFRrtgrT/movie/7071"},{"id":5112,"title":"Плачущий убийца","kp_id":"5426","imdb_id":"tt0112750","world_art_id":null,"type":"movie","add":"2016-09-08 06:47:24","orig_title":"Crying Freeman","year":"1995-09-14","translations":["Профессиональный (многоголосый закадровый)","Авторский (одноголосый закадровый) (Гаевский Евгений)","Авторский (одноголосый закадровый) (Гаврилов Андрей)","Original (English)","Профессиональный (двухголосый закадровый) (РенТВ)","Профессиональный (многоголосый закадровый)","Профессиональный (многоголосый закадровый) (Нота)"],"quality":"bd","translation":"Профессиональный (многоголосый закадровый)","update":"2020-12-10 07:23:43","iframe_src":"//8543.svetacdn.in/si4jsFRrtgrT/movie/5112"},{"id":3613,"title":"Блэйд 3: Троица","kp_id":"22022","imdb_id":"tt0359013","world_art_id":null,"type":"movie","add":"2016-07-03 08:07:09","orig_title":"Blade: Trinity","year":"2004-12-07","translations":["Полное дублирование","Original (English)","Профессиональный (двухголосый закадровый)","Авторский (одноголосый закадровый) (Визгунов Сергей)","Original (English)","Профессиональный (многоголосый закадровый) (Киномания)","Профессиональный (многоголосый закадровый) (ТВ3)"],"quality":"bd","translation":"Полное дублирование","update":"2020-12-10 09:02:51","iframe_src":"//8543.svetacdn.in/si4jsFRrtgrT/movie/3613"},{"id":3612,"title":"Блэйд 2","kp_id":"613","imdb_id":"tt0187738","world_art_id":null,"type":"movie","add":"2016-07-03 08:01:19","orig_title":"Blade II","year":"2002-03-21","translations":["Полное дублирование","Original (English)","Авторский (одноголосый закадровый) (Гаврилов Андрей)","Авторский (одноголосый закадровый) (Гоблин | Пучков Дмитрий)","Авторский (одноголосый закадровый) (Живов Юрий)","Полное дублирование","Original (English)","Профессиональный (двухголосый закадровый) (Гланц + Королёва)","Профессиональный (многоголосый закадровый) (TV1000)"],"quality":"bd","translation":"Полное дублирование","update":"2020-12-10 08:57:01","iframe_src":"//8543.svetacdn.in/si4jsFRrtgrT/movie/3612"},{"id":3611,"title":"Блэйд","kp_id":"4554","imdb_id":"tt0120611","world_art_id":null,"type":"movie","add":"2016-07-03 07:59:31","orig_title":"Blade","year":"1998-08-19","translations":["Полное дублирование","Original (English)","Авторский (одноголосый закадровый) (Гаврилов Андрей)","Авторский (одноголосый закадровый) (Гоблин | Пучков Дмитрий)","Авторский (одноголосый закадровый) (Живов Юрий)","Полное дублирование","Original (English)","Профессиональный (двухголосый закадровый)","Профессиональный (двухголосый закадровый) (Гланц + Королёва)","Профессиональный (многоголосый закадровый) (Киномания)","Профессиональный (многоголосый закадровый) (Первый канал | ОРТ)","Профессиональный (многоголосый закадровый) (TV1000)"],"quality":"bd","translation":"Полное дублирование","update":"2020-12-10 08:25:16","iframe_src":"//8543.svetacdn.in/si4jsFRrtgrT/movie/3611"},{"id":1797,"title":"Схватка","kp_id":"571","imdb_id":"tt0113277","world_art_id":null,"type":"movie","add":"2016-05-03 05:05:55","orig_title":"Heat","year":"1995-12-15","translations":["Профессиональный (многоголосый закадровый)","Авторский (одноголосый закадровый) (Есарев Дмитрий)","Авторский (одноголосый закадровый) (Гаевский Евгений)","Авторский (одноголосый закадровый) (Гаврилов Андрей)","Авторский (одноголосый закадровый) (Гоблин | Пучков Дмитрий)","Авторский (одноголосый закадровый) (Горчаков Василий)","Авторский (одноголосый закадровый) (Володарский Леонид)","Авторский (одноголосый закадровый) (Живов Юрий)","Original (English)","Профессиональный (двухголосый закадровый) (РенТВ)","Профессиональный (многоголосый закадровый) (Гемини)","Профессиональный (многоголосый закадровый) (Карусель)","Профессиональный (многоголосый закадровый) (Первый канал | ОРТ)","Профессиональный (многоголосый закадровый) (Twister)"],"quality":"bd","translation":"Профессиональный (многоголосый закадровый)","update":"2020-12-10 07:15:05","iframe_src":"//8543.svetacdn.in/si4jsFRrtgrT/movie/1797"}],"current_page":239,"first_page_url":"https://videocdn.tv/api/short?limit=100&api_token=X6EwAUfE5M9xbo7y0Bp0aPf3uXxG2KLL&cache3239=3239&page=1","from":23801,"last_page":606,"last_page_url":"https://videocdn.tv/api/short?limit=100&api_token=X6EwAUfE5M9xbo7y0Bp0aPf3uXxG2KLL&cache3239=3239&page=606","next_page_url":"https://videocdn.tv/api/short?limit=100&api_token=X6EwAUfE5M9xbo7y0Bp0aPf3uXxG2KLL&cache3239=3239&page=240","path":"https://videocdn.tv/api/short","per_page":100,"prev_page_url":"https://videocdn.tv/api/short?limit=100&api_token=X6EwAUfE5M9xbo7y0Bp0aPf3uXxG2KLL&cache3239=3239&page=238","to":23840,"total":60594}