{"result":true,"data":[{"id":33073,"title":"Выстрел","kp_id":"825852","imdb_id":"tt3539966","world_art_id":null,"type":"movie","add":"2019-11-13 11:54:52","orig_title":"Dishkiyaoon","year":"2014-03-27","translations":["Любительский (многоголосый закадровый) (ICG)"],"quality":"hdrip","translation":"Любительский (многоголосый закадровый) (ICG)","update":"2019-11-13 20:56:34","iframe_src":"//24213.svetacdn.in/IAF0wWTdNYZm/movie/33073"},{"id":33071,"title":"Опасная игра","kp_id":"618760","imdb_id":"tt2043971","world_art_id":null,"type":"movie","add":"2019-11-13 11:50:29","orig_title":"Real Playing Game","year":"2013-08-29","translations":["Любительский (одноголосый закадровый) (RAIM)"],"quality":"dvdrip","translation":"Любительский (одноголосый закадровый) (RAIM)","update":"2019-11-13 20:57:11","iframe_src":"//24213.svetacdn.in/IAF0wWTdNYZm/movie/33071"},{"id":33070,"title":"Великий Сингх Сахаб","kp_id":"712742","imdb_id":"tt2437954","world_art_id":null,"type":"movie","add":"2019-11-13 11:48:19","orig_title":"Singh Saab the Great","year":"2013-11-21","translations":["Профессиональный (многоголосый закадровый) (SDI Media | Iyuno-SDI Group Russia)"],"quality":"dvdrip","translation":"Профессиональный (многоголосый закадровый) (SDI Media | Iyuno-SDI Group Russia)","update":"2019-11-13 20:57:41","iframe_src":"//24213.svetacdn.in/IAF0wWTdNYZm/movie/33070"},{"id":33057,"title":"Франкофония","kp_id":"667406","imdb_id":"tt3451720","world_art_id":null,"type":"movie","add":"2019-11-13 08:06:03","orig_title":"Francofonia","year":"2015-09-04","translations":["Полное дублирование"],"quality":"bd","translation":"Полное дублирование","update":"2019-11-14 06:49:41","iframe_src":"//24213.svetacdn.in/IAF0wWTdNYZm/movie/33057"},{"id":33045,"title":"Шесть","kp_id":"32348","imdb_id":"tt0221554","world_art_id":null,"type":"movie","add":"2019-11-12 21:12:37","orig_title":"Six-Pack","year":"2000-04-26","translations":["Полное дублирование"],"quality":"dvdrip","translation":"Полное дублирование","update":"2019-11-13 23:15:58","iframe_src":"//24213.svetacdn.in/IAF0wWTdNYZm/movie/33045"},{"id":33044,"title":"Рождение воина","kp_id":"712277","imdb_id":"tt1826616","world_art_id":null,"type":"movie","add":"2019-11-12 21:08:05","orig_title":"Birth of a Warrior","year":"2015-01-14","translations":["Профессиональный (двухголосый закадровый)"],"quality":"hdtv","translation":"Профессиональный (двухголосый закадровый)","update":"2019-11-13 23:16:49","iframe_src":"//24213.svetacdn.in/IAF0wWTdNYZm/movie/33044"},{"id":33038,"title":"Домашняя работа","kp_id":"512267","imdb_id":"tt1645080","world_art_id":null,"type":"movie","add":"2019-11-12 20:50:30","orig_title":"The Art of Getting By","year":"2011-01-23","translations":["Полное дублирование"],"quality":"bd","translation":"Полное дублирование","update":"2019-11-13 21:01:21","iframe_src":"//24213.svetacdn.in/IAF0wWTdNYZm/movie/33038"},{"id":33037,"title":"Миссис Чудо","kp_id":"464601","imdb_id":"tt1431115","world_art_id":null,"type":"movie","add":"2019-11-12 20:48:19","orig_title":"Mrs. Miracle","year":"2009-12-05","translations":["Профессиональный (многоголосый закадровый)"],"quality":"dvdrip","translation":"Профессиональный (многоголосый закадровый)","update":"2019-11-13 23:17:19","iframe_src":"//24213.svetacdn.in/IAF0wWTdNYZm/movie/33037"},{"id":33031,"title":"Белоснежка","kp_id":"77292","imdb_id":"tt0255605","world_art_id":null,"type":"movie","add":"2019-11-12 20:40:47","orig_title":"Snow White","year":"2001-10-28","translations":["Профессиональный (двухголосый закадровый)"],"quality":"dvdrip","translation":"Профессиональный (двухголосый закадровый)","update":"2019-11-13 23:18:18","iframe_src":"//24213.svetacdn.in/IAF0wWTdNYZm/movie/33031"},{"id":33029,"title":"Афера века","kp_id":"79890","imdb_id":"tt0326814","world_art_id":null,"type":"movie","add":"2019-11-12 20:36:58","orig_title":"The Crooked E: The Unshredded Truth About Enron","year":"2003-01-05","translations":["Профессиональный (двухголосый закадровый)"],"quality":"dvdrip","translation":"Профессиональный (двухголосый закадровый)","update":"2019-11-13 23:14:50","iframe_src":"//24213.svetacdn.in/IAF0wWTdNYZm/movie/33029"},{"id":33026,"title":"Король Техаса","kp_id":"94211","imdb_id":"tt0282659","world_art_id":null,"type":"movie","add":"2019-11-12 20:32:20","orig_title":"King of Texas","year":"2002-03-23","translations":["Профессиональный (двухголосый закадровый) (Екатеринбург Арт)"],"quality":"bd","translation":"Профессиональный (двухголосый закадровый) (Екатеринбург Арт)","update":"2019-11-13 23:13:34","iframe_src":"//24213.svetacdn.in/IAF0wWTdNYZm/movie/33026"},{"id":33022,"title":"Остров надежды","kp_id":"77348","imdb_id":"tt0286989","world_art_id":null,"type":"movie","add":"2019-11-12 20:28:45","orig_title":"Stranded","year":"2002-01-12","translations":["Профессиональный (многоголосый закадровый)"],"quality":"dvdrip","translation":"Профессиональный (многоголосый закадровый)","update":"2019-11-13 23:12:21","iframe_src":"//24213.svetacdn.in/IAF0wWTdNYZm/movie/33022"},{"id":33018,"title":"Приходит женщина к врачу","kp_id":"445379","imdb_id":"tt1365474","world_art_id":null,"type":"movie","add":"2019-11-12 20:24:49","orig_title":"Komt een vrouw bij de dokter","year":"2009-11-26","translations":["Любительский (одноголосый закадровый)"],"quality":"bd","translation":"Любительский (одноголосый закадровый)","update":"2019-11-13 23:11:26","iframe_src":"//24213.svetacdn.in/IAF0wWTdNYZm/movie/33018"},{"id":33014,"title":"Три метра над небом","kp_id":"64994","imdb_id":"tt0388483","world_art_id":null,"type":"movie","add":"2019-11-12 20:17:37","orig_title":"Tre metri sopra il cielo","year":"2004-03-12","translations":["Любительский (двухголосый закадровый)"],"quality":"dvdrip","translation":"Любительский (двухголосый закадровый)","update":"2019-11-13 23:08:23","iframe_src":"//24213.svetacdn.in/IAF0wWTdNYZm/movie/33014"},{"id":33011,"title":"Светло и ярко","kp_id":"1273466","imdb_id":"tt10345022","world_art_id":null,"type":"movie","add":"2019-11-12 17:16:44","orig_title":"Merry & Bright","year":"2019-11-02","translations":["Любительский (многоголосый закадровый) (AlphaProject)"],"quality":"hdtv","translation":"Любительский (многоголосый закадровый) (AlphaProject)","update":"2019-11-13 20:09:39","iframe_src":"//24213.svetacdn.in/IAF0wWTdNYZm/movie/33011"},{"id":32987,"title":"Как вода для шоколада","kp_id":"16411","imdb_id":"tt0103994","world_art_id":null,"type":"movie","add":"2019-11-11 21:27:13","orig_title":"Como agua para chocolate","year":"1992-04-16","translations":["Профессиональный (многоголосый закадровый)"],"quality":"bd","translation":"Профессиональный (многоголосый закадровый)","update":"2019-11-14 06:45:52","iframe_src":"//24213.svetacdn.in/IAF0wWTdNYZm/movie/32987"},{"id":32979,"title":"Возможные миры","kp_id":"21428","imdb_id":"tt0222293","world_art_id":null,"type":"movie","add":"2019-11-11 20:45:17","orig_title":"Possible Worlds","year":"2000-09-04","translations":["Авторский (одноголосый закадровый) (Алексеев Антон)"],"quality":"dvdrip","translation":"Авторский (одноголосый закадровый) (Алексеев Антон)","update":"2019-11-14 07:50:11","iframe_src":"//24213.svetacdn.in/IAF0wWTdNYZm/movie/32979"},{"id":32861,"title":"Крот","kp_id":"603635","imdb_id":"tt1900893","world_art_id":null,"type":"movie","add":"2019-11-08 18:38:34","orig_title":"Himizu","year":"2011-09-06","translations":["Профессиональный (многоголосый закадровый) (НТВ)"],"quality":"bd","translation":"Профессиональный (многоголосый закадровый) (НТВ)","update":"2019-11-14 06:39:57","iframe_src":"//24213.svetacdn.in/IAF0wWTdNYZm/movie/32861"},{"id":32834,"title":"Пока не высохнут слезы","kp_id":"22782","imdb_id":"tt0096461","world_art_id":null,"type":"movie","add":"2019-11-07 19:38:37","orig_title":"Wong Gok ka moon","year":"1988-06-09","translations":["Профессиональный (многоголосый закадровый)"],"quality":"bd","translation":"Профессиональный (многоголосый закадровый)","update":"2019-11-14 06:43:44","iframe_src":"//24213.svetacdn.in/IAF0wWTdNYZm/movie/32834"},{"id":32831,"title":"Голос убийцы","kp_id":"279069","imdb_id":"tt0969268","world_art_id":null,"type":"movie","add":"2019-11-07 19:12:22","orig_title":"Geunom moksori","year":"2007-02-01","translations":["Любительский (одноголосый закадровый)"],"quality":"hdtv","translation":"Любительский (одноголосый закадровый)","update":"2019-11-14 06:59:12","iframe_src":"//24213.svetacdn.in/IAF0wWTdNYZm/movie/32831"}],"current_page":1628,"first_page_url":"https://videocdn.tv/api/short?limit=100&api_token=6Onb1W1alEUrBcKJZD3GoKBbWyAl2uG2&cache31628=31628&page=1","from":162701,"last_page":729,"last_page_url":"https://videocdn.tv/api/short?limit=100&api_token=6Onb1W1alEUrBcKJZD3GoKBbWyAl2uG2&cache31628=31628&page=729","next_page_url":null,"path":"https://videocdn.tv/api/short","per_page":100,"prev_page_url":"https://videocdn.tv/api/short?limit=100&api_token=6Onb1W1alEUrBcKJZD3GoKBbWyAl2uG2&cache31628=31628&page=1627","to":162720,"total":72802}