{"result":true,"data":[{"id":51667,"title":"Две датчанки в кожаных штанах","kp_id":"57403","imdb_id":"tt0080182","world_art_id":null,"type":"movie","add":"2021-07-10 10:36:07","orig_title":"Zwei Däninnen in Lederhosen","year":"1979-01-18","translations":["Любительский (одноголосый закадровый)"],"quality":"dvdrip","translation":"Любительский (одноголосый закадровый)","update":"2021-07-10 11:14:50","iframe_src":"//2413.svetacdn.in/IAF0wWTdNYZm/movie/51667"},{"id":51666,"title":"Ужас Девонсвилля","kp_id":"14523","imdb_id":"tt0085434","world_art_id":null,"type":"movie","add":"2021-07-10 10:29:37","orig_title":"The Devonsville Terror","year":"1983-10-01","translations":["Авторский (одноголосый закадровый) (Рутилов Виктор | fiendover | overfiend)"],"quality":"dvdrip","translation":"Авторский (одноголосый закадровый) (Рутилов Виктор | fiendover | overfiend)","update":"2021-07-10 11:13:07","iframe_src":"//2413.svetacdn.in/IAF0wWTdNYZm/movie/51666"},{"id":51665,"title":"Подвиды 4: Кровавая буря","kp_id":"37578","imdb_id":"tt0181315","world_art_id":null,"type":"movie","add":"2021-07-09 15:40:41","orig_title":"Subspecies: The Awakening","year":"1998-12-08","translations":["Авторский (одноголосый закадровый) (Живов Юрий)"],"quality":"dvdrip","translation":"Авторский (одноголосый закадровый) (Живов Юрий)","update":"2021-07-09 16:22:41","iframe_src":"//2413.svetacdn.in/IAF0wWTdNYZm/movie/51665"},{"id":51650,"title":"Выкрутасы джери","kp_id":"4368683","imdb_id":"tt13883080","world_art_id":null,"type":"movie","add":"2021-07-09 06:13:38","orig_title":"Gerri Curls","year":"2021-07-06","translations":["Любительский (многоголосый закадровый) (Синема УС)"],"quality":"webdl","translation":"Любительский (многоголосый закадровый) (Синема УС)","update":"2021-07-09 14:56:35","iframe_src":"//2413.svetacdn.in/IAF0wWTdNYZm/movie/51650"},{"id":51648,"title":"Мэдисон и банка счастья","kp_id":"2001611","imdb_id":"tt13545494","world_art_id":null,"type":"movie","add":"2021-07-09 06:10:06","orig_title":"Madison and the Happiness Jar","year":"2021-01-01","translations":["Любительский (многоголосый закадровый) (Синема УС)"],"quality":"webdl","translation":"Любительский (многоголосый закадровый) (Синема УС)","update":"2021-07-09 14:56:09","iframe_src":"//2413.svetacdn.in/IAF0wWTdNYZm/movie/51648"},{"id":51646,"title":"Медуза: Повелительница змей","kp_id":"1365929","imdb_id":"tt12060154","world_art_id":null,"type":"movie","add":"2021-07-09 06:07:30","orig_title":"Medusa: Queen of the Serpents","year":"2020-01-01","translations":["Любительский (многоголосый закадровый) (AlphaProject)"],"quality":"webdl","translation":"Любительский (многоголосый закадровый) (AlphaProject)","update":"2021-07-09 14:55:57","iframe_src":"//2413.svetacdn.in/IAF0wWTdNYZm/movie/51646"},{"id":51644,"title":"Памятники","kp_id":"1015084","imdb_id":"tt6133524","world_art_id":null,"type":"movie","add":"2021-07-09 06:05:41","orig_title":"Monuments","year":"2020-01-01","translations":["Любительский (многоголосый закадровый) (Синема УС)"],"quality":"webdl","translation":"Любительский (многоголосый закадровый) (Синема УС)","update":"2021-07-09 14:55:44","iframe_src":"//2413.svetacdn.in/IAF0wWTdNYZm/movie/51644"},{"id":51639,"title":"Американский шариат","kp_id":"843563","imdb_id":"tt3889450","world_art_id":null,"type":"movie","add":"2021-07-09 05:54:04","orig_title":"American Sharia","year":"2015-02-11","translations":["Любительский (многоголосый закадровый) (Синема УС)"],"quality":"webdl","translation":"Любительский (многоголосый закадровый) (Синема УС)","update":"2021-07-09 14:55:33","iframe_src":"//2413.svetacdn.in/IAF0wWTdNYZm/movie/51639"},{"id":51638,"title":"Пусть жизнь будет прекрасной","kp_id":"1420851","imdb_id":"tt12695058","world_art_id":null,"type":"movie","add":"2021-07-09 05:52:25","orig_title":"Zai Jian Ba! Shao Nian","year":"2020-10-05","translations":["Любительский (двухголосый закадровый) (Колобок)"],"quality":"webdl","translation":"Любительский (двухголосый закадровый) (Колобок)","update":"2021-07-09 14:55:22","iframe_src":"//2413.svetacdn.in/IAF0wWTdNYZm/movie/51638"},{"id":51637,"title":"Марафон","kp_id":"1447086","imdb_id":"tt1339164","world_art_id":null,"type":"movie","add":"2021-07-09 05:50:41","orig_title":"Marathon","year":"2021-01-01","translations":["Любительский (многоголосый закадровый) (AlphaProject)"],"quality":"webdl","translation":"Любительский (многоголосый закадровый) (AlphaProject)","update":"2021-07-09 14:55:08","iframe_src":"//2413.svetacdn.in/IAF0wWTdNYZm/movie/51637"},{"id":51636,"title":"Герои умирают молодыми","kp_id":"994583","imdb_id":"tt5907978","world_art_id":null,"type":"movie","add":"2021-07-09 05:47:51","orig_title":"The Good Die Young","year":"2018-01-01","translations":["Любительский (многоголосый закадровый) (Синема УС)"],"quality":"webdl","translation":"Любительский (многоголосый закадровый) (Синема УС)","update":"2021-07-09 14:54:58","iframe_src":"//2413.svetacdn.in/IAF0wWTdNYZm/movie/51636"},{"id":51503,"title":"Архипелаг","kp_id":"1256273","imdb_id":"tt14389708","world_art_id":null,"type":"movie","add":"2021-07-01 07:22:27","orig_title":"Arkhipelag","year":"2021-06-10","translations":["Оригинальная дорожка"],"quality":"webdl","translation":"Оригинальная дорожка","update":"2021-07-10 13:01:56","iframe_src":"//2413.svetacdn.in/IAF0wWTdNYZm/movie/51503"},{"id":51499,"title":"Миссия «Евровидение»","kp_id":"735455","imdb_id":"tt2658768","world_art_id":null,"type":"movie","add":"2021-07-01 07:07:39","orig_title":"MGP Missionen","year":"2013-03-21","translations":["Любительский (одноголосый закадровый)"],"quality":"bd","translation":"Любительский (одноголосый закадровый)","update":"2021-07-10 13:00:19","iframe_src":"//2413.svetacdn.in/IAF0wWTdNYZm/movie/51499"},{"id":50505,"title":"Водяной","kp_id":"924361","imdb_id":"tt4779326","world_art_id":null,"type":"movie","add":"2021-05-20 08:16:12","orig_title":"The Water Man","year":"2020-09-19","translations":["Любительский (многоголосый закадровый) (@MUZOBOZ@)","[EN] Original (English)","Полное дублирование (Netflix)"],"quality":"webdl","translation":"Любительский (многоголосый закадровый) (@MUZOBOZ@)","update":"2021-07-10 09:06:05","iframe_src":"//2413.svetacdn.in/IAF0wWTdNYZm/movie/50505"},{"id":47883,"title":"Короче говоря","kp_id":"1302363","imdb_id":"tt10896634","world_art_id":null,"type":"movie","add":"2021-02-12 19:11:16","orig_title":"Long Story Short","year":"2021-02-07","translations":["Профессиональный (многоголосый закадровый) (iTunes)","[EN] Original (English)","[EN] Original (English)"],"quality":"webdl","translation":"Профессиональный (многоголосый закадровый) (iTunes)","update":"2021-07-10 12:59:11","iframe_src":"//2413.svetacdn.in/IAF0wWTdNYZm/movie/47883"},{"id":44845,"title":"Жил-был снеговик","kp_id":"1412452","imdb_id":"tt13061790","world_art_id":null,"type":"movie","add":"2020-10-27 15:55:55","orig_title":"Once Upon A Snowman","year":"2020-10-23","translations":["Любительский (многоголосый закадровый) (Синема УС)","Полное дублирование (Flarrow Films)"],"quality":"webdl","translation":"Любительский (многоголосый закадровый) (Синема УС)","update":"2021-07-09 16:20:41","iframe_src":"//2413.svetacdn.in/IAF0wWTdNYZm/movie/44845"},{"id":3921,"title":"Человек войны","kp_id":"89681","imdb_id":null,"world_art_id":null,"type":"serial","add":"2019-01-21 06:08:38","orig_title":"Человек войны","year":"2005-05-05","translations":["Оригинальная дорожка"],"seasons_count":1,"episodes_count":12,"episodes":12,"update":"2019-01-21 08:30:51","iframe_src":"//2413.svetacdn.in/IAF0wWTdNYZm/tv-series/3921"},{"id":3902,"title":"Письмо по ошибке","kp_id":"1173424","imdb_id":"tt8485864","world_art_id":null,"type":"serial","add":"2019-01-17 12:02:10","orig_title":"Pismo po oshybke","year":"2018-05-19","translations":["Оригинальная дорожка"],"seasons_count":1,"episodes_count":4,"episodes":4,"update":"2019-01-18 08:44:27","iframe_src":"//2413.svetacdn.in/IAF0wWTdNYZm/tv-series/3902"},{"id":3901,"title":"Телохранитель для школьной красавицы","kp_id":"1047501","imdb_id":"tt6286688","world_art_id":null,"type":"serial","add":"2019-01-17 00:35:20","orig_title":"School Beauty's Personal Bodyguard","year":"2015-08-10","translations":["Любительский (одноголосый закадровый) (GREEN TEA)"],"seasons_count":1,"episodes_count":24,"episodes":24,"update":"2019-01-17 05:32:09","iframe_src":"//2413.svetacdn.in/IAF0wWTdNYZm/tv-series/3901"},{"id":3898,"title":"Человек без сердца","kp_id":"1209187","imdb_id":null,"world_art_id":null,"type":"serial","add":"2019-01-16 17:03:30","orig_title":"Человек без сердца","year":"2018-12-09","translations":["Оригинальная дорожка"],"seasons_count":1,"episodes_count":4,"episodes":4,"update":"2019-01-17 08:26:20","iframe_src":"//2413.svetacdn.in/IAF0wWTdNYZm/tv-series/3898"},{"id":3897,"title":"Жена по обмену","kp_id":"1161138","imdb_id":"tt8485780","world_art_id":null,"type":"serial","add":"2019-01-16 16:59:28","orig_title":"Zhena po obmenu","year":"2018-05-27","translations":["Оригинальная дорожка"],"seasons_count":1,"episodes_count":4,"episodes":4,"update":"2019-01-17 08:30:53","iframe_src":"//2413.svetacdn.in/IAF0wWTdNYZm/tv-series/3897"},{"id":3896,"title":"Выстрел в спину","kp_id":"1192382","imdb_id":null,"world_art_id":null,"type":"serial","add":"2019-01-16 16:56:01","orig_title":"Выстрел в спину","year":"2018-12-14","translations":["Оригинальная дорожка"],"seasons_count":1,"episodes_count":2,"episodes":2,"update":"2019-01-17 08:33:16","iframe_src":"//2413.svetacdn.in/IAF0wWTdNYZm/tv-series/3896"},{"id":3895,"title":"Аметистовая сережка","kp_id":"1163053","imdb_id":"tt8485692","world_art_id":null,"type":"serial","add":"2019-01-16 16:52:33","orig_title":"Ametistovaya seryozhka","year":"2018-05-06","translations":["Оригинальная дорожка"],"seasons_count":1,"episodes_count":4,"episodes":4,"update":"2019-01-17 08:37:28","iframe_src":"//2413.svetacdn.in/IAF0wWTdNYZm/tv-series/3895"},{"id":3887,"title":"Класс королевы","kp_id":"766492","imdb_id":"tt5476238","world_art_id":null,"type":"serial","add":"2019-01-16 00:24:35","orig_title":"Yeowangui kyosil","year":"2013-06-12","translations":["Любительский (одноголосый закадровый) (GREEN TEA)"],"seasons_count":1,"episodes_count":16,"episodes":16,"update":"2019-01-16 18:25:11","iframe_src":"//2413.svetacdn.in/IAF0wWTdNYZm/tv-series/3887"},{"id":3885,"title":"Король отелей","kp_id":"839184","imdb_id":"tt3737080","world_art_id":null,"type":"serial","add":"2019-01-15 18:47:52","orig_title":"Hotel King","year":"2014-04-05","translations":["Любительский (одноголосый закадровый) (Julia Prosenuk)"],"seasons_count":1,"episodes_count":32,"episodes":32,"update":"2019-01-19 19:35:50","iframe_src":"//2413.svetacdn.in/IAF0wWTdNYZm/tv-series/3885"},{"id":3884,"title":"Громовы. Дом надежды","kp_id":"447648","imdb_id":"tt4380908","world_art_id":null,"type":"serial","add":"2019-01-15 18:38:38","orig_title":"Gromovy. Dom nadezhdy","year":"2008-01-28","translations":["Оригинальная дорожка"],"seasons_count":1,"episodes_count":12,"episodes":12,"update":"2019-01-19 20:46:38","iframe_src":"//2413.svetacdn.in/IAF0wWTdNYZm/tv-series/3884"},{"id":3883,"title":"Громовы","kp_id":"251734","imdb_id":"tt3746884","world_art_id":null,"type":"serial","add":"2019-01-15 18:31:31","orig_title":"Gromovy","year":"2006-01-01","translations":["Оригинальная дорожка"],"seasons_count":1,"episodes_count":12,"episodes":12,"update":"2019-01-19 20:30:11","iframe_src":"//2413.svetacdn.in/IAF0wWTdNYZm/tv-series/3883"},{"id":3882,"title":"Фирменная история","kp_id":"414672","imdb_id":null,"world_art_id":null,"type":"serial","add":"2019-01-15 17:54:26","orig_title":"Фирменная история","year":"2005-01-01","translations":["Оригинальная дорожка"],"seasons_count":1,"episodes_count":24,"episodes":24,"update":"2019-01-19 20:58:20","iframe_src":"//2413.svetacdn.in/IAF0wWTdNYZm/tv-series/3882"},{"id":3871,"title":"Супружеский хаос","kp_id":"1175473","imdb_id":"tt8969998","world_art_id":null,"type":"serial","add":"2019-01-14 08:57:51","orig_title":"Choegoui Ihon","year":"2018-10-08","translations":["Любительский (двухголосый закадровый) (SoftBox)"],"seasons_count":1,"episodes_count":16,"episodes":16,"update":"2019-01-17 22:27:33","iframe_src":"//2413.svetacdn.in/IAF0wWTdNYZm/tv-series/3871"},{"id":3869,"title":"Кошмарный учитель","kp_id":"1042613","imdb_id":"tt6209442","world_art_id":null,"type":"serial","add":"2019-01-14 08:10:29","orig_title":"Akmong Sunsaeng","year":"2016-03-14","translations":["Профессиональный (двухголосый закадровый) (ViruseProject)"],"seasons_count":1,"episodes_count":12,"episodes":12,"update":"2019-01-17 22:09:09","iframe_src":"//2413.svetacdn.in/IAF0wWTdNYZm/tv-series/3869"},{"id":3865,"title":"Пинкертоны","kp_id":"893797","imdb_id":"tt4089276","world_art_id":null,"type":"serial","add":"2019-01-12 18:42:09","orig_title":"The Pinkertons","year":"2014-10-04","translations":["Профессиональный (двухголосый закадровый) (ViruseProject)"],"seasons_count":1,"episodes_count":22,"episodes":22,"update":"2019-01-18 11:43:03","iframe_src":"//2413.svetacdn.in/IAF0wWTdNYZm/tv-series/3865"},{"id":3842,"title":"Росомаха против Саблезубого","kp_id":"807848","imdb_id":"tt3668942","world_art_id":null,"type":"serial","add":"2019-01-07 21:45:45","orig_title":"Wolverine vs. Sabretooth","year":"2014-01-14","translations":["Полное дублирование (2x2)"],"seasons_count":1,"episodes_count":3,"episodes":3,"update":"2019-01-18 02:20:32","iframe_src":"//2413.svetacdn.in/IAF0wWTdNYZm/tv-series/3842"},{"id":3722,"title":"Сеньор Авила","kp_id":"714072","imdb_id":"tt2280066","world_art_id":null,"type":"serial","add":"2018-12-18 13:57:34","orig_title":"Sr. Ávila","year":"2013-05-26","translations":["Профессиональный (двухголосый закадровый) (ViruseProject)"],"seasons_count":4,"episodes_count":43,"episodes":10,"update":"2019-01-17 08:22:16","iframe_src":"//2413.svetacdn.in/IAF0wWTdNYZm/tv-series/3722"},{"id":3713,"title":"Любовь и тайны Сансет Бич","kp_id":"94226","imdb_id":"tt0118484","world_art_id":null,"type":"serial","add":"2018-12-17 09:01:11","orig_title":"Sunset Beach","year":"1997-01-06","translations":["Профессиональный (многоголосый закадровый)","Профессиональный (двухголосый закадровый) (CBS Drama)"],"seasons_count":1,"episodes_count":518,"episodes":518,"update":"2019-01-17 09:07:41","iframe_src":"//2413.svetacdn.in/IAF0wWTdNYZm/tv-series/3713"},{"id":19901,"title":"Дикие мальчишки","kp_id":"1012926","imdb_id":"tt6340640","world_art_id":null,"type":"movie","add":"2018-11-01 00:34:23","orig_title":"Les garçons sauvages","year":"2017-09-04","translations":["Любительский (многоголосый закадровый) (Колобок)","Профессиональный (многоголосый закадровый) (HDrezka Studio)"],"quality":"webdl","translation":"Любительский (многоголосый закадровый) (Колобок)","update":"2021-07-09 15:02:57","iframe_src":"//2413.svetacdn.in/IAF0wWTdNYZm/movie/19901"},{"id":19236,"title":"Иззи прётся через город","kp_id":"952475","imdb_id":"tt5198796","world_art_id":null,"type":"movie","add":"2018-09-28 01:25:19","orig_title":"Izzy Gets the Fuck Across Town","year":"2017-06-17","translations":["Любительский (многоголосый закадровый) (Синема УС)","Профессиональный (многоголосый закадровый) (HDrezka Studio)"],"quality":"bd","translation":"Любительский (многоголосый закадровый) (Синема УС)","update":"2021-07-09 15:03:16","iframe_src":"//2413.svetacdn.in/IAF0wWTdNYZm/movie/19236"},{"id":3191,"title":"У прошлого в долгу!","kp_id":"1118229","imdb_id":null,"world_art_id":null,"type":"serial","add":"2018-09-20 05:41:03","orig_title":"У прошлого в долгу!","year":"2018-09-17","translations":["Оригинальная дорожка"],"seasons_count":1,"episodes_count":16,"episodes":16,"update":"2019-01-17 15:25:47","iframe_src":"//2413.svetacdn.in/IAF0wWTdNYZm/tv-series/3191"},{"id":3147,"title":"Рэл","kp_id":"1132790","imdb_id":"tt7677740","world_art_id":null,"type":"serial","add":"2018-09-10 08:04:24","orig_title":"Rel","year":"2018-09-09","translations":["Профессиональный (многоголосый закадровый) (BaibaKo)","Профессиональный (многоголосый закадровый) (NewStudio)","Профессиональный (многоголосый закадровый) (IdeaFilm)"],"seasons_count":1,"episodes_count":12,"episodes":12,"update":"2019-01-20 08:08:25","iframe_src":"//2413.svetacdn.in/IAF0wWTdNYZm/tv-series/3147"},{"id":3346,"title":"Хэллоуин 3: Сезон ведьм","kp_id":"24956","imdb_id":"tt0085636","world_art_id":null,"type":"movie","add":"2016-06-23 14:23:41","orig_title":"Halloween III: Season of the Witch","year":"1982-10-22","translations":["Любительский (одноголосый закадровый)","Авторский (одноголосый закадровый) (Гаврилов Андрей)","Авторский (одноголосый закадровый) (Карцев Пётр)","[EN] Original (English)","Любительский (одноголосый закадровый)","Профессиональный (двухголосый закадровый) (НТВ)","Профессиональный (многоголосый закадровый) (Кипарис)"],"quality":"hdtv","translation":"Любительский (одноголосый закадровый)","update":"2021-07-09 13:30:32","iframe_src":"//2413.svetacdn.in/IAF0wWTdNYZm/movie/3346"},{"id":134,"title":"Лузеры","kp_id":"196748","imdb_id":"tt0480255","world_art_id":null,"type":"movie","add":"2016-02-16 15:49:25","orig_title":"The Losers","year":"2010-04-22","translations":["Полное дублирование","Авторский (одноголосый закадровый) (Немахов Юрий)","Авторский (одноголосый закадровый) (Яроцкий Михаил | Kyberpunk)","Полное дублирование","[EN] Original (English)","Любительский (одноголосый закадровый)  (zamez | Замез Вячеслав)","Любительский (двухголосый закадровый) (Электричка)"],"quality":"bd","translation":"Полное дублирование","update":"2021-07-09 12:37:11","iframe_src":"//2413.svetacdn.in/IAF0wWTdNYZm/movie/134"}],"current_page":484,"first_page_url":"https://videocdn.tv/api/short?limit=100&api_token=6Onb1W1alEUrBcKJZD3GoKBbWyAl2uG2&cache3484=3484&page=1","from":48301,"last_page":711,"last_page_url":"https://videocdn.tv/api/short?limit=100&api_token=6Onb1W1alEUrBcKJZD3GoKBbWyAl2uG2&cache3484=3484&page=711","next_page_url":"https://videocdn.tv/api/short?limit=100&api_token=6Onb1W1alEUrBcKJZD3GoKBbWyAl2uG2&cache3484=3484&page=485","path":"https://videocdn.tv/api/short","per_page":100,"prev_page_url":"https://videocdn.tv/api/short?limit=100&api_token=6Onb1W1alEUrBcKJZD3GoKBbWyAl2uG2&cache3484=3484&page=483","to":48340,"total":71091}