{"result":true,"data":[{"id":50063,"title":"Операция чистые руки. 2000 лет и полгода назад","kp_id":"31991","imdb_id":"tt0111049","world_art_id":null,"type":"movie","add":"2021-05-03 06:03:39","orig_title":"S.P.Q.R. 2000 e 1/2 anni fa","year":"1994-12-16","translations":["Авторский (одноголосый закадровый) (Козлов Сергей)"],"quality":"dvdrip","translation":"Авторский (одноголосый закадровый) (Козлов Сергей)","update":"2021-05-03 06:39:53","iframe_src":"//7741.svetacdn.in/71tsRs29n5tZ/movie/50063"},{"id":50062,"title":"За кулисами кино","kp_id":"2139","imdb_id":"tt0006414","world_art_id":null,"type":"movie","add":"2021-05-03 05:51:24","orig_title":"Behind the Screen","year":"1916-11-13","translations":["[EN] Original (English)"],"quality":"bd","translation":"[EN] Original (English)","update":"2021-05-03 06:45:00","iframe_src":"//7741.svetacdn.in/71tsRs29n5tZ/movie/50062"},{"id":50061,"title":"Контролер универмага","kp_id":"2146","imdb_id":"tt0006689","world_art_id":null,"type":"movie","add":"2021-05-03 05:50:18","orig_title":"The Floorwalker","year":"1916-05-15","translations":["[EN] Original (English)"],"quality":"bd","translation":"[EN] Original (English)","update":"2021-05-03 06:46:08","iframe_src":"//7741.svetacdn.in/71tsRs29n5tZ/movie/50061"},{"id":50059,"title":"Бродяга","kp_id":"2158","imdb_id":"tt0006177","world_art_id":null,"type":"movie","add":"2021-05-03 05:24:50","orig_title":"The Tramp","year":"1915-04-12","translations":["[EN] Original (English)"],"quality":"bd","translation":"[EN] Original (English)","update":"2021-05-03 06:47:15","iframe_src":"//7741.svetacdn.in/71tsRs29n5tZ/movie/50059"},{"id":50058,"title":"Ночь напролет","kp_id":"2162","imdb_id":"tt0005810","world_art_id":null,"type":"movie","add":"2021-05-03 05:21:41","orig_title":"A Night Out","year":"1915-02-15","translations":["[EN] Original (English)"],"quality":"bd","translation":"[EN] Original (English)","update":"2021-05-03 06:48:43","iframe_src":"//7741.svetacdn.in/71tsRs29n5tZ/movie/50058"},{"id":50056,"title":"Чемпион","kp_id":"2161","imdb_id":"tt0005074","world_art_id":null,"type":"movie","add":"2021-05-02 15:10:47","orig_title":"The Champion","year":"1915-03-11","translations":["[EN] Original (English)"],"quality":"bd","translation":"[EN] Original (English)","update":"2021-05-03 06:50:48","iframe_src":"//7741.svetacdn.in/71tsRs29n5tZ/movie/50056"},{"id":50054,"title":"Пожарный","kp_id":"2145","imdb_id":"tt0006684","world_art_id":null,"type":"movie","add":"2021-05-02 15:04:44","orig_title":"The Fireman","year":"1916-06-12","translations":["[EN] Original (English)"],"quality":"bd","translation":"[EN] Original (English)","update":"2021-05-03 06:49:36","iframe_src":"//7741.svetacdn.in/71tsRs29n5tZ/movie/50054"},{"id":50040,"title":"Везет как утопленнику","kp_id":"261718","imdb_id":"tt0423877","world_art_id":null,"type":"movie","add":"2021-05-02 06:48:52","orig_title":"Boudu","year":"2005-03-09","translations":["Полное дублирование"],"quality":"dvdrip","translation":"Полное дублирование","update":"2021-05-02 07:54:41","iframe_src":"//7741.svetacdn.in/71tsRs29n5tZ/movie/50040"},{"id":50034,"title":"Гонка в никуда","kp_id":null,"imdb_id":"tt1437364","world_art_id":null,"type":"movie","add":"2021-05-01 09:58:41","orig_title":"Race to Nowhere","year":"2010-09-23","translations":["Профессиональный (многоголосый закадровый) (HDrezka Studio)"],"quality":"webdl","translation":"Профессиональный (многоголосый закадровый) (HDrezka Studio)","update":"2021-05-01 12:24:40","iframe_src":"//7741.svetacdn.in/71tsRs29n5tZ/movie/50034"},{"id":50033,"title":"7 заповедей кунг-фу","kp_id":"249871","imdb_id":"tt0079883","world_art_id":null,"type":"movie","add":"2021-05-01 09:12:40","orig_title":"Gong fu qi jie","year":"1979-01-01","translations":["Авторский (одноголосый закадровый) (Кузнецов Сергей)"],"quality":"vhs","translation":"Авторский (одноголосый закадровый) (Кузнецов Сергей)","update":"2021-05-01 10:53:57","iframe_src":"//7741.svetacdn.in/71tsRs29n5tZ/movie/50033"},{"id":50028,"title":"Позывной «Карим»","kp_id":"1304244","imdb_id":"tt10937496","world_art_id":null,"type":"movie","add":"2021-05-01 06:18:04","orig_title":"Karim","year":"2021-04-01","translations":["Профессиональный (многоголосый закадровый) (iTunes)"],"quality":"webdl","translation":"Профессиональный (многоголосый закадровый) (iTunes)","update":"2021-05-01 12:05:05","iframe_src":"//7741.svetacdn.in/71tsRs29n5tZ/movie/50028"},{"id":49863,"title":"Ганзель, Гретель и Агентство Магии","kp_id":"4312553","imdb_id":"tt13932162","world_art_id":null,"type":"movie","add":"2021-04-24 16:18:51","orig_title":"Secret Magic Control Agency","year":"2021-03-25","translations":["Полное дублирование","Полное дублирование (Невафильм | Нева-1)"],"quality":"webdl","translation":"Полное дублирование","update":"2021-05-01 12:14:12","iframe_src":"//7741.svetacdn.in/71tsRs29n5tZ/movie/49863"},{"id":48036,"title":"Том и Джерри","kp_id":"468562","imdb_id":"tt1361336","world_art_id":null,"type":"movie","add":"2021-02-18 20:25:19","orig_title":"Tom and Jerry","year":"2021-02-11","translations":["[EN] Original (English)","Полное дублирование","Авторский (одноголосый закадровый) (Чадов Михаил)"],"quality":"webdl","translation":"[EN] Original (English)","update":"2021-05-02 08:05:37","iframe_src":"//7741.svetacdn.in/71tsRs29n5tZ/movie/48036"},{"id":47229,"title":"Город уснул","kp_id":"1272225","imdb_id":"tt11468896","world_art_id":null,"type":"movie","add":"2021-01-19 16:28:22","orig_title":"Gorod usnul","year":"2020-09-16","translations":["Оригинальная дорожка","Оригинальная дорожка"],"quality":"webdl","translation":"Оригинальная дорожка","update":"2021-05-01 19:01:05","iframe_src":"//7741.svetacdn.in/71tsRs29n5tZ/movie/47229"},{"id":45947,"title":"Полное погружение","kp_id":"1390625","imdb_id":null,"world_art_id":null,"type":"movie","add":"2020-12-09 15:20:11","orig_title":"Polnoye pogrugeniye","year":"2020-12-03","translations":["Профессиональный (многоголосый закадровый) (HDrezka Studio)","Оригинальная дорожка"],"quality":"ts","translation":"Профессиональный (многоголосый закадровый) (HDrezka Studio)","update":"2021-05-01 15:15:57","iframe_src":"//7741.svetacdn.in/71tsRs29n5tZ/movie/45947"},{"id":44929,"title":"Дино Дана","kp_id":"1384181","imdb_id":"tt12215286","world_art_id":null,"type":"movie","add":"2020-11-01 09:45:51","orig_title":"Dino Dana: The Movie","year":"2020-09-04","translations":["Полное дублирование (iTunes)"],"quality":"webdl","translation":"Полное дублирование (iTunes)","update":"2021-05-02 08:06:56","iframe_src":"//7741.svetacdn.in/71tsRs29n5tZ/movie/44929"},{"id":38078,"title":"Богини любви","kp_id":"974","imdb_id":"tt0059402","world_art_id":null,"type":"movie","add":"2020-03-16 20:57:38","orig_title":"The Love Goddesses","year":"1965-03-03","translations":["[EN] Original (English)","Любительский (одноголосый закадровый) (FilmPlay)"],"quality":"dvdrip","translation":"[EN] Original (English)","update":"2021-05-01 15:01:18","iframe_src":"//7741.svetacdn.in/71tsRs29n5tZ/movie/38078"},{"id":35482,"title":"Мушкетеры. Неизвестная миссия","kp_id":"1144515","imdb_id":"tt8418652","world_art_id":null,"type":"movie","add":"2020-01-26 17:21:15","orig_title":"Moschettieri del re - La penultima missione","year":"2018-12-27","translations":["Любительский (многоголосый закадровый) (AlphaProject)","Полное дублирование (IVI)"],"quality":"bd","translation":"Любительский (многоголосый закадровый) (AlphaProject)","update":"2021-05-01 12:10:52","iframe_src":"//7741.svetacdn.in/71tsRs29n5tZ/movie/35482"},{"id":33186,"title":"Радиовспышка","kp_id":"1065555","imdb_id":"tt7288408","world_art_id":null,"type":"movie","add":"2019-11-17 15:22:57","orig_title":"Radioflash","year":"2019-11-15","translations":["Любительский (многоголосый закадровый) (AlphaProject)","Любительский (одноголосый закадровый)  (zamez | Замез Вячеслав)","[EN] Original (English)","Полное дублирование (iTunes)"],"quality":"webdl","translation":"Любительский (многоголосый закадровый) (AlphaProject)","update":"2021-05-01 12:01:22","iframe_src":"//7741.svetacdn.in/71tsRs29n5tZ/movie/33186"},{"id":21476,"title":"Мой парень — пророк","kp_id":"1003660","imdb_id":"tt6054710","world_art_id":null,"type":"movie","add":"2019-01-13 20:32:24","orig_title":"Anthem of a Teenage Prophet","year":"2018-10-06","translations":["Любительский (многоголосый закадровый) (Синема УС)","Профессиональный (многоголосый закадровый) (HDrezka Studio)","Профессиональный (многоголосый закадровый) (HDrezka Studio)","Полное дублирование (IVI)"],"quality":"webdl","translation":"Любительский (многоголосый закадровый) (Синема УС)","update":"2021-05-02 08:09:44","iframe_src":"//7741.svetacdn.in/71tsRs29n5tZ/movie/21476"},{"id":1274,"title":"Красные браслеты","kp_id":"574644","imdb_id":"tt1698292","world_art_id":null,"type":"serial","add":"2017-05-31 11:28:29","orig_title":"Polseres vermelles","year":"2011-01-24","translations":["Любительский (многоголосый закадровый) (Dream Records)"],"seasons_count":2,"episodes_count":28,"episodes":15,"update":"2017-06-02 07:50:34","iframe_src":"//7741.svetacdn.in/71tsRs29n5tZ/tv-series/1274"},{"id":1273,"title":"Босс и я","kp_id":"906890","imdb_id":"tt6186406","world_art_id":null,"type":"serial","add":"2017-05-30 12:04:40","orig_title":"Shan Shan Lai Le","year":"2014-01-01","translations":["Любительский (одноголосый закадровый)"],"seasons_count":1,"episodes_count":33,"episodes":33,"update":"2017-05-31 06:33:15","iframe_src":"//7741.svetacdn.in/71tsRs29n5tZ/tv-series/1273"},{"id":1268,"title":"Призраки дома Хатэвэй","kp_id":"731926","imdb_id":"tt2535732","world_art_id":null,"type":"serial","add":"2017-05-28 07:05:19","orig_title":"The Haunted Hathaways","year":"2013-07-13","translations":["Полное дублирование","Профессиональный (многоголосый закадровый) (HDrezka Studio)"],"seasons_count":2,"episodes_count":31,"episodes":5,"update":"2017-05-29 10:09:12","iframe_src":"//7741.svetacdn.in/71tsRs29n5tZ/tv-series/1268"},{"id":1265,"title":"Капитанша","kp_id":"1044988","imdb_id":null,"world_art_id":null,"type":"serial","add":"2017-05-26 09:30:42","orig_title":"Капитанша","year":"2017-05-17","translations":["Оригинальная дорожка"],"seasons_count":1,"episodes_count":16,"episodes":16,"update":"2017-05-30 13:05:46","iframe_src":"//7741.svetacdn.in/71tsRs29n5tZ/tv-series/1265"},{"id":1262,"title":"Цветочки после ягодок","kp_id":"401468","imdb_id":"tt0489597","world_art_id":null,"type":"serial","add":"2017-05-23 12:29:24","orig_title":"Hana Yori Dango","year":"2005-10-21","translations":["Любительский (двухголосый закадровый)"],"seasons_count":1,"episodes_count":9,"episodes":9,"update":"2017-05-24 13:33:06","iframe_src":"//7741.svetacdn.in/71tsRs29n5tZ/tv-series/1262"},{"id":1261,"title":"Восьмидесятые","kp_id":"592383","imdb_id":"tt3765628","world_art_id":null,"type":"serial","add":"2017-05-23 10:52:44","orig_title":"Vosmidesyatye","year":"2012-01-30","translations":["Оригинальная дорожка"],"seasons_count":6,"episodes_count":105,"episodes":13,"update":"2017-05-31 13:09:58","iframe_src":"//7741.svetacdn.in/71tsRs29n5tZ/tv-series/1261"},{"id":1260,"title":"Зои Харт из южного штата","kp_id":"584941","imdb_id":"tt1832979","world_art_id":null,"type":"serial","add":"2017-05-21 06:39:48","orig_title":"Hart of Dixie","year":"2011-09-26","translations":["Любительский (многоголосый закадровый) (To4ka)"],"seasons_count":3,"episodes_count":59,"episodes":15,"update":"2017-05-30 11:08:13","iframe_src":"//7741.svetacdn.in/71tsRs29n5tZ/tv-series/1260"},{"id":1257,"title":"Дневник Анны Франк","kp_id":"446095","imdb_id":"tt1127205","world_art_id":null,"type":"serial","add":"2017-05-18 14:37:33","orig_title":"The Diary of Anne Frank","year":"2009-01-05","translations":["Профессиональный (многоголосый закадровый)"],"seasons_count":1,"episodes_count":5,"episodes":5,"update":"2017-05-19 12:30:30","iframe_src":"//7741.svetacdn.in/71tsRs29n5tZ/tv-series/1257"},{"id":1256,"title":"Синдром Феникса","kp_id":"478886","imdb_id":"tt4417436","world_art_id":null,"type":"serial","add":"2017-05-18 14:32:38","orig_title":"Sindrom Feniksa","year":"2009-10-19","translations":["Оригинальная дорожка"],"seasons_count":1,"episodes_count":4,"episodes":4,"update":"2017-05-19 12:25:01","iframe_src":"//7741.svetacdn.in/71tsRs29n5tZ/tv-series/1256"},{"id":1255,"title":"Десятое королевство","kp_id":"77217","imdb_id":"tt0207275","world_art_id":null,"type":"serial","add":"2017-05-18 14:21:57","orig_title":"The 10th Kingdom","year":"2000-02-27","translations":["Профессиональный (многоголосый закадровый) (CP Digital)"],"seasons_count":1,"episodes_count":5,"episodes":5,"update":"2017-05-19 12:21:32","iframe_src":"//7741.svetacdn.in/71tsRs29n5tZ/tv-series/1255"},{"id":1254,"title":"Влюбись в меня","kp_id":"840169","imdb_id":"tt6139710","world_art_id":null,"type":"serial","add":"2017-05-18 14:11:26","orig_title":"Fall in Love with Me","year":"2014-04-06","translations":["Любительский (одноголосый закадровый)"],"seasons_count":1,"episodes_count":20,"episodes":20,"update":"2017-05-19 12:15:01","iframe_src":"//7741.svetacdn.in/71tsRs29n5tZ/tv-series/1254"},{"id":1251,"title":"Доярка из Хацапетовки","kp_id":"405519","imdb_id":"tt4505274","world_art_id":null,"type":"serial","add":"2017-05-18 08:55:45","orig_title":"Doyarka iz Khatsapetrovki","year":"2009-04-09","translations":["Оригинальная дорожка"],"seasons_count":1,"episodes_count":2,"episodes":2,"update":"2017-05-19 12:20:08","iframe_src":"//7741.svetacdn.in/71tsRs29n5tZ/tv-series/1251"},{"id":1250,"title":"Наследница","kp_id":"580448","imdb_id":"tt3544942","world_art_id":null,"type":"serial","add":"2017-05-17 11:41:33","orig_title":"Naslednitsa","year":"2011-02-12","translations":["Оригинальная дорожка"],"seasons_count":1,"episodes_count":4,"episodes":4,"update":"2017-05-18 06:25:56","iframe_src":"//7741.svetacdn.in/71tsRs29n5tZ/tv-series/1250"},{"id":1249,"title":"Женские мечты о дальних странах","kp_id":"487245","imdb_id":"tt4195002","world_art_id":null,"type":"serial","add":"2017-05-17 11:38:31","orig_title":"Zhenskie mechty o dalnikh stranakh","year":"2011-06-16","translations":["Оригинальная дорожка"],"seasons_count":1,"episodes_count":12,"episodes":12,"update":"2017-05-18 11:05:53","iframe_src":"//7741.svetacdn.in/71tsRs29n5tZ/tv-series/1249"},{"id":1248,"title":"Заяц, жаренный по-берлински","kp_id":"567121","imdb_id":"tt4445870","world_art_id":null,"type":"serial","add":"2017-05-17 11:34:48","orig_title":"Zayats, zharennyy po-berlinski","year":"2011-07-07","translations":["Оригинальная дорожка"],"seasons_count":1,"episodes_count":10,"episodes":10,"update":"2017-05-18 11:21:16","iframe_src":"//7741.svetacdn.in/71tsRs29n5tZ/tv-series/1248"},{"id":1245,"title":"Драконы и всадники Олуха","kp_id":"707366","imdb_id":"tt2325846","world_art_id":null,"type":"serial","add":"2017-05-14 10:23:49","orig_title":"Dragons: Riders of Berk","year":"2013-03-01","translations":["Полное дублирование"],"seasons_count":2,"episodes_count":40,"episodes":20,"update":"2017-05-18 08:31:30","iframe_src":"//7741.svetacdn.in/71tsRs29n5tZ/tv-series/1245"},{"id":1243,"title":"Громолёты, вперёд!","kp_id":"818761","imdb_id":"tt3138604","world_art_id":null,"type":"serial","add":"2017-05-12 09:40:15","orig_title":"Thunderbirds Are Go","year":"2015-04-04","translations":["Полное дублирование"],"seasons_count":1,"episodes_count":26,"episodes":26,"update":"2017-05-31 10:55:43","iframe_src":"//7741.svetacdn.in/71tsRs29n5tZ/tv-series/1243"},{"id":1222,"title":"Слово женщине","kp_id":"472357","imdb_id":"tt4222744","world_art_id":null,"type":"serial","add":"2017-04-27 06:22:53","orig_title":"Slovo Zhenshine","year":"2010-01-18","translations":["Оригинальная дорожка"],"seasons_count":1,"episodes_count":253,"episodes":253,"update":"2017-05-25 13:59:43","iframe_src":"//7741.svetacdn.in/71tsRs29n5tZ/tv-series/1222"},{"id":1188,"title":"Огнестрел","kp_id":"977497","imdb_id":"tt5093452","world_art_id":null,"type":"serial","add":"2017-04-16 16:44:11","orig_title":"Shots Fired","year":"2017-03-22","translations":["Профессиональный (многоголосый закадровый) (IdeaFilm)"],"seasons_count":1,"episodes_count":9,"episodes":9,"update":"2017-05-22 06:37:49","iframe_src":"//7741.svetacdn.in/71tsRs29n5tZ/tv-series/1188"},{"id":990,"title":"Тренировочный день","kp_id":"960301","imdb_id":"tt4946972","world_art_id":null,"type":"serial","add":"2017-02-09 12:55:45","orig_title":"Training Day","year":"2017-02-02","translations":["Профессиональный (многоголосый закадровый) (Jaskier)"],"seasons_count":1,"episodes_count":13,"episodes":13,"update":"2017-05-26 11:38:16","iframe_src":"//7741.svetacdn.in/71tsRs29n5tZ/tv-series/990"}],"current_page":572,"first_page_url":"https://videocdn.tv/api/short?limit=100&api_token=EnbO9h8pv1VyjbCJhg0WM9nG259n7mtz&cache3572=3572&page=1","from":57101,"last_page":708,"last_page_url":"https://videocdn.tv/api/short?limit=100&api_token=EnbO9h8pv1VyjbCJhg0WM9nG259n7mtz&cache3572=3572&page=708","next_page_url":"https://videocdn.tv/api/short?limit=100&api_token=EnbO9h8pv1VyjbCJhg0WM9nG259n7mtz&cache3572=3572&page=573","path":"https://videocdn.tv/api/short","per_page":100,"prev_page_url":"https://videocdn.tv/api/short?limit=100&api_token=EnbO9h8pv1VyjbCJhg0WM9nG259n7mtz&cache3572=3572&page=571","to":57140,"total":70737}