{"result":true,"data":[{"id":45305,"title":"Beers of Joy","kp_id":"1243140","imdb_id":"tt7661396","world_art_id":null,"type":"movie","add":"2020-11-14 17:26:59","orig_title":"Beers of Joy","year":"2019-03-01","translations":["Original (English)"],"quality":"webdl","translation":"Original (English)","update":"2020-11-15 07:29:00","iframe_src":"//7720.svetacdn.in/IAF0wWTdNYZm/movie/45305"},{"id":45302,"title":"Шутки в сторону","kp_id":"1245990","imdb_id":"tt8906524","world_art_id":null,"type":"movie","add":"2020-11-14 10:31:08","orig_title":"All Joking Aside","year":"2020-08-14","translations":["Любительский (многоголосый закадровый) (@MUZOBOZ@)"],"quality":"webdl","translation":"Любительский (многоголосый закадровый) (@MUZOBOZ@)","update":"2020-11-14 15:16:18","iframe_src":"//7720.svetacdn.in/IAF0wWTdNYZm/movie/45302"},{"id":45300,"title":"Вся жизнь впереди","kp_id":"1284542","imdb_id":"tt10627584","world_art_id":null,"type":"movie","add":"2020-11-13 23:46:51","orig_title":"La vita davanti a sé","year":"2020-11-06","translations":["Любительский (многоголосый закадровый) (@MUZOBOZ@)"],"quality":"webdl","translation":"Любительский (многоголосый закадровый) (@MUZOBOZ@)","update":"2020-11-14 15:15:45","iframe_src":"//7720.svetacdn.in/IAF0wWTdNYZm/movie/45300"},{"id":45276,"title":"Готовы на всё. Экстерминатор","kp_id":"1063728","imdb_id":"tt6947528","world_art_id":null,"type":"movie","add":"2020-11-13 18:36:46","orig_title":"Gotowi na wszystko. Exterminator","year":"2018-01-04","translations":["Любительский (многоголосый закадровый) (Синема УС)"],"quality":"webdl","translation":"Любительский (многоголосый закадровый) (Синема УС)","update":"2020-11-14 12:16:58","iframe_src":"//7720.svetacdn.in/IAF0wWTdNYZm/movie/45276"},{"id":45275,"title":"Моя возлюбленная незнакомка","kp_id":"1298931","imdb_id":"tt10873326","world_art_id":null,"type":"movie","add":"2020-11-13 18:34:52","orig_title":"Nguoi La Oi","year":"2019-09-09","translations":["Любительский (многоголосый закадровый) (Синема УС)"],"quality":"webdl","translation":"Любительский (многоголосый закадровый) (Синема УС)","update":"2020-11-14 12:17:22","iframe_src":"//7720.svetacdn.in/IAF0wWTdNYZm/movie/45275"},{"id":45273,"title":"Сила привычки","kp_id":"1231821","imdb_id":"tt9624686","world_art_id":null,"type":"movie","add":"2020-11-13 18:30:08","orig_title":"Tottumiskysymys","year":"2019-09-13","translations":["Любительский (многоголосый закадровый) (Синема УС)"],"quality":"hdtv","translation":"Любительский (многоголосый закадровый) (Синема УС)","update":"2020-11-14 12:17:47","iframe_src":"//7720.svetacdn.in/IAF0wWTdNYZm/movie/45273"},{"id":45270,"title":"История Марии","kp_id":"1195910","imdb_id":"tt7742072","world_art_id":null,"type":"movie","add":"2020-11-13 18:22:07","orig_title":"Maria's Tale","year":"2018-11-12","translations":["Любительский (многоголосый закадровый) (Синема УС)"],"quality":"webdl","translation":"Любительский (многоголосый закадровый) (Синема УС)","update":"2020-11-14 12:18:13","iframe_src":"//7720.svetacdn.in/IAF0wWTdNYZm/movie/45270"},{"id":45267,"title":"Дева","kp_id":"1185623","imdb_id":"tt8898164","world_art_id":null,"type":"movie","add":"2020-11-13 18:17:23","orig_title":"Deva","year":"2018-08-31","translations":["Любительский (многоголосый закадровый) (AlphaProject)"],"quality":"webdl","translation":"Любительский (многоголосый закадровый) (AlphaProject)","update":"2020-11-14 12:18:43","iframe_src":"//7720.svetacdn.in/IAF0wWTdNYZm/movie/45267"},{"id":45266,"title":"Приговорённая к смерти","kp_id":"1205082","imdb_id":"tt9177626","world_art_id":null,"type":"movie","add":"2020-11-13 18:15:56","orig_title":"Left for Dead","year":"2018-10-19","translations":["Любительский (многоголосый закадровый) (Синема УС)"],"quality":"webdl","translation":"Любительский (многоголосый закадровый) (Синема УС)","update":"2020-11-14 12:19:06","iframe_src":"//7720.svetacdn.in/IAF0wWTdNYZm/movie/45266"},{"id":45264,"title":"Позорные фотографии из семейного альбома, или разрушенная печень и разбитое сердце","kp_id":"1164863","imdb_id":"tt8512676","world_art_id":null,"type":"movie","add":"2020-11-13 18:10:35","orig_title":"Krepujace zdjecia z rodzinnego albumu, czyli zniszczona watroba i zlamane serce","year":"2018-01-01","translations":["Любительский (многоголосый закадровый) (Синема УС)"],"quality":"hdtv","translation":"Любительский (многоголосый закадровый) (Синема УС)","update":"2020-11-14 12:19:30","iframe_src":"//7720.svetacdn.in/IAF0wWTdNYZm/movie/45264"},{"id":45085,"title":"Жилет","kp_id":null,"imdb_id":"tt9419976","world_art_id":null,"type":"movie","add":"2020-11-07 14:26:27","orig_title":"Triggered","year":"2020-08-28","translations":["Любительский (многоголосый закадровый) (@MUZOBOZ@)","Original (English)"],"quality":"webdl","translation":"Любительский (многоголосый закадровый) (@MUZOBOZ@)","update":"2020-11-15 17:17:08","iframe_src":"//7720.svetacdn.in/IAF0wWTdNYZm/movie/45085"},{"id":44001,"title":"Большие карие глаза","kp_id":"1022","imdb_id":"tt0027357","world_art_id":null,"type":"movie","add":"2020-09-30 15:32:07","orig_title":"Big Brown Eyes","year":"1936-04-03","translations":["Профессиональный (одноголосый закадровый)","Original (English)"],"quality":"bd","translation":"Профессиональный (одноголосый закадровый)","update":"2020-11-16 13:23:49","iframe_src":"//7720.svetacdn.in/IAF0wWTdNYZm/movie/44001"},{"id":43962,"title":"Сладкая судьба","kp_id":"568065","imdb_id":"tt1467088","world_art_id":null,"type":"movie","add":"2020-09-29 15:36:00","orig_title":"Sweet Karma","year":"2009-07-11","translations":["Любительский (одноголосый закадровый) (den904)","Original (English)"],"quality":"bd","translation":"Любительский (одноголосый закадровый) (den904)","update":"2020-11-16 13:27:09","iframe_src":"//7720.svetacdn.in/IAF0wWTdNYZm/movie/43962"},{"id":43883,"title":"Красный каньон","kp_id":"3267","imdb_id":"tt0041787","world_art_id":null,"type":"movie","add":"2020-09-27 06:37:41","orig_title":"Red Canyon","year":"1949-04-01","translations":["Любительский (одноголосый закадровый) (Медведев Юрий)","Original (English)"],"quality":"bd","translation":"Любительский (одноголосый закадровый) (Медведев Юрий)","update":"2020-11-16 13:25:45","iframe_src":"//7720.svetacdn.in/IAF0wWTdNYZm/movie/43883"},{"id":43810,"title":"Легенда о Пяти","kp_id":"1200087","imdb_id":"tt9010360","world_art_id":null,"type":"movie","add":"2020-09-23 22:23:16","orig_title":"The Legend of the Five","year":"2020-06-25","translations":["Любительский (многоголосый закадровый) (@MUZOBOZ@)","Original (English)"],"quality":"webdl","translation":"Любительский (многоголосый закадровый) (@MUZOBOZ@)","update":"2020-11-16 10:00:13","iframe_src":"//7720.svetacdn.in/IAF0wWTdNYZm/movie/43810"},{"id":37701,"title":"Грекзит","kp_id":"1092651","imdb_id":"tt7493370","world_art_id":null,"type":"movie","add":"2020-03-10 13:49:40","orig_title":"Adults in the Room","year":"2019-08-31","translations":["Любительский (многоголосый закадровый) (Синема УС)","Профессиональный (многоголосый закадровый) (iTunes)"],"quality":"webdl","translation":"Любительский (многоголосый закадровый) (Синема УС)","update":"2020-11-14 21:38:12","iframe_src":"//7720.svetacdn.in/IAF0wWTdNYZm/movie/37701"},{"id":23299,"title":"Экстремальная работа","kp_id":"1108600","imdb_id":"tt9541602","world_art_id":null,"type":"movie","add":"2019-03-20 11:19:05","orig_title":"Geukhanjikeop","year":"2019-01-23","translations":["Любительский (многоголосый закадровый) (Колобок)","Любительский (многоголосый закадровый) (Синема УС)","Любительский (многоголосый закадровый) (Mallorn Studio)","Профессиональный (многоголосый закадровый)","Профессиональный (многоголосый закадровый) (iTunes)"],"quality":"webdl","translation":"Любительский (многоголосый закадровый) (Колобок)","update":"2020-11-16 10:41:39","iframe_src":"//7720.svetacdn.in/IAF0wWTdNYZm/movie/23299"},{"id":17827,"title":"Гномы Драконьей горы","kp_id":"1016644","imdb_id":"tt4836580","world_art_id":null,"type":"movie","add":"2018-07-22 15:48:45","orig_title":"The Dwarves of Demrel","year":"2018-05-14","translations":["Любительский (многоголосый закадровый) (Синема УС)","Любительский (двухголосый закадровый) (HiWayGrope)","Профессиональный (многоголосый закадровый) (HDrezka Studio)","Профессиональный (многоголосый закадровый) (HDrezka Studio)"],"quality":"dvdrip","translation":"Любительский (многоголосый закадровый) (Синема УС)","update":"2020-11-15 15:54:15","iframe_src":"//7720.svetacdn.in/IAF0wWTdNYZm/movie/17827"},{"id":1788,"title":"Все любят Рэймонда","kp_id":"277601","imdb_id":"tt0115167","world_art_id":null,"type":"serial","add":"2017-11-30 09:58:04","orig_title":"Everybody Loves Raymond","year":"1996-09-13","translations":["Профессиональный (многоголосый закадровый) (SET)","Профессиональный (двухголосый закадровый)"],"seasons_count":6,"episodes_count":146,"episodes":25,"update":"2017-12-02 20:50:11","iframe_src":"//7720.svetacdn.in/IAF0wWTdNYZm/tv-series/1788"},{"id":1786,"title":"Город гангстеров","kp_id":"756148","imdb_id":"tt2176609","world_art_id":null,"type":"serial","add":"2017-11-30 07:47:59","orig_title":"Mob City","year":"2013-12-04","translations":["Профессиональный (многоголосый закадровый) (LostFilm)"],"seasons_count":1,"episodes_count":6,"episodes":6,"update":"2017-11-30 14:35:36","iframe_src":"//7720.svetacdn.in/IAF0wWTdNYZm/tv-series/1786"},{"id":1785,"title":"Бальзаковский возраст, или Все мужики сво...","kp_id":"94919","imdb_id":"tt0405519","world_art_id":null,"type":"serial","add":"2017-11-30 07:44:57","orig_title":"Balzakovskiy vozrast, ili Vse muzhiki svo..","year":"2004-05-10","translations":["Оригинальная дорожка"],"seasons_count":3,"episodes_count":32,"episodes":8,"update":"2017-11-30 12:35:28","iframe_src":"//7720.svetacdn.in/IAF0wWTdNYZm/tv-series/1785"},{"id":1783,"title":"Всё тип-топ, или Жизнь Зака и Коди","kp_id":"323192","imdb_id":"tt0426371","world_art_id":null,"type":"serial","add":"2017-11-29 19:49:22","orig_title":"The Suite Life of Zack and Cody","year":"2005-03-18","translations":["Полное дублирование"],"seasons_count":3,"episodes_count":87,"episodes":22,"update":"2017-12-01 07:13:45","iframe_src":"//7720.svetacdn.in/IAF0wWTdNYZm/tv-series/1783"},{"id":1782,"title":"Культ","kp_id":"665226","imdb_id":"tt2193053","world_art_id":null,"type":"serial","add":"2017-11-29 05:41:39","orig_title":"Cult","year":"2013-02-12","translations":["Профессиональный (многоголосый закадровый) (LostFilm)"],"seasons_count":1,"episodes_count":13,"episodes":13,"update":"2017-11-29 12:02:23","iframe_src":"//7720.svetacdn.in/IAF0wWTdNYZm/tv-series/1782"},{"id":1781,"title":"Папарацци","kp_id":"1008804","imdb_id":null,"world_art_id":null,"type":"serial","add":"2017-11-29 05:37:07","orig_title":"Папарацци","year":"2016-12-12","translations":["Оригинальная дорожка"],"seasons_count":1,"episodes_count":4,"episodes":4,"update":"2017-11-29 11:41:10","iframe_src":"//7720.svetacdn.in/IAF0wWTdNYZm/tv-series/1781"},{"id":1780,"title":"Вызов","kp_id":"673387","imdb_id":"tt2189221","world_art_id":null,"type":"serial","add":"2017-11-28 10:23:01","orig_title":"Defiance","year":"2013-04-15","translations":["Профессиональный (многоголосый закадровый) (LostFilm)"],"seasons_count":3,"episodes_count":37,"episodes":12,"update":"2017-12-01 11:27:38","iframe_src":"//7720.svetacdn.in/IAF0wWTdNYZm/tv-series/1780"},{"id":1779,"title":"Социопат","kp_id":"757563","imdb_id":"tt2355844","world_art_id":null,"type":"serial","add":"2017-11-28 10:07:24","orig_title":"Twisted","year":"2013-06-11","translations":["Профессиональный (многоголосый закадровый) (SET)"],"seasons_count":1,"episodes_count":19,"episodes":19,"update":"2017-11-30 07:26:28","iframe_src":"//7720.svetacdn.in/IAF0wWTdNYZm/tv-series/1779"},{"id":1778,"title":"Ей это нужно позарез","kp_id":"1046232","imdb_id":"tt3713588","world_art_id":null,"type":"serial","add":"2017-11-28 09:43:41","orig_title":"She's Gotta Have It","year":"2017-11-23","translations":["Профессиональный (многоголосый закадровый) (NewStudio)"],"seasons_count":1,"episodes_count":10,"episodes":10,"update":"2017-12-01 07:12:55","iframe_src":"//7720.svetacdn.in/IAF0wWTdNYZm/tv-series/1778"},{"id":1777,"title":"Красные браслеты","kp_id":"891366","imdb_id":"tt6647236","world_art_id":null,"type":"serial","add":"2017-11-28 09:15:10","orig_title":"Krasnye braslety","year":"2017-11-25","translations":["Оригинальная дорожка"],"seasons_count":1,"episodes_count":12,"episodes":12,"update":"2017-11-30 10:37:28","iframe_src":"//7720.svetacdn.in/IAF0wWTdNYZm/tv-series/1777"},{"id":1775,"title":"Небо и земля","kp_id":"79570","imdb_id":"tt0406445","world_art_id":null,"type":"serial","add":"2017-11-27 17:37:44","orig_title":"Nebo i zemlya","year":"2004-03-22","translations":["Оригинальная дорожка"],"seasons_count":1,"episodes_count":16,"episodes":16,"update":"2017-11-29 16:56:01","iframe_src":"//7720.svetacdn.in/IAF0wWTdNYZm/tv-series/1775"},{"id":1774,"title":"Тайга. Курс выживания","kp_id":"405633","imdb_id":null,"world_art_id":null,"type":"serial","add":"2017-11-27 17:33:31","orig_title":"Тайга. Курс выживания","year":"2002-10-21","translations":["Оригинальная дорожка"],"seasons_count":1,"episodes_count":12,"episodes":12,"update":"2017-11-28 12:52:24","iframe_src":"//7720.svetacdn.in/IAF0wWTdNYZm/tv-series/1774"},{"id":1768,"title":"Одни дома","kp_id":null,"imdb_id":"tt7444776","world_art_id":null,"type":"serial","add":"2017-11-26 11:18:26","orig_title":"Home Alone","year":"2017-10-12","translations":["Любительский (одноголосый закадровый) (Чумовая десятка)"],"seasons_count":1,"episodes_count":3,"episodes":3,"update":"2017-11-28 12:30:40","iframe_src":"//7720.svetacdn.in/IAF0wWTdNYZm/tv-series/1768"},{"id":1766,"title":"Бесы","kp_id":"718242","imdb_id":"tt3764244","world_art_id":null,"type":"serial","add":"2017-11-26 06:10:58","orig_title":"Besy","year":"2014-05-25","translations":["Оригинальная дорожка"],"seasons_count":1,"episodes_count":4,"episodes":4,"update":"2017-11-28 12:44:13","iframe_src":"//7720.svetacdn.in/IAF0wWTdNYZm/tv-series/1766"},{"id":1765,"title":"Байки из склепа","kp_id":"271501","imdb_id":"tt0096708","world_art_id":null,"type":"serial","add":"2017-11-24 21:21:24","orig_title":"Tales from the Crypt","year":"1989-06-10","translations":["Профессиональный (многоголосый закадровый) (Позитив)","Профессиональный (многоголосый закадровый) (ТВ3)","Профессиональный (многоголосый закадровый) (НТВ)"],"seasons_count":7,"episodes_count":93,"episodes":13,"update":"2017-11-29 19:09:17","iframe_src":"//7720.svetacdn.in/IAF0wWTdNYZm/tv-series/1765"},{"id":1755,"title":"Большие деньги","kp_id":"935915","imdb_id":null,"world_art_id":null,"type":"serial","add":"2017-11-22 06:21:07","orig_title":"Большие деньги","year":"2017-11-20","translations":["Оригинальная дорожка"],"seasons_count":1,"episodes_count":12,"episodes":12,"update":"2017-11-29 11:04:50","iframe_src":"//7720.svetacdn.in/IAF0wWTdNYZm/tv-series/1755"},{"id":1707,"title":"Королева Джханси","kp_id":"541940","imdb_id":"tt1685078","world_art_id":null,"type":"serial","add":"2017-11-04 09:26:29","orig_title":"Ek Veer Stree Ki Kahaani... Jhansi Ki Rani","year":"2009-08-18","translations":["Полное дублирование"],"seasons_count":1,"episodes_count":350,"episodes":350,"update":"2017-11-30 11:01:03","iframe_src":"//7720.svetacdn.in/IAF0wWTdNYZm/tv-series/1707"},{"id":1572,"title":"Бесстыдники","kp_id":"882264","imdb_id":"tt4393622","world_art_id":null,"type":"serial","add":"2017-09-28 07:05:48","orig_title":"Besstydniki","year":"2017-09-24","translations":["Оригинальная дорожка"],"seasons_count":1,"episodes_count":24,"episodes":24,"update":"2017-11-29 13:52:37","iframe_src":"//7720.svetacdn.in/IAF0wWTdNYZm/tv-series/1572"},{"id":634,"title":"Дом на холодном ключе","kp_id":"1007945","imdb_id":null,"world_art_id":null,"type":"serial","add":"2016-11-27 07:30:31","orig_title":"Дом на холодном ключе","year":"2016-11-26","translations":["Оригинальная дорожка"],"seasons_count":1,"episodes_count":4,"episodes":4,"update":"2017-11-28 12:35:11","iframe_src":"//7720.svetacdn.in/IAF0wWTdNYZm/tv-series/634"},{"id":7199,"title":"Мышиная охота","kp_id":"6898","imdb_id":"tt0119715","world_art_id":null,"type":"movie","add":"2016-11-08 15:13:17","orig_title":"Mousehunt","year":"1997-12-19","translations":["Полное дублирование","Профессиональный (многоголосый закадровый) (Премьер Видео Фильм)","Original (English)","Полное дублирование (Ист-Вест)","Авторский (одноголосый закадровый) (Котов Вячеслав)","Авторский (одноголосый закадровый) (Кашкин Александр | Первомайский)","Авторский (одноголосый закадровый) (Гаврилов Андрей)"],"quality":"webdl","translation":"Полное дублирование","update":"2020-11-16 08:07:01","iframe_src":"//7720.svetacdn.in/IAF0wWTdNYZm/movie/7199"},{"id":3482,"title":"Пианино","kp_id":"3663","imdb_id":"tt0107822","world_art_id":null,"type":"movie","add":"2016-06-29 07:57:47","orig_title":"The Piano","year":"1993-05-15","translations":["Любительский (двухголосый закадровый)","Профессиональный (многоголосый закадровый)","Original (English)"],"quality":"bd","translation":"Любительский (двухголосый закадровый)","update":"2020-11-16 13:24:46","iframe_src":"//7720.svetacdn.in/IAF0wWTdNYZm/movie/3482"},{"id":137,"title":"Отвязный Дайс","kp_id":"971141","imdb_id":"tt4688512","world_art_id":null,"type":"serial","add":"2016-06-05 14:07:30","orig_title":"Dice","year":"2016-04-10","translations":["Любительский (многоголосый закадровый) (Несмертельное оружие)","Профессиональный (многоголосый закадровый) (NewStudio)"],"seasons_count":2,"episodes_count":13,"episodes":7,"update":"2017-12-04 07:52:53","iframe_src":"//7720.svetacdn.in/IAF0wWTdNYZm/tv-series/137"}],"current_page":492,"first_page_url":"https://videocdn.tv/api/short?limit=100&api_token=6Onb1W1alEUrBcKJZD3GoKBbWyAl2uG2&cache3492=3492&page=1","from":49101,"last_page":648,"last_page_url":"https://videocdn.tv/api/short?limit=100&api_token=6Onb1W1alEUrBcKJZD3GoKBbWyAl2uG2&cache3492=3492&page=648","next_page_url":"https://videocdn.tv/api/short?limit=100&api_token=6Onb1W1alEUrBcKJZD3GoKBbWyAl2uG2&cache3492=3492&page=493","path":"https://videocdn.tv/api/short","per_page":100,"prev_page_url":"https://videocdn.tv/api/short?limit=100&api_token=6Onb1W1alEUrBcKJZD3GoKBbWyAl2uG2&cache3492=3492&page=491","to":49140,"total":64730}