{"result":true,"data":[{"id":11891,"title":"200 Градусов","kp_id":"934810","imdb_id":"tt4762592","world_art_id":null,"type":"movie","add":"2017-06-10 04:05:42","orig_title":"200 Degrees","year":"2017-06-06","translations":["Любительский (одноголосый закадровый) (Хихикающий доктор)"],"quality":"webdl","translation":"Любительский (одноголосый закадровый) (Хихикающий доктор)","update":"2017-06-10 06:24:24","iframe_src":"//7741.svetacdn.in/si4jsFRrtgrT/movie/11891"},{"id":11840,"title":"Дэвид Боуи: Пять лет","kp_id":"776381","imdb_id":"tt2973408","world_art_id":null,"type":"movie","add":"2017-06-07 10:51:20","orig_title":"David Bowie: Five Years","year":"2013-05-25","translations":["Профессиональный (многоголосый закадровый) (Amedia)"],"quality":"hdtv","translation":"Профессиональный (многоголосый закадровый) (Amedia)","update":"2017-06-09 05:59:47","iframe_src":"//7741.svetacdn.in/si4jsFRrtgrT/movie/11840"},{"id":11838,"title":"Эверест. Достигая невозможного","kp_id":"720214","imdb_id":"tt2468638","world_art_id":null,"type":"movie","add":"2017-06-07 10:49:06","orig_title":"Beyond the Edge","year":"2013-09-06","translations":["Профессиональный (многоголосый закадровый)"],"quality":"bd","translation":"Профессиональный (многоголосый закадровый)","update":"2017-06-09 05:58:51","iframe_src":"//7741.svetacdn.in/si4jsFRrtgrT/movie/11838"},{"id":11837,"title":"Совсем не простая история","kp_id":"702741","imdb_id":"tt4200678","world_art_id":null,"type":"movie","add":"2017-06-07 10:47:44","orig_title":"Sovsem ne prostaya istoriya","year":"2013-10-16","translations":["Оригинальная дорожка"],"quality":"webdl","translation":"Оригинальная дорожка","update":"2017-06-09 05:57:12","iframe_src":"//7741.svetacdn.in/si4jsFRrtgrT/movie/11837"},{"id":11836,"title":"Интимные места","kp_id":"705677","imdb_id":"tt2934404","world_art_id":null,"type":"movie","add":"2017-06-07 10:46:34","orig_title":"Intimnye mesta","year":"2013-06-29","translations":["Оригинальная дорожка"],"quality":"webdl","translation":"Оригинальная дорожка","update":"2017-06-09 05:54:37","iframe_src":"//7741.svetacdn.in/si4jsFRrtgrT/movie/11836"},{"id":11834,"title":"Там, где есть счастье для меня","kp_id":"764041","imdb_id":null,"world_art_id":null,"type":"movie","add":"2017-06-07 10:43:17","orig_title":"Там, где есть счастье для меня","year":"2013-05-19","translations":["Оригинальная дорожка"],"quality":"hdtv","translation":"Оригинальная дорожка","update":"2017-06-09 05:52:19","iframe_src":"//7741.svetacdn.in/si4jsFRrtgrT/movie/11834"},{"id":11833,"title":"Синий зонтик","kp_id":"728515","imdb_id":"tt2616880","world_art_id":null,"type":"movie","add":"2017-06-07 10:40:30","orig_title":"The Blue Umbrella","year":"2013-02-12","translations":["Оригинальная дорожка"],"quality":"bd","translation":"Оригинальная дорожка","update":"2017-06-09 05:51:29","iframe_src":"//7741.svetacdn.in/si4jsFRrtgrT/movie/11833"},{"id":11832,"title":"Перекрёсток","kp_id":"535313","imdb_id":"tt1680123","world_art_id":null,"type":"movie","add":"2017-06-07 10:39:22","orig_title":"Intersections","year":"2013-01-30","translations":["Любительский (многоголосый закадровый)"],"quality":"bd","translation":"Любительский (многоголосый закадровый)","update":"2017-06-09 05:49:49","iframe_src":"//7741.svetacdn.in/si4jsFRrtgrT/movie/11832"},{"id":11831,"title":"Бесстыжий","kp_id":"723917","imdb_id":"tt2576450","world_art_id":null,"type":"movie","add":"2017-06-07 10:38:19","orig_title":"Besharam","year":"2013-10-02","translations":["Любительский (многоголосый закадровый) (ICG)"],"quality":"bd","translation":"Любительский (многоголосый закадровый) (ICG)","update":"2017-06-09 05:48:21","iframe_src":"//7741.svetacdn.in/si4jsFRrtgrT/movie/11831"},{"id":11830,"title":"Урок этики","kp_id":"740519","imdb_id":"tt2926238","world_art_id":null,"type":"movie","add":"2017-06-07 10:37:15","orig_title":"Boonnoui yoonrihak","year":"2013-02-21","translations":["Любительский (двухголосый закадровый) (Колобок)"],"quality":"hdtv","translation":"Любительский (двухголосый закадровый) (Колобок)","update":"2017-06-09 05:47:27","iframe_src":"//7741.svetacdn.in/si4jsFRrtgrT/movie/11830"},{"id":11829,"title":"Человек-мозг","kp_id":"689035","imdb_id":"tt2208020","world_art_id":null,"type":"movie","add":"2017-06-07 10:36:18","orig_title":"Nô Otoko","year":"2013-02-09","translations":["Любительский (двухголосый закадровый) (Колобок)"],"quality":"bd","translation":"Любительский (двухголосый закадровый) (Колобок)","update":"2017-06-09 05:45:17","iframe_src":"//7741.svetacdn.in/si4jsFRrtgrT/movie/11829"},{"id":11828,"title":"Хан Гон-джу","kp_id":"813709","imdb_id":"tt3265462","world_art_id":null,"type":"movie","add":"2017-06-07 10:34:54","orig_title":"Han Gong-ju","year":"2013-10-04","translations":["Любительский (двухголосый закадровый) (Колобок)"],"quality":"bd","translation":"Любительский (двухголосый закадровый) (Колобок)","update":"2017-06-09 05:44:15","iframe_src":"//7741.svetacdn.in/si4jsFRrtgrT/movie/11828"},{"id":11826,"title":"Удачу за хвост","kp_id":"661758","imdb_id":"tt2175669","world_art_id":null,"type":"movie","add":"2017-06-07 10:32:33","orig_title":"Get Lucky","year":"2013-03-21","translations":["Любительский (одноголосый закадровый)"],"quality":"webdl","translation":"Любительский (одноголосый закадровый)","update":"2017-06-09 05:20:18","iframe_src":"//7741.svetacdn.in/si4jsFRrtgrT/movie/11826"},{"id":11824,"title":"Почти Рождество","kp_id":"470581","imdb_id":"tt1462901","world_art_id":null,"type":"movie","add":"2017-06-07 10:30:15","orig_title":"All Is Bright","year":"2013-04-18","translations":["Любительский (одноголосый закадровый) (PashaUp | Морозов Павел)"],"quality":"bd","translation":"Любительский (одноголосый закадровый) (PashaUp | Морозов Павел)","update":"2017-06-09 05:17:06","iframe_src":"//7741.svetacdn.in/si4jsFRrtgrT/movie/11824"},{"id":11823,"title":"Любить, пить и петь","kp_id":"743971","imdb_id":"tt2751390","world_art_id":null,"type":"movie","add":"2017-06-07 10:29:03","orig_title":"Aimer, boire et chanter","year":"2014-02-10","translations":["Любительский (одноголосый закадровый)"],"quality":"bd","translation":"Любительский (одноголосый закадровый)","update":"2017-06-09 05:15:28","iframe_src":"//7741.svetacdn.in/si4jsFRrtgrT/movie/11823"},{"id":11822,"title":"Тайна Вестерплатте","kp_id":"577722","imdb_id":"tt1808518","world_art_id":null,"type":"movie","add":"2017-06-07 10:27:36","orig_title":"Tajemnica Westerplatte","year":"2013-02-15","translations":["Любительский (одноголосый закадровый) (den904)"],"quality":"bd","translation":"Любительский (одноголосый закадровый) (den904)","update":"2017-06-09 05:13:58","iframe_src":"//7741.svetacdn.in/si4jsFRrtgrT/movie/11822"},{"id":11821,"title":"Несносный дед","kp_id":"780451","imdb_id":"tt3063516","world_art_id":null,"type":"movie","add":"2017-06-07 10:26:18","orig_title":"Bad Grandpa","year":"2013-10-23","translations":["Полное дублирование"],"quality":"bd","translation":"Полное дублирование","update":"2017-06-09 05:12:52","iframe_src":"//7741.svetacdn.in/si4jsFRrtgrT/movie/11821"},{"id":11817,"title":"Райский уголок","kp_id":"817914","imdb_id":null,"world_art_id":null,"type":"movie","add":"2017-06-06 04:42:10","orig_title":"Райский уголок","year":"2013-12-22","translations":["Оригинальная дорожка"],"quality":"hdtv","translation":"Оригинальная дорожка","update":"2017-06-09 05:05:43","iframe_src":"//7741.svetacdn.in/si4jsFRrtgrT/movie/11817"},{"id":11816,"title":"Громче слов","kp_id":"518280","imdb_id":"tt1641401","world_art_id":null,"type":"movie","add":"2017-06-06 04:39:31","orig_title":"Louder Than Words","year":"2013-10-11","translations":["Авторский (одноголосый закадровый) (Чадов Михаил)"],"quality":"bd","translation":"Авторский (одноголосый закадровый) (Чадов Михаил)","update":"2017-06-09 05:04:09","iframe_src":"//7741.svetacdn.in/si4jsFRrtgrT/movie/11816"},{"id":11638,"title":"Париж подождет","kp_id":"886169","imdb_id":"tt4429194","world_art_id":null,"type":"movie","add":"2017-05-22 05:06:30","orig_title":"Paris Can Wait","year":"2016-09-12","translations":["Полное дублирование"],"quality":"webdl","translation":"Полное дублирование","update":"2017-06-10 06:02:39","iframe_src":"//7741.svetacdn.in/si4jsFRrtgrT/movie/11638"}],"current_page":2442,"first_page_url":"https://videocdn.tv/api/short?limit=100&api_token=X6EwAUfE5M9xbo7y0Bp0aPf3uXxG2KLL&cache32442=32442&page=1","from":244101,"last_page":707,"last_page_url":"https://videocdn.tv/api/short?limit=100&api_token=X6EwAUfE5M9xbo7y0Bp0aPf3uXxG2KLL&cache32442=32442&page=707","next_page_url":null,"path":"https://videocdn.tv/api/short","per_page":100,"prev_page_url":"https://videocdn.tv/api/short?limit=100&api_token=X6EwAUfE5M9xbo7y0Bp0aPf3uXxG2KLL&cache32442=32442&page=2441","to":244120,"total":70654}