{"result":true,"data":[{"id":9395,"title":"Потерянная Роуз","kp_id":"790550","imdb_id":"tt3137732","world_art_id":null,"type":"movie","add":"2017-02-02 12:55:32","orig_title":"Wandering Rose","year":"2015-06-02","translations":["Профессиональный (многоголосый закадровый)"],"quality":"bd","translation":"Профессиональный (многоголосый закадровый)","update":"2017-02-03 11:40:59","iframe_src":"//5322.svetacdn.in/71tsRs29n5tZ/movie/9395"},{"id":9393,"title":"Любовь напрокат","kp_id":"838285","imdb_id":null,"world_art_id":null,"type":"movie","add":"2017-02-02 12:53:09","orig_title":"Любовь напрокат","year":"2016-04-01","translations":["Оригинальная дорожка"],"quality":"webdl","translation":"Оригинальная дорожка","update":"2017-02-03 11:41:43","iframe_src":"//5322.svetacdn.in/71tsRs29n5tZ/movie/9393"},{"id":9384,"title":"Рост","kp_id":"655690","imdb_id":"tt2140341","world_art_id":null,"type":"movie","add":"2017-02-02 12:39:47","orig_title":"Rise","year":"2016-03-23","translations":["Любительский (одноголосый закадровый)"],"quality":"webdl","translation":"Любительский (одноголосый закадровый)","update":"2017-02-03 11:36:25","iframe_src":"//5322.svetacdn.in/71tsRs29n5tZ/movie/9384"},{"id":9383,"title":"Поездка к морю","kp_id":"779700","imdb_id":"tt3041932","world_art_id":null,"type":"movie","add":"2017-02-02 12:38:34","orig_title":"Pojedeme k mori","year":"2014-03-23","translations":["Любительский (одноголосый закадровый)"],"quality":"hdtv","translation":"Любительский (одноголосый закадровый)","update":"2017-02-03 11:33:10","iframe_src":"//5322.svetacdn.in/71tsRs29n5tZ/movie/9383"},{"id":9382,"title":"Извините, если я существую!","kp_id":"840820","imdb_id":"tt3825738","world_art_id":null,"type":"movie","add":"2017-02-02 12:37:17","orig_title":"Scusate se esisto!","year":"2014-11-20","translations":["Любительский (одноголосый закадровый)"],"quality":"bd","translation":"Любительский (одноголосый закадровый)","update":"2017-02-03 11:31:19","iframe_src":"//5322.svetacdn.in/71tsRs29n5tZ/movie/9382"},{"id":9381,"title":"Склон Черной горы","kp_id":"790362","imdb_id":"tt3139756","world_art_id":null,"type":"movie","add":"2017-02-02 12:36:08","orig_title":"Black Mountain Side","year":"2014-07-30","translations":["Любительский (одноголосый закадровый)"],"quality":"bd","translation":"Любительский (одноголосый закадровый)","update":"2017-02-03 11:24:06","iframe_src":"//5322.svetacdn.in/71tsRs29n5tZ/movie/9381"},{"id":9379,"title":"LEGO Бэтмен: В осаде","kp_id":"886560","imdb_id":"tt4189294","world_art_id":null,"type":"movie","add":"2017-02-02 12:33:33","orig_title":"Lego DC Comics: Batman Be-Leaguered","year":"2014-10-11","translations":["Полное дублирование"],"quality":"bd","translation":"Полное дублирование","update":"2017-02-03 11:20:20","iframe_src":"//5322.svetacdn.in/71tsRs29n5tZ/movie/9379"},{"id":9378,"title":"Малиновый рейх","kp_id":"63973","imdb_id":"tt0390418","world_art_id":null,"type":"movie","add":"2017-02-02 12:31:52","orig_title":"The Raspberry Reich","year":"2004-01-17","translations":["Авторский (одноголосый закадровый) (Алексеев Антон)"],"quality":"dvdrip","translation":"Авторский (одноголосый закадровый) (Алексеев Антон)","update":"2017-02-03 11:07:14","iframe_src":"//5322.svetacdn.in/71tsRs29n5tZ/movie/9378"},{"id":9377,"title":"Зеленая рыба","kp_id":"46960","imdb_id":"tt0126838","world_art_id":null,"type":"movie","add":"2017-02-02 08:56:35","orig_title":"Chorok mulkogi","year":"1997-02-07","translations":["Любительский (одноголосый закадровый) (Бирюков Михаил)"],"quality":"dvdrip","translation":"Любительский (одноголосый закадровый) (Бирюков Михаил)","update":"2017-02-03 07:52:03","iframe_src":"//5322.svetacdn.in/71tsRs29n5tZ/movie/9377"},{"id":9366,"title":"Наше будущее","kp_id":"846702","imdb_id":"tt3902310","world_art_id":null,"type":"movie","add":"2017-02-01 13:13:57","orig_title":"Nos futurs","year":"2015-06-29","translations":["Любительский (многоголосый закадровый) (Синема УС)"],"quality":"bd","translation":"Любительский (многоголосый закадровый) (Синема УС)","update":"2017-02-03 07:43:27","iframe_src":"//5322.svetacdn.in/71tsRs29n5tZ/movie/9366"},{"id":9365,"title":"Могучие/рейнджеры","kp_id":"892040","imdb_id":"tt4475970","world_art_id":null,"type":"movie","add":"2017-02-01 13:01:50","orig_title":"Power/Rangers","year":"2015-02-23","translations":["Профессиональный (многоголосый закадровый) (Jaskier)"],"quality":"webdl","translation":"Профессиональный (многоголосый закадровый) (Jaskier)","update":"2017-02-03 10:56:18","iframe_src":"//5322.svetacdn.in/71tsRs29n5tZ/movie/9365"},{"id":9363,"title":"Рок Апокалипсис","kp_id":"905045","imdb_id":"tt3830598","world_art_id":null,"type":"movie","add":"2017-02-01 12:58:51","orig_title":"Wacken 3D","year":"2014-07-24","translations":["Профессиональный (многоголосый закадровый)"],"quality":"bd","translation":"Профессиональный (многоголосый закадровый)","update":"2017-02-03 07:47:27","iframe_src":"//5322.svetacdn.in/71tsRs29n5tZ/movie/9363"},{"id":9362,"title":"Наступит ночь","kp_id":"880602","imdb_id":"tt3455822","world_art_id":null,"type":"movie","add":"2017-02-01 12:57:21","orig_title":"Night Will Fall","year":"2014-06-07","translations":["Профессиональный (двухголосый закадровый)"],"quality":"hdtv","translation":"Профессиональный (двухголосый закадровый)","update":"2017-02-03 10:52:33","iframe_src":"//5322.svetacdn.in/71tsRs29n5tZ/movie/9362"},{"id":9361,"title":"Петух","kp_id":"842036","imdb_id":"tt4464964","world_art_id":null,"type":"movie","add":"2017-02-01 12:56:09","orig_title":"Petukh","year":"2015-01-21","translations":["Оригинальная дорожка"],"quality":"webdl","translation":"Оригинальная дорожка","update":"2017-02-03 10:54:23","iframe_src":"//5322.svetacdn.in/71tsRs29n5tZ/movie/9361"},{"id":9360,"title":"Охота жить","kp_id":"819332","imdb_id":"tt3460110","world_art_id":null,"type":"movie","add":"2017-02-01 12:54:46","orig_title":"Okhota zhit","year":"2014-11-03","translations":["Оригинальная дорожка"],"quality":"webdl","translation":"Оригинальная дорожка","update":"2017-02-03 10:46:10","iframe_src":"//5322.svetacdn.in/71tsRs29n5tZ/movie/9360"},{"id":9359,"title":"Я помню тебя","kp_id":"737824","imdb_id":"tt2654522","world_art_id":null,"type":"movie","add":"2017-02-01 12:53:12","orig_title":"I Remember You","year":"2015-11-13","translations":["Любительский (многоголосый закадровый) (Синема УС)"],"quality":"webdl","translation":"Любительский (многоголосый закадровый) (Синема УС)","update":"2017-02-03 07:44:45","iframe_src":"//5322.svetacdn.in/71tsRs29n5tZ/movie/9359"},{"id":9357,"title":"Война невест","kp_id":"842775","imdb_id":"tt3833460","world_art_id":null,"type":"movie","add":"2017-02-01 12:48:56","orig_title":"Xin niang da zuo zhan","year":"2015-08-20","translations":["Любительский (многоголосый закадровый)"],"quality":"webdl","translation":"Любительский (многоголосый закадровый)","update":"2017-02-03 07:41:55","iframe_src":"//5322.svetacdn.in/71tsRs29n5tZ/movie/9357"},{"id":9356,"title":"Сингулярность","kp_id":"821193","imdb_id":"tt3442982","world_art_id":null,"type":"movie","add":"2017-02-01 12:47:15","orig_title":"Singularity","year":"2015-11-09","translations":["Любительский (двухголосый закадровый)"],"quality":"webdl","translation":"Любительский (двухголосый закадровый)","update":"2017-02-03 07:40:12","iframe_src":"//5322.svetacdn.in/71tsRs29n5tZ/movie/9356"},{"id":9355,"title":"Первенец","kp_id":"932245","imdb_id":"tt4916982","world_art_id":null,"type":"movie","add":"2017-02-01 12:45:22","orig_title":"The First Born","year":"2015-08-03","translations":["Любительский (двухголосый закадровый) (Shadow Dub Project)"],"quality":"webdl","translation":"Любительский (двухголосый закадровый) (Shadow Dub Project)","update":"2017-02-03 07:39:03","iframe_src":"//5322.svetacdn.in/71tsRs29n5tZ/movie/9355"},{"id":9353,"title":"88","kp_id":"819817","imdb_id":"tt3465074","world_art_id":null,"type":"movie","add":"2017-02-01 12:41:02","orig_title":"88","year":"2015-01-06","translations":["Любительский (двухголосый закадровый)"],"quality":"webdl","translation":"Любительский (двухголосый закадровый)","update":"2017-02-03 07:37:03","iframe_src":"//5322.svetacdn.in/71tsRs29n5tZ/movie/9353"}],"current_page":2166,"first_page_url":"https://videocdn.tv/api/short?limit=100&api_token=EnbO9h8pv1VyjbCJhg0WM9nG259n7mtz&cache32166=32166&page=1","from":216501,"last_page":623,"last_page_url":"https://videocdn.tv/api/short?limit=100&api_token=EnbO9h8pv1VyjbCJhg0WM9nG259n7mtz&cache32166=32166&page=623","next_page_url":null,"path":"https://videocdn.tv/api/short","per_page":100,"prev_page_url":"https://videocdn.tv/api/short?limit=100&api_token=EnbO9h8pv1VyjbCJhg0WM9nG259n7mtz&cache32166=32166&page=2165","to":216520,"total":62234}