{"result":true,"data":[{"id":31092,"title":"Дневник убийцы по контракту","kp_id":"373313","imdb_id":"tt1043695","world_art_id":null,"type":"movie","add":"2019-09-22 16:27:41","orig_title":"Journal of a Contract Killer","year":"2008-03-01","translations":["Профессиональный (многоголосый закадровый)"],"quality":"dvdrip","translation":"Профессиональный (многоголосый закадровый)","update":"2019-09-25 04:43:14","iframe_src":"//2413.svetacdn.in/si4jsFRrtgrT/movie/31092"},{"id":31083,"title":"Золотые яйца","kp_id":"9397","imdb_id":"tt0107165","world_art_id":null,"type":"movie","add":"2019-09-22 15:43:38","orig_title":"Huevos de oro","year":"1993-09-24","translations":["Профессиональный (двухголосый закадровый)"],"quality":"bd","translation":"Профессиональный (двухголосый закадровый)","update":"2019-09-25 04:47:45","iframe_src":"//2413.svetacdn.in/si4jsFRrtgrT/movie/31083"},{"id":31081,"title":"Ад каннибалов 3","kp_id":"94733","imdb_id":"tt0078437","world_art_id":null,"type":"movie","add":"2019-09-22 15:36:33","orig_title":"Ultimo mondo cannibale","year":"1977-02-08","translations":["Авторский (одноголосый закадровый) (Визгунов Сергей)"],"quality":"bd","translation":"Авторский (одноголосый закадровый) (Визгунов Сергей)","update":"2019-09-25 04:55:00","iframe_src":"//2413.svetacdn.in/si4jsFRrtgrT/movie/31081"},{"id":30010,"title":"Месть твари","kp_id":"10873","imdb_id":"tt0048554","world_art_id":null,"type":"movie","add":"2019-08-15 05:53:28","orig_title":"Revenge of the Creature","year":"1955-03-29","translations":["Любительский (одноголосый закадровый)","[EN] Original (English)"],"quality":"bd","translation":"Любительский (одноголосый закадровый)","update":"2019-09-25 05:19:53","iframe_src":"//2413.svetacdn.in/si4jsFRrtgrT/movie/30010"},{"id":29801,"title":"Моя сестра Эйлин","kp_id":"9816","imdb_id":"tt0048401","world_art_id":null,"type":"movie","add":"2019-08-06 20:11:13","orig_title":"My Sister Eileen","year":"1955-09-22","translations":["Профессиональный (многоголосый закадровый)","[EN] Original (English)"],"quality":"bd","translation":"Профессиональный (многоголосый закадровый)","update":"2019-09-25 05:11:11","iframe_src":"//2413.svetacdn.in/si4jsFRrtgrT/movie/29801"},{"id":27470,"title":"9 смертей ниндзя","kp_id":"32626","imdb_id":"tt0089689","world_art_id":null,"type":"movie","add":"2019-06-05 15:58:37","orig_title":"Nine Deaths of the Ninja","year":"1985-04-26","translations":["Профессиональный (многоголосый закадровый)","[EN] Original (English)"],"quality":"bd","translation":"Профессиональный (многоголосый закадровый)","update":"2019-09-25 05:11:57","iframe_src":"//2413.svetacdn.in/si4jsFRrtgrT/movie/27470"},{"id":27335,"title":"Долгое прощание","kp_id":"6307","imdb_id":"tt0070334","world_art_id":null,"type":"movie","add":"2019-06-02 09:00:34","orig_title":"The Long Goodbye","year":"1973-03-07","translations":["Профессиональный (многоголосый закадровый)","[EN] Original (English)"],"quality":"bd","translation":"Профессиональный (многоголосый закадровый)","update":"2019-09-25 05:23:39","iframe_src":"//2413.svetacdn.in/si4jsFRrtgrT/movie/27335"},{"id":27053,"title":"Сахара","kp_id":"5613","imdb_id":"tt0086232","world_art_id":null,"type":"movie","add":"2019-05-26 11:45:22","orig_title":"Sahara","year":"1983-12-08","translations":["Профессиональный (многоголосый закадровый) (Paramount Channel)","[EN] Original (English)"],"quality":"bd","translation":"Профессиональный (многоголосый закадровый) (Paramount Channel)","update":"2019-09-25 05:21:07","iframe_src":"//2413.svetacdn.in/si4jsFRrtgrT/movie/27053"},{"id":27037,"title":"Побег из Собибора","kp_id":"276365","imdb_id":"tt0092978","world_art_id":null,"type":"movie","add":"2019-05-26 11:16:43","orig_title":"Escape from Sobibor","year":"1987-04-12","translations":["Авторский (одноголосый закадровый) (Живов Юрий)","[EN] Original (English)"],"quality":"bd","translation":"Авторский (одноголосый закадровый) (Живов Юрий)","update":"2019-09-25 05:03:11","iframe_src":"//2413.svetacdn.in/si4jsFRrtgrT/movie/27037"},{"id":22750,"title":"Знак Зорро","kp_id":"8460","imdb_id":"tt0032762","world_art_id":null,"type":"movie","add":"2019-03-06 06:03:22","orig_title":"The Mark of Zorro","year":"1940-11-01","translations":["Профессиональный (многоголосый закадровый)","[EN] Original (English)"],"quality":"bd","translation":"Профессиональный (многоголосый закадровый)","update":"2019-09-25 05:38:44","iframe_src":"//2413.svetacdn.in/si4jsFRrtgrT/movie/22750"},{"id":22703,"title":"Добрые сердца и короны","kp_id":"8250","imdb_id":"tt0041546","world_art_id":null,"type":"movie","add":"2019-03-04 15:41:43","orig_title":"Kind Hearts and Coronets","year":"1949-06-23","translations":["Профессиональный (двухголосый закадровый)","[EN] Original (English)"],"quality":"bd","translation":"Профессиональный (двухголосый закадровый)","update":"2019-09-25 05:08:40","iframe_src":"//2413.svetacdn.in/si4jsFRrtgrT/movie/22703"},{"id":22702,"title":"Шоссе","kp_id":"21779","imdb_id":"tt0095177","world_art_id":null,"type":"movie","add":"2019-03-04 15:40:06","orig_title":"Freeway","year":"1988-09-02","translations":["Профессиональный (двухголосый закадровый)","[EN] Original (English)"],"quality":"bd","translation":"Профессиональный (двухголосый закадровый)","update":"2019-09-25 05:04:20","iframe_src":"//2413.svetacdn.in/si4jsFRrtgrT/movie/22702"},{"id":22695,"title":"Аромат дамы в черном","kp_id":"141540","imdb_id":"tt0070565","world_art_id":null,"type":"movie","add":"2019-03-04 15:24:53","orig_title":"Il profumo della signora in nero","year":"1974-04-04","translations":["Любительский (одноголосый закадровый)","[EN] Original (English)"],"quality":"bd","translation":"Любительский (одноголосый закадровый)","update":"2019-09-25 05:06:43","iframe_src":"//2413.svetacdn.in/si4jsFRrtgrT/movie/22695"},{"id":22691,"title":"Имитация жизни","kp_id":"7546","imdb_id":"tt0052918","world_art_id":null,"type":"movie","add":"2019-03-04 15:18:01","orig_title":"Imitation of Life","year":"1959-03-17","translations":["Авторский (одноголосый закадровый) (Сербин Юрий)","[EN] Original (English)"],"quality":"bd","translation":"Авторский (одноголосый закадровый) (Сербин Юрий)","update":"2019-09-25 05:07:37","iframe_src":"//2413.svetacdn.in/si4jsFRrtgrT/movie/22691"},{"id":22147,"title":"Солдаты","kp_id":"21714","imdb_id":"tt0114489","world_art_id":null,"type":"movie","add":"2019-02-09 07:53:04","orig_title":"Soldier Boyz","year":"1995-10-18","translations":["Профессиональный (двухголосый закадровый) (СВ-Кадр)","[EN] Original (English)"],"quality":"bd","translation":"Профессиональный (двухголосый закадровый) (СВ-Кадр)","update":"2019-09-25 05:22:04","iframe_src":"//2413.svetacdn.in/si4jsFRrtgrT/movie/22147"},{"id":12058,"title":"Прощальный квартет","kp_id":"467686","imdb_id":"tt1226240","world_art_id":null,"type":"movie","add":"2017-06-21 09:12:01","orig_title":"A Late Quartet","year":"2012-09-10","translations":["Профессиональный (многоголосый закадровый)","Авторский (одноголосый закадровый) (Сербин Юрий)","[EN] Original (English)"],"quality":"bd","translation":"Профессиональный (многоголосый закадровый)","update":"2019-09-25 05:00:43","iframe_src":"//2413.svetacdn.in/si4jsFRrtgrT/movie/12058"},{"id":8908,"title":"Око за око","kp_id":"5449","imdb_id":"tt0082350","world_art_id":null,"type":"movie","add":"2017-01-15 14:22:49","orig_title":"An Eye for an Eye","year":"1981-08-14","translations":["Профессиональный (многоголосый закадровый)","Авторский (одноголосый закадровый) (Горчаков Василий)"],"quality":"bd","translation":"Профессиональный (многоголосый закадровый)","update":"2019-09-25 04:42:26","iframe_src":"//2413.svetacdn.in/si4jsFRrtgrT/movie/8908"},{"id":8222,"title":"Запретный мир","kp_id":"17658","imdb_id":"tt0083959","world_art_id":null,"type":"movie","add":"2016-12-21 09:31:55","orig_title":"Forbidden World","year":"1982-05-07","translations":["Авторский (одноголосый закадровый) (Котов Вячеслав)","Авторский (одноголосый закадровый) (Володарский Леонид)"],"quality":"bd","translation":"Авторский (одноголосый закадровый) (Котов Вячеслав)","update":"2019-09-25 04:56:20","iframe_src":"//2413.svetacdn.in/si4jsFRrtgrT/movie/8222"},{"id":6554,"title":"Настоящие мужчины","kp_id":"17698","imdb_id":"tt0093828","world_art_id":null,"type":"movie","add":"2016-10-21 05:18:12","orig_title":"Real Men","year":"1987-09-25","translations":["Профессиональный (многоголосый закадровый)","[EN] Original (English)"],"quality":"bd","translation":"Профессиональный (многоголосый закадровый)","update":"2019-09-25 05:18:29","iframe_src":"//2413.svetacdn.in/si4jsFRrtgrT/movie/6554"},{"id":3745,"title":"Ледяной ветер","kp_id":"3937","imdb_id":"tt0119349","world_art_id":null,"type":"movie","add":"2016-07-06 14:31:20","orig_title":"The Ice Storm","year":"1997-05-12","translations":["Авторский (одноголосый закадровый) (Сербин Юрий)","Профессиональный (двухголосый закадровый)","[EN] Original (English)"],"quality":"bd","translation":"Авторский (одноголосый закадровый) (Сербин Юрий)","update":"2019-09-25 04:52:45","iframe_src":"//2413.svetacdn.in/si4jsFRrtgrT/movie/3745"}],"current_page":1652,"first_page_url":"https://videocdn.tv/api/short?limit=100&api_token=X6EwAUfE5M9xbo7y0Bp0aPf3uXxG2KLL&cache31652=31652&page=1","from":165101,"last_page":719,"last_page_url":"https://videocdn.tv/api/short?limit=100&api_token=X6EwAUfE5M9xbo7y0Bp0aPf3uXxG2KLL&cache31652=31652&page=719","next_page_url":null,"path":"https://videocdn.tv/api/short","per_page":100,"prev_page_url":"https://videocdn.tv/api/short?limit=100&api_token=X6EwAUfE5M9xbo7y0Bp0aPf3uXxG2KLL&cache31652=31652&page=1651","to":165120,"total":71863}