{"result":true,"data":[{"id":31339,"title":"Мой спутник 2","kp_id":"1181638","imdb_id":"tt8748256","world_art_id":null,"type":"movie","add":"2019-09-30 19:18:25","orig_title":"Yol Arkadasim 2","year":"2018-10-12","translations":["Профессиональный (многоголосый закадровый) (AlphaProject)"],"quality":"webdl","translation":"Профессиональный (многоголосый закадровый) (AlphaProject)","update":"2019-10-01 05:38:43","iframe_src":"//7923.svetacdn.in/si4jsFRrtgrT/movie/31339"},{"id":31338,"title":"Видимое и невидимое","kp_id":"1048139","imdb_id":"tt7215548","world_art_id":null,"type":"movie","add":"2019-09-30 19:16:49","orig_title":"Sekala Niskala","year":"2017-09-11","translations":["Любительский (многоголосый закадровый) (Синема УС)"],"quality":"webdl","translation":"Любительский (многоголосый закадровый) (Синема УС)","update":"2019-10-01 05:48:13","iframe_src":"//7923.svetacdn.in/si4jsFRrtgrT/movie/31338"},{"id":31337,"title":"Правила для всего","kp_id":"1023175","imdb_id":"tt6275296","world_art_id":null,"type":"movie","add":"2019-09-30 19:15:19","orig_title":"The Rules for Everything","year":"2017-01-27","translations":["Любительский (многоголосый закадровый) (Синема УС)"],"quality":"bd","translation":"Любительский (многоголосый закадровый) (Синема УС)","update":"2019-10-01 05:44:28","iframe_src":"//7923.svetacdn.in/si4jsFRrtgrT/movie/31337"},{"id":31336,"title":"Основной убийца","kp_id":"1141238","imdb_id":"tt7888054","world_art_id":null,"type":"movie","add":"2019-09-30 19:12:48","orig_title":"Primary Hitman","year":"2018-09-28","translations":["Любительский (многоголосый закадровый) (Синема УС)"],"quality":"webdl","translation":"Любительский (многоголосый закадровый) (Синема УС)","update":"2019-10-01 05:46:21","iframe_src":"//7923.svetacdn.in/si4jsFRrtgrT/movie/31336"},{"id":31335,"title":"Мой рейнджер","kp_id":"1053795","imdb_id":"tt7079474","world_art_id":null,"type":"movie","add":"2019-09-30 19:11:19","orig_title":"My Ranger","year":"2017-09-22","translations":["Любительский (многоголосый закадровый) (Синема УС)"],"quality":"webdl","translation":"Любительский (многоголосый закадровый) (Синема УС)","update":"2019-10-01 05:45:16","iframe_src":"//7923.svetacdn.in/si4jsFRrtgrT/movie/31335"},{"id":31332,"title":"Лесной Барон, сезон первый","kp_id":"1237601","imdb_id":"tt9733098","world_art_id":null,"type":"movie","add":"2019-09-30 19:06:19","orig_title":"Lumber Baron Season One the Movie","year":"2018-07-09","translations":["Любительский (многоголосый закадровый) (Синема УС)"],"quality":"webdl","translation":"Любительский (многоголосый закадровый) (Синема УС)","update":"2019-10-01 05:41:10","iframe_src":"//7923.svetacdn.in/si4jsFRrtgrT/movie/31332"},{"id":31330,"title":"Бог смерти","kp_id":"1020973","imdb_id":"tt6229030","world_art_id":null,"type":"movie","add":"2019-09-30 19:02:13","orig_title":"Matar a Dios","year":"2017-10-11","translations":["Любительский (многоголосый закадровый)"],"quality":"bd","translation":"Любительский (многоголосый закадровый)","update":"2019-10-01 05:52:50","iframe_src":"//7923.svetacdn.in/si4jsFRrtgrT/movie/31330"},{"id":31329,"title":"Любовь и долги","kp_id":null,"imdb_id":"tt3221910","world_art_id":null,"type":"movie","add":"2019-09-30 19:00:46","orig_title":"Love & Debt","year":"2019-09-21","translations":["Любительский (многоголосый закадровый) (Синема УС)"],"quality":"webdl","translation":"Любительский (многоголосый закадровый) (Синема УС)","update":"2019-10-01 05:37:34","iframe_src":"//7923.svetacdn.in/si4jsFRrtgrT/movie/31329"},{"id":31300,"title":"Снежная королева","kp_id":"865009","imdb_id":"tt3744880","world_art_id":null,"type":"movie","add":"2019-09-29 17:24:25","orig_title":"Die Schneekönigin","year":"2014-10-16","translations":["Профессиональный (многоголосый закадровый) (Игмар)"],"quality":"hdtv","translation":"Профессиональный (многоголосый закадровый) (Игмар)","update":"2019-09-30 12:32:06","iframe_src":"//7923.svetacdn.in/si4jsFRrtgrT/movie/31300"},{"id":31299,"title":"Красная Шапочка","kp_id":"721523","imdb_id":"tt2562304","world_art_id":null,"type":"movie","add":"2019-09-29 17:17:19","orig_title":"Rotkäppchen","year":"2012-12-25","translations":["Профессиональный (многоголосый закадровый) (Игмар)"],"quality":"hdtv","translation":"Профессиональный (многоголосый закадровый) (Игмар)","update":"2019-09-30 12:36:07","iframe_src":"//7923.svetacdn.in/si4jsFRrtgrT/movie/31299"},{"id":31298,"title":"Гензель и Гретель","kp_id":"721695","imdb_id":"tt2562256","world_art_id":null,"type":"movie","add":"2019-09-29 17:15:43","orig_title":"Hänsel und Gretel","year":"2012-12-26","translations":["Профессиональный (многоголосый закадровый) (Игмар)"],"quality":"hdtv","translation":"Профессиональный (многоголосый закадровый) (Игмар)","update":"2019-09-30 12:36:49","iframe_src":"//7923.svetacdn.in/si4jsFRrtgrT/movie/31298"},{"id":31296,"title":"Белая змея","kp_id":"938827","imdb_id":"tt5082916","world_art_id":null,"type":"movie","add":"2019-09-29 17:13:59","orig_title":"The White Snake","year":"2015-10-07","translations":["Профессиональный (многоголосый закадровый) (Игмар)"],"quality":"hdtv","translation":"Профессиональный (многоголосый закадровый) (Игмар)","update":"2019-09-30 12:37:28","iframe_src":"//7923.svetacdn.in/si4jsFRrtgrT/movie/31296"},{"id":31294,"title":"В тени Луны","kp_id":"290800","imdb_id":"tt0925248","world_art_id":null,"type":"movie","add":"2019-09-29 17:06:32","orig_title":"In the Shadow of the Moon","year":"2007-01-19","translations":["Любительский (одноголосый закадровый)"],"quality":"bd","translation":"Любительский (одноголосый закадровый)","update":"2019-09-30 12:40:57","iframe_src":"//7923.svetacdn.in/si4jsFRrtgrT/movie/31294"},{"id":31293,"title":"Белоснежка","kp_id":"469894","imdb_id":"tt1479358","world_art_id":null,"type":"movie","add":"2019-09-29 17:04:06","orig_title":"Schneewittchen","year":"2009-11-19","translations":["Профессиональный (многоголосый закадровый) (Игмар)"],"quality":"hdtv","translation":"Профессиональный (многоголосый закадровый) (Игмар)","update":"2019-09-30 12:42:24","iframe_src":"//7923.svetacdn.in/si4jsFRrtgrT/movie/31293"},{"id":31286,"title":"Боги","kp_id":"870275","imdb_id":"tt3962296","world_art_id":null,"type":"movie","add":"2019-09-29 16:43:49","orig_title":"The Gods","year":"2015-01-05","translations":["Любительский (многоголосый закадровый) (Синема УС)"],"quality":"webdl","translation":"Любительский (многоголосый закадровый) (Синема УС)","update":"2019-09-30 12:29:47","iframe_src":"//7923.svetacdn.in/si4jsFRrtgrT/movie/31286"},{"id":31255,"title":"Солдат удачи","kp_id":"15687","imdb_id":"tt0048640","world_art_id":null,"type":"movie","add":"2019-09-29 14:59:56","orig_title":"Soldier of Fortune","year":"1955-05-25","translations":["Профессиональный (двухголосый закадровый)"],"quality":"bd","translation":"Профессиональный (двухголосый закадровый)","update":"2019-09-30 12:22:42","iframe_src":"//7923.svetacdn.in/si4jsFRrtgrT/movie/31255"},{"id":31248,"title":"Вызов","kp_id":"9895","imdb_id":"tt0083726","world_art_id":null,"type":"movie","add":"2019-09-29 14:11:24","orig_title":"The Challenge","year":"1982-07-23","translations":["Профессиональный (многоголосый закадровый)"],"quality":"bd","translation":"Профессиональный (многоголосый закадровый)","update":"2019-09-30 12:17:32","iframe_src":"//7923.svetacdn.in/si4jsFRrtgrT/movie/31248"},{"id":28398,"title":"Безбашенная пуля","kp_id":"1170198","imdb_id":"tt8648640","world_art_id":null,"type":"movie","add":"2019-06-29 20:44:53","orig_title":"Hollow Point","year":"2019-06-13","translations":["Полное дублирование"],"quality":"webdl","translation":"Полное дублирование","update":"2019-10-01 05:50:06","iframe_src":"//7923.svetacdn.in/si4jsFRrtgrT/movie/28398"},{"id":28121,"title":"Зов волка","kp_id":"1085318","imdb_id":"tt7458762","world_art_id":null,"type":"movie","add":"2019-06-22 07:30:52","orig_title":"Le chant du loup","year":"2019-01-17","translations":["Профессиональный (многоголосый закадровый) (СВ-Студия)","Полное дублирование"],"quality":"bd","translation":"Профессиональный (многоголосый закадровый) (СВ-Студия)","update":"2019-10-01 05:54:36","iframe_src":"//7923.svetacdn.in/si4jsFRrtgrT/movie/28121"},{"id":22334,"title":"Невеста Пугала","kp_id":"1152894","imdb_id":"tt7906262","world_art_id":null,"type":"movie","add":"2019-02-16 23:44:37","orig_title":"Bride of Scarecrow","year":"2018-10-03","translations":["Профессиональный (многоголосый закадровый)"],"quality":"bd","translation":"Профессиональный (многоголосый закадровый)","update":"2019-10-01 05:43:14","iframe_src":"//7923.svetacdn.in/si4jsFRrtgrT/movie/22334"}],"current_page":1229,"first_page_url":"https://videocdn.tv/api/short?limit=100&api_token=X6EwAUfE5M9xbo7y0Bp0aPf3uXxG2KLL&cache31229=31229&page=1","from":122801,"last_page":644,"last_page_url":"https://videocdn.tv/api/short?limit=100&api_token=X6EwAUfE5M9xbo7y0Bp0aPf3uXxG2KLL&cache31229=31229&page=644","next_page_url":null,"path":"https://videocdn.tv/api/short","per_page":100,"prev_page_url":"https://videocdn.tv/api/short?limit=100&api_token=X6EwAUfE5M9xbo7y0Bp0aPf3uXxG2KLL&cache31229=31229&page=1228","to":122820,"total":64307}