{"result":true,"data":[{"id":33410,"title":"Ильза – волчица СС","kp_id":"82364","imdb_id":"tt0071650","world_art_id":null,"type":"movie","add":"2019-11-24 17:19:58","orig_title":"Ilsa: She Wolf of the SS","year":"1975-08-16","translations":["Любительский (одноголосый закадровый) (den904)"],"quality":"dvdrip","translation":"Любительский (одноголосый закадровый) (den904)","update":"2019-11-25 09:58:50","iframe_src":"//5322.svetacdn.in/71tsRs29n5tZ/movie/33410"},{"id":33406,"title":"Комодо. Остров ужаса","kp_id":"31765","imdb_id":"tt0172669","world_art_id":null,"type":"movie","add":"2019-11-24 16:58:59","orig_title":"Komodo","year":"1999-09-15","translations":["Профессиональный (многоголосый закадровый)"],"quality":"dvdrip","translation":"Профессиональный (многоголосый закадровый)","update":"2019-11-25 07:13:46","iframe_src":"//5322.svetacdn.in/71tsRs29n5tZ/movie/33406"},{"id":33405,"title":"Старое предание. Когда солнце было богом","kp_id":"66328","imdb_id":"tt0380726","world_art_id":null,"type":"movie","add":"2019-11-24 15:41:08","orig_title":"Stara baśń: Kiedy słońce było bogiem","year":"2003-09-17","translations":["Профессиональный (многоголосый закадровый)"],"quality":"dvdrip","translation":"Профессиональный (многоголосый закадровый)","update":"2019-11-25 06:39:41","iframe_src":"//5322.svetacdn.in/71tsRs29n5tZ/movie/33405"},{"id":33402,"title":"Ниже нас","kp_id":"940704","imdb_id":"tt5092484","world_art_id":null,"type":"movie","add":"2019-11-24 15:37:17","orig_title":"Beneath Us","year":"2019-04-11","translations":["Любительский (многоголосый закадровый) (Колобок)"],"quality":"webdl","translation":"Любительский (многоголосый закадровый) (Колобок)","update":"2019-11-25 06:38:11","iframe_src":"//5322.svetacdn.in/71tsRs29n5tZ/movie/33402"},{"id":33400,"title":"Переводчик","kp_id":"919978","imdb_id":"tt4488744","world_art_id":null,"type":"movie","add":"2019-11-24 15:33:17","orig_title":"Un traductor","year":"2018-01-19","translations":["Любительский (двухголосый закадровый)"],"quality":"webdl","translation":"Любительский (двухголосый закадровый)","update":"2019-11-25 06:36:21","iframe_src":"//5322.svetacdn.in/71tsRs29n5tZ/movie/33400"},{"id":33396,"title":"Закрытая вечеринка","kp_id":"443301","imdb_id":"tt1229821","world_art_id":null,"type":"movie","add":"2019-11-24 11:21:53","orig_title":"Jue ming pai dui","year":"2009-04-17","translations":["Профессиональный (многоголосый закадровый)"],"quality":"bd","translation":"Профессиональный (многоголосый закадровый)","update":"2019-11-25 07:03:12","iframe_src":"//5322.svetacdn.in/71tsRs29n5tZ/movie/33396"},{"id":33395,"title":"Книга Судного дня","kp_id":"666900","imdb_id":"tt2297164","world_art_id":null,"type":"movie","add":"2019-11-24 11:18:38","orig_title":"In-lyu-myeol-mang-bo-go-seo","year":"2012-03-22","translations":["Профессиональный (многоголосый закадровый)"],"quality":"bd","translation":"Профессиональный (многоголосый закадровый)","update":"2019-11-25 07:02:58","iframe_src":"//5322.svetacdn.in/71tsRs29n5tZ/movie/33395"},{"id":33394,"title":"Женщина с разрезанным ртом 2","kp_id":"405777","imdb_id":"tt1192612","world_art_id":null,"type":"movie","add":"2019-11-24 11:15:46","orig_title":"Kuchisake-onna 2","year":"2008-03-22","translations":["Любительский (многоголосый закадровый)"],"quality":"dvdrip","translation":"Любительский (многоголосый закадровый)","update":"2019-11-25 07:01:26","iframe_src":"//5322.svetacdn.in/71tsRs29n5tZ/movie/33394"},{"id":33393,"title":"Сладкий","kp_id":"61426","imdb_id":"tt0374252","world_art_id":null,"type":"movie","add":"2019-11-24 11:12:32","orig_title":"Sugar","year":"2004-05-22","translations":["Любительский (одноголосый закадровый)"],"quality":"dvdrip","translation":"Любительский (одноголосый закадровый)","update":"2019-11-25 07:00:25","iframe_src":"//5322.svetacdn.in/71tsRs29n5tZ/movie/33393"},{"id":33391,"title":"Тактическая сила","kp_id":"571333","imdb_id":"tt1458915","world_art_id":null,"type":"movie","add":"2019-11-24 11:04:04","orig_title":"Tactical Force","year":"2011-08-09","translations":["Профессиональный (многоголосый закадровый)"],"quality":"bd","translation":"Профессиональный (многоголосый закадровый)","update":"2019-11-25 06:59:07","iframe_src":"//5322.svetacdn.in/71tsRs29n5tZ/movie/33391"},{"id":33390,"title":"Зажги этот мир","kp_id":"492770","imdb_id":"tt1568139","world_art_id":null,"type":"movie","add":"2019-11-24 10:55:33","orig_title":"Beat the World","year":"2011-05-13","translations":["Профессиональный (многоголосый закадровый) (ТНТ)"],"quality":"hdrip","translation":"Профессиональный (многоголосый закадровый) (ТНТ)","update":"2019-11-25 06:54:26","iframe_src":"//5322.svetacdn.in/71tsRs29n5tZ/movie/33390"},{"id":33380,"title":"1453 Завоевание","kp_id":"622856","imdb_id":"tt1783232","world_art_id":null,"type":"movie","add":"2019-11-23 09:04:28","orig_title":"Fetih 1453","year":"2012-02-16","translations":["Любительский (двухголосый закадровый)"],"quality":"bd","translation":"Любительский (двухголосый закадровый)","update":"2019-11-25 07:07:01","iframe_src":"//5322.svetacdn.in/71tsRs29n5tZ/movie/33380"},{"id":33328,"title":"Поезд-призрак","kp_id":"268463","imdb_id":"tt0819839","world_art_id":null,"type":"movie","add":"2019-11-20 21:20:51","orig_title":"Otoshimono","year":"2006-07-27","translations":["Профессиональный (многоголосый закадровый)"],"quality":"bd","translation":"Профессиональный (многоголосый закадровый)","update":"2019-11-25 06:49:51","iframe_src":"//5322.svetacdn.in/71tsRs29n5tZ/movie/33328"},{"id":33072,"title":"Подземелье мертвых","kp_id":"660716","imdb_id":"tt2171847","world_art_id":null,"type":"movie","add":"2019-11-13 11:53:09","orig_title":"Dead Mine","year":"2012-09-27","translations":["Профессиональный (двухголосый закадровый)","Профессиональный (двухголосый закадровый)"],"quality":"bd","translation":"Профессиональный (двухголосый закадровый)","update":"2019-11-25 10:06:52","iframe_src":"//5322.svetacdn.in/71tsRs29n5tZ/movie/33072"},{"id":14137,"title":"Особое задание","kp_id":"8395","imdb_id":"tt0079509","world_art_id":null,"type":"movie","add":"2017-10-29 09:31:57","orig_title":"Mi ni te gong dui","year":"1983-02-13","translations":["Профессиональный (двухголосый закадровый)"],"quality":"bd","translation":"Профессиональный (двухголосый закадровый)","update":"2019-11-25 06:51:31","iframe_src":"//5322.svetacdn.in/71tsRs29n5tZ/movie/14137"},{"id":9223,"title":"Кабинет","kp_id":"766979","imdb_id":"tt2948712","world_art_id":null,"type":"movie","add":"2017-01-26 12:35:52","orig_title":"Parlor","year":"2015-05-12","translations":["Любительский (двухголосый закадровый) (Колобок)"],"quality":"bd","translation":"Любительский (двухголосый закадровый) (Колобок)","update":"2019-11-25 07:10:03","iframe_src":"//5322.svetacdn.in/71tsRs29n5tZ/movie/9223"},{"id":8078,"title":"Страх сцены","kp_id":"692792","imdb_id":"tt2190838","world_art_id":null,"type":"movie","add":"2016-12-15 17:15:30","orig_title":"Stage Fright","year":"2014-03-10","translations":["Профессиональный (многоголосый закадровый)"],"quality":"bd","translation":"Профессиональный (многоголосый закадровый)","update":"2019-11-25 09:14:57","iframe_src":"//5322.svetacdn.in/71tsRs29n5tZ/movie/8078"},{"id":5036,"title":"Окончательный монтаж","kp_id":"20096","imdb_id":"tt0364343","world_art_id":null,"type":"movie","add":"2016-09-05 11:05:19","orig_title":"The Final Cut","year":"2004-02-11","translations":["Полное дублирование"],"quality":"hdtv","translation":"Полное дублирование","update":"2019-11-25 06:40:53","iframe_src":"//5322.svetacdn.in/71tsRs29n5tZ/movie/5036"},{"id":2699,"title":"Женский дом","kp_id":"723888","imdb_id":"tt2577172","world_art_id":null,"type":"movie","add":"2016-05-30 10:44:37","orig_title":"GirlHouse","year":"2014-10-16","translations":["Любительский (многоголосый закадровый)"],"quality":"bd","translation":"Любительский (многоголосый закадровый)","update":"2019-11-25 07:06:00","iframe_src":"//5322.svetacdn.in/71tsRs29n5tZ/movie/2699"},{"id":2587,"title":"Посторонний","kp_id":"823946","imdb_id":"tt3496372","world_art_id":null,"type":"movie","add":"2016-05-26 10:47:33","orig_title":"The Intruders","year":"2015-02-24","translations":["Профессиональный (многоголосый закадровый) (iTunes)"],"quality":"webdl","translation":"Профессиональный (многоголосый закадровый) (iTunes)","update":"2019-11-25 07:18:31","iframe_src":"//5322.svetacdn.in/71tsRs29n5tZ/movie/2587"}],"current_page":1026,"first_page_url":"https://videocdn.tv/api/short?limit=100&api_token=EnbO9h8pv1VyjbCJhg0WM9nG259n7mtz&cache31026=31026&page=1","from":102501,"last_page":624,"last_page_url":"https://videocdn.tv/api/short?limit=100&api_token=EnbO9h8pv1VyjbCJhg0WM9nG259n7mtz&cache31026=31026&page=624","next_page_url":null,"path":"https://videocdn.tv/api/short","per_page":100,"prev_page_url":"https://videocdn.tv/api/short?limit=100&api_token=EnbO9h8pv1VyjbCJhg0WM9nG259n7mtz&cache31026=31026&page=1025","to":102520,"total":62385}