{"result":true,"data":[{"id":37438,"title":"Поворотный пункт","kp_id":"2564","imdb_id":"tt0076843","world_art_id":null,"type":"movie","add":"2020-03-05 09:51:00","orig_title":"The Turning Point","year":"1977-11-14","translations":["Профессиональный (многоголосый закадровый)"],"quality":"dvdrip","translation":"Профессиональный (многоголосый закадровый)","update":"2020-03-06 06:30:26","iframe_src":"//8543.svetacdn.in/si4jsFRrtgrT/movie/37438"},{"id":37433,"title":"Невинные убийцы","kp_id":"798862","imdb_id":"tt3144582","world_art_id":null,"type":"movie","add":"2020-03-05 09:46:23","orig_title":"Asesinos inocentes","year":"2015-03-10","translations":["Любительский (многоголосый закадровый)"],"quality":"bd","translation":"Любительский (многоголосый закадровый)","update":"2020-03-06 06:24:53","iframe_src":"//8543.svetacdn.in/si4jsFRrtgrT/movie/37433"},{"id":37431,"title":"Последний закат. Возвращение","kp_id":"808762","imdb_id":"tt3350058","world_art_id":null,"type":"movie","add":"2020-03-05 09:43:18","orig_title":"One Last Sunset Redux","year":"2015-10-24","translations":["Любительский (одноголосый закадровый) (Васька Куролесов)"],"quality":"dvdrip","translation":"Любительский (одноголосый закадровый) (Васька Куролесов)","update":"2020-03-06 06:03:39","iframe_src":"//8543.svetacdn.in/si4jsFRrtgrT/movie/37431"},{"id":37429,"title":"Темный принц","kp_id":"694304","imdb_id":"tt2287214","world_art_id":null,"type":"movie","add":"2020-03-05 09:40:19","orig_title":"Dracula: The Dark Prince","year":"2013-10-15","translations":["Original (English)","Любительский (одноголосый закадровый) (Barin101)"],"quality":"bd","translation":"Original (English)","update":"2020-03-06 06:01:22","iframe_src":"//8543.svetacdn.in/si4jsFRrtgrT/movie/37429"},{"id":37428,"title":"Всё ещё возможно","kp_id":"718757","imdb_id":"tt2517558","world_art_id":null,"type":"movie","add":"2020-03-05 09:38:16","orig_title":"Da geht noch was","year":"2013-09-12","translations":["Любительский (одноголосый закадровый) (viktor_2838)"],"quality":"bd","translation":"Любительский (одноголосый закадровый) (viktor_2838)","update":"2020-03-06 05:58:16","iframe_src":"//8543.svetacdn.in/si4jsFRrtgrT/movie/37428"},{"id":37427,"title":"Синий каприз","kp_id":"610013","imdb_id":"tt2027064","world_art_id":null,"type":"movie","add":"2020-03-05 09:36:54","orig_title":"Blue Caprice","year":"2013-01-19","translations":["Original (English)","Любительский (одноголосый закадровый) (datynet)"],"quality":"bd","translation":"Original (English)","update":"2020-03-06 05:56:24","iframe_src":"//8543.svetacdn.in/si4jsFRrtgrT/movie/37427"},{"id":37426,"title":"Люди-невидимки","kp_id":"632502","imdb_id":"tt2075340","world_art_id":null,"type":"movie","add":"2020-03-05 09:34:39","orig_title":"The Invisible Men","year":"2012-03-25","translations":["Авторский (одноголосый закадровый) (Кошкин Василий)"],"quality":"hdrip","translation":"Авторский (одноголосый закадровый) (Кошкин Василий)","update":"2020-03-06 05:53:11","iframe_src":"//8543.svetacdn.in/si4jsFRrtgrT/movie/37426"},{"id":37425,"title":"Штрафной батальон 999","kp_id":"194792","imdb_id":"tt0053309","world_art_id":null,"type":"movie","add":"2020-03-05 09:33:29","orig_title":"Strafbataillon 999","year":"1960-02-11","translations":["Авторский (одноголосый закадровый) (Рябов Сергей)"],"quality":"dvdrip","translation":"Авторский (одноголосый закадровый) (Рябов Сергей)","update":"2020-03-06 05:52:06","iframe_src":"//8543.svetacdn.in/si4jsFRrtgrT/movie/37425"},{"id":37424,"title":"Мидуэй","kp_id":"9959","imdb_id":"tt0074899","world_art_id":null,"type":"movie","add":"2020-03-05 09:30:27","orig_title":"Midway","year":"1976-06-18","translations":["Авторский (одноголосый закадровый) (Рябов Сергей)","Original (English)","Профессиональный (многоголосый закадровый) (СТС)"],"quality":"bd","translation":"Авторский (одноголосый закадровый) (Рябов Сергей)","update":"2020-03-06 05:50:55","iframe_src":"//8543.svetacdn.in/si4jsFRrtgrT/movie/37424"},{"id":37365,"title":"Пассажир дождя","kp_id":"13596","imdb_id":"tt0064791","world_art_id":null,"type":"movie","add":"2020-03-04 18:44:20","orig_title":"Le passager de la pluie","year":"1970-01-21","translations":["Профессиональный (двухголосый закадровый)"],"quality":"bd","translation":"Профессиональный (двухголосый закадровый)","update":"2020-03-05 20:40:33","iframe_src":"//8543.svetacdn.in/si4jsFRrtgrT/movie/37365"},{"id":37364,"title":"Заткнись и пристрели меня","kp_id":"91471","imdb_id":"tt0406219","world_art_id":null,"type":"movie","add":"2020-03-04 18:40:50","orig_title":"Shut Up and Shoot Me","year":"2005-11-09","translations":["Профессиональный (двухголосый закадровый)"],"quality":"dvdrip","translation":"Профессиональный (двухголосый закадровый)","update":"2020-03-05 20:39:52","iframe_src":"//8543.svetacdn.in/si4jsFRrtgrT/movie/37364"},{"id":37363,"title":"Морская фиалка","kp_id":"494746","imdb_id":"tt1467306","world_art_id":null,"type":"movie","add":"2020-03-04 18:38:14","orig_title":"Viola di mare","year":"2009-10-16","translations":["Профессиональный (многоголосый закадровый)"],"quality":"dvdrip","translation":"Профессиональный (многоголосый закадровый)","update":"2020-03-05 20:39:38","iframe_src":"//8543.svetacdn.in/si4jsFRrtgrT/movie/37363"},{"id":37362,"title":"Слишком красивые, чтобы умереть","kp_id":"14525","imdb_id":"tt0086343","world_art_id":null,"type":"movie","add":"2020-03-04 18:32:11","orig_title":"Sotto il vestito niente","year":"1985-11-07","translations":["Любительский (одноголосый закадровый)"],"quality":"bd","translation":"Любительский (одноголосый закадровый)","update":"2020-03-05 20:39:02","iframe_src":"//8543.svetacdn.in/si4jsFRrtgrT/movie/37362"},{"id":37361,"title":"По пути домой","kp_id":"586141","imdb_id":"tt1866230","world_art_id":null,"type":"movie","add":"2020-03-04 18:30:08","orig_title":"Reel Love","year":"2011-11-13","translations":["Профессиональный (двухголосый закадровый) (SDI Media)"],"quality":"dvdrip","translation":"Профессиональный (двухголосый закадровый) (SDI Media)","update":"2020-03-05 20:38:10","iframe_src":"//8543.svetacdn.in/si4jsFRrtgrT/movie/37361"},{"id":37360,"title":"Пираты Зеленого острова","kp_id":"102873","imdb_id":"tt0066228","world_art_id":null,"type":"movie","add":"2020-03-04 18:28:07","orig_title":"Los corsarios","year":"1978-08-10","translations":["Профессиональный (многоголосый закадровый)"],"quality":"dvdrip","translation":"Профессиональный (многоголосый закадровый)","update":"2020-03-05 20:35:56","iframe_src":"//8543.svetacdn.in/si4jsFRrtgrT/movie/37360"},{"id":37359,"title":"Бегущая мишень","kp_id":"9180","imdb_id":"tt0117096","world_art_id":null,"type":"movie","add":"2020-03-04 18:25:46","orig_title":"Moving Target","year":"1996-11-27","translations":["Профессиональный (многоголосый закадровый)"],"quality":"bd","translation":"Профессиональный (многоголосый закадровый)","update":"2020-03-05 20:35:22","iframe_src":"//8543.svetacdn.in/si4jsFRrtgrT/movie/37359"},{"id":37156,"title":"Кафе","kp_id":"466613","imdb_id":"tt1436572","world_art_id":null,"type":"movie","add":"2020-02-29 18:20:09","orig_title":"Café","year":"2011-08-19","translations":["Профессиональный (многоголосый закадровый)","Original (English)"],"quality":"bd","translation":"Профессиональный (многоголосый закадровый)","update":"2020-03-06 05:57:17","iframe_src":"//8543.svetacdn.in/si4jsFRrtgrT/movie/37156"},{"id":36931,"title":"Противостояние","kp_id":"224741","imdb_id":"tt0104941","world_art_id":null,"type":"movie","add":"2020-02-25 19:32:08","orig_title":"Muqabla","year":"1993-05-14","translations":["Любительский (одноголосый закадровый)"],"quality":"dvdrip","translation":"Любительский (одноголосый закадровый)","update":"2020-03-06 05:48:11","iframe_src":"//8543.svetacdn.in/si4jsFRrtgrT/movie/36931"},{"id":34663,"title":"Маленькие женщины","kp_id":"807339","imdb_id":"tt3281548","world_art_id":null,"type":"movie","add":"2020-01-02 07:24:05","orig_title":"Little Women","year":"2019-12-07","translations":["Полное дублирование (iTunes)","Original (English)"],"quality":"webdl","translation":"Полное дублирование (iTunes)","update":"2020-03-06 06:02:34","iframe_src":"//8543.svetacdn.in/si4jsFRrtgrT/movie/34663"},{"id":5237,"title":"Тайна Рагнарока","kp_id":"677961","imdb_id":"tt2363213","world_art_id":null,"type":"movie","add":"2016-09-13 09:13:59","orig_title":"Gåten Ragnarok","year":"2013-08-30","translations":["Любительский (двухголосый закадровый)","Профессиональный (многоголосый закадровый) (СТС)"],"quality":"bd","translation":"Любительский (двухголосый закадровый)","update":"2020-03-06 06:27:42","iframe_src":"//8543.svetacdn.in/si4jsFRrtgrT/movie/5237"}],"current_page":691,"first_page_url":"https://videocdn.tv/api/short?limit=100&api_token=X6EwAUfE5M9xbo7y0Bp0aPf3uXxG2KLL&cache3691=3691&page=1","from":69001,"last_page":601,"last_page_url":"https://videocdn.tv/api/short?limit=100&api_token=X6EwAUfE5M9xbo7y0Bp0aPf3uXxG2KLL&cache3691=3691&page=601","next_page_url":null,"path":"https://videocdn.tv/api/short","per_page":100,"prev_page_url":"https://videocdn.tv/api/short?limit=100&api_token=X6EwAUfE5M9xbo7y0Bp0aPf3uXxG2KLL&cache3691=3691&page=690","to":69020,"total":60055}