{"result":true,"data":[{"id":24737,"title":"На берегу большой реки","kp_id":"46256","imdb_id":"tt0230558","world_art_id":null,"type":"movie","add":"2019-04-17 10:55:04","orig_title":"Na beregu bolshoy reki","year":"1980-01-01","translations":["Оригинальная дорожка"],"quality":"dvdrip","translation":"Оригинальная дорожка","update":"2019-04-17 11:17:32","iframe_src":"//5322.svetacdn.in/si4jsFRrtgrT/movie/24737"},{"id":24734,"title":"Псы","kp_id":"404123","imdb_id":"tt1316626","world_art_id":null,"type":"movie","add":"2019-04-17 10:41:38","orig_title":"Psy","year":"1989-01-01","translations":["Оригинальная дорожка"],"quality":"dvdrip","translation":"Оригинальная дорожка","update":"2019-04-17 11:19:00","iframe_src":"//5322.svetacdn.in/si4jsFRrtgrT/movie/24734"},{"id":24733,"title":"Рудин","kp_id":"42138","imdb_id":"tt0075156","world_art_id":null,"type":"movie","add":"2019-04-17 10:36:44","orig_title":"Rudin","year":"1977-10-24","translations":["Оригинальная дорожка"],"quality":"dvdrip","translation":"Оригинальная дорожка","update":"2019-04-17 11:19:20","iframe_src":"//5322.svetacdn.in/si4jsFRrtgrT/movie/24733"},{"id":24732,"title":"Шла собака по роялю","kp_id":"43759","imdb_id":"tt0078257","world_art_id":null,"type":"movie","add":"2019-04-17 10:30:30","orig_title":"Shla sobaka po royalyu","year":"1979-09-02","translations":["Оригинальная дорожка"],"quality":"dvdrip","translation":"Оригинальная дорожка","update":"2019-04-17 11:20:18","iframe_src":"//5322.svetacdn.in/si4jsFRrtgrT/movie/24732"},{"id":24731,"title":"Соперницы","kp_id":"43917","imdb_id":"tt0090050","world_art_id":null,"type":"movie","add":"2019-04-17 10:24:08","orig_title":"Sopernitsy","year":"1985-08-01","translations":["Оригинальная дорожка"],"quality":"sat","translation":"Оригинальная дорожка","update":"2019-04-17 11:21:06","iframe_src":"//5322.svetacdn.in/si4jsFRrtgrT/movie/24731"},{"id":24730,"title":"Сукины дети","kp_id":"44031","imdb_id":"tt0100714","world_art_id":null,"type":"movie","add":"2019-04-17 09:25:41","orig_title":"Sukiny deti","year":"1991-07-08","translations":["Оригинальная дорожка"],"quality":"dvdrip","translation":"Оригинальная дорожка","update":"2019-04-17 11:23:39","iframe_src":"//5322.svetacdn.in/si4jsFRrtgrT/movie/24730"},{"id":24710,"title":"Дорогой мальчик","kp_id":"221747","imdb_id":"tt0422120","world_art_id":null,"type":"movie","add":"2019-04-17 07:36:57","orig_title":"Dorogoy malchik","year":"1975-11-24","translations":["Оригинальная дорожка"],"quality":"sat","translation":"Оригинальная дорожка","update":"2019-04-17 11:22:17","iframe_src":"//5322.svetacdn.in/si4jsFRrtgrT/movie/24710"},{"id":24685,"title":"Русский бунт","kp_id":"40718","imdb_id":"tt0167380","world_art_id":null,"type":"movie","add":"2019-04-16 08:13:07","orig_title":"Russkiy bunt","year":"2000-04-27","translations":["Оригинальная дорожка"],"quality":"dvdrip","translation":"Оригинальная дорожка","update":"2019-04-17 07:49:38","iframe_src":"//5322.svetacdn.in/si4jsFRrtgrT/movie/24685"},{"id":24684,"title":"Замок","kp_id":"41323","imdb_id":"tt0111817","world_art_id":null,"type":"movie","add":"2019-04-16 08:10:53","orig_title":"Zamok","year":"1994-01-01","translations":["Оригинальная дорожка"],"quality":"dvdrip","translation":"Оригинальная дорожка","update":"2019-04-17 07:49:05","iframe_src":"//5322.svetacdn.in/si4jsFRrtgrT/movie/24684"},{"id":24683,"title":"Берем всё на себя","kp_id":"46093","imdb_id":null,"world_art_id":null,"type":"movie","add":"2019-04-16 08:07:07","orig_title":"Берем всё на себя","year":"1981-02-14","translations":["Оригинальная дорожка"],"quality":"dvdrip","translation":"Оригинальная дорожка","update":"2019-04-17 07:46:39","iframe_src":"//5322.svetacdn.in/si4jsFRrtgrT/movie/24683"},{"id":24682,"title":"Скульптор смерти","kp_id":"446119","imdb_id":null,"world_art_id":null,"type":"movie","add":"2019-04-16 07:46:25","orig_title":"Скульптор смерти","year":"2007-12-09","translations":["Оригинальная дорожка"],"quality":"dvdrip","translation":"Оригинальная дорожка","update":"2019-04-17 07:45:31","iframe_src":"//5322.svetacdn.in/si4jsFRrtgrT/movie/24682"},{"id":24681,"title":"Приключения Васи Куролесова","kp_id":"259992","imdb_id":"tt0260295","world_art_id":null,"type":"movie","add":"2019-04-16 07:44:24","orig_title":"Priklyucheniya Vasi Kurolesova","year":"1981-01-01","translations":["Оригинальная дорожка"],"quality":"bd","translation":"Оригинальная дорожка","update":"2019-04-17 07:45:50","iframe_src":"//5322.svetacdn.in/si4jsFRrtgrT/movie/24681"},{"id":24680,"title":"Подарок черного колдуна","kp_id":"43041","imdb_id":"tt0078095","world_art_id":null,"type":"movie","add":"2019-04-16 07:42:52","orig_title":"Podarok chyornogo kolduna","year":"1979-09-23","translations":["Оригинальная дорожка"],"quality":"dvdrip","translation":"Оригинальная дорожка","update":"2019-04-17 07:44:01","iframe_src":"//5322.svetacdn.in/si4jsFRrtgrT/movie/24680"},{"id":24679,"title":"Любимая женщина механика Гаврилова","kp_id":"45137","imdb_id":"tt0155841","world_art_id":null,"type":"movie","add":"2019-04-16 07:40:43","orig_title":"Lyubimaya zhenshchina mekhanika Gavrilova","year":"1982-03-08","translations":["Оригинальная дорожка"],"quality":"dvdrip","translation":"Оригинальная дорожка","update":"2019-04-17 07:42:48","iframe_src":"//5322.svetacdn.in/si4jsFRrtgrT/movie/24679"},{"id":24535,"title":"СекСказка","kp_id":"41044","imdb_id":"tt0295598","world_art_id":null,"type":"movie","add":"2019-04-13 21:49:58","orig_title":"Sekskazka","year":"1991-01-01","translations":["Оригинальная дорожка"],"quality":"vhs","translation":"Оригинальная дорожка","update":"2019-04-17 09:20:09","iframe_src":"//5322.svetacdn.in/si4jsFRrtgrT/movie/24535"},{"id":21310,"title":"Сегодня в меню","kp_id":"415010","imdb_id":"tt1153053","world_art_id":null,"type":"movie","add":"2019-01-07 16:52:49","orig_title":"Today's Special","year":"2009-10-16","translations":["Профессиональный (многоголосый закадровый)","Original (English)"],"quality":"webdl","translation":"Профессиональный (многоголосый закадровый)","update":"2019-04-17 09:31:09","iframe_src":"//5322.svetacdn.in/si4jsFRrtgrT/movie/21310"},{"id":21309,"title":"Навстречу шторму","kp_id":"309010","imdb_id":"tt0992993","world_art_id":null,"type":"movie","add":"2019-01-07 16:51:38","orig_title":"Into the Storm","year":"2009-05-31","translations":["Профессиональный (многоголосый закадровый) (Amedia)","Original (English)"],"quality":"webdl","translation":"Профессиональный (многоголосый закадровый) (Amedia)","update":"2019-04-17 09:31:57","iframe_src":"//5322.svetacdn.in/si4jsFRrtgrT/movie/21309"},{"id":18231,"title":"Шпион, который меня кинул","kp_id":"1044982","imdb_id":"tt6663582","world_art_id":null,"type":"movie","add":"2018-08-12 09:20:14","orig_title":"The Spy Who Dumped Me","year":"2018-08-01","translations":["Полное дублирование","Любительский (многоголосый закадровый) (@MUZOBOZ@)","Original (English)"],"quality":"bd","translation":"Полное дублирование","update":"2019-04-17 09:25:27","iframe_src":"//5322.svetacdn.in/si4jsFRrtgrT/movie/18231"},{"id":5270,"title":"Кровь за кровь","kp_id":"86314","imdb_id":"tt0430105","world_art_id":null,"type":"movie","add":"2016-09-15 08:27:00","orig_title":"Four Brothers","year":"2005-08-12","translations":["Полное дублирование","Original (English)"],"quality":"bd","translation":"Полное дублирование","update":"2019-04-17 09:28:01","iframe_src":"//5322.svetacdn.in/si4jsFRrtgrT/movie/5270"},{"id":405,"title":"Прометей","kp_id":"467099","imdb_id":"tt1446714","world_art_id":null,"type":"movie","add":"2016-04-01 15:18:15","orig_title":"Prometheus","year":"2012-05-30","translations":["Полное дублирование","Original (English)"],"quality":"bd","translation":"Полное дублирование","update":"2019-04-17 09:26:45","iframe_src":"//5322.svetacdn.in/si4jsFRrtgrT/movie/405"}],"current_page":1483,"first_page_url":"https://videocdn.tv/api/short?limit=100&api_token=X6EwAUfE5M9xbo7y0Bp0aPf3uXxG2KLL&cache31483=31483&page=1","from":148201,"last_page":625,"last_page_url":"https://videocdn.tv/api/short?limit=100&api_token=X6EwAUfE5M9xbo7y0Bp0aPf3uXxG2KLL&cache31483=31483&page=625","next_page_url":null,"path":"https://videocdn.tv/api/short","per_page":100,"prev_page_url":"https://videocdn.tv/api/short?limit=100&api_token=X6EwAUfE5M9xbo7y0Bp0aPf3uXxG2KLL&cache31483=31483&page=1482","to":148220,"total":62484}