{"result":true,"data":[{"id":7581,"title":"Опасные каникулы","kp_id":"908602","imdb_id":null,"world_art_id":null,"type":"movie","add":"2016-11-23 07:29:12","orig_title":"Опасные каникулы","year":"2016-10-27","translations":["Оригинальная дорожка"],"quality":"webdl","translation":"Оригинальная дорожка","update":"2016-11-23 10:37:21","iframe_src":"//8965.svetacdn.in/71tsRs29n5tZ/movie/7581"},{"id":7580,"title":"Обмен","kp_id":"952336","imdb_id":"tt5255524","world_art_id":null,"type":"movie","add":"2016-11-22 16:39:53","orig_title":"Traded","year":"2016-06-10","translations":["Любительский (многоголосый закадровый) (Студия Пиратского Дубляжа)"],"quality":"bd","translation":"Любительский (многоголосый закадровый) (Студия Пиратского Дубляжа)","update":"2016-11-23 08:46:52","iframe_src":"//8965.svetacdn.in/71tsRs29n5tZ/movie/7580"},{"id":7571,"title":"Полярные приключения","kp_id":"935874","imdb_id":"tt4656772","world_art_id":null,"type":"movie","add":"2016-11-22 16:28:48","orig_title":"Polar Adventure","year":"2016-08-04","translations":["Полное дублирование"],"quality":"webdl","translation":"Полное дублирование","update":"2016-11-23 09:31:07","iframe_src":"//8965.svetacdn.in/71tsRs29n5tZ/movie/7571"},{"id":7570,"title":"Последняя минута","kp_id":"900993","imdb_id":"tt4614940","world_art_id":null,"type":"movie","add":"2016-11-22 16:25:48","orig_title":"Äkkilähtö","year":"2016-02-26","translations":["Авторский (одноголосый закадровый) (Карповский Антон)"],"quality":"bd","translation":"Авторский (одноголосый закадровый) (Карповский Антон)","update":"2016-11-23 09:33:10","iframe_src":"//8965.svetacdn.in/71tsRs29n5tZ/movie/7570"},{"id":7568,"title":"Валькины несчастья","kp_id":"1007650","imdb_id":null,"world_art_id":null,"type":"movie","add":"2016-11-22 07:10:06","orig_title":"Валькины несчастья","year":"2016-11-19","translations":["Оригинальная дорожка"],"quality":"webdl","translation":"Оригинальная дорожка","update":"2016-11-22 11:35:28","iframe_src":"//8965.svetacdn.in/71tsRs29n5tZ/movie/7568"},{"id":7554,"title":"Зеркало","kp_id":"45275","imdb_id":"tt0072443","world_art_id":null,"type":"movie","add":"2016-11-21 09:52:03","orig_title":"Zerkalo","year":"1975-03-07","translations":["Оригинальная дорожка"],"quality":"bd","translation":"Оригинальная дорожка","update":"2016-11-24 05:45:10","iframe_src":"//8965.svetacdn.in/71tsRs29n5tZ/movie/7554"},{"id":7553,"title":"Здравствуйте, я ваша тетя!","kp_id":"77276","imdb_id":"tt0073927","world_art_id":null,"type":"movie","add":"2016-11-21 09:50:32","orig_title":"Zdravstvuyte, ya vasha tyotya!","year":"1975-12-26","translations":["Оригинальная дорожка"],"quality":"hdtv","translation":"Оригинальная дорожка","update":"2016-11-24 05:43:13","iframe_src":"//8965.svetacdn.in/71tsRs29n5tZ/movie/7553"},{"id":7552,"title":"За двумя зайцами","kp_id":"45174","imdb_id":"tt0055635","world_art_id":null,"type":"movie","add":"2016-11-21 09:48:48","orig_title":"Za dvumya zaytsami","year":"1961-12-21","translations":["Оригинальная дорожка"],"quality":"hdtv","translation":"Оригинальная дорожка","update":"2016-11-24 05:41:18","iframe_src":"//8965.svetacdn.in/71tsRs29n5tZ/movie/7552"},{"id":7549,"title":"Цареубийца","kp_id":"14434","imdb_id":"tt0103135","world_art_id":null,"type":"movie","add":"2016-11-21 09:45:02","orig_title":"Tsareubiytsa","year":"1991-10-01","translations":["Оригинальная дорожка"],"quality":"bd","translation":"Оригинальная дорожка","update":"2016-11-24 05:27:33","iframe_src":"//8965.svetacdn.in/71tsRs29n5tZ/movie/7549"},{"id":7548,"title":"Трое в лодке, не считая собаки","kp_id":"94973","imdb_id":"tt0230898","world_art_id":null,"type":"movie","add":"2016-11-21 09:42:28","orig_title":"Troe v lodke, ne schitaya sobaki","year":"1979-05-04","translations":["Оригинальная дорожка"],"quality":"bd","translation":"Оригинальная дорожка","update":"2016-11-24 05:25:19","iframe_src":"//8965.svetacdn.in/71tsRs29n5tZ/movie/7548"},{"id":7547,"title":"Три тополя на Плющихе","kp_id":"42308","imdb_id":"tt0062393","world_art_id":null,"type":"movie","add":"2016-11-21 09:41:14","orig_title":"Tri topolya na Plyushchikhe","year":"1968-03-15","translations":["Оригинальная дорожка"],"quality":"bd","translation":"Оригинальная дорожка","update":"2016-11-24 05:23:39","iframe_src":"//8965.svetacdn.in/71tsRs29n5tZ/movie/7547"},{"id":7545,"title":"Свадьба в Малиновке","kp_id":"44045","imdb_id":"tt0062323","world_art_id":null,"type":"movie","add":"2016-11-21 09:34:52","orig_title":"Svadba v Malinovke","year":"1967-09-25","translations":["Оригинальная дорожка"],"quality":"bd","translation":"Оригинальная дорожка","update":"2016-11-23 04:41:26","iframe_src":"//8965.svetacdn.in/71tsRs29n5tZ/movie/7545"},{"id":7541,"title":"Родня","kp_id":"42115","imdb_id":"tt0083004","world_art_id":null,"type":"movie","add":"2016-11-21 09:16:20","orig_title":"Rodnya","year":"1982-03-01","translations":["Оригинальная дорожка"],"quality":"hdtv","translation":"Оригинальная дорожка","update":"2016-11-23 04:31:12","iframe_src":"//8965.svetacdn.in/71tsRs29n5tZ/movie/7541"},{"id":7539,"title":"Перед рассветом","kp_id":"42919","imdb_id":"tt0095848","world_art_id":null,"type":"movie","add":"2016-11-21 09:11:44","orig_title":"Pered rassvetom","year":"1989-10-01","translations":["Оригинальная дорожка"],"quality":"hdtv","translation":"Оригинальная дорожка","update":"2016-11-23 04:26:46","iframe_src":"//8965.svetacdn.in/71tsRs29n5tZ/movie/7539"},{"id":7533,"title":"Ответный ход","kp_id":"42857","imdb_id":"tt0168111","world_art_id":null,"type":"movie","add":"2016-11-20 08:23:04","orig_title":"Otvetnyy khod","year":"1981-05-28","translations":["Оригинальная дорожка"],"quality":"hdtv","translation":"Оригинальная дорожка","update":"2016-11-23 04:24:24","iframe_src":"//8965.svetacdn.in/71tsRs29n5tZ/movie/7533"},{"id":7532,"title":"Отряд особого назначения","kp_id":"42851","imdb_id":"tt0314475","world_art_id":null,"type":"movie","add":"2016-11-20 08:21:29","orig_title":"Otryad osobogo naznacheniya","year":"1979-02-13","translations":["Оригинальная дорожка"],"quality":"hdtv","translation":"Оригинальная дорожка","update":"2016-11-23 04:22:17","iframe_src":"//8965.svetacdn.in/71tsRs29n5tZ/movie/7532"},{"id":7531,"title":"Несколько дней из жизни И.И. Обломова","kp_id":"46415","imdb_id":"tt0079619","world_art_id":null,"type":"movie","add":"2016-11-20 08:20:09","orig_title":"Neskolko dney iz zhizni I.I. Oblomova","year":"1980-06-14","translations":["Оригинальная дорожка"],"quality":"bd","translation":"Оригинальная дорожка","update":"2016-11-22 06:52:55","iframe_src":"//8965.svetacdn.in/71tsRs29n5tZ/movie/7531"},{"id":7530,"title":"Неотправленное письмо","kp_id":"46400","imdb_id":"tt0053106","world_art_id":null,"type":"movie","add":"2016-11-20 08:18:45","orig_title":"Neotpravlennoe pismo","year":"1960-09-16","translations":["Оригинальная дорожка"],"quality":"bd","translation":"Оригинальная дорожка","update":"2016-11-22 06:51:04","iframe_src":"//8965.svetacdn.in/71tsRs29n5tZ/movie/7530"},{"id":7529,"title":"Небесный тихоход","kp_id":"46376","imdb_id":"tt0129257","world_art_id":null,"type":"movie","add":"2016-11-20 08:17:28","orig_title":"Nebesnyy tikhokhod","year":"1946-04-01","translations":["Оригинальная дорожка"],"quality":"bd","translation":"Оригинальная дорожка","update":"2016-11-22 06:48:57","iframe_src":"//8965.svetacdn.in/71tsRs29n5tZ/movie/7529"},{"id":7468,"title":"Отзвук","kp_id":"869542","imdb_id":null,"world_art_id":null,"type":"movie","add":"2016-11-17 09:32:05","orig_title":"Отзвук","year":"2015-01-01","translations":["Оригинальная дорожка"],"quality":"bd","translation":"Оригинальная дорожка","update":"2016-11-23 07:24:41","iframe_src":"//8965.svetacdn.in/71tsRs29n5tZ/movie/7468"}],"current_page":2613,"first_page_url":"https://videocdn.tv/api/short?limit=100&api_token=EnbO9h8pv1VyjbCJhg0WM9nG259n7mtz&cache32613=32613&page=1","from":261201,"last_page":708,"last_page_url":"https://videocdn.tv/api/short?limit=100&api_token=EnbO9h8pv1VyjbCJhg0WM9nG259n7mtz&cache32613=32613&page=708","next_page_url":null,"path":"https://videocdn.tv/api/short","per_page":100,"prev_page_url":"https://videocdn.tv/api/short?limit=100&api_token=EnbO9h8pv1VyjbCJhg0WM9nG259n7mtz&cache32613=32613&page=2612","to":261220,"total":70792}