{"result":true,"data":[{"id":31981,"title":"Убийцы медового месяца","kp_id":"31411","imdb_id":"tt0064437","world_art_id":null,"type":"movie","add":"2019-10-17 05:52:04","orig_title":"The Honeymoon Killers","year":"1970-02-04","translations":["Любительский (одноголосый закадровый)","Original (English)"],"quality":"bd","translation":"Любительский (одноголосый закадровый)","update":"2020-02-04 14:13:02","iframe_src":"//8332.svetacdn.in/71tsRs29n5tZ/movie/31981"},{"id":31917,"title":"Добыча","kp_id":"313500","imdb_id":"tt0086872","world_art_id":null,"type":"movie","add":"2019-10-15 06:55:44","orig_title":"Prey","year":"1981-01-21","translations":["Любительский (одноголосый закадровый)","Original (English)"],"quality":"bd","translation":"Любительский (одноголосый закадровый)","update":"2020-02-04 14:19:23","iframe_src":"//8332.svetacdn.in/71tsRs29n5tZ/movie/31917"},{"id":31916,"title":"Три испытания Тарзана","kp_id":"48127","imdb_id":"tt0057560","world_art_id":null,"type":"movie","add":"2019-10-15 06:53:01","orig_title":"Tarzan's Three Challenges","year":"1963-01-29","translations":["Любительский (одноголосый закадровый)","Original (English)"],"quality":"bd","translation":"Любительский (одноголосый закадровый)","update":"2020-02-04 14:11:34","iframe_src":"//8332.svetacdn.in/71tsRs29n5tZ/movie/31916"},{"id":31874,"title":"Три монеты в фонтане","kp_id":"12507","imdb_id":"tt0047580","world_art_id":null,"type":"movie","add":"2019-10-14 13:43:52","orig_title":"Three Coins in the Fountain","year":"1954-05-20","translations":["Профессиональный (многоголосый закадровый) (5-й канал СПб)","Original (English)"],"quality":"bd","translation":"Профессиональный (многоголосый закадровый) (5-й канал СПб)","update":"2020-02-04 14:14:35","iframe_src":"//8332.svetacdn.in/71tsRs29n5tZ/movie/31874"},{"id":31871,"title":"Элис, милая Элис","kp_id":"31822","imdb_id":"tt0076150","world_art_id":null,"type":"movie","add":"2019-10-14 13:40:26","orig_title":"Communion","year":"1976-11-12","translations":["Профессиональный (многоголосый закадровый)","Original (English)"],"quality":"bd","translation":"Профессиональный (многоголосый закадровый)","update":"2020-02-04 14:15:48","iframe_src":"//8332.svetacdn.in/71tsRs29n5tZ/movie/31871"},{"id":31870,"title":"Семь подружек","kp_id":"5149","imdb_id":"tt0177215","world_art_id":null,"type":"movie","add":"2019-10-14 13:37:51","orig_title":"Seven Girlfriends","year":"1999-11-06","translations":["Профессиональный (двухголосый закадровый)","Original (English)"],"quality":"webdl","translation":"Профессиональный (двухголосый закадровый)","update":"2020-02-04 14:27:01","iframe_src":"//8332.svetacdn.in/71tsRs29n5tZ/movie/31870"},{"id":31868,"title":"Колдовская доска","kp_id":"38060","imdb_id":"tt0090327","world_art_id":null,"type":"movie","add":"2019-10-14 13:35:11","orig_title":"Witchboard","year":"1986-12-31","translations":["Авторский (одноголосый закадровый) (Дохалов Вартан)","Профессиональный (двухголосый закадровый) (НТВ)","Original (English)"],"quality":"bd","translation":"Авторский (одноголосый закадровый) (Дохалов Вартан)","update":"2020-02-04 12:04:45","iframe_src":"//8332.svetacdn.in/71tsRs29n5tZ/movie/31868"},{"id":31867,"title":"Газ! Или как пришлось уничтожить мир, чтобы его спасти","kp_id":"7278","imdb_id":"tt0065760","world_art_id":null,"type":"movie","add":"2019-10-14 13:34:25","orig_title":"Gas! -Or- It Became Necessary to Destroy the World in Order to Save It.","year":"1971-02-17","translations":["Профессиональный (двухголосый закадровый)","Original (English)"],"quality":"bd","translation":"Профессиональный (двухголосый закадровый)","update":"2020-02-04 14:18:13","iframe_src":"//8332.svetacdn.in/71tsRs29n5tZ/movie/31867"},{"id":31866,"title":"Дуэль в Диабло","kp_id":"14478","imdb_id":"tt0060355","world_art_id":null,"type":"movie","add":"2019-10-14 13:33:17","orig_title":"Duel at Diablo","year":"1966-05-12","translations":["Профессиональный (двухголосый закадровый) (НТВ)","Авторский (одноголосый закадровый) (Кузнецов Сергей)","Original (English)"],"quality":"bd","translation":"Профессиональный (двухголосый закадровый) (НТВ)","update":"2020-02-04 14:17:04","iframe_src":"//8332.svetacdn.in/71tsRs29n5tZ/movie/31866"},{"id":31865,"title":"Летние гастроли","kp_id":"13166","imdb_id":"tt0043012","world_art_id":null,"type":"movie","add":"2019-10-14 13:32:18","orig_title":"Summer Stock","year":"1950-08-31","translations":["Профессиональный (одноголосый закадровый)","Original (English)"],"quality":"bd","translation":"Профессиональный (одноголосый закадровый)","update":"2020-02-04 14:10:40","iframe_src":"//8332.svetacdn.in/71tsRs29n5tZ/movie/31865"},{"id":31864,"title":"Девушки Джесси","kp_id":"18563","imdb_id":"tt0073202","world_art_id":null,"type":"movie","add":"2019-10-14 13:31:19","orig_title":"Jessi's Girls","year":"1975-04-01","translations":["Любительский (одноголосый закадровый)","Original (English)"],"quality":"webdl","translation":"Любительский (одноголосый закадровый)","update":"2020-02-04 14:25:14","iframe_src":"//8332.svetacdn.in/71tsRs29n5tZ/movie/31864"},{"id":31862,"title":"Стальные руки","kp_id":"181560","imdb_id":"tt0091166","world_art_id":null,"type":"movie","add":"2019-10-14 13:29:11","orig_title":"Vendetta dal futuro","year":"1986-03-26","translations":["Любительский (одноголосый закадровый)","Original (English)"],"quality":"bd","translation":"Любительский (одноголосый закадровый)","update":"2020-02-04 14:20:04","iframe_src":"//8332.svetacdn.in/71tsRs29n5tZ/movie/31862"},{"id":31856,"title":"Колдовская доска 2","kp_id":"32354","imdb_id":"tt0108577","world_art_id":null,"type":"movie","add":"2019-10-14 13:22:49","orig_title":"Witchboard 2: The Devil's Doorway","year":"1993-07-28","translations":["Авторский (одноголосый закадровый) (Гаврилов Андрей)","Original (English)"],"quality":"bd","translation":"Авторский (одноголосый закадровый) (Гаврилов Андрей)","update":"2020-02-04 12:02:51","iframe_src":"//8332.svetacdn.in/71tsRs29n5tZ/movie/31856"},{"id":31805,"title":"Что случилось с тетушкой Элис?","kp_id":"59854","imdb_id":"tt0065206","world_art_id":null,"type":"movie","add":"2019-10-13 07:04:58","orig_title":"What Ever Happened to Aunt Alice?","year":"1969-07-23","translations":["Профессиональный (многоголосый закадровый) (5-й канал СПб)","Original (English)"],"quality":"bd","translation":"Профессиональный (многоголосый закадровый) (5-й канал СПб)","update":"2020-02-04 14:20:58","iframe_src":"//8332.svetacdn.in/71tsRs29n5tZ/movie/31805"},{"id":31801,"title":"Последний из достойнейших","kp_id":"2232","imdb_id":"tt0099991","world_art_id":null,"type":"movie","add":"2019-10-13 06:57:53","orig_title":"The Last of the Finest","year":"1990-03-09","translations":["Полное дублирование","Профессиональный (двухголосый закадровый) (НТВ)","Original (English)"],"quality":"bd","translation":"Полное дублирование","update":"2020-02-04 14:13:49","iframe_src":"//8332.svetacdn.in/71tsRs29n5tZ/movie/31801"},{"id":31734,"title":"Стоик: Выжить любой ценой","kp_id":"415379","imdb_id":"tt1236484","world_art_id":null,"type":"movie","add":"2019-10-11 17:22:11","orig_title":"Stoic","year":"2009-04-12","translations":["Профессиональный (многоголосый закадровый)","Original (English)"],"quality":"bd","translation":"Профессиональный (многоголосый закадровый)","update":"2020-02-04 14:09:54","iframe_src":"//8332.svetacdn.in/71tsRs29n5tZ/movie/31734"},{"id":31686,"title":"Её величество Миссис Браун","kp_id":"18851","imdb_id":"tt0119280","world_art_id":null,"type":"movie","add":"2019-10-10 06:01:21","orig_title":"Mrs Brown","year":"1997-07-18","translations":["Профессиональный (двухголосый закадровый)","Original (English)"],"quality":"bd","translation":"Профессиональный (двухголосый закадровый)","update":"2020-02-04 14:08:28","iframe_src":"//8332.svetacdn.in/71tsRs29n5tZ/movie/31686"},{"id":31636,"title":"Вещественное доказательство","kp_id":"4960","imdb_id":"tt0098093","world_art_id":null,"type":"movie","add":"2019-10-09 08:35:58","orig_title":"Physical Evidence","year":"1989-01-27","translations":["Авторский (одноголосый закадровый) (Гаврилов Андрей)","Профессиональный (многоголосый закадровый)","Original (English)"],"quality":"bd","translation":"Авторский (одноголосый закадровый) (Гаврилов Андрей)","update":"2020-02-04 14:09:13","iframe_src":"//8332.svetacdn.in/71tsRs29n5tZ/movie/31636"},{"id":31619,"title":"Палач","kp_id":"26963","imdb_id":"tt0052877","world_art_id":null,"type":"movie","add":"2019-10-09 08:10:36","orig_title":"The Hangman","year":"1959-03-05","translations":["Любительский (двухголосый закадровый)","Original (English)"],"quality":"bd","translation":"Любительский (двухголосый закадровый)","update":"2020-02-04 14:12:34","iframe_src":"//8332.svetacdn.in/71tsRs29n5tZ/movie/31619"},{"id":30958,"title":"Жили-были","kp_id":"1001","imdb_id":"tt0037150","world_art_id":null,"type":"movie","add":"2019-09-18 19:20:47","orig_title":"Once Upon a Time","year":"1944-05-11","translations":["Авторский (одноголосый закадровый) (Данилов Владислав | Kenum)","Original (English)"],"quality":"webdl","translation":"Авторский (одноголосый закадровый) (Данилов Владислав | Kenum)","update":"2020-02-04 14:26:07","iframe_src":"//8332.svetacdn.in/71tsRs29n5tZ/movie/30958"}],"current_page":961,"first_page_url":"https://videocdn.tv/api/short?limit=100&api_token=EnbO9h8pv1VyjbCJhg0WM9nG259n7mtz&cache3961=3961&page=1","from":96001,"last_page":636,"last_page_url":"https://videocdn.tv/api/short?limit=100&api_token=EnbO9h8pv1VyjbCJhg0WM9nG259n7mtz&cache3961=3961&page=636","next_page_url":null,"path":"https://videocdn.tv/api/short","per_page":100,"prev_page_url":"https://videocdn.tv/api/short?limit=100&api_token=EnbO9h8pv1VyjbCJhg0WM9nG259n7mtz&cache3961=3961&page=960","to":96020,"total":63593}