{"result":true,"data":[{"id":51808,"title":"Парк с привидениями","kp_id":"1201481","imdb_id":"tt9137056","world_art_id":null,"type":"movie","add":"2021-07-16 06:56:10","orig_title":"Eiga: Toshimaen","year":"2019-01-01","translations":["Любительский (многоголосый закадровый) (Синема УС)"],"quality":"webdl","translation":"Любительский (многоголосый закадровый) (Синема УС)","update":"2021-07-16 08:49:43","iframe_src":"//83.svetacdn.in/PfJ50H0ZBPg3/movie/51808"},{"id":51806,"title":"Прощённый","kp_id":"1138765","imdb_id":"tt3696180","world_art_id":null,"type":"movie","add":"2021-07-16 06:49:00","orig_title":"The Forgiven","year":"2020-01-01","translations":["Любительский (многоголосый закадровый) (Синема УС)"],"quality":"webdl","translation":"Любительский (многоголосый закадровый) (Синема УС)","update":"2021-07-16 09:30:21","iframe_src":"//83.svetacdn.in/PfJ50H0ZBPg3/movie/51806"},{"id":51801,"title":"На волнах","kp_id":"1116271","imdb_id":"tt7379232","world_art_id":null,"type":"movie","add":"2021-07-16 06:24:42","orig_title":"Into the Waves","year":"2020-04-01","translations":["Любительский (многоголосый закадровый) (Синема УС)"],"quality":"webdl","translation":"Любительский (многоголосый закадровый) (Синема УС)","update":"2021-07-16 08:48:06","iframe_src":"//83.svetacdn.in/PfJ50H0ZBPg3/movie/51801"},{"id":51800,"title":"Никакой любви","kp_id":"4484713","imdb_id":"tt14624430","world_art_id":null,"type":"movie","add":"2021-07-16 06:21:05","orig_title":"No Lost Love","year":"2021-01-01","translations":["Любительский (многоголосый закадровый) (Синема УС)"],"quality":"webdl","translation":"Любительский (многоголосый закадровый) (Синема УС)","update":"2021-07-16 08:49:16","iframe_src":"//83.svetacdn.in/PfJ50H0ZBPg3/movie/51800"},{"id":51799,"title":"Надя, Баттерфляй","kp_id":"1387202","imdb_id":"tt12439508","world_art_id":null,"type":"movie","add":"2021-07-16 06:18:04","orig_title":"Nadia, Butterfly","year":"2020-09-18","translations":["Любительский (многоголосый закадровый) (Синема УС)"],"quality":"webdl","translation":"Любительский (многоголосый закадровый) (Синема УС)","update":"2021-07-16 08:50:40","iframe_src":"//83.svetacdn.in/PfJ50H0ZBPg3/movie/51799"},{"id":51798,"title":"Сосуд из человеческой плоти","kp_id":"1266770","imdb_id":"tt10342350","world_art_id":null,"type":"movie","add":"2021-07-16 06:12:48","orig_title":"A Ship of Human Skin","year":"2019-01-01","translations":["Любительский (многоголосый закадровый) (AlphaProject)"],"quality":"webdl","translation":"Любительский (многоголосый закадровый) (AlphaProject)","update":"2021-07-16 09:29:07","iframe_src":"//83.svetacdn.in/PfJ50H0ZBPg3/movie/51798"},{"id":51796,"title":"Однорукий боксер","kp_id":"173544","imdb_id":"tt0067009","world_art_id":null,"type":"movie","add":"2021-07-16 05:36:01","orig_title":"Du bei chuan wang","year":"1972-08-02","translations":["Авторский (одноголосый закадровый) (Алексеев Антон)"],"quality":"bd","translation":"Авторский (одноголосый закадровый) (Алексеев Антон)","update":"2021-07-16 11:23:13","iframe_src":"//83.svetacdn.in/PfJ50H0ZBPg3/movie/51796"},{"id":51794,"title":"Генерал спит стоя","kp_id":"200889","imdb_id":"tt0175654","world_art_id":null,"type":"movie","add":"2021-07-15 21:23:19","orig_title":"Il generale dorme in piedi","year":"1972-10-31","translations":["Любительский (одноголосый закадровый) (Пестриков Дмитрий)"],"quality":"dvdrip","translation":"Любительский (одноголосый закадровый) (Пестриков Дмитрий)","update":"2021-07-16 08:32:32","iframe_src":"//83.svetacdn.in/PfJ50H0ZBPg3/movie/51794"},{"id":51793,"title":"Убийца у меня во дворе","kp_id":"4438822","imdb_id":"tt14349426","world_art_id":null,"type":"movie","add":"2021-07-15 21:17:21","orig_title":"The Killer in My Backyard","year":"2021-06-17","translations":["Любительский (многоголосый закадровый) (AlphaProject)"],"quality":"webdl","translation":"Любительский (многоголосый закадровый) (AlphaProject)","update":"2021-07-16 09:27:57","iframe_src":"//83.svetacdn.in/PfJ50H0ZBPg3/movie/51793"},{"id":51792,"title":"Посторонние","kp_id":"421918","imdb_id":"tt1262914","world_art_id":null,"type":"movie","add":"2021-07-15 21:14:48","orig_title":"The Intruders","year":"2017-12-31","translations":["Любительский (многоголосый закадровый) (Синема УС)"],"quality":"webdl","translation":"Любительский (многоголосый закадровый) (Синема УС)","update":"2021-07-16 09:27:18","iframe_src":"//83.svetacdn.in/PfJ50H0ZBPg3/movie/51792"},{"id":51791,"title":"Всё или ничего","kp_id":"1067942","imdb_id":"tt6907054","world_art_id":null,"type":"movie","add":"2021-07-15 20:49:47","orig_title":"Collisions","year":"2018-10-12","translations":["Любительский (многоголосый закадровый) (Синема УС)"],"quality":"webdl","translation":"Любительский (многоголосый закадровый) (Синема УС)","update":"2021-07-16 09:26:36","iframe_src":"//83.svetacdn.in/PfJ50H0ZBPg3/movie/51791"},{"id":51789,"title":"12 дней с Господом","kp_id":"1110817","imdb_id":"tt6976454","world_art_id":null,"type":"movie","add":"2021-07-15 20:27:08","orig_title":"12 Days with God","year":"2019-01-01","translations":["Любительский (многоголосый закадровый) (Синема УС)"],"quality":"webdl","translation":"Любительский (многоголосый закадровый) (Синема УС)","update":"2021-07-16 08:48:52","iframe_src":"//83.svetacdn.in/PfJ50H0ZBPg3/movie/51789"},{"id":51788,"title":"2 Недели в Лагосе","kp_id":"1268748","imdb_id":"tt10241024","world_art_id":null,"type":"movie","add":"2021-07-15 20:24:03","orig_title":"2 Weeks in Lagos","year":"2019-10-19","translations":["Любительский (многоголосый закадровый) (AlphaProject)"],"quality":"webdl","translation":"Любительский (многоголосый закадровый) (AlphaProject)","update":"2021-07-16 08:47:01","iframe_src":"//83.svetacdn.in/PfJ50H0ZBPg3/movie/51788"},{"id":51787,"title":"Шейлок 2","kp_id":"15005","imdb_id":"tt0175159","world_art_id":null,"type":"movie","add":"2021-07-15 20:01:09","orig_title":"Shiloh 2: Shiloh Season","year":"1999-04-01","translations":["Полное дублирование"],"quality":"dvdrip","translation":"Полное дублирование","update":"2021-07-16 08:36:28","iframe_src":"//83.svetacdn.in/PfJ50H0ZBPg3/movie/51787"},{"id":51786,"title":"Замерзшая река","kp_id":"287872","imdb_id":"tt0978759","world_art_id":null,"type":"movie","add":"2021-07-15 19:43:37","orig_title":"Frozen River","year":"2008-01-18","translations":["Профессиональный (двухголосый закадровый) (НТВ)"],"quality":"bd","translation":"Профессиональный (двухголосый закадровый) (НТВ)","update":"2021-07-16 08:34:12","iframe_src":"//83.svetacdn.in/PfJ50H0ZBPg3/movie/51786"},{"id":49511,"title":"Волшебный дракон","kp_id":"1024706","imdb_id":"tt5562070","world_art_id":null,"type":"movie","add":"2021-04-11 16:28:51","orig_title":"Wish Dragon","year":"2021-01-15","translations":["Любительский (двухголосый закадровый) (Колобок)","Полное дублирование (SDI Media | Iyuno-SDI Group Russia)","Original (English)"],"quality":"webdl","translation":"Любительский (двухголосый закадровый) (Колобок)","update":"2021-07-16 07:07:07","iframe_src":"//83.svetacdn.in/PfJ50H0ZBPg3/movie/49511"},{"id":42318,"title":"Она умрёт завтра","kp_id":"1341222","imdb_id":"tt11614912","world_art_id":null,"type":"movie","add":"2020-08-06 11:00:01","orig_title":"She Dies Tomorrow","year":"2020-07-31","translations":["Любительский (многоголосый закадровый) (@MUZOBOZ@)","Профессиональный (многоголосый закадровый) (iTunes)","Original (English)"],"quality":"webdl","translation":"Любительский (многоголосый закадровый) (@MUZOBOZ@)","update":"2021-07-16 07:10:45","iframe_src":"//83.svetacdn.in/PfJ50H0ZBPg3/movie/42318"},{"id":7863,"title":"Проект С.Е.Р.А.","kp_id":"761049","imdb_id":"tt2806258","world_art_id":null,"type":"serial","add":"2020-06-15 02:40:50","orig_title":"Project: SERA","year":"2013-01-30","translations":["Любительский (одноголосый закадровый) (Хихикающий доктор)"],"seasons_count":1,"episodes_count":6,"episodes":6,"update":"2020-06-15 05:24:06","iframe_src":"//83.svetacdn.in/PfJ50H0ZBPg3/tv-series/7863"},{"id":7860,"title":"У вас будет ребёнок","kp_id":"894030","imdb_id":"tt4741506","world_art_id":null,"type":"serial","add":"2020-06-14 06:59:41","orig_title":"U vas budet rebyonok","year":"2014-03-03","translations":["Оригинальная дорожка"],"seasons_count":1,"episodes_count":8,"episodes":8,"update":"2020-06-14 09:17:20","iframe_src":"//83.svetacdn.in/PfJ50H0ZBPg3/tv-series/7860"},{"id":7859,"title":"С любимыми не расстаются","kp_id":"927646","imdb_id":null,"world_art_id":null,"type":"serial","add":"2020-06-14 06:57:08","orig_title":"С любимыми не расстаются","year":"2015-08-29","translations":["Оригинальная дорожка"],"seasons_count":1,"episodes_count":2,"episodes":2,"update":"2020-06-14 09:18:32","iframe_src":"//83.svetacdn.in/PfJ50H0ZBPg3/tv-series/7859"},{"id":7858,"title":"Кукловоды","kp_id":"807473","imdb_id":null,"world_art_id":null,"type":"serial","add":"2020-06-14 05:43:50","orig_title":"Кукловоды","year":"2013-11-09","translations":["Оригинальная дорожка"],"seasons_count":1,"episodes_count":4,"episodes":4,"update":"2020-06-14 09:22:57","iframe_src":"//83.svetacdn.in/PfJ50H0ZBPg3/tv-series/7858"},{"id":7857,"title":"Пансионат «Сказка», или Чудеса включены","kp_id":"957482","imdb_id":null,"world_art_id":null,"type":"serial","add":"2020-06-14 05:41:20","orig_title":"Пансионат «Сказка», или Чудеса включены","year":"2015-12-30","translations":["Оригинальная дорожка"],"seasons_count":1,"episodes_count":4,"episodes":4,"update":"2020-06-14 09:25:09","iframe_src":"//83.svetacdn.in/PfJ50H0ZBPg3/tv-series/7857"},{"id":7856,"title":"Декорации убийства","kp_id":"951948","imdb_id":null,"world_art_id":null,"type":"serial","add":"2020-06-14 03:51:56","orig_title":"Декорации убийства","year":"2015-12-20","translations":["Оригинальная дорожка"],"seasons_count":1,"episodes_count":4,"episodes":4,"update":"2020-06-14 05:25:59","iframe_src":"//83.svetacdn.in/PfJ50H0ZBPg3/tv-series/7856"},{"id":7855,"title":"Карл Великий","kp_id":"279025","imdb_id":"tt0126737","world_art_id":null,"type":"serial","add":"2020-06-14 03:49:49","orig_title":"Charlemagne, le prince à cheval","year":"1994-02-20","translations":["Профессиональный (многоголосый закадровый) (СВ-Дубль)"],"seasons_count":1,"episodes_count":3,"episodes":3,"update":"2020-06-14 05:20:46","iframe_src":"//83.svetacdn.in/PfJ50H0ZBPg3/tv-series/7855"},{"id":7854,"title":"Дом для куклы","kp_id":"968481","imdb_id":null,"world_art_id":null,"type":"serial","add":"2020-06-14 03:47:42","orig_title":"Дом для куклы","year":"2016-03-26","translations":["Оригинальная дорожка"],"seasons_count":1,"episodes_count":2,"episodes":2,"update":"2020-06-14 05:18:55","iframe_src":"//83.svetacdn.in/PfJ50H0ZBPg3/tv-series/7854"},{"id":7846,"title":"Кто я","kp_id":"962360","imdb_id":null,"world_art_id":null,"type":"serial","add":"2020-06-13 00:54:59","orig_title":"Кто я","year":"2016-03-05","translations":["Оригинальная дорожка"],"seasons_count":1,"episodes_count":2,"episodes":2,"update":"2020-06-14 09:11:27","iframe_src":"//83.svetacdn.in/PfJ50H0ZBPg3/tv-series/7846"},{"id":7839,"title":"Богом данная","kp_id":"667032","imdb_id":"tt6805492","world_art_id":null,"type":"serial","add":"2020-06-12 12:03:25","orig_title":"Chotti Bahu","year":"2008-11-08","translations":["Профессиональный (многоголосый закадровый) (ZEE TV)"],"seasons_count":1,"episodes_count":20,"episodes":20,"update":"2020-06-13 21:06:23","iframe_src":"//83.svetacdn.in/PfJ50H0ZBPg3/tv-series/7839"},{"id":7836,"title":"Турецкий для начинающих","kp_id":"404939","imdb_id":"tt0469009","world_art_id":null,"type":"serial","add":"2020-06-12 07:48:09","orig_title":"Türkisch für Anfänger","year":"2006-03-14","translations":["Профессиональный (многоголосый закадровый) (MTV)"],"seasons_count":3,"episodes_count":52,"episodes":16,"update":"2020-06-14 17:19:44","iframe_src":"//83.svetacdn.in/PfJ50H0ZBPg3/tv-series/7836"},{"id":7835,"title":"Первая волна","kp_id":"271679","imdb_id":"tt0160277","world_art_id":null,"type":"serial","add":"2020-06-12 06:04:42","orig_title":"First Wave","year":"1998-09-09","translations":["Профессиональный (многоголосый закадровый) (ТВ6)","Профессиональный (многоголосый закадровый)"],"seasons_count":3,"episodes_count":66,"episodes":22,"update":"2020-06-14 18:14:32","iframe_src":"//83.svetacdn.in/PfJ50H0ZBPg3/tv-series/7835"},{"id":7825,"title":"Неодинокие","kp_id":"470310","imdb_id":null,"world_art_id":null,"type":"serial","add":"2020-06-11 10:38:13","orig_title":"Neodinokiye","year":"2009-08-20","translations":["Оригинальная дорожка"],"seasons_count":1,"episodes_count":4,"episodes":4,"update":"2020-06-13 19:36:15","iframe_src":"//83.svetacdn.in/PfJ50H0ZBPg3/tv-series/7825"},{"id":7824,"title":"Иффет","kp_id":"724546","imdb_id":"tt2509222","world_art_id":null,"type":"serial","add":"2020-06-11 09:40:38","orig_title":"Iffet","year":"2011-09-17","translations":["Профессиональный (многоголосый закадровый)"],"seasons_count":2,"episodes_count":40,"episodes":5,"update":"2020-06-13 19:20:19","iframe_src":"//83.svetacdn.in/PfJ50H0ZBPg3/tv-series/7824"},{"id":7818,"title":"Милосердие","kp_id":"785857","imdb_id":"tt2716158","world_art_id":null,"type":"serial","add":"2020-06-10 20:37:45","orig_title":"Merhamet","year":"2013-02-13","translations":["Авторский (одноголосый закадровый) (Котов Вячеслав)","Авторский (одноголосый закадровый) (Котова Ирина)"],"seasons_count":1,"episodes_count":44,"episodes":44,"update":"2020-06-13 18:15:48","iframe_src":"//83.svetacdn.in/PfJ50H0ZBPg3/tv-series/7818"},{"id":7817,"title":"Серебро","kp_id":"491570","imdb_id":"tt0441924","world_art_id":null,"type":"serial","add":"2020-06-10 20:16:16","orig_title":"Gümüs","year":"2007-01-01","translations":["Любительский (многоголосый закадровый)","Любительский (одноголосый закадровый)"],"seasons_count":2,"episodes_count":61,"episodes":40,"update":"2020-06-13 17:52:12","iframe_src":"//83.svetacdn.in/PfJ50H0ZBPg3/tv-series/7817"},{"id":41084,"title":"Письмо с гор","kp_id":"157071","imdb_id":"tt0283878","world_art_id":null,"type":"movie","add":"2020-06-09 22:23:56","orig_title":"Amida-do dayori","year":"2002-10-05","translations":["Любительский (одноголосый закадровый) (D.I.M.)","Любительский (одноголосый закадровый) (D.I.M.)"],"quality":"dvdrip","translation":"Любительский (одноголосый закадровый) (D.I.M.)","update":"2021-07-16 11:21:54","iframe_src":"//83.svetacdn.in/PfJ50H0ZBPg3/movie/41084"},{"id":7739,"title":"Аллергия на монстров","kp_id":"469549","imdb_id":"tt0850641","world_art_id":null,"type":"serial","add":"2020-06-04 11:55:35","orig_title":"Monster Allergy","year":"2006-05-24","translations":["Профессиональный (многоголосый закадровый)"],"seasons_count":2,"episodes_count":52,"episodes":26,"update":"2020-06-14 09:07:14","iframe_src":"//83.svetacdn.in/PfJ50H0ZBPg3/tv-series/7739"},{"id":7696,"title":"Чёрная лестница","kp_id":"1142638","imdb_id":null,"world_art_id":null,"type":"serial","add":"2020-06-01 13:52:03","orig_title":"Чёрная лестница","year":"2020-06-01","translations":["Оригинальная дорожка"],"seasons_count":1,"episodes_count":20,"episodes":20,"update":"2020-06-13 15:35:55","iframe_src":"//83.svetacdn.in/PfJ50H0ZBPg3/tv-series/7696"},{"id":5034,"title":"Черепашки мутанты ниндзя","kp_id":"94890","imdb_id":"tt0131613","world_art_id":null,"type":"serial","add":"2019-08-15 05:54:50","orig_title":"Teenage Mutant Ninja Turtles","year":"1987-12-14","translations":["Оригинальная дорожка","Полное дублирование","Профессиональный (многоголосый закадровый)","Профессиональный (многоголосый закадровый) (2x2)"],"seasons_count":10,"episodes_count":191,"episodes":8,"update":"2020-06-13 14:53:20","iframe_src":"//83.svetacdn.in/PfJ50H0ZBPg3/tv-series/5034"},{"id":15502,"title":"Другие 48 часов","kp_id":"2693","imdb_id":"tt0099044","world_art_id":null,"type":"movie","add":"2018-03-07 22:51:17","orig_title":"Another 48 Hrs.","year":"1990-06-08","translations":["Профессиональный (многоголосый закадровый)","Профессиональный (двухголосый закадровый) (НТВ)","Авторский (одноголосый закадровый) (Гаврилов Андрей)","Авторский (одноголосый закадровый) (Горчаков Василий)","Авторский (одноголосый закадровый) (Яроцкий Михаил | Kyberpunk)","Original (English)","Профессиональный (двухголосый закадровый)","Профессиональный (двухголосый закадровый) (Премьер Видео Фильм)","Профессиональный (многоголосый закадровый) (СТС)"],"quality":"webdl","translation":"Профессиональный (многоголосый закадровый)","update":"2021-07-16 10:26:53","iframe_src":"//83.svetacdn.in/PfJ50H0ZBPg3/movie/15502"},{"id":1500,"title":"Охота на Унабомбера","kp_id":"1009475","imdb_id":"tt5618256","world_art_id":null,"type":"serial","add":"2017-08-30 14:23:00","orig_title":"Manhunt: Unabomber","year":"2017-08-01","translations":["Профессиональный (многоголосый закадровый) (BaibaKo)","Профессиональный (многоголосый закадровый) (Good People)","Профессиональный (многоголосый закадровый) (Jaskier)","Любительский (многоголосый закадровый) (Octopus)","Профессиональный (многоголосый закадровый) (Novamedia)"],"seasons_count":2,"episodes_count":18,"episodes":10,"update":"2020-06-13 21:14:07","iframe_src":"//83.svetacdn.in/PfJ50H0ZBPg3/tv-series/1500"},{"id":7255,"title":"Бейскетбол","kp_id":"4667","imdb_id":"tt0131857","world_art_id":null,"type":"movie","add":"2016-11-09 16:08:50","orig_title":"BASEketball","year":"1998-07-28","translations":["Профессиональный (двухголосый закадровый)","Авторский (одноголосый закадровый) (Кашкин Александр | Первомайский)","Original (English)","Профессиональный (двухголосый закадровый) (iTunes)","Профессиональный (многоголосый закадровый)"],"quality":"hdtv","translation":"Профессиональный (двухголосый закадровый)","update":"2021-07-16 10:43:40","iframe_src":"//83.svetacdn.in/PfJ50H0ZBPg3/movie/7255"}],"current_page":282,"first_page_url":"https://videocdn.tv/api/short?limit=100&api_token=RgFQdUIR2dRmwv8iYa5SnFNgnw3vpjKj&cache3282=3282&page=1","from":28101,"last_page":689,"last_page_url":"https://videocdn.tv/api/short?limit=100&api_token=RgFQdUIR2dRmwv8iYa5SnFNgnw3vpjKj&cache3282=3282&page=689","next_page_url":"https://videocdn.tv/api/short?limit=100&api_token=RgFQdUIR2dRmwv8iYa5SnFNgnw3vpjKj&cache3282=3282&page=283","path":"https://videocdn.tv/api/short","per_page":100,"prev_page_url":"https://videocdn.tv/api/short?limit=100&api_token=RgFQdUIR2dRmwv8iYa5SnFNgnw3vpjKj&cache3282=3282&page=281","to":28140,"total":68803}