{"result":true,"data":[{"id":52363,"title":"Богатство Куама","kp_id":"1427907","imdb_id":"tt13113544","world_art_id":null,"type":"movie","add":"2021-08-11 12:21:39","orig_title":"Quam's Money","year":"2020-12-06","translations":["Любительский (многоголосый закадровый) (Синема УС)"],"quality":"webdl","translation":"Любительский (многоголосый закадровый) (Синема УС)","update":"2021-08-11 16:42:43","iframe_src":"//2413.svetacdn.in/IAF0wWTdNYZm/movie/52363"},{"id":52362,"title":"Камень, ножницы, бумага","kp_id":"1155017","imdb_id":"tt8474184","world_art_id":null,"type":"movie","add":"2021-08-11 12:19:22","orig_title":"Piedra, papel y tijera","year":"2019-08-22","translations":["Любительский (многоголосый закадровый) (Синема УС)"],"quality":"webdl","translation":"Любительский (многоголосый закадровый) (Синема УС)","update":"2021-08-11 15:09:45","iframe_src":"//2413.svetacdn.in/IAF0wWTdNYZm/movie/52362"},{"id":52361,"title":"Параллель","kp_id":"4412188","imdb_id":"tt13952124","world_art_id":null,"type":"movie","add":"2021-08-11 12:17:23","orig_title":"Ego-Nia","year":"2018-08-10","translations":["Любительский (многоголосый закадровый) (Синема УС)"],"quality":"webdl","translation":"Любительский (многоголосый закадровый) (Синема УС)","update":"2021-08-11 15:10:13","iframe_src":"//2413.svetacdn.in/IAF0wWTdNYZm/movie/52361"},{"id":52360,"title":"Оккультист 2: Убийства подопытных кроликов","kp_id":"4412078","imdb_id":"tt14287118","world_art_id":null,"type":"movie","add":"2021-08-11 12:15:49","orig_title":"The Occultist 2: Bloody Guinea Pigs","year":"2020-06-01","translations":["Любительский (многоголосый закадровый) (Синема УС)"],"quality":"webdl","translation":"Любительский (многоголосый закадровый) (Синема УС)","update":"2021-08-11 15:10:30","iframe_src":"//2413.svetacdn.in/IAF0wWTdNYZm/movie/52360"},{"id":52357,"title":"Гардеробщица","kp_id":"993569","imdb_id":"tt5887432","world_art_id":null,"type":"movie","add":"2021-08-11 05:30:35","orig_title":"Garderobshchitsa","year":"2016-06-01","translations":["Оригинальная дорожка"],"quality":"webdl","translation":"Оригинальная дорожка","update":"2021-08-11 13:41:28","iframe_src":"//2413.svetacdn.in/IAF0wWTdNYZm/movie/52357"},{"id":52356,"title":"Гора Хлои","kp_id":"758612","imdb_id":"tt2823014","world_art_id":null,"type":"movie","add":"2021-08-11 03:34:24","orig_title":"Chloe's Mountain","year":"2021-08-09","translations":["Любительский (многоголосый закадровый) (@MUZOBOZ@)"],"quality":"webdl","translation":"Любительский (многоголосый закадровый) (@MUZOBOZ@)","update":"2021-08-11 19:21:45","iframe_src":"//2413.svetacdn.in/IAF0wWTdNYZm/movie/52356"},{"id":52355,"title":"Родство","kp_id":"1341871","imdb_id":"tt11546920","world_art_id":null,"type":"movie","add":"2021-08-11 03:33:34","orig_title":"Kin Dread","year":"2021-08-08","translations":["Любительский (многоголосый закадровый) (@MUZOBOZ@)"],"quality":"webdl","translation":"Любительский (многоголосый закадровый) (@MUZOBOZ@)","update":"2021-08-11 19:21:29","iframe_src":"//2413.svetacdn.in/IAF0wWTdNYZm/movie/52355"},{"id":52354,"title":"Флорист","kp_id":"1065134","imdb_id":"tt7438928","world_art_id":null,"type":"movie","add":"2021-08-11 03:32:27","orig_title":"The Florist","year":"2020-10-08","translations":["Любительский (многоголосый закадровый) (Синема УС)"],"quality":"webdl","translation":"Любительский (многоголосый закадровый) (Синема УС)","update":"2021-08-11 19:21:08","iframe_src":"//2413.svetacdn.in/IAF0wWTdNYZm/movie/52354"},{"id":52353,"title":"Зимней ночью","kp_id":"1123204","imdb_id":"tt9316658","world_art_id":null,"type":"movie","add":"2021-08-11 03:31:35","orig_title":"Gyeo-wul-ba-me","year":"2018-05-06","translations":["Любительский (многоголосый закадровый) (Синема УС)"],"quality":"webdl","translation":"Любительский (многоголосый закадровый) (Синема УС)","update":"2021-08-11 19:20:54","iframe_src":"//2413.svetacdn.in/IAF0wWTdNYZm/movie/52353"},{"id":52303,"title":"Пять провокационных историй","kp_id":"1061327","imdb_id":"tt7457232","world_art_id":null,"type":"movie","add":"2021-08-08 19:34:46","orig_title":"The Five Provocations","year":"2018-03-25","translations":["Любительский (многоголосый закадровый) (Синема УС)"],"quality":"webdl","translation":"Любительский (многоголосый закадровый) (Синема УС)","update":"2021-08-11 12:22:38","iframe_src":"//2413.svetacdn.in/IAF0wWTdNYZm/movie/52303"},{"id":52302,"title":"Человек с другой стороны","kp_id":"1135557","imdb_id":"tt8000096","world_art_id":null,"type":"movie","add":"2021-08-08 19:34:11","orig_title":"The Man on the Other Side","year":"2019-05-16","translations":["Любительский (многоголосый закадровый) (Синема УС)"],"quality":"webdl","translation":"Любительский (многоголосый закадровый) (Синема УС)","update":"2021-08-11 12:22:11","iframe_src":"//2413.svetacdn.in/IAF0wWTdNYZm/movie/52302"},{"id":52301,"title":"Модель Олимпия","kp_id":"1348220","imdb_id":"tt11775972","world_art_id":null,"type":"movie","add":"2021-08-08 19:33:29","orig_title":"Modell Olimpia","year":"2020-11-17","translations":["Любительский (многоголосый закадровый) (Синема УС)"],"quality":"webdl","translation":"Любительский (многоголосый закадровый) (Синема УС)","update":"2021-08-11 12:23:02","iframe_src":"//2413.svetacdn.in/IAF0wWTdNYZm/movie/52301"},{"id":52299,"title":"Выход","kp_id":"1119518","imdb_id":"tt8076930","world_art_id":null,"type":"movie","add":"2021-08-08 19:32:01","orig_title":"Exit","year":"2020-01-11","translations":["Любительский (многоголосый закадровый) (Синема УС)"],"quality":"webdl","translation":"Любительский (многоголосый закадровый) (Синема УС)","update":"2021-08-11 12:23:32","iframe_src":"//2413.svetacdn.in/IAF0wWTdNYZm/movie/52299"},{"id":52274,"title":"Тедди","kp_id":"1272931","imdb_id":"tt10469804","world_art_id":null,"type":"movie","add":"2021-08-07 08:22:19","orig_title":"Teddy","year":"2020-09-05","translations":["Любительский (многоголосый закадровый) (Синема УС)"],"quality":"webdl","translation":"Любительский (многоголосый закадровый) (Синема УС)","update":"2021-08-11 12:25:05","iframe_src":"//2413.svetacdn.in/IAF0wWTdNYZm/movie/52274"},{"id":52273,"title":"Скрэгленд","kp_id":"1321766","imdb_id":"tt11277228","world_art_id":null,"type":"movie","add":"2021-08-07 08:21:20","orig_title":"Scragland","year":"2019-07-04","translations":["Любительский (многоголосый закадровый) (AlphaProject)"],"quality":"webdl","translation":"Любительский (многоголосый закадровый) (AlphaProject)","update":"2021-08-11 12:24:33","iframe_src":"//2413.svetacdn.in/IAF0wWTdNYZm/movie/52273"},{"id":52270,"title":"Розовое небо впереди","kp_id":"1263887","imdb_id":"tt10095308","world_art_id":null,"type":"movie","add":"2021-08-07 08:18:40","orig_title":"Pink Skies Ahead","year":"2020-10-18","translations":["Любительский (многоголосый закадровый) (AlphaProject)"],"quality":"webdl","translation":"Любительский (многоголосый закадровый) (AlphaProject)","update":"2021-08-11 12:25:28","iframe_src":"//2413.svetacdn.in/IAF0wWTdNYZm/movie/52270"},{"id":52269,"title":"Главная Героиня","kp_id":"1348248","imdb_id":"tt11625552","world_art_id":null,"type":"movie","add":"2021-08-07 08:17:45","orig_title":"La protagonista","year":"2020-01-09","translations":["Любительский (многоголосый закадровый) (Синема УС)"],"quality":"webdl","translation":"Любительский (многоголосый закадровый) (Синема УС)","update":"2021-08-11 12:26:04","iframe_src":"//2413.svetacdn.in/IAF0wWTdNYZm/movie/52269"},{"id":52267,"title":"Вдох выдох","kp_id":"1272798","imdb_id":"tt10428270","world_art_id":null,"type":"movie","add":"2021-08-07 08:15:41","orig_title":"Inhale-Exhale","year":"2019-06-15","translations":["Любительский (многоголосый закадровый) (Синема УС)"],"quality":"webdl","translation":"Любительский (многоголосый закадровый) (Синема УС)","update":"2021-08-11 12:26:28","iframe_src":"//2413.svetacdn.in/IAF0wWTdNYZm/movie/52267"},{"id":51056,"title":"Год Ярости","kp_id":"1318984","imdb_id":"tt9315904","world_art_id":null,"type":"movie","add":"2021-06-09 21:52:45","orig_title":"El año de la furia","year":"2020-10-09","translations":["Любительский (двухголосый закадровый) (Колобок)","Любительский (многоголосый закадровый) (Синема УС)"],"quality":"ts","translation":"Любительский (двухголосый закадровый) (Колобок)","update":"2021-08-11 12:24:04","iframe_src":"//2413.svetacdn.in/IAF0wWTdNYZm/movie/51056"},{"id":49779,"title":"Рой","kp_id":"1286423","imdb_id":"tt10675724","world_art_id":null,"type":"movie","add":"2021-04-21 11:04:13","orig_title":"La nuée","year":"2020-08-29","translations":["Профессиональный (двухголосый закадровый) (Pazl Voice)","Любительский (многоголосый закадровый) (@MUZOBOZ@)"],"quality":"webdl","translation":"Профессиональный (двухголосый закадровый) (Pazl Voice)","update":"2021-08-11 12:27:04","iframe_src":"//2413.svetacdn.in/IAF0wWTdNYZm/movie/49779"},{"id":4260,"title":"М убийца","kp_id":"1110948","imdb_id":"tt7028444","world_art_id":null,"type":"serial","add":"2019-03-14 11:08:25","orig_title":"M - Eine Stadt sucht einen Mörder","year":"2019-02-17","translations":["Профессиональный (многоголосый закадровый) (SDI Media | Iyuno-SDI Group Russia)"],"seasons_count":1,"episodes_count":6,"episodes":6,"update":"2019-03-14 17:59:43","iframe_src":"//2413.svetacdn.in/IAF0wWTdNYZm/tv-series/4260"},{"id":4258,"title":"Срок давности","kp_id":"1008299","imdb_id":"tt7838546","world_art_id":null,"type":"serial","add":"2019-03-14 07:18:06","orig_title":"Srok davnosty","year":"2017-03-10","translations":["Оригинальная дорожка"],"seasons_count":1,"episodes_count":4,"episodes":4,"update":"2019-03-14 11:35:28","iframe_src":"//2413.svetacdn.in/IAF0wWTdNYZm/tv-series/4258"},{"id":4256,"title":"Вернись в Сорренто","kp_id":"1196964","imdb_id":null,"world_art_id":null,"type":"serial","add":"2019-03-14 06:46:44","orig_title":"Вернись в Сорренто","year":"2018-01-01","translations":["Оригинальная дорожка"],"seasons_count":1,"episodes_count":4,"episodes":4,"update":"2019-03-14 10:44:48","iframe_src":"//2413.svetacdn.in/IAF0wWTdNYZm/tv-series/4256"},{"id":4255,"title":"Прошлое умеет ждать","kp_id":"938853","imdb_id":null,"world_art_id":null,"type":"serial","add":"2019-03-14 06:42:20","orig_title":"Прошлое умеет ждать","year":"2015-10-25","translations":["Оригинальная дорожка"],"seasons_count":1,"episodes_count":4,"episodes":4,"update":"2019-03-14 10:48:20","iframe_src":"//2413.svetacdn.in/IAF0wWTdNYZm/tv-series/4255"},{"id":4254,"title":"Капкан для звезды","kp_id":"947037","imdb_id":null,"world_art_id":null,"type":"serial","add":"2019-03-14 06:33:21","orig_title":"Капкан для звезды","year":"2015-12-06","translations":["Оригинальная дорожка"],"seasons_count":1,"episodes_count":4,"episodes":4,"update":"2019-03-14 10:40:38","iframe_src":"//2413.svetacdn.in/IAF0wWTdNYZm/tv-series/4254"},{"id":4253,"title":"Если небо молчит","kp_id":"732765","imdb_id":"tt5660700","world_art_id":null,"type":"serial","add":"2019-03-13 13:30:10","orig_title":"Esli nebo molchit","year":"2013-02-03","translations":["Оригинальная дорожка"],"seasons_count":1,"episodes_count":4,"episodes":4,"update":"2019-03-14 06:54:28","iframe_src":"//2413.svetacdn.in/IAF0wWTdNYZm/tv-series/4253"},{"id":4252,"title":"Убийство на троих","kp_id":"916134","imdb_id":"tt5245504","world_art_id":null,"type":"serial","add":"2019-03-13 13:26:43","orig_title":"Ubiystvo na troikh","year":"2015-11-08","translations":["Оригинальная дорожка"],"seasons_count":1,"episodes_count":4,"episodes":4,"update":"2019-03-14 07:13:42","iframe_src":"//2413.svetacdn.in/IAF0wWTdNYZm/tv-series/4252"},{"id":4249,"title":"Рев","kp_id":"401695","imdb_id":"tt0118451","world_art_id":null,"type":"serial","add":"2019-03-12 18:28:13","orig_title":"Roar","year":"1997-07-14","translations":["Профессиональный (многоголосый закадровый)"],"seasons_count":1,"episodes_count":13,"episodes":13,"update":"2019-03-13 10:39:30","iframe_src":"//2413.svetacdn.in/IAF0wWTdNYZm/tv-series/4249"},{"id":4247,"title":"Тайны и секреты личной жизни студентов","kp_id":"586569","imdb_id":"tt1167345","world_art_id":null,"type":"serial","add":"2019-03-12 13:04:48","orig_title":"Co-Ed Confidential","year":"2007-11-02","translations":["Профессиональный (многоголосый закадровый)"],"seasons_count":4,"episodes_count":51,"episodes":13,"update":"2019-03-14 11:57:59","iframe_src":"//2413.svetacdn.in/IAF0wWTdNYZm/tv-series/4247"},{"id":4238,"title":"Охота на Золушку","kp_id":"277381","imdb_id":"tt0473319","world_art_id":null,"type":"serial","add":"2019-03-11 08:51:52","orig_title":"Okhota na Zolushku","year":"1999-01-01","translations":["Оригинальная дорожка"],"seasons_count":1,"episodes_count":14,"episodes":14,"update":"2019-03-13 14:27:45","iframe_src":"//2413.svetacdn.in/IAF0wWTdNYZm/tv-series/4238"},{"id":4237,"title":"Скажи правду","kp_id":"1216655","imdb_id":null,"world_art_id":null,"type":"serial","add":"2019-03-11 08:48:28","orig_title":"Скажи правду","year":"2019-03-11","translations":["Оригинальная дорожка"],"seasons_count":1,"episodes_count":8,"episodes":8,"update":"2019-03-15 13:43:34","iframe_src":"//2413.svetacdn.in/IAF0wWTdNYZm/tv-series/4237"},{"id":4235,"title":"Госпожа президент","kp_id":"629226","imdb_id":"tt2030927","world_art_id":null,"type":"serial","add":"2019-03-10 20:35:28","orig_title":"Dae Mul","year":"2010-10-06","translations":["Любительский (одноголосый закадровый) (GREEN TEA)"],"seasons_count":1,"episodes_count":24,"episodes":24,"update":"2019-03-13 11:39:35","iframe_src":"//2413.svetacdn.in/IAF0wWTdNYZm/tv-series/4235"},{"id":4233,"title":"Десантный Батя","kp_id":"423036","imdb_id":"tt5471584","world_art_id":null,"type":"serial","add":"2019-03-10 19:59:08","orig_title":"Batya","year":"2010-02-08","translations":["Оригинальная дорожка"],"seasons_count":1,"episodes_count":8,"episodes":8,"update":"2019-03-13 11:12:36","iframe_src":"//2413.svetacdn.in/IAF0wWTdNYZm/tv-series/4233"},{"id":4219,"title":"Луиза Фернанда","kp_id":"260158","imdb_id":"tt0361202","world_art_id":null,"type":"serial","add":"2019-03-06 18:40:08","orig_title":"Luisa Fernanda","year":"1999-01-01","translations":["Профессиональный (многоголосый закадровый)"],"seasons_count":1,"episodes_count":130,"episodes":130,"update":"2019-03-13 08:30:33","iframe_src":"//2413.svetacdn.in/IAF0wWTdNYZm/tv-series/4219"},{"id":4178,"title":"Последние друзья","kp_id":"428975","imdb_id":"tt1200618","world_art_id":null,"type":"serial","add":"2019-02-28 00:26:54","orig_title":"Rasuto furenzu","year":"2008-04-10","translations":["Любительский (двухголосый закадровый) (GREEN TEA)"],"seasons_count":1,"episodes_count":11,"episodes":11,"update":"2019-03-14 12:20:26","iframe_src":"//2413.svetacdn.in/IAF0wWTdNYZm/tv-series/4178"},{"id":4130,"title":"Чистота","kp_id":"891612","imdb_id":"tt3834000","world_art_id":null,"type":"serial","add":"2019-02-21 17:29:04","orig_title":"Spotless","year":"2015-03-16","translations":["Профессиональный (многоголосый закадровый) (AlexFilm)"],"seasons_count":1,"episodes_count":10,"episodes":10,"update":"2019-03-13 13:20:24","iframe_src":"//2413.svetacdn.in/IAF0wWTdNYZm/tv-series/4130"},{"id":4091,"title":"Треугольник","kp_id":"839584","imdb_id":"tt3633462","world_art_id":null,"type":"serial","add":"2019-02-16 17:52:20","orig_title":"Teuraiaenggeul","year":"2014-05-05","translations":["Любительский (двухголосый закадровый) (GREEN TEA)"],"seasons_count":1,"episodes_count":26,"episodes":26,"update":"2019-03-13 07:30:19","iframe_src":"//2413.svetacdn.in/IAF0wWTdNYZm/tv-series/4091"},{"id":3499,"title":"Хакервилль","kp_id":"1134130","imdb_id":"tt8129610","world_art_id":null,"type":"serial","add":"2018-11-14 08:28:21","orig_title":"Hackerville","year":"2018-11-04","translations":["Любительский (многоголосый закадровый) (ColdFilm)","Любительский (двухголосый закадровый) (KinoGolos)"],"seasons_count":1,"episodes_count":6,"episodes":6,"update":"2019-03-13 13:58:12","iframe_src":"//2413.svetacdn.in/IAF0wWTdNYZm/tv-series/3499"},{"id":3301,"title":"Команда «Мстители»","kp_id":"714433","imdb_id":"tt2455546","world_art_id":null,"type":"serial","add":"2018-10-14 09:46:44","orig_title":"Avengers Assemble","year":"2013-05-26","translations":["Полное дублирование","Полное дублирование (Невафильм | Нева-1)","Любительский (многоголосый закадровый) (Hamster Studio)"],"seasons_count":5,"episodes_count":127,"episodes":23,"update":"2019-03-13 13:06:08","iframe_src":"//2413.svetacdn.in/IAF0wWTdNYZm/tv-series/3301"},{"id":442,"title":"Куку","kp_id":"708482","imdb_id":"tt2222352","world_art_id":null,"type":"serial","add":"2016-09-16 05:16:17","orig_title":"Cuckoo","year":"2012-09-25","translations":["Профессиональный (двухголосый закадровый) (Ozz.tv)","Любительский (двухголосый закадровый) (Hamster Studio)"],"seasons_count":5,"episodes_count":33,"episodes":7,"update":"2019-03-15 06:26:42","iframe_src":"//2413.svetacdn.in/IAF0wWTdNYZm/tv-series/442"}],"current_page":476,"first_page_url":"https://videocdn.tv/api/short?limit=100&api_token=6Onb1W1alEUrBcKJZD3GoKBbWyAl2uG2&cache3476=3476&page=1","from":47501,"last_page":717,"last_page_url":"https://videocdn.tv/api/short?limit=100&api_token=6Onb1W1alEUrBcKJZD3GoKBbWyAl2uG2&cache3476=3476&page=717","next_page_url":"https://videocdn.tv/api/short?limit=100&api_token=6Onb1W1alEUrBcKJZD3GoKBbWyAl2uG2&cache3476=3476&page=477","path":"https://videocdn.tv/api/short","per_page":100,"prev_page_url":"https://videocdn.tv/api/short?limit=100&api_token=6Onb1W1alEUrBcKJZD3GoKBbWyAl2uG2&cache3476=3476&page=475","to":47540,"total":71669}