{"result":true,"data":[{"id":19732,"title":"Семейный фильм","kp_id":"878062","imdb_id":"tt3828058","world_art_id":null,"type":"movie","add":"2018-10-23 00:50:09","orig_title":"Rodinny film","year":"2015-09-21","translations":["Любительский (многоголосый закадровый) (Синема УС)"],"quality":"webdl","translation":"Любительский (многоголосый закадровый) (Синема УС)","update":"2018-10-23 06:40:54","iframe_src":"//83.svetacdn.in/PfJ50H0ZBPg3/movie/19732"},{"id":19672,"title":"Кунтиланак","kp_id":"1161769","imdb_id":"tt8512746","world_art_id":null,"type":"movie","add":"2018-10-22 00:31:04","orig_title":"Kuntilanak","year":"2018-06-15","translations":["Любительский (многоголосый закадровый) (Синема УС)"],"quality":"webdl","translation":"Любительский (многоголосый закадровый) (Синема УС)","update":"2018-10-22 06:39:59","iframe_src":"//83.svetacdn.in/PfJ50H0ZBPg3/movie/19672"},{"id":19671,"title":"Ужасный Джонни","kp_id":"998733","imdb_id":"tt5936582","world_art_id":null,"type":"movie","add":"2018-10-22 00:27:29","orig_title":"Johnny Gruesome","year":"2018-10-16","translations":["Любительский (многоголосый закадровый) (Синема УС)"],"quality":"webdl","translation":"Любительский (многоголосый закадровый) (Синема УС)","update":"2018-10-22 06:43:59","iframe_src":"//83.svetacdn.in/PfJ50H0ZBPg3/movie/19671"},{"id":19670,"title":"В Крапивной долине","kp_id":"899611","imdb_id":"tt4472274","world_art_id":null,"type":"movie","add":"2018-10-22 00:25:47","orig_title":"Nesseltal","year":"2016-10-27","translations":["Любительский (многоголосый закадровый) (Колобок)"],"quality":"webdl","translation":"Любительский (многоголосый закадровый) (Колобок)","update":"2018-10-22 06:45:43","iframe_src":"//83.svetacdn.in/PfJ50H0ZBPg3/movie/19670"},{"id":19669,"title":"Охота на теней","kp_id":"960495","imdb_id":"tt5269208","world_art_id":null,"type":"movie","add":"2018-10-22 00:24:09","orig_title":"Hunting for Shadows","year":"2016-09-24","translations":["Любительский (многоголосый закадровый) (Колобок)"],"quality":"webdl","translation":"Любительский (многоголосый закадровый) (Колобок)","update":"2018-10-22 06:47:41","iframe_src":"//83.svetacdn.in/PfJ50H0ZBPg3/movie/19669"},{"id":19668,"title":"Паранормальные явления 3: Призраки","kp_id":"954824","imdb_id":"tt5220078","world_art_id":null,"type":"movie","add":"2018-10-22 00:22:22","orig_title":"Haunted 3: Spirits","year":"2018-10-07","translations":["Любительский (многоголосый закадровый) (Синема УС)"],"quality":"webdl","translation":"Любительский (многоголосый закадровый) (Синема УС)","update":"2018-10-22 06:49:03","iframe_src":"//83.svetacdn.in/PfJ50H0ZBPg3/movie/19668"},{"id":19666,"title":"Феминистки: о чем они думали?","kp_id":null,"imdb_id":"tt5419676","world_art_id":null,"type":"movie","add":"2018-10-22 00:18:39","orig_title":"Feminists: What Were They Thinking?","year":"2018-10-12","translations":["Любительский (многоголосый закадровый) (AlphaProject)"],"quality":"webdl","translation":"Любительский (многоголосый закадровый) (AlphaProject)","update":"2018-10-22 07:46:45","iframe_src":"//83.svetacdn.in/PfJ50H0ZBPg3/movie/19666"},{"id":19663,"title":"Убийственная мода","kp_id":"1124021","imdb_id":"tt7922834","world_art_id":null,"type":"movie","add":"2018-10-22 00:14:31","orig_title":"Deadly Runway","year":"2018-08-23","translations":["Любительский (многоголосый закадровый) (Синема УС)"],"quality":"webdl","translation":"Любительский (многоголосый закадровый) (Синема УС)","update":"2018-10-22 07:49:59","iframe_src":"//83.svetacdn.in/PfJ50H0ZBPg3/movie/19663"},{"id":19662,"title":"Герои тьмы","kp_id":"989205","imdb_id":"tt5834672","world_art_id":null,"type":"movie","add":"2018-10-22 00:13:20","orig_title":"Dead Walk","year":"2016-05-28","translations":["Любительский (многоголосый закадровый) (Колобок)"],"quality":"webdl","translation":"Любительский (многоголосый закадровый) (Колобок)","update":"2018-10-22 07:58:15","iframe_src":"//83.svetacdn.in/PfJ50H0ZBPg3/movie/19662"},{"id":19661,"title":"Колыбель чемпионов","kp_id":"954443","imdb_id":"tt5184272","world_art_id":null,"type":"movie","add":"2018-10-22 00:11:46","orig_title":"Cradle of Champions","year":"2018-09-21","translations":["Любительский (многоголосый закадровый) (Синема УС)"],"quality":"webdl","translation":"Любительский (многоголосый закадровый) (Синема УС)","update":"2018-10-22 07:59:23","iframe_src":"//83.svetacdn.in/PfJ50H0ZBPg3/movie/19661"},{"id":19660,"title":"Тюрьма мёртвых тел: Часть первая","kp_id":"1081647","imdb_id":"tt6858002","world_art_id":null,"type":"movie","add":"2018-10-22 00:10:26","orig_title":"Shishûgoku: Ki no hen","year":"2017-06-03","translations":["Любительский (многоголосый закадровый) (Синема УС)"],"quality":"bd","translation":"Любительский (многоголосый закадровый) (Синема УС)","update":"2018-10-22 08:00:19","iframe_src":"//83.svetacdn.in/PfJ50H0ZBPg3/movie/19660"},{"id":19658,"title":"Лицо клоуна","kp_id":null,"imdb_id":"tt4773982","world_art_id":null,"type":"movie","add":"2018-10-22 00:07:37","orig_title":"Clownface","year":"2018-01-01","translations":["Любительский (многоголосый закадровый) (Синема УС)"],"quality":"webdl","translation":"Любительский (многоголосый закадровый) (Синема УС)","update":"2018-10-22 08:02:12","iframe_src":"//83.svetacdn.in/PfJ50H0ZBPg3/movie/19658"},{"id":19657,"title":"Закон и церковь","kp_id":null,"imdb_id":"tt7309384","world_art_id":null,"type":"movie","add":"2018-10-22 00:06:08","orig_title":"Church & State","year":"2018-08-10","translations":["Любительский (многоголосый закадровый) (Синема УС)"],"quality":"webdl","translation":"Любительский (многоголосый закадровый) (Синема УС)","update":"2018-10-22 08:03:29","iframe_src":"//83.svetacdn.in/PfJ50H0ZBPg3/movie/19657"},{"id":19656,"title":"Из мальчишек в мужики 3","kp_id":"895514","imdb_id":"tt4415068","world_art_id":null,"type":"movie","add":"2018-10-22 00:03:13","orig_title":"Ah Boys to Men 3: Frogmen","year":"2015-02-19","translations":["Любительский (одноголосый закадровый) (den904)"],"quality":"webdl","translation":"Любительский (одноголосый закадровый) (den904)","update":"2018-10-22 08:04:28","iframe_src":"//83.svetacdn.in/PfJ50H0ZBPg3/movie/19656"},{"id":19653,"title":"Сгустки крови","kp_id":"1178649","imdb_id":"tt8833552","world_art_id":null,"type":"movie","add":"2018-10-21 23:53:33","orig_title":"Blood Clots","year":"2018-08-03","translations":["Любительский (многоголосый закадровый) (Синема УС)"],"quality":"webdl","translation":"Любительский (многоголосый закадровый) (Синема УС)","update":"2018-10-22 08:07:38","iframe_src":"//83.svetacdn.in/PfJ50H0ZBPg3/movie/19653"},{"id":19650,"title":"Случайный зомби по имени Тед","kp_id":"860491","imdb_id":"tt3924774","world_art_id":null,"type":"movie","add":"2018-10-21 23:46:25","orig_title":"An Accidental Zombie (Named Ted)","year":"2017-11-30","translations":["Любительский (многоголосый закадровый) (Синема УС)"],"quality":"webdl","translation":"Любительский (многоголосый закадровый) (Синема УС)","update":"2018-10-22 08:42:03","iframe_src":"//83.svetacdn.in/PfJ50H0ZBPg3/movie/19650"},{"id":19649,"title":"Ахокалипсис","kp_id":"1043274","imdb_id":"tt6649792","world_art_id":null,"type":"movie","add":"2018-10-21 23:45:05","orig_title":"Ahockalypse","year":"2018-04-09","translations":["Любительский (многоголосый закадровый) (Синема УС)"],"quality":"webdl","translation":"Любительский (многоголосый закадровый) (Синема УС)","update":"2018-10-22 08:45:37","iframe_src":"//83.svetacdn.in/PfJ50H0ZBPg3/movie/19649"},{"id":19648,"title":"Из мальчишек в мужики 2","kp_id":"765300","imdb_id":"tt2910300","world_art_id":null,"type":"movie","add":"2018-10-21 23:36:37","orig_title":"Ah Boys to Men II","year":"2013-02-01","translations":["Любительский (одноголосый закадровый) (den904)"],"quality":"bd","translation":"Любительский (одноголосый закадровый) (den904)","update":"2018-10-22 08:46:10","iframe_src":"//83.svetacdn.in/PfJ50H0ZBPg3/movie/19648"},{"id":17832,"title":"Килиманджара","kp_id":"993589","imdb_id":null,"world_art_id":null,"type":"movie","add":"2018-07-22 16:04:49","orig_title":"Килиманджара","year":"2018-07-19","translations":["Оригинальная дорожка"],"quality":"webdl","translation":"Оригинальная дорожка","update":"2018-10-22 06:42:19","iframe_src":"//83.svetacdn.in/PfJ50H0ZBPg3/movie/17832"},{"id":9402,"title":"Реальный Слендермен","kp_id":"1007720","imdb_id":"tt5329376","world_art_id":null,"type":"movie","add":"2017-02-03 07:38:26","orig_title":"Beware the Slenderman","year":"2016-03-11","translations":["Профессиональный (многоголосый закадровый) (Amedia)","Профессиональный (многоголосый закадровый) (Jaskier)"],"quality":"webdl","translation":"Профессиональный (многоголосый закадровый) (Amedia)","update":"2018-10-22 08:13:43","iframe_src":"//83.svetacdn.in/PfJ50H0ZBPg3/movie/9402"}],"current_page":1721,"first_page_url":"https://videocdn.tv/api/short?limit=100&api_token=RgFQdUIR2dRmwv8iYa5SnFNgnw3vpjKj&cache31721=31721&page=1","from":172001,"last_page":624,"last_page_url":"https://videocdn.tv/api/short?limit=100&api_token=RgFQdUIR2dRmwv8iYa5SnFNgnw3vpjKj&cache31721=31721&page=624","next_page_url":null,"path":"https://videocdn.tv/api/short","per_page":100,"prev_page_url":"https://videocdn.tv/api/short?limit=100&api_token=RgFQdUIR2dRmwv8iYa5SnFNgnw3vpjKj&cache31721=31721&page=1720","to":172020,"total":62385}