{"result":true,"data":[{"id":51468,"title":"Зомби VIII: городское разложение","kp_id":"1448204","imdb_id":"tt13351670","world_art_id":null,"type":"movie","add":"2021-06-29 10:07:08","orig_title":"Zombi VIII: Urban Deca","year":"2021-01-26","translations":["Любительский (многоголосый закадровый) (Синема УС)"],"quality":"webdl","translation":"Любительский (многоголосый закадровый) (Синема УС)","update":"2021-06-29 14:19:55","iframe_src":"//83.svetacdn.in/PfJ50H0ZBPg3/movie/51468"},{"id":51467,"title":"Кровавые фрики","kp_id":null,"imdb_id":"tt12250992","world_art_id":null,"type":"movie","add":"2021-06-29 10:04:40","orig_title":"Blood Freaks","year":"2020-01-01","translations":["Любительский (многоголосый закадровый) (Синема УС)"],"quality":"webdl","translation":"Любительский (многоголосый закадровый) (Синема УС)","update":"2021-06-29 14:18:40","iframe_src":"//83.svetacdn.in/PfJ50H0ZBPg3/movie/51467"},{"id":51466,"title":"Кровавая бухта 2","kp_id":"1357519","imdb_id":"tt11965610","world_art_id":null,"type":"movie","add":"2021-06-29 09:20:35","orig_title":"Blood Cove 2: Return of the Skull","year":"2020-08-29","translations":["Любительский (многоголосый закадровый) (Синема УС)"],"quality":"webdl","translation":"Любительский (многоголосый закадровый) (Синема УС)","update":"2021-06-29 14:17:23","iframe_src":"//83.svetacdn.in/PfJ50H0ZBPg3/movie/51466"},{"id":51465,"title":"Всё благодаря Грасии","kp_id":"886156","imdb_id":"tt4372736","world_art_id":null,"type":"movie","add":"2021-06-29 09:14:33","orig_title":"Because Of Grácia","year":"2017-01-01","translations":["Любительский (многоголосый закадровый) (Синема УС)"],"quality":"webdl","translation":"Любительский (многоголосый закадровый) (Синема УС)","update":"2021-06-29 14:16:19","iframe_src":"//83.svetacdn.in/PfJ50H0ZBPg3/movie/51465"},{"id":51464,"title":"Энн на высоте 13000 футов","kp_id":"1302788","imdb_id":"tt10874006","world_art_id":null,"type":"movie","add":"2021-06-29 09:12:25","orig_title":"Anne at 13,000 ft","year":"2019-09-09","translations":["Любительский (многоголосый закадровый) (Синема УС)"],"quality":"webdl","translation":"Любительский (многоголосый закадровый) (Синема УС)","update":"2021-06-29 14:15:17","iframe_src":"//83.svetacdn.in/PfJ50H0ZBPg3/movie/51464"},{"id":51463,"title":"Любовь до смерти","kp_id":"1211875","imdb_id":"tt9289942","world_art_id":null,"type":"movie","add":"2021-06-29 09:09:30","orig_title":"Amours à mort","year":"2019-01-27","translations":["Любительский (многоголосый закадровый) (Синема УС)"],"quality":"hdtv","translation":"Любительский (многоголосый закадровый) (Синема УС)","update":"2021-06-29 14:14:19","iframe_src":"//83.svetacdn.in/PfJ50H0ZBPg3/movie/51463"},{"id":51462,"title":"Наедине с бигфутом","kp_id":"1351386","imdb_id":"tt11722496","world_art_id":null,"type":"movie","add":"2021-06-29 09:07:22","orig_title":"Alone with Bigfoot","year":"2020-01-01","translations":["Любительский (многоголосый закадровый) (Синема УС)"],"quality":"webdl","translation":"Любительский (многоголосый закадровый) (Синема УС)","update":"2021-06-29 14:13:26","iframe_src":"//83.svetacdn.in/PfJ50H0ZBPg3/movie/51462"},{"id":51461,"title":"Воздух","kp_id":null,"imdb_id":"tt9265300","world_art_id":null,"type":"movie","add":"2021-06-29 09:04:35","orig_title":"Aire","year":"2018-01-01","translations":["Любительский (многоголосый закадровый) (Синема УС)"],"quality":"webdl","translation":"Любительский (многоголосый закадровый) (Синема УС)","update":"2021-06-29 14:07:46","iframe_src":"//83.svetacdn.in/PfJ50H0ZBPg3/movie/51461"},{"id":51458,"title":"Нана","kp_id":"56411","imdb_id":"tt0084387","world_art_id":null,"type":"movie","add":"2021-06-29 06:20:46","orig_title":"Nana","year":"1983-05-23","translations":["[EN] Original (English)","Любительский (одноголосый закадровый)"],"quality":"bd","translation":"[EN] Original (English)","update":"2021-06-29 09:58:23","iframe_src":"//83.svetacdn.in/PfJ50H0ZBPg3/movie/51458"},{"id":51455,"title":"Рок Дог 2","kp_id":"1321916","imdb_id":"tt11207240","world_art_id":null,"type":"movie","add":"2021-06-28 21:27:03","orig_title":"Rock Dog 2","year":"2021-06-11","translations":["Полное дублирование"],"quality":"bd","translation":"Полное дублирование","update":"2021-06-29 14:06:14","iframe_src":"//83.svetacdn.in/PfJ50H0ZBPg3/movie/51455"},{"id":51454,"title":"Счастливые кролики","kp_id":"1405073","imdb_id":"tt12399214","world_art_id":null,"type":"movie","add":"2021-06-28 21:23:58","orig_title":"Happy Little Bunnies","year":"2021-01-01","translations":["Любительский (многоголосый закадровый) (Синема УС)"],"quality":"webdl","translation":"Любительский (многоголосый закадровый) (Синема УС)","update":"2021-06-29 14:05:21","iframe_src":"//83.svetacdn.in/PfJ50H0ZBPg3/movie/51454"},{"id":51453,"title":"Видимость 2","kp_id":"1393770","imdb_id":"tt12361178","world_art_id":null,"type":"movie","add":"2021-06-28 21:21:53","orig_title":"Drishyam 2","year":"2021-02-19","translations":["Любительский (многоголосый закадровый) (Синема УС)"],"quality":"webdl","translation":"Любительский (многоголосый закадровый) (Синема УС)","update":"2021-06-29 14:00:37","iframe_src":"//83.svetacdn.in/PfJ50H0ZBPg3/movie/51453"},{"id":49376,"title":"Похороны Джека","kp_id":"2967","imdb_id":"tt0105103","world_art_id":null,"type":"movie","add":"2021-04-06 05:09:09","orig_title":"Passed Away","year":"1992-04-24","translations":["Профессиональный (многоголосый закадровый) (Видеосервис)","Авторский (одноголосый закадровый) (Горчаков Василий)","[EN] Original (English)"],"quality":"webdl","translation":"Профессиональный (многоголосый закадровый) (Видеосервис)","update":"2021-06-29 14:42:10","iframe_src":"//83.svetacdn.in/PfJ50H0ZBPg3/movie/49376"},{"id":47631,"title":"В то же время, в следующем году","kp_id":"13067","imdb_id":"tt0078199","world_art_id":null,"type":"movie","add":"2021-02-03 05:46:34","orig_title":"Same Time, Next Year","year":"1978-11-22","translations":["Профессиональный (двухголосый закадровый) (Paramount Channel)","[EN] Original (English)","Профессиональный (двухголосый закадровый)"],"quality":"webdl","translation":"Профессиональный (двухголосый закадровый) (Paramount Channel)","update":"2021-06-29 14:44:55","iframe_src":"//83.svetacdn.in/PfJ50H0ZBPg3/movie/47631"},{"id":23339,"title":"Эвоки: Битва за Эндор","kp_id":"149400","imdb_id":"tt0089110","world_art_id":null,"type":"movie","add":"2019-03-21 21:52:29","orig_title":"Ewoks: The Battle for Endor","year":"1985-11-24","translations":["Профессиональный (многоголосый закадровый)","Профессиональный (многоголосый закадровый)","Авторский (одноголосый закадровый) (Иванов Михаил)","[EN] Original (English)"],"quality":"dvdrip","translation":"Профессиональный (многоголосый закадровый)","update":"2021-06-29 14:40:03","iframe_src":"//83.svetacdn.in/PfJ50H0ZBPg3/movie/23339"},{"id":3976,"title":"Роковая песня","kp_id":"1118113","imdb_id":null,"world_art_id":null,"type":"serial","add":"2019-01-28 14:06:47","orig_title":"Фатальна пісня","year":"2018-07-08","translations":["Оригинальная дорожка"],"seasons_count":1,"episodes_count":4,"episodes":4,"update":"2019-01-29 08:11:13","iframe_src":"//83.svetacdn.in/PfJ50H0ZBPg3/tv-series/3976"},{"id":3975,"title":"Горизонты любви","kp_id":"1171923","imdb_id":null,"world_art_id":null,"type":"serial","add":"2019-01-28 13:51:21","orig_title":"Горизонты любви","year":"2018-05-27","translations":["Оригинальная дорожка"],"seasons_count":1,"episodes_count":4,"episodes":4,"update":"2019-01-29 08:07:31","iframe_src":"//83.svetacdn.in/PfJ50H0ZBPg3/tv-series/3975"},{"id":3973,"title":"Блестящая карьера","kp_id":"1115245","imdb_id":null,"world_art_id":null,"type":"serial","add":"2019-01-28 13:44:16","orig_title":"Блестящая карьера","year":"2018-03-18","translations":["Оригинальная дорожка"],"seasons_count":1,"episodes_count":2,"episodes":2,"update":"2019-01-29 08:04:06","iframe_src":"//83.svetacdn.in/PfJ50H0ZBPg3/tv-series/3973"},{"id":3972,"title":"Радуга жизни","kp_id":"1225575","imdb_id":null,"world_art_id":null,"type":"serial","add":"2019-01-28 13:41:31","orig_title":"Радуга жизни","year":"2019-01-19","translations":["Оригинальная дорожка"],"seasons_count":1,"episodes_count":2,"episodes":2,"update":"2019-01-29 08:13:22","iframe_src":"//83.svetacdn.in/PfJ50H0ZBPg3/tv-series/3972"},{"id":3971,"title":"Правила механика замков","kp_id":"1227971","imdb_id":null,"world_art_id":null,"type":"serial","add":"2019-01-28 13:38:49","orig_title":"Правила механика замков","year":"2019-01-19","translations":["Оригинальная дорожка"],"seasons_count":1,"episodes_count":2,"episodes":2,"update":"2019-01-29 08:24:05","iframe_src":"//83.svetacdn.in/PfJ50H0ZBPg3/tv-series/3971"},{"id":3967,"title":"Любовь по найму","kp_id":"1111022","imdb_id":null,"world_art_id":null,"type":"serial","add":"2019-01-28 06:35:50","orig_title":"Любовь по найму","year":"2019-01-26","translations":["Оригинальная дорожка"],"seasons_count":1,"episodes_count":2,"episodes":2,"update":"2019-01-28 12:35:17","iframe_src":"//83.svetacdn.in/PfJ50H0ZBPg3/tv-series/3967"},{"id":3960,"title":"Чан Ок-чон","kp_id":"745586","imdb_id":"tt3143308","world_art_id":null,"type":"serial","add":"2019-01-27 06:58:59","orig_title":"Jang Ok-jeong","year":"2013-04-08","translations":["Любительский (двухголосый закадровый) (GREEN TEA)"],"seasons_count":1,"episodes_count":24,"episodes":24,"update":"2019-01-28 11:41:53","iframe_src":"//83.svetacdn.in/PfJ50H0ZBPg3/tv-series/3960"},{"id":3957,"title":"Её прелестные каблучки","kp_id":"839003","imdb_id":"tt3592046","world_art_id":null,"type":"serial","add":"2019-01-25 13:11:36","orig_title":"Yeojamanhwa gudu","year":"2014-02-24","translations":["Любительский (двухголосый закадровый) (GREEN TEA)"],"seasons_count":1,"episodes_count":9,"episodes":9,"update":"2019-01-28 07:50:21","iframe_src":"//83.svetacdn.in/PfJ50H0ZBPg3/tv-series/3957"},{"id":3954,"title":"Ночные стражи","kp_id":"841584","imdb_id":"tt3922408","world_art_id":null,"type":"serial","add":"2019-01-24 18:08:43","orig_title":"The Night Watchman's Journal","year":"2014-08-04","translations":["Любительский (одноголосый закадровый) (GREEN TEA)"],"seasons_count":1,"episodes_count":24,"episodes":24,"update":"2019-01-28 18:25:16","iframe_src":"//83.svetacdn.in/PfJ50H0ZBPg3/tv-series/3954"},{"id":3953,"title":"Будет ли снег на Рождество?","kp_id":"740388","imdb_id":"tt2720634","world_art_id":null,"type":"serial","add":"2019-01-24 18:05:22","orig_title":"Will it Snow at Christmas?","year":"2009-12-02","translations":["Любительский (одноголосый закадровый)"],"seasons_count":1,"episodes_count":16,"episodes":16,"update":"2019-01-25 09:18:59","iframe_src":"//83.svetacdn.in/PfJ50H0ZBPg3/tv-series/3953"},{"id":3952,"title":"Юхан Фальк: Конец","kp_id":"919618","imdb_id":"tt4815716","world_art_id":null,"type":"serial","add":"2019-01-24 13:09:33","orig_title":"Johan Falk: Slutet","year":"2015-08-06","translations":["Профессиональный (многоголосый закадровый) (ShowJet)"],"seasons_count":1,"episodes_count":2,"episodes":2,"update":"2019-01-25 07:55:23","iframe_src":"//83.svetacdn.in/PfJ50H0ZBPg3/tv-series/3952"},{"id":3951,"title":"Юхан Фальк: Строгая изоляция","kp_id":"919389","imdb_id":"tt4815698","world_art_id":null,"type":"serial","add":"2019-01-24 13:07:19","orig_title":"Johan Falk: Lockdown","year":"2015-07-23","translations":["Профессиональный (многоголосый закадровый) (ShowJet)"],"seasons_count":1,"episodes_count":2,"episodes":2,"update":"2019-01-25 07:53:14","iframe_src":"//83.svetacdn.in/PfJ50H0ZBPg3/tv-series/3951"},{"id":3950,"title":"Юхан Фальк: Кровавые бриллианты","kp_id":"919086","imdb_id":"tt4815672","world_art_id":null,"type":"serial","add":"2019-01-24 13:04:21","orig_title":"Johan Falk: Blodsdiamanter","year":"2015-07-09","translations":["Профессиональный (многоголосый закадровый) (ShowJet)"],"seasons_count":1,"episodes_count":2,"episodes":2,"update":"2019-01-25 07:51:00","iframe_src":"//83.svetacdn.in/PfJ50H0ZBPg3/tv-series/3950"},{"id":3937,"title":"Один","kp_id":"1072964","imdb_id":null,"world_art_id":null,"type":"serial","add":"2019-01-23 07:17:52","orig_title":"Один","year":"2019-01-21","translations":["Оригинальная дорожка"],"seasons_count":1,"episodes_count":12,"episodes":12,"update":"2019-01-25 08:06:29","iframe_src":"//83.svetacdn.in/PfJ50H0ZBPg3/tv-series/3937"},{"id":3923,"title":"Чирс","kp_id":"251582","imdb_id":"tt0083399","world_art_id":null,"type":"serial","add":"2019-01-21 13:57:28","orig_title":"Cheers","year":"1982-09-30","translations":["Профессиональный (двухголосый закадровый) (CBS Drama)"],"seasons_count":4,"episodes_count":95,"episodes":26,"update":"2019-01-25 12:13:32","iframe_src":"//83.svetacdn.in/PfJ50H0ZBPg3/tv-series/3923"},{"id":3899,"title":"Джейн Эйр","kp_id":"89684","imdb_id":"tt0085037","world_art_id":null,"type":"serial","add":"2019-01-16 17:09:00","orig_title":"Jane Eyre","year":"1983-10-09","translations":["Профессиональный (многоголосый закадровый)"],"seasons_count":1,"episodes_count":11,"episodes":11,"update":"2019-01-28 19:23:54","iframe_src":"//83.svetacdn.in/PfJ50H0ZBPg3/tv-series/3899"},{"id":3850,"title":"Султан моего сердца","kp_id":"1111704","imdb_id":"tt8081138","world_art_id":null,"type":"serial","add":"2019-01-08 17:15:58","orig_title":"Kalbimin Sultani","year":"2018-06-13","translations":["Профессиональный (многоголосый закадровый) (Первый канал | ОРТ)"],"seasons_count":1,"episodes_count":24,"episodes":24,"update":"2019-01-27 16:14:40","iframe_src":"//83.svetacdn.in/PfJ50H0ZBPg3/tv-series/3850"},{"id":3800,"title":"Бессмертник","kp_id":"885353","imdb_id":"tt4458082","world_art_id":null,"type":"serial","add":"2018-12-30 15:08:11","orig_title":"Bessmertnik","year":"2015-02-02","translations":["Оригинальная дорожка"],"seasons_count":4,"episodes_count":100,"episodes":26,"update":"2019-01-27 17:53:56","iframe_src":"//83.svetacdn.in/PfJ50H0ZBPg3/tv-series/3800"},{"id":19370,"title":"Летняя школа","kp_id":"22492","imdb_id":"tt0094072","world_art_id":null,"type":"movie","add":"2018-10-05 08:17:50","orig_title":"Summer School","year":"1987-07-22","translations":["Профессиональный (многоголосый закадровый) (СТС)","Профессиональный (многоголосый закадровый) (Paramount Channel)","[EN] Original (English)","Профессиональный (многоголосый закадровый) (СТС)"],"quality":"webdl","translation":"Профессиональный (многоголосый закадровый) (СТС)","update":"2021-06-29 14:51:18","iframe_src":"//83.svetacdn.in/PfJ50H0ZBPg3/movie/19370"},{"id":3199,"title":"Мне неловко","kp_id":"1137263","imdb_id":"tt7979042","world_art_id":null,"type":"serial","add":"2018-09-21 10:53:47","orig_title":"I Feel Bad","year":"2018-09-19","translations":["Любительский (двухголосый закадровый) (Sunshine Studio)","Профессиональный (многоголосый закадровый) (NewStudio)"],"seasons_count":1,"episodes_count":13,"episodes":13,"update":"2019-01-28 10:19:22","iframe_src":"//83.svetacdn.in/PfJ50H0ZBPg3/tv-series/3199"},{"id":17448,"title":"Сказка о царе Салтане","kp_id":"43813","imdb_id":"tt0174207","world_art_id":null,"type":"movie","add":"2018-06-29 11:14:30","orig_title":"Skazka o tsare Saltane","year":"1967-09-29","translations":["Оригинальная дорожка","Оригинальная дорожка"],"quality":"hdtv","translation":"Оригинальная дорожка","update":"2021-06-29 09:40:25","iframe_src":"//83.svetacdn.in/PfJ50H0ZBPg3/movie/17448"},{"id":16240,"title":"Давай поженимся","kp_id":"44105","imdb_id":"tt0083794","world_art_id":null,"type":"movie","add":"2018-04-13 22:19:25","orig_title":"Davay pozhenimsya","year":"1982-12-13","translations":["Оригинальная дорожка","Оригинальная дорожка"],"quality":"hdtv","translation":"Оригинальная дорожка","update":"2021-06-29 09:41:38","iframe_src":"//83.svetacdn.in/PfJ50H0ZBPg3/movie/16240"},{"id":9066,"title":"Брат Баджранги","kp_id":"844021","imdb_id":"tt3863552","world_art_id":null,"type":"movie","add":"2017-01-21 14:12:02","orig_title":"Bajrangi Bhaijaan","year":"2015-07-15","translations":["Любительский (двухголосый закадровый)","Любительский (многоголосый закадровый) (ICG)","Профессиональный (многоголосый закадровый) (SDI Media | Iyuno-SDI Group Russia)","Любительский (многоголосый закадровый) (ICG)"],"quality":"bd","translation":"Любительский (двухголосый закадровый)","update":"2021-06-29 13:50:58","iframe_src":"//83.svetacdn.in/PfJ50H0ZBPg3/movie/9066"},{"id":891,"title":"Между нами, девочками","kp_id":"893068","imdb_id":null,"world_art_id":null,"type":"serial","add":"2017-01-17 06:43:23","orig_title":"Между нами, девочками","year":"2015-03-10","translations":["Оригинальная дорожка"],"seasons_count":1,"episodes_count":20,"episodes":20,"update":"2019-01-28 12:44:58","iframe_src":"//83.svetacdn.in/PfJ50H0ZBPg3/tv-series/891"},{"id":7858,"title":"Однажды в апреле","kp_id":"339407","imdb_id":"tt0400063","world_art_id":null,"type":"movie","add":"2016-12-05 13:41:39","orig_title":"Sometimes in April","year":"2005-02-17","translations":["Профессиональный (двухголосый закадровый)","Профессиональный (двухголосый закадровый) (НТВ)","[EN] Original (English)","Профессиональный (двухголосый закадровый) (Elrom)"],"quality":"hdtv","translation":"Профессиональный (двухголосый закадровый)","update":"2021-06-29 14:48:47","iframe_src":"//83.svetacdn.in/PfJ50H0ZBPg3/movie/7858"}],"current_page":478,"first_page_url":"https://videocdn.tv/api/short?limit=100&api_token=RgFQdUIR2dRmwv8iYa5SnFNgnw3vpjKj&cache3478=3478&page=1","from":47701,"last_page":709,"last_page_url":"https://videocdn.tv/api/short?limit=100&api_token=RgFQdUIR2dRmwv8iYa5SnFNgnw3vpjKj&cache3478=3478&page=709","next_page_url":"https://videocdn.tv/api/short?limit=100&api_token=RgFQdUIR2dRmwv8iYa5SnFNgnw3vpjKj&cache3478=3478&page=479","path":"https://videocdn.tv/api/short","per_page":100,"prev_page_url":"https://videocdn.tv/api/short?limit=100&api_token=RgFQdUIR2dRmwv8iYa5SnFNgnw3vpjKj&cache3478=3478&page=477","to":47740,"total":70818}