{"result":true,"data":[{"id":19114,"title":"Смертельная свадьба","kp_id":"1099283","imdb_id":"tt7557686","world_art_id":null,"type":"movie","add":"2018-09-23 20:51:33","orig_title":"Deadly Vows","year":"2017-10-14","translations":["Любительский (многоголосый закадровый) (Синема УС)"],"quality":"webdl","translation":"Любительский (многоголосый закадровый) (Синема УС)","update":"2018-09-24 06:17:15","iframe_src":"//83.svetacdn.in/PfJ50H0ZBPg3/movie/19114"},{"id":19096,"title":"Гатао 2: Новый король","kp_id":"1101251","imdb_id":"tt8324576","world_art_id":null,"type":"movie","add":"2018-09-20 22:36:51","orig_title":"Gatao 2: The New King","year":"2018-02-14","translations":["Любительский (многоголосый закадровый) (Колобок)"],"quality":"bd","translation":"Любительский (многоголосый закадровый) (Колобок)","update":"2018-09-21 06:11:46","iframe_src":"//83.svetacdn.in/PfJ50H0ZBPg3/movie/19096"},{"id":19093,"title":"Шум","kp_id":null,"imdb_id":"tt5334900","world_art_id":null,"type":"movie","add":"2018-09-20 22:13:34","orig_title":"The Noise","year":"2015-08-20","translations":["Любительский (многоголосый закадровый) (Колобок)"],"quality":"dvdrip","translation":"Любительский (многоголосый закадровый) (Колобок)","update":"2018-09-21 06:25:15","iframe_src":"//83.svetacdn.in/PfJ50H0ZBPg3/movie/19093"},{"id":19082,"title":"Замена 3: Победитель получает все","kp_id":"77150","imdb_id":"tt0197924","world_art_id":null,"type":"movie","add":"2018-09-20 08:09:07","orig_title":"The Substitute 3: Winner Takes All","year":"1999-08-14","translations":["Профессиональный (многоголосый закадровый)"],"quality":"dvdrip","translation":"Профессиональный (многоголосый закадровый)","update":"2018-09-21 09:25:27","iframe_src":"//83.svetacdn.in/PfJ50H0ZBPg3/movie/19082"},{"id":19002,"title":"Мысли о свободе","kp_id":"47056","imdb_id":"tt0361715","world_art_id":null,"type":"movie","add":"2018-09-16 09:03:57","orig_title":"Duma","year":"2005-04-22","translations":["Профессиональный (многоголосый закадровый)"],"quality":"webdl","translation":"Профессиональный (многоголосый закадровый)","update":"2018-09-21 07:01:45","iframe_src":"//83.svetacdn.in/PfJ50H0ZBPg3/movie/19002"},{"id":19001,"title":"Сердце","kp_id":"18758","imdb_id":"tt0099429","world_art_id":null,"type":"movie","add":"2018-09-16 09:03:02","orig_title":"Dil","year":"1990-06-22","translations":["Профессиональный (многоголосый закадровый)"],"quality":"webdl","translation":"Профессиональный (многоголосый закадровый)","update":"2018-09-21 07:00:54","iframe_src":"//83.svetacdn.in/PfJ50H0ZBPg3/movie/19001"},{"id":19000,"title":"Прыжок гепарда","kp_id":"396880","imdb_id":"tt1105721","world_art_id":null,"type":"movie","add":"2018-09-16 09:01:46","orig_title":"Chirutha","year":"2007-09-28","translations":["Профессиональный (многоголосый закадровый) (Red Media)"],"quality":"webdl","translation":"Профессиональный (многоголосый закадровый) (Red Media)","update":"2018-09-21 06:59:54","iframe_src":"//83.svetacdn.in/PfJ50H0ZBPg3/movie/19000"},{"id":18999,"title":"Дьявольское око","kp_id":"94243","imdb_id":"tt0053772","world_art_id":null,"type":"movie","add":"2018-09-16 09:00:42","orig_title":"Djävulens öga","year":"1960-10-17","translations":["Профессиональный (двухголосый закадровый)"],"quality":"webdl","translation":"Профессиональный (двухголосый закадровый)","update":"2018-09-21 06:58:34","iframe_src":"//83.svetacdn.in/PfJ50H0ZBPg3/movie/18999"},{"id":18998,"title":"Интимные приключения","kp_id":"417970","imdb_id":"tt1235552","world_art_id":null,"type":"movie","add":"2018-09-16 08:59:16","orig_title":"À l'aventure","year":"2008-08-29","translations":["Профессиональный (двухголосый закадровый)"],"quality":"webdl","translation":"Профессиональный (двухголосый закадровый)","update":"2018-09-21 06:44:49","iframe_src":"//83.svetacdn.in/PfJ50H0ZBPg3/movie/18998"},{"id":18997,"title":"Тайна Егора, или Необыкновенные приключения обыкновенным летом","kp_id":"743092","imdb_id":null,"world_art_id":null,"type":"movie","add":"2018-09-16 08:57:32","orig_title":"Тайна Егора, или Необыкновенные приключения обыкновенным летом","year":"2013-03-17","translations":["Оригинальная дорожка"],"quality":"webdl","translation":"Оригинальная дорожка","update":"2018-09-21 06:43:15","iframe_src":"//83.svetacdn.in/PfJ50H0ZBPg3/movie/18997"},{"id":18996,"title":"Про любовь","kp_id":"698793","imdb_id":null,"world_art_id":null,"type":"movie","add":"2018-09-16 08:54:44","orig_title":"Про любовь","year":"2011-01-01","translations":["Оригинальная дорожка"],"quality":"webdl","translation":"Оригинальная дорожка","update":"2018-09-21 06:42:03","iframe_src":"//83.svetacdn.in/PfJ50H0ZBPg3/movie/18996"},{"id":18995,"title":"Погружение","kp_id":"1002720","imdb_id":"tt7649914","world_art_id":null,"type":"movie","add":"2018-09-16 08:48:59","orig_title":"Pogruzhenie","year":"2015-07-02","translations":["Оригинальная дорожка"],"quality":"webdl","translation":"Оригинальная дорожка","update":"2018-09-21 06:40:03","iframe_src":"//83.svetacdn.in/PfJ50H0ZBPg3/movie/18995"},{"id":18994,"title":"Ну, простите!","kp_id":"1008448","imdb_id":null,"world_art_id":null,"type":"movie","add":"2018-09-16 08:46:59","orig_title":"Ну, простите!","year":"2016-01-01","translations":["Оригинальная дорожка"],"quality":"webdl","translation":"Оригинальная дорожка","update":"2018-09-21 06:38:15","iframe_src":"//83.svetacdn.in/PfJ50H0ZBPg3/movie/18994"},{"id":18993,"title":"Сердце к сердцу","kp_id":"852100","imdb_id":"tt3542320","world_art_id":null,"type":"movie","add":"2018-09-16 08:45:17","orig_title":"Heart Attack","year":"2014-01-31","translations":["Любительский (двухголосый закадровый)"],"quality":"webdl","translation":"Любительский (двухголосый закадровый)","update":"2018-09-21 06:37:11","iframe_src":"//83.svetacdn.in/PfJ50H0ZBPg3/movie/18993"},{"id":18991,"title":"Похищение","kp_id":"55771","imdb_id":"tt0084203","world_art_id":null,"type":"movie","add":"2018-09-16 08:43:31","orig_title":"Kidnapning","year":"1982-10-15","translations":["Любительский (одноголосый закадровый)"],"quality":"webdl","translation":"Любительский (одноголосый закадровый)","update":"2018-09-21 06:34:29","iframe_src":"//83.svetacdn.in/PfJ50H0ZBPg3/movie/18991"},{"id":18990,"title":"Резиновый Тарзан","kp_id":"58193","imdb_id":"tt0082486","world_art_id":null,"type":"movie","add":"2018-09-16 08:42:38","orig_title":"Gummi-Tarzan","year":"1981-10-16","translations":["Любительский (одноголосый закадровый)"],"quality":"webdl","translation":"Любительский (одноголосый закадровый)","update":"2018-09-21 06:32:52","iframe_src":"//83.svetacdn.in/PfJ50H0ZBPg3/movie/18990"},{"id":18989,"title":"Прощай, Соло","kp_id":"406543","imdb_id":"tt1095442","world_art_id":null,"type":"movie","add":"2018-09-16 08:41:42","orig_title":"Goodbye Solo","year":"2008-08-31","translations":["Любительский (одноголосый закадровый)"],"quality":"webdl","translation":"Любительский (одноголосый закадровый)","update":"2018-09-21 06:31:24","iframe_src":"//83.svetacdn.in/PfJ50H0ZBPg3/movie/18989"},{"id":18561,"title":"Пять пальцев для Марселя","kp_id":"686508","imdb_id":"tt2396489","world_art_id":null,"type":"movie","add":"2018-08-26 22:17:41","orig_title":"Five Fingers for Marseilles","year":"2017-09-08","translations":["Любительский (двухголосый закадровый) (datynet & Galina Vasyukova)","Любительский (многоголосый закадровый) (Колобок)"],"quality":"webdl","translation":"Любительский (двухголосый закадровый) (datynet & Galina Vasyukova)","update":"2018-09-21 06:10:36","iframe_src":"//83.svetacdn.in/PfJ50H0ZBPg3/movie/18561"},{"id":18557,"title":"Днюха!","kp_id":"1007425","imdb_id":null,"world_art_id":null,"type":"movie","add":"2018-08-26 21:48:08","orig_title":"Днюха!","year":"2018-08-23","translations":["Оригинальная дорожка"],"quality":"webdl","translation":"Оригинальная дорожка","update":"2018-09-21 16:18:18","iframe_src":"//83.svetacdn.in/PfJ50H0ZBPg3/movie/18557"},{"id":9590,"title":"Джокер","kp_id":"978221","imdb_id":"tt5680590","world_art_id":null,"type":"movie","add":"2017-02-10 06:00:56","orig_title":"Dzhoker","year":"2016-09-26","translations":["Оригинальная дорожка"],"quality":"webdl","translation":"Оригинальная дорожка","update":"2018-09-21 06:27:00","iframe_src":"//83.svetacdn.in/PfJ50H0ZBPg3/movie/9590"}],"current_page":1815,"first_page_url":"https://videocdn.tv/api/short?limit=100&api_token=RgFQdUIR2dRmwv8iYa5SnFNgnw3vpjKj&cache31815=31815&page=1","from":181401,"last_page":640,"last_page_url":"https://videocdn.tv/api/short?limit=100&api_token=RgFQdUIR2dRmwv8iYa5SnFNgnw3vpjKj&cache31815=31815&page=640","next_page_url":null,"path":"https://videocdn.tv/api/short","per_page":100,"prev_page_url":"https://videocdn.tv/api/short?limit=100&api_token=RgFQdUIR2dRmwv8iYa5SnFNgnw3vpjKj&cache31815=31815&page=1814","to":181420,"total":63993}