{"result":true,"data":[{"id":44698,"title":"Нечеловеческая природа","kp_id":null,"imdb_id":"tt7637160","world_art_id":null,"type":"movie","add":"2020-10-22 19:04:47","orig_title":"Unhuman Nature","year":"2020-10-01","translations":["Любительский (многоголосый закадровый) (@MUZOBOZ@)"],"quality":"webdl","translation":"Любительский (многоголосый закадровый) (@MUZOBOZ@)","update":"2020-10-23 03:02:27","iframe_src":"//83.svetacdn.in/PfJ50H0ZBPg3/movie/44698"},{"id":44696,"title":"Первая любовь навсегда","kp_id":"1274437","imdb_id":"tt10485148","world_art_id":null,"type":"movie","add":"2020-10-22 18:48:35","orig_title":"Sage of Time","year":"2020-05-17","translations":["Любительский (многоголосый закадровый) (@MUZOBOZ@)"],"quality":"webdl","translation":"Любительский (многоголосый закадровый) (@MUZOBOZ@)","update":"2020-10-23 03:01:07","iframe_src":"//83.svetacdn.in/PfJ50H0ZBPg3/movie/44696"},{"id":44692,"title":"Метеорит","kp_id":"1405961","imdb_id":"tt13021916","world_art_id":null,"type":"movie","add":"2020-10-22 18:32:12","orig_title":"Meteorite","year":"2020-10-21","translations":["Оригинальная дорожка"],"quality":"webdl","translation":"Оригинальная дорожка","update":"2020-10-23 02:58:05","iframe_src":"//83.svetacdn.in/PfJ50H0ZBPg3/movie/44692"},{"id":44656,"title":"Бабье царство","kp_id":"164776","imdb_id":"tt0056310","world_art_id":null,"type":"movie","add":"2020-10-21 07:37:03","orig_title":"Onna no za","year":"1962-01-14","translations":["Любительский (многоголосый закадровый) (STEPonee)"],"quality":"webdl","translation":"Любительский (многоголосый закадровый) (STEPonee)","update":"2020-10-22 16:00:07","iframe_src":"//83.svetacdn.in/PfJ50H0ZBPg3/movie/44656"},{"id":44655,"title":"Доверие","kp_id":"36158","imdb_id":"tt0078868","world_art_id":null,"type":"movie","add":"2020-10-21 07:34:09","orig_title":"Bizalom","year":"1980-01-10","translations":["Любительский (одноголосый закадровый)"],"quality":"bd","translation":"Любительский (одноголосый закадровый)","update":"2020-10-22 19:35:23","iframe_src":"//83.svetacdn.in/PfJ50H0ZBPg3/movie/44655"},{"id":44613,"title":"Эрик и Эрика","kp_id":"1149300","imdb_id":"tt7709664","world_art_id":null,"type":"movie","add":"2020-10-20 06:25:54","orig_title":"Erik & Erika","year":"2018-03-02","translations":["Любительский (многоголосый закадровый) (Синема УС)"],"quality":"webdl","translation":"Любительский (многоголосый закадровый) (Синема УС)","update":"2020-10-23 16:44:11","iframe_src":"//83.svetacdn.in/PfJ50H0ZBPg3/movie/44613"},{"id":44612,"title":"Танец газели","kp_id":"1120072","imdb_id":"tt6802322","world_art_id":null,"type":"movie","add":"2020-10-20 06:23:25","orig_title":"El Baile de la Gacela","year":"2018-01-01","translations":["Любительский (многоголосый закадровый) (Синема УС)"],"quality":"webdl","translation":"Любительский (многоголосый закадровый) (Синема УС)","update":"2020-10-23 16:41:13","iframe_src":"//83.svetacdn.in/PfJ50H0ZBPg3/movie/44612"},{"id":44591,"title":"Собака на сене","kp_id":"59736","imdb_id":"tt0114115","world_art_id":null,"type":"movie","add":"2020-10-19 16:18:11","orig_title":"El perro del hortelano","year":"1996-10-25","translations":["Полное дублирование"],"quality":"bd","translation":"Полное дублирование","update":"2020-10-23 13:26:25","iframe_src":"//83.svetacdn.in/PfJ50H0ZBPg3/movie/44591"},{"id":44529,"title":"Приключения кузнечика Кузи (История вторая)","kp_id":"257197","imdb_id":"tt6235272","world_art_id":null,"type":"movie","add":"2020-10-17 19:47:07","orig_title":"Priklyucheniya kuznechika Kuzi (Istoriya vtoraya)","year":"1991-01-01","translations":["Оригинальная дорожка"],"quality":"webdl","translation":"Оригинальная дорожка","update":"2020-10-23 07:18:16","iframe_src":"//83.svetacdn.in/PfJ50H0ZBPg3/movie/44529"},{"id":44528,"title":"Приключения кузнечика Кузи (История первая)","kp_id":"257210","imdb_id":"tt6235266","world_art_id":null,"type":"movie","add":"2020-10-17 19:44:10","orig_title":"Priklyucheniya kuznechika Kuzi (Istoriya pervaya)","year":"1990-01-01","translations":["Оригинальная дорожка"],"quality":"webdl","translation":"Оригинальная дорожка","update":"2020-10-23 07:17:14","iframe_src":"//83.svetacdn.in/PfJ50H0ZBPg3/movie/44528"},{"id":44525,"title":"Осень в семействе Кохаягава","kp_id":"99944","imdb_id":"tt0055052","world_art_id":null,"type":"movie","add":"2020-10-17 09:02:31","orig_title":"Kohayagawa-ke no aki","year":"1961-10-29","translations":["Любительский (многоголосый закадровый) (STEPonee)"],"quality":"webdl","translation":"Любительский (многоголосый закадровый) (STEPonee)","update":"2020-10-23 07:11:15","iframe_src":"//83.svetacdn.in/PfJ50H0ZBPg3/movie/44525"},{"id":44524,"title":"Цветы Хиган","kp_id":"175119","imdb_id":"tt0051720","world_art_id":null,"type":"movie","add":"2020-10-17 08:49:00","orig_title":"Higanbana","year":"1958-09-07","translations":["Авторский (одноголосый закадровый) (Воротилин Олег)"],"quality":"bd","translation":"Авторский (одноголосый закадровый) (Воротилин Олег)","update":"2020-10-23 07:13:48","iframe_src":"//83.svetacdn.in/PfJ50H0ZBPg3/movie/44524"},{"id":44523,"title":"Обломок империи","kp_id":"42695","imdb_id":"tt0020232","world_art_id":null,"type":"movie","add":"2020-10-17 08:10:32","orig_title":"Oblomok imperii","year":"1930-01-25","translations":["Оригинальная дорожка"],"quality":"bd","translation":"Оригинальная дорожка","update":"2020-10-23 07:13:12","iframe_src":"//83.svetacdn.in/PfJ50H0ZBPg3/movie/44523"},{"id":44497,"title":"Остров лебедей","kp_id":"91754","imdb_id":"tt0085730","world_art_id":null,"type":"movie","add":"2020-10-16 10:07:41","orig_title":"Insel der Schwäne","year":"1983-04-28","translations":["Авторский (одноголосый закадровый) (Муравский Юрий)"],"quality":"webdl","translation":"Авторский (одноголосый закадровый) (Муравский Юрий)","update":"2020-10-23 07:15:50","iframe_src":"//83.svetacdn.in/PfJ50H0ZBPg3/movie/44497"},{"id":44080,"title":"2067: Петля времени","kp_id":"609581","imdb_id":"tt1918734","world_art_id":null,"type":"movie","add":"2020-10-02 17:11:29","orig_title":"2067","year":"2020-10-02","translations":["Любительский (многоголосый закадровый) (@MUZOBOZ@)","Original (English)","Любительский (многоголосый закадровый) (@MUZOBOZ@)","Полное дублирование","Полное дублирование (iTunes)"],"quality":"webdl","translation":"Любительский (многоголосый закадровый) (@MUZOBOZ@)","update":"2020-10-23 07:20:36","iframe_src":"//83.svetacdn.in/PfJ50H0ZBPg3/movie/44080"},{"id":42903,"title":"Кутёж","kp_id":"1307468","imdb_id":"tt10994688","world_art_id":null,"type":"movie","add":"2020-08-29 06:23:20","orig_title":"The Binge","year":"2020-08-28","translations":["Любительский (многоголосый закадровый) (@MUZOBOZ@)","Original (English)","Любительский (многоголосый закадровый) (@MUZOBOZ@)"],"quality":"webdl","translation":"Любительский (многоголосый закадровый) (@MUZOBOZ@)","update":"2020-10-23 07:02:09","iframe_src":"//83.svetacdn.in/PfJ50H0ZBPg3/movie/42903"},{"id":5394,"title":"Воспитывая Диона","kp_id":"1113115","imdb_id":"tt7826108","world_art_id":null,"type":"serial","add":"2019-10-04 18:37:04","orig_title":"Raising Dion","year":"2019-10-04","translations":["Полное дублирование (Невафильм)"],"seasons_count":1,"episodes_count":9,"episodes":9,"update":"2019-10-04 20:53:37","iframe_src":"//83.svetacdn.in/PfJ50H0ZBPg3/tv-series/5394"},{"id":5384,"title":"Завтра наступит сегодня","kp_id":"401723","imdb_id":"tt0115163","world_art_id":null,"type":"serial","add":"2019-10-03 20:19:18","orig_title":"Early Edition","year":"1996-09-28","translations":["Профессиональный (многоголосый закадровый) (СТС)","Профессиональный (многоголосый закадровый)"],"seasons_count":4,"episodes_count":90,"episodes":22,"update":"2019-10-04 21:29:59","iframe_src":"//83.svetacdn.in/PfJ50H0ZBPg3/tv-series/5384"},{"id":5380,"title":"Тайный дневник девушки по вызову","kp_id":"401122","imdb_id":"tt1000734","world_art_id":null,"type":"serial","add":"2019-10-03 12:04:36","orig_title":"Secret Diary of a Call Girl","year":"2007-09-27","translations":["Профессиональный (многоголосый закадровый) (Муз-ТВ)"],"seasons_count":4,"episodes_count":32,"episodes":8,"update":"2019-10-04 10:46:11","iframe_src":"//83.svetacdn.in/PfJ50H0ZBPg3/tv-series/5380"},{"id":5378,"title":"1001 ночь","kp_id":"471742","imdb_id":"tt0905574","world_art_id":null,"type":"serial","add":"2019-10-02 21:02:23","orig_title":"Binbir Gece","year":"2006-11-07","translations":["Полное дублирование"],"seasons_count":3,"episodes_count":90,"episodes":24,"update":"2019-10-03 21:13:12","iframe_src":"//83.svetacdn.in/PfJ50H0ZBPg3/tv-series/5378"},{"id":5376,"title":"Жаркое американское лето: 10 лет спустя","kp_id":"1008421","imdb_id":"tt5669272","world_art_id":null,"type":"serial","add":"2019-10-02 12:05:48","orig_title":"Wet Hot American Summer: Ten Years Later","year":"2017-08-04","translations":["Профессиональный (многоголосый закадровый) (NewStudio)"],"seasons_count":1,"episodes_count":8,"episodes":8,"update":"2019-10-04 08:56:13","iframe_src":"//83.svetacdn.in/PfJ50H0ZBPg3/tv-series/5376"},{"id":5375,"title":"Жаркое американское лето: Первый день лагеря","kp_id":"888089","imdb_id":"tt4341500","world_art_id":null,"type":"serial","add":"2019-10-02 12:00:51","orig_title":"Wet Hot American Summer: First Day of Camp","year":"2015-07-31","translations":["Профессиональный (многоголосый закадровый) (NewStudio)"],"seasons_count":1,"episodes_count":8,"episodes":8,"update":"2019-10-04 08:39:23","iframe_src":"//83.svetacdn.in/PfJ50H0ZBPg3/tv-series/5375"},{"id":5374,"title":"Джефф и инопланетяне","kp_id":"933806","imdb_id":"tt4218824","world_art_id":null,"type":"serial","add":"2019-10-02 11:52:57","orig_title":"Jeff & Some Aliens","year":"2017-01-11","translations":["Профессиональный (многоголосый закадровый) (2x2)"],"seasons_count":1,"episodes_count":10,"episodes":10,"update":"2019-10-04 08:30:41","iframe_src":"//83.svetacdn.in/PfJ50H0ZBPg3/tv-series/5374"},{"id":5372,"title":"Обычное шоу","kp_id":"669362","imdb_id":"tt1710308","world_art_id":null,"type":"serial","add":"2019-10-02 10:23:18","orig_title":"Regular Show","year":"2009-08-14","translations":["Полное дублирование","Полное дублирование (Пифагор)","Любительский (многоголосый закадровый)"],"seasons_count":7,"episodes_count":179,"episodes":36,"update":"2019-10-04 11:10:43","iframe_src":"//83.svetacdn.in/PfJ50H0ZBPg3/tv-series/5372"},{"id":5347,"title":"Бивис и Батт-Хед","kp_id":"94667","imdb_id":"tt0105950","world_art_id":null,"type":"serial","add":"2019-09-30 20:33:08","orig_title":"Beavis and Butt-Head","year":"1993-03-08","translations":["Любительский (одноголосый закадровый)"],"seasons_count":8,"episodes_count":208,"episodes":12,"update":"2019-10-03 13:08:57","iframe_src":"//83.svetacdn.in/PfJ50H0ZBPg3/tv-series/5347"},{"id":5343,"title":"Тень за спиной","kp_id":"1177527","imdb_id":null,"world_art_id":null,"type":"serial","add":"2019-09-30 19:15:51","orig_title":"Тень за спиной","year":"2019-09-30","translations":["Оригинальная дорожка"],"seasons_count":1,"episodes_count":12,"episodes":12,"update":"2019-10-04 21:43:53","iframe_src":"//83.svetacdn.in/PfJ50H0ZBPg3/tv-series/5343"},{"id":5327,"title":"Ждите неожиданного","kp_id":"1049716","imdb_id":null,"world_art_id":null,"type":"serial","add":"2019-09-27 11:41:09","orig_title":"Ждите неожиданного","year":"2017-10-21","translations":["Оригинальная дорожка"],"seasons_count":1,"episodes_count":4,"episodes":4,"update":"2019-10-03 11:56:10","iframe_src":"//83.svetacdn.in/PfJ50H0ZBPg3/tv-series/5327"},{"id":5325,"title":"Тихие люди","kp_id":"1112714","imdb_id":null,"world_art_id":null,"type":"serial","add":"2019-09-27 11:38:54","orig_title":"Тихие люди","year":"2018-02-24","translations":["Оригинальная дорожка"],"seasons_count":1,"episodes_count":4,"episodes":4,"update":"2019-10-03 11:51:50","iframe_src":"//83.svetacdn.in/PfJ50H0ZBPg3/tv-series/5325"},{"id":5322,"title":"Счастье из осколков","kp_id":"1044400","imdb_id":null,"world_art_id":null,"type":"serial","add":"2019-09-27 11:32:39","orig_title":"Счастье из осколков","year":"2017-10-07","translations":["Оригинальная дорожка"],"seasons_count":1,"episodes_count":2,"episodes":2,"update":"2019-10-03 11:47:34","iframe_src":"//83.svetacdn.in/PfJ50H0ZBPg3/tv-series/5322"},{"id":5321,"title":"Пока смерть не разлучит нас","kp_id":"1049611","imdb_id":null,"world_art_id":null,"type":"serial","add":"2019-09-27 11:30:49","orig_title":"Пока смерть не разлучит нас","year":"2017-10-28","translations":["Оригинальная дорожка"],"seasons_count":1,"episodes_count":2,"episodes":2,"update":"2019-10-03 11:45:51","iframe_src":"//83.svetacdn.in/PfJ50H0ZBPg3/tv-series/5321"},{"id":5320,"title":"Долгое странное путешествие","kp_id":"1008908","imdb_id":"tt4143508","world_art_id":null,"type":"serial","add":"2019-09-27 11:27:55","orig_title":"Long Strange Trip","year":"2017-01-23","translations":["Любительский (двухголосый закадровый) (GoldTeam)"],"seasons_count":1,"episodes_count":6,"episodes":6,"update":"2019-10-03 11:43:13","iframe_src":"//83.svetacdn.in/PfJ50H0ZBPg3/tv-series/5320"},{"id":5271,"title":"Знахарь","kp_id":"1093784","imdb_id":"tt7386462","world_art_id":null,"type":"serial","add":"2019-09-24 04:26:42","orig_title":"Znakhar","year":"2017-01-01","translations":["Оригинальная дорожка"],"seasons_count":1,"episodes_count":16,"episodes":16,"update":"2019-10-05 03:44:42","iframe_src":"//83.svetacdn.in/PfJ50H0ZBPg3/tv-series/5271"},{"id":5045,"title":"Миссия невыполнима","kp_id":"229293","imdb_id":"tt0060009","world_art_id":null,"type":"serial","add":"2019-08-16 14:33:56","orig_title":"Mission: Impossible","year":"1966-09-17","translations":["Авторский (одноголосый закадровый) (Белов Вадим)"],"seasons_count":7,"episodes_count":171,"episodes":22,"update":"2019-10-03 15:02:40","iframe_src":"//83.svetacdn.in/PfJ50H0ZBPg3/tv-series/5045"},{"id":4820,"title":"Мария Магдалена","kp_id":"1245689","imdb_id":"tt9863496","world_art_id":null,"type":"serial","add":"2019-07-08 20:17:09","orig_title":"María Magdalena","year":"2018-10-15","translations":["Любительский (одноголосый закадровый) (Stevie)","Любительский (многоголосый закадровый)"],"seasons_count":1,"episodes_count":21,"episodes":21,"update":"2019-10-07 12:20:58","iframe_src":"//83.svetacdn.in/PfJ50H0ZBPg3/tv-series/4820"},{"id":4523,"title":"Любовь и Пи","kp_id":"1256817","imdb_id":"tt9327256","world_art_id":null,"type":"serial","add":"2019-05-20 04:12:04","orig_title":"Love and Pi","year":"2018-07-21","translations":["Любительский (двухголосый закадровый)"],"seasons_count":1,"episodes_count":7,"episodes":7,"update":"2019-10-04 21:01:27","iframe_src":"//83.svetacdn.in/PfJ50H0ZBPg3/tv-series/4523"},{"id":11497,"title":"Взрыватель","kp_id":"5925","imdb_id":"tt0120724","world_art_id":null,"type":"movie","add":"2017-05-11 12:09:52","orig_title":"Knock Off","year":"1998-05-27","translations":["Профессиональный (двухголосый закадровый)","Профессиональный (многоголосый закадровый)","Авторский (одноголосый закадровый) (Яроцкий Михаил | Kyberpunk)","Авторский (одноголосый закадровый) (Живов Юрий)","Original (English)","Профессиональный (двухголосый закадровый)","Профессиональный (двухголосый закадровый) (Екатеринбург Арт)","Профессиональный (двухголосый закадровый) (НТВ)","Профессиональный (двухголосый закадровый) (ТНТ)","Профессиональный (многоголосый закадровый) (СТС)"],"quality":"dvdrip","translation":"Профессиональный (двухголосый закадровый)","update":"2020-10-23 13:14:45","iframe_src":"//83.svetacdn.in/PfJ50H0ZBPg3/movie/11497"},{"id":1167,"title":"Воронины","kp_id":"479090","imdb_id":"tt2301092","world_art_id":null,"type":"serial","add":"2017-04-05 09:13:13","orig_title":"Voroniny","year":"2009-11-16","translations":["Оригинальная дорожка"],"seasons_count":24,"episodes_count":553,"episodes":22,"update":"2019-10-03 17:44:52","iframe_src":"//83.svetacdn.in/PfJ50H0ZBPg3/tv-series/1167"},{"id":7191,"title":"Скуби-Ду 4: Проклятье озерного монстра","kp_id":"503358","imdb_id":"tt1618435","world_art_id":null,"type":"movie","add":"2016-11-08 08:53:51","orig_title":"Scooby-Doo! Curse of the Lake Monster","year":"2010-10-16","translations":["Любительский (двухголосый закадровый)","Любительский (многоголосый закадровый) (Jetvis Studio)","Полное дублирование (Пифагор)","Original (English)"],"quality":"bd","translation":"Любительский (двухголосый закадровый)","update":"2020-10-23 07:10:20","iframe_src":"//83.svetacdn.in/PfJ50H0ZBPg3/movie/7191"},{"id":6125,"title":"Матильда","kp_id":"7643","imdb_id":"tt0117008","world_art_id":null,"type":"movie","add":"2016-10-11 08:26:33","orig_title":"Matilda","year":"1996-07-28","translations":["Полное дублирование","Авторский (одноголосый закадровый) (Кузнецов Сергей)","Авторский (одноголосый закадровый) (Володарский Леонид)","Полное дублирование","Original (English)","Профессиональный (многоголосый закадровый)"],"quality":"bd","translation":"Полное дублирование","update":"2020-10-23 13:20:30","iframe_src":"//83.svetacdn.in/PfJ50H0ZBPg3/movie/6125"},{"id":2740,"title":"Самый жестокий год","kp_id":"765147","imdb_id":"tt2937898","world_art_id":null,"type":"movie","add":"2016-05-30 21:58:15","orig_title":"A Most Violent Year","year":"2014-11-06","translations":["Любительский (двухголосый закадровый) (ColdFilm)","Любительский (одноголосый закадровый)","Original (English)","Профессиональный (многоголосый закадровый) (iTunes)"],"quality":"bd","translation":"Любительский (двухголосый закадровый) (ColdFilm)","update":"2020-10-23 07:06:14","iframe_src":"//83.svetacdn.in/PfJ50H0ZBPg3/movie/2740"}],"current_page":301,"first_page_url":"https://videocdn.tv/api/short?limit=100&api_token=RgFQdUIR2dRmwv8iYa5SnFNgnw3vpjKj&cache3301=3301&page=1","from":30001,"last_page":604,"last_page_url":"https://videocdn.tv/api/short?limit=100&api_token=RgFQdUIR2dRmwv8iYa5SnFNgnw3vpjKj&cache3301=3301&page=604","next_page_url":"https://videocdn.tv/api/short?limit=100&api_token=RgFQdUIR2dRmwv8iYa5SnFNgnw3vpjKj&cache3301=3301&page=302","path":"https://videocdn.tv/api/short","per_page":100,"prev_page_url":"https://videocdn.tv/api/short?limit=100&api_token=RgFQdUIR2dRmwv8iYa5SnFNgnw3vpjKj&cache3301=3301&page=300","to":30040,"total":60344}