{"result":true,"data":[{"id":40754,"title":"Джоди","kp_id":"1301094","imdb_id":"tt10922610","world_art_id":null,"type":"movie","add":"2020-05-28 05:57:06","orig_title":"Jodi","year":"2019-09-05","translations":["Любительский (многоголосый закадровый) (Синема УС)"],"quality":"webdl","translation":"Любительский (многоголосый закадровый) (Синема УС)","update":"2020-05-28 10:18:10","iframe_src":"//24213.svetacdn.in/71tsRs29n5tZ/movie/40754"},{"id":40753,"title":"Сатру","kp_id":"1248790","imdb_id":"tt9894098","world_art_id":null,"type":"movie","add":"2020-05-28 05:54:51","orig_title":"Sathru","year":"2019-03-07","translations":["Любительский (многоголосый закадровый) (Синема УС)"],"quality":"webdl","translation":"Любительский (многоголосый закадровый) (Синема УС)","update":"2020-05-28 10:17:43","iframe_src":"//24213.svetacdn.in/71tsRs29n5tZ/movie/40753"},{"id":40735,"title":"Акула-призрак","kp_id":"1340339","imdb_id":"tt11650674","world_art_id":null,"type":"movie","add":"2020-05-27 15:13:30","orig_title":"Ouija Shark","year":"2020-03-07","translations":["[EN] Original (English)","Любительский (многоголосый закадровый) (Синема УС)"],"quality":"webdl","translation":"[EN] Original (English)","update":"2020-05-28 10:14:46","iframe_src":"//24213.svetacdn.in/71tsRs29n5tZ/movie/40735"},{"id":40734,"title":"Тысячелетний убийца","kp_id":"1125115","imdb_id":"tt8090624","world_art_id":null,"type":"movie","add":"2020-05-27 15:12:08","orig_title":"The Millennial Killer","year":"2020-01-19","translations":["[EN] Original (English)"],"quality":"webdl","translation":"[EN] Original (English)","update":"2020-05-28 08:17:00","iframe_src":"//24213.svetacdn.in/71tsRs29n5tZ/movie/40734"},{"id":40732,"title":"Экспедиция 2: Отмщение","kp_id":"1292910","imdb_id":"tt10783080","world_art_id":null,"type":"movie","add":"2020-05-27 15:07:52","orig_title":"Insight of Evil 2: Vengeance","year":"2019-10-31","translations":["[EN] Original (English)"],"quality":"webdl","translation":"[EN] Original (English)","update":"2020-05-28 08:13:57","iframe_src":"//24213.svetacdn.in/71tsRs29n5tZ/movie/40732"},{"id":40721,"title":"Ты будешь моим","kp_id":"1180122","imdb_id":"tt8820348","world_art_id":null,"type":"movie","add":"2020-05-26 20:50:20","orig_title":"I Will Make You Mine","year":"2020-01-01","translations":["Любительский (многоголосый закадровый) (AlphaProject)","[EN] Original (English)"],"quality":"webdl","translation":"Любительский (многоголосый закадровый) (AlphaProject)","update":"2020-05-28 08:12:34","iframe_src":"//24213.svetacdn.in/71tsRs29n5tZ/movie/40721"},{"id":40716,"title":"Несчастье Рона Хоппера","kp_id":"1140701","imdb_id":"tt8364590","world_art_id":null,"type":"movie","add":"2020-05-26 20:36:28","orig_title":"Ron Hopper's Misfortune","year":"2020-03-10","translations":["Любительский (многоголосый закадровый) (@MUZOBOZ@)","[EN] Original (English)"],"quality":"webdl","translation":"Любительский (многоголосый закадровый) (@MUZOBOZ@)","update":"2020-05-28 08:18:59","iframe_src":"//24213.svetacdn.in/71tsRs29n5tZ/movie/40716"},{"id":40709,"title":"Жизнь в забвении","kp_id":"9621","imdb_id":"tt0113677","world_art_id":null,"type":"movie","add":"2020-05-26 14:11:29","orig_title":"Living in Oblivion","year":"1995-01-20","translations":["Авторский (одноголосый закадровый) (Гаврилов Андрей)","[EN] Original (English)","Профессиональный (двухголосый закадровый)"],"quality":"bd","translation":"Авторский (одноголосый закадровый) (Гаврилов Андрей)","update":"2020-05-28 06:52:06","iframe_src":"//24213.svetacdn.in/71tsRs29n5tZ/movie/40709"},{"id":40698,"title":"Удушье","kp_id":"1312127","imdb_id":"tt11127256","world_art_id":null,"type":"movie","add":"2020-05-25 19:56:10","orig_title":"Choke","year":"2020-05-08","translations":["Любительский (многоголосый закадровый) (Синема УС)","[EN] Original (English)"],"quality":"webdl","translation":"Любительский (многоголосый закадровый) (Синема УС)","update":"2020-05-28 08:09:54","iframe_src":"//24213.svetacdn.in/71tsRs29n5tZ/movie/40698"},{"id":40696,"title":"Зубная фея 2","kp_id":"1311101","imdb_id":"tt11082246","world_art_id":null,"type":"movie","add":"2020-05-25 19:52:46","orig_title":"Toothfairy 2","year":"2020-07-05","translations":["Любительский (многоголосый закадровый) (Синема УС)","[EN] Original (English)"],"quality":"webdl","translation":"Любительский (многоголосый закадровый) (Синема УС)","update":"2020-05-28 08:24:27","iframe_src":"//24213.svetacdn.in/71tsRs29n5tZ/movie/40696"},{"id":40694,"title":"Последние и первые люди","kp_id":"1146483","imdb_id":"tt8015444","world_art_id":null,"type":"movie","add":"2020-05-25 19:49:35","orig_title":"Last and First Men","year":"2020-02-25","translations":["Любительский (многоголосый закадровый) (Синема УС)","[EN] Original (English)"],"quality":"bd","translation":"Любительский (многоголосый закадровый) (Синема УС)","update":"2020-05-28 07:21:12","iframe_src":"//24213.svetacdn.in/71tsRs29n5tZ/movie/40694"},{"id":40675,"title":"Сказка о звездном мальчике","kp_id":"95206","imdb_id":"tt0213249","world_art_id":null,"type":"movie","add":"2020-05-25 11:24:09","orig_title":"Skazka o zvezdnom malchike","year":"1984-01-06","translations":["Оригинальная дорожка"],"quality":"hdtv","translation":"Оригинальная дорожка","update":"2020-05-28 08:39:13","iframe_src":"//24213.svetacdn.in/71tsRs29n5tZ/movie/40675"},{"id":40649,"title":"Секс будущего","kp_id":"1098963","imdb_id":"tt7541838","world_art_id":null,"type":"movie","add":"2020-05-23 19:55:25","orig_title":"Sex and the Future","year":"2020-04-01","translations":["Любительский (многоголосый закадровый) (Синема УС)","[EN] Original (English)"],"quality":"webdl","translation":"Любительский (многоголосый закадровый) (Синема УС)","update":"2020-05-28 08:19:55","iframe_src":"//24213.svetacdn.in/71tsRs29n5tZ/movie/40649"},{"id":40633,"title":"Некромант Фауст","kp_id":"1202594","imdb_id":"tt9010454","world_art_id":null,"type":"movie","add":"2020-05-22 12:54:11","orig_title":"Faust the Necromancer","year":"2020-05-14","translations":["Любительский (многоголосый закадровый) (Синема УС)","[EN] Original (English)"],"quality":"webdl","translation":"Любительский (многоголосый закадровый) (Синема УС)","update":"2020-05-28 08:11:08","iframe_src":"//24213.svetacdn.in/71tsRs29n5tZ/movie/40633"},{"id":40630,"title":"Над Рейном","kp_id":"990486","imdb_id":"tt5848326","world_art_id":null,"type":"movie","add":"2020-05-21 20:39:42","orig_title":"Over-the-Rhine","year":"2020-05-15","translations":["Любительский (многоголосый закадровый) (AlphaProject)","[EN] Original (English)"],"quality":"webdl","translation":"Любительский (многоголосый закадровый) (AlphaProject)","update":"2020-05-28 08:12:02","iframe_src":"//24213.svetacdn.in/71tsRs29n5tZ/movie/40630"},{"id":40224,"title":"Борьба в округе Пакстон","kp_id":"1146632","imdb_id":"tt8362228","world_art_id":null,"type":"movie","add":"2020-05-09 02:48:26","orig_title":"The Stand at Paxton County","year":"2020-05-02","translations":["Любительский (многоголосый закадровый) (Синема УС)","[EN] Original (English)"],"quality":"webdl","translation":"Любительский (многоголосый закадровый) (Синема УС)","update":"2020-05-28 08:23:50","iframe_src":"//24213.svetacdn.in/71tsRs29n5tZ/movie/40224"},{"id":32376,"title":"Противостояние","kp_id":"85095","imdb_id":"tt0418460","world_art_id":null,"type":"movie","add":"2019-10-26 10:57:13","orig_title":"Aitraaz","year":"2004-11-12","translations":["Профессиональный (многоголосый закадровый) (Формат AB)"],"quality":"webdl","translation":"Профессиональный (многоголосый закадровый) (Формат AB)","update":"2020-05-28 07:04:58","iframe_src":"//24213.svetacdn.in/71tsRs29n5tZ/movie/32376"},{"id":10107,"title":"Пазманский дьявол","kp_id":"502723","imdb_id":"tt1620935","world_art_id":null,"type":"movie","add":"2017-02-28 12:06:33","orig_title":"Bleed for This","year":"2016-09-02","translations":["Любительский (многоголосый закадровый) (Синема УС)","Полное дублирование (iTunes)","[EN] Original (English)"],"quality":"bd","translation":"Любительский (многоголосый закадровый) (Синема УС)","update":"2020-05-28 06:54:51","iframe_src":"//24213.svetacdn.in/71tsRs29n5tZ/movie/10107"},{"id":4100,"title":"Парень-каратист 2","kp_id":"8146","imdb_id":"tt0091326","world_art_id":null,"type":"movie","add":"2016-07-22 07:12:17","orig_title":"The Karate Kid, Part II","year":"1986-06-19","translations":["Профессиональный (многоголосый закадровый)","Авторский (одноголосый закадровый) (Гаврилов Андрей)","Авторский (одноголосый закадровый) (Горчаков Василий)","Авторский (одноголосый закадровый) (Иванов Михаил)","Авторский (одноголосый закадровый) (Кузнецов Сергей)","[EN] Original (English)","Профессиональный (многоголосый закадровый) (Первый канал | ОРТ)"],"quality":"bd","translation":"Профессиональный (многоголосый закадровый)","update":"2020-05-28 07:01:27","iframe_src":"//24213.svetacdn.in/71tsRs29n5tZ/movie/4100"},{"id":673,"title":"Семь психопатов","kp_id":"586584","imdb_id":"tt1931533","world_art_id":null,"type":"movie","add":"2016-04-05 20:42:26","orig_title":"Seven Psychopaths","year":"2012-09-07","translations":["[EN] Original (English)","Авторский (одноголосый закадровый) (Гоблин | Пучков Дмитрий)","Авторский (одноголосый закадровый) (Сербин Юрий)","Авторский (одноголосый закадровый) (Завгородний Владимир)","Полное дублирование"],"quality":"bd","translation":"[EN] Original (English)","update":"2020-05-28 07:09:23","iframe_src":"//24213.svetacdn.in/71tsRs29n5tZ/movie/673"}],"current_page":1218,"first_page_url":"https://videocdn.tv/api/short?limit=100&api_token=EnbO9h8pv1VyjbCJhg0WM9nG259n7mtz&cache31218=31218&page=1","from":121701,"last_page":725,"last_page_url":"https://videocdn.tv/api/short?limit=100&api_token=EnbO9h8pv1VyjbCJhg0WM9nG259n7mtz&cache31218=31218&page=725","next_page_url":null,"path":"https://videocdn.tv/api/short","per_page":100,"prev_page_url":"https://videocdn.tv/api/short?limit=100&api_token=EnbO9h8pv1VyjbCJhg0WM9nG259n7mtz&cache31218=31218&page=1217","to":121720,"total":72409}