{"result":true,"data":[{"id":13004,"title":"Преследуемая своим доктором: Возвращение","kp_id":"1000270","imdb_id":"tt5989054","world_art_id":null,"type":"movie","add":"2017-08-17 04:27:46","orig_title":"Stalked by My Doctor: The Return","year":"2016-09-05","translations":["Любительский (многоголосый закадровый) (Синема УС)"],"quality":"hdtv","translation":"Любительский (многоголосый закадровый) (Синема УС)","update":"2017-08-17 06:43:58","iframe_src":"//8332.svetacdn.in/71tsRs29n5tZ/movie/13004"},{"id":13000,"title":"Стокгольм, любовь моя","kp_id":null,"imdb_id":"tt6107412","world_art_id":null,"type":"movie","add":"2017-08-17 04:23:06","orig_title":"Stockholm, My Love","year":"2016-11-16","translations":["Любительский (многоголосый закадровый) (Синема УС)"],"quality":"bd","translation":"Любительский (многоголосый закадровый) (Синема УС)","update":"2017-08-17 06:41:49","iframe_src":"//8332.svetacdn.in/71tsRs29n5tZ/movie/13000"},{"id":12986,"title":"Исчезнувшие: Оставленные — Следующее поколение","kp_id":"911843","imdb_id":"tt4661680","world_art_id":null,"type":"movie","add":"2017-08-16 05:00:44","orig_title":"Left Behind: Vanished: Next Generation","year":"2016-09-28","translations":["Любительский (многоголосый закадровый) (Синема УС)"],"quality":"bd","translation":"Любительский (многоголосый закадровый) (Синема УС)","update":"2017-08-16 08:29:14","iframe_src":"//8332.svetacdn.in/71tsRs29n5tZ/movie/12986"},{"id":12985,"title":"Дом Юлиев: Тайна Авроры Тигарден","kp_id":"995083","imdb_id":"tt5931726","world_art_id":null,"type":"movie","add":"2017-08-16 04:59:51","orig_title":"The Julius House: An Aurora Teagarden Mystery","year":"2016-10-16","translations":["Любительский (многоголосый закадровый) (Синема УС)"],"quality":"hdtv","translation":"Любительский (многоголосый закадровый) (Синема УС)","update":"2017-08-16 08:30:40","iframe_src":"//8332.svetacdn.in/71tsRs29n5tZ/movie/12985"},{"id":12983,"title":"Невероятная Джессика Джеймс","kp_id":"999930","imdb_id":"tt5990342","world_art_id":null,"type":"movie","add":"2017-08-16 04:58:09","orig_title":"The Incredible Jessica James","year":"2017-01-27","translations":["Любительский (многоголосый закадровый) (Синема УС)"],"quality":"webdl","translation":"Любительский (многоголосый закадровый) (Синема УС)","update":"2017-08-16 08:30:11","iframe_src":"//8332.svetacdn.in/71tsRs29n5tZ/movie/12983"},{"id":12982,"title":"Чeловек, который кричит","kp_id":"520844","imdb_id":"tt1639901","world_art_id":null,"type":"movie","add":"2017-08-16 04:57:22","orig_title":"Un homme qui crie","year":"2010-05-16","translations":["Любительский (одноголосый закадровый)"],"quality":"dvdrip","translation":"Любительский (одноголосый закадровый)","update":"2017-08-16 08:29:39","iframe_src":"//8332.svetacdn.in/71tsRs29n5tZ/movie/12982"},{"id":12972,"title":"Невеста и предрассудки","kp_id":"24204","imdb_id":"tt0361411","world_art_id":null,"type":"movie","add":"2017-08-15 14:38:55","orig_title":"Bride & Prejudice","year":"2004-10-06","translations":["Полное дублирование"],"quality":"hdtv","translation":"Полное дублирование","update":"2017-08-17 05:46:52","iframe_src":"//8332.svetacdn.in/71tsRs29n5tZ/movie/12972"},{"id":12971,"title":"Врата в 3D","kp_id":"422398","imdb_id":"tt1085779","world_art_id":null,"type":"movie","add":"2017-08-15 14:37:46","orig_title":"The Hole","year":"2009-09-11","translations":["Полное дублирование"],"quality":"bd","translation":"Полное дублирование","update":"2017-08-17 05:45:56","iframe_src":"//8332.svetacdn.in/71tsRs29n5tZ/movie/12971"},{"id":12970,"title":"Неотразимая Тамара","kp_id":"471108","imdb_id":"tt1486190","world_art_id":null,"type":"movie","add":"2017-08-15 14:36:14","orig_title":"Tamara Drewe","year":"2010-05-18","translations":["Полное дублирование"],"quality":"bd","translation":"Полное дублирование","update":"2017-08-17 05:33:56","iframe_src":"//8332.svetacdn.in/71tsRs29n5tZ/movie/12970"},{"id":12969,"title":"Душевная кухня","kp_id":"430571","imdb_id":"tt1244668","world_art_id":null,"type":"movie","add":"2017-08-15 14:35:09","orig_title":"Soul Kitchen","year":"2009-09-10","translations":["Полное дублирование"],"quality":"bd","translation":"Полное дублирование","update":"2017-08-17 05:32:06","iframe_src":"//8332.svetacdn.in/71tsRs29n5tZ/movie/12969"},{"id":12968,"title":"Брак по-итальянски","kp_id":"26821","imdb_id":"tt0058335","world_art_id":null,"type":"movie","add":"2017-08-15 14:34:10","orig_title":"Matrimonio all'italiana","year":"1964-12-19","translations":["Полное дублирование"],"quality":"bd","translation":"Полное дублирование","update":"2017-08-17 05:28:53","iframe_src":"//8332.svetacdn.in/71tsRs29n5tZ/movie/12968"},{"id":12967,"title":"Затерянный мир","kp_id":"180960","imdb_id":"tt0457400","world_art_id":null,"type":"movie","add":"2017-08-15 14:33:06","orig_title":"Land of the Lost","year":"2009-06-05","translations":["Полное дублирование"],"quality":"bd","translation":"Полное дублирование","update":"2017-08-17 04:53:32","iframe_src":"//8332.svetacdn.in/71tsRs29n5tZ/movie/12967"},{"id":12966,"title":"Приколисты","kp_id":"409348","imdb_id":"tt1201167","world_art_id":null,"type":"movie","add":"2017-08-15 14:32:06","orig_title":"Funny People","year":"2009-07-20","translations":["Полное дублирование"],"quality":"bd","translation":"Полное дублирование","update":"2017-08-17 04:51:24","iframe_src":"//8332.svetacdn.in/71tsRs29n5tZ/movie/12966"},{"id":12965,"title":"Супруги Морган в бегах","kp_id":"452857","imdb_id":"tt1314228","world_art_id":null,"type":"movie","add":"2017-08-15 14:30:47","orig_title":"Did You Hear About the Morgans?","year":"2009-12-18","translations":["Полное дублирование"],"quality":"bd","translation":"Полное дублирование","update":"2017-08-17 04:49:52","iframe_src":"//8332.svetacdn.in/71tsRs29n5tZ/movie/12965"},{"id":12916,"title":"Приливы","kp_id":"661915","imdb_id":"tt2201251","world_art_id":null,"type":"movie","add":"2017-08-10 13:39:34","orig_title":"The Hot Flashes","year":"2013-07-12","translations":["Профессиональный (многоголосый закадровый)"],"quality":"webdl","translation":"Профессиональный (многоголосый закадровый)","update":"2017-08-17 04:47:05","iframe_src":"//8332.svetacdn.in/71tsRs29n5tZ/movie/12916"},{"id":12915,"title":"У нас есть Папа!","kp_id":"570063","imdb_id":"tt1456472","world_art_id":null,"type":"movie","add":"2017-08-10 13:38:43","orig_title":"Habemus Papam","year":"2011-04-15","translations":["Профессиональный (многоголосый закадровый)"],"quality":"hdtv","translation":"Профессиональный (многоголосый закадровый)","update":"2017-08-17 04:45:08","iframe_src":"//8332.svetacdn.in/71tsRs29n5tZ/movie/12915"},{"id":12914,"title":"10 правил соблазнения","kp_id":"647085","imdb_id":"tt2100371","world_art_id":null,"type":"movie","add":"2017-08-10 13:37:29","orig_title":"10 regole per fare innamorare","year":"2012-03-16","translations":["Профессиональный (многоголосый закадровый)"],"quality":"hdtv","translation":"Профессиональный (многоголосый закадровый)","update":"2017-08-17 04:44:01","iframe_src":"//8332.svetacdn.in/71tsRs29n5tZ/movie/12914"},{"id":12912,"title":"Вальсирующие","kp_id":"20938","imdb_id":"tt0072353","world_art_id":null,"type":"movie","add":"2017-08-10 13:35:34","orig_title":"Les valseuses","year":"1974-03-20","translations":["Профессиональный (многоголосый закадровый)"],"quality":"bd","translation":"Профессиональный (многоголосый закадровый)","update":"2017-08-17 04:41:42","iframe_src":"//8332.svetacdn.in/71tsRs29n5tZ/movie/12912"},{"id":12911,"title":"Уик-энд в Париже","kp_id":"706996","imdb_id":"tt2392326","world_art_id":null,"type":"movie","add":"2017-08-10 13:34:19","orig_title":"Le Week-End","year":"2013-09-07","translations":["Профессиональный (многоголосый закадровый)"],"quality":"bd","translation":"Профессиональный (многоголосый закадровый)","update":"2017-08-17 04:39:45","iframe_src":"//8332.svetacdn.in/71tsRs29n5tZ/movie/12911"},{"id":12910,"title":"Близкие друзья","kp_id":"406387","imdb_id":"tt1185420","world_art_id":null,"type":"movie","add":"2017-08-10 13:33:04","orig_title":"Dostana","year":"2008-11-13","translations":["Профессиональный (многоголосый закадровый) (Red Media)"],"quality":"bd","translation":"Профессиональный (многоголосый закадровый) (Red Media)","update":"2017-08-17 04:37:46","iframe_src":"//8332.svetacdn.in/71tsRs29n5tZ/movie/12910"}],"current_page":2087,"first_page_url":"https://videocdn.tv/api/short?limit=100&api_token=EnbO9h8pv1VyjbCJhg0WM9nG259n7mtz&cache32087=32087&page=1","from":208601,"last_page":639,"last_page_url":"https://videocdn.tv/api/short?limit=100&api_token=EnbO9h8pv1VyjbCJhg0WM9nG259n7mtz&cache32087=32087&page=639","next_page_url":null,"path":"https://videocdn.tv/api/short","per_page":100,"prev_page_url":"https://videocdn.tv/api/short?limit=100&api_token=EnbO9h8pv1VyjbCJhg0WM9nG259n7mtz&cache32087=32087&page=2086","to":208620,"total":63897}