{"result":true,"data":[{"id":34606,"title":"Аладдин и смертельная лампа","kp_id":"709162","imdb_id":"tt2415710","world_art_id":null,"type":"movie","add":"2019-12-30 09:40:36","orig_title":"Aladdin and the Death Lamp","year":"2012-09-15","translations":["Профессиональный (многоголосый закадровый) (ТВ3)"],"quality":"webdl","translation":"Профессиональный (многоголосый закадровый) (ТВ3)","update":"2019-12-30 18:53:47","iframe_src":"//83.svetacdn.in/PfJ50H0ZBPg3/movie/34606"},{"id":34605,"title":"Омут","kp_id":"541052","imdb_id":"tt1694019","world_art_id":null,"type":"movie","add":"2019-12-30 08:48:02","orig_title":"Iggi","year":"2010-07-14","translations":["Любительский (одноголосый закадровый)"],"quality":"bd","translation":"Любительский (одноголосый закадровый)","update":"2019-12-30 18:52:46","iframe_src":"//83.svetacdn.in/PfJ50H0ZBPg3/movie/34605"},{"id":34522,"title":"Чёртов качок в аду","kp_id":"1046558","imdb_id":"tt6403680","world_art_id":null,"type":"movie","add":"2019-12-27 15:33:00","orig_title":"Jigoku no chimidoro muscle builder","year":"2014-03-28","translations":["Любительский (одноголосый закадровый)"],"quality":"webdl","translation":"Любительский (одноголосый закадровый)","update":"2019-12-30 13:36:06","iframe_src":"//83.svetacdn.in/PfJ50H0ZBPg3/movie/34522"},{"id":34508,"title":"Роковая женщина","kp_id":"981109","imdb_id":"tt5628012","world_art_id":null,"type":"movie","add":"2019-12-26 19:34:50","orig_title":"Jug-yeo-ju-neun Yeo-ja","year":"2016-02-12","translations":["Любительский (двухголосый закадровый)"],"quality":"hdtv","translation":"Любительский (двухголосый закадровый)","update":"2019-12-30 12:55:12","iframe_src":"//83.svetacdn.in/PfJ50H0ZBPg3/movie/34508"},{"id":34506,"title":"Проклятие слепой женщины","kp_id":"138680","imdb_id":"tt0065932","world_art_id":null,"type":"movie","add":"2019-12-26 19:26:18","orig_title":"Hîchirimen bâkuto - Nôbarydu takahadâ","year":"1970-06-20","translations":["Любительский (одноголосый закадровый)"],"quality":"bd","translation":"Любительский (одноголосый закадровый)","update":"2019-12-30 12:22:25","iframe_src":"//83.svetacdn.in/PfJ50H0ZBPg3/movie/34506"},{"id":34505,"title":"Молчание","kp_id":"5455","imdb_id":"tt0067755","world_art_id":null,"type":"movie","add":"2019-12-26 19:23:00","orig_title":"Chinmoku","year":"1971-11-03","translations":["Авторский (одноголосый закадровый) (Воротилин Олег)"],"quality":"bd","translation":"Авторский (одноголосый закадровый) (Воротилин Олег)","update":"2019-12-30 12:21:23","iframe_src":"//83.svetacdn.in/PfJ50H0ZBPg3/movie/34505"},{"id":34501,"title":"Жестокая девственница","kp_id":"179520","imdb_id":"tt0291202","world_art_id":null,"type":"movie","add":"2019-12-26 19:00:07","orig_title":"Shôjo geba-geba","year":"1969-11-16","translations":["Любительский (одноголосый закадровый) (Воротилин Олег)"],"quality":"dvdrip","translation":"Любительский (одноголосый закадровый) (Воротилин Олег)","update":"2019-12-30 13:25:32","iframe_src":"//83.svetacdn.in/PfJ50H0ZBPg3/movie/34501"},{"id":34492,"title":"Демон горы Оэ","kp_id":"314296","imdb_id":"tt0199890","world_art_id":null,"type":"movie","add":"2019-12-26 15:18:44","orig_title":"Ooe-yama Shuten-dôji","year":"1960-04-27","translations":["Авторский (одноголосый закадровый) (Кузнецов Сергей)"],"quality":"dvdrip","translation":"Авторский (одноголосый закадровый) (Кузнецов Сергей)","update":"2019-12-30 13:11:22","iframe_src":"//83.svetacdn.in/PfJ50H0ZBPg3/movie/34492"},{"id":34485,"title":"Окацу в бегах","kp_id":"65556","imdb_id":"tt0199599","world_art_id":null,"type":"movie","add":"2019-12-26 14:41:19","orig_title":"Yôen dokufu-den: Hitokiri Okatsu","year":"1969-04-10","translations":["Профессиональный (одноголосый закадровый)"],"quality":"dvdrip","translation":"Профессиональный (одноголосый закадровый)","update":"2019-12-30 12:57:41","iframe_src":"//83.svetacdn.in/PfJ50H0ZBPg3/movie/34485"},{"id":34407,"title":"Праведные связи","kp_id":"272957","imdb_id":"tt0891488","world_art_id":null,"type":"movie","add":"2019-12-23 18:31:51","orig_title":"Geo-rook-han-ge-bo","year":"2006-10-19","translations":["Любительский (одноголосый закадровый) (den904)"],"quality":"dvdrip","translation":"Любительский (одноголосый закадровый) (den904)","update":"2019-12-30 13:32:49","iframe_src":"//83.svetacdn.in/PfJ50H0ZBPg3/movie/34407"},{"id":34286,"title":"Большая плохая сестра","kp_id":"232973","imdb_id":"tt0074203","world_art_id":null,"type":"movie","add":"2019-12-19 22:25:42","orig_title":"Sa dam ying","year":"1976-10-07","translations":["Любительский (одноголосый закадровый) (Береговых Виктор | Jet)"],"quality":"dvdrip","translation":"Любительский (одноголосый закадровый) (Береговых Виктор | Jet)","update":"2019-12-30 13:32:06","iframe_src":"//83.svetacdn.in/PfJ50H0ZBPg3/movie/34286"},{"id":34230,"title":"Шёпот стен 2","kp_id":"64361","imdb_id":"tt0266075","world_art_id":null,"type":"movie","add":"2019-12-17 20:28:55","orig_title":"Yeogo goedam II","year":"1999-12-24","translations":["Любительский (одноголосый закадровый) (den904)"],"quality":"dvdrip","translation":"Любительский (одноголосый закадровый) (den904)","update":"2019-12-30 13:10:39","iframe_src":"//83.svetacdn.in/PfJ50H0ZBPg3/movie/34230"},{"id":34229,"title":"Шёпот стен 3","kp_id":"76551","imdb_id":"tt0370082","world_art_id":null,"type":"movie","add":"2019-12-17 20:26:16","orig_title":"Yeogo goedam 3: Yeowoo gyedan","year":"2003-07-18","translations":["Любительский (одноголосый закадровый) (den904)"],"quality":"dvdrip","translation":"Любительский (одноголосый закадровый) (den904)","update":"2019-12-30 13:09:16","iframe_src":"//83.svetacdn.in/PfJ50H0ZBPg3/movie/34229"},{"id":34228,"title":"Шёпот стен 5","kp_id":"494487","imdb_id":"tt1565058","world_art_id":null,"type":"movie","add":"2019-12-17 20:24:31","orig_title":"Yeogo goedam 5: Dong-ban-ja-sal","year":"2009-06-18","translations":["Любительский (одноголосый закадровый)"],"quality":"dvdrip","translation":"Любительский (одноголосый закадровый)","update":"2019-12-30 13:08:15","iframe_src":"//83.svetacdn.in/PfJ50H0ZBPg3/movie/34228"},{"id":34126,"title":"Перевал Дайбосацу 3","kp_id":"383697","imdb_id":"tt0960752","world_art_id":null,"type":"movie","add":"2019-12-15 19:36:57","orig_title":"Daibosatsu tôge - Kanketsu-hen","year":"1959-04-28","translations":["Авторский (одноголосый закадровый) (Кузнецов Сергей)"],"quality":"dvdrip","translation":"Авторский (одноголосый закадровый) (Кузнецов Сергей)","update":"2019-12-30 13:29:36","iframe_src":"//83.svetacdn.in/PfJ50H0ZBPg3/movie/34126"},{"id":34125,"title":"Перевал Дайбосацу 2: Души в лунном свете","kp_id":"383698","imdb_id":"tt0960751","world_art_id":null,"type":"movie","add":"2019-12-15 19:34:59","orig_title":"Daibosatsu tôge - Dai ni bu","year":"1958-04-21","translations":["Авторский (одноголосый закадровый) (Кузнецов Сергей)"],"quality":"dvdrip","translation":"Авторский (одноголосый закадровый) (Кузнецов Сергей)","update":"2019-12-30 13:30:34","iframe_src":"//83.svetacdn.in/PfJ50H0ZBPg3/movie/34125"},{"id":34124,"title":"Перевал Дайбосацу","kp_id":"138689","imdb_id":"tt0199443","world_art_id":null,"type":"movie","add":"2019-12-15 19:33:10","orig_title":"Daibosatsu tôge","year":"1957-07-13","translations":["Авторский (одноголосый закадровый) (Кузнецов Сергей)"],"quality":"dvdrip","translation":"Авторский (одноголосый закадровый) (Кузнецов Сергей)","update":"2019-12-30 13:31:23","iframe_src":"//83.svetacdn.in/PfJ50H0ZBPg3/movie/34124"},{"id":13919,"title":"Друзья на одну неделю","kp_id":"968599","imdb_id":"tt5167966","world_art_id":null,"type":"movie","add":"2017-10-19 22:46:10","orig_title":"Isshukan friends","year":"2017-02-18","translations":["Любительский (двухголосый закадровый) (XDUB Dorama)","Любительский (двухголосый закадровый) (STEPonee)"],"quality":"webdl","translation":"Любительский (двухголосый закадровый) (XDUB Dorama)","update":"2019-12-30 13:35:28","iframe_src":"//83.svetacdn.in/PfJ50H0ZBPg3/movie/13919"},{"id":8989,"title":"Адские пытки для красивой учительницы","kp_id":"656532","imdb_id":"tt0223848","world_art_id":null,"type":"movie","add":"2017-01-17 11:32:27","orig_title":"Oniroku Dan: Bikyoshi jigokuzeme","year":"1985-12-14","translations":["Любительский (одноголосый закадровый)"],"quality":"bd","translation":"Любительский (одноголосый закадровый)","update":"2019-12-30 12:27:32","iframe_src":"//83.svetacdn.in/PfJ50H0ZBPg3/movie/8989"},{"id":1178,"title":"Моджин","kp_id":"873425","imdb_id":"tt4276752","world_art_id":null,"type":"movie","add":"2016-04-15 16:45:11","orig_title":"The Ghouls","year":"2015-12-17","translations":["Любительский (двухголосый закадровый)","Любительский (одноголосый закадровый) (Хихикающий доктор)"],"quality":"bd","translation":"Любительский (двухголосый закадровый)","update":"2019-12-30 13:02:17","iframe_src":"//83.svetacdn.in/PfJ50H0ZBPg3/movie/1178"}],"current_page":1121,"first_page_url":"https://videocdn.tv/api/short?limit=100&api_token=RgFQdUIR2dRmwv8iYa5SnFNgnw3vpjKj&cache31121=31121&page=1","from":112001,"last_page":655,"last_page_url":"https://videocdn.tv/api/short?limit=100&api_token=RgFQdUIR2dRmwv8iYa5SnFNgnw3vpjKj&cache31121=31121&page=655","next_page_url":null,"path":"https://videocdn.tv/api/short","per_page":100,"prev_page_url":"https://videocdn.tv/api/short?limit=100&api_token=RgFQdUIR2dRmwv8iYa5SnFNgnw3vpjKj&cache31121=31121&page=1120","to":112020,"total":65470}