{"result":true,"data":[{"id":49626,"title":"Мацист и дочери долины","kp_id":"114910","imdb_id":"tt0139696","world_art_id":null,"type":"movie","add":"2021-04-14 21:28:29","orig_title":"La valle dell'eco tonante","year":"1964-10-09","translations":["Профессиональный (многоголосый закадровый)"],"quality":"dvdrip","translation":"Профессиональный (многоголосый закадровый)","update":"2021-04-15 06:51:41","iframe_src":"//8332.svetacdn.in/si4jsFRrtgrT/movie/49626"},{"id":49612,"title":"Вор-полицейский","kp_id":"41678","imdb_id":"tt0331216","world_art_id":null,"type":"movie","add":"2021-04-14 15:30:45","orig_title":"Chor Machaaye Shor","year":"2002-08-23","translations":["Профессиональный (многоголосый закадровый) (ZEE TV)"],"quality":"webdl","translation":"Профессиональный (многоголосый закадровый) (ZEE TV)","update":"2021-04-15 07:34:42","iframe_src":"//8332.svetacdn.in/si4jsFRrtgrT/movie/49612"},{"id":49608,"title":"Пагубная страсть","kp_id":"68807","imdb_id":"tt0055960","world_art_id":null,"type":"movie","add":"2021-04-14 12:03:11","orig_title":"Er kanns nicht lassen","year":"1962-10-19","translations":["Любительский (одноголосый закадровый) (Машинский Леонид)"],"quality":"bd","translation":"Любительский (одноголосый закадровый) (Машинский Леонид)","update":"2021-04-15 07:56:27","iframe_src":"//8332.svetacdn.in/si4jsFRrtgrT/movie/49608"},{"id":49606,"title":"Паршивая овца","kp_id":"68810","imdb_id":"tt0054281","world_art_id":null,"type":"movie","add":"2021-04-14 12:00:36","orig_title":"Das schwarze Schaf","year":"1960-12-19","translations":["Любительский (одноголосый закадровый) (Машинский Леонид)"],"quality":"bd","translation":"Любительский (одноголосый закадровый) (Машинский Леонид)","update":"2021-04-15 07:57:43","iframe_src":"//8332.svetacdn.in/si4jsFRrtgrT/movie/49606"},{"id":48617,"title":"Кровь на короне","kp_id":"1302874","imdb_id":"tt10951288","world_art_id":null,"type":"movie","add":"2021-03-10 10:41:47","orig_title":"Just Noise","year":"2021-03-09","translations":["Любительский (многоголосый закадровый) (@MUZOBOZ@)","Original (English)"],"quality":"webdl","translation":"Любительский (многоголосый закадровый) (@MUZOBOZ@)","update":"2021-04-15 06:40:36","iframe_src":"//8332.svetacdn.in/si4jsFRrtgrT/movie/48617"},{"id":48217,"title":"Обмануть смерть","kp_id":"1230427","imdb_id":"tt9510324","world_art_id":null,"type":"movie","add":"2021-02-24 10:40:26","orig_title":"Death of a Fool","year":"2020-02-20","translations":["Любительский (многоголосый закадровый) (AlphaProject)","Любительский (многоголосый закадровый) (AlphaProject)","Original (English)"],"quality":"webdl","translation":"Любительский (многоголосый закадровый) (AlphaProject)","update":"2021-04-15 06:44:09","iframe_src":"//8332.svetacdn.in/si4jsFRrtgrT/movie/48217"},{"id":48212,"title":"Меня Зовут Нормандия","kp_id":null,"imdb_id":"tt4924686","world_art_id":null,"type":"movie","add":"2021-02-24 09:43:08","orig_title":"Normandy Is My Name","year":"2020-06-09","translations":["Любительский (многоголосый закадровый) (Синема УС)","Любительский (многоголосый закадровый) (AlphaProject)","Original (English)"],"quality":"webdl","translation":"Любительский (многоголосый закадровый) (Синема УС)","update":"2021-04-15 06:36:21","iframe_src":"//8332.svetacdn.in/si4jsFRrtgrT/movie/48212"},{"id":48028,"title":"Партнеры","kp_id":"5025","imdb_id":"tt0084477","world_art_id":null,"type":"movie","add":"2021-02-18 05:33:11","orig_title":"Partners","year":"1982-04-30","translations":["Авторский (одноголосый закадровый) (Володарский Леонид)","Любительский (одноголосый закадровый)","Original (English)"],"quality":"bd","translation":"Авторский (одноголосый закадровый) (Володарский Леонид)","update":"2021-04-15 07:43:10","iframe_src":"//8332.svetacdn.in/si4jsFRrtgrT/movie/48028"},{"id":47956,"title":"Иуда и чёрный мессия","kp_id":"1239696","imdb_id":"tt9784798","world_art_id":null,"type":"movie","add":"2021-02-15 20:09:47","orig_title":"Judas and the Black Messiah","year":"2021-02-01","translations":["Original (English)","Любительский (многоголосый закадровый) (@MUZOBOZ@)","Профессиональный (многоголосый закадровый) (AMS)","Профессиональный (многоголосый закадровый) (HDrezka Studio)","Профессиональный (многоголосый закадровый) (HDrezka Studio 18+)","Полное дублирование (iTunes)"],"quality":"webdl","translation":"Original (English)","update":"2021-04-15 07:59:01","iframe_src":"//8332.svetacdn.in/si4jsFRrtgrT/movie/47956"},{"id":47645,"title":"Как преуспеть в рекламе","kp_id":"5230","imdb_id":"tt0097531","world_art_id":null,"type":"movie","add":"2021-02-04 06:30:34","orig_title":"How to Get Ahead in Advertising","year":"1989-03-30","translations":["Профессиональный (многоголосый закадровый)","Авторский (одноголосый закадровый) (Гаврилов Андрей)","Original (English)"],"quality":"bd","translation":"Профессиональный (многоголосый закадровый)","update":"2021-04-15 07:48:57","iframe_src":"//8332.svetacdn.in/si4jsFRrtgrT/movie/47645"},{"id":47353,"title":"Агент Апокалипсиса","kp_id":"1190384","imdb_id":"tt8955940","world_art_id":null,"type":"movie","add":"2021-01-24 17:04:02","orig_title":"Agent Revelation","year":"2021-01-21","translations":["Любительский (многоголосый закадровый) (Синема УС)","Original (English)"],"quality":"webdl","translation":"Любительский (многоголосый закадровый) (Синема УС)","update":"2021-04-15 07:26:50","iframe_src":"//8332.svetacdn.in/si4jsFRrtgrT/movie/47353"},{"id":47147,"title":"Ступая во мрак","kp_id":"1190935","imdb_id":"tt8902978","world_art_id":null,"type":"movie","add":"2021-01-16 20:29:03","orig_title":"Wander Darkly","year":"2020-01-25","translations":["Любительский (многоголосый закадровый) (@MUZOBOZ@)","Любительский (многоголосый закадровый) (@MUZOBOZ@)","Полное дублирование (iTunes)","Original (English)"],"quality":"webdl","translation":"Любительский (многоголосый закадровый) (@MUZOBOZ@)","update":"2021-04-15 07:30:30","iframe_src":"//8332.svetacdn.in/si4jsFRrtgrT/movie/47147"},{"id":47134,"title":"Никому не говори","kp_id":"1186112","imdb_id":"tt8046498","world_art_id":null,"type":"movie","add":"2021-01-16 08:51:58","orig_title":"Don't Tell a Soul","year":"2020-09-08","translations":["Любительский (многоголосый закадровый) (@MUZOBOZ@)","Любительский (двухголосый закадровый) (Hamster Studio)","Original (English)"],"quality":"webdl","translation":"Любительский (многоголосый закадровый) (@MUZOBOZ@)","update":"2021-04-15 06:42:09","iframe_src":"//8332.svetacdn.in/si4jsFRrtgrT/movie/47134"},{"id":46270,"title":"Уроки фарси","kp_id":"1209777","imdb_id":"tt9738784","world_art_id":null,"type":"movie","add":"2020-12-20 20:56:13","orig_title":"Persian Lessons","year":"2020-02-22","translations":["Любительский (многоголосый закадровый) (@MUZOBOZ@)","Полное дублирование","Полное дублирование"],"quality":"bd","translation":"Любительский (многоголосый закадровый) (@MUZOBOZ@)","update":"2021-04-15 08:04:25","iframe_src":"//8332.svetacdn.in/si4jsFRrtgrT/movie/46270"},{"id":8924,"title":"Неудачник","kp_id":"1372321","imdb_id":"tt12189308","world_art_id":null,"type":"serial","add":"2020-10-06 12:25:47","orig_title":"Chichipatos","year":"2020-05-15","translations":["Любительский (многоголосый закадровый) (WestFilm)"],"seasons_count":1,"episodes_count":7,"episodes":7,"update":"2020-10-06 19:06:07","iframe_src":"//8332.svetacdn.in/si4jsFRrtgrT/tv-series/8924"},{"id":8919,"title":"Шесть желаний","kp_id":null,"imdb_id":"tt13063530","world_art_id":null,"type":"serial","add":"2020-10-05 17:42:56","orig_title":"Six Dreams, Back to Win","year":"2020-10-02","translations":["Любительский (многоголосый закадровый) (ColdFilm)","Любительский (многоголосый закадровый) (Octopus)"],"seasons_count":1,"episodes_count":7,"episodes":7,"update":"2020-10-06 22:35:20","iframe_src":"//8332.svetacdn.in/si4jsFRrtgrT/tv-series/8919"},{"id":8915,"title":"Территория","kp_id":"993590","imdb_id":"tt10448616","world_art_id":null,"type":"serial","add":"2020-10-05 05:22:54","orig_title":"Territoriya","year":"2019-08-01","translations":["Оригинальная дорожка"],"seasons_count":1,"episodes_count":8,"episodes":8,"update":"2020-10-05 10:52:35","iframe_src":"//8332.svetacdn.in/si4jsFRrtgrT/tv-series/8915"},{"id":8913,"title":"Соната для горничной","kp_id":"1385498","imdb_id":"tt12217488","world_art_id":null,"type":"serial","add":"2020-10-05 05:05:04","orig_title":"Sonata dlya gornichnoi","year":"2020-04-17","translations":["Оригинальная дорожка"],"seasons_count":1,"episodes_count":2,"episodes":2,"update":"2020-10-05 09:13:41","iframe_src":"//8332.svetacdn.in/si4jsFRrtgrT/tv-series/8913"},{"id":8905,"title":"Мачеха","kp_id":"400087","imdb_id":"tt2381777","world_art_id":null,"type":"serial","add":"2020-10-02 19:29:44","orig_title":"Machekha","year":"2007-09-03","translations":["Оригинальная дорожка"],"seasons_count":1,"episodes_count":150,"episodes":150,"update":"2020-10-07 12:29:26","iframe_src":"//8332.svetacdn.in/si4jsFRrtgrT/tv-series/8905"},{"id":8875,"title":"Адвокат","kp_id":"405640","imdb_id":"tt0963382","world_art_id":null,"type":"serial","add":"2020-09-29 19:20:07","orig_title":"Advokat","year":"2004-04-26","translations":["Оригинальная дорожка"],"seasons_count":8,"episodes_count":125,"episodes":24,"update":"2020-10-05 20:39:11","iframe_src":"//8332.svetacdn.in/si4jsFRrtgrT/tv-series/8875"},{"id":8853,"title":"Коммандос","kp_id":"1296004","imdb_id":"tt10699300","world_art_id":null,"type":"serial","add":"2020-09-26 15:17:48","orig_title":"Commando's","year":"2020-08-30","translations":["Любительский (многоголосый закадровый) (Octopus)"],"seasons_count":1,"episodes_count":10,"episodes":10,"update":"2020-10-05 15:29:08","iframe_src":"//8332.svetacdn.in/si4jsFRrtgrT/tv-series/8853"},{"id":8537,"title":"Галифакс: Возмездие","kp_id":"1302752","imdb_id":"tt10614122","world_art_id":null,"type":"serial","add":"2020-08-26 04:33:11","orig_title":"Halifax: Retribution","year":"2020-08-25","translations":["Любительский (многоголосый закадровый) (Octopus)"],"seasons_count":1,"episodes_count":7,"episodes":7,"update":"2020-10-07 10:24:36","iframe_src":"//8332.svetacdn.in/si4jsFRrtgrT/tv-series/8537"},{"id":7962,"title":"Женская версия. Романтик из СССР","kp_id":"1338318","imdb_id":null,"world_art_id":null,"type":"serial","add":"2020-06-21 09:18:51","orig_title":"Женская версия. Романтик из СССР","year":"2019-10-26","translations":["Оригинальная дорожка"],"seasons_count":1,"episodes_count":2,"episodes":2,"update":"2020-10-06 07:21:07","iframe_src":"//8332.svetacdn.in/si4jsFRrtgrT/tv-series/7962"},{"id":7961,"title":"Женская версия. Ваше время и стекло","kp_id":"1338315","imdb_id":null,"world_art_id":null,"type":"serial","add":"2020-06-21 09:16:38","orig_title":"Женская версия. Ваше время и стекло","year":"2019-10-26","translations":["Оригинальная дорожка"],"seasons_count":1,"episodes_count":2,"episodes":2,"update":"2020-10-06 07:25:45","iframe_src":"//8332.svetacdn.in/si4jsFRrtgrT/tv-series/7961"},{"id":7801,"title":"Женская версия. Чисто советское убийство","kp_id":"1338316","imdb_id":null,"world_art_id":null,"type":"serial","add":"2020-06-10 07:22:14","orig_title":"Женская версия. Чисто советское убийство","year":"2019-11-02","translations":["Оригинальная дорожка"],"seasons_count":1,"episodes_count":4,"episodes":4,"update":"2020-10-06 07:09:53","iframe_src":"//8332.svetacdn.in/si4jsFRrtgrT/tv-series/7801"},{"id":7791,"title":"Женская версия. Тайна партийной дачи","kp_id":"1338317","imdb_id":null,"world_art_id":null,"type":"serial","add":"2020-06-09 16:54:36","orig_title":"Женская версия. Тайна партийной дачи","year":"2019-11-10","translations":["Оригинальная дорожка"],"seasons_count":1,"episodes_count":4,"episodes":4,"update":"2020-10-06 07:23:58","iframe_src":"//8332.svetacdn.in/si4jsFRrtgrT/tv-series/7791"},{"id":40484,"title":"Человек в синем","kp_id":"17194","imdb_id":"tt0090769","world_art_id":null,"type":"movie","add":"2020-05-18 17:16:39","orig_title":"The Boy in Blue","year":"1986-01-17","translations":["Авторский (одноголосый закадровый) (Алексеев Антон)","Профессиональный (многоголосый закадровый)","Original (English)"],"quality":"bd","translation":"Авторский (одноголосый закадровый) (Алексеев Антон)","update":"2021-04-15 07:36:53","iframe_src":"//8332.svetacdn.in/si4jsFRrtgrT/movie/40484"},{"id":7122,"title":"Самая опасная игра","kp_id":"1322881","imdb_id":"tt10580064","world_art_id":null,"type":"serial","add":"2020-04-07 15:22:08","orig_title":"Most Dangerous Game","year":"2020-01-01","translations":["Любительский (многоголосый закадровый) (Octopus)","Любительский (многоголосый закадровый) (ColdFilm)","Любительский (многоголосый закадровый) (KerobTV)","Профессиональный (многоголосый закадровый) (BaibaKo)","Профессиональный (многоголосый закадровый) (LostFilm)","Любительский (многоголосый закадровый) (WestFilm)"],"seasons_count":1,"episodes_count":15,"episodes":15,"update":"2020-10-04 20:35:08","iframe_src":"//8332.svetacdn.in/si4jsFRrtgrT/tv-series/7122"},{"id":35370,"title":"Месть ниндзя","kp_id":"36384","imdb_id":"tt0086192","world_art_id":null,"type":"movie","add":"2020-01-23 09:46:32","orig_title":"Revenge of the Ninja","year":"1983-09-07","translations":["Профессиональный (двухголосый закадровый) (ТВ3)","Авторский (одноголосый закадровый) (Гаврилов Андрей)","Original (English)"],"quality":"bd","translation":"Профессиональный (двухголосый закадровый) (ТВ3)","update":"2021-04-15 07:38:43","iframe_src":"//8332.svetacdn.in/si4jsFRrtgrT/movie/35370"},{"id":34239,"title":"Люси в небесах","kp_id":"1111893","imdb_id":"tt4682804","world_art_id":null,"type":"movie","add":"2019-12-17 21:08:31","orig_title":"Lucy in the Sky","year":"2019-09-11","translations":["Профессиональный (многоголосый закадровый) (iTunes)","Original (English)"],"quality":"webdl","translation":"Профессиональный (многоголосый закадровый) (iTunes)","update":"2021-04-15 06:38:26","iframe_src":"//8332.svetacdn.in/si4jsFRrtgrT/movie/34239"},{"id":4870,"title":"Отель «Дель Луна»","kp_id":"1228049","imdb_id":"tt10220588","world_art_id":null,"type":"serial","add":"2019-07-17 10:42:22","orig_title":"Hotel Del Luna","year":"2019-07-13","translations":["Любительский (многоголосый закадровый)","Любительский (двухголосый закадровый) (SoftBox)","Профессиональный (многоголосый закадровый) (Мобильное телевидение)"],"seasons_count":1,"episodes_count":16,"episodes":16,"update":"2020-10-06 08:02:39","iframe_src":"//8332.svetacdn.in/si4jsFRrtgrT/tv-series/4870"},{"id":4550,"title":"Тюремный доктор","kp_id":"1227923","imdb_id":"tt9863766","world_art_id":null,"type":"serial","add":"2019-05-26 08:22:22","orig_title":"Dakteo Peurijeuneo","year":"2019-03-20","translations":["Любительский (двухголосый закадровый) (SoftBox)","Профессиональный (многоголосый закадровый) (Мобильное телевидение)"],"seasons_count":1,"episodes_count":16,"episodes":16,"update":"2020-10-06 11:07:39","iframe_src":"//8332.svetacdn.in/si4jsFRrtgrT/tv-series/4550"},{"id":22874,"title":"Проект Ельцин","kp_id":"14404","imdb_id":"tt0324619","world_art_id":null,"type":"movie","add":"2019-03-10 16:21:41","orig_title":"Spinning Boris","year":"2003-10-23","translations":["Профессиональный (двухголосый закадровый)"],"quality":"webdl","translation":"Профессиональный (двухголосый закадровый)","update":"2021-04-15 08:02:40","iframe_src":"//8332.svetacdn.in/si4jsFRrtgrT/movie/22874"},{"id":21012,"title":"Карантин Z","kp_id":"611798","imdb_id":"tt2034176","world_art_id":null,"type":"movie","add":"2018-12-25 01:45:55","orig_title":"Redcon-1","year":"2017-07-15","translations":["Полное дублирование (iTunes)","Original (English)"],"quality":"bd","translation":"Полное дублирование (iTunes)","update":"2021-04-15 07:40:47","iframe_src":"//8332.svetacdn.in/si4jsFRrtgrT/movie/21012"},{"id":3624,"title":"Чикагская печатная машинка","kp_id":"1009424","imdb_id":"tt6516076","world_art_id":null,"type":"serial","add":"2018-12-04 23:48:58","orig_title":"Sikago tajagi","year":"2017-04-07","translations":["Любительский (двухголосый закадровый) (SoftBox)","Профессиональный (многоголосый закадровый) (Мобильное телевидение)"],"seasons_count":1,"episodes_count":16,"episodes":16,"update":"2020-10-06 07:27:37","iframe_src":"//8332.svetacdn.in/si4jsFRrtgrT/tv-series/3624"},{"id":3056,"title":"Карнавал","kp_id":"214333","imdb_id":"tt0319969","world_art_id":null,"type":"serial","add":"2018-08-22 06:00:19","orig_title":"Carnivàle","year":"2003-09-14","translations":["Профессиональный (многоголосый закадровый) (Русский дубляж)","Полное дублирование (Русский дубляж)"],"seasons_count":2,"episodes_count":24,"episodes":12,"update":"2020-10-06 08:14:36","iframe_src":"//8332.svetacdn.in/si4jsFRrtgrT/tv-series/3056"},{"id":2203,"title":"Солнце в объятиях Луны","kp_id":"719940","imdb_id":"tt3143378","world_art_id":null,"type":"serial","add":"2018-03-10 15:19:10","orig_title":"Haereul pumeun Dal","year":"2012-01-04","translations":["Любительский (двухголосый закадровый) (GREEN TEA)","Профессиональный (многоголосый закадровый) (Мобильное телевидение)"],"seasons_count":1,"episodes_count":20,"episodes":20,"update":"2020-10-05 15:16:38","iframe_src":"//8332.svetacdn.in/si4jsFRrtgrT/tv-series/2203"},{"id":15420,"title":"Лютер-пожиратель","kp_id":"119413","imdb_id":"tt0100079","world_art_id":null,"type":"movie","add":"2018-03-05 22:15:55","orig_title":"Luther the Geek","year":"1989-07-01","translations":["Авторский (одноголосый закадровый) (Кузнецов Сергей)","Авторский (одноголосый закадровый) (Алексеев Антон)","Original (English)"],"quality":"bd","translation":"Авторский (одноголосый закадровый) (Кузнецов Сергей)","update":"2021-04-15 07:44:00","iframe_src":"//8332.svetacdn.in/si4jsFRrtgrT/movie/15420"},{"id":1466,"title":"Бюро легенд","kp_id":"891683","imdb_id":"tt4063800","world_art_id":null,"type":"serial","add":"2017-08-14 15:44:10","orig_title":"Le Bureau des Légendes","year":"2015-04-27","translations":["Профессиональный (многоголосый закадровый) (Первый канал | ОРТ)","Профессиональный (многоголосый закадровый)","Любительский (многоголосый закадровый) (Octopus)","Любительский (многоголосый закадровый) (ColdFilm)","Профессиональный (многоголосый закадровый) (BaibaKo)"],"seasons_count":5,"episodes_count":50,"episodes":10,"update":"2020-10-06 20:48:19","iframe_src":"//8332.svetacdn.in/si4jsFRrtgrT/tv-series/1466"},{"id":271,"title":"Больше чем искусство","kp_id":"924975","imdb_id":"tt4633680","world_art_id":null,"type":"serial","add":"2016-07-07 12:08:58","orig_title":"The Art of More","year":"2015-11-19","translations":["Профессиональный (многоголосый закадровый) (NewStudio)","Профессиональный (многоголосый закадровый) (SDI Media)"],"seasons_count":2,"episodes_count":20,"episodes":10,"update":"2020-10-06 11:54:08","iframe_src":"//8332.svetacdn.in/si4jsFRrtgrT/tv-series/271"}],"current_page":140,"first_page_url":"https://videocdn.tv/api/short?limit=100&api_token=X6EwAUfE5M9xbo7y0Bp0aPf3uXxG2KLL&cache3140=3140&page=1","from":13901,"last_page":632,"last_page_url":"https://videocdn.tv/api/short?limit=100&api_token=X6EwAUfE5M9xbo7y0Bp0aPf3uXxG2KLL&cache3140=3140&page=632","next_page_url":"https://videocdn.tv/api/short?limit=100&api_token=X6EwAUfE5M9xbo7y0Bp0aPf3uXxG2KLL&cache3140=3140&page=141","path":"https://videocdn.tv/api/short","per_page":100,"prev_page_url":"https://videocdn.tv/api/short?limit=100&api_token=X6EwAUfE5M9xbo7y0Bp0aPf3uXxG2KLL&cache3140=3140&page=139","to":13940,"total":63189}