{"result":true,"data":[{"id":46333,"title":"Герои и трусы","kp_id":"1213661","imdb_id":"tt9257920","world_art_id":null,"type":"movie","add":"2020-12-23 10:14:14","orig_title":"Heroes and Cowards","year":"2019-07-19","translations":["Любительский (многоголосый закадровый) (AlphaProject)"],"quality":"webdl","translation":"Любительский (многоголосый закадровый) (AlphaProject)","update":"2020-12-24 07:48:04","iframe_src":"//7741.svetacdn.in/si4jsFRrtgrT/movie/46333"},{"id":46326,"title":"Не забывай меня","kp_id":"1109702","imdb_id":"tt6632276","world_art_id":null,"type":"movie","add":"2020-12-23 06:06:16","orig_title":"Forget Me Not","year":"2019-11-16","translations":["Любительский (многоголосый закадровый) (Синема УС)"],"quality":"webdl","translation":"Любительский (многоголосый закадровый) (Синема УС)","update":"2020-12-24 07:46:59","iframe_src":"//7741.svetacdn.in/si4jsFRrtgrT/movie/46326"},{"id":46325,"title":"Мальчики против девочек","kp_id":"1109530","imdb_id":"tt7600704","world_art_id":null,"type":"movie","add":"2020-12-23 06:05:05","orig_title":"Boys vs. Girls","year":"2019-10-25","translations":["Любительский (многоголосый закадровый) (Синема УС)"],"quality":"webdl","translation":"Любительский (многоголосый закадровый) (Синема УС)","update":"2020-12-24 07:46:46","iframe_src":"//7741.svetacdn.in/si4jsFRrtgrT/movie/46325"},{"id":46319,"title":"Опасная связь","kp_id":"1322215","imdb_id":"tt11178946","world_art_id":null,"type":"movie","add":"2020-12-22 18:54:51","orig_title":"The Wrong Affair","year":"2019-10-25","translations":["Любительский (многоголосый закадровый) (AlphaProject)"],"quality":"webdl","translation":"Любительский (многоголосый закадровый) (AlphaProject)","update":"2020-12-24 07:02:18","iframe_src":"//7741.svetacdn.in/si4jsFRrtgrT/movie/46319"},{"id":46318,"title":"Птичий язык","kp_id":"1186111","imdb_id":"tt8830002","world_art_id":null,"type":"movie","add":"2020-12-22 18:53:22","orig_title":"Mowa ptaków","year":"2019-08-01","translations":["Любительский (многоголосый закадровый) (Синема УС)"],"quality":"webdl","translation":"Любительский (многоголосый закадровый) (Синема УС)","update":"2020-12-24 07:03:20","iframe_src":"//7741.svetacdn.in/si4jsFRrtgrT/movie/46318"},{"id":46317,"title":"Убийства в 4К","kp_id":null,"imdb_id":"tt11078342","world_art_id":null,"type":"movie","add":"2020-12-22 18:51:57","orig_title":"4K Killer","year":"2019-09-13","translations":["Любительский (многоголосый закадровый) (Синема УС)"],"quality":"webdl","translation":"Любительский (многоголосый закадровый) (Синема УС)","update":"2020-12-24 07:03:57","iframe_src":"//7741.svetacdn.in/si4jsFRrtgrT/movie/46317"},{"id":46315,"title":"Незнакомый гость","kp_id":"1319288","imdb_id":"tt11219342","world_art_id":null,"type":"movie","add":"2020-12-22 18:45:47","orig_title":"Unknown Visitor","year":"2019-10-15","translations":["Любительский (многоголосый закадровый) (Синема УС)"],"quality":"webdl","translation":"Любительский (многоголосый закадровый) (Синема УС)","update":"2020-12-24 07:04:38","iframe_src":"//7741.svetacdn.in/si4jsFRrtgrT/movie/46315"},{"id":46215,"title":"Фурии","kp_id":"12604","imdb_id":"tt0042490","world_art_id":null,"type":"movie","add":"2020-12-18 16:37:09","orig_title":"The Furies","year":"1950-07-21","translations":["Любительский (одноголосый закадровый)"],"quality":"webdl","translation":"Любительский (одноголосый закадровый)","update":"2020-12-24 13:46:45","iframe_src":"//7741.svetacdn.in/si4jsFRrtgrT/movie/46215"},{"id":46206,"title":"Двое на качелях","kp_id":"2575","imdb_id":"tt0056626","world_art_id":null,"type":"movie","add":"2020-12-18 10:59:04","orig_title":"Two for the Seesaw","year":"1962-11-21","translations":["Авторский (одноголосый закадровый) (Кашкин Александр | Первомайский)"],"quality":"bd","translation":"Авторский (одноголосый закадровый) (Кашкин Александр | Первомайский)","update":"2020-12-24 13:40:47","iframe_src":"//7741.svetacdn.in/si4jsFRrtgrT/movie/46206"},{"id":46202,"title":"Двойник","kp_id":"44355","imdb_id":"tt0266491","world_art_id":null,"type":"movie","add":"2020-12-18 10:07:28","orig_title":"Dubultnieks","year":"1987-04-20","translations":["Полное дублирование"],"quality":"tc","translation":"Полное дублирование","update":"2020-12-24 13:42:30","iframe_src":"//7741.svetacdn.in/si4jsFRrtgrT/movie/46202"},{"id":46198,"title":"Когда волк влюбляется в овечку","kp_id":"733111","imdb_id":"tt2636362","world_art_id":null,"type":"movie","add":"2020-12-18 09:34:54","orig_title":"Nanfang xiao yang muchang","year":"2012-11-09","translations":["Любительский (одноголосый закадровый) (mi24)"],"quality":"bd","translation":"Любительский (одноголосый закадровый) (mi24)","update":"2020-12-24 13:45:55","iframe_src":"//7741.svetacdn.in/si4jsFRrtgrT/movie/46198"},{"id":46192,"title":"Доктор Джек","kp_id":"200724","imdb_id":"tt0013075","world_art_id":null,"type":"movie","add":"2020-12-18 09:13:29","orig_title":"Dr. Jack","year":"1922-11-26","translations":["Original (English)"],"quality":"webdl","translation":"Original (English)","update":"2020-12-24 13:45:04","iframe_src":"//7741.svetacdn.in/si4jsFRrtgrT/movie/46192"},{"id":46191,"title":"Дети капитана Кидда","kp_id":"199674","imdb_id":"tt0009986","world_art_id":null,"type":"movie","add":"2020-12-18 09:11:05","orig_title":"Captain Kidd's Kids","year":"1919-11-30","translations":["Original (English)"],"quality":"webdl","translation":"Original (English)","update":"2020-12-24 13:44:05","iframe_src":"//7741.svetacdn.in/si4jsFRrtgrT/movie/46191"},{"id":46190,"title":"Убийство в школе","kp_id":"3877","imdb_id":"tt0074875","world_art_id":null,"type":"movie","add":"2020-12-18 09:09:26","orig_title":"Massacre at Central High","year":"1976-11-10","translations":["Авторский (одноголосый закадровый) (Назаров Вадим)"],"quality":"bd","translation":"Авторский (одноголосый закадровый) (Назаров Вадим)","update":"2020-12-24 13:39:42","iframe_src":"//7741.svetacdn.in/si4jsFRrtgrT/movie/46190"},{"id":46145,"title":"Порча","kp_id":"1238352","imdb_id":"tt9719452","world_art_id":null,"type":"movie","add":"2020-12-16 18:32:28","orig_title":"Heks","year":"2020-12-14","translations":["Любительский (многоголосый закадровый) (Синема УС)","Любительский (одноголосый закадровый) (datynet | Агапов Антон)"],"quality":"webdl","translation":"Любительский (многоголосый закадровый) (Синема УС)","update":"2020-12-24 13:36:47","iframe_src":"//7741.svetacdn.in/si4jsFRrtgrT/movie/46145"},{"id":41271,"title":"Вихрь","kp_id":"1251543","imdb_id":"tt10074486","world_art_id":null,"type":"movie","add":"2020-06-18 20:28:26","orig_title":"Ting er zou xian","year":"2019-06-21","translations":["Любительский (одноголосый закадровый) (Franek Monk)","Любительский (одноголосый закадровый) (Franek Monk)"],"quality":"webdl","translation":"Любительский (одноголосый закадровый) (Franek Monk)","update":"2020-12-24 13:37:32","iframe_src":"//7741.svetacdn.in/si4jsFRrtgrT/movie/41271"},{"id":32504,"title":"Дзен","kp_id":"420887","imdb_id":"tt1156470","world_art_id":null,"type":"movie","add":"2019-10-30 19:43:18","orig_title":"Zen","year":"2009-01-10","translations":["Любительский (одноголосый закадровый)","Любительский (одноголосый закадровый)"],"quality":"dvdrip","translation":"Любительский (одноголосый закадровый)","update":"2020-12-24 13:57:13","iframe_src":"//7741.svetacdn.in/si4jsFRrtgrT/movie/32504"},{"id":1960,"title":"Неприкасаемые","kp_id":"533","imdb_id":"tt0094226","world_art_id":null,"type":"movie","add":"2016-05-07 09:55:54","orig_title":"The Untouchables","year":"1987-06-02","translations":["Профессиональный (многоголосый закадровый)","Авторский (одноголосый закадровый) (Горчаков Василий)","Авторский (одноголосый закадровый) (Михалёв Алексей)","Авторский (одноголосый закадровый) (Володарский Леонид)","Авторский (одноголосый закадровый) (Яроцкий Михаил | Kyberpunk)","Авторский (одноголосый закадровый) (Живов Юрий)","Original (English)","Профессиональный (двухголосый закадровый) (НТВ)","Профессиональный (двухголосый закадровый) (Премьер Видео Фильм)","Профессиональный (многоголосый закадровый)","Профессиональный (многоголосый закадровый) (Позитив)","Профессиональный (многоголосый закадровый) (Film Prestige)"],"quality":"bd","translation":"Профессиональный (многоголосый закадровый)","update":"2020-12-24 12:42:28","iframe_src":"//7741.svetacdn.in/si4jsFRrtgrT/movie/1960"},{"id":1348,"title":"Терминатор 2: Судный день","kp_id":"444","imdb_id":"tt0103064","world_art_id":null,"type":"movie","add":"2016-04-20 22:07:09","orig_title":"Terminator 2: Judgment Day","year":"1991-07-01","translations":["Профессиональный (многоголосый закадровый) (CP Digital)","Авторский (одноголосый закадровый) (Гаврилов Андрей)","Авторский (одноголосый закадровый) (Гоблин | Пучков Дмитрий)","Авторский (одноголосый закадровый) (Гаврилов Андрей)","Авторский (одноголосый закадровый) (Гоблин | Пучков Дмитрий)","Авторский (одноголосый закадровый) (Горчаков Василий)","Авторский (одноголосый закадровый) (Живов Юрий)","Original (English)","Профессиональный (многоголосый закадровый) (Киномания)","Профессиональный (многоголосый закадровый) (Первый канал | ОРТ)","Профессиональный (многоголосый закадровый) (Позитив)","Профессиональный (многоголосый закадровый) (ТВ6)"],"quality":"bd","translation":"Профессиональный (многоголосый закадровый) (CP Digital)","update":"2020-12-24 12:53:26","iframe_src":"//7741.svetacdn.in/si4jsFRrtgrT/movie/1348"},{"id":427,"title":"Брюс Всемогущий","kp_id":"39577","imdb_id":"tt0315327","world_art_id":null,"type":"movie","add":"2016-04-01 17:29:27","orig_title":"Bruce Almighty","year":"2003-05-23","translations":["Полное дублирование","Original (English)","Авторский (одноголосый закадровый) (Рудой Евгений)","Любительский (двухголосый закадровый)","Профессиональный (многоголосый закадровый) (СТС)","Профессиональный (двухголосый закадровый)"],"quality":"bd","translation":"Полное дублирование","update":"2020-12-24 13:38:23","iframe_src":"//7741.svetacdn.in/si4jsFRrtgrT/movie/427"}],"current_page":742,"first_page_url":"https://videocdn.tv/api/short?limit=100&api_token=X6EwAUfE5M9xbo7y0Bp0aPf3uXxG2KLL&cache3742=3742&page=1","from":74101,"last_page":701,"last_page_url":"https://videocdn.tv/api/short?limit=100&api_token=X6EwAUfE5M9xbo7y0Bp0aPf3uXxG2KLL&cache3742=3742&page=701","next_page_url":null,"path":"https://videocdn.tv/api/short","per_page":100,"prev_page_url":"https://videocdn.tv/api/short?limit=100&api_token=X6EwAUfE5M9xbo7y0Bp0aPf3uXxG2KLL&cache3742=3742&page=741","to":74120,"total":70041}