{"result":true,"data":[{"id":50302,"title":"Отряд Таганок","kp_id":"4326621","imdb_id":null,"world_art_id":null,"type":"movie","add":"2021-05-11 17:20:30","orig_title":"Отряд Таганок","year":"2021-03-04","translations":["Оригинальная дорожка"],"quality":"webdl","translation":"Оригинальная дорожка","update":"2021-05-11 20:13:56","iframe_src":"//24213.svetacdn.in/IAF0wWTdNYZm/movie/50302"},{"id":50301,"title":"Жар-птица","kp_id":"451158","imdb_id":"tt1075415","world_art_id":null,"type":"movie","add":"2021-05-11 14:06:35","orig_title":"Värvilind","year":"1974-01-01","translations":["Оригинальная дорожка"],"quality":"webdl","translation":"Оригинальная дорожка","update":"2021-05-11 17:10:26","iframe_src":"//24213.svetacdn.in/IAF0wWTdNYZm/movie/50301"},{"id":50300,"title":"Похороны на втором этаже","kp_id":"471074","imdb_id":"tt5133120","world_art_id":null,"type":"movie","add":"2021-05-11 12:48:06","orig_title":"Pokhorony na vtorom etazhe","year":"1991-01-01","translations":["Оригинальная дорожка"],"quality":"vhs","translation":"Оригинальная дорожка","update":"2021-05-11 17:03:33","iframe_src":"//24213.svetacdn.in/IAF0wWTdNYZm/movie/50300"},{"id":50299,"title":"2149: Последствия войны","kp_id":"1414707","imdb_id":"tt13970466","world_art_id":null,"type":"movie","add":"2021-05-11 10:45:00","orig_title":"Confinement","year":"2021-01-11","translations":["Любительский (многоголосый закадровый) (AlphaProject)"],"quality":"webdl","translation":"Любительский (многоголосый закадровый) (AlphaProject)","update":"2021-05-11 14:42:42","iframe_src":"//24213.svetacdn.in/IAF0wWTdNYZm/movie/50299"},{"id":50298,"title":"Бигфут против Иллюминатов","kp_id":"1417267","imdb_id":"tt12969650","world_art_id":null,"type":"movie","add":"2021-05-11 10:40:21","orig_title":"Bigfoot vs the Illuminati","year":"2020-10-06","translations":["Любительский (многоголосый закадровый) (Синема УС)"],"quality":"webdl","translation":"Любительский (многоголосый закадровый) (Синема УС)","update":"2021-05-11 14:41:50","iframe_src":"//24213.svetacdn.in/IAF0wWTdNYZm/movie/50298"},{"id":50296,"title":"Человек с девятью жизнями","kp_id":"32166","imdb_id":"tt0032753","world_art_id":null,"type":"movie","add":"2021-05-11 10:26:43","orig_title":"The Man with Nine Lives","year":"1940-04-18","translations":["[EN] Original (English)"],"quality":"bd","translation":"[EN] Original (English)","update":"2021-05-12 05:22:37","iframe_src":"//24213.svetacdn.in/IAF0wWTdNYZm/movie/50296"},{"id":50295,"title":"Человек, который обошел весь мир","kp_id":"4395541","imdb_id":"tt13283460","world_art_id":null,"type":"movie","add":"2021-05-11 08:19:23","orig_title":"The Man Who Walked Around the World","year":"2020-11-12","translations":["Профессиональный (многоголосый закадровый) (HDrezka Studio)"],"quality":"bd","translation":"Профессиональный (многоголосый закадровый) (HDrezka Studio)","update":"2021-05-11 15:30:22","iframe_src":"//24213.svetacdn.in/IAF0wWTdNYZm/movie/50295"},{"id":50285,"title":"Вечная дилемма","kp_id":"1201368","imdb_id":"tt9103708","world_art_id":null,"type":"movie","add":"2021-05-11 07:00:11","orig_title":"The Forever Choice","year":"2021-04-16","translations":["Любительский (многоголосый закадровый) (AlphaProject)"],"quality":"webdl","translation":"Любительский (многоголосый закадровый) (AlphaProject)","update":"2021-05-11 19:59:02","iframe_src":"//24213.svetacdn.in/IAF0wWTdNYZm/movie/50285"},{"id":50284,"title":"Ночная смена","kp_id":"4413440","imdb_id":"tt13676878","world_art_id":null,"type":"movie","add":"2021-05-10 21:38:51","orig_title":"The Graveyard Gang","year":"2018-10-01","translations":["Любительский (многоголосый закадровый) (Синема УС)"],"quality":"webdl","translation":"Любительский (многоголосый закадровый) (Синема УС)","update":"2021-05-11 21:12:25","iframe_src":"//24213.svetacdn.in/IAF0wWTdNYZm/movie/50284"},{"id":50281,"title":"Готика Теннесси","kp_id":"998160","imdb_id":"tt5952372","world_art_id":null,"type":"movie","add":"2021-05-10 20:38:28","orig_title":"Tennessee Gothic","year":"2019-10-15","translations":["Любительский (многоголосый закадровый) (Синема УС)"],"quality":"webdl","translation":"Любительский (многоголосый закадровый) (Синема УС)","update":"2021-05-11 21:14:16","iframe_src":"//24213.svetacdn.in/IAF0wWTdNYZm/movie/50281"},{"id":50280,"title":"Таинственная эскортница","kp_id":"1283866","imdb_id":"tt10660810","world_art_id":null,"type":"movie","add":"2021-05-10 18:16:33","orig_title":"Secret Escort","year":"2019-07-18","translations":["Любительский (многоголосый закадровый) (Синема УС)"],"quality":"webdl","translation":"Любительский (многоголосый закадровый) (Синема УС)","update":"2021-05-11 21:14:31","iframe_src":"//24213.svetacdn.in/IAF0wWTdNYZm/movie/50280"},{"id":50279,"title":"Возвращение домой","kp_id":"985266","imdb_id":"tt5496554","world_art_id":null,"type":"movie","add":"2021-05-10 18:14:42","orig_title":"Coming Home","year":"2017-12-15","translations":["Любительский (многоголосый закадровый) (Синема УС)"],"quality":"webdl","translation":"Любительский (многоголосый закадровый) (Синема УС)","update":"2021-05-11 21:14:49","iframe_src":"//24213.svetacdn.in/IAF0wWTdNYZm/movie/50279"},{"id":50278,"title":"Домашняя битва","kp_id":"1294689","imdb_id":"tt10685330","world_art_id":null,"type":"movie","add":"2021-05-10 18:12:51","orig_title":"Domestic Warfare","year":"2019-12-12","translations":["Любительский (многоголосый закадровый) (Синема УС)"],"quality":"webdl","translation":"Любительский (многоголосый закадровый) (Синема УС)","update":"2021-05-11 21:15:08","iframe_src":"//24213.svetacdn.in/IAF0wWTdNYZm/movie/50278"},{"id":50277,"title":"Изгнание","kp_id":"1190855","imdb_id":"tt8955708","world_art_id":null,"type":"movie","add":"2021-05-10 18:10:57","orig_title":"Exil","year":"2020-01-27","translations":["Любительский (многоголосый закадровый) (Синема УС)"],"quality":"webdl","translation":"Любительский (многоголосый закадровый) (Синема УС)","update":"2021-05-11 21:15:30","iframe_src":"//24213.svetacdn.in/IAF0wWTdNYZm/movie/50277"},{"id":50276,"title":"Картинка в доме","kp_id":null,"imdb_id":"tt9574384","world_art_id":null,"type":"movie","add":"2021-05-10 18:08:22","orig_title":"The Picture in the House","year":"2019-03-20","translations":["Любительский (двухголосый закадровый) (Колобок)"],"quality":"webdl","translation":"Любительский (двухголосый закадровый) (Колобок)","update":"2021-05-11 21:15:54","iframe_src":"//24213.svetacdn.in/IAF0wWTdNYZm/movie/50276"},{"id":50275,"title":"Кексбург","kp_id":"1043494","imdb_id":"tt6660148","world_art_id":null,"type":"movie","add":"2021-05-10 18:05:41","orig_title":"Kecksburg","year":"2019-09-14","translations":["Любительский (многоголосый закадровый) (Синема УС)"],"quality":"webdl","translation":"Любительский (многоголосый закадровый) (Синема УС)","update":"2021-05-11 21:16:12","iframe_src":"//24213.svetacdn.in/IAF0wWTdNYZm/movie/50275"},{"id":49167,"title":"Три страшных рассказа","kp_id":"19136","imdb_id":"tt0057608","world_art_id":null,"type":"movie","add":"2021-03-29 05:12:45","orig_title":"Twice-Told Tales","year":"1963-10-30","translations":["Профессиональный (двухголосый закадровый) (НТВ)","[EN] Original (English)"],"quality":"bd","translation":"Профессиональный (двухголосый закадровый) (НТВ)","update":"2021-05-12 05:20:11","iframe_src":"//24213.svetacdn.in/IAF0wWTdNYZm/movie/49167"},{"id":48582,"title":"Портрет в черных тонах","kp_id":"10201","imdb_id":"tt0054197","world_art_id":null,"type":"movie","add":"2021-03-09 15:08:16","orig_title":"Portrait in Black","year":"1960-06-23","translations":["Любительский (одноголосый закадровый) (Клушин Игорь | хромолка)","[EN] Original (English)"],"quality":"bd","translation":"Любительский (одноголосый закадровый) (Клушин Игорь | хромолка)","update":"2021-05-12 05:25:21","iframe_src":"//24213.svetacdn.in/IAF0wWTdNYZm/movie/48582"},{"id":43227,"title":"Маленький мотороллер","kp_id":"137822","imdb_id":"tt0452537","world_art_id":null,"type":"movie","add":"2020-09-07 17:35:27","orig_title":"Väike motoroller","year":"1962-01-01","translations":["Оригинальная дорожка","Оригинальная дорожка"],"quality":"dvdrip","translation":"Оригинальная дорожка","update":"2021-05-11 17:11:13","iframe_src":"//24213.svetacdn.in/IAF0wWTdNYZm/movie/43227"},{"id":15553,"title":"Тим","kp_id":"15066","imdb_id":"tt0080024","world_art_id":null,"type":"movie","add":"2018-03-10 13:35:51","orig_title":"Tim","year":"1979-07-13","translations":["Любительский (одноголосый закадровый)","Авторский (одноголосый закадровый) (Воротилин Олег)","[EN] Original (English)"],"quality":"bd","translation":"Любительский (одноголосый закадровый)","update":"2021-05-12 05:21:27","iframe_src":"//24213.svetacdn.in/IAF0wWTdNYZm/movie/15553"}],"current_page":721,"first_page_url":"https://videocdn.tv/api/short?limit=100&api_token=6Onb1W1alEUrBcKJZD3GoKBbWyAl2uG2&cache3721=3721&page=1","from":72001,"last_page":728,"last_page_url":"https://videocdn.tv/api/short?limit=100&api_token=6Onb1W1alEUrBcKJZD3GoKBbWyAl2uG2&cache3721=3721&page=728","next_page_url":"https://videocdn.tv/api/short?limit=100&api_token=6Onb1W1alEUrBcKJZD3GoKBbWyAl2uG2&cache3721=3721&page=722","path":"https://videocdn.tv/api/short","per_page":100,"prev_page_url":"https://videocdn.tv/api/short?limit=100&api_token=6Onb1W1alEUrBcKJZD3GoKBbWyAl2uG2&cache3721=3721&page=720","to":72020,"total":72780}