{"result":true,"data":[{"id":40888,"title":"Партизаны","kp_id":"1120842","imdb_id":"tt7298886","world_art_id":null,"type":"movie","add":"2020-06-02 19:57:33","orig_title":"Guerilla","year":"2019-01-26","translations":["Любительский (многоголосый закадровый) (Синема УС)"],"quality":"webdl","translation":"Любительский (многоголосый закадровый) (Синема УС)","update":"2020-06-03 13:27:30","iframe_src":"//8965.svetacdn.in/71tsRs29n5tZ/movie/40888"},{"id":40887,"title":"Слуга своей жены","kp_id":"1237874","imdb_id":"tt9740272","world_art_id":null,"type":"movie","add":"2020-06-02 19:56:17","orig_title":"Naukar Vahuti Da","year":"2019-08-22","translations":["Любительский (многоголосый закадровый) (Синема УС)"],"quality":"webdl","translation":"Любительский (многоголосый закадровый) (Синема УС)","update":"2020-06-03 21:32:09","iframe_src":"//8965.svetacdn.in/71tsRs29n5tZ/movie/40887"},{"id":40879,"title":"С закрытыми окнами","kp_id":"1316548","imdb_id":null,"world_art_id":null,"type":"movie","add":"2020-06-02 17:38:18","orig_title":"С закрытыми окнами","year":"2019-11-07","translations":["Оригинальная дорожка"],"quality":"webdl","translation":"Оригинальная дорожка","update":"2020-06-03 04:06:58","iframe_src":"//8965.svetacdn.in/71tsRs29n5tZ/movie/40879"},{"id":40878,"title":"Одичавшая","kp_id":"1237098","imdb_id":"tt9686730","world_art_id":null,"type":"movie","add":"2020-06-02 11:53:36","orig_title":"Feral","year":"2019-04-07","translations":["Любительский (многоголосый закадровый) (Синема УС)"],"quality":"webdl","translation":"Любительский (многоголосый закадровый) (Синема УС)","update":"2020-06-02 15:51:34","iframe_src":"//8965.svetacdn.in/71tsRs29n5tZ/movie/40878"},{"id":40876,"title":"Планета кровососов","kp_id":"1283597","imdb_id":"tt10520054","world_art_id":null,"type":"movie","add":"2020-06-02 10:59:44","orig_title":"Bloodsucker's Planet","year":"2019-08-30","translations":["Любительский (многоголосый закадровый) (Синема УС)"],"quality":"webdl","translation":"Любительский (многоголосый закадровый) (Синема УС)","update":"2020-06-03 08:38:18","iframe_src":"//8965.svetacdn.in/71tsRs29n5tZ/movie/40876"},{"id":40867,"title":"Парень из Гунтура","kp_id":"1101862","imdb_id":"tt6594842","world_art_id":null,"type":"movie","add":"2020-06-01 19:18:59","orig_title":"Gunturodu","year":"2017-03-03","translations":["Любительский (многоголосый закадровый) (Синема УС)"],"quality":"webdl","translation":"Любительский (многоголосый закадровый) (Синема УС)","update":"2020-06-02 07:47:35","iframe_src":"//8965.svetacdn.in/71tsRs29n5tZ/movie/40867"},{"id":40861,"title":"Кошелек или жизнь","kp_id":"1100529","imdb_id":"tt7606636","world_art_id":null,"type":"movie","add":"2020-06-01 19:12:36","orig_title":"Trick or Treat","year":"2017-01-01","translations":["Любительский (многоголосый закадровый) (AlphaProject)"],"quality":"webdl","translation":"Любительский (многоголосый закадровый) (AlphaProject)","update":"2020-06-02 07:48:37","iframe_src":"//8965.svetacdn.in/71tsRs29n5tZ/movie/40861"},{"id":40857,"title":"Только не говори никому","kp_id":null,"imdb_id":"tt10312668","world_art_id":null,"type":"movie","add":"2020-06-01 18:16:59","orig_title":"Tylko nie mów nikomu","year":"2019-05-11","translations":["Любительский (многоголосый закадровый) (Синема УС)"],"quality":"webdl","translation":"Любительский (многоголосый закадровый) (Синема УС)","update":"2020-06-02 07:49:11","iframe_src":"//8965.svetacdn.in/71tsRs29n5tZ/movie/40857"},{"id":40796,"title":"Воскресная женщина","kp_id":"25546","imdb_id":"tt0074423","world_art_id":null,"type":"movie","add":"2020-05-30 07:39:30","orig_title":"La donna della domenica","year":"1975-12-16","translations":["Профессиональный (двухголосый закадровый)"],"quality":"webdl","translation":"Профессиональный (двухголосый закадровый)","update":"2020-06-02 08:11:31","iframe_src":"//8965.svetacdn.in/71tsRs29n5tZ/movie/40796"},{"id":40795,"title":"Твою мать!","kp_id":"1184889","imdb_id":null,"world_art_id":null,"type":"movie","add":"2020-05-30 07:38:22","orig_title":"Твою мать!","year":"2018-03-01","translations":["Оригинальная дорожка"],"quality":"webdl","translation":"Оригинальная дорожка","update":"2020-06-02 08:10:14","iframe_src":"//8965.svetacdn.in/71tsRs29n5tZ/movie/40795"},{"id":40794,"title":"Однажды в Трубчевске","kp_id":"1261584","imdb_id":"tt10287616","world_art_id":null,"type":"movie","add":"2020-05-30 07:35:14","orig_title":"Once in Trubchevsk","year":"2019-05-23","translations":["Оригинальная дорожка"],"quality":"webdl","translation":"Оригинальная дорожка","update":"2020-06-02 08:09:17","iframe_src":"//8965.svetacdn.in/71tsRs29n5tZ/movie/40794"},{"id":40793,"title":"Место!","kp_id":"1189917","imdb_id":"tt10007268","world_art_id":null,"type":"movie","add":"2020-05-30 07:33:25","orig_title":"Mesto!","year":"2019-11-23","translations":["Оригинальная дорожка"],"quality":"webdl","translation":"Оригинальная дорожка","update":"2020-06-02 08:07:58","iframe_src":"//8965.svetacdn.in/71tsRs29n5tZ/movie/40793"},{"id":40792,"title":"Афронт","kp_id":"1220613","imdb_id":null,"world_art_id":null,"type":"movie","add":"2020-05-30 07:30:15","orig_title":"Афронт","year":"2016-01-01","translations":["Оригинальная дорожка"],"quality":"webdl","translation":"Оригинальная дорожка","update":"2020-06-02 08:02:40","iframe_src":"//8965.svetacdn.in/71tsRs29n5tZ/movie/40792"},{"id":40790,"title":"Отвага любви","kp_id":"808396","imdb_id":"tt3320578","world_art_id":null,"type":"movie","add":"2020-05-30 07:26:14","orig_title":"Veeram","year":"2014-01-09","translations":["Любительский (одноголосый закадровый)"],"quality":"webdl","translation":"Любительский (одноголосый закадровый)","update":"2020-06-02 08:00:27","iframe_src":"//8965.svetacdn.in/71tsRs29n5tZ/movie/40790"},{"id":40789,"title":"Долгий длинный полёт Ашбота","kp_id":"917398","imdb_id":"tt4716286","world_art_id":null,"type":"movie","add":"2020-05-30 07:24:58","orig_title":"The Long Slow Flight of the Ashbot","year":"2015-07-03","translations":["Любительский (одноголосый закадровый)"],"quality":"webdl","translation":"Любительский (одноголосый закадровый)","update":"2020-06-02 07:59:21","iframe_src":"//8965.svetacdn.in/71tsRs29n5tZ/movie/40789"},{"id":40786,"title":"Мальчик, который врёт","kp_id":"632795","imdb_id":"tt1835951","world_art_id":null,"type":"movie","add":"2020-05-30 07:20:32","orig_title":"El chico que miente","year":"2011-01-06","translations":["Любительский (одноголосый закадровый) (Ващенко Семён)"],"quality":"webdl","translation":"Любительский (одноголосый закадровый) (Ващенко Семён)","update":"2020-06-02 07:55:16","iframe_src":"//8965.svetacdn.in/71tsRs29n5tZ/movie/40786"},{"id":40773,"title":"ДАУ. Катя Таня","kp_id":"1381746","imdb_id":"tt12350518","world_art_id":null,"type":"movie","add":"2020-05-29 06:41:42","orig_title":"DAU. Katya Tanya","year":"2020-05-15","translations":["Оригинальная дорожка"],"quality":"webdl","translation":"Оригинальная дорожка","update":"2020-06-02 08:05:59","iframe_src":"//8965.svetacdn.in/71tsRs29n5tZ/movie/40773"},{"id":40772,"title":"И тут он открывает глаза","kp_id":"944959","imdb_id":"tt10171526","world_art_id":null,"type":"movie","add":"2020-05-29 06:31:58","orig_title":"And So He Opens His Eye","year":"2019-09-28","translations":["Оригинальная дорожка"],"quality":"webdl","translation":"Оригинальная дорожка","update":"2020-06-02 08:06:55","iframe_src":"//8965.svetacdn.in/71tsRs29n5tZ/movie/40772"},{"id":35067,"title":"Как босс","kp_id":"1099676","imdb_id":"tt7545266","world_art_id":null,"type":"movie","add":"2020-01-15 11:29:07","orig_title":"Like a Boss","year":"2020-01-09","translations":["Любительский (многоголосый закадровый) (@MUZOBOZ@)","[EN] Original (English)","Любительский (многоголосый закадровый) (WestFilm)","Полное дублирование (iTunes)"],"quality":"webdl","translation":"Любительский (многоголосый закадровый) (@MUZOBOZ@)","update":"2020-06-03 08:42:05","iframe_src":"//8965.svetacdn.in/71tsRs29n5tZ/movie/35067"},{"id":13155,"title":"Добейся успеха: Всё за победу","kp_id":"309002","imdb_id":"tt0972785","world_art_id":null,"type":"movie","add":"2017-08-27 14:31:12","orig_title":"Bring It On: In It to Win It","year":"2007-10-23","translations":["Профессиональный (многоголосый закадровый)","Профессиональный (многоголосый закадровый) (СТС)"],"quality":"dvdrip","translation":"Профессиональный (многоголосый закадровый)","update":"2020-06-02 07:48:07","iframe_src":"//8965.svetacdn.in/71tsRs29n5tZ/movie/13155"}],"current_page":1104,"first_page_url":"https://videocdn.tv/api/short?limit=100&api_token=EnbO9h8pv1VyjbCJhg0WM9nG259n7mtz&cache31104=31104&page=1","from":110301,"last_page":710,"last_page_url":"https://videocdn.tv/api/short?limit=100&api_token=EnbO9h8pv1VyjbCJhg0WM9nG259n7mtz&cache31104=31104&page=710","next_page_url":null,"path":"https://videocdn.tv/api/short","per_page":100,"prev_page_url":"https://videocdn.tv/api/short?limit=100&api_token=EnbO9h8pv1VyjbCJhg0WM9nG259n7mtz&cache31104=31104&page=1103","to":110320,"total":70977}