{"result":true,"data":[{"id":43735,"title":"Cуррогатная мать для звезды","kp_id":"1328222","imdb_id":null,"world_art_id":null,"type":"movie","add":"2020-09-22 07:41:58","orig_title":"The Surrogate","year":"2020-09-19","translations":["Любительский (многоголосый закадровый) (Синема УС)"],"quality":"webdl","translation":"Любительский (многоголосый закадровый) (Синема УС)","update":"2020-09-22 10:51:27","iframe_src":"//7043.svetacdn.in/71tsRs29n5tZ/movie/43735"},{"id":43731,"title":"Время чудовищ","kp_id":"1076561","imdb_id":"tt7200370","world_art_id":null,"type":"movie","add":"2020-09-21 19:37:17","orig_title":"Ang panahon ng halimaw","year":"2018-02-20","translations":["Любительский (многоголосый закадровый) (Синема УС)"],"quality":"webdl","translation":"Любительский (многоголосый закадровый) (Синема УС)","update":"2020-09-22 07:14:50","iframe_src":"//7043.svetacdn.in/71tsRs29n5tZ/movie/43731"},{"id":43730,"title":"Билли","kp_id":null,"imdb_id":"tt7692824","world_art_id":null,"type":"movie","add":"2020-09-21 19:19:32","orig_title":"Billy","year":"2018-01-04","translations":["Любительский (многоголосый закадровый) (Синема УС)"],"quality":"webdl","translation":"Любительский (многоголосый закадровый) (Синема УС)","update":"2020-09-22 07:13:30","iframe_src":"//7043.svetacdn.in/71tsRs29n5tZ/movie/43730"},{"id":43572,"title":"Пересечение","kp_id":"864120","imdb_id":"tt4205718","world_art_id":null,"type":"movie","add":"2020-09-15 18:58:44","orig_title":"Intersect","year":"2020-02-12","translations":["Любительский (многоголосый закадровый) (@MUZOBOZ@)","Любительский (многоголосый закадровый) (@MUZOBOZ@)"],"quality":"webdl","translation":"Любительский (многоголосый закадровый) (@MUZOBOZ@)","update":"2020-09-22 14:34:37","iframe_src":"//7043.svetacdn.in/71tsRs29n5tZ/movie/43572"},{"id":43556,"title":"Эфир","kp_id":"1050231","imdb_id":"tt7368668","world_art_id":null,"type":"movie","add":"2020-09-15 09:37:45","orig_title":"Eter","year":"2018-09-20","translations":["Авторский (одноголосый закадровый) (Чадов Михаил)","Любительский (многоголосый закадровый) (Синема УС)"],"quality":"webdl","translation":"Авторский (одноголосый закадровый) (Чадов Михаил)","update":"2020-09-22 10:50:55","iframe_src":"//7043.svetacdn.in/71tsRs29n5tZ/movie/43556"},{"id":43486,"title":"Три сестры","kp_id":"1243933","imdb_id":null,"world_art_id":null,"type":"movie","add":"2020-09-13 19:34:26","orig_title":"Три сестры","year":"2019-01-01","translations":["Оригинальная дорожка"],"quality":"webdl","translation":"Оригинальная дорожка","update":"2020-09-22 14:42:32","iframe_src":"//7043.svetacdn.in/71tsRs29n5tZ/movie/43486"},{"id":43485,"title":"Сплюшка","kp_id":"1243980","imdb_id":null,"world_art_id":null,"type":"movie","add":"2020-09-13 19:30:26","orig_title":"Сплюшка","year":"2018-01-01","translations":["Оригинальная дорожка"],"quality":"webdl","translation":"Оригинальная дорожка","update":"2020-09-22 14:41:41","iframe_src":"//7043.svetacdn.in/71tsRs29n5tZ/movie/43485"},{"id":43484,"title":"Снегозавр","kp_id":"1199531","imdb_id":null,"world_art_id":null,"type":"movie","add":"2020-09-13 19:29:12","orig_title":"Снегозавр","year":"2018-01-01","translations":["Оригинальная дорожка"],"quality":"webdl","translation":"Оригинальная дорожка","update":"2020-09-22 14:41:05","iframe_src":"//7043.svetacdn.in/71tsRs29n5tZ/movie/43484"},{"id":43483,"title":"Поединок","kp_id":"453330","imdb_id":null,"world_art_id":null,"type":"movie","add":"2020-09-13 19:27:40","orig_title":"Поединок","year":"2005-01-01","translations":["Оригинальная дорожка"],"quality":"webdl","translation":"Оригинальная дорожка","update":"2020-09-22 14:39:59","iframe_src":"//7043.svetacdn.in/71tsRs29n5tZ/movie/43483"},{"id":43482,"title":"Петер Баас","kp_id":null,"imdb_id":"tt11959408","world_art_id":null,"type":"movie","add":"2020-09-13 19:23:12","orig_title":"Peter-Baas","year":"2019-12-01","translations":["Оригинальная дорожка"],"quality":"webdl","translation":"Оригинальная дорожка","update":"2020-09-22 14:39:06","iframe_src":"//7043.svetacdn.in/71tsRs29n5tZ/movie/43482"},{"id":43481,"title":"Хомячок Фрош: Друзья в поисках клада","kp_id":"1387126","imdb_id":null,"world_art_id":null,"type":"movie","add":"2020-09-13 19:13:21","orig_title":"Хомячок Фрош: Друзья в поисках клада","year":"2020-05-10","translations":["Оригинальная дорожка"],"quality":"webdl","translation":"Оригинальная дорожка","update":"2020-09-22 14:38:02","iframe_src":"//7043.svetacdn.in/71tsRs29n5tZ/movie/43481"},{"id":43480,"title":"Я хочу жить в зоопарке","kp_id":"1114396","imdb_id":"tt7241520","world_art_id":null,"type":"movie","add":"2020-09-13 19:10:25","orig_title":"I want to live in the Zoo","year":"2018-01-27","translations":["Оригинальная дорожка"],"quality":"webdl","translation":"Оригинальная дорожка","update":"2020-09-22 14:37:25","iframe_src":"//7043.svetacdn.in/71tsRs29n5tZ/movie/43480"},{"id":43479,"title":"Хоботёнок","kp_id":"1199532","imdb_id":"tt9059384","world_art_id":null,"type":"movie","add":"2020-09-13 19:08:03","orig_title":"Khobotyonok","year":"2017-12-23","translations":["Оригинальная дорожка"],"quality":"webdl","translation":"Оригинальная дорожка","update":"2020-09-22 14:36:34","iframe_src":"//7043.svetacdn.in/71tsRs29n5tZ/movie/43479"},{"id":43478,"title":"Даша и людоед","kp_id":"970908","imdb_id":null,"world_art_id":null,"type":"movie","add":"2020-09-13 18:43:55","orig_title":"Даша и людоед","year":"2015-01-01","translations":["Оригинальная дорожка"],"quality":"webdl","translation":"Оригинальная дорожка","update":"2020-09-22 14:36:02","iframe_src":"//7043.svetacdn.in/71tsRs29n5tZ/movie/43478"},{"id":42785,"title":"Полное уничтожение","kp_id":"1346708","imdb_id":"tt11656172","world_art_id":null,"type":"movie","add":"2020-08-25 20:03:16","orig_title":"Hard Kill","year":"2020-08-21","translations":["Любительский (многоголосый закадровый) (@MUZOBOZ@)","Original (English)","Полное дублирование (iTunes)"],"quality":"webdl","translation":"Любительский (многоголосый закадровый) (@MUZOBOZ@)","update":"2020-09-22 13:33:02","iframe_src":"//7043.svetacdn.in/71tsRs29n5tZ/movie/42785"},{"id":42425,"title":"Перегрузка","kp_id":"1246783","imdb_id":"tt9812258","world_art_id":null,"type":"movie","add":"2020-08-11 22:00:39","orig_title":"G-Loc","year":"2020-08-11","translations":["Любительский (многоголосый закадровый) (@MUZOBOZ@)","Original (English)","Любительский (многоголосый закадровый) (@MUZOBOZ@)"],"quality":"webdl","translation":"Любительский (многоголосый закадровый) (@MUZOBOZ@)","update":"2020-09-22 09:53:02","iframe_src":"//7043.svetacdn.in/71tsRs29n5tZ/movie/42425"},{"id":41912,"title":"Бешенство","kp_id":"1128267","imdb_id":"tt6117824","world_art_id":null,"type":"movie","add":"2020-07-21 04:27:34","orig_title":"Cuerdas","year":"2019-10-10","translations":["Любительский (многоголосый закадровый) (Синема УС)","Полное дублирование (iTunes)"],"quality":"webdl","translation":"Любительский (многоголосый закадровый) (Синема УС)","update":"2020-09-22 09:55:44","iframe_src":"//7043.svetacdn.in/71tsRs29n5tZ/movie/41912"},{"id":41672,"title":"2025: Поле битвы","kp_id":"1123206","imdb_id":"tt8134980","world_art_id":null,"type":"movie","add":"2020-07-08 19:47:42","orig_title":"Battlefield 2025","year":"2020-07-01","translations":["Любительский (многоголосый закадровый) (@MUZOBOZ@)","Original (English)","Любительский (многоголосый закадровый) (@MUZOBOZ@)"],"quality":"webdl","translation":"Любительский (многоголосый закадровый) (@MUZOBOZ@)","update":"2020-09-22 09:54:00","iframe_src":"//7043.svetacdn.in/71tsRs29n5tZ/movie/41672"},{"id":40078,"title":"Подлодка","kp_id":"1179274","imdb_id":"tt8829128","world_art_id":null,"type":"movie","add":"2020-05-03 20:28:03","orig_title":"Torpedo","year":"2019-10-23","translations":["Любительский (многоголосый закадровый) (AlphaProject)","Любительский (многоголосый закадровый) (AlphaProject)"],"quality":"bd","translation":"Любительский (многоголосый закадровый) (AlphaProject)","update":"2020-09-22 14:32:22","iframe_src":"//7043.svetacdn.in/71tsRs29n5tZ/movie/40078"},{"id":28080,"title":"Исчезновение","kp_id":"938828","imdb_id":"tt5096246","world_art_id":null,"type":"movie","add":"2019-06-20 21:01:33","orig_title":"Disappearance","year":"2019-06-18","translations":["Любительский (многоголосый закадровый) (Синема УС)","Профессиональный (многоголосый закадровый) (IVI)"],"quality":"webdl","translation":"Любительский (многоголосый закадровый) (Синема УС)","update":"2020-09-22 13:31:59","iframe_src":"//7043.svetacdn.in/71tsRs29n5tZ/movie/28080"},{"id":3154,"title":"Смотри, что ты наделал","kp_id":"1115160","imdb_id":"tt7117634","world_art_id":null,"type":"serial","add":"2018-09-11 08:54:02","orig_title":"Mira lo que has hecho","year":"2018-02-06","translations":["Любительский (двухголосый закадровый) (Sunshine Studio)"],"seasons_count":1,"episodes_count":6,"episodes":6,"update":"2018-09-12 10:56:00","iframe_src":"//7043.svetacdn.in/71tsRs29n5tZ/tv-series/3154"},{"id":3153,"title":"Лес","kp_id":"1007544","imdb_id":"tt4475198","world_art_id":null,"type":"serial","add":"2018-09-11 08:31:45","orig_title":"Il bosco","year":"2015-02-20","translations":["Профессиональный (двухголосый закадровый) (ViruseProject)"],"seasons_count":1,"episodes_count":4,"episodes":4,"update":"2018-09-12 08:11:57","iframe_src":"//7043.svetacdn.in/71tsRs29n5tZ/tv-series/3153"},{"id":3151,"title":"Судьба обмену не подлежит","kp_id":"1186141","imdb_id":null,"world_art_id":null,"type":"serial","add":"2018-09-10 11:48:23","orig_title":"Доля обміну не підлягає","year":"2018-09-09","translations":["Оригинальная дорожка"],"seasons_count":1,"episodes_count":4,"episodes":4,"update":"2018-09-11 12:11:39","iframe_src":"//7043.svetacdn.in/71tsRs29n5tZ/tv-series/3151"},{"id":3149,"title":"Разоблачение Единорога","kp_id":"1187947","imdb_id":null,"world_art_id":null,"type":"serial","add":"2018-09-10 08:20:03","orig_title":"Разоблачение Единорога","year":"2018-09-08","translations":["Оригинальная дорожка"],"seasons_count":1,"episodes_count":4,"episodes":4,"update":"2018-09-11 09:13:31","iframe_src":"//7043.svetacdn.in/71tsRs29n5tZ/tv-series/3149"},{"id":3148,"title":"Зорко лишь сердце","kp_id":"1183604","imdb_id":null,"world_art_id":null,"type":"serial","add":"2018-09-10 08:12:20","orig_title":"Зорко лишь сердце","year":"2018-09-08","translations":["Оригинальная дорожка"],"seasons_count":1,"episodes_count":2,"episodes":2,"update":"2018-09-11 09:17:14","iframe_src":"//7043.svetacdn.in/71tsRs29n5tZ/tv-series/3148"},{"id":3145,"title":"Роза и чертополох","kp_id":"1171907","imdb_id":null,"world_art_id":null,"type":"serial","add":"2018-09-10 04:40:17","orig_title":"Роза и чертополох","year":"2018-09-07","translations":["Оригинальная дорожка"],"seasons_count":1,"episodes_count":2,"episodes":2,"update":"2018-09-10 08:40:10","iframe_src":"//7043.svetacdn.in/71tsRs29n5tZ/tv-series/3145"},{"id":3144,"title":"На качелях судьбы","kp_id":"1183605","imdb_id":null,"world_art_id":null,"type":"serial","add":"2018-09-10 04:33:02","orig_title":"На качелях судьбы","year":"2018-09-09","translations":["Оригинальная дорожка"],"seasons_count":1,"episodes_count":4,"episodes":4,"update":"2018-09-10 17:59:18","iframe_src":"//7043.svetacdn.in/71tsRs29n5tZ/tv-series/3144"},{"id":3137,"title":"Нужен мужчина","kp_id":"1115164","imdb_id":null,"world_art_id":null,"type":"serial","add":"2018-09-06 19:24:18","orig_title":"Нужен мужчина","year":"2018-03-17","translations":["Оригинальная дорожка"],"seasons_count":1,"episodes_count":4,"episodes":4,"update":"2018-09-07 16:27:00","iframe_src":"//7043.svetacdn.in/71tsRs29n5tZ/tv-series/3137"},{"id":3130,"title":"Жизнь продолжается","kp_id":"1187946","imdb_id":"tt6437058","world_art_id":null,"type":"serial","add":"2018-09-06 06:05:10","orig_title":"Lâcher prise","year":"2017-01-09","translations":["Профессиональный (многоголосый закадровый) (GreenРай Studio)"],"seasons_count":1,"episodes_count":13,"episodes":13,"update":"2018-09-07 08:23:11","iframe_src":"//7043.svetacdn.in/71tsRs29n5tZ/tv-series/3130"},{"id":3128,"title":"Дом в горах","kp_id":"718351","imdb_id":"tt2343913","world_art_id":null,"type":"serial","add":"2018-09-05 09:10:09","orig_title":"Alpimaja","year":"2012-04-13","translations":["Любительский (многоголосый закадровый) (ColdFilm)"],"seasons_count":1,"episodes_count":5,"episodes":5,"update":"2018-09-06 22:21:01","iframe_src":"//7043.svetacdn.in/71tsRs29n5tZ/tv-series/3128"},{"id":3127,"title":"О детях","kp_id":"1165796","imdb_id":"tt8507402","world_art_id":null,"type":"serial","add":"2018-09-05 08:52:04","orig_title":"On Children","year":"2018-07-07","translations":["Любительский (двухголосый закадровый) (GoldTeam)"],"seasons_count":1,"episodes_count":10,"episodes":10,"update":"2018-09-12 08:07:55","iframe_src":"//7043.svetacdn.in/71tsRs29n5tZ/tv-series/3127"},{"id":3125,"title":"Райн Хансен Раскрывает Преступления на ТВ","kp_id":"1071366","imdb_id":"tt7068580","world_art_id":null,"type":"serial","add":"2018-09-05 08:35:51","orig_title":"Ryan Hansen Solves Crimes on Television","year":"2017-10-25","translations":["Любительский (двухголосый закадровый) (GoldTeam)"],"seasons_count":1,"episodes_count":8,"episodes":8,"update":"2018-09-12 11:59:21","iframe_src":"//7043.svetacdn.in/71tsRs29n5tZ/tv-series/3125"},{"id":3124,"title":"Соломоново решение","kp_id":"1115719","imdb_id":null,"world_art_id":null,"type":"serial","add":"2018-09-05 08:26:21","orig_title":"Соломоново решение","year":"2018-03-25","translations":["Оригинальная дорожка"],"seasons_count":1,"episodes_count":4,"episodes":4,"update":"2018-09-06 22:11:27","iframe_src":"//7043.svetacdn.in/71tsRs29n5tZ/tv-series/3124"},{"id":3111,"title":"Бернард","kp_id":"271926","imdb_id":"tt0891369","world_art_id":null,"type":"serial","add":"2018-09-01 18:42:52","orig_title":"Bernard","year":"2006-12-18","translations":["Оригинальная дорожка"],"seasons_count":1,"episodes_count":52,"episodes":52,"update":"2018-09-11 11:58:20","iframe_src":"//7043.svetacdn.in/71tsRs29n5tZ/tv-series/3111"},{"id":3106,"title":"30 градусов в феврале","kp_id":"574667","imdb_id":"tt1677734","world_art_id":null,"type":"serial","add":"2018-08-31 08:33:39","orig_title":"30° i februari","year":"2012-02-06","translations":["Профессиональный (многоголосый закадровый) (GreenРай Studio)"],"seasons_count":1,"episodes_count":10,"episodes":10,"update":"2018-09-06 06:39:31","iframe_src":"//7043.svetacdn.in/71tsRs29n5tZ/tv-series/3106"},{"id":3096,"title":"Курортный роман","kp_id":"915324","imdb_id":null,"world_art_id":null,"type":"serial","add":"2018-08-29 05:51:22","orig_title":"Курортный роман","year":"2015-06-24","translations":["Оригинальная дорожка"],"seasons_count":2,"episodes_count":8,"episodes":4,"update":"2018-09-07 15:29:59","iframe_src":"//7043.svetacdn.in/71tsRs29n5tZ/tv-series/3096"},{"id":3067,"title":"Самурай Джек","kp_id":"295050","imdb_id":"tt0278238","world_art_id":null,"type":"serial","add":"2018-08-23 07:25:03","orig_title":"Samurai Jack","year":"2001-08-10","translations":["Полное дублирование (Cartoon Network)","Профессиональный (многоголосый закадровый) (Jaskier)"],"seasons_count":5,"episodes_count":62,"episodes":10,"update":"2018-09-11 12:07:51","iframe_src":"//7043.svetacdn.in/71tsRs29n5tZ/tv-series/3067"},{"id":3011,"title":"Клеймо","kp_id":"493917","imdb_id":null,"world_art_id":null,"type":"serial","add":"2018-08-09 06:21:16","orig_title":"Клеймо","year":"2010-01-01","translations":["Оригинальная дорожка"],"seasons_count":1,"episodes_count":12,"episodes":12,"update":"2018-09-11 19:33:44","iframe_src":"//7043.svetacdn.in/71tsRs29n5tZ/tv-series/3011"},{"id":2998,"title":"Маргиналы и монстры Бобкэта Голдтуэйта","kp_id":"1167861","imdb_id":"tt6957316","world_art_id":null,"type":"serial","add":"2018-08-04 09:16:34","orig_title":"Bobcat Goldthwait's Misfits & Monsters","year":"2018-07-11","translations":["Профессиональный (многоголосый закадровый) (IdeaFilm)"],"seasons_count":1,"episodes_count":8,"episodes":8,"update":"2018-09-06 22:15:51","iframe_src":"//7043.svetacdn.in/71tsRs29n5tZ/tv-series/2998"},{"id":2768,"title":"Американка","kp_id":"1007998","imdb_id":"tt5910786","world_art_id":null,"type":"serial","add":"2018-06-08 05:28:22","orig_title":"American Woman","year":"2018-06-07","translations":["Профессиональный (многоголосый закадровый) (ColdFilm)","Профессиональный (многоголосый закадровый) (NewStudio)"],"seasons_count":1,"episodes_count":11,"episodes":11,"update":"2018-09-06 18:07:20","iframe_src":"//7043.svetacdn.in/71tsRs29n5tZ/tv-series/2768"}],"current_page":401,"first_page_url":"https://videocdn.tv/api/short?limit=100&api_token=EnbO9h8pv1VyjbCJhg0WM9nG259n7mtz&cache3401=3401&page=1","from":40001,"last_page":614,"last_page_url":"https://videocdn.tv/api/short?limit=100&api_token=EnbO9h8pv1VyjbCJhg0WM9nG259n7mtz&cache3401=3401&page=614","next_page_url":"https://videocdn.tv/api/short?limit=100&api_token=EnbO9h8pv1VyjbCJhg0WM9nG259n7mtz&cache3401=3401&page=402","path":"https://videocdn.tv/api/short","per_page":100,"prev_page_url":"https://videocdn.tv/api/short?limit=100&api_token=EnbO9h8pv1VyjbCJhg0WM9nG259n7mtz&cache3401=3401&page=400","to":40040,"total":61324}