{"result":true,"data":[{"id":46888,"title":"Летние игры","kp_id":"573005","imdb_id":"tt1753865","world_art_id":null,"type":"movie","add":"2021-01-10 18:37:21","orig_title":"Giochi d'estate","year":"2011-08-02","translations":["Любительский (одноголосый закадровый) (Прошин Вячеслав | Slay73)"],"quality":"dvdrip","translation":"Любительский (одноголосый закадровый) (Прошин Вячеслав | Slay73)","update":"2021-01-11 08:02:13","iframe_src":"//8332.svetacdn.in/IAF0wWTdNYZm/movie/46888"},{"id":46887,"title":"Пола Х","kp_id":"21291","imdb_id":"tt0152015","world_art_id":null,"type":"movie","add":"2021-01-10 18:27:47","orig_title":"Pola X","year":"1999-05-12","translations":["Профессиональный (многоголосый закадровый)"],"quality":"dvdrip","translation":"Профессиональный (многоголосый закадровый)","update":"2021-01-11 07:58:45","iframe_src":"//8332.svetacdn.in/IAF0wWTdNYZm/movie/46887"},{"id":46885,"title":"Дурная кровь","kp_id":"18351","imdb_id":"tt0091497","world_art_id":null,"type":"movie","add":"2021-01-10 18:22:06","orig_title":"Mauvais sang","year":"1986-11-26","translations":["Профессиональный (многоголосый закадровый) (СТС)"],"quality":"bd","translation":"Профессиональный (многоголосый закадровый) (СТС)","update":"2021-01-11 08:00:37","iframe_src":"//8332.svetacdn.in/IAF0wWTdNYZm/movie/46885"},{"id":46878,"title":"Кемпинг","kp_id":"220502","imdb_id":"tt0473829","world_art_id":null,"type":"movie","add":"2021-01-10 17:25:51","orig_title":"Camping","year":"2006-04-26","translations":["Профессиональный (многоголосый закадровый)"],"quality":"bd","translation":"Профессиональный (многоголосый закадровый)","update":"2021-01-10 23:07:20","iframe_src":"//8332.svetacdn.in/IAF0wWTdNYZm/movie/46878"},{"id":46874,"title":"The Monopoly on Violence","kp_id":null,"imdb_id":"tt10627868","world_art_id":null,"type":"movie","add":"2021-01-10 15:57:54","orig_title":"The Monopoly on Violence","year":"2020-05-31","translations":["Original (English)"],"quality":"webdl","translation":"Original (English)","update":"2021-01-10 23:16:50","iframe_src":"//8332.svetacdn.in/IAF0wWTdNYZm/movie/46874"},{"id":46872,"title":"Алиса","kp_id":"79229","imdb_id":"tt0095715","world_art_id":null,"type":"movie","add":"2021-01-10 15:44:19","orig_title":"Neco z Alenky","year":"1988-08-03","translations":["Любительский (одноголосый закадровый)"],"quality":"bd","translation":"Любительский (одноголосый закадровый)","update":"2021-01-10 23:12:32","iframe_src":"//8332.svetacdn.in/IAF0wWTdNYZm/movie/46872"},{"id":46807,"title":"Чаша терпения","kp_id":"45439","imdb_id":"tt0172235","world_art_id":null,"type":"movie","add":"2021-01-08 18:44:36","orig_title":"Chasha terpeniya","year":"1989-01-01","translations":["Оригинальная дорожка"],"quality":"iptv","translation":"Оригинальная дорожка","update":"2021-01-11 10:41:18","iframe_src":"//8332.svetacdn.in/IAF0wWTdNYZm/movie/46807"},{"id":46783,"title":"Ветер «Надежды»","kp_id":"45759","imdb_id":"tt0332813","world_art_id":null,"type":"movie","add":"2021-01-07 17:25:24","orig_title":"Veter 'Nadezhdy'","year":"1978-03-27","translations":["Оригинальная дорожка"],"quality":"sat","translation":"Оригинальная дорожка","update":"2021-01-11 10:40:38","iframe_src":"//8332.svetacdn.in/IAF0wWTdNYZm/movie/46783"},{"id":46782,"title":"За рекой — граница","kp_id":"45182","imdb_id":null,"world_art_id":null,"type":"movie","add":"2021-01-07 17:20:46","orig_title":"За рекой — граница","year":"1972-02-22","translations":["Оригинальная дорожка"],"quality":"vhs","translation":"Оригинальная дорожка","update":"2021-01-11 10:39:34","iframe_src":"//8332.svetacdn.in/IAF0wWTdNYZm/movie/46782"},{"id":46780,"title":"Друзья встречаются вновь","kp_id":"268424","imdb_id":"tt0781019","world_art_id":null,"type":"movie","add":"2021-01-07 17:04:49","orig_title":"Druzya vstrechayutsya vnov","year":"1939-01-01","translations":["Оригинальная дорожка"],"quality":"vhs","translation":"Оригинальная дорожка","update":"2021-01-11 10:28:11","iframe_src":"//8332.svetacdn.in/IAF0wWTdNYZm/movie/46780"},{"id":46779,"title":"У самого синего моря","kp_id":"42480","imdb_id":"tt0028436","world_art_id":null,"type":"movie","add":"2021-01-07 17:02:41","orig_title":"U samogo sinego morya","year":"1936-04-01","translations":["Оригинальная дорожка"],"quality":"webdl","translation":"Оригинальная дорожка","update":"2021-01-11 10:27:37","iframe_src":"//8332.svetacdn.in/IAF0wWTdNYZm/movie/46779"},{"id":46778,"title":"Рейс первый, рейс последний","kp_id":"627829","imdb_id":"tt4837468","world_art_id":null,"type":"movie","add":"2021-01-07 16:59:58","orig_title":"Reys pervyy, reys posledniy","year":"1974-02-03","translations":["Оригинальная дорожка"],"quality":"vhs","translation":"Оригинальная дорожка","update":"2021-01-11 10:26:16","iframe_src":"//8332.svetacdn.in/IAF0wWTdNYZm/movie/46778"},{"id":46777,"title":"Улица без конца","kp_id":"472299","imdb_id":"tt4716294","world_art_id":null,"type":"movie","add":"2021-01-07 16:54:38","orig_title":"Ulitsa bez kontsa","year":"1973-04-23","translations":["Оригинальная дорожка"],"quality":"tv","translation":"Оригинальная дорожка","update":"2021-01-11 10:25:25","iframe_src":"//8332.svetacdn.in/IAF0wWTdNYZm/movie/46777"},{"id":46776,"title":"Служа отечеству","kp_id":"43868","imdb_id":"tt0170600","world_art_id":null,"type":"movie","add":"2021-01-07 16:52:13","orig_title":"Sluzha otechestvu","year":"1982-04-02","translations":["Оригинальная дорожка"],"quality":"vhs","translation":"Оригинальная дорожка","update":"2021-01-11 10:23:41","iframe_src":"//8332.svetacdn.in/IAF0wWTdNYZm/movie/46776"},{"id":46554,"title":"Рождество в шоколаде","kp_id":"1404654","imdb_id":"tt12953542","world_art_id":null,"type":"movie","add":"2020-12-30 19:34:14","orig_title":"Chocolate Covered Christmas","year":"2020-11-01","translations":["Любительский (многоголосый закадровый) (Синема УС)","Профессиональный (многоголосый закадровый) (iTunes)"],"quality":"webdl","translation":"Любительский (многоголосый закадровый) (Синема УС)","update":"2021-01-11 09:23:05","iframe_src":"//8332.svetacdn.in/IAF0wWTdNYZm/movie/46554"},{"id":46106,"title":"Журавль в небе...","kp_id":"45348","imdb_id":"tt0076956","world_art_id":null,"type":"movie","add":"2020-12-15 17:32:40","orig_title":"Zhuravl v nebe","year":"1978-06-12","translations":["Оригинальная дорожка","Оригинальная дорожка"],"quality":"sat","translation":"Оригинальная дорожка","update":"2021-01-11 10:23:00","iframe_src":"//8332.svetacdn.in/IAF0wWTdNYZm/movie/46106"},{"id":45685,"title":"Ип Ман: Мастер кунг-фу","kp_id":"1445054","imdb_id":"tt12567246","world_art_id":null,"type":"movie","add":"2020-11-28 12:07:26","orig_title":"Zong shi ye wen","year":"2019-12-23","translations":["Любительский (многоголосый закадровый) (@MUZOBOZ@)","Любительский (многоголосый закадровый) (@MUZOBOZ@)"],"quality":"webdl","translation":"Любительский (многоголосый закадровый) (@MUZOBOZ@)","update":"2021-01-11 09:28:59","iframe_src":"//8332.svetacdn.in/IAF0wWTdNYZm/movie/45685"},{"id":42155,"title":"Обратный рейс","kp_id":"1086363","imdb_id":"tt6854600","world_art_id":null,"type":"movie","add":"2020-07-31 16:11:55","orig_title":"Dead Heading","year":"2019-01-01","translations":["Профессиональный (многоголосый закадровый)","Original (English)"],"quality":"webdl","translation":"Профессиональный (многоголосый закадровый)","update":"2021-01-10 23:15:05","iframe_src":"//8332.svetacdn.in/IAF0wWTdNYZm/movie/42155"},{"id":40440,"title":"Близкие контакты","kp_id":"1182264","imdb_id":"tt8718300","world_art_id":null,"type":"movie","add":"2020-05-15 22:35:44","orig_title":"Proximity","year":"2020-05-15","translations":["Любительский (двухголосый закадровый) (LakeFilms)","Любительский (многоголосый закадровый) (@MUZOBOZ@)","Original (English)","Профессиональный (многоголосый закадровый) (iTunes)"],"quality":"webdl","translation":"Любительский (двухголосый закадровый) (LakeFilms)","update":"2021-01-10 23:04:23","iframe_src":"//8332.svetacdn.in/IAF0wWTdNYZm/movie/40440"},{"id":5627,"title":"Искушение наследством","kp_id":"1313581","imdb_id":null,"world_art_id":null,"type":"serial","add":"2019-11-03 21:59:07","orig_title":"Искушение наследством","year":"2019-11-02","translations":["Оригинальная дорожка"],"seasons_count":1,"episodes_count":2,"episodes":2,"update":"2019-11-04 05:50:19","iframe_src":"//8332.svetacdn.in/IAF0wWTdNYZm/tv-series/5627"},{"id":5603,"title":"Миллионер из Балашихи","kp_id":"1270744","imdb_id":null,"world_art_id":null,"type":"serial","add":"2019-11-02 10:26:09","orig_title":"Миллионер из Балашихи","year":"2019-02-25","translations":["Оригинальная дорожка"],"seasons_count":1,"episodes_count":6,"episodes":6,"update":"2019-11-02 22:29:22","iframe_src":"//8332.svetacdn.in/IAF0wWTdNYZm/tv-series/5603"},{"id":5602,"title":"Рыцарь нашего времени","kp_id":"1235982","imdb_id":null,"world_art_id":null,"type":"serial","add":"2019-11-02 10:22:15","orig_title":"Рыцарь нашего времени","year":"2019-01-01","translations":["Оригинальная дорожка"],"seasons_count":1,"episodes_count":4,"episodes":4,"update":"2019-11-04 05:54:32","iframe_src":"//8332.svetacdn.in/IAF0wWTdNYZm/tv-series/5602"},{"id":5601,"title":"Сага о Винланде","kp_id":"1274280","imdb_id":"tt10233448","world_art_id":null,"type":"serial","add":"2019-11-02 10:09:43","orig_title":"Vinland Saga","year":"2019-07-08","translations":["Профессиональный (многоголосый закадровый) (HDrezka Studio)"],"seasons_count":1,"episodes_count":15,"episodes":15,"update":"2019-11-03 09:20:48","iframe_src":"//8332.svetacdn.in/IAF0wWTdNYZm/tv-series/5601"},{"id":5586,"title":"Без координат","kp_id":"496833","imdb_id":"tt1587694","world_art_id":null,"type":"serial","add":"2019-10-30 19:52:59","orig_title":"Off the Map","year":"2011-01-12","translations":["Профессиональный (многоголосый закадровый) (Fox Life)"],"seasons_count":1,"episodes_count":13,"episodes":13,"update":"2019-11-02 20:49:37","iframe_src":"//8332.svetacdn.in/IAF0wWTdNYZm/tv-series/5586"},{"id":5585,"title":"Пером и шпагой","kp_id":"410939","imdb_id":"tt1266428","world_art_id":null,"type":"serial","add":"2019-10-30 19:49:34","orig_title":"Perom i shpagoy","year":"2008-05-30","translations":["Оригинальная дорожка"],"seasons_count":1,"episodes_count":12,"episodes":12,"update":"2019-11-02 20:36:16","iframe_src":"//8332.svetacdn.in/IAF0wWTdNYZm/tv-series/5585"},{"id":5583,"title":"Прятки","kp_id":"1236291","imdb_id":"tt9612028","world_art_id":null,"type":"serial","add":"2019-10-30 17:59:49","orig_title":"Pryatki","year":"2019-10-01","translations":["Оригинальная дорожка"],"seasons_count":1,"episodes_count":8,"episodes":8,"update":"2019-11-02 15:15:35","iframe_src":"//8332.svetacdn.in/IAF0wWTdNYZm/tv-series/5583"},{"id":5582,"title":"Самурай и кошка","kp_id":"897908","imdb_id":"tt3303752","world_art_id":null,"type":"serial","add":"2019-10-30 11:59:22","orig_title":"Neko zamurai","year":"2013-10-13","translations":["Любительский (одноголосый закадровый) (Arisu)"],"seasons_count":1,"episodes_count":12,"episodes":12,"update":"2019-11-02 11:46:24","iframe_src":"//8332.svetacdn.in/IAF0wWTdNYZm/tv-series/5582"},{"id":5581,"title":"В июне 1941","kp_id":"395688","imdb_id":"tt1270849","world_art_id":null,"type":"serial","add":"2019-10-30 11:54:31","orig_title":"V iyune 41-go","year":"2008-05-09","translations":["Оригинальная дорожка"],"seasons_count":1,"episodes_count":4,"episodes":4,"update":"2019-11-02 11:44:56","iframe_src":"//8332.svetacdn.in/IAF0wWTdNYZm/tv-series/5581"},{"id":5579,"title":"Тяжёлый понедельник","kp_id":"666942","imdb_id":"tt2217759","world_art_id":null,"type":"serial","add":"2019-10-30 11:43:08","orig_title":"Monday Mornings","year":"2013-02-04","translations":["Профессиональный (многоголосый закадровый) (Fox Life)"],"seasons_count":1,"episodes_count":10,"episodes":10,"update":"2019-11-02 11:42:39","iframe_src":"//8332.svetacdn.in/IAF0wWTdNYZm/tv-series/5579"},{"id":5573,"title":"Прилив","kp_id":"798323","imdb_id":"tt3150586","world_art_id":null,"type":"serial","add":"2019-10-29 19:54:53","orig_title":"Medcezir","year":"2013-09-13","translations":["Любительский (двухголосый закадровый)","Любительский (одноголосый закадровый)"],"seasons_count":2,"episodes_count":77,"episodes":39,"update":"2019-11-02 11:28:59","iframe_src":"//8332.svetacdn.in/IAF0wWTdNYZm/tv-series/5573"},{"id":5493,"title":"Екатерина. Самозванцы","kp_id":"1197730","imdb_id":null,"world_art_id":null,"type":"serial","add":"2019-10-19 06:25:03","orig_title":"Екатерина. Самозванцы","year":"2019-10-21","translations":["Оригинальная дорожка"],"seasons_count":1,"episodes_count":16,"episodes":16,"update":"2019-11-02 11:30:27","iframe_src":"//8332.svetacdn.in/IAF0wWTdNYZm/tv-series/5493"},{"id":5135,"title":"Когда зовет надежда","kp_id":"1273206","imdb_id":"tt9145334","world_art_id":null,"type":"serial","add":"2019-09-03 08:15:34","orig_title":"When Hope Calls","year":"2019-08-01","translations":["Любительский (многоголосый закадровый) (Octopus)"],"seasons_count":1,"episodes_count":10,"episodes":10,"update":"2019-11-03 22:33:28","iframe_src":"//8332.svetacdn.in/IAF0wWTdNYZm/tv-series/5135"},{"id":26448,"title":"Иду искать","kp_id":"421040","imdb_id":"tt2256578","world_art_id":null,"type":"movie","add":"2019-05-13 19:51:34","orig_title":"Idu iskat","year":"1966-11-14","translations":["Оригинальная дорожка","Оригинальная дорожка"],"quality":"tv","translation":"Оригинальная дорожка","update":"2021-01-11 10:38:55","iframe_src":"//8332.svetacdn.in/IAF0wWTdNYZm/movie/26448"},{"id":3009,"title":"Ложа 49","kp_id":"1177507","imdb_id":"tt6128254","world_art_id":null,"type":"serial","add":"2018-08-09 05:19:25","orig_title":"Lodge 49","year":"2018-08-06","translations":["Любительский (двухголосый закадровый) (Sunshine Studio)","Профессиональный (многоголосый закадровый) (NewStudio)","Профессиональный (многоголосый закадровый) (HDrezka Studio)"],"seasons_count":2,"episodes_count":20,"episodes":10,"update":"2019-11-02 08:58:00","iframe_src":"//8332.svetacdn.in/IAF0wWTdNYZm/tv-series/3009"},{"id":2729,"title":"Наследники","kp_id":"986788","imdb_id":"tt7660850","world_art_id":null,"type":"serial","add":"2018-06-04 12:11:09","orig_title":"Succession","year":"2018-06-03","translations":["Профессиональный (многоголосый закадровый) (Amedia)","Профессиональный (многоголосый закадровый) (NewStudio)","Профессиональный (многоголосый закадровый) (HDrezka Studio)","Профессиональный (многоголосый закадровый) (TVShows)"],"seasons_count":2,"episodes_count":20,"episodes":10,"update":"2019-11-01 19:31:14","iframe_src":"//8332.svetacdn.in/IAF0wWTdNYZm/tv-series/2729"},{"id":2600,"title":"Сладкая горечь","kp_id":"1112960","imdb_id":"tt7563270","world_art_id":null,"type":"serial","add":"2018-05-21 03:55:48","orig_title":"Sweetbitter","year":"2018-05-06","translations":["Профессиональный (многоголосый закадровый) (BaibaKo)","Профессиональный (многоголосый закадровый) (HDrezka Studio)","Профессиональный (многоголосый закадровый) (NewStudio)"],"seasons_count":2,"episodes_count":14,"episodes":8,"update":"2019-11-03 18:01:58","iframe_src":"//8332.svetacdn.in/IAF0wWTdNYZm/tv-series/2600"},{"id":2283,"title":"Так близко","kp_id":"1112879","imdb_id":"tt8036816","world_art_id":null,"type":"serial","add":"2018-03-29 10:32:03","orig_title":"This Close","year":"2018-02-14","translations":["Профессиональный (многоголосый закадровый) (NewStudio)","Профессиональный (многоголосый закадровый) (HDrezka Studio)","Профессиональный (многоголосый закадровый) (BaibaKo)"],"seasons_count":2,"episodes_count":14,"episodes":8,"update":"2019-11-02 08:29:01","iframe_src":"//8332.svetacdn.in/IAF0wWTdNYZm/tv-series/2283"},{"id":690,"title":"Пропавший без вести","kp_id":"843138","imdb_id":"tt3877200","world_art_id":null,"type":"serial","add":"2016-12-15 07:01:32","orig_title":"The Missing","year":"2014-10-28","translations":["Профессиональный (многоголосый закадровый) (Amedia)","Профессиональный (многоголосый закадровый) (ColdFilm)"],"seasons_count":2,"episodes_count":16,"episodes":16,"update":"2019-11-03 16:58:05","iframe_src":"//8332.svetacdn.in/IAF0wWTdNYZm/tv-series/690"},{"id":661,"title":"Развод","kp_id":"883270","imdb_id":"tt4304864","world_art_id":null,"type":"serial","add":"2016-12-05 12:26:54","orig_title":"Divorce","year":"2016-10-09","translations":["Профессиональный (многоголосый закадровый) (NewStudio)","Профессиональный (многоголосый закадровый) (HDrezka Studio)"],"seasons_count":3,"episodes_count":24,"episodes":6,"update":"2019-11-03 08:58:58","iframe_src":"//8332.svetacdn.in/IAF0wWTdNYZm/tv-series/661"},{"id":342,"title":"Футболисты","kp_id":"762087","imdb_id":"tt2891574","world_art_id":null,"type":"serial","add":"2016-08-17 10:48:04","orig_title":"Ballers","year":"2015-06-21","translations":["Профессиональный (многоголосый закадровый) (Amedia)","Любительский (многоголосый закадровый) (Octopus)","Профессиональный (многоголосый закадровый) (HDrezka Studio)"],"seasons_count":5,"episodes_count":47,"episodes":8,"update":"2019-11-01 19:47:06","iframe_src":"//8332.svetacdn.in/IAF0wWTdNYZm/tv-series/342"}],"current_page":325,"first_page_url":"https://videocdn.tv/api/short?limit=100&api_token=6Onb1W1alEUrBcKJZD3GoKBbWyAl2uG2&cache3325=3325&page=1","from":32401,"last_page":632,"last_page_url":"https://videocdn.tv/api/short?limit=100&api_token=6Onb1W1alEUrBcKJZD3GoKBbWyAl2uG2&cache3325=3325&page=632","next_page_url":"https://videocdn.tv/api/short?limit=100&api_token=6Onb1W1alEUrBcKJZD3GoKBbWyAl2uG2&cache3325=3325&page=326","path":"https://videocdn.tv/api/short","per_page":100,"prev_page_url":"https://videocdn.tv/api/short?limit=100&api_token=6Onb1W1alEUrBcKJZD3GoKBbWyAl2uG2&cache3325=3325&page=324","to":32440,"total":63170}