{"result":true,"data":[{"id":50721,"title":"Плавильная печь разума","kp_id":"1283329","imdb_id":"tt10592852","world_art_id":null,"type":"movie","add":"2021-05-29 08:32:04","orig_title":"Mind Melters","year":"2019-08-19","translations":["Любительский (многоголосый закадровый) (Синема УС)"],"quality":"webdl","translation":"Любительский (многоголосый закадровый) (Синема УС)","update":"2021-05-30 07:45:11","iframe_src":"//2413.svetacdn.in/IAF0wWTdNYZm/movie/50721"},{"id":50720,"title":"Зависть: история о семи смертных грехах.","kp_id":null,"imdb_id":"tt9145532","world_art_id":null,"type":"movie","add":"2021-05-29 08:26:41","orig_title":"Envy: Seven Deadly Sins","year":"2021-04-17","translations":["Любительский (многоголосый закадровый) (Синема УС)"],"quality":"webdl","translation":"Любительский (многоголосый закадровый) (Синема УС)","update":"2021-05-30 07:31:33","iframe_src":"//2413.svetacdn.in/IAF0wWTdNYZm/movie/50720"},{"id":50714,"title":"Поприветствуйте Мэтта","kp_id":"1149307","imdb_id":"tt8367846","world_art_id":null,"type":"movie","add":"2021-05-28 19:55:16","orig_title":"Welcome Matt","year":"2021-05-28","translations":["Любительский (многоголосый закадровый) (Синема УС)"],"quality":"webdl","translation":"Любительский (многоголосый закадровый) (Синема УС)","update":"2021-05-28 21:14:36","iframe_src":"//2413.svetacdn.in/IAF0wWTdNYZm/movie/50714"},{"id":50711,"title":"Открой глаза","kp_id":"1413725","imdb_id":"tt12492264","world_art_id":null,"type":"movie","add":"2021-05-28 18:57:16","orig_title":"Open Your Eyes","year":"2021-05-19","translations":["Любительский (многоголосый закадровый) (AlphaProject)"],"quality":"webdl","translation":"Любительский (многоголосый закадровый) (AlphaProject)","update":"2021-05-29 09:00:09","iframe_src":"//2413.svetacdn.in/IAF0wWTdNYZm/movie/50711"},{"id":50709,"title":"Зомби-насильники: Похоть мертвецов","kp_id":"673513","imdb_id":"tt2271565","world_art_id":null,"type":"movie","add":"2021-05-28 18:40:39","orig_title":"Reipu zonbi: Lust of the dead","year":"2012-02-26","translations":["Любительский (многоголосый закадровый)"],"quality":"dvdrip","translation":"Любительский (многоголосый закадровый)","update":"2021-05-29 17:11:18","iframe_src":"//2413.svetacdn.in/IAF0wWTdNYZm/movie/50709"},{"id":50706,"title":"Он, она и дети","kp_id":"256509","imdb_id":"tt0273917","world_art_id":null,"type":"movie","add":"2021-05-28 11:02:24","orig_title":"On, ona i deti","year":"1987-02-19","translations":["Оригинальная дорожка"],"quality":"sat","translation":"Оригинальная дорожка","update":"2021-05-28 16:41:27","iframe_src":"//2413.svetacdn.in/IAF0wWTdNYZm/movie/50706"},{"id":50641,"title":"Американский Барсук","kp_id":"1394261","imdb_id":"tt12712572","world_art_id":null,"type":"movie","add":"2021-05-25 05:53:59","orig_title":"American Badger","year":"2021-03-06","translations":["[EN] Original (English)","Любительский (многоголосый закадровый) (Синема УС)"],"quality":"webdl","translation":"[EN] Original (English)","update":"2021-05-28 19:31:41","iframe_src":"//2413.svetacdn.in/IAF0wWTdNYZm/movie/50641"},{"id":49176,"title":"Замок","kp_id":"105069","imdb_id":"tt0120075","world_art_id":null,"type":"movie","add":"2021-03-29 15:06:51","orig_title":"Das Schloß","year":"1997-02-15","translations":["Профессиональный (двухголосый закадровый) (Кино без границ)","Авторский (одноголосый закадровый) (Кузнецов Сергей)"],"quality":"bd","translation":"Профессиональный (двухголосый закадровый) (Кино без границ)","update":"2021-05-28 13:37:28","iframe_src":"//2413.svetacdn.in/IAF0wWTdNYZm/movie/49176"},{"id":48792,"title":"Спасение","kp_id":"1967","imdb_id":"tt0114323","world_art_id":null,"type":"movie","add":"2021-03-16 06:41:43","orig_title":"Safe","year":"1995-01-25","translations":["Профессиональный (многоголосый закадровый)","[EN] Original (English)","Авторский (одноголосый закадровый) (Алексеев Антон)"],"quality":"bd","translation":"Профессиональный (многоголосый закадровый)","update":"2021-05-28 17:01:00","iframe_src":"//2413.svetacdn.in/IAF0wWTdNYZm/movie/48792"},{"id":40976,"title":"Ширли","kp_id":"1146759","imdb_id":"tt8430598","world_art_id":null,"type":"movie","add":"2020-06-06 06:48:05","orig_title":"Shirley","year":"2020-01-25","translations":["[EN] Original (English)","Полное дублирование (iTunes)","Авторский (одноголосый закадровый) (Данилов Владислав | Kenum)"],"quality":"webdl","translation":"[EN] Original (English)","update":"2021-05-28 10:48:18","iframe_src":"//2413.svetacdn.in/IAF0wWTdNYZm/movie/40976"},{"id":25151,"title":"Загнанных лошадей пристреливают, не правда ли?","kp_id":"15559","imdb_id":"tt0065088","world_art_id":null,"type":"movie","add":"2019-04-22 21:41:35","orig_title":"They Shoot Horses, Don't They?","year":"1969-12-10","translations":["Полное дублирование","Полное дублирование (Союзмультфильм)","[EN] Original (English)","Профессиональный (двухголосый закадровый)","Профессиональный (многоголосый закадровый) (Культура | Россия К)","Профессиональный (многоголосый закадровый) (5-й канал СПб)"],"quality":"bd","translation":"Полное дублирование","update":"2021-05-28 11:14:48","iframe_src":"//2413.svetacdn.in/IAF0wWTdNYZm/movie/25151"},{"id":20767,"title":"Человек-паук: Через вселенные","kp_id":"920265","imdb_id":"tt4633694","world_art_id":null,"type":"movie","add":"2018-12-15 12:19:20","orig_title":"Spider-Man: Into the Spider-Verse","year":"2018-12-06","translations":["Полное дублирование","[EN] Original (English)","Профессиональный (многоголосый закадровый) (HDrezka Studio)"],"quality":"bd","translation":"Полное дублирование","update":"2021-05-28 11:16:58","iframe_src":"//2413.svetacdn.in/IAF0wWTdNYZm/movie/20767"},{"id":20294,"title":"Астрал: Новое измерение","kp_id":"926782","imdb_id":"tt4765240","world_art_id":null,"type":"movie","add":"2018-11-25 22:06:16","orig_title":"Astral","year":"2018-10-13","translations":["Любительский (многоголосый закадровый) (@MUZOBOZ@)","Полное дублирование","Полное дублирование (iTunes)","Профессиональный (многоголосый закадровый) (HDrezka Studio)"],"quality":"webdl","translation":"Любительский (многоголосый закадровый) (@MUZOBOZ@)","update":"2021-05-29 06:24:59","iframe_src":"//2413.svetacdn.in/IAF0wWTdNYZm/movie/20294"},{"id":20227,"title":"Скромное обаяние буржуазии","kp_id":"47130","imdb_id":"tt0068361","world_art_id":null,"type":"movie","add":"2018-11-21 08:48:31","orig_title":"Le charme discret de la bourgeoisie","year":"1972-09-15","translations":["Профессиональный (многоголосый закадровый)","Авторский (одноголосый закадровый) (Кузнецов Сергей)","Профессиональный (двухголосый закадровый) (RUSCICO)","Профессиональный (многоголосый закадровый) (DVD Магия)","Профессиональный (многоголосый закадровый) (НТВ)","Профессиональный (многоголосый закадровый) (SomeWax)"],"quality":"bd","translation":"Профессиональный (многоголосый закадровый)","update":"2021-05-28 11:06:53","iframe_src":"//2413.svetacdn.in/IAF0wWTdNYZm/movie/20227"},{"id":20128,"title":"Остров","kp_id":"1114961","imdb_id":"tt8755316","world_art_id":null,"type":"movie","add":"2018-11-14 23:03:22","orig_title":"Yi chu hao xi","year":"2018-08-09","translations":["Любительский (многоголосый закадровый) (Колобок)","Профессиональный (многоголосый закадровый) (HDrezka Studio)","Профессиональный (многоголосый закадровый) (HDrezka Studio)"],"quality":"webdl","translation":"Любительский (многоголосый закадровый) (Колобок)","update":"2021-05-29 08:53:49","iframe_src":"//2413.svetacdn.in/IAF0wWTdNYZm/movie/20128"},{"id":15376,"title":"Джабервоки","kp_id":"13470","imdb_id":"tt0076221","world_art_id":null,"type":"movie","add":"2018-03-05 07:59:37","orig_title":"Jabberwocky","year":"1977-03-28","translations":["Профессиональный (двухголосый закадровый)","Авторский (одноголосый закадровый) (Михалёв Алексей)","[EN] Original (English)","Профессиональный (двухголосый закадровый) (Видеосервис)","Профессиональный (многоголосый закадровый) (Видеосервис)"],"quality":"bd","translation":"Профессиональный (двухголосый закадровый)","update":"2021-05-28 10:59:49","iframe_src":"//2413.svetacdn.in/IAF0wWTdNYZm/movie/15376"},{"id":1371,"title":"Женщина в беде 3","kp_id":"961721","imdb_id":null,"world_art_id":null,"type":"serial","add":"2017-07-06 05:49:57","orig_title":"Женщина в беде 3","year":"2017-05-20","translations":["Оригинальная дорожка"],"seasons_count":1,"episodes_count":4,"episodes":4,"update":"2017-07-07 08:59:05","iframe_src":"//2413.svetacdn.in/IAF0wWTdNYZm/tv-series/1371"},{"id":1369,"title":"Женщина в беде 2","kp_id":"842591","imdb_id":null,"world_art_id":null,"type":"serial","add":"2017-07-06 05:29:20","orig_title":"Женщина в беде 2","year":"2015-04-18","translations":["Оригинальная дорожка"],"seasons_count":1,"episodes_count":4,"episodes":4,"update":"2017-07-07 08:53:18","iframe_src":"//2413.svetacdn.in/IAF0wWTdNYZm/tv-series/1369"},{"id":1365,"title":"Сила Веры","kp_id":"763547","imdb_id":null,"world_art_id":null,"type":"serial","add":"2017-07-06 04:46:50","orig_title":"Сила Веры","year":"2013-05-18","translations":["Оригинальная дорожка"],"seasons_count":1,"episodes_count":2,"episodes":2,"update":"2017-07-06 11:45:11","iframe_src":"//2413.svetacdn.in/IAF0wWTdNYZm/tv-series/1365"},{"id":1364,"title":"Предельная глубина","kp_id":"839266","imdb_id":null,"world_art_id":null,"type":"serial","add":"2017-07-06 04:34:33","orig_title":"Предельная глубина","year":"2014-04-16","translations":["Оригинальная дорожка"],"seasons_count":1,"episodes_count":4,"episodes":4,"update":"2017-07-06 12:29:32","iframe_src":"//2413.svetacdn.in/IAF0wWTdNYZm/tv-series/1364"},{"id":1363,"title":"Лектор","kp_id":"532874","imdb_id":"tt1687471","world_art_id":null,"type":"serial","add":"2017-07-06 04:30:05","orig_title":"Lektor","year":"2011-10-30","translations":["Оригинальная дорожка"],"seasons_count":1,"episodes_count":8,"episodes":8,"update":"2017-07-06 11:40:11","iframe_src":"//2413.svetacdn.in/IAF0wWTdNYZm/tv-series/1363"},{"id":1357,"title":"Уилфред","kp_id":"558127","imdb_id":"tt1703925","world_art_id":null,"type":"serial","add":"2017-07-04 09:16:29","orig_title":"Wilfred","year":"2011-06-23","translations":["Профессиональный (двухголосый закадровый) (Кубик в Кубе | Kubik³)"],"seasons_count":4,"episodes_count":49,"episodes":10,"update":"2017-07-06 11:15:57","iframe_src":"//2413.svetacdn.in/IAF0wWTdNYZm/tv-series/1357"},{"id":1354,"title":"Три дороги","kp_id":"961717","imdb_id":"tt5564504","world_art_id":null,"type":"serial","add":"2017-07-04 05:12:43","orig_title":"Tree Dorogy","year":"2016-01-01","translations":["Оригинальная дорожка"],"seasons_count":1,"episodes_count":4,"episodes":4,"update":"2017-07-05 06:06:40","iframe_src":"//2413.svetacdn.in/IAF0wWTdNYZm/tv-series/1354"},{"id":1351,"title":"Любовь говорит","kp_id":"933352","imdb_id":"tt5088016","world_art_id":null,"type":"serial","add":"2017-07-03 13:07:28","orig_title":"Lyubov govorit","year":"2015-09-30","translations":["Оригинальная дорожка"],"seasons_count":1,"episodes_count":4,"episodes":4,"update":"2017-07-06 12:24:19","iframe_src":"//2413.svetacdn.in/IAF0wWTdNYZm/tv-series/1351"},{"id":1349,"title":"Константин","kp_id":"822704","imdb_id":"tt3489184","world_art_id":null,"type":"serial","add":"2017-07-03 09:57:31","orig_title":"Constantine","year":"2014-10-24","translations":["Профессиональный (многоголосый закадровый) (LostFilm)"],"seasons_count":1,"episodes_count":13,"episodes":13,"update":"2017-07-05 06:13:18","iframe_src":"//2413.svetacdn.in/IAF0wWTdNYZm/tv-series/1349"},{"id":1347,"title":"Тёмный мир: Равновесие","kp_id":"682079","imdb_id":"tt3716168","world_art_id":null,"type":"serial","add":"2017-07-02 09:01:19","orig_title":"Temnyy mir: Ravnovesie","year":"2014-05-12","translations":["Оригинальная дорожка"],"seasons_count":1,"episodes_count":12,"episodes":12,"update":"2017-07-04 10:57:22","iframe_src":"//2413.svetacdn.in/IAF0wWTdNYZm/tv-series/1347"},{"id":1345,"title":"Цыганка","kp_id":"972838","imdb_id":"tt5503718","world_art_id":null,"type":"serial","add":"2017-07-02 07:54:26","orig_title":"Gypsy","year":"2017-06-30","translations":["Любительский (двухголосый закадровый) (Sunshine Studio)"],"seasons_count":1,"episodes_count":10,"episodes":10,"update":"2017-07-03 06:50:29","iframe_src":"//2413.svetacdn.in/IAF0wWTdNYZm/tv-series/1345"},{"id":1342,"title":"Круг","kp_id":"1038281","imdb_id":"tt6666218","world_art_id":null,"type":"serial","add":"2017-06-30 05:36:31","orig_title":"Sseokeul","year":"2017-05-22","translations":["Любительский (двухголосый закадровый) (SoftBox)"],"seasons_count":1,"episodes_count":12,"episodes":12,"update":"2017-06-30 12:46:23","iframe_src":"//2413.svetacdn.in/IAF0wWTdNYZm/tv-series/1342"},{"id":1341,"title":"Просто парочка","kp_id":null,"imdb_id":"tt6642842","world_art_id":null,"type":"serial","add":"2017-06-30 05:25:39","orig_title":"Just A Couple","year":"2017-03-09","translations":["Любительский (двухголосый закадровый) (Hamster Studio)"],"seasons_count":1,"episodes_count":6,"episodes":6,"update":"2017-06-30 12:10:59","iframe_src":"//2413.svetacdn.in/IAF0wWTdNYZm/tv-series/1341"},{"id":1338,"title":"Для тебя во всем цвету","kp_id":"688258","imdb_id":"tt2191746","world_art_id":null,"type":"serial","add":"2017-06-29 08:18:00","orig_title":"To the Beautiful You","year":"2012-08-15","translations":["Профессиональный (двухголосый закадровый)"],"seasons_count":1,"episodes_count":16,"episodes":16,"update":"2017-06-29 13:14:03","iframe_src":"//2413.svetacdn.in/IAF0wWTdNYZm/tv-series/1338"},{"id":1322,"title":"Розыск 3","kp_id":"837657","imdb_id":"tt5038390","world_art_id":null,"type":"serial","add":"2017-06-15 18:11:15","orig_title":"Rozysk 3","year":"2015-01-01","translations":["Оригинальная дорожка"],"seasons_count":1,"episodes_count":16,"episodes":16,"update":"2017-07-05 11:18:01","iframe_src":"//2413.svetacdn.in/IAF0wWTdNYZm/tv-series/1322"},{"id":1321,"title":"Розыск 2","kp_id":"794497","imdb_id":"tt4763388","world_art_id":null,"type":"serial","add":"2017-06-15 18:07:39","orig_title":"Rozysk 2","year":"2013-12-09","translations":["Оригинальная дорожка"],"seasons_count":1,"episodes_count":16,"episodes":16,"update":"2017-06-30 06:18:23","iframe_src":"//2413.svetacdn.in/IAF0wWTdNYZm/tv-series/1321"},{"id":1316,"title":"По-собачьи","kp_id":"980306","imdb_id":"tt3879306","world_art_id":null,"type":"serial","add":"2017-06-15 10:34:58","orig_title":"Downward Dog","year":"2017-05-17","translations":["Профессиональный (многоголосый закадровый) (BaibaKo)"],"seasons_count":1,"episodes_count":8,"episodes":8,"update":"2017-06-30 10:48:43","iframe_src":"//2413.svetacdn.in/IAF0wWTdNYZm/tv-series/1316"},{"id":1272,"title":"Акватория","kp_id":"1045466","imdb_id":null,"world_art_id":null,"type":"serial","add":"2017-05-30 11:17:47","orig_title":"Акватория","year":"2017-05-29","translations":["Оригинальная дорожка"],"seasons_count":1,"episodes_count":40,"episodes":40,"update":"2017-07-03 05:07:53","iframe_src":"//2413.svetacdn.in/IAF0wWTdNYZm/tv-series/1272"},{"id":1196,"title":"Измерение 404","kp_id":"1042181","imdb_id":"tt5798078","world_art_id":null,"type":"serial","add":"2017-04-18 07:50:32","orig_title":"Dimension 404","year":"2017-04-04","translations":["Профессиональный (многоголосый закадровый) (NewStudio)"],"seasons_count":1,"episodes_count":6,"episodes":6,"update":"2017-07-03 12:16:59","iframe_src":"//2413.svetacdn.in/IAF0wWTdNYZm/tv-series/1196"},{"id":4427,"title":"Лихорадка джунглей","kp_id":"3539","imdb_id":"tt0102175","world_art_id":null,"type":"movie","add":"2016-08-15 08:26:25","orig_title":"Jungle Fever","year":"1991-06-05","translations":["Профессиональный (многоголосый закадровый)","Профессиональный (двухголосый закадровый) (Премьер Видео Фильм)","[EN] Original (English)","Авторский (одноголосый закадровый) (Михалёв Алексей)"],"quality":"hdtv","translation":"Профессиональный (многоголосый закадровый)","update":"2021-05-28 17:04:08","iframe_src":"//2413.svetacdn.in/IAF0wWTdNYZm/movie/4427"},{"id":284,"title":"Живые и мёртвые","kp_id":"926991","imdb_id":"tt4928166","world_art_id":null,"type":"serial","add":"2016-07-14 12:16:26","orig_title":"The Living and the Dead","year":"2016-06-28","translations":["Профессиональный (многоголосый закадровый) (BaibaKo)"],"seasons_count":1,"episodes_count":6,"episodes":6,"update":"2017-07-04 08:23:31","iframe_src":"//2413.svetacdn.in/IAF0wWTdNYZm/tv-series/284"},{"id":3125,"title":"Барри Линдон","kp_id":"5032","imdb_id":"tt0072684","world_art_id":null,"type":"movie","add":"2016-06-13 18:34:29","orig_title":"Barry Lyndon","year":"1975-12-18","translations":["Профессиональный (многоголосый закадровый)","Авторский (одноголосый закадровый) (Кузнецов Сергей)","[EN] Original (English)","Профессиональный (многоголосый закадровый) (НТВ)"],"quality":"bd","translation":"Профессиональный (многоголосый закадровый)","update":"2021-05-28 11:18:31","iframe_src":"//2413.svetacdn.in/IAF0wWTdNYZm/movie/3125"},{"id":2025,"title":"Я – Сэм","kp_id":"706","imdb_id":"tt0277027","world_art_id":null,"type":"movie","add":"2016-05-10 16:01:55","orig_title":"I Am Sam","year":"2001-12-03","translations":["Профессиональный (многоголосый закадровый)","[EN] Original (English)","Профессиональный (многоголосый закадровый)","Профессиональный (многоголосый закадровый) (Universal Russia)"],"quality":"bd","translation":"Профессиональный (многоголосый закадровый)","update":"2021-05-28 08:25:47","iframe_src":"//2413.svetacdn.in/IAF0wWTdNYZm/movie/2025"},{"id":1959,"title":"Медвежатник","kp_id":"819","imdb_id":"tt0227445","world_art_id":null,"type":"movie","add":"2016-05-07 09:53:42","orig_title":"The Score","year":"2001-07-09","translations":["Профессиональный (многоголосый закадровый)","Авторский (одноголосый закадровый) (Гаврилов Андрей)","Полное дублирование (Ист-Вест)","Профессиональный (двухголосый закадровый) (Премьер Видео Фильм)","Профессиональный (многоголосый закадровый) (Позитив)"],"quality":"bd","translation":"Профессиональный (многоголосый закадровый)","update":"2021-05-28 10:55:42","iframe_src":"//2413.svetacdn.in/IAF0wWTdNYZm/movie/1959"}],"current_page":577,"first_page_url":"https://videocdn.tv/api/short?limit=100&api_token=6Onb1W1alEUrBcKJZD3GoKBbWyAl2uG2&cache3577=3577&page=1","from":57601,"last_page":715,"last_page_url":"https://videocdn.tv/api/short?limit=100&api_token=6Onb1W1alEUrBcKJZD3GoKBbWyAl2uG2&cache3577=3577&page=715","next_page_url":"https://videocdn.tv/api/short?limit=100&api_token=6Onb1W1alEUrBcKJZD3GoKBbWyAl2uG2&cache3577=3577&page=578","path":"https://videocdn.tv/api/short","per_page":100,"prev_page_url":"https://videocdn.tv/api/short?limit=100&api_token=6Onb1W1alEUrBcKJZD3GoKBbWyAl2uG2&cache3577=3577&page=576","to":57640,"total":71489}