{"result":true,"data":[{"id":29396,"title":"Часы без стрелок","kp_id":"432377","imdb_id":"tt5209258","world_art_id":null,"type":"movie","add":"2019-07-25 17:42:03","orig_title":"Chasy bez strelok","year":"2001-10-04","translations":["Оригинальная дорожка"],"quality":"dvdrip","translation":"Оригинальная дорожка","update":"2019-07-26 06:02:57","iframe_src":"//8543.svetacdn.in/IAF0wWTdNYZm/movie/29396"},{"id":29395,"title":"Депрессия","kp_id":"94087","imdb_id":"tt0411278","world_art_id":null,"type":"movie","add":"2019-07-25 17:36:27","orig_title":"Depressiya","year":"1991-01-01","translations":["Оригинальная дорожка"],"quality":"dvdrip","translation":"Оригинальная дорожка","update":"2019-07-26 06:02:22","iframe_src":"//8543.svetacdn.in/IAF0wWTdNYZm/movie/29395"},{"id":29394,"title":"Хороший день","kp_id":"1101337","imdb_id":"tt7869420","world_art_id":null,"type":"movie","add":"2019-07-25 17:33:26","orig_title":"Khoroshiy den","year":"2017-12-11","translations":["Оригинальная дорожка"],"quality":"webdl","translation":"Оригинальная дорожка","update":"2019-07-26 08:06:52","iframe_src":"//8543.svetacdn.in/IAF0wWTdNYZm/movie/29394"},{"id":29393,"title":"Катька и Шиз","kp_id":"41230","imdb_id":"tt0104598","world_art_id":null,"type":"movie","add":"2019-07-25 17:29:57","orig_title":"Katka i Shiz","year":"1992-01-01","translations":["Оригинальная дорожка"],"quality":"sat","translation":"Оригинальная дорожка","update":"2019-07-26 05:54:49","iframe_src":"//8543.svetacdn.in/IAF0wWTdNYZm/movie/29393"},{"id":29392,"title":"Кострома","kp_id":"103741","imdb_id":"tt0382129","world_art_id":null,"type":"movie","add":"2019-07-25 17:26:34","orig_title":"Kostroma","year":"2002-01-01","translations":["Оригинальная дорожка"],"quality":"dvdrip","translation":"Оригинальная дорожка","update":"2019-07-26 05:54:07","iframe_src":"//8543.svetacdn.in/IAF0wWTdNYZm/movie/29392"},{"id":29391,"title":"Не забудь... станция Луговая","kp_id":"46372","imdb_id":"tt0060744","world_art_id":null,"type":"movie","add":"2019-07-25 17:23:57","orig_title":"Ne zabud... Stantsiya Lugovaya","year":"1966-04-01","translations":["Оригинальная дорожка"],"quality":"dvdrip","translation":"Оригинальная дорожка","update":"2019-07-26 05:51:45","iframe_src":"//8543.svetacdn.in/IAF0wWTdNYZm/movie/29391"},{"id":29390,"title":"Опасная связь","kp_id":"417622","imdb_id":null,"world_art_id":null,"type":"movie","add":"2019-07-25 17:20:44","orig_title":"Опасная связь","year":"2008-06-20","translations":["Оригинальная дорожка"],"quality":"sat","translation":"Оригинальная дорожка","update":"2019-07-26 05:50:52","iframe_src":"//8543.svetacdn.in/IAF0wWTdNYZm/movie/29390"},{"id":29389,"title":"Операция «Кобра»","kp_id":"42781","imdb_id":"tt0314466","world_art_id":null,"type":"movie","add":"2019-07-25 17:13:15","orig_title":"Operatsiya 'Kobra'","year":"1961-02-06","translations":["Оригинальная дорожка"],"quality":"sat","translation":"Оригинальная дорожка","update":"2019-07-26 05:50:25","iframe_src":"//8543.svetacdn.in/IAF0wWTdNYZm/movie/29389"},{"id":29388,"title":"Песня первой любви","kp_id":"43520","imdb_id":"tt0188139","world_art_id":null,"type":"movie","add":"2019-07-25 17:09:56","orig_title":"Arajin siro yerge","year":"1958-08-11","translations":["Оригинальная дорожка"],"quality":"sat","translation":"Оригинальная дорожка","update":"2019-07-26 05:49:46","iframe_src":"//8543.svetacdn.in/IAF0wWTdNYZm/movie/29388"},{"id":29387,"title":"Поэма двух сердец","kp_id":"43061","imdb_id":"tt0347790","world_art_id":null,"type":"movie","add":"2019-07-25 17:05:58","orig_title":"Poema dvukh serdets","year":"1968-04-08","translations":["Полное дублирование"],"quality":"sat","translation":"Полное дублирование","update":"2019-07-26 05:48:16","iframe_src":"//8543.svetacdn.in/IAF0wWTdNYZm/movie/29387"},{"id":29386,"title":"Поездки на старом автомобиле","kp_id":"43204","imdb_id":"tt0160690","world_art_id":null,"type":"movie","add":"2019-07-25 17:02:41","orig_title":"Poyezdki na starom avtomobile","year":"1987-05-28","translations":["Оригинальная дорожка"],"quality":"dvdrip","translation":"Оригинальная дорожка","update":"2019-07-26 05:26:10","iframe_src":"//8543.svetacdn.in/IAF0wWTdNYZm/movie/29386"},{"id":29385,"title":"Прыжок на заре","kp_id":"43338","imdb_id":"tt0054213","world_art_id":null,"type":"movie","add":"2019-07-25 16:58:47","orig_title":"Pryzhok na zare","year":"1961-02-22","translations":["Оригинальная дорожка"],"quality":"vhs","translation":"Оригинальная дорожка","update":"2019-07-26 05:25:20","iframe_src":"//8543.svetacdn.in/IAF0wWTdNYZm/movie/29385"},{"id":29384,"title":"Пусть светит","kp_id":"331765","imdb_id":"tt0054220","world_art_id":null,"type":"movie","add":"2019-07-25 16:24:52","orig_title":"Pust svetit","year":"1960-11-07","translations":["Оригинальная дорожка"],"quality":"sat","translation":"Оригинальная дорожка","update":"2019-07-26 05:24:58","iframe_src":"//8543.svetacdn.in/IAF0wWTdNYZm/movie/29384"},{"id":29383,"title":"Родные поля","kp_id":"42116","imdb_id":"tt0175947","world_art_id":null,"type":"movie","add":"2019-07-25 16:21:24","orig_title":"Rodnye polya","year":"1945-02-07","translations":["Оригинальная дорожка"],"quality":"sat","translation":"Оригинальная дорожка","update":"2019-07-26 05:23:45","iframe_src":"//8543.svetacdn.in/IAF0wWTdNYZm/movie/29383"},{"id":29382,"title":"Саша-Сашенька","kp_id":"469715","imdb_id":"tt5052948","world_art_id":null,"type":"movie","add":"2019-07-25 16:18:47","orig_title":"Sasha-Sashenka","year":"1966-07-24","translations":["Оригинальная дорожка"],"quality":"sat","translation":"Оригинальная дорожка","update":"2019-07-26 05:23:01","iframe_src":"//8543.svetacdn.in/IAF0wWTdNYZm/movie/29382"},{"id":27150,"title":"Игрища престолов","kp_id":"1084219","imdb_id":"tt6411748","world_art_id":null,"type":"movie","add":"2019-05-27 19:40:03","orig_title":"Purge of Kingdoms: The Unauthorized Game of Thrones Parody","year":"2019-05-23","translations":["Полное дублирование","Original (English)"],"quality":"webdl","translation":"Полное дублирование","update":"2019-07-26 06:07:18","iframe_src":"//8543.svetacdn.in/IAF0wWTdNYZm/movie/27150"},{"id":26044,"title":"Прорыв","kp_id":"1118394","imdb_id":"tt7083526","world_art_id":null,"type":"movie","add":"2019-05-05 22:30:41","orig_title":"Breakthrough","year":"2019-04-10","translations":["Профессиональный (многоголосый закадровый)","Original (English)"],"quality":"bd","translation":"Профессиональный (многоголосый закадровый)","update":"2019-07-26 06:21:25","iframe_src":"//8543.svetacdn.in/IAF0wWTdNYZm/movie/26044"},{"id":25227,"title":"Проклятие плачущей","kp_id":"1084329","imdb_id":"tt4913966","world_art_id":null,"type":"movie","add":"2019-04-24 07:37:48","orig_title":"The Curse of La Llorona","year":"2019-03-15","translations":["Полное дублирование","Original (English)"],"quality":"bd","translation":"Полное дублирование","update":"2019-07-26 06:14:41","iframe_src":"//8543.svetacdn.in/IAF0wWTdNYZm/movie/25227"},{"id":23978,"title":"Призраки Шэрон Тейт","kp_id":"1137773","imdb_id":"tt7976208","world_art_id":null,"type":"movie","add":"2019-04-06 21:31:51","orig_title":"The Haunting of Sharon Tate","year":"2019-04-05","translations":["Полное дублирование","Original (English)"],"quality":"bd","translation":"Полное дублирование","update":"2019-07-26 06:13:24","iframe_src":"//8543.svetacdn.in/IAF0wWTdNYZm/movie/23978"},{"id":21735,"title":"FYRE: Величайшая вечеринка, которая не состоялась","kp_id":"1227883","imdb_id":"tt9412098","world_art_id":null,"type":"movie","add":"2019-01-22 23:36:05","orig_title":"FYRE: The Greatest Party That Never Happened","year":"2019-01-18","translations":["Профессиональный (многоголосый закадровый) (Ozz.tv)","Original (English)"],"quality":"webdl","translation":"Профессиональный (многоголосый закадровый) (Ozz.tv)","update":"2019-07-26 06:11:08","iframe_src":"//8543.svetacdn.in/IAF0wWTdNYZm/movie/21735"}],"current_page":1119,"first_page_url":"https://videocdn.tv/api/short?limit=100&api_token=6Onb1W1alEUrBcKJZD3GoKBbWyAl2uG2&cache31119=31119&page=1","from":111801,"last_page":599,"last_page_url":"https://videocdn.tv/api/short?limit=100&api_token=6Onb1W1alEUrBcKJZD3GoKBbWyAl2uG2&cache31119=31119&page=599","next_page_url":null,"path":"https://videocdn.tv/api/short","per_page":100,"prev_page_url":"https://videocdn.tv/api/short?limit=100&api_token=6Onb1W1alEUrBcKJZD3GoKBbWyAl2uG2&cache31119=31119&page=1118","to":111820,"total":59825}