{"result":true,"data":[{"id":45130,"title":"Любовь по-кубински","kp_id":"1163397","imdb_id":"tt8471716","world_art_id":null,"type":"movie","add":"2020-11-09 06:58:34","orig_title":"Verliefd op Cuba","year":"2019-02-14","translations":["Любительский (многоголосый закадровый) (AlphaProject)"],"quality":"webdl","translation":"Любительский (многоголосый закадровый) (AlphaProject)","update":"2020-11-09 09:47:37","iframe_src":"//7741.svetacdn.in/71tsRs29n5tZ/movie/45130"},{"id":45129,"title":"Зона отдыха","kp_id":null,"imdb_id":"tt13370916","world_art_id":null,"type":"movie","add":"2020-11-09 06:55:06","orig_title":"Rest Area","year":"2020-10-31","translations":["Любительский (многоголосый закадровый) (Синема УС)"],"quality":"webdl","translation":"Любительский (многоголосый закадровый) (Синема УС)","update":"2020-11-09 09:47:00","iframe_src":"//7741.svetacdn.in/71tsRs29n5tZ/movie/45129"},{"id":45127,"title":"Тропа","kp_id":"1410191","imdb_id":"tt12998774","world_art_id":null,"type":"movie","add":"2020-11-09 06:21:37","orig_title":"Desire Path","year":"2020-09-18","translations":["Любительский (многоголосый закадровый) (Синема УС)"],"quality":"webdl","translation":"Любительский (многоголосый закадровый) (Синема УС)","update":"2020-11-09 07:55:57","iframe_src":"//7741.svetacdn.in/71tsRs29n5tZ/movie/45127"},{"id":45126,"title":"У папы нет плана","kp_id":"1089564","imdb_id":"tt7516218","world_art_id":null,"type":"movie","add":"2020-11-09 06:19:53","orig_title":"Papa hat keinen Plan","year":"2019-04-12","translations":["Любительский (многоголосый закадровый) (Синема УС)"],"quality":"hdtv","translation":"Любительский (многоголосый закадровый) (Синема УС)","update":"2020-11-09 09:45:32","iframe_src":"//7741.svetacdn.in/71tsRs29n5tZ/movie/45126"},{"id":45125,"title":"И пробудился грохочущий гром","kp_id":"1418161","imdb_id":"tt12829576","world_art_id":null,"type":"movie","add":"2020-11-09 06:14:37","orig_title":"Set Roaring War","year":"2020-08-15","translations":["Любительский (многоголосый закадровый) (Синема УС)"],"quality":"webdl","translation":"Любительский (многоголосый закадровый) (Синема УС)","update":"2020-11-09 07:54:51","iframe_src":"//7741.svetacdn.in/71tsRs29n5tZ/movie/45125"},{"id":45122,"title":"Клюквенное рождество","kp_id":null,"imdb_id":"tt13356044","world_art_id":null,"type":"movie","add":"2020-11-09 06:07:45","orig_title":"Cranberry Christmas","year":"2020-10-31","translations":["Любительский (многоголосый закадровый) (AlphaProject)"],"quality":"hdtv","translation":"Любительский (многоголосый закадровый) (AlphaProject)","update":"2020-11-09 09:41:29","iframe_src":"//7741.svetacdn.in/71tsRs29n5tZ/movie/45122"},{"id":45121,"title":"Разногласия","kp_id":null,"imdb_id":"tt6662126","world_art_id":null,"type":"movie","add":"2020-11-09 06:04:40","orig_title":"Méprises","year":"2018-06-04","translations":["Любительский (многоголосый закадровый) (Студия Пиратского Дубляжа)"],"quality":"webdl","translation":"Любительский (многоголосый закадровый) (Студия Пиратского Дубляжа)","update":"2020-11-09 07:54:30","iframe_src":"//7741.svetacdn.in/71tsRs29n5tZ/movie/45121"},{"id":45120,"title":"Элис и Иза","kp_id":"1178131","imdb_id":"tt8747062","world_art_id":null,"type":"movie","add":"2020-11-09 06:02:18","orig_title":"Alice & Iza","year":"2018-12-15","translations":["Любительский (многоголосый закадровый) (Синема УС)"],"quality":"webdl","translation":"Любительский (многоголосый закадровый) (Синема УС)","update":"2020-11-09 06:24:37","iframe_src":"//7741.svetacdn.in/71tsRs29n5tZ/movie/45120"},{"id":45117,"title":"Убийства на Таити","kp_id":"1323030","imdb_id":"tt11244352","world_art_id":null,"type":"movie","add":"2020-11-08 18:00:05","orig_title":"Meurtres à Tahiti","year":"2020-01-01","translations":["Любительский (многоголосый закадровый) (Синема УС)"],"quality":"hdtv","translation":"Любительский (многоголосый закадровый) (Синема УС)","update":"2020-11-08 22:33:45","iframe_src":"//7741.svetacdn.in/71tsRs29n5tZ/movie/45117"},{"id":45116,"title":"Резня на порнокастинге","kp_id":"1419126","imdb_id":"tt13129670","world_art_id":null,"type":"movie","add":"2020-11-08 17:53:38","orig_title":"Casting Couch Slaughter","year":"2020-10-31","translations":["Любительский (многоголосый закадровый) (Синема УС)"],"quality":"webdl","translation":"Любительский (многоголосый закадровый) (Синема УС)","update":"2020-11-08 21:26:23","iframe_src":"//7741.svetacdn.in/71tsRs29n5tZ/movie/45116"},{"id":45115,"title":"Новый муж на Рождество","kp_id":"1394724","imdb_id":"tt12092722","world_art_id":null,"type":"movie","add":"2020-11-08 17:50:17","orig_title":"A New Husband for Christmas","year":"2020-01-01","translations":["Любительский (многоголосый закадровый) (Синема УС)"],"quality":"webdl","translation":"Любительский (многоголосый закадровый) (Синема УС)","update":"2020-11-09 04:32:33","iframe_src":"//7741.svetacdn.in/71tsRs29n5tZ/movie/45115"},{"id":45099,"title":"Цвет из тьмы","kp_id":"432878","imdb_id":"tt1318056","world_art_id":null,"type":"movie","add":"2020-11-08 14:37:46","orig_title":"Colour from the Dark","year":"2008-10-19","translations":["Любительский (одноголосый закадровый)"],"quality":"dvdrip","translation":"Любительский (одноголосый закадровый)","update":"2020-11-08 15:02:41","iframe_src":"//7741.svetacdn.in/71tsRs29n5tZ/movie/45099"},{"id":45098,"title":"Тайны саккарских гробниц","kp_id":"1443823","imdb_id":"tt13150630","world_art_id":null,"type":"movie","add":"2020-11-08 14:08:15","orig_title":"Secrets of the Saqqara Tomb","year":"2020-10-28","translations":["[EN] Original (English)"],"quality":"webdl","translation":"[EN] Original (English)","update":"2020-11-09 07:36:21","iframe_src":"//7741.svetacdn.in/71tsRs29n5tZ/movie/45098"},{"id":45097,"title":"Кунг-фу нацисты в Африке","kp_id":null,"imdb_id":"tt13399862","world_art_id":null,"type":"movie","add":"2020-11-08 08:16:29","orig_title":"African Kung-Fu Nazis","year":"2019-12-24","translations":["Любительский (многоголосый закадровый) (@MUZOBOZ@)"],"quality":"bd","translation":"Любительский (многоголосый закадровый) (@MUZOBOZ@)","update":"2020-11-08 10:02:28","iframe_src":"//7741.svetacdn.in/71tsRs29n5tZ/movie/45097"},{"id":45083,"title":"Рождественское свидание моего отца","kp_id":"1339191","imdb_id":"tt11457736","world_art_id":null,"type":"movie","add":"2020-11-07 09:02:27","orig_title":"My Dad's Christmas Date","year":"2020-11-06","translations":["Любительский (многоголосый закадровый) (@MUZOBOZ@)"],"quality":"webdl","translation":"Любительский (многоголосый закадровый) (@MUZOBOZ@)","update":"2020-11-08 01:14:53","iframe_src":"//7741.svetacdn.in/71tsRs29n5tZ/movie/45083"},{"id":45082,"title":"Выходи за Гарри","kp_id":"1372039","imdb_id":"tt12058494","world_art_id":null,"type":"movie","add":"2020-11-07 09:00:29","orig_title":"Marry Harry","year":"2020-05-22","translations":["Любительский (многоголосый закадровый) (AlphaProject)"],"quality":"webdl","translation":"Любительский (многоголосый закадровый) (AlphaProject)","update":"2020-11-07 12:53:10","iframe_src":"//7741.svetacdn.in/71tsRs29n5tZ/movie/45082"},{"id":45075,"title":"Однажды ночью в одном городе","kp_id":"438305","imdb_id":"tt0934870","world_art_id":null,"type":"movie","add":"2020-11-06 14:09:40","orig_title":"Jedné noci v jednom meste","year":"2007-01-25","translations":["Оригинальная дорожка"],"quality":"dvdrip","translation":"Оригинальная дорожка","update":"2020-11-07 10:46:10","iframe_src":"//7741.svetacdn.in/71tsRs29n5tZ/movie/45075"},{"id":44840,"title":"Охотницы за сумками","kp_id":"1276278","imdb_id":"tt10244774","world_art_id":null,"type":"movie","add":"2020-10-27 14:00:40","orig_title":"The Bag Girls","year":"2020-07-15","translations":["[EN] Original (English)","Любительский (многоголосый закадровый) (Синема УС)"],"quality":"webdl","translation":"[EN] Original (English)","update":"2020-11-09 09:47:17","iframe_src":"//7741.svetacdn.in/71tsRs29n5tZ/movie/44840"},{"id":42895,"title":"Билл и Тед","kp_id":"972796","imdb_id":"tt1086064","world_art_id":null,"type":"movie","add":"2020-08-28 20:16:37","orig_title":"Bill & Ted Face the Music","year":"2020-08-27","translations":["[EN] Original (English)","Полное дублирование (iTunes)"],"quality":"webdl","translation":"[EN] Original (English)","update":"2020-11-08 20:41:45","iframe_src":"//7741.svetacdn.in/71tsRs29n5tZ/movie/42895"},{"id":42216,"title":"Магия наоборот","kp_id":"1299933","imdb_id":"tt10833270","world_art_id":null,"type":"movie","add":"2020-08-03 14:41:35","orig_title":"Upside-Down Magic","year":"2020-07-31","translations":["Любительский (многоголосый закадровый) (Синема УС)","[EN] Original (English)","Полное дублирование"],"quality":"webdl","translation":"Любительский (многоголосый закадровый) (Синема УС)","update":"2020-11-08 20:36:59","iframe_src":"//7741.svetacdn.in/71tsRs29n5tZ/movie/42216"}],"current_page":852,"first_page_url":"https://videocdn.tv/api/short?limit=100&api_token=EnbO9h8pv1VyjbCJhg0WM9nG259n7mtz&cache3852=3852&page=1","from":85101,"last_page":707,"last_page_url":"https://videocdn.tv/api/short?limit=100&api_token=EnbO9h8pv1VyjbCJhg0WM9nG259n7mtz&cache3852=3852&page=707","next_page_url":null,"path":"https://videocdn.tv/api/short","per_page":100,"prev_page_url":"https://videocdn.tv/api/short?limit=100&api_token=EnbO9h8pv1VyjbCJhg0WM9nG259n7mtz&cache3852=3852&page=851","to":85120,"total":70620}