{"result":true,"data":[{"id":20474,"title":"Таймшер","kp_id":"1013386","imdb_id":"tt6444140","world_art_id":null,"type":"movie","add":"2018-12-03 00:46:12","orig_title":"Tiempo compartido","year":"2018-01-20","translations":["Профессиональный (многоголосый закадровый) (AlphaProject)"],"quality":"webdl","translation":"Профессиональный (многоголосый закадровый) (AlphaProject)","update":"2018-12-03 07:11:31","iframe_src":"//7741.svetacdn.in/71tsRs29n5tZ/movie/20474"},{"id":20473,"title":"Свайпни","kp_id":"992359","imdb_id":"tt4867110","world_art_id":null,"type":"movie","add":"2018-12-03 00:44:46","orig_title":"Swiped","year":"2018-11-16","translations":["Любительский (многоголосый закадровый) (Синема УС)"],"quality":"webdl","translation":"Любительский (многоголосый закадровый) (Синема УС)","update":"2018-12-03 07:12:50","iframe_src":"//7741.svetacdn.in/71tsRs29n5tZ/movie/20473"},{"id":20472,"title":"Сатанинская резня разделочным ножом","kp_id":"1078397","imdb_id":"tt7202354","world_art_id":null,"type":"movie","add":"2018-12-03 00:39:42","orig_title":"Satanic Meat Cleaver Massacre","year":"2017-07-28","translations":["Любительский (многоголосый закадровый) (Синема УС)"],"quality":"webdl","translation":"Любительский (многоголосый закадровый) (Синема УС)","update":"2018-12-03 07:13:41","iframe_src":"//7741.svetacdn.in/71tsRs29n5tZ/movie/20472"},{"id":20471,"title":"Кровавый балет","kp_id":"914995","imdb_id":"tt4729642","world_art_id":null,"type":"movie","add":"2018-12-03 00:38:00","orig_title":"Fantasma","year":"2018-11-01","translations":["Любительский (многоголосый закадровый) (Синема УС)"],"quality":"webdl","translation":"Любительский (многоголосый закадровый) (Синема УС)","update":"2018-12-03 07:14:46","iframe_src":"//7741.svetacdn.in/71tsRs29n5tZ/movie/20471"},{"id":20469,"title":"Последнее американское шоу ужасов","kp_id":"1153058","imdb_id":"tt8113950","world_art_id":null,"type":"movie","add":"2018-12-03 00:34:28","orig_title":"Last American Horror Show","year":"2018-06-30","translations":["Любительский (многоголосый закадровый) (Синема УС)"],"quality":"webdl","translation":"Любительский (многоголосый закадровый) (Синема УС)","update":"2018-12-03 07:17:38","iframe_src":"//7741.svetacdn.in/71tsRs29n5tZ/movie/20469"},{"id":20468,"title":"Темная сестра","kp_id":"1210574","imdb_id":"tt9154776","world_art_id":null,"type":"movie","add":"2018-12-03 00:30:47","orig_title":"Dark Sister","year":"2018-01-01","translations":["Любительский (многоголосый закадровый) (Синема УС)"],"quality":"webdl","translation":"Любительский (многоголосый закадровый) (Синема УС)","update":"2018-12-03 07:19:33","iframe_src":"//7741.svetacdn.in/71tsRs29n5tZ/movie/20468"},{"id":20467,"title":"Перемены в воздухе","kp_id":"934400","imdb_id":"tt5013782","world_art_id":null,"type":"movie","add":"2018-12-03 00:28:59","orig_title":"Change in the Air","year":"2018-10-19","translations":["Любительский (многоголосый закадровый) (Синема УС)"],"quality":"webdl","translation":"Любительский (многоголосый закадровый) (Синема УС)","update":"2018-12-03 07:20:46","iframe_src":"//7741.svetacdn.in/71tsRs29n5tZ/movie/20467"},{"id":20466,"title":"Парк Катскилл","kp_id":"611953","imdb_id":"tt1780790","world_art_id":null,"type":"movie","add":"2018-12-03 00:27:45","orig_title":"Catskill Park","year":"2018-11-27","translations":["Любительский (многоголосый закадровый) (Синема УС)"],"quality":"webdl","translation":"Любительский (многоголосый закадровый) (Синема УС)","update":"2018-12-03 07:21:53","iframe_src":"//7741.svetacdn.in/71tsRs29n5tZ/movie/20466"},{"id":20465,"title":"В расчете","kp_id":"1050875","imdb_id":"tt6927880","world_art_id":null,"type":"movie","add":"2018-12-03 00:22:23","orig_title":"All Square","year":"2018-03-10","translations":["Профессиональный (многоголосый закадровый) (AlphaProject)"],"quality":"webdl","translation":"Профессиональный (многоголосый закадровый) (AlphaProject)","update":"2018-12-03 07:23:29","iframe_src":"//7741.svetacdn.in/71tsRs29n5tZ/movie/20465"},{"id":20462,"title":"Любовь по ошибке","kp_id":"1209723","imdb_id":null,"world_art_id":null,"type":"movie","add":"2018-12-03 00:03:40","orig_title":"Любовь по ошибке","year":"2018-12-01","translations":["Оригинальная дорожка"],"quality":"webdl","translation":"Оригинальная дорожка","update":"2018-12-03 07:30:42","iframe_src":"//7741.svetacdn.in/71tsRs29n5tZ/movie/20462"},{"id":20461,"title":"Я не оставлю тебя!","kp_id":"973247","imdb_id":null,"world_art_id":null,"type":"movie","add":"2018-12-03 00:01:06","orig_title":"Я не оставлю тебя!","year":"2016-10-20","translations":["Оригинальная дорожка"],"quality":"webdl","translation":"Оригинальная дорожка","update":"2018-12-03 07:32:57","iframe_src":"//7741.svetacdn.in/71tsRs29n5tZ/movie/20461"},{"id":20458,"title":"По кругу","kp_id":"1188418","imdb_id":"tt6943908","world_art_id":null,"type":"movie","add":"2018-12-02 23:51:18","orig_title":"The Same Circles","year":"2017-05-30","translations":["Любительский (многоголосый закадровый) (Синема УС)"],"quality":"webdl","translation":"Любительский (многоголосый закадровый) (Синема УС)","update":"2018-12-03 07:39:37","iframe_src":"//7741.svetacdn.in/71tsRs29n5tZ/movie/20458"},{"id":20456,"title":"Команда Хана","kp_id":"1209066","imdb_id":"tt7633666","world_art_id":null,"type":"movie","add":"2018-12-02 23:48:11","orig_title":"Team Khan","year":"2018-11-12","translations":["Любительский (многоголосый закадровый) (Синема УС)"],"quality":"dvdrip","translation":"Любительский (многоголосый закадровый) (Синема УС)","update":"2018-12-03 07:41:58","iframe_src":"//7741.svetacdn.in/71tsRs29n5tZ/movie/20456"},{"id":20453,"title":"Дымовая завеса","kp_id":"989128","imdb_id":"tt5844340","world_art_id":null,"type":"movie","add":"2018-12-02 23:42:29","orig_title":"Smoke Screen","year":"2018-06-12","translations":["Любительский (многоголосый закадровый) (Синема УС)"],"quality":"webdl","translation":"Любительский (многоголосый закадровый) (Синема УС)","update":"2018-12-03 07:46:39","iframe_src":"//7741.svetacdn.in/71tsRs29n5tZ/movie/20453"},{"id":19725,"title":"Вечная жизнь Александра Христофорова","kp_id":"1045555","imdb_id":"tt8234866","world_art_id":null,"type":"movie","add":"2018-10-23 00:02:11","orig_title":"Vechnaya zhizn Aleksandra Khristoforova","year":"2018-10-18","translations":["Оригинальная дорожка"],"quality":"webdl","translation":"Оригинальная дорожка","update":"2018-12-03 07:31:52","iframe_src":"//7741.svetacdn.in/71tsRs29n5tZ/movie/19725"},{"id":19584,"title":"Шадрак","kp_id":"6942","imdb_id":"tt0144604","world_art_id":null,"type":"movie","add":"2018-10-16 07:21:33","orig_title":"Shadrach","year":"1998-04-16","translations":["Профессиональный (многоголосый закадровый)","[EN] Original (English)"],"quality":"webdl","translation":"Профессиональный (многоголосый закадровый)","update":"2018-11-30 14:34:26","iframe_src":"//7741.svetacdn.in/71tsRs29n5tZ/movie/19584"},{"id":19583,"title":"Отрава","kp_id":"20825","imdb_id":"tt0102687","world_art_id":null,"type":"movie","add":"2018-10-16 07:20:36","orig_title":"Poison","year":"1991-04-05","translations":["Профессиональный (многоголосый закадровый)","[EN] Original (English)"],"quality":"webdl","translation":"Профессиональный (многоголосый закадровый)","update":"2018-11-30 14:33:34","iframe_src":"//7741.svetacdn.in/71tsRs29n5tZ/movie/19583"},{"id":19582,"title":"Северный Даллас Сорок","kp_id":"21515","imdb_id":"tt0079640","world_art_id":null,"type":"movie","add":"2018-10-16 07:19:03","orig_title":"North Dallas Forty","year":"1979-08-03","translations":["Профессиональный (многоголосый закадровый) (Paramount Channel)","[EN] Original (English)"],"quality":"webdl","translation":"Профессиональный (многоголосый закадровый) (Paramount Channel)","update":"2018-11-30 14:32:10","iframe_src":"//7741.svetacdn.in/71tsRs29n5tZ/movie/19582"},{"id":10866,"title":"Объятия змея","kp_id":"875336","imdb_id":"tt4285496","world_art_id":null,"type":"movie","add":"2017-04-10 23:00:24","orig_title":"El abrazo de la serpiente","year":"2015-05-15","translations":["Профессиональный (многоголосый закадровый) (GreenРай Studio)","Профессиональный (многоголосый закадровый)"],"quality":"bd","translation":"Профессиональный (многоголосый закадровый) (GreenРай Studio)","update":"2018-12-03 07:18:33","iframe_src":"//7741.svetacdn.in/71tsRs29n5tZ/movie/10866"},{"id":10630,"title":"Домоуправ","kp_id":"9904","imdb_id":"tt0103007","world_art_id":null,"type":"movie","add":"2017-03-30 05:44:26","orig_title":"The Super","year":"1991-10-04","translations":["Профессиональный (многоголосый закадровый)","[EN] Original (English)"],"quality":"webdl","translation":"Профессиональный (многоголосый закадровый)","update":"2018-11-30 14:35:06","iframe_src":"//7741.svetacdn.in/71tsRs29n5tZ/movie/10630"}],"current_page":2080,"first_page_url":"https://videocdn.tv/api/short?limit=100&api_token=EnbO9h8pv1VyjbCJhg0WM9nG259n7mtz&cache32080=32080&page=1","from":207901,"last_page":708,"last_page_url":"https://videocdn.tv/api/short?limit=100&api_token=EnbO9h8pv1VyjbCJhg0WM9nG259n7mtz&cache32080=32080&page=708","next_page_url":null,"path":"https://videocdn.tv/api/short","per_page":100,"prev_page_url":"https://videocdn.tv/api/short?limit=100&api_token=EnbO9h8pv1VyjbCJhg0WM9nG259n7mtz&cache32080=32080&page=2079","to":207920,"total":70721}