{"result":true,"data":[{"id":23865,"title":"Влюбленный","kp_id":"934522","imdb_id":"tt5050788","world_art_id":null,"type":"movie","add":"2019-04-03 22:48:01","orig_title":"Loev","year":"2015-11-19","translations":["Любительский (одноголосый закадровый)"],"quality":"hdrip","translation":"Любительский (одноголосый закадровый)","update":"2019-04-04 06:40:26","iframe_src":"//7720.svetacdn.in/si4jsFRrtgrT/movie/23865"},{"id":23861,"title":"Когда солнце встречает луну","kp_id":"1115034","imdb_id":"tt8386710","world_art_id":null,"type":"movie","add":"2019-04-03 22:39:59","orig_title":"Mou ri mou yue","year":"2018-05-10","translations":["Любительский (многоголосый закадровый) (Синема УС)"],"quality":"bd","translation":"Любительский (многоголосый закадровый) (Синема УС)","update":"2019-04-04 06:38:24","iframe_src":"//7720.svetacdn.in/si4jsFRrtgrT/movie/23861"},{"id":23854,"title":"Рыжик в Зазеркалье","kp_id":"501894","imdb_id":"tt2235713","world_art_id":null,"type":"movie","add":"2019-04-03 22:25:39","orig_title":"Ryzhik v Zazerkale","year":"2010-03-24","translations":["Оригинальная дорожка"],"quality":"tv","translation":"Оригинальная дорожка","update":"2019-04-04 06:43:01","iframe_src":"//7720.svetacdn.in/si4jsFRrtgrT/movie/23854"},{"id":23853,"title":"Румпельштильцхен","kp_id":"477968","imdb_id":"tt1517485","world_art_id":null,"type":"movie","add":"2019-04-03 22:24:04","orig_title":"Rumpelstilzchen","year":"2009-11-19","translations":["Профессиональный (многоголосый закадровый) (Игмар)"],"quality":"hdtv","translation":"Профессиональный (многоголосый закадровый) (Игмар)","update":"2019-04-04 06:44:58","iframe_src":"//7720.svetacdn.in/si4jsFRrtgrT/movie/23853"},{"id":23850,"title":"Стучась в закрытые двери","kp_id":"1091267","imdb_id":"tt7453746","world_art_id":null,"type":"movie","add":"2019-04-03 22:16:58","orig_title":"Pulling Push Doors","year":"2017-01-01","translations":["Любительский (многоголосый закадровый) (Синема УС)"],"quality":"webdl","translation":"Любительский (многоголосый закадровый) (Синема УС)","update":"2019-04-04 06:36:26","iframe_src":"//7720.svetacdn.in/si4jsFRrtgrT/movie/23850"},{"id":23848,"title":"Кладбище домашних животных","kp_id":"1227699","imdb_id":"tt8444450","world_art_id":null,"type":"movie","add":"2019-04-03 22:13:59","orig_title":"Pet Graveyard","year":"2019-04-02","translations":["Любительский (многоголосый закадровый) (Синема УС)"],"quality":"webdl","translation":"Любительский (многоголосый закадровый) (Синема УС)","update":"2019-04-04 06:33:56","iframe_src":"//7720.svetacdn.in/si4jsFRrtgrT/movie/23848"},{"id":23847,"title":"Пегас","kp_id":"1178283","imdb_id":"tt9597190","world_art_id":null,"type":"movie","add":"2019-04-03 22:12:14","orig_title":"Fei chi ren sheng","year":"2019-02-05","translations":["Любительский (многоголосый закадровый) (Синема УС)"],"quality":"webdl","translation":"Любительский (многоголосый закадровый) (Синема УС)","update":"2019-04-04 06:32:45","iframe_src":"//7720.svetacdn.in/si4jsFRrtgrT/movie/23847"},{"id":23845,"title":"Мумия возрождается","kp_id":"1117120","imdb_id":"tt8063840","world_art_id":null,"type":"movie","add":"2019-04-03 22:07:34","orig_title":"Mummy Reborn","year":"2014-04-04","translations":["Любительский (многоголосый закадровый) (Синема УС)"],"quality":"webdl","translation":"Любительский (многоголосый закадровый) (Синема УС)","update":"2019-04-04 06:17:07","iframe_src":"//7720.svetacdn.in/si4jsFRrtgrT/movie/23845"},{"id":23844,"title":"Мамочка не навредит тебе","kp_id":"1251434","imdb_id":"tt10068994","world_art_id":null,"type":"movie","add":"2019-04-03 22:05:56","orig_title":"Mommy Would Never Hurt You","year":"2019-03-29","translations":["Профессиональный (многоголосый закадровый) (AlphaProject)"],"quality":"hdtv","translation":"Профессиональный (многоголосый закадровый) (AlphaProject)","update":"2019-04-04 06:30:27","iframe_src":"//7720.svetacdn.in/si4jsFRrtgrT/movie/23844"},{"id":23840,"title":"Собачий год","kp_id":"258690","imdb_id":"tt0808232","world_art_id":null,"type":"movie","add":"2019-04-03 21:52:04","orig_title":"A Dog Year","year":"2009-09-03","translations":["Профессиональный (двухголосый закадровый)"],"quality":"dvdrip","translation":"Профессиональный (двухголосый закадровый)","update":"2019-04-04 06:43:54","iframe_src":"//7720.svetacdn.in/si4jsFRrtgrT/movie/23840"},{"id":23839,"title":"Девушки любят Мэджик","kp_id":"901865","imdb_id":"tt4557998","world_art_id":null,"type":"movie","add":"2019-04-03 21:50:28","orig_title":"Girls Like Magic","year":"2017-01-01","translations":["Любительский (многоголосый закадровый) (Синема УС)"],"quality":"dvdrip","translation":"Любительский (многоголосый закадровый) (Синема УС)","update":"2019-04-04 06:28:32","iframe_src":"//7720.svetacdn.in/si4jsFRrtgrT/movie/23839"},{"id":23838,"title":"Геронтофилия","kp_id":"577742","imdb_id":"tt1815717","world_art_id":null,"type":"movie","add":"2019-04-03 21:48:21","orig_title":"Gerontophilia","year":"2013-08-28","translations":["Любительский (одноголосый закадровый)"],"quality":"dvdrip","translation":"Любительский (одноголосый закадровый)","update":"2019-04-04 06:41:21","iframe_src":"//7720.svetacdn.in/si4jsFRrtgrT/movie/23838"},{"id":23836,"title":"Одни в космосе","kp_id":"1059256","imdb_id":"tt5514344","world_art_id":null,"type":"movie","add":"2019-04-03 21:41:17","orig_title":"Ensamma i rymden","year":"2018-09-21","translations":["Любительский (многоголосый закадровый) (Синема УС)"],"quality":"bd","translation":"Любительский (многоголосый закадровый) (Синема УС)","update":"2019-04-04 06:27:53","iframe_src":"//7720.svetacdn.in/si4jsFRrtgrT/movie/23836"},{"id":23835,"title":"Екатерина Воронина","kp_id":"42435","imdb_id":"tt0051210","world_art_id":null,"type":"movie","add":"2019-04-03 21:39:41","orig_title":"Ekaterina Voronina","year":"1957-05-18","translations":["Оригинальная дорожка"],"quality":"sat","translation":"Оригинальная дорожка","update":"2019-04-04 06:26:48","iframe_src":"//7720.svetacdn.in/si4jsFRrtgrT/movie/23835"},{"id":23834,"title":"Ковбой и Индиана","kp_id":"1088455","imdb_id":"tt7177250","world_art_id":null,"type":"movie","add":"2019-04-03 21:38:21","orig_title":"Cowboy & Indiana","year":"2018-04-01","translations":["Любительский (многоголосый закадровый) (Синема УС)"],"quality":"webdl","translation":"Любительский (многоголосый закадровый) (Синема УС)","update":"2019-04-04 06:21:27","iframe_src":"//7720.svetacdn.in/si4jsFRrtgrT/movie/23834"},{"id":23833,"title":"Без ума от оружия","kp_id":"8294","imdb_id":"tt0042530","world_art_id":null,"type":"movie","add":"2019-04-03 21:36:32","orig_title":"Gun Crazy","year":"1950-01-20","translations":["Профессиональный (двухголосый закадровый)"],"quality":"dvdrip","translation":"Профессиональный (двухголосый закадровый)","update":"2019-04-04 06:25:57","iframe_src":"//7720.svetacdn.in/si4jsFRrtgrT/movie/23833"},{"id":23832,"title":"Сказка, рассказанная ночью","kp_id":"43818","imdb_id":"tt0211628","world_art_id":null,"type":"movie","add":"2019-04-03 13:53:09","orig_title":"Skazka, rasskazannaya nochyu","year":"1981-08-30","translations":["Оригинальная дорожка"],"quality":"dvdrip","translation":"Оригинальная дорожка","update":"2019-04-04 06:25:01","iframe_src":"//7720.svetacdn.in/si4jsFRrtgrT/movie/23832"},{"id":23817,"title":"Изображая жертву","kp_id":"252099","imdb_id":"tt0820096","world_art_id":null,"type":"movie","add":"2019-04-03 12:13:14","orig_title":"Izobrazhaya zhertvu","year":"2006-06-08","translations":["Оригинальная дорожка"],"quality":"dvdrip","translation":"Оригинальная дорожка","update":"2019-04-04 06:44:54","iframe_src":"//7720.svetacdn.in/si4jsFRrtgrT/movie/23817"},{"id":23815,"title":"Сказ про Федота-Стрельца","kp_id":"41060","imdb_id":"tt0308903","world_art_id":null,"type":"movie","add":"2019-04-03 12:09:20","orig_title":"Skaz pro Fedota-streltsa","year":"2002-02-13","translations":["Оригинальная дорожка"],"quality":"dvdrip","translation":"Оригинальная дорожка","update":"2019-04-04 06:40:42","iframe_src":"//7720.svetacdn.in/si4jsFRrtgrT/movie/23815"},{"id":23814,"title":"Рысак","kp_id":"411814","imdb_id":"tt1630256","world_art_id":null,"type":"movie","add":"2019-04-03 12:04:59","orig_title":"Rysak","year":"2005-05-10","translations":["Оригинальная дорожка"],"quality":"dvdrip","translation":"Оригинальная дорожка","update":"2019-04-04 06:48:19","iframe_src":"//7720.svetacdn.in/si4jsFRrtgrT/movie/23814"}],"current_page":1631,"first_page_url":"https://videocdn.tv/api/short?limit=100&api_token=X6EwAUfE5M9xbo7y0Bp0aPf3uXxG2KLL&cache31631=31631&page=1","from":163001,"last_page":649,"last_page_url":"https://videocdn.tv/api/short?limit=100&api_token=X6EwAUfE5M9xbo7y0Bp0aPf3uXxG2KLL&cache31631=31631&page=649","next_page_url":null,"path":"https://videocdn.tv/api/short","per_page":100,"prev_page_url":"https://videocdn.tv/api/short?limit=100&api_token=X6EwAUfE5M9xbo7y0Bp0aPf3uXxG2KLL&cache31631=31631&page=1630","to":163020,"total":64824}