{"result":true,"data":[{"id":9597,"title":"История Хатико","kp_id":"38145","imdb_id":"tt0093132","world_art_id":null,"type":"movie","add":"2017-02-10 06:08:50","orig_title":"Hachikô monogatari","year":"1987-08-01","translations":["Любительский (двухголосый закадровый)"],"quality":"bd","translation":"Любительский (двухголосый закадровый)","update":"2017-02-10 10:45:48","iframe_src":"//24213.svetacdn.in/si4jsFRrtgrT/movie/9597"},{"id":9595,"title":"Гол 3","kp_id":"251614","imdb_id":"tt0499487","world_art_id":null,"type":"movie","add":"2017-02-10 06:05:31","orig_title":"Goal! III","year":"2009-06-15","translations":["Любительский (одноголосый закадровый)"],"quality":"bd","translation":"Любительский (одноголосый закадровый)","update":"2017-02-10 10:47:47","iframe_src":"//24213.svetacdn.in/si4jsFRrtgrT/movie/9595"},{"id":9593,"title":"Ярослав. Тысячу лет назад","kp_id":"481434","imdb_id":"tt1647692","world_art_id":null,"type":"movie","add":"2017-02-10 06:03:48","orig_title":"Yaroslav. Tysyachu let nazad","year":"2010-10-14","translations":["Оригинальная дорожка"],"quality":"bd","translation":"Оригинальная дорожка","update":"2017-02-10 10:41:06","iframe_src":"//24213.svetacdn.in/si4jsFRrtgrT/movie/9593"},{"id":9584,"title":"10 000 км: Любовь на расстоянии","kp_id":"791290","imdb_id":"tt3114132","world_art_id":null,"type":"movie","add":"2017-02-09 12:53:13","orig_title":"10.000 Km","year":"2014-03-10","translations":["Профессиональный (многоголосый закадровый)"],"quality":"webdl","translation":"Профессиональный (многоголосый закадровый)","update":"2017-02-10 11:37:27","iframe_src":"//24213.svetacdn.in/si4jsFRrtgrT/movie/9584"},{"id":9583,"title":"Зимние розы","kp_id":"819361","imdb_id":"tt3432260","world_art_id":null,"type":"movie","add":"2017-02-09 12:51:52","orig_title":"Des Roses en Hiver","year":"2014-09-12","translations":["Профессиональный (многоголосый закадровый)"],"quality":"hdtv","translation":"Профессиональный (многоголосый закадровый)","update":"2017-02-10 11:39:08","iframe_src":"//24213.svetacdn.in/si4jsFRrtgrT/movie/9583"},{"id":9582,"title":"Красная армия","kp_id":"839768","imdb_id":"tt3264102","world_art_id":null,"type":"movie","add":"2017-02-09 12:50:52","orig_title":"Red Army","year":"2014-05-16","translations":["Профессиональный (многоголосый закадровый)"],"quality":"bd","translation":"Профессиональный (многоголосый закадровый)","update":"2017-02-10 11:42:14","iframe_src":"//24213.svetacdn.in/si4jsFRrtgrT/movie/9582"},{"id":9581,"title":"Раненый змей","kp_id":"723905","imdb_id":"tt2574576","world_art_id":null,"type":"movie","add":"2017-02-09 12:48:44","orig_title":"Cut Snake","year":"2014-08-09","translations":["Профессиональный (многоголосый закадровый) (Paradox & Omskbird records)"],"quality":"bd","translation":"Профессиональный (многоголосый закадровый) (Paradox & Omskbird records)","update":"2017-02-10 11:43:06","iframe_src":"//24213.svetacdn.in/si4jsFRrtgrT/movie/9581"},{"id":9580,"title":"Живи","kp_id":"986423","imdb_id":null,"world_art_id":null,"type":"movie","add":"2017-02-09 12:47:34","orig_title":"Живи","year":"2015-01-01","translations":["Оригинальная дорожка"],"quality":"webdl","translation":"Оригинальная дорожка","update":"2017-02-10 11:45:54","iframe_src":"//24213.svetacdn.in/si4jsFRrtgrT/movie/9580"},{"id":9579,"title":"Вкус Америки","kp_id":"841310","imdb_id":"tt5062498","world_art_id":null,"type":"movie","add":"2017-02-09 12:44:48","orig_title":"Vkus Ameriki","year":"2014-08-12","translations":["Оригинальная дорожка"],"quality":"webdl","translation":"Оригинальная дорожка","update":"2017-02-10 11:53:34","iframe_src":"//24213.svetacdn.in/si4jsFRrtgrT/movie/9579"},{"id":9578,"title":"Москва - Лопушки","kp_id":"783248","imdb_id":"tt3547948","world_art_id":null,"type":"movie","add":"2017-02-09 12:43:37","orig_title":"Moskva - Lopushki","year":"2014-10-05","translations":["Оригинальная дорожка"],"quality":"webdl","translation":"Оригинальная дорожка","update":"2017-02-10 11:57:17","iframe_src":"//24213.svetacdn.in/si4jsFRrtgrT/movie/9578"},{"id":9577,"title":"Кавказская пленница!","kp_id":"689077","imdb_id":"tt4537362","world_art_id":null,"type":"movie","add":"2017-02-09 12:42:07","orig_title":"Kavkazskaya plennitsa!","year":"2014-09-05","translations":["Оригинальная дорожка"],"quality":"webdl","translation":"Оригинальная дорожка","update":"2017-02-10 11:59:36","iframe_src":"//24213.svetacdn.in/si4jsFRrtgrT/movie/9577"},{"id":9576,"title":"Капсула","kp_id":"846887","imdb_id":null,"world_art_id":null,"type":"movie","add":"2017-02-09 12:40:51","orig_title":"Капсула","year":"2014-01-01","translations":["Оригинальная дорожка"],"quality":"webdl","translation":"Оригинальная дорожка","update":"2017-02-10 12:01:21","iframe_src":"//24213.svetacdn.in/si4jsFRrtgrT/movie/9576"},{"id":9575,"title":"Игры в темноте","kp_id":"840357","imdb_id":"tt4883730","world_art_id":null,"type":"movie","add":"2017-02-09 12:38:27","orig_title":"Igry v temnote","year":"2014-06-23","translations":["Оригинальная дорожка"],"quality":"webdl","translation":"Оригинальная дорожка","update":"2017-02-10 12:03:42","iframe_src":"//24213.svetacdn.in/si4jsFRrtgrT/movie/9575"},{"id":9574,"title":"ДОЛЛ","kp_id":"840222","imdb_id":"tt3908756","world_art_id":null,"type":"movie","add":"2017-02-09 12:37:19","orig_title":"Doll","year":"2014-01-01","translations":["Оригинальная дорожка"],"quality":"webdl","translation":"Оригинальная дорожка","update":"2017-02-10 12:06:49","iframe_src":"//24213.svetacdn.in/si4jsFRrtgrT/movie/9574"},{"id":9573,"title":"Дневник мамы первоклассника","kp_id":"803428","imdb_id":null,"world_art_id":null,"type":"movie","add":"2017-02-09 12:31:25","orig_title":"Дневник мамы первоклассника","year":"2014-10-30","translations":["Оригинальная дорожка"],"quality":"webdl","translation":"Оригинальная дорожка","update":"2017-02-10 12:08:38","iframe_src":"//24213.svetacdn.in/si4jsFRrtgrT/movie/9573"},{"id":9572,"title":"День дурака","kp_id":"810248","imdb_id":"tt4422290","world_art_id":null,"type":"movie","add":"2017-02-09 12:29:44","orig_title":"Den duraka","year":"2014-11-14","translations":["Оригинальная дорожка"],"quality":"webdl","translation":"Оригинальная дорожка","update":"2017-02-10 12:10:14","iframe_src":"//24213.svetacdn.in/si4jsFRrtgrT/movie/9572"},{"id":9571,"title":"Янковский","kp_id":"851995","imdb_id":null,"world_art_id":null,"type":"movie","add":"2017-02-09 12:28:13","orig_title":"Янковский","year":"2015-02-19","translations":["Оригинальная дорожка"],"quality":"hdtv","translation":"Оригинальная дорожка","update":"2017-02-10 12:14:18","iframe_src":"//24213.svetacdn.in/si4jsFRrtgrT/movie/9571"},{"id":9570,"title":"В плену обмана","kp_id":"855911","imdb_id":null,"world_art_id":null,"type":"movie","add":"2017-02-09 12:26:50","orig_title":"В плену обмана","year":"2014-12-21","translations":["Оригинальная дорожка"],"quality":"hdtv","translation":"Оригинальная дорожка","update":"2017-02-10 12:15:56","iframe_src":"//24213.svetacdn.in/si4jsFRrtgrT/movie/9570"},{"id":9569,"title":"Сюрприз для любимого","kp_id":"843358","imdb_id":null,"world_art_id":null,"type":"movie","add":"2017-02-09 12:25:44","orig_title":"Сюрприз для любимого","year":"2014-11-01","translations":["Оригинальная дорожка"],"quality":"hdtv","translation":"Оригинальная дорожка","update":"2017-02-10 12:17:03","iframe_src":"//24213.svetacdn.in/si4jsFRrtgrT/movie/9569"},{"id":9539,"title":"Джек и Сара","kp_id":"3507","imdb_id":"tt0113448","world_art_id":null,"type":"movie","add":"2017-02-09 07:43:48","orig_title":"Jack & Sarah","year":"1995-06-02","translations":["Профессиональный (многоголосый закадровый) (НТВ)"],"quality":"hdtv","translation":"Профессиональный (многоголосый закадровый) (НТВ)","update":"2017-02-10 16:54:07","iframe_src":"//24213.svetacdn.in/si4jsFRrtgrT/movie/9539"}],"current_page":2621,"first_page_url":"https://videocdn.tv/api/short?limit=100&api_token=X6EwAUfE5M9xbo7y0Bp0aPf3uXxG2KLL&cache32621=32621&page=1","from":262001,"last_page":725,"last_page_url":"https://videocdn.tv/api/short?limit=100&api_token=X6EwAUfE5M9xbo7y0Bp0aPf3uXxG2KLL&cache32621=32621&page=725","next_page_url":null,"path":"https://videocdn.tv/api/short","per_page":100,"prev_page_url":"https://videocdn.tv/api/short?limit=100&api_token=X6EwAUfE5M9xbo7y0Bp0aPf3uXxG2KLL&cache32621=32621&page=2620","to":262020,"total":72431}