{"result":true,"data":[{"id":20532,"title":"Гордость воина","kp_id":"1057745","imdb_id":"tt6953526","world_art_id":null,"type":"movie","add":"2018-12-06 01:04:21","orig_title":"Warrior Pride","year":"2018-01-01","translations":["Любительский (многоголосый закадровый) (Синема УС)"],"quality":"webdl","translation":"Любительский (многоголосый закадровый) (Синема УС)","update":"2018-12-06 08:05:44","iframe_src":"//83.svetacdn.in/PfJ50H0ZBPg3/movie/20532"},{"id":20531,"title":"Старый дом","kp_id":"1192038","imdb_id":"tt9053906","world_art_id":null,"type":"movie","add":"2018-12-06 00:58:34","orig_title":"Gu zhai","year":"2018-09-25","translations":["Любительский (многоголосый закадровый) (Колобок)"],"quality":"bd","translation":"Любительский (многоголосый закадровый) (Колобок)","update":"2018-12-06 08:11:03","iframe_src":"//83.svetacdn.in/PfJ50H0ZBPg3/movie/20531"},{"id":20530,"title":"Агентство наёмников","kp_id":"1128440","imdb_id":"tt8197418","world_art_id":null,"type":"movie","add":"2018-12-06 00:54:12","orig_title":"The Hitman Agency","year":"2018-04-04","translations":["Любительский (многоголосый закадровый) (Синема УС)"],"quality":"webdl","translation":"Любительский (многоголосый закадровый) (Синема УС)","update":"2018-12-06 08:12:38","iframe_src":"//83.svetacdn.in/PfJ50H0ZBPg3/movie/20530"},{"id":20529,"title":"Парни из Бромли","kp_id":"661356","imdb_id":"tt2179231","world_art_id":null,"type":"movie","add":"2018-12-06 00:53:06","orig_title":"The Bromley Boys","year":"2018-06-01","translations":["Любительский (многоголосый закадровый) (Синема УС)"],"quality":"webdl","translation":"Любительский (многоголосый закадровый) (Синема УС)","update":"2018-12-06 08:13:41","iframe_src":"//83.svetacdn.in/PfJ50H0ZBPg3/movie/20529"},{"id":20528,"title":"Свайп: Правила съема в цифровую эпоху","kp_id":"1179985","imdb_id":"tt8839634","world_art_id":null,"type":"movie","add":"2018-12-06 00:51:30","orig_title":"Swiped: Hooking Up in the Digital Age","year":"2018-09-10","translations":["Профессиональный (многоголосый закадровый)"],"quality":"webdl","translation":"Профессиональный (многоголосый закадровый)","update":"2018-12-06 08:14:40","iframe_src":"//83.svetacdn.in/PfJ50H0ZBPg3/movie/20528"},{"id":20527,"title":"Назови ее имя: Жизнь и смерть Сандры Бланд","kp_id":"1209889","imdb_id":"tt8106584","world_art_id":null,"type":"movie","add":"2018-12-06 00:49:57","orig_title":"Say Her Name: The Life and Death of Sandra Bland","year":"2018-04-25","translations":["Профессиональный (многоголосый закадровый)"],"quality":"webdl","translation":"Профессиональный (многоголосый закадровый)","update":"2018-12-06 08:15:45","iframe_src":"//83.svetacdn.in/PfJ50H0ZBPg3/movie/20527"},{"id":20525,"title":"Каждый день Рождество","kp_id":"1200478","imdb_id":"tt9102152","world_art_id":null,"type":"movie","add":"2018-12-06 00:45:07","orig_title":"Every Day is Christmas","year":"2018-11-24","translations":["Любительский (многоголосый закадровый) (Синема УС)"],"quality":"webdl","translation":"Любительский (многоголосый закадровый) (Синема УС)","update":"2018-12-06 08:20:34","iframe_src":"//83.svetacdn.in/PfJ50H0ZBPg3/movie/20525"},{"id":20476,"title":"Баттл","kp_id":"1071526","imdb_id":"tt6854672","world_art_id":null,"type":"movie","add":"2018-12-03 23:49:49","orig_title":"Battle","year":"2018-09-28","translations":["Любительский (двухголосый закадровый) (LakeFilms)","Любительский (многоголосый закадровый) (Синема УС)"],"quality":"webdl","translation":"Любительский (двухголосый закадровый) (LakeFilms)","update":"2018-12-06 08:21:50","iframe_src":"//83.svetacdn.in/PfJ50H0ZBPg3/movie/20476"},{"id":18314,"title":"Терминатор II","kp_id":"23300","imdb_id":"tt0098321","world_art_id":null,"type":"movie","add":"2018-08-15 06:30:12","orig_title":"Terminator II","year":"1990-08-22","translations":["Авторский (одноголосый закадровый) (Котов Вячеслав)","[EN] Original (English)"],"quality":"bd","translation":"Авторский (одноголосый закадровый) (Котов Вячеслав)","update":"2018-12-05 15:31:45","iframe_src":"//83.svetacdn.in/PfJ50H0ZBPg3/movie/18314"},{"id":15201,"title":"Золотые выходы","kp_id":"976295","imdb_id":"tt5687814","world_art_id":null,"type":"movie","add":"2018-02-17 11:43:35","orig_title":"Golden Exits","year":"2017-01-22","translations":["Любительский (многоголосый закадровый) (@MUZOBOZ@)","Профессиональный (многоголосый закадровый) (GreenРай Studio)","Любительский (двухголосый закадровый) (LakeFilms)"],"quality":"webdl","translation":"Любительский (многоголосый закадровый) (@MUZOBOZ@)","update":"2018-12-06 08:17:52","iframe_src":"//83.svetacdn.in/PfJ50H0ZBPg3/movie/15201"},{"id":1499,"title":"Страховщик","kp_id":"596231","imdb_id":"tt1971325","world_art_id":null,"type":"movie","add":"2016-04-22 07:37:54","orig_title":"Automata","year":"2014-09-20","translations":["Полное дублирование","[EN] Original (English)"],"quality":"bd","translation":"Полное дублирование","update":"2018-12-05 15:24:28","iframe_src":"//83.svetacdn.in/PfJ50H0ZBPg3/movie/1499"},{"id":1464,"title":"Такие разные близнецы","kp_id":"462883","imdb_id":"tt0810913","world_art_id":null,"type":"movie","add":"2016-04-21 15:15:16","orig_title":"Jack and Jill","year":"2011-11-11","translations":["Полное дублирование","[EN] Original (English)"],"quality":"bd","translation":"Полное дублирование","update":"2018-12-05 15:27:13","iframe_src":"//83.svetacdn.in/PfJ50H0ZBPg3/movie/1464"},{"id":1439,"title":"Гнев","kp_id":"683623","imdb_id":"tt2401807","world_art_id":null,"type":"movie","add":"2016-04-21 13:41:20","orig_title":"Tokarev","year":"2014-01-31","translations":["Полное дублирование","[EN] Original (English)"],"quality":"bd","translation":"Полное дублирование","update":"2018-12-06 13:26:10","iframe_src":"//83.svetacdn.in/PfJ50H0ZBPg3/movie/1439"},{"id":1399,"title":"Пила 3D","kp_id":"470156","imdb_id":"tt1477076","world_art_id":null,"type":"movie","add":"2016-04-21 09:47:18","orig_title":"Saw 3D","year":"2010-10-28","translations":["Полное дублирование","[EN] Original (English)"],"quality":"bd","translation":"Полное дублирование","update":"2018-12-05 15:17:47","iframe_src":"//83.svetacdn.in/PfJ50H0ZBPg3/movie/1399"},{"id":1397,"title":"Пила 5","kp_id":"400094","imdb_id":"tt1132626","world_art_id":null,"type":"movie","add":"2016-04-21 09:41:57","orig_title":"Пила 5","year":"2008-10-23","translations":["Полное дублирование","[EN] Original (English)"],"quality":"bd","translation":"Полное дублирование","update":"2018-12-05 15:16:44","iframe_src":"//83.svetacdn.in/PfJ50H0ZBPg3/movie/1397"},{"id":1382,"title":"Сквозь снег","kp_id":"566283","imdb_id":"tt1706620","world_art_id":null,"type":"movie","add":"2016-04-21 09:11:39","orig_title":"Snowpiercer","year":"2013-07-29","translations":["Любительский (многоголосый закадровый)","Авторский (одноголосый закадровый) (Дольский Андрей)","[EN] Original (English)"],"quality":"bd","translation":"Любительский (многоголосый закадровый)","update":"2018-12-05 15:26:22","iframe_src":"//83.svetacdn.in/PfJ50H0ZBPg3/movie/1382"},{"id":1349,"title":"Терминатор : Да придёт спаситель","kp_id":"160932","imdb_id":"tt0438488","world_art_id":null,"type":"movie","add":"2016-04-20 22:08:58","orig_title":"Terminator Salvation","year":"2009-05-14","translations":["Полное дублирование","[EN] Original (English)"],"quality":"bd","translation":"Полное дублирование","update":"2018-12-05 15:32:46","iframe_src":"//83.svetacdn.in/PfJ50H0ZBPg3/movie/1349"},{"id":1326,"title":"Обитель проклятых","kp_id":"572035","imdb_id":"tt1772264","world_art_id":null,"type":"movie","add":"2016-04-20 14:54:59","orig_title":"Stonehearst Asylum","year":"2014-06-14","translations":["Полное дублирование","[EN] Original (English)"],"quality":"bd","translation":"Полное дублирование","update":"2018-12-05 15:22:49","iframe_src":"//83.svetacdn.in/PfJ50H0ZBPg3/movie/1326"},{"id":1325,"title":"Бегущий в лабиринте","kp_id":"575613","imdb_id":"tt1790864","world_art_id":null,"type":"movie","add":"2016-04-20 14:52:48","orig_title":"The Maze Runner","year":"2014-09-11","translations":["Полное дублирование","[EN] Original (English)"],"quality":"bd","translation":"Полное дублирование","update":"2018-12-05 15:29:44","iframe_src":"//83.svetacdn.in/PfJ50H0ZBPg3/movie/1325"},{"id":1319,"title":"Отбросы","kp_id":"874056","imdb_id":"tt4076980","world_art_id":null,"type":"movie","add":"2016-04-20 14:44:21","orig_title":"The Throwaways","year":"2015-01-30","translations":["Профессиональный (многоголосый)","[EN] Original (English)"],"quality":"webdl","translation":"Профессиональный (многоголосый)","update":"2018-12-06 13:24:56","iframe_src":"//83.svetacdn.in/PfJ50H0ZBPg3/movie/1319"}],"current_page":2073,"first_page_url":"https://videocdn.tv/api/short?limit=100&api_token=RgFQdUIR2dRmwv8iYa5SnFNgnw3vpjKj&cache32073=32073&page=1","from":207201,"last_page":707,"last_page_url":"https://videocdn.tv/api/short?limit=100&api_token=RgFQdUIR2dRmwv8iYa5SnFNgnw3vpjKj&cache32073=32073&page=707","next_page_url":null,"path":"https://videocdn.tv/api/short","per_page":100,"prev_page_url":"https://videocdn.tv/api/short?limit=100&api_token=RgFQdUIR2dRmwv8iYa5SnFNgnw3vpjKj&cache32073=32073&page=2072","to":207220,"total":70679}