{"result":true,"data":[{"id":49888,"title":"Раскрыть тайну за 47 дней","kp_id":"1139638","imdb_id":"tt8004570","world_art_id":null,"type":"movie","add":"2021-04-25 22:34:10","orig_title":"47 Days The Mystery Unfolds","year":"2020-06-30","translations":["Любительский (двухголосый закадровый) (OnisFilms)"],"quality":"hdrip","translation":"Любительский (двухголосый закадровый) (OnisFilms)","update":"2021-04-26 08:59:58","iframe_src":"//24213.svetacdn.in/71tsRs29n5tZ/movie/49888"},{"id":49880,"title":"Письмо счастья","kp_id":"400215","imdb_id":"tt1148200","world_art_id":null,"type":"movie","add":"2021-04-25 19:19:01","orig_title":"Chain Letter","year":"2010-09-23","translations":["Любительский (двухголосый закадровый)"],"quality":"hdrip","translation":"Любительский (двухголосый закадровый)","update":"2021-04-26 07:48:22","iframe_src":"//24213.svetacdn.in/71tsRs29n5tZ/movie/49880"},{"id":49839,"title":"Деревянные человечки","kp_id":"842066","imdb_id":null,"world_art_id":null,"type":"movie","add":"2021-04-23 18:16:51","orig_title":"Деревянные человечки","year":"1982-01-01","translations":["Оригинальная дорожка"],"quality":"dvdrip","translation":"Оригинальная дорожка","update":"2021-04-26 07:34:44","iframe_src":"//24213.svetacdn.in/71tsRs29n5tZ/movie/49839"},{"id":49838,"title":"Чтобы быть счастливым!","kp_id":"478531","imdb_id":"tt4819072","world_art_id":null,"type":"movie","add":"2021-04-23 18:10:27","orig_title":"Chtoby byt schastlivym!","year":"1973-01-01","translations":["Оригинальная дорожка"],"quality":"sat","translation":"Оригинальная дорожка","update":"2021-04-26 07:33:33","iframe_src":"//24213.svetacdn.in/71tsRs29n5tZ/movie/49838"},{"id":49837,"title":"Член правительства","kp_id":"45515","imdb_id":"tt0032337","world_art_id":null,"type":"movie","add":"2021-04-23 18:07:23","orig_title":"Chlen pravitelstva","year":"1940-03-08","translations":["Оригинальная дорожка"],"quality":"dvdrip","translation":"Оригинальная дорожка","update":"2021-04-26 07:32:51","iframe_src":"//24213.svetacdn.in/71tsRs29n5tZ/movie/49837"},{"id":49836,"title":"Апрель","kp_id":"43512","imdb_id":"tt0247184","world_art_id":null,"type":"movie","add":"2021-04-23 18:03:29","orig_title":"April","year":"1961-01-22","translations":["Оригинальная дорожка"],"quality":"tv","translation":"Оригинальная дорожка","update":"2021-04-26 07:31:49","iframe_src":"//24213.svetacdn.in/71tsRs29n5tZ/movie/49836"},{"id":49826,"title":"Майская ночь","kp_id":"46506","imdb_id":"tt0179325","world_art_id":null,"type":"movie","add":"2021-04-22 17:52:36","orig_title":"Mayskaya noch","year":"1940-03-12","translations":["Оригинальная дорожка"],"quality":"dvdrip","translation":"Оригинальная дорожка","update":"2021-04-26 07:29:43","iframe_src":"//24213.svetacdn.in/71tsRs29n5tZ/movie/49826"},{"id":49825,"title":"Помни, Каспар!","kp_id":"43117","imdb_id":"tt0232438","world_art_id":null,"type":"movie","add":"2021-04-22 17:50:08","orig_title":"Pomni, Kaspar!","year":"1965-09-20","translations":["Оригинальная дорожка"],"quality":"sat","translation":"Оригинальная дорожка","update":"2021-04-26 07:28:17","iframe_src":"//24213.svetacdn.in/71tsRs29n5tZ/movie/49825"},{"id":49824,"title":"Руфь","kp_id":"42140","imdb_id":"tt0098232","world_art_id":null,"type":"movie","add":"2021-04-22 17:08:21","orig_title":"Ruf","year":"1989-01-27","translations":["Оригинальная дорожка"],"quality":"dvdrip","translation":"Оригинальная дорожка","update":"2021-04-26 07:25:53","iframe_src":"//24213.svetacdn.in/71tsRs29n5tZ/movie/49824"},{"id":49823,"title":"Свекровь","kp_id":"457575","imdb_id":"tt1411769","world_art_id":null,"type":"movie","add":"2021-04-22 16:55:07","orig_title":"Qaynana","year":"1978-12-03","translations":["Полное дублирование"],"quality":"vhs","translation":"Полное дублирование","update":"2021-04-26 07:24:30","iframe_src":"//24213.svetacdn.in/71tsRs29n5tZ/movie/49823"},{"id":49795,"title":"Где ты теперь, Максим?","kp_id":"44477","imdb_id":"tt0172485","world_art_id":null,"type":"movie","add":"2021-04-21 18:15:14","orig_title":"Gde ty teper, Maksim?","year":"1965-06-14","translations":["Оригинальная дорожка"],"quality":"tv","translation":"Оригинальная дорожка","update":"2021-04-26 07:23:33","iframe_src":"//24213.svetacdn.in/71tsRs29n5tZ/movie/49795"},{"id":49794,"title":"Гонщики","kp_id":"44553","imdb_id":"tt0068647","world_art_id":null,"type":"movie","add":"2021-04-21 18:11:07","orig_title":"Gonshchiki","year":"1973-04-02","translations":["Оригинальная дорожка"],"quality":"dvdrip","translation":"Оригинальная дорожка","update":"2021-04-26 07:23:09","iframe_src":"//24213.svetacdn.in/71tsRs29n5tZ/movie/49794"},{"id":49793,"title":"Тарапунька и Штепсель под облаками","kp_id":"756421","imdb_id":null,"world_art_id":null,"type":"movie","add":"2021-04-21 18:08:09","orig_title":"Тарапунька и Штепсель под облаками","year":"1953-01-01","translations":["Оригинальная дорожка"],"quality":"vhs","translation":"Оригинальная дорожка","update":"2021-04-26 07:21:50","iframe_src":"//24213.svetacdn.in/71tsRs29n5tZ/movie/49793"},{"id":49792,"title":"Запретная зона","kp_id":"45233","imdb_id":"tt0096497","world_art_id":null,"type":"movie","add":"2021-04-21 18:00:55","orig_title":"Zapretnaya zona","year":"1988-01-01","translations":["Оригинальная дорожка"],"quality":"tv","translation":"Оригинальная дорожка","update":"2021-04-26 07:19:13","iframe_src":"//24213.svetacdn.in/71tsRs29n5tZ/movie/49792"},{"id":49790,"title":"Верешок","kp_id":"661262","imdb_id":"tt4103756","world_art_id":null,"type":"movie","add":"2021-04-21 17:54:48","orig_title":"Vereshok","year":"1984-01-01","translations":["Оригинальная дорожка"],"quality":"dvdrip","translation":"Оригинальная дорожка","update":"2021-04-26 07:18:32","iframe_src":"//24213.svetacdn.in/71tsRs29n5tZ/movie/49790"},{"id":49789,"title":"Звезда балета","kp_id":"45410","imdb_id":"tt0190891","world_art_id":null,"type":"movie","add":"2021-04-21 17:48:46","orig_title":"Zvezda baleta","year":"1965-07-19","translations":["Оригинальная дорожка"],"quality":"dvdrip","translation":"Оригинальная дорожка","update":"2021-04-26 07:17:23","iframe_src":"//24213.svetacdn.in/71tsRs29n5tZ/movie/49789"},{"id":29027,"title":"Путешествие в апрель","kp_id":"43362","imdb_id":"tt0237624","world_art_id":null,"type":"movie","add":"2019-07-15 20:29:18","orig_title":"Puteshestviye v aprel","year":"1963-04-06","translations":["Оригинальная дорожка"],"quality":"webdl","translation":"Оригинальная дорожка","update":"2021-04-26 07:27:00","iframe_src":"//24213.svetacdn.in/71tsRs29n5tZ/movie/29027"},{"id":26611,"title":"Зачем ты ушел?","kp_id":"422826","imdb_id":"tt4127570","world_art_id":null,"type":"movie","add":"2019-05-16 17:26:10","orig_title":"Zachem ty ushyol?","year":"2008-10-04","translations":["Оригинальная дорожка"],"quality":"iptv","translation":"Оригинальная дорожка","update":"2021-04-26 07:44:11","iframe_src":"//24213.svetacdn.in/71tsRs29n5tZ/movie/26611"},{"id":434,"title":"Кровью и потом: Анаболики","kp_id":"596227","imdb_id":"tt1980209","world_art_id":null,"type":"movie","add":"2016-04-01 17:58:39","orig_title":"Pain & Gain","year":"2013-04-11","translations":["Полное дублирование","[EN] Original (English)","Авторский (одноголосый закадровый) (Чадов Михаил)","Авторский (одноголосый закадровый) (Гаврилов Андрей)","Авторский (одноголосый закадровый) (Карповский Антон)","Авторский (одноголосый закадровый) (Матвеев Алексей | Doctor Joker)","Авторский (одноголосый закадровый) (Володарский Леонид)","Полное дублирование","[EN] Original (English)"],"quality":"bd","translation":"Полное дублирование","update":"2021-04-26 07:13:00","iframe_src":"//24213.svetacdn.in/71tsRs29n5tZ/movie/434"},{"id":387,"title":"Общак","kp_id":"506490","imdb_id":"tt1600196","world_art_id":null,"type":"movie","add":"2016-04-01 12:43:26","orig_title":"The Drop","year":"2014-09-05","translations":["Полное дублирование","Авторский (одноголосый закадровый) (Есарев Дмитрий)","Полное дублирование","[EN] Original (English)"],"quality":"bd","translation":"Полное дублирование","update":"2021-04-26 07:05:25","iframe_src":"//24213.svetacdn.in/71tsRs29n5tZ/movie/387"}],"current_page":756,"first_page_url":"https://videocdn.tv/api/short?limit=100&api_token=EnbO9h8pv1VyjbCJhg0WM9nG259n7mtz&cache3756=3756&page=1","from":75501,"last_page":729,"last_page_url":"https://videocdn.tv/api/short?limit=100&api_token=EnbO9h8pv1VyjbCJhg0WM9nG259n7mtz&cache3756=3756&page=729","next_page_url":null,"path":"https://videocdn.tv/api/short","per_page":100,"prev_page_url":"https://videocdn.tv/api/short?limit=100&api_token=EnbO9h8pv1VyjbCJhg0WM9nG259n7mtz&cache3756=3756&page=755","to":75520,"total":72860}