{"result":true,"data":[{"id":28839,"title":"С любовью, ваш Картик","kp_id":"1264251","imdb_id":"tt9890030","world_art_id":null,"type":"movie","add":"2019-07-09 21:40:28","orig_title":"Prematho Mee Karthik","year":"2017-11-17","translations":["Любительский (многоголосый закадровый) (Синема УС)"],"quality":"webdl","translation":"Любительский (многоголосый закадровый) (Синема УС)","update":"2019-07-10 06:05:52","iframe_src":"//83.svetacdn.in/PfJ50H0ZBPg3/movie/28839"},{"id":28835,"title":"Путешествие сквозь сосны","kp_id":"1019045","imdb_id":"tt6151110","world_art_id":null,"type":"movie","add":"2019-07-09 21:28:53","orig_title":"A Journey Through Pines","year":"2017-10-06","translations":["Любительский (многоголосый закадровый) (Синема УС)"],"quality":"webdl","translation":"Любительский (многоголосый закадровый) (Синема УС)","update":"2019-07-10 06:12:45","iframe_src":"//83.svetacdn.in/PfJ50H0ZBPg3/movie/28835"},{"id":28799,"title":"Родник","kp_id":"975892","imdb_id":"tt7190006","world_art_id":null,"type":"movie","add":"2019-07-09 09:10:53","orig_title":"Wellspring","year":"1990-06-07","translations":["Оригинальная дорожка"],"quality":"vhs","translation":"Оригинальная дорожка","update":"2019-07-10 06:41:20","iframe_src":"//83.svetacdn.in/PfJ50H0ZBPg3/movie/28799"},{"id":28798,"title":"Сердца бумеранг","kp_id":"586645","imdb_id":"tt2081360","world_art_id":null,"type":"movie","add":"2019-07-09 09:02:50","orig_title":"Serdtsa bumerang","year":"2011-11-18","translations":["Оригинальная дорожка"],"quality":"sat","translation":"Оригинальная дорожка","update":"2019-07-10 06:39:18","iframe_src":"//83.svetacdn.in/PfJ50H0ZBPg3/movie/28798"},{"id":28797,"title":"Смерть под парусом","kp_id":"412134","imdb_id":"tt2396597","world_art_id":null,"type":"movie","add":"2019-07-09 08:58:33","orig_title":"Nave zem buras","year":"1977-04-09","translations":["Оригинальная дорожка"],"quality":"dvdrip","translation":"Оригинальная дорожка","update":"2019-07-10 06:38:54","iframe_src":"//83.svetacdn.in/PfJ50H0ZBPg3/movie/28797"},{"id":28796,"title":"Судьба барабанщика","kp_id":"44026","imdb_id":"tt0187527","world_art_id":null,"type":"movie","add":"2019-07-09 08:54:57","orig_title":"Sudba barabanshchika","year":"1956-03-23","translations":["Оригинальная дорожка"],"quality":"dvdrip","translation":"Оригинальная дорожка","update":"2019-07-10 06:38:09","iframe_src":"//83.svetacdn.in/PfJ50H0ZBPg3/movie/28796"},{"id":28795,"title":"Веселые звезды","kp_id":"45736","imdb_id":"tt0048774","world_art_id":null,"type":"movie","add":"2019-07-09 08:51:37","orig_title":"Vesyolye zvyozdy","year":"1954-07-19","translations":["Оригинальная дорожка"],"quality":"sat","translation":"Оригинальная дорожка","update":"2019-07-10 06:36:55","iframe_src":"//83.svetacdn.in/PfJ50H0ZBPg3/movie/28795"},{"id":28794,"title":"Внимание! В городе волшебник","kp_id":"660961","imdb_id":"tt5214244","world_art_id":null,"type":"movie","add":"2019-07-09 08:48:32","orig_title":"Vnimanie! V gorode volshebnik!","year":"1964-08-27","translations":["Оригинальная дорожка"],"quality":"sat","translation":"Оригинальная дорожка","update":"2019-07-10 06:35:34","iframe_src":"//83.svetacdn.in/PfJ50H0ZBPg3/movie/28794"},{"id":28793,"title":"Заказ на одного","kp_id":"915210","imdb_id":null,"world_art_id":null,"type":"movie","add":"2019-07-09 08:45:23","orig_title":"Заказ на одного","year":"2012-01-01","translations":["Оригинальная дорожка"],"quality":"hdtv","translation":"Оригинальная дорожка","update":"2019-07-10 06:35:12","iframe_src":"//83.svetacdn.in/PfJ50H0ZBPg3/movie/28793"},{"id":28792,"title":"Была не была","kp_id":"427864","imdb_id":"tt1503091","world_art_id":null,"type":"movie","add":"2019-07-09 08:20:22","orig_title":"Byla ne byla","year":"1986-01-01","translations":["Оригинальная дорожка"],"quality":"sat","translation":"Оригинальная дорожка","update":"2019-07-10 06:33:01","iframe_src":"//83.svetacdn.in/PfJ50H0ZBPg3/movie/28792"},{"id":28791,"title":"Возвращение резидента","kp_id":"45888","imdb_id":"tt0240189","world_art_id":null,"type":"movie","add":"2019-07-09 08:16:49","orig_title":"Vozvrashchenie rezidenta","year":"1982-12-17","translations":["Оригинальная дорожка"],"quality":"dvdrip","translation":"Оригинальная дорожка","update":"2019-07-10 06:31:42","iframe_src":"//83.svetacdn.in/PfJ50H0ZBPg3/movie/28791"},{"id":28790,"title":"Возраст любви","kp_id":"975659","imdb_id":null,"world_art_id":null,"type":"movie","add":"2019-07-09 08:12:59","orig_title":"Возраст любви","year":"2016-05-15","translations":["Оригинальная дорожка"],"quality":"webdl","translation":"Оригинальная дорожка","update":"2019-07-10 06:31:51","iframe_src":"//83.svetacdn.in/PfJ50H0ZBPg3/movie/28790"},{"id":28789,"title":"Время и семья Конвей","kp_id":"45909","imdb_id":"tt0088365","world_art_id":null,"type":"movie","add":"2019-07-09 08:08:59","orig_title":"Vremya i semya Konvey","year":"1984-12-27","translations":["Оригинальная дорожка"],"quality":"sat","translation":"Оригинальная дорожка","update":"2019-07-10 06:30:13","iframe_src":"//83.svetacdn.in/PfJ50H0ZBPg3/movie/28789"},{"id":28788,"title":"Жениться в 24 часа","kp_id":"596085","imdb_id":"tt6336626","world_art_id":null,"type":"movie","add":"2019-07-09 08:04:43","orig_title":"Zhenitsya v 24 chasa","year":"2004-01-01","translations":["Оригинальная дорожка"],"quality":"dvb","translation":"Оригинальная дорожка","update":"2019-07-10 06:29:12","iframe_src":"//83.svetacdn.in/PfJ50H0ZBPg3/movie/28788"},{"id":28787,"title":"Конец операции «Резидент»","kp_id":"44898","imdb_id":"tt0266702","world_art_id":null,"type":"movie","add":"2019-07-09 08:00:59","orig_title":"Konets operatsii Rezident","year":"1986-05-12","translations":["Оригинальная дорожка"],"quality":"dvdrip","translation":"Оригинальная дорожка","update":"2019-07-10 06:27:00","iframe_src":"//83.svetacdn.in/PfJ50H0ZBPg3/movie/28787"},{"id":28784,"title":"Нет неизвестных солдат","kp_id":"501990","imdb_id":"tt3042522","world_art_id":null,"type":"movie","add":"2019-07-09 07:54:22","orig_title":"Net neizvestnykh soldat","year":"1966-02-21","translations":["Оригинальная дорожка"],"quality":"dvdrip","translation":"Оригинальная дорожка","update":"2019-07-10 06:26:31","iframe_src":"//83.svetacdn.in/PfJ50H0ZBPg3/movie/28784"},{"id":28779,"title":"Когда наступает сейчас","kp_id":"1039780","imdb_id":"tt6532954","world_art_id":null,"type":"movie","add":"2019-07-09 07:42:05","orig_title":"No Intenso Agora","year":"2017-02-11","translations":["Любительский (многоголосый закадровый) (Синема УС)"],"quality":"dvdrip","translation":"Любительский (многоголосый закадровый) (Синема УС)","update":"2019-07-10 06:14:46","iframe_src":"//83.svetacdn.in/PfJ50H0ZBPg3/movie/28779"},{"id":28777,"title":"Кровь, пот и слезы","kp_id":"873749","imdb_id":"tt3814486","world_art_id":null,"type":"movie","add":"2019-07-09 07:37:22","orig_title":"Bloed, Zweet & Tranen","year":"2015-04-02","translations":["Любительский (одноголосый закадровый) (den904)"],"quality":"bd","translation":"Любительский (одноголосый закадровый) (den904)","update":"2019-07-10 06:25:12","iframe_src":"//83.svetacdn.in/PfJ50H0ZBPg3/movie/28777"},{"id":28776,"title":"Против течения","kp_id":"43329","imdb_id":"tt0237618","world_art_id":null,"type":"movie","add":"2019-07-09 07:14:11","orig_title":"Protiv techeniya","year":"1981-01-01","translations":["Оригинальная дорожка"],"quality":"dvb","translation":"Оригинальная дорожка","update":"2019-07-10 06:23:55","iframe_src":"//83.svetacdn.in/PfJ50H0ZBPg3/movie/28776"},{"id":28774,"title":"Сказка о прекрасной Айсулу","kp_id":"43812","imdb_id":"tt0300491","world_art_id":null,"type":"movie","add":"2019-07-09 06:36:04","orig_title":"Skazka o prekrasnoy Aysulu","year":"1987-01-01","translations":["Оригинальная дорожка"],"quality":"webdl","translation":"Оригинальная дорожка","update":"2019-07-10 06:24:48","iframe_src":"//83.svetacdn.in/PfJ50H0ZBPg3/movie/28774"}],"current_page":1531,"first_page_url":"https://videocdn.tv/api/short?limit=100&api_token=RgFQdUIR2dRmwv8iYa5SnFNgnw3vpjKj&cache31531=31531&page=1","from":153001,"last_page":678,"last_page_url":"https://videocdn.tv/api/short?limit=100&api_token=RgFQdUIR2dRmwv8iYa5SnFNgnw3vpjKj&cache31531=31531&page=678","next_page_url":null,"path":"https://videocdn.tv/api/short","per_page":100,"prev_page_url":"https://videocdn.tv/api/short?limit=100&api_token=RgFQdUIR2dRmwv8iYa5SnFNgnw3vpjKj&cache31531=31531&page=1530","to":153020,"total":67706}