{"result":true,"data":[{"id":10578,"title":"Странствие Фанни","kp_id":"936721","imdb_id":"tt5038372","world_art_id":null,"type":"movie","add":"2017-03-28 22:15:31","orig_title":"Le voyage de Fanny","year":"2016-04-24","translations":["Авторский (одноголосый закадровый) (Карповский Антон)"],"quality":"bd","translation":"Авторский (одноголосый закадровый) (Карповский Антон)","update":"2017-03-29 10:37:47","iframe_src":"//8543.svetacdn.in/si4jsFRrtgrT/movie/10578"},{"id":10577,"title":"С пяти до семи","kp_id":"919720","imdb_id":"tt4214558","world_art_id":null,"type":"movie","add":"2017-03-28 22:09:53","orig_title":"S pyati do semi","year":"2015-01-26","translations":["Оригинальная дорожка"],"quality":"webdl","translation":"Оригинальная дорожка","update":"2017-03-29 05:41:44","iframe_src":"//8543.svetacdn.in/si4jsFRrtgrT/movie/10577"},{"id":10572,"title":"Следующая полночь","kp_id":"824967","imdb_id":"tt3504824","world_art_id":null,"type":"movie","add":"2017-03-28 08:42:14","orig_title":"Na yeh ling san, ngo joa seung liu Wong Gok hoi wong dai bou dik hung Van","year":"2014-02-07","translations":["Любительский (двухголосый закадровый) (Колобок)"],"quality":"bd","translation":"Любительский (двухголосый закадровый) (Колобок)","update":"2017-03-29 10:41:17","iframe_src":"//8543.svetacdn.in/si4jsFRrtgrT/movie/10572"},{"id":10571,"title":"Обратная сторона брака","kp_id":"807130","imdb_id":"tt3302962","world_art_id":null,"type":"movie","add":"2017-03-28 08:40:02","orig_title":"Shaadi Ke Side Effects","year":"2014-02-28","translations":["Любительский (многоголосый закадровый) (ICG)"],"quality":"bd","translation":"Любительский (многоголосый закадровый) (ICG)","update":"2017-03-29 10:42:49","iframe_src":"//8543.svetacdn.in/si4jsFRrtgrT/movie/10571"},{"id":10570,"title":"Морской туман","kp_id":"807270","imdb_id":"tt3303728","world_art_id":null,"type":"movie","add":"2017-03-28 08:36:24","orig_title":"Haemoo","year":"2014-08-13","translations":["Любительский (двухголосый закадровый) (DeadSno & den904)"],"quality":"bd","translation":"Любительский (двухголосый закадровый) (DeadSno & den904)","update":"2017-03-29 10:44:04","iframe_src":"//8543.svetacdn.in/si4jsFRrtgrT/movie/10570"},{"id":10557,"title":"Мой лучший враг","kp_id":"565225","imdb_id":"tt1467405","world_art_id":null,"type":"movie","add":"2017-03-27 23:52:39","orig_title":"Min bedste fjende","year":"2010-06-03","translations":["Любительский (одноголосый закадровый)"],"quality":"hdrip","translation":"Любительский (одноголосый закадровый)","update":"2017-03-28 06:36:52","iframe_src":"//8543.svetacdn.in/si4jsFRrtgrT/movie/10557"},{"id":10556,"title":"Лила","kp_id":"823548","imdb_id":"tt3443482","world_art_id":null,"type":"movie","add":"2017-03-27 23:49:29","orig_title":"Lila","year":"2014-05-29","translations":["Оригинальная дорожка"],"quality":"webdl","translation":"Оригинальная дорожка","update":"2017-03-28 06:46:40","iframe_src":"//8543.svetacdn.in/si4jsFRrtgrT/movie/10556"},{"id":10555,"title":"Высокие стены","kp_id":"276303","imdb_id":"tt0922455","world_art_id":null,"type":"movie","add":"2017-03-27 23:46:21","orig_title":"Les hauts murs","year":"2008-04-19","translations":["Любительский (одноголосый закадровый)"],"quality":"dvdrip","translation":"Любительский (одноголосый закадровый)","update":"2017-03-28 08:14:11","iframe_src":"//8543.svetacdn.in/si4jsFRrtgrT/movie/10555"},{"id":10554,"title":"Школа Юрского периода","kp_id":"1012295","imdb_id":"tt6131386","world_art_id":null,"type":"movie","add":"2017-03-27 23:45:06","orig_title":"Jurassic School","year":"2017-01-31","translations":["Любительский (многоголосый закадровый) (Синема УС)"],"quality":"bd","translation":"Любительский (многоголосый закадровый) (Синема УС)","update":"2017-03-28 08:16:13","iframe_src":"//8543.svetacdn.in/si4jsFRrtgrT/movie/10554"},{"id":10460,"title":"Студентка и зомбяк-укурыш","kp_id":"840410","imdb_id":"tt3608654","world_art_id":null,"type":"movie","add":"2017-03-22 11:55:25","orig_title":"The Coed and the Zombie Stoner","year":"2014-04-18","translations":["Любительский (двухголосый закадровый) (Колобок)"],"quality":"bd","translation":"Любительский (двухголосый закадровый) (Колобок)","update":"2017-03-29 06:50:33","iframe_src":"//8543.svetacdn.in/si4jsFRrtgrT/movie/10460"},{"id":10458,"title":"Пляж будущего","kp_id":"661535","imdb_id":"tt2199543","world_art_id":null,"type":"movie","add":"2017-03-22 11:53:14","orig_title":"Praia do Futuro","year":"2014-02-11","translations":["Любительский (одноголосый закадровый)"],"quality":"webdl","translation":"Любительский (одноголосый закадровый)","update":"2017-03-29 06:43:09","iframe_src":"//8543.svetacdn.in/si4jsFRrtgrT/movie/10458"},{"id":10456,"title":"Застрявшие во времени","kp_id":"870238","imdb_id":"tt4150316","world_art_id":null,"type":"movie","add":"2017-03-22 11:51:04","orig_title":"Frozen in Time","year":"2014-11-01","translations":["Любительский (одноголосый закадровый)"],"quality":"hdtv","translation":"Любительский (одноголосый закадровый)","update":"2017-03-29 06:38:09","iframe_src":"//8543.svetacdn.in/si4jsFRrtgrT/movie/10456"},{"id":10454,"title":"Помпеи: Апокалипсис","kp_id":"814091","imdb_id":"tt3384904","world_art_id":null,"type":"movie","add":"2017-03-22 11:46:37","orig_title":"Apocalypse Pompeii","year":"2014-02-18","translations":["Любительский (одноголосый закадровый) (PashaUp | Морозов Павел)"],"quality":"bd","translation":"Любительский (одноголосый закадровый) (PashaUp | Морозов Павел)","update":"2017-03-29 06:34:38","iframe_src":"//8543.svetacdn.in/si4jsFRrtgrT/movie/10454"},{"id":10446,"title":"Алтарь","kp_id":"823084","imdb_id":"tt3484800","world_art_id":null,"type":"movie","add":"2017-03-21 09:20:16","orig_title":"Altar","year":"2014-12-27","translations":["Любительский (двухголосый закадровый)"],"quality":"bd","translation":"Любительский (двухголосый закадровый)","update":"2017-03-28 09:12:17","iframe_src":"//8543.svetacdn.in/si4jsFRrtgrT/movie/10446"},{"id":10423,"title":"Ложь во спасение","kp_id":"732797","imdb_id":"tt2652092","world_art_id":null,"type":"movie","add":"2017-03-20 15:03:08","orig_title":"The Good Lie","year":"2014-09-07","translations":["Профессиональный (многоголосый закадровый) (iTunes)"],"quality":"bd","translation":"Профессиональный (многоголосый закадровый) (iTunes)","update":"2017-03-28 09:10:10","iframe_src":"//8543.svetacdn.in/si4jsFRrtgrT/movie/10423"},{"id":10422,"title":"Заповедник","kp_id":"797734","imdb_id":"tt3138558","world_art_id":null,"type":"movie","add":"2017-03-20 15:01:56","orig_title":"Preservation","year":"2014-04-17","translations":["Любительский (двухголосый закадровый) (Hamster Studio)"],"quality":"webdl","translation":"Любительский (двухголосый закадровый) (Hamster Studio)","update":"2017-03-28 09:04:31","iframe_src":"//8543.svetacdn.in/si4jsFRrtgrT/movie/10422"},{"id":10421,"title":"Октябрьский шторм","kp_id":"739140","imdb_id":"tt2691734","world_art_id":null,"type":"movie","add":"2017-03-20 15:00:53","orig_title":"October Gale","year":"2014-09-11","translations":["Любительский (двухголосый закадровый) (Victory-Films)"],"quality":"webdl","translation":"Любительский (двухголосый закадровый) (Victory-Films)","update":"2017-03-28 09:02:56","iframe_src":"//8543.svetacdn.in/si4jsFRrtgrT/movie/10421"},{"id":10420,"title":"Последняя остановка","kp_id":"493575","imdb_id":"tt1572306","world_art_id":null,"type":"movie","add":"2017-03-20 14:59:37","orig_title":"Don't Blink","year":"2014-09-18","translations":["Любительский (двухголосый закадровый) (DeadSno & den904)"],"quality":"webdl","translation":"Любительский (двухголосый закадровый) (DeadSno & den904)","update":"2017-03-28 09:00:26","iframe_src":"//8543.svetacdn.in/si4jsFRrtgrT/movie/10420"},{"id":10418,"title":"Однажды в Нью-Йорке","kp_id":"685682","imdb_id":"tt2182972","world_art_id":null,"type":"movie","add":"2017-03-20 14:56:46","orig_title":"Song One","year":"2014-01-20","translations":["Любительский (двухголосый закадровый)"],"quality":"bd","translation":"Любительский (двухголосый закадровый)","update":"2017-03-28 08:55:00","iframe_src":"//8543.svetacdn.in/si4jsFRrtgrT/movie/10418"},{"id":10194,"title":"Любовь прет-а-порте","kp_id":"842433","imdb_id":null,"world_art_id":null,"type":"movie","add":"2017-03-03 12:08:45","orig_title":"Любовь прет-а-порте","year":"2017-03-02","translations":["Оригинальная дорожка"],"quality":"webdl","translation":"Оригинальная дорожка","update":"2017-03-28 06:39:06","iframe_src":"//8543.svetacdn.in/si4jsFRrtgrT/movie/10194"}],"current_page":2004,"first_page_url":"https://videocdn.tv/api/short?limit=100&api_token=X6EwAUfE5M9xbo7y0Bp0aPf3uXxG2KLL&cache32004=32004&page=1","from":200301,"last_page":596,"last_page_url":"https://videocdn.tv/api/short?limit=100&api_token=X6EwAUfE5M9xbo7y0Bp0aPf3uXxG2KLL&cache32004=32004&page=596","next_page_url":null,"path":"https://videocdn.tv/api/short","per_page":100,"prev_page_url":"https://videocdn.tv/api/short?limit=100&api_token=X6EwAUfE5M9xbo7y0Bp0aPf3uXxG2KLL&cache32004=32004&page=2003","to":200320,"total":59587}