{"result":true,"data":[{"id":25567,"title":"Городской романс","kp_id":"44577","imdb_id":"tt0175681","world_art_id":null,"type":"movie","add":"2019-04-28 19:36:20","orig_title":"Gorodskoy romans","year":"1971-03-02","translations":["Оригинальная дорожка"],"quality":"dvdrip","translation":"Оригинальная дорожка","update":"2019-04-30 10:17:25","iframe_src":"//5322.svetacdn.in/IAF0wWTdNYZm/movie/25567"},{"id":25566,"title":"Греческие каникулы","kp_id":"230629","imdb_id":"tt0491774","world_art_id":null,"type":"movie","add":"2019-04-28 19:32:39","orig_title":"Grecheskie kanikuly","year":"2005-11-10","translations":["Оригинальная дорожка"],"quality":"dvdrip","translation":"Оригинальная дорожка","update":"2019-04-30 10:16:09","iframe_src":"//5322.svetacdn.in/IAF0wWTdNYZm/movie/25566"},{"id":25565,"title":"Грустная дама червей","kp_id":"423027","imdb_id":null,"world_art_id":null,"type":"movie","add":"2019-04-28 19:28:45","orig_title":"Грустная дама червей","year":"2007-01-01","translations":["Оригинальная дорожка"],"quality":"sat","translation":"Оригинальная дорожка","update":"2019-04-30 10:14:30","iframe_src":"//5322.svetacdn.in/IAF0wWTdNYZm/movie/25565"},{"id":25564,"title":"Золотой полоз","kp_id":"412493","imdb_id":null,"world_art_id":null,"type":"movie","add":"2019-04-28 19:19:29","orig_title":"Золотой полоз","year":"2007-08-29","translations":["Оригинальная дорожка"],"quality":"dvdrip","translation":"Оригинальная дорожка","update":"2019-04-30 10:13:10","iframe_src":"//5322.svetacdn.in/IAF0wWTdNYZm/movie/25564"},{"id":25562,"title":"Хмурый Вангур","kp_id":"44776","imdb_id":"tt0351175","world_art_id":null,"type":"movie","add":"2019-04-28 18:52:33","orig_title":"Khmuryy Vangur","year":"1960-08-22","translations":["Оригинальная дорожка"],"quality":"dvdrip","translation":"Оригинальная дорожка","update":"2019-04-30 10:09:32","iframe_src":"//5322.svetacdn.in/IAF0wWTdNYZm/movie/25562"},{"id":25561,"title":"Контакт","kp_id":"103221","imdb_id":"tt0417552","world_art_id":null,"type":"movie","add":"2019-04-28 18:43:47","orig_title":"Kontakt","year":"2005-11-17","translations":["Оригинальная дорожка"],"quality":"dvdrip","translation":"Оригинальная дорожка","update":"2019-04-30 10:07:04","iframe_src":"//5322.svetacdn.in/IAF0wWTdNYZm/movie/25561"},{"id":25560,"title":"Крылья ангела","kp_id":"428833","imdb_id":null,"world_art_id":null,"type":"movie","add":"2019-04-28 18:33:13","orig_title":"Крылья ангела","year":"2008-01-01","translations":["Оригинальная дорожка"],"quality":"dvdrip","translation":"Оригинальная дорожка","update":"2019-04-30 10:05:26","iframe_src":"//5322.svetacdn.in/IAF0wWTdNYZm/movie/25560"},{"id":25559,"title":"Персики и Перчики. Куртуазные истории","kp_id":"427194","imdb_id":"tt1289829","world_art_id":null,"type":"movie","add":"2019-04-28 18:17:16","orig_title":"Persiki i perchiki. Kurtuaznye istorii","year":"2003-03-03","translations":["Оригинальная дорожка"],"quality":"dvdrip","translation":"Оригинальная дорожка","update":"2019-04-30 10:03:39","iframe_src":"//5322.svetacdn.in/IAF0wWTdNYZm/movie/25559"},{"id":25558,"title":"Курортный роман","kp_id":"400511","imdb_id":"tt1446093","world_art_id":null,"type":"movie","add":"2019-04-28 16:22:53","orig_title":"Kurortnyy roman","year":"2007-11-11","translations":["Оригинальная дорожка"],"quality":"dvdrip","translation":"Оригинальная дорожка","update":"2019-04-30 10:06:12","iframe_src":"//5322.svetacdn.in/IAF0wWTdNYZm/movie/25558"},{"id":25557,"title":"Летающий корабль","kp_id":"267520","imdb_id":"tt0791513","world_art_id":null,"type":"movie","add":"2019-04-28 16:17:59","orig_title":"Letayuschij korabl","year":"1960-11-13","translations":["Оригинальная дорожка"],"quality":"dvdrip","translation":"Оригинальная дорожка","update":"2019-04-30 10:01:38","iframe_src":"//5322.svetacdn.in/IAF0wWTdNYZm/movie/25557"},{"id":25556,"title":"Любовь до востребования","kp_id":"480639","imdb_id":null,"world_art_id":null,"type":"movie","add":"2019-04-28 16:04:50","orig_title":"Любовь до востребования","year":"2009-12-06","translations":["Оригинальная дорожка"],"quality":"sat","translation":"Оригинальная дорожка","update":"2019-04-30 09:59:58","iframe_src":"//5322.svetacdn.in/IAF0wWTdNYZm/movie/25556"},{"id":25555,"title":"Луна-Одесса","kp_id":"421442","imdb_id":"tt5280554","world_art_id":null,"type":"movie","add":"2019-04-28 15:54:19","orig_title":"Luna-Odessa","year":"2007-10-14","translations":["Оригинальная дорожка"],"quality":"dvdrip","translation":"Оригинальная дорожка","update":"2019-04-30 07:07:30","iframe_src":"//5322.svetacdn.in/IAF0wWTdNYZm/movie/25555"},{"id":25554,"title":"Марш славянки","kp_id":"41600","imdb_id":"tt0372405","world_art_id":null,"type":"movie","add":"2019-04-28 15:45:23","orig_title":"Marsh slavyanki","year":"2003-06-28","translations":["Оригинальная дорожка"],"quality":"dvdrip","translation":"Оригинальная дорожка","update":"2019-04-30 07:06:33","iframe_src":"//5322.svetacdn.in/IAF0wWTdNYZm/movie/25554"},{"id":25553,"title":"Между первой и второй","kp_id":"420422","imdb_id":null,"world_art_id":null,"type":"movie","add":"2019-04-28 15:38:05","orig_title":"Между первой и второй","year":"2004-01-01","translations":["Оригинальная дорожка"],"quality":"dvdrip","translation":"Оригинальная дорожка","update":"2019-04-30 07:04:20","iframe_src":"//5322.svetacdn.in/IAF0wWTdNYZm/movie/25553"},{"id":25552,"title":"Над темной водой","kp_id":"41538","imdb_id":"tt0107650","world_art_id":null,"type":"movie","add":"2019-04-28 15:26:03","orig_title":"Nad temnoy vodoy","year":"1994-05-01","translations":["Оригинальная дорожка"],"quality":"dvdrip","translation":"Оригинальная дорожка","update":"2019-04-30 07:02:36","iframe_src":"//5322.svetacdn.in/IAF0wWTdNYZm/movie/25552"},{"id":25551,"title":"Объяснение в любви","kp_id":"42706","imdb_id":"tt0076483","world_art_id":null,"type":"movie","add":"2019-04-28 15:20:50","orig_title":"Obyasneniye v lyubvi","year":"1978-01-22","translations":["Оригинальная дорожка"],"quality":"dvdrip","translation":"Оригинальная дорожка","update":"2019-04-30 07:01:48","iframe_src":"//5322.svetacdn.in/IAF0wWTdNYZm/movie/25551"},{"id":25550,"title":"Опасный поворот","kp_id":"216683","imdb_id":"tt0481287","world_art_id":null,"type":"movie","add":"2019-04-28 15:16:51","orig_title":"Opasnyy povorot","year":"1972-12-16","translations":["Оригинальная дорожка"],"quality":"dvdrip","translation":"Оригинальная дорожка","update":"2019-04-30 07:01:03","iframe_src":"//5322.svetacdn.in/IAF0wWTdNYZm/movie/25550"},{"id":25549,"title":"Осторожно, дети","kp_id":"447659","imdb_id":"tt1411757","world_art_id":null,"type":"movie","add":"2019-04-28 14:43:35","orig_title":"Ostorozhno, deti!","year":"2009-04-23","translations":["Оригинальная дорожка"],"quality":"dvdrip","translation":"Оригинальная дорожка","update":"2019-04-30 07:00:15","iframe_src":"//5322.svetacdn.in/IAF0wWTdNYZm/movie/25549"},{"id":25547,"title":"Отдаленные последствия","kp_id":"420088","imdb_id":"tt1343370","world_art_id":null,"type":"movie","add":"2019-04-28 14:13:23","orig_title":"Otdalyonniye posledstviye","year":"2008-01-01","translations":["Оригинальная дорожка"],"quality":"sat","translation":"Оригинальная дорожка","update":"2019-04-30 06:57:58","iframe_src":"//5322.svetacdn.in/IAF0wWTdNYZm/movie/25547"},{"id":25546,"title":"Парниковый эффект","kp_id":"161121","imdb_id":"tt0480258","world_art_id":null,"type":"movie","add":"2019-04-28 14:05:37","orig_title":"Parnikovyy effekt","year":"2005-09-01","translations":["Оригинальная дорожка"],"quality":"dvdrip","translation":"Оригинальная дорожка","update":"2019-04-30 06:57:17","iframe_src":"//5322.svetacdn.in/IAF0wWTdNYZm/movie/25546"}],"current_page":1451,"first_page_url":"https://videocdn.tv/api/short?limit=100&api_token=6Onb1W1alEUrBcKJZD3GoKBbWyAl2uG2&cache31451=31451&page=1","from":145001,"last_page":628,"last_page_url":"https://videocdn.tv/api/short?limit=100&api_token=6Onb1W1alEUrBcKJZD3GoKBbWyAl2uG2&cache31451=31451&page=628","next_page_url":null,"path":"https://videocdn.tv/api/short","per_page":100,"prev_page_url":"https://videocdn.tv/api/short?limit=100&api_token=6Onb1W1alEUrBcKJZD3GoKBbWyAl2uG2&cache31451=31451&page=1450","to":145020,"total":62765}