{"result":true,"data":[{"id":11596,"title":"Мой питомец — псих","kp_id":"1281404","imdb_id":"tt9610166","world_art_id":null,"type":"serial","add":"2021-10-29 21:27:13","orig_title":"HouseBroken","year":"2021-05-31","translations":["Профессиональный (многоголосый закадровый) (DoubleRec)"],"seasons_count":1,"episodes_count":11,"episodes":11,"update":"2021-10-30 10:55:29","iframe_src":"//83.svetacdn.in/PfJ50H0ZBPg3/tv-series/11596"},{"id":11595,"title":"Акулопес","kp_id":"4536594","imdb_id":"tt12211696","world_art_id":null,"type":"serial","add":"2021-10-29 21:14:20","orig_title":"Sharkdog","year":"2021-09-03","translations":["Полное дублирование (Невафильм | Нева-1)"],"seasons_count":1,"episodes_count":7,"episodes":7,"update":"2021-10-30 10:52:48","iframe_src":"//83.svetacdn.in/PfJ50H0ZBPg3/tv-series/11595"},{"id":11590,"title":"Улики из прошлого. Тайна картины Коровина","kp_id":"4444990","imdb_id":null,"world_art_id":null,"type":"serial","add":"2021-10-29 19:48:54","orig_title":"Улики из прошлого. Тайна картины Коровина","year":"2021-05-01","translations":["Оригинальная дорожка"],"seasons_count":1,"episodes_count":4,"episodes":4,"update":"2021-10-30 07:49:44","iframe_src":"//83.svetacdn.in/PfJ50H0ZBPg3/tv-series/11590"},{"id":11589,"title":"Улики из прошлого. Роман без последней страницы","kp_id":"4443885","imdb_id":null,"world_art_id":null,"type":"serial","add":"2021-10-29 19:46:59","orig_title":"Улики из прошлого. Роман без последней страницы","year":"2020-11-14","translations":["Оригинальная дорожка"],"seasons_count":1,"episodes_count":4,"episodes":4,"update":"2021-10-30 07:50:53","iframe_src":"//83.svetacdn.in/PfJ50H0ZBPg3/tv-series/11589"},{"id":11587,"title":"Ювик с планеты Ю!","kp_id":"4415356","imdb_id":null,"world_art_id":null,"type":"serial","add":"2021-10-29 15:22:43","orig_title":"Ювик с планеты Ю!","year":"2019-01-01","translations":["Оригинальная дорожка"],"seasons_count":1,"episodes_count":26,"episodes":26,"update":"2021-10-30 17:04:58","iframe_src":"//83.svetacdn.in/PfJ50H0ZBPg3/tv-series/11587"},{"id":11584,"title":"Уроки от Пинги и Кроки","kp_id":"1254882","imdb_id":null,"world_art_id":null,"type":"serial","add":"2021-10-29 00:24:35","orig_title":"Уроки от Пинги и Кроки","year":"2015-01-01","translations":["Оригинальная дорожка"],"seasons_count":1,"episodes_count":78,"episodes":78,"update":"2021-10-30 12:08:59","iframe_src":"//83.svetacdn.in/PfJ50H0ZBPg3/tv-series/11584"},{"id":11582,"title":"4 машинки","kp_id":"1007560","imdb_id":null,"world_art_id":null,"type":"serial","add":"2021-10-28 14:13:14","orig_title":"4 машинки","year":"2015-01-01","translations":["Оригинальная дорожка"],"seasons_count":1,"episodes_count":64,"episodes":64,"update":"2021-10-30 11:44:02","iframe_src":"//83.svetacdn.in/PfJ50H0ZBPg3/tv-series/11582"},{"id":11580,"title":"Про Россию с любовью","kp_id":"1196325","imdb_id":null,"world_art_id":null,"type":"serial","add":"2021-10-28 12:13:24","orig_title":"Про Россию с любовью","year":"2018-09-29","translations":["Оригинальная дорожка"],"seasons_count":1,"episodes_count":4,"episodes":4,"update":"2021-10-29 12:57:54","iframe_src":"//83.svetacdn.in/PfJ50H0ZBPg3/tv-series/11580"},{"id":11572,"title":"Ветка маслин","kp_id":"1046692","imdb_id":"tt6069196","world_art_id":null,"type":"serial","add":"2021-10-27 14:04:04","orig_title":"Zeytin Tepesi","year":"2014-02-05","translations":["Любительский (многоголосый закадровый) (GreenРай Studio)"],"seasons_count":1,"episodes_count":7,"episodes":7,"update":"2021-10-30 16:44:45","iframe_src":"//83.svetacdn.in/PfJ50H0ZBPg3/tv-series/11572"},{"id":11549,"title":"Проклятие брачного договора","kp_id":"4668032","imdb_id":null,"world_art_id":null,"type":"serial","add":"2021-10-23 18:09:48","orig_title":"Проклятие брачного договора","year":"2021-10-23","translations":["Оригинальная дорожка"],"seasons_count":1,"episodes_count":4,"episodes":4,"update":"2021-10-30 09:26:44","iframe_src":"//83.svetacdn.in/PfJ50H0ZBPg3/tv-series/11549"},{"id":11546,"title":"Улики из прошлого. Забытое завещание","kp_id":"4445138","imdb_id":null,"world_art_id":null,"type":"serial","add":"2021-10-22 10:58:28","orig_title":"Улики из прошлого. Забытое завещание","year":"2021-05-02","translations":["Оригинальная дорожка"],"seasons_count":1,"episodes_count":4,"episodes":4,"update":"2021-10-30 07:53:39","iframe_src":"//83.svetacdn.in/PfJ50H0ZBPg3/tv-series/11546"},{"id":11541,"title":"Улики из прошлого. Индийская невеста","kp_id":"4528025","imdb_id":null,"world_art_id":null,"type":"serial","add":"2021-10-21 21:11:10","orig_title":"Улики из прошлого. Индийская невеста","year":"2021-01-01","translations":["Оригинальная дорожка"],"seasons_count":1,"episodes_count":4,"episodes":4,"update":"2021-10-30 07:52:16","iframe_src":"//83.svetacdn.in/PfJ50H0ZBPg3/tv-series/11541"},{"id":11532,"title":"Любовь без тормозов","kp_id":"4658971","imdb_id":null,"world_art_id":null,"type":"serial","add":"2021-10-19 09:24:41","orig_title":"Любовь без тормозов","year":"2021-10-19","translations":["Оригинальная дорожка"],"seasons_count":1,"episodes_count":16,"episodes":16,"update":"2021-10-29 20:10:07","iframe_src":"//83.svetacdn.in/PfJ50H0ZBPg3/tv-series/11532"},{"id":11528,"title":"Балабол 5","kp_id":"4535547","imdb_id":null,"world_art_id":null,"type":"serial","add":"2021-10-18 14:12:58","orig_title":"Балабол 5","year":"2021-10-18","translations":["Оригинальная дорожка"],"seasons_count":1,"episodes_count":20,"episodes":20,"update":"2021-10-30 09:15:10","iframe_src":"//83.svetacdn.in/PfJ50H0ZBPg3/tv-series/11528"},{"id":11514,"title":"Дурная трава","kp_id":"4544474","imdb_id":"tt13578144","world_art_id":null,"type":"serial","add":"2021-10-15 10:42:50","orig_title":"MalaYerba","year":"2021-10-14","translations":["Профессиональный (многоголосый закадровый) (BaibaKo)","Любительский (многоголосый закадровый) (ColdFilm)"],"seasons_count":1,"episodes_count":10,"episodes":10,"update":"2021-10-29 19:19:44","iframe_src":"//83.svetacdn.in/PfJ50H0ZBPg3/tv-series/11514"},{"id":11510,"title":"Аквамен: Король Атлантиды","kp_id":"1351748","imdb_id":"tt11639062","world_art_id":null,"type":"serial","add":"2021-10-14 13:45:26","orig_title":"Aquaman: King of Atlantis","year":"2021-10-14","translations":["Любительский (многоголосый закадровый) (Ultradox)","Любительский (многоголосый закадровый) (ColdFilm)","Профессиональный (многоголосый закадровый) (BaibaKo)"],"seasons_count":1,"episodes_count":3,"episodes":3,"update":"2021-10-30 10:05:11","iframe_src":"//83.svetacdn.in/PfJ50H0ZBPg3/tv-series/11510"},{"id":45588,"title":"Рождественские хроники 2","kp_id":"1309508","imdb_id":"tt11057644","world_art_id":null,"type":"movie","add":"2020-11-24 20:19:55","orig_title":"The Christmas Chronicles 2","year":"2020-11-25","translations":["Полное дублирование (Netflix)","[EN] Original (English)","Профессиональный (многоголосый закадровый) (Jaskier)","Профессиональный (многоголосый закадровый) (BaibaKo)"],"quality":"webdl","translation":"Полное дублирование (Netflix)","update":"2022-03-11 11:50:04","iframe_src":"//83.svetacdn.in/PfJ50H0ZBPg3/movie/45588"},{"id":45080,"title":"Повестка","kp_id":"1340230","imdb_id":"tt11481312","world_art_id":null,"type":"movie","add":"2020-11-07 08:51:59","orig_title":"Citation","year":"2020-11-06","translations":["Любительский (многоголосый закадровый) (@MUZOBOZ@)","[EN] Original (English)"],"quality":"webdl","translation":"Любительский (многоголосый закадровый) (@MUZOBOZ@)","update":"2022-03-11 13:14:28","iframe_src":"//83.svetacdn.in/PfJ50H0ZBPg3/movie/45080"},{"id":44857,"title":"Кошмарные игрушки","kp_id":"1442388","imdb_id":"tt13316062","world_art_id":null,"type":"movie","add":"2020-10-27 20:10:49","orig_title":"Toys of Terror","year":"2020-10-27","translations":["Любительский (многоголосый закадровый) (@MUZOBOZ@)"],"quality":"webdl","translation":"Любительский (многоголосый закадровый) (@MUZOBOZ@)","update":"2022-03-11 12:00:38","iframe_src":"//83.svetacdn.in/PfJ50H0ZBPg3/movie/44857"},{"id":44711,"title":"Путешествие на Луну","kp_id":"1338103","imdb_id":"tt7488208","world_art_id":null,"type":"movie","add":"2020-10-23 16:22:15","orig_title":"Over the Moon","year":"2020-10-16","translations":["Полное дублирование (Невафильм | Нева-1)","[EN] Original (English)"],"quality":"webdl","translation":"Полное дублирование (Невафильм | Нева-1)","update":"2022-03-11 13:17:27","iframe_src":"//83.svetacdn.in/PfJ50H0ZBPg3/movie/44711"},{"id":44389,"title":"Ноктюрн","kp_id":"1311855","imdb_id":"tt11044858","world_art_id":null,"type":"movie","add":"2020-10-13 12:39:17","orig_title":"Nocturne","year":"2020-10-13","translations":["Любительский (многоголосый закадровый) (@MUZOBOZ@)","Профессиональный (многоголосый закадровый) (HDrezka Studio)","[EN] Original (English)","Профессиональный (многоголосый закадровый) (IdeaFilm)","Любительский (многоголосый закадровый) (Синема УС)"],"quality":"webdl","translation":"Любительский (многоголосый закадровый) (@MUZOBOZ@)","update":"2022-03-11 13:19:43","iframe_src":"//83.svetacdn.in/PfJ50H0ZBPg3/movie/44389"},{"id":43449,"title":"Девушка грез","kp_id":"1239908","imdb_id":"tt9731360","world_art_id":null,"type":"movie","add":"2020-09-12 19:41:52","orig_title":"I Met a Girl","year":"2020-09-11","translations":["Любительский (многоголосый закадровый) (@MUZOBOZ@)","Профессиональный (многоголосый закадровый) (iTunes)"],"quality":"webdl","translation":"Любительский (многоголосый закадровый) (@MUZOBOZ@)","update":"2022-03-11 13:23:18","iframe_src":"//83.svetacdn.in/PfJ50H0ZBPg3/movie/43449"},{"id":8644,"title":"Врачебная мудрость","kp_id":"1281965","imdb_id":"tt11769304","world_art_id":null,"type":"serial","add":"2020-09-07 10:11:25","orig_title":"Seulgiroun uisasaenghwal","year":"2020-03-12","translations":["Любительский (многоголосый закадровый) (WestFilm)","Любительский (двухголосый закадровый) (SoftBox)"],"seasons_count":2,"episodes_count":24,"episodes":12,"update":"2021-10-30 06:51:58","iframe_src":"//83.svetacdn.in/PfJ50H0ZBPg3/tv-series/8644"},{"id":42295,"title":"Учёный","kp_id":"1399245","imdb_id":"tt7741388","world_art_id":null,"type":"movie","add":"2020-08-04 20:02:30","orig_title":"The Scientist","year":"2020-01-01","translations":["Любительский (двухголосый закадровый) (Колобок)","Любительский (многоголосый закадровый) (Синема УС)"],"quality":"webdl","translation":"Любительский (двухголосый закадровый) (Колобок)","update":"2022-03-11 11:48:54","iframe_src":"//83.svetacdn.in/PfJ50H0ZBPg3/movie/42295"},{"id":41158,"title":"Печально известные","kp_id":"1236742","imdb_id":"tt7703924","world_art_id":null,"type":"movie","add":"2020-06-13 19:15:59","orig_title":"Infamous","year":"2020-06-12","translations":["Любительский (многоголосый закадровый) (AlphaProject)","Полное дублирование","Полное дублирование (iTunes)","[EN] Original (English)"],"quality":"webdl","translation":"Любительский (многоголосый закадровый) (AlphaProject)","update":"2022-03-11 11:42:05","iframe_src":"//83.svetacdn.in/PfJ50H0ZBPg3/movie/41158"},{"id":40973,"title":"Мой папа – супергерой","kp_id":"1190415","imdb_id":"tt8767808","world_art_id":null,"type":"movie","add":"2020-06-06 06:39:55","orig_title":"Copperman","year":"2019-02-07","translations":["Профессиональный (многоголосый закадровый)","Профессиональный (многоголосый закадровый) (iTunes)"],"quality":"webdl","translation":"Профессиональный (многоголосый закадровый)","update":"2022-03-11 11:53:57","iframe_src":"//83.svetacdn.in/PfJ50H0ZBPg3/movie/40973"},{"id":40803,"title":"Ассистент звезды","kp_id":"1269314","imdb_id":"tt9308382","world_art_id":null,"type":"movie","add":"2020-05-30 12:05:30","orig_title":"The High Note","year":"2020-05-29","translations":["Любительский (многоголосый закадровый) (AlphaProject)","[EN] Original (English)","Полное дублирование"],"quality":"webdl","translation":"Любительский (многоголосый закадровый) (AlphaProject)","update":"2022-03-11 13:18:19","iframe_src":"//83.svetacdn.in/PfJ50H0ZBPg3/movie/40803"},{"id":7405,"title":"Октонавты","kp_id":"574281","imdb_id":"tt1710177","world_art_id":null,"type":"serial","add":"2020-05-05 11:37:37","orig_title":"The Octonauts","year":"2010-10-04","translations":["Полное дублирование","Профессиональный (многоголосый закадровый) (Force Media)"],"seasons_count":4,"episodes_count":116,"episodes":26,"update":"2021-10-30 10:47:54","iframe_src":"//83.svetacdn.in/PfJ50H0ZBPg3/tv-series/7405"},{"id":38083,"title":"Роковая связь","kp_id":"977303","imdb_id":"tt5688068","world_art_id":null,"type":"movie","add":"2020-03-17 06:56:57","orig_title":"Above Suspicion","year":"2019-07-04","translations":["Любительский (многоголосый закадровый) (AlphaProject)","Профессиональный (многоголосый закадровый) (iTunes)"],"quality":"webdl","translation":"Любительский (многоголосый закадровый) (AlphaProject)","update":"2022-03-11 11:51:44","iframe_src":"//83.svetacdn.in/PfJ50H0ZBPg3/movie/38083"},{"id":38060,"title":"Отвязная юность","kp_id":"1166942","imdb_id":"tt3824648","world_art_id":null,"type":"movie","add":"2020-03-16 07:38:00","orig_title":"Big Time Adolescence","year":"2019-01-28","translations":["Любительский (многоголосый закадровый) (Синема УС)","Профессиональный (многоголосый закадровый) (HDrezka Studio)","Профессиональный (многоголосый закадровый) (HDrezka Studio)","Полное дублирование (iTunes)","[EN] Original (English)"],"quality":"webdl","translation":"Любительский (многоголосый закадровый) (Синема УС)","update":"2022-03-11 13:21:14","iframe_src":"//83.svetacdn.in/PfJ50H0ZBPg3/movie/38060"},{"id":36528,"title":"Шпионка","kp_id":"1156368","imdb_id":"tt8435308","world_art_id":null,"type":"movie","add":"2020-02-18 20:45:19","orig_title":"The Spy","year":"2019-10-18","translations":["Любительский (многоголосый закадровый) (AlphaProject)"],"quality":"webdl","translation":"Любительский (многоголосый закадровый) (AlphaProject)","update":"2022-03-11 13:15:37","iframe_src":"//83.svetacdn.in/PfJ50H0ZBPg3/movie/36528"},{"id":34422,"title":"Идущий по линии 2: Теневой агент","kp_id":"1248486","imdb_id":"tt10295602","world_art_id":null,"type":"movie","add":"2019-12-24 19:45:42","orig_title":"Shi tu xing zhe 2: Die ying xing dong","year":"2019-08-04","translations":["Любительский (многоголосый закадровый) (Синема УС)"],"quality":"bd","translation":"Любительский (многоголосый закадровый) (Синема УС)","update":"2022-03-11 11:44:37","iframe_src":"//83.svetacdn.in/PfJ50H0ZBPg3/movie/34422"},{"id":5515,"title":"Благословите Хартов","kp_id":"1198936","imdb_id":"tt9068332","world_art_id":null,"type":"serial","add":"2019-10-24 04:22:14","orig_title":"Bless the Harts","year":"2019-09-29","translations":["Профессиональный (многоголосый закадровый) (HDrezka Studio)","Профессиональный (многоголосый закадровый) (TVShows)"],"seasons_count":2,"episodes_count":35,"episodes":25,"update":"2021-10-30 12:11:00","iframe_src":"//83.svetacdn.in/PfJ50H0ZBPg3/tv-series/5515"},{"id":29869,"title":"Маленькое красное платье","kp_id":"1055306","imdb_id":"tt7464188","world_art_id":null,"type":"movie","add":"2019-08-08 22:16:24","orig_title":"In Fabric","year":"2018-09-13","translations":["Профессиональный (многоголосый закадровый) (HDrezka Studio)","Профессиональный (многоголосый закадровый)","Профессиональный (многоголосый закадровый) (HDrezka Studio)"],"quality":"bd","translation":"Профессиональный (многоголосый закадровый) (HDrezka Studio)","update":"2022-03-11 11:47:41","iframe_src":"//83.svetacdn.in/PfJ50H0ZBPg3/movie/29869"},{"id":27873,"title":"Плюс один","kp_id":"1269608","imdb_id":"tt7645122","world_art_id":null,"type":"movie","add":"2019-06-17 06:03:51","orig_title":"Plus One","year":"2019-04-28","translations":["Полное дублирование (iTunes)","[EN] Original (English)","Профессиональный (многоголосый закадровый) (HDrezka Studio)"],"quality":"bd","translation":"Полное дублирование (iTunes)","update":"2022-03-11 11:55:38","iframe_src":"//83.svetacdn.in/PfJ50H0ZBPg3/movie/27873"},{"id":3066,"title":"Дракоша Тоша","kp_id":"1049335","imdb_id":null,"world_art_id":null,"type":"serial","add":"2018-08-23 07:19:13","orig_title":"Дракоша Тоша","year":"2017-10-01","translations":["Оригинальная дорожка"],"seasons_count":2,"episodes_count":52,"episodes":26,"update":"2021-10-30 12:47:31","iframe_src":"//83.svetacdn.in/PfJ50H0ZBPg3/tv-series/3066"},{"id":14590,"title":"Эспен в королевстве троллей","kp_id":"979362","imdb_id":"tt5628418","world_art_id":null,"type":"movie","add":"2017-12-10 19:03:17","orig_title":"Askeladden - I Dovregubbens hall","year":"2017-09-29","translations":["Любительский (многоголосый закадровый) (@MUZOBOZ@)","Полное дублирование","Полное дублирование (iTunes)"],"quality":"webdl","translation":"Любительский (многоголосый закадровый) (@MUZOBOZ@)","update":"2022-03-11 11:45:31","iframe_src":"//83.svetacdn.in/PfJ50H0ZBPg3/movie/14590"},{"id":14248,"title":"Целитель","kp_id":"898818","imdb_id":"tt4356480","world_art_id":null,"type":"movie","add":"2017-11-05 23:11:08","orig_title":"The Healer","year":"2017-02-17","translations":["Любительский (двухголосый закадровый) (RecentFilms)","Любительский (многоголосый закадровый) (Синема УС)","[EN] Original (English)","Любительский (двухголосый закадровый) (RecentFilms)"],"quality":"bd","translation":"Любительский (двухголосый закадровый) (RecentFilms)","update":"2022-03-11 13:24:33","iframe_src":"//83.svetacdn.in/PfJ50H0ZBPg3/movie/14248"},{"id":11498,"title":"На древо взгромоздясь","kp_id":"95352","imdb_id":"tt0066423","world_art_id":null,"type":"movie","add":"2017-05-11 12:11:36","orig_title":"Sur un arbre perché","year":"1971-04-14","translations":["Профессиональный (двухголосый закадровый)","Профессиональный (двухголосый закадровый) (Первый канал | ОРТ)"],"quality":"hdtv","translation":"Профессиональный (двухголосый закадровый)","update":"2022-03-11 12:23:36","iframe_src":"//83.svetacdn.in/PfJ50H0ZBPg3/movie/11498"},{"id":3527,"title":"Последнее танго в Париже","kp_id":"7147","imdb_id":"tt0070849","world_art_id":null,"type":"movie","add":"2016-06-30 06:49:02","orig_title":"Ultimo tango a Parigi","year":"1972-10-14","translations":["Полное дублирование"],"quality":"bd","translation":"Полное дублирование","update":"2022-03-11 11:42:16","iframe_src":"//83.svetacdn.in/PfJ50H0ZBPg3/movie/3527"}],"current_page":92,"first_page_url":"https://videocdn.tv/api/short?limit=100&api_token=RgFQdUIR2dRmwv8iYa5SnFNgnw3vpjKj&cache392=392&page=1","from":9101,"last_page":717,"last_page_url":"https://videocdn.tv/api/short?limit=100&api_token=RgFQdUIR2dRmwv8iYa5SnFNgnw3vpjKj&cache392=392&page=717","next_page_url":"https://videocdn.tv/api/short?limit=100&api_token=RgFQdUIR2dRmwv8iYa5SnFNgnw3vpjKj&cache392=392&page=93","path":"https://videocdn.tv/api/short","per_page":100,"prev_page_url":"https://videocdn.tv/api/short?limit=100&api_token=RgFQdUIR2dRmwv8iYa5SnFNgnw3vpjKj&cache392=392&page=91","to":9140,"total":71665}