{"result":true,"data":[{"id":49976,"title":"Помидоры-убийцы съедают Францию!","kp_id":"18122","imdb_id":"tt0102210","world_art_id":null,"type":"movie","add":"2021-04-28 12:39:51","orig_title":"Killer Tomatoes Eat France!","year":"1992-11-18","translations":["Любительский (одноголосый закадровый)"],"quality":"dvdrip","translation":"Любительский (одноголосый закадровый)","update":"2021-04-28 16:57:59","iframe_src":"//7741.svetacdn.in/71tsRs29n5tZ/movie/49976"},{"id":49975,"title":"Помидоры-убийцы наносят ответный удар","kp_id":"25409","imdb_id":"tt0099935","world_art_id":null,"type":"movie","add":"2021-04-28 12:33:56","orig_title":"Killer Tomatoes Strike Back!","year":"1991-11-14","translations":["Любительский (одноголосый закадровый) (Сафронов Иван | *Jonathan*)"],"quality":"dvdrip","translation":"Любительский (одноголосый закадровый) (Сафронов Иван | *Jonathan*)","update":"2021-04-28 16:56:47","iframe_src":"//7741.svetacdn.in/71tsRs29n5tZ/movie/49975"},{"id":49973,"title":"Бархатные пальчики","kp_id":"244384","imdb_id":"tt0423651","world_art_id":null,"type":"movie","add":"2021-04-28 12:02:59","orig_title":"Fingersmith","year":"2005-03-27","translations":["Профессиональный (двухголосый закадровый)"],"quality":"dvdrip","translation":"Профессиональный (двухголосый закадровый)","update":"2021-04-28 13:36:16","iframe_src":"//7741.svetacdn.in/71tsRs29n5tZ/movie/49973"},{"id":49971,"title":"Принцесса Карабу","kp_id":"15533","imdb_id":"tt0110892","world_art_id":null,"type":"movie","add":"2021-04-28 11:18:51","orig_title":"Princess Caraboo","year":"1994-09-16","translations":["Профессиональный (многоголосый закадровый)","Профессиональный (двухголосый закадровый) (Selena International)"],"quality":"dvdrip","translation":"Профессиональный (многоголосый закадровый)","update":"2021-04-28 16:54:27","iframe_src":"//7741.svetacdn.in/71tsRs29n5tZ/movie/49971"},{"id":49960,"title":"Тихие воды","kp_id":"1280901","imdb_id":"tt10558990","world_art_id":null,"type":"movie","add":"2021-04-28 08:43:16","orig_title":"Still The Water","year":"2020-09-17","translations":["Любительский (многоголосый закадровый) (@MUZOBOZ@)"],"quality":"webdl","translation":"Любительский (многоголосый закадровый) (@MUZOBOZ@)","update":"2021-04-28 14:32:16","iframe_src":"//7741.svetacdn.in/71tsRs29n5tZ/movie/49960"},{"id":49959,"title":"Июльская рапсодия","kp_id":"52236","imdb_id":"tt0312886","world_art_id":null,"type":"movie","add":"2021-04-28 05:39:20","orig_title":"Nam yan sei sap","year":"2002-03-14","translations":["Любительский (одноголосый закадровый) (Shaman)"],"quality":"bd","translation":"Любительский (одноголосый закадровый) (Shaman)","update":"2021-04-28 10:23:32","iframe_src":"//7741.svetacdn.in/71tsRs29n5tZ/movie/49959"},{"id":49957,"title":"Черный аист","kp_id":"224111","imdb_id":"tt0106569","world_art_id":null,"type":"movie","add":"2021-04-28 05:34:58","orig_title":"Chyornyy aist","year":"1993-01-01","translations":["Оригинальная дорожка"],"quality":"webdl","translation":"Оригинальная дорожка","update":"2021-04-28 10:34:18","iframe_src":"//7741.svetacdn.in/71tsRs29n5tZ/movie/49957"},{"id":49955,"title":"Героиня","kp_id":"942054","imdb_id":"tt5159412","world_art_id":null,"type":"movie","add":"2021-04-27 18:50:45","orig_title":"Nayagi","year":"2016-07-15","translations":["Любительский (многоголосый закадровый) (LovelyVox)"],"quality":"webdl","translation":"Любительский (многоголосый закадровый) (LovelyVox)","update":"2021-04-28 09:57:12","iframe_src":"//7741.svetacdn.in/71tsRs29n5tZ/movie/49955"},{"id":49954,"title":"Моя именинная песнь","kp_id":"886241","imdb_id":"tt4335954","world_art_id":null,"type":"movie","add":"2021-04-27 18:48:15","orig_title":"My Birthday Song","year":"2018-01-19","translations":["Любительский (многоголосый закадровый) (FanStudio)"],"quality":"webdl","translation":"Любительский (многоголосый закадровый) (FanStudio)","update":"2021-04-28 09:56:57","iframe_src":"//7741.svetacdn.in/71tsRs29n5tZ/movie/49954"},{"id":49953,"title":"Шанс","kp_id":"961956","imdb_id":"tt5436158","world_art_id":null,"type":"movie","add":"2021-04-27 18:46:07","orig_title":"Oozham","year":"2016-09-08","translations":["Любительский (многоголосый закадровый) (FanStudio)"],"quality":"dvdrip","translation":"Любительский (многоголосый закадровый) (FanStudio)","update":"2021-04-28 09:56:45","iframe_src":"//7741.svetacdn.in/71tsRs29n5tZ/movie/49953"},{"id":49952,"title":"Безумие","kp_id":"41808","imdb_id":"tt0077783","world_art_id":null,"type":"movie","add":"2021-04-27 18:44:05","orig_title":"Junoon","year":"1979-03-30","translations":["Любительский (одноголосый закадровый)"],"quality":"dvdrip","translation":"Любительский (одноголосый закадровый)","update":"2021-04-28 09:56:29","iframe_src":"//7741.svetacdn.in/71tsRs29n5tZ/movie/49952"},{"id":49951,"title":"Ланг и Лачи","kp_id":"1112888","imdb_id":"tt8024556","world_art_id":null,"type":"movie","add":"2021-04-27 18:40:43","orig_title":"Laung Laachi","year":"2018-03-09","translations":["Любительский (многоголосый закадровый) (FanStudio)"],"quality":"hdrip","translation":"Любительский (многоголосый закадровый) (FanStudio)","update":"2021-04-28 09:55:59","iframe_src":"//7741.svetacdn.in/71tsRs29n5tZ/movie/49951"},{"id":49950,"title":"Свадьба Вира","kp_id":"1064788","imdb_id":"tt7262178","world_art_id":null,"type":"movie","add":"2021-04-27 18:36:54","orig_title":"Veerey Ki Wedding","year":"2018-03-02","translations":["Любительский (многоголосый закадровый) (FanStudio)"],"quality":"hdrip","translation":"Любительский (многоголосый закадровый) (FanStudio)","update":"2021-04-28 09:55:44","iframe_src":"//7741.svetacdn.in/71tsRs29n5tZ/movie/49950"},{"id":49941,"title":"Забудь все и беги","kp_id":"1212116","imdb_id":"tt8657270","world_art_id":null,"type":"movie","add":"2021-04-27 13:46:23","orig_title":"F.E.A.R.","year":"2021-04-26","translations":["Любительский (многоголосый закадровый) (AlphaProject)"],"quality":"webdl","translation":"Любительский (многоголосый закадровый) (AlphaProject)","update":"2021-04-28 09:52:44","iframe_src":"//7741.svetacdn.in/71tsRs29n5tZ/movie/49941"},{"id":49939,"title":"Скажи мне когда","kp_id":"1284586","imdb_id":"tt10648198","world_art_id":null,"type":"movie","add":"2021-04-27 13:43:35","orig_title":"Dime Cuándo Tú","year":"2020-12-25","translations":["Любительский (многоголосый закадровый) (@MUZOBOZ@)"],"quality":"webdl","translation":"Любительский (многоголосый закадровый) (@MUZOBOZ@)","update":"2021-04-28 09:52:21","iframe_src":"//7741.svetacdn.in/71tsRs29n5tZ/movie/49939"},{"id":49919,"title":"Мой старший брат","kp_id":"478628","imdb_id":"tt5378052","world_art_id":null,"type":"movie","add":"2021-04-26 19:24:35","orig_title":"Moy starshiy brat","year":"1976-11-24","translations":["Оригинальная дорожка"],"quality":"sat","translation":"Оригинальная дорожка","update":"2021-04-28 07:46:33","iframe_src":"//7741.svetacdn.in/71tsRs29n5tZ/movie/49919"},{"id":1223,"title":"Запах клубники","kp_id":"924223","imdb_id":"tt4900982","world_art_id":null,"type":"serial","add":"2017-04-27 12:49:37","orig_title":"Çilek Kokusu","year":"2015-06-24","translations":["Любительский (одноголосый закадровый) (Реальный перевод)"],"seasons_count":1,"episodes_count":23,"episodes":23,"update":"2017-04-28 12:34:03","iframe_src":"//7741.svetacdn.in/71tsRs29n5tZ/tv-series/1223"},{"id":1221,"title":"Вторжение. Битва за рай","kp_id":"915411","imdb_id":"tt4716164","world_art_id":null,"type":"serial","add":"2017-04-27 05:53:28","orig_title":"Tomorrow. When The War Began","year":"2016-04-23","translations":["Профессиональный (многоголосый закадровый) (Jaskier)"],"seasons_count":1,"episodes_count":6,"episodes":6,"update":"2017-04-28 10:49:22","iframe_src":"//7741.svetacdn.in/71tsRs29n5tZ/tv-series/1221"},{"id":1220,"title":"Бриклберри","kp_id":"709862","imdb_id":"tt2022713","world_art_id":null,"type":"serial","add":"2017-04-26 13:32:58","orig_title":"Brickleberry","year":"2012-09-25","translations":["Профессиональный (многоголосый закадровый) (NewStudio)"],"seasons_count":3,"episodes_count":36,"episodes":13,"update":"2017-05-01 10:27:45","iframe_src":"//7741.svetacdn.in/71tsRs29n5tZ/tv-series/1220"},{"id":1219,"title":"Наше счастливое завтра","kp_id":"968795","imdb_id":null,"world_art_id":null,"type":"serial","add":"2017-04-26 13:26:09","orig_title":"Наше счастливое завтра","year":"2017-04-24","translations":["Оригинальная дорожка"],"seasons_count":1,"episodes_count":16,"episodes":16,"update":"2017-05-01 05:01:30","iframe_src":"//7741.svetacdn.in/71tsRs29n5tZ/tv-series/1219"},{"id":1218,"title":"Оптимисты","kp_id":"970176","imdb_id":"tt5905344","world_art_id":null,"type":"serial","add":"2017-04-26 13:23:01","orig_title":"Optimisty","year":"2017-04-24","translations":["Оригинальная дорожка"],"seasons_count":1,"episodes_count":13,"episodes":13,"update":"2017-05-01 05:11:51","iframe_src":"//7741.svetacdn.in/71tsRs29n5tZ/tv-series/1218"},{"id":1217,"title":"Баллада о бомбере","kp_id":"569961","imdb_id":"tt2007472","world_art_id":null,"type":"serial","add":"2017-04-25 12:01:06","orig_title":"Ballada o bombere","year":"2011-04-25","translations":["Оригинальная дорожка"],"seasons_count":1,"episodes_count":8,"episodes":8,"update":"2017-04-26 14:04:05","iframe_src":"//7741.svetacdn.in/71tsRs29n5tZ/tv-series/1217"},{"id":1216,"title":"Линия Марты","kp_id":"797034","imdb_id":"tt3507622","world_art_id":null,"type":"serial","add":"2017-04-25 11:57:20","orig_title":"Liniya Marty","year":"2014-01-29","translations":["Оригинальная дорожка"],"seasons_count":1,"episodes_count":4,"episodes":4,"update":"2017-04-26 10:48:50","iframe_src":"//7741.svetacdn.in/71tsRs29n5tZ/tv-series/1216"},{"id":1215,"title":"Противостояние","kp_id":"1008706","imdb_id":null,"world_art_id":null,"type":"serial","add":"2017-04-25 11:54:23","orig_title":"Противостояние","year":"2017-04-22","translations":["Оригинальная дорожка"],"seasons_count":1,"episodes_count":4,"episodes":4,"update":"2017-04-26 06:07:57","iframe_src":"//7741.svetacdn.in/71tsRs29n5tZ/tv-series/1215"},{"id":1214,"title":"Измены","kp_id":"839356","imdb_id":"tt5031896","world_art_id":null,"type":"serial","add":"2017-04-25 11:44:44","orig_title":"Izmeni","year":"2015-09-21","translations":["Оригинальная дорожка"],"seasons_count":1,"episodes_count":16,"episodes":16,"update":"2017-04-26 05:53:50","iframe_src":"//7741.svetacdn.in/71tsRs29n5tZ/tv-series/1214"},{"id":1213,"title":"Отцы","kp_id":"963348","imdb_id":null,"world_art_id":null,"type":"serial","add":"2017-04-25 07:42:10","orig_title":"Отцы","year":"2016-01-01","translations":["Оригинальная дорожка"],"seasons_count":1,"episodes_count":12,"episodes":12,"update":"2017-04-25 14:45:57","iframe_src":"//7741.svetacdn.in/71tsRs29n5tZ/tv-series/1213"},{"id":1212,"title":"Мёртв на 99%","kp_id":"988864","imdb_id":null,"world_art_id":null,"type":"serial","add":"2017-04-24 15:56:17","orig_title":"Мёртв на 99%","year":"2017-04-10","translations":["Оригинальная дорожка"],"seasons_count":1,"episodes_count":10,"episodes":10,"update":"2017-04-25 15:04:46","iframe_src":"//7741.svetacdn.in/71tsRs29n5tZ/tv-series/1212"},{"id":1210,"title":"Выжить любой ценой","kp_id":"989172","imdb_id":null,"world_art_id":null,"type":"serial","add":"2017-04-24 15:52:00","orig_title":"Выжить любой ценой","year":"2017-03-27","translations":["Оригинальная дорожка"],"seasons_count":1,"episodes_count":12,"episodes":12,"update":"2017-04-26 15:37:54","iframe_src":"//7741.svetacdn.in/71tsRs29n5tZ/tv-series/1210"},{"id":1209,"title":"Портрет женщины в красном","kp_id":"1043989","imdb_id":null,"world_art_id":null,"type":"serial","add":"2017-04-24 11:31:36","orig_title":"Портрет женщины в красном","year":"2017-04-22","translations":["Оригинальная дорожка"],"seasons_count":1,"episodes_count":1,"episodes":1,"update":"2017-04-25 06:10:53","iframe_src":"//7741.svetacdn.in/71tsRs29n5tZ/tv-series/1209"},{"id":1208,"title":"Объявлен в розыск","kp_id":"511419","imdb_id":"tt3389276","world_art_id":null,"type":"serial","add":"2017-04-21 14:26:52","orig_title":"Obyavlen v rozysk","year":"2011-02-06","translations":["Оригинальная дорожка"],"seasons_count":1,"episodes_count":12,"episodes":12,"update":"2017-04-24 15:39:55","iframe_src":"//7741.svetacdn.in/71tsRs29n5tZ/tv-series/1208"},{"id":1206,"title":"Спецотдел М","kp_id":"915136","imdb_id":"tt4602874","world_art_id":null,"type":"serial","add":"2017-04-20 12:41:27","orig_title":"Siljongneuwareu M","year":"2015-03-28","translations":["Любительский (двухголосый закадровый) (XDUB Dorama)"],"seasons_count":1,"episodes_count":10,"episodes":10,"update":"2017-04-21 11:14:23","iframe_src":"//7741.svetacdn.in/71tsRs29n5tZ/tv-series/1206"},{"id":1204,"title":"Трасса смерти","kp_id":"1006673","imdb_id":"tt6234852","world_art_id":null,"type":"serial","add":"2017-04-20 12:18:47","orig_title":"Trassa smerti","year":"2017-04-17","translations":["Оригинальная дорожка"],"seasons_count":1,"episodes_count":10,"episodes":10,"update":"2017-04-23 07:52:36","iframe_src":"//7741.svetacdn.in/71tsRs29n5tZ/tv-series/1204"},{"id":1195,"title":"Что и требовалось доказать","kp_id":"898460","imdb_id":null,"world_art_id":null,"type":"serial","add":"2017-04-18 07:36:39","orig_title":"Что и требовалось доказать","year":"2017-04-17","translations":["Оригинальная дорожка"],"seasons_count":1,"episodes_count":8,"episodes":8,"update":"2017-04-24 15:19:57","iframe_src":"//7741.svetacdn.in/71tsRs29n5tZ/tv-series/1195"},{"id":1173,"title":"Следствие любви","kp_id":"980371","imdb_id":null,"world_art_id":null,"type":"serial","add":"2017-04-07 11:06:00","orig_title":"Следствие любви","year":"2017-04-03","translations":["Оригинальная дорожка"],"seasons_count":1,"episodes_count":32,"episodes":32,"update":"2017-05-02 09:12:42","iframe_src":"//7741.svetacdn.in/71tsRs29n5tZ/tv-series/1173"},{"id":1149,"title":"В розыске","kp_id":"971423","imdb_id":"tt5542294","world_art_id":null,"type":"serial","add":"2017-03-29 17:19:38","orig_title":"APB","year":"2017-02-06","translations":["Профессиональный (многоголосый закадровый) (Jaskier)"],"seasons_count":1,"episodes_count":12,"episodes":12,"update":"2017-04-28 07:40:04","iframe_src":"//7741.svetacdn.in/71tsRs29n5tZ/tv-series/1149"},{"id":5467,"title":"Освободите Вилли","kp_id":"14833","imdb_id":"tt0106965","world_art_id":null,"type":"movie","add":"2016-09-23 09:31:37","orig_title":"Free Willy","year":"1993-07-16","translations":["Профессиональный (двухголосый закадровый)","Полное дублирование","Авторский (одноголосый закадровый) (Дольский Андрей)","Авторский (одноголосый закадровый) (Горчаков Василий)","Полное дублирование (Гемини)","Полное дублирование (iTunes)","[EN] Original (English)","Профессиональный (многоголосый закадровый)","Профессиональный (многоголосый закадровый) (Первый канал | ОРТ)"],"quality":"bd","translation":"Профессиональный (двухголосый закадровый)","update":"2021-04-28 10:16:57","iframe_src":"//7741.svetacdn.in/71tsRs29n5tZ/movie/5467"},{"id":4787,"title":"Вампиры","kp_id":"7430","imdb_id":"tt0120877","world_art_id":null,"type":"movie","add":"2016-08-29 08:10:40","orig_title":"Vampires","year":"1998-04-15","translations":["Полное дублирование","Авторский (одноголосый закадровый) (Гаврилов Андрей)","Авторский (одноголосый закадровый) (Сербин Юрий)","Авторский (одноголосый закадровый) (Визгунов Сергей)","Авторский (одноголосый закадровый) (Завгородний Владимир)","Авторский (одноголосый закадровый) (Живов Юрий)","Полное дублирование (Мосфильм)","[EN] Original (English)","Профессиональный (многоголосый закадровый) (DDV)","Профессиональный (многоголосый закадровый) (РТР | Россия)"],"quality":"bd","translation":"Полное дублирование","update":"2021-04-28 07:56:47","iframe_src":"//7741.svetacdn.in/71tsRs29n5tZ/movie/4787"},{"id":4738,"title":"В чужом ряду","kp_id":"632","imdb_id":"tt0264472","world_art_id":null,"type":"movie","add":"2016-08-26 05:08:37","orig_title":"Changing Lanes","year":"2002-04-07","translations":["Полное дублирование (Пифагор)","[EN] Original (English)","Профессиональный (многоголосый закадровый)","Авторский (одноголосый закадровый) (Дольский Андрей)","Профессиональный (двухголосый закадровый) (Премьер Видео Фильм)","Профессиональный (многоголосый закадровый) (DDV)","Профессиональный (многоголосый закадровый) (LDV)"],"quality":"bd","translation":"Полное дублирование (Пифагор)","update":"2021-04-28 09:47:00","iframe_src":"//7741.svetacdn.in/71tsRs29n5tZ/movie/4738"},{"id":205,"title":"Десница Божья","kp_id":"842134","imdb_id":"tt3973768","world_art_id":null,"type":"serial","add":"2016-06-20 12:15:12","orig_title":"Hand of God","year":"2014-08-28","translations":["Профессиональный (многоголосый закадровый) (LostFilm)"],"seasons_count":2,"episodes_count":20,"episodes":10,"update":"2017-04-25 14:55:06","iframe_src":"//7741.svetacdn.in/71tsRs29n5tZ/tv-series/205"},{"id":2135,"title":"Гнев","kp_id":"6889","imdb_id":"tt0328107","world_art_id":null,"type":"movie","add":"2016-05-12 18:10:17","orig_title":"Man on Fire","year":"2004-04-21","translations":["Полное дублирование","Авторский (одноголосый закадровый) (Гаврилов Андрей)","Авторский (одноголосый закадровый) (Гоблин | Пучков Дмитрий)","Авторский (одноголосый закадровый) (Визгунов Сергей)","Авторский (одноголосый закадровый) (Живов Юрий)","Полное дублирование","[EN] Original (English)","Профессиональный (двухголосый закадровый)","Профессиональный (двухголосый закадровый) (DDV)","Профессиональный (двухголосый закадровый) (Tycoon)","Профессиональный (многоголосый закадровый) (Fortica)","Профессиональный (многоголосый закадровый) (РТР | Россия)","Профессиональный (многоголосый закадровый)"],"quality":"bd","translation":"Полное дублирование","update":"2021-04-28 07:06:07","iframe_src":"//7741.svetacdn.in/71tsRs29n5tZ/movie/2135"}],"current_page":573,"first_page_url":"https://videocdn.tv/api/short?limit=100&api_token=EnbO9h8pv1VyjbCJhg0WM9nG259n7mtz&cache3573=3573&page=1","from":57201,"last_page":708,"last_page_url":"https://videocdn.tv/api/short?limit=100&api_token=EnbO9h8pv1VyjbCJhg0WM9nG259n7mtz&cache3573=3573&page=708","next_page_url":"https://videocdn.tv/api/short?limit=100&api_token=EnbO9h8pv1VyjbCJhg0WM9nG259n7mtz&cache3573=3573&page=574","path":"https://videocdn.tv/api/short","per_page":100,"prev_page_url":"https://videocdn.tv/api/short?limit=100&api_token=EnbO9h8pv1VyjbCJhg0WM9nG259n7mtz&cache3573=3573&page=572","to":57240,"total":70707}