{"result":true,"data":[{"id":46005,"title":"Горный поток","kp_id":"762292","imdb_id":null,"world_art_id":null,"type":"movie","add":"2020-12-11 19:21:47","orig_title":"Горный поток","year":"1940-04-26","translations":["Оригинальная дорожка"],"quality":"iptv","translation":"Оригинальная дорожка","update":"2020-12-15 08:04:40","iframe_src":"//8543.svetacdn.in/si4jsFRrtgrT/movie/46005"},{"id":46004,"title":"Голубой мяч","kp_id":"628533","imdb_id":"tt5894514","world_art_id":null,"type":"movie","add":"2020-12-11 19:18:45","orig_title":"Goluboy myach","year":"1984-01-01","translations":["Оригинальная дорожка"],"quality":"dvdrip","translation":"Оригинальная дорожка","update":"2020-12-15 08:03:55","iframe_src":"//8543.svetacdn.in/si4jsFRrtgrT/movie/46004"},{"id":46003,"title":"Год девятнадцатый","kp_id":"44521","imdb_id":"tt12111626","world_art_id":null,"type":"movie","add":"2020-12-11 19:14:51","orig_title":"God 19-yy","year":"1938-05-01","translations":["Оригинальная дорожка"],"quality":"webdl","translation":"Оригинальная дорожка","update":"2020-12-15 08:01:32","iframe_src":"//8543.svetacdn.in/si4jsFRrtgrT/movie/46003"},{"id":46002,"title":"Вот вернется папа","kp_id":"746565","imdb_id":null,"world_art_id":null,"type":"movie","add":"2020-12-11 19:11:29","orig_title":"Вот вернется папа","year":"1981-01-01","translations":["Оригинальная дорожка"],"quality":"webdl","translation":"Оригинальная дорожка","update":"2020-12-15 08:00:47","iframe_src":"//8543.svetacdn.in/si4jsFRrtgrT/movie/46002"},{"id":45991,"title":"Звук свирели","kp_id":"431504","imdb_id":"tt0174363","world_art_id":null,"type":"movie","add":"2020-12-10 17:21:10","orig_title":"Tütak säsi","year":"1975-12-01","translations":["Оригинальная дорожка"],"quality":"webdl","translation":"Оригинальная дорожка","update":"2020-12-15 08:00:12","iframe_src":"//8543.svetacdn.in/si4jsFRrtgrT/movie/45991"},{"id":45990,"title":"Как несли стол","kp_id":"632956","imdb_id":"tt6416644","world_art_id":null,"type":"movie","add":"2020-12-10 17:18:05","orig_title":"Kak nesli stol","year":"1979-01-01","translations":["Оригинальная дорожка"],"quality":"dvdrip","translation":"Оригинальная дорожка","update":"2020-12-15 07:59:17","iframe_src":"//8543.svetacdn.in/si4jsFRrtgrT/movie/45990"},{"id":45989,"title":"Когда цветут розы","kp_id":"993585","imdb_id":null,"world_art_id":null,"type":"movie","add":"2020-12-10 17:14:57","orig_title":"Когда цветут розы","year":"1959-01-01","translations":["Полное дублирование"],"quality":"tv","translation":"Полное дублирование","update":"2020-12-15 07:27:40","iframe_src":"//8543.svetacdn.in/si4jsFRrtgrT/movie/45989"},{"id":45988,"title":"Комендантский час","kp_id":"44874","imdb_id":"tt0237382","world_art_id":null,"type":"movie","add":"2020-12-10 17:04:54","orig_title":"Komendantskiy chas","year":"1981-01-01","translations":["Оригинальная дорожка"],"quality":"vhs","translation":"Оригинальная дорожка","update":"2020-12-15 07:26:39","iframe_src":"//8543.svetacdn.in/si4jsFRrtgrT/movie/45988"},{"id":45987,"title":"Лавина","kp_id":"208474","imdb_id":"tt0479696","world_art_id":null,"type":"movie","add":"2020-12-10 16:26:36","orig_title":"Lavina","year":"1975-01-01","translations":["Оригинальная дорожка"],"quality":"vhs","translation":"Оригинальная дорожка","update":"2020-12-15 07:25:55","iframe_src":"//8543.svetacdn.in/si4jsFRrtgrT/movie/45987"},{"id":45986,"title":"Легенда о скоморохе","kp_id":"45058","imdb_id":null,"world_art_id":null,"type":"movie","add":"2020-12-10 16:22:55","orig_title":"Легенда о скоморохе","year":"1980-04-12","translations":["Оригинальная дорожка"],"quality":"iptv","translation":"Оригинальная дорожка","update":"2020-12-15 07:24:46","iframe_src":"//8543.svetacdn.in/si4jsFRrtgrT/movie/45986"},{"id":45985,"title":"Мост перейти нельзя","kp_id":"652660","imdb_id":"tt4974406","world_art_id":null,"type":"movie","add":"2020-12-10 16:19:34","orig_title":"Most pereyti nelzya","year":"1960-10-19","translations":["Оригинальная дорожка"],"quality":"vhs","translation":"Оригинальная дорожка","update":"2020-12-15 07:23:53","iframe_src":"//8543.svetacdn.in/si4jsFRrtgrT/movie/45985"},{"id":45984,"title":"Мосты через забвение","kp_id":"188727","imdb_id":null,"world_art_id":null,"type":"movie","add":"2020-12-10 16:16:32","orig_title":"Мосты через забвение","year":"1970-04-06","translations":["Оригинальная дорожка"],"quality":"iptv","translation":"Оригинальная дорожка","update":"2020-12-15 07:22:24","iframe_src":"//8543.svetacdn.in/si4jsFRrtgrT/movie/45984"},{"id":45983,"title":"Мы здесь живем","kp_id":"46762","imdb_id":null,"world_art_id":null,"type":"movie","add":"2020-12-10 16:12:35","orig_title":"Мы здесь живем","year":"1957-03-26","translations":["Оригинальная дорожка"],"quality":"webdl","translation":"Оригинальная дорожка","update":"2020-12-15 07:21:18","iframe_src":"//8543.svetacdn.in/si4jsFRrtgrT/movie/45983"},{"id":45982,"title":"Мы из Семиречья","kp_id":"581788","imdb_id":null,"world_art_id":null,"type":"movie","add":"2020-12-10 16:09:08","orig_title":"Мы из Семиречья","year":"1959-09-21","translations":["Оригинальная дорожка"],"quality":"webdl","translation":"Оригинальная дорожка","update":"2020-12-15 07:20:40","iframe_src":"//8543.svetacdn.in/si4jsFRrtgrT/movie/45982"},{"id":45981,"title":"Негасимое пламя","kp_id":"46385","imdb_id":"tt0185537","world_art_id":null,"type":"movie","add":"2020-12-10 15:55:01","orig_title":"Negasimoye plamya","year":"1964-12-07","translations":["Оригинальная дорожка"],"quality":"sat","translation":"Оригинальная дорожка","update":"2020-12-15 07:19:59","iframe_src":"//8543.svetacdn.in/si4jsFRrtgrT/movie/45981"},{"id":45980,"title":"Один перед любовью","kp_id":"473860","imdb_id":null,"world_art_id":null,"type":"movie","add":"2020-12-10 15:52:58","orig_title":"Один перед любовью","year":"1971-07-26","translations":["Оригинальная дорожка"],"quality":"vhs","translation":"Оригинальная дорожка","update":"2020-12-15 07:19:12","iframe_src":"//8543.svetacdn.in/si4jsFRrtgrT/movie/45980"},{"id":45979,"title":"Они не пройдут","kp_id":"494469","imdb_id":null,"world_art_id":null,"type":"movie","add":"2020-12-10 15:49:01","orig_title":"Они не пройдут","year":"1965-11-07","translations":["Оригинальная дорожка"],"quality":"vhs","translation":"Оригинальная дорожка","update":"2020-12-15 07:07:42","iframe_src":"//8543.svetacdn.in/si4jsFRrtgrT/movie/45979"},{"id":45978,"title":"Осетинская легенда","kp_id":"627768","imdb_id":"tt6738392","world_art_id":null,"type":"movie","add":"2020-12-10 15:46:07","orig_title":"Osetinskaya legenda","year":"1966-07-25","translations":["Оригинальная дорожка"],"quality":"webdl","translation":"Оригинальная дорожка","update":"2020-12-15 07:06:59","iframe_src":"//8543.svetacdn.in/si4jsFRrtgrT/movie/45978"},{"id":45977,"title":"Отзвуки прошлого","kp_id":"224228","imdb_id":"tt0410409","world_art_id":null,"type":"movie","add":"2020-12-10 15:29:41","orig_title":"Antsyali ardzaganqnere","year":"1971-02-23","translations":["Оригинальная дорожка"],"quality":"iptv","translation":"Оригинальная дорожка","update":"2020-12-15 07:06:09","iframe_src":"//8543.svetacdn.in/si4jsFRrtgrT/movie/45977"},{"id":7520,"title":"Дочь за отца","kp_id":"906421","imdb_id":null,"world_art_id":null,"type":"serial","add":"2020-05-15 10:42:54","orig_title":"Дочь за отца","year":"2015-07-25","translations":["Оригинальная дорожка"],"seasons_count":1,"episodes_count":2,"episodes":2,"update":"2020-05-16 03:30:39","iframe_src":"//8543.svetacdn.in/si4jsFRrtgrT/tv-series/7520"},{"id":7517,"title":"Преступный мир","kp_id":"1371852","imdb_id":"tt9680440","world_art_id":null,"type":"serial","add":"2020-05-15 09:08:14","orig_title":"Paatal Lok","year":"2020-05-15","translations":["Любительский (многоголосый закадровый) (ColdFilm)","Любительский (двухголосый закадровый) (KerobTV)","Любительский (многоголосый закадровый) (Octopus)"],"seasons_count":1,"episodes_count":9,"episodes":9,"update":"2020-05-16 06:04:13","iframe_src":"//8543.svetacdn.in/si4jsFRrtgrT/tv-series/7517"},{"id":7516,"title":"Преступный мир","kp_id":"1201113","imdb_id":"tt9095260","world_art_id":null,"type":"serial","add":"2020-05-15 08:01:58","orig_title":"Criminal Justice","year":"2019-04-05","translations":["Любительский (многоголосый закадровый) (Octopus)"],"seasons_count":1,"episodes_count":10,"episodes":10,"update":"2020-05-16 08:44:47","iframe_src":"//8543.svetacdn.in/si4jsFRrtgrT/tv-series/7516"},{"id":7515,"title":"Мышеловка для кота","kp_id":"1377937","imdb_id":null,"world_art_id":null,"type":"serial","add":"2020-05-15 05:41:59","orig_title":"Мышеловка для кота","year":"2020-03-02","translations":["Оригинальная дорожка"],"seasons_count":1,"episodes_count":12,"episodes":12,"update":"2020-05-15 12:00:54","iframe_src":"//8543.svetacdn.in/si4jsFRrtgrT/tv-series/7515"},{"id":7514,"title":"Северное сияние. Древо колдуна. Фильм восьмой","kp_id":"1328483","imdb_id":null,"world_art_id":null,"type":"serial","add":"2020-05-15 05:34:42","orig_title":"Северное сияние. Древо колдуна. Фильм восьмой","year":"2020-05-15","translations":["Оригинальная дорожка"],"seasons_count":1,"episodes_count":2,"episodes":2,"update":"2020-05-15 08:40:32","iframe_src":"//8543.svetacdn.in/si4jsFRrtgrT/tv-series/7514"},{"id":7513,"title":"Замкнутый круг","kp_id":"797969","imdb_id":"tt2888334","world_art_id":null,"type":"serial","add":"2020-05-14 21:53:32","orig_title":"Full Circle","year":"2013-10-09","translations":["Профессиональный (многоголосый закадровый) (SET)"],"seasons_count":1,"episodes_count":10,"episodes":10,"update":"2020-05-15 07:59:46","iframe_src":"//8543.svetacdn.in/si4jsFRrtgrT/tv-series/7513"},{"id":7512,"title":"Оправдание","kp_id":"934925","imdb_id":"tt5051400","world_art_id":null,"type":"serial","add":"2020-05-14 21:45:23","orig_title":"Vindication","year":"2019-08-09","translations":["Любительский (многоголосый закадровый) (Octopus)"],"seasons_count":1,"episodes_count":10,"episodes":10,"update":"2020-05-15 07:46:59","iframe_src":"//8543.svetacdn.in/si4jsFRrtgrT/tv-series/7512"},{"id":7511,"title":"Агент по недвижимости","kp_id":"1337562","imdb_id":"tt11523800","world_art_id":null,"type":"serial","add":"2020-05-14 21:42:57","orig_title":"L'agent immobilier","year":"2020-04-30","translations":["Любительский (многоголосый закадровый) (Octopus)"],"seasons_count":1,"episodes_count":4,"episodes":4,"update":"2020-05-15 07:09:33","iframe_src":"//8543.svetacdn.in/si4jsFRrtgrT/tv-series/7511"},{"id":7510,"title":"К западу от свободы","kp_id":"1374320","imdb_id":"tt7520178","world_art_id":null,"type":"serial","add":"2020-05-14 19:23:02","orig_title":"West of Liberty","year":"2019-02-01","translations":["Любительский (многоголосый закадровый) (Octopus)"],"seasons_count":1,"episodes_count":6,"episodes":6,"update":"2020-05-15 07:17:20","iframe_src":"//8543.svetacdn.in/si4jsFRrtgrT/tv-series/7510"},{"id":7508,"title":"Некотируемый","kp_id":"1264789","imdb_id":"tt9184592","world_art_id":null,"type":"serial","add":"2020-05-14 13:51:44","orig_title":"The Unlisted","year":"2019-09-15","translations":["Любительский (многоголосый закадровый) (Octopus)"],"seasons_count":1,"episodes_count":15,"episodes":15,"update":"2020-05-15 12:44:59","iframe_src":"//8543.svetacdn.in/si4jsFRrtgrT/tv-series/7508"},{"id":7502,"title":"Выстрел","kp_id":null,"imdb_id":"tt7194490","world_art_id":null,"type":"serial","add":"2020-05-14 08:07:17","orig_title":"Bang","year":"2017-09-10","translations":["Любительский (многоголосый закадровый) (Octopus)"],"seasons_count":2,"episodes_count":14,"episodes":6,"update":"2020-05-15 10:52:47","iframe_src":"//8543.svetacdn.in/si4jsFRrtgrT/tv-series/7502"},{"id":7488,"title":"Аси","kp_id":"438216","imdb_id":"tt1147691","world_art_id":null,"type":"serial","add":"2020-05-13 10:37:36","orig_title":"Asi","year":"2007-10-26","translations":["Любительский (многоголосый закадровый)"],"seasons_count":2,"episodes_count":71,"episodes":37,"update":"2020-05-16 10:00:56","iframe_src":"//8543.svetacdn.in/si4jsFRrtgrT/tv-series/7488"},{"id":7463,"title":"Озеро","kp_id":"1250892","imdb_id":"tt10051464","world_art_id":null,"type":"serial","add":"2020-05-10 21:14:38","orig_title":"Jezero","year":"2019-08-21","translations":["Любительский (многоголосый закадровый) (Octopus)","Любительский (многоголосый закадровый) (ColdFilm)"],"seasons_count":1,"episodes_count":6,"episodes":6,"update":"2020-05-15 07:06:54","iframe_src":"//8543.svetacdn.in/si4jsFRrtgrT/tv-series/7463"},{"id":7417,"title":"Выше только любовь","kp_id":"1201821","imdb_id":null,"world_art_id":null,"type":"serial","add":"2020-05-06 10:45:37","orig_title":"Выше только любовь","year":"2020-05-05","translations":["Оригинальная дорожка"],"seasons_count":1,"episodes_count":4,"episodes":4,"update":"2020-05-16 09:24:20","iframe_src":"//8543.svetacdn.in/si4jsFRrtgrT/tv-series/7417"},{"id":27481,"title":"Голубая стрела","kp_id":"44540","imdb_id":"tt0312732","world_art_id":null,"type":"movie","add":"2019-06-05 18:30:37","orig_title":"Golubaya strela","year":"1959-01-26","translations":["Оригинальная дорожка"],"quality":"hdtv","translation":"Оригинальная дорожка","update":"2020-12-15 08:02:46","iframe_src":"//8543.svetacdn.in/si4jsFRrtgrT/movie/27481"},{"id":4501,"title":"Долго и счастливо","kp_id":"412472","imdb_id":"tt0759475","world_art_id":null,"type":"serial","add":"2019-05-14 09:36:00","orig_title":"'Til Death","year":"2006-09-06","translations":["Профессиональный (многоголосый закадровый)","Профессиональный (многоголосый закадровый) (SET)"],"seasons_count":4,"episodes_count":81,"episodes":37,"update":"2020-05-15 13:37:23","iframe_src":"//8543.svetacdn.in/si4jsFRrtgrT/tv-series/4501"},{"id":4447,"title":"Мёртв для меня","kp_id":"1171979","imdb_id":"tt8064302","world_art_id":null,"type":"serial","add":"2019-05-04 05:04:00","orig_title":"Dead to Me","year":"2019-05-03","translations":["Полное дублирование (Пифагор)","Профессиональный (многоголосый закадровый) (HDrezka Studio)","Профессиональный (многоголосый закадровый) (TVShows)","Любительский (многоголосый закадровый) (ColdFilm)","Любительский (многоголосый закадровый) (Octopus)","Профессиональный (двухголосый закадровый) (IdeaFilm)"],"seasons_count":2,"episodes_count":20,"episodes":10,"update":"2020-05-15 08:36:54","iframe_src":"//8543.svetacdn.in/si4jsFRrtgrT/tv-series/4447"},{"id":3272,"title":"Динозавр","kp_id":"1006697","imdb_id":null,"world_art_id":null,"type":"serial","add":"2018-10-09 07:26:30","orig_title":"Динозавр","year":"2018-10-08","translations":["Оригинальная дорожка"],"seasons_count":2,"episodes_count":20,"episodes":10,"update":"2020-05-16 08:59:35","iframe_src":"//8543.svetacdn.in/si4jsFRrtgrT/tv-series/3272"},{"id":3220,"title":"Манифест","kp_id":"1138750","imdb_id":"tt8421350","world_art_id":null,"type":"serial","add":"2018-09-26 07:13:07","orig_title":"Manifest","year":"2018-09-24","translations":["Любительский (двухголосый закадровый) (Sunshine Studio)","Профессиональный (многоголосый закадровый) (NewStudio)","Профессиональный (многоголосый закадровый) (LostFilm)","Профессиональный (многоголосый закадровый) (ColdFilm)","Профессиональный (многоголосый закадровый) (HDrezka Studio)","Профессиональный (многоголосый закадровый) (IdeaFilm)","Профессиональный (двухголосый закадровый) (LostFilm)","Любительский (многоголосый закадровый) (Octopus)","Профессиональный (многоголосый закадровый) (TVShows)","Любительский (многоголосый закадровый) (ColdFilm)","Любительский (многоголосый закадровый) (WestFilm)","Профессиональный (двухголосый закадровый) (IdeaFilm)","Любительский (двухголосый закадровый) (KerobTV)","Любительский (многоголосый закадровый) (KerobTV)"],"seasons_count":2,"episodes_count":29,"episodes":13,"update":"2020-05-15 08:38:02","iframe_src":"//8543.svetacdn.in/si4jsFRrtgrT/tv-series/3220"},{"id":3092,"title":"Марс","kp_id":"975850","imdb_id":"tt4939064","world_art_id":null,"type":"serial","add":"2018-08-28 04:41:20","orig_title":"Mars","year":"2016-11-13","translations":["Профессиональный (многоголосый закадровый) (BaibaKo)","Профессиональный (многоголосый закадровый) (HDrezka Studio)","Профессиональный (многоголосый закадровый) (AMS)"],"seasons_count":2,"episodes_count":12,"episodes":6,"update":"2020-05-15 15:53:56","iframe_src":"//8543.svetacdn.in/si4jsFRrtgrT/tv-series/3092"},{"id":1474,"title":"Сорйонен","kp_id":"1047716","imdb_id":"tt4937942","world_art_id":null,"type":"serial","add":"2017-08-16 14:05:40","orig_title":"Sorjonen","year":"2016-10-16","translations":["Профессиональный (двухголосый закадровый) (ViruseProject)","Профессиональный (многоголосый закадровый) (HDrezka Studio)","Любительский (многоголосый закадровый) (Octopus)"],"seasons_count":3,"episodes_count":30,"episodes":9,"update":"2020-05-15 11:14:36","iframe_src":"//8543.svetacdn.in/si4jsFRrtgrT/tv-series/1474"}],"current_page":179,"first_page_url":"https://videocdn.tv/api/short?limit=100&api_token=X6EwAUfE5M9xbo7y0Bp0aPf3uXxG2KLL&cache3179=3179&page=1","from":17801,"last_page":597,"last_page_url":"https://videocdn.tv/api/short?limit=100&api_token=X6EwAUfE5M9xbo7y0Bp0aPf3uXxG2KLL&cache3179=3179&page=597","next_page_url":"https://videocdn.tv/api/short?limit=100&api_token=X6EwAUfE5M9xbo7y0Bp0aPf3uXxG2KLL&cache3179=3179&page=180","path":"https://videocdn.tv/api/short","per_page":100,"prev_page_url":"https://videocdn.tv/api/short?limit=100&api_token=X6EwAUfE5M9xbo7y0Bp0aPf3uXxG2KLL&cache3179=3179&page=178","to":17840,"total":59627}