{"result":true,"data":[{"id":13797,"title":"Город клоунов","kp_id":"895256","imdb_id":"tt4577344","world_art_id":null,"type":"movie","add":"2017-10-09 22:56:05","orig_title":"ClownTown","year":"2017-06-27","translations":["Любительский (многоголосый закадровый) (@MUZOBOZ@)"],"quality":"bd","translation":"Любительский (многоголосый закадровый) (@MUZOBOZ@)","update":"2017-10-10 08:15:07","iframe_src":"//83.svetacdn.in/PfJ50H0ZBPg3/movie/13797"},{"id":13794,"title":"Астероид :Смертельный удар","kp_id":"902656","imdb_id":"tt4529524","world_art_id":null,"type":"movie","add":"2017-10-09 22:50:49","orig_title":"Meteor Assault","year":"2015-09-19","translations":["Любительский (многоголосый закадровый) (Синема УС)"],"quality":"webdl","translation":"Любительский (многоголосый закадровый) (Синема УС)","update":"2017-10-10 08:12:00","iframe_src":"//83.svetacdn.in/PfJ50H0ZBPg3/movie/13794"},{"id":13788,"title":"Последний из царей","kp_id":"617614","imdb_id":"tt1830848","world_art_id":null,"type":"movie","add":"2017-10-09 22:11:10","orig_title":"The Last King","year":"2012-06-01","translations":["Любительский (многоголосый закадровый) (Синема УС)"],"quality":"webdl","translation":"Любительский (многоголосый закадровый) (Синема УС)","update":"2017-10-10 07:07:03","iframe_src":"//83.svetacdn.in/PfJ50H0ZBPg3/movie/13788"},{"id":13787,"title":"На хвосте","kp_id":"847911","imdb_id":"tt4100252","world_art_id":null,"type":"movie","add":"2017-10-09 22:05:08","orig_title":"The Tail Job","year":"2015-10-09","translations":["Любительский (многоголосый закадровый) (Синема УС)"],"quality":"webdl","translation":"Любительский (многоголосый закадровый) (Синема УС)","update":"2017-10-10 07:02:57","iframe_src":"//83.svetacdn.in/PfJ50H0ZBPg3/movie/13787"},{"id":13785,"title":"Отпуск","kp_id":"1008026","imdb_id":"tt6025626","world_art_id":null,"type":"movie","add":"2017-10-09 21:38:41","orig_title":"Hyooga","year":"2016-12-08","translations":["Любительский (многоголосый закадровый) (Синема УС)"],"quality":"webdl","translation":"Любительский (многоголосый закадровый) (Синема УС)","update":"2017-10-10 06:52:12","iframe_src":"//83.svetacdn.in/PfJ50H0ZBPg3/movie/13785"},{"id":13783,"title":"Подобный дракону","kp_id":"281276","imdb_id":"tt0991243","world_art_id":null,"type":"movie","add":"2017-10-08 10:05:53","orig_title":"Ryû ga gotoku: gekijô-ban","year":"2007-03-03","translations":["Профессиональный (многоголосый закадровый)"],"quality":"webdl","translation":"Профессиональный (многоголосый закадровый)","update":"2017-10-09 12:00:44","iframe_src":"//83.svetacdn.in/PfJ50H0ZBPg3/movie/13783"},{"id":13782,"title":"Сердце дракона: Начало","kp_id":"94216","imdb_id":"tt0214641","world_art_id":null,"type":"movie","add":"2017-10-08 10:04:38","orig_title":"Dragonheart: A New Beginning","year":"2000-01-01","translations":["Профессиональный (многоголосый закадровый)"],"quality":"hdrip","translation":"Профессиональный (многоголосый закадровый)","update":"2017-10-09 11:59:28","iframe_src":"//83.svetacdn.in/PfJ50H0ZBPg3/movie/13782"},{"id":13781,"title":"Объятия вампира","kp_id":"793909","imdb_id":"tt3148890","world_art_id":null,"type":"movie","add":"2017-10-08 10:03:23","orig_title":"Embrace of the Vampire","year":"2013-10-15","translations":["Профессиональный (многоголосый закадровый) (iTunes)"],"quality":"bd","translation":"Профессиональный (многоголосый закадровый) (iTunes)","update":"2017-10-09 11:57:52","iframe_src":"//83.svetacdn.in/PfJ50H0ZBPg3/movie/13781"},{"id":13779,"title":"Астероид","kp_id":"95610","imdb_id":"tt0118261","world_art_id":null,"type":"movie","add":"2017-10-08 10:01:09","orig_title":"Asteroid","year":"1997-02-16","translations":["Профессиональный (двухголосый закадровый)"],"quality":"dvdrip","translation":"Профессиональный (двухголосый закадровый)","update":"2017-10-09 11:56:22","iframe_src":"//83.svetacdn.in/PfJ50H0ZBPg3/movie/13779"},{"id":13778,"title":"Суперменеджер, или Мотыга судьбы","kp_id":"402980","imdb_id":"tt1844048","world_art_id":null,"type":"movie","add":"2017-10-08 09:59:45","orig_title":"Supermenedzher, ili Motyga sudby","year":"2011-05-19","translations":["Оригинальная дорожка"],"quality":"bd","translation":"Оригинальная дорожка","update":"2017-10-09 11:55:26","iframe_src":"//83.svetacdn.in/PfJ50H0ZBPg3/movie/13778"},{"id":13684,"title":"Снайпер: Идеальное убийство","kp_id":"1026627","imdb_id":"tt6349302","world_art_id":null,"type":"movie","add":"2017-10-02 21:25:38","orig_title":"Sniper: Ultimate Kill","year":"2017-10-03","translations":["Профессиональный (многоголосый закадровый)"],"quality":"bd","translation":"Профессиональный (многоголосый закадровый)","update":"2017-10-10 07:21:52","iframe_src":"//83.svetacdn.in/PfJ50H0ZBPg3/movie/13684"},{"id":13659,"title":"Малые часы","kp_id":"976518","imdb_id":"tt5666304","world_art_id":null,"type":"movie","add":"2017-09-28 05:03:08","orig_title":"The Little Hours","year":"2017-01-19","translations":["Любительский (многоголосый закадровый) (Синема УС)"],"quality":"bd","translation":"Любительский (многоголосый закадровый) (Синема УС)","update":"2017-10-10 07:05:12","iframe_src":"//83.svetacdn.in/PfJ50H0ZBPg3/movie/13659"},{"id":13423,"title":"Подвал","kp_id":"932085","imdb_id":"tt4942478","world_art_id":null,"type":"movie","add":"2017-09-11 21:13:25","orig_title":"The Basement","year":"2017-04-28","translations":["Любительский (многоголосый закадровый) (Синема УС)","Профессиональный (многоголосый закадровый) (GreenРай Studio)"],"quality":"webdl","translation":"Любительский (многоголосый закадровый) (Синема УС)","update":"2017-10-10 07:19:52","iframe_src":"//83.svetacdn.in/PfJ50H0ZBPg3/movie/13423"},{"id":13352,"title":"Маленькое зло","kp_id":"766355","imdb_id":"tt2937366","world_art_id":null,"type":"movie","add":"2017-09-04 23:21:12","orig_title":"Little Evil","year":"2017-09-01","translations":["Любительский (многоголосый закадровый) (@MUZOBOZ@)","Профессиональный (многоголосый закадровый) (GreenРай Studio)"],"quality":"webdl","translation":"Любительский (многоголосый закадровый) (@MUZOBOZ@)","update":"2017-10-10 07:33:34","iframe_src":"//83.svetacdn.in/PfJ50H0ZBPg3/movie/13352"},{"id":12883,"title":"Акулий торнадо 5: Глобальное роение","kp_id":"1024537","imdb_id":"tt6298780","world_art_id":null,"type":"movie","add":"2017-08-09 11:45:10","orig_title":"Sharknado 5: Global Swarming","year":"2017-08-06","translations":["Любительский (многоголосый закадровый) (Синема УС)"],"quality":"bd","translation":"Любительский (многоголосый закадровый) (Синема УС)","update":"2017-10-10 07:24:32","iframe_src":"//83.svetacdn.in/PfJ50H0ZBPg3/movie/12883"},{"id":12793,"title":"Послание от Кинга","kp_id":"566308","imdb_id":"tt1712192","world_art_id":null,"type":"movie","add":"2017-08-06 11:59:20","orig_title":"Message from the King","year":"2016-09-08","translations":["Любительский (многоголосый закадровый) (GreenРай Studio)","Любительский (многоголосый закадровый) (Синема УС)"],"quality":"webdl","translation":"Любительский (многоголосый закадровый) (GreenРай Studio)","update":"2017-10-10 07:30:42","iframe_src":"//83.svetacdn.in/PfJ50H0ZBPg3/movie/12793"},{"id":10547,"title":"Виртуальная революция","kp_id":"873134","imdb_id":"tt4054004","world_art_id":null,"type":"movie","add":"2017-03-26 23:29:23","orig_title":"Virtual Revolution","year":"2016-05-11","translations":["Любительский (многоголосый закадровый) (Синема УС)"],"quality":"bd","translation":"Любительский (многоголосый закадровый) (Синема УС)","update":"2017-10-10 07:00:43","iframe_src":"//83.svetacdn.in/PfJ50H0ZBPg3/movie/10547"},{"id":9484,"title":"Команда мечты","kp_id":"910501","imdb_id":"tt4676238","world_art_id":null,"type":"movie","add":"2017-02-07 08:04:00","orig_title":"La Dream Team","year":"2016-03-16","translations":["Профессиональный (многоголосый закадровый)"],"quality":"bd","translation":"Профессиональный (многоголосый закадровый)","update":"2017-10-10 07:38:46","iframe_src":"//83.svetacdn.in/PfJ50H0ZBPg3/movie/9484"},{"id":7970,"title":"Холлеры","kp_id":"841274","imdb_id":"tt3714720","world_art_id":null,"type":"movie","add":"2016-12-11 05:30:03","orig_title":"The Hollars","year":"2016-01-24","translations":["Любительский (многоголосый закадровый) (@MUZOBOZ@)","Профессиональный (многоголосый закадровый)"],"quality":"bd","translation":"Любительский (многоголосый закадровый) (@MUZOBOZ@)","update":"2017-10-10 07:11:11","iframe_src":"//83.svetacdn.in/PfJ50H0ZBPg3/movie/7970"},{"id":4472,"title":"Земля обетованная","kp_id":"944367","imdb_id":"tt5164412","world_art_id":null,"type":"movie","add":"2016-08-17 05:51:40","orig_title":"The Land","year":"2016-01-26","translations":["Любительский (многоголосый закадровый) (Студия Пиратского Дубляжа)","Профессиональный (многоголосый закадровый) (GreenРай Studio)"],"quality":"webdl","translation":"Любительский (многоголосый закадровый) (Студия Пиратского Дубляжа)","update":"2017-10-10 07:08:54","iframe_src":"//83.svetacdn.in/PfJ50H0ZBPg3/movie/4472"}],"current_page":1905,"first_page_url":"https://videocdn.tv/api/short?limit=100&api_token=RgFQdUIR2dRmwv8iYa5SnFNgnw3vpjKj&cache31905=31905&page=1","from":190401,"last_page":605,"last_page_url":"https://videocdn.tv/api/short?limit=100&api_token=RgFQdUIR2dRmwv8iYa5SnFNgnw3vpjKj&cache31905=31905&page=605","next_page_url":null,"path":"https://videocdn.tv/api/short","per_page":100,"prev_page_url":"https://videocdn.tv/api/short?limit=100&api_token=RgFQdUIR2dRmwv8iYa5SnFNgnw3vpjKj&cache31905=31905&page=1904","to":190420,"total":60438}