{"result":true,"data":[{"id":46344,"title":"Похищенный","kp_id":"1355960","imdb_id":"tt11965986","world_art_id":null,"type":"movie","add":"2020-12-23 19:02:19","orig_title":"Bound by Law","year":"2020-12-19","translations":["Любительский (многоголосый закадровый) (Синема УС)"],"quality":"webdl","translation":"Любительский (многоголосый закадровый) (Синема УС)","update":"2020-12-24 06:43:58","iframe_src":"//8209.svetacdn.in/si4jsFRrtgrT/movie/46344"},{"id":46334,"title":"Убойные выходные","kp_id":"1211531","imdb_id":"tt9314862","world_art_id":null,"type":"movie","add":"2020-12-23 10:15:21","orig_title":"GetAWAY","year":"2020-12-22","translations":["Любительский (многоголосый закадровый) (Синема УС)"],"quality":"webdl","translation":"Любительский (многоголосый закадровый) (Синема УС)","update":"2020-12-24 04:13:22","iframe_src":"//8209.svetacdn.in/si4jsFRrtgrT/movie/46334"},{"id":46333,"title":"Герои и трусы","kp_id":"1213661","imdb_id":"tt9257920","world_art_id":null,"type":"movie","add":"2020-12-23 10:14:14","orig_title":"Heroes and Cowards","year":"2019-07-19","translations":["Любительский (многоголосый закадровый) (AlphaProject)"],"quality":"webdl","translation":"Любительский (многоголосый закадровый) (AlphaProject)","update":"2020-12-24 07:48:04","iframe_src":"//8209.svetacdn.in/si4jsFRrtgrT/movie/46333"},{"id":46332,"title":"Любовные чары","kp_id":"1396214","imdb_id":"tt12436252","world_art_id":null,"type":"movie","add":"2020-12-23 10:12:26","orig_title":"Loves Spell","year":"2020-12-22","translations":["Любительский (многоголосый закадровый) (Синема УС)"],"quality":"webdl","translation":"Любительский (многоголосый закадровый) (Синема УС)","update":"2020-12-24 04:12:39","iframe_src":"//8209.svetacdn.in/si4jsFRrtgrT/movie/46332"},{"id":46327,"title":"Люби, повтори","kp_id":"1105493","imdb_id":"tt7677060","world_art_id":null,"type":"movie","add":"2020-12-23 06:08:03","orig_title":"Love, Repeat","year":"2020-12-22","translations":["Любительский (многоголосый закадровый) (Синема УС)"],"quality":"webdl","translation":"Любительский (многоголосый закадровый) (Синема УС)","update":"2020-12-24 05:30:47","iframe_src":"//8209.svetacdn.in/si4jsFRrtgrT/movie/46327"},{"id":46326,"title":"Не забывай меня","kp_id":"1109702","imdb_id":"tt6632276","world_art_id":null,"type":"movie","add":"2020-12-23 06:06:16","orig_title":"Forget Me Not","year":"2019-11-16","translations":["Любительский (многоголосый закадровый) (Синема УС)"],"quality":"webdl","translation":"Любительский (многоголосый закадровый) (Синема УС)","update":"2020-12-24 07:46:59","iframe_src":"//8209.svetacdn.in/si4jsFRrtgrT/movie/46326"},{"id":46325,"title":"Мальчики против девочек","kp_id":"1109530","imdb_id":"tt7600704","world_art_id":null,"type":"movie","add":"2020-12-23 06:05:05","orig_title":"Boys vs. Girls","year":"2019-10-25","translations":["Любительский (многоголосый закадровый) (Синема УС)"],"quality":"webdl","translation":"Любительский (многоголосый закадровый) (Синема УС)","update":"2020-12-24 07:46:46","iframe_src":"//8209.svetacdn.in/si4jsFRrtgrT/movie/46325"},{"id":46321,"title":"Обскура","kp_id":"864190","imdb_id":"tt3576242","world_art_id":null,"type":"movie","add":"2020-12-22 18:58:04","orig_title":"Obscura","year":"2017-01-01","translations":["Любительский (многоголосый закадровый) (Синема УС)"],"quality":"webdl","translation":"Любительский (многоголосый закадровый) (Синема УС)","update":"2020-12-24 07:00:20","iframe_src":"//8209.svetacdn.in/si4jsFRrtgrT/movie/46321"},{"id":46319,"title":"Опасная связь","kp_id":"1322215","imdb_id":"tt11178946","world_art_id":null,"type":"movie","add":"2020-12-22 18:54:51","orig_title":"The Wrong Affair","year":"2019-10-25","translations":["Любительский (многоголосый закадровый) (AlphaProject)"],"quality":"webdl","translation":"Любительский (многоголосый закадровый) (AlphaProject)","update":"2020-12-24 07:02:18","iframe_src":"//8209.svetacdn.in/si4jsFRrtgrT/movie/46319"},{"id":46318,"title":"Птичий язык","kp_id":"1186111","imdb_id":"tt8830002","world_art_id":null,"type":"movie","add":"2020-12-22 18:53:22","orig_title":"Mowa ptaków","year":"2019-08-01","translations":["Любительский (многоголосый закадровый) (Синема УС)"],"quality":"webdl","translation":"Любительский (многоголосый закадровый) (Синема УС)","update":"2020-12-24 07:03:20","iframe_src":"//8209.svetacdn.in/si4jsFRrtgrT/movie/46318"},{"id":46317,"title":"Убийства в 4К","kp_id":null,"imdb_id":"tt11078342","world_art_id":null,"type":"movie","add":"2020-12-22 18:51:57","orig_title":"4K Killer","year":"2019-09-13","translations":["Любительский (многоголосый закадровый) (Синема УС)"],"quality":"webdl","translation":"Любительский (многоголосый закадровый) (Синема УС)","update":"2020-12-24 07:03:57","iframe_src":"//8209.svetacdn.in/si4jsFRrtgrT/movie/46317"},{"id":46315,"title":"Незнакомый гость","kp_id":"1319288","imdb_id":"tt11219342","world_art_id":null,"type":"movie","add":"2020-12-22 18:45:47","orig_title":"Unknown Visitor","year":"2019-10-15","translations":["Любительский (многоголосый закадровый) (Синема УС)"],"quality":"webdl","translation":"Любительский (многоголосый закадровый) (Синема УС)","update":"2020-12-24 07:04:38","iframe_src":"//8209.svetacdn.in/si4jsFRrtgrT/movie/46315"},{"id":46297,"title":"Может быть, завтра","kp_id":"1308943","imdb_id":"tt8714576","world_art_id":null,"type":"movie","add":"2020-12-22 10:42:46","orig_title":"Maybe Tomorrow","year":"2019-04-05","translations":["Любительский (многоголосый закадровый) (Синема УС)"],"quality":"webdl","translation":"Любительский (многоголосый закадровый) (Синема УС)","update":"2020-12-23 19:25:39","iframe_src":"//8209.svetacdn.in/si4jsFRrtgrT/movie/46297"},{"id":46206,"title":"Двое на качелях","kp_id":"2575","imdb_id":"tt0056626","world_art_id":null,"type":"movie","add":"2020-12-18 10:59:04","orig_title":"Two for the Seesaw","year":"1962-11-21","translations":["Авторский (одноголосый закадровый) (Кашкин Александр | Первомайский)"],"quality":"bd","translation":"Авторский (одноголосый закадровый) (Кашкин Александр | Первомайский)","update":"2020-12-24 13:40:47","iframe_src":"//8209.svetacdn.in/si4jsFRrtgrT/movie/46206"},{"id":46190,"title":"Убийство в школе","kp_id":"3877","imdb_id":"tt0074875","world_art_id":null,"type":"movie","add":"2020-12-18 09:09:26","orig_title":"Massacre at Central High","year":"1976-11-10","translations":["Авторский (одноголосый закадровый) (Назаров Вадим)"],"quality":"bd","translation":"Авторский (одноголосый закадровый) (Назаров Вадим)","update":"2020-12-24 13:39:42","iframe_src":"//8209.svetacdn.in/si4jsFRrtgrT/movie/46190"},{"id":46145,"title":"Порча","kp_id":"1238352","imdb_id":"tt9719452","world_art_id":null,"type":"movie","add":"2020-12-16 18:32:28","orig_title":"Heks","year":"2020-12-14","translations":["Любительский (многоголосый закадровый) (Синема УС)","Любительский (одноголосый закадровый) (datynet | Агапов Антон)"],"quality":"webdl","translation":"Любительский (многоголосый закадровый) (Синема УС)","update":"2020-12-24 13:36:47","iframe_src":"//8209.svetacdn.in/si4jsFRrtgrT/movie/46145"},{"id":41271,"title":"Вихрь","kp_id":"1251543","imdb_id":"tt10074486","world_art_id":null,"type":"movie","add":"2020-06-18 20:28:26","orig_title":"Ting er zou xian","year":"2019-06-21","translations":["Любительский (одноголосый закадровый) (Franek Monk)","Любительский (одноголосый закадровый) (Franek Monk)"],"quality":"webdl","translation":"Любительский (одноголосый закадровый) (Franek Monk)","update":"2020-12-24 13:37:32","iframe_src":"//8209.svetacdn.in/si4jsFRrtgrT/movie/41271"},{"id":2041,"title":"Анна Каренина","kp_id":"252077","imdb_id":"tt0403726","world_art_id":null,"type":"serial","add":"2018-02-07 13:38:35","orig_title":"Anna Karenina","year":"2009-02-08","translations":["Оригинальная дорожка"],"seasons_count":1,"episodes_count":5,"episodes":5,"update":"2018-02-08 10:51:38","iframe_src":"//8209.svetacdn.in/si4jsFRrtgrT/tv-series/2041"},{"id":2040,"title":"Пингвины из Мадагаскара","kp_id":"419621","imdb_id":"tt0892700","world_art_id":null,"type":"serial","add":"2018-02-07 11:56:08","orig_title":"The Penguins of Madagascar","year":"2008-11-29","translations":["Полное дублирование"],"seasons_count":1,"episodes_count":25,"episodes":25,"update":"2018-02-08 09:58:03","iframe_src":"//8209.svetacdn.in/si4jsFRrtgrT/tv-series/2040"},{"id":2034,"title":"Родина ждет","kp_id":"77347","imdb_id":"tt0388605","world_art_id":null,"type":"serial","add":"2018-02-06 14:40:52","orig_title":"Rodina zhdyot","year":"2003-11-24","translations":["Оригинальная дорожка"],"seasons_count":1,"episodes_count":6,"episodes":6,"update":"2018-02-07 10:34:58","iframe_src":"//8209.svetacdn.in/si4jsFRrtgrT/tv-series/2034"},{"id":2033,"title":"Курсанты","kp_id":"160897","imdb_id":"tt0461876","world_art_id":null,"type":"serial","add":"2018-02-06 14:36:23","orig_title":"Kursanty","year":"2005-02-17","translations":["Оригинальная дорожка"],"seasons_count":1,"episodes_count":10,"episodes":10,"update":"2018-02-07 10:19:52","iframe_src":"//8209.svetacdn.in/si4jsFRrtgrT/tv-series/2033"},{"id":2032,"title":"Судебная колонка","kp_id":"425994","imdb_id":"tt1396406","world_art_id":null,"type":"serial","add":"2018-02-06 14:32:06","orig_title":"Sudebnaya kolonka","year":"2008-09-30","translations":["Оригинальная дорожка"],"seasons_count":1,"episodes_count":12,"episodes":12,"update":"2018-02-08 10:44:07","iframe_src":"//8209.svetacdn.in/si4jsFRrtgrT/tv-series/2032"},{"id":2031,"title":"Племена и империи: Гроза пророчества","kp_id":"1097427","imdb_id":"tt6491428","world_art_id":null,"type":"serial","add":"2018-02-06 09:47:35","orig_title":"Tribes and Empires: Storm of Prophecy","year":"2017-11-21","translations":["Любительский (двухголосый закадровый)"],"seasons_count":1,"episodes_count":75,"episodes":75,"update":"2018-02-07 08:20:42","iframe_src":"//8209.svetacdn.in/si4jsFRrtgrT/tv-series/2031"},{"id":2029,"title":"Выбор","kp_id":"1112099","imdb_id":null,"world_art_id":null,"type":"serial","add":"2018-02-05 10:58:01","orig_title":"Выбор","year":"2018-02-03","translations":["Оригинальная дорожка"],"seasons_count":1,"episodes_count":2,"episodes":2,"update":"2018-02-05 16:30:07","iframe_src":"//8209.svetacdn.in/si4jsFRrtgrT/tv-series/2029"},{"id":2028,"title":"Шеф. Игра на повышение","kp_id":"986660","imdb_id":null,"world_art_id":null,"type":"serial","add":"2018-02-05 10:53:27","orig_title":"Шеф. Игра на повышение","year":"2017-05-29","translations":["Оригинальная дорожка"],"seasons_count":1,"episodes_count":20,"episodes":20,"update":"2018-02-05 22:38:35","iframe_src":"//8209.svetacdn.in/si4jsFRrtgrT/tv-series/2028"},{"id":2027,"title":"Шеф 3","kp_id":"840607","imdb_id":"tt5026502","world_art_id":null,"type":"serial","add":"2018-02-05 10:07:01","orig_title":"Shef 3","year":"2015-09-14","translations":["Оригинальная дорожка"],"seasons_count":1,"episodes_count":32,"episodes":32,"update":"2018-02-06 09:32:06","iframe_src":"//8209.svetacdn.in/si4jsFRrtgrT/tv-series/2027"},{"id":2026,"title":"Шеф 2","kp_id":"738458","imdb_id":"tt4113966","world_art_id":null,"type":"serial","add":"2018-02-05 09:48:00","orig_title":"Shef 2","year":"2013-11-05","translations":["Оригинальная дорожка"],"seasons_count":1,"episodes_count":32,"episodes":32,"update":"2018-02-05 22:26:10","iframe_src":"//8209.svetacdn.in/si4jsFRrtgrT/tv-series/2026"},{"id":2024,"title":"Смерть шпионам!","kp_id":"336434","imdb_id":"tt3590190","world_art_id":null,"type":"serial","add":"2018-02-04 19:15:24","orig_title":"Smert shpionam!","year":"2007-06-18","translations":["Оригинальная дорожка"],"seasons_count":1,"episodes_count":8,"episodes":8,"update":"2018-02-07 13:24:11","iframe_src":"//8209.svetacdn.in/si4jsFRrtgrT/tv-series/2024"},{"id":2023,"title":"Секунда до...","kp_id":"397414","imdb_id":"tt4391388","world_art_id":null,"type":"serial","add":"2018-02-04 19:10:36","orig_title":"Sekunda do...","year":"2007-01-01","translations":["Оригинальная дорожка"],"seasons_count":1,"episodes_count":8,"episodes":8,"update":"2018-02-07 14:01:21","iframe_src":"//8209.svetacdn.in/si4jsFRrtgrT/tv-series/2023"},{"id":2022,"title":"Отряд","kp_id":"432367","imdb_id":"tt3067930","world_art_id":null,"type":"serial","add":"2018-02-04 19:07:28","orig_title":"Otryad","year":"2008-01-01","translations":["Оригинальная дорожка"],"seasons_count":1,"episodes_count":16,"episodes":16,"update":"2018-02-08 09:34:20","iframe_src":"//8209.svetacdn.in/si4jsFRrtgrT/tv-series/2022"},{"id":2021,"title":"Морской патруль","kp_id":"414931","imdb_id":"tt4370422","world_art_id":null,"type":"serial","add":"2018-02-04 19:00:06","orig_title":"Morskoy patrul","year":"2008-06-02","translations":["Оригинальная дорожка"],"seasons_count":1,"episodes_count":8,"episodes":8,"update":"2018-02-06 08:56:49","iframe_src":"//8209.svetacdn.in/si4jsFRrtgrT/tv-series/2021"},{"id":2020,"title":"Если у Вас нету тети","kp_id":"424956","imdb_id":"tt3521418","world_art_id":null,"type":"serial","add":"2018-02-04 18:55:36","orig_title":"Esli u Vas netu teti...","year":"2008-09-25","translations":["Оригинальная дорожка"],"seasons_count":1,"episodes_count":8,"episodes":8,"update":"2018-02-06 08:47:36","iframe_src":"//8209.svetacdn.in/si4jsFRrtgrT/tv-series/2020"},{"id":2019,"title":"Четыре кризиса любви","kp_id":"1112150","imdb_id":null,"world_art_id":null,"type":"serial","add":"2018-02-04 18:50:16","orig_title":"Четыре кризиса любви","year":"2018-02-02","translations":["Оригинальная дорожка"],"seasons_count":1,"episodes_count":2,"episodes":2,"update":"2018-02-05 15:55:41","iframe_src":"//8209.svetacdn.in/si4jsFRrtgrT/tv-series/2019"},{"id":2008,"title":"Управление гневом","kp_id":"596247","imdb_id":"tt1986770","world_art_id":null,"type":"serial","add":"2018-01-29 11:48:38","orig_title":"Anger Management","year":"2012-06-28","translations":["Профессиональный (многоголосый закадровый) (LostFilm)"],"seasons_count":2,"episodes_count":100,"episodes":90,"update":"2018-02-08 07:46:57","iframe_src":"//8209.svetacdn.in/si4jsFRrtgrT/tv-series/2008"},{"id":1945,"title":"Я люблю своего мужа","kp_id":"998751","imdb_id":null,"world_art_id":null,"type":"serial","add":"2018-01-14 06:18:51","orig_title":"Я люблю своего мужа","year":"2016-12-31","translations":["Оригинальная дорожка"],"seasons_count":1,"episodes_count":4,"episodes":4,"update":"2018-02-06 16:10:04","iframe_src":"//8209.svetacdn.in/si4jsFRrtgrT/tv-series/1945"},{"id":1839,"title":"Белла и Бульдоги","kp_id":"891742","imdb_id":"tt3596178","world_art_id":null,"type":"serial","add":"2017-12-11 19:26:50","orig_title":"Bella and the Bulldogs","year":"2015-01-17","translations":["Полное дублирование"],"seasons_count":2,"episodes_count":39,"episodes":20,"update":"2018-02-08 09:36:41","iframe_src":"//8209.svetacdn.in/si4jsFRrtgrT/tv-series/1839"},{"id":513,"title":"Последние пантеры","kp_id":"891608","imdb_id":"tt4075386","world_art_id":null,"type":"serial","add":"2016-10-06 06:01:26","orig_title":"The Last Panthers","year":"2015-10-26","translations":["Профессиональный (двухголосый закадровый) (Gears Media)","Профессиональный (многоголосый закадровый) (AlexFilm)"],"seasons_count":1,"episodes_count":6,"episodes":6,"update":"2018-02-07 08:03:55","iframe_src":"//8209.svetacdn.in/si4jsFRrtgrT/tv-series/513"},{"id":1960,"title":"Неприкасаемые","kp_id":"533","imdb_id":"tt0094226","world_art_id":null,"type":"movie","add":"2016-05-07 09:55:54","orig_title":"The Untouchables","year":"1987-06-02","translations":["Профессиональный (многоголосый закадровый)","Авторский (одноголосый закадровый) (Горчаков Василий)","Авторский (одноголосый закадровый) (Михалёв Алексей)","Авторский (одноголосый закадровый) (Володарский Леонид)","Авторский (одноголосый закадровый) (Яроцкий Михаил | Kyberpunk)","Авторский (одноголосый закадровый) (Живов Юрий)","Original (English)","Профессиональный (двухголосый закадровый) (НТВ)","Профессиональный (двухголосый закадровый) (Премьер Видео Фильм)","Профессиональный (многоголосый закадровый)","Профессиональный (многоголосый закадровый) (Позитив)","Профессиональный (многоголосый закадровый) (Film Prestige)"],"quality":"bd","translation":"Профессиональный (многоголосый закадровый)","update":"2020-12-24 12:42:28","iframe_src":"//8209.svetacdn.in/si4jsFRrtgrT/movie/1960"},{"id":1348,"title":"Терминатор 2: Судный день","kp_id":"444","imdb_id":"tt0103064","world_art_id":null,"type":"movie","add":"2016-04-20 22:07:09","orig_title":"Terminator 2: Judgment Day","year":"1991-07-01","translations":["Профессиональный (многоголосый закадровый)","Original (English)","Авторский (одноголосый закадровый) (Гаврилов Андрей)","Авторский (одноголосый закадровый) (Гоблин | Пучков Дмитрий)","Авторский (одноголосый закадровый) (Гаврилов Андрей)","Авторский (одноголосый закадровый) (Гоблин | Пучков Дмитрий)","Авторский (одноголосый закадровый) (Горчаков Василий)","Авторский (одноголосый закадровый) (Живов Юрий)","Original (English)","Профессиональный (многоголосый закадровый) (CP Digital)","Профессиональный (многоголосый закадровый) (Киномания)","Профессиональный (многоголосый закадровый) (Первый канал | ОРТ)","Профессиональный (многоголосый закадровый) (Позитив)","Профессиональный (многоголосый закадровый) (ТВ6)"],"quality":"bd","translation":"Профессиональный (многоголосый закадровый)","update":"2020-12-24 12:53:26","iframe_src":"//8209.svetacdn.in/si4jsFRrtgrT/movie/1348"},{"id":427,"title":"Брюс Всемогущий","kp_id":"39577","imdb_id":"tt0315327","world_art_id":null,"type":"movie","add":"2016-04-01 17:29:27","orig_title":"Bruce Almighty","year":"2003-05-23","translations":["Полное дублирование","Original (English)","Авторский (одноголосый закадровый) (Рудой Евгений)","Любительский (двухголосый закадровый)","Профессиональный (многоголосый закадровый) (СТС)","Профессиональный (двухголосый закадровый)"],"quality":"bd","translation":"Полное дублирование","update":"2020-12-24 13:38:23","iframe_src":"//8209.svetacdn.in/si4jsFRrtgrT/movie/427"}],"current_page":490,"first_page_url":"https://videocdn.tv/api/short?limit=100&api_token=X6EwAUfE5M9xbo7y0Bp0aPf3uXxG2KLL&cache3490=3490&page=1","from":48901,"last_page":656,"last_page_url":"https://videocdn.tv/api/short?limit=100&api_token=X6EwAUfE5M9xbo7y0Bp0aPf3uXxG2KLL&cache3490=3490&page=656","next_page_url":"https://videocdn.tv/api/short?limit=100&api_token=X6EwAUfE5M9xbo7y0Bp0aPf3uXxG2KLL&cache3490=3490&page=491","path":"https://videocdn.tv/api/short","per_page":100,"prev_page_url":"https://videocdn.tv/api/short?limit=100&api_token=X6EwAUfE5M9xbo7y0Bp0aPf3uXxG2KLL&cache3490=3490&page=489","to":48940,"total":65600}