{"result":true,"data":[{"id":31506,"title":"Леди","kp_id":"574315","imdb_id":"tt1802197","world_art_id":null,"type":"movie","add":"2019-10-05 19:08:58","orig_title":"The Lady","year":"2011-09-12","translations":["Профессиональный (многоголосый закадровый)"],"quality":"bd","translation":"Профессиональный (многоголосый закадровый)","update":"2019-10-07 11:45:10","iframe_src":"//83.svetacdn.in/PfJ50H0ZBPg3/movie/31506"},{"id":31476,"title":"Вук","kp_id":"69491","imdb_id":"tt0131636","world_art_id":null,"type":"movie","add":"2019-10-05 12:14:07","orig_title":"Vuk","year":"1981-12-10","translations":["Полное дублирование"],"quality":"dvdrip","translation":"Полное дублирование","update":"2019-10-07 11:25:42","iframe_src":"//83.svetacdn.in/PfJ50H0ZBPg3/movie/31476"},{"id":31474,"title":"По ту сторону Ведьминой горы","kp_id":"329834","imdb_id":"tt0249397","world_art_id":null,"type":"movie","add":"2019-10-04 21:42:19","orig_title":"Beyond Witch Mountain","year":"1982-02-20","translations":["Авторский (одноголосый закадровый) (Алексеев Антон)"],"quality":"dvdrip","translation":"Авторский (одноголосый закадровый) (Алексеев Антон)","update":"2019-10-07 11:24:11","iframe_src":"//83.svetacdn.in/PfJ50H0ZBPg3/movie/31474"},{"id":31473,"title":"Человек, который был суперменом","kp_id":"402940","imdb_id":"tt1119199","world_art_id":null,"type":"movie","add":"2019-10-04 21:32:33","orig_title":"Syoo-peo-maen-i-sseo-deon sa-na-i","year":"2008-01-31","translations":["Любительский (одноголосый закадровый)"],"quality":"dvdrip","translation":"Любительский (одноголосый закадровый)","update":"2019-10-07 11:20:50","iframe_src":"//83.svetacdn.in/PfJ50H0ZBPg3/movie/31473"},{"id":31472,"title":"В объятьях тьмы","kp_id":"59464","imdb_id":"tt0162945","world_art_id":null,"type":"movie","add":"2019-10-04 21:23:22","orig_title":"Embrace the Darkness","year":"1999-10-05","translations":["Профессиональный (двухголосый закадровый)"],"quality":"dvdrip","translation":"Профессиональный (двухголосый закадровый)","update":"2019-10-07 11:15:30","iframe_src":"//83.svetacdn.in/PfJ50H0ZBPg3/movie/31472"},{"id":31471,"title":"Побег на Ведьмину гору","kp_id":"14538","imdb_id":"tt0072951","world_art_id":null,"type":"movie","add":"2019-10-04 20:55:42","orig_title":"Escape to Witch Mountain","year":"1975-03-21","translations":["Профессиональный (многоголосый закадровый)"],"quality":"bd","translation":"Профессиональный (многоголосый закадровый)","update":"2019-10-07 11:14:34","iframe_src":"//83.svetacdn.in/PfJ50H0ZBPg3/movie/31471"},{"id":31467,"title":"Гнев Йети","kp_id":"634294","imdb_id":"tt2082408","world_art_id":null,"type":"movie","add":"2019-10-04 20:41:55","orig_title":"Rage of the Yeti","year":"2011-11-12","translations":["Профессиональный (многоголосый закадровый)"],"quality":"hdtv","translation":"Профессиональный (многоголосый закадровый)","update":"2019-10-07 11:05:40","iframe_src":"//83.svetacdn.in/PfJ50H0ZBPg3/movie/31467"},{"id":31466,"title":"Мальчик А","kp_id":"394744","imdb_id":"tt1078188","world_art_id":null,"type":"movie","add":"2019-10-04 20:37:30","orig_title":"Boy A","year":"2007-09-08","translations":["Профессиональный (многоголосый закадровый)"],"quality":"bd","translation":"Профессиональный (многоголосый закадровый)","update":"2019-10-07 11:02:01","iframe_src":"//83.svetacdn.in/PfJ50H0ZBPg3/movie/31466"},{"id":31464,"title":"Генрих VIII и его шесть жен","kp_id":"14545","imdb_id":"tt0070170","world_art_id":null,"type":"movie","add":"2019-10-04 08:00:12","orig_title":"Henry VIII and His Six Wives","year":"1972-07-13","translations":["Профессиональный (двухголосый закадровый)"],"quality":"hdtv","translation":"Профессиональный (двухголосый закадровый)","update":"2019-10-07 08:32:27","iframe_src":"//83.svetacdn.in/PfJ50H0ZBPg3/movie/31464"},{"id":31463,"title":"Изображение смерти","kp_id":"391417","imdb_id":"tt1054112","world_art_id":null,"type":"movie","add":"2019-10-04 07:54:32","orig_title":"Imago mortis","year":"2009-01-16","translations":["Профессиональный (двухголосый закадровый)"],"quality":"dvdrip","translation":"Профессиональный (двухголосый закадровый)","update":"2019-10-07 08:29:00","iframe_src":"//83.svetacdn.in/PfJ50H0ZBPg3/movie/31463"},{"id":31462,"title":"Отмычка 2","kp_id":"421615","imdb_id":"tt1264111","world_art_id":null,"type":"movie","add":"2019-10-04 07:45:15","orig_title":"Skeleton Key 2: 667 Neighbor of the Beast","year":"2008-09-02","translations":["Любительский (одноголосый закадровый)"],"quality":"dvdrip","translation":"Любительский (одноголосый закадровый)","update":"2019-10-07 08:27:09","iframe_src":"//83.svetacdn.in/PfJ50H0ZBPg3/movie/31462"},{"id":31443,"title":"Жилой комплекс «Ред Роуд»","kp_id":"221546","imdb_id":"tt0471030","world_art_id":null,"type":"movie","add":"2019-10-04 06:52:40","orig_title":"Red Road","year":"2006-05-20","translations":["Профессиональный (двухголосый закадровый)","[EN] Original (English)"],"quality":"bd","translation":"Профессиональный (двухголосый закадровый)","update":"2019-10-07 11:44:16","iframe_src":"//83.svetacdn.in/PfJ50H0ZBPg3/movie/31443"},{"id":31435,"title":"Грозовой перевал","kp_id":"8574","imdb_id":"tt0032145","world_art_id":null,"type":"movie","add":"2019-10-04 06:13:06","orig_title":"Wuthering Heights","year":"1939-03-24","translations":["Любительский (одноголосый закадровый) (Медведев Юрий)"],"quality":"webdl","translation":"Любительский (одноголосый закадровый) (Медведев Юрий)","update":"2019-10-07 11:41:12","iframe_src":"//83.svetacdn.in/PfJ50H0ZBPg3/movie/31435"},{"id":31434,"title":"Женщина для всех","kp_id":"72275","imdb_id":"tt0025791","world_art_id":null,"type":"movie","add":"2019-10-04 06:10:29","orig_title":"La signora di tutti","year":"1934-08-13","translations":["Профессиональный (многоголосый закадровый)"],"quality":"dvdrip","translation":"Профессиональный (многоголосый закадровый)","update":"2019-10-07 11:36:39","iframe_src":"//83.svetacdn.in/PfJ50H0ZBPg3/movie/31434"},{"id":31425,"title":"Случайный муж","kp_id":"492034","imdb_id":"tt1567385","world_art_id":null,"type":"movie","add":"2019-10-03 18:29:04","orig_title":"Un mari de trop","year":"2010-09-10","translations":["Профессиональный (двухголосый закадровый)"],"quality":"sat","translation":"Профессиональный (двухголосый закадровый)","update":"2019-10-07 11:26:27","iframe_src":"//83.svetacdn.in/PfJ50H0ZBPg3/movie/31425"},{"id":21585,"title":"На цепи","kp_id":"597519","imdb_id":"tt1989475","world_art_id":null,"type":"movie","add":"2019-01-17 08:51:59","orig_title":"Chained","year":"2012-08-05","translations":["Профессиональный (многоголосый закадровый) (BaibaKo)","Профессиональный (двухголосый закадровый)"],"quality":"bd","translation":"Профессиональный (многоголосый закадровый) (BaibaKo)","update":"2019-10-07 11:47:16","iframe_src":"//83.svetacdn.in/PfJ50H0ZBPg3/movie/21585"},{"id":5187,"title":"Кандидат","kp_id":"392006","imdb_id":"tt1054113","world_art_id":null,"type":"movie","add":"2016-09-09 08:45:03","orig_title":"Kandidaten","year":"2008-08-29","translations":["Любительский (одноголосый закадровый)","Авторский (одноголосый закадровый) (Карповский Антон)"],"quality":"bd","translation":"Любительский (одноголосый закадровый)","update":"2019-10-07 08:28:05","iframe_src":"//83.svetacdn.in/PfJ50H0ZBPg3/movie/5187"},{"id":4487,"title":"Фар Край","kp_id":"197147","imdb_id":"tt0400426","world_art_id":null,"type":"movie","add":"2016-08-17 07:14:09","orig_title":"Far Cry","year":"2008-10-02","translations":["Профессиональный (многоголосый закадровый)","Профессиональный (двухголосый закадровый)"],"quality":"bd","translation":"Профессиональный (многоголосый закадровый)","update":"2019-10-07 11:10:35","iframe_src":"//83.svetacdn.in/PfJ50H0ZBPg3/movie/4487"},{"id":4370,"title":"Американское преступление","kp_id":"258758","imdb_id":"tt0802948","world_art_id":null,"type":"movie","add":"2016-08-10 13:05:04","orig_title":"An American Crime","year":"2007-01-19","translations":["Любительский (многоголосый закадровый)","Любительский (одноголосый закадровый)"],"quality":"bd","translation":"Любительский (многоголосый закадровый)","update":"2019-10-07 11:25:02","iframe_src":"//83.svetacdn.in/PfJ50H0ZBPg3/movie/4370"},{"id":3569,"title":"Кинопроба","kp_id":"41833","imdb_id":"tt0235198","world_art_id":null,"type":"movie","add":"2016-07-01 08:02:09","orig_title":"Ôdishon","year":"1999-10-06","translations":["Профессиональный (двухголосый закадровый)"],"quality":"bd","translation":"Профессиональный (двухголосый закадровый)","update":"2019-10-07 11:00:10","iframe_src":"//83.svetacdn.in/PfJ50H0ZBPg3/movie/3569"}],"current_page":1641,"first_page_url":"https://videocdn.tv/api/short?limit=100&api_token=RgFQdUIR2dRmwv8iYa5SnFNgnw3vpjKj&cache31641=31641&page=1","from":164001,"last_page":720,"last_page_url":"https://videocdn.tv/api/short?limit=100&api_token=RgFQdUIR2dRmwv8iYa5SnFNgnw3vpjKj&cache31641=31641&page=720","next_page_url":null,"path":"https://videocdn.tv/api/short","per_page":100,"prev_page_url":"https://videocdn.tv/api/short?limit=100&api_token=RgFQdUIR2dRmwv8iYa5SnFNgnw3vpjKj&cache31641=31641&page=1640","to":164020,"total":71943}