{"result":true,"data":[{"id":51231,"title":"Иван","kp_id":"1013330","imdb_id":"tt6061558","world_art_id":null,"type":"movie","add":"2021-06-16 12:21:05","orig_title":"Ivan","year":"2017-09-13","translations":["Любительский (двухголосый закадровый) (datynet & Yuka_chan)"],"quality":"webdl","translation":"Любительский (двухголосый закадровый) (datynet & Yuka_chan)","update":"2021-06-17 09:48:28","iframe_src":"//8944266443434.svetacdn.in/PfJ50H0ZBPg3/movie/51231"},{"id":51214,"title":"Я — Кришна","kp_id":"735328","imdb_id":"tt1855268","world_art_id":null,"type":"movie","add":"2021-06-16 08:53:57","orig_title":"Main Krishna Hoon","year":"2013-01-25","translations":["Любительский (многоголосый закадровый) (ICG)"],"quality":"dvdrip","translation":"Любительский (многоголосый закадровый) (ICG)","update":"2021-06-17 08:36:35","iframe_src":"//8944266443434.svetacdn.in/PfJ50H0ZBPg3/movie/51214"},{"id":51205,"title":"Плейдуризм","kp_id":"1242818","imdb_id":"tt9733108","world_art_id":null,"type":"movie","add":"2021-06-15 12:58:59","orig_title":"Playdurizm","year":"2020-10-15","translations":["Любительский (многоголосый закадровый) (Синема УС)"],"quality":"webdl","translation":"Любительский (многоголосый закадровый) (Синема УС)","update":"2021-06-16 08:58:58","iframe_src":"//8944266443434.svetacdn.in/PfJ50H0ZBPg3/movie/51205"},{"id":51201,"title":"Орсай","kp_id":"1309689","imdb_id":"tt8518464","world_art_id":null,"type":"movie","add":"2021-06-15 12:01:12","orig_title":"Orsai","year":"2019-08-15","translations":["Любительский (многоголосый закадровый) (Синема УС)"],"quality":"webdl","translation":"Любительский (многоголосый закадровый) (Синема УС)","update":"2021-06-16 08:55:42","iframe_src":"//8944266443434.svetacdn.in/PfJ50H0ZBPg3/movie/51201"},{"id":51197,"title":"Хвост обезьяны","kp_id":null,"imdb_id":"tt7761014","world_art_id":null,"type":"movie","add":"2021-06-15 11:48:12","orig_title":"Cola de Mono","year":"2018-10-12","translations":["Любительский (многоголосый закадровый) (Синема УС)"],"quality":"webdl","translation":"Любительский (многоголосый закадровый) (Синема УС)","update":"2021-06-16 09:45:06","iframe_src":"//8944266443434.svetacdn.in/PfJ50H0ZBPg3/movie/51197"},{"id":51167,"title":"Большие часы","kp_id":"16646","imdb_id":"tt0040160","world_art_id":null,"type":"movie","add":"2021-06-14 07:00:37","orig_title":"The Big Clock","year":"1948-03-18","translations":["Авторский (одноголосый закадровый) (Карцев Пётр)","[EN] Original (English)","Профессиональный (многоголосый закадровый)","Профессиональный (многоголосый закадровый) (СТС)","Профессиональный (многоголосый закадровый) (Film Prestige)"],"quality":"bd","translation":"Авторский (одноголосый закадровый) (Карцев Пётр)","update":"2021-06-16 12:00:11","iframe_src":"//8944266443434.svetacdn.in/PfJ50H0ZBPg3/movie/51167"},{"id":50822,"title":"Иччи","kp_id":"1291214","imdb_id":"tt13084912","world_art_id":null,"type":"movie","add":"2021-06-01 07:17:15","orig_title":"Ich-chi","year":"2021-05-27","translations":["Оригинальная дорожка"],"quality":"webdl","translation":"Оригинальная дорожка","update":"2021-06-17 09:47:41","iframe_src":"//8944266443434.svetacdn.in/PfJ50H0ZBPg3/movie/50822"},{"id":50727,"title":"Уличная Банда: Как у нас получилась \"Улица Сезам\"","kp_id":"992747","imdb_id":"tt5618690","world_art_id":null,"type":"movie","add":"2021-05-29 09:40:06","orig_title":"Street Gang: How We Got to Sesame Street","year":"2021-01-30","translations":["Профессиональный (многоголосый закадровый) (OMSKBIRD records)"],"quality":"webdl","translation":"Профессиональный (многоголосый закадровый) (OMSKBIRD records)","update":"2021-06-17 08:06:43","iframe_src":"//8944266443434.svetacdn.in/PfJ50H0ZBPg3/movie/50727"},{"id":50289,"title":"Прабабушка легкого поведения. Начало","kp_id":"1354105","imdb_id":"tt13456266","world_art_id":null,"type":"movie","add":"2021-05-11 07:11:00","orig_title":"Prababushka lyogkogo povedeniya","year":"2021-05-21","translations":["Оригинальная дорожка"],"quality":"webdl","translation":"Оригинальная дорожка","update":"2021-06-17 09:19:40","iframe_src":"//8944266443434.svetacdn.in/PfJ50H0ZBPg3/movie/50289"},{"id":48473,"title":"Леди Гамильтон","kp_id":"15216","imdb_id":"tt0034272","world_art_id":null,"type":"movie","add":"2021-03-05 12:35:12","orig_title":"That Hamilton Woman","year":"1941-04-03","translations":["Профессиональный (многоголосый закадровый) (Film Prestige)","Авторский (одноголосый закадровый) (Михалёв Алексей)","[EN] Original (English)","Профессиональный (многоголосый закадровый) (Домашний)"],"quality":"bd","translation":"Профессиональный (многоголосый закадровый) (Film Prestige)","update":"2021-06-16 08:34:51","iframe_src":"//8944266443434.svetacdn.in/PfJ50H0ZBPg3/movie/48473"},{"id":38256,"title":"Кто я для тебя?","kp_id":"76504","imdb_id":"tt0110076","world_art_id":null,"type":"movie","add":"2020-03-19 15:38:50","orig_title":"Hum Aapke Hain Koun...!","year":"1994-08-05","translations":["Профессиональный (многоголосый закадровый) (Формат AB)","Профессиональный (многоголосый закадровый) (ZEE TV)","Профессиональный (многоголосый закадровый) (Формат AB)"],"quality":"hdtv","translation":"Профессиональный (многоголосый закадровый) (Формат AB)","update":"2021-06-17 08:07:35","iframe_src":"//8944266443434.svetacdn.in/PfJ50H0ZBPg3/movie/38256"},{"id":33715,"title":"Братва из джунглей","kp_id":"404317","imdb_id":"tt1172587","world_art_id":null,"type":"movie","add":"2019-12-04 19:11:46","orig_title":"Delhi Safari","year":"2012-10-19","translations":["Полное дублирование","Любительский (многоголосый закадровый) (ICG)"],"quality":"bd","translation":"Полное дублирование","update":"2021-06-17 08:39:26","iframe_src":"//8944266443434.svetacdn.in/PfJ50H0ZBPg3/movie/33715"},{"id":23421,"title":"Сдавайся и расплатись","kp_id":"108142","imdb_id":"tt0063501","world_art_id":null,"type":"movie","add":"2019-03-24 16:32:19","orig_title":"La resa dei conti","year":"1966-11-29","translations":["Любительский (одноголосый закадровый)","Авторский (одноголосый закадровый) (Золотухин Николай)","Любительский (одноголосый закадровый)","Любительский (одноголосый закадровый) (SATKUR)","Профессиональный (одноголосый закадровый) (Орбита)"],"quality":"bd","translation":"Любительский (одноголосый закадровый)","update":"2021-06-16 11:53:39","iframe_src":"//8944266443434.svetacdn.in/PfJ50H0ZBPg3/movie/23421"},{"id":21966,"title":"Неприкаянные","kp_id":"10900","imdb_id":"tt0055184","world_art_id":null,"type":"movie","add":"2019-01-31 12:37:23","orig_title":"The Misfits","year":"1961-01-31","translations":["Профессиональный (многоголосый закадровый) (DVD Магия)","[EN] Original (English)","[EN] Original (English)","Любительский (одноголосый закадровый)","Профессиональный (двухголосый закадровый) (НТВ)","Профессиональный (многоголосый закадровый) (Светла)"],"quality":"bd","translation":"Профессиональный (многоголосый закадровый) (DVD Магия)","update":"2021-06-16 11:24:32","iframe_src":"//8944266443434.svetacdn.in/PfJ50H0ZBPg3/movie/21966"},{"id":13652,"title":"Барфи!","kp_id":"634256","imdb_id":"tt2082197","world_art_id":null,"type":"movie","add":"2017-09-27 13:05:35","orig_title":"Barfi!","year":"2012-09-13","translations":["Профессиональный (многоголосый закадровый)","Любительский (многоголосый закадровый) (ICG)"],"quality":"bd","translation":"Профессиональный (многоголосый закадровый)","update":"2021-06-17 08:41:21","iframe_src":"//8944266443434.svetacdn.in/PfJ50H0ZBPg3/movie/13652"},{"id":6731,"title":"Состояние сердца","kp_id":"15267","imdb_id":"tt0099750","world_art_id":null,"type":"movie","add":"2016-10-27 05:39:39","orig_title":"Heart Condition","year":"1990-01-12","translations":["Профессиональный (многоголосый закадровый)","Авторский (одноголосый закадровый) (Иванов Михаил)","Авторский (одноголосый закадровый) (Михалёв Алексей)","[EN] Original (English)","Профессиональный (многоголосый закадровый)"],"quality":"webdl","translation":"Профессиональный (многоголосый закадровый)","update":"2021-06-16 09:26:52","iframe_src":"//8944266443434.svetacdn.in/PfJ50H0ZBPg3/movie/6731"},{"id":6424,"title":"Жизненная сила","kp_id":"3485","imdb_id":"tt0089489","world_art_id":null,"type":"movie","add":"2016-10-18 13:53:08","orig_title":"Lifeforce","year":"1985-06-21","translations":["Авторский (одноголосый закадровый) (Сербин Юрий)","Профессиональный (многоголосый закадровый) (5-й канал СПб)","Авторский (одноголосый закадровый) (Гаврилов Андрей)","Авторский (одноголосый закадровый) (Сербин Юрий)","Авторский (одноголосый закадровый) (Визгунов Сергей)","[EN] Original (English)","Профессиональный (двухголосый закадровый) (SDI Media | Iyuno-SDI Group Russia)","Профессиональный (многоголосый закадровый) (5-й канал СПб)"],"quality":"bd","translation":"Авторский (одноголосый закадровый) (Сербин Юрий)","update":"2021-06-16 11:47:03","iframe_src":"//8944266443434.svetacdn.in/PfJ50H0ZBPg3/movie/6424"},{"id":5557,"title":"Кровавый округ: 1974","kp_id":"421924","imdb_id":"tt1259574","world_art_id":null,"type":"movie","add":"2016-09-27 11:36:58","orig_title":"Red Riding: In the Year of Our Lord 1974","year":"2009-02-28","translations":["Профессиональный (двухголосый закадровый)","Любительский (одноголосый закадровый)","Профессиональный (многоголосый закадровый) (Неоклассика)","[EN] Original (English)","Профессиональный (двухголосый закадровый) (НТВ)","Профессиональный (многоголосый закадровый) (СТС)"],"quality":"bd","translation":"Профессиональный (двухголосый закадровый)","update":"2021-06-16 08:28:38","iframe_src":"//8944266443434.svetacdn.in/PfJ50H0ZBPg3/movie/5557"},{"id":5517,"title":"Аллан Куотермейн и потерянный город золота","kp_id":"8808","imdb_id":"tt0092534","world_art_id":null,"type":"movie","add":"2016-09-26 13:25:22","orig_title":"Allan Quatermain and the Lost City of Gold","year":"1986-12-18","translations":["Профессиональный (многоголосый закадровый)","Профессиональный (многоголосый закадровый) (СТС)"],"quality":"bd","translation":"Профессиональный (многоголосый закадровый)","update":"2021-06-16 11:34:55","iframe_src":"//8944266443434.svetacdn.in/PfJ50H0ZBPg3/movie/5517"},{"id":833,"title":"Скотт Пилигрим против всех","kp_id":"105948","imdb_id":"tt0446029","world_art_id":null,"type":"movie","add":"2016-04-08 17:11:53","orig_title":"Scott Pilgrim vs. the World","year":"2010-07-27","translations":["Полное дублирование","Авторский (одноголосый закадровый) (Котов Вячеслав)","Авторский (одноголосый закадровый) (Матвеев Алексей | Doctor Joker)","Полное дублирование","[EN] Original (English)"],"quality":"bd","translation":"Полное дублирование","update":"2021-06-16 12:10:43","iframe_src":"//8944266443434.svetacdn.in/PfJ50H0ZBPg3/movie/833"}],"current_page":663,"first_page_url":"https://videocdn.tv/api/short?limit=100&api_token=RgFQdUIR2dRmwv8iYa5SnFNgnw3vpjKj&cache3663=3663&page=1","from":66201,"last_page":729,"last_page_url":"https://videocdn.tv/api/short?limit=100&api_token=RgFQdUIR2dRmwv8iYa5SnFNgnw3vpjKj&cache3663=3663&page=729","next_page_url":"https://videocdn.tv/api/short?limit=100&api_token=RgFQdUIR2dRmwv8iYa5SnFNgnw3vpjKj&cache3663=3663&page=664","path":"https://videocdn.tv/api/short","per_page":100,"prev_page_url":"https://videocdn.tv/api/short?limit=100&api_token=RgFQdUIR2dRmwv8iYa5SnFNgnw3vpjKj&cache3663=3663&page=662","to":66220,"total":72860}