{"result":true,"data":[{"id":52055,"title":"Второй шанс","kp_id":null,"imdb_id":"tt11354356","world_art_id":null,"type":"movie","add":"2021-07-27 09:18:27","orig_title":"Second Chances","year":"2021-07-16","translations":["Любительский (многоголосый закадровый) (Синема УС)"],"quality":"webdl","translation":"Любительский (многоголосый закадровый) (Синема УС)","update":"2021-07-27 10:40:04","iframe_src":"//7720.svetacdn.in/si4jsFRrtgrT/movie/52055"},{"id":52053,"title":"Наследник кобальта","kp_id":"4427060","imdb_id":"tt13085598","world_art_id":null,"type":"movie","add":"2021-07-27 09:13:06","orig_title":"Cobalt Heir","year":"2020-09-13","translations":["Любительский (многоголосый закадровый) (Синема УС)"],"quality":"webdl","translation":"Любительский (многоголосый закадровый) (Синема УС)","update":"2021-07-27 10:41:13","iframe_src":"//7720.svetacdn.in/si4jsFRrtgrT/movie/52053"},{"id":52052,"title":"Пистолет и Библия в отеле","kp_id":"1285178","imdb_id":"tt10661500","world_art_id":null,"type":"movie","add":"2021-07-27 09:11:31","orig_title":"Gun and a Hotel Bible","year":"2021-01-05","translations":["Любительский (многоголосый закадровый) (Синема УС)"],"quality":"webdl","translation":"Любительский (многоголосый закадровый) (Синема УС)","update":"2021-07-27 10:45:36","iframe_src":"//7720.svetacdn.in/si4jsFRrtgrT/movie/52052"},{"id":52051,"title":"Типа любовь","kp_id":"1207949","imdb_id":"tt8466970","world_art_id":null,"type":"movie","add":"2021-07-27 08:55:35","orig_title":"Like Love","year":"2020-09-10","translations":["Любительский (многоголосый закадровый) (Синема УС)"],"quality":"webdl","translation":"Любительский (многоголосый закадровый) (Синема УС)","update":"2021-07-27 11:47:56","iframe_src":"//7720.svetacdn.in/si4jsFRrtgrT/movie/52051"},{"id":52050,"title":"Мать","kp_id":"1295452","imdb_id":"tt10750608","world_art_id":null,"type":"movie","add":"2021-07-27 08:53:40","orig_title":"Mater","year":"2019-11-01","translations":["Любительский (многоголосый закадровый) (AlphaProject)"],"quality":"webdl","translation":"Любительский (многоголосый закадровый) (AlphaProject)","update":"2021-07-27 10:43:11","iframe_src":"//7720.svetacdn.in/si4jsFRrtgrT/movie/52050"},{"id":52049,"title":"Открытый","kp_id":"1356048","imdb_id":"tt11947216","world_art_id":null,"type":"movie","add":"2021-07-27 08:51:14","orig_title":"Open","year":"2021-07-15","translations":["Любительский (многоголосый закадровый) (Синема УС)"],"quality":"webdl","translation":"Любительский (многоголосый закадровый) (Синема УС)","update":"2021-07-27 10:46:31","iframe_src":"//7720.svetacdn.in/si4jsFRrtgrT/movie/52049"},{"id":52048,"title":"Я Р.Е.Г.И.Н.А.","kp_id":"1347584","imdb_id":"tt11665206","world_art_id":null,"type":"movie","add":"2021-07-27 08:48:13","orig_title":"R.E.G.I.N.A. I Am","year":"2020-08-25","translations":["Любительский (многоголосый закадровый) (Синема УС)"],"quality":"webdl","translation":"Любительский (многоголосый закадровый) (Синема УС)","update":"2021-07-27 10:51:53","iframe_src":"//7720.svetacdn.in/si4jsFRrtgrT/movie/52048"},{"id":52047,"title":"Номер 441","kp_id":null,"imdb_id":"tt11702678","world_art_id":null,"type":"movie","add":"2021-07-27 08:41:45","orig_title":"Room 441","year":"2020-02-14","translations":["Любительский (многоголосый закадровый) (Синема УС)"],"quality":"webdl","translation":"Любительский (многоголосый закадровый) (Синема УС)","update":"2021-07-27 10:39:13","iframe_src":"//7720.svetacdn.in/si4jsFRrtgrT/movie/52047"},{"id":52046,"title":"Таззека","kp_id":"989421","imdb_id":"tt5227512","world_art_id":null,"type":"movie","add":"2021-07-27 08:25:35","orig_title":"Tazzeka","year":"2017-10-22","translations":["Любительский (многоголосый закадровый) (Синема УС)"],"quality":"webdl","translation":"Любительский (многоголосый закадровый) (Синема УС)","update":"2021-07-27 10:44:35","iframe_src":"//7720.svetacdn.in/si4jsFRrtgrT/movie/52046"},{"id":52045,"title":"Жилец","kp_id":"4510786","imdb_id":"tt14182228","world_art_id":null,"type":"movie","add":"2021-07-27 08:23:54","orig_title":"Tenant","year":"2021-01-15","translations":["Любительский (многоголосый закадровый) (Синема УС)"],"quality":"webdl","translation":"Любительский (многоголосый закадровый) (Синема УС)","update":"2021-07-27 11:49:10","iframe_src":"//7720.svetacdn.in/si4jsFRrtgrT/movie/52045"},{"id":52044,"title":"Сигареты со вкусом текилы","kp_id":"1176181","imdb_id":"tt8737874","world_art_id":null,"type":"movie","add":"2021-07-27 08:20:08","orig_title":"Tequila Flavored Cigarettes","year":"2019-11-18","translations":["Любительский (многоголосый закадровый) (Синема УС)"],"quality":"webdl","translation":"Любительский (многоголосый закадровый) (Синема УС)","update":"2021-07-27 10:47:46","iframe_src":"//7720.svetacdn.in/si4jsFRrtgrT/movie/52044"},{"id":52043,"title":"Уолкеры","kp_id":"4442027","imdb_id":"tt14118430","world_art_id":null,"type":"movie","add":"2021-07-27 08:17:28","orig_title":"The Walkers film","year":"2021-06-05","translations":["Любительский (многоголосый закадровый) (Синема УС)"],"quality":"webdl","translation":"Любительский (многоголосый закадровый) (Синема УС)","update":"2021-07-27 11:46:48","iframe_src":"//7720.svetacdn.in/si4jsFRrtgrT/movie/52043"},{"id":52041,"title":"Бесполезные подарки","kp_id":"1409782","imdb_id":"tt12842524","world_art_id":null,"type":"movie","add":"2021-07-27 08:08:44","orig_title":"White Elephant","year":"2020-11-23","translations":["Любительский (многоголосый закадровый) (AlphaProject)"],"quality":"webdl","translation":"Любительский (многоголосый закадровый) (AlphaProject)","update":"2021-07-27 09:35:33","iframe_src":"//7720.svetacdn.in/si4jsFRrtgrT/movie/52041"},{"id":52038,"title":"SOS - лето загадок","kp_id":"458042","imdb_id":"tt1186025","world_art_id":null,"type":"movie","add":"2021-07-27 05:57:01","orig_title":"S.O.S Svartskjær","year":"2008-02-15","translations":["Любительский (одноголосый закадровый) (Ващенко Семён)"],"quality":"webdl","translation":"Любительский (одноголосый закадровый) (Ващенко Семён)","update":"2021-07-27 09:55:02","iframe_src":"//7720.svetacdn.in/si4jsFRrtgrT/movie/52038"},{"id":52035,"title":"Трубопровод","kp_id":"1287401","imdb_id":"tt14716932","world_art_id":null,"type":"movie","add":"2021-07-27 05:28:07","orig_title":"Paipeurain","year":"2021-05-26","translations":["Любительский (двухголосый закадровый) (АрхиAsia)"],"quality":"webdl","translation":"Любительский (двухголосый закадровый) (АрхиAsia)","update":"2021-07-27 09:56:01","iframe_src":"//7720.svetacdn.in/si4jsFRrtgrT/movie/52035"},{"id":10729,"title":"Операция «Трест»","kp_id":"94431","imdb_id":"tt0062079","world_art_id":null,"type":"serial","add":"2021-05-25 09:21:13","orig_title":"Operatsiya Trest","year":"1968-05-22","translations":["Оригинальная дорожка"],"seasons_count":1,"episodes_count":4,"episodes":4,"update":"2021-05-25 09:59:15","iframe_src":"//7720.svetacdn.in/si4jsFRrtgrT/tv-series/10729"},{"id":10724,"title":"Блеск и нищета куртизанок","kp_id":"405547","imdb_id":"tt0277529","world_art_id":null,"type":"serial","add":"2021-05-24 19:57:48","orig_title":"Splendeurs et misères des courtisanes","year":"1975-12-20","translations":["Профессиональный (многоголосый закадровый)"],"seasons_count":1,"episodes_count":9,"episodes":9,"update":"2021-05-25 06:36:01","iframe_src":"//7720.svetacdn.in/si4jsFRrtgrT/tv-series/10724"},{"id":10723,"title":"Гулящие люди","kp_id":"44620","imdb_id":"tt0235447","world_art_id":null,"type":"serial","add":"2021-05-24 19:53:34","orig_title":"Gulyashchie lyudi","year":"1988-01-01","translations":["Оригинальная дорожка"],"seasons_count":1,"episodes_count":3,"episodes":3,"update":"2021-05-25 06:36:59","iframe_src":"//7720.svetacdn.in/si4jsFRrtgrT/tv-series/10723"},{"id":10721,"title":"Под Полярной звездой","kp_id":"440085","imdb_id":null,"world_art_id":null,"type":"serial","add":"2021-05-24 15:33:51","orig_title":"Под Полярной звездой","year":"2002-01-01","translations":["Оригинальная дорожка"],"seasons_count":1,"episodes_count":6,"episodes":6,"update":"2021-05-25 10:09:09","iframe_src":"//7720.svetacdn.in/si4jsFRrtgrT/tv-series/10721"},{"id":10720,"title":"Не забывай","kp_id":"279552","imdb_id":"tt0888680","world_art_id":null,"type":"serial","add":"2021-05-24 15:25:24","orig_title":"Ne zabyvay","year":"2005-05-08","translations":["Оригинальная дорожка"],"seasons_count":1,"episodes_count":4,"episodes":4,"update":"2021-05-25 09:53:21","iframe_src":"//7720.svetacdn.in/si4jsFRrtgrT/tv-series/10720"},{"id":10697,"title":"Дерево с глубокими корнями","kp_id":"678757","imdb_id":"tt2221405","world_art_id":null,"type":"serial","add":"2021-05-21 12:24:16","orig_title":"Tree with Deep Roots","year":"2011-10-04","translations":["Любительский (двухголосый закадровый) (HighHopes)"],"seasons_count":1,"episodes_count":24,"episodes":24,"update":"2021-05-24 20:14:46","iframe_src":"//7720.svetacdn.in/si4jsFRrtgrT/tv-series/10697"},{"id":10692,"title":"Эта удивительная жизнь","kp_id":"494238","imdb_id":"tt0464626","world_art_id":null,"type":"serial","add":"2021-05-20 14:18:56","orig_title":"Won-deo-pool la-i-peu","year":"2005-03-07","translations":["Любительский (одноголосый закадровый) (Korean Craze)"],"seasons_count":1,"episodes_count":16,"episodes":16,"update":"2021-05-25 10:29:15","iframe_src":"//7720.svetacdn.in/si4jsFRrtgrT/tv-series/10692"},{"id":10691,"title":"Приключения Мэддиганов","kp_id":"280526","imdb_id":"tt0456104","world_art_id":null,"type":"serial","add":"2021-05-20 14:08:31","orig_title":"Maddigan's Quest","year":"2006-01-26","translations":["Профессиональный (многоголосый закадровый) (Пифагор)"],"seasons_count":1,"episodes_count":13,"episodes":13,"update":"2021-05-25 11:05:59","iframe_src":"//7720.svetacdn.in/si4jsFRrtgrT/tv-series/10691"},{"id":10690,"title":"Две недели","kp_id":"761263","imdb_id":null,"world_art_id":null,"type":"serial","add":"2021-05-20 13:55:29","orig_title":"Tuwikseu","year":"2013-08-07","translations":["Любительский (двухголосый закадровый) (STEPonee)"],"seasons_count":1,"episodes_count":16,"episodes":16,"update":"2021-05-25 10:45:47","iframe_src":"//7720.svetacdn.in/si4jsFRrtgrT/tv-series/10690"},{"id":10689,"title":"Клоунов не убивают","kp_id":"252115","imdb_id":"tt0481043","world_art_id":null,"type":"serial","add":"2021-05-20 12:05:34","orig_title":"Клоунов не убивают","year":"2005-01-01","translations":["Оригинальная дорожка"],"seasons_count":1,"episodes_count":8,"episodes":8,"update":"2021-05-24 20:19:15","iframe_src":"//7720.svetacdn.in/si4jsFRrtgrT/tv-series/10689"},{"id":10681,"title":"Большой","kp_id":"687177","imdb_id":"tt2441802","world_art_id":null,"type":"serial","add":"2021-05-19 11:59:31","orig_title":"Big","year":"2012-06-04","translations":["Любительский (двухголосый закадровый) (GREEN TEA)"],"seasons_count":1,"episodes_count":16,"episodes":16,"update":"2021-05-25 09:57:48","iframe_src":"//7720.svetacdn.in/si4jsFRrtgrT/tv-series/10681"},{"id":10680,"title":"Моя прекрасная невеста","kp_id":"935897","imdb_id":"tt5057154","world_art_id":null,"type":"serial","add":"2021-05-19 11:19:11","orig_title":"A-reum-da-un na-eui sin-bu","year":"2015-06-20","translations":["Любительский (многоголосый закадровый) (STEPonee)"],"seasons_count":1,"episodes_count":16,"episodes":16,"update":"2021-05-25 12:01:37","iframe_src":"//7720.svetacdn.in/si4jsFRrtgrT/tv-series/10680"},{"id":10677,"title":"Северный сфинкс","kp_id":"464917","imdb_id":"tt1743283","world_art_id":null,"type":"serial","add":"2021-05-19 10:09:11","orig_title":"Severnyy sfinks","year":"2003-01-01","translations":["Оригинальная дорожка"],"seasons_count":1,"episodes_count":10,"episodes":10,"update":"2021-05-25 09:01:08","iframe_src":"//7720.svetacdn.in/si4jsFRrtgrT/tv-series/10677"},{"id":10265,"title":"Карола Казини, на крутых виражах","kp_id":"584532","imdb_id":"tt0224732","world_art_id":null,"type":"serial","add":"2021-03-22 13:27:21","orig_title":"Carola Casini","year":"1997-01-01","translations":["Профессиональный (многоголосый закадровый)"],"seasons_count":1,"episodes_count":20,"episodes":20,"update":"2021-05-24 19:24:50","iframe_src":"//7720.svetacdn.in/si4jsFRrtgrT/tv-series/10265"},{"id":10094,"title":"Виктория","kp_id":"491927","imdb_id":"tt1189371","world_art_id":null,"type":"serial","add":"2021-03-02 19:55:15","orig_title":"Victoria","year":"2007-12-04","translations":["Профессиональный (многоголосый закадровый) (Intra Communications)"],"seasons_count":1,"episodes_count":171,"episodes":171,"update":"2021-05-24 18:51:24","iframe_src":"//7720.svetacdn.in/si4jsFRrtgrT/tv-series/10094"},{"id":10091,"title":"Как в кино","kp_id":"409045","imdb_id":"tt0283717","world_art_id":null,"type":"serial","add":"2021-03-02 19:40:59","orig_title":"Como en el cine","year":"2001-04-30","translations":["Профессиональный (многоголосый закадровый)"],"seasons_count":1,"episodes_count":100,"episodes":100,"update":"2021-05-25 12:13:54","iframe_src":"//7720.svetacdn.in/si4jsFRrtgrT/tv-series/10091"},{"id":10068,"title":"Ты влюбился","kp_id":"453109","imdb_id":"tt0883301","world_art_id":null,"type":"serial","add":"2021-03-01 18:26:34","orig_title":"Voltea pa' que te enamores","year":"2006-09-18","translations":["Профессиональный (многоголосый закадровый)"],"seasons_count":1,"episodes_count":119,"episodes":119,"update":"2021-05-25 13:29:42","iframe_src":"//7720.svetacdn.in/si4jsFRrtgrT/tv-series/10068"},{"id":47914,"title":"Космические воины","kp_id":"675806","imdb_id":"tt2328745","world_art_id":null,"type":"movie","add":"2021-02-14 18:36:24","orig_title":"Space Warriors","year":"2013-04-26","translations":["Профессиональный (многоголосый закадровый)","Профессиональный (многоголосый закадровый) (СТС)","Original (English)"],"quality":"hdrip","translation":"Профессиональный (многоголосый закадровый)","update":"2021-07-27 12:04:05","iframe_src":"//7720.svetacdn.in/si4jsFRrtgrT/movie/47914"},{"id":9533,"title":"Золотые девочки","kp_id":"277715","imdb_id":"tt0088526","world_art_id":null,"type":"serial","add":"2020-12-14 12:34:37","orig_title":"The Golden Girls","year":"1985-09-14","translations":["Любительский (одноголосый закадровый)"],"seasons_count":3,"episodes_count":51,"episodes":6,"update":"2021-05-24 19:29:10","iframe_src":"//7720.svetacdn.in/si4jsFRrtgrT/tv-series/9533"},{"id":45512,"title":"Так далеко","kp_id":"1218751","imdb_id":"tt9382140","world_art_id":null,"type":"movie","add":"2020-11-22 20:58:57","orig_title":"Zu weit weg","year":"2019-05-30","translations":["Любительский (многоголосый закадровый) (Синема УС)","Любительский (одноголосый закадровый) (Ващенко Семён)"],"quality":"webdl","translation":"Любительский (многоголосый закадровый) (Синема УС)","update":"2021-07-27 12:06:42","iframe_src":"//7720.svetacdn.in/si4jsFRrtgrT/movie/45512"},{"id":23083,"title":"Пурпурная дива","kp_id":"35732","imdb_id":"tt0218581","world_art_id":null,"type":"movie","add":"2019-03-14 23:38:34","orig_title":"Scarlet Diva","year":"2000-05-26","translations":["Профессиональный (многоголосый закадровый)","Профессиональный (двухголосый закадровый)","Профессиональный (многоголосый закадровый) (Видеоимпульс)"],"quality":"dvdrip","translation":"Профессиональный (многоголосый закадровый)","update":"2021-07-27 08:30:43","iframe_src":"//7720.svetacdn.in/si4jsFRrtgrT/movie/23083"},{"id":1737,"title":"Звёздные врата: Атлантида","kp_id":"252106","imdb_id":"tt0374455","world_art_id":null,"type":"serial","add":"2017-11-14 13:57:09","orig_title":"Stargate: Atlantis","year":"2004-07-16","translations":["Профессиональный (многоголосый закадровый)","Профессиональный (многоголосый закадровый) (ТВ3)","Профессиональный (многоголосый закадровый) (AXN Sci-Fi)"],"seasons_count":5,"episodes_count":99,"episodes":20,"update":"2021-05-25 10:42:57","iframe_src":"//7720.svetacdn.in/si4jsFRrtgrT/tv-series/1737"},{"id":1473,"title":"Гостевая книга","kp_id":"1046640","imdb_id":"tt5990096","world_art_id":null,"type":"serial","add":"2017-08-16 13:31:06","orig_title":"The Guest Book","year":"2017-08-03","translations":["Любительский (двухголосый закадровый) (Sunshine Studio)","Профессиональный (многоголосый закадровый) (Greb&Creative)","Профессиональный (многоголосый закадровый) (HDrezka Studio)"],"seasons_count":2,"episodes_count":20,"episodes":10,"update":"2021-05-24 19:04:09","iframe_src":"//7720.svetacdn.in/si4jsFRrtgrT/tv-series/1473"},{"id":1021,"title":"Тринадцать привидений","kp_id":"7639","imdb_id":"tt0245674","world_art_id":null,"type":"movie","add":"2016-04-12 15:44:16","orig_title":"Thir13en Ghosts","year":"2001-10-23","translations":["Профессиональный (многоголосый закадровый)","Авторский (одноголосый закадровый) (Гаврилов Андрей)","Авторский (одноголосый закадровый) (Визгунов Сергей)","Авторский (одноголосый закадровый) (Живов Юрий)","Полное дублирование (Невафильм | Нева-1)","Original (English)","Профессиональный (многоголосый закадровый) (Интер-Фильм)","Профессиональный (многоголосый закадровый) (Карусель)","Профессиональный (многоголосый закадровый)","Профессиональный (многоголосый закадровый) (ТВ3)"],"quality":"bd","translation":"Профессиональный (многоголосый закадровый)","update":"2021-07-27 09:21:18","iframe_src":"//7720.svetacdn.in/si4jsFRrtgrT/movie/1021"},{"id":835,"title":"Заложница","kp_id":"276376","imdb_id":"tt0936501","world_art_id":null,"type":"movie","add":"2016-04-08 17:16:12","orig_title":"Taken","year":"2008-02-27","translations":["Полное дублирование","Авторский (одноголосый закадровый) (Гаврилов Андрей)","Авторский (одноголосый закадровый) (Сербин Юрий)","Полное дублирование","Original (English)","Профессиональный (многоголосый закадровый)"],"quality":"bd","translation":"Полное дублирование","update":"2021-07-27 08:03:57","iframe_src":"//7720.svetacdn.in/si4jsFRrtgrT/movie/835"}],"current_page":55,"first_page_url":"https://videocdn.tv/api/short?limit=100&api_token=X6EwAUfE5M9xbo7y0Bp0aPf3uXxG2KLL&cache355=355&page=1","from":5401,"last_page":651,"last_page_url":"https://videocdn.tv/api/short?limit=100&api_token=X6EwAUfE5M9xbo7y0Bp0aPf3uXxG2KLL&cache355=355&page=651","next_page_url":"https://videocdn.tv/api/short?limit=100&api_token=X6EwAUfE5M9xbo7y0Bp0aPf3uXxG2KLL&cache355=355&page=56","path":"https://videocdn.tv/api/short","per_page":100,"prev_page_url":"https://videocdn.tv/api/short?limit=100&api_token=X6EwAUfE5M9xbo7y0Bp0aPf3uXxG2KLL&cache355=355&page=54","to":5440,"total":65096}