{"result":true,"data":[{"id":49138,"title":"Пламя свечи","kp_id":"1179111","imdb_id":"tt8683116","world_art_id":null,"type":"movie","add":"2021-03-27 21:08:02","orig_title":"The Match-Stick Flame","year":"2020-09-25","translations":["Любительский (многоголосый закадровый) (Синема УС)"],"quality":"webdl","translation":"Любительский (многоголосый закадровый) (Синема УС)","update":"2021-03-28 05:56:51","iframe_src":"//5322.svetacdn.in/IAF0wWTdNYZm/movie/49138"},{"id":49137,"title":"Как стать звездой","kp_id":"1347667","imdb_id":"tt11692986","world_art_id":null,"type":"movie","add":"2021-03-27 21:05:18","orig_title":"Ostra","year":"2020-12-02","translations":["Любительский (многоголосый закадровый) (@MUZOBOZ@)"],"quality":"webdl","translation":"Любительский (многоголосый закадровый) (@MUZOBOZ@)","update":"2021-03-28 05:56:06","iframe_src":"//5322.svetacdn.in/IAF0wWTdNYZm/movie/49137"},{"id":49136,"title":"Старость в радость","kp_id":"1038800","imdb_id":"tt6588950","world_art_id":null,"type":"movie","add":"2021-03-27 21:02:06","orig_title":"Senior Moment","year":"2021-03-26","translations":["Любительский (многоголосый закадровый) (AlphaProject)"],"quality":"webdl","translation":"Любительский (многоголосый закадровый) (AlphaProject)","update":"2021-03-28 05:55:26","iframe_src":"//5322.svetacdn.in/IAF0wWTdNYZm/movie/49136"},{"id":49135,"title":"Магазинные воришки всего мира","kp_id":"667931","imdb_id":"tt2241557","world_art_id":null,"type":"movie","add":"2021-03-27 21:00:04","orig_title":"Shoplifters of the World","year":"2021-03-27","translations":["Любительский (многоголосый закадровый) (AlphaProject)"],"quality":"webdl","translation":"Любительский (многоголосый закадровый) (AlphaProject)","update":"2021-03-28 05:54:41","iframe_src":"//5322.svetacdn.in/IAF0wWTdNYZm/movie/49135"},{"id":49134,"title":"В утиль","kp_id":"1287291","imdb_id":"tt9051162","world_art_id":null,"type":"movie","add":"2021-03-27 20:58:10","orig_title":"Spiked","year":"2021-03-26","translations":["Любительский (многоголосый закадровый) (@MUZOBOZ@)"],"quality":"webdl","translation":"Любительский (многоголосый закадровый) (@MUZOBOZ@)","update":"2021-03-28 05:53:51","iframe_src":"//5322.svetacdn.in/IAF0wWTdNYZm/movie/49134"},{"id":49133,"title":"Мой дом","kp_id":"1065081","imdb_id":"tt7143598","world_art_id":null,"type":"movie","add":"2021-03-27 20:56:46","orig_title":"The Arbors","year":"2021-03-27","translations":["Любительский (многоголосый закадровый) (@MUZOBOZ@)"],"quality":"webdl","translation":"Любительский (многоголосый закадровый) (@MUZOBOZ@)","update":"2021-03-28 05:53:06","iframe_src":"//5322.svetacdn.in/IAF0wWTdNYZm/movie/49133"},{"id":49131,"title":"Ардаб Мутияран","kp_id":"1313348","imdb_id":"tt11122316","world_art_id":null,"type":"movie","add":"2021-03-27 07:47:26","orig_title":"Ardab Mutiyaran","year":"2019-10-18","translations":["Любительский (многоголосый закадровый) (Синема УС)"],"quality":"webdl","translation":"Любительский (многоголосый закадровый) (Синема УС)","update":"2021-03-27 12:47:34","iframe_src":"//5322.svetacdn.in/IAF0wWTdNYZm/movie/49131"},{"id":49130,"title":"Преступление дьявола","kp_id":"240417","imdb_id":"tt0066980","world_art_id":null,"type":"movie","add":"2021-03-27 05:52:22","orig_title":"Le regine","year":"1970-12-11","translations":["Авторский (одноголосый закадровый) (Есарев Дмитрий)"],"quality":"bd","translation":"Авторский (одноголосый закадровый) (Есарев Дмитрий)","update":"2021-03-27 14:18:37","iframe_src":"//5322.svetacdn.in/IAF0wWTdNYZm/movie/49130"},{"id":49129,"title":"Убийство","kp_id":"1074855","imdb_id":"tt7117352","world_art_id":null,"type":"movie","add":"2021-03-27 05:51:09","orig_title":"Zan","year":"2018-09-07","translations":["Авторский (одноголосый закадровый) (Смирнов Александр)"],"quality":"bd","translation":"Авторский (одноголосый закадровый) (Смирнов Александр)","update":"2021-03-27 14:15:28","iframe_src":"//5322.svetacdn.in/IAF0wWTdNYZm/movie/49129"},{"id":49127,"title":"Семейство Лэндри: Руби","kp_id":"1347609","imdb_id":"tt11651894","world_art_id":null,"type":"movie","add":"2021-03-26 21:10:38","orig_title":"V.C. Andrews' Ruby","year":"2021-03-20","translations":["Любительский (многоголосый закадровый) (Синема УС)"],"quality":"webdl","translation":"Любительский (многоголосый закадровый) (Синема УС)","update":"2021-03-27 04:37:48","iframe_src":"//5322.svetacdn.in/IAF0wWTdNYZm/movie/49127"},{"id":49126,"title":"Просто черный","kp_id":"1276473","imdb_id":"tt10426916","world_art_id":null,"type":"movie","add":"2021-03-26 21:06:50","orig_title":"Tout simplement noir","year":"2020-07-08","translations":["Любительский (многоголосый закадровый) (@MUZOBOZ@)"],"quality":"bd","translation":"Любительский (многоголосый закадровый) (@MUZOBOZ@)","update":"2021-03-27 18:05:11","iframe_src":"//5322.svetacdn.in/IAF0wWTdNYZm/movie/49126"},{"id":49124,"title":"DVD 2","kp_id":"1217986","imdb_id":"tt8108282","world_art_id":null,"type":"movie","add":"2021-03-26 20:52:54","orig_title":"DVD 2","year":"2019-03-20","translations":["Любительский (многоголосый закадровый) (Синема УС)"],"quality":"webdl","translation":"Любительский (многоголосый закадровый) (Синема УС)","update":"2021-03-27 18:05:32","iframe_src":"//5322.svetacdn.in/IAF0wWTdNYZm/movie/49124"},{"id":49123,"title":"Тени","kp_id":"1318071","imdb_id":"tt11197452","world_art_id":null,"type":"movie","add":"2021-03-26 20:51:21","orig_title":"Shadows","year":"2020-01-01","translations":["Любительский (многоголосый закадровый) (Синема УС)"],"quality":"webdl","translation":"Любительский (многоголосый закадровый) (Синема УС)","update":"2021-03-26 21:28:14","iframe_src":"//5322.svetacdn.in/IAF0wWTdNYZm/movie/49123"},{"id":49122,"title":"Завера","kp_id":"1200362","imdb_id":"tt8976842","world_art_id":null,"type":"movie","add":"2021-03-26 20:49:58","orig_title":"Zavera","year":"2019-11-29","translations":["Любительский (многоголосый закадровый) (Синема УС)"],"quality":"webdl","translation":"Любительский (многоголосый закадровый) (Синема УС)","update":"2021-03-27 18:06:48","iframe_src":"//5322.svetacdn.in/IAF0wWTdNYZm/movie/49122"},{"id":49121,"title":"Смерть во французском саду","kp_id":"57990","imdb_id":"tt0089860","world_art_id":null,"type":"movie","add":"2021-03-26 14:04:07","orig_title":"Péril en la demeure","year":"1985-02-13","translations":["Профессиональный (многоголосый закадровый) (Неоклассика)"],"quality":"bd","translation":"Профессиональный (многоголосый закадровый) (Неоклассика)","update":"2021-03-26 18:29:54","iframe_src":"//5322.svetacdn.in/IAF0wWTdNYZm/movie/49121"},{"id":48947,"title":"Хороший сосед","kp_id":"1046024","imdb_id":"tt6985320","world_art_id":null,"type":"movie","add":"2021-03-20 16:06:13","orig_title":"Iutsachon","year":"2020-11-25","translations":["Любительский (двухголосый закадровый) (Колобок)","Любительский (многоголосый закадровый) (Amazing Dubbing)"],"quality":"webdl","translation":"Любительский (двухголосый закадровый) (Колобок)","update":"2021-03-27 14:20:42","iframe_src":"//5322.svetacdn.in/IAF0wWTdNYZm/movie/48947"},{"id":47197,"title":"Беги, прячься, бей","kp_id":"1332062","imdb_id":"tt11456054","world_art_id":null,"type":"movie","add":"2021-01-18 08:40:00","orig_title":"Run Hide Fight","year":"2020-09-10","translations":["Любительский (многоголосый закадровый) (@MUZOBOZ@)","Original (English)","Полное дублирование (iTunes)"],"quality":"webdl","translation":"Любительский (многоголосый закадровый) (@MUZOBOZ@)","update":"2021-03-27 14:23:33","iframe_src":"//5322.svetacdn.in/IAF0wWTdNYZm/movie/47197"},{"id":9130,"title":"Фолловеры","kp_id":"1248516","imdb_id":"tt10049610","world_art_id":null,"type":"serial","add":"2020-10-26 23:14:08","orig_title":"Followers","year":"2020-02-27","translations":["Любительский (многоголосый закадровый) (WestFilm)"],"seasons_count":1,"episodes_count":9,"episodes":9,"update":"2020-10-27 06:46:53","iframe_src":"//5322.svetacdn.in/IAF0wWTdNYZm/tv-series/9130"},{"id":9112,"title":"Бой машин","kp_id":null,"imdb_id":"tt4606734","world_art_id":null,"type":"serial","add":"2020-10-25 14:50:07","orig_title":"Boy Machine","year":"2015-10-16","translations":["Любительский (многоголосый закадровый) (WestFilm)"],"seasons_count":1,"episodes_count":8,"episodes":8,"update":"2020-10-26 07:59:39","iframe_src":"//5322.svetacdn.in/IAF0wWTdNYZm/tv-series/9112"},{"id":9108,"title":"Злоба","kp_id":null,"imdb_id":"tt5050114","world_art_id":null,"type":"serial","add":"2020-10-24 17:46:49","orig_title":"Malicia","year":"2015-01-01","translations":["Любительский (многоголосый закадровый) (WestFilm)"],"seasons_count":1,"episodes_count":13,"episodes":13,"update":"2020-10-26 17:24:11","iframe_src":"//5322.svetacdn.in/IAF0wWTdNYZm/tv-series/9108"},{"id":9107,"title":"Татонка","kp_id":"705981","imdb_id":null,"world_art_id":null,"type":"serial","add":"2020-10-24 17:41:04","orig_title":"Les Legendes De Tatonka","year":"2010-01-01","translations":["Полное дублирование"],"seasons_count":1,"episodes_count":52,"episodes":52,"update":"2020-10-26 17:53:50","iframe_src":"//5322.svetacdn.in/IAF0wWTdNYZm/tv-series/9107"},{"id":9106,"title":"Рыцарь Майк","kp_id":"722586","imdb_id":"tt2320669","world_art_id":null,"type":"serial","add":"2020-10-24 17:11:22","orig_title":"Mike the Knight","year":"2011-11-01","translations":["Полное дублирование (Первый канал | ОРТ)"],"seasons_count":1,"episodes_count":52,"episodes":52,"update":"2020-10-26 18:22:00","iframe_src":"//5322.svetacdn.in/IAF0wWTdNYZm/tv-series/9106"},{"id":9072,"title":"Ты прекрасен!","kp_id":"493757","imdb_id":"tt2074131","world_art_id":null,"type":"serial","add":"2020-10-21 12:44:54","orig_title":"Minami Shineyo","year":"2009-10-07","translations":["Любительский (двухголосый закадровый)"],"seasons_count":1,"episodes_count":16,"episodes":16,"update":"2020-10-26 09:54:40","iframe_src":"//5322.svetacdn.in/IAF0wWTdNYZm/tv-series/9072"},{"id":9047,"title":"Отряд джунглей спешит на помощь","kp_id":"1046654","imdb_id":"tt2276589","world_art_id":null,"type":"serial","add":"2020-10-17 12:20:32","orig_title":"Les As de la Jungle En Direct","year":"2011-10-10","translations":["Полное дублирование"],"seasons_count":2,"episodes_count":52,"episodes":26,"update":"2020-10-27 07:44:21","iframe_src":"//5322.svetacdn.in/IAF0wWTdNYZm/tv-series/9047"},{"id":9043,"title":"Гарфилд шоу","kp_id":"710522","imdb_id":"tt1470837","world_art_id":null,"type":"serial","add":"2020-10-17 11:30:56","orig_title":"The Garfield Show","year":"2008-12-22","translations":["Полное дублирование","Полное дублирование (SDI Media)"],"seasons_count":5,"episodes_count":92,"episodes":1,"update":"2020-10-26 13:36:52","iframe_src":"//5322.svetacdn.in/IAF0wWTdNYZm/tv-series/9043"},{"id":9042,"title":"Машины одежки","kp_id":"1112483","imdb_id":null,"world_art_id":null,"type":"serial","add":"2020-10-17 11:27:53","orig_title":"Машины одежки","year":"2015-01-01","translations":["Оригинальная дорожка"],"seasons_count":1,"episodes_count":26,"episodes":26,"update":"2020-10-26 10:57:58","iframe_src":"//5322.svetacdn.in/IAF0wWTdNYZm/tv-series/9042"},{"id":9023,"title":"Тихоокеанские расследования","kp_id":"1322495","imdb_id":"tt11278600","world_art_id":null,"type":"serial","add":"2020-10-15 20:27:09","orig_title":"OPJ Pacifique Sud","year":"2019-11-11","translations":["Любительский (многоголосый закадровый) (WestFilm)"],"seasons_count":1,"episodes_count":20,"episodes":20,"update":"2020-10-26 17:18:25","iframe_src":"//5322.svetacdn.in/IAF0wWTdNYZm/tv-series/9023"},{"id":8934,"title":"Полицейский дневник 2.0","kp_id":"1335046","imdb_id":"tt11390470","world_art_id":null,"type":"serial","add":"2020-10-07 12:55:50","orig_title":"Police Diary 2.0","year":"2019-11-01","translations":["Любительский (многоголосый закадровый) (Ultradox)"],"seasons_count":1,"episodes_count":20,"episodes":20,"update":"2020-10-26 21:27:24","iframe_src":"//5322.svetacdn.in/IAF0wWTdNYZm/tv-series/8934"},{"id":8911,"title":"Расследование","kp_id":"1200321","imdb_id":"tt9112152","world_art_id":null,"type":"serial","add":"2020-10-04 16:40:49","orig_title":"The Investigation","year":"2020-09-28","translations":["Профессиональный (многоголосый закадровый) (Novamedia)","Любительский (многоголосый закадровый) (Ultradox)"],"seasons_count":1,"episodes_count":6,"episodes":6,"update":"2020-10-26 08:41:05","iframe_src":"//5322.svetacdn.in/IAF0wWTdNYZm/tv-series/8911"},{"id":8897,"title":"Узурпаторша","kp_id":"1289398","imdb_id":"tt10709178","world_art_id":null,"type":"serial","add":"2020-10-01 16:08:52","orig_title":"La usurpadora","year":"2019-09-02","translations":["Любительский (многоголосый закадровый) (WestFilm)","Любительский (двухголосый закадровый) (RusFilm)"],"seasons_count":1,"episodes_count":25,"episodes":25,"update":"2020-10-26 11:09:14","iframe_src":"//5322.svetacdn.in/IAF0wWTdNYZm/tv-series/8897"},{"id":8775,"title":"Сестра Рэтчед","kp_id":"1233464","imdb_id":"tt7423538","world_art_id":null,"type":"serial","add":"2020-09-18 10:54:09","orig_title":"Ratched","year":"2020-09-18","translations":["Любительский (многоголосый закадровый) (Octopus)","Любительский (многоголосый закадровый) (ColdFilm)","Профессиональный (многоголосый закадровый) (BaibaKo)","Профессиональный (двухголосый закадровый) (IdeaFilm)","Профессиональный (многоголосый закадровый) (HDrezka Studio)","Профессиональный (многоголосый закадровый) (LostFilm)","Профессиональный (многоголосый закадровый) (NewStudio)","Профессиональный (многоголосый закадровый) (Jaskier)","Любительский (многоголосый закадровый) (WestFilm)"],"seasons_count":1,"episodes_count":8,"episodes":8,"update":"2020-10-26 17:12:59","iframe_src":"//5322.svetacdn.in/IAF0wWTdNYZm/tv-series/8775"},{"id":8696,"title":"Жестокий романс","kp_id":"837690","imdb_id":"tt6973630","world_art_id":null,"type":"serial","add":"2020-09-11 06:03:20","orig_title":"Jin xiu yuan huali mao xian","year":"2015-03-03","translations":["Любительский (двухголосый закадровый)"],"seasons_count":1,"episodes_count":31,"episodes":31,"update":"2020-10-27 06:50:01","iframe_src":"//5322.svetacdn.in/IAF0wWTdNYZm/tv-series/8696"},{"id":8589,"title":"Стереоскоп","kp_id":null,"imdb_id":"tt13026888","world_art_id":null,"type":"serial","add":"2020-08-31 14:27:21","orig_title":"Stereoscope","year":"2017-01-31","translations":["Любительский (многоголосый закадровый) (ColdFilm)","Любительский (многоголосый закадровый) (Octopus)","Профессиональный (многоголосый закадровый) (NewStudio)","Любительский (двухголосый закадровый) (KerobTV)"],"seasons_count":1,"episodes_count":10,"episodes":10,"update":"2020-10-26 07:10:48","iframe_src":"//5322.svetacdn.in/IAF0wWTdNYZm/tv-series/8589"},{"id":8232,"title":"Тени над Балканами","kp_id":"1195676","imdb_id":"tt6108262","world_art_id":null,"type":"serial","add":"2020-07-22 03:29:25","orig_title":"Senke nad Balkanom","year":"2017-08-16","translations":["Профессиональный (двухголосый закадровый) (ViruseProject)","Любительский (многоголосый закадровый) (WestFilm)"],"seasons_count":2,"episodes_count":20,"episodes":10,"update":"2020-10-26 07:13:11","iframe_src":"//5322.svetacdn.in/IAF0wWTdNYZm/tv-series/8232"},{"id":6455,"title":"Звёздный путь: Пикар","kp_id":"1178022","imdb_id":"tt8806524","world_art_id":null,"type":"serial","add":"2020-01-23 12:31:18","orig_title":"Star Trek: Picard","year":"2020-01-23","translations":["Любительский (многоголосый закадровый) (Octopus)","Любительский (многоголосый закадровый) (ColdFilm)","Любительский (многоголосый закадровый) (KerobTV)","Профессиональный (многоголосый закадровый) (SDI Media)","Профессиональный (многоголосый закадровый) (IdeaFilm)","Профессиональный (многоголосый закадровый) (HDrezka Studio)","Профессиональный (многоголосый закадровый) (LostFilm)","Профессиональный (многоголосый закадровый) (Jaskier)","Профессиональный (многоголосый закадровый) (NewStudio)","Профессиональный (многоголосый закадровый) (TVShows)","Профессиональный (многоголосый закадровый) (AlexFilm)","Профессиональный (многоголосый закадровый) (BaibaKo)","Любительский (многоголосый закадровый) (WestFilm)"],"seasons_count":1,"episodes_count":10,"episodes":10,"update":"2020-10-27 06:52:41","iframe_src":"//5322.svetacdn.in/IAF0wWTdNYZm/tv-series/6455"},{"id":5635,"title":"Послания призрака","kp_id":"1311939","imdb_id":"tt11004134","world_art_id":null,"type":"serial","add":"2019-11-05 12:02:48","orig_title":"Ghostwriter","year":"2019-11-01","translations":["Любительский (многоголосый закадровый) (Octopus)","Профессиональный (многоголосый закадровый) (TVShows)","Любительский (двухголосый закадровый) (KerobTV)"],"seasons_count":2,"episodes_count":20,"episodes":7,"update":"2020-10-26 08:48:46","iframe_src":"//5322.svetacdn.in/IAF0wWTdNYZm/tv-series/5635"},{"id":31721,"title":"Мелисса: Интимный дневник","kp_id":"102459","imdb_id":"tt0443584","world_art_id":null,"type":"movie","add":"2019-10-11 06:16:56","orig_title":"Melissa P.","year":"2005-11-18","translations":["Профессиональный (многоголосый закадровый)"],"quality":"webdl","translation":"Профессиональный (многоголосый закадровый)","update":"2021-03-27 14:21:42","iframe_src":"//5322.svetacdn.in/IAF0wWTdNYZm/movie/31721"},{"id":29275,"title":"Бэтмен: Тихо!","kp_id":"1189822","imdb_id":"tt8752440","world_art_id":null,"type":"movie","add":"2019-07-22 06:17:33","orig_title":"Batman: Hush","year":"2019-07-20","translations":["Профессиональный (многоголосый закадровый)","Профессиональный (многоголосый закадровый) (HDrezka Studio)","Любительский (многоголосый закадровый) (OnisFilms)"],"quality":"webdl","translation":"Профессиональный (многоголосый закадровый)","update":"2021-03-26 21:22:05","iframe_src":"//5322.svetacdn.in/IAF0wWTdNYZm/movie/29275"},{"id":16244,"title":"Вы не все сказали, Ферран","kp_id":"78435","imdb_id":"tt0061000","world_art_id":null,"type":"movie","add":"2018-04-13 22:32:41","orig_title":"Le soleil des voyous","year":"1967-05-31","translations":["Полное дублирование","Полное дублирование (Союзмультфильм)"],"quality":"hdtv","translation":"Полное дублирование","update":"2021-03-27 14:16:57","iframe_src":"//5322.svetacdn.in/IAF0wWTdNYZm/movie/16244"},{"id":152,"title":"Слово на букву А","kp_id":"972221","imdb_id":"tt5311790","world_art_id":null,"type":"serial","add":"2016-06-07 10:27:23","orig_title":"The A Word","year":"2016-03-22","translations":["Любительский (двухголосый закадровый) (Sunshine Studio)","Профессиональный (многоголосый закадровый) (NewStudio)","Любительский (двухголосый закадровый) (Hamster Studio)"],"seasons_count":3,"episodes_count":18,"episodes":6,"update":"2020-10-26 13:37:20","iframe_src":"//5322.svetacdn.in/IAF0wWTdNYZm/tv-series/152"}],"current_page":111,"first_page_url":"https://videocdn.tv/api/short?limit=100&api_token=6Onb1W1alEUrBcKJZD3GoKBbWyAl2uG2&cache3111=3111&page=1","from":11001,"last_page":620,"last_page_url":"https://videocdn.tv/api/short?limit=100&api_token=6Onb1W1alEUrBcKJZD3GoKBbWyAl2uG2&cache3111=3111&page=620","next_page_url":"https://videocdn.tv/api/short?limit=100&api_token=6Onb1W1alEUrBcKJZD3GoKBbWyAl2uG2&cache3111=3111&page=112","path":"https://videocdn.tv/api/short","per_page":100,"prev_page_url":"https://videocdn.tv/api/short?limit=100&api_token=6Onb1W1alEUrBcKJZD3GoKBbWyAl2uG2&cache3111=3111&page=110","to":11040,"total":62000}