{"result":true,"data":[{"id":47709,"title":"Настоящий Бадшах","kp_id":"494797","imdb_id":"tt1483821","world_art_id":null,"type":"movie","add":"2021-02-07 09:24:14","orig_title":"Asal","year":"2010-02-05","translations":["Профессиональный (многоголосый закадровый) (Red Media)"],"quality":"dvdrip","translation":"Профессиональный (многоголосый закадровый) (Red Media)","update":"2021-02-07 10:10:01","iframe_src":"//83.svetacdn.in/PfJ50H0ZBPg3/movie/47709"},{"id":47708,"title":"Однажды в провинции","kp_id":"416115","imdb_id":"tt1353180","world_art_id":null,"type":"movie","add":"2021-02-06 22:13:20","orig_title":"Odnazhdy v provintsii","year":"2008-09-25","translations":["Оригинальная дорожка"],"quality":"dvdrip","translation":"Оригинальная дорожка","update":"2021-02-07 08:15:57","iframe_src":"//83.svetacdn.in/PfJ50H0ZBPg3/movie/47708"},{"id":47704,"title":"Смит","kp_id":"1373286","imdb_id":"tt10544750","world_art_id":null,"type":"movie","add":"2021-02-06 18:36:56","orig_title":"Smith","year":"2020-04-17","translations":["Любительский (многоголосый закадровый) (Синема УС)"],"quality":"webdl","translation":"Любительский (многоголосый закадровый) (Синема УС)","update":"2021-02-07 08:04:38","iframe_src":"//83.svetacdn.in/PfJ50H0ZBPg3/movie/47704"},{"id":47702,"title":"Семейка","kp_id":"438442","imdb_id":"tt1353093","world_art_id":null,"type":"movie","add":"2021-02-06 17:56:22","orig_title":"Familywala","year":"2014-10-31","translations":["Профессиональный (многоголосый закадровый) (Red Media)"],"quality":"webdl","translation":"Профессиональный (многоголосый закадровый) (Red Media)","update":"2021-02-07 08:26:02","iframe_src":"//83.svetacdn.in/PfJ50H0ZBPg3/movie/47702"},{"id":47699,"title":"Расплата","kp_id":"1179782","imdb_id":"tt8786654","world_art_id":null,"type":"movie","add":"2021-02-06 17:01:13","orig_title":"Payback","year":"2021-02-05","translations":["Любительский (многоголосый закадровый) (@MUZOBOZ@)"],"quality":"webdl","translation":"Любительский (многоголосый закадровый) (@MUZOBOZ@)","update":"2021-02-07 08:00:29","iframe_src":"//83.svetacdn.in/PfJ50H0ZBPg3/movie/47699"},{"id":47698,"title":"Красные леса","kp_id":"1399340","imdb_id":"tt12832916","world_art_id":null,"type":"movie","add":"2021-02-06 16:57:30","orig_title":"Red Woods","year":"2021-02-05","translations":["Любительский (многоголосый закадровый) (@MUZOBOZ@)"],"quality":"webdl","translation":"Любительский (многоголосый закадровый) (@MUZOBOZ@)","update":"2021-02-07 07:52:47","iframe_src":"//83.svetacdn.in/PfJ50H0ZBPg3/movie/47698"},{"id":47697,"title":"Сын Юга","kp_id":"762081","imdb_id":"tt2235372","world_art_id":null,"type":"movie","add":"2021-02-06 16:50:53","orig_title":"Son of the South","year":"2021-02-05","translations":["Любительский (многоголосый закадровый) (@MUZOBOZ@)","Original (English)"],"quality":"webdl","translation":"Любительский (многоголосый закадровый) (@MUZOBOZ@)","update":"2021-02-07 08:27:24","iframe_src":"//83.svetacdn.in/PfJ50H0ZBPg3/movie/47697"},{"id":47696,"title":"Заклятье: Новый ритуал","kp_id":"1401241","imdb_id":"tt12844834","world_art_id":null,"type":"movie","add":"2021-02-06 16:47:18","orig_title":"La Funeraria","year":"2020-08-20","translations":["Любительский (многоголосый закадровый) (Синема УС)"],"quality":"webdl","translation":"Любительский (многоголосый закадровый) (Синема УС)","update":"2021-02-07 07:53:52","iframe_src":"//83.svetacdn.in/PfJ50H0ZBPg3/movie/47696"},{"id":47695,"title":"Подражатель","kp_id":"1006105","imdb_id":"tt5704368","world_art_id":null,"type":"movie","add":"2021-02-06 16:43:22","orig_title":"The Mimic","year":"2020-03-07","translations":["Любительский (многоголосый закадровый) (@MUZOBOZ@)"],"quality":"webdl","translation":"Любительский (многоголосый закадровый) (@MUZOBOZ@)","update":"2021-02-07 07:52:04","iframe_src":"//83.svetacdn.in/PfJ50H0ZBPg3/movie/47695"},{"id":47690,"title":"Мрачное время","kp_id":"78122","imdb_id":"tt0402249","world_art_id":null,"type":"movie","add":"2021-02-05 17:07:27","orig_title":"The Dark Hours","year":"2005-03-11","translations":["Профессиональный (двухголосый закадровый)"],"quality":"dvdrip","translation":"Профессиональный (двухголосый закадровый)","update":"2021-02-07 08:17:56","iframe_src":"//83.svetacdn.in/PfJ50H0ZBPg3/movie/47690"},{"id":47685,"title":"Хорошие девочки","kp_id":"1172853","imdb_id":"tt8383538","world_art_id":null,"type":"movie","add":"2021-02-05 09:23:51","orig_title":"Brave ragazze","year":"2019-10-10","translations":["Любительский (многоголосый закадровый) (AlphaProject)"],"quality":"webdl","translation":"Любительский (многоголосый закадровый) (AlphaProject)","update":"2021-02-07 17:05:55","iframe_src":"//83.svetacdn.in/PfJ50H0ZBPg3/movie/47685"},{"id":47683,"title":"Моя мать сошла с ума","kp_id":"1199932","imdb_id":"tt9011176","world_art_id":null,"type":"movie","add":"2021-02-05 09:20:21","orig_title":"Meine Mutter spielt verrückt","year":"2019-04-19","translations":["Любительский (многоголосый закадровый) (AlphaProject)"],"quality":"hdtv","translation":"Любительский (многоголосый закадровый) (AlphaProject)","update":"2021-02-07 06:58:48","iframe_src":"//83.svetacdn.in/PfJ50H0ZBPg3/movie/47683"},{"id":47682,"title":"Королева красоты","kp_id":"1303546","imdb_id":"tt10875512","world_art_id":null,"type":"movie","add":"2021-02-05 09:18:13","orig_title":"Miss Chazelles","year":"2019-08-08","translations":["Любительский (многоголосый закадровый) (Синема УС)"],"quality":"webdl","translation":"Любительский (многоголосый закадровый) (Синема УС)","update":"2021-02-07 06:58:32","iframe_src":"//83.svetacdn.in/PfJ50H0ZBPg3/movie/47682"},{"id":47636,"title":"Еще увидимся","kp_id":"1083260","imdb_id":"tt7527818","world_art_id":null,"type":"movie","add":"2021-02-03 10:07:20","orig_title":"I'll See You Around","year":"2019-08-02","translations":["Любительский (многоголосый закадровый) (Синема УС)"],"quality":"webdl","translation":"Любительский (многоголосый закадровый) (Синема УС)","update":"2021-02-07 09:56:42","iframe_src":"//83.svetacdn.in/PfJ50H0ZBPg3/movie/47636"},{"id":47635,"title":"Бруклинские истории любви","kp_id":"1053985","imdb_id":"tt7038246","world_art_id":null,"type":"movie","add":"2021-02-03 10:05:11","orig_title":"Bushwick Beats","year":"2019-04-30","translations":["Любительский (многоголосый закадровый) (Синема УС)"],"quality":"webdl","translation":"Любительский (многоголосый закадровый) (Синема УС)","update":"2021-02-07 09:56:22","iframe_src":"//83.svetacdn.in/PfJ50H0ZBPg3/movie/47635"},{"id":46571,"title":"Предвестники бури","kp_id":"2205","imdb_id":"tt0167456","world_art_id":null,"type":"movie","add":"2020-12-31 11:40:07","orig_title":"Thunderbirds","year":"2004-07-14","translations":["Профессиональный (многоголосый закадровый)","Original (English)"],"quality":"webdl","translation":"Профессиональный (многоголосый закадровый)","update":"2021-02-07 17:37:16","iframe_src":"//83.svetacdn.in/PfJ50H0ZBPg3/movie/46571"},{"id":46535,"title":"Восторг Палуза","kp_id":"586435","imdb_id":"tt1879032","world_art_id":null,"type":"movie","add":"2020-12-30 10:40:57","orig_title":"Rapture-Palooza","year":"2013-06-07","translations":["Любительский (одноголосый закадровый) (den904)","Original (English)"],"quality":"bd","translation":"Любительский (одноголосый закадровый) (den904)","update":"2021-02-07 17:40:45","iframe_src":"//83.svetacdn.in/PfJ50H0ZBPg3/movie/46535"},{"id":46445,"title":"Каратели","kp_id":"4653","imdb_id":"tt0084867","world_art_id":null,"type":"movie","add":"2020-12-28 09:23:52","orig_title":"Vigilante","year":"1982-05-18","translations":["Любительский (одноголосый закадровый)","Original (English)"],"quality":"bd","translation":"Любительский (одноголосый закадровый)","update":"2021-02-07 17:39:16","iframe_src":"//83.svetacdn.in/PfJ50H0ZBPg3/movie/46445"},{"id":43977,"title":"Последняя смена","kp_id":"1284490","imdb_id":"tt10661180","world_art_id":null,"type":"movie","add":"2020-09-29 19:01:12","orig_title":"The Last Shift","year":"2020-01-27","translations":["Любительский (многоголосый закадровый) (@MUZOBOZ@)","Профессиональный (многоголосый закадровый) (iTunes)","Original (English)"],"quality":"webdl","translation":"Любительский (многоголосый закадровый) (@MUZOBOZ@)","update":"2021-02-07 17:38:23","iframe_src":"//83.svetacdn.in/PfJ50H0ZBPg3/movie/43977"},{"id":7155,"title":"Опасное заблуждение","kp_id":"912411","imdb_id":"tt9438698","world_art_id":null,"type":"serial","add":"2020-04-10 14:24:57","orig_title":"Opasnoe zabluzhdenie","year":"2015-09-20","translations":["Оригинальная дорожка"],"seasons_count":1,"episodes_count":4,"episodes":4,"update":"2020-04-10 19:54:29","iframe_src":"//83.svetacdn.in/PfJ50H0ZBPg3/tv-series/7155"},{"id":7154,"title":"Неродная","kp_id":"1311034","imdb_id":null,"world_art_id":null,"type":"serial","add":"2020-04-10 14:19:24","orig_title":"Неродная","year":"2018-01-01","translations":["Оригинальная дорожка"],"seasons_count":1,"episodes_count":2,"episodes":2,"update":"2020-04-10 14:45:02","iframe_src":"//83.svetacdn.in/PfJ50H0ZBPg3/tv-series/7154"},{"id":7152,"title":"Пивные братья","kp_id":"1302451","imdb_id":"tt10930958","world_art_id":null,"type":"serial","add":"2020-04-10 12:50:43","orig_title":"Brews Brothers","year":"2020-04-10","translations":["Любительский (многоголосый закадровый) (Octopus)"],"seasons_count":1,"episodes_count":8,"episodes":8,"update":"2020-04-10 21:21:23","iframe_src":"//83.svetacdn.in/PfJ50H0ZBPg3/tv-series/7152"},{"id":7149,"title":"Таракан-робот","kp_id":"393875","imdb_id":"tt0364865","world_art_id":null,"type":"serial","add":"2020-04-10 09:58:04","orig_title":"RoboRoach","year":"2002-01-08","translations":["Полное дублирование"],"seasons_count":2,"episodes_count":52,"episodes":26,"update":"2020-04-11 15:15:45","iframe_src":"//83.svetacdn.in/PfJ50H0ZBPg3/tv-series/7149"},{"id":7148,"title":"Мезальянс","kp_id":"915990","imdb_id":null,"world_art_id":null,"type":"serial","add":"2020-04-10 09:52:00","orig_title":"Mezalyans","year":"2015-11-14","translations":["Оригинальная дорожка"],"seasons_count":1,"episodes_count":2,"episodes":2,"update":"2020-04-10 21:18:27","iframe_src":"//83.svetacdn.in/PfJ50H0ZBPg3/tv-series/7148"},{"id":7146,"title":"Земля 2","kp_id":"392561","imdb_id":"tt0108758","world_art_id":null,"type":"serial","add":"2020-04-09 13:03:46","orig_title":"Earth 2","year":"1994-11-06","translations":["Любительский (многоголосый закадровый)"],"seasons_count":1,"episodes_count":22,"episodes":22,"update":"2020-04-11 15:28:36","iframe_src":"//83.svetacdn.in/PfJ50H0ZBPg3/tv-series/7146"},{"id":7145,"title":"Кома","kp_id":"690529","imdb_id":"tt2132641","world_art_id":null,"type":"serial","add":"2020-04-09 08:54:44","orig_title":"Coma","year":"2012-09-03","translations":["Профессиональный (многоголосый закадровый) (ТВ3)"],"seasons_count":1,"episodes_count":2,"episodes":2,"update":"2020-04-10 20:19:43","iframe_src":"//83.svetacdn.in/PfJ50H0ZBPg3/tv-series/7145"},{"id":7143,"title":"Синатра: Все или ничего","kp_id":"950132","imdb_id":"tt3838978","world_art_id":null,"type":"serial","add":"2020-04-09 08:50:17","orig_title":"Sinatra: All or Nothing at All","year":"2015-04-05","translations":["Профессиональный (многоголосый закадровый) (AB-Video)"],"seasons_count":1,"episodes_count":2,"episodes":2,"update":"2020-04-10 20:20:51","iframe_src":"//83.svetacdn.in/PfJ50H0ZBPg3/tv-series/7143"},{"id":7141,"title":"Красная площадь","kp_id":"95448","imdb_id":"tt0429388","world_art_id":null,"type":"serial","add":"2020-04-09 06:28:00","orig_title":"Krasnaya ploshchad","year":"2004-09-20","translations":["Оригинальная дорожка","Полное дублирование"],"seasons_count":1,"episodes_count":8,"episodes":8,"update":"2020-04-10 12:28:36","iframe_src":"//83.svetacdn.in/PfJ50H0ZBPg3/tv-series/7141"},{"id":7139,"title":"Богатство","kp_id":"399156","imdb_id":"tt4370312","world_art_id":null,"type":"serial","add":"2020-04-08 20:00:38","orig_title":"Bogatstvo","year":"2004-01-01","translations":["Оригинальная дорожка"],"seasons_count":1,"episodes_count":12,"episodes":12,"update":"2020-04-10 19:17:30","iframe_src":"//83.svetacdn.in/PfJ50H0ZBPg3/tv-series/7139"},{"id":7110,"title":"Страсть","kp_id":"1047899","imdb_id":"tt7361352","world_art_id":null,"type":"serial","add":"2020-04-07 06:32:11","orig_title":"Strast","year":"2020-04-06","translations":["Оригинальная дорожка"],"seasons_count":1,"episodes_count":8,"episodes":8,"update":"2020-04-10 14:15:45","iframe_src":"//83.svetacdn.in/PfJ50H0ZBPg3/tv-series/7110"},{"id":7091,"title":"BBC: Клетка","kp_id":"659961","imdb_id":null,"world_art_id":null,"type":"serial","add":"2020-04-05 09:52:17","orig_title":"The Cell","year":"2009-08-12","translations":["Профессиональный (одноголосый закадровый)"],"seasons_count":1,"episodes_count":3,"episodes":3,"update":"2020-04-09 18:37:16","iframe_src":"//83.svetacdn.in/PfJ50H0ZBPg3/tv-series/7091"},{"id":7086,"title":"С точки зрения науки","kp_id":"286505","imdb_id":"tt0462125","world_art_id":null,"type":"serial","add":"2020-04-04 09:36:58","orig_title":"Naked Science","year":"2004-09-15","translations":["Профессиональный (одноголосый закадровый)"],"seasons_count":4,"episodes_count":27,"episodes":1,"update":"2020-04-09 18:52:13","iframe_src":"//83.svetacdn.in/PfJ50H0ZBPg3/tv-series/7086"},{"id":7083,"title":"Береговая охрана","kp_id":"682994","imdb_id":"tt4567212","world_art_id":null,"type":"serial","add":"2020-04-04 09:12:14","orig_title":"Beregovaya okhrana","year":"2012-01-01","translations":["Оригинальная дорожка"],"seasons_count":1,"episodes_count":16,"episodes":16,"update":"2020-04-10 20:41:56","iframe_src":"//83.svetacdn.in/PfJ50H0ZBPg3/tv-series/7083"},{"id":7029,"title":"Паромщица","kp_id":"1272222","imdb_id":null,"world_art_id":null,"type":"serial","add":"2020-03-30 13:14:43","orig_title":"Паромщица","year":"2020-03-30","translations":["Оригинальная дорожка"],"seasons_count":1,"episodes_count":16,"episodes":16,"update":"2020-04-10 14:14:34","iframe_src":"//83.svetacdn.in/PfJ50H0ZBPg3/tv-series/7029"},{"id":38202,"title":"Владыка судьбы","kp_id":"78543","imdb_id":"tt0079590","world_art_id":null,"type":"movie","add":"2020-03-18 21:48:09","orig_title":"Muqaddar Ka Sikandar","year":"1978-10-27","translations":["Профессиональный (многоголосый закадровый)","Полное дублирование"],"quality":"dvdrip","translation":"Профессиональный (многоголосый закадровый)","update":"2021-02-07 12:16:53","iframe_src":"//83.svetacdn.in/PfJ50H0ZBPg3/movie/38202"},{"id":6895,"title":"Кордон","kp_id":"905072","imdb_id":"tt3560430","world_art_id":null,"type":"serial","add":"2020-03-16 12:55:35","orig_title":"Cordon","year":"2014-03-10","translations":["Профессиональный (многоголосый закадровый) (FOX)"],"seasons_count":2,"episodes_count":20,"episodes":10,"update":"2020-04-10 12:00:31","iframe_src":"//83.svetacdn.in/PfJ50H0ZBPg3/tv-series/6895"},{"id":6714,"title":"Полиция племени","kp_id":"1205086","imdb_id":"tt9108604","world_art_id":null,"type":"serial","add":"2020-02-22 21:51:34","orig_title":"Tribal","year":"2020-02-20","translations":["Любительский (многоголосый закадровый) (ColdFilm)"],"seasons_count":1,"episodes_count":8,"episodes":8,"update":"2020-04-10 15:55:12","iframe_src":"//83.svetacdn.in/PfJ50H0ZBPg3/tv-series/6714"},{"id":4841,"title":"Девчонки из Флориды","kp_id":"1163877","imdb_id":"tt8548870","world_art_id":null,"type":"serial","add":"2019-07-13 13:59:49","orig_title":"Florida Girls","year":"2019-01-01","translations":["Профессиональный (многоголосый закадровый)","Профессиональный (многоголосый закадровый) (HDrezka Studio)","Любительский (многоголосый закадровый)"],"seasons_count":1,"episodes_count":10,"episodes":10,"update":"2020-04-10 20:54:25","iframe_src":"//83.svetacdn.in/PfJ50H0ZBPg3/tv-series/4841"},{"id":4672,"title":"Свидетель обвинения","kp_id":"1000595","imdb_id":"tt5834256","world_art_id":null,"type":"serial","add":"2019-06-16 11:03:13","orig_title":"The Witness for the Prosecution","year":"2016-12-26","translations":["Профессиональный (многоголосый закадровый) (ViruseProject)","Профессиональный (многоголосый закадровый) (LostFilm)"],"seasons_count":1,"episodes_count":2,"episodes":2,"update":"2020-04-10 06:33:13","iframe_src":"//83.svetacdn.in/PfJ50H0ZBPg3/tv-series/4672"},{"id":3091,"title":"Священная ложь","kp_id":"1159316","imdb_id":"tt7949196","world_art_id":null,"type":"serial","add":"2018-08-27 22:11:13","orig_title":"Sacred Lies","year":"2018-07-27","translations":["Любительский (двухголосый закадровый) (GoldTeam)","Профессиональный (многоголосый закадровый) (HDrezka Studio)","Любительский (многоголосый закадровый) (ColdFilm)","Любительский (многоголосый закадровый) (Octopus)"],"seasons_count":2,"episodes_count":20,"episodes":10,"update":"2020-04-11 11:10:57","iframe_src":"//83.svetacdn.in/PfJ50H0ZBPg3/tv-series/3091"}],"current_page":238,"first_page_url":"https://videocdn.tv/api/short?limit=100&api_token=RgFQdUIR2dRmwv8iYa5SnFNgnw3vpjKj&cache3238=3238&page=1","from":23701,"last_page":626,"last_page_url":"https://videocdn.tv/api/short?limit=100&api_token=RgFQdUIR2dRmwv8iYa5SnFNgnw3vpjKj&cache3238=3238&page=626","next_page_url":"https://videocdn.tv/api/short?limit=100&api_token=RgFQdUIR2dRmwv8iYa5SnFNgnw3vpjKj&cache3238=3238&page=239","path":"https://videocdn.tv/api/short","per_page":100,"prev_page_url":"https://videocdn.tv/api/short?limit=100&api_token=RgFQdUIR2dRmwv8iYa5SnFNgnw3vpjKj&cache3238=3238&page=237","to":23740,"total":62573}