{"result":true,"data":[{"id":51380,"title":"Просто друг","kp_id":"1002316","imdb_id":"tt6032708","world_art_id":null,"type":"movie","add":"2021-06-23 10:43:19","orig_title":"Just a Friend","year":"2019-01-01","translations":["Любительский (многоголосый закадровый) (Синема УС)"],"quality":"webdl","translation":"Любительский (многоголосый закадровый) (Синема УС)","update":"2021-06-24 10:44:00","iframe_src":"//8209.svetacdn.in/IAF0wWTdNYZm/movie/51380"},{"id":51379,"title":"Потерянный ультрамарин","kp_id":"1272360","imdb_id":"tt10448536","world_art_id":null,"type":"movie","add":"2021-06-23 10:40:19","orig_title":"Inakunare Gunjo","year":"2019-09-06","translations":["Любительский (многоголосый закадровый) (AlphaProject)"],"quality":"webdl","translation":"Любительский (многоголосый закадровый) (AlphaProject)","update":"2021-06-24 10:45:17","iframe_src":"//8209.svetacdn.in/IAF0wWTdNYZm/movie/51379"},{"id":51378,"title":"Деранс","kp_id":"1174269","imdb_id":"tt8705658","world_art_id":null,"type":"movie","add":"2021-06-23 09:49:23","orig_title":"Desrances","year":"2019-02-23","translations":["Любительский (многоголосый закадровый) (Синема УС)"],"quality":"webdl","translation":"Любительский (многоголосый закадровый) (Синема УС)","update":"2021-06-24 10:46:08","iframe_src":"//8209.svetacdn.in/IAF0wWTdNYZm/movie/51378"},{"id":51375,"title":"Те ещё звери","kp_id":"1126327","imdb_id":"tt8278754","world_art_id":null,"type":"movie","add":"2021-06-23 09:31:05","orig_title":"Algunas Bestias","year":"2019-09-28","translations":["Любительский (многоголосый закадровый) (Синема УС)"],"quality":"webdl","translation":"Любительский (многоголосый закадровый) (Синема УС)","update":"2021-06-24 10:47:04","iframe_src":"//8209.svetacdn.in/IAF0wWTdNYZm/movie/51375"},{"id":51355,"title":"Мститель","kp_id":"407821","imdb_id":"tt1200065","world_art_id":null,"type":"movie","add":"2021-06-22 18:33:53","orig_title":"Kantri","year":"2008-05-23","translations":["Любительский (многоголосый закадровый) (ICG)"],"quality":"hdrip","translation":"Любительский (многоголосый закадровый) (ICG)","update":"2021-06-24 19:40:19","iframe_src":"//8209.svetacdn.in/IAF0wWTdNYZm/movie/51355"},{"id":51352,"title":"Полночная жара","kp_id":"5873","imdb_id":"tt0112266","world_art_id":null,"type":"movie","add":"2021-06-22 17:14:35","orig_title":"Blackout","year":"1996-01-26","translations":["Авторский (одноголосый закадровый) (Гаврилов Андрей)","Original (English)","Профессиональный (многоголосый закадровый)"],"quality":"webdl","translation":"Авторский (одноголосый закадровый) (Гаврилов Андрей)","update":"2021-06-24 13:26:47","iframe_src":"//8209.svetacdn.in/IAF0wWTdNYZm/movie/51352"},{"id":51341,"title":"Королевская свадьба","kp_id":"26954","imdb_id":"tt0043983","world_art_id":null,"type":"movie","add":"2021-06-22 06:06:37","orig_title":"Royal Wedding","year":"1951-03-08","translations":["Original (English)","Профессиональный (двухголосый закадровый) (DVD Магия)","Профессиональный (двухголосый закадровый) (НТВ)","Профессиональный (двухголосый закадровый) (Культура)","Профессиональный (двухголосый закадровый) (Светла)"],"quality":"bd","translation":"Original (English)","update":"2021-06-24 13:20:36","iframe_src":"//8209.svetacdn.in/IAF0wWTdNYZm/movie/51341"},{"id":51326,"title":"Ченнелинг","kp_id":"1236892","imdb_id":"tt9779380","world_art_id":null,"type":"movie","add":"2021-06-21 12:03:59","orig_title":"Broken Halos","year":"2020-10-06","translations":["Профессиональный (многоголосый закадровый) (iTunes)","Профессиональный (многоголосый закадровый) (iTunes)"],"quality":"webdl","translation":"Профессиональный (многоголосый закадровый) (iTunes)","update":"2021-06-24 18:54:34","iframe_src":"//8209.svetacdn.in/IAF0wWTdNYZm/movie/51326"},{"id":51316,"title":"Игры, в которые играют люди","kp_id":"1283279","imdb_id":"tt10613992","world_art_id":null,"type":"movie","add":"2021-06-21 06:17:55","orig_title":"Seurapeli","year":"2020-08-21","translations":["Любительский (многоголосый закадровый) (Синема УС)"],"quality":"webdl","translation":"Любительский (многоголосый закадровый) (Синема УС)","update":"2021-06-24 19:40:07","iframe_src":"//8209.svetacdn.in/IAF0wWTdNYZm/movie/51316"},{"id":51281,"title":"Бродяга Кэнсин: Финал","kp_id":"1253992","imdb_id":"tt11809034","world_art_id":null,"type":"movie","add":"2021-06-19 06:24:30","orig_title":"Ruroni Kenshin: Saishusho","year":"2021-04-23","translations":["Любительский (двухголосый закадровый) (RealFake)","Профессиональный (многоголосый закадровый) (Flarrow Films)"],"quality":"webdl","translation":"Любительский (двухголосый закадровый) (RealFake)","update":"2021-06-24 13:28:37","iframe_src":"//8209.svetacdn.in/IAF0wWTdNYZm/movie/51281"},{"id":51224,"title":"Курочка","kp_id":"1038490","imdb_id":"tt6533000","world_art_id":null,"type":"movie","add":"2021-06-16 10:39:04","orig_title":"Ben Niao","year":"2017-02-01","translations":["Любительский (многоголосый закадровый) (Синема УС)"],"quality":"webdl","translation":"Любительский (многоголосый закадровый) (Синема УС)","update":"2021-06-24 19:39:53","iframe_src":"//8209.svetacdn.in/IAF0wWTdNYZm/movie/51224"},{"id":51223,"title":"Мы благодарны (Сиябонга)","kp_id":"1194170","imdb_id":"tt8329376","world_art_id":null,"type":"movie","add":"2021-06-16 10:36:56","orig_title":"We Are Thankful","year":"2018-08-10","translations":["Любительский (многоголосый закадровый) (Синема УС)"],"quality":"webdl","translation":"Любительский (многоголосый закадровый) (Синема УС)","update":"2021-06-24 19:39:36","iframe_src":"//8209.svetacdn.in/IAF0wWTdNYZm/movie/51223"},{"id":51221,"title":"Подсчет пуль","kp_id":"1364451","imdb_id":"tt12079822","world_art_id":null,"type":"movie","add":"2021-06-16 10:33:19","orig_title":"Counting Bullets","year":"2021-04-03","translations":["Любительский (многоголосый закадровый) (AlphaProject)"],"quality":"webdl","translation":"Любительский (многоголосый закадровый) (AlphaProject)","update":"2021-06-24 19:39:22","iframe_src":"//8209.svetacdn.in/IAF0wWTdNYZm/movie/51221"},{"id":50757,"title":"Играй со мной","kp_id":"4322000","imdb_id":"tt14376312","world_art_id":null,"type":"movie","add":"2021-05-30 21:40:48","orig_title":"Igray so mnoy","year":"2021-05-27","translations":["Оригинальная дорожка"],"quality":"webdl","translation":"Оригинальная дорожка","update":"2021-06-24 12:28:31","iframe_src":"//8209.svetacdn.in/IAF0wWTdNYZm/movie/50757"},{"id":50500,"title":"Новый порядок","kp_id":"1390940","imdb_id":"tt12474056","world_art_id":null,"type":"movie","add":"2021-05-19 16:28:54","orig_title":"Nuevo orden","year":"2020-09-10","translations":["Любительский (многоголосый закадровый) (Синема УС)","Профессиональный (многоголосый закадровый) (HDrezka Studio 18+)","Профессиональный (многоголосый закадровый) (HDrezka Studio)","Полное дублирование","Профессиональный (многоголосый закадровый) (HDrezka Studio 18+)","Профессиональный (многоголосый закадровый) (HDrezka Studio)","Полное дублирование (iTunes)"],"quality":"webdl","translation":"Любительский (многоголосый закадровый) (Синема УС)","update":"2021-06-24 19:17:30","iframe_src":"//8209.svetacdn.in/IAF0wWTdNYZm/movie/50500"},{"id":9542,"title":"Полузащитник","kp_id":"1189923","imdb_id":null,"world_art_id":null,"type":"serial","add":"2020-12-16 12:06:20","orig_title":"Полузащитник","year":"2018-07-12","translations":["Оригинальная дорожка"],"seasons_count":1,"episodes_count":2,"episodes":2,"update":"2020-12-16 18:36:32","iframe_src":"//8209.svetacdn.in/IAF0wWTdNYZm/tv-series/9542"},{"id":9532,"title":"Хрупкие создания","kp_id":"1291606","imdb_id":"tt10767748","world_art_id":null,"type":"serial","add":"2020-12-14 12:19:38","orig_title":"Tiny Pretty Things","year":"2020-12-14","translations":["Любительский (многоголосый закадровый) (Ultradox)","Любительский (многоголосый закадровый) (ColdFilm)","Любительский (двухголосый закадровый) (KerobTV)","Любительский (двухголосый закадровый) (Hamster Studio)","Профессиональный (двухголосый закадровый) (IdeaFilm)","Профессиональный (двухголосый закадровый) (Gears Media)","Профессиональный (многоголосый закадровый) (BaibaKo)"],"seasons_count":1,"episodes_count":10,"episodes":10,"update":"2020-12-17 08:03:06","iframe_src":"//8209.svetacdn.in/IAF0wWTdNYZm/tv-series/9532"},{"id":9529,"title":"Идеальный коммандос","kp_id":"1293205","imdb_id":"tt10661886","world_art_id":null,"type":"serial","add":"2020-12-13 17:03:38","orig_title":"Perfect Commando","year":"2020-02-13","translations":["Любительский (многоголосый закадровый) (ColdFilm)"],"seasons_count":1,"episodes_count":10,"episodes":10,"update":"2020-12-16 16:19:17","iframe_src":"//8209.svetacdn.in/IAF0wWTdNYZm/tv-series/9529"},{"id":9526,"title":"ПУПС: Поставка Уникальных Подарков Семьям","kp_id":"1157672","imdb_id":"tt8266218","world_art_id":null,"type":"serial","add":"2020-12-12 08:58:08","orig_title":"T.O.T.S.","year":"2019-06-14","translations":["Полное дублирование"],"seasons_count":1,"episodes_count":38,"episodes":38,"update":"2020-12-16 18:46:11","iframe_src":"//8209.svetacdn.in/IAF0wWTdNYZm/tv-series/9526"},{"id":9522,"title":"С замиранием сердца","kp_id":"703029","imdb_id":"tt12317924","world_art_id":null,"type":"serial","add":"2020-12-11 14:56:52","orig_title":"Haja Coração","year":"2016-10-10","translations":["Любительский (двухголосый закадровый) (AveBrasil)"],"seasons_count":1,"episodes_count":60,"episodes":60,"update":"2020-12-16 11:15:34","iframe_src":"//8209.svetacdn.in/IAF0wWTdNYZm/tv-series/9522"},{"id":9508,"title":"Блаффины","kp_id":"722312","imdb_id":"tt0421299","world_art_id":null,"type":"serial","add":"2020-12-09 20:44:17","orig_title":"The Bluffers","year":"1986-10-07","translations":["Профессиональный (двухголосый закадровый)"],"seasons_count":1,"episodes_count":13,"episodes":13,"update":"2020-12-16 18:58:48","iframe_src":"//8209.svetacdn.in/IAF0wWTdNYZm/tv-series/9508"},{"id":9495,"title":"Великие строения древности","kp_id":"892308","imdb_id":"tt1015518","world_art_id":null,"type":"serial","add":"2020-12-08 19:00:19","orig_title":"Ancient Megastructures","year":"2007-01-01","translations":["Профессиональный (одноголосый закадровый)"],"seasons_count":2,"episodes_count":9,"episodes":3,"update":"2020-12-16 17:07:49","iframe_src":"//8209.svetacdn.in/IAF0wWTdNYZm/tv-series/9495"},{"id":9386,"title":"Барби: Приключения в доме мечты","kp_id":"1115326","imdb_id":"tt7661472","world_art_id":null,"type":"serial","add":"2020-11-25 10:36:53","orig_title":"Barbie Dreamhouse Adventures","year":"2018-05-03","translations":["Полное дублирование"],"seasons_count":5,"episodes_count":52,"episodes":13,"update":"2020-12-17 09:16:31","iframe_src":"//8209.svetacdn.in/IAF0wWTdNYZm/tv-series/9386"},{"id":9356,"title":"13 дней вдали от солнца","kp_id":"1112085","imdb_id":"tt7899162","world_art_id":null,"type":"serial","add":"2020-11-21 22:50:09","orig_title":"Treze Dias Longe do Sol","year":"2018-01-08","translations":["Любительский (многоголосый закадровый) (Ultradox)"],"seasons_count":1,"episodes_count":10,"episodes":10,"update":"2020-12-16 21:53:41","iframe_src":"//8209.svetacdn.in/IAF0wWTdNYZm/tv-series/9356"},{"id":9142,"title":"Уважение","kp_id":"1402088","imdb_id":"tt11450050","world_art_id":null,"type":"serial","add":"2020-10-27 21:34:05","orig_title":"Saygi","year":"2020-10-27","translations":["Любительский (многоголосый закадровый) (Ultradox)","Любительский (многоголосый закадровый) (ColdFilm)"],"seasons_count":1,"episodes_count":8,"episodes":8,"update":"2020-12-16 21:40:32","iframe_src":"//8209.svetacdn.in/IAF0wWTdNYZm/tv-series/9142"},{"id":9004,"title":"Пересекая Атлантику","kp_id":"1229709","imdb_id":"tt9348700","world_art_id":null,"type":"serial","add":"2020-10-13 10:28:51","orig_title":"Atlantic Crossing","year":"2020-10-25","translations":["Любительский (многоголосый закадровый) (Ultradox)","Профессиональный (многоголосый закадровый) (Greb&Creative)","Профессиональный (многоголосый закадровый) (BaibaKo)"],"seasons_count":1,"episodes_count":8,"episodes":8,"update":"2020-12-16 14:46:25","iframe_src":"//8209.svetacdn.in/IAF0wWTdNYZm/tv-series/9004"},{"id":7464,"title":"Меморист","kp_id":"1338067","imdb_id":"tt11953100","world_art_id":null,"type":"serial","add":"2020-05-11 05:10:51","orig_title":"Memoriseuteu","year":"2020-03-11","translations":["Любительский (многоголосый закадровый) (STEPonee)","Профессиональный (многоголосый закадровый) (Мобильное телевидение)","Любительский (двухголосый закадровый) (SoftBox)"],"seasons_count":1,"episodes_count":16,"episodes":16,"update":"2020-12-16 19:45:20","iframe_src":"//8209.svetacdn.in/IAF0wWTdNYZm/tv-series/7464"},{"id":6330,"title":"Кровная месть","kp_id":"1263315","imdb_id":"tt10138112","world_art_id":null,"type":"serial","add":"2020-01-13 11:43:14","orig_title":"Krovnaya mest","year":"2019-04-28","translations":["Оригинальная дорожка"],"seasons_count":1,"episodes_count":4,"episodes":4,"update":"2020-12-17 09:21:08","iframe_src":"//8209.svetacdn.in/IAF0wWTdNYZm/tv-series/6330"},{"id":33897,"title":"Темная сторона желания","kp_id":"34886","imdb_id":"tt0348843","world_art_id":null,"type":"movie","add":"2019-12-10 05:27:47","orig_title":"Jism","year":"2003-01-17","translations":["Профессиональный (многоголосый закадровый) (Формат AB)","Профессиональный (многоголосый закадровый) (ZEE TV)"],"quality":"dvdrip","translation":"Профессиональный (многоголосый закадровый) (Формат AB)","update":"2021-06-24 19:40:30","iframe_src":"//8209.svetacdn.in/IAF0wWTdNYZm/movie/33897"},{"id":5932,"title":"Моя страна","kp_id":"1220706","imdb_id":"tt10850888","world_art_id":null,"type":"serial","add":"2019-12-03 21:20:21","orig_title":"Naui Nara","year":"2019-10-04","translations":["Любительский (двухголосый закадровый) (Колобок)","Любительский (двухголосый закадровый) (Amazing Dubbing)"],"seasons_count":1,"episodes_count":16,"episodes":16,"update":"2020-12-16 21:13:38","iframe_src":"//8209.svetacdn.in/IAF0wWTdNYZm/tv-series/5932"},{"id":4286,"title":"На канатах","kp_id":"1209561","imdb_id":"tt9261290","world_art_id":null,"type":"serial","add":"2019-03-20 04:57:36","orig_title":"On the Ropes","year":"2018-11-28","translations":["Профессиональный (многоголосый закадровый) (Zone Vision Studio)"],"seasons_count":1,"episodes_count":4,"episodes":4,"update":"2020-12-17 13:48:20","iframe_src":"//8209.svetacdn.in/IAF0wWTdNYZm/tv-series/4286"},{"id":20747,"title":"Нож в сердце","kp_id":"1027483","imdb_id":"tt6426028","world_art_id":null,"type":"movie","add":"2018-12-13 21:52:02","orig_title":"Un couteau dans le coeur","year":"2018-05-17","translations":["Профессиональный (многоголосый закадровый) (HDrezka Studio)","Профессиональный (многоголосый закадровый) (HDrezka Studio)"],"quality":"webdl","translation":"Профессиональный (многоголосый закадровый) (HDrezka Studio)","update":"2021-06-24 19:39:12","iframe_src":"//8209.svetacdn.in/IAF0wWTdNYZm/movie/20747"},{"id":2710,"title":"Красивая сестра, которая покупает мне еду","kp_id":"1048277","imdb_id":"tt8078816","world_art_id":null,"type":"serial","add":"2018-06-01 18:18:04","orig_title":"Bap Jal Sajuneun Yeppeun Nuna","year":"2018-03-30","translations":["Любительский (двухголосый закадровый) (SoftBox)","Профессиональный (многоголосый закадровый) (BaibaKo)","Любительский (двухголосый закадровый) (JoyStudio)","Любительский (двухголосый закадровый) (Храм Дорам ТВ)"],"seasons_count":1,"episodes_count":16,"episodes":16,"update":"2020-12-16 15:10:44","iframe_src":"//8209.svetacdn.in/IAF0wWTdNYZm/tv-series/2710"},{"id":1912,"title":"Андромеда","kp_id":"178568","imdb_id":"tt0213327","world_art_id":null,"type":"serial","add":"2018-01-03 07:39:18","orig_title":"Andromeda","year":"2000-10-02","translations":["Профессиональный (многоголосый закадровый) (СТС)","Профессиональный (многоголосый закадровый) (ТВ3)"],"seasons_count":5,"episodes_count":110,"episodes":22,"update":"2020-12-16 21:20:21","iframe_src":"//8209.svetacdn.in/IAF0wWTdNYZm/tv-series/1912"},{"id":783,"title":"Алое сердце","kp_id":"984001","imdb_id":"tt5320412","world_art_id":null,"type":"serial","add":"2017-01-02 07:11:42","orig_title":"Dalui yeonin - bobogyungsim Ryeo","year":"2016-08-29","translations":["Любительский (двухголосый закадровый) (SoftBox)","Любительский (двухголосый закадровый) (GREEN TEA)"],"seasons_count":1,"episodes_count":20,"episodes":20,"update":"2020-12-16 18:52:11","iframe_src":"//8209.svetacdn.in/IAF0wWTdNYZm/tv-series/783"},{"id":7029,"title":"Крикуны","kp_id":"28214","imdb_id":"tt0114367","world_art_id":null,"type":"movie","add":"2016-11-03 14:01:07","orig_title":"Screamers","year":"1995-09-08","translations":["Полное дублирование","Авторский (одноголосый закадровый) (Есарев Дмитрий)","Авторский (одноголосый закадровый) (Карцев Пётр)","Авторский (одноголосый закадровый) (Визгунов Сергей)","Полное дублирование (Видеосервис)","Original (English)","Профессиональный (многоголосый закадровый)","Профессиональный (многоголосый закадровый) (Первый канал | ОРТ)","Профессиональный (многоголосый закадровый) (РТР | Россия)","Профессиональный (многоголосый закадровый) (Видеосервис)"],"quality":"bd","translation":"Полное дублирование","update":"2021-06-24 13:08:26","iframe_src":"//8209.svetacdn.in/IAF0wWTdNYZm/movie/7029"},{"id":5117,"title":"Мистер Крутой","kp_id":"24691","imdb_id":"tt0117786","world_art_id":null,"type":"movie","add":"2016-09-08 06:53:44","orig_title":"Yat goh ho yan","year":"1997-01-31","translations":["Профессиональный (многоголосый закадровый)","Авторский (одноголосый закадровый) (Кашкин Александр | Первомайский)","Профессиональный (многоголосый закадровый) (West Video)","Авторский (одноголосый закадровый) (Есарев Дмитрий)","Original (English)"],"quality":"webdl","translation":"Профессиональный (многоголосый закадровый)","update":"2021-06-24 13:12:58","iframe_src":"//8209.svetacdn.in/IAF0wWTdNYZm/movie/5117"},{"id":347,"title":"Царство","kp_id":"738513","imdb_id":"tt2710394","world_art_id":null,"type":"serial","add":"2016-08-18 12:28:00","orig_title":"Reign","year":"2013-10-17","translations":["Профессиональный (многоголосый закадровый) (Amedia)","Профессиональный (многоголосый закадровый) (SDI Media)","Профессиональный (многоголосый закадровый) (TVShows)","Любительский (многоголосый закадровый) (Alternative Production)","Профессиональный (многоголосый закадровый) (BaibaKo)"],"seasons_count":4,"episodes_count":78,"episodes":16,"update":"2020-12-16 16:57:50","iframe_src":"//8209.svetacdn.in/IAF0wWTdNYZm/tv-series/347"},{"id":273,"title":"Больница Никербокер","kp_id":"818708","imdb_id":"tt2937900","world_art_id":null,"type":"serial","add":"2016-07-08 08:38:11","orig_title":"The Knick","year":"2014-08-08","translations":["Профессиональный (многоголосый закадровый) (AlexFilm)","Профессиональный (многоголосый закадровый) (Amedia)","Профессиональный (многоголосый закадровый) (Novamedia)"],"seasons_count":2,"episodes_count":20,"episodes":10,"update":"2020-12-16 17:22:17","iframe_src":"//8209.svetacdn.in/IAF0wWTdNYZm/tv-series/273"},{"id":1886,"title":"Смерть ей к лицу","kp_id":"1889","imdb_id":"tt0104070","world_art_id":null,"type":"movie","add":"2016-05-05 12:03:35","orig_title":"Death Becomes Her","year":"1992-07-31","translations":["Профессиональный (многоголосый закадровый)","Авторский (одноголосый закадровый) (Михалёв Алексей)","Original (English)","Профессиональный (двухголосый закадровый) (Первый канал | ОРТ)","Профессиональный (многоголосый закадровый)","Профессиональный (многоголосый закадровый) (FDV)","Профессиональный (многоголосый закадровый) (НТВ)","Профессиональный (многоголосый закадровый) (Неоклассика)","Профессиональный (многоголосый закадровый) (SDI Media)"],"quality":"bd","translation":"Профессиональный (многоголосый закадровый)","update":"2021-06-24 12:54:25","iframe_src":"//8209.svetacdn.in/IAF0wWTdNYZm/movie/1886"}],"current_page":138,"first_page_url":"https://videocdn.tv/api/short?limit=100&api_token=6Onb1W1alEUrBcKJZD3GoKBbWyAl2uG2&cache3138=3138&page=1","from":13701,"last_page":656,"last_page_url":"https://videocdn.tv/api/short?limit=100&api_token=6Onb1W1alEUrBcKJZD3GoKBbWyAl2uG2&cache3138=3138&page=656","next_page_url":"https://videocdn.tv/api/short?limit=100&api_token=6Onb1W1alEUrBcKJZD3GoKBbWyAl2uG2&cache3138=3138&page=139","path":"https://videocdn.tv/api/short","per_page":100,"prev_page_url":"https://videocdn.tv/api/short?limit=100&api_token=6Onb1W1alEUrBcKJZD3GoKBbWyAl2uG2&cache3138=3138&page=137","to":13740,"total":65600}