{"result":true,"data":[{"id":42751,"title":"Подвиды 3: Жажда крови","kp_id":"36004","imdb_id":"tt0109302","world_art_id":null,"type":"movie","add":"2020-08-25 13:01:09","orig_title":"Bloodlust: Subspecies III","year":"1994-02-16","translations":["Авторский (одноголосый закадровый) (Гаврилов Андрей)"],"quality":"bd","translation":"Авторский (одноголосый закадровый) (Гаврилов Андрей)","update":"2020-08-25 19:12:33","iframe_src":"//8543.svetacdn.in/IAF0wWTdNYZm/movie/42751"},{"id":42750,"title":"Проделки сорванца","kp_id":"367308","imdb_id":"tt0265577","world_art_id":null,"type":"movie","add":"2020-08-25 12:58:34","orig_title":"Emila nedarbi","year":"1985-01-01","translations":["Полное дублирование"],"quality":"iptv","translation":"Полное дублирование","update":"2020-08-25 19:12:49","iframe_src":"//8543.svetacdn.in/IAF0wWTdNYZm/movie/42750"},{"id":42749,"title":"Лиса и волк","kp_id":"818493","imdb_id":"tt7295404","world_art_id":null,"type":"movie","add":"2020-08-24 21:35:17","orig_title":"Lisa i volk","year":"1937-01-01","translations":["Оригинальная дорожка"],"quality":"dvdscr","translation":"Оригинальная дорожка","update":"2020-08-26 06:22:00","iframe_src":"//8543.svetacdn.in/IAF0wWTdNYZm/movie/42749"},{"id":42748,"title":"Лиса-строитель","kp_id":"675485","imdb_id":"tt8372518","world_art_id":null,"type":"movie","add":"2020-08-24 21:28:43","orig_title":"Lisa-stroitel","year":"1936-01-01","translations":["Оригинальная дорожка"],"quality":"dvdrip","translation":"Оригинальная дорожка","update":"2020-08-26 06:23:00","iframe_src":"//8543.svetacdn.in/IAF0wWTdNYZm/movie/42748"},{"id":42747,"title":"Мальчик с пальчик","kp_id":"477316","imdb_id":"tt4852398","world_art_id":null,"type":"movie","add":"2020-08-24 21:25:25","orig_title":"Malchik s palchik","year":"1938-01-01","translations":["Оригинальная дорожка"],"quality":"dvdrip","translation":"Оригинальная дорожка","update":"2020-08-26 06:23:56","iframe_src":"//8543.svetacdn.in/IAF0wWTdNYZm/movie/42747"},{"id":42746,"title":"Мальчик с пальчик","kp_id":"259984","imdb_id":"tt2252112","world_art_id":null,"type":"movie","add":"2020-08-24 21:21:37","orig_title":"Malchik s palchik","year":"1977-01-01","translations":["Оригинальная дорожка"],"quality":"dvdrip","translation":"Оригинальная дорожка","update":"2020-08-26 06:24:40","iframe_src":"//8543.svetacdn.in/IAF0wWTdNYZm/movie/42746"},{"id":42745,"title":"Маленький Мук","kp_id":"590126","imdb_id":"tt4854050","world_art_id":null,"type":"movie","add":"2020-08-24 20:34:19","orig_title":"Malenkiy Muk","year":"1938-01-01","translations":["Оригинальная дорожка"],"quality":"dvdrip","translation":"Оригинальная дорожка","update":"2020-08-26 06:25:33","iframe_src":"//8543.svetacdn.in/IAF0wWTdNYZm/movie/42745"},{"id":42737,"title":"Инцидент","kp_id":"312859","imdb_id":"tt1027820","world_art_id":null,"type":"movie","add":"2020-08-24 20:08:16","orig_title":"The Incident","year":"2011-09-12","translations":["Любительский (одноголосый закадровый) (den904)"],"quality":"bd","translation":"Любительский (одноголосый закадровый) (den904)","update":"2020-08-25 06:50:15","iframe_src":"//8543.svetacdn.in/IAF0wWTdNYZm/movie/42737"},{"id":42617,"title":"Ангелочек-мстительница","kp_id":"28462","imdb_id":"tt0088757","world_art_id":null,"type":"movie","add":"2020-08-20 18:05:16","orig_title":"Avenging Angel","year":"1985-01-11","translations":["Авторский (одноголосый закадровый) (Иванов Михаил)","Original (English)","Профессиональный (многоголосый закадровый) (Инис)","Профессиональный (многоголосый закадровый) (РТР | Россия)"],"quality":"bd","translation":"Авторский (одноголосый закадровый) (Иванов Михаил)","update":"2020-08-25 07:19:10","iframe_src":"//8543.svetacdn.in/IAF0wWTdNYZm/movie/42617"},{"id":41570,"title":"Ход вещей","kp_id":"1050648","imdb_id":"tt6833470","world_art_id":null,"type":"movie","add":"2020-07-02 21:27:57","orig_title":"The Swing of Things","year":"2020-07-14","translations":["Любительский (многоголосый закадровый) (@MUZOBOZ@)","Original (English)","Профессиональный (многоголосый закадровый) (iTunes)"],"quality":"bd","translation":"Любительский (многоголосый закадровый) (@MUZOBOZ@)","update":"2020-08-25 06:45:47","iframe_src":"//8543.svetacdn.in/IAF0wWTdNYZm/movie/41570"},{"id":40547,"title":"Скуби-ду","kp_id":"797697","imdb_id":"tt3152592","world_art_id":null,"type":"movie","add":"2020-05-20 04:50:21","orig_title":"Scoob!","year":"2020-05-15","translations":["Профессиональный (многоголосый закадровый) (HDrezka Studio)","Любительский (многоголосый закадровый) (@MUZOBOZ@)","Original (English)","Профессиональный (многоголосый закадровый) (HDrezka Studio)","Профессиональный (многоголосый закадровый) (HDrezka Studio)","Любительский (многоголосый закадровый) (Flarrow Films)","Полное дублирование (iTunes)"],"quality":"webdl","translation":"Профессиональный (многоголосый закадровый) (HDrezka Studio)","update":"2020-08-25 06:46:12","iframe_src":"//8543.svetacdn.in/IAF0wWTdNYZm/movie/40547"},{"id":19406,"title":"Импульс","kp_id":"12366","imdb_id":"tt0099832","world_art_id":null,"type":"movie","add":"2018-10-07 13:00:41","orig_title":"Impulse","year":"1990-04-06","translations":["Полное дублирование","Авторский (одноголосый закадровый) (Гаврилов Андрей)","Полное дублирование (Варус-Видео)","Original (English)","Профессиональный (двухголосый закадровый) (НТВ)"],"quality":"webdl","translation":"Полное дублирование","update":"2020-08-25 07:33:53","iframe_src":"//8543.svetacdn.in/IAF0wWTdNYZm/movie/19406"},{"id":17165,"title":"Инопланетный код","kp_id":"962558","imdb_id":"tt5453522","world_art_id":null,"type":"movie","add":"2018-06-14 19:49:21","orig_title":"The Men","year":"2017-04-23","translations":["Любительский (многоголосый закадровый) (Синема УС)","Профессиональный (многоголосый закадровый) (GreenРай Studio)","Полное дублирование (iTunes)"],"quality":"webdl","translation":"Любительский (многоголосый закадровый) (Синема УС)","update":"2020-08-25 06:49:56","iframe_src":"//8543.svetacdn.in/IAF0wWTdNYZm/movie/17165"},{"id":2483,"title":"Тима и Тома","kp_id":"988081","imdb_id":null,"world_art_id":null,"type":"serial","add":"2018-04-30 11:17:17","orig_title":"Тима и Тома","year":"2015-09-17","translations":["Оригинальная дорожка"],"seasons_count":1,"episodes_count":52,"episodes":52,"update":"2018-05-01 11:40:56","iframe_src":"//8543.svetacdn.in/IAF0wWTdNYZm/tv-series/2483"},{"id":2475,"title":"Яблочный спас","kp_id":"723406","imdb_id":null,"world_art_id":null,"type":"serial","add":"2018-04-26 12:50:42","orig_title":"Яблочный спас","year":"2012-12-22","translations":["Оригинальная дорожка"],"seasons_count":1,"episodes_count":2,"episodes":2,"update":"2018-04-28 07:53:41","iframe_src":"//8543.svetacdn.in/IAF0wWTdNYZm/tv-series/2475"},{"id":2471,"title":"Грач","kp_id":"586649","imdb_id":"tt4095688","world_art_id":null,"type":"serial","add":"2018-04-26 12:38:43","orig_title":"Grach","year":"2012-12-24","translations":["Оригинальная дорожка"],"seasons_count":1,"episodes_count":12,"episodes":12,"update":"2018-04-27 10:53:51","iframe_src":"//8543.svetacdn.in/IAF0wWTdNYZm/tv-series/2471"},{"id":2467,"title":"Ой, ма-моч-ки! 2","kp_id":"1115561","imdb_id":null,"world_art_id":null,"type":"serial","add":"2018-04-26 12:09:07","orig_title":"Ой, ма-моч-ки! 2","year":"2018-04-09","translations":["Оригинальная дорожка"],"seasons_count":1,"episodes_count":8,"episodes":8,"update":"2018-04-27 05:00:35","iframe_src":"//8543.svetacdn.in/IAF0wWTdNYZm/tv-series/2467"},{"id":2466,"title":"Один на всех","kp_id":"701713","imdb_id":"tt3547898","world_art_id":null,"type":"serial","add":"2018-04-26 11:59:00","orig_title":"Odin na vsekh","year":"2013-03-23","translations":["Оригинальная дорожка"],"seasons_count":1,"episodes_count":2,"episodes":2,"update":"2018-04-28 10:49:37","iframe_src":"//8543.svetacdn.in/IAF0wWTdNYZm/tv-series/2466"},{"id":2462,"title":"Красавчик","kp_id":"603119","imdb_id":"tt3700286","world_art_id":null,"type":"serial","add":"2018-04-26 11:48:52","orig_title":"Krasavchik","year":"2012-10-09","translations":["Оригинальная дорожка"],"seasons_count":1,"episodes_count":2,"episodes":2,"update":"2018-04-27 11:02:41","iframe_src":"//8543.svetacdn.in/IAF0wWTdNYZm/tv-series/2462"},{"id":2461,"title":"Дорогой мой человек","kp_id":"507165","imdb_id":"tt3294824","world_art_id":null,"type":"serial","add":"2018-04-26 11:44:52","orig_title":"Dorogoy moy chelovek","year":"2011-04-04","translations":["Оригинальная дорожка"],"seasons_count":1,"episodes_count":16,"episodes":16,"update":"2018-04-28 10:46:07","iframe_src":"//8543.svetacdn.in/IAF0wWTdNYZm/tv-series/2461"},{"id":2458,"title":"Петрович","kp_id":"586314","imdb_id":"tt2699836","world_art_id":null,"type":"serial","add":"2018-04-25 11:56:31","orig_title":"Petrovich","year":"2013-01-21","translations":["Оригинальная дорожка"],"seasons_count":1,"episodes_count":24,"episodes":24,"update":"2018-04-28 07:49:30","iframe_src":"//8543.svetacdn.in/IAF0wWTdNYZm/tv-series/2458"},{"id":2457,"title":"Отдел С.С.С.Р.","kp_id":"627808","imdb_id":"tt3220928","world_art_id":null,"type":"serial","add":"2018-04-25 11:53:03","orig_title":"Otdel 'S.S.S.R.'","year":"2012-06-18","translations":["Оригинальная дорожка"],"seasons_count":1,"episodes_count":8,"episodes":8,"update":"2018-04-27 11:00:29","iframe_src":"//8543.svetacdn.in/IAF0wWTdNYZm/tv-series/2457"},{"id":2456,"title":"Любовь с оружием","kp_id":"654808","imdb_id":"tt3610322","world_art_id":null,"type":"serial","add":"2018-04-25 11:50:10","orig_title":"Lyubov s oruzhiem","year":"2012-06-17","translations":["Оригинальная дорожка"],"seasons_count":1,"episodes_count":4,"episodes":4,"update":"2018-04-27 10:42:38","iframe_src":"//8543.svetacdn.in/IAF0wWTdNYZm/tv-series/2456"},{"id":2455,"title":"Люба. Любовь","kp_id":"661289","imdb_id":"tt3739202","world_art_id":null,"type":"serial","add":"2018-04-25 11:47:44","orig_title":"Lyuba. Lyubov","year":"2012-02-05","translations":["Оригинальная дорожка"],"seasons_count":1,"episodes_count":4,"episodes":4,"update":"2018-04-27 10:38:24","iframe_src":"//8543.svetacdn.in/IAF0wWTdNYZm/tv-series/2455"},{"id":2431,"title":"Одесса-мама","kp_id":"645466","imdb_id":"tt4083536","world_art_id":null,"type":"serial","add":"2018-04-19 13:09:33","orig_title":"Odessa-mama","year":"2012-10-22","translations":["Оригинальная дорожка"],"seasons_count":1,"episodes_count":12,"episodes":12,"update":"2018-04-27 10:33:39","iframe_src":"//8543.svetacdn.in/IAF0wWTdNYZm/tv-series/2431"},{"id":2430,"title":"Каждый за себя","kp_id":"677916","imdb_id":null,"world_art_id":null,"type":"serial","add":"2018-04-19 13:03:03","orig_title":"Каждый за себя","year":"2012-11-05","translations":["Оригинальная дорожка"],"seasons_count":1,"episodes_count":3,"episodes":3,"update":"2018-04-26 11:45:57","iframe_src":"//8543.svetacdn.in/IAF0wWTdNYZm/tv-series/2430"},{"id":2427,"title":"Дорога в пустоту","kp_id":"639689","imdb_id":"tt3083882","world_art_id":null,"type":"serial","add":"2018-04-19 12:51:21","orig_title":"Doroga v pustotu","year":"2013-10-03","translations":["Оригинальная дорожка"],"seasons_count":1,"episodes_count":12,"episodes":12,"update":"2018-04-27 05:36:24","iframe_src":"//8543.svetacdn.in/IAF0wWTdNYZm/tv-series/2427"},{"id":2423,"title":"Кривое зеркало души","kp_id":"794452","imdb_id":"tt3655686","world_art_id":null,"type":"serial","add":"2018-04-18 12:08:00","orig_title":"Krivoe zerkalo dushi","year":"2013-12-28","translations":["Оригинальная дорожка"],"seasons_count":1,"episodes_count":4,"episodes":4,"update":"2018-04-26 11:42:18","iframe_src":"//8543.svetacdn.in/IAF0wWTdNYZm/tv-series/2423"},{"id":2418,"title":"Ищейка 2","kp_id":"1047564","imdb_id":null,"world_art_id":null,"type":"serial","add":"2018-04-17 07:50:08","orig_title":"Ищейка 2","year":"2018-04-16","translations":["Оригинальная дорожка"],"seasons_count":1,"episodes_count":16,"episodes":16,"update":"2018-04-28 20:00:13","iframe_src":"//8543.svetacdn.in/IAF0wWTdNYZm/tv-series/2418"},{"id":2413,"title":"Полицейский с Рублёвки 3: Снова дома","kp_id":"1048335","imdb_id":null,"world_art_id":null,"type":"serial","add":"2018-04-16 17:59:20","orig_title":"Полицейский с Рублёвки 3: Снова дома","year":"2018-04-16","translations":["Оригинальная дорожка"],"seasons_count":1,"episodes_count":8,"episodes":8,"update":"2018-04-27 10:05:37","iframe_src":"//8543.svetacdn.in/IAF0wWTdNYZm/tv-series/2413"},{"id":2362,"title":"Частица вселенной","kp_id":"982734","imdb_id":null,"world_art_id":null,"type":"serial","add":"2018-04-10 08:52:40","orig_title":"Частица вселенной","year":"2018-04-09","translations":["Оригинальная дорожка"],"seasons_count":1,"episodes_count":7,"episodes":7,"update":"2018-05-01 19:09:12","iframe_src":"//8543.svetacdn.in/IAF0wWTdNYZm/tv-series/2362"},{"id":12902,"title":"Проделки в колледже","kp_id":"195566","imdb_id":"tt0423977","world_art_id":null,"type":"movie","add":"2017-08-10 13:24:24","orig_title":"Charlie Bartlett","year":"2007-05-01","translations":["Полное дублирование","Полное дублирование","Original (English)","Профессиональный (двухголосый закадровый) (НТВ)"],"quality":"webdl","translation":"Полное дублирование","update":"2020-08-25 07:22:41","iframe_src":"//8543.svetacdn.in/IAF0wWTdNYZm/movie/12902"},{"id":1438,"title":"Скандал","kp_id":"582345","imdb_id":"tt1837576","world_art_id":null,"type":"serial","add":"2017-08-01 06:49:03","orig_title":"Scandal","year":"2012-04-05","translations":["Профессиональный (многоголосый закадровый) (Fox Life)","Любительский (двухголосый закадровый) (Sunshine Studio)"],"seasons_count":7,"episodes_count":124,"episodes":18,"update":"2018-05-01 19:44:17","iframe_src":"//8543.svetacdn.in/IAF0wWTdNYZm/tv-series/1438"},{"id":11139,"title":"Дом","kp_id":"5477","imdb_id":"tt0091223","world_art_id":null,"type":"movie","add":"2017-04-19 23:02:23","orig_title":"House","year":"1985-12-06","translations":["Профессиональный (многоголосый закадровый) (CP Digital)","Профессиональный (многоголосый закадровый) (ТВЦ)","Профессиональный (многоголосый закадровый) (CP Digital)","Профессиональный (двухголосый закадровый) (РенТВ)","Original (English)","Авторский (одноголосый закадровый) (Володарский Леонид)","Авторский (одноголосый закадровый) (Визгунов Сергей)","Авторский (одноголосый закадровый) (Дохалов Вартан)","Авторский (одноголосый закадровый) (Белов Вадим)"],"quality":"bd","translation":"Профессиональный (многоголосый закадровый) (CP Digital)","update":"2020-08-25 15:15:32","iframe_src":"//8543.svetacdn.in/IAF0wWTdNYZm/movie/11139"},{"id":8950,"title":"Редкая порода","kp_id":"2706","imdb_id":"tt0087001","world_art_id":null,"type":"movie","add":"2017-01-16 07:34:50","orig_title":"A Breed Apart","year":"1984-06-01","translations":["Профессиональный (многоголосый закадровый)","Авторский (одноголосый закадровый) (Гаврилов Андрей)","Авторский (одноголосый закадровый) (Михалёв Алексей)","Original (English)","Профессиональный (многоголосый закадровый) (НТВ)"],"quality":"bd","translation":"Профессиональный (многоголосый закадровый)","update":"2020-08-25 11:32:39","iframe_src":"//8543.svetacdn.in/IAF0wWTdNYZm/movie/8950"},{"id":6921,"title":"Секс, ложь, безумие","kp_id":"21990","imdb_id":"tt0109665","world_art_id":null,"type":"movie","add":"2016-11-01 11:47:47","orig_title":"Dream Lover","year":"1994-05-06","translations":["Профессиональный (двухголосый закадровый)","Авторский (одноголосый закадровый) (Дольский Андрей)","Авторский (одноголосый закадровый) (Гаврилов Андрей)","Original (English)","Профессиональный (двухголосый закадровый)","Профессиональный (многоголосый закадровый) (Союз Видео)"],"quality":"hdtv","translation":"Профессиональный (двухголосый закадровый)","update":"2020-08-25 07:29:12","iframe_src":"//8543.svetacdn.in/IAF0wWTdNYZm/movie/6921"},{"id":6462,"title":"Американский ниндзя","kp_id":"28592","imdb_id":"tt0088708","world_art_id":null,"type":"movie","add":"2016-10-19 15:30:35","orig_title":"American Ninja","year":"1985-08-30","translations":["Профессиональный (двухголосый закадровый)","Авторский (одноголосый закадровый) (Гаврилов Андрей)","Авторский (одноголосый закадровый) (Горчаков Василий)","Авторский (одноголосый закадровый) (Готлиб Александр)","Авторский (одноголосый закадровый) (Карповский Антон)","Original (English)","Профессиональный (многоголосый закадровый) (СТС)","Профессиональный (двухголосый закадровый) (Paramount Channel)","Профессиональный (двухголосый закадровый) (Союз Видео)"],"quality":"bd","translation":"Профессиональный (двухголосый закадровый)","update":"2020-08-25 11:20:03","iframe_src":"//8543.svetacdn.in/IAF0wWTdNYZm/movie/6462"},{"id":6326,"title":"Реаниматор","kp_id":"55945","imdb_id":"tt0089885","world_art_id":null,"type":"movie","add":"2016-10-16 07:56:18","orig_title":"Re-Animator","year":"1985-05-24","translations":["Профессиональный (двухголосый закадровый)","Любительский (многоголосый закадровый)","Авторский (одноголосый закадровый) (Гаврилов Андрей)","Авторский (одноголосый закадровый) (Карцев Пётр)","Авторский (одноголосый закадровый) (Живов Юрий)","Original (English)","Профессиональный (двухголосый закадровый) (Гланц + Королёва)","Профессиональный (многоголосый закадровый)"],"quality":"bd","translation":"Профессиональный (двухголосый закадровый)","update":"2020-08-25 11:07:15","iframe_src":"//8543.svetacdn.in/IAF0wWTdNYZm/movie/6326"},{"id":171,"title":"Тупицы","kp_id":"976647","imdb_id":"tt5237932","world_art_id":null,"type":"serial","add":"2016-06-10 04:02:57","orig_title":"Witless","year":"2016-04-22","translations":["Любительский (двухголосый закадровый) (Sunshine Studio)","Профессиональный (многоголосый закадровый) (ShowJet)"],"seasons_count":2,"episodes_count":10,"episodes":5,"update":"2018-05-01 06:56:29","iframe_src":"//8543.svetacdn.in/IAF0wWTdNYZm/tv-series/171"},{"id":1347,"title":"Терминатор","kp_id":"507","imdb_id":"tt0088247","world_art_id":null,"type":"movie","add":"2016-04-20 22:05:27","orig_title":"The Terminator","year":"1984-10-26","translations":["Полное дублирование","Original (English)","Авторский (одноголосый закадровый) (Гаврилов Андрей)","Авторский (одноголосый закадровый) (Гоблин | Пучков Дмитрий)","Original (English)","Профессиональный (многоголосый закадровый) (DDV)","Профессиональный (многоголосый закадровый)","Профессиональный (многоголосый закадровый) (НТВ)","Профессиональный (многоголосый закадровый) (Карусель)","Профессиональный (многоголосый закадровый) (Киномания)","Профессиональный (многоголосый закадровый) (Первый канал | ОРТ)","Профессиональный (многоголосый закадровый) (Останкино)","Профессиональный (многоголосый закадровый) (Позитив)"],"quality":"bd","translation":"Полное дублирование","update":"2020-08-25 07:11:45","iframe_src":"//8543.svetacdn.in/IAF0wWTdNYZm/movie/1347"}],"current_page":423,"first_page_url":"https://videocdn.tv/api/short?limit=100&api_token=6Onb1W1alEUrBcKJZD3GoKBbWyAl2uG2&cache3423=3423&page=1","from":42201,"last_page":608,"last_page_url":"https://videocdn.tv/api/short?limit=100&api_token=6Onb1W1alEUrBcKJZD3GoKBbWyAl2uG2&cache3423=3423&page=608","next_page_url":"https://videocdn.tv/api/short?limit=100&api_token=6Onb1W1alEUrBcKJZD3GoKBbWyAl2uG2&cache3423=3423&page=424","path":"https://videocdn.tv/api/short","per_page":100,"prev_page_url":"https://videocdn.tv/api/short?limit=100&api_token=6Onb1W1alEUrBcKJZD3GoKBbWyAl2uG2&cache3423=3423&page=422","to":42240,"total":60756}