{"result":true,"data":[{"id":29393,"title":"Катька и Шиз","kp_id":"41230","imdb_id":"tt0104598","world_art_id":null,"type":"movie","add":"2019-07-25 17:29:57","orig_title":"Katka i Shiz","year":"1992-01-01","translations":["Оригинальная дорожка"],"quality":"sat","translation":"Оригинальная дорожка","update":"2019-07-26 05:54:49","iframe_src":"//2413.svetacdn.in/IAF0wWTdNYZm/movie/29393"},{"id":29392,"title":"Кострома","kp_id":"103741","imdb_id":"tt0382129","world_art_id":null,"type":"movie","add":"2019-07-25 17:26:34","orig_title":"Kostroma","year":"2002-01-01","translations":["Оригинальная дорожка"],"quality":"dvdrip","translation":"Оригинальная дорожка","update":"2019-07-26 05:54:07","iframe_src":"//2413.svetacdn.in/IAF0wWTdNYZm/movie/29392"},{"id":29391,"title":"Не забудь... станция Луговая","kp_id":"46372","imdb_id":"tt0060744","world_art_id":null,"type":"movie","add":"2019-07-25 17:23:57","orig_title":"Ne zabud... Stantsiya Lugovaya","year":"1966-04-01","translations":["Оригинальная дорожка"],"quality":"dvdrip","translation":"Оригинальная дорожка","update":"2019-07-26 05:51:45","iframe_src":"//2413.svetacdn.in/IAF0wWTdNYZm/movie/29391"},{"id":29390,"title":"Опасная связь","kp_id":"417622","imdb_id":null,"world_art_id":null,"type":"movie","add":"2019-07-25 17:20:44","orig_title":"Опасная связь","year":"2008-06-20","translations":["Оригинальная дорожка"],"quality":"sat","translation":"Оригинальная дорожка","update":"2019-07-26 05:50:52","iframe_src":"//2413.svetacdn.in/IAF0wWTdNYZm/movie/29390"},{"id":29389,"title":"Операция «Кобра»","kp_id":"42781","imdb_id":"tt0314466","world_art_id":null,"type":"movie","add":"2019-07-25 17:13:15","orig_title":"Operatsiya 'Kobra'","year":"1961-02-06","translations":["Оригинальная дорожка"],"quality":"sat","translation":"Оригинальная дорожка","update":"2019-07-26 05:50:25","iframe_src":"//2413.svetacdn.in/IAF0wWTdNYZm/movie/29389"},{"id":29388,"title":"Песня первой любви","kp_id":"43520","imdb_id":"tt0188139","world_art_id":null,"type":"movie","add":"2019-07-25 17:09:56","orig_title":"Arajin siro yerge","year":"1958-08-11","translations":["Оригинальная дорожка"],"quality":"sat","translation":"Оригинальная дорожка","update":"2019-07-26 05:49:46","iframe_src":"//2413.svetacdn.in/IAF0wWTdNYZm/movie/29388"},{"id":29387,"title":"Поэма двух сердец","kp_id":"43061","imdb_id":"tt0347790","world_art_id":null,"type":"movie","add":"2019-07-25 17:05:58","orig_title":"Poema dvukh serdets","year":"1968-04-08","translations":["Полное дублирование"],"quality":"sat","translation":"Полное дублирование","update":"2019-07-26 05:48:16","iframe_src":"//2413.svetacdn.in/IAF0wWTdNYZm/movie/29387"},{"id":29386,"title":"Поездки на старом автомобиле","kp_id":"43204","imdb_id":"tt0160690","world_art_id":null,"type":"movie","add":"2019-07-25 17:02:41","orig_title":"Poyezdki na starom avtomobile","year":"1987-05-28","translations":["Оригинальная дорожка"],"quality":"dvdrip","translation":"Оригинальная дорожка","update":"2019-07-26 05:26:10","iframe_src":"//2413.svetacdn.in/IAF0wWTdNYZm/movie/29386"},{"id":29385,"title":"Прыжок на заре","kp_id":"43338","imdb_id":"tt0054213","world_art_id":null,"type":"movie","add":"2019-07-25 16:58:47","orig_title":"Pryzhok na zare","year":"1961-02-22","translations":["Оригинальная дорожка"],"quality":"vhs","translation":"Оригинальная дорожка","update":"2019-07-26 05:25:20","iframe_src":"//2413.svetacdn.in/IAF0wWTdNYZm/movie/29385"},{"id":29384,"title":"Пусть светит","kp_id":"331765","imdb_id":"tt0054220","world_art_id":null,"type":"movie","add":"2019-07-25 16:24:52","orig_title":"Pust svetit","year":"1960-11-07","translations":["Оригинальная дорожка"],"quality":"sat","translation":"Оригинальная дорожка","update":"2019-07-26 05:24:58","iframe_src":"//2413.svetacdn.in/IAF0wWTdNYZm/movie/29384"},{"id":29383,"title":"Родные поля","kp_id":"42116","imdb_id":"tt0175947","world_art_id":null,"type":"movie","add":"2019-07-25 16:21:24","orig_title":"Rodnye polya","year":"1945-02-07","translations":["Оригинальная дорожка"],"quality":"sat","translation":"Оригинальная дорожка","update":"2019-07-26 05:23:45","iframe_src":"//2413.svetacdn.in/IAF0wWTdNYZm/movie/29383"},{"id":29381,"title":"Северная повесть","kp_id":"43707","imdb_id":"tt0189993","world_art_id":null,"type":"movie","add":"2019-07-25 16:16:06","orig_title":"Severnaya povest","year":"1960-11-28","translations":["Оригинальная дорожка"],"quality":"dvdrip","translation":"Оригинальная дорожка","update":"2019-07-26 05:21:41","iframe_src":"//2413.svetacdn.in/IAF0wWTdNYZm/movie/29381"},{"id":29380,"title":"Сильнее урагана","kp_id":"420291","imdb_id":"tt4976538","world_art_id":null,"type":"movie","add":"2019-07-25 16:13:12","orig_title":"Silneye uragana","year":"1961-03-24","translations":["Оригинальная дорожка"],"quality":"sat","translation":"Оригинальная дорожка","update":"2019-07-26 05:21:02","iframe_src":"//2413.svetacdn.in/IAF0wWTdNYZm/movie/29380"},{"id":29379,"title":"Смотри в оба!","kp_id":"43882","imdb_id":"tt0131588","world_art_id":null,"type":"movie","add":"2019-07-25 16:10:11","orig_title":"Smotri v oba!","year":"1982-01-04","translations":["Оригинальная дорожка"],"quality":"dvdrip","translation":"Оригинальная дорожка","update":"2019-07-26 05:19:44","iframe_src":"//2413.svetacdn.in/IAF0wWTdNYZm/movie/29379"},{"id":29378,"title":"Старые стены","kp_id":"43983","imdb_id":"tt0070729","world_art_id":null,"type":"movie","add":"2019-07-25 16:07:06","orig_title":"Starye steny","year":"1974-03-11","translations":["Оригинальная дорожка"],"quality":"sat","translation":"Оригинальная дорожка","update":"2019-07-26 05:19:01","iframe_src":"//2413.svetacdn.in/IAF0wWTdNYZm/movie/29378"},{"id":29377,"title":"Тайна зеленого бора","kp_id":"444928","imdb_id":"tt1804641","world_art_id":null,"type":"movie","add":"2019-07-25 16:02:26","orig_title":"Taina zelyonogo bora","year":"1961-04-22","translations":["Оригинальная дорожка"],"quality":"sat","translation":"Оригинальная дорожка","update":"2019-07-26 05:15:52","iframe_src":"//2413.svetacdn.in/IAF0wWTdNYZm/movie/29377"},{"id":29376,"title":"Тройная проверка","kp_id":"42321","imdb_id":"tt0314802","world_art_id":null,"type":"movie","add":"2019-07-25 15:59:25","orig_title":"Troynaya proverka","year":"1970-06-08","translations":["Оригинальная дорожка"],"quality":"dvdrip","translation":"Оригинальная дорожка","update":"2019-07-26 05:14:23","iframe_src":"//2413.svetacdn.in/IAF0wWTdNYZm/movie/29376"},{"id":29375,"title":"Восточный роман","kp_id":"41445","imdb_id":"tt0105771","world_art_id":null,"type":"movie","add":"2019-07-25 15:56:33","orig_title":"Vostochnyy roman","year":"1992-01-01","translations":["Оригинальная дорожка"],"quality":"tv","translation":"Оригинальная дорожка","update":"2019-07-26 05:14:17","iframe_src":"//2413.svetacdn.in/IAF0wWTdNYZm/movie/29375"},{"id":29374,"title":"Мой нежно любимый детектив","kp_id":"94418","imdb_id":"tt0091564","world_art_id":null,"type":"movie","add":"2019-07-25 15:53:23","orig_title":"Moy nezhno lyubimyy detektiv","year":"1986-03-08","translations":["Оригинальная дорожка"],"quality":"sat","translation":"Оригинальная дорожка","update":"2019-07-26 05:04:54","iframe_src":"//2413.svetacdn.in/IAF0wWTdNYZm/movie/29374"},{"id":16515,"title":"Танки","kp_id":"1046545","imdb_id":null,"world_art_id":null,"type":"movie","add":"2018-04-27 23:12:43","orig_title":"Танки","year":"2018-04-26","translations":["Оригинальная дорожка"],"quality":"bd","translation":"Оригинальная дорожка","update":"2019-07-26 05:16:40","iframe_src":"//2413.svetacdn.in/IAF0wWTdNYZm/movie/16515"}],"current_page":1738,"first_page_url":"https://videocdn.tv/api/short?limit=100&api_token=6Onb1W1alEUrBcKJZD3GoKBbWyAl2uG2&cache31738=31738&page=1","from":173701,"last_page":719,"last_page_url":"https://videocdn.tv/api/short?limit=100&api_token=6Onb1W1alEUrBcKJZD3GoKBbWyAl2uG2&cache31738=31738&page=719","next_page_url":null,"path":"https://videocdn.tv/api/short","per_page":100,"prev_page_url":"https://videocdn.tv/api/short?limit=100&api_token=6Onb1W1alEUrBcKJZD3GoKBbWyAl2uG2&cache31738=31738&page=1737","to":173720,"total":71851}