{"result":true,"data":[{"id":31286,"title":"Боги","kp_id":"870275","imdb_id":"tt3962296","world_art_id":null,"type":"movie","add":"2019-09-29 16:43:49","orig_title":"The Gods","year":"2015-01-05","translations":["Любительский (многоголосый закадровый) (Синема УС)"],"quality":"webdl","translation":"Любительский (многоголосый закадровый) (Синема УС)","update":"2019-09-30 12:29:47","iframe_src":"//2413.svetacdn.in/si4jsFRrtgrT/movie/31286"},{"id":31281,"title":"Однажды в Детройте","kp_id":"965350","imdb_id":"tt5326498","world_art_id":null,"type":"movie","add":"2019-09-29 16:26:38","orig_title":"Once Upon a Time in Detroit","year":"2017-11-21","translations":["Любительский (многоголосый закадровый) (Синема УС)"],"quality":"webdl","translation":"Любительский (многоголосый закадровый) (Синема УС)","update":"2019-09-30 11:23:11","iframe_src":"//2413.svetacdn.in/si4jsFRrtgrT/movie/31281"},{"id":31280,"title":"Бог ты мой","kp_id":"1014452","imdb_id":"tt5162904","world_art_id":null,"type":"movie","add":"2019-09-29 16:24:07","orig_title":"Oh My God","year":"2017-01-01","translations":["Любительский (многоголосый закадровый) (Синема УС)"],"quality":"webdl","translation":"Любительский (многоголосый закадровый) (Синема УС)","update":"2019-09-30 11:26:30","iframe_src":"//2413.svetacdn.in/si4jsFRrtgrT/movie/31280"},{"id":31277,"title":"Километры между нами","kp_id":null,"imdb_id":"tt4654472","world_art_id":null,"type":"movie","add":"2019-09-29 15:45:49","orig_title":"Miles Between Us","year":"2017-03-16","translations":["Любительский (многоголосый закадровый) (Синема УС)"],"quality":"webdl","translation":"Любительский (многоголосый закадровый) (Синема УС)","update":"2019-09-30 11:27:30","iframe_src":"//2413.svetacdn.in/si4jsFRrtgrT/movie/31277"},{"id":31265,"title":"Диана. Семь дней, которые потрясли весь мир","kp_id":null,"imdb_id":"tt6947808","world_art_id":null,"type":"movie","add":"2019-09-29 15:19:03","orig_title":"Diana: 7 Days That Shook the Windsors","year":"2017-05-30","translations":["Любительский (многоголосый закадровый) (Синема УС)"],"quality":"webdl","translation":"Любительский (многоголосый закадровый) (Синема УС)","update":"2019-09-30 11:28:28","iframe_src":"//2413.svetacdn.in/si4jsFRrtgrT/movie/31265"},{"id":31259,"title":"Брагино","kp_id":"1055848","imdb_id":"tt7290768","world_art_id":null,"type":"movie","add":"2019-09-29 15:08:14","orig_title":"Braguino","year":"2017-07-13","translations":["Оригинальная дорожка"],"quality":"webdl","translation":"Оригинальная дорожка","update":"2019-09-30 11:30:15","iframe_src":"//2413.svetacdn.in/si4jsFRrtgrT/movie/31259"},{"id":31248,"title":"Вызов","kp_id":"9895","imdb_id":"tt0083726","world_art_id":null,"type":"movie","add":"2019-09-29 14:11:24","orig_title":"The Challenge","year":"1982-07-23","translations":["Профессиональный (многоголосый закадровый)"],"quality":"bd","translation":"Профессиональный (многоголосый закадровый)","update":"2019-09-30 12:17:32","iframe_src":"//2413.svetacdn.in/si4jsFRrtgrT/movie/31248"},{"id":31246,"title":"Беззаботные","kp_id":"975537","imdb_id":"tt5108476","world_art_id":null,"type":"movie","add":"2019-09-28 14:21:08","orig_title":"Befikre","year":"2016-12-08","translations":["Профессиональный (многоголосый закадровый)"],"quality":"bd","translation":"Профессиональный (многоголосый закадровый)","update":"2019-09-30 12:11:33","iframe_src":"//2413.svetacdn.in/si4jsFRrtgrT/movie/31246"},{"id":31245,"title":"Беззаботная","kp_id":"14266","imdb_id":"tt0029971","world_art_id":null,"type":"movie","add":"2019-09-28 14:16:13","orig_title":"Carefree","year":"1938-09-02","translations":["Профессиональный (многоголосый закадровый)"],"quality":"dvdrip","translation":"Профессиональный (многоголосый закадровый)","update":"2019-09-30 12:10:49","iframe_src":"//2413.svetacdn.in/si4jsFRrtgrT/movie/31245"},{"id":31243,"title":"Дороти Миллс","kp_id":"373086","imdb_id":"tt1034306","world_art_id":null,"type":"movie","add":"2019-09-28 13:39:19","orig_title":"Dorothy Mills","year":"2008-08-06","translations":["Профессиональный (двухголосый закадровый)"],"quality":"bd","translation":"Профессиональный (двухголосый закадровый)","update":"2019-09-30 11:47:06","iframe_src":"//2413.svetacdn.in/si4jsFRrtgrT/movie/31243"},{"id":31241,"title":"Клуб вторых жен","kp_id":"394735","imdb_id":"tt1091858","world_art_id":null,"type":"movie","add":"2019-09-27 21:52:37","orig_title":"The Secret Lives of Second Wives","year":"2008-06-28","translations":["Профессиональный (двухголосый закадровый)"],"quality":"dvdrip","translation":"Профессиональный (двухголосый закадровый)","update":"2019-09-30 11:43:25","iframe_src":"//2413.svetacdn.in/si4jsFRrtgrT/movie/31241"},{"id":31238,"title":"В шоу только девушки","kp_id":"6887","imdb_id":"tt0345074","world_art_id":null,"type":"movie","add":"2019-09-27 21:18:22","orig_title":"Connie and Carla","year":"2004-04-13","translations":["Профессиональный (многоголосый закадровый) (CP Digital)"],"quality":"dvdrip","translation":"Профессиональный (многоголосый закадровый) (CP Digital)","update":"2019-09-30 11:58:24","iframe_src":"//2413.svetacdn.in/si4jsFRrtgrT/movie/31238"},{"id":31123,"title":"Аэропорт","kp_id":"8160","imdb_id":"tt0065377","world_art_id":null,"type":"movie","add":"2019-09-23 07:56:55","orig_title":"Airport","year":"1970-03-05","translations":["Профессиональный (двухголосый закадровый) (НТВ)","Профессиональный (многоголосый закадровый) (SomeWax)"],"quality":"bd","translation":"Профессиональный (двухголосый закадровый) (НТВ)","update":"2019-09-30 11:38:58","iframe_src":"//2413.svetacdn.in/si4jsFRrtgrT/movie/31123"},{"id":16289,"title":"Авантюристы","kp_id":"38092","imdb_id":"tt0087742","world_art_id":null,"type":"movie","add":"2018-04-15 20:36:44","orig_title":"Les morfalous","year":"1984-03-28","translations":["Профессиональный (многоголосый закадровый)"],"quality":"bd","translation":"Профессиональный (многоголосый закадровый)","update":"2019-09-30 11:39:56","iframe_src":"//2413.svetacdn.in/si4jsFRrtgrT/movie/16289"},{"id":14779,"title":"Признание убийцы","kp_id":"992366","imdb_id":"tt5882982","world_art_id":null,"type":"movie","add":"2018-01-03 21:27:40","orig_title":"22-nenme no kokuhaku: Watashi ga satsujinhan desu","year":"2017-01-12","translations":["Любительский (многоголосый закадровый) (AniDUB)"],"quality":"bd","translation":"Любительский (многоголосый закадровый) (AniDUB)","update":"2019-09-30 11:20:53","iframe_src":"//2413.svetacdn.in/si4jsFRrtgrT/movie/14779"},{"id":8997,"title":"Новобранцы идут на войну","kp_id":"57329","imdb_id":"tt0071214","world_art_id":null,"type":"movie","add":"2017-01-17 12:02:46","orig_title":"Les bidasses s'en vont en guerre","year":"1974-12-11","translations":["Полное дублирование"],"quality":"hdtv","translation":"Полное дублирование","update":"2019-09-30 12:12:53","iframe_src":"//2413.svetacdn.in/si4jsFRrtgrT/movie/8997"},{"id":4939,"title":"Боги и Генералы","kp_id":"7184","imdb_id":"tt0279111","world_art_id":null,"type":"movie","add":"2016-08-31 08:38:55","orig_title":"Gods and Generals","year":"2003-02-10","translations":["Профессиональный (многоголосый закадровый)","Авторский (одноголосый закадровый) (Визгунов Сергей)"],"quality":"bd","translation":"Профессиональный (многоголосый закадровый)","update":"2019-09-30 12:02:12","iframe_src":"//2413.svetacdn.in/si4jsFRrtgrT/movie/4939"},{"id":4850,"title":"Чикaго","kp_id":"634","imdb_id":"tt0299658","world_art_id":null,"type":"movie","add":"2016-08-29 14:45:32","orig_title":"Chicago","year":"2002-12-10","translations":["Полное дублирование","Профессиональный (многоголосый закадровый)"],"quality":"bd","translation":"Полное дублирование","update":"2019-09-30 11:59:47","iframe_src":"//2413.svetacdn.in/si4jsFRrtgrT/movie/4850"},{"id":3336,"title":"Выходной день Ферриса Бьюллера","kp_id":"15263","imdb_id":"tt0091042","world_art_id":null,"type":"movie","add":"2016-06-23 13:58:35","orig_title":"Ferris Bueller's Day Off","year":"1986-06-11","translations":["Любительский (одноголосый закадровый)","Профессиональный (многоголосый закадровый) (СТС)"],"quality":"hdtv","translation":"Любительский (одноголосый закадровый)","update":"2019-09-30 11:46:15","iframe_src":"//2413.svetacdn.in/si4jsFRrtgrT/movie/3336"},{"id":2182,"title":"Трое в Нью-Йорке","kp_id":"566200","imdb_id":"tt1718158","world_art_id":null,"type":"movie","add":"2016-05-15 06:27:07","orig_title":"Generation Um...","year":"2012-07-12","translations":["Профессиональный (многоголосый закадровый)"],"quality":"bd","translation":"Профессиональный (многоголосый закадровый)","update":"2019-09-30 11:44:53","iframe_src":"//2413.svetacdn.in/si4jsFRrtgrT/movie/2182"}],"current_page":1655,"first_page_url":"https://videocdn.tv/api/short?limit=100&api_token=X6EwAUfE5M9xbo7y0Bp0aPf3uXxG2KLL&cache31655=31655&page=1","from":165401,"last_page":720,"last_page_url":"https://videocdn.tv/api/short?limit=100&api_token=X6EwAUfE5M9xbo7y0Bp0aPf3uXxG2KLL&cache31655=31655&page=720","next_page_url":null,"path":"https://videocdn.tv/api/short","per_page":100,"prev_page_url":"https://videocdn.tv/api/short?limit=100&api_token=X6EwAUfE5M9xbo7y0Bp0aPf3uXxG2KLL&cache31655=31655&page=1654","to":165420,"total":71963}