{"result":true,"data":[{"id":21719,"title":"Внутри Alton Towers","kp_id":null,"imdb_id":"tt9193752","world_art_id":null,"type":"movie","add":"2019-01-21 22:38:54","orig_title":"Inside Alton Towers","year":"2018-08-23","translations":["Любительский (многоголосый закадровый) (Синема УС)"],"quality":"webdl","translation":"Любительский (многоголосый закадровый) (Синема УС)","update":"2019-01-22 05:39:33","iframe_src":"//2413.svetacdn.in/71tsRs29n5tZ/movie/21719"},{"id":21718,"title":"Секретные тоннели Гитлера","kp_id":null,"imdb_id":"tt9547802","world_art_id":null,"type":"movie","add":"2019-01-21 22:36:07","orig_title":"Hitler's Secret Tunnels","year":"2019-01-03","translations":["Любительский (многоголосый закадровый) (Синема УС)"],"quality":"hdtv","translation":"Любительский (многоголосый закадровый) (Синема УС)","update":"2019-01-22 05:40:27","iframe_src":"//2413.svetacdn.in/71tsRs29n5tZ/movie/21718"},{"id":21716,"title":"Отказ от дневной работы","kp_id":"1156168","imdb_id":"tt7816596","world_art_id":null,"type":"movie","add":"2019-01-21 22:30:22","orig_title":"Above & Beyond: Giving Up the Day Job","year":"2018-01-30","translations":["Любительский (многоголосый закадровый) (Синема УС)"],"quality":"webdl","translation":"Любительский (многоголосый закадровый) (Синема УС)","update":"2019-01-22 05:45:40","iframe_src":"//2413.svetacdn.in/71tsRs29n5tZ/movie/21716"},{"id":21668,"title":"Последний крик","kp_id":"23879","imdb_id":"tt0261014","world_art_id":null,"type":"movie","add":"2019-01-20 22:14:51","orig_title":"Last Cry","year":"2001-12-04","translations":["Профессиональный (многоголосый закадровый)"],"quality":"dvdrip","translation":"Профессиональный (многоголосый закадровый)","update":"2019-01-22 02:24:56","iframe_src":"//2413.svetacdn.in/71tsRs29n5tZ/movie/21668"},{"id":21663,"title":"На дне","kp_id":"819176","imdb_id":"tt3415724","world_art_id":null,"type":"movie","add":"2019-01-20 21:45:43","orig_title":"Na dne","year":"2015-11-08","translations":["Оригинальная дорожка"],"quality":"sat","translation":"Оригинальная дорожка","update":"2019-01-22 02:30:58","iframe_src":"//2413.svetacdn.in/71tsRs29n5tZ/movie/21663"},{"id":21662,"title":"Киевский торт","kp_id":"817874","imdb_id":null,"world_art_id":null,"type":"movie","add":"2019-01-20 21:42:16","orig_title":"Киевский торт","year":"2014-02-20","translations":["Оригинальная дорожка"],"quality":"dvdscr","translation":"Оригинальная дорожка","update":"2019-01-22 02:34:37","iframe_src":"//2413.svetacdn.in/71tsRs29n5tZ/movie/21662"},{"id":21660,"title":"Сохрани мою речь навсегда","kp_id":"842545","imdb_id":null,"world_art_id":null,"type":"movie","add":"2019-01-20 21:37:52","orig_title":"Сохрани мою речь навсегда","year":"2015-10-22","translations":["Оригинальная дорожка"],"quality":"sat","translation":"Оригинальная дорожка","update":"2019-01-22 02:36:23","iframe_src":"//2413.svetacdn.in/71tsRs29n5tZ/movie/21660"},{"id":21656,"title":"Птичка","kp_id":"957724","imdb_id":"tt6278604","world_art_id":null,"type":"movie","add":"2019-01-20 21:23:30","orig_title":"Ptichka","year":"2015-10-21","translations":["Оригинальная дорожка"],"quality":"webdl","translation":"Оригинальная дорожка","update":"2019-01-22 02:40:45","iframe_src":"//2413.svetacdn.in/71tsRs29n5tZ/movie/21656"},{"id":21631,"title":"Дерись, как девчонка","kp_id":null,"imdb_id":"tt8546252","world_art_id":null,"type":"movie","add":"2019-01-19 14:14:45","orig_title":"Fight Like A Girl","year":"2018-06-11","translations":["Любительский (многоголосый закадровый) (Синема УС)"],"quality":"webdl","translation":"Любительский (многоголосый закадровый) (Синема УС)","update":"2019-01-21 11:29:27","iframe_src":"//2413.svetacdn.in/71tsRs29n5tZ/movie/21631"},{"id":21627,"title":"ДжиДжи Эллин: Одна семья","kp_id":null,"imdb_id":"tt7887090","world_art_id":null,"type":"movie","add":"2019-01-19 14:00:58","orig_title":"All In the Family","year":"2018-08-09","translations":["Любительский (многоголосый закадровый) (Синема УС)"],"quality":"webdl","translation":"Любительский (многоголосый закадровый) (Синема УС)","update":"2019-01-21 11:33:10","iframe_src":"//2413.svetacdn.in/71tsRs29n5tZ/movie/21627"},{"id":21620,"title":"Люди и звери","kp_id":"722654","imdb_id":"tt2527190","world_art_id":null,"type":"movie","add":"2019-01-19 13:16:00","orig_title":"Domestic","year":"2012-11-21","translations":["Профессиональный (двухголосый закадровый)"],"quality":"webdl","translation":"Профессиональный (двухголосый закадровый)","update":"2019-01-21 11:34:34","iframe_src":"//2413.svetacdn.in/71tsRs29n5tZ/movie/21620"},{"id":21618,"title":"Таинственный сад","kp_id":"1083656","imdb_id":"tt7334352","world_art_id":null,"type":"movie","add":"2019-01-19 13:12:43","orig_title":"The Secret Garden","year":"2017-09-09","translations":["Любительский (многоголосый закадровый) (Синема УС)","Любительский (двухголосый закадровый) (HiWayGrope)"],"quality":"dvdrip","translation":"Любительский (многоголосый закадровый) (Синема УС)","update":"2019-01-22 05:34:41","iframe_src":"//2413.svetacdn.in/71tsRs29n5tZ/movie/21618"},{"id":21614,"title":"Похищенные: Новая Англия","kp_id":null,"imdb_id":"tt8151416","world_art_id":null,"type":"movie","add":"2019-01-19 12:56:49","orig_title":"Abducted New England","year":"2018-03-17","translations":["Любительский (многоголосый закадровый) (Синема УС)"],"quality":"webdl","translation":"Любительский (многоголосый закадровый) (Синема УС)","update":"2019-01-21 11:42:28","iframe_src":"//2413.svetacdn.in/71tsRs29n5tZ/movie/21614"},{"id":21610,"title":"Ивовое дерево","kp_id":"245821","imdb_id":"tt0415607","world_art_id":null,"type":"movie","add":"2019-01-19 11:55:41","orig_title":"Beed-e majnoon","year":"2005-02-01","translations":["Любительский (двухголосый закадровый)"],"quality":"bd","translation":"Любительский (двухголосый закадровый)","update":"2019-01-21 11:46:26","iframe_src":"//2413.svetacdn.in/71tsRs29n5tZ/movie/21610"},{"id":21608,"title":"Духовное детективное агентство","kp_id":null,"imdb_id":"tt9623412","world_art_id":null,"type":"movie","add":"2019-01-19 11:51:40","orig_title":"Spiritual Detective Agency","year":"2018-04-02","translations":["Любительский (многоголосый закадровый) (Колобок)"],"quality":"webdl","translation":"Любительский (многоголосый закадровый) (Колобок)","update":"2019-01-21 11:48:32","iframe_src":"//2413.svetacdn.in/71tsRs29n5tZ/movie/21608"},{"id":21450,"title":"Дракула","kp_id":"8436","imdb_id":"tt0021814","world_art_id":null,"type":"movie","add":"2019-01-12 08:23:01","orig_title":"Dracula","year":"1931-02-12","translations":["Профессиональный (многоголосый закадровый)"],"quality":"bd","translation":"Профессиональный (многоголосый закадровый)","update":"2019-01-22 06:00:29","iframe_src":"//2413.svetacdn.in/71tsRs29n5tZ/movie/21450"},{"id":21449,"title":"Будю, спасенный из воды","kp_id":"154233","imdb_id":"tt0022718","world_art_id":null,"type":"movie","add":"2019-01-12 08:20:53","orig_title":"Boudu sauvé des eaux","year":"1932-11-11","translations":["Профессиональный (многоголосый закадровый) (Культура | Россия К)"],"quality":"bd","translation":"Профессиональный (многоголосый закадровый) (Культура | Россия К)","update":"2019-01-22 05:59:24","iframe_src":"//2413.svetacdn.in/71tsRs29n5tZ/movie/21449"},{"id":21448,"title":"На западном фронте без перемен","kp_id":"460","imdb_id":"tt0020629","world_art_id":null,"type":"movie","add":"2019-01-12 08:19:17","orig_title":"All Quiet on the Western Front","year":"1930-04-21","translations":["Профессиональный (многоголосый закадровый)"],"quality":"bd","translation":"Профессиональный (многоголосый закадровый)","update":"2019-01-22 05:58:06","iframe_src":"//2413.svetacdn.in/71tsRs29n5tZ/movie/21448"},{"id":14784,"title":"Мир, полный чудес","kp_id":"960416","imdb_id":"tt5208216","world_art_id":null,"type":"movie","add":"2018-01-04 00:16:08","orig_title":"Wonderstruck","year":"2017-05-18","translations":["Профессиональный (многоголосый закадровый) (GreenРай Studio)","Любительский (многоголосый закадровый) (@MUZOBOZ@)","Любительский (одноголосый закадровый) (BadBajo | Важенин Андрей)","Профессиональный (многоголосый закадровый) (Jaskier)"],"quality":"webdl","translation":"Профессиональный (многоголосый закадровый) (GreenРай Studio)","update":"2019-01-22 05:50:46","iframe_src":"//2413.svetacdn.in/71tsRs29n5tZ/movie/14784"},{"id":3741,"title":"Гавана","kp_id":"7426","imdb_id":"tt0099747","world_art_id":null,"type":"movie","add":"2016-07-06 14:26:11","orig_title":"Havana","year":"1990-12-14","translations":["Профессиональный (многоголосый закадровый)"],"quality":"bd","translation":"Профессиональный (многоголосый закадровый)","update":"2019-01-21 13:55:01","iframe_src":"//2413.svetacdn.in/71tsRs29n5tZ/movie/3741"}],"current_page":2077,"first_page_url":"https://videocdn.tv/api/short?limit=100&api_token=EnbO9h8pv1VyjbCJhg0WM9nG259n7mtz&cache32077=32077&page=1","from":207601,"last_page":717,"last_page_url":"https://videocdn.tv/api/short?limit=100&api_token=EnbO9h8pv1VyjbCJhg0WM9nG259n7mtz&cache32077=32077&page=717","next_page_url":null,"path":"https://videocdn.tv/api/short","per_page":100,"prev_page_url":"https://videocdn.tv/api/short?limit=100&api_token=EnbO9h8pv1VyjbCJhg0WM9nG259n7mtz&cache32077=32077&page=2076","to":207620,"total":71667}