{"result":true,"data":[{"id":48528,"title":"Теперь ты на флоте","kp_id":"3347","imdb_id":"tt0044224","world_art_id":null,"type":"movie","add":"2021-03-07 17:56:22","orig_title":"You're in the Navy Now","year":"1951-02-23","translations":["Профессиональный (двухголосый закадровый)"],"quality":"dvdrip","translation":"Профессиональный (двухголосый закадровый)","update":"2021-03-08 06:42:56","iframe_src":"//7720.svetacdn.in/IAF0wWTdNYZm/movie/48528"},{"id":48526,"title":"Ва-банк","kp_id":"1074003","imdb_id":"tt6767728","world_art_id":null,"type":"movie","add":"2021-03-07 14:26:10","orig_title":"All In","year":"2019-06-13","translations":["Любительский (многоголосый закадровый) (Синема УС)"],"quality":"webdl","translation":"Любительский (многоголосый закадровый) (Синема УС)","update":"2021-03-08 09:42:20","iframe_src":"//7720.svetacdn.in/IAF0wWTdNYZm/movie/48526"},{"id":48523,"title":"Колдун","kp_id":"789645","imdb_id":"tt3107030","world_art_id":null,"type":"movie","add":"2021-03-07 14:07:32","orig_title":"Brujo","year":"2019-05-11","translations":["Любительский (многоголосый закадровый) (AlphaProject)"],"quality":"webdl","translation":"Любительский (многоголосый закадровый) (AlphaProject)","update":"2021-03-08 09:41:34","iframe_src":"//7720.svetacdn.in/IAF0wWTdNYZm/movie/48523"},{"id":48520,"title":"Дым","kp_id":null,"imdb_id":"tt7790712","world_art_id":null,"type":"movie","add":"2021-03-07 13:52:23","orig_title":"Smoke","year":"2018-04-01","translations":["Любительский (многоголосый закадровый) (Синема УС)"],"quality":"webdl","translation":"Любительский (многоголосый закадровый) (Синема УС)","update":"2021-03-08 09:40:34","iframe_src":"//7720.svetacdn.in/IAF0wWTdNYZm/movie/48520"},{"id":48499,"title":"Снежный дракон","kp_id":"820886","imdb_id":"tt3426200","world_art_id":null,"type":"movie","add":"2021-03-06 16:26:32","orig_title":"Snezný drak","year":"2013-12-25","translations":["Профессиональный (многоголосый закадровый) (Игмар)"],"quality":"hdtv","translation":"Профессиональный (многоголосый закадровый) (Игмар)","update":"2021-03-08 12:27:35","iframe_src":"//7720.svetacdn.in/IAF0wWTdNYZm/movie/48499"},{"id":48498,"title":"Чувство вины","kp_id":"264733","imdb_id":"tt0156585","world_art_id":null,"type":"movie","add":"2021-03-06 16:25:39","orig_title":"Gunaah","year":"1993-01-01","translations":["Профессиональный (многоголосый закадровый) (Bollywood HD)"],"quality":"hdtv","translation":"Профессиональный (многоголосый закадровый) (Bollywood HD)","update":"2021-03-08 12:28:43","iframe_src":"//7720.svetacdn.in/IAF0wWTdNYZm/movie/48498"},{"id":48496,"title":"Актёр","kp_id":"57119","imdb_id":"tt0054068","world_art_id":null,"type":"movie","add":"2021-03-06 16:17:32","orig_title":"Il mattatore","year":"1960-02-11","translations":["Профессиональный (многоголосый закадровый) (5-й канал СПб)"],"quality":"bd","translation":"Профессиональный (многоголосый закадровый) (5-й канал СПб)","update":"2021-03-08 08:33:47","iframe_src":"//7720.svetacdn.in/IAF0wWTdNYZm/movie/48496"},{"id":48495,"title":"Мафия в белых халатах","kp_id":"93286","imdb_id":"tt0138324","world_art_id":null,"type":"movie","add":"2021-03-06 16:15:57","orig_title":"Bisturi, la mafia bianca","year":"1973-05-15","translations":["Профессиональный (многоголосый закадровый) (НТВ)"],"quality":"bd","translation":"Профессиональный (многоголосый закадровый) (НТВ)","update":"2021-03-08 12:17:45","iframe_src":"//7720.svetacdn.in/IAF0wWTdNYZm/movie/48495"},{"id":48493,"title":"Мужчины думают только об этом","kp_id":"205803","imdb_id":"tt0045882","world_art_id":null,"type":"movie","add":"2021-03-06 14:23:52","orig_title":"Les hommes ne pensent qu'à ça","year":"1954-06-14","translations":["Любительский (одноголосый закадровый) (Andi)"],"quality":"webdl","translation":"Любительский (одноголосый закадровый) (Andi)","update":"2021-03-08 09:13:50","iframe_src":"//7720.svetacdn.in/IAF0wWTdNYZm/movie/48493"},{"id":48460,"title":"С террасы","kp_id":"1120","imdb_id":"tt0053841","world_art_id":null,"type":"movie","add":"2021-03-05 06:26:40","orig_title":"From the Terrace","year":"1960-07-15","translations":["Профессиональный (многоголосый закадровый) (Первый канал | ОРТ)"],"quality":"bd","translation":"Профессиональный (многоголосый закадровый) (Первый канал | ОРТ)","update":"2021-03-08 08:40:14","iframe_src":"//7720.svetacdn.in/IAF0wWTdNYZm/movie/48460"},{"id":47733,"title":"Стендап под прикрытием","kp_id":"1392769","imdb_id":null,"world_art_id":null,"type":"movie","add":"2021-02-07 22:50:33","orig_title":"Стендап под прикрытием","year":"2021-02-04","translations":["Оригинальная дорожка","Оригинальная дорожка"],"quality":"ts","translation":"Оригинальная дорожка","update":"2021-03-08 12:24:29","iframe_src":"//7720.svetacdn.in/IAF0wWTdNYZm/movie/47733"},{"id":47273,"title":"Наш человек в Америке","kp_id":"1270188","imdb_id":"tt10375972","world_art_id":null,"type":"movie","add":"2021-01-20 19:00:32","orig_title":"Vores mand i Amerika","year":"2020-01-29","translations":["Любительский (многоголосый закадровый) (Синема УС)","Любительский (многоголосый закадровый) (Синема УС)"],"quality":"bd","translation":"Любительский (многоголосый закадровый) (Синема УС)","update":"2021-03-08 12:06:40","iframe_src":"//7720.svetacdn.in/IAF0wWTdNYZm/movie/47273"},{"id":46015,"title":"Под твоей кроватью","kp_id":"1246713","imdb_id":"tt9855728","world_art_id":null,"type":"movie","add":"2020-12-11 21:01:46","orig_title":"Andâ yua beddo","year":"2019-07-19","translations":["Любительский (многоголосый закадровый) (Синема УС)","Любительский (многоголосый закадровый) (Синема УС)"],"quality":"bd","translation":"Любительский (многоголосый закадровый) (Синема УС)","update":"2021-03-08 12:07:55","iframe_src":"//7720.svetacdn.in/IAF0wWTdNYZm/movie/46015"},{"id":43809,"title":"Дикарь","kp_id":"1204109","imdb_id":"tt9099800","world_art_id":null,"type":"movie","add":"2020-09-23 22:21:07","orig_title":"Savage","year":"2019-10-10","translations":["Original (English)","Любительский (многоголосый закадровый) (@MUZOBOZ@)"],"quality":"bd","translation":"Original (English)","update":"2021-03-08 08:47:27","iframe_src":"//7720.svetacdn.in/IAF0wWTdNYZm/movie/43809"},{"id":43733,"title":"Феличита","kp_id":"1246186","imdb_id":"tt9894450","world_art_id":null,"type":"movie","add":"2020-09-21 21:48:21","orig_title":"Felicità","year":"2020-03-05","translations":["Любительский (многоголосый закадровый) (@MUZOBOZ@)","Любительский (многоголосый закадровый) (@MUZOBOZ@)"],"quality":"webdl","translation":"Любительский (многоголосый закадровый) (@MUZOBOZ@)","update":"2021-03-08 12:15:26","iframe_src":"//7720.svetacdn.in/IAF0wWTdNYZm/movie/43733"},{"id":42830,"title":"Клуб «Рай»","kp_id":"5138","imdb_id":"tt0090856","world_art_id":null,"type":"movie","add":"2020-08-27 17:13:23","orig_title":"Club Paradise","year":"1986-07-11","translations":["Авторский (одноголосый закадровый) (Алексеев Антон)","Original (English)","Авторский (одноголосый закадровый) (Пронин Антон)"],"quality":"webdl","translation":"Авторский (одноголосый закадровый) (Алексеев Антон)","update":"2021-03-08 12:13:14","iframe_src":"//7720.svetacdn.in/IAF0wWTdNYZm/movie/42830"},{"id":40911,"title":"Принц","kp_id":"240183","imdb_id":"tt0064842","world_art_id":null,"type":"movie","add":"2020-06-03 19:30:13","orig_title":"Prince","year":"1969-01-01","translations":["Любительский (одноголосый закадровый)"],"quality":"webdl","translation":"Любительский (одноголосый закадровый)","update":"2021-03-08 10:14:28","iframe_src":"//7720.svetacdn.in/IAF0wWTdNYZm/movie/40911"},{"id":6307,"title":"Две жены","kp_id":"1097468","imdb_id":null,"world_art_id":null,"type":"serial","add":"2020-01-10 12:41:20","orig_title":"Две жены","year":"2017-11-06","translations":["Оригинальная дорожка"],"seasons_count":1,"episodes_count":4,"episodes":4,"update":"2020-01-10 20:53:23","iframe_src":"//7720.svetacdn.in/IAF0wWTdNYZm/tv-series/6307"},{"id":6305,"title":"Дефстроук: Рыцари и Драконы","kp_id":"1270698","imdb_id":"tt10394706","world_art_id":null,"type":"serial","add":"2020-01-10 10:16:47","orig_title":"Deathstroke: Knights & Dragons","year":"2020-01-06","translations":["Профессиональный (многоголосый закадровый) (NewComers)"],"seasons_count":1,"episodes_count":1,"episodes":1,"update":"2020-01-10 22:36:55","iframe_src":"//7720.svetacdn.in/IAF0wWTdNYZm/tv-series/6305"},{"id":6304,"title":"Медицинская полиция","kp_id":"1245640","imdb_id":"tt9850952","world_art_id":null,"type":"serial","add":"2020-01-10 10:13:18","orig_title":"Medical Police","year":"2020-01-10","translations":["Любительский (многоголосый закадровый) (ColdFilm)","Любительский (многоголосый закадровый) (Octopus)"],"seasons_count":1,"episodes_count":10,"episodes":10,"update":"2020-01-10 17:26:01","iframe_src":"//7720.svetacdn.in/IAF0wWTdNYZm/tv-series/6304"},{"id":6300,"title":"Ищу жену с ребёнком","kp_id":"841735","imdb_id":"tt4184976","world_art_id":null,"type":"serial","add":"2020-01-10 07:54:45","orig_title":"Ishchu zhenu s rebyonkom","year":"2014-08-25","translations":["Оригинальная дорожка"],"seasons_count":1,"episodes_count":4,"episodes":4,"update":"2020-01-10 21:23:19","iframe_src":"//7720.svetacdn.in/IAF0wWTdNYZm/tv-series/6300"},{"id":6299,"title":"Погружение","kp_id":"991677","imdb_id":"tt4025156","world_art_id":null,"type":"serial","add":"2020-01-10 07:47:30","orig_title":"En immersion","year":"2016-01-07","translations":["Любительский (многоголосый закадровый)"],"seasons_count":1,"episodes_count":3,"episodes":3,"update":"2020-01-10 21:22:31","iframe_src":"//7720.svetacdn.in/IAF0wWTdNYZm/tv-series/6299"},{"id":6298,"title":"Татау","kp_id":"905069","imdb_id":"tt4122348","world_art_id":null,"type":"serial","add":"2020-01-10 04:52:53","orig_title":"Tatau","year":"2015-04-18","translations":["Любительский (двухголосый закадровый)"],"seasons_count":1,"episodes_count":8,"episodes":8,"update":"2020-01-10 21:19:09","iframe_src":"//7720.svetacdn.in/IAF0wWTdNYZm/tv-series/6298"},{"id":6297,"title":"Русские в городе ангелов","kp_id":"94101","imdb_id":"tt0320008","world_art_id":null,"type":"serial","add":"2020-01-10 04:34:31","orig_title":"Russkie v Gorode Angelov","year":"2003-01-20","translations":["Оригинальная дорожка"],"seasons_count":1,"episodes_count":12,"episodes":12,"update":"2020-01-10 21:14:43","iframe_src":"//7720.svetacdn.in/IAF0wWTdNYZm/tv-series/6297"},{"id":6295,"title":"Легион экстраординарных танцоров","kp_id":"571317","imdb_id":"tt1743034","world_art_id":null,"type":"serial","add":"2020-01-09 19:46:11","orig_title":"The LXD: The Legion of Extraordinary Dancers","year":"2010-07-07","translations":["Профессиональный (многоголосый закадровый) (СТС)"],"seasons_count":2,"episodes_count":20,"episodes":10,"update":"2020-01-10 12:37:34","iframe_src":"//7720.svetacdn.in/IAF0wWTdNYZm/tv-series/6295"},{"id":6294,"title":"Мыслить как преступник: Поведение подозреваемого","kp_id":"569674","imdb_id":"tt1703874","world_art_id":null,"type":"serial","add":"2020-01-09 19:42:12","orig_title":"Criminal Minds: Suspect Behavior","year":"2011-02-16","translations":["Профессиональный (многоголосый закадровый) (Fox Crime)"],"seasons_count":1,"episodes_count":13,"episodes":13,"update":"2020-01-10 12:26:03","iframe_src":"//7720.svetacdn.in/IAF0wWTdNYZm/tv-series/6294"},{"id":6292,"title":"Не верь су*** из квартиры 23","kp_id":"591840","imdb_id":"tt1819509","world_art_id":null,"type":"serial","add":"2020-01-09 15:17:25","orig_title":"Don't Trust the B---- in Apartment 23","year":"2012-04-11","translations":["Профессиональный (многоголосый закадровый) (Novamedia)","Любительский (двухголосый закадровый) (Несмертельное оружие)"],"seasons_count":2,"episodes_count":26,"episodes":19,"update":"2020-01-10 10:33:03","iframe_src":"//7720.svetacdn.in/IAF0wWTdNYZm/tv-series/6292"},{"id":6291,"title":"Кладовая жизни","kp_id":"1115466","imdb_id":"tt10107886","world_art_id":null,"type":"serial","add":"2020-01-09 12:48:45","orig_title":"Kladovaya zhizni","year":"2018-03-19","translations":["Оригинальная дорожка"],"seasons_count":1,"episodes_count":8,"episodes":8,"update":"2020-01-10 12:18:39","iframe_src":"//7720.svetacdn.in/IAF0wWTdNYZm/tv-series/6291"},{"id":6289,"title":"Шурочка","kp_id":"798168","imdb_id":null,"world_art_id":null,"type":"serial","add":"2020-01-09 12:17:23","orig_title":"Шурочка","year":"2013-09-08","translations":["Оригинальная дорожка"],"seasons_count":1,"episodes_count":20,"episodes":20,"update":"2020-01-10 21:39:26","iframe_src":"//7720.svetacdn.in/IAF0wWTdNYZm/tv-series/6289"},{"id":6288,"title":"Война Гоботов","kp_id":"229193","imdb_id":"tt0139769","world_art_id":null,"type":"serial","add":"2020-01-09 09:49:22","orig_title":"Challenge of the GoBots","year":"1984-10-29","translations":["Любительский (одноголосый закадровый)","Профессиональный (многоголосый закадровый) (Первый канал | ОРТ)"],"seasons_count":2,"episodes_count":58,"episodes":53,"update":"2020-01-11 13:19:28","iframe_src":"//7720.svetacdn.in/IAF0wWTdNYZm/tv-series/6288"},{"id":6285,"title":"Моя девушка – инопланетянка","kp_id":null,"imdb_id":"tt10874298","world_art_id":null,"type":"serial","add":"2020-01-09 09:33:49","orig_title":"My Girlfriend is an Alien","year":"2019-08-21","translations":["Любительский (одноголосый закадровый)"],"seasons_count":1,"episodes_count":28,"episodes":28,"update":"2020-01-10 20:35:05","iframe_src":"//7720.svetacdn.in/IAF0wWTdNYZm/tv-series/6285"},{"id":6280,"title":"Тайный знак","kp_id":"276272","imdb_id":"tt2842958","world_art_id":null,"type":"serial","add":"2020-01-09 08:42:00","orig_title":"Taynyy znak","year":"2002-04-01","translations":["Оригинальная дорожка"],"seasons_count":3,"episodes_count":24,"episodes":8,"update":"2020-01-10 12:50:53","iframe_src":"//7720.svetacdn.in/IAF0wWTdNYZm/tv-series/6280"},{"id":6270,"title":"Изысканная Нэнси Клэнси","kp_id":"666764","imdb_id":"tt2229129","world_art_id":null,"type":"serial","add":"2020-01-07 21:40:45","orig_title":"Fancy Nancy","year":"2018-07-13","translations":["Полное дублирование"],"seasons_count":1,"episodes_count":47,"episodes":47,"update":"2020-01-10 12:14:45","iframe_src":"//7720.svetacdn.in/IAF0wWTdNYZm/tv-series/6270"},{"id":6219,"title":"Зелёный фургон","kp_id":"1073215","imdb_id":"tt11489096","world_art_id":null,"type":"serial","add":"2020-01-03 12:43:14","orig_title":"Zelyonyy furgon. Sovsem drugaya istoriya","year":"2020-01-03","translations":["Оригинальная дорожка"],"seasons_count":1,"episodes_count":16,"episodes":16,"update":"2020-01-11 08:22:24","iframe_src":"//7720.svetacdn.in/IAF0wWTdNYZm/tv-series/6219"},{"id":5290,"title":"Преступник: Испания","kp_id":"1305061","imdb_id":"tt10986050","world_art_id":null,"type":"serial","add":"2019-09-25 11:47:35","orig_title":"Criminal: Spain","year":"2019-09-20","translations":["Профессиональный (двухголосый закадровый) (IdeaFilm)","Профессиональный (многоголосый закадровый) (HDrezka Studio)","Профессиональный (многоголосый закадровый) (LostFilm)"],"seasons_count":1,"episodes_count":3,"episodes":3,"update":"2020-01-11 17:37:29","iframe_src":"//7720.svetacdn.in/IAF0wWTdNYZm/tv-series/5290"},{"id":5203,"title":"Чема","kp_id":"1009621","imdb_id":"tt5730624","world_art_id":null,"type":"serial","add":"2019-09-16 10:14:10","orig_title":"El Chema","year":"2016-12-06","translations":["Любительский (одноголосый закадровый)"],"seasons_count":1,"episodes_count":11,"episodes":11,"update":"2020-01-10 12:31:39","iframe_src":"//7720.svetacdn.in/IAF0wWTdNYZm/tv-series/5203"},{"id":25639,"title":"Любовь одна","kp_id":"471835","imdb_id":"tt2038277","world_art_id":null,"type":"movie","add":"2019-04-29 18:53:35","orig_title":"Lyubov odna","year":"2007-01-01","translations":["Оригинальная дорожка"],"quality":"iptv","translation":"Оригинальная дорожка","update":"2021-03-08 12:29:45","iframe_src":"//7720.svetacdn.in/IAF0wWTdNYZm/movie/25639"},{"id":23558,"title":"Разжалованный","kp_id":"466444","imdb_id":"tt4335164","world_art_id":null,"type":"movie","add":"2019-03-27 10:51:49","orig_title":"Razzhalovannyi","year":"2009-06-21","translations":["Оригинальная дорожка"],"quality":"webdl","translation":"Оригинальная дорожка","update":"2021-03-08 08:49:25","iframe_src":"//7720.svetacdn.in/IAF0wWTdNYZm/movie/23558"},{"id":2701,"title":"Ватага","kp_id":"1109278","imdb_id":"tt4048942","world_art_id":null,"type":"serial","add":"2018-05-31 07:16:17","orig_title":"Wataha","year":"2017-05-28","translations":["Любительский (многоголосый закадровый) (GreenРай Studio)","Любительский (многоголосый закадровый) (Octopus)"],"seasons_count":3,"episodes_count":18,"episodes":6,"update":"2020-01-10 16:05:08","iframe_src":"//7720.svetacdn.in/IAF0wWTdNYZm/tv-series/2701"},{"id":8754,"title":"Джентльмен из Кокоди","kp_id":"56791","imdb_id":"tt0058137","world_art_id":null,"type":"movie","add":"2017-01-09 11:25:36","orig_title":"Le gentleman de Cocody","year":"1965-04-02","translations":["Профессиональный (многоголосый закадровый) (РТР | Россия)"],"quality":"bd","translation":"Профессиональный (многоголосый закадровый) (РТР | Россия)","update":"2021-03-08 09:08:33","iframe_src":"//7720.svetacdn.in/IAF0wWTdNYZm/movie/8754"}],"current_page":311,"first_page_url":"https://videocdn.tv/api/short?limit=100&api_token=6Onb1W1alEUrBcKJZD3GoKBbWyAl2uG2&cache3311=3311&page=1","from":31001,"last_page":649,"last_page_url":"https://videocdn.tv/api/short?limit=100&api_token=6Onb1W1alEUrBcKJZD3GoKBbWyAl2uG2&cache3311=3311&page=649","next_page_url":"https://videocdn.tv/api/short?limit=100&api_token=6Onb1W1alEUrBcKJZD3GoKBbWyAl2uG2&cache3311=3311&page=312","path":"https://videocdn.tv/api/short","per_page":100,"prev_page_url":"https://videocdn.tv/api/short?limit=100&api_token=6Onb1W1alEUrBcKJZD3GoKBbWyAl2uG2&cache3311=3311&page=310","to":31040,"total":64878}