{"result":true,"data":[{"id":45199,"title":"Мой принц Эдвард","kp_id":"1312082","imdb_id":"tt11070230","world_art_id":null,"type":"movie","add":"2020-11-11 10:21:43","orig_title":"My Prince Edward","year":"2020-05-08","translations":["Любительский (многоголосый закадровый) (Синема УС)"],"quality":"bd","translation":"Любительский (многоголосый закадровый) (Синема УС)","update":"2020-11-11 12:57:14","iframe_src":"//7043.svetacdn.in/IAF0wWTdNYZm/movie/45199"},{"id":45197,"title":"Ви-Эйч-Эс","kp_id":"1265055","imdb_id":"tt10287376","world_art_id":null,"type":"movie","add":"2020-11-11 10:07:45","orig_title":"VHYes","year":"2019-09-21","translations":["Любительский (многоголосый закадровый) (Синема УС)"],"quality":"webdl","translation":"Любительский (многоголосый закадровый) (Синема УС)","update":"2020-11-11 12:56:25","iframe_src":"//7043.svetacdn.in/IAF0wWTdNYZm/movie/45197"},{"id":45196,"title":"Перенос: История Любви","kp_id":"1221647","imdb_id":"tt9460386","world_art_id":null,"type":"movie","add":"2020-11-11 10:02:43","orig_title":"Transference: A Love Story","year":"2020-06-26","translations":["Любительский (многоголосый закадровый) (Синема УС)"],"quality":"webdl","translation":"Любительский (многоголосый закадровый) (Синема УС)","update":"2020-11-11 12:56:10","iframe_src":"//7043.svetacdn.in/IAF0wWTdNYZm/movie/45196"},{"id":45195,"title":"Пропавшая сестра","kp_id":"1215070","imdb_id":"tt9241780","world_art_id":null,"type":"movie","add":"2020-11-11 09:54:59","orig_title":"The Missing Sister","year":"2019-11-16","translations":["Любительский (многоголосый закадровый) (Синема УС)"],"quality":"webdl","translation":"Любительский (многоголосый закадровый) (Синема УС)","update":"2020-11-11 12:55:57","iframe_src":"//7043.svetacdn.in/IAF0wWTdNYZm/movie/45195"},{"id":45194,"title":"Ключ к Рождеству","kp_id":"1437900","imdb_id":"tt12717050","world_art_id":null,"type":"movie","add":"2020-11-11 09:52:56","orig_title":"The Key to Christmas","year":"2020-11-10","translations":["Любительский (многоголосый закадровый) (Синема УС)"],"quality":"webdl","translation":"Любительский (многоголосый закадровый) (Синема УС)","update":"2020-11-11 12:55:46","iframe_src":"//7043.svetacdn.in/IAF0wWTdNYZm/movie/45194"},{"id":45193,"title":"Сквоттер","kp_id":"1119632","imdb_id":"tt8245904","world_art_id":null,"type":"movie","add":"2020-11-11 09:48:54","orig_title":"Squatter","year":"2020-11-09","translations":["Любительский (многоголосый закадровый) (Синема УС)"],"quality":"webdl","translation":"Любительский (многоголосый закадровый) (Синема УС)","update":"2020-11-11 12:55:17","iframe_src":"//7043.svetacdn.in/IAF0wWTdNYZm/movie/45193"},{"id":45191,"title":"Настоящие","kp_id":"1181393","imdb_id":"tt8794186","world_art_id":null,"type":"movie","add":"2020-11-11 09:41:17","orig_title":"Real","year":"2019-10-06","translations":["Любительский (многоголосый закадровый) (@MUZOBOZ@)"],"quality":"webdl","translation":"Любительский (многоголосый закадровый) (@MUZOBOZ@)","update":"2020-11-11 12:54:40","iframe_src":"//7043.svetacdn.in/IAF0wWTdNYZm/movie/45191"},{"id":45057,"title":"Валидуб","kp_id":"461842","imdb_id":"tt4076306","world_art_id":null,"type":"movie","add":"2020-11-05 18:43:09","orig_title":"Validub","year":"1952-01-01","translations":["Оригинальная дорожка"],"quality":"dvdrip","translation":"Оригинальная дорожка","update":"2020-11-11 12:25:57","iframe_src":"//7043.svetacdn.in/IAF0wWTdNYZm/movie/45057"},{"id":45056,"title":"Василек","kp_id":"258115","imdb_id":"tt1945226","world_art_id":null,"type":"movie","add":"2020-11-05 18:40:58","orig_title":"Vasilyok","year":"1973-01-01","translations":["Оригинальная дорожка"],"quality":"dvdrip","translation":"Оригинальная дорожка","update":"2020-11-11 12:24:45","iframe_src":"//7043.svetacdn.in/IAF0wWTdNYZm/movie/45056"},{"id":45054,"title":"Вересковый мед","kp_id":"489276","imdb_id":"tt6493386","world_art_id":null,"type":"movie","add":"2020-11-05 18:37:45","orig_title":"Vereskovyy myod","year":"1974-01-01","translations":["Оригинальная дорожка"],"quality":"dvdrip","translation":"Оригинальная дорожка","update":"2020-11-11 12:23:10","iframe_src":"//7043.svetacdn.in/IAF0wWTdNYZm/movie/45054"},{"id":45053,"title":"Верлиока","kp_id":"453162","imdb_id":"tt4109038","world_art_id":null,"type":"movie","add":"2020-11-05 18:32:34","orig_title":"Verlioka","year":"1957-10-08","translations":["Оригинальная дорожка"],"quality":"dvdrip","translation":"Оригинальная дорожка","update":"2020-11-11 12:21:55","iframe_src":"//7043.svetacdn.in/IAF0wWTdNYZm/movie/45053"},{"id":45052,"title":"Верное средство","kp_id":"539693","imdb_id":"tt5517530","world_art_id":null,"type":"movie","add":"2020-11-05 18:29:58","orig_title":"Vernoe sredstvo","year":"1982-01-01","translations":["Оригинальная дорожка"],"quality":"dvdrip","translation":"Оригинальная дорожка","update":"2020-11-11 12:20:44","iframe_src":"//7043.svetacdn.in/IAF0wWTdNYZm/movie/45052"},{"id":45051,"title":"Весёлый художник","kp_id":"842062","imdb_id":null,"world_art_id":null,"type":"movie","add":"2020-11-05 18:26:56","orig_title":"Весёлый художник","year":"1963-01-01","translations":["Оригинальная дорожка"],"quality":"dvdrip","translation":"Оригинальная дорожка","update":"2020-11-11 12:19:21","iframe_src":"//7043.svetacdn.in/IAF0wWTdNYZm/movie/45051"},{"id":45050,"title":"Весёлый цыплёнок","kp_id":"490318","imdb_id":"tt2270680","world_art_id":null,"type":"movie","add":"2020-11-05 18:17:41","orig_title":"Vesyolyy tsyplyonok","year":"1973-01-01","translations":["Оригинальная дорожка"],"quality":"dvdrip","translation":"Оригинальная дорожка","update":"2020-11-11 12:17:55","iframe_src":"//7043.svetacdn.in/IAF0wWTdNYZm/movie/45050"},{"id":45047,"title":"Весенняя сказка","kp_id":"258009","imdb_id":"tt6371980","world_art_id":null,"type":"movie","add":"2020-11-05 18:13:30","orig_title":"Vesennyaya skazka","year":"1949-09-15","translations":["Оригинальная дорожка"],"quality":"dvdrip","translation":"Оригинальная дорожка","update":"2020-11-11 12:15:48","iframe_src":"//7043.svetacdn.in/IAF0wWTdNYZm/movie/45047"},{"id":45046,"title":"Странный зверь","kp_id":"565637","imdb_id":null,"world_art_id":null,"type":"movie","add":"2020-11-05 18:06:23","orig_title":"Странный зверь","year":"1980-01-01","translations":["Оригинальная дорожка"],"quality":"dvdrip","translation":"Оригинальная дорожка","update":"2020-11-11 12:06:13","iframe_src":"//7043.svetacdn.in/IAF0wWTdNYZm/movie/45046"},{"id":44841,"title":"Заговор в Дарк Фоллз","kp_id":"855229","imdb_id":"tt4027628","world_art_id":null,"type":"movie","add":"2020-10-27 14:03:46","orig_title":"Conspiracy of Dark Falls","year":"2020-01-01","translations":["Original (English)","Любительский (многоголосый закадровый) (Синема УС)"],"quality":"webdl","translation":"Original (English)","update":"2020-11-11 12:55:28","iframe_src":"//7043.svetacdn.in/IAF0wWTdNYZm/movie/44841"},{"id":4948,"title":"Убежище","kp_id":"311095","imdb_id":"tt0965394","world_art_id":null,"type":"serial","add":"2019-07-25 20:34:47","orig_title":"Sanctuary","year":"2008-10-03","translations":["Профессиональный (многоголосый закадровый) (Syfy Universal)"],"seasons_count":4,"episodes_count":58,"episodes":13,"update":"2019-07-26 21:20:32","iframe_src":"//7043.svetacdn.in/IAF0wWTdNYZm/tv-series/4948"},{"id":4944,"title":"Иеремия","kp_id":"401599","imdb_id":"tt0290966","world_art_id":null,"type":"serial","add":"2019-07-25 11:26:23","orig_title":"Jeremiah","year":"2002-03-03","translations":["Любительский (одноголосый закадровый) (MaxMeister)"],"seasons_count":2,"episodes_count":35,"episodes":15,"update":"2019-07-25 21:14:28","iframe_src":"//7043.svetacdn.in/IAF0wWTdNYZm/tv-series/4944"},{"id":4942,"title":"Побег","kp_id":"533128","imdb_id":"tt3540714","world_art_id":null,"type":"serial","add":"2019-07-25 09:49:35","orig_title":"Pobeg","year":"2010-09-20","translations":["Оригинальная дорожка"],"seasons_count":1,"episodes_count":22,"episodes":22,"update":"2019-07-28 06:50:41","iframe_src":"//7043.svetacdn.in/IAF0wWTdNYZm/tv-series/4942"},{"id":4940,"title":"Весенняя ночь","kp_id":"1234914","imdb_id":"tt10192576","world_art_id":null,"type":"serial","add":"2019-07-25 08:50:07","orig_title":"Bombam","year":"2019-05-22","translations":["Любительский (двухголосый закадровый) (SoftBox)"],"seasons_count":1,"episodes_count":16,"episodes":16,"update":"2019-07-28 06:30:29","iframe_src":"//7043.svetacdn.in/IAF0wWTdNYZm/tv-series/4940"},{"id":4939,"title":"Миллениум","kp_id":"672397","imdb_id":"tt1634549","world_art_id":null,"type":"serial","add":"2019-07-25 07:56:07","orig_title":"Millennium","year":"2010-03-20","translations":["Профессиональный (многоголосый закадровый)"],"seasons_count":1,"episodes_count":6,"episodes":6,"update":"2019-07-27 13:58:44","iframe_src":"//7043.svetacdn.in/IAF0wWTdNYZm/tv-series/4939"},{"id":4938,"title":"Секреты на кухне","kp_id":"395698","imdb_id":"tt0460654","world_art_id":null,"type":"serial","add":"2019-07-25 07:37:36","orig_title":"Kitchen Confidential","year":"2005-09-19","translations":["Любительский (двухголосый закадровый)"],"seasons_count":1,"episodes_count":13,"episodes":13,"update":"2019-07-27 13:56:21","iframe_src":"//7043.svetacdn.in/IAF0wWTdNYZm/tv-series/4938"},{"id":4936,"title":"Кувалда","kp_id":"231082","imdb_id":"tt0090525","world_art_id":null,"type":"serial","add":"2019-07-24 19:30:58","orig_title":"Sledge Hammer!","year":"1986-09-23","translations":["Профессиональный (многоголосый закадровый)"],"seasons_count":2,"episodes_count":41,"episodes":19,"update":"2019-07-25 12:20:25","iframe_src":"//7043.svetacdn.in/IAF0wWTdNYZm/tv-series/4936"},{"id":4933,"title":"Таинственный остров","kp_id":"416197","imdb_id":"tt0448965","world_art_id":null,"type":"serial","add":"2019-07-24 12:35:24","orig_title":"Mysterious Island","year":"2005-09-17","translations":["Профессиональный (двухголосый закадровый)"],"seasons_count":1,"episodes_count":2,"episodes":2,"update":"2019-07-25 07:05:32","iframe_src":"//7043.svetacdn.in/IAF0wWTdNYZm/tv-series/4933"},{"id":4932,"title":"Великий мастер даосизма","kp_id":"1274660","imdb_id":"tt10443788","world_art_id":null,"type":"serial","add":"2019-07-24 11:40:44","orig_title":"The Taoism Grandmaster","year":"2018-05-21","translations":["Любительский (двухголосый закадровый) (East Dream)"],"seasons_count":1,"episodes_count":46,"episodes":46,"update":"2019-07-25 11:46:16","iframe_src":"//7043.svetacdn.in/IAF0wWTdNYZm/tv-series/4932"},{"id":4929,"title":"Человек-паук","kp_id":"95232","imdb_id":"tt0112175","world_art_id":null,"type":"serial","add":"2019-07-24 05:31:32","orig_title":"Spider-Man","year":"1994-11-19","translations":["Профессиональный (многоголосый закадровый) (РенТВ)","Полное дублирование (НТВ)"],"seasons_count":5,"episodes_count":65,"episodes":13,"update":"2019-07-25 14:57:43","iframe_src":"//7043.svetacdn.in/IAF0wWTdNYZm/tv-series/4929"},{"id":4926,"title":"Сводники Духов: Лисьи Свахи","kp_id":null,"imdb_id":null,"world_art_id":null,"type":"serial","add":"2019-07-23 11:38:21","orig_title":"Hu yao xiao hongniang (Enmusubi no Youko-chan)","year":"2015-01-01","translations":["Любительский (одноголосый закадровый)"],"seasons_count":1,"episodes_count":100,"episodes":100,"update":"2019-07-25 14:48:57","iframe_src":"//7043.svetacdn.in/IAF0wWTdNYZm/tv-series/4926"},{"id":4924,"title":"Грандиозный Человек-паук","kp_id":"397484","imdb_id":"tt0976192","world_art_id":null,"type":"serial","add":"2019-07-23 10:22:53","orig_title":"The Spectacular Spider-Man","year":"2008-03-01","translations":["Полное дублирование"],"seasons_count":2,"episodes_count":26,"episodes":13,"update":"2019-07-25 11:57:01","iframe_src":"//7043.svetacdn.in/IAF0wWTdNYZm/tv-series/4924"},{"id":4914,"title":"Багровый лепесток и белый","kp_id":"78660","imdb_id":"tt0384013","world_art_id":null,"type":"serial","add":"2019-07-22 14:18:30","orig_title":"The Crimson Petal and the White","year":"2011-04-06","translations":["Любительский (одноголосый закадровый)"],"seasons_count":1,"episodes_count":4,"episodes":4,"update":"2019-07-26 12:18:51","iframe_src":"//7043.svetacdn.in/IAF0wWTdNYZm/tv-series/4914"},{"id":4913,"title":"Путешествие на край Земли","kp_id":"259877","imdb_id":"tt0435995","world_art_id":null,"type":"serial","add":"2019-07-22 12:41:48","orig_title":"To the Ends of the Earth","year":"2005-07-06","translations":["Профессиональный (двухголосый закадровый)"],"seasons_count":1,"episodes_count":3,"episodes":3,"update":"2019-07-25 06:58:02","iframe_src":"//7043.svetacdn.in/IAF0wWTdNYZm/tv-series/4913"},{"id":4634,"title":"Студенты","kp_id":"257767","imdb_id":"tt6063390","world_art_id":null,"type":"serial","add":"2019-06-06 14:49:51","orig_title":"Studenty","year":"2005-01-01","translations":["Оригинальная дорожка"],"seasons_count":1,"episodes_count":48,"episodes":48,"update":"2019-07-25 14:27:12","iframe_src":"//7043.svetacdn.in/IAF0wWTdNYZm/tv-series/4634"},{"id":4609,"title":"Солдаты 17: Снова в строю","kp_id":"692460","imdb_id":null,"world_art_id":null,"type":"serial","add":"2019-05-31 15:03:02","orig_title":"Солдаты 17: Снова в строю","year":"2013-04-29","translations":["Оригинальная дорожка"],"seasons_count":1,"episodes_count":20,"episodes":20,"update":"2019-07-26 08:00:54","iframe_src":"//7043.svetacdn.in/IAF0wWTdNYZm/tv-series/4609"},{"id":4608,"title":"Солдаты 16: Дембель неизбежен","kp_id":"566827","imdb_id":null,"world_art_id":null,"type":"serial","add":"2019-05-31 14:59:13","orig_title":"Солдаты 16: Дембель неизбежен","year":"2019-01-11","translations":["Оригинальная дорожка"],"seasons_count":1,"episodes_count":90,"episodes":90,"update":"2019-07-25 12:10:48","iframe_src":"//7043.svetacdn.in/IAF0wWTdNYZm/tv-series/4608"},{"id":4536,"title":"Городок","kp_id":"451181","imdb_id":"tt4879396","world_art_id":null,"type":"serial","add":"2019-05-21 22:05:27","orig_title":"Gorodok","year":"1993-01-01","translations":["Оригинальная дорожка"],"seasons_count":1,"episodes_count":235,"episodes":235,"update":"2019-07-27 12:45:28","iframe_src":"//7043.svetacdn.in/IAF0wWTdNYZm/tv-series/4536"},{"id":3643,"title":"Императрица Фуяо","kp_id":"1178536","imdb_id":"tt8811032","world_art_id":null,"type":"serial","add":"2018-12-08 23:49:30","orig_title":"Fuyao","year":"2018-06-18","translations":["Любительский (одноголосый закадровый)","Любительский (двухголосый закадровый)"],"seasons_count":1,"episodes_count":66,"episodes":66,"update":"2019-07-27 13:39:25","iframe_src":"//7043.svetacdn.in/IAF0wWTdNYZm/tv-series/3643"},{"id":780,"title":"Римская Испания, легенда","kp_id":"543119","imdb_id":"tt1691593","world_art_id":null,"type":"serial","add":"2017-01-02 07:01:53","orig_title":"Hispania, la leyenda","year":"2010-10-25","translations":["Профессиональный (многоголосый закадровый) (BaibaKo)"],"seasons_count":3,"episodes_count":20,"episodes":3,"update":"2019-07-27 14:47:33","iframe_src":"//7043.svetacdn.in/IAF0wWTdNYZm/tv-series/780"},{"id":3249,"title":"Типа крутой охранник","kp_id":"409338","imdb_id":"tt1197628","world_art_id":null,"type":"movie","add":"2016-06-20 08:04:40","orig_title":"Observe and Report","year":"2009-03-16","translations":["Профессиональный (многоголосый закадровый)","Авторский (одноголосый закадровый) (Гоблин | Пучков Дмитрий)","Original (English)","Профессиональный (многоголосый закадровый)"],"quality":"bd","translation":"Профессиональный (многоголосый закадровый)","update":"2020-11-11 11:15:32","iframe_src":"//7043.svetacdn.in/IAF0wWTdNYZm/movie/3249"},{"id":1683,"title":"Полицейская академия 4: Граждане в дозоре","kp_id":"22854","imdb_id":"tt0093756","world_art_id":null,"type":"movie","add":"2016-04-27 12:41:43","orig_title":"Police Academy 4: Citizens on Patrol","year":"1987-04-03","translations":["Полное дублирование","Полное дублирование (Варус-Видео)","Профессиональный (двухголосый закадровый) (НТВ)","Авторский (одноголосый закадровый) (Гаврилов Андрей)","Original (English)","Профессиональный (двухголосый закадровый) (Карусель)","Профессиональный (многоголосый закадровый) (Lazer Video)","Профессиональный (многоголосый закадровый) (РТР | Россия)"],"quality":"bd","translation":"Полное дублирование","update":"2020-11-11 11:31:40","iframe_src":"//7043.svetacdn.in/IAF0wWTdNYZm/movie/1683"},{"id":1682,"title":"Полицейская академия 3: Переподготовка","kp_id":"4966","imdb_id":"tt0091777","world_art_id":null,"type":"movie","add":"2016-04-27 12:40:41","orig_title":"Police Academy 3: Back in Training","year":"1986-03-21","translations":["Полное дублирование","Полное дублирование (Варус-Видео)","Профессиональный (двухголосый закадровый) (НТВ)","Авторский (одноголосый закадровый) (Гаврилов Андрей)","Авторский (одноголосый закадровый) (Иванов Михаил)","Авторский (одноголосый закадровый) (Володарский Леонид)","Original (English)","Профессиональный (двухголосый закадровый)","Профессиональный (двухголосый закадровый) (Карусель)","Профессиональный (двухголосый закадровый) (Universal Channel)"],"quality":"bd","translation":"Полное дублирование","update":"2020-11-11 11:23:29","iframe_src":"//7043.svetacdn.in/IAF0wWTdNYZm/movie/1682"}],"current_page":333,"first_page_url":"https://videocdn.tv/api/short?limit=100&api_token=6Onb1W1alEUrBcKJZD3GoKBbWyAl2uG2&cache3333=3333&page=1","from":33201,"last_page":616,"last_page_url":"https://videocdn.tv/api/short?limit=100&api_token=6Onb1W1alEUrBcKJZD3GoKBbWyAl2uG2&cache3333=3333&page=616","next_page_url":"https://videocdn.tv/api/short?limit=100&api_token=6Onb1W1alEUrBcKJZD3GoKBbWyAl2uG2&cache3333=3333&page=334","path":"https://videocdn.tv/api/short","per_page":100,"prev_page_url":"https://videocdn.tv/api/short?limit=100&api_token=6Onb1W1alEUrBcKJZD3GoKBbWyAl2uG2&cache3333=3333&page=332","to":33240,"total":61558}