{"result":true,"data":[{"id":42014,"title":"Джек Уайтхолл: я только шучу","kp_id":"1390993","imdb_id":"tt12588432","world_art_id":null,"type":"movie","add":"2020-07-26 04:36:45","orig_title":"Jack Whitehall: I'm Only Joking","year":"2020-07-21","translations":["Любительский (многоголосый закадровый) (Синема УС)"],"quality":"webdl","translation":"Любительский (многоголосый закадровый) (Синема УС)","update":"2020-07-26 11:19:43","iframe_src":"//7741.svetacdn.in/IAF0wWTdNYZm/movie/42014"},{"id":42013,"title":"Рапунцель: принцесса, застывшая во времени","kp_id":"1264808","imdb_id":"tt10349550","world_art_id":null,"type":"movie","add":"2020-07-26 04:35:12","orig_title":"Rapunzel: A Princess Frozen in Time","year":"2019-05-15","translations":["Любительский (многоголосый закадровый) (Синема УС)"],"quality":"webdl","translation":"Любительский (многоголосый закадровый) (Синема УС)","update":"2020-07-26 18:37:04","iframe_src":"//7741.svetacdn.in/IAF0wWTdNYZm/movie/42013"},{"id":42012,"title":"Театр","kp_id":"1282686","imdb_id":"tt10650424","world_art_id":null,"type":"movie","add":"2020-07-25 06:10:31","orig_title":"Gekijo","year":"2020-07-17","translations":["Любительский (многоголосый закадровый) (Синема УС)"],"quality":"webdl","translation":"Любительский (многоголосый закадровый) (Синема УС)","update":"2020-07-25 17:55:22","iframe_src":"//7741.svetacdn.in/IAF0wWTdNYZm/movie/42012"},{"id":42011,"title":"Ничего не знающие","kp_id":"1018788","imdb_id":"tt6503938","world_art_id":null,"type":"movie","add":"2020-07-25 06:09:01","orig_title":"Know Nothins","year":"2018-11-20","translations":["Любительский (многоголосый закадровый) (Синема УС)"],"quality":"webdl","translation":"Любительский (многоголосый закадровый) (Синема УС)","update":"2020-07-26 11:13:23","iframe_src":"//7741.svetacdn.in/IAF0wWTdNYZm/movie/42011"},{"id":42010,"title":"Канадский сорт","kp_id":"1180358","imdb_id":"tt8854384","world_art_id":null,"type":"movie","add":"2020-07-25 06:07:57","orig_title":"Canadian Strain","year":"2019-12-07","translations":["Любительский (многоголосый закадровый) (Синема УС)"],"quality":"webdl","translation":"Любительский (многоголосый закадровый) (Синема УС)","update":"2020-07-25 17:54:50","iframe_src":"//7741.svetacdn.in/IAF0wWTdNYZm/movie/42010"},{"id":42009,"title":"Долгое прощание","kp_id":"1084851","imdb_id":"tt7390120","world_art_id":null,"type":"movie","add":"2020-07-25 06:06:58","orig_title":"Long Goodbye","year":"2018-03-31","translations":["Любительский (многоголосый закадровый) (Синема УС)"],"quality":"webdl","translation":"Любительский (многоголосый закадровый) (Синема УС)","update":"2020-07-25 17:54:26","iframe_src":"//7741.svetacdn.in/IAF0wWTdNYZm/movie/42009"},{"id":42008,"title":"Моя подруга из Польши","kp_id":"1063436","imdb_id":"tt6987468","world_art_id":null,"type":"movie","add":"2020-07-25 06:05:41","orig_title":"My Friend the Polish Girl","year":"2018-01-28","translations":["Любительский (многоголосый закадровый) (Синема УС)"],"quality":"webdl","translation":"Любительский (многоголосый закадровый) (Синема УС)","update":"2020-07-25 17:53:50","iframe_src":"//7741.svetacdn.in/IAF0wWTdNYZm/movie/42008"},{"id":42007,"title":"Состояние алкогольного опьянения","kp_id":"999614","imdb_id":"tt5958248","world_art_id":null,"type":"movie","add":"2020-07-25 06:03:45","orig_title":"Stato di ebbrezza","year":"2018-05-24","translations":["Любительский (многоголосый закадровый) (Синема УС)"],"quality":"webdl","translation":"Любительский (многоголосый закадровый) (Синема УС)","update":"2020-07-25 17:53:26","iframe_src":"//7741.svetacdn.in/IAF0wWTdNYZm/movie/42007"},{"id":42006,"title":"Завтра, может быть","kp_id":"931823","imdb_id":"tt5003038","world_art_id":null,"type":"movie","add":"2020-07-25 06:02:47","orig_title":"Tomorrow, Maybe","year":"2017-06-04","translations":["Любительский (многоголосый закадровый) (Синема УС)"],"quality":"webdl","translation":"Любительский (многоголосый закадровый) (Синема УС)","update":"2020-07-25 17:52:13","iframe_src":"//7741.svetacdn.in/IAF0wWTdNYZm/movie/42006"},{"id":42005,"title":"Неподъемное желание","kp_id":"1316005","imdb_id":"tt10380980","world_art_id":null,"type":"movie","add":"2020-07-25 06:01:49","orig_title":"Da e","year":"2019-06-30","translations":["Любительский (многоголосый закадровый) (Синема УС)"],"quality":"webdl","translation":"Любительский (многоголосый закадровый) (Синема УС)","update":"2020-07-25 17:53:00","iframe_src":"//7741.svetacdn.in/IAF0wWTdNYZm/movie/42005"},{"id":42004,"title":"Трудный путь домой","kp_id":"932790","imdb_id":"tt4981658","world_art_id":null,"type":"movie","add":"2020-07-25 06:00:10","orig_title":"Fucking My Way Back Home","year":"2018-03-03","translations":["Любительский (многоголосый закадровый) (Синема УС)"],"quality":"webdl","translation":"Любительский (многоголосый закадровый) (Синема УС)","update":"2020-07-25 17:52:34","iframe_src":"//7741.svetacdn.in/IAF0wWTdNYZm/movie/42004"},{"id":41990,"title":"Дом ужасов","kp_id":"95108","imdb_id":"tt0451134","world_art_id":null,"type":"movie","add":"2020-07-24 20:11:09","orig_title":"Mustang Sally","year":"2006-06-18","translations":["Профессиональный (двухголосый закадровый)"],"quality":"dvdrip","translation":"Профессиональный (двухголосый закадровый)","update":"2020-07-24 20:56:09","iframe_src":"//7741.svetacdn.in/IAF0wWTdNYZm/movie/41990"},{"id":41979,"title":"Татанка","kp_id":"492726","imdb_id":"tt1571219","world_art_id":null,"type":"movie","add":"2020-07-24 13:21:01","orig_title":"Tatanka","year":"2011-05-06","translations":["Любительский (двухголосый закадровый)"],"quality":"bd","translation":"Любительский (двухголосый закадровый)","update":"2020-07-24 20:55:33","iframe_src":"//7741.svetacdn.in/IAF0wWTdNYZm/movie/41979"},{"id":41978,"title":"Случайный свидетель","kp_id":"396042","imdb_id":"tt1118519","world_art_id":null,"type":"movie","add":"2020-07-24 13:17:22","orig_title":"The Lost Samaritan","year":"2009-05-05","translations":["Профессиональный (многоголосый закадровый)"],"quality":"hdtv","translation":"Профессиональный (многоголосый закадровый)","update":"2020-07-24 20:55:05","iframe_src":"//7741.svetacdn.in/IAF0wWTdNYZm/movie/41978"},{"id":41976,"title":"Поворот винта","kp_id":"493176","imdb_id":"tt1577883","world_art_id":null,"type":"movie","add":"2020-07-24 13:00:57","orig_title":"The Turn of the Screw","year":"2009-12-30","translations":["Профессиональный (многоголосый закадровый) (СВ-Дубль)"],"quality":"hdtv","translation":"Профессиональный (многоголосый закадровый) (СВ-Дубль)","update":"2020-07-24 20:53:55","iframe_src":"//7741.svetacdn.in/IAF0wWTdNYZm/movie/41976"},{"id":41975,"title":"Темный мир","kp_id":"378145","imdb_id":"tt1056036","world_art_id":null,"type":"movie","add":"2020-07-24 12:58:43","orig_title":"Animals","year":"2009-12-04","translations":["Профессиональный (многоголосый закадровый)"],"quality":"dvdrip","translation":"Профессиональный (многоголосый закадровый)","update":"2020-07-24 20:53:26","iframe_src":"//7741.svetacdn.in/IAF0wWTdNYZm/movie/41975"},{"id":41974,"title":"Время танцевать","kp_id":"20330","imdb_id":"tt0242953","world_art_id":null,"type":"movie","add":"2020-07-24 12:55:45","orig_title":"A Time for Dancing","year":"2002-03-28","translations":["Профессиональный (многоголосый закадровый)"],"quality":"dvdrip","translation":"Профессиональный (многоголосый закадровый)","update":"2020-07-24 20:52:53","iframe_src":"//7741.svetacdn.in/IAF0wWTdNYZm/movie/41974"},{"id":41973,"title":"Процесс","kp_id":"8524","imdb_id":"tt0057427","world_art_id":null,"type":"movie","add":"2020-07-24 12:53:18","orig_title":"Le procès","year":"1962-12-22","translations":["Профессиональный (многоголосый закадровый) (Film Prestige)"],"quality":"bd","translation":"Профессиональный (многоголосый закадровый) (Film Prestige)","update":"2020-07-24 20:52:23","iframe_src":"//7741.svetacdn.in/IAF0wWTdNYZm/movie/41973"},{"id":41972,"title":"Большой риск","kp_id":"258658","imdb_id":"tt0385638","world_art_id":null,"type":"movie","add":"2020-07-24 12:51:18","orig_title":"The Long Shot","year":"2004-04-18","translations":["Профессиональный (многоголосый закадровый)"],"quality":"dvdrip","translation":"Профессиональный (многоголосый закадровый)","update":"2020-07-24 20:51:45","iframe_src":"//7741.svetacdn.in/IAF0wWTdNYZm/movie/41972"},{"id":41971,"title":"Похищенный сын: История Тиффани Рубин","kp_id":"566063","imdb_id":"tt1707825","world_art_id":null,"type":"movie","add":"2020-07-24 12:48:46","orig_title":"Taken from Me: The Tiffany Rubin Story","year":"2011-01-31","translations":["Профессиональный (многоголосый закадровый) (Первый канал | ОРТ)"],"quality":"dvdrip","translation":"Профессиональный (многоголосый закадровый) (Первый канал | ОРТ)","update":"2020-07-24 20:51:20","iframe_src":"//7741.svetacdn.in/IAF0wWTdNYZm/movie/41971"}],"current_page":1018,"first_page_url":"https://videocdn.tv/api/short?limit=100&api_token=6Onb1W1alEUrBcKJZD3GoKBbWyAl2uG2&cache31018=31018&page=1","from":101701,"last_page":707,"last_page_url":"https://videocdn.tv/api/short?limit=100&api_token=6Onb1W1alEUrBcKJZD3GoKBbWyAl2uG2&cache31018=31018&page=707","next_page_url":null,"path":"https://videocdn.tv/api/short","per_page":100,"prev_page_url":"https://videocdn.tv/api/short?limit=100&api_token=6Onb1W1alEUrBcKJZD3GoKBbWyAl2uG2&cache31018=31018&page=1017","to":101720,"total":70687}