{"result":true,"data":[{"id":10151,"title":"Ужасная часовня","kp_id":"770991","imdb_id":"tt2974190","world_art_id":null,"type":"movie","add":"2017-03-01 22:53:19","orig_title":"The Dooms Chapel Horror","year":"2016-06-14","translations":["Любительский (многоголосый закадровый) (Синема УС)"],"quality":"webdl","translation":"Любительский (многоголосый закадровый) (Синема УС)","update":"2017-03-01 22:54:02","iframe_src":"//7043.svetacdn.in/si4jsFRrtgrT/movie/10151"},{"id":10150,"title":"Пандорика","kp_id":"945192","imdb_id":"tt5131914","world_art_id":null,"type":"movie","add":"2017-03-01 22:48:39","orig_title":"Pandorica","year":"2016-04-01","translations":["Любительский (многоголосый закадровый) (Синема УС)"],"quality":"webdl","translation":"Любительский (многоголосый закадровый) (Синема УС)","update":"2017-03-01 22:49:16","iframe_src":"//7043.svetacdn.in/si4jsFRrtgrT/movie/10150"},{"id":10148,"title":"Я много мечтаю","kp_id":"822070","imdb_id":"tt3474978","world_art_id":null,"type":"movie","add":"2017-03-01 22:41:50","orig_title":"I Dream Too Much","year":"2015-03-16","translations":["Любительский (многоголосый закадровый) (Синема УС)"],"quality":"webdl","translation":"Любительский (многоголосый закадровый) (Синема УС)","update":"2017-03-02 06:25:09","iframe_src":"//7043.svetacdn.in/si4jsFRrtgrT/movie/10148"},{"id":10147,"title":"Озеро желаний","kp_id":"940537","imdb_id":"tt5129156","world_art_id":null,"type":"movie","add":"2017-03-01 22:39:19","orig_title":"Harvest Lake","year":"2016-03-11","translations":["Любительский (многоголосый закадровый) (Синема УС)"],"quality":"webdl","translation":"Любительский (многоголосый закадровый) (Синема УС)","update":"2017-03-02 12:55:55","iframe_src":"//7043.svetacdn.in/si4jsFRrtgrT/movie/10147"},{"id":10146,"title":"Большой автоугон: Лос-Анджелес","kp_id":"865290","imdb_id":"tt3906002","world_art_id":null,"type":"movie","add":"2017-03-01 22:35:56","orig_title":"Grand Auto Theft: L.A.","year":"2014-10-01","translations":["Любительский (многоголосый закадровый) (Синема УС)"],"quality":"webdl","translation":"Любительский (многоголосый закадровый) (Синема УС)","update":"2017-03-02 06:44:33","iframe_src":"//7043.svetacdn.in/si4jsFRrtgrT/movie/10146"},{"id":10141,"title":"Мастер и Маргарита","kp_id":"575955","imdb_id":"tt0110476","world_art_id":null,"type":"movie","add":"2017-03-01 16:47:54","orig_title":"Master i Margarita","year":"2011-04-07","translations":["Оригинальная дорожка"],"quality":"bd","translation":"Оригинальная дорожка","update":"2017-03-02 15:17:54","iframe_src":"//7043.svetacdn.in/si4jsFRrtgrT/movie/10141"},{"id":10140,"title":"Завтра утром","kp_id":"803177","imdb_id":null,"world_art_id":null,"type":"movie","add":"2017-03-01 16:46:10","orig_title":"Завтра утром","year":"2016-02-18","translations":["Оригинальная дорожка"],"quality":"webdl","translation":"Оригинальная дорожка","update":"2017-03-02 15:13:59","iframe_src":"//7043.svetacdn.in/si4jsFRrtgrT/movie/10140"},{"id":10133,"title":"Соловей","kp_id":"778784","imdb_id":"tt3042800","world_art_id":null,"type":"movie","add":"2017-03-01 11:10:12","orig_title":"Nightingale","year":"2014-06-17","translations":["Профессиональный (одноголосый закадровый)"],"quality":"bd","translation":"Профессиональный (одноголосый закадровый)","update":"2017-03-02 14:41:07","iframe_src":"//7043.svetacdn.in/si4jsFRrtgrT/movie/10133"},{"id":10132,"title":"Газели","kp_id":"749514","imdb_id":"tt2792346","world_art_id":null,"type":"movie","add":"2017-03-01 11:04:56","orig_title":"Les gazelles","year":"2014-01-17","translations":["Профессиональный (многоголосый закадровый)"],"quality":"bd","translation":"Профессиональный (многоголосый закадровый)","update":"2017-03-02 14:43:33","iframe_src":"//7043.svetacdn.in/si4jsFRrtgrT/movie/10132"},{"id":10131,"title":"Мир мутантов","kp_id":"844603","imdb_id":"tt3626436","world_art_id":null,"type":"movie","add":"2017-03-01 04:50:44","orig_title":"Mutant World","year":"2014-09-27","translations":["Профессиональный (многоголосый закадровый) (iTunes)"],"quality":"webdl","translation":"Профессиональный (многоголосый закадровый) (iTunes)","update":"2017-03-02 14:38:29","iframe_src":"//7043.svetacdn.in/si4jsFRrtgrT/movie/10131"},{"id":10130,"title":"Выпускной экзамен","kp_id":"779065","imdb_id":"tt3041452","world_art_id":null,"type":"movie","add":"2017-03-01 04:49:35","orig_title":"À toute épreuve","year":"2014-06-13","translations":["Профессиональный (многоголосый закадровый)"],"quality":"bd","translation":"Профессиональный (многоголосый закадровый)","update":"2017-03-02 14:37:48","iframe_src":"//7043.svetacdn.in/si4jsFRrtgrT/movie/10130"},{"id":10129,"title":"Невеста","kp_id":"984360","imdb_id":"tt6095090","world_art_id":null,"type":"movie","add":"2017-03-01 04:48:08","orig_title":"Nevesta","year":"2017-01-27","translations":["Оригинальная дорожка"],"quality":"webdl","translation":"Оригинальная дорожка","update":"2017-03-02 14:35:30","iframe_src":"//7043.svetacdn.in/si4jsFRrtgrT/movie/10129"},{"id":10127,"title":"Эпатаж","kp_id":"805677","imdb_id":"tt3243464","world_art_id":null,"type":"movie","add":"2017-03-01 04:43:49","orig_title":"Shock Value","year":"2014-08-01","translations":["Любительский (многоголосый закадровый)"],"quality":"webdl","translation":"Любительский (многоголосый закадровый)","update":"2017-03-02 14:31:27","iframe_src":"//7043.svetacdn.in/si4jsFRrtgrT/movie/10127"},{"id":10113,"title":"Незнакомец","kp_id":"690386","imdb_id":"tt2238470","world_art_id":null,"type":"movie","add":"2017-02-28 15:08:27","orig_title":"The Stranger","year":"2014-09-19","translations":["Любительский (одноголосый закадровый)"],"quality":"webdl","translation":"Любительский (одноголосый закадровый)","update":"2017-03-02 06:45:26","iframe_src":"//7043.svetacdn.in/si4jsFRrtgrT/movie/10113"},{"id":10112,"title":"Хранитель плотины","kp_id":"811848","imdb_id":"tt6257840","world_art_id":null,"type":"movie","add":"2017-02-28 15:06:46","orig_title":"The Dam Keeper","year":"2014-06-28","translations":["Любительский (одноголосый закадровый)"],"quality":"webdl","translation":"Любительский (одноголосый закадровый)","update":"2017-03-02 06:45:32","iframe_src":"//7043.svetacdn.in/si4jsFRrtgrT/movie/10112"},{"id":10111,"title":"Проси меня о чём угодно","kp_id":"716174","imdb_id":"tt2505294","world_art_id":null,"type":"movie","add":"2017-02-28 15:04:42","orig_title":"Ask Me Anything","year":"2014-04-19","translations":["Любительский (одноголосый закадровый)"],"quality":"webdl","translation":"Любительский (одноголосый закадровый)","update":"2017-03-02 06:45:26","iframe_src":"//7043.svetacdn.in/si4jsFRrtgrT/movie/10111"},{"id":10110,"title":"Рико, Оскар и тени темнее тёмного","kp_id":"664313","imdb_id":"tt1679276","world_art_id":null,"type":"movie","add":"2017-02-28 12:32:08","orig_title":"Rico, Oskar und die Tieferschatten","year":"2014-06-21","translations":["Любительский (одноголосый закадровый)"],"quality":"bd","translation":"Любительский (одноголосый закадровый)","update":"2017-03-02 06:43:02","iframe_src":"//7043.svetacdn.in/si4jsFRrtgrT/movie/10110"},{"id":10109,"title":"Самурай","kp_id":"687957","imdb_id":"tt2401181","world_art_id":null,"type":"movie","add":"2017-02-28 12:23:03","orig_title":"Der Samurai","year":"2014-02-08","translations":["Любительский (одноголосый закадровый)"],"quality":"bd","translation":"Любительский (одноголосый закадровый)","update":"2017-03-02 06:27:03","iframe_src":"//7043.svetacdn.in/si4jsFRrtgrT/movie/10109"},{"id":8410,"title":"Золотой берег","kp_id":"881979","imdb_id":"tt4038670","world_art_id":null,"type":"movie","add":"2016-12-28 12:08:36","orig_title":"Guldkysten","year":"2015-07-02","translations":["Любительский (одноголосый закадровый)","Любительский (многоголосый закадровый) (Синема УС)"],"quality":"webdl","translation":"Любительский (одноголосый закадровый)","update":"2017-03-02 06:42:59","iframe_src":"//7043.svetacdn.in/si4jsFRrtgrT/movie/8410"},{"id":8262,"title":"Ура! Каникулы!","kp_id":"908784","imdb_id":"tt6318480","world_art_id":null,"type":"movie","add":"2016-12-22 08:01:06","orig_title":"Ура! Каникулы!","year":"2016-12-08","translations":["Оригинальная дорожка"],"quality":"webdl","translation":"Оригинальная дорожка","update":"2017-03-02 15:13:38","iframe_src":"//7043.svetacdn.in/si4jsFRrtgrT/movie/8262"}],"current_page":2090,"first_page_url":"https://videocdn.tv/api/short?limit=100&api_token=X6EwAUfE5M9xbo7y0Bp0aPf3uXxG2KLL&cache32090=32090&page=1","from":208901,"last_page":613,"last_page_url":"https://videocdn.tv/api/short?limit=100&api_token=X6EwAUfE5M9xbo7y0Bp0aPf3uXxG2KLL&cache32090=32090&page=613","next_page_url":null,"path":"https://videocdn.tv/api/short","per_page":100,"prev_page_url":"https://videocdn.tv/api/short?limit=100&api_token=X6EwAUfE5M9xbo7y0Bp0aPf3uXxG2KLL&cache32090=32090&page=2089","to":208920,"total":61220}