{"result":true,"data":[{"id":48773,"title":"Иберион","kp_id":null,"imdb_id":"tt10661376","world_art_id":null,"type":"movie","add":"2021-03-15 13:22:42","orig_title":"Iberion","year":"2019-07-04","translations":["Любительский (многоголосый закадровый) (Синема УС)"],"quality":"webdl","translation":"Любительский (многоголосый закадровый) (Синема УС)","update":"2021-03-15 20:13:21","iframe_src":"//83.svetacdn.in/PfJ50H0ZBPg3/movie/48773"},{"id":48772,"title":"Война за лайки","kp_id":"1324659","imdb_id":"tt11332500","world_art_id":null,"type":"movie","add":"2021-03-15 13:02:58","orig_title":"Guerra de Likes","year":"2021-03-12","translations":["Любительский (многоголосый закадровый) (AlphaProject)"],"quality":"webdl","translation":"Любительский (многоголосый закадровый) (AlphaProject)","update":"2021-03-15 20:18:33","iframe_src":"//83.svetacdn.in/PfJ50H0ZBPg3/movie/48772"},{"id":48709,"title":"Хрупкие жизни","kp_id":"1429238","imdb_id":"tt13045890","world_art_id":null,"type":"movie","add":"2021-03-13 06:37:12","orig_title":"Kagittan Hayatlar","year":"2021-03-12","translations":["Любительский (двухголосый закадровый) (OnisFilms)","Любительский (многоголосый закадровый) (@MUZOBOZ@)"],"quality":"webdl","translation":"Любительский (двухголосый закадровый) (OnisFilms)","update":"2021-03-15 20:19:03","iframe_src":"//83.svetacdn.in/PfJ50H0ZBPg3/movie/48709"},{"id":48697,"title":"Ярость","kp_id":"42422","imdb_id":"tt0184049","world_art_id":null,"type":"movie","add":"2021-03-12 18:25:24","orig_title":"Yarost","year":"1966-02-14","translations":["Оригинальная дорожка"],"quality":"sat","translation":"Оригинальная дорожка","update":"2021-03-15 16:49:48","iframe_src":"//83.svetacdn.in/PfJ50H0ZBPg3/movie/48697"},{"id":48696,"title":"Профессор Мамлок","kp_id":"43295","imdb_id":"tt0163797","world_art_id":null,"type":"movie","add":"2021-03-12 18:22:16","orig_title":"Professor Mamlok","year":"1938-09-05","translations":["Оригинальная дорожка"],"quality":"webdl","translation":"Оригинальная дорожка","update":"2021-03-15 16:49:05","iframe_src":"//83.svetacdn.in/PfJ50H0ZBPg3/movie/48696"},{"id":48695,"title":"Поручик Киже","kp_id":"43133","imdb_id":"tt0025671","world_art_id":null,"type":"movie","add":"2021-03-12 18:19:17","orig_title":"Poruchik Kizhe","year":"1934-03-07","translations":["Оригинальная дорожка"],"quality":"webdl","translation":"Оригинальная дорожка","update":"2021-03-15 16:48:13","iframe_src":"//83.svetacdn.in/PfJ50H0ZBPg3/movie/48695"},{"id":48694,"title":"Надежда","kp_id":"46300","imdb_id":"tt0070431","world_art_id":null,"type":"movie","add":"2021-03-12 18:10:19","orig_title":"Nadezhda","year":"1973-11-05","translations":["Оригинальная дорожка"],"quality":"webdl","translation":"Оригинальная дорожка","update":"2021-03-15 16:47:28","iframe_src":"//83.svetacdn.in/PfJ50H0ZBPg3/movie/48694"},{"id":48693,"title":"На одной планете","kp_id":"46273","imdb_id":"tt0059493","world_art_id":null,"type":"movie","add":"2021-03-12 18:05:06","orig_title":"Na odnoy planete","year":"1966-10-31","translations":["Оригинальная дорожка"],"quality":"sat","translation":"Оригинальная дорожка","update":"2021-03-15 16:37:23","iframe_src":"//83.svetacdn.in/PfJ50H0ZBPg3/movie/48693"},{"id":48668,"title":"Летнее время","kp_id":"261695","imdb_id":"tt0836700","world_art_id":null,"type":"movie","add":"2021-03-12 07:33:22","orig_title":"L'heure d'été","year":"2008-03-03","translations":["Профессиональный (многоголосый закадровый) (Первый канал | ОРТ)"],"quality":"bd","translation":"Профессиональный (многоголосый закадровый) (Первый канал | ОРТ)","update":"2021-03-15 13:07:29","iframe_src":"//83.svetacdn.in/PfJ50H0ZBPg3/movie/48668"},{"id":48667,"title":"Утамаро и его пять женщин","kp_id":"143969","imdb_id":"tt0039074","world_art_id":null,"type":"movie","add":"2021-03-12 07:30:38","orig_title":"Utamaro o meguru gonin no onna","year":"1946-12-15","translations":["Профессиональный (двухголосый закадровый) (Инис)"],"quality":"bd","translation":"Профессиональный (двухголосый закадровый) (Инис)","update":"2021-03-15 13:10:17","iframe_src":"//83.svetacdn.in/PfJ50H0ZBPg3/movie/48667"},{"id":48628,"title":"Дрессировщики","kp_id":"968037","imdb_id":"tt8157010","world_art_id":null,"type":"movie","add":"2021-03-10 17:48:01","orig_title":"Dressirovshchiki","year":"1961-03-24","translations":["Оригинальная дорожка"],"quality":"webdl","translation":"Оригинальная дорожка","update":"2021-03-15 16:34:59","iframe_src":"//83.svetacdn.in/PfJ50H0ZBPg3/movie/48628"},{"id":48627,"title":"Амангельды","kp_id":"43475","imdb_id":"tt0031037","world_art_id":null,"type":"movie","add":"2021-03-10 17:43:25","orig_title":"Amangeldy","year":"1939-01-25","translations":["Оригинальная дорожка"],"quality":"webdl","translation":"Оригинальная дорожка","update":"2021-03-15 16:07:26","iframe_src":"//83.svetacdn.in/PfJ50H0ZBPg3/movie/48627"},{"id":48626,"title":"Восемь дней надежды","kp_id":"45844","imdb_id":"tt0127968","world_art_id":null,"type":"movie","add":"2021-03-10 17:41:03","orig_title":"Vosem dney nadezhdy","year":"1984-01-10","translations":["Оригинальная дорожка"],"quality":"tv","translation":"Оригинальная дорожка","update":"2021-03-15 16:02:47","iframe_src":"//83.svetacdn.in/PfJ50H0ZBPg3/movie/48626"},{"id":48625,"title":"Тихая застава","kp_id":"42246","imdb_id":"tt0275729","world_art_id":null,"type":"movie","add":"2021-03-10 17:38:26","orig_title":"Tikhaya zastava","year":"1986-08-01","translations":["Оригинальная дорожка"],"quality":"tv","translation":"Оригинальная дорожка","update":"2021-03-15 16:02:06","iframe_src":"//83.svetacdn.in/PfJ50H0ZBPg3/movie/48625"},{"id":48624,"title":"Подруги","kp_id":"43049","imdb_id":"tt0026874","world_art_id":null,"type":"movie","add":"2021-03-10 17:35:33","orig_title":"Podrugi","year":"1936-02-11","translations":["Оригинальная дорожка"],"quality":"sat","translation":"Оригинальная дорожка","update":"2021-03-15 16:01:17","iframe_src":"//83.svetacdn.in/PfJ50H0ZBPg3/movie/48624"},{"id":48623,"title":"Одиннадцать надежд","kp_id":"42720","imdb_id":"tt0073476","world_art_id":null,"type":"movie","add":"2021-03-10 17:32:58","orig_title":"Odinnadtsat nadezhd","year":"1976-03-22","translations":["Оригинальная дорожка"],"quality":"sat","translation":"Оригинальная дорожка","update":"2021-03-15 15:41:16","iframe_src":"//83.svetacdn.in/PfJ50H0ZBPg3/movie/48623"},{"id":48622,"title":"Моя Родина","kp_id":"46721","imdb_id":"tt0171545","world_art_id":null,"type":"movie","add":"2021-03-10 17:30:18","orig_title":"Moya rodina","year":"1933-02-23","translations":["Оригинальная дорожка"],"quality":"sat","translation":"Оригинальная дорожка","update":"2021-03-15 15:40:35","iframe_src":"//83.svetacdn.in/PfJ50H0ZBPg3/movie/48622"},{"id":48621,"title":"Быть лишним","kp_id":"161338","imdb_id":"tt0353264","world_art_id":null,"type":"movie","add":"2021-03-10 17:27:26","orig_title":"Liekam but","year":"1977-06-13","translations":["Оригинальная дорожка"],"quality":"tv","translation":"Оригинальная дорожка","update":"2021-03-15 13:21:56","iframe_src":"//83.svetacdn.in/PfJ50H0ZBPg3/movie/48621"},{"id":46031,"title":"Враги","kp_id":"45902","imdb_id":"tt0030952","world_art_id":null,"type":"movie","add":"2020-12-12 13:15:39","orig_title":"Vragi","year":"1938-09-19","translations":["Оригинальная дорожка","Оригинальная дорожка"],"quality":"sat","translation":"Оригинальная дорожка","update":"2021-03-15 16:30:28","iframe_src":"//83.svetacdn.in/PfJ50H0ZBPg3/movie/46031"},{"id":16082,"title":"Борис Годунов","kp_id":"586567","imdb_id":"tt3240014","world_art_id":null,"type":"movie","add":"2018-04-05 18:42:59","orig_title":"Boris Godunov","year":"2017-12-13","translations":["Оригинальная дорожка","Оригинальная дорожка"],"quality":"hdtv","translation":"Оригинальная дорожка","update":"2021-03-15 12:40:17","iframe_src":"//83.svetacdn.in/PfJ50H0ZBPg3/movie/16082"}],"current_page":640,"first_page_url":"https://videocdn.tv/api/short?limit=100&api_token=RgFQdUIR2dRmwv8iYa5SnFNgnw3vpjKj&cache3640=3640&page=1","from":63901,"last_page":706,"last_page_url":"https://videocdn.tv/api/short?limit=100&api_token=RgFQdUIR2dRmwv8iYa5SnFNgnw3vpjKj&cache3640=3640&page=706","next_page_url":"https://videocdn.tv/api/short?limit=100&api_token=RgFQdUIR2dRmwv8iYa5SnFNgnw3vpjKj&cache3640=3640&page=641","path":"https://videocdn.tv/api/short","per_page":100,"prev_page_url":"https://videocdn.tv/api/short?limit=100&api_token=RgFQdUIR2dRmwv8iYa5SnFNgnw3vpjKj&cache3640=3640&page=639","to":63920,"total":70558}