{"result":true,"data":[{"id":42461,"title":"Виртуальная страсть","kp_id":"77369","imdb_id":"tt0301987","world_art_id":null,"type":"movie","add":"2020-08-14 07:15:14","orig_title":"Virtual Girl 2: Virtual Vegas","year":"2001-11-10","translations":["Профессиональный (многоголосый закадровый)"],"quality":"dvdrip","translation":"Профессиональный (многоголосый закадровый)","update":"2020-08-14 07:43:54","iframe_src":"//5322.svetacdn.in/71tsRs29n5tZ/movie/42461"},{"id":42460,"title":"Во власти женщины","kp_id":"266958","imdb_id":"tt0780621","world_art_id":null,"type":"movie","add":"2020-08-14 07:14:02","orig_title":"Tatt av kvinnen","year":"2007-08-17","translations":["Профессиональный (многоголосый закадровый)"],"quality":"dvdrip","translation":"Профессиональный (многоголосый закадровый)","update":"2020-08-14 07:46:49","iframe_src":"//5322.svetacdn.in/71tsRs29n5tZ/movie/42460"},{"id":42459,"title":"Фактор удара","kp_id":"392929","imdb_id":"tt1086841","world_art_id":null,"type":"movie","add":"2020-08-14 07:12:55","orig_title":"Impact Point","year":"2008-06-13","translations":["Профессиональный (многоголосый закадровый)"],"quality":"dvdrip","translation":"Профессиональный (многоголосый закадровый)","update":"2020-08-14 07:44:53","iframe_src":"//5322.svetacdn.in/71tsRs29n5tZ/movie/42459"},{"id":42458,"title":"Будущее","kp_id":"418743","imdb_id":"tt1235170","world_art_id":null,"type":"movie","add":"2020-08-14 07:11:37","orig_title":"The Future","year":"2011-01-21","translations":["Профессиональный (многоголосый закадровый)"],"quality":"dvdrip","translation":"Профессиональный (многоголосый закадровый)","update":"2020-08-14 07:47:30","iframe_src":"//5322.svetacdn.in/71tsRs29n5tZ/movie/42458"},{"id":42456,"title":"Поскользнулся, упал...","kp_id":"455274","imdb_id":"tt1401700","world_art_id":null,"type":"movie","add":"2020-08-14 07:07:19","orig_title":"Slip & Fall","year":"2011-09-05","translations":["Профессиональный (двухголосый закадровый)"],"quality":"sat","translation":"Профессиональный (двухголосый закадровый)","update":"2020-08-14 07:20:36","iframe_src":"//5322.svetacdn.in/71tsRs29n5tZ/movie/42456"},{"id":42452,"title":"Снеговик-почтовик","kp_id":"431162","imdb_id":"tt1794958","world_art_id":null,"type":"movie","add":"2020-08-14 07:01:15","orig_title":"Snegovik-pochtovik","year":"1956-01-06","translations":["Оригинальная дорожка"],"quality":"dvdrip","translation":"Оригинальная дорожка","update":"2020-08-14 07:19:45","iframe_src":"//5322.svetacdn.in/71tsRs29n5tZ/movie/42452"},{"id":42446,"title":"С боем в сердце","kp_id":"753807","imdb_id":"tt2814874","world_art_id":null,"type":"movie","add":"2020-08-13 12:43:37","orig_title":"Fighting Heart","year":"2016-09-02","translations":["Любительский (многоголосый закадровый) (Синема УС)"],"quality":"webdl","translation":"Любительский (многоголосый закадровый) (Синема УС)","update":"2020-08-13 15:16:36","iframe_src":"//5322.svetacdn.in/71tsRs29n5tZ/movie/42446"},{"id":42442,"title":"Приключения Бэйли: Потерянный щенок","kp_id":"569198","imdb_id":"tt1734063","world_art_id":null,"type":"movie","add":"2020-08-13 07:05:43","orig_title":"Adventures of Bailey: The Lost Puppy","year":"2010-10-19","translations":["Профессиональный (многоголосый закадровый)"],"quality":"hdtv","translation":"Профессиональный (многоголосый закадровый)","update":"2020-08-14 07:51:04","iframe_src":"//5322.svetacdn.in/71tsRs29n5tZ/movie/42442"},{"id":42441,"title":"Приключения Бэйли: Рождественский герой","kp_id":"674536","imdb_id":"tt2316383","world_art_id":null,"type":"movie","add":"2020-08-13 07:04:21","orig_title":"Adventures of Bailey: Christmas Hero","year":"2012-11-06","translations":["Профессиональный (двухголосый закадровый)"],"quality":"hdtv","translation":"Профессиональный (двухголосый закадровый)","update":"2020-08-14 07:51:45","iframe_src":"//5322.svetacdn.in/71tsRs29n5tZ/movie/42441"},{"id":42440,"title":"Время любить","kp_id":"1237122","imdb_id":"tt9625420","world_art_id":null,"type":"movie","add":"2020-08-13 07:02:57","orig_title":"ConneXion intime","year":"2019-09-12","translations":["Любительский (многоголосый закадровый) (Синема УС)"],"quality":"hdtv","translation":"Любительский (многоголосый закадровый) (Синема УС)","update":"2020-08-13 13:29:55","iframe_src":"//5322.svetacdn.in/71tsRs29n5tZ/movie/42440"},{"id":42439,"title":"Курьер из ада","kp_id":"1205710","imdb_id":"tt9070692","world_art_id":null,"type":"movie","add":"2020-08-13 07:01:12","orig_title":"Terror Take Away","year":"2018-10-24","translations":["Любительский (многоголосый закадровый) (Синема УС)"],"quality":"dvdrip","translation":"Любительский (многоголосый закадровый) (Синема УС)","update":"2020-08-13 12:26:59","iframe_src":"//5322.svetacdn.in/71tsRs29n5tZ/movie/42439"},{"id":42438,"title":"Бухгалтер","kp_id":"58045","imdb_id":"tt0222675","world_art_id":null,"type":"movie","add":"2020-08-13 06:59:43","orig_title":"The Accountant","year":"2001-06-10","translations":["Любительский (одноголосый закадровый) (acolith)"],"quality":"dvdrip","translation":"Любительский (одноголосый закадровый) (acolith)","update":"2020-08-13 12:27:49","iframe_src":"//5322.svetacdn.in/71tsRs29n5tZ/movie/42438"},{"id":42437,"title":"Тёмный лес","kp_id":"76044","imdb_id":"tt0356176","world_art_id":null,"type":"movie","add":"2020-08-13 06:58:01","orig_title":"Villmark","year":"2003-02-21","translations":["Любительский (одноголосый закадровый) (den904)"],"quality":"bd","translation":"Любительский (одноголосый закадровый) (den904)","update":"2020-08-14 07:52:45","iframe_src":"//5322.svetacdn.in/71tsRs29n5tZ/movie/42437"},{"id":42436,"title":"Команда Тигра и гора 1000 драконов","kp_id":"503293","imdb_id":"tt1463208","world_art_id":null,"type":"movie","add":"2020-08-13 06:56:33","orig_title":"Tiger Team - Der Berg der 1000 Drachen","year":"2010-05-06","translations":["Полное дублирование"],"quality":"dvb","translation":"Полное дублирование","update":"2020-08-13 12:28:42","iframe_src":"//5322.svetacdn.in/71tsRs29n5tZ/movie/42436"},{"id":42435,"title":"Шанхай, Шанхай","kp_id":"36515","imdb_id":"tt0100071","world_art_id":null,"type":"movie","add":"2020-08-13 06:55:24","orig_title":"Luan shi er nu","year":"1990-01-20","translations":["Авторский (одноголосый закадровый) (Дольский Андрей)"],"quality":"dvdrip","translation":"Авторский (одноголосый закадровый) (Дольский Андрей)","update":"2020-08-13 12:29:36","iframe_src":"//5322.svetacdn.in/71tsRs29n5tZ/movie/42435"},{"id":42434,"title":"Далекие голоса, застывшие жизни","kp_id":"9379","imdb_id":"tt0095037","world_art_id":null,"type":"movie","add":"2020-08-13 06:51:54","orig_title":"Distant Voices, Still Lives","year":"1988-05-13","translations":["Профессиональный (многоголосый закадровый)","Original (English)"],"quality":"dvdrip","translation":"Профессиональный (многоголосый закадровый)","update":"2020-08-13 13:31:12","iframe_src":"//5322.svetacdn.in/71tsRs29n5tZ/movie/42434"},{"id":42433,"title":"Девушка со спичечной фабрики","kp_id":"105035","imdb_id":"tt0098532","world_art_id":null,"type":"movie","add":"2020-08-13 06:49:42","orig_title":"Tulitikkutehtaan tyttö","year":"1990-01-12","translations":["Профессиональный (двухголосый закадровый)","Авторский (одноголосый закадровый) (Кузнецов Сергей)"],"quality":"bd","translation":"Профессиональный (двухголосый закадровый)","update":"2020-08-14 07:54:49","iframe_src":"//5322.svetacdn.in/71tsRs29n5tZ/movie/42433"},{"id":42431,"title":"Итальянец","kp_id":"506060","imdb_id":"tt1612608","world_art_id":null,"type":"movie","add":"2020-08-13 06:44:21","orig_title":"L'Italien","year":"2010-07-14","translations":["Профессиональный (многоголосый закадровый) (Кинопоказ)","Авторский (одноголосый закадровый) (Чадов Михаил)"],"quality":"bd","translation":"Профессиональный (многоголосый закадровый) (Кинопоказ)","update":"2020-08-13 12:34:36","iframe_src":"//5322.svetacdn.in/71tsRs29n5tZ/movie/42431"},{"id":438,"title":"Чтобы увидеть радугу...","kp_id":"966755","imdb_id":null,"world_art_id":null,"type":"serial","add":"2016-09-12 11:41:42","orig_title":"Чтобы увидеть радугу...","year":"2016-02-27","translations":["Оригинальная дорожка"],"seasons_count":1,"episodes_count":4,"episodes":4,"update":"2016-09-14 07:54:38","iframe_src":"//5322.svetacdn.in/71tsRs29n5tZ/tv-series/438"},{"id":434,"title":"Экспресс-командировка","kp_id":"986685","imdb_id":null,"world_art_id":null,"type":"serial","add":"2016-09-12 04:50:47","orig_title":"Экспресс-командировка","year":"2016-09-10","translations":["Оригинальная дорожка"],"seasons_count":1,"episodes_count":4,"episodes":4,"update":"2016-09-12 06:43:00","iframe_src":"//5322.svetacdn.in/71tsRs29n5tZ/tv-series/434"},{"id":433,"title":"Куда уходят дожди","kp_id":"999458","imdb_id":null,"world_art_id":null,"type":"serial","add":"2016-09-11 08:36:41","orig_title":"Куда уходят дожди","year":"2016-09-10","translations":["Оригинальная дорожка"],"seasons_count":1,"episodes_count":2,"episodes":2,"update":"2016-09-12 05:49:36","iframe_src":"//5322.svetacdn.in/71tsRs29n5tZ/tv-series/433"},{"id":432,"title":"На белом коне","kp_id":"977753","imdb_id":null,"world_art_id":null,"type":"serial","add":"2016-09-11 08:33:05","orig_title":"На белом коне","year":"2016-09-10","translations":["Оригинальная дорожка"],"seasons_count":1,"episodes_count":4,"episodes":4,"update":"2016-09-12 05:49:57","iframe_src":"//5322.svetacdn.in/71tsRs29n5tZ/tv-series/432"},{"id":429,"title":"Харли и братья Дэвидсон","kp_id":"983078","imdb_id":"tt5111414","world_art_id":null,"type":"serial","add":"2016-09-09 17:04:41","orig_title":"Harley and the Davidsons","year":"2016-09-05","translations":["Профессиональный (многоголосый закадровый) (NewStudio)"],"seasons_count":1,"episodes_count":3,"episodes":3,"update":"2016-09-12 10:09:30","iframe_src":"//5322.svetacdn.in/71tsRs29n5tZ/tv-series/429"},{"id":427,"title":"Инспектор Купер 2","kp_id":"837752","imdb_id":"tt4792606","world_art_id":null,"type":"serial","add":"2016-09-09 05:44:42","orig_title":"Inspektor Kuper 2","year":"2015-05-25","translations":["Оригинальная дорожка"],"seasons_count":1,"episodes_count":30,"episodes":30,"update":"2016-09-13 07:40:02","iframe_src":"//5322.svetacdn.in/71tsRs29n5tZ/tv-series/427"},{"id":426,"title":"Инспектор Купер","kp_id":"672148","imdb_id":"tt3847944","world_art_id":null,"type":"serial","add":"2016-09-09 05:42:22","orig_title":"Inspektor Kuper","year":"2012-01-23","translations":["Оригинальная дорожка"],"seasons_count":1,"episodes_count":24,"episodes":24,"update":"2016-09-09 11:49:14","iframe_src":"//5322.svetacdn.in/71tsRs29n5tZ/tv-series/426"},{"id":425,"title":"Профессионал","kp_id":"820726","imdb_id":null,"world_art_id":null,"type":"serial","add":"2016-09-09 05:37:04","orig_title":"Профессионал","year":"2014-11-13","translations":["Оригинальная дорожка"],"seasons_count":1,"episodes_count":16,"episodes":16,"update":"2016-09-09 11:27:23","iframe_src":"//5322.svetacdn.in/71tsRs29n5tZ/tv-series/425"},{"id":423,"title":"Сын моего отца","kp_id":"948257","imdb_id":null,"world_art_id":null,"type":"serial","add":"2016-09-08 05:48:55","orig_title":"Сын моего отца","year":"2016-01-18","translations":["Оригинальная дорожка"],"seasons_count":1,"episodes_count":20,"episodes":20,"update":"2016-09-08 15:03:57","iframe_src":"//5322.svetacdn.in/71tsRs29n5tZ/tv-series/423"},{"id":422,"title":"Погоня за тремя зайцами","kp_id":"917381","imdb_id":"tt5245594","world_art_id":null,"type":"serial","add":"2016-09-08 05:43:44","orig_title":"Pogonya za tremya zaytsami","year":"2015-11-22","translations":["Оригинальная дорожка"],"seasons_count":1,"episodes_count":4,"episodes":4,"update":"2016-09-08 08:18:48","iframe_src":"//5322.svetacdn.in/71tsRs29n5tZ/tv-series/422"},{"id":421,"title":"Марафон для трех граций","kp_id":"917340","imdb_id":"tt5245440","world_art_id":null,"type":"serial","add":"2016-09-08 05:39:36","orig_title":"Marafon dlya tryoh gratciy","year":"2015-11-15","translations":["Оригинальная дорожка"],"seasons_count":1,"episodes_count":4,"episodes":4,"update":"2016-09-08 08:30:13","iframe_src":"//5322.svetacdn.in/71tsRs29n5tZ/tv-series/421"},{"id":418,"title":"Пустая корона","kp_id":"692830","imdb_id":"tt2262456","world_art_id":null,"type":"serial","add":"2016-09-07 17:08:04","orig_title":"The Hollow Crown","year":"2012-06-30","translations":["Профессиональный (многоголосый закадровый) (BaibaKo)","Профессиональный (многоголосый закадровый)"],"seasons_count":2,"episodes_count":7,"episodes":3,"update":"2016-09-08 08:16:14","iframe_src":"//5322.svetacdn.in/71tsRs29n5tZ/tv-series/418"},{"id":417,"title":"Я рядом","kp_id":"771409","imdb_id":"tt3324542","world_art_id":null,"type":"serial","add":"2016-09-07 17:00:26","orig_title":"Ya ryadom","year":"2013-09-04","translations":["Оригинальная дорожка"],"seasons_count":1,"episodes_count":4,"episodes":4,"update":"2016-09-08 06:19:21","iframe_src":"//5322.svetacdn.in/71tsRs29n5tZ/tv-series/417"},{"id":416,"title":"Старое ружьё","kp_id":"839299","imdb_id":"tt3439288","world_art_id":null,"type":"serial","add":"2016-09-07 05:48:38","orig_title":"Staroe ruzhe","year":"2014-05-09","translations":["Оригинальная дорожка"],"seasons_count":1,"episodes_count":4,"episodes":4,"update":"2016-09-07 16:35:06","iframe_src":"//5322.svetacdn.in/71tsRs29n5tZ/tv-series/416"},{"id":415,"title":"Один сундук на двоих","kp_id":"1008974","imdb_id":null,"world_art_id":null,"type":"serial","add":"2016-09-07 05:45:25","orig_title":"Один сундук на двоих","year":"2016-09-05","translations":["Оригинальная дорожка"],"seasons_count":1,"episodes_count":6,"episodes":6,"update":"2016-09-08 15:45:20","iframe_src":"//5322.svetacdn.in/71tsRs29n5tZ/tv-series/415"},{"id":399,"title":"Код убийцы","kp_id":"840951","imdb_id":"tt3847626","world_art_id":null,"type":"serial","add":"2016-09-04 11:36:32","orig_title":"Code of a Killer","year":"2015-04-06","translations":["Профессиональный (многоголосый закадровый) (AlexFilm)"],"seasons_count":1,"episodes_count":2,"episodes":2,"update":"2016-09-06 12:03:39","iframe_src":"//5322.svetacdn.in/71tsRs29n5tZ/tv-series/399"},{"id":396,"title":"Любимая учительница","kp_id":"972213","imdb_id":null,"world_art_id":null,"type":"serial","add":"2016-09-02 12:20:23","orig_title":"Любимая учительница","year":"2016-01-01","translations":["Оригинальная дорожка"],"seasons_count":1,"episodes_count":8,"episodes":8,"update":"2016-09-09 10:32:48","iframe_src":"//5322.svetacdn.in/71tsRs29n5tZ/tv-series/396"},{"id":364,"title":"Два отца и два сына","kp_id":"735001","imdb_id":"tt3329488","world_art_id":null,"type":"serial","add":"2016-08-25 05:24:19","orig_title":"Dva ottsa i dva syna","year":"2013-10-21","translations":["Оригинальная дорожка"],"seasons_count":3,"episodes_count":60,"episodes":20,"update":"2016-09-08 06:07:46","iframe_src":"//5322.svetacdn.in/71tsRs29n5tZ/tv-series/364"},{"id":359,"title":"Будни аэропорта","kp_id":"842452","imdb_id":"tt4612828","world_art_id":null,"type":"serial","add":"2016-08-23 10:07:45","orig_title":"The Airport Diary","year":"2012-09-01","translations":["Оригинальная дорожка"],"seasons_count":1,"episodes_count":78,"episodes":78,"update":"2016-09-14 18:27:53","iframe_src":"//5322.svetacdn.in/71tsRs29n5tZ/tv-series/359"},{"id":244,"title":"Американская готика","kp_id":"958573","imdb_id":"tt5257744","world_art_id":null,"type":"serial","add":"2016-07-03 06:44:36","orig_title":"American Gothic","year":"2016-06-22","translations":["Профессиональный (многоголосый закадровый) (NewStudio)"],"seasons_count":1,"episodes_count":13,"episodes":13,"update":"2016-09-15 04:52:55","iframe_src":"//5322.svetacdn.in/71tsRs29n5tZ/tv-series/244"},{"id":3378,"title":"Ангелы Чарли","kp_id":"633","imdb_id":"tt0160127","world_art_id":null,"type":"movie","add":"2016-06-27 10:02:46","orig_title":"Charlie's Angels","year":"2000-10-22","translations":["Полное дублирование","Авторский (одноголосый закадровый) (Визгунов Сергей)","Авторский (одноголосый закадровый) (Володарский Леонид)","Полное дублирование","Original (English)","Профессиональный (многоголосый закадровый)"],"quality":"bd","translation":"Полное дублирование","update":"2020-08-13 13:56:36","iframe_src":"//5322.svetacdn.in/71tsRs29n5tZ/movie/3378"},{"id":1888,"title":"Война Харта","kp_id":"691","imdb_id":"tt0251114","world_art_id":null,"type":"movie","add":"2016-05-05 12:06:53","orig_title":"Hart's War","year":"2002-02-15","translations":["Профессиональный (многоголосый закадровый)","Авторский (одноголосый закадровый) (Рудой Евгений)","Original (English)","Профессиональный (двухголосый закадровый) (Lazer Video)","Профессиональный (многоголосый закадровый)"],"quality":"bd","translation":"Профессиональный (многоголосый закадровый)","update":"2020-08-13 14:02:48","iframe_src":"//5322.svetacdn.in/71tsRs29n5tZ/movie/1888"}],"current_page":509,"first_page_url":"https://videocdn.tv/api/short?limit=100&api_token=EnbO9h8pv1VyjbCJhg0WM9nG259n7mtz&cache3509=3509&page=1","from":50801,"last_page":621,"last_page_url":"https://videocdn.tv/api/short?limit=100&api_token=EnbO9h8pv1VyjbCJhg0WM9nG259n7mtz&cache3509=3509&page=621","next_page_url":"https://videocdn.tv/api/short?limit=100&api_token=EnbO9h8pv1VyjbCJhg0WM9nG259n7mtz&cache3509=3509&page=510","path":"https://videocdn.tv/api/short","per_page":100,"prev_page_url":"https://videocdn.tv/api/short?limit=100&api_token=EnbO9h8pv1VyjbCJhg0WM9nG259n7mtz&cache3509=3509&page=508","to":50840,"total":62040}