{"result":true,"data":[{"id":47891,"title":"Почему я?","kp_id":"1348224","imdb_id":"tt11742878","world_art_id":null,"type":"movie","add":"2021-02-12 21:17:05","orig_title":"Why Me","year":"2020-03-19","translations":["Любительский (многоголосый закадровый) (Синема УС)"],"quality":"webdl","translation":"Любительский (многоголосый закадровый) (Синема УС)","update":"2021-02-13 06:41:36","iframe_src":"//7741.svetacdn.in/IAF0wWTdNYZm/movie/47891"},{"id":47877,"title":"Путь Хико","kp_id":null,"imdb_id":"tt12481806","world_art_id":null,"type":"movie","add":"2021-02-12 09:48:17","orig_title":"Xicos Journey","year":"2020-11-12","translations":["Полное дублирование (Netflix)"],"quality":"webdl","translation":"Полное дублирование (Netflix)","update":"2021-02-12 21:09:58","iframe_src":"//7741.svetacdn.in/IAF0wWTdNYZm/movie/47877"},{"id":47875,"title":"Черноснежка","kp_id":"1255519","imdb_id":"tt10156586","world_art_id":null,"type":"movie","add":"2021-02-12 09:39:33","orig_title":"Snow Black","year":"2021-01-12","translations":["Любительский (многоголосый закадровый) (Синема УС)"],"quality":"webdl","translation":"Любительский (многоголосый закадровый) (Синема УС)","update":"2021-02-12 15:01:46","iframe_src":"//7741.svetacdn.in/IAF0wWTdNYZm/movie/47875"},{"id":47873,"title":"Мое вскрытие","kp_id":"1216619","imdb_id":"tt8527738","world_art_id":null,"type":"movie","add":"2021-02-12 09:29:39","orig_title":"My Autopsy","year":"2020-09-06","translations":["Любительский (многоголосый закадровый) (AlphaProject)"],"quality":"webdl","translation":"Любительский (многоголосый закадровый) (AlphaProject)","update":"2021-02-12 14:38:42","iframe_src":"//7741.svetacdn.in/IAF0wWTdNYZm/movie/47873"},{"id":47872,"title":"Поломка","kp_id":"1408846","imdb_id":"tt12872946","world_art_id":null,"type":"movie","add":"2021-02-12 09:19:41","orig_title":"The Breakdown","year":"2021-02-13","translations":["Любительский (многоголосый закадровый) (Синема УС)"],"quality":"webdl","translation":"Любительский (многоголосый закадровый) (Синема УС)","update":"2021-02-12 21:04:21","iframe_src":"//7741.svetacdn.in/IAF0wWTdNYZm/movie/47872"},{"id":47856,"title":"Приватный чат","kp_id":"1154821","imdb_id":"tt8110004","world_art_id":null,"type":"movie","add":"2021-02-11 18:59:21","orig_title":"PVT CHAT","year":"2020-08-21","translations":["Любительский (многоголосый закадровый) (Синема УС)"],"quality":"webdl","translation":"Любительский (многоголосый закадровый) (Синема УС)","update":"2021-02-12 16:33:36","iframe_src":"//7741.svetacdn.in/IAF0wWTdNYZm/movie/47856"},{"id":47855,"title":"Жениться молодым","kp_id":"1040753","imdb_id":"tt6633870","world_art_id":null,"type":"movie","add":"2021-02-11 18:58:03","orig_title":"Married Young","year":"2019-10-25","translations":["Любительский (многоголосый закадровый) (Синема УС)"],"quality":"webdl","translation":"Любительский (многоголосый закадровый) (Синема УС)","update":"2021-02-12 16:34:09","iframe_src":"//7741.svetacdn.in/IAF0wWTdNYZm/movie/47855"},{"id":47852,"title":"Игра по-крупному","kp_id":"928161","imdb_id":"tt4873098","world_art_id":null,"type":"movie","add":"2021-02-11 18:43:44","orig_title":"Double Down","year":"2020-12-15","translations":["Любительский (многоголосый закадровый) (Синема УС)"],"quality":"webdl","translation":"Любительский (многоголосый закадровый) (Синема УС)","update":"2021-02-12 16:34:33","iframe_src":"//7741.svetacdn.in/IAF0wWTdNYZm/movie/47852"},{"id":47851,"title":"Любовь в квадрате","kp_id":"4321195","imdb_id":"tt13846542","world_art_id":null,"type":"movie","add":"2021-02-11 16:56:52","orig_title":"Milosc do kwadratu","year":"2021-02-11","translations":["Любительский (двухголосый закадровый) (OnisFilms)","Любительский (многоголосый закадровый) (Синема УС)"],"quality":"webdl","translation":"Любительский (двухголосый закадровый) (OnisFilms)","update":"2021-02-12 20:11:14","iframe_src":"//7741.svetacdn.in/IAF0wWTdNYZm/movie/47851"},{"id":47700,"title":"Малкольм и Мари","kp_id":"1394181","imdb_id":"tt12676326","world_art_id":null,"type":"movie","add":"2021-02-06 17:18:58","orig_title":"Malcolm & Marie","year":"2021-02-05","translations":["Любительский (двухголосый закадровый) (OnisFilms)","Original (English)","Профессиональный (многоголосый закадровый) (HDrezka Studio)"],"quality":"webdl","translation":"Любительский (двухголосый закадровый) (OnisFilms)","update":"2021-02-12 12:43:59","iframe_src":"//7741.svetacdn.in/IAF0wWTdNYZm/movie/47700"},{"id":18689,"title":"Соломенные псы","kp_id":"4528","imdb_id":"tt0067800","world_art_id":null,"type":"movie","add":"2018-08-31 08:23:15","orig_title":"Straw Dogs","year":"1971-11-25","translations":["Профессиональный (многоголосый закадровый)","Авторский (одноголосый закадровый) (Гаврилов Андрей)","Авторский (одноголосый закадровый) (Либергал Григорий)","Авторский (одноголосый закадровый) (Михалёв Алексей)","Авторский (одноголосый закадровый) (Товбин Юрий)","Авторский (одноголосый закадровый) (Живов Юрий)","Original (English)","Профессиональный (многоголосый закадровый) (DVD Магия)","Профессиональный (многоголосый закадровый) (Екатеринбург Арт)"],"quality":"bd","translation":"Профессиональный (многоголосый закадровый)","update":"2021-02-12 12:47:11","iframe_src":"//7741.svetacdn.in/IAF0wWTdNYZm/movie/18689"},{"id":14205,"title":"Пила 8","kp_id":"810679","imdb_id":"tt3348730","world_art_id":null,"type":"movie","add":"2017-11-01 23:02:04","orig_title":"Jigsaw","year":"2017-10-26","translations":["Полное дублирование","Original (English)","Авторский (одноголосый закадровый) (Дольский Андрей)","Авторский (одноголосый закадровый) (Есарев Дмитрий)","Полное дублирование (iTunes)","Original (English)"],"quality":"bd","translation":"Полное дублирование","update":"2021-02-12 12:01:39","iframe_src":"//7741.svetacdn.in/IAF0wWTdNYZm/movie/14205"},{"id":8909,"title":"Отправь их в ад, Мэлоун!","kp_id":"421560","imdb_id":"tt1258137","world_art_id":null,"type":"movie","add":"2017-01-15 14:24:46","orig_title":"Give 'em Hell Malone","year":"2009-07-25","translations":["Профессиональный (многоголосый закадровый)","Авторский (одноголосый закадровый) (Гоблин | Пучков Дмитрий)","Original (English)","Любительский (одноголосый закадровый) (Штамп Дмитрий | sf@irat)","Любительский (многоголосый закадровый) (1001cinema)","Профессиональный (многоголосый закадровый)"],"quality":"bd","translation":"Профессиональный (многоголосый закадровый)","update":"2021-02-12 13:24:05","iframe_src":"//7741.svetacdn.in/IAF0wWTdNYZm/movie/8909"},{"id":6142,"title":"Пламя и Цитрон","kp_id":"276637","imdb_id":"tt0920458","world_art_id":null,"type":"movie","add":"2016-10-11 08:41:04","orig_title":"Flammen & Citronen","year":"2008-03-28","translations":["Профессиональный (многоголосый)","Авторский (одноголосый закадровый) (Немахов Юрий)","Профессиональный (многоголосый закадровый)"],"quality":"bd","translation":"Профессиональный (многоголосый)","update":"2021-02-12 12:11:53","iframe_src":"//7741.svetacdn.in/IAF0wWTdNYZm/movie/6142"},{"id":5647,"title":"Каспер","kp_id":"7098","imdb_id":"tt0112642","world_art_id":null,"type":"movie","add":"2016-09-28 15:02:46","orig_title":"Casper","year":"1995-05-26","translations":["Профессиональный (многоголосый закадровый)","Авторский (одноголосый закадровый) (Санаев Павел)","Авторский (одноголосый закадровый) (Визгунов Сергей)","Авторский (одноголосый закадровый) (Живов Юрий)","Original (English)","Профессиональный (двухголосый закадровый) (Гланц + Казакова)","Профессиональный (двухголосый закадровый) (НТВ)","Профессиональный (многоголосый закадровый)"],"quality":"bd","translation":"Профессиональный (многоголосый закадровый)","update":"2021-02-12 13:59:23","iframe_src":"//7741.svetacdn.in/IAF0wWTdNYZm/movie/5647"},{"id":3588,"title":"Джоси Уэйлс – человек вне закона","kp_id":"8458","imdb_id":"tt0075029","world_art_id":null,"type":"movie","add":"2016-07-01 11:53:42","orig_title":"The Outlaw Josey Wales","year":"1976-06-26","translations":["Профессиональный (многоголосый закадровый)","Авторский (одноголосый закадровый) (Дохалов Вартан)","Авторский (одноголосый закадровый) (Визгунов Сергей)","Original (English)","Профессиональный (двухголосый закадровый) (Премьер Видео Фильм)","Профессиональный (двухголосый закадровый) (Ульпаней Эльром)","Профессиональный (многоголосый закадровый) (5-й канал СПб)","Профессиональный (многоголосый закадровый) (НТВ)"],"quality":"bd","translation":"Профессиональный (многоголосый закадровый)","update":"2021-02-12 12:55:58","iframe_src":"//7741.svetacdn.in/IAF0wWTdNYZm/movie/3588"},{"id":2248,"title":"Горячие головы 2","kp_id":"3222","imdb_id":"tt0107144","world_art_id":null,"type":"movie","add":"2016-05-17 04:49:24","orig_title":"Hot Shots! Part Deux","year":"1993-05-21","translations":["Полное дублирование","Original (English)","Авторский (одноголосый закадровый) (Михалёв Алексей)","Авторский (одноголосый закадровый) (Живов Юрий)","Original (English)","Профессиональный (двухголосый закадровый) (Премьер Видео Фильм)","Профессиональный (многоголосый закадровый) (Первый канал | ОРТ)"],"quality":"bd","translation":"Полное дублирование","update":"2021-02-12 14:11:29","iframe_src":"//7741.svetacdn.in/IAF0wWTdNYZm/movie/2248"},{"id":2247,"title":"Горячие головы","kp_id":"1729","imdb_id":"tt0102059","world_art_id":null,"type":"movie","add":"2016-05-17 04:48:20","orig_title":"Hot Shots!","year":"1991-07-31","translations":["Профессиональный (многоголосый закадровый)","Original (English)","Авторский (одноголосый закадровый) (Михалёв Алексей)","Авторский (одноголосый закадровый) (Живов Юрий)","Original (English)","Профессиональный (двухголосый закадровый) (Премьер Видео Фильм)","Профессиональный (многоголосый закадровый) (Первый канал | ОРТ)"],"quality":"bd","translation":"Профессиональный (многоголосый закадровый)","update":"2021-02-12 14:04:12","iframe_src":"//7741.svetacdn.in/IAF0wWTdNYZm/movie/2247"},{"id":1585,"title":"Дорога перемен","kp_id":"280932","imdb_id":"tt0959337","world_art_id":null,"type":"movie","add":"2016-04-24 07:45:47","orig_title":"Revolutionary Road","year":"2008-12-15","translations":["Полное дублирование","Original (English)","Авторский (одноголосый закадровый) (Сербин Юрий)","Полное дублирование","Original (English)"],"quality":"bd","translation":"Полное дублирование","update":"2021-02-12 12:20:24","iframe_src":"//7741.svetacdn.in/IAF0wWTdNYZm/movie/1585"},{"id":77,"title":"Отель «Гранд Будапешт»","kp_id":"683999","imdb_id":"tt2278388","world_art_id":null,"type":"movie","add":"2016-02-09 11:13:03","orig_title":"The Grand Budapest Hotel","year":"2014-02-06","translations":["Полное дублирование","Original (English)","Авторский (одноголосый закадровый) (Сербин Юрий)","Полное дублирование","Original (English)"],"quality":"bd","translation":"Полное дублирование","update":"2021-02-12 12:06:44","iframe_src":"//7741.svetacdn.in/IAF0wWTdNYZm/movie/77"}],"current_page":656,"first_page_url":"https://videocdn.tv/api/short?limit=100&api_token=6Onb1W1alEUrBcKJZD3GoKBbWyAl2uG2&cache3656=3656&page=1","from":65501,"last_page":702,"last_page_url":"https://videocdn.tv/api/short?limit=100&api_token=6Onb1W1alEUrBcKJZD3GoKBbWyAl2uG2&cache3656=3656&page=702","next_page_url":"https://videocdn.tv/api/short?limit=100&api_token=6Onb1W1alEUrBcKJZD3GoKBbWyAl2uG2&cache3656=3656&page=657","path":"https://videocdn.tv/api/short","per_page":100,"prev_page_url":"https://videocdn.tv/api/short?limit=100&api_token=6Onb1W1alEUrBcKJZD3GoKBbWyAl2uG2&cache3656=3656&page=655","to":65520,"total":70147}