{"result":true,"data":[{"id":47189,"title":"Эдемский сад","kp_id":"314552","imdb_id":"tt1031243","world_art_id":null,"type":"movie","add":"2021-01-17 16:47:21","orig_title":"The Garden of Eden","year":"2008-10-26","translations":["Любительский (одноголосый закадровый) (Voiz)"],"quality":"webdl","translation":"Любительский (одноголосый закадровый) (Voiz)","update":"2021-01-18 11:04:50","iframe_src":"//24213.svetacdn.in/IAF0wWTdNYZm/movie/47189"},{"id":47181,"title":"Звонок Ангелу","kp_id":"110706","imdb_id":"tt0411271","world_art_id":null,"type":"movie","add":"2021-01-17 15:26:34","orig_title":"Llamando a un ángel","year":"2008-02-14","translations":["Профессиональный (двухголосый закадровый)"],"quality":"dvdrip","translation":"Профессиональный (двухголосый закадровый)","update":"2021-01-18 13:00:50","iframe_src":"//24213.svetacdn.in/IAF0wWTdNYZm/movie/47181"},{"id":47157,"title":"Пудинг с карамелью","kp_id":"1307667","imdb_id":"tt10938522","world_art_id":null,"type":"movie","add":"2021-01-16 21:19:51","orig_title":"Sticky Toffee Pudding","year":"2020-07-14","translations":["Любительский (многоголосый закадровый) (Синема УС)"],"quality":"webdl","translation":"Любительский (многоголосый закадровый) (Синема УС)","update":"2021-01-18 13:03:22","iframe_src":"//24213.svetacdn.in/IAF0wWTdNYZm/movie/47157"},{"id":47142,"title":"В логове льва","kp_id":"597259","imdb_id":"tt1986871","world_art_id":null,"type":"movie","add":"2021-01-16 11:04:28","orig_title":"Into the Lion's Den","year":"2012-08-31","translations":["Любительский (одноголосый закадровый) (Кошкин Василий)"],"quality":"dvdrip","translation":"Любительский (одноголосый закадровый) (Кошкин Василий)","update":"2021-01-18 11:16:12","iframe_src":"//24213.svetacdn.in/IAF0wWTdNYZm/movie/47142"},{"id":47141,"title":"Неописуемая молодость","kp_id":"688026","imdb_id":"tt2168288","world_art_id":null,"type":"movie","add":"2021-01-16 10:52:52","orig_title":"Silent Youth","year":"2012-10-19","translations":["Любительский (одноголосый закадровый) (Кошкин Василий)"],"quality":"dvdrip","translation":"Любительский (одноголосый закадровый) (Кошкин Василий)","update":"2021-01-18 11:15:25","iframe_src":"//24213.svetacdn.in/IAF0wWTdNYZm/movie/47141"},{"id":47140,"title":"Мама всегда рядом","kp_id":"1008493","imdb_id":null,"world_art_id":null,"type":"movie","add":"2021-01-16 10:24:52","orig_title":"Мама всегда рядом","year":"2016-12-28","translations":["Оригинальная дорожка"],"quality":"webdl","translation":"Оригинальная дорожка","update":"2021-01-18 11:14:31","iframe_src":"//24213.svetacdn.in/IAF0wWTdNYZm/movie/47140"},{"id":47139,"title":"Датские бандюганы","kp_id":"92655","imdb_id":"tt0382365","world_art_id":null,"type":"movie","add":"2021-01-16 10:06:07","orig_title":"Vet hard","year":"2005-02-03","translations":["Профессиональный (многоголосый закадровый)"],"quality":"hdrip","translation":"Профессиональный (многоголосый закадровый)","update":"2021-01-18 11:12:56","iframe_src":"//24213.svetacdn.in/IAF0wWTdNYZm/movie/47139"},{"id":47120,"title":"Преждевременный человек","kp_id":"43241","imdb_id":"tt0191371","world_art_id":null,"type":"movie","add":"2021-01-15 17:45:16","orig_title":"Prezhdevremennyy chelovek","year":"1972-01-15","translations":["Оригинальная дорожка"],"quality":"dvb","translation":"Оригинальная дорожка","update":"2021-01-18 13:37:24","iframe_src":"//24213.svetacdn.in/IAF0wWTdNYZm/movie/47120"},{"id":47119,"title":"Необычный день","kp_id":"592330","imdb_id":null,"world_art_id":null,"type":"movie","add":"2021-01-15 17:32:59","orig_title":"Необычный день","year":"1972-07-24","translations":["Оригинальная дорожка"],"quality":"vhs","translation":"Оригинальная дорожка","update":"2021-01-18 13:49:04","iframe_src":"//24213.svetacdn.in/IAF0wWTdNYZm/movie/47119"},{"id":47118,"title":"Летние гастроли","kp_id":"331835","imdb_id":"tt0079461","world_art_id":null,"type":"movie","add":"2021-01-15 17:24:55","orig_title":"Letnie gastroli","year":"1979-02-03","translations":["Оригинальная дорожка"],"quality":"sat","translation":"Оригинальная дорожка","update":"2021-01-18 13:50:16","iframe_src":"//24213.svetacdn.in/IAF0wWTdNYZm/movie/47118"},{"id":47117,"title":"Жена моя, дети мои","kp_id":"958581","imdb_id":"tt10035352","world_art_id":null,"type":"movie","add":"2021-01-15 17:19:17","orig_title":"Zhena moya, deti moi","year":"1978-01-01","translations":["Оригинальная дорожка"],"quality":"vhs","translation":"Оригинальная дорожка","update":"2021-01-18 13:51:32","iframe_src":"//24213.svetacdn.in/IAF0wWTdNYZm/movie/47117"},{"id":47116,"title":"Дело было, да?","kp_id":"958712","imdb_id":"tt5333016","world_art_id":null,"type":"movie","add":"2021-01-15 17:16:01","orig_title":"Delo bylo, da?","year":"1973-01-01","translations":["Оригинальная дорожка"],"quality":"webdl","translation":"Оригинальная дорожка","update":"2021-01-18 13:52:53","iframe_src":"//24213.svetacdn.in/IAF0wWTdNYZm/movie/47116"},{"id":47115,"title":"Блистающий мир","kp_id":"46144","imdb_id":"tt0230046","world_art_id":null,"type":"movie","add":"2021-01-15 17:11:43","orig_title":"Blistayushchiy mir","year":"1984-09-27","translations":["Оригинальная дорожка"],"quality":"sat","translation":"Оригинальная дорожка","update":"2021-01-18 13:53:53","iframe_src":"//24213.svetacdn.in/IAF0wWTdNYZm/movie/47115"},{"id":47114,"title":"Батыры степей","kp_id":"46044","imdb_id":"tt0174494","world_art_id":null,"type":"movie","add":"2021-01-15 17:06:06","orig_title":"Batyri stepey","year":"1942-01-01","translations":["Оригинальная дорожка"],"quality":"webdl","translation":"Оригинальная дорожка","update":"2021-01-18 13:54:45","iframe_src":"//24213.svetacdn.in/IAF0wWTdNYZm/movie/47114"},{"id":47113,"title":"Зудов, вы уволены!","kp_id":"45404","imdb_id":"tt0088456","world_art_id":null,"type":"movie","add":"2021-01-15 17:02:32","orig_title":"Zudov, vy uvoleny","year":"1984-07-16","translations":["Оригинальная дорожка"],"quality":"sat","translation":"Оригинальная дорожка","update":"2021-01-18 14:00:59","iframe_src":"//24213.svetacdn.in/IAF0wWTdNYZm/movie/47113"},{"id":47097,"title":"Вторая попытка Виктора Крохина","kp_id":"45952","imdb_id":"tt0076900","world_art_id":null,"type":"movie","add":"2021-01-14 19:32:46","orig_title":"Vtoraya popytka Viktora Krokhina","year":"1977-02-01","translations":["Оригинальная дорожка"],"quality":"sat","translation":"Оригинальная дорожка","update":"2021-01-18 14:03:03","iframe_src":"//24213.svetacdn.in/IAF0wWTdNYZm/movie/47097"},{"id":47096,"title":"Виктория","kp_id":"45774","imdb_id":"tt0334622","world_art_id":null,"type":"movie","add":"2021-01-14 19:26:36","orig_title":"Viktoriya (Bumazhnyy patefon)","year":"1987-02-25","translations":["Оригинальная дорожка"],"quality":"sat","translation":"Оригинальная дорожка","update":"2021-01-18 14:04:10","iframe_src":"//24213.svetacdn.in/IAF0wWTdNYZm/movie/47096"},{"id":46904,"title":"Персона нон грата","kp_id":"1387133","imdb_id":"tt7801894","world_art_id":null,"type":"movie","add":"2021-01-11 09:44:47","orig_title":"Persona non grata","year":"2019-07-17","translations":["Любительский (многоголосый закадровый) (Синема УС)"],"quality":"webdl","translation":"Любительский (многоголосый закадровый) (Синема УС)","update":"2021-01-18 13:59:18","iframe_src":"//24213.svetacdn.in/IAF0wWTdNYZm/movie/46904"},{"id":28173,"title":"Ромео, мой сосед","kp_id":"475988","imdb_id":"tt11311028","world_art_id":null,"type":"movie","add":"2019-06-22 18:18:43","orig_title":"Romeo, moy sosed","year":"1964-09-10","translations":["Оригинальная дорожка","Полное дублирование"],"quality":"webdl","translation":"Оригинальная дорожка","update":"2021-01-18 13:35:44","iframe_src":"//24213.svetacdn.in/IAF0wWTdNYZm/movie/28173"},{"id":22080,"title":"Женщина в красном","kp_id":"16723","imdb_id":"tt0088414","world_art_id":null,"type":"movie","add":"2019-02-05 15:00:29","orig_title":"The Woman in Red","year":"1984-08-15","translations":["Профессиональный (многоголосый закадровый) (СТС)","[EN] Original (English)","Авторский (одноголосый закадровый) (Михалёв Алексей)","Авторский (одноголосый закадровый) (Володарский Леонид)","[EN] Original (English)","Профессиональный (двухголосый закадровый) (Екатеринбург Арт)","Профессиональный (двухголосый закадровый) (НТВ)","Профессиональный (многоголосый закадровый) (СТС)"],"quality":"bd","translation":"Профессиональный (многоголосый закадровый) (СТС)","update":"2021-01-18 10:32:35","iframe_src":"//24213.svetacdn.in/IAF0wWTdNYZm/movie/22080"}],"current_page":925,"first_page_url":"https://videocdn.tv/api/short?limit=100&api_token=6Onb1W1alEUrBcKJZD3GoKBbWyAl2uG2&cache3925=3925&page=1","from":92401,"last_page":729,"last_page_url":"https://videocdn.tv/api/short?limit=100&api_token=6Onb1W1alEUrBcKJZD3GoKBbWyAl2uG2&cache3925=3925&page=729","next_page_url":null,"path":"https://videocdn.tv/api/short","per_page":100,"prev_page_url":"https://videocdn.tv/api/short?limit=100&api_token=6Onb1W1alEUrBcKJZD3GoKBbWyAl2uG2&cache3925=3925&page=924","to":92420,"total":72890}