{"result":true,"data":[{"id":37099,"title":"Мадам Де....","kp_id":"333109","imdb_id":"tt0297269","world_art_id":null,"type":"movie","add":"2020-02-28 09:57:46","orig_title":"Madame De...","year":"2001-10-01","translations":["Профессиональный (многоголосый закадровый)"],"quality":"sat","translation":"Профессиональный (многоголосый закадровый)","update":"2020-02-28 11:11:10","iframe_src":"//7741.svetacdn.in/si4jsFRrtgrT/movie/37099"},{"id":37097,"title":"Апостол","kp_id":"7186","imdb_id":"tt0118632","world_art_id":null,"type":"movie","add":"2020-02-28 09:46:59","orig_title":"The Apostle","year":"1997-09-06","translations":["Профессиональный (многоголосый закадровый) (НТВ)"],"quality":"dvdrip","translation":"Профессиональный (многоголосый закадровый) (НТВ)","update":"2020-02-28 11:09:59","iframe_src":"//7741.svetacdn.in/si4jsFRrtgrT/movie/37097"},{"id":37095,"title":"Зарубежный роман","kp_id":"3981","imdb_id":"tt0305583","world_art_id":null,"type":"movie","add":"2020-02-28 09:43:53","orig_title":"A Foreign Affair","year":"2003-01-21","translations":["Профессиональный (двухголосый закадровый)"],"quality":"dvdrip","translation":"Профессиональный (двухголосый закадровый)","update":"2020-02-28 11:08:32","iframe_src":"//7741.svetacdn.in/si4jsFRrtgrT/movie/37095"},{"id":37090,"title":"Сокрушённая","kp_id":"425547","imdb_id":"tt1192621","world_art_id":null,"type":"movie","add":"2020-02-28 09:04:26","orig_title":"Crushed","year":"2009-01-01","translations":["Любительский (двухголосый закадровый)"],"quality":"dvdrip","translation":"Любительский (двухголосый закадровый)","update":"2020-02-28 10:11:48","iframe_src":"//7741.svetacdn.in/si4jsFRrtgrT/movie/37090"},{"id":37088,"title":"Сборище любителей","kp_id":"404170","imdb_id":"tt1171226","world_art_id":null,"type":"movie","add":"2020-02-28 08:58:05","orig_title":"A Bunch of Amateurs","year":"2008-11-17","translations":["Профессиональный (многоголосый закадровый)"],"quality":"hdtv","translation":"Профессиональный (многоголосый закадровый)","update":"2020-02-28 11:02:04","iframe_src":"//7741.svetacdn.in/si4jsFRrtgrT/movie/37088"},{"id":37086,"title":"Банда неудачников","kp_id":"3723","imdb_id":"tt0110536","world_art_id":null,"type":"movie","add":"2020-02-28 08:35:50","orig_title":"I mitici - Colpo gobbo a Milano","year":"1994-02-18","translations":["Профессиональный (многоголосый закадровый)"],"quality":"dvdrip","translation":"Профессиональный (многоголосый закадровый)","update":"2020-02-28 10:57:11","iframe_src":"//7741.svetacdn.in/si4jsFRrtgrT/movie/37086"},{"id":37084,"title":"Меч Гидеона","kp_id":"231070","imdb_id":"tt0092038","world_art_id":null,"type":"movie","add":"2020-02-28 05:58:17","orig_title":"Sword of Gideon","year":"1986-11-29","translations":["Профессиональный (двухголосый закадровый)"],"quality":"dvdrip","translation":"Профессиональный (двухголосый закадровый)","update":"2020-02-28 09:53:35","iframe_src":"//7741.svetacdn.in/si4jsFRrtgrT/movie/37084"},{"id":37082,"title":"Неуверенная в себе","kp_id":"1350638","imdb_id":"tt11488780","world_art_id":null,"type":"movie","add":"2020-02-28 05:33:10","orig_title":"Insecure","year":"2019-01-09","translations":["Любительский (многоголосый закадровый) (Синема УС)"],"quality":"webdl","translation":"Любительский (многоголосый закадровый) (Синема УС)","update":"2020-02-28 10:14:20","iframe_src":"//7741.svetacdn.in/si4jsFRrtgrT/movie/37082"},{"id":37081,"title":"Кэтрин вверх тормашками","kp_id":"768559","imdb_id":"tt2953304","world_art_id":null,"type":"movie","add":"2020-02-28 05:32:22","orig_title":"Kathryn Upside Down","year":"2019-03-12","translations":["Любительский (многоголосый закадровый) (Синема УС)"],"quality":"webdl","translation":"Любительский (многоголосый закадровый) (Синема УС)","update":"2020-02-28 10:12:55","iframe_src":"//7741.svetacdn.in/si4jsFRrtgrT/movie/37081"},{"id":37080,"title":"Истинная сущность партнёра по постели","kp_id":"790248","imdb_id":"tt3134572","world_art_id":null,"type":"movie","add":"2020-02-28 05:29:36","orig_title":"Kensho at the Bedfellow","year":"2017-03-09","translations":["Любительский (многоголосый закадровый) (Синема УС)"],"quality":"webdl","translation":"Любительский (многоголосый закадровый) (Синема УС)","update":"2020-02-28 09:27:34","iframe_src":"//7741.svetacdn.in/si4jsFRrtgrT/movie/37080"},{"id":37079,"title":"Тряпичная кукла","kp_id":"1059215","imdb_id":"tt5990464","world_art_id":null,"type":"movie","add":"2020-02-28 05:28:46","orig_title":"Rag Doll","year":"2019-01-26","translations":["Любительский (многоголосый закадровый) (Синема УС)"],"quality":"webdl","translation":"Любительский (многоголосый закадровый) (Синема УС)","update":"2020-02-28 09:50:38","iframe_src":"//7741.svetacdn.in/si4jsFRrtgrT/movie/37079"},{"id":37078,"title":"Работёнка","kp_id":"1051371","imdb_id":"tt5374002","world_art_id":null,"type":"movie","add":"2020-02-28 05:27:58","orig_title":"The Job","year":"2017-12-10","translations":["Любительский (многоголосый закадровый) (Синема УС)"],"quality":"webdl","translation":"Любительский (многоголосый закадровый) (Синема УС)","update":"2020-02-28 09:25:16","iframe_src":"//7741.svetacdn.in/si4jsFRrtgrT/movie/37078"},{"id":37076,"title":"Братаны со льдом","kp_id":null,"imdb_id":"tt7314118","world_art_id":null,"type":"movie","add":"2020-02-28 05:25:30","orig_title":"BROS. On The Rocks","year":"2018-05-02","translations":["Любительский (многоголосый закадровый) (Синема УС)"],"quality":"webdl","translation":"Любительский (многоголосый закадровый) (Синема УС)","update":"2020-02-28 10:10:13","iframe_src":"//7741.svetacdn.in/si4jsFRrtgrT/movie/37076"},{"id":37074,"title":"Менендес: Братья по крови","kp_id":"1014894","imdb_id":"tt6522678","world_art_id":null,"type":"movie","add":"2020-02-28 05:21:14","orig_title":"Menendez: Blood Brothers","year":"2017-06-10","translations":["Любительский (многоголосый закадровый) (Синема УС)"],"quality":"webdl","translation":"Любительский (многоголосый закадровый) (Синема УС)","update":"2020-02-28 09:39:57","iframe_src":"//7741.svetacdn.in/si4jsFRrtgrT/movie/37074"},{"id":37070,"title":"Ты не посмеешь забрать мою дочь","kp_id":"1334027","imdb_id":"tt11379280","world_art_id":null,"type":"movie","add":"2020-02-28 05:15:20","orig_title":"You Can't Take My Daughter","year":"2020-02-15","translations":["Любительский (многоголосый закадровый) (AlphaProject)"],"quality":"webdl","translation":"Любительский (многоголосый закадровый) (AlphaProject)","update":"2020-02-28 09:28:43","iframe_src":"//7741.svetacdn.in/si4jsFRrtgrT/movie/37070"},{"id":33352,"title":"Конец пути","kp_id":"243268","imdb_id":"tt0494224","world_art_id":null,"type":"movie","add":"2019-11-21 19:46:12","orig_title":"End of the Line","year":"2007-04-28","translations":["Профессиональный (двухголосый закадровый)","[EN] Original (English)"],"quality":"bd","translation":"Профессиональный (двухголосый закадровый)","update":"2020-02-28 11:15:46","iframe_src":"//7741.svetacdn.in/si4jsFRrtgrT/movie/33352"},{"id":33344,"title":"Белль","kp_id":"682934","imdb_id":"tt2404181","world_art_id":null,"type":"movie","add":"2019-11-21 13:49:22","orig_title":"Belle","year":"2013-09-08","translations":["Профессиональный (многоголосый закадровый)","[EN] Original (English)"],"quality":"bd","translation":"Профессиональный (многоголосый закадровый)","update":"2020-02-28 10:33:42","iframe_src":"//7741.svetacdn.in/si4jsFRrtgrT/movie/33344"},{"id":33342,"title":"Когда поют ангелы","kp_id":"581079","imdb_id":"tt1833888","world_art_id":null,"type":"movie","add":"2019-11-21 12:31:39","orig_title":"Angels Sing","year":"2013-03-10","translations":["Любительский (многоголосый закадровый)","[EN] Original (English)"],"quality":"bd","translation":"Любительский (многоголосый закадровый)","update":"2020-02-28 10:32:31","iframe_src":"//7741.svetacdn.in/si4jsFRrtgrT/movie/33342"},{"id":33218,"title":"Угнанный","kp_id":"596249","imdb_id":"tt1986857","world_art_id":null,"type":"movie","add":"2019-11-18 14:09:18","orig_title":"Hijacked","year":"2012-07-31","translations":["Профессиональный (многоголосый закадровый)","[EN] Original (English)"],"quality":"bd","translation":"Профессиональный (многоголосый закадровый)","update":"2020-02-28 11:16:35","iframe_src":"//7741.svetacdn.in/si4jsFRrtgrT/movie/33218"},{"id":5371,"title":"Дракон: История Брюса Ли","kp_id":"13332","imdb_id":"tt0106770","world_art_id":null,"type":"movie","add":"2016-09-20 08:56:09","orig_title":"Dragon: The Bruce Lee Story","year":"1993-05-07","translations":["Полное дублирование","Профессиональный (многоголосый закадровый)","Профессиональный (многоголосый закадровый) (СТС)","Авторский (одноголосый закадровый) (Володарский Леонид)","Авторский (одноголосый закадровый) (Дохалов Вартан)","[EN] Original (English)"],"quality":"bd","translation":"Полное дублирование","update":"2020-02-28 10:34:52","iframe_src":"//7741.svetacdn.in/si4jsFRrtgrT/movie/5371"}],"current_page":1282,"first_page_url":"https://videocdn.tv/api/short?limit=100&api_token=X6EwAUfE5M9xbo7y0Bp0aPf3uXxG2KLL&cache31282=31282&page=1","from":128101,"last_page":707,"last_page_url":"https://videocdn.tv/api/short?limit=100&api_token=X6EwAUfE5M9xbo7y0Bp0aPf3uXxG2KLL&cache31282=31282&page=707","next_page_url":null,"path":"https://videocdn.tv/api/short","per_page":100,"prev_page_url":"https://videocdn.tv/api/short?limit=100&api_token=X6EwAUfE5M9xbo7y0Bp0aPf3uXxG2KLL&cache31282=31282&page=1281","to":128120,"total":70687}