{"result":true,"data":[{"id":37997,"title":"Оруженосец","kp_id":"36283","imdb_id":"tt0104645","world_art_id":null,"type":"movie","add":"2020-03-14 22:37:32","orig_title":"Kshatriya","year":"1993-03-26","translations":["Профессиональный (многоголосый закадровый) (ZEE TV)"],"quality":"webdl","translation":"Профессиональный (многоголосый закадровый) (ZEE TV)","update":"2020-03-18 08:07:50","iframe_src":"//24213.svetacdn.in/71tsRs29n5tZ/movie/37997"},{"id":37996,"title":"Битва","kp_id":"78645","imdb_id":"tt0366696","world_art_id":null,"type":"movie","add":"2020-03-14 22:34:56","orig_title":"Ladaai","year":"1989-11-03","translations":["Любительский (одноголосый закадровый)"],"quality":"webdl","translation":"Любительский (одноголосый закадровый)","update":"2020-03-18 08:07:17","iframe_src":"//24213.svetacdn.in/71tsRs29n5tZ/movie/37996"},{"id":37995,"title":"Любимый зять","kp_id":"221880","imdb_id":"tt0102148","world_art_id":null,"type":"movie","add":"2020-03-14 22:32:16","orig_title":"Jamai Raja","year":"1990-10-19","translations":["Профессиональный (многоголосый закадровый)"],"quality":"dvdrip","translation":"Профессиональный (многоголосый закадровый)","update":"2020-03-18 08:06:36","iframe_src":"//24213.svetacdn.in/71tsRs29n5tZ/movie/37995"},{"id":37994,"title":"Мелодия мечты","kp_id":"78544","imdb_id":"tt0075653","world_art_id":null,"type":"movie","add":"2020-03-14 22:29:54","orig_title":"Alaap","year":"1977-04-08","translations":["Профессиональный (многоголосый закадровый)"],"quality":"dvdrip","translation":"Профессиональный (многоголосый закадровый)","update":"2020-03-18 08:05:53","iframe_src":"//24213.svetacdn.in/71tsRs29n5tZ/movie/37994"},{"id":37992,"title":"Кто ты?","kp_id":"1164516","imdb_id":"tt8484586","world_art_id":null,"type":"movie","add":"2020-03-14 22:18:57","orig_title":"Neevevaro","year":"2018-08-23","translations":["Любительский (двухголосый закадровый) (OnisFilms)"],"quality":"webdl","translation":"Любительский (двухголосый закадровый) (OnisFilms)","update":"2020-03-18 08:04:33","iframe_src":"//24213.svetacdn.in/71tsRs29n5tZ/movie/37992"},{"id":37991,"title":"Привет, гуру любви","kp_id":"1131195","imdb_id":"tt8072400","world_art_id":null,"type":"movie","add":"2020-03-14 22:15:59","orig_title":"Hello Guru Prema Kosame","year":"2018-10-18","translations":["Любительский (многоголосый закадровый) (XDUB Dorama)"],"quality":"webdl","translation":"Любительский (многоголосый закадровый) (XDUB Dorama)","update":"2020-03-18 08:03:59","iframe_src":"//24213.svetacdn.in/71tsRs29n5tZ/movie/37991"},{"id":37988,"title":"Семья и закон","kp_id":"86775","imdb_id":"tt0172574","world_art_id":null,"type":"movie","add":"2020-03-14 22:08:15","orig_title":"Hulchul","year":"1995-08-04","translations":["Профессиональный (многоголосый закадровый)"],"quality":"dvdrip","translation":"Профессиональный (многоголосый закадровый)","update":"2020-03-18 08:01:46","iframe_src":"//24213.svetacdn.in/71tsRs29n5tZ/movie/37988"},{"id":37987,"title":"Непокорный","kp_id":"225068","imdb_id":"tt0186793","world_art_id":null,"type":"movie","add":"2020-03-14 22:05:40","orig_title":"Thanikkattu Raja","year":"1985-01-01","translations":["Профессиональный (многоголосый закадровый)"],"quality":"webdl","translation":"Профессиональный (многоголосый закадровый)","update":"2020-03-18 08:01:12","iframe_src":"//24213.svetacdn.in/71tsRs29n5tZ/movie/37987"},{"id":37986,"title":"В плену дворцовых интриг","kp_id":"409647","imdb_id":"tt1219315","world_art_id":null,"type":"movie","add":"2020-03-14 22:01:29","orig_title":"Bandie","year":"1978-03-10","translations":["Полное дублирование"],"quality":"dvdrip","translation":"Полное дублирование","update":"2020-03-18 08:00:12","iframe_src":"//24213.svetacdn.in/71tsRs29n5tZ/movie/37986"},{"id":37984,"title":"Мечты джентльмена","kp_id":"77644","imdb_id":"tt0173102","world_art_id":null,"type":"movie","add":"2020-03-14 21:56:29","orig_title":"Raju Ban Gaya Gentleman","year":"1992-11-13","translations":["Профессиональный (многоголосый закадровый)"],"quality":"dvdrip","translation":"Профессиональный (многоголосый закадровый)","update":"2020-03-18 07:58:37","iframe_src":"//24213.svetacdn.in/71tsRs29n5tZ/movie/37984"},{"id":37968,"title":"Гостеприимство","kp_id":"497944","imdb_id":"tt1582546","world_art_id":null,"type":"movie","add":"2020-03-13 20:27:45","orig_title":"Maryada Ramanna","year":"2010-07-23","translations":["Профессиональный (многоголосый закадровый) (Red Media)"],"quality":"bd","translation":"Профессиональный (многоголосый закадровый) (Red Media)","update":"2020-03-18 07:57:40","iframe_src":"//24213.svetacdn.in/71tsRs29n5tZ/movie/37968"},{"id":37967,"title":"Неожиданный поворот","kp_id":"224721","imdb_id":"tt0339878","world_art_id":null,"type":"movie","add":"2020-03-13 20:25:17","orig_title":"Waah! Tera Kya Kehna","year":"2002-11-01","translations":["Профессиональный (многоголосый закадровый)"],"quality":"webdl","translation":"Профессиональный (многоголосый закадровый)","update":"2020-03-18 07:56:48","iframe_src":"//24213.svetacdn.in/71tsRs29n5tZ/movie/37967"},{"id":37966,"title":"Получеловек","kp_id":"963476","imdb_id":"tt5455344","world_art_id":null,"type":"movie","add":"2020-03-13 20:22:36","orig_title":"Miruthan","year":"2016-02-19","translations":["Любительский (одноголосый закадровый)"],"quality":"webdl","translation":"Любительский (одноголосый закадровый)","update":"2020-03-18 07:55:30","iframe_src":"//24213.svetacdn.in/71tsRs29n5tZ/movie/37966"},{"id":37946,"title":"Новичок","kp_id":"808","imdb_id":"tt0265662","world_art_id":null,"type":"movie","add":"2020-03-13 13:50:33","orig_title":"The Rookie","year":"2002-03-26","translations":["Профессиональный (многоголосый закадровый)","[EN] Original (English)"],"quality":"bd","translation":"Профессиональный (многоголосый закадровый)","update":"2020-03-18 07:28:16","iframe_src":"//24213.svetacdn.in/71tsRs29n5tZ/movie/37946"},{"id":37945,"title":"Пастырь: Битва за души","kp_id":"276428","imdb_id":"tt0932669","world_art_id":null,"type":"movie","add":"2020-03-13 13:49:25","orig_title":"Older Than America","year":"2008-03-08","translations":["Профессиональный (многоголосый закадровый) (CP Digital)","[EN] Original (English)"],"quality":"bd","translation":"Профессиональный (многоголосый закадровый) (CP Digital)","update":"2020-03-18 07:29:09","iframe_src":"//24213.svetacdn.in/71tsRs29n5tZ/movie/37945"},{"id":37943,"title":"Сектор – пляж «Джуно»","kp_id":"834447","imdb_id":"tt1776305","world_art_id":null,"type":"movie","add":"2020-03-13 13:46:50","orig_title":"Storming Juno","year":"2010-11-11","translations":["Профессиональный (одноголосый закадровый)","[EN] Original (English)"],"quality":"hdtv","translation":"Профессиональный (одноголосый закадровый)","update":"2020-03-18 07:27:34","iframe_src":"//24213.svetacdn.in/71tsRs29n5tZ/movie/37943"},{"id":37941,"title":"Наездник рассвета","kp_id":"602726","imdb_id":"tt2014202","world_art_id":null,"type":"movie","add":"2020-03-13 13:43:04","orig_title":"Dawn Rider","year":"2012-05-29","translations":["Любительский (двухголосый закадровый) (Студия Райдо)","[EN] Original (English)"],"quality":"bd","translation":"Любительский (двухголосый закадровый) (Студия Райдо)","update":"2020-03-18 07:29:52","iframe_src":"//24213.svetacdn.in/71tsRs29n5tZ/movie/37941"},{"id":37939,"title":"Бункер","kp_id":"231926","imdb_id":"tt0082114","world_art_id":null,"type":"movie","add":"2020-03-13 13:38:09","orig_title":"The Bunker","year":"1981-01-27","translations":["Авторский (одноголосый закадровый) (Дольский Андрей)","[EN] Original (English)"],"quality":"bd","translation":"Авторский (одноголосый закадровый) (Дольский Андрей)","update":"2020-03-18 07:30:56","iframe_src":"//24213.svetacdn.in/71tsRs29n5tZ/movie/37939"},{"id":33840,"title":"Городской ковбой","kp_id":"9520","imdb_id":"tt0081696","world_art_id":null,"type":"movie","add":"2019-12-08 11:09:10","orig_title":"Urban Cowboy","year":"1980-06-06","translations":["Профессиональный (многоголосый закадровый) (Paramount Channel)","Профессиональный (двухголосый закадровый) (Премьер Видео Фильм)","[EN] Original (English)"],"quality":"webdl","translation":"Профессиональный (многоголосый закадровый) (Paramount Channel)","update":"2020-03-18 07:25:25","iframe_src":"//24213.svetacdn.in/71tsRs29n5tZ/movie/33840"},{"id":33007,"title":"Новичок","kp_id":"61375","imdb_id":"tt0373416","world_art_id":null,"type":"movie","add":"2019-11-12 15:00:15","orig_title":"Underclassman","year":"2005-09-02","translations":["Полное дублирование","[EN] Original (English)"],"quality":"webdl","translation":"Полное дублирование","update":"2020-03-18 07:24:26","iframe_src":"//24213.svetacdn.in/71tsRs29n5tZ/movie/33007"}],"current_page":1372,"first_page_url":"https://videocdn.tv/api/short?limit=100&api_token=EnbO9h8pv1VyjbCJhg0WM9nG259n7mtz&cache31372=31372&page=1","from":137101,"last_page":728,"last_page_url":"https://videocdn.tv/api/short?limit=100&api_token=EnbO9h8pv1VyjbCJhg0WM9nG259n7mtz&cache31372=31372&page=728","next_page_url":null,"path":"https://videocdn.tv/api/short","per_page":100,"prev_page_url":"https://videocdn.tv/api/short?limit=100&api_token=EnbO9h8pv1VyjbCJhg0WM9nG259n7mtz&cache31372=31372&page=1371","to":137120,"total":72724}