{"result":true,"data":[{"id":44620,"title":"Повесть об одном сне","kp_id":"743519","imdb_id":"tt2267554","world_art_id":null,"type":"movie","add":"2020-10-20 06:56:31","orig_title":"The Wanting Mare","year":"2020-05-22","translations":["Любительский (многоголосый закадровый) (@MUZOBOZ@)"],"quality":"webdl","translation":"Любительский (многоголосый закадровый) (@MUZOBOZ@)","update":"2020-10-20 12:37:35","iframe_src":"//7923.svetacdn.in/si4jsFRrtgrT/movie/44620"},{"id":44619,"title":"Правда выйдет наружу","kp_id":"1217396","imdb_id":"tt9371362","world_art_id":null,"type":"movie","add":"2020-10-20 06:54:38","orig_title":"The Truth Will Out","year":"2020-01-12","translations":["Любительский (многоголосый закадровый) (Синема УС)"],"quality":"webdl","translation":"Любительский (многоголосый закадровый) (Синема УС)","update":"2020-10-20 10:58:05","iframe_src":"//7923.svetacdn.in/si4jsFRrtgrT/movie/44619"},{"id":44617,"title":"Глубоководные","kp_id":"1341344","imdb_id":"tt11548850","world_art_id":null,"type":"movie","add":"2020-10-20 06:48:22","orig_title":"The Deep Ones","year":"2020-09-24","translations":["Любительский (многоголосый закадровый) (Синема УС)"],"quality":"webdl","translation":"Любительский (многоголосый закадровый) (Синема УС)","update":"2020-10-20 10:57:44","iframe_src":"//7923.svetacdn.in/si4jsFRrtgrT/movie/44617"},{"id":44614,"title":"Резня в Рэдвуде: Уничтожение","kp_id":"1273964","imdb_id":"tt10473312","world_art_id":null,"type":"movie","add":"2020-10-20 06:28:21","orig_title":"Redwood Massacre: Annihilation","year":"2020-10-20","translations":["Любительский (многоголосый закадровый) (@MUZOBOZ@)"],"quality":"webdl","translation":"Любительский (многоголосый закадровый) (@MUZOBOZ@)","update":"2020-10-20 10:53:11","iframe_src":"//7923.svetacdn.in/si4jsFRrtgrT/movie/44614"},{"id":44611,"title":"Клоунсплуатация","kp_id":"1099183","imdb_id":"tt7583042","world_art_id":null,"type":"movie","add":"2020-10-20 06:19:01","orig_title":"Clownsploitation","year":"2018-06-28","translations":["Любительский (многоголосый закадровый) (Синема УС)"],"quality":"webdl","translation":"Любительский (многоголосый закадровый) (Синема УС)","update":"2020-10-20 09:41:20","iframe_src":"//7923.svetacdn.in/si4jsFRrtgrT/movie/44611"},{"id":44608,"title":"Пляжники","kp_id":"1113856","imdb_id":"tt7882104","world_art_id":null,"type":"movie","add":"2020-10-19 20:18:30","orig_title":"Os Farofeiros","year":"2018-03-08","translations":["Любительский (двухголосый закадровый) (Колобок)"],"quality":"webdl","translation":"Любительский (двухголосый закадровый) (Колобок)","update":"2020-10-20 09:31:38","iframe_src":"//7923.svetacdn.in/si4jsFRrtgrT/movie/44608"},{"id":44521,"title":"Путешествие на Луну","kp_id":"185281","imdb_id":"tt0000417","world_art_id":null,"type":"movie","add":"2020-10-16 21:39:58","orig_title":"Le voyage dans la lune","year":"1902-09-01","translations":["Любительский (одноголосый закадровый)"],"quality":"bd","translation":"Любительский (одноголосый закадровый)","update":"2020-10-20 11:54:55","iframe_src":"//7923.svetacdn.in/si4jsFRrtgrT/movie/44521"},{"id":44518,"title":"У дьявола есть имя","kp_id":"1112346","imdb_id":"tt7894510","world_art_id":null,"type":"movie","add":"2020-10-16 18:28:29","orig_title":"The Devil Has a Name","year":"2019-08-04","translations":["Любительский (многоголосый закадровый) (@MUZOBOZ@)"],"quality":"webdl","translation":"Любительский (многоголосый закадровый) (@MUZOBOZ@)","update":"2020-10-20 11:53:26","iframe_src":"//7923.svetacdn.in/si4jsFRrtgrT/movie/44518"},{"id":44481,"title":"Проявление","kp_id":"1111859","imdb_id":null,"world_art_id":null,"type":"movie","add":"2020-10-16 07:40:57","orig_title":"Проявление","year":"2018-01-01","translations":["Оригинальная дорожка"],"quality":"webdl","translation":"Оригинальная дорожка","update":"2020-10-20 13:03:37","iframe_src":"//7923.svetacdn.in/si4jsFRrtgrT/movie/44481"},{"id":44383,"title":"Бигфут: Тропа зверя","kp_id":"1314458","imdb_id":"tt11151696","world_art_id":null,"type":"movie","add":"2020-10-13 12:22:31","orig_title":"Bigfoot: Path of the Beast","year":"2020-01-01","translations":["Original (English)","Любительский (многоголосый закадровый) (Синема УС)"],"quality":"webdl","translation":"Original (English)","update":"2020-10-20 09:40:08","iframe_src":"//7923.svetacdn.in/si4jsFRrtgrT/movie/44383"},{"id":43532,"title":"Нарцисс и Златоуст","kp_id":"1193008","imdb_id":"tt9014656","world_art_id":null,"type":"movie","add":"2020-09-14 19:00:40","orig_title":"Narziss und Goldmund","year":"2020-03-02","translations":["Профессиональный (многоголосый закадровый)","Профессиональный (многоголосый закадровый) (iTunes)"],"quality":"bd","translation":"Профессиональный (многоголосый закадровый)","update":"2020-10-20 13:06:00","iframe_src":"//7923.svetacdn.in/si4jsFRrtgrT/movie/43532"},{"id":43449,"title":"Девушка грез","kp_id":"1239908","imdb_id":"tt9731360","world_art_id":null,"type":"movie","add":"2020-09-12 19:41:52","orig_title":"I Met a Girl","year":"2020-09-11","translations":["Любительский (многоголосый закадровый) (@MUZOBOZ@)","Профессиональный (многоголосый закадровый) (iTunes)"],"quality":"webdl","translation":"Любительский (многоголосый закадровый) (@MUZOBOZ@)","update":"2020-10-20 13:07:23","iframe_src":"//7923.svetacdn.in/si4jsFRrtgrT/movie/43449"},{"id":43084,"title":"Девушка с браслетом","kp_id":"1328104","imdb_id":"tt7766886","world_art_id":null,"type":"movie","add":"2020-09-04 19:49:13","orig_title":"La fille au bracelet","year":"2019-08-08","translations":["Любительский (многоголосый закадровый) (@MUZOBOZ@)","Полное дублирование (iTunes)"],"quality":"webdl","translation":"Любительский (многоголосый закадровый) (@MUZOBOZ@)","update":"2020-10-20 13:04:56","iframe_src":"//7923.svetacdn.in/si4jsFRrtgrT/movie/43084"},{"id":41856,"title":"На слом!","kp_id":"1283","imdb_id":"tt0061089","world_art_id":null,"type":"movie","add":"2020-07-18 10:37:10","orig_title":"This Property Is Condemned","year":"1966-06-17","translations":["Профессиональный (многоголосый закадровый) (Paramount Channel)","Original (English)"],"quality":"webdl","translation":"Профессиональный (многоголосый закадровый) (Paramount Channel)","update":"2020-10-20 08:44:29","iframe_src":"//7923.svetacdn.in/si4jsFRrtgrT/movie/41856"},{"id":41855,"title":"Правящий класс","kp_id":"10148","imdb_id":"tt0069198","world_art_id":null,"type":"movie","add":"2020-07-18 10:36:13","orig_title":"The Ruling Class","year":"1972-05-10","translations":["Профессиональный (многоголосый закадровый) (5-й канал СПб)","Original (English)"],"quality":"webdl","translation":"Профессиональный (многоголосый закадровый) (5-й канал СПб)","update":"2020-10-20 08:43:20","iframe_src":"//7923.svetacdn.in/si4jsFRrtgrT/movie/41855"},{"id":41846,"title":"Эпилог","kp_id":"94202","imdb_id":"tt0243664","world_art_id":null,"type":"movie","add":"2020-07-18 10:20:37","orig_title":"Wit","year":"2001-02-09","translations":["Профессиональный (двухголосый закадровый) (НТВ)","Original (English)"],"quality":"webdl","translation":"Профессиональный (двухголосый закадровый) (НТВ)","update":"2020-10-20 08:45:49","iframe_src":"//7923.svetacdn.in/si4jsFRrtgrT/movie/41846"},{"id":41836,"title":"Последний блицкриг","kp_id":"29624","imdb_id":"tt0051844","world_art_id":null,"type":"movie","add":"2020-07-18 10:07:40","orig_title":"The Last Blitzkrieg","year":"1959-01-30","translations":["Авторский (одноголосый закадровый) (Рутилов Виктор | fiendover | overfiend)","Original (English)"],"quality":"webdl","translation":"Авторский (одноголосый закадровый) (Рутилов Виктор | fiendover | overfiend)","update":"2020-10-20 08:40:26","iframe_src":"//7923.svetacdn.in/si4jsFRrtgrT/movie/41836"},{"id":40875,"title":"Конец романа","kp_id":"8748","imdb_id":"tt0048034","world_art_id":null,"type":"movie","add":"2020-06-02 07:26:59","orig_title":"The End of the Affair","year":"1955-02-24","translations":["Любительский (одноголосый закадровый)","Original (English)"],"quality":"webdl","translation":"Любительский (одноголосый закадровый)","update":"2020-10-20 08:18:51","iframe_src":"//7923.svetacdn.in/si4jsFRrtgrT/movie/40875"},{"id":37414,"title":"Есфирь Прекрасная","kp_id":"230365","imdb_id":"tt0168331","world_art_id":null,"type":"movie","add":"2020-03-05 07:44:24","orig_title":"Esther","year":"1999-03-29","translations":["Профессиональный (многоголосый закадровый)","Профессиональный (многоголосый закадровый)","Original (English)"],"quality":"dvdrip","translation":"Профессиональный (многоголосый закадровый)","update":"2020-10-20 08:18:06","iframe_src":"//7923.svetacdn.in/si4jsFRrtgrT/movie/37414"},{"id":34524,"title":"Убийство Николь Браун Симпсон","kp_id":"1139706","imdb_id":"tt8415352","world_art_id":null,"type":"movie","add":"2019-12-27 17:36:20","orig_title":"The Murder of Nicole Brown Simpson","year":"2019-12-09","translations":["Любительский (многоголосый закадровый) (Синема УС)","Профессиональный (многоголосый закадровый) (iTunes)","Original (English)"],"quality":"webdl","translation":"Любительский (многоголосый закадровый) (Синема УС)","update":"2020-10-20 08:42:12","iframe_src":"//7923.svetacdn.in/si4jsFRrtgrT/movie/34524"},{"id":926,"title":"Следователь Тихонов","kp_id":"841288","imdb_id":"tt6318446","world_art_id":null,"type":"serial","add":"2017-01-23 06:34:17","orig_title":"Sledovatel Tikhonov","year":"2016-04-11","translations":["Оригинальная дорожка"],"seasons_count":1,"episodes_count":20,"episodes":20,"update":"2017-01-23 11:20:37","iframe_src":"//7923.svetacdn.in/si4jsFRrtgrT/tv-series/926"},{"id":925,"title":"Запах лаванды","kp_id":"976655","imdb_id":null,"world_art_id":null,"type":"serial","add":"2017-01-23 06:30:29","orig_title":"Запах лаванды","year":"2016-05-21","translations":["Оригинальная дорожка"],"seasons_count":1,"episodes_count":2,"episodes":2,"update":"2017-01-23 10:43:20","iframe_src":"//7923.svetacdn.in/si4jsFRrtgrT/tv-series/925"},{"id":919,"title":"Любовницы","kp_id":"674032","imdb_id":"tt2295809","world_art_id":null,"type":"serial","add":"2017-01-22 17:04:42","orig_title":"Mistresses","year":"2013-03-05","translations":[],"seasons_count":4,"episodes_count":52,"episodes":13,"update":"2017-01-23 11:15:57","iframe_src":"//7923.svetacdn.in/si4jsFRrtgrT/tv-series/919"},{"id":912,"title":"Кулинар 2","kp_id":"766642","imdb_id":null,"world_art_id":null,"type":"serial","add":"2017-01-20 06:47:09","orig_title":"Кулинар 2","year":"2013-12-02","translations":["Оригинальная дорожка"],"seasons_count":1,"episodes_count":20,"episodes":20,"update":"2017-01-20 11:42:36","iframe_src":"//7923.svetacdn.in/si4jsFRrtgrT/tv-series/912"},{"id":910,"title":"Своя чужая","kp_id":"837756","imdb_id":"tt4976578","world_art_id":null,"type":"serial","add":"2017-01-20 06:22:02","orig_title":"Svoya chuzhaya","year":"2015-06-06","translations":["Оригинальная дорожка"],"seasons_count":1,"episodes_count":16,"episodes":16,"update":"2017-01-20 10:43:24","iframe_src":"//7923.svetacdn.in/si4jsFRrtgrT/tv-series/910"},{"id":908,"title":"Призрак уездного театра","kp_id":"976622","imdb_id":null,"world_art_id":null,"type":"serial","add":"2017-01-20 06:10:41","orig_title":"Призрак уездного театра","year":"2016-05-21","translations":["Оригинальная дорожка"],"seasons_count":1,"episodes_count":4,"episodes":4,"update":"2017-01-20 10:19:48","iframe_src":"//7923.svetacdn.in/si4jsFRrtgrT/tv-series/908"},{"id":907,"title":"Дурная слава","kp_id":"968263","imdb_id":"tt5519574","world_art_id":null,"type":"serial","add":"2017-01-19 12:26:28","orig_title":"Notorious","year":"2016-09-22","translations":["Профессиональный (многоголосый закадровый) (NewStudio)"],"seasons_count":1,"episodes_count":10,"episodes":10,"update":"2017-01-20 07:26:26","iframe_src":"//7923.svetacdn.in/si4jsFRrtgrT/tv-series/907"},{"id":906,"title":"Перезапись","kp_id":"991685","imdb_id":"tt5683292","world_art_id":null,"type":"serial","add":"2017-01-19 11:55:34","orig_title":"Rewrite","year":"2016-07-02","translations":["Любительский (двухголосый закадровый) (AniLibria.TV)"],"seasons_count":1,"episodes_count":13,"episodes":13,"update":"2017-01-20 08:03:14","iframe_src":"//7923.svetacdn.in/si4jsFRrtgrT/tv-series/906"},{"id":905,"title":"Скиталец Эндры","kp_id":"996309","imdb_id":"tt5877116","world_art_id":null,"type":"serial","add":"2017-01-19 11:38:00","orig_title":"Endride","year":"2016-04-02","translations":["Любительский (многоголосый закадровый)"],"seasons_count":1,"episodes_count":24,"episodes":24,"update":"2017-01-19 15:17:52","iframe_src":"//7923.svetacdn.in/si4jsFRrtgrT/tv-series/905"},{"id":904,"title":"Два плюс два","kp_id":"933229","imdb_id":"tt5923660","world_art_id":null,"type":"serial","add":"2017-01-19 10:35:23","orig_title":"Dva plyus dva","year":"2015-09-27","translations":["Оригинальная дорожка"],"seasons_count":1,"episodes_count":4,"episodes":4,"update":"2017-01-19 13:57:23","iframe_src":"//7923.svetacdn.in/si4jsFRrtgrT/tv-series/904"},{"id":901,"title":"Клуб самоубийц, или Приключения титулованной особы","kp_id":"81474","imdb_id":"tt0079750","world_art_id":null,"type":"serial","add":"2017-01-19 07:17:54","orig_title":"Priklyucheniya printsa Florizelya","year":"1981-01-12","translations":["Оригинальная дорожка"],"seasons_count":1,"episodes_count":3,"episodes":3,"update":"2017-01-23 11:38:37","iframe_src":"//7923.svetacdn.in/si4jsFRrtgrT/tv-series/901"},{"id":900,"title":"Бригада","kp_id":"77039","imdb_id":"tt0337898","world_art_id":null,"type":"serial","add":"2017-01-19 05:55:06","orig_title":"Brigada","year":"2002-09-23","translations":["Оригинальная дорожка"],"seasons_count":1,"episodes_count":15,"episodes":15,"update":"2017-01-23 07:44:12","iframe_src":"//7923.svetacdn.in/si4jsFRrtgrT/tv-series/900"},{"id":899,"title":"Гордость и предубеждение","kp_id":"89518","imdb_id":"tt0112130","world_art_id":null,"type":"serial","add":"2017-01-18 11:53:01","orig_title":"Pride and Prejudice","year":"1995-09-24","translations":["Профессиональный (многоголосый закадровый)"],"seasons_count":1,"episodes_count":6,"episodes":6,"update":"2017-01-19 07:07:24","iframe_src":"//7923.svetacdn.in/si4jsFRrtgrT/tv-series/899"},{"id":898,"title":"Гадкий Я: Мини-фильмы. Миньоны","kp_id":"653704","imdb_id":"tt2129997","world_art_id":null,"type":"serial","add":"2017-01-18 11:39:38","orig_title":"Despicable Me: Minion Madness","year":"2010-12-14","translations":["Профессиональный (двухголосый закадровый)"],"seasons_count":2,"episodes_count":5,"episodes":2,"update":"2017-01-19 06:59:32","iframe_src":"//7923.svetacdn.in/si4jsFRrtgrT/tv-series/898"},{"id":847,"title":"Вы все меня бесите","kp_id":"968843","imdb_id":"tt5886364","world_art_id":null,"type":"serial","add":"2017-01-09 18:10:34","orig_title":"Вы все меня бесите","year":"2017-01-09","translations":["Оригинальная дорожка"],"seasons_count":1,"episodes_count":20,"episodes":20,"update":"2017-01-19 08:49:04","iframe_src":"//7923.svetacdn.in/si4jsFRrtgrT/tv-series/847"},{"id":625,"title":"Завтра не наступит","kp_id":"972037","imdb_id":"tt5595688","world_art_id":null,"type":"serial","add":"2016-11-25 04:21:40","orig_title":"No Tomorrow","year":"2016-10-04","translations":["Профессиональный (многоголосый закадровый) (ColdFilm)"],"seasons_count":1,"episodes_count":13,"episodes":13,"update":"2017-01-19 11:39:36","iframe_src":"//7923.svetacdn.in/si4jsFRrtgrT/tv-series/625"},{"id":521,"title":"Дедушка","kp_id":"984274","imdb_id":"tt5923532","world_art_id":null,"type":"serial","add":"2016-10-09 10:39:14","orig_title":"Dedushka","year":"2016-10-07","translations":["Оригинальная дорожка"],"seasons_count":1,"episodes_count":1,"episodes":1,"update":"2017-01-19 13:51:53","iframe_src":"//7923.svetacdn.in/si4jsFRrtgrT/tv-series/521"},{"id":518,"title":"Давайте познакомимся","kp_id":"1002691","imdb_id":null,"world_art_id":null,"type":"serial","add":"2016-10-07 09:13:43","orig_title":"Давайте познакомимся","year":"2016-09-30","translations":["Оригинальная дорожка"],"seasons_count":1,"episodes_count":1,"episodes":1,"update":"2017-01-20 07:10:53","iframe_src":"//7923.svetacdn.in/si4jsFRrtgrT/tv-series/518"},{"id":405,"title":"Раненое сердце","kp_id":"998773","imdb_id":null,"world_art_id":null,"type":"serial","add":"2016-09-04 13:31:10","orig_title":"Раненое сердце","year":"2016-09-18","translations":["Оригинальная дорожка"],"seasons_count":1,"episodes_count":4,"episodes":4,"update":"2017-01-20 11:23:17","iframe_src":"//7923.svetacdn.in/si4jsFRrtgrT/tv-series/405"},{"id":401,"title":"Слишком близко к дому","kp_id":"991701","imdb_id":"tt5596646","world_art_id":null,"type":"serial","add":"2016-09-04 11:45:14","orig_title":"Too Close to Home","year":"2016-08-22","translations":["Профессиональный (многоголосый закадровый) (BaibaKo)","Профессиональный (многоголосый закадровый) (HDrezka Studio)","Профессиональный (многоголосый закадровый) (HDrezka Studio 18+)"],"seasons_count":1,"episodes_count":8,"episodes":8,"update":"2017-01-22 10:31:34","iframe_src":"//7923.svetacdn.in/si4jsFRrtgrT/tv-series/401"}],"current_page":519,"first_page_url":"https://videocdn.tv/api/short?limit=100&api_token=X6EwAUfE5M9xbo7y0Bp0aPf3uXxG2KLL&cache3519=3519&page=1","from":51801,"last_page":644,"last_page_url":"https://videocdn.tv/api/short?limit=100&api_token=X6EwAUfE5M9xbo7y0Bp0aPf3uXxG2KLL&cache3519=3519&page=644","next_page_url":"https://videocdn.tv/api/short?limit=100&api_token=X6EwAUfE5M9xbo7y0Bp0aPf3uXxG2KLL&cache3519=3519&page=520","path":"https://videocdn.tv/api/short","per_page":100,"prev_page_url":"https://videocdn.tv/api/short?limit=100&api_token=X6EwAUfE5M9xbo7y0Bp0aPf3uXxG2KLL&cache3519=3519&page=518","to":51840,"total":64307}