{"result":true,"data":[{"id":44978,"title":"Тьма в доме 45","kp_id":"1066417","imdb_id":"tt6806766","world_art_id":null,"type":"movie","add":"2020-11-02 21:39:32","orig_title":"Darkness in Tenement 45","year":"2020-04-27","translations":["Любительский (многоголосый закадровый) (@MUZOBOZ@)"],"quality":"webdl","translation":"Любительский (многоголосый закадровый) (@MUZOBOZ@)","update":"2020-11-03 05:12:50","iframe_src":"//8543.svetacdn.in/71tsRs29n5tZ/movie/44978"},{"id":44977,"title":"Уиттлер","kp_id":"1347841","imdb_id":"tt11713524","world_art_id":null,"type":"movie","add":"2020-11-02 21:16:06","orig_title":"The Whittler","year":"2020-10-16","translations":["Любительский (многоголосый закадровый) (@MUZOBOZ@)"],"quality":"webdl","translation":"Любительский (многоголосый закадровый) (@MUZOBOZ@)","update":"2020-11-03 05:14:09","iframe_src":"//8543.svetacdn.in/71tsRs29n5tZ/movie/44977"},{"id":44973,"title":"Ханна Д. — Девушка из парка Вондела","kp_id":"222358","imdb_id":"tt0089251","world_art_id":null,"type":"movie","add":"2020-11-02 19:15:01","orig_title":"Hanna D. - La ragazza del Vondel Park","year":"1984-11-02","translations":["Любительский (одноголосый закадровый) (Horror Maker)"],"quality":"dvdrip","translation":"Любительский (одноголосый закадровый) (Horror Maker)","update":"2020-11-02 22:10:02","iframe_src":"//8543.svetacdn.in/71tsRs29n5tZ/movie/44973"},{"id":44971,"title":"\"Прощальная пьеса Мэдеи\" Тайлера Перри","kp_id":"1406211","imdb_id":"tt12682144","world_art_id":null,"type":"movie","add":"2020-11-02 19:10:20","orig_title":"Tyler Perry's Madea's Farewell Play","year":"2020-08-27","translations":["Любительский (многоголосый закадровый) (Синема УС)"],"quality":"webdl","translation":"Любительский (многоголосый закадровый) (Синема УС)","update":"2020-11-03 05:27:00","iframe_src":"//8543.svetacdn.in/71tsRs29n5tZ/movie/44971"},{"id":44962,"title":"Молчать до конца","kp_id":"1282928","imdb_id":"tt10539230","world_art_id":null,"type":"movie","add":"2020-11-02 17:55:54","orig_title":"Totgeschwiegen","year":"2019-07-04","translations":["Любительский (многоголосый закадровый) (AlphaProject)"],"quality":"webdl","translation":"Любительский (многоголосый закадровый) (AlphaProject)","update":"2020-11-02 20:41:08","iframe_src":"//8543.svetacdn.in/71tsRs29n5tZ/movie/44962"},{"id":44961,"title":"Настоящая Северная Корея","kp_id":"1424988","imdb_id":"tt12354974","world_art_id":null,"type":"movie","add":"2020-11-02 17:54:04","orig_title":"True North","year":"2020-06-15","translations":["Любительский (двухголосый закадровый) (Колобок)"],"quality":"ts","translation":"Любительский (двухголосый закадровый) (Колобок)","update":"2020-11-02 20:41:27","iframe_src":"//8543.svetacdn.in/71tsRs29n5tZ/movie/44961"},{"id":44958,"title":"Наследие","kp_id":"1211914","imdb_id":"tt9292002","world_art_id":null,"type":"movie","add":"2020-11-02 17:45:52","orig_title":"Jaeger","year":"2020-10-04","translations":["Любительский (многоголосый закадровый) (Синема УС)"],"quality":"webdl","translation":"Любительский (многоголосый закадровый) (Синема УС)","update":"2020-11-02 20:42:22","iframe_src":"//8543.svetacdn.in/71tsRs29n5tZ/movie/44958"},{"id":44957,"title":"Поцелуй Иуды","kp_id":"417450","imdb_id":"tt1242642","world_art_id":null,"type":"movie","add":"2020-11-02 16:15:50","orig_title":"Judas Kiss","year":"2011-04-01","translations":["Любительский (многоголосый закадровый)"],"quality":"bd","translation":"Любительский (многоголосый закадровый)","update":"2020-11-02 19:31:24","iframe_src":"//8543.svetacdn.in/71tsRs29n5tZ/movie/44957"},{"id":44956,"title":"Король Генрих V","kp_id":"8392","imdb_id":"tt0036910","world_art_id":null,"type":"movie","add":"2020-11-02 16:11:21","orig_title":"The Chronicle History of King Henry the Fifth with His Battell Fought at Agincourt in France","year":"1944-11-22","translations":["Профессиональный (многоголосый закадровый) (SomeWax)"],"quality":"bd","translation":"Профессиональный (многоголосый закадровый) (SomeWax)","update":"2020-11-02 22:32:23","iframe_src":"//8543.svetacdn.in/71tsRs29n5tZ/movie/44956"},{"id":44955,"title":"Опасная территория","kp_id":"2295","imdb_id":"tt0090836","world_art_id":null,"type":"movie","add":"2020-11-02 16:09:08","orig_title":"Choke Canyon","year":"1986-05-02","translations":["Полное дублирование (Варус-Видео)"],"quality":"dvdrip","translation":"Полное дублирование (Варус-Видео)","update":"2020-11-03 05:29:14","iframe_src":"//8543.svetacdn.in/71tsRs29n5tZ/movie/44955"},{"id":44954,"title":"Убийственная вечеринка","kp_id":"276233","imdb_id":"tt0878695","world_art_id":null,"type":"movie","add":"2020-11-02 15:38:42","orig_title":"Murder Party","year":"2007-01-21","translations":["Профессиональный (многоголосый закадровый) (ТВ3)","Профессиональный (двухголосый закадровый)"],"quality":"dvdrip","translation":"Профессиональный (многоголосый закадровый) (ТВ3)","update":"2020-11-03 05:34:19","iframe_src":"//8543.svetacdn.in/71tsRs29n5tZ/movie/44954"},{"id":44953,"title":"Я сейчас вру","kp_id":"1076638","imdb_id":"tt7422258","world_art_id":null,"type":"movie","add":"2020-11-02 13:40:09","orig_title":"Ja teraz klamie","year":"2019-05-31","translations":["Любительский (многоголосый закадровый) (AlphaProject)"],"quality":"webdl","translation":"Любительский (многоголосый закадровый) (AlphaProject)","update":"2020-11-02 19:39:28","iframe_src":"//8543.svetacdn.in/71tsRs29n5tZ/movie/44953"},{"id":44952,"title":"Клетка для чудаков 3","kp_id":"37709","imdb_id":"tt0088873","world_art_id":null,"type":"movie","add":"2020-11-02 12:33:46","orig_title":"La cage aux folles III: 'Elles' se marient","year":"1985-11-20","translations":["Авторский (одноголосый закадровый) (Козлов Сергей)","Профессиональный (многоголосый закадровый) (Русский дубляж)"],"quality":"dvdrip","translation":"Авторский (одноголосый закадровый) (Козлов Сергей)","update":"2020-11-03 05:41:23","iframe_src":"//8543.svetacdn.in/71tsRs29n5tZ/movie/44952"},{"id":44951,"title":"Заходи — я живу у подруги","kp_id":"123449","imdb_id":"tt0083287","world_art_id":null,"type":"movie","add":"2020-11-02 12:16:19","orig_title":"Viens chez moi, j'habite chez une copine","year":"1981-01-28","translations":["Авторский (одноголосый закадровый) (Янкелевич Роман)"],"quality":"bd","translation":"Авторский (одноголосый закадровый) (Янкелевич Роман)","update":"2020-11-03 05:38:07","iframe_src":"//8543.svetacdn.in/71tsRs29n5tZ/movie/44951"},{"id":44950,"title":"Впереди — переправы","kp_id":"26970","imdb_id":"tt0048350","world_art_id":null,"type":"movie","add":"2020-11-02 12:06:42","orig_title":"Many Rivers to Cross","year":"1955-02-04","translations":["Любительский (одноголосый закадровый)"],"quality":"dvdrip","translation":"Любительский (одноголосый закадровый)","update":"2020-11-03 05:30:21","iframe_src":"//8543.svetacdn.in/71tsRs29n5tZ/movie/44950"},{"id":44949,"title":"Дядя Ваня","kp_id":"1412484","imdb_id":"tt13299678","world_art_id":null,"type":"movie","add":"2020-11-02 10:52:26","orig_title":"Uncle Vanya","year":"2020-10-27","translations":["Original (English)"],"quality":"ts","translation":"Original (English)","update":"2020-11-02 16:37:01","iframe_src":"//8543.svetacdn.in/71tsRs29n5tZ/movie/44949"},{"id":5190,"title":"Грозовой перевал","kp_id":"415287","imdb_id":"tt1238834","world_art_id":null,"type":"serial","add":"2019-09-12 11:23:40","orig_title":"Wuthering Heights","year":"2009-01-18","translations":["Профессиональный (многоголосый закадровый)"],"seasons_count":1,"episodes_count":2,"episodes":2,"update":"2019-09-12 16:27:18","iframe_src":"//8543.svetacdn.in/71tsRs29n5tZ/tv-series/5190"},{"id":5182,"title":"Возвращение Мухтара 3","kp_id":"468791","imdb_id":"tt3973886","world_art_id":null,"type":"serial","add":"2019-09-10 20:03:20","orig_title":"Возвращение Мухтара 3","year":"2006-01-01","translations":["Оригинальная дорожка"],"seasons_count":1,"episodes_count":100,"episodes":100,"update":"2019-09-11 18:53:44","iframe_src":"//8543.svetacdn.in/71tsRs29n5tZ/tv-series/5182"},{"id":5181,"title":"Блэкпул","kp_id":"277566","imdb_id":"tt0408375","world_art_id":null,"type":"serial","add":"2019-09-10 11:17:49","orig_title":"Blackpool","year":"2004-11-11","translations":["Любительский (одноголосый закадровый)"],"seasons_count":1,"episodes_count":6,"episodes":6,"update":"2019-09-10 15:40:24","iframe_src":"//8543.svetacdn.in/71tsRs29n5tZ/tv-series/5181"},{"id":5179,"title":"Московский романс","kp_id":"1272221","imdb_id":null,"world_art_id":null,"type":"serial","add":"2019-09-10 11:10:46","orig_title":"Московский романс","year":"2019-09-06","translations":["Оригинальная дорожка"],"seasons_count":1,"episodes_count":2,"episodes":2,"update":"2019-09-10 15:37:34","iframe_src":"//8543.svetacdn.in/71tsRs29n5tZ/tv-series/5179"},{"id":5174,"title":"Дороги Индии","kp_id":"441286","imdb_id":"tt1360961","world_art_id":null,"type":"serial","add":"2019-09-10 05:57:02","orig_title":"Caminho das Índias","year":"2009-01-19","translations":["Профессиональный (многоголосый закадровый)"],"seasons_count":1,"episodes_count":160,"episodes":160,"update":"2019-09-12 13:08:20","iframe_src":"//8543.svetacdn.in/71tsRs29n5tZ/tv-series/5174"},{"id":5172,"title":"Случайная невеста","kp_id":"1178195","imdb_id":null,"world_art_id":null,"type":"serial","add":"2019-09-10 05:04:49","orig_title":"Случайная невеста","year":"2018-08-08","translations":["Оригинальная дорожка"],"seasons_count":1,"episodes_count":4,"episodes":4,"update":"2019-09-12 11:59:39","iframe_src":"//8543.svetacdn.in/71tsRs29n5tZ/tv-series/5172"},{"id":5171,"title":"Правило боя","kp_id":"969101","imdb_id":"tt5511146","world_art_id":null,"type":"serial","add":"2019-09-10 05:01:19","orig_title":"Pravilo boya","year":"2017-01-26","translations":["Оригинальная дорожка"],"seasons_count":1,"episodes_count":4,"episodes":4,"update":"2019-09-12 11:56:03","iframe_src":"//8543.svetacdn.in/71tsRs29n5tZ/tv-series/5171"},{"id":5170,"title":"Наступит рассвет","kp_id":"1049375","imdb_id":null,"world_art_id":null,"type":"serial","add":"2019-09-10 04:58:06","orig_title":"Наступит рассвет","year":"2017-09-30","translations":["Оригинальная дорожка"],"seasons_count":1,"episodes_count":4,"episodes":4,"update":"2019-09-12 11:51:54","iframe_src":"//8543.svetacdn.in/71tsRs29n5tZ/tv-series/5170"},{"id":5166,"title":"В поисках истины","kp_id":"419545","imdb_id":"tt0179699","world_art_id":null,"type":"serial","add":"2019-09-09 19:29:39","orig_title":"Cambio de piel","year":"1998-01-01","translations":["Профессиональный (двухголосый закадровый)"],"seasons_count":1,"episodes_count":110,"episodes":110,"update":"2019-09-11 11:12:01","iframe_src":"//8543.svetacdn.in/71tsRs29n5tZ/tv-series/5166"},{"id":5164,"title":"Кассандра","kp_id":"416312","imdb_id":"tt0270789","world_art_id":null,"type":"serial","add":"2019-09-08 22:42:02","orig_title":"Kassandra","year":"1992-10-08","translations":["Профессиональный (двухголосый закадровый)","Профессиональный (многоголосый закадровый)"],"seasons_count":1,"episodes_count":150,"episodes":150,"update":"2019-09-12 14:40:33","iframe_src":"//8543.svetacdn.in/71tsRs29n5tZ/tv-series/5164"},{"id":5161,"title":"Другая я","kp_id":"1118209","imdb_id":null,"world_art_id":null,"type":"serial","add":"2019-09-07 07:08:10","orig_title":"Другая я","year":"2018-04-28","translations":["Оригинальная дорожка"],"seasons_count":1,"episodes_count":4,"episodes":4,"update":"2019-09-12 11:47:47","iframe_src":"//8543.svetacdn.in/71tsRs29n5tZ/tv-series/5161"},{"id":5157,"title":"Возвращение Мухтара 2","kp_id":"425069","imdb_id":"tt4024266","world_art_id":null,"type":"serial","add":"2019-09-06 21:22:54","orig_title":"Vozvrashchenie Mukhtara 2","year":"2005-01-01","translations":["Оригинальная дорожка"],"seasons_count":1,"episodes_count":50,"episodes":50,"update":"2019-09-10 12:08:21","iframe_src":"//8543.svetacdn.in/71tsRs29n5tZ/tv-series/5157"},{"id":5156,"title":"Возвращение Мухтара","kp_id":"325796","imdb_id":"tt0959425","world_art_id":null,"type":"serial","add":"2019-09-06 21:16:38","orig_title":"Vozvrashchenie Mukhtara","year":"2003-01-01","translations":["Оригинальная дорожка"],"seasons_count":1,"episodes_count":40,"episodes":40,"update":"2019-09-10 11:38:34","iframe_src":"//8543.svetacdn.in/71tsRs29n5tZ/tv-series/5156"},{"id":5152,"title":"Пророк","kp_id":"433615","imdb_id":"tt0840931","world_art_id":null,"type":"serial","add":"2019-09-06 06:48:30","orig_title":"O Profeta","year":"2006-10-16","translations":["Профессиональный (многоголосый закадровый)"],"seasons_count":1,"episodes_count":110,"episodes":110,"update":"2019-09-10 10:40:35","iframe_src":"//8543.svetacdn.in/71tsRs29n5tZ/tv-series/5152"},{"id":5054,"title":"Игры ключей","kp_id":"1245696","imdb_id":"tt9863788","world_art_id":null,"type":"serial","add":"2019-08-19 20:01:52","orig_title":"El Juego de las Llaves","year":"2019-08-16","translations":["Профессиональный (многоголосый закадровый) (IdeaFilm)","Профессиональный (многоголосый закадровый) (BaibaKo)"],"seasons_count":1,"episodes_count":10,"episodes":10,"update":"2019-09-10 19:07:27","iframe_src":"//8543.svetacdn.in/71tsRs29n5tZ/tv-series/5054"},{"id":4990,"title":"Шоу Шермана","kp_id":"1153386","imdb_id":"tt7422812","world_art_id":null,"type":"serial","add":"2019-08-02 10:21:32","orig_title":"Sherman's Showcase","year":"2019-07-31","translations":["Профессиональный (многоголосый закадровый) (IdeaFilm)"],"seasons_count":1,"episodes_count":7,"episodes":7,"update":"2019-09-10 12:38:44","iframe_src":"//8543.svetacdn.in/71tsRs29n5tZ/tv-series/4990"},{"id":4967,"title":"Врач Ё-хан","kp_id":"1255126","imdb_id":"tt10544464","world_art_id":null,"type":"serial","add":"2019-07-29 19:48:09","orig_title":"Uisa Yohan","year":"2019-07-19","translations":["Любительский (двухголосый закадровый) (SoftBox)"],"seasons_count":1,"episodes_count":16,"episodes":16,"update":"2019-09-10 15:36:00","iframe_src":"//8543.svetacdn.in/71tsRs29n5tZ/tv-series/4967"},{"id":4949,"title":"Родители 2","kp_id":"1254076","imdb_id":null,"world_art_id":null,"type":"serial","add":"2019-07-26 06:00:48","orig_title":"Родители 2","year":"2019-07-26","translations":["Оригинальная дорожка"],"seasons_count":1,"episodes_count":20,"episodes":20,"update":"2019-09-12 05:53:52","iframe_src":"//8543.svetacdn.in/71tsRs29n5tZ/tv-series/4949"},{"id":4694,"title":"Гранд Отель","kp_id":"1123486","imdb_id":"tt7671068","world_art_id":null,"type":"serial","add":"2019-06-18 07:54:48","orig_title":"Grand Hotel","year":"2019-06-17","translations":["Профессиональный (многоголосый закадровый) (LostFilm)"],"seasons_count":1,"episodes_count":13,"episodes":13,"update":"2019-09-12 05:52:30","iframe_src":"//8543.svetacdn.in/71tsRs29n5tZ/tv-series/4694"},{"id":7133,"title":"Призрак и Тьма","kp_id":"5815","imdb_id":"tt0116409","world_art_id":null,"type":"movie","add":"2016-11-07 14:00:00","orig_title":"The Ghost and the Darkness","year":"1996-10-11","translations":["Профессиональный (многоголосый закадровый)","Авторский (одноголосый закадровый) (Гаврилов Андрей)","Авторский (одноголосый закадровый) (Горчаков Василий)","Авторский (одноголосый закадровый) (Живов Юрий)","Original (English)","Профессиональный (двухголосый закадровый) (Lazer Video)","Профессиональный (двухголосый закадровый) (Первый канал | ОРТ)","Профессиональный (многоголосый закадровый)"],"quality":"bd","translation":"Профессиональный (многоголосый закадровый)","update":"2020-11-03 08:10:40","iframe_src":"//8543.svetacdn.in/71tsRs29n5tZ/movie/7133"},{"id":7131,"title":"Суровое испытание","kp_id":"3628","imdb_id":"tt0115988","world_art_id":null,"type":"movie","add":"2016-11-07 13:57:47","orig_title":"The Crucible","year":"1996-11-27","translations":["Профессиональный (многоголосый закадровый)","Original (English)","Профессиональный (многоголосый закадровый)","Профессиональный (многоголосый закадровый) (Первый канал | ОРТ)"],"quality":"hdtv","translation":"Профессиональный (многоголосый закадровый)","update":"2020-11-03 08:02:19","iframe_src":"//8543.svetacdn.in/71tsRs29n5tZ/movie/7131"},{"id":4392,"title":"Присяжная","kp_id":"16869","imdb_id":"tt0116731","world_art_id":null,"type":"movie","add":"2016-08-11 14:14:17","orig_title":"The Juror","year":"1996-01-29","translations":["Полное дублирование","Авторский (одноголосый закадровый) (Карцев Пётр)","Авторский (одноголосый закадровый) (Визгунов Сергей)","Полное дублирование","Original (English)","Профессиональный (многоголосый закадровый)","Профессиональный (многоголосый закадровый) (СТС)","Профессиональный (многоголосый закадровый) (Видеосервис)"],"quality":"webdl","translation":"Полное дублирование","update":"2020-11-03 08:19:06","iframe_src":"//8543.svetacdn.in/71tsRs29n5tZ/movie/4392"},{"id":3376,"title":"Очень плохая училка","kp_id":"465673","imdb_id":"tt1284575","world_art_id":null,"type":"movie","add":"2016-06-27 09:57:47","orig_title":"Bad Teacher","year":"2011-06-17","translations":["Полное дублирование","Авторский (одноголосый закадровый) (Матвеев Алексей | Doctor Joker)","Авторский (одноголосый закадровый) (Гоблин | Пучков Дмитрий)"],"quality":"bd","translation":"Полное дублирование","update":"2020-11-03 05:09:34","iframe_src":"//8543.svetacdn.in/71tsRs29n5tZ/movie/3376"},{"id":172,"title":"Юная","kp_id":"808208","imdb_id":"tt3288518","world_art_id":null,"type":"serial","add":"2016-06-10 04:17:05","orig_title":"Younger","year":"2015-02-24","translations":["Любительский (двухголосый закадровый) (Shadow Dub Project)","Любительский (многоголосый закадровый) (ColdFilm)","Профессиональный (многоголосый закадровый) (SET)","Профессиональный (многоголосый закадровый)","Профессиональный (многоголосый закадровый) (TVShows)"],"seasons_count":6,"episodes_count":72,"episodes":12,"update":"2019-09-09 15:10:00","iframe_src":"//8543.svetacdn.in/71tsRs29n5tZ/tv-series/172"}],"current_page":316,"first_page_url":"https://videocdn.tv/api/short?limit=100&api_token=EnbO9h8pv1VyjbCJhg0WM9nG259n7mtz&cache3316=3316&page=1","from":31501,"last_page":610,"last_page_url":"https://videocdn.tv/api/short?limit=100&api_token=EnbO9h8pv1VyjbCJhg0WM9nG259n7mtz&cache3316=3316&page=610","next_page_url":"https://videocdn.tv/api/short?limit=100&api_token=EnbO9h8pv1VyjbCJhg0WM9nG259n7mtz&cache3316=3316&page=317","path":"https://videocdn.tv/api/short","per_page":100,"prev_page_url":"https://videocdn.tv/api/short?limit=100&api_token=EnbO9h8pv1VyjbCJhg0WM9nG259n7mtz&cache3316=3316&page=315","to":31540,"total":60916}