{"result":true,"data":[{"id":52250,"title":"Мастер Маошаня","kp_id":null,"imdb_id":"tt14741186","world_art_id":null,"type":"movie","add":"2021-08-06 06:44:54","orig_title":"Maoshan Dashi","year":"2021-04-08","translations":["Любительский (двухголосый закадровый) (Колобок)"],"quality":"webdl","translation":"Любительский (двухголосый закадровый) (Колобок)","update":"2021-08-06 08:46:21","iframe_src":"//5091.svetacdn.in/71tsRs29n5tZ/movie/52250"},{"id":52249,"title":"Нэчжа","kp_id":"4309991","imdb_id":"tt13767804","world_art_id":null,"type":"movie","add":"2021-08-06 06:42:03","orig_title":"Chi Zha Feng Yun","year":"2021-01-15","translations":["Любительский (двухголосый закадровый) (Колобок)"],"quality":"webdl","translation":"Любительский (двухголосый закадровый) (Колобок)","update":"2021-08-06 08:47:12","iframe_src":"//5091.svetacdn.in/71tsRs29n5tZ/movie/52249"},{"id":52245,"title":"Маунт-Адамс","kp_id":"977123","imdb_id":"tt5518158","world_art_id":null,"type":"movie","add":"2021-08-06 06:35:00","orig_title":"Mount Adams","year":"2021-07-22","translations":["Любительский (многоголосый закадровый) (Синема УС)"],"quality":"webdl","translation":"Любительский (многоголосый закадровый) (Синема УС)","update":"2021-08-06 12:02:43","iframe_src":"//5091.svetacdn.in/71tsRs29n5tZ/movie/52245"},{"id":52244,"title":"Марфа","kp_id":"1266824","imdb_id":"tt10069166","world_art_id":null,"type":"movie","add":"2021-08-06 06:33:28","orig_title":"Marfa","year":"2021-06-22","translations":["Любительский (многоголосый закадровый) (AlphaProject)"],"quality":"webdl","translation":"Любительский (многоголосый закадровый) (AlphaProject)","update":"2021-08-06 12:03:04","iframe_src":"//5091.svetacdn.in/71tsRs29n5tZ/movie/52244"},{"id":52242,"title":"Худшая из женщин","kp_id":"991667","imdb_id":"tt6088370","world_art_id":null,"type":"movie","add":"2021-08-06 06:16:34","orig_title":"Choeakui haru","year":"2016-08-25","translations":["Любительский (двухголосый закадровый) (АрхиAsia)"],"quality":"webdl","translation":"Любительский (двухголосый закадровый) (АрхиAsia)","update":"2021-08-06 11:41:30","iframe_src":"//5091.svetacdn.in/71tsRs29n5tZ/movie/52242"},{"id":52240,"title":"Мелвин и Говард","kp_id":"9944","imdb_id":"tt0081150","world_art_id":null,"type":"movie","add":"2021-08-05 14:40:10","orig_title":"Melvin and Howard","year":"1980-09-19","translations":["Original (English)","Профессиональный (двухголосый закадровый) (НТВ)"],"quality":"bd","translation":"Original (English)","update":"2021-08-06 11:34:45","iframe_src":"//5091.svetacdn.in/71tsRs29n5tZ/movie/52240"},{"id":52239,"title":"Эрнест идет в тюрьму","kp_id":"2487","imdb_id":"tt0099512","world_art_id":null,"type":"movie","add":"2021-08-05 14:27:50","orig_title":"Ernest Goes to Jail","year":"1990-04-06","translations":["Авторский (одноголосый закадровый) (Володарский Леонид)"],"quality":"bd","translation":"Авторский (одноголосый закадровый) (Володарский Леонид)","update":"2021-08-06 08:05:08","iframe_src":"//5091.svetacdn.in/71tsRs29n5tZ/movie/52239"},{"id":52238,"title":"Рождественский гимн","kp_id":"17414","imdb_id":"tt0029992","world_art_id":null,"type":"movie","add":"2021-08-05 14:18:49","orig_title":"A Christmas Carol","year":"1938-12-16","translations":["Любительский (одноголосый закадровый) (Клерик)","Original (English)"],"quality":"bd","translation":"Любительский (одноголосый закадровый) (Клерик)","update":"2021-08-06 11:36:52","iframe_src":"//5091.svetacdn.in/71tsRs29n5tZ/movie/52238"},{"id":52237,"title":"Рыцарь без доспехов","kp_id":"66722","imdb_id":"tt0208408","world_art_id":null,"type":"movie","add":"2021-08-05 14:17:10","orig_title":"Ritzar bez bronya","year":"1966-02-14","translations":["Любительский (одноголосый закадровый) (Ващенко Семён)"],"quality":"webdl","translation":"Любительский (одноголосый закадровый) (Ващенко Семён)","update":"2021-08-06 11:40:28","iframe_src":"//5091.svetacdn.in/71tsRs29n5tZ/movie/52237"},{"id":52236,"title":"Девушка и волки","kp_id":"281102","imdb_id":"tt0996952","world_art_id":null,"type":"movie","add":"2021-08-05 14:14:05","orig_title":"La jeune fille et les loups","year":"2008-02-13","translations":["Профессиональный (многоголосый закадровый)"],"quality":"bd","translation":"Профессиональный (многоголосый закадровый)","update":"2021-08-06 11:38:36","iframe_src":"//5091.svetacdn.in/71tsRs29n5tZ/movie/52236"},{"id":52221,"title":"Завороженные","kp_id":"1370448","imdb_id":"tt7725374","world_art_id":null,"type":"movie","add":"2021-08-04 19:45:52","orig_title":"Les envoûtés","year":"2019-12-11","translations":["Любительский (многоголосый закадровый) (AlphaProject)"],"quality":"webdl","translation":"Любительский (многоголосый закадровый) (AlphaProject)","update":"2021-08-06 07:31:09","iframe_src":"//5091.svetacdn.in/71tsRs29n5tZ/movie/52221"},{"id":52128,"title":"Последний рубеж","kp_id":"24944","imdb_id":"tt0214871","world_art_id":null,"type":"movie","add":"2021-08-01 07:09:41","orig_title":"The Last Patrol","year":"2000-04-06","translations":["Original (English)","Профессиональный (двухголосый закадровый) (Премьер Видео Фильм)","Профессиональный (многоголосый закадровый) (РТР | Россия)"],"quality":"bd","translation":"Original (English)","update":"2021-08-06 11:57:29","iframe_src":"//5091.svetacdn.in/71tsRs29n5tZ/movie/52128"},{"id":52127,"title":"Калифорнийский отель","kp_id":"6750","imdb_id":"tt0077289","world_art_id":null,"type":"movie","add":"2021-07-31 16:45:26","orig_title":"California Suite","year":"1978-12-18","translations":["Авторский (одноголосый закадровый) (Сонькин Владимир)","Original (English)","Профессиональный (двухголосый закадровый) (5-й канал СПб)","Профессиональный (двухголосый закадровый) (СВ-Дубль)"],"quality":"webdl","translation":"Авторский (одноголосый закадровый) (Сонькин Владимир)","update":"2021-08-06 11:53:15","iframe_src":"//5091.svetacdn.in/71tsRs29n5tZ/movie/52127"},{"id":51430,"title":"Бендер: Начало","kp_id":"1305913","imdb_id":"tt15060248","world_art_id":null,"type":"movie","add":"2021-06-27 14:32:20","orig_title":"Bender: Nachalo","year":"2021-06-24","translations":["Оригинальная дорожка","Оригинальная дорожка"],"quality":"ts","translation":"Оригинальная дорожка","update":"2021-08-06 11:30:58","iframe_src":"//5091.svetacdn.in/71tsRs29n5tZ/movie/51430"},{"id":49078,"title":"Снега больше не будет","kp_id":"1226786","imdb_id":"tt9526784","world_art_id":null,"type":"movie","add":"2021-03-24 21:20:25","orig_title":"Śniegu już nigdy nie będzie","year":"2020-09-06","translations":["Полное дублирование","Полное дублирование (iTunes)"],"quality":"webdl","translation":"Полное дублирование","update":"2021-08-06 11:24:12","iframe_src":"//5091.svetacdn.in/71tsRs29n5tZ/movie/49078"},{"id":10153,"title":"Наследство","kp_id":"1392792","imdb_id":null,"world_art_id":null,"type":"serial","add":"2021-03-09 21:27:47","orig_title":"Наследство","year":"2020-01-01","translations":["Оригинальная дорожка"],"seasons_count":1,"episodes_count":4,"episodes":4,"update":"2021-03-10 05:09:31","iframe_src":"//5091.svetacdn.in/71tsRs29n5tZ/tv-series/10153"},{"id":10152,"title":"Вне подозрений","kp_id":"418776","imdb_id":"tt1247637","world_art_id":null,"type":"serial","add":"2021-03-09 21:03:29","orig_title":"Above Suspicion","year":"2009-01-04","translations":["Любительский (двухголосый закадровый) (Студия Райдо)","Любительский (одноголосый закадровый)"],"seasons_count":4,"episodes_count":11,"episodes":3,"update":"2021-03-10 16:44:59","iframe_src":"//5091.svetacdn.in/71tsRs29n5tZ/tv-series/10152"},{"id":10143,"title":"С миру по нитке","kp_id":"1357505","imdb_id":"tt12516638","world_art_id":null,"type":"serial","add":"2021-03-08 14:06:06","orig_title":"Chip In","year":"2020-07-22","translations":["Любительский (двухголосый закадровый) (SoftBox)"],"seasons_count":1,"episodes_count":8,"episodes":8,"update":"2021-03-09 08:55:13","iframe_src":"//5091.svetacdn.in/71tsRs29n5tZ/tv-series/10143"},{"id":10141,"title":"Рабочий поселок","kp_id":"42032","imdb_id":"tt0059628","world_art_id":null,"type":"serial","add":"2021-03-08 06:17:35","orig_title":"Rabochiy posyolok","year":"1966-04-25","translations":["Оригинальная дорожка"],"seasons_count":1,"episodes_count":2,"episodes":2,"update":"2021-03-08 13:19:00","iframe_src":"//5091.svetacdn.in/71tsRs29n5tZ/tv-series/10141"},{"id":10140,"title":"Преднамеренное убийство","kp_id":"962801","imdb_id":"tt1163573","world_art_id":null,"type":"serial","add":"2021-03-07 18:48:34","orig_title":"Mord mit Aussicht","year":"2008-01-07","translations":["Любительский (многоголосый закадровый) (WestFilm)"],"seasons_count":1,"episodes_count":13,"episodes":13,"update":"2021-03-08 19:10:38","iframe_src":"//5091.svetacdn.in/71tsRs29n5tZ/tv-series/10140"},{"id":10129,"title":"Черная вдова","kp_id":"2003376","imdb_id":null,"world_art_id":null,"type":"serial","add":"2021-03-07 13:43:27","orig_title":"Черная вдова","year":"2021-03-07","translations":["Оригинальная дорожка"],"seasons_count":1,"episodes_count":4,"episodes":4,"update":"2021-03-08 09:46:23","iframe_src":"//5091.svetacdn.in/71tsRs29n5tZ/tv-series/10129"},{"id":10122,"title":"Дураки. Дороги. Деньги","kp_id":"630115","imdb_id":"tt3313912","world_art_id":null,"type":"serial","add":"2021-03-06 21:28:12","orig_title":"Duraki. Dorogi. Den'gi","year":"2010-01-01","translations":["Оригинальная дорожка"],"seasons_count":1,"episodes_count":40,"episodes":40,"update":"2021-03-09 08:35:59","iframe_src":"//5091.svetacdn.in/71tsRs29n5tZ/tv-series/10122"},{"id":10121,"title":"Да будет ночь 2","kp_id":"1296446","imdb_id":"tt10856380","world_art_id":null,"type":"serial","add":"2021-03-06 21:14:16","orig_title":"Jiang ye 2","year":"2020-01-13","translations":["Любительский (двухголосый закадровый) (East Dream)"],"seasons_count":1,"episodes_count":43,"episodes":43,"update":"2021-03-09 09:36:14","iframe_src":"//5091.svetacdn.in/71tsRs29n5tZ/tv-series/10121"},{"id":10120,"title":"Грязная работа","kp_id":"460495","imdb_id":"tt3784336","world_art_id":null,"type":"serial","add":"2021-03-06 21:00:14","orig_title":"Gryaznaya rabota","year":"2009-11-08","translations":["Оригинальная дорожка"],"seasons_count":1,"episodes_count":32,"episodes":32,"update":"2021-03-09 09:13:55","iframe_src":"//5091.svetacdn.in/71tsRs29n5tZ/tv-series/10120"},{"id":10118,"title":"Мистер Саншайн","kp_id":"520605","imdb_id":"tt1583638","world_art_id":null,"type":"serial","add":"2021-03-06 11:24:28","orig_title":"Mr. Sunshine","year":"2011-02-09","translations":["Профессиональный (многоголосый закадровый) (СТС)"],"seasons_count":1,"episodes_count":13,"episodes":13,"update":"2021-03-09 08:03:07","iframe_src":"//5091.svetacdn.in/71tsRs29n5tZ/tv-series/10118"},{"id":10117,"title":"Жизнь непредсказуема","kp_id":"491933","imdb_id":"tt1442109","world_art_id":null,"type":"serial","add":"2021-03-06 11:02:04","orig_title":"Life Unexpected","year":"2010-01-18","translations":["Профессиональный (многоголосый закадровый) (NewStudio)"],"seasons_count":2,"episodes_count":26,"episodes":13,"update":"2021-03-09 07:55:10","iframe_src":"//5091.svetacdn.in/71tsRs29n5tZ/tv-series/10117"},{"id":10116,"title":"Бросок кобры: Дезертиры","kp_id":"779518","imdb_id":"tt1705038","world_art_id":null,"type":"serial","add":"2021-03-06 10:41:53","orig_title":"G.I. Joe: Renegades","year":"2010-11-26","translations":["Полное дублирование (SDI Media)"],"seasons_count":1,"episodes_count":26,"episodes":26,"update":"2021-03-09 07:17:38","iframe_src":"//5091.svetacdn.in/71tsRs29n5tZ/tv-series/10116"},{"id":10115,"title":"Это не моя жизнь","kp_id":"594796","imdb_id":"tt1405466","world_art_id":null,"type":"serial","add":"2021-03-06 10:26:32","orig_title":"This Is Not My Life","year":"2010-07-29","translations":["Любительский (двухголосый закадровый) (Hamster Studio)"],"seasons_count":1,"episodes_count":12,"episodes":12,"update":"2021-03-09 06:47:23","iframe_src":"//5091.svetacdn.in/71tsRs29n5tZ/tv-series/10115"},{"id":10114,"title":"Невеста века","kp_id":"838998","imdb_id":"tt3726584","world_art_id":null,"type":"serial","add":"2021-03-06 10:08:58","orig_title":"Bride of the century","year":"2014-02-22","translations":["Любительский (двухголосый закадровый) (GREEN TEA)"],"seasons_count":1,"episodes_count":16,"episodes":16,"update":"2021-03-09 06:44:27","iframe_src":"//5091.svetacdn.in/71tsRs29n5tZ/tv-series/10114"},{"id":9801,"title":"Искусство шпионажа","kp_id":null,"imdb_id":"tt13789092","world_art_id":null,"type":"serial","add":"2021-01-26 12:48:01","orig_title":"Spycraft","year":"2021-01-20","translations":["Профессиональный (многоголосый закадровый) (HDrezka Studio)","Любительский (двухголосый закадровый) (OnisFilms)","Любительский (многоголосый закадровый) (WestFilm)"],"seasons_count":1,"episodes_count":8,"episodes":8,"update":"2021-03-08 16:00:13","iframe_src":"//5091.svetacdn.in/71tsRs29n5tZ/tv-series/9801"},{"id":45471,"title":"Бег","kp_id":"1204966","imdb_id":"tt10933000","world_art_id":null,"type":"movie","add":"2020-11-20 20:06:41","orig_title":"Beg","year":"2021-08-06","translations":["Оригинальная дорожка","Оригинальная дорожка"],"quality":"ts","translation":"Оригинальная дорожка","update":"2021-08-06 11:32:18","iframe_src":"//5091.svetacdn.in/71tsRs29n5tZ/movie/45471"},{"id":44603,"title":"Коп на драйве","kp_id":"1318885","imdb_id":"tt11206302","world_art_id":null,"type":"movie","add":"2020-10-19 19:45:46","orig_title":"30 jours max","year":"2020-10-14","translations":["Любительский (многоголосый закадровый) (@MUZOBOZ@)","Любительский (многоголосый закадровый) (@MUZOBOZ@)","Полное дублирование (iTunes)"],"quality":"webdl","translation":"Любительский (многоголосый закадровый) (@MUZOBOZ@)","update":"2021-08-06 11:26:30","iframe_src":"//5091.svetacdn.in/71tsRs29n5tZ/movie/44603"},{"id":43032,"title":"Начать с нуля","kp_id":"1302958","imdb_id":"tt9114124","world_art_id":null,"type":"movie","add":"2020-09-02 20:43:46","orig_title":"Cambio tutto","year":"2020-06-19","translations":["Любительский (многоголосый закадровый) (AlphaProject)","Профессиональный (многоголосый закадровый) (iTunes)"],"quality":"webdl","translation":"Любительский (многоголосый закадровый) (AlphaProject)","update":"2021-08-06 11:28:16","iframe_src":"//5091.svetacdn.in/71tsRs29n5tZ/movie/43032"},{"id":6976,"title":"Капитан Марло","kp_id":"1048725","imdb_id":"tt5684214","world_art_id":null,"type":"serial","add":"2020-03-24 09:02:25","orig_title":"Capitaine Marleau","year":"2015-09-05","translations":["Профессиональный (двухголосый закадровый) (ViruseProject)","Любительский (многоголосый закадровый) (WestFilm)","Любительский (многоголосый закадровый) (Ultradox)"],"seasons_count":3,"episodes_count":21,"episodes":7,"update":"2021-03-10 12:13:36","iframe_src":"//5091.svetacdn.in/71tsRs29n5tZ/tv-series/6976"},{"id":5556,"title":"Чужой грех","kp_id":"1302048","imdb_id":"tt10822344","world_art_id":null,"type":"serial","add":"2019-10-28 15:12:00","orig_title":"Chuzhoy greh","year":"2019-05-19","translations":["Оригинальная дорожка"],"seasons_count":1,"episodes_count":4,"episodes":4,"update":"2021-03-09 08:28:58","iframe_src":"//5091.svetacdn.in/71tsRs29n5tZ/tv-series/5556"},{"id":4979,"title":"Любовь напрокат","kp_id":"924222","imdb_id":"tt4787052","world_art_id":null,"type":"serial","add":"2019-07-31 10:55:00","orig_title":"Kiralik Ask","year":"2015-06-19","translations":["Любительский (одноголосый закадровый)","Авторский (одноголосый закадровый) (Котова Ирина)"],"seasons_count":2,"episodes_count":70,"episodes":17,"update":"2021-03-09 06:12:59","iframe_src":"//5091.svetacdn.in/71tsRs29n5tZ/tv-series/4979"},{"id":3527,"title":"Легкая улыбка покоряет мир","kp_id":"1043782","imdb_id":"tt6055498","world_art_id":null,"type":"serial","add":"2018-11-18 22:51:56","orig_title":"Love O2O","year":"2016-01-01","translations":["Любительский (одноголосый закадровый)","Любительский (многоголосый закадровый) (AniDUB)","Профессиональный (многоголосый закадровый) (Мобильное телевидение)"],"seasons_count":1,"episodes_count":30,"episodes":30,"update":"2021-03-08 10:48:41","iframe_src":"//5091.svetacdn.in/71tsRs29n5tZ/tv-series/3527"},{"id":18734,"title":"Спальня епископа","kp_id":"58029","imdb_id":"tt0146289","world_art_id":null,"type":"movie","add":"2018-09-02 09:43:30","orig_title":"La stanza del vescovo","year":"1977-03-18","translations":["Профессиональный (многоголосый закадровый) (НТВ)","Авторский (одноголосый закадровый) (Козлов Сергей)","Профессиональный (многоголосый закадровый)","Профессиональный (многоголосый закадровый) (НТВ)"],"quality":"dvdrip","translation":"Профессиональный (многоголосый закадровый) (НТВ)","update":"2021-08-06 11:47:23","iframe_src":"//5091.svetacdn.in/71tsRs29n5tZ/movie/18734"},{"id":2063,"title":"Робинзон","kp_id":"474730","imdb_id":"tt1995896","world_art_id":null,"type":"serial","add":"2018-02-11 18:17:14","orig_title":"Robinzon","year":"2011-04-18","translations":["Оригинальная дорожка"],"seasons_count":1,"episodes_count":8,"episodes":8,"update":"2021-03-08 21:39:06","iframe_src":"//5091.svetacdn.in/71tsRs29n5tZ/tv-series/2063"},{"id":4282,"title":"Звонок","kp_id":"804","imdb_id":"tt0298130","world_art_id":null,"type":"movie","add":"2016-08-02 14:31:16","orig_title":"The Ring","year":"2002-10-02","translations":["Полное дублирование","Авторский (одноголосый закадровый) (Рудой Евгений)","Авторский (одноголосый закадровый) (Живов Юрий)","Полное дублирование","Original (English)","Профессиональный (двухголосый закадровый) (DDV)"],"quality":"bd","translation":"Полное дублирование","update":"2021-08-05 14:52:55","iframe_src":"//5091.svetacdn.in/71tsRs29n5tZ/movie/4282"}],"current_page":115,"first_page_url":"https://videocdn.tv/api/short?limit=100&api_token=EnbO9h8pv1VyjbCJhg0WM9nG259n7mtz&cache3115=3115&page=1","from":11401,"last_page":665,"last_page_url":"https://videocdn.tv/api/short?limit=100&api_token=EnbO9h8pv1VyjbCJhg0WM9nG259n7mtz&cache3115=3115&page=665","next_page_url":"https://videocdn.tv/api/short?limit=100&api_token=EnbO9h8pv1VyjbCJhg0WM9nG259n7mtz&cache3115=3115&page=116","path":"https://videocdn.tv/api/short","per_page":100,"prev_page_url":"https://videocdn.tv/api/short?limit=100&api_token=EnbO9h8pv1VyjbCJhg0WM9nG259n7mtz&cache3115=3115&page=114","to":11440,"total":66453}