{"result":true,"data":[{"id":19835,"title":"Легенда о Хэллоуиан","kp_id":"1145767","imdb_id":"tt7615722","world_art_id":null,"type":"movie","add":"2018-10-28 21:46:31","orig_title":"Legend of Hallowaiian","year":"2018-09-20","translations":["Любительский (многоголосый закадровый) (Колобок)"],"quality":"webdl","translation":"Любительский (многоголосый закадровый) (Колобок)","update":"2018-10-29 06:38:33","iframe_src":"//5091.svetacdn.in/IAF0wWTdNYZm/movie/19835"},{"id":19834,"title":"Красный как кровь","kp_id":"811029","imdb_id":"tt3355082","world_art_id":null,"type":"movie","add":"2018-10-28 21:44:48","orig_title":"Rouge sang","year":"2014-09-10","translations":["Любительский (двухголосый закадровый) (LakeFilms)"],"quality":"dvb","translation":"Любительский (двухголосый закадровый) (LakeFilms)","update":"2018-10-29 06:39:30","iframe_src":"//5091.svetacdn.in/IAF0wWTdNYZm/movie/19834"},{"id":19830,"title":"Босс","kp_id":"1086377","imdb_id":"tt7527538","world_art_id":null,"type":"movie","add":"2018-10-28 21:37:33","orig_title":"Jefe","year":"2018-04-15","translations":["Любительский (многоголосый закадровый) (Синема УС)"],"quality":"webdl","translation":"Любительский (многоголосый закадровый) (Синема УС)","update":"2018-10-29 06:46:07","iframe_src":"//5091.svetacdn.in/IAF0wWTdNYZm/movie/19830"},{"id":19828,"title":"Давно не виделись","kp_id":null,"imdb_id":"tt1682886","world_art_id":null,"type":"movie","add":"2018-10-28 21:33:27","orig_title":"Been So Long","year":"2018-10-26","translations":["Любительский (многоголосый закадровый) (Синема УС)"],"quality":"webdl","translation":"Любительский (многоголосый закадровый) (Синема УС)","update":"2018-10-29 06:52:36","iframe_src":"//5091.svetacdn.in/IAF0wWTdNYZm/movie/19828"},{"id":19826,"title":"Энн из Грин Гейблс: Пламя и роса","kp_id":"1067611","imdb_id":"tt6490538","world_art_id":null,"type":"movie","add":"2018-10-28 21:29:04","orig_title":"L.M. Montgomery's Anne of Green Gables: Fire & Dew","year":"2017-07-01","translations":["Любительский (многоголосый закадровый) (Синема УС)"],"quality":"webdl","translation":"Любительский (многоголосый закадровый) (Синема УС)","update":"2018-10-29 06:58:36","iframe_src":"//5091.svetacdn.in/IAF0wWTdNYZm/movie/19826"},{"id":19825,"title":"Кто наблюдает за Оливером","kp_id":"1016678","imdb_id":"tt6158692","world_art_id":null,"type":"movie","add":"2018-10-28 15:25:02","orig_title":"Who's Watching Oliver","year":"2017-03-25","translations":["Любительский (двухголосый закадровый) (HiWayGrope)"],"quality":"webdl","translation":"Любительский (двухголосый закадровый) (HiWayGrope)","update":"2018-10-29 07:00:35","iframe_src":"//5091.svetacdn.in/IAF0wWTdNYZm/movie/19825"},{"id":19824,"title":"Плохая няня","kp_id":"1041464","imdb_id":"tt6638398","world_art_id":null,"type":"movie","add":"2018-10-28 15:23:50","orig_title":"The Wrong Nanny","year":"2017-07-01","translations":["Любительский (многоголосый закадровый) (Синема УС)"],"quality":"webdl","translation":"Любительский (многоголосый закадровый) (Синема УС)","update":"2018-10-29 07:03:54","iframe_src":"//5091.svetacdn.in/IAF0wWTdNYZm/movie/19824"},{"id":19821,"title":"Легенда о царе Соломоне","kp_id":"1053876","imdb_id":"tt3887158","world_art_id":null,"type":"movie","add":"2018-10-28 15:18:02","orig_title":"The Legend of King Solomon","year":"2017-09-28","translations":["Любительский (многоголосый закадровый) (Колобок)"],"quality":"webdl","translation":"Любительский (многоголосый закадровый) (Колобок)","update":"2018-10-29 07:09:35","iframe_src":"//5091.svetacdn.in/IAF0wWTdNYZm/movie/19821"},{"id":19820,"title":"Массовое похищение в Чибоке","kp_id":null,"imdb_id":"tt8385108","world_art_id":null,"type":"movie","add":"2018-10-28 15:16:49","orig_title":"Stolen Daughters: Kidnapped by Boko Haram","year":"2018-01-01","translations":["Профессиональный (многоголосый закадровый)"],"quality":"webdl","translation":"Профессиональный (многоголосый закадровый)","update":"2018-10-29 07:19:36","iframe_src":"//5091.svetacdn.in/IAF0wWTdNYZm/movie/19820"},{"id":19817,"title":"Пондемониум 2","kp_id":"1152347","imdb_id":"tt8426846","world_art_id":null,"type":"movie","add":"2018-10-28 15:11:32","orig_title":"Pondemonium 2","year":"2018-09-11","translations":["Любительский (многоголосый закадровый) (Колобок)"],"quality":"webdl","translation":"Любительский (многоголосый закадровый) (Колобок)","update":"2018-10-29 07:23:35","iframe_src":"//5091.svetacdn.in/IAF0wWTdNYZm/movie/19817"},{"id":19815,"title":"МакХер","kp_id":"580966","imdb_id":"tt1781777","world_art_id":null,"type":"movie","add":"2018-10-28 15:06:58","orig_title":"McDick","year":"2017-10-07","translations":["Любительский (многоголосый закадровый) (Синема УС)"],"quality":"webdl","translation":"Любительский (многоголосый закадровый) (Синема УС)","update":"2018-10-29 07:29:52","iframe_src":"//5091.svetacdn.in/IAF0wWTdNYZm/movie/19815"},{"id":19813,"title":"Лотерея","kp_id":"1119968","imdb_id":"tt7897348","world_art_id":null,"type":"movie","add":"2018-10-28 15:04:26","orig_title":"Lottery","year":"2018-02-03","translations":["Любительский (многоголосый закадровый) (Колобок)"],"quality":"webdl","translation":"Любительский (многоголосый закадровый) (Колобок)","update":"2018-10-29 07:31:56","iframe_src":"//5091.svetacdn.in/IAF0wWTdNYZm/movie/19813"},{"id":19812,"title":"Дети, которым повезло","kp_id":"973746","imdb_id":"tt5337760","world_art_id":null,"type":"movie","add":"2018-10-28 15:02:59","orig_title":"Les enfants de la chance","year":"2016-09-27","translations":["Любительский (многоголосый закадровый) (Синема УС)"],"quality":"webdl","translation":"Любительский (многоголосый закадровый) (Синема УС)","update":"2018-10-29 07:34:04","iframe_src":"//5091.svetacdn.in/IAF0wWTdNYZm/movie/19812"},{"id":19803,"title":"Покупатель, бойся!","kp_id":"1138896","imdb_id":"tt8541440","world_art_id":null,"type":"movie","add":"2018-10-26 20:47:49","orig_title":"Gat nguk","year":"2018-06-28","translations":["Любительский (многоголосый закадровый) (Синема УС)"],"quality":"bd","translation":"Любительский (многоголосый закадровый) (Синема УС)","update":"2018-10-29 07:57:52","iframe_src":"//5091.svetacdn.in/IAF0wWTdNYZm/movie/19803"},{"id":19802,"title":"Я без ума от тебя","kp_id":"1190345","imdb_id":"tt8989874","world_art_id":null,"type":"movie","add":"2018-10-26 20:44:07","orig_title":"Falling for You","year":"2018-10-06","translations":["Любительский (многоголосый закадровый) (Синема УС)"],"quality":"hdtv","translation":"Любительский (многоголосый закадровый) (Синема УС)","update":"2018-10-29 07:48:21","iframe_src":"//5091.svetacdn.in/IAF0wWTdNYZm/movie/19802"},{"id":19799,"title":"Токсичный","kp_id":"1180268","imdb_id":"tt8840492","world_art_id":null,"type":"movie","add":"2018-10-26 20:37:53","orig_title":"Noxious","year":"2018-08-13","translations":["Любительский (многоголосый закадровый) (Колобок)"],"quality":"webdl","translation":"Любительский (многоголосый закадровый) (Колобок)","update":"2018-10-29 07:46:03","iframe_src":"//5091.svetacdn.in/IAF0wWTdNYZm/movie/19799"},{"id":18649,"title":"Колесо","kp_id":"896906","imdb_id":"tt4205320","world_art_id":null,"type":"movie","add":"2018-08-30 00:30:10","orig_title":"La volante","year":"2015-06-15","translations":["Любительский (многоголосый закадровый) (Синема УС)","Любительский (двухголосый закадровый) (LakeFilms)"],"quality":"dvdrip","translation":"Любительский (многоголосый закадровый) (Синема УС)","update":"2018-10-29 07:34:48","iframe_src":"//5091.svetacdn.in/IAF0wWTdNYZm/movie/18649"},{"id":16492,"title":"Ностальгия","kp_id":"1009509","imdb_id":"tt6456222","world_art_id":null,"type":"movie","add":"2018-04-26 22:23:48","orig_title":"Nostalgia","year":"2018-01-06","translations":["Любительский (многоголосый закадровый) (@MUZOBOZ@)","Любительский (двухголосый закадровый) (HiWayGrope)","Любительский (двухголосый закадровый) (LakeFilms)"],"quality":"bd","translation":"Любительский (многоголосый закадровый) (@MUZOBOZ@)","update":"2018-10-29 07:26:02","iframe_src":"//5091.svetacdn.in/IAF0wWTdNYZm/movie/16492"},{"id":14337,"title":"Блам!","kp_id":"1042658","imdb_id":"tt6574146","world_art_id":null,"type":"movie","add":"2017-11-12 21:22:43","orig_title":"Blame!","year":"2017-05-20","translations":["Любительский (одноголосый закадровый) (BadBajo)","Любительский (многоголосый закадровый)"],"quality":"webdl","translation":"Любительский (одноголосый закадровый) (BadBajo)","update":"2018-10-29 07:42:40","iframe_src":"//5091.svetacdn.in/IAF0wWTdNYZm/movie/14337"},{"id":10371,"title":"Место в аду","kp_id":"820188","imdb_id":"tt3418064","world_art_id":null,"type":"movie","add":"2017-03-15 06:08:33","orig_title":"A Place in Hell","year":"2015-01-01","translations":["Любительский (многоголосый закадровый) (Синема УС)"],"quality":"webdl","translation":"Любительский (многоголосый закадровый) (Синема УС)","update":"2018-10-29 07:40:26","iframe_src":"//5091.svetacdn.in/IAF0wWTdNYZm/movie/10371"}],"current_page":1896,"first_page_url":"https://videocdn.tv/api/short?limit=100&api_token=6Onb1W1alEUrBcKJZD3GoKBbWyAl2uG2&cache31896=31896&page=1","from":189501,"last_page":664,"last_page_url":"https://videocdn.tv/api/short?limit=100&api_token=6Onb1W1alEUrBcKJZD3GoKBbWyAl2uG2&cache31896=31896&page=664","next_page_url":null,"path":"https://videocdn.tv/api/short","per_page":100,"prev_page_url":"https://videocdn.tv/api/short?limit=100&api_token=6Onb1W1alEUrBcKJZD3GoKBbWyAl2uG2&cache31896=31896&page=1895","to":189520,"total":66363}