{"result":true,"data":[{"id":46086,"title":"Вы не виноваты","kp_id":"1144173","imdb_id":"tt11341210","world_art_id":null,"type":"movie","add":"2020-12-15 06:56:34","orig_title":"The Fault Is Not Yours","year":"2019-11-21","translations":["Любительский (двухголосый закадровый) (Колобок)"],"quality":"webdl","translation":"Любительский (двухголосый закадровый) (Колобок)","update":"2020-12-15 16:06:57","iframe_src":"//5091.svetacdn.in/71tsRs29n5tZ/movie/46086"},{"id":46084,"title":"Пробуждение муравьев","kp_id":"1071302","imdb_id":"tt6708834","world_art_id":null,"type":"movie","add":"2020-12-15 06:52:45","orig_title":"El despertar de las hormigas","year":"2019-02-12","translations":["Любительский (многоголосый закадровый) (Синема УС)"],"quality":"webdl","translation":"Любительский (многоголосый закадровый) (Синема УС)","update":"2020-12-15 16:06:34","iframe_src":"//5091.svetacdn.in/71tsRs29n5tZ/movie/46084"},{"id":46083,"title":"Рождество в стиле хип-хоп","kp_id":"1291839","imdb_id":"tt10754206","world_art_id":null,"type":"movie","add":"2020-12-15 06:51:14","orig_title":"Hip Hop Holiday","year":"2019-11-30","translations":["Любительский (многоголосый закадровый) (Синема УС)"],"quality":"webdl","translation":"Любительский (многоголосый закадровый) (Синема УС)","update":"2020-12-15 16:06:10","iframe_src":"//5091.svetacdn.in/71tsRs29n5tZ/movie/46083"},{"id":46072,"title":"Ненависть","kp_id":"46393","imdb_id":"tt0073443","world_art_id":null,"type":"movie","add":"2020-12-14 15:48:30","orig_title":"Nenavist","year":"1977-10-11","translations":["Оригинальная дорожка"],"quality":"sat","translation":"Оригинальная дорожка","update":"2020-12-15 15:57:57","iframe_src":"//5091.svetacdn.in/71tsRs29n5tZ/movie/46072"},{"id":46071,"title":"Музыканты одного полка","kp_id":"46751","imdb_id":"tt0232147","world_art_id":null,"type":"movie","add":"2020-12-14 15:46:37","orig_title":"Muzykanty odnogo polka","year":"1965-09-13","translations":["Оригинальная дорожка"],"quality":"sat","translation":"Оригинальная дорожка","update":"2020-12-15 15:36:51","iframe_src":"//5091.svetacdn.in/71tsRs29n5tZ/movie/46071"},{"id":46070,"title":"Моя любовь на третьем курсе","kp_id":"46719","imdb_id":"tt0074925","world_art_id":null,"type":"movie","add":"2020-12-14 15:43:07","orig_title":"Moya lyubov na tretyem kurse","year":"1976-01-01","translations":["Оригинальная дорожка"],"quality":"vhs","translation":"Оригинальная дорожка","update":"2020-12-15 15:35:49","iframe_src":"//5091.svetacdn.in/71tsRs29n5tZ/movie/46070"},{"id":46069,"title":"Красное, синее, зеленое","kp_id":"438287","imdb_id":"tt5048540","world_art_id":null,"type":"movie","add":"2020-12-14 15:36:56","orig_title":"Krasnoye, sineye, zelyonoye","year":"1967-05-01","translations":["Оригинальная дорожка"],"quality":"dvdrip","translation":"Оригинальная дорожка","update":"2020-12-15 15:28:03","iframe_src":"//5091.svetacdn.in/71tsRs29n5tZ/movie/46069"},{"id":46068,"title":"Бросок, или всё началось в субботу","kp_id":"466438","imdb_id":"tt5375068","world_art_id":null,"type":"movie","add":"2020-12-14 15:34:37","orig_title":"Brosok, ili Vsyo nachalos v subbotu","year":"1976-01-01","translations":["Оригинальная дорожка"],"quality":"tv","translation":"Оригинальная дорожка","update":"2020-12-15 15:19:04","iframe_src":"//5091.svetacdn.in/71tsRs29n5tZ/movie/46068"},{"id":46067,"title":"Аэропорт со служебного входа","kp_id":"43419","imdb_id":"tt0090596","world_art_id":null,"type":"movie","add":"2020-12-14 15:31:24","orig_title":"Aeroport so sluzhebnogo vkhoda","year":"1987-02-02","translations":["Оригинальная дорожка"],"quality":"iptv","translation":"Оригинальная дорожка","update":"2020-12-15 15:18:23","iframe_src":"//5091.svetacdn.in/71tsRs29n5tZ/movie/46067"},{"id":46066,"title":"Дело для настоящих мужчин","kp_id":"44124","imdb_id":"tt0252365","world_art_id":null,"type":"movie","add":"2020-12-14 14:42:53","orig_title":"Delo dlya nastoyashchikh muzhchin","year":"1984-02-20","translations":["Оригинальная дорожка"],"quality":"hdtv","translation":"Оригинальная дорожка","update":"2020-12-15 15:16:17","iframe_src":"//5091.svetacdn.in/71tsRs29n5tZ/movie/46066"},{"id":46065,"title":"Дополнительные вопросы","kp_id":"813620","imdb_id":null,"world_art_id":null,"type":"movie","add":"2020-12-14 14:40:07","orig_title":"Дополнительные вопросы","year":"1978-01-01","translations":["Оригинальная дорожка"],"quality":"webdl","translation":"Оригинальная дорожка","update":"2020-12-15 15:14:31","iframe_src":"//5091.svetacdn.in/71tsRs29n5tZ/movie/46065"},{"id":46064,"title":"Железные игры","kp_id":"260405","imdb_id":"tt0830206","world_art_id":null,"type":"movie","add":"2020-12-14 14:35:35","orig_title":"Zheleznye igry","year":"1979-01-01","translations":["Оригинальная дорожка"],"quality":"hdtv","translation":"Оригинальная дорожка","update":"2020-12-15 15:10:41","iframe_src":"//5091.svetacdn.in/71tsRs29n5tZ/movie/46064"},{"id":46063,"title":"Красная стрела","kp_id":"44954","imdb_id":"tt0266706","world_art_id":null,"type":"movie","add":"2020-12-14 14:28:15","orig_title":"Krasnaya strela","year":"1987-03-25","translations":["Оригинальная дорожка"],"quality":"sat","translation":"Оригинальная дорожка","update":"2020-12-15 15:04:47","iframe_src":"//5091.svetacdn.in/71tsRs29n5tZ/movie/46063"},{"id":46062,"title":"Любовь моя вечная","kp_id":"45151","imdb_id":"tt0129214","world_art_id":null,"type":"movie","add":"2020-12-14 14:25:52","orig_title":"Lyubov moya vechnaya","year":"1981-03-18","translations":["Оригинальная дорожка"],"quality":"sat","translation":"Оригинальная дорожка","update":"2020-12-15 15:02:43","iframe_src":"//5091.svetacdn.in/71tsRs29n5tZ/movie/46062"},{"id":45973,"title":"Проблемные люди","kp_id":"1010946","imdb_id":"tt6097524","world_art_id":null,"type":"movie","add":"2020-12-10 13:06:59","orig_title":"People with Issues","year":"2018-06-05","translations":["Любительский (многоголосый закадровый) (AlphaProject)"],"quality":"webdl","translation":"Любительский (многоголосый закадровый) (AlphaProject)","update":"2020-12-15 18:12:54","iframe_src":"//5091.svetacdn.in/71tsRs29n5tZ/movie/45973"},{"id":27479,"title":"Из жизни начальника уголовного розыска","kp_id":"42673","imdb_id":"tt0085740","world_art_id":null,"type":"movie","add":"2019-06-05 18:21:33","orig_title":"Iz zhizni nachalnika ugolovnogo rozyska","year":"1983-10-10","translations":["Оригинальная дорожка","Оригинальная дорожка"],"quality":"dvdrip","translation":"Оригинальная дорожка","update":"2020-12-15 15:06:10","iframe_src":"//5091.svetacdn.in/71tsRs29n5tZ/movie/27479"},{"id":25500,"title":"Жизнь прекрасна","kp_id":"23194","imdb_id":"tt0080101","world_art_id":null,"type":"movie","add":"2019-04-28 10:28:16","orig_title":"La vita è bella","year":"1979-12-21","translations":["Оригинальная дорожка","Оригинальная дорожка"],"quality":"iptv","translation":"Оригинальная дорожка","update":"2020-12-15 15:09:25","iframe_src":"//5091.svetacdn.in/71tsRs29n5tZ/movie/25500"},{"id":24678,"title":"Ёлки-палки!..","kp_id":"42459","imdb_id":"tt0096482","world_art_id":null,"type":"movie","add":"2019-04-16 07:38:38","orig_title":"Yolki-palki","year":"1988-01-01","translations":["Оригинальная дорожка","Оригинальная дорожка"],"quality":"dvdrip","translation":"Оригинальная дорожка","update":"2020-12-15 15:13:13","iframe_src":"//5091.svetacdn.in/71tsRs29n5tZ/movie/24678"},{"id":24522,"title":"«Мерседес» уходит от погони","kp_id":"46610","imdb_id":"tt0230519","world_art_id":null,"type":"movie","add":"2019-04-13 19:37:56","orig_title":"Mersedes ukhodit ot pogoni","year":"1980-01-01","translations":["Оригинальная дорожка","Оригинальная дорожка"],"quality":"dvdrip","translation":"Оригинальная дорожка","update":"2020-12-15 15:32:43","iframe_src":"//5091.svetacdn.in/71tsRs29n5tZ/movie/24522"},{"id":23745,"title":"Зимородок","kp_id":"468781","imdb_id":"tt1721141","world_art_id":null,"type":"movie","add":"2019-04-01 09:28:46","orig_title":"Zimorodok","year":"1972-12-04","translations":["Оригинальная дорожка","Оригинальная дорожка","Оригинальная дорожка"],"quality":"dvdrip","translation":"Оригинальная дорожка","update":"2020-12-15 15:07:02","iframe_src":"//5091.svetacdn.in/71tsRs29n5tZ/movie/23745"},{"id":190,"title":"Батл Крик","kp_id":"818742","imdb_id":"tt3215364","world_art_id":null,"type":"serial","add":"2016-06-15 13:37:15","orig_title":"Battle Creek","year":"2015-03-01","translations":["Профессиональный (многоголосый закадровый) (LostFilm)"],"seasons_count":1,"episodes_count":13,"episodes":13,"update":"2016-06-16 10:44:31","iframe_src":"//5091.svetacdn.in/71tsRs29n5tZ/tv-series/190"},{"id":182,"title":"Во плоти","kp_id":"733342","imdb_id":"tt2480514","world_art_id":null,"type":"serial","add":"2016-06-13 09:52:40","orig_title":"In the Flesh","year":"2013-03-17","translations":["Профессиональный (многоголосый закадровый) (LostFilm)"],"seasons_count":2,"episodes_count":9,"episodes":6,"update":"2016-06-14 06:28:06","iframe_src":"//5091.svetacdn.in/71tsRs29n5tZ/tv-series/182"},{"id":178,"title":"Джонатан Стрендж и мистер Норрелл","kp_id":"807474","imdb_id":"tt2548418","world_art_id":null,"type":"serial","add":"2016-06-13 07:26:15","orig_title":"Jonathan Strange & Mr Norrell","year":"2015-05-17","translations":["Профессиональный (многоголосый закадровый) (AlexFilm)"],"seasons_count":1,"episodes_count":7,"episodes":7,"update":"2016-06-14 04:55:37","iframe_src":"//5091.svetacdn.in/71tsRs29n5tZ/tv-series/178"},{"id":176,"title":"Охота на Милата","kp_id":"943968","imdb_id":"tt4645614","world_art_id":null,"type":"serial","add":"2016-06-13 07:14:12","orig_title":"Catching Milat","year":"2015-05-17","translations":["Профессиональный (многоголосый закадровый) (ViruseProject)"],"seasons_count":1,"episodes_count":2,"episodes":2,"update":"2016-06-13 09:46:13","iframe_src":"//5091.svetacdn.in/71tsRs29n5tZ/tv-series/176"},{"id":169,"title":"Секрет","kp_id":"978614","imdb_id":"tt5116280","world_art_id":null,"type":"serial","add":"2016-06-09 13:28:36","orig_title":"The Secret","year":"2016-04-29","translations":["Любительский (двухголосый закадровый) (Sunshine Studio)"],"seasons_count":1,"episodes_count":4,"episodes":4,"update":"2016-06-10 08:12:40","iframe_src":"//5091.svetacdn.in/71tsRs29n5tZ/tv-series/169"},{"id":168,"title":"Путь к выздоровлению","kp_id":"891572","imdb_id":"tt4144890","world_art_id":null,"type":"serial","add":"2016-06-09 13:20:36","orig_title":"Recovery Road","year":"2016-01-25","translations":["Любительский (двухголосый закадровый) (Hamster Studio)"],"seasons_count":1,"episodes_count":10,"episodes":10,"update":"2016-06-10 08:58:53","iframe_src":"//5091.svetacdn.in/71tsRs29n5tZ/tv-series/168"},{"id":162,"title":"Бешеные псы","kp_id":"750448","imdb_id":"tt2805574","world_art_id":null,"type":"serial","add":"2016-06-09 04:49:01","orig_title":"Mad Dogs","year":"2015-01-15","translations":["Профессиональный (многоголосый закадровый) (Jaskier)"],"seasons_count":1,"episodes_count":10,"episodes":10,"update":"2016-06-09 10:54:40","iframe_src":"//5091.svetacdn.in/71tsRs29n5tZ/tv-series/162"},{"id":159,"title":"Демоны","kp_id":"585399","imdb_id":"tt3205300","world_art_id":null,"type":"serial","add":"2016-06-08 12:31:08","orig_title":"Demony","year":"2011-04-25","translations":["Оригинальная дорожка"],"seasons_count":1,"episodes_count":16,"episodes":16,"update":"2016-06-09 05:49:16","iframe_src":"//5091.svetacdn.in/71tsRs29n5tZ/tv-series/159"},{"id":157,"title":"Тринадцать","kp_id":"965849","imdb_id":"tt5159916","world_art_id":null,"type":"serial","add":"2016-06-07 13:39:52","orig_title":"Thirteen","year":"2016-02-28","translations":["Любительский (двухголосый закадровый) (Sunshine Studio)"],"seasons_count":1,"episodes_count":5,"episodes":5,"update":"2016-06-08 11:07:00","iframe_src":"//5091.svetacdn.in/71tsRs29n5tZ/tv-series/157"},{"id":156,"title":"Сектор Зеро","kp_id":"982443","imdb_id":"tt5606776","world_art_id":null,"type":"serial","add":"2016-06-07 13:27:04","orig_title":"Section zéro","year":"2016-04-04","translations":["Любительский (двухголосый закадровый) (Sunshine Studio)"],"seasons_count":1,"episodes_count":8,"episodes":8,"update":"2016-06-10 05:07:54","iframe_src":"//5091.svetacdn.in/71tsRs29n5tZ/tv-series/156"},{"id":155,"title":"Волшебники зеленого континента","kp_id":"957497","imdb_id":"tt5260254","world_art_id":null,"type":"serial","add":"2016-06-07 13:20:07","orig_title":"The Wizards of Aus","year":"2016-01-19","translations":["Любительский (двухголосый закадровый) (Jimmy J.)"],"seasons_count":1,"episodes_count":6,"episodes":6,"update":"2016-06-08 08:43:51","iframe_src":"//5091.svetacdn.in/71tsRs29n5tZ/tv-series/155"},{"id":154,"title":"Кошмарные миры Герберта Уэллса","kp_id":"958508","imdb_id":"tt5437394","world_art_id":null,"type":"serial","add":"2016-06-07 13:11:56","orig_title":"The Nightmare Worlds of H.G. Wells","year":"2016-01-28","translations":["Любительский (двухголосый закадровый) (Sunshine Studio)"],"seasons_count":1,"episodes_count":4,"episodes":4,"update":"2016-06-08 06:30:05","iframe_src":"//5091.svetacdn.in/71tsRs29n5tZ/tv-series/154"},{"id":149,"title":"Корни","kp_id":"933841","imdb_id":"tt3315386","world_art_id":null,"type":"serial","add":"2016-06-07 04:35:17","orig_title":"Roots","year":"2016-05-30","translations":["Профессиональный (многоголосый закадровый) (IdeaFilm)"],"seasons_count":1,"episodes_count":4,"episodes":4,"update":"2016-06-13 05:19:25","iframe_src":"//5091.svetacdn.in/71tsRs29n5tZ/tv-series/149"},{"id":142,"title":"Восстание","kp_id":"957354","imdb_id":"tt4699982","world_art_id":null,"type":"serial","add":"2016-06-06 05:09:04","orig_title":"Rebellion","year":"2016-01-03","translations":["Профессиональный (многоголосый закадровый) (IdeaFilm)"],"seasons_count":1,"episodes_count":5,"episodes":5,"update":"2016-06-06 09:20:41","iframe_src":"//5091.svetacdn.in/71tsRs29n5tZ/tv-series/142"},{"id":141,"title":"Иерихон","kp_id":"947468","imdb_id":"tt5178604","world_art_id":null,"type":"serial","add":"2016-06-06 05:03:42","orig_title":"Jericho","year":"2016-01-07","translations":["Профессиональный (многоголосый закадровый) (Jaskier)"],"seasons_count":1,"episodes_count":8,"episodes":8,"update":"2016-06-07 06:49:10","iframe_src":"//5091.svetacdn.in/71tsRs29n5tZ/tv-series/141"},{"id":132,"title":"Доктор Торн","kp_id":"947042","imdb_id":"tt4938084","world_art_id":null,"type":"serial","add":"2016-06-03 08:22:40","orig_title":"Doctor Thorne","year":"2016-03-06","translations":["Любительский (двухголосый закадровый) (Sunshine Studio)"],"seasons_count":1,"episodes_count":3,"episodes":3,"update":"2016-06-03 16:17:00","iframe_src":"//5091.svetacdn.in/71tsRs29n5tZ/tv-series/132"},{"id":131,"title":"Бонг времени","kp_id":"972880","imdb_id":"tt5562058","world_art_id":null,"type":"serial","add":"2016-06-02 12:33:20","orig_title":"Time Traveling Bong","year":"2016-04-20","translations":["Профессиональный (многоголосый закадровый) (NewStudio)"],"seasons_count":1,"episodes_count":3,"episodes":3,"update":"2016-06-03 06:35:37","iframe_src":"//5091.svetacdn.in/71tsRs29n5tZ/tv-series/131"},{"id":127,"title":"Охота на оленей","kp_id":"961594","imdb_id":"tt4845906","world_art_id":null,"type":"serial","add":"2016-06-02 11:59:53","orig_title":"Stag","year":"2016-02-27","translations":["Профессиональный (многоголосый закадровый) (ViruseProject)"],"seasons_count":1,"episodes_count":3,"episodes":3,"update":"2016-06-03 06:23:07","iframe_src":"//5091.svetacdn.in/71tsRs29n5tZ/tv-series/127"},{"id":120,"title":"Бестолочи","kp_id":"820551","imdb_id":"tt3449528","world_art_id":null,"type":"serial","add":"2016-06-01 10:27:40","orig_title":"Siblings","year":"2014-08-07","translations":["Профессиональный (двухголосый закадровый) (Ozz.tv)"],"seasons_count":2,"episodes_count":12,"episodes":6,"update":"2016-06-02 09:05:02","iframe_src":"//5091.svetacdn.in/71tsRs29n5tZ/tv-series/120"},{"id":15,"title":"Дэмиен","kp_id":"891586","imdb_id":"tt4337944","world_art_id":null,"type":"serial","add":"2016-03-12 22:35:32","orig_title":"Damien","year":"2016-03-07","translations":["Профессиональный (многоголосый закадровый) (OMSKBIRD records)","Профессиональный (многоголосый закадровый) (BaibaKo)","Профессиональный (многоголосый закадровый) (NewStudio)"],"seasons_count":1,"episodes_count":10,"episodes":10,"update":"2016-06-11 13:42:21","iframe_src":"//5091.svetacdn.in/71tsRs29n5tZ/tv-series/15"}],"current_page":563,"first_page_url":"https://videocdn.tv/api/short?limit=100&api_token=EnbO9h8pv1VyjbCJhg0WM9nG259n7mtz&cache3563=3563&page=1","from":56201,"last_page":668,"last_page_url":"https://videocdn.tv/api/short?limit=100&api_token=EnbO9h8pv1VyjbCJhg0WM9nG259n7mtz&cache3563=3563&page=668","next_page_url":"https://videocdn.tv/api/short?limit=100&api_token=EnbO9h8pv1VyjbCJhg0WM9nG259n7mtz&cache3563=3563&page=564","path":"https://videocdn.tv/api/short","per_page":100,"prev_page_url":"https://videocdn.tv/api/short?limit=100&api_token=EnbO9h8pv1VyjbCJhg0WM9nG259n7mtz&cache3563=3563&page=562","to":56240,"total":66732}