{"result":true,"data":[{"id":41512,"title":"Возмездие","kp_id":"1320672","imdb_id":"tt11194492","world_art_id":null,"type":"movie","add":"2020-07-01 06:50:49","orig_title":"Wira","year":"2019-11-21","translations":["Любительский (многоголосый закадровый) (Синема УС)"],"quality":"webdl","translation":"Любительский (многоголосый закадровый) (Синема УС)","update":"2020-07-01 13:25:34","iframe_src":"//2413.svetacdn.in/71tsRs29n5tZ/movie/41512"},{"id":41503,"title":"Бен 10: Секрет Омнитрикса","kp_id":"400164","imdb_id":"tt1146431","world_art_id":null,"type":"movie","add":"2020-06-30 15:18:46","orig_title":"Ben 10: Secret of the Omnitrix","year":"2007-08-10","translations":["Полное дублирование"],"quality":"dvdrip","translation":"Полное дублирование","update":"2020-07-01 11:53:15","iframe_src":"//2413.svetacdn.in/71tsRs29n5tZ/movie/41503"},{"id":41502,"title":"Я тебя съем","kp_id":"448310","imdb_id":"tt0783530","world_art_id":null,"type":"movie","add":"2020-06-30 15:16:41","orig_title":"Je te mangerais","year":"2009-03-11","translations":["Профессиональный (двухголосый закадровый)"],"quality":"dvdrip","translation":"Профессиональный (двухголосый закадровый)","update":"2020-07-01 11:52:15","iframe_src":"//2413.svetacdn.in/71tsRs29n5tZ/movie/41502"},{"id":41501,"title":"Школа Эвер Афтер: Сказка наизнанку","kp_id":"931347","imdb_id":"tt4995636","world_art_id":null,"type":"movie","add":"2020-06-30 15:13:19","orig_title":"Ever After High: Spring Unsprung","year":"2015-02-05","translations":["Полное дублирование"],"quality":"dvb","translation":"Полное дублирование","update":"2020-07-01 11:50:51","iframe_src":"//2413.svetacdn.in/71tsRs29n5tZ/movie/41501"},{"id":39661,"title":"Мистер и миссис Смит","kp_id":"9125","imdb_id":"tt0033922","world_art_id":null,"type":"movie","add":"2020-04-21 11:28:34","orig_title":"Mr. & Mrs. Smith","year":"1941-01-31","translations":["Профессиональный (многоголосый закадровый) (Светла)","Профессиональный (многоголосый закадровый) (DVD Магия)","Профессиональный (многоголосый закадровый) (Видеобаза)","[EN] Original (English)"],"quality":"webdl","translation":"Профессиональный (многоголосый закадровый) (Светла)","update":"2020-07-01 11:42:59","iframe_src":"//2413.svetacdn.in/71tsRs29n5tZ/movie/39661"},{"id":39555,"title":"Возмездие Макса Кибла","kp_id":"3848","imdb_id":"tt0273799","world_art_id":null,"type":"movie","add":"2020-04-19 10:02:34","orig_title":"Max Keeble's Big Move","year":"2001-10-05","translations":["Профессиональный (многоголосый закадровый) (СТС)","[EN] Original (English)"],"quality":"webdl","translation":"Профессиональный (многоголосый закадровый) (СТС)","update":"2020-07-01 11:40:25","iframe_src":"//2413.svetacdn.in/71tsRs29n5tZ/movie/39555"},{"id":39553,"title":"Из добрых побуждений","kp_id":"392745","imdb_id":"tt0759612","world_art_id":null,"type":"movie","add":"2020-04-19 09:46:54","orig_title":"Longford","year":"2006-10-26","translations":["Профессиональный (многоголосый закадровый) (Amedia)","[EN] Original (English)"],"quality":"webdl","translation":"Профессиональный (многоголосый закадровый) (Amedia)","update":"2020-07-01 11:39:13","iframe_src":"//2413.svetacdn.in/71tsRs29n5tZ/movie/39553"},{"id":39552,"title":"Ангелы с железными зубами","kp_id":"277575","imdb_id":"tt0338139","world_art_id":null,"type":"movie","add":"2020-04-19 09:45:48","orig_title":"Iron Jawed Angels","year":"2004-01-16","translations":["Профессиональный (многоголосый закадровый) (Amedia)","[EN] Original (English)"],"quality":"webdl","translation":"Профессиональный (многоголосый закадровый) (Amedia)","update":"2020-07-01 11:34:03","iframe_src":"//2413.svetacdn.in/71tsRs29n5tZ/movie/39552"},{"id":39538,"title":"Остров Паскали","kp_id":"7629","imdb_id":"tt0095827","world_art_id":null,"type":"movie","add":"2020-04-19 09:18:02","orig_title":"Pascali's Island","year":"1988-07-22","translations":["Профессиональный (двухголосый закадровый) (НТВ)","[EN] Original (English)"],"quality":"webdl","translation":"Профессиональный (двухголосый закадровый) (НТВ)","update":"2020-07-01 11:45:33","iframe_src":"//2413.svetacdn.in/71tsRs29n5tZ/movie/39538"},{"id":39537,"title":"На границе","kp_id":"34315","imdb_id":"tt0126568","world_art_id":null,"type":"movie","add":"2020-04-19 09:16:54","orig_title":"On the Border","year":"1998-10-04","translations":["Профессиональный (двухголосый закадровый)","Авторский (одноголосый закадровый) (Гаврилов Андрей)","[EN] Original (English)"],"quality":"webdl","translation":"Профессиональный (двухголосый закадровый)","update":"2020-07-01 11:44:40","iframe_src":"//2413.svetacdn.in/71tsRs29n5tZ/movie/39537"},{"id":39536,"title":"Радостная поездка","kp_id":"9395","imdb_id":"tt0119426","world_art_id":null,"type":"movie","add":"2020-04-19 09:14:00","orig_title":"Joyride","year":"1997-11-18","translations":["Профессиональный (двухголосый закадровый)","[EN] Original (English)"],"quality":"webdl","translation":"Профессиональный (двухголосый закадровый)","update":"2020-07-01 11:36:47","iframe_src":"//2413.svetacdn.in/71tsRs29n5tZ/movie/39536"},{"id":39522,"title":"Не отпуская","kp_id":"822107","imdb_id":"tt3438208","world_art_id":null,"type":"movie","add":"2020-04-19 08:55:26","orig_title":"No Letting Go","year":"2015-09-26","translations":["Любительский (одноголосый закадровый) (den904)","[EN] Original (English)"],"quality":"webdl","translation":"Любительский (одноголосый закадровый) (den904)","update":"2020-07-01 11:43:56","iframe_src":"//2413.svetacdn.in/71tsRs29n5tZ/movie/39522"},{"id":39498,"title":"Парень, йоркширская история","kp_id":"632929","imdb_id":"tt2073600","world_art_id":null,"type":"movie","add":"2020-04-18 12:54:52","orig_title":"Lad: A Yorkshire Story","year":"2013-04-25","translations":["Любительский (одноголосый закадровый) (Ващенко Семён)","[EN] Original (English)"],"quality":"webdl","translation":"Любительский (одноголосый закадровый) (Ващенко Семён)","update":"2020-07-01 11:37:38","iframe_src":"//2413.svetacdn.in/71tsRs29n5tZ/movie/39498"},{"id":39496,"title":"Он знает, что вы одни","kp_id":"6886","imdb_id":"tt0080850","world_art_id":null,"type":"movie","add":"2020-04-18 12:51:00","orig_title":"He Knows You're Alone","year":"1980-08-29","translations":["Любительский (одноголосый закадровый)","[EN] Original (English)"],"quality":"webdl","translation":"Любительский (одноголосый закадровый)","update":"2020-07-01 11:31:19","iframe_src":"//2413.svetacdn.in/71tsRs29n5tZ/movie/39496"},{"id":39491,"title":"Новичок года","kp_id":"9413","imdb_id":"tt0107985","world_art_id":null,"type":"movie","add":"2020-04-18 12:43:51","orig_title":"Rookie of the Year","year":"1993-07-07","translations":["Авторский (одноголосый закадровый) (Дохалов Вартан)","Авторский (одноголосый закадровый) (Визгунов Сергей)","[EN] Original (English)"],"quality":"webdl","translation":"Авторский (одноголосый закадровый) (Дохалов Вартан)","update":"2020-07-01 11:48:18","iframe_src":"//2413.svetacdn.in/71tsRs29n5tZ/movie/39491"},{"id":39489,"title":"Держись","kp_id":"692385","imdb_id":"tt2208778","world_art_id":null,"type":"movie","add":"2020-04-18 12:41:00","orig_title":"Hold Fast","year":"2013-08-23","translations":["Авторский (одноголосый закадровый) (Данилов Владислав | Kenum)","[EN] Original (English)"],"quality":"webdl","translation":"Авторский (одноголосый закадровый) (Данилов Владислав | Kenum)","update":"2020-07-01 11:33:14","iframe_src":"//2413.svetacdn.in/71tsRs29n5tZ/movie/39489"},{"id":38271,"title":"Адские охотники","kp_id":"35972","imdb_id":"tt0091193","world_art_id":null,"type":"movie","add":"2020-03-19 22:04:32","orig_title":"Hell Hunters","year":"1986-01-01","translations":["Профессиональный (многоголосый закадровый) (Варус-Видео)","[EN] Original (English)"],"quality":"webdl","translation":"Профессиональный (многоголосый закадровый) (Варус-Видео)","update":"2020-07-01 11:32:11","iframe_src":"//2413.svetacdn.in/71tsRs29n5tZ/movie/38271"},{"id":34686,"title":"Шестнадцатилетняя мать","kp_id":"341692","imdb_id":"tt0438123","world_art_id":null,"type":"movie","add":"2020-01-03 05:30:51","orig_title":"Mom at Sixteen","year":"2005-03-21","translations":["Профессиональный (двухголосый закадровый)","[EN] Original (English)"],"quality":"webdl","translation":"Профессиональный (двухголосый закадровый)","update":"2020-07-01 11:41:13","iframe_src":"//2413.svetacdn.in/71tsRs29n5tZ/movie/34686"},{"id":33624,"title":"Затемнение","kp_id":"1175542","imdb_id":"tt10801398","world_art_id":null,"type":"movie","add":"2019-12-02 17:09:38","orig_title":"Amjeon","year":"2019-08-15","translations":["Любительский (двухголосый закадровый) (Колобок)"],"quality":"webdl","translation":"Любительский (двухголосый закадровый) (Колобок)","update":"2020-07-01 11:49:55","iframe_src":"//2413.svetacdn.in/71tsRs29n5tZ/movie/33624"},{"id":31537,"title":"Робинзон Крузо","kp_id":"22500","imdb_id":"tt0117496","world_art_id":null,"type":"movie","add":"2019-10-06 20:07:38","orig_title":"Robinson Crusoe","year":"1997-07-12","translations":["Профессиональный (многоголосый закадровый) (West Video)","[EN] Original (English)"],"quality":"webdl","translation":"Профессиональный (многоголосый закадровый) (West Video)","update":"2020-07-01 11:46:56","iframe_src":"//2413.svetacdn.in/71tsRs29n5tZ/movie/31537"}],"current_page":1124,"first_page_url":"https://videocdn.tv/api/short?limit=100&api_token=EnbO9h8pv1VyjbCJhg0WM9nG259n7mtz&cache31124=31124&page=1","from":112301,"last_page":718,"last_page_url":"https://videocdn.tv/api/short?limit=100&api_token=EnbO9h8pv1VyjbCJhg0WM9nG259n7mtz&cache31124=31124&page=718","next_page_url":null,"path":"https://videocdn.tv/api/short","per_page":100,"prev_page_url":"https://videocdn.tv/api/short?limit=100&api_token=EnbO9h8pv1VyjbCJhg0WM9nG259n7mtz&cache31124=31124&page=1123","to":112320,"total":71790}