{"result":true,"data":[{"id":32424,"title":"Забудь о любви","kp_id":"1127677","imdb_id":"tt7758326","world_art_id":null,"type":"movie","add":"2019-10-28 07:36:31","orig_title":"Forget Love","year":"2018-06-18","translations":["Любительский (многоголосый закадровый) (Синема УС)"],"quality":"webdl","translation":"Любительский (многоголосый закадровый) (Синема УС)","update":"2019-10-28 10:32:01","iframe_src":"//2413.svetacdn.in/si4jsFRrtgrT/movie/32424"},{"id":32423,"title":"Полицейские огни","kp_id":"900603","imdb_id":"tt4224752","world_art_id":null,"type":"movie","add":"2019-10-28 07:26:04","orig_title":"Highlighters","year":"2019-01-08","translations":["Любительский (многоголосый закадровый) (Синема УС)"],"quality":"webdl","translation":"Любительский (многоголосый закадровый) (Синема УС)","update":"2019-10-28 10:09:34","iframe_src":"//2413.svetacdn.in/si4jsFRrtgrT/movie/32423"},{"id":32421,"title":"Не ради Оскара","kp_id":"1295377","imdb_id":"tt10843676","world_art_id":null,"type":"movie","add":"2019-10-28 07:22:03","orig_title":"Not the Oscars","year":"2019-02-24","translations":["Любительский (многоголосый закадровый) (Синема УС)"],"quality":"webdl","translation":"Любительский (многоголосый закадровый) (Синема УС)","update":"2019-10-28 10:09:05","iframe_src":"//2413.svetacdn.in/si4jsFRrtgrT/movie/32421"},{"id":32420,"title":"Мальчик, который кричал \"Волк!\"","kp_id":"1190107","imdb_id":"tt8871394","world_art_id":null,"type":"movie","add":"2019-10-28 07:18:11","orig_title":"Quand on crie au loup","year":"2019-07-03","translations":["Любительский (многоголосый закадровый) (Синема УС)"],"quality":"webdl","translation":"Любительский (многоголосый закадровый) (Синема УС)","update":"2019-10-28 10:07:31","iframe_src":"//2413.svetacdn.in/si4jsFRrtgrT/movie/32420"},{"id":32419,"title":"Она была такой милашкой","kp_id":"1019928","imdb_id":"tt6421998","world_art_id":null,"type":"movie","add":"2019-10-28 07:15:22","orig_title":"She Was So Pretty: Be Good for Goodness Sake","year":"2017-10-20","translations":["Любительский (многоголосый закадровый) (Колобок)"],"quality":"webdl","translation":"Любительский (многоголосый закадровый) (Колобок)","update":"2019-10-28 10:06:53","iframe_src":"//2413.svetacdn.in/si4jsFRrtgrT/movie/32419"},{"id":32418,"title":"Дом самоубийц","kp_id":"1259173","imdb_id":"tt9575498","world_art_id":null,"type":"movie","add":"2019-10-28 07:13:05","orig_title":"The Haunting of the Suicide House","year":"2019-01-09","translations":["Любительский (многоголосый закадровый) (Синема УС)"],"quality":"webdl","translation":"Любительский (многоголосый закадровый) (Синема УС)","update":"2019-10-28 10:05:54","iframe_src":"//2413.svetacdn.in/si4jsFRrtgrT/movie/32418"},{"id":32416,"title":"Я стеснительный, но я лечусь","kp_id":"22911","imdb_id":"tt0077768","world_art_id":null,"type":"movie","add":"2019-10-28 07:01:15","orig_title":"Je suis timide... mais je me soigne","year":"1978-08-23","translations":["Профессиональный (двухголосый закадровый)"],"quality":"dvdrip","translation":"Профессиональный (двухголосый закадровый)","update":"2019-10-28 10:02:49","iframe_src":"//2413.svetacdn.in/si4jsFRrtgrT/movie/32416"},{"id":32414,"title":"Крутой и смертоносный","kp_id":"86210","imdb_id":"tt0114706","world_art_id":null,"type":"movie","add":"2019-10-28 05:40:23","orig_title":"Tough and Deadly","year":"1995-02-14","translations":["Авторский (одноголосый закадровый) (Санаев Павел)"],"quality":"dvdrip","translation":"Авторский (одноголосый закадровый) (Санаев Павел)","update":"2019-10-28 12:33:24","iframe_src":"//2413.svetacdn.in/si4jsFRrtgrT/movie/32414"},{"id":32397,"title":"На чужбине","kp_id":"77632","imdb_id":"tt0119861","world_art_id":null,"type":"movie","add":"2019-10-27 19:25:05","orig_title":"Pardes","year":"1997-12-08","translations":["Профессиональный (многоголосый закадровый)"],"quality":"webdl","translation":"Профессиональный (многоголосый закадровый)","update":"2019-10-28 12:27:44","iframe_src":"//2413.svetacdn.in/si4jsFRrtgrT/movie/32397"},{"id":32358,"title":"Меня зовут Долемайт","kp_id":"1164937","imdb_id":"tt8526872","world_art_id":null,"type":"movie","add":"2019-10-25 20:55:45","orig_title":"Dolemite Is My Name","year":"2019-09-07","translations":["Полное дублирование (Netflix)"],"quality":"webdl","translation":"Полное дублирование (Netflix)","update":"2019-10-28 10:04:25","iframe_src":"//2413.svetacdn.in/si4jsFRrtgrT/movie/32358"},{"id":32349,"title":"Суровое испытание","kp_id":"629470","imdb_id":"tt2070649","world_art_id":null,"type":"movie","add":"2019-10-25 19:30:42","orig_title":"Do-ga-ni","year":"2011-09-22","translations":["Любительский (двухголосый закадровый) (GREEN TEA)"],"quality":"bd","translation":"Любительский (двухголосый закадровый) (GREEN TEA)","update":"2019-10-28 12:30:57","iframe_src":"//2413.svetacdn.in/si4jsFRrtgrT/movie/32349"},{"id":32339,"title":"Дженни Слейт: Боязнь сцены","kp_id":"1304364","imdb_id":"tt10971520","world_art_id":null,"type":"movie","add":"2019-10-25 11:28:03","orig_title":"Jenny Slate: Stage Fright","year":"2019-10-22","translations":["Любительский (многоголосый закадровый) (Синема УС)"],"quality":"webdl","translation":"Любительский (многоголосый закадровый) (Синема УС)","update":"2019-10-28 09:44:06","iframe_src":"//2413.svetacdn.in/si4jsFRrtgrT/movie/32339"},{"id":32271,"title":"Каникулы Дюкобю","kp_id":"602591","imdb_id":"tt2011961","world_art_id":null,"type":"movie","add":"2019-10-23 08:55:13","orig_title":"Les vacances de Ducobu","year":"2012-04-25","translations":["Профессиональный (многоголосый закадровый) (СТС)"],"quality":"bd","translation":"Профессиональный (многоголосый закадровый) (СТС)","update":"2019-10-28 13:19:26","iframe_src":"//2413.svetacdn.in/si4jsFRrtgrT/movie/32271"},{"id":32270,"title":"Ученик Дюкобю","kp_id":"575949","imdb_id":"tt1810864","world_art_id":null,"type":"movie","add":"2019-10-23 08:53:42","orig_title":"L'élève Ducobu","year":"2011-06-15","translations":["Профессиональный (многоголосый закадровый) (СТС)"],"quality":"bd","translation":"Профессиональный (многоголосый закадровый) (СТС)","update":"2019-10-28 13:18:24","iframe_src":"//2413.svetacdn.in/si4jsFRrtgrT/movie/32270"},{"id":32260,"title":"Западня","kp_id":"141476","imdb_id":"tt0203612","world_art_id":null,"type":"movie","add":"2019-10-23 08:07:47","orig_title":"Otoshiana","year":"1962-07-01","translations":["Авторский (одноголосый закадровый) (Алексеев Антон)"],"quality":"webdl","translation":"Авторский (одноголосый закадровый) (Алексеев Антон)","update":"2019-10-28 12:52:25","iframe_src":"//2413.svetacdn.in/si4jsFRrtgrT/movie/32260"},{"id":32258,"title":"Монах с железным кулаком","kp_id":"37175","imdb_id":"tt0076659","world_art_id":null,"type":"movie","add":"2019-10-23 08:04:46","orig_title":"San de huo shang yu chong mi liu","year":"1977-08-25","translations":["Авторский (одноголосый закадровый) (Визгунов Сергей)"],"quality":"bd","translation":"Авторский (одноголосый закадровый) (Визгунов Сергей)","update":"2019-10-28 12:47:38","iframe_src":"//2413.svetacdn.in/si4jsFRrtgrT/movie/32258"},{"id":32257,"title":"Героини","kp_id":"21388","imdb_id":"tt0119342","world_art_id":null,"type":"movie","add":"2019-10-23 08:03:25","orig_title":"Héroïnes","year":"1997-07-10","translations":["Авторский (одноголосый закадровый) (Сербин Юрий)"],"quality":"bd","translation":"Авторский (одноголосый закадровый) (Сербин Юрий)","update":"2019-10-28 12:46:25","iframe_src":"//2413.svetacdn.in/si4jsFRrtgrT/movie/32257"},{"id":32226,"title":"Тайны сводницы: убийственная помолвка","kp_id":"1286731","imdb_id":"tt8783262","world_art_id":null,"type":"movie","add":"2019-10-22 07:34:16","orig_title":"The Matchmaker Mysteries: A Killer Engagement","year":"2019-10-06","translations":["Любительский (многоголосый закадровый) (AlphaProject)"],"quality":"webdl","translation":"Любительский (многоголосый закадровый) (AlphaProject)","update":"2019-10-28 10:10:17","iframe_src":"//2413.svetacdn.in/si4jsFRrtgrT/movie/32226"},{"id":31751,"title":"Бесславные ублюдки","kp_id":"22579","imdb_id":"tt0076584","world_art_id":null,"type":"movie","add":"2019-10-11 21:06:15","orig_title":"Quel maledetto treno blindato","year":"1978-02-08","translations":["Авторский (одноголосый закадровый) (Яковлев Алексей)"],"quality":"bd","translation":"Авторский (одноголосый закадровый) (Яковлев Алексей)","update":"2019-10-28 12:35:02","iframe_src":"//2413.svetacdn.in/si4jsFRrtgrT/movie/31751"},{"id":31564,"title":"Диверсанты","kp_id":"99058","imdb_id":"tt0172329","world_art_id":null,"type":"movie","add":"2019-10-07 19:50:59","orig_title":"Diverzanti","year":"1968-02-09","translations":["Полное дублирование"],"quality":"hdtv","translation":"Полное дублирование","update":"2019-10-28 12:31:58","iframe_src":"//2413.svetacdn.in/si4jsFRrtgrT/movie/31564"}],"current_page":1553,"first_page_url":"https://videocdn.tv/api/short?limit=100&api_token=X6EwAUfE5M9xbo7y0Bp0aPf3uXxG2KLL&cache31553=31553&page=1","from":155201,"last_page":715,"last_page_url":"https://videocdn.tv/api/short?limit=100&api_token=X6EwAUfE5M9xbo7y0Bp0aPf3uXxG2KLL&cache31553=31553&page=715","next_page_url":null,"path":"https://videocdn.tv/api/short","per_page":100,"prev_page_url":"https://videocdn.tv/api/short?limit=100&api_token=X6EwAUfE5M9xbo7y0Bp0aPf3uXxG2KLL&cache31553=31553&page=1552","to":155220,"total":71407}