{"result":true,"data":[{"id":43896,"title":"Классный Кеес в облаках","kp_id":"1304830","imdb_id":"tt10522932","world_art_id":null,"type":"movie","add":"2020-09-27 07:50:33","orig_title":"Mees Kees in de Wolken","year":"2019-12-11","translations":["Любительский (многоголосый закадровый) (Синема УС)"],"quality":"webdl","translation":"Любительский (многоголосый закадровый) (Синема УС)","update":"2020-09-27 16:20:21","iframe_src":"//8543.svetacdn.in/71tsRs29n5tZ/movie/43896"},{"id":43895,"title":"НС404: Происхождение","kp_id":"928054","imdb_id":"tt4923568","world_art_id":null,"type":"movie","add":"2020-09-27 07:48:43","orig_title":"NS404: Provenance","year":"2018-01-13","translations":["Любительский (многоголосый закадровый) (Синема УС)"],"quality":"webdl","translation":"Любительский (многоголосый закадровый) (Синема УС)","update":"2020-09-27 14:38:11","iframe_src":"//8543.svetacdn.in/71tsRs29n5tZ/movie/43895"},{"id":43894,"title":"Одна на собственной свадьбе","kp_id":"1088045","imdb_id":"tt6797946","world_art_id":null,"type":"movie","add":"2020-09-27 07:44:35","orig_title":"Seule à mon mariage","year":"2018-05-10","translations":["Любительский (многоголосый закадровый) (Синема УС)"],"quality":"webdl","translation":"Любительский (многоголосый закадровый) (Синема УС)","update":"2020-09-27 15:39:11","iframe_src":"//8543.svetacdn.in/71tsRs29n5tZ/movie/43894"},{"id":43893,"title":"Она сказала, он сказал","kp_id":"1237016","imdb_id":"tt9660006","world_art_id":null,"type":"movie","add":"2020-09-27 07:42:56","orig_title":"Ela Disse, Ele Disse","year":"2019-10-03","translations":["Любительский (многоголосый закадровый) (Синема УС)"],"quality":"webdl","translation":"Любительский (многоголосый закадровый) (Синема УС)","update":"2020-09-27 14:46:19","iframe_src":"//8543.svetacdn.in/71tsRs29n5tZ/movie/43893"},{"id":43892,"title":"Пожар в холодное время года","kp_id":"1207782","imdb_id":"tt8885868","world_art_id":null,"type":"movie","add":"2020-09-27 07:40:58","orig_title":"A Fire in the Cold Season","year":"2019-09-13","translations":["Любительский (многоголосый закадровый) (@MUZOBOZ@)"],"quality":"webdl","translation":"Любительский (многоголосый закадровый) (@MUZOBOZ@)","update":"2020-09-27 20:40:01","iframe_src":"//8543.svetacdn.in/71tsRs29n5tZ/movie/43892"},{"id":43891,"title":"Бейсболистка","kp_id":"1235129","imdb_id":"tt11644332","world_art_id":null,"type":"movie","add":"2020-09-27 07:39:18","orig_title":"Yagusonyeo","year":"2019-10-04","translations":["Любительский (двухголосый закадровый) (Колобок)"],"quality":"webdl","translation":"Любительский (двухголосый закадровый) (Колобок)","update":"2020-09-27 14:45:13","iframe_src":"//8543.svetacdn.in/71tsRs29n5tZ/movie/43891"},{"id":43890,"title":"Человек с пистолетом","kp_id":"1306502","imdb_id":"tt11007198","world_art_id":null,"type":"movie","add":"2020-09-27 07:37:30","orig_title":"Boy Meets Gun","year":"2019-10-05","translations":["Любительский (многоголосый закадровый) (Синема УС)"],"quality":"webdl","translation":"Любительский (многоголосый закадровый) (Синема УС)","update":"2020-09-27 14:36:13","iframe_src":"//8543.svetacdn.in/71tsRs29n5tZ/movie/43890"},{"id":43889,"title":"Насущные проблемы","kp_id":"1330173","imdb_id":"tt11963590","world_art_id":null,"type":"movie","add":"2020-09-27 06:50:45","orig_title":"Jazzy Misfits","year":"2019-10-04","translations":["Любительский (двухголосый закадровый) (Колобок)"],"quality":"webdl","translation":"Любительский (двухголосый закадровый) (Колобок)","update":"2020-09-27 14:34:36","iframe_src":"//8543.svetacdn.in/71tsRs29n5tZ/movie/43889"},{"id":43888,"title":"Лингва франка","kp_id":"1191498","imdb_id":"tt8943224","world_art_id":null,"type":"movie","add":"2020-09-27 06:50:21","orig_title":"Lingua Franca","year":"2019-08-28","translations":["Любительский (многоголосый закадровый) (Синема УС)"],"quality":"bd","translation":"Любительский (многоголосый закадровый) (Синема УС)","update":"2020-09-27 08:50:39","iframe_src":"//8543.svetacdn.in/71tsRs29n5tZ/movie/43888"},{"id":43887,"title":"Потаскухи или Естественно-порочное наслаждение кожи","kp_id":"1161266","imdb_id":"tt8492566","world_art_id":null,"type":"movie","add":"2020-09-27 06:48:46","orig_title":"Les Salopes or The Naturally Wanton Pleasure of Skin","year":"2018-09-07","translations":["Любительский (многоголосый закадровый) (Синема УС)"],"quality":"webdl","translation":"Любительский (многоголосый закадровый) (Синема УС)","update":"2020-09-27 15:41:10","iframe_src":"//8543.svetacdn.in/71tsRs29n5tZ/movie/43887"},{"id":43886,"title":"Линь","kp_id":"1186401","imdb_id":"tt8221842","world_art_id":null,"type":"movie","add":"2020-09-27 06:47:08","orig_title":"Muidhond","year":"2019-10-09","translations":["Любительский (многоголосый закадровый) (Синема УС)"],"quality":"webdl","translation":"Любительский (многоголосый закадровый) (Синема УС)","update":"2020-09-27 14:32:38","iframe_src":"//8543.svetacdn.in/71tsRs29n5tZ/movie/43886"},{"id":43885,"title":"Крики тишины","kp_id":"975113","imdb_id":"tt5562804","world_art_id":null,"type":"movie","add":"2020-09-27 06:45:17","orig_title":"Le grida del silenzio","year":"2018-05-03","translations":["Любительский (многоголосый закадровый) (Синема УС)"],"quality":"webdl","translation":"Любительский (многоголосый закадровый) (Синема УС)","update":"2020-09-27 08:52:27","iframe_src":"//8543.svetacdn.in/71tsRs29n5tZ/movie/43885"},{"id":43884,"title":"Оборванная жизнь «Юйсе» Лескинена","kp_id":"1050999","imdb_id":"tt7317310","world_art_id":null,"type":"movie","add":"2020-09-27 06:41:06","orig_title":"Juice","year":"2018-12-21","translations":["Любительский (многоголосый закадровый) (Синема УС)"],"quality":"webdl","translation":"Любительский (многоголосый закадровый) (Синема УС)","update":"2020-09-27 08:53:52","iframe_src":"//8543.svetacdn.in/71tsRs29n5tZ/movie/43884"},{"id":43882,"title":"Он любит меня","kp_id":"1230458","imdb_id":"tt7238326","world_art_id":null,"type":"movie","add":"2020-09-27 06:36:43","orig_title":"He Loves Me","year":"2018-02-05","translations":["Любительский (многоголосый закадровый) (Синема УС)"],"quality":"webdl","translation":"Любительский (многоголосый закадровый) (Синема УС)","update":"2020-09-27 08:54:39","iframe_src":"//8543.svetacdn.in/71tsRs29n5tZ/movie/43882"},{"id":43881,"title":"Путешествие по Нидерландам 2","kp_id":"1109876","imdb_id":"tt7295378","world_art_id":null,"type":"movie","add":"2020-09-27 06:32:45","orig_title":"Bon Bini Holland 2","year":"2018-12-13","translations":["Любительский (многоголосый закадровый) (Синема УС)"],"quality":"bd","translation":"Любительский (многоголосый закадровый) (Синема УС)","update":"2020-09-27 08:55:58","iframe_src":"//8543.svetacdn.in/71tsRs29n5tZ/movie/43881"},{"id":43880,"title":"Клео и Поль","kp_id":"1112839","imdb_id":"tt7766144","world_art_id":null,"type":"movie","add":"2020-09-27 06:30:23","orig_title":"Allons enfants","year":"2018-02-17","translations":["Любительский (многоголосый закадровый) (Синема УС)"],"quality":"webdl","translation":"Любительский (многоголосый закадровый) (Синема УС)","update":"2020-09-27 08:57:19","iframe_src":"//8543.svetacdn.in/71tsRs29n5tZ/movie/43880"},{"id":43863,"title":"Брюс Спрингстин: Своими словами","kp_id":"1048953","imdb_id":"tt7291132","world_art_id":null,"type":"movie","add":"2020-09-26 07:10:12","orig_title":"Bruce Springsteen: In His Own Words","year":"2016-12-29","translations":["Профессиональный (одноголосый закадровый)"],"quality":"hdtv","translation":"Профессиональный (одноголосый закадровый)","update":"2020-09-26 18:28:10","iframe_src":"//8543.svetacdn.in/71tsRs29n5tZ/movie/43863"},{"id":42119,"title":"Глубокое синее море 3","kp_id":"1355290","imdb_id":"tt11946300","world_art_id":null,"type":"movie","add":"2020-07-29 20:26:36","orig_title":"Deep Blue Sea 3","year":"2020-07-28","translations":["Любительский (многоголосый закадровый) (@MUZOBOZ@)","Original (English)","Полное дублирование (iTunes)","Полное дублирование (iTunes)"],"quality":"webdl","translation":"Любительский (многоголосый закадровый) (@MUZOBOZ@)","update":"2020-09-27 16:10:54","iframe_src":"//8543.svetacdn.in/71tsRs29n5tZ/movie/42119"},{"id":4960,"title":"Последняя исповедь","kp_id":"436295","imdb_id":null,"world_art_id":null,"type":"serial","add":"2019-07-29 05:35:57","orig_title":"Последняя исповедь","year":"2006-01-01","translations":["Оригинальная дорожка"],"seasons_count":1,"episodes_count":4,"episodes":4,"update":"2019-07-30 03:19:11","iframe_src":"//8543.svetacdn.in/71tsRs29n5tZ/tv-series/4960"},{"id":4959,"title":"Было у отца два сына","kp_id":"1112896","imdb_id":null,"world_art_id":null,"type":"serial","add":"2019-07-28 17:39:14","orig_title":"Было у отца два сына","year":"2017-01-01","translations":["Оригинальная дорожка"],"seasons_count":1,"episodes_count":4,"episodes":4,"update":"2019-07-28 20:25:33","iframe_src":"//8543.svetacdn.in/71tsRs29n5tZ/tv-series/4959"},{"id":4956,"title":"Ясновидец","kp_id":"399965","imdb_id":"tt0491738","world_art_id":null,"type":"serial","add":"2019-07-27 15:35:59","orig_title":"Psych","year":"2006-07-07","translations":["Профессиональный (двухголосый закадровый)","Профессиональный (двухголосый закадровый) (NewStudio)","Профессиональный (многоголосый закадровый) (ТВ3)"],"seasons_count":8,"episodes_count":121,"episodes":10,"update":"2019-07-28 12:25:21","iframe_src":"//8543.svetacdn.in/71tsRs29n5tZ/tv-series/4956"},{"id":4948,"title":"Убежище","kp_id":"311095","imdb_id":"tt0965394","world_art_id":null,"type":"serial","add":"2019-07-25 20:34:47","orig_title":"Sanctuary","year":"2008-10-03","translations":["Профессиональный (многоголосый закадровый) (Syfy Universal)"],"seasons_count":4,"episodes_count":58,"episodes":13,"update":"2019-07-26 21:20:32","iframe_src":"//8543.svetacdn.in/71tsRs29n5tZ/tv-series/4948"},{"id":4943,"title":"Побег 2","kp_id":"682267","imdb_id":"tt4080172","world_art_id":null,"type":"serial","add":"2019-07-25 09:58:36","orig_title":"Pobeg 2","year":"2014-05-14","translations":["Оригинальная дорожка"],"seasons_count":1,"episodes_count":16,"episodes":16,"update":"2019-07-28 07:39:27","iframe_src":"//8543.svetacdn.in/71tsRs29n5tZ/tv-series/4943"},{"id":4942,"title":"Побег","kp_id":"533128","imdb_id":"tt3540714","world_art_id":null,"type":"serial","add":"2019-07-25 09:49:35","orig_title":"Pobeg","year":"2010-09-20","translations":["Оригинальная дорожка"],"seasons_count":1,"episodes_count":22,"episodes":22,"update":"2019-07-28 06:50:41","iframe_src":"//8543.svetacdn.in/71tsRs29n5tZ/tv-series/4942"},{"id":4940,"title":"Весенняя ночь","kp_id":"1234914","imdb_id":"tt10192576","world_art_id":null,"type":"serial","add":"2019-07-25 08:50:07","orig_title":"Bombam","year":"2019-05-22","translations":["Любительский (двухголосый закадровый) (SoftBox)"],"seasons_count":1,"episodes_count":16,"episodes":16,"update":"2019-07-28 06:30:29","iframe_src":"//8543.svetacdn.in/71tsRs29n5tZ/tv-series/4940"},{"id":4939,"title":"Миллениум","kp_id":"672397","imdb_id":"tt1634549","world_art_id":null,"type":"serial","add":"2019-07-25 07:56:07","orig_title":"Millennium","year":"2010-03-20","translations":["Профессиональный (многоголосый закадровый)"],"seasons_count":1,"episodes_count":6,"episodes":6,"update":"2019-07-27 13:58:44","iframe_src":"//8543.svetacdn.in/71tsRs29n5tZ/tv-series/4939"},{"id":4938,"title":"Секреты на кухне","kp_id":"395698","imdb_id":"tt0460654","world_art_id":null,"type":"serial","add":"2019-07-25 07:37:36","orig_title":"Kitchen Confidential","year":"2005-09-19","translations":["Любительский (двухголосый закадровый)"],"seasons_count":1,"episodes_count":13,"episodes":13,"update":"2019-07-27 13:56:21","iframe_src":"//8543.svetacdn.in/71tsRs29n5tZ/tv-series/4938"},{"id":4925,"title":"Два копа","kp_id":"1046023","imdb_id":null,"world_art_id":null,"type":"serial","add":"2019-07-23 11:15:14","orig_title":"Tukkabseu","year":"2017-11-27","translations":["Любительский (многоголосый закадровый) (STEPonee)"],"seasons_count":1,"episodes_count":32,"episodes":32,"update":"2019-07-28 07:54:58","iframe_src":"//8543.svetacdn.in/71tsRs29n5tZ/tv-series/4925"},{"id":4922,"title":"Вместе каждый день","kp_id":"503318","imdb_id":"tt0314971","world_art_id":null,"type":"serial","add":"2019-07-23 08:16:18","orig_title":"24Seven","year":"2001-11-19","translations":["Профессиональный (многоголосый закадровый)","Профессиональный (многоголосый закадровый) (ВГТРК)"],"seasons_count":2,"episodes_count":26,"episodes":13,"update":"2019-07-28 12:32:17","iframe_src":"//8543.svetacdn.in/71tsRs29n5tZ/tv-series/4922"},{"id":4877,"title":"Любовь и судьба","kp_id":"1254065","imdb_id":"tt10340368","world_art_id":null,"type":"serial","add":"2019-07-17 11:43:45","orig_title":"Love And Destiny","year":"2020-01-01","translations":["Любительский (двухголосый закадровый) (East Dream)"],"seasons_count":1,"episodes_count":8,"episodes":8,"update":"2019-07-29 20:24:05","iframe_src":"//8543.svetacdn.in/71tsRs29n5tZ/tv-series/4877"},{"id":4732,"title":"Воплощение страха","kp_id":"414893","imdb_id":"tt1112285","world_art_id":null,"type":"serial","add":"2019-06-21 13:28:00","orig_title":"Fear Itself","year":"2008-06-05","translations":["Профессиональный (многоголосый закадровый) (Sony Sci-Fi)"],"seasons_count":1,"episodes_count":13,"episodes":13,"update":"2019-07-29 11:41:47","iframe_src":"//8543.svetacdn.in/71tsRs29n5tZ/tv-series/4732"},{"id":4655,"title":"Парфюм","kp_id":"1252568","imdb_id":"tt10307796","world_art_id":null,"type":"serial","add":"2019-06-13 07:11:25","orig_title":"Peo-pyum","year":"2019-06-03","translations":["Любительский (многоголосый закадровый)"],"seasons_count":1,"episodes_count":16,"episodes":16,"update":"2019-07-28 16:22:12","iframe_src":"//8543.svetacdn.in/71tsRs29n5tZ/tv-series/4655"},{"id":4536,"title":"Городок","kp_id":"451181","imdb_id":"tt4879396","world_art_id":null,"type":"serial","add":"2019-05-21 22:05:27","orig_title":"Gorodok","year":"1993-01-01","translations":["Оригинальная дорожка"],"seasons_count":1,"episodes_count":235,"episodes":235,"update":"2019-07-27 12:45:28","iframe_src":"//8543.svetacdn.in/71tsRs29n5tZ/tv-series/4536"},{"id":3904,"title":"Рисующий ветер","kp_id":"576045","imdb_id":"tt2288104","world_art_id":null,"type":"serial","add":"2019-01-18 10:10:53","orig_title":"Painter of the Wind","year":"2008-09-24","translations":["Профессиональный (многоголосый закадровый)"],"seasons_count":1,"episodes_count":20,"episodes":20,"update":"2019-07-28 08:51:38","iframe_src":"//8543.svetacdn.in/71tsRs29n5tZ/tv-series/3904"},{"id":3643,"title":"Императрица Фуяо","kp_id":"1178536","imdb_id":"tt8811032","world_art_id":null,"type":"serial","add":"2018-12-08 23:49:30","orig_title":"Fuyao","year":"2018-06-18","translations":["Любительский (одноголосый закадровый)","Любительский (двухголосый закадровый)"],"seasons_count":1,"episodes_count":66,"episodes":66,"update":"2019-07-27 13:39:25","iframe_src":"//8543.svetacdn.in/71tsRs29n5tZ/tv-series/3643"},{"id":19806,"title":"Бомбардировка","kp_id":"916016","imdb_id":"tt4743226","world_art_id":null,"type":"movie","add":"2018-10-28 14:32:56","orig_title":"Da hong zha","year":"2018-10-26","translations":["Любительский (многоголосый закадровый) (@MUZOBOZ@)","Любительский (двухголосый закадровый) (HiWayGrope)","Профессиональный (многоголосый закадровый) (GreenРай Studio)","Профессиональный (многоголосый закадровый) (HDrezka Studio)","Original (English)","Профессиональный (многоголосый закадровый) (HDrezka Studio)"],"quality":"bd","translation":"Любительский (многоголосый закадровый) (@MUZOBOZ@)","update":"2020-09-27 16:43:32","iframe_src":"//8543.svetacdn.in/71tsRs29n5tZ/movie/19806"},{"id":19201,"title":"Американский пижон","kp_id":"872447","imdb_id":"tt3956336","world_art_id":null,"type":"movie","add":"2018-09-26 22:49:00","orig_title":"American Dresser","year":"2018-09-21","translations":["Профессиональный (многоголосый закадровый) (HDrezka Studio)","Любительский (многоголосый закадровый) (Синема УС)","Любительский (двухголосый закадровый) (HiWayGrope)","Original (English)"],"quality":"bd","translation":"Профессиональный (многоголосый закадровый) (HDrezka Studio)","update":"2020-09-27 16:42:04","iframe_src":"//8543.svetacdn.in/71tsRs29n5tZ/movie/19201"},{"id":2827,"title":"Странный ангел","kp_id":"1112192","imdb_id":"tt7210448","world_art_id":null,"type":"serial","add":"2018-06-17 20:48:44","orig_title":"Strange Angel","year":"2018-06-14","translations":["Профессиональный (многоголосый закадровый) (LostFilm)"],"seasons_count":2,"episodes_count":17,"episodes":7,"update":"2019-07-28 20:17:45","iframe_src":"//8543.svetacdn.in/71tsRs29n5tZ/tv-series/2827"},{"id":780,"title":"Римская Испания, легенда","kp_id":"543119","imdb_id":"tt1691593","world_art_id":null,"type":"serial","add":"2017-01-02 07:01:53","orig_title":"Hispania, la leyenda","year":"2010-10-25","translations":["Профессиональный (многоголосый закадровый) (BaibaKo)"],"seasons_count":3,"episodes_count":20,"episodes":3,"update":"2019-07-27 14:47:33","iframe_src":"//8543.svetacdn.in/71tsRs29n5tZ/tv-series/780"},{"id":49,"title":"Слэшер","kp_id":"941473","imdb_id":"tt4667888","world_art_id":null,"type":"serial","add":"2016-04-05 11:30:34","orig_title":"Slasher","year":"2016-03-04","translations":["Профессиональный (многоголосый закадровый) (IdeaFilm)","Любительский (двухголосый закадровый) (Sunshine Studio)","Любительский (многоголосый закадровый) (ColdFilm)"],"seasons_count":3,"episodes_count":24,"episodes":8,"update":"2019-07-29 15:01:53","iframe_src":"//8543.svetacdn.in/71tsRs29n5tZ/tv-series/49"}],"current_page":315,"first_page_url":"https://videocdn.tv/api/short?limit=100&api_token=EnbO9h8pv1VyjbCJhg0WM9nG259n7mtz&cache3315=3315&page=1","from":31401,"last_page":600,"last_page_url":"https://videocdn.tv/api/short?limit=100&api_token=EnbO9h8pv1VyjbCJhg0WM9nG259n7mtz&cache3315=3315&page=600","next_page_url":"https://videocdn.tv/api/short?limit=100&api_token=EnbO9h8pv1VyjbCJhg0WM9nG259n7mtz&cache3315=3315&page=316","path":"https://videocdn.tv/api/short","per_page":100,"prev_page_url":"https://videocdn.tv/api/short?limit=100&api_token=EnbO9h8pv1VyjbCJhg0WM9nG259n7mtz&cache3315=3315&page=314","to":31440,"total":59948}