{"result":true,"data":[{"id":47228,"title":"Сибирь и он","kp_id":"1133263","imdb_id":"tt7304136","world_art_id":null,"type":"movie","add":"2021-01-19 14:52:49","orig_title":"Siberia and Him","year":"2019-10-27","translations":["Оригинальная дорожка"],"quality":"webdl","translation":"Оригинальная дорожка","update":"2021-01-19 18:35:14","iframe_src":"//7043.svetacdn.in/si4jsFRrtgrT/movie/47228"},{"id":47222,"title":"След нашей тоски","kp_id":"427528","imdb_id":"tt1302559","world_art_id":null,"type":"movie","add":"2021-01-18 20:42:47","orig_title":"Le fil","year":"2009-08-29","translations":["Любительский (одноголосый закадровый)"],"quality":"bd","translation":"Любительский (одноголосый закадровый)","update":"2021-01-19 18:58:36","iframe_src":"//7043.svetacdn.in/si4jsFRrtgrT/movie/47222"},{"id":47221,"title":"Неоткрытая страна","kp_id":"1015962","imdb_id":"tt6466598","world_art_id":null,"type":"movie","add":"2021-01-18 20:36:46","orig_title":"The Undiscovered Country","year":"2019-05-01","translations":["Любительский (многоголосый закадровый) (Синема УС)"],"quality":"webdl","translation":"Любительский (многоголосый закадровый) (Синема УС)","update":"2021-01-19 18:59:31","iframe_src":"//7043.svetacdn.in/si4jsFRrtgrT/movie/47221"},{"id":47219,"title":"Макате должна продать","kp_id":null,"imdb_id":"tt10332008","world_art_id":null,"type":"movie","add":"2021-01-18 18:27:57","orig_title":"Makate Must Sell","year":"2019-08-15","translations":["Любительский (многоголосый закадровый) (AlphaProject)"],"quality":"webdl","translation":"Любительский (многоголосый закадровый) (AlphaProject)","update":"2021-01-19 19:00:34","iframe_src":"//7043.svetacdn.in/si4jsFRrtgrT/movie/47219"},{"id":47218,"title":"Тот, кто молится с тобой","kp_id":"1286595","imdb_id":"tt10645356","world_art_id":null,"type":"movie","add":"2021-01-18 18:26:13","orig_title":"Makmum","year":"2019-08-15","translations":["Любительский (двухголосый закадровый) (Колобок)"],"quality":"webdl","translation":"Любительский (двухголосый закадровый) (Колобок)","update":"2021-01-19 19:01:40","iframe_src":"//7043.svetacdn.in/si4jsFRrtgrT/movie/47218"},{"id":47217,"title":"Этот безумный мир","kp_id":"1236859","imdb_id":"tt9642962","world_art_id":null,"type":"movie","add":"2021-01-18 18:25:01","orig_title":"A Tor Bella Monaca non piove mai","year":"2019-11-28","translations":["Любительский (многоголосый закадровый) (AlphaProject)"],"quality":"webdl","translation":"Любительский (многоголосый закадровый) (AlphaProject)","update":"2021-01-19 19:02:15","iframe_src":"//7043.svetacdn.in/si4jsFRrtgrT/movie/47217"},{"id":47215,"title":"Наказание","kp_id":null,"imdb_id":"tt7738704","world_art_id":null,"type":"movie","add":"2021-01-18 18:20:06","orig_title":"Detention","year":"2019-02-22","translations":["Любительский (многоголосый закадровый) (AlphaProject)"],"quality":"webdl","translation":"Любительский (многоголосый закадровый) (AlphaProject)","update":"2021-01-19 19:02:34","iframe_src":"//7043.svetacdn.in/si4jsFRrtgrT/movie/47215"},{"id":47214,"title":"Лихорадочные сны","kp_id":"1319520","imdb_id":"tt11197716","world_art_id":null,"type":"movie","add":"2021-01-18 18:18:02","orig_title":"Fever Dreams Movie","year":"2019-09-27","translations":["Любительский (многоголосый закадровый) (Синема УС)"],"quality":"webdl","translation":"Любительский (многоголосый закадровый) (Синема УС)","update":"2021-01-19 19:02:54","iframe_src":"//7043.svetacdn.in/si4jsFRrtgrT/movie/47214"},{"id":47190,"title":"Разрушители плотин","kp_id":"196578","imdb_id":"tt0046889","world_art_id":null,"type":"movie","add":"2021-01-17 16:49:30","orig_title":"The Dam Busters","year":"1955-05-16","translations":["Original (English)","Профессиональный (одноголосый закадровый)"],"quality":"bd","translation":"Original (English)","update":"2021-01-19 14:48:23","iframe_src":"//7043.svetacdn.in/si4jsFRrtgrT/movie/47190"},{"id":47177,"title":"Вакуум","kp_id":"1034603","imdb_id":"tt6437936","world_art_id":null,"type":"movie","add":"2021-01-17 11:47:33","orig_title":"Vakuum","year":"2017-11-26","translations":["Любительский (многоголосый закадровый) (Синема УС)"],"quality":"webdl","translation":"Любительский (многоголосый закадровый) (Синема УС)","update":"2021-01-19 14:32:37","iframe_src":"//7043.svetacdn.in/si4jsFRrtgrT/movie/47177"},{"id":47176,"title":"Сайдлинг Хилл","kp_id":"1061257","imdb_id":"tt5660288","world_art_id":null,"type":"movie","add":"2021-01-17 11:46:17","orig_title":"The Sideling Hill","year":"2019-08-01","translations":["Любительский (многоголосый закадровый) (Синема УС)"],"quality":"webdl","translation":"Любительский (многоголосый закадровый) (Синема УС)","update":"2021-01-19 14:32:24","iframe_src":"//7043.svetacdn.in/si4jsFRrtgrT/movie/47176"},{"id":47175,"title":"Я бегу домой","kp_id":"1191854","imdb_id":"tt8769828","world_art_id":null,"type":"movie","add":"2021-01-17 11:43:51","orig_title":"Scappo a casa","year":"2019-03-31","translations":["Любительский (многоголосый закадровый) (AlphaProject)"],"quality":"webdl","translation":"Любительский (многоголосый закадровый) (AlphaProject)","update":"2021-01-19 14:32:06","iframe_src":"//7043.svetacdn.in/si4jsFRrtgrT/movie/47175"},{"id":47174,"title":"Лара. Арибель и рука судьбы","kp_id":"1374036","imdb_id":"tt9105556","world_art_id":null,"type":"movie","add":"2021-01-17 11:39:36","orig_title":"Lara - Aribelle si mana destinului","year":"2018-12-16","translations":["Любительский (многоголосый закадровый) (Синема УС)"],"quality":"webdl","translation":"Любительский (многоголосый закадровый) (Синема УС)","update":"2021-01-19 14:31:53","iframe_src":"//7043.svetacdn.in/si4jsFRrtgrT/movie/47174"},{"id":47173,"title":"Дети","kp_id":"1209475","imdb_id":"tt9170112","world_art_id":null,"type":"movie","add":"2021-01-17 11:37:41","orig_title":"Just Kids","year":"2019-11-16","translations":["Любительский (многоголосый закадровый) (Синема УС)"],"quality":"webdl","translation":"Любительский (многоголосый закадровый) (Синема УС)","update":"2021-01-19 14:31:39","iframe_src":"//7043.svetacdn.in/si4jsFRrtgrT/movie/47173"},{"id":47170,"title":"Хочу ребёнка","kp_id":"1147013","imdb_id":"tt8076110","world_art_id":null,"type":"movie","add":"2021-01-17 11:19:41","orig_title":"Énorme","year":"2019-10-17","translations":["Любительский (многоголосый закадровый) (Синема УС)"],"quality":"webdl","translation":"Любительский (многоголосый закадровый) (Синема УС)","update":"2021-01-19 14:31:19","iframe_src":"//7043.svetacdn.in/si4jsFRrtgrT/movie/47170"},{"id":47073,"title":"Битва у Ла-Платы","kp_id":"5758","imdb_id":"tt0048990","world_art_id":null,"type":"movie","add":"2021-01-14 09:16:57","orig_title":"The Battle of the River Plate","year":"1956-10-29","translations":["Original (English)","Авторский (одноголосый закадровый) (Рябов Сергей)"],"quality":"bd","translation":"Original (English)","update":"2021-01-20 06:10:03","iframe_src":"//7043.svetacdn.in/si4jsFRrtgrT/movie/47073"},{"id":44610,"title":"Юный детектив","kp_id":"1260923","imdb_id":"tt8980602","world_art_id":null,"type":"movie","add":"2020-10-19 21:00:57","orig_title":"The Kid Detective","year":"2020-09-13","translations":["Любительский (многоголосый закадровый) (@MUZOBOZ@)","Original (English)","Профессиональный (многоголосый закадровый)"],"quality":"webdl","translation":"Любительский (многоголосый закадровый) (@MUZOBOZ@)","update":"2021-01-19 22:11:25","iframe_src":"//7043.svetacdn.in/si4jsFRrtgrT/movie/44610"},{"id":7073,"title":"Два силуэта на закате солнца","kp_id":"1338038","imdb_id":null,"world_art_id":null,"type":"serial","add":"2020-04-03 14:04:25","orig_title":"Два силуэта на закате солнца","year":"2020-01-01","translations":["Оригинальная дорожка"],"seasons_count":1,"episodes_count":2,"episodes":2,"update":"2020-04-03 21:20:14","iframe_src":"//7043.svetacdn.in/si4jsFRrtgrT/tv-series/7073"},{"id":7065,"title":"Женщина наводит порядок","kp_id":"1360308","imdb_id":null,"world_art_id":null,"type":"serial","add":"2020-04-02 20:14:17","orig_title":"Женщина наводит порядок","year":"2020-03-21","translations":["Оригинальная дорожка"],"seasons_count":1,"episodes_count":4,"episodes":4,"update":"2020-04-03 18:29:18","iframe_src":"//7043.svetacdn.in/si4jsFRrtgrT/tv-series/7065"},{"id":7062,"title":"Мой личный враг","kp_id":"412383","imdb_id":"tt1217239","world_art_id":null,"type":"serial","add":"2020-04-02 15:22:48","orig_title":"My Own Worst Enemy","year":"2008-10-13","translations":["Профессиональный (многоголосый закадровый) (Звезда)"],"seasons_count":1,"episodes_count":9,"episodes":9,"update":"2020-04-03 21:31:24","iframe_src":"//7043.svetacdn.in/si4jsFRrtgrT/tv-series/7062"},{"id":7061,"title":"Крёстный","kp_id":"780314","imdb_id":"tt3832698","world_art_id":null,"type":"serial","add":"2020-04-02 15:18:13","orig_title":"Krestniy","year":"2014-12-22","translations":["Оригинальная дорожка"],"seasons_count":1,"episodes_count":8,"episodes":8,"update":"2020-04-03 21:26:08","iframe_src":"//7043.svetacdn.in/si4jsFRrtgrT/tv-series/7061"},{"id":7060,"title":"Порох и дробь","kp_id":"639671","imdb_id":"tt3613440","world_art_id":null,"type":"serial","add":"2020-04-02 15:15:43","orig_title":"Porokh i drob","year":"2013-03-23","translations":["Оригинальная дорожка"],"seasons_count":1,"episodes_count":24,"episodes":24,"update":"2020-04-03 22:09:57","iframe_src":"//7043.svetacdn.in/si4jsFRrtgrT/tv-series/7060"},{"id":7059,"title":"Ярмарка тщеславия","kp_id":"88709","imdb_id":"tt0159090","world_art_id":null,"type":"serial","add":"2020-04-02 15:00:03","orig_title":"Vanity Fair","year":"1998-11-01","translations":["Профессиональный (многоголосый закадровый)"],"seasons_count":1,"episodes_count":2,"episodes":2,"update":"2020-04-03 21:59:27","iframe_src":"//7043.svetacdn.in/si4jsFRrtgrT/tv-series/7059"},{"id":7052,"title":"Южный Райдинг","kp_id":"574437","imdb_id":"tt1688606","world_art_id":null,"type":"serial","add":"2020-04-01 21:22:09","orig_title":"South Riding","year":"2011-02-20","translations":["Профессиональный (многоголосый закадровый) (Русский дубляж)"],"seasons_count":1,"episodes_count":3,"episodes":3,"update":"2020-04-02 15:49:34","iframe_src":"//7043.svetacdn.in/si4jsFRrtgrT/tv-series/7052"},{"id":7051,"title":"Сталинград","kp_id":"94262","imdb_id":"tt0174240","world_art_id":null,"type":"serial","add":"2020-04-01 21:18:06","orig_title":"Stalingrad","year":"1989-01-01","translations":["Оригинальная дорожка"],"seasons_count":1,"episodes_count":2,"episodes":2,"update":"2020-04-02 15:52:22","iframe_src":"//7043.svetacdn.in/si4jsFRrtgrT/tv-series/7051"},{"id":7047,"title":"Игра в ложь","kp_id":"580379","imdb_id":"tt1798274","world_art_id":null,"type":"serial","add":"2020-04-01 13:33:19","orig_title":"The Lying Game","year":"2011-08-15","translations":["Любительский (двухголосый закадровый) (SnowRecords)","Любительский (многоголосый закадровый) (Dream Records)"],"seasons_count":2,"episodes_count":30,"episodes":10,"update":"2020-04-03 21:57:42","iframe_src":"//7043.svetacdn.in/si4jsFRrtgrT/tv-series/7047"},{"id":7046,"title":"Север и Юг","kp_id":"160989","imdb_id":"tt0417349","world_art_id":null,"type":"serial","add":"2020-04-01 13:11:55","orig_title":"North & South","year":"2004-11-14","translations":["Профессиональный (многоголосый закадровый)"],"seasons_count":1,"episodes_count":4,"episodes":4,"update":"2020-04-02 16:03:30","iframe_src":"//7043.svetacdn.in/si4jsFRrtgrT/tv-series/7046"},{"id":7045,"title":"Видагу Палас","kp_id":"1045980","imdb_id":"tt5073948","world_art_id":null,"type":"serial","add":"2020-04-01 13:06:12","orig_title":"Vidago Palace","year":"2017-03-30","translations":["Любительский (двухголосый закадровый) (GoldTeam)"],"seasons_count":1,"episodes_count":6,"episodes":6,"update":"2020-04-02 16:08:09","iframe_src":"//7043.svetacdn.in/si4jsFRrtgrT/tv-series/7045"},{"id":7044,"title":"Билли и Билли","kp_id":"891587","imdb_id":"tt4277268","world_art_id":null,"type":"serial","add":"2020-04-01 12:53:38","orig_title":"Billy & Billie","year":"2015-03-03","translations":["Любительский (одноголосый закадровый) (Lord32x)"],"seasons_count":1,"episodes_count":10,"episodes":10,"update":"2020-04-02 07:09:12","iframe_src":"//7043.svetacdn.in/si4jsFRrtgrT/tv-series/7044"},{"id":7042,"title":"Сандерленд до гроба","kp_id":"1338507","imdb_id":"tt8914684","world_art_id":null,"type":"serial","add":"2020-04-01 11:55:50","orig_title":"Sunderland 'Til I Die","year":"2018-12-14","translations":["Любительский (многоголосый закадровый) (ColdFilm)","Любительский (многоголосый закадровый) (Octopus)"],"seasons_count":1,"episodes_count":6,"episodes":6,"update":"2020-04-03 18:29:17","iframe_src":"//7043.svetacdn.in/si4jsFRrtgrT/tv-series/7042"},{"id":7041,"title":"Без срока давности","kp_id":"652770","imdb_id":"tt3189266","world_art_id":null,"type":"serial","add":"2020-04-01 11:14:41","orig_title":"Bez sroka davnosti","year":"2012-01-01","translations":["Оригинальная дорожка"],"seasons_count":1,"episodes_count":25,"episodes":25,"update":"2020-04-02 16:45:52","iframe_src":"//7043.svetacdn.in/si4jsFRrtgrT/tv-series/7041"},{"id":6971,"title":"Заступники","kp_id":"1108899","imdb_id":"tt12015736","world_art_id":null,"type":"serial","add":"2020-03-23 15:02:52","orig_title":"Zastupniki","year":"2020-03-23","translations":["Оригинальная дорожка"],"seasons_count":1,"episodes_count":8,"episodes":8,"update":"2020-04-04 05:42:02","iframe_src":"//7043.svetacdn.in/si4jsFRrtgrT/tv-series/6971"},{"id":6708,"title":"Разведка","kp_id":"1231057","imdb_id":"tt9454736","world_art_id":null,"type":"serial","add":"2020-02-21 13:28:17","orig_title":"Intelligence","year":"2020-02-21","translations":["Любительский (многоголосый закадровый) (Octopus)","Любительский (многоголосый закадровый) (ColdFilm)","Профессиональный (многоголосый закадровый) (Ozz.tv)","Профессиональный (многоголосый закадровый) (TVShows)"],"seasons_count":1,"episodes_count":6,"episodes":6,"update":"2020-04-02 05:54:34","iframe_src":"//7043.svetacdn.in/si4jsFRrtgrT/tv-series/6708"},{"id":32913,"title":"Опасная близость: Сражение при Лонгтане","kp_id":"262003","imdb_id":"tt0441881","world_art_id":null,"type":"movie","add":"2019-11-11 09:12:52","orig_title":"Danger Close: The Battle of Long Tan","year":"2019-06-15","translations":["Профессиональный (многоголосый закадровый) (HDrezka Studio)","Любительский (многоголосый закадровый) (@MUZOBOZ@)","Original (English)","Авторский (одноголосый закадровый) (Чадов Михаил)"],"quality":"webdl","translation":"Профессиональный (многоголосый закадровый) (HDrezka Studio)","update":"2021-01-20 06:12:02","iframe_src":"//7043.svetacdn.in/si4jsFRrtgrT/movie/32913"},{"id":4586,"title":"Болотная тварь","kp_id":"1138780","imdb_id":"tt8362852","world_art_id":null,"type":"serial","add":"2019-05-31 03:14:48","orig_title":"Swamp Thing","year":"2019-05-31","translations":["Профессиональный (многоголосый закадровый) (SDI Media)","Профессиональный (многоголосый закадровый) (LostFilm)","Профессиональный (многоголосый закадровый) (NewStudio)","Профессиональный (многоголосый закадровый) (HDrezka Studio)","Полное дублирование (SDI Media)","Профессиональный (двухголосый закадровый) (SDI Media)","Профессиональный (двухголосый закадровый) (NewStudio)"],"seasons_count":1,"episodes_count":10,"episodes":10,"update":"2020-04-02 16:34:08","iframe_src":"//7043.svetacdn.in/si4jsFRrtgrT/tv-series/4586"},{"id":2985,"title":"Платформа 45","kp_id":"1112863","imdb_id":"tt7683762","world_art_id":null,"type":"serial","add":"2018-08-01 18:35:23","orig_title":"Rig 45","year":"2018-06-08","translations":["Профессиональный (двухголосый закадровый) (ViruseProject)","Любительский (многоголосый закадровый) (Octopus)","Любительский (многоголосый закадровый) (ColdFilm)"],"seasons_count":2,"episodes_count":12,"episodes":6,"update":"2020-04-03 18:08:19","iframe_src":"//7043.svetacdn.in/si4jsFRrtgrT/tv-series/2985"},{"id":14014,"title":"Воспоминания убийцы","kp_id":"983082","imdb_id":"tt5729348","world_art_id":null,"type":"movie","add":"2017-10-24 22:36:32","orig_title":"Salinjaui gieokbeob","year":"2017-09-06","translations":["Любительский (многоголосый закадровый) (Колобок)","Любительский (одноголосый закадровый)","Профессиональный (многоголосый закадровый) (GreenРай Studio)","Профессиональный (многоголосый закадровый) (Кириллица)"],"quality":"webdl","translation":"Любительский (многоголосый закадровый) (Колобок)","update":"2021-01-20 06:13:05","iframe_src":"//7043.svetacdn.in/si4jsFRrtgrT/movie/14014"},{"id":611,"title":"Медичи: Повелители Флоренции","kp_id":"943876","imdb_id":"tt5057130","world_art_id":null,"type":"serial","add":"2016-11-20 16:33:59","orig_title":"Medici","year":"2016-10-18","translations":["Профессиональный (многоголосый закадровый) (Jaskier)","Любительский (многоголосый закадровый) (ColdFilm)","Полное дублирование (True Dubbing Studio)","Профессиональный (многоголосый закадровый) (HDrezka Studio)","Профессиональный (многоголосый закадровый) (Novamedia)","Профессиональный (многоголосый закадровый) (TVShows)","Профессиональный (многоголосый закадровый) (IdeaFilm)","Профессиональный (многоголосый закадровый) (BaibaKo)","Профессиональный (двухголосый закадровый) (IdeaFilm)"],"seasons_count":3,"episodes_count":24,"episodes":13,"update":"2020-04-02 21:49:26","iframe_src":"//7043.svetacdn.in/si4jsFRrtgrT/tv-series/611"},{"id":3703,"title":"Отмель","kp_id":"928626","imdb_id":"tt4052882","world_art_id":null,"type":"movie","add":"2016-07-06 05:06:09","orig_title":"The Shallows","year":"2016-06-24","translations":["Полное дублирование (iTunes)","Авторский (одноголосый закадровый) (Дохалов Вартан)"],"quality":"bd","translation":"Полное дублирование (iTunes)","update":"2021-01-20 06:08:01","iframe_src":"//7043.svetacdn.in/si4jsFRrtgrT/movie/3703"},{"id":151,"title":"Прилив","kp_id":"968032","imdb_id":"tt5194410","world_art_id":null,"type":"serial","add":"2016-06-07 04:51:11","orig_title":"Springfloden","year":"2016-03-06","translations":["Любительский (двухголосый закадровый)","Профессиональный (многоголосый закадровый) (ShowJet)","Профессиональный (двухголосый закадровый) (ViruseProject)"],"seasons_count":2,"episodes_count":20,"episodes":10,"update":"2020-04-02 21:17:46","iframe_src":"//7043.svetacdn.in/si4jsFRrtgrT/tv-series/151"}],"current_page":231,"first_page_url":"https://videocdn.tv/api/short?limit=100&api_token=X6EwAUfE5M9xbo7y0Bp0aPf3uXxG2KLL&cache3231=3231&page=1","from":23001,"last_page":618,"last_page_url":"https://videocdn.tv/api/short?limit=100&api_token=X6EwAUfE5M9xbo7y0Bp0aPf3uXxG2KLL&cache3231=3231&page=618","next_page_url":"https://videocdn.tv/api/short?limit=100&api_token=X6EwAUfE5M9xbo7y0Bp0aPf3uXxG2KLL&cache3231=3231&page=232","path":"https://videocdn.tv/api/short","per_page":100,"prev_page_url":"https://videocdn.tv/api/short?limit=100&api_token=X6EwAUfE5M9xbo7y0Bp0aPf3uXxG2KLL&cache3231=3231&page=230","to":23040,"total":61769}