{"result":true,"data":[{"id":18271,"title":"Вместо жены","kp_id":"94214","imdb_id":"tt0111304","world_art_id":null,"type":"movie","add":"2018-08-12 15:19:37","orig_title":"The Substitute Wife","year":"1994-05-23","translations":["Профессиональный (многоголосый закадровый) (НТВ)"],"quality":"dvdrip","translation":"Профессиональный (многоголосый закадровый) (НТВ)","update":"2018-08-13 11:29:55","iframe_src":"//7741.svetacdn.in/si4jsFRrtgrT/movie/18271"},{"id":18270,"title":"Список Эдриана Мессенджера","kp_id":"11719","imdb_id":"tt0057254","world_art_id":null,"type":"movie","add":"2018-08-12 15:17:25","orig_title":"The List of Adrian Messenger","year":"1963-05-29","translations":["Профессиональный (многоголосый закадровый)"],"quality":"bd","translation":"Профессиональный (многоголосый закадровый)","update":"2018-08-13 11:31:51","iframe_src":"//7741.svetacdn.in/si4jsFRrtgrT/movie/18270"},{"id":18269,"title":"Две влюбленные девушки","kp_id":"23791","imdb_id":"tt0113416","world_art_id":null,"type":"movie","add":"2018-08-12 15:15:44","orig_title":"The Incredibly True Adventure of Two Girls in Love","year":"1995-01-23","translations":["Профессиональный (двухголосый закадровый)"],"quality":"dvdrip","translation":"Профессиональный (двухголосый закадровый)","update":"2018-08-13 11:32:11","iframe_src":"//7741.svetacdn.in/si4jsFRrtgrT/movie/18269"},{"id":18259,"title":"Охотник","kp_id":"25091","imdb_id":"tt0218673","world_art_id":null,"type":"movie","add":"2018-08-12 11:03:35","orig_title":"The Tracker","year":"2001-11-21","translations":["Профессиональный (двухголосый закадровый)"],"quality":"dvdrip","translation":"Профессиональный (двухголосый закадровый)","update":"2018-08-13 11:37:56","iframe_src":"//7741.svetacdn.in/si4jsFRrtgrT/movie/18259"},{"id":18258,"title":"Время не ждет","kp_id":"37059","imdb_id":"tt0251433","world_art_id":null,"type":"movie","add":"2018-08-12 11:01:28","orig_title":"Shun liu ni liu","year":"2000-09-05","translations":["Профессиональный (многоголосый закадровый)"],"quality":"dvdrip","translation":"Профессиональный (многоголосый закадровый)","update":"2018-08-13 11:38:46","iframe_src":"//7741.svetacdn.in/si4jsFRrtgrT/movie/18258"},{"id":18253,"title":"Полный контакт","kp_id":"34615","imdb_id":"tt0106979","world_art_id":null,"type":"movie","add":"2018-08-12 10:29:56","orig_title":"Full Contact","year":"1993-05-04","translations":["Профессиональный (многоголосый закадровый)"],"quality":"dvdrip","translation":"Профессиональный (многоголосый закадровый)","update":"2018-08-13 11:45:53","iframe_src":"//7741.svetacdn.in/si4jsFRrtgrT/movie/18253"},{"id":18252,"title":"Мужчина из снов","kp_id":"13634","imdb_id":"tt0112899","world_art_id":null,"type":"movie","add":"2018-08-12 10:26:15","orig_title":"Dream Man","year":"1995-06-19","translations":["Авторский (одноголосый закадровый) (Гаврилов Андрей)"],"quality":"dvdrip","translation":"Авторский (одноголосый закадровый) (Гаврилов Андрей)","update":"2018-08-13 11:46:47","iframe_src":"//7741.svetacdn.in/si4jsFRrtgrT/movie/18252"},{"id":18251,"title":"Кровавый гном","kp_id":"251801","imdb_id":"tt0330068","world_art_id":null,"type":"movie","add":"2018-08-12 10:24:31","orig_title":"Blood Gnome","year":"2004-03-27","translations":["Авторский (одноголосый закадровый) (Дольский Андрей)"],"quality":"dvdrip","translation":"Авторский (одноголосый закадровый) (Дольский Андрей)","update":"2018-08-13 11:47:40","iframe_src":"//7741.svetacdn.in/si4jsFRrtgrT/movie/18251"},{"id":18250,"title":"Деревня проклятых","kp_id":"113145","imdb_id":"tt0054443","world_art_id":null,"type":"movie","add":"2018-08-12 10:17:52","orig_title":"Village of the Damned","year":"1960-11-06","translations":["Профессиональный (многоголосый закадровый) (5-й канал СПб)"],"quality":"bd","translation":"Профессиональный (многоголосый закадровый) (5-й канал СПб)","update":"2018-08-13 11:49:15","iframe_src":"//7741.svetacdn.in/si4jsFRrtgrT/movie/18250"},{"id":18249,"title":"Билли Бад","kp_id":"16286","imdb_id":"tt0055796","world_art_id":null,"type":"movie","add":"2018-08-12 10:16:00","orig_title":"Billy Budd","year":"1962-10-30","translations":["Профессиональный (многоголосый закадровый)"],"quality":"bd","translation":"Профессиональный (многоголосый закадровый)","update":"2018-08-13 11:50:01","iframe_src":"//7741.svetacdn.in/si4jsFRrtgrT/movie/18249"},{"id":18247,"title":"Пале рояль","kp_id":"21201","imdb_id":"tt0095814","world_art_id":null,"type":"movie","add":"2018-08-12 10:00:27","orig_title":"Palais Royale","year":"1990-02-22","translations":["Авторский (одноголосый закадровый) (Визгунов Сергей)"],"quality":"dvdrip","translation":"Авторский (одноголосый закадровый) (Визгунов Сергей)","update":"2018-08-13 11:54:32","iframe_src":"//7741.svetacdn.in/si4jsFRrtgrT/movie/18247"},{"id":18246,"title":"Операция «Золотой Феникс»","kp_id":"40497","imdb_id":"tt0107752","world_art_id":null,"type":"movie","add":"2018-08-12 09:58:37","orig_title":"Operation Golden Phoenix","year":"1994-12-28","translations":["Профессиональный (двухголосый закадровый)","Авторский (одноголосый закадровый) (Алексеев Антон)"],"quality":"dvdrip","translation":"Профессиональный (двухголосый закадровый)","update":"2018-08-13 11:55:18","iframe_src":"//7741.svetacdn.in/si4jsFRrtgrT/movie/18246"},{"id":18245,"title":"Обнаженная женщина","kp_id":"36718","imdb_id":"tt0082830","world_art_id":null,"type":"movie","add":"2018-08-12 09:56:28","orig_title":"Nudo di donna","year":"1981-11-06","translations":["Профессиональный (двухголосый закадровый)"],"quality":"dvdrip","translation":"Профессиональный (двухголосый закадровый)","update":"2018-08-13 11:55:32","iframe_src":"//7741.svetacdn.in/si4jsFRrtgrT/movie/18245"},{"id":18244,"title":"Маньяк-убийца","kp_id":"254308","imdb_id":"tt0497477","world_art_id":null,"type":"movie","add":"2018-08-12 09:54:49","orig_title":"El Mascarado Massacre","year":"2006-10-20","translations":["Любительский (многоголосый закадровый)"],"quality":"dvdrip","translation":"Любительский (многоголосый закадровый)","update":"2018-08-13 11:56:18","iframe_src":"//7741.svetacdn.in/si4jsFRrtgrT/movie/18244"},{"id":18243,"title":"Докторша и полковник","kp_id":"152457","imdb_id":"tt0080654","world_art_id":null,"type":"movie","add":"2018-08-12 09:51:49","orig_title":"La dottoressa ci sta col colonnello","year":"1980-12-19","translations":["Любительский (одноголосый закадровый)"],"quality":"dvdrip","translation":"Любительский (одноголосый закадровый)","update":"2018-08-13 11:57:28","iframe_src":"//7741.svetacdn.in/si4jsFRrtgrT/movie/18243"},{"id":18242,"title":"Убойная вечеринка","kp_id":"720135","imdb_id":"tt2461262","world_art_id":null,"type":"movie","add":"2018-08-12 09:50:01","orig_title":"Killer Party","year":"2014-10-06","translations":["Любительский (одноголосый закадровый) (datynet | Агапов Антон)"],"quality":"webdl","translation":"Любительский (одноголосый закадровый) (datynet | Агапов Антон)","update":"2018-08-13 11:58:15","iframe_src":"//7741.svetacdn.in/si4jsFRrtgrT/movie/18242"},{"id":18241,"title":"Сестра боксёра","kp_id":"56097","imdb_id":"tt0105860","world_art_id":null,"type":"movie","add":"2018-08-12 09:47:25","orig_title":"Xin long zhong hu dou","year":"1992-05-21","translations":["Любительский (одноголосый закадровый)"],"quality":"dvdrip","translation":"Любительский (одноголосый закадровый)","update":"2018-08-13 11:59:13","iframe_src":"//7741.svetacdn.in/si4jsFRrtgrT/movie/18241"},{"id":18240,"title":"Форментера","kp_id":"597599","imdb_id":"tt1990232","world_art_id":null,"type":"movie","add":"2018-08-12 09:44:12","orig_title":"Formentera","year":"2012-02-10","translations":["Профессиональный (многоголосый закадровый) (GreenРай Studio)"],"quality":"webdl","translation":"Профессиональный (многоголосый закадровый) (GreenРай Studio)","update":"2018-08-13 06:56:02","iframe_src":"//7741.svetacdn.in/si4jsFRrtgrT/movie/18240"},{"id":18239,"title":"Честная игра","kp_id":"164322","imdb_id":"tt0089122","world_art_id":null,"type":"movie","add":"2018-08-12 09:42:07","orig_title":"Fair Game","year":"1986-07-24","translations":["Любительский (двухголосый закадровый) (DeadSno & den904)"],"quality":"bd","translation":"Любительский (двухголосый закадровый) (DeadSno & den904)","update":"2018-08-13 12:02:06","iframe_src":"//7741.svetacdn.in/si4jsFRrtgrT/movie/18239"},{"id":18212,"title":"В этих стенах","kp_id":"874210","imdb_id":"tt3546802","world_art_id":null,"type":"movie","add":"2018-08-11 00:17:44","orig_title":"Within These Walls","year":"2015-03-07","translations":["Любительский (одноголосый закадровый) (datynet | Агапов Антон)"],"quality":"webdl","translation":"Любительский (одноголосый закадровый) (datynet | Агапов Антон)","update":"2018-08-13 06:55:37","iframe_src":"//7741.svetacdn.in/si4jsFRrtgrT/movie/18212"}],"current_page":2161,"first_page_url":"https://videocdn.tv/api/short?limit=100&api_token=X6EwAUfE5M9xbo7y0Bp0aPf3uXxG2KLL&cache32161=32161&page=1","from":216001,"last_page":706,"last_page_url":"https://videocdn.tv/api/short?limit=100&api_token=X6EwAUfE5M9xbo7y0Bp0aPf3uXxG2KLL&cache32161=32161&page=706","next_page_url":null,"path":"https://videocdn.tv/api/short","per_page":100,"prev_page_url":"https://videocdn.tv/api/short?limit=100&api_token=X6EwAUfE5M9xbo7y0Bp0aPf3uXxG2KLL&cache32161=32161&page=2160","to":216020,"total":70502}