{"result":true,"data":[{"id":21576,"title":"На ферме с животными","kp_id":"1023109","imdb_id":"tt6407390","world_art_id":null,"type":"movie","add":"2019-01-17 00:25:27","orig_title":"Down on the Farm","year":"2017-02-14","translations":["Любительский (многоголосый закадровый) (Синема УС)"],"quality":"webdl","translation":"Любительский (многоголосый закадровый) (Синема УС)","update":"2019-01-17 07:07:12","iframe_src":"//5322.svetacdn.in/si4jsFRrtgrT/movie/21576"},{"id":21575,"title":"Послание","kp_id":"10177","imdb_id":"tt0074896","world_art_id":null,"type":"movie","add":"2019-01-17 00:22:55","orig_title":"The Message","year":"1976-07-30","translations":["Авторский (одноголосый закадровый) (Сербин Юрий)"],"quality":"unknown","translation":"Авторский (одноголосый закадровый) (Сербин Юрий)","update":"2019-01-17 07:59:27","iframe_src":"//5322.svetacdn.in/si4jsFRrtgrT/movie/21575"},{"id":21573,"title":"Говард Лавкрафт и Подводное Королевство","kp_id":"1036311","imdb_id":"tt6438840","world_art_id":null,"type":"movie","add":"2019-01-17 00:19:20","orig_title":"Howard Lovecraft & the Undersea Kingdom","year":"2017-10-01","translations":["Любительский (многоголосый закадровый) (Синема УС)"],"quality":"webdl","translation":"Любительский (многоголосый закадровый) (Синема УС)","update":"2019-01-17 07:57:41","iframe_src":"//5322.svetacdn.in/si4jsFRrtgrT/movie/21573"},{"id":21572,"title":"Не всё то золото","kp_id":null,"imdb_id":"tt9540566","world_art_id":null,"type":"movie","add":"2019-01-17 00:18:02","orig_title":"Everything That Glitters","year":"2018-12-27","translations":["Любительский (многоголосый закадровый) (Синема УС)"],"quality":"webdl","translation":"Любительский (многоголосый закадровый) (Синема УС)","update":"2019-01-17 07:23:10","iframe_src":"//5322.svetacdn.in/si4jsFRrtgrT/movie/21572"},{"id":21571,"title":"Приключения Пасхального кролика","kp_id":null,"imdb_id":"tt6408946","world_art_id":null,"type":"movie","add":"2019-01-17 00:16:35","orig_title":"Easter Bunny Adventure","year":"2017-02-17","translations":["Любительский (многоголосый закадровый) (Синема УС)"],"quality":"webdl","translation":"Любительский (многоголосый закадровый) (Синема УС)","update":"2019-01-17 07:56:37","iframe_src":"//5322.svetacdn.in/si4jsFRrtgrT/movie/21571"},{"id":21569,"title":"Мухаммад: Посланник Бога","kp_id":"847438","imdb_id":"tt3921314","world_art_id":null,"type":"movie","add":"2019-01-17 00:12:16","orig_title":"Muhammad: The Messenger of God","year":"2015-02-01","translations":["Любительский (одноголосый закадровый)"],"quality":"webdl","translation":"Любительский (одноголосый закадровый)","update":"2019-01-17 07:54:31","iframe_src":"//5322.svetacdn.in/si4jsFRrtgrT/movie/21569"},{"id":21567,"title":"Секреты","kp_id":"942815","imdb_id":"tt5112692","world_art_id":null,"type":"movie","add":"2019-01-17 00:08:45","orig_title":"Secrets","year":"2017-09-16","translations":["Любительский (многоголосый закадровый) (Синема УС)"],"quality":"webdl","translation":"Любительский (многоголосый закадровый) (Синема УС)","update":"2019-01-17 07:12:37","iframe_src":"//5322.svetacdn.in/si4jsFRrtgrT/movie/21567"},{"id":21566,"title":"Дети из товарного вагона 2: Остров сюрпризов","kp_id":"1035934","imdb_id":"tt6241390","world_art_id":null,"type":"movie","add":"2019-01-17 00:06:43","orig_title":"The Boxcar Children: Surprise Island","year":"2018-05-08","translations":["Любительский (многоголосый закадровый) (Синема УС)"],"quality":"bd","translation":"Любительский (многоголосый закадровый) (Синема УС)","update":"2019-01-17 07:52:41","iframe_src":"//5322.svetacdn.in/si4jsFRrtgrT/movie/21566"},{"id":21565,"title":"Неправильный учитель","kp_id":"1220911","imdb_id":"tt9451086","world_art_id":null,"type":"movie","add":"2019-01-17 00:03:58","orig_title":"The Wrong Teacher","year":"2018-12-28","translations":["Любительский (многоголосый закадровый) (Синема УС)"],"quality":"hdtv","translation":"Любительский (многоголосый закадровый) (Синема УС)","update":"2019-01-17 07:24:22","iframe_src":"//5322.svetacdn.in/si4jsFRrtgrT/movie/21565"},{"id":21564,"title":"Твари-4","kp_id":"1087479","imdb_id":"tt7471706","world_art_id":null,"type":"movie","add":"2019-01-17 00:02:49","orig_title":"Things 4","year":"2017-11-24","translations":["Любительский (многоголосый закадровый) (Колобок)"],"quality":"webdl","translation":"Любительский (многоголосый закадровый) (Колобок)","update":"2019-01-17 07:13:49","iframe_src":"//5322.svetacdn.in/si4jsFRrtgrT/movie/21564"},{"id":21563,"title":"Томми сражается с драконом по имени Сильвер","kp_id":"846223","imdb_id":"tt3978358","world_art_id":null,"type":"movie","add":"2019-01-17 00:01:09","orig_title":"Tommy Battles the Silver Sea Dragon","year":"2019-01-15","translations":["Профессиональный (многоголосый закадровый) (AlphaProject)"],"quality":"webdl","translation":"Профессиональный (многоголосый закадровый) (AlphaProject)","update":"2019-01-17 07:43:23","iframe_src":"//5322.svetacdn.in/si4jsFRrtgrT/movie/21563"},{"id":21562,"title":"Цвет рая","kp_id":"76748","imdb_id":"tt0191043","world_art_id":null,"type":"movie","add":"2019-01-16 23:59:30","orig_title":"Rang-e khoda","year":"1999-02-08","translations":["Профессиональный (многоголосый закадровый)"],"quality":"dvdrip","translation":"Профессиональный (многоголосый закадровый)","update":"2019-01-17 07:40:46","iframe_src":"//5322.svetacdn.in/si4jsFRrtgrT/movie/21562"},{"id":21560,"title":"Дети небес","kp_id":"76749","imdb_id":"tt0118849","world_art_id":null,"type":"movie","add":"2019-01-16 23:54:34","orig_title":"Bacheha-Ye aseman","year":"1997-02-01","translations":["Профессиональный (многоголосый закадровый)"],"quality":"bd","translation":"Профессиональный (многоголосый закадровый)","update":"2019-01-17 07:27:36","iframe_src":"//5322.svetacdn.in/si4jsFRrtgrT/movie/21560"},{"id":21559,"title":"Кровотечение","kp_id":"1220222","imdb_id":"tt9445054","world_art_id":null,"type":"movie","add":"2019-01-16 23:53:22","orig_title":"Bleed Out","year":"2018-12-17","translations":["Любительский (многоголосый закадровый) (Синема УС)"],"quality":"webdl","translation":"Любительский (многоголосый закадровый) (Синема УС)","update":"2019-01-17 07:26:30","iframe_src":"//5322.svetacdn.in/si4jsFRrtgrT/movie/21559"},{"id":21557,"title":"Библиград","kp_id":"1173339","imdb_id":"tt7275258","world_art_id":null,"type":"movie","add":"2019-01-16 23:50:57","orig_title":"Bible Town","year":"2017-12-01","translations":["Любительский (многоголосый закадровый) (Синема УС)"],"quality":"webdl","translation":"Любительский (многоголосый закадровый) (Синема УС)","update":"2019-01-17 07:25:30","iframe_src":"//5322.svetacdn.in/si4jsFRrtgrT/movie/21557"},{"id":21279,"title":"Король обмана","kp_id":"494529","imdb_id":"tt1572311","world_art_id":null,"type":"movie","add":"2019-01-06 10:55:20","orig_title":"Tees Maar Khan","year":"2010-11-14","translations":["Профессиональный (многоголосый закадровый) (Red Media)"],"quality":"webdl","translation":"Профессиональный (многоголосый закадровый) (Red Media)","update":"2019-01-17 08:09:40","iframe_src":"//5322.svetacdn.in/si4jsFRrtgrT/movie/21279"},{"id":21277,"title":"Библиотека Паскаля","kp_id":"281351","imdb_id":"tt0997035","world_art_id":null,"type":"movie","add":"2019-01-06 10:53:15","orig_title":"Bibliothèque Pascal","year":"2010-02-17","translations":["Профессиональный (многоголосый закадровый) (iTunes)"],"quality":"webdl","translation":"Профессиональный (многоголосый закадровый) (iTunes)","update":"2019-01-17 08:07:22","iframe_src":"//5322.svetacdn.in/si4jsFRrtgrT/movie/21277"},{"id":21276,"title":"Баки Ларсон: Рожденный быть звездой","kp_id":"455273","imdb_id":"tt1411664","world_art_id":null,"type":"movie","add":"2019-01-06 10:52:09","orig_title":"Bucky Larson: Born to Be a Star","year":"2011-05-27","translations":["Профессиональный (многоголосый закадровый)"],"quality":"bd","translation":"Профессиональный (многоголосый закадровый)","update":"2019-01-17 08:06:33","iframe_src":"//5322.svetacdn.in/si4jsFRrtgrT/movie/21276"},{"id":21274,"title":"Я тебя не люблю","kp_id":"679434","imdb_id":"tt2201236","world_art_id":null,"type":"movie","add":"2019-01-06 10:49:33","orig_title":"Ya tebya ne lyublyu","year":"2012-10-12","translations":["Оригинальная дорожка"],"quality":"webdl","translation":"Оригинальная дорожка","update":"2019-01-17 08:04:27","iframe_src":"//5322.svetacdn.in/si4jsFRrtgrT/movie/21274"},{"id":21273,"title":"Улыбнись, когда плачут звезды","kp_id":"573945","imdb_id":"tt3641242","world_art_id":null,"type":"movie","add":"2019-01-06 10:48:10","orig_title":"Ulybnis, kogda plachut zvezdy","year":"2010-12-19","translations":["Оригинальная дорожка"],"quality":"webdl","translation":"Оригинальная дорожка","update":"2019-01-17 08:03:17","iframe_src":"//5322.svetacdn.in/si4jsFRrtgrT/movie/21273"}],"current_page":1630,"first_page_url":"https://videocdn.tv/api/short?limit=100&api_token=X6EwAUfE5M9xbo7y0Bp0aPf3uXxG2KLL&cache31630=31630&page=1","from":162901,"last_page":627,"last_page_url":"https://videocdn.tv/api/short?limit=100&api_token=X6EwAUfE5M9xbo7y0Bp0aPf3uXxG2KLL&cache31630=31630&page=627","next_page_url":null,"path":"https://videocdn.tv/api/short","per_page":100,"prev_page_url":"https://videocdn.tv/api/short?limit=100&api_token=X6EwAUfE5M9xbo7y0Bp0aPf3uXxG2KLL&cache31630=31630&page=1629","to":162920,"total":62648}