{"result":true,"data":[{"id":25878,"title":"Мордашка","kp_id":"46695","imdb_id":"tt0100182","world_art_id":null,"type":"movie","add":"2019-05-02 22:44:40","orig_title":"Mordashka","year":"1990-01-01","translations":["Оригинальная дорожка"],"quality":"dvdrip","translation":"Оригинальная дорожка","update":"2019-05-03 07:50:38","iframe_src":"//7043.svetacdn.in/si4jsFRrtgrT/movie/25878"},{"id":25877,"title":"Мужская женская игра","kp_id":"597536","imdb_id":"tt2576928","world_art_id":null,"type":"movie","add":"2019-05-02 22:40:18","orig_title":"Muzhskaya zhenskaya igra","year":"2011-04-05","translations":["Оригинальная дорожка"],"quality":"sat","translation":"Оригинальная дорожка","update":"2019-05-03 07:47:28","iframe_src":"//7043.svetacdn.in/si4jsFRrtgrT/movie/25877"},{"id":25876,"title":"Ниоткуда с любовью, или Веселые похороны","kp_id":"273295","imdb_id":"tt0910886","world_art_id":null,"type":"movie","add":"2019-05-02 22:36:47","orig_title":"Niotkuda s lyubovyu, ili Vesyolye pokhorony","year":"2006-12-13","translations":["Оригинальная дорожка"],"quality":"dvdrip","translation":"Оригинальная дорожка","update":"2019-05-03 07:46:36","iframe_src":"//7043.svetacdn.in/si4jsFRrtgrT/movie/25876"},{"id":25875,"title":"Ночной гость","kp_id":"647569","imdb_id":null,"world_art_id":null,"type":"movie","add":"2019-05-02 22:31:49","orig_title":"Ночной гость","year":"2011-11-20","translations":["Оригинальная дорожка"],"quality":"sat","translation":"Оригинальная дорожка","update":"2019-05-03 07:45:36","iframe_src":"//7043.svetacdn.in/si4jsFRrtgrT/movie/25875"},{"id":25873,"title":"Ноктюрн Шопена","kp_id":"428695","imdb_id":"tt5129558","world_art_id":null,"type":"movie","add":"2019-05-02 22:24:21","orig_title":"Noktyurn Shopena","year":"1992-01-01","translations":["Оригинальная дорожка"],"quality":"dvdrip","translation":"Оригинальная дорожка","update":"2019-05-03 07:44:38","iframe_src":"//7043.svetacdn.in/si4jsFRrtgrT/movie/25873"},{"id":25870,"title":"Одинокий игрок","kp_id":"40855","imdb_id":"tt0114029","world_art_id":null,"type":"movie","add":"2019-05-02 22:20:38","orig_title":"Odinokiy igrok","year":"1995-01-01","translations":["Оригинальная дорожка"],"quality":"dvdrip","translation":"Оригинальная дорожка","update":"2019-05-03 07:43:26","iframe_src":"//7043.svetacdn.in/si4jsFRrtgrT/movie/25870"},{"id":25868,"title":"Мушкетер","kp_id":"5268","imdb_id":"tt0246544","world_art_id":null,"type":"movie","add":"2019-05-02 22:18:15","orig_title":"The Musketeer","year":"2001-09-07","translations":["Полное дублирование"],"quality":"bd","translation":"Полное дублирование","update":"2019-05-03 07:42:21","iframe_src":"//7043.svetacdn.in/si4jsFRrtgrT/movie/25868"},{"id":25867,"title":"Осенние заботы","kp_id":"469762","imdb_id":null,"world_art_id":null,"type":"movie","add":"2019-05-02 22:17:37","orig_title":"Осенние заботы","year":"2009-09-12","translations":["Оригинальная дорожка"],"quality":"dvdrip","translation":"Оригинальная дорожка","update":"2019-05-03 07:41:17","iframe_src":"//7043.svetacdn.in/si4jsFRrtgrT/movie/25867"},{"id":25863,"title":"Отражение","kp_id":"427024","imdb_id":"tt5159688","world_art_id":null,"type":"movie","add":"2019-05-02 22:09:46","orig_title":"Otrazheniye","year":"1998-01-01","translations":["Оригинальная дорожка"],"quality":"dvdrip","translation":"Оригинальная дорожка","update":"2019-05-03 07:39:55","iframe_src":"//7043.svetacdn.in/si4jsFRrtgrT/movie/25863"},{"id":25858,"title":"Папа, умер Дед Мороз","kp_id":"42882","imdb_id":"tt0104239","world_art_id":null,"type":"movie","add":"2019-05-02 21:46:44","orig_title":"Papa, umer Ded Moroz","year":"1992-09-15","translations":["Оригинальная дорожка"],"quality":"dvdrip","translation":"Оригинальная дорожка","update":"2019-05-03 07:39:19","iframe_src":"//7043.svetacdn.in/si4jsFRrtgrT/movie/25858"},{"id":25857,"title":"Поймать ведьму","kp_id":"507163","imdb_id":"tt5512242","world_art_id":null,"type":"movie","add":"2019-05-02 21:41:53","orig_title":"Poymat vedmu","year":"2008-01-01","translations":["Оригинальная дорожка"],"quality":"dvdrip","translation":"Оригинальная дорожка","update":"2019-05-03 07:37:53","iframe_src":"//7043.svetacdn.in/si4jsFRrtgrT/movie/25857"},{"id":25856,"title":"Приключения Верки Сердючки","kp_id":"436285","imdb_id":null,"world_art_id":null,"type":"movie","add":"2019-05-02 21:38:07","orig_title":"Приключения Верки Сердючки","year":"2006-01-01","translations":["Оригинальная дорожка"],"quality":"dvdrip","translation":"Оригинальная дорожка","update":"2019-05-03 07:36:38","iframe_src":"//7043.svetacdn.in/si4jsFRrtgrT/movie/25856"},{"id":25853,"title":"Прощание в июне","kp_id":"252186","imdb_id":"tt0489811","world_art_id":null,"type":"movie","add":"2019-05-02 21:21:31","orig_title":"Proshchanie v iyune","year":"2003-08-11","translations":["Оригинальная дорожка"],"quality":"dvdrip","translation":"Оригинальная дорожка","update":"2019-05-03 07:34:06","iframe_src":"//7043.svetacdn.in/si4jsFRrtgrT/movie/25853"},{"id":25852,"title":"Рано утром","kp_id":"42043","imdb_id":"tt0131554","world_art_id":null,"type":"movie","add":"2019-05-02 21:18:03","orig_title":"Rano utrom","year":"1966-03-21","translations":["Оригинальная дорожка"],"quality":"dvdrip","translation":"Оригинальная дорожка","update":"2019-05-03 07:32:25","iframe_src":"//7043.svetacdn.in/si4jsFRrtgrT/movie/25852"},{"id":25851,"title":"Рататуй","kp_id":"374720","imdb_id":null,"world_art_id":null,"type":"movie","add":"2019-05-02 21:13:14","orig_title":"Рататуй","year":"2006-01-01","translations":["Оригинальная дорожка"],"quality":"dvdrip","translation":"Оригинальная дорожка","update":"2019-05-03 07:30:59","iframe_src":"//7043.svetacdn.in/si4jsFRrtgrT/movie/25851"},{"id":25850,"title":"С Новым годом, папа!","kp_id":"414598","imdb_id":"tt1495929","world_art_id":null,"type":"movie","add":"2019-05-02 21:02:18","orig_title":"S Novym godom, papa!","year":"2004-01-01","translations":["Оригинальная дорожка"],"quality":"dvdrip","translation":"Оригинальная дорожка","update":"2019-05-03 07:29:35","iframe_src":"//7043.svetacdn.in/si4jsFRrtgrT/movie/25850"},{"id":25849,"title":"Сын за отца...","kp_id":"41108","imdb_id":"tt0114596","world_art_id":null,"type":"movie","add":"2019-05-02 20:58:08","orig_title":"Syn za ottsa...","year":"1995-01-01","translations":["Оригинальная дорожка"],"quality":"dvdrip","translation":"Оригинальная дорожка","update":"2019-05-03 07:28:43","iframe_src":"//7043.svetacdn.in/si4jsFRrtgrT/movie/25849"},{"id":25848,"title":"Театральный роман","kp_id":"255044","imdb_id":"tt0367126","world_art_id":null,"type":"movie","add":"2019-05-02 20:54:17","orig_title":"Teatralnyy roman","year":"2003-05-14","translations":["Оригинальная дорожка"],"quality":"dvdrip","translation":"Оригинальная дорожка","update":"2019-05-03 07:27:58","iframe_src":"//7043.svetacdn.in/si4jsFRrtgrT/movie/25848"},{"id":25823,"title":"Семья","kp_id":"99969","imdb_id":"tt0067296","world_art_id":null,"type":"movie","add":"2019-05-02 08:09:26","orig_title":"Kazoku","year":"1970-10-24","translations":["Любительский (одноголосый закадровый)"],"quality":"webdl","translation":"Любительский (одноголосый закадровый)","update":"2019-05-03 07:22:39","iframe_src":"//7043.svetacdn.in/si4jsFRrtgrT/movie/25823"},{"id":25822,"title":"На Верхней Масловке","kp_id":"153020","imdb_id":"tt0462702","world_art_id":null,"type":"movie","add":"2019-05-02 08:06:57","orig_title":"Na Verkhney Maslovke","year":"2005-11-03","translations":["Оригинальная дорожка"],"quality":"dvdrip","translation":"Оригинальная дорожка","update":"2019-05-03 07:20:32","iframe_src":"//7043.svetacdn.in/si4jsFRrtgrT/movie/25822"}],"current_page":1382,"first_page_url":"https://videocdn.tv/api/short?limit=100&api_token=X6EwAUfE5M9xbo7y0Bp0aPf3uXxG2KLL&cache31382=31382&page=1","from":138101,"last_page":616,"last_page_url":"https://videocdn.tv/api/short?limit=100&api_token=X6EwAUfE5M9xbo7y0Bp0aPf3uXxG2KLL&cache31382=31382&page=616","next_page_url":null,"path":"https://videocdn.tv/api/short","per_page":100,"prev_page_url":"https://videocdn.tv/api/short?limit=100&api_token=X6EwAUfE5M9xbo7y0Bp0aPf3uXxG2KLL&cache31382=31382&page=1381","to":138120,"total":61594}