{"result":true,"data":[{"id":31850,"title":"Божественная любовь","kp_id":"1140755","imdb_id":"tt8311958","world_art_id":null,"type":"movie","add":"2019-10-14 07:38:05","orig_title":"Divino Amor","year":"2019-01-25","translations":["Профессиональный (многоголосый закадровый) (iTunes)"],"quality":"webdl","translation":"Профессиональный (многоголосый закадровый) (iTunes)","update":"2019-10-14 12:28:08","iframe_src":"//24213.svetacdn.in/si4jsFRrtgrT/movie/31850"},{"id":31849,"title":"Король королей","kp_id":"1098189","imdb_id":"tt7584414","world_art_id":null,"type":"movie","add":"2019-10-14 07:17:36","orig_title":"King of Kings","year":"2019-02-15","translations":["Любительский (многоголосый закадровый) (Синема УС)"],"quality":"webdl","translation":"Любительский (многоголосый закадровый) (Синема УС)","update":"2019-10-14 11:35:35","iframe_src":"//24213.svetacdn.in/si4jsFRrtgrT/movie/31849"},{"id":31848,"title":"Публичная фигура","kp_id":"1182296","imdb_id":"tt8738176","world_art_id":null,"type":"movie","add":"2019-10-14 07:11:58","orig_title":"Public Figure","year":"2019-01-24","translations":["Любительский (многоголосый закадровый) (Синема УС)"],"quality":"webdl","translation":"Любительский (многоголосый закадровый) (Синема УС)","update":"2019-10-14 10:12:38","iframe_src":"//24213.svetacdn.in/si4jsFRrtgrT/movie/31848"},{"id":31839,"title":"Танцующая студентка","kp_id":"26316","imdb_id":"tt0031203","world_art_id":null,"type":"movie","add":"2019-10-13 19:28:30","orig_title":"Dancing Co-Ed","year":"1939-09-29","translations":["Профессиональный (одноголосый закадровый)"],"quality":"dvdrip","translation":"Профессиональный (одноголосый закадровый)","update":"2019-10-14 07:13:26","iframe_src":"//24213.svetacdn.in/si4jsFRrtgrT/movie/31839"},{"id":31838,"title":"Мрачная поездка","kp_id":"89806","imdb_id":"tt0433963","world_art_id":null,"type":"movie","add":"2019-10-13 19:24:55","orig_title":"Dark Ride","year":"2006-10-20","translations":["Любительский (одноголосый закадровый)"],"quality":"bd","translation":"Любительский (одноголосый закадровый)","update":"2019-10-14 07:12:13","iframe_src":"//24213.svetacdn.in/si4jsFRrtgrT/movie/31838"},{"id":31837,"title":"Девушка по вызову для Ктулху","kp_id":"736690","imdb_id":"tt2689354","world_art_id":null,"type":"movie","add":"2019-10-13 19:22:30","orig_title":"Call Girl of Cthulhu","year":"2014-05-08","translations":["Любительский (двухголосый закадровый) (DeadSno & den904)"],"quality":"dvdrip","translation":"Любительский (двухголосый закадровый) (DeadSno & den904)","update":"2019-10-14 07:11:04","iframe_src":"//24213.svetacdn.in/si4jsFRrtgrT/movie/31837"},{"id":31836,"title":"Сумрак","kp_id":"854016","imdb_id":"tt3868978","world_art_id":null,"type":"movie","add":"2019-10-13 19:19:27","orig_title":"Dusk","year":"2015-03-25","translations":["Любительский (многоголосый закадровый) (Паровоз Продакшн | Parovoz Production)"],"quality":"webdl","translation":"Любительский (многоголосый закадровый) (Паровоз Продакшн | Parovoz Production)","update":"2019-10-14 07:10:18","iframe_src":"//24213.svetacdn.in/si4jsFRrtgrT/movie/31836"},{"id":31835,"title":"Семейный медовый месяц","kp_id":"12546","imdb_id":"tt0040342","world_art_id":null,"type":"movie","add":"2019-10-13 19:16:54","orig_title":"Family Honeymoon","year":"1948-12-06","translations":["Авторский (одноголосый закадровый) (Яковлев Алексей)"],"quality":"dvdrip","translation":"Авторский (одноголосый закадровый) (Яковлев Алексей)","update":"2019-10-14 07:09:22","iframe_src":"//24213.svetacdn.in/si4jsFRrtgrT/movie/31835"},{"id":31834,"title":"Герои ада","kp_id":"12869","imdb_id":"tt0019976","world_art_id":null,"type":"movie","add":"2019-10-13 19:14:03","orig_title":"Hell's Heroes","year":"1929-12-27","translations":["Любительский (одноголосый закадровый)"],"quality":"dvdrip","translation":"Любительский (одноголосый закадровый)","update":"2019-10-14 07:08:14","iframe_src":"//24213.svetacdn.in/si4jsFRrtgrT/movie/31834"},{"id":31832,"title":"Расплющенный космос: Полный метр","kp_id":"409264","imdb_id":"tt1212448","world_art_id":null,"type":"movie","add":"2019-10-13 18:50:40","orig_title":"Tripping the Rift: The Movie","year":"2008-03-25","translations":["Любительский (двухголосый закадровый)"],"quality":"dvdrip","translation":"Любительский (двухголосый закадровый)","update":"2019-10-14 07:07:02","iframe_src":"//24213.svetacdn.in/si4jsFRrtgrT/movie/31832"},{"id":31830,"title":"Одесский подкидыш","kp_id":"1046588","imdb_id":"tt7313738","world_art_id":null,"type":"movie","add":"2019-10-13 18:44:24","orig_title":"Odesskiy podkidysh","year":"2017-08-29","translations":["Оригинальная дорожка"],"quality":"webdl","translation":"Оригинальная дорожка","update":"2019-10-14 07:58:00","iframe_src":"//24213.svetacdn.in/si4jsFRrtgrT/movie/31830"},{"id":31826,"title":"Игра в запретную любовь","kp_id":"114561","imdb_id":"tt0073218","world_art_id":null,"type":"movie","add":"2019-10-13 16:38:14","orig_title":"Juego de amor prohibido","year":"1975-09-22","translations":["Авторский (одноголосый закадровый) (Алексеев Антон)"],"quality":"dvdrip","translation":"Авторский (одноголосый закадровый) (Алексеев Антон)","update":"2019-10-14 07:05:58","iframe_src":"//24213.svetacdn.in/si4jsFRrtgrT/movie/31826"},{"id":31825,"title":"Консьерж","kp_id":"57377","imdb_id":"tt0069913","world_art_id":null,"type":"movie","add":"2019-10-13 16:35:09","orig_title":"Le concierge","year":"1973-08-23","translations":["Профессиональный (двухголосый закадровый) (Инис)"],"quality":"sat","translation":"Профессиональный (двухголосый закадровый) (Инис)","update":"2019-10-14 07:04:50","iframe_src":"//24213.svetacdn.in/si4jsFRrtgrT/movie/31825"},{"id":31738,"title":"Под солнцем Сатаны","kp_id":"7703","imdb_id":"tt0094011","world_art_id":null,"type":"movie","add":"2019-10-11 17:49:50","orig_title":"Sous le soleil de Satan","year":"1987-05-14","translations":["Профессиональный (многоголосый закадровый)"],"quality":"bd","translation":"Профессиональный (многоголосый закадровый)","update":"2019-10-14 08:06:26","iframe_src":"//24213.svetacdn.in/si4jsFRrtgrT/movie/31738"},{"id":31696,"title":"Беспечный ездок и бешеный бык, или Как поколение секса, наркотиков и рок-н-ролла спасло Голливуд","kp_id":"79826","imdb_id":"tt0359203","world_art_id":null,"type":"movie","add":"2019-10-10 17:53:54","orig_title":"Easy Riders, Raging Bulls: How the Sex, Drugs and Rock 'N' Roll Generation Saved Hollywood","year":"2003-01-18","translations":["Профессиональный (двухголосый закадровый)"],"quality":"dvdrip","translation":"Профессиональный (двухголосый закадровый)","update":"2019-10-14 08:04:52","iframe_src":"//24213.svetacdn.in/si4jsFRrtgrT/movie/31696"},{"id":31633,"title":"Джолли – бакалавр юридических наук","kp_id":"730668","imdb_id":"tt2621000","world_art_id":null,"type":"movie","add":"2019-10-09 08:32:24","orig_title":"Jolly LLB","year":"2013-03-14","translations":["Профессиональный (двухголосый закадровый)"],"quality":"bd","translation":"Профессиональный (двухголосый закадровый)","update":"2019-10-14 12:33:51","iframe_src":"//24213.svetacdn.in/si4jsFRrtgrT/movie/31633"},{"id":31622,"title":"Раздача","kp_id":"1049535","imdb_id":"tt3127902","world_art_id":null,"type":"movie","add":"2019-10-09 08:14:44","orig_title":"Dealt","year":"2017-03-13","translations":["Любительский (многоголосый закадровый) (Синема УС)"],"quality":"webdl","translation":"Любительский (многоголосый закадровый) (Синема УС)","update":"2019-10-14 12:34:57","iframe_src":"//24213.svetacdn.in/si4jsFRrtgrT/movie/31622"},{"id":31621,"title":"Джолли - бакалавр юридических наук 2","kp_id":"999677","imdb_id":"tt5982852","world_art_id":null,"type":"movie","add":"2019-10-09 08:13:27","orig_title":"Jolly LLB 2","year":"2017-02-09","translations":["Любительский (многоголосый закадровый)"],"quality":"bd","translation":"Любительский (многоголосый закадровый)","update":"2019-10-14 12:32:40","iframe_src":"//24213.svetacdn.in/si4jsFRrtgrT/movie/31621"},{"id":31620,"title":"Обманчивое лето 68-го","kp_id":"56703","imdb_id":"tt0088338","world_art_id":null,"type":"movie","add":"2019-10-09 08:11:58","orig_title":"Varljivo leto '68","year":"1984-01-31","translations":["Любительский (двухголосый закадровый) (DeadSno & den904)"],"quality":"hdtv","translation":"Любительский (двухголосый закадровый) (DeadSno & den904)","update":"2019-10-14 12:31:51","iframe_src":"//24213.svetacdn.in/si4jsFRrtgrT/movie/31620"},{"id":28113,"title":"Зимняя шкура","kp_id":"1109003","imdb_id":"tt7715192","world_art_id":null,"type":"movie","add":"2019-06-20 23:46:45","orig_title":"Winterskin","year":"2018-11-10","translations":["Любительский (многоголосый закадровый) (Синема УС)","[EN] Original (English)"],"quality":"webdl","translation":"Любительский (многоголосый закадровый) (Синема УС)","update":"2019-10-14 12:29:26","iframe_src":"//24213.svetacdn.in/si4jsFRrtgrT/movie/28113"}],"current_page":1658,"first_page_url":"https://videocdn.tv/api/short?limit=100&api_token=X6EwAUfE5M9xbo7y0Bp0aPf3uXxG2KLL&cache31658=31658&page=1","from":165701,"last_page":725,"last_page_url":"https://videocdn.tv/api/short?limit=100&api_token=X6EwAUfE5M9xbo7y0Bp0aPf3uXxG2KLL&cache31658=31658&page=725","next_page_url":null,"path":"https://videocdn.tv/api/short","per_page":100,"prev_page_url":"https://videocdn.tv/api/short?limit=100&api_token=X6EwAUfE5M9xbo7y0Bp0aPf3uXxG2KLL&cache31658=31658&page=1657","to":165720,"total":72431}