{"result":true,"data":[{"id":50491,"title":"Человек и его собака","kp_id":"404216","imdb_id":"tt1174049","world_art_id":null,"type":"movie","add":"2021-05-19 09:20:09","orig_title":"Un homme et son chien","year":"2008-11-13","translations":["Профессиональный (многоголосый закадровый)"],"quality":"dvdrip","translation":"Профессиональный (многоголосый закадровый)","update":"2021-05-19 11:05:48","iframe_src":"//2413.svetacdn.in/si4jsFRrtgrT/movie/50491"},{"id":50490,"title":"Наследник","kp_id":"39798","imdb_id":"tt0068724","world_art_id":null,"type":"movie","add":"2021-05-19 09:14:27","orig_title":"L'héritier","year":"1973-03-22","translations":["Профессиональный (многоголосый закадровый)"],"quality":"bd","translation":"Профессиональный (многоголосый закадровый)","update":"2021-05-19 11:07:04","iframe_src":"//2413.svetacdn.in/si4jsFRrtgrT/movie/50490"},{"id":50489,"title":"Сказочник","kp_id":"846","imdb_id":"tt0250081","world_art_id":null,"type":"movie","add":"2021-05-19 08:29:13","orig_title":"Storytelling","year":"2001-05-12","translations":["Профессиональный (многоголосый закадровый)"],"quality":"dvdrip","translation":"Профессиональный (многоголосый закадровый)","update":"2021-05-19 11:04:23","iframe_src":"//2413.svetacdn.in/si4jsFRrtgrT/movie/50489"},{"id":50487,"title":"Путь страсти","kp_id":"331310","imdb_id":"tt0352705","world_art_id":null,"type":"movie","add":"2021-05-19 07:47:22","orig_title":"Passion Lane","year":"2001-06-25","translations":["Профессиональный (двухголосый закадровый)"],"quality":"dvdrip","translation":"Профессиональный (двухголосый закадровый)","update":"2021-05-19 11:00:22","iframe_src":"//2413.svetacdn.in/si4jsFRrtgrT/movie/50487"},{"id":50485,"title":"Новая любовь в Токио","kp_id":"185767","imdb_id":"tt0109059","world_art_id":null,"type":"movie","add":"2021-05-19 05:04:43","orig_title":"Ai no shinsekai","year":"1994-12-17","translations":["Любительский (одноголосый закадровый) (den904)"],"quality":"bd","translation":"Любительский (одноголосый закадровый) (den904)","update":"2021-05-19 11:28:40","iframe_src":"//2413.svetacdn.in/si4jsFRrtgrT/movie/50485"},{"id":50484,"title":"Ключ жизни","kp_id":"636152","imdb_id":"tt2078599","world_art_id":null,"type":"movie","add":"2021-05-19 05:03:03","orig_title":"Kagi dorobo no mesoddo","year":"2012-06-16","translations":["Любительский (одноголосый закадровый) (neko64)"],"quality":"bd","translation":"Любительский (одноголосый закадровый) (neko64)","update":"2021-05-19 09:06:05","iframe_src":"//2413.svetacdn.in/si4jsFRrtgrT/movie/50484"},{"id":50478,"title":"Отпуск","kp_id":"1320041","imdb_id":"tt8981770","world_art_id":null,"type":"movie","add":"2021-05-18 21:09:46","orig_title":"Break","year":"2020-05-11","translations":["Любительский (многоголосый закадровый) (Синема УС)"],"quality":"webdl","translation":"Любительский (многоголосый закадровый) (Синема УС)","update":"2021-05-19 06:28:11","iframe_src":"//2413.svetacdn.in/si4jsFRrtgrT/movie/50478"},{"id":50477,"title":"Подготовка, чтобы быть вместе неопределенное количество времени","kp_id":"1391515","imdb_id":"tt12564514","world_art_id":null,"type":"movie","add":"2021-05-18 21:01:20","orig_title":"Felkészülés meghatározatlan ideig tartó együttlétre","year":"2020-09-06","translations":["Любительский (многоголосый закадровый) (Синема УС)"],"quality":"webdl","translation":"Любительский (многоголосый закадровый) (Синема УС)","update":"2021-05-19 06:30:25","iframe_src":"//2413.svetacdn.in/si4jsFRrtgrT/movie/50477"},{"id":50476,"title":"Грех","kp_id":"425996","imdb_id":null,"world_art_id":null,"type":"movie","add":"2021-05-18 20:58:30","orig_title":"Грех","year":"2007-03-16","translations":["Оригинальная дорожка"],"quality":"dvdrip","translation":"Оригинальная дорожка","update":"2021-05-19 06:30:58","iframe_src":"//2413.svetacdn.in/si4jsFRrtgrT/movie/50476"},{"id":50475,"title":"Полтергейст Амитивилля","kp_id":"4294572","imdb_id":"tt13658792","world_art_id":null,"type":"movie","add":"2021-05-18 18:34:25","orig_title":"An Amityville Poltergeist","year":"2020-12-01","translations":["Любительский (многоголосый закадровый) (Синема УС)"],"quality":"webdl","translation":"Любительский (многоголосый закадровый) (Синема УС)","update":"2021-05-19 10:50:47","iframe_src":"//2413.svetacdn.in/si4jsFRrtgrT/movie/50475"},{"id":50474,"title":"Курьерша","kp_id":"1291928","imdb_id":"tt10816000","world_art_id":null,"type":"movie","add":"2021-05-18 18:31:34","orig_title":"Take Out Girl","year":"2020-03-06","translations":["Любительский (многоголосый закадровый) (@MUZOBOZ@)"],"quality":"webdl","translation":"Любительский (многоголосый закадровый) (@MUZOBOZ@)","update":"2021-05-19 10:48:03","iframe_src":"//2413.svetacdn.in/si4jsFRrtgrT/movie/50474"},{"id":49368,"title":"Пророк смерти","kp_id":"6457","imdb_id":"tt0199974","world_art_id":null,"type":"movie","add":"2021-04-05 12:06:04","orig_title":"The Prophet's Game","year":"2000-02-15","translations":["Профессиональный (многоголосый закадровый) (SDI Media | Iyuno-SDI Group Russia)","Авторский (одноголосый закадровый) (Визгунов Сергей)","[EN] Original (English)","Профессиональный (двухголосый закадровый) (CP Digital)"],"quality":"bd","translation":"Профессиональный (многоголосый закадровый) (SDI Media | Iyuno-SDI Group Russia)","update":"2021-05-19 07:44:56","iframe_src":"//2413.svetacdn.in/si4jsFRrtgrT/movie/49368"},{"id":49037,"title":"Пальма","kp_id":"1142206","imdb_id":"tt8396480","world_art_id":null,"type":"movie","add":"2021-03-23 21:12:11","orig_title":"Palma","year":"2021-03-18","translations":["Оригинальная дорожка","Оригинальная дорожка"],"quality":"ts","translation":"Оригинальная дорожка","update":"2021-05-19 09:02:28","iframe_src":"//2413.svetacdn.in/si4jsFRrtgrT/movie/49037"},{"id":15955,"title":"Всё меняется","kp_id":"3006","imdb_id":"tt0096259","world_art_id":null,"type":"movie","add":"2018-03-30 23:20:12","orig_title":"Things Change","year":"1988-10-21","translations":["Профессиональный (многоголосый закадровый)","Профессиональный (многоголосый закадровый) (Первый канал | ОРТ)","Авторский (одноголосый закадровый) (Гаврилов Андрей)","[EN] Original (English)","Профессиональный (многоголосый закадровый) (СТС)"],"quality":"webdl","translation":"Профессиональный (многоголосый закадровый)","update":"2021-05-19 07:24:14","iframe_src":"//2413.svetacdn.in/si4jsFRrtgrT/movie/15955"},{"id":1453,"title":"Трансформеры: Прайм","kp_id":"573866","imdb_id":"tt1659175","world_art_id":null,"type":"serial","add":"2017-08-07 15:48:42","orig_title":"Transformers Prime","year":"2010-11-26","translations":["Полное дублирование"],"seasons_count":3,"episodes_count":65,"episodes":13,"update":"2017-08-10 07:33:27","iframe_src":"//2413.svetacdn.in/si4jsFRrtgrT/tv-series/1453"},{"id":12803,"title":"Чего хочет девушка","kp_id":"17754","imdb_id":"tt0286788","world_art_id":null,"type":"movie","add":"2017-08-06 12:10:40","orig_title":"What a Girl Wants","year":"2003-03-27","translations":["Профессиональный (многоголосый закадровый)","Профессиональный (двухголосый закадровый) (Премьер Видео Фильм)","[EN] Original (English)","Профессиональный (многоголосый закадровый) (НТВ)","Профессиональный (многоголосый закадровый) (РТР | Россия)"],"quality":"hdtv","translation":"Профессиональный (многоголосый закадровый)","update":"2021-05-19 07:28:11","iframe_src":"//2413.svetacdn.in/si4jsFRrtgrT/movie/12803"},{"id":1449,"title":"Обитель лжи","kp_id":"577257","imdb_id":"tt1797404","world_art_id":null,"type":"serial","add":"2017-08-04 06:23:24","orig_title":"House of Lies","year":"2012-01-08","translations":["Профессиональный (многоголосый закадровый) (NewStudio)","Профессиональный (многоголосый закадровый)","Профессиональный (двухголосый закадровый) (Gears Media)"],"seasons_count":5,"episodes_count":58,"episodes":10,"update":"2017-08-09 06:39:16","iframe_src":"//2413.svetacdn.in/si4jsFRrtgrT/tv-series/1449"},{"id":1447,"title":"Реальные кабаны","kp_id":"471728","imdb_id":null,"world_art_id":null,"type":"serial","add":"2017-08-03 11:33:34","orig_title":"Реальные кабаны","year":"2015-11-15","translations":["Оригинальная дорожка"],"seasons_count":1,"episodes_count":16,"episodes":16,"update":"2017-08-07 13:31:27","iframe_src":"//2413.svetacdn.in/si4jsFRrtgrT/tv-series/1447"},{"id":1446,"title":"Тайна пиратских сокровищ","kp_id":"872979","imdb_id":"tt4219938","world_art_id":null,"type":"serial","add":"2017-08-03 08:59:01","orig_title":"Piratskattens hemlighet","year":"2014-12-01","translations":["Профессиональный (многоголосый закадровый) (Игмар)"],"seasons_count":1,"episodes_count":24,"episodes":24,"update":"2017-08-03 13:03:38","iframe_src":"//2413.svetacdn.in/si4jsFRrtgrT/tv-series/1446"},{"id":1445,"title":"Крестная","kp_id":"1046730","imdb_id":null,"world_art_id":null,"type":"serial","add":"2017-08-03 08:28:13","orig_title":"Крестная","year":"2017-05-28","translations":["Оригинальная дорожка"],"seasons_count":1,"episodes_count":4,"episodes":4,"update":"2017-08-03 09:34:32","iframe_src":"//2413.svetacdn.in/si4jsFRrtgrT/tv-series/1445"},{"id":1437,"title":"При деньгах","kp_id":"1044629","imdb_id":"tt6210192","world_art_id":null,"type":"serial","add":"2017-07-31 12:03:11","orig_title":"Loaded","year":"2017-05-08","translations":["Профессиональный (многоголосый закадровый) (BaibaKo)"],"seasons_count":1,"episodes_count":4,"episodes":4,"update":"2017-07-31 15:32:48","iframe_src":"//2413.svetacdn.in/si4jsFRrtgrT/tv-series/1437"},{"id":1435,"title":"Город особого назначения","kp_id":"840743","imdb_id":"tt4043674","world_art_id":null,"type":"serial","add":"2017-07-31 11:21:24","orig_title":"Spetspodrazdelenie 'Gorod'","year":"2015-10-03","translations":["Оригинальная дорожка"],"seasons_count":1,"episodes_count":12,"episodes":12,"update":"2017-08-02 11:27:51","iframe_src":"//2413.svetacdn.in/si4jsFRrtgrT/tv-series/1435"},{"id":1432,"title":"Лето волков","kp_id":"573773","imdb_id":"tt2992540","world_art_id":null,"type":"serial","add":"2017-07-28 19:39:28","orig_title":"Leto volkov","year":"2012-04-16","translations":["Оригинальная дорожка"],"seasons_count":1,"episodes_count":6,"episodes":6,"update":"2017-07-29 07:08:48","iframe_src":"//2413.svetacdn.in/si4jsFRrtgrT/tv-series/1432"},{"id":1426,"title":"Рухнувшие небеса","kp_id":"510335","imdb_id":"tt1462059","world_art_id":null,"type":"serial","add":"2017-07-26 14:15:50","orig_title":"Falling Skies","year":"2011-06-19","translations":["Профессиональный (многоголосый закадровый) (LostFilm)"],"seasons_count":5,"episodes_count":51,"episodes":10,"update":"2017-08-02 10:01:33","iframe_src":"//2413.svetacdn.in/si4jsFRrtgrT/tv-series/1426"},{"id":1421,"title":"Джоуи","kp_id":"251959","imdb_id":"tt0375355","world_art_id":null,"type":"serial","add":"2017-07-25 12:10:25","orig_title":"Joey","year":"2004-09-09","translations":["Профессиональный (многоголосый закадровый) (ТНТ)"],"seasons_count":2,"episodes_count":46,"episodes":22,"update":"2017-07-28 11:50:16","iframe_src":"//2413.svetacdn.in/si4jsFRrtgrT/tv-series/1421"},{"id":1413,"title":"Пока станица спит","kp_id":"762855","imdb_id":"tt3204246","world_art_id":null,"type":"serial","add":"2017-07-22 08:55:37","orig_title":"Poka stanitsa spit","year":"2014-01-06","translations":["Оригинальная дорожка"],"seasons_count":1,"episodes_count":270,"episodes":270,"update":"2017-08-07 06:49:56","iframe_src":"//2413.svetacdn.in/si4jsFRrtgrT/tv-series/1413"},{"id":1411,"title":"Демоны Да Винчи","kp_id":"677719","imdb_id":"tt2094262","world_art_id":null,"type":"serial","add":"2017-07-21 11:16:24","orig_title":"Da Vinci's Demons","year":"2013-04-12","translations":["Профессиональный (многоголосый закадровый) (AlexFilm)","Профессиональный (многоголосый закадровый) (TVShows)"],"seasons_count":3,"episodes_count":28,"episodes":10,"update":"2017-07-28 14:00:51","iframe_src":"//2413.svetacdn.in/si4jsFRrtgrT/tv-series/1411"},{"id":1410,"title":"Сладкие и порочные","kp_id":"935042","imdb_id":"tt5012644","world_art_id":null,"type":"serial","add":"2017-07-19 12:32:54","orig_title":"Sweet/Vicious","year":"2016-11-15","translations":["Любительский (многоголосый закадровый) (D1)"],"seasons_count":1,"episodes_count":10,"episodes":10,"update":"2017-08-02 06:40:17","iframe_src":"//2413.svetacdn.in/si4jsFRrtgrT/tv-series/1410"},{"id":1396,"title":"Клан ювелиров","kp_id":"927790","imdb_id":"tt5077144","world_art_id":null,"type":"serial","add":"2017-07-14 05:02:53","orig_title":"Klan yuvelirov","year":"2015-08-17","translations":["Оригинальная дорожка"],"seasons_count":1,"episodes_count":95,"episodes":95,"update":"2017-08-07 07:28:07","iframe_src":"//2413.svetacdn.in/si4jsFRrtgrT/tv-series/1396"},{"id":1388,"title":"Ад на колёсах","kp_id":"557760","imdb_id":"tt1699748","world_art_id":null,"type":"serial","add":"2017-07-12 09:36:09","orig_title":"Hell on Wheels","year":"2011-11-06","translations":["Профессиональный (многоголосый закадровый) (LostFilm)","Профессиональный (многоголосый закадровый) (TVShows)"],"seasons_count":5,"episodes_count":56,"episodes":14,"update":"2017-08-01 20:04:23","iframe_src":"//2413.svetacdn.in/si4jsFRrtgrT/tv-series/1388"},{"id":1325,"title":"Другой майор Соколов","kp_id":"840467","imdb_id":"tt5505004","world_art_id":null,"type":"serial","add":"2017-06-20 07:57:58","orig_title":"Drugoy mayor Sokolov","year":"2015-12-14","translations":["Оригинальная дорожка"],"seasons_count":1,"episodes_count":32,"episodes":32,"update":"2017-08-03 10:24:45","iframe_src":"//2413.svetacdn.in/si4jsFRrtgrT/tv-series/1325"},{"id":6597,"title":"Агенты Сокол и Снеговик","kp_id":"16949","imdb_id":"tt0087231","world_art_id":null,"type":"movie","add":"2016-10-24 05:19:52","orig_title":"The Falcon and the Snowman","year":"1985-02-08","translations":["Профессиональный (многоголосый закадровый)","Профессиональный (многоголосый закадровый) (5-й канал СПб)","[EN] Original (English)","Профессиональный (двухголосый закадровый) (НТВ)","Профессиональный (многоголосый закадровый) (Первый канал | ОРТ)"],"quality":"bd","translation":"Профессиональный (многоголосый закадровый)","update":"2021-05-19 07:20:09","iframe_src":"//2413.svetacdn.in/si4jsFRrtgrT/movie/6597"},{"id":6162,"title":"Враг у ворот","kp_id":"659","imdb_id":"tt0215750","world_art_id":null,"type":"movie","add":"2016-10-11 09:07:24","orig_title":"Enemy at the Gates","year":"2001-02-07","translations":["Полное дублирование","Профессиональный (многоголосый закадровый)","Авторский (одноголосый закадровый) (Живов Юрий)","Полное дублирование (Пифагор)","[EN] Original (English)","Профессиональный (двухголосый закадровый) (Гланц + Королёва)","Профессиональный (многоголосый закадровый)","Профессиональный (многоголосый закадровый) (Премьер Видео Фильм)","Профессиональный (многоголосый закадровый) (Universal Russia)"],"quality":"bd","translation":"Полное дублирование","update":"2021-05-19 08:52:54","iframe_src":"//2413.svetacdn.in/si4jsFRrtgrT/movie/6162"},{"id":435,"title":"Проще пареной репы","kp_id":"1000926","imdb_id":null,"world_art_id":null,"type":"serial","add":"2016-09-12 05:00:12","orig_title":"Проще пареной репы","year":"2016-09-11","translations":["Оригинальная дорожка"],"seasons_count":1,"episodes_count":2,"episodes":2,"update":"2017-07-29 10:44:36","iframe_src":"//2413.svetacdn.in/si4jsFRrtgrT/tv-series/435"},{"id":4776,"title":"Когда молчат фанфары","kp_id":"77379","imdb_id":"tt0135706","world_art_id":null,"type":"movie","add":"2016-08-29 08:02:15","orig_title":"When Trumpets Fade","year":"1998-06-27","translations":["Профессиональный (двухголосый закадровый)","Профессиональный (двухголосый закадровый) (Екатеринбург Арт)","Авторский (одноголосый закадровый) (Кашкин Александр | Первомайский)","[EN] Original (English)","Профессиональный (одноголосый закадровый)"],"quality":"webdl","translation":"Профессиональный (двухголосый закадровый)","update":"2021-05-19 07:33:58","iframe_src":"//2413.svetacdn.in/si4jsFRrtgrT/movie/4776"},{"id":232,"title":"Пороги","kp_id":"931157","imdb_id":null,"world_art_id":null,"type":"serial","add":"2016-06-26 06:30:40","orig_title":"Пороги","year":"2015-07-25","translations":["Оригинальная дорожка"],"seasons_count":1,"episodes_count":16,"episodes":16,"update":"2017-07-29 08:05:58","iframe_src":"//2413.svetacdn.in/si4jsFRrtgrT/tv-series/232"},{"id":3091,"title":"Охотники за разумом","kp_id":"8091","imdb_id":"tt0297284","world_art_id":null,"type":"movie","add":"2016-06-13 15:46:58","orig_title":"Mindhunters","year":"2004-03-19","translations":["Полное дублирование","Авторский (одноголосый закадровый) (Гаврилов Андрей)","Полное дублирование","[EN] Original (English)","Профессиональный (двухголосый закадровый) (Tycoon)","Профессиональный (многоголосый закадровый)"],"quality":"bd","translation":"Полное дублирование","update":"2021-05-19 07:50:29","iframe_src":"//2413.svetacdn.in/si4jsFRrtgrT/movie/3091"},{"id":166,"title":"Умник","kp_id":"932060","imdb_id":"tt4649420","world_art_id":null,"type":"serial","add":"2016-06-09 13:04:08","orig_title":"Cleverman","year":"2016-06-02","translations":["Профессиональный (многоголосый закадровый) (NewStudio)","Профессиональный (многоголосый закадровый) (BaibaKo)","Профессиональный (многоголосый закадровый) (Jaskier)"],"seasons_count":2,"episodes_count":12,"episodes":6,"update":"2017-08-07 05:21:31","iframe_src":"//2413.svetacdn.in/si4jsFRrtgrT/tv-series/166"},{"id":164,"title":"Королевство","kp_id":"842336","imdb_id":"tt3673794","world_art_id":null,"type":"serial","add":"2016-06-09 06:57:48","orig_title":"Kingdom","year":"2014-10-08","translations":["Профессиональный (многоголосый закадровый) (NewStudio)"],"seasons_count":3,"episodes_count":40,"episodes":10,"update":"2017-08-08 07:08:14","iframe_src":"//2413.svetacdn.in/si4jsFRrtgrT/tv-series/164"},{"id":1980,"title":"Интервью с вампиром","kp_id":"8151","imdb_id":"tt0110148","world_art_id":null,"type":"movie","add":"2016-05-09 04:55:09","orig_title":"Interview with the Vampire: The Vampire Chronicles","year":"1994-11-09","translations":["Полное дублирование","Авторский (одноголосый закадровый) (Гаврилов Андрей)","Авторский (одноголосый закадровый) (Горчаков Василий)","Полное дублирование","Полное дублирование (Варус-Видео)","[EN] Original (English)","Профессиональный (двухголосый закадровый) (Гланц + Королёва)","Профессиональный (двухголосый закадровый) (SDI Media | Iyuno-SDI Group Russia)"],"quality":"bd","translation":"Полное дублирование","update":"2021-05-19 09:00:04","iframe_src":"//2413.svetacdn.in/si4jsFRrtgrT/movie/1980"}],"current_page":570,"first_page_url":"https://videocdn.tv/api/short?limit=100&api_token=X6EwAUfE5M9xbo7y0Bp0aPf3uXxG2KLL&cache3570=3570&page=1","from":56901,"last_page":711,"last_page_url":"https://videocdn.tv/api/short?limit=100&api_token=X6EwAUfE5M9xbo7y0Bp0aPf3uXxG2KLL&cache3570=3570&page=711","next_page_url":"https://videocdn.tv/api/short?limit=100&api_token=X6EwAUfE5M9xbo7y0Bp0aPf3uXxG2KLL&cache3570=3570&page=571","path":"https://videocdn.tv/api/short","per_page":100,"prev_page_url":"https://videocdn.tv/api/short?limit=100&api_token=X6EwAUfE5M9xbo7y0Bp0aPf3uXxG2KLL&cache3570=3570&page=569","to":56940,"total":71091}