{"result":true,"data":[{"id":42677,"title":"Внуки для новичков","kp_id":"1263777","imdb_id":"tt10252330","world_art_id":null,"type":"movie","add":"2020-08-23 08:40:09","orig_title":"Enkel für Anfänger","year":"2020-02-06","translations":["Любительский (многоголосый закадровый) (AlphaProject)"],"quality":"bd","translation":"Любительский (многоголосый закадровый) (AlphaProject)","update":"2020-08-23 18:47:37","iframe_src":"//83.svetacdn.in/PfJ50H0ZBPg3/movie/42677"},{"id":42674,"title":"Кровавый закат","kp_id":"1304834","imdb_id":"tt10931910","world_art_id":null,"type":"movie","add":"2020-08-23 08:24:26","orig_title":"Red Sunset Drive","year":"2019-10-12","translations":["Любительский (многоголосый закадровый) (Синема УС)"],"quality":"webdl","translation":"Любительский (многоголосый закадровый) (Синема УС)","update":"2020-08-23 18:49:06","iframe_src":"//83.svetacdn.in/PfJ50H0ZBPg3/movie/42674"},{"id":42673,"title":"Часы: пробуждение духа","kp_id":"1323596","imdb_id":"tt11172726","world_art_id":null,"type":"movie","add":"2020-08-23 08:16:44","orig_title":"The Clock: Spirits Awakening","year":"2019-11-21","translations":["Любительский (двухголосый закадровый) (Колобок)"],"quality":"ts","translation":"Любительский (двухголосый закадровый) (Колобок)","update":"2020-08-23 18:50:15","iframe_src":"//83.svetacdn.in/PfJ50H0ZBPg3/movie/42673"},{"id":42670,"title":"Невезуха","kp_id":null,"imdb_id":"tt8080674","world_art_id":null,"type":"movie","add":"2020-08-21 20:48:37","orig_title":"Bad Break","year":"2018-03-01","translations":["Любительский (многоголосый закадровый) (Синема УС)"],"quality":"webdl","translation":"Любительский (многоголосый закадровый) (Синема УС)","update":"2020-08-22 07:30:58","iframe_src":"//83.svetacdn.in/PfJ50H0ZBPg3/movie/42670"},{"id":42668,"title":"Сайдбуб","kp_id":"1016435","imdb_id":"tt6464986","world_art_id":null,"type":"movie","add":"2020-08-21 20:46:09","orig_title":"Sideboob","year":"2018-12-10","translations":["Любительский (многоголосый закадровый) (AlphaProject)"],"quality":"webdl","translation":"Любительский (многоголосый закадровый) (AlphaProject)","update":"2020-08-22 07:30:34","iframe_src":"//83.svetacdn.in/PfJ50H0ZBPg3/movie/42668"},{"id":42631,"title":"Новое платье короля","kp_id":"565041","imdb_id":"tt4568720","world_art_id":null,"type":"movie","add":"2020-08-20 20:31:29","orig_title":"Novoe plate korolya","year":"1990-01-01","translations":["Оригинальная дорожка"],"quality":"dvdrip","translation":"Оригинальная дорожка","update":"2020-08-24 06:19:32","iframe_src":"//83.svetacdn.in/PfJ50H0ZBPg3/movie/42631"},{"id":42630,"title":"Митя и Микробус","kp_id":"648225","imdb_id":"tt2255730","world_art_id":null,"type":"movie","add":"2020-08-20 20:28:32","orig_title":"Mitya i mikrobus","year":"1973-01-01","translations":["Оригинальная дорожка"],"quality":"sat","translation":"Оригинальная дорожка","update":"2020-08-24 06:18:22","iframe_src":"//83.svetacdn.in/PfJ50H0ZBPg3/movie/42630"},{"id":42629,"title":"Лев и 9 гиен","kp_id":"462758","imdb_id":"tt7150962","world_art_id":null,"type":"movie","add":"2020-08-20 20:25:49","orig_title":"Lev i 9 gien","year":"1988-01-01","translations":["Оригинальная дорожка"],"quality":"sat","translation":"Оригинальная дорожка","update":"2020-08-24 06:17:37","iframe_src":"//83.svetacdn.in/PfJ50H0ZBPg3/movie/42629"},{"id":42628,"title":"Лесной квартет","kp_id":"227602","imdb_id":null,"world_art_id":null,"type":"movie","add":"2020-08-20 20:23:23","orig_title":"Лесной квартет","year":"1984-01-01","translations":["Оригинальная дорожка"],"quality":"tv","translation":"Оригинальная дорожка","update":"2020-08-24 06:16:25","iframe_src":"//83.svetacdn.in/PfJ50H0ZBPg3/movie/42628"},{"id":42627,"title":"Кто ж такие птички...","kp_id":"574049","imdb_id":"tt6241820","world_art_id":null,"type":"movie","add":"2020-08-20 20:05:41","orig_title":"Kto zhe takie ptichki...","year":"1978-01-01","translations":["Оригинальная дорожка"],"quality":"dvdrip","translation":"Оригинальная дорожка","update":"2020-08-24 06:15:44","iframe_src":"//83.svetacdn.in/PfJ50H0ZBPg3/movie/42627"},{"id":42626,"title":"Кто придет на Новый год","kp_id":"542202","imdb_id":"tt2243816","world_art_id":null,"type":"movie","add":"2020-08-20 20:00:38","orig_title":"Kto pridyot na Novyy God?","year":"1982-01-01","translations":["Оригинальная дорожка"],"quality":"dvdrip","translation":"Оригинальная дорожка","update":"2020-08-24 06:15:05","iframe_src":"//83.svetacdn.in/PfJ50H0ZBPg3/movie/42626"},{"id":42625,"title":"Кто первый?","kp_id":"258011","imdb_id":"tt6118508","world_art_id":null,"type":"movie","add":"2020-08-20 19:55:18","orig_title":"Kto perviy?","year":"1950-04-12","translations":["Оригинальная дорожка"],"quality":"dvdrip","translation":"Оригинальная дорожка","update":"2020-08-24 06:14:26","iframe_src":"//83.svetacdn.in/PfJ50H0ZBPg3/movie/42625"},{"id":42624,"title":"Конец Черной топи","kp_id":"469686","imdb_id":"tt5961570","world_art_id":null,"type":"movie","add":"2020-08-20 19:52:42","orig_title":"Konets Chernoy topi","year":"1960-01-01","translations":["Оригинальная дорожка"],"quality":"sat","translation":"Оригинальная дорожка","update":"2020-08-24 06:12:41","iframe_src":"//83.svetacdn.in/PfJ50H0ZBPg3/movie/42624"},{"id":42623,"title":"Голубой щенок","kp_id":"44544","imdb_id":"tt0212969","world_art_id":null,"type":"movie","add":"2020-08-20 19:49:55","orig_title":"Goluboy shchenok","year":"1976-11-28","translations":["Оригинальная дорожка"],"quality":"dvdrip","translation":"Оригинальная дорожка","update":"2020-08-24 06:11:56","iframe_src":"//83.svetacdn.in/PfJ50H0ZBPg3/movie/42623"},{"id":42622,"title":"Догони-ветер","kp_id":"719870","imdb_id":null,"world_art_id":null,"type":"movie","add":"2020-08-20 19:47:36","orig_title":"Догони-ветер","year":"1978-01-01","translations":["Оригинальная дорожка"],"quality":"sat","translation":"Оригинальная дорожка","update":"2020-08-24 06:11:08","iframe_src":"//83.svetacdn.in/PfJ50H0ZBPg3/movie/42622"},{"id":42621,"title":"Чудесный колокольчик","kp_id":"257884","imdb_id":"tt2482108","world_art_id":null,"type":"movie","add":"2020-08-20 19:44:09","orig_title":"Chudesnyy kolokolchik","year":"1949-08-03","translations":["Оригинальная дорожка"],"quality":"dvdrip","translation":"Оригинальная дорожка","update":"2020-08-24 06:10:00","iframe_src":"//83.svetacdn.in/PfJ50H0ZBPg3/movie/42621"},{"id":42620,"title":"Бурёнка из Маслёнкино","kp_id":"465625","imdb_id":"tt2382905","world_art_id":null,"type":"movie","add":"2020-08-20 19:41:42","orig_title":"Buryonka iz Maslyonkino","year":"1973-01-01","translations":["Оригинальная дорожка"],"quality":"dvdrip","translation":"Оригинальная дорожка","update":"2020-08-24 06:09:31","iframe_src":"//83.svetacdn.in/PfJ50H0ZBPg3/movie/42620"},{"id":42619,"title":"Будь здоров!","kp_id":"974198","imdb_id":null,"world_art_id":null,"type":"movie","add":"2020-08-20 19:38:28","orig_title":"Будь здоров!","year":"1982-01-01","translations":["Оригинальная дорожка"],"quality":"sat","translation":"Оригинальная дорожка","update":"2020-08-24 06:08:40","iframe_src":"//83.svetacdn.in/PfJ50H0ZBPg3/movie/42619"},{"id":41764,"title":"Деревня Инунаки","kp_id":"1297231","imdb_id":"tt10919074","world_art_id":null,"type":"movie","add":"2020-07-15 05:54:18","orig_title":"Howling Village","year":"2019-10-10","translations":["Любительский (двухголосый закадровый) (Колобок)","Любительский (двухголосый закадровый) (Колобок)"],"quality":"ts","translation":"Любительский (двухголосый закадровый) (Колобок)","update":"2020-08-23 18:49:32","iframe_src":"//83.svetacdn.in/PfJ50H0ZBPg3/movie/41764"},{"id":19819,"title":"Солнце","kp_id":"1014067","imdb_id":"tt6134274","world_art_id":null,"type":"movie","add":"2018-10-28 15:15:32","orig_title":"Solis","year":"2018-06-27","translations":["Любительский (многоголосый закадровый) (@MUZOBOZ@)","Любительский (двухголосый закадровый) (HiWayGrope)","[EN] Original (English)","Профессиональный (многоголосый закадровый) (HDrezka Studio)"],"quality":"webdl","translation":"Любительский (многоголосый закадровый) (@MUZOBOZ@)","update":"2020-08-23 15:30:27","iframe_src":"//83.svetacdn.in/PfJ50H0ZBPg3/movie/19819"}],"current_page":1034,"first_page_url":"https://videocdn.tv/api/short?limit=100&api_token=RgFQdUIR2dRmwv8iYa5SnFNgnw3vpjKj&cache31034=31034&page=1","from":103301,"last_page":715,"last_page_url":"https://videocdn.tv/api/short?limit=100&api_token=RgFQdUIR2dRmwv8iYa5SnFNgnw3vpjKj&cache31034=31034&page=715","next_page_url":null,"path":"https://videocdn.tv/api/short","per_page":100,"prev_page_url":"https://videocdn.tv/api/short?limit=100&api_token=RgFQdUIR2dRmwv8iYa5SnFNgnw3vpjKj&cache31034=31034&page=1033","to":103320,"total":71433}