{"result":true,"data":[{"id":49060,"title":"Ритуал","kp_id":"1418771","imdb_id":"tt13141604","world_art_id":null,"type":"movie","add":"2021-03-24 18:30:25","orig_title":"The Ritual","year":"2021-01-10","translations":["Любительский (многоголосый закадровый) (Синема УС)"],"quality":"webdl","translation":"Любительский (многоголосый закадровый) (Синема УС)","update":"2021-03-24 20:46:40","iframe_src":"//5322.svetacdn.in/si4jsFRrtgrT/movie/49060"},{"id":49055,"title":"Близкие","kp_id":"1350958","imdb_id":"tt11829286","world_art_id":null,"type":"movie","add":"2021-03-23 21:55:42","orig_title":"Bliscy","year":"2020-09-13","translations":["Любительский (многоголосый закадровый) (Синема УС)"],"quality":"webdl","translation":"Любительский (многоголосый закадровый) (Синема УС)","update":"2021-03-24 20:47:19","iframe_src":"//5322.svetacdn.in/si4jsFRrtgrT/movie/49055"},{"id":49054,"title":"Ещё одна попытка","kp_id":"1082381","imdb_id":"tt7261280","world_art_id":null,"type":"movie","add":"2021-03-23 21:53:47","orig_title":"Still Trying","year":"2019-03-02","translations":["Любительский (многоголосый закадровый) (AlphaProject)"],"quality":"webdl","translation":"Любительский (многоголосый закадровый) (AlphaProject)","update":"2021-03-24 20:47:49","iframe_src":"//5322.svetacdn.in/si4jsFRrtgrT/movie/49054"},{"id":49053,"title":"Девочки делают это 2","kp_id":"1241123","imdb_id":"tt9431498","world_art_id":null,"type":"movie","add":"2021-03-23 21:52:13","orig_title":"Gai gia lam chieu 2","year":"2018-12-07","translations":["Любительский (многоголосый закадровый) (Синема УС)"],"quality":"webdl","translation":"Любительский (многоголосый закадровый) (Синема УС)","update":"2021-03-24 20:48:14","iframe_src":"//5322.svetacdn.in/si4jsFRrtgrT/movie/49053"},{"id":49052,"title":"Ожидание","kp_id":"1088397","imdb_id":"tt6853714","world_art_id":null,"type":"movie","add":"2021-03-23 21:49:35","orig_title":"Stoke","year":"2019-04-20","translations":["Любительский (многоголосый закадровый) (Синема УС)"],"quality":"webdl","translation":"Любительский (многоголосый закадровый) (Синема УС)","update":"2021-03-24 20:48:51","iframe_src":"//5322.svetacdn.in/si4jsFRrtgrT/movie/49052"},{"id":49051,"title":"Глубочайший страх","kp_id":"1329630","imdb_id":"tt6880884","world_art_id":null,"type":"movie","add":"2021-03-23 21:47:43","orig_title":"Deepest Fear","year":"2018-01-01","translations":["Любительский (многоголосый закадровый) (Синема УС)"],"quality":"webdl","translation":"Любительский (многоголосый закадровый) (Синема УС)","update":"2021-03-24 20:49:22","iframe_src":"//5322.svetacdn.in/si4jsFRrtgrT/movie/49051"},{"id":49050,"title":"Как можно дальше отсюда","kp_id":"1247998","imdb_id":"tt10004368","world_art_id":null,"type":"movie","add":"2021-03-23 21:45:46","orig_title":"Jak najdalej stad","year":"2020-09-25","translations":["Любительский (многоголосый закадровый) (Синема УС)"],"quality":"webdl","translation":"Любительский (многоголосый закадровый) (Синема УС)","update":"2021-03-24 20:50:04","iframe_src":"//5322.svetacdn.in/si4jsFRrtgrT/movie/49050"},{"id":49049,"title":"Ужасное приключение","kp_id":"1230776","imdb_id":"tt8896010","world_art_id":null,"type":"movie","add":"2021-03-23 21:43:48","orig_title":"The Terrible Adventure","year":"2020-08-30","translations":["Любительский (многоголосый закадровый) (Синема УС)"],"quality":"webdl","translation":"Любительский (многоголосый закадровый) (Синема УС)","update":"2021-03-24 20:50:30","iframe_src":"//5322.svetacdn.in/si4jsFRrtgrT/movie/49049"},{"id":49048,"title":"Соул Гайз","kp_id":"1093536","imdb_id":"tt6895820","world_art_id":null,"type":"movie","add":"2021-03-23 21:41:43","orig_title":"Soul Guys","year":"2019-11-04","translations":["Любительский (многоголосый закадровый) (Синема УС)"],"quality":"webdl","translation":"Любительский (многоголосый закадровый) (Синема УС)","update":"2021-03-24 20:50:55","iframe_src":"//5322.svetacdn.in/si4jsFRrtgrT/movie/49048"},{"id":49047,"title":"Время для любви","kp_id":"1299819","imdb_id":"tt10891822","world_art_id":null,"type":"movie","add":"2021-03-23 21:39:55","orig_title":"Kolej na milosc","year":"2020-10-08","translations":["Любительский (многоголосый закадровый) (AlphaProject)"],"quality":"webdl","translation":"Любительский (многоголосый закадровый) (AlphaProject)","update":"2021-03-24 20:51:23","iframe_src":"//5322.svetacdn.in/si4jsFRrtgrT/movie/49047"},{"id":49046,"title":"Табу 2","kp_id":"1338915","imdb_id":"tt11540002","world_art_id":null,"type":"movie","add":"2021-03-23 21:37:09","orig_title":"Taboo 2","year":"2019-11-11","translations":["Любительский (многоголосый закадровый) (Синема УС)"],"quality":"webdl","translation":"Любительский (многоголосый закадровый) (Синема УС)","update":"2021-03-24 20:51:46","iframe_src":"//5322.svetacdn.in/si4jsFRrtgrT/movie/49046"},{"id":49045,"title":"Вечерний контракт","kp_id":"944914","imdb_id":"tt5181618","world_art_id":null,"type":"movie","add":"2021-03-23 21:35:38","orig_title":"Sunset Contract","year":"2019-08-01","translations":["Любительский (многоголосый закадровый) (AlphaProject)"],"quality":"webdl","translation":"Любительский (многоголосый закадровый) (AlphaProject)","update":"2021-03-24 20:52:19","iframe_src":"//5322.svetacdn.in/si4jsFRrtgrT/movie/49045"},{"id":49042,"title":"Секс-террористы на мотоциклах","kp_id":"1113520","imdb_id":"tt7802198","world_art_id":null,"type":"movie","add":"2021-03-23 21:24:48","orig_title":"Sex Terrorists on Wheels","year":"2020-10-29","translations":["Любительский (многоголосый закадровый) (Синема УС)"],"quality":"webdl","translation":"Любительский (многоголосый закадровый) (Синема УС)","update":"2021-03-24 20:52:36","iframe_src":"//5322.svetacdn.in/si4jsFRrtgrT/movie/49042"},{"id":49041,"title":"Вкус фо","kp_id":"1330676","imdb_id":"tt11439668","world_art_id":null,"type":"movie","add":"2021-03-23 21:22:23","orig_title":"Smak pho","year":"2019-09-23","translations":["Любительский (многоголосый закадровый) (Синема УС)"],"quality":"webdl","translation":"Любительский (многоголосый закадровый) (Синема УС)","update":"2021-03-24 20:53:32","iframe_src":"//5322.svetacdn.in/si4jsFRrtgrT/movie/49041"},{"id":49040,"title":"Война фараона","kp_id":"1274549","imdb_id":"tt10497516","world_art_id":null,"type":"movie","add":"2021-03-23 21:19:58","orig_title":"Hamlet Pheroun","year":"2019-06-04","translations":["Любительский (многоголосый закадровый) (AlphaProject)"],"quality":"webdl","translation":"Любительский (многоголосый закадровый) (AlphaProject)","update":"2021-03-24 20:54:05","iframe_src":"//5322.svetacdn.in/si4jsFRrtgrT/movie/49040"},{"id":49039,"title":"Достать Люка Лоу","kp_id":"1249051","imdb_id":"tt9088374","world_art_id":null,"type":"movie","add":"2021-03-23 21:17:42","orig_title":"Get Luke Lowe","year":"2020-08-22","translations":["Любительский (многоголосый закадровый) (Синема УС)"],"quality":"webdl","translation":"Любительский (многоголосый закадровый) (Синема УС)","update":"2021-03-24 20:54:27","iframe_src":"//5322.svetacdn.in/si4jsFRrtgrT/movie/49039"},{"id":49038,"title":"Клеман, Алекс и все остальные","kp_id":"1107297","imdb_id":"tt7684416","world_art_id":null,"type":"movie","add":"2021-03-23 21:14:48","orig_title":"Clément, Alex et tous les autres","year":"2019-06-22","translations":["Любительский (многоголосый закадровый) (Синема УС)"],"quality":"webdl","translation":"Любительский (многоголосый закадровый) (Синема УС)","update":"2021-03-24 20:54:48","iframe_src":"//5322.svetacdn.in/si4jsFRrtgrT/movie/49038"},{"id":45645,"title":"Дэвид Боуи. Человек со звезды","kp_id":"1245538","imdb_id":"tt9694312","world_art_id":null,"type":"movie","add":"2020-11-26 18:24:25","orig_title":"Stardust","year":"2020-10-16","translations":["Любительский (многоголосый закадровый) (@MUZOBOZ@)","Полное дублирование","Профессиональный (одноголосый закадровый) (Кураж-Бамбей)"],"quality":"webdl","translation":"Любительский (многоголосый закадровый) (@MUZOBOZ@)","update":"2021-03-25 04:52:32","iframe_src":"//5322.svetacdn.in/si4jsFRrtgrT/movie/45645"},{"id":8652,"title":"Секреты","kp_id":"1219497","imdb_id":"tt9421436","world_art_id":null,"type":"serial","add":"2020-09-07 20:00:01","orig_title":"Les Secrets","year":"2018-05-01","translations":["Любительский (многоголосый закадровый) (WestFilm)"],"seasons_count":1,"episodes_count":3,"episodes":3,"update":"2020-09-08 04:17:34","iframe_src":"//5322.svetacdn.in/si4jsFRrtgrT/tv-series/8652"},{"id":8650,"title":"Метка","kp_id":null,"imdb_id":"tt1889169","world_art_id":null,"type":"serial","add":"2020-09-07 19:11:41","orig_title":"Signature","year":"2011-04-22","translations":["Любительский (многоголосый закадровый) (WestFilm)"],"seasons_count":1,"episodes_count":6,"episodes":6,"update":"2020-09-08 06:38:39","iframe_src":"//5322.svetacdn.in/si4jsFRrtgrT/tv-series/8650"},{"id":8642,"title":"Конец света","kp_id":"933268","imdb_id":"tt2354851","world_art_id":null,"type":"serial","add":"2020-09-06 21:24:37","orig_title":"Heimsendir","year":"2011-10-02","translations":["Любительский (многоголосый закадровый) (WestFilm)"],"seasons_count":1,"episodes_count":9,"episodes":9,"update":"2020-09-07 07:31:35","iframe_src":"//5322.svetacdn.in/si4jsFRrtgrT/tv-series/8642"},{"id":8641,"title":"Дорога домой","kp_id":"1354894","imdb_id":null,"world_art_id":null,"type":"serial","add":"2020-09-06 21:04:21","orig_title":"Doroga domoy","year":"2020-09-06","translations":["Оригинальная дорожка"],"seasons_count":1,"episodes_count":2,"episodes":2,"update":"2020-09-07 18:47:13","iframe_src":"//5322.svetacdn.in/si4jsFRrtgrT/tv-series/8641"},{"id":8640,"title":"Киберотдел","kp_id":"1145664","imdb_id":"tt7781874","world_art_id":null,"type":"serial","add":"2020-09-06 14:32:00","orig_title":"eLegal","year":"2018-01-13","translations":["Любительский (многоголосый закадровый) (WestFilm)"],"seasons_count":1,"episodes_count":10,"episodes":10,"update":"2020-09-06 20:24:42","iframe_src":"//5322.svetacdn.in/si4jsFRrtgrT/tv-series/8640"},{"id":8638,"title":"Посол","kp_id":"1280857","imdb_id":"tt10556222","world_art_id":null,"type":"serial","add":"2020-09-06 14:20:17","orig_title":"Ambassadøren","year":"2020-08-30","translations":["Любительский (многоголосый закадровый) (ColdFilm)"],"seasons_count":1,"episodes_count":10,"episodes":10,"update":"2020-09-07 19:34:16","iframe_src":"//5322.svetacdn.in/si4jsFRrtgrT/tv-series/8638"},{"id":8634,"title":"Отель Алмиранте","kp_id":null,"imdb_id":"tt4566672","world_art_id":null,"type":"serial","add":"2020-09-06 07:32:34","orig_title":"Hotel Almirante","year":"2015-01-01","translations":["Любительский (многоголосый закадровый) (WestFilm)"],"seasons_count":1,"episodes_count":4,"episodes":4,"update":"2020-09-07 08:17:15","iframe_src":"//5322.svetacdn.in/si4jsFRrtgrT/tv-series/8634"},{"id":8633,"title":"Приключения галактической команды","kp_id":"471876","imdb_id":"tt0480499","world_art_id":null,"type":"serial","add":"2020-09-06 07:18:37","orig_title":"Team Galaxy","year":"2006-08-26","translations":["Полное дублирование (Jetix)"],"seasons_count":2,"episodes_count":52,"episodes":26,"update":"2020-09-07 09:19:19","iframe_src":"//5322.svetacdn.in/si4jsFRrtgrT/tv-series/8633"},{"id":8632,"title":"Враньё","kp_id":"840118","imdb_id":"tt3668326","world_art_id":null,"type":"serial","add":"2020-09-06 05:03:02","orig_title":"Mensonges","year":"2014-03-13","translations":["Любительский (многоголосый закадровый) (WestFilm)"],"seasons_count":1,"episodes_count":10,"episodes":10,"update":"2020-09-06 20:36:55","iframe_src":"//5322.svetacdn.in/si4jsFRrtgrT/tv-series/8632"},{"id":43032,"title":"Изменю всё","kp_id":"1302958","imdb_id":"tt9114124","world_art_id":null,"type":"movie","add":"2020-09-02 20:43:46","orig_title":"Cambio tutto","year":"2020-06-19","translations":["Любительский (многоголосый закадровый) (AlphaProject)"],"quality":"webdl","translation":"Любительский (многоголосый закадровый) (AlphaProject)","update":"2021-03-25 04:55:09","iframe_src":"//5322.svetacdn.in/si4jsFRrtgrT/movie/43032"},{"id":8602,"title":"Металионы","kp_id":"1338252","imdb_id":null,"world_art_id":null,"type":"serial","add":"2020-09-02 07:07:39","orig_title":"Metalions","year":"2017-01-01","translations":["Полное дублирование"],"seasons_count":1,"episodes_count":53,"episodes":53,"update":"2020-09-07 19:54:57","iframe_src":"//5322.svetacdn.in/si4jsFRrtgrT/tv-series/8602"},{"id":8444,"title":"Партизан","kp_id":"1291383","imdb_id":"tt10768238","world_art_id":null,"type":"serial","add":"2020-08-16 14:57:51","orig_title":"Partisan","year":"2020-08-16","translations":["Любительский (многоголосый закадровый) (Octopus)","Профессиональный (двухголосый закадровый) (Gears Media)","Любительский (многоголосый закадровый) (ColdFilm)"],"seasons_count":1,"episodes_count":5,"episodes":5,"update":"2020-09-07 17:46:27","iframe_src":"//5322.svetacdn.in/si4jsFRrtgrT/tv-series/8444"},{"id":8428,"title":"Манаек","kp_id":null,"imdb_id":"tt12819234","world_art_id":null,"type":"serial","add":"2020-08-14 09:35:29","orig_title":"Manayek","year":"2020-08-02","translations":["Любительский (многоголосый закадровый) (Octopus)"],"seasons_count":1,"episodes_count":10,"episodes":10,"update":"2020-09-08 14:17:36","iframe_src":"//5322.svetacdn.in/si4jsFRrtgrT/tv-series/8428"},{"id":8261,"title":"Меж двух миров","kp_id":"1257302","imdb_id":"tt10195772","world_art_id":null,"type":"serial","add":"2020-07-27 11:45:12","orig_title":"Between Two Worlds","year":"2019-10-01","translations":["Любительский (многоголосый закадровый) (Octopus)","Профессиональный (многоголосый закадровый) (BaibaKo)"],"seasons_count":1,"episodes_count":10,"episodes":10,"update":"2020-09-07 17:43:57","iframe_src":"//5322.svetacdn.in/si4jsFRrtgrT/tv-series/8261"},{"id":8198,"title":"BBC: Дикий Китай","kp_id":"420177","imdb_id":"tt0884762","world_art_id":null,"type":"serial","add":"2020-07-19 05:29:19","orig_title":"Wild China","year":"2008-05-11","translations":["Профессиональный (одноголосый закадровый)","Профессиональный (одноголосый закадровый) (Кипарис)"],"seasons_count":1,"episodes_count":6,"episodes":6,"update":"2020-09-07 08:50:43","iframe_src":"//5322.svetacdn.in/si4jsFRrtgrT/tv-series/8198"},{"id":8148,"title":"Жаркий лед","kp_id":"433802","imdb_id":"tt1712316","world_art_id":null,"type":"serial","add":"2020-07-13 11:55:32","orig_title":"Zharkiy led","year":"2009-01-03","translations":["Оригинальная дорожка"],"seasons_count":1,"episodes_count":100,"episodes":100,"update":"2020-09-07 08:43:28","iframe_src":"//5322.svetacdn.in/si4jsFRrtgrT/tv-series/8148"},{"id":7861,"title":"Дивный новый мир","kp_id":"1263485","imdb_id":"tt9814116","world_art_id":null,"type":"serial","add":"2020-06-14 11:00:47","orig_title":"Brave New World","year":"2020-07-15","translations":["Любительский (многоголосый закадровый) (ColdFilm)","Любительский (многоголосый закадровый) (Octopus)","Профессиональный (многоголосый закадровый) (BaibaKo)","Профессиональный (двухголосый закадровый) (IdeaFilm)","Любительский (двухголосый закадровый) (LakeFilms)","Профессиональный (двухголосый закадровый) (Gears Media)","Профессиональный (многоголосый закадровый) (HDrezka Studio)","Профессиональный (многоголосый закадровый) (Кравец)","Профессиональный (многоголосый закадровый) (NewStudio)","Профессиональный (многоголосый закадровый) (LostFilm)","Любительский (многоголосый закадровый) (KerobTV)","Полное дублирование (Кравец)","Профессиональный (двухголосый закадровый) (Кубик в Кубе)"],"seasons_count":1,"episodes_count":9,"episodes":9,"update":"2020-09-08 13:41:28","iframe_src":"//5322.svetacdn.in/si4jsFRrtgrT/tv-series/7861"},{"id":7848,"title":"Голова","kp_id":"1304211","imdb_id":"tt8290362","world_art_id":null,"type":"serial","add":"2020-06-13 10:49:40","orig_title":"The Head","year":"2020-06-12","translations":["Профессиональный (двухголосый закадровый) (IdeaFilm)","Любительский (многоголосый закадровый) (Octopus)","Любительский (многоголосый закадровый) (ColdFilm)","Профессиональный (двухголосый закадровый) (Кубик в Кубе)","Профессиональный (многоголосый закадровый) (HDrezka Studio)","Профессиональный (двухголосый закадровый) (ViruseProject)","Профессиональный (многоголосый закадровый) (LostFilm)","Профессиональный (двухголосый закадровый) (Gears Media)","Любительский (многоголосый закадровый) (WestFilm)"],"seasons_count":1,"episodes_count":6,"episodes":6,"update":"2020-09-08 06:43:21","iframe_src":"//5322.svetacdn.in/si4jsFRrtgrT/tv-series/7848"},{"id":6865,"title":"Кровавая поездка","kp_id":"1352413","imdb_id":"tt9815502","world_art_id":null,"type":"serial","add":"2020-03-13 12:15:09","orig_title":"Bloodride","year":"2020-03-13","translations":["Любительский (многоголосый закадровый) (Octopus)","Любительский (многоголосый закадровый) (ColdFilm)","Профессиональный (двухголосый закадровый) (ViruseProject)"],"seasons_count":1,"episodes_count":6,"episodes":6,"update":"2020-09-07 14:17:32","iframe_src":"//5322.svetacdn.in/si4jsFRrtgrT/tv-series/6865"},{"id":1607,"title":"Она же Грэйс","kp_id":"463366","imdb_id":"tt1034007","world_art_id":null,"type":"serial","add":"2017-10-08 10:07:17","orig_title":"Alias Grace","year":"2017-09-25","translations":["Любительский (двухголосый закадровый) (Sunshine Studio)","Профессиональный (многоголосый закадровый) (LostFilm)"],"seasons_count":1,"episodes_count":6,"episodes":6,"update":"2020-09-07 07:05:41","iframe_src":"//5322.svetacdn.in/si4jsFRrtgrT/tv-series/1607"},{"id":6527,"title":"Манекен","kp_id":"21203","imdb_id":"tt0093493","world_art_id":null,"type":"movie","add":"2016-10-20 15:09:06","orig_title":"Mannequin","year":"1987-02-13","translations":["Профессиональный (двухголосый закадровый)","Авторский (одноголосый закадровый) (Алексеев Антон)","Профессиональный (двухголосый закадровый) (НТВ)"],"quality":"bd","translation":"Профессиональный (двухголосый закадровый)","update":"2021-03-25 04:49:14","iframe_src":"//5322.svetacdn.in/si4jsFRrtgrT/movie/6527"},{"id":243,"title":"Зверинец","kp_id":"804670","imdb_id":"tt3250026","world_art_id":null,"type":"serial","add":"2016-07-03 06:28:28","orig_title":"Zoo","year":"2015-06-30","translations":["Профессиональный (многоголосый закадровый) (NewStudio)","Профессиональный (многоголосый закадровый) (BaibaKo)","Профессиональный (многоголосый закадровый) (Пифагор)"],"seasons_count":3,"episodes_count":39,"episodes":13,"update":"2020-09-08 06:49:05","iframe_src":"//5322.svetacdn.in/si4jsFRrtgrT/tv-series/243"}],"current_page":146,"first_page_url":"https://videocdn.tv/api/short?limit=100&api_token=X6EwAUfE5M9xbo7y0Bp0aPf3uXxG2KLL&cache3146=3146&page=1","from":14501,"last_page":625,"last_page_url":"https://videocdn.tv/api/short?limit=100&api_token=X6EwAUfE5M9xbo7y0Bp0aPf3uXxG2KLL&cache3146=3146&page=625","next_page_url":"https://videocdn.tv/api/short?limit=100&api_token=X6EwAUfE5M9xbo7y0Bp0aPf3uXxG2KLL&cache3146=3146&page=147","path":"https://videocdn.tv/api/short","per_page":100,"prev_page_url":"https://videocdn.tv/api/short?limit=100&api_token=X6EwAUfE5M9xbo7y0Bp0aPf3uXxG2KLL&cache3146=3146&page=145","to":14540,"total":62500}