{"result":true,"data":[{"id":3536,"title":"Злые улицы","kp_id":"3880","imdb_id":"tt0070379","world_art_id":null,"type":"movie","add":"2016-06-30 07:48:41","orig_title":"Mean Streets","year":"1973-10-02","translations":["Любительский (одноголосый закадровый)"],"quality":"bd","translation":"Любительский (одноголосый закадровый)","update":"2016-06-30 14:49:42","iframe_src":"//5091.svetacdn.in/si4jsFRrtgrT/movie/3536"},{"id":3533,"title":"Бриолин","kp_id":"2349","imdb_id":"tt0077631","world_art_id":null,"type":"movie","add":"2016-06-30 07:25:55","orig_title":"Grease","year":"1978-06-13","translations":["Профессиональный (многоголосый закадровый)"],"quality":"bd","translation":"Профессиональный (многоголосый закадровый)","update":"2016-06-30 14:12:03","iframe_src":"//5091.svetacdn.in/si4jsFRrtgrT/movie/3533"},{"id":3532,"title":"Супермен 4: В поисках мира","kp_id":"1926","imdb_id":"tt0094074","world_art_id":null,"type":"movie","add":"2016-06-30 07:23:19","orig_title":"Superman IV: The Quest for Peace","year":"1987-07-23","translations":["Профессиональный (многоголосый закадровый)"],"quality":"bd","translation":"Профессиональный (многоголосый закадровый)","update":"2016-06-30 14:18:21","iframe_src":"//5091.svetacdn.in/si4jsFRrtgrT/movie/3532"},{"id":3530,"title":"Супермен 2","kp_id":"8148","imdb_id":"tt0081573","world_art_id":null,"type":"movie","add":"2016-06-30 06:53:07","orig_title":"Superman II","year":"1980-12-04","translations":["Профессиональный (многоголосый закадровый)"],"quality":"webdl","translation":"Профессиональный (многоголосый закадровый)","update":"2016-06-30 12:17:52","iframe_src":"//5091.svetacdn.in/si4jsFRrtgrT/movie/3530"},{"id":3528,"title":"Муха","kp_id":"8877","imdb_id":"tt0091064","world_art_id":null,"type":"movie","add":"2016-06-30 06:50:43","orig_title":"The Fly","year":"1986-08-15","translations":["Профессиональный (многоголосый закадровый)"],"quality":"bd","translation":"Профессиональный (многоголосый закадровый)","update":"2016-06-30 12:22:40","iframe_src":"//5091.svetacdn.in/si4jsFRrtgrT/movie/3528"},{"id":3525,"title":"Разум и чувства","kp_id":"6148","imdb_id":"tt0114388","world_art_id":null,"type":"movie","add":"2016-06-30 06:46:37","orig_title":"Sense and Sensibility","year":"1995-12-13","translations":["Полное дублирование"],"quality":"bd","translation":"Полное дублирование","update":"2016-06-30 11:30:38","iframe_src":"//5091.svetacdn.in/si4jsFRrtgrT/movie/3525"},{"id":3524,"title":"Повелитель бури","kp_id":"281040","imdb_id":"tt0887912","world_art_id":null,"type":"movie","add":"2016-06-30 06:45:09","orig_title":"The Hurt Locker","year":"2008-09-04","translations":["Профессиональный (многоголосый закадровый)"],"quality":"bd","translation":"Профессиональный (многоголосый закадровый)","update":"2016-06-30 15:07:51","iframe_src":"//5091.svetacdn.in/si4jsFRrtgrT/movie/3524"},{"id":3523,"title":"Огненные колесницы","kp_id":"7584","imdb_id":"tt008215","world_art_id":null,"type":"movie","add":"2016-06-30 06:35:19","orig_title":"Chariots of Fire","year":"1981-03-30","translations":["Профессиональный (многоголосый закадровый)"],"quality":"bd","translation":"Профессиональный (многоголосый закадровый)","update":"2016-06-30 15:03:35","iframe_src":"//5091.svetacdn.in/si4jsFRrtgrT/movie/3523"},{"id":3522,"title":"Американский оборотень в Лондоне","kp_id":"8854","imdb_id":"tt0082010","world_art_id":null,"type":"movie","add":"2016-06-30 06:24:03","orig_title":"An American Werewolf in London","year":"1981-08-21","translations":["Профессиональный (многоголосый закадровый)"],"quality":"bd","translation":"Профессиональный (многоголосый закадровый)","update":"2016-06-30 14:58:49","iframe_src":"//5091.svetacdn.in/si4jsFRrtgrT/movie/3522"},{"id":3520,"title":"МакКейб и миссис Миллер","kp_id":"916","imdb_id":"tt0067411","world_art_id":null,"type":"movie","add":"2016-06-30 06:21:15","orig_title":"McCabe & Mrs. Miller","year":"1971-06-24","translations":["Профессиональный (двухголосый закадровый)"],"quality":"webdl","translation":"Профессиональный (двухголосый закадровый)","update":"2016-06-30 14:55:31","iframe_src":"//5091.svetacdn.in/si4jsFRrtgrT/movie/3520"},{"id":3517,"title":"Дочь Робин Гуда: Принцесса воров","kp_id":"77434","imdb_id":"tt0272790","world_art_id":null,"type":"movie","add":"2016-06-30 05:03:34","orig_title":"Princess of Thieves","year":"2001-03-11","translations":["Профессиональный (многоголосый закадровый)"],"quality":"bd","translation":"Профессиональный (многоголосый закадровый)","update":"2016-06-30 12:18:52","iframe_src":"//5091.svetacdn.in/si4jsFRrtgrT/movie/3517"},{"id":3516,"title":"Не отпускай меня","kp_id":"450204","imdb_id":"tt1334260","world_art_id":null,"type":"movie","add":"2016-06-30 05:02:11","orig_title":"Never Let Me Go","year":"2010-09-03","translations":["Профессиональный (многоголосый закадровый)"],"quality":"bd","translation":"Профессиональный (многоголосый закадровый)","update":"2016-06-30 12:15:46","iframe_src":"//5091.svetacdn.in/si4jsFRrtgrT/movie/3516"},{"id":3514,"title":"Домино","kp_id":"81682","imdb_id":"tt0421054","world_art_id":null,"type":"movie","add":"2016-06-30 04:59:14","orig_title":"Domino","year":"2005-09-25","translations":["Полное дублирование"],"quality":"bd","translation":"Полное дублирование","update":"2016-06-30 12:05:41","iframe_src":"//5091.svetacdn.in/si4jsFRrtgrT/movie/3514"},{"id":3512,"title":"Столкновение с бездной","kp_id":"5011","imdb_id":"tt0120647","world_art_id":null,"type":"movie","add":"2016-06-30 04:56:03","orig_title":"Deep Impact","year":"1998-05-07","translations":["Полное дублирование"],"quality":"bd","translation":"Полное дублирование","update":"2016-06-30 12:02:59","iframe_src":"//5091.svetacdn.in/si4jsFRrtgrT/movie/3512"},{"id":3511,"title":"Играй, как Бекхэм","kp_id":"313","imdb_id":"tt0286499","world_art_id":null,"type":"movie","add":"2016-06-30 04:54:40","orig_title":"Bend It Like Beckham","year":"2002-04-11","translations":["Профессиональный (двухголосый закадровый)"],"quality":"bd","translation":"Профессиональный (двухголосый закадровый)","update":"2016-06-30 11:59:23","iframe_src":"//5091.svetacdn.in/si4jsFRrtgrT/movie/3511"},{"id":3510,"title":"Хоть раз в жизни","kp_id":"596208","imdb_id":"tt1980929","world_art_id":null,"type":"movie","add":"2016-06-30 04:52:56","orig_title":"Begin again","year":"2013-09-07","translations":["Полное дублирование"],"quality":"bd","translation":"Полное дублирование","update":"2016-06-30 11:56:03","iframe_src":"//5091.svetacdn.in/si4jsFRrtgrT/movie/3510"},{"id":3490,"title":"Это - Spinal Tap","kp_id":"518","imdb_id":"tt0088258","world_art_id":null,"type":"movie","add":"2016-06-29 08:23:48","orig_title":"This is Spinal Tap","year":"1984-03-02","translations":["Профессиональный (многоголосый закадровый)"],"quality":"bd","translation":"Профессиональный (многоголосый закадровый)","update":"2016-06-30 14:14:31","iframe_src":"//5091.svetacdn.in/si4jsFRrtgrT/movie/3490"},{"id":3489,"title":"Всё о моей матери","kp_id":"517","imdb_id":"tt0185125","world_art_id":null,"type":"movie","add":"2016-06-29 08:23:06","orig_title":"Todo sobre mi madre","year":"1999-04-08","translations":["Профессиональный (многоголосый закадровый)"],"quality":"bd","translation":"Профессиональный (многоголосый закадровый)","update":"2016-06-30 14:34:54","iframe_src":"//5091.svetacdn.in/si4jsFRrtgrT/movie/3489"},{"id":3488,"title":"Бункер","kp_id":"588786","imdb_id":"tt1772250","world_art_id":null,"type":"movie","add":"2016-06-29 08:22:09","orig_title":"La cara oculta","year":"2011-09-16","translations":["Профессиональный (многоголосый закадровый)"],"quality":"bd","translation":"Профессиональный (многоголосый закадровый)","update":"2016-06-30 14:53:35","iframe_src":"//5091.svetacdn.in/si4jsFRrtgrT/movie/3488"},{"id":1480,"title":"Супермен против Элиты","kp_id":"667310","imdb_id":"tt2224455","world_art_id":null,"type":"movie","add":"2016-04-22 06:30:54","orig_title":"Superman vs.The Elite","year":"2012-06-12","translations":["Полное дублирование"],"quality":"bd","translation":"Полное дублирование","update":"2016-06-30 12:20:18","iframe_src":"//5091.svetacdn.in/si4jsFRrtgrT/movie/1480"}],"current_page":2561,"first_page_url":"https://videocdn.tv/api/short?limit=100&api_token=X6EwAUfE5M9xbo7y0Bp0aPf3uXxG2KLL&cache32561=32561&page=1","from":256001,"last_page":667,"last_page_url":"https://videocdn.tv/api/short?limit=100&api_token=X6EwAUfE5M9xbo7y0Bp0aPf3uXxG2KLL&cache32561=32561&page=667","next_page_url":null,"path":"https://videocdn.tv/api/short","per_page":100,"prev_page_url":"https://videocdn.tv/api/short?limit=100&api_token=X6EwAUfE5M9xbo7y0Bp0aPf3uXxG2KLL&cache32561=32561&page=2560","to":256020,"total":66648}