{"result":true,"data":[{"id":52100,"title":"Заклятье \"Х\"","kp_id":"1418776","imdb_id":"tt13142090","world_art_id":null,"type":"movie","add":"2021-07-29 17:28:36","orig_title":"Conjure X","year":"2020-06-30","translations":["Любительский (многоголосый закадровый) (Синема УС)"],"quality":"webdl","translation":"Любительский (многоголосый закадровый) (Синема УС)","update":"2021-07-30 06:09:54","iframe_src":"//7720.svetacdn.in/71tsRs29n5tZ/movie/52100"},{"id":52096,"title":"Пулман","kp_id":"1290889","imdb_id":"tt9053522","world_art_id":null,"type":"movie","add":"2021-07-29 17:15:45","orig_title":"Pullman","year":"2019-10-26","translations":["Любительский (многоголосый закадровый) (Синема УС)"],"quality":"webdl","translation":"Любительский (многоголосый закадровый) (Синема УС)","update":"2021-07-30 06:09:43","iframe_src":"//7720.svetacdn.in/71tsRs29n5tZ/movie/52096"},{"id":52095,"title":"Рэкс Парк: Проклятие Золотого Будды","kp_id":"1436331","imdb_id":"tt13273570","world_art_id":null,"type":"movie","add":"2021-07-29 17:14:15","orig_title":"Rex Park: Curse of the Golden Buddha","year":"2021-06-21","translations":["Любительский (многоголосый закадровый) (Синема УС)"],"quality":"webdl","translation":"Любительский (многоголосый закадровый) (Синема УС)","update":"2021-07-30 06:09:31","iframe_src":"//7720.svetacdn.in/71tsRs29n5tZ/movie/52095"},{"id":52094,"title":"Робо-апокалипсис","kp_id":"4477965","imdb_id":"tt14604564","world_art_id":null,"type":"movie","add":"2021-07-29 17:12:52","orig_title":"Robot Apocalypse","year":"2021-07-27","translations":["Любительский (многоголосый закадровый) (Синема УС)"],"quality":"webdl","translation":"Любительский (многоголосый закадровый) (Синема УС)","update":"2021-07-30 06:09:18","iframe_src":"//7720.svetacdn.in/71tsRs29n5tZ/movie/52094"},{"id":52092,"title":"Саломея","kp_id":"16640","imdb_id":"tt0046269","world_art_id":null,"type":"movie","add":"2021-07-29 09:22:21","orig_title":"Salome","year":"1953-03-24","translations":["Профессиональный (многоголосый закадровый)","Original (English)"],"quality":"webdl","translation":"Профессиональный (многоголосый закадровый)","update":"2021-07-30 05:46:18","iframe_src":"//7720.svetacdn.in/71tsRs29n5tZ/movie/52092"},{"id":52091,"title":"От любви не убежишь","kp_id":"4438190","imdb_id":"tt12929990","world_art_id":null,"type":"movie","add":"2021-07-29 09:19:46","orig_title":"Resort to Love","year":"2021-07-29","translations":["Original (English)","Полное дублирование (Netflix)"],"quality":"webdl","translation":"Original (English)","update":"2021-07-29 13:25:13","iframe_src":"//7720.svetacdn.in/71tsRs29n5tZ/movie/52091"},{"id":52089,"title":"Операция «Белвис»","kp_id":"424596","imdb_id":"tt1288367","world_art_id":null,"type":"movie","add":"2021-07-29 06:09:32","orig_title":"Operation Belvis Bash","year":"2011-06-09","translations":["Original (English)","Профессиональный (двухголосый закадровый)"],"quality":"bd","translation":"Original (English)","update":"2021-07-30 05:43:16","iframe_src":"//7720.svetacdn.in/71tsRs29n5tZ/movie/52089"},{"id":52088,"title":"Сын белой лошади","kp_id":"69502","imdb_id":"tt0083931","world_art_id":null,"type":"movie","add":"2021-07-29 05:53:58","orig_title":"Fehérlófia","year":"1981-10-22","translations":["Профессиональный (одноголосый закадровый) (Центрнаучфильм)"],"quality":"bd","translation":"Профессиональный (одноголосый закадровый) (Центрнаучфильм)","update":"2021-07-30 05:47:46","iframe_src":"//7720.svetacdn.in/71tsRs29n5tZ/movie/52088"},{"id":52085,"title":"Камилла. Часть Первая","kp_id":"1351639","imdb_id":"tt11693542","world_art_id":null,"type":"movie","add":"2021-07-28 19:03:47","orig_title":"Camille Vol 1","year":"2021-06-27","translations":["Любительский (многоголосый закадровый) (Синема УС)"],"quality":"webdl","translation":"Любительский (многоголосый закадровый) (Синема УС)","update":"2021-07-29 18:31:28","iframe_src":"//7720.svetacdn.in/71tsRs29n5tZ/movie/52085"},{"id":52084,"title":"Картуран","kp_id":"1246486","imdb_id":"tt9845036","world_art_id":null,"type":"movie","add":"2021-07-28 19:02:08","orig_title":"Carturan","year":"2019-10-05","translations":["Любительский (многоголосый закадровый) (Синема УС)"],"quality":"webdl","translation":"Любительский (многоголосый закадровый) (Синема УС)","update":"2021-07-29 18:31:16","iframe_src":"//7720.svetacdn.in/71tsRs29n5tZ/movie/52084"},{"id":52083,"title":"Гадюшник","kp_id":"1233334","imdb_id":"tt9456372","world_art_id":null,"type":"movie","add":"2021-07-28 18:59:01","orig_title":"Hellhole","year":"2019-02-08","translations":["Любительский (многоголосый закадровый) (Синема УС)"],"quality":"webdl","translation":"Любительский (многоголосый закадровый) (Синема УС)","update":"2021-07-29 18:31:03","iframe_src":"//7720.svetacdn.in/71tsRs29n5tZ/movie/52083"},{"id":52082,"title":"Кака","kp_id":"4513548","imdb_id":"tt14909590","world_art_id":null,"type":"movie","add":"2021-07-28 18:57:33","orig_title":"Kaka","year":"2021-05-28","translations":["Любительский (многоголосый закадровый) (Синема УС)"],"quality":"webdl","translation":"Любительский (многоголосый закадровый) (Синема УС)","update":"2021-07-29 18:30:40","iframe_src":"//7720.svetacdn.in/71tsRs29n5tZ/movie/52082"},{"id":52081,"title":"Девочки","kp_id":"1284472","imdb_id":"tt10434142","world_art_id":null,"type":"movie","add":"2021-07-28 18:55:14","orig_title":"Las niñas","year":"2020-09-21","translations":["Любительский (многоголосый закадровый) (Синема УС)"],"quality":"webdl","translation":"Любительский (многоголосый закадровый) (Синема УС)","update":"2021-07-29 18:29:47","iframe_src":"//7720.svetacdn.in/71tsRs29n5tZ/movie/52081"},{"id":52080,"title":"Змеиный рай","kp_id":"1283333","imdb_id":"tt10572710","world_art_id":null,"type":"movie","add":"2021-07-28 18:52:50","orig_title":"Serpent's Paradise","year":"2019-10-23","translations":["Любительский (многоголосый закадровый) (Синема УС)"],"quality":"webdl","translation":"Любительский (многоголосый закадровый) (Синема УС)","update":"2021-07-29 18:29:30","iframe_src":"//7720.svetacdn.in/71tsRs29n5tZ/movie/52080"},{"id":52079,"title":"Бои без правил","kp_id":null,"imdb_id":"tt12099938","world_art_id":null,"type":"movie","add":"2021-07-28 18:49:59","orig_title":"Money Fight","year":"2021-07-23","translations":["Любительский (многоголосый закадровый) (Синема УС)"],"quality":"webdl","translation":"Любительский (многоголосый закадровый) (Синема УС)","update":"2021-07-29 18:29:12","iframe_src":"//7720.svetacdn.in/71tsRs29n5tZ/movie/52079"},{"id":52029,"title":"Четверо","kp_id":"45499","imdb_id":"tt0173729","world_art_id":null,"type":"movie","add":"2021-07-26 21:29:14","orig_title":"Chetvero","year":"1958-04-08","translations":["Оригинальная дорожка"],"quality":"sat","translation":"Оригинальная дорожка","update":"2021-07-29 13:21:50","iframe_src":"//7720.svetacdn.in/71tsRs29n5tZ/movie/52029"},{"id":51961,"title":"Долина предков","kp_id":"331797","imdb_id":"tt0207416","world_art_id":null,"type":"movie","add":"2021-07-23 17:22:00","orig_title":"Dolina predkov","year":"1989-01-01","translations":["Оригинальная дорожка"],"quality":"tv","translation":"Оригинальная дорожка","update":"2021-07-29 13:20:46","iframe_src":"//7720.svetacdn.in/71tsRs29n5tZ/movie/51961"},{"id":51216,"title":"Пространство между","kp_id":"1179135","imdb_id":"tt8740898","world_art_id":null,"type":"movie","add":"2021-06-16 10:25:49","orig_title":"The Space Between","year":"2021-04-23","translations":["Любительский (многоголосый закадровый) (Синема УС)","Полное дублирование (iTunes)","Original (English)"],"quality":"webdl","translation":"Любительский (многоголосый закадровый) (Синема УС)","update":"2021-07-30 05:38:55","iframe_src":"//7720.svetacdn.in/71tsRs29n5tZ/movie/51216"},{"id":10777,"title":"Найденыш 3","kp_id":"616337","imdb_id":null,"world_art_id":null,"type":"serial","add":"2021-05-30 09:27:07","orig_title":"Найденыш 3","year":"2012-01-01","translations":["Оригинальная дорожка"],"seasons_count":1,"episodes_count":4,"episodes":4,"update":"2021-05-31 06:52:32","iframe_src":"//7720.svetacdn.in/71tsRs29n5tZ/tv-series/10777"},{"id":10776,"title":"Актеры затонувшего театра","kp_id":"4411751","imdb_id":null,"world_art_id":null,"type":"serial","add":"2021-05-30 08:08:21","orig_title":"Актеры затонувшего театра","year":"2021-03-26","translations":["Оригинальная дорожка"],"seasons_count":1,"episodes_count":2,"episodes":2,"update":"2021-05-30 11:21:53","iframe_src":"//7720.svetacdn.in/71tsRs29n5tZ/tv-series/10776"},{"id":10773,"title":"Плохой парень","kp_id":"581559","imdb_id":"tt2090230","world_art_id":null,"type":"serial","add":"2021-05-29 10:44:42","orig_title":"Nabbeun Namja","year":"2010-05-26","translations":["Любительский (одноголосый закадровый) (STEPonee)"],"seasons_count":1,"episodes_count":17,"episodes":17,"update":"2021-05-30 20:17:52","iframe_src":"//7720.svetacdn.in/71tsRs29n5tZ/tv-series/10773"},{"id":10770,"title":"Моя Пречистенка 2","kp_id":"436194","imdb_id":null,"world_art_id":null,"type":"serial","add":"2021-05-29 06:22:03","orig_title":"Моя Пречистенка 2","year":"2011-01-01","translations":["Оригинальная дорожка"],"seasons_count":1,"episodes_count":11,"episodes":11,"update":"2021-05-31 06:57:40","iframe_src":"//7720.svetacdn.in/71tsRs29n5tZ/tv-series/10770"},{"id":10769,"title":"Моя Пречистенка","kp_id":"426051","imdb_id":"tt1528497","world_art_id":null,"type":"serial","add":"2021-05-28 19:19:39","orig_title":"Moya Prechistenka","year":"2006-01-01","translations":["Оригинальная дорожка"],"seasons_count":1,"episodes_count":16,"episodes":16,"update":"2021-05-31 07:05:11","iframe_src":"//7720.svetacdn.in/71tsRs29n5tZ/tv-series/10769"},{"id":10768,"title":"Секретная служба Его Величества","kp_id":"426305","imdb_id":"tt1471258","world_art_id":null,"type":"serial","add":"2021-05-28 18:52:49","orig_title":"Sekretnaya sluzhba Ego Velichestva","year":"2006-01-01","translations":["Оригинальная дорожка"],"seasons_count":1,"episodes_count":12,"episodes":12,"update":"2021-05-31 07:09:57","iframe_src":"//7720.svetacdn.in/71tsRs29n5tZ/tv-series/10768"},{"id":50600,"title":"Прогулка с Гербом","kp_id":null,"imdb_id":"tt7765850","world_art_id":null,"type":"movie","add":"2021-05-23 19:04:52","orig_title":"Walking with Herb","year":"2021-04-30","translations":["Любительский (многоголосый закадровый) (Синема УС)","Любительский (многоголосый закадровый) (AlphaProject)"],"quality":"ts","translation":"Любительский (многоголосый закадровый) (Синема УС)","update":"2021-07-30 06:09:07","iframe_src":"//7720.svetacdn.in/71tsRs29n5tZ/movie/50600"},{"id":10473,"title":"Катарина Хусс","kp_id":"4367276","imdb_id":"tt14025544","world_art_id":null,"type":"serial","add":"2021-04-22 08:22:21","orig_title":"Huss","year":"2021-03-19","translations":["Любительский (многоголосый закадровый) (WestFilm)","Профессиональный (многоголосый закадровый) (TVShows)"],"seasons_count":1,"episodes_count":5,"episodes":5,"update":"2021-05-30 20:04:57","iframe_src":"//7720.svetacdn.in/71tsRs29n5tZ/tv-series/10473"},{"id":10427,"title":"Зона","kp_id":"1284963","imdb_id":"tt10636592","world_art_id":null,"type":"serial","add":"2021-04-13 11:01:04","orig_title":"Shabas","year":"2019-07-07","translations":["Любительский (многоголосый закадровый) (Ultradox)"],"seasons_count":2,"episodes_count":20,"episodes":10,"update":"2021-05-30 18:21:37","iframe_src":"//7720.svetacdn.in/71tsRs29n5tZ/tv-series/10427"},{"id":10305,"title":"Пять с плюсом","kp_id":"4375581","imdb_id":null,"world_art_id":null,"type":"serial","add":"2021-03-26 12:20:14","orig_title":"Пять с плюсом","year":"2021-03-25","translations":["Оригинальная дорожка"],"seasons_count":1,"episodes_count":10,"episodes":10,"update":"2021-05-30 12:31:01","iframe_src":"//7720.svetacdn.in/71tsRs29n5tZ/tv-series/10305"},{"id":9639,"title":"Последнее лето","kp_id":"1448424","imdb_id":"tt13322702","world_art_id":null,"type":"serial","add":"2021-01-03 20:03:38","orig_title":"Son Yaz","year":"2021-01-01","translations":["Любительский (двухголосый закадровый) (SesDizi | DiziMania)"],"seasons_count":1,"episodes_count":20,"episodes":20,"update":"2021-05-30 19:56:34","iframe_src":"//7720.svetacdn.in/71tsRs29n5tZ/tv-series/9639"},{"id":9238,"title":"Пламя","kp_id":"1410389","imdb_id":"tt12872898","world_art_id":null,"type":"serial","add":"2020-11-09 12:27:57","orig_title":"Alev Alev","year":"2020-11-05","translations":["Любительский (двухголосый закадровый) (Анастасия Гайдаржи + Андрей Юрченко)"],"seasons_count":1,"episodes_count":28,"episodes":28,"update":"2021-05-30 11:20:56","iframe_src":"//7720.svetacdn.in/71tsRs29n5tZ/tv-series/9238"},{"id":6522,"title":"Рагнарёк","kp_id":"1254370","imdb_id":"tt9251798","world_art_id":null,"type":"serial","add":"2020-01-31 11:56:35","orig_title":"Ragnarok","year":"2020-01-31","translations":["Любительский (многоголосый закадровый) (Octopus)","Любительский (многоголосый закадровый) (ColdFilm)","Профессиональный (двухголосый закадровый) (Gears Media)","Любительский (многоголосый закадровый) (WestFilm)","Профессиональный (многоголосый закадровый) (TVShows)","Профессиональный (многоголосый закадровый) (BaibaKo)","Полное дублирование (Netflix)","Профессиональный (многоголосый закадровый) (HDrezka Studio)","Любительский (многоголосый закадровый) (Ultradox)","Любительский (двухголосый закадровый) (KerobTV)"],"seasons_count":2,"episodes_count":12,"episodes":6,"update":"2021-05-30 17:25:03","iframe_src":"//7720.svetacdn.in/71tsRs29n5tZ/tv-series/6522"},{"id":6410,"title":"911: Одинокая звезда","kp_id":"1272633","imdb_id":"tt10323338","world_art_id":null,"type":"serial","add":"2020-01-20 11:17:22","orig_title":"9-1-1: Lone Star","year":"2020-01-19","translations":["Любительский (многоголосый закадровый) (ColdFilm)","Любительский (многоголосый закадровый) (Octopus)","Любительский (многоголосый закадровый) (KerobTV)","Профессиональный (многоголосый закадровый) (IdeaFilm)","Профессиональный (многоголосый закадровый) (LostFilm)","Профессиональный (многоголосый закадровый) (NewStudio)","Профессиональный (многоголосый закадровый) (TVShows)","Original (English)","Любительский (многоголосый закадровый) (Ultradox)","Профессиональный (многоголосый закадровый) (BaibaKo)"],"seasons_count":2,"episodes_count":24,"episodes":14,"update":"2021-05-31 06:50:34","iframe_src":"//7720.svetacdn.in/71tsRs29n5tZ/tv-series/6410"},{"id":6281,"title":"ФБР: Самые разыскиваемые преступники","kp_id":"1236630","imdb_id":"tt9742936","world_art_id":null,"type":"serial","add":"2020-01-09 08:45:54","orig_title":"FBI: Most Wanted","year":"2020-01-07","translations":["Любительский (многоголосый закадровый) (Octopus)","Профессиональный (многоголосый закадровый) (BaibaKo)","Профессиональный (многоголосый закадровый) (IdeaFilm)","Любительский (двухголосый закадровый) (KerobTV)","Профессиональный (двухголосый закадровый) (Gears Media)","Любительский (многоголосый закадровый) (ColdFilm)","Профессиональный (многоголосый закадровый) (TVShows)","Любительский (многоголосый закадровый) (KerobTV)","Любительский (многоголосый закадровый) (Ultradox)"],"seasons_count":2,"episodes_count":29,"episodes":15,"update":"2021-05-31 03:11:59","iframe_src":"//7720.svetacdn.in/71tsRs29n5tZ/tv-series/6281"},{"id":5367,"title":"Меня зовут Мелек","kp_id":"1301939","imdb_id":"tt10882988","world_art_id":null,"type":"serial","add":"2019-10-02 06:24:28","orig_title":"Benim Adim Melek","year":"2019-09-25","translations":["Любительский (одноголосый закадровый)","Любительский (двухголосый закадровый)","Любительский (одноголосый закадровый) (Гайдаржи Анастасия)"],"seasons_count":2,"episodes_count":65,"episodes":38,"update":"2021-05-30 19:58:55","iframe_src":"//7720.svetacdn.in/71tsRs29n5tZ/tv-series/5367"},{"id":5342,"title":"Чудо-врач","kp_id":"1289583","imdb_id":"tt10723804","world_art_id":null,"type":"serial","add":"2019-09-30 19:11:01","orig_title":"Mucize Doktor","year":"2019-09-12","translations":["Любительский (двухголосый закадровый) (Анастасия Гайдаржи + Артём Борисов)","Любительский (двухголосый закадровый) (SesDizi | DiziMania)"],"seasons_count":2,"episodes_count":64,"episodes":36,"update":"2021-05-30 19:59:36","iframe_src":"//7720.svetacdn.in/71tsRs29n5tZ/tv-series/5342"},{"id":5298,"title":"Всем встать","kp_id":"1265351","imdb_id":"tt10329042","world_art_id":null,"type":"serial","add":"2019-09-25 12:31:51","orig_title":"All Rise","year":"2019-09-23","translations":["Профессиональный (многоголосый закадровый) (BaibaKo)","Любительский (многоголосый закадровый) (Octopus)","Профессиональный (многоголосый закадровый) (HDrezka Studio)","Профессиональный (многоголосый закадровый) (TVShows)","Original (English)"],"seasons_count":2,"episodes_count":38,"episodes":17,"update":"2021-05-30 20:02:04","iframe_src":"//7720.svetacdn.in/71tsRs29n5tZ/tv-series/5298"},{"id":3225,"title":"ФБР","kp_id":"1138889","imdb_id":"tt7491982","world_art_id":null,"type":"serial","add":"2018-09-27 08:24:29","orig_title":"FBI","year":"2018-09-25","translations":["Профессиональный (многоголосый закадровый) (IdeaFilm)","Любительский (многоголосый закадровый) (ColdFilm)","Профессиональный (многоголосый закадровый) (NewStudio)","Профессиональный (многоголосый закадровый) (HDrezka Studio)","Профессиональный (многоголосый закадровый) (TVShows)","Любительский (многоголосый закадровый) (Ultradox)","Профессиональный (многоголосый закадровый) (BaibaKo)","Original (English)"],"seasons_count":3,"episodes_count":56,"episodes":15,"update":"2021-05-31 03:12:14","iframe_src":"//7720.svetacdn.in/71tsRs29n5tZ/tv-series/3225"},{"id":16732,"title":"Траффик","kp_id":"994921","imdb_id":"tt5670152","world_art_id":null,"type":"movie","add":"2018-05-10 20:18:19","orig_title":"Traffik","year":"2018-04-20","translations":["Любительский (многоголосый закадровый) (Колобок)","Профессиональный (многоголосый закадровый) (GreenРай Studio)","Профессиональный (многоголосый закадровый) (HDrezka Studio)","Профессиональный (многоголосый закадровый) (HDrezka Studio)"],"quality":"bd","translation":"Любительский (многоголосый закадровый) (Колобок)","update":"2021-07-29 15:39:33","iframe_src":"//7720.svetacdn.in/71tsRs29n5tZ/movie/16732"},{"id":86,"title":"Мартиросян Official","kp_id":null,"imdb_id":null,"world_art_id":null,"type":"serial","add":"2018-04-08 14:00:19","orig_title":"Мартиросян Official","year":"2018-04-01","translations":["Оригинальная дорожка"],"seasons_count":1,"episodes_count":1,"episodes":1,"update":"2018-04-08 15:22:38","iframe_src":"//7720.svetacdn.in/71tsRs29n5tZ/show-tv-series/86"},{"id":84,"title":"Большой завтрак","kp_id":null,"imdb_id":null,"world_art_id":null,"type":"serial","add":"2018-03-27 14:11:55","orig_title":"Большой завтрак","year":"2018-03-12","translations":["Оригинальная дорожка"],"seasons_count":1,"episodes_count":6,"episodes":6,"update":"2018-03-28 13:52:09","iframe_src":"//7720.svetacdn.in/71tsRs29n5tZ/show-tv-series/84"},{"id":77,"title":"Цивилизации","kp_id":null,"imdb_id":"tt7104930","world_art_id":null,"type":"serial","add":"2018-03-22 12:45:47","orig_title":"Civilisations","year":"2018-03-01","translations":["Любительский (многоголосый закадровый) (ColdFilm)"],"seasons_count":1,"episodes_count":9,"episodes":9,"update":"2018-04-20 11:54:52","iframe_src":"//7720.svetacdn.in/71tsRs29n5tZ/show-tv-series/77"},{"id":69,"title":"Мирами за сокровищами","kp_id":null,"imdb_id":null,"world_art_id":null,"type":"serial","add":"2018-03-19 17:55:12","orig_title":"Світами за скарбами","year":"2018-03-04","translations":["Оригинальная дорожка"],"seasons_count":1,"episodes_count":4,"episodes":4,"update":"2018-03-28 13:38:06","iframe_src":"//7720.svetacdn.in/71tsRs29n5tZ/show-tv-series/69"},{"id":57,"title":"Мятежники ледяного озера","kp_id":"880619","imdb_id":"tt3946492","world_art_id":null,"type":"serial","add":"2018-03-11 10:08:44","orig_title":"Ice Lake Rebels","year":"2014-07-27","translations":["Профессиональный (многоголосый закадровый) (Discovery)"],"seasons_count":1,"episodes_count":10,"episodes":10,"update":"2018-03-12 19:10:53","iframe_src":"//7720.svetacdn.in/71tsRs29n5tZ/show-tv-series/57"},{"id":2191,"title":"Морская полиция: Лос-Анджелес","kp_id":"468820","imdb_id":"tt1378167","world_art_id":null,"type":"serial","add":"2018-03-07 18:55:29","orig_title":"NCIS: Los Angeles","year":"2009-09-22","translations":["Профессиональный (многоголосый закадровый) (Selena International)","Профессиональный (многоголосый закадровый) (FOX)","Любительский (двухголосый закадровый)","Профессиональный (многоголосый закадровый) (BaibaKo)","Профессиональный (многоголосый закадровый) (TVShows)","Любительский (многоголосый закадровый) (Octopus)","Любительский (многоголосый закадровый) (ColdFilm)","Любительский (многоголосый закадровый) (Ultradox)","Original (English)"],"seasons_count":12,"episodes_count":277,"episodes":18,"update":"2021-05-30 20:00:16","iframe_src":"//7720.svetacdn.in/71tsRs29n5tZ/tv-series/2191"},{"id":53,"title":"Долины смерти","kp_id":"965831","imdb_id":"tt5350248","world_art_id":null,"type":"serial","add":"2018-02-25 11:44:10","orig_title":"Killing Fields","year":"2016-01-05","translations":["Профессиональный (многоголосый закадровый) (Discovery)"],"seasons_count":2,"episodes_count":15,"episodes":8,"update":"2018-03-16 10:46:09","iframe_src":"//7720.svetacdn.in/71tsRs29n5tZ/show-tv-series/53"},{"id":50,"title":"Легенда о золоте крокодилов","kp_id":null,"imdb_id":"tt6317528","world_art_id":null,"type":"serial","add":"2018-02-25 10:47:12","orig_title":"Legend of Croc Gold","year":"2016-11-23","translations":["Профессиональный (многоголосый закадровый) (Discovery)"],"seasons_count":1,"episodes_count":8,"episodes":8,"update":"2018-03-02 10:28:53","iframe_src":"//7720.svetacdn.in/71tsRs29n5tZ/show-tv-series/50"},{"id":49,"title":"Капитан Кук: Одержимость и открытия","kp_id":"843399","imdb_id":"tt0961114","world_art_id":null,"type":"serial","add":"2018-02-25 10:07:13","orig_title":"Captain Cook: Obsession and Discovery","year":"2007-10-28","translations":["Профессиональный (двухголосый закадровый) (Discovery)"],"seasons_count":1,"episodes_count":4,"episodes":4,"update":"2018-03-02 14:31:58","iframe_src":"//7720.svetacdn.in/71tsRs29n5tZ/show-tv-series/49"},{"id":46,"title":"Больше чем фокусы с Ди Эм Си","kp_id":"843751","imdb_id":"tt4138532","world_art_id":null,"type":"serial","add":"2018-02-25 09:15:09","orig_title":"Beyond Magic with DMC","year":"2014-11-06","translations":["Профессиональный (одноголосый закадровый)"],"seasons_count":1,"episodes_count":7,"episodes":7,"update":"2018-03-12 19:55:04","iframe_src":"//7720.svetacdn.in/71tsRs29n5tZ/show-tv-series/46"},{"id":40,"title":"Бушкрафт: лесная лига","kp_id":null,"imdb_id":"tt7799008","world_art_id":null,"type":"serial","add":"2018-02-18 23:27:27","orig_title":"Bushcraft Build-Off","year":"2017-11-14","translations":["Профессиональный (двухголосый закадровый) (Discovery)"],"seasons_count":1,"episodes_count":6,"episodes":6,"update":"2018-03-02 14:51:17","iframe_src":"//7720.svetacdn.in/71tsRs29n5tZ/show-tv-series/40"},{"id":36,"title":"Конвой: Битва за Атлантику","kp_id":null,"imdb_id":"tt1868356","world_art_id":null,"type":"serial","add":"2018-02-18 22:13:38","orig_title":"Convoy: War for the Atlantic","year":"2009-01-01","translations":["Профессиональный (одноголосый закадровый)"],"seasons_count":1,"episodes_count":4,"episodes":4,"update":"2018-03-12 20:01:51","iframe_src":"//7720.svetacdn.in/71tsRs29n5tZ/show-tv-series/36"},{"id":33,"title":"Сокровище Купера","kp_id":null,"imdb_id":"tt6459410","world_art_id":null,"type":"serial","add":"2018-02-17 20:56:55","orig_title":"Cooper's Treasure","year":"2017-04-18","translations":["Профессиональный (двухголосый закадровый) (Discovery)"],"seasons_count":1,"episodes_count":8,"episodes":8,"update":"2018-03-02 14:44:47","iframe_src":"//7720.svetacdn.in/71tsRs29n5tZ/show-tv-series/33"},{"id":31,"title":"Боевые корабли","kp_id":null,"imdb_id":"tt7174736","world_art_id":null,"type":"serial","add":"2018-02-17 14:38:33","orig_title":"Combat Ships","year":"2017-06-20","translations":["Профессиональный (одноголосый закадровый)"],"seasons_count":1,"episodes_count":10,"episodes":10,"update":"2018-03-12 20:12:59","iframe_src":"//7720.svetacdn.in/71tsRs29n5tZ/show-tv-series/31"},{"id":29,"title":"Мозг с Дэвидом Иглменом","kp_id":"892251","imdb_id":"tt3923774","world_art_id":null,"type":"serial","add":"2018-02-17 13:02:39","orig_title":"The Brain with Dr. David Eagleman","year":"2015-10-01","translations":["Любительский (одноголосый закадровый) (Jimmy J.)"],"seasons_count":1,"episodes_count":6,"episodes":6,"update":"2018-03-16 14:04:55","iframe_src":"//7720.svetacdn.in/71tsRs29n5tZ/show-tv-series/29"},{"id":28,"title":"Спасатели-тяжеловесы","kp_id":null,"imdb_id":"tt6385418","world_art_id":null,"type":"serial","add":"2018-02-17 12:46:18","orig_title":"Heavy Rescue","year":"2017-01-03","translations":["Профессиональный (одноголосый закадровый) (Discovery)"],"seasons_count":1,"episodes_count":8,"episodes":8,"update":"2018-03-02 11:07:44","iframe_src":"//7720.svetacdn.in/71tsRs29n5tZ/show-tv-series/28"},{"id":26,"title":"Сражение с океаном","kp_id":null,"imdb_id":"tt5119992","world_art_id":null,"type":"serial","add":"2018-02-16 20:35:46","orig_title":"Pacific Warriors","year":"2015-10-23","translations":["Профессиональный (двухголосый закадровый) (Discovery)"],"seasons_count":1,"episodes_count":6,"episodes":6,"update":"2018-03-04 20:10:03","iframe_src":"//7720.svetacdn.in/71tsRs29n5tZ/show-tv-series/26"},{"id":25,"title":"Голубая планета 2","kp_id":"1073233","imdb_id":"tt6769208","world_art_id":null,"type":"serial","add":"2018-02-16 20:24:12","orig_title":"Blue Planet II","year":"2017-10-29","translations":["Любительский (многоголосый закадровый) (ColdFilm)"],"seasons_count":1,"episodes_count":7,"episodes":7,"update":"2018-03-02 10:04:48","iframe_src":"//7720.svetacdn.in/71tsRs29n5tZ/show-tv-series/25"},{"id":22,"title":"Охотники","kp_id":"957841","imdb_id":"tt5167198","world_art_id":null,"type":"serial","add":"2018-02-16 10:44:25","orig_title":"The Hunt","year":"2015-11-01","translations":["Профессиональный (двухголосый закадровый)"],"seasons_count":1,"episodes_count":7,"episodes":7,"update":"2018-04-20 11:20:52","iframe_src":"//7720.svetacdn.in/71tsRs29n5tZ/show-tv-series/22"},{"id":21,"title":"Широкий взгляд с Кэлом Пенном","kp_id":null,"imdb_id":"tt4622750","world_art_id":null,"type":"serial","add":"2018-02-16 10:31:35","orig_title":"The Big Picture with Kal Penn","year":"2015-03-30","translations":["Профессиональный (одноголосый закадровый)"],"seasons_count":1,"episodes_count":12,"episodes":12,"update":"2018-03-16 13:48:25","iframe_src":"//7720.svetacdn.in/71tsRs29n5tZ/show-tv-series/21"},{"id":2051,"title":"Морская полиция: Новый Орлеан","kp_id":"838482","imdb_id":"tt3560084","world_art_id":null,"type":"serial","add":"2018-02-08 21:03:35","orig_title":"NCIS: New Orleans","year":"2014-09-23","translations":["Профессиональный (многоголосый закадровый) (BaibaKo)","Любительский (двухголосый закадровый) (Sunshine Studio)","Профессиональный (двухголосый закадровый) (Gears Media)","Любительский (двухголосый закадровый) (GoldTeam)","Профессиональный (многоголосый закадровый) (TVShows)","Любительский (многоголосый закадровый) (Octopus)","Любительский (многоголосый закадровый) (ColdFilm)","Любительский (многоголосый закадровый) (Ultradox)","Original (English)"],"seasons_count":7,"episodes_count":154,"episodes":16,"update":"2021-05-30 20:00:48","iframe_src":"//7720.svetacdn.in/71tsRs29n5tZ/tv-series/2051"},{"id":15,"title":"Подделка или удача","kp_id":"1049829","imdb_id":"tt2033616","world_art_id":null,"type":"serial","add":"2018-01-24 07:03:54","orig_title":"Fake or Fortune?","year":"2011-06-19","translations":["Профессиональный (двухголосый закадровый) (BBC Saint-Petersburg)"],"seasons_count":1,"episodes_count":3,"episodes":3,"update":"2018-03-16 13:11:49","iframe_src":"//7720.svetacdn.in/71tsRs29n5tZ/show-tv-series/15"}],"current_page":50,"first_page_url":"https://videocdn.tv/api/short?limit=100&api_token=EnbO9h8pv1VyjbCJhg0WM9nG259n7mtz&cache350=350&page=1","from":4901,"last_page":651,"last_page_url":"https://videocdn.tv/api/short?limit=100&api_token=EnbO9h8pv1VyjbCJhg0WM9nG259n7mtz&cache350=350&page=651","next_page_url":"https://videocdn.tv/api/short?limit=100&api_token=EnbO9h8pv1VyjbCJhg0WM9nG259n7mtz&cache350=350&page=51","path":"https://videocdn.tv/api/short","per_page":100,"prev_page_url":"https://videocdn.tv/api/short?limit=100&api_token=EnbO9h8pv1VyjbCJhg0WM9nG259n7mtz&cache350=350&page=49","to":4960,"total":65076}