{"result":true,"data":[{"id":30338,"title":"После эпидемии","kp_id":"920180","imdb_id":"tt4801456","world_art_id":null,"type":"movie","add":"2019-08-27 22:02:25","orig_title":"After the Outbreak","year":"2017-01-01","translations":["Любительский (многоголосый закадровый) (Синема УС)"],"quality":"webdl","translation":"Любительский (многоголосый закадровый) (Синема УС)","update":"2019-08-28 14:23:46","iframe_src":"//83.svetacdn.in/PfJ50H0ZBPg3/movie/30338"},{"id":30336,"title":"Смешное происшествие по дороге на Форум","kp_id":"11305","imdb_id":"tt0060438","world_art_id":null,"type":"movie","add":"2019-08-27 19:24:19","orig_title":"A Funny Thing Happened on the Way to the Forum","year":"1966-10-16","translations":["Профессиональный (двухголосый закадровый)"],"quality":"hdtv","translation":"Профессиональный (двухголосый закадровый)","update":"2019-08-28 07:05:08","iframe_src":"//83.svetacdn.in/PfJ50H0ZBPg3/movie/30336"},{"id":30333,"title":"Черная маска","kp_id":"23592","imdb_id":"tt0115693","world_art_id":null,"type":"movie","add":"2019-08-27 19:11:13","orig_title":"Hak hap","year":"1996-11-09","translations":["Профессиональный (двухголосый закадровый)"],"quality":"bd","translation":"Профессиональный (двухголосый закадровый)","update":"2019-08-28 07:01:30","iframe_src":"//83.svetacdn.in/PfJ50H0ZBPg3/movie/30333"},{"id":30332,"title":"Черная маска 2: Город масок","kp_id":"31455","imdb_id":"tt0264429","world_art_id":null,"type":"movie","add":"2019-08-27 19:08:10","orig_title":"Black Mask 2: City of Masks","year":"2002-12-17","translations":["Профессиональный (многоголосый закадровый)"],"quality":"bd","translation":"Профессиональный (многоголосый закадровый)","update":"2019-08-28 07:00:37","iframe_src":"//83.svetacdn.in/PfJ50H0ZBPg3/movie/30332"},{"id":30328,"title":"Принимающий новичков","kp_id":null,"imdb_id":"tt6156260","world_art_id":null,"type":"movie","add":"2019-08-27 18:59:14","orig_title":"The Rush Chairman","year":"2017-05-31","translations":["Любительский (многоголосый закадровый) (Синема УС)"],"quality":"webdl","translation":"Любительский (многоголосый закадровый) (Синема УС)","update":"2019-08-28 05:39:56","iframe_src":"//83.svetacdn.in/PfJ50H0ZBPg3/movie/30328"},{"id":30326,"title":"Ярость в заливе Контрабандистов","kp_id":"8735","imdb_id":"tt0057085","world_art_id":null,"type":"movie","add":"2019-08-27 18:51:57","orig_title":"Fury at Smugglers' Bay","year":"1961-10-13","translations":["Авторский (одноголосый закадровый) (Дольский Андрей)"],"quality":"dvdrip","translation":"Авторский (одноголосый закадровый) (Дольский Андрей)","update":"2019-08-28 06:59:17","iframe_src":"//83.svetacdn.in/PfJ50H0ZBPg3/movie/30326"},{"id":30325,"title":"Шанхайский связной","kp_id":"22615","imdb_id":"tt0266408","world_art_id":null,"type":"movie","add":"2019-08-27 18:44:45","orig_title":"Leui ting jin ging","year":"2000-12-21","translations":["Профессиональный (двухголосый закадровый)"],"quality":"dvdrip","translation":"Профессиональный (двухголосый закадровый)","update":"2019-08-28 06:56:03","iframe_src":"//83.svetacdn.in/PfJ50H0ZBPg3/movie/30325"},{"id":30323,"title":"Контрабандисты","kp_id":"418919","imdb_id":"tt1248917","world_art_id":null,"type":"movie","add":"2019-08-27 18:40:49","orig_title":"Dekker & Adi - Wer bremst verliert!","year":"2008-07-10","translations":["Профессиональный (многоголосый закадровый)"],"quality":"dvdrip","translation":"Профессиональный (многоголосый закадровый)","update":"2019-08-28 06:53:19","iframe_src":"//83.svetacdn.in/PfJ50H0ZBPg3/movie/30323"},{"id":30322,"title":"Месть мертвецов","kp_id":"61285","imdb_id":"tt0369918","world_art_id":null,"type":"movie","add":"2019-08-27 18:38:57","orig_title":"Shallow Ground","year":"2004-04-24","translations":["Полное дублирование"],"quality":"bd","translation":"Полное дублирование","update":"2019-08-28 06:52:50","iframe_src":"//83.svetacdn.in/PfJ50H0ZBPg3/movie/30322"},{"id":30321,"title":"Марадона","kp_id":"195621","imdb_id":"tt0454976","world_art_id":null,"type":"movie","add":"2019-08-27 18:31:37","orig_title":"Maradona by Kusturica","year":"2008-05-20","translations":["Профессиональный (многоголосый закадровый)"],"quality":"dvdrip","translation":"Профессиональный (многоголосый закадровый)","update":"2019-08-28 06:47:43","iframe_src":"//83.svetacdn.in/PfJ50H0ZBPg3/movie/30321"},{"id":30320,"title":"Фунань: Новые люди","kp_id":"1118224","imdb_id":"tt6342440","world_art_id":null,"type":"movie","add":"2019-08-27 18:31:34","orig_title":"Funan","year":"2018-06-11","translations":["Любительский (многоголосый закадровый) (Синема УС)"],"quality":"webdl","translation":"Любительский (многоголосый закадровый) (Синема УС)","update":"2019-08-28 05:37:48","iframe_src":"//83.svetacdn.in/PfJ50H0ZBPg3/movie/30320"},{"id":30319,"title":"Беспокойный свидетель","kp_id":"13326","imdb_id":"tt0185284","world_art_id":null,"type":"movie","add":"2019-08-27 18:30:11","orig_title":"Do Not Disturb","year":"1999-11-04","translations":["Полное дублирование"],"quality":"dvdrip","translation":"Полное дублирование","update":"2019-08-28 06:46:55","iframe_src":"//83.svetacdn.in/PfJ50H0ZBPg3/movie/30319"},{"id":30318,"title":"Папа Гринвич-Виллидж","kp_id":"2746","imdb_id":"tt0087932","world_art_id":null,"type":"movie","add":"2019-08-27 18:25:51","orig_title":"The Pope of Greenwich Village","year":"1984-06-22","translations":["Профессиональный (двухголосый закадровый) (НТВ)"],"quality":"bd","translation":"Профессиональный (двухголосый закадровый) (НТВ)","update":"2019-08-28 06:46:22","iframe_src":"//83.svetacdn.in/PfJ50H0ZBPg3/movie/30318"},{"id":30316,"title":"Тетрадь смерти 3","kp_id":"295065","imdb_id":"tt0912597","world_art_id":null,"type":"movie","add":"2019-08-27 18:10:10","orig_title":"L: Change the World","year":"2008-01-31","translations":["Любительский (многоголосый закадровый)"],"quality":"bd","translation":"Любительский (многоголосый закадровый)","update":"2019-08-28 06:41:23","iframe_src":"//83.svetacdn.in/PfJ50H0ZBPg3/movie/30316"},{"id":30315,"title":"Что случилось тогда...","kp_id":"84209","imdb_id":"tt0111689","world_art_id":null,"type":"movie","add":"2019-08-27 17:29:17","orig_title":"What Happened Was...","year":"1994-01-26","translations":["Профессиональный (двухголосый закадровый)"],"quality":"sat","translation":"Профессиональный (двухголосый закадровый)","update":"2019-08-28 06:39:58","iframe_src":"//83.svetacdn.in/PfJ50H0ZBPg3/movie/30315"},{"id":30313,"title":"Контрабандист","kp_id":"19281","imdb_id":"tt0087374","world_art_id":null,"type":"movie","add":"2019-08-27 17:19:08","orig_title":"The Gunrunner","year":"1990-05-11","translations":["Профессиональный (многоголосый закадровый)"],"quality":"dvdrip","translation":"Профессиональный (многоголосый закадровый)","update":"2019-08-28 06:02:12","iframe_src":"//83.svetacdn.in/PfJ50H0ZBPg3/movie/30313"},{"id":30308,"title":"Что ни день, то неприятности","kp_id":"11058","imdb_id":"tt0204700","world_art_id":null,"type":"movie","add":"2019-08-27 09:25:49","orig_title":"Trouble Every Day","year":"2001-05-13","translations":["Профессиональный (двухголосый закадровый)"],"quality":"dvdrip","translation":"Профессиональный (двухголосый закадровый)","update":"2019-08-28 05:42:35","iframe_src":"//83.svetacdn.in/PfJ50H0ZBPg3/movie/30308"},{"id":30295,"title":"Семейное положение: Все сложно","kp_id":"1020246","imdb_id":"tt6099462","world_art_id":null,"type":"movie","add":"2019-08-26 10:38:36","orig_title":"Status Pending","year":"2018-09-02","translations":["Любительский (многоголосый закадровый) (Синема УС)"],"quality":"webdl","translation":"Любительский (многоголосый закадровый) (Синема УС)","update":"2019-08-28 05:38:57","iframe_src":"//83.svetacdn.in/PfJ50H0ZBPg3/movie/30295"},{"id":3250,"title":"Под кайфом и в смятении","kp_id":"6826","imdb_id":"tt0106677","world_art_id":null,"type":"movie","add":"2016-06-20 08:05:34","orig_title":"Dazed and Confused","year":"1993-09-10","translations":["Полное дублирование"],"quality":"bd","translation":"Полное дублирование","update":"2019-08-28 05:41:38","iframe_src":"//83.svetacdn.in/PfJ50H0ZBPg3/movie/3250"},{"id":3107,"title":"Медведь","kp_id":"22907","imdb_id":"tt0095800","world_art_id":null,"type":"movie","add":"2016-06-13 18:18:38","orig_title":"L' Ours","year":"1988-10-19","translations":["Профессиональный (одноголосый закадровый)"],"quality":"bd","translation":"Профессиональный (одноголосый закадровый)","update":"2019-08-28 06:51:37","iframe_src":"//83.svetacdn.in/PfJ50H0ZBPg3/movie/3107"}],"current_page":1201,"first_page_url":"https://videocdn.tv/api/short?limit=100&api_token=RgFQdUIR2dRmwv8iYa5SnFNgnw3vpjKj&cache31201=31201&page=1","from":120001,"last_page":627,"last_page_url":"https://videocdn.tv/api/short?limit=100&api_token=RgFQdUIR2dRmwv8iYa5SnFNgnw3vpjKj&cache31201=31201&page=627","next_page_url":null,"path":"https://videocdn.tv/api/short","per_page":100,"prev_page_url":"https://videocdn.tv/api/short?limit=100&api_token=RgFQdUIR2dRmwv8iYa5SnFNgnw3vpjKj&cache31201=31201&page=1200","to":120020,"total":62648}