{"result":true,"data":[{"id":35076,"title":"Три дня и жизнь","kp_id":"1257301","imdb_id":"tt10204366","world_art_id":null,"type":"movie","add":"2020-01-15 13:34:08","orig_title":"Trois jours et une vie","year":"2019-08-21","translations":["Любительский (многоголосый закадровый) (Синема УС)"],"quality":"webdl","translation":"Любительский (многоголосый закадровый) (Синема УС)","update":"2020-01-15 15:42:27","iframe_src":"//5322.svetacdn.in/IAF0wWTdNYZm/movie/35076"},{"id":35074,"title":"Отель Люкс","kp_id":"568674","imdb_id":"tt1529559","world_art_id":null,"type":"movie","add":"2020-01-15 13:05:33","orig_title":"Hotel Lux","year":"2011-10-27","translations":["Профессиональный (многоголосый закадровый)"],"quality":"bd","translation":"Профессиональный (многоголосый закадровый)","update":"2020-01-15 13:48:14","iframe_src":"//5322.svetacdn.in/IAF0wWTdNYZm/movie/35074"},{"id":35068,"title":"Большие девочки не плачут","kp_id":"46987","imdb_id":"tt0291213","world_art_id":null,"type":"movie","add":"2020-01-15 12:53:59","orig_title":"Große Mädchen weinen nicht","year":"2002-09-22","translations":["Профессиональный (многоголосый закадровый)"],"quality":"dvdrip","translation":"Профессиональный (многоголосый закадровый)","update":"2020-01-15 13:48:47","iframe_src":"//5322.svetacdn.in/IAF0wWTdNYZm/movie/35068"},{"id":35065,"title":"Дом с Монстром","kp_id":"1151380","imdb_id":"tt7825558","world_art_id":null,"type":"movie","add":"2020-01-15 10:45:59","orig_title":"Home with a View of the Monster","year":"2019-06-07","translations":["Любительский (многоголосый закадровый) (Синема УС)"],"quality":"webdl","translation":"Любительский (многоголосый закадровый) (Синема УС)","update":"2020-01-15 13:53:47","iframe_src":"//5322.svetacdn.in/IAF0wWTdNYZm/movie/35065"},{"id":35064,"title":"Девушки угонщицы","kp_id":"1190344","imdb_id":"tt8985240","world_art_id":null,"type":"movie","add":"2020-01-15 10:41:07","orig_title":"Hotwired in Suburbia","year":"2020-01-14","translations":["Любительский (многоголосый закадровый) (AlphaProject)"],"quality":"webdl","translation":"Любительский (многоголосый закадровый) (AlphaProject)","update":"2020-01-15 13:53:17","iframe_src":"//5322.svetacdn.in/IAF0wWTdNYZm/movie/35064"},{"id":35063,"title":"12 метров без головы","kp_id":"421889","imdb_id":"tt1259615","world_art_id":null,"type":"movie","add":"2020-01-15 10:17:41","orig_title":"12 Meter ohne Kopf","year":"2009-12-10","translations":["Профессиональный (многоголосый закадровый)"],"quality":"hdrip","translation":"Профессиональный (многоголосый закадровый)","update":"2020-01-15 17:25:57","iframe_src":"//5322.svetacdn.in/IAF0wWTdNYZm/movie/35063"},{"id":35062,"title":"Планета акул","kp_id":"991915","imdb_id":"tt5828640","world_art_id":null,"type":"movie","add":"2020-01-15 10:15:13","orig_title":"Planet of the Sharks","year":"2016-07-27","translations":["Любительский (многоголосый закадровый) (Синема УС)"],"quality":"hdrip","translation":"Любительский (многоголосый закадровый) (Синема УС)","update":"2020-01-15 17:24:47","iframe_src":"//5322.svetacdn.in/IAF0wWTdNYZm/movie/35062"},{"id":35058,"title":"Побережье богов войны","kp_id":"228673","imdb_id":"tt0068015","world_art_id":null,"type":"movie","add":"2020-01-14 23:35:42","orig_title":"Zhan shen tan","year":"1973-07-13","translations":["Любительский (одноголосый закадровый)"],"quality":"dvdrip","translation":"Любительский (одноголосый закадровый)","update":"2020-01-15 12:26:39","iframe_src":"//5322.svetacdn.in/IAF0wWTdNYZm/movie/35058"},{"id":35057,"title":"Подручный якудза 2: Наемный убийца","kp_id":"77509","imdb_id":null,"world_art_id":null,"type":"movie","add":"2020-01-14 23:26:27","orig_title":"Yakuza deka","year":"1970-05-23","translations":["Авторский (одноголосый закадровый) (Кузнецов Сергей)"],"quality":"dvdrip","translation":"Авторский (одноголосый закадровый) (Кузнецов Сергей)","update":"2020-01-15 12:25:50","iframe_src":"//5322.svetacdn.in/IAF0wWTdNYZm/movie/35057"},{"id":35056,"title":"Потерянные в Пекине","kp_id":"279603","imdb_id":"tt0949489","world_art_id":null,"type":"movie","add":"2020-01-14 23:12:17","orig_title":"Ping guo","year":"2007-02-16","translations":["Профессиональный (многоголосый закадровый)"],"quality":"dvdrip","translation":"Профессиональный (многоголосый закадровый)","update":"2020-01-15 12:24:53","iframe_src":"//5322.svetacdn.in/IAF0wWTdNYZm/movie/35056"},{"id":35055,"title":"Жить и любить","kp_id":"78620","imdb_id":"tt0112269","world_art_id":null,"type":"movie","add":"2020-01-14 23:09:13","orig_title":"Aao Pyaar Karen","year":"1994-11-25","translations":["Профессиональный (двухголосый закадровый)"],"quality":"webdl","translation":"Профессиональный (двухголосый закадровый)","update":"2020-01-15 12:22:33","iframe_src":"//5322.svetacdn.in/IAF0wWTdNYZm/movie/35055"},{"id":35054,"title":"Принцесса подворотен","kp_id":"53141","imdb_id":"tt0070348","world_art_id":null,"type":"movie","add":"2020-01-14 23:06:29","orig_title":"Ma lu xiao ying xiong","year":"1973-02-17","translations":["Любительский (одноголосый закадровый)"],"quality":"dvdrip","translation":"Любительский (одноголосый закадровый)","update":"2020-01-15 12:21:13","iframe_src":"//5322.svetacdn.in/IAF0wWTdNYZm/movie/35054"},{"id":35053,"title":"Проигравший рыцарь 2","kp_id":"584767","imdb_id":"tt1883397","world_art_id":null,"type":"movie","add":"2020-01-14 23:03:01","orig_title":"Ying han 2: Feng pei dao di","year":"2011-04-01","translations":["Любительский (одноголосый закадровый) (den904)"],"quality":"hdrip","translation":"Любительский (одноголосый закадровый) (den904)","update":"2020-01-15 12:19:04","iframe_src":"//5322.svetacdn.in/IAF0wWTdNYZm/movie/35053"},{"id":35052,"title":"Проигравший рыцарь","kp_id":"394821","imdb_id":"tt1087906","world_art_id":null,"type":"movie","add":"2020-01-14 23:00:38","orig_title":"Ying han","year":"2008-11-28","translations":["Любительский (одноголосый закадровый)"],"quality":"hdrip","translation":"Любительский (одноголосый закадровый)","update":"2020-01-15 12:18:09","iframe_src":"//5322.svetacdn.in/IAF0wWTdNYZm/movie/35052"},{"id":35051,"title":"Счастья нет, но есть пила","kp_id":"398838","imdb_id":"tt1024856","world_art_id":null,"type":"movie","add":"2020-01-14 22:58:14","orig_title":"Negatibu happî chênsô ejji","year":"2007-10-25","translations":["Любительский (одноголосый закадровый) (den904)"],"quality":"dvdrip","translation":"Любительский (одноголосый закадровый) (den904)","update":"2020-01-15 12:16:53","iframe_src":"//5322.svetacdn.in/IAF0wWTdNYZm/movie/35051"},{"id":35050,"title":"Последний звонок","kp_id":"410532","imdb_id":"tt1141253","world_art_id":null,"type":"movie","add":"2020-01-14 22:55:44","orig_title":"End Call","year":"2008-10-16","translations":["Любительский (двухголосый закадровый) (DeadSno & den904)"],"quality":"dvdrip","translation":"Любительский (двухголосый закадровый) (DeadSno & den904)","update":"2020-01-15 12:16:12","iframe_src":"//5322.svetacdn.in/IAF0wWTdNYZm/movie/35050"},{"id":34807,"title":"Адская вечеринка","kp_id":"311618","imdb_id":"tt0926063","world_art_id":null,"type":"movie","add":"2020-01-06 19:20:48","orig_title":"Dance of the Dead","year":"2008-03-09","translations":["Любительский (двухголосый закадровый)"],"quality":"bd","translation":"Любительский (двухголосый закадровый)","update":"2020-01-15 19:17:02","iframe_src":"//5322.svetacdn.in/IAF0wWTdNYZm/movie/34807"},{"id":11508,"title":"Меч короля Артура","kp_id":"824437","imdb_id":"tt1972591","world_art_id":null,"type":"movie","add":"2017-05-12 00:15:50","orig_title":"King Arthur: Legend of the Sword","year":"2017-04-27","translations":["Полное дублирование"],"quality":"bd","translation":"Полное дублирование","update":"2020-01-15 14:55:37","iframe_src":"//5322.svetacdn.in/IAF0wWTdNYZm/movie/11508"},{"id":8324,"title":"Бойцовский клуб зомби","kp_id":"839371","imdb_id":"tt3560742","world_art_id":null,"type":"movie","add":"2016-12-25 06:56:59","orig_title":"Shi cheng","year":"2014-10-23","translations":["Любительский (двухголосый закадровый) (Колобок)","Любительский (одноголосый закадровый) (Хихикающий доктор)"],"quality":"bd","translation":"Любительский (двухголосый закадровый) (Колобок)","update":"2020-01-15 12:14:06","iframe_src":"//5322.svetacdn.in/IAF0wWTdNYZm/movie/8324"},{"id":5705,"title":"Великолепная семерка","kp_id":"682648","imdb_id":"tt2404435","world_art_id":null,"type":"movie","add":"2016-09-29 12:13:50","orig_title":"The Magnificent Seven","year":"2016-09-08","translations":["Полное дублирование"],"quality":"bd","translation":"Полное дублирование","update":"2020-01-15 14:54:56","iframe_src":"//5322.svetacdn.in/IAF0wWTdNYZm/movie/5705"}],"current_page":945,"first_page_url":"https://videocdn.tv/api/short?limit=100&api_token=6Onb1W1alEUrBcKJZD3GoKBbWyAl2uG2&cache3945=3945&page=1","from":94401,"last_page":626,"last_page_url":"https://videocdn.tv/api/short?limit=100&api_token=6Onb1W1alEUrBcKJZD3GoKBbWyAl2uG2&cache3945=3945&page=626","next_page_url":null,"path":"https://videocdn.tv/api/short","per_page":100,"prev_page_url":"https://videocdn.tv/api/short?limit=100&api_token=6Onb1W1alEUrBcKJZD3GoKBbWyAl2uG2&cache3945=3945&page=944","to":94420,"total":62523}