{"result":true,"data":[{"id":34687,"title":"Мой единственный","kp_id":"432549","imdb_id":"tt1185431","world_art_id":null,"type":"movie","add":"2020-01-03 05:33:31","orig_title":"My One and Only","year":"2009-02-12","translations":["Профессиональный (многоголосый закадровый)"],"quality":"bd","translation":"Профессиональный (многоголосый закадровый)","update":"2020-01-03 09:15:20","iframe_src":"//5322.svetacdn.in/si4jsFRrtgrT/movie/34687"},{"id":34684,"title":"Как упал с небес","kp_id":"1304139","imdb_id":"tt10946934","world_art_id":null,"type":"movie","add":"2020-01-03 05:25:38","orig_title":"Como Caído Del Cielo","year":"2019-12-24","translations":["Любительский (многоголосый закадровый) (Синема УС)"],"quality":"webdl","translation":"Любительский (многоголосый закадровый) (Синема УС)","update":"2020-01-03 09:18:05","iframe_src":"//5322.svetacdn.in/si4jsFRrtgrT/movie/34684"},{"id":34683,"title":"9-й участок","kp_id":"1304546","imdb_id":null,"world_art_id":null,"type":"movie","add":"2020-01-02 21:40:16","orig_title":"Di jiu fen ju","year":"2019-08-29","translations":["Любительский (многоголосый закадровый) (Синема УС)"],"quality":"webdl","translation":"Любительский (многоголосый закадровый) (Синема УС)","update":"2020-01-03 06:30:32","iframe_src":"//5322.svetacdn.in/si4jsFRrtgrT/movie/34683"},{"id":34682,"title":"Идеальный пикап","kp_id":"692734","imdb_id":"tt2258724","world_art_id":null,"type":"movie","add":"2020-01-02 21:36:14","orig_title":"The Perfect Pickup","year":"2019-04-18","translations":["Любительский (многоголосый закадровый) (Синема УС)"],"quality":"webdl","translation":"Любительский (многоголосый закадровый) (Синема УС)","update":"2020-01-03 06:29:51","iframe_src":"//5322.svetacdn.in/si4jsFRrtgrT/movie/34682"},{"id":34681,"title":"Красный капитан","kp_id":"1272109","imdb_id":"tt9052960","world_art_id":null,"type":"movie","add":"2020-01-02 21:30:32","orig_title":"Laal Kaptaan","year":"2019-10-18","translations":["Любительский (многоголосый закадровый) (Синема УС)"],"quality":"webdl","translation":"Любительский (многоголосый закадровый) (Синема УС)","update":"2020-01-03 06:29:11","iframe_src":"//5322.svetacdn.in/si4jsFRrtgrT/movie/34681"},{"id":34680,"title":"Авансцена 2","kp_id":"400665","imdb_id":"tt1145144","world_art_id":null,"type":"movie","add":"2020-01-02 20:01:31","orig_title":"Center Stage: Turn It Up","year":"2008-10-30","translations":["Профессиональный (двухголосый закадровый)"],"quality":"hdtv","translation":"Профессиональный (двухголосый закадровый)","update":"2020-01-03 12:29:58","iframe_src":"//5322.svetacdn.in/si4jsFRrtgrT/movie/34680"},{"id":34679,"title":"Париж","kp_id":"264843","imdb_id":"tt0869994","world_art_id":null,"type":"movie","add":"2020-01-02 19:59:56","orig_title":"Paris","year":"2008-01-19","translations":["Профессиональный (многоголосый закадровый)"],"quality":"dvdrip","translation":"Профессиональный (многоголосый закадровый)","update":"2020-01-03 05:19:41","iframe_src":"//5322.svetacdn.in/si4jsFRrtgrT/movie/34679"},{"id":34678,"title":"Ограбление по-французски","kp_id":"4902","imdb_id":"tt0310924","world_art_id":null,"type":"movie","add":"2020-01-02 19:52:30","orig_title":"Crime Spree","year":"2003-04-13","translations":["Полное дублирование"],"quality":"dvdrip","translation":"Полное дублирование","update":"2020-01-03 05:19:11","iframe_src":"//5322.svetacdn.in/si4jsFRrtgrT/movie/34678"},{"id":34677,"title":"Как сумасшедший","kp_id":"571337","imdb_id":"tt1758692","world_art_id":null,"type":"movie","add":"2020-01-02 19:38:59","orig_title":"Like Crazy","year":"2011-01-22","translations":["Профессиональный (многоголосый закадровый) (iTunes)"],"quality":"bd","translation":"Профессиональный (многоголосый закадровый) (iTunes)","update":"2020-01-03 05:18:44","iframe_src":"//5322.svetacdn.in/si4jsFRrtgrT/movie/34677"},{"id":34676,"title":"Мамонт","kp_id":"408939","imdb_id":"tt1038043","world_art_id":null,"type":"movie","add":"2020-01-02 19:37:05","orig_title":"Mammoth","year":"2009-01-19","translations":["Любительский (одноголосый закадровый)"],"quality":"hdrip","translation":"Любительский (одноголосый закадровый)","update":"2020-01-03 05:20:04","iframe_src":"//5322.svetacdn.in/si4jsFRrtgrT/movie/34676"},{"id":34672,"title":"Хвост","kp_id":"650383","imdb_id":"tt2112287","world_art_id":null,"type":"movie","add":"2020-01-02 17:02:02","orig_title":"Thale","year":"2012-01-26","translations":["Профессиональный (многоголосый закадровый)"],"quality":"hdrip","translation":"Профессиональный (многоголосый закадровый)","update":"2020-01-03 11:48:35","iframe_src":"//5322.svetacdn.in/si4jsFRrtgrT/movie/34672"},{"id":34670,"title":"Легенда Сонной Лощины","kp_id":"94853","imdb_id":"tt0214874","world_art_id":null,"type":"movie","add":"2020-01-02 13:33:04","orig_title":"The Legend of Sleepy Hollow","year":"1999-10-23","translations":["Профессиональный (многоголосый закадровый)"],"quality":"dvdrip","translation":"Профессиональный (многоголосый закадровый)","update":"2020-01-03 11:47:02","iframe_src":"//5322.svetacdn.in/si4jsFRrtgrT/movie/34670"},{"id":34669,"title":"Вундеркинды","kp_id":"448950","imdb_id":"tt1374990","world_art_id":null,"type":"movie","add":"2020-01-02 13:30:58","orig_title":"The Prodigies","year":"2011-02-01","translations":["Любительский (одноголосый закадровый)"],"quality":"bd","translation":"Любительский (одноголосый закадровый)","update":"2020-01-03 11:47:44","iframe_src":"//5322.svetacdn.in/si4jsFRrtgrT/movie/34669"},{"id":34482,"title":"Подбросим монету","kp_id":"929590","imdb_id":"tt3882054","world_art_id":null,"type":"movie","add":"2019-12-26 13:48:23","orig_title":"Toss It","year":"2019-09-17","translations":["Original (English)","Любительский (многоголосый закадровый) (Синема УС)"],"quality":"webdl","translation":"Original (English)","update":"2020-01-03 10:22:52","iframe_src":"//5322.svetacdn.in/si4jsFRrtgrT/movie/34482"},{"id":34384,"title":"Собаки не носят штанов","kp_id":"1200332","imdb_id":"tt9074574","world_art_id":null,"type":"movie","add":"2019-12-23 05:58:10","orig_title":"Koirat eivät käytä housuja","year":"2019-05-21","translations":["Профессиональный (многоголосый закадровый) (iTunes)"],"quality":"webdl","translation":"Профессиональный (многоголосый закадровый) (iTunes)","update":"2020-01-03 14:41:03","iframe_src":"//5322.svetacdn.in/si4jsFRrtgrT/movie/34384"},{"id":34150,"title":"Решала. Нулевые","kp_id":"1280515","imdb_id":"tt11426568","world_art_id":null,"type":"movie","add":"2019-12-16 05:44:55","orig_title":"Reshala. Nulevye","year":"2019-12-05","translations":["Оригинальная дорожка"],"quality":"webdl","translation":"Оригинальная дорожка","update":"2020-01-02 21:45:36","iframe_src":"//5322.svetacdn.in/si4jsFRrtgrT/movie/34150"},{"id":33860,"title":"Большая поэзия","kp_id":"1115453","imdb_id":"tt9750028","world_art_id":null,"type":"movie","add":"2019-12-09 15:12:13","orig_title":"Bolshaya poeziya","year":"2019-10-06","translations":["Оригинальная дорожка"],"quality":"webdl","translation":"Оригинальная дорожка","update":"2020-01-03 12:29:26","iframe_src":"//5322.svetacdn.in/si4jsFRrtgrT/movie/33860"},{"id":33385,"title":"Курьер","kp_id":"1207545","imdb_id":"tt9207616","world_art_id":null,"type":"movie","add":"2019-11-23 17:56:10","orig_title":"The Courier","year":"2019-11-22","translations":["Original (English)","Полное дублирование (iTunes)"],"quality":"webdl","translation":"Original (English)","update":"2020-01-03 05:18:16","iframe_src":"//5322.svetacdn.in/si4jsFRrtgrT/movie/33385"},{"id":31930,"title":"Дождливый день в Нью-Йорке","kp_id":"1047626","imdb_id":"tt7139936","world_art_id":null,"type":"movie","add":"2019-10-15 19:36:41","orig_title":"A Rainy Day in New York","year":"2019-07-26","translations":["Полное дублирование","Original (English)"],"quality":"bd","translation":"Полное дублирование","update":"2020-01-03 11:45:47","iframe_src":"//5322.svetacdn.in/si4jsFRrtgrT/movie/31930"},{"id":31557,"title":"Гемини","kp_id":"462851","imdb_id":"tt1025100","world_art_id":null,"type":"movie","add":"2019-10-07 15:43:50","orig_title":"Gemini Man","year":"2019-10-01","translations":["Полное дублирование (iTunes)","Original (English)"],"quality":"bd","translation":"Полное дублирование (iTunes)","update":"2020-01-03 09:13:47","iframe_src":"//5322.svetacdn.in/si4jsFRrtgrT/movie/31557"}],"current_page":954,"first_page_url":"https://videocdn.tv/api/short?limit=100&api_token=X6EwAUfE5M9xbo7y0Bp0aPf3uXxG2KLL&cache3954=3954&page=1","from":95301,"last_page":623,"last_page_url":"https://videocdn.tv/api/short?limit=100&api_token=X6EwAUfE5M9xbo7y0Bp0aPf3uXxG2KLL&cache3954=3954&page=623","next_page_url":null,"path":"https://videocdn.tv/api/short","per_page":100,"prev_page_url":"https://videocdn.tv/api/short?limit=100&api_token=X6EwAUfE5M9xbo7y0Bp0aPf3uXxG2KLL&cache3954=3954&page=953","to":95320,"total":62274}