{"result":true,"data":[{"id":43314,"title":"Наставница","kp_id":"1274100","imdb_id":"tt10444252","world_art_id":null,"type":"movie","add":"2020-09-08 18:48:24","orig_title":"Baaji","year":"2019-06-27","translations":["Любительский (многоголосый закадровый) (Синема УС)"],"quality":"webdl","translation":"Любительский (многоголосый закадровый) (Синема УС)","update":"2020-09-09 08:12:56","iframe_src":"//83.svetacdn.in/PfJ50H0ZBPg3/movie/43314"},{"id":43299,"title":"Банда четырех","kp_id":"18322","imdb_id":"tt0094709","world_art_id":null,"type":"movie","add":"2020-09-08 18:28:38","orig_title":"La bande des quatre","year":"1989-02-08","translations":["Авторский (одноголосый закадровый) (Алексеев Антон)"],"quality":"webdl","translation":"Авторский (одноголосый закадровый) (Алексеев Антон)","update":"2020-09-09 08:27:26","iframe_src":"//83.svetacdn.in/PfJ50H0ZBPg3/movie/43299"},{"id":43297,"title":"Прежде, чем расстаться","kp_id":"43240","imdb_id":"tt0087941","world_art_id":null,"type":"movie","add":"2020-09-08 18:21:13","orig_title":"Prezhde chem rasstatsya","year":"1984-01-01","translations":["Оригинальная дорожка"],"quality":"dvdrip","translation":"Оригинальная дорожка","update":"2020-09-09 09:12:18","iframe_src":"//83.svetacdn.in/PfJ50H0ZBPg3/movie/43297"},{"id":43296,"title":"Раскрытие","kp_id":"59642","imdb_id":"tt0097095","world_art_id":null,"type":"movie","add":"2020-09-08 18:19:26","orig_title":"Coming out","year":"1989-11-10","translations":["Авторский (одноголосый закадровый) (Кузнецов Сергей)"],"quality":"webdl","translation":"Авторский (одноголосый закадровый) (Кузнецов Сергей)","update":"2020-09-09 08:25:22","iframe_src":"//83.svetacdn.in/PfJ50H0ZBPg3/movie/43296"},{"id":43277,"title":"Плоды прогресса","kp_id":"221792","imdb_id":"tt0045059","world_art_id":null,"type":"movie","add":"2020-09-08 12:37:54","orig_title":"Push-Button Kitty","year":"1952-09-06","translations":["Профессиональный (многоголосый закадровый)"],"quality":"dvdrip","translation":"Профессиональный (многоголосый закадровый)","update":"2020-09-09 08:02:05","iframe_src":"//83.svetacdn.in/PfJ50H0ZBPg3/movie/43277"},{"id":43276,"title":"Кот-матрос","kp_id":"205533","imdb_id":"tt0044522","world_art_id":null,"type":"movie","add":"2020-09-08 12:36:06","orig_title":"Cruise Cat","year":"1952-10-18","translations":["Профессиональный (многоголосый закадровый)"],"quality":"dvdrip","translation":"Профессиональный (многоголосый закадровый)","update":"2020-09-09 08:00:35","iframe_src":"//83.svetacdn.in/PfJ50H0ZBPg3/movie/43276"},{"id":43275,"title":"Собачья конура","kp_id":"221791","imdb_id":"tt0044554","world_art_id":null,"type":"movie","add":"2020-09-08 12:34:09","orig_title":"The Dog House","year":"1952-11-29","translations":["Профессиональный (многоголосый закадровый)"],"quality":"dvdrip","translation":"Профессиональный (многоголосый закадровый)","update":"2020-09-09 07:59:32","iframe_src":"//83.svetacdn.in/PfJ50H0ZBPg3/movie/43275"},{"id":43274,"title":"Мышонок-беглец","kp_id":"221790","imdb_id":"tt0046078","world_art_id":null,"type":"movie","add":"2020-09-08 12:32:10","orig_title":"The Missing Mouse","year":"1953-01-10","translations":["Профессиональный (многоголосый закадровый)"],"quality":"dvdrip","translation":"Профессиональный (многоголосый закадровый)","update":"2020-09-09 07:58:24","iframe_src":"//83.svetacdn.in/PfJ50H0ZBPg3/movie/43274"},{"id":43273,"title":"Джерри и слоненок","kp_id":"221789","imdb_id":"tt0045934","world_art_id":null,"type":"movie","add":"2020-09-08 12:30:18","orig_title":"Jerry and Jumbo","year":"1953-02-21","translations":["Профессиональный (многоголосый закадровый)"],"quality":"dvdrip","translation":"Профессиональный (многоголосый закадровый)","update":"2020-09-09 07:57:13","iframe_src":"//83.svetacdn.in/PfJ50H0ZBPg3/movie/43273"},{"id":43271,"title":"Что должен уметь щенок","kp_id":"221788","imdb_id":"tt0046417","world_art_id":null,"type":"movie","add":"2020-09-08 12:27:15","orig_title":"That's My Pup!","year":"1953-04-25","translations":["Профессиональный (многоголосый закадровый)"],"quality":"dvdrip","translation":"Профессиональный (многоголосый закадровый)","update":"2020-09-09 07:55:46","iframe_src":"//83.svetacdn.in/PfJ50H0ZBPg3/movie/43271"},{"id":43270,"title":"Только ныряние","kp_id":"221787","imdb_id":"tt0045946","world_art_id":null,"type":"movie","add":"2020-09-08 12:25:04","orig_title":"Just Ducky","year":"1953-09-05","translations":["Профессиональный (многоголосый закадровый)"],"quality":"dvdrip","translation":"Профессиональный (многоголосый закадровый)","update":"2020-09-09 07:54:40","iframe_src":"//83.svetacdn.in/PfJ50H0ZBPg3/movie/43270"},{"id":43269,"title":"Два маленьких индейца","kp_id":"221786","imdb_id":"tt0046473","world_art_id":null,"type":"movie","add":"2020-09-08 12:22:56","orig_title":"Two Little Indians","year":"1953-10-17","translations":["Профессиональный (многоголосый закадровый)"],"quality":"dvdrip","translation":"Профессиональный (многоголосый закадровый)","update":"2020-09-09 07:53:27","iframe_src":"//83.svetacdn.in/PfJ50H0ZBPg3/movie/43269"},{"id":43268,"title":"Писатель Джерри","kp_id":"221785","imdb_id":"tt0045999","world_art_id":null,"type":"movie","add":"2020-09-08 12:20:34","orig_title":"Life with Tom","year":"1953-11-21","translations":["Профессиональный (многоголосый закадровый)"],"quality":"dvdrip","translation":"Профессиональный (многоголосый закадровый)","update":"2020-09-09 07:52:08","iframe_src":"//83.svetacdn.in/PfJ50H0ZBPg3/movie/43268"},{"id":43266,"title":"Про щенка","kp_id":"221784","imdb_id":"tt0047375","world_art_id":null,"type":"movie","add":"2020-09-08 08:17:32","orig_title":"Puppy Tale","year":"1954-01-23","translations":["Профессиональный (многоголосый закадровый)"],"quality":"dvdrip","translation":"Профессиональный (многоголосый закадровый)","update":"2020-09-09 07:50:52","iframe_src":"//83.svetacdn.in/PfJ50H0ZBPg3/movie/43266"},{"id":43246,"title":"Жизнь - это долгая спокойная река","kp_id":"49312","imdb_id":"tt0096386","world_art_id":null,"type":"movie","add":"2020-09-07 18:53:00","orig_title":"La vie est un long fleuve tranquille","year":"1988-02-03","translations":["Профессиональный (многоголосый закадровый)"],"quality":"bd","translation":"Профессиональный (многоголосый закадровый)","update":"2020-09-09 08:11:54","iframe_src":"//83.svetacdn.in/PfJ50H0ZBPg3/movie/43246"},{"id":43239,"title":"Пока я не вернусь","kp_id":"584611","imdb_id":null,"world_art_id":null,"type":"movie","add":"2020-09-07 18:12:49","orig_title":"Пока я не вернусь","year":"1988-01-01","translations":["Оригинальная дорожка"],"quality":"webdl","translation":"Оригинальная дорожка","update":"2020-09-09 07:52:24","iframe_src":"//83.svetacdn.in/PfJ50H0ZBPg3/movie/43239"},{"id":43237,"title":"Только три ночи","kp_id":"42266","imdb_id":"tt0065108","world_art_id":null,"type":"movie","add":"2020-09-07 18:07:53","orig_title":"Tolko tri nochi","year":"1969-01-01","translations":["Оригинальная дорожка"],"quality":"tc","translation":"Оригинальная дорожка","update":"2020-09-09 07:51:41","iframe_src":"//83.svetacdn.in/PfJ50H0ZBPg3/movie/43237"},{"id":43236,"title":"На острие топора","kp_id":"221334","imdb_id":"tt0094627","world_art_id":null,"type":"movie","add":"2020-09-07 18:06:14","orig_title":"Al filo del hacha","year":"1988-05-20","translations":["Любительский (одноголосый закадровый)"],"quality":"bd","translation":"Любительский (одноголосый закадровый)","update":"2020-09-09 07:50:36","iframe_src":"//83.svetacdn.in/PfJ50H0ZBPg3/movie/43236"},{"id":18168,"title":"Тёмные отражения","kp_id":"991097","imdb_id":"tt4073790","world_art_id":null,"type":"movie","add":"2018-08-08 23:16:37","orig_title":"The Darkest Minds","year":"2018-08-02","translations":["Полное дублирование (iTunes)","Original (English)","Профессиональный (многоголосый закадровый) (HDrezka Studio)"],"quality":"bd","translation":"Полное дублирование (iTunes)","update":"2020-09-09 08:58:24","iframe_src":"//83.svetacdn.in/PfJ50H0ZBPg3/movie/18168"},{"id":750,"title":"Завещание Ленина","kp_id":"405677","imdb_id":"tt1047803","world_art_id":null,"type":"serial","add":"2016-12-27 10:43:12","orig_title":"Zaveshchanie Lenina","year":"2007-06-04","translations":["Оригинальная дорожка"],"seasons_count":1,"episodes_count":12,"episodes":12,"update":"2016-12-27 17:18:35","iframe_src":"//83.svetacdn.in/PfJ50H0ZBPg3/tv-series/750"},{"id":749,"title":"Джокер 2. Операция «Капкан»","kp_id":"952740","imdb_id":null,"world_art_id":null,"type":"serial","add":"2016-12-27 10:15:59","orig_title":"Джокер 2. Операция «Капкан»","year":"2016-12-11","translations":["Оригинальная дорожка"],"seasons_count":1,"episodes_count":4,"episodes":4,"update":"2016-12-27 16:22:41","iframe_src":"//83.svetacdn.in/PfJ50H0ZBPg3/tv-series/749"},{"id":747,"title":"Жена напрокат","kp_id":"1008343","imdb_id":null,"world_art_id":null,"type":"serial","add":"2016-12-27 09:40:10","orig_title":"Жена напрокат","year":"2016-12-18","translations":["Оригинальная дорожка"],"seasons_count":1,"episodes_count":4,"episodes":4,"update":"2016-12-27 16:10:38","iframe_src":"//83.svetacdn.in/PfJ50H0ZBPg3/tv-series/747"},{"id":744,"title":"Первокурсница","kp_id":"1008382","imdb_id":null,"world_art_id":null,"type":"serial","add":"2016-12-27 07:58:51","orig_title":"Первокурсница","year":"2016-12-17","translations":["Оригинальная дорожка"],"seasons_count":1,"episodes_count":4,"episodes":4,"update":"2016-12-27 13:25:01","iframe_src":"//83.svetacdn.in/PfJ50H0ZBPg3/tv-series/744"},{"id":743,"title":"За лучшей жизнью","kp_id":"1007985","imdb_id":null,"world_art_id":null,"type":"serial","add":"2016-12-27 07:45:37","orig_title":"За лучшей жизнью","year":"2016-12-03","translations":["Оригинальная дорожка"],"seasons_count":1,"episodes_count":2,"episodes":2,"update":"2016-12-27 10:49:08","iframe_src":"//83.svetacdn.in/PfJ50H0ZBPg3/tv-series/743"},{"id":742,"title":"Вероника не хочет умирать","kp_id":"1005064","imdb_id":null,"world_art_id":null,"type":"serial","add":"2016-12-27 07:43:24","orig_title":"Вероника не хочет умирать","year":"2016-12-10","translations":["Оригинальная дорожка"],"seasons_count":1,"episodes_count":4,"episodes":4,"update":"2016-12-27 13:53:28","iframe_src":"//83.svetacdn.in/PfJ50H0ZBPg3/tv-series/742"},{"id":741,"title":"Коварные игры","kp_id":"1008136","imdb_id":null,"world_art_id":null,"type":"serial","add":"2016-12-27 07:36:04","orig_title":"Коварные игры","year":"2016-12-10","translations":["Оригинальная дорожка"],"seasons_count":1,"episodes_count":2,"episodes":2,"update":"2016-12-27 12:43:52","iframe_src":"//83.svetacdn.in/PfJ50H0ZBPg3/tv-series/741"},{"id":739,"title":"Григорий Р.","kp_id":"768068","imdb_id":"tt4121340","world_art_id":null,"type":"serial","add":"2016-12-27 07:31:45","orig_title":"Grigoriy R.","year":"2014-09-11","translations":["Оригинальная дорожка"],"seasons_count":1,"episodes_count":8,"episodes":8,"update":"2016-12-27 16:13:18","iframe_src":"//83.svetacdn.in/PfJ50H0ZBPg3/tv-series/739"},{"id":738,"title":"Рок-н-ролл под Кремлем","kp_id":"795773","imdb_id":null,"world_art_id":null,"type":"serial","add":"2016-12-27 07:03:32","orig_title":"Рок-н-ролл под Кремлем","year":"2013-10-19","translations":["Оригинальная дорожка"],"seasons_count":1,"episodes_count":4,"episodes":4,"update":"2016-12-27 18:59:29","iframe_src":"//83.svetacdn.in/PfJ50H0ZBPg3/tv-series/738"},{"id":736,"title":"Пропавший жених","kp_id":"893135","imdb_id":null,"world_art_id":null,"type":"serial","add":"2016-12-26 09:14:34","orig_title":"Пропавший жених","year":"2015-03-06","translations":["Оригинальная дорожка"],"seasons_count":1,"episodes_count":2,"episodes":2,"update":"2016-12-27 06:10:55","iframe_src":"//83.svetacdn.in/PfJ50H0ZBPg3/tv-series/736"},{"id":735,"title":"Джокер. Возмездие","kp_id":"913059","imdb_id":null,"world_art_id":null,"type":"serial","add":"2016-12-26 09:09:48","orig_title":"Джокер. Возмездие","year":"2015-01-09","translations":["Оригинальная дорожка"],"seasons_count":1,"episodes_count":2,"episodes":2,"update":"2016-12-26 13:29:10","iframe_src":"//83.svetacdn.in/PfJ50H0ZBPg3/tv-series/735"},{"id":734,"title":"Снайпер 2: Тунгус","kp_id":"648932","imdb_id":null,"world_art_id":null,"type":"serial","add":"2016-12-26 07:09:22","orig_title":"Снайпер 2: Тунгус","year":"2012-05-09","translations":["Оригинальная дорожка"],"seasons_count":1,"episodes_count":4,"episodes":4,"update":"2016-12-26 11:03:44","iframe_src":"//83.svetacdn.in/PfJ50H0ZBPg3/tv-series/734"},{"id":733,"title":"Сразу после сотворения мира","kp_id":"815231","imdb_id":null,"world_art_id":null,"type":"serial","add":"2016-12-26 07:03:56","orig_title":"Сразу после сотворения мира","year":"2013-12-07","translations":["Оригинальная дорожка"],"seasons_count":1,"episodes_count":4,"episodes":4,"update":"2016-12-26 11:22:33","iframe_src":"//83.svetacdn.in/PfJ50H0ZBPg3/tv-series/733"},{"id":730,"title":"Дракула","kp_id":"698086","imdb_id":"tt2296682","world_art_id":null,"type":"serial","add":"2016-12-23 11:31:07","orig_title":"Dracula","year":"2013-10-25","translations":["Профессиональный (многоголосый закадровый) (LostFilm)"],"seasons_count":1,"episodes_count":10,"episodes":10,"update":"2016-12-26 11:46:08","iframe_src":"//83.svetacdn.in/PfJ50H0ZBPg3/tv-series/730"},{"id":729,"title":"Отчаянные меры","kp_id":"661005","imdb_id":"tt2172103","world_art_id":null,"type":"serial","add":"2016-12-23 11:17:25","orig_title":"Last Resort","year":"2012-09-27","translations":["Профессиональный (многоголосый закадровый) (LostFilm)"],"seasons_count":1,"episodes_count":13,"episodes":13,"update":"2016-12-26 08:17:36","iframe_src":"//83.svetacdn.in/PfJ50H0ZBPg3/tv-series/729"},{"id":728,"title":"Клондайк","kp_id":"748140","imdb_id":"tt2761630","world_art_id":null,"type":"serial","add":"2016-12-23 11:13:26","orig_title":"Klondike","year":"2014-01-20","translations":["Профессиональный (многоголосый закадровый) (LostFilm)"],"seasons_count":1,"episodes_count":6,"episodes":6,"update":"2016-12-27 10:12:21","iframe_src":"//83.svetacdn.in/PfJ50H0ZBPg3/tv-series/728"},{"id":727,"title":"Камелот","kp_id":"540854","imdb_id":"tt1672189","world_art_id":null,"type":"serial","add":"2016-12-23 11:05:44","orig_title":"Camelot","year":"2011-02-25","translations":["Профессиональный (многоголосый закадровый) (LostFilm)"],"seasons_count":1,"episodes_count":10,"episodes":10,"update":"2016-12-26 06:21:07","iframe_src":"//83.svetacdn.in/PfJ50H0ZBPg3/tv-series/727"},{"id":726,"title":"Нити судьбы","kp_id":"1007931","imdb_id":null,"world_art_id":null,"type":"serial","add":"2016-12-23 09:18:08","orig_title":"Нити судьбы","year":"2016-11-21","translations":["Оригинальная дорожка"],"seasons_count":1,"episodes_count":40,"episodes":40,"update":"2016-12-26 06:01:24","iframe_src":"//83.svetacdn.in/PfJ50H0ZBPg3/tv-series/726"},{"id":707,"title":"Псевдокот","kp_id":"988057","imdb_id":"tt5717906","world_art_id":null,"type":"serial","add":"2016-12-19 06:54:58","orig_title":"Counterfeit Cat","year":"2016-05-12","translations":["Любительский (одноголосый закадровый)"],"seasons_count":1,"episodes_count":2,"episodes":2,"update":"2016-12-26 06:50:32","iframe_src":"//83.svetacdn.in/PfJ50H0ZBPg3/tv-series/707"},{"id":627,"title":"Королевы крика","kp_id":"866007","imdb_id":"tt4145384","world_art_id":null,"type":"serial","add":"2016-11-25 06:33:58","orig_title":"Scream Queens","year":"2015-06-12","translations":["Профессиональный (многоголосый закадровый) (NewStudio)"],"seasons_count":2,"episodes_count":22,"episodes":10,"update":"2016-12-27 10:32:18","iframe_src":"//83.svetacdn.in/PfJ50H0ZBPg3/tv-series/627"},{"id":3962,"title":"Другая женщина","kp_id":"7579","imdb_id":"tt0094663","world_art_id":null,"type":"movie","add":"2016-07-15 11:13:35","orig_title":"Another woman","year":"1988-10-14","translations":["Профессиональный (двухголосый закадровый)","Профессиональный (двухголосый закадровый) (НТВ)"],"quality":"hdtv","translation":"Профессиональный (двухголосый закадровый)","update":"2020-09-09 08:01:23","iframe_src":"//83.svetacdn.in/PfJ50H0ZBPg3/movie/3962"}],"current_page":511,"first_page_url":"https://videocdn.tv/api/short?limit=100&api_token=RgFQdUIR2dRmwv8iYa5SnFNgnw3vpjKj&cache3511=3511&page=1","from":51001,"last_page":630,"last_page_url":"https://videocdn.tv/api/short?limit=100&api_token=RgFQdUIR2dRmwv8iYa5SnFNgnw3vpjKj&cache3511=3511&page=630","next_page_url":"https://videocdn.tv/api/short?limit=100&api_token=RgFQdUIR2dRmwv8iYa5SnFNgnw3vpjKj&cache3511=3511&page=512","path":"https://videocdn.tv/api/short","per_page":100,"prev_page_url":"https://videocdn.tv/api/short?limit=100&api_token=RgFQdUIR2dRmwv8iYa5SnFNgnw3vpjKj&cache3511=3511&page=510","to":51040,"total":62945}