{"result":true,"data":[{"id":31894,"title":"Охота на мутантов","kp_id":"331965","imdb_id":"tt0093586","world_art_id":null,"type":"movie","add":"2019-10-14 18:35:48","orig_title":"Mutant Hunt","year":"1987-05-20","translations":["Любительский (одноголосый закадровый)"],"quality":"dvdrip","translation":"Любительский (одноголосый закадровый)","update":"2019-10-15 05:16:20","iframe_src":"//24213.svetacdn.in/si4jsFRrtgrT/movie/31894"},{"id":31893,"title":"Мутант на корабле Баунти","kp_id":"23332","imdb_id":"tt0097934","world_art_id":null,"type":"movie","add":"2019-10-14 18:32:53","orig_title":"Mutant on the Bounty","year":"1989-08-18","translations":["Профессиональный (многоголосый закадровый)"],"quality":"vhs","translation":"Профессиональный (многоголосый закадровый)","update":"2019-10-15 05:17:05","iframe_src":"//24213.svetacdn.in/si4jsFRrtgrT/movie/31893"},{"id":31892,"title":"Мутанты","kp_id":"397690","imdb_id":"tt1131742","world_art_id":null,"type":"movie","add":"2019-10-14 18:30:04","orig_title":"Mutants","year":"2008-08-30","translations":["Профессиональный (многоголосый закадровый)"],"quality":"dvdrip","translation":"Профессиональный (многоголосый закадровый)","update":"2019-10-15 05:17:43","iframe_src":"//24213.svetacdn.in/si4jsFRrtgrT/movie/31892"},{"id":31890,"title":"Притворщик: Остров призраков","kp_id":"281759","imdb_id":"tt0274735","world_art_id":null,"type":"movie","add":"2019-10-14 18:01:39","orig_title":"The Pretender: Island of the Haunted","year":"2001-12-10","translations":["Профессиональный (многоголосый закадровый)"],"quality":"dvdrip","translation":"Профессиональный (многоголосый закадровый)","update":"2019-10-15 05:19:07","iframe_src":"//24213.svetacdn.in/si4jsFRrtgrT/movie/31890"},{"id":31883,"title":"Смотритель поля","kp_id":"18426","imdb_id":"tt0311231","world_art_id":null,"type":"movie","add":"2019-10-14 17:17:52","orig_title":"The Greenskeeper","year":"2002-10-11","translations":["Любительский (одноголосый закадровый)"],"quality":"dvdrip","translation":"Любительский (одноголосый закадровый)","update":"2019-10-15 05:24:20","iframe_src":"//24213.svetacdn.in/si4jsFRrtgrT/movie/31883"},{"id":31882,"title":"Сиреневое такси","kp_id":"17576","imdb_id":"tt0076851","world_art_id":null,"type":"movie","add":"2019-10-14 17:12:31","orig_title":"Un taxi mauve","year":"1977-05-21","translations":["Профессиональный (многоголосый закадровый)"],"quality":"dvdrip","translation":"Профессиональный (многоголосый закадровый)","update":"2019-10-15 05:27:08","iframe_src":"//24213.svetacdn.in/si4jsFRrtgrT/movie/31882"},{"id":31881,"title":"Второй медовый месяц","kp_id":"3181","imdb_id":"tt0029529","world_art_id":null,"type":"movie","add":"2019-10-14 17:09:09","orig_title":"Second Honeymoon","year":"1937-11-13","translations":["Профессиональный (одноголосый закадровый)"],"quality":"dvdrip","translation":"Профессиональный (одноголосый закадровый)","update":"2019-10-15 05:27:50","iframe_src":"//24213.svetacdn.in/si4jsFRrtgrT/movie/31881"},{"id":31880,"title":"Запутались в любви","kp_id":"416407","imdb_id":"tt1242452","world_art_id":null,"type":"movie","add":"2019-10-14 17:06:24","orig_title":"Robert Zimmermann wundert sich über die Liebe","year":"2008-08-28","translations":["Профессиональный (многоголосый закадровый)"],"quality":"dvdrip","translation":"Профессиональный (многоголосый закадровый)","update":"2019-10-15 05:28:42","iframe_src":"//24213.svetacdn.in/si4jsFRrtgrT/movie/31880"},{"id":31879,"title":"Великий экстаз Роберта Кармайкла","kp_id":"137116","imdb_id":"tt0459387","world_art_id":null,"type":"movie","add":"2019-10-14 17:00:34","orig_title":"The Great Ecstasy of Robert Carmichael","year":"2005-05-15","translations":["Любительский (одноголосый закадровый)"],"quality":"dvdrip","translation":"Любительский (одноголосый закадровый)","update":"2019-10-15 05:38:39","iframe_src":"//24213.svetacdn.in/si4jsFRrtgrT/movie/31879"},{"id":31850,"title":"Божественная любовь","kp_id":"1140755","imdb_id":"tt8311958","world_art_id":null,"type":"movie","add":"2019-10-14 07:38:05","orig_title":"Divino Amor","year":"2019-01-25","translations":["Профессиональный (многоголосый закадровый) (iTunes)"],"quality":"webdl","translation":"Профессиональный (многоголосый закадровый) (iTunes)","update":"2019-10-14 12:28:08","iframe_src":"//24213.svetacdn.in/si4jsFRrtgrT/movie/31850"},{"id":31849,"title":"Король королей","kp_id":"1098189","imdb_id":"tt7584414","world_art_id":null,"type":"movie","add":"2019-10-14 07:17:36","orig_title":"King of Kings","year":"2019-02-15","translations":["Любительский (многоголосый закадровый) (Синема УС)"],"quality":"webdl","translation":"Любительский (многоголосый закадровый) (Синема УС)","update":"2019-10-14 11:35:35","iframe_src":"//24213.svetacdn.in/si4jsFRrtgrT/movie/31849"},{"id":31633,"title":"Джолли – бакалавр юридических наук","kp_id":"730668","imdb_id":"tt2621000","world_art_id":null,"type":"movie","add":"2019-10-09 08:32:24","orig_title":"Jolly LLB","year":"2013-03-14","translations":["Профессиональный (двухголосый закадровый)"],"quality":"bd","translation":"Профессиональный (двухголосый закадровый)","update":"2019-10-14 12:33:51","iframe_src":"//24213.svetacdn.in/si4jsFRrtgrT/movie/31633"},{"id":31622,"title":"Раздача","kp_id":"1049535","imdb_id":"tt3127902","world_art_id":null,"type":"movie","add":"2019-10-09 08:14:44","orig_title":"Dealt","year":"2017-03-13","translations":["Любительский (многоголосый закадровый) (Синема УС)"],"quality":"webdl","translation":"Любительский (многоголосый закадровый) (Синема УС)","update":"2019-10-14 12:34:57","iframe_src":"//24213.svetacdn.in/si4jsFRrtgrT/movie/31622"},{"id":31621,"title":"Джолли - бакалавр юридических наук 2","kp_id":"999677","imdb_id":"tt5982852","world_art_id":null,"type":"movie","add":"2019-10-09 08:13:27","orig_title":"Jolly LLB 2","year":"2017-02-09","translations":["Любительский (многоголосый закадровый)"],"quality":"bd","translation":"Любительский (многоголосый закадровый)","update":"2019-10-14 12:32:40","iframe_src":"//24213.svetacdn.in/si4jsFRrtgrT/movie/31621"},{"id":31620,"title":"Обманчивое лето 68-го","kp_id":"56703","imdb_id":"tt0088338","world_art_id":null,"type":"movie","add":"2019-10-09 08:11:58","orig_title":"Varljivo leto '68","year":"1984-01-31","translations":["Любительский (двухголосый закадровый) (DeadSno & den904)"],"quality":"hdtv","translation":"Любительский (двухголосый закадровый) (DeadSno & den904)","update":"2019-10-14 12:31:51","iframe_src":"//24213.svetacdn.in/si4jsFRrtgrT/movie/31620"},{"id":28113,"title":"Зимняя шкура","kp_id":"1109003","imdb_id":"tt7715192","world_art_id":null,"type":"movie","add":"2019-06-20 23:46:45","orig_title":"Winterskin","year":"2018-11-10","translations":["Любительский (многоголосый закадровый) (Синема УС)","[EN] Original (English)"],"quality":"webdl","translation":"Любительский (многоголосый закадровый) (Синема УС)","update":"2019-10-14 12:29:26","iframe_src":"//24213.svetacdn.in/si4jsFRrtgrT/movie/28113"},{"id":12025,"title":"Шальные деньги: Роскошная жизнь","kp_id":"711915","imdb_id":"tt2427502","world_art_id":null,"type":"movie","add":"2017-06-19 16:37:25","orig_title":"Snabba cash - Livet deluxe","year":"2013-08-30","translations":["Профессиональный (двухголосый закадровый) (НТВ)","Любительский (одноголосый закадровый) (den904)"],"quality":"bd","translation":"Профессиональный (двухголосый закадровый) (НТВ)","update":"2019-10-15 05:21:02","iframe_src":"//24213.svetacdn.in/si4jsFRrtgrT/movie/12025"},{"id":11004,"title":"Жена смотрителя зоопарка","kp_id":"569071","imdb_id":"tt1730768","world_art_id":null,"type":"movie","add":"2017-04-16 21:52:25","orig_title":"The Zookeeper's Wife","year":"2017-03-07","translations":["Полное дублирование"],"quality":"bd","translation":"Полное дублирование","update":"2019-10-15 05:26:09","iframe_src":"//24213.svetacdn.in/si4jsFRrtgrT/movie/11004"},{"id":10149,"title":"Дарвин — конечная остановка","kp_id":"846397","imdb_id":"tt3680410","world_art_id":null,"type":"movie","add":"2017-03-01 22:46:59","orig_title":"Last Cab to Darwin","year":"2015-06-06","translations":["Любительский (многоголосый закадровый) (@MUZOBOZ@)","Профессиональный (многоголосый закадровый) (СВ-Студия)"],"quality":"bd","translation":"Любительский (многоголосый закадровый) (@MUZOBOZ@)","update":"2019-10-15 05:14:43","iframe_src":"//24213.svetacdn.in/si4jsFRrtgrT/movie/10149"},{"id":4380,"title":"Антихрист","kp_id":"408909","imdb_id":"tt0870984","world_art_id":null,"type":"movie","add":"2016-08-11 13:52:27","orig_title":"Antichrist","year":"2009-05-18","translations":["Профессиональный (многоголосый закадровый)","Профессиональный (двухголосый закадровый) (CP Digital)"],"quality":"bd","translation":"Профессиональный (многоголосый закадровый)","update":"2019-10-15 05:33:04","iframe_src":"//24213.svetacdn.in/si4jsFRrtgrT/movie/4380"}],"current_page":1711,"first_page_url":"https://videocdn.tv/api/short?limit=100&api_token=X6EwAUfE5M9xbo7y0Bp0aPf3uXxG2KLL&cache31711=31711&page=1","from":171001,"last_page":733,"last_page_url":"https://videocdn.tv/api/short?limit=100&api_token=X6EwAUfE5M9xbo7y0Bp0aPf3uXxG2KLL&cache31711=31711&page=733","next_page_url":null,"path":"https://videocdn.tv/api/short","per_page":100,"prev_page_url":"https://videocdn.tv/api/short?limit=100&api_token=X6EwAUfE5M9xbo7y0Bp0aPf3uXxG2KLL&cache31711=31711&page=1710","to":171020,"total":73212}