{"result":true,"data":[{"id":32233,"title":"Война Логана","kp_id":"93847","imdb_id":"tt0176943","world_art_id":null,"type":"movie","add":"2019-10-22 08:07:32","orig_title":"Logan's War: Bound by Honor","year":"1998-11-01","translations":["Профессиональный (многоголосый закадровый)"],"quality":"dvdrip","translation":"Профессиональный (многоголосый закадровый)","update":"2019-10-22 15:28:42","iframe_src":"//5322.svetacdn.in/IAF0wWTdNYZm/movie/32233"},{"id":32232,"title":"Уильям","kp_id":"1026795","imdb_id":"tt6316816","world_art_id":null,"type":"movie","add":"2019-10-22 07:59:40","orig_title":"William","year":"2019-04-05","translations":["Любительский (многоголосый закадровый) (Синема УС)"],"quality":"webdl","translation":"Любительский (многоголосый закадровый) (Синема УС)","update":"2019-10-22 16:31:12","iframe_src":"//5322.svetacdn.in/IAF0wWTdNYZm/movie/32232"},{"id":32231,"title":"Посредник","kp_id":"1295566","imdb_id":"tt9715438","world_art_id":null,"type":"movie","add":"2019-10-22 07:58:05","orig_title":"The Fixer","year":"2019-01-29","translations":["Любительский (многоголосый закадровый) (Синема УС)"],"quality":"webdl","translation":"Любительский (многоголосый закадровый) (Синема УС)","update":"2019-10-22 16:33:05","iframe_src":"//5322.svetacdn.in/IAF0wWTdNYZm/movie/32231"},{"id":32230,"title":"Круг","kp_id":"771781","imdb_id":"tt2943946","world_art_id":null,"type":"movie","add":"2019-10-22 07:55:04","orig_title":"The Circle","year":"2017-10-26","translations":["Любительский (многоголосый закадровый) (Синема УС)"],"quality":"webdl","translation":"Любительский (многоголосый закадровый) (Синема УС)","update":"2019-10-22 16:33:51","iframe_src":"//5322.svetacdn.in/IAF0wWTdNYZm/movie/32230"},{"id":32229,"title":"Горничная","kp_id":"1187860","imdb_id":"tt8331988","world_art_id":null,"type":"movie","add":"2019-10-22 07:52:48","orig_title":"La camarista","year":"2018-09-08","translations":["Любительский (многоголосый закадровый) (Синема УС)"],"quality":"webdl","translation":"Любительский (многоголосый закадровый) (Синема УС)","update":"2019-10-22 16:34:45","iframe_src":"//5322.svetacdn.in/IAF0wWTdNYZm/movie/32229"},{"id":32187,"title":"Ничей","kp_id":"1047306","imdb_id":null,"world_art_id":null,"type":"movie","add":"2019-10-21 12:22:21","orig_title":"Ничей","year":"2019-01-01","translations":["Оригинальная дорожка"],"quality":"webdl","translation":"Оригинальная дорожка","update":"2019-10-22 15:28:42","iframe_src":"//5322.svetacdn.in/IAF0wWTdNYZm/movie/32187"},{"id":32173,"title":"Переворот","kp_id":"1207610","imdb_id":"tt9212538","world_art_id":null,"type":"movie","add":"2019-10-20 19:26:32","orig_title":"Wendezeit","year":"2019-08-21","translations":["Любительский (многоголосый закадровый) (Синема УС)"],"quality":"webdl","translation":"Любительский (многоголосый закадровый) (Синема УС)","update":"2019-10-22 16:12:25","iframe_src":"//5322.svetacdn.in/IAF0wWTdNYZm/movie/32173"},{"id":32169,"title":"17-летний","kp_id":"1195802","imdb_id":"tt8988748","world_art_id":null,"type":"movie","add":"2019-10-20 19:10:08","orig_title":"Diecisiete","year":"2019-09-27","translations":["Профессиональный (многоголосый закадровый) (AlphaProject)"],"quality":"webdl","translation":"Профессиональный (многоголосый закадровый) (AlphaProject)","update":"2019-10-22 16:10:03","iframe_src":"//5322.svetacdn.in/IAF0wWTdNYZm/movie/32169"},{"id":32168,"title":"Сохраняй молчание","kp_id":"1046077","imdb_id":"tt6968118","world_art_id":null,"type":"movie","add":"2019-10-20 19:08:28","orig_title":"Bao chi chen mo","year":"2019-08-23","translations":["Любительский (многоголосый закадровый) (Колобок)"],"quality":"webdl","translation":"Любительский (многоголосый закадровый) (Колобок)","update":"2019-10-22 16:08:50","iframe_src":"//5322.svetacdn.in/IAF0wWTdNYZm/movie/32168"},{"id":32167,"title":"Человек чести","kp_id":"1029419","imdb_id":"tt6514218","world_art_id":null,"type":"movie","add":"2019-10-20 19:07:21","orig_title":"Noblemen","year":"2019-06-28","translations":["Любительский (многоголосый закадровый) (Синема УС)"],"quality":"webdl","translation":"Любительский (многоголосый закадровый) (Синема УС)","update":"2019-10-22 16:21:57","iframe_src":"//5322.svetacdn.in/IAF0wWTdNYZm/movie/32167"},{"id":32166,"title":"Мисс Вирджиния","kp_id":"1098313","imdb_id":"tt6246534","world_art_id":null,"type":"movie","add":"2019-10-20 19:05:37","orig_title":"Miss Virginia","year":"2019-10-18","translations":["Любительский (многоголосый закадровый) (Синема УС)"],"quality":"webdl","translation":"Любительский (многоголосый закадровый) (Синема УС)","update":"2019-10-22 16:06:10","iframe_src":"//5322.svetacdn.in/IAF0wWTdNYZm/movie/32166"},{"id":32165,"title":"Любовь, осень и порядок","kp_id":"1297456","imdb_id":"tt10887504","world_art_id":null,"type":"movie","add":"2019-10-20 19:03:51","orig_title":"Love, Fall & Order","year":"2019-10-12","translations":["Любительский (многоголосый закадровый) (Синема УС)"],"quality":"webdl","translation":"Любительский (многоголосый закадровый) (Синема УС)","update":"2019-10-22 16:20:47","iframe_src":"//5322.svetacdn.in/IAF0wWTdNYZm/movie/32165"},{"id":32161,"title":"Дедкон","kp_id":"1096370","imdb_id":"tt7262990","world_art_id":null,"type":"movie","add":"2019-10-20 18:46:00","orig_title":"Deadcon","year":"2019-06-15","translations":["Любительский (многоголосый закадровый) (Синема УС)"],"quality":"webdl","translation":"Любительский (многоголосый закадровый) (Синема УС)","update":"2019-10-22 16:14:48","iframe_src":"//5322.svetacdn.in/IAF0wWTdNYZm/movie/32161"},{"id":32160,"title":"Храбрые инопланетяне","kp_id":"1312536","imdb_id":"tt11127380","world_art_id":null,"type":"movie","add":"2019-10-20 18:44:47","orig_title":"Amazing Aliens","year":"2019-10-15","translations":["Любительский (многоголосый закадровый) (Синема УС)"],"quality":"webdl","translation":"Любительский (многоголосый закадровый) (Синема УС)","update":"2019-10-22 16:13:36","iframe_src":"//5322.svetacdn.in/IAF0wWTdNYZm/movie/32160"},{"id":32116,"title":"Побег. Остановите эту свадьбу","kp_id":"1274088","imdb_id":"tt10466908","world_art_id":null,"type":"movie","add":"2019-10-20 13:18:49","orig_title":"Sham Love Series: Escape - Stop That Wedding","year":"2019-08-28","translations":["Любительский (многоголосый закадровый) (Синема УС)"],"quality":"webdl","translation":"Любительский (многоголосый закадровый) (Синема УС)","update":"2019-10-21 14:02:00","iframe_src":"//5322.svetacdn.in/IAF0wWTdNYZm/movie/32116"},{"id":32062,"title":"Элай","kp_id":"1043877","imdb_id":"tt5294518","world_art_id":null,"type":"movie","add":"2019-10-20 08:27:00","orig_title":"Eli","year":"2019-10-18","translations":["Любительский (многоголосый закадровый) (Hamster Studio)","Профессиональный (многоголосый закадровый) (AlphaProject)"],"quality":"webdl","translation":"Любительский (многоголосый закадровый) (Hamster Studio)","update":"2019-10-22 16:19:04","iframe_src":"//5322.svetacdn.in/IAF0wWTdNYZm/movie/32062"},{"id":32011,"title":"Любовные похождения блондинки","kp_id":"14972","imdb_id":"tt0059415","world_art_id":null,"type":"movie","add":"2019-10-18 18:20:29","orig_title":"Lásky jedné plavovlásky","year":"1965-08-26","translations":["Профессиональный (многоголосый закадровый)"],"quality":"dvdrip","translation":"Профессиональный (многоголосый закадровый)","update":"2019-10-21 14:04:36","iframe_src":"//5322.svetacdn.in/IAF0wWTdNYZm/movie/32011"},{"id":32010,"title":"Месть блондинки","kp_id":"21658","imdb_id":"tt0111600","world_art_id":null,"type":"movie","add":"2019-10-18 18:17:44","orig_title":"La vengeance d'une blonde","year":"1994-01-26","translations":["Профессиональный (многоголосый закадровый)"],"quality":"dvdrip","translation":"Профессиональный (многоголосый закадровый)","update":"2019-10-21 14:03:59","iframe_src":"//5322.svetacdn.in/IAF0wWTdNYZm/movie/32010"},{"id":32009,"title":"Пан Володыевский","kp_id":"79672","imdb_id":"tt0064785","world_art_id":null,"type":"movie","add":"2019-10-18 18:14:48","orig_title":"Pan Wolodyjowski","year":"1969-03-28","translations":["Полное дублирование"],"quality":"bd","translation":"Полное дублирование","update":"2019-10-21 14:03:08","iframe_src":"//5322.svetacdn.in/IAF0wWTdNYZm/movie/32009"},{"id":31504,"title":"Трое из ада","kp_id":"1118117","imdb_id":"tt8134742","world_art_id":null,"type":"movie","add":"2019-10-05 18:54:38","orig_title":"Three from Hell","year":"2019-09-15","translations":["Профессиональный (многоголосый закадровый) (AlphaProject)","Любительский (двухголосый закадровый) (LakeFilms)"],"quality":"dvdrip","translation":"Профессиональный (многоголосый закадровый) (AlphaProject)","update":"2019-10-22 16:24:05","iframe_src":"//5322.svetacdn.in/IAF0wWTdNYZm/movie/31504"}],"current_page":1130,"first_page_url":"https://videocdn.tv/api/short?limit=100&api_token=6Onb1W1alEUrBcKJZD3GoKBbWyAl2uG2&cache31130=31130&page=1","from":112901,"last_page":632,"last_page_url":"https://videocdn.tv/api/short?limit=100&api_token=6Onb1W1alEUrBcKJZD3GoKBbWyAl2uG2&cache31130=31130&page=632","next_page_url":null,"path":"https://videocdn.tv/api/short","per_page":100,"prev_page_url":"https://videocdn.tv/api/short?limit=100&api_token=6Onb1W1alEUrBcKJZD3GoKBbWyAl2uG2&cache31130=31130&page=1129","to":112920,"total":63120}