{"result":true,"data":[{"id":44698,"title":"Нечеловеческая природа","kp_id":null,"imdb_id":"tt7637160","world_art_id":null,"type":"movie","add":"2020-10-22 19:04:47","orig_title":"Unhuman Nature","year":"2020-10-01","translations":["Любительский (многоголосый закадровый) (@MUZOBOZ@)"],"quality":"webdl","translation":"Любительский (многоголосый закадровый) (@MUZOBOZ@)","update":"2020-10-23 03:02:27","iframe_src":"//8543.svetacdn.in/71tsRs29n5tZ/movie/44698"},{"id":44696,"title":"Первая любовь навсегда","kp_id":"1274437","imdb_id":"tt10485148","world_art_id":null,"type":"movie","add":"2020-10-22 18:48:35","orig_title":"Sage of Time","year":"2020-05-17","translations":["Любительский (многоголосый закадровый) (@MUZOBOZ@)"],"quality":"webdl","translation":"Любительский (многоголосый закадровый) (@MUZOBOZ@)","update":"2020-10-23 03:01:07","iframe_src":"//8543.svetacdn.in/71tsRs29n5tZ/movie/44696"},{"id":44692,"title":"Метеорит","kp_id":"1405961","imdb_id":"tt13021916","world_art_id":null,"type":"movie","add":"2020-10-22 18:32:12","orig_title":"Meteorite","year":"2020-10-21","translations":["Оригинальная дорожка"],"quality":"webdl","translation":"Оригинальная дорожка","update":"2020-10-23 02:58:05","iframe_src":"//8543.svetacdn.in/71tsRs29n5tZ/movie/44692"},{"id":44677,"title":"Смерть от тысячи порезов","kp_id":"1364598","imdb_id":"tt12029164","world_art_id":null,"type":"movie","add":"2020-10-22 10:14:16","orig_title":"Death by 1000 Cuts","year":"2020-09-22","translations":["Любительский (многоголосый закадровый) (@MUZOBOZ@)"],"quality":"webdl","translation":"Любительский (многоголосый закадровый) (@MUZOBOZ@)","update":"2020-10-22 15:02:33","iframe_src":"//8543.svetacdn.in/71tsRs29n5tZ/movie/44677"},{"id":44656,"title":"Бабье царство","kp_id":"164776","imdb_id":"tt0056310","world_art_id":null,"type":"movie","add":"2020-10-21 07:37:03","orig_title":"Onna no za","year":"1962-01-14","translations":["Любительский (многоголосый закадровый) (STEPonee)"],"quality":"webdl","translation":"Любительский (многоголосый закадровый) (STEPonee)","update":"2020-10-22 16:00:07","iframe_src":"//8543.svetacdn.in/71tsRs29n5tZ/movie/44656"},{"id":44655,"title":"Доверие","kp_id":"36158","imdb_id":"tt0078868","world_art_id":null,"type":"movie","add":"2020-10-21 07:34:09","orig_title":"Bizalom","year":"1980-01-10","translations":["Любительский (одноголосый закадровый)"],"quality":"bd","translation":"Любительский (одноголосый закадровый)","update":"2020-10-22 19:35:23","iframe_src":"//8543.svetacdn.in/71tsRs29n5tZ/movie/44655"},{"id":44641,"title":"Утопающая","kp_id":"1226755","imdb_id":"tt9506000","world_art_id":null,"type":"movie","add":"2020-10-20 18:04:15","orig_title":"Drowning","year":"2019-10-20","translations":["Любительский (многоголосый закадровый) (@MUZOBOZ@)"],"quality":"webdl","translation":"Любительский (многоголосый закадровый) (@MUZOBOZ@)","update":"2020-10-22 15:07:41","iframe_src":"//8543.svetacdn.in/71tsRs29n5tZ/movie/44641"},{"id":44638,"title":"Шумовая полоса","kp_id":"1292226","imdb_id":"tt10765876","world_art_id":null,"type":"movie","add":"2020-10-20 17:56:22","orig_title":"Rumble Strip","year":"2019-07-30","translations":["Любительский (многоголосый закадровый) (@MUZOBOZ@)"],"quality":"webdl","translation":"Любительский (многоголосый закадровый) (@MUZOBOZ@)","update":"2020-10-22 15:56:46","iframe_src":"//8543.svetacdn.in/71tsRs29n5tZ/movie/44638"},{"id":44627,"title":"Тайны дворцовых переворотов. Россия, век XVIII. Фильм 3. Я — император","kp_id":"448751","imdb_id":"tt4326654","world_art_id":null,"type":"movie","add":"2020-10-20 14:30:32","orig_title":"Ya - imperator","year":"2001-01-01","translations":["Оригинальная дорожка"],"quality":"webdl","translation":"Оригинальная дорожка","update":"2020-10-22 13:21:01","iframe_src":"//8543.svetacdn.in/71tsRs29n5tZ/movie/44627"},{"id":44626,"title":"Тайны дворцовых переворотов. Россия, век XVIII. Фильм 2. Завещание императрицы","kp_id":"447696","imdb_id":"tt4326652","world_art_id":null,"type":"movie","add":"2020-10-20 14:29:38","orig_title":"Zaveshchanie imperatritsy","year":"2000-01-01","translations":["Оригинальная дорожка"],"quality":"webdl","translation":"Оригинальная дорожка","update":"2020-10-22 13:22:19","iframe_src":"//8543.svetacdn.in/71tsRs29n5tZ/movie/44626"},{"id":44625,"title":"Тайны дворцовых переворотов. Россия, век XVIII. Фильм 1. Завещание императора","kp_id":"40743","imdb_id":"tt4326648","world_art_id":null,"type":"movie","add":"2020-10-20 14:28:51","orig_title":"Zaveshchanie imperatora","year":"2000-01-01","translations":["Оригинальная дорожка"],"quality":"webdl","translation":"Оригинальная дорожка","update":"2020-10-22 13:23:19","iframe_src":"//8543.svetacdn.in/71tsRs29n5tZ/movie/44625"},{"id":44525,"title":"Осень в семействе Кохаягава","kp_id":"99944","imdb_id":"tt0055052","world_art_id":null,"type":"movie","add":"2020-10-17 09:02:31","orig_title":"Kohayagawa-ke no aki","year":"1961-10-29","translations":["Любительский (многоголосый закадровый) (STEPonee)"],"quality":"webdl","translation":"Любительский (многоголосый закадровый) (STEPonee)","update":"2020-10-23 07:11:15","iframe_src":"//8543.svetacdn.in/71tsRs29n5tZ/movie/44525"},{"id":44524,"title":"Цветы Хиган","kp_id":"175119","imdb_id":"tt0051720","world_art_id":null,"type":"movie","add":"2020-10-17 08:49:00","orig_title":"Higanbana","year":"1958-09-07","translations":["Авторский (одноголосый закадровый) (Воротилин Олег)"],"quality":"bd","translation":"Авторский (одноголосый закадровый) (Воротилин Олег)","update":"2020-10-23 07:13:48","iframe_src":"//8543.svetacdn.in/71tsRs29n5tZ/movie/44524"},{"id":44523,"title":"Обломок империи","kp_id":"42695","imdb_id":"tt0020232","world_art_id":null,"type":"movie","add":"2020-10-17 08:10:32","orig_title":"Oblomok imperii","year":"1930-01-25","translations":["Оригинальная дорожка"],"quality":"bd","translation":"Оригинальная дорожка","update":"2020-10-23 07:13:12","iframe_src":"//8543.svetacdn.in/71tsRs29n5tZ/movie/44523"},{"id":42903,"title":"Кутёж","kp_id":"1307468","imdb_id":"tt10994688","world_art_id":null,"type":"movie","add":"2020-08-29 06:23:20","orig_title":"The Binge","year":"2020-08-28","translations":["Любительский (многоголосый закадровый) (@MUZOBOZ@)","Original (English)","Любительский (многоголосый закадровый) (@MUZOBOZ@)"],"quality":"webdl","translation":"Любительский (многоголосый закадровый) (@MUZOBOZ@)","update":"2020-10-23 07:02:09","iframe_src":"//8543.svetacdn.in/71tsRs29n5tZ/movie/42903"},{"id":38998,"title":"Пастушья кукла","kp_id":"427566","imdb_id":"tt1296077","world_art_id":null,"type":"movie","add":"2020-04-07 11:48:57","orig_title":"Sennentuntschi","year":"2010-09-23","translations":["Любительский (многоголосый закадровый)","Авторский (одноголосый закадровый) (Визгунов Сергей)"],"quality":"bd","translation":"Любительский (многоголосый закадровый)","update":"2020-10-22 15:58:31","iframe_src":"//8543.svetacdn.in/71tsRs29n5tZ/movie/38998"},{"id":33064,"title":"Аэронавты","kp_id":"1108495","imdb_id":"tt6141246","world_art_id":null,"type":"movie","add":"2019-11-13 11:28:06","orig_title":"The Aeronauts","year":"2019-08-30","translations":["Полное дублирование","Original (English)","Любительский (многоголосый закадровый) (Mallorn Studio)","Авторский (одноголосый закадровый) (Сербин Юрий)"],"quality":"webdl","translation":"Полное дублирование","update":"2020-10-23 07:03:36","iframe_src":"//8543.svetacdn.in/71tsRs29n5tZ/movie/33064"},{"id":5603,"title":"Миллионер из Балашихи","kp_id":"1270744","imdb_id":null,"world_art_id":null,"type":"serial","add":"2019-11-02 10:26:09","orig_title":"Миллионер из Балашихи","year":"2019-02-25","translations":["Оригинальная дорожка"],"seasons_count":1,"episodes_count":6,"episodes":6,"update":"2019-11-02 22:29:22","iframe_src":"//8543.svetacdn.in/71tsRs29n5tZ/tv-series/5603"},{"id":5586,"title":"Без координат","kp_id":"496833","imdb_id":"tt1587694","world_art_id":null,"type":"serial","add":"2019-10-30 19:52:59","orig_title":"Off the Map","year":"2011-01-12","translations":["Профессиональный (многоголосый закадровый) (Fox Life)"],"seasons_count":1,"episodes_count":13,"episodes":13,"update":"2019-11-02 20:49:37","iframe_src":"//8543.svetacdn.in/71tsRs29n5tZ/tv-series/5586"},{"id":5585,"title":"Пером и шпагой","kp_id":"410939","imdb_id":"tt1266428","world_art_id":null,"type":"serial","add":"2019-10-30 19:49:34","orig_title":"Perom i shpagoy","year":"2008-05-30","translations":["Оригинальная дорожка"],"seasons_count":1,"episodes_count":12,"episodes":12,"update":"2019-11-02 20:36:16","iframe_src":"//8543.svetacdn.in/71tsRs29n5tZ/tv-series/5585"},{"id":5583,"title":"Прятки","kp_id":"1236291","imdb_id":"tt9612028","world_art_id":null,"type":"serial","add":"2019-10-30 17:59:49","orig_title":"Pryatki","year":"2019-10-01","translations":["Оригинальная дорожка"],"seasons_count":1,"episodes_count":8,"episodes":8,"update":"2019-11-02 15:15:35","iframe_src":"//8543.svetacdn.in/71tsRs29n5tZ/tv-series/5583"},{"id":5582,"title":"Самурай и кошка","kp_id":"897908","imdb_id":"tt3303752","world_art_id":null,"type":"serial","add":"2019-10-30 11:59:22","orig_title":"Neko zamurai","year":"2013-10-13","translations":["Любительский (одноголосый закадровый) (Arisu)"],"seasons_count":1,"episodes_count":12,"episodes":12,"update":"2019-11-02 11:46:24","iframe_src":"//8543.svetacdn.in/71tsRs29n5tZ/tv-series/5582"},{"id":5581,"title":"В июне 1941","kp_id":"395688","imdb_id":"tt1270849","world_art_id":null,"type":"serial","add":"2019-10-30 11:54:31","orig_title":"V iyune 41-go","year":"2008-05-09","translations":["Оригинальная дорожка"],"seasons_count":1,"episodes_count":4,"episodes":4,"update":"2019-11-02 11:44:56","iframe_src":"//8543.svetacdn.in/71tsRs29n5tZ/tv-series/5581"},{"id":5579,"title":"Тяжёлый понедельник","kp_id":"666942","imdb_id":"tt2217759","world_art_id":null,"type":"serial","add":"2019-10-30 11:43:08","orig_title":"Monday Mornings","year":"2013-02-04","translations":["Профессиональный (многоголосый закадровый) (Fox Life)"],"seasons_count":1,"episodes_count":10,"episodes":10,"update":"2019-11-02 11:42:39","iframe_src":"//8543.svetacdn.in/71tsRs29n5tZ/tv-series/5579"},{"id":5573,"title":"Прилив","kp_id":"798323","imdb_id":"tt3150586","world_art_id":null,"type":"serial","add":"2019-10-29 19:54:53","orig_title":"Medcezir","year":"2013-09-13","translations":["Любительский (двухголосый закадровый)","Любительский (одноголосый закадровый)"],"seasons_count":2,"episodes_count":77,"episodes":39,"update":"2019-11-02 11:28:59","iframe_src":"//8543.svetacdn.in/71tsRs29n5tZ/tv-series/5573"},{"id":5493,"title":"Екатерина. Самозванцы","kp_id":"1197730","imdb_id":null,"world_art_id":null,"type":"serial","add":"2019-10-19 06:25:03","orig_title":"Екатерина. Самозванцы","year":"2019-10-21","translations":["Оригинальная дорожка"],"seasons_count":1,"episodes_count":16,"episodes":16,"update":"2019-11-02 11:30:27","iframe_src":"//8543.svetacdn.in/71tsRs29n5tZ/tv-series/5493"},{"id":5192,"title":"Земля I","kp_id":"1198384","imdb_id":"tt9067020","world_art_id":null,"type":"serial","add":"2019-09-12 15:19:37","orig_title":"The I-Land","year":"2019-09-12","translations":["Полное дублирование (Невафильм)","Профессиональный (многоголосый закадровый) (HDrezka Studio)"],"seasons_count":1,"episodes_count":7,"episodes":7,"update":"2019-11-03 08:26:04","iframe_src":"//8543.svetacdn.in/71tsRs29n5tZ/tv-series/5192"},{"id":5008,"title":"BH90210","kp_id":"1167800","imdb_id":"tt8179162","world_art_id":null,"type":"serial","add":"2019-08-08 03:43:13","orig_title":"BH90210","year":"2019-08-07","translations":["Профессиональный (многоголосый закадровый) (LostFilm)","Профессиональный (многоголосый закадровый) (TVShows)","Профессиональный (многоголосый закадровый) (HDrezka Studio)"],"seasons_count":1,"episodes_count":6,"episodes":6,"update":"2019-11-01 17:54:57","iframe_src":"//8543.svetacdn.in/71tsRs29n5tZ/tv-series/5008"},{"id":25712,"title":"Моя любовь","kp_id":"46718","imdb_id":"tt0032812","world_art_id":null,"type":"movie","add":"2019-04-30 10:09:31","orig_title":"Moya lyubov","year":"1940-07-08","translations":["Оригинальная дорожка","Оригинальная дорожка"],"quality":"dvdrip","translation":"Оригинальная дорожка","update":"2020-10-22 13:39:06","iframe_src":"//8543.svetacdn.in/71tsRs29n5tZ/movie/25712"},{"id":3009,"title":"Ложа 49","kp_id":"1177507","imdb_id":"tt6128254","world_art_id":null,"type":"serial","add":"2018-08-09 05:19:25","orig_title":"Lodge 49","year":"2018-08-06","translations":["Любительский (двухголосый закадровый) (Sunshine Studio)","Профессиональный (многоголосый закадровый) (NewStudio)","Профессиональный (многоголосый закадровый) (HDrezka Studio)"],"seasons_count":2,"episodes_count":20,"episodes":10,"update":"2019-11-02 08:58:00","iframe_src":"//8543.svetacdn.in/71tsRs29n5tZ/tv-series/3009"},{"id":2729,"title":"Наследники","kp_id":"986788","imdb_id":"tt7660850","world_art_id":null,"type":"serial","add":"2018-06-04 12:11:09","orig_title":"Succession","year":"2018-06-03","translations":["Профессиональный (многоголосый закадровый) (Amedia)","Профессиональный (многоголосый закадровый) (NewStudio)","Профессиональный (многоголосый закадровый) (HDrezka Studio)","Профессиональный (многоголосый закадровый) (TVShows)"],"seasons_count":2,"episodes_count":20,"episodes":10,"update":"2019-11-01 19:31:14","iframe_src":"//8543.svetacdn.in/71tsRs29n5tZ/tv-series/2729"},{"id":2283,"title":"Так близко","kp_id":"1112879","imdb_id":"tt8036816","world_art_id":null,"type":"serial","add":"2018-03-29 10:32:03","orig_title":"This Close","year":"2018-02-14","translations":["Профессиональный (многоголосый закадровый) (NewStudio)","Профессиональный (многоголосый закадровый) (HDrezka Studio)","Профессиональный (многоголосый закадровый) (BaibaKo)"],"seasons_count":2,"episodes_count":14,"episodes":8,"update":"2019-11-02 08:29:01","iframe_src":"//8543.svetacdn.in/71tsRs29n5tZ/tv-series/2283"},{"id":1334,"title":"Блеск","kp_id":"1037450","imdb_id":"tt5770786","world_art_id":null,"type":"serial","add":"2017-06-27 11:16:35","orig_title":"GLOW","year":"2017-06-23","translations":["Профессиональный (многоголосый закадровый) (BaibaKo)","Профессиональный (многоголосый закадровый) (HDrezka Studio)","Профессиональный (многоголосый закадровый) (Good People)","Профессиональный (многоголосый закадровый) (NewStudio)"],"seasons_count":3,"episodes_count":30,"episodes":10,"update":"2019-11-01 19:10:13","iframe_src":"//8543.svetacdn.in/71tsRs29n5tZ/tv-series/1334"},{"id":1152,"title":"Куртизанки","kp_id":"1007866","imdb_id":"tt5761478","world_art_id":null,"type":"serial","add":"2017-03-30 12:34:20","orig_title":"Harlots","year":"2017-03-27","translations":["Любительский (двухголосый закадровый) (Sunshine Studio)","Профессиональный (многоголосый закадровый) (HDrezka Studio)","Профессиональный (многоголосый закадровый) (SunshineStudio)","Профессиональный (многоголосый закадровый) (TVShows)"],"seasons_count":3,"episodes_count":24,"episodes":8,"update":"2019-11-01 19:01:36","iframe_src":"//8543.svetacdn.in/71tsRs29n5tZ/tv-series/1152"},{"id":661,"title":"Развод","kp_id":"883270","imdb_id":"tt4304864","world_art_id":null,"type":"serial","add":"2016-12-05 12:26:54","orig_title":"Divorce","year":"2016-10-09","translations":["Профессиональный (многоголосый закадровый) (NewStudio)","Профессиональный (многоголосый закадровый) (HDrezka Studio)"],"seasons_count":3,"episodes_count":24,"episodes":6,"update":"2019-11-03 08:58:58","iframe_src":"//8543.svetacdn.in/71tsRs29n5tZ/tv-series/661"},{"id":7191,"title":"Скуби-Ду 4: Проклятье озерного монстра","kp_id":"503358","imdb_id":"tt1618435","world_art_id":null,"type":"movie","add":"2016-11-08 08:53:51","orig_title":"Scooby-Doo! Curse of the Lake Monster","year":"2010-10-16","translations":["Любительский (двухголосый закадровый)","Любительский (многоголосый закадровый) (Jetvis Studio)","Полное дублирование (Пифагор)","Original (English)"],"quality":"bd","translation":"Любительский (двухголосый закадровый)","update":"2020-10-23 07:10:20","iframe_src":"//8543.svetacdn.in/71tsRs29n5tZ/movie/7191"},{"id":342,"title":"Футболисты","kp_id":"762087","imdb_id":"tt2891574","world_art_id":null,"type":"serial","add":"2016-08-17 10:48:04","orig_title":"Ballers","year":"2015-06-21","translations":["Профессиональный (многоголосый закадровый) (Amedia)","Любительский (многоголосый закадровый) (Octopus)","Профессиональный (многоголосый закадровый) (HDrezka Studio)"],"seasons_count":5,"episodes_count":47,"episodes":8,"update":"2019-11-01 19:47:06","iframe_src":"//8543.svetacdn.in/71tsRs29n5tZ/tv-series/342"},{"id":203,"title":"Оранжевый — хит сезона","kp_id":"767164","imdb_id":"tt2372162","world_art_id":null,"type":"serial","add":"2016-06-19 13:04:38","orig_title":"Orange Is the New Black","year":"2013-07-11","translations":["Профессиональный (многоголосый закадровый) (NewStudio)","Любительский (многоголосый закадровый) (ColdFilm)","Профессиональный (многоголосый закадровый) (HDrezka Studio)"],"seasons_count":7,"episodes_count":91,"episodes":13,"update":"2019-11-01 18:02:17","iframe_src":"//8543.svetacdn.in/71tsRs29n5tZ/tv-series/203"},{"id":116,"title":"Крик","kp_id":"841605","imdb_id":"tt3921180","world_art_id":null,"type":"serial","add":"2016-05-31 12:16:11","orig_title":"Scream: The TV Series","year":"2015-06-30","translations":["Профессиональный (многоголосый закадровый) (LostFilm)","Профессиональный (многоголосый закадровый) (HDrezka Studio)"],"seasons_count":3,"episodes_count":29,"episodes":6,"update":"2019-11-01 19:21:05","iframe_src":"//8543.svetacdn.in/71tsRs29n5tZ/tv-series/116"},{"id":2740,"title":"Самый жестокий год","kp_id":"765147","imdb_id":"tt2937898","world_art_id":null,"type":"movie","add":"2016-05-30 21:58:15","orig_title":"A Most Violent Year","year":"2014-11-06","translations":["Любительский (двухголосый закадровый) (ColdFilm)","Любительский (одноголосый закадровый)","Original (English)","Профессиональный (многоголосый закадровый) (iTunes)"],"quality":"bd","translation":"Любительский (двухголосый закадровый) (ColdFilm)","update":"2020-10-23 07:06:14","iframe_src":"//8543.svetacdn.in/71tsRs29n5tZ/movie/2740"}],"current_page":291,"first_page_url":"https://videocdn.tv/api/short?limit=100&api_token=EnbO9h8pv1VyjbCJhg0WM9nG259n7mtz&cache3291=3291&page=1","from":29001,"last_page":602,"last_page_url":"https://videocdn.tv/api/short?limit=100&api_token=EnbO9h8pv1VyjbCJhg0WM9nG259n7mtz&cache3291=3291&page=602","next_page_url":"https://videocdn.tv/api/short?limit=100&api_token=EnbO9h8pv1VyjbCJhg0WM9nG259n7mtz&cache3291=3291&page=292","path":"https://videocdn.tv/api/short","per_page":100,"prev_page_url":"https://videocdn.tv/api/short?limit=100&api_token=EnbO9h8pv1VyjbCJhg0WM9nG259n7mtz&cache3291=3291&page=290","to":29040,"total":60177}