{"result":true,"data":[{"id":44911,"title":"Жестокий","kp_id":"309777","imdb_id":"tt1018877","world_art_id":null,"type":"movie","add":"2020-10-29 21:51:34","orig_title":"Brutal","year":"2007-07-10","translations":["Профессиональный (многоголосый закадровый)"],"quality":"dvdrip","translation":"Профессиональный (многоголосый закадровый)","update":"2020-10-29 22:21:47","iframe_src":"//83.svetacdn.in/PfJ50H0ZBPg3/movie/44911"},{"id":44909,"title":"С. О. С.","kp_id":"1298770","imdb_id":"tt10852686","world_art_id":null,"type":"movie","add":"2020-10-29 18:23:51","orig_title":"S.O.S. Survive or Sacrifice","year":"2020-10-28","translations":["Любительский (многоголосый закадровый) (@MUZOBOZ@)"],"quality":"webdl","translation":"Любительский (многоголосый закадровый) (@MUZOBOZ@)","update":"2020-10-30 07:06:27","iframe_src":"//83.svetacdn.in/PfJ50H0ZBPg3/movie/44909"},{"id":44906,"title":"Кровавый новый год","kp_id":"106939","imdb_id":"tt0092676","world_art_id":null,"type":"movie","add":"2020-10-29 17:54:28","orig_title":"Bloody New Year","year":"1987-05-11","translations":["Любительский (одноголосый закадровый)"],"quality":"dvdrip","translation":"Любительский (одноголосый закадровый)","update":"2020-10-29 19:47:53","iframe_src":"//83.svetacdn.in/PfJ50H0ZBPg3/movie/44906"},{"id":44896,"title":"Квартал ужаса Снуп Догга","kp_id":"179241","imdb_id":"tt0475298","world_art_id":null,"type":"movie","add":"2020-10-29 17:26:52","orig_title":"Hood of Horror","year":"2006-06-27","translations":["Профессиональный (многоголосый закадровый)"],"quality":"dvdrip","translation":"Профессиональный (многоголосый закадровый)","update":"2020-10-29 18:22:00","iframe_src":"//83.svetacdn.in/PfJ50H0ZBPg3/movie/44896"},{"id":44895,"title":"Вот как это началось","kp_id":"595965","imdb_id":"tt1830477","world_art_id":null,"type":"movie","add":"2020-10-29 17:23:35","orig_title":"Ala Modalaindi","year":"2011-01-21","translations":["Профессиональный (многоголосый закадровый) (Red Media)"],"quality":"webdl","translation":"Профессиональный (многоголосый закадровый) (Red Media)","update":"2020-10-29 22:41:37","iframe_src":"//83.svetacdn.in/PfJ50H0ZBPg3/movie/44895"},{"id":44893,"title":"Смертоносный сломанный меч","kp_id":"198676","imdb_id":"tt0079148","world_art_id":null,"type":"movie","add":"2020-10-29 17:12:45","orig_title":"Feng liu duan jian xiao xiao dao","year":"1979-04-12","translations":["Авторский (одноголосый закадровый) (Кузнецов Сергей)"],"quality":"webdl","translation":"Авторский (одноголосый закадровый) (Кузнецов Сергей)","update":"2020-10-29 22:25:57","iframe_src":"//83.svetacdn.in/PfJ50H0ZBPg3/movie/44893"},{"id":44892,"title":"Гонщик","kp_id":"1270726","imdb_id":"tt8374436","world_art_id":null,"type":"movie","add":"2020-10-29 12:56:21","orig_title":"The Racer","year":"2020-03-13","translations":["Любительский (многоголосый закадровый) (@MUZOBOZ@)"],"quality":"webdl","translation":"Любительский (многоголосый закадровый) (@MUZOBOZ@)","update":"2020-10-29 16:54:39","iframe_src":"//83.svetacdn.in/PfJ50H0ZBPg3/movie/44892"},{"id":44891,"title":"Голоса","kp_id":null,"imdb_id":"tt8640928","world_art_id":null,"type":"movie","add":"2020-10-29 11:04:22","orig_title":"Voices","year":"2020-10-28","translations":["Любительский (многоголосый закадровый) (@MUZOBOZ@)"],"quality":"webdl","translation":"Любительский (многоголосый закадровый) (@MUZOBOZ@)","update":"2020-10-29 14:16:15","iframe_src":"//83.svetacdn.in/PfJ50H0ZBPg3/movie/44891"},{"id":44890,"title":"Восхождение убийцы","kp_id":"1389444","imdb_id":"tt12452630","world_art_id":null,"type":"movie","add":"2020-10-29 10:08:33","orig_title":"A Killer Rising","year":"2020-08-10","translations":["Любительский (многоголосый закадровый) (@MUZOBOZ@)"],"quality":"webdl","translation":"Любительский (многоголосый закадровый) (@MUZOBOZ@)","update":"2020-10-29 22:14:29","iframe_src":"//83.svetacdn.in/PfJ50H0ZBPg3/movie/44890"},{"id":44889,"title":"11 секунд","kp_id":"761715","imdb_id":"tt2890616","world_art_id":null,"type":"movie","add":"2020-10-29 10:00:41","orig_title":"Acquitted by Faith","year":"2020-02-20","translations":["Любительский (многоголосый закадровый) (@MUZOBOZ@)"],"quality":"webdl","translation":"Любительский (многоголосый закадровый) (@MUZOBOZ@)","update":"2020-10-30 06:27:13","iframe_src":"//83.svetacdn.in/PfJ50H0ZBPg3/movie/44889"},{"id":44865,"title":"Черные в Миннеаполисе","kp_id":"1180471","imdb_id":"tt8810748","world_art_id":null,"type":"movie","add":"2020-10-28 11:54:28","orig_title":"Black in Minneapolis","year":"2019-02-01","translations":["Любительский (многоголосый закадровый) (AlphaProject)"],"quality":"webdl","translation":"Любительский (многоголосый закадровый) (AlphaProject)","update":"2020-10-30 06:35:55","iframe_src":"//83.svetacdn.in/PfJ50H0ZBPg3/movie/44865"},{"id":41303,"title":"Чудо-детки: Непутевые волшебники","kp_id":"1207341","imdb_id":"tt9208214","world_art_id":null,"type":"movie","add":"2020-06-19 19:43:55","orig_title":"Die Wolf-Gäng","year":"2020-01-23","translations":["Любительский (многоголосый закадровый) (AlphaProject)","Полное дублирование","Полное дублирование (iTunes)"],"quality":"webdl","translation":"Любительский (многоголосый закадровый) (AlphaProject)","update":"2020-10-29 09:20:50","iframe_src":"//83.svetacdn.in/PfJ50H0ZBPg3/movie/41303"},{"id":38238,"title":"Американский бизон","kp_id":"4516","imdb_id":"tt0115530","world_art_id":null,"type":"movie","add":"2020-03-19 13:06:48","orig_title":"American Buffalo","year":"1996-09-12","translations":["Авторский (одноголосый закадровый) (Карцев Пётр)","Авторский (одноголосый закадровый) (Карцев Пётр)","Original (English)","Профессиональный (двухголосый закадровый)"],"quality":"dvdrip","translation":"Авторский (одноголосый закадровый) (Карцев Пётр)","update":"2020-10-30 06:07:46","iframe_src":"//83.svetacdn.in/PfJ50H0ZBPg3/movie/38238"},{"id":22606,"title":"Белое вино из Баббудойу","kp_id":"973096","imdb_id":"tt5551590","world_art_id":null,"type":"movie","add":"2019-02-28 20:34:31","orig_title":"Bianco di Babbudoiu","year":"2016-03-17","translations":["Профессиональный (многоголосый закадровый)","Профессиональный (многоголосый закадровый) (IVI)"],"quality":"webdl","translation":"Профессиональный (многоголосый закадровый)","update":"2020-10-29 14:51:12","iframe_src":"//83.svetacdn.in/PfJ50H0ZBPg3/movie/22606"},{"id":20606,"title":"Время мелодий","kp_id":"19564","imdb_id":"tt0040580","world_art_id":null,"type":"movie","add":"2018-12-10 11:29:53","orig_title":"Melody Time","year":"1948-05-27","translations":["Полное дублирование"],"quality":"dvdrip","translation":"Полное дублирование","update":"2020-10-29 22:39:54","iframe_src":"//83.svetacdn.in/PfJ50H0ZBPg3/movie/20606"},{"id":7123,"title":"Домашний арест","kp_id":"9387","imdb_id":"tt0116571","world_art_id":null,"type":"movie","add":"2016-11-07 05:17:09","orig_title":"House Arrest","year":"1996-08-14","translations":["Профессиональный (многоголосый закадровый)","Авторский (одноголосый закадровый) (Сербин Юрий)","Original (English)","Профессиональный (двухголосый закадровый) (НТВ)","Профессиональный (многоголосый закадровый) (СТС)","Профессиональный (многоголосый закадровый) (Paramount Channel)","Профессиональный (многоголосый закадровый) (ТВ3)"],"quality":"hdtv","translation":"Профессиональный (многоголосый закадровый)","update":"2020-10-30 06:24:12","iframe_src":"//83.svetacdn.in/PfJ50H0ZBPg3/movie/7123"},{"id":7096,"title":"Страх","kp_id":"6174","imdb_id":"tt0116287","world_art_id":null,"type":"movie","add":"2016-11-06 15:25:45","orig_title":"Fear","year":"1996-04-12","translations":["Полное дублирование","Авторский (одноголосый закадровый) (Кашкин Александр | Первомайский)","Авторский (одноголосый закадровый) (Визгунов Сергей)","Полное дублирование","Original (English)","Профессиональный (многоголосый закадровый) (СТС)","Профессиональный (многоголосый закадровый) (Премьер Видео Фильм)"],"quality":"bd","translation":"Полное дублирование","update":"2020-10-30 07:03:58","iframe_src":"//83.svetacdn.in/PfJ50H0ZBPg3/movie/7096"},{"id":3497,"title":"Побег из Лос-Анджелеса","kp_id":"2906","imdb_id":"tt0116225","world_art_id":null,"type":"movie","add":"2016-06-29 14:32:33","orig_title":"Escape from L.A.","year":"1996-08-09","translations":["Профессиональный (многоголосый закадровый)","Авторский (одноголосый закадровый) (Кашкин Александр | Первомайский)","Авторский (одноголосый закадровый) (Визгунов Сергей)","Авторский (одноголосый закадровый) (Живов Юрий)","Original (English)","Профессиональный (многоголосый закадровый) (СТС)","Профессиональный (многоголосый закадровый) (Киномания)","Профессиональный (многоголосый закадровый) (Премьер Видео Фильм)"],"quality":"bd","translation":"Профессиональный (многоголосый закадровый)","update":"2020-10-29 09:01:30","iframe_src":"//83.svetacdn.in/PfJ50H0ZBPg3/movie/3497"},{"id":1949,"title":"Спящие","kp_id":"4515","imdb_id":"tt0117665","world_art_id":null,"type":"movie","add":"2016-05-07 09:16:41","orig_title":"Sleepers","year":"1996-10-18","translations":["Профессиональный (многоголосый закадровый)","Авторский (одноголосый закадровый) (Гаврилов Андрей)","Авторский (одноголосый закадровый) (Кашкин Александр | Первомайский)","Авторский (одноголосый закадровый) (Сербин Юрий)","Авторский (одноголосый закадровый) (Визгунов Сергей)","Авторский (одноголосый закадровый) (Яроцкий Михаил | Kyberpunk)","Авторский (одноголосый закадровый) (Живов Юрий)","Original (English)","Профессиональный (многоголосый закадровый)","Профессиональный (многоголосый закадровый) (РТР | Россия)"],"quality":"bd","translation":"Профессиональный (многоголосый закадровый)","update":"2020-10-30 06:55:00","iframe_src":"//83.svetacdn.in/PfJ50H0ZBPg3/movie/1949"},{"id":842,"title":"Майкл Коллинз","kp_id":"3461","imdb_id":"tt0117039","world_art_id":null,"type":"movie","add":"2016-04-08 17:40:22","orig_title":"Michael Collins","year":"1996-08-28","translations":["Полное дублирование","Полное дублирование","Авторский (одноголосый закадровый) (Кашкин Александр | Первомайский)","Original (English)"],"quality":"hdtv","translation":"Полное дублирование","update":"2020-10-30 06:57:51","iframe_src":"//83.svetacdn.in/PfJ50H0ZBPg3/movie/842"}],"current_page":560,"first_page_url":"https://videocdn.tv/api/short?limit=100&api_token=RgFQdUIR2dRmwv8iYa5SnFNgnw3vpjKj&cache3560=3560&page=1","from":55901,"last_page":655,"last_page_url":"https://videocdn.tv/api/short?limit=100&api_token=RgFQdUIR2dRmwv8iYa5SnFNgnw3vpjKj&cache3560=3560&page=655","next_page_url":"https://videocdn.tv/api/short?limit=100&api_token=RgFQdUIR2dRmwv8iYa5SnFNgnw3vpjKj&cache3560=3560&page=561","path":"https://videocdn.tv/api/short","per_page":100,"prev_page_url":"https://videocdn.tv/api/short?limit=100&api_token=RgFQdUIR2dRmwv8iYa5SnFNgnw3vpjKj&cache3560=3560&page=559","to":55920,"total":65456}