{"result":true,"data":[{"id":48283,"title":"Искренне твой","kp_id":"1273859","imdb_id":"tt10372548","world_art_id":null,"type":"movie","add":"2021-02-26 16:43:42","orig_title":"Sincerely, Yours, Truly","year":"2020-01-20","translations":["Любительский (многоголосый закадровый) (Синема УС)"],"quality":"hdtv","translation":"Любительский (многоголосый закадровый) (Синема УС)","update":"2021-02-26 23:24:15","iframe_src":"//7043.svetacdn.in/si4jsFRrtgrT/movie/48283"},{"id":48282,"title":"Вечеринка под кровавой луной","kp_id":"4369371","imdb_id":"tt13326736","world_art_id":null,"type":"movie","add":"2021-02-26 16:38:10","orig_title":"Tiec Trang Mau","year":"2020-10-23","translations":["Любительский (многоголосый закадровый) (AlphaProject)"],"quality":"webdl","translation":"Любительский (многоголосый закадровый) (AlphaProject)","update":"2021-02-26 23:21:53","iframe_src":"//7043.svetacdn.in/si4jsFRrtgrT/movie/48282"},{"id":48281,"title":"Игра Лепрекона","kp_id":"1357681","imdb_id":"tt11971932","world_art_id":null,"type":"movie","add":"2021-02-26 16:34:30","orig_title":"Vengeance of the Leprechaun's Gold","year":"2020-11-02","translations":["Любительский (многоголосый закадровый) (Синема УС)"],"quality":"webdl","translation":"Любительский (многоголосый закадровый) (Синема УС)","update":"2021-02-26 23:21:13","iframe_src":"//7043.svetacdn.in/si4jsFRrtgrT/movie/48281"},{"id":48280,"title":"Где царит красота","kp_id":null,"imdb_id":"tt9313816","world_art_id":null,"type":"movie","add":"2021-02-26 16:29:15","orig_title":"The Unlikely Encounter","year":"2020-12-01","translations":["Любительский (многоголосый закадровый) (AlphaProject)"],"quality":"webdl","translation":"Любительский (многоголосый закадровый) (AlphaProject)","update":"2021-02-26 23:23:22","iframe_src":"//7043.svetacdn.in/si4jsFRrtgrT/movie/48280"},{"id":48279,"title":"По шаткой земле","kp_id":"1380688","imdb_id":"tt12293864","world_art_id":null,"type":"movie","add":"2021-02-26 16:14:39","orig_title":"Crossing Shaky Ground","year":"2020-08-20","translations":["Любительский (многоголосый закадровый) (Синема УС)"],"quality":"webdl","translation":"Любительский (многоголосый закадровый) (Синема УС)","update":"2021-02-26 23:23:48","iframe_src":"//7043.svetacdn.in/si4jsFRrtgrT/movie/48279"},{"id":48275,"title":"Правосудие – в паутине власти","kp_id":"1083113","imdb_id":"tt7003320","world_art_id":null,"type":"movie","add":"2021-02-26 15:20:08","orig_title":"Justice - Verstrickt im Netz der Macht","year":"2019-10-31","translations":["Любительский (многоголосый закадровый) (Синема УС)"],"quality":"webdl","translation":"Любительский (многоголосый закадровый) (Синема УС)","update":"2021-02-26 23:25:15","iframe_src":"//7043.svetacdn.in/si4jsFRrtgrT/movie/48275"},{"id":48274,"title":"Кайна","kp_id":null,"imdb_id":"tt6180106","world_art_id":null,"type":"movie","add":"2021-02-26 15:16:35","orig_title":"Caina","year":"2020-07-30","translations":["Любительский (многоголосый закадровый) (Синема УС)"],"quality":"webdl","translation":"Любительский (многоголосый закадровый) (Синема УС)","update":"2021-02-26 23:24:40","iframe_src":"//7043.svetacdn.in/si4jsFRrtgrT/movie/48274"},{"id":48273,"title":"Больше никогда","kp_id":"1311434","imdb_id":"tt11056732","world_art_id":null,"type":"movie","add":"2021-02-26 15:12:16","orig_title":"Never and Again","year":"2021-02-11","translations":["Любительский (многоголосый закадровый) (AlphaProject)"],"quality":"webdl","translation":"Любительский (многоголосый закадровый) (AlphaProject)","update":"2021-02-26 23:22:53","iframe_src":"//7043.svetacdn.in/si4jsFRrtgrT/movie/48273"},{"id":48272,"title":"Можно просто Долапо","kp_id":"1347506","imdb_id":null,"world_art_id":null,"type":"movie","add":"2021-02-26 15:09:17","orig_title":"Dolapo is Fine","year":"2020-01-01","translations":["Любительский (многоголосый закадровый) (Синема УС)"],"quality":"webdl","translation":"Любительский (многоголосый закадровый) (Синема УС)","update":"2021-02-26 23:22:23","iframe_src":"//7043.svetacdn.in/si4jsFRrtgrT/movie/48272"},{"id":48271,"title":"Львиное сердце","kp_id":"1202260","imdb_id":"tt9129166","world_art_id":null,"type":"movie","add":"2021-02-26 15:06:26","orig_title":"Sherdil","year":"2019-09-26","translations":["Любительский (многоголосый закадровый) (Синема УС)"],"quality":"webdl","translation":"Любительский (многоголосый закадровый) (Синема УС)","update":"2021-02-26 23:20:45","iframe_src":"//7043.svetacdn.in/si4jsFRrtgrT/movie/48271"},{"id":48270,"title":"Кардинал","kp_id":"1274662","imdb_id":"tt10501980","world_art_id":null,"type":"movie","add":"2021-02-26 15:02:03","orig_title":"The Cardinal","year":"2019-10-24","translations":["Любительский (многоголосый закадровый) (Синема УС)"],"quality":"webdl","translation":"Любительский (многоголосый закадровый) (Синема УС)","update":"2021-02-26 23:20:21","iframe_src":"//7043.svetacdn.in/si4jsFRrtgrT/movie/48270"},{"id":48269,"title":"Проект \"Сущность\"","kp_id":"1211725","imdb_id":"tt9284386","world_art_id":null,"type":"movie","add":"2021-02-26 11:46:34","orig_title":"Entity Project","year":"2019-08-25","translations":["Любительский (многоголосый закадровый) (Синема УС)"],"quality":"webdl","translation":"Любительский (многоголосый закадровый) (Синема УС)","update":"2021-02-26 22:59:59","iframe_src":"//7043.svetacdn.in/si4jsFRrtgrT/movie/48269"},{"id":48267,"title":"Мы – присяжные","kp_id":"1397056","imdb_id":"tt12821602","world_art_id":null,"type":"movie","add":"2021-02-26 11:35:21","orig_title":"We the Jury: Case 1","year":"2020-12-25","translations":["Любительский (многоголосый закадровый) (Синема УС)"],"quality":"webdl","translation":"Любительский (многоголосый закадровый) (Синема УС)","update":"2021-02-26 22:56:08","iframe_src":"//7043.svetacdn.in/si4jsFRrtgrT/movie/48267"},{"id":48266,"title":"Пьеса","kp_id":"1288044","imdb_id":"tt9028730","world_art_id":null,"type":"movie","add":"2021-02-26 11:31:37","orig_title":"Hra","year":"2019-10-31","translations":["Любительский (многоголосый закадровый) (Синема УС)"],"quality":"webdl","translation":"Любительский (многоголосый закадровый) (Синема УС)","update":"2021-02-26 22:54:22","iframe_src":"//7043.svetacdn.in/si4jsFRrtgrT/movie/48266"},{"id":48265,"title":"Отпуск на Марсе","kp_id":"1396140","imdb_id":"tt12780384","world_art_id":null,"type":"movie","add":"2021-02-26 11:27:10","orig_title":"In vacanza su Marte","year":"2020-12-13","translations":["Любительский (многоголосый закадровый) (Синема УС)"],"quality":"webdl","translation":"Любительский (многоголосый закадровый) (Синема УС)","update":"2021-02-26 22:51:19","iframe_src":"//7043.svetacdn.in/si4jsFRrtgrT/movie/48265"},{"id":48234,"title":"Золотой лотос","kp_id":"24737","imdb_id":"tt0071567","world_art_id":null,"type":"movie","add":"2021-02-24 19:47:41","orig_title":"Jin ping shuang yan","year":"1974-01-17","translations":["Любительский (одноголосый закадровый)"],"quality":"bd","translation":"Любительский (одноголосый закадровый)","update":"2021-02-26 21:09:01","iframe_src":"//7043.svetacdn.in/si4jsFRrtgrT/movie/48234"},{"id":48233,"title":"Сумеречная зона","kp_id":"7115","imdb_id":"tt0086491","world_art_id":null,"type":"movie","add":"2021-02-24 19:44:07","orig_title":"Twilight Zone: The Movie","year":"1983-06-24","translations":["Профессиональный (многоголосый закадровый) (СВ-Дубль)"],"quality":"bd","translation":"Профессиональный (многоголосый закадровый) (СВ-Дубль)","update":"2021-02-26 21:09:26","iframe_src":"//7043.svetacdn.in/si4jsFRrtgrT/movie/48233"},{"id":48226,"title":"Тёмные фигуры","kp_id":"1174422","imdb_id":"tt8373010","world_art_id":null,"type":"movie","add":"2021-02-24 14:58:13","orig_title":"Dark Figures","year":"2020-09-03","translations":["Любительский (одноголосый закадровый) (datynet)","Любительский (многоголосый закадровый) (Синема УС)"],"quality":"webdl","translation":"Любительский (одноголосый закадровый) (datynet)","update":"2021-02-26 22:54:55","iframe_src":"//7043.svetacdn.in/si4jsFRrtgrT/movie/48226"},{"id":48202,"title":"Меня зовут Майкл","kp_id":"841745","imdb_id":"tt3713030","world_art_id":null,"type":"movie","add":"2021-02-23 19:31:53","orig_title":"I Am Michael","year":"2015-01-29","translations":["Original (English)","Любительский (одноголосый закадровый) (Ашмарин Анатолий)"],"quality":"webdl","translation":"Original (English)","update":"2021-02-26 21:51:14","iframe_src":"//7043.svetacdn.in/si4jsFRrtgrT/movie/48202"},{"id":48060,"title":"Ни Джульетта, ни Ромео","kp_id":"894642","imdb_id":"tt4536304","world_art_id":null,"type":"movie","add":"2021-02-19 18:09:08","orig_title":"Né Giulietta né Romeo","year":"2015-11-19","translations":["Любительский (одноголосый закадровый) (Ашмарин Анатолий)"],"quality":"dvdrip","translation":"Любительский (одноголосый закадровый) (Ашмарин Анатолий)","update":"2021-02-26 19:07:20","iframe_src":"//7043.svetacdn.in/si4jsFRrtgrT/movie/48060"},{"id":8392,"title":"Кликни меня","kp_id":"1278145","imdb_id":"tt10468622","world_art_id":null,"type":"serial","add":"2020-08-06 10:56:31","orig_title":"Dejta","year":"2020-02-24","translations":["Любительский (многоголосый закадровый) (WestFilm)"],"seasons_count":1,"episodes_count":8,"episodes":8,"update":"2020-08-09 08:08:22","iframe_src":"//7043.svetacdn.in/si4jsFRrtgrT/tv-series/8392"},{"id":8389,"title":"Катина любовь 2","kp_id":"837745","imdb_id":"tt4192278","world_art_id":null,"type":"serial","add":"2020-08-06 07:45:02","orig_title":"Katina lyubov' 2","year":"2012-01-01","translations":["Оригинальная дорожка"],"seasons_count":1,"episodes_count":90,"episodes":90,"update":"2020-08-09 13:37:55","iframe_src":"//7043.svetacdn.in/si4jsFRrtgrT/tv-series/8389"},{"id":8388,"title":"Катина любовь","kp_id":"628886","imdb_id":"tt4192288","world_art_id":null,"type":"serial","add":"2020-08-06 07:24:24","orig_title":"Katina lyubov'","year":"2012-01-01","translations":["Оригинальная дорожка"],"seasons_count":1,"episodes_count":90,"episodes":90,"update":"2020-08-09 08:09:55","iframe_src":"//7043.svetacdn.in/si4jsFRrtgrT/tv-series/8388"},{"id":8386,"title":"Анечка","kp_id":"656100","imdb_id":"tt3237730","world_art_id":null,"type":"serial","add":"2020-08-06 07:08:54","orig_title":"Anechka","year":"2012-01-01","translations":["Оригинальная дорожка"],"seasons_count":1,"episodes_count":110,"episodes":110,"update":"2020-08-09 13:36:01","iframe_src":"//7043.svetacdn.in/si4jsFRrtgrT/tv-series/8386"},{"id":8368,"title":"Зип Зип","kp_id":"945387","imdb_id":"tt5109144","world_art_id":null,"type":"serial","add":"2020-08-04 16:27:04","orig_title":"Zip Zip","year":"2015-03-23","translations":["Полное дублирование (Кириллица)"],"seasons_count":1,"episodes_count":51,"episodes":51,"update":"2020-08-09 11:40:50","iframe_src":"//7043.svetacdn.in/si4jsFRrtgrT/tv-series/8368"},{"id":8319,"title":"Нелёгкие дни","kp_id":"891564","imdb_id":"tt4102726","world_art_id":null,"type":"serial","add":"2020-08-02 10:13:21","orig_title":"No Easy Days","year":"2018-09-20","translations":["Любительский (многоголосый закадровый) (Octopus)"],"seasons_count":1,"episodes_count":8,"episodes":8,"update":"2020-08-10 16:06:15","iframe_src":"//7043.svetacdn.in/si4jsFRrtgrT/tv-series/8319"},{"id":8314,"title":"Вне закона","kp_id":"1367996","imdb_id":"tt12038280","world_art_id":null,"type":"serial","add":"2020-08-01 11:40:41","orig_title":"Illegal - Justice, Out of Order","year":"2020-05-12","translations":["Любительский (многоголосый закадровый) (Octopus)"],"seasons_count":1,"episodes_count":10,"episodes":10,"update":"2020-08-10 18:28:56","iframe_src":"//7043.svetacdn.in/si4jsFRrtgrT/tv-series/8314"},{"id":8313,"title":"Кали","kp_id":"1389368","imdb_id":"tt12446346","world_art_id":null,"type":"serial","add":"2020-08-01 11:37:58","orig_title":"Kaali","year":"2020-05-29","translations":["Любительский (многоголосый закадровый) (Octopus)"],"seasons_count":1,"episodes_count":8,"episodes":8,"update":"2020-08-08 21:48:13","iframe_src":"//7043.svetacdn.in/si4jsFRrtgrT/tv-series/8313"},{"id":8311,"title":"Мафия","kp_id":"1285811","imdb_id":"tt12531976","world_art_id":null,"type":"serial","add":"2020-08-01 11:26:46","orig_title":"Mafia","year":"2020-07-09","translations":["Любительский (многоголосый закадровый) (Octopus)"],"seasons_count":1,"episodes_count":8,"episodes":8,"update":"2020-08-08 21:47:42","iframe_src":"//7043.svetacdn.in/si4jsFRrtgrT/tv-series/8311"},{"id":8310,"title":"Военное положение: 26/11","kp_id":"1311640","imdb_id":"tt11102296","world_art_id":null,"type":"serial","add":"2020-08-01 11:24:19","orig_title":"State of Siege: 26/11","year":"2020-03-20","translations":["Любительский (многоголосый закадровый) (Octopus)"],"seasons_count":1,"episodes_count":8,"episodes":8,"update":"2020-08-08 21:02:38","iframe_src":"//7043.svetacdn.in/si4jsFRrtgrT/tv-series/8310"},{"id":8309,"title":"Невиданный","kp_id":"1385392","imdb_id":"tt12392496","world_art_id":null,"type":"serial","add":"2020-08-01 11:20:54","orig_title":"Undekhi","year":"2020-07-10","translations":["Любительский (многоголосый закадровый) (Octopus)"],"seasons_count":1,"episodes_count":10,"episodes":10,"update":"2020-08-10 17:49:31","iframe_src":"//7043.svetacdn.in/si4jsFRrtgrT/tv-series/8309"},{"id":8307,"title":"Сделано в Италии","kp_id":"1209697","imdb_id":"tt9260992","world_art_id":null,"type":"serial","add":"2020-08-01 09:08:46","orig_title":"Made in Italy","year":"2019-09-23","translations":["Любительский (многоголосый закадровый) (Octopus)"],"seasons_count":1,"episodes_count":8,"episodes":8,"update":"2020-08-08 21:46:01","iframe_src":"//7043.svetacdn.in/si4jsFRrtgrT/tv-series/8307"},{"id":8189,"title":"Ведьма","kp_id":"401532","imdb_id":"tt0423668","world_art_id":null,"type":"serial","add":"2020-07-18 12:24:22","orig_title":"Hex","year":"2004-10-17","translations":["Профессиональный (многоголосый закадровый) (ТВ3)"],"seasons_count":2,"episodes_count":18,"episodes":13,"update":"2020-08-09 12:02:14","iframe_src":"//7043.svetacdn.in/si4jsFRrtgrT/tv-series/8189"},{"id":8175,"title":"Легендарные места","kp_id":"1173361","imdb_id":"tt8640952","world_art_id":null,"type":"serial","add":"2020-07-17 10:02:03","orig_title":"Legendary Locations","year":"2017-03-27","translations":["Профессиональный (двухголосый закадровый)"],"seasons_count":1,"episodes_count":14,"episodes":14,"update":"2020-08-09 15:01:48","iframe_src":"//7043.svetacdn.in/si4jsFRrtgrT/tv-series/8175"},{"id":8035,"title":"Водоворот","kp_id":"1227993","imdb_id":"tt12437986","world_art_id":null,"type":"serial","add":"2020-06-27 03:49:39","orig_title":"Vodovorot","year":"2020-06-27","translations":["Оригинальная дорожка"],"seasons_count":1,"episodes_count":8,"episodes":8,"update":"2020-08-09 04:00:55","iframe_src":"//7043.svetacdn.in/si4jsFRrtgrT/tv-series/8035"},{"id":3999,"title":"Другие двое","kp_id":"1134241","imdb_id":"tt8310612","world_art_id":null,"type":"serial","add":"2019-01-30 17:21:03","orig_title":"The Other Two","year":"2019-01-24","translations":["Профессиональный (многоголосый закадровый) (NewStudio)","Профессиональный (многоголосый закадровый) (IdeaFilm)","Профессиональный (многоголосый закадровый) (HDrezka Studio)","Профессиональный (многоголосый закадровый) (TVShows)"],"seasons_count":1,"episodes_count":10,"episodes":10,"update":"2020-08-09 08:36:49","iframe_src":"//7043.svetacdn.in/si4jsFRrtgrT/tv-series/3999"},{"id":2254,"title":"Траст","kp_id":"1044759","imdb_id":"tt5664952","world_art_id":null,"type":"serial","add":"2018-03-21 05:33:44","orig_title":"Trust","year":"2018-03-25","translations":["Профессиональный (многоголосый закадровый) (LostFilm)","Профессиональный (многоголосый закадровый) (HDrezka Studio)","Профессиональный (многоголосый закадровый) (NewStudio)","Профессиональный (многоголосый закадровый) (TVShows)"],"seasons_count":1,"episodes_count":10,"episodes":10,"update":"2020-08-09 09:10:04","iframe_src":"//7043.svetacdn.in/si4jsFRrtgrT/tv-series/2254"},{"id":1393,"title":"Гвиана","kp_id":"1006667","imdb_id":"tt5904172","world_art_id":null,"type":"serial","add":"2017-07-13 17:07:29","orig_title":"Guyane","year":"2017-01-23","translations":["Профессиональный (многоголосый закадровый) (BaibaKo)","Профессиональный (многоголосый закадровый) (HDrezka Studio)","Профессиональный (многоголосый закадровый) (Русский репортаж)"],"seasons_count":2,"episodes_count":16,"episodes":8,"update":"2020-08-08 20:10:29","iframe_src":"//7043.svetacdn.in/si4jsFRrtgrT/tv-series/1393"},{"id":818,"title":"OA","kp_id":"1008365","imdb_id":"tt4635282","world_art_id":null,"type":"serial","add":"2017-01-06 11:36:18","orig_title":"The OA","year":"2016-12-16","translations":["Любительский (многоголосый закадровый) (Trdlo.studio)","Профессиональный (многоголосый закадровый) (LostFilm)","Профессиональный (многоголосый закадровый) (HDrezka Studio)","Профессиональный (многоголосый закадровый) (BaibaKo)","Профессиональный (многоголосый закадровый) (TVShows)"],"seasons_count":2,"episodes_count":16,"episodes":8,"update":"2020-08-09 08:33:58","iframe_src":"//7043.svetacdn.in/si4jsFRrtgrT/tv-series/818"},{"id":717,"title":"Путешественники","kp_id":"998777","imdb_id":"tt5651844","world_art_id":null,"type":"serial","add":"2016-12-22 06:39:07","orig_title":"Travelers","year":"2016-10-17","translations":["Профессиональный (многоголосый закадровый) (Кравец)","Профессиональный (многоголосый закадровый) (BaibaKo)","Профессиональный (многоголосый закадровый) (Profix Media)","Профессиональный (многоголосый закадровый)","Профессиональный (многоголосый закадровый) (HDrezka Studio)","Профессиональный (двухголосый закадровый) (Gears Media)","Профессиональный (многоголосый закадровый) (АРК-ТВ Studio)","Профессиональный (многоголосый закадровый) (TVShows)","Профессиональный (многоголосый закадровый) (IdeaFilm)"],"seasons_count":3,"episodes_count":34,"episodes":10,"update":"2020-08-09 09:00:55","iframe_src":"//7043.svetacdn.in/si4jsFRrtgrT/tv-series/717"}],"current_page":148,"first_page_url":"https://videocdn.tv/api/short?limit=100&api_token=X6EwAUfE5M9xbo7y0Bp0aPf3uXxG2KLL&cache3148=3148&page=1","from":14701,"last_page":616,"last_page_url":"https://videocdn.tv/api/short?limit=100&api_token=X6EwAUfE5M9xbo7y0Bp0aPf3uXxG2KLL&cache3148=3148&page=616","next_page_url":"https://videocdn.tv/api/short?limit=100&api_token=X6EwAUfE5M9xbo7y0Bp0aPf3uXxG2KLL&cache3148=3148&page=149","path":"https://videocdn.tv/api/short","per_page":100,"prev_page_url":"https://videocdn.tv/api/short?limit=100&api_token=X6EwAUfE5M9xbo7y0Bp0aPf3uXxG2KLL&cache3148=3148&page=147","to":14740,"total":61599}