{"result":true,"data":[{"id":31957,"title":"Рождественский пирог","kp_id":"21365","imdb_id":"tt0211286","world_art_id":null,"type":"movie","add":"2019-10-16 05:31:30","orig_title":"La bûche","year":"1999-11-24","translations":["Авторский (одноголосый закадровый) (Сербин Юрий)"],"quality":"dvdrip","translation":"Авторский (одноголосый закадровый) (Сербин Юрий)","update":"2019-10-16 06:18:45","iframe_src":"//83.svetacdn.in/PfJ50H0ZBPg3/movie/31957"},{"id":31956,"title":"Рождество в июле","kp_id":"181562","imdb_id":"tt0032338","world_art_id":null,"type":"movie","add":"2019-10-16 05:30:12","orig_title":"Christmas in July","year":"1940-10-25","translations":["Авторский (одноголосый закадровый) (Кашкин Александр | Первомайский)"],"quality":"dvdrip","translation":"Авторский (одноголосый закадровый) (Кашкин Александр | Первомайский)","update":"2019-10-16 06:19:10","iframe_src":"//83.svetacdn.in/PfJ50H0ZBPg3/movie/31956"},{"id":31955,"title":"Колдовство","kp_id":"3075","imdb_id":"tt0058753","world_art_id":null,"type":"movie","add":"2019-10-15 21:19:14","orig_title":"Witchcraft","year":"1964-10-22","translations":["Любительский (одноголосый закадровый)"],"quality":"webdl","translation":"Любительский (одноголосый закадровый)","update":"2019-10-16 06:10:08","iframe_src":"//83.svetacdn.in/PfJ50H0ZBPg3/movie/31955"},{"id":31954,"title":"Колдовство 7: Час расплаты","kp_id":"31258","imdb_id":"tt0114958","world_art_id":null,"type":"movie","add":"2019-10-15 21:16:33","orig_title":"Witchcraft 7: Judgement Hour","year":"1995-12-27","translations":["Любительский (одноголосый закадровый)"],"quality":"vhs","translation":"Любительский (одноголосый закадровый)","update":"2019-10-16 06:08:51","iframe_src":"//83.svetacdn.in/PfJ50H0ZBPg3/movie/31954"},{"id":31953,"title":"Белый клык","kp_id":"39316","imdb_id":"tt0069536","world_art_id":null,"type":"movie","add":"2019-10-15 21:13:27","orig_title":"Zanna Bianca","year":"1973-12-21","translations":["Полное дублирование"],"quality":"dvdrip","translation":"Полное дублирование","update":"2019-10-16 06:07:37","iframe_src":"//83.svetacdn.in/PfJ50H0ZBPg3/movie/31953"},{"id":31952,"title":"Зима в военное время","kp_id":"317391","imdb_id":"tt0795441","world_art_id":null,"type":"movie","add":"2019-10-15 21:10:24","orig_title":"Oorlogswinter","year":"2008-11-17","translations":["Любительский (двухголосый закадровый)"],"quality":"bd","translation":"Любительский (двухголосый закадровый)","update":"2019-10-16 06:05:46","iframe_src":"//83.svetacdn.in/PfJ50H0ZBPg3/movie/31952"},{"id":31951,"title":"Белый Клык и одинокий охотник","kp_id":"95579","imdb_id":"tt0090318","world_art_id":null,"type":"movie","add":"2019-10-15 21:06:41","orig_title":"Zanna Bianca e il cacciatore solitario","year":"1975-01-01","translations":["Авторский (одноголосый закадровый) (Назаров Вадим)"],"quality":"dvdrip","translation":"Авторский (одноголосый закадровый) (Назаров Вадим)","update":"2019-10-16 06:00:00","iframe_src":"//83.svetacdn.in/PfJ50H0ZBPg3/movie/31951"},{"id":31950,"title":"Лев зимой","kp_id":"514","imdb_id":"tt0063227","world_art_id":null,"type":"movie","add":"2019-10-15 21:03:55","orig_title":"The Lion in Winter","year":"1968-10-30","translations":["Полное дублирование"],"quality":"bd","translation":"Полное дублирование","update":"2019-10-16 05:59:09","iframe_src":"//83.svetacdn.in/PfJ50H0ZBPg3/movie/31950"},{"id":31948,"title":"Последнее соблазнение 2","kp_id":"49849","imdb_id":"tt0177898","world_art_id":null,"type":"movie","add":"2019-10-15 20:56:56","orig_title":"The Last Seduction II","year":"1999-06-08","translations":["Профессиональный (многоголосый закадровый)"],"quality":"dvdrip","translation":"Профессиональный (многоголосый закадровый)","update":"2019-10-16 05:58:00","iframe_src":"//83.svetacdn.in/PfJ50H0ZBPg3/movie/31948"},{"id":31947,"title":"Сглаз против колдовства","kp_id":"239260","imdb_id":"tt0445282","world_art_id":null,"type":"movie","add":"2019-10-15 20:53:59","orig_title":"Che dau che","year":"1980-11-19","translations":["Любительский (одноголосый закадровый) (Береговых Виктор | Jet)"],"quality":"dvdrip","translation":"Любительский (одноголосый закадровый) (Береговых Виктор | Jet)","update":"2019-10-16 05:57:23","iframe_src":"//83.svetacdn.in/PfJ50H0ZBPg3/movie/31947"},{"id":31945,"title":"Теория соблазна","kp_id":"61246","imdb_id":"tt0371405","world_art_id":null,"type":"movie","add":"2019-10-15 20:45:25","orig_title":"Window Theory","year":"2005-02-25","translations":["Профессиональный (двухголосый закадровый)"],"quality":"dvdrip","translation":"Профессиональный (двухголосый закадровый)","update":"2019-10-16 05:56:29","iframe_src":"//83.svetacdn.in/PfJ50H0ZBPg3/movie/31945"},{"id":31927,"title":"Пришелец из глубины","kp_id":"123939","imdb_id":"tt0096785","world_art_id":null,"type":"movie","add":"2019-10-15 15:15:58","orig_title":"Alien degli abissi","year":"1989-05-27","translations":["Любительский (одноголосый закадровый)"],"quality":"dvdrip","translation":"Любительский (одноголосый закадровый)","update":"2019-10-16 05:55:45","iframe_src":"//83.svetacdn.in/PfJ50H0ZBPg3/movie/31927"},{"id":31926,"title":"Враждебный пришелец","kp_id":"29892","imdb_id":"tt0096786","world_art_id":null,"type":"movie","add":"2019-10-15 15:10:49","orig_title":"Alienator","year":"1990-02-08","translations":["Профессиональный (двухголосый закадровый) (НТВ)"],"quality":"bd","translation":"Профессиональный (двухголосый закадровый) (НТВ)","update":"2019-10-16 05:54:52","iframe_src":"//83.svetacdn.in/PfJ50H0ZBPg3/movie/31926"},{"id":31858,"title":"Глаз-убийца","kp_id":"34238","imdb_id":"tt0177886","world_art_id":null,"type":"movie","add":"2019-10-14 13:24:53","orig_title":"The Killer Eye","year":"1999-01-18","translations":["Авторский (одноголосый закадровый) (Кашкин Александр | Первомайский)"],"quality":"dvdrip","translation":"Авторский (одноголосый закадровый) (Кашкин Александр | Первомайский)","update":"2019-10-16 06:48:31","iframe_src":"//83.svetacdn.in/PfJ50H0ZBPg3/movie/31858"},{"id":31857,"title":"Зона тьмы","kp_id":"32670","imdb_id":"tt0100586","world_art_id":null,"type":"movie","add":"2019-10-14 13:23:42","orig_title":"Shadowzone","year":"1990-01-12","translations":["Авторский (одноголосый закадровый) (Штейн Владимир)"],"quality":"dvdrip","translation":"Авторский (одноголосый закадровый) (Штейн Владимир)","update":"2019-10-16 06:47:13","iframe_src":"//83.svetacdn.in/PfJ50H0ZBPg3/movie/31857"},{"id":31854,"title":"Беглянки","kp_id":"58019","imdb_id":"tt0083375","world_art_id":null,"type":"movie","add":"2019-10-14 13:20:00","orig_title":"Les paumées du petit matin","year":"1981-01-01","translations":["Авторский (одноголосый закадровый) (Алексеев Антон)"],"quality":"bd","translation":"Авторский (одноголосый закадровый) (Алексеев Антон)","update":"2019-10-16 06:35:44","iframe_src":"//83.svetacdn.in/PfJ50H0ZBPg3/movie/31854"},{"id":31640,"title":"Натурал под прикрытием","kp_id":"819167","imdb_id":"tt3421738","world_art_id":null,"type":"movie","add":"2019-10-09 08:40:09","orig_title":"Kicking Out Shoshana","year":"2014-07-17","translations":["Профессиональный (многоголосый закадровый) (iTunes)"],"quality":"webdl","translation":"Профессиональный (многоголосый закадровый) (iTunes)","update":"2019-10-16 06:30:21","iframe_src":"//83.svetacdn.in/PfJ50H0ZBPg3/movie/31640"},{"id":31639,"title":"О Боже, ты велик!","kp_id":"195212","imdb_id":"tt0476550","world_art_id":null,"type":"movie","add":"2019-10-09 08:38:52","orig_title":"God Tussi Great Ho","year":"2008-08-15","translations":["Профессиональный (многоголосый закадровый)"],"quality":"webdl","translation":"Профессиональный (многоголосый закадровый)","update":"2019-10-16 06:29:05","iframe_src":"//83.svetacdn.in/PfJ50H0ZBPg3/movie/31639"},{"id":31638,"title":"Тайное оружие","kp_id":"662617","imdb_id":"tt2187153","world_art_id":null,"type":"movie","add":"2019-10-09 08:37:46","orig_title":"Thuppakki","year":"2012-11-13","translations":["Профессиональный (многоголосый закадровый) (Red Media)"],"quality":"bd","translation":"Профессиональный (многоголосый закадровый) (Red Media)","update":"2019-10-16 06:26:58","iframe_src":"//83.svetacdn.in/PfJ50H0ZBPg3/movie/31638"},{"id":30275,"title":"Западня Венеры","kp_id":"49953","imdb_id":"tt0096372","world_art_id":null,"type":"movie","add":"2019-08-25 19:45:41","orig_title":"Die Venusfalle","year":"1988-05-19","translations":["Любительский (одноголосый закадровый)","Любительский (одноголосый закадровый)"],"quality":"vhs","translation":"Любительский (одноголосый закадровый)","update":"2019-10-16 06:31:57","iframe_src":"//83.svetacdn.in/PfJ50H0ZBPg3/movie/30275"}],"current_page":1219,"first_page_url":"https://videocdn.tv/api/short?limit=100&api_token=RgFQdUIR2dRmwv8iYa5SnFNgnw3vpjKj&cache31219=31219&page=1","from":121801,"last_page":648,"last_page_url":"https://videocdn.tv/api/short?limit=100&api_token=RgFQdUIR2dRmwv8iYa5SnFNgnw3vpjKj&cache31219=31219&page=648","next_page_url":null,"path":"https://videocdn.tv/api/short","per_page":100,"prev_page_url":"https://videocdn.tv/api/short?limit=100&api_token=RgFQdUIR2dRmwv8iYa5SnFNgnw3vpjKj&cache31219=31219&page=1218","to":121820,"total":64767}