{"result":true,"data":[{"id":20868,"title":"Годзилла против Биолланте","kp_id":"60770","imdb_id":"tt0097444","world_art_id":null,"type":"movie","add":"2018-12-20 02:41:59","orig_title":"Gojira vs. Biorante","year":"1989-12-16","translations":["Профессиональный (многоголосый закадровый)"],"quality":"bd","translation":"Профессиональный (многоголосый закадровый)","update":"2018-12-20 08:38:45","iframe_src":"//7923.svetacdn.in/IAF0wWTdNYZm/movie/20868"},{"id":20849,"title":"Рождество в поместье Ханисакл","kp_id":"1200375","imdb_id":"tt9083646","world_art_id":null,"type":"movie","add":"2018-12-19 01:46:32","orig_title":"Christmas on Honeysuckle Lane","year":"2018-11-18","translations":["Любительский (многоголосый закадровый) (Синема УС)"],"quality":"hdtv","translation":"Любительский (многоголосый закадровый) (Синема УС)","update":"2018-12-19 06:59:58","iframe_src":"//7923.svetacdn.in/IAF0wWTdNYZm/movie/20849"},{"id":20847,"title":"Танго либре","kp_id":"703082","imdb_id":"tt2370034","world_art_id":null,"type":"movie","add":"2018-12-19 01:12:43","orig_title":"Tango libre","year":"2012-08-29","translations":["Профессиональный (многоголосый закадровый) (iTunes)"],"quality":"webdl","translation":"Профессиональный (многоголосый закадровый) (iTunes)","update":"2018-12-19 07:02:16","iframe_src":"//7923.svetacdn.in/IAF0wWTdNYZm/movie/20847"},{"id":20845,"title":"Музыка для секса","kp_id":null,"imdb_id":"tt6085174","world_art_id":null,"type":"movie","add":"2018-12-19 01:01:07","orig_title":"Songs to Have Sex To","year":"2015-09-16","translations":["Любительский (многоголосый закадровый) (Синема УС)"],"quality":"webdl","translation":"Любительский (многоголосый закадровый) (Синема УС)","update":"2018-12-19 07:37:21","iframe_src":"//7923.svetacdn.in/IAF0wWTdNYZm/movie/20845"},{"id":20844,"title":"Сабрина","kp_id":"1132202","imdb_id":"tt7981492","world_art_id":null,"type":"movie","add":"2018-12-19 00:55:48","orig_title":"Sabrina","year":"2018-07-12","translations":["Любительский (многоголосый закадровый) (@MUZOBOZ@)"],"quality":"webdl","translation":"Любительский (многоголосый закадровый) (@MUZOBOZ@)","update":"2018-12-19 07:13:59","iframe_src":"//7923.svetacdn.in/IAF0wWTdNYZm/movie/20844"},{"id":20843,"title":"Теперь темно","kp_id":"1038909","imdb_id":"tt5969642","world_art_id":null,"type":"movie","add":"2018-12-19 00:53:06","orig_title":"Now It's Dark","year":"2018-03-02","translations":["Любительский (многоголосый закадровый) (Синема УС)"],"quality":"webdl","translation":"Любительский (многоголосый закадровый) (Синема УС)","update":"2018-12-19 07:14:53","iframe_src":"//7923.svetacdn.in/IAF0wWTdNYZm/movie/20843"},{"id":20842,"title":"Пусть не будет конца. Портрет братьев Эйвитт","kp_id":"1047056","imdb_id":"tt6487050","world_art_id":null,"type":"movie","add":"2018-12-19 00:50:07","orig_title":"May It Last: A Portrait of the Avett Brothers","year":"2017-03-15","translations":["Любительский (многоголосый закадровый) (Синема УС)"],"quality":"webdl","translation":"Любительский (многоголосый закадровый) (Синема УС)","update":"2018-12-19 07:43:01","iframe_src":"//7923.svetacdn.in/IAF0wWTdNYZm/movie/20842"},{"id":20841,"title":"Обмен принцессами","kp_id":"1014291","imdb_id":"tt6350304","world_art_id":null,"type":"movie","add":"2018-12-19 00:45:55","orig_title":"L'échange des princesses","year":"2017-12-27","translations":["Любительский (многоголосый закадровый) (Синема УС)"],"quality":"bd","translation":"Любительский (многоголосый закадровый) (Синема УС)","update":"2018-12-19 07:45:24","iframe_src":"//7923.svetacdn.in/IAF0wWTdNYZm/movie/20841"},{"id":20840,"title":"Сквозь пыль к славе 2","kp_id":null,"imdb_id":"tt8526506","world_art_id":null,"type":"movie","add":"2018-12-19 00:32:03","orig_title":"Dust 2 Glory","year":"2017-12-06","translations":["Любительский (многоголосый закадровый) (Синема УС)"],"quality":"bd","translation":"Любительский (многоголосый закадровый) (Синема УС)","update":"2018-12-19 07:49:01","iframe_src":"//7923.svetacdn.in/IAF0wWTdNYZm/movie/20840"},{"id":20838,"title":"Мировой Арбитр","kp_id":null,"imdb_id":"tt4419506","world_art_id":null,"type":"movie","add":"2018-12-19 00:26:31","orig_title":"American Umpire","year":"2016-09-01","translations":["Любительский (многоголосый закадровый) (Синема УС)"],"quality":"webdl","translation":"Любительский (многоголосый закадровый) (Синема УС)","update":"2018-12-19 07:50:20","iframe_src":"//7923.svetacdn.in/IAF0wWTdNYZm/movie/20838"},{"id":20837,"title":"Когда утихнет толпа","kp_id":"1104286","imdb_id":"tt7068942","world_art_id":null,"type":"movie","add":"2018-12-19 00:23:39","orig_title":"After The Screaming Stops","year":"2018-09-22","translations":["Любительский (многоголосый закадровый) (Синема УС)"],"quality":"bd","translation":"Любительский (многоголосый закадровый) (Синема УС)","update":"2018-12-19 07:51:12","iframe_src":"//7923.svetacdn.in/IAF0wWTdNYZm/movie/20837"},{"id":20836,"title":"Дом растущих сыновей","kp_id":"1162240","imdb_id":"tt8638638","world_art_id":null,"type":"movie","add":"2018-12-18 23:09:05","orig_title":"Xiong di ban","year":"2018-07-02","translations":["Любительский (многоголосый закадровый) (Синема УС)"],"quality":"bd","translation":"Любительский (многоголосый закадровый) (Синема УС)","update":"2018-12-19 00:26:15","iframe_src":"//7923.svetacdn.in/IAF0wWTdNYZm/movie/20836"},{"id":20803,"title":"Троя: Воскрешение Энея","kp_id":"813265","imdb_id":"tt3373410","world_art_id":null,"type":"movie","add":"2018-12-16 22:41:57","orig_title":"Troy: The Resurrection of Aeneas","year":"2018-05-11","translations":["Любительский (многоголосый закадровый) (Синема УС)","Любительский (двухголосый закадровый) (HiWayGrope)"],"quality":"webdl","translation":"Любительский (многоголосый закадровый) (Синема УС)","update":"2018-12-19 07:32:39","iframe_src":"//7923.svetacdn.in/IAF0wWTdNYZm/movie/20803"},{"id":20652,"title":"Ты знаешь мою тайну","kp_id":"122828","imdb_id":"tt0326576","world_art_id":null,"type":"movie","add":"2018-12-11 13:59:27","orig_title":"Humraaz","year":"2002-07-05","translations":["Профессиональный (многоголосый закадровый)"],"quality":"webdl","translation":"Профессиональный (многоголосый закадровый)","update":"2018-12-19 08:01:34","iframe_src":"//7923.svetacdn.in/IAF0wWTdNYZm/movie/20652"},{"id":20635,"title":"Дом убийств","kp_id":null,"imdb_id":"tt8597286","world_art_id":null,"type":"movie","add":"2018-12-11 00:07:48","orig_title":"Reincarnation","year":"2018-12-04","translations":["Любительский (многоголосый закадровый) (Синема УС)","Любительский (двухголосый закадровый) (HiWayGrope)"],"quality":"webdl","translation":"Любительский (многоголосый закадровый) (Синема УС)","update":"2018-12-19 07:36:11","iframe_src":"//7923.svetacdn.in/IAF0wWTdNYZm/movie/20635"},{"id":20633,"title":"Покрошить красоток","kp_id":"829514","imdb_id":"tt3526622","world_art_id":null,"type":"movie","add":"2018-12-11 00:04:22","orig_title":"Slay Belles","year":"2018-12-04","translations":["Любительский (многоголосый закадровый) (Синема УС)","Любительский (двухголосый закадровый) (HiWayGrope)"],"quality":"webdl","translation":"Любительский (многоголосый закадровый) (Синема УС)","update":"2018-12-19 07:38:24","iframe_src":"//7923.svetacdn.in/IAF0wWTdNYZm/movie/20633"},{"id":20621,"title":"Эльфы","kp_id":"1164889","imdb_id":"tt8593930","world_art_id":null,"type":"movie","add":"2018-12-10 23:43:41","orig_title":"Elves","year":"2018-11-05","translations":["Любительский (многоголосый закадровый) (Синема УС)","Любительский (двухголосый закадровый) (HiWayGrope)"],"quality":"webdl","translation":"Любительский (многоголосый закадровый) (Синема УС)","update":"2018-12-19 07:48:14","iframe_src":"//7923.svetacdn.in/IAF0wWTdNYZm/movie/20621"},{"id":20205,"title":"Послание от шлюхи","kp_id":"894501","imdb_id":"tt4461960","world_art_id":null,"type":"movie","add":"2018-11-19 21:08:30","orig_title":"Message from a Mistress","year":"2017-05-01","translations":["Любительский (многоголосый закадровый) (Синема УС)","Любительский (двухголосый закадровый) (HiWayGrope)"],"quality":"dvdrip","translation":"Любительский (многоголосый закадровый) (Синема УС)","update":"2018-12-19 07:42:08","iframe_src":"//7923.svetacdn.in/IAF0wWTdNYZm/movie/20205"},{"id":19299,"title":"Парижская опера","kp_id":"1046011","imdb_id":"tt6599064","world_art_id":null,"type":"movie","add":"2018-09-30 20:21:36","orig_title":"'Opéra","year":"2017-03-07","translations":["Любительский (многоголосый закадровый) (Синема УС)","Профессиональный (многоголосый закадровый)"],"quality":"webdl","translation":"Любительский (многоголосый закадровый) (Синема УС)","update":"2018-12-19 07:43:39","iframe_src":"//7923.svetacdn.in/IAF0wWTdNYZm/movie/19299"},{"id":2452,"title":"Половое воспитание","kp_id":"775209","imdb_id":"tt2751310","world_art_id":null,"type":"movie","add":"2016-05-20 19:30:04","orig_title":"Sex Ed","year":"2014-11-07","translations":["Полное дублирование"],"quality":"bd","translation":"Полное дублирование","update":"2018-12-19 07:15:59","iframe_src":"//7923.svetacdn.in/IAF0wWTdNYZm/movie/2452"}],"current_page":1741,"first_page_url":"https://videocdn.tv/api/short?limit=100&api_token=6Onb1W1alEUrBcKJZD3GoKBbWyAl2uG2&cache31741=31741&page=1","from":174001,"last_page":644,"last_page_url":"https://videocdn.tv/api/short?limit=100&api_token=6Onb1W1alEUrBcKJZD3GoKBbWyAl2uG2&cache31741=31741&page=644","next_page_url":null,"path":"https://videocdn.tv/api/short","per_page":100,"prev_page_url":"https://videocdn.tv/api/short?limit=100&api_token=6Onb1W1alEUrBcKJZD3GoKBbWyAl2uG2&cache31741=31741&page=1740","to":174020,"total":64307}