{"result":true,"data":[{"id":46212,"title":"Передряги 2","kp_id":"1331797","imdb_id":"tt11368866","world_art_id":null,"type":"movie","add":"2020-12-18 11:10:05","orig_title":"Tarapaty 2","year":"2020-09-25","translations":["Любительский (многоголосый закадровый) (Синема УС)"],"quality":"webdl","translation":"Любительский (многоголосый закадровый) (Синема УС)","update":"2020-12-18 19:41:39","iframe_src":"//7923.svetacdn.in/IAF0wWTdNYZm/movie/46212"},{"id":46184,"title":"Сказка о женщине и мужчине","kp_id":"435353","imdb_id":null,"world_art_id":null,"type":"movie","add":"2020-12-18 08:33:14","orig_title":"Сказка о женщине и мужчине","year":"2008-01-01","translations":["Оригинальная дорожка"],"quality":"dvdrip","translation":"Оригинальная дорожка","update":"2020-12-18 14:33:43","iframe_src":"//7923.svetacdn.in/IAF0wWTdNYZm/movie/46184"},{"id":46178,"title":"Дафна","kp_id":"1224345","imdb_id":"tt8452422","world_art_id":null,"type":"movie","add":"2020-12-18 06:27:17","orig_title":"Dafne","year":"2019-03-21","translations":["Любительский (многоголосый закадровый) (Синема УС)"],"quality":"webdl","translation":"Любительский (многоголосый закадровый) (Синема УС)","update":"2020-12-18 18:31:10","iframe_src":"//7923.svetacdn.in/IAF0wWTdNYZm/movie/46178"},{"id":46175,"title":"Причина","kp_id":"965071","imdb_id":"tt5493516","world_art_id":null,"type":"movie","add":"2020-12-18 06:23:57","orig_title":"The Reason","year":"2020-12-15","translations":["Любительский (многоголосый закадровый) (AlphaProject)"],"quality":"webdl","translation":"Любительский (многоголосый закадровый) (AlphaProject)","update":"2020-12-18 14:11:16","iframe_src":"//7923.svetacdn.in/IAF0wWTdNYZm/movie/46175"},{"id":46174,"title":"Радиевые девушки","kp_id":"1024522","imdb_id":"tt6317180","world_art_id":null,"type":"movie","add":"2020-12-18 06:22:36","orig_title":"Radium Girls","year":"2018-04-27","translations":["Любительский (многоголосый закадровый) (Синема УС)"],"quality":"webdl","translation":"Любительский (многоголосый закадровый) (Синема УС)","update":"2020-12-18 18:30:42","iframe_src":"//7923.svetacdn.in/IAF0wWTdNYZm/movie/46174"},{"id":46173,"title":"Магнезия","kp_id":"1291761","imdb_id":"tt10792570","world_art_id":null,"type":"movie","add":"2020-12-18 06:21:13","orig_title":"Magnezja","year":"2020-10-02","translations":["Любительский (многоголосый закадровый) (@MUZOBOZ@)"],"quality":"webdl","translation":"Любительский (многоголосый закадровый) (@MUZOBOZ@)","update":"2020-12-18 14:11:01","iframe_src":"//7923.svetacdn.in/IAF0wWTdNYZm/movie/46173"},{"id":46170,"title":"Сестры Демпси","kp_id":"801930","imdb_id":"tt3215354","world_art_id":null,"type":"movie","add":"2020-12-17 21:02:26","orig_title":"The Dempsey Sisters","year":"2013-01-01","translations":["Original (English)"],"quality":"webdl","translation":"Original (English)","update":"2020-12-18 11:36:08","iframe_src":"//7923.svetacdn.in/IAF0wWTdNYZm/movie/46170"},{"id":46158,"title":"Амазонка в огне","kp_id":"77327","imdb_id":"tt0106913","world_art_id":null,"type":"movie","add":"2020-12-17 10:55:44","orig_title":"Fire on the Amazon","year":"1993-10-01","translations":["Профессиональный (многоголосый закадровый)"],"quality":"dvdrip","translation":"Профессиональный (многоголосый закадровый)","update":"2020-12-17 20:22:16","iframe_src":"//7923.svetacdn.in/IAF0wWTdNYZm/movie/46158"},{"id":46157,"title":"Зло под солнцем","kp_id":"6747","imdb_id":"tt0083908","world_art_id":null,"type":"movie","add":"2020-12-17 07:31:07","orig_title":"Evil Under the Sun","year":"1982-01-25","translations":["Профессиональный (многоголосый закадровый) (Первый канал | ОРТ)","Профессиональный (двухголосый закадровый)"],"quality":"bd","translation":"Профессиональный (многоголосый закадровый) (Первый канал | ОРТ)","update":"2020-12-18 06:27:44","iframe_src":"//7923.svetacdn.in/IAF0wWTdNYZm/movie/46157"},{"id":46155,"title":"Девушки в опасности","kp_id":"529896","imdb_id":"tt1667307","world_art_id":null,"type":"movie","add":"2020-12-17 07:22:30","orig_title":"Damsels in Distress","year":"2011-09-10","translations":["Профессиональный (многоголосый закадровый)"],"quality":"hdrip","translation":"Профессиональный (многоголосый закадровый)","update":"2020-12-17 20:32:46","iframe_src":"//7923.svetacdn.in/IAF0wWTdNYZm/movie/46155"},{"id":46147,"title":"Последний из команчей","kp_id":"3254","imdb_id":"tt0044828","world_art_id":null,"type":"movie","add":"2020-12-16 19:01:30","orig_title":"Last of the Comanches","year":"1953-01-14","translations":["Авторский (одноголосый закадровый) (Яковлев Алексей)"],"quality":"bd","translation":"Авторский (одноголосый закадровый) (Яковлев Алексей)","update":"2020-12-17 20:31:34","iframe_src":"//7923.svetacdn.in/IAF0wWTdNYZm/movie/46147"},{"id":46136,"title":"И пришла Лола","kp_id":"406765","imdb_id":"tt1123894","world_art_id":null,"type":"movie","add":"2020-12-16 18:03:27","orig_title":"And Then Came Lola","year":"2009-06-19","translations":["Любительский (одноголосый закадровый) (Andi)"],"quality":"dvdrip","translation":"Любительский (одноголосый закадровый) (Andi)","update":"2020-12-18 06:37:50","iframe_src":"//7923.svetacdn.in/IAF0wWTdNYZm/movie/46136"},{"id":46124,"title":"Замыкая круг","kp_id":"220953","imdb_id":"tt0488380","world_art_id":null,"type":"movie","add":"2020-12-16 14:45:56","orig_title":"Closing the Ring","year":"2007-09-14","translations":["Профессиональный (многоголосый закадровый)"],"quality":"dvdrip","translation":"Профессиональный (многоголосый закадровый)","update":"2020-12-17 20:23:44","iframe_src":"//7923.svetacdn.in/IAF0wWTdNYZm/movie/46124"},{"id":46122,"title":"Тайный ангел","kp_id":"1130988","imdb_id":"tt7726196","world_art_id":null,"type":"movie","add":"2020-12-16 13:32:13","orig_title":"Undercover Angel","year":"2017-12-02","translations":["Любительский (многоголосый закадровый) (Синема УС)"],"quality":"webdl","translation":"Любительский (многоголосый закадровый) (Синема УС)","update":"2020-12-17 19:03:59","iframe_src":"//7923.svetacdn.in/IAF0wWTdNYZm/movie/46122"},{"id":46057,"title":"Голубой океан","kp_id":"1443833","imdb_id":"tt12543718","world_art_id":null,"type":"movie","add":"2020-12-14 10:21:50","orig_title":"An Ocean Blue","year":"2019-11-01","translations":["Профессиональный (многоголосый закадровый) (iTunes)"],"quality":"webdl","translation":"Профессиональный (многоголосый закадровый) (iTunes)","update":"2020-12-17 20:26:30","iframe_src":"//7923.svetacdn.in/IAF0wWTdNYZm/movie/46057"},{"id":45119,"title":"Побочный эффект","kp_id":"1320368","imdb_id":null,"world_art_id":null,"type":"movie","add":"2020-11-08 22:21:48","orig_title":"Побочный эффект","year":"2020-11-05","translations":["Оригинальная дорожка"],"quality":"webdl","translation":"Оригинальная дорожка","update":"2020-12-18 06:24:40","iframe_src":"//7923.svetacdn.in/IAF0wWTdNYZm/movie/45119"},{"id":44888,"title":"Колдовство: Новый ритуал","kp_id":"1044213","imdb_id":"tt4685762","world_art_id":null,"type":"movie","add":"2020-10-29 07:04:44","orig_title":"The Craft: Legacy","year":"2020-10-28","translations":["Полное дублирование (iTunes)","Original (English)"],"quality":"webdl","translation":"Полное дублирование (iTunes)","update":"2020-12-17 20:28:12","iframe_src":"//7923.svetacdn.in/IAF0wWTdNYZm/movie/44888"},{"id":43035,"title":"Диббук","kp_id":"1293315","imdb_id":"tt10793644","world_art_id":null,"type":"movie","add":"2020-09-03 07:15:27","orig_title":"The Vigil","year":"2019-09-09","translations":["Любительский (многоголосый закадровый) (@MUZOBOZ@)","Полное дублирование"],"quality":"webdl","translation":"Любительский (многоголосый закадровый) (@MUZOBOZ@)","update":"2020-12-18 17:23:23","iframe_src":"//7923.svetacdn.in/IAF0wWTdNYZm/movie/43035"},{"id":3593,"title":"Добро пожаловать в семью","kp_id":"1113092","imdb_id":"tt7490342","world_art_id":null,"type":"serial","add":"2018-11-29 15:44:21","orig_title":"Benvinguts a la família","year":"2018-01-22","translations":["Любительский (двухголосый закадровый) (GoldTeam)"],"seasons_count":1,"episodes_count":13,"episodes":13,"update":"2018-11-30 08:43:31","iframe_src":"//7923.svetacdn.in/IAF0wWTdNYZm/tv-series/3593"},{"id":3592,"title":"Нью-Йорк 22","kp_id":"580179","imdb_id":"tt1825122","world_art_id":null,"type":"serial","add":"2018-11-29 15:12:52","orig_title":"NYC 22","year":"2012-04-15","translations":["Профессиональный (многоголосый закадровый) (NewStudio)"],"seasons_count":1,"episodes_count":13,"episodes":13,"update":"2018-11-30 07:34:40","iframe_src":"//7923.svetacdn.in/IAF0wWTdNYZm/tv-series/3592"},{"id":3587,"title":"Ты в моём сердце","kp_id":"1183590","imdb_id":"tt6477856","world_art_id":null,"type":"serial","add":"2018-11-28 19:16:48","orig_title":"Neung Nai Suang","year":"2015-05-28","translations":["Любительский (двухголосый закадровый) (Sound-Group)"],"seasons_count":1,"episodes_count":12,"episodes":12,"update":"2018-11-29 07:13:38","iframe_src":"//7923.svetacdn.in/IAF0wWTdNYZm/tv-series/3587"},{"id":3584,"title":"Стрекоза","kp_id":"1195657","imdb_id":null,"world_art_id":null,"type":"serial","add":"2018-11-28 09:23:55","orig_title":"Стрекоза","year":"2018-09-02","translations":["Оригинальная дорожка"],"seasons_count":1,"episodes_count":4,"episodes":4,"update":"2018-11-30 10:46:37","iframe_src":"//7923.svetacdn.in/IAF0wWTdNYZm/tv-series/3584"},{"id":3581,"title":"Подсудимый","kp_id":"1007975","imdb_id":"tt6256692","world_art_id":null,"type":"serial","add":"2018-11-28 00:22:47","orig_title":"Pigoin","year":"2017-01-23","translations":["Любительский (двухголосый закадровый) (SoftBox)"],"seasons_count":1,"episodes_count":18,"episodes":18,"update":"2018-11-29 07:31:59","iframe_src":"//7923.svetacdn.in/IAF0wWTdNYZm/tv-series/3581"},{"id":3580,"title":"В постели","kp_id":"1203682","imdb_id":null,"world_art_id":null,"type":"serial","add":"2018-11-27 16:51:41","orig_title":"В постели","year":"2018-11-12","translations":["Оригинальная дорожка"],"seasons_count":1,"episodes_count":10,"episodes":10,"update":"2018-11-28 16:47:01","iframe_src":"//7923.svetacdn.in/IAF0wWTdNYZm/tv-series/3580"},{"id":3579,"title":"Тегеран-43","kp_id":"42224","imdb_id":"tt0081609","world_art_id":null,"type":"serial","add":"2018-11-27 13:04:13","orig_title":"Tegeran-43","year":"1981-07-08","translations":["Оригинальная дорожка"],"seasons_count":1,"episodes_count":2,"episodes":2,"update":"2018-11-28 15:26:17","iframe_src":"//7923.svetacdn.in/IAF0wWTdNYZm/tv-series/3579"},{"id":3575,"title":"Не покидай меня","kp_id":"769244","imdb_id":"tt3772420","world_art_id":null,"type":"serial","add":"2018-11-27 08:10:54","orig_title":"Ne pokiday menya","year":"2014-05-09","translations":["Оригинальная дорожка"],"seasons_count":1,"episodes_count":4,"episodes":4,"update":"2018-11-28 11:50:02","iframe_src":"//7923.svetacdn.in/IAF0wWTdNYZm/tv-series/3575"},{"id":3574,"title":"Медное солнце","kp_id":"840071","imdb_id":null,"world_art_id":null,"type":"serial","add":"2018-11-27 08:03:58","orig_title":"Медное солнце","year":"2018-11-26","translations":["Оригинальная дорожка"],"seasons_count":1,"episodes_count":2,"episodes":2,"update":"2018-11-30 10:43:04","iframe_src":"//7923.svetacdn.in/IAF0wWTdNYZm/tv-series/3574"},{"id":3570,"title":"Разлучница","kp_id":"1186144","imdb_id":null,"world_art_id":null,"type":"serial","add":"2018-11-26 11:27:40","orig_title":"Разлучница","year":"2018-11-24","translations":["Оригинальная дорожка"],"seasons_count":1,"episodes_count":2,"episodes":2,"update":"2018-11-28 10:15:02","iframe_src":"//7923.svetacdn.in/IAF0wWTdNYZm/tv-series/3570"},{"id":3568,"title":"Саламандра","kp_id":"885379","imdb_id":"tt2569488","world_art_id":null,"type":"serial","add":"2018-11-26 10:54:14","orig_title":"Salamander","year":"2012-12-30","translations":["Любительский (одноголосый закадровый)","Профессиональный (многоголосый закадровый) (FOX)"],"seasons_count":2,"episodes_count":22,"episodes":10,"update":"2018-11-30 09:42:22","iframe_src":"//7923.svetacdn.in/IAF0wWTdNYZm/tv-series/3568"},{"id":3565,"title":"Красавица Кон Щим","kp_id":"979312","imdb_id":"tt5705896","world_art_id":null,"type":"serial","add":"2018-11-26 10:32:07","orig_title":"Minyeo Gongsimi","year":"2016-05-14","translations":["Любительский (двухголосый закадровый) (SoftBox)"],"seasons_count":1,"episodes_count":20,"episodes":20,"update":"2018-11-30 10:30:40","iframe_src":"//7923.svetacdn.in/IAF0wWTdNYZm/tv-series/3565"},{"id":3560,"title":"Великолепное искушение","kp_id":"981275","imdb_id":"tt5129048","world_art_id":null,"type":"serial","add":"2018-11-24 11:12:38","orig_title":"Hwaryeohan yuhok","year":"2015-10-05","translations":["Любительский (двухголосый закадровый) (SoftBox)"],"seasons_count":1,"episodes_count":39,"episodes":39,"update":"2018-11-28 12:03:19","iframe_src":"//7923.svetacdn.in/IAF0wWTdNYZm/tv-series/3560"},{"id":3538,"title":"Комната 9","kp_id":"1174439","imdb_id":"tt8970084","world_art_id":null,"type":"serial","add":"2018-11-19 22:30:07","orig_title":"Nain rum","year":"2018-10-06","translations":["Любительский (многоголосый закадровый) (ColdFilm)","Любительский (двухголосый закадровый) (KinoGolos)"],"seasons_count":1,"episodes_count":16,"episodes":16,"update":"2018-11-28 16:59:41","iframe_src":"//7923.svetacdn.in/IAF0wWTdNYZm/tv-series/3538"},{"id":3526,"title":"Спаси меня","kp_id":"1043826","imdb_id":"tt7020532","world_art_id":null,"type":"serial","add":"2018-11-18 21:26:10","orig_title":"Guhaejwo","year":"2017-08-05","translations":["Любительский (двухголосый закадровый) (STEPonee)"],"seasons_count":1,"episodes_count":16,"episodes":16,"update":"2018-11-29 12:54:10","iframe_src":"//7923.svetacdn.in/IAF0wWTdNYZm/tv-series/3526"},{"id":3524,"title":"Плохой папа","kp_id":"1162641","imdb_id":"tt8907470","world_art_id":null,"type":"serial","add":"2018-11-18 20:29:43","orig_title":"Baedeu papa","year":"2018-10-01","translations":["Любительский (двухголосый закадровый) (HighHopes)"],"seasons_count":1,"episodes_count":16,"episodes":16,"update":"2018-12-01 17:30:03","iframe_src":"//7923.svetacdn.in/IAF0wWTdNYZm/tv-series/3524"},{"id":3521,"title":"Новоландия: Замок в небесах","kp_id":"1046932","imdb_id":"tt7516484","world_art_id":null,"type":"serial","add":"2018-11-17 00:07:30","orig_title":"Jiu zhou tian kong cheng","year":"2016-07-20","translations":["Любительский (одноголосый закадровый) (GREEN TEA)"],"seasons_count":1,"episodes_count":29,"episodes":29,"update":"2018-11-30 12:35:59","iframe_src":"//7923.svetacdn.in/IAF0wWTdNYZm/tv-series/3521"},{"id":3339,"title":"Звоните ДиКаприо!","kp_id":"977755","imdb_id":null,"world_art_id":null,"type":"serial","add":"2018-10-20 08:03:18","orig_title":"Звоните ДиКаприо!","year":"2018-10-20","translations":["Оригинальная дорожка"],"seasons_count":1,"episodes_count":8,"episodes":8,"update":"2018-12-01 10:30:06","iframe_src":"//7923.svetacdn.in/IAF0wWTdNYZm/tv-series/3339"},{"id":3170,"title":"Фалько","kp_id":"795760","imdb_id":"tt2396953","world_art_id":null,"type":"serial","add":"2018-09-15 18:05:06","orig_title":"Falco","year":"2013-06-20","translations":["Любительский (двухголосый закадровый) (Sunshine Studio)"],"seasons_count":4,"episodes_count":30,"episodes":8,"update":"2018-11-30 10:20:46","iframe_src":"//7923.svetacdn.in/IAF0wWTdNYZm/tv-series/3170"},{"id":3020,"title":"ХБ","kp_id":"745204","imdb_id":"tt4808006","world_art_id":null,"type":"serial","add":"2018-08-12 15:55:51","orig_title":"KhB","year":"2013-04-19","translations":["Оригинальная дорожка"],"seasons_count":2,"episodes_count":37,"episodes":18,"update":"2018-11-28 10:12:18","iframe_src":"//7923.svetacdn.in/IAF0wWTdNYZm/tv-series/3020"},{"id":16758,"title":"Воин апачей","kp_id":"1043585","imdb_id":"tt6423664","world_art_id":null,"type":"movie","add":"2018-05-15 04:10:20","orig_title":"Apache Warrior","year":"2017-10-07","translations":["Любительский (многоголосый закадровый) (Синема УС)","Original (English)"],"quality":"webdl","translation":"Любительский (многоголосый закадровый) (Синема УС)","update":"2020-12-18 06:22:22","iframe_src":"//7923.svetacdn.in/IAF0wWTdNYZm/movie/16758"},{"id":8809,"title":"Черное Рождество","kp_id":"189713","imdb_id":"tt0454082","world_art_id":null,"type":"movie","add":"2017-01-11 09:27:36","orig_title":"Black Christmas","year":"2006-12-15","translations":["Полное дублирование","Профессиональный (двухголосый закадровый)"],"quality":"bd","translation":"Полное дублирование","update":"2020-12-17 20:53:22","iframe_src":"//7923.svetacdn.in/IAF0wWTdNYZm/movie/8809"}],"current_page":417,"first_page_url":"https://videocdn.tv/api/short?limit=100&api_token=6Onb1W1alEUrBcKJZD3GoKBbWyAl2uG2&cache3417=3417&page=1","from":41601,"last_page":642,"last_page_url":"https://videocdn.tv/api/short?limit=100&api_token=6Onb1W1alEUrBcKJZD3GoKBbWyAl2uG2&cache3417=3417&page=642","next_page_url":"https://videocdn.tv/api/short?limit=100&api_token=6Onb1W1alEUrBcKJZD3GoKBbWyAl2uG2&cache3417=3417&page=418","path":"https://videocdn.tv/api/short","per_page":100,"prev_page_url":"https://videocdn.tv/api/short?limit=100&api_token=6Onb1W1alEUrBcKJZD3GoKBbWyAl2uG2&cache3417=3417&page=416","to":41640,"total":64126}