{"result":true,"data":[{"id":46497,"title":"Меч демона","kp_id":"164786","imdb_id":"tt0200769","world_art_id":null,"type":"movie","add":"2020-12-29 05:58:53","orig_title":"Ken ki","year":"1965-10-16","translations":["Авторский (одноголосый закадровый) (Кузнецов Сергей)"],"quality":"webdl","translation":"Авторский (одноголосый закадровый) (Кузнецов Сергей)","update":"2020-12-29 10:21:32","iframe_src":"//5322.svetacdn.in/si4jsFRrtgrT/movie/46497"},{"id":46484,"title":"Выжить в тёмной лощине","kp_id":null,"imdb_id":"tt8021048","world_art_id":null,"type":"movie","add":"2020-12-28 20:50:27","orig_title":"Survive the Hollow Shoals","year":"2018-01-01","translations":["Любительский (многоголосый закадровый) (Синема УС)"],"quality":"webdl","translation":"Любительский (многоголосый закадровый) (Синема УС)","update":"2020-12-29 09:22:34","iframe_src":"//5322.svetacdn.in/si4jsFRrtgrT/movie/46484"},{"id":46482,"title":"Слойка","kp_id":"820205","imdb_id":"tt3466094","world_art_id":null,"type":"movie","add":"2020-12-28 20:43:59","orig_title":"Turnover","year":"2019-03-08","translations":["Любительский (многоголосый закадровый) (Синема УС)"],"quality":"webdl","translation":"Любительский (многоголосый закадровый) (Синема УС)","update":"2020-12-29 09:23:21","iframe_src":"//5322.svetacdn.in/si4jsFRrtgrT/movie/46482"},{"id":46481,"title":"Беззвучный дождь","kp_id":"1370654","imdb_id":"tt12152790","world_art_id":null,"type":"movie","add":"2020-12-28 20:42:05","orig_title":"Silent Rain","year":"2019-10-04","translations":["Любительский (многоголосый закадровый) (Синема УС)"],"quality":"webdl","translation":"Любительский (многоголосый закадровый) (Синема УС)","update":"2020-12-29 09:24:05","iframe_src":"//5322.svetacdn.in/si4jsFRrtgrT/movie/46481"},{"id":46480,"title":"Макабр","kp_id":"1274011","imdb_id":"tt10406288","world_art_id":null,"type":"movie","add":"2020-12-28 20:40:20","orig_title":"Macabro","year":"2019-10-17","translations":["Любительский (многоголосый закадровый) (@MUZOBOZ@)"],"quality":"webdl","translation":"Любительский (многоголосый закадровый) (@MUZOBOZ@)","update":"2020-12-29 09:24:56","iframe_src":"//5322.svetacdn.in/si4jsFRrtgrT/movie/46480"},{"id":46476,"title":"Невероятный монах","kp_id":null,"imdb_id":"tt10218782","world_art_id":null,"type":"movie","add":"2020-12-28 20:10:52","orig_title":"The Incredible Monk","year":"2019-04-25","translations":["Любительский (многоголосый закадровый) (Синема УС)"],"quality":"bd","translation":"Любительский (многоголосый закадровый) (Синема УС)","update":"2020-12-29 09:22:55","iframe_src":"//5322.svetacdn.in/si4jsFRrtgrT/movie/46476"},{"id":46423,"title":"Зимовье на Студеной","kp_id":"731897","imdb_id":"tt8810180","world_art_id":null,"type":"movie","add":"2020-12-27 19:34:56","orig_title":"Zimovye na Studyonoy","year":"1986-01-01","translations":["Оригинальная дорожка"],"quality":"webdl","translation":"Оригинальная дорожка","update":"2020-12-29 11:37:22","iframe_src":"//5322.svetacdn.in/si4jsFRrtgrT/movie/46423"},{"id":46422,"title":"Солнце, снова солнце","kp_id":"464830","imdb_id":"tt1456898","world_art_id":null,"type":"movie","add":"2020-12-27 19:29:20","orig_title":"Solntse, snova solntse","year":"1977-05-12","translations":["Оригинальная дорожка"],"quality":"sat","translation":"Оригинальная дорожка","update":"2020-12-29 11:35:23","iframe_src":"//5322.svetacdn.in/si4jsFRrtgrT/movie/46422"},{"id":46407,"title":"Климко","kp_id":"44821","imdb_id":"tt0263577","world_art_id":null,"type":"movie","add":"2020-12-26 20:03:11","orig_title":"Klimko","year":"1984-07-16","translations":["Оригинальная дорожка"],"quality":"vhs","translation":"Оригинальная дорожка","update":"2020-12-29 11:34:37","iframe_src":"//5322.svetacdn.in/si4jsFRrtgrT/movie/46407"},{"id":46406,"title":"Семья как семья","kp_id":"1046007","imdb_id":"tt5947606","world_art_id":null,"type":"movie","add":"2020-12-26 20:00:21","orig_title":"Semya kak semya","year":"1970-12-31","translations":["Оригинальная дорожка"],"quality":"sat","translation":"Оригинальная дорожка","update":"2020-12-29 11:32:08","iframe_src":"//5322.svetacdn.in/si4jsFRrtgrT/movie/46406"},{"id":46405,"title":"Лобо","kp_id":"741053","imdb_id":"tt12731900","world_art_id":null,"type":"movie","add":"2020-12-26 19:55:53","orig_title":"Lobo","year":"1978-10-28","translations":["Оригинальная дорожка"],"quality":"webdl","translation":"Оригинальная дорожка","update":"2020-12-29 11:31:01","iframe_src":"//5322.svetacdn.in/si4jsFRrtgrT/movie/46405"},{"id":46404,"title":"Люби меня, как я тебя","kp_id":"474664","imdb_id":"tt12467142","world_art_id":null,"type":"movie","add":"2020-12-26 19:49:44","orig_title":"Lyubi menya, kak ya tebya","year":"1986-01-01","translations":["Оригинальная дорожка"],"quality":"sat","translation":"Оригинальная дорожка","update":"2020-12-29 11:29:39","iframe_src":"//5322.svetacdn.in/si4jsFRrtgrT/movie/46404"},{"id":46401,"title":"Преследование","kp_id":"43236","imdb_id":"tt0307350","world_art_id":null,"type":"movie","add":"2020-12-26 19:01:59","orig_title":"Presledovaniye","year":"1988-01-01","translations":["Оригинальная дорожка"],"quality":"vhs","translation":"Оригинальная дорожка","update":"2020-12-29 11:28:41","iframe_src":"//5322.svetacdn.in/si4jsFRrtgrT/movie/46401"},{"id":46400,"title":"Расскажи мне о себе","kp_id":"42051","imdb_id":"tt0067654","world_art_id":null,"type":"movie","add":"2020-12-26 18:58:46","orig_title":"Rasskazhi mne o sebe","year":"1972-06-26","translations":["Оригинальная дорожка"],"quality":"sat","translation":"Оригинальная дорожка","update":"2020-12-29 11:27:46","iframe_src":"//5322.svetacdn.in/si4jsFRrtgrT/movie/46400"},{"id":46398,"title":"Софья Перовская","kp_id":"43896","imdb_id":"tt0170606","world_art_id":null,"type":"movie","add":"2020-12-26 18:49:17","orig_title":"Sofiya Perovskaya","year":"1968-03-16","translations":["Оригинальная дорожка"],"quality":"sat","translation":"Оригинальная дорожка","update":"2020-12-29 11:23:05","iframe_src":"//5322.svetacdn.in/si4jsFRrtgrT/movie/46398"},{"id":34696,"title":"Праздник к нам приходит","kp_id":"1311794","imdb_id":"tt10952042","world_art_id":null,"type":"movie","add":"2020-01-03 18:56:22","orig_title":"It's Beginning to Look a Lot Like Christmas","year":"2019-12-21","translations":["Любительский (многоголосый закадровый) (AlphaProject)","Профессиональный (многоголосый закадровый) (IVI)"],"quality":"hdtv","translation":"Любительский (многоголосый закадровый) (AlphaProject)","update":"2020-12-29 10:23:40","iframe_src":"//5322.svetacdn.in/si4jsFRrtgrT/movie/34696"},{"id":5275,"title":"Дронго","kp_id":"89591","imdb_id":"tt0367320","world_art_id":null,"type":"serial","add":"2019-09-24 06:22:47","orig_title":"Drongo","year":"2002-01-01","translations":["Оригинальная дорожка"],"seasons_count":1,"episodes_count":13,"episodes":13,"update":"2019-09-25 06:36:12","iframe_src":"//5322.svetacdn.in/si4jsFRrtgrT/tv-series/5275"},{"id":5273,"title":"Настоящие люди","kp_id":"738813","imdb_id":"tt2180271","world_art_id":null,"type":"serial","add":"2019-09-24 06:06:09","orig_title":"Äkta människor","year":"2012-01-22","translations":["Профессиональный (многоголосый закадровый) (BaibaKo)"],"seasons_count":2,"episodes_count":20,"episodes":10,"update":"2019-09-24 12:30:59","iframe_src":"//5322.svetacdn.in/si4jsFRrtgrT/tv-series/5273"},{"id":5270,"title":"Поезд динозавров","kp_id":"762329","imdb_id":"tt1460205","world_art_id":null,"type":"serial","add":"2019-09-23 20:19:04","orig_title":"Dinosaur Train","year":"2009-09-07","translations":["Полное дублирование"],"seasons_count":4,"episodes_count":112,"episodes":20,"update":"2019-09-24 20:39:22","iframe_src":"//5322.svetacdn.in/si4jsFRrtgrT/tv-series/5270"},{"id":5269,"title":"Русское лекарство","kp_id":"427001","imdb_id":null,"world_art_id":null,"type":"serial","add":"2019-09-23 10:08:21","orig_title":"Русское лекарство","year":"2004-01-01","translations":["Оригинальная дорожка"],"seasons_count":1,"episodes_count":18,"episodes":18,"update":"2019-09-25 07:18:04","iframe_src":"//5322.svetacdn.in/si4jsFRrtgrT/tv-series/5269"},{"id":5259,"title":"В воскресенье рано зелье копала","kp_id":"1252967","imdb_id":null,"world_art_id":null,"type":"serial","add":"2019-09-20 12:44:06","orig_title":"В воскресенье рано зелье копала","year":"2019-02-11","translations":["Оригинальная дорожка"],"seasons_count":1,"episodes_count":24,"episodes":24,"update":"2019-09-20 19:57:16","iframe_src":"//5322.svetacdn.in/si4jsFRrtgrT/tv-series/5259"},{"id":5257,"title":"Чудеса на виражах","kp_id":"94673","imdb_id":"tt0098924","world_art_id":null,"type":"serial","add":"2019-09-20 11:16:17","orig_title":"TaleSpin","year":"1990-09-07","translations":["Полное дублирование"],"seasons_count":1,"episodes_count":65,"episodes":65,"update":"2019-09-23 12:15:29","iframe_src":"//5322.svetacdn.in/si4jsFRrtgrT/tv-series/5257"},{"id":5249,"title":"Запретная любовь","kp_id":"491522","imdb_id":"tt1286677","world_art_id":null,"type":"serial","add":"2019-09-19 12:25:30","orig_title":"Ask-i Memnu","year":"2008-09-04","translations":["Профессиональный (двухголосый закадровый)"],"seasons_count":2,"episodes_count":79,"episodes":41,"update":"2019-09-23 10:43:56","iframe_src":"//5322.svetacdn.in/si4jsFRrtgrT/tv-series/5249"},{"id":5246,"title":"Ни за что не сдамся","kp_id":"1045908","imdb_id":null,"world_art_id":null,"type":"serial","add":"2019-09-19 11:56:45","orig_title":"Ни за что не сдамся","year":"2017-11-18","translations":["Оригинальная дорожка"],"seasons_count":1,"episodes_count":2,"episodes":2,"update":"2019-09-24 08:10:02","iframe_src":"//5322.svetacdn.in/si4jsFRrtgrT/tv-series/5246"},{"id":5244,"title":"Двенадцать чудес","kp_id":"1045035","imdb_id":"tt9513654","world_art_id":null,"type":"serial","add":"2019-09-19 11:50:34","orig_title":"Dvenadtsat chudes","year":"2017-10-13","translations":["Оригинальная дорожка"],"seasons_count":1,"episodes_count":2,"episodes":2,"update":"2019-09-24 07:16:22","iframe_src":"//5322.svetacdn.in/si4jsFRrtgrT/tv-series/5244"},{"id":5243,"title":"Ты – моя жизнь","kp_id":"256512","imdb_id":"tt0482439","world_art_id":null,"type":"serial","add":"2019-09-19 11:07:01","orig_title":"Sos mi vida","year":"2006-01-16","translations":["Профессиональный (многоголосый закадровый)"],"seasons_count":1,"episodes_count":230,"episodes":230,"update":"2019-09-20 21:18:43","iframe_src":"//5322.svetacdn.in/si4jsFRrtgrT/tv-series/5243"},{"id":5240,"title":"Последний тамплиер","kp_id":"454305","imdb_id":"tt1197580","world_art_id":null,"type":"serial","add":"2019-09-19 07:09:57","orig_title":"The Last Templar","year":"2009-01-26","translations":["Профессиональный (многоголосый закадровый) (ТВ3)"],"seasons_count":1,"episodes_count":2,"episodes":2,"update":"2019-09-24 07:12:52","iframe_src":"//5322.svetacdn.in/si4jsFRrtgrT/tv-series/5240"},{"id":5236,"title":"Молодая гвардия","kp_id":"880743","imdb_id":"tt4763260","world_art_id":null,"type":"serial","add":"2019-09-18 10:48:20","orig_title":"Molodaya gvardiya","year":"2015-01-01","translations":["Оригинальная дорожка"],"seasons_count":1,"episodes_count":12,"episodes":12,"update":"2019-09-24 06:57:23","iframe_src":"//5322.svetacdn.in/si4jsFRrtgrT/tv-series/5236"},{"id":5229,"title":"Радуга в небе","kp_id":"1101265","imdb_id":"tt10104150","world_art_id":null,"type":"serial","add":"2019-09-17 13:00:52","orig_title":"Raduga v nebe","year":"2017-11-19","translations":["Оригинальная дорожка"],"seasons_count":1,"episodes_count":4,"episodes":4,"update":"2019-09-24 07:07:32","iframe_src":"//5322.svetacdn.in/si4jsFRrtgrT/tv-series/5229"},{"id":5226,"title":"Птичка певчая","kp_id":"1115028","imdb_id":"tt10107504","world_art_id":null,"type":"serial","add":"2019-09-17 12:51:43","orig_title":"Ptichka pevchaya","year":"2018-03-04","translations":["Оригинальная дорожка"],"seasons_count":1,"episodes_count":4,"episodes":4,"update":"2019-09-24 07:03:23","iframe_src":"//5322.svetacdn.in/si4jsFRrtgrT/tv-series/5226"},{"id":5219,"title":"Дознаватель 2","kp_id":"738461","imdb_id":"tt4263490","world_art_id":null,"type":"serial","add":"2019-09-17 07:19:16","orig_title":"Doznavatel 2","year":"2013-01-01","translations":["Оригинальная дорожка"],"seasons_count":1,"episodes_count":32,"episodes":32,"update":"2019-09-20 12:58:33","iframe_src":"//5322.svetacdn.in/si4jsFRrtgrT/tv-series/5219"},{"id":5175,"title":"Не женская работа","kp_id":"1261551","imdb_id":"tt10349602","world_art_id":null,"type":"serial","add":"2019-09-10 06:14:02","orig_title":"Ne zhenskaya rabota","year":"2019-01-01","translations":["Оригинальная дорожка"],"seasons_count":2,"episodes_count":20,"episodes":8,"update":"2019-09-22 07:46:12","iframe_src":"//5322.svetacdn.in/si4jsFRrtgrT/tv-series/5175"},{"id":5049,"title":"Дневник водителя Uber","kp_id":"1221243","imdb_id":"tt9407764","world_art_id":null,"type":"serial","add":"2019-08-19 11:25:31","orig_title":"Diary of an Uber Driver","year":"2019-08-14","translations":["Профессиональный (двухголосый закадровый) (TUMBLER Studio)"],"seasons_count":1,"episodes_count":6,"episodes":6,"update":"2019-09-22 10:45:58","iframe_src":"//5322.svetacdn.in/si4jsFRrtgrT/tv-series/5049"},{"id":28775,"title":"Ребро Адама","kp_id":"42078","imdb_id":"tt0100465","world_art_id":null,"type":"movie","add":"2019-07-09 06:40:10","orig_title":"Rebro Adama","year":"1990-09-07","translations":["Оригинальная дорожка","Оригинальная дорожка"],"quality":"dvdrip","translation":"Оригинальная дорожка","update":"2020-12-29 11:26:22","iframe_src":"//5322.svetacdn.in/si4jsFRrtgrT/movie/28775"},{"id":4700,"title":"Дочка","kp_id":"1190375","imdb_id":"tt8961058","world_art_id":null,"type":"serial","add":"2019-06-18 12:21:40","orig_title":"Kizim","year":"2018-09-19","translations":["Любительский (двухголосый закадровый) (Котова Ирина и Ахмеджанов Эльдор)"],"seasons_count":1,"episodes_count":34,"episodes":34,"update":"2019-09-23 14:29:26","iframe_src":"//5322.svetacdn.in/si4jsFRrtgrT/tv-series/4700"},{"id":24944,"title":"Седьмой спутник","kp_id":"43644","imdb_id":"tt0062245","world_art_id":null,"type":"movie","add":"2019-04-20 21:33:22","orig_title":"Sedmoy sputnik","year":"1968-04-15","translations":["Оригинальная дорожка","Оригинальная дорожка"],"quality":"dvdrip","translation":"Оригинальная дорожка","update":"2020-12-29 11:24:40","iframe_src":"//5322.svetacdn.in/si4jsFRrtgrT/movie/24944"},{"id":24381,"title":"Знак беды","kp_id":"45368","imdb_id":"tt0092293","world_art_id":null,"type":"movie","add":"2019-04-12 08:39:27","orig_title":"Znak bedy","year":"1987-04-28","translations":["Оригинальная дорожка","Оригинальная дорожка"],"quality":"dvdrip","translation":"Оригинальная дорожка","update":"2020-12-29 11:36:09","iframe_src":"//5322.svetacdn.in/si4jsFRrtgrT/movie/24381"},{"id":23329,"title":"Зайчик","kp_id":"45209","imdb_id":"tt0058767","world_art_id":null,"type":"movie","add":"2019-03-21 09:11:12","orig_title":"Zaychik","year":"1965-05-25","translations":["Оригинальная дорожка","Оригинальная дорожка"],"quality":"dvdrip","translation":"Оригинальная дорожка","update":"2020-12-29 11:40:45","iframe_src":"//5322.svetacdn.in/si4jsFRrtgrT/movie/23329"},{"id":4187,"title":"Крепостная","kp_id":"1111776","imdb_id":"tt10091828","world_art_id":null,"type":"serial","add":"2019-03-01 08:44:44","orig_title":"Krepostnaya","year":"2019-02-25","translations":["Оригинальная дорожка"],"seasons_count":2,"episodes_count":48,"episodes":24,"update":"2019-09-20 19:14:51","iframe_src":"//5322.svetacdn.in/si4jsFRrtgrT/tv-series/4187"},{"id":1886,"title":"Новый день","kp_id":"271964","imdb_id":"tt0801425","world_art_id":null,"type":"serial","add":"2017-12-21 06:57:46","orig_title":"Day Break","year":"2006-11-15","translations":["Профессиональный (многоголосый закадровый) (ТВ3)","Профессиональный (многоголосый закадровый) (LostFilm)"],"seasons_count":1,"episodes_count":13,"episodes":13,"update":"2019-09-24 08:05:25","iframe_src":"//5322.svetacdn.in/si4jsFRrtgrT/tv-series/1886"}],"current_page":336,"first_page_url":"https://videocdn.tv/api/short?limit=100&api_token=X6EwAUfE5M9xbo7y0Bp0aPf3uXxG2KLL&cache3336=3336&page=1","from":33501,"last_page":630,"last_page_url":"https://videocdn.tv/api/short?limit=100&api_token=X6EwAUfE5M9xbo7y0Bp0aPf3uXxG2KLL&cache3336=3336&page=630","next_page_url":"https://videocdn.tv/api/short?limit=100&api_token=X6EwAUfE5M9xbo7y0Bp0aPf3uXxG2KLL&cache3336=3336&page=337","path":"https://videocdn.tv/api/short","per_page":100,"prev_page_url":"https://videocdn.tv/api/short?limit=100&api_token=X6EwAUfE5M9xbo7y0Bp0aPf3uXxG2KLL&cache3336=3336&page=335","to":33540,"total":62945}