{"result":true,"data":[{"id":29486,"title":"Сердечных дел мастера","kp_id":"1199661","imdb_id":null,"world_art_id":null,"type":"movie","add":"2019-07-29 05:26:55","orig_title":"Сердечных дел мастера","year":"2018-10-20","translations":["Оригинальная дорожка"],"quality":"hdtv","translation":"Оригинальная дорожка","update":"2019-07-29 07:20:30","iframe_src":"//5091.svetacdn.in/si4jsFRrtgrT/movie/29486"},{"id":29483,"title":"Безудержные","kp_id":"964261","imdb_id":"tt5498056","world_art_id":null,"type":"movie","add":"2019-07-29 05:15:24","orig_title":"Unbridled","year":"2017-08-04","translations":["Любительский (многоголосый закадровый) (Синема УС)"],"quality":"webdl","translation":"Любительский (многоголосый закадровый) (Синема УС)","update":"2019-07-29 07:19:12","iframe_src":"//5091.svetacdn.in/si4jsFRrtgrT/movie/29483"},{"id":29482,"title":"Первая любовь","kp_id":"1110918","imdb_id":"tt7705790","world_art_id":null,"type":"movie","add":"2019-07-29 05:13:57","orig_title":"Tholi Prema","year":"2018-02-08","translations":["Любительский (двухголосый закадровый) (OnisFilms)"],"quality":"webdl","translation":"Любительский (двухголосый закадровый) (OnisFilms)","update":"2019-07-29 07:13:56","iframe_src":"//5091.svetacdn.in/si4jsFRrtgrT/movie/29482"},{"id":29479,"title":"В поисках Леннона","kp_id":"1038519","imdb_id":"tt6187794","world_art_id":null,"type":"movie","add":"2019-07-29 04:54:35","orig_title":"Looking for Lennon","year":"2018-05-04","translations":["Любительский (многоголосый закадровый) (Синема УС)"],"quality":"bd","translation":"Любительский (многоголосый закадровый) (Синема УС)","update":"2019-07-29 06:50:02","iframe_src":"//5091.svetacdn.in/si4jsFRrtgrT/movie/29479"},{"id":29478,"title":"Пустынные берега","kp_id":"1025104","imdb_id":"tt5884434","world_art_id":null,"type":"movie","add":"2019-07-29 04:52:47","orig_title":"Desert Shores","year":"2018-11-11","translations":["Любительский (многоголосый закадровый) (Синема УС)"],"quality":"webdl","translation":"Любительский (многоголосый закадровый) (Синема УС)","update":"2019-07-29 06:48:51","iframe_src":"//5091.svetacdn.in/si4jsFRrtgrT/movie/29478"},{"id":29476,"title":"Ломая Привычки","kp_id":"1228593","imdb_id":"tt6856056","world_art_id":null,"type":"movie","add":"2019-07-29 04:42:50","orig_title":"Breaking Habits","year":"2018-10-15","translations":["Любительский (многоголосый закадровый) (Синема УС)"],"quality":"webdl","translation":"Любительский (многоголосый закадровый) (Синема УС)","update":"2019-07-29 06:44:12","iframe_src":"//5091.svetacdn.in/si4jsFRrtgrT/movie/29476"},{"id":29475,"title":"Монстр","kp_id":"820710","imdb_id":"tt3589450","world_art_id":null,"type":"movie","add":"2019-07-28 20:56:35","orig_title":"Mon-seu-teo","year":"2014-03-13","translations":["Любительский (двухголосый закадровый)"],"quality":"hdtv","translation":"Любительский (двухголосый закадровый)","update":"2019-07-29 05:32:14","iframe_src":"//5091.svetacdn.in/si4jsFRrtgrT/movie/29475"},{"id":29474,"title":"Матч состоится в любую погоду","kp_id":"471851","imdb_id":"tt2968034","world_art_id":null,"type":"movie","add":"2019-07-28 20:50:31","orig_title":"Match sostoitsya v lyubuyu pogodu","year":"1985-03-15","translations":["Оригинальная дорожка"],"quality":"dvdrip","translation":"Оригинальная дорожка","update":"2019-07-29 05:31:45","iframe_src":"//5091.svetacdn.in/si4jsFRrtgrT/movie/29474"},{"id":29473,"title":"Лицо на мишени","kp_id":"420426","imdb_id":"tt4978060","world_art_id":null,"type":"movie","add":"2019-07-28 20:46:33","orig_title":"Veidas taikinyje","year":"1978-09-08","translations":["Оригинальная дорожка"],"quality":"sat","translation":"Оригинальная дорожка","update":"2019-07-29 05:31:00","iframe_src":"//5091.svetacdn.in/si4jsFRrtgrT/movie/29473"},{"id":29472,"title":"Лицо французской национальности","kp_id":"396087","imdb_id":"tt1111811","world_art_id":null,"type":"movie","add":"2019-07-28 20:42:22","orig_title":"Litso frantsuzskoy natsionalnosti","year":"2000-05-01","translations":["Оригинальная дорожка"],"quality":"dvdrip","translation":"Оригинальная дорожка","update":"2019-07-29 05:30:02","iframe_src":"//5091.svetacdn.in/si4jsFRrtgrT/movie/29472"},{"id":29471,"title":"Красные фонтаны","kp_id":"635227","imdb_id":"tt2069894","world_art_id":null,"type":"movie","add":"2019-07-28 20:39:12","orig_title":"Krasnye fontany","year":"2011-05-01","translations":["Оригинальная дорожка"],"quality":"iptv","translation":"Оригинальная дорожка","update":"2019-07-29 05:28:45","iframe_src":"//5091.svetacdn.in/si4jsFRrtgrT/movie/29471"},{"id":29470,"title":"Фуркат","kp_id":"692389","imdb_id":"tt2259092","world_art_id":null,"type":"movie","add":"2019-07-28 20:32:41","orig_title":"Furqat","year":"1959-01-01","translations":["Оригинальная дорожка"],"quality":"dvdrip","translation":"Оригинальная дорожка","update":"2019-07-29 05:25:20","iframe_src":"//5091.svetacdn.in/si4jsFRrtgrT/movie/29470"},{"id":29469,"title":"Чужой бумажник","kp_id":"994633","imdb_id":"tt10110058","world_art_id":null,"type":"movie","add":"2019-07-28 20:29:45","orig_title":"Chuzhoj Bumazhnik","year":"1961-01-01","translations":["Оригинальная дорожка"],"quality":"vhs","translation":"Оригинальная дорожка","update":"2019-07-29 05:24:40","iframe_src":"//5091.svetacdn.in/si4jsFRrtgrT/movie/29469"},{"id":29468,"title":"Барьер неизвестности","kp_id":"46036","imdb_id":"tt0312428","world_art_id":null,"type":"movie","add":"2019-07-28 20:25:08","orig_title":"Barer neizvestnosti","year":"1962-03-29","translations":["Оригинальная дорожка"],"quality":"sat","translation":"Оригинальная дорожка","update":"2019-07-29 05:23:17","iframe_src":"//5091.svetacdn.in/si4jsFRrtgrT/movie/29468"},{"id":29461,"title":"Без течения","kp_id":"1082498","imdb_id":"tt6716912","world_art_id":null,"type":"movie","add":"2019-07-28 11:49:41","orig_title":"Dead Water","year":"2019-07-26","translations":["Профессиональный (многоголосый закадровый) (AlphaProject)","Профессиональный (многоголосый закадровый) (AlphaProject)"],"quality":"hdtv","translation":"Профессиональный (многоголосый закадровый) (AlphaProject)","update":"2019-07-29 06:47:22","iframe_src":"//5091.svetacdn.in/si4jsFRrtgrT/movie/29461"},{"id":29444,"title":"Алпамыс идёт в школу","kp_id":"43466","imdb_id":"tt0318976","world_art_id":null,"type":"movie","add":"2019-07-26 22:16:34","orig_title":"Alpamys idyot v shkolu","year":"1977-10-20","translations":["Полное дублирование"],"quality":"dvdrip","translation":"Полное дублирование","update":"2019-07-29 05:20:13","iframe_src":"//5091.svetacdn.in/si4jsFRrtgrT/movie/29444"},{"id":29443,"title":"Братья Комаровы","kp_id":"46214","imdb_id":"tt0321523","world_art_id":null,"type":"movie","add":"2019-07-26 22:12:49","orig_title":"Bratya Komarovy","year":"1961-08-27","translations":["Оригинальная дорожка"],"quality":"dvdrip","translation":"Оригинальная дорожка","update":"2019-07-29 05:19:51","iframe_src":"//5091.svetacdn.in/si4jsFRrtgrT/movie/29443"},{"id":29442,"title":"Длинный день","kp_id":"83679","imdb_id":"tt0412654","world_art_id":null,"type":"movie","add":"2019-07-26 22:09:22","orig_title":"Dlinnyy den","year":"1961-01-01","translations":["Оригинальная дорожка"],"quality":"dvdrip","translation":"Оригинальная дорожка","update":"2019-07-29 05:18:46","iframe_src":"//5091.svetacdn.in/si4jsFRrtgrT/movie/29442"},{"id":29440,"title":"Дуэль","kp_id":"44312","imdb_id":"tt0058044","world_art_id":null,"type":"movie","add":"2019-07-26 22:04:54","orig_title":"Duel","year":"1961-05-22","translations":["Оригинальная дорожка"],"quality":"sat","translation":"Оригинальная дорожка","update":"2019-07-29 05:17:38","iframe_src":"//5091.svetacdn.in/si4jsFRrtgrT/movie/29440"},{"id":19594,"title":"Головар","kp_id":"1111862","imdb_id":null,"world_art_id":null,"type":"movie","add":"2018-10-16 23:22:13","orig_title":"Головар","year":"2018-04-05","translations":["Оригинальная дорожка","Оригинальная дорожка"],"quality":"webdl","translation":"Оригинальная дорожка","update":"2019-07-29 05:27:08","iframe_src":"//5091.svetacdn.in/si4jsFRrtgrT/movie/19594"}],"current_page":1450,"first_page_url":"https://videocdn.tv/api/short?limit=100&api_token=X6EwAUfE5M9xbo7y0Bp0aPf3uXxG2KLL&cache31450=31450&page=1","from":144901,"last_page":668,"last_page_url":"https://videocdn.tv/api/short?limit=100&api_token=X6EwAUfE5M9xbo7y0Bp0aPf3uXxG2KLL&cache31450=31450&page=668","next_page_url":null,"path":"https://videocdn.tv/api/short","per_page":100,"prev_page_url":"https://videocdn.tv/api/short?limit=100&api_token=X6EwAUfE5M9xbo7y0Bp0aPf3uXxG2KLL&cache31450=31450&page=1449","to":144920,"total":66714}