{"result":true,"data":[{"id":54543,"title":"Непослушный","kp_id":"4679725","imdb_id":"tt15431218","world_art_id":null,"type":"movie","add":"2021-11-15 06:04:23","orig_title":"Vilains","year":"2021-10-23","translations":["Любительский (одноголосый закадровый) (Водяной Александр)"],"quality":"webdl","translation":"Любительский (одноголосый закадровый) (Водяной Александр)","update":"2021-11-15 07:11:47","iframe_src":"//24213.svetacdn.in/IAF0wWTdNYZm/movie/54543"},{"id":54541,"title":"Малолетний вампир","kp_id":"21421","imdb_id":"tt0095684","world_art_id":null,"type":"movie","add":"2021-11-15 05:58:11","orig_title":"My Best Friend Is a Vampire","year":"1987-10-01","translations":["Профессиональный (многоголосый закадровый)","[EN] Original (English)"],"quality":"webdl","translation":"Профессиональный (многоголосый закадровый)","update":"2021-11-15 10:08:22","iframe_src":"//24213.svetacdn.in/IAF0wWTdNYZm/movie/54541"},{"id":54540,"title":"Город страха","kp_id":"9585","imdb_id":"tt0109440","world_art_id":null,"type":"movie","add":"2021-11-15 05:50:05","orig_title":"La cité de la peur","year":"1994-03-09","translations":["Профессиональный (двухголосый закадровый) (Премьер Видео Фильм)"],"quality":"bd","translation":"Профессиональный (двухголосый закадровый) (Премьер Видео Фильм)","update":"2021-11-15 10:13:23","iframe_src":"//24213.svetacdn.in/IAF0wWTdNYZm/movie/54540"},{"id":54539,"title":"Тум-Паби-Дум","kp_id":"1046991","imdb_id":"tt9445306","world_art_id":null,"type":"movie","add":"2021-11-15 05:21:47","orig_title":"Tum-Pabi-Dum","year":"2018-01-25","translations":["Оригинальная дорожка"],"quality":"webdl","translation":"Оригинальная дорожка","update":"2021-11-15 07:22:45","iframe_src":"//24213.svetacdn.in/IAF0wWTdNYZm/movie/54539"},{"id":54538,"title":"Выблядки","kp_id":"420424","imdb_id":"tt2788932","world_art_id":null,"type":"movie","add":"2021-11-14 21:13:15","orig_title":"Vyblyadki","year":"2000-01-01","translations":["Оригинальная дорожка"],"quality":"vhs","translation":"Оригинальная дорожка","update":"2021-11-14 21:50:09","iframe_src":"//24213.svetacdn.in/IAF0wWTdNYZm/movie/54538"},{"id":54536,"title":"Вторжение на Землю","kp_id":"94596","imdb_id":"tt0322008","world_art_id":null,"type":"movie","add":"2021-11-14 21:09:49","orig_title":"Terminal Invasion","year":"2002-09-14","translations":["Профессиональный (многоголосый закадровый)"],"quality":"dvdrip","translation":"Профессиональный (многоголосый закадровый)","update":"2021-11-15 07:49:27","iframe_src":"//24213.svetacdn.in/IAF0wWTdNYZm/movie/54536"},{"id":54532,"title":"Неблагие намерения","kp_id":"1432227","imdb_id":"tt13167334","world_art_id":null,"type":"movie","add":"2021-11-14 20:49:27","orig_title":"Deceptive Intentions","year":"2020-09-26","translations":["Любительский (многоголосый закадровый) (AlphaProject)"],"quality":"webdl","translation":"Любительский (многоголосый закадровый) (AlphaProject)","update":"2021-11-15 06:21:55","iframe_src":"//24213.svetacdn.in/IAF0wWTdNYZm/movie/54532"},{"id":54523,"title":"Вор","kp_id":"7237","imdb_id":"tt0083190","world_art_id":null,"type":"movie","add":"2021-11-14 12:44:21","orig_title":"Thief","year":"1981-03-27","translations":["[EN] Original (English)","Авторский (одноголосый закадровый) (Михалёв Алексей)","Авторский (одноголосый закадровый) (Гаврилов Андрей)","Профессиональный (двухголосый закадровый)"],"quality":"bd","translation":"[EN] Original (English)","update":"2021-11-15 07:57:14","iframe_src":"//24213.svetacdn.in/IAF0wWTdNYZm/movie/54523"},{"id":54522,"title":"Ополченочка","kp_id":"1200347","imdb_id":"tt9092600","world_art_id":null,"type":"movie","add":"2021-11-14 12:22:22","orig_title":"Opolchenochka","year":"2019-05-13","translations":["Оригинальная дорожка"],"quality":"webdl","translation":"Оригинальная дорожка","update":"2021-11-15 07:30:56","iframe_src":"//24213.svetacdn.in/IAF0wWTdNYZm/movie/54522"},{"id":54502,"title":"И снова жить","kp_id":"842261","imdb_id":"tt3904222","world_art_id":null,"type":"movie","add":"2021-11-14 07:22:33","orig_title":"Hwajang","year":"2014-09-03","translations":["Любительский (двухголосый закадровый) (АрхиAsia)"],"quality":"bd","translation":"Любительский (двухголосый закадровый) (АрхиAsia)","update":"2021-11-15 07:16:16","iframe_src":"//24213.svetacdn.in/IAF0wWTdNYZm/movie/54502"},{"id":53630,"title":"Проклятие Кинтанара","kp_id":"1389307","imdb_id":"tt12500804","world_art_id":null,"type":"movie","add":"2021-10-05 11:37:44","orig_title":"La casa del caracol","year":"2021-06-07","translations":["Профессиональный (многоголосый закадровый)","Профессиональный (многоголосый закадровый) (Позитив)"],"quality":"webdl","translation":"Профессиональный (многоголосый закадровый)","update":"2021-11-15 08:17:48","iframe_src":"//24213.svetacdn.in/IAF0wWTdNYZm/movie/53630"},{"id":39389,"title":"Сила","kp_id":"844496","imdb_id":"tt3949638","world_art_id":null,"type":"movie","add":"2020-04-16 15:16:58","orig_title":"Power","year":"2014-09-11","translations":["Любительский (двухголосый закадровый)","Любительский (двухголосый закадровый) (ССГ Озвучка)"],"quality":"hdrip","translation":"Любительский (двухголосый закадровый)","update":"2021-11-15 08:39:38","iframe_src":"//24213.svetacdn.in/IAF0wWTdNYZm/movie/39389"},{"id":5190,"title":"Грозовой перевал","kp_id":"415287","imdb_id":"tt1238834","world_art_id":null,"type":"serial","add":"2019-09-12 11:23:40","orig_title":"Wuthering Heights","year":"2009-01-18","translations":["Профессиональный (многоголосый закадровый)"],"seasons_count":1,"episodes_count":2,"episodes":2,"update":"2019-09-12 16:27:18","iframe_src":"//24213.svetacdn.in/IAF0wWTdNYZm/tv-series/5190"},{"id":5188,"title":"Возвращение Мухтара 4","kp_id":"469752","imdb_id":"tt4072156","world_art_id":null,"type":"serial","add":"2019-09-11 11:43:51","orig_title":"Vozvrashchenie Mukhtara 4","year":"2007-01-01","translations":["Оригинальная дорожка"],"seasons_count":1,"episodes_count":80,"episodes":80,"update":"2019-09-12 16:42:38","iframe_src":"//24213.svetacdn.in/IAF0wWTdNYZm/tv-series/5188"},{"id":5186,"title":"Новости","kp_id":"566821","imdb_id":"tt4605380","world_art_id":null,"type":"serial","add":"2019-09-11 08:48:21","orig_title":"Novosti","year":"2011-01-31","translations":["Оригинальная дорожка"],"seasons_count":3,"episodes_count":60,"episodes":20,"update":"2019-09-13 12:34:04","iframe_src":"//24213.svetacdn.in/IAF0wWTdNYZm/tv-series/5186"},{"id":5182,"title":"Возвращение Мухтара 3","kp_id":"468791","imdb_id":"tt3973886","world_art_id":null,"type":"serial","add":"2019-09-10 20:03:20","orig_title":"Возвращение Мухтара 3","year":"2006-01-01","translations":["Оригинальная дорожка"],"seasons_count":1,"episodes_count":100,"episodes":100,"update":"2019-09-11 18:53:44","iframe_src":"//24213.svetacdn.in/IAF0wWTdNYZm/tv-series/5182"},{"id":5181,"title":"Блэкпул","kp_id":"277566","imdb_id":"tt0408375","world_art_id":null,"type":"serial","add":"2019-09-10 11:17:49","orig_title":"Blackpool","year":"2004-11-11","translations":["Любительский (одноголосый закадровый)"],"seasons_count":1,"episodes_count":6,"episodes":6,"update":"2019-09-10 15:40:24","iframe_src":"//24213.svetacdn.in/IAF0wWTdNYZm/tv-series/5181"},{"id":5179,"title":"Московский романс","kp_id":"1272221","imdb_id":null,"world_art_id":null,"type":"serial","add":"2019-09-10 11:10:46","orig_title":"Московский романс","year":"2019-09-06","translations":["Оригинальная дорожка"],"seasons_count":1,"episodes_count":2,"episodes":2,"update":"2019-09-10 15:37:34","iframe_src":"//24213.svetacdn.in/IAF0wWTdNYZm/tv-series/5179"},{"id":5176,"title":"Людмила Гурченко","kp_id":"927138","imdb_id":"tt10066160","world_art_id":null,"type":"serial","add":"2019-09-10 06:30:26","orig_title":"Lyudmila Gurchenko","year":"2015-11-09","translations":["Оригинальная дорожка"],"seasons_count":1,"episodes_count":16,"episodes":16,"update":"2019-09-13 18:36:48","iframe_src":"//24213.svetacdn.in/IAF0wWTdNYZm/tv-series/5176"},{"id":5172,"title":"Случайная невеста","kp_id":"1178195","imdb_id":null,"world_art_id":null,"type":"serial","add":"2019-09-10 05:04:49","orig_title":"Случайная невеста","year":"2018-08-08","translations":["Оригинальная дорожка"],"seasons_count":1,"episodes_count":4,"episodes":4,"update":"2019-09-12 11:59:39","iframe_src":"//24213.svetacdn.in/IAF0wWTdNYZm/tv-series/5172"},{"id":5171,"title":"Правило боя","kp_id":"969101","imdb_id":"tt5511146","world_art_id":null,"type":"serial","add":"2019-09-10 05:01:19","orig_title":"Pravilo boya","year":"2017-01-26","translations":["Оригинальная дорожка"],"seasons_count":1,"episodes_count":4,"episodes":4,"update":"2019-09-12 11:56:03","iframe_src":"//24213.svetacdn.in/IAF0wWTdNYZm/tv-series/5171"},{"id":5170,"title":"Наступит рассвет","kp_id":"1049375","imdb_id":null,"world_art_id":null,"type":"serial","add":"2019-09-10 04:58:06","orig_title":"Наступит рассвет","year":"2017-09-30","translations":["Оригинальная дорожка"],"seasons_count":1,"episodes_count":4,"episodes":4,"update":"2019-09-12 11:51:54","iframe_src":"//24213.svetacdn.in/IAF0wWTdNYZm/tv-series/5170"},{"id":5168,"title":"Поле разума","kp_id":"1008960","imdb_id":"tt6439562","world_art_id":null,"type":"serial","add":"2019-09-10 04:40:54","orig_title":"Mind Field","year":"2017-01-18","translations":["Любительский (одноголосый закадровый) (VoicePower)"],"seasons_count":2,"episodes_count":16,"episodes":8,"update":"2019-09-13 13:12:54","iframe_src":"//24213.svetacdn.in/IAF0wWTdNYZm/tv-series/5168"},{"id":5166,"title":"В поисках истины","kp_id":"419545","imdb_id":"tt0179699","world_art_id":null,"type":"serial","add":"2019-09-09 19:29:39","orig_title":"Cambio de piel","year":"1998-01-01","translations":["Профессиональный (двухголосый закадровый)"],"seasons_count":1,"episodes_count":110,"episodes":110,"update":"2019-09-11 11:12:01","iframe_src":"//24213.svetacdn.in/IAF0wWTdNYZm/tv-series/5166"},{"id":5164,"title":"Кассандра","kp_id":"416312","imdb_id":"tt0270789","world_art_id":null,"type":"serial","add":"2019-09-08 22:42:02","orig_title":"Kassandra","year":"1992-10-08","translations":["Профессиональный (двухголосый закадровый)","Профессиональный (многоголосый закадровый)"],"seasons_count":1,"episodes_count":150,"episodes":150,"update":"2019-09-12 14:40:33","iframe_src":"//24213.svetacdn.in/IAF0wWTdNYZm/tv-series/5164"},{"id":5161,"title":"Другая я","kp_id":"1118209","imdb_id":null,"world_art_id":null,"type":"serial","add":"2019-09-07 07:08:10","orig_title":"Другая я","year":"2018-04-28","translations":["Оригинальная дорожка"],"seasons_count":1,"episodes_count":4,"episodes":4,"update":"2019-09-12 11:47:47","iframe_src":"//24213.svetacdn.in/IAF0wWTdNYZm/tv-series/5161"},{"id":5159,"title":"Кроуфорд","kp_id":"1112396","imdb_id":"tt6635810","world_art_id":null,"type":"serial","add":"2019-09-07 07:01:46","orig_title":"Crawford","year":"2018-02-02","translations":["Профессиональный (многоголосый закадровый) (BaibaKo)"],"seasons_count":1,"episodes_count":12,"episodes":12,"update":"2019-09-13 12:21:32","iframe_src":"//24213.svetacdn.in/IAF0wWTdNYZm/tv-series/5159"},{"id":5111,"title":"Земля любви, земля надежды","kp_id":"231145","imdb_id":"tt0288401","world_art_id":null,"type":"serial","add":"2019-08-28 10:49:58","orig_title":"Terra Speranza","year":"2002-06-17","translations":["Профессиональный (многоголосый закадровый)"],"seasons_count":1,"episodes_count":220,"episodes":220,"update":"2019-09-13 16:36:41","iframe_src":"//24213.svetacdn.in/IAF0wWTdNYZm/tv-series/5111"},{"id":5105,"title":"Это моя жизнь","kp_id":"840984","imdb_id":"tt3659018","world_art_id":null,"type":"serial","add":"2019-08-27 09:47:11","orig_title":"O Hayat Benim","year":"2014-02-16","translations":["Любительский (одноголосый закадровый) (Максимова Лидия)"],"seasons_count":4,"episodes_count":131,"episodes":31,"update":"2019-09-13 08:02:28","iframe_src":"//24213.svetacdn.in/IAF0wWTdNYZm/tv-series/5105"},{"id":4967,"title":"Врач Ё-хан","kp_id":"1255126","imdb_id":"tt10544464","world_art_id":null,"type":"serial","add":"2019-07-29 19:48:09","orig_title":"Uisa Yohan","year":"2019-07-19","translations":["Любительский (двухголосый закадровый) (SoftBox)"],"seasons_count":1,"episodes_count":16,"episodes":16,"update":"2019-09-10 15:36:00","iframe_src":"//24213.svetacdn.in/IAF0wWTdNYZm/tv-series/4967"},{"id":4949,"title":"Родители 2","kp_id":"1254076","imdb_id":null,"world_art_id":null,"type":"serial","add":"2019-07-26 06:00:48","orig_title":"Родители 2","year":"2019-07-26","translations":["Оригинальная дорожка"],"seasons_count":1,"episodes_count":20,"episodes":20,"update":"2019-09-12 05:53:52","iframe_src":"//24213.svetacdn.in/IAF0wWTdNYZm/tv-series/4949"},{"id":4694,"title":"Гранд Отель","kp_id":"1123486","imdb_id":"tt7671068","world_art_id":null,"type":"serial","add":"2019-06-18 07:54:48","orig_title":"Grand Hotel","year":"2019-06-17","translations":["Профессиональный (многоголосый закадровый) (LostFilm)"],"seasons_count":1,"episodes_count":13,"episodes":13,"update":"2019-09-12 05:52:30","iframe_src":"//24213.svetacdn.in/IAF0wWTdNYZm/tv-series/4694"},{"id":21016,"title":"Королевство драконов","kp_id":"4475580","imdb_id":"tt6603378","world_art_id":null,"type":"movie","add":"2018-12-25 02:05:09","orig_title":"Dragon Kingdom","year":"2018-12-21","translations":["Профессиональный (многоголосый закадровый) (AlphaProject)","Профессиональный (многоголосый закадровый) (IVI)"],"quality":"webdl","translation":"Профессиональный (многоголосый закадровый) (AlphaProject)","update":"2021-11-15 08:37:05","iframe_src":"//24213.svetacdn.in/IAF0wWTdNYZm/movie/21016"},{"id":15903,"title":"Бетховен 5","kp_id":"13305","imdb_id":"tt0342108","world_art_id":null,"type":"movie","add":"2018-03-29 21:04:59","orig_title":"Beethoven's 5th","year":"2003-12-02","translations":["Профессиональный (многоголосый закадровый)","Профессиональный (многоголосый закадровый) (СТС)","[EN] Original (English)","Авторский (одноголосый закадровый) (Дольский Андрей)"],"quality":"dvdrip","translation":"Профессиональный (многоголосый закадровый)","update":"2021-11-15 10:24:44","iframe_src":"//24213.svetacdn.in/IAF0wWTdNYZm/movie/15903"},{"id":7841,"title":"Рикер","kp_id":"77747","imdb_id":"tt0393635","world_art_id":null,"type":"movie","add":"2016-12-04 08:32:18","orig_title":"Reeker","year":"2005-03-13","translations":["Полное дублирование","[EN] Original (English)","Полное дублирование","Любительский (одноголосый закадровый)"],"quality":"hdtv","translation":"Полное дублирование","update":"2021-11-15 09:51:55","iframe_src":"//24213.svetacdn.in/IAF0wWTdNYZm/movie/7841"},{"id":7005,"title":"Карманные деньги","kp_id":"9294","imdb_id":"tt0110516","world_art_id":null,"type":"movie","add":"2016-11-03 05:57:51","orig_title":"Milk Money","year":"1994-08-31","translations":["[EN] Original (English)","Авторский (одноголосый закадровый) (Горчаков Василий)","Профессиональный (многоголосый закадровый) (Paramount Channel)","Профессиональный (многоголосый закадровый) (Премьер Видео Фильм)"],"quality":"webdl","translation":"[EN] Original (English)","update":"2021-11-15 09:34:35","iframe_src":"//24213.svetacdn.in/IAF0wWTdNYZm/movie/7005"},{"id":6004,"title":"Расскажи мне, как я умру","kp_id":"998007","imdb_id":"tt5937770","world_art_id":null,"type":"movie","add":"2016-10-09 11:19:58","orig_title":"Tell Me How I Die","year":"2016-09-02","translations":["Профессиональный (многоголосый закадровый) (SDI Media | Iyuno-SDI Group Russia)","[EN] Original (English)","Любительский (одноголосый закадровый) (Хихикающий доктор)"],"quality":"bd","translation":"Профессиональный (многоголосый закадровый) (SDI Media | Iyuno-SDI Group Russia)","update":"2021-11-15 09:39:27","iframe_src":"//24213.svetacdn.in/IAF0wWTdNYZm/movie/6004"},{"id":5045,"title":"Телефонная будка","kp_id":"305","imdb_id":"tt0183649","world_art_id":null,"type":"movie","add":"2016-09-06 08:44:00","orig_title":"Phone Booth","year":"2002-09-10","translations":["[EN] Original (English)","Полное дублирование (CPIG | Central Production International Group)","Авторский (одноголосый закадровый) (Сербин Юрий)","Профессиональный (многоголосый закадровый)"],"quality":"webdl","translation":"[EN] Original (English)","update":"2021-11-15 09:59:57","iframe_src":"//24213.svetacdn.in/IAF0wWTdNYZm/movie/5045"},{"id":3554,"title":"Чернильное сердце","kp_id":"261097","imdb_id":"tt0494238","world_art_id":null,"type":"movie","add":"2016-06-30 19:22:47","orig_title":"Inkheart","year":"2008-12-11","translations":["Полное дублирование","[EN] Original (English)","Полное дублирование (Мосфильм)"],"quality":"bd","translation":"Полное дублирование","update":"2021-11-15 10:30:49","iframe_src":"//24213.svetacdn.in/IAF0wWTdNYZm/movie/3554"},{"id":1800,"title":"Двенадцать друзей Оушена","kp_id":"18294","imdb_id":"tt0349903","world_art_id":null,"type":"movie","add":"2016-05-03 05:11:59","orig_title":"Ocean's Twelve","year":"2004-12-08","translations":["Полное дублирование","Профессиональный (двухголосый закадровый) (Tycoon)","[EN] Original (English)","Полное дублирование (Мосфильм)","Авторский (одноголосый закадровый) (Гаврилов Андрей)"],"quality":"bd","translation":"Полное дублирование","update":"2021-11-15 06:29:53","iframe_src":"//24213.svetacdn.in/IAF0wWTdNYZm/movie/1800"}],"current_page":458,"first_page_url":"https://videocdn.tv/api/short?limit=100&api_token=6Onb1W1alEUrBcKJZD3GoKBbWyAl2uG2&cache3458=3458&page=1","from":45701,"last_page":731,"last_page_url":"https://videocdn.tv/api/short?limit=100&api_token=6Onb1W1alEUrBcKJZD3GoKBbWyAl2uG2&cache3458=3458&page=731","next_page_url":"https://videocdn.tv/api/short?limit=100&api_token=6Onb1W1alEUrBcKJZD3GoKBbWyAl2uG2&cache3458=3458&page=459","path":"https://videocdn.tv/api/short","per_page":100,"prev_page_url":"https://videocdn.tv/api/short?limit=100&api_token=6Onb1W1alEUrBcKJZD3GoKBbWyAl2uG2&cache3458=3458&page=457","to":45740,"total":73011}