{"result":true,"data":[{"id":46158,"title":"Амазонка в огне","kp_id":"77327","imdb_id":"tt0106913","world_art_id":null,"type":"movie","add":"2020-12-17 10:55:44","orig_title":"Fire on the Amazon","year":"1993-10-01","translations":["Профессиональный (многоголосый закадровый)"],"quality":"dvdrip","translation":"Профессиональный (многоголосый закадровый)","update":"2020-12-17 20:22:16","iframe_src":"//7720.svetacdn.in/71tsRs29n5tZ/movie/46158"},{"id":46155,"title":"Девушки в опасности","kp_id":"529896","imdb_id":"tt1667307","world_art_id":null,"type":"movie","add":"2020-12-17 07:22:30","orig_title":"Damsels in Distress","year":"2011-09-10","translations":["Профессиональный (многоголосый закадровый)"],"quality":"hdrip","translation":"Профессиональный (многоголосый закадровый)","update":"2020-12-17 20:32:46","iframe_src":"//7720.svetacdn.in/71tsRs29n5tZ/movie/46155"},{"id":46152,"title":"Краска","kp_id":"1320905","imdb_id":"tt11232208","world_art_id":null,"type":"movie","add":"2020-12-16 21:02:33","orig_title":"Paint","year":"2020-08-30","translations":["Любительский (многоголосый закадровый) (AlphaProject)"],"quality":"webdl","translation":"Любительский (многоголосый закадровый) (AlphaProject)","update":"2020-12-17 17:28:48","iframe_src":"//7720.svetacdn.in/71tsRs29n5tZ/movie/46152"},{"id":46147,"title":"Последний из команчей","kp_id":"3254","imdb_id":"tt0044828","world_art_id":null,"type":"movie","add":"2020-12-16 19:01:30","orig_title":"Last of the Comanches","year":"1953-01-14","translations":["Авторский (одноголосый закадровый) (Яковлев Алексей)"],"quality":"bd","translation":"Авторский (одноголосый закадровый) (Яковлев Алексей)","update":"2020-12-17 20:31:34","iframe_src":"//7720.svetacdn.in/71tsRs29n5tZ/movie/46147"},{"id":46144,"title":"Отныне и навеки","kp_id":"1307612","imdb_id":"tt10973998","world_art_id":null,"type":"movie","add":"2020-12-16 18:31:05","orig_title":"Here On Out","year":"2019-11-17","translations":["Любительский (многоголосый закадровый) (Синема УС)"],"quality":"webdl","translation":"Любительский (многоголосый закадровый) (Синема УС)","update":"2020-12-17 18:59:42","iframe_src":"//7720.svetacdn.in/71tsRs29n5tZ/movie/46144"},{"id":46142,"title":"Там, за лесами","kp_id":"1273160","imdb_id":"tt10472122","world_art_id":null,"type":"movie","add":"2020-12-16 18:27:54","orig_title":"Beyond The Woods","year":"2019-10-12","translations":["Любительский (многоголосый закадровый) (@MUZOBOZ@)"],"quality":"webdl","translation":"Любительский (многоголосый закадровый) (@MUZOBOZ@)","update":"2020-12-17 19:00:43","iframe_src":"//7720.svetacdn.in/71tsRs29n5tZ/movie/46142"},{"id":46125,"title":"Девушка в ванне","kp_id":"1163608","imdb_id":"tt8574290","world_art_id":null,"type":"movie","add":"2020-12-16 16:32:18","orig_title":"The Girl in the Bathtub","year":"2018-10-07","translations":["Любительский (многоголосый закадровый) (Синема УС)"],"quality":"webdl","translation":"Любительский (многоголосый закадровый) (Синема УС)","update":"2020-12-17 19:02:04","iframe_src":"//7720.svetacdn.in/71tsRs29n5tZ/movie/46125"},{"id":46124,"title":"Замыкая круг","kp_id":"220953","imdb_id":"tt0488380","world_art_id":null,"type":"movie","add":"2020-12-16 14:45:56","orig_title":"Closing the Ring","year":"2007-09-14","translations":["Профессиональный (многоголосый закадровый)"],"quality":"dvdrip","translation":"Профессиональный (многоголосый закадровый)","update":"2020-12-17 20:23:44","iframe_src":"//7720.svetacdn.in/71tsRs29n5tZ/movie/46124"},{"id":46123,"title":"Супер обычный среднестатистический день из жизни Джесси","kp_id":"1283265","imdb_id":"tt10621020","world_art_id":null,"type":"movie","add":"2020-12-16 13:33:55","orig_title":"Jessie's Super Normal Regular Average Day","year":"2019-08-30","translations":["Любительский (многоголосый закадровый) (Синема УС)"],"quality":"webdl","translation":"Любительский (многоголосый закадровый) (Синема УС)","update":"2020-12-17 19:03:36","iframe_src":"//7720.svetacdn.in/71tsRs29n5tZ/movie/46123"},{"id":46122,"title":"Тайный ангел","kp_id":"1130988","imdb_id":"tt7726196","world_art_id":null,"type":"movie","add":"2020-12-16 13:32:13","orig_title":"Undercover Angel","year":"2017-12-02","translations":["Любительский (многоголосый закадровый) (Синема УС)"],"quality":"webdl","translation":"Любительский (многоголосый закадровый) (Синема УС)","update":"2020-12-17 19:03:59","iframe_src":"//7720.svetacdn.in/71tsRs29n5tZ/movie/46122"},{"id":46116,"title":"Рождество в Калифорнии","kp_id":"1411012","imdb_id":"tt13055780","world_art_id":null,"type":"movie","add":"2020-12-16 08:56:22","orig_title":"A California Christmas","year":"2020-12-14","translations":["Любительский (многоголосый закадровый) (Синема УС)"],"quality":"webdl","translation":"Любительский (многоголосый закадровый) (Синема УС)","update":"2020-12-17 17:23:22","iframe_src":"//7720.svetacdn.in/71tsRs29n5tZ/movie/46116"},{"id":46115,"title":"Бигфут","kp_id":null,"imdb_id":"tt9755024","world_art_id":null,"type":"movie","add":"2020-12-16 08:51:06","orig_title":"Bigfoot!","year":"2019-03-23","translations":["Любительский (многоголосый закадровый) (Синема УС)"],"quality":"webdl","translation":"Любительский (многоголосый закадровый) (Синема УС)","update":"2020-12-17 17:25:13","iframe_src":"//7720.svetacdn.in/71tsRs29n5tZ/movie/46115"},{"id":46114,"title":"Шлюхоедки","kp_id":"1135253","imdb_id":"tt7798918","world_art_id":null,"type":"movie","add":"2020-12-16 08:49:27","orig_title":"Cannibal Hookers","year":"2019-07-01","translations":["Любительский (многоголосый закадровый) (Синема УС)"],"quality":"webdl","translation":"Любительский (многоголосый закадровый) (Синема УС)","update":"2020-12-17 17:21:59","iframe_src":"//7720.svetacdn.in/71tsRs29n5tZ/movie/46114"},{"id":46112,"title":"Колёса удачи","kp_id":"1236324","imdb_id":"tt9735976","world_art_id":null,"type":"movie","add":"2020-12-16 08:34:52","orig_title":"Wheels of Fortune","year":"2020-11-01","translations":["Любительский (многоголосый закадровый) (Синема УС)"],"quality":"webdl","translation":"Любительский (многоголосый закадровый) (Синема УС)","update":"2020-12-17 17:20:29","iframe_src":"//7720.svetacdn.in/71tsRs29n5tZ/movie/46112"},{"id":46089,"title":"Город первой любви","kp_id":"464879","imdb_id":"tt4000906","world_art_id":null,"type":"movie","add":"2020-12-15 16:58:21","orig_title":"Gorod pervoi lyubvi","year":"1971-03-02","translations":["Оригинальная дорожка"],"quality":"sat","translation":"Оригинальная дорожка","update":"2020-12-17 09:37:33","iframe_src":"//7720.svetacdn.in/71tsRs29n5tZ/movie/46089"},{"id":46088,"title":"Дорога горящего фургона","kp_id":"841901","imdb_id":"tt5492656","world_art_id":null,"type":"movie","add":"2020-12-15 16:55:46","orig_title":"Doroga goryashchego furgona","year":"1967-07-04","translations":["Оригинальная дорожка"],"quality":"dvdrip","translation":"Оригинальная дорожка","update":"2020-12-17 09:38:19","iframe_src":"//7720.svetacdn.in/71tsRs29n5tZ/movie/46088"},{"id":46057,"title":"Голубой океан","kp_id":"1443833","imdb_id":"tt12543718","world_art_id":null,"type":"movie","add":"2020-12-14 10:21:50","orig_title":"An Ocean Blue","year":"2019-11-01","translations":["Профессиональный (многоголосый закадровый) (iTunes)"],"quality":"webdl","translation":"Профессиональный (многоголосый закадровый) (iTunes)","update":"2020-12-17 20:26:30","iframe_src":"//7720.svetacdn.in/71tsRs29n5tZ/movie/46057"},{"id":45472,"title":"Смертельные иллюзии","kp_id":"1311031","imdb_id":"tt13465592","world_art_id":null,"type":"movie","add":"2020-11-20 20:14:34","orig_title":"Smertelniye illyuzii","year":"2020-11-19","translations":["Оригинальная дорожка"],"quality":"bd","translation":"Оригинальная дорожка","update":"2020-12-17 17:19:39","iframe_src":"//7720.svetacdn.in/71tsRs29n5tZ/movie/45472"},{"id":45188,"title":"Кольская сверхглубокая","kp_id":"1334853","imdb_id":"tt11815960","world_art_id":null,"type":"movie","add":"2020-11-11 09:27:50","orig_title":"Kolskaya sverhglubokaya","year":"2020-11-04","translations":["Оригинальная дорожка"],"quality":"webdl","translation":"Оригинальная дорожка","update":"2020-12-17 14:28:12","iframe_src":"//7720.svetacdn.in/71tsRs29n5tZ/movie/45188"},{"id":44888,"title":"Колдовство: Новый ритуал","kp_id":"1044213","imdb_id":"tt4685762","world_art_id":null,"type":"movie","add":"2020-10-29 07:04:44","orig_title":"The Craft: Legacy","year":"2020-10-28","translations":["Полное дублирование (iTunes)","Original (English)"],"quality":"webdl","translation":"Полное дублирование (iTunes)","update":"2020-12-17 20:28:12","iframe_src":"//7720.svetacdn.in/71tsRs29n5tZ/movie/44888"},{"id":2269,"title":"Дом Саддама","kp_id":"436177","imdb_id":"tt0936453","world_art_id":null,"type":"serial","add":"2018-03-26 06:25:10","orig_title":"House of Saddam","year":"2008-07-30","translations":["Профессиональный (многоголосый закадровый)"],"seasons_count":1,"episodes_count":4,"episodes":4,"update":"2018-03-26 20:00:43","iframe_src":"//7720.svetacdn.in/71tsRs29n5tZ/tv-series/2269"},{"id":2268,"title":"Двойная ложь","kp_id":"1112553","imdb_id":null,"world_art_id":null,"type":"serial","add":"2018-03-26 06:03:25","orig_title":"Двойная ложь","year":"2018-02-24","translations":["Оригинальная дорожка"],"seasons_count":1,"episodes_count":2,"episodes":2,"update":"2018-03-26 19:44:55","iframe_src":"//7720.svetacdn.in/71tsRs29n5tZ/tv-series/2268"},{"id":2265,"title":"Родные пенаты","kp_id":"1112711","imdb_id":null,"world_art_id":null,"type":"serial","add":"2018-03-25 04:54:53","orig_title":"Родные пенаты","year":"2018-03-24","translations":["Оригинальная дорожка"],"seasons_count":1,"episodes_count":2,"episodes":2,"update":"2018-03-26 04:42:56","iframe_src":"//7720.svetacdn.in/71tsRs29n5tZ/tv-series/2265"},{"id":2263,"title":"Эда","kp_id":"1115008","imdb_id":"tt7956274","world_art_id":null,"type":"serial","add":"2018-03-23 09:30:36","orig_title":"Edha","year":"2018-03-16","translations":["Профессиональный (многоголосый закадровый) (ColdFilm)"],"seasons_count":1,"episodes_count":10,"episodes":10,"update":"2018-03-23 14:00:12","iframe_src":"//7720.svetacdn.in/71tsRs29n5tZ/tv-series/2263"},{"id":2262,"title":"Проклятие спящих","kp_id":"989089","imdb_id":null,"world_art_id":null,"type":"serial","add":"2018-03-23 09:09:24","orig_title":"Проклятие спящих","year":"2018-03-22","translations":["Оригинальная дорожка"],"seasons_count":1,"episodes_count":8,"episodes":8,"update":"2018-03-25 13:36:37","iframe_src":"//7720.svetacdn.in/71tsRs29n5tZ/tv-series/2262"},{"id":2257,"title":"Точка убийства","kp_id":"400095","imdb_id":"tt0862593","world_art_id":null,"type":"serial","add":"2018-03-21 13:14:55","orig_title":"The Kill Point","year":"2007-07-22","translations":["Профессиональный (многоголосый закадровый) (Fox Crime)"],"seasons_count":1,"episodes_count":8,"episodes":8,"update":"2018-03-22 06:59:10","iframe_src":"//7720.svetacdn.in/71tsRs29n5tZ/tv-series/2257"},{"id":2252,"title":"Парень моей девушки","kp_id":null,"imdb_id":"tt7044692","world_art_id":null,"type":"serial","add":"2018-03-20 14:29:40","orig_title":"My Girlfriend's Boyfriend","year":"2017-05-25","translations":["Любительский (двухголосый закадровый) (HighHopes)"],"seasons_count":2,"episodes_count":32,"episodes":16,"update":"2018-03-21 11:28:57","iframe_src":"//7720.svetacdn.in/71tsRs29n5tZ/tv-series/2252"},{"id":2225,"title":"Обратный отсчёт","kp_id":"993561","imdb_id":null,"world_art_id":null,"type":"serial","add":"2018-03-14 10:46:32","orig_title":"Обратный отсчёт","year":"2018-03-12","translations":["Оригинальная дорожка"],"seasons_count":1,"episodes_count":16,"episodes":16,"update":"2018-03-22 16:38:19","iframe_src":"//7720.svetacdn.in/71tsRs29n5tZ/tv-series/2225"},{"id":2216,"title":"Запах женщины","kp_id":"644513","imdb_id":"tt3184724","world_art_id":null,"type":"serial","add":"2018-03-12 22:45:49","orig_title":"Yeoinui hyanggi","year":"2011-07-23","translations":["Любительский (одноголосый закадровый) (GREEN TEA)"],"seasons_count":1,"episodes_count":16,"episodes":16,"update":"2018-03-22 09:29:05","iframe_src":"//7720.svetacdn.in/71tsRs29n5tZ/tv-series/2216"},{"id":2208,"title":"Гимнастика, которая сделала из нас мужчин","kp_id":"504717","imdb_id":"tt1627110","world_art_id":null,"type":"serial","add":"2018-03-10 16:50:14","orig_title":"Tanburingu","year":"2010-04-17","translations":["Любительский (двухголосый закадровый)"],"seasons_count":1,"episodes_count":11,"episodes":11,"update":"2018-03-26 14:24:17","iframe_src":"//7720.svetacdn.in/71tsRs29n5tZ/tv-series/2208"},{"id":2206,"title":"Любовная перетасовка","kp_id":"472339","imdb_id":"tt1360590","world_art_id":null,"type":"serial","add":"2018-03-10 16:24:59","orig_title":"Rabu shaffuru","year":"2009-01-16","translations":["Любительский (двухголосый закадровый) (GREEN TEA)"],"seasons_count":1,"episodes_count":10,"episodes":10,"update":"2018-03-23 13:27:39","iframe_src":"//7720.svetacdn.in/71tsRs29n5tZ/tv-series/2206"},{"id":2204,"title":"Игра Лжецов","kp_id":"401449","imdb_id":"tt0978076","world_art_id":null,"type":"serial","add":"2018-03-10 15:27:42","orig_title":"Liar Game","year":"2007-04-14","translations":["Профессиональный (многоголосый закадровый) (Kansai)"],"seasons_count":2,"episodes_count":20,"episodes":9,"update":"2018-03-23 13:16:58","iframe_src":"//7720.svetacdn.in/71tsRs29n5tZ/tv-series/2204"},{"id":2200,"title":"Назад в прошлое: 9 шансов всё изменить","kp_id":"736394","imdb_id":"tt3215140","world_art_id":null,"type":"serial","add":"2018-03-10 14:46:27","orig_title":"Nain: ahob beonui shiganyeohaeng","year":"2013-03-10","translations":["Любительский (одноголосый закадровый)"],"seasons_count":1,"episodes_count":20,"episodes":20,"update":"2018-03-23 08:32:22","iframe_src":"//7720.svetacdn.in/71tsRs29n5tZ/tv-series/2200"},{"id":2199,"title":"Король драмы","kp_id":"717079","imdb_id":"tt3543410","world_art_id":null,"type":"serial","add":"2018-03-10 14:38:06","orig_title":"Deuramaui jaewang","year":"2012-11-05","translations":["Любительский (двухголосый закадровый) (GREEN TEA)"],"seasons_count":1,"episodes_count":18,"episodes":18,"update":"2018-03-22 08:32:35","iframe_src":"//7720.svetacdn.in/71tsRs29n5tZ/tv-series/2199"},{"id":2198,"title":"49 дней","kp_id":"659405","imdb_id":"tt1935066","world_art_id":null,"type":"serial","add":"2018-03-10 14:32:01","orig_title":"49il","year":"2011-03-16","translations":["Любительский (двухголосый закадровый) (GREEN TEA)"],"seasons_count":1,"episodes_count":20,"episodes":20,"update":"2018-03-22 08:16:53","iframe_src":"//7720.svetacdn.in/71tsRs29n5tZ/tv-series/2198"},{"id":2177,"title":"Люби меня, если осмелишься","kp_id":"952153","imdb_id":"tt5079866","world_art_id":null,"type":"serial","add":"2018-03-04 21:25:39","orig_title":"Ta lai le qing bi yan","year":"2015-10-15","translations":["Любительский (двухголосый закадровый) (XDUB Dorama)","Профессиональный (двухголосый закадровый) (ViruseProject)"],"seasons_count":1,"episodes_count":24,"episodes":24,"update":"2018-03-26 15:00:19","iframe_src":"//7720.svetacdn.in/71tsRs29n5tZ/tv-series/2177"},{"id":2167,"title":"Мой капитан","kp_id":"677565","imdb_id":"tt3859486","world_art_id":null,"type":"serial","add":"2018-03-04 08:37:22","orig_title":"Moy kapitan","year":"2012-04-30","translations":["Оригинальная дорожка"],"seasons_count":1,"episodes_count":4,"episodes":4,"update":"2018-03-22 11:36:33","iframe_src":"//7720.svetacdn.in/71tsRs29n5tZ/tv-series/2167"},{"id":831,"title":"По ту сторону","kp_id":"944184","imdb_id":"tt5174766","world_art_id":null,"type":"serial","add":"2017-01-08 09:57:04","orig_title":"Beyond","year":"2017-01-02","translations":["Профессиональный (многоголосый закадровый) (LostFilm)","Полное дублирование","Профессиональный (двухголосый закадровый) (LostFilm)"],"seasons_count":2,"episodes_count":20,"episodes":10,"update":"2018-03-26 12:25:50","iframe_src":"//7720.svetacdn.in/71tsRs29n5tZ/tv-series/831"},{"id":685,"title":"Потомки солнца","kp_id":"963340","imdb_id":"tt4925000","world_art_id":null,"type":"serial","add":"2016-12-12 19:51:47","orig_title":"Taeyangeui huye","year":"2016-02-24","translations":["Любительский (двухголосый закадровый) (SoftBox)","Профессиональный (многоголосый закадровый) (Мобильное телевидение)"],"seasons_count":1,"episodes_count":17,"episodes":17,"update":"2018-03-21 15:11:58","iframe_src":"//7720.svetacdn.in/71tsRs29n5tZ/tv-series/685"},{"id":567,"title":"Кевин подождет","kp_id":"962143","imdb_id":"tt5462720","world_art_id":null,"type":"serial","add":"2016-11-03 12:15:16","orig_title":"Kevin Can Wait","year":"2016-09-19","translations":["Профессиональный (многоголосый закадровый) (IdeaFilm)"],"seasons_count":2,"episodes_count":43,"episodes":19,"update":"2018-03-22 16:39:09","iframe_src":"//7720.svetacdn.in/71tsRs29n5tZ/tv-series/567"}],"current_page":480,"first_page_url":"https://videocdn.tv/api/short?limit=100&api_token=EnbO9h8pv1VyjbCJhg0WM9nG259n7mtz&cache3480=3480&page=1","from":47901,"last_page":653,"last_page_url":"https://videocdn.tv/api/short?limit=100&api_token=EnbO9h8pv1VyjbCJhg0WM9nG259n7mtz&cache3480=3480&page=653","next_page_url":"https://videocdn.tv/api/short?limit=100&api_token=EnbO9h8pv1VyjbCJhg0WM9nG259n7mtz&cache3480=3480&page=481","path":"https://videocdn.tv/api/short","per_page":100,"prev_page_url":"https://videocdn.tv/api/short?limit=100&api_token=EnbO9h8pv1VyjbCJhg0WM9nG259n7mtz&cache3480=3480&page=479","to":47940,"total":65298}