{"result":true,"data":[{"id":42258,"title":"Мальчик и облако","kp_id":"489269","imdb_id":null,"world_art_id":null,"type":"movie","add":"2020-08-03 20:32:38","orig_title":"Мальчик и облако","year":"1970-01-01","translations":["Оригинальная дорожка"],"quality":"dvdrip","translation":"Оригинальная дорожка","update":"2020-08-05 08:11:42","iframe_src":"//8543.svetacdn.in/IAF0wWTdNYZm/movie/42258"},{"id":42256,"title":"Любовь и смерть картошки обыкновенной","kp_id":"1142595","imdb_id":null,"world_art_id":null,"type":"movie","add":"2020-08-03 20:29:44","orig_title":"Любовь и смерть картошки обыкновенной","year":"1990-01-01","translations":["Оригинальная дорожка"],"quality":"sat","translation":"Оригинальная дорожка","update":"2020-08-05 08:11:01","iframe_src":"//8543.svetacdn.in/IAF0wWTdNYZm/movie/42256"},{"id":42254,"title":"Лгунишка","kp_id":"586344","imdb_id":null,"world_art_id":null,"type":"movie","add":"2020-08-03 20:26:21","orig_title":"Лгунишка","year":"1941-04-27","translations":["Оригинальная дорожка"],"quality":"tv","translation":"Оригинальная дорожка","update":"2020-08-05 08:09:34","iframe_src":"//8543.svetacdn.in/IAF0wWTdNYZm/movie/42254"},{"id":42252,"title":"Лев и бык","kp_id":"212252","imdb_id":"tt0478379","world_art_id":null,"type":"movie","add":"2020-08-03 20:21:55","orig_title":"Lev i byk","year":"1983-01-01","translations":["Оригинальная дорожка"],"quality":"dvdrip","translation":"Оригинальная дорожка","update":"2020-08-05 08:06:43","iframe_src":"//8543.svetacdn.in/IAF0wWTdNYZm/movie/42252"},{"id":42250,"title":"Лень","kp_id":"565233","imdb_id":"tt9149358","world_art_id":null,"type":"movie","add":"2020-08-03 20:19:29","orig_title":"Len","year":"1981-01-01","translations":["Оригинальная дорожка"],"quality":"dvdrip","translation":"Оригинальная дорожка","update":"2020-08-05 08:05:45","iframe_src":"//8543.svetacdn.in/IAF0wWTdNYZm/movie/42250"},{"id":42249,"title":"Лень","kp_id":"565247","imdb_id":null,"world_art_id":null,"type":"movie","add":"2020-08-03 20:15:48","orig_title":"Лень","year":"1979-01-01","translations":["Оригинальная дорожка"],"quality":"dvdrip","translation":"Оригинальная дорожка","update":"2020-08-05 08:05:25","iframe_src":"//8543.svetacdn.in/IAF0wWTdNYZm/movie/42249"},{"id":42246,"title":"Лебединое перышко","kp_id":"1045191","imdb_id":"tt11859904","world_art_id":null,"type":"movie","add":"2020-08-03 20:10:15","orig_title":"Lebedinoe peryshko","year":"1985-01-01","translations":["Оригинальная дорожка"],"quality":"webdl","translation":"Оригинальная дорожка","update":"2020-08-05 08:04:25","iframe_src":"//8543.svetacdn.in/IAF0wWTdNYZm/movie/42246"},{"id":42245,"title":"Как было написано первое письмо","kp_id":"668687","imdb_id":"tt2832918","world_art_id":null,"type":"movie","add":"2020-08-03 20:07:31","orig_title":"Kak bylo napisano pervoe pismo","year":"1984-01-01","translations":["Оригинальная дорожка"],"quality":"dvdrip","translation":"Оригинальная дорожка","update":"2020-08-05 08:03:47","iframe_src":"//8543.svetacdn.in/IAF0wWTdNYZm/movie/42245"},{"id":42244,"title":"Я рисую красный лес","kp_id":"841500","imdb_id":null,"world_art_id":null,"type":"movie","add":"2020-08-03 20:05:11","orig_title":"Я рисую красный лес","year":"1974-01-01","translations":["Оригинальная дорожка"],"quality":"dvdrip","translation":"Оригинальная дорожка","update":"2020-08-05 08:03:09","iframe_src":"//8543.svetacdn.in/IAF0wWTdNYZm/movie/42244"},{"id":42243,"title":"И мы на Олимпиаду!","kp_id":"581914","imdb_id":null,"world_art_id":null,"type":"movie","add":"2020-08-03 20:01:22","orig_title":"И мы на Олимпиаду!","year":"1940-01-01","translations":["Оригинальная дорожка"],"quality":"tv","translation":"Оригинальная дорожка","update":"2020-08-05 08:02:07","iframe_src":"//8543.svetacdn.in/IAF0wWTdNYZm/movie/42243"},{"id":42242,"title":"Жук — кривая горка","kp_id":"622646","imdb_id":null,"world_art_id":null,"type":"movie","add":"2020-08-03 19:57:03","orig_title":"Жук — кривая горка","year":"1973-01-01","translations":["Оригинальная дорожка"],"quality":"dvdrip","translation":"Оригинальная дорожка","update":"2020-08-05 08:01:16","iframe_src":"//8543.svetacdn.in/IAF0wWTdNYZm/movie/42242"},{"id":42240,"title":"Главный звездный","kp_id":"601590","imdb_id":"tt8193364","world_art_id":null,"type":"movie","add":"2020-08-03 19:54:39","orig_title":"Glavnyy zvyozdnyy","year":"1966-01-01","translations":["Оригинальная дорожка"],"quality":"sat","translation":"Оригинальная дорожка","update":"2020-08-05 07:58:43","iframe_src":"//8543.svetacdn.in/IAF0wWTdNYZm/movie/42240"},{"id":42239,"title":"5/4","kp_id":"451111","imdb_id":"tt3335112","world_art_id":null,"type":"movie","add":"2020-08-03 19:52:29","orig_title":"5/4","year":"1990-01-01","translations":["Оригинальная дорожка"],"quality":"dvdrip","translation":"Оригинальная дорожка","update":"2020-08-05 07:58:05","iframe_src":"//8543.svetacdn.in/IAF0wWTdNYZm/movie/42239"},{"id":42237,"title":"Пантелей и пугало","kp_id":"478794","imdb_id":"tt5961594","world_art_id":null,"type":"movie","add":"2020-08-03 19:49:44","orig_title":"Panteley i pugalo","year":"1985-01-01","translations":["Оригинальная дорожка"],"quality":"dvdrip","translation":"Оригинальная дорожка","update":"2020-08-05 07:57:10","iframe_src":"//8543.svetacdn.in/IAF0wWTdNYZm/movie/42237"},{"id":42212,"title":"Птичий праздник","kp_id":"574050","imdb_id":"tt9100068","world_art_id":null,"type":"movie","add":"2020-08-02 19:05:46","orig_title":"Ptichiy prazdnik","year":"1976-01-01","translations":["Оригинальная дорожка"],"quality":"dvdrip","translation":"Оригинальная дорожка","update":"2020-08-05 07:55:43","iframe_src":"//8543.svetacdn.in/IAF0wWTdNYZm/movie/42212"},{"id":42211,"title":"Птичий рынок","kp_id":"622812","imdb_id":"tt9100002","world_art_id":null,"type":"movie","add":"2020-08-02 19:02:40","orig_title":"Ptichiy rynok","year":"1974-01-01","translations":["Оригинальная дорожка"],"quality":"dvdrip","translation":"Оригинальная дорожка","update":"2020-08-05 07:53:49","iframe_src":"//8543.svetacdn.in/IAF0wWTdNYZm/movie/42211"},{"id":42210,"title":"Пугали зайцы зайчонка","kp_id":"565236","imdb_id":"tt6416664","world_art_id":null,"type":"movie","add":"2020-08-02 18:59:57","orig_title":"Pugali zaytsy zaychonka","year":"1983-01-01","translations":["Оригинальная дорожка"],"quality":"dvdrip","translation":"Оригинальная дорожка","update":"2020-08-05 07:53:00","iframe_src":"//8543.svetacdn.in/IAF0wWTdNYZm/movie/42210"},{"id":42209,"title":"Пугало","kp_id":"628507","imdb_id":"tt6027510","world_art_id":null,"type":"movie","add":"2020-08-02 18:54:03","orig_title":"Pugalo","year":"1990-01-01","translations":["Оригинальная дорожка"],"quality":"dvdrip","translation":"Оригинальная дорожка","update":"2020-08-05 07:51:55","iframe_src":"//8543.svetacdn.in/IAF0wWTdNYZm/movie/42209"},{"id":42207,"title":"Разрешите пройти","kp_id":"1199840","imdb_id":"tt6044542","world_art_id":null,"type":"movie","add":"2020-08-02 18:45:41","orig_title":"Razreshite proyti","year":"1987-01-01","translations":["Оригинальная дорожка"],"quality":"sat","translation":"Оригинальная дорожка","update":"2020-08-05 07:28:22","iframe_src":"//8543.svetacdn.in/IAF0wWTdNYZm/movie/42207"},{"id":42206,"title":"Шалтай-Болтай","kp_id":"574651","imdb_id":"tt11664208","world_art_id":null,"type":"movie","add":"2020-08-02 18:42:33","orig_title":"Shaltay-Boltay","year":"1983-01-01","translations":["Оригинальная дорожка"],"quality":"dvdrip","translation":"Оригинальная дорожка","update":"2020-08-05 07:26:07","iframe_src":"//8543.svetacdn.in/IAF0wWTdNYZm/movie/42206"},{"id":2231,"title":"Соучастник","kp_id":"1045404","imdb_id":"tt6729080","world_art_id":null,"type":"serial","add":"2018-03-15 10:38:10","orig_title":"Collateral","year":"2018-02-12","translations":["Профессиональный (многоголосый закадровый) (NewStudio)"],"seasons_count":1,"episodes_count":4,"episodes":4,"update":"2018-03-16 09:10:56","iframe_src":"//8543.svetacdn.in/IAF0wWTdNYZm/tv-series/2231"},{"id":2228,"title":"Чужая","kp_id":"1112190","imdb_id":null,"world_art_id":null,"type":"serial","add":"2018-03-15 10:07:58","orig_title":"Чужая","year":"2018-03-07","translations":["Оригинальная дорожка"],"seasons_count":1,"episodes_count":8,"episodes":8,"update":"2018-03-16 10:07:12","iframe_src":"//8543.svetacdn.in/IAF0wWTdNYZm/tv-series/2228"},{"id":2226,"title":"Невозможная женщина","kp_id":"1112866","imdb_id":null,"world_art_id":null,"type":"serial","add":"2018-03-14 10:48:53","orig_title":"Невозможная женщина","year":"2018-03-11","translations":["Оригинальная дорожка"],"seasons_count":1,"episodes_count":2,"episodes":2,"update":"2018-03-14 13:53:54","iframe_src":"//8543.svetacdn.in/IAF0wWTdNYZm/tv-series/2226"},{"id":2222,"title":"Начать сначала. Марта","kp_id":"436254","imdb_id":"tt1427171","world_art_id":null,"type":"serial","add":"2018-03-13 09:41:03","orig_title":"Nachat snachala. Marta","year":"2008-01-01","translations":["Оригинальная дорожка"],"seasons_count":1,"episodes_count":4,"episodes":4,"update":"2018-03-13 14:52:24","iframe_src":"//8543.svetacdn.in/IAF0wWTdNYZm/tv-series/2222"},{"id":2220,"title":"Высокие ставки","kp_id":"915305","imdb_id":null,"world_art_id":null,"type":"serial","add":"2018-03-13 08:10:46","orig_title":"Высокие ставки","year":"2015-11-02","translations":["Оригинальная дорожка"],"seasons_count":2,"episodes_count":40,"episodes":16,"update":"2018-03-14 11:23:21","iframe_src":"//8543.svetacdn.in/IAF0wWTdNYZm/tv-series/2220"},{"id":2192,"title":"Лиллехаммер","kp_id":"665654","imdb_id":"tt1958961","world_art_id":null,"type":"serial","add":"2018-03-07 20:39:06","orig_title":"Lilyhammer","year":"2012-01-25","translations":["Авторский (одноголосый закадровый) (Сербин Юрий)"],"seasons_count":3,"episodes_count":24,"episodes":8,"update":"2018-03-09 07:09:55","iframe_src":"//8543.svetacdn.in/IAF0wWTdNYZm/tv-series/2192"},{"id":2183,"title":"Авария","kp_id":"1101302","imdb_id":null,"world_art_id":null,"type":"serial","add":"2018-03-06 09:26:39","orig_title":"Авария","year":"2018-03-03","translations":["Оригинальная дорожка"],"seasons_count":1,"episodes_count":4,"episodes":4,"update":"2018-03-09 07:05:02","iframe_src":"//8543.svetacdn.in/IAF0wWTdNYZm/tv-series/2183"},{"id":2171,"title":"Американская мечта","kp_id":"1047464","imdb_id":"tt7138426","world_art_id":null,"type":"serial","add":"2018-03-04 10:58:02","orig_title":"Living the Dream","year":"2017-11-02","translations":["Профессиональный (многоголосый закадровый) (ColdFilm)"],"seasons_count":1,"episodes_count":6,"episodes":6,"update":"2018-03-13 13:29:21","iframe_src":"//8543.svetacdn.in/IAF0wWTdNYZm/tv-series/2171"},{"id":2170,"title":"Соседи","kp_id":"654630","imdb_id":null,"world_art_id":null,"type":"serial","add":"2018-03-04 08:53:03","orig_title":"Соседи","year":"2012-08-20","translations":["Оригинальная дорожка"],"seasons_count":1,"episodes_count":16,"episodes":16,"update":"2018-03-08 15:11:11","iframe_src":"//8543.svetacdn.in/IAF0wWTdNYZm/tv-series/2170"},{"id":2155,"title":"Тучи над холмами","kp_id":"411840","imdb_id":"tt0991330","world_art_id":null,"type":"serial","add":"2018-03-02 20:06:42","orig_title":"Saka no ue no kumo","year":"2009-11-29","translations":["Авторский (одноголосый закадровый) (Дольский Андрей)"],"seasons_count":3,"episodes_count":13,"episodes":4,"update":"2018-03-12 11:28:06","iframe_src":"//8543.svetacdn.in/IAF0wWTdNYZm/tv-series/2155"},{"id":2147,"title":"Вор периода Эдо по кличке Крыса","kp_id":"839040","imdb_id":"tt3409718","world_art_id":null,"type":"serial","add":"2018-02-28 23:08:55","orig_title":"Nezumi, Edo wo hashiru","year":"2014-01-09","translations":["Любительский (одноголосый закадровый)"],"seasons_count":1,"episodes_count":9,"episodes":9,"update":"2018-03-08 14:45:39","iframe_src":"//8543.svetacdn.in/IAF0wWTdNYZm/tv-series/2147"},{"id":2128,"title":"От ненависти до любви","kp_id":"1112260","imdb_id":null,"world_art_id":null,"type":"serial","add":"2018-02-20 15:31:05","orig_title":"От ненависти до любви","year":"2018-02-19","translations":["Оригинальная дорожка"],"seasons_count":1,"episodes_count":24,"episodes":24,"update":"2018-03-09 12:00:23","iframe_src":"//8543.svetacdn.in/IAF0wWTdNYZm/tv-series/2128"},{"id":2123,"title":"Без права на выбор","kp_id":"797053","imdb_id":"tt4505112","world_art_id":null,"type":"serial","add":"2018-02-20 12:39:06","orig_title":"Bez prava na vybor","year":"2013-05-09","translations":["Оригинальная дорожка"],"seasons_count":1,"episodes_count":4,"episodes":4,"update":"2018-03-12 14:29:12","iframe_src":"//8543.svetacdn.in/IAF0wWTdNYZm/tv-series/2123"},{"id":2079,"title":"Стоматолог","kp_id":"1112542","imdb_id":null,"world_art_id":null,"type":"serial","add":"2018-02-14 05:26:11","orig_title":"Стоматолог","year":"2015-02-05","translations":["Оригинальная дорожка"],"seasons_count":1,"episodes_count":20,"episodes":20,"update":"2018-03-12 14:14:24","iframe_src":"//8543.svetacdn.in/IAF0wWTdNYZm/tv-series/2079"},{"id":2073,"title":"Команда Б","kp_id":"1047782","imdb_id":null,"world_art_id":null,"type":"serial","add":"2018-02-13 04:51:59","orig_title":"Команда Б","year":"2018-02-19","translations":["Оригинальная дорожка"],"seasons_count":1,"episodes_count":20,"episodes":20,"update":"2018-03-13 17:46:19","iframe_src":"//8543.svetacdn.in/IAF0wWTdNYZm/tv-series/2073"},{"id":1988,"title":"Евангелие от Кевина","kp_id":"1021791","imdb_id":"tt6474174","world_art_id":null,"type":"serial","add":"2018-01-25 05:57:41","orig_title":"Kevin (Probably) Saves the World","year":"2017-10-03","translations":["Профессиональный (многоголосый закадровый) (NewStudio)"],"seasons_count":1,"episodes_count":16,"episodes":16,"update":"2018-03-11 09:22:22","iframe_src":"//8543.svetacdn.in/IAF0wWTdNYZm/tv-series/1988"},{"id":609,"title":"Падающая вода","kp_id":"977492","imdb_id":"tt4520992","world_art_id":null,"type":"serial","add":"2016-11-20 09:01:46","orig_title":"Falling Water","year":"2016-09-13","translations":["Профессиональный (многоголосый закадровый) (Кравец)","Профессиональный (многоголосый закадровый) (BaibaKo)"],"seasons_count":2,"episodes_count":20,"episodes":10,"update":"2018-03-13 14:53:26","iframe_src":"//8543.svetacdn.in/IAF0wWTdNYZm/tv-series/609"},{"id":551,"title":"Звёздные войны: Повстанцы","kp_id":"803148","imdb_id":"tt2930604","world_art_id":null,"type":"serial","add":"2016-10-21 15:41:48","orig_title":"Star Wars Rebels","year":"2014-09-26","translations":["Профессиональный (многоголосый закадровый) (LostFilm)","Полное дублирование (Невафильм)","Полное дублирование"],"seasons_count":4,"episodes_count":74,"episodes":17,"update":"2018-03-13 14:31:26","iframe_src":"//8543.svetacdn.in/IAF0wWTdNYZm/tv-series/551"},{"id":188,"title":"Волчья яма","kp_id":"957473","imdb_id":"tt4460878","world_art_id":null,"type":"serial","add":"2016-06-15 08:41:29","orig_title":"Wolf Creek","year":"2016-05-12","translations":["Профессиональный (многоголосый закадровый) (KinoView)","Профессиональный (многоголосый закадровый) (ViruseProject)","Профессиональный (двухголосый закадровый) (ViruseProject)"],"seasons_count":2,"episodes_count":12,"episodes":6,"update":"2018-03-12 11:00:51","iframe_src":"//8543.svetacdn.in/IAF0wWTdNYZm/tv-series/188"},{"id":18,"title":"Остров","kp_id":"941521","imdb_id":"tt5188256","world_art_id":null,"type":"serial","add":"2016-03-15 12:44:37","orig_title":"Ostrov","year":"2016-02-08","translations":["Оригинальная дорожка"],"seasons_count":2,"episodes_count":43,"episodes":19,"update":"2018-03-09 11:58:21","iframe_src":"//8543.svetacdn.in/IAF0wWTdNYZm/tv-series/18"}],"current_page":431,"first_page_url":"https://videocdn.tv/api/short?limit=100&api_token=6Onb1W1alEUrBcKJZD3GoKBbWyAl2uG2&cache3431=3431&page=1","from":43001,"last_page":606,"last_page_url":"https://videocdn.tv/api/short?limit=100&api_token=6Onb1W1alEUrBcKJZD3GoKBbWyAl2uG2&cache3431=3431&page=606","next_page_url":"https://videocdn.tv/api/short?limit=100&api_token=6Onb1W1alEUrBcKJZD3GoKBbWyAl2uG2&cache3431=3431&page=432","path":"https://videocdn.tv/api/short","per_page":100,"prev_page_url":"https://videocdn.tv/api/short?limit=100&api_token=6Onb1W1alEUrBcKJZD3GoKBbWyAl2uG2&cache3431=3431&page=430","to":43040,"total":60501}