{"result":true,"data":[{"id":31315,"title":"Плащ","kp_id":"978399","imdb_id":"tt5585580","world_art_id":null,"type":"movie","add":"2019-09-29 20:34:26","orig_title":"Trench","year":"2018-04-27","translations":["Любительский (многоголосый закадровый) (Синема УС)"],"quality":"webdl","translation":"Любительский (многоголосый закадровый) (Синема УС)","update":"2019-09-30 09:33:14","iframe_src":"//2413.svetacdn.in/71tsRs29n5tZ/movie/31315"},{"id":31314,"title":"Необычайно добрый самарянин","kp_id":"1069568","imdb_id":"tt7120400","world_art_id":null,"type":"movie","add":"2019-09-29 20:33:05","orig_title":"The Unlikely Good Samaritan","year":"2019-03-04","translations":["Любительский (многоголосый закадровый) (Синема УС)"],"quality":"webdl","translation":"Любительский (многоголосый закадровый) (Синема УС)","update":"2019-09-30 09:34:36","iframe_src":"//2413.svetacdn.in/71tsRs29n5tZ/movie/31314"},{"id":31313,"title":"Проклятие Бакаут-роуд","kp_id":"986770","imdb_id":"tt4847454","world_art_id":null,"type":"movie","add":"2019-09-29 20:30:40","orig_title":"The Curse of Buckout RoadThe Curse of Buckout Road","year":"2017-11-24","translations":["Любительский (многоголосый закадровый) (Синема УС)"],"quality":"webdl","translation":"Любительский (многоголосый закадровый) (Синема УС)","update":"2019-09-30 09:36:05","iframe_src":"//2413.svetacdn.in/71tsRs29n5tZ/movie/31313"},{"id":31312,"title":"Властелины стихий","kp_id":"37521","imdb_id":"tt0165499","world_art_id":null,"type":"movie","add":"2019-09-29 20:29:02","orig_title":"Fung wan: Hung ba tin ha","year":"1998-07-18","translations":["Профессиональный (многоголосый закадровый)"],"quality":"bd","translation":"Профессиональный (многоголосый закадровый)","update":"2019-09-30 09:37:06","iframe_src":"//2413.svetacdn.in/71tsRs29n5tZ/movie/31312"},{"id":31311,"title":"Тайки","kp_id":"1202585","imdb_id":"tt9151504","world_art_id":null,"type":"movie","add":"2019-09-29 20:27:41","orig_title":"Taiki","year":"2019-02-18","translations":["Любительский (многоголосый закадровый) (Синема УС)"],"quality":"hdtv","translation":"Любительский (многоголосый закадровый) (Синема УС)","update":"2019-09-30 09:38:06","iframe_src":"//2413.svetacdn.in/71tsRs29n5tZ/movie/31311"},{"id":31310,"title":"Рюзгар","kp_id":"1111998","imdb_id":"tt7748226","world_art_id":null,"type":"movie","add":"2019-09-29 20:26:25","orig_title":"Rüzgar","year":"2018-01-19","translations":["Любительский (многоголосый закадровый) (Синема УС)"],"quality":"webdl","translation":"Любительский (многоголосый закадровый) (Синема УС)","update":"2019-09-30 09:39:14","iframe_src":"//2413.svetacdn.in/71tsRs29n5tZ/movie/31310"},{"id":31309,"title":"Реплекан","kp_id":"1107540","imdb_id":"tt6786122","world_art_id":null,"type":"movie","add":"2019-09-29 20:24:28","orig_title":"Replecan","year":"2017-08-20","translations":["Любительский (многоголосый закадровый) (Синема УС)"],"quality":"webdl","translation":"Любительский (многоголосый закадровый) (Синема УС)","update":"2019-09-30 09:40:23","iframe_src":"//2413.svetacdn.in/71tsRs29n5tZ/movie/31309"},{"id":31308,"title":"Маятник","kp_id":"1034386","imdb_id":"tt6368132","world_art_id":null,"type":"movie","add":"2019-09-29 20:22:27","orig_title":"Pendular","year":"2017-02-11","translations":["Любительский (многоголосый закадровый) (Синема УС)"],"quality":"dvdrip","translation":"Любительский (многоголосый закадровый) (Синема УС)","update":"2019-09-30 09:41:36","iframe_src":"//2413.svetacdn.in/71tsRs29n5tZ/movie/31308"},{"id":31307,"title":"Пол Санчес вернулся!","kp_id":"1074453","imdb_id":"tt7002116","world_art_id":null,"type":"movie","add":"2019-09-29 20:20:54","orig_title":"Paul Sanchez est revenu!","year":"2018-07-18","translations":["Любительский (многоголосый закадровый) (Синема УС)"],"quality":"webdl","translation":"Любительский (многоголосый закадровый) (Синема УС)","update":"2019-09-30 09:42:42","iframe_src":"//2413.svetacdn.in/71tsRs29n5tZ/movie/31307"},{"id":31305,"title":"Женись или умри","kp_id":"954904","imdb_id":"tt5281058","world_art_id":null,"type":"movie","add":"2019-09-29 20:10:41","orig_title":"Get Married or Die","year":"2018-01-04","translations":["Любительский (многоголосый закадровый) (Синема УС)"],"quality":"webdl","translation":"Любительский (многоголосый закадровый) (Синема УС)","update":"2019-09-30 09:46:52","iframe_src":"//2413.svetacdn.in/71tsRs29n5tZ/movie/31305"},{"id":31304,"title":"Свобода","kp_id":"917212","imdb_id":"tt4701906","world_art_id":null,"type":"movie","add":"2019-09-29 20:09:01","orig_title":"Freiheit","year":"2017-08-03","translations":["Любительский (многоголосый закадровый) (Синема УС)"],"quality":"webdl","translation":"Любительский (многоголосый закадровый) (Синема УС)","update":"2019-09-30 09:47:46","iframe_src":"//2413.svetacdn.in/71tsRs29n5tZ/movie/31304"},{"id":31303,"title":"Сон бабочки","kp_id":"995311","imdb_id":"tt5891642","world_art_id":null,"type":"movie","add":"2019-09-29 20:07:37","orig_title":"Chou no nemuri","year":"2017-10-12","translations":["Любительский (многоголосый закадровый) (Синема УС)"],"quality":"bd","translation":"Любительский (многоголосый закадровый) (Синема УС)","update":"2019-09-30 09:48:42","iframe_src":"//2413.svetacdn.in/71tsRs29n5tZ/movie/31303"},{"id":31290,"title":"Боевое оригами","kp_id":"1247631","imdb_id":"tt10035998","world_art_id":null,"type":"movie","add":"2019-09-29 16:57:04","orig_title":"Warigami","year":"2019-04-10","translations":["Любительский (многоголосый закадровый) (Синема УС)"],"quality":"webdl","translation":"Любительский (многоголосый закадровый) (Синема УС)","update":"2019-09-30 10:05:50","iframe_src":"//2413.svetacdn.in/71tsRs29n5tZ/movie/31290"},{"id":31285,"title":"Наступит день","kp_id":"1103947","imdb_id":"tt7078658","world_art_id":null,"type":"movie","add":"2019-09-29 16:41:00","orig_title":"The Day Shall Come","year":"2019-03-11","translations":["Любительский (многоголосый закадровый) (Синема УС)"],"quality":"webdl","translation":"Любительский (многоголосый закадровый) (Синема УС)","update":"2019-09-30 10:09:11","iframe_src":"//2413.svetacdn.in/71tsRs29n5tZ/movie/31285"},{"id":31279,"title":"Безжалостный","kp_id":"1001072","imdb_id":"tt6023242","world_art_id":null,"type":"movie","add":"2019-09-29 16:19:07","orig_title":"Obsession","year":"2019-09-27","translations":["Любительский (многоголосый закадровый) (Синема УС)"],"quality":"webdl","translation":"Любительский (многоголосый закадровый) (Синема УС)","update":"2019-09-30 10:08:12","iframe_src":"//2413.svetacdn.in/71tsRs29n5tZ/movie/31279"},{"id":31237,"title":"В тени Луны","kp_id":"1127701","imdb_id":"tt8110640","world_art_id":null,"type":"movie","add":"2019-09-27 20:09:15","orig_title":"In the Shadow of the Moon","year":"2019-09-27","translations":["Полное дублирование"],"quality":"webdl","translation":"Полное дублирование","update":"2019-09-28 07:05:37","iframe_src":"//2413.svetacdn.in/71tsRs29n5tZ/movie/31237"},{"id":31215,"title":"Мышь в хлебе","kp_id":"1204547","imdb_id":"tt9071108","world_art_id":null,"type":"movie","add":"2019-09-27 09:54:37","orig_title":"The Mouse in The Bread","year":"2018-10-04","translations":["Любительский (многоголосый закадровый) (Синема УС)"],"quality":"webdl","translation":"Любительский (многоголосый закадровый) (Синема УС)","update":"2019-09-27 23:38:47","iframe_src":"//2413.svetacdn.in/71tsRs29n5tZ/movie/31215"},{"id":31212,"title":"Что бы ни случилось потом","kp_id":"1065834","imdb_id":"tt7254768","world_art_id":null,"type":"movie","add":"2019-09-27 09:47:15","orig_title":"Whatever Happens Next","year":"2019-02-21","translations":["Любительский (многоголосый закадровый) (Синема УС)"],"quality":"webdl","translation":"Любительский (многоголосый закадровый) (Синема УС)","update":"2019-09-27 23:38:49","iframe_src":"//2413.svetacdn.in/71tsRs29n5tZ/movie/31212"},{"id":31210,"title":"Игра","kp_id":"1185420","imdb_id":"tt8490100","world_art_id":null,"type":"movie","add":"2019-09-27 09:30:18","orig_title":"Play","year":"2019-09-11","translations":["Любительский (многоголосый закадровый) (Синема УС)"],"quality":"hdtv","translation":"Любительский (многоголосый закадровый) (Синема УС)","update":"2019-09-27 23:38:47","iframe_src":"//2413.svetacdn.in/71tsRs29n5tZ/movie/31210"},{"id":31185,"title":"Король мальчиков","kp_id":"1134285","imdb_id":"tt8329618","world_art_id":null,"type":"movie","add":"2019-09-25 19:03:24","orig_title":"King of Boys","year":"2018-10-26","translations":["Любительский (многоголосый закадровый) (Синема УС)"],"quality":"webdl","translation":"Любительский (многоголосый закадровый) (Синема УС)","update":"2019-09-27 15:56:53","iframe_src":"//2413.svetacdn.in/71tsRs29n5tZ/movie/31185"}],"current_page":1644,"first_page_url":"https://videocdn.tv/api/short?limit=100&api_token=EnbO9h8pv1VyjbCJhg0WM9nG259n7mtz&cache31644=31644&page=1","from":164301,"last_page":719,"last_page_url":"https://videocdn.tv/api/short?limit=100&api_token=EnbO9h8pv1VyjbCJhg0WM9nG259n7mtz&cache31644=31644&page=719","next_page_url":null,"path":"https://videocdn.tv/api/short","per_page":100,"prev_page_url":"https://videocdn.tv/api/short?limit=100&api_token=EnbO9h8pv1VyjbCJhg0WM9nG259n7mtz&cache31644=31644&page=1643","to":164320,"total":71819}