{"result":true,"data":[{"id":51689,"title":"Одной ногой в раю","kp_id":"25353","imdb_id":"tt0102667","world_art_id":null,"type":"movie","add":"2021-07-11 06:44:36","orig_title":"Un piede in paradiso","year":"1991-03-15","translations":["Original (English)","Любительский (одноголосый закадровый) (Кудрявцев Антон)"],"quality":"bd","translation":"Original (English)","update":"2021-07-12 06:44:45","iframe_src":"//8209.svetacdn.in/71tsRs29n5tZ/movie/51689"},{"id":51688,"title":"Девушка с чемоданом","kp_id":"13539","imdb_id":"tt0054225","world_art_id":null,"type":"movie","add":"2021-07-11 06:38:02","orig_title":"La ragazza con la valigia","year":"1961-02-09","translations":["Профессиональный (двухголосый закадровый) (РенТВ)"],"quality":"bd","translation":"Профессиональный (двухголосый закадровый) (РенТВ)","update":"2021-07-12 06:53:31","iframe_src":"//8209.svetacdn.in/71tsRs29n5tZ/movie/51688"},{"id":51687,"title":"Дикки Робертс: Звездный ребенок","kp_id":"4195","imdb_id":"tt0325258","world_art_id":null,"type":"movie","add":"2021-07-11 06:33:22","orig_title":"Dickie Roberts: Former Child Star","year":"2003-09-03","translations":["Профессиональный (многоголосый закадровый)","Original (English)"],"quality":"webdl","translation":"Профессиональный (многоголосый закадровый)","update":"2021-07-12 06:56:33","iframe_src":"//8209.svetacdn.in/71tsRs29n5tZ/movie/51687"},{"id":51682,"title":"Брат Солнце, сестра Луна","kp_id":"8764","imdb_id":"tt0069824","world_art_id":null,"type":"movie","add":"2021-07-10 14:01:49","orig_title":"Fratello sole, sorella luna","year":"1972-03-03","translations":["Профессиональный (многоголосый закадровый)"],"quality":"webdl","translation":"Профессиональный (многоголосый закадровый)","update":"2021-07-12 07:36:04","iframe_src":"//8209.svetacdn.in/71tsRs29n5tZ/movie/51682"},{"id":51680,"title":"Джентльмен Джим","kp_id":"14244","imdb_id":"tt0034778","world_art_id":null,"type":"movie","add":"2021-07-10 13:56:05","orig_title":"Gentleman Jim","year":"1942-11-14","translations":["Любительский (многоголосый закадровый)","Original (English)"],"quality":"webdl","translation":"Любительский (многоголосый закадровый)","update":"2021-07-12 07:29:09","iframe_src":"//8209.svetacdn.in/71tsRs29n5tZ/movie/51680"},{"id":51679,"title":"Колдунья","kp_id":"32582","imdb_id":"tt0086340","world_art_id":null,"type":"movie","add":"2021-07-10 13:37:58","orig_title":"Sorceress","year":"1982-10-01","translations":["Original (English)","Любительский (одноголосый закадровый)"],"quality":"bd","translation":"Original (English)","update":"2021-07-12 07:32:32","iframe_src":"//8209.svetacdn.in/71tsRs29n5tZ/movie/51679"},{"id":51676,"title":"Грабители поездов","kp_id":"1333","imdb_id":"tt0070825","world_art_id":null,"type":"movie","add":"2021-07-10 13:11:34","orig_title":"The Train Robbers","year":"1973-02-07","translations":["Original (English)","Полное дублирование (Варус-Видео)"],"quality":"bd","translation":"Original (English)","update":"2021-07-12 07:25:31","iframe_src":"//8209.svetacdn.in/71tsRs29n5tZ/movie/51676"},{"id":51610,"title":"Приливы","kp_id":"1169879","imdb_id":"tt6506264","world_art_id":null,"type":"movie","add":"2021-07-07 10:33:56","orig_title":"Tides","year":"2021-01-01","translations":["Любительский (многоголосый закадровый) (AlphaProject)","Любительский (многоголосый закадровый) (AlphaProject)","Original (English)"],"quality":"webdl","translation":"Любительский (многоголосый закадровый) (AlphaProject)","update":"2021-07-12 08:18:37","iframe_src":"//8209.svetacdn.in/71tsRs29n5tZ/movie/51610"},{"id":48047,"title":"Дара из Ясеноваца","kp_id":"1282662","imdb_id":"tt10554232","world_art_id":null,"type":"movie","add":"2021-02-19 00:49:25","orig_title":"Dara iz Jasenovca","year":"2021-02-05","translations":["Любительский (многоголосый закадровый) (@MUZOBOZ@)","Профессиональный (двухголосый закадровый) (Pazl Voice)"],"quality":"webdl","translation":"Любительский (многоголосый закадровый) (@MUZOBOZ@)","update":"2021-07-12 06:47:59","iframe_src":"//8209.svetacdn.in/71tsRs29n5tZ/movie/48047"},{"id":9616,"title":"Логово","kp_id":"398644","imdb_id":"tt0958611","world_art_id":null,"type":"serial","add":"2020-12-27 16:17:44","orig_title":"The Lair","year":"2007-04-01","translations":["Любительский (одноголосый закадровый)"],"seasons_count":2,"episodes_count":15,"episodes":9,"update":"2020-12-28 07:44:48","iframe_src":"//8209.svetacdn.in/71tsRs29n5tZ/tv-series/9616"},{"id":9606,"title":"Узы любви","kp_id":"417794","imdb_id":"tt0210426","world_art_id":null,"type":"serial","add":"2020-12-26 11:23:28","orig_title":"Lazos de amor","year":"1995-01-01","translations":["Профессиональный (многоголосый закадровый)"],"seasons_count":1,"episodes_count":100,"episodes":100,"update":"2020-12-27 16:28:53","iframe_src":"//8209.svetacdn.in/71tsRs29n5tZ/tv-series/9606"},{"id":9605,"title":"Девочка из океана","kp_id":"409040","imdb_id":"tt0108885","world_art_id":null,"type":"serial","add":"2020-12-25 18:20:16","orig_title":"Ocean Girl","year":"1994-08-29","translations":["Профессиональный (многоголосый закадровый)"],"seasons_count":4,"episodes_count":78,"episodes":26,"update":"2020-12-27 14:36:28","iframe_src":"//8209.svetacdn.in/71tsRs29n5tZ/tv-series/9605"},{"id":9603,"title":"Могучие рейнджеры: Р.П.М.","kp_id":"431288","imdb_id":"tt1304612","world_art_id":null,"type":"serial","add":"2020-12-25 17:41:13","orig_title":"Power Rangers R.P.M.","year":"2009-03-07","translations":["Профессиональный (многоголосый закадровый) (Lucky Production)"],"seasons_count":1,"episodes_count":32,"episodes":32,"update":"2020-12-27 16:38:46","iframe_src":"//8209.svetacdn.in/71tsRs29n5tZ/tv-series/9603"},{"id":9602,"title":"Могучие рейнджеры: Дикий мир","kp_id":"229436","imdb_id":"tt0287871","world_art_id":null,"type":"serial","add":"2020-12-25 17:36:28","orig_title":"Power Rangers Wild Force","year":"2002-02-09","translations":["Полное дублирование (РенТВ)"],"seasons_count":1,"episodes_count":40,"episodes":40,"update":"2020-12-27 16:02:54","iframe_src":"//8209.svetacdn.in/71tsRs29n5tZ/tv-series/9602"},{"id":9598,"title":"Могучие рейнджеры: Зео","kp_id":"229579","imdb_id":"tt0115319","world_art_id":null,"type":"serial","add":"2020-12-25 17:01:36","orig_title":"Power Rangers Zeo","year":"1996-04-20","translations":["Полное дублирование (РенТВ)"],"seasons_count":1,"episodes_count":50,"episodes":50,"update":"2020-12-27 17:59:44","iframe_src":"//8209.svetacdn.in/71tsRs29n5tZ/tv-series/9598"},{"id":9597,"title":"Могучие рейнджеры: Операция «Молния»","kp_id":"253759","imdb_id":"tt0784920","world_art_id":null,"type":"serial","add":"2020-12-25 16:48:45","orig_title":"Power Rangers Operation Overdrive","year":"2007-02-26","translations":["Полное дублирование (Jetix)"],"seasons_count":1,"episodes_count":32,"episodes":32,"update":"2020-12-27 17:39:43","iframe_src":"//8209.svetacdn.in/71tsRs29n5tZ/tv-series/9597"},{"id":9596,"title":"Могучие рейнджеры: Волшебная сила","kp_id":"229919","imdb_id":"tt0451469","world_art_id":null,"type":"serial","add":"2020-12-25 16:42:27","orig_title":"Power Rangers Mystic Force","year":"2006-02-20","translations":["Полное дублирование (Jetix)"],"seasons_count":1,"episodes_count":32,"episodes":32,"update":"2020-12-27 17:17:25","iframe_src":"//8209.svetacdn.in/71tsRs29n5tZ/tv-series/9596"},{"id":9595,"title":"Могучие рейнджеры: Космический патруль Дельта","kp_id":"229834","imdb_id":"tt0414762","world_art_id":null,"type":"serial","add":"2020-12-25 16:36:26","orig_title":"Power Rangers S.P.D.","year":"2005-02-05","translations":["Профессиональный (двухголосый закадровый) (РенТВ)"],"seasons_count":1,"episodes_count":38,"episodes":38,"update":"2020-12-27 16:57:36","iframe_src":"//8209.svetacdn.in/71tsRs29n5tZ/tv-series/9595"},{"id":9594,"title":"Могучие рейнджеры: Дино Гром","kp_id":"229659","imdb_id":"tt0373587","world_art_id":null,"type":"serial","add":"2020-12-25 16:30:22","orig_title":"Power Rangers DinoThunder","year":"2004-02-14","translations":["Профессиональный (двухголосый закадровый) (РенТВ)"],"seasons_count":1,"episodes_count":38,"episodes":38,"update":"2020-12-27 16:29:42","iframe_src":"//8209.svetacdn.in/71tsRs29n5tZ/tv-series/9594"},{"id":9592,"title":"Могучие рейнджеры: В космосе","kp_id":"229567","imdb_id":"tt0120575","world_art_id":null,"type":"serial","add":"2020-12-25 16:22:43","orig_title":"Power Rangers in Space","year":"1998-02-06","translations":["Полное дублирование (РенТВ)"],"seasons_count":1,"episodes_count":43,"episodes":43,"update":"2020-12-27 16:07:18","iframe_src":"//8209.svetacdn.in/71tsRs29n5tZ/tv-series/9592"},{"id":9590,"title":"38 попугаев","kp_id":"46796","imdb_id":"tt11924510","world_art_id":null,"type":"serial","add":"2020-12-25 15:48:48","orig_title":"38 popugaev","year":"1976-07-12","translations":["Оригинальная дорожка"],"seasons_count":1,"episodes_count":10,"episodes":10,"update":"2020-12-27 16:05:12","iframe_src":"//8209.svetacdn.in/71tsRs29n5tZ/tv-series/9590"},{"id":9577,"title":"Кунг-фу пес","kp_id":"500299","imdb_id":"tt0070996","world_art_id":null,"type":"serial","add":"2020-12-23 10:13:50","orig_title":"Hong Kong Phooey","year":"1974-09-07","translations":["Полное дублирование (Пифагор)"],"seasons_count":1,"episodes_count":4,"episodes":4,"update":"2020-12-27 22:22:49","iframe_src":"//8209.svetacdn.in/71tsRs29n5tZ/tv-series/9577"},{"id":9350,"title":"Продюсер Паркер","kp_id":"503084","imdb_id":"tt1159608","world_art_id":null,"type":"serial","add":"2020-11-20 18:34:55","orig_title":"Producing Parker","year":"2009-05-04","translations":["Профессиональный (многоголосый закадровый) (Муз-ТВ)"],"seasons_count":1,"episodes_count":13,"episodes":13,"update":"2020-12-27 22:32:18","iframe_src":"//8209.svetacdn.in/71tsRs29n5tZ/tv-series/9350"},{"id":9336,"title":"Чисто английский","kp_id":"762342","imdb_id":"tt2501212","world_art_id":null,"type":"serial","add":"2020-11-20 08:19:56","orig_title":"Full English","year":"2012-11-12","translations":["Любительский (одноголосый закадровый)"],"seasons_count":1,"episodes_count":5,"episodes":5,"update":"2020-12-27 15:55:53","iframe_src":"//8209.svetacdn.in/71tsRs29n5tZ/tv-series/9336"},{"id":9193,"title":"Строкер и Хуп","kp_id":"373055","imdb_id":"tt0420939","world_art_id":null,"type":"serial","add":"2020-11-04 09:57:22","orig_title":"Stroker and Hoop","year":"2004-08-01","translations":["Профессиональный (многоголосый закадровый) (2x2)"],"seasons_count":1,"episodes_count":13,"episodes":13,"update":"2020-12-27 17:44:41","iframe_src":"//8209.svetacdn.in/71tsRs29n5tZ/tv-series/9193"},{"id":37467,"title":"Джунгли","kp_id":"1052754","imdb_id":"tt7463730","world_art_id":null,"type":"movie","add":"2020-03-05 19:58:48","orig_title":"Junglee","year":"2019-03-28","translations":["Любительский (многоголосый закадровый) (Honey&Haseena)","Любительский (двухголосый закадровый) (OnisFilms)"],"quality":"webdl","translation":"Любительский (многоголосый закадровый) (Honey&Haseena)","update":"2021-07-12 07:09:28","iframe_src":"//8209.svetacdn.in/71tsRs29n5tZ/movie/37467"},{"id":34680,"title":"Авансцена 2","kp_id":"400665","imdb_id":"tt1145144","world_art_id":null,"type":"movie","add":"2020-01-02 20:01:31","orig_title":"Center Stage: Turn It Up","year":"2008-10-30","translations":["Профессиональный (двухголосый закадровый)","Профессиональный (двухголосый закадровый) (НТВ)","Original (English)"],"quality":"hdtv","translation":"Профессиональный (двухголосый закадровый)","update":"2021-07-12 06:39:12","iframe_src":"//8209.svetacdn.in/71tsRs29n5tZ/movie/34680"},{"id":33803,"title":"Хозяин","kp_id":"1184721","imdb_id":"tt8380776","world_art_id":null,"type":"movie","add":"2019-12-07 13:29:33","orig_title":"Grand Isle","year":"2019-11-15","translations":["Любительский (многоголосый закадровый) (AlphaProject)","Original (English)","Полное дублирование","Полное дублирование (IVI)"],"quality":"webdl","translation":"Любительский (многоголосый закадровый) (AlphaProject)","update":"2021-07-12 08:22:45","iframe_src":"//8209.svetacdn.in/71tsRs29n5tZ/movie/33803"},{"id":5628,"title":"Темные начала","kp_id":"1159922","imdb_id":"tt5607976","world_art_id":null,"type":"serial","add":"2019-11-04 08:54:27","orig_title":"His Dark Materials","year":"2019-11-03","translations":["Любительский (многоголосый закадровый) (Octopus)","Профессиональный (многоголосый закадровый) (HDrezka Studio)","Профессиональный (многоголосый закадровый) (LostFilm)","Полное дублирование","Профессиональный (многоголосый закадровый) (TVShows)","Профессиональный (многоголосый закадровый) (NewStudio)","Original (English)","Любительский (многоголосый закадровый) (ColdFilm)","Любительский (двухголосый закадровый) (LakeFilms)","Любительский (многоголосый закадровый) (Ultradox)","Любительский (многоголосый закадровый) (KerobTV)","Профессиональный (двухголосый закадровый) (IdeaFilm)","Профессиональный (многоголосый закадровый) (AlexFilm)","Профессиональный (многоголосый закадровый) (Jaskier)","Профессиональный (двухголосый закадровый) (Gears Media)","Полное дублирование (Novamedia)","Любительский (двухголосый закадровый) (Hamster Studio)","Профессиональный (многоголосый закадровый) (Novamedia)"],"seasons_count":2,"episodes_count":15,"episodes":7,"update":"2020-12-28 07:01:26","iframe_src":"//8209.svetacdn.in/71tsRs29n5tZ/tv-series/5628"},{"id":4624,"title":"Свадьбы и разводы","kp_id":"1115447","imdb_id":"tt7765554","world_art_id":null,"type":"serial","add":"2019-06-04 04:56:24","orig_title":"Svadbi i razvodi","year":"2019-06-03","translations":["Оригинальная дорожка"],"seasons_count":1,"episodes_count":12,"episodes":12,"update":"2020-12-27 20:44:02","iframe_src":"//8209.svetacdn.in/71tsRs29n5tZ/tv-series/4624"},{"id":24513,"title":"Большое космическое путешествие","kp_id":"46169","imdb_id":"tt0321492","world_art_id":null,"type":"movie","add":"2019-04-13 08:20:48","orig_title":"Bolshoe kosmicheskoe puteshestvie","year":"1975-11-05","translations":["Оригинальная дорожка","Оригинальная дорожка"],"quality":"dvdrip","translation":"Оригинальная дорожка","update":"2021-07-12 08:32:56","iframe_src":"//8209.svetacdn.in/71tsRs29n5tZ/movie/24513"},{"id":24389,"title":"В двух шагах от «Рая»","kp_id":"45593","imdb_id":"tt0262863","world_art_id":null,"type":"movie","add":"2019-04-12 11:10:23","orig_title":"V dvukh shagakh ot 'Raya'","year":"1985-05-06","translations":["Оригинальная дорожка","Оригинальная дорожка"],"quality":"dvdrip","translation":"Оригинальная дорожка","update":"2021-07-12 06:31:51","iframe_src":"//8209.svetacdn.in/71tsRs29n5tZ/movie/24389"},{"id":23320,"title":"Отроки во Вселенной","kp_id":"42849","imdb_id":"tt0071957","world_art_id":null,"type":"movie","add":"2019-03-21 08:17:08","orig_title":"Otroki vo vselennoy","year":"1975-03-24","translations":["Оригинальная дорожка","Оригинальная дорожка"],"quality":"dvdrip","translation":"Оригинальная дорожка","update":"2021-07-12 08:38:16","iframe_src":"//8209.svetacdn.in/71tsRs29n5tZ/movie/23320"},{"id":16752,"title":"Голод","kp_id":"9418","imdb_id":"tt0085701","world_art_id":null,"type":"movie","add":"2018-05-10 23:22:15","orig_title":"The Hunger","year":"1983-04-29","translations":["Авторский (одноголосый закадровый) (Михалёв Алексей)","Профессиональный (многоголосый закадровый)"],"quality":"bd","translation":"Авторский (одноголосый закадровый) (Михалёв Алексей)","update":"2021-07-12 07:07:12","iframe_src":"//8209.svetacdn.in/71tsRs29n5tZ/movie/16752"},{"id":16384,"title":"Сверхновый Супермен","kp_id":"557848","imdb_id":"tt1699114","world_art_id":null,"type":"movie","add":"2018-04-20 07:55:05","orig_title":"All-Star Superman","year":"2011-02-22","translations":["Любительский (двухголосый закадровый)","Профессиональный (многоголосый закадровый) (Flarrow Films)"],"quality":"bd","translation":"Любительский (двухголосый закадровый)","update":"2021-07-11 17:43:26","iframe_src":"//8209.svetacdn.in/71tsRs29n5tZ/movie/16384"},{"id":2235,"title":"Иллюзия","kp_id":"1040732","imdb_id":"tt6461812","world_art_id":null,"type":"serial","add":"2018-03-16 09:58:36","orig_title":"Deception","year":"2018-03-11","translations":["Профессиональный (многоголосый закадровый) (IdeaFilm)","Профессиональный (многоголосый закадровый) (NewStudio)","Полное дублирование (ТВ3)","Профессиональный (многоголосый закадровый) (Jaskier)","Профессиональный (многоголосый закадровый) (Profix Media)","Профессиональный (многоголосый закадровый) (BaibaKo)"],"seasons_count":1,"episodes_count":13,"episodes":13,"update":"2020-12-27 14:23:24","iframe_src":"//8209.svetacdn.in/71tsRs29n5tZ/tv-series/2235"},{"id":14248,"title":"Целитель","kp_id":"898818","imdb_id":"tt4356480","world_art_id":null,"type":"movie","add":"2017-11-05 23:11:08","orig_title":"The Healer","year":"2017-02-17","translations":["Любительский (двухголосый закадровый) (RecentFilms)","Любительский (многоголосый закадровый) (Синема УС)","Original (English)","Любительский (двухголосый закадровый) (RecentFilms)"],"quality":"bd","translation":"Любительский (двухголосый закадровый) (RecentFilms)","update":"2021-07-12 06:52:21","iframe_src":"//8209.svetacdn.in/71tsRs29n5tZ/movie/14248"},{"id":1486,"title":"Капкан","kp_id":"891657","imdb_id":"tt3561180","world_art_id":null,"type":"serial","add":"2017-08-24 11:04:59","orig_title":"Ófærð","year":"2015-09-20","translations":["Любительский (одноголосый закадровый)","Профессиональный (двухголосый закадровый) (ViruseProject)"],"seasons_count":2,"episodes_count":20,"episodes":10,"update":"2020-12-28 08:11:31","iframe_src":"//8209.svetacdn.in/71tsRs29n5tZ/tv-series/1486"},{"id":11146,"title":"Игби идет ко дну","kp_id":"709","imdb_id":"tt0280760","world_art_id":null,"type":"movie","add":"2017-04-20 16:32:35","orig_title":"Igby Goes Down","year":"2002-05-23","translations":["Профессиональный (двухголосый закадровый)","Профессиональный (многоголосый закадровый) (Гемини)"],"quality":"hdtv","translation":"Профессиональный (двухголосый закадровый)","update":"2021-07-12 07:08:15","iframe_src":"//8209.svetacdn.in/71tsRs29n5tZ/movie/11146"},{"id":6422,"title":"Бэтмен: Возвращение рыцарей в масках","kp_id":"997205","imdb_id":"tt5973626","world_art_id":null,"type":"movie","add":"2016-10-18 07:11:06","orig_title":"Batman: Return of the Caped Crusaders","year":"2016-10-06","translations":["Любительский (многоголосый закадровый)","Профессиональный (многоголосый закадровый) (Flarrow Films)"],"quality":"webdl","translation":"Любительский (многоголосый закадровый)","update":"2021-07-11 17:47:32","iframe_src":"//8209.svetacdn.in/71tsRs29n5tZ/movie/6422"}],"current_page":143,"first_page_url":"https://videocdn.tv/api/short?limit=100&api_token=EnbO9h8pv1VyjbCJhg0WM9nG259n7mtz&cache3143=3143&page=1","from":14201,"last_page":663,"last_page_url":"https://videocdn.tv/api/short?limit=100&api_token=EnbO9h8pv1VyjbCJhg0WM9nG259n7mtz&cache3143=3143&page=663","next_page_url":"https://videocdn.tv/api/short?limit=100&api_token=EnbO9h8pv1VyjbCJhg0WM9nG259n7mtz&cache3143=3143&page=144","path":"https://videocdn.tv/api/short","per_page":100,"prev_page_url":"https://videocdn.tv/api/short?limit=100&api_token=EnbO9h8pv1VyjbCJhg0WM9nG259n7mtz&cache3143=3143&page=142","to":14240,"total":66205}