{"result":true,"data":[{"id":24295,"title":"Придел Ангела","kp_id":"431073","imdb_id":"tt1890349","world_art_id":null,"type":"movie","add":"2019-04-11 09:33:30","orig_title":"Pridel angela","year":"2008-08-14","translations":["Оригинальная дорожка"],"quality":"dvdrip","translation":"Оригинальная дорожка","update":"2019-04-12 12:13:13","iframe_src":"//8209.svetacdn.in/71tsRs29n5tZ/movie/24295"},{"id":24292,"title":"Неоконченный урок","kp_id":"464842","imdb_id":"tt2573958","world_art_id":null,"type":"movie","add":"2019-04-10 23:23:40","orig_title":"Neokonchennyy urok","year":"2009-05-17","translations":["Оригинальная дорожка"],"quality":"sat","translation":"Оригинальная дорожка","update":"2019-04-12 12:10:48","iframe_src":"//8209.svetacdn.in/71tsRs29n5tZ/movie/24292"},{"id":24291,"title":"Он, она и я","kp_id":"275099","imdb_id":"tt0981060","world_art_id":null,"type":"movie","add":"2019-04-10 23:16:12","orig_title":"On, ona i ya","year":"2007-02-01","translations":["Оригинальная дорожка"],"quality":"dvdrip","translation":"Оригинальная дорожка","update":"2019-04-12 12:09:54","iframe_src":"//8209.svetacdn.in/71tsRs29n5tZ/movie/24291"},{"id":24290,"title":"Операция «Праведник»","kp_id":"476842","imdb_id":"tt1577859","world_art_id":null,"type":"movie","add":"2019-04-10 23:10:41","orig_title":"Operatsiya 'Pravednik'","year":"2009-12-30","translations":["Оригинальная дорожка"],"quality":"sat","translation":"Оригинальная дорожка","update":"2019-04-12 12:08:58","iframe_src":"//8209.svetacdn.in/71tsRs29n5tZ/movie/24290"},{"id":24289,"title":"Отрыв","kp_id":"281768","imdb_id":"tt1094268","world_art_id":null,"type":"movie","add":"2019-04-10 23:04:15","orig_title":"Otryv","year":"2007-09-06","translations":["Оригинальная дорожка"],"quality":"dvdrip","translation":"Оригинальная дорожка","update":"2019-04-12 12:08:27","iframe_src":"//8209.svetacdn.in/71tsRs29n5tZ/movie/24289"},{"id":24288,"title":"Овод","kp_id":"42860","imdb_id":"tt0048461","world_art_id":null,"type":"movie","add":"2019-04-10 22:54:34","orig_title":"Ovod","year":"1955-04-12","translations":["Оригинальная дорожка"],"quality":"dvdrip","translation":"Оригинальная дорожка","update":"2019-04-12 12:11:38","iframe_src":"//8209.svetacdn.in/71tsRs29n5tZ/movie/24288"},{"id":24287,"title":"Подари мне лунный свет","kp_id":"40919","imdb_id":"tt0261182","world_art_id":null,"type":"movie","add":"2019-04-10 22:47:38","orig_title":"Podari mne lunnyy svet","year":"2001-03-01","translations":["Оригинальная дорожка"],"quality":"dvdrip","translation":"Оригинальная дорожка","update":"2019-04-12 12:07:35","iframe_src":"//8209.svetacdn.in/71tsRs29n5tZ/movie/24287"},{"id":24286,"title":"Поединок","kp_id":"467974","imdb_id":null,"world_art_id":null,"type":"movie","add":"2019-04-10 22:41:19","orig_title":"Поединок","year":"2008-01-01","translations":["Оригинальная дорожка"],"quality":"dvdrip","translation":"Оригинальная дорожка","update":"2019-04-12 12:06:00","iframe_src":"//8209.svetacdn.in/71tsRs29n5tZ/movie/24286"},{"id":24283,"title":"Приключения Тома Сойера и Гекльберри Финна","kp_id":"79906","imdb_id":"tt0081917","world_art_id":null,"type":"movie","add":"2019-04-10 22:08:00","orig_title":"Priklyucheniya Toma Soyera i Geklberri Finna","year":"1982-03-27","translations":["Оригинальная дорожка"],"quality":"dvdrip","translation":"Оригинальная дорожка","update":"2019-04-12 12:02:47","iframe_src":"//8209.svetacdn.in/71tsRs29n5tZ/movie/24283"},{"id":24248,"title":"Решающий шаг","kp_id":"42086","imdb_id":"tt0314573","world_art_id":null,"type":"movie","add":"2019-04-10 00:16:13","orig_title":"Reshayushchiy shag","year":"1966-10-31","translations":["Оригинальная дорожка"],"quality":"tv","translation":"Оригинальная дорожка","update":"2019-04-12 08:01:40","iframe_src":"//8209.svetacdn.in/71tsRs29n5tZ/movie/24248"},{"id":24247,"title":"Рудольфио","kp_id":"445964","imdb_id":"tt9348442","world_art_id":null,"type":"movie","add":"2019-04-10 00:08:54","orig_title":"Rudolfio","year":"1991-01-01","translations":["Оригинальная дорожка"],"quality":"tv","translation":"Оригинальная дорожка","update":"2019-04-12 08:00:46","iframe_src":"//8209.svetacdn.in/71tsRs29n5tZ/movie/24247"},{"id":24246,"title":"Снайпер: Оружие возмездия","kp_id":"422887","imdb_id":"tt2582752","world_art_id":null,"type":"movie","add":"2019-04-10 00:01:44","orig_title":"Snayper. Oruzhie vozmezdiya","year":"2009-05-09","translations":["Оригинальная дорожка"],"quality":"bd","translation":"Оригинальная дорожка","update":"2019-04-12 07:59:54","iframe_src":"//8209.svetacdn.in/71tsRs29n5tZ/movie/24246"},{"id":24245,"title":"Спартак и Калашников","kp_id":"41083","imdb_id":"tt0334404","world_art_id":null,"type":"movie","add":"2019-04-09 23:55:24","orig_title":"Spartak i Kalashnikov","year":"2002-11-19","translations":["Оригинальная дорожка"],"quality":"dvdrip","translation":"Оригинальная дорожка","update":"2019-04-12 07:59:05","iframe_src":"//8209.svetacdn.in/71tsRs29n5tZ/movie/24245"},{"id":24244,"title":"Сумасшедшая помощь","kp_id":"421360","imdb_id":"tt1275954","world_art_id":null,"type":"movie","add":"2019-04-09 23:50:07","orig_title":"Sumasshedshaya pomoshch","year":"2009-02-08","translations":["Оригинальная дорожка"],"quality":"dvdrip","translation":"Оригинальная дорожка","update":"2019-04-12 07:58:18","iframe_src":"//8209.svetacdn.in/71tsRs29n5tZ/movie/24244"},{"id":24243,"title":"Тот, кто нежнее","kp_id":"40748","imdb_id":"tt0197054","world_art_id":null,"type":"movie","add":"2019-04-09 23:23:55","orig_title":"Tot, kto nezhnee","year":"1996-01-01","translations":["Оригинальная дорожка"],"quality":"dvdrip","translation":"Оригинальная дорожка","update":"2019-04-12 07:56:31","iframe_src":"//8209.svetacdn.in/71tsRs29n5tZ/movie/24243"},{"id":24242,"title":"Весельчаки","kp_id":"446079","imdb_id":"tt1505957","world_art_id":null,"type":"movie","add":"2019-04-09 23:14:02","orig_title":"Veselchaki","year":"2010-02-12","translations":["Оригинальная дорожка"],"quality":"hdtv","translation":"Оригинальная дорожка","update":"2019-04-12 07:55:45","iframe_src":"//8209.svetacdn.in/71tsRs29n5tZ/movie/24242"},{"id":24240,"title":"Выкуп","kp_id":"94975","imdb_id":"tt0202669","world_art_id":null,"type":"movie","add":"2019-04-09 23:08:01","orig_title":"Vykup","year":"1994-01-01","translations":["Оригинальная дорожка"],"quality":"dvdrip","translation":"Оригинальная дорожка","update":"2019-04-12 07:54:39","iframe_src":"//8209.svetacdn.in/71tsRs29n5tZ/movie/24240"},{"id":24239,"title":"Госпожа Метелица","kp_id":"220050","imdb_id":"tt0172467","world_art_id":null,"type":"movie","add":"2019-04-09 23:05:43","orig_title":"Frau Holle","year":"1963-02-11","translations":["Полное дублирование"],"quality":"dvdrip","translation":"Полное дублирование","update":"2019-04-12 07:53:51","iframe_src":"//8209.svetacdn.in/71tsRs29n5tZ/movie/24239"},{"id":24238,"title":"Госпожа Метелица","kp_id":"657373","imdb_id":"tt1194193","world_art_id":null,"type":"movie","add":"2019-04-09 23:04:07","orig_title":"Frau Holle","year":"2008-11-13","translations":["Профессиональный (многоголосый закадровый) (Игмар)"],"quality":"hdtv","translation":"Профессиональный (многоголосый закадровый) (Игмар)","update":"2019-04-12 07:52:41","iframe_src":"//8209.svetacdn.in/71tsRs29n5tZ/movie/24238"},{"id":15749,"title":"72 метра","kp_id":"70952","imdb_id":"tt0401089","world_art_id":null,"type":"movie","add":"2018-03-20 05:28:41","orig_title":"72 metra","year":"2005-09-02","translations":["Оригинальная дорожка","Оригинальная дорожка"],"quality":"dvdrip","translation":"Оригинальная дорожка","update":"2019-04-12 07:57:33","iframe_src":"//8209.svetacdn.in/71tsRs29n5tZ/movie/15749"}],"current_page":1635,"first_page_url":"https://videocdn.tv/api/short?limit=100&api_token=EnbO9h8pv1VyjbCJhg0WM9nG259n7mtz&cache31635=31635&page=1","from":163401,"last_page":654,"last_page_url":"https://videocdn.tv/api/short?limit=100&api_token=EnbO9h8pv1VyjbCJhg0WM9nG259n7mtz&cache31635=31635&page=654","next_page_url":null,"path":"https://videocdn.tv/api/short","per_page":100,"prev_page_url":"https://videocdn.tv/api/short?limit=100&api_token=EnbO9h8pv1VyjbCJhg0WM9nG259n7mtz&cache31635=31635&page=1634","to":163420,"total":65355}