{"result":true,"data":[{"id":52286,"title":"Стремглав сквозь снег","kp_id":"4502110","imdb_id":"tt14809392","world_art_id":null,"type":"movie","add":"2021-08-07 20:19:54","orig_title":"Crashing Through the Snow","year":"2021-07-10","translations":["Любительский (многоголосый закадровый) (Синема УС)"],"quality":"webdl","translation":"Любительский (многоголосый закадровый) (Синема УС)","update":"2021-08-08 05:15:44","iframe_src":"//5091.svetacdn.in/71tsRs29n5tZ/movie/52286"},{"id":52285,"title":"Возвращение хищника","kp_id":"1437927","imdb_id":"tt10457482","world_art_id":null,"type":"movie","add":"2021-08-07 20:19:16","orig_title":"A Predator Returns","year":"2021-05-22","translations":["Любительский (многоголосый закадровый) (AlphaProject)"],"quality":"webdl","translation":"Любительский (многоголосый закадровый) (AlphaProject)","update":"2021-08-08 05:15:17","iframe_src":"//5091.svetacdn.in/71tsRs29n5tZ/movie/52285"},{"id":52276,"title":"Враги государства","kp_id":"1379958","imdb_id":"tt10388028","world_art_id":null,"type":"movie","add":"2021-08-07 08:23:51","orig_title":"Enemies of the State","year":"2020-09-11","translations":["Любительский (многоголосый закадровый) (Синема УС)"],"quality":"webdl","translation":"Любительский (многоголосый закадровый) (Синема УС)","update":"2021-08-07 13:23:15","iframe_src":"//5091.svetacdn.in/71tsRs29n5tZ/movie/52276"},{"id":52275,"title":"План Б","kp_id":"1381897","imdb_id":"tt12299714","world_art_id":null,"type":"movie","add":"2021-08-07 08:23:07","orig_title":"Thittam Irandu","year":"2021-07-30","translations":["Любительский (многоголосый закадровый) (Синема УС)"],"quality":"webdl","translation":"Любительский (многоголосый закадровый) (Синема УС)","update":"2021-08-07 13:21:05","iframe_src":"//5091.svetacdn.in/71tsRs29n5tZ/movie/52275"},{"id":52272,"title":"Наследие Сарпатта","kp_id":"1339962","imdb_id":"tt11580854","world_art_id":null,"type":"movie","add":"2021-08-07 08:20:33","orig_title":"Sarpatta Parambarai","year":"2021-07-21","translations":["Любительский (многоголосый закадровый) (Синема УС)"],"quality":"webdl","translation":"Любительский (многоголосый закадровый) (Синема УС)","update":"2021-08-07 13:22:58","iframe_src":"//5091.svetacdn.in/71tsRs29n5tZ/movie/52272"},{"id":52271,"title":"Бегущий: Фильм об Энтони Бурдене","kp_id":"4456631","imdb_id":"tt14512538","world_art_id":null,"type":"movie","add":"2021-08-07 08:19:42","orig_title":"Roadrunner: A Film About Anthony Bourdain","year":"2021-06-11","translations":["Любительский (многоголосый закадровый) (Синема УС)"],"quality":"webdl","translation":"Любительский (многоголосый закадровый) (Синема УС)","update":"2021-08-07 13:20:49","iframe_src":"//5091.svetacdn.in/71tsRs29n5tZ/movie/52271"},{"id":52268,"title":"Джон и дыра","kp_id":"1330597","imdb_id":"tt11307724","world_art_id":null,"type":"movie","add":"2021-08-07 08:16:47","orig_title":"John and the Hole","year":"2021-01-29","translations":["Любительский (многоголосый закадровый) (@MUZOBOZ@)"],"quality":"webdl","translation":"Любительский (многоголосый закадровый) (@MUZOBOZ@)","update":"2021-08-07 13:22:24","iframe_src":"//5091.svetacdn.in/71tsRs29n5tZ/movie/52268"},{"id":52266,"title":"Приготовление любви","kp_id":"4383471","imdb_id":"tt13842628","world_art_id":null,"type":"movie","add":"2021-08-07 08:14:17","orig_title":"The Sauce of Love","year":"2021-03-04","translations":["Любительский (многоголосый закадровый) (AlphaProject)"],"quality":"webdl","translation":"Любительский (многоголосый закадровый) (AlphaProject)","update":"2021-08-07 13:22:08","iframe_src":"//5091.svetacdn.in/71tsRs29n5tZ/movie/52266"},{"id":52265,"title":"Это моя вечеринка","kp_id":"3630","imdb_id":"tt0113443","world_art_id":null,"type":"movie","add":"2021-08-06 21:59:17","orig_title":"It's My Party","year":"1996-01-11","translations":["Авторский (одноголосый закадровый) (Кузнецов Сергей)"],"quality":"bd","translation":"Авторский (одноголосый закадровый) (Кузнецов Сергей)","update":"2021-08-07 13:05:12","iframe_src":"//5091.svetacdn.in/71tsRs29n5tZ/movie/52265"},{"id":52264,"title":"Виво","kp_id":"1166454","imdb_id":"tt6338498","world_art_id":null,"type":"movie","add":"2021-08-06 21:57:07","orig_title":"Vivo","year":"2021-07-30","translations":["Полное дублирование (Netflix)","Original (English)"],"quality":"webdl","translation":"Полное дублирование (Netflix)","update":"2021-08-08 08:09:21","iframe_src":"//5091.svetacdn.in/71tsRs29n5tZ/movie/52264"},{"id":52263,"title":"Тигры в губной помаде","kp_id":"13860","imdb_id":"tt0079463","world_art_id":null,"type":"movie","add":"2021-08-06 21:45:26","orig_title":"Letti selvaggi","year":"1979-03-16","translations":["Профессиональный (двухголосый закадровый)"],"quality":"dvdrip","translation":"Профессиональный (двухголосый закадровый)","update":"2021-08-07 08:08:00","iframe_src":"//5091.svetacdn.in/71tsRs29n5tZ/movie/52263"},{"id":52262,"title":"Икс-Икс-Игрек","kp_id":"312825","imdb_id":"tt0995829","world_art_id":null,"type":"movie","add":"2021-08-06 19:43:40","orig_title":"XXY","year":"2007-05-20","translations":["Профессиональный (двухголосый закадровый)"],"quality":"bd","translation":"Профессиональный (двухголосый закадровый)","update":"2021-08-07 13:03:29","iframe_src":"//5091.svetacdn.in/71tsRs29n5tZ/movie/52262"},{"id":51962,"title":"Кроваво-красное небо","kp_id":"1047401","imdb_id":"tt6402468","world_art_id":null,"type":"movie","add":"2021-07-23 19:14:20","orig_title":"Blood Red Sky","year":"2021-07-23","translations":["Полное дублирование (SDI Media)","Original (English)"],"quality":"webdl","translation":"Полное дублирование (SDI Media)","update":"2021-08-08 08:10:35","iframe_src":"//5091.svetacdn.in/71tsRs29n5tZ/movie/51962"},{"id":51387,"title":"Мулан. Новая легенда","kp_id":"1405783","imdb_id":"tt11952874","world_art_id":null,"type":"movie","add":"2021-06-23 20:08:02","orig_title":"Kung Fu Mulan","year":"2020-10-03","translations":["Любительский (многоголосый закадровый) (Синема УС)","Полное дублирование"],"quality":"webdl","translation":"Любительский (многоголосый закадровый) (Синема УС)","update":"2021-08-08 06:05:08","iframe_src":"//5091.svetacdn.in/71tsRs29n5tZ/movie/51387"},{"id":49289,"title":"Кролик Питер 2","kp_id":"1122117","imdb_id":"tt8376234","world_art_id":null,"type":"movie","add":"2021-04-02 17:32:30","orig_title":"Peter Rabbit 2: The Runaway","year":"2021-03-25","translations":["Полное дублирование","Original (English)","Профессиональный (двухголосый закадровый) (Pazl Voice)","Полное дублирование","Полное дублирование"],"quality":"webdl","translation":"Полное дублирование","update":"2021-08-07 14:04:06","iframe_src":"//5091.svetacdn.in/71tsRs29n5tZ/movie/49289"},{"id":10096,"title":"Дикари","kp_id":"1270119","imdb_id":"tt10371844","world_art_id":null,"type":"serial","add":"2021-03-02 23:06:21","orig_title":"Les sauvages","year":"2019-09-23","translations":["Любительский (многоголосый закадровый) (WestFilm)"],"seasons_count":1,"episodes_count":6,"episodes":6,"update":"2021-03-03 08:35:59","iframe_src":"//5091.svetacdn.in/71tsRs29n5tZ/tv-series/10096"},{"id":10085,"title":"Оливия","kp_id":"1237922","imdb_id":"tt9758080","world_art_id":null,"type":"serial","add":"2021-03-02 11:20:46","orig_title":"Olivia","year":"2019-10-17","translations":["Профессиональный (многоголосый закадровый) (HDrezka Studio)"],"seasons_count":1,"episodes_count":6,"episodes":6,"update":"2021-03-02 18:49:13","iframe_src":"//5091.svetacdn.in/71tsRs29n5tZ/tv-series/10085"},{"id":10082,"title":"Пожизненное","kp_id":"1303040","imdb_id":"tt10971122","world_art_id":null,"type":"serial","add":"2021-03-01 21:25:18","orig_title":"Livstid","year":"2020-09-06","translations":["Профессиональный (многоголосый закадровый) (Видеопродакшн)"],"seasons_count":1,"episodes_count":8,"episodes":8,"update":"2021-03-02 07:03:43","iframe_src":"//5091.svetacdn.in/71tsRs29n5tZ/tv-series/10082"},{"id":10081,"title":"Непрекрасная леди","kp_id":"1412448","imdb_id":null,"world_art_id":null,"type":"serial","add":"2021-03-01 21:21:45","orig_title":"Непрекрасная леди","year":"2020-01-01","translations":["Оригинальная дорожка"],"seasons_count":1,"episodes_count":4,"episodes":4,"update":"2021-03-02 06:54:05","iframe_src":"//5091.svetacdn.in/71tsRs29n5tZ/tv-series/10081"},{"id":10049,"title":"Океаническая Одиссея: В подводном царстве","kp_id":"274125","imdb_id":"tt0447676","world_art_id":null,"type":"serial","add":"2021-03-01 07:35:58","orig_title":"Ocean Odyssey: The Blue Realm","year":"2004-09-05","translations":["Профессиональный (двухголосый закадровый)"],"seasons_count":1,"episodes_count":8,"episodes":8,"update":"2021-03-02 07:35:25","iframe_src":"//5091.svetacdn.in/71tsRs29n5tZ/tv-series/10049"},{"id":10048,"title":"Черная месса","kp_id":"1402687","imdb_id":null,"world_art_id":null,"type":"serial","add":"2021-02-28 21:37:24","orig_title":"Черная месса","year":"2020-01-01","translations":["Оригинальная дорожка"],"seasons_count":1,"episodes_count":4,"episodes":4,"update":"2021-03-02 07:20:46","iframe_src":"//5091.svetacdn.in/71tsRs29n5tZ/tv-series/10048"},{"id":10047,"title":"Кайко и Кокош","kp_id":"4368012","imdb_id":"tt13979288","world_art_id":null,"type":"serial","add":"2021-02-28 15:39:30","orig_title":"Kajko i Kokosz","year":"2021-02-28","translations":["Любительский (многоголосый закадровый) (Ultradox)","Профессиональный (многоголосый закадровый) (BaibaKo)"],"seasons_count":1,"episodes_count":5,"episodes":5,"update":"2021-03-02 07:12:14","iframe_src":"//5091.svetacdn.in/71tsRs29n5tZ/tv-series/10047"},{"id":10044,"title":"Панки Брюстер","kp_id":"1272801","imdb_id":"tt10436362","world_art_id":null,"type":"serial","add":"2021-02-27 14:53:39","orig_title":"Punky Brewster","year":"2021-02-27","translations":["Профессиональный (многоголосый закадровый) (HDrezka Studio)"],"seasons_count":1,"episodes_count":10,"episodes":10,"update":"2021-03-01 13:04:11","iframe_src":"//5091.svetacdn.in/71tsRs29n5tZ/tv-series/10044"},{"id":10031,"title":"Успеть все исправить","kp_id":"1346604","imdb_id":"tt11780718","world_art_id":null,"type":"serial","add":"2021-02-26 18:29:21","orig_title":"Uspet vse ispravit","year":"2020-02-02","translations":["Оригинальная дорожка"],"seasons_count":1,"episodes_count":4,"episodes":4,"update":"2021-03-01 15:41:03","iframe_src":"//5091.svetacdn.in/71tsRs29n5tZ/tv-series/10031"},{"id":10030,"title":"Подопытные","kp_id":"437979","imdb_id":"tt1262403","world_art_id":null,"type":"serial","add":"2021-02-26 12:11:17","orig_title":"Testees","year":"2008-10-09","translations":["Профессиональный (многоголосый закадровый)"],"seasons_count":1,"episodes_count":13,"episodes":13,"update":"2021-03-01 07:00:55","iframe_src":"//5091.svetacdn.in/71tsRs29n5tZ/tv-series/10030"},{"id":10018,"title":"Джинни и Джорджия","kp_id":"1304458","imdb_id":"tt10813940","world_art_id":null,"type":"serial","add":"2021-02-24 14:46:16","orig_title":"Ginny & Georgia","year":"2021-02-24","translations":["Любительский (многоголосый закадровый) (Ultradox)","Профессиональный (многоголосый закадровый) (HDrezka Studio)"],"seasons_count":1,"episodes_count":10,"episodes":10,"update":"2021-03-02 16:53:52","iframe_src":"//5091.svetacdn.in/71tsRs29n5tZ/tv-series/10018"},{"id":9944,"title":"Механики","kp_id":"1343046","imdb_id":"tt10971022","world_art_id":null,"type":"serial","add":"2021-02-15 10:45:56","orig_title":"The Crew","year":"2021-02-15","translations":["Любительский (многоголосый закадровый) (Ultradox)","Любительский (многоголосый закадровый) (ColdFilm)","Любительский (двухголосый закадровый) (KerobTV)","Профессиональный (многоголосый закадровый) (BaibaKo)","Профессиональный (многоголосый закадровый) (TVShows)"],"seasons_count":1,"episodes_count":10,"episodes":10,"update":"2021-03-02 19:18:57","iframe_src":"//5091.svetacdn.in/71tsRs29n5tZ/tv-series/9944"},{"id":9895,"title":"История любви","kp_id":"425839","imdb_id":"tt0149470","world_art_id":null,"type":"serial","add":"2021-02-09 12:35:52","orig_title":"História de Amor","year":"1995-01-01","translations":["Профессиональный (многоголосый закадровый)"],"seasons_count":1,"episodes_count":130,"episodes":130,"update":"2021-03-02 21:36:33","iframe_src":"//5091.svetacdn.in/71tsRs29n5tZ/tv-series/9895"},{"id":9623,"title":"Бесстыжие: Зал стыда","kp_id":null,"imdb_id":"tt13653972","world_art_id":null,"type":"serial","add":"2020-12-29 06:21:24","orig_title":"Shameless: Hall of Shame","year":"2020-12-27","translations":["Original (English)","Любительский (двухголосый закадровый) (KerobTV)","Профессиональный (многоголосый закадровый) (HDrezka Studio 18+)","Профессиональный (многоголосый закадровый) (HDrezka Studio)"],"seasons_count":1,"episodes_count":6,"episodes":6,"update":"2021-03-02 18:57:04","iframe_src":"//5091.svetacdn.in/71tsRs29n5tZ/tv-series/9623"},{"id":8923,"title":"Моя опасная жена","kp_id":"1392534","imdb_id":"tt13067258","world_art_id":null,"type":"serial","add":"2020-10-06 11:41:39","orig_title":"Naui wiheomhan anae","year":"2020-10-05","translations":["Любительский (многоголосый закадровый) (Octopus)","Любительский (многоголосый закадровый) (Ultradox)","Профессиональный (многоголосый закадровый) (BaibaKo)","Любительский (двухголосый закадровый) (SoftBox)"],"seasons_count":1,"episodes_count":16,"episodes":16,"update":"2021-03-02 09:42:52","iframe_src":"//5091.svetacdn.in/71tsRs29n5tZ/tv-series/8923"},{"id":7603,"title":"Флиппер и Лопака","kp_id":"257946","imdb_id":"tt0341775","world_art_id":null,"type":"serial","add":"2020-05-23 10:18:41","orig_title":"Flipper & Lopaka","year":"1999-09-10","translations":["Полное дублирование (СТС)","Полное дублирование"],"seasons_count":3,"episodes_count":78,"episodes":26,"update":"2021-03-02 08:18:28","iframe_src":"//5091.svetacdn.in/71tsRs29n5tZ/tv-series/7603"},{"id":35903,"title":"Второй Шанс: Соперники","kp_id":"1239771","imdb_id":"tt9810420","world_art_id":null,"type":"movie","add":"2020-02-06 21:26:26","orig_title":"A Second Chance: Rivals!","year":"2019-09-17","translations":["Любительский (многоголосый закадровый) (Синема УС)","Полное дублирование (SDI Media)"],"quality":"webdl","translation":"Любительский (многоголосый закадровый) (Синема УС)","update":"2021-08-07 08:05:12","iframe_src":"//5091.svetacdn.in/71tsRs29n5tZ/movie/35903"},{"id":5393,"title":"Однажды под Полтавой","kp_id":"1044370","imdb_id":null,"world_art_id":null,"type":"serial","add":"2019-10-04 12:19:32","orig_title":"Однажды под Полтавой","year":"2014-01-01","translations":["Оригинальная дорожка"],"seasons_count":1,"episodes_count":210,"episodes":210,"update":"2021-03-02 19:20:45","iframe_src":"//5091.svetacdn.in/71tsRs29n5tZ/tv-series/5393"},{"id":2207,"title":"Тайна","kp_id":"796834","imdb_id":"tt3215892","world_art_id":null,"type":"serial","add":"2018-03-10 16:29:57","orig_title":"Bimil","year":"2013-09-25","translations":["Любительский (двухголосый закадровый) (STEPonee)","Профессиональный (многоголосый закадровый)"],"seasons_count":1,"episodes_count":16,"episodes":16,"update":"2021-03-02 19:49:58","iframe_src":"//5091.svetacdn.in/71tsRs29n5tZ/tv-series/2207"},{"id":12786,"title":"Кон-Тики","kp_id":"506432","imdb_id":"tt1613750","world_art_id":null,"type":"movie","add":"2017-08-06 11:30:29","orig_title":"Kon-Tiki","year":"2012-08-18","translations":["Полное дублирование","Авторский (одноголосый закадровый) (Карповский Антон)"],"quality":"bd","translation":"Полное дублирование","update":"2021-08-07 13:21:15","iframe_src":"//5091.svetacdn.in/71tsRs29n5tZ/movie/12786"},{"id":1235,"title":"Кардинал","kp_id":"1008327","imdb_id":"tt5583512","world_art_id":null,"type":"serial","add":"2017-05-07 06:25:25","orig_title":"Cardinal","year":"2017-01-26","translations":["Любительский (двухголосый закадровый) (GoldTeam)","Профессиональный (многоголосый закадровый) (TVShows)","Профессиональный (многоголосый закадровый) (AMS)","Профессиональный (многоголосый закадровый) (BaibaKo)","Профессиональный (многоголосый закадровый) (HDrezka Studio)","Любительский (многоголосый закадровый) (Octopus)","Любительский (многоголосый закадровый) (ColdFilm)"],"seasons_count":4,"episodes_count":24,"episodes":6,"update":"2021-03-02 19:08:26","iframe_src":"//5091.svetacdn.in/71tsRs29n5tZ/tv-series/1235"},{"id":9992,"title":"Хэллоуин 2","kp_id":"14527","imdb_id":"tt0082495","world_art_id":null,"type":"movie","add":"2017-02-23 21:33:21","orig_title":"Halloween II","year":"1981-10-30","translations":["Профессиональный (двухголосый закадровый)","Профессиональный (многоголосый закадровый)","Профессиональный (двухголосый закадровый) (CP Digital)"],"quality":"webdl","translation":"Профессиональный (двухголосый закадровый)","update":"2021-08-07 13:19:00","iframe_src":"//5091.svetacdn.in/71tsRs29n5tZ/movie/9992"},{"id":6514,"title":"Отряд «Дельта» 2","kp_id":"34607","imdb_id":"tt0099399","world_art_id":null,"type":"movie","add":"2016-10-20 06:00:57","orig_title":"Delta Force 2: The Colombian Connection","year":"1990-08-24","translations":["Профессиональный (многоголосый закадровый)","Авторский (одноголосый закадровый) (Иванов Михаил)"],"quality":"bd","translation":"Профессиональный (многоголосый закадровый)","update":"2021-08-07 13:13:40","iframe_src":"//5091.svetacdn.in/71tsRs29n5tZ/movie/6514"},{"id":356,"title":"Оставленные","kp_id":"737589","imdb_id":"tt2699128","world_art_id":null,"type":"serial","add":"2016-08-23 06:37:48","orig_title":"The Leftovers","year":"2014-06-29","translations":["Профессиональный (многоголосый закадровый) (Amedia)","Профессиональный (многоголосый закадровый) (SDI Media)","Профессиональный (многоголосый закадровый) (NewStudio)"],"seasons_count":3,"episodes_count":28,"episodes":8,"update":"2021-03-01 07:21:59","iframe_src":"//5091.svetacdn.in/71tsRs29n5tZ/tv-series/356"},{"id":3475,"title":"Земляничная поляна","kp_id":"508","imdb_id":"tt0050986","world_art_id":null,"type":"movie","add":"2016-06-29 07:40:44","orig_title":"Smultronstallet","year":"1957-12-26","translations":["Профессиональный (многоголосый закадровый)","Профессиональный (многоголосый закадровый) (DVD Магия)"],"quality":"bd","translation":"Профессиональный (многоголосый закадровый)","update":"2021-08-07 13:11:29","iframe_src":"//5091.svetacdn.in/71tsRs29n5tZ/movie/3475"}],"current_page":119,"first_page_url":"https://videocdn.tv/api/short?limit=100&api_token=EnbO9h8pv1VyjbCJhg0WM9nG259n7mtz&cache3119=3119&page=1","from":11801,"last_page":666,"last_page_url":"https://videocdn.tv/api/short?limit=100&api_token=EnbO9h8pv1VyjbCJhg0WM9nG259n7mtz&cache3119=3119&page=666","next_page_url":"https://videocdn.tv/api/short?limit=100&api_token=EnbO9h8pv1VyjbCJhg0WM9nG259n7mtz&cache3119=3119&page=120","path":"https://videocdn.tv/api/short","per_page":100,"prev_page_url":"https://videocdn.tv/api/short?limit=100&api_token=EnbO9h8pv1VyjbCJhg0WM9nG259n7mtz&cache3119=3119&page=118","to":11840,"total":66521}