{"result":true,"data":[{"id":41920,"title":"Гамония: Страна грёз","kp_id":"1337242","imdb_id":"tt11549070","world_art_id":null,"type":"movie","add":"2020-07-21 19:32:45","orig_title":"Hayaller Ülkesi: Gamonya","year":"2020-01-10","translations":["Любительский (многоголосый закадровый) (Синема УС)"],"quality":"webdl","translation":"Любительский (многоголосый закадровый) (Синема УС)","update":"2020-07-22 04:04:46","iframe_src":"//8944266443434.svetacdn.in/PfJ50H0ZBPg3/movie/41920"},{"id":41907,"title":"RSC: Ромео и Джульетта","kp_id":"1145616","imdb_id":"tt8209760","world_art_id":null,"type":"movie","add":"2020-07-20 19:54:08","orig_title":"Romeo and Juliet","year":"2018-03-03","translations":["Любительский (многоголосый закадровый) (AlphaProject)"],"quality":"webdl","translation":"Любительский (многоголосый закадровый) (AlphaProject)","update":"2020-07-21 12:42:53","iframe_src":"//8944266443434.svetacdn.in/PfJ50H0ZBPg3/movie/41907"},{"id":41906,"title":"Уличная сцена","kp_id":null,"imdb_id":"tt12253180","world_art_id":null,"type":"movie","add":"2020-07-20 19:51:59","orig_title":"Weill: Street Scene","year":"2019-11-22","translations":["Любительский (многоголосый закадровый) (AlphaProject)"],"quality":"webdl","translation":"Любительский (многоголосый закадровый) (AlphaProject)","update":"2020-07-21 12:43:37","iframe_src":"//8944266443434.svetacdn.in/PfJ50H0ZBPg3/movie/41906"},{"id":41904,"title":"Самые красивые","kp_id":"78064","imdb_id":"tt0036947","world_art_id":null,"type":"movie","add":"2020-07-20 19:38:52","orig_title":"Ichiban utsukushiku","year":"1944-04-13","translations":["Профессиональный (двухголосый закадровый) (Инис)"],"quality":"bd","translation":"Профессиональный (двухголосый закадровый) (Инис)","update":"2020-07-21 12:44:19","iframe_src":"//8944266443434.svetacdn.in/PfJ50H0ZBPg3/movie/41904"},{"id":41903,"title":"Знак тьмы","kp_id":"267559","imdb_id":"tt0854670","world_art_id":null,"type":"movie","add":"2020-07-20 19:37:15","orig_title":"Credo","year":"2008-09-12","translations":["Профессиональный (многоголосый закадровый)"],"quality":"dvdrip","translation":"Профессиональный (многоголосый закадровый)","update":"2020-07-21 12:44:36","iframe_src":"//8944266443434.svetacdn.in/PfJ50H0ZBPg3/movie/41903"},{"id":41898,"title":"Морг","kp_id":"278360","imdb_id":"tt0949888","world_art_id":null,"type":"movie","add":"2020-07-20 13:34:44","orig_title":"The Morgue","year":"2008-04-17","translations":["Профессиональный (многоголосый закадровый)"],"quality":"dvdrip","translation":"Профессиональный (многоголосый закадровый)","update":"2020-07-21 12:45:15","iframe_src":"//8944266443434.svetacdn.in/PfJ50H0ZBPg3/movie/41898"},{"id":41897,"title":"Ночь нежна","kp_id":"13574","imdb_id":"tt0056566","world_art_id":null,"type":"movie","add":"2020-07-20 13:32:36","orig_title":"Tender Is the Night","year":"1962-01-19","translations":["Профессиональный (многоголосый закадровый) (РенТВ)"],"quality":"dvdrip","translation":"Профессиональный (многоголосый закадровый) (РенТВ)","update":"2020-07-21 12:45:43","iframe_src":"//8944266443434.svetacdn.in/PfJ50H0ZBPg3/movie/41897"},{"id":41896,"title":"Потрошитель","kp_id":"293837","imdb_id":"tt1001333","world_art_id":null,"type":"movie","add":"2020-07-20 13:31:05","orig_title":"Carver","year":"2008-03-04","translations":["Профессиональный (многоголосый закадровый)"],"quality":"dvdrip","translation":"Профессиональный (многоголосый закадровый)","update":"2020-07-21 12:46:33","iframe_src":"//8944266443434.svetacdn.in/PfJ50H0ZBPg3/movie/41896"},{"id":41895,"title":"Мутанты 2","kp_id":"77383","imdb_id":"tt0239641","world_art_id":null,"type":"movie","add":"2020-07-20 13:17:42","orig_title":"Mimic 2","year":"2001-07-17","translations":["Профессиональный (многоголосый закадровый)"],"quality":"bd","translation":"Профессиональный (многоголосый закадровый)","update":"2020-07-21 12:47:15","iframe_src":"//8944266443434.svetacdn.in/PfJ50H0ZBPg3/movie/41895"},{"id":41894,"title":"Выселенный в поисках жилья","kp_id":"63118","imdb_id":"tt0086294","world_art_id":null,"type":"movie","add":"2020-07-20 13:15:22","orig_title":"Sfrattato cerca casa equo canone","year":"1983-01-01","translations":["Полное дублирование"],"quality":"dvdrip","translation":"Полное дублирование","update":"2020-07-21 12:47:46","iframe_src":"//8944266443434.svetacdn.in/PfJ50H0ZBPg3/movie/41894"},{"id":41893,"title":"Легенда о Джабберуоке","kp_id":"568511","imdb_id":"tt1734203","world_art_id":null,"type":"movie","add":"2020-07-20 13:12:29","orig_title":"Jabberwock","year":"2011-09-10","translations":["Профессиональный (многоголосый закадровый)"],"quality":"bd","translation":"Профессиональный (многоголосый закадровый)","update":"2020-07-21 12:48:20","iframe_src":"//8944266443434.svetacdn.in/PfJ50H0ZBPg3/movie/41893"},{"id":41892,"title":"Закон бойни","kp_id":"6984","imdb_id":"tt0266971","world_art_id":null,"type":"movie","add":"2020-07-20 13:10:17","orig_title":"The Slaughter Rule","year":"2002-01-11","translations":["Любительский (двухголосый закадровый)"],"quality":"dvdrip","translation":"Любительский (двухголосый закадровый)","update":"2020-07-21 12:48:51","iframe_src":"//8944266443434.svetacdn.in/PfJ50H0ZBPg3/movie/41892"},{"id":41891,"title":"Машина","kp_id":"480604","imdb_id":"tt1471153","world_art_id":null,"type":"movie","add":"2020-07-20 13:08:27","orig_title":"Crawler","year":"2009-07-24","translations":["Профессиональный (многоголосый закадровый)"],"quality":"sat","translation":"Профессиональный (многоголосый закадровый)","update":"2020-07-21 12:52:38","iframe_src":"//8944266443434.svetacdn.in/PfJ50H0ZBPg3/movie/41891"},{"id":41889,"title":"Бродячий автобус","kp_id":"46228","imdb_id":"tt0096984","world_art_id":null,"type":"movie","add":"2020-07-20 13:04:44","orig_title":"Brodyachiy avtobus","year":"1989-01-01","translations":["Оригинальная дорожка"],"quality":"dvdrip","translation":"Оригинальная дорожка","update":"2020-07-21 12:54:19","iframe_src":"//8944266443434.svetacdn.in/PfJ50H0ZBPg3/movie/41889"},{"id":41888,"title":"Лански","kp_id":"79588","imdb_id":"tt0173974","world_art_id":null,"type":"movie","add":"2020-07-20 12:18:48","orig_title":"Lansky","year":"1999-02-27","translations":["Профессиональный (многоголосый закадровый)"],"quality":"dvdrip","translation":"Профессиональный (многоголосый закадровый)","update":"2020-07-21 12:54:54","iframe_src":"//8944266443434.svetacdn.in/PfJ50H0ZBPg3/movie/41888"},{"id":41887,"title":"Полтора часа","kp_id":"973665","imdb_id":"tt5137294","world_art_id":null,"type":"movie","add":"2020-07-20 12:16:11","orig_title":"1 1/2 Hora","year":"2017-05-01","translations":["Любительский (многоголосый закадровый) (Синема УС)"],"quality":"webdl","translation":"Любительский (многоголосый закадровый) (Синема УС)","update":"2020-07-21 12:55:59","iframe_src":"//8944266443434.svetacdn.in/PfJ50H0ZBPg3/movie/41887"},{"id":24510,"title":"Без свидетелей","kp_id":"46116","imdb_id":"tt0085238","world_art_id":null,"type":"movie","add":"2019-04-13 08:15:56","orig_title":"Bez svideteley","year":"1983-06-12","translations":["Оригинальная дорожка","Оригинальная дорожка"],"quality":"dvdrip","translation":"Оригинальная дорожка","update":"2020-07-22 08:24:29","iframe_src":"//8944266443434.svetacdn.in/PfJ50H0ZBPg3/movie/24510"},{"id":8695,"title":"Бинго Бонго","kp_id":"57794","imdb_id":"tt0083655","world_art_id":null,"type":"movie","add":"2017-01-08 09:11:05","orig_title":"Bingo Bongo","year":"1982-12-23","translations":["Профессиональный (двухголосый закадровый)","Профессиональный (многоголосый закадровый) (Нота)","Профессиональный (двухголосый закадровый)"],"quality":"hdtv","translation":"Профессиональный (двухголосый закадровый)","update":"2020-07-22 06:22:55","iframe_src":"//8944266443434.svetacdn.in/PfJ50H0ZBPg3/movie/8695"},{"id":4464,"title":"Большой толстый лгун","kp_id":"4535","imdb_id":"tt0265298","world_art_id":null,"type":"movie","add":"2016-08-16 13:50:29","orig_title":"Big Fat Liar","year":"2002-02-08","translations":["Профессиональный (двухголосый закадровый)","[EN] Original (English)","Профессиональный (многоголосый закадровый)","Профессиональный (многоголосый закадровый) (СТС)","Профессиональный (двухголосый закадровый) (Премьер Видео Фильм)","Профессиональный (двухголосый закадровый) (Гланц + Королёва)","[EN] Original (English)"],"quality":"bd","translation":"Профессиональный (двухголосый закадровый)","update":"2020-07-22 06:16:00","iframe_src":"//8944266443434.svetacdn.in/PfJ50H0ZBPg3/movie/4464"},{"id":2784,"title":"Игра","kp_id":"12198","imdb_id":"tt0119174","world_art_id":null,"type":"movie","add":"2016-05-31 14:56:19","orig_title":"The Game","year":"1997-09-03","translations":["Полное дублирование","Профессиональный (многоголосый закадровый) (РТР | Россия)","Профессиональный (многоголосый закадровый) (Позитив)","Профессиональный (многоголосый закадровый) (Первый канал | ОРТ)","Профессиональный (многоголосый закадровый) (AB-Video)","Профессиональный (двухголосый закадровый) (Союз Видео)","Профессиональный (двухголосый закадровый) (SDI Media | Iyuno-SDI Group Russia)","Профессиональный (двухголосый закадровый) (РенТВ)","[EN] Original (English)","Полное дублирование","Авторский (одноголосый закадровый) (Живов Юрий)","Авторский (одноголосый закадровый) (Гаврилов Андрей)","Авторский (одноголосый закадровый) (Есарев Дмитрий)","Профессиональный (двухголосый закадровый) (НТВ)"],"quality":"bd","translation":"Полное дублирование","update":"2020-07-22 07:52:33","iframe_src":"//8944266443434.svetacdn.in/PfJ50H0ZBPg3/movie/2784"}],"current_page":1189,"first_page_url":"https://videocdn.tv/api/short?limit=100&api_token=RgFQdUIR2dRmwv8iYa5SnFNgnw3vpjKj&cache31189=31189&page=1","from":118801,"last_page":729,"last_page_url":"https://videocdn.tv/api/short?limit=100&api_token=RgFQdUIR2dRmwv8iYa5SnFNgnw3vpjKj&cache31189=31189&page=729","next_page_url":null,"path":"https://videocdn.tv/api/short","per_page":100,"prev_page_url":"https://videocdn.tv/api/short?limit=100&api_token=RgFQdUIR2dRmwv8iYa5SnFNgnw3vpjKj&cache31189=31189&page=1188","to":118820,"total":72890}