{"result":true,"data":[{"id":44548,"title":"Восемь минут второго","kp_id":"1429949","imdb_id":"tt13186470","world_art_id":null,"type":"movie","add":"2020-10-18 09:21:15","orig_title":"8ight After","year":"2020-10-15","translations":["Любительский (многоголосый закадровый) (Синема УС)"],"quality":"webdl","translation":"Любительский (многоголосый закадровый) (Синема УС)","update":"2020-10-18 18:42:54","iframe_src":"//24213.svetacdn.in/si4jsFRrtgrT/movie/44548"},{"id":44545,"title":"Руководство по выживанию","kp_id":"1341147","imdb_id":"tt11594696","world_art_id":null,"type":"movie","add":"2020-10-18 09:14:16","orig_title":"Survival Guide","year":"2020-10-01","translations":["Любительский (многоголосый закадровый) (Синема УС)"],"quality":"webdl","translation":"Любительский (многоголосый закадровый) (Синема УС)","update":"2020-10-18 18:47:30","iframe_src":"//24213.svetacdn.in/si4jsFRrtgrT/movie/44545"},{"id":44460,"title":"Рози","kp_id":"734205","imdb_id":"tt2661578","world_art_id":null,"type":"movie","add":"2020-10-15 16:08:02","orig_title":"Rosie","year":"2013-01-24","translations":["Любительский (одноголосый закадровый)"],"quality":"dvdrip","translation":"Любительский (одноголосый закадровый)","update":"2020-10-19 11:49:39","iframe_src":"//24213.svetacdn.in/si4jsFRrtgrT/movie/44460"},{"id":44459,"title":"Сердце мамы","kp_id":"156880","imdb_id":"tt0195621","world_art_id":null,"type":"movie","add":"2020-10-15 15:26:55","orig_title":"Cuore di mamma","year":"1969-02-08","translations":["Авторский (одноголосый закадровый) (Штейн Владимир)"],"quality":"dvdrip","translation":"Авторский (одноголосый закадровый) (Штейн Владимир)","update":"2020-10-18 21:49:10","iframe_src":"//24213.svetacdn.in/si4jsFRrtgrT/movie/44459"},{"id":44457,"title":"Наш ребенок","kp_id":"1074678","imdb_id":"tt7477236","world_art_id":null,"type":"movie","add":"2020-10-15 08:54:43","orig_title":"Unser Kind","year":"2018-10-08","translations":["Любительский (многоголосый закадровый) (Синема УС)"],"quality":"webdl","translation":"Любительский (многоголосый закадровый) (Синема УС)","update":"2020-10-19 13:54:07","iframe_src":"//24213.svetacdn.in/si4jsFRrtgrT/movie/44457"},{"id":44454,"title":"Юлиуш","kp_id":"1172219","imdb_id":"tt8657824","world_art_id":null,"type":"movie","add":"2020-10-15 07:56:50","orig_title":"Juliusz","year":"2018-09-14","translations":["Любительский (многоголосый закадровый) (AlphaProject)"],"quality":"webdl","translation":"Любительский (многоголосый закадровый) (AlphaProject)","update":"2020-10-19 13:54:36","iframe_src":"//24213.svetacdn.in/si4jsFRrtgrT/movie/44454"},{"id":44452,"title":"Карьеристка","kp_id":"1098205","imdb_id":"tt7555552","world_art_id":null,"type":"movie","add":"2020-10-15 07:50:56","orig_title":"Kobieta sukcesu","year":"2018-03-15","translations":["Любительский (многоголосый закадровый) (AlphaProject)"],"quality":"webdl","translation":"Любительский (многоголосый закадровый) (AlphaProject)","update":"2020-10-19 13:53:23","iframe_src":"//24213.svetacdn.in/si4jsFRrtgrT/movie/44452"},{"id":44435,"title":"Нэмури Кёсиро 12: Дворцовый зверинец","kp_id":"164781","imdb_id":"tt0148931","world_art_id":null,"type":"movie","add":"2020-10-14 17:40:50","orig_title":"Nemuri Kyôshirô: Akujo-gari","year":"1969-01-11","translations":["Авторский (одноголосый закадровый) (Кузнецов Сергей)"],"quality":"dvdrip","translation":"Авторский (одноголосый закадровый) (Кузнецов Сергей)","update":"2020-10-18 21:51:49","iframe_src":"//24213.svetacdn.in/si4jsFRrtgrT/movie/44435"},{"id":44434,"title":"Нэмури Кёсиро 11: Человек-тарантул","kp_id":"164783","imdb_id":"tt0148934","world_art_id":null,"type":"movie","add":"2020-10-14 17:37:39","orig_title":"Nemuri Kyôshirô: Hitohada gumo","year":"1968-05-01","translations":["Авторский (одноголосый закадровый) (Кузнецов Сергей)"],"quality":"dvdrip","translation":"Авторский (одноголосый закадровый) (Кузнецов Сергей)","update":"2020-10-18 21:52:41","iframe_src":"//24213.svetacdn.in/si4jsFRrtgrT/movie/44434"},{"id":44433,"title":"Нэмури Кёсиро 10: Самурай по имени Нэмури","kp_id":"164784","imdb_id":"tt0148933","world_art_id":null,"type":"movie","add":"2020-10-14 17:33:02","orig_title":"Nemuri Kyôshirô: Onna jigoku","year":"1968-01-13","translations":["Авторский (одноголосый закадровый) (Кузнецов Сергей)"],"quality":"dvdrip","translation":"Авторский (одноголосый закадровый) (Кузнецов Сергей)","update":"2020-10-18 21:55:38","iframe_src":"//24213.svetacdn.in/si4jsFRrtgrT/movie/44433"},{"id":44432,"title":"Нэмури Кёсиро 9: Тропа, полная ловушек","kp_id":"164685","imdb_id":"tt0148930","world_art_id":null,"type":"movie","add":"2020-10-14 16:51:39","orig_title":"Nemuri Kyôshirô burai-hikae: Mashô no hada","year":"1967-07-15","translations":["Авторский (одноголосый закадровый) (Кузнецов Сергей)"],"quality":"dvdrip","translation":"Авторский (одноголосый закадровый) (Кузнецов Сергей)","update":"2020-10-18 21:54:39","iframe_src":"//24213.svetacdn.in/si4jsFRrtgrT/movie/44432"},{"id":44431,"title":"Нэмури Кёсиро 8: Меч, спасший Эдо","kp_id":"164785","imdb_id":"tt0123187","world_art_id":null,"type":"movie","add":"2020-10-14 16:46:53","orig_title":"Nemuri Kyôshirô: Buraiken","year":"1966-11-09","translations":["Авторский (одноголосый закадровый) (Кузнецов Сергей)"],"quality":"dvdrip","translation":"Авторский (одноголосый закадровый) (Кузнецов Сергей)","update":"2020-10-18 21:53:43","iframe_src":"//24213.svetacdn.in/si4jsFRrtgrT/movie/44431"},{"id":44427,"title":"Нэмури Кёсиро 4: Меч соблазна","kp_id":"164773","imdb_id":"tt0123188","world_art_id":null,"type":"movie","add":"2020-10-14 09:41:50","orig_title":"Nemuri Kyôshirô: Joyôken","year":"1964-10-17","translations":["Авторский (одноголосый закадровый) (Иванов Михаил)"],"quality":"webdl","translation":"Авторский (одноголосый закадровый) (Иванов Михаил)","update":"2020-10-18 05:12:39","iframe_src":"//24213.svetacdn.in/si4jsFRrtgrT/movie/44427"},{"id":44426,"title":"Нэмури Кёсиро 5: Меч огня","kp_id":"164787","imdb_id":"tt0148936","world_art_id":null,"type":"movie","add":"2020-10-14 09:28:48","orig_title":"Nemuri Kyôshirô: Enjôken","year":"1965-01-13","translations":["Авторский (одноголосый закадровый) (Кузнецов Сергей)"],"quality":"webdl","translation":"Авторский (одноголосый закадровый) (Кузнецов Сергей)","update":"2020-10-18 05:15:59","iframe_src":"//24213.svetacdn.in/si4jsFRrtgrT/movie/44426"},{"id":44425,"title":"Нэмури Кёсиро 3: Убийство полного круга","kp_id":"164788","imdb_id":"tt0148932","world_art_id":null,"type":"movie","add":"2020-10-14 09:13:18","orig_title":"Nemuri Kyôshirô: Engetsugiri","year":"1964-05-23","translations":["Авторский (одноголосый закадровый) (Иванов Михаил)"],"quality":"webdl","translation":"Авторский (одноголосый закадровый) (Иванов Михаил)","update":"2020-10-18 05:14:46","iframe_src":"//24213.svetacdn.in/si4jsFRrtgrT/movie/44425"},{"id":44424,"title":"Нэмури Кёсиро 6: Меч сатаны","kp_id":"164687","imdb_id":"tt0148937","world_art_id":null,"type":"movie","add":"2020-10-14 09:09:54","orig_title":"Nemuri Kyôshirô: Mashôken","year":"1965-05-01","translations":["Авторский (одноголосый закадровый) (Кузнецов Сергей)"],"quality":"webdl","translation":"Авторский (одноголосый закадровый) (Кузнецов Сергей)","update":"2020-10-18 05:19:51","iframe_src":"//24213.svetacdn.in/si4jsFRrtgrT/movie/44424"},{"id":44332,"title":"Прощай, полицейский","kp_id":"94434","imdb_id":"tt0072603","world_art_id":null,"type":"movie","add":"2020-10-12 08:54:33","orig_title":"Adieu poulet","year":"1975-12-10","translations":["Профессиональный (многоголосый закадровый) (5-й канал СПб)","Полное дублирование (Киностудия им. Горького)"],"quality":"bd","translation":"Профессиональный (многоголосый закадровый) (5-й канал СПб)","update":"2020-10-19 11:46:27","iframe_src":"//24213.svetacdn.in/si4jsFRrtgrT/movie/44332"},{"id":44325,"title":"Queen: Дни наших жизней","kp_id":"624506","imdb_id":"tt1977894","world_art_id":null,"type":"movie","add":"2020-10-11 23:34:37","orig_title":"Queen: Days of Our Lives","year":"2011-05-29","translations":["Профессиональный (многоголосый закадровый)"],"quality":"bd","translation":"Профессиональный (многоголосый закадровый)","update":"2020-10-19 11:54:16","iframe_src":"//24213.svetacdn.in/si4jsFRrtgrT/movie/44325"},{"id":35502,"title":"Нэмури Кёсиро 07: Принцесса в маске","kp_id":"164686","imdb_id":"tt0148941","world_art_id":null,"type":"movie","add":"2020-01-26 20:27:54","orig_title":"Nemuri Kyôshirô: Tajôken","year":"1966-03-12","translations":["Авторский (одноголосый закадровый) (Кузнецов Сергей)","Авторский (одноголосый закадровый) (Кузнецов Сергей)"],"quality":"dvdrip","translation":"Авторский (одноголосый закадровый) (Кузнецов Сергей)","update":"2020-10-18 05:17:15","iframe_src":"//24213.svetacdn.in/si4jsFRrtgrT/movie/35502"},{"id":35501,"title":"Нэмури Кёсиро 2: Поединок","kp_id":"164789","imdb_id":"tt0148935","world_art_id":null,"type":"movie","add":"2020-01-26 20:24:29","orig_title":"Nemuri Kyôshirô: Shôbu","year":"1964-01-09","translations":["Авторский (одноголосый закадровый) (Иванов Михаил)","Авторский (одноголосый закадровый) (Иванов Михаил)"],"quality":"dvdrip","translation":"Авторский (одноголосый закадровый) (Иванов Михаил)","update":"2020-10-18 05:18:48","iframe_src":"//24213.svetacdn.in/si4jsFRrtgrT/movie/35501"}],"current_page":1041,"first_page_url":"https://videocdn.tv/api/short?limit=100&api_token=X6EwAUfE5M9xbo7y0Bp0aPf3uXxG2KLL&cache31041=31041&page=1","from":104001,"last_page":726,"last_page_url":"https://videocdn.tv/api/short?limit=100&api_token=X6EwAUfE5M9xbo7y0Bp0aPf3uXxG2KLL&cache31041=31041&page=726","next_page_url":null,"path":"https://videocdn.tv/api/short","per_page":100,"prev_page_url":"https://videocdn.tv/api/short?limit=100&api_token=X6EwAUfE5M9xbo7y0Bp0aPf3uXxG2KLL&cache31041=31041&page=1040","to":104020,"total":72538}