{"result":true,"data":[{"id":47040,"title":"Безоружный","kp_id":"1249326","imdb_id":"tt10049768","world_art_id":null,"type":"movie","add":"2021-01-13 11:29:18","orig_title":"Unarmed Man","year":"2019-03-29","translations":["Любительский (многоголосый закадровый) (Синема УС)"],"quality":"webdl","translation":"Любительский (многоголосый закадровый) (Синема УС)","update":"2021-01-13 14:15:58","iframe_src":"//83.svetacdn.in/PfJ50H0ZBPg3/movie/47040"},{"id":47039,"title":"Разделить нас","kp_id":"943463","imdb_id":"tt4630874","world_art_id":null,"type":"movie","add":"2021-01-13 11:27:48","orig_title":"Tear Us Apart","year":"2019-05-17","translations":["Любительский (многоголосый закадровый) (Синема УС)"],"quality":"webdl","translation":"Любительский (многоголосый закадровый) (Синема УС)","update":"2021-01-13 14:15:32","iframe_src":"//83.svetacdn.in/PfJ50H0ZBPg3/movie/47039"},{"id":47038,"title":"Вернись","kp_id":"1219604","imdb_id":"tt9411900","world_art_id":null,"type":"movie","add":"2021-01-13 11:26:40","orig_title":"Revenir","year":"2019-09-01","translations":["Любительский (многоголосый закадровый) (Синема УС)"],"quality":"webdl","translation":"Любительский (многоголосый закадровый) (Синема УС)","update":"2021-01-13 14:15:13","iframe_src":"//83.svetacdn.in/PfJ50H0ZBPg3/movie/47038"},{"id":47037,"title":"Мумия Уиджа","kp_id":"1182312","imdb_id":"tt8834658","world_art_id":null,"type":"movie","add":"2021-01-13 11:24:56","orig_title":"Ouija Mummy","year":"2019-08-25","translations":["Любительский (многоголосый закадровый) (Синема УС)"],"quality":"webdl","translation":"Любительский (многоголосый закадровый) (Синема УС)","update":"2021-01-13 14:14:53","iframe_src":"//83.svetacdn.in/PfJ50H0ZBPg3/movie/47037"},{"id":47036,"title":"Моя несносная девушка","kp_id":"1281885","imdb_id":"tt10080834","world_art_id":null,"type":"movie","add":"2021-01-13 11:23:35","orig_title":"Yêu Em Bât Châp","year":"2018-04-06","translations":["Любительский (многоголосый закадровый) (Синема УС)"],"quality":"webdl","translation":"Любительский (многоголосый закадровый) (Синема УС)","update":"2021-01-13 14:14:44","iframe_src":"//83.svetacdn.in/PfJ50H0ZBPg3/movie/47036"},{"id":47035,"title":"Массовая истерия","kp_id":"1176078","imdb_id":"tt7569226","world_art_id":null,"type":"movie","add":"2021-01-13 11:22:03","orig_title":"Mass Hysteria","year":"2019-01-01","translations":["Любительский (многоголосый закадровый) (Синема УС)"],"quality":"webdl","translation":"Любительский (многоголосый закадровый) (Синема УС)","update":"2021-01-13 14:20:46","iframe_src":"//83.svetacdn.in/PfJ50H0ZBPg3/movie/47035"},{"id":47034,"title":"Джойлэнд","kp_id":null,"imdb_id":"tt9816258","world_art_id":null,"type":"movie","add":"2021-01-13 11:20:04","orig_title":"Joyland","year":"2019-06-25","translations":["Любительский (многоголосый закадровый) (Синема УС)"],"quality":"webdl","translation":"Любительский (многоголосый закадровый) (Синема УС)","update":"2021-01-13 14:20:45","iframe_src":"//83.svetacdn.in/PfJ50H0ZBPg3/movie/47034"},{"id":47033,"title":"Близняшки-обманщики","kp_id":"1284264","imdb_id":"tt10627210","world_art_id":null,"type":"movie","add":"2021-01-13 11:18:32","orig_title":"Insincere Twins","year":"2019-06-01","translations":["Любительский (многоголосый закадровый) (Синема УС)"],"quality":"webdl","translation":"Любительский (многоголосый закадровый) (Синема УС)","update":"2021-01-13 14:20:46","iframe_src":"//83.svetacdn.in/PfJ50H0ZBPg3/movie/47033"},{"id":47032,"title":"Жить одним днем","kp_id":"1177832","imdb_id":"tt8622174","world_art_id":null,"type":"movie","add":"2021-01-13 11:17:00","orig_title":"In the Moment","year":"2019-06-18","translations":["Любительский (многоголосый закадровый) (Синема УС)"],"quality":"webdl","translation":"Любительский (многоголосый закадровый) (Синема УС)","update":"2021-01-13 14:20:46","iframe_src":"//83.svetacdn.in/PfJ50H0ZBPg3/movie/47032"},{"id":47029,"title":"Не выключай свет","kp_id":"603051","imdb_id":"tt2011953","world_art_id":null,"type":"movie","add":"2021-01-13 10:57:03","orig_title":"Keep the Lights On","year":"2012-07-27","translations":["Профессиональный (двухголосый закадровый) (Elrom)"],"quality":"hdrip","translation":"Профессиональный (двухголосый закадровый) (Elrom)","update":"2021-01-13 14:13:00","iframe_src":"//83.svetacdn.in/PfJ50H0ZBPg3/movie/47029"},{"id":47027,"title":"Вива","kp_id":"885202","imdb_id":"tt4334482","world_art_id":null,"type":"movie","add":"2021-01-13 10:41:09","orig_title":"Viva","year":"2015-09-04","translations":["Любительский (двухголосый закадровый)"],"quality":"dvdrip","translation":"Любительский (двухголосый закадровый)","update":"2021-01-13 14:05:32","iframe_src":"//83.svetacdn.in/PfJ50H0ZBPg3/movie/47027"},{"id":47026,"title":"Давайте забудем об этом","kp_id":"661566","imdb_id":"tt2181867","world_art_id":null,"type":"movie","add":"2021-01-13 10:35:00","orig_title":"Come non detto","year":"2012-09-07","translations":["Профессиональный (двухголосый закадровый) (НТВ)"],"quality":"dvdrip","translation":"Профессиональный (двухголосый закадровый) (НТВ)","update":"2021-01-13 14:05:01","iframe_src":"//83.svetacdn.in/PfJ50H0ZBPg3/movie/47026"},{"id":47024,"title":"Поцелуй солнца","kp_id":"276039","imdb_id":"tt0807767","world_art_id":null,"type":"movie","add":"2021-01-13 10:20:33","orig_title":"Sun Kissed","year":"2008-03-27","translations":["Original (English)"],"quality":"dvdrip","translation":"Original (English)","update":"2021-01-13 13:57:33","iframe_src":"//83.svetacdn.in/PfJ50H0ZBPg3/movie/47024"},{"id":46972,"title":"Nanny Danger","kp_id":"1345215","imdb_id":"tt11685364","world_art_id":null,"type":"movie","add":"2021-01-12 13:33:03","orig_title":"Nanny Danger","year":"2020-07-01","translations":["Original (English)"],"quality":"hdtv","translation":"Original (English)","update":"2021-01-13 12:48:37","iframe_src":"//83.svetacdn.in/PfJ50H0ZBPg3/movie/46972"},{"id":46969,"title":"Сердце дома","kp_id":null,"imdb_id":"tt8247902","world_art_id":null,"type":"movie","add":"2021-01-12 13:28:47","orig_title":"Heart of the Home","year":"2021-01-12","translations":["Любительский (многоголосый закадровый) (Синема УС)","Original (English)"],"quality":"webdl","translation":"Любительский (многоголосый закадровый) (Синема УС)","update":"2021-01-13 12:37:17","iframe_src":"//83.svetacdn.in/PfJ50H0ZBPg3/movie/46969"},{"id":46966,"title":"Советы доктора Бёрда для грустных поэтов","kp_id":"811252","imdb_id":"tt3301314","world_art_id":null,"type":"movie","add":"2021-01-12 13:21:03","orig_title":"Dr. Bird's Advice for Sad Poets","year":"2021-01-12","translations":["Original (English)"],"quality":"webdl","translation":"Original (English)","update":"2021-01-13 12:41:26","iframe_src":"//83.svetacdn.in/PfJ50H0ZBPg3/movie/46966"},{"id":46758,"title":"Наследие Хоуп","kp_id":"1273901","imdb_id":"tt10413092","world_art_id":null,"type":"movie","add":"2021-01-06 21:47:56","orig_title":"Hope's Legacy","year":"2021-01-05","translations":["Любительский (многоголосый закадровый) (Синема УС)","Original (English)"],"quality":"webdl","translation":"Любительский (многоголосый закадровый) (Синема УС)","update":"2021-01-13 12:36:30","iframe_src":"//83.svetacdn.in/PfJ50H0ZBPg3/movie/46758"},{"id":46757,"title":"Американская мечта","kp_id":"602963","imdb_id":"tt1998389","world_art_id":null,"type":"movie","add":"2021-01-06 21:45:49","orig_title":"American Dream","year":"2021-01-21","translations":["Любительский (многоголосый закадровый) (@MUZOBOZ@)","Original (English)"],"quality":"webdl","translation":"Любительский (многоголосый закадровый) (@MUZOBOZ@)","update":"2021-01-13 12:47:48","iframe_src":"//83.svetacdn.in/PfJ50H0ZBPg3/movie/46757"},{"id":46711,"title":"COVID-21: Смертоносный вирус","kp_id":"1329033","imdb_id":"tt11246434","world_art_id":null,"type":"movie","add":"2021-01-05 18:59:28","orig_title":"COVID-21: Lethal Virus","year":"2021-01-04","translations":["Любительский (многоголосый закадровый) (Синема УС)","Original (English)"],"quality":"webdl","translation":"Любительский (многоголосый закадровый) (Синема УС)","update":"2021-01-13 12:42:31","iframe_src":"//83.svetacdn.in/PfJ50H0ZBPg3/movie/46711"},{"id":42795,"title":"Макс Уинслоу и дом тайн","kp_id":"1212812","imdb_id":"tt8896632","world_art_id":null,"type":"movie","add":"2020-08-26 04:20:45","orig_title":"Max Winslow and the House of Secrets","year":"2019-09-07","translations":["Любительский (многоголосый закадровый) (Синема УС)","Original (English)"],"quality":"webdl","translation":"Любительский (многоголосый закадровый) (Синема УС)","update":"2021-01-13 12:32:49","iframe_src":"//83.svetacdn.in/PfJ50H0ZBPg3/movie/42795"},{"id":8286,"title":"Дублерша","kp_id":"581658","imdb_id":null,"world_art_id":null,"type":"serial","add":"2020-07-29 21:14:51","orig_title":"Дублерша","year":"2011-03-12","translations":["Оригинальная дорожка"],"seasons_count":1,"episodes_count":4,"episodes":4,"update":"2020-07-30 20:19:29","iframe_src":"//83.svetacdn.in/PfJ50H0ZBPg3/tv-series/8286"},{"id":8284,"title":"Здесь кто-то есть: Искупление","kp_id":"591723","imdb_id":"tt5074308","world_art_id":null,"type":"serial","add":"2020-07-29 12:51:45","orig_title":"Zdes kto-to est: Iskuplenie","year":"2011-05-10","translations":["Оригинальная дорожка"],"seasons_count":1,"episodes_count":16,"episodes":16,"update":"2020-07-30 13:14:06","iframe_src":"//83.svetacdn.in/PfJ50H0ZBPg3/tv-series/8284"},{"id":8283,"title":"Здесь кто-то есть...","kp_id":"573719","imdb_id":"tt2747146","world_art_id":null,"type":"serial","add":"2020-07-29 12:44:40","orig_title":"Zdes' kto-to yest' ...","year":"2010-12-06","translations":["Оригинальная дорожка"],"seasons_count":1,"episodes_count":16,"episodes":16,"update":"2020-07-30 10:31:18","iframe_src":"//83.svetacdn.in/PfJ50H0ZBPg3/tv-series/8283"},{"id":8282,"title":"1001","kp_id":"839392","imdb_id":null,"world_art_id":null,"type":"serial","add":"2020-07-29 12:36:23","orig_title":"1001","year":"2014-05-02","translations":["Оригинальная дорожка"],"seasons_count":1,"episodes_count":4,"episodes":4,"update":"2020-07-30 20:21:58","iframe_src":"//83.svetacdn.in/PfJ50H0ZBPg3/tv-series/8282"},{"id":8278,"title":"Первая попытка","kp_id":"455497","imdb_id":"tt3540702","world_art_id":null,"type":"serial","add":"2020-07-28 21:02:37","orig_title":"Pervaya popytka","year":"2009-04-11","translations":["Оригинальная дорожка"],"seasons_count":1,"episodes_count":2,"episodes":2,"update":"2020-07-30 20:23:09","iframe_src":"//83.svetacdn.in/PfJ50H0ZBPg3/tv-series/8278"},{"id":8273,"title":"Фриски Динго","kp_id":"453038","imdb_id":"tt0865409","world_art_id":null,"type":"serial","add":"2020-07-28 12:15:22","orig_title":"Frisky Dingo","year":"2006-10-16","translations":["Профессиональный (многоголосый закадровый) (2x2)"],"seasons_count":2,"episodes_count":25,"episodes":12,"update":"2020-07-30 11:38:15","iframe_src":"//83.svetacdn.in/PfJ50H0ZBPg3/tv-series/8273"},{"id":8270,"title":"Поцелуй!","kp_id":"803878","imdb_id":"tt3499760","world_art_id":null,"type":"serial","add":"2020-07-28 08:27:45","orig_title":"Potseluy","year":"2013-09-02","translations":["Оригинальная дорожка"],"seasons_count":1,"episodes_count":77,"episodes":77,"update":"2020-07-30 16:18:58","iframe_src":"//83.svetacdn.in/PfJ50H0ZBPg3/tv-series/8270"},{"id":8269,"title":"Чемпион","kp_id":"411764","imdb_id":"tt1415243","world_art_id":null,"type":"serial","add":"2020-07-28 08:04:02","orig_title":"Chempion","year":"2008-03-01","translations":["Оригинальная дорожка"],"seasons_count":1,"episodes_count":40,"episodes":40,"update":"2020-07-29 20:45:28","iframe_src":"//83.svetacdn.in/PfJ50H0ZBPg3/tv-series/8269"},{"id":8267,"title":"Марисоль","kp_id":"474277","imdb_id":"tt0211827","world_art_id":null,"type":"serial","add":"2020-07-27 17:08:46","orig_title":"Marisol","year":"1996-01-22","translations":["Профессиональный (многоголосый закадровый)"],"seasons_count":1,"episodes_count":133,"episodes":133,"update":"2020-07-29 19:39:14","iframe_src":"//83.svetacdn.in/PfJ50H0ZBPg3/tv-series/8267"},{"id":8239,"title":"Макс Грин и инопланетяне","kp_id":"1048000","imdb_id":"tt5420226","world_art_id":null,"type":"serial","add":"2020-07-23 16:52:44","orig_title":"Pumpkin Reports","year":"2016-01-16","translations":["Полное дублирование (CLS Media)"],"seasons_count":1,"episodes_count":52,"episodes":52,"update":"2020-07-30 07:56:00","iframe_src":"//83.svetacdn.in/PfJ50H0ZBPg3/tv-series/8239"},{"id":8228,"title":"Ангелы Z: Магия кристалла","kp_id":"427835","imdb_id":"tt0813977","world_art_id":null,"type":"serial","add":"2020-07-21 12:26:59","orig_title":"Z-Squad","year":"2006-07-21","translations":["Полное дублирование (SDI Media)"],"seasons_count":1,"episodes_count":12,"episodes":12,"update":"2020-07-30 16:30:14","iframe_src":"//83.svetacdn.in/PfJ50H0ZBPg3/tv-series/8228"},{"id":8227,"title":"Главный подозреваемый","kp_id":"581551","imdb_id":"tt1582456","world_art_id":null,"type":"serial","add":"2020-07-21 12:01:46","orig_title":"Prime Suspect","year":"2011-09-22","translations":["Профессиональный (многоголосый закадровый) (NewStudio)"],"seasons_count":1,"episodes_count":10,"episodes":10,"update":"2020-07-30 16:26:12","iframe_src":"//83.svetacdn.in/PfJ50H0ZBPg3/tv-series/8227"},{"id":8226,"title":"СССР. Крах империи","kp_id":"604082","imdb_id":"tt11371080","world_art_id":null,"type":"serial","add":"2020-07-21 11:55:59","orig_title":"SSSR. Krusheniye","year":"2011-08-19","translations":["Оригинальная дорожка"],"seasons_count":1,"episodes_count":7,"episodes":7,"update":"2020-07-30 16:19:26","iframe_src":"//83.svetacdn.in/PfJ50H0ZBPg3/tv-series/8226"},{"id":4911,"title":"Последний шанс","kp_id":"993552","imdb_id":"tt5863126","world_art_id":null,"type":"serial","add":"2019-07-22 10:05:35","orig_title":"Last Chance U","year":"2016-07-29","translations":["Любительский (многоголосый закадровый) (Octopus)","Любительский (многоголосый закадровый) (ColdFilm)"],"seasons_count":2,"episodes_count":11,"episodes":8,"update":"2020-07-29 20:52:14","iframe_src":"//83.svetacdn.in/PfJ50H0ZBPg3/tv-series/4911"},{"id":4584,"title":"Гресия","kp_id":"255332","imdb_id":"tt0220234","world_art_id":null,"type":"serial","add":"2019-05-30 15:42:21","orig_title":"Grecia","year":"1987-01-01","translations":["Любительский (одноголосый закадровый)","Профессиональный (многоголосый закадровый)"],"seasons_count":1,"episodes_count":145,"episodes":145,"update":"2020-07-30 17:23:40","iframe_src":"//83.svetacdn.in/PfJ50H0ZBPg3/tv-series/4584"},{"id":3908,"title":"Мне очень жаль","kp_id":"999246","imdb_id":"tt5987254","world_art_id":null,"type":"serial","add":"2019-01-19 15:30:31","orig_title":"I'm Sorry","year":"2017-07-12","translations":["Профессиональный (двухголосый закадровый) (Ozz.tv)","Профессиональный (многоголосый закадровый) (DoubleRec)","Профессиональный (многоголосый закадровый) (HDrezka Studio)"],"seasons_count":2,"episodes_count":20,"episodes":10,"update":"2020-07-29 19:03:45","iframe_src":"//83.svetacdn.in/PfJ50H0ZBPg3/tv-series/3908"},{"id":3002,"title":"Мамаша","kp_id":"1049199","imdb_id":"tt6274614","world_art_id":null,"type":"serial","add":"2018-08-05 07:34:21","orig_title":"SMILF","year":"2017-11-05","translations":["Профессиональный (многоголосый закадровый) (FilmsClub)","Любительский (двухголосый закадровый) (KinoGolos)","Любительский (двухголосый закадровый) (GoldTeam)","Профессиональный (многоголосый закадровый) (HDrezka Studio)"],"seasons_count":2,"episodes_count":18,"episodes":10,"update":"2020-07-30 15:51:16","iframe_src":"//83.svetacdn.in/PfJ50H0ZBPg3/tv-series/3002"},{"id":1685,"title":"Футурама","kp_id":"79920","imdb_id":"tt0149460","world_art_id":null,"type":"serial","add":"2017-10-29 08:04:18","orig_title":"Futurama","year":"1999-03-28","translations":["Профессиональный (двухголосый закадровый) (РенТВ)","Профессиональный (многоголосый закадровый) (РенТВ)","Профессиональный (многоголосый закадровый) (LostFilm)","Профессиональный (многоголосый закадровый) (2x2)","Профессиональный (двухголосый закадровый) (Кубик в Кубе)","Профессиональный (многоголосый закадровый) (VO-Production)"],"seasons_count":7,"episodes_count":124,"episodes":26,"update":"2020-07-30 16:03:10","iframe_src":"//83.svetacdn.in/PfJ50H0ZBPg3/tv-series/1685"},{"id":1442,"title":"Раскаяния выжившего","kp_id":"804881","imdb_id":"tt3231022","world_art_id":null,"type":"serial","add":"2017-08-02 12:16:36","orig_title":"Survivor's Remorse","year":"2014-10-04","translations":["Любительский (одноголосый закадровый) (Lord32x)","Профессиональный (многоголосый закадровый) (HDrezka Studio)"],"seasons_count":4,"episodes_count":35,"episodes":10,"update":"2020-07-30 10:25:09","iframe_src":"//83.svetacdn.in/PfJ50H0ZBPg3/tv-series/1442"},{"id":921,"title":"Рождение мафии: Чикаго","kp_id":"991610","imdb_id":"tt5777020","world_art_id":null,"type":"serial","add":"2017-01-22 17:10:36","orig_title":"The Making of the Mob: Chicago","year":"2016-07-11","translations":["Профессиональный (многоголосый закадровый) (LostFilm)"],"seasons_count":1,"episodes_count":8,"episodes":16,"update":"2020-07-30 10:59:41","iframe_src":"//83.svetacdn.in/PfJ50H0ZBPg3/tv-series/921"}],"current_page":133,"first_page_url":"https://videocdn.tv/api/short?limit=100&api_token=RgFQdUIR2dRmwv8iYa5SnFNgnw3vpjKj&cache3133=3133&page=1","from":13201,"last_page":599,"last_page_url":"https://videocdn.tv/api/short?limit=100&api_token=RgFQdUIR2dRmwv8iYa5SnFNgnw3vpjKj&cache3133=3133&page=599","next_page_url":"https://videocdn.tv/api/short?limit=100&api_token=RgFQdUIR2dRmwv8iYa5SnFNgnw3vpjKj&cache3133=3133&page=134","path":"https://videocdn.tv/api/short","per_page":100,"prev_page_url":"https://videocdn.tv/api/short?limit=100&api_token=RgFQdUIR2dRmwv8iYa5SnFNgnw3vpjKj&cache3133=3133&page=132","to":13240,"total":59870}