{"result":true,"data":[{"id":9717,"title":"Экзорцизм Анны Экланд","kp_id":"914008","imdb_id":"tt3564860","world_art_id":null,"type":"movie","add":"2017-02-15 15:05:34","orig_title":"The Exorcism of Anna Ecklund","year":"2016-03-07","translations":["Любительский (двухголосый закадровый)"],"quality":"webdl","translation":"Любительский (двухголосый закадровый)","update":"2017-02-16 07:37:02","iframe_src":"//83.svetacdn.in/PfJ50H0ZBPg3/movie/9717"},{"id":9716,"title":"Варвары","kp_id":"691600","imdb_id":"tt2190332","world_art_id":null,"type":"movie","add":"2017-02-15 15:04:00","orig_title":"Varvari","year":"2014-07-06","translations":["Любительский (двухголосый закадровый)"],"quality":"sat","translation":"Любительский (двухголосый закадровый)","update":"2017-02-16 07:34:46","iframe_src":"//83.svetacdn.in/PfJ50H0ZBPg3/movie/9716"},{"id":9715,"title":"Дораэмон: останься со мной","kp_id":"811699","imdb_id":"tt3331846","world_art_id":null,"type":"movie","add":"2017-02-15 15:00:32","orig_title":"Stand by Me Doraemon","year":"2014-08-08","translations":["Любительский (двухголосый закадровый)"],"quality":"bd","translation":"Любительский (двухголосый закадровый)","update":"2017-02-16 07:31:28","iframe_src":"//83.svetacdn.in/PfJ50H0ZBPg3/movie/9715"},{"id":9714,"title":"Смерть в колледже","kp_id":"855555","imdb_id":"tt3731196","world_art_id":null,"type":"movie","add":"2017-02-15 14:56:45","orig_title":"Dead on Campus","year":"2014-11-08","translations":["Авторский (одноголосый закадровый) (Дольский Андрей)"],"quality":"bd","translation":"Авторский (одноголосый закадровый) (Дольский Андрей)","update":"2017-02-16 07:19:04","iframe_src":"//83.svetacdn.in/PfJ50H0ZBPg3/movie/9714"},{"id":9713,"title":"Я и 23 раба","kp_id":"804817","imdb_id":"tt3238462","world_art_id":null,"type":"movie","add":"2017-02-15 14:35:43","orig_title":"Doreiku: Boku to 23-nin no dorei","year":"2014-06-28","translations":["Любительский (двухголосый закадровый) (Колобок)"],"quality":"bd","translation":"Любительский (двухголосый закадровый) (Колобок)","update":"2017-02-16 07:28:02","iframe_src":"//83.svetacdn.in/PfJ50H0ZBPg3/movie/9713"},{"id":9711,"title":"Проект 12: Бункер","kp_id":"796775","imdb_id":"tt3157640","world_art_id":null,"type":"movie","add":"2017-02-15 14:32:54","orig_title":"Project 12: The Bunker","year":"2016-01-08","translations":["Любительский (одноголосый закадровый)"],"quality":"dvdrip","translation":"Любительский (одноголосый закадровый)","update":"2017-02-16 07:22:34","iframe_src":"//83.svetacdn.in/PfJ50H0ZBPg3/movie/9711"},{"id":9710,"title":"Единственные братья","kp_id":"840819","imdb_id":"tt3764194","world_art_id":null,"type":"movie","add":"2017-02-15 14:31:49","orig_title":"Fratelli unici","year":"2014-10-02","translations":["Любительский (одноголосый закадровый)"],"quality":"bd","translation":"Любительский (одноголосый закадровый)","update":"2017-02-16 07:21:06","iframe_src":"//83.svetacdn.in/PfJ50H0ZBPg3/movie/9710"},{"id":9707,"title":"Машина времени","kp_id":"80881","imdb_id":"tt0054387","world_art_id":null,"type":"movie","add":"2017-02-15 14:22:54","orig_title":"The Time Machine","year":"1960-05-25","translations":["Профессиональный (многоголосый закадровый)"],"quality":"bd","translation":"Профессиональный (многоголосый закадровый)","update":"2017-02-16 06:54:43","iframe_src":"//83.svetacdn.in/PfJ50H0ZBPg3/movie/9707"},{"id":9706,"title":"Послесловие","kp_id":"43166","imdb_id":"tt0171647","world_art_id":null,"type":"movie","add":"2017-02-15 14:21:31","orig_title":"Posleslovie","year":"1983-11-21","translations":["Оригинальная дорожка"],"quality":"dvdrip","translation":"Оригинальная дорожка","update":"2017-02-16 06:52:59","iframe_src":"//83.svetacdn.in/PfJ50H0ZBPg3/movie/9706"},{"id":9705,"title":"Фронт без флангов","kp_id":"44438","imdb_id":"tt0071525","world_art_id":null,"type":"movie","add":"2017-02-15 14:20:05","orig_title":"Front bez flangov","year":"1975-05-09","translations":["Оригинальная дорожка"],"quality":"dvdrip","translation":"Оригинальная дорожка","update":"2017-02-16 06:51:03","iframe_src":"//83.svetacdn.in/PfJ50H0ZBPg3/movie/9705"},{"id":9704,"title":"Электрома","kp_id":"255369","imdb_id":"tt0800022","world_art_id":null,"type":"movie","add":"2017-02-15 14:18:12","orig_title":"Electroma","year":"2006-05-21","translations":["Оригинальная дорожка"],"quality":"bd","translation":"Оригинальная дорожка","update":"2017-02-16 06:51:23","iframe_src":"//83.svetacdn.in/PfJ50H0ZBPg3/movie/9704"},{"id":9702,"title":"Экономика пары","kp_id":"958502","imdb_id":"tt4746484","world_art_id":null,"type":"movie","add":"2017-02-15 14:15:18","orig_title":"L'économie du couple","year":"2016-05-13","translations":["Любительский (многоголосый закадровый) (Синема УС)"],"quality":"bd","translation":"Любительский (многоголосый закадровый) (Синема УС)","update":"2017-02-16 06:48:40","iframe_src":"//83.svetacdn.in/PfJ50H0ZBPg3/movie/9702"},{"id":9699,"title":"Земля и свобода","kp_id":"7733","imdb_id":"tt0114671","world_art_id":null,"type":"movie","add":"2017-02-15 14:11:42","orig_title":"Land and Freedom","year":"1995-04-07","translations":["Любительский (одноголосый закадровый)"],"quality":"dvdrip","translation":"Любительский (одноголосый закадровый)","update":"2017-02-16 06:38:24","iframe_src":"//83.svetacdn.in/PfJ50H0ZBPg3/movie/9699"},{"id":9698,"title":"Отважный рыцарь","kp_id":"914859","imdb_id":"tt3500068","world_art_id":null,"type":"movie","add":"2017-02-15 14:08:58","orig_title":"Der kleine Ritter Trenk","year":"2015-10-16","translations":["Полное дублирование"],"quality":"bd","translation":"Полное дублирование","update":"2017-02-16 06:36:20","iframe_src":"//83.svetacdn.in/PfJ50H0ZBPg3/movie/9698"},{"id":9697,"title":"Тайна чёрных дроздов","kp_id":"42171","imdb_id":"tt0086407","world_art_id":null,"type":"movie","add":"2017-02-15 09:42:15","orig_title":"Tayna chyornykh drozdov","year":"1983-11-21","translations":["Оригинальная дорожка"],"quality":"dvdrip","translation":"Оригинальная дорожка","update":"2017-02-15 17:03:53","iframe_src":"//83.svetacdn.in/PfJ50H0ZBPg3/movie/9697"},{"id":9696,"title":"Ой, мороз, мороз!","kp_id":"419406","imdb_id":"tt3815986","world_art_id":null,"type":"movie","add":"2017-02-15 09:40:23","orig_title":"Oy, moroz, moroz!","year":"2005-01-01","translations":["Оригинальная дорожка"],"quality":"dvdrip","translation":"Оригинальная дорожка","update":"2017-02-15 17:04:39","iframe_src":"//83.svetacdn.in/PfJ50H0ZBPg3/movie/9696"},{"id":9695,"title":"Последняя жертва","kp_id":"43164","imdb_id":"tt0073558","world_art_id":null,"type":"movie","add":"2017-02-15 09:39:04","orig_title":"Poslednyaya zhertva","year":"1976-10-25","translations":["Оригинальная дорожка"],"quality":"dvdrip","translation":"Оригинальная дорожка","update":"2017-02-15 17:04:08","iframe_src":"//83.svetacdn.in/PfJ50H0ZBPg3/movie/9695"},{"id":9693,"title":"Власть убийц","kp_id":"471921","imdb_id":"tt1460743","world_art_id":null,"type":"movie","add":"2017-02-15 09:10:25","orig_title":"Jian yu","year":"2010-09-03","translations":["Профессиональный (двухголосый закадровый) (BBC Saint-Petersburg)"],"quality":"bd","translation":"Профессиональный (двухголосый закадровый) (BBC Saint-Petersburg)","update":"2017-02-15 17:03:48","iframe_src":"//83.svetacdn.in/PfJ50H0ZBPg3/movie/9693"},{"id":8435,"title":"Призрак в театре","kp_id":"972795","imdb_id":"tt5639650","world_art_id":null,"type":"movie","add":"2016-12-29 07:41:35","orig_title":"Phantom of the Theatre","year":"2016-04-29","translations":["Любительский (двухголосый закадровый) (Колобок)"],"quality":"bd","translation":"Любительский (двухголосый закадровый) (Колобок)","update":"2017-02-16 07:29:37","iframe_src":"//83.svetacdn.in/PfJ50H0ZBPg3/movie/8435"},{"id":6214,"title":"Призрак дома Бриар","kp_id":"863346","imdb_id":"tt4229298","world_art_id":null,"type":"movie","add":"2016-10-12 10:11:21","orig_title":"The Unspoken","year":"2015-10-24","translations":["Любительский (одноголосый закадровый)","Полное дублирование"],"quality":"hdrip","translation":"Любительский (одноголосый закадровый)","update":"2017-02-16 06:30:04","iframe_src":"//83.svetacdn.in/PfJ50H0ZBPg3/movie/6214"}],"current_page":2165,"first_page_url":"https://videocdn.tv/api/short?limit=100&api_token=RgFQdUIR2dRmwv8iYa5SnFNgnw3vpjKj&cache32165=32165&page=1","from":216401,"last_page":626,"last_page_url":"https://videocdn.tv/api/short?limit=100&api_token=RgFQdUIR2dRmwv8iYa5SnFNgnw3vpjKj&cache32165=32165&page=626","next_page_url":null,"path":"https://videocdn.tv/api/short","per_page":100,"prev_page_url":"https://videocdn.tv/api/short?limit=100&api_token=RgFQdUIR2dRmwv8iYa5SnFNgnw3vpjKj&cache32165=32165&page=2164","to":216420,"total":62573}