{"result":true,"data":[{"id":50887,"title":"Два-Семь","kp_id":"1137012","imdb_id":"tt7886626","world_art_id":null,"type":"movie","add":"2021-06-02 20:09:37","orig_title":"Two Seven","year":"2019-08-18","translations":["Любительский (многоголосый закадровый) (Синема УС)"],"quality":"webdl","translation":"Любительский (многоголосый закадровый) (Синема УС)","update":"2021-06-08 11:57:45","iframe_src":"//83.svetacdn.in/PfJ50H0ZBPg3/movie/50887"},{"id":50885,"title":"Почему нет?","kp_id":"1353473","imdb_id":"tt11449956","world_art_id":null,"type":"movie","add":"2021-06-02 20:07:07","orig_title":"Why Not?","year":"2019-10-10","translations":["Любительский (многоголосый закадровый) (AlphaProject)"],"quality":"webdl","translation":"Любительский (многоголосый закадровый) (AlphaProject)","update":"2021-06-08 11:57:37","iframe_src":"//83.svetacdn.in/PfJ50H0ZBPg3/movie/50885"},{"id":50884,"title":"Король преступного мира","kp_id":"208331","imdb_id":"tt0357693","world_art_id":null,"type":"movie","add":"2021-06-02 20:01:46","orig_title":"Garibon Ka Daata","year":"1989-05-26","translations":["Любительский (одноголосый закадровый) (Гумрал)"],"quality":"webdl","translation":"Любительский (одноголосый закадровый) (Гумрал)","update":"2021-06-08 11:57:18","iframe_src":"//83.svetacdn.in/PfJ50H0ZBPg3/movie/50884"},{"id":50883,"title":"Хиралал и Панналал","kp_id":"222999","imdb_id":"tt0258647","world_art_id":null,"type":"movie","add":"2021-06-02 19:58:52","orig_title":"Heeralal Pannalal","year":"1978-01-01","translations":["Любительский (одноголосый закадровый)"],"quality":"dvdrip","translation":"Любительский (одноголосый закадровый)","update":"2021-06-08 11:57:09","iframe_src":"//83.svetacdn.in/PfJ50H0ZBPg3/movie/50883"},{"id":50841,"title":"Хозяин","kp_id":"41821","imdb_id":"tt0152720","world_art_id":null,"type":"movie","add":"2021-06-01 20:07:05","orig_title":"Swami","year":"1977-01-01","translations":["Любительский (одноголосый закадровый)"],"quality":"webdl","translation":"Любительский (одноголосый закадровый)","update":"2021-06-08 11:56:24","iframe_src":"//83.svetacdn.in/PfJ50H0ZBPg3/movie/50841"},{"id":50840,"title":"Ядовитый","kp_id":"39694","imdb_id":"tt0172622","world_art_id":null,"type":"movie","add":"2021-06-01 20:05:11","orig_title":"Zahreelay","year":"1990-01-26","translations":["Любительский (одноголосый закадровый)"],"quality":"webdl","translation":"Любительский (одноголосый закадровый)","update":"2021-06-08 11:56:09","iframe_src":"//83.svetacdn.in/PfJ50H0ZBPg3/movie/50840"},{"id":50839,"title":"Избавление","kp_id":"97000","imdb_id":"tt0369746","world_art_id":null,"type":"movie","add":"2021-06-01 20:03:32","orig_title":"Mukti","year":"1977-08-14","translations":["Любительский (одноголосый закадровый)"],"quality":"webdl","translation":"Любительский (одноголосый закадровый)","update":"2021-06-08 11:55:47","iframe_src":"//83.svetacdn.in/PfJ50H0ZBPg3/movie/50839"},{"id":50838,"title":"Хозяин рынка","kp_id":"98901","imdb_id":"tt0246095","world_art_id":null,"type":"movie","add":"2021-06-01 20:02:13","orig_title":"Mutamestri","year":"1993-01-17","translations":["Любительский (одноголосый закадровый)"],"quality":"webdl","translation":"Любительский (одноголосый закадровый)","update":"2021-06-08 11:55:40","iframe_src":"//83.svetacdn.in/PfJ50H0ZBPg3/movie/50838"},{"id":50837,"title":"Последняя игра","kp_id":"224830","imdb_id":"tt0178171","world_art_id":null,"type":"movie","add":"2021-06-01 20:00:02","orig_title":"Aakhri Baazi","year":"1989-04-14","translations":["Любительский (одноголосый закадровый)"],"quality":"webdl","translation":"Любительский (одноголосый закадровый)","update":"2021-06-08 11:55:25","iframe_src":"//83.svetacdn.in/PfJ50H0ZBPg3/movie/50837"},{"id":50836,"title":"Кумар работает с огоньком","kp_id":"762491","imdb_id":"tt2889234","world_art_id":null,"type":"movie","add":"2021-06-01 19:58:10","orig_title":"Theeya Velai Seiyyanum Kumaru","year":"2013-06-14","translations":["Любительский (одноголосый закадровый)"],"quality":"webdl","translation":"Любительский (одноголосый закадровый)","update":"2021-06-08 11:55:11","iframe_src":"//83.svetacdn.in/PfJ50H0ZBPg3/movie/50836"},{"id":50835,"title":"Лев","kp_id":"1267383","imdb_id":"tt10298052","world_art_id":null,"type":"movie","add":"2021-06-01 19:55:58","orig_title":"Singa","year":"2019-05-24","translations":["Любительский (одноголосый закадровый)"],"quality":"webdl","translation":"Любительский (одноголосый закадровый)","update":"2021-06-08 11:54:59","iframe_src":"//83.svetacdn.in/PfJ50H0ZBPg3/movie/50835"},{"id":50834,"title":"Пятьдесят на пятьдесят","kp_id":"238336","imdb_id":"tt0359266","world_art_id":null,"type":"movie","add":"2021-06-01 19:54:01","orig_title":"Fiffty Fiffty","year":"1981-11-13","translations":["Любительский (одноголосый закадровый)"],"quality":"webdl","translation":"Любительский (одноголосый закадровый)","update":"2021-06-08 11:54:52","iframe_src":"//83.svetacdn.in/PfJ50H0ZBPg3/movie/50834"},{"id":50833,"title":"Мужество","kp_id":"1208070","imdb_id":"tt8811292","world_art_id":null,"type":"movie","add":"2021-06-01 19:51:30","orig_title":"Bharaate","year":"2019-10-18","translations":["Любительский (одноголосый закадровый)"],"quality":"webdl","translation":"Любительский (одноголосый закадровый)","update":"2021-06-08 11:54:39","iframe_src":"//83.svetacdn.in/PfJ50H0ZBPg3/movie/50833"},{"id":50832,"title":"Наксалит","kp_id":"921944","imdb_id":"tt4796654","world_art_id":null,"type":"movie","add":"2021-06-01 19:49:10","orig_title":"Naxal","year":"2015-06-19","translations":["Любительский (одноголосый закадровый)"],"quality":"webdl","translation":"Любительский (одноголосый закадровый)","update":"2021-06-08 11:54:28","iframe_src":"//83.svetacdn.in/PfJ50H0ZBPg3/movie/50832"},{"id":50831,"title":"Любовь без границ","kp_id":"406338","imdb_id":"tt1183944","world_art_id":null,"type":"movie","add":"2021-06-01 19:11:51","orig_title":"Sadiyaan: Boundaries Divide... Love Unites","year":"2010-04-02","translations":["Профессиональный (многоголосый закадровый) (Red Media)"],"quality":"dvdrip","translation":"Профессиональный (многоголосый закадровый) (Red Media)","update":"2021-06-08 11:53:53","iframe_src":"//83.svetacdn.in/PfJ50H0ZBPg3/movie/50831"},{"id":50830,"title":"Любовница","kp_id":"394562","imdb_id":"tt1085806","world_art_id":null,"type":"movie","add":"2021-06-01 19:09:43","orig_title":"Darling","year":"2007-09-07","translations":["Профессиональный (двухголосый закадровый)"],"quality":"dvdrip","translation":"Профессиональный (двухголосый закадровый)","update":"2021-06-08 11:53:41","iframe_src":"//83.svetacdn.in/PfJ50H0ZBPg3/movie/50830"},{"id":48944,"title":"Зеленые береты","kp_id":"1341","imdb_id":"tt0063035","world_art_id":null,"type":"movie","add":"2021-03-20 15:24:12","orig_title":"The Green Berets","year":"1968-06-19","translations":["Профессиональный (многоголосый закадровый)","[EN] Original (English)"],"quality":"bd","translation":"Профессиональный (многоголосый закадровый)","update":"2021-06-08 11:01:31","iframe_src":"//83.svetacdn.in/PfJ50H0ZBPg3/movie/48944"},{"id":39721,"title":"Банда","kp_id":"263337","imdb_id":"tt0497915","world_art_id":null,"type":"movie","add":"2020-04-22 12:17:40","orig_title":"Gunda","year":"1998-09-04","translations":["Профессиональный (одноголосый закадровый)","Профессиональный (двухголосый закадровый) (Bollywood HD)"],"quality":"webdl","translation":"Профессиональный (одноголосый закадровый)","update":"2021-06-08 11:54:14","iframe_src":"//83.svetacdn.in/PfJ50H0ZBPg3/movie/39721"},{"id":26672,"title":"Та еще парочка","kp_id":"684983","imdb_id":"tt2139881","world_art_id":null,"type":"movie","add":"2019-05-17 22:23:13","orig_title":"Long Shot","year":"2019-03-09","translations":["Полное дублирование","[EN] Original (English)","Авторский (одноголосый закадровый) (Котов Вячеслав)","Авторский (одноголосый закадровый) (Немахов Юрий)","Полное дублирование (iTunes)","[EN] Original (English)","Профессиональный (двухголосый закадровый) (SDI Media | Iyuno-SDI Group Russia)"],"quality":"bd","translation":"Полное дублирование","update":"2021-06-08 10:58:27","iframe_src":"//83.svetacdn.in/PfJ50H0ZBPg3/movie/26672"},{"id":20603,"title":"Тень","kp_id":"1045295","imdb_id":"tt6864046","world_art_id":null,"type":"movie","add":"2018-12-09 22:25:28","orig_title":"Ying","year":"2018-09-06","translations":["Любительский (многоголосый закадровый) (Колобок)","Любительский (двухголосый закадровый) (Sound-Group)","Профессиональный (многоголосый закадровый) (HDrezka Studio)","Полное дублирование","Профессиональный (многоголосый закадровый) (HDrezka Studio)"],"quality":"webdl","translation":"Любительский (многоголосый закадровый) (Колобок)","update":"2021-06-08 10:51:33","iframe_src":"//83.svetacdn.in/PfJ50H0ZBPg3/movie/20603"},{"id":871,"title":"Визит дамы","kp_id":"77257","imdb_id":"tt0127966","world_art_id":null,"type":"serial","add":"2017-01-13 05:47:40","orig_title":"Vizit damy","year":"1989-01-01","translations":["Оригинальная дорожка"],"seasons_count":1,"episodes_count":2,"episodes":2,"update":"2017-01-13 09:34:38","iframe_src":"//83.svetacdn.in/PfJ50H0ZBPg3/tv-series/871"},{"id":862,"title":"Главный подозреваемый 7","kp_id":"277547","imdb_id":"tt0811026","world_art_id":null,"type":"serial","add":"2017-01-10 07:25:41","orig_title":"Prime Suspect: The Final Act","year":"2006-10-15","translations":["Профессиональный (многоголосый закадровый) (Selena International)"],"seasons_count":1,"episodes_count":2,"episodes":2,"update":"2017-01-11 06:35:40","iframe_src":"//83.svetacdn.in/PfJ50H0ZBPg3/tv-series/862"},{"id":861,"title":"Главный подозреваемый 6: Последний свидетель","kp_id":"271519","imdb_id":"tt0365651","world_art_id":null,"type":"serial","add":"2017-01-10 07:22:42","orig_title":"Prime Suspect 6: The Last Witness","year":"2003-11-09","translations":["Профессиональный (многоголосый закадровый) (Selena International)"],"seasons_count":1,"episodes_count":2,"episodes":2,"update":"2017-01-11 06:32:48","iframe_src":"//83.svetacdn.in/PfJ50H0ZBPg3/tv-series/861"},{"id":860,"title":"Главный подозреваемый 5: Судебные ошибки","kp_id":"277818","imdb_id":"tt0115321","world_art_id":null,"type":"serial","add":"2017-01-10 07:19:36","orig_title":"Prime Suspect 5: Errors of Judgement","year":"1996-10-20","translations":["Профессиональный (многоголосый закадровый) (Selena International)"],"seasons_count":1,"episodes_count":2,"episodes":2,"update":"2017-01-11 06:29:14","iframe_src":"//83.svetacdn.in/PfJ50H0ZBPg3/tv-series/860"},{"id":859,"title":"Главный подозреваемый 4: Запах темноты","kp_id":"277817","imdb_id":"tt0114181","world_art_id":null,"type":"serial","add":"2017-01-10 07:11:35","orig_title":"Prime Suspect: The Scent of Darkness","year":"1995-05-15","translations":["Профессиональный (многоголосый закадровый) (Selena International)"],"seasons_count":1,"episodes_count":1,"episodes":1,"update":"2017-01-11 06:24:28","iframe_src":"//83.svetacdn.in/PfJ50H0ZBPg3/tv-series/859"},{"id":858,"title":"Главный подозреваемый 4: Узкий круг","kp_id":"277816","imdb_id":"tt0114180","world_art_id":null,"type":"serial","add":"2017-01-10 07:10:32","orig_title":"Prime Suspect: Inner Circles","year":"1995-05-07","translations":["Профессиональный (многоголосый закадровый) (Selena International)"],"seasons_count":1,"episodes_count":1,"episodes":1,"update":"2017-01-11 06:25:45","iframe_src":"//83.svetacdn.in/PfJ50H0ZBPg3/tv-series/858"},{"id":857,"title":"Главный подозреваемый 4: Потерянный ребенок","kp_id":"277815","imdb_id":"tt0114182","world_art_id":null,"type":"serial","add":"2017-01-10 06:58:43","orig_title":"Prime Suspect: The Lost Child","year":"1995-04-30","translations":["Профессиональный (многоголосый закадровый) (Selena International)"],"seasons_count":1,"episodes_count":1,"episodes":1,"update":"2017-01-11 06:22:29","iframe_src":"//83.svetacdn.in/PfJ50H0ZBPg3/tv-series/857"},{"id":856,"title":"Главный подозреваемый 3","kp_id":"277814","imdb_id":"tt0106104","world_art_id":null,"type":"serial","add":"2017-01-10 06:54:42","orig_title":"Prime Suspect 3","year":"1993-12-19","translations":["Профессиональный (многоголосый закадровый) (Selena International)"],"seasons_count":1,"episodes_count":2,"episodes":2,"update":"2017-01-11 06:21:01","iframe_src":"//83.svetacdn.in/PfJ50H0ZBPg3/tv-series/856"},{"id":855,"title":"Главный подозреваемый 2","kp_id":"277813","imdb_id":"tt0103516","world_art_id":null,"type":"serial","add":"2017-01-10 06:51:53","orig_title":"Prime Suspect 2","year":"1992-12-15","translations":["Профессиональный (многоголосый закадровый) (Selena International)"],"seasons_count":1,"episodes_count":2,"episodes":2,"update":"2017-01-11 06:18:08","iframe_src":"//83.svetacdn.in/PfJ50H0ZBPg3/tv-series/855"},{"id":854,"title":"Главный подозреваемый","kp_id":"277812","imdb_id":"tt0098898","world_art_id":null,"type":"serial","add":"2017-01-10 06:48:42","orig_title":"Prime Suspect","year":"1991-04-07","translations":["Профессиональный (многоголосый закадровый) (Selena International)"],"seasons_count":1,"episodes_count":2,"episodes":2,"update":"2017-01-11 06:12:37","iframe_src":"//83.svetacdn.in/PfJ50H0ZBPg3/tv-series/854"},{"id":846,"title":"Наша эра. Продолжение Библии","kp_id":"891412","imdb_id":"tt4074084","world_art_id":null,"type":"serial","add":"2017-01-09 11:03:44","orig_title":"A.D. The Bible Continues","year":"2015-04-05","translations":["Профессиональный (многоголосый закадровый) (BaibaKo)"],"seasons_count":1,"episodes_count":12,"episodes":12,"update":"2017-01-10 09:58:09","iframe_src":"//83.svetacdn.in/PfJ50H0ZBPg3/tv-series/846"},{"id":845,"title":"Холодное сердце","kp_id":"1008359","imdb_id":null,"world_art_id":null,"type":"serial","add":"2017-01-09 10:59:19","orig_title":"Холодное сердце","year":"2016-12-24","translations":["Оригинальная дорожка"],"seasons_count":1,"episodes_count":2,"episodes":2,"update":"2017-01-10 10:02:55","iframe_src":"//83.svetacdn.in/PfJ50H0ZBPg3/tv-series/845"},{"id":839,"title":"Голубка","kp_id":"532996","imdb_id":"tt4195010","world_art_id":null,"type":"serial","add":"2017-01-09 06:00:05","orig_title":"Golubka","year":"2011-03-14","translations":["Оригинальная дорожка"],"seasons_count":1,"episodes_count":16,"episodes":16,"update":"2017-01-10 15:21:42","iframe_src":"//83.svetacdn.in/PfJ50H0ZBPg3/tv-series/839"},{"id":822,"title":"Половинки невозможного","kp_id":"846891","imdb_id":null,"world_art_id":null,"type":"serial","add":"2017-01-06 12:23:29","orig_title":"Половинки невозможного","year":"2014-12-07","translations":["Оригинальная дорожка"],"seasons_count":1,"episodes_count":4,"episodes":4,"update":"2017-01-10 08:49:45","iframe_src":"//83.svetacdn.in/PfJ50H0ZBPg3/tv-series/822"},{"id":821,"title":"Операция «Горгона»","kp_id":"521695","imdb_id":null,"world_art_id":null,"type":"serial","add":"2017-01-06 12:07:50","orig_title":"Операция «Горгона»","year":"2011-05-07","translations":["Оригинальная дорожка"],"seasons_count":1,"episodes_count":4,"episodes":4,"update":"2017-01-11 12:00:09","iframe_src":"//83.svetacdn.in/PfJ50H0ZBPg3/tv-series/821"},{"id":820,"title":"Весна в декабре","kp_id":"577179","imdb_id":"tt4195012","world_art_id":null,"type":"serial","add":"2017-01-06 12:03:03","orig_title":"Vesna v dekabre","year":"2011-07-04","translations":["Оригинальная дорожка"],"seasons_count":1,"episodes_count":8,"episodes":8,"update":"2017-01-13 09:52:14","iframe_src":"//83.svetacdn.in/PfJ50H0ZBPg3/tv-series/820"},{"id":819,"title":"Домик у реки","kp_id":"841086","imdb_id":"tt5910190","world_art_id":null,"type":"serial","add":"2017-01-06 11:52:42","orig_title":"Domik u reki","year":"2014-11-04","translations":["Оригинальная дорожка"],"seasons_count":1,"episodes_count":4,"episodes":4,"update":"2017-01-12 11:17:17","iframe_src":"//83.svetacdn.in/PfJ50H0ZBPg3/tv-series/819"},{"id":817,"title":"Притворщики","kp_id":"1008512","imdb_id":null,"world_art_id":null,"type":"serial","add":"2017-01-06 11:30:51","orig_title":"Притворщики","year":"2016-12-30","translations":["Оригинальная дорожка"],"seasons_count":1,"episodes_count":2,"episodes":2,"update":"2017-01-10 08:52:52","iframe_src":"//83.svetacdn.in/PfJ50H0ZBPg3/tv-series/817"},{"id":814,"title":"Красавица и чудовище","kp_id":"662464","imdb_id":"tt2193041","world_art_id":null,"type":"serial","add":"2017-01-05 10:50:33","orig_title":"Beauty and the Beast","year":"2012-10-11","translations":["Профессиональный (многоголосый закадровый) (LostFilm)"],"seasons_count":4,"episodes_count":70,"episodes":13,"update":"2017-01-11 06:08:24","iframe_src":"//83.svetacdn.in/PfJ50H0ZBPg3/tv-series/814"},{"id":455,"title":"Отдел Ромео","kp_id":"976651","imdb_id":"tt4716230","world_art_id":null,"type":"serial","add":"2016-09-19 09:10:05","orig_title":"The Romeo Section","year":"2015-10-14","translations":["Профессиональный (многоголосый закадровый) (ViruseProject)"],"seasons_count":2,"episodes_count":20,"episodes":10,"update":"2017-01-13 05:23:26","iframe_src":"//83.svetacdn.in/PfJ50H0ZBPg3/tv-series/455"}],"current_page":598,"first_page_url":"https://videocdn.tv/api/short?limit=100&api_token=RgFQdUIR2dRmwv8iYa5SnFNgnw3vpjKj&cache3598=3598&page=1","from":59701,"last_page":719,"last_page_url":"https://videocdn.tv/api/short?limit=100&api_token=RgFQdUIR2dRmwv8iYa5SnFNgnw3vpjKj&cache3598=3598&page=719","next_page_url":"https://videocdn.tv/api/short?limit=100&api_token=RgFQdUIR2dRmwv8iYa5SnFNgnw3vpjKj&cache3598=3598&page=599","path":"https://videocdn.tv/api/short","per_page":100,"prev_page_url":"https://videocdn.tv/api/short?limit=100&api_token=RgFQdUIR2dRmwv8iYa5SnFNgnw3vpjKj&cache3598=3598&page=597","to":59740,"total":71893}