{"result":true,"data":[{"id":10193,"title":"Оккупация. Мистерии","kp_id":"80665","imdb_id":"tt0397554","world_art_id":null,"type":"movie","add":"2017-03-03 07:23:28","orig_title":"Okkupatsiya. Misterii","year":"2004-01-25","translations":["Оригинальная дорожка"],"quality":"dvdrip","translation":"Оригинальная дорожка","update":"2017-03-03 12:33:45","iframe_src":"//24213.svetacdn.in/IAF0wWTdNYZm/movie/10193"},{"id":10190,"title":"Ультиматум","kp_id":"400060","imdb_id":"tt5178168","world_art_id":null,"type":"movie","add":"2017-03-03 07:19:25","orig_title":"Ultimatum","year":"1999-01-01","translations":["Оригинальная дорожка"],"quality":"dvdrip","translation":"Оригинальная дорожка","update":"2017-03-03 12:29:54","iframe_src":"//24213.svetacdn.in/IAF0wWTdNYZm/movie/10190"},{"id":10189,"title":"Самозванка","kp_id":"51212","imdb_id":"tt0326805","world_art_id":null,"type":"movie","add":"2017-03-03 07:18:20","orig_title":"Chori Chori","year":"2003-08-01","translations":["Профессиональный (двухголосый закадровый)"],"quality":"dvdrip","translation":"Профессиональный (двухголосый закадровый)","update":"2017-03-03 12:31:12","iframe_src":"//24213.svetacdn.in/IAF0wWTdNYZm/movie/10189"},{"id":10187,"title":"Тайна","kp_id":"307012","imdb_id":"tt0846789","world_art_id":null,"type":"movie","add":"2017-03-03 07:16:35","orig_title":"The Secret","year":"2006-03-26","translations":["Полное дублирование"],"quality":"dvdrip","translation":"Полное дублирование","update":"2017-03-03 12:29:56","iframe_src":"//24213.svetacdn.in/IAF0wWTdNYZm/movie/10187"},{"id":10186,"title":"Здесь и сейчас","kp_id":"253494","imdb_id":"tt0490701","world_art_id":null,"type":"movie","add":"2017-03-03 07:15:35","orig_title":"You Are Here","year":"2007-01-26","translations":["Профессиональный (многоголосый закадровый)"],"quality":"dvdrip","translation":"Профессиональный (многоголосый закадровый)","update":"2017-03-03 12:39:25","iframe_src":"//24213.svetacdn.in/IAF0wWTdNYZm/movie/10186"},{"id":10184,"title":"Облако 9","kp_id":"744897","imdb_id":"tt2762970","world_art_id":null,"type":"movie","add":"2017-03-02 16:12:20","orig_title":"Cloud 9","year":"2014-01-17","translations":["Полное дублирование"],"quality":"webdl","translation":"Полное дублирование","update":"2017-03-03 05:56:26","iframe_src":"//24213.svetacdn.in/IAF0wWTdNYZm/movie/10184"},{"id":10183,"title":"Мега-акула против Меха-акулы","kp_id":"794762","imdb_id":"tt3152098","world_art_id":null,"type":"movie","add":"2017-03-02 16:08:33","orig_title":"Mega Shark vs. Mecha Shark","year":"2014-01-28","translations":["Любительский (одноголосый закадровый)"],"quality":"bd","translation":"Любительский (одноголосый закадровый)","update":"2017-03-03 05:58:38","iframe_src":"//24213.svetacdn.in/IAF0wWTdNYZm/movie/10183"},{"id":10181,"title":"Жизнь","kp_id":"767908","imdb_id":"tt2950236","world_art_id":null,"type":"movie","add":"2017-03-02 15:45:36","orig_title":"The Living","year":"2014-06-26","translations":["Любительский (двухголосый закадровый)"],"quality":"webdl","translation":"Любительский (двухголосый закадровый)","update":"2017-03-03 06:01:31","iframe_src":"//24213.svetacdn.in/IAF0wWTdNYZm/movie/10181"},{"id":10180,"title":"Американский бургер","kp_id":"687009","imdb_id":"tt2196844","world_art_id":null,"type":"movie","add":"2017-03-02 10:34:00","orig_title":"American Burger","year":"2014-10-09","translations":["Любительский (двухголосый закадровый)"],"quality":"webdl","translation":"Любительский (двухголосый закадровый)","update":"2017-03-03 10:33:15","iframe_src":"//24213.svetacdn.in/IAF0wWTdNYZm/movie/10180"},{"id":10179,"title":"Захват горы тигра","kp_id":"818979","imdb_id":"tt3950078","world_art_id":null,"type":"movie","add":"2017-03-02 10:30:45","orig_title":"Zhi qu weihu shan","year":"2014-12-23","translations":["Любительский (одноголосый закадровый)"],"quality":"bd","translation":"Любительский (одноголосый закадровый)","update":"2017-03-03 10:35:21","iframe_src":"//24213.svetacdn.in/IAF0wWTdNYZm/movie/10179"},{"id":10178,"title":"Геркулес","kp_id":"824471","imdb_id":"tt3499424","world_art_id":null,"type":"movie","add":"2017-03-02 10:28:14","orig_title":"Hercules Reborn","year":"2014-07-15","translations":["Любительский (одноголосый закадровый)"],"quality":"bd","translation":"Любительский (одноголосый закадровый)","update":"2017-03-03 10:38:04","iframe_src":"//24213.svetacdn.in/IAF0wWTdNYZm/movie/10178"},{"id":10177,"title":"Сумасшедшие суки","kp_id":"707009","imdb_id":"tt2384022","world_art_id":null,"type":"movie","add":"2017-03-02 10:26:23","orig_title":"Crazy Bitches","year":"2014-06-26","translations":["Любительский (двухголосый закадровый) (Колобок)"],"quality":"webdl","translation":"Любительский (двухголосый закадровый) (Колобок)","update":"2017-03-03 10:38:51","iframe_src":"//24213.svetacdn.in/IAF0wWTdNYZm/movie/10177"},{"id":10176,"title":"10 правил","kp_id":"779071","imdb_id":"tt3021744","world_art_id":null,"type":"movie","add":"2017-03-02 10:22:06","orig_title":"10 pravidel jak sbalit holku","year":"2014-03-20","translations":["Любительский (одноголосый закадровый) (PashaUp | Морозов Павел)"],"quality":"bd","translation":"Любительский (одноголосый закадровый) (PashaUp | Морозов Павел)","update":"2017-03-03 10:40:31","iframe_src":"//24213.svetacdn.in/IAF0wWTdNYZm/movie/10176"},{"id":10170,"title":"Ледяной лес","kp_id":"723900","imdb_id":"tt2559786","world_art_id":null,"type":"movie","add":"2017-03-02 08:05:54","orig_title":"La foresta di ghiaccio","year":"2014-10-23","translations":["Профессиональный (многоголосый закадровый)"],"quality":"dvdrip","translation":"Профессиональный (многоголосый закадровый)","update":"2017-03-03 10:41:50","iframe_src":"//24213.svetacdn.in/IAF0wWTdNYZm/movie/10170"},{"id":10169,"title":"Зажигая звёзды","kp_id":"819283","imdb_id":"tt3455740","world_art_id":null,"type":"movie","add":"2017-03-02 08:04:19","orig_title":"Set Fire to the Stars","year":"2014-06-23","translations":["Профессиональный (многоголосый закадровый)"],"quality":"bd","translation":"Профессиональный (многоголосый закадровый)","update":"2017-03-03 06:03:08","iframe_src":"//24213.svetacdn.in/IAF0wWTdNYZm/movie/10169"},{"id":10168,"title":"Монстры 2: Тёмный континент","kp_id":"684469","imdb_id":"tt1935302","world_art_id":null,"type":"movie","add":"2017-03-02 08:02:57","orig_title":"Monsters: Dark Continent","year":"2014-09-26","translations":["Профессиональный (многоголосый закадровый)"],"quality":"bd","translation":"Профессиональный (многоголосый закадровый)","update":"2017-03-03 05:31:29","iframe_src":"//24213.svetacdn.in/IAF0wWTdNYZm/movie/10168"},{"id":10158,"title":"Спаси меня","kp_id":"20321","imdb_id":"tt0107949","world_art_id":null,"type":"movie","add":"2017-03-02 06:59:34","orig_title":"Rescue Me","year":"1992-09-11","translations":["Профессиональный (многоголосый закадровый)"],"quality":"sat","translation":"Профессиональный (многоголосый закадровый)","update":"2017-03-03 12:27:51","iframe_src":"//24213.svetacdn.in/IAF0wWTdNYZm/movie/10158"},{"id":10156,"title":"Второй шанс","kp_id":"6623","imdb_id":"tt0272125","world_art_id":null,"type":"movie","add":"2017-03-02 06:53:46","orig_title":"Snapshots","year":"2002-02-21","translations":["Профессиональный (двухголосый закадровый) (Elrom)"],"quality":"dvdrip","translation":"Профессиональный (двухголосый закадровый) (Elrom)","update":"2017-03-03 12:29:11","iframe_src":"//24213.svetacdn.in/IAF0wWTdNYZm/movie/10156"},{"id":10155,"title":"Трезубец бога Шивы","kp_id":"78542","imdb_id":"tt0078418","world_art_id":null,"type":"movie","add":"2017-03-02 06:53:09","orig_title":"Trishul","year":"1978-05-05","translations":["Полное дублирование"],"quality":"dvdrip","translation":"Полное дублирование","update":"2017-03-03 12:27:23","iframe_src":"//24213.svetacdn.in/IAF0wWTdNYZm/movie/10155"},{"id":10154,"title":"Мои друзья","kp_id":"163239","imdb_id":"tt0072637","world_art_id":null,"type":"movie","add":"2017-03-02 06:52:16","orig_title":"Amici miei","year":"1975-07-26","translations":["Авторский (одноголосый закадровый) (Штейн Владимир)"],"quality":"bd","translation":"Авторский (одноголосый закадровый) (Штейн Владимир)","update":"2017-03-03 12:38:58","iframe_src":"//24213.svetacdn.in/IAF0wWTdNYZm/movie/10154"}],"current_page":2618,"first_page_url":"https://videocdn.tv/api/short?limit=100&api_token=6Onb1W1alEUrBcKJZD3GoKBbWyAl2uG2&cache32618=32618&page=1","from":261701,"last_page":728,"last_page_url":"https://videocdn.tv/api/short?limit=100&api_token=6Onb1W1alEUrBcKJZD3GoKBbWyAl2uG2&cache32618=32618&page=728","next_page_url":null,"path":"https://videocdn.tv/api/short","per_page":100,"prev_page_url":"https://videocdn.tv/api/short?limit=100&api_token=6Onb1W1alEUrBcKJZD3GoKBbWyAl2uG2&cache32618=32618&page=2617","to":261720,"total":72780}