{"result":true,"data":[{"id":45344,"title":"Золочёные лбы","kp_id":"581821","imdb_id":"tt3463292","world_art_id":null,"type":"movie","add":"2020-11-16 16:54:17","orig_title":"Zolochyonye lby","year":"1971-01-01","translations":["Оригинальная дорожка"],"quality":"dvdrip","translation":"Оригинальная дорожка","update":"2020-11-17 12:08:06","iframe_src":"//8543.svetacdn.in/IAF0wWTdNYZm/movie/45344"},{"id":45343,"title":"Трубка и медведь","kp_id":"615792","imdb_id":"tt6923430","world_art_id":null,"type":"movie","add":"2020-11-16 16:45:07","orig_title":"Trubka i medved","year":"1955-01-01","translations":["Оригинальная дорожка"],"quality":"dvdrip","translation":"Оригинальная дорожка","update":"2020-11-17 12:07:27","iframe_src":"//8543.svetacdn.in/IAF0wWTdNYZm/movie/45343"},{"id":45326,"title":"Свинья-копилка","kp_id":"452848","imdb_id":"tt6044652","world_art_id":null,"type":"movie","add":"2020-11-15 12:53:49","orig_title":"Svinya-kopilka","year":"1963-04-07","translations":["Оригинальная дорожка"],"quality":"dvdrip","translation":"Оригинальная дорожка","update":"2020-11-17 12:05:42","iframe_src":"//8543.svetacdn.in/IAF0wWTdNYZm/movie/45326"},{"id":45325,"title":"Почему ушел котенок","kp_id":"542488","imdb_id":"tt6024626","world_art_id":null,"type":"movie","add":"2020-11-15 12:50:38","orig_title":"Pochemu ushel kotyonok","year":"1958-02-01","translations":["Оригинальная дорожка"],"quality":"dvdrip","translation":"Оригинальная дорожка","update":"2020-11-17 12:04:39","iframe_src":"//8543.svetacdn.in/IAF0wWTdNYZm/movie/45325"},{"id":45324,"title":"Как котенку построили дом","kp_id":"258030","imdb_id":"tt2197272","world_art_id":null,"type":"movie","add":"2020-11-15 12:47:28","orig_title":"Kak kotyonku postroili dom","year":"1963-12-21","translations":["Оригинальная дорожка"],"quality":"dvdrip","translation":"Оригинальная дорожка","update":"2020-11-17 12:03:59","iframe_src":"//8543.svetacdn.in/IAF0wWTdNYZm/movie/45324"},{"id":45323,"title":"Выкрутасы","kp_id":"45573","imdb_id":"tt0242336","world_art_id":null,"type":"movie","add":"2020-11-15 12:44:29","orig_title":"Vykrutasy","year":"1987-02-28","translations":["Оригинальная дорожка"],"quality":"dvdrip","translation":"Оригинальная дорожка","update":"2020-11-17 12:01:25","iframe_src":"//8543.svetacdn.in/IAF0wWTdNYZm/movie/45323"},{"id":45322,"title":"Встречайте бабушку","kp_id":"474770","imdb_id":"tt6198026","world_art_id":null,"type":"movie","add":"2020-11-15 12:42:12","orig_title":"Vstrechayte babushku","year":"1984-03-18","translations":["Оригинальная дорожка"],"quality":"dvdrip","translation":"Оригинальная дорожка","update":"2020-11-17 12:00:11","iframe_src":"//8543.svetacdn.in/IAF0wWTdNYZm/movie/45322"},{"id":45321,"title":"Вася Буслик и его друзья","kp_id":"1018107","imdb_id":"tt6344878","world_art_id":null,"type":"movie","add":"2020-11-15 12:38:49","orig_title":"Vasya Buslik i ego druzya","year":"1973-01-01","translations":["Оригинальная дорожка"],"quality":"dvdrip","translation":"Оригинальная дорожка","update":"2020-11-17 11:44:33","iframe_src":"//8543.svetacdn.in/IAF0wWTdNYZm/movie/45321"},{"id":45320,"title":"Ба-буш-ка!","kp_id":"586669","imdb_id":null,"world_art_id":null,"type":"movie","add":"2020-11-15 12:34:42","orig_title":"Ба-буш-ка!","year":"1982-01-01","translations":["Оригинальная дорожка"],"quality":"dvdrip","translation":"Оригинальная дорожка","update":"2020-11-17 11:43:52","iframe_src":"//8543.svetacdn.in/IAF0wWTdNYZm/movie/45320"},{"id":45319,"title":"Авиаторы","kp_id":"629749","imdb_id":"tt2329960","world_art_id":null,"type":"movie","add":"2020-11-15 12:28:48","orig_title":"Aviatory","year":"1990-01-01","translations":["Оригинальная дорожка"],"quality":"dvdrip","translation":"Оригинальная дорожка","update":"2020-11-17 11:43:12","iframe_src":"//8543.svetacdn.in/IAF0wWTdNYZm/movie/45319"},{"id":45318,"title":"Змей на чердаке","kp_id":"259950","imdb_id":"tt5911610","world_art_id":null,"type":"movie","add":"2020-11-15 12:26:32","orig_title":"Zmey na cherdake","year":"1983-03-07","translations":["Оригинальная дорожка"],"quality":"dvdrip","translation":"Оригинальная дорожка","update":"2020-11-17 11:42:06","iframe_src":"//8543.svetacdn.in/IAF0wWTdNYZm/movie/45318"},{"id":45317,"title":"Жильцы старого дома","kp_id":"278647","imdb_id":"tt0475620","world_art_id":null,"type":"movie","add":"2020-11-15 11:55:42","orig_title":"Zhiltsy starogo doma","year":"1987-01-01","translations":["Оригинальная дорожка"],"quality":"dvdrip","translation":"Оригинальная дорожка","update":"2020-11-17 11:41:17","iframe_src":"//8543.svetacdn.in/IAF0wWTdNYZm/movie/45317"},{"id":45316,"title":"Жадный Кузя","kp_id":"580746","imdb_id":"tt5879848","world_art_id":null,"type":"movie","add":"2020-11-15 11:53:48","orig_title":"Zhadnyy Kuzya","year":"1969-01-01","translations":["Оригинальная дорожка"],"quality":"dvdrip","translation":"Оригинальная дорожка","update":"2020-11-17 11:40:28","iframe_src":"//8543.svetacdn.in/IAF0wWTdNYZm/movie/45316"},{"id":45315,"title":"Веселый огород","kp_id":"260120","imdb_id":"tt6162498","world_art_id":null,"type":"movie","add":"2020-11-15 11:50:44","orig_title":"Vesyoliy ogorod","year":"1947-06-16","translations":["Оригинальная дорожка"],"quality":"dvdrip","translation":"Оригинальная дорожка","update":"2020-11-17 11:39:15","iframe_src":"//8543.svetacdn.in/IAF0wWTdNYZm/movie/45315"},{"id":45314,"title":"Трудолюбивая старушка","kp_id":"485387","imdb_id":null,"world_art_id":null,"type":"movie","add":"2020-11-15 11:47:59","orig_title":"Трудолюбивая старушка","year":"1986-01-01","translations":["Оригинальная дорожка"],"quality":"dvdrip","translation":"Оригинальная дорожка","update":"2020-11-17 11:37:54","iframe_src":"//8543.svetacdn.in/IAF0wWTdNYZm/movie/45314"},{"id":45313,"title":"Солдатская сказка","kp_id":"532877","imdb_id":"tt6052580","world_art_id":null,"type":"movie","add":"2020-11-15 11:43:29","orig_title":"Soldatskaya skazka","year":"1983-01-01","translations":["Оригинальная дорожка"],"quality":"dvdrip","translation":"Оригинальная дорожка","update":"2020-11-17 11:36:52","iframe_src":"//8543.svetacdn.in/IAF0wWTdNYZm/movie/45313"},{"id":45312,"title":"Солдатская сказка","kp_id":"489286","imdb_id":"tt9168202","world_art_id":null,"type":"movie","add":"2020-11-15 11:41:08","orig_title":"Soldatskaya skazka","year":"1980-01-01","translations":["Оригинальная дорожка"],"quality":"dvdrip","translation":"Оригинальная дорожка","update":"2020-11-17 11:35:41","iframe_src":"//8543.svetacdn.in/IAF0wWTdNYZm/movie/45312"},{"id":45311,"title":"Сердце храбреца","kp_id":"255161","imdb_id":"tt6970136","world_art_id":null,"type":"movie","add":"2020-11-15 11:38:34","orig_title":"Serdtse khrabretsa","year":"1951-07-16","translations":["Оригинальная дорожка"],"quality":"dvdrip","translation":"Оригинальная дорожка","update":"2020-11-17 11:34:38","iframe_src":"//8543.svetacdn.in/IAF0wWTdNYZm/movie/45311"},{"id":45310,"title":"Петя-петушок","kp_id":"818470","imdb_id":"tt7972506","world_art_id":null,"type":"movie","add":"2020-11-15 11:35:52","orig_title":"Petya-petushok","year":"1960-01-01","translations":["Оригинальная дорожка"],"quality":"dvdrip","translation":"Оригинальная дорожка","update":"2020-11-17 11:33:33","iframe_src":"//8543.svetacdn.in/IAF0wWTdNYZm/movie/45310"},{"id":45309,"title":"Муми-тролль и другие","kp_id":"104386","imdb_id":"tt0407023","world_art_id":null,"type":"movie","add":"2020-11-15 11:28:09","orig_title":"Mumi-troll i drugie","year":"1978-12-02","translations":["Оригинальная дорожка"],"quality":"dvdrip","translation":"Оригинальная дорожка","update":"2020-11-17 11:32:29","iframe_src":"//8543.svetacdn.in/IAF0wWTdNYZm/movie/45309"},{"id":6737,"title":"Волшебные холмы: Приключения Эльки и его друзей","kp_id":"255047","imdb_id":null,"world_art_id":null,"type":"serial","add":"2020-02-27 07:48:10","orig_title":"Volsebnie holmi: Priklycheniya Elki i ego druzey","year":"2005-01-01","translations":["Оригинальная дорожка"],"seasons_count":2,"episodes_count":20,"episodes":10,"update":"2020-02-27 18:44:30","iframe_src":"//8543.svetacdn.in/IAF0wWTdNYZm/tv-series/6737"},{"id":6736,"title":"Железный человек","kp_id":"402967","imdb_id":"tt0115218","world_art_id":null,"type":"serial","add":"2020-02-27 07:31:42","orig_title":"Iron Man","year":"1994-09-24","translations":["Полное дублирование"],"seasons_count":2,"episodes_count":26,"episodes":13,"update":"2020-02-27 17:14:56","iframe_src":"//8543.svetacdn.in/IAF0wWTdNYZm/tv-series/6736"},{"id":6734,"title":"Здравствуй, сестра","kp_id":"1330193","imdb_id":null,"world_art_id":null,"type":"serial","add":"2020-02-26 20:45:33","orig_title":"Здравствуй, сестра","year":"2019-10-20","translations":["Оригинальная дорожка"],"seasons_count":1,"episodes_count":4,"episodes":4,"update":"2020-02-27 12:48:45","iframe_src":"//8543.svetacdn.in/IAF0wWTdNYZm/tv-series/6734"},{"id":6733,"title":"Не приходи ко мне во сне","kp_id":"1338304","imdb_id":null,"world_art_id":null,"type":"serial","add":"2020-02-26 20:42:47","orig_title":"Не приходи ко мне во сне","year":"2019-10-20","translations":["Оригинальная дорожка"],"seasons_count":1,"episodes_count":4,"episodes":4,"update":"2020-02-27 12:50:56","iframe_src":"//8543.svetacdn.in/IAF0wWTdNYZm/tv-series/6733"},{"id":6731,"title":"Будь, что будет","kp_id":"1328569","imdb_id":null,"world_art_id":null,"type":"serial","add":"2020-02-26 20:14:33","orig_title":"Будь, что будет","year":"2019-10-19","translations":["Оригинальная дорожка"],"seasons_count":1,"episodes_count":4,"episodes":4,"update":"2020-02-27 13:03:31","iframe_src":"//8543.svetacdn.in/IAF0wWTdNYZm/tv-series/6731"},{"id":6728,"title":"BBC: Прогулки с монстрами. Жизнь до динозавров","kp_id":"258538","imdb_id":"tt0490048","world_art_id":null,"type":"serial","add":"2020-02-26 12:01:58","orig_title":"Walking with Monsters","year":"2005-11-05","translations":["Профессиональный (одноголосый закадровый)"],"seasons_count":1,"episodes_count":1,"episodes":1,"update":"2020-02-27 10:28:16","iframe_src":"//8543.svetacdn.in/IAF0wWTdNYZm/tv-series/6728"},{"id":6727,"title":"Трансформеры","kp_id":"400004","imdb_id":"tt1055335","world_art_id":null,"type":"serial","add":"2020-02-26 09:07:11","orig_title":"Transformers: Animated","year":"2007-12-26","translations":["Полное дублирование","Любительский (одноголосый закадровый)"],"seasons_count":3,"episodes_count":42,"episodes":13,"update":"2020-02-27 12:25:33","iframe_src":"//8543.svetacdn.in/IAF0wWTdNYZm/tv-series/6727"},{"id":6726,"title":"Макс. Динотерра","kp_id":"839877","imdb_id":"tt2996126","world_art_id":null,"type":"serial","add":"2020-02-26 04:53:22","orig_title":"Max Adventures: Dinoterra","year":"2013-06-06","translations":["Полное дублирование"],"seasons_count":1,"episodes_count":22,"episodes":22,"update":"2020-02-27 08:12:05","iframe_src":"//8543.svetacdn.in/IAF0wWTdNYZm/tv-series/6726"},{"id":6724,"title":"Бык и Шпиндель","kp_id":"885330","imdb_id":"tt4868366","world_art_id":null,"type":"serial","add":"2020-02-25 15:18:24","orig_title":"Byk i Shpindel","year":"2015-01-30","translations":["Оригинальная дорожка"],"seasons_count":1,"episodes_count":4,"episodes":4,"update":"2020-02-26 10:20:51","iframe_src":"//8543.svetacdn.in/IAF0wWTdNYZm/tv-series/6724"},{"id":6712,"title":"Мужчины в деле","kp_id":"679843","imdb_id":"tt1942919","world_art_id":null,"type":"serial","add":"2020-02-22 20:40:42","orig_title":"Men at Work","year":"2012-05-24","translations":["Любительский (многоголосый закадровый) (Несмертельное оружие)"],"seasons_count":3,"episodes_count":30,"episodes":10,"update":"2020-02-25 20:30:41","iframe_src":"//8543.svetacdn.in/IAF0wWTdNYZm/tv-series/6712"},{"id":6689,"title":"Хулиганы и ботаны","kp_id":"401639","imdb_id":"tt0193676","world_art_id":null,"type":"serial","add":"2020-02-20 09:30:29","orig_title":"Freaks and Geeks","year":"1999-09-25","translations":["Профессиональный (многоголосый закадровый)"],"seasons_count":1,"episodes_count":18,"episodes":18,"update":"2020-02-26 16:30:34","iframe_src":"//8543.svetacdn.in/IAF0wWTdNYZm/tv-series/6689"},{"id":6678,"title":"Черный лес","kp_id":"1004802","imdb_id":"tt4093912","world_art_id":null,"type":"serial","add":"2020-02-18 17:25:19","orig_title":"Serramoura","year":"2014-10-05","translations":["Профессиональный (многоголосый закадровый) (Sony Sci-Fi)","Профессиональный (многоголосый закадровый) (Sony Channel)"],"seasons_count":2,"episodes_count":39,"episodes":15,"update":"2020-02-26 06:58:38","iframe_src":"//8543.svetacdn.in/IAF0wWTdNYZm/tv-series/6678"},{"id":6631,"title":"Птичья песня","kp_id":"612266","imdb_id":"tt1127876","world_art_id":null,"type":"serial","add":"2020-02-13 17:35:16","orig_title":"Birdsong","year":"2012-01-22","translations":["Профессиональный (многоголосый закадровый) (BaibaKo)"],"seasons_count":1,"episodes_count":2,"episodes":2,"update":"2020-02-25 18:28:11","iframe_src":"//8543.svetacdn.in/IAF0wWTdNYZm/tv-series/6631"},{"id":6569,"title":"Хи-Мэн и Властелины Вселенной","kp_id":"229750","imdb_id":"tt0126158","world_art_id":null,"type":"serial","add":"2020-02-05 18:25:47","orig_title":"He-Man and the Masters of the Universe","year":"1983-09-26","translations":["Профессиональный (двухголосый закадровый)","Профессиональный (многоголосый закадровый)"],"seasons_count":2,"episodes_count":103,"episodes":65,"update":"2020-02-25 18:53:03","iframe_src":"//8543.svetacdn.in/IAF0wWTdNYZm/tv-series/6569"},{"id":6488,"title":"Джастин Бибер: Сезоны","kp_id":null,"imdb_id":"tt11534192","world_art_id":null,"type":"serial","add":"2020-01-28 10:27:26","orig_title":"Justin Bieber: Seasons","year":"2020-01-27","translations":["Любительский (многоголосый закадровый) (ColdFilm)"],"seasons_count":1,"episodes_count":10,"episodes":10,"update":"2020-02-26 22:51:02","iframe_src":"//8543.svetacdn.in/IAF0wWTdNYZm/tv-series/6488"},{"id":3393,"title":"Мой маленький пони: Дружба - это чудо","kp_id":"585100","imdb_id":"tt1751105","world_art_id":null,"type":"serial","add":"2018-10-26 09:43:28","orig_title":"My Little Pony: Friendship Is Magic","year":"2012-01-02","translations":["Полное дублирование","Полное дублирование (СВ-Дубль)"],"seasons_count":9,"episodes_count":221,"episodes":26,"update":"2020-02-27 14:56:38","iframe_src":"//8543.svetacdn.in/IAF0wWTdNYZm/tv-series/3393"},{"id":1932,"title":"МакМафия","kp_id":"1045197","imdb_id":"tt6271042","world_art_id":null,"type":"serial","add":"2018-01-09 05:46:04","orig_title":"McMafia","year":"2018-01-01","translations":["Профессиональный (многоголосый закадровый) (SDI Media)","Профессиональный (многоголосый закадровый) (LostFilm)","Профессиональный (многоголосый закадровый) (HDrezka Studio)"],"seasons_count":1,"episodes_count":8,"episodes":8,"update":"2020-02-25 19:45:15","iframe_src":"//8543.svetacdn.in/IAF0wWTdNYZm/tv-series/1932"},{"id":1086,"title":"Диета из Санта-Клариты","kp_id":"1008346","imdb_id":"tt5580540","world_art_id":null,"type":"serial","add":"2017-03-08 03:58:15","orig_title":"Santa Clarita Diet","year":"2017-02-03","translations":["Профессиональный (многоголосый закадровый) (NewStudio)","Профессиональный (многоголосый закадровый) (IdeaFilm)","Профессиональный (многоголосый закадровый) (Netflix)"],"seasons_count":3,"episodes_count":30,"episodes":10,"update":"2020-02-26 07:10:46","iframe_src":"//8543.svetacdn.in/IAF0wWTdNYZm/tv-series/1086"},{"id":680,"title":"Агата Рейзин","kp_id":"932339","imdb_id":"tt5015548","world_art_id":null,"type":"serial","add":"2016-12-12 13:54:53","orig_title":"Agatha Raisin","year":"2016-06-07","translations":["Профессиональный (многоголосый закадровый) (ViruseProject)","Любительский (многоголосый закадровый) (ColdFilm)","Любительский (многоголосый закадровый) (Octopus)","Профессиональный (многоголосый закадровый) (TVShows)"],"seasons_count":3,"episodes_count":18,"episodes":7,"update":"2020-02-25 15:06:48","iframe_src":"//8543.svetacdn.in/IAF0wWTdNYZm/tv-series/680"},{"id":170,"title":"Виндзоры","kp_id":"982724","imdb_id":"tt5692740","world_art_id":null,"type":"serial","add":"2016-06-09 13:33:50","orig_title":"The Windsors","year":"2016-05-06","translations":["Любительский (двухголосый закадровый) (Sunshine Studio)","Любительский (многоголосый закадровый) (Octopus)","Любительский (многоголосый закадровый) (ColdFilm)"],"seasons_count":2,"episodes_count":12,"episodes":6,"update":"2020-02-27 04:36:31","iframe_src":"//8543.svetacdn.in/IAF0wWTdNYZm/tv-series/170"}],"current_page":225,"first_page_url":"https://videocdn.tv/api/short?limit=100&api_token=6Onb1W1alEUrBcKJZD3GoKBbWyAl2uG2&cache3225=3225&page=1","from":22401,"last_page":599,"last_page_url":"https://videocdn.tv/api/short?limit=100&api_token=6Onb1W1alEUrBcKJZD3GoKBbWyAl2uG2&cache3225=3225&page=599","next_page_url":"https://videocdn.tv/api/short?limit=100&api_token=6Onb1W1alEUrBcKJZD3GoKBbWyAl2uG2&cache3225=3225&page=226","path":"https://videocdn.tv/api/short","per_page":100,"prev_page_url":"https://videocdn.tv/api/short?limit=100&api_token=6Onb1W1alEUrBcKJZD3GoKBbWyAl2uG2&cache3225=3225&page=224","to":22440,"total":59825}