{"result":true,"data":[{"id":27999,"title":"Лучшие планы","kp_id":"997471","imdb_id":"tt5838376","world_art_id":null,"type":"movie","add":"2019-06-18 21:45:28","orig_title":"The Best Laid Plans","year":"2019-03-01","translations":["Любительский (многоголосый закадровый) (Синема УС)"],"quality":"webdl","translation":"Любительский (многоголосый закадровый) (Синема УС)","update":"2019-06-19 05:41:03","iframe_src":"//7043.svetacdn.in/si4jsFRrtgrT/movie/27999"},{"id":27998,"title":"Двенадцать","kp_id":"1072510","imdb_id":"tt6657486","world_art_id":null,"type":"movie","add":"2019-06-18 21:43:38","orig_title":"The 12","year":"2017-11-30","translations":["Любительский (многоголосый закадровый) (Синема УС)"],"quality":"webdl","translation":"Любительский (многоголосый закадровый) (Синема УС)","update":"2019-06-19 05:42:30","iframe_src":"//7043.svetacdn.in/si4jsFRrtgrT/movie/27998"},{"id":27997,"title":"Семейная фотография","kp_id":"1043680","imdb_id":"tt6665904","world_art_id":null,"type":"movie","add":"2019-06-18 21:41:36","orig_title":"Photo de famille","year":"2018-08-22","translations":["Любительский (многоголосый закадровый) (Синема УС)"],"quality":"bd","translation":"Любительский (многоголосый закадровый) (Синема УС)","update":"2019-06-19 05:44:32","iframe_src":"//7043.svetacdn.in/si4jsFRrtgrT/movie/27997"},{"id":27996,"title":"Мои демоны не гнушаются одиночества","kp_id":"924780","imdb_id":"tt4828018","world_art_id":null,"type":"movie","add":"2019-06-18 21:36:46","orig_title":"Mis demonios nunca juraron soledad","year":"2017-11-09","translations":["Любительский (многоголосый закадровый) (Колобок)"],"quality":"webdl","translation":"Любительский (многоголосый закадровый) (Колобок)","update":"2019-06-19 05:48:19","iframe_src":"//7043.svetacdn.in/si4jsFRrtgrT/movie/27996"},{"id":27995,"title":"Убойный уикенд","kp_id":"1080161","imdb_id":"tt6732748","world_art_id":null,"type":"movie","add":"2019-06-18 21:34:57","orig_title":"Fubar","year":"2018-08-25","translations":["Любительский (многоголосый закадровый) (Синема УС)"],"quality":"webdl","translation":"Любительский (многоголосый закадровый) (Синема УС)","update":"2019-06-19 05:49:08","iframe_src":"//7043.svetacdn.in/si4jsFRrtgrT/movie/27995"},{"id":27976,"title":"Однажды в Америке или чисто русская сказка","kp_id":"1228534","imdb_id":"tt10446882","world_art_id":null,"type":"movie","add":"2019-06-18 16:21:50","orig_title":"Odnazhdy v Amerike ili chisto russkaya skazka","year":"2019-05-30","translations":["Оригинальная дорожка"],"quality":"webdl","translation":"Оригинальная дорожка","update":"2019-06-19 05:54:18","iframe_src":"//7043.svetacdn.in/si4jsFRrtgrT/movie/27976"},{"id":27965,"title":"Марихуана для людей","kp_id":"1136944","imdb_id":"tt7968976","world_art_id":null,"type":"movie","add":"2019-06-18 09:59:14","orig_title":"Weed the People","year":"2018-03-11","translations":["Любительский (многоголосый закадровый) (Синема УС)"],"quality":"webdl","translation":"Любительский (многоголосый закадровый) (Синема УС)","update":"2019-06-19 06:55:26","iframe_src":"//7043.svetacdn.in/si4jsFRrtgrT/movie/27965"},{"id":27959,"title":"Холодная синева","kp_id":"1182186","imdb_id":"tt8693770","world_art_id":null,"type":"movie","add":"2019-06-18 09:45:46","orig_title":"The Cold Blue","year":"2018-06-17","translations":["Любительский (многоголосый закадровый) (Синема УС)"],"quality":"webdl","translation":"Любительский (многоголосый закадровый) (Синема УС)","update":"2019-06-19 06:57:40","iframe_src":"//7043.svetacdn.in/si4jsFRrtgrT/movie/27959"},{"id":27956,"title":"Одиночки","kp_id":"1022087","imdb_id":"tt5669056","world_art_id":null,"type":"movie","add":"2019-06-18 09:39:53","orig_title":"Loners","year":"2018-08-02","translations":["Любительский (многоголосый закадровый) (Синема УС)"],"quality":"webdl","translation":"Любительский (многоголосый закадровый) (Синема УС)","update":"2019-06-19 06:59:58","iframe_src":"//7043.svetacdn.in/si4jsFRrtgrT/movie/27956"},{"id":27951,"title":"Русский путь","kp_id":"1164090","imdb_id":null,"world_art_id":null,"type":"movie","add":"2019-06-18 09:28:52","orig_title":"Русский путь","year":"2018-01-01","translations":["Оригинальная дорожка"],"quality":"webdl","translation":"Оригинальная дорожка","update":"2019-06-19 07:01:17","iframe_src":"//7043.svetacdn.in/si4jsFRrtgrT/movie/27951"},{"id":27950,"title":"Rolling Thunder Revue: История Боба Дилана Мартина Скорсезе","kp_id":"1269607","imdb_id":"tt9577852","world_art_id":null,"type":"movie","add":"2019-06-18 09:27:36","orig_title":"Rolling Thunder Revue: A Bob Dylan Story by Martin Scorsese","year":"2019-06-11","translations":["Любительский (многоголосый закадровый) (Синема УС)"],"quality":"webdl","translation":"Любительский (многоголосый закадровый) (Синема УС)","update":"2019-06-19 06:05:33","iframe_src":"//7043.svetacdn.in/si4jsFRrtgrT/movie/27950"},{"id":27949,"title":"Тихая буря: История Рона Артеста","kp_id":"1234958","imdb_id":"tt9675192","world_art_id":null,"type":"movie","add":"2019-06-18 09:26:14","orig_title":"Quiet Storm: The Ron Artest Story","year":"2019-02-17","translations":["Любительский (многоголосый закадровый) (Синема УС)"],"quality":"webdl","translation":"Любительский (многоголосый закадровый) (Синема УС)","update":"2019-06-19 06:06:38","iframe_src":"//7043.svetacdn.in/si4jsFRrtgrT/movie/27949"},{"id":27947,"title":"Жизнь после Флэша","kp_id":null,"imdb_id":"tt4917554","world_art_id":null,"type":"movie","add":"2019-06-18 09:21:32","orig_title":"Life After Flash","year":"2019-03-05","translations":["Любительский (многоголосый закадровый) (Синема УС)"],"quality":"webdl","translation":"Любительский (многоголосый закадровый) (Синема УС)","update":"2019-06-19 06:14:49","iframe_src":"//7043.svetacdn.in/si4jsFRrtgrT/movie/27947"},{"id":27946,"title":"После Марии","kp_id":null,"imdb_id":"tt10136680","world_art_id":null,"type":"movie","add":"2019-06-18 09:17:01","orig_title":"After Maria","year":"2019-05-24","translations":["Любительский (многоголосый закадровый) (Синема УС)"],"quality":"webdl","translation":"Любительский (многоголосый закадровый) (Синема УС)","update":"2019-06-19 06:19:58","iframe_src":"//7043.svetacdn.in/si4jsFRrtgrT/movie/27946"},{"id":27945,"title":"5 евро","kp_id":"1210371","imdb_id":"tt8629782","world_art_id":null,"type":"movie","add":"2019-06-18 09:15:06","orig_title":"5 euros","year":"2019-03-17","translations":["Любительский (одноголосый закадровый)"],"quality":"hdtv","translation":"Любительский (одноголосый закадровый)","update":"2019-06-19 06:20:51","iframe_src":"//7043.svetacdn.in/si4jsFRrtgrT/movie/27945"},{"id":27925,"title":"Пробудившийся от гипнопедии","kp_id":"1008462","imdb_id":"tt5999588","world_art_id":null,"type":"movie","add":"2019-06-18 00:05:55","orig_title":"Jimunopedi ni midareru","year":"2016-10-07","translations":["Любительский (многоголосый закадровый) (Синема УС)"],"quality":"bd","translation":"Любительский (многоголосый закадровый) (Синема УС)","update":"2019-06-19 06:33:18","iframe_src":"//7043.svetacdn.in/si4jsFRrtgrT/movie/27925"},{"id":26315,"title":"Супергерои","kp_id":"1236084","imdb_id":"tt8860786","world_art_id":null,"type":"movie","add":"2019-05-11 19:45:43","orig_title":"Rise of the Superheroes","year":"2019-05-02","translations":["Профессиональный (многоголосый закадровый)"],"quality":"webdl","translation":"Профессиональный (многоголосый закадровый)","update":"2019-06-19 05:59:44","iframe_src":"//7043.svetacdn.in/si4jsFRrtgrT/movie/26315"},{"id":18352,"title":"Американские домашние животные","kp_id":"1092733","imdb_id":"tt6557356","world_art_id":null,"type":"movie","add":"2018-08-16 22:23:06","orig_title":"American Pets","year":"2018-07-11","translations":["Профессиональный (многоголосый закадровый)"],"quality":"bd","translation":"Профессиональный (многоголосый закадровый)","update":"2019-06-19 05:45:48","iframe_src":"//7043.svetacdn.in/si4jsFRrtgrT/movie/18352"},{"id":17254,"title":"Тетя Маша","kp_id":"1161836","imdb_id":null,"world_art_id":null,"type":"movie","add":"2018-06-19 23:55:44","orig_title":"Тетя Маша","year":"2018-06-18","translations":["Оригинальная дорожка"],"quality":"webdl","translation":"Оригинальная дорожка","update":"2019-06-19 06:53:53","iframe_src":"//7043.svetacdn.in/si4jsFRrtgrT/movie/17254"},{"id":947,"title":"Взорвать Гитлера","kp_id":"625866","imdb_id":"tt1708135","world_art_id":null,"type":"movie","add":"2016-04-11 11:25:27","orig_title":"Elser","year":"2015-02-12","translations":["Полное дублирование"],"quality":"bd","translation":"Полное дублирование","update":"2019-06-19 05:51:44","iframe_src":"//7043.svetacdn.in/si4jsFRrtgrT/movie/947"}],"current_page":1291,"first_page_url":"https://videocdn.tv/api/short?limit=100&api_token=X6EwAUfE5M9xbo7y0Bp0aPf3uXxG2KLL&cache31291=31291&page=1","from":129001,"last_page":618,"last_page_url":"https://videocdn.tv/api/short?limit=100&api_token=X6EwAUfE5M9xbo7y0Bp0aPf3uXxG2KLL&cache31291=31291&page=618","next_page_url":null,"path":"https://videocdn.tv/api/short","per_page":100,"prev_page_url":"https://videocdn.tv/api/short?limit=100&api_token=X6EwAUfE5M9xbo7y0Bp0aPf3uXxG2KLL&cache31291=31291&page=1290","to":129020,"total":61758}